Class_1_Relax_eyes_closed/Class_1_Relax_eyes_closed_Suko_5.csv

#Digilent WaveForms Oscilloscope Acquisition
#Device Name: EExplorer
#Serial Number: SN:210151A2B84A
#Date Time: 2020-12-21 15:32:06.609
#Sample rate: 2000Hz
#Samples: 16384
#Trigger: Source: Channel 1 Type: Edge Condition: Rising Level: 0 V Hyst.: Auto HoldOff: 0 s
#Channel 1: Range: 1 V/div Offset: 0 V
#Channel 2: Range: 1 V/div Offset: 0 V

Time (s),Channel 1 (V),Channel 2 (V)
-4.0960000000000001,-1.9278877884686634,0.20342608738849466
-4.0955000000000004,-1.0529334501394827,-0.69728817704991797
-4.0949999999999998,-0.19931946152353208,-1.3648763965765842
-4.0945,0.3982103305061524,-1.6933721871364757
-4.0940000000000003,0.71831557623634046,-1.7251621023519492
-4.0934999999999997,0.85702784938673893,-1.6297923567053265
-4.093,1.1131120459708892,-1.4708427806279598
-4.0925000000000002,1.3051751934090021,-1.205926820499015
-4.0919999999999996,1.3585260676975319,-0.82444783791241871
-4.0914999999999999,1.2945050185514941,-0.4641621321370536
-4.0910000000000002,1.1024418711132067,-0.34759910968021185
-4.0904999999999996,0.99574012253665189,-0.2310360872229846
-4.0899999999999999,1.2945050185514941,0.19282944898332721
-4.0895000000000001,0.88903837395955376,0.69087145402619654
-4.0890000000000004,-0.11395806266170228,1.0617537982067196
-4.0884999999999998,-1.1062843244271001,1.2842832047155728
-4.0880000000000001,-1.7678351656034239,1.3690563119569124
-4.0875000000000004,-1.5224211438769462,0.98757732937123166
-4.0869999999999997,-0.83952995298445166,0.28819919462929444
-4.0865,-0.19931946152407554,-0.30521255605954212
-4.0860000000000003,0.22748753278284189,-0.63370834661943376
-4.0854999999999997,0.46223137965233552,-0.72907809226618159
-4.085,0.55826295337139209,-0.66549826183523486
-4.0845000000000002,0.54759277851371901,-0.45356549373207899
-4.0839999999999996,0.49424190422523789,-0.040296595930096095
-4.0834999999999999,0.43022085507920033,0.24581264100916439
-4.0830000000000002,0.3768699807907871,0.46834204751768049
-4.0824999999999996,0.21681735792504286,0.62729162359540402
-4.0819999999999999,-0.33803173467394987,0.86041766850887547
-4.0815000000000001,-1.0956141495694174,1.0935437134225592
-4.0810000000000004,-1.6397930673107373,1.2524932894999259
-4.0804999999999998,-2.1306211107646336,1.33726639674141
-4.0800000000000001,-2.5040772307835262,1.3160731199310751
-4.0795000000000003,-2.3333544330607592,0.7756445612680275
-4.0789999999999997,-1.4690702695874462,-0.17805289519835213
-4.0785,-0.51942470725455481,-1.0787671596367647
-4.0780000000000003,0.22748753278255074,-1.6721789103256013
-4.0774999999999997,0.66496470194839297,-1.9370948704552688
-4.077,0.857027849386506,-1.8735150400243223
-4.0765000000000002,1.0170804722515998,-1.4920360574386415
-4.0759999999999996,1.2198137945476379,-0.9728007755849073
-4.0754999999999999,1.1344523956862547,-0.77146464588690922
-4.0750000000000002,1.006410297394063,-0.68669153864556975
-4.0744999999999996,0.88903837395945673,-0.61251506980927239
-4.0739999999999998,0.78233662538272752,-0.47475877054222104
-4.0735000000000001,1.0490909968247935,-0.04029659593035631
-4.0730000000000004,0.96372959796341007,0.5213252395430068
-4.0724999999999998,0.11011560934872107,0.96638405256054982
-4.0720000000000001,-0.73282820440820751,1.241896651094903
-4.0715000000000003,-1.2876772970072006,1.3796529503619546
-4.0709999999999997,-1.148965023857355,1.1359302670426599
-4.0705,-0.62612645583138127,0.51072860113835017
-4.0700000000000003,-0.10328788780540721,-0.02969995752469734
-4.0694999999999997,0.25949805735645276,-0.3370024712751023
-4.069,0.45156120479456557,-0.40058230170604903
-4.0685000000000002,0.53692260365602662,-0.29461591765437467
-4.0679999999999996,0.54759277851366084,-0.1144730647662585
-4.0674999999999999,0.49424190422529612,0.18223281057815977
-4.0670000000000002,0.41955068022151765,0.51072860113835017
-4.0664999999999996,0.37686998079070944,0.71206473083665667
-4.0659999999999998,0.29150858192932599,0.84982103010370802
-4.0655000000000001,0.078105084775673142,0.97698069096571727
-4.0650000000000004,-0.50875453239633828,1.1041403518276109
-4.0644999999999998,-1.0636036249963696,1.2207033742845681
-4.0640000000000001,-1.5437614935920885,1.2948798431207402
-4.0635000000000003,-1.9919088376143517,1.2948798431207402
-4.0629999999999997,-2.1412912856217341,0.95578741415460178
-4.0625,-1.5010807941613578,0.097459703336820316
-4.0620000000000003,-0.63679663068984982,-0.70788481545517212
-4.0614999999999997,0.056764735060705743,-1.2801032893352542
-4.0609999999999999,0.49424190422529612,-1.6191957183003036
-4.0605000000000002,0.72898575109431429,-1.7357587407571455
-4.0599999999999996,0.8783681991021236,-1.6615822719205975
-4.0594999999999999,1.1557927454016199,-1.2483133741194434
-4.0590000000000002,1.1451225705439372,-1.0787671596367647
-4.0585000000000004,1.027750647109535,-0.99399405239550243
-4.0579999999999998,0.91037872367491923,-0.88802766834375091
-4.0575000000000001,0.78233662538272752,-0.77146464588690922
-4.0570000000000004,0.89970854881712969,-0.46416213213733309
-4.0564999999999998,1.2091436196900331,0.11865298014715518
-4.056,0.54759277851370936,0.69087145402619654
-4.0555000000000003,-0.44473348324987383,1.0829470750170351
-4.0549999999999997,-1.3837088707274601,1.3054764815259945
-4.0545,-2.0559298867608553,1.4008462271724147
-4.0540000000000003,-1.757164990746013,1.1041403518279964
-4.0534999999999997,-0.97824222613426792,0.45774540911200223
-4.0529999999999999,-0.27401068552785401,-0.10387642636136091
-4.0525000000000002,0.20614718306786484,-0.40058230170604903
-4.0519999999999996,0.46223137965234523,-0.46416213213695723
-4.0514999999999999,0.5689331282290746,-0.3581957480853793
-4.0510000000000002,0.5689331282290746,-0.11447306476652835
-4.0505000000000004,0.47290155451001825,0.27760255622431007
-4.0499999999999998,0.3982103305061524,0.5637117931641874
-4.0495000000000001,0.32351910650237387,0.7968378380778709
-4.0490000000000004,0.17413665849495277,0.95578741415523782
-4.0484999999999998,-0.41272295867837855,1.0935437134226749
-4.048,-1.1276246741424654,1.2207033742845681
-4.0475000000000003,-1.6184527175954204,1.2948798431206727
-4.0469999999999997,-1.7464948158879616,1.2101067358789477
-4.0465,-1.6397930673112322,0.71206473083653143
-4.0460000000000003,-1.1916457232889686,-0.16745625679156562
-4.0454999999999997,-0.49808435753859753,-0.94101086037003145
-4.0449999999999999,0.15279630877945163,-1.42845622700729
-4.0445000000000002,0.57960330308675734,-1.6933721871364757
-4.0439999999999996,0.79300680024046821,-1.7675486559725997
-4.0434999999999999,0.857027849386506,-1.7145654639468106
-4.0430000000000001,1.0277506471094282,-1.5450192494641319
-4.0425000000000004,1.0490909968247741,-1.237716735714556
-4.0419999999999998,0.94238924824796699,-0.9304142219644207
-4.0415000000000001,0.82501732481345802,-0.66549826183523486
-4.0410000000000004,0.72898575109440167,-0.45356549373207899
-4.0404999999999998,0.73965592595239471,-0.19924617200742448
-4.04,1.1771330951169852,0.28819919462983412
-4.0395000000000003,0.8570278493867971,0.77564456126709269
-4.0389999999999997,-0.039266838659515226,1.1147369902329711
-4.0385,-0.78617907869662074,1.1995100974742332
-4.0380000000000003,-1.5010807941607076,1.2418966510948644
-4.0374999999999996,-1.6931439415991407,1.1359302670427178
-4.0369999999999999,-1.1382948490001481,0.57430843156935485
-4.0365000000000002,-0.46607383296614152,-0.050893234335523743
-4.0359999999999996,0.056764735060598995,-0.46416213213720781
-4.0354999999999999,0.3768699807907871,-0.63370834661973252
-4.0350000000000001,0.52625242879834411,-0.61251506980939763
-4.0345000000000004,0.558262953371363,-0.44296885532687297
-4.0339999999999998,0.4835717293676135,-0.061489872740691176
-4.0335000000000001,0.31284893164469124,0.45774540911251305
-4.0330000000000004,0.16346648363727015,0.80743447648272038
-4.0324999999999998,0.046094560202314672,0.93459413734518237
-4.032,-0.29535103524321932,1.0829470750173917
-4.0315000000000003,-0.94623170156126846,1.210106735879285
-4.0309999999999997,-1.5010807941616391,1.2948798431207016
-4.0305,-1.8105158650341544,1.2524932895000704
-4.0300000000000002,-1.9598983130415755,1.1041403518278616
-4.0294999999999996,-1.7358246410297353,0.47893868592209615
-4.0289999999999999,-1.0315931004233216,-0.34759910968021185
-4.0285000000000002,-0.24200016095480609,-0.87743102993858346
-4.0279999999999996,0.34485945621803032,-1.068170521231578
-4.0274999999999999,0.66496470194821833,-1.0469772444212624
-4.0270000000000001,0.81434714995577528,-0.96220413717992292
-4.0265000000000004,0.9850699476785425,-0.803254561102556
-4.0259999999999998,1.1237822208285719,-0.63370834661973252
-4.0255000000000001,1.0384208219671107,-0.4641621321370536
-4.0250000000000004,0.88903837395968965,-0.29461591765452888
-4.0244999999999997,0.7609962756672749,-0.14626297998190535
-4.024,0.66496470194821833,-0.0085066807148540119
-4.0235000000000003,0.88903837395934993,0.30939247143987986
-4.0229999999999997,0.91037872367416228,0.72266136924199764
-4.0225,0.078105084775673142,1.0511571598018894
-4.0220000000000002,-0.88221065241489105,1.2524932894998873
-4.0214999999999996,-1.7038141164574347,1.3478630351465293
-4.0209999999999999,-1.8211860398918371,1.2948798431207402
-4.0205000000000002,-1.1809755484308786,0.86041766850887547
-4.0199999999999996,-0.46607383296564658,0.19282944898279714
-4.0194999999999999,0.078105084775673142,-0.38998566330088158
-4.0190000000000001,0.38754015564846972,-0.73967473067140688
-4.0185000000000004,0.53692260365589073,-0.87743102993845823
-4.0179999999999998,0.57960330308675734,-0.84564111472308123
-4.0175000000000001,0.55826295337139209,-0.6972881770507372
-4.0170000000000003,0.51558225394070023,-0.40058230170631887
-4.0164999999999997,0.4515612047944394,0.17163617217348387
-4.016,0.31284893164469124,0.71206473083653143
-4.0155000000000003,0.0034138607721760916,1.0829470750170545
-4.0149999999999997,-0.69014750497803012,1.2948798431208077
-4.0145,-1.2983474718653876,1.3690563119569124
-4.0140000000000002,-1.6718035918839402,1.3690563119569124
-4.0134999999999996,-1.8852070890380201,1.3054764815255799
-4.0129999999999999,-1.9812386627570766,0.94519077575021493
-4.0125000000000002,-1.6077825427381842,0.16103953376782493
-4.0119999999999996,-0.90355100213044093,-0.51714532416316072
-4.0114999999999998,-0.14596858723566233,-0.81385119950757889
-4.0110000000000001,0.41955068022151765,-0.85623775312824868
-4.0105000000000004,0.76099627566705175,-0.85623775312824868
-4.0099999999999998,0.93171907339028448,-0.71848145386107198
-4.0095000000000001,1.1878032699746677,-0.44296885532671876
-4.0090000000000003,1.155792745401649,-0.31580919446482525
-4.0084999999999997,0.98506994767854239,-0.26282600243881454
-4.008,0.81434714995577528,-0.19924617200786782
-4.0075000000000003,0.68630505166370026,-0.13566634157692103
-4.0069999999999997,0.80367697509851976,0.04447651131134938
-4.0065,1.2731646688361289,0.4471487707073456
-4.0060000000000002,0.75032610080967954,0.86041766850887547
-4.0054999999999996,-0.20998963638259274,1.1359302670433538
-4.0049999999999999,-1.1276246741424654,1.2736865663104053
-4.0045000000000002,-1.618452717595867,1.2842832047155728
-4.0039999999999996,-1.2663369472917576,0.79683783807722519
-4.0034999999999998,-0.62612645583138127,0.086863064931652884
-4.0030000000000001,-0.06060718837420119,-0.4641621321370536
-4.0025000000000004,0.30217875678667866,-0.76086800748147199
-4.0019999999999998,0.49424190422529612,-0.83504447631791379
-4.0015000000000001,0.55826295337139209,-0.77146464588690922
-4.0010000000000003,0.54759277851371901,-0.59132179299922671
-4.0004999999999997,0.49424190422523789,-0.28401927924889886
-4,0.43022085507920033,0.055073149716150585
-3.9994999999999998,0.34485945621773917,0.34118238665567124
-3.9990000000000001,0.19547700821018218,0.63788826200035942
-3.9984999999999999,-0.35937208438931517,0.90280422212954525
-3.9980000000000002,-1.0529334501386869,1.1253336286380615
-3.9975000000000001,-1.5117509690190405,1.2524932895000704
-3.9969999999999999,-1.6824737667419627,1.1571235438535634
-3.9965000000000002,-1.6931439415996454,0.68027481562102909
-3.996,-1.2983474718653876,-0.28401927924920728
-3.9954999999999998,-0.57277558154296804,-1.0787671596367647
-3.9950000000000001,0.078105084775673142,-1.5450192494641319
-3.9944999999999999,0.52625242879834411,-1.6933721871364757
-3.9940000000000002,0.77166645052504479,-1.5450192494641319
-3.9935,0.86769802424418851,-1.2377167357142764
-3.9929999999999999,1.0704313465401587,-0.88802766834375091
-3.9925000000000002,1.1664629202593024,-0.59132179299906285
-3.992,1.1451225705439372,-0.40058230170604903
-3.9914999999999998,0.97439977282101498,-0.36879238649054674
-3.9910000000000001,0.79300680024041004,-0.37938902489571413
-3.9904999999999999,0.71831557623663156,-0.31580919446470956
-3.9900000000000002,1.1344523956862547,0.055073149716150585
-3.9895,0.99574012253638022,0.55311515475901996
-3.9889999999999999,0.046094560202625215,0.94519077575021493
-3.9885000000000002,-0.90355100213112993,1.1147369902328941
-3.988,-1.7038141164573279,1.2313000126897355
-3.9874999999999998,-1.7464948158880587,1.0723504366122243
-3.9870000000000001,-1.0956141495694174,0.48953532432801533
-3.9864999999999999,-0.40205278382004572,-0.14626297998203064
-3.9860000000000002,0.11011560934872107,-0.57012851618872795
-3.9855,0.40888050536383502,-0.75027136907657432
-3.9849999999999999,0.54759277851370936,-0.75027136907657432
-3.9845000000000002,0.5689331282290746,-0.60191843140423029
-3.984,0.49424190422529612,-0.22043944881820265
-3.9834999999999998,0.40888050536383502,0.18223281057815977
-3.9830000000000001,0.38754015564846972,0.41535885549184332
-3.9824999999999999,0.23815770764091276,0.70146809243136399
-3.9820000000000002,-0.17797911180871023,0.97698069096571727
-3.9815,-0.8928808272734472,1.1783168206638983
-3.9809999999999999,-1.4157193952998968,1.2948798431207402
-3.9805000000000001,-1.7144842913150107,1.3266697583362426
-3.98,-2.0559298867608553,1.2948798431207402
-3.9794999999999998,-2.0986105861915858,0.76504792286236856
-3.9790000000000001,-1.5757720181651362,-0.18864953360270037
-3.9784999999999999,-0.77550890383893822,-0.96220413717992292
-3.9780000000000002,-0.028596663801153277,-1.4178595886021226
-3.9775,0.49424190422529612,-1.5556158878692994
-3.9769999999999999,0.76099627566736228,-1.3966663117917877
-3.9765000000000001,0.97439977282101498,-1.2377167357142764
-3.976,1.2731646688361289,-0.99399405239542526
-3.9754999999999998,1.3478558928399074,-0.6972881770507372
-3.9750000000000001,1.1984734448323504,-0.48535540894738849
-3.9744999999999999,0.98506994767869771,-0.30521255605954212
-3.9740000000000002,0.80367697509809277,-0.15685961838719809
-3.9735,1.006410297394063,0.16103953376782493
-3.9729999999999999,1.0384208219671107,0.61669498519002452
-3.9725000000000001,0.19547700821018218,0.98757732937088472
-3.972,-0.81818960326966872,1.2207033742845681
-3.9714999999999998,-1.5971123678805015,1.3478630351465775
-3.9710000000000001,-1.5651018433074537,1.2630899279052379
-3.9704999999999999,-0.95690187641954316,0.84982103010370802
-3.9700000000000002,-0.31669138495858457,0.25640927941433178
-3.9695,0.16346648363713429,-0.32640583286987701
-3.9689999999999999,0.43022085507920033,-0.6972881770507372
-3.9685000000000001,0.54759277851370936,-0.84564111472308123
-3.968,0.5689331282290746,-0.83504447631791379
-3.9674999999999998,0.52625242879834411,-0.63370834661973252
-3.9670000000000001,0.40888050536383502,-0.18864953360270037
-3.9664999999999999,0.32351910650237387,0.23521600260399694
-3.9660000000000002,0.27016823221396069,0.48953532432801533
-3.9655,0.11011560934872107,0.69087145402619654
-3.9649999999999999,-0.54076505696992005,0.92399749893988004
-3.9645000000000001,-1.2236562478616091,1.1359302670432285
-3.964,-1.618452717595867,1.2524932895000704
-3.9634999999999998,-1.9278877884686634,1.2524932895000704
-3.9630000000000001,-1.9385579633263461,0.74385464605203377
-3.9624999999999999,-1.405049220442214,-0.11447306476652835
-3.9620000000000002,-0.62612645583138127,-0.82444783791274634
-3.9615,0.067434909917990504,-1.2589100125246109
-3.9609999999999999,0.52625242879834411,-1.3754730349814528
-3.9605000000000001,0.79300680024041004,-1.2377167357142764
-3.96,0.93171907339028448,-0.99399405239542526
-3.9594999999999998,1.1557927454016199,-0.66549826183523486
-3.9590000000000001,1.1237822208285719,-0.54893523937839306
-3.9584999999999999,0.97439977282101498,-0.54893523937839306
-3.9580000000000002,0.82501732481345802,-0.51714532416289083
-3.9575,0.71831557623663156,-0.47475877054222104
-3.9569999999999999,0.78233662538272752,-0.26282600243887239
-3.9565000000000001,1.0277506471094282,0.23521600260399694
-3.956,0.40888050536383502,0.73325800764686633
-3.9554999999999998,-0.57277558154296804,1.0723504366122243
-3.9550000000000001,-1.4797404444459925,1.2524932895000704
-3.9544999999999999,-2.0559298867608553,1.3266697583362426
-3.9540000000000002,-1.6397930673112322,1.1359302670432285
-3.9535,-0.86087030270039921,0.63788826200035942
-3.9529999999999998,-0.17797911180871023,0.044476511310983152
-3.9525000000000001,0.25949805735627807,-0.37938902489571413
-3.952,0.49424190422529612,-0.55953187778356051
-3.9514999999999998,0.57960330308675734,-0.55953187778356051
-3.9510000000000001,0.5689331282290746,-0.43237221692155131
-3.9504999999999999,0.52625242879834411,-0.20984281041303524
-3.9500000000000002,0.47290155450993088,0.023283234500648287
-3.9495,0.36619980593310447,0.33058574825050385
-3.9489999999999998,0.20614718306786484,0.68027481562102909
-3.9485000000000001,-0.24200016095480609,0.96638405256054982
-3.948,-0.94623170156186043,1.1677201822587309
-3.9474999999999998,-1.4584000947306273,1.2842832047155728
-3.9470000000000001,-1.7251544661726932,1.2842832047155728
-3.9464999999999999,-1.7891755153187892,0.9134008605347127
-3.9460000000000002,-1.3303579964384356,-0.0085066807148540119
-3.9455,-0.59411593125833329,-0.85623775312824868
-3.9449999999999998,0.099445434491038431,-1.4814394190331273
-3.9445000000000001,0.57960330308675734,-1.746355379162313
-3.944,0.83568749967114075,-1.6615822719209734
-3.9434999999999998,0.94238924824796699,-1.4496495038176249
-3.9430000000000001,1.1131120459708892,-1.0787671596367647
-3.9424999999999999,1.1557927454016199,-0.792657922697244
-3.9420000000000002,1.0597611716824762,-0.65490162343006741
-3.9415,1.0277506471094282,-0.48535540894738849
-3.9409999999999998,0.8997085488172365,-0.43237221692155131
-3.9405000000000001,0.78233662538272752,-0.34759910968021185
-3.9399999999999999,0.96372959796333246,0.055073149716150585
-3.9394999999999998,0.57960330308675734,0.5637117931641874
-3.9390000000000001,-0.3700422592469978,0.96638405256054982
-3.9384999999999999,-1.2556667724346571,1.2207033742845681
-3.9380000000000002,-1.8745369141802501,1.33726639674141
-3.9375,-1.6077825427381842,1.2524932895000704
-3.9369999999999998,-0.8928808272734472,0.81803111488820579
-3.9365000000000001,-0.23132998609712346,0.23521600260399694
-3.9359999999999999,0.22748753278323011,-0.22043944881820265
-3.9355000000000002,0.47290155450993088,-0.4535654937318862
-3.9350000000000001,0.5689331282290746,-0.47475877054222104
-3.9344999999999999,0.57960330308675734,-0.3581957480853793
-3.9340000000000002,0.51558225394066137,-0.082683149551026042
-3.9335,0.40888050536383502,0.2246193641988295
-3.9329999999999998,0.30217875678700862,0.53192187794868506
-3.9325000000000001,0.19547700821018218,0.80743447648303834
-3.9319999999999999,-0.11395806266261441,1.0405605213967219
-3.9315000000000002,-0.77550890383893822,1.1995100974742332
-3.931,-1.3516983461538008,1.2948798431207402
-3.9304999999999999,-1.7891755153187892,1.3160731199310751
-3.9300000000000002,-2.0772702364762203,1.0829470750173917
-3.9295,-1.7678351656034239,0.25640927941433178
-3.9289999999999998,-1.0315931004233216,-0.65490162343006741
-3.9285000000000001,-0.28468086038553664,-1.2589100125246109
-3.9279999999999999,0.30217875678700862,-1.5768091646796343
-3.9275000000000002,0.6863050516635838,-1.7039688255416432
