Class_1_Relax_eyes_closed/Class_1_Relax_eyes_closed_UZ_5.csv

#Digilent WaveForms Oscilloscope Acquisition
#Device Name: EExplorer
#Serial Number: SN:210151A2B84A
#Date Time: 2020-12-06 09:27:31.887
#Sample rate: 2000Hz
#Samples: 16384
#Trigger: Source: Channel 1 Type: Edge Condition: Rising Level: 0 V Hyst.: Auto HoldOff: 0 s
#Channel 1: Range: 1 V/div Offset: 0 V Attenuation: 1 X
#Channel 2: Range: 1 V/div Offset: 0 V Attenuation: 1 X
#Power Supplies: ON
#Fixed Supply: ON
#Voltage: 3.3 V Readback: 3.317 V
#Positive Supply: ON
#Voltage: 3.7 V Readback: 3.732 V
#Current: 40 mA Readback: 7 mA
#Negative Supply: ON
#Voltage: -3.7 V Readback: -3.785 V
#Current: -40 mA Readback: 0 A
#Reference 1: ON
#Voltage: 0 V
#Reference 2: ON
#Voltage: 0 V

Time (s),Channel 1 (V),Channel 2 (V)
-4.096,0.3021787567870086,-0.5171453241628908
-4.0955,0.3875401556483921,-0.4959520473525752
-4.095,0.3982103305062009,-0.2946159176541338
-4.0945,0.4515612047945656,-0.02969995752518888
-4.094,0.4729015545099114,0.1716361721728092
-4.0935,0.4835717293676329,0.3305857482506002
-4.093,0.5049120790829789,0.4365521323021782
-4.0925,0.2061471830681366,0.09745970333712872
-4.092,-0.391382608962858,-0.7714646458876513
-4.0915,-0.9355615267041777,-1.587405803084801
-4.091,-1.319687821580753,-2.096044446532838
-4.0905,-1.266336947291864,-1.884111678428651
-4.09,-0.7434983792658902,-0.9622041371799229
-4.0895,-0.1886492866663929,-0.02969995752518888
-4.089,0.2168173579251787,0.64848490040491
-4.0885,0.4515612047945656,1.040560521396722
-4.088,0.5582629533713921,1.220703374284568
-4.0875,0.5902734779444108,1.263089927905199
-4.087,0.5796033030867282,1.22070337428451
-4.0865,0.5475927785137094,1.157123543853563
-4.086,0.5262524287983635,1.082947075017459
-4.0855,0.5155822539406517,0.9981739677760039
-4.085,0.5049120790829789,0.9451907757502149
-4.0845,0.47290155450996,0.8604176685089526
-4.084,-0.03926683865929202,0.2881991946290439
-4.0835,-0.5407650569699201,-0.5807251545938954
-4.083,-0.7861790786966207,-1.290699927740113
-4.0825,-1.095614149569243,-1.566212526273937
-4.082,-0.9035510021311299,-0.9833974139902578
-4.0815,-0.3487019095316325,-0.3581957480853793
-4.081,0.1741366584943413,0.06566978812093249
-4.0805,0.3875401556484697,0.1822328105781598
-4.08,-0.007256314085787988,-0.4641621321370536
-4.0795,0.1207857842062873,-0.5277419625680004
-4.079,0.2701682322139607,-0.411178940111043
-4.0785,0.2701682322139607,-0.2204394488182027
-4.078,0.4088805053637089,0.108056341741689
-4.0775,0.5262524287983635,0.298795833035069
-4.077,0.5475927785137094,0.3729723018711736
-4.0765,0.5475927785137094,0.4365521323021203
-4.076,0.3982103305060554,0.2140227257930453
-4.0755,0.291508581929326,-0.4641621321370536
-4.075,-0.2420001609548061,-1.290699927740113
-4.0745,-0.8715404775585186,-1.926498232050371
-4.074,-1.351698346153801,-2.159624276963843
-4.0735,-1.095614149569417,-1.460246142222792
-4.073,-0.5407650569704247,-0.4747587705431173
-4.0725,-0.03926683865883591,0.3517790250608387
-4.072,0.3128489316446912,0.8816109453192104
-4.0715,0.4942419042251311,1.157123543853313
-4.071,0.5689331282290843,1.252493289500061
-4.0705,0.5796033030867573,1.241896651094903
-4.07,0.5582629533714115,1.178316820663956
-4.0695,0.5369226036560072,1.093543713422482
-4.069,0.5155822539406614,1.00877060618122
-4.0685,0.5049120790829789,0.9345941373450475
-4.068,0.4835717293672059,0.8498210301032454
-4.0675,0.03542438534494258,0.3411823866556712
-4.067,-0.7434983792658902,-0.5171453241628908
-4.0665,-1.138294849000342,-1.248313374119781
-4.066,-1.351698346153801,-1.619195718300304
-4.0655,-1.042263275281004,-1.174136905283272
-4.065,-0.3700422592476093,-0.432372216922226
-4.0645,0.2381577076409128,0.09745970333682032
-4.064,0.5689331282290746,0.3199891098453364
-4.0635,0.1101156093491383,-0.2946159176538156
-4.063,0.1314559590642028,-0.4535654937318765
-4.0625,0.2594980573562781,-0.4429688553267188
-4.062,0.270168232213951,-0.4005823017060876
-4.0615,0.3875401556485765,-0.1780528951973113
-4.061,0.5049120790829789,0.06566978812131802
-4.0605,0.5155822539406614,0.1928294489833272
-4.06,0.5155822539406419,0.3093924714402268
-4.0595,0.4942419042252961,0.3729723018711736
-4.059,0.5796033030867573,0.07626642652648545
-4.0585,0.1848068333528586,-0.6972881770500337
-4.058,-0.5300948821122373,-1.449649503817625
-4.0575,-1.298347471865388,-1.820531847998485
-4.057,-1.735824641029978,-1.89470831683459
-4.0565,-1.341028171296118,-1.184733543688439
-4.056,-0.658136980404429,-0.1992461720078678
-4.0555,-0.07127736323241762,0.6060983467841246
-4.055,0.3128489316448756,1.114736990233125
-4.0545,0.5155822539406614,1.369056311956912
-4.054,0.5902734779443719,1.443232780793017
-4.0535,0.5902734779444204,1.411442865577495
-4.053,0.5689331282290746,1.316073119931075
-4.0525,0.5475927785137094,1.199510097474233
-4.052,0.5262524287983247,1.082947075017295
-4.0515,0.5049120790829789,0.9769806909657173
-4.051,0.1741366584948169,0.5849050699745222
-4.0505,-0.6047861061153075,-0.2840192792484171
-4.05,-1.223656247861609,-1.0999604364471
-4.0495,-1.607782542738184,-1.534422611058964
-4.049,-1.351698346154034,-1.216523458904231
-4.0485,-0.6154562809730677,-0.5171453241624185
-4.048,0.07810508477567314,0.002089957690313421
-4.0475,0.5369226036556094,0.2881991946295739
-4.047,0.6009436528016762,0.2352160026033898
-4.0465,0.1101156093487211,-0.4323722169215513
-4.046,0.1954770082101046,-0.4747587705421825
-4.0455,0.3128489316448271,-0.4959520473524692
-4.045,0.4622313796522482,-0.400582301706049
-4.0445,0.6222840025174878,-0.09327978795619347
-4.044,0.6436243522328046,0.1186529801472708
-4.0435,0.5902734779444399,0.2458126410091644
-4.043,0.5369226036560266,0.3199891098453364
-4.0425,0.4088805053639515,-0.09327978795581759
-4.042,0.3661998059331045,-0.8668343915334161
-4.0415,-0.1993194615240755,-1.619195718300304
-4.041,-0.9569018764188542,-2.096044446532404
-4.0405,-1.22365624786125,-1.89470831683379
-4.04,-0.8288597781273515,-0.9410108603695881
-4.0395,-0.3060212101013774,0.03387987290492911
-4.039,0.131455959064329,0.7544512844575866
-4.0385,0.3982103305061524,1.178316820663898
-4.038,0.5369226036559005,1.379652950361897
-4.0375,0.5796033030867573,1.432636142387878
-4.037,0.5796033030867573,1.390249588767247
-4.0365,0.5582629533713921,1.305476481525908
-4.036,0.5262524287983344,1.210106735879314
-4.0355,0.5155822539406614,1.114736990232894
-4.035,0.5155822539406614,1.019367244586387
-4.0345,0.3982103305062591,0.8392243916987044
-4.034,-0.2420001609548061,0.1292496185523226
-4.0335,-0.839529952985034,-0.7290780922662394
-4.033,-1.22365624786126,-1.364876396575707
-4.0325,-1.41571939529946,-1.460246142222262
-4.032,-0.9355615267041777,-0.8774310299385835
-4.0315,-0.2526703358131097,-0.337002471275536
-4.031,0.259498057356181,0.03387987290554587
-4.0305,0.1527963087794516,-0.2628260024388724
-4.03,0.01408403562970345,-0.5807251545936063
-4.0295,0.2381577076410098,-0.559531877783599
-4.029,0.3448594562177392,-0.6019184314042303
-4.0285,0.4302208550792003,-0.5171453241628908
-4.028,0.5689331282290746,-0.1674562567921535
-4.0275,0.5689331282290746,0.06566978812131802
-4.027,0.5475927785137094,0.2458126410091644
-4.0265,0.5369226036560363,0.3835689402762157
-4.026,0.4302208550792003,0.2140227257936621
-4.0255,0.3982103305061524,-0.4429688553267188
-4.025,-0.1673089369505133,-1.290699927739342
-4.0245,-0.8928808272739227,-1.820531847998581
-4.024,-1.415719395299897,-1.926498232050159
-4.0235,-1.1382948490004,-1.24831337412006
-4.023,-0.5621054066848098,-0.3052125560588289
-4.0225,-0.03926683865883591,0.4789386859228479
-4.022,0.312848931644371,0.9769806909652643
-4.0215,0.5049120790830468,1.24189665109498
-4.021,0.5796033030867573,1.326669758336243
-4.0205,0.5902734779444399,1.326669758336243
-4.02,0.5689331282290455,1.263089927905161
-4.0195,0.5369226036560266,1.178316820663898
-4.019,0.5262524287983441,1.093543713422559
-4.0185,0.515582253940671,1.019367244586455
-4.018,0.4942419042252961,0.9557874141553824
-4.0175,0.09944543449103843,0.5001319627331828
-4.017,-0.5621054066846838,-0.3687923864897564
-4.0165,-0.9569018764197178,-1.131750351662833
-4.016,-1.148965023857831,-1.38606967338662
-4.0155,-0.7648387289816049,-0.9092209451545195
-4.015,-0.1673089369506006,-0.3793890248953575
-4.0145,0.3021787567870086,0.01268659609548085
-4.014,0.3661998059330462,-0.04029659593030812
-4.0135,0.003413860772079035,-0.5277419625679812
-4.013,0.2061471830678648,-0.4429688553267188
-4.0125,0.3448594562177392,-0.400582301706049
-4.012,0.4729015545100861,-0.135666341576603
-4.0115,0.6436243522328531,0.1504428953626575
-4.011,0.6436243522328531,0.2140227257936621
-4.0105,0.5796033030868155,0.2352160026039777
-4.01,0.5475927785137094,0.2776025562246667
-4.0095,0.4835717293676135,0.2564092794143318
-4.009,0.4835717293676135,-0.09327978795587544
-4.0085,0.06743490991729179,-0.7714646458875356
-4.008,-0.7008176798351597,-1.460246142222792
-4.0075,-1.533091318733649,-1.852321763213631
-4.007,-1.874536914179794,-1.894708316833963
-4.0065,-1.373038695869166,-1.131750351662602
-4.006,-0.6474668055467465,-0.1144730647665284
-4.0055,-0.04993701351616919,0.7014680924318363
-4.005,0.3341892813600565,1.220703374284568
-4.0045,0.5369226036560266,1.485619334413754
-4.004,0.6009436528021226,1.559795803249887
-4.0035,0.6009436528021226,1.517409249629256
-4.003,0.5689331282290746,1.432636142387917
-4.0025,0.5369226036560557,1.316073119931181
-4.002,0.5262524287983441,1.210106735879401
-4.0015,0.5049120790829789,1.082947075017392
-4.001,0.1634664836374448,0.6696781772162375
-4.0005,-0.572775581543463,-0.1992461720086195
-4,-1.116954499284783,-1.025783967610927
-3.9995,-1.26633694729234,-1.407262950196955
-3.999,-0.9569018764195432,-1.078767159636765
-3.9985,-0.3060212101009019,-0.5277419625680583
-3.998,0.2488278824985954,-0.01910331912002144
-3.9975,0.01408403562957729,-0.3475991096802118
-3.997,0.1207857842064037,-0.4323722169215513
-3.9965,0.3128489316446912,-0.3370024712750445
-3.996,0.4195506802215176,-0.3158091944647096
-3.9955,0.5369226036560266,-0.2840192792492073
-3.995,0.6542945270905358,-0.1462629799820306
-3.9945,0.6222840025174878,-0.04029659593035631
-3.994,0.5902734779444399,0.08686306493165288
-3.9935,0.5689331282290746,0.2246193641988295
-3.993,0.5369226036560266,0.3199891098453364
-3.9925,0.07810508477567314,-0.09327978795619347
-3.992,-0.722158029550525,-0.9622041371799229
-3.9915,-1.287677297007705,-1.682775548731308
-3.991,-1.757164990745741,-2.117237723343173
-3.9905,-1.714484291315011,-1.947691508860494
-3.99,-1.06360362499637,-0.9728007755850904
-3.9895,-0.3700422592469978,0.04447651131098315
-3.989,0.142126133921769,0.8074344764830383
-3.9885,0.4408910299368829,1.273686566310405
-3.988,0.5689331282290746,1.485619334413754
-3.9875,0.6116138276598051,1.538602526439591
-3.987,0.5902734779444399,1.485619334413754
-3.9865,0.5582629533713921,1.390249588767247
-3.986,0.5369226036560266,1.284283204715573
-3.9855,0.5155822539406614,1.167720182258731
-3.985,0.5049120790829789,1.072350436612224
-3.9845,0.3128489316446912,0.8392243916985406
-3.984,-0.391382608962363,0.05507314971615059
-3.9835,-0.9462317015618604,-0.8138511995075789
-3.983,-1.234326422719292,-1.364876396576285
-3.9825,-1.052933450138687,-1.046977244421262
-3.982,-0.5407650569699201,-0.4641621321370536
-3.9815,0.03542438534494258,-0.01910331912002144
-3.981,0.3448594562177392,0.06566978812131802
-3.9805,-0.02859666380115328,-0.5065486857577234
-3.98,0.1314559590640864,-0.5595318777835605
-3.9795,0.3128489316446912,-0.5383386009732256
-3.979,0.4729015545099309,-0.4959520473525559
-3.9785,0.6863050516635838,-0.3475991096802118
-3.978,0.7396559259519968,-0.1250697031716958
-3.9775,0.6756348768059011,0.05507314971615059
-3.977,0.6116138276598051,0.2352160026039969
-3.9765,0.5689331282290746,0.3729723018711736
-3.976,0.1848068333524996,0.04447651131098315
-3.9755,-0.3060212101009019,-0.6019184314042303
-3.975,-0.9995825758502737,-1.322489842955616
-3.9745,-1.554431668449771,-1.75695201756748
-3.974,-1.917217613610981,-1.894708316834657
-3.9735,-1.501080794161358,-1.280103289334946
-3.973,-0.7648387289812555,-0.2840192792492073
-3.9725,-0.124628237520297,0.5637117931641874
-3.972,0.3021787567870086,1.125333628638062
-3.9715,0.5155822539406614,1.42203950398275
-3.971,0.6009436528021226,1.517409249629256
-3.9705,0.6116138276598051,1.485619334413754
-3.97,0.5796033030867573,1.390249588767247
-3.9695,0.5475927785137094,1.273686566310405
-3.969,0.5262524287983441,1.157123543853563
-3.9685,0.5155822539406614,1.029963882991555
-3.968,0.4515612047945656,0.8392243916985406
-3.9675,-0.04993701351651855,0.1716361721729923
-3.967,-0.690147504977477,-0.6866915386455698
-3.9665,-1.031593100423322,-1.354279758171118
-3.966,-1.180975548430879,-1.396666311791788
-3.9655,-0.8181896032696687,-0.792657922697244
-3.965,-0.2206598112394408,-0.1992461720078678
-3.9645,0.2381577076409128,0.09745970333682032
-3.964,-0.06060718837420119,-0.4323722169215513
-3.9635,0.0674349099179905,-0.5171453241628908
-3.963,0.2381577076409128,-0.4323722169215513
-3.9625,0.3768699807907871,-0.326405832869877
-3.962,0.5369226036560266,-0.252229364033705
-3.9615,0.6222840025174878,-0.06148987274069118
-3.961,0.5902734779444399,0.08686306493165288
-3.9605,0.5689331282290746,0.2458126410091644
-3.96,0.5582629533713921,0.383568940276341
-3.9595,0.5262524287983441,0.3941655786815084
-3.959,0.6116138276598051,-0.1462629799820306
-3.9585,0.2701682322139607,-1.004590690800593
-3.958,-0.4447334832507763,-1.682775548731308
-3.9575,-1.26633694729234,-2.043061254507001
-3.957,-1.46907026958831,-1.84172512480882
-3.9565,-0.9782422261349084,-0.8986243067489184
-3.956,-0.3700422592469978,0.06566978812131802
-3.9555,0.1101156093487211,0.775644561267536
-3.955,0.408880505363835,1.188913459069066
-3.9545,0.5475927785137094,1.37965295036208
-3.954,0.5902734779444399,1.411442865577582
-3.9535,0.5902734779444399,1.358459673551745
-3.953,0.5582629533713921,1.263089927905238
-3.9525,0.5369226036560266,1.167720182258731
-3.952,0.5262524287983441,1.072350436612224
-3.9515,0.5049120790829789,0.9663840525605498
-3.951,0.2168173579255475,0.55311515475902
-3.9505,-0.4874141826815069,-0.2946159176543747
-3.95,-1.042263275281004,-1.078767159636765
-3.9495,-1.426389570157579,-1.534422611058964
-3.949,-1.383708870726849,-1.258910012524611
-3.9485,-0.754168554123573,-0.5807251545938954
-3.948,-0.09261771294724913,-0.04029659593035631
-3.9475,0.2061471830678648,0.07626642652648545
-3.947,-0.06060718837420119,-0.3370024712750445
-3.9465,0.1741366584948169,-0.252229364033705
-3.946,0.3235191065023739,-0.3158091944647096
-3.9455,0.3768699807907871,-0.4217755785163839
-3.945,0.4729015545099309,-0.2628260024388724
-3.9445,0.5262524287983441,-0.04029659593035631
-3.944,0.5262524287983441,0.13984625695749
-3.9435,0.5262524287983441,0.2987958330350016
-3.943,0.4942419042252961,0.3729723018711736
-3.9425,0.07810508477567314,-0.1356663415768632
-3.942,-0.3273615598162672,-1.01518732920576
-3.9415,-0.9035510021311299,-1.746355379162313
-3.941,-1.575772018165136,-2.223204107394847
-3.9405,-1.629122892453549,-2.011271339291499
-3.94,-1.031593100423322,-1.036380606016095
-3.9395,-0.3700422592469978,-0.05089323433552374
-3.939,0.1314559590640864,0.6696781772158616
-3.9385,0.4302208550792003,1.093543713422559
-3.938,0.5689331282290746,1.284283204715573
-3.9375,0.6116138276598051,1.326669758336243
-3.937,0.5902734779444399,1.273686566310405
-3.9365,0.5689331282290746,1.188913459069066
-3.936,0.5369226036560266,1.104140351827727
-3.9355,0.5262524287983441,1.00877060618122
-3.935,0.5155822539406614,0.9345941373450475
-3.9345,0.2488278824985954,0.7332580076468663
-3.934,-0.5300948821122373,-0.01910331912002144
-3.9335,-1.159635198715513,-0.8350444763179138
-3.933,-1.501080794161358,-1.417859588602123
-3.9325,-1.458400094730627,-1.322489842955616
-3.932,-0.8181896032696687,-0.6549016234300674
-3.9315,-0.124628237520297,-0.07208651114585861
-3.931,0.2701682322139607,0.1610395337678249
-3.9305,-0.08194753808956648,-0.3052125560595421
-3.93,0.09944543449103843,-0.3687923864905467
-3.9295,0.2808384070716433,-0.4217755785163839
-3.929,0.4302208550792003,-0.5065486857577234
-3.9285,0.6222840025174878,-0.3687923864905467
-3.928,0.6969752265212663,-0.07208651114585861
-3.9275,0.6436243522328531,0.1186529801471552
-3.927,0.5902734779444399,0.2881991946298341
-3.9265,0.5582629533713921,0.4153588554918433
-3.926,0.4942419042252961,0.3199891098453364
-3.9255,0.4515612047945656,-0.1356663415768632
-3.925,-0.2313299860971235,-0.9833974139902578
-3.9245,-0.9248913518464952,-1.629792356705471
-3.924,-1.351698346153801,-1.820531847998485
-3.9235,-1.020922925565639,-1.142346990067769
-3.923,-0.4554036581084589,-0.2310360872233701
-3.9225,0.03542438534494258,0.5319218779486851
-3.922,0.3555296310754218,1.00877060618122
-3.9215,0.5262524287983441,1.263089927905238
-3.921,0.5902734779444399,1.347863035146577
-3.9205,0.5902734779444399,1.326669758336243
-3.92,0.5689331282290746,1.263089927905238
-3.9195,0.5475927785137094,1.188913459069066
-3.919,0.5262524287983441,1.104140351827727
-3.9185,0.5155822539406614,1.019367244586387
-3.918,0.4835717293676135,0.9028042221295453
-3.9175,-0.007256314085787988,0.3199891098453364
-3.917,-0.6367966306890638,-0.5489352393783931
-3.9165,-1.095614149569417,-1.248313374119443
-3.916,-1.202315898146244,-1.354279758171118
-3.9155,-0.722158029550525,-0.7820612842920766
-3.915,-0.1032878878049318,-0.1886495336027004
-3.9145,0.3448594562177392,0.13984625695749
-3.914,0.4195506802215176,0.03387987290581572
-3.9135,0.01408403562957729,-0.5489352393783931
-3.913,0.1954770082101822,-0.5277419625680583
-3.9125,0.3448594562177392,-0.4323722169215513
-3.912,0.5902734779444399,-0.2840192792492073
-3.9115,0.7823366253827275,0.02328323450064829
-3.911,0.7609962756673623,0.1928294489833272
-3.9105,0.6649647019482183,0.2881991946298341
-3.91,0.6116138276598051,0.383568940276341
-3.9095,0.3661998059331045,0.1716361721729923
-3.909,-0.08194753808956648,-0.5913217929990628
-3.9085,-0.7114878546928423,-1.396666311791788
-3.908,-1.277007122150022,-1.958288147265661
-3.9075,-1.746494815888059,-2.21260746898968
-3.907,-1.46907026958831,-1.640388995110639
-3.9065,-0.7968492535543035,-0.5913217929990628
-3.906,-0.1673089369510276,0.3517790250608387
-3.9055,0.2594980573562781,0.9875773293708847
-3.905,0.4942419042252961,1.326669758336243
-3.9045,0.5902734779444399,1.453829419198252
-3.904,0.6116138276598051,1.453829419198252
-3.9035,0.5902734779444399,1.369056311956912
-3.903,0.5582629533713921,1.263089927905238
-3.9025,0.5369226036560266,1.146526905448396
-3.902,0.5262524287983441,1.040560521396722
-3.9015,0.4942419042252961,0.92399749893988
-3.901,0.09944543449103843,0.4365521323021782
-3.9005,-0.6154562809736985,-0.4217755785163839
-3.9,-0.9995825758502737,-1.174136905283272
-3.8995,-1.341028171296118,-1.661582271920973
-3.899,-1.277007122150022,-1.269506650929778
-3.8985,-0.6367966306890638,-0.5383386009732256
-3.898,0.04609456020262521,0.03387987290581572
-3.8975,0.08877525963335578,-0.1356663415768632
-3.897,0.01408403562957729,-0.4111789401112165
-3.8965,0.2808384070716433,-0.2734226408440398
-3.896,0.4195506802215176,-0.1886495336027004
-3.8955,0.6009436528021226,-0.1144730647665284
-3.895,0.7609962756673623,0.05507314971615059
-3.8945,0.7183155762366316,0.1080563417419877
-3.894,0.6436243522328531,0.1504428953626575
-3.8935,0.5902734779444399,0.2140227257936621
-3.893,0.4942419042252961,0.2140227257936621
-3.8925,0.3982103305061524,-0.2098428104130352
-3.892,0.1207857842064037,-0.9728007755850904
-3.8915,-0.4447334832507763,-1.661582271920973
-3.891,-1.095614149569417,-2.064254531317336
-3.8905,-1.159635198715513,-1.672178910326141
-3.89,-0.7008176798351597,-0.6866915386455698
-3.8895,-0.1779791118087102,0.2458126410091644
-3.889,0.2168173579255475,0.9028042221295453
-3.8885,0.4515612047945656,1.29487984312074
-3.888,0.5582629533713921,1.475022696008586
-3.8875,0.5902734779444399,1.517409249629256
-3.887,0.5796033030867573,1.475022696008586
-3.8865,0.5582629533713921,1.400846227172415
-3.886,0.5369226036560266,1.316073119931075
