Class_1_Relax_eyes_closed/Class_1_Relax_Eyes_closed_Zakour_6.csv

#Digilent WaveForms Oscilloscope Acquisition
#Device Name: EExplorer
#Serial Number: SN:210151A2B84A
#Date Time: 2020-12-10 13:44:17.117
#Sample rate: 2000Hz
#Samples: 16384
#Trigger: Source: Channel 1 Type: Edge Condition: Rising Level: 0 V Hyst.: Auto HoldOff: 0 s
#Channel 1: Range: 1 V/div Offset: 0 V Attenuation: 1 X
#Channel 2: Range: 1 V/div Offset: 0 V Attenuation: 1 X
#Power Supplies: ON
#Fixed Supply: ON
#Voltage: 3.3 V Readback: 3.328 V
#Positive Supply: ON
#Voltage: 3.7 V Readback: 3.697 V
#Current: 40 mA Readback: 24 mA
#Negative Supply: ON
#Voltage: -3.7 V Readback: -3.964 V
#Current: -40 mA Readback: -11 mA
#Reference 1: ON
#Voltage: 0 V
#Reference 2: ON
#Voltage: 0 V

Time (s),Channel 1 (V),Channel 2 (V)
-4.096,1.347855892839907,-1.237716735714276
-4.0955,0.7823366253832419,-0.6337083466202819
-4.095,0.3875401556482659,-0.1886495336024691
-4.0945,0.1634664836371343,0.06566978812131802
-4.094,0.06743490991807785,0.171636172172896
-4.0935,0.03542438534488435,0.1610395337678538
-4.093,-0.02859666380115328,0.1928294489833272
-4.0925,-0.1779791118085744,0.3623756634658519
-4.092,-0.1673089369509597,0.3623756634659387
-4.0915,-0.09261771294724913,0.2881991946298341
-4.091,-0.01792648894347063,0.2352160026039969
-4.0905,0.0354243853447679,0.2458126410094921
-4.09,-0.156638762093345,0.6060983467848571
-4.0895,-0.8181896032696687,1.082947075017392
-4.089,-1.682473766741177,0.5001319627337129
-4.0885,-2.19464215991073,-0.5171453241628908
-4.088,-2.717480727937179,-1.75695201756748
-4.0875,-2.514747405641393,-1.947691508860321
-4.087,-1.810515865033368,-1.322489842954729
-4.0865,-0.9462317015618604,-0.3475991096802118
-4.086,-0.2953510352438113,0.4683420475169384
-4.0855,0.0247542104873861,0.9451907757504366
-4.085,0.1634664836371343,1.188913459069066
-4.0845,0.1954770082101531,1.305476481525802
-4.084,0.1954770082101919,1.316073119930998
-4.0835,0.2061471830678648,1.231300012689736
-4.083,0.2488278824985954,1.040560521396722
-4.0825,0.3448594562178653,0.743854646051658
-4.082,0.4835717293676135,0.3305857482505039
-4.0815,1.006410297394063,-0.4853554089473885
-4.081,1.529248865420037,-1.407262950196117
-4.0805,1.838683936293309,-2.096044446532838
-4.08,1.774662887147213,-1.968884785670829
-4.0795,1.347855892840295,-1.269506650930414
-4.079,0.8463576745284837,-0.5383386009727726
-4.0785,0.4729015545099309,-0.04029659593035631
-4.078,0.2488278824987992,0.2352160026037464
-4.0775,0.1101156093486531,0.3093924714401786
-4.077,0.03542438534494258,0.3199891098453364
-4.0765,0.02475421048726964,0.2776025562247052
-4.076,-0.007256314085787988,0.4153588554918337
-4.0755,-0.007256314085787988,0.4047622170866759
-4.075,0.01408403562957729,0.309392471440169
-4.0745,0.04609456020263492,0.2352160026039969
-4.074,0.05676473506030786,0.2352160026039969
-4.0735,-0.06060718837420119,0.4683420475176805
-4.073,-0.6367966306885398,1.072350436611675
-4.0725,-1.415719395299897,0.9345941373450475
-4.072,-2.130621110764634,0.08686306493165288
-4.0715,-2.77083160222501,-0.8880276683428643
-4.071,-2.973564924521009,-1.650985633515661
-4.0705,-2.365364957633652,-1.492036057438295
-4.07,-1.405049220443087,-0.6125150698101975
-4.0695,-0.6367966306885398,0.2246193641994463
-4.069,-0.06060718837420119,0.9028042221295453
-4.0685,0.1741366584948169,1.25249328950007
-4.068,0.2168173579255378,1.379652950362099
-4.0675,0.2061471830678648,1.400846227172415
-4.067,0.1848068333524996,1.347863035146577
-4.0665,0.184806833352519,1.231300012689562
-4.066,0.2061471830678648,1.040560521396722
-4.0655,0.3341892813600565,0.6802748156210291
-4.065,0.8463576745283574,-0.1462629799812789
-4.0645,1.614610264281974,-1.152943628472937
-4.064,2.201469881454519,-1.990078062481164
-4.0635,2.276161105458229,-2.435136875497792
-4.063,1.806673411719727,-1.968884785670145
-4.0625,1.219813794547716,-1.216523458903942
-4.062,0.7503261008101065,-0.5383386009738425
-4.0615,0.419550680221343,-0.07208651114565622
-4.061,0.2274875327832301,0.1504428953626575
-4.0605,0.1207857842064037,0.2564092794143318
-4.06,0.05676473506015259,0.2352160026040837
-4.0595,-0.1139580626626144,0.3305857482505039
-4.059,-0.2420001609548061,0.4047622170866759
-4.0585,-0.1886492866664414,0.2987958330350979
-4.058,-0.09261771294724913,0.1822328105781598
-4.0575,-0.007256314085787988,0.1292496185523226
-4.057,0.02475421048723082,0.1928294489832694
-4.0565,-0.2633405106701714,0.701468092431364
-4.056,-0.9782422261349084,0.9134008605347127
-4.0555,-1.618452717595285,0.2140227257942982
-4.055,-2.119950935907038,-0.633708346620147
-4.0545,-2.215982509626095,-1.089363798041932
-4.054,-1.671803591884775,-0.8986243067490918
-4.0535,-1.437059745014816,-0.6866915386450397
-4.053,-0.9462317015618604,-0.1038764263613609
-4.0525,-0.4660738329661415,0.5001319627331828
-4.052,-0.1352984123777371,0.945190775750533
-4.0515,0.1314559590640864,1.29487984312074
-4.051,0.1954770082101822,1.400846227172415
-4.0505,0.1741366584948363,1.369056311956941
-4.05,0.1741366584948169,1.25249328950007
-4.0495,0.1848068333524996,1.104140351827727
-4.049,0.2168173579255184,0.9028042221297283
-4.0485,0.5369226036566962,0.3517790250598942
-4.048,1.273164668836129,-0.6866915386455698
-4.0475,1.667961138570027,-1.629792356704613
-4.047,1.817343586578031,-2.350363768257242
-4.0465,1.913375160297087,-2.774229304463554
-4.046,1.593269914566899,-2.127834361748929
-4.0455,1.102441871112799,-1.216523458903257
-4.045,0.6542945270905358,-0.4641621321370536
-4.0445,0.3235191065023739,-0.01910331912002144
-4.044,0.1314559590640184,0.2034260873885525
-4.0435,0.05676473506030786,0.2670059178194992
-4.043,-0.01792648894347063,0.3199891098453364
-4.0425,-0.1993194615239106,0.500131962733019
-4.042,-0.1886492866663929,0.4259554938970107
-4.0415,-0.1032878878049318,0.2776025562246667
-4.041,-0.01792648894354826,0.161039533767931
-4.0405,0.04609456020246024,0.1186529801474539
-4.04,-0.1352984123779797,0.4471487707073456
-4.0395,-0.8288597781267206,0.9028042221291308
-4.039,-1.618452717596255,0.4153588554911494
-4.0385,-2.045259711903173,-0.3475991096802118
-4.038,-2.258663209056631,-0.9939940523948374
-4.0375,-2.077270236475541,-1.227120097308646
-4.037,-1.330357996438436,-0.718481453861072
-4.0365,-0.6794773301197943,-0.05089323433552374
-4.036,-0.4660738329663842,0.2670059178193547
-4.0355,-0.7328282044082075,0.1080563417419877
-4.035,-0.4340633083930936,0.5213252395435176
-4.0345,-0.2420001609549808,0.7862411996724625
-4.034,-0.03926683865883591,1.019367244586387
-4.0335,0.1634664836371343,1.146526905448396
-4.033,0.206147183067826,1.061753798207134
-4.0325,0.2274875327833757,0.8922075837240502
-4.032,0.3875401556484697,0.5319218779486851
-4.0315,1.049090996824192,-0.4005823017052009
-4.031,1.838683936293717,-1.439052865413161
-4.0305,2.28683128031598,-2.21260746898968
-4.03,2.084097958020194,-2.318573853041258
-4.0295,1.486568165989229,-1.640388995109868
-4.029,0.8783681991018712,-0.792657922697244
-4.0285,0.4515612047945656,-0.1674562567923655
-4.028,0.1954770082100657,0.1716361721730887
-4.0275,0.0674349099179905,0.2776025562246667
-4.027,0.02475421048725994,0.2458126410091644
-4.0265,0.014084035629587,0.2034260873885332
-4.026,-0.03926683865883591,0.2246193641988295
-4.0255,-0.04993701351651855,0.2246193641988295
-4.025,-0.02859666380117269,0.2140227257936717
-4.0245,0.01408403562961611,0.2034260873885139
-4.024,0.05676473506030786,0.2246193641988295
-4.0235,-0.01792648894340269,0.4153588554916698
-4.023,-0.5621054066860617,0.987577329370692
-4.0225,-1.415719395299897,0.775644561267536
-4.022,-2.11995093590631,-0.09327978795540326
-4.0215,-2.610778979360265,-0.8774310299389111
-4.021,-2.514747405641209,-1.237716735714276
-4.0205,-1.629122892453549,-0.7820612842920766
-4.02,-0.8288597781268371,-0.07208651114529963
-4.0195,-0.2633405106701714,0.5425185163538525
-4.019,0.05676473506030786,0.9557874141553824
-4.0185,0.195477008210056,1.199510097474012
-4.018,0.01408403562957729,1.082947075017392
-4.0175,-0.4874141826815069,0.6166949851900245
-4.017,-0.5087545323968526,0.5743084315693934
-4.0165,-0.3593720843891308,0.6908714540262544
-4.016,-0.156638762093345,0.7544512844572011
-4.0155,0.1741366584945161,0.6590815388107809
-4.015,0.7289857510949257,0.01268659609446891
-4.0145,1.401206767128321,-1.0999604364471
-4.014,1.753322537431528,-2.074851169721617
-4.0135,1.667961138569998,-2.509313344333925
-4.013,1.241154144263081,-2.021867977696666
-4.0125,0.8356874996711408,-1.121153713257435
-4.012,0.5155822539404382,-0.4005823017056732
-4.0115,0.2701682322139607,0.01268659609548085
-4.011,0.1207857842064037,0.1822328105781598
-4.0105,0.05676473506036608,0.2034260873884754
-4.01,0.05676473506030786,0.1610395337678249
-4.0095,-0.07127736323188383,0.2352160026039969
-4.009,-0.1886492866662861,0.3411823866555749
-4.0085,-0.1566387620932673,0.2987958330349437
-4.008,-0.07127736323188383,0.2352160026039969
-4.0075,0.003413860771826718,0.2034260873885236
-4.007,-0.03926683865929202,0.3199891098458761
-4.0065,-0.5407650569699201,0.9134008605347127
-4.006,-1.351698346153801,1.082947075017392
-4.0055,-1.970568487899918,0.2352160026030717
-4.005,-2.546757930214257,-0.7820612842920766
-4.0045,-2.696140378221814,-1.38606967338662
-4.004,-1.853196564464109,-1.07876715963609
-4.0035,-0.9995825758502737,-0.3370024712750445
-4.003,-0.3700422592469978,0.3623756634660061
-4.0025,0.003413860771554977,0.8604176685084225
-4.002,0.1741366584948169,1.146526905448396
-4.0015,0.2274875327832301,1.29487984312074
-4.001,0.2168173579255572,1.337266396741371
-4.0005,0.1954770082101725,1.294879843120663
-4,0.1848068333524996,1.210106735879401
-3.9995,0.1848068333524996,1.104140351827727
-3.999,0.05676473506030786,0.6378882620003594
-3.9985,-0.02859666380115328,-0.1568596183871981
-3.998,0.4195506802215176,-1.258910012524611
-3.9975,1.219813794547716,-2.032464616101834
-3.997,1.657290963712704,-2.572893174765372
-3.9965,1.817343586577944,-2.413943598687861
-3.996,1.571929564851243,-1.576809164679634
-3.9955,1.059761171682476,-0.7714646458869092
-3.995,0.6009436528021226,-0.2098428104130352
-3.9945,0.2808384070716433,0.1186529801471552
-3.994,0.07810508477567314,0.2564092794143318
-3.9935,-0.007256314085787988,0.2670059178194992
-3.993,-0.03926683865883591,0.309392471440169
-3.9925,-0.1139580626626144,0.4895353243280153
-3.992,-0.09261771294724913,0.4259554938970107
-3.9915,-0.02859666380115328,0.2881991946298341
-3.991,0.02475421048725994,0.1822328105781598
-3.9905,0.04609456020262521,0.1716361721729923
-3.99,-0.1673089369510276,0.5425185163538525
-3.9895,-0.9142211769888124,1.061753798207057
-3.989,-1.67180359188428,0.5001319627331828
-3.9885,-2.109280761049269,-0.2734226408440398
-3.988,-2.44005618163743,-0.6760949002404023
-3.9875,-2.344024607918286,-1.004590690800593
-3.987,-1.586442193022819,-0.6549016234300674
-3.9865,-0.8181896032696687,-0.06148987274069118
-3.986,-0.2633405106701714,0.4789386859228479
-3.9855,0.05676473506030786,0.8604176685088755
-3.985,0.1954770082101822,1.093543713422559
-3.9845,0.2274875327832301,1.231300012689736
-3.984,0.2168173579255475,1.273686566310405
-3.9835,0.2061471830678648,1.25249328950007
-3.983,0.2061471830678648,1.157123543853563
-3.9825,0.2381577076409128,0.9769806909657173
-3.982,0.4835717293676135,0.5743084315693548
-3.9815,1.059761171682476,-0.1038764263613609
-3.981,1.625280439139656,-0.8138511995075789
-3.9805,1.881364635724039,-1.449649503817625
-3.98,1.625280439139656,-2.074851169722503
-3.9795,0.9530594231056497,-2.096044446532838
-3.979,0.6756348768059011,-1.163540266878104
-3.9785,0.3875401556484697,-0.4217755785163839
-3.978,0.2488278824985954,0.13984625695749
-3.9775,0.1848068333524996,0.4047622170866759
-3.977,0.07810508477567314,0.3517790250608387
-3.9765,0.02475421048725994,0.2246193641988295
-3.976,-0.1673089369510276,0.09745970333682032
-3.9755,-0.2313299860971235,0.02328323450064829
-3.975,-0.156638762093345,-0.008506680714854012
-3.9745,-0.04993701351651855,0.002089957690313421
-3.974,0.02475421048725994,0.05507314971615059
-3.9735,-0.007256314085787988,0.2564092794143318
-3.973,-0.5834457564006506,0.8286277532933731
-3.9725,-1.255666772434657,0.5955017083796896
-3.972,-1.330357996438436,-0.2734226408440398
-3.9715,-1.618452717595867,-1.174136905283272
-3.971,-1.778505340461106,-1.619195718300304
-3.9705,-1.330357996438436,-1.142346990067769
-3.97,-0.7434983792658902,-0.3475991096802118
-3.9695,-0.274010685527854,0.3623756634660061
-3.969,0.01408403562957729,0.8392243916985406
-3.9685,0.1634664836371343,1.125333628638062
-3.968,0.2061471830678648,1.263089927905238
-3.9675,0.2061471830678648,1.305476481525908
-3.967,0.1848068333524996,1.273686566310405
-3.9665,0.1848068333524996,1.178316820663898
-3.966,0.1954770082101822,1.029963882991555
-3.9655,0.2488278824985954,0.7968378380778709
-3.965,0.6542945270905358,0.2564092794143318
-3.9645,1.411876941986003,-0.5383386009732256
-3.964,2.094768132877692,-1.258910012524611
-3.9635,2.340182154604393,-1.534422611058964
-3.963,1.667961138570387,-1.364876396576285
-3.9625,0.5582629533713921,-1.417859588602123
-3.962,0.1314559590640864,-0.9304142219644207
-3.9615,-0.07127736323188383,-0.4959520473525559
-3.961,-0.04993701351651855,-0.1038764263613609
-3.9605,0.04609456020262521,0.1610395337678249
-3.96,0.04609456020262521,0.2034260873884947
-3.9595,-0.07127736323188383,0.2246193641988295
-3.959,-0.1673089369510276,0.2458126410091644
-3.9585,-0.1352984123779797,0.2140227257936621
-3.958,-0.06060718837420119,0.1928294489833272
-3.9575,0.01408403562957729,0.2034260873884947
-3.957,0.04609456020262521,0.2881991946298341
-3.9565,-0.2846808603855366,0.775644561267536
-3.956,-1.223656247861609,0.8286277532933731
-3.9555,-2.173301810195364,-0.09327978795619347
-3.955,-2.6427895039334,-0.8774310299385835
-3.9545,-2.920214050233149,-1.481439419033127
-3.954,-2.258663209056825,-1.34368311976595
-3.9535,-1.341028171296118,-0.6125150698093976
-3.953,-0.5834457564006506,0.1504428953626575
-3.9525,-0.09261771294724913,0.7226613692416989
-3.952,0.1527963087794516,1.061753798207057
-3.9515,0.2381577076409128,1.231300012689736
-3.951,0.2381577076409128,1.273686566310405
-3.9505,0.2168173579255475,1.241896651094903
-3.95,0.2168173579255475,1.146526905448396
-3.9495,0.2274875327832301,0.9981739677760521
-3.949,0.2488278824985954,0.8074344764830383
-3.9485,0.4622313796522482,0.4047622170866759
-3.948,1.15579274540162,-0.3793890248957141
-3.9475,1.817343586577944,-1.163540266878104
-3.947,2.105438307735375,-1.693372187136476
-3.9465,1.892034810581722,-1.396666311791788
-3.946,1.411876941986003,-0.7714646458869092
-3.9455,0.5796033030867573,-0.5807251545938954
-3.945,-0.3380317346739499,-0.7502713690765743
-3.9445,-0.3700422592469978,-0.3581957480853793
-3.944,-0.3380317346739499,-0.1674562567923655
-3.9435,-0.1779791118087102,0.002089957690313421
-3.943,-0.04993701351651855,0.1928294489833272
-3.9425,-0.1673089369510276,0.4047622170866759
-3.942,-0.1673089369510276,0.4047622170866759
-3.9415,-0.09261771294724913,0.3411823866556712
-3.941,-0.02859666380115328,0.309392471440169
-3.9405,0.01408403562957729,0.3305857482505039
-3.94,-0.1673089369510276,0.6590815388106942
-3.9395,-0.9035510021311299,1.072350436612224
-3.939,-1.789175515318789,0.3623756634660061
-3.9385,-2.354694782775969,-0.7714646458869092
-3.938,-2.770831602225592,-1.640388995110639
-3.9375,-2.290673733629873,-1.629792356705471
-3.937,-1.426389570157579,-0.8562377531282487
-3.9365,-0.6474668055467465,0.002089957690313421
-3.936,-0.1352984123779797,0.6590815388106942
-3.9355,0.1314559590640864,1.061753798207057
-3.935,0.2274875327832301,1.25249328950007
-3.9345,0.2488278824985954,1.326669758336243
-3.934,0.2168173579255475,1.305476481525908
-3.9335,0.2061471830678648,1.210106735879401
-3.933,0.2168173579255475,1.061753798207057
-3.9325,0.2808384070716433,0.8180311148882058
-3.932,0.4942419042252961,0.383568940276341
-3.9315,1.038420821967111,-0.326405832869877
-3.931,1.646620788855021,-1.089363798041932
-3.9305,1.966726034585501,-1.735758740757146
-3.93,2.062757608304644,-2.085447808127671
-3.9295,1.76399271228953,-1.502632695843462
-3.929,1.262494493978446,-0.7290780922662394
-3.9285,0.6329541773751706,-0.326405832869877
-3.928,0.1101156093487211,-0.1992461720078678
-3.9275,-0.5300948821122373,-0.5065486857577234
-3.927,-0.4127229586777283,-0.3158091944647096
-3.9265,-0.2953510352432193,-0.2098428104130352
-3.926,-0.3060212101009019,0.1716361721729923
-3.9255,-0.2526703358124887,0.3305857482505039
-3.925,-0.1673089369510276,0.2670059178194992
-3.9245,-0.07127736323188383,0.2034260873884947
-3.924,0.00341386077189465,0.2034260873884947
-3.9235,-0.07127736323188383,0.4471487707073456
-3.923,-0.658136980404429,1.029963882991555
-3.9225,-1.650463242168915,0.6908714540261965
-3.922,-2.408045657064382,-0.3687923864905467
-3.9215,-2.781501777083275,-1.205926820498774
-3.921,-2.909543875375467,-1.703968825541643
-3.9205,-2.098610586191586,-1.290699927740113
-3.92,-1.180975548430879,-0.4217755785163839
-3.9195,-0.4660738329661415,0.3729723018711736
-3.919,-0.01792648894347063,0.92399749893988
-3.9185,0.1954770082101822,1.241896651094903
-3.918,0.2594980573562781,1.37965295036208
-3.9175,0.2488278824985954,1.390249588767247
-3.917,0.2168173579255475,1.326669758336243
-3.9165,0.2168173579255475,1.188913459069066
-3.916,0.2381577076409128,0.9769806909657173
-3.9155,0.3021787567870086,0.6908714540261965
-3.915,0.6649647019482183,0.1186529801471552
-3.9145,1.283834843693812,-0.718481453861072
-3.914,1.667961138570387,-1.449649503817625
-3.9135,1.76399271228953,-1.703968825541643
-3.913,1.465227816274416,-1.237716735714276
-3.9125,1.059761171682476,-0.718481453861072
-3.912,0.6649647019482183,-0.3052125560595421
-3.9115,0.3661998059331045,-0.06148987274069118
-3.911,-0.06060718837420119,-0.1780528951975329
-3.9105,-0.6474668055467465,-0.6231117082145651
-3.91,-0.5514352318276028,-0.5277419625680583
-3.9095,-0.5514352318276028,-0.252229364033705
-3.909,-0.5834457564006506,0.1610395337678249
-3.9085,-0.3380317346739499,0.3305857482505039
-3.908,-0.1673089369510276,0.2776025562246667
-3.9075,-0.03926683865883591,0.2140227257936621
-3.907,0.03542438534494258,0.2352160026039969
-3.9065,-0.124628237520297,0.6484849004055269
-3.906,-0.8928808272734472,0.8816109453192104
-3.9055,-1.714484291315011,0.03387987290581572
-3.905,-2.205312334768412,-0.9622041371799229
-3.9045,-2.653459678791083,-1.714565463946811
-3.904,-2.312014083345239,-1.629792356705471
-3.9035,-1.479740444445993,-0.8138511995075789
-3.903,-0.7008176798351597,0.06566978812131802
-3.9025,-0.1673089369510276,0.7438546460520338
-3.902,0.1207857842064037,1.157123543853563
-3.9015,0.2381577076409128,1.358459673551745
-3.901,0.2488278824985954,1.42203950398275
-3.9005,0.2381577076409128,1.390249588767247
-3.9,0.2274875327832301,1.273686566310405
-3.8995,0.2274875327832301,1.104140351827727
-3.899,0.2594980573562781,0.8922075837243778
-3.8985,0.4835717293676135,0.4471487707073456
-3.898,1.134452395686255,-0.3899856633008816
-3.8975,1.614610264281974,-1.216523458903942
-3.897,1.753322537431848,-1.862918401619155
-3.8965,1.56125938999356,-1.852321763213987
-3.896,1.19847344483235,-1.227120097309109
-3.8955,0.8143471499557753,-0.5913217929990628
-3.895,0.5049120790829789,-0.1144730647665284
-3.8945,0.2808384070716433,0.07626642652648545
-3.894,0.01408403562957729,0.04447651131098315
-3.8935,-0.3166913849585846,-0.2310360872233701
-3.893,-0.7861790786966207,-0.6125150698093976
-3.8925,-0.8608703027003992,-0.07208651114585861
-3.892,-0.7328282044082075,0.1292496185523226
-3.8915,-0.391382608962363,0.2140227257936621
-3.891,-0.1032878878049318,0.2352160026039969
-3.8905,0.01408403562957729,0.2034260873884947
-3.89,-0.08194753808956648,0.457745409112513
-3.8895,-0.839529952985034,0.9028042221295453
-3.889,-1.906547438753298,0.2776025562246667
-3.8885,-2.664129853648766,-0.7502713690765743
-3.888,-3.240319295963628,-1.555615887869299
-3.8875,-3.122947372529119,-1.831128486403653
-3.887,-2.055929886760855,-1.174136905283272
-3.8865,-1.074273799854052,-0.2310360872233701
-3.886,-0.3593720843893152,0.55311515475902
