Class_1_Relax_eyes_closed/Class_1_Relax_eyes_closed_AM_1.csv

#Digilent WaveForms Oscilloscope Acquisition
#Device Name: EExplorer
#Serial Number: SN:210151A2B84A
#Date Time: 2020-10-20 17:00:23.540
#Sample rate: 2000Hz
#Samples: 16384
#Trigger: Source: Channel 1 Type: Edge Condition: Rising Level: 0 V Hyst.: Auto HoldOff: 0 s
#Channel 1: Range: 1 V/div Offset: 0 V
#Channel 2: Range: 1 V/div Offset: 0 V

Time (s),Channel 1 (V),Channel 2 (V)
-4.0960000000000001,0.53692260365602662,1.1995100974742332
-4.0955000000000004,0.53692260365602662,1.1465269054484442
-4.0949999999999998,0.51558225394061286,1.0405605213966351
-4.0945,0.4622313796522482,0.94519077575021493
-4.0940000000000003,0.41955068022155645,0.83922439169863694
-4.0934999999999997,0.39821033050595833,0.74385464605169649
-4.093,0.18480683335249956,0.37297230187117358
-4.0925000000000002,-0.35937208438882018,-0.38998566330018769
-4.0919999999999996,-0.86087030270113674,-1.1105570748530573
-4.0914999999999999,-1.67180359188428,-1.9794814240759964
-4.0910000000000002,-1.3090176467230703,-1.4920360574382947
-4.0904999999999996,-0.44473348325015521,-0.60191843140364243
-4.0899999999999999,0.23815770764091276,0.044476511310983152
-4.0895000000000001,0.6863050516635838,0.43655213230217815
-4.0890000000000004,0.77166645052496718,0.46834204751765157
-4.0884999999999998,0.69697522652126631,0.36237566346600614
-4.0880000000000001,0.6116138276598051,0.25640927941433178
-4.0875000000000004,0.56893312822911346,0.18223281057822721
-4.0869999999999997,0.70764540137897813,-0.04029659593035631
-4.0865,0.73965592595199681,-0.04029659593035631
-4.0860000000000003,0.67563487680595924,0.1292496185521684
-4.0854999999999997,0.59027347794440099,0.31998910984544243
-4.085,0.54759277851370936,0.43655213230217815
-4.0845000000000002,0.87836819910157038,0.1186529801474443
-4.0839999999999996,1.0170804722510758,-0.50654868575834022
-4.0834999999999999,0.28083840707164331,-1.1847335436884392
-4.0830000000000002,-0.67947733011979428,-1.6297923567054711
-4.0824999999999996,-1.5971123678808994,-1.9053049552397283
-4.0819999999999999,-2.0345895370454898,-1.7993385711881502
-4.0815000000000001,-1.4797404444459925,-0.97280077558509037
-4.0810000000000004,-0.722158029551214,-0.093279787956993432
-4.0804999999999998,-0.11395806266261441,0.5637117931641874
-4.0800000000000001,0.25949805735627807,0.92399749893988004
-4.0795000000000003,0.45156120479439088,1.0829470750172472
-4.0789999999999997,0.51558225394065171,1.0935437134225015
-4.0785,0.50491207908297886,1.0299638829915545
-4.0780000000000003,0.47290155450995996,0.95578741415544988
-4.0774999999999997,0.37686998079021455,0.81803111488765645
-4.077,-0.25267033581248871,0.21402272579366208
-4.0765000000000002,-0.55143523182733101,-0.14626297998170298
-4.0759999999999996,-1.0956141495698541,-0.95160749877556505
-4.0754999999999999,-1.5757720181651362,-1.84172512480882
-4.0750000000000002,-1.7144842913150107,-2.3291704914465217
-4.0744999999999996,-1.3943790455837162,-1.9900780624802674
-4.0739999999999998,-0.4980843575391895,-1.0045906908005926
-4.0735000000000001,0.19547700821018218,-0.19924617200786782
-4.0730000000000004,0.5902734779440808,0.2458126410087596
-4.0724999999999998,0.70764540137894905,0.39416557868150842
-4.0720000000000001,0.69697522652126631,0.40476221708667587
-4.0715000000000003,0.6436243522329016,0.37297230187120251
-4.0709999999999997,0.60094365280220996,0.34118238665550743
-4.0705,0.69697522652126631,0.16103953376782493
-4.0700000000000003,0.7609962756673041,0.033879872905931391
-4.0694999999999997,0.69697522652117894,0.10805634174211304
-4.069,0.60094365280212259,0.24581264100916439
-4.0685000000000002,0.52625242879834411,0.39416557868150842
-4.0679999999999996,0.7716664505255203,0.73325800764739635
-4.0674999999999999,1.2945050185514941,1.3160731199310751
-4.0670000000000002,0.82501732481345802,0.90280422212954525
-4.0664999999999996,-0.17797911180968068,0.0020899576894845887
-4.0659999999999998,-1.2449965975769743,-0.9092209451540858
-4.0655000000000001,-2.0239193621878071,-1.5768091646796343
-4.0650000000000004,-1.8211860398920214,-1.4178595886022671
-4.0644999999999998,-1.0636036249963696,-0.64430498502489997
-4.0640000000000001,-0.35937208438931517,0.12924961855232261
-4.0635000000000003,0.13145595906363994,0.69087145402568573
-4.0629999999999997,0.39821033050624943,1.0193672445865221
-4.0625,0.50491207908297886,1.1677201822587309
-4.0620000000000003,0.51558225394065171,1.210106735879362
-4.0614999999999997,0.4835717293675747,1.1995100974742139
-4.0609999999999999,0.44089102993688295,1.1783168206638983
-4.0605000000000002,0.3982103305061524,1.146526905448396
-4.0599999999999996,0.28083840707110957,1.1571235438530623
-4.0594999999999999,-0.30602121010090194,0.60609834678485708
-4.0590000000000002,-1.3410281712961183,-0.89862430674891836
-4.0585000000000004,-1.6397930673109604,-1.809935209592489
-4.0579999999999998,-1.5437614935920885,-1.9053049552398247
-4.0575000000000001,-0.8502001278427167,-1.2801032893349458
-4.0570000000000004,-0.0072563140865545828,-0.4429688553274802
-4.0564999999999998,0.50491207908297886,0.086863064931652884
-4.056,0.65429452709053582,0.28819919462983412
-4.0555000000000003,0.66496470194820867,0.31998910984530748
-4.0549999999999997,0.62228400251743932,0.29879583303498231
-4.0545,0.5689331282290746,0.27760255622466667
-4.0540000000000003,0.6009436528020935,0.21402272579371989
-4.0534999999999997,0.73965592595197738,0.097459703336849224
-4.0529999999999999,0.71831557623663156,0.12924961855232261
-4.0525000000000002,0.63295417737517057,0.2246193641988295
-4.0519999999999996,0.54759277851374821,0.33058574825066767
-4.0514999999999999,0.59027347794443985,0.51072860113835017
-4.0510000000000002,1.0917716962555239,1.1041403518277266
-4.0505000000000004,1.0170804722518134,1.1465269054483573
-4.0499999999999998,0.15279630877945163,0.20342608738849466
-4.0495000000000001,-0.94623170156186043,-0.85623775312824868
-4.0490000000000004,-1.863866739321733,-1.6191957182996097
-4.0484999999999998,-1.9278877884680325,-1.5980024414892555
-4.048,-1.2343264227192918,-0.81385119950757889
-4.0475000000000003,-0.50875453239753199,0.033879872905044683
-4.0469999999999997,0.035424385345233712,0.66967817721621825
-4.0465,0.35552963107542179,1.0617537982070568
-4.0460000000000003,0.49424190422517,1.2418966510947391
-4.0454999999999997,0.51558225394064194,1.2948798431207209
-4.0449999999999999,0.49424190422529612,1.2736865663104053
-4.0445000000000002,0.45156120479456557,1.2524932895000704
-4.0439999999999996,0.40888050536380594,1.210106735879362
-4.0434999999999999,0.3768699807907871,1.1677201822587309
-4.0430000000000001,0.099445434491038431,0.73325800764686633
-4.0425000000000004,-0.53009488211166489,-0.23103608722249314
-4.0419999999999998,-1.373038695869166,-1.5980024414899687
-4.0415000000000001,-1.2983474718653876,-1.9794814240759964
-4.0410000000000004,-0.66880715526268431,-1.4178595886026333
-4.0404999999999998,0.035424385345418093,-0.58072515459330754
-4.04,0.55826295337139209,0.065669788121318018
-4.0395000000000003,0.76099627566717787,0.3093924714399473
-4.0389999999999997,0.72898575109423669,0.2564092794142836
-4.0385,0.64362435223285308,0.20342608738849466
-4.0380000000000003,0.56893312822914255,0.15044289536270566
-4.0374999999999996,0.55826295337148912,0.13984625695742256
-4.0369999999999999,0.66496470194821833,0.065669788121318018
-4.0365000000000002,0.66496470194821833,0.065669788121318018
-4.0359999999999996,0.61161382765974692,0.12924961855240935
-4.0354999999999999,0.54759277851370936,0.2246193641988295
-4.0350000000000001,0.53692260365602662,0.37297230187117358
-4.0345000000000004,1.0277506471089817,0.96638405256001014
-4.0339999999999998,1.5185786905628296,1.3690563119569124
-4.0335000000000001,0.94238924824796699,0.59550170837968963
-4.0330000000000004,-0.09261771294630794,-0.55953187778251001
-4.0324999999999998,-1.2556667724352102,-1.4814394190334743
-4.032,-1.8638667393225676,-1.8629184016191549
-4.0315000000000003,-1.490410619304015,-1.2483133741200025
-4.0309999999999997,-0.79684925355375036,-0.31580919446399636
-4.0305,-0.18864928666639288,0.46834204751768049
-4.0300000000000002,0.21681735792517873,0.99817396777557021
-4.0294999999999996,0.43022085507926827,1.2842832047156787
-4.0289999999999999,0.50491207908297886,1.4008462271724147
-4.0285000000000002,0.50491207908297886,1.4114428655775821
-4.0279999999999996,0.4622313796522094,1.3796529503620412
-4.0274999999999999,0.41955068022151765,1.33726639674141
-4.0270000000000001,0.3768699807907871,1.3054764815259077
-4.0265000000000004,0.23815770764103891,1.1995100974743296
-4.0259999999999998,-0.39138260896236304,1.1041403518277266
-4.0255000000000001,-1.0422632752810042,0.64848490040552687
-4.0250000000000004,-1.6611334170260346,-0.53833860097214625
-4.0244999999999997,-1.1703053735724098,-0.62311170821423745
-4.024,-0.30602121010090194,-0.26282600243887239
-4.0235000000000003,0.29150858192878254,0.055073149715861469
-4.0229999999999997,0.68630505166365174,0.30939247144017862
-4.0225,0.76099627566736228,0.31998910984533641
-4.0220000000000002,0.68630505166365174,0.22461936419891623
-4.0214999999999996,0.59027347794439133,0.12924961855228406
-4.0209999999999999,0.53692260365602662,0.086863064931652884
-4.0205000000000002,0.65429452709053582,-0.04029659593035631
-4.0199999999999996,0.73965592595194829,-0.10387642636127417
-4.0194999999999999,0.6863050516635838,-0.0085066807148540119
-4.0190000000000001,0.60094365280212259,0.12924961855232261
-4.0185000000000004,0.52625242879841205,0.27760255622453178
-4.0179999999999998,0.81434714995577528,0.48953532432801533
-4.0175000000000001,1.4758979911320991,0.6590815388106942
-4.0170000000000003,1.326515543124678,-0.01910331911940466
-4.0164999999999997,0.22748753278209469,-0.87743102993915212
-4.016,-1.0209229255656389,-1.5026326958434622
-4.0155000000000003,-1.8745369141794739,-1.7781452943775649
-4.0149999999999997,-1.7038141164566971,-1.2377167357134475
-4.0145,-1.0102527507079564,-0.32640583286987701
-4.0140000000000002,-0.33803173467456127,0.45774540911179984
-4.0134999999999996,0.12078578420663662,0.97698069096594853
-4.0129999999999999,0.3768699807907871,1.2313000126897355
-4.0125000000000002,0.47290155450993088,1.3160731199310751
-4.0119999999999996,0.4942419042252767,1.2948798431206825
-4.0114999999999998,0.47290155450993088,1.2313000126897355
-4.0110000000000001,0.43022085507920033,1.1359302670432285
-4.0105000000000004,0.39821033050618149,1.0511571598019664
-4.0099999999999998,0.21681735792554749,0.84982103010370802
-4.0095000000000001,-0.81818960326966872,-0.37938902489571413
-4.0090000000000003,-1.2556667724342592,-1.3436831197650734
-4.0084999999999997,-1.3730386958687681,-2.0430612545067119
-4.008,-0.93556152670417769,-1.7251621023519781
-4.0075000000000003,-0.092617712948015796,-0.84564111472388115
-4.0069999999999997,0.54759277851392285,-0.12506970317139701
-4.0065,0.78233662538272752,0.20342608738849466
-4.0060000000000002,0.78233662538272752,0.28819919462983412
-4.0054999999999996,0.70764540137886167,0.25640927941427394
-4.0049999999999999,0.6116138276598051,0.19282944898332721
-4.0045000000000002,0.54759277851370936,0.12924961855232261
-4.0039999999999996,0.60094365280220019,0.065669788121260189
-4.0034999999999998,0.6863050516635838,0.0020899576903134209
-4.0030000000000001,0.65429452709053582,0.076266426526485451
-4.0025000000000004,0.57960330308682528,0.19282944898322119
-4.0019999999999998,0.49424190422529612,0.30939247144016896
-4.0015000000000001,0.6116138276598051,0.59550170837968963
-4.0010000000000003,1.1237822208281061,1.1783168206633683
-4.0004999999999997,0.96372959796268232,0.90280422212876466
-4,0.24882788249859539,0.044476511310983152
-3.9994999999999998,-0.64746680554674652,-0.75027136907657432
-3.9990000000000001,-1.5437614935920885,-1.42845622700729
-3.9984999999999999,-1.6397930673112322,-1.3754730349814528
-3.9980000000000002,-1.0742737998540521,-0.65490162343006741
-3.9975000000000001,-0.43406330839309365,0.12924961855232261
-3.9969999999999999,0.046094560202625215,0.72266136924169888
-3.9965000000000002,0.33418928136005654,1.0829470750173917
-3.996,0.4622313796522482,1.2524932895000704
-3.9954999999999998,0.49424190422529612,1.3054764815259077
-3.9950000000000001,0.4622313796522482,1.2948798431207402
-3.9944999999999999,0.43022085507920033,1.2524932895000704
-3.9940000000000002,0.3982103305061524,1.2101067358794007
-3.9935,0.34485945621773917,1.146526905448396
-3.9929999999999999,0.067434909917990504,0.7968378380778709
-3.9925000000000002,-0.26334051067017139,0.17163617217299235
-3.992,-1.1489650238578306,-1.0363806060160949
-3.9914999999999998,-1.0849439747117349,-1.6191957183003036
-3.9910000000000001,-0.34870190953163249,-1.1211537132574345
-3.9904999999999999,0.27016823221396069,-0.50654868575772338
-3.9900000000000002,0.6863050516635838,0.012686596095480854
-3.9895,0.82501732481345802,0.23521600260399694
-3.9889999999999999,0.76099627566736228,0.19282944898332721
-3.9885000000000002,0.65429452709053582,0.11865298014715518
-3.988,0.55826295337139209,0.065669788121318018
-3.9874999999999998,0.52625242879834411,0.033879872905815719
-3.9870000000000001,0.63295417737517057,-0.061489872740691176
-3.9864999999999999,0.63295417737517057,-0.029699957525188878
-3.9860000000000002,0.57960330308675734,0.076266426526485451
-3.9855,0.51558225394066137,0.19282944898332721
-3.9849999999999999,0.53692260365602662,0.29879583303500157
-3.9845000000000002,1.0597611716824762,0.64848490040552687
-3.984,1.0384208219671107,0.40476221708667587
-3.9834999999999998,0.3768699807907871,-0.4535654937318862
-3.9830000000000001,-0.61545628097369853,-1.2589100125246109
-3.9824999999999999,-1.5757720181651362,-1.7887419327829828
-3.9820000000000002,-1.9812386627570766,-1.8205318479984851
-3.9815,-1.4477299198729445,-1.01518732920576
-3.9809999999999999,-0.71148785469284226,-0.11447306476652835
-3.9805000000000001,-0.12462823752029703,0.59550170837968963
-3.98,0.23815770764091276,1.0193672445863871
-3.9794999999999998,0.43022085507920033,1.2207033742845681
-3.9790000000000001,0.4835717293676135,1.2842832047155728
-3.9784999999999999,0.47290155450993088,1.2524932895000704
-3.9780000000000002,0.43022085507920033,1.1995100974742332
-3.9775,0.3982103305061524,1.1253336286380615
-3.9769999999999999,0.30217875678700862,0.98757732937088472
-3.9765000000000001,-0.4980843575391895,0.23521600260399694
-3.976,-1.0529334501386869,-0.49595204735255594
-3.9754999999999998,-1.4904106193036752,-1.4496495038176249
-3.9750000000000001,-1.6504632421689147,-1.8947083168346572
-3.9744999999999999,-1.0529334501386869,-1.2589100125246109
-3.9740000000000002,-0.15663876209334496,-0.5807251545938954
-3.9735,0.44089102993688295,-0.12506970317169577
-3.9729999999999999,0.66496470194821833,0.055073149716150585
-3.9725000000000001,0.69697522652126631,0.10805634174198775
-3.972,0.64362435223285308,0.10805634174198775
-3.9714999999999998,0.5689331282290746,0.097459703336820316
-3.9710000000000001,0.53692260365602662,0.065669788121318018
-3.9704999999999999,0.65429452709053582,-0.10387642636136091
-3.9700000000000002,0.69697522652126631,-0.11447306476652835
-3.9695,0.63295417737517057,0.033879872905815719
-3.9689999999999999,0.53692260365602662,0.21402272579366208
-3.9685000000000001,0.47290155450993088,0.36237566346600614
-3.968,0.77166645052504479,0.29879583303500157
-3.9674999999999998,1.1664629202593024,0.28819919462983412
-3.9670000000000001,0.64362435223285308,-0.41117894011121647
-3.9664999999999999,-0.46607383296614152,-1.1953301820936066
-3.9660000000000002,-1.5651018433074537,-1.7781452943778153
-3.9655,-2.1626316353376818,-1.9688847856708289
-3.9649999999999999,-1.7038141164573279,-1.2801032893349458
-3.9645000000000001,-0.92489135184649518,-0.33700247127504446
-3.964,-0.24200016095480609,0.43655213230217815
-3.9634999999999998,0.18480683335249956,0.9134008605347127
-3.9630000000000001,0.40888050536383502,1.1571235438535634
-3.9624999999999999,0.49424190422529612,1.2313000126897355
-3.9620000000000002,0.49424190422529612,1.1995100974742332
-3.9615,0.45156120479456557,1.1359302670432285
-3.9609999999999999,0.40888050536383502,1.0723504366122243
-3.9605000000000001,0.3768699807907871,0.99817396777605205
-3.96,0.20614718306786484,0.81803111488820579
-3.9594999999999998,-0.41272295867772835,0.10805634174198775
-3.9590000000000001,-0.94623170156186043,-0.83504447631791379
-3.9584999999999999,-1.7144842913150107,-1.9370948704553266
-3.9580000000000002,-1.3196878215807528,-1.6721789103261409
-3.9575,-0.50875453239687207,-0.88802766834375091
-3.9569999999999999,0.21681735792554749,-0.20984281041303524
-3.9565000000000001,0.6863050516635838,0.19282944898332721
-3.956,0.77166645052504479,0.24581264100916439
-3.9554999999999998,0.69697522652126631,0.19282944898332721
-3.9550000000000001,0.60094365280212259,0.13984625695749003
-3.9544999999999999,0.52625242879834411,0.10805634174198775
-3.9540000000000002,0.5689331282290746,0.055073149716150585
-3.9535,0.63295417737517057,0.012686596095480854
-3.9529999999999998,0.60094365280212259,0.097459703336820316
-3.9525000000000001,0.54759277851370936,0.21402272579366208
-3.952,0.4835717293676135,0.33058574825050385
-3.9514999999999998,0.66496470194821833,0.52132523954351762
-3.9510000000000001,1.2945050185514941,1.0405605213967219
-3.9504999999999999,1.0917716962555239,0.73325800764686633
-3.9500000000000002,0.17413665849481691,-0.10387642636136091
-3.9495,-0.8928808272734472,-0.9092209451540858
-3.9489999999999998,-1.7358246410303759,-1.4920360574382947
-3.9485000000000001,-1.67180359188428,-1.2906999277401132
-3.948,-1.0209229255656389,-0.52774196256805828
-3.9474999999999998,-0.38071243410468042,0.23521600260399694
-3.9470000000000001,0.08877525963335578,0.78624119967270345
-3.9464999999999999,0.34485945621773917,1.1041403518277266
-3.9460000000000002,0.45156120479456557,1.241896651094903
-3.9455,0.47290155450993088,1.2842832047155728
-3.9449999999999998,0.45156120479456557,1.2630899279052379
-3.9445000000000001,0.40888050536383502,1.2313000126897355
-3.944,0.3768699807907871,1.1783168206638983
-3.9434999999999998,0.31284893164469124,1.0829470750173917
-3.9430000000000001,-0.65813698040442903,0.076266426526485451
-3.9424999999999999,-1.5010807941613578,-1.131750351662602
-3.9420000000000002,-1.7571649907457412,-2.0218679776966662
-3.9415,-1.7785053404611064,-2.3079772146361868
-3.9409999999999998,-1.0315931004233216,-1.6615822719209734
-3.9405000000000001,-0.08194753808956648,-0.77146464588690922
-3.9399999999999999,0.50491207908297886,-0.17805289519753292
-3.9394999999999998,0.69697522652126631,0.097459703336820316
-3.9390000000000001,0.70764540137894905,0.19282944898332721
-3.9384999999999999,0.64362435223285308,0.19282944898332721
-3.9380000000000002,0.5689331282290746,0.16103953376782493
-3.9375,0.55826295337139209,0.16103953376782493
-3.9369999999999998,0.65429452709053582,0.27760255622466667
-3.9365000000000001,0.65429452709053582,0.29879583303500157
-3.9359999999999999,0.59027347794443985,0.27760255622466667
-3.9355000000000002,0.51558225394066137,0.26700591781949923
-3.9350000000000001,0.54759277851370936,0.24581264100916439
-3.9344999999999999,1.0811015213978414,0.50013196273318283
-3.9340000000000002,1.1984734448323504,0.36237566346600614
-3.9335,0.36619980593310447,-0.40058230170604903
-3.9329999999999998,-0.64746680554674652,-1.0575738828264298
-3.9325000000000001,-1.6397930673112322,-1.5980024414899687
-3.9319999999999999,-1.9705684878993939,-1.650985633515806
-3.9315000000000002,-1.4157193952998968,-0.91981758355925325
-3.931,-0.67947733011979428,-0.050893234335523743
-3.9304999999999999,-0.092617712947249131,0.62729162359519197
-3.9300000000000002,0.25949805735627807,1.0511571598018894
-3.9295,0.44089102993688295,1.2524932895000704
-3.9289999999999998,0.4835717293676135,1.3054764815259077
-3.9285000000000001,0.47290155450993088,1.2842832047155728
-3.9279999999999999,0.43022085507920033,1.2207033742845681
-3.9275000000000002,0.38754015564846972,1.1677201822587309
-3.927,0.36619980593310447,1.1147369902328941
