Class_1_Relax_eyes_closed/Class_1_Relax_eyes_closed_SH_7.csv

#Digilent WaveForms Oscilloscope Acquisition
#Device Name: EExplorer
#Serial Number: SN:210151A2B84A
#Date Time: 2020-12-22 11:45:25.759
#Sample rate: 2000Hz
#Samples: 16384
#Trigger: Source: Channel 1 Type: Edge Condition: Rising Level: 0 V Hyst.: Auto HoldOff: 0 s
#Channel 1: Range: 1 V/div Offset: 0 V Attenuation: 1 X
#Channel 2: Range: 1 V/div Offset: 0 V Attenuation: 1 X
#Power Supplies: ON
#Fixed Supply: ON
#Voltage: 3.3 V Readback: 3.327 V
#Positive Supply: ON
#Voltage: 3.7 V Readback: 3.689 V
#Current: 40 mA Readback: 14 mA
#Negative Supply: ON
#Voltage: -3.7 V Readback: -4.129 V
#Current: -40 mA Readback: -21 mA
#Reference 1: ON
#Voltage: 0 V
#Reference 2: ON
#Voltage: 0 V

Time (s),Channel 1 (V),Channel 2 (V)
-4.096,-0.9569018764195432,-0.4535654937318862
-4.0955,-0.3487019095321856,0.3093924714394751
-4.095,0.09944543449128104,0.7862411996728865
-4.0945,0.3661998059331045,0.9875773293708847
-4.094,0.4942419042251797,1.072350436612147
-4.0935,0.5155822539404575,1.061753798206922
-4.093,0.291508581929326,0.9134008605347127
-4.0925,0.2061471830679425,0.8392243916986081
-4.092,0.2381577076409807,0.8286277532933828
-4.0915,0.3128489316446912,0.8392243916985406
-4.091,0.3768699807907871,0.8286277532933731
-4.0905,0.5475927785141946,0.7650479228623397
-4.09,1.081101521397841,0.7332580076468663
-4.0895,0.7716664505250448,0.06566978812131802
-4.089,-0.1673089369501737,-0.9198175835583569
-4.0885,-0.9782422261349084,-2.032464616101834
-4.088,-0.5621054066852853,-1.873515040024322
-4.0875,-0.1993194615244055,-1.184733543689066
-4.087,0.1527963087796748,-0.3793890248951841
-4.0865,0.3982103305061524,0.2034260873884947
-4.086,0.4408910299368441,0.4471487707071239
-4.0855,0.4408910299368732,0.5319218779486947
-4.085,0.4302208550792003,0.5425185163538525
-4.0845,0.4195506802215274,0.510728601138379
-4.084,0.4195506802215274,0.4789386859228479
-4.0835,0.4302208550792003,0.4789386859228479
-4.083,0.4515612047945656,0.5107286011383502
-4.0825,0.4408910299365045,0.5531151547587982
-4.082,0.02475421048725994,0.309392471440169
-4.0815,-0.8715404775580819,-0.570128516188728
-4.081,-1.55443166844915,-1.460246142221983
-4.0805,-1.714484291315011,-1.788741932782983
-4.08,-1.319687821580753,-1.248313374119443
-4.0795,-0.8075194284124518,-0.4853554089480824
-4.079,-0.3807124341043796,0.1504428953631008
-4.0785,-0.04993701351651855,0.6378882620003594
-4.078,0.2061471830676319,0.9134008605344621
-4.0775,0.3555296310755091,1.008770606181229
-4.077,0.4515612047945656,1.019367244586387
-4.0765,0.387540155648528,0.966384052560598
-4.076,0.3021787567870183,0.8604176685088176
-4.0755,0.3128489316446912,0.7968378380778709
-4.075,0.3661998059331045,0.7544512844572011
-4.0745,0.4088805053638933,0.7120647308365026
-4.074,0.4729015545099309,0.6802748156210291
-4.0735,0.8997085488172365,0.8710143069140429
-4.073,0.9957401225362928,0.5743084315696247
-4.0725,0.4622313796522482,-0.252229364033705
-4.072,-0.08194753808956648,-0.9410108603695881
-4.0715,-0.3166913849583711,-0.9939940523953771
-4.071,-0.3807124341049327,-0.7290780922662298
-4.0705,-0.658136980404429,-0.718481453861072
-4.07,-0.2846808603858763,-0.1780528951980244
-4.0695,-0.01792648894322801,0.1716361721732526
-4.069,0.2488278824985954,0.457745409112513
-4.0685,0.4195506802215176,0.6166949851900245
-4.068,0.4302208550792003,0.6060983467848282
-4.0675,0.4302208550792003,0.5743084315693548
-4.067,0.4302208550792003,0.5743084315693548
-4.0665,0.4302208550792003,0.5849050699745511
-4.066,0.4302208550792003,0.6166949851900245
-4.0655,0.2701682322139607,0.5743084315693548
-4.065,-0.466073832965472,-0.1568596183865331
-4.0645,-0.9355615267041777,-1.0999604364471
-4.064,-1.010252750707956,-1.693372187136476
-4.0635,-1.106284324427013,-1.725162102351949
-4.063,-0.8608703027000402,-1.089363798041238
-4.0625,-0.4660738329661415,-0.326405832869877
-4.062,-0.08194753808991589,0.2776025562241173
-4.0615,0.1954770082103472,0.6590815388108677
-4.061,0.3768699807907871,0.849821030103708
-4.0605,0.4729015545099309,0.9028042221295453
-4.06,0.4622313796521803,0.8816109453191043
-4.0595,0.3875401556484697,0.7650479228623686
-4.059,0.3661998059331045,0.7332580076468663
-4.0585,0.3768699807907774,0.7438546460520241
-4.058,0.408880505363835,0.7544512844572011
-4.0575,0.4302208550792003,0.7544512844572011
-4.057,0.7076454013786968,0.9981739677758303
-4.0565,1.102441871113207,1.040560521396722
-4.056,0.5049120790829789,0.2458126410091644
-4.0555,-0.209989636381108,-0.6654982618344061
-4.055,-0.5300948821121014,-1.142346990067509
-4.0545,-0.3807124341046804,-0.8562377531282487
-4.054,-0.09261771294751114,-0.3264058328703588
-4.0535,0.06743490991805844,0.03387987290599884
-4.053,0.142126133921769,0.2352160026039969
-4.0525,-0.3487019095316325,-0.1886495336027004
-4.052,-0.1459685872355168,0.01268659609562542
-4.0515,0.01408403562957729,0.1716361721729923
-4.051,0.2168173579255475,0.3623756634660061
-4.0505,0.3982103305059874,0.5531151547588464
-4.05,0.4302208550792003,0.5955017083796896
-4.0495,0.4302208550792003,0.6166949851900245
-4.049,0.3875401556485085,0.5955017083797089
-4.0485,-0.1993194615250072,0.04447651131003867
-4.048,-1.223656247861609,-0.9939940523954253
-4.0475,-1.821186039891294,-1.873515040023523
-4.047,-1.810515865033698,-1.894708316834002
-4.0465,-1.30901764672307,-1.174136905283272
-4.046,-0.7221580295510588,-0.3687923864912791
-4.0455,-0.1993194615237262,0.2670059178198462
-4.045,0.1848068333524996,0.6484849004055269
-4.0445,0.3768699807907871,0.849821030103708
-4.044,0.4622313796522676,0.9028042221295259
-4.0435,0.4835717293676135,0.8816109453192104
-4.043,0.4942419042252961,0.8180311148882058
-4.0425,0.4835717293676232,0.7968378380778902
-4.042,0.4622313796522482,0.7862411996727035
-4.0415,0.4515612047945656,0.7650479228623686
-4.041,0.4515612047945656,0.7332580076468952
-4.0405,0.5689331282295113,0.8286277532936526
-4.04,1.049090996824793,1.135930267043229
-4.0395,0.7183155762369324,0.5743084315698657
-4.039,-0.1779791118089043,-0.3687923864911924
-4.0385,-0.391382608962363,-1.078767159636765
-4.038,-0.03926683865915614,-1.142346990067712
-4.0375,0.227487532783366,-0.6549016234295663
-4.037,0.3768699807907871,-0.1038764263613609
-4.0365,0.4408910299368829,0.2987958330350016
-4.036,0.4515612047945656,0.5319218779487718
-4.0355,0.4515612047945656,0.627291623595192
-4.035,0.4302208550792003,0.6378882620003594
-4.0345,0.2701682322141062,0.4789386859229924
-4.034,-0.1139580626626144,0.07626642652648545
-4.0335,-0.3380317346739499,-0.1568596183871981
-4.033,-0.1566387620935099,0.01268659609532663
-4.0325,0.01408403562986843,0.1610395337682393
-4.032,0.3341892813600565,0.6166949851900245
-4.0315,0.5689331282288611,0.7014680924312868
-4.031,0.0674349099173306,-0.3158091944657215
-4.0305,-0.658136980404429,-1.42845622700729
-4.03,-1.223656247861095,-1.725162102351708
-4.0295,-1.116954499284433,-1.089363798041171
-4.029,-0.7328282044082075,-0.252229364033705
-4.0285,-0.2953510352432193,0.4365521323021782
-4.028,0.067434909918204,0.8286277532935177
-4.0275,0.3021787567870086,0.9875773293708847
-4.027,0.4195506802215176,1.00877060618122
-4.0265,0.4088805053638447,0.8710143069141683
-4.026,0.3768699807907871,0.7544512844572011
-4.0255,0.3768699807907871,0.7438546460520338
-4.025,0.398210330506133,0.7650479228623492
-4.0245,0.4195506802215662,0.7968378380778612
-4.024,0.4729015545099309,0.7862411996727035
-4.0235,0.8890383739591753,0.341182386656076
-4.023,0.9317190733897022,-0.5595318777843026
-4.0225,0.291508581929326,-1.375473034981453
-4.022,-0.3700422592463962,-1.926498232049658
-4.0215,-0.5194247072543607,-1.735758740756442
-4.021,-0.3060212101009019,-0.9622041371799229
-4.0205,-0.01792648894347063,-0.2628260024388724
-4.02,0.2061471830680007,0.2140227257938934
-4.0195,0.3555296310754218,0.4683420475176805
-4.019,0.4195506802215176,0.5425185163538525
-4.0185,0.4302208550791906,0.5319218779486947
-4.018,0.4302208550792003,0.4895353243280153
-4.0175,0.4195506802215176,0.4471487707073456
-4.017,0.4195506802215176,0.4365521323021878
-4.0165,0.4195506802215176,0.447148770707413
-4.016,0.4195506802215176,0.5213252395435176
-4.0155,0.4088805053638447,0.7544512844569891
-4.015,0.1101156093477409,0.4047622170853941
-4.0145,-0.9675720512772257,-1.004590690800593
-4.014,-1.522421143876219,-1.799338571187427
-4.0135,-2.013249187329901,-2.13843100015292
-4.013,-1.767835165603424,-1.492036057438295
-4.0125,-1.095614149569417,-0.4641621321370536
-4.012,-0.4554036581080513,0.2776025562250522
-4.0115,-0.007256314085787988,0.701468092431364
-4.011,0.291508581929326,0.9345941373450475
-4.0105,0.4408910299367471,1.01936724458631
-4.01,0.4729015545099309,0.9981739677760521
-4.0095,0.4622313796522482,0.8710143069140429
-4.009,0.4515612047945753,0.818031114888254
-4.0085,0.4515612047945559,0.7756445612675071
-4.008,0.4408910299368829,0.7438546460520338
-4.0075,0.4408910299368829,0.6908714540262447
-4.007,0.6009436528026175,0.2987958330342306
-4.0065,1.145122570543937,-0.5489352393783931
-4.006,0.9957401225363802,-1.417859588602123
-4.0055,0.312848931644274,-2.043061254507223
-4.005,-0.1459685872356623,-2.286783937825852
-4.0045,-0.124628237520297,-1.576809164679634
-4.004,0.03542438534509785,-0.7184814538604745
-4.0035,0.2061471830678648,-0.06148987274069118
-4.003,0.3235191065023739,0.3199891098453364
-4.0025,0.3875401556484115,0.500131962733019
-4.002,0.4195506802215176,0.5319218779486851
-4.0015,0.4195506802215176,0.5001319627331828
-4.001,0.4195506802215176,0.4577454091125516
-4.0005,0.4088805053638447,0.4259554938970204
-4,0.4195506802215176,0.4365521323021782
-3.9995,0.4195506802215176,0.5001319627331828
-3.999,0.3661998059331045,0.5319218779486851
-3.9985,-0.02859666380115328,0.4895353243280153
-3.998,-0.5834457564006506,0.09745970333682032
-3.9975,-0.9889124009925911,-0.5913217929990628
-3.997,-0.9675720512772257,-0.7608680074817418
-3.9965,-0.7648387289812555,-0.5489352393783931
-3.996,-0.5621054066852853,-0.3158091944647096
-3.9955,-0.6688071552621118,-0.3581957480853793
-3.995,-0.2633405106701714,0.08686306493165288
-3.9945,0.01408403562957729,0.4047622170866759
-3.994,0.2808384070716433,0.7332580076468663
-3.9935,0.4302208550792003,0.92399749893988
-3.993,0.3875401556484697,0.9134008605347127
-3.9925,0.3555296310754218,0.8604176685088755
-3.992,0.3555296310754218,0.8286277532933731
-3.9915,0.3768699807907871,0.8180311148882058
-3.991,0.3982103305061524,0.7968378380778709
-3.9905,0.5689331282290746,0.4895353243280153
-3.99,1.15579274540162,-0.4429688553267188
-3.9895,0.9957401225363802,-1.439052865412457
-3.989,0.04609456020262521,-2.138431000153508
-3.9885,-0.6261264558313813,-2.466926790713698
-3.988,-0.5621054066852853,-1.905304955239825
-3.9875,-0.2526703358124887,-0.9516074987747555
-3.987,0.04609456020262521,-0.1674562567923655
-3.9865,0.2594980573562781,0.3199891098453364
-3.986,0.3768699807907871,0.55311515475902
-3.9855,0.4195506802215176,0.6166949851900245
-3.985,0.4302208550792003,0.5849050699745222
-3.9845,0.4195506802215176,0.5213252395435176
-3.984,0.408880505363835,0.4683420475176805
-3.9835,0.408880505363835,0.457745409112513
-3.983,0.408880505363835,0.457745409112513
-3.9825,0.408880505363835,0.4895353243280153
-3.982,0.4515612047945656,0.627291623595192
-3.9815,0.1634664836371343,0.1928294489833272
-3.981,-0.4020527838200457,-0.5807251545938954
-3.9805,-0.7755089038389382,-1.0999604364471
-3.98,-0.7008176798351597,-0.9092209451540858
-3.9795,-0.423393133535411,-0.3158091944647096
-3.979,-0.1032878878049318,0.2670059178194992
-3.9785,-0.06060718837420119,0.4789386859228479
-3.978,-0.391382608962363,0.1716361721729923
-3.9775,-0.1673089369510276,0.3623756634660061
-3.977,0.02475421048725994,0.5213252395435176
-3.9765,0.2488278824985954,0.627291623595192
-3.976,0.4515612047945656,0.775644561267536
-3.9755,0.4622313796522482,0.7968378380778709
-3.975,0.4302208550792003,0.7862411996727035
-3.9745,0.408880505363835,0.7862411996727035
-3.974,0.3555296310754218,0.6590815388106942
-3.9735,0.0674349099179905,-0.1250697031716958
-3.973,-0.3807124341046804,-1.0999604364471
-3.9725,-0.9782422261349084,-1.778145294377815
-3.972,-1.458400094730627,-2.21260746898968
-3.9715,-1.330357996438436,-1.979481424075996
-3.971,-0.7755089038389382,-1.131750351662602
-3.9705,-0.2313299860971235,-0.3158091944647096
-3.97,0.142126133921769,0.2246193641988295
-3.9695,0.3555296310754218,0.5107286011383502
-3.969,0.4515612047945656,0.6060983467848571
-3.9685,0.4622313796522482,0.5955017083796896
-3.968,0.4515612047945656,0.5319218779486851
-3.9675,0.4302208550792003,0.4683420475176805
-3.967,0.408880505363835,0.4365521323021782
-3.9665,0.408880505363835,0.4365521323021782
-3.966,0.408880505363835,0.457745409112513
-3.9655,0.408880505363835,0.4789386859228479
-3.965,0.6009436528021226,0.5319218779486851
-3.9645,0.3555296310754218,-0.02969995752518888
-3.964,-0.1993194615240755,-0.7290780922662394
-3.9635,-0.5834457564006506,-0.8668343915334161
-3.963,-0.5194247072545548,-0.4111789401112165
-3.9625,-0.274010685527854,0.1292496185523226
-3.962,-0.02859666380115328,0.55311515475902
-3.9615,0.1634664836371343,0.775644561267536
-3.961,0.08877525963335578,0.6378882620003594
-3.9605,-0.1993194615240755,0.2670059178194992
-3.96,-0.3380317346739499,0.09745970333682032
-3.9595,-0.4554036581084589,0.06566978812131802
-3.959,-0.2846808603855366,0.3199891098453364
-3.9585,0.03542438534494258,0.6908714540261965
-3.958,0.2381577076409128,0.8922075837243778
-3.9575,0.3341892813600565,0.9663840525605498
-3.957,0.6649647019482183,1.157123543853563
-3.9565,0.9103787236749192,0.9134008605347127
-3.956,0.1207857842064037,-0.2204394488182027
-3.9555,-0.5194247072545548,-1.216523458903942
-3.955,-0.3700422592469978,-1.820531847998485
-3.9545,0.02475421048725994,-1.566212526274467
-3.954,0.2808384070716433,-0.8880276683437509
-3.9535,0.3982103305061524,-0.2628260024388724
-3.953,0.4408910299368829,0.13984625695749
-3.9525,0.4408910299368829,0.3411823866556712
-3.952,0.4195506802215176,0.4047622170866759
-3.9515,0.408880505363835,0.3941655786815084
-3.951,0.3982103305061524,0.3517790250608387
-3.9505,0.3875401556484697,0.3305857482505039
-3.95,0.3875401556484697,0.3411823866556712
-3.9495,0.3982103305061524,0.3729723018711736
-3.949,0.3555296310754218,0.4047622170866759
-3.9485,0.2381577076409128,0.1504428953626575
-3.948,-0.1139580626626144,-0.5277419625680583
-3.9475,-0.4447334832507763,-1.195330182093607
-3.947,-0.7434983792658902,-1.364876396576285
-3.9465,-0.6154562809736985,-0.8562377531282487
-3.946,-0.3166913849585846,-0.1992461720078678
-3.9455,-0.03926683865883591,0.3411823866556712
-3.945,0.1634664836371343,0.7332580076468663
-3.9445,0.3021787567870086,0.9451907757502149
-3.944,0.3768699807907871,1.00877060618122
-3.9435,0.408880505363835,0.9981739677760521
-3.943,0.1101156093487211,0.6060983467848571
-3.9425,-0.391382608962363,0.07626642652648545
-3.942,-0.3060212101009019,0.1822328105781598
-3.9415,-0.1139580626626144,0.3941655786815084
-3.941,0.1207857842064037,0.6166949851900245
-3.9405,0.5369226036560266,0.5637117931641874
-3.94,1.134452395686255,-0.3687923864905467
-3.9395,0.7609962756673623,-1.492036057438295
-3.939,0.0674349099179905,-2.202010830584512
-3.9385,-0.3380317346739499,-2.562296536360205
-3.938,-0.1673089369510276,-2.138431000153508
-3.9375,0.0674349099179905,-1.227120097309109
-3.937,0.2488278824985954,-0.4323722169215513
-3.9365,0.3555296310754218,0.08686306493165288
-3.936,0.3982103305061524,0.3305857482505039
-3.9355,0.408880505363835,0.3941655786815084
-3.935,0.3982103305061524,0.3729723018711736
-3.9345,0.3875401556484697,0.3199891098453364
-3.934,0.3875401556484697,0.2776025562246667
-3.9335,0.3875401556484697,0.2670059178194992
-3.933,0.3875401556484697,0.2987958330350016
-3.9325,0.3875401556484697,0.3517790250608387
-3.932,0.07810508477567314,0.1716361721729923
-3.9315,-0.5087545323968721,-0.5489352393783931
-3.931,-1.084943974711735,-1.290699927740113
-3.9305,-1.373038695869166,-1.51322933424863
-3.93,-1.052933450138687,-0.9622041371799229
-3.9295,-0.5834457564006506,-0.2204394488182027
-3.929,-0.156638762093345,0.3623756634660061
-3.9285,0.1527963087794516,0.7438546460520338
-3.928,0.3235191065023739,0.9345941373450475
-3.9275,0.4195506802215176,1.040560521396722
-3.927,0.4515612047945656,1.040560521396722
-3.9265,0.3875401556484697,0.9557874141553824
-3.926,0.3341892813600565,0.8816109453192104
-3.9255,0.3235191065023739,0.8392243916985406
-3.925,0.08877525963335578,0.5743084315693548
-3.9245,-0.423393133535411,0.02328323450064829
-3.924,-0.1993194615240755,-0.02969995752518888
-3.9235,0.3021787567870086,-0.570128516188728
-3.923,0.8036769750980928,-1.174136905283272
-3.9225,0.6329541773751706,-1.566212526274467
-3.922,0.4515612047945656,-2.000674700886331
-3.9215,0.8890383739595538,-2.265590661015517
-3.921,0.9850699476786977,-1.693372187136476
-3.9205,0.8463576745288233,-0.8562377531282487
-3.92,0.6542945270905358,-0.1674562567923655
-3.9195,0.5049120790829789,0.2564092794143318
-3.919,0.408880505363835,0.457745409112513
-3.9185,0.3768699807907871,0.5213252395435176
-3.918,0.3555296310754218,0.5001319627331828
-3.9175,0.3448594562177392,0.457745409112513
-3.917,0.3555296310754218,0.4365521323021782
-3.9165,0.3661998059331045,0.4365521323021782
-3.916,0.3661998059331045,0.4683420475176805
-3.9155,0.1741366584948169,0.4259554938970107
-3.915,-0.572775581542968,-0.2416327256285375
-3.9145,-1.26633694729234,-1.0999604364471
-3.914,-1.543761493592088,-1.598002441489969
-3.9135,-1.298347471865388,-1.237716735714276
-3.913,-0.7861790786966207,-0.5171453241628908
-3.9125,-0.3273615598162672,0.13984625695749
-3.912,0.01408403562957729,0.5637117931641874
-3.9115,0.2381577076409128,0.8286277532933731
-3.911,0.3661998059331045,0.9557874141553824
-3.9105,0.408880505363835,0.9981739677760521
-3.91,0.4195506802215176,0.92399749893988
-3.9095,0.3768699807907871,0.775644561267536
-3.909,0.3555296310754218,0.775644561267536
-3.9085,0.3555296310754218,0.8286277532933731
-3.908,0.3661998059331045,0.8604176685088755
-3.9075,0.3768699807907871,0.849821030103708
-3.907,0.408880505363835,0.7968378380778709
-3.9065,0.4622313796522482,0.1504428953626575
-3.906,0.2274875327832301,-0.6549016234300674
-3.9055,-0.4020527838200457,-1.47084278062796
-3.905,-0.3273615598162672,-2.021867977696666
-3.9045,0.1314559590640864,-1.661582271920973
-3.904,0.3448594562177392,-0.9198175835592532
-3.9035,0.3982103305061524,-0.3052125560595421
-3.903,0.3982103305061524,0.1186529801471552
-3.9025,0.3875401556484697,0.3199891098453364
-3.902,0.3768699807907871,0.3941655786815084
-3.9015,0.3661998059331045,0.383568940276341
-3.901,0.3661998059331045,0.3623756634660061
-3.9005,0.3768699807907871,0.3517790250608387
-3.9,0.3768699807907871,0.3729723018711736
-3.8995,0.3768699807907871,0.3941655786815084
-3.899,0.2808384070716433,0.4153588554918433
-3.8985,-0.4127229586777283,-0.07208651114585861
-3.898,-1.170305373573196,-0.9516074987747555
-3.8975,-1.26633694729234,-1.598002441489969
-3.897,-1.010252750707956,-1.545019249464132
-3.8965,-0.6154562809736985,-0.8774310299385835
-3.896,-0.2206598112394408,-0.1038764263613609
-3.8955,0.07810508477567314,0.4683420475176805
-3.895,0.2594980573562781,0.775644561267536
-3.8945,0.3661998059331045,0.92399749893988
-3.894,0.3982103305061524,0.9875773293708847
-3.8935,0.408880505363835,0.9875773293708847
-3.893,0.3235191065023739,0.8286277532933731
-3.8925,0.2808384070716433,0.7968378380778709
-3.892,0.291508581929326,0.8392243916985406
-3.8915,0.3235191065023739,0.8922075837243778
-3.891,0.3448594562177392,0.9134008605347127
-3.8905,0.4835717293676135,0.9663840525605498
-3.89,0.9530594231056497,1.146526905448396
-3.8895,0.6649647019482183,0.5319218779486851
-3.889,-0.07127736323188383,-0.4959520473525559
-3.8885,-0.2420001609548061,-1.396666311791788
-3.888,-0.1673089369510276,-1.852321763213987
-3.8875,0.1101156093487211,-1.248313374119443
-3.887,0.2488278824985954,-0.5595318777835605
-3.8865,0.3875401556484697,0.03387987290581572
-3.886,0.408880505363835,0.3411823866556712
