Class_1_Relax_eyes_closed/Class_1_Relax_eyes_closed_Basim_9.csv

#Digilent WaveForms Oscilloscope Acquisition
#Device Name: EExplorer
#Serial Number: SN:210151A2B84A
#Date Time: 2021-01-24 16:20:18.969
#Sample rate: 2000Hz
#Samples: 16384
#Trigger: Source: Channel 1 Type: Edge Condition: Rising Level: 0 V Hyst.: Auto HoldOff: 0 s
#Channel 1: Range: 1 V/div Offset: 0 V Attenuation: 1 X
#Channel 2: Range: 1 V/div Offset: 0 V Attenuation: 1 X
#Power Supplies: ON
#Fixed Supply: ON
#Voltage: 3.3 V Readback: 3.317 V
#Positive Supply: ON
#Voltage: 3.7 V Readback: 3.725 V
#Current: 40 mA Readback: 22 mA
#Negative Supply: ON
#Voltage: -3.7 V Readback: -3.348 V
#Current: -40 mA Readback: -3 mA
#Reference 1: ON
#Voltage: 0 V
#Reference 2: ON
#Voltage: 0 V

Time (s),Channel 1 (V),Channel 2 (V)
-4.096,0.3661998059331045,0.457745409112513
-4.0955,0.8890383739590784,0.1186529801474636
-4.095,0.6969752265206647,-0.5595318777841195
-4.0945,0.03542438534494258,-1.174136905283272
-4.094,-0.1673089369508432,-1.481439419032848
-4.0935,0.06743490991824282,-1.078767159636273
-4.093,0.3448594562177392,-0.5383386009732256
-4.0925,0.5475927785135249,-0.156859618387545
-4.092,0.5902734779443817,0.03387987290585427
-4.0915,0.5262524287983441,0.07626642652648545
-4.091,0.4302208550792003,0.07626642652648545
-4.0905,0.4088805053638641,0.03387987290575789
-4.09,0.4408910299368829,-0.02969995752518888
-4.0895,0.3768699807907871,-0.02969995752518888
-4.089,0.3021787567870766,0.0126865960954423
-4.0885,0.2274875327832301,0.08686306493165288
-4.088,0.1848068333524996,0.1610395337678249
-4.0875,0.1421261339218078,0.2987958330348763
-4.087,0.2381577076406022,0.4259554938965481
-4.0865,-0.1032878878049318,-0.08268314955102604
-4.086,-0.754168554122981,-0.7926579226965983
-4.0855,-1.170305373573031,-1.174136905282963
-4.085,-0.9889124009925911,-0.8350444763179138
-4.0845,-0.5834457564010194,-0.2628260024393928
-4.084,-0.2206598112392176,0.235216002604315
-4.0835,0.02475421048725994,0.5849050699745222
-4.083,0.1527963087794516,0.7650479228623686
-4.0825,0.1954770082101919,0.8604176685088851
-4.082,0.2061471830678648,0.8710143069140429
-4.0815,0.1954770082101822,0.849821030103708
-4.081,0.1848068333525093,0.8074344764830769
-4.0805,0.1848068333524996,0.7544512844572011
-4.08,0.1848068333524996,0.701468092431364
-4.0795,0.1954770082101725,0.6060983467849438
-4.079,-0.08194753809001289,0.139846256956825
-4.0785,-0.572775581542968,-0.5913217929990628
-4.078,-1.05293345013825,-1.237716735713688
-4.0775,-0.903551002130567,-1.21652345890346
-4.077,-0.2846808603855366,-0.6866915386455698
-4.0765,0.2808384070711289,-0.2416327256289423
-4.076,0.6222840025175752,0.01268659609558687
-4.0755,0.7183155762366316,0.1292496185523226
-4.075,0.6542945270905358,0.1292496185523226
-4.0745,0.4942419042251699,0.06566978812127947
-4.074,0.3555296310754218,0.02328323450064829
-4.0735,0.2701682322139607,0.08686306493165288
-4.073,0.216817357925596,0.08686306493165288
-4.0725,0.1741366584948169,0.05507314971615059
-4.072,0.1634664836371343,0.05507314971615059
-4.0715,0.1527963087794613,0.07626642652646617
-4.071,0.1954770082105413,0.1822328105785838
-4.0705,0.5902734779444399,0.6484849004055269
-4.07,0.4195506802216729,0.7226613692416314
-4.0695,-0.3166913849592542,0.03387987290515072
-4.069,-1.052933450138687,-0.6972881770507372
-4.0685,-1.170305373573196,-0.8244478379127463
-4.068,-0.828859778126973,-0.4217755785159309
-4.0675,-0.4127229586777283,0.07626642652648545
-4.067,-0.1032878878049318,0.4789386859228479
-4.0665,0.08877525963344313,0.7544512844573457
-4.066,0.1848068333524996,0.9134008605347127
-4.0655,0.2061471830678648,0.9981739677760521
-4.065,0.2061471830678648,1.019367244586368
-4.0645,0.1848068333524996,1.00877060618122
-4.064,0.1848068333524996,0.9663840525605498
-4.0635,0.1848068333524996,0.9239974989399186
-4.063,0.1954770082100852,0.8498210301033899
-4.0625,0.08877525963335578,0.5001319627331828
-4.062,-0.2740106855275241,-0.2098428104123895
-4.0615,-0.5941159312583042,-0.9198175835595617
-4.061,-0.5621054066852853,-1.258910012524611
-4.0605,-0.06060718837420119,-0.8562377531282487
-4.06,0.3875401556487026,-0.411178940110937
-4.0595,0.6436243522328531,-0.1038764263613609
-4.059,0.6969752265212663,0.01268659609548085
-4.0585,0.6329541773752287,-0.008506680714834736
-4.058,0.5262524287983441,-0.09327978795619347
-4.0575,0.408880505363835,-0.1568596183871981
-4.057,0.3982103305061621,-0.02969995752530455
-4.0565,0.3768699807907871,0.04447651131098315
-4.056,0.3021787567870086,0.03387987290581572
-4.0555,0.227487532783298,0.02328323450065792
-4.055,0.1848068333524898,0.03387987290588318
-4.0545,0.1741366584948169,0.1080563417419877
-4.054,0.4515612047943133,0.5107286011379839
-4.0535,0.4195506802208966,0.7332580076463073
-4.053,-0.2633405106701714,0.1186529801471552
-4.0525,-0.9569018764195432,-0.570128516188728
-4.052,-1.266336947292078,-0.8562377531279499
-4.0515,-0.9782422261349084,-0.5277419625680583
-4.051,-0.5514352318276028,-0.008506680714854012
-4.0505,-0.1886492866667229,0.4365521323017734
-4.05,0.04609456020262521,0.7544512844572011
-4.0495,0.1634664836371343,0.9345941373450475
-4.049,0.206147183067826,1.029963882991468
-4.0485,0.2061471830678454,1.05115715980187
-4.048,0.1848068333524996,1.029963882991555
-4.0475,0.1848068333524996,0.9875773293709232
-4.047,0.1741366584948266,0.93459413734498
-4.0465,0.1848068333524996,0.8604176685088755
-4.046,0.110115609348789,0.6378882620005618
-4.0455,-0.348701909532011,-0.06148987274138508
-4.045,-0.7648387289812555,-0.8244478379127463
-4.0445,-0.9035510021311299,-1.449649503817625
-4.044,-0.8822106524153471,-1.788741932782588
-4.0435,-0.423393133535411,-1.354279758171118
-4.043,0.08877525963335578,-0.7820612842920766
-4.0425,0.4408910299365627,-0.3581957480857648
-4.042,0.6009436528021226,-0.1250697031716958
-4.0415,0.6009436528021226,-0.02969995752518888
-4.041,0.4942419042253932,-0.04029659593034667
-4.0405,0.4408910299369412,-0.08268314955104532
-4.04,0.5049120790829789,-0.1038764263613609
-4.0395,0.4408910299369412,-0.1250697031716765
-4.039,0.3341892813599789,-0.1356663415768439
-4.0385,0.2488278824985954,-0.1144730647665284
-4.038,0.1848068333525578,-0.07208651114589716
-4.0375,0.2915085819294327,0.06566978812137585
-4.037,0.408880505363835,0.1292496185523226
-4.0365,-0.1779791118087102,-0.3793890248957141
-4.036,-0.9995825758506327,-1.015187329205972
-4.0355,-1.394379045584531,-1.248313374119443
-4.035,-1.1062843244271,-0.792657922697244
-4.0345,-0.6367966306894908,-0.1674562567929342
-4.034,-0.2420001609548061,0.3411823866556712
-4.0335,0.02475421048725994,0.6908714540261965
-4.033,0.1527963087793352,0.871014306913879
-4.0325,0.2061471830678648,0.955787414155392
-4.032,0.2061471830678648,0.9663840525605498
-4.0315,0.1954770082101919,0.9451907757502342
-4.031,0.1848068333524996,0.89220758372432
-4.0305,0.1848068333524996,0.8286277532933731
-4.03,0.1848068333524996,0.7650479228624264
-4.0295,0.206147183068156,0.6696781772154472
-4.029,0.5262524287983441,0.2140227257936621
-4.0285,0.7183155762366316,-0.5383386009732256
-4.028,0.1207857842063067,-1.21652345890399
-4.0275,0.01408403562957729,-1.269506650929778
-4.027,0.3341892813600565,-0.7820612842920766
-4.0265,0.5902734779442069,-0.3899856633012382
-4.026,0.707645401378949,-0.1038764263613609
-4.0255,0.6969752265212663,0.05507314971615059
-4.025,0.60094365280221,0.1186529801470974
-4.0245,0.4622313796521124,0.06566978812126983
-4.024,0.3128489316446912,0.01268659609548085
-4.0235,0.1634664836372701,0.06566978812126983
-4.023,0.09944543449102873,0.04447651131095424
-4.0225,0.08877525963335578,0.01268659609548085
-4.022,0.1101156093487017,0.002089957690323059
-4.0215,0.120785784206394,0.03387987290593137
-4.021,0.1101156093487211,0.1610395337678249
-4.0205,0.2594980573562781,0.627291623595192
-4.02,0.04609456020205265,0.616694985189427
-4.0195,-0.5834457564006506,-0.04029659593035631
-4.019,-1.116954499284783,-0.6231117082145651
-4.0185,-1.084943974711764,-0.6549016234300385
-4.018,-0.722158029550525,-0.2734226408440398
-4.0175,-0.3380317346739499,0.1716361721729923
-4.017,-0.04993701351678059,0.5319218779483574
-4.0165,0.1101156093487793,0.7756445612676612
-4.016,0.1741366584948169,0.9134008605347127
-4.0155,0.1954770082101628,0.9875773293708172
-4.015,0.1848068333524898,1.0087706061812
-4.0145,0.1741366584948169,0.9875773293708847
-4.014,0.163466483637144,0.9557874141554112
-4.0135,0.1741366584948266,0.9134008605346549
-4.013,0.1848068333524996,0.849821030103708
-4.0125,-0.03926683865883591,0.5107286011383502
-4.012,-0.7114878546934148,-0.2522293640343989
-4.0115,-1.341028171296118,-1.01518732920576
-4.011,-1.479740444445993,-1.301296566145281
-4.0105,-0.722158029551214,-0.676094900240971
-4.01,0.02475421048725994,-0.2204394488182027
-4.0095,0.5049120790829789,-0.01910331912002144
-4.009,0.6969752265210916,0.01268659609545194
-4.0085,0.6863050516634673,-0.06148987274076827
-4.008,0.5582629533713921,-0.1462629799820306
-4.0075,0.4088805053639709,-0.2204394488181352
-4.007,0.4835717293676523,-0.3370024712750348
-4.0065,0.5262524287983441,-0.326405832869877
-4.006,0.4302208550792003,-0.1780528951975329
-4.0055,0.3128489316446136,0.002089957690448347
-4.005,0.2274875327832301,0.1504428953626575
-4.0045,0.1848068333524996,0.2881991946298341
-4.004,0.5155822539412533,0.6802748156215688
-4.0035,1.166462920259302,1.273686566310405
-4.003,1.102441871113207,1.316073119931075
-4.0025,0.3555296310761011,0.4683420475184515
-4.002,-0.2313299860971235,-0.1674562567923655
-4.0015,-0.3487019095316325,-0.2204394488182027
-4.001,-0.252670335812576,-0.00850668071504676
-4.0005,-0.1032878878048153,0.2458126410093764
-4,0.02475421048725994,0.4789386859228479
-3.9995,0.09944543449103843,0.6484849004055269
-3.999,0.142126133921769,0.7544512844572011
-3.9985,0.1527963087794516,0.8180311148882058
-3.998,0.1527963087794516,0.849821030103708
-3.9975,0.1527963087794516,0.8604176685088755
-3.997,0.1634664836371343,0.849821030103708
-3.9965,0.1848068333524996,0.8286277532933731
-3.996,0.2808384070716433,0.701468092431364
-3.9955,0.6009436528021226,0.1186529801471552
-3.995,0.2701682322139607,-0.6337083466197325
-3.9945,-0.3593720843893152,-1.184733543688439
-3.994,-0.4980843575391895,-1.131750351662602
-3.9935,-0.1779791118087102,-0.5913217929990628
-3.993,0.2061471830678648,-0.1250697031716958
-3.9925,0.4835717293676135,0.09745970333682032
-3.992,0.5689331282290746,0.1504428953626575
-3.9915,0.5155822539406614,0.09745970333682032
-3.991,0.3982103305061524,0.01268659609548085
-3.9905,0.3768699807907871,-0.1038764263613609
-3.99,0.4622313796522482,-0.1674562567923655
-3.9895,0.3982103305061524,-0.1250697031716958
-3.989,0.3021787567870086,-0.05089323433552374
-3.9885,0.2168173579255475,0.01268659609548085
-3.988,0.1634664836371343,0.08686306493165288
-3.9875,0.3128489316446912,0.3623756634660061
-3.987,0.825017324813458,0.9028042221295453
-3.9865,0.5262524287983441,0.6908714540261965
-3.986,-0.2846808603855366,-0.06148987274069118
-3.9855,-0.9782422261349084,-0.6760949002404023
-3.985,-1.020922925565639,-0.6866915386455698
-3.9845,-0.7008176798351597,-0.3370024712750445
-3.984,-0.3380317346739499,0.06566978812131802
-3.9835,-0.07127736323188383,0.383568940276341
-3.983,0.08877525963335578,0.5955017083796896
-3.9825,0.1527963087794516,0.7120647308365314
-3.982,0.1741366584948169,0.7650479228623686
-3.9815,0.1634664836371343,0.7862411996727035
-3.981,0.1634664836371343,0.775644561267536
-3.9805,0.1634664836371343,0.7544512844572011
-3.98,0.1634664836371343,0.7332580076468663
-3.9795,0.1954770082101822,0.6696781772158616
-3.979,0.5049120790829789,0.2458126410091644
-3.9785,0.3235191065023739,-0.4959520473525559
-3.978,-0.3060212101009019,-1.174136905283272
-3.9775,-0.5514352318276028,-1.364876396576285
-3.977,-0.2526703358124887,-0.9092209451540858
-3.9765,0.1314559590640864,-0.4641621321370536
-3.976,0.408880505363835,-0.1250697031716958
-3.9755,0.5369226036560266,0.04447651131098315
-3.975,0.5155822539406614,0.07626642652648545
-3.9745,0.4302208550792003,0.06566978812131802
-3.974,0.3555296310754218,0.002089957690313421
-3.9735,0.4835717293676135,-0.1992461720078678
-3.973,0.4729015545099309,-0.2098428104130352
-3.9725,0.3661998059331045,-0.1038764263613609
-3.972,0.2594980573562781,0.01268659609548085
-3.9715,0.1848068333524996,0.1080563417419877
-3.971,0.2168173579255475,0.2564092794143318
-3.9705,0.5475927785137094,0.7332580076468663
-3.97,0.3235191065023739,0.6484849004055269
-3.9695,-0.2846808603855366,-0.06148987274069118
-3.969,-0.9355615267041777,-0.6019184314042303
-3.9685,-1.1062843244271,-0.7502713690765743
-3.968,-0.807519428411986,-0.4535654937318862
-3.9675,-0.4340633083930936,-0.07208651114585861
-3.967,-0.1352984123779797,0.2564092794143318
-3.9665,0.05676473506030786,0.4683420475176805
-3.966,0.142126133921769,0.5955017083796896
-3.9655,0.1634664836371343,0.6590815388106942
-3.965,0.1634664836371343,0.6802748156210291
-3.9645,0.1527963087794516,0.6802748156210291
-3.964,0.1527963087794516,0.6696781772158616
-3.9635,0.1527963087794516,0.6484849004055269
-3.963,0.1634664836371343,0.6060983467848571
-3.9625,0.2594980573562781,0.3199891098453364
-3.962,0.4515612047945656,-0.3793890248957141
-3.9615,0.1634664836371343,-1.089363798041932
-3.961,-0.07127736323188383,-1.38606967338662
-3.9605,0.07810508477567314,-0.8986243067489184
-3.96,0.3448594562177392,-0.3475991096802118
-3.9595,0.5475927785137094,-0.008506680714854012
-3.959,0.6009436528021226,0.1610395337678249
-3.9585,0.5262524287983441,0.2352160026039969
-3.958,0.4195506802215176,0.1928294489833272
-3.9575,0.3128489316446912,0.1080563417419877
-3.957,0.3341892813600565,-0.1038764263613609
-3.9565,0.3341892813600565,-0.1780528951975329
-3.956,0.2701682322139607,-0.1144730647665284
-3.9555,0.2061471830678648,-0.008506680714854012
-3.955,0.1634664836371343,0.09745970333682032
-3.9545,0.142126133921769,0.1928294489833272
-3.954,0.4195506802215176,0.5425185163538525
-3.9535,0.4729015545099309,0.9663840525605498
-3.953,-0.2633405106701714,0.8710143069140429
-3.9525,-1.052933450138687,0.1080563417419877
-3.952,-1.244996597576974,-0.3899856633008816
-3.9515,-0.9248913518464952,-0.3581957480853793
-3.951,-0.5087545323968721,-0.1038764263613609
-3.9505,-0.1779791118087102,0.1610395337678249
-3.95,0.03542438534494258,0.3729723018711736
-3.9495,0.1314559590640864,0.5319218779486851
-3.949,0.1634664836371343,0.627291623595192
-3.9485,0.1634664836371343,0.6908714540261965
-3.948,0.1527963087794516,0.7226613692416989
-3.9475,0.142126133921769,0.7332580076468663
-3.947,0.142126133921769,0.7332580076468663
-3.9465,0.1527963087794516,0.7226613692416989
-3.946,0.1741366584948169,0.5955017083796896
-3.9455,0.4302208550792003,0.03387987290581572
-3.945,0.1314559590640864,-0.6972881770507372
-3.9445,-0.5300948821122373,-1.205926820498774
-3.944,-0.4980843575391895,-0.9092209451540858
-3.9435,-0.09261771294724913,-0.4959520473525559
-3.943,0.2808384070716433,-0.1780528951975329
-3.9425,0.5049120790829789,0.002089957690313421
-3.942,0.5689331282290746,0.07626642652648545
-3.9415,0.4942419042252961,0.04447651131098315
-3.941,0.3875401556484697,0.002089957690313421
-3.9405,0.3235191065023739,-0.04029659593035631
-3.94,0.3128489316446912,-0.1038764263613609
-3.9395,0.2488278824985954,-0.1144730647665284
-3.939,0.1848068333524996,-0.09327978795619347
-3.9385,0.142126133921769,-0.04029659593035631
-3.938,0.1207857842064037,0.02328323450064829
-3.9375,0.2381577076409128,0.2987958330350016
-3.937,0.4622313796522482,0.7968378380778709
-3.9365,0.03542438534494258,0.5107286011383502
-3.936,-0.6154562809736985,-0.3052125560595421
-3.9355,-1.084943974711735,-0.8774310299385835
-3.935,-0.9569018764195432,-0.718481453861072
-3.9345,-0.5941159312583333,-0.2628260024388724
-3.934,-0.2526703358124887,0.1822328105781598
-3.9335,-0.02859666380115328,0.5213252395435176
-3.933,0.09944543449103843,0.7332580076468663
-3.9325,0.1527963087794516,0.849821030103708
-3.932,0.1527963087794516,0.8922075837243778
-3.9315,0.142126133921769,0.9028042221295453
-3.931,0.142126133921769,0.8922075837243778
-3.9305,0.1314559590640864,0.8604176685088755
-3.93,0.142126133921769,0.8074344764830383
-3.9295,0.1527963087794516,0.7120647308365314
-3.929,0.2701682322139607,0.1928294489833272
-3.9285,0.1207857842064037,-0.5807251545938954
-3.928,-0.5621054066852853,-1.290699927740113
-3.9275,-1.06360362499637,-1.788741932782983
-3.927,-0.7861790786966207,-1.439052865412457
-3.9265,-0.2526703358124887,-0.8456411147230812
-3.926,0.1848068333524996,-0.400582301706049
-3.9255,0.4302208550792003,-0.1144730647665284
-3.925,0.4835717293676135,-0.02969995752518888
-3.9245,0.4302208550792003,-0.04029659593035631
-3.924,0.3661998059331045,-0.1038764263613609
-3.9235,0.408880505363835,-0.1780528951975329
-3.923,0.3661998059331045,-0.2204394488182027
-3.9225,0.2701682322139607,-0.2310360872233701
-3.922,0.1954770082101822,-0.2098428104130352
-3.9215,0.142126133921769,-0.1674562567923655
-3.921,-0.06060718837420119,-0.1886495336027004
-3.9205,-0.5941159312583333,-0.6125150698093976
-3.92,-1.26633694729234,-1.163540266878104
-3.9195,-1.853196564464885,-1.650985633515806
-3.919,-2.07727023647622,-1.778145294377815
-3.9185,-1.490410619303675,-1.110557074852267
-3.918,-0.8288597781273515,-0.3370024712750445
-3.9175,-0.3166913849585846,0.2881991946298341
-3.917,-0.007256314085787988,0.6802748156210291
-3.9165,0.142126133921769,0.8816109453192104
-3.916,0.1954770082101822,0.9451907757502149
-3.9155,0.1954770082101822,0.9345941373450475
-3.915,0.1634664836371343,0.8816109453192104
-3.9145,0.1527963087794516,0.8074344764830383
-3.914,0.142126133921769,0.7226613692416989
-3.9135,0.142126133921769,0.6378882620003594
-3.913,0.1527963087794516,0.5425185163538525
-3.9125,0.1848068333524996,0.1928294489833272
-3.912,0.291508581929326,-0.5383386009732256
-3.9115,-0.2526703358124887,-1.237716735714276
-3.911,-0.6794773301197943,-1.396666311791788
-3.9105,-0.2526703358124887,-0.6972881770507372
-3.91,0.2488278824985954,-0.3052125560595421
-3.9095,0.5582629533713921,-0.1038764263613609
-3.909,0.6436243522328531,-0.07208651114585861
-3.9085,0.5796033030867573,-0.1144730647665284
-3.908,0.4515612047945656,-0.1674562567923655
-3.9075,0.3341892813600565,-0.2098428104130352
-3.907,0.3341892813600565,-0.2840192792492073
-3.9065,0.3128489316446912,-0.2946159176543747
-3.906,0.2488278824985954,-0.2310360872233701
-3.9055,0.1954770082101822,-0.1356663415768632
-3.905,0.1527963087794516,-0.02969995752518888
-3.9045,0.09944543449103843,0.09745970333682032
-3.904,0.2061471830678648,0.457745409112513
-3.9035,0.2488278824985954,0.6166949851900245
-3.903,-0.1459685872356623,-0.008506680714854012
-3.9025,-0.6794773301197943,-0.792657922697244
-3.902,-0.9355615267041777,-1.036380606016095
-3.9015,-0.7328282044082075,-0.6337083466197325
-3.901,-0.4127229586777283,-0.09327978795619347
-3.9005,-0.1459685872356623,0.3729723018711736
-3.9,0.02475421048725994,0.6908714540261965
-3.8995,0.1207857842064037,0.8816109453192104
-3.899,0.1527963087794516,0.9663840525605498
-3.8985,0.1527963087794516,0.9981739677760521
-3.898,0.142126133921769,0.9875773293708847
-3.8975,0.1314559590640864,0.9451907757502149
-3.897,0.142126133921769,0.8922075837243778
-3.8965,0.1527963087794516,0.8180311148882058
-3.896,0.142126133921769,0.6802748156210291
-3.8955,-0.04993701351651855,0.07626642652648545
-3.895,-0.6688071552621118,-0.7290780922662394
-3.8945,-1.138294849000148,-1.322489842955616
-3.894,-0.7328282044082075,-1.110557074852267
-3.8935,-0.1139580626626144,-0.6231117082145651
-3.893,0.3448594562177392,-0.2628260024388724
-3.8925,0.5796033030867573,-0.1144730647665284
-3.892,0.5902734779444399,-0.09327978795619347
-3.8915,0.5049120790829789,-0.1356663415768632
-3.891,0.3875401556484697,-0.2098428104130352
-3.8905,0.3448594562177392,-0.1886495336027004
-3.89,0.3341892813600565,-0.1250697031716958
-3.8895,0.2701682322139607,-0.1356663415768632
-3.889,0.2061471830678648,-0.1462629799820306
-3.8885,0.1527963087794516,-0.1250697031716958
-3.888,0.1207857842064037,-0.07208651114585861
