Class_1_Relax_eyes_closed/Class_1_Relax_eyes_closed_AM_10.csv

#Digilent WaveForms Oscilloscope Acquisition
#Device Name: EExplorer
#Serial Number: SN:210151A2B84A
#Date Time: 2021-01-19 10:00:48.694
#Sample rate: 2000Hz
#Samples: 16384
#Trigger: Source: Channel 1 Type: Edge Condition: Rising Level: 0 V Hyst.: Auto HoldOff: 0 s
#Channel 1: Range: 1 V/div Offset: 0 V Attenuation: 1 X
#Channel 2: Range: 1 V/div Offset: 0 V Attenuation: 1 X
#Power Supplies: ON
#Fixed Supply: ON
#Voltage: 3.3 V Readback: 3.346 V
#Positive Supply: ON
#Voltage: 3.7 V Readback: 3.717 V
#Current: 40 mA Readback: 16 mA
#Negative Supply: ON
#Voltage: -3.7 V Readback: -3.334 V
#Current: -40 mA Readback: -11 mA
#Reference 1: ON
#Voltage: 0 V
#Reference 2: ON
#Voltage: 0 V

Time (s),Channel 1 (V),Channel 2 (V)
-4.096,-1.084943974711735,-0.8244478379127463
-4.0955,-1.362368521011231,-1.364876396575794
-4.095,-1.533091318734018,-1.216523458903469
-4.0945,-1.1062843244271,-0.6972881770507372
-4.094,-0.5300948821127613,-0.2946159176547409
-4.0935,-0.06060718837392946,-0.04029659593024066
-4.093,0.2381577076409128,0.08686306493165288
-4.0925,0.3875401556483339,0.1398462569574419
-4.092,0.4408910299368829,0.1610395337678442
-4.0915,0.4408910299368829,0.1822328105781598
-4.091,0.4195506802215176,0.2034260873884947
-4.0905,0.398210330506133,0.224619364198868
-4.09,0.3768699807907871,0.2670059178194992
-4.0895,0.3768699807907871,0.309392471440169
-4.089,0.3341892813600953,0.2140227257937488
-4.0885,-0.1352984123779797,-0.3475991096802118
-4.088,-0.690147504977477,-1.025783967610927
-4.0875,-0.9889124009923194,-1.54501924946366
-4.087,-0.8395299529845681,-1.502632695843096
-4.0865,-0.3273615598162672,-1.0999604364471
-4.086,0.1527963087790149,-0.6972881770511035
-4.0855,0.419550680221605,-0.1886495336022667
-4.085,0.5155822539406614,0.2881991946298341
-4.0845,0.5155822539406614,0.6166949851897258
-4.084,0.483571729367565,0.7756445612675649
-4.0835,0.4302208550792003,0.8074344764830383
-4.083,0.4515612047945656,0.7332580076468663
-4.0825,0.4729015545099114,0.6378882620002342
-4.082,0.4515612047945656,0.5001319627331828
-4.0815,0.4195506802215176,0.3623756634660061
-4.081,0.3875401556484989,0.2352160026041126
-4.0805,0.1954770082101822,0.2881991946298341
-4.08,-0.4127229586777283,0.6802748156210291
-4.0795,-0.978242226134394,0.3411823866559797
-4.079,-1.234326422719544,-0.4217755785165189
-4.0785,-1.51175096901904,-0.570128516188728
-4.078,-1.298347471865582,-0.2098428104133629
-4.0775,-0.7434983792654147,-0.05089323433547555
-4.077,-0.2206598112394408,0.002089957690313421
-4.0765,0.142126133921439,0.01268659609547122
-4.076,0.3448594562178168,0.002089957690323059
-4.0755,0.4302208550792003,0.01268659609548085
-4.075,0.4408910299368829,0.03387987290581572
-4.0745,0.4302208550791809,0.07626642652654328
-4.074,0.408880505363835,0.13984625695749
-4.0735,0.3875401556484697,0.2034260873884947
-4.073,0.3768699807907968,0.2776025562245992
-4.0725,0.3768699807907871,0.309392471440169
-4.072,0.1527963087794516,-0.08268314955102604
-4.0715,-0.4767440078232518,-0.7396747306708094
-4.071,-0.903551002131227,-1.290699927740258
-4.0705,-1.010252750707956,-1.449649503817625
-4.07,-0.6047861061163846,-1.216523458904154
-4.0695,-0.06060718837386153,-0.898624306748475
-4.069,0.3128489316446912,-0.4111789401112165
-4.0685,0.4835717293676135,0.1080563417419877
-4.068,0.526252428798315,0.5319218779489163
-4.0675,0.4942419042252961,0.7862411996727035
-4.067,0.4515612047945656,0.8710143069140429
-4.0665,0.43022085507921,0.8816109453191622
-4.066,0.4408910299368829,0.8286277532933731
-4.0655,0.4302208550792003,0.6802748156210291
-4.065,0.4088805053638545,0.5001319627333467
-4.0645,0.3875401556484697,0.3411823866556712
-4.064,0.3235191065023739,0.2458126410091644
-4.0635,-0.1459685872352354,0.5637117931638983
-4.063,-0.7968492535545946,0.4789386859221636
-4.0625,-1.116954499284783,-0.2734226408440398
-4.062,-1.415719395299625,-0.9304142219638232
-4.0615,-1.351698346153325,-0.9622041371796435
-4.061,-0.8288597781273515,-0.6549016234300674
-4.0605,-0.2953510352432193,-0.3475991096802118
-4.06,0.09944543449124223,-0.1144730647664127
-4.0595,0.3235191065023739,0.01268659609548085
-4.059,0.4195506802215176,0.06566978812131802
-4.0585,0.4408910299368635,0.08686306493163361
-4.058,0.4302208550792003,0.09745970333682032
-4.0575,0.408880505363835,0.1080563417419877
-4.057,0.3875401556484891,0.1186529801471455
-4.0565,0.3768699807907871,0.1504428953626575
-4.056,0.3768699807907871,0.1822328105781598
-4.0555,0.2808384070717307,0.002089957690477262
-4.055,-0.2526703358129934,-0.5807251545944929
-4.0545,-0.807519428411986,-1.237716735714276
-4.054,-1.084943974711483,-1.703968825541219
-4.0535,-0.9142211769883078,-1.725162102351699
-4.053,-0.3593720843893152,-1.417859588602123
-4.0525,0.1101156093487211,-0.8350444763179138
-4.052,0.3768699807908744,-0.1886495336022474
-4.0515,0.4729015545099309,0.309392471440169
-4.051,0.4835717293676135,0.6166949851900245
-4.0505,0.4622313796522676,0.7756445612673915
-4.05,0.4195506802215176,0.8286277532933731
-4.0495,0.1634664836371343,0.9451907757502149
-4.049,0.0567647350604049,0.8498210301037947
-4.0485,0.1101156093488084,0.606098346784645
-4.048,0.2061471830678648,0.3729723018711736
-4.0475,0.2808384070715754,0.2034260873886489
-4.047,0.2808384070715851,0.35177902506107
-4.0465,0.2168173579255475,0.6060983467848571
-4.046,-0.220659811239043,0.04447651131149399
-4.0455,-0.7008176798355673,-0.6972881770507179
-4.045,-1.148965023857831,-0.6760949002404023
-4.0445,-1.010252750707956,-0.3052125560595421
-4.044,-0.5621054066848874,-0.0720865111457526
-4.0435,-0.124628237520297,0.04447651131098315
-4.043,0.1741366584948169,0.1080563417419877
-4.0425,0.3448594562175839,0.1504428953626189
-4.042,0.4195506802215176,0.1822328105781598
-4.0415,0.4302208550792003,0.2246193641988295
-4.041,0.4195506802215274,0.2776025562246185
-4.0405,0.3982103305061427,0.330585748250552
-4.04,0.3875401556484697,0.383568940276341
-4.0395,0.3768699807907968,0.4471487707072878
-4.039,0.3768699807904863,0.3835689402758881
-4.0385,0.04609456020262521,-0.1144730647665284
-4.038,-0.4127229586773111,-0.7608680074811538
-4.0375,-0.7008176798351112,-1.269506650929798
-4.037,-0.6474668055467465,-1.290699927740113
-4.0365,-0.2099896363817582,-1.078767159636765
-4.036,0.2061471830680783,-0.7502713690761599
-4.0355,0.4408910299368829,-0.2946159176543747
-4.035,0.5155822539406614,0.1504428953626575
-4.0345,0.5155822539406614,0.4895353243277069
-4.034,0.4729015545099309,0.6802748156210291
-4.0335,0.4195506802215176,0.7226613692416989
-4.033,0.4302208550791906,0.6166949851901209
-4.0325,0.4515612047945461,0.4683420475175649
-4.032,0.4302208550792003,0.3411823866556712
-4.0315,0.3982103305061815,0.2246193641989355
-4.031,0.3768699807906998,0.1292496185523804
-4.0305,0.2808384070716433,0.1928294489833272
-4.03,-0.2740106855273494,0.5743084315690079
-4.0295,-0.8822106524160361,0.1928294489826333
-4.029,-1.180975548430879,-0.570128516188728
-4.0285,-1.490410619303675,-0.7502713690765743
-4.028,-1.394379045584036,-0.294615917654153
-4.0275,-0.8502001278427167,-0.05089323433552374
-4.027,-0.2953510352432193,0.03387987290581572
-4.0265,0.09944543449067939,0.04447651131097351
-4.026,0.3235191065023739,0.03387987290581572
-4.0255,0.4195506802215176,0.04447651131098315
-4.025,0.4408910299368635,0.07626642652645654
-4.0245,0.4302208550791809,0.118652980147213
-4.024,0.408880505363835,0.1822328105781598
-4.0235,0.3875401556484891,0.2564092794142643
-4.023,0.3768699807907871,0.3305857482505424
-4.0225,0.3768699807907871,0.3729723018711736
-4.022,0.1634664836373284,0.09745970333707088
-4.0215,-0.4020527838204533,-0.5277419625685883
-4.021,-0.8502001278427167,-1.110557074852267
-4.0205,-1.052933450138687,-1.439052865412457
-4.02,-0.7648387289807606,-1.343683119765603
-4.0195,-0.2206598112394408,-0.9622041371799229
-4.019,0.1741366584948169,-0.3475991096802118
-4.0185,0.3982103305059486,0.2352160026034669
-4.018,0.4729015545099309,0.6378882620003594
-4.0175,0.4729015545099309,0.8286277532933731
-4.017,0.451561204794585,0.8816109453191622
-4.0165,0.4302208550791809,0.8286277532932671
-4.016,0.408880505363835,0.7120647308365314
-4.0155,0.3875401556484891,0.5637117931643223
-4.015,0.3768699807907774,0.3941655786813735
-4.0145,0.3661998059331045,0.2458126410091644
-4.014,0.3235191065024127,0.1504428953627442
-4.0135,-0.0926177129478217,0.4683420475176323
-4.013,-0.722158029550525,0.4153588554918433
-4.0125,-1.127624674142465,-0.3052125560595421
-4.012,-1.479740444446031,-0.930414221964411
-4.0115,-1.522421143876723,-0.9198175835592532
-4.011,-0.9889124009925911,-0.5913217929990628
-4.0105,-0.4127229586782524,-0.2946159176546445
-4.01,0.02475421048725994,-0.09327978795619347
-4.0095,0.291508581929326,0.01268659609548085
-4.009,0.4088805053637283,0.06566978812126983
-4.0085,0.4515612047945559,0.08686306493166251
-4.008,0.4408910299368829,0.09745970333682032
-4.0075,0.4195506802215371,0.1186529801471359
-4.007,0.3982103305061427,0.139846256957519
-4.0065,0.3875401556484697,0.1716361721729923
-4.006,0.3768699807907871,0.2140227257936621
-4.0055,0.3128489316441963,0.02328323450007967
-4.005,-0.2313299860971235,-0.6019184314042303
-4.0045,-0.7755089038389382,-1.258910012524611
-4.004,-1.04226327528082,-1.714565463946782
-4.0035,-0.839529952985034,-1.682775548731308
-4.003,-0.2953510352432193,-1.396666311791788
-4.0025,0.163466483636717,-0.8562377531287402
-4.002,0.4195506802215176,-0.2098428104130352
-4.0015,0.5049120790829789,0.2776025562246667
-4.001,0.4942419042253058,0.5955017083794005
-4.0005,0.4622313796522094,0.7438546460520626
-4,0.4195506802215176,0.775644561267536
-3.9995,0.3555296310754218,0.7862411996727035
-3.999,0.3128489316446912,0.7226613692416989
-3.9985,0.3128489316446912,0.5743084315693548
-3.998,0.3341892813600565,0.4365521323021782
-3.9975,0.3448594562177392,0.309392471440169
-3.997,0.0674349099179905,0.4471487707073456
-3.9965,-0.5834457564006506,0.6484849004055269
-3.996,-1.031593100423322,0.03387987290581572
-3.9955,-1.319687821580753,-0.7290780922662394
-3.995,-1.543761493592088,-0.9304142219644207
-3.9945,-1.159635198715513,-0.6125150698093976
-3.994,-0.5834457564006506,-0.3052125560595421
-3.9935,-0.09261771294724913,-0.09327978795619347
-3.993,0.2274875327832301,0.03387987290581572
-3.9925,0.3875401556484697,0.1080563417419877
-3.992,0.4408910299368829,0.13984625695749
-3.9915,0.4408910299368829,0.1610395337678249
-3.991,0.4302208550792003,0.1822328105781598
-3.9905,0.408880505363835,0.2246193641988295
-3.99,0.3875401556484697,0.2564092794143318
-3.9895,0.3768699807907871,0.2987958330350016
-3.989,0.3768699807907871,0.2458126410091644
-3.9885,0.02475421048725994,-0.2734226408440398
-3.988,-0.6367966306890638,-0.9622041371799229
-3.9875,-1.031593100423322,-1.51322933424863
-3.987,-1.031593100423322,-1.619195718300304
-3.9865,-0.5407650569699201,-1.290699927740113
-3.986,-0.01792648894347063,-0.8138511995075789
-3.9855,0.3128489316446912,-0.2098428104130352
-3.985,0.4622313796522482,0.2987958330350016
-3.9845,0.5155822539406614,0.627291623595192
-3.984,0.4942419042252961,0.7862411996727035
-3.9835,0.4515612047945656,0.8286277532933731
-3.983,0.4515612047945656,0.8816109453192104
-3.9825,0.4622313796522482,0.849821030103708
-3.982,0.4302208550792003,0.6484849004055269
-3.9815,0.408880505363835,0.4153588554918433
-3.981,0.3875401556484697,0.2140227257936621
-3.9805,0.2381577076409128,0.1928294489833272
-3.98,-0.3273615598162672,0.5319218779486851
-3.9795,-0.8715404775580819,0.2246193641988295
-3.979,-1.127624674142465,-0.5383386009732256
-3.9785,-1.405049220442214,-0.8350444763179138
-3.978,-1.319687821580753,-0.4429688553267188
-3.9775,-0.7968492535543035,-0.1780528951975329
-3.977,-0.274010685527854,-0.04029659593035631
-3.9765,0.1101156093487211,0.01268659609548085
-3.976,0.3341892813600565,0.03387987290581572
-3.9755,0.4195506802215176,0.05507314971615059
-3.975,0.4408910299368829,0.09745970333682032
-3.9745,0.4302208550792003,0.1504428953626575
-3.974,0.4195506802215176,0.2034260873884947
-3.9735,0.3982103305061524,0.2776025562246667
-3.973,0.3875401556484697,0.3517790250608387
-3.9725,0.3768699807907871,0.4047622170866759
-3.972,0.1207857842064037,0.07626642652648545
-3.9715,-0.5194247072545548,-0.5913217929990628
-3.971,-0.9355615267041777,-1.174136905283272
-3.9705,-1.031593100423322,-1.449649503817625
-3.97,-0.6474668055467465,-1.290699927740113
-3.9695,-0.08194753808956648,-0.9622041371799229
-3.969,0.3021787567870086,-0.4429688553267188
-3.9685,0.4835717293676135,0.13984625695749
-3.968,0.5262524287983441,0.5849050699745222
-3.9675,0.5049120790829789,0.8180311148882058
-3.967,0.4515612047945656,0.8922075837243778
-3.9665,0.3875401556484697,0.9028042221295453
-3.966,0.1954770082101822,0.9451907757502149
-3.9655,0.1527963087794516,0.7544512844572011
-3.965,0.2061471830678648,0.4683420475176805
-3.9645,0.2701682322139607,0.2140227257936621
-3.964,0.291508581929326,0.05507314971615059
-3.9635,-0.007256314085787988,0.3199891098453364
-3.963,-0.572775581542968,0.3199891098453364
-3.9625,-0.9355615267041777,-0.3475991096802118
-3.962,-1.180975548430879,-0.8562377531282487
-3.9615,-1.351698346153801,-0.4959520473525559
-3.961,-0.9889124009925911,-0.1462629799820306
-3.9605,-0.4554036581084589,-0.01910331912002144
-3.96,-0.01792648894347063,0.01268659609548085
-3.9595,0.2594980573562781,0.02328323450064829
-3.959,0.3982103305061524,0.02328323450064829
-3.9585,0.4408910299368829,0.05507314971615059
-3.958,0.4408910299368829,0.1080563417419877
-3.9575,0.4195506802215176,0.1822328105781598
-3.957,0.3982103305061524,0.2564092794143318
-3.9565,0.3875401556484697,0.3411823866556712
-3.956,0.3875401556484697,0.4259554938970107
-3.9555,0.3768699807907871,0.2670059178194992
-3.955,-0.09261771294724913,-0.326405832869877
-3.9545,-0.6261264558313813,-0.9410108603695881
-3.954,-0.9569018764195432,-1.333086481360783
-3.9535,-0.8715404775580819,-1.216523458903942
-3.953,-0.3807124341046804,-0.8138511995075789
-3.9525,0.07810508477567314,-0.2840192792492073
-3.952,0.3555296310754218,0.2140227257936621
-3.9515,0.4622313796522482,0.6060983467848571
-3.951,0.4942419042252961,0.8604176685088755
-3.9505,0.4729015545099309,0.9557874141553824
-3.95,0.4302208550792003,0.9028042221295453
-3.9495,0.2488278824985954,0.8816109453192104
-3.949,0.1634664836371343,0.7332580076468663
-3.9485,0.1848068333524996,0.4683420475176805
-3.948,0.2488278824985954,0.2140227257936621
-3.9475,0.3021787567870086,0.01268659609548085
-3.947,0.08877525963335578,0.1610395337678249
-3.9465,-0.5407650569699201,0.4259554938970107
-3.946,-1.010252750707956,-0.1038764263613609
-3.9455,-1.244996597576974,-0.8138511995075789
-3.945,-1.479740444445993,-0.9198175835592532
-3.9445,-1.148965023857831,-0.5489352393783931
-3.944,-0.5834457564006506,-0.252229364033705
-3.9435,-0.1032878878049318,-0.07208651114585861
-3.943,0.2168173579255475,0.03387987290581572
-3.9425,0.3875401556484697,0.08686306493165288
-3.942,0.4408910299368829,0.1186529801471552
-3.9415,0.4515612047945656,0.1504428953626575
-3.941,0.4302208550792003,0.1822328105781598
-3.9405,0.408880505363835,0.2140227257936621
-3.94,0.3982103305061524,0.2670059178194992
-3.9395,0.3875401556484697,0.3199891098453364
-3.939,0.3875401556484697,0.2881991946298341
-3.9385,0.09944543449103843,-0.1886495336027004
-3.938,-0.4874141826815069,-0.8668343915334161
-3.9375,-0.807519428411986,-1.396666311791788
-3.937,-0.754168554123573,-1.47084278062796
-3.9365,-0.3273615598162672,-1.089363798041932
-3.936,0.1314559590640864,-0.6866915386455698
-3.9355,0.3982103305061524,-0.1144730647665284
-3.935,0.4942419042252961,0.3623756634660061
-3.9345,0.5049120790829789,0.6484849004055269
-3.934,0.4729015545099309,0.775644561267536
-3.9335,0.4302208550792003,0.7968378380778709
-3.933,0.408880505363835,0.8286277532933731
-3.9325,0.408880505363835,0.8074344764830383
-3.932,0.408880505363835,0.6060983467848571
-3.9315,0.3982103305061524,0.3729723018711736
-3.931,0.3875401556484697,0.1716361721729923
-3.9305,0.3021787567870086,0.1292496185523226
-3.93,-0.1993194615240755,0.4789386859228479
-3.9295,-0.7861790786966207,0.2246193641988295
-3.929,-1.202315898146244,-0.5065486857577234
-3.9285,-1.597112367880501,-0.8668343915334161
-3.928,-1.554431668449771,-0.5065486857577234
-3.9275,-0.9675720512772257,-0.1992461720078678
-3.927,-0.3700422592469978,-0.02969995752518888
-3.9265,0.0674349099179905,0.04447651131098315
-3.926,0.3235191065023739,0.09745970333682032
-3.9255,0.4302208550792003,0.1292496185523226
-3.925,0.4622313796522482,0.1610395337678249
-3.9245,0.4408910299368829,0.2140227257936621
-3.924,0.4195506802215176,0.2670059178194992
-3.9235,0.408880505363835,0.3305857482505039
-3.923,0.3875401556484697,0.3941655786815084
-3.9225,0.3875401556484697,0.4471487707073456
-3.922,0.2168173579255475,0.1822328105781598
-3.9215,-0.3380317346739499,-0.4429688553267188
-3.921,-0.7648387289812555,-1.046977244421262
-3.9205,-0.9355615267041777,-1.417859588602123
-3.92,-0.7008176798351597,-1.449649503817625
-3.9195,-0.1673089369510276,-1.227120097309109
-3.919,0.2381577076409128,-0.7078848154559045
-3.9185,0.4408910299368829,-0.1250697031716958
-3.918,0.5049120790829789,0.3199891098453364
-3.9175,0.4942419042252961,0.5849050699745222
-3.917,0.4515612047945656,0.701468092431364
-3.9165,0.408880505363835,0.7544512844572011
-3.916,0.2701682322139607,0.8286277532933731
-3.9155,0.2381577076409128,0.6908714540261965
-3.915,0.2701682322139607,0.4683420475176805
-3.9145,0.3128489316446912,0.2670059178194992
-3.914,0.3128489316446912,0.13984625695749
-3.9135,-0.02859666380115328,0.4153588554918433
-3.913,-0.658136980404429,0.5213252395435176
-3.9125,-1.042263275281004,-0.1356663415768632
-3.912,-1.30901764672307,-0.8244478379127463
-3.9115,-1.426389570157579,-0.7820612842920766
-3.911,-0.9782422261349084,-0.4429688553267188
-3.9105,-0.4340633083930936,-0.1780528951975329
-3.91,0.01408403562957729,-0.008506680714854012
-3.9095,0.2808384070716433,0.08686306493165288
-3.909,0.408880505363835,0.13984625695749
-3.9085,0.4515612047945656,0.1716361721729923
-3.908,0.4408910299368829,0.2034260873884947
-3.9075,0.4302208550792003,0.2352160026039969
-3.907,0.408880505363835,0.2670059178194992
-3.9065,0.3982103305061524,0.309392471440169
-3.906,0.3875401556484697,0.3517790250608387
-3.9055,0.3235191065023739,0.2034260873884947
-3.905,-0.2206598112394408,-0.4111789401112165
-3.9045,-0.7968492535543035,-1.078767159636765
-3.904,-1.052933450138687,-1.545019249464132
-3.9035,-0.9248913518464952,-1.502632695843462
-3.903,-0.3700422592469978,-1.290699927740113
-3.9025,0.142126133921769,-0.9304142219644207
-3.902,0.4195506802215176,-0.3475991096802118
-3.9015,0.5155822539406614,0.1822328105781598
-3.901,0.5262524287983441,0.5425185163538525
-3.9005,0.4835717293676135,0.701468092431364
-3.9,0.4408910299368829,0.7226613692416989
-3.8995,0.2061471830678648,0.7968378380778709
-3.899,0.03542438534494258,0.7544512844572011
-3.8985,0.0674349099179905,0.5425185163538525
-3.898,0.1741366584948169,0.309392471440169
-3.8975,0.2701682322139607,0.1292496185523226
-3.897,0.09944543449103843,0.2564092794143318
-3.8965,-0.5300948821122373,0.5319218779486851
-3.896,-0.9995825758502737,0.002089957690313421
-3.8955,-1.223656247861609,-0.7396747306714069
-3.895,-1.447729919872945,-0.8350444763179138
-3.8945,-1.138294849000148,-0.4535654937318862
-3.894,-0.5834457564006506,-0.1568596183871981
-3.8935,-0.1032878878049318,0.02328323450064829
-3.893,0.2168173579255475,0.1292496185523226
-3.8925,0.3875401556484697,0.1928294489833272
-3.892,0.4515612047945656,0.2352160026039969
-3.8915,0.4515612047945656,0.2881991946298341
-3.891,0.4408910299368829,0.3305857482505039
-3.8905,0.4195506802215176,0.3729723018711736
-3.89,0.3982103305061524,0.4259554938970107
-3.8895,0.3982103305061524,0.4683420475176805
-3.889,0.3768699807907871,0.457745409112513
-3.8885,0.04609456020262521,0.04447651131098315
-3.888,-0.5300948821122373,-0.6443049850249
-3.8875,-0.8608703027003992,-1.216523458903942
-3.887,-0.8928808272734472,-1.42845622700729
