Class_1_Relax_eyes_closed/Class_1_Relax_eyes_closed_UZ_8.csv

#Digilent WaveForms Oscilloscope Acquisition
#Device Name: EExplorer
#Serial Number: SN:210151A2B84A
#Date Time: 2020-12-20 12:38:13.371
#Sample rate: 2000Hz
#Samples: 16384
#Trigger: Source: Channel 1 Type: Edge Condition: Rising Level: 0 V Hyst.: Auto HoldOff: 0 s
#Channel 1: Range: 1 V/div Offset: 0 V
#Channel 2: Range: 1 V/div Offset: 0 V

Time (s),Channel 1 (V),Channel 2 (V)
-4.0960000000000001,0.38754015564846972,0.47893868592284788
-4.0955000000000004,0.23815770764104863,0.56371179316411024
-4.0949999999999998,0.056764735060191404,0.68027481562132786
-4.0945,-0.071277363231883828,1.0087706061812196
-4.0940000000000003,0.38754015564805244,1.3372663967411111
-4.0934999999999997,0.82501732481321544,1.5491991648448162
-4.093,0.55826295337139209,1.6127789952757632
-4.0925000000000002,-0.35937208438848056,1.5597958032499741
-4.0919999999999996,-0.79684925355423553,0.98757732937014264
-4.0914999999999999,-0.72215802955052499,0.17163617217299235
-4.0910000000000002,-0.48741418268150688,-0.48535540894738849
-4.0904999999999996,-0.26334051067002584,-0.86683439153353181
-4.0899999999999999,-0.10328788780493176,-0.99399405239542526
-4.0895000000000001,-0.017926488943470625,-0.96220413717992292
-4.0890000000000004,0.014084035629548179,-0.82444783791287168
-4.0884999999999998,-0.039266838658835915,-0.62311170821456507
-4.0880000000000001,-0.12462823752029703,-0.40058230170604903
-4.0875000000000004,-0.29535103524306405,-0.11447306476678859
-4.0869999999999997,-0.54076505697030819,0.25640927941471731
-4.0865,-0.96757205127722568,0.68027481562102909
-4.0860000000000003,-1.5971123678799288,1.1465269054479719
-4.0854999999999997,-2.2800035587723846,1.5068126112240694
-4.085,-2.4934070559258434,1.4856193344137538
-4.0845000000000002,-1.7998456901771025,0.87101430691460191
-4.0839999999999996,-0.98891240099203803,0.30939247143978343
-4.0834999999999999,-0.38071243410468042,-0.11447306476652835
-4.0830000000000002,0.024754210487259936,-0.43237221692155131
-4.0824999999999996,0.24882788249867302,-0.48535540894722468
-4.0819999999999999,0.33418928136005654,-0.30521255605954212
-4.0815000000000001,0.34485945621773917,-0.082683149551026042
-4.0810000000000004,0.39821033050610388,0.076266426526340886
-4.0804999999999998,0.55826295337139209,0.24581264100916439
-4.0800000000000001,0.49424190422529612,0.41535885549184332
-4.0795000000000003,0.34485945621787506,0.54251851635373682
-4.0789999999999997,0.21681735792547957,0.61669498519009203
-4.0785,0.14212613392176898,0.69087145402619654
-4.0780000000000003,-0.017926488943325047,0.89220758372419473
-4.0774999999999997,0.035424385344467062,0.96638405256068471
-4.077,-0.48741418268150688,1.1147369902328941
-4.0765000000000002,-1.2770071221493042,1.2948798431205764
-4.0759999999999996,-2.0559298867611369,1.422039503982605
-4.0754999999999999,-2.365364957633652,1.2630899279052379
-4.0750000000000002,-1.6611334170265974,0.55311515475901996
-4.0744999999999996,-0.94623170156137515,-0.20984281041353639
-4.0739999999999998,-0.41272295867772835,-0.76086800748174177
-4.0735000000000001,-0.092617712947249131,-1.0469772444212624
-4.0730000000000004,0.056764735060171989,-1.121153713257367
-4.0724999999999998,0.099445434491038431,-1.0681705212315973
-4.0720000000000001,0.05676473506030786,-0.91981758355925325
-4.0715000000000003,-0.017926488943402687,-0.72907809226641285
-4.0709999999999997,-0.11395806266270175,-0.51714532416268844
-4.0705,-0.20998963638175816,-0.29461591765437467
-4.0700000000000003,-0.56210540668496511,0.076266426526148123
-4.0694999999999997,-0.9248913518460391,0.29879583303473173
-4.069,-0.42339313353541097,0.0020899576903134209
-4.0685000000000002,0.33418928136005654,-0.63370834661973252
-4.0679999999999996,0.68630505166343825,-0.88802766834353886
-4.0674999999999999,0.52625242879834411,-0.65490162343006741
-4.0670000000000002,0.31284893164469124,-0.28401927924920728
-4.0664999999999996,0.19547700821017247,0.086863064931855277
-4.0659999999999998,0.18480683335249956,0.30939247144016896
-4.0655000000000001,0.20614718306786484,0.42595549389701071
-4.0650000000000004,0.24882788249855659,0.44714877070732634
-4.0644999999999998,0.29150858192932599,0.42595549389701071
-4.0640000000000001,0.52625242879834411,0.4471487707073456
-4.0635000000000003,0.558262953371363,0.4471487707073456
-4.0629999999999997,0.41955068022138181,0.36237566346589051
-4.0625,0.27016823221396069,0.23521600260399694
-4.0620000000000003,0.15279630877955838,0.086863064931787803
-4.0614999999999997,-0.017926488943208606,0.17163617217326219
-4.0609999999999999,0.27016823221396069,0.46834204751768049
-4.0605000000000002,1.0490909968247935,0.63788826200035942
-4.0599999999999996,1.3905365922699295,0.60609834678490526
-4.0594999999999999,0.6116138276598051,0.6590815388106942
-4.0590000000000002,-0.4554036581084589,0.775644561267536
-4.0585000000000004,-0.81818960326933876,0.34118238665606637
-4.0579999999999998,-0.71148785469284226,-0.31580919446470956
-4.0575000000000001,-0.46607383296614152,-0.85623775312824868
-4.0570000000000004,-0.23132998609733696,-1.1635402668778247
-4.0564999999999998,-0.071277363231883828,-1.2589100125246109
-4.056,0.0034138607718946501,-1.2165234589039415
-4.0555000000000003,0.014084035629567591,-1.07876715963689
-4.0549999999999997,-0.060607188374317646,-0.86683439153317521
-4.0545,-0.18864928666639288,-0.60191843140423029
-4.0540000000000003,-0.25267033581243048,-0.36879238649075874
-4.0534999999999997,-0.25267033581284776,-0.14626297998162585
-4.0529999999999999,-0.64746680554674652,0.29879583303500157
-4.0525000000000002,-1.3410281712961183,0.88161094531921036
-4.0519999999999996,-2.0452597119031726,1.3478630351464715
-4.0514999999999999,-2.0452597119031726,1.2313000126897355
-4.0510000000000002,-1.3516983461538008,0.63788826200035942
-4.0505000000000004,-0.70081767983575172,0.139846256957943
-4.0499999999999998,-0.17797911180871023,-0.11447306476652835
-4.0495000000000001,0.14212613392176898,-0.19924617200786782
-4.0490000000000004,0.31284893164453598,-0.093279787956289856
-4.0484999999999998,0.38754015564846001,0.13984625695769243
-4.048,0.3768699807907871,0.36237566346600614
-4.0475000000000003,0.49424190422518938,0.30939247144021714
-4.0469999999999997,0.59027347794433305,0.22461936419894515
-4.0465,0.47290155450993088,0.35177902506083869
-4.0460000000000003,0.3235191065025097,0.51072860113820562
-4.0454999999999997,0.2061471830677678,0.62729162359526902
-4.0449999999999999,0.099445434491038431,0.71206473083653143
-4.0445000000000002,0.099445434491038431,0.90280422212954525
-4.0439999999999996,0.71831557623708764,1.0829470750173917
-4.0434999999999999,1.2198137945477157,1.0829470750173917
-4.0430000000000001,0.86769802424418851,1.0405605213967219
-4.0425000000000004,-0.17797911180775916,1.1147369902328266
-4.0419999999999998,-0.73282820440820751,0.75445128445720111
-4.0415000000000001,-0.71148785469284226,0.044476511310983152
-4.0410000000000004,-0.49808435753938363,-0.61251506980880011
-4.0404999999999998,-0.26334051067002584,-1.0681705212318287
-4.04,-0.10328788780493176,-1.3224898429556156
-4.0395000000000003,0.0034138607717976027,-1.4072629501968781
-4.0389999999999997,0.035424385344913462,-1.3860696733865239
-4.0385,0.0034138607718946501,-1.2801032893349458
-4.0380000000000003,-0.12462823752018057,-1.0787671596369479
-4.0374999999999996,-0.29535103524345224,-0.80325456110208382
-4.0369999999999999,-0.55143523182760279,-0.44296885532671876
-4.0365000000000002,-0.95690187641954316,0.023283234500648287
-4.0359999999999996,-0.83952995298407318,0.16103953376750688
-4.0354999999999999,0.21681735792554749,-0.18864953360270037
-4.0350000000000001,1.2091436196900331,-0.77146464588690922
-4.0345000000000004,1.1984734448323602,-1.0045906908003805
-4.0339999999999998,0.78233662538272752,-0.72907809226623943
-4.0335000000000001,0.40888050536383502,-0.27342264084403983
-4.0330000000000004,0.23815770764106803,0.076266426526167441
-4.0324999999999998,0.19547700821020159,0.25640927941437996
-4.032,0.21681735792554749,0.30939247144016896
-4.0315000000000003,0.24882788249856627,0.36237566346595795
-4.0309999999999997,0.34485945621793324,0.46834204751771902
-4.0305,0.55826295337139209,0.51072860113835017
-4.0300000000000002,0.51558225394070023,0.50013196273319249
-4.0294999999999996,0.37686998079065126,0.4577454091124456
-4.0289999999999999,0.22748753278323011,0.38356894027634103
-4.0285000000000002,0.14212613392176898,0.28819919462983412
-4.0279999999999996,-0.11395806266250766,0.43655213230253476
-4.0274999999999999,0.0034138607718946501,0.82862775329337313
-4.0270000000000001,0.62228400251748783,0.96638405256054982
-4.0265000000000004,0.96372959796302193,0.74385464605223617
-4.0259999999999998,0.19547700821018218,0.7968378380778709
-4.0255000000000001,-0.46607383296614152,0.59550170837968963
-4.0250000000000004,-0.58344575640054375,-0.019103319119462392
-4.0244999999999997,-0.45540365810829392,-0.62311170821494088
-4.024,-0.27401068552785401,-1.0363806060160949
-4.0235000000000003,-0.12462823752043289,-1.2271200973089356
-4.0229999999999997,-0.028596663801114461,-1.2483133741193664
-4.0225,0.014084035629577295,-1.1635402668781043
-4.0220000000000002,0.014084035629577295,-1.0151873292058951
-4.0214999999999996,-0.1246282375204523,-0.7396747306711563
-4.0209999999999999,-0.29535103524321932,-0.4641621321370536
-4.0205000000000002,-0.4554036581084589,-0.13566634157686319
-4.0199999999999996,-0.62612645583149773,0.055073149715880731
-4.0194999999999999,-0.75416855412357298,-0.24163272562853755
-4.0190000000000001,-0.34870190953163249,-0.85623775312824868
-4.0185000000000004,-0.34870190953163249,-1.3436831197655073
-4.0179999999999998,-0.35937208438931517,-1.2059268204987741
-4.0175000000000001,-0.18864928666639288,-0.64430498502489997
-4.0170000000000003,-0.0072563140859529807,-0.061489872741221197
-4.0164999999999997,0.15279630877954867,0.3729723018713374
-4.016,0.25949805735627807,0.55311515475901996
-4.0155000000000003,0.29150858192929685,0.60609834678480889
-4.0149999999999997,0.30217875678702805,0.57430843156924882
-4.0145,0.32351910650237387,0.45774540911251305
-4.0140000000000002,0.53692260365583255,0.065669788121674622
-4.0134999999999996,0.55826295337126597,-0.16745625679242332
-4.0129999999999999,0.41955068022151765,-0.2310360872233701
-4.0125000000000002,0.25949805735627807,-0.26282600243887239
-4.0119999999999996,0.16346648363701782,-0.31580919446457462
-4.0114999999999998,0.035424385344942577,-0.1674562567923655
-4.0110000000000001,0.28083840707164331,0.17163617217299235
-4.0105000000000004,1.0811015213971136,0.24581264100909694
-4.0099999999999998,1.6359506139973388,0.0020899576903134209
-4.0095000000000001,0.99574012253638022,0.11865298014715518
-4.0090000000000003,-0.081947538088586347,0.37297230187094227
-4.0084999999999997,-0.53009488211224698,0.086863064931180636
-4.008,-0.54076505696992005,-0.43237221692155131
-4.0075000000000003,-0.38071243410482603,-0.866834391533021
-4.0069999999999997,-0.2099896363816417,-1.1105570748523346
-4.0065,-0.08194753808956648,-1.1847335436884392
-4.0060000000000002,-0.0072563140857879876,-1.131750351662602
-4.0054999999999996,0.014084035629528773,-0.98339741399007474
-4.0049999999999999,-0.039266838658835915,-0.78206128429207655
-4.0045000000000002,-0.16730893695102761,-0.51714532416289083
-4.0039999999999996,-0.61545628097413518,0.0020899576907567499
-4.0034999999999998,-1.0956141495694174,0.48953532432801533
-4.0030000000000001,-1.4904106193036752,0.68027481562102909
-4.0025000000000004,-0.95690187642002844,0.15044289536313926
-4.0019999999999998,0.14212613392176898,-0.75027136907657432
-4.0015000000000001,0.91037872367491923,-1.3860696733866202
-4.0010000000000003,0.85702784938655452,-1.2589100125247266
-4.0004999999999997,0.59027347794425544,-0.69728817705026491
-4,0.38754015564846972,-0.17805289519753292
-3.9994999999999998,0.30217875678700862,0.16103953376782493
-3.9990000000000001,0.27016823221396069,0.41535885549184332
-3.9984999999999999,0.28083840707164331,0.58490506997452218
-3.9980000000000002,0.29150858192932599,0.63788826200035942
-3.9975000000000001,0.44089102993688295,0.45774540911251305
-3.9969999999999999,0.5689331282290746,0.20342608738849466
-3.9965000000000002,0.47290155450993088,0.17163617217299235
-3.996,0.32351910650237387,0.19282944898332721
-3.9954999999999998,0.19547700821018218,0.18223281057815977
-3.9950000000000001,0.099445434491038431,0.12924961855232261
-3.9944999999999999,0.046094560202625215,0.38356894027634103
-3.9940000000000002,0.71831557623663156,0.73325800764686633
-3.9935,1.5079085157051471,0.84982103010370802
-3.9929999999999999,1.2091436196900331,0.9134008605347127
-3.9925000000000002,0.08877525963335578,1.0087706061812196
-3.992,-0.54076505696992005,0.61669498519002452
-3.9914999999999998,-0.61545628097369853,-0.11447306476652835
-3.9910000000000001,-0.46607383296614152,-0.73967473067140688
-3.9904999999999999,-0.27401068552785401,-1.131750351662602
-3.9900000000000002,-0.12462823752029703,-1.2906999277401132
-3.9895,-0.028596663801153277,-1.2801032893349458
-3.9889999999999999,0.0034138607718946501,-1.1635402668781043
-3.9885000000000002,-0.028596663801153277,-0.97280077558509037
-3.988,-0.17797911180871023,-0.68669153864556975
-3.9874999999999998,-0.31669138495858457,-0.38998566330088158
-3.9870000000000001,-0.42339313353541097,-0.11447306476652835
-3.9864999999999999,-0.76483872898125549,0.26700591781949923
-3.9860000000000002,-0.95690187641954316,0.80743447648303834
-3.9855,-0.71148785469284226,1.2842832047155728
-3.9849999999999999,-0.4554036581084589,1.5915857184654283
-3.9845000000000002,-0.19931946152407554,1.3796529503620798
-3.984,0.0034138607718946501,0.68027481562102909
-3.9834999999999998,0.13145595906408636,0.023283234500648287
-3.9830000000000001,0.19547700821018218,-0.40058230170604903
-3.9824999999999999,0.24882788249859539,-0.44296885532671876
-3.9820000000000002,0.28083840707164331,-0.31580919446470956
-3.9815,0.30217875678700862,-0.093279787956193475
-3.9809999999999999,0.36619980593310447,0.12924961855232261
-3.9805000000000001,0.53692260365602662,0.16103953376782493
-3.98,0.4835717293676135,0.33058574825050385
-3.9794999999999998,0.34485945621773917,0.55311515475901996
-3.9790000000000001,0.20614718306786484,0.72266136924169888
-3.9784999999999999,0.099445434491038431,0.82862775329337313
-3.9780000000000002,-0.11395806266261441,1.0511571598018894
-3.9775,0.3768699807907871,1.146526905448396
-3.9769999999999999,1.1237822208285719,0.81803111488820579
-3.9765000000000001,1.0704313465401587,0.50013196273318283
-3.976,0.11011560934872107,0.61669498519002452
-3.9754999999999998,-0.57277558154296804,0.52132523954351762
-3.9750000000000001,-0.65813698040442903,0.033879872905815719
-3.9744999999999999,-0.4980843575391895,-0.47475877054222104
-3.9740000000000002,-0.29535103524321932,-0.83504447631791379
-3.9735,-0.13529841237797968,-1.0469772444212624
-3.9729999999999999,-0.039266838658835915,-1.1211537132574345
-3.9725000000000001,0.014084035629577295,-1.0999604364470996
-3.972,0.0034138607718946501,-1.0257839676109275
-3.9714999999999998,-0.071277363231883828,-0.88802766834375091
-3.9710000000000001,-0.14596858723566233,-0.73967473067140688
-3.9704999999999999,-0.19931946152407554,-0.5807251545938954
-3.9700000000000002,-0.29535103524321932,-0.33700247127504446
-3.9695,-0.78617907869662074,0.2246193641988295
-3.9689999999999999,-1.0956141495694174,0.87101430691404291
-3.9685000000000001,-0.73282820440820751,1.3478630351465775
-3.968,-0.17797911180871023,1.432636142387917
-3.9674999999999998,0.29150858192932599,1.0723504366122243
-3.9670000000000001,0.54759277851370936,0.47893868592284788
-3.9664999999999999,0.55826295337139209,-0.0085066807148540119
-3.9660000000000002,0.47290155450993088,-0.19924617200786782
-3.9655,0.36619980593310447,-0.18864953360270037
-3.9649999999999999,0.30217875678700862,-0.029699957525188878
-3.9645000000000001,0.28083840707164331,0.17163617217299235
-3.964,0.4622313796522482,0.47893868592284788
-3.9634999999999998,0.53692260365602662,0.5637117931641874
-3.9630000000000001,0.43022085507920033,0.51072860113835017
-3.9624999999999999,0.28083840707164331,0.42595549389701071
-3.9620000000000002,0.17413665849481691,0.37297230187117358
-3.9615,-0.0072563140857879876,0.40476221708667587
-3.9609999999999999,-0.092617712947249131,0.70146809243136399
-3.9605000000000001,0.64362435223285308,0.68027481562102909
-3.96,1.3691962425552726,0.012686596095480854
-3.9594999999999998,0.86769802424418851,-0.22043944881820265
-3.9590000000000001,-0.049937013516518552,0.012686596095480854
-3.9584999999999999,-0.42339313353541097,-0.10387642636136091
-3.9580000000000002,-0.43406330839309365,-0.36879238649054674
-3.9575,-0.31669138495858457,-0.60191843140423029
-3.9569999999999999,-0.17797911180871023,-0.73967473067140688
-3.9565000000000001,-0.08194753808956648,-0.792657922697244
-3.956,-0.017926488943470625,-0.76086800748174177
-3.9554999999999998,-0.0072563140857879876,-0.68669153864556975
-3.9550000000000001,-0.028596663801153277,-0.5807251545938954
-3.9544999999999999,-0.06060718837420119,-0.4535654937318862
-3.9540000000000002,-0.13529841237797968,-0.30521255605954212
-3.9535,-0.27401068552785401,-0.13566634157686319
-3.9529999999999998,-0.64746680554674652,0.25640927941433178
-3.9525000000000001,-0.61545628097369853,0.81803111488820579
-3.952,0.12078578420640371,1.0193672445863871
-3.9514999999999998,0.72898575109431429,0.83922439169854057
-3.9510000000000001,0.63295417737517057,0.51072860113835017
-3.9504999999999999,0.36619980593310447,0.033879872905815719
-3.9500000000000002,0.25949805735627807,-0.36879238649054674
-3.9495,0.28083840707164331,-0.72907809226623943
-3.9489999999999998,0.25949805735627807,-0.78206128429207655
-3.9485000000000001,0.24882788249859539,-0.64430498502489997
-3.948,0.23815770764091276,-0.41117894011121647
-3.9474999999999998,0.3768699807907871,-0.31580919446470956
-3.9470000000000001,0.50491207908297886,-0.30521255605954212
-3.9464999999999999,0.40888050536383502,-0.13566634157686319
-3.9460000000000002,0.27016823221396069,0.055073149716150585
-3.9455,0.16346648363713429,0.20342608738849466
-3.9449999999999998,0.099445434491038431,0.37297230187117358
-3.9445000000000001,0.035424385344942577,0.76504792286236856
-3.944,0.65429452709053582,1.1783168206638983
-3.9434999999999998,1.4225471168436858,1.2842832047155728
-3.9430000000000001,1.2091436196900331,1.2630899279052379
-3.9424999999999999,0.13145595906408636,1.3054764815259077
-3.9420000000000002,-0.4980843575391895,0.90280422212954525
-3.9415,-0.58344575640065055,0.2246193641988295
-3.9409999999999998,-0.4554036581084589,-0.33700247127504446
-3.9405000000000001,-0.27401068552785401,-0.66549826183523486
-3.9399999999999999,-0.13529841237797968,-0.78206128429207655
-3.9394999999999998,-0.049937013516518552,-0.75027136907657432
-3.9390000000000001,-0.0072563140857879876,-0.64430498502489997
-3.9384999999999999,0.0034138607718946501,-0.49595204735255594
-3.9380000000000002,-0.10328788780493176,-0.26282600243887239
-3.9375,-0.23132998609712346,-0.029699957525188878
-3.9369999999999998,-0.35937208438931517,0.19282944898332721
-3.9365000000000001,-0.79684925355430347,0.5637117931641874
-3.9359999999999999,-1.0209229255656389,0.54251851635385251
-3.9355000000000002,-0.40205278382004572,-0.14626297998203064
-3.9350000000000001,0.024754210487259936,-0.99399405239542526
-3.9344999999999999,0.078105084775673142,-1.227120097309109
-3.9340000000000002,0.046094560202625215,-0.96220413717992292
-3.9335,0.05676473506030786,-0.61251506980939763
-3.9329999999999998,0.099445434491038431,-0.25222936403370499
-3.9325000000000001,0.15279630877945163,0.0020899576903134209
-3.9319999999999999,0.19547700821018218,0.11865298014715518
-3.9315000000000002,0.23815770764091276,0.16103953376782493
-3.931,0.31284893164469124,0.19282944898332721
-3.9304999999999999,0.53692260365602662,0.34118238665567124
-3.9300000000000002,0.51558225394066137,0.30939247144016896
-3.9295,0.3768699807907871,0.17163617217299235
