Class_1_Relax_eyes_closed/Class_1_Relax_eyes_closed_AM_5.csv

#Digilent WaveForms Oscilloscope Acquisition
#Device Name: EExplorer
#Serial Number: SN:210151A2B84A
#Date Time: 2020-11-24 16:07:03.134
#Sample rate: 2000Hz
#Samples: 16384
#Trigger: Source: Channel 1 Type: Edge Condition: Rising Level: 0 V Hyst.: Auto HoldOff: 0 s
#Channel 1: Range: 1 V/div Offset: 0 V Attenuation: 1 X
#Channel 2: Range: 1 V/div Offset: 0 V Attenuation: 1 X
#Power Supplies: ON
#Fixed Supply: ON
#Voltage: 3.3 V Readback: 3.331 V
#Positive Supply: ON
#Voltage: 3.7 V Readback: 3.717 V
#Current: 40 mA Readback: 20 mA
#Negative Supply: ON
#Voltage: -3.7 V Readback: -3.354 V
#Current: -40 mA Readback: -9 mA
#Reference 1: ON
#Voltage: 0 V
#Reference 2: ON
#Voltage: 0 V

Time (s),Channel 1 (V),Channel 2 (V)
-4.096,2.414873378608172,-0.9304142219644207
-4.0955,2.73497862433836,-0.6443049850251602
-4.095,2.670957575192312,-0.3370024712748324
-4.0945,2.404203203750489,-0.1038764263613609
-4.094,2.084097958020301,0.03387987290569044
-4.0935,1.774662887146805,0.02328323450078321
-4.093,1.326515543124542,0.1716361721729923
-4.0925,0.9423892482483164,0.2881991946297281
-4.092,0.6329541773749959,0.3835689402763892
-4.0915,0.4408910299368829,0.4365521323021782
-4.091,0.4942419042252961,0.627291623595192
-4.0905,0.3021787567863681,1.061753798207452
-4.09,-0.4020527838200457,1.496215972818921
-4.0895,-1.159635198715513,1.644568910491266
-4.089,-1.895877263894946,0.8180311148889575
-4.0885,-2.3973754822067,-0.3899856633008816
-4.088,-2.429386006779747,-1.34368311976595
-4.0875,-2.429386006779747,-1.301296566145319
-4.087,-2.418715831922055,-0.3687923864903636
-4.0865,-2.408045657064382,-0.1674562567923655
-4.086,-2.087940411334194,-0.6866915386450975
-4.0855,-1.148965023857171,-1.290699927740229
-4.085,-0.423393133535411,-1.417859588602123
-4.0845,0.05676473505987117,-1.036380606016442
-4.084,0.3235191065024903,-0.4641621321369186
-4.0835,0.4515612047945656,-0.3158091944647096
-4.083,0.4835717293676135,-0.2416327256285375
-4.0825,0.2488278824982849,0.2140227257943271
-4.082,-0.09261771294724913,0.9451907757502149
-4.0815,-0.4447334832507763,1.580989080060261
-4.081,-0.7008176798349268,1.53860252643963
-4.0805,-0.007256314085787988,0.4789386859228479
-4.08,1.177133095116985,-0.718481453861072
-4.0795,2.201469881453587,-1.513229334247907
-4.079,2.798999673484824,-1.343683119765401
-4.0785,2.884361072346208,-0.7396747306714069
-4.078,2.660287400335076,-0.167456256792886
-4.0775,2.308171630031044,0.2034260873885236
-4.077,1.977396209443183,0.2352160026039969
-4.0765,1.539919040278593,0.4577454091123107
-4.076,1.113112045970598,0.7014680924314892
-4.0755,0.79300680024041,0.8392243916985406
-4.075,0.5689331282290746,0.7968378380778709
-4.0745,0.5049120790832797,0.7332580076471072
-4.074,0.8356874996711408,0.9981739677760521
-4.0735,0.4515612047945656,1.400846227172415
-4.073,-0.3593720843885777,1.644568910491044
-4.0725,-1.170305373573196,0.9981739677760521
-4.072,-1.917217613610981,-0.1992461720078678
-4.0715,-2.408045657063936,-1.258910012523647
-4.071,-2.44005618163743,-1.937094870454816
-4.0705,-2.44005618163743,-1.375473034981453
-4.07,-2.418715831922084,-0.9304142219648255
-4.0695,-2.119950935906097,-1.16354026687849
-4.069,-1.180975548430879,-1.587405803084801
-4.0685,-0.4447334832507763,-1.714565463946811
-4.068,0.03542438534518519,-1.004590690799976
-4.0675,0.3021787567870086,-0.326405832869877
-4.067,0.408880505363835,0.1822328105781598
-4.0665,0.4408910299366985,0.4895353243280635
-4.066,0.2381577076409128,0.5425185163538525
-4.0655,-0.3807124341046804,0.92399749893988
-4.065,-0.8075194284115979,1.390249588766823
-4.0645,-1.116954499284783,1.517409249629256
-4.064,-0.5941159312583333,0.6378882620003594
-4.0635,0.6863050516624192,-0.5277419625669983
-4.063,1.892034810582401,-1.375473034981424
-4.0625,2.638947050619507,-1.34368311976595
-4.062,2.83101019805762,-0.7926579226977452
-4.0615,2.681627750049946,-0.2098428104127076
-4.061,2.361522504319758,0.1504428953626575
-4.0605,1.934715510012453,0.2987958330350016
-4.06,1.47589799113174,0.4577454091127829
-4.0595,1.081101521397841,0.7544512844572011
-4.059,0.7609962756673623,0.9028042221295453
-4.0585,0.5369226036562305,0.9451907757501764
-4.058,0.4408910299368829,0.9451907757502149
-4.0575,0.6329541773751706,1.157123543853563
-4.057,0.2168173579259259,1.538602526439244
-4.0565,-0.6154562809736985,1.877694955404949
-4.056,-1.405049220442214,1.570392441655093
-4.0555,-2.141291285621647,0.3941655786825782
-4.055,-2.429386006779767,-0.8244478379131511
-4.0545,-2.450726356495113,-1.269506650929778
-4.054,-2.44005618163744,-0.4959520473532595
-4.0535,-2.429386006779699,0.2776025562243872
-4.053,-2.376035132491334,-0.02969995752518888
-4.0525,-1.639793067311232,-0.8244478379127463
-4.052,-0.7968492535537406,-1.502632695843443
-4.0515,-0.1779791118087102,-1.481439419033127
-4.051,0.1954770082101822,-0.8880276683437509
-4.0505,0.387540155648295,-0.5595318777838593
-4.05,0.4515612047945656,-0.8456411147230812
-4.0495,0.4515612047945656,-0.792657922697244
-4.049,0.08877525963368577,-0.05089323433619841
-4.0485,-0.583445756401194,0.8286277532939513
-4.048,-1.180975548430879,1.464426057603419
-4.0475,-0.9889124009927659,1.167720182259001
-4.047,0.2381577076420773,0.1186529801466251
-4.0465,1.51857869056283,-0.4641621321370536
-4.046,2.3188418048883,-0.5277419625680004
-4.0455,2.585596176331036,-0.4323722169213875
-4.045,2.521575127184998,-0.252229364033705
-4.0445,2.297501455173662,0.002089957690313421
-4.044,2.041417258589007,0.1398462569575864
-4.0435,1.742652362574165,0.2458126410091644
-4.043,1.273164668836129,0.3941655786815084
-4.0425,0.8570278493868845,0.5001319627330865
-4.042,0.5689331282290746,0.5849050699745222
-4.0415,0.4195506802215176,0.6060983467848571
-4.041,0.4088805053638447,0.7968378380776975
-4.0405,0.2274875327826187,1.231300012690121
-4.04,-0.4447334832507763,1.655165548896433
-4.0395,-1.180975548430209,1.71874537932738
-4.039,-1.874536914180716,0.7650479228612602
-4.0385,-2.386705307349017,-0.4535654937318862
-4.038,-2.440056181637382,-1.39666631179093
-4.0375,-2.44005618163742,-1.492036057437996
-4.037,-2.429386006779747,-1.163540266878104
-4.0365,-2.322684258202921,-1.322489842955616
-4.036,-1.490410619302938,-1.629792356705702
-4.0355,-0.6794773301197943,-1.88411167842949
-4.035,-0.1032878878049318,-1.47084278062796
-4.0345,0.2274875327829293,-0.3581957480863911
-4.034,0.3661998059331045,0.4259554938970107
-4.0335,0.4195506802215176,0.6590815388106942
-4.033,0.3982103305061718,0.7438546460519566
-4.0325,0.04609456020210118,1.019367244586763
-4.032,-0.5300948821122373,1.432636142387917
-4.0315,-0.9142211769884631,1.750535294542651
-4.031,-1.148965023857132,1.369056311955843
-4.0305,-0.3807124341046804,0.1928294489833272
-4.03,0.9317190733890908,-0.9516074987737145
-4.0295,2.084097958020592,-1.492036057437986
-4.029,2.724308449480968,-1.152943628472937
-4.0285,2.809669848342429,-0.6231117082145651
-4.028,2.596266351188466,-0.1886495336024787
-4.0275,2.254820755742932,0.05507314971615059
-4.027,1.849354111150991,0.07626642652648545
-4.0265,1.358526067698036,0.2987958330347992
-4.026,0.9957401225363802,0.5637117931641874
-4.0255,0.7609962756673623,0.7332580076468663
-4.025,0.5902734779445951,0.7862411996726553
-4.0245,0.5902734779444593,0.7544512844573071
-4.024,0.6116138276598051,0.8710143069140429
-4.0235,0.003413860772447763,1.072350436612041
-4.023,-0.7434983792665307,1.00877060618067
-4.0225,-1.447729919872945,0.4047622170866759
-4.022,-2.130621110764013,-0.6019184314033148
-4.0215,-2.429386006779757,-1.333086481360388
-4.021,-2.44005618163743,-0.8986243067489184
-4.0205,-2.44005618163743,0.1504428953626575
-4.02,-2.429386006779534,0.6590815388101449
-4.0195,-2.19464215991073,0.05507314971615059
-4.019,-1.277007122150022,-0.792657922697244
-4.0185,-0.5194247072552438,-0.9410108603694533
-4.018,-0.007256314085787988,-0.6337083466197325
-4.0175,0.2701682322139607,0.04447651131098315
-4.017,0.3768699807906901,0.2881991946296125
-4.0165,0.4195506802213624,-0.1568596183872463
-4.016,0.2488278824985954,-0.2098428104130352
-4.0155,-0.199319461523668,0.3941655786809591
-4.015,-0.6047861061163554,1.146526905448627
-4.0145,-0.9782422261349084,1.400846227172415
-4.014,-0.5834457564010096,0.5425185163546331
-4.0135,0.6436243522339303,-0.6019184314050205
-4.013,1.828013761435626,-1.47084278062796
-4.0125,2.574926001473411,-1.555615887869299
-4.012,2.75631897405387,-1.09996043644655
-4.0115,2.596266351188776,-0.4959520473525559
-4.011,2.28683128031598,-0.05089323433552374
-4.0105,1.99873655915881,0.07626642652636979
-4.01,1.678631313428069,0.2881991946298341
-4.0095,1.219813794547716,0.3199891098453364
-4.009,0.8036769750984712,0.235216002604074
-4.0085,0.5582629533713145,0.1186529801470974
-4.008,0.4729015545099309,0.05507314971615059
-4.0075,0.7396559259517541,0.3623756634657266
-4.007,0.3982103305054245,0.8922075837248211
-4.0065,-0.4020527838200457,1.37965295036208
-4.006,-1.244996597576974,1.241896651094903
-4.0055,-2.023919362188176,0.214022725792679
-4.005,-2.429386006779747,-0.8668343915334161
-4.0045,-2.450726356495113,-1.184733543688439
-4.004,-2.450726356495103,-0.3899856633001684
-4.0035,-2.44005618163743,0.3941655786815084
-4.003,-2.365364957633652,0.08686306493165288
-4.0025,-1.565101843308182,-0.6549016234293927
-4.002,-0.7328282044082075,-1.205926820498774
-4.0015,-0.1459685872356623,-0.792657922697244
-4.001,0.2061471830675446,0.002089957689590527
-4.0005,0.366199805933153,0.5955017083798342
-4,0.4195506802215176,0.7544512844572011
-3.9995,0.3235191065023739,0.7438546460520338
-3.999,-0.1886492866663929,1.125333628638062
-3.9985,-0.722158029550525,1.580989080060261
-3.998,-1.06360362499637,1.877694955404949
-3.9975,-0.5300948821122373,1.464426057603419
-3.997,0.6542945270905358,0.3305857482505039
-3.9965,1.710641838001117,-0.5171453241628908
-3.996,2.329511979746711,-0.7502713690765743
-3.9955,2.521575127184998,-0.5807251545938954
-3.995,2.425543553465854,-0.1992461720078678
-3.9945,2.190799706596836,0.1292496185523226
-3.994,1.92404533515477,0.1504428953626575
-3.9935,1.635950613997339,0.09745970333682032
-3.993,1.187803269974668,0.3199891098453364
-3.9925,0.8143471499557753,0.5743084315693548
-3.992,0.5902734779444399,0.7120647308365314
-3.9915,0.4835717293676135,0.7544512844572011
-3.991,0.7396559259519968,0.9663840525605498
-3.9905,0.7289857510943143,1.37965295036208
-3.99,-0.02859666380115328,1.75053529454294
-3.9895,-0.9035510021311299,1.6657621873016
-3.989,-1.682473766741963,0.5955017083796896
-3.9885,-2.333354433060604,-0.6231117082145651
-3.988,-2.450726356495113,-1.184733543688439
-3.9875,-2.450726356495113,-0.5171453241628908
-3.987,-2.44005618163743,0.4259554938970107
-3.9865,-2.408045657064382,0.3941655786815084
-3.986,-1.757164990745741,-0.3899856633008816
-3.9855,-0.8715404775580819,-1.110557074852267
-3.985,-0.2313299860971235,-1.248313374119443
-3.9845,0.1527963087794516,-0.9516074987747555
-3.984,0.3555296310754218,-0.3687923864905467
-3.9835,0.4195506802215176,0.2670059178194992
-3.983,0.3982103305061524,0.002089957690313421
-3.9825,-0.02859666380115328,-0.01910331912002144
-3.982,-0.7328282044082075,0.5955017083796896
-3.9815,-1.212986073003927,1.25249328950007
-3.981,-1.298347471865388,1.082947075017392
-3.9805,-0.2526703358124887,0.04447651131098315
-3.98,1.134452395686255,-0.8032545611024114
-3.9795,2.233480406027567,-0.8032545611024114
-3.979,2.788329498627064,-0.5807251545938954
-3.9785,2.820340023200112,-0.3052125560595421
-3.978,2.564255826615728,-0.1250697031716958
-3.9775,2.222810231169884,-0.02969995752518888
-3.977,1.806673411720261,0.1610395337678249
-3.9765,1.283834843693812,0.457745409112513
-3.976,0.857027849386506,0.5637117931641874
-3.9755,0.5689331282290746,0.5425185163538525
-3.975,0.408880505363835,0.457745409112513
-3.9745,0.4942419042252961,0.5107286011383502
-3.974,0.707645401378949,0.9134008605347127
-3.9735,0.1314559590640864,1.390249588767247
-3.973,-0.7008176798351597,1.655165548896433
-3.9725,-1.490410619303675,0.9345941373450475
-3.972,-2.215982509626095,-0.2734226408440398
-3.9715,-2.450726356495113,-1.163540266878104
-3.971,-2.461396531352796,-0.8350444763179138
-3.9705,-2.450726356495113,0.09745970333682032
-3.97,-2.44005618163743,0.1928294489833272
-3.9695,-2.023919362187807,-0.4853554089473885
-3.969,-1.095614149569417,-1.227120097309109
-3.9685,-0.391382608962363,-1.364876396576285
-3.968,0.0674349099179905,-0.5383386009732256
-3.9675,0.3021787567870086,0.1716361721729923
-3.967,0.3982103305061524,0.4259554938970107
-3.9665,0.4195506802215176,0.627291623595192
-3.966,0.1741366584948169,0.9028042221295453
-3.9655,-0.3166913849585846,1.347863035146577
-3.965,-0.7328282044082075,1.739938656137773
-3.9645,-0.8608703027003992,1.6657621873016
-3.964,-0.04993701351651855,0.6060983467848571
-3.9635,1.187803269974668,-0.6125150698093976
-3.963,2.212140056312201,-1.301296566145281
-3.9625,2.724308449480968,-1.163540266878104
-3.962,2.756318974054016,-0.6972881770507372
-3.9615,2.532245302042681,-0.2734226408440398
-3.961,2.212140056312201,0.08686306493165288
-3.9605,1.881364635724039,0.2246193641988295
-3.96,1.475897991132099,0.4471487707073456
-3.9595,1.027750647109428,0.5955017083796896
-3.959,0.7609962756673623,0.7226613692416989
-3.9585,0.5582629533713921,0.7332580076468663
-3.958,0.4942419042252961,0.701468092431364
-3.9575,0.6542945270905358,0.9451907757502149
-3.957,0.07810508477567314,1.358459673551745
-3.9565,-0.7861790786966207,1.70814874092227
-3.956,-1.575772018165136,1.347863035146577
-3.9555,-2.280003558772191,0.1928294489833272
-3.955,-2.450726356495113,-0.9304142219644207
-3.9545,-2.461396531352796,-1.142346990067769
-3.954,-2.450726356495113,-0.2946159176543747
-3.9535,-2.450726356495113,0.55311515475902
-3.953,-2.376035132491334,0.2987958330350016
-3.9525,-1.607782542738184,-0.5383386009732256
-3.952,-0.7755089038389382,-1.205926820498774
-3.9515,-0.1673089369510276,-0.8880276683437509
-3.951,0.1848068333524996,-0.400582301706049
-3.9505,0.3555296310754218,-0.05089323433552374
-3.95,0.408880505363835,0.2034260873884947
-3.9495,0.2594980573562781,0.13984625695749
-3.949,-0.3060212101009019,0.5425185163538525
-3.9485,-0.7008176798351597,1.167720182258731
-3.948,-0.9995825758502737,1.559795803249926
-3.9475,-0.8715404775580819,0.8816109453192104
-3.947,0.2594980573562781,-0.3052125560595421
-3.9465,1.529248865420512,-1.237716735714276
-3.946,2.457554078038902,-1.290699927740113
-3.9455,2.798999673484746,-0.8350444763179138
-3.945,2.724308449480968,-0.3052125560595421
-3.9445,2.425543553465854,0.1716361721729923
-3.944,2.08409795802001,0.3517790250608387
-3.9435,1.678631313428069,0.4365521323021782
-3.943,1.209143619690033,0.5637117931641874
-3.9425,0.8890383739595538,0.6696781772158616
-3.942,0.6329541773751706,0.627291623595192
-3.9415,0.4835717293676135,0.5425185163538525
-3.941,0.6329541773751706,0.6484849004055269
-3.9405,0.3448594562177392,1.061753798207057
-3.94,-0.4980843575391895,1.485619334413754
-3.9395,-1.255666772434657,1.432636142387917
-3.939,-1.959898313041711,0.4153588554918433
-3.9385,-2.418715831922065,-0.7608680074817418
-3.938,-2.461396531352796,-1.566212526274467
-3.9375,-2.461396531352796,-1.205926820498774
-3.937,-2.450726356495113,-0.6019184314042303
-3.9365,-2.301343908487556,-0.8244478379127463
-3.936,-1.437059745015262,-1.290699927740113
-3.9355,-0.6474668055467465,-1.51322933424863
-3.935,-0.09261771294724913,-1.174136905283272
-3.9345,0.2274875327832301,-0.5489352393783931
-3.934,0.3768699807907871,-0.1568596183871981
-3.9335,0.408880505363835,0.05507314971615059
-3.933,0.3555296310754218,-0.1144730647665284
-3.9325,-0.1459685872356623,0.2140227257936621
-3.932,-0.7968492535543035,0.9028042221295453
-3.9315,-1.30901764672307,1.485619334413754
-3.931,-1.341028171296118,1.167720182258731
-3.9305,-0.1993194615240755,0.04447651131098315
-3.93,1.187803269974668,-1.046977244421262
-3.9295,2.28683128031598,-1.47084278062796
-3.929,2.85235054777316,-1.163540266878104
-3.9285,2.873690897488525,-0.6972881770507372
-3.928,2.606936526046459,-0.3370024712750445
-3.9275,2.265490930600615,-0.1038764263613609
-3.927,1.92404533515477,0.2246193641988295
-3.9265,1.465227816274416,0.5743084315693548
-3.926,0.9850699476786977,0.627291623595192
-3.9255,0.6329541773751706,0.5425185163538525
-3.925,0.4195506802215176,0.4259554938970107
-3.9245,0.4942419042252961,0.4895353243280153
-3.924,0.4729015545099309,0.92399749893988
-3.9235,-0.1886492866663929,1.411442865577582
-3.923,-0.9462317015618604,1.633972272086098
-3.9225,-1.682473766741963,0.8392243916985406
-3.922,-2.333354433060604,-0.3793890248957141
-3.9215,-2.461396531352796,-1.269506650929778
-3.921,-2.461396531352796,-0.9516074987747555
-3.9205,-2.450726356495113,0.06566978812131802
-3.92,-2.44005618163743,0.5849050699745222
-3.9195,-2.141291285622316,0.002089957690313421
-3.919,-1.202315898146244,-0.8668343915334161
-3.9185,-0.4660738329661415,-1.068170521231597
-3.918,0.01408403562957729,-0.3687923864905467
-3.9175,0.2808384070716433,0.1716361721729923
-3.917,0.408880505363835,0.4895353243280153
-3.9165,0.4408910299368829,0.9451907757502149
-3.916,0.1954770082101822,1.199510097474233
-3.9155,-0.274010685527854,1.538602526439591
-3.915,-0.8288597781273515,1.835308401784279
-3.9145,-1.298347471865388,1.591585718465428
-3.914,-0.572775581542968,0.4365521323021782
-3.9135,0.7823366253827275,-0.792657922697244
-3.913,1.977396209443183,-1.523825972653797
-3.9125,2.724308449480968,-1.301296566145281
-3.912,2.884361072346208,-0.718481453861072
-3.9115,2.69229792490792,-0.1250697031716958
-3.911,2.350852329462076,0.3623756634660061
-3.9105,2.030747083731597,0.4895353243280153
-3.91,1.571929564851243,0.701468092431364
-3.9095,1.102441871113207,0.9769806909657173
-3.909,0.7503261008096795,1.125333628638062
-3.9085,0.5689331282290746,1.167720182258731
-3.908,0.4942419042252961,1.157123543853563
-3.9075,0.3875401556484697,1.369056311956912
-3.907,-0.156638762093345,1.316073119931075
-3.9065,-0.9248913518464952,1.316073119931075
-3.906,-1.597112367880501,0.8710143069140429
-3.9055,-2.226652684483777,-0.008506680714854012
-3.905,-2.450726356495113,-0.9939940523954253
-3.9045,-2.461396531352796,-1.587405803084801
-3.904,-2.461396531352796,-1.205926820498774
-3.9035,-2.429386006779747,-1.227120097309109
-3.903,-1.895877263895616,-1.598002441489969
-3.9025,-0.9782422261349084,-1.990078062481164
-3.902,-0.3166913849585846,-1.88411167842949
-3.9015,0.09944543449103843,-1.290699927740113
-3.901,0.3128489316446912,-0.8668343915334161
-3.9005,0.3875401556484697,-0.9939940523954253
-3.9,0.3875401556484697,-0.9939940523954253
-3.8995,0.2488278824985954,-0.7608680074817418
-3.899,-0.2206598112394408,-0.01910331912002144
-3.8985,-0.5621054066852853,0.849821030103708
-3.898,-0.8715404775580819,1.326669758336243
-3.8975,-0.5300948821122373,0.6696781772158616
-3.897,0.6436243522328531,-0.4535654937318862
-3.8965,1.806673411720261,-1.248313374119443
-3.896,2.532245302042681,-1.216523458903942
-3.8955,2.724308449480968,-0.7290780922662394
-3.895,2.596266351188776,-0.2204394488182027
-3.8945,2.318841804889028,0.1186529801471552
-3.894,1.998736559158548,0.1928294489833272
-3.8935,1.593269914566608,0.309392471440169
-3.893,1.177133095116985,0.6166949851900245
-3.8925,0.8890383739595538,0.8710143069140429
-3.892,0.7823366253827275,1.051157159801889
-3.8915,0.6436243522328531,0.9875773293708847
-3.891,0.6649647019482183,1.125333628638062
-3.8905,0.3555296310754218,1.443232780793084
-3.89,-0.4554036581084589,1.75053529454294
-3.8895,-1.277007122150022,1.506812611224089
-3.889,-2.03458953704549,0.5425185163538525
-3.8885,-2.450726356495113,-0.5807251545938954
-3.888,-2.472066706210478,-1.523825972653797
-3.8875,-2.472066706210478,-1.809935209593318
-3.887,-2.461396531352796,-1.216523458903942
-3.8865,-2.354694782775969,-1.248313374119443
-3.886,-1.522421143876723,-1.619195718300304
-3.8855,-0.7114878546928423,-1.979481424075996
-3.885,-0.1352984123779797,-1.333086481360783
-3.8845,0.1954770082101822,-0.2204394488182027
