Class_1_Relax_eyes_closed/Class_1_Relax_Eyes_closed_Zakour_4.csv

#Digilent WaveForms Oscilloscope Acquisition
#Device Name: EExplorer
#Serial Number: SN:210151A2B84A
#Date Time: 2020-11-18 11:37:20.551
#Sample rate: 2000Hz
#Samples: 16384
#Trigger: Source: Channel 1 Type: Edge Condition: Rising Level: 0 V Hyst.: Auto HoldOff: 0 s
#Channel 1: Range: 1 V/div Offset: 0 V Attenuation: 1 X
#Channel 2: Range: 1 V/div Offset: 0 V Attenuation: 1 X
#Power Supplies: ON
#Fixed Supply: ON
#Voltage: 3.3 V Readback: 3.317 V
#Positive Supply: ON
#Voltage: 3.7 V Readback: 3.713 V
#Current: 500 mA Readback: 20 mA
#Negative Supply: ON
#Voltage: -3.7 V Readback: -3.703 V
#Current: -500 mA Readback: -7 mA
#Reference 1: ON
#Voltage: 0 V
#Reference 2: ON
#Voltage: 0 V

Time (s),Channel 1 (V),Channel 2 (V)
-4.096,0.8676980242441885,-1.004590690800593
-4.0955,0.8890383739595343,-0.8456411147232258
-4.095,0.9530594231058341,-0.7502713690764008
-4.0945,1.15579274540162,-0.5595318777835605
-4.094,1.198473444832312,-0.3370024712752469
-4.0935,1.187803269974532,-0.1886495336026233
-4.093,1.038420821967111,-0.1038764263613609
-4.0925,0.8676980242443437,-0.02969995752525634
-4.092,0.7609962756671003,0.3411823866559218
-4.0915,0.4729015545099309,0.6166949851900245
-4.091,-0.4340633083930936,-0.01910331912002144
-4.0905,-1.212986073003849,-0.8350444763183861
-4.09,-1.127624674142465,-1.354279758171118
-4.0895,-0.6261264558313813,-1.417859588602123
-4.089,-0.1139580626630803,-0.877431029939075
-4.0885,0.2594980573562781,0.03387987290581572
-4.088,0.4622313796522482,0.8922075837243778
-4.0875,0.5475927785136318,1.50681261122353
-4.087,0.5582629533713824,1.867098316999926
-4.0865,0.5475927785137094,2.026047893077293
-4.086,0.5049120790830177,2.004854616266977
-4.0855,0.4408910299366985,1.814115124973327
-4.085,0.2381577076409128,1.135930267043229
-4.0845,0.1101156093488375,0.5849050699750233
-4.084,0.02475421048692028,0.3517790250603954
-4.0835,-0.3487019095316325,-0.1356663415768632
-4.083,-0.7968492535543035,-0.8244478379127463
-4.0825,-1.405049220442631,-1.481439419033571
-4.082,-1.863866739322568,-1.968884785670829
-4.0815,-1.437059745015262,-1.873515040024322
-4.081,-0.6047861061167727,-1.44964950381801
-4.0805,0.142126133921769,-1.184733543688439
-4.08,0.6436243522328531,-0.9092209451540858
-4.0795,0.8997085488170036,-0.7184814538612454
-4.079,0.963729597963313,-0.7184814538610623
-4.0785,0.942389248247967,-0.7078848154559045
-4.078,1.091771696255388,-0.7820612842920091
-4.0775,1.113112045970841,-0.6760949002402384
-4.077,1.059761171682476,-0.4959520473525559
-4.0765,0.9743997728210926,-0.1992461720081377
-4.076,0.8783681991016772,0.07626642652679386
-4.0755,0.6649647019482183,0.4153588554918433
-4.075,0.3875401556484697,1.072350436612224
-4.0745,-0.466073832966947,0.9769806909649462
-4.074,-1.351698346153801,0.1292496185523226
-4.0735,-1.586442193022819,-0.6866915386455698
-4.073,-1.084943974712191,-1.25891001252409
-4.0725,-0.4447334832507763,-1.269506650929778
-4.072,0.0674349099179905,-0.6231117082145651
-4.0715,0.3768699807905057,0.2670059178186897
-4.071,0.526252428798383,1.040560521397204
-4.0705,0.5689331282290746,1.570392441655093
-4.07,0.5582629533714017,1.856501678594354
-4.0695,0.5262524287982956,1.951871424241073
-4.069,0.4729015545099309,1.898888232215284
-4.0685,0.4195506802215176,1.761131932948107
-4.068,0.18480683335183,1.284283204714734
-4.0675,-0.5514352318276028,0.3623756634660061
-4.067,-1.394379045584531,-0.5489352393783931
-4.0665,-2.109280761049637,-1.237716735714768
-4.066,-2.514747405641209,-1.778145294377815
-4.0655,-2.525417580498891,-2.202010830584512
-4.065,-1.991908837615245,-1.990078062481357
-4.0645,-0.9035510021311299,-1.195330182093607
-4.064,-0.03926683865883591,-0.6760949002404023
-4.0635,0.4942419042248109,-0.4535654937320886
-4.063,0.7609962756674787,-0.4641621321371307
-4.0625,0.8890383739595538,-0.5489352393783931
-4.062,0.8890383739595538,-0.5701285161887086
-4.0615,1.049090996824871,-0.3899856633004865
-4.061,1.134452395686255,0.04447651131098315
-4.0605,1.059761171682476,0.09745970333682032
-4.06,0.9530594231055429,-0.05089323433563939
-4.0595,0.8356874996711408,-0.1780528951975329
-4.059,0.6863050516635838,-0.06148987274069118
-4.0585,0.1848068333529557,0.6166949851894077
-4.058,-0.6794773301197943,0.6908714540261965
-4.0575,-1.51175096901904,-0.05089323433552374
-4.057,-2.066600061618033,-0.6760949002398337
-4.0565,-1.87453691418025,-1.110557074852267
-4.056,-1.084943974711735,-1.110557074852267
-4.0555,-0.3487019095323021,-0.4959520473531149
-4.055,0.1634664836373963,0.4365521323029395
-4.0545,0.4515612047945656,1.273686566310405
-4.054,0.5689331282289678,1.856501678594084
-4.0535,0.6009436528020935,2.18499746915492
-4.053,0.5689331282290746,2.312157130016814
-4.0525,0.5155822539406614,2.269770576396144
-4.052,0.483571729367565,2.132014277128707
-4.0515,0.4302208550792003,1.845905040189447
-4.051,0.3555296310754218,1.475022696008586
-4.0505,0.152796308779636,1.082947075017748
-4.05,-0.5194247072545548,0.2352160026039969
-4.0495,-1.26633694729234,-0.718481453861072
-4.049,-1.789175515318314,-1.386069673386013
-4.0485,-1.479740444445284,-1.502632695843269
-4.048,-0.7008176798351597,-1.290699927740113
-4.0475,0.02475421048659998,-1.152943628473062
-4.047,0.5262524287986061,-1.068170521231645
-4.0465,0.8143471499557753,-1.121153713257435
-4.046,0.8997085488171589,-1.036380606016172
-4.0455,0.8783681991018907,-0.9410108603694051
-4.045,0.8997085488172365,-0.7396747306714069
-4.0445,1.081101521397841,-0.3581957480853793
-4.044,1.177133095116937,-0.1568596183872077
-4.0435,1.123782220828572,-0.1674562567923655
-4.043,1.081101521397841,-0.1780528951975329
-4.0425,0.9210488985327473,-0.1780528951975329
-4.042,0.4729015545099309,0.2881991946298341
-4.0415,-0.3166913849585846,0.4683420475176805
-4.041,-1.234326422718457,-0.1886495336021028
-4.0405,-1.906547438753172,-0.8668343915337919
-4.04,-1.767835165603424,-1.280103289334946
-4.0395,-1.042263275281664,-1.333086481360735
-4.039,-0.3380317346734937,-0.8880276683429125
-4.0385,0.1634664836371343,0.03387987290581572
-4.038,0.4515612047943036,0.9981739677751751
-4.0375,0.568933128229094,1.729342017733
-4.037,0.5902734779444399,2.16380419234447
-4.0365,0.5689331282290746,2.365140322042651
-4.036,0.5155822539406129,2.333350406827014
-4.0355,0.4622313796522482,2.184997469154805
-4.035,0.3982103305061524,1.930678147430786
-4.0345,0.2061471830680395,1.453829419198686
-4.034,-0.2099896363817582,0.7650479228623686
-4.0335,-0.9782422261349084,-0.1886495336027004
-4.033,-1.618452717595285,-1.078767159635955
-4.0325,-2.141291285622171,-1.756952017567789
-4.032,-1.981238662757077,-2.096044446532838
-4.0315,-1.095614149570223,-1.820531847998736
-4.031,-0.2099896363811468,-1.439052865412159
-4.0305,0.4622313796522482,-1.110557074852267
-4.03,0.8250173248131281,-0.8986243067491111
-4.0295,0.9423892482479767,-0.8350444763178559
-4.029,0.9530594231056497,-0.7714646458869092
-4.0285,0.9103787236749192,-0.792657922697244
-4.028,1.03842082196715,-0.7502713690764586
-4.0275,1.081101521397841,-0.6231117082145651
-4.027,1.038420821967111,-0.5277419625680583
-4.0265,0.8890383739596897,-0.4429688553267959
-4.026,0.7716664505250448,-0.3052125560595421
-4.0255,0.5582629533713921,0.1610395337678249
-4.025,0.2274875327835309,0.6802748156205569
-4.0245,-0.5941159312590611,0.1928294489825947
-4.024,-1.394379045584531,-0.6125150698093976
-4.0235,-1.479740444445915,-1.205926820498235
-4.023,-0.9462317015612975,-1.396666311791499
-4.0225,-0.3273615598162672,-1.078767159636765
-4.022,0.142126133921342,-0.2310360872241412
-4.0215,0.4088805053639515,0.7544512844579047
-4.021,0.5369226036560266,1.528005888034424
-4.0205,0.5689331282290746,2.026047893077293
-4.02,0.558262953371363,2.259173937990996
-4.0195,0.5262524287983441,2.280367214801311
-4.019,0.4729015545099309,2.153207553939303
-4.0185,0.4195506802215662,1.898888232215515
-4.018,0.3235191065023739,1.517409249629256
-4.0175,0.2168173579255475,1.104140351827727
-4.017,-0.2420001609543888,0.4259554938976275
-4.0165,-1.052933450139337,-0.52774196256881
-4.016,-1.767835165603424,-1.354279758171118
-4.0155,-2.269333383914052,-1.788741932782588
-4.015,-1.725154466171839,-1.714565463946435
-4.0145,-0.7861790786966207,-1.301296566145281
-4.014,0.04609456020186831,-1.078767159636967
-4.0135,0.6116138276600283,-1.004590690800583
-4.013,0.857027849386506,-0.9939940523954253
-4.0125,0.942389248247967,-1.036380606016095
-4.012,0.9210488985326503,-0.9833974139900266
-4.0115,0.974399772821015,-0.7290780922662394
-4.011,0.9850699476786977,-0.4535654937318862
-4.0105,0.8783681991019683,-0.3581957480854661
-4.01,0.7716664505250448,-0.3052125560595421
-4.0095,0.6969752265212663,-0.2098428104130352
-4.009,0.6649647019482474,0.03387987290559405
-4.0085,0.7716664505244917,0.690871454026129
-4.008,0.1634664836371343,0.6166949851900245
-4.0075,-0.8075194284111029,-0.17805289519681
-4.007,-1.426389570157395,-0.9092209451544231
-4.0065,-1.223656247861609,-1.280103289334946
-4.006,-0.6474668055467465,-1.110557074852267
-4.0055,-0.1032878878045921,-0.3581957480845312
-4.005,0.2701682322139607,0.5743084315693548
-4.0045,0.4729015545099309,1.33726639674141
-4.004,0.5582629533714017,1.845905040189697
-4.0035,0.5689331282290746,2.1214176387238
-4.003,0.5369226036560266,2.184997469154805
-4.0025,0.483571729367662,2.089627723508384
-4.002,0.4302208550792003,1.909484870620451
-4.0015,0.3661998059331045,1.644568910491266
-4.001,0.2594980573563751,1.316073119931374
-4.0005,-0.2099896363824666,0.627291623594315
-4,-0.9889124009925911,-0.3370024712750445
-3.9995,-1.682473766741963,-1.195330182093607
-3.999,-2.258663209056825,-1.862918401619155
-3.9985,-2.119950935906951,-2.043061254507001
-3.998,-1.159635198715513,-1.650985633515806
-3.9975,-0.2846808603855366,-1.163540266878104
-3.997,0.3448594562177392,-0.8668343915334161
-3.9965,0.6863050516635838,-0.7078848154559045
-3.996,0.8356874996711408,-0.6125150698093976
-3.9955,0.9103787236749192,-0.6125150698093976
-3.995,0.9210488985326017,-0.6972881770507372
-3.9945,0.9637295979633325,-0.6019184314042303
-3.994,0.9637295979633325,-0.4429688553267188
-3.9935,0.9103787236749192,-0.3052125560595421
-3.993,0.8890383739595538,-0.1886495336027004
-3.9925,0.8676980242441885,-0.02969995752518888
-3.992,0.8676980242441885,0.5319218779486851
-3.9915,0.5262524287983441,0.6590815388106942
-3.991,-0.4447334832507763,-0.06148987274069118
-3.9905,-1.298347471865388,-0.7290780922662394
-3.99,-1.490410619303675,-1.174136905283272
-3.9895,-0.9995825758502737,-1.258910012524611
-3.989,-0.391382608962363,-0.7714646458869092
-3.9885,0.08877525963335578,0.13984625695749
-3.988,0.3875401556484697,1.00877060618122
-3.9875,0.5262524287983441,1.644568910491266
-3.987,0.5582629533713921,2.004854616266958
-3.9865,0.5582629533713921,2.142610915534135
-3.986,0.5049120790829789,2.089627723508298
-3.9855,0.4622313796522482,1.951871424241121
-3.985,0.408880505363835,1.739938656137773
-3.9845,0.2594980573562781,1.33726639674141
-3.984,-0.04993701351651855,0.7862411996727035
-3.9835,-0.754168554123573,-0.08268314955102604
-3.983,-1.51175096901904,-0.9833974139902578
-3.9825,-2.162631635337682,-1.703968825541643
-3.982,-2.269333383914508,-2.17022091536901
-3.9815,-1.373038695869166,-1.958288147265661
-3.981,-0.4340633083930936,-1.502632695843462
-3.9805,0.2488278824985954,-1.036380606016095
-3.98,0.6436243522328531,-0.8244478379127463
-3.9795,0.825017324813458,-0.8138511995075789
-3.979,0.8783681991018712,-0.8350444763179138
-3.9785,0.9210488985326017,-0.8138511995075789
-3.978,1.091771696255524,-0.6549016234300674
-3.9775,1.081101521397841,-0.252229364033705
-3.977,1.006410297394063,0.002089957690313421
-3.9765,0.9317190733902845,0.02328323450064829
-3.976,0.9637295979633325,0.07626642652648545
-3.9755,0.6756348768059011,0.3623756634660061
-3.975,0.1848068333524996,0.8392243916985406
-3.9745,-0.5194247072545548,0.4047622170866759
-3.974,-1.127624674142465,-0.3158091944647096
-3.9735,-1.437059745015262,-0.8668343915334161
-3.973,-1.06360362499637,-1.089363798041932
-3.9725,-0.4767440078238243,-0.718481453861072
-3.972,0.02475421048725994,0.1504428953626575
-3.9715,0.3448594562177392,1.061753798207057
-3.971,0.5049120790829789,1.761131932948107
-3.9705,0.5582629533713921,2.195594107559972
-3.97,0.5582629533713921,2.407526875663321
-3.9695,0.5262524287983441,2.449913429283991
-3.969,0.4835717293676135,2.375736960447818
-3.9685,0.4408910299368829,2.195594107559972
-3.968,0.4195506802215176,1.983661339456623
-3.9675,0.3448594562177392,1.655165548896433
-3.967,-0.1673089369510276,0.849821030103708
-3.9665,-0.9248913518464952,-0.2310360872233701
-3.966,-1.607782542738184,-1.174136905283272
-3.9655,-2.023919362187807,-1.873515040024322
-3.965,-1.51175096901904,-2.074851169722503
-3.9645,-0.6261264558313813,-1.820531847998485
-3.964,0.1314559590640864,-1.481439419033127
-3.9635,0.6116138276598051,-1.227120097309109
-3.963,0.857027849386506,-1.174136905283272
-3.9625,0.9210488985326017,-1.121153713257435
-3.962,0.8783681991018712,-1.01518732920576
-3.9615,0.8783681991018712,-0.9516074987747555
-3.961,0.9210488985326017,-0.7502713690765743
-3.9605,0.9530594231056497,-0.5065486857577234
-3.96,0.8890383739595538,-0.3370024712750445
-3.9595,0.79300680024041,-0.2416327256285375
-3.959,0.6116138276598051,-0.04029659593035631
-3.9585,0.1848068333524996,0.5001319627331828
-3.958,-0.6261264558313813,0.2140227257936621
-3.9575,-1.426389570157579,-0.5383386009732256
-3.957,-1.778505340461106,-1.131750351662602
-3.9565,-1.341028171296118,-1.449649503817625
-3.956,-0.6474668055467465,-1.290699927740113
-3.9555,-0.06060718837420119,-0.570128516188728
-3.955,0.3128489316446912,0.3623756634660061
-3.9545,0.5049120790829789,1.135930267043229
-3.954,0.5689331282290746,1.644568910491266
-3.9535,0.5689331282290746,1.909484870620451
-3.953,0.5369226036560266,1.973064701051456
-3.9525,0.4835717293676135,1.898888232215284
-3.952,0.4408910299368829,1.771728571353275
-3.9515,0.3661998059331045,1.506812611224089
-3.951,0.2808384070716433,1.199510097474233
-3.9505,-0.124628237520297,0.6060983467848571
-3.95,-0.7861790786966207,-0.2628260024388724
-3.9495,-1.46907026958831,-1.110557074852267
-3.949,-2.066600061618538,-1.788741932782983
-3.9485,-1.810515865034154,-1.852321763213987
-3.948,-0.9355615267041777,-1.460246142222792
-3.9475,-0.1139580626626144,-1.142346990067769
-3.947,0.4515612047945656,-1.036380606016095
-3.9465,0.7823366253827275,-0.9516074987747555
-3.946,0.8997085488172365,-0.8456411147230812
-3.9455,0.9210488985326017,-0.8244478379127463
-3.945,1.017080472251745,-0.792657922697244
-3.9445,1.145122570543937,-0.5807251545938954
-3.944,1.145122570543937,-0.3370024712750445
-3.9435,1.134452395686255,-0.1250697031716958
-3.943,1.049090996824793,-0.02969995752518888
-3.9425,0.825017324813458,0.1292496185523226
-3.942,0.1741366584948169,0.6166949851900245
-3.9415,-0.722158029550525,0.5213252395435176
-3.941,-1.565101843307454,-0.2628260024388724
-3.9405,-2.07727023647622,-0.9728007755850904
-3.94,-1.67180359188428,-1.375473034981453
-3.9395,-0.8928808272734472,-1.290699927740113
-3.939,-0.2099896363817582,-0.6231117082145651
-3.9385,0.2488278824985954,0.2987958330350016
-3.938,0.4835717293676135,1.072350436612224
-3.9375,0.5689331282290746,1.591585718465428
-3.937,0.5796033030867573,1.877694955404949
-3.9365,0.5475927785137094,1.973064701051456
-3.936,0.4942419042252961,1.909484870620451
-3.9355,0.4408910299368829,1.782325209758442
-3.935,0.3768699807907871,1.570392441655093
-3.9345,0.2381577076409128,1.188913459069066
-3.934,0.01408403562957729,0.775644561267536
-3.9335,-0.6794773301197943,-0.04029659593035631
-3.933,-1.46907026958831,-0.9092209451540858
-3.9325,-2.130621110764634,-1.619195718300304
-3.932,-2.19464215991073,-1.958288147265661
-3.9315,-1.287677297007705,-1.640388995110639
-3.931,-0.3380317346739499,-1.280103289334946
-3.9305,0.3661998059331045,-1.046977244421262
-3.93,0.7289857510943143,-0.8032545611024114
-3.9295,0.857027849386506,-0.718481453861072
-3.929,0.8890383739595538,-0.7396747306714069
-3.9285,0.79300680024041,-0.7714646458869092
-3.928,0.5902734779444399,-0.7714646458869092
-3.9275,0.5369226036560266,-0.570128516188728
-3.927,0.5369226036560266,-0.3581957480853793
-3.9265,0.5582629533713921,-0.1780528951975329
-3.926,0.6222840025174878,0.01268659609548085
-3.9255,0.8783681991018712,0.5319218779486851
-3.925,0.7823366253827275,1.157123543853563
-3.9245,-0.1673089369510276,0.8180311148882058
-3.924,-1.127624674142465,-0.04029659593035631
-3.9235,-1.458400094730627,-0.8350444763179138
-3.923,-1.031593100423322,-1.269506650929778
-3.9225,-0.4340633083930936,-1.046977244421262
-3.922,0.05676473506030786,-0.2628260024388724
-3.9215,0.3555296310754218,0.5955017083796896
-3.921,0.5049120790829789,1.273686566310405
-3.9205,0.5582629533713921,1.697552102517103
-3.92,0.5475927785137094,1.909484870620451
-3.9195,0.5155822539406614,1.930678147430786
-3.919,0.4622313796522482,1.824711763379112
-3.9185,0.4408910299368829,1.70814874092227
-3.918,0.3661998059331045,1.464426057603419
-3.9175,0.2381577076409128,1.146526905448396
-3.917,-0.3060212101009019,0.4471487707073456
-3.9165,-1.116954499284783,-0.4641621321370536
-3.916,-1.821186039891837,-1.269506650929778
-3.9155,-1.821186039891837,-1.545019249464132
-3.915,-1.020922925565639,-1.460246142222792
-3.9145,-0.1993194615240755,-1.174136905283272
-3.914,0.408880505363835,-0.8668343915334161
-3.9135,0.7716664505250448,-0.8138511995075789
-3.913,0.9530594231056497,-0.718481453861072
-3.9125,0.974399772821015,-0.6549016234300674
-3.912,0.9210488985326017,-0.6231117082145651
-3.9115,0.974399772821015,-0.6019184314042303
-3.911,0.9530594231056497,-0.474758770542221
-3.9105,0.857027849386506,-0.3687923864905467
-3.91,0.7716664505250448,-0.2310360872233701
-3.9095,0.7503261008096795,-0.06148987274069118
-3.909,0.825017324813458,0.1928294489833272
-3.9085,0.974399772821015,0.8180311148882058
-3.908,0.1634664836371343,0.7332580076468663
-3.9075,-0.8822106524157645,-0.05089323433552374
-3.907,-1.394379045584531,-0.7608680074817418
-3.9065,-1.095614149569417,-1.205926820498774
-3.906,-0.5300948821122373,-1.121153713257435
-3.9055,-0.02859666380115328,-0.4323722169215513
-3.905,0.3021787567870086,0.457745409112513
-3.9045,0.4729015545099309,1.210106735879401
-3.904,0.5369226036560266,1.70814874092227
-3.9035,0.5475927785137094,1.973064701051456
-3.903,0.5155822539406614,2.026047893077293
-3.9025,0.4729015545099309,1.951871424241121
-3.902,0.408880505363835,1.803518486568777
-3.9015,0.1527963087794516,1.347863035146577
-3.901,-0.1993194615240755,0.775644561267536
-3.9005,-0.8608703027003992,-0.02969995752518888
-3.9,-1.522421143876723,-0.8350444763179138
-3.8995,-2.055929886760855,-1.502632695843462
-3.899,-2.418715831922065,-1.979481424075996
-3.8985,-1.842526389607202,-2.159624276963843
-3.898,-0.8288597781273515,-1.672178910326141
-3.8975,0.01408403562957729,-1.205926820498774
-3.897,0.5796033030867573,-1.046977244421262
-3.8965,0.857027849386506,-0.8668343915334161
-3.896,0.9317190733902845,-0.7078848154559045
-3.8955,0.9103787236749192,-0.6866915386455698
-3.895,0.9957401225363802,-0.5807251545938954
-3.8945,1.187803269974668,-0.252229364033705
-3.894,1.102441871113207,-0.1674562567923655
-3.8935,0.9530594231056497,-0.1462629799820306
-3.893,0.825017324813458,-0.1356663415768632
-3.8925,0.6009436528021226,-0.01910331912002144
-3.892,-0.1886492866663929,0.457745409112513
-3.8915,-1.127624674142465,0.4789386859228479
-3.891,-1.906547438753298,-0.252229364033705
-3.8905,-2.19464215991073,-1.025783967610927
-3.89,-1.490410619303675,-1.502632695843462
-3.8895,-0.6688071552621118,-1.523825972653797
-3.889,-0.03926683865883591,-0.9516074987747555
-3.8885,0.3448594562177392,0.002089957690313421
-3.888,0.5262524287983441,0.8816109453192104
-3.8875,0.5796033030867573,1.506812611224089
-3.887,0.5689331282290746,1.856501678594614
-3.8865,0.5369226036560266,1.983661339456623
-3.886,0.4942419042252961,1.941274785835954
-3.8855,0.4515612047945656,1.79292184816361
-3.885,0.3982103305061524,1.570392441655093
