Class_1_Relax_eyes_closed/Class_1_Relax_eyes_closed_SH_1.csv

#Digilent WaveForms Oscilloscope Acquisition
#Device Name: EExplorer
#Serial Number: SN:210151A2B84A
#Date Time: 2020-11-17 10:19:17.062
#Sample rate: 2000Hz
#Samples: 16384
#Trigger: Source: Channel 1 Type: Edge Condition: Rising Level: 0 V Hyst.: Auto HoldOff: 0 s
#Channel 1: Range: 1 V/div Offset: 0 V Attenuation: 1 X
#Channel 2: Range: 1 V/div Offset: 0 V Attenuation: 1 X
#Power Supplies: ON
#Fixed Supply: ON
#Voltage: 3.3 V Readback: 3.321 V
#Positive Supply: ON
#Voltage: 3.7 V Readback: 3.716 V
#Current: 40 mA Readback: 19 mA
#Negative Supply: ON
#Voltage: -3.7 V Readback: -3.359 V
#Current: -40 mA Readback: -11 mA
#Reference 1: ON
#Voltage: 0 V
#Reference 2: ON
#Voltage: 0 V

Time (s),Channel 1 (V),Channel 2 (V)
-4.096,-1.682473766741963,-1.449649503817625
-4.0955,-1.67180359188429,-1.343683119766047
-4.095,-0.914221176988172,-0.7502713690761889
-4.0945,-0.2099896363817582,-0.326405832869877
-4.094,0.2808384070711969,-0.1356663415770367
-4.0935,0.5689331282292007,-0.1462629799820692
-4.093,0.707645401378949,-0.1886495336027004
-4.0925,0.707645401378949,-0.2098428104130159
-4.092,0.675634876805872,-0.2204394488182316
-4.0915,0.6436243522328531,-0.252229364033705
-4.091,0.6756348768059011,-0.252229364033705
-4.0905,0.6969752265212469,-0.2098428104129678
-4.09,0.6756348768059011,-0.1356663415768632
-4.0895,0.6329541773751706,-0.06148987274069118
-4.089,0.1848068333529072,-0.3475991096799516
-4.0885,-0.6154562809736985,-0.9304142219644207
-4.088,-1.383708870726849,-1.460246142222792
-4.0875,-1.97056848789886,-1.799338571187842
-4.087,-2.023919362187147,-1.714565463946117
-4.0865,-1.298347471865388,-0.9516074987747555
-4.086,-0.5087545323975902,-0.1038764263621319
-4.0855,0.07810508477598369,0.5425185163542188
-4.085,0.4195506802215176,0.9451907757502149
-4.0845,0.5796033030866118,1.135930267043055
-4.084,0.6222840025174782,1.17831682066386
-4.0835,0.6116138276598051,1.135930267043229
-4.083,0.5902734779444399,1.061753798207057
-4.0825,0.5796033030867477,0.9769806909656209
-4.082,0.5689331282290746,0.8710143069140429
-4.0815,0.5582629533713921,0.7650479228623686
-4.081,0.4729015545100085,0.6272916235953172
-4.0805,-0.1139580626626144,0.06566978812131802
-4.08,-0.9035510021311299,-0.7396747306714069
-4.0795,-1.554431668449179,-1.386069673386032
-4.079,-1.661133417026025,-1.460246142222291
-4.0785,-1.031593100423322,-0.9092209451540858
-4.078,-0.3060212101015618,-0.4217755785168272
-4.0775,0.2381577076411942,-0.2098428104129485
-4.077,0.5475927785137094,-0.1144730647665284
-4.0765,0.6863050516634577,-0.1038764263613705
-4.076,0.7183155762366121,-0.1568596183872463
-4.0755,0.6969752265212663,-0.2098428104130352
-4.075,0.6329541773751706,-0.2098428104130352
-4.0745,0.515582253940671,-0.19924617200781
-4.074,0.5262524287983441,-0.1356663415768632
-4.0735,0.5902734779444399,-0.05089323433552374
-4.073,0.6329541773751317,0.03387987290573861
-4.0725,0.4195506802215176,-0.1038764263613609
-4.072,-0.3166913849585846,-0.6654982618352349
-4.0715,-1.127624674141728,-1.258910012524071
-4.071,-1.831856214749743,-1.661582271921002
-4.0705,-2.07727023647622,-1.693372187136476
-4.07,-1.447729919873517,-0.9939940523960613
-4.0695,-0.6154562809731356,-0.1568596183866006
-4.069,0.00341386077189465,0.5001319627331828
-4.0685,0.3875401556484697,0.92399749893988
-4.068,0.5689331282291231,1.125333628638119
-4.0675,0.6222840025174878,1.188913459069066
-4.067,0.6222840025174878,1.167720182258731
-4.0665,0.5902734779444204,1.093543713422482
-4.066,0.5689331282290746,1.00877060618122
-4.0655,0.5689331282290746,0.9345941373450475
-4.065,0.5582629533714017,0.8392243916986273
-4.0645,0.5582629533713921,0.7438546460520338
-4.064,0.2701682322139607,0.5001319627331828
-4.0635,-0.4340633083924531,-0.2204394488175473
-4.063,-1.159635198715901,-0.9728007755853313
-4.0625,-1.586442193022819,-1.237716735714276
-4.062,-1.266336947292631,-0.8668343915337535
-4.0615,-0.5514352318270593,-0.389985663300631
-4.061,0.04609456020262521,-0.1144730647665284
-4.0605,0.4408910299368829,-0.01910331912002144
-4.06,0.6436243522329307,-0.05089323433561048
-4.0595,0.7289857510943143,-0.1462629799820306
-4.059,0.7289857510943143,-0.2204394488182027
-4.0585,0.6863050516636227,-0.2734226408439916
-4.058,0.6116138276598051,-0.1250697031716958
-4.0575,0.6863050516635838,0.1292496185523226
-4.057,0.6756348768059107,0.1716361721729538
-4.0565,0.6436243522328531,0.1716361721729923
-4.056,0.5155822539406614,0.09745970333682032
-4.0555,-0.1246282375197147,-0.4005823017055961
-4.055,-0.9248913518471162,-1.025783967611342
-4.0545,-1.607782542738184,-1.481439419033127
-4.054,-1.99190883761441,-1.672178910325967
-4.0535,-1.682473766741235,-1.322489842954873
-4.053,-0.8822106524157645,-0.5065486857577234
-4.0525,-0.1993194615240755,0.2458126410091644
-4.052,0.259498057356511,0.7862411996729733
-4.0515,0.5155822539406614,1.082947075017392
-4.051,0.6116138276598051,1.199510097474233
-4.0505,0.6222840025174782,1.199510097474233
-4.05,0.6009436528021226,1.135930267043229
-4.0495,0.5796033030867573,1.040560521396722
-4.049,0.5582629533714115,0.9451907757503016
-4.0485,0.5582629533713824,0.8286277532932671
-4.048,0.5475927785137094,0.7120647308365314
-4.0475,0.3768699807909424,0.4895353243282177
-4.047,-0.3060212101015812,-0.1992461720085617
-4.0465,-1.052933450138687,-0.9622041371799229
-4.046,-1.725154466172082,-1.566212526273917
-4.0455,-1.7891755153181,-1.375473034980836
-4.045,-1.031593100423322,-0.6972881770507372
-4.0445,-0.3060212101009019,-0.2310360872233701
-4.044,0.2381577076412039,0.01268659609552904
-4.0435,0.5582629533713921,0.06566978812131802
-4.043,0.6969752265212663,0.01268659609548085
-4.0425,0.7396559259519579,-0.06148987274062372
-4.042,0.7183155762366316,-0.1038764263613609
-4.0415,0.6649647019482183,-0.1462629799820306
-4.041,0.6969752265212372,-0.07208651114592607
-4.0405,0.7183155762366121,-0.008506680714825099
-4.04,0.6969752265212663,0.02328323450064829
-4.0395,0.6649647019482474,0.06566978812127947
-4.039,0.3982103305055022,0.01268659609523028
-4.0385,-0.3166913849585846,-0.2628260024388724
-4.038,-1.106284324426382,-0.856237753127709
-4.0375,-1.810515865034387,-1.375473034981646
-4.037,-2.066600061618538,-1.587405803084801
-4.0365,-1.458400094730627,-1.036380606016095
-4.036,-0.6261264558308184,-0.24163272562794
-4.0355,-0.007256314085787988,0.4153588554918433
-4.035,0.3768699807907871,0.8604176685088755
-4.0345,0.5689331282288999,1.104140351827505
-4.034,0.6222840025174878,1.188913459069066
-4.0335,0.6222840025174878,1.178316820663898
-4.033,0.5902734779444689,1.12533362863811
-4.0325,0.5796033030867379,1.051157159801822
-4.032,0.5582629533713921,0.9769806909657173
-4.0315,0.547592778513719,0.8816109453192971
-4.031,0.4835717293671088,0.7332580076462977
-4.0305,-0.07127736323188383,0.1080563417419877
-4.03,-0.8502001278420083,-0.729078092265478
-4.0295,-1.522421143876839,-1.396666311791875
-4.029,-1.650463242168915,-1.492036057438295
-4.0285,-0.9995825758502737,-0.8880276683437509
-4.028,-0.2953510352427341,-0.4005823017058081
-4.0275,0.2381577076409128,-0.1356663415768632
-4.027,0.5475927785137094,-0.04029659593035631
-4.0265,0.6756348768057846,-0.0720865111458297
-4.026,0.707645401378949,-0.1250697031716958
-4.0255,0.6863050516635838,-0.1886495336027004
-4.025,0.6329541773752191,-0.2204394488181737
-4.0245,0.5155822539406419,-0.2310360872233315
-4.024,0.4942419042252961,-0.1886495336027004
-4.0235,0.5369226036559878,-0.1250697031717536
-4.023,0.5902734779443137,-0.02969995752527562
-4.0225,0.4515612047945656,-0.1250697031716958
-4.022,-0.1566387620927919,-0.5913217929986389
-4.0215,-0.9355615267047502,-1.16354026687849
-4.021,-1.565101843307454,-1.587405803084801
-4.0205,-1.917217613610981,-1.714565463946811
-4.02,-1.447729919872246,-1.195330182092865
-4.0195,-0.6794773301197943,-0.3793890248957141
-4.019,-0.06060718837420119,0.3305857482505039
-4.0185,0.3448594562173704,0.8074344764826047
-4.018,0.5475927785137094,1.061753798207057
-4.0175,0.6222840025174878,1.157123543853563
-4.017,0.6222840025174878,1.157123543853563
-4.0165,0.6009436528020935,1.093543713422492
-4.016,0.5689331282290746,1.019367244586387
-4.0155,0.5582629533714017,0.9345941373451245
-4.015,0.5582629533713727,0.8498210301036117
-4.0145,0.5369226036560266,0.7438546460520338
-4.014,0.142126133922128,0.4047622170869843
-4.0135,-0.6367966306897237,-0.3793890248963791
-4.013,-1.362368521011484,-1.110557074852267
-4.0125,-1.927887788468663,-1.587405803084801
-4.012,-1.57577201816436,-1.258910012524052
-4.0115,-0.722158029550525,-0.6443049850249
-4.011,0.00341386077189465,-0.1780528951975329
-4.0105,0.4622313796518309,0.03387987290562297
-4.01,0.6756348768059011,0.02328323450064829
-4.0095,0.7396559259519968,-0.07208651114585861
-4.009,0.728985751094324,-0.1674562567922788
-4.0085,0.7076454013787356,-0.231036087223505
-4.008,0.4729015545099309,-0.3793890248957141
-4.0075,0.280838407071818,-0.3793890248957141
-4.007,0.3128489316447883,-0.2204394488180196
-4.0065,0.4195506802215176,-0.01910331912002144
-4.006,0.4942419042252961,0.1186529801471552
-4.0055,0.07810508477497442,-0.2416327256291158
-4.005,-0.690147504977477,-0.8774310299385835
-4.0045,-1.405049220442214,-1.38606967338662
-4.004,-1.927887788468392,-1.672178910325813
-4.0035,-1.629122892453549,-1.311893204550448
-4.003,-0.839529952985034,-0.5171453241628908
-4.0025,-0.1673089369516391,0.1928294489826815
-4.002,0.2808384070716433,0.6908714540261965
-4.0015,0.5262524287983441,0.9557874141553824
-4.001,0.6116138276597275,1.06175379820696
-4.0005,0.6329541773751415,1.051157159801832
-4,0.6009436528021226,0.9875773293708847
-3.9995,0.5796033030867573,0.9028042221295453
-3.999,0.5689331282290746,0.8180311148882058
-3.9985,0.5689331282290746,0.7438546460520338
-3.998,0.5689331282290746,0.6696781772158616
-3.9975,0.4302208550792003,0.6060983467848571
-3.997,-0.2206598112394408,0.1292496185523226
-3.9965,-0.9462317015618604,-0.5913217929990628
-3.996,-1.597112367880501,-1.227120097309109
-3.9955,-1.661133417026597,-1.258910012524611
-3.995,-0.9569018764195432,-0.6337083466197325
-3.9945,-0.2633405106701714,-0.1462629799820306
-3.994,0.2701682322139607,0.05507314971615059
-3.9935,0.5902734779444399,0.07626642652648545
-3.993,0.707645401378949,0.01268659609548085
-3.9925,0.7183155762366316,-0.05089323433552374
-3.992,0.6969752265212663,-0.1038764263613609
-3.9915,0.6222840025174878,-0.1038764263613609
-3.991,0.5582629533713921,-0.04029659593035631
-3.9905,0.5689331282290746,0.01268659609548085
-3.99,0.6222840025174878,0.09745970333682032
-3.9895,0.6436243522328531,0.1504428953626575
-3.989,0.3235191065023739,-0.1038764263613609
-3.9885,-0.4660738329661415,-0.7396747306714069
-3.988,-1.255666772434657,-1.333086481360783
-3.9875,-1.863866739322568,-1.693372187136476
-3.987,-1.725154466172693,-1.47084278062796
-3.9865,-0.9569018764195432,-0.6972881770507372
-3.986,-0.2633405106701714,0.05507314971615059
-3.9855,0.2274875327832301,0.5955017083796896
-3.985,0.4942419042252961,0.9028042221295453
-3.9845,0.6116138276598051,1.040560521396722
-3.984,0.6329541773751706,1.061753798207057
-3.9835,0.6116138276598051,1.019367244586387
-3.983,0.5796033030867573,0.9451907757502149
-3.9825,0.5689331282290746,0.8710143069140429
-3.982,0.5582629533713921,0.7968378380778709
-3.9815,0.5582629533713921,0.7120647308365314
-3.981,0.5049120790829789,0.6060983467848571
-3.9805,-0.02859666380115328,0.1186529801471552
-3.98,-0.8288597781273515,-0.6760949002404023
-3.9795,-1.501080794161358,-1.322489842955616
-3.979,-1.543761493592088,-1.449649503817625
-3.9785,-0.9142211769888124,-0.9410108603695881
-3.978,-0.2206598112394408,-0.4535654937318862
-3.9775,0.3021787567870086,-0.1462629799820306
-3.977,0.5902734779444399,-0.008506680714854012
-3.9765,0.6863050516635838,-0.008506680714854012
-3.976,0.6863050516635838,-0.06148987274069118
-3.9755,0.6649647019482183,-0.1144730647665284
-3.975,0.6436243522328531,-0.1462629799820306
-3.9745,0.6649647019482183,-0.2204394488182027
-3.974,0.6863050516635838,-0.1992461720078678
-3.9735,0.6756348768059011,-0.1038764263613609
-3.973,0.6863050516635838,0.002089957690313421
-3.9725,0.5369226036560266,-0.02969995752518888
-3.972,-0.1673089369510276,-0.5171453241628908
-3.9715,-0.9995825758502737,-1.121153713257435
-3.971,-1.67180359188428,-1.555615887869299
-3.9705,-2.002579012472442,-1.693372187136476
-3.97,-1.437059745015262,-1.121153713257435
-3.9695,-0.6474668055467465,-0.2946159176543747
-3.969,-0.02859666380115328,0.3941655786815084
-3.9685,0.3661998059331045,0.849821030103708
-3.968,0.5582629533713921,1.093543713422559
-3.9675,0.6222840025174878,1.178316820663898
-3.967,0.6222840025174878,1.167720182258731
-3.9665,0.6009436528021226,1.104140351827727
-3.966,0.5689331282290746,1.019367244586387
-3.9655,0.5582629533713921,0.9345941373450475
-3.965,0.5689331282290746,0.8604176685088755
-3.9645,0.5582629533713921,0.775644561267536
-3.964,0.2061471830678648,0.457745409112513
-3.9635,-0.5621054066852853,-0.326405832869877
-3.963,-1.319687821580753,-1.089363798041932
-3.9625,-1.746494815888059,-1.407262950196955
-3.962,-1.287677297007705,-0.9939940523954253
-3.9615,-0.5407650569699201,-0.4535654937318862
-3.961,0.08877525963335578,-0.1356663415768632
-3.9605,0.4622313796522482,0.002089957690313421
-3.96,0.6329541773751706,0.03387987290581572
-3.9595,0.6969752265212663,0.002089957690313421
-3.959,0.707645401378949,-0.08268314955102604
-3.9585,0.6969752265212663,-0.1462629799820306
-3.958,0.5262524287983441,-0.1356663415768632
-3.9575,0.4622313796522482,-0.1038764263613609
-3.957,0.5369226036560266,-0.02969995752518888
-3.9565,0.6116138276598051,0.04447651131098315
-3.956,0.6116138276598051,0.09745970333682032
-3.9555,0.2061471830678648,-0.2310360872233701
-3.955,-0.5621054066852853,-0.8668343915334161
-3.9545,-1.330357996438436,-1.439052865412457
-3.954,-1.959898313041711,-1.809935209593318
-3.9535,-1.778505340461106,-1.51322933424863
-3.953,-0.9569018764195432,-0.6866915386455698
-3.9525,-0.2526703358124887,0.08686306493165288
-3.952,0.2381577076409128,0.6484849004055269
-3.9515,0.5049120790829789,0.9663840525605498
-3.951,0.6116138276598051,1.104140351827727
-3.9505,0.6329541773751706,1.125333628638062
-3.95,0.6116138276598051,1.093543713422559
-3.9495,0.5902734779444399,1.029963882991555
-3.949,0.5689331282290746,0.9451907757502149
-3.9485,0.5582629533713921,0.8710143069140429
-3.948,0.5689331282290746,0.7968378380778709
-3.9475,0.4195506802215176,0.6696781772158616
-3.947,-0.2313299860971235,0.08686306493165288
-3.9465,-0.9569018764195432,-0.6443049850249
-3.946,-1.543761493592088,-1.227120097309109
-3.9455,-1.533091318734406,-1.227120097309109
-3.945,-0.839529952985034,-0.718481453861072
-3.9445,-0.1352984123779797,-0.2734226408440398
-3.944,0.3768699807907871,-0.01910331912002144
-3.9435,0.6329541773751706,0.02328323450064829
-3.943,0.7503261008096795,-0.04029659593035631
-3.9425,0.7716664505250448,-0.1250697031716958
-3.942,0.7609962756673623,-0.2098428104130352
-3.9415,0.7396559259519968,-0.2946159176543747
-3.941,0.79300680024041,-0.3052125560595421
-3.9405,0.7716664505250448,-0.2310360872233701
-3.94,0.7183155762366316,-0.1038764263613609
-3.9395,0.6756348768059011,0.03387987290581572
-3.939,0.3768699807907871,-0.07208651114585861
-3.9385,-0.3807124341046804,-0.6337083466197325
-3.938,-1.159635198715513,-1.205926820498774
-3.9375,-1.810515865034154,-1.545019249464132
-3.937,-1.917217613610981,-1.481439419033127
-3.9365,-1.170305373573196,-0.7820612842920766
-3.936,-0.423393133535411,0.002089957690313421
-3.9355,0.1314559590640864,0.6060983467848571
-3.935,0.4515612047945656,0.9875773293708847
-3.9345,0.5902734779444399,1.167720182258731
-3.934,0.6329541773751706,1.220703374284568
-3.9335,0.6116138276598051,1.199510097474233
-3.933,0.5902734779444399,1.135930267043229
-3.9325,0.5796033030867573,1.061753798207057
-3.932,0.5796033030867573,0.9769806909657173
-3.9315,0.5689331282290746,0.8816109453192104
-3.931,0.5262524287983441,0.7544512844572011
-3.9305,0.01408403562957729,0.2352160026039969
-3.93,-0.7755089038389382,-0.5913217929990628
-3.9295,-1.51175096901904,-1.301296566145281
-3.929,-1.959898313041711,-1.587405803084801
-3.9285,-1.426389570157579,-1.036380606016095
-3.928,-0.6261264558313813,-0.474758770542221
-3.9275,0.03542438534494258,-0.09327978795619347
-3.927,0.4515612047945656,0.02328323450064829
-3.9265,0.6436243522328531,-0.008506680714854012
-3.926,0.6863050516635838,-0.09327978795619347
-3.9255,0.6756348768059011,-0.1992461720078678
-3.925,0.6222840025174878,-0.2628260024388724
-3.9245,0.3768699807907871,-0.3793890248957141
-3.924,0.3235191065023739,-0.3158091944647096
-3.9235,0.3982103305061524,-0.1462629799820306
-3.923,0.5049120790829789,0.03387987290581572
-3.9225,0.4515612047945656,0.08686306493165288
-3.922,-0.1139580626626144,-0.3581957480853793
-3.9215,-0.8928808272734472,-0.9833974139902578
-3.921,-1.554431668449771,-1.396666311791788
-3.9205,-1.927887788468663,-1.555615887869299
-3.92,-1.373038695869166,-1.046977244421262
-3.9195,-0.6154562809736985,-0.2946159176543747
-3.919,-0.007256314085787988,0.3411823866556712
-3.9185,0.3768699807907871,0.7544512844572011
-3.918,0.5582629533713921,0.9663840525605498
-3.9175,0.6222840025174878,1.051157159801889
-3.917,0.6222840025174878,1.040560521396722
-3.9165,0.6009436528021226,0.9769806909657173
-3.916,0.5796033030867573,0.9134008605347127
-3.9155,0.5689331282290746,0.8392243916985406
-3.915,0.5582629533713921,0.7544512844572011
-3.9145,0.5582629533713921,0.6802748156210291
-3.914,0.2168173579255475,0.3623756634660061
-3.9135,-0.5407650569699201,-0.3899856633008816
-3.913,-1.277007122150022,-1.110557074852267
-3.9125,-1.853196564464885,-1.608599079895136
-3.912,-1.479740444445993,-1.269506650929778
-3.9115,-0.690147504977477,-0.6549016234300674
-3.911,-0.02859666380115328,-0.2098428104130352
-3.9105,0.4408910299368829,0.02328323450064829
-3.91,0.6863050516635838,0.07626642652648545
-3.9095,0.7716664505250448,0.08686306493165288
-3.909,0.7503261008096795,0.03387987290581572
-3.9085,0.707645401378949,0.002089957690313421
-3.908,0.6009436528021226,-0.02969995752518888
-3.9075,0.5582629533713921,-0.04029659593035631
-3.907,0.5796033030867573,-0.008506680714854012
-3.9065,0.6116138276598051,0.06566978812131802
-3.906,0.6116138276598051,0.13984625695749
-3.9055,0.2168173579255475,-0.1462629799820306
-3.905,-0.5621054066852853,-0.7714646458869092
-3.9045,-1.30901764672307,-1.322489842955616
-3.904,-1.87453691418025,-1.629792356705471
-3.9035,-1.543761493592088,-1.258910012524611
-3.903,-0.7755089038389382,-0.5065486857577234
-3.9025,-0.1352984123779797,0.1822328105781598
-3.902,0.3021787567870086,0.6590815388106942
-3.9015,0.5369226036560266,0.92399749893988
-3.901,0.6222840025174878,1.040560521396722
-3.9005,0.6329541773751706,1.051157159801889
-3.9,0.6009436528021226,1.019367244586387
-3.8995,0.5796033030867573,0.9557874141553824
-3.899,0.5582629533713921,0.8922075837243778
-3.8985,0.5582629533713921,0.8180311148882058
-3.898,0.5582629533713921,0.7544512844572011
-3.8975,0.3982103305061524,0.6166949851900245
-3.897,-0.2846808603855366,-0.02969995752518888
-3.8965,-1.042263275281004,-0.8138511995075789
-3.896,-1.565101843307454,-1.333086481360783
-3.8955,-1.298347471865388,-1.152943628472937
-3.895,-0.6154562809736985,-0.5595318777835605
-3.8945,-0.007256314085787988,-0.1038764263613609
-3.894,0.3982103305061524,0.05507314971615059
-3.8935,0.6436243522328531,0.06566978812131802
-3.893,0.7396559259519968,0.02328323450064829
-3.8925,0.7289857510943143,-0.01910331912002144
-3.892,0.6756348768059011,-0.07208651114585861
-3.8915,0.5582629533713921,-0.08268314955102604
-3.891,0.5049120790829789,-0.01910331912002144
-3.8905,0.5582629533713921,0.06566978812131802
-3.89,0.6009436528021226,0.13984625695749
-3.8895,0.6009436528021226,0.2140227257936621
-3.889,0.2808384070716433,0.002089957690313421
-3.8885,-0.4660738329661415,-0.5807251545938954
-3.888,-1.1062843244271,-0.9516074987747555
-3.8875,-1.714484291315011,-1.248313374119443
-3.887,-1.991908837614759,-1.311893204550448
