Class_1_Relax_eyes_closed/Class_1_Relax_eyes_closed_SH_5.csv

#Digilent WaveForms Oscilloscope Acquisition
#Device Name: EExplorer
#Serial Number: SN:210151A2B84A
#Date Time: 2020-12-15 14:43:49.019
#Sample rate: 2000Hz
#Samples: 16384
#Trigger: Source: Channel 1 Type: Edge Condition: Rising Level: 0 V Hyst.: Auto HoldOff: 0 s
#Channel 1: Range: 1 V/div Offset: 0 V Attenuation: 1 X
#Channel 2: Range: 1 V/div Offset: 0 V Attenuation: 1 X
#Power Supplies: ON
#Fixed Supply: ON
#Voltage: 3.3 V Readback: 3.321 V
#Positive Supply: ON
#Voltage: 3.7 V Readback: 3.715 V
#Current: 40 mA Readback: 18 mA
#Negative Supply: ON
#Voltage: -3.7 V Readback: -3.347 V
#Current: -40 mA Readback: -5 mA
#Reference 1: ON
#Voltage: 0 V
#Reference 2: ON
#Voltage: 0 V

Time (s),Channel 1 (V),Channel 2 (V)
-4.096,0.3768699807907871,0.002089957690313421
-4.0955,0.38754015564846,0.1186529801470492
-4.095,0.1207857842057438,0.3835689402766976
-4.0945,-0.6047861061160158,0.775644561267536
-4.094,-1.373038695868467,0.3729723018715398
-4.0935,-1.927887788468469,-0.4429688553269693
-4.093,-1.714484291315011,-0.718481453861072
-4.0925,-0.967572051277905,-0.4853554089476005
-4.092,-0.3060212101004847,-0.1674562567921246
-4.0915,0.1527963087794516,0.09745970333682032
-4.091,0.3982103305061524,0.2987958330350016
-4.0905,0.4835717293676135,0.4365521323022745
-4.09,0.4835717293676135,0.5425185163538525
-4.0895,0.4622313796522482,0.5743084315693548
-4.089,0.494241904225267,0.5319218779487236
-4.0885,0.4942419042252961,0.5213252395435176
-4.088,0.4622313796522482,0.55311515475902
-4.0875,0.4302208550792295,0.5849050699744933
-4.087,0.4195506802217699,0.6060983467850788
-4.0865,0.6969752265212663,0.849821030103708
-4.086,0.4408910299371159,0.5849050699747631
-4.0855,-0.3700422592476383,-0.3370024712757673
-4.085,-1.074273799854052,-1.131750351662602
-4.0845,-1.234326422719146,-1.364876396576073
-4.084,-0.8502001278422801,-1.03638060601569
-4.0835,-0.3700422592469978,-0.5913217929990628
-4.083,0.01408403562957729,-0.252229364033705
-4.0825,0.2488278824986924,-0.05089323433544665
-4.082,0.3555296310754218,0.03387987290581572
-4.0815,0.3982103305061524,0.04447651131098315
-4.081,0.3875401556484794,0.02328323450066756
-4.0805,0.3661998059331045,0.002089957690313421
-4.08,0.3555296310754218,-0.008506680714854012
-4.0795,0.3661998059330948,0.02328323450061937
-4.079,0.387540155648363,0.1186529801473287
-4.0785,0.2701682322139607,0.309392471440169
-4.078,-0.3700422592464155,0.6802748156206917
-4.0775,-1.148965023858432,0.3729723018703929
-4.077,-1.810515865034154,-0.4853554089473885
-4.0765,-1.853196564464846,-0.9833974139898048
-4.076,-1.170305373572555,-0.8350444763175475
-4.0755,-0.4660738329661415,-0.4323722169215513
-4.075,0.05676473506030786,-0.06148987274069118
-4.0745,0.3448594562178556,0.1822328105783236
-4.074,0.4729015545099309,0.3623756634660061
-4.0735,0.5049120790829789,0.457745409112513
-4.073,0.47290155450996,0.5001319627331443
-4.0725,0.4515612047945656,0.3729723018711736
-4.072,0.4515612047945656,0.3199891098453364
-4.0715,0.4302208550792198,0.3729723018711254
-4.071,0.4195506802215079,0.457745409112542
-4.0705,0.408880505363835,0.4895353243280153
-4.07,0.5902734779442749,0.6272916235950667
-4.0695,0.7503261008090391,0.7120647308358664
-4.069,0.04609456020262521,-0.01910331912002144
-4.0685,-0.7861790786966207,-0.8880276683437509
-4.068,-1.15963519871528,-1.311893204550246
-4.0675,-0.9035510021311299,-1.089363798041932
-4.067,-0.4447334832507763,-0.6760949002404023
-4.0665,-0.04993701351628565,-0.3264058328696746
-4.066,0.2061471830678648,-0.1038764263613609
-4.0655,0.3341892813600565,-0.008506680714854012
-4.065,0.3875401556484212,0.01268659609546158
-4.0645,0.3875401556484697,-0.008506680714854012
-4.064,0.3768699807907871,-0.04029659593035631
-4.0635,0.3555296310754412,-0.05089323433551411
-4.063,0.3661998059331239,-0.008506680714786548
-4.0625,0.3875401556484697,0.06566978812131802
-4.062,0.3768699807907968,0.1928294489832116
-4.0615,-0.09261771294798667,0.5319218779488489
-4.061,-0.9035510021311299,0.7120647308365314
-4.0605,-1.597112367880501,0.01268659609548085
-4.06,-1.767835165602939,-0.5807251545938857
-4.0595,-1.234326422719292,-0.570128516188728
-4.059,-0.5300948821122373,-0.2628260024388724
-4.0585,0.003413860771409372,0.02328323450038805
-4.058,0.3235191065023739,0.2246193641988295
-4.0575,0.4622313796522482,0.3305857482505039
-4.057,0.4835717293675941,0.3941655786814506
-4.0565,0.4622313796522482,0.457745409112513
-4.056,0.4942419042252961,0.4259554938970107
-4.0555,0.5902734779443525,0.362375663466064
-4.055,0.5689331282290261,0.4259554938971071
-4.0545,0.5155822539406614,0.5319218779486851
-4.054,0.4515612047946238,0.6166949851899475
-4.0535,0.4729015545102026,0.6908714540263796
-4.053,0.7716664505250448,0.8922075837243778
-4.0525,0.2808384070716433,0.3517790250608387
-4.052,-0.6154562809742711,-0.6019184314048278
-4.0515,-1.244996597576974,-1.258910012524611
-4.051,-1.170305373573196,-1.248313374119443
-4.0505,-0.7008176798355867,-0.8668343915337631
-4.05,-0.2313299860971235,-0.4641621321370536
-4.0495,0.1101156093487211,-0.1780528951975329
-4.049,0.291508581929161,-0.0402965959304816
-4.0485,0.3768699807908065,0.002089957690303783
-4.048,0.3982103305061524,-0.008506680714854012
-4.0475,0.3875401556484794,-0.0402965959303274
-4.047,0.3661998059330948,-0.07208651114584898
-4.0465,0.3555296310754218,-0.06148987274069118
-4.046,0.3768699807907677,0.002089957690255592
-4.0455,0.3875401556482271,0.1398462569577502
-4.045,0.1207857842064037,0.4259554938970107
-4.0445,-0.6047861061160158,0.7862411996727035
-4.044,-1.277007122150294,0.3305857482497906
-4.0435,-1.575772018165136,-0.4535654937318862
-4.043,-1.180975548430879,-0.6760949002404023
-4.0425,-0.5514352318281753,-0.4429688553269308
-4.042,-0.02859666380115328,-0.1250697031716958
-4.0415,0.3021787567870086,0.13984625695749
-4.041,0.4515612047944297,0.2881991946296992
-4.0405,0.4942419042252864,0.3941655786815759
-4.04,0.4835717293676135,0.4683420475176805
-4.0395,0.4729015545099406,0.4789386859228382
-4.039,0.5262524287983344,0.3729723018712218
-4.0385,0.5155822539406614,0.4259554938970107
-4.038,0.4835717293676426,0.5531151547589043
-4.0375,0.4302208550791712,0.6696781772159195
-4.037,0.3982103305061524,0.7332580076468663
-4.0365,0.4515612047945656,0.8816109453192104
-4.036,0.07810508477494531,0.5107286011375021
-4.0355,-0.722158029550525,-0.4217755785163839
-4.035,-1.30901764672307,-1.152943628472937
-4.0345,-1.255666772434706,-1.269506650929672
-4.034,-0.7755089038389382,-0.9198175835592532
-4.0335,-0.274010685527854,-0.5277419625680583
-4.033,0.07810508477535288,-0.2416327256287978
-4.0325,0.2915085819294037,-0.09327978795616457
-4.032,0.3768699807907871,-0.06148987274069118
-4.0315,0.398210330506133,-0.07208651114584896
-4.031,0.3875401556484503,-0.1144730647665573
-4.0305,0.3661998059331045,-0.1462629799820306
-4.03,0.3555296310754315,-0.1462629799820306
-4.0295,0.3661998059331239,-0.08268314955091038
-4.029,0.3875401556484697,0.04447651131098315
-4.0285,0.2701682322139607,0.2670059178194992
-4.028,-0.359372084390043,0.6802748156207978
-4.0275,-1.159635198715513,0.4259554938970107
-4.027,-1.789175515318789,-0.3899856633008816
-4.0265,-1.650463242169041,-0.7078848154556154
-4.026,-0.9569018764195432,-0.5277419625680583
-4.0255,-0.3060212101009019,-0.2310360872233701
-4.025,0.1634664836367073,0.02328323450041697
-4.0245,0.4302208550792876,0.1610395337679695
-4.024,0.5262524287983441,0.3199891098453364
-4.0235,0.5262524287983441,0.4577454091123878
-4.023,0.4835717293675941,0.5319218779486465
-4.0225,0.4622313796522482,0.4895353243280153
-4.022,0.4622313796522482,0.5107286011383309
-4.0215,0.4302208550791809,0.5531151547590585
-4.021,0.408880505363835,0.5955017083796896
-4.0205,0.3982103305061524,0.6166949851900245
-4.02,0.6009436528022487,0.7650479228624553
-4.0195,0.7396559259519968,0.8604176685088755
-4.019,0.00341386077189465,0.09745970333682032
-4.0185,-0.8395299529842674,-0.8138511995067501
-4.018,-1.223656247861609,-1.258910012524611
-4.0175,-0.9569018764195432,-1.078767159636765
-4.017,-0.4874141826819339,-0.6972881770510841
-4.0165,-0.07127736323164122,-0.3581957480851866
-4.016,0.1954770082101822,-0.1462629799820306
-4.0155,0.3341892813599304,-0.05089323433561048
-4.015,0.3875401556484697,-0.02969995752520815
-4.0145,0.3875401556484697,-0.05089323433552374
-4.014,0.3768699807907968,-0.08268314955099712
-4.0135,0.3555296310754315,-0.103876426361332
-4.013,0.3661998059331045,-0.07208651114585861
-4.0125,0.3875401556484697,0.02328323450064829
-4.012,0.3555296310749948,0.1822328105784874
-4.0115,-0.1139580626626144,0.5425185163538525
-4.011,-0.9248913518464952,0.627291623595192
-4.0105,-1.565101843306871,-0.1038764263606959
-4.01,-1.650463242168915,-0.570128516188728
-4.0095,-1.1062843244271,-0.4217755785163839
-4.009,-0.4874141826820697,-0.156859618387439
-4.0085,0.003413860772185784,0.02328323450073503
-4.008,0.3235191065023739,0.1186529801471552
-4.0075,0.472901554509795,0.2352160026038909
-4.007,0.4942419042252864,0.3517790250609158
-4.0065,0.4835717293676135,0.4365521323021782
-4.006,0.4729015545099309,0.4683420475176805
-4.0055,0.4942419042252767,0.5001319627332214
-4.005,0.4729015545099309,0.5425185163538525
-4.0045,0.4408910299368829,0.5637117931641874
-4.004,0.4195506802215564,0.5955017083797282
-4.0035,0.4622313796522482,0.6378882620003594
-4.003,0.6329541773751706,0.7332580076468663
-4.0025,0.003413860772467192,0.09745970333739851
-4.002,-0.8608703027003992,-0.8244478379127463
-4.0015,-1.426389570157579,-1.417859588602123
-4.001,-1.212986073004121,-1.280103289335071
-4.0005,-0.6794773301193576,-0.8032545611020163
-4,-0.1993194615240755,-0.3687923864905467
-3.9995,0.142126133921769,-0.08268314955102604
-3.999,0.3128489316446912,0.06566978812131802
-3.9985,0.3875401556484697,0.1080563417419877
-3.998,0.3982103305061524,0.08686306493165288
-3.9975,0.3768699807907871,0.04447651131098315
-3.997,0.3661998059331045,0.01268659609548085
-3.9965,0.3555296310754218,0.01268659609548085
-3.996,0.3661998059331045,0.05507314971615059
-3.9955,0.3768699807907871,0.1716361721729923
-3.995,0.02475421048725994,0.457745409112513
-3.9945,-0.7434983792658902,0.7438546460520338
-3.994,-1.46907026958831,0.1610395337678249
-3.9935,-1.938557963326346,-0.5913217929990628
-3.993,-1.735824641030376,-0.6760949002404023
-3.9925,-1.020922925565639,-0.3687923864905467
-3.992,-0.3593720843893152,-0.08268314955102604
-3.9915,0.1101156093487211,0.06566978812131802
-3.991,0.3661998059331045,0.13984625695749
-3.9905,0.4729015545099309,0.1928294489833272
-3.99,0.4942419042252961,0.2776025562246667
-3.9895,0.4408910299368829,0.2987958330350016
-3.989,0.3875401556484697,0.1610395337678249
-3.9885,0.3661998059331045,0.2458126410091644
-3.988,0.3661998059331045,0.4047622170866759
-3.9875,0.3768699807907871,0.5425185163538525
-3.987,0.3982103305061524,0.627291623595192
-3.9865,0.6436243522328531,0.8604176685088755
-3.986,0.3341892813600565,0.6590815388106942
-3.9855,-0.4874141826815069,-0.2628260024388724
-3.985,-1.159635198715513,-1.078767159636765
-3.9845,-1.287677297007705,-1.354279758171118
-3.984,-0.8715404775580819,-1.046977244421262
-3.9835,-0.3700422592469978,-0.6337083466197325
-3.983,0.02475421048725994,-0.3158091944647096
-3.9825,0.2594980573562781,-0.1356663415768632
-3.982,0.3661998059331045,-0.06148987274069118
-3.9815,0.3982103305061524,-0.05089323433552374
-3.981,0.3875401556484697,-0.08268314955102604
-3.9805,0.3661998059331045,-0.1144730647665284
-3.98,0.3555296310754218,-0.1250697031716958
-3.9795,0.3661998059331045,-0.06148987274069118
-3.979,0.3875401556484697,0.06566978812131802
-3.9785,0.2381577076409128,0.2987958330350016
-3.978,-0.4447334832507763,0.7226613692416989
-3.9775,-1.212986073003927,0.4895353243280153
-3.977,-1.810515865034154,-0.3475991096802118
-3.9765,-1.725154466172693,-0.7502713690765743
-3.976,-1.042263275281004,-0.5807251545938954
-3.9755,-0.391382608962363,-0.2734226408440398
-3.975,0.07810508477567314,-0.01910331912002144
-3.9745,0.3661998059331045,0.2034260873884947
-3.974,0.4942419042252961,0.3517790250608387
-3.9735,0.5262524287983441,0.4471487707073456
-3.973,0.5049120790829789,0.5107286011383502
-3.9725,0.5369226036560266,0.4365521323021782
-3.972,0.5475927785137094,0.4153588554918433
-3.9715,0.5049120790829789,0.4683420475176805
-3.971,0.4515612047945656,0.5319218779486851
-3.9705,0.4195506802215176,0.5637117931641874
-3.97,0.6329541773751706,0.7544512844572011
-3.9695,0.6863050516635838,0.7332580076468663
-3.969,-0.08194753808956648,-0.09327978795619347
-3.9685,-0.9142211769888124,-0.9728007755850904
-3.968,-1.244996597576974,-1.375473034981453
-3.9675,-0.9462317015618604,-1.131750351662602
-3.967,-0.4660738329661415,-0.718481453861072
-3.9665,-0.04993701351651855,-0.3581957480853793
-3.966,0.2061471830678648,-0.1462629799820306
-3.9655,0.3448594562177392,-0.05089323433552374
-3.965,0.3875401556484697,-0.04029659593035631
-3.9645,0.3875401556484697,-0.06148987274069118
-3.964,0.3768699807907871,-0.09327978795619347
-3.9635,0.3555296310754218,-0.1144730647665284
-3.963,0.3661998059331045,-0.05089323433552374
-3.9625,0.3875401556484697,0.06566978812131802
-3.962,0.3448594562177392,0.2458126410091644
-3.9615,-0.1673089369510276,0.6166949851900245
-3.961,-0.9782422261349084,0.5955017083796896
-3.9605,-1.682473766741963,-0.1992461720078678
-3.96,-1.714484291315011,-0.5913217929990628
-3.9595,-1.042263275281004,-0.4111789401112165
-3.959,-0.3487019095316325,-0.1992461720078678
-3.9585,0.1634664836371343,-0.008506680714854012
-3.958,0.4302208550792003,0.13984625695749
-3.9575,0.5369226036560266,0.2140227257936621
-3.957,0.5369226036560266,0.2776025562246667
-3.9565,0.4942419042252961,0.3623756634660061
-3.956,0.4622313796522482,0.383568940276341
-3.9555,0.4835717293676135,0.4047622170866759
-3.955,0.4622313796522482,0.4789386859228479
-3.9545,0.4302208550792003,0.55311515475902
-3.954,0.408880505363835,0.6060983467848571
-3.9535,0.5049120790829789,0.7120647308365314
-3.953,0.7716664505250448,0.9557874141553824
-3.9525,0.1954770082101822,0.3941655786815084
-3.952,-0.6794773301197943,-0.5489352393783931
-3.9515,-1.223656247861609,-1.142346990067769
-3.951,-1.052933450138687,-1.078767159636765
-3.9505,-0.5834457564006506,-0.7290780922662394
-3.95,-0.1459685872356623,-0.3793890248957141
-3.9495,0.1527963087794516,-0.1356663415768632
-3.949,0.3128489316446912,-0.008506680714854012
-3.9485,0.3768699807907871,0.03387987290581572
-3.948,0.3875401556484697,0.04447651131098315
-3.9475,0.3768699807907871,0.01268659609548085
-3.947,0.3555296310754218,0.002089957690313421
-3.9465,0.3555296310754218,0.02328323450064829
-3.946,0.3768699807907871,0.08686306493165288
-3.9455,0.3875401556484697,0.2140227257936621
-3.945,0.1527963087794516,0.457745409112513
-3.9445,-0.5621054066852853,0.7438546460520338
-3.944,-1.287677297007705,0.1822328105781598
-3.9435,-1.703814116457328,-0.570128516188728
-3.943,-1.437059745015262,-0.7078848154559045
-3.9425,-0.7968492535543035,-0.4429688553267188
-3.942,-0.1993194615240755,-0.1568596183871981
-3.9415,0.2168173579255475,0.04447651131098315
-3.941,0.4195506802215176,0.2034260873884947
-3.9405,0.4835717293676135,0.3199891098453364
-3.94,0.4835717293676135,0.3941655786815084
-3.9395,0.4622313796522482,0.4153588554918433
-3.939,0.4942419042252961,0.3941655786815084
-3.9385,0.4835717293676135,0.4365521323021782
-3.938,0.4515612047945656,0.5001319627331828
-3.9375,0.4195506802215176,0.5425185163538525
-3.937,0.4195506802215176,0.5849050699745222
-3.9365,0.7183155762366316,0.8286277532933731
-3.936,0.4302208550792003,0.5637117931641874
-3.9355,-0.391382608962363,-0.3581957480853793
-3.935,-1.06360362499637,-1.110557074852267
-3.9345,-1.202315898146244,-1.322489842955616
-3.934,-0.8181896032696687,-0.9939940523954253
-3.9335,-0.3380317346739499,-0.570128516188728
-3.933,0.03542438534494258,-0.2310360872233701
-3.9325,0.2594980573562781,-0.04029659593035631
-3.932,0.3555296310754218,0.03387987290581572
-3.9315,0.3875401556484697,0.04447651131098315
-3.931,0.3875401556484697,0.02328323450064829
-3.9305,0.3661998059331045,-0.008506680714854012
-3.93,0.3555296310754218,-0.008506680714854012
-3.9295,0.3768699807907871,0.05507314971615059
-3.929,0.3982103305061524,0.1716361721729923
-3.9285,0.2594980573562781,0.3623756634660061
-3.928,-0.3380317346739499,0.7226613692416989
-3.9275,-1.116954499284783,0.4259554938970107
-3.927,-1.639793067311232,-0.3793890248957141
-3.9265,-1.437059745015262,-0.6019184314042303
-3.926,-0.8288597781273515,-0.4111789401112165
-3.9255,-0.2420001609548061,-0.1462629799820306
-3.925,0.1848068333524996,0.1186529801471552
-3.9245,0.408880505363835,0.2987958330350016
-3.924,0.4942419042252961,0.3729723018711736
-3.9235,0.4942419042252961,0.4259554938970107
-3.923,0.4622313796522482,0.457745409112513
-3.9225,0.4515612047945656,0.4153588554918433
-3.922,0.4515612047945656,0.4153588554918433
-3.9215,0.4408910299368829,0.457745409112513
-3.921,0.4195506802215176,0.5107286011383502
-3.9205,0.4195506802215176,0.5319218779486851
-3.92,0.6116138276598051,0.7226613692416989
-3.9195,0.5049120790829789,0.7650479228623686
-3.919,-0.3060212101009019,-0.04029659593035631
-3.9185,-1.1062843244271,-0.9304142219644207
-3.918,-1.405049220442214,-1.34368311976595
-3.9175,-1.031593100423322,-1.0999604364471
-3.917,-0.4980843575391895,-0.6760949002404023
-3.9165,-0.06060718837420119,-0.3052125560595421
-3.916,0.2168173579255475,-0.07208651114585861
-3.9155,0.3448594562177392,0.03387987290581572
-3.915,0.3982103305061524,0.05507314971615059
-3.9145,0.3982103305061524,0.03387987290581572
-3.914,0.3768699807907871,0.002089957690313421
-3.9135,0.3555296310754218,-0.01910331912002144
-3.913,0.3555296310754218,0.002089957690313421
-3.9125,0.3768699807907871,0.07626642652648545
-3.912,0.3341892813600565,0.2140227257936621
-3.9115,-0.1993194615240755,0.5637117931641874
-3.911,-0.9889124009925911,0.5425185163538525
-3.9105,-1.586442193022819,-0.2310360872233701
-3.91,-1.693143941599645,-0.7502713690765743
-3.9095,-1.116954499284783,-0.6231117082145651
-3.909,-0.4447334832507763,-0.3370024712750445
-3.9085,0.07810508477567314,-0.1568596183871981
-3.908,0.3768699807907871,0.02328323450064829
-3.9075,0.4835717293676135,0.1822328105781598
-3.907,0.4942419042252961,0.309392471440169
-3.9065,0.4729015545099309,0.4259554938970107
-3.906,0.4835717293676135,0.4047622170866759
-3.9055,0.5049120790829789,0.383568940276341
-3.905,0.4835717293676135,0.4683420475176805
-3.9045,0.4408910299368829,0.5743084315693548
-3.904,0.4195506802215176,0.6378882620003594
-3.9035,0.4942419042252961,0.7120647308365314
-3.903,0.7183155762366316,0.8922075837243778
-3.9025,0.1527963087794516,0.2564092794143318
-3.902,-0.6154562809736985,-0.6760949002404023
-3.9015,-1.116954499284783,-1.280103289334946
-3.901,-0.9782422261349084,-1.216523458903942
-3.9005,-0.5514352318276028,-0.8456411147230812
-3.9,-0.124628237520297,-0.474758770542221
-3.8995,0.1527963087794516,-0.2310360872233701
-3.899,0.3128489316446912,-0.1144730647665284
-3.8985,0.3768699807907871,-0.08268314955102604
-3.898,0.3875401556484697,-0.1038764263613609
-3.8975,0.3768699807907871,-0.1356663415768632
-3.897,0.3661998059331045,-0.1568596183871981
-3.8965,0.3555296310754218,-0.1144730647665284
-3.896,0.3875401556484697,-0.01910331912002144
-3.8955,0.3982103305061524,0.1186529801471552
-3.895,0.05676473506030786,0.4153588554918433
-3.8945,-0.722158029550525,0.6802748156210291
-3.894,-1.479740444445993,0.08686306493165288
-3.8935,-1.863866739322568,-0.6760949002404023
-3.893,-1.533091318734406,-0.8138511995075789
-3.8925,-0.839529952985034,-0.5065486857577234
-3.892,-0.1993194615240755,-0.2310360872233701
-3.8915,0.2381577076409128,0.03387987290581572
-3.891,0.4622313796522482,0.2352160026039969
-3.8905,0.5155822539406614,0.3623756634660061
-3.89,0.4942419042252961,0.457745409112513
-3.8895,0.4622313796522482,0.457745409112513
-3.889,0.5049120790829789,0.3411823866556712
-3.8885,0.5049120790829789,0.3729723018711736
-3.888,0.4729015545099309,0.4683420475176805
