Class_1_Relax_eyes_closed/Class_1_Relax_eyes_closed_UZ_11.csv

#Digilent WaveForms Oscilloscope Acquisition
#Device Name: EExplorer
#Serial Number: SN:210151A2B84A
#Date Time: 2021-01-18 13:45:44.928
#Sample rate: 2000Hz
#Samples: 16384
#Trigger: Source: Channel 1 Type: Edge Condition: Rising Level: 0 V Hyst.: Auto HoldOff: 0 s
#Channel 1: Range: 1 V/div Offset: 0 V Attenuation: 1 X
#Channel 2: Range: 1 V/div Offset: 0 V Attenuation: 1 X
#Power Supplies: ON
#Fixed Supply: ON
#Voltage: 3.3 V Readback: 3.319 V
#Positive Supply: ON
#Voltage: 3.7 V Readback: 3.714 V
#Current: 40 mA Readback: 18 mA
#Negative Supply: ON
#Voltage: -3.7 V Readback: -3.597 V
#Current: -40 mA Readback: -10 mA
#Reference 1: ON
#Voltage: 0 V
#Reference 2: ON
#Voltage: 0 V

Time (s),Channel 1 (V),Channel 2 (V)
-4.096,0.0674349099179905,0.3199891098453364
-4.0955,0.05676473506031757,0.1504428953628117
-4.095,0.05676473506031757,0.01268659609537484
-4.0945,0.0674349099179905,-0.1038764263613609
-4.094,0.1848068333523928,-0.1144730647665187
-4.0935,0.7183155762367771,0.1928294489830574
-4.093,0.8783681991018712,-0.1038764263613609
-4.0925,0.5796033030870291,-0.8456411147224066
-4.092,0.3128489316446524,-1.036380606015536
-4.0915,0.2701682322139607,-0.4217755785163839
-4.091,0.2381577076409128,0.04447651131098315
-4.0905,0.184806833352451,0.2034260873884657
-4.09,0.1314559590640864,0.1716361721729923
-4.0895,0.03542438534494258,0.002089957690313421
-4.089,0.04609456020261551,-0.07208651114579115
-4.0885,0.02475421048725994,-0.1250697031716958
-4.088,-0.4340633083930936,-0.4217755785163839
-4.0875,-0.8608703027000111,-0.623111708214382
-4.087,-0.7861790786963782,-0.389985663300525
-4.0865,-0.5194247072545548,0.002089957690313421
-4.086,-0.2740106855280772,0.3517790250605207
-4.0855,-0.2740106855281257,0.3729723018706724
-4.085,-0.572775581542968,-0.1780528951975329
-4.0845,-0.8502001278424645,-0.7290780922657383
-4.084,-1.148965023858151,-1.163540266878307
-4.0835,-1.501080794161358,-1.38606967338662
-4.083,-1.330357996438436,-1.046977244421262
-4.0825,-0.871540477557684,-0.4111789401107442
-4.082,-0.4340633083930936,0.1080563417419877
-4.0815,-0.1352984123779797,0.4047622170866759
-4.081,0.02475421048711435,0.4895353243279382
-4.0805,0.02475421048725994,0.3729723018711736
-4.08,0.09944543449103843,0.2987958330350016
-4.0795,0.08877525963336548,0.1398462569576346
-4.079,0.07810508477565373,-0.01910331912014673
-4.0785,0.05676473506030786,-0.1568596183871981
-4.078,0.05676473506030786,-0.262826002438776
-4.0775,0.1101156093491092,-0.2946159176540373
-4.077,0.5369226036560266,0.07626642652648545
-4.0765,1.102441871112692,0.4153588554915349
-4.076,1.155792745401542,-0.1250697031718982
-4.0755,1.070431346540159,-0.3475991096802118
-4.075,0.8997085488172365,-0.02969995752518888
-4.0745,0.6863050516633703,0.2987958330350787
-4.074,0.4515612047945656,0.383568940276341
-4.0735,0.2701682322139607,0.2564092794143318
-4.073,0.1421261339218854,0.08686306493180709
-4.0725,0.0674349099179905,-0.05089323433552374
-4.072,0.02475421048725994,-0.09327978795619347
-4.0715,-0.06060718837412356,-0.1462629799819825
-4.071,-0.01792648894346092,0.01268659609562542
-4.0705,-0.007256314085787988,0.1716361721729923
-4.07,0.003413860771884946,0.3517790250606748
-4.0695,0.003413860771787901,0.5319218779486947
-4.069,-0.1139580626626144,0.5425185163538525
-4.0685,-0.7114878546928423,0.04447651131098315
-4.068,-1.244996597577091,-0.5171453241632281
-4.0675,-1.373038695869166,-0.8880276683437509
-4.067,-1.426389570157579,-0.9939940523954253
-4.0665,-1.116954499284375,-0.5595318777829918
-4.066,-0.6688071552621118,0.06566978812131802
-4.0655,-0.2953510352432193,0.55311515475902
-4.065,-0.0606071883744147,0.807434476482807
-4.0645,0.05676473506030786,0.8710143069140429
-4.064,0.09944543449103843,0.7968378380778709
-4.0635,0.09944543449103843,0.637888262000504
-4.063,0.07810508477561491,0.4365521323019565
-4.0625,0.01408403562957729,0.1928294489833272
-4.062,0.0460945602025961,0.05507314971627586
-4.0615,0.05676473506032727,-0.1038764263614766
-4.061,0.07810508477567314,-0.2310360872233701
-4.0605,0.408880505363835,-0.06148987274069118
-4.06,1.017080472251891,0.3517790250604917
-4.0595,1.177133095116985,-0.02969995752518888
-4.059,1.081101521397841,-0.5489352393783931
-4.0585,0.814347149956018,-0.2204394488185014
-4.058,0.6222840025174878,0.2776025562246667
-4.0575,0.4195506802215176,0.4259554938970107
-4.057,0.2381577076410777,0.309392471440275
-4.0565,0.1207857842064037,0.06566978812131802
-4.056,0.0674349099179905,-0.1144730647665284
-4.0555,0.02475421048729876,-0.1780528951974751
-4.055,-0.08194753808975086,-0.2734226408441459
-4.0545,-0.2846808603855366,-0.3899856633008816
-4.054,-0.3060212101008825,-0.2416327256286725
-4.0535,-0.231329986097007,0.01268659609574107
-4.053,-0.1032878878049318,0.2987958330350016
-4.0525,-0.04993701351651855,0.4683420475176805
-4.052,-0.4020527838206183,0.1822328105775815
-4.0515,-1.031593100423322,-0.4535654937318862
-4.051,-1.51175096901904,-1.01518732920576
-4.0505,-1.789175515318537,-1.290699927739863
-4.05,-1.778505340461106,-1.227120097309109
-4.0495,-1.287677297007705,-0.6866915386455698
-4.049,-0.7008176798356935,-0.01910331912062868
-4.0485,-0.2740106855276211,0.4153588554920264
-4.048,-0.01792648894347063,0.6166949851900245
-4.0475,0.08877525963325873,0.6378882620003401
-4.047,0.120785784206394,0.5531151547588851
-4.0465,0.1101156093487211,0.4047622170866759
-4.046,0.08877525963337518,0.2246193641989933
-4.0455,0.06743490991793227,0.06566978812115418
-4.045,0.00341386077189465,-0.1144730647665284
-4.0445,0.0674349099179905,-0.1568596183871981
-4.044,0.2274875327838221,-0.1250697031712814
-4.0435,0.8783681991018712,0.3305857482505039
-4.043,1.273164668836129,0.2458126410091644
-4.0425,1.177133095117072,-0.4111789401106189
-4.042,1.059761171682476,-0.2310360872233701
-4.0415,0.942389248247967,0.457745409112513
-4.041,0.6542945270907978,0.6696781772156689
-4.0405,0.4088805053636895,0.5001319627329419
-4.04,0.2488278824985954,0.2352160026039969
-4.0395,0.142126133921866,0.05507314971631441
-4.039,0.06743490991791287,-0.04029659593042377
-4.0385,-0.01792648894347063,-0.1144730647665284
-4.038,-0.4660738329657339,-0.389985663300631
-4.0375,-0.6794773301196875,-0.4111789401109659
-4.037,-0.5621054066852853,-0.1356663415768632
-4.0365,-0.391382608962363,0.13984625695749
-4.036,-0.2099896363817679,0.4047622170865988
-4.0355,-0.2206598112394408,0.3199891098453364
-4.035,-0.1886492866663929,-0.1462629799820306
-4.0345,-0.4233931335351975,-0.7608680074811828
-4.034,-0.7861790786966207,-1.163540266878104
-4.0335,-1.159635198715513,-1.301296566145281
-4.033,-1.042263275281111,-0.8986243067492845
-4.0325,-0.6794773301195226,-0.2946159176539891
-4.032,-0.3807124341046804,0.1292496185523226
-4.0315,-0.1246282375205299,0.3941655786812676
-4.031,0.02475421048731816,0.468342047517613
-4.0305,0.08877525963335578,0.3941655786815084
-4.03,0.09944543449102873,0.2670059178196149
-4.0295,0.08877525963334608,0.1186529801470203
-4.029,0.07810508477567314,-0.02969995752518888
-4.0285,0.0674349099179905,-0.1462629799820306
-4.028,0.06743490991802932,-0.2416327256285761
-4.0275,0.1101156093487211,-0.2840192792492073
-4.027,0.5796033030867573,0.09745970333682032
-4.0265,1.145122570543423,0.372972301870923
-4.026,1.123782220828572,-0.2734226408440398
-4.0255,0.8997085488172365,-0.5171453241628908
-4.025,0.7609962756674884,0.002089957689841104
-4.0245,0.5796033030865924,0.4259554938970878
-4.024,0.3982103305061524,0.5107286011383502
-4.0235,0.2274875327833854,0.3411823866558255
-4.023,0.07810508477563433,0.09745970333672394
-4.0225,0.03542438534494258,-0.008506680714854012
-4.022,0.0140840356295967,-0.01910331912001181
-4.0215,-0.1779791118087976,-0.1462629799820114
-4.021,-0.274010685527854,-0.1250697031716958
-4.0205,-0.2313299860971235,0.05507314971615059
-4.02,-0.1352984123779118,0.2881991946299979
-4.0195,-0.06060718837420119,0.4683420475176805
-4.019,-0.06060718837420119,0.5001319627331828
-4.0185,0.1848068333522763,0.5319218779486562
-4.018,0.4408910299368829,0.08686306493165288
-4.0175,0.1207857842064037,-0.6866915386455698
-4.017,-0.5727755815423372,-1.343683119765353
-4.0165,-0.8608703027002537,-1.333086481360301
-4.016,-0.7008176798351597,-0.8032545611024114
-4.0155,-0.4340633083933363,-0.2522293640342061
-4.015,-0.188649286666257,0.1504428953628599
-4.0145,-0.03926683865883591,0.3729723018711736
-4.014,0.04609456020254758,0.4471487707072782
-4.0135,0.02475421048729875,0.3835689402763218
-4.013,0.0674349099179905,0.3623756634660061
-4.0125,0.0674349099179905,0.309392471440169
-4.012,0.05676473506030786,0.2458126410091162
-4.0115,0.05676473506030786,0.1928294489833272
-4.011,0.07810508477567314,0.1610395337678249
-4.0105,0.440891029936553,0.4047622170864542
-4.01,0.974399772821015,0.6590815388106942
-4.0095,0.974399772821015,0.08686306493165288
-4.009,0.7716664505252292,-0.231036087223081
-4.0085,0.6756348768057943,0.1716361721733297
-4.008,0.5582629533713921,0.5425185163538525
-4.0075,0.4088805053639709,0.5425185163538525
-4.007,0.2808384070715657,0.2881991946295739
-4.0065,0.1954770082101822,0.002089957690313421
-4.006,0.1101156093487211,-0.2310360872233701
-4.0055,0.0567647350601914,-0.2946159176544132
-4.005,-0.07127736323188383,-0.3370024712750445
-4.0045,-0.1459685872356623,-0.2416327256285375
-4.004,-0.1352984123779409,-0.01910331911979014
-4.0035,-0.09261771294724913,0.2352160026039969
-4.003,-0.04993701351651855,0.457745409112513
-4.0025,-0.07127736323186443,0.5531151547589332
-4.002,-0.4980843575391895,0.13984625695749
-4.0015,-1.052933450138687,-0.474758770542221
-4.001,-1.437059745014913,-0.9622041371794796
-4.0005,-1.799845690176365,-1.269506650929605
-4,-1.682473766741963,-1.078767159636765
-3.9995,-1.170305373573196,-0.4535654937318862
-3.999,-0.6367966306890638,0.1716361721729923
-3.9985,-0.2313299860971235,0.5743084315693548
-3.998,-0.007256314085787988,0.7438546460520338
-3.9975,0.09944543449103843,0.7332580076468663
-3.997,0.1207857842064037,0.6166949851900245
-3.9965,0.1101156093487211,0.4471487707073456
-3.996,0.04609456020262521,0.2140227257936621
-3.9955,0.04609456020262521,0.07626642652648545
-3.995,0.0674349099179905,-0.05089323433552374
-3.9945,0.0674349099179905,-0.1886495336027004
-3.994,0.2168173579255475,-0.1886495336027004
-3.9935,0.8356874996711408,0.2564092794143318
-3.993,1.177133095116985,0.1186529801471552
-3.9925,1.145122570543937,-0.3899856633008816
-3.992,1.017080472251745,-0.08268314955102604
-3.9915,0.8143471499557753,0.4683420475176805
-3.991,0.6116138276598051,0.6378882620003594
-3.9905,0.2594980573562781,0.3729723018711736
-3.99,-0.5407650569699201,-0.5277419625680583
-3.9895,-0.5514352318276028,-0.6549016234300674
-3.989,-0.5194247072545548,-0.6866915386455698
-3.9885,-0.391382608962363,-0.570128516188728
-3.988,-0.2846808603855366,-0.4535654937318862
-3.9875,-0.156638762093345,-0.2098428104130352
-3.987,-0.1032878878049318,0.002089957690313421
-3.9865,-0.04993701351651855,0.2034260873884947
-3.986,-0.01792648894347063,0.383568940276341
-3.9855,-0.156638762093345,0.1610395337678249
-3.985,-0.4020527838200457,-0.6654982618352349
-3.9845,-0.7755089038389382,-1.523825972653797
-3.984,-1.148965023857831,-2.043061254507001
-3.9835,-1.810515865034154,-2.318573853041354
-3.983,-1.895877263895616,-1.947691508860494
-3.9825,-1.373038695869166,-1.01518732920576
-3.982,-0.7648387289812555,-0.1568596183871981
-3.9815,-0.3060212101009019,0.3941655786815084
-3.981,-0.02859666380115328,0.6378882620003594
-3.9805,0.09944543449103843,0.6590815388106942
-3.98,0.1314559590640864,0.55311515475902
-3.9795,0.1207857842064037,0.383568940276341
-3.979,0.09944543449103843,0.2034260873884947
-3.9785,0.07810508477567314,0.03387987290581572
-3.978,0.07810508477567314,-0.1038764263613609
-3.9775,0.142126133921769,-0.1462629799820306
-3.977,0.6542945270905358,0.2140227257936621
-3.9765,1.006410297394063,0.13984625695749
-3.976,0.857027849386506,-0.6231117082145651
-3.9755,0.6863050516635838,-0.6866915386455698
-3.975,0.5902734779444399,-0.1568596183871981
-3.9745,0.4835717293676135,0.2034260873884947
-3.974,0.3768699807907871,0.2564092794143318
-3.9735,0.2488278824985954,0.1292496185523226
-3.973,0.1314559590640864,-0.04029659593035631
-3.9725,0.07810508477567314,-0.1568596183871981
-3.972,0.02475421048725994,-0.1780528951975329
-3.9715,-0.1779791118087102,-0.3158091944647096
-3.971,-0.274010685527854,-0.252229364033705
-3.9705,-0.2313299860971235,-0.01910331912002144
-3.97,-0.1352984123779797,0.2352160026039969
-3.9695,-0.1139580626626144,0.4047622170866759
-3.969,-0.1459685872356623,0.4471487707073456
-3.9685,-0.02859666380115328,0.1186529801471552
-3.968,-0.007256314085787988,-0.474758770542221
-3.9675,-0.4340633083930936,-0.9833974139902578
-3.967,-0.7861790786966207,-1.078767159636765
-3.9665,-0.7114878546928423,-0.570128516188728
-3.966,-0.4660738329661415,0.05507314971615059
-3.9655,-0.2206598112394408,0.5107286011383502
-3.965,-0.124628237520297,0.6696781772158616
-3.9645,0.02475421048725994,0.7544512844572011
-3.964,-0.1779791118087102,0.4259554938970107
-3.9635,-0.6794773301197943,-0.2416327256285375
-3.963,-0.5621054066852853,-0.3052125560595421
-3.9625,-0.4340633083930936,-0.326405832869877
-3.962,-0.2313299860971235,-0.2734226408440398
-3.9615,-0.007256314085787988,-0.1886495336027004
-3.961,0.08877525963335578,-0.2204394488182027
-3.9605,0.4622313796522482,0.03387987290581572
-3.96,1.038420821967111,0.3305857482505039
-3.9595,1.006410297394063,-0.4217755785163839
-3.959,0.7716664505250448,-1.01518732920576
-3.9585,0.6863050516635838,-0.474758770542221
-3.958,0.5902734779444399,0.1504428953626575
-3.9575,0.4408910299368829,0.3729723018711736
-3.957,0.2701682322139607,0.2987958330350016
-3.9565,0.1314559590640864,0.1504428953626575
-3.956,0.05676473506030786,0.04447651131098315
-3.9555,0.03542438534494258,-0.01910331912002144
-3.955,-0.02859666380115328,-0.1462629799820306
-3.9545,-0.124628237520297,-0.2310360872233701
-3.954,-0.124628237520297,-0.07208651114585861
-3.9535,-0.07127736323188383,0.1610395337678249
-3.953,-0.02859666380115328,0.383568940276341
-3.9525,0.00341386077189465,0.5001319627331828
-3.952,0.3448594562177392,0.1186529801471552
-3.9515,0.79300680024041,-0.6125150698093976
-3.951,0.4195506802215176,-1.237716735714276
-3.9505,-0.3060212101009019,-1.555615887869299
-3.95,-0.6047861061160158,-1.121153713257435
-3.9495,-0.5300948821122373,-0.3687923864905467
-3.949,-0.3273615598162672,0.2670059178194992
-3.9485,-0.1459685872356623,0.627291623595192
-3.948,-0.02859666380115328,0.7544512844572011
-3.9475,0.04609456020262521,0.7120647308365314
-3.947,0.0674349099179905,0.5743084315693548
-3.9465,0.0674349099179905,0.4047622170866759
-3.946,0.05676473506030786,0.2140227257936621
-3.9455,0.05676473506030786,0.04447651131098315
-3.945,0.05676473506030786,-0.1038764263613609
-3.9445,0.0674349099179905,-0.2204394488182027
-3.944,0.2594980573562781,-0.1356663415768632
-3.9435,0.857027849386506,0.3199891098453364
-3.943,0.9957401225363802,0.1080563417419877
-3.9425,0.8143471499557753,-0.4535654937318862
-3.942,0.6649647019482183,-0.2204394488182027
-3.9415,0.5796033030867573,0.3305857482505039
-3.941,0.4302208550792003,0.4789386859228479
-3.9405,0.2808384070716433,0.3729723018711736
-3.94,0.1527963087794516,0.1928294489833272
-3.9395,0.08877525963335578,0.02328323450064829
-3.939,0.04609456020262521,-0.06148987274069118
-3.9385,-0.09261771294724913,-0.2204394488182027
-3.938,-0.3593720843893152,-0.4323722169215513
-3.9375,-0.4340633083930936,-0.3370024712750445
-3.937,-0.3273615598162672,-0.02969995752518888
-3.9365,-0.1886492866663929,0.2776025562246667
-3.936,-0.09261771294724913,0.5107286011383502
-3.9355,-0.3593720843893152,0.3199891098453364
-3.935,-0.9355615267041777,-0.2734226408440398
-3.9345,-1.26633694729234,-0.8350444763179138
-3.934,-1.319687821580753,-1.068170521231597
-3.9335,-1.234326422719292,-0.9304142219644207
-3.933,-0.839529952985034,-0.3687923864905467
-3.9325,-0.4340633083930936,0.1716361721729923
-3.932,-0.1459685872356623,0.5213252395435176
-3.9315,0.01408403562957729,0.6590815388106942
-3.931,0.08877525963335578,0.6484849004055269
-3.9305,0.09944543449103843,0.5319218779486851
-3.93,0.03542438534494258,0.3199891098453364
-3.9295,0.05676473506030786,0.1928294489833272
-3.929,0.05676473506030786,0.04447651131098315
-3.9285,0.05676473506030786,-0.09327978795619347
-3.928,0.05676473506030786,-0.2098428104130352
-3.9275,0.142126133921769,-0.2310360872233701
-3.927,0.707645401378949,0.1822328105781598
-3.9265,1.187803269974668,0.2352160026039969
-3.926,1.102441871113207,-0.5065486857577234
-3.9255,0.7609962756673623,-0.7608680074817418
-3.925,0.5796033030867573,-0.1144730647665284
-3.9245,0.4302208550792003,0.4153588554918433
-3.924,0.2701682322139607,0.5743084315693548
-3.9235,0.1527963087794516,0.4471487707073456
-3.923,0.08877525963335578,0.2246193641988295
-3.9225,0.05676473506030786,0.05507314971615059
-3.922,0.01408403562957729,-0.04029659593035631
-3.9215,-0.4020527838200457,-0.4111789401112165
-3.921,-0.7648387289812555,-0.6337083466197325
-3.9205,-0.7114878546928423,-0.4111789401112165
-3.92,-0.4874141826815069,-0.01910331912002144
-3.9195,-0.2633405106701714,0.3199891098453364
-3.919,-0.2420001609548061,0.3517790250608387
-3.9185,-0.7328282044082075,-0.1568596183871981
-3.918,-1.351698346153801,-0.7608680074817418
-3.9175,-1.767835165603424,-1.280103289334946
-3.917,-1.714484291315011,-1.322489842955616
-3.9165,-1.244996597576974,-0.8138511995075789
-3.916,-0.7008176798351597,-0.1886495336027004
-3.9155,-0.274010685527854,0.2670059178194992
-3.915,-0.02859666380115328,0.4789386859228479
-3.9145,0.08877525963335578,0.5213252395435176
-3.914,0.1207857842064037,0.4365521323021782
-3.9135,0.1101156093487211,0.2987958330350016
-3.913,0.0674349099179905,0.1080563417419877
-3.9125,0.03542438534494258,-0.02969995752518888
-3.912,0.0674349099179905,-0.1250697031716958
-3.9115,0.0674349099179905,-0.2310360872233701
-3.911,0.09944543449103843,-0.2840192792492073
-3.9105,0.5262524287983441,0.04447651131098315
-3.91,0.942389248247967,0.1610395337678249
-3.9095,0.9210488985326017,-0.4641621321370536
-3.909,0.8890383739595538,-0.6443049850249
-3.9085,0.8463576745288233,0.03387987290581572
-3.908,0.7396559259519968,0.6908714540261965
-3.9075,0.5049120790829789,0.8286277532933731
-3.907,0.2808384070716433,0.6696781772158616
-3.9065,0.142126133921769,0.4047622170866759
-3.906,0.0674349099179905,0.2034260873884947
-3.9055,0.03542438534494258,0.1292496185523226
-3.905,-0.1139580626626144,0.04447651131098315
-3.9045,-0.2633405106701714,0.002089957690313421
-3.904,-0.2953510352432193,0.06566978812131802
-3.9035,-0.156638762093345,0.2987958330350016
-3.903,-0.07127736323188383,0.4683420475176805
-3.9025,-0.07127736323188383,0.5107286011383502
-3.902,-0.4020527838200457,0.05507314971615059
-3.9015,-0.9569018764195432,-0.6125150698093976
-3.901,-1.298347471865388,-1.0999604364471
-3.9005,-1.447729919872945,-1.322489842955616
-3.9,-1.30901764672307,-1.121153713257435
-3.8995,-0.8928808272734472,-0.5383386009732256
-3.899,-0.4340633083930936,0.02328323450064829
-3.8985,-0.1352984123779797,0.3623756634660061
-3.898,0.03542438534494258,0.4895353243280153
-3.8975,0.09944543449103843,0.457745409112513
-3.897,0.1101156093487211,0.3623756634660061
-3.8965,0.09944543449103843,0.2140227257936621
-3.896,0.07810508477567314,0.06566978812131802
-3.8955,0.0674349099179905,-0.06148987274069118
-3.895,0.01408403562957729,-0.1992461720078678
-3.8945,0.07810508477567314,-0.2310360872233701
-3.894,0.3982103305061524,-0.008506680714854012
-3.8935,0.9850699476786977,0.3729723018711736
-3.893,1.027750647109428,-0.04029659593035631
-3.8925,0.6756348768059011,-0.6972881770507372
-3.892,0.3661998059331045,-0.6019184314042303
-3.8915,0.3341892813600565,0.1080563417419877
-3.891,0.2274875327832301,0.4153588554918433
-3.8905,0.2168173579255475,0.4895353243280153
-3.89,0.142126133921769,0.3305857482505039
-3.8895,0.09944543449103843,0.1504428953626575
-3.889,0.0674349099179905,0.05507314971615059
