Class_1_Relax_eyes_closed/Class_1_Relax_Eyes_closed_Turki_12.csv

#Digilent WaveForms Oscilloscope Acquisition
#Device Name: EExplorer
#Serial Number: SN:210151A2B84A
#Date Time: 2021-01-31 11:15:16.356
#Sample rate: 2000Hz
#Samples: 16384
#Trigger: Source: Channel 1 Type: Edge Condition: Rising Level: 0 V Hyst.: Auto HoldOff: 0 s
#Channel 1: Range: 1 V/div Offset: 0 V Attenuation: 1 X
#Channel 2: Range: 1 V/div Offset: 0 V Attenuation: 1 X
#Power Supplies: ON
#Fixed Supply: ON
#Voltage: 3.3 V Readback: 3.324 V
#Positive Supply: ON
#Voltage: 3.7 V Readback: 3.715 V
#Current: 40 mA Readback: 18 mA
#Negative Supply: ON
#Voltage: -3.7 V Readback: -3.345 V
#Current: -40 mA Readback: -6 mA
#Reference 1: ON
#Voltage: 0 V
#Reference 2: ON
#Voltage: 0 V

Time (s),Channel 1 (V),Channel 2 (V)
-4.096,0.1101156093487211,0.3941655786815084
-4.0955,-0.1566387620931023,0.6908714540259266
-4.095,-0.8181896032701248,0.6272916235944691
-4.0945,-1.319687821580753,-0.1674562567923655
-4.094,-1.437059745015155,-1.036380606015305
-4.0935,-1.084943974711298,-1.682775548731279
-4.093,-0.6047861061160158,-1.650985633515806
-4.0925,-0.2206598112397902,-1.046977244421812
-4.092,0.01408403562968404,-0.4323722169211369
-4.0915,0.1314559590640864,0.02328323450064829
-4.091,0.1634664836371343,0.2776025562246667
-4.0905,0.1634664836371149,0.3941655786815181
-4.09,0.142126133921769,0.4047622170866759
-4.0895,0.1314559590640864,0.383568940276341
-4.089,0.1207857842064134,0.3623756634660254
-4.0885,0.1314559590640864,0.3517790250608387
-4.088,0.1527963087794516,0.3729723018711736
-4.0875,0.1421261339217787,0.5213252395433827
-4.087,-0.3700422592473278,0.7650479228618963
-4.0865,-0.7328282044082075,0.2458126410091644
-4.086,-0.9355615267039933,-0.5171453241621971
-4.0855,-0.6261264558306825,-0.6972881770505637
-4.085,0.142126133921769,-0.5065486857577234
-4.0845,0.825017324812837,-0.209842810413305
-4.084,1.219813794547784,0.06566978812152041
-4.0835,1.294505018551494,0.2881991946298341
-4.083,1.081101521397841,0.4365521323021782
-4.0825,0.7503261008094272,0.5319218779487044
-4.082,0.4729015545099309,0.55311515475902
-4.0815,0.3555296310754218,0.4471487707073456
-4.081,0.2701682322140383,0.5319218779486079
-4.0805,0.1954770082101822,0.6484849004055269
-4.08,0.142126133921769,0.7332580076468663
-4.0795,0.1207857842064231,0.7544512844571818
-4.079,-0.220659811240091,0.7756445612676709
-4.0785,-0.9355615267041777,0.92399749893988
-4.078,-1.469070269587825,0.2776025562252545
-4.0775,-1.725154466172654,-0.5065486857582149
-4.077,-1.682473766741963,-1.046977244421262
-4.0765,-1.159635198715989,-0.9939940523954734
-4.076,-0.6047861061156373,-0.6443049850245915
-4.0755,-0.1886492866663929,-0.3052125560595421
-4.075,0.04609456020262521,-0.08268314955102604
-4.0745,0.1527963087794807,0.03387987290584463
-4.074,0.1848068333524996,0.06566978812131802
-4.0735,0.1741366584948169,0.05507314971615059
-4.073,0.152796308779471,0.033879872905835
-4.0725,0.1314559590640864,0.01268659609548085
-4.072,0.1314559590640864,0.03387987290581572
-4.0715,0.1527963087794322,0.09745970333676249
-4.071,0.1421261339213614,0.1716361721730116
-4.0705,-0.3060212101009019,0.1928294489833272
-4.07,-0.8502001278422218,-0.2840192792487736
-4.0695,-1.13829484900007,-0.9833974139905951
-4.069,-1.052933450138687,-1.354279758171118
-4.0685,-0.1459685872356623,-1.004590690800593
-4.068,0.7716664505255688,-0.4323722169210983
-4.0675,1.347855892839907,0.06566978812131802
-4.067,1.539919040278195,0.3941655786815084
-4.0665,1.411876941985673,0.5849050699746089
-4.066,1.049090996824793,0.6802748156210291
-4.0655,0.6649647019482183,0.6802748156210291
-4.065,0.4942419042254514,0.7014680924313447
-4.0645,0.3982103305061524,0.7544512844572011
-4.064,0.2808384070716433,0.7332580076468663
-4.0635,0.1954770082102598,0.6802748156210773
-4.063,0.1527963087793061,0.61669498518988
-4.0625,-0.007256314085787988,0.457745409112513
-4.062,-0.6581369804038371,0.4365521323021974
-4.0615,-1.244996597577236,-0.07208651114649468
-4.061,-1.533091318734406,-0.7714646458869092
-4.0605,-1.703814116457328,-1.237716735714276
-4.06,-1.351698346153306,-1.290699927739737
-4.0595,-0.807519428411986,-0.8774310299385835
-4.059,-0.3380317346739499,-0.4217755785163839
-4.0585,-0.03926683865910763,-0.09327978795649222
-4.058,0.1207857842064037,0.08686306493165288
-4.0575,0.1741366584948169,0.1504428953626575
-4.057,0.1741366584948169,0.1504428953626575
-4.0565,0.1634664836371343,0.1186529801471552
-4.056,0.142126133921769,0.09745970333682032
-4.0555,0.142126133921769,0.07626642652650473
-4.055,0.1421261339217787,0.09745970333684922
-4.0545,0.1527963087794516,0.1292496185523226
-4.054,0.1101156093487599,0.1822328105781116
-4.0535,-0.4447334832511159,-0.2204394488188387
-4.053,-0.8181896032696687,-0.9198175835592532
-4.0525,-0.9569018764195432,-1.38606967338662
-4.052,-0.3807124341039429,-1.152943628472426
-4.0515,0.4302208550792003,-0.5913217929990628
-4.051,1.049090996824793,-0.08268314955102604
-4.0505,1.337185717981963,0.2670059178191813
-4.05,1.305175193409177,0.4895353243280153
-4.0495,1.027750647109428,0.5849050699745222
-4.049,0.6756348768062213,0.6166949851899957
-4.0485,0.4729015545098726,0.5743084315692681
-4.048,0.408880505363835,0.4789386859228479
-4.0475,0.3128489316447786,0.4895353243280057
-4.047,0.2274875327831913,0.5319218779487332
-4.0465,0.1848068333524996,0.5849050699745222
-4.046,0.1314559590641349,0.6166949851899957
-4.0455,-0.4233931335359156,0.6166949851897739
-4.045,-0.9782422261349084,0.3411823866556712
-4.0445,-1.223656247861609,-0.4323722169215513
-4.044,-1.490410619303549,-0.8986243067490436
-4.0435,-1.351698346153801,-1.036380606016095
-4.043,-0.8822106524157645,-0.7608680074817418
-4.0425,-0.4127229586781553,-0.3899856633012189
-4.042,-0.09261771294724913,-0.1038764263613609
-4.0415,0.08877525963335578,0.06566978812131802
-4.041,0.1527963087793934,0.1504428953625804
-4.0405,0.1741366584948072,0.1716361721729827
-4.04,0.1634664836371343,0.1610395337678249
-4.0395,0.1421261339217884,0.1504428953626671
-4.039,0.1314559590640766,0.1610395337678346
-4.0385,0.1207857842064037,0.1716361721729923
-4.038,0.1421261339217496,0.2246193641987813
-4.0375,0.1101156093482747,0.2987958330351365
-4.037,-0.3807124341046804,0.4471487707073456
-4.0365,-0.7755089038389382,-0.02969995752518888
-4.036,-1.020922925565377,-0.7926579226975331
-4.0355,-0.7328282044082075,-1.110557074852267
-4.035,0.1101156093487211,-0.7714646458869092
-4.0345,0.8463576745281537,-0.2734226408444928
-4.034,1.283834843693812,0.1610395337678249
-4.0335,1.390536592270638,0.4471487707073456
-4.033,1.177133095117179,0.6166949851898703
-4.0325,0.8250173248131863,0.7226613692417374
-4.032,0.5262524287983441,0.7650479228623686
-4.0315,0.4302208550792876,0.6484849004056329
-4.031,0.3341892813599692,0.574308431569326
-4.0305,0.2381577076409128,0.5425185163538525
-4.03,0.1741366584948751,0.5425185163538525
-4.0295,0.1207857842060932,0.542518516354026
-4.029,-0.2206598112394408,0.7332580076468663
-4.0285,-0.9462317015618604,0.8286277532933731
-4.028,-1.533091318734716,0.1186529801463263
-4.0275,-1.87453691418025,-0.792657922697244
-4.027,-1.522421143876723,-1.439052865412457
-4.0265,-0.9142211769893656,-1.354279758171195
-4.026,-0.4020527838200457,-0.8562377531282487
-4.0255,-0.07127736323188383,-0.3581957480853793
-4.025,0.1101156093485561,-0.008506680715172021
-4.0245,0.1848068333524996,0.1822328105782272
-4.024,0.1848068333524996,0.2564092794143318
-4.0235,0.1634664836371537,0.2564092794143318
-4.023,0.1421261339217593,0.2246193641988199
-4.0225,0.1314559590640864,0.2140227257936621
-4.022,0.1314559590640864,0.2034260873885043
-4.0215,0.1421261339218272,0.2352160026040933
-4.021,0.2061471830678648,0.3411823866556712
-4.0205,-0.06060718837420119,0.4789386859228479
-4.02,-0.5300948821123829,0.00208995768960024
-4.0195,-0.690147504977477,-0.7820612842920766
-4.019,-0.6261264558313813,-1.280103289334946
-4.0185,0.04609456020201386,-1.046977244421474
-4.018,0.7609962756673623,-0.5595318777835605
-4.0175,1.241154144263081,-0.06148987274069118
-4.017,1.422547116843521,0.3093924714398316
-4.0165,1.294505018551183,0.5319218779487814
-4.016,0.9530594231056497,0.6378882620003594
-4.0155,0.6116138276601156,0.6908714540261484
-4.015,0.4302208550791033,0.6696781772158423
-4.0145,0.3235191065023739,0.6484849004055269
-4.014,0.2274875327833175,0.6272916235952113
-4.0135,0.1634664836371149,0.5849050699744933
-4.013,0.142126133921769,0.55311515475902
-4.0125,-0.06060718837420119,0.4789386859228479
-4.012,-0.732828204408848,0.6060983467844426
-4.0115,-1.437059745015262,0.1504428953626575
-4.011,-1.746494815888059,-0.6760949002404023
-4.0105,-1.554431668449946,-1.386069673385975
-4.01,-0.9995825758502737,-1.449649503817625
-4.0095,-0.4767440078238243,-0.9939940523954253
-4.009,-0.1139580626629443,-0.4959520473530089
-4.0085,0.07810508477575077,-0.1356663415766801
-4.008,0.1634664836371343,0.06566978812131802
-4.0075,0.1848068333524802,0.1504428953625804
-4.007,0.1634664836371149,0.1504428953626382
-4.0065,0.142126133921769,0.1292496185523226
-4.006,0.1314559590640864,0.1080563417419877
-4.0055,0.1314559590640961,0.108056341742007
-4.005,0.142126133921769,0.1292496185523226
-4.0045,0.1741366584948169,0.2034260873884947
-4.004,0.003413860771380313,0.3835689402761772
-4.0035,-0.5621054066852853,0.2034260873884947
-4.003,-0.839529952985034,-0.5277419625680583
-4.0025,-0.9569018764194364,-1.057573882825948
-4.002,-0.4127229586777283,-0.9304142219644207
-4.0015,0.3768699807907871,-0.5065486857577234
-4.001,0.9957401225358173,-0.04029659593078033
-4.0005,1.305175193409158,0.3093924714403521
-4,1.283834843693812,0.5107286011383502
-3.9995,1.017080472251745,0.627291623595192
-3.999,0.6756348768059011,0.6590815388106942
-3.9985,0.4408910299368829,0.5743084315693548
-3.998,0.3235191065023739,0.4683420475176805
-3.9975,0.2274875327832301,0.4895353243280153
-3.997,0.1741366584948169,0.55311515475902
-3.9965,0.1527963087794516,0.5849050699745222
-3.996,0.09944543449103843,0.6166949851900245
-3.9955,-0.3166913849585846,0.9028042221295453
-3.995,-0.9675720512772257,0.6590815388106942
-3.9945,-1.202315898146244,-0.2204394488182027
-3.994,-1.373038695869166,-1.05757388282643
-3.9935,-1.212986073003927,-1.523825972653797
-3.993,-0.7755089038389382,-1.280103289334946
-3.9925,-0.3593720843893152,-0.7608680074817418
-3.992,-0.07127736323188383,-0.2946159176543747
-3.9915,0.08877525963335578,0.002089957690313421
-3.991,0.1527963087794516,0.1504428953626575
-3.9905,0.1634664836371343,0.1928294489833272
-3.99,0.1527963087794516,0.1928294489833272
-3.9895,0.142126133921769,0.1716361721729923
-3.989,0.1207857842064037,0.1504428953626575
-3.9885,0.1314559590640864,0.1610395337678249
-3.988,0.1527963087794516,0.2140227257936621
-3.9875,0.2061471830678648,0.309392471440169
-3.987,-0.04993701351651855,0.3411823866556712
-3.9865,-0.391382608962363,-0.2946159176543747
-3.986,-0.5407650569699201,-0.9516074987747555
-3.9855,-0.2633405106701714,-1.004590690800593
-3.985,0.3341892813600565,-0.6443049850249
-3.9845,0.857027849386506,-0.2098428104130352
-3.984,1.145122570543937,0.1186529801471552
-3.9835,1.177133095116985,0.3411823866556712
-3.983,0.9530594231056497,0.4895353243280153
-3.9825,0.6436243522328531,0.5849050699745222
-3.982,0.3768699807907871,0.5849050699745222
-3.9815,0.07810508477567314,0.3941655786815084
-3.981,-0.03926683865883591,0.3941655786815084
-3.9805,-0.03926683865883591,0.5213252395435176
-3.98,0.01408403562957729,0.6378882620003594
-3.9795,0.0674349099179905,0.6908714540261965
-3.979,-0.1352984123779797,0.849821030103708
-3.9785,-0.7114878546928423,1.00877060618122
-3.978,-1.244996597576974,0.2987958330350016
-3.9775,-1.586442193022819,-0.5489352393783931
-3.977,-1.607782542738184,-1.078767159636765
-3.9765,-1.127624674142465,-0.9939940523954253
-3.976,-0.6047861061160158,-0.6337083466197325
-3.9755,-0.1993194615240755,-0.2946159176543747
-3.975,0.03542438534494258,-0.06148987274069118
-3.9745,0.142126133921769,0.05507314971615059
-3.974,0.1741366584948169,0.08686306493165288
-3.9735,0.1741366584948169,0.07626642652648545
-3.973,0.1527963087794516,0.05507314971615059
-3.9725,0.1314559590640864,0.04447651131098315
-3.972,0.1207857842064037,0.04447651131098315
-3.9715,0.1314559590640864,0.08686306493165288
-3.971,0.1527963087794516,0.1610395337678249
-3.9705,-0.1352984123779797,0.4365521323021782
-3.97,-0.6367966306890638,0.2564092794143318
-3.9695,-0.8502001278427167,-0.4853554089473885
-3.969,-0.572775581542968,-0.8668343915334161
-3.9685,0.1314559590640864,-0.6443049850249
-3.968,0.79300680024041,-0.252229364033705
-3.9675,1.209143619690033,0.1080563417419877
-3.967,1.315845368266859,0.3729723018711736
-3.9665,1.15579274540162,0.5425185163538525
-3.966,0.825017324813458,0.6378882620003594
-3.9655,0.5262524287983441,0.6908714540261965
-3.965,0.408880505363835,0.5001319627331828
-3.9645,0.3341892813600565,0.4365521323021782
-3.964,0.2594980573562781,0.5319218779486851
-3.9635,0.2061471830678648,0.6484849004055269
-3.963,0.1634664836371343,0.701468092431364
-3.9625,0.05676473506030786,0.8180311148882058
-3.962,-0.4767440078238243,1.178316820663898
-3.9615,-1.170305373573196,0.7862411996727035
-3.961,-1.586442193022819,-0.1992461720078678
-3.9605,-1.735824641030376,-1.089363798041932
-3.96,-1.277007122150022,-1.34368311976595
-3.9595,-0.7114878546928423,-1.01518732920576
-3.959,-0.274010685527854,-0.570128516188728
-3.9585,0.00341386077189465,-0.2204394488182027
-3.958,0.142126133921769,-0.01910331912002144
-3.9575,0.1741366584948169,0.07626642652648545
-3.957,0.1741366584948169,0.08686306493165288
-3.9565,0.1527963087794516,0.06566978812131802
-3.956,0.142126133921769,0.05507314971615059
-3.9555,0.1314559590640864,0.04447651131098315
-3.955,0.1314559590640864,0.06566978812131802
-3.9545,0.1741366584948169,0.1186529801471552
-3.954,0.2061471830678648,0.309392471440169
-3.9535,-0.1673089369510276,0.1716361721729923
-3.953,-0.5087545323968721,-0.5383386009732256
-3.9525,-0.807519428411986,-0.9833974139902578
-3.952,-0.423393133535411,-0.7820612842920766
-3.9515,0.3235191065023739,-0.3899856633008816
-3.951,0.942389248247967,0.02328323450064829
-3.9505,1.273164668836129,0.309392471440169
-3.95,1.273164668836129,0.4789386859228479
-3.9495,1.006410297394063,0.6060983467848571
-3.949,0.6649647019482183,0.6908714540261965
-3.9485,0.4515612047945656,0.6590815388106942
-3.948,0.3768699807907871,0.5319218779486851
-3.9475,0.3021787567870086,0.55311515475902
-3.947,0.2168173579255475,0.6060983467848571
-3.9465,0.1741366584948169,0.6484849004055269
-3.946,0.07810508477567314,0.627291623595192
-3.9455,-0.4767440078238243,0.5955017083796896
-3.945,-1.212986073003927,0.3729723018711736
-3.9445,-1.853196564464885,-0.4111789401112165
-3.944,-2.269333383914508,-1.163540266878104
-3.9435,-1.693143941599645,-1.269506650929778
-3.943,-0.9782422261349084,-0.8774310299385835
-3.9425,-0.4127229586777283,-0.4323722169215513
-3.942,-0.04993701351651855,-0.1038764263613609
-3.9415,0.1314559590640864,0.07626642652648545
-3.941,0.1954770082101822,0.1504428953626575
-3.9405,0.1954770082101822,0.13984625695749
-3.94,0.1741366584948169,0.1080563417419877
-3.9395,0.142126133921769,0.07626642652648545
-3.939,0.1314559590640864,0.05507314971615059
-3.9385,0.142126133921769,0.07626642652648545
-3.938,0.1634664836371343,0.1292496185523226
-3.9375,0.142126133921769,0.2140227257936621
-3.937,-0.3593720843893152,0.3941655786815084
-3.9365,-0.9248913518464952,-0.09327978795619347
-3.936,-1.26633694729234,-0.8456411147230812
-3.9355,-0.9462317015618604,-1.163540266878104
-3.935,-0.03926683865883591,-0.8244478379127463
-3.9345,0.7823366253827275,-0.3158091944647096
-3.934,1.262494493978446,0.1080563417419877
-3.9335,1.379866417412955,0.4047622170866759
-3.933,1.187803269974668,0.55311515475902
-3.9325,0.8356874996711408,0.6590815388106942
-3.932,0.5369226036560266,0.6696781772158616
-3.9315,0.4729015545099309,0.775644561267536
-3.931,0.3982103305061524,0.849821030103708
-3.9305,0.3021787567870086,0.7968378380778709
-3.93,0.2168173579255475,0.6908714540261965
-3.9295,0.1527963087794516,0.5637117931641874
-3.929,-0.124628237520297,0.383568940276341
-3.9285,-0.690147504977477,0.2987958330350016
-3.928,-1.170305373573196,-0.3581957480853793
-3.9275,-1.234326422719292,-1.131750351662602
-3.927,-0.9355615267041777,-1.746355379162313
-3.9265,-0.5194247072545548,-1.703968825541643
-3.926,-0.1886492866663929,-1.089363798041932
-3.9255,0.02475421048725994,-0.4959520473525559
-3.925,0.1314559590640864,-0.08268314955102604
-3.9245,0.1634664836371343,0.1504428953626575
-3.924,0.1634664836371343,0.2246193641988295
-3.9235,0.1527963087794516,0.2246193641988295
-3.923,0.1314559590640864,0.1822328105781598
-3.9225,0.1314559590640864,0.1504428953626575
-3.922,0.1314559590640864,0.1186529801471552
-3.9215,0.1314559590640864,0.1186529801471552
-3.921,0.1527963087794516,0.1504428953626575
-3.9205,-0.2633405106701714,-0.1144730647665284
-3.92,-0.8181896032696687,-0.6549016234300674
-3.9195,-1.1062843244271,-1.280103289334946
-3.919,-1.010252750707956,-1.534422611058964
-3.9185,-0.06060718837420119,-1.152943628472937
-3.918,0.8783681991018712,-0.5595318777835605
-3.9175,1.443887466559051,-0.05089323433552374
-3.917,1.635950613997339,0.309392471440169
-3.9165,1.497238340847464,0.4895353243280153
-3.916,1.134452395686255,0.5637117931641874
-3.9155,0.7289857510943143,0.5743084315693548
-3.915,0.5475927785137094,0.4047622170866759
-3.9145,0.4622313796522482,0.2670059178194992
-3.914,0.3448594562177392,0.2987958330350016
-3.9135,0.2594980573562781,0.3729723018711736
-3.913,0.1954770082101822,0.4259554938970107
-3.9125,0.1101156093487211,0.5001319627331828
-3.912,-0.1352984123779797,0.775644561267536
-3.9115,-0.722158029550525,0.3305857482505039
-3.911,-1.298347471865388,-0.5489352393783931
-3.9105,-1.629122892453549,-1.311893204550448
-3.91,-1.30901764672307,-1.545019249464132
-3.9095,-0.7861790786966207,-1.142346990067769
-3.909,-0.3273615598162672,-0.6231117082145651
-3.9085,-0.03926683865883591,-0.2204394488182027
-3.908,0.1207857842064037,0.01268659609548085
-3.9075,0.1741366584948169,0.1186529801471552
-3.907,0.1741366584948169,0.13984625695749
-3.9065,0.1527963087794516,0.1186529801471552
-3.906,0.142126133921769,0.09745970333682032
-3.9055,0.1207857842064037,0.07626642652648545
-3.905,0.1207857842064037,0.09745970333682032
-3.9045,0.142126133921769,0.1504428953626575
-3.904,0.04609456020262521,0.4047622170866759
-3.9035,-0.4980843575391895,0.5213252395435176
-3.903,-0.8288597781273515,-0.1356663415768632
-3.9025,-0.9569018764195432,-0.8880276683437509
-3.902,-0.4020527838200457,-0.9728007755850904
-3.9015,0.4408910299368829,-0.5807251545938954
-3.901,1.091771696255524,-0.1038764263613609
-3.9005,1.411876941986003,0.2352160026039969
-3.9,1.411876941986003,0.4259554938970107
-3.8995,1.134452395686255,0.55311515475902
-3.899,0.7503261008096795,0.627291623595192
-3.8985,0.5262524287983441,0.6590815388106942
-3.898,0.4835717293676135,0.7226613692416989
-3.8975,0.3768699807907871,0.7332580076468663
-3.897,0.2594980573562781,0.7120647308365314
-3.8965,0.1741366584948169,0.7544512844572011
-3.896,0.07810508477567314,0.7120647308365314
-3.8955,-0.4447334832507763,0.5955017083796896
-3.895,-1.212986073003927,0.3517790250608387
-3.8945,-1.714484291315011,-0.4217755785163839
-3.894,-2.013249187330125,-1.0999604364471
-3.8935,-1.607782542738184,-1.396666311791788
-3.893,-0.9569018764195432,-1.0999604364471
-3.8925,-0.423393133535411,-0.6337083466197325
-3.892,-0.07127736323188383,-0.252229364033705
-3.8915,0.1101156093487211,-0.01910331912002144
-3.891,0.1848068333524996,0.08686306493165288
-3.8905,0.1848068333524996,0.1080563417419877
-3.89,0.1634664836371343,0.09745970333682032
-3.8895,0.142126133921769,0.07626642652648545
-3.889,0.142126133921769,0.07626642652648545
-3.8885,0.142126133921769,0.1080563417419877
-3.888,0.1634664836371343,0.1610395337678249
-3.8875,0.1848068333524996,0.3305857482505039
-3.887,-0.2526703358124887,0.6378882620003594
-3.8865,-0.6794773301197943,0.1928294489833272
