Class_1_Relax_eyes_closed/Class_1_Relax_Eyes_closed_Turki_10.csv

#Digilent WaveForms Oscilloscope Acquisition
#Device Name: EExplorer
#Serial Number: SN:210151A2B84A
#Date Time: 2020-12-21 15:23:34.461
#Sample rate: 2000Hz
#Samples: 16384
#Trigger: Source: Channel 1 Type: Edge Condition: Rising Level: 0 V Hyst.: Auto HoldOff: 0 s
#Channel 1: Range: 1 V/div Offset: 0 V
#Channel 2: Range: 1 V/div Offset: 0 V

Time (s),Channel 1 (V),Channel 2 (V)
-4.0960000000000001,0.6863050516635838,0.30939247144016896
-4.0955000000000004,-0.028596663800503075,-0.35819574808477211
-4.0949999999999998,-0.87154047755824693,-0.9516074987747748
-4.0945,-1.0529334501386869,-0.97280077558509037
-4.0940000000000003,-0.679477330120134,-0.31580919446530709
-4.0934999999999997,-0.20998963638141852,0.45774540911309131
-4.093,0.16346648363713429,1.0935437134225592
-4.0925000000000002,0.38754015564826594,1.5174092496288707
-4.0919999999999996,0.49424190422532521,1.7505352945430268
-4.0914999999999999,0.52625242879834411,1.8459050401894466
-4.0910000000000002,0.51558225394066137,1.856501678594614
-4.0904999999999996,0.50491207908297886,1.8565016785945851
-4.0899999999999999,0.50491207908297886,1.8247117633791117
-4.0895000000000001,0.50491207908297886,1.7187453793274377
-4.0890000000000004,0.43022085507926827,1.4220395039830194
-4.0884999999999998,0.55826295337139209,1.241896651094903
-4.0880000000000001,0.12078578420640371,1.0193672445863871
-4.0875000000000004,-0.64746680554604774,0.06566978812218538
-4.0869999999999997,-1.148965023857617,-0.67609490024058538
-4.0865,-0.91422117698881245,-0.87743102993858346
-4.0860000000000003,-0.34870190953214686,-0.87743102993858346
-4.0854999999999997,0.19547700821050243,-0.86683439153348363
-4.085,0.54759277851370936,-0.94101086036958814
-4.0845000000000002,0.75032610080949513,-1.046977244421166
-4.0839999999999996,0.83568749967115041,-1.121153713257502
-4.0834999999999999,0.84635767452882327,-1.1953301820936066
-4.0830000000000002,0.77166645052504479,-1.1953301820936066
-4.0824999999999996,0.66496470194814072,-1.0257839676107252
-4.0819999999999999,0.57960330308675734,-0.80325456110241145
-4.0815000000000001,0.52625242879834411,-0.55953187778356051
-4.0810000000000004,0.50491207908299829,-0.31580919446493122
-4.0804999999999998,0.62228400251748783,0.25640927941433178
-4.0800000000000001,0.5689331282290746,0.84982103010370802
-4.0795000000000003,-0.11395806266199338,0.42595549389739623
-4.0789999999999997,-0.97824222613557799,-0.37938902489635984
-4.0785,-1.7144842913150107,-1.0893637980419322
-4.0780000000000003,-1.7251544661726834,-1.2801032893347724
-4.0774999999999997,-1.0956141495687963,-0.67609490023962171
-4.077,-0.41272295867772835,0.18223281057815977
-4.0765000000000002,0.088775259632899672,0.92399749893920535
-4.0759999999999996,0.37686998079091327,1.4220395039830001
-4.0754999999999999,0.51558225394066137,1.6975521025171028
-4.0750000000000002,0.54759277851370936,1.8141151249739442
-4.0744999999999996,0.52625242879832468,1.824711763379073
-4.0739999999999998,0.50491207908297886,1.7823252097584423
-4.0735000000000001,0.49424190422529612,1.7187453793274377
-4.0730000000000004,0.49424190422529612,1.6233756336810174
-4.0724999999999998,0.43022085507920033,1.4962159728189213
-4.0720000000000001,0.47290155450993088,1.6021823568705957
-4.0715000000000003,0.65429452709037084,1.8353084017840671
-4.0709999999999997,-0.049937013517246387,1.9200815090251369
-4.0705,-0.8502001278427167,1.3902495887672472
-4.0700000000000003,-1.2129860730035966,0.5849050699752546
-4.0694999999999997,-0.89288082727292317,-0.15685961838762214
-4.069,-0.31669138495858457,-0.62311170821456507
-4.0685000000000002,0.15279630877945163,-0.9092209451540858
-4.0679999999999996,0.48357172936777848,-1.1317503516627465
-4.0674999999999999,0.66496470194821833,-1.2906999277401132
-4.0670000000000002,0.75032610080967954,-1.3012965661452807
-4.0664999999999996,0.78233662538267901,-1.2483133741191832
-4.0659999999999998,0.72898575109431429,-0.96220413717992292
-4.0655000000000001,0.63295417737517057,-0.62311170821456507
-4.0650000000000004,0.55826295337146004,-0.30521255605983122
-4.0644999999999998,0.51558225394066137,0.0020899576903134209
-4.0640000000000001,0.4622313796522482,0.43655213230217815
-4.0635000000000003,0.56893312822897757,1.1359302670425926
-4.0629999999999997,0.37686998079012718,1.0617537982062086
-4.0625,-0.34870190953163249,0.12924961855232261
-4.0620000000000003,-1.2236562478608133,-0.79265792269640556
-4.0614999999999997,-1.7785053404608056,-1.3224898429553458
-4.0609999999999999,-1.4477299198729445,-1.0257839676109275
-4.0605000000000002,-0.77550890383893822,-0.1674562567923655
-4.0599999999999996,-0.16730893695065885,0.6802748156216073
-4.0594999999999999,0.23815770764091276,1.3160731199310751
-4.0590000000000002,0.44089102993688295,1.6869554641119353
-4.0585000000000004,0.5262524287982665,1.8565016785944599
-4.0579999999999998,0.53692260365602662,1.8882915938101164
-4.0575000000000001,0.51558225394066137,1.8353084017842791
-4.0570000000000004,0.49424190422531555,1.750535294543017
-4.0564999999999998,0.4835717293676135,1.6339722720860981
-4.056,0.40888050536383502,1.5915857184654283
-4.0555000000000003,0.20614718306804922,1.5597958032499548
-4.0549999999999997,-0.20998963638233073,1.5068126112232214
-4.0545,-0.83952995298503397,0.55311515475901996
-4.0540000000000003,-1.5010807941607562,-0.57012851618770644
-4.0534999999999997,-1.8638667393221697,-1.1741369052832813
-4.0529999999999999,-1.4263895701575793,-1.1847335436884392
-4.0525000000000002,-0.62612645583138127,-1.0363806060160949
-4.0519999999999996,0.078105084776061318,-0.96220413717997111
-4.0514999999999999,0.50491207908297886,-1.01518732920576
-4.0510000000000002,0.6863050516635838,-1.0469772444212624
-4.0505000000000004,0.73965592595194829,-1.068170521231578
-4.0499999999999998,0.51558225394066137,-1.1741369052832717
-4.0495000000000001,0.27016823221396069,-1.131750351662602
-4.0490000000000004,0.24882788249861479,-0.85623775312849926
-4.0484999999999998,0.3128489316447689,-0.53833860097296538
-4.048,0.3982103305061524,-0.25222936403370499
-4.0475000000000003,0.46223137965218997,0.04447651131071334
-4.0469999999999997,0.65429452709047764,0.66967817721610257
-4.0465,0.59027347794443985,0.93459413734504748
-4.0460000000000003,-0.081947538088955052,0.17163617217368621
-4.0454999999999997,-0.92489135184691251,-0.77146464588749708
-4.0449999999999999,-1.3837088707268488,-1.4178595886021226
-4.0445000000000002,-1.0956141495694174,-1.2589100125246109
-4.0439999999999996,-0.54076505696947363,-0.49595204735181386
-4.0434999999999999,-0.049937013516518552,0.31998910984533641
-4.0430000000000001,0.28083840707164331,0.94519077575021493
-4.0425000000000004,0.45156120479441031,1.3372663967410534
-4.0419999999999998,0.51558225394066137,1.5280058880344236
-4.0415000000000001,0.51558225394066137,1.5809890800602608
-4.0410000000000004,0.50491207908298852,1.5597958032499453
-4.0404999999999998,0.4835717293676135,1.517409249629208
-4.04,0.4835717293676135,1.4644260576034194
-4.0395000000000003,0.4835717293676135,1.3796529503621568
-4.0389999999999997,0.35552963107550911,1.2948798431209234
-4.0385,0.45156120479456557,1.4962159728189213
-4.0380000000000003,0.088775259633685766,1.2313000126899765
-4.0374999999999996,-0.54076505697030819,0.22461936419812595
-4.0369999999999999,-0.96757205127722568,-0.54893523937839306
-4.0365000000000002,-0.88221065241576446,-0.82444783791274634
-4.0359999999999996,-0.39138260896191662,-0.82444783791271747
-4.0354999999999999,0.099445434491038431,-0.792657922697244
-4.0350000000000001,0.3982103305061524,-0.80325456110241145
-4.0345000000000004,0.56893312822891939,-0.87743102993851596
-4.0339999999999998,0.66496470194821833,-0.97280077558509037
-4.0335000000000001,0.73965592595199681,-1.0575738828264298
-4.0330000000000004,0.87836819910174513,-1.15294362847285
-4.0324999999999998,0.82501732481335122,-0.96220413717963382
-4.032,0.70764540137894905,-0.64430498502489997
-4.0315000000000003,0.60094365280221962,-0.32640583287016611
-4.0309999999999997,0.5262524287982665,-0.019103319119529928
-4.0305,0.44089102993688295,0.52132523954351762
-4.0300000000000002,0.98506994767820277,1.2842832047148789
-4.0294999999999996,1.6252804391392581,1.9200815090256764
-4.0289999999999999,1.1878032699746677,1.9836613394566234
-4.0285000000000002,0.014084035629577295,0.9134008605347127
-4.0279999999999996,-0.75416855412353412,-0.11447306476662474
-4.0274999999999999,-0.71148785469284226,-0.22043944881820265
-4.0270000000000001,-0.35937208438931517,0.16103953376782493
-4.0265000000000004,0.0034138607715646918,0.64848490040508355
-4.0259999999999998,0.25949805735627807,1.0723504366122243
-4.0255000000000001,0.40888050536383502,1.3902495887672472
-4.0250000000000004,0.47290155450987265,1.5809890800600874
-4.0244999999999997,0.48357172936760379,1.6869554641119835
-4.024,0.47290155450993088,1.7399386561377725
-4.0235000000000003,0.47290155450993088,1.7505352945429304
-4.0229999999999997,0.47290155450995996,1.7187453793273799
-4.0225,0.50491207908297886,1.655165548896433
-4.0220000000000002,0.64362435223272696,1.771728571353169
-4.0214999999999996,0.27016823221329106,1.2948798431196704
-4.0209999999999999,-0.46607383296614152,0.11865298014715518
-4.0205000000000002,-1.0742737998540521,-0.70788481545590454
-4.0199999999999996,-1.1809755484304323,-0.95160749877470729
-4.0194999999999999,-0.69014750497747701,-0.89862430674891836
-4.0190000000000001,-0.10328788780493176,-0.81385119950757889
-4.0185000000000004,0.34485945621733161,-0.78206128429210542
-4.0179999999999998,0.6116138276598051,-0.86683439153341613
-4.0175000000000001,0.75032610080967954,-1.0045906908005926
-4.0170000000000003,0.75032610080967954,-1.0999604364470128
-4.0164999999999997,0.36619980593286183,-1.2801032893348976
-4.016,0.099445434491038431,-1.227120097309109
-4.0155000000000003,0.11011560934871137,-0.86683439153374375
-4.0149999999999997,0.21681735792565424,-0.44296885532638142
-4.0145,0.33418928136005654,-0.072086511145858609
-4.0140000000000002,0.23815770764100011,0.39416557868108437
-4.0134999999999996,0.046094560202081768,1.029963882991304
-4.0129999999999999,-0.55143523182760279,0.75445128445720111
-4.0125000000000002,-1.1809755484308786,-0.24163272562853755
-4.0119999999999996,-1.8211860398921478,-1.1635402668785959
-4.0114999999999998,-2.1626316353376818,-1.7039688255416432
-4.0110000000000001,-1.5971123678805015,-1.4390528654124575
-4.0105000000000004,-0.79684925355503133,-0.60191843140499168
-4.0099999999999998,-0.14596858723566233,0.23521600260399694
-4.0095000000000001,0.25949805735627807,0.84982103010370802
-4.0090000000000003,0.46223137965206385,1.2101067358790729
-4.0084999999999997,0.52625242879834411,1.3796529503621087
-4.008,0.52625242879834411,1.4114428655775821
-4.0075000000000003,0.50491207908299829,1.3902495887672666
-4.0069999999999997,0.48357172936760379,1.3372663967413425
-4.0065,0.47290155450993088,1.2630899279052379
-4.0060000000000002,0.4622313796522482,1.1995100974742332
-4.0054999999999996,0.14212613392101203,0.96638405256052096
-4.0049999999999999,-0.69014750497747701,0.93459413734504748
-4.0045000000000002,-1.4584000947306273,0.38356894027634103
-4.0039999999999996,-2.0025790124727041,-0.6231117082151626
-4.0034999999999998,-2.2906737336298733,-1.2801032893349458
-4.0030000000000001,-1.8211860398918371,-1.1953301820936066
-4.0025000000000004,-0.92489135184731031,-0.87743102993887256
-4.0019999999999998,-0.12462823752029703,-0.63370834661973252
-4.0015000000000001,0.3982103305061524,-0.54893523937839306
-4.0010000000000003,0.66496470194797563,-0.59132179299902432
-4.0004999999999997,0.79300680024049741,-0.64430498502503486
-4,0.88903837395955376,-0.792657922697244
-3.9994999999999998,0.88903837395955376,-0.9092209451540858
-3.9990000000000001,0.78233662538272752,-0.82444783791274634
-3.9984999999999999,0.65429452709053582,-0.64430498502489997
-3.9980000000000002,0.55826295337139209,-0.42177557851638392
-3.9975000000000001,0.47290155450993088,-0.15685961838719809
-3.9969999999999999,0.16346648363713429,0.38356894027634103
-3.9965000000000002,-0.20998963638175816,1.1359302670432285
-3.996,-0.70081767983515975,1.0829470750173917
-3.9954999999999998,-1.1703053735731959,0.15044289536265748
-3.9950000000000001,-1.67180359188428,-0.84564111472308123
-3.9944999999999999,-1.4797404444459925,-1.131750351662602
-3.9940000000000002,-0.8502001278427167,-0.61251506980939763
-3.9935,-0.24200016095480609,0.12924961855232261
-3.9929999999999999,0.17413665849481691,0.76504792286236856
-3.9925000000000002,0.40888050536383502,1.2207033742845681
-3.992,0.50491207908297886,1.4856193344137538
-3.9914999999999998,0.52625242879834411,1.6127789952757632
-3.9910000000000001,0.50491207908297886,1.6657621873016004
-3.9904999999999999,0.49424190422529612,1.6763588257067679
-3.9900000000000002,0.4835717293676135,1.6657621873016004
-3.9895,0.47290155450993088,1.5915857184654283
-3.9889999999999999,0.28083840707164331,1.4538294191982519
-3.9885000000000002,-0.42339313353541097,1.5386025264395911
-3.988,-0.97824222613490841,0.93459413734504748
-3.9874999999999998,-1.4904106193036752,-0.2310360872233701
-3.9870000000000001,-1.8958772638956156,-1.0787671596367647
-3.9864999999999999,-1.67180359188428,-1.1741369052832717
-3.9860000000000002,-0.88221065241576446,-1.0363806060160949
-3.9855,-0.10328788780493176,-0.89862430674891836
-3.9849999999999999,0.45156120479456557,-0.76086800748174177
-3.9845000000000002,0.72898575109431429,-0.73967473067140688
-3.984,0.80367697509809277,-0.84564111472308123
-3.9834999999999998,0.76099627566736228,-1.0681705212315973
-3.9830000000000001,0.66496470194821833,-1.2589100125246109
-3.9824999999999999,0.5689331282290746,-1.1211537132574345
-3.9820000000000002,0.51558225394066137,-0.83504447631791379
-3.9815,0.4835717293676135,-0.51714532416289083
-3.9809999999999999,0.4835717293676135,-0.20984281041303524
-3.9805000000000001,0.71831557623663156,0.33058574825050385
-3.98,0.8997085488172365,1.0299638829915545
-3.9794999999999998,0.13145595906408636,0.83922439169854057
-3.9790000000000001,-0.86087030270039921,-0.082683149551026042
-3.9784999999999999,-1.7038141164573279,-0.98339741399025782
-3.9780000000000002,-1.9385579633263461,-1.3648763965762853
-3.9775,-1.3196878215807528,-0.86683439153341613
-3.9769999999999999,-0.59411593125833329,-0.019103319120021445
-3.9765000000000001,-0.017926488943470625,0.73325800764686633
-3.976,0.32351910650237387,1.2630899279052379
-3.9754999999999998,0.4835717293676135,1.5703924416550934
-3.9750000000000001,0.53692260365602662,1.6975521025171028
-3.9744999999999999,0.52625242879834411,1.7187453793274377
-3.9740000000000002,0.50491207908297886,1.6869554641119353
-3.9735,0.4835717293676135,1.6233756336809306
-3.9729999999999999,0.4835717293676135,1.5280058880344236
-3.9725000000000001,0.41955068022151765,1.4538294191982519
-3.972,0.099445434491038431,1.6339722720860981
-3.9714999999999998,-0.39138260896236304,1.5386025264395911
-3.9710000000000001,-0.90355100213112993,0.46834204751768049
-3.9704999999999999,-1.522421143876723,-0.73967473067140688
-3.9700000000000002,-1.618452717595867,-1.2695066509297783
-3.9695,-0.98891240099259115,-1.2165234589039415
-3.9689999999999999,-0.23132998609712346,-1.0045906908005926
-3.9685000000000001,0.35552963107542179,-0.88802766834375091
-3.968,0.66496470194821833,-0.89862430674891836
-3.9674999999999998,0.75032610080967954,-0.96220413717992292
-3.9670000000000001,0.73965592595199681,-1.0469772444212624
-3.9664999999999999,0.60094365280212259,-1.1635402668781043
-3.9660000000000002,0.49424190422529612,-1.0787671596367647
-3.9655,0.45156120479456557,-0.86683439153341613
-3.9649999999999999,0.44089102993688295,-0.63370834661973252
-3.9645000000000001,0.4622313796522482,-0.42177557851638392
-3.964,0.36619980593310447,-0.082683149551026042
-3.9634999999999998,0.15279630877945163,0.62729162359519197
-3.9630000000000001,-0.25267033581248871,0.60609834678485708
-3.9624999999999999,-0.91422117698881245,-0.24163272562853755
-3.9620000000000002,-1.586442193022819,-1.0893637980419322
-3.9615,-1.8958772638956156,-1.5556158878692994
-3.9609999999999999,-1.373038695869166,-1.1635402668781043
-3.9605000000000001,-0.65813698040442903,-0.30521255605954212
-3.96,-0.071277363231883828,0.52132523954351762
-3.9594999999999998,0.29150858192932599,1.1147369902328941
-3.9590000000000001,0.47290155450993088,1.4644260576034194
-3.9584999999999999,0.53692260365602662,1.6339722720860981
-3.9580000000000002,0.52625242879834411,1.6657621873016004
-3.9575,0.50491207908297886,1.6445689104912655
-3.9569999999999999,0.49424190422529612,1.6233756336809306
-3.9565000000000001,0.49424190422529612,1.5703924416550934
-3.956,0.47290155450993088,1.432636142387917
-3.9554999999999998,0.44089102993688295,1.3690563119569124
-3.9550000000000001,0.69697522652126631,1.6233756336809306
-3.9544999999999999,0.4835717293676135,1.3054764815259077
-3.9540000000000002,-0.0072563140857879876,0.27760255622466667
-3.9535,-0.14596858723566233,-0.4641621321370536
-3.9529999999999998,0.05676473506030786,-0.81385119950757889
-3.9525000000000001,0.30217875678700862,-1.0681705212315973
-3.952,0.51558225394066137,-1.1529436284729369
-3.9514999999999998,0.64362435223285308,-1.0999604364470996
-3.9510000000000001,0.70764540137894905,-0.98339741399025782
-3.9504999999999999,0.72898575109431429,-0.9304142219644207
-3.9500000000000002,0.77166645052504479,-1.1105570748522671
-3.9495,0.65429452709053582,-1.2059268204987741
-3.9489999999999998,0.55826295337139209,-0.9304142219644207
-3.9485000000000001,0.50491207908297886,-0.53833860097322561
-3.948,0.4835717293676135,-0.14626297998203064
-3.9474999999999998,0.41955068022151765,0.23521600260399694
-3.9470000000000001,0.20614718306786484,0.78624119967270345
-3.9464999999999999,0.078105084775673142,1.0617537982070568
-3.9460000000000002,-0.44473348325077627,0.31998910984533641
-3.9455,-1.0529334501386869,-0.51714532416289083
-3.9449999999999998,-1.6504632421689147,-1.2059268204987741
-3.9445000000000001,-1.6077825427381842,-1.2695066509297783
-3.944,-0.98891240099259115,-0.61251506980939763
-3.9434999999999998,-0.34870190953163249,0.17163617217299235
-3.9430000000000001,0.11011560934872107,0.7968378380778709
-3.9424999999999999,0.3768699807907871,1.1783168206638983
-3.9420000000000002,0.49424190422529612,1.3690563119569124
-3.9415,0.51558225394066137,1.4114428655775821
-3.9409999999999998,0.50491207908297886,1.3902495887672472
-3.9405000000000001,0.4835717293676135,1.3266697583362426
-3.9399999999999999,0.4835717293676135,1.2630899279052379
-3.9394999999999998,0.44089102993688295,1.146526905448396
-3.9390000000000001,0.21681735792554749,0.83922439169854057
-3.9384999999999999,-0.20998963638175816,0.16103953376782493
-3.9380000000000002,-0.83952995298503397,-0.78206128429207655
-3.9375,-1.0636036249963696,-1.5450192494641319
-3.9369999999999998,-0.78617907869662074,-1.5768091646796343
-3.9365000000000001,-0.27401068552785401,-1.2377167357142764
-3.9359999999999999,0.19547700821018218,-0.96220413717992292
-3.9355000000000002,0.54759277851370936,-0.83504447631791379
-3.9350000000000001,0.72898575109431429,-0.83504447631791379
-3.9344999999999999,0.77166645052504479,-0.94101086036958814
-3.9340000000000002,0.73965592595199681,-1.0575738828264298
-3.9335,0.67563487680590106,-1.1741369052832717
-3.9329999999999998,0.60094365280212259,-1.2059268204987741
-3.9325000000000001,0.53692260365602662,-1.0257839676109275
-3.9319999999999999,0.49424190422529612,-0.75027136907657432
-3.9315000000000002,0.4835717293676135,-0.4535654937318862
-3.931,0.47290155450993088,-0.1674562567923655
-3.9304999999999999,0.67563487680590106,0.37297230187117358
-3.9300000000000002,0.80367697509809277,1.1147369902328941
-3.9295,0.035424385344942577,1.0511571598018894
-3.9289999999999998,-0.92489135184649518,0.086863064931652884
-3.9285000000000001,-1.618452717595867,-0.88802766834375091
-3.9279999999999999,-1.5330913187344057,-1.4496495038176249
-3.9275000000000002,-0.92489135184649518,-1.3118932045504481
