Class_1_Relax_eyes_closed/Class_1_Relax_eyes_closed_Basim_8.csv

#Digilent WaveForms Oscilloscope Acquisition
#Device Name: EExplorer
#Serial Number: SN:210151A2B84A
#Date Time: 2020-12-16 09:14:30.157
#Sample rate: 2000Hz
#Samples: 16384
#Trigger: Source: Channel 1 Type: Edge Condition: Rising Level: 0 V Hyst.: Auto HoldOff: 0 s
#Channel 1: Range: 1 V/div Offset: 0 V Attenuation: 1 X
#Channel 2: Range: 1 V/div Offset: 0 V Attenuation: 1 X
#Power Supplies: ON
#Fixed Supply: ON
#Voltage: 3.3 V Readback: 3.321 V
#Positive Supply: ON
#Voltage: 3.7 V Readback: 3.711 V
#Current: 40 mA Readback: 20 mA
#Negative Supply: ON
#Voltage: -3.7 V Readback: -3.354 V
#Current: -40 mA Readback: -8 mA
#Reference 1: ON
#Voltage: 0 V
#Reference 2: ON
#Voltage: 0 V

Time (s),Channel 1 (V),Channel 2 (V)
-4.096,-0.5194247072545548,-0.3475991096802118
-4.0955,-1.020922925565183,0.4153588554911494
-4.095,-1.212986073003936,1.019367244586667
-4.0945,-1.223656247861609,1.326669758336243
-4.094,-0.8502001278430564,1.082947075017613
-4.0935,-0.4020527838197255,0.4895353243275142
-4.093,-0.04993701351651855,-0.06148987274069118
-4.0925,0.1634664836369402,-0.3581957480851095
-4.092,0.2594980573563072,-0.4323722169214549
-4.0915,0.291508581929326,-0.326405832869877
-4.091,0.291508581929326,-0.1144730647665284
-4.0905,0.2701682322139413,0.1186529801473672
-4.09,0.2488278824985954,0.3517790250608387
-4.0895,0.2381577076409128,0.5743084315693548
-4.089,0.2381577076409128,0.7438546460518796
-4.0885,0.2381577076409128,0.8816109453192104
-4.088,0.04609456020262521,0.7120647308365314
-4.0875,-0.2740106855275629,0.08686306493222151
-4.087,-0.4660738329662871,-0.5595318777838593
-4.0865,-0.6261264558313813,-0.8880276683437509
-4.086,-0.3700422592472307,-0.6337083466199638
-4.0855,0.1101156093490219,-0.1886495336024016
-4.085,0.4408910299368829,0.13984625695749
-4.0845,0.5689331282289581,0.2776025562245414
-4.084,0.5475927785136318,0.2352160026038331
-4.0835,0.4622313796522482,0.05507314971615059
-4.083,0.3768699807907871,-0.1568596183871981
-4.0825,0.3555296310754121,-0.326405832870012
-4.082,0.3448594562177392,-0.474758770542221
-4.0815,0.3128489316446912,-0.6337083466197325
-4.081,0.2808384070716724,-0.7820612842919417
-4.0805,0.2488278824985954,-0.9198175835592532
-4.08,0.2061471830678648,-1.004590690800593
-4.0795,-0.2633405106697444,-0.6019184314045964
-4.079,-0.9355615267044203,0.1398462569580972
-4.0785,-1.202315898146244,0.8074344764830383
-4.078,-1.244996597576935,1.23130001268935
-4.0775,-0.9355615267037701,1.135930267042727
-4.077,-0.4874141826815069,0.5849050699745222
-4.0765,-0.1032878878052811,0.002089957690843414
-4.076,0.1314559590641931,-0.3687923864906528
-4.0755,0.2488278824985954,-0.4853554089473885
-4.075,0.291508581929326,-0.4111789401112165
-4.0745,0.2915085819293066,-0.2310360872231581
-4.074,0.2701682322139607,0.002089957690313421
-4.0735,0.2594980573562781,0.2458126410091644
-4.073,0.2488278824986051,0.4683420475174781
-4.0725,0.2381577076409128,0.6590815388106942
-4.072,0.2274875327832301,0.8180311148882058
-4.0715,0.1634664836371925,0.8180311148882058
-4.071,-0.2420001609551069,0.2881991946292366
-4.0705,-0.572775581542968,-0.3687923864905467
-4.07,-0.7648387289810807,-0.8562377531278054
-4.0695,-0.6474668055462516,-0.7184814538606672
-4.069,-0.1032878878049318,-0.2734226408440398
-4.0685,0.3661998059331045,0.1080563417419877
-4.068,0.600943652802142,0.3093924714401882
-4.0675,0.6222840025174878,0.3305857482505039
-4.067,0.5475927785137094,0.2034260873884947
-4.0665,0.4515612047945073,0.002089957690168857
-4.066,0.3875401556484697,-0.1568596183871981
-4.0655,0.3875401556484697,-0.252229364033705
-4.065,0.344859456217778,-0.4535654937317031
-4.0645,0.3021787567870086,-0.6760949002404023
-4.064,0.2594980573562781,-0.8668343915334161
-4.0635,0.2381577076409322,-1.004590690800467
-4.063,-0.02859666380178407,-0.7926579226965886
-4.0625,-0.722158029550525,-0.07208651114585861
-4.062,-1.127624674142097,0.6590815388100292
-4.0615,-1.223656247861463,1.188913459069153
-4.061,-1.06360362499637,1.284283204715573
-4.0605,-0.6367966306890638,0.8180311148882058
-4.06,-0.2206598112391788,0.2034260873881092
-4.0595,0.0674349099179905,-0.2204394488182027
-4.059,0.2168173579255475,-0.4111789401112165
-4.0585,0.2808384070715851,-0.3899856633009008
-4.058,0.291508581929326,-0.2310360872233701
-4.0575,0.2808384070716433,-0.01910331912002144
-4.057,0.2594980573562975,0.2140227257934501
-4.0565,0.2488278824985954,0.4365521323021782
-4.056,0.2381577076409128,0.6378882620003594
-4.0555,0.2381577076409128,0.7968378380777263
-4.055,0.216817357925334,0.8816109453188923
-4.0545,-0.01792648894347063,0.5319218779486851
-4.054,-0.4127229586773693,-0.1462629799814138
-4.0535,-0.6367966306890929,-0.7608680074819056
-4.053,-0.6688071552621118,-0.9410108603695881
-4.0525,-0.1993194615240755,-0.5913217929990628
-4.052,0.291508581929588,-0.1462629799817704
-4.0515,0.5796033030867573,0.13984625695749
-4.051,0.6436243522328531,0.2034260873884947
-4.0505,0.5689331282291425,0.1186529801472323
-4.05,0.4729015545099309,-0.06148987274069118
-4.0495,0.3875401556484697,-0.2098428104130352
-4.049,0.3875401556484697,-0.2946159176542976
-4.0485,0.3768699807907483,-0.4641621321372271
-4.048,0.3341892813600565,-0.6549016234300674
-4.0475,0.2808384070716918,-0.8350444763177499
-4.047,0.2594980573561713,-0.9728007755850807
-4.0465,0.142126133921769,-0.9622041371799229
-4.046,-0.4447334832502425,-0.3793890248962442
-4.0455,-0.9889124009927561,0.3729723018717229
-4.045,-1.170305373573196,0.9769806909657173
-4.0445,-1.138294849000148,1.263089927905238
-4.044,-0.7541685541231848,0.998173967775522
-4.0435,-0.3273615598162672,0.4153588554918433
-4.043,-0.007256314085787988,-0.1038764263613609
-4.0425,0.1848068333523249,-0.3687923864903058
-4.042,0.2701682322139607,-0.4111789401112165
-4.0415,0.291508581929326,-0.2946159176543747
-4.041,0.280838407071653,-0.0826831495512188
-4.0405,0.2594980573562684,0.161039533768037
-4.04,0.2488278824985954,0.3941655786815084
-4.0395,0.2381577076409225,0.6060983467846643
-4.039,0.2381577076409128,0.7862411996728191
-4.0385,0.2381577076409128,0.9134008605347127
-4.038,0.1101156093488375,0.7544512844573457
-4.0375,-0.1352984123781544,0.1292496185517347
-4.037,-0.3273615598162672,-0.5171453241628908
-4.0365,-0.4874141826815069,-0.8986243067489184
-4.036,-0.2420001609544082,-0.6654982618348012
-4.0355,0.1954770082101822,-0.1886495336027004
-4.035,0.4835717293676135,0.1716361721729923
-4.0345,0.57960330308667,0.3199891098452015
-4.034,0.5475927785137094,0.2564092794143318
-4.0335,0.4729015545099309,0.1080563417419877
-4.033,0.3982103305062203,-0.08268314955085257
-4.0325,0.3875401556484891,-0.2946159176545867
-4.032,0.408880505363835,-0.5277419625680583
-4.0315,0.3555296310754703,-0.7502713690763719
-4.031,0.3021787567869795,-0.9198175835593881
-4.0305,0.2701682322139607,-1.068170521231597
-4.03,0.216817357925596,-1.131750351662544
-4.0295,-0.2313299860977445,-0.7184814538603684
-4.029,-0.9142211769888124,0.05507314971615059
-4.0285,-1.191645723288561,0.7438546460520338
-4.028,-1.244996597576703,1.188913459068969
-4.0275,-0.9462317015618604,1.082947075017392
-4.027,-0.4874141826815069,0.5319218779486851
-4.0265,-0.1139580626629541,-0.01910331911952035
-4.026,0.1314559590640864,-0.3581957480853793
-4.0255,0.2488278824985954,-0.4535654937318862
-4.025,0.2915085819292872,-0.3581957480854661
-4.0245,0.2808384070716336,-0.1674562567921438
-4.024,0.2701682322139607,0.07626642652648545
-4.0235,0.2594980573562878,0.3199891098451147
-4.023,0.2381577076409128,0.5531151547591935
-4.0225,0.2381577076409128,0.7438546460520338
-4.022,0.2381577076409128,0.9028042221294007
-4.0215,0.1848068333522861,0.9028042221290923
-4.021,-0.04993701351651855,0.4047622170866759
-4.0205,-0.3060212101009019,-0.2734226408440398
-4.02,-0.5194247072544869,-0.8032545611023633
-4.0195,-0.4447334832507763,-0.7502713690765743
-4.019,0.00341386077189465,-0.3052125560595421
-4.0185,0.3768699807904474,0.0974597033364541
-4.018,0.5475927785137094,0.2881991946298341
-4.0175,0.5582629533713921,0.2881991946298341
-4.017,0.4942419042253544,0.1292496185524672
-4.0165,0.4088805053638059,-0.09327978795638622
-4.016,0.3768699807907871,-0.3052125560595421
-4.0155,0.4195506802214788,-0.5913217929988026
-4.015,0.3982103305061039,-0.7926579226973692
-4.0145,0.3448594562177392,-0.9304142219644207
-4.014,0.2915085819293745,-1.036380606015999
-4.0135,0.2488278824983819,-1.12115371325728
-4.013,0.01408403562957729,-0.9516074987747555
-4.0125,-0.6794773301197943,-0.252229364033705
-4.012,-1.15963519871561,0.4895353243285165
-4.0115,-1.26633694729234,1.040560521396722
-4.011,-1.074273799854052,1.199510097474233
-4.0105,-0.6261264558317888,0.8286277532937105
-4.01,-0.2206598112394408,0.2352160026039969
-4.0095,0.0674349099179905,-0.2204394488182027
-4.009,0.2168173579254116,-0.4429688553265164
-4.0085,0.280838407071653,-0.4323722169214068
-4.008,0.291508581929326,-0.2734226408440398
-4.0075,0.280838407071653,-0.05089323433572612
-4.007,0.2594980573562684,0.2034260873887163
-4.0065,0.2488278824985954,0.4471487707073456
-4.006,0.2381577076409128,0.6696781772158616
-4.0055,0.238157707640903,0.849821030103814
-4.005,0.2274875327832301,0.9663840525605498
-4.0045,0.03542438534494258,0.7120647308365314
-4.004,-0.3166913849588078,0.05507314971557233
-4.0035,-0.5621054066852853,-0.5807251545938954
-4.003,-0.6688071552621118,-0.7714646458869092
-4.0025,-0.2633405106705402,-0.4323722169218597
-4.002,0.2274875327832301,-0.02969995752518888
-4.0015,0.5262524287983441,0.2352160026039969
-4.001,0.6116138276597275,0.2776025562246281
-4.0005,0.5689331282289872,0.1504428953624551
-4,0.4729015545099309,-0.07208651114585861
-3.9995,0.3875401556484697,-0.2628260024388724
-3.999,0.3768699807907871,-0.4429688553267188
-3.9985,0.3661998059331045,-0.6337083466197325
-3.998,0.3235191065023739,-0.792657922697244
-3.9975,0.2808384070716433,-0.9092209451540858
-3.997,0.2488278824985954,-1.004590690800593
-3.9965,0.142126133921769,-0.9728007755850904
-3.996,-0.4447334832507763,-0.400582301706049
-3.9955,-0.9569018764195432,0.3517790250608387
-3.995,-1.159635198715513,0.9557874141553824
-3.9945,-1.159635198715513,1.273686566310405
-3.994,-0.7968492535543035,1.051157159801889
-3.9935,-0.3593720843893152,0.4789386859228479
-3.993,-0.02859666380115328,-0.06148987274069118
-3.9925,0.1634664836371343,-0.3581957480853793
-3.992,0.2594980573562781,-0.4217755785163839
-3.9915,0.2808384070716433,-0.3158091944647096
-3.991,0.2808384070716433,-0.1038764263613609
-3.9905,0.2594980573562781,0.13984625695749
-3.99,0.2488278824985954,0.3729723018711736
-3.9895,0.2381577076409128,0.5955017083796896
-3.989,0.2381577076409128,0.775644561267536
-3.9885,0.2274875327832301,0.9134008605347127
-3.988,0.1207857842064037,0.7862411996727035
-3.9875,-0.2633405106701714,0.1822328105781598
-3.987,-0.572775581542968,-0.4853554089473885
-3.9865,-0.7648387289812555,-0.8668343915334161
-3.986,-0.4767440078238243,-0.7078848154559045
-3.9855,0.09944543449103843,-0.3052125560595421
-3.985,0.5155822539406614,0.04447651131098315
-3.9845,0.6649647019482183,0.2034260873884947
-3.984,0.6329541773751706,0.1822328105781598
-3.9835,0.5262524287983441,0.02328323450064829
-3.983,0.4195506802215176,-0.1674562567923655
-3.9825,0.3768699807907871,-0.3475991096802118
-3.982,0.3768699807907871,-0.5277419625680583
-3.9815,0.3341892813600565,-0.7078848154559045
-3.981,0.291508581929326,-0.8456411147230812
-3.9805,0.2488278824985954,-0.9622041371799229
-3.98,0.2168173579255475,-1.01518732920576
-3.9795,-0.2099896363817582,-0.6125150698093976
-3.979,-0.8822106524157645,0.1504428953626575
-3.9785,-1.170305373573196,0.849821030103708
-3.978,-1.234326422719292,1.316073119931075
-3.9775,-0.9782422261349084,1.29487984312074
-3.977,-0.5300948821122373,0.7862411996727035
-3.9765,-0.1459685872356623,0.1928294489833272
-3.976,0.1101156093487211,-0.2098428104130352
-3.9755,0.2381577076409128,-0.3581957480853793
-3.975,0.2808384070716433,-0.3158091944647096
-3.9745,0.2808384070716433,-0.1462629799820306
-3.974,0.2701682322139607,0.06566978812131802
-3.9735,0.2594980573562781,0.2987958330350016
-3.973,0.2381577076409128,0.5107286011383502
-3.9725,0.2274875327832301,0.6908714540261965
-3.972,0.2274875327832301,0.8286277532933731
-3.9715,0.1527963087794516,0.8392243916985406
-3.971,-0.2313299860971235,0.3305857482505039
-3.9705,-0.572775581542968,-0.3581957480853793
-3.97,-0.754168554123573,-0.8880276683437509
-3.9695,-0.6474668055467465,-0.8880276683437509
-3.969,-0.1139580626626144,-0.5171453241628908
-3.9685,0.3448594562177392,-0.1144730647665284
-3.968,0.5796033030867573,0.1186529801471552
-3.9675,0.6116138276598051,0.1610395337678249
-3.967,0.5262524287983441,0.05507314971615059
-3.9665,0.4302208550792003,-0.1462629799820306
-3.966,0.3555296310754218,-0.326405832869877
-3.9655,0.3768699807907871,-0.5277419625680583
-3.965,0.3448594562177392,-0.6866915386455698
-3.9645,0.3021787567870086,-0.8032545611024114
-3.964,0.2701682322139607,-0.8986243067489184
-3.9635,0.2488278824985954,-0.9622041371799229
-3.963,0.04609456020262521,-0.7608680074817418
-3.9625,-0.6047861061160158,-0.04029659593035631
-3.962,-1.031593100423322,0.701468092431364
-3.9615,-1.191645723288561,1.25249328950007
-3.961,-1.138294849000148,1.443232780793084
-3.9605,-0.7434983792658902,1.082947075017392
-3.96,-0.3060212101009019,0.457745409112513
-3.9595,0.00341386077189465,-0.05089323433552374
-3.959,0.1848068333524996,-0.3052125560595421
-3.9585,0.2701682322139607,-0.3475991096802118
-3.958,0.2808384070716433,-0.2416327256285375
-3.9575,0.2808384070716433,-0.05089323433552374
-3.957,0.2594980573562781,0.1716361721729923
-3.9565,0.2488278824985954,0.383568940276341
-3.956,0.2381577076409128,0.5637117931641874
-3.9555,0.2274875327832301,0.7226613692416989
-3.955,0.2168173579255475,0.8180311148882058
-3.9545,0.0674349099179905,0.5107286011383502
-3.954,-0.1779791118087102,-0.1674562567923655
-3.9535,-0.4020527838200457,-0.792657922697244
-3.953,-0.6047861061160158,-0.9939940523954253
-3.9525,-0.3166913849585846,-0.6549016234300674
-3.952,0.1314559590640864,-0.2204394488182027
-3.9515,0.4195506802215176,0.09745970333682032
-3.951,0.5262524287983441,0.1928294489833272
-3.9505,0.5049120790829789,0.1080563417419877
-3.95,0.4408910299368829,-0.06148987274069118
-3.9495,0.3661998059331045,-0.2310360872233701
-3.949,0.3768699807907871,-0.4217755785163839
-3.9485,0.3768699807907871,-0.5807251545938954
-3.948,0.3341892813600565,-0.7078848154559045
-3.9475,0.291508581929326,-0.8138511995075789
-3.947,0.2488278824985954,-0.9092209451540858
-3.9465,0.1634664836371343,-0.9198175835592532
-3.946,-0.4127229586777283,-0.400582301706049
-3.9455,-0.9889124009925911,0.3623756634660061
-3.945,-1.180975548430879,0.9981739677760521
-3.9445,-1.159635198715513,1.347863035146577
-3.944,-0.7968492535543035,1.167720182258731
-3.9435,-0.3593720843893152,0.6060983467848571
-3.943,-0.02859666380115328,0.05507314971615059
-3.9425,0.1741366584948169,-0.2840192792492073
-3.942,0.2594980573562781,-0.3793890248957141
-3.9415,0.2808384070716433,-0.3052125560595421
-3.941,0.2808384070716433,-0.1250697031716958
-3.9405,0.2594980573562781,0.09745970333682032
-3.94,0.2488278824985954,0.3199891098453364
-3.9395,0.2381577076409128,0.5319218779486851
-3.939,0.2274875327832301,0.701468092431364
-3.9385,0.2274875327832301,0.8286277532933731
-3.938,0.05676473506030786,0.7226613692416989
-3.9375,-0.3273615598162672,0.1186529801471552
-3.937,-0.5194247072545548,-0.5489352393783931
-3.9365,-0.6474668055467465,-0.9410108603695881
-3.936,-0.4127229586777283,-0.7290780922662394
-3.9355,0.05676473506030786,-0.3052125560595421
-3.935,0.3982103305061524,0.03387987290581572
-3.9345,0.5369226036560266,0.1822328105781598
-3.934,0.5262524287983441,0.1928294489833272
-3.9335,0.4515612047945656,0.08686306493165288
-3.933,0.3768699807907871,-0.1144730647665284
-3.9325,0.3448594562177392,-0.2628260024388724
-3.932,0.3555296310754218,-0.474758770542221
-3.9315,0.3235191065023739,-0.6972881770507372
-3.931,0.291508581929326,-0.8774310299385835
-3.9305,0.2594980573562781,-1.01518732920576
-3.93,0.2274875327832301,-1.089363798041932
-3.9295,-0.156638762093345,-0.718481453861072
-3.929,-0.7861790786966207,0.06566978812131802
-3.9285,-1.138294849000148,0.8074344764830383
-3.928,-1.277007122150022,1.316073119931075
-3.9275,-1.020922925565639,1.369056311956912
-3.927,-0.5621054066852853,0.9134008605347127
-3.9265,-0.1673089369510276,0.3199891098453364
-3.926,0.09944543449103843,-0.08268314955102604
-3.9255,0.2274875327832301,-0.252229364033705
-3.925,0.2808384070716433,-0.2204394488182027
-3.9245,0.2808384070716433,-0.06148987274069118
-3.924,0.2701682322139607,0.1504428953626575
-3.9235,0.2594980573562781,0.3729723018711736
-3.923,0.2381577076409128,0.5743084315693548
-3.9225,0.2381577076409128,0.7438546460520338
-3.922,0.2274875327832301,0.8816109453192104
-3.9215,0.1634664836371343,0.8816109453192104
-3.921,-0.1673089369510276,0.3729723018711736
-3.9205,-0.423393133535411,-0.3370024712750445
-3.92,-0.5941159312583333,-0.8986243067489184
-3.9195,-0.5834457564006506,-0.9410108603695881
-3.919,-0.1352984123779797,-0.5277419625680583
-3.9185,0.2808384070716433,-0.1144730647665284
-3.918,0.5049120790829789,0.13984625695749
-3.9175,0.5475927785137094,0.1610395337678249
-3.917,0.4942419042252961,0.02328323450064829
-3.9165,0.4195506802215176,-0.1886495336027004
-3.916,0.3555296310754218,-0.3687923864905467
-3.9155,0.3555296310754218,-0.6019184314042303
-3.915,0.3235191065023739,-0.8138511995075789
-3.9145,0.291508581929326,-0.9622041371799229
-3.914,0.2594980573562781,-1.078767159636765
-3.9135,0.2381577076409128,-1.184733543688439
-3.913,0.02475421048725994,-1.036380606016095
-3.9125,-0.6688071552621118,-0.3370024712750445
-3.912,-1.148965023857831,0.4365521323021782
-3.9115,-1.255666772434657,1.029963882991555
-3.911,-1.052933450138687,1.188913459069066
-3.9105,-0.6154562809736985,0.7862411996727035
-3.91,-0.2099896363817582,0.2246193641988295
-3.9095,0.0674349099179905,-0.1780528951975329
-3.909,0.2168173579255475,-0.3370024712750445
-3.9085,0.2808384070716433,-0.2946159176543747
-3.908,0.291508581929326,-0.1144730647665284
-3.9075,0.2808384070716433,0.1292496185523226
-3.907,0.2594980573562781,0.3729723018711736
-3.9065,0.2381577076409128,0.6166949851900245
-3.906,0.2381577076409128,0.8180311148882058
-3.9055,0.2274875327832301,0.9769806909657173
-3.905,0.2168173579255475,1.072350436612224
-3.9045,0.04609456020262521,0.775644561267536
-3.904,-0.2420001609548061,0.08686306493165288
-3.9035,-0.4447334832507763,-0.570128516188728
-3.903,-0.5941159312583333,-0.9622041371799229
-3.9025,-0.2313299860971235,-0.792657922697244
-3.902,0.2381577076409128,-0.3581957480853793
-3.9015,0.5155822539406614,-0.008506680714854012
-3.901,0.5902734779444399,0.13984625695749
-3.9005,0.5475927785137094,0.06566978812131802
-3.9,0.4515612047945656,-0.1144730647665284
-3.8995,0.3661998059331045,-0.326405832869877
-3.899,0.3555296310754218,-0.474758770542221
-3.8985,0.3555296310754218,-0.6654982618352349
-3.898,0.3128489316446912,-0.8668343915334161
-3.8975,0.2808384070716433,-1.046977244421262
-3.897,0.2488278824985954,-1.184733543688439
-3.8965,0.1527963087794516,-1.174136905283272
-3.896,-0.4340633083930936,-0.6019184314042303
-3.8955,-0.9569018764195432,0.1822328105781598
-3.895,-1.127624674142465,0.8286277532933731
-3.8945,-1.159635198715513,1.188913459069066
-3.894,-0.8288597781273515,0.9769806909657173
-3.8935,-0.4020527838200457,0.4153588554918433
-3.893,-0.06060718837420119,-0.1038764263613609
-3.8925,0.1527963087794516,-0.3687923864905467
-3.892,0.2488278824985954,-0.400582301706049
-3.8915,0.2808384070716433,-0.2734226408440398
-3.891,0.2808384070716433,-0.04029659593035631
-3.8905,0.2594980573562781,0.2140227257936621
-3.89,0.2488278824985954,0.4683420475176805
-3.8895,0.2381577076409128,0.701468092431364
-3.889,0.2274875327832301,0.8922075837243778
-3.8885,0.2274875327832301,1.040560521396722
-3.888,0.1207857842064037,0.9557874141553824
-3.8875,-0.2420001609548061,0.3729723018711736
