Class_1_Relax_eyes_closed/Class_1_Relax_Eyes_closed_Turki_6.csv

#Digilent WaveForms Oscilloscope Acquisition
#Device Name: EExplorer
#Serial Number: SN:210151A2B84A
#Date Time: 2020-12-10 14:05:12.162
#Sample rate: 2000Hz
#Samples: 16384
#Trigger: Source: Channel 1 Type: Edge Condition: Rising Level: 0 V Hyst.: Auto HoldOff: 0 s
#Channel 1: Range: 1 V/div Offset: 0 V Attenuation: 1 X
#Channel 2: Range: 1 V/div Offset: 0 V Attenuation: 1 X
#Power Supplies: ON
#Fixed Supply: ON
#Voltage: 3.3 V Readback: 3.324 V
#Positive Supply: ON
#Voltage: 3.7 V Readback: 3.709 V
#Current: 40 mA Readback: 18 mA
#Negative Supply: ON
#Voltage: -3.7 V Readback: -3.893 V
#Current: -40 mA Readback: -5 mA
#Reference 1: ON
#Voltage: 0 V
#Reference 2: ON
#Voltage: 0 V

Time (s),Channel 1 (V),Channel 2 (V)
-4.096,0.6542945270905358,1.326669758336243
-4.0955,0.611613827659844,1.072350436612456
-4.095,0.7609962756671779,0.4153588554911976
-4.0945,0.5582629533713921,-0.2946159176543747
-4.094,-0.1886492866657136,-0.8456411147225801
-4.0935,-1.074273799854421,-1.121153713257348
-4.093,-1.479740444445993,-1.025783967610927
-4.0925,-1.116954499285113,-0.697288177051036
-4.092,-0.519424707254089,-0.3370024712747554
-4.0915,-0.007256314085787988,-0.01910331912002144
-4.091,0.3235191065023739,0.2140227257936621
-4.0905,0.4942419042253544,0.3835689402764374
-4.09,0.5582629533713921,0.4895353243280153
-4.0895,0.5582629533713921,0.5319218779486851
-4.089,0.536922603656046,0.5213252395435273
-4.0885,0.5262524287983441,0.457745409112513
-4.088,0.4195506802215176,0.2776025562246667
-4.0875,0.515582253940574,0.2776025562246667
-4.087,0.2381577076401364,-0.07208651114665852
-4.0865,-0.6154562809736985,-0.9516074987747555
-4.086,-1.223656247861056,-1.407262950196541
-4.0855,-1.661133417026801,-1.587405803084541
-4.085,-1.885207089037933,-1.301296566145281
-4.0845,-1.287677297008249,-0.4535654937326573
-4.084,-0.4020527838194343,0.2776025562249944
-4.0835,0.2701682322139607,0.6378882620003594
-4.083,0.6756348768059011,0.701468092431364
-4.0825,0.8570278493865351,0.5637117931640235
-4.082,0.8890383739595538,0.383568940276341
-4.0815,0.8890383739595538,0.1504428953626575
-4.081,0.8783681991018809,0.1398462569574997
-4.0805,0.8463576745288233,0.4471487707073456
-4.08,0.7716664505250448,0.7968378380778709
-4.0795,0.6863050516636614,0.9769806909655534
-4.079,0.643624352233154,1.040560521396365
-4.0785,0.974399772821015,0.6484849004055269
-4.078,1.177133095116801,-0.07208651114520326
-4.0775,0.3875401556475866,-0.7078848154562322
-4.077,-0.5834457564006506,-1.068170521231597
-4.0765,-0.9248913518461847,-1.068170521231597
-4.076,-0.6688071552617236,-0.8032545611020838
-4.0755,-0.2420001609548061,-0.4429688553267188
-4.075,0.1207857842064037,-0.1250697031716958
-4.0745,0.3661998059332112,0.1398462569576635
-4.074,0.4835717293676135,0.3305857482505039
-4.0735,0.5262524287983441,0.457745409112513
-4.073,0.5262524287983441,0.5213252395434598
-4.0725,0.5049120790829789,0.5213252395435176
-4.072,0.4942419042252961,0.457745409112513
-4.0715,0.5155822539406419,0.3517790250609351
-4.071,0.5262524287982082,0.1822328105779767
-4.0705,0.3768699807907871,-0.01910331912002144
-4.07,0.1207857842066366,-0.1886495336025462
-4.0695,-0.316691384959031,-0.5489352393784894
-4.069,-0.807519428411986,-0.6549016234300674
-4.0685,-1.319687821580753,-0.7396747306714069
-4.068,-1.629122892453132,-0.591321792998552
-4.0675,-1.170305373573196,-0.02969995752518888
-4.067,-0.423393133535411,0.3729723018711736
-4.0665,0.2061471830682142,0.47893868592279
-4.066,0.5902734779444399,0.4153588554918433
-4.0655,0.7609962756673623,0.3623756634660061
-4.065,0.6969752265213245,0.1716361721731658
-4.0645,0.707645401378949,0.09745970333682032
-4.064,0.3021787567870086,-0.04029659593035631
-4.0635,-0.1139580626622359,-0.1250697031716187
-4.063,-0.02859666380103683,0.2140227257939127
-4.0625,0.09944543449103843,0.4895353243280153
-4.062,0.6009436528016665,0.65908153881054
-4.0615,1.219813794547095,0.171636172172231
-4.061,0.5369226036560266,-0.6654982618352349
-4.0605,-0.7008176798351597,-1.301296566145281
-4.06,-1.757164990745809,-1.587405803084763
-4.0595,-1.83185621474952,-1.545019249464132
-4.059,-1.212986073003927,-1.269506650929778
-4.0585,-0.4874141826821667,-0.9410108603698869
-4.058,0.05676473506030786,-0.6443049850249
-4.0575,0.3875401556484697,-0.4111789401112165
-4.057,0.526252428798218,-0.2416327256286918
-4.0565,0.5689331282290746,-0.1462629799820306
-4.056,0.5475927785137094,-0.1144730647665284
-4.0555,0.5369226036560363,-0.1462629799820017
-4.055,0.5369226036560266,-0.2204394488183279
-4.0545,0.5369226036560266,-0.3581957480853793
-4.054,0.483571729367662,-0.5383386009730617
-4.0535,-0.01792648894412082,-0.7714646458871791
-4.053,-0.7328282044082075,-1.068170521231597
-4.0525,-1.394379045584531,-1.322489842955616
-4.052,-1.853196564465234,-1.35427975817105
-4.0515,-2.23732285934146,-1.280103289334946
-4.051,-1.746494815888059,-0.6866915386455698
-4.0505,-0.7968492535551671,0.05507314971547594
-4.05,0.00341386077189465,0.457745409112513
-4.0495,0.5155822539406614,0.5425185163538525
-4.049,0.7716664505248119,0.4471487707074323
-4.0485,0.8356874996712281,0.2881991946297185
-4.048,0.9317190733902845,0.1610395337678249
-4.0475,0.9103787236749387,0.3517790250606652
-4.047,0.803676975097986,0.5637117931643223
-4.0465,0.6863050516635838,0.7120647308365314
-4.046,0.6009436528022002,0.8392243916984249
-4.0455,0.6222840025180216,0.8498210301035345
-4.045,1.209143619690033,0.6590815388106942
-4.0445,1.219813794547716,0.1822328105781598
-4.044,-0.04993701351778984,-0.6337083466203107
-4.0435,-1.447729919872945,-1.269506650929778
-4.043,-1.629122892453549,-1.216523458903942
-4.0425,-1.170305373573613,-1.068170521231732
-4.042,-0.4874141826815069,-0.7820612842920766
-4.0415,0.0674349099179905,-0.5171453241628908
-4.041,0.3448594562174869,-0.3899856633009973
-4.0405,0.4835717293676523,-0.2840192792491398
-4.04,0.5262524287983441,-0.2098428104130352
-4.0395,0.5262524287983441,-0.1674562567924041
-4.039,0.5049120790829692,-0.1568596183872463
-4.0385,0.4942419042252961,-0.2098428104130352
-4.038,0.5155822539406419,-0.3052125560594554
-4.0375,0.5262524287979947,-0.4641621321371018
-4.037,0.142126133921769,-0.5171453241628908
-4.0365,-0.7755089038389382,-0.5383386009732256
-4.036,-1.554431668450179,-0.8244478379129873
-4.0355,-2.002579012472442,-1.089363798041932
-4.035,-2.333354433060604,-1.248313374119443
-4.0345,-2.098610586191799,-0.8456411147234475
-4.034,-1.180975548430879,-0.2098428104130352
-4.0335,-0.2526703358124887,0.1504428953626575
-4.033,0.4088805053632334,0.277602556224551
-4.0325,0.7716664505251709,0.2670059178193836
-4.032,0.9103787236749192,0.13984625695749
-4.0315,0.9530594231056109,-0.01910331911987689
-4.031,0.931719073390168,0.03387987290597956
-4.0305,0.8036769750980928,0.2140227257936621
-4.03,0.6863050516636906,0.3835689402761868
-4.0295,0.6009436528021226,0.5425185163539971
-4.029,0.6009436528021226,0.701468092431364
-4.0285,1.091771696255524,0.701468092431364
-4.028,1.273164668835401,0.2987958330345872
-4.0275,0.4729015545099309,-0.1568596183871981
-4.027,-0.5300948821122373,-0.4217755785163839
-4.0265,-1.08494397471123,-0.3158091944648059
-4.026,-0.9462317015618604,-0.1144730647665284
-4.0255,-0.8715404775580819,-0.2734226408440398
-4.025,-0.6154562809739315,-0.2946159176543554
-4.0245,-0.1459685872353615,-0.08268314955089112
-4.024,0.1848068333524996,0.06566978812131802
-4.0235,0.4408910299366501,0.1928294489832116
-4.023,0.5262524287983344,0.1822328105780634
-4.0225,0.5155822539406614,0.07626642652648545
-4.022,0.4942419042253156,-0.05089323433540809
-4.0215,0.4729015545099309,-0.199246172008022
-4.021,0.4729015545099309,-0.3687923864905467
-4.0205,0.3021787567870086,-0.5595318777835605
-4.02,-0.2526703358130127,-0.7502713690768634
-4.0195,-0.8288597781273515,-1.068170521231597
-4.019,-1.383708870726849,-1.364876396576285
-4.0185,-1.767835165603075,-1.43905286541239
-4.018,-1.938557963326346,-1.01518732920576
-4.0175,-1.362368521011484,-0.2946159176543747
-4.017,-0.4660738329669567,0.1716361721725683
-4.0165,0.2488278824989641,0.362375663465958
-4.016,0.6542945270905358,0.309392471440169
-4.0155,0.8250173248133028,0.150442895362802
-4.015,0.8783681991019392,-0.05089323433561048
-4.0145,0.9530594231056497,-0.1462629799820306
-4.014,0.8783681991019392,0.08686306493144086
-4.0135,0.7609962756672555,0.3835689402765338
-4.013,0.6436243522328531,0.5955017083796896
-4.0125,0.5796033030867573,0.7650479228623686
-4.012,0.707645401379114,0.7544512844568253
-4.0115,0.8890383739595538,0.3411823866556712
-4.011,0.3021787567870086,-0.1674562567923655
-4.0105,-0.5194247072538076,-0.3687923864903636
-4.01,-0.9995825758502737,-0.2946159176543747
-4.0095,-0.807519428411986,-0.09327978795619347
-4.009,-0.4554036581087791,0.07626642652633124
-4.0085,0.02475421048749284,0.394165578681653
-4.008,0.2808384070716433,0.55311515475902
-4.0075,-0.1139580626622554,0.1186529801475503
-4.007,-0.07127736323173826,0.09745970333681069
-4.0065,0.08877525963335578,0.08686306493165288
-4.006,0.2381577076409128,0.04447651131098315
-4.0055,0.4302208550792683,-0.008506680715027488
-4.005,0.5049120790829789,-0.1992461720078678
-4.0045,0.5049120790829789,-0.4535654937318862
-4.004,0.4515612047940415,-0.7290780922664707
-4.0035,-0.124628237520297,-0.9833974139902578
-4.003,-0.9355615267041777,-1.290699927740113
-4.0025,-1.533091318733862,-1.608599079894847
-4.002,-1.810515865034154,-1.619195718300304
-4.0015,-1.83185621474952,-0.9833974139902578
-4.001,-1.351698346154238,-0.2204394488188965
-4.0005,-0.4980843575385296,0.3305857482507159
-4,0.2274875327832301,0.5637117931641874
-3.9995,0.6542945270905358,0.5001319627331828
-3.999,0.8463576745288233,0.2987958330350016
-3.9985,0.8890383739595538,0.05507314971615059
-3.998,0.7396559259519968,-0.2628260024388724
-3.9975,0.5796033030867573,-0.1250697031716958
-3.997,0.5155822539406614,0.3411823866556712
-3.9965,0.5049120790829789,0.8180311148882058
-3.996,0.5155822539406614,1.082947075017392
-3.9955,0.408880505363835,1.019367244586387
-3.995,0.2168173579255475,0.5107286011383502
-3.9945,0.05676473506030786,-0.1038764263613609
-3.994,-0.4767440078238243,-0.5489352393783931
-3.9935,-0.9248913518464952,-0.6443049850249
-3.993,-0.7755089038389382,-0.4959520473525559
-3.9925,-0.3593720843893152,-0.2204394488182027
-3.992,0.03542438534494258,0.07626642652648545
-3.9915,0.3128489316446912,0.3199891098453364
-3.991,0.4622313796522482,0.5213252395435176
-3.9905,0.408880505363835,0.5637117931641874
-3.99,0.5155822539406614,0.701468092431364
-3.9895,0.5049120790829789,0.6590815388106942
-3.989,0.4942419042252961,0.55311515475902
-3.9885,0.4942419042252961,0.4047622170866759
-3.988,0.4942419042252961,0.2352160026039969
-3.9875,0.4942419042252961,0.04447651131098315
-3.987,0.1741366584948169,-0.1462629799820306
-3.9865,-0.4340633083930936,-0.3475991096802118
-3.986,-1.127624674142465,-0.6549016234300674
-3.9855,-1.426389570157579,-0.6866915386455698
-3.985,-1.703814116457328,-0.718481453861072
-3.9845,-1.565101843307454,-0.3052125560595421
-3.984,-0.8608703027003992,0.2564092794143318
-3.9835,-0.1352984123779797,0.5107286011383502
-3.983,0.3875401556484697,0.5213252395435176
-3.9825,0.6863050516635838,0.4153588554918433
-3.982,0.8143471499557753,0.3199891098453364
-3.9815,0.8463576745288233,0.06566978812131802
-3.981,1.038420821967111,0.309392471440169
-3.9805,0.2701682322139607,-0.008506680714854012
-3.98,0.0674349099179905,0.1822328105781598
-3.9795,0.04609456020262521,0.4047622170866759
-3.979,0.1527963087794516,0.55311515475902
-3.9785,0.825017324813458,0.2246193641988295
-3.978,1.134452395686255,-0.474758770542221
-3.9775,0.2381577076409128,-1.195330182093607
-3.977,-0.9889124009925911,-1.661582271920973
-3.9765,-1.415719395299897,-1.767548655972648
-3.976,-1.031593100423322,-1.576809164679634
-3.9755,-0.4554036581084589,-1.237716735714276
-3.975,0.03542438534494258,-0.8986243067489184
-3.9745,0.3341892813600565,-0.6125150698093976
-3.974,0.4942419042252961,-0.3899856633008816
-3.9735,0.5369226036560266,-0.2310360872233701
-3.973,0.5369226036560266,-0.1568596183871981
-3.9725,0.5155822539406614,-0.1462629799820306
-3.972,0.5155822539406614,-0.2098428104130352
-3.9715,0.5369226036560266,-0.3158091944647096
-3.971,0.5369226036560266,-0.474758770542221
-3.9705,0.3982103305061524,-0.6654982618352349
-3.97,-0.2313299860971235,-0.8668343915334161
-3.9695,-0.9035510021311299,-1.142346990067769
-3.969,-1.351698346153801,-1.375473034981453
-3.9685,-1.799845690176472,-1.38606967338662
-3.968,-2.098610586191586,-1.152943628472937
-3.9675,-1.522421143876723,-0.3158091944647096
-3.967,-0.572775581542968,0.3411823866556712
-3.9665,0.1954770082101822,0.6166949851900245
-3.966,0.6649647019482183,0.5849050699745222
-3.9655,0.857027849386506,0.5213252395435176
-3.965,0.9103787236749192,0.383568940276341
-3.9645,0.8890383739595538,0.2458126410091644
-3.964,0.79300680024041,0.3729723018711736
-3.9635,0.6863050516635838,0.55311515475902
-3.963,0.6009436528021226,0.7650479228623686
-3.9625,0.5582629533713921,0.9663840525605498
-3.962,0.4622313796522482,0.849821030103708
-3.9615,0.6436243522328531,0.3305857482505039
-3.961,0.3128489316446912,-0.1462629799820306
-3.9605,-0.391382608962363,-0.3687923864905467
-3.96,-1.06360362499637,-0.3899856633008816
-3.9595,-1.180975548430879,-0.2840192792492073
-3.959,-0.754168554123573,-0.07208651114585861
-3.9585,-0.2420001609548061,0.1716361721729923
-3.958,0.1527963087794516,0.3941655786815084
-3.9575,0.3875401556484697,0.5849050699745222
-3.957,0.4835717293676135,0.701468092431364
-3.9565,0.4302208550792003,0.6908714540261965
-3.956,0.5155822539406614,0.7438546460520338
-3.9555,0.3768699807907871,0.5001319627331828
-3.955,-0.274010685527854,-0.3475991096802118
-3.9545,-0.1459685872356623,-0.570128516188728
-3.954,-0.08194753808956648,-0.8774310299385835
-3.9535,-0.2526703358124887,-1.046977244421262
-3.953,-0.4767440078238243,-1.227120097309109
-3.9525,-1.020922925565639,-1.51322933424863
-3.952,-1.639793067311232,-1.672178910326141
-3.9515,-2.19464215991073,-1.629792356705471
-3.951,-2.002579012472442,-0.8350444763179138
-3.9505,-1.116954499284783,-0.04029659593035631
-3.95,-0.2099896363817582,0.5107286011383502
-3.9495,0.4195506802215176,0.7544512844572011
-3.949,0.7503261008096795,0.7226613692416989
-3.9485,0.8890383739595538,0.5319218779486851
-3.948,1.027750647109428,0.2670059178194992
-3.9475,1.006410297394063,0.3623756634660061
-3.947,0.8676980242441885,0.5849050699745222
-3.9465,0.7289857510943143,0.8710143069140429
-3.946,0.6222840025174878,1.326669758336243
-3.9455,0.6542945270905358,1.432636142387917
-3.945,1.027750647109428,0.8604176685088755
-3.9445,0.857027849386506,0.02328323450064829
-3.944,-0.03926683865883591,-0.6125150698093976
-3.9435,-0.9248913518464952,-0.9092209451540858
-3.943,-1.159635198715513,-0.8774310299385835
-3.9425,-0.7861790786966207,-0.6337083466197325
-3.942,-0.2846808603855366,-0.3052125560595421
-3.9415,0.1207857842064037,-0.008506680714854012
-3.941,0.3661998059331045,0.2352160026039969
-3.9405,0.4942419042252961,0.4153588554918433
-3.94,0.5262524287983441,0.5319218779486851
-3.9395,0.5262524287983441,0.5743084315693548
-3.939,0.5049120790829789,0.5637117931641874
-3.9385,0.4942419042252961,0.5001319627331828
-3.938,0.4942419042252961,0.3729723018711736
-3.9375,0.4942419042252961,0.2034260873884947
-3.937,0.2488278824985954,0.1080563417419877
-3.9365,0.03542438534494258,-0.1568596183871981
-3.936,-0.3166913849585846,-0.3581957480853793
-3.9355,-0.8715404775580819,-0.570128516188728
-3.935,-1.885207089037933,-1.131750351662602
-3.9345,-1.799845690176472,-0.7290780922662394
-3.934,-0.9889124009925911,-0.1038764263613609
-3.9335,-0.124628237520297,0.309392471440169
-3.933,0.5262524287983441,0.5107286011383502
-3.9325,0.79300680024041,0.4259554938970107
-3.932,0.8676980242441885,0.2776025562246667
-3.9315,0.8143471499557753,0.05507314971615059
-3.931,0.6969752265212663,0.05507314971615059
-3.9305,0.6009436528021226,0.3305857482505039
-3.93,0.5475927785137094,0.6166949851900245
-3.9295,0.5262524287983441,0.8286277532933731
-3.929,0.5475927785137094,0.9981739677760521
-3.9285,0.5262524287983441,0.701468092431364
-3.928,0.2808384070716433,-0.02969995752518888
-3.9275,-0.5194247072545548,-0.6654982618352349
-3.927,-1.319687821580753,-1.004590690800593
-3.9265,-1.373038695869166,-0.9939940523954253
-3.926,-0.8502001278427167,-0.7290780922662394
-3.9255,-0.2846808603855366,-0.3793890248957141
-3.925,0.142126133921769,-0.06148987274069118
-3.9245,0.3982103305061524,0.2140227257936621
-3.924,0.5049120790829789,0.4153588554918433
-3.9235,0.5369226036560266,0.5425185163538525
-3.923,0.5262524287983441,0.5955017083796896
-3.9225,0.5049120790829789,0.5955017083796896
-3.922,0.4835717293676135,0.5213252395435176
-3.9215,0.4835717293676135,0.3941655786815084
-3.921,0.4942419042252961,0.2246193641988295
-3.9205,0.3982103305061524,0.06566978812131802
-3.92,0.3661998059331045,-0.1568596183871981
-3.9195,-0.007256314085787988,-0.4853554089473885
-3.919,-0.6688071552621118,-0.7820612842920766
-3.9185,-1.341028171296118,-0.9622041371799229
-3.918,-1.586442193022819,-0.6337083466197325
-3.9175,-1.255666772434657,-0.1250697031716958
-3.917,-0.9995825758502737,-0.2204394488182027
-3.9165,-0.3700422592469978,-0.1250697031716958
-3.916,0.1954770082101822,-0.04029659593035631
-3.9155,0.5582629533713921,0.002089957690313421
-3.915,0.8143471499557753,-0.04029659593035631
-3.9145,0.9530594231056497,-0.01910331912002144
-3.914,0.9103787236749192,0.2458126410091644
-3.9135,0.7823366253827275,0.5001319627331828
-3.913,0.6542945270905358,0.7120647308365314
-3.9125,0.5689331282290746,0.8604176685088755
-3.912,0.5049120790829789,0.701468092431364
-3.9115,0.4729015545099309,0.07626642652648545
-3.911,-0.3487019095316325,-0.5913217929990628
-3.9105,-1.244996597576974,-0.8668343915334161
-3.91,-1.949228138184029,-0.792657922697244
-3.9095,-1.938557963326346,-0.5595318777835605
-3.909,-1.244996597576974,-0.252229364033705
-3.9085,-0.4980843575391895,0.06566978812131802
-3.908,0.05676473506030786,0.3623756634660061
-3.9075,0.3768699807907871,0.5849050699745222
-3.907,0.5262524287983441,0.7438546460520338
-3.9065,0.5582629533713921,0.8286277532933731
-3.906,0.5369226036560266,0.8286277532933731
-3.9055,0.5155822539406614,0.7544512844572011
-3.905,0.4942419042252961,0.627291623595192
-3.9045,0.4835717293676135,0.4259554938970107
-3.904,0.4195506802215176,0.1716361721729923
-3.9035,0.00341386077189465,-0.1356663415768632
-3.903,-0.4447334832507763,-0.5171453241628908
-3.9025,-0.9995825758502737,-0.8350444763179138
-3.902,-1.383708870726849,-0.8774310299385835
-3.9015,-1.51175096901904,-0.6443049850249
-3.901,-1.052933450138687,-0.2098428104130352
-3.9005,-0.3060212101009019,0.2034260873884947
-3.9,0.2808384070716433,0.3199891098453364
-3.8995,0.2274875327832301,-0.1674562567923655
-3.899,0.2488278824985954,-0.4111789401112165
-3.8985,0.4408910299368829,-0.400582301706049
-3.898,0.7396559259519968,-0.474758770542221
-3.8975,0.9317190733902845,-0.08268314955102604
-3.897,0.857027849386506,0.4683420475176805
-3.8965,0.707645401378949,0.8604176685088755
-3.896,0.6009436528021226,1.104140351827727
-3.8955,0.6329541773751706,1.157123543853563
-3.895,0.9637295979633325,0.6060983467848571
-3.8945,0.4515612047945656,-0.2416327256285375
-3.894,-0.5300948821122373,-0.8986243067489184
-3.8935,-1.159635198715513,-1.205926820498774
-3.893,-0.9889124009925911,-1.152943628472937
-3.8925,-0.5087545323968721,-0.8562377531282487
-3.892,-0.04993701351651855,-0.4853554089473885
-3.8915,0.2701682322139607,-0.1568596183871981
-3.891,0.4408910299368829,0.1080563417419877
-3.8905,0.5155822539406614,0.309392471440169
-3.89,0.5262524287983441,0.4365521323021782
-3.8895,0.5049120790829789,0.4789386859228479
-3.889,0.4942419042252961,0.4683420475176805
-3.8885,0.4942419042252961,0.4153588554918433
-3.888,0.5049120790829789,0.2881991946298341
-3.8875,0.4942419042252961,0.09745970333682032
-3.887,0.1314559590640864,-0.1568596183871981
