Class_1_Relax_eyes_closed/Class_1_Relax_Eyes_closed_Zakour_5.csv

#Digilent WaveForms Oscilloscope Acquisition
#Device Name: EExplorer
#Serial Number: SN:210151A2B84A
#Date Time: 2020-11-26 10:45:39.205
#Sample rate: 2000Hz
#Samples: 16384
#Trigger: Source: Channel 1 Type: Edge Condition: Rising Level: 0 V Hyst.: Auto HoldOff: 0 s
#Channel 1: Range: 1 V/div Offset: 0 V Attenuation: 1 X
#Channel 2: Range: 1 V/div Offset: 0 V Attenuation: 1 X
#Power Supplies: ON
#Fixed Supply: ON
#Voltage: 3.3 V Readback: 3.327 V
#Positive Supply: ON
#Voltage: 3.7 V Readback: 3.717 V
#Current: 500 mA Readback: 21 mA
#Negative Supply: ON
#Voltage: -3.7 V Readback: -3.706 V
#Current: -500 mA Readback: -8 mA
#Reference 1: ON
#Voltage: 0 V
#Reference 2: ON
#Voltage: 0 V

Time (s),Channel 1 (V),Channel 2 (V)
-4.096,0.7396559259519968,-0.4853554089473885
-4.0955,0.7076454013789781,-0.5913217929989665
-4.095,0.2701682322132814,-0.6231117082140928
-4.0945,-0.4767440078238243,-0.1038764263613609
-4.094,-0.9462317015614334,0.5213252395429488
-4.0935,-1.116954499284346,0.7968378380773891
-4.093,-0.6367966306890638,0.2670059178194992
-4.0925,0.1741366584940794,-0.4535654937312309
-4.092,0.8036769750983742,-1.068170521231944
-4.0915,1.113112045970889,-1.449649503817625
-4.091,1.15579274540162,-1.661582271920973
-4.0905,1.081101521397744,-1.672178910326044
-4.09,0.974399772821015,-1.566212526274467
-4.0895,0.8783681991018712,-1.576809164679634
-4.089,0.750326100809796,-1.492036057438372
-4.0885,0.6756348768059011,-1.131750351662602
-4.088,0.6329541773751706,-0.7396747306714069
-4.0875,0.6222840025174975,-0.4005823017063574
-4.087,0.5902734779440032,-0.1144730647661525
-4.0865,0.1101156093487211,0.2987958330350016
-4.086,-0.6794773301190762,0.7650479228619445
-4.0855,-1.319687821581199,1.114736990233067
-4.085,-1.810515865034154,1.305476481525908
-4.0845,-2.26933338391409,1.400846227172328
-4.084,-2.386705307349027,1.443232780793094
-4.0835,-2.3973754822067,1.453829419198252
-4.083,-2.376035132491334,1.453829419198252
-4.0825,-2.077270236475328,1.443232780793075
-4.082,-1.095614149569417,1.432636142387917
-4.0815,-0.2526703358124887,1.37965295036208
-4.081,0.3128489316441769,0.5955017083804028
-4.0805,0.6116138276598051,-0.5489352393783931
-4.08,0.7396559259519968,-1.036380606016095
-4.0795,0.7609962756673428,-0.9939940523954638
-4.079,0.7396559259517542,-0.9516074987749
-4.0785,0.4729015545099309,-1.110557074852267
-4.078,-0.3273615598155394,-0.6337083466201663
-4.0775,-0.9995825758505745,0.1186529801476467
-4.077,-1.330357996438436,0.6590815388106942
-4.0765,-0.9462317015622098,0.3199891098456448
-4.076,-0.1459685872350121,-0.4111789401118044
-4.0755,0.5689331282290746,-1.05757388282643
-4.075,0.9957401225363802,-1.42845622700729
-4.0745,1.134452395686235,-1.576809164679644
-4.074,1.113112045970889,-1.587405803084801
-4.0735,1.027750647109428,-1.449649503817625
-4.073,0.9743997728210635,-1.258910012524784
-4.0725,0.9957401225363802,-1.131750351662602
-4.072,0.9103787236749192,-0.8880276683437509
-4.0715,0.8036769750981898,-0.623111708214806
-4.071,0.7183155762365734,-0.3687923864903733
-4.0705,0.6542945270905358,-0.1780528951975329
-4.07,0.3341892813603477,0.1398462569572009
-4.0695,-0.487414182682225,0.6060983467852233
-4.069,-1.277007122150022,1.00877060618122
-4.0685,-1.799845690176472,1.231300012689736
-4.068,-2.237322859341576,1.337266396741468
-4.0675,-2.365364957633652,1.400846227172415
-4.067,-2.376035132491334,1.432636142387917
-4.0665,-2.37603513249116,1.443232780793084
-4.066,-2.183971985053047,1.443232780793084
-4.0655,-1.255666772434657,1.432636142387917
-4.065,-0.3700422592478033,1.411442865577601
-4.0645,0.2381577076409128,0.92399749893988
-4.064,0.5902734779444399,-0.1568596183871981
-4.0635,0.7396559259518609,-0.7184814538605612
-4.063,0.7716664505250254,-0.7608680074817032
-4.0625,0.7503261008096795,-0.718481453861072
-4.062,0.6436243522329501,-0.9728007755848591
-4.0615,-0.02859666380181318,-0.7184814538604359
-4.061,-0.754168554123573,-0.01910331912002144
-4.0605,-1.159635198715513,0.6166949851900245
-4.06,-1.042263275280383,0.5425185163532165
-4.0595,-0.3593720843893152,-0.1568596183871981
-4.059,0.3768699807907871,-0.8774310299385835
-4.0585,0.8890383739590879,-1.396666311791315
-4.058,1.102441871113207,-1.661582271920973
-4.0575,1.123782220828572,-1.725162102351978
-4.057,1.038420821967188,-1.640388995110716
-4.0565,0.9210488985326017,-1.47084278062796
-4.056,0.6863050516635838,-1.523825972653797
-4.0555,0.5582629533715086,-1.343683119766114
-4.055,0.536922603656046,-0.9833974139899012
-4.0545,0.5582629533713921,-0.5913217929990628
-4.054,0.5796033030867379,-0.2628260024391711
-4.0535,0.5902734779443525,0.04447651131139757
-4.053,0.4942419042252961,0.5001319627331828
-4.0525,-0.1673089369510276,0.9345941373450475
-4.052,-0.9142211769894141,1.178316820663889
-4.0515,-1.575772018165136,1.167720182258731
-4.051,-2.173301810195364,1.220703374284568
-4.0505,-2.365364957633477,1.294879843120673
-4.05,-2.376035132491334,1.369056311956912
-4.0495,-2.333354433060604,1.411442865577582
-4.049,-1.62912289245419,1.432636142387898
-4.0485,-0.6581369804037789,1.432636142387734
-4.048,0.05676473506030786,1.231300012689736
-4.0475,0.4942419042248982,0.2140227257945873
-4.047,0.7076454013790072,-0.6231117082147963
-4.0465,0.7716664505250448,-0.8774310299385835
-4.046,0.7716664505250448,-0.8668343915334258
-4.0455,0.7183155762361463,-1.110557074852248
-4.045,0.1848068333524996,-1.089363798041932
-4.0445,-0.658136980404429,-0.400582301706049
-4.044,-1.234326422719418,0.3623756634662375
-4.0435,-1.373038695869166,0.6166949851900245
-4.043,-0.754168554123573,0.06566978812131802
-4.0425,0.06743490991724321,-0.5595318777829918
-4.042,0.7183155762366316,-1.068170521231597
-4.0415,1.059761171682476,-1.396666311791788
-4.041,1.155792745401533,-1.587405803084628
-4.0405,1.134452395686187,-1.619195718300178
-4.04,1.059761171682476,-1.481439419033127
-4.0395,0.9850699476787657,-1.513229334248601
-4.039,0.8463576745287262,-1.449649503817297
-4.0385,0.7396559259519968,-1.089363798041932
-4.038,0.6863050516636323,-0.686691538645936
-4.0375,0.6542945270904776,-0.3264058328695975
-4.037,0.5902734779444399,-0.01910331912002144
-4.0365,0.01408403562957729,0.4259554938970107
-4.036,-0.8075194284125294,0.8604176685091742
-4.0355,-1.405049220442214,1.188913459069066
-4.035,-1.863866739322568,1.326669758336243
-4.0345,-2.269333383914139,1.411442865577505
-4.034,-2.354694782775969,1.443232780793084
-4.0335,-2.354694782775969,1.453829419198252
-4.033,-2.344024607918296,1.453829419198252
-4.0325,-1.959898313040809,1.453829419198242
-4.032,-0.9675720512772257,1.443232780793084
-4.0315,-0.1566387620940825,1.379652950362138
-4.031,0.387540155648722,0.5531151547581333
-4.0305,0.6649647019482183,-0.4217755785163839
-4.03,0.7716664505249478,-0.8032545611020645
-4.0295,0.7823366253827081,-0.8032545611025078
-4.029,0.7609962756673623,-0.9092209451540858
-4.0285,0.4515612047945656,-1.068170521231597
-4.028,-0.3700422592475898,-0.5171453241622066
-4.0275,-1.020922925565639,0.2352160026039969
-4.027,-1.298347471865388,0.7332580076468663
-4.0265,-0.8608703027007971,0.3517790250611856
-4.026,-0.06060718837420119,-0.400582301706049
-4.0255,0.6222840025174878,-1.025783967610927
-4.025,1.027750647109059,-1.439052865412082
-4.0245,1.15579274540161,-1.619195718300255
-4.024,1.145122570543937,-1.566212526274467
-4.0235,1.0811015213979,-1.322489842955837
-4.023,1.059761171682505,-1.152943628472918
-4.0225,1.091771696255524,-1.131750351662602
-4.022,0.9850699476787947,-0.8880276683439725
-4.0215,0.8676980242440915,-0.5807251545936448
-4.021,0.7609962756673623,-0.3052125560595421
-4.0205,0.6969752265212663,-0.06148987274069118
-4.02,0.3555296310747134,0.2670059178199136
-4.0195,-0.423393133535411,0.7226613692416989
-4.019,-1.148965023857831,1.082947075017392
-4.0185,-1.661133417026132,1.28428320471539
-4.018,-2.130621110764634,1.37965295036208
-4.0175,-2.333354433060604,1.432636142387917
-4.017,-2.35469478277595,1.453829419198233
-4.0165,-2.344024607918131,1.453829419198252
-4.016,-2.173301810195364,1.453829419198252
-4.0155,-1.255666772435492,1.443232780793094
-4.015,-0.3700422592464349,1.422039503982383
-4.0145,0.2488278824985954,1.019367244586387
-4.014,0.6009436528018024,-0.07208651114486586
-4.0135,0.7609962756673914,-0.7608680074818767
-4.013,0.79300680024041,-0.9092209451540858
-4.0125,0.7823366253827275,-0.8986243067489184
-4.012,0.6329541773745107,-1.057573882826044
-4.0115,-0.09261771294724913,-0.6337083466197325
-4.011,-0.8822106524157645,0.1080563417419877
-4.0105,-1.362368521011047,0.7226613692411399
-4.01,-1.212986073003927,0.6590815388106942
-4.0095,-0.4340633083930936,-0.02969995752518888
-4.009,0.3768699807900496,-0.7820612842913923
-4.0085,0.9103787236751036,-1.322489842955828
-4.008,1.113112045970889,-1.555615887869299
-4.0075,1.113112045970889,-1.545019249464141
-4.007,1.059761171682437,-1.439052865412322
-4.0065,1.017080472251745,-1.290699927740113
-4.006,1.038420821967111,-1.301296566145281
-4.0055,0.9637295979632354,-1.057573882826073
-4.005,0.857027849386506,-0.6654982618352349
-4.0045,0.7609962756673623,-0.3052125560595421
-4.004,0.7076454013789296,-0.008506680714603435
-4.0035,0.6863050516635838,0.2670059178194992
-4.003,0.6222840025174878,0.6696781772158616
-4.0025,-0.071277363231253,1.040560521396385
-4.002,-0.8288597781273515,1.273686566310405
-4.0015,-1.533091318734406,1.369056311956912
-4.001,-2.151961460479436,1.432636142387859
-4.0005,-2.344024607918286,1.453829419198252
-4,-2.344024607918286,1.453829419198252
-3.9995,-2.312014083345239,1.453829419198252
-3.999,-1.650463242168915,1.443232780793084
-3.9985,-0.6794773301197943,1.443232780793084
-3.998,0.05676473506030786,1.178316820663898
-3.9975,0.5049120790829789,0.01268659609548085
-3.997,0.7183155762366316,-0.9410108603695881
-3.9965,0.79300680024041,-1.227120097309109
-3.996,0.79300680024041,-1.205926820498774
-3.9955,0.7396559259519968,-1.38606967338662
-3.995,0.1954770082101822,-1.216523458903942
-3.9945,-0.6367966306890638,-0.4217755785163839
-3.994,-1.191645723288561,0.3941655786815084
-3.9935,-1.298347471865388,0.7120647308365314
-3.993,-0.6688071552621118,0.1928294489833272
-3.9925,0.1634664836371343,-0.4959520473525559
-3.992,0.79300680024041,-1.046977244421262
-3.9915,1.123782220828572,-1.396666311791788
-3.991,1.19847344483235,-1.587405803084801
-3.9905,1.145122570543937,-1.566212526274467
-3.99,1.059761171682476,-1.407262950196955
-3.9895,0.8463576745288233,-1.364876396576285
-3.989,0.6649647019482183,-1.269506650929778
-3.9885,0.6009436528021226,-0.9304142219644207
-3.988,0.6116138276598051,-0.5595318777835605
-3.9875,0.6329541773751706,-0.2310360872233701
-3.987,0.5796033030867573,0.05507314971615059
-3.9865,-0.007256314085787988,0.4789386859228479
-3.986,-0.7968492535543035,0.9028042221295453
-3.9855,-1.341028171296118,1.210106735879401
-3.985,-1.778505340461106,1.358459673551745
-3.9845,-2.205312334768412,1.432636142387917
-3.984,-2.322684258202921,1.464426057603419
-3.9835,-2.333354433060604,1.475022696008586
-3.983,-2.322684258202921,1.464426057603419
-3.9825,-1.87453691418025,1.453829419198252
-3.982,-0.8715404775580819,1.453829419198252
-3.9815,-0.08194753808956648,1.347863035146577
-3.981,0.4302208550792003,0.4153588554918433
-3.9805,0.6969752265212663,-0.5383386009732256
-3.98,0.79300680024041,-0.8456411147230812
-3.9795,0.8036769750980928,-0.7608680074817418
-3.979,0.7823366253827275,-0.718481453861072
-3.9785,0.408880505363835,-0.7502713690765743
-3.978,-0.4340633083930936,-0.2416327256285375
-3.9775,-1.084943974711735,0.4153588554918433
-3.977,-1.394379045584531,0.8286277532933731
-3.9765,-0.9995825758502737,0.4365521323021782
-3.976,-0.1352984123779797,-0.3052125560595421
-3.9755,0.6116138276598051,-0.9198175835592532
-3.975,1.038420821967111,-1.311893204550448
-3.9745,1.187803269974668,-1.460246142222792
-3.974,1.166462920259302,-1.449649503817625
-3.9735,1.081101521397841,-1.290699927740113
-3.973,0.9530594231056497,-1.248313374119443
-3.9725,0.7609962756673623,-1.280103289334946
-3.972,0.6756348768059011,-0.9728007755850904
-3.9715,0.6436243522328531,-0.570128516188728
-3.971,0.6436243522328531,-0.2310360872233701
-3.9705,0.6542945270905358,0.01268659609548085
-3.97,0.4195506802215176,0.3517790250608387
-3.9695,-0.3273615598162672,0.775644561267536
-3.969,-1.095614149569417,1.125333628638062
-3.9685,-1.661133417026597,1.29487984312074
-3.968,-2.162631635337682,1.390249588767247
-3.9675,-2.312014083345239,1.443232780793084
-3.967,-2.322684258202921,1.464426057603419
-3.9665,-2.322684258202921,1.464426057603419
-3.966,-2.23732285934146,1.453829419198252
-3.9655,-1.415719395299897,1.453829419198252
-3.965,-0.4767440078238243,1.432636142387917
-3.9645,0.1848068333524996,0.7968378380778709
-3.964,0.5796033030867573,-0.4323722169215513
-3.9635,0.7609962756673623,-1.078767159636765
-3.963,0.8143471499557753,-1.131750351662602
-3.9625,0.8143471499557753,-1.078767159636765
-3.962,0.6436243522328531,-1.216523458903942
-3.9615,-0.1139580626626144,-0.7502713690765743
-3.961,-0.839529952985034,0.03387987290581572
-3.9605,-1.244996597576974,0.6802748156210291
-3.96,-1.084943974711735,0.5637117931641874
-3.9595,-0.3273615598162672,-0.1144730647665284
-3.959,0.4408910299368829,-0.8456411147230812
-3.9585,0.9637295979633325,-1.34368311976595
-3.958,1.177133095116985,-1.566212526274467
-3.9575,1.187803269974668,-1.672178910326141
-3.957,1.113112045970889,-1.682775548731308
-3.9565,1.059761171682476,-1.576809164679634
-3.956,1.049090996824793,-1.619195718300304
-3.9555,0.9530594231056497,-1.34368311976595
-3.955,0.857027849386506,-0.9092209451540858
-3.9545,0.7716664505250448,-0.5171453241628908
-3.954,0.7289857510943143,-0.1886495336027004
-3.9535,0.79300680024041,0.13984625695749
-3.953,0.8036769750980928,0.6060983467848571
-3.9525,0.08877525963335578,1.00877060618122
-3.952,-0.7328282044082075,1.263089927905238
-3.9515,-1.490410619303675,1.390249588767247
-3.951,-2.130621110764634,1.443232780793084
-3.9505,-2.312014083345239,1.475022696008586
-3.95,-2.322684258202921,1.475022696008586
-3.9495,-2.301343908487556,1.464426057603419
-3.949,-1.83185621474952,1.453829419198252
-3.9485,-0.8181896032696687,1.453829419198252
-3.948,-0.02859666380115328,1.210106735879401
-3.9475,0.4622313796522482,0.07626642652648545
-3.947,0.7183155762366316,-0.8244478379127463
-3.9465,0.8143471499557753,-1.078767159636765
-3.946,0.825017324813458,-1.004590690800593
-3.9455,0.7503261008096795,-1.152943628472937
-3.945,0.1314559590640864,-0.9410108603695881
-3.9445,-0.658136980404429,-0.1992461720078678
-3.944,-1.138294849000148,0.5319218779486851
-3.9435,-1.212986073003927,0.7544512844572011
-3.943,-0.572775581542968,0.2564092794143318
-3.9425,0.2381577076409128,-0.4111789401112165
-3.942,0.8356874996711408,-0.9516074987747555
-3.9415,1.123782220828572,-1.248313374119443
-3.941,1.187803269974668,-1.396666311791788
-3.9405,1.134452395686255,-1.375473034981453
-3.94,1.027750647109428,-1.216523458903942
-3.9395,0.8676980242441885,-1.269506650929778
-3.939,0.7183155762366316,-1.152943628472937
-3.9385,0.6756348768059011,-0.8138511995075789
-3.938,0.6649647019482183,-0.4535654937318862
-3.9375,0.6756348768059011,-0.1356663415768632
-3.937,0.5902734779444399,0.1504428953626575
-3.9365,-0.06060718837420119,0.5637117931641874
-3.936,-0.9142211769888124,0.9663840525605498
-3.9355,-1.597112367880501,1.231300012689736
-3.935,-2.130621110764634,1.29487984312074
-3.9345,-2.301343908487556,1.33726639674141
-3.934,-2.312014083345239,1.390249588767247
-3.9335,-2.312014083345239,1.42203950398275
-3.933,-2.301343908487556,1.443232780793084
-3.9325,-2.002579012472442,1.135930267043229
-3.932,-1.020922925565639,0.8392243916985406
-3.9315,-0.1779791118087102,0.7968378380778709
-3.931,0.3875401556484697,-0.008506680714854012
-3.9305,0.6969752265212663,-0.9198175835592532
-3.93,0.8143471499557753,-1.205926820498774
-3.9295,0.8356874996711408,-1.0999604364471
-3.929,0.8036769750980928,-1.195330182093607
-3.9285,0.408880505363835,-1.258910012524611
-3.928,-0.423393133535411,-0.5807251545938954
-3.9275,-0.9995825758502737,0.2352160026039969
-3.927,-1.244996597576974,0.7226613692416989
-3.9265,-0.7968492535543035,0.3941655786815084
-3.926,0.05676473506030786,-0.252229364033705
-3.9255,0.7503261008096795,-0.8032545611024114
-3.925,1.145122570543937,-1.163540266878104
-3.9245,1.230483969405398,-1.322489842955616
-3.924,1.166462920259302,-1.258910012524611
-3.9235,1.059761171682476,-1.046977244421262
-3.923,1.038420821967111,-0.9728007755850904
-3.9225,1.049090996824793,-0.9304142219644207
-3.922,0.9637295979633325,-0.6972881770507372
-3.9215,0.857027849386506,-0.400582301706049
-3.921,0.7823366253827275,-0.1462629799820306
-3.9205,0.7183155762366316,0.06566978812131802
-3.92,0.3555296310754218,0.4047622170866759
-3.9195,-0.4127229586777283,0.8286277532933731
-3.919,-1.084943974711735,1.146526905448396
-3.9185,-1.543761493592088,1.082947075017392
-3.918,-1.991908837614759,0.775644561267536
-3.9175,-2.269333383914508,0.8392243916985406
-3.917,-2.290673733629873,1.040560521396722
-3.9165,-2.290673733629873,1.231300012689736
-3.916,-1.895877263895616,1.358459673551745
-3.9155,-0.9035510021311299,1.432636142387917
-3.915,-0.09261771294724913,1.42203950398275
-3.9145,0.4408910299368829,0.775644561267536
-3.914,0.7183155762366316,-0.2840192792492073
-3.9135,0.825017324813458,-0.7502713690765743
-3.913,0.8463576745288233,-0.7608680074817418
-3.9125,0.825017324813458,-0.7396747306714069
-3.912,0.6329541773751706,-0.9304142219644207
-3.9115,-0.124628237520297,-0.5807251545938954
-3.911,-0.9035510021311299,0.1186529801471552
-3.9105,-1.330357996438436,0.701468092431364
-3.91,-0.9889124009925911,0.5001319627331828
-3.9095,-0.156638762093345,-0.1780528951975329
-3.909,0.5796033030867573,-0.8244478379127463
-3.9085,1.049090996824793,-1.301296566145281
-3.908,1.219813794547716,-1.555615887869299
-3.9075,1.230483969405398,-1.725162102351978
-3.907,1.166462920259302,-1.735758740757146
-3.9065,1.027750647109428,-1.672178910326141
-3.906,0.707645401378949,-1.725162102351978
-3.9055,0.5796033030867573,-1.42845622700729
-3.905,0.5689331282290746,-0.9833974139902578
-3.9045,0.6116138276598051,-0.5489352393783931
-3.904,0.6649647019482183,-0.1992461720078678
-3.9035,0.5689331282290746,0.1822328105781598
-3.903,0.1954770082101822,0.6696781772158616
-3.9025,-0.5194247072545548,1.072350436612224
-3.902,-1.170305373573196,1.29487984312074
-3.9015,-1.767835165603424,1.400846227172415
-3.901,-2.226652684483777,1.453829419198252
-3.9005,-2.290673733629873,1.475022696008586
-3.9,-2.290673733629873,1.485619334413754
-3.8995,-2.226652684483777,1.475022696008586
-3.899,-1.447729919872945,1.464426057603419
-3.8985,-0.4980843575391895,1.453829419198252
-3.898,0.1848068333524996,1.082947075017392
-3.8975,0.6009436528021226,-0.08268314955102604
-3.897,0.7823366253827275,-0.8562377531282487
-3.8965,0.8463576745288233,-1.004590690800593
-3.896,0.8356874996711408,-0.9304142219644207
-3.8955,0.7609962756673623,-1.110557074852267
-3.895,0.1527963087794516,-0.9410108603695881
-3.8945,-0.572775581542968,-0.2098428104130352
-3.894,-1.06360362499637,0.5213252395435176
-3.8935,-1.170305373573196,0.6908714540261965
-3.893,-0.5300948821122373,0.13984625695749
-3.8925,0.2701682322139607,-0.5595318777835605
-3.892,0.8676980242441885,-1.089363798041932
-3.8915,1.15579274540162,-1.460246142222792
-3.891,1.187803269974668,-1.629792356705471
-3.8905,1.134452395686255,-1.693372187136476
-3.89,1.059761171682476,-1.566212526274467
-3.8895,0.8783681991018712,-1.598002441489969
-3.889,0.7396559259519968,-1.42845622700729
-3.8885,0.6969752265212663,-1.025783967610927
-3.888,0.6969752265212663,-0.6125150698093976
-3.8875,0.707645401378949,-0.252229364033705
-3.887,0.6222840025174878,0.08686306493165288
-3.8865,0.03542438534494258,0.55311515475902
-3.886,-0.7968492535543035,0.9769806909657173
-3.8855,-1.490410619303675,1.241896651094903
-3.885,-2.066600061618538,1.220703374284568
-3.8845,-2.280003558772191,1.25249328950007
-3.884,-2.290673733629873,1.326669758336243
