Class_1_Relax_eyes_closed/Class_1_Relax_Eyes_closed_Turki_11.csv

#Digilent WaveForms Oscilloscope Acquisition
#Device Name: EExplorer
#Serial Number: SN:210151A2B84A
#Date Time: 2021-01-28 09:55:49.600
#Sample rate: 2000Hz
#Samples: 16384
#Trigger: Source: Channel 1 Type: Edge Condition: Rising Level: 0 V Hyst.: Auto HoldOff: 0 s
#Channel 1: Range: 1 V/div Offset: 0 V Attenuation: 1 X
#Channel 2: Range: 1 V/div Offset: 0 V Attenuation: 1 X
#Power Supplies: ON
#Fixed Supply: ON
#Voltage: 3.3 V Readback: 3.329 V
#Positive Supply: ON
#Voltage: 3.7 V Readback: 3.722 V
#Current: 40 mA Readback: 20 mA
#Negative Supply: ON
#Voltage: -3.7 V Readback: -3.359 V
#Current: -40 mA Readback: -9 mA
#Reference 1: ON
#Voltage: 0 V
#Reference 2: ON
#Voltage: 0 V

Time (s),Channel 1 (V),Channel 2 (V)
-4.096,-0.3380317346739499,-0.8880276683437509
-4.0955,-0.2099896363818746,-0.6654982618354373
-4.095,-0.13529841237797,-0.474758770542115
-4.0945,-0.124628237520297,-0.3581957480853793
-4.094,-0.1886492866663347,-0.3158091944647481
-4.0935,-0.391382608962858,-0.3264058328697421
-4.093,-0.9355615267041777,-0.1780528951975329
-4.0925,-1.191645723288328,0.500131962732566
-4.092,-0.295351035242113,1.337266396741979
-4.0915,0.9210488985326017,1.962468062646288
-4.091,1.774662887147213,2.174400830749637
-4.0905,1.273164668834945,1.411442865576474
-4.09,-0.02859666380115328,0.1928294489833272
-4.0895,-1.255666772434657,-0.8456411147230812
-4.089,-2.194642159909876,-1.33308648136034
-4.0885,-2.141291285622316,-1.354279758171118
-4.088,-1.415719395299897,-1.237716735714276
-4.0875,-0.7755089038395205,-1.099960436447225
-4.087,-0.3700422592469978,-1.057573882826439
-4.0865,-0.3700422592469978,-1.068170521231597
-4.086,-0.338031734673979,-0.8986243067490726
-4.0855,-0.2633405106701034,-0.6654982618350325
-4.085,-0.1886492866663929,-0.4429688553267188
-4.0845,-0.09261771294733648,-0.1886495336029317
-4.084,0.4835717293683995,0.3941655786822216
-4.0835,1.347855892839907,1.178316820663898
-4.083,2.08409795802001,1.845905040189447
-4.0825,2.169459356880461,1.973064701050617
-4.082,1.059761171682476,1.051157159801889
-4.0815,-0.2633405106701714,-0.08268314955102604
-4.081,-0.9675720512765852,-0.8986243067481763
-4.0805,-0.9889124009925911,-1.290699927740113
-4.08,-0.7434983792658902,-1.34368311976595
-4.0795,-0.4767440078240669,-1.163540266878268
-4.079,-0.2846808603854299,-0.9198175835590605
-4.0785,-0.1673089369510276,-0.7078848154559045
-4.078,-0.1246282375203358,-0.5383386009733798
-4.0775,-0.1673089369512023,-0.4535654937318573
-4.077,-0.3593720843893152,-0.4217755785163839
-4.0765,-0.8715404775576161,-0.2946159176544904
-4.076,-1.319687821580132,0.2987958330357726
-4.0755,-0.6367966306890638,1.146526905448396
-4.075,0.6009436528021226,1.867098316999781
-4.0745,1.657290963712646,2.248577299585433
-4.074,1.593269914566608,1.835308401784279
-4.0735,0.4302208550792003,0.7438546460520338
-4.073,-0.7328282044071497,-0.2098428104121678
-4.0725,-1.159635198715513,-0.8032545611024114
-4.072,-1.010252750707956,-1.163540266878104
-4.0715,-0.7008176798354412,-1.343683119765787
-4.071,-0.4127229586775439,-1.333086481360725
-4.0705,-0.2099896363817582,-1.269506650929778
-4.07,-0.3166913849584875,-1.290699927740094
-4.0695,-0.4127229586776798,-1.06817052123126
-4.069,-0.3593720843893152,-0.6972881770507372
-4.0685,-0.274010685527854,-0.3158091944647096
-4.068,-0.1779791118082735,0.05507314971669029
-4.0675,0.3021787567870086,0.6484849004055269
-4.067,1.166462920259302,1.411442865577582
-4.0665,1.956055859728167,2.026047893077534
-4.066,2.340182154604393,2.290963853206479
-4.0655,1.497238340847464,1.549199164844759
-4.065,0.2488278824997308,0.3517790250619279
-4.0645,-0.391382608962363,-0.5913217929990628
-4.064,-0.5514352318276028,-1.078767159636765
-4.0635,-0.4874141826815651,-1.184733543688343
-4.063,-0.3593720843892181,-1.04697724442105
-4.0625,-0.2526703358124887,-0.8138511995075789
-4.062,-0.1673089369511052,-0.601918431404423
-4.0615,-0.1352984123779991,-0.4323722169214645
-4.061,-0.156638762093345,-0.3370024712750445
-4.0605,-0.3060212101009019,-0.3052125560595421
-4.06,-0.6261264558318956,-0.2946159176540277
-4.0595,-1.191645723288561,0.08686306493165288
-4.059,-0.9569018764195432,0.8710143069140429
-4.0585,0.1634664836361153,1.644568910490562
-4.058,1.337185717982225,2.142610915534135
-4.0575,1.828013761435626,2.026047893077293
-4.057,0.8997085488180808,0.9663840525615135
-4.0565,-0.4447334832507763,-0.2416327256285375
-4.056,-1.607782542738184,-1.163540266878104
-4.0555,-2.35469478277529,-1.566212526274101
-4.055,-2.301343908486857,-1.534422611058801
-4.0545,-1.533091318734406,-1.354279758171118
-4.054,-0.8075194284126459,-1.184733543688593
-4.0535,-0.4447334832507568,-1.152943628472889
-4.053,-0.423393133535411,-1.0999604364471
-4.0525,-0.3380317346739499,-0.8668343915334161
-4.052,-0.2420001609547382,-0.6125150698092049
-4.0515,-0.1673089369510276,-0.400582301706049
-4.051,0.142126133921769,-0.07208651114585861
-4.0505,0.9423892482472391,0.6378882619997137
-4.05,1.774662887147213,1.411442865577582
-4.0495,2.340182154604393,1.973064701051456
-4.049,1.96672603458584,1.676358825707038
-4.0485,0.7289857510934992,0.5743084315684007
-4.048,-0.1673089369510276,-0.474758770542221
-4.0475,-0.4874141826812157,-1.131750351662004
-4.047,-0.4980843575391022,-1.386069673386563
-4.0465,-0.4020527838200457,-1.322489842955616
-4.046,-0.2740106855279705,-1.089363798042144
-4.0455,-0.1886492866663541,-0.8350444763177307
-4.045,-0.1459685872356623,-0.6337083466197325
-4.0445,-0.1352984123779797,-0.4853554089473885
-4.044,-0.2206598112396446,-0.4111789401112068
-4.0435,-0.4447334832507763,-0.400582301706049
-4.043,-0.9889124009925911,-0.1780528951975329
-4.0425,-1.244996597576741,0.5425185163531971
-4.042,-0.3273615598162672,1.390249588767247
-4.0415,0.8997085488172365,2.026047893077293
-4.041,1.774662887146417,2.259173937990765
-4.0405,1.283834843692628,1.528005888033296
-4.04,-0.01792648894347063,0.2881991946298341
-4.0395,-1.244996597575858,-0.7396747306704721
-4.039,-2.194642159910846,-1.163540266878143
-4.0385,-2.322684258202921,-1.205926820498774
-4.038,-1.661133417027199,-1.152943628472985
-4.0375,-0.9675720512767987,-1.089363798041932
-4.037,-0.4980843575391895,-1.089363798041932
-4.0365,-0.4340633083930936,-1.142346990067769
-4.036,-0.3487019095315452,-0.962204137179682
-4.0355,-0.2526703358124887,-0.6972881770507372
-4.035,-0.1779791118087102,-0.4323722169215513
-4.0345,-0.06060718837430794,-0.135666341577133
-4.034,0.5796033030867573,0.5001319627331828
-4.0335,1.443887466559051,1.316073119931075
-4.033,2.148119007165465,1.973064701050858
-4.0325,2.254820755741922,2.047241169886771
-4.032,1.145122570543937,1.104140351827727
-4.0315,0.1101156093496622,-0.02969995752415766
-4.031,-0.3487019095317295,-0.8244478379130836
-4.0305,-0.4554036581084589,-1.195330182093607
-4.03,-0.3913826089624213,-1.22712009730908
-4.0295,-0.2953510352431417,-1.057573882826218
-4.029,-0.2099896363817582,-0.8244478379127463
-4.0285,-0.1459685872356623,-0.6337083466197325
-4.028,-0.1246282375203455,-0.485355408947321
-4.0275,-0.1779791118087102,-0.4111789401112165
-4.027,-0.3380317346739499,-0.400582301706049
-4.0265,-0.7221580295501756,-0.3687923864905757
-4.026,-1.244996597576974,0.13984625695749
-4.0255,-0.7008176798351597,1.00877060618122
-4.025,0.4942419042242092,1.761131932947423
-4.0245,1.571929564851262,2.184997469154467
-4.024,1.593269914566608,1.814115124973944
-4.0235,0.4835717293686226,0.7862411996736383
-4.023,-0.6047861061164331,-0.1462629799825703
-4.0225,-1.06360362499637,-0.7396747306714069
-4.022,-0.967572051277313,-1.078767159636456
-4.0215,-0.7008176798349268,-1.258910012524669
-4.021,-0.4447334832507763,-1.322489842955616
-4.0205,-0.2313299860971235,-1.280103289334946
-4.02,-0.3273615598163449,-1.269506650929586
-4.0195,-0.4127229586777283,-1.05757388282643
-4.019,-0.3593720843893152,-0.7078848154559045
-4.0185,-0.2633405106702588,-0.3581957480856973
-4.018,-0.1779791118087102,-0.04029659593035631
-4.0175,0.2488278824985954,0.5319218779486851
-4.017,1.113112045970103,1.305476481525204
-4.0165,1.913375160297466,1.962468062646558
-4.016,2.329511979746711,2.259173937990977
-4.0155,1.518578690563567,1.538602526440247
-4.015,0.2168173579249361,0.3623756634651676
-4.0145,-0.4554036581084589,-0.5595318777835605
-4.014,-0.6047861061158799,-1.025783967610503
-4.0135,-0.5194247072544189,-1.1211537132573
-4.013,-0.3700422592469978,-0.9728007755850904
-4.0125,-0.2420001609548061,-0.7502713690765743
-4.012,-0.1673089369509888,-0.5277419625679041
-4.0115,-0.124628237520297,-0.3581957480853793
-4.011,-0.1352984123779797,-0.2628260024388724
-4.0105,-0.2633405106700549,-0.2416327256285568
-4.01,-0.5514352318276028,-0.2416327256285375
-4.0095,-1.1062843244271,0.1610395337678249
-4.009,-0.9142211769889872,0.9451907757495017
-4.0085,0.1954770082112303,1.686955464112369
-4.008,1.347855892839907,2.16380419234447
-4.0075,1.817343586577517,2.079031085103208
-4.007,0.889038373958331,1.040560521395614
-4.0065,-0.4554036581084589,-0.1780528951975329
-4.006,-1.607782542738184,-1.05757388282643
-4.0055,-2.344024607918054,-1.364876396576256
-4.005,-2.087940411333903,-1.333086481360783
-4.0045,-1.30901764672307,-1.237716735714276
-4.004,-0.690147504977215,-1.174136905283281
-4.0035,-0.4020527838200457,-1.184733543688439
-4.003,-0.4340633083930936,-1.142346990067769
-4.0025,-0.3593720843893831,-0.9198175835594556
-4.002,-0.2526703358124887,-0.6972881770507372
-4.0015,-0.1779791118087102,-0.474758770542221
-4.001,0.110115609348459,-0.1356663415771716
-4.0005,0.9103787236756858,0.595501708380422
-4,1.753322537431848,1.400846227172415
-3.9995,2.329511979746711,1.994257977861791
-3.999,1.945385684870135,1.771728571353275
-3.9985,0.7503261008096795,0.701468092431364
-3.998,-0.07127736323188383,-0.3687923864905467
-3.9975,-0.391382608962363,-1.036380606016095
-3.997,-0.423393133535411,-1.290699927740113
-3.9965,-0.3487019095316325,-1.227120097309109
-3.996,-0.2526703358124887,-1.004590690800593
-3.9955,-0.1779791118087102,-0.7608680074817418
-3.995,-0.1352984123779797,-0.5489352393783931
-3.9945,-0.1352984123779797,-0.400582301706049
-3.994,-0.1993194615240755,-0.326405832869877
-3.9935,-0.4127229586777283,-0.3158091944647096
-3.993,-0.9462317015618604,-0.1462629799820306
-3.9925,-1.127624674142465,0.5425185163538525
-3.992,-0.2099896363817582,1.37965295036208
-3.9915,0.9957401225363802,2.015451254672126
-3.991,1.838683936293309,2.237980661180642
-3.9905,1.326515543124542,1.475022696008586
-3.99,0.00341386077189465,0.2458126410091644
-3.9895,-1.191645723288561,-0.570128516188728
-3.989,-1.799845690176472,-0.9198175835592532
-3.9885,-1.575772018165136,-1.068170521231597
-3.988,-1.031593100423322,-1.121153713257435
-3.9875,-0.5300948821122373,-1.152943628472937
-3.987,-0.2313299860971235,-1.184733543688439
-3.9865,-0.3380317346739499,-1.237716735714276
-3.986,-0.3487019095316325,-1.01518732920576
-3.9855,-0.2846808603855366,-0.7078848154559045
-3.985,-0.2099896363817582,-0.400582301706049
-3.9845,-0.1032878878049318,-0.08268314955102604
-3.984,0.4622313796522482,0.5743084315693548
-3.9835,1.337185717982225,1.358459673551745
-3.983,2.08409795802001,1.994257977861791
-3.9825,2.190799706596836,2.07903108510313
-3.982,1.123782220828572,1.135930267043229
-3.9815,0.08877525963335578,-0.008506680714854012
-3.981,-0.3807124341046804,-0.8244478379127463
-3.9805,-0.4660738329661415,-1.205926820498774
-3.98,-0.4020527838200457,-1.227120097309109
-3.9795,-0.2953510352432193,-1.036380606016095
-3.979,-0.2099896363817582,-0.8032545611024114
-3.9785,-0.1459685872356623,-0.5807251545938954
-3.978,-0.124628237520297,-0.4323722169215513
-3.9775,-0.1673089369510276,-0.3370024712750445
-3.977,-0.3060212101009019,-0.326405832869877
-3.9765,-0.7328282044082075,-0.2204394488182027
-3.976,-1.191645723288561,0.3517790250608387
-3.9755,-0.5407650569699201,1.178316820663898
-3.975,0.6649647019482183,1.877694955404949
-3.9745,1.689301488285752,2.248577299585809
-3.974,1.657290963712704,1.824711763379112
-3.9735,0.4515612047945656,0.6378882620003594
-3.973,-0.8715404775580819,-0.5171453241628908
-3.9725,-1.938557963326346,-1.237716735714276
-3.972,-2.344024607918286,-1.407262950196955
-3.9715,-1.810515865034154,-1.354279758171118
-3.971,-1.138294849000148,-1.248313374119443
-3.9705,-0.5941159312583333,-1.205926820498774
-3.97,-0.4554036581084589,-1.237716735714276
-3.9695,-0.423393133535411,-1.05757388282643
-3.969,-0.3273615598162672,-0.7396747306714069
-3.9685,-0.2206598112394408,-0.4323722169215513
-3.968,-0.1352984123779797,-0.1674562567923655
-3.9675,0.2594980573562781,0.2564092794143318
-3.967,1.102441871113207,0.9663840525605498
-3.9665,1.902704985439405,1.6657621873016
-3.966,2.329511979746711,2.036644531482461
-3.9655,1.539919040278195,1.37965295036208
-3.965,0.2381577076409128,0.2140227257936621
-3.9645,-0.4767440078238243,-0.7290780922662394
-3.964,-0.6367966306890638,-1.269506650929778
-3.9635,-0.5407650569699201,-1.42845622700729
-3.963,-0.391382608962363,-1.290699927740113
-3.9625,-0.2526703358124887,-1.046977244421262
-3.962,-0.156638762093345,-0.8138511995075789
-3.9615,-0.1139580626626144,-0.6337083466197325
-3.961,-0.1352984123779797,-0.5065486857577234
-3.9605,-0.2420001609548061,-0.4535654937318862
-3.96,-0.572775581542968,-0.4535654937318862
-3.9595,-1.180975548430879,-0.1674562567923655
-3.959,-1.020922925565639,0.6590815388106942
-3.9585,0.1101156093487211,1.517409249629256
-3.958,1.294505018551494,2.100224361913465
-3.9575,1.817343586577944,2.07903108510313
-3.957,0.9317190733902845,1.072350436612224
-3.9565,-0.4127229586777283,-0.1356663415768632
-3.956,-1.533091318734406,-0.9410108603695881
-3.9555,-1.991908837614759,-1.269506650929778
-3.955,-1.586442193022819,-1.311893204550448
-3.9545,-0.9995825758502737,-1.280103289334946
-3.954,-0.5194247072545548,-1.227120097309109
-3.9535,-0.3380317346739499,-1.227120097309109
-3.953,-0.4447334832507763,-1.163540266878104
-3.9525,-0.391382608962363,-0.8456411147230812
-3.952,-0.2846808603855366,-0.4959520473525559
-3.9515,-0.1886492866663929,-0.1780528951975329
-3.951,0.07810508477567314,0.2140227257936621
-3.9505,0.8676980242441885,0.9451907757502149
-3.95,1.7213120128588,1.676358825706768
-3.9495,2.318841804889028,2.184997469154805
-3.949,1.977396209443183,1.920081509025619
-3.9485,0.6863050516635838,0.8074344764830383
-3.948,-0.2206598112394408,-0.2946159176543747
-3.9475,-0.5300948821122373,-0.9939940523954253
-3.947,-0.5300948821122373,-1.280103289334946
-3.9465,-0.4020527838200457,-1.248313374119443
-3.946,-0.274010685527854,-1.046977244421262
-3.9455,-0.1779791118087102,-0.8138511995075789
-3.945,-0.124628237520297,-0.6231117082145651
-3.9445,-0.1139580626626144,-0.4853554089473885
-3.944,-0.1779791118087102,-0.4217755785163839
-3.9435,-0.3700422592469978,-0.4111789401112165
-3.943,-0.9355615267041777,-0.1462629799820306
-3.9425,-1.148965023857831,0.5849050699745222
-3.942,-0.2313299860971235,1.42203950398275
-3.9415,0.9850699476786977,2.047241169887628
-3.941,1.828013761435626,2.248577299585809
-3.9405,1.315845368266859,1.475022696008586
-3.94,-0.007256314085787988,0.2246193641988295
-3.9395,-1.234326422719292,-0.7820612842920766
-3.939,-2.119950935906951,-1.216523458903942
-3.9385,-2.03458953704549,-1.280103289334946
-3.938,-1.383708870726849,-1.195330182093607
-3.9375,-0.7968492535543035,-1.142346990067769
-3.937,-0.4020527838200457,-1.142346990067769
-3.9365,-0.4020527838200457,-1.184733543688439
-3.936,-0.3593720843893152,-0.9622041371799229
-3.9355,-0.274010685527854,-0.6549016234300674
-3.935,-0.1886492866663929,-0.3687923864905467
-3.9345,-0.04993701351651855,-0.09327978795619347
-3.934,0.6009436528021226,0.5425185163538525
-3.9335,1.475897991132099,1.33726639674141
-3.933,2.169459356881471,1.962468062646288
-3.9325,2.265490930600615,2.026047893077293
-3.932,1.113112045970889,1.051157159801889
-3.9315,-0.06060718837420119,-0.1038764263613609
-3.931,-0.5407650569699201,-0.9092209451540858
-3.9305,-0.5941159312583333,-1.301296566145281
-3.93,-0.4767440078238243,-1.333086481360783
-3.9295,-0.3166913849585846,-1.142346990067769
-3.929,-0.1993194615240755,-0.8880276683437509
-3.9285,-0.1352984123779797,-0.6760949002404023
-3.928,-0.1032878878049318,-0.5065486857577234
-3.9275,-0.156638762093345,-0.4111789401112165
-3.927,-0.3060212101009019,-0.3899856633008816
-3.9265,-0.7114878546928423,-0.326405832869877
-3.926,-1.191645723288561,0.1928294489833272
-3.9255,-0.6047861061160158,1.061753798207057
-3.925,0.5902734779444399,1.803518486568777
-3.9245,1.646620788855021,2.237980661180642
-3.924,1.657290963712704,1.845905040189447
-3.9235,0.4835717293676135,0.6590815388106942
-3.923,-0.839529952985034,-0.4959520473525559
-3.9225,-1.927887788468663,-1.258910012524611
-3.922,-2.386705307349017,-1.396666311791788
-3.9215,-2.098610586191586,-1.258910012524611
-3.921,-1.255666772434657,-1.152943628472937
-3.9205,-0.6154562809736985,-1.121153713257435
-3.92,-0.3807124341046804,-1.174136905283272
-3.9195,-0.3166913849585846,-1.025783967610927
-3.919,-0.2206598112394408,-0.7608680074817418
-3.9185,-0.156638762093345,-0.4959520473525559
-3.918,-0.1032878878049318,-0.2734226408440398
-3.9175,0.2808384070716433,0.2352160026039969
-3.917,1.113112045970889,1.029963882991555
-3.9165,1.913375160297087,1.75053529454294
-3.916,2.350852329462076,2.100224361913465
-3.9155,1.593269914566608,1.411442865577582
-3.915,0.3341892813600565,0.2458126410091644
-3.9145,-0.3380317346739499,-0.6972881770507372
-3.914,-0.5194247072545548,-1.227120097309109
-3.9135,-0.4660738329661415,-1.364876396576285
-3.913,-0.3380317346739499,-1.237716735714276
-3.9125,-0.2313299860971235,-0.9939940523954253
-3.912,-0.1459685872356623,-0.7608680074817418
-3.9115,-0.1139580626626144,-0.5807251545938954
-3.911,-0.124628237520297,-0.4641621321370536
-3.9105,-0.2420001609548061,-0.4111789401112165
-3.91,-0.5194247072545548,-0.4111789401112165
-3.9095,-1.084943974711735,-0.06148987274069118
-3.909,-0.9675720512772257,0.775644561267536
-3.9085,0.1207857842064037,1.602182356870596
-3.908,1.305175193409177,2.153207553939303
-3.9075,1.828013761435626,2.153207553939303
-3.907,0.9317190733902845,1.167720182258731
-3.9065,-0.4127229586777283,-0.06148987274069118
-3.906,-1.554431668449771,-0.8350444763179138
-3.9055,-2.226652684483777,-1.142346990067769
-3.905,-1.87453691418025,-1.205926820498774
-3.9045,-1.212986073003927,-1.174136905283272
-3.904,-0.6154562809736985,-1.131750351662602
-3.9035,-0.3487019095316325,-1.163540266878104
-3.903,-0.3700422592469978,-1.110557074852267
-3.9025,-0.3060212101009019,-0.8244478379127463
-3.902,-0.2206598112394408,-0.4959520473525559
-3.9015,-0.1459685872356623,-0.2098428104130352
-3.901,0.05676473506030786,0.1928294489833272
-3.9005,0.8036769750980928,0.9345941373450475
-3.9,1.667961138570387,1.686955464111935
-3.8995,2.28683128031598,2.195594107559972
-3.899,1.988066384300866,1.856501678594614
-3.8985,0.8676980242441885,0.7226613692416989
-3.898,0.08877525963335578,-0.3475991096802118
-3.8975,-0.2526703358124887,-1.01518732920576
-3.897,-0.3380317346739499,-1.280103289334946
-3.8965,-0.2953510352432193,-1.237716735714276
-3.896,-0.2313299860971235,-1.036380606016095
-3.8955,-0.1673089369510276,-0.8032545611024114
-3.895,-0.124628237520297,-0.6231117082145651
-3.8945,-0.1139580626626144,-0.5065486857577234
-3.894,-0.2206598112394408,-0.4535654937318862
-3.8935,-0.4340633083930936,-0.4535654937318862
-3.893,-0.9675720512772257,-0.2946159176543747
-3.8925,-1.191645723288561,0.4365521323021782
-3.892,-0.2633405106701714,1.316073119931075
-3.8915,0.9530594231056497,1.973064701051456
-3.891,1.817343586577944,2.237980661180642
-3.8905,1.390536592270638,1.623375633680931
-3.89,0.1314559590640864,0.4683420475176805
-3.8895,-0.8181896032696687,-0.3899856633008816
-3.889,-1.052933450138687,-0.8774310299385835
-3.8885,-0.9035510021311299,-1.131750351662602
-3.888,-0.6154562809736985,-1.205926820498774
-3.8875,-0.3273615598162672,-1.195330182093607
-3.887,-0.156638762093345,-1.216523458903942
-3.8865,-0.3380317346739499,-1.237716735714276
