Class_1_Relax_eyes_closed/Class_1_Relax_Eyes_closed_Zakour_12.csv

#Digilent WaveForms Oscilloscope Acquisition
#Device Name: EExplorer
#Serial Number: SN:210151A2B84A
#Date Time: 2021-02-07 16:03:47.042
#Sample rate: 2000Hz
#Samples: 16384
#Trigger: Source: Channel 1 Type: Edge Condition: Rising Level: 0 V Hyst.: Auto HoldOff: 0 s
#Channel 1: Range: 1 V/div Offset: 0 V Attenuation: 1 X
#Channel 2: Range: 1 V/div Offset: 0 V Attenuation: 1 X
#Power Supplies: ON
#Fixed Supply: ON
#Voltage: 3.3 V Readback: 3.331 V
#Positive Supply: ON
#Voltage: 3.7 V Readback: 3.717 V
#Current: 40 mA Readback: 18 mA
#Negative Supply: ON
#Voltage: -3.7 V Readback: -3.697 V
#Current: -40 mA Readback: -2 mA
#Reference 1: ON
#Voltage: 0 V
#Reference 2: ON
#Voltage: 0 V

Time (s),Channel 1 (V),Channel 2 (V)
-4.096,-1.757164990745741,0.775644561267536
-4.0955,-1.682473766742031,1.019367244586165
-4.095,-1.138294848999643,1.093543713422366
-4.0945,-0.5834457564006506,0.8816109453192104
-4.094,-0.177979111809079,0.4047622170871096
-4.0935,0.04609456020271255,-0.06148987274091284
-4.093,0.142126133921769,-0.3052125560595421
-4.0925,0.1634664836371149,-0.2946159176543843
-4.092,0.1527963087794225,-0.08268314955073691
-4.0915,0.1207857842064037,0.2352160026039969
-4.091,0.0674349099179905,0.5425185163538525
-4.0905,0.02475421048724053,0.8180311148883503
-4.09,0.00341386077189465,0.9769806909657173
-4.0895,-0.02859666380115328,1.082947075017392
-4.089,-0.5194247072541084,0.8074344764832889
-4.0885,-1.298347471865388,0.2564092794143318
-4.088,-1.959898313041711,-0.2204394488182027
-4.0875,-2.034589537045422,-0.5277419625677788
-4.087,-0.9569018764185048,-0.6866915386456373
-4.0865,0.1848068333524996,-0.7608680074817418
-4.086,0.953059423104951,-0.8244478379126885
-4.0855,1.273164668836051,-0.8456411147228595
-4.085,1.187803269974668,-0.6019184314042303
-4.0845,0.8676980242444796,-0.08268314955149836
-4.084,0.5582629533714115,0.2987958330348184
-4.0835,0.5796033030867573,0.09745970333682032
-4.083,0.7716664505250448,-0.2204394488182027
-4.0825,0.750326100809534,-0.3899856633010261
-4.082,0.5902734779444399,-0.5489352393783931
-4.0815,0.4515612047945656,-0.718481453861072
-4.081,0.2594980573564528,-0.8138511995074922
-4.0805,-0.4447334832507763,-0.4111789401112165
-4.08,-1.426389570157579,0.2034260873884947
-4.0795,-2.205312334767704,0.6908714540257532
-4.079,-2.162631635337051,0.9981739677761773
-4.0785,-1.46907026958831,1.135930267043229
-4.078,-0.764838728981896,1.008770606181335
-4.0775,-0.2633405106698997,0.5849050699740114
-4.077,0.03542438534494258,0.02328323450064829
-4.0765,0.1634664836370178,-0.3793890248953479
-4.076,0.1954770082101628,-0.4959520473524499
-4.0755,0.1741366584948169,-0.3793890248957141
-4.075,0.1527963087794516,-0.1038764263613609
-4.0745,0.1207857842063843,0.2352160026043053
-4.074,0.09944543449103843,0.5743084315693548
-4.0735,0.04609456020262521,0.7968378380778709
-4.073,0.003413860771933466,1.019367244586185
-4.0725,-0.2313299860971235,0.9875773293708847
-4.072,-0.9995825758502737,0.5001319627331828
-4.0715,-1.82118603989109,-0.0191033191195491
-4.071,-2.365364957632972,-0.3687923864906624
-4.0705,-1.618452717595867,-0.4959520473525559
-4.07,-0.4447334832518439,-0.5277419625680294
-4.0695,0.4835717293680696,-0.5595318777835702
-4.069,0.9850699476786977,-0.570128516188728
-4.0685,1.038420821967111,-0.3581957480853793
-4.068,0.8143471499555424,0.07626642652679386
-4.0675,0.5582629533713921,0.4153588554918433
-4.067,0.4835717293676135,0.6590815388106942
-4.0665,0.5155822539406614,0.6590815388104436
-4.066,0.5155822539406614,0.383568940276341
-4.0655,0.5049120790829789,-0.02969995752518888
-4.065,0.462231379652287,-0.4535654937315007
-4.0645,0.3768699807907871,-0.7714646458869092
-4.064,-0.2953510352432193,-0.5595318777835605
-4.0635,-1.266336947291457,-0.008506680715355208
-4.063,-2.00257901247251,0.4895353243283238
-4.0625,-2.07727023647622,0.8286277532933731
-4.062,-1.469070269588863,1.029963882991371
-4.0615,-0.7968492535538376,1.051157159801648
-4.061,-0.2846808603855366,0.7862411996727035
-4.0605,0.02475421048725994,0.2776025562246667
-4.06,0.1634664836371634,-0.1568596183873716
-4.0595,0.1954770082101822,-0.3475991096802118
-4.059,0.1848068333524996,-0.2840192792492073
-4.0585,0.1634664836371537,-0.02969995752542021
-4.058,0.1314559590640864,0.309392471440169
-4.0575,0.1101156093487211,0.6696781772158616
-4.057,0.05676473506035638,0.9239974989396487
-4.0565,-0.02859666380115328,1.104140351827727
-4.056,-0.1459685872356623,1.135930267043229
-4.0555,-0.7648387289806926,0.7438546460523904
-4.055,-1.511750969019516,0.2034260873881284
-4.0545,-2.03458953704549,-0.1992461720078678
-4.054,-1.799845690176685,-0.3687923864903925
-4.0535,-0.8075194284111223,-0.421775578516461
-4.053,0.142126133921769,-0.5065486857577234
-4.0525,0.7503261008096795,-0.570128516188728
-4.052,0.8997085488171104,-0.4323722169212236
-4.0515,0.7609962756673623,-0.07208651114585861
-4.051,0.5369226036560266,0.2776025562246667
-4.0505,0.4088805053639515,0.4789386859226648
-4.05,0.4729015545099309,0.5849050699745222
-4.0495,0.4515612047945656,0.4153588554918433
-4.049,0.4729015545099114,0.118652980147425
-4.0485,0.4729015545098921,-0.3158091944651047
-4.048,0.4302208550792003,-0.7502713690765743
-4.0475,0.2274875327834145,-0.8774310299384678
-4.047,-0.5300948821130331,-0.4535654937313561
-4.0465,-1.405049220442214,0.1292496185523226
-4.046,-1.949228138183534,0.5955017083792655
-4.0455,-1.767835165602861,0.9134008605348669
-4.045,-1.148965023857831,1.082947075017392
-4.0445,-0.5514352318276028,0.9769806909657173
-4.044,-0.1352984123777759,0.5849050699740885
-4.0435,0.08877525963335578,0.1080563417419877
-4.043,0.1848068333524996,-0.1568596183871981
-4.0425,0.2061471830678454,-0.1568596183871981
-4.042,0.1848068333524996,0.03387987290581572
-4.0415,0.1634664836371343,0.3623756634660061
-4.041,0.1314559590641155,0.7120647308362134
-4.0405,0.09944543449101902,1.008770606181451
-4.04,0.07810508477567314,1.263089927905238
-4.0395,0.05676473506032727,1.443232780792921
-4.039,-0.4233931335361873,1.199510097473665
-4.0385,-1.277007122150022,0.5743084315693548
-4.038,-1.991908837614109,0.01268659609599165
-4.0375,-2.098610586190838,-0.2522293640337243
-4.037,-1.277007122150022,-0.2734226408440398
-4.0365,-0.3060212101009019,-0.3475991096802118
-4.036,0.3982103305064144,-0.4429688553266513
-4.0355,0.6863050516635838,-0.3687923864905467
-4.035,0.6649647019482183,-0.08268314955102604
-4.0345,0.5369226036561431,0.2140227257933922
-4.034,0.3982103305061524,0.3411823866556712
-4.0335,0.4942419042252961,0.2458126410091644
-4.033,0.6222840025173714,0.1186529801472709
-4.0325,0.6009436528020837,-0.08268314955122844
-4.032,0.5582629533713921,-0.3052125560595421
-4.0315,0.5049120790830274,-0.6125150698091182
-4.031,0.4195506802211295,-0.8562377531280078
-4.0305,-0.007256314085787988,-0.5913217929990628
-4.03,-0.8822106524149687,-0.02969995752569965
-4.0295,-1.565101843307774,0.4683420475179985
-4.029,-1.917217613610981,0.8180311148882058
-4.0285,-1.554431668449771,0.9981739677760521
-4.028,-0.9248913518460099,0.9239974989395427
-4.0275,-0.391382608962363,0.55311515475902
-4.027,-0.03926683865883591,0.05507314971615059
-4.0265,0.142126133921604,-0.2840192792488989
-4.026,0.2061471830678648,-0.3581957480853793
-4.0255,0.2061471830678648,-0.2098428104130352
-4.025,0.1954770082101919,0.08686306493138304
-4.0245,0.1741366584947975,0.4577454091128504
-4.024,0.1527963087794516,0.8286277532933731
-4.0235,0.1314559590641058,1.093543713422318
-4.023,0.1101156093484299,1.252493289499935
-4.0225,-0.2099896363817582,1.104140351827727
-4.022,-1.031593100422574,0.5319218779492055
-4.0215,-1.863866739322869,-0.01910331912027202
-4.021,-2.19464215991073,-0.2946159176543747
-4.0205,-1.490410619303675,-0.3687923864905467
-4.02,-0.530094882111558,-0.4853554089475041
-4.0195,0.2168173579255475,-0.6125150698093976
-4.019,0.5796033030867573,-0.6125150698093976
-4.0185,0.6329541773751221,-0.3687923864907684
-4.018,0.5369226036560266,0.002089957690313421
-4.0175,0.408880505363835,0.2670059178194992
-4.017,0.4195506802215079,0.4471487707071817
-4.0165,0.5262524287983441,0.4365521323019468
-4.016,0.5262524287983441,0.1822328105781598
-4.0155,0.4515612047946335,-0.1992461720075209
-4.015,0.3768699807907483,-0.5913217929993519
-4.0145,0.3341892813600565,-0.9092209451540858
-4.014,0.09944543449125193,-0.8032545611025078
-4.0135,-0.6794773301206288,-0.2416327256280171
-4.013,-1.597112367880501,0.3305857482505039
-4.0125,-2.344024607918286,0.7226613692416989
-4.012,-2.31201408334454,0.9663840525605595
-4.0115,-1.543761493592088,0.9769806909657173
-4.011,-0.7861790786966207,0.6802748156210291
-4.0105,-0.2420001609553011,0.1716361721734549
-4.01,0.07810508477567314,-0.2098428104130352
-4.0095,0.2168173579255475,-0.3475991096802118
-4.009,0.2488278824985663,-0.2416327256286339
-4.0085,0.2274875327832107,0.01268659609579889
-4.008,0.2061471830678648,0.3623756634660061
-4.0075,0.174136658494846,0.7014680924310556
-4.007,0.1527963087794322,0.9981739677762256
-4.0065,0.1314559590640864,1.188913459069066
-4.006,0.01408403562957729,1.188913459069066
-4.0055,-0.6794773301205512,0.7120647308359724
-4.005,-1.51175096901904,0.09745970333682032
-4.0045,-2.03458953704549,-0.3687923864905467
-4.004,-1.70381411645629,-0.644304985024977
-4.0035,-0.5621054066852853,-0.7290780922662394
-4.003,0.4622313796522482,-0.7396747306714069
-4.0025,1.070431346539606,-0.7396747306714069
-4.002,1.251824319120764,-0.6231117082145651
-4.0015,1.081101521397841,-0.2628260024388724
-4.001,0.7823366253829993,0.1080563417416504
-4.0005,0.5796033030868544,0.3411823866557869
-4,0.6863050516635838,0.4683420475176805
-3.9995,0.7183155762366316,0.2670059178194992
-3.999,0.6329541773751706,-0.1038764263613609
-3.9985,0.5155822539406614,-0.474758770542221
-3.998,0.4408910299368829,-0.8032545611024114
-3.9975,0.142126133921769,-0.7820612842920766
-3.997,-0.6367966306890638,-0.2628260024388724
-3.9965,-1.490410619303675,0.2987958330350016
-3.996,-2.03458953704549,0.6802748156210291
-3.9955,-1.725154466172693,0.7332580076468663
-3.995,-1.06360362499637,0.627291623595192
-3.9945,-0.4660738329661415,0.3623756634660061
-3.994,-0.07127736323188383,-0.02969995752518888
-3.9935,0.142126133921769,-0.3793890248957141
-3.993,0.2274875327832301,-0.5065486857577234
-3.9925,0.2381577076409128,-0.400582301706049
-3.992,0.2168173579255475,-0.1462629799820306
-3.9915,0.1954770082101822,0.2140227257936621
-3.991,0.1634664836371343,0.5743084315693548
-3.9905,0.1314559590640864,0.8922075837243778
-3.99,0.1207857842064037,1.125333628638062
-3.9895,0.08877525963335578,1.263089927905238
-3.989,-0.4020527838200457,0.9981739677760521
-3.9885,-1.212986073003927,0.3941655786815084
-3.988,-1.821186039891837,-0.1356663415768632
-3.9875,-1.938557963326346,-0.4535654937318862
-3.987,-1.031593100423322,-0.5171453241628908
-3.9865,0.03542438534494258,-0.4959520473525559
-3.986,0.7716664505250448,-0.4853554089473885
-3.9855,1.091771696255524,-0.3899856633008816
-3.985,1.027750647109428,-0.01910331912002144
-3.9845,0.7716664505250448,0.4153588554918433
-3.984,0.5262524287983441,0.627291623595192
-3.9835,0.5155822539406614,0.7544512844572011
-3.983,0.5582629533713921,0.5849050699745222
-3.9825,0.5049120790829789,0.13984625695749
-3.982,0.4515612047945656,-0.326405832869877
-3.9815,0.408880505363835,-0.7396747306714069
-3.981,0.3448594562177392,-0.9833974139902578
-3.9805,0.09944543449103843,-0.6654982618352349
-3.98,-0.6261264558313813,-0.09327978795619347
-3.9795,-1.362368521011484,0.4047622170866759
-3.979,-1.479740444445993,0.7332580076468663
-3.9785,-1.052933450138687,0.8922075837243778
-3.978,-0.5407650569699201,0.8286277532933731
-3.9775,-0.1459685872356623,0.4895353243280153
-3.977,0.08877525963335578,0.002089957690313421
-3.9765,0.1954770082101822,-0.3370024712750445
-3.976,0.2274875327832301,-0.4217755785163839
-3.9755,0.2274875327832301,-0.2628260024388724
-3.975,0.1954770082101822,0.04447651131098315
-3.9745,0.1634664836371343,0.4047622170866759
-3.974,0.142126133921769,0.7650479228623686
-3.9735,0.1314559590640864,1.093543713422559
-3.973,0.1207857842064037,1.29487984312074
-3.9725,-0.124628237520297,1.25249328950007
-3.972,-0.8928808272734472,0.7226613692416989
-3.9715,-1.586442193022819,0.13984625695749
-3.971,-2.002579012472442,-0.2840192792492073
-3.9705,-1.383708870726849,-0.474758770542221
-3.97,-0.2633405106701714,-0.474758770542221
-3.9695,0.6329541773751706,-0.4429688553267188
-3.969,1.123782220828572,-0.4111789401112165
-3.9685,1.177133095116985,-0.1886495336027004
-3.968,0.942389248247967,0.2034260873884947
-3.9675,0.6436243522328531,0.4895353243280153
-3.967,0.5369226036560266,0.6484849004055269
-3.9665,0.6863050516635838,0.7120647308365314
-3.966,0.7396559259519968,0.4365521323021782
-3.9655,0.8463576745288233,0.01268659609548085
-3.965,0.825017324813458,-0.4853554089473885
-3.9645,0.6436243522328531,-0.9198175835592532
-3.964,0.01408403562957729,-0.8350444763179138
-3.9635,-1.010252750707956,-0.3052125560595421
-3.963,-1.895877263895616,0.2140227257936621
-3.9625,-2.344024607918286,0.5849050699745222
-3.962,-1.799845690176472,0.8180311148882058
-3.9615,-1.042263275281004,0.8922075837243778
-3.961,-0.4127229586777283,0.6802748156210291
-3.9605,-0.01792648894347063,0.2140227257936621
-3.96,0.1848068333524996,-0.2416327256285375
-3.9595,0.2594980573562781,-0.4535654937318862
-3.959,0.2594980573562781,-0.400582301706049
-3.9585,0.2381577076409128,-0.1462629799820306
-3.958,0.2061471830678648,0.2140227257936621
-3.9575,0.1634664836371343,0.5743084315693548
-3.957,-0.06060718837420119,0.6590815388106942
-3.9565,-0.156638762093345,0.8074344764830383
-3.956,-0.1993194615240755,0.9663840525605498
-3.9555,-0.7648387289812555,0.701468092431364
-3.955,-1.554431668449771,0.2034260873884947
-3.9545,-2.280003558772191,-0.1992461720078678
-3.954,-2.119950935906951,-0.4429688553267188
-3.9535,-0.9675720512772257,-0.5489352393783931
-3.953,0.1207857842064037,-0.6019184314042303
-3.9525,0.8143471499557753,-0.6337083466197325
-3.952,1.049090996824793,-0.474758770542221
-3.9515,0.9210488985326017,-0.02969995752518888
-3.951,0.6756348768059011,0.4365521323021782
-3.9505,0.5155822539406614,0.6696781772158616
-3.95,0.6756348768059011,0.7968378380778709
-3.9495,0.7716664505250448,0.6378882620003594
-3.949,0.7503261008096795,0.2987958330350016
-3.9485,0.6329541773751706,-0.1250697031716958
-3.948,0.5049120790829789,-0.5913217929990628
-3.9475,0.1954770082101822,-0.792657922697244
-3.947,-0.690147504977477,-0.400582301706049
-3.9465,-1.618452717595867,0.1080563417419877
-3.946,-2.226652684483777,0.4683420475176805
-3.9455,-1.853196564464885,0.5319218779486851
-3.945,-1.127624674142465,0.457745409112513
-3.9445,-0.4874141826815069,0.2140227257936621
-3.944,-0.04993701351651855,-0.2098428104130352
-3.9435,0.1741366584948169,-0.6125150698093976
-3.943,0.2594980573562781,-0.8032545611024114
-3.9425,0.2701682322139607,-0.7502713690765743
-3.942,0.2488278824985954,-0.5065486857577234
-3.9415,0.2168173579255475,-0.1674562567923655
-3.941,0.1527963087794516,0.1716361721729923
-3.9405,0.1314559590640864,0.55311515475902
-3.94,0.142126133921769,0.8710143069140429
-3.9395,0.1314559590640864,1.104140351827727
-3.939,-0.3060212101009019,0.9451907757502149
-3.9385,-1.159635198715513,0.4153588554918433
-3.938,-1.917217613610981,-0.08268314955102604
-3.9375,-2.173301810195364,-0.3899856633008816
-3.937,-1.212986073003927,-0.5277419625680583
-3.9365,-0.02859666380115328,-0.5489352393783931
-3.936,0.825017324813458,-0.5595318777835605
-3.9355,1.230483969405398,-0.5171453241628908
-3.935,1.209143619690033,-0.2310360872233701
-3.9345,0.942389248247967,0.2776025562246667
-3.934,0.6542945270905358,0.6166949851900245
-3.9335,0.5689331282290746,0.8074344764830383
-3.933,0.6116138276598051,0.7332580076468663
-3.9325,0.6969752265212663,0.457745409112513
-3.932,0.6542945270905358,0.03387987290581572
-3.9315,0.5475927785137094,-0.4217755785163839
-3.931,0.3875401556484697,-0.792657922697244
-3.9305,-0.2526703358124887,-0.6443049850249
-3.93,-1.159635198715513,-0.1144730647665284
-3.9295,-1.821186039891837,0.3517790250608387
-3.929,-2.119950935906951,0.6484849004055269
-3.9285,-1.618452717595867,0.775644561267536
-3.928,-0.9142211769888124,0.6378882620003594
-3.9275,-0.3380317346739499,0.2246193641988295
-3.927,0.02475421048725994,-0.326405832869877
-3.9265,0.2061471830678648,-0.718481453861072
-3.926,0.2701682322139607,-0.8244478379127463
-3.9255,0.2701682322139607,-0.6972881770507372
-3.925,0.2488278824985954,-0.4111789401112165
-3.9245,0.2168173579255475,-0.05089323433552374
-3.924,0.1741366584948169,0.2987958330350016
-3.9235,0.1527963087794516,0.5955017083796896
-3.923,0.1314559590640864,0.7438546460520338
-3.9225,-0.1993194615240755,0.5001319627331828
-3.922,-0.9995825758502737,0.01268659609548085
-3.9215,-1.746494815888059,-0.3899856633008816
-3.921,-2.312014083345239,-0.6019184314042303
-3.9205,-1.778505340461106,-0.6231117082145651
-3.92,-0.5941159312583333,-0.4959520473525559
-3.9195,0.4195506802215176,-0.3899856633008816
-3.919,1.006410297394063,-0.2946159176543747
-3.9185,1.123782220828572,0.02328323450064829
-3.918,0.9317190733902845,0.4895353243280153
-3.9175,0.6756348768059011,0.8392243916985406
-3.917,0.5475927785137094,0.9028042221295453
-3.9165,0.5475927785137094,0.7544512844572011
-3.916,0.5262524287983441,0.5425185163538525
-3.9155,0.4729015545099309,0.2246193641988295
-3.915,0.4622313796522482,-0.1356663415768632
-3.9145,0.4942419042252961,-0.4323722169215513
-3.914,-0.03926683865883591,-0.3052125560595421
-3.9135,-0.8928808272734472,0.1292496185523226
-3.913,-1.661133417026597,0.5213252395435176
-3.9125,-2.19464215991073,0.7438546460520338
-3.912,-1.83185621474952,0.7862411996727035
-3.9115,-1.116954499284783,0.6484849004055269
-3.911,-0.4660738329661415,0.2670059178194992
-3.9105,-0.03926683865883591,-0.2840192792492073
-3.91,0.1848068333524996,-0.7608680074817418
-3.9095,0.2808384070716433,-0.9728007755850904
-3.909,0.291508581929326,-0.9304142219644207
-3.9085,0.2701682322139607,-0.6866915386455698
-3.908,0.2381577076409128,-0.3370024712750445
-3.9075,0.2168173579255475,0.05507314971615059
-3.907,0.1954770082101822,0.4047622170866759
-3.9065,0.1527963087794516,0.6802748156210291
-3.906,0.0674349099179905,0.8710143069140429
-3.9055,-0.5514352318276028,0.5955017083796896
-3.905,-1.415719395299897,0.08686306493165288
-3.9045,-2.109280761049269,-0.3052125560595421
-3.904,-1.917217613610981,-0.4959520473525559
-3.9035,-0.7968492535543035,-0.5277419625680583
-3.903,0.2808384070716433,-0.4959520473525559
-3.9025,0.9637295979633325,-0.4535654937318862
-3.902,1.177133095116985,-0.2628260024388724
-3.9015,1.038420821967111,0.1822328105781598
-3.901,0.7716664505250448,0.6590815388106942
-3.9005,0.5475927785137094,0.9028042221295453
-3.9,0.5475927785137094,0.9028042221295453
-3.8995,0.5262524287983441,0.7226613692416989
-3.899,0.4835717293676135,0.3941655786815084
-3.8985,0.4942419042252961,0.06566978812131802
-3.898,0.4835717293676135,-0.252229364033705
-3.8975,0.1848068333524996,-0.3581957480853793
-3.897,-0.6794773301197943,-0.008506680714854012
-3.8965,-1.46907026958831,0.3941655786815084
-3.896,-2.055929886760855,0.6696781772158616
-3.8955,-1.981238662757077,0.7862411996727035
-3.895,-1.30901764672307,0.7332580076468663
-3.8945,-0.6261264558313813,0.4471487707073456
-3.894,-0.1352984123779797,-0.08268314955102604
-3.8935,0.142126133921769,-0.6443049850249
-3.893,0.2701682322139607,-0.9728007755850904
-3.8925,0.3021787567870086,-1.025783967610927
-3.892,0.2808384070716433,-0.8456411147230812
-3.8915,0.2594980573562781,-0.5277419625680583
-3.891,0.2274875327832301,-0.1462629799820306
-3.8905,0.2061471830678648,0.2458126410091644
-3.89,0.1954770082101822,0.6166949851900245
-3.8895,0.1741366584948169,0.9451907757502149
-3.889,-0.274010685527854,0.8392243916985406
-3.8885,-1.148965023857831,0.3305857482505039
-3.888,-1.949228138184029,-0.1250697031716958
-3.8875,-2.344024607918286,-0.3899856633008816
-3.887,-1.426389570157579,-0.4535654937318862
