Class_1_Relax_eyes_closed/Class_1_Relax_eyes_closed_Suko_1.csv

#Digilent WaveForms Oscilloscope Acquisition
#Device Name: EExplorer
#Serial Number: SN:210151A2B84A
#Date Time: 2020-10-20 13:27:10.522
#Sample rate: 2000Hz
#Samples: 16384
#Trigger: Source: Channel 1 Type: Edge Condition: Rising Level: 0 V Hyst.: Auto HoldOff: 0 s
#Channel 1: Range: 1 V/div Offset: 0 V
#Channel 2: Range: 1 V/div Offset: 0 V

Time (s),Channel 1 (V),Channel 2 (V)
-4.0960000000000001,0.35552963107542179,0.15044289536265748
-4.0955000000000004,0.088775259633598391,-0.49595204735196802
-4.0949999999999998,-0.58344575640134932,-0.46416213213635005
-4.0945,-1.3516983461538008,0.30939247144016896
-4.0940000000000003,-1.4370597450151843,0.7756445612671119
-4.0934999999999997,-0.95690187641904823,0.72266136924146762
-4.093,-0.41272295867772835,0.46834204751768049
-4.0925000000000002,0.0034138607715161751,0.18223281057842
-4.0919999999999996,0.2381577076410098,-0.040296595930500875
-4.0914999999999999,0.34485945621773917,-0.19924617200786782
-4.0910000000000002,0.20614718306786484,-0.4535654937318862
-4.0904999999999996,-0.43406330839308394,-1.1105570748522382
-4.0899999999999999,-0.42339313353541097,-1.0787671596367647
-4.0895000000000001,-0.31669138495858457,-0.91981758355925325
-4.0890000000000004,-0.16730893695116347,-0.68669153864578181
-4.0884999999999998,-0.12462823752029703,-0.082683149551026042
-4.0880000000000001,-0.78617907869662074,0.81803111488820579
-4.0875000000000004,-1.7464948158871851,1.5280058880337779
-4.0869999999999997,-2.3226842582027172,1.9624680626462307
-4.0865,-2.0986105861915858,1.8988882322152838
-4.0860000000000003,-1.3090176467237884,1.2207033742851849
-4.0854999999999997,-0.49808435753868485,0.51072860113792606
-4.085,0.05676473506030786,0.044476511310983152
-4.0845000000000002,0.35552963107515007,-0.16745625679217274
-4.0839999999999996,0.4622313796522482,-0.16745625679224985
-4.0834999999999999,0.4622313796522482,-0.04029659593035631
-4.0830000000000002,0.43022085507920033,0.15044289536265748
-4.0824999999999996,0.47290155450992116,0.25640927941450525
-4.0819999999999999,0.4622313796522482,0.4471487707073456
-4.0815000000000001,0.43022085507920033,0.68027481562102909
-4.0810000000000004,0.38754015564850852,0.90280422212934286
-4.0804999999999998,0.35552963107542179,1.0617537982070568
-4.0800000000000001,0.36619980593310447,0.90280422212954525
-4.0795000000000003,0.43022085507914209,0.17163617217365734
-4.0789999999999997,0.28083840707115809,-0.62311170821507589
-4.0785,-0.25267033581248871,-1.1847335436884392
-4.0780000000000003,-1.1276246741416696,-1.2165234589039127
-4.0774999999999997,-1.6931439415993736,-0.46416213213650426
-4.077,-1.3943790455845313,0.13984625695749003
-4.0765000000000002,-0.78617907869717385,0.38356894027611937
-4.0759999999999996,-0.23132998609679351,0.37297230187103864
-4.0754999999999999,0.13145595906408636,0.2246193641988295
-4.0750000000000002,0.31284893164469124,0.033879872905815719
-4.0744999999999996,0.38754015564846001,-0.17805289519768713
-4.0739999999999998,0.3768699807907871,-0.34759910968021185
-4.0735000000000001,0.34485945621773917,-0.47475877054222104
-4.0730000000000004,0.31284893164472038,-0.53833860097316777
-4.0724999999999998,0.28083840707164331,-0.55953187778356051
-4.0720000000000001,-0.13529841237797968,-0.70788481545590454
-4.0715000000000003,-1.0742737998531982,-0.45356549373211752
-4.0709999999999997,-1.6611334170271408,0.58490506997527392
-4.0705,-2.2586632090568255,1.4114428655775821
-4.0700000000000003,-2.2373228593414796,1.8035184865684206
-4.0694999999999997,-1.4050492204414862,1.5174092496286393
-4.069,-0.6047861061160158,0.83922439169854057
-4.0685000000000002,-0.049937013516518552,0.19282944898332721
-4.0679999999999996,0.2594980573564139,-0.16745625679244261
-4.0674999999999999,0.40888050536383502,-0.25222936403370499
-4.0670000000000002,0.44089102993688295,-0.15685961838719809
-4.0664999999999996,0.4408910299369509,0.044476511311089165
-4.0659999999999998,0.51558225394066137,0.16103953376782493
-4.0655000000000001,0.60094365280212259,0.26700591781949923
-4.0650000000000004,0.56893312822910369,0.46834204751749742
-4.0644999999999998,0.49424190422529612,0.70146809243136399
-4.0640000000000001,0.43022085507920033,0.9134008605347127
-4.0635000000000003,0.51558225394058377,0.88161094531923923
-4.0629999999999997,1.1237822208288437,0.21402272579293927
-4.0625,1.4225471168436858,-0.5807251545938954
-4.0620000000000003,1.0917716962558248,-1.1847335436878899
-4.0614999999999997,0.088775259632346518,-1.3224898429549699
-4.0609999999999999,-1.0209229255656389,-0.61251506980939763
-4.0605000000000002,-1.2343264227192918,0.11865298014715518
-4.0599999999999996,-0.85020012784228005,0.44714877070736486
-4.0594999999999999,-0.3700422592469978,0.46834204751768049
-4.0590000000000002,0.014084035629577295,0.33058574825050385
-4.0585000000000004,0.23815770764070898,0.11865298014734796
-4.0579999999999998,0.34485945621773917,-0.093279787956193475
-4.0575000000000001,0.3768699807907871,-0.29461591765437467
-4.0570000000000004,0.35552963107544122,-0.46416213213689939
-4.0564999999999998,0.33418928136005654,-0.5807251545938954
-4.056,0.30217875678700862,-0.63370834661973252
-4.0555000000000003,0.25949805735631687,-0.55953187778362801
-4.0549999999999997,-0.12462823752092782,-0.029699957524475695
-4.0545,-0.81818960326966872,0.75445128445720111
-4.0540000000000003,-1.2663369472919324,1.3584596735511956
-4.0534999999999997,-1.7891755153183719,0.81803111488759861
-4.0529999999999999,-1.3303579964384356,0.15044289536265748
-4.0525000000000002,-0.71148785469284226,-0.33700247127504446
-4.0519999999999996,-0.24200016095443733,-0.63370834661966502
-4.0514999999999999,0.16346648363713429,-0.55953187778356051
-4.0510000000000002,0.38754015564846972,-0.3581957480853793
-4.0505000000000004,0.41955068022148856,-0.18864953360285458
-4.0499999999999998,0.38754015564846972,0.023283234500648287
-4.0495000000000001,0.3982103305061524,0.20342608738849466
-4.0490000000000004,0.45156120479451706,0.29879583303491486
-4.0484999999999998,0.45156120479454614,0.48953532432821772
-4.048,0.43022085507920033,0.71206473083653143
-4.0475000000000003,0.40888050536385445,0.91340086053452962
-4.0469999999999997,0.40888050536416498,1.0299638829911111
-4.0465,0.77166645052504479,0.54251851635385251
-4.0460000000000003,1.5932699145658606,-0.36879238648971802
-4.0454999999999997,2.329511979746361,-1.1105570748520839
-4.0449999999999999,1.9453856848701352,-0.9092209451540858
-4.0445000000000002,0.41955068022151765,0.076266426526485451
-4.0439999999999996,-0.74349837926603579,0.82862775329332494
-4.0434999999999999,-0.90355100213112993,0.775644561267536
-4.0430000000000001,-0.6047861061160158,0.38356894027634103
-4.0425000000000004,-0.22065981123979023,-0.029699957524813025
-4.0419999999999998,0.078105084775673142,-0.32640583286987701
-4.0415000000000001,0.24882788249859539,-0.50654868575772338
-4.0410000000000004,0.33418928135997894,-0.5807251545938279
-4.0404999999999998,0.35552963107540236,-0.55953187778350266
-4.04,0.33418928136005654,-0.49595204735255594
-4.0395000000000003,0.31284893164471067,-0.37938902489582016
-4.0389999999999997,0.28083840707145891,-0.25222936403341589
-4.0385,0.078105084775673142,0.065669788121318018
-4.0380000000000003,-0.62612645583074078,0.75445128445657472
-4.0374999999999996,-1.3730386958694862,1.4114428655778906
-4.0369999999999999,-1.7251544661726932,1.75053529454294
-4.0365000000000002,-1.3196878215807528,1.3054764815259077
-4.0359999999999996,-0.69014750497753519,0.63788826199936677
-4.0354999999999999,-0.75416855412357298,-0.4535654937318862
-4.0350000000000001,-0.51942470725455481,-0.80325456110241145
-4.0345000000000004,-0.22065981123971257,-0.69728817705083357
-4.0339999999999998,-0.028596663801153277,-0.42177557851638392
-4.0335000000000001,0.21681735792554749,0.033879872905815719
-4.0330000000000004,0.36619980593296864,0.44714877070696973
-4.0324999999999998,0.38754015564846001,0.62729162359533652
-4.032,0.3768699807907871,0.78624119967270345
-4.0315000000000003,0.36619980593311419,0.96638405256038595
-4.0309999999999997,0.34485945621773917,1.1147369902329616
-4.0305,0.34485945621773917,1.1889134590690658
-4.0300000000000002,0.4195506802214497,0.7862411996730696
-4.0294999999999996,0.49424190422509234,-0.14626297998284019
-4.0289999999999999,0.27016823221396069,-1.0363806060160949
-4.0285000000000002,-0.12462823752029703,-1.4178595886021226
-4.0279999999999996,-0.19931946152434726,-1.1741369052834163
-4.0274999999999999,-0.4980843575391895,-1.333086481360783
-4.0270000000000001,-0.70081767983515975,-1.2165234589039415
-4.0265000000000004,-0.47674400782402804,-0.69728817705120949
-4.0259999999999998,-0.15663876209334496,-0.24163272562853755
-4.0255000000000001,0.099445434491038431,-0.019103319120021445
-4.0250000000000004,0.25949805735613252,-0.019103319120021445
-4.0244999999999997,0.33418928136007597,-0.16745625679254861
-4.024,0.35552963107542179,-0.36879238649054674
-4.0235000000000003,0.34485945621774888,-0.57012851618854488
-4.0229999999999997,0.31284893164467181,-0.7396747306715129
-4.0225,0.29150858192932599,-0.85623775312824868
-4.0220000000000002,0.20614718306794247,-0.78206128429214405
-4.0214999999999996,-0.17797911180912754,-0.16745625679169088
-4.0209999999999999,-0.63679663068906378,0.57430843156935485
-4.0205000000000002,-1.0742737998540521,1.1677201822587309
-4.0199999999999996,-1.2876772970073849,1.3478630351461438
-4.0194999999999999,-0.93556152670417769,0.87101430691404291
-4.0190000000000001,-0.43406330839309365,0.16103953376782493
-4.0185000000000004,0.0034138607714967462,-0.40058230170553827
-4.0179999999999998,0.27016823221396069,-0.62311170821456507
-4.0175000000000001,0.18480683335249956,-0.77146464588690922
-4.0170000000000003,-0.380712434104166,-1.1423469900674321
-4.0164999999999997,-0.29535103524306405,-0.7714646458866008
-4.016,-0.12462823752029703,-0.43237221692155131
-4.0155000000000003,0.11011560934850759,-0.061489872741028517
-4.0149999999999997,0.33418928136012449,0.47893868592322375
-4.0145,0.40888050536383502,0.89220758372437781
-4.0140000000000002,0.37686998079081624,1.1465269054481646
-4.0134999999999996,0.36619980593322093,1.2736865663100487
-4.0129999999999999,0.49424190422529612,0.88161094531921036
-4.0125000000000002,0.49424190422529612,0.023283234500648287
-4.0119999999999996,0.19547700820966785,-0.6125150698090025
-4.0114999999999998,-0.3700422592469978,-0.17805289519753292
-4.0110000000000001,-1.2876772970077051,0.68027481562102909
-4.0105000000000004,-1.5330913187341826,1.0511571598015521
-4.0099999999999998,-1.0849439747117349,0.75445128445720111
-4.0095000000000001,-0.50875453239687207,0.28819919462983412
-4.0090000000000003,-0.049937013516935858,-0.13566634157647767
-4.0084999999999997,0.22748753278335626,-0.41117894011136102
-4.008,0.36619980593310447,-0.57012851618872795
-4.0075000000000003,0.39821033050612331,-0.63370834661967468
-4.0069999999999997,0.37686998079075801,-0.61251506980931092
-4.0065,0.34485945621773917,-0.51714532416289083
-4.0060000000000002,0.31284893164469124,-0.41117894011121647
-4.0054999999999996,0.27016823221358222,-0.23103608722288821
-4.0049999999999999,-0.14596858723566233,0.29879583303500157
-4.0045000000000002,-0.98891240099259115,1.0405605213967219
-4.0039999999999996,-1.7678351656036471,1.6445689104914101
-4.0034999999999998,-2.0132491873301248,1.8035184865687772
-4.0030000000000001,-1.3943790455845313,1.33726639674141
-4.0025000000000004,-0.66880715526277168,0.73325800764741567
-4.0019999999999998,-0.092617712947249131,0.25640927941433178
-4.0015000000000001,0.25949805735627807,-0.019103319120021445
-4.0010000000000003,0.4195506802213721,-0.040296595930337034
-4.0004999999999997,0.46223137965222877,0.086863064931845632
-4,0.44089102993688295,0.29879583303500157
-3.9994999999999998,0.43022085507920033,0.50013196273318283
-3.9990000000000001,0.32351910650237387,0.47893868592284788
-3.9984999999999999,-0.30602121010090194,0.033879872905815719
-3.9980000000000002,-0.30602121010090194,0.2246193641988295
-3.9975000000000001,-0.19931946152407554,0.50013196273318283
-3.9969999999999999,-0.06060718837420119,0.73325800764686633
-3.9965000000000002,0.15279630877945163,0.62729162359519197
-3.996,0.29150858192932599,-0.18864953360270037
-3.9954999999999998,0.19547700821018218,-1.1847335436884392
-3.9950000000000001,-0.43406330839309365,-1.9582881472656615
-3.9944999999999999,-1.4797404444459925,-2.4033469602826938
-3.9940000000000002,-1.7464948158880587,-2.1278343617483406
-3.9935,-1.2449965975769743,-1.2377167357142764
-3.9929999999999999,-0.58344575640065055,-0.44296885532671876
-3.9925000000000002,-0.071277363231883828,0.012686596095480854
-3.992,0.24882788249859539,0.15044289536265748
-3.9914999999999998,0.3768699807907871,0.065669788121318018
-3.9910000000000001,0.40888050536383502,-0.13566634157686319
-3.9904999999999999,0.38754015564846972,-0.34759910968021185
-3.9900000000000002,0.35552963107542179,-0.53833860097322561
-3.9895,0.33418928136005654,-0.6972881770507372
-3.9889999999999999,0.30217875678700862,-0.80325456110241145
-3.9885000000000002,0.19547700821018218,-0.63370834661973252
-3.988,-0.12462823752029703,0.012686596095480854
-3.9874999999999998,-0.51942470725455481,0.74385464605203377
-3.9870000000000001,-0.96757205127722568,1.3160731199310751
-3.9864999999999999,-1.0742737998540521,1.2736865663104053
-3.9860000000000002,-0.67947733011979428,0.57430843156935485
-3.9855,-0.22065981123944084,-0.13566634157686319
-3.9849999999999999,0.11011560934872107,-0.57012851618872795
-3.9845000000000002,0.31284893164469124,-0.6972881770507372
-3.984,0.3982103305061524,-0.59132179299906285
-3.9834999999999998,0.41955068022151765,-0.3581957480853793
-3.9830000000000001,0.40888050536383502,-0.072086511145858609
-3.9824999999999999,0.4622313796522482,0.12924961855232261
-3.9820000000000002,0.4835717293676135,0.37297230187117358
-3.9815,0.45156120479456557,0.66967817721586165
-3.9809999999999999,0.40888050536383502,0.93459413734504748
-3.9805000000000001,0.16346648363713429,0.95578741415538238
-3.98,-0.47674400782382426,0.47893868592284788
-3.9794999999999998,-0.58344575640065055,0.30939247144016896
-3.9790000000000001,-0.91422117698881245,-0.27342264084403983
-3.9784999999999999,-1.1382948490001481,-0.48535540894738849
-3.9780000000000002,-1.3623685210114835,0.30939247144016896
-3.9775,-1.8638667393225676,1.1147369902328941
-3.9769999999999999,-1.618452717595867,1.146526905448396
-3.9765000000000001,-0.95690187641954316,0.69087145402619654
-3.976,-0.33803173467394987,0.18223281057815977
-3.9754999999999998,0.08877525963335578,-0.19924617200786782
-3.9750000000000001,0.32351910650237387,-0.43237221692155131
-3.9744999999999999,0.41955068022151765,-0.52774196256805828
-3.9740000000000002,0.44089102993688295,-0.53833860097322561
-3.9735,0.3982103305061524,-0.48535540894738849
-3.9729999999999999,0.35552963107542179,-0.37938902489571413
-3.9725000000000001,0.31284893164469124,-0.25222936403370499
-3.972,0.22748753278323011,0.012686596095480854
-3.9714999999999998,-0.31669138495858457,0.62729162359519197
-3.9710000000000001,-0.88221065241576446,1.241896651094903
-3.9704999999999999,-1.1703053735731959,1.7293420177326051
-3.9700000000000002,-1.2663369472923398,1.8776949554049489
-3.9695,-0.86087030270039921,1.4114428655775821
-3.9689999999999999,-0.34870190953163249,0.74385464605203377
-3.9685000000000001,0.05676473506030786,0.23521600260399694
-3.968,0.30217875678700862,-0.0085066807148540119
-3.9674999999999998,0.40888050536383502,-0.04029659593035631
-3.9670000000000001,0.44089102993688295,0.065669788121318018
-3.9664999999999999,0.43022085507920033,0.23521600260399694
-3.9660000000000002,0.45156120479456557,0.37297230187117358
-3.9655,0.47290155450993088,0.50013196273318283
-3.9649999999999999,0.45156120479456557,0.6590815388106942
-3.9645000000000001,0.43022085507920033,0.75445128445720111
-3.964,0.44089102993688295,0.80743447648303834
-3.9634999999999998,0.4835717293676135,0.70146809243136399
-3.9630000000000001,0.62228400251748783,0.10805634174198775
-3.9624999999999999,0.6116138276598051,-0.55953187778356051
-3.9620000000000002,-0.11395806266261441,-1.5450192494641319
-3.9615,-1.1382948490001481,-2.2549940226103495
-3.9609999999999999,-1.9598983130417114,-2.4881200675240334
-3.9605000000000001,-1.9492281381840288,-2.0536578929121685
-3.96,-1.2449965975769743,-1.1105570748522671
-3.9594999999999998,-0.46607383296614152,-0.29461591765437467
-3.9590000000000001,0.014084035629577295,0.086863064931652884
-3.9584999999999999,0.25949805735627807,0.16103953376782493
-3.9580000000000002,0.3768699807907871,0.076266426526485451
-3.9575,0.40888050536383502,-0.093279787956193475
-3.9569999999999999,0.38754015564846972,-0.26282600243887239
-3.9565000000000001,0.36619980593310447,-0.40058230170604903
-3.956,0.34485945621773917,-0.49595204735255594
-3.9554999999999998,0.30217875678700862,-0.48535540894738849
-3.9550000000000001,-0.22065981123944084,-0.019103319120021445
-3.9544999999999999,-1.1169544992847826,0.70146809243136399
-3.9540000000000002,-1.5437614935920885,1.2948798431207402
-3.9535,-1.554431668449771,1.6127789952757632
-3.9529999999999998,-1.0102527507079564,1.2630899279052379
-3.9525000000000001,-0.3700422592469978,0.52132523954351762
-3.952,0.099445434491038431,-0.10387642636136091
-3.9514999999999998,0.35552963107542179,-0.47475877054222104
-3.9510000000000001,0.4622313796522482,-0.55953187778356051
-3.9504999999999999,0.47290155450993088,-0.47475877054222104
-3.9500000000000002,0.45156120479456557,-0.26282600243887239
-3.9495,0.44089102993688295,-0.050893234335523743
-3.9489999999999998,0.47290155450993088,0.11865298014715518
-3.9485000000000001,0.45156120479456557,0.35177902506083869
-3.948,0.41955068022151765,0.59550170837968963
-3.9474999999999998,0.3982103305061524,0.80743447648303834
-3.9470000000000001,0.3982103305061524,0.93459413734504748
-3.9464999999999999,0.82501732481345802,0.58490506997452218
-3.9460000000000002,1.6146102642819735,-0.082683149551026042
-3.9455,2.1054383077353749,-0.64430498502489997
-3.9449999999999998,1.742652362574165,-0.99399405239542526
-3.9445000000000001,0.29150858192932599,-1.4072629501969551
-3.944,-1.1489650238578306,-1.7887419327829828
-3.9434999999999998,-1.1703053735731959,-1.0469772444212624
-3.9430000000000001,-0.82885977812735145,-0.34759910968021185
-3.9424999999999999,-0.38071243410468042,0.16103953376782493
-3.9420000000000002,0.067434909917990504,0.47893868592284788
-3.9415,0.29150858192932599,0.46834204751768049
-3.9409999999999998,0.34485945621773917,0.26700591781949923
-3.9405000000000001,0.35552963107542179,0.033879872905815719
-3.9399999999999999,0.33418928136005654,-0.18864953360270037
-3.9394999999999998,0.32351910650237387,-0.37938902489571413
-3.9390000000000001,0.31284893164469124,-0.50654868575772338
-3.9384999999999999,0.23815770764091276,-0.4641621321370536
-3.9380000000000002,-0.15663876209334496,0.097459703336820316
-3.9375,-0.8502001278427167,0.76504792286236856
-3.9369999999999998,-1.618452717595867,1.2736865663104053
-3.9365000000000001,-1.7251544661726932,1.2101067358794007
-3.9359999999999999,-1.1489650238578306,0.51072860113835017
-3.9355000000000002,-0.4980843575391895,-0.25222936403370499
-3.9350000000000001,0.0034138607718946501,-0.77146464588690922
-3.9344999999999999,0.29150858192932599,-0.99399405239542526
-3.9340000000000002,0.43022085507920033,-0.95160749877475548
-3.9335,0.4622313796522482,-0.75027136907657432
-3.9329999999999998,0.45156120479456557,-0.47475877054222104
-3.9325000000000001,0.4835717293676135,-0.25222936403370499
-3.9319999999999999,0.47290155450993088,0.044476511310983152
-3.9315000000000002,0.44089102993688295,0.36237566346600614
-3.931,0.40888050536383502,0.68027481562102909
-3.9304999999999999,0.38754015564846972,0.94519077575021493
-3.9300000000000002,0.41955068022151765,0.83922439169854057
-3.9295,0.38754015564846972,0.27760255622466667
-3.9289999999999998,-0.12462823752029703,-0.27342264084403983
-3.9285000000000001,-0.77550890383893822,-0.47475877054222104
