Class_1_Relax_eyes_closed/Class_1_Relax_Eyes_closed_Zakour_2.csv

#Digilent WaveForms Oscilloscope Acquisition
#Device Name: EExplorer
#Serial Number: SN:210151A2B84A
#Date Time: 2020-10-27 13:51:17.086
#Sample rate: 2000Hz
#Samples: 16384
#Trigger: Source: Channel 1 Type: Edge Condition: Rising Level: 0 V Hyst.: Auto HoldOff: 0 s
#Channel 1: Range: 1 V/div Offset: 0 V Attenuation: 1 X
#Channel 2: Range: 1 V/div Offset: 0 V Attenuation: 1 X
#Power Supplies: ON
#Fixed Supply: ON
#Voltage: 3.3 V Readback: 3.315 V
#Positive Supply: ON
#Voltage: 3.7 V Readback: 3.714 V
#Current: 500 mA Readback: 21 mA
#Negative Supply: ON
#Voltage: -3.7 V Readback: -3.706 V
#Current: -500 mA Readback: -7 mA
#Reference 1: ON
#Voltage: 0 V
#Reference 2: ON
#Voltage: 0 V

Time (s),Channel 1 (V),Channel 2 (V)
-4.096,0.2168173579255475,0.8922075837243778
-4.0955,0.3768699807906415,0.3093924714406989
-4.095,0.7289857510949257,-0.4535654937325801
-4.0945,1.401206767128321,-1.216523458903942
-4.094,2.020076908873351,-1.820531847997936
-4.0935,2.265490930600023,-2.127834361747926
-4.093,1.614610264281974,-1.672178910326141
-4.0925,0.8036769750988303,-0.8668343915341485
-4.092,0.1527963087790732,-0.2204394488178268
-4.0915,-0.2633405106701714,0.1928294489833272
-4.091,-0.4340633083930936,0.383568940276341
-4.0905,-0.4874141826815166,0.4153588554918048
-4.09,-0.4980843575391895,0.3729723018711736
-4.0895,-0.5087545323968721,0.2987958330350016
-4.089,-0.700817679834985,0.2670059178195281
-4.0885,-0.7008176798351597,0.4683420475176805
-4.088,-0.5941159312583333,0.6590815388106942
-4.0875,-0.476744007823931,0.7544512844571144
-4.087,-0.3913826089620525,0.7862411996725107
-4.0865,-0.04993701351651855,0.5743084315693548
-4.086,0.8036769750973164,-0.1674562567916908
-4.0855,1.678631313428176,-0.9092209451544134
-4.085,1.796003236862578,-1.269506650929778
-4.0845,0.515582253941826,-1.375473034981356
-4.084,-0.9462317015623845,-1.343683119765632
-4.0835,-1.522421143876723,-0.9939940523954253
-4.083,-1.362368521011484,-0.1250697031716958
-4.0825,-0.9675720512769054,0.7650479228629372
-4.082,-0.6154562809736985,1.390249588767247
-4.0815,-0.3807124341046804,1.729342017732605
-4.081,-0.2526703358126052,1.824711763379025
-4.0805,-0.156638762093345,1.729342017732605
-4.08,-0.02859666380115328,1.453829419198252
-4.0795,0.1634664836369596,0.9981739677764665
-4.079,0.3448594562179915,0.3623756634652641
-4.0785,0.6222840025174878,-0.4535654937318862
-4.078,1.219813794547172,-1.216523458903248
-4.0775,1.817343586578283,-1.831128486404009
-4.077,2.190799706596836,-2.223204107394847
-4.0765,1.763992712289919,-2.085447808127796
-4.076,0.9210488985319903,-1.248313374118759
-4.0755,0.2488278824985954,-0.4959520473525559
-4.075,-0.1993194615240755,0.02328323450064829
-4.0745,-0.4127229586777866,0.2881991946299305
-4.074,-0.4767440078238243,0.3941655786815084
-4.0735,-0.4874141826815069,0.3623756634660061
-4.073,-0.476744007823834,0.2881991946299016
-4.0725,-0.6474668055467465,0.1610395337678249
-4.072,-0.807519428411986,0.3941655786815084
-4.0715,-0.7328282044082755,0.7014680924310845
-4.071,-0.7008176798350627,0.9345941373450957
-4.0705,-0.5941159312583333,0.9875773293708847
-4.07,-0.6047861061160061,0.7862411996728865
-4.0695,-0.2420001609539618,0.02328323449986764
-4.069,0.6863050516635838,-0.8350444763179138
-4.0685,1.390536592270638,-1.439052865412457
-4.068,0.6756348768047462,-1.725162102351988
-4.0675,-0.5941159312583333,-1.735758740757146
-4.067,-1.170305373573196,-1.396666311791788
-4.0665,-1.106284324426857,-0.5701285161878799
-4.066,-0.839529952985034,0.3623756634660061
-4.0655,-0.5621054066852853,1.072350436612224
-4.065,-0.3700422592471725,1.485619334413378
-4.0645,-0.2633405106701714,1.644568910491266
-4.064,-0.1993194615240755,1.623375633680931
-4.0635,-0.1032878878050191,1.453829419198406
-4.063,0.07810508477584782,1.146526905447943
-4.0625,0.2701682322139607,0.6484849004055269
-4.062,0.4729015545097465,-0.06148987274004547
-4.0615,0.9210488985332131,-0.8562377531288655
-4.061,1.593269914566608,-1.534422611058964
-4.0605,2.137448832308423,-2.021867977696666
-4.06,2.265490930600071,-1.958288147264958
-4.0595,1.667961138570387,-1.184733543688439
-4.059,0.857027849386506,-0.4641621321370536
-4.0585,0.2274875327838026,0.05507314971567834
-4.058,-0.1779791118087102,0.309392471440169
-4.0575,-0.3700422592469978,0.3305857482505039
-4.057,-0.4554036581083812,0.2776025562247149
-4.0565,-0.4874141826815069,0.2246193641988295
-4.056,-0.5834457564006506,0.1822328105781598
-4.0555,-0.7328282044080716,0.3517790250606845
-4.055,-0.7008176798351597,0.6908714540263989
-4.0545,-0.7008176798351597,0.9134008605347127
-4.054,-0.6581369804044679,1.051157159801764
-4.0535,-0.6688071552620536,1.104140351827168
-4.053,-0.6047861061160158,0.4895353243280153
-4.0525,0.2701682322139607,-0.4641621321370536
-4.052,1.2091436196898,-1.195330182093963
-4.0515,0.9530594231056497,-1.587405803084801
-4.051,-0.3487019095316325,-1.672178910326141
-4.0505,-1.341028171295216,-1.43905286541267
-4.05,-1.437059745015262,-0.6443049850249
-4.0495,-1.127624674142465,0.309392471440169
-4.049,-0.7541685541239127,1.040560521396057
-4.0485,-0.476744007823669,1.485619334413918
-4.048,-0.3060212101009019,1.6657621873016
-4.0475,-0.2206598112395185,1.6657621873016
-4.047,-0.1246282375201612,1.517409249628977
-4.0465,0.02475421048725994,1.210106735879401
-4.046,0.1954770082100269,0.7968378380782468
-4.0455,0.3555296310757032,0.2034260873877911
-4.045,0.6649647019482183,-0.570128516188728
-4.0445,1.326515543124542,-1.301296566145281
-4.044,1.956055859728051,-1.884111678429808
-4.0435,2.212140056312201,-2.233800745800015
-4.043,1.443887466559051,-1.990078062481164
-4.0425,0.5796033030875434,-1.110557074853067
-4.042,-0.03926683865883591,-0.3475991096802118
-4.0415,-0.3700422592469978,0.1504428953626575
-4.041,-0.498084357539073,0.3729723018709712
-4.0405,-0.5194247072545354,0.4471487707073745
-4.04,-0.4980843575391895,0.4789386859228479
-4.0395,-0.5087545323968624,0.4789386859228479
-4.039,-0.7328282044082851,0.4577454091127347
-4.0385,-0.8181896032696687,0.701468092431364
-4.038,-0.7114878546929393,0.7968378380777842
-4.0375,-0.7114878546928617,0.7968378380779191
-4.037,-0.7328282044082075,0.849821030103708
-4.0365,-0.5300948821122373,0.627291623595192
-4.036,0.344859456218632,-0.1674562567931172
-4.0355,1.326515543124542,-0.9939940523954253
-4.035,1.571929564851243,-1.523825972653797
-4.0345,0.4302208550802387,-1.756952017567268
-4.034,-0.6154562809736985,-1.619195718300304
-4.0335,-0.9248913518464952,-0.8350444763179138
-4.033,-0.8395299529851116,0.1292496185514457
-4.0325,-0.6367966306888988,0.8922075837248115
-4.032,-0.4554036581084589,1.369056311956912
-4.0315,-0.3273615598163837,1.591585718465226
-4.031,-0.2633405106701132,1.623375633680844
-4.0305,-0.1993194615240755,1.528005888034424
-4.03,-0.02859666380130854,1.252493289500321
-4.0295,0.1207857842065881,0.8816109453188827
-4.029,0.3235191065023739,0.5213252395435176
-4.0285,0.6009436528021226,0.03387987290581572
-4.028,1.166462920259885,-0.7078848154565309
-4.0275,1.806673411720261,-1.396666311791788
-4.027,2.244150580885249,-1.905304955239825
-4.0265,1.849354111151351,-1.937094870455298
-4.026,0.942389248247967,-1.184733543688439
-4.0255,0.2168173579255475,-0.400582301706049
-4.025,-0.2313299860967159,0.1186529801466829
-4.0245,-0.4233931335354498,0.4259554938970975
-4.024,-0.4660738329661415,0.5213252395435176
-4.0235,-0.4660738329661415,0.4789386859228865
-4.023,-0.4660738329662677,0.4365521323021396
-4.0225,-0.6047861061160158,0.3941655786815084
-4.022,-0.7114878546927452,0.5531151547588754
-4.0215,-0.807519428412345,0.7756445612677481
-4.021,-1.202315898146244,1.00877060618122
-4.0205,-1.212986073003927,1.061753798207057
-4.02,-1.063603624995817,0.8286277532926407
-4.0195,-0.4554036581084589,0.02328323450064829
-4.019,0.6542945270905358,-0.8668343915334161
-4.0185,1.507908515704371,-1.417859588601621
-4.018,0.9103787236749192,-1.598002441489969
-4.0175,-0.2206598112394408,-1.545019249464132
-4.017,-0.7221580295500689,-0.9622041371804529
-4.0165,-0.7755089038388121,-0.008506680714073367
-4.016,-0.6367966306890638,0.849821030103708
-4.0155,-0.4767440078239699,1.422039503982229
-4.015,-0.3593720843892472,1.729342017732701
-4.0145,-0.2846808603855366,1.835308401784279
-4.014,-0.231329986097172,1.782325209758491
-4.0135,-0.1139580626624397,1.570392441654737
-4.013,0.07810508477567314,1.178316820663898
-4.0125,0.2488278824985954,0.7120647308365314
-4.012,0.4088805053641941,0.06566978812062411
-4.0115,0.8036769750980928,-0.6972881770507372
-4.011,1.454557641416734,-1.396666311791788
-4.0105,2.0200769088734,-1.947691508859993
-4.01,2.030747083731597,-2.17022091536901
-4.0095,1.145122570543937,-1.598002441489969
-4.009,0.3875401556491587,-0.7714646458876609
-4.0085,-0.1032878878051744,-0.1462629799817415
-4.008,-0.3700422592469978,0.1716361721729923
-4.0075,-0.4767440078237272,0.2458126410090969
-4.007,-0.4980843575391798,0.2246193641987909
-4.0065,-0.4874141826815069,0.1822328105781598
-4.006,-0.5621054066852853,0.13984625695749
-4.0055,-0.8288597781274096,0.1610395337681622
-4.005,-0.8928808272734472,0.5319218779486851
-4.0045,-0.8608703027003992,0.9134008605347127
-4.004,-0.732828204408159,1.146526905448357
-4.0035,-0.6794773301197943,1.104140351827727
-4.003,-1.138294849000148,0.4365521323021782
-4.0025,-1.575772018164738,-0.5277419625671813
-4.002,-0.9142211769888124,-1.258910012524611
-4.0015,-0.4660738329661415,-1.576809164679634
-4.001,-1.04226327528048,-1.672178910326054
-4.0005,-1.49041061930352,-1.52382597265319
-4,-1.319687821580753,-0.8562377531282487
-3.9995,-0.9462317015618604,0.07626642652648545
-3.999,-0.6047861061160158,0.8392243916985406
-3.9985,-0.3807124341046804,1.316073119931075
-3.998,-0.2526703358124887,1.528005888034424
-3.9975,-0.2099896363817582,1.528005888034424
-3.997,-0.1139580626626144,1.305476481525908
-3.9965,0.01408403562957729,0.9769806909657173
-3.996,0.1207857842064037,0.7226613692416989
-3.9955,0.3982103305061524,0.2034260873884947
-3.995,0.79300680024041,-0.5913217929990628
-3.9945,1.433217291701369,-1.322489842955616
-3.994,2.030747083731597,-1.905304955239825
-3.9935,2.340182154604393,-2.202010830584512
-3.993,1.785333062004896,-1.735758740757146
-3.9925,0.942389248247967,-0.8986243067489184
-3.992,0.2381577076409128,-0.2204394488182027
-3.9915,-0.1993194615240755,0.2352160026039969
-3.991,-0.423393133535411,0.4895353243280153
-3.9905,-0.4874141826815069,0.5425185163538525
-3.99,-0.4874141826815069,0.4365521323021782
-3.9895,-0.5087545323968721,0.309392471440169
-3.989,-0.7114878546928423,0.2776025562246667
-3.9885,-0.7648387289812555,0.701468092431364
-3.988,-0.658136980404429,1.135930267043229
-3.9875,-0.6261264558313813,1.167720182258731
-3.987,-0.5514352318276028,1.114736990232894
-3.9865,-0.3807124341046804,0.8392243916985406
-3.986,0.408880505363835,0.002089957690313421
-3.9855,1.347855892839907,-0.8668343915334161
-3.985,1.625280439139656,-1.354279758171118
-3.9845,0.4622313796522482,-1.576809164679634
-3.984,-0.7648387289812555,-1.555615887869299
-3.9835,-1.138294849000148,-1.078767159636765
-3.983,-1.010252750707956,-0.1780528951975329
-3.9825,-0.7434983792658902,0.6802748156210291
-3.982,-0.5087545323968721,1.263089927905238
-3.9815,-0.3487019095316325,1.570392441655093
-3.981,-0.2633405106701714,1.6657621873016
-3.9805,-0.1673089369510276,1.591585718465428
-3.98,0.05676473506030786,1.263089927905238
-3.9795,0.1848068333524996,0.9451907757502149
-3.979,0.3341892813600565,0.5319218779486851
-3.9785,0.5796033030867573,-0.1568596183871981
-3.978,1.102441871113207,-0.9304142219644207
-3.9775,1.76399271228953,-1.598002441489969
-3.977,2.244150580885249,-2.064254531317336
-3.9765,2.009406734016231,-1.926498232050159
-3.976,1.19847344483235,-1.121153713257435
-3.9755,0.4515612047945656,-0.4111789401112165
-3.975,-0.06060718837420119,0.08686306493165288
-3.9745,-0.3487019095316325,0.3729723018711736
-3.974,-0.4447334832507763,0.457745409112513
-3.9735,-0.4767440078238243,0.4153588554918433
-3.973,-0.4767440078238243,0.3305857482505039
-3.9725,-0.6047861061160158,0.2564092794143318
-3.972,-0.8502001278427167,0.4683420475176805
-3.9715,-0.9355615267041777,0.6696781772158616
-3.971,-0.8928808272734472,0.8392243916985406
-3.9705,-0.7328282044082075,0.9345941373450475
-3.97,-0.5941159312583333,0.8286277532933731
-3.9695,-0.07127736323188383,0.1928294489833272
-3.969,0.9103787236749192,-0.6866915386455698
-3.9685,1.678631313428069,-1.333086481360783
-3.968,1.123782220828572,-1.650985633515806
-3.9675,-0.3273615598162672,-1.682775548731308
-3.967,-1.223656247861609,-1.354279758171118
-3.9665,-1.287677297007705,-0.474758770542221
-3.966,-1.010252750707956,0.4895353243280153
-3.9655,-0.690147504977477,1.199510097474233
-3.965,-0.4447334832507763,1.612778995275763
-3.9645,-0.3060212101009019,1.782325209758442
-3.964,-0.2313299860971235,1.771728571353275
-3.9635,-0.1352984123779797,1.591585718465428
-3.963,-0.04993701351651855,1.326669758336243
-3.9625,0.0674349099179905,0.8710143069140429
-3.962,0.2701682322139607,0.1504428953626575
-3.9615,0.7289857510943143,-0.6866915386455698
-3.961,1.454557641416734,-1.417859588602123
-3.9605,2.073427783162327,-1.990078062481164
-3.96,2.169459356881471,-2.21260746898968
-3.9595,1.411876941986003,-1.650985633515806
-3.959,0.6222840025174878,-0.8350444763179138
-3.9585,0.03542438534494258,-0.1674562567923655
-3.958,-0.3166913849585846,0.2140227257936621
-3.9575,-0.4660738329661415,0.4365521323021782
-3.957,-0.5087545323968721,0.457745409112513
-3.9565,-0.4980843575391895,0.3623756634660061
-3.956,-0.5407650569699201,0.2034260873884947
-3.9555,-0.7328282044082075,0.309392471440169
-3.955,-0.8608703027003992,0.7544512844572011
-3.9545,-0.8181896032696687,1.061753798207057
-3.954,-0.6794773301197943,1.104140351827727
-3.9535,-0.5941159312583333,0.9769806909657173
-3.953,-0.572775581542968,0.309392471440169
-3.9525,0.2168173579255475,-0.6019184314042303
-3.952,1.19847344483235,-1.280103289334946
-3.9515,1.187803269974668,-1.619195718300304
-3.951,-0.03926683865883591,-1.682775548731308
-3.9505,-0.9995825758502737,-1.481439419033127
-3.95,-1.170305373573196,-0.7290780922662394
-3.9495,-0.9675720512772257,0.2246193641988295
-3.949,-0.690147504977477,0.9769806909657173
-3.9485,-0.4554036581084589,1.432636142387917
-3.948,-0.3166913849585846,1.633972272086098
-3.9475,-0.2526703358124887,1.633972272086098
-3.947,-0.156638762093345,1.506812611224089
-3.9465,-0.007256314085787988,1.188913459069066
-3.946,0.2061471830678648,0.6802748156210291
-3.9455,0.5796033030867573,-0.09327978795619347
-3.945,0.9957401225363802,-0.8032545611024114
-3.9445,1.582599739708926,-1.449649503817625
-3.944,2.073427783162327,-1.958288147265661
-3.9435,2.318841804889028,-2.233800745800015
-3.943,1.51857869056283,-2.085447808127671
-3.9425,0.5582629533713921,-1.227120097309109
-3.942,-0.03926683865883591,-0.3899856633008816
-3.9415,-0.3380317346739499,0.2034260873884947
-3.941,-0.4554036581084589,0.4895353243280153
-3.9405,-0.4767440078238243,0.5107286011383502
-3.94,-0.4554036581084589,0.4047622170866759
-3.9395,-0.4554036581084589,0.2987958330350016
-3.939,-0.6261264558313813,0.3199891098453364
-3.9385,-0.6688071552621118,0.5849050699745222
-3.938,-0.5834457564006506,0.8286277532933731
-3.9375,-0.5087545323968721,0.9345941373450475
-3.937,-0.4554036581084589,0.9875773293708847
-3.9365,-0.423393133535411,0.6802748156210291
-3.936,0.2488278824985954,-0.1250697031716958
-3.9355,1.19847344483235,-0.9728007755850904
-3.935,1.56125938999356,-1.481439419033127
-3.9345,0.4835717293676135,-1.682775548731308
-3.934,-0.9782422261349084,-1.672178910326141
-3.9335,-1.693143941599645,-1.417859588602123
-3.933,-1.565101843307454,-0.6654982618352349
-3.9325,-1.127624674142465,0.2776025562246667
-3.932,-0.722158029550525,1.029963882991555
-3.9315,-0.4340633083930936,1.475022696008586
-3.931,-0.2846808603855366,1.6657621873016
-3.9305,-0.2206598112394408,1.676358825706768
-3.93,-0.1779791118087102,1.580989080060261
-3.9295,-0.08194753808956648,1.37965295036208
-3.929,0.05676473506030786,0.9134008605347127
-3.9285,0.2061471830678648,0.09745970333682032
-3.928,0.7503261008096795,-0.792657922697244
-3.9275,1.51857869056283,-1.523825972653797
-3.927,2.116108482593058,-2.053657892912168
-3.9265,1.945385684870135,-2.011271339291499
-3.926,1.166462920259302,-1.258910012524611
-3.9255,0.4408910299368829,-0.5065486857577234
-3.925,-0.06060718837420119,0.07626642652648545
-3.9245,-0.3380317346739499,0.3623756634660061
-3.924,-0.4660738329661415,0.4471487707073456
-3.9235,-0.4980843575391895,0.4047622170866759
-3.923,-0.4980843575391895,0.3305857482505039
-3.9225,-0.5514352318276028,0.2670059178194992
-3.922,-0.5941159312583333,0.457745409112513
-3.9215,-0.5941159312583333,0.775644561267536
-3.921,-0.7328282044082075,0.9875773293708847
-3.9205,-0.754168554123573,1.040560521396722
-3.92,-0.722158029550525,0.8922075837243778
-3.9195,-0.3166913849585846,0.2458126410091644
-3.919,0.6649647019482183,-0.6337083466197325
-3.9185,1.497238340847464,-1.216523458903942
-3.918,0.942389248247967,-1.42845622700729
-3.9175,-0.4767440078238243,-1.492036057438295
-3.917,-1.415719395299897,-1.269506650929778
-3.9165,-1.458400094730627,-0.4535654937318862
-3.916,-1.116954499284783,0.457745409112513
-3.9155,-0.754168554123573,1.146526905448396
-3.915,-0.4767440078238243,1.538602526439591
-3.9145,-0.3166913849585846,1.697552102517103
-3.914,-0.2313299860971235,1.697552102517103
-3.9135,-0.1459685872356623,1.538602526439591
-3.913,-0.02859666380115328,1.29487984312074
-3.9125,0.1527963087794516,0.8816109453192104
-3.912,0.3875401556484697,0.2034260873884947
-3.9115,0.8356874996711408,-0.6549016234300674
-3.911,1.51857869056283,-1.407262950196955
-3.9105,2.105438307735375,-1.979481424075996
-3.91,2.233480406027567,-2.127834361748341
-3.9095,1.539919040278195,-1.51322933424863
-3.909,0.7396559259519968,-0.7714646458869092
-3.9085,0.142126133921769,-0.1992461720078678
-3.908,-0.2420001609548061,0.1716361721729923
-3.9075,-0.4340633083930936,0.3729723018711736
-3.907,-0.4980843575391895,0.4259554938970107
-3.9065,-0.5194247072545548,0.3729723018711736
-3.906,-0.5621054066852853,0.2881991946298341
-3.9055,-0.7008176798351597,0.4365521323021782
-3.905,-0.658136980404429,0.6908714540261965
-3.9045,-0.6367966306890638,0.9134008605347127
-3.904,-0.6261264558313813,1.00877060618122
-3.9035,-0.6367966306890638,0.9875773293708847
-3.903,-0.6154562809736985,0.4153588554918433
-3.9025,0.1741366584948169,-0.5065486857577234
-3.902,1.187803269974668,-1.237716735714276
-3.9015,1.305175193409177,-1.534422611058964
-3.901,0.09944543449103843,-1.619195718300304
-3.9005,-1.1062843244271,-1.523825972653797
-3.9,-1.405049220442214,-0.8562377531282487
-3.8995,-1.180975548430879,0.07626642652648545
-3.899,-0.8288597781273515,0.849821030103708
-3.8985,-0.5407650569699201,1.347863035146577
-3.898,-0.3593720843893152,1.580989080060261
-3.8975,-0.2633405106701714,1.623375633680931
-3.897,-0.1993194615240755,1.538602526439591
-3.8965,-0.07127736323188383,1.33726639674141
-3.896,0.09944543449103843,1.029963882991555
-3.8955,0.5689331282290746,0.3623756634660061
-3.895,0.9637295979633325,-0.5065486857577234
-3.8945,1.529248865420512,-1.269506650929778
-3.894,2.062757608304644,-1.873515040024322
-3.8935,2.382862854035124,-2.17022091536901
-3.893,2.041417258589279,-1.555615887869299
-3.8925,1.230483969405398,-0.7078848154559045
-3.892,0.4729015545099309,-0.07208651114585861
-3.8915,-0.06060718837420119,0.2987958330350016
-3.891,-0.3380317346739499,0.4365521323021782
-3.8905,-0.4554036581084589,0.4153588554918433
-3.89,-0.4874141826815069,0.3411823866556712
-3.8895,-0.4874141826815069,0.2458126410091644
-3.889,-0.6474668055467465,0.1928294489833272
-3.8885,-0.7114878546928423,0.4047622170866759
-3.888,-0.754168554123573,0.627291623595192
-3.8875,-0.807519428411986,0.7862411996727035
-3.887,-0.722158029550525,0.8710143069140429
-3.8865,-0.4127229586777283,0.6590815388106942
-3.886,0.4835717293676135,-0.1144730647665284
-3.8855,1.443887466559051,-0.9622041371799229
