Class_1_Relax_eyes_closed/Class_1_Relax_eyes_closed_SH_12.csv

#Digilent WaveForms Oscilloscope Acquisition
#Device Name: EExplorer
#Serial Number: SN:210151A2B84A
#Date Time: 2021-02-03 13:55:09.816
#Sample rate: 2000Hz
#Samples: 16384
#Trigger: Source: Channel 1 Type: Edge Condition: Rising Level: 0 V Hyst.: Auto HoldOff: 0 s
#Channel 1: Range: 1 V/div Offset: 0 V Attenuation: 1 X
#Channel 2: Range: 1 V/div Offset: 0 V Attenuation: 1 X
#Power Supplies: ON
#Fixed Supply: ON
#Voltage: 3.3 V Readback: 3.331 V
#Positive Supply: ON
#Voltage: 3.7 V Readback: 3.714 V
#Current: 40 mA Readback: 18 mA
#Negative Supply: ON
#Voltage: -3.7 V Readback: -3.355 V
#Current: -40 mA Readback: -3 mA
#Reference 1: ON
#Voltage: 0 V
#Reference 2: ON
#Voltage: 0 V

Time (s),Channel 1 (V),Channel 2 (V)
-4.096,-0.6261264558313813,0.1610395337678249
-4.0955,-1.426389570156851,-0.3158091944642759
-4.095,-2.023919362187778,-1.099960436447591
-4.0945,-1.991908837614759,-1.640388995110639
-4.094,-1.244996597577654,-1.439052865412641
-4.0935,-0.4554036581079446,-0.7714646458862828
-4.093,0.1101156093487211,-0.08268314955102604
-4.0925,0.4408910299365821,0.4365521323017059
-4.092,0.5902734779444689,0.7544512844573457
-4.0915,0.6222840025174878,0.9134008605347127
-4.091,0.6116138276598051,0.9769806909657173
-4.0905,0.6009436528021129,1.040560521396731
-4.09,0.5902734779444399,1.051157159801889
-4.0895,0.5796033030867573,1.082947075017392
-4.089,0.5369226036560655,1.210106735879285
-4.0885,0.2701682322139607,1.33726639674141
-4.088,-0.4447334832507763,1.528005888034424
-4.0875,-1.202315898145555,1.697552102516949
-4.087,-1.874536914180328,1.602182356869969
-4.0865,-1.959898313041711,0.9134008605347127
-4.086,-1.244996597577624,0.0762664265272468
-4.0855,-0.4340633083925114,-0.6019184314045966
-4.085,0.2061471830678648,-1.004590690800593
-4.0845,0.6116138276594363,-1.216523458903749
-4.084,0.8036769750981316,-1.354279758171157
-4.0835,0.8463576745288233,-1.396666311791788
-4.083,0.79300680024041,-1.545019249464132
-4.0825,0.7396559259520065,-1.502632695843154
-4.082,0.7503261008096795,-1.163540266878104
-4.0815,0.825017324813458,-0.718481453861072
-4.081,0.9103787236748416,-0.3370024712753914
-4.0805,0.942389248247967,-0.05089323433552374
-4.08,0.6329541773751706,0.3941655786815084
-4.0795,-0.2099896363809916,0.9981739677755026
-4.079,-1.074273799854731,1.485619334413609
-4.0785,-1.821186039891837,1.326669758336243
-4.078,-2.077270236475988,0.2352160026049896
-4.0775,-1.799845690175686,-0.6866915386456373
-4.077,-0.9355615267041777,-0.7608680074817418
-4.0765,-0.2099896363824181,-0.4111789401115345
-4.076,0.2701682322141839,0.04447651131134938
-4.0755,0.5155822539406614,0.4471487707073456
-4.075,0.6222840025174878,0.7332580076468663
-4.0745,0.6329541773751317,0.9239974989399571
-4.074,0.5902734779444399,1.00877060618122
-4.0735,0.5049120790829789,1.029963882991555
-4.073,0.3768699807909036,0.7756445612677674
-4.0725,0.3128489316446912,0.6060983467848571
-4.072,0.1954770082101822,0.8604176685088755
-4.0715,-0.3700422592464834,1.241896651094556
-4.071,-1.084943974712346,1.559795803249916
-4.0705,-1.757164990745741,1.549199164844759
-4.07,-1.78917551531876,1.008770606181711
-4.0695,-0.8288597781266334,0.245812641008509
-4.069,-0.03926683865883591,-0.474758770542221
-4.0685,0.5369226036560266,-0.9728007755850904
-4.068,0.8250173248135454,-1.29069992774021
-4.0675,0.9210488985326017,-1.396666311791788
-4.067,0.9317190733902845,-1.42845622700729
-4.0665,0.7930068002402256,-1.375473034981626
-4.066,0.5902734779444399,-1.566212526274467
-4.0655,0.7289857510943143,-1.248313374119443
-4.065,0.9317190733901001,-0.5807251545945026
-4.0645,1.027750647109428,-0.08268314955102604
-4.064,1.006410297394063,0.04447651131098315
-4.0635,0.8997085488173335,0.2140227257935079
-4.063,0.2168173579247129,0.7332580076471169
-4.0625,-0.7008176798351597,1.00877060618122
-4.062,-1.511750969018303,0.2670059178201739
-4.0615,-2.045259711903066,-0.7820612842927704
-4.061,-1.927887788468663,-1.545019249464132
-4.0605,-1.127624674142465,-1.481439419033127
-4.06,-0.3700422592465126,-0.888027668343163
-4.0595,0.1634664836371343,-0.2416327256285375
-4.059,0.4729015545099309,0.2670059178194992
-4.0585,0.6009436528020061,0.5849050699742331
-4.058,0.6329541773751706,0.7650479228623686
-4.0575,0.6116138276598051,0.8816109453192104
-4.057,0.5902734779444593,0.9875773293707883
-4.0565,0.5689331282290746,1.072350436612224
-4.056,0.5475927785137094,1.167720182258731
-4.0555,0.5049120790830177,1.31607311993094
-4.055,0.1207857842057244,1.464426057603573
-4.0545,-0.6261264558313813,1.633972272086098
-4.054,-1.351698346153141,1.77172857135315
-4.0535,-1.522421143876112,1.517409249628514
-4.053,-0.8502001278427167,0.701468092431364
-4.0525,-0.1352984123779797,-0.1250697031716958
-4.052,0.3982103305064532,-0.7820612842925102
-4.0515,0.7289857510943143,-1.258910012524611
-4.051,0.8676980242441885,-1.545019249464132
-4.0505,0.8676980242441885,-1.629792356705394
-4.05,0.79300680024041,-1.598002441489969
-4.0495,0.5689331282290746,-1.661582271920973
-4.049,0.504912079083037,-1.428456227007502
-4.0485,0.5689331282292007,-1.025783967610523
-4.048,0.707645401378949,-0.5807251545938954
-4.0475,0.8036769750980054,-0.1462629799824258
-4.047,0.803676975097724,0.2458126410096463
-4.0465,0.3982103305061524,0.775644561267536
-4.046,-0.4447334832500097,1.305476481525426
-4.0455,-1.244996597577547,1.655165548896038
-4.045,-1.87453691418025,1.220703374284568
-4.0445,-2.07727023647622,0.02328323450064829
-4.044,-1.906547438752541,-0.941010860369646
-4.0435,-1.074273799854052,-1.004590690800593
-4.043,-0.3166913849585846,-0.5807251545938954
-4.0425,0.2061471830673893,-0.06148987274116346
-4.042,0.4942419042252961,0.3729723018711736
-4.0415,0.6116138276598051,0.6696781772158616
-4.041,0.6329541773751511,0.8816109453190176
-4.0405,0.6222840025174782,1.040560521396847
-4.04,0.6116138276598051,1.178316820663898
-4.0395,0.5796033030867864,1.252493289500003
-4.039,0.5582629533712175,1.241896651094951
-4.0385,0.3661998059331045,1.29487984312074
-4.038,-0.3060212101002905,1.475022696008423
-4.0375,-1.074273799854654,1.665762187301543
-4.037,-1.735824641030376,1.602182356870596
-4.0365,-1.714484291315011,0.9451907757502149
-4.036,-0.9462317015612103,0.1398462569568925
-4.0355,-0.2313299860971235,-0.5171453241628908
-4.035,0.3021787567870086,-1.05757388282643
-4.0345,0.6542945270902156,-1.460246142222426
-4.034,0.825017324813458,-1.566212526274467
-4.0335,0.8783681991018712,-1.502632695843462
-4.033,0.8143471499558335,-1.51322933424862
-4.0325,0.9210488985326503,-1.110557074851795
-4.032,0.974399772821015,-0.5913217929990628
-4.0315,1.006410297394034,-0.22043944881854
-4.031,1.038420821967082,-0.1250697031716572
-4.0305,1.006410297394063,-0.08268314955102604
-4.03,0.654294527090856,0.01268659609539412
-4.0295,-0.188649286667179,0.5001319627335394
-4.029,-1.052933450138687,0.8922075837243778
-4.0285,-1.810515865034154,0.849821030103708
-4.028,-2.077270236475929,-0.04029659593106949
-4.0275,-1.757164990745741,-0.8244478379127463
-4.027,-0.8822106524157645,-0.8562377531282487
-4.0265,-0.1779791118093507,-0.4323722169219368
-4.026,0.2808384070716433,0.07626642652648545
-4.0255,0.5262524287983441,0.4895353243280153
-4.025,0.6222840025174005,0.7756445612672758
-4.0245,0.6329541773751511,0.9557874141554884
-4.024,0.6116138276598051,1.072350436612224
-4.0235,0.6009436528021322,1.167720182258644
-4.023,0.590273477944401,1.231300012689822
-4.0225,0.5475927785137094,1.326669758336243
-4.022,0.4515612047946529,1.422039503982663
-4.0215,-0.0819475380902749,1.432636142388033
-4.021,-0.8608703027003992,1.559795803249926
-4.0205,-1.565101843307454,1.623375633680931
-4.02,-1.831856214748821,1.167720182258076
-4.0195,-1.06360362499637,0.4471487707073456
-4.019,-0.3060212101009019,-0.3052125560595421
-4.0185,0.3021787567864555,-0.877431029938063
-4.018,0.6542945270905358,-1.216523458903942
-4.0175,0.825017324813458,-1.439052865412457
-4.017,0.8676980242441497,-1.52382597265372
-4.0165,0.7823366253826499,-1.523825972653797
-4.016,0.6969752265212663,-1.523825972653797
-4.0155,0.7183155762366121,-1.216523458904221
-4.015,0.7716664505250933,-0.8562377531279403
-4.0145,0.825017324813458,-0.5171453241628908
-4.014,0.8463576745288038,-0.2204394488184725
-4.0135,0.7183155762360396,0.1504428953632068
-4.013,0.0674349099179905,0.7544512844572011
-4.0125,-0.7861790786966207,1.316073119931075
-4.012,-1.5651018433079,1.496215972818131
-4.0115,-2.055929886760855,0.627291623595192
-4.011,-1.981238662757077,-0.474758770542221
-4.0105,-1.212986073004625,-0.8138511995072705
-4.01,-0.423393133535411,-0.5595318777835605
-4.0095,0.1314559590640864,-0.1250697031716958
-4.009,0.4515612047942744,0.2881991946294582
-4.0085,0.6009436528021517,0.6060983467850402
-4.008,0.6329541773751706,0.8074344764830383
-4.0075,0.6116138276598245,0.9557874141552475
-4.007,0.5689331282290164,1.051157159801966
-4.0065,0.5049120790829789,1.135930267043229
-4.006,0.4729015545099309,1.199510097474233
-4.0055,0.4195506802212362,1.125333628637994
-4.005,0.1101156093487211,1.051157159801889
-4.0045,-0.5834457564006506,1.241896651094903
-4.004,-1.309017646723604,1.475022696008451
-4.0035,-1.895877263895616,1.326669758336243
-4.003,-1.383708870726849,0.7226613692416989
-4.0025,-0.5087545323976679,0.002089957690968758
-4.002,0.1848068333524996,-0.5595318777835605
-4.0015,0.6116138276598051,-0.9728007755850904
-4.001,0.8356874996709369,-1.31189320455014
-4.0005,0.9103787236748901,-1.502632695843501
-4,0.8783681991018712,-1.545019249464132
-3.9995,0.6649647019482183,-1.598002441489969
-3.999,0.6116138276598051,-1.269506650929778
-3.9985,0.7609962756673623,-0.6972881770507372
-3.998,0.8783681991018712,-0.2098428104130352
-3.9975,0.9850699476786977,0.1928294489833272
-3.997,1.017080472251745,0.4259554938970107
-3.9965,0.5049120790829789,0.8074344764830383
-3.996,-0.4127229586777283,1.178316820663898
-3.9955,-1.255666772434657,1.188913459069066
-3.995,-1.927887788468663,0.4153588554918433
-3.9945,-2.055929886760855,-0.6654982618352349
-3.994,-1.490410619303675,-1.163540266878104
-3.9935,-0.6474668055467465,-0.9092209451540858
-3.993,-0.01792648894347063,-0.400582301706049
-3.9925,0.3768699807907871,0.09745970333682032
-3.992,0.5689331282290746,0.457745409112513
-3.9915,0.6222840025174878,0.6908714540261965
-3.991,0.6116138276598051,0.8180311148882058
-3.9905,0.5475927785137094,0.8710143069140429
-3.99,0.5155822539406614,0.9557874141553824
-3.9895,0.4835717293676135,1.00877060618122
-3.989,0.4408910299368829,1.072350436612224
-3.9885,0.2381577076409128,1.220703374284568
-3.988,-0.4340633083930936,1.42203950398275
-3.9875,-1.170305373573196,1.623375633680931
-3.987,-1.842526389607202,1.580989080060261
-3.9865,-1.895877263895616,0.9663840525605498
-3.986,-1.202315898146244,0.2564092794143318
-3.9855,-0.4340633083930936,-0.3475991096802118
-3.985,0.2381577076409128,-0.9304142219644207
-3.9845,0.6649647019482183,-1.248313374119443
-3.984,0.8463576745288233,-1.407262950196955
-3.9835,0.9103787236749192,-1.417859588602123
-3.983,0.79300680024041,-1.51322933424863
-3.9825,0.7289857510943143,-1.534422611058964
-3.982,0.79300680024041,-1.364876396576285
-3.9815,0.79300680024041,-1.01518732920576
-3.981,0.79300680024041,-0.6019184314042303
-3.9805,0.7823366253827275,-0.2204394488182027
-3.98,0.6649647019482183,0.2987958330350016
-3.9795,-0.03926683865883591,0.9345941373450475
-3.979,-0.8822106524157645,1.453829419198252
-3.9785,-1.607782542738184,1.33726639674141
-3.978,-2.045259711903173,0.2564092794143318
-3.9775,-1.821186039891837,-0.7078848154559045
-3.977,-0.9782422261349084,-0.8350444763179138
-3.9765,-0.2633405106701714,-0.5171453241628908
-3.976,0.2381577076409128,-0.09327978795619347
-3.9755,0.5049120790829789,0.2776025562246667
-3.975,0.6116138276598051,0.55311515475902
-3.9745,0.6329541773751706,0.7226613692416989
-3.974,0.6116138276598051,0.8604176685088755
-3.9735,0.6009436528021226,0.9875773293708847
-3.973,0.5902734779444399,1.104140351827727
-3.9725,0.5689331282290746,1.135930267043229
-3.972,0.4942419042252961,1.051157159801889
-3.9715,-0.007256314085787988,0.9345941373450475
-3.971,-0.7755089038389382,1.146526905448396
-3.9705,-1.501080794161358,1.400846227172415
-3.97,-1.981238662757077,1.114736990232894
-3.9695,-1.522421143876723,0.4789386859228479
-3.969,-0.6474668055467465,-0.2098428104130352
-3.9685,0.0674349099179905,-0.7290780922662394
-3.968,0.5796033030867573,-1.078767159636765
-3.9675,0.825017324813458,-1.311893204550448
-3.967,0.8890383739595538,-1.42845622700729
-3.9665,0.8676980242441885,-1.51322933424863
-3.966,0.825017324813458,-1.322489842955616
-3.9655,0.8890383739595538,-0.8668343915334161
-3.965,0.9850699476786977,-0.5913217929990628
-3.9645,1.134452395686255,-0.2204394488182027
-3.964,1.166462920259302,-0.2310360872233701
-3.9635,0.9210488985326017,-0.4641621321370536
-3.963,0.1207857842064037,-1.004590690800593
-3.9625,-0.807519428411986,-1.566212526274467
-3.962,-1.575772018165136,-1.894708316834657
-3.9615,-2.055929886760855,-1.937094870455327
-3.961,-2.066600061618538,-1.778145294377815
-3.9605,-1.458400094730627,-1.131750351662602
-3.96,-0.6154562809736985,-0.252229364033705
-3.9595,0.01408403562957729,0.4895353243280153
-3.959,0.3982103305061524,0.9557874141553824
-3.9585,0.5796033030867573,1.178316820663898
-3.958,0.6329541773751706,1.220703374284568
-3.9575,0.6009436528021226,1.178316820663898
-3.957,0.5796033030867573,1.114736990232894
-3.9565,0.5475927785137094,1.00877060618122
-3.956,0.5262524287983441,0.9134008605347127
-3.9555,0.4942419042252961,0.9345941373450475
-3.955,0.09944543449103843,1.146526905448396
-3.9545,-0.6474668055467465,1.432636142387917
-3.954,-1.373038695869166,1.612778995275763
-3.9535,-1.949228138184029,1.326669758336243
-3.953,-1.767835165603424,0.5849050699745222
-3.9525,-0.9248913518464952,-0.2840192792492073
-3.952,-0.156638762093345,-0.9833974139902578
-3.9515,0.3768699807907871,-1.417859588602123
-3.951,0.6969752265212663,-1.703968825541643
-3.9505,0.8356874996711408,-1.79933857118815
-3.95,0.8783681991018712,-1.725162102351978
-3.9495,0.7716664505250448,-1.703968825541643
-3.949,0.7183155762366316,-1.47084278062796
-3.9485,0.7183155762366316,-1.142346990067769
-3.948,0.7183155762366316,-0.8244478379127463
-3.9475,0.7183155762366316,-0.5277419625680583
-3.947,0.6969752265212663,-0.2098428104130352
-3.9465,0.2061471830678648,0.3729723018711736
-3.946,-0.6154562809736985,1.029963882991555
-3.9455,-1.394379045584531,1.496215972818921
-3.945,-2.002579012472442,1.082947075017392
-3.9445,-2.055929886760855,-0.05089323433552374
-3.944,-1.479740444445993,-0.6866915386455698
-3.9435,-0.6367966306890638,-0.6125150698093976
-3.943,-0.007256314085787988,-0.2416327256285375
-3.9425,0.3875401556484697,0.1716361721729923
-3.942,0.5796033030867573,0.5213252395435176
-3.9415,0.6329541773751706,0.7650479228623686
-3.941,0.6329541773751706,0.92399749893988
-3.9405,0.6116138276598051,1.051157159801889
-3.94,0.6009436528021226,1.167720182258731
-3.9395,0.5796033030867573,1.273686566310405
-3.939,0.5582629533713921,1.241896651094903
-3.9385,0.3982103305061524,1.199510097474233
-3.938,-0.274010685527854,1.369056311956912
-3.9375,-1.042263275281004,1.580989080060261
-3.937,-1.746494815888059,1.602182356870596
-3.9365,-1.661133417026597,1.051157159801889
-3.936,-0.7328282044082075,0.309392471440169
-3.9355,0.01408403562957729,-0.4323722169215513
-3.935,0.5049120790829789,-1.004590690800593
-3.9345,0.7716664505250448,-1.38606967338662
-3.934,0.8676980242441885,-1.492036057438295
-3.9335,0.857027849386506,-1.460246142222792
-3.933,0.707645401378949,-1.449649503817625
-3.9325,0.6542945270905358,-1.269506650929778
-3.932,0.6863050516635838,-1.068170521231597
-3.9315,0.7609962756673623,-0.8668343915334161
-3.931,0.9210488985326017,-0.792657922697244
-3.9305,1.134452395686255,-1.216523458903942
-3.93,0.942389248247967,-1.672178910326141
-3.9295,0.08877525963335578,-1.84172512480882
-3.929,-0.8608703027003992,-1.968884785670829
-3.9285,-1.650463242168915,-1.968884785670829
-3.928,-2.066600061618538,-1.84172512480882
-3.9275,-1.863866739322568,-1.492036057438295
-3.927,-1.020922925565639,-0.7078848154559045
-3.9265,-0.2846808603855366,0.08686306493165288
-3.926,0.2274875327832301,0.6590815388106942
-3.9255,0.5049120790829789,0.9557874141553824
-3.925,0.6116138276598051,1.040560521396722
-3.9245,0.6329541773751706,0.9875773293708847
-3.924,0.6009436528021226,0.8604176685088755
-3.9235,0.5689331282290746,0.7862411996727035
-3.923,0.5369226036560266,0.7120647308365314
-3.9225,0.5262524287983441,0.6696781772158616
-3.922,0.4195506802215176,0.7120647308365314
-3.9215,-0.124628237520297,0.9345941373450475
-3.921,-0.8928808272734472,1.273686566310405
-3.9205,-1.575772018165136,1.464426057603419
-3.92,-1.661133417026597,1.051157159801889
-3.9195,-0.9462317015618604,0.2352160026039969
-3.919,-0.2099896363817582,-0.4641621321370536
-3.9185,0.4195506802215176,-0.9833974139902578
-3.918,0.7609962756673623,-1.280103289334946
-3.9175,0.8890383739595538,-1.47084278062796
-3.917,0.8890383739595538,-1.523825972653797
-3.9165,0.7823366253827275,-1.534422611058964
-3.916,0.6436243522328531,-1.523825972653797
-3.9155,0.707645401378949,-1.280103289334946
-3.915,0.79300680024041,-0.9833974139902578
-3.9145,0.974399772821015,-0.8880276683437509
-3.914,1.038420821967111,-0.7714646458869092
-3.9135,0.8783681991018712,-0.570128516188728
-3.913,0.1101156093487211,-0.2416327256285375
-3.9125,-0.7968492535543035,-0.4535654937318862
-3.912,-1.586442193022819,-0.9833974139902578
-3.9115,-2.066600061618538,-1.38606967338662
-3.911,-2.055929886760855,-1.534422611058964
-3.9105,-1.447729919872945,-1.068170521231597
-3.91,-0.6047861061160158,-0.2628260024388724
-3.9095,0.02475421048725994,0.4365521323021782
-3.909,0.3982103305061524,0.8922075837243778
-3.9085,0.5796033030867573,1.114736990232894
-3.908,0.6329541773751706,1.167720182258731
-3.9075,0.6329541773751706,1.114736990232894
-3.907,0.6222840025174878,1.061753798207057
-3.9065,0.6009436528021226,0.9875773293708847
-3.906,0.5689331282290746,0.9451907757502149
-3.9055,0.5049120790829789,0.9134008605347127
-3.905,0.09944543449103843,0.9875773293708847
-3.9045,-0.658136980404429,1.263089927905238
-3.904,-1.383708870726849,1.496215972818921
-3.9035,-1.799845690176472,1.326669758336243
-3.903,-1.319687821580753,0.6696781772158616
-3.9025,-0.5407650569699201,-0.1356663415768632
-3.902,0.1314559590640864,-0.792657922697244
-3.9015,0.5689331282290746,-1.248313374119443
-3.901,0.8036769750980928,-1.502632695843462
-3.9005,0.9103787236749192,-1.735758740757146
-3.9,0.9103787236749192,-1.809935209593318
-3.8995,0.7823366253827275,-1.873515040024322
-3.899,0.7609962756673623,-1.629792356705471
-3.8985,0.7609962756673623,-1.322489842955616
-3.898,0.8036769750980928,-1.01518732920576
-3.8975,0.857027849386506,-0.6972881770507372
-3.897,0.8463576745288233,-0.3793890248957141
-3.8965,0.3448594562177392,-0.01910331912002144
-3.896,-0.5300948821122373,0.6060983467848571
-3.8955,-1.341028171296118,0.5743084315693548
-3.895,-1.970568487899394,-0.2946159176543747
-3.8945,-1.991908837614759,-1.152943628472937
-3.894,-1.277007122150022,-1.280103289334946
-3.8935,-0.4874141826815069,-0.7820612842920766
-3.893,0.08877525963335578,-0.1462629799820306
-3.8925,0.4408910299368829,0.3941655786815084
-3.892,0.5902734779444399,0.7650479228623686
-3.8915,0.6329541773751706,0.9769806909657173
-3.891,0.6222840025174878,1.114736990232894
-3.8905,0.6116138276598051,1.231300012689736
-3.89,0.5689331282290746,1.273686566310405
-3.8895,0.4942419042252961,1.178316820663898
-3.889,0.4622313796522482,1.220703374284568
-3.8885,0.3235191065023739,1.231300012689736
-3.888,-0.3060212101009019,1.358459673551745
-3.8875,-1.052933450138687,1.549199164844759
-3.887,-1.746494815888059,1.559795803249926
-3.8865,-1.725154466172693,1.00877060618122
-3.886,-0.9569018764195432,0.2140227257936621
-3.8855,-0.2099896363817582,-0.5065486857577234
-3.885,0.408880505363835,-1.046977244421262
-3.8845,0.8036769750980928,-1.407262950196955
