Class_1_Relax_eyes_closed/Class_1_Relax_eyes_closed_SH_11.csv

#Digilent WaveForms Oscilloscope Acquisition
#Device Name: EExplorer
#Serial Number: SN:210151A2B84A
#Date Time: 2021-01-28 12:45:13.180
#Sample rate: 2000Hz
#Samples: 16384
#Trigger: Source: Channel 1 Type: Edge Condition: Rising Level: 0 V Hyst.: Auto HoldOff: 0 s
#Channel 1: Range: 1 V/div Offset: 0 V Attenuation: 1 X
#Channel 2: Range: 1 V/div Offset: 0 V Attenuation: 1 X
#Power Supplies: ON
#Fixed Supply: ON
#Voltage: 3.3 V Readback: 3.328 V
#Positive Supply: ON
#Voltage: 3.7 V Readback: 3.708 V
#Current: 40 mA Readback: 18 mA
#Negative Supply: ON
#Voltage: -3.7 V Readback: -3.702 V
#Current: -40 mA Readback: -7 mA
#Reference 1: ON
#Voltage: 0 V
#Reference 2: ON
#Voltage: 0 V

Time (s),Channel 1 (V),Channel 2 (V)
-4.096,0.707645401378949,-0.474758770542221
-4.0955,0.7503261008096407,-0.7714646458866394
-4.095,1.049090996824832,-0.3052125560592434
-4.0945,1.091771696255524,0.02328323450064829
-4.094,0.9530594231057758,0.2246193641986464
-4.0935,0.803676975097986,0.3093924714401882
-4.093,0.6863050516635838,0.3305857482505039
-4.0925,0.6009436528022002,0.2881991946298726
-4.092,0.5689331282290843,0.2564092794143703
-4.0915,0.5796033030867573,0.2987958330350016
-4.091,0.7183155762366316,0.5107286011383502
-4.0905,0.7183155762365734,0.5531151547589911
-4.09,0.6542945270905358,0.5213252395435176
-4.0895,0.5689331282290746,0.5001319627331828
-4.089,0.5155822539407099,0.5213252395434983
-4.0885,0.4515612047945656,0.3411823866556712
-4.088,0.1741366584948169,-0.3581957480853793
-4.0875,-0.4980843575385781,-1.068170521230952
-4.087,-1.24499659757744,-1.534422611059148
-4.0865,-1.757164990745741,-1.735758740757146
-4.086,-1.618452717595993,-1.343683119766307
-4.0855,-0.9782422261343164,-0.4641621321362922
-4.085,-0.3273615598162672,0.3729723018711736
-4.0845,0.1314559590636691,0.9345941373445367
-4.084,0.3875401556485765,1.231300012689822
-4.0835,0.5049120790829789,1.326669758336243
-4.083,0.5262524287983441,1.305476481525908
-4.0825,0.5049120790829498,1.199510097474108
-4.082,0.4729015545099309,1.061753798207057
-4.0815,0.408880505363835,0.9028042221295453
-4.081,0.3768699807908162,0.754451284457336
-4.0805,0.3341892813600565,0.6166949851900245
-4.08,-0.07127736323188383,0.09745970333682032
-4.0795,-0.3060212101006884,-0.7396747306706455
-4.079,-0.5514352318278648,-1.47084278062821
-4.0785,-0.839529952985034,-1.746355379162313
-4.078,-0.5621054066855375,-1.301296566145685
-4.0775,-0.1139580626622747,-0.6549016234295663
-4.077,0.2594980573562781,-0.1038764263613609
-4.0765,0.4942419042250826,0.2140227257933729
-4.076,0.6009436528021614,0.2881991946297956
-4.0755,0.6436243522328531,0.2458126410091644
-4.075,0.6222840025174878,0.1928294489833272
-4.0745,0.611613827659776,0.161039533767796
-4.074,0.5796033030867573,0.1292496185523226
-4.0735,0.5369226036560266,0.1080563417419877
-4.073,0.4942419042253349,0.1292496185523033
-4.0725,0.4729015545099309,0.1822328105781598
-4.072,0.5049120790829789,0.2458126410091644
-4.0715,0.8250173248131669,-0.1356663415765162
-4.071,1.539919040278573,-0.8562377531288077
-4.0705,1.956055859727818,-1.47084278062796
-4.07,1.34785589284046,-1.852321763213641
-4.0695,0.3021787567866204,-1.756952017566719
-4.069,-0.124628237520297,-0.9198175835592532
-4.0685,-0.1139580626626144,0.01268659609548085
-4.068,0.04609456020278049,0.7120647308369266
-4.0675,0.2168173579255475,1.146526905448396
-4.067,0.3341892813600565,1.347863035146577
-4.0665,0.4088805053638641,1.390249588767209
-4.066,0.4408910299368829,1.347863035146577
-4.0655,0.4302208550792003,1.25249328950007
-4.065,0.3982103305061815,1.135930267043334
-4.0645,0.3768699807907871,0.9981739677760521
-4.064,0.3235191065023739,0.849821030103708
-4.0635,0.09944543449124221,0.4259554938973962
-4.063,0.05676473505991968,-0.421775578517126
-4.0625,-0.3700422592469978,-1.237716735714276
-4.062,-1.010252750707374,-1.79933857118764
-4.0615,-1.01025275070752,-1.545019249463515
-4.061,-0.5300948821122373,-0.8668343915334161
-4.0605,-0.01792648894347063,-0.1992461720078678
-4.06,0.3768699807909715,0.2458126410092704
-4.0595,0.5796033030867573,0.3623756634660061
-4.059,0.6329541773751706,0.2987958330350016
-4.0585,0.6329541773751706,0.1928294489834236
-4.058,0.5902734779444399,0.2034260873884947
-4.0575,0.5155822539406614,0.3199891098453364
-4.057,0.4729015545099697,0.3093924714401786
-4.0565,0.4515612047945656,0.2564092794143318
-4.056,0.4408910299368829,0.2352160026039969
-4.0555,0.4729015545099018,0.2140227257936814
-4.055,0.9317190733909346,-0.1886495336032401
-4.0545,1.646620788855021,-0.7820612842920766
-4.054,2.04141725858892,-1.375473034980913
-4.0535,1.582599739707926,-1.820531847998572
-4.053,0.4835717293676135,-1.915901593644992
-4.0525,-0.07127736323188383,-1.195330182093607
-4.052,-0.1352984123778535,-0.2734226408433459
-4.0515,0.00341386077189465,0.4895353243280153
-4.051,0.1634664836371343,0.9663840525605498
-4.0505,0.3021787567868824,1.210106735879179
-4.05,0.3768699807907871,1.29487984312074
-4.0495,0.4195506802215176,1.284283204715573
-4.049,0.4195506802215176,1.210106735879468
-4.0485,0.398210330506133,1.114736990232798
-4.048,0.3768699807907871,1.00877060618122
-4.0475,0.3448594562177683,0.8922075837244838
-4.047,0.07810508477544995,0.5425185163530911
-4.0465,-0.1673089369510276,-0.2946159176543747
-4.046,0.01408403562941232,-1.152943628472156
-4.0455,-0.4767440078240087,-1.735758740756943
-4.045,-0.6794773301197943,-1.51322933424863
-4.0445,-0.391382608962363,-0.8032545611024114
-4.044,0.03542438534524341,-0.1780528951972052
-4.0435,0.3661998059331045,0.1822328105781598
-4.043,0.5689331282290746,0.2776025562246667
-4.0425,0.675634876805804,0.2987958330349823
-4.042,0.6863050516635838,0.2776025562246667
-4.0415,0.6009436528021226,0.2458126410091644
-4.041,0.3982103305063368,0.3623756634659001
-4.0405,0.3341892813600565,0.3411823866556038
-4.04,0.3341892813600565,0.2670059178194992
-4.0395,0.3661998059330753,0.2352160026040259
-4.039,0.3982103305063756,0.2564092794142354
-4.0385,0.6436243522328531,0.1504428953626575
-4.038,1.230483969404865,-0.2310360872230232
-4.0375,1.219813794547337,-0.8774310299390943
-4.037,0.8036769750980928,-1.439052865412457
-4.0365,0.2061471830678648,-1.725162102351978
-4.036,-0.113958062662595,-1.237716735713476
-4.0355,-0.09261771294724913,-0.3581957480853793
-4.035,0.0674349099179905,0.4259554938970107
-4.0345,0.2168173579254116,0.9557874141549005
-4.034,0.3235191065023739,1.25249328950007
-4.0335,0.3768699807907871,1.37965295036208
-4.033,0.4088805053638059,1.390249588767238
-4.0325,0.4088805053638156,1.337266396741323
-4.032,0.3875401556484697,1.241896651094903
-4.0315,0.3555296310754509,1.125333628638167
-4.031,0.3235191065022962,1.008770606181056
-4.0305,0.2381577076409128,0.8286277532933731
-4.03,-0.1779791118083318,0.1610395337684321
-4.0295,-0.4554036581089829,-0.760868007482426
-4.029,-1.031593100423322,-1.51322933424863
-4.0285,-1.415719395299897,-1.809935209593318
-4.028,-1.074273799853499,-1.227120097308444
-4.0275,-0.4660738329661415,-0.4959520473525559
-4.027,0.05676473506030786,0.03387987290581572
-4.0265,0.3875401556481689,0.2458126410089716
-4.026,0.5582629533713921,0.2670059178194992
-4.0255,0.6009436528021226,0.2034260873884947
-4.025,0.5796033030867768,0.1398462569575479
-4.0245,0.7076454013789879,0.1504428953626671
-4.024,0.7503261008096795,0.1610395337678249
-4.0235,0.6649647019482959,0.1292496185523515
-4.023,0.5582629533713241,0.1292496185523515
-4.0225,0.4835717293676135,0.1610395337678249
-4.022,0.5262524287983052,0.1822328105781405
-4.0215,1.059761171682583,-0.008506680715326254
-4.021,1.177133095116985,-0.5277419625680583
-4.0205,0.3448594562177392,-1.174136905283272
-4.02,-0.6154562809743779,-1.650985633515912
-4.0195,-1.362368521011484,-1.767548655972648
-4.019,-1.255666772434657,-1.089363798041932
-4.0185,-0.732828204408683,-0.1780528951983616
-4.018,-0.2206598112394408,0.5743084315693548
-4.0175,0.142126133921769,1.051157159801889
-4.017,0.3555296310752277,1.305476481525676
-4.0165,0.4408910299368927,1.390249588767228
-4.016,0.4515612047945656,1.369056311956912
-4.0155,0.4302208550792198,1.294879843120808
-4.015,0.3875401556484309,1.178316820663792
-4.0145,0.3448594562177392,1.061753798207057
-4.014,0.2808384070717015,0.9028042221296898
-4.0135,-0.1886492866671013,0.3411823866548327
-4.013,-0.9675720512772257,-0.5807251545938954
-4.0125,-1.447729919872945,-1.375473034981453
-4.012,-1.746494815887787,-1.94769150886034
-4.0115,-1.447729919872945,-1.778145294377815
-4.011,-0.7328282044082075,-1.01518732920576
-4.0105,-0.1139580626631773,-0.3581957480859768
-4.01,0.3021787567870086,0.05507314971615059
-4.0095,0.5262524287983441,0.2670059178194992
-4.009,0.6116138276597275,0.2987958330349726
-4.0085,0.6116138276598148,0.2352160026039777
-4.008,0.6222840025174878,0.2140227257936621
-4.0075,0.6542945270905067,0.2352160026039777
-4.007,0.6009436528020546,0.2140227257936428
-4.0065,0.5262524287983441,0.1928294489833272
-4.006,0.4622313796522482,0.2034260873884947
-4.0055,0.4515612047948179,0.2458126410093186
-4.005,0.7289857510943143,0.4153588554918433
-4.0045,1.262494493978446,0.8180311148882058
-4.004,0.8356874996702673,0.3305857482497425
-4.0035,-0.124628237520297,-0.5065486857577234
-4.003,-1.116954499284783,-1.184733543688439
-4.0025,-1.437059745014971,-1.258910012524543
-4.002,-1.042263275281004,-0.6231117082145651
-4.0015,-0.4767440078238243,0.1292496185523226
-4.001,-0.01792648894388793,0.7120647308360014
-4.0005,0.2594980573564139,1.082947075017565
-4,0.408880505363835,1.273686566310405
-3.9995,0.4515612047945656,1.347863035146577
-3.999,0.4408910299368829,1.33726639674141
-3.9985,0.3982103305061524,1.263089927905238
-3.998,0.3555296310754218,1.178316820663898
-3.9975,0.3128489316446912,1.082947075017392
-3.997,0.08877525963335578,0.7862411996727035
-3.9965,-0.2099896363817582,-0.05089323433552374
-3.996,-0.3593720843893152,-0.9516074987747555
-3.9955,-0.9462317015618604,-1.661582271920973
-3.995,-1.1062843244271,-1.693372187136476
-3.9945,-0.6688071552621118,-1.046977244421262
-3.994,-0.1352984123779797,-0.4111789401112165
-3.9935,0.2701682322139607,0.002089957690313421
-3.993,0.4942419042252961,0.1610395337678249
-3.9925,0.5689331282290746,0.13984625695749
-3.992,0.5796033030867573,0.04447651131098315
-3.9915,0.5475927785137094,0.05507314971615059
-3.991,0.5155822539406614,0.2458126410091644
-3.9905,0.4729015545099309,0.2564092794143318
-3.99,0.4408910299368829,0.2034260873884947
-3.9895,0.4195506802215176,0.1716361721729923
-3.989,0.4195506802215176,0.1822328105781598
-3.9885,0.408880505363835,0.05507314971615059
-3.988,0.02475421048725994,-0.5383386009732256
-3.9875,-0.658136980404429,-1.205926820498774
-3.987,-1.405049220442214,-1.661582271920973
-3.9865,-1.991908837614759,-1.831128486403653
-3.986,-2.215982509626095,-1.661582271920973
-3.9855,-1.543761493592088,-0.8350444763179138
-3.985,-0.754168554123573,0.07626642652648545
-3.9845,-0.1352984123779797,0.7650479228623686
-3.984,0.2488278824985954,1.167720182258731
-3.9835,0.4302208550792003,1.347863035146577
-3.983,0.4835717293676135,1.37965295036208
-3.9825,0.4729015545099309,1.305476481525908
-3.982,0.4408910299368829,1.199510097474233
-3.9815,0.3875401556484697,1.061753798207057
-3.981,0.3448594562177392,0.9134008605347127
-3.9805,0.2381577076409128,0.7120647308365314
-3.98,-0.3487019095316325,0.04447651131098315
-3.9795,-1.127624674142465,-0.8350444763179138
-3.979,-1.650463242168915,-1.566212526274467
-3.9785,-1.767835165603424,-1.682775548731308
-3.978,-1.191645723288561,-1.046977244421262
-3.9775,-0.4767440078238243,-0.400582301706049
-3.977,0.08877525963335578,-0.01910331912002144
-3.9765,0.4408910299368829,0.1080563417419877
-3.976,0.6009436528021226,0.13984625695749
-3.9755,0.6542945270905358,0.1716361721729923
-3.975,0.6329541773751706,0.1610395337678249
-3.9745,0.7503261008096795,0.2458126410091644
-3.974,0.7716664505250448,0.2458126410091644
-3.9735,0.6756348768059011,0.1822328105781598
-3.973,0.5689331282290746,0.13984625695749
-3.9725,0.4835717293676135,0.1610395337678249
-3.972,0.5155822539406614,0.1080563417419877
-3.9715,1.049090996824793,-0.4323722169215513
-3.971,1.603940089424291,-1.131750351662602
-3.9705,1.379866417412955,-1.661582271920973
-3.97,0.3341892813600565,-1.926498232050159
-3.9695,-0.7968492535543035,-1.88411167842949
-3.969,-1.084943974711735,-1.152943628472937
-3.9685,-0.7648387289812555,-0.1780528951975329
-3.968,-0.3166913849585846,0.6166949851900245
-3.9675,0.05676473506030786,1.125333628638062
-3.967,0.2808384070716433,1.37965295036208
-3.9665,0.3982103305061524,1.464426057603419
-3.966,0.4302208550792003,1.42203950398275
-3.9655,0.4195506802215176,1.326669758336243
-3.965,0.3768699807907871,1.188913459069066
-3.9645,0.3448594562177392,1.040560521396722
-3.964,0.291508581929326,0.8816109453192104
-3.9635,0.05676473506030786,0.4047622170866759
-3.963,-0.5087545323968721,-0.4641621321370536
-3.9625,-0.9995825758502737,-1.237716735714276
-3.962,-1.191645723288561,-1.693372187136476
-3.9615,-0.6261264558313813,-1.078767159636765
-3.961,-0.03926683865883591,-0.400582301706049
-3.9605,0.3448594562177392,0.002089957690313421
-3.96,0.5475927785137094,0.1186529801471552
-3.9595,0.6436243522328531,0.09745970333682032
-3.959,0.6649647019482183,0.02328323450064829
-3.9585,0.6222840025174878,-0.05089323433552374
-3.958,0.6116138276598051,-0.1250697031716958
-3.9575,0.6222840025174878,-0.1780528951975329
-3.957,0.5689331282290746,-0.1250697031716958
-3.9565,0.4942419042252961,-0.01910331912002144
-3.956,0.4408910299368829,0.09745970333682032
-3.9555,0.408880505363835,0.2246193641988295
-3.955,0.3555296310754218,0.05507314971615059
-3.9545,0.8356874996711408,-0.474758770542221
-3.954,1.667961138570387,-0.8668343915334161
-3.9535,1.998736559158548,-0.8774310299385835
-3.953,1.017080472251745,-1.068170521231597
-3.9525,0.1314559590640864,-0.9092209451540858
-3.952,-0.1352984123779797,-0.252229364033705
-3.9515,-0.09261771294724913,0.4365521323021782
-3.951,0.05676473506030786,0.9345941373450475
-3.9505,0.2061471830678648,1.220703374284568
-3.95,0.3021787567870086,1.358459673551745
-3.9495,0.3555296310754218,1.369056311956912
-3.949,0.3768699807907871,1.316073119931075
-3.9485,0.3555296310754218,1.210106735879401
-3.948,0.3235191065023739,1.093543713422559
-3.9475,0.291508581929326,0.9557874141553824
-3.947,0.02475421048725994,0.5743084315693548
-3.9465,-0.6474668055467465,-0.2946159176543747
-3.946,-1.330357996438436,-1.163540266878104
-3.9455,-1.853196564464885,-1.788741932782983
-3.945,-1.703814116457328,-1.650985633515806
-3.9445,-1.010252750707956,-0.9728007755850904
-3.944,-0.3273615598162672,-0.3370024712750445
-3.9435,0.1848068333524996,0.1080563417419877
-3.943,0.4835717293676135,0.3305857482505039
-3.9425,0.6009436528021226,0.3305857482505039
-3.942,0.6329541773751706,0.2564092794143318
-3.9415,0.6222840025174878,0.1928294489833272
-3.941,0.6649647019482183,0.2458126410091644
-3.9405,0.6222840025174878,0.2352160026039969
-3.94,0.5369226036560266,0.1822328105781598
-3.9395,0.4622313796522482,0.1610395337678249
-3.939,0.408880505363835,0.1822328105781598
-3.9385,0.5262524287983441,0.04447651131098315
-3.938,1.102441871113207,-0.570128516188728
-3.9375,1.475897991132099,-1.258910012524611
-3.937,0.7716664505250448,-1.75695201756748
-3.9365,-0.3807124341046804,-1.979481424075996
-3.936,-0.9995825758502737,-1.587405803084801
-3.9355,-0.8608703027003992,-0.6549016234300674
-3.935,-0.4554036581084589,0.2352160026039969
-3.9345,-0.07127736323188383,0.8604176685088755
-3.934,0.1954770082101822,1.220703374284568
-3.9335,0.3448594562177392,1.358459673551745
-3.933,0.3982103305061524,1.369056311956912
-3.9325,0.408880505363835,1.316073119931075
-3.932,0.3768699807907871,1.199510097474233
-3.9315,0.3341892813600565,1.072350436612224
-3.931,0.3021787567870086,0.9345941373450475
-3.9305,0.1848068333524996,0.7120647308365314
-3.93,-0.3060212101009019,-0.008506680714854012
-3.9295,-0.7755089038389382,-0.9092209451540858
-3.929,-1.30901764672307,-1.608599079895136
-3.9285,-1.26633694729234,-1.619195718300304
-3.928,-0.6261264558313813,-0.8244478379127463
-3.9275,-0.03926683865883591,-0.2310360872233701
-3.927,0.3448594562177392,0.01268659609548085
-3.9265,0.5582629533713921,0.08686306493165288
-3.926,0.6116138276598051,0.09745970333682032
-3.9255,0.6009436528021226,0.04447651131098315
-3.925,0.5689331282290746,0.03387987290581572
-3.9245,0.5155822539406614,0.2564092794143318
-3.924,0.4515612047945656,0.3623756634660061
-3.9235,0.4195506802215176,0.3411823866556712
-3.923,0.3982103305061524,0.3199891098453364
-3.9225,0.3768699807907871,0.3199891098453364
-3.922,0.408880505363835,0.3199891098453364
-3.9215,0.5796033030867573,-0.1356663415768632
-3.921,0.8783681991018712,-0.8668343915334161
-3.9205,0.3448594562177392,-1.460246142222792
-3.92,-0.5514352318276028,-1.788741932782983
-3.9195,-0.9782422261349084,-1.523825972653797
-3.919,-0.7755089038389382,-0.6443049850249
-3.9185,-0.3700422592469978,0.2246193641988295
-3.918,-0.007256314085787988,0.8604176685088755
-3.9175,0.2274875327832301,1.231300012689736
-3.917,0.3555296310754218,1.37965295036208
-3.9165,0.3982103305061524,1.400846227172415
-3.916,0.3982103305061524,1.347863035146577
-3.9155,0.3768699807907871,1.241896651094903
-3.915,0.3448594562177392,1.104140351827727
-3.9145,0.3021787567870086,0.9663840525605498
-3.914,0.2594980573562781,0.7968378380778709
-3.9135,-0.07127736323188383,0.3199891098453364
-3.913,-0.8608703027003992,-0.5383386009732256
-3.9125,-1.597112367880501,-1.333086481360783
-3.912,-1.917217613610981,-1.746355379162313
-3.9115,-1.30901764672307,-1.152943628472937
-3.911,-0.5514352318276028,-0.474758770542221
-3.9105,0.04609456020262521,-0.04029659593035631
-3.91,0.408880505363835,0.1186529801471552
-3.9095,0.5796033030867573,0.1186529801471552
-3.909,0.6222840025174878,0.002089957690313421
-3.9085,0.6009436528021226,-0.07208651114585861
-3.908,0.6116138276598051,0.002089957690313421
-3.9075,0.6542945270905358,0.13984625695749
-3.907,0.5902734779444399,0.1822328105781598
-3.9065,0.5049120790829789,0.1928294489833272
-3.906,0.4408910299368829,0.2352160026039969
-3.9055,0.408880505363835,0.2881991946298341
-3.905,0.3661998059331045,-0.01910331912002144
-3.9045,0.5689331282290746,-0.718481453861072
-3.904,0.2808384070716433,-1.34368311976595
-3.9035,-0.03926683865883591,-1.672178910326141
-3.903,-0.6688071552621118,-1.75695201756748
-3.9025,-1.020922925565639,-1.354279758171118
-3.902,-0.7755089038389382,-0.474758770542221
-3.9015,-0.3593720843893152,0.3729723018711736
-3.901,0.00341386077189465,0.9557874141553824
-3.9005,0.2381577076409128,1.273686566310405
-3.9,0.3555296310754218,1.390249588767247
-3.8995,0.3982103305061524,1.37965295036208
-3.899,0.3875401556484697,1.29487984312074
-3.8985,0.3555296310754218,1.157123543853563
-3.898,0.3235191065023739,1.019367244586387
-3.8975,0.2808384070716433,0.8710143069140429
-3.897,0.1741366584948169,0.5637117931641874
-3.8965,0.3982103305061524,-0.2204394488182027
-3.896,0.5796033030867573,-1.068170521231597
-3.8955,-0.124628237520297,-1.725162102351978
-3.895,-0.7434983792658902,-1.958288147265661
-3.8945,-0.6688071552621118,-1.301296566145281
-3.894,-0.274010685527854,-0.5277419625680583
-3.8935,0.1101156093487211,-0.008506680714854012
-3.893,0.3661998059331045,0.2140227257936621
-3.8925,0.4942419042252961,0.2564092794143318
-3.892,0.5369226036560266,0.1822328105781598
-3.8915,0.5475927785137094,0.1716361721729923
-3.891,0.6009436528021226,0.3623756634660061
-3.8905,0.5689331282290746,0.3729723018711736
-3.89,0.5049120790829789,0.2987958330350016
-3.8895,0.4408910299368829,0.2352160026039969
-3.889,0.3982103305061524,0.2140227257936621
-3.8885,0.3448594562177392,0.13984625695749
-3.888,0.3128489316446912,-0.4641621321370536
-3.8875,-0.1993194615240755,-1.184733543688439
-3.887,-1.042263275281004,-1.672178910326141
-3.8865,-1.746494815888059,-1.84172512480882
-3.886,-2.066600061618538,-1.693372187136476
-3.8855,-1.522421143876723,-0.8986243067489184
-3.885,-0.7861790786966207,-0.01910331912002144
