Class_1_Relax_eyes_closed/Class_1_Relax_eyes_closed_UZ_2.csv

#Digilent WaveForms Oscilloscope Acquisition
#Device Name: EExplorer
#Serial Number: SN:210151A2B84A
#Date Time: 2020-11-24 12:45:03.073
#Sample rate: 2000Hz
#Samples: 16384
#Trigger: Source: Channel 1 Type: Edge Condition: Rising Level: 0 V Hyst.: Auto HoldOff: 0 s
#Channel 1: Range: 1 V/div Offset: 0 V Attenuation: 1 X
#Channel 2: Range: 1 V/div Offset: 0 V Attenuation: 1 X
#Power Supplies: ON
#Fixed Supply: ON
#Voltage: 3.3 V Readback: 3.331 V
#Positive Supply: ON
#Voltage: 3.7 V Readback: 3.725 V
#Current: 40 mA Readback: 20 mA
#Negative Supply: ON
#Voltage: -3.7 V Readback: -3.334 V
#Current: -40 mA Readback: 0 A
#Reference 1: ON
#Voltage: 0 V
#Reference 2: ON
#Voltage: 0 V

Time (s),Channel 1 (V),Channel 2 (V)
-4.096,0.4302208550792003,1.347863035146577
-4.0955,0.4622313796522191,1.792921848163205
-4.095,0.6009436528023943,1.739938656137416
-4.0945,0.8997085488172365,1.347863035146577
-4.094,1.187803269974406,0.7968378380783721
-4.0935,1.678631313428108,0.5213252395428623
-4.093,1.7213120128588,-0.1992461720078678
-4.0925,1.17713309511748,-0.8244478379121776
-4.092,0.6756348768058429,-0.9198175835589834
-4.0915,0.6116138276598051,-0.6231117082145651
-4.091,0.5902734779444399,-0.2098428104130352
-4.0905,0.5155822539405643,-0.06148987274078755
-4.09,0.408880505363835,-0.1674562567923655
-4.0895,0.3448594562177392,-0.326405832869877
-4.089,0.3021787567870474,-0.4111789401111394
-4.0885,0.05676473506030786,-0.5383386009732256
-4.088,-0.156638762093345,-0.3581957480853793
-4.0875,-0.156638762093345,0.0126865960951435
-4.087,-0.08194753808955678,0.3729723018715398
-4.0865,-0.07127736323188383,0.775644561267536
-4.086,-0.1459685872355944,0.7862411996726938
-4.0855,-0.4340633083934818,0.9239974989397933
-4.085,-0.8608703027003992,0.8286277532933731
-4.0845,-1.244996597576625,0.09745970333748533
-4.084,-1.586442193023236,-0.559531877783946
-4.0835,-2.045259711903173,-0.9833974139902578
-4.083,-2.408045657064382,-1.152943628472937
-4.0825,-1.991908837613973,-1.089363798041749
-4.082,-1.127624674142465,-0.8880276683437509
-4.0815,-0.4447334832507763,-0.6549016234300674
-4.081,0.01408403562916,-0.4535654937320693
-4.0805,0.2594980573562781,-0.2628260024388724
-4.08,0.3661998059331045,-0.1356663415768632
-4.0795,0.4515612047944879,0.08686306493145049
-4.079,0.526252428798383,0.2140227257937006
-4.0785,0.5689331282290746,0.2564092794143318
-4.078,0.6329541773751124,0.08686306493180709
-4.0775,0.7609962756677602,-0.3158091944647867
-4.077,1.19847344483235,-0.400582301706049
-4.0765,1.475897991131847,-0.6654982618349939
-4.076,1.262494493977903,-1.036380606016095
-4.0755,0.6649647019482183,-1.036380606016095
-4.075,0.5796033030867573,-0.7714646458869092
-4.0745,0.6329541773751124,-0.5595318777834448
-4.074,0.5689331282290746,-0.4323722169215513
-4.0735,0.4622313796522482,-0.5065486857577234
-4.073,0.3875401556485377,-0.5701285161886701
-4.0725,0.3341892813600565,-0.5595318777835605
-4.072,0.1741366584948169,-0.6443049850249
-4.0715,-0.08194753808933358,-0.6125150698094265
-4.071,-0.1032878878049026,-0.4217755785162008
-4.0705,-0.07127736323188383,-0.2204394488182027
-4.07,-0.03926683865886503,-0.04029659593052015
-4.0695,-0.007256314085933554,0.05507314971642044
-4.069,-0.1673089369510276,0.3517790250608387
-4.0685,-0.7008176798351597,0.7332580076468663
-4.068,-1.223656247861949,0.2776025562241848
-4.0675,-1.597112367880501,-0.252229364033705
-4.067,-2.07727023647622,-0.6231117082145651
-4.0665,-2.429386006779447,-0.9198175835593496
-4.066,-2.098610586191586,-1.025783967610927
-4.0655,-1.244996597576974,-0.9516074987747555
-4.065,-0.5300948821128875,-0.7714646458870731
-4.0645,-0.03926683865883591,-0.570128516188728
-4.064,0.2274875327832301,-0.3475991096802118
-4.0635,0.3448594562176324,-0.1038764263615826
-4.063,0.4088805053638738,0.415358855492489
-4.0625,0.4515612047945656,1.125333628638062
-4.062,0.4835717293675844,1.559795803249531
-4.0615,0.5369226036560848,1.316073119930478
-4.061,0.6009436528021226,0.6590815388106942
-4.0605,0.9103787236749192,0.2881991946298341
-4.06,1.145122570543588,0.1398462569569696
-4.0595,0.7609962756673623,-0.4323722169215513
-4.059,0.1314559590640864,-0.9092209451540858
-4.0585,-0.04993701351635357,-0.8880276683437702
-4.058,0.2274875327832301,-0.6231117082145651
-4.0575,0.4302208550792003,-0.5277419625680583
-4.057,0.5262524287982567,-0.5701285161886894
-4.0565,0.5262524287983441,-0.5171453241628908
-4.056,0.4622313796522482,-0.4323722169215513
-4.0555,0.3555296310755188,-0.4323722169215513
-4.055,0.03542438534484553,-0.5171453241627751
-4.0545,-0.07127736323188383,-0.3899856633008816
-4.054,-0.02859666380119209,-0.1886495336028835
-4.0535,0.04609456020263492,-0.1038764263612356
-4.053,0.05676473506030786,0.03387987290581572
-4.0525,-0.02859666380115328,0.02328323450064829
-4.052,-0.5941159312588671,0.3941655786814988
-4.0515,-1.180975548430879,0.383568940276341
-4.051,-1.533091318734406,-0.2098428104130352
-4.0505,-1.94922813818365,-0.8032545611018718
-4.05,-2.386705307349017,-1.163540266878104
-4.0495,-2.44005618163743,-1.216523458903942
-4.049,-1.8211860398924,-1.046977244421416
-4.0485,-0.9569018764189512,-0.7926579226970127
-4.048,-0.3060212101009019,-0.5383386009732256
-4.0475,0.09944543449066967,-0.315809194464912
-4.047,0.3021787567870959,-0.1038764263612645
-4.0465,0.3982103305061524,0.002089957690313421
-4.046,0.4729015545098629,0.2352160026037849
-4.0455,0.5369226036560848,0.5531151547591067
-4.045,0.6009436528021226,0.6484849004055269
-4.0445,0.6436243522328531,0.2987958330350016
-4.044,0.857027849386865,-0.06148987274070081
-4.0435,1.251824319120764,-0.07208651114585861
-4.043,0.8676980242441885,-0.474758770542221
-4.0425,0.29150858192985,-0.993994052394953
-4.042,-0.1459685872356623,-1.089363798041932
-4.0415,0.0674349099179905,-0.7820612842920766
-4.041,0.3235191065021409,-0.5171453241631317
-4.0405,0.4302208550792003,-0.400582301705943
-4.04,0.4302208550792003,-0.2840192792492073
-4.0395,0.3982103305061815,-0.3899856633007852
-4.039,0.3661998059329104,-0.5489352393785376
-4.0385,0.1527963087794516,-0.7078848154559045
-4.038,-0.06060718837400708,-0.6760949002404312
-4.0375,-0.0712773632318256,-0.4747587705420668
-4.037,-0.007256314085787988,-0.3052125560595421
-4.0365,0.03542438534494258,-0.1462629799820306
-4.036,0.02475421048714348,-0.02969995752483229
-4.0355,-0.1032878878049318,0.3623756634660061
-4.035,-0.5087545323968721,0.5319218779486851
-4.0345,-1.127624674141902,-0.01910331911952035
-4.034,-1.757164990745741,-0.4535654937318862
-4.0335,-2.354694782775969,-0.8244478379127463
-4.033,-2.482736881068044,-1.04697724442106
-4.0325,-2.194642159909885,-1.068170521231491
-4.032,-1.26633694729234,-0.9516074987747555
-4.0315,-0.5194247072552342,-0.7502713690767574
-4.031,-0.01792648894322801,-0.5489352393782003
-4.0305,0.2488278824985954,-0.3370024712750445
-4.03,0.3661998059329977,-0.1462629799822041
-4.0295,0.4195506802215564,0.3093924714407183
-4.029,0.4622313796522482,0.9134008605347127
-4.0285,0.6329541773751706,0.92399749893988
-4.028,0.6649647019481989,0.9134008605345392
-4.0275,0.6436243522328531,0.7226613692416989
-4.027,0.9637295979633325,0.8710143069140429
-4.0265,1.177133095116791,0.6166949851902559
-4.026,0.7503261008096795,-0.1038764263613609
-4.0255,0.5369226036560266,-0.4217755785163839
-4.025,0.6649647019481019,-0.4323722169215417
-4.0245,0.6863050516635159,-0.3793890248956852
-4.024,0.6116138276598051,-0.3475991096802118
-4.0235,0.5155822539407487,-0.3899856633008431
-4.023,0.41955068022144,-0.485355408947427
-4.0225,0.3341892813600565,-0.5277419625680583
-4.022,0.1634664836372896,-0.6337083466196362
-4.0215,-0.3166913849586913,-0.8032545611021512
-4.021,-0.4340633083930936,-0.5171453241628908
-4.0205,-0.3166913849585846,-0.1780528951975329
-4.02,-0.1459685872355944,0.1504428953627828
-4.0195,-0.07127736323188383,0.2881991946298341
-4.019,-0.1779791118087102,0.5001319627331828
-4.0185,-0.7648387289807217,1.019367244585915
-4.018,-1.319687821580753,0.7438546460520338
-4.0175,-1.661133417026597,0.002089957690313421
-4.017,-2.098610586191188,-0.6125150698088386
-4.0165,-2.440056181637372,-1.004590690800679
-4.016,-2.376035132491334,-1.0999604364471
-4.0155,-1.586442193023537,-0.9939940523955216
-4.015,-0.7755089038383948,-0.7926579226970416
-4.0145,-0.1779791118087102,-0.570128516188728
-4.014,0.1741366584944967,-0.3899856633010454
-4.0135,0.3341892813601245,-0.1356663415762464
-4.013,0.408880505363835,0.5425185163538525
-4.0125,0.5049120790829789,1.051157159801889
-4.012,0.5902734779444787,1.157123543853419
-4.0115,0.6329541773751706,0.9981739677760521
-4.011,0.6756348768059011,0.4789386859228479
-4.0105,1.006410297393762,0.002089957690747157
-4.01,1.19847344483235,-0.3052125560595421
-4.0095,0.6009436528021226,-0.8138511995075789
-4.009,-0.08194753808894539,-1.142346990067471
-4.0085,-0.2420001609544858,-0.8880276683434521
-4.008,0.1101156093487211,-0.5595318777835605
-4.0075,0.3448594562175257,-0.4111789401113514
-4.007,0.4515612047945753,-0.3899856633009394
-4.0065,0.4622313796522482,-0.4535654937318862
-4.006,0.408880505363835,-0.5489352393783931
-4.0055,0.3341892813598236,-0.6549016234301638
-4.005,0.07810508477567314,-0.7608680074817418
-4.0045,-0.02859666380115328,-0.5913217929990628
-4.004,-0.06060718837420119,-0.4217755785162008
-4.0035,-0.06060718837420119,-0.2204394488182027
-4.003,-0.03926683865883591,-0.06148987274069118
-4.0025,-0.04993701351650885,0.1504428953624647
-4.002,-0.4980843575391895,0.6166949851900245
-4.0015,-1.159635198715513,0.4365521323021782
-4.001,-1.725154466172179,-0.1780528951969739
-4.0005,-2.280003558772355,-0.5065486857580221
-4,-2.461396531352796,-0.8350444763179138
-3.9995,-2.472066706210478,-1.004590690800593
-3.999,-2.013249187330125,-1.004590690800593
-3.9985,-1.084943974711735,-0.8668343915334161
-3.998,-0.391382608962363,-0.6760949002404023
-3.9975,0.0674349099179905,-0.474758770542221
-3.997,0.291508581929326,-0.2734226408440398
-3.9965,0.408880505363835,-0.008506680714854012
-3.996,0.4942419042252961,0.5743084315693548
-3.9955,0.5369226036560266,1.263089927905238
-3.995,0.5796033030867573,1.761131932948107
-3.9945,0.6116138276598051,1.6657621873016
-3.994,0.857027849386506,1.210106735879401
-3.9935,1.390536592270638,0.9981739677760521
-3.993,1.390536592270638,0.2246193641988295
-3.9925,0.9103787236749192,-0.5277419625680583
-3.992,0.291508581929326,-0.8032545611024114
-3.9915,0.3021787567870086,-0.6443049850249
-3.991,0.4408910299368829,-0.474758770542221
-3.9905,0.4942419042252961,-0.4323722169215513
-3.99,0.4622313796522482,-0.4535654937318862
-3.9895,0.408880505363835,-0.5171453241628908
-3.989,0.3555296310754218,-0.6125150698093976
-3.9885,0.1848068333524996,-0.7290780922662394
-3.988,0.01408403562957729,-0.5065486857577234
-3.9875,0.00341386077189465,0.04447651131098315
-3.987,0.00341386077189465,0.3517790250608387
-3.9865,-0.1886492866663929,0.2034260873884947
-3.986,-0.274010685527854,0.13984625695749
-3.9855,-0.5300948821122373,0.4895353243280153
-3.985,-1.020922925565639,0.7862411996727035
-3.9845,-1.298347471865388,0.2564092794143318
-3.984,-1.597112367880501,-0.3370024712750445
-3.9835,-2.045259711903173,-0.7820612842920766
-3.983,-2.301343908487556,-1.036380606016095
-3.9825,-1.693143941599645,-1.068170521231597
-3.982,-0.9035510021311299,-0.9516074987747555
-3.9815,-0.2846808603855366,-0.7502713690765743
-3.981,0.1101156093487211,-0.5277419625680583
-3.9805,0.3021787567870086,-0.2204394488182027
-3.98,0.4195506802215176,0.03387987290581572
-3.9795,0.4729015545099309,0.4365521323021782
-3.979,0.5049120790829789,1.00877060618122
-3.9785,0.5902734779444399,1.157123543853563
-3.978,0.6542945270905358,0.8286277532933731
-3.9775,0.7183155762366316,0.1928294489833272
-3.977,1.123782220828572,-0.1144730647665284
-3.9765,1.091771696255524,-0.4535654937318862
-3.976,0.5049120790829789,-0.8880276683437509
-3.9755,0.00341386077189465,-0.9516074987747555
-3.975,0.1101156093487211,-0.718481453861072
-3.9745,0.3875401556484697,-0.4853554089473885
-3.974,0.5049120790829789,-0.3793890248957141
-3.9735,0.4942419042252961,-0.3581957480853793
-3.973,0.4408910299368829,-0.4111789401112165
-3.9725,0.3875401556484697,-0.5277419625680583
-3.972,0.2701682322139607,-0.6972881770507372
-3.9715,0.00341386077189465,-0.7820612842920766
-3.971,-0.06060718837420119,-0.5913217929990628
-3.9705,-0.02859666380115328,-0.3475991096802118
-3.97,-0.02859666380115328,-0.1144730647665284
-3.9695,-0.007256314085787988,0.05507314971615059
-3.969,0.00341386077189465,0.2564092794143318
-3.9685,0.09944543449103843,0.5425185163538525
-3.968,-0.3273615598162672,0.1080563417419877
-3.9675,-0.7968492535543035,-0.4111789401112165
-3.967,-1.319687821580753,-0.6760949002404023
-3.9665,-1.906547438753298,-0.8880276683437509
-3.966,-2.23732285934146,-0.9410108603695881
-3.9655,-1.618452717595867,-0.8456411147230812
-3.965,-0.8502001278427167,-0.6760949002404023
-3.9645,-0.2526703358124887,-0.4641621321370536
-3.964,0.1207857842064037,-0.1568596183871981
-3.9635,0.3128489316446912,0.2458126410091644
-3.963,0.3875401556484697,0.8392243916985406
-3.9625,0.4302208550792003,1.475022696008586
-3.962,0.4835717293676135,1.920081509025619
-3.9615,0.4622313796522482,2.036644531482461
-3.961,0.4729015545099309,1.771728571353275
-3.9605,0.79300680024041,1.432636142387917
-3.96,1.305175193409177,0.8710143069140429
-3.9595,1.337185717982225,-0.06148987274069118
-3.959,0.8783681991018712,-0.7396747306714069
-3.9585,0.6542945270905358,-0.8456411147230812
-3.958,0.6863050516635838,-0.6337083466197325
-3.9575,0.6542945270905358,-0.4217755785163839
-3.957,0.5582629533713921,-0.400582301706049
-3.9565,0.4622313796522482,-0.4323722169215513
-3.956,0.3875401556484697,-0.474758770542221
-3.9555,0.3128489316446912,-0.5171453241628908
-3.955,0.09944543449103843,-0.6337083466197325
-3.9545,0.01408403562957729,-0.4959520473525559
-3.954,0.01408403562957729,-0.3581957480853793
-3.9535,0.09944543449103843,-0.3052125560595421
-3.953,0.1527963087794516,-0.1992461720078678
-3.9525,0.03542438534494258,-0.09327978795619347
-3.952,-0.3593720843893152,0.2776025562246667
-3.9515,-0.9142211769888124,0.1292496185523226
-3.951,-1.30901764672307,-0.4429688553267188
-3.9505,-1.693143941599645,-0.9410108603695881
-3.95,-2.19464215991073,-1.195330182093607
-3.9495,-2.429386006779747,-1.152943628472937
-3.949,-1.927887788468663,-0.9410108603695881
-3.9485,-1.052933450138687,-0.6866915386455698
-3.948,-0.3807124341046804,-0.4535654937318862
-3.9475,0.0674349099179905,-0.2310360872233701
-3.947,0.291508581929326,0.002089957690313421
-3.9465,0.3982103305061524,0.1292496185523226
-3.946,0.4729015545099309,0.457745409112513
-3.9455,0.5475927785137094,1.114736990232894
-3.945,0.5902734779444399,1.517409249629256
-3.9445,0.825017324813458,1.104140351827727
-3.944,1.027750647109428,0.5107286011383502
-3.9435,1.401206767128321,0.4471487707073456
-3.943,1.230483969405398,-0.08268314955102604
-3.9425,0.6009436528021226,-0.6549016234300674
-3.942,0.08877525963335578,-0.8032545611024114
-3.9415,0.1954770082101822,-0.6760949002404023
-3.941,0.3661998059331045,-0.4853554089473885
-3.9405,0.4408910299368829,-0.4111789401112165
-3.94,0.4408910299368829,-0.3899856633008816
-3.9395,0.3982103305061524,-0.326405832869877
-3.939,0.3341892813600565,-0.400582301706049
-3.9385,0.08877525963335578,-0.6019184314042303
-3.938,-0.2099896363817582,-0.6760949002404023
-3.9375,-0.2206598112394408,-0.4535654937318862
-3.937,-0.1032878878049318,-0.01910331912002144
-3.9365,0.05676473506030786,0.2881991946298341
-3.936,0.1527963087794516,0.383568940276341
-3.9355,-0.1032878878049318,0.6590815388106942
-3.935,-0.7434983792658902,0.8392243916985406
-3.9345,-1.319687821580753,0.2564092794143318
-3.934,-1.927887788468663,-0.2310360872233701
-3.9335,-2.418715831922065,-0.6866915386455698
-3.933,-2.482736881068161,-1.025783967610927
-3.9325,-2.322684258202921,-1.142346990067769
-3.932,-1.437059745015262,-1.078767159636765
-3.9315,-0.6474668055467465,-0.8880276683437509
-3.931,-0.08194753808956648,-0.6866915386455698
-3.9305,0.2274875327832301,-0.4959520473525559
-3.93,0.3768699807907871,-0.3793890248957141
-3.9295,0.4942419042252961,-0.2098428104130352
-3.929,0.5582629533713921,0.2458126410091644
-3.9285,0.5902734779444399,0.9134008605347127
-3.928,0.6756348768059011,1.210106735879401
-3.9275,0.8036769750980928,0.7862411996727035
-3.927,1.209143619690033,0.2987958330350016
-3.9265,1.326515543124542,-0.1568596183871981
-3.926,0.7289857510943143,-0.718481453861072
-3.9255,0.00341386077189465,-0.9728007755850904
-3.925,-0.03926683865883591,-0.792657922697244
-3.9245,0.2488278824985954,-0.4959520473525559
-3.924,0.4408910299368829,-0.3370024712750445
-3.9235,0.4942419042252961,-0.2946159176543747
-3.923,0.4729015545099309,-0.2946159176543747
-3.9225,0.408880505363835,-0.3687923864905467
-3.922,0.291508581929326,-0.474758770542221
-3.9215,0.0674349099179905,-0.6019184314042303
-3.921,0.01408403562957729,-0.4535654937318862
-3.9205,0.04609456020262521,-0.07208651114585861
-3.92,0.1314559590640864,0.06566978812131802
-3.9195,-0.01792648894347063,0.1186529801471552
-3.919,-0.3487019095316325,0.2670059178194992
-3.9185,-0.6261264558313813,0.6060983467848571
-3.918,-0.9675720512772257,0.2246193641988295
-3.9175,-1.362368521011484,-0.2628260024388724
-3.917,-1.895877263895616,-0.4959520473525559
-3.9165,-2.376035132491334,-0.7714646458869092
-3.916,-2.301343908487556,-0.8880276683437509
-3.9155,-1.46907026958831,-0.8350444763179138
-3.915,-0.690147504977477,-0.6760949002404023
-3.9145,-0.124628237520297,-0.4641621321370536
-3.914,0.2061471830678648,-0.252229364033705
-3.9135,0.3555296310754218,-0.06148987274069118
-3.913,0.4302208550792003,0.13984625695749
-3.9125,0.4622313796522482,0.6590815388106942
-3.912,0.5155822539406614,0.9769806909657173
-3.9115,0.5689331282290746,0.6484849004055269
-3.911,0.6222840025174878,0.07626642652648545
-3.9105,0.9637295979633325,-0.2628260024388724
-3.91,1.337185717982225,-0.400582301706049
-3.9095,0.942389248247967,-0.8032545611024114
-3.909,0.142126133921769,-1.004590690800593
-3.9085,-0.2420001609548061,-0.8456411147230812
-3.908,0.02475421048725994,-0.6019184314042303
-3.9075,0.2701682322139607,-0.5277419625680583
-3.907,0.3982103305061524,-0.4959520473525559
-3.9065,0.4408910299368829,-0.5065486857577234
-3.906,0.408880505363835,-0.5277419625680583
-3.9055,0.3341892813600565,-0.5277419625680583
-3.905,0.0674349099179905,-0.6654982618352349
-3.9045,-0.04993701351651855,-0.5913217929990628
-3.904,-0.07127736323188383,-0.2098428104130352
-3.9035,-0.06060718837420119,0.3411823866556712
-3.903,-0.3060212101009019,0.5107286011383502
-3.9025,-0.5407650569699201,0.5213252395435176
-3.902,-0.3807124341046804,0.8286277532933731
-3.9015,-0.1673089369510276,0.8392243916985406
-3.901,-0.5087545323968721,0.1504428953626575
-3.9005,-1.095614149569417,-0.570128516188728
-3.9,-1.735824641030376,-1.01518732920576
-3.8995,-1.949228138184029,-1.142346990067769
-3.899,-1.373038695869166,-1.036380606016095
-3.8985,-0.690147504977477,-0.8032545611024114
-3.898,-0.156638762093345,-0.5595318777835605
-3.8975,0.1634664836371343,-0.3052125560595421
-3.897,0.3235191065023739,-0.008506680714854012
-3.8965,0.3875401556484697,0.3305857482505039
-3.896,0.4195506802215176,0.9769806909657173
-3.8955,0.4622313796522482,1.570392441655093
-3.895,0.5049120790829789,1.70814874092227
-3.8945,0.5369226036560266,1.400846227172415
-3.894,0.7183155762366316,0.7650479228623686
-3.8935,1.123782220828572,0.5001319627331828
-3.893,0.8463576745288233,-0.1250697031716958
-3.8925,0.2274875327832301,-0.7290780922662394
-3.892,-0.08194753808956648,-0.9198175835592532
-3.8915,0.1741366584948169,-0.7820612842920766
-3.891,0.4302208550792003,-0.5913217929990628
-3.8905,0.5262524287983441,-0.570128516188728
-3.89,0.5049120790829789,-0.5595318777835605
-3.8895,0.4302208550792003,-0.6019184314042303
-3.889,0.3768699807907871,-0.5595318777835605
-3.8885,0.09944543449103843,-0.6019184314042303
-3.888,-0.2633405106701714,-0.5595318777835605
