Class_1_Relax_eyes_closed/Class_1_Relax_eyes_closed_Basim_10.csv

#Digilent WaveForms Oscilloscope Acquisition
#Device Name: EExplorer
#Serial Number: SN:210151A2B84A
#Date Time: 2021-01-28 09:21:05.330
#Sample rate: 2000Hz
#Samples: 16384
#Trigger: Source: Channel 1 Type: Edge Condition: Rising Level: 0 V Hyst.: Auto HoldOff: 0 s
#Channel 1: Range: 1 V/div Offset: 0 V Attenuation: 1 X
#Channel 2: Range: 1 V/div Offset: 0 V Attenuation: 1 X
#Channel 4: Range: 1 V/div Offset: 0 V Attenuation: 1 X
#Power Supplies: ON
#Fixed Supply: ON
#Voltage: 3.3 V Readback: 3.32 V
#Positive Supply: ON
#Voltage: 3.7 V Readback: 3.71 V
#Current: 40 mA Readback: 18 mA
#Negative Supply: ON
#Voltage: -3.7 V Readback: -3.341 V
#Current: -40 mA Readback: -10 mA
#Reference 1: ON
#Voltage: 0 V
#Reference 2: ON
#Voltage: 0 V

Time (s),Channel 1 (V),Channel 2 (V),Channel 4 (V)
-4.096,0.291508581929326,0.55311515475902,-0.09553569170522189
-4.0955,0.291508581929326,0.500131962733231,-0.07436953688354288
-4.095,0.3448594562182244,0.3835689402758206,-0.06378645947265525
-4.0945,0.8783681991018712,-0.1886495336027004,-0.04262030465097626
-4.094,0.9210488985325629,-0.9622041371792194,-0.04262030465097626
-4.0935,0.04609456020206235,-1.629792356705529,-0.03203722724010788
-4.093,-0.572775581542968,-1.693372187136476,-0.01087107241842888
-4.0925,-0.5407650569699491,-1.152943628473428,-0.000287995007589378
-4.092,-0.2846808603852843,-0.559531877783175,-0.0002879950075893773
-4.0915,-0.007256314085787988,-0.1356663415768632,-0.01087107241842888
-4.091,0.1954770082101822,0.1186529801471552,-0.01087107241842888
-4.0905,0.3128489316447203,0.2458126410092029,-0.01087107241842888
-4.09,0.3448594562177392,0.2881991946298341,-0.01087107241842888
-4.0895,0.3128489316446912,0.2670059178194992,-0.01087107241842888
-4.089,0.2594980573563266,0.2352160026040259,0.03146123722492912
-4.0885,0.2488278824985954,0.1610395337678249,0.04204431463581675
-4.088,0.2488278824985954,0.06566978812131802,0.04204431463581675
-4.0875,0.2594980573562684,0.00208995769037125,0.03146123722497725
-4.087,0.2701682322138151,-0.01910331911986724,0.02087815981409925
-4.0865,0.1101156093487211,0.1504428953626575,-0.000287995007579752
-4.086,-0.5621054066846739,0.6166949851896004,-0.01087107241841925
-4.0855,-1.341028171296526,0.2776025562239149,-0.03203722724013675
-4.085,-1.789175515318789,-0.5489352393783931,-0.04262030465097626
-4.0845,-1.767835165603443,-1.121153713256914,-0.03203722724013675
-4.084,-1.170305373572623,-0.9198175835587906,-0.01087107241842888
-4.0835,-0.5407650569699201,-0.4111789401112165,-0.01087107241842888
-4.083,-0.07127736323188383,0.07626642652648545,-0.021454149829278
-4.0825,0.2168173579256542,0.4471487707075383,-0.02145414982928762
-4.082,0.3341892813600565,0.6590815388106942,-0.03203722724012713
-4.0815,0.3768699807907871,0.775644561267536,-0.03203722724012713
-4.081,0.3661998059331142,0.8180311148881673,-0.03203722724012713
-4.0805,0.3341892813600565,0.8286277532933731,-0.07436953688352363
-4.08,0.3128489316446912,0.8074344764830383,-0.09553569170522189
-4.0795,0.3021787567870183,0.7756445612675649,-0.09553569170522189
-4.079,0.2915085819293357,0.722661369241641,-0.08495261429435351
-4.0785,0.3021787567870086,0.6590815388106942,-0.0637864594726745
-4.078,0.6649647019478884,0.2352160026043825,-0.053203382061835
-4.0775,1.017080472251105,-0.5701285161894218,-0.04262030465097626
-4.077,0.3128489316446912,-1.333086481360783,-0.04262030465097626
-4.0765,-0.5194247072537979,-1.788741932782568,-0.02145414982929725
-4.076,-0.6581369804042155,-1.3966663117912,-0.000287995007579752
-4.0755,-0.423393133535411,-0.7502713690765743,-0.000287995007579752
-4.075,-0.1032878878049318,-0.2098428104130352,-0.01087107241842888
-4.0745,0.1527963087795778,0.09745970333693597,-0.01087107241842888
-4.074,0.291508581929326,0.2246193641988295,-0.01087107241842888
-4.0735,0.3555296310754218,0.2458126410091644,-0.01087107241842888
-4.073,0.334189281360076,0.214022725793691,-0.01087107241842888
-4.0725,0.3341892813600565,0.2881991946298341,0.0208781598141185
-4.072,0.291508581929326,0.4153588554918433,0.04204431463581675
-4.0715,0.280838407071653,0.2987958330351076,0.04204431463581675
-4.071,0.2701682322139607,0.1186529801470395,0.031461237224958
-4.0705,0.2701682322139607,-0.008506680714854012,0.0208781598141185
-4.07,0.216817357925596,-0.0296999575251696,0.010295082403279
-4.0695,-0.2953510352439375,0.415358855491853,-0.01087107241844813
-4.069,-1.084943974711735,0.4259554938970107,-0.03203722724012713
-4.0685,-1.597112367880501,-0.2946159176543747,-0.04262030465097626
-4.068,-1.746494815887709,-1.04697724442132,-0.04262030465095701
-4.0675,-1.362368521011484,-1.110557074852267,-0.021454149829278
-4.067,-0.7434983792658902,-0.6337083466197325,-0.01087107241842888
-4.0665,-0.2206598112391303,-0.0932797879557887,-0.021454149829278
-4.066,0.1207857842064037,0.3517790250608387,-0.021454149829278
-4.0655,0.3021787567870086,0.6378882620003594,-0.021454149829278
-4.065,0.3661998059330462,0.7862411996725686,-0.0320372272401175
-4.0645,0.3661998059331045,0.8604176685088755,-0.03203722724012713
-4.064,0.3448594562177392,0.8710143069140429,-0.05320338206182537
-4.0635,0.3235191065023933,0.8604176685088851,-0.09553569170518339
-4.063,0.3021787567870086,0.8286277532933346,-0.09553569170522189
-4.0625,0.3021787567870086,0.7862411996727035,-0.09553569170522189
-4.062,0.2915085819293357,0.7226613692417567,-0.07436953688354288
-4.0615,0.3448594562177197,0.4789386859221829,-0.05320338206182537
-4.061,0.3235191065023739,-0.252229364033705,-0.05320338206182537
-4.0605,-0.274010685527854,-1.068170521231597,-0.04262030465097626
-4.06,-1.010252750708024,-1.650985633515555,-0.02145414982926837
-4.0595,-1.084943974711735,-1.375473034981453,-0.01087107241842888
-4.059,-0.7008176798351597,-0.7820612842920766,-0.000287995007579752
-4.0585,-0.2526703358128963,-0.3370024712754492,-0.01087107241841925
-4.058,0.07810508477567314,-0.07208651114585861,-0.01087107241842888
-4.0575,0.2594980573562781,0.04447651131098315,-0.01087107241842888
-4.057,0.3341892813599886,0.07626642652645654,-0.01087107241842888
-4.0565,0.3235191065023739,0.07626642652648545,-0.01087107241842888
-4.056,0.3128489316446912,0.09745970333682032,0.01029508240326937
-4.0555,0.355529631075383,0.2352160026038717,0.04204431463578787
-4.055,0.3448594562177197,0.2034260873884079,0.04204431463581675
-4.0545,0.3235191065023739,0.1080563417419877,0.04204431463581675
-4.054,0.302178756787028,0.03387987290588318,0.03146123722497725
-4.0535,0.2808384070713036,0.02328323450072539,0.01029508240325012
-4.053,-0.09261771294724913,0.1080563417419877,-0.01087107241842888
-4.0525,-0.839529952985034,-0.3370024712750445,-0.03203722724012713
-4.052,-1.309017646723167,-1.036380606016635,-0.03203722724013675
-4.0515,-1.415719395299897,-1.629792356705471,-0.04262030465097626
-4.051,-1.244996597576974,-1.576809164679634,-0.021454149829278
-4.0505,-0.7434983792663463,-0.909220945154693,-0.0108710724184385
-4.05,-0.2526703358124887,-0.2098428104130352,-0.01087107241842888
-4.0495,0.07810508477567314,0.3199891098453364,-0.021454149829278
-4.049,0.270168232213786,0.6378882620000703,-0.0320372272401175
-4.0485,0.3448594562177586,0.7862411996727516,-0.03203722724012713
-4.048,0.3661998059331045,0.8392243916985406,-0.03203722724012713
-4.0475,0.3448594562177586,0.8286277532933828,-0.04262030465096663
-4.047,0.3235191065023642,0.7862411996726456,-0.08495261429438239
-4.0465,0.3128489316446912,0.7226613692416989,-0.09553569170522189
-4.046,0.3021787567870183,0.6696781772159098,-0.09553569170522189
-4.0455,0.2915085819293939,0.5955017083795547,-0.08495261429435351
-4.045,0.3661998059331045,0.4471487707073456,-0.0637864594726745
-4.0445,0.942389248247967,-0.1674562567923655,-0.05320338206182537
-4.044,1.283834843693132,-0.9728007755856976,-0.04262030465097626
-4.0435,0.5369226036560266,-1.640388995110639,-0.04262030465097626
-4.043,-0.1352984123779797,-1.555615887869299,-0.01087107241842888
-4.0425,-0.2420001609547091,-1.015187329206252,-0.01087107241842888
-4.042,-0.1139580626626144,-0.5383386009732256,-0.01087107241842888
-4.0415,0.0674349099179905,-0.1992461720078678,-0.01087107241842888
-4.041,0.2274875327830845,0.02328323450044589,-0.01087107241842888
-4.0405,0.2915085819293357,0.1292496185523515,-0.01087107241842888
-4.04,0.3021787567870086,0.1610395337678249,-0.01087107241842888
-4.0395,0.2701682322139898,0.1610395337678249,-0.01087107241842888
-4.039,0.1954770082101628,0.07626642652641799,0.03146123722497725
-4.0385,0.1741366584948169,0.002089957690313421,0.04204431463581675
-4.038,0.1848068333524898,-0.02969995752515996,0.04204431463581675
-4.0375,0.2168173579255766,-0.0191033191199829,0.031461237224958
-4.037,0.2488278824985954,0.02328323450064829,0.0208781598141185
-4.0365,0.07810508477567314,-0.1038764263613609,-0.01087107241842888
-4.036,-0.5941159312590029,-0.6760949002409902,-0.03203722724012713
-4.0355,-1.330357996438436,-1.322489842955616,-0.03203722724012713
-4.035,-1.661133417026597,-1.862918401619155,-0.03203722724012713
-4.0345,-1.618452717595906,-1.926498232050101,-0.02145414982928762
-4.034,-1.074273799854052,-1.174136905283272,-0.01087107241842888
-4.0335,-0.4874141826815069,-0.3793890248957141,-0.01087107241842888
-4.033,-0.04993701351691643,0.2246193641982801,-0.02145414982926837
-4.0325,0.2168173579256542,0.5955017083798535,-0.02145414982928762
-4.032,0.3341892813600565,0.775644561267536,-0.03203722724012713
-4.0315,0.3661998059330753,0.8286277532933249,-0.03203722724012713
-4.031,0.3661998059330754,0.8074344764829902,-0.03203722724016563
-4.0305,0.3341892813600565,0.7544512844572011,-0.07436953688352363
-4.03,0.3128489316447107,0.6802748156210966,-0.09553569170520264
-4.0295,0.3021787567869989,0.616694985189957,-0.09553569170521226
-4.029,0.291508581929326,0.5425185163538525,-0.08495261429437276
-4.0285,0.3021787567870086,0.4471487707073456,-0.0637864594726745
-4.028,0.7183155762373206,-0.008506680715547919,-0.04262030465097626
-4.0275,1.475897991132099,-0.7714646458869092,-0.04262030465097626
-4.027,1.315845368266859,-1.47084278062796,-0.03203722724012713
-4.0265,0.4942419042260434,-1.6615822719208,-0.01087107241844813
-4.026,0.1101156093487211,-1.078767159636765,-0.01087107241842888
-4.0255,0.04609456020262521,-0.6443049850249,-0.01087107241842888
-4.025,0.09944543449098991,-0.284019279249535,-0.01087107241842888
-4.0245,0.1954770082102404,-0.01910331911988652,-0.01087107241842888
-4.024,0.2594980573562781,0.1292496185523226,-0.01087107241842888
-4.0235,0.2915085819292969,0.2034260873884272,-0.01087107241842888
-4.023,0.2808384070716336,0.2034260873885043,-0.0108710724184
-4.0225,0.2701682322139607,0.2140227257936621,0.0208781598141185
-4.022,0.2915085819293066,0.2246193641988199,0.0420443146357975
-4.0215,0.3021787567869989,0.1504428953625997,0.04204431463581675
-4.021,0.291508581929326,0.08686306493165288,0.04204431463581675
-4.0205,0.2808384070716433,0.05507314971615059,0.0208781598141185
-4.02,0.2381577076404567,0.1398462569579237,0.01029508240325012
-4.0195,-0.2633405106701714,0.6166949851900245,-0.01087107241842888
-4.019,-1.042263275281004,0.5319218779486851,-0.03203722724012713
-4.0185,-1.469070269587922,-0.2522293640329918,-0.04262030465096663
-4.018,-1.543761493592088,-0.9728007755850904,-0.04262030465097626
-4.0175,-1.127624674142465,-0.9410108603695881,-0.021454149829278
-4.017,-0.5727755815434726,-0.4641621321374873,-0.0108710724184385
-4.0165,-0.1139580626623524,0.04447651131133974,-0.021454149829278
-4.016,0.1741366584948169,0.4365521323021782,-0.021454149829278
-4.0155,0.3128489316445651,0.6908714540259653,-0.0320372272401175
-4.015,0.3555296310754218,0.8286277532934213,-0.03203722724012713
-4.0145,0.3555296310754218,0.8816109453192104,-0.03203722724012713
-4.014,0.334189281360076,0.8922075837243681,-0.05320338206180612
-4.0135,0.3128489316446815,0.871014306914014,-0.09553569170522189
-4.013,0.3021787567870086,0.8392243916985406,-0.09553569170522189
-4.0125,0.291508581929326,0.7862411996727035,-0.09553569170522189
-4.012,0.2915085819294037,0.7226613692414483,-0.07436953688350438
-4.0115,0.3768699807907871,0.4471487707073456,-0.05320338206182537
-4.011,0.3875401556484697,-0.3158091944647096,-0.05320338206182537
-4.0105,-0.2846808603849252,-1.121153713256702,-0.04262030465098588
-4.01,-1.052933450138687,-1.767548655972648,-0.03203722724012713
-4.0095,-1.116954499284783,-1.693372187136476,-0.01087107241842888
-4.009,-0.722158029550884,-1.078767159637324,-0.000287995007589378
-4.0085,-0.2633405106698609,-0.5065486857574053,-0.0002879950075893773
-4.008,0.07810508477567314,-0.1568596183871981,-0.01087107241842888
-4.0075,0.280838407071459,0.04447651131080005,-0.01087107241842888
-4.007,0.3448594562177295,0.1398462569574997,-0.01087107241842888
-4.0065,0.3341892813600565,0.1504428953626575,-0.01087107241842888
-4.006,0.2701682322139607,0.1822328105781598,0.01029508240326937
-4.0055,0.131455959064067,0.3305857482504557,0.04204431463581675
-4.005,0.1101156093487211,0.2776025562246667,0.04204431463581675
-4.0045,0.1527963087794516,0.1292496185523226,0.04204431463581675
-4.004,0.206147183067894,0.01268659609543267,0.02087815981410887
-4.0035,0.2381577076409128,-0.04029659593035631,0.01029508240326937
-4.003,-0.03926683865883591,0.2352160026039969,-0.000287995007579752
-4.0025,-0.7755089038382686,0.5425185163535731,-0.02145414982925875
-4.002,-1.458400094730627,-0.01910331912002144,-0.04262030465097626
-4.0015,-1.746494815888059,-0.8138511995075789,-0.04262030465097626
-4.001,-1.458400094730889,-1.025783967610735,-0.02145414982929725
-4.0005,-0.839529952984539,-0.6443049850244277,-0.01087107241842888
-4,-0.2953510352432193,-0.1250697031716958,-0.01087107241842888
-3.9995,0.07810508477567314,0.309392471440169,-0.021454149829278
-3.999,0.2808384070716433,0.6060983467848571,-0.03203722724012713
-3.9985,0.3555296310754218,0.775644561267536,-0.03203722724012713
-3.998,0.3661998059331045,0.849821030103708,-0.03203722724012713
-3.9975,0.3555296310754218,0.8816109453192104,-0.04262030465097626
-3.997,0.3341892813600565,0.8710143069140429,-0.08495261429437276
-3.9965,0.3128489316446912,0.8392243916985406,-0.09553569170522189
-3.996,0.3021787567870086,0.7968378380778709,-0.09553569170522189
-3.9955,0.3021787567870086,0.7438546460520338,-0.07436953688352363
-3.995,0.3768699807907871,0.5955017083796896,-0.0637864594726745
-3.9945,0.7609962756673623,-0.06148987274069118,-0.05320338206182537
-3.994,0.4408910299368829,-0.8880276683437509,-0.04262030465097626
-3.9935,-0.4020527838200457,-1.566212526274467,-0.03203722724012713
-3.993,-0.7755089038389382,-1.481439419033127,-0.01087107241842888
-3.9925,-0.5941159312583333,-0.9304142219644207,-0.000287995007579752
-3.992,-0.2526703358124887,-0.4217755785163839,-0.01087107241842888
-3.9915,0.04609456020262521,-0.08268314955102604,-0.01087107241842888
-3.991,0.2488278824985954,0.09745970333682032,-0.01087107241842888
-3.9905,0.3341892813600565,0.1610395337678249,-0.01087107241842888
-3.99,0.3341892813600565,0.1504428953626575,-0.01087107241842888
-3.9895,0.3021787567870086,0.1080563417419877,-0.01087107241842888
-3.989,0.2701682322139607,0.05507314971615059,0.03146123722496762
-3.9885,0.2594980573562781,0.002089957690313421,0.04204431463581675
-3.988,0.2594980573562781,-0.02969995752518888,0.04204431463581675
-3.9875,0.2701682322139607,-0.04029659593035631,0.03146123722496762
-3.987,0.2701682322139607,-0.01910331912002144,0.0208781598141185
-3.9865,0.08877525963335578,0.2140227257936621,-0.000287995007579752
-3.986,-0.5941159312583333,0.55311515475902,-0.021454149829278
-3.9855,-1.287677297007705,0.02328323450064829,-0.04262030465097626
-3.985,-1.522421143876723,-0.7714646458869092,-0.04262030465097626
-3.9845,-1.501080794161358,-1.195330182093607,-0.03203722724012713
-3.984,-1.010252750707956,-0.9092209451540858,-0.01087107241842888
-3.9835,-0.4660738329661415,-0.3581957480853793,-0.01087107241842888
-3.983,-0.03926683865883591,0.1504428953626575,-0.021454149829278
-3.9825,0.2168173579255475,0.5107286011383502,-0.021454149829278
-3.982,0.3341892813600565,0.7120647308365314,-0.03203722724012713
-3.9815,0.3661998059331045,0.8180311148882058,-0.03203722724012713
-3.981,0.3661998059331045,0.849821030103708,-0.03203722724012713
-3.9805,0.3341892813600565,0.8392243916985406,-0.07436953688352363
-3.98,0.3235191065023739,0.8074344764830383,-0.09553569170522189
-3.9795,0.3128489316446912,0.7650479228623686,-0.09553569170522189
-3.979,0.3021787567870086,0.7120647308365314,-0.08495261429437276
-3.9785,0.3128489316446912,0.6378882620003594,-0.0637864594726745
-3.978,0.6436243522328531,0.1822328105781598,-0.05320338206182537
-3.9775,0.6863050516635838,-0.6337083466197325,-0.04262030465097626
-3.977,-0.1139580626626144,-1.38606967338662,-0.04262030465097626
-3.9765,-0.7861790786966207,-1.682775548731308,-0.01087107241842888
-3.976,-0.7434983792658902,-1.205926820498774,-0.000287995007579752
-3.9755,-0.4127229586777283,-0.6549016234300674,-0.000287995007579752
-3.975,-0.07127736323188383,-0.2204394488182027,-0.01087107241842888
-3.9745,0.1954770082101822,0.07626642652648545,-0.01087107241842888
-3.974,0.3341892813600565,0.2140227257936621,-0.01087107241842888
-3.9735,0.3661998059331045,0.2246193641988295,-0.01087107241842888
-3.973,0.3448594562177392,0.1928294489833272,-0.01087107241842888
-3.9725,0.2381577076409128,0.2246193641988295,0.0208781598141185
-3.972,0.142126133921769,0.2776025562246667,0.04204431463581675
-3.9715,0.1527963087794516,0.1928294489833272,0.04204431463581675
-3.971,0.1954770082101822,0.09745970333682032,0.03146123722496762
-3.9705,0.2381577076409128,0.03387987290581572,0.0208781598141185
-3.97,0.1634664836371343,-0.06148987274069118,-0.000287995007579752
-3.9695,-0.4020527838200457,-0.5595318777835605,-0.03203722724012713
-3.969,-1.170305373573196,-1.195330182093607,-0.03203722724012713
-3.9685,-1.757164990745741,-1.767548655972648,-0.03203722724012713
-3.968,-1.938557963326346,-2.021867977696666,-0.03203722724012713
-3.9675,-1.426389570157579,-1.417859588602123,-0.01087107241842888
-3.967,-0.7434983792658902,-0.6125150698093976,-0.01087107241842888
-3.9665,-0.1993194615240755,0.04447651131098315,-0.01087107241842888
-3.966,0.1527963087794516,0.4789386859228479,-0.021454149829278
-3.9655,0.3235191065023739,0.701468092431364,-0.03203722724012713
-3.965,0.3768699807907871,0.7862411996727035,-0.03203722724012713
-3.9645,0.3768699807907871,0.7862411996727035,-0.03203722724012713
-3.964,0.3555296310754218,0.7438546460520338,-0.05320338206182537
-3.9635,0.3341892813600565,0.6908714540261965,-0.09553569170522189
-3.963,0.3128489316446912,0.627291623595192,-0.09553569170522189
-3.9625,0.3021787567870086,0.5637117931641874,-0.08495261429437276
-3.962,0.3021787567870086,0.5001319627331828,-0.07436953688352363
-3.9615,0.3555296310754218,0.2140227257936621,-0.05320338206182537
-3.961,0.08877525963335578,-0.5065486857577234,-0.05320338206182537
-3.9605,-0.6794773301197943,-1.248313374119443,-0.04262030465097626
-3.96,-1.351698346153801,-1.714565463946811,-0.021454149829278
-3.9595,-1.244996597576974,-1.311893204550448,-0.000287995007579752
-3.959,-0.7328282044082075,-0.7502713690765743,-0.000287995007579752
-3.9585,-0.2313299860971235,-0.3158091944647096,-0.01087107241842888
-3.958,0.1207857842064037,-0.02969995752518888,-0.01087107241842888
-3.9575,0.3128489316446912,0.13984625695749,-0.01087107241842888
-3.957,0.3768699807907871,0.2246193641988295,-0.01087107241842888
-3.9565,0.3555296310754218,0.2246193641988295,-0.01087107241842888
-3.956,0.3235191065023739,0.2034260873884947,0.01029508240326937
-3.9555,0.3235191065023739,0.2140227257936621,0.04204431463581675
-3.955,0.3128489316446912,0.1822328105781598,0.04204431463581675
-3.9545,0.3021787567870086,0.13984625695749,0.04204431463581675
-3.954,0.3021787567870086,0.1292496185523226,0.03146123722496762
-3.9535,0.2808384070716433,0.13984625695749,0.01029508240326937
-3.953,-0.04993701351651855,0.4259554938970107,-0.000287995007579752
-3.9525,-0.7968492535543035,0.5107286011383502,-0.021454149829278
