Class_1_Relax_eyes_closed/Class_1_Relax_eyes_closed_SH_8.csv

#Digilent WaveForms Oscilloscope Acquisition
#Device Name: EExplorer
#Serial Number: SN:210151A2B84A
#Date Time: 2021-01-20 10:34:49.135
#Sample rate: 2000Hz
#Samples: 16384
#Trigger: Source: Channel 1 Type: Edge Condition: Rising Level: 0 V Hyst.: Auto HoldOff: 0 s
#Channel 1: Range: 1 V/div Offset: 0 V Attenuation: 1 X
#Channel 2: Range: 1 V/div Offset: 0 V Attenuation: 1 X
#Power Supplies: ON
#Fixed Supply: ON
#Voltage: 3.3 V Readback: 3.324 V
#Positive Supply: ON
#Voltage: 3.7 V Readback: 3.714 V
#Current: 40 mA Readback: 19 mA
#Negative Supply: ON
#Voltage: -3.7 V Readback: -3.709 V
#Current: -40 mA Readback: -7 mA
#Reference 1: ON
#Voltage: 0 V
#Reference 2: ON
#Voltage: 0 V

Time (s),Channel 1 (V),Channel 2 (V)
-4.096,-0.658136980404429,0.7968378380778709
-4.0955,-1.511750969018264,1.082947075017131
-4.095,-2.045259711902979,0.5001319627323444
-4.0945,-1.83185621474952,-0.4217755785163839
-4.094,-1.020922925566377,-0.7078848154556443
-4.0935,-0.2633405106696862,-0.6019184314039894
-4.093,0.2701682322139607,-0.3370024712750445
-4.0925,0.5689331282288028,-0.06148987274094175
-4.092,0.6969752265212857,0.1716361721731562
-4.0915,0.7183155762366316,0.3517790250608387
-4.091,0.6969752265212663,0.4683420475176805
-4.0905,0.6649647019481989,0.5955017083798342
-4.09,0.6436243522328531,0.7544512844572011
-4.0895,0.6222840025174878,0.9134008605347127
-4.089,0.5475927785137773,1.114736990232711
-4.0885,0.2061471830678648,1.316073119931075
-4.088,-0.5834457564006506,1.464426057603419
-4.0875,-1.41571939529914,1.528005888034366
-4.087,-2.098610586191712,1.40084622717173
-4.0865,-2.23732285934146,0.6484849004055269
-4.086,-1.458400094731336,-0.1462629799813078
-4.0855,-0.5834457564000295,-0.7608680074821176
-4.085,0.09944543449103843,-1.174136905283272
-4.0845,0.5582629533709749,-1.407262950196743
-4.084,0.8250173248135551,-1.51322933424863
-4.0835,0.9317190733902845,-1.51322933424863
-4.083,0.8036769750980928,-1.523825972653797
-4.0825,0.6009436528021905,-1.576809164679326
-4.082,0.6756348768059011,-1.237716735714276
-4.0815,0.7396559259519968,-0.8350444763179138
-4.081,0.7823366253826887,-0.4641621321373909
-4.0805,0.79300680024041,-0.1674562567923655
-4.08,0.6542945270905358,0.2670059178194992
-4.0795,-0.03926683865820513,0.8074344764825468
-4.079,-0.9782422261356168,1.22070337428452
-4.0785,-1.757164990745741,1.167720182258731
-4.078,-1.853196564464798,0.288199194630634
-4.0775,-1.148965023857142,-0.2522293640338399
-4.077,-0.391382608962363,-0.400582301706049
-4.0765,0.1848068333519755,-0.3264058328699445
-4.076,0.5155822539408069,-0.1462629799818572
-4.0755,0.6756348768059011,0.04447651131098315
-4.075,0.707645401378949,0.2034260873884947
-4.0745,0.6969752265212469,0.3305857482506099
-4.074,0.6756348768059011,0.4471487707073456
-4.0735,0.6436243522328531,0.6060983467848571
-4.073,0.6329541773751802,0.765047922862224
-4.0725,0.6116138276598051,0.9028042221295453
-4.072,0.4942419042252961,1.040560521396722
-4.0715,-0.1246282375197342,1.05115715980188
-4.071,-1.010252750708626,1.178316820663985
-4.0705,-1.746494815888059,1.273686566310405
-4.07,-2.098610586191266,0.8180311148886201
-4.0695,-1.682473766741196,0.08686306493107462
-4.069,-0.839529952985034,-0.5489352393783931
-4.0685,-0.08194753808956648,-1.01518732920576
-4.068,0.4515612047948664,-1.311893204550544
-4.0675,0.7823366253827275,-1.417859588602123
-4.067,0.9317190733902845,-1.502632695843462
-4.0665,0.9317190733901486,-1.545019249464344
-4.066,0.7823366253827275,-1.778145294377815
-4.0655,0.7396559259519968,-1.661582271920973
-4.065,0.728985751094324,-1.269506650930135
-4.0645,0.7289857510943143,-0.8456411147230812
-4.064,0.7396559259519968,-0.474758770542221
-4.0635,0.6542945270906134,-0.06148987274106704
-4.063,0.1314559590632712,0.5319218779491574
-4.0625,-0.7648387289812555,1.051157159801889
-4.062,-1.554431668449053,1.273686566310203
-4.0615,-1.853196564464371,0.5319218779480779
-4.061,-1.287677297007705,-0.1356663415768632
-4.0605,-0.5300948821122373,-0.3687923864905467
-4.06,0.0781050847760128,-0.3158091944645554
-4.0595,0.4515612047945656,-0.1462629799820306
-4.059,0.6436243522328531,0.05507314971615059
-4.0585,0.7076454013788909,0.2458126410089909
-4.058,0.707645401378949,0.383568940276341
-4.0575,0.6756348768059011,0.4895353243280153
-4.057,0.6542945270905552,0.6272916235950667
-4.0565,0.6436243522328531,0.7862411996727035
-4.056,0.6222840025174878,0.9134008605347127
-4.0555,0.5582629533714503,1.07235043661208
-4.055,0.05676473505951209,1.178316820664014
-4.0545,-0.8181896032696687,1.305476481525908
-4.054,-1.629122892452812,1.400846227172328
-4.0535,-2.269333383914498,1.135930267042573
-4.053,-2.258663209056825,0.4153588554918433
-4.0525,-1.437059745015262,-0.2416327256285375
-4.052,-0.4660738329654719,-0.7714646458872273
-4.0515,0.2701682322139607,-1.121153713257435
-4.051,0.6969752265212663,-1.333086481360783
-4.0505,0.9530594231054168,-1.502632695843308
-4.05,1.059761171682476,-1.523825972653797
-4.0495,0.9210488985326017,-1.629792356705471
-4.049,0.8463576745288912,-1.502632695843578
-4.0485,0.8036769750980637,-1.11055707485193
-4.048,0.7716664505250448,-0.7396747306714069
-4.0475,0.7609962756673719,-0.4429688553269886
-4.047,0.7289857510939649,-0.1886495336022667
-4.0465,0.3448594562177392,0.2881991946298341
-4.046,-0.498084357538423,0.8286277532928816
-4.0455,-1.351698346154238,1.22070337428424
-4.045,-1.83185621474952,0.8604176685088755
-4.0445,-1.437059745015262,0.09745970333682032
-4.044,-0.690147504976885,-0.2840192792492844
-4.0435,-0.03926683865883591,-0.3687923864905467
-4.043,0.3875401556484697,-0.2840192792492073
-4.0425,0.6116138276596013,-0.1250697031718403
-4.042,0.6969752265212663,0.04447651131098315
-4.0415,0.707645401378949,0.1822328105781598
-4.041,0.6863050516636032,0.2987958330348955
-4.0405,0.6542945270905262,0.4153588554920071
-4.04,0.6436243522328531,0.5955017083796896
-4.0395,0.6222840025175073,0.78624119967253
-4.039,0.5902734779442069,1.040560521396789
-4.0385,0.3341892813600565,1.114736990232894
-4.038,-0.4660738329654136,1.157123543853525
-4.0375,-1.319687821581423,1.263089927905219
-4.037,-2.055929886760855,1.241896651094903
-4.0365,-2.312014083345239,0.627291623595192
-4.036,-1.735824641029522,-0.1144730647670873
-4.0355,-0.7968492535543035,-0.7290780922662394
-4.035,-0.007256314085787988,-1.121153713257435
-4.0345,0.504912079082513,-1.33308648136059
-4.034,0.7823366253827275,-1.396666311791788
-4.0335,0.8890383739595538,-1.322489842955616
-4.033,0.8997085488172268,-1.322489842955616
-4.0325,0.9210488985326308,-1.41785958860192
-4.032,0.9530594231056497,-1.195330182093607
-4.0315,0.9317190733903039,-0.8880276683440305
-4.031,0.8676980242441303,-0.5913217929988026
-4.0305,0.8036769750980928,-0.3052125560595421
-4.03,0.6969752265213633,0.1186529801467697
-4.0295,0.2274875327824052,0.6802748156214435
-4.029,-0.6794773301197943,1.135930267043229
-4.0285,-1.51175096901904,1.146526905448396
-4.028,-1.607782542737621,0.3199891098448449
-4.0275,-0.9889124009925911,-0.2204394488182027
-4.027,-0.3060212101009019,-0.3793890248957141
-4.0265,0.216817357925072,-0.3052125560596096
-4.026,0.5262524287983441,-0.1250697031716958
-4.0255,0.6649647019482183,0.07626642652648545
-4.025,0.6969752265212372,0.2564092794141679
-4.0245,0.6863050516635644,0.4047622170868012
-4.024,0.6649647019482183,0.5425185163538525
-4.0235,0.6436243522328725,0.6908714540260616
-4.023,0.6329541773751511,0.8286277532934984
-4.0225,0.6116138276598051,0.9663840525605498
-4.022,0.472901554510057,1.114736990232759
-4.0215,-0.2099896363825636,1.210106735879516
-4.021,-1.095614149569417,1.33726639674141
-4.0205,-1.863866739322568,1.400846227172415
-4.02,-2.354694782775688,0.9345941373442861
-4.0195,-2.045259711903173,0.09745970333682032
-4.019,-1.127624674142465,-0.570128516188728
-4.0185,-0.2846808603863032,-0.9939940523950397
-4.018,0.3128489316446912,-1.290699927740113
-4.0175,0.6649647019482183,-1.460246142222792
-4.017,0.8356874996709855,-1.523825972653739
-4.0165,0.8890383739594858,-1.566212526274563
-4.016,0.8143471499557753,-1.672178910326141
-4.0155,0.7716664505250836,-1.43905286541267
-4.015,0.7396559259519871,-1.078767159636408
-4.0145,0.7289857510943143,-0.6866915386455698
-4.014,0.7183155762366412,-0.3370024712753625
-4.0135,0.5796033030861557,0.05507314971665174
-4.013,-0.08194753808956648,0.6060983467848571
-4.0125,-0.9782422261349084,1.093543713422559
-4.012,-1.693143941599849,1.305476481525272
-4.0115,-1.917217613610981,0.6060983467848571
-4.011,-1.298347471865388,-0.09327978795619347
-4.0105,-0.5300948821129361,-0.3581957480851384
-4.01,0.07810508477567314,-0.3370024712750445
-4.0095,0.4622313796522482,-0.1886495336027004
-4.009,0.6436243522326881,-0.008506680715017839
-4.0085,0.707645401378949,0.1716361721731176
-4.008,0.707645401378949,0.309392471440169
-4.0075,0.6756348768059302,0.4153588554917469
-4.007,0.6436243522328434,0.5425185163539971
-4.0065,0.6329541773751706,0.701468092431364
-4.006,0.6116138276598051,0.8604176685088755
-4.0055,0.558262953370936,1.040560521396828
-4.005,0.05676473506030786,1.157123543853563
-4.0045,-0.8288597781273515,1.305476481525908
-4.004,-1.639793067311591,1.411442865577409
-4.0035,-2.03458953704549,1.220703374284568
-4.003,-1.533091318734406,0.457745409112513
-4.0025,-0.7434983792666083,-0.3475991096794794
-4.002,-0.007256314085787988,-0.9622041371799229
-4.0015,0.5369226036560266,-1.333086481360783
-4.001,0.8570278493862149,-1.49203605743815
-4.0005,1.006410297394082,-1.513229334248639
-4,1.027750647109428,-1.523825972653797
-3.9995,0.8463576745288233,-1.661582271920973
-3.999,0.7289857510943143,-1.598002441489969
-3.9985,0.7183155762366316,-1.269506650929778
-3.998,0.7289857510943143,-0.9092209451540858
-3.9975,0.7503261008096795,-0.5807251545938954
-3.997,0.7503261008096795,-0.2840192792492073
-3.9965,0.4515612047945656,0.2352160026039969
-3.996,-0.3700422592469978,0.8074344764830383
-3.9955,-1.26633694729234,1.220703374284568
-3.995,-1.885207089037933,0.8392243916985406
-3.9945,-1.533091318734406,0.02328323450064829
-3.994,-0.7755089038389382,-0.3475991096802118
-3.9935,-0.1032878878049318,-0.3687923864905467
-3.993,0.3555296310754218,-0.2098428104130352
-3.9925,0.6009436528021226,0.01268659609548085
-3.992,0.6863050516635838,0.2352160026039969
-3.9915,0.707645401378949,0.4153588554918433
-3.991,0.6863050516635838,0.55311515475902
-3.9905,0.6542945270905358,0.6802748156210291
-3.99,0.6329541773751706,0.8180311148882058
-3.9895,0.6222840025174878,0.92399749893988
-3.989,0.6009436528021226,1.061753798207057
-3.9885,0.3128489316446912,1.146526905448396
-3.988,-0.4980843575391895,1.263089927905238
-3.9875,-1.362368521011484,1.37965295036208
-3.987,-1.959898313041711,1.369056311956912
-3.9865,-1.789175515318789,0.701468092431364
-3.986,-1.010252750707956,-0.1992461720078678
-3.9855,-0.2206598112394408,-0.9622041371799229
-3.985,0.3768699807907871,-1.439052865412457
-3.9845,0.7396559259519968,-1.629792356705471
-3.984,0.9210488985326017,-1.555615887869299
-3.9835,0.9530594231056497,-1.396666311791788
-3.983,0.974399772821015,-1.38606967338662
-3.9825,1.038420821967111,-1.375473034981453
-3.982,1.017080472251745,-1.174136905283272
-3.9815,0.9210488985326017,-0.9516074987747555
-3.981,0.8356874996711408,-0.7396747306714069
-3.9805,0.7609962756673623,-0.5277419625680583
-3.98,0.4942419042252961,-0.1144730647665284
-3.9795,-0.2313299860971235,0.4895353243280153
-3.979,-1.116954499284783,1.00877060618122
-3.9785,-1.778505340461106,1.093543713422559
-3.978,-1.821186039891837,0.2881991946298341
-3.9775,-1.116954499284783,-0.2310360872233701
-3.977,-0.3807124341046804,-0.3475991096802118
-3.9765,0.1848068333524996,-0.2416327256285375
-3.976,0.5155822539406614,-0.04029659593035631
-3.9755,0.6649647019482183,0.1822328105781598
-3.975,0.707645401378949,0.3623756634660061
-3.9745,0.6863050516635838,0.5107286011383502
-3.974,0.6649647019482183,0.627291623595192
-3.9735,0.6329541773751706,0.7544512844572011
-3.973,0.6222840025174878,0.8922075837243778
-3.9725,0.6116138276598051,1.029963882991555
-3.972,0.5049120790829789,1.082947075017392
-3.9715,-0.07127736323188383,0.9663840525605498
-3.971,-0.9462317015618604,1.072350436612224
-3.9705,-1.735824641030376,1.199510097474233
-3.97,-2.301343908487556,0.849821030103708
-3.9695,-2.066600061618538,0.2034260873884947
-3.969,-1.159635198715513,-0.4429688553267188
-3.9685,-0.3060212101009019,-0.9198175835592532
-3.968,0.3341892813600565,-1.248313374119443
-3.9675,0.7396559259519968,-1.534422611058964
-3.967,0.9317190733902845,-1.661582271920973
-3.9665,0.9530594231056497,-1.629792356705471
-3.966,0.8676980242441885,-1.587405803084801
-3.9655,0.857027849386506,-1.301296566145281
-3.965,0.8356874996711408,-1.05757388282643
-3.9645,0.8143471499557753,-0.8562377531282487
-3.964,0.79300680024041,-0.6337083466197325
-3.9635,0.6329541773751706,-0.2734226408440398
-3.963,0.01408403562957729,0.3305857482505039
-3.9625,-0.8928808272734472,0.8922075837243778
-3.962,-1.629122892453549,1.220703374284568
-3.9615,-2.013249187330125,0.5955017083796896
-3.961,-1.597112367880501,-0.2416327256285375
-3.9605,-0.7968492535543035,-0.474758770542221
-3.96,-0.1032878878049318,-0.3687923864905467
-3.9595,0.3661998059331045,-0.1144730647665284
-3.959,0.6009436528021226,0.1610395337678249
-3.9585,0.6969752265212663,0.4047622170866759
-3.958,0.707645401378949,0.5849050699745222
-3.9575,0.6756348768059011,0.7120647308365314
-3.957,0.6542945270905358,0.8286277532933731
-3.9565,0.6329541773751706,0.9451907757502149
-3.956,0.6222840025174878,1.040560521396722
-3.9555,0.5475927785137094,1.188913459069066
-3.955,0.03542438534494258,1.29487984312074
-3.9545,-0.839529952985034,1.400846227172415
-3.954,-1.650463242168915,1.443232780793084
-3.9535,-2.162631635337682,1.188913459069066
-3.953,-1.906547438753298,0.3199891098453364
-3.9525,-1.074273799854052,-0.4535654937318862
-3.952,-0.2313299860971235,-1.046977244421262
-3.9515,0.408880505363835,-1.38606967338662
-3.951,0.79300680024041,-1.523825972653797
-3.9505,0.974399772821015,-1.566212526274467
-3.95,1.017080472251745,-1.534422611058964
-3.9495,1.113112045970889,-1.650985633515806
-3.949,1.177133095116985,-1.51322933424863
-3.9485,1.091771696255524,-1.195330182093607
-3.948,0.9530594231056497,-0.8668343915334161
-3.9475,0.8356874996711408,-0.5807251545938954
-3.947,0.7289857510943143,-0.2946159176543747
-3.9465,0.3021787567870086,0.2140227257936621
-3.946,-0.5834457564006506,0.7862411996727035
-3.9455,-1.447729919872945,1.210106735879401
-3.945,-2.07727023647622,0.8816109453192104
-3.9445,-1.725154466172693,0.04447651131098315
-3.944,-0.9035510021311299,-0.3581957480853793
-3.9435,-0.1673089369510276,-0.400582301706049
-3.943,0.3235191065023739,-0.252229364033705
-3.9425,0.5902734779444399,-0.04029659593035631
-3.942,0.6969752265212663,0.1610395337678249
-3.9415,0.707645401378949,0.3411823866556712
-3.941,0.6863050516635838,0.4683420475176805
-3.9405,0.6542945270905358,0.5849050699745222
-3.94,0.6222840025174878,0.6590815388106942
-3.9395,0.6116138276598051,0.7862411996727035
-3.939,0.5902734779444399,1.019367244586387
-3.9385,0.3768699807907871,1.093543713422559
-3.938,-0.3700422592469978,1.072350436612224
-3.9375,-1.234326422719292,1.178316820663898
-3.937,-1.959898313041711,1.199510097474233
-3.9365,-2.301343908487556,0.6378882620003594
-3.936,-1.757164990745741,-0.1144730647665284
-3.9355,-0.8928808272734472,-0.7290780922662394
-3.935,-0.124628237520297,-1.174136905283272
-3.9345,0.4408910299368829,-1.38606967338662
-3.934,0.7503261008096795,-1.407262950196955
-3.9335,0.9103787236749192,-1.375473034981453
-3.933,0.8783681991018712,-1.439052865412457
-3.9325,0.7289857510943143,-1.534422611058964
-3.932,0.707645401378949,-1.301296566145281
-3.9315,0.7183155762366316,-0.9622041371799229
-3.931,0.7503261008096795,-0.6125150698093976
-3.9305,0.7823366253827275,-0.3370024712750445
-3.93,0.4729015545099309,0.07626642652648545
-3.9295,-0.3700422592469978,0.6484849004055269
-3.929,-1.26633694729234,1.125333628638062
-3.9285,-1.991908837614759,1.157123543853563
-3.928,-1.938557963326346,0.3411823866556712
-3.9275,-1.127624674142465,-0.1992461720078678
-3.927,-0.3487019095316325,-0.3581957480853793
-3.9265,0.2168173579255475,-0.2734226408440398
-3.926,0.5369226036560266,-0.1038764263613609
-3.9255,0.6756348768059011,0.1080563417419877
-3.925,0.707645401378949,0.2881991946298341
-3.9245,0.6969752265212663,0.4259554938970107
-3.924,0.6649647019482183,0.5425185163538525
-3.9235,0.6329541773751706,0.701468092431364
-3.923,0.6116138276598051,0.8392243916985406
-3.9225,0.5902734779444399,0.9451907757502149
-3.922,0.4942419042252961,1.040560521396722
-3.9215,-0.1032878878049318,1.051157159801889
-3.921,-0.9782422261349084,1.188913459069066
-3.9205,-1.757164990745741,1.29487984312074
-3.92,-2.301343908487556,0.92399749893988
-3.9195,-1.991908837614759,0.2352160026039969
-3.919,-1.074273799854052,-0.4217755785163839
-3.9185,-0.2206598112394408,-1.01518732920576
-3.918,0.408880505363835,-1.47084278062796
-3.9175,0.8036769750980928,-1.640388995110639
-3.917,0.9850699476786977,-1.693372187136476
-3.9165,1.017080472251745,-1.75695201756748
-3.916,0.6649647019482183,-2.000674700886331
-3.9155,0.4942419042252961,-1.852321763213987
-3.915,0.5689331282290746,-1.333086481360783
-3.9145,0.6649647019482183,-0.8032545611024114
-3.914,0.7183155762366316,-0.400582301706049
-3.9135,0.7183155762366316,-0.01910331912002144
-3.913,0.4835717293676135,0.5319218779486851
-3.9125,-0.3700422592469978,1.029963882991555
-3.912,-1.244996597576974,1.305476481525908
-3.9115,-1.67180359188428,0.6590815388106942
-3.911,-1.234326422719292,-0.08268314955102604
-3.9105,-0.5407650569699201,-0.4217755785163839
-3.91,0.04609456020262521,-0.4641621321370536
-3.9095,0.4302208550792003,-0.3581957480853793
-3.909,0.6222840025174878,-0.1992461720078678
-3.9085,0.6863050516635838,-0.04029659593035631
-3.908,0.6969752265212663,0.09745970333682032
-3.9075,0.6649647019482183,0.2034260873884947
-3.907,0.6436243522328531,0.3517790250608387
-3.9065,0.6222840025174878,0.5425185163538525
-3.906,0.6116138276598051,0.7650479228623686
-3.9055,0.5582629533713921,1.040560521396722
-3.905,0.1207857842064037,1.284283204715573
-3.9045,-0.7328282044082075,1.453829419198252
-3.904,-1.565101843307454,1.528005888034424
-3.9035,-2.183971985053047,1.273686566310405
-3.903,-2.258663209056825,0.5637117931641874
-3.9025,-1.479740444445993,-0.07208651114585861
-3.902,-0.5621054066852853,-0.6019184314042303
-3.9015,0.1634664836371343,-0.8986243067489184
-3.901,0.6222840025174878,-1.05757388282643
-3.9005,0.8463576745288233,-1.142346990067769
-3.9,0.9317190733902845,-1.142346990067769
-3.8995,0.825017324813458,-1.248313374119443
-3.899,0.7396559259519968,-1.269506650929778
-3.8985,0.7503261008096795,-0.9622041371799229
-3.898,0.79300680024041,-0.5807251545938954
-3.8975,0.8356874996711408,-0.2734226408440398
-3.897,0.8036769750980928,-0.1038764263613609
-3.8965,0.2701682322139607,0.03387987290581572
-3.896,-0.690147504977477,0.5001319627331828
-3.8955,-1.565101843307454,0.9663840525605498
-3.895,-2.226652684483777,0.7862411996727035
-3.8945,-1.938557963326346,-0.07208651114585861
-3.894,-1.042263275281004,-0.5065486857577234
-3.8935,-0.2526703358124887,-0.5807251545938954
-3.893,0.2808384070716433,-0.474758770542221
-3.8925,0.5796033030867573,-0.3052125560595421
-3.892,0.6969752265212663,-0.1462629799820306
-3.8915,0.7183155762366316,-0.008506680714854012
-3.891,0.6969752265212663,0.09745970333682032
-3.8905,0.6649647019482183,0.2034260873884947
-3.89,0.6329541773751706,0.4047622170866759
-3.8895,0.6222840025174878,0.6166949851900245
-3.889,0.5902734779444399,0.8816109453192104
-3.8885,0.3448594562177392,1.072350436612224
-3.888,-0.4340633083930936,1.231300012689736
-3.8875,-1.298347471865388,1.37965295036208
-3.887,-2.03458953704549,1.390249588767247
-3.8865,-2.354694782775969,0.7650479228623686
-3.886,-1.757164990745741,-0.008506680714854012
-3.8855,-0.7968492535543035,-0.6231117082145651
-3.885,-0.02859666380115328,-1.046977244421262
