Class_1_Relax_eyes_closed/Class_1_Relax_eyes_closed_UZ_10.csv

#Digilent WaveForms Oscilloscope Acquisition
#Device Name: EExplorer
#Serial Number: SN:210151A2B84A
#Date Time: 2020-12-23 13:06:03.908
#Sample rate: 2000Hz
#Samples: 16384
#Trigger: Source: Channel 1 Type: Edge Condition: Rising Level: 0 V Hyst.: Auto HoldOff: 0 s
#Channel 1: Range: 1 V/div Offset: 0 V Attenuation: 1 X
#Channel 2: Range: 1 V/div Offset: 0 V Attenuation: 1 X
#Power Supplies: ON
#Fixed Supply: ON
#Voltage: 3.3 V Readback: 3.327 V
#Positive Supply: ON
#Voltage: 3.7 V Readback: 3.702 V
#Current: 40 mA Readback: 17 mA
#Negative Supply: ON
#Voltage: -3.7 V Readback: -3.924 V
#Current: -40 mA Readback: -14 mA
#Reference 1: ON
#Voltage: 0 V
#Reference 2: ON
#Voltage: 0 V

Time (s),Channel 1 (V),Channel 2 (V)
-4.096,0.3555296310754218,0.7544512844572011
-4.0955,0.7503261008093205,0.1716361721735223
-4.095,0.8250173248128272,-0.8668343915342642
-4.0945,0.1314559590640864,-1.79933857118815
-4.094,0.003413860772011112,-2.000674700886148
-4.0935,0.259498057356511,-1.258910012523907
-4.093,0.5155822539406614,-0.4853554089473885
-4.0925,0.6222840025173908,0.002089957689870081
-4.092,0.5796033030866505,0.2458126410092319
-4.0915,0.4622313796522482,0.3199891098453364
-4.091,0.3555296310754218,0.3411823866556712
-4.0905,0.227487532783104,0.457745409112648
-4.09,0.08877525963335578,0.6060983467848571
-4.0895,0.07810508477567314,0.5637117931641874
-4.089,0.110115609348692,0.478938685922925
-4.0885,0.142126133921769,0.4153588554918433
-4.088,0.1207857842064037,0.4153588554918433
-4.0875,-0.3593720843888785,0.5213252395434212
-4.087,-1.1809755484315,0.4153588554912747
-4.0865,-1.863866739322568,-0.2098428104130352
-4.086,-2.41871583192156,-1.00459069079987
-4.0855,-2.568098279928865,-1.449649503817239
-4.085,-1.735824641030376,-1.025783967610927
-4.0845,-0.8928808272742138,-0.284019279249882
-4.084,-0.2633405106698317,0.3729723018715784
-4.0835,0.1101156093487211,0.8180311148882058
-4.083,0.2808384070716433,1.051157159801889
-4.0825,0.3341892813600468,1.146526905448406
-4.082,0.3235191065023739,1.157123543853563
-4.0815,0.291508581929326,1.114736990232894
-4.081,0.2701682322139801,1.051157159801947
-4.0805,0.2701682322139607,0.9769806909657173
-4.08,0.2808384070716433,0.8922075837243778
-4.0795,0.2488278824986245,0.6590815388109063
-4.079,0.7503261008099027,0.3835689402756278
-4.0785,0.9957401225363802,-0.400582301706049
-4.078,0.3555296310760041,-1.131750351661937
-4.0775,0.09944543449126163,-1.004590690800178
-4.077,0.3448594562177392,-0.5489352393783931
-4.0765,0.5796033030865438,-0.06148987274113449
-4.076,0.6649647019481795,0.2034260873885525
-4.0755,0.6222840025174878,0.2670059178194992
-4.075,0.3768699807907871,0.13984625695749
-4.0745,0.3661998059325998,0.214022725793238
-4.074,-0.1886492866663929,-0.252229364033705
-4.0735,-0.6367966306890638,-0.6125150698093976
-4.073,-0.4767440078239699,-0.4005823017062418
-4.0725,-0.3060212101009019,-0.1780528951975329
-4.072,-0.1139580626626144,0.07626642652648545
-4.0715,0.09944543449084434,0.3517790250605881
-4.071,-0.09261771294806431,0.7332580076473
-4.0705,-0.9889124009925911,1.210106735879401
-4.07,-1.970568487898501,0.7650479228627733
-4.0695,-2.70681055308002,-0.453565493732927
-4.069,-3.282999995394359,-1.598002441489969
-4.0685,-2.781501777083275,-1.809935209593318
-4.068,-1.72515446617182,-1.078767159635955
-4.0675,-0.7648387289812555,-0.1886495336027004
-4.067,-0.124628237520297,0.5107286011383502
-4.0665,0.2168173579256736,0.9451907757504173
-4.066,0.3555296310754218,1.167720182258731
-4.0655,0.3768699807907871,1.241896651094903
-4.065,0.3448594562177683,1.231300012689745
-4.0645,0.3128489316446912,1.178316820663898
-4.064,0.3021787567870086,1.104140351827727
-4.0635,0.2915085819293357,1.029963882991622
-4.063,0.3128489316451085,0.9345941373446427
-4.0625,0.7716664505250448,0.4895353243280153
-4.062,1.209143619689635,-0.474758770541344
-4.0615,0.5475927785130398,-1.386069673387208
-4.061,-0.1886492866663929,-2.032464616101834
-4.0605,-0.1352984123779797,-1.873515040024322
-4.06,0.2168173579257804,-1.163540266877478
-4.0595,0.4729015545099309,-0.474758770542221
-4.059,0.5689331282290746,0.03387987290581572
-4.0585,0.5475927785137288,0.277602556224445
-4.058,0.4622313796522482,0.3411823866556712
-4.0575,0.3661998059331045,0.2987958330350016
-4.057,0.3768699807907774,0.3199891098453171
-4.0565,0.3768699807907871,0.3199891098453364
-4.056,0.3341892813600565,0.2987958330350016
-4.0555,0.2701682322140189,0.2881991946298438
-4.055,0.2274875327831622,0.2987958330350594
-4.0545,0.1527963087794516,0.3623756634660061
-4.054,-0.2633405106697929,0.6060983467846355
-4.0535,-0.8181896032703286,0.6802748156203737
-4.053,-1.543761493592088,-0.04029659593035631
-4.0525,-2.19464215991073,-0.1992461720078678
-4.052,-2.290673733629145,0.3305857482507352
-4.0515,-1.490410619303675,0.5849050699745222
-4.051,-0.7328282044082075,0.6484849004055269
-4.0505,-0.167308936951542,0.6696781772158423
-4.05,0.1527963087794516,0.6908714540261965
-4.0495,0.3021787567870086,0.7332580076468663
-4.049,0.2168173579256251,0.7014680924313929
-4.0485,0.3021787567866884,0.8922075837241561
-4.048,-0.04993701351651855,0.6484849004055269
-4.0475,-0.5514352318271467,0.2458126410095306
-4.047,-0.3487019095314287,0.5107286011385622
-4.0465,-0.124628237520297,0.7438546460520338
-4.046,0.4622313796517143,0.7014680924314025
-4.0455,1.443887466559138,-0.01910331912095629
-4.045,1.539919040278195,-1.046977244421262
-4.0445,0.6863050516635838,-1.746355379162313
-4.044,0.3982103305062301,-1.513229334247945
-4.0435,0.4835717293676135,-0.7608680074817418
-4.043,0.5796033030867573,-0.008506680714854012
-4.0425,0.5902734779444302,0.5425185163533514
-4.042,0.5262524287983441,0.849821030103708
-4.0415,0.4302208550792003,0.9451907757502149
-4.041,0.3448594562178168,0.9028042221295838
-4.0405,0.3448594562177877,0.8286277532933056
-4.04,0.3982103305061524,0.7544512844572011
-4.0395,0.3661998059331336,0.5849050699746764
-4.039,0.3235191065023253,0.3835689402761868
-4.0385,0.2701682322139607,0.2140227257936621
-4.038,0.216817357925596,0.06566978812145294
-4.0375,0.01408403562896591,-0.3475991096808865
-4.037,-0.658136980404429,-1.089363798041932
-4.0365,-1.458400094730627,-1.788741932782983
-4.036,-2.066600061618858,-1.788741932782
-4.0355,-2.418715831922065,-0.7078848154559045
-4.035,-1.853196564464885,0.05507314971615059
-4.0345,-1.042263275281742,0.341182386655411
-4.034,-0.3807124341046804,0.3941655786815084
-4.0335,0.04609456020262521,0.3623756634660061
-4.033,0.259498057356084,0.3411823866556905
-4.0325,0.3341892813600565,0.3517790250608869
-4.032,0.3341892813600565,0.4047622170866759
-4.0315,0.3128489316447107,0.4789386859227804
-4.031,0.2915085819293357,0.5743084315694416
-4.0305,0.3021787567870086,0.6696781772158616
-4.03,0.3235191065023544,0.7650479228622818
-4.0295,0.4195506802218961,0.7862411996724143
-4.029,0.8356874996711408,0.4683420475176805
-4.0285,1.049090996824793,-0.1568596183871981
-4.028,0.2274875327830651,-0.803254561102132
-4.0275,0.04609456020262521,-0.4959520473525559
-4.027,0.2381577076409128,0.1716361721729923
-4.0265,-0.07127736323160239,0.1186529801472034
-4.026,0.00341386077189465,0.383568940276341
-4.0255,0.1741366584948169,0.6590815388106942
-4.025,0.2488278824985274,0.7968378380777457
-4.0245,0.3341892813600371,0.8922075837243681
-4.024,0.3128489316446912,0.8816109453192104
-4.0235,0.3235191065023642,0.8922075837243681
-4.023,0.3021787567869795,0.8286277532932768
-4.0225,0.2701682322139607,0.7226613692416989
-4.022,0.2274875327832689,0.6272916235952787
-4.0215,0.1954770082100075,0.5425185163539874
-4.021,0.00341386077189465,0.6908714540261965
-4.0205,-0.7648387289812555,1.273686566310405
-4.02,-1.66113341702717,1.739938656137214
-4.0195,-2.290673733629873,1.125333628638062
-4.019,-2.770831602225592,-0.1144730647665284
-4.0185,-2.312014083345656,-0.7714646458863117
-4.018,-1.405049220442214,-0.6443049850249
-4.0175,-0.5941159312583333,-0.2416327256285375
-4.017,-0.04993701351701352,0.1504428953623009
-4.0165,0.2381577076410098,0.436552132302342
-4.016,0.3448594562177392,0.6166949851900245
-4.0155,0.3555296310754121,0.7226613692416025
-4.015,0.3341892813600275,0.7650479228623974
-4.0145,0.3021787567870086,0.7968378380778709
-4.014,0.3021787567870086,0.8074344764830287
-4.0135,0.323519106502403,0.8074344764830383
-4.013,0.3555296310754218,0.8074344764830383
-4.0125,0.3982103305061524,0.5001319627331828
-4.012,0.4195506802210421,-0.262826002439547
-4.0115,-0.1032878878049318,-1.004590690800593
-4.011,-0.5087545323968721,-1.502632695843462
-4.0105,-0.199319461524357,-1.301296566145464
-4.01,0.2488278824985954,-0.6125150698093976
-4.0095,0.5262524287983441,0.02328323450064829
-4.009,0.5902734779443817,0.4259554938966445
-4.0085,0.4408910299368635,0.563711793164332
-4.008,0.4195506802215176,0.7226613692416989
-4.0075,0.3341892813601341,0.6908714540262254
-4.007,-0.02859666380156086,0.3093924714396871
-4.0065,-0.4767440078238243,-0.2204394488182027
-4.006,-0.2420001609548061,-0.05089323433552374
-4.0055,-0.0819475380893918,0.06566978812146258
-4.005,0.1101156093487211,0.2246193641988295
-4.0045,0.1527963087794516,0.383568940276341
-4.004,-0.4127229586786891,0.9239974989404969
-4.0035,-1.46907026958831,1.602182356870596
-4.003,-2.290673733629873,1.591585718465428
-4.0025,-2.813512301655847,0.6484849004063846
-4.002,-2.706810553079496,-0.3899856633008816
-4.0015,-1.821186039891837,-0.570128516188728
-4.001,-0.8928808272742915,-0.2840192792494675
-4.0005,-0.2206598112390915,0.09745970333711908
-4,0.1634664836371343,0.4259554938970107
-3.9995,0.3341892813600565,0.6696781772158616
-3.999,0.3768699807907871,0.8180311148882058
-3.9985,0.3555296310754218,0.9134008605347127
-3.998,0.3235191065023739,0.9663840525605498
-3.9975,0.3128489316446912,0.9875773293708847
-3.997,0.3128489316446912,0.9981739677760521
-3.9965,0.3448594562177392,0.9981739677760521
-3.996,0.6116138276598051,0.8286277532933731
-3.9955,1.166462920259302,0.1292496185523226
-3.995,0.8356874996711408,-0.7290780922662394
-3.9945,0.09944543449103843,-1.269506650929778
-3.994,0.09944543449103843,-1.004590690800593
-3.9935,0.3875401556484697,-0.4323722169215513
-3.993,0.6116138276598051,0.09745970333682032
-3.9925,0.6649647019482183,0.4259554938970107
-3.992,0.5902734779444399,0.6060983467848571
-3.9915,0.4729015545099309,0.6696781772158616
-3.991,0.3768699807907871,0.627291623595192
-3.9905,0.3875401556484697,0.5743084315693548
-3.99,0.4622313796522482,0.5319218779486851
-3.9895,0.4195506802215176,0.4259554938970107
-3.989,0.3555296310754218,0.3199891098453364
-3.9885,0.1954770082101822,0.13984625695749
-3.988,0.1954770082101822,0.1292496185523226
-3.9875,0.04609456020262521,0.13984625695749
-3.987,-0.6261264558313813,-0.252229364033705
-3.9865,-2.119950935906951,-1.650985633515806
-3.986,-2.482736881068161,-1.788741932782983
-3.9855,-2.738821077652544,-1.88411167842949
-3.985,-2.162631635337682,-1.449649503817625
-3.9845,-1.191645723288561,-0.6231117082145651
-3.984,-0.4554036581084589,0.01268659609548085
-3.9835,0.00341386077189465,0.4259554938970107
-3.983,0.2488278824985954,0.6696781772158616
-3.9825,0.3448594562177392,0.775644561267536
-3.982,0.3555296310754218,0.8180311148882058
-3.9815,0.3341892813600565,0.8074344764830383
-3.981,0.3235191065023739,0.7862411996727035
-3.9805,0.3235191065023739,0.7650479228623686
-3.98,0.3555296310754218,0.7226613692416989
-3.9795,0.4622313796522482,0.6166949851900245
-3.979,0.6222840025174878,0.01268659609548085
-3.9785,0.6329541773751706,-0.9728007755850904
-3.978,0.03542438534494258,-1.714565463946811
-3.9775,-0.06060718837420119,-1.481439419033127
-3.977,0.2381577076409128,-0.7608680074817418
-3.9765,0.5049120790829789,-0.1780528951975329
-3.976,0.6222840025174878,0.2246193641988295
-3.9755,0.6009436528021226,0.457745409112513
-3.975,0.5262524287983441,0.4789386859228479
-3.9745,0.4302208550792003,0.4365521323021782
-3.974,0.3875401556484697,0.4153588554918433
-3.9735,0.4515612047945656,0.4789386859228479
-3.973,0.4408910299368829,0.4789386859228479
-3.9725,0.3661998059331045,0.457745409112513
-3.972,0.3021787567870086,0.4365521323021782
-3.9715,0.2488278824985954,0.4259554938970107
-3.971,0.1634664836371343,0.4259554938970107
-3.9705,-0.156638762093345,0.4471487707073456
-3.97,-0.8715404775580819,-0.06148987274069118
-3.9695,-1.543761493592088,-0.8032545611024114
-3.969,-2.119950935906951,-1.407262950196955
-3.9685,-1.810515865034154,-1.290699927740113
-3.968,-1.159635198715513,-0.7502713690765743
-3.9675,-0.4447334832507763,-0.02969995752518888
-3.967,-0.2633405106701714,0.1822328105781598
-3.9665,-0.5194247072545548,-0.04029659593035631
-3.966,-0.156638762093345,0.3517790250608387
-3.9655,0.05676473506030786,0.5637117931641874
-3.965,0.2274875327832301,0.7226613692416989
-3.9645,0.3021787567870086,0.775644561267536
-3.964,0.3021787567870086,0.7226613692416989
-3.9635,0.3021787567870086,0.6696781772158616
-3.963,0.3982103305061524,0.5849050699745222
-3.9625,0.9957401225363802,-0.04029659593035631
-3.962,1.507908515705147,-1.0999604364471
-3.9615,0.8143471499557753,-2.021867977696666
-3.961,0.03542438534494258,-2.297380576231019
-3.9605,0.03542438534494258,-1.682775548731308
-3.96,0.291508581929326,-0.8032545611024114
-3.9595,0.4729015545099309,-0.09327978795619347
-3.959,0.5369226036560266,0.2458126410091644
-3.9585,0.5049120790829789,0.383568940276341
-3.958,0.4302208550792003,0.3941655786815084
-3.9575,0.3661998059331045,0.3729723018711736
-3.957,0.3768699807907871,0.4259554938970107
-3.9565,0.3661998059331045,0.4471487707073456
-3.956,0.3235191065023739,0.4153588554918433
-3.9555,0.2808384070716433,0.3729723018711736
-3.955,0.2488278824985954,0.3623756634660061
-3.9545,0.07810508477567314,0.2458126410091644
-3.954,-0.658136980404429,-0.3687923864905467
-3.9535,-1.373038695869166,-1.121153713257435
-3.953,-1.650463242168915,-1.714565463946811
-3.9525,-1.895877263895616,-2.032464616101834
-3.952,-1.746494815888059,-1.735758740757146
-3.9515,-1.1062843244271,-0.8456411147230812
-3.951,-0.4767440078238243,-0.05089323433552374
-3.9505,-0.03926683865883591,0.5213252395435176
-3.95,0.2168173579255475,0.8286277532933731
-3.9495,0.3235191065023739,0.9557874141553824
-3.949,0.3448594562177392,0.9663840525605498
-3.9485,0.1954770082101822,0.7968378380778709
-3.948,0.291508581929326,0.849821030103708
-3.9475,-0.423393133535411,0.06566978812131802
-3.947,-0.4127229586777283,-0.008506680714854012
-3.9465,-0.1673089369510276,0.13984625695749
-3.946,0.3555296310754218,-0.1250697031716958
-3.9455,1.273164668836129,-0.9622041371799229
-3.945,1.294505018551494,-1.862918401619155
-3.9445,0.2488278824985954,-2.572893174765372
-3.944,-0.1032878878049318,-2.413943598687861
-3.9435,0.1207857842064037,-1.47084278062796
-3.943,0.408880505363835,-0.6125150698093976
-3.9425,0.5689331282290746,-0.04029659593035631
-3.942,0.5689331282290746,0.2987958330350016
-3.9415,0.4942419042252961,0.4365521323021782
-3.941,0.3982103305061524,0.4365521323021782
-3.9405,0.3341892813600565,0.4259554938970107
-3.94,0.3021787567870086,0.4259554938970107
-3.9395,0.2808384070716433,0.3623756634660061
-3.939,0.2594980573562781,0.3199891098453364
-3.9385,0.2488278824985954,0.2881991946298341
-3.938,0.2168173579255475,0.2881991946298341
-3.9375,-0.1886492866663929,0.4471487707073456
-3.937,-0.9569018764195432,0.4153588554918433
-3.9365,-1.51175096901904,-0.3158091944647096
-3.936,-1.981238662757077,-1.01518732920576
-3.9355,-2.247993034199143,-1.417859588602123
-3.935,-1.682473766741963,-1.078767159636765
-3.9345,-0.9142211769888124,-0.3899856633008816
-3.934,-0.2953510352432193,0.2352160026039969
-3.9335,0.09944543449103843,0.6696781772158616
-3.933,0.291508581929326,0.9028042221295453
-3.9325,0.3555296310754218,0.9981739677760521
-3.932,0.3448594562177392,1.00877060618122
-3.9315,0.3235191065023739,0.9769806909657173
-3.931,0.3021787567870086,0.92399749893988
-3.9305,0.3021787567870086,0.8604176685088755
-3.93,0.3235191065023739,0.7862411996727035
-3.9295,0.4835717293676135,0.627291623595192
-3.929,1.017080472251745,-0.09327978795619347
-3.9285,1.209143619690033,-0.7502713690765743
-3.928,0.3555296310754218,-1.34368311976595
-3.9275,0.01408403562957729,-1.131750351662602
-3.927,0.2594980573562781,-0.6019184314042303
-3.9265,0.5369226036560266,-0.1780528951975329
-3.926,0.6649647019482183,0.07626642652648545
-3.9255,0.6329541773751706,0.1822328105781598
-3.925,0.5475927785137094,0.1504428953626575
-3.9245,0.3235191065023739,-0.01910331912002144
-3.924,0.3448594562177392,0.08686306493165288
-3.9235,0.05676473506030786,-0.1144730647665284
-3.923,-0.5407650569699201,-0.6125150698093976
-3.9225,-0.3807124341046804,-0.3793890248957141
-3.922,-0.2313299860971235,-0.1674562567923655
-3.9215,-0.07127736323188383,0.08686306493165288
-3.921,-0.08194753808956648,0.5425185163538525
-3.9205,-0.7114878546928423,1.25249328950007
-3.92,-1.714484291315011,1.697552102517103
-3.9195,-2.386705307349017,1.082947075017392
-3.919,-2.888203525660101,0.5743084315693548
-3.9185,-2.6427895039334,0.1292496185523226
-3.918,-1.714484291315011,0.05507314971615059
-3.9175,-0.7968492535543035,0.2140227257936621
-3.917,-0.1459685872356623,0.4259554938970107
-3.9165,0.2168173579255475,0.6378882620003594
-3.916,0.3661998059331045,0.8180311148882058
-3.9155,0.3982103305061524,0.9557874141553824
-3.915,0.3661998059331045,1.061753798207057
-3.9145,0.3448594562177392,1.135930267043229
-3.914,0.3235191065023739,1.178316820663898
-3.9135,0.3341892813600565,1.199510097474233
-3.913,0.3875401556484697,1.188913459069066
-3.9125,0.8463576745288233,0.7438546460520338
-3.912,1.209143619690033,-0.1674562567923655
-3.9115,0.5369226036560266,-1.025783967610927
-3.911,-0.01792648894347063,-1.195330182093607
-3.9105,0.2168173579255475,-0.5277419625680583
-3.91,0.5369226036560266,-0.1038764263613609
-3.9095,0.6969752265212663,0.1504428953626575
-3.909,0.6756348768059011,0.2140227257936621
-3.9085,0.5689331282290746,0.2140227257936621
-3.908,0.4515612047945656,0.13984625695749
-3.9075,0.3661998059331045,0.08686306493165288
-3.907,0.3341892813600565,0.1292496185523226
-3.9065,0.3021787567870086,0.13984625695749
-3.906,0.2808384070716433,0.1292496185523226
-3.9055,0.2594980573562781,0.1186529801471552
-3.905,0.2488278824985954,0.13984625695749
-3.9045,0.1634664836371343,0.2881991946298341
-3.904,-0.2633405106701714,0.8922075837243778
-3.9035,-1.042263275281004,1.496215972818921
-3.903,-1.597112367880501,1.676358825706768
-3.9025,-2.141291285622316,0.9663840525605498
-3.902,-2.269333383914508,-0.01910331912002144
-3.9015,-2.013249187330125,-0.7290780922662394
-3.901,-1.415719395299897,-0.6654982618352349
-3.9005,-0.6154562809736985,-0.09327978795619347
-3.9,-0.1032878878049318,0.4153588554918433
-3.8995,0.2488278824985954,0.849821030103708
-3.899,0.3555296310754218,1.082947075017392
-3.8985,0.3555296310754218,1.188913459069066
-3.898,0.3235191065023739,1.241896651094903
-3.8975,0.3128489316446912,1.25249328950007
-3.897,0.3128489316446912,1.241896651094903
-3.8965,0.3235191065023739,1.210106735879401
-3.896,0.5796033030867573,0.8392243916985406
-3.8955,1.283834843693812,-0.1674562567923655
-3.895,1.454557641416734,-1.163540266878104
-3.8945,0.9210488985326017,-1.725162102351978
-3.894,0.707645401378949,-1.640388995110639
-3.8935,0.7183155762366316,-0.9939940523954253
-3.893,0.7396559259519968,-0.326405832869877
-3.8925,0.6756348768059011,0.08686306493165288
-3.892,0.5475927785137094,0.2670059178194992
-3.8915,0.4515612047945656,0.2352160026039969
-3.891,0.3661998059331045,0.1716361721729923
-3.8905,0.3341892813600565,0.1610395337678249
-3.89,0.3555296310754218,0.2352160026039969
-3.8895,0.3341892813600565,0.1822328105781598
-3.889,0.3021787567870086,0.07626642652648545
-3.8885,0.2594980573562781,-0.008506680714854012
-3.888,0.2168173579255475,-0.04029659593035631
-3.8875,-0.09261771294724913,0.2987958330350016
-3.887,-0.839529952985034,1.051157159801889
-3.8865,-1.575772018165136,1.464426057603419
-3.886,-2.066600061618538,1.178316820663898
-3.8855,-2.290673733629873,1.199510097474233
