Class_1_Relax_eyes_closed/Class_1_Relax_eyes_closed_Basim_4.csv

#Digilent WaveForms Oscilloscope Acquisition
#Device Name: EExplorer
#Serial Number: SN:210151A2B84A
#Date Time: 2020-11-18 11:17:51.182
#Sample rate: 2000Hz
#Samples: 16384
#Trigger: Source: Channel 1 Type: Edge Condition: Rising Level: 0 V Hyst.: Auto HoldOff: 0 s
#Channel 1: Range: 1 V/div Offset: 0 V Attenuation: 1 X
#Channel 2: Range: 1 V/div Offset: 0 V Attenuation: 1 X
#Power Supplies: ON
#Fixed Supply: ON
#Voltage: 3.3 V Readback: 3.324 V
#Positive Supply: ON
#Voltage: 3.7 V Readback: 3.714 V
#Current: 500 mA Readback: 20 mA
#Negative Supply: ON
#Voltage: -3.7 V Readback: -3.701 V
#Current: -500 mA Readback: -9 mA
#Reference 1: ON
#Voltage: 0 V
#Reference 2: ON
#Voltage: 0 V

Time (s),Channel 1 (V),Channel 2 (V)
-4.096,-0.9248913518464952,-1.110557074852267
-4.0955,-0.7541685541237282,-0.7502713690769021
-4.095,-0.3700422592466678,-0.2734226408437025
-4.0945,-0.007256314085787988,0.09745970333682032
-4.094,0.2274875327830166,0.3305857482502919
-4.0935,0.3555296310754606,0.4471487707073841
-4.093,0.3982103305061524,0.4895353243280153
-4.0925,0.4088805053638253,0.5001319627331732
-4.092,0.3982103305061427,0.4895353243280153
-4.0915,0.3875401556484697,0.4895353243280153
-4.091,0.3768699807907871,0.4895353243280153
-4.0905,0.3661998059330657,0.5001319627331058
-4.09,0.3235191065023739,0.4153588554918433
-4.0895,-0.2206598112394408,-0.2098428104130352
-4.089,-0.850200127842144,-1.00459069079987
-4.0885,-1.351698346153801,-1.650985633515806
-4.088,-1.415719395299897,-1.915901593644992
-4.0875,-0.9248913518469416,-1.354279758171629
-4.087,-0.3060212101004652,-0.6443049850243795
-4.0865,0.1741366584948169,-0.07208651114585861
-4.086,0.4515612047943133,0.3411823866552954
-4.0855,0.5582629533714017,0.6590815388108581
-4.085,0.5689331282290746,0.8392243916985406
-4.0845,0.5369226036560557,0.9134008605346452
-4.084,0.5475927785136997,0.966384052560492
-4.0835,0.5369226036560266,0.9028042221295453
-4.083,0.4835717293676135,0.7650479228623686
-4.0825,0.4408910299368539,0.6272916235950859
-4.082,0.408880505363835,0.5107286011383502
-4.0815,0.2381577076409128,0.5001319627331828
-4.081,-0.2206598112390236,0.2564092794145534
-4.0805,-0.7434983792658902,-0.5065486857577234
-4.08,-0.9675720512772257,-1.237716735714276
-4.0795,-0.9995825758502446,-1.449649503817432
-4.079,-0.6581369804040409,-0.9939940523948663
-4.0785,-0.2313299860971235,-0.3793890248957141
-4.078,0.09944543449073762,0.1080563417415444
-4.0775,0.2915085819294133,0.4047622170868108
-4.077,0.3875401556484697,0.55311515475902
-4.0765,0.4088805053638156,0.5955017083796511
-4.076,0.4088805053638156,0.5849050699745029
-4.0755,0.3875401556484697,0.5637117931641874
-4.075,0.3768699807907871,0.5425185163538525
-4.0745,0.3661998059331045,0.5213252395434983
-4.074,0.3661998059331045,0.5001319627331828
-4.0735,0.3661998059331045,0.4789386859228479
-4.073,0.02475421048757048,0.07626642652685167
-4.0725,-0.6047861061160158,-0.7290780922662394
-4.072,-1.042263275281004,-1.47084278062796
-4.0715,-1.469070269587922,-2.032464616101323
-4.071,-1.565101843306959,-2.000674700885647
-4.0705,-1.020922925565639,-1.248313374119443
-4.07,-0.3593720843899167,-0.4959520473532402
-4.0695,0.1314559590643484,0.1398462569578659
-4.069,0.4195506802215176,0.55311515475902
-4.0685,0.5475927785137094,0.7544512844572011
-4.068,0.5689331282290261,0.828627753293402
-4.0675,0.5155822539406614,0.8604176685088755
-4.067,0.4515612047945656,0.849821030103708
-4.0665,0.4195506802214982,0.775644561267459
-4.066,0.3982103305061524,0.6908714540261965
-4.0655,0.3875401556484697,0.6060983467848571
-4.065,0.3875401556484697,0.5743084315693837
-4.0645,0.6756348768059011,0.9345941373450475
-4.064,0.4729015545099309,0.8816109453192104
-4.0635,-0.3060212101001935,0.002089957691113309
-4.063,-0.9889124009928822,-0.6125150698091952
-4.0625,-1.30901764672307,-0.3899856633008816
-4.062,-0.9782422261352093,-0.1144730647667789
-4.0615,-0.4660738329657533,0.03387987290589282
-4.061,-0.03926683865883591,0.1186529801471552
-4.0605,0.2381577076409128,0.1716361721729923
-4.06,0.3768699807908259,0.2140227257937103
-4.0595,0.4195506802215176,0.2670059178194992
-4.059,0.4195506802215176,0.3305857482505039
-4.0585,0.3982103305061718,0.3941655786814506
-4.058,0.3875401556484697,0.4683420475176805
-4.0575,0.3768699807907871,0.5425185163538525
-4.057,0.3768699807907871,0.616694985189957
-4.0565,0.2594980573562781,0.5319218779486851
-4.056,-0.3807124341046804,-0.08268314955102604
-4.0555,-0.9995825758497108,-0.8138511995069139
-4.055,-1.277007122149751,-1.29069992773993
-4.0545,-0.9782422261349084,-1.089363798041932
-4.054,-0.4127229586782427,-0.4535654937324645
-4.0535,0.07810508477596427,0.2246193641992439
-4.053,0.3982103305061524,0.6802748156210291
-4.0525,0.5475927785137094,0.9451907757502149
-4.052,0.5902734779444108,1.061753798207066
-4.0515,0.5582629533713921,1.072350436612224
-4.051,0.5155822539406614,1.072350436612224
-4.0505,0.5049120790829885,1.114736990232855
-4.05,0.4729015545099309,0.9557874141553824
-4.0495,0.4408910299368829,0.7438546460520338
-4.049,0.4088805053638641,0.5319218779488778
-4.0485,0.3982103305063465,0.3729723018713374
-4.048,0.6116138276598051,0.55311515475902
-4.0475,0.6756348768058429,0.754451284457018
-4.047,-0.1032878878057178,0.05507314971532176
-4.0465,-0.9675720512772257,-0.8562377531282487
-4.046,-1.362368521011124,-1.301296566144876
-4.0455,-1.031593100422846,-0.9622041371794218
-4.045,-0.5087545323968721,-0.4111789401112165
-4.0445,-0.06060718837420119,0.04447651131098315
-4.044,0.2274875327833563,0.3305857482506291
-4.0435,0.3661998059331045,0.4683420475176805
-4.043,0.4195506802215176,0.5107286011383502
-4.0425,0.4195506802215176,0.5001319627331925
-4.042,0.3982103305061524,0.4683420475176805
-4.0415,0.3875401556484697,0.4365521323021782
-4.041,0.3661998059331239,0.4153588554918626
-4.0405,0.3661998059330657,0.3941655786814313
-4.04,0.3235191065023739,0.309392471440169
-4.0395,-0.1566387620929083,-0.2522293640331942
-4.039,-0.8715404775585575,-1.046977244421869
-4.0385,-1.394379045584531,-1.714565463946811
-4.038,-1.60778254273799,-2.032464616101544
-4.0375,-1.244996597576382,-1.555615887868577
-4.037,-0.5941159312583333,-0.7608680074817418
-4.0365,-0.02859666380115328,-0.08268314955102604
-4.036,0.3341892813602021,0.3517790250610507
-4.0355,0.4942419042252961,0.5849050699745222
-4.035,0.5475927785137094,0.701468092431364
-4.0345,0.5475927785137094,0.7650479228623107
-4.034,0.5369226036560266,0.8922075837243778
-4.0335,0.4942419042252961,0.9134008605347127
-4.033,0.4515612047946044,0.8498210301037659
-4.0325,0.4088805053638156,0.7544512844571144
-4.032,0.3875401556484697,0.6590815388106942
-4.0315,0.4835717293675261,0.669678177215852
-4.031,0.8570278493860305,1.029963882991217
-4.0305,0.3341892813600565,0.6590815388106942
-4.03,-0.4767440078230867,-0.2840192792483495
-4.0295,-1.042263275280975,-0.9092209451539509
-4.029,-1.010252750707956,-0.7608680074817418
-4.0285,-0.5941159312583333,-0.3687923864905467
-4.028,-0.1673089369507462,-0.01910331911979978
-4.0275,0.142126133921769,0.2246193641988295
-4.027,0.3235191065023739,0.3517790250608387
-4.0265,0.3982103305060845,0.4047622170866277
-4.026,0.408880505363835,0.4259554938970107
-4.0255,0.3982103305061524,0.4259554938970107
-4.025,0.3875401556484794,0.4259554938970107
-4.0245,0.3768699807907774,0.4365521323021878
-4.024,0.3661998059331045,0.4471487707073456
-4.0235,0.3661998059331045,0.4577454091125034
-4.023,0.09944543449046586,0.08686306493094934
-4.0225,-0.5300948821122373,-0.6866915386455698
-4.022,-1.138294848999595,-1.4072629501963
-4.0215,-1.639793067311436,-1.968884785670925
-4.021,-1.863866739322568,-2.074851169722503
-4.0205,-1.319687821580753,-1.34368311976595
-4.02,-0.5834457564001265,-0.495952047351968
-4.0195,-0.007256314085787988,0.1504428953626575
-4.019,0.3768699807907871,0.5107286011383502
-4.0185,0.5582629533712271,0.7226613692415061
-4.018,0.6009436528021226,0.849821030103708
-4.0175,0.6329541773751706,0.9345941373450475
-4.017,0.6649647019481892,0.966384052560521
-4.0165,0.5902734779443622,0.8498210301035828
-4.016,0.5049120790829789,0.7120647308365314
-4.0155,0.4408910299369412,0.5849050699746379
-4.015,0.4195506802218185,0.5001319627334623
-4.0145,0.7503261008096795,0.8074344764830383
-4.014,0.6116138276599312,0.7438546460520916
-4.0135,-0.1673089369516875,-0.1144730647668849
-4.013,-0.8928808272734472,-0.5065486857577234
-4.0125,-1.447729919872945,0.01268659609548085
-4.012,-1.223656247861124,0.3199891098453461
-4.0115,-0.690147504977477,0.3305857482505039
-4.011,-0.1779791118087102,0.2458126410091644
-4.0105,0.1634664836368238,0.1716361721730598
-4.01,0.3448594562177392,0.1504428953626575
-4.0095,0.4195506802215176,0.1716361721729923
-4.009,0.4302208550791906,0.2352160026039391
-4.0085,0.4088805053638253,0.3199891098454232
-4.008,0.3982103305061524,0.4153588554918433
-4.0075,0.3875401556484794,0.5107286011382635
-4.007,0.3768699807906609,0.5955017083796126
-4.0065,0.2381577076409128,0.5107286011383502
-4.006,-0.423393133535411,-0.1038764263613609
-4.0055,-0.9355615267044494,-0.7820612842925007
-4.005,-1.234326422719292,-1.248313374119443
-4.0045,-1.319687821580753,-1.237716735714276
-4.004,-0.8608703026998558,-0.6866915386449626
-4.0035,-0.2633405106701714,-0.01910331912002144
-4.003,0.1954770082101822,0.5425185163538525
-4.0025,0.4622313796520056,0.8922075837240597
-4.002,0.5689331282290746,1.061753798207057
-4.0015,0.5689331282290746,1.072350436612224
-4.001,0.5369226036560557,1.040560521396751
-4.0005,0.5155822539406129,1.019367244586243
-4,0.4622313796522482,0.8604176685088755
-3.9995,0.4302208550792003,0.6590815388106942
-3.999,0.3982103305061524,0.4683420475176805
-3.9985,0.3875401556484697,0.309392471440169
-3.998,0.5049120790829789,0.4365521323021782
-3.9975,0.5155822539406614,0.6696781772158616
-3.997,-0.1673089369510276,0.02328323450064829
-3.9965,-0.8608703027003992,-0.7820612842920766
-3.996,-1.277007122150022,-0.8138511995075789
-3.9955,-1.042263275281004,-0.4641621321370536
-3.995,-0.5514352318276028,-0.1674562567923655
-3.9945,-0.1032878878049318,0.02328323450064829
-3.994,0.1954770082101822,0.1292496185523226
-3.9935,0.3555296310754218,0.1822328105781598
-3.993,0.4195506802215176,0.2140227257936621
-3.9925,0.4195506802215176,0.2564092794143318
-3.992,0.3982103305061524,0.2881991946298341
-3.9915,0.3875401556484697,0.3411823866556712
-3.991,0.3768699807907871,0.3941655786815084
-3.9905,0.3768699807907871,0.457745409112513
-3.99,0.3448594562177392,0.4683420475176805
-3.9895,-0.1352984123779797,0.002089957690313421
-3.989,-0.7861790786966207,-0.718481453861072
-3.9885,-1.202315898146244,-1.301296566145281
-3.988,-1.437059745015262,-1.555615887869299
-3.9875,-1.084943974711735,-1.195330182093607
-3.987,-0.4554036581084589,-0.4959520473525559
-3.9865,0.0674349099179905,0.1716361721729923
-3.986,0.3982103305061524,0.5743084315693548
-3.9855,0.5582629533713921,0.8180311148882058
-3.985,0.5902734779444399,0.9451907757502149
-3.9845,0.5689331282290746,0.9769806909657173
-3.984,0.6009436528021226,0.9875773293708847
-3.9835,0.6009436528021226,0.92399749893988
-3.983,0.5369226036560266,0.7862411996727035
-3.9825,0.4729015545099309,0.627291623595192
-3.982,0.4195506802215176,0.4789386859228479
-3.9815,0.4729015545099309,0.457745409112513
-3.981,0.8143471499557753,0.8180311148882058
-3.9805,0.3341892813600565,0.4365521323021782
-3.98,-0.5834457564006506,-0.4959520473525559
-3.9795,-1.202315898146244,-1.205926820498774
-3.979,-1.042263275281004,-1.0999604364471
-3.9785,-0.572775581542968,-0.6231117082145651
-3.978,-0.1352984123779797,-0.1568596183871981
-3.9775,0.1741366584948169,0.1504428953626575
-3.977,0.3448594562177392,0.309392471440169
-3.9765,0.408880505363835,0.3623756634660061
-3.976,0.4195506802215176,0.3623756634660061
-3.9755,0.3982103305061524,0.3411823866556712
-3.975,0.3875401556484697,0.309392471440169
-3.9745,0.3768699807907871,0.2881991946298341
-3.974,0.3661998059331045,0.2776025562246667
-3.9735,0.3661998059331045,0.2564092794143318
-3.973,0.05676473506030786,-0.07208651114585861
-3.9725,-0.6688071552621118,-0.8138511995075789
-3.972,-1.148965023857831,-1.523825972653797
-3.9715,-1.30901764672307,-1.873515040024322
-3.971,-0.9782422261349084,-1.460246142222792
-3.9705,-0.4020527838200457,-0.7396747306714069
-3.97,0.08877525963335578,-0.1250697031716958
-3.9695,0.3768699807907871,0.3199891098453364
-3.969,0.5049120790829789,0.6378882620003594
-3.9685,0.5262524287983441,0.7968378380778709
-3.968,0.5049120790829789,0.849821030103708
-3.9675,0.4408910299368829,0.8922075837243778
-3.967,0.3448594562177392,0.8604176685088755
-3.9665,0.3235191065023739,0.7650479228623686
-3.966,0.3341892813600565,0.6696781772158616
-3.9655,0.3555296310754218,0.5955017083796896
-3.965,0.3875401556484697,0.55311515475902
-3.9645,0.6649647019482183,0.8710143069140429
-3.964,0.6969752265212663,0.9557874141553824
-3.9635,0.09944543449103843,0.1080563417419877
-3.963,-0.5834457564006506,-0.8244478379127463
-3.9625,-0.7648387289812555,-1.05757388282643
-3.962,-0.5087545323968721,-0.6760949002404023
-3.9615,-0.1673089369510276,-0.1886495336027004
-3.961,0.1101156093487211,0.1928294489833272
-3.9605,0.291508581929326,0.4153588554918433
-3.96,0.3661998059331045,0.5319218779486851
-3.9595,0.3982103305061524,0.5637117931641874
-3.959,0.3875401556484697,0.55311515475902
-3.9585,0.3768699807907871,0.5319218779486851
-3.958,0.3661998059331045,0.5107286011383502
-3.9575,0.3661998059331045,0.4895353243280153
-3.957,0.3661998059331045,0.4683420475176805
-3.9565,0.2488278824985954,0.309392471440169
-3.956,-0.4127229586777283,-0.3793890248957141
-3.9555,-1.020922925565639,-1.195330182093607
-3.955,-1.373038695869166,-1.788741932782983
-3.9545,-1.116954499284783,-1.693372187136476
-3.954,-0.5407650569699201,-1.089363798041932
-3.9535,-0.007256314085787988,-0.4535654937318862
-3.953,0.3555296310754218,0.07626642652648545
-3.9525,0.5262524287983441,0.4047622170866759
-3.952,0.5582629533713921,0.5425185163538525
-3.9515,0.5475927785137094,0.6060983467848571
-3.951,0.5049120790829789,0.6802748156210291
-3.9505,0.4408910299368829,0.7226613692416989
-3.95,0.4195506802215176,0.6696781772158616
-3.9495,0.3982103305061524,0.5743084315693548
-3.949,0.3875401556484697,0.4789386859228479
-3.9485,0.3875401556484697,0.4047622170866759
-3.948,0.3021787567870086,0.5213252395435176
-3.9475,0.3128489316446912,0.8074344764830383
-3.947,-0.02859666380115328,0.2140227257936621
-3.9465,-0.6474668055467465,-0.7290780922662394
-3.946,-1.191645723288561,-1.142346990067769
-3.9455,-1.042263275281004,-0.8138511995075789
-3.945,-0.572775581542968,-0.3475991096802118
-3.9445,-0.1352984123779797,0.04447651131098315
-3.944,0.1741366584948169,0.309392471440169
-3.9435,0.3341892813600565,0.4471487707073456
-3.943,0.3982103305061524,0.5213252395435176
-3.9425,0.408880505363835,0.55311515475902
-3.942,0.3982103305061524,0.5743084315693548
-3.9415,0.3768699807907871,0.5849050699745222
-3.941,0.3661998059331045,0.5849050699745222
-3.9405,0.3661998059331045,0.5849050699745222
-3.94,0.3448594562177392,0.5425185163538525
-3.9395,-0.09261771294724913,0.05507314971615059
-3.939,-0.7648387289812555,-0.7608680074817418
-3.9385,-1.287677297007705,-1.460246142222792
-3.938,-1.351698346153801,-1.640388995110639
-3.9375,-0.8181896032696687,-1.131750351662602
-3.937,-0.2099896363817582,-0.4111789401112165
-3.9365,0.2274875327832301,0.1292496185523226
-3.936,0.4835717293676135,0.4789386859228479
-3.9355,0.5689331282290746,0.6378882620003594
-3.935,0.5689331282290746,0.7120647308365314
-3.9345,0.5369226036560266,0.7332580076468663
-3.934,0.4302208550792003,0.7968378380778709
-3.9335,0.3555296310754218,0.7544512844572011
-3.933,0.3341892813600565,0.6060983467848571
-3.9325,0.3341892813600565,0.457745409112513
-3.932,0.3448594562177392,0.3411823866556712
-3.9315,0.3341892813600565,0.3517790250608387
-3.931,0.4195506802215176,0.7226613692416989
-3.9305,-0.01792648894347063,0.3729723018711736
-3.93,-0.6794773301197943,-0.5383386009732256
-3.9295,-0.9782422261349084,-1.152943628472937
-3.929,-0.7328282044082075,-0.9516074987747555
-3.9285,-0.3273615598162672,-0.4323722169215513
-3.928,0.01408403562957729,0.04447651131098315
-3.9275,0.2381577076409128,0.3729723018711736
-3.927,0.3555296310754218,0.55311515475902
-3.9265,0.3982103305061524,0.627291623595192
-3.926,0.3982103305061524,0.6378882620003594
-3.9255,0.3875401556484697,0.6166949851900245
-3.925,0.3768699807907871,0.5955017083796896
-3.9245,0.3661998059331045,0.5637117931641874
-3.924,0.3661998059331045,0.5319218779486851
-3.9235,0.3661998059331045,0.5001319627331828
-3.923,0.142126133921769,0.1822328105781598
-3.9225,-0.572775581542968,-0.6125150698093976
-3.922,-1.116954499284783,-1.38606967338662
-3.9215,-1.415719395299897,-1.894708316834657
-3.921,-1.330357996438436,-1.820531847998485
-3.9205,-0.754168554123573,-1.184733543688439
-3.92,-0.1673089369510276,-0.5277419625680583
-3.9195,0.2594980573562781,-0.08268314955102604
-3.919,0.4729015545099309,0.2034260873884947
-3.9185,0.5582629533713921,0.383568940276341
-3.918,0.5582629533713921,0.5107286011383502
-3.9175,0.5049120790829789,0.5213252395435176
-3.917,0.4302208550792003,0.457745409112513
-3.9165,0.3768699807907871,0.5107286011383502
-3.916,0.3555296310754218,0.5743084315693548
-3.9155,0.3555296310754218,0.6060983467848571
-3.915,0.3661998059331045,0.627291623595192
-3.9145,0.6329541773751706,0.9663840525605498
-3.914,0.5582629533713921,0.9557874141553824
-3.9135,-0.1352984123779797,0.05507314971615059
-3.913,-0.8715404775580819,-0.8350444763179138
-3.9125,-1.234326422719292,-1.025783967610927
-3.912,-0.9355615267041777,-0.6866915386455698
-3.9115,-0.4554036581084589,-0.2840192792492073
-3.911,-0.03926683865883591,0.01268659609548085
-3.9105,0.2274875327832301,0.1822328105781598
-3.91,0.3555296310754218,0.2564092794143318
-3.9095,0.408880505363835,0.2776025562246667
-3.909,0.408880505363835,0.2776025562246667
-3.9085,0.3875401556484697,0.2776025562246667
-3.908,0.3768699807907871,0.2776025562246667
-3.9075,0.3661998059331045,0.2881991946298341
-3.907,0.3555296310754218,0.2987958330350016
-3.9065,0.2701682322139607,0.1610395337678249
-3.906,-0.3700422592469978,-0.5171453241628908
-3.9055,-0.9569018764195432,-1.269506650929778
-3.905,-1.138294849000148,-1.820531847998485
-3.9045,-1.148965023857831,-1.958288147265661
-3.904,-0.754168554123573,-1.396666311791788
-3.9035,-0.2206598112394408,-0.6654982618352349
-3.903,0.1954770082101822,-0.04029659593035631
-3.9025,0.4408910299368829,0.3517790250608387
-3.902,0.5475927785137094,0.5955017083796896
-3.9015,0.5582629533713921,0.7650479228623686
-3.901,0.5262524287983441,0.8710143069140429
-3.9005,0.4302208550792003,1.029963882991555
-3.9,0.3661998059331045,0.9663840525605498
-3.8995,0.3448594562177392,0.7862411996727035
-3.899,0.3448594562177392,0.5955017083796896
-3.8985,0.3555296310754218,0.4471487707073456
-3.898,0.408880505363835,0.5107286011383502
-3.8975,0.5049120790829789,0.8286277532933731
-3.897,-0.06060718837420119,0.2881991946298341
-3.8965,-0.754168554123573,-0.5807251545938954
-3.896,-1.330357996438436,-0.8880276683437509
-3.8955,-1.244996597576974,-0.5595318777835605
-3.895,-0.7434983792658902,-0.1886495336027004
-3.8945,-0.2420001609548061,0.07626642652648545
-3.894,0.1101156093487211,0.2564092794143318
-3.8935,0.3128489316446912,0.3517790250608387
-3.893,0.3982103305061524,0.3941655786815084
-3.8925,0.4195506802215176,0.4259554938970107
-3.892,0.3982103305061524,0.457745409112513
-3.8915,0.3875401556484697,0.4789386859228479
-3.891,0.3768699807907871,0.5001319627331828
-3.8905,0.3768699807907871,0.5213252395435176
-3.89,0.3555296310754218,0.5213252395435176
-3.8895,-0.06060718837420119,0.09745970333682032
-3.889,-0.7968492535543035,-0.6866915386455698
-3.8885,-1.234326422719292,-1.354279758171118
-3.888,-1.490410619303675,-1.75695201756748
-3.8875,-1.287677297007705,-1.47084278062796
-3.887,-0.6688071552621118,-0.7396747306714069
-3.8865,-0.09261771294724913,-0.06148987274069118
