Class_1_Relax_eyes_closed/Class_1_Relax_eyes_closed_SH_2.csv

#Digilent WaveForms Oscilloscope Acquisition
#Device Name: EExplorer
#Serial Number: SN:210151A2B84A
#Date Time: 2020-11-25 11:34:05.144
#Sample rate: 2000Hz
#Samples: 16384
#Trigger: Source: Channel 1 Type: Edge Condition: Rising Level: 0 V Hyst.: Auto HoldOff: 0 s
#Channel 1: Range: 1 V/div Offset: 0 V Attenuation: 1 X
#Channel 2: Range: 1 V/div Offset: 0 V Attenuation: 1 X
#Power Supplies: ON
#Fixed Supply: ON
#Voltage: 3.3 V Readback: 3.319 V
#Positive Supply: ON
#Voltage: 3.7 V Readback: 3.707 V
#Current: 40 mA Readback: 19 mA
#Negative Supply: ON
#Voltage: -3.7 V Readback: -3.352 V
#Current: -40 mA Readback: -8 mA
#Reference 1: ON
#Voltage: 0 V
#Reference 2: ON
#Voltage: 0 V

Time (s),Channel 1 (V),Channel 2 (V)
-4.096,0.942389248247967,-0.5065486857577234
-4.0955,0.8890383739596023,-0.114473064766885
-4.095,0.8250173248132542,0.1398462569574419
-4.0945,0.6009436528021226,0.08686306493165288
-4.094,-0.145968587234983,-0.4005823017056057
-4.0935,-1.010252750708558,-0.9622041371802217
-4.093,-1.67180359188428,-1.290699927740113
-4.0925,-1.949228138183777,-1.301296566145271
-4.092,-1.373038695868487,-0.7290780922654299
-4.0915,-0.6261264558313813,0.1610395337678249
-4.091,-0.03926683865883591,0.9134008605347127
-4.0905,0.3448594562179041,1.443232780793345
-4.09,0.5262524287983441,1.729342017732605
-4.0895,0.5796033030867573,1.824711763379112
-4.089,0.5796033030867573,1.792921848163639
-4.0885,0.5475927785137094,1.697552102517103
-4.088,0.4942419042252961,1.538602526439591
-4.0875,0.4302208550792586,1.326669758336435
-4.087,0.3982103305060845,1.12533362863783
-4.0865,0.3235191065023739,0.8710143069140429
-4.086,-0.1673089369505812,0.2564092794148908
-4.0855,-0.9035510021317219,-0.6125150698100915
-4.085,-1.554431668449771,-1.375473034981453
-4.0845,-2.109280761048764,-1.990078062480605
-4.084,-2.002579012471676,-1.831128486403161
-4.0835,-1.159635198715513,-1.290699927740113
-4.083,-0.3380317346739499,-0.9516074987747555
-4.0825,0.2915085819296948,-0.8350444763179138
-4.082,0.6969752265212663,-0.8350444763179138
-4.0815,0.8890383739595538,-0.8668343915334161
-4.081,0.9210488985325727,-0.9092209451540473
-4.0805,0.942389248247967,-0.9622041371799229
-4.08,0.9317190733902845,-0.8456411147230812
-4.0795,0.9210488985326114,-0.7396747306715032
-4.079,0.931719073390236,-0.6549016234299035
-4.0785,0.8783681991018712,-0.474758770542221
-4.078,0.7076454013791043,-0.3370024712751697
-4.0775,0.06743490991721415,-0.6125150698098506
-4.077,-0.7861790786966207,-1.110557074852267
-4.0765,-1.565101843306745,-1.492036057437948
-4.076,-2.109280761048939,-1.502632695843086
-4.0755,-1.746494815888059,-1.089363798041932
-4.075,-0.9035510021311299,-0.252229364033705
-4.0745,-0.2099896363813506,0.5743084315698945
-4.074,0.2381577076409128,1.167720182258731
-4.0735,0.4942419042252961,1.549199164844759
-4.073,0.5902734779443525,1.739938656137599
-4.0725,0.5902734779444399,1.79292184816361
-4.072,0.5582629533713921,1.761131932948107
-4.0715,0.5155822539407002,1.665762187301687
-4.071,0.4729015545099114,1.549199164844633
-4.0705,0.4515612047945656,1.411442865577582
-4.07,0.4302208550792198,1.241896651095057
-4.0695,0.1207857842057438,0.8392243916977503
-4.069,-0.6047861061160158,-0.02969995752518888
-4.0685,-1.341028171296118,-0.9198175835592532
-4.068,-1.927887788468527,-1.587405803084801
-4.0675,-1.778505340461106,-1.587405803084801
-4.067,-0.9889124009925911,-1.121153713257435
-4.0665,-0.2313299860966091,-0.7502713690764105
-4.066,0.3341892813600565,-0.570128516188728
-4.0655,0.6756348768059011,-0.6019184314042303
-4.065,0.8463576745286681,-0.7820612842919127
-4.0645,0.8890383739595538,-0.9622041371799229
-4.064,0.8463576745288233,-1.036380606016095
-4.0635,0.9423892482478796,-0.8880276683438858
-4.063,0.9530594231056109,-0.7290780922660756
-4.0625,0.9103787236749192,-0.5489352393783931
-4.062,0.8783681991019003,-0.3793890248958683
-4.0615,0.8250173248130601,-0.1886495336025076
-4.061,0.3875401556484697,0.02328323450064829
-4.0605,-0.4340633083930936,0.09745970333682032
-4.06,-1.244996597577479,-0.4005823017064152
-4.0595,-1.799845690176472,-0.8032545611024114
-4.059,-1.703814116457328,-0.8880276683437509
-4.0585,-0.9782422261355683,-0.3370024712755456
-4.058,-0.3166913849585846,0.4153588554918433
-4.0575,0.1741366584948169,1.093543713422559
-4.057,0.4515612047943133,1.559795803249502
-4.0565,0.5582629533713921,1.835308401784279
-4.056,0.5902734779444399,1.962468062646288
-4.0555,0.568933128229094,1.983661339456604
-4.055,0.5262524287983052,1.920081509025532
-4.0545,0.4835717293676135,1.824711763379112
-4.054,0.4515612047945947,1.697552102517218
-4.0535,0.3982103305060068,1.485619334413359
-4.053,0.2381577076409128,1.051157159801889
-4.0525,-0.391382608962363,0.2670059178194992
-4.052,-1.148965023858461,-0.6443049850255842
-4.0515,-1.842526389607202,-1.396666311791788
-4.051,-2.162631635337682,-1.873515040024322
-4.0505,-1.842526389607493,-1.555615887869588
-4.05,-0.9248913518464952,-1.025783967610927
-4.0495,-0.1032878878049318,-0.6972881770507372
-4.049,0.451561204794061,-0.6549016234301059
-4.0485,0.7503261008097766,-0.8562377531284607
-4.048,0.857027849386506,-1.089363798041932
-4.0475,0.8783681991018518,-1.227120097308984
-4.047,0.9317190733902748,-1.099960436446888
-4.0465,0.9210488985326017,-0.8668343915334161
-4.046,0.8356874996712184,-0.6972881770508914
-4.0455,0.718315576236583,-0.5489352393782582
-4.045,0.6649647019482183,-0.400582301706049
-4.0445,0.8356874996711408,-0.02969995752518888
-4.044,0.9423892482472682,0.5425185163535634
-4.0435,0.1741366584948169,0.2246193641988295
-4.043,-0.722158029550525,-0.4323722169215513
-4.0425,-1.074273799853732,-0.760868007481443
-4.042,-0.7755089038389382,-0.400582301706049
-4.0415,-0.2953510352432193,0.2458126410091644
-4.041,0.1101156093483523,0.8710143069134741
-4.0405,0.3768699807909036,1.33726639674169
-4.04,0.5049120790829789,1.644568910491266
-4.0395,0.5582629533713436,1.824711763378948
-4.039,0.558262953371363,1.909484870620451
-4.0385,0.5262524287983441,1.909484870620451
-4.038,0.4622313796523064,1.814115124974031
-4.0375,0.4088805053638253,1.655165548896317
-4.037,0.3982103305061524,1.528005888034424
-4.0365,0.3235191065023739,1.29487984312074
-4.036,-0.1352984123786493,0.8922075837240405
-4.0355,-0.8715404775580819,0.5213252395435176
-4.035,-1.565101843307454,-0.2946159176543747
-4.0345,-1.863866739322296,-0.8350444763174223
-4.034,-1.362368521011484,-0.8244478379127463
-4.0335,-0.5941159312583333,-0.792657922697244
-4.033,0.09944543449040766,-0.7714646458869285
-4.0325,0.5369226036562595,-0.7820612842921054
-4.032,0.79300680024041,-0.8138511995075789
-4.0315,0.8676980242441206,-0.8986243067488413
-4.031,0.8356874996712378,-1.046977244421378
-4.0305,0.942389248247967,-1.174136905283272
-4.03,1.02775064710935,-1.03638060601622
-4.0295,0.9850699476786395,-0.7714646458866683
-4.029,0.9210488985326017,-0.5065486857577234
-4.0285,0.8783681991018712,-0.2098428104130352
-4.028,0.8676980242442176,0.1504428953631972
-4.0275,0.8997085488172365,0.7438546460520338
-4.027,0.2594980573562781,0.6166949851900245
-4.0265,-0.6474668055459216,-0.09327978795554781
-4.026,-1.255666772434657,-0.6337083466197325
-4.0255,-1.095614149569417,-0.4535654937318862
-4.025,-0.5834457564011164,0.1822328105775815
-4.0245,-0.07127736323156358,0.8604176685093573
-4.024,0.2808384070716433,1.390249588767247
-4.0235,0.4622313796520832,1.739938656137455
-4.023,0.547592778513719,1.930678147430854
-4.0225,0.5582629533713921,2.004854616266958
-4.022,0.536922603656046,1.983661339456643
-4.0215,0.4942419042252573,1.898888232215159
-4.021,0.4515612047945656,1.761131932948107
-4.0205,0.3982103305061524,1.549199164844759
-4.02,0.3448594562174772,1.263089927904775
-4.0195,0.05676473506030786,0.7544512844572011
-4.019,-0.6474668055467465,-0.07208651114585861
-4.0185,-1.319687821580141,-0.9092209451533244
-4.018,-1.650463242168915,-1.481439419033127
-4.0175,-1.255666772434657,-1.407262950196955
-4.017,-0.6047861061166078,-1.131750351662852
-4.0165,0.01408403562995577,-0.9092209451539894
-4.016,0.4302208550792003,-0.8032545611024114
-4.0155,0.7076454013786968,-0.877431029938516
-4.015,0.8463576745288329,-0.951607498774823
-4.0145,0.857027849386506,-1.025783967610927
-4.014,0.857027849386506,-1.089363798041874
-4.0135,0.9637295979633034,-1.004590690800419
-4.013,0.9317190733902845,-0.8138511995075789
-4.0125,0.8143471499557753,-0.6231117082145651
-4.012,0.7503261008096214,-0.4429688553265067
-4.0115,0.6863050516635838,-0.2098428104130352
-4.011,0.6329541773751706,0.3517790250608387
-4.0105,0.2915085819296365,0.5531151547588369
-4.01,-0.5194247072545548,-0.06148987274069118
-4.0095,-1.191645723288561,-0.6972881770507372
-4.009,-1.330357996438309,-0.8986243067487353
-4.0085,-0.8608703026998946,-0.3793890248950202
-4.008,-0.3060212101009019,0.383568940276341
-4.0075,0.1314559590636885,1.051157159801282
-4.007,0.3982103305062591,1.517409249629507
-4.0065,0.5155822539406614,1.79292184816361
-4.006,0.5582629533713921,1.920081509025619
-4.0055,0.5475927785136705,1.951871424241054
-4.005,0.5049120790829789,1.877694955404949
-4.0045,0.4729015545099309,1.79292184816361
-4.004,0.4408910299368539,1.665762187301437
-4.0035,0.408880505363835,1.485619334413754
-4.003,0.2274875327832301,1.093543713422559
-4.0025,-0.423393133534819,0.6272916235956161
-4.002,-1.180975548430879,0.002089957690313421
-4.0015,-1.853196564464885,-0.792657922697244
-4.001,-2.066600061618344,-1.152943628472609
-4.0005,-1.447729919872207,-1.025783967610802
-4,-0.6367966306890638,-0.8880276683437509
-3.9995,0.04609456020262521,-0.7820612842920766
-3.999,0.5049120790829789,-0.8138511995075789
-3.9985,0.707645401378949,-0.9833974139902578
-3.998,0.8143471499557753,-1.142346990067769
-3.9975,0.8356874996711408,-1.195330182093607
-3.997,0.8783681991018712,-1.036380606016095
-3.9965,0.8676980242441885,-0.8032545611024114
-3.996,0.79300680024041,-0.6125150698093976
-3.9955,0.7503261008096795,-0.4323722169215513
-3.995,0.707645401378949,-0.2416327256285375
-3.9945,0.707645401378949,0.1504428953626575
-3.994,0.5796033030867573,0.6166949851900245
-3.9935,-0.1993194615240755,0.1822328105781598
-3.993,-1.020922925565639,-0.5383386009732256
-3.9925,-1.533091318734406,-1.004590690800593
-3.992,-1.255666772434657,-0.7396747306714069
-3.9915,-0.6367966306890638,-0.008506680714854012
-3.991,-0.09261771294724913,0.7438546460520338
-3.9905,0.2808384070716433,1.316073119931075
-3.99,0.4729015545099309,1.676358825706768
-3.9895,0.5475927785137094,1.867098316999781
-3.989,0.5582629533713921,1.941274785835954
-3.9885,0.5262524287983441,1.909484870620451
-3.988,0.4942419042252961,1.845905040189447
-3.9875,0.4408910299368829,1.70814874092227
-3.987,0.3982103305061524,1.528005888034424
-3.9865,0.3128489316446912,1.241896651094903
-3.986,-0.06060718837420119,1.00877060618122
-3.9855,-0.722158029550525,0.701468092431364
-3.985,-1.415719395299897,-0.1462629799820306
-3.9845,-1.895877263895616,-0.8986243067489184
-3.984,-1.682473766741963,-1.068170521231597
-3.9835,-0.9569018764195432,-0.9198175835592532
-3.983,-0.2313299860971235,-0.8138511995075789
-3.9825,0.3021787567870086,-0.8350444763179138
-3.982,0.6116138276598051,-0.8880276683437509
-3.9815,0.7716664505250448,-0.8986243067489184
-3.981,0.825017324813458,-0.9622041371799229
-3.9805,0.7716664505250448,-1.089363798041932
-3.98,0.7503261008096795,-1.004590690800593
-3.9795,0.7183155762366316,-0.7820612842920766
-3.979,0.6863050516635838,-0.5171453241628908
-3.9785,0.6863050516635838,-0.2840192792492073
-3.978,0.6969752265212663,0.002089957690313421
-3.9775,0.7289857510943143,0.55311515475902
-3.977,0.07810508477567314,0.3729723018711736
-3.9765,-0.7755089038389382,-0.326405832869877
-3.976,-1.351698346153801,-0.8774310299385835
-3.9755,-1.277007122150022,-0.8350444763179138
-3.975,-0.722158029550525,-0.1674562567923655
-3.9745,-0.1779791118087102,0.6166949851900245
-3.974,0.2168173579255475,1.241896651094903
-3.9735,0.4408910299368829,1.655165548896433
-3.973,0.5369226036560266,1.898888232215284
-3.9725,0.5582629533713921,1.994257977861791
-3.972,0.5369226036560266,1.983661339456623
-3.9715,0.4942419042252961,1.898888232215284
-3.971,0.4729015545099309,1.79292184816361
-3.9705,0.4302208550792003,1.580989080060261
-3.97,0.3768699807907871,1.231300012689736
-3.9695,0.142126133921769,0.7120647308365314
-3.969,-0.5407650569699201,-0.1144730647665284
-3.9685,-1.277007122150022,-0.9622041371799229
-3.968,-1.853196564464885,-1.576809164679634
-3.9675,-1.757164990745741,-1.576809164679634
-3.967,-1.020922925565639,-1.174136905283272
-3.9665,-0.2953510352432193,-0.8880276683437509
-3.966,0.2701682322139607,-0.8350444763179138
-3.9655,0.6116138276598051,-0.9304142219644207
-3.965,0.7716664505250448,-1.025783967610927
-3.9645,0.825017324813458,-1.121153713257435
-3.964,0.7609962756673623,-1.174136905283272
-3.9635,0.7396559259519968,-0.9939940523954253
-3.963,0.7289857510943143,-0.8032545611024114
-3.9625,0.707645401378949,-0.6443049850249
-3.962,0.6969752265212663,-0.5065486857577234
-3.9615,0.6649647019482183,-0.3158091944647096
-3.961,0.6969752265212663,0.2246193641988295
-3.9605,0.2488278824985954,0.4365521323021782
-3.96,-0.6047861061160158,-0.1568596183871981
-3.9595,-1.330357996438436,-0.8456411147230812
-3.959,-1.30901764672307,-0.9304142219644207
-3.9585,-0.7648387289812555,-0.3370024712750445
-3.958,-0.2206598112394408,0.4153588554918433
-3.9575,0.1954770082101822,1.072350436612224
-3.957,0.4302208550792003,1.528005888034424
-3.9565,0.5262524287983441,1.803518486568777
-3.956,0.5582629533713921,1.941274785835954
-3.9555,0.5369226036560266,1.973064701051456
-3.955,0.5049120790829789,1.941274785835954
-3.9545,0.4729015545099309,1.856501678594614
-3.954,0.4515612047945656,1.729342017732605
-3.9535,0.408880505363835,1.400846227172415
-3.953,0.2168173579255475,0.9345941373450475
-3.9525,-0.4554036581084589,0.1504428953626575
-3.952,-1.202315898146244,-0.6972881770507372
-3.9515,-1.863866739322568,-1.375473034981453
-3.951,-1.927887788468663,-1.523825972653797
-3.9505,-1.212986073003927,-1.195330182093607
-3.95,-0.4340633083930936,-0.8986243067489184
-3.9495,0.1954770082101822,-0.7714646458869092
-3.949,0.6116138276598051,-0.8350444763179138
-3.9485,0.8143471499557753,-0.9092209451540858
-3.948,0.857027849386506,-0.9622041371799229
-3.9475,0.857027849386506,-1.078767159636765
-3.947,0.9850699476786977,-1.142346990067769
-3.9465,0.9850699476786977,-1.025783967610927
-3.946,0.8890383739595538,-0.8244478379127463
-3.9455,0.7396559259519968,-0.570128516188728
-3.945,0.6542945270905358,-0.4111789401112165
-3.9445,0.6863050516635838,0.02328323450064829
-3.944,0.5902734779444399,0.5637117931641874
-3.9435,-0.1993194615240755,0.1716361721729923
-3.943,-1.042263275281004,-0.5065486857577234
-3.9425,-1.554431668449771,-0.9622041371799229
-3.942,-1.223656247861609,-0.6866915386455698
-3.9415,-0.6047861061160158,0.04447651131098315
-3.941,-0.06060718837420119,0.775644561267536
-3.9405,0.291508581929326,1.347863035146577
-3.94,0.4729015545099309,1.70814874092227
-3.9395,0.5475927785137094,1.909484870620451
-3.939,0.5475927785137094,1.994257977861791
-3.9385,0.5155822539406614,1.962468062646288
-3.938,0.4729015545099309,1.877694955404949
-3.9375,0.4515612047945656,1.771728571353275
-3.937,0.4302208550792003,1.612778995275763
-3.9365,0.3128489316446912,1.33726639674141
-3.936,-0.1993194615240755,0.9663840525605498
-3.9355,-0.9248913518464952,0.5213252395435176
-3.935,-1.607782542738184,-0.3581957480853793
-3.9345,-2.119950935906951,-1.110557074852267
-3.934,-2.055929886760855,-1.174136905283272
-3.9335,-1.287677297007705,-0.9198175835592532
-3.933,-0.4447334832507763,-0.7608680074817418
-3.9325,0.2168173579255475,-0.7078848154559045
-3.932,0.6329541773751706,-0.8138511995075789
-3.9315,0.8356874996711408,-0.9304142219644207
-3.931,0.8676980242441885,-1.01518732920576
-3.9305,0.7396559259519968,-1.163540266878104
-3.93,0.6969752265212663,-1.068170521231597
-3.9295,0.7289857510943143,-0.8562377531282487
-3.929,0.6863050516635838,-0.6337083466197325
-3.9285,0.6329541773751706,-0.4111789401112165
-3.928,0.6116138276598051,-0.1038764263613609
-3.9275,0.6116138276598051,0.5107286011383502
-3.927,-0.02859666380115328,0.4047622170866759
-3.9265,-0.8502001278427167,-0.3052125560595421
-3.926,-1.405049220442214,-0.9092209451540858
-3.9255,-1.234326422719292,-0.8456411147230812
-3.925,-0.6688071552621118,-0.2098428104130352
-3.9245,-0.1352984123779797,0.5001319627331828
-3.924,0.2488278824985954,1.072350436612224
-3.9235,0.4515612047945656,1.464426057603419
-3.923,0.5369226036560266,1.686955464111935
-3.9225,0.5582629533713921,1.782325209758442
-3.922,0.5262524287983441,1.79292184816361
-3.9215,0.4835717293676135,1.75053529454294
-3.921,0.408880505363835,1.633972272086098
-3.9205,0.3661998059331045,1.485619334413754
-3.92,0.3448594562177392,1.326669758336243
-3.9195,0.08877525963335578,1.029963882991555
-3.919,-0.6261264558313813,0.6166949851900245
-3.9185,-1.351698346153801,-0.1780528951975329
-3.918,-1.842526389607202,-0.9304142219644207
-3.9175,-1.607782542738184,-1.131750351662602
-3.917,-0.9035510021311299,-0.9939940523954253
-3.9165,-0.1993194615240755,-0.8774310299385835
-3.916,0.3235191065023739,-0.8668343915334161
-3.9155,0.6329541773751706,-0.8880276683437509
-3.915,0.8036769750980928,-1.004590690800593
-3.9145,0.8676980242441885,-1.121153713257435
-3.914,0.857027849386506,-1.142346990067769
-3.9135,0.8356874996711408,-0.9304142219644207
-3.913,0.857027849386506,-0.6760949002404023
-3.9125,0.79300680024041,-0.474758770542221
-3.912,0.8143471499557753,-0.2734226408440398
-3.9115,0.7823366253827275,-0.07208651114585861
-3.911,0.5689331282290746,0.4683420475176805
-3.9105,0.00341386077189465,0.5955017083796896
-3.91,-0.839529952985034,-0.08268314955102604
-3.9095,-1.447729919872945,-0.7820612842920766
-3.909,-1.255666772434657,-0.7820612842920766
-3.9085,-0.6794773301197943,-0.1886495336027004
-3.908,-0.1352984123779797,0.5213252395435176
-3.9075,0.2488278824985954,1.104140351827727
-3.907,0.4515612047945656,1.506812611224089
-3.9065,0.5369226036560266,1.75053529454294
-3.906,0.5582629533713921,1.856501678594614
-3.9055,0.5369226036560266,1.877694955404949
-3.905,0.4729015545099309,1.814115124973944
-3.9045,0.4408910299368829,1.729342017732605
-3.904,0.4195506802215176,1.591585718465428
-3.9035,0.3661998059331045,1.347863035146577
-3.903,0.1634664836371343,0.9028042221295453
-3.9025,-0.4874141826815069,0.2246193641988295
-3.902,-1.223656247861609,-0.570128516188728
-3.9015,-1.821186039891837,-1.269506650929778
-3.901,-1.799845690176472,-1.417859588602123
-3.9005,-1.084943974711735,-1.131750351662602
-3.9,-0.3700422592469978,-0.9728007755850904
-3.8995,0.2168173579255475,-0.9092209451540858
-3.899,0.6009436528021226,-0.9516074987747555
-3.8985,0.79300680024041,-0.9939940523954253
-3.898,0.857027849386506,-1.046977244421262
-3.8975,0.8890383739595538,-1.131750351662602
-3.897,0.9957401225363802,-1.142346990067769
-3.8965,0.9957401225363802,-0.9198175835592532
-3.896,0.9637295979633325,-0.6654982618352349
-3.8955,0.857027849386506,-0.4429688553267188
-3.895,0.7823366253827275,-0.2204394488182027
-3.8945,0.7396559259519968,0.2352160026039969
-3.894,0.5475927785137094,0.7226613692416989
-3.8935,-0.2526703358124887,0.2670059178194992
-3.893,-1.031593100423322,-0.4853554089473885
-3.8925,-1.373038695869166,-0.9304142219644207
-3.892,-1.020922925565639,-0.6125150698093976
-3.8915,-0.4554036581084589,0.08686306493165288
-3.891,0.02475421048725994,0.7650479228623686
-3.8905,0.3341892813600565,1.273686566310405
-3.89,0.4835717293676135,1.602182356870596
-3.8895,0.5369226036560266,1.771728571353275
-3.889,0.5475927785137094,1.845905040189447
-3.8885,0.5049120790829789,1.814115124973944
-3.888,0.4729015545099309,1.771728571353275
-3.8875,0.4408910299368829,1.644568910491266
-3.887,0.3875401556484697,1.42203950398275
-3.8865,0.2594980573562781,1.104140351827727
-3.886,-0.3166913849585846,0.457745409112513
-3.8855,-1.06360362499637,-0.4217755785163839
