Class_1_Relax_eyes_closed/Class_1_Relax_Eyes_closed_Turki_7.csv

#Digilent WaveForms Oscilloscope Acquisition
#Device Name: EExplorer
#Serial Number: SN:210151A2B84A
#Date Time: 2020-12-13 12:38:52.554
#Sample rate: 2000Hz
#Samples: 16384
#Trigger: Source: Channel 1 Type: Edge Condition: Rising Level: 0 V Hyst.: Auto HoldOff: 0 s
#Channel 1: Range: 1 V/div Offset: 0 V Attenuation: 1 X
#Channel 2: Range: 1 V/div Offset: 0 V Attenuation: 1 X
#Power Supplies: ON
#Fixed Supply: ON
#Voltage: 3.3 V Readback: 3.332 V
#Positive Supply: ON
#Voltage: 3.7 V Readback: 3.714 V
#Current: 40 mA Readback: 20 mA
#Negative Supply: ON
#Voltage: -3.7 V Readback: -3.362 V
#Current: -40 mA Readback: -9 mA
#Reference 1: ON
#Voltage: 0 V
#Reference 2: ON
#Voltage: 0 V

Time (s),Channel 1 (V),Channel 2 (V)
-4.096,-1.095614149569417,-0.8562377531282487
-4.0955,-1.543761493591681,-1.036380606015931
-4.095,-1.266336947291816,-0.9516074987745338
-4.0945,-0.690147504977477,-0.7078848154559045
-4.094,-0.177979111809176,-0.4323722169218019
-4.0935,0.1634664836372993,-0.2098428104128907
-4.093,0.3448594562177392,-0.05089323433552374
-4.0925,0.4195506802214497,0.06566978812121201
-4.092,0.4195506802214982,0.1398462569574997
-4.0915,0.3982103305061524,0.1504428953626575
-4.091,0.3661998059331045,0.07626642652648545
-4.0905,0.3448594562177197,-0.04029659593050088
-4.09,0.3235191065023739,-0.1992461720078678
-4.0895,0.3021787567870086,-0.400582301706049
-4.089,0.1314559590642416,-0.5913217929988894
-4.0885,-0.391382608962363,-0.8562377531282487
-4.088,-0.8822106524157645,-1.131750351662602
-4.0875,-1.223656247861299,-1.269506650929653
-4.087,-1.522421143876403,-1.237716735713852
-4.0865,-1.170305373573196,-0.7714646458869092
-4.086,-0.2206598112403045,-0.3370024712754396
-4.0855,0.547592778514049,-0.07208651114579115
-4.085,0.9210488985326017,0.002089957690313421
-4.0845,1.006410297393985,-0.01910331912000217
-4.084,0.931719073390236,-0.07208651114594535
-4.0835,0.8783681991018712,-0.1674562567923655
-4.083,0.857027849386506,-0.2098428104130352
-4.0825,0.7396559259518803,0.02328323450087959
-4.082,0.6116138276598051,0.2776025562246667
-4.0815,0.5155822539406614,0.457745409112513
-4.081,0.4622313796522967,0.5531151547589332
-4.0805,0.1101156093487211,0.3941655786815084
-4.08,-0.6688071552621118,0.7120647308365314
-4.0795,-1.373038695868526,0.7756445612674782
-4.079,-1.938557963326579,0.3199891098449124
-4.0785,-2.19464215991073,-0.1462629799820306
-4.078,-1.522421143877335,-0.4005823017058177
-4.0775,-0.7434983792653468,-0.4323722169214357
-4.077,-0.1459685872356623,-0.3052125560595421
-4.0765,0.2168173579252175,-0.103876426361544
-4.076,0.3875401556485182,0.08686306493179745
-4.0755,0.4408910299368829,0.2458126410091644
-4.075,0.4408910299368829,0.3517790250608387
-4.0745,0.3982103305061136,0.3729723018711157
-4.074,0.3555296310754218,0.309392471440169
-4.0735,0.3448594562177392,0.2140227257936621
-4.073,0.3128489316447204,0.1610395337678731
-4.0725,0.0674349099179905,0.13984625695749
-4.072,-0.5300948821122373,0.02328323450064829
-4.0715,-1.159635198714941,-0.3370024712747168
-4.071,-1.607782542738388,-0.7608680074820405
-4.0705,-1.83185621474952,-1.089363798041932
-4.07,-1.458400094730967,-0.993994052395512
-4.0695,-0.5621054066845769,-0.4959520473522186
-4.069,0.2168173579255475,-0.1250697031716958
-4.0685,0.6969752265212663,0.06566978812131802
-4.068,0.8997085488172365,0.06566978812125056
-4.0675,0.8997085488172365,-0.008506680714854012
-4.067,0.825017324813458,-0.09327978795619347
-4.0665,0.8463576745287553,-0.1780528951973498
-4.066,0.7716664505250448,0.02328323450064829
-4.0655,0.6542945270905358,0.2458126410091644
-4.065,0.5475927785138064,0.4153588554916891
-4.0645,0.4729015545099309,0.5319218779486851
-4.064,0.4729015545099309,0.7438546460520338
-4.0635,0.5155822539406225,0.9875773293706631
-4.063,-0.07127736323261166,0.574308431568844
-4.0625,-0.8715404775580819,0.01268659609548085
-4.062,-1.586442193022169,-0.3370024712747264
-4.0615,-1.735824641029852,-0.5171453241628715
-4.061,-1.159635198715513,-0.4959520473525559
-4.0605,-0.5194247072545548,-0.3370024712750445
-4.06,-0.02859666380089126,-0.1356663415766897
-4.0595,0.2594980573562781,0.05507314971615059
-4.059,0.3982103305061524,0.2034260873884947
-4.0585,0.4408910299368441,0.2987958330349149
-4.058,0.4195506802215176,0.3305857482505039
-4.0575,0.3768699807907871,0.2987958330350016
-4.057,0.3448594562177683,0.2034260873885814
-4.0565,0.3341892813600565,0.06566978812131802
-4.056,0.3235191065023739,-0.1250697031716958
-4.0555,0.02475421048753168,-0.3370024712748517
-4.055,-0.6581369804049821,-0.5913217929993519
-4.0545,-1.26633694729234,-0.9092209451540858
-4.054,-1.661133417026238,-1.184733543688189
-4.0535,-1.853196564464303,-1.195330182093173
-4.053,-1.212986073003927,-0.718481453861072
-4.0525,-0.3273615598162672,-0.2840192792492073
-4.052,0.3448594562180788,0.002089957690419434
-4.0515,0.7183155762366316,0.1186529801471552
-4.051,0.857027849386506,0.08686306493165288
-4.0505,0.8463576745288329,-0.02969995752508287
-4.05,0.8676980242441885,-0.2628260024388724
-4.0495,0.857027849386506,-0.2840192792492073
-4.049,0.7396559259521036,-0.09327978795636693
-4.0485,0.6009436528020352,0.0868630649317878
-4.048,0.5049120790829789,0.2352160026039969
-4.0475,0.4195506802215953,0.4365521323019951
-4.047,0.472901554509698,0.5319218779483093
-4.0465,0.2168173579255475,0.1186529801471552
-4.046,-0.5407650569692311,-0.3793890248952612
-4.0455,-1.319687821581073,-0.6760949002404698
-4.045,-1.67180359188428,-0.7502713690765743
-4.0445,-1.255666772434657,-0.6125150698093976
-4.044,-0.6367966306885883,-0.3687923864903251
-4.0435,-0.1139580626626144,-0.1250697031716958
-4.043,0.2061471830678648,0.09745970333682032
-4.0425,0.3768699807906318,0.2564092794141872
-4.042,0.4302208550792003,0.3729723018711736
-4.0415,0.4302208550792003,0.4153588554918433
-4.041,0.3875401556485085,0.3941655786815277
-4.0405,0.3448594562177295,0.3093924714400629
-4.04,0.3341892813600565,0.1928294489833272
-4.0395,0.3128489316447107,0.2881991946297474
-4.039,0.1101156093482553,0.2458126410088946
-4.0385,-0.4020527838200457,-0.05089323433552374
-4.038,-1.020922925565076,-0.506548685757309
-4.0375,-1.533091318734775,-0.9198175835594845
-4.037,-1.938557963326346,-1.174136905283272
-4.0365,-1.618452717595867,-0.8244478379127463
-4.036,-0.7221580295497777,-0.3687923864902769
-4.0355,0.09944543449103843,-0.07208651114585861
-4.035,0.6222840025174878,0.07626642652648545
-4.0345,0.8463576745286194,0.08686306493164325
-4.034,0.8676980242441885,0.03387987290581572
-4.0335,0.8463576745288233,-0.08268314955102604
-4.033,0.8676980242441691,-0.07208651114586825
-4.0325,0.771666450524938,0.1186529801473383
-4.032,0.6542945270905358,0.3199891098453364
-4.0315,0.5475927785138064,0.4683420475175456
-4.031,0.5049120790829594,0.5849050699746571
-4.0305,0.4835717293676135,0.7332580076468663
-4.03,0.3555296310755383,0.7226613692417085
-4.0295,-0.3380317346746389,0.2246193641984054
-4.029,-1.095614149569417,-0.2416327256285375
-4.0285,-1.415719395299897,-0.5277419625680583
-4.028,-1.042263275280519,-0.5913217929989472
-4.0275,-0.5087545323968721,-0.4641621321370536
-4.027,-0.04993701351651855,-0.2416327256285375
-4.0265,0.2274875327829778,-0.01910331912022384
-4.026,0.3768699807907871,0.1716361721729923
-4.0255,0.4195506802215176,0.3199891098453364
-4.025,0.4195506802215176,0.394165578681441
-4.0245,0.3875401556484406,0.4047622170866277
-4.024,0.3555296310754218,0.3517790250608387
-4.0235,0.3448594562177489,0.2458126410092608
-4.023,0.3341892813599789,0.08686306493146977
-4.0225,0.2488278824985954,-0.1144730647665284
-4.022,-0.2313299860966868,-0.1038764263613705
-4.0215,-0.8822106524162594,-0.1674562567926546
-4.021,-1.426389570157579,-0.4853554089473885
-4.0205,-1.917217613610981,-0.718481453861072
-4.02,-1.9812386627563,-0.7078848154555673
-4.0195,-1.127624674142465,-0.3370024712750445
-4.019,-0.2420001609548061,-0.09327978795619347
-4.0185,0.408880505363243,-0.07208651114587789
-4.018,0.7396559259519968,-0.1144730647665284
-4.0175,0.8463576745288233,-0.1674562567923655
-4.017,0.8463576745288233,-0.2204394488181545
-4.0165,0.8783681991018033,-0.3158091944645072
-4.016,0.8036769750980928,-0.09327978795619347
-4.0155,0.6756348768060175,0.2140227257933826
-4.015,0.5582629533713241,0.4259554938970975
-4.0145,0.4835717293676135,0.5213252395435176
-4.014,0.6009436528020158,0.7332580076466736
-4.0135,0.8997085488167125,1.082947075017026
-4.013,0.3235191065023739,0.6802748156210291
-4.0125,-0.572775581542968,0.07626642652648545
-4.012,-1.106284324426945,-0.3581957480855913
-4.0115,-0.9355615267041777,-0.5913217929990628
-4.011,-0.4980843575391895,-0.5913217929990628
-4.0105,-0.08194753808994498,-0.4217755785165381
-4.01,0.1954770082101822,-0.1992461720078678
-4.0095,0.3448594562177392,0.01268659609548085
-4.009,0.4088805053637768,0.1822328105780056
-4.0085,0.4088805053638156,0.2987958330350401
-4.008,0.3875401556484697,0.3411823866556712
-4.0075,0.3555296310754509,0.3199891098453557
-4.007,0.3235191065023642,0.2458126410090777
-4.0065,0.3128489316446912,0.1504428953626575
-4.006,0.291508581929326,0.02328323450064829
-4.0055,0.04609456020227586,-0.05089323433573577
-4.005,-0.3380317346739499,-0.2840192792492073
-4.0045,-0.9248913518464952,-0.6549016234300674
-4.004,-1.351698346154043,-0.9833974139903445
-4.0035,-1.618452717595867,-1.078767159636765
-4.003,-1.159635198715513,-0.6443049850249
-4.0025,-0.3273615598170242,-0.2522293640340616
-4.002,0.3661998059331045,-0.09327978795619347
-4.0015,0.7503261008096795,-0.1250697031716958
-4.001,0.8890383739594276,-0.1886495336026425
-4.0005,0.8890383739595247,-0.2416327256286436
-4,0.857027849386506,-0.3581957480853793
-3.9995,0.7609962756673623,-0.2628260024388724
-3.999,0.6436243522328531,0.002089957690313421
-3.9985,0.5369226036560266,0.2246193641988295
-3.998,0.4729015545099309,0.3623756634660061
-3.9975,0.4729015545099309,0.4683420475176805
-3.997,0.79300680024041,0.8286277532933731
-3.9965,0.5049120790829789,0.7226613692416989
-3.996,-0.3593720843893152,0.1610395337678249
-3.9955,-1.191645723288561,-0.326405832869877
-3.995,-1.575772018165136,-0.6125150698093976
-3.9945,-1.191645723288561,-0.6443049850249
-3.994,-0.6047861061160158,-0.4853554089473885
-3.9935,-0.1032878878049318,-0.252229364033705
-3.993,0.2061471830678648,-0.02969995752518888
-3.9925,0.3661998059331045,0.1610395337678249
-3.992,0.4195506802215176,0.2881991946298341
-3.9915,0.4195506802215176,0.3517790250608387
-3.991,0.3768699807907871,0.3517790250608387
-3.9905,0.3448594562177392,0.2987958330350016
-3.99,0.3448594562177392,0.2670059178194992
-3.9895,0.3021787567870086,0.1716361721729923
-3.989,0.04609456020262521,0.2034260873884947
-3.9885,-0.5300948821122373,0.1504428953626575
-3.988,-1.138294849000148,-0.252229364033705
-3.9875,-1.639793067311232,-0.7078848154559045
-3.987,-2.023919362187807,-1.068170521231597
-3.9865,-1.629122892453549,-0.8032545611024114
-3.986,-0.6688071552621118,-0.3475991096802118
-3.9855,0.1634664836371343,-0.1038764263613609
-3.985,0.6863050516635838,-0.04029659593035631
-3.9845,0.8783681991018712,-0.01910331912002144
-3.984,0.857027849386506,-0.07208651114585861
-3.9835,0.825017324813458,-0.2204394488182027
-3.983,0.8143471499557753,-0.2840192792492073
-3.9825,0.7183155762366316,-0.1356663415768632
-3.982,0.6009436528021226,0.06566978812131802
-3.9815,0.5155822539406614,0.2670059178194992
-3.981,0.4729015545099309,0.4789386859228479
-3.9805,0.6009436528021226,0.9875773293708847
-3.98,0.6222840025174878,1.210106735879401
-3.9795,-0.1032878878049318,0.6484849004055269
-3.979,-0.9248913518464952,-0.008506680714854012
-3.9785,-1.543761493592088,-0.4535654937318862
-3.978,-1.447729919872945,-0.6125150698093976
-3.9775,-0.8715404775580819,-0.5171453241628908
-3.977,-0.3060212101009019,-0.2946159176543747
-3.9765,0.08877525963335578,-0.05089323433552374
-3.976,0.3128489316446912,0.1610395337678249
-3.9755,0.408880505363835,0.3199891098453364
-3.975,0.4302208550792003,0.4259554938970107
-3.9745,0.408880505363835,0.4365521323021782
-3.974,0.3661998059331045,0.383568940276341
-3.9735,0.3448594562177392,0.2776025562246667
-3.973,0.3341892813600565,0.13984625695749
-3.9725,0.2594980573562781,-0.06148987274069118
-3.972,0.00341386077189465,-0.2628260024388724
-3.9715,-0.4127229586777283,-0.5595318777835605
-3.971,-0.9782422261349084,-0.8774310299385835
-3.9705,-1.575772018165136,-1.01518732920576
-3.97,-1.906547438753298,-0.8668343915334161
-3.9695,-1.277007122150022,-0.3581957480853793
-3.969,-0.423393133535411,-0.02969995752518888
-3.9685,0.2808384070716433,0.07626642652648545
-3.968,0.6756348768059011,0.04447651131098315
-3.9675,0.8356874996711408,-0.02969995752518888
-3.967,0.8463576745288233,-0.08268314955102604
-3.9665,0.8997085488172365,-0.1992461720078678
-3.966,0.8356874996711408,-0.02969995752518888
-3.9655,0.707645401378949,0.1504428953626575
-3.965,0.6009436528021226,0.309392471440169
-3.9645,0.5262524287983441,0.457745409112513
-3.964,0.6649647019482183,0.5743084315693548
-3.9635,0.9317190733902845,0.7438546460520338
-3.963,0.3341892813600565,0.3623756634660061
-3.9625,-0.5407650569699201,-0.1250697031716958
-3.962,-1.298347471865388,-0.3687923864905467
-3.9615,-1.629122892453549,-0.4853554089473885
-3.961,-1.191645723288561,-0.4323722169215513
-3.9605,-0.5941159312583333,-0.2628260024388724
-3.96,-0.09261771294724913,-0.07208651114585861
-3.9595,0.2168173579255475,0.1186529801471552
-3.959,0.3768699807907871,0.2776025562246667
-3.9585,0.4302208550792003,0.4047622170866759
-3.958,0.4195506802215176,0.4259554938970107
-3.9575,0.3768699807907871,0.3729723018711736
-3.957,0.3448594562177392,0.2564092794143318
-3.9565,0.3341892813600565,0.08686306493165288
-3.956,0.291508581929326,-0.07208651114585861
-3.9555,-0.06060718837420119,-0.1356663415768632
-3.955,-0.5834457564006506,-0.326405832869877
-3.9545,-1.127624674142465,-0.6760949002404023
-3.954,-1.661133417026597,-0.8668343915334161
-3.9535,-2.055929886760855,-0.8138511995075789
-3.953,-1.479740444445993,-0.4111789401112165
-3.9525,-0.5407650569699201,-0.1674562567923655
-3.952,0.2274875327832301,-0.04029659593035631
-3.9515,0.6756348768059011,0.002089957690313421
-3.951,0.8463576745288233,-0.05089323433552374
-3.9505,0.8356874996711408,-0.1356663415768632
-3.95,0.8676980242441885,-0.2628260024388724
-3.9495,0.8676980242441885,-0.1992461720078678
-3.949,0.7396559259519968,0.01268659609548085
-3.9485,0.6116138276598051,0.1928294489833272
-3.948,0.5155822539406614,0.3623756634660061
-3.9475,0.4515612047945656,0.4471487707073456
-3.947,0.5689331282290746,0.6484849004055269
-3.9465,0.291508581929326,0.5743084315693548
-3.946,-0.4874141826815069,0.09745970333682032
-3.9455,-1.277007122150022,-0.1780528951975329
-3.945,-1.682473766741963,-0.3370024712750445
-3.9445,-1.287677297007705,-0.3581957480853793
-3.944,-0.658136980404429,-0.2416327256285375
-3.9435,-0.1352984123779797,-0.05089323433552374
-3.943,0.1954770082101822,0.1504428953626575
-3.9425,0.3768699807907871,0.3199891098453364
-3.942,0.4302208550792003,0.457745409112513
-3.9415,0.4302208550792003,0.5213252395435176
-3.941,0.3875401556484697,0.5001319627331828
-3.9405,0.3448594562177392,0.4047622170866759
-3.94,0.3341892813600565,0.2670059178194992
-3.9395,0.3235191065023739,0.2352160026039969
-3.939,0.2168173579255475,0.04447651131098315
-3.9385,-0.3380317346739499,-0.326405832869877
-3.938,-0.9995825758502737,-0.7502713690765743
-3.9375,-1.533091318734406,-1.121153713257435
-3.937,-1.970568487899394,-1.237716735714276
-3.9365,-1.639793067311232,-0.8244478379127463
-3.936,-0.7328282044082075,-0.3687923864905467
-3.9355,0.08877525963335578,-0.1674562567923655
-3.935,0.6009436528021226,-0.09327978795619347
-3.9345,0.825017324813458,-0.08268314955102604
-3.934,0.857027849386506,-0.1250697031716958
-3.9335,0.857027849386506,-0.2310360872233701
-3.933,0.9850699476786977,-0.2734226408440398
-3.9325,0.9103787236749192,-0.008506680714854012
-3.932,0.7609962756673623,0.309392471440169
-3.9315,0.6222840025174878,0.5425185163538525
-3.931,0.5155822539406614,0.6696781772158616
-3.9305,0.7503261008096795,1.019367244586387
-3.93,1.209143619690033,1.167720182258731
-3.9295,0.6863050516635838,0.5955017083796896
-3.929,-0.274010685527854,0.02328323450064829
-3.9285,-1.095614149569417,-0.3370024712750445
-3.928,-1.191645723288561,-0.4959520473525559
-3.9275,-0.7755089038389382,-0.4429688553267188
-3.927,-0.2953510352432193,-0.2628260024388724
-3.9265,0.07810508477567314,-0.05089323433552374
-3.926,0.291508581929326,0.1504428953626575
-3.9255,0.3875401556484697,0.3623756634660061
-3.925,0.4195506802215176,0.5001319627331828
-3.9245,0.3982103305061524,0.4895353243280153
-3.924,0.3661998059331045,0.3941655786815084
-3.9235,0.3448594562177392,0.2881991946298341
-3.923,0.3448594562177392,0.2458126410091644
-3.9225,0.2168173579255475,0.02328323450064829
-3.922,-0.02859666380115328,-0.2946159176543747
-3.9215,-0.4340633083930936,-0.6549016234300674
-3.921,-1.010252750707956,-1.025783967610927
-3.9205,-1.522421143876723,-1.227120097309109
-3.92,-1.629122892453549,-1.004590690800593
-3.9195,-0.9355615267041777,-0.4853554089473885
-3.919,-0.1032878878049318,-0.1250697031716958
-3.9185,0.4729015545099309,-0.04029659593035631
-3.918,0.7823366253827275,-0.05089323433552374
-3.9175,0.8676980242441885,-0.09327978795619347
-3.917,0.8463576745288233,-0.1674562567923655
-3.9165,0.9530594231056497,-0.2628260024388724
-3.916,0.9210488985326017,-0.09327978795619347
-3.9155,0.7716664505250448,0.1504428953626575
-3.915,0.6222840025174878,0.3517790250608387
-3.9145,0.5049120790829789,0.5213252395435176
-3.914,0.5582629533713921,0.7332580076468663
-3.9135,0.7609962756673623,0.9875773293708847
-3.913,0.1634664836371343,0.5743084315693548
-3.9125,-0.7328282044082075,0.03387987290581572
-3.912,-1.501080794161358,-0.2628260024388724
-3.9115,-1.629122892453549,-0.4535654937318862
-3.911,-1.074273799854052,-0.4535654937318862
-3.9105,-0.4660738329661415,-0.3052125560595421
-3.91,-0.007256314085787988,-0.1038764263613609
-3.9095,0.2701682322139607,0.09745970333682032
-3.909,0.3982103305061524,0.2670059178194992
-3.9085,0.4302208550792003,0.383568940276341
-3.908,0.408880505363835,0.4259554938970107
-3.9075,0.3661998059331045,0.4047622170866759
-3.907,0.3341892813600565,0.3305857482505039
-3.9065,0.3235191065023739,0.1928294489833272
-3.906,0.3128489316446912,0.01268659609548085
-3.9055,0.01408403562957729,-0.2098428104130352
-3.905,-0.6047861061160158,-0.474758770542221
-3.9045,-1.234326422719292,-0.8032545611024114
-3.904,-1.597112367880501,-0.9198175835592532
-3.9035,-1.682473766741963,-0.8456411147230812
-3.903,-1.052933450138687,-0.4323722169215513
-3.9025,-0.2313299860971235,-0.06148987274069118
-3.902,0.4195506802215176,0.13984625695749
-3.9015,0.7609962756673623,0.1610395337678249
-3.901,0.857027849386506,0.04447651131098315
-3.9005,0.8463576745288233,-0.09327978795619347
-3.9,0.9103787236749192,-0.2098428104130352
-3.8995,0.9530594231056497,-0.1250697031716958
-3.899,0.825017324813458,0.1504428953626575
-3.8985,0.6756348768059011,0.3623756634660061
-3.898,0.5475927785137094,0.4895353243280153
-3.8975,0.4835717293676135,0.5001319627331828
-3.897,0.3875401556484697,0.5637117931641874
-3.8965,0.2701682322139607,0.6484849004055269
-3.896,-0.391382608962363,0.2034260873884947
-3.8955,-1.06360362499637,-0.1992461720078678
-3.895,-1.116954499284783,-0.4853554089473885
-3.8945,-0.7008176798351597,-0.5595318777835605
-3.894,-0.2526703358124887,-0.4535654937318862
-3.8935,0.08877525963335578,-0.2416327256285375
-3.893,0.291508581929326,-0.02969995752518888
-3.8925,0.3875401556484697,0.1504428953626575
-3.892,0.408880505363835,0.2881991946298341
-3.8915,0.3982103305061524,0.3623756634660061
-3.891,0.3661998059331045,0.3729723018711736
-3.8905,0.3341892813600565,0.3199891098453364
-3.89,0.3235191065023739,0.2246193641988295
-3.8895,0.3021787567870086,0.07626642652648545
-3.889,0.07810508477567314,0.02328323450064829
-3.8885,-0.5834457564006506,0.2987958330350016
-3.888,-1.255666772434657,0.2034260873884947
