Class_1_Relax_eyes_closed/Class_1_Relax_Eyes_closed_Turki_5.csv

#Digilent WaveForms Oscilloscope Acquisition
#Device Name: EExplorer
#Serial Number: SN:210151A2B84A
#Date Time: 2020-11-26 10:52:56.013
#Sample rate: 2000Hz
#Samples: 16384
#Trigger: Source: Channel 1 Type: Edge Condition: Rising Level: 0 V Hyst.: Auto HoldOff: 0 s
#Channel 1: Range: 1 V/div Offset: 0 V Attenuation: 1 X
#Channel 2: Range: 1 V/div Offset: 0 V Attenuation: 1 X
#Power Supplies: ON
#Fixed Supply: ON
#Voltage: 3.3 V Readback: 3.323 V
#Positive Supply: ON
#Voltage: 3.7 V Readback: 3.717 V
#Current: 500 mA Readback: 21 mA
#Negative Supply: ON
#Voltage: -3.7 V Readback: -3.704 V
#Current: -500 mA Readback: -9 mA
#Reference 1: ON
#Voltage: 0 V
#Reference 2: ON
#Voltage: 0 V

Time (s),Channel 1 (V),Channel 2 (V)
-4.096,0.8997085488172365,-0.9728007755850904
-4.0955,0.8463576745288718,-0.474758770542674
-4.095,0.8143471499557559,-0.008506680714478146
-4.0945,0.79300680024041,0.4047622170866759
-4.094,0.9957401225361958,0.9028042221290923
-4.0935,1.475897991131575,1.62337563368149
-4.093,0.8997085488172365,2.237980661180642
-4.0925,-0.1352984123770384,2.513493259714745
-4.092,-1.095614149570145,1.676358825705554
-4.0915,-1.895877263895616,0.3411823866556712
-4.091,-2.258663209056825,-0.7078848154559045
-4.0905,-2.205312334767733,-1.258910012524736
-4.09,-1.458400094730627,-1.396666311791788
-4.0895,-0.5407650569699201,-1.290699927740113
-4.089,0.1527963087788208,-1.078767159636957
-4.0885,0.5582629533713921,-0.8668343915334161
-4.088,0.7289857510943143,-0.6972881770507372
-4.0875,0.7609962756673332,-0.6125150698094748
-4.087,0.7289857510942754,-0.5807251545939436
-4.0865,0.6863050516635838,-0.6337083466197325
-4.086,0.5796033030868544,-0.6760949002403638
-4.0855,-0.0499370135172755,-0.07208651114490448
-4.085,-0.8822106524157645,0.9769806909657173
-4.0845,-1.522421143876141,1.856501678593814
-4.084,-1.938557963326492,2.079031085102514
-4.0835,-2.098610586191586,1.400846227172415
-4.083,-1.46907026958831,0.4895353243280153
-4.0825,-0.5621054066845672,-0.2840192792496217
-4.082,0.2274875327832301,-0.7396747306714069
-4.0815,0.7503261008096795,-0.9304142219644207
-4.081,1.027750647109176,-1.004590690800525
-4.0805,1.134452395686255,-1.025783967610927
-4.08,1.081101521397841,-1.131750351662602
-4.0795,0.9530594231057662,-0.9939940523955506
-4.079,0.8570278493864575,-0.6019184314038352
-4.0785,0.8036769750980928,-0.1674562567923655
-4.078,0.7716664505250739,0.2352160026036307
-4.0775,0.8783681991023565,0.6802748156216748
-4.077,1.411876941986003,1.390249588767247
-4.0765,1.03842082196745,2.079031085102504
-4.076,0.003413860771040657,2.513493259714523
-4.0755,-0.9355615267041777,1.994257977861791
-4.075,-1.735824641030376,0.9769806909657173
-4.0745,-2.237322859341499,-0.08268314955179705
-4.074,-2.280003558772191,-0.9304142219644207
-4.0735,-2.130621110764634,-1.364876396576285
-4.073,-1.234326422720107,-1.43905286541239
-4.0725,-0.3380317346739499,-1.290699927740113
-4.072,0.291508581929326,-1.068170521231597
-4.0715,0.622284002517187,-0.8456411147232836
-4.071,0.7503261008096892,-0.6760949002403156
-4.0705,0.7609962756673623,-0.5807251545938954
-4.07,0.7289857510943434,-0.5489352393784219
-4.0695,0.6542945270900894,-0.5701285161883617
-4.069,0.1634664836371343,-0.1674562567923655
-4.0685,-0.690147504977477,0.8180311148882058
-4.068,-1.383708870727208,1.750535294543325
-4.0675,-1.778505340461106,2.174400830749637
-4.067,-1.853196564464885,1.549199164844759
-4.0665,-1.351698346153034,0.6378882619996077
-4.066,-0.5087545323968721,-0.1886495336027004
-4.0655,0.2381577076409128,-0.718481453861072
-4.065,0.7289857510938679,-1.01518732920549
-4.0645,0.974399772821015,-1.110557074852267
-4.064,1.070431346540159,-1.110557074852267
-4.0635,1.123782220828523,-1.131750351662583
-4.063,1.145122570543859,-1.025783967610638
-4.0625,1.059761171682476,-0.7078848154559045
-4.062,0.9530594231057468,-0.3370024712753818
-4.0615,0.8570278493864671,0.03387987290614339
-4.061,0.8143471499557753,0.3941655786815084
-4.0605,1.209143619690033,1.00877060618122
-4.06,1.369196242554477,1.761131932948647
-4.0595,0.4942419042252961,2.354543683637484
-4.059,-0.5514352318276028,2.375736960447818
-4.0585,-1.447729919872129,1.623375633681615
-4.058,-2.141291285622316,0.4365521323021782
-4.0575,-2.280003558772191,-0.6019184314042303
-4.057,-2.269333383914518,-1.174136905282751
-4.0565,-1.927887788468663,-1.333086481360783
-4.056,-0.9355615267041777,-1.216523458903942
-4.0555,-0.1139580626633617,-0.9728007755853121
-4.055,0.3982103305063756,-0.7290780922660564
-4.0545,0.6436243522328531,-0.5277419625680583
-4.054,0.7289857510942367,-0.4005823017061647
-4.0535,0.7396559259519774,-0.3475991096802311
-4.053,0.7183155762366316,-0.3687923864905467
-4.0525,0.4515612047945656,-0.2310360872233701
-4.052,-0.3380317346746486,0.5849050699753896
-4.0515,-1.1062843244271,1.538602526439591
-4.051,-1.650463242168915,2.153207553939303
-4.0505,-1.991908837614449,1.792921848163938
-4.05,-1.938557963326346,0.8604176685088755
-4.0495,-1.138294849000148,-0.01910331912002144
-4.049,-0.2526703358132941,-0.6231117082140156
-4.0485,0.4302208550795885,-0.9939940523955795
-4.048,0.857027849386506,-1.163540266878104
-4.0475,1.070431346539965,-1.216523458903893
-4.047,1.177133095117111,-1.237716735714257
-4.0465,1.315845368266859,-1.216523458903942
-4.046,1.241154144263149,-0.8774310299388919
-4.0455,1.091771696255398,-0.4217755785159888
-4.045,0.9530594231056497,0.01268659609548085
-4.0445,0.857027849386506,0.3941655786815084
-4.044,1.070431346540566,0.8816109453198657
-4.0435,1.51857869056283,1.602182356870596
-4.043,0.8890383739595538,2.227384022775475
-4.0425,-0.1566387620923939,2.502896621309577
-4.042,-1.116954499284783,2.004854616266958
-4.0415,-1.917217613610981,1.019367244586387
-4.041,-2.258663209056515,-0.1674562567912861
-4.0405,-2.269333383914226,-1.015187329206126
-4.04,-1.959898313041711,-1.417859588602123
-4.0395,-0.9782422261358013,-1.470842780627912
-4.039,-0.1459685872351674,-1.290699927739901
-4.0385,0.3982103305061524,-1.05757388282643
-4.038,0.6649647019479756,-0.845641114723274
-4.0375,0.7503261008096699,-0.686691538645483
-4.037,0.7396559259519968,-0.5913217929990628
-4.0365,0.707645401378949,-0.570128516188728
-4.036,0.600943652801521,-0.5277419625674414
-4.0355,-0.06060718837420119,0.1504428953626575
-4.035,-0.8822106524157645,1.178316820663898
-4.0345,-1.522421143876141,1.994257977861049
-4.034,-1.746494815888059,1.951871424241121
-4.0335,-1.543761493592088,1.104140351827727
-4.033,-0.8181896032703286,0.1822328105789982
-4.0325,0.003413860772467214,-0.5171453241632281
-4.032,0.6329541773751706,-0.8880276683437509
-4.0315,1.017080472251396,-1.025783967610802
-4.031,1.166462920259312,-1.02578396761087
-4.0305,1.177133095116985,-0.9622041371799229
-4.03,1.145122570543966,-0.9622041371799229
-4.0295,1.059761171682389,-0.803254561102132
-4.029,0.9637295979633325,-0.4959520473525559
-4.0285,0.8783681991018712,-0.1356663415768632
-4.028,0.8143471499558821,0.2246193641992535
-4.0275,0.9317190733902845,0.6908714540261965
-4.027,1.497238340847464,1.432636142387917
-4.0265,1.15579274540193,2.121417638723174
-4.026,0.0674349099179905,2.555879813335665
-4.0255,-0.9995825758502737,2.195594107559972
-4.025,-1.853196564464108,0.9451907757513522
-4.0245,-2.258663209056845,-0.2734226408447241
-4.024,-2.280003558772191,-1.025783967610927
-4.0235,-2.269333383914518,-1.280103289334714
-4.023,-1.789175515317877,-1.216523458903729
-4.0225,-0.7861790786966207,-0.9833974139902578
-4.022,-0.007256314086496407,-0.7290780922664708
-4.0215,0.462231379652452,-0.5065486857575885
-4.021,0.6863050516635838,-0.3581957480853793
-4.0205,0.7503261008096795,-0.2946159176543747
-4.02,0.750326100809631,-0.3052125560596192
-4.0195,0.6969752265212663,-0.3899856633008816
-4.019,0.2594980573562781,-0.1356663415768632
-4.0185,-0.5194247072538464,0.7544512844563915
-4.018,-1.191645723288561,1.6657621873016
-4.0175,-1.586442193022819,1.994257977861791
-4.017,-1.757164990745586,1.32666975833685
-4.0165,-1.309017646722304,0.4789386859221925
-4.016,-0.4660738329661415,-0.2416327256285375
-4.0155,0.3021787567863098,-0.7184814538606383
-4.015,0.8143471499559791,-1.015187329205799
-4.0145,1.038420821967111,-1.05757388282643
-4.014,1.091771696255475,-1.046977244421272
-4.0135,0.9957401225362056,-1.089363798041903
-4.013,0.8036769750980928,-1.05757388282643
-4.0125,0.7289857510943143,-0.7608680074817418
-4.012,0.718315576236651,-0.3899856633005539
-4.0115,0.7396559259519968,-0.02969995752518888
-4.011,0.7609962756673623,0.309392471440169
-4.0105,1.209143619689625,0.9451907757496367
-4.01,1.294505018551494,1.729342017732605
-4.0095,0.4302208550792003,2.333350406827149
-4.009,-0.5941159312574016,2.322753768421991
-4.0085,-1.479740444446594,1.199510097473067
-4.008,-2.141291285622316,-0.08268314955102604
-4.0075,-2.269333383914391,-0.9516074987739652
-4.007,-2.258663209056408,-1.333086481360812
-4.0065,-1.799845690176472,-1.364876396576285
-4.006,-0.807519428411986,-1.184733543688439
-4.0055,-0.01792648894303392,-0.9516074987745627
-4.005,0.4622313796522482,-0.7396747306714069
-4.0045,0.6756348768059011,-0.5913217929990628
-4.004,0.7503261008096699,-0.5171453241628908
-4.0035,0.7396559259519968,-0.5171453241628908
-4.003,0.707645401378949,-0.5807251545938954
-4.0025,0.4088805053641067,-0.3899856633010551
-4.002,-0.391382608962363,0.5213252395435176
-4.0015,-1.191645723288561,1.506812611224089
-4.001,-1.778505340460573,2.110821000318083
-4.0005,-2.013249187329737,1.67635882570591
-4,-1.586442193022819,0.7332580076468663
-3.9995,-0.6794773301197943,-0.08268314955102604
-3.999,0.1527963087794516,-0.6760949002404023
-3.9985,0.707645401378949,-1.046977244421262
-3.998,1.006410297394063,-1.258910012524611
-3.9975,1.134452395686255,-1.301296566145281
-3.997,1.166462920259302,-1.237716735714276
-3.9965,1.027750647109428,-1.195330182093607
-3.996,0.9210488985326017,-0.8350444763179138
-3.9955,0.8463576745288233,-0.3793890248957141
-3.995,0.8036769750980928,0.05507314971615059
-3.9945,0.8036769750980928,0.4365521323021782
-3.994,1.091771696255524,0.9663840525605498
-3.9935,1.550589215135878,1.686955464111935
-3.993,0.8890383739595538,2.290963853206479
-3.9925,-0.1886492866663929,2.396930237258153
-3.992,-1.170305373573196,1.369056311956912
-3.9915,-1.959898313041711,0.04447651131098315
-3.991,-2.258663209056825,-0.9198175835592532
-3.9905,-2.258663209056825,-1.396666311791788
-3.99,-2.002579012472442,-1.481439419033127
-3.9895,-1.031593100423322,-1.322489842955616
-3.989,-0.1779791118087102,-1.0999604364471
-3.9885,0.3875401556484697,-0.8774310299385835
-3.988,0.6649647019482183,-0.718481453861072
-3.9875,0.7609962756673623,-0.6231117082145651
-3.987,0.7503261008096795,-0.6019184314042303
-3.9865,0.7183155762366316,-0.6443049850249
-3.986,0.5689331282290746,-0.6231117082145651
-3.9855,-0.124628237520297,0.1080563417419877
-3.985,-0.9569018764195432,1.167720182258731
-3.9845,-1.607782542738184,1.973064701051456
-3.984,-1.87453691418025,1.888291593810116
-3.9835,-1.543761493592088,1.019367244586387
-3.983,-0.7008176798351597,0.1292496185523226
-3.9825,0.08877525963335578,-0.5171453241628908
-3.982,0.6756348768059011,-0.9304142219644207
-3.9815,1.049090996824793,-1.131750351662602
-3.981,1.241154144263081,-1.216523458903942
-3.9805,1.251824319120764,-1.152943628472937
-3.98,1.091771696255524,-1.184733543688439
-3.9795,0.9317190733902845,-0.9728007755850904
-3.979,0.8356874996711408,-0.570128516188728
-3.9785,0.8036769750980928,-0.1356663415768632
-3.978,0.7823366253827275,0.2564092794143318
-3.9775,0.8997085488172365,0.701468092431364
-3.977,1.465227816274416,1.411442865577582
-3.9765,1.15579274540162,2.089627723508298
-3.976,0.1314559590640864,2.502896621309828
-3.9755,-0.9142211769888124,1.920081509025619
-3.975,-1.767835165603424,0.6060983467848571
-3.9745,-2.23732285934146,-0.5065486857577234
-3.974,-2.258663209056825,-1.131750351662602
-3.9735,-2.07727023647622,-1.311893204550448
-3.973,-1.138294849000148,-1.227120097309109
-3.9725,-0.2633405106701714,-1.004590690800593
-3.972,0.3341892813600565,-0.7820612842920766
-3.9715,0.6542945270905358,-0.6019184314042303
-3.971,0.7609962756673623,-0.4959520473525559
-3.9705,0.7716664505250448,-0.4641621321370536
-3.97,0.7396559259519968,-0.4959520473525559
-3.9695,0.6756348768059011,-0.570128516188728
-3.969,0.1634664836371343,-0.08268314955102604
-3.9685,-0.690147504977477,0.92399749893988
-3.968,-1.405049220442214,1.803518486568777
-3.9675,-1.895877263895616,2.142610915534135
-3.967,-2.151961460479999,1.517409249629256
-3.9665,-1.714484291315011,0.5743084315693548
-3.966,-0.7434983792658902,-0.2310360872233701
-3.9655,0.1634664836371343,-0.7502713690765743
-3.965,0.7609962756673623,-1.068170521231597
-3.9645,1.081101521397841,-1.174136905283272
-3.964,1.187803269974668,-1.174136905283272
-3.9635,1.273164668836129,-1.174136905283272
-3.963,1.294505018551494,-1.068170521231597
-3.9625,1.166462920259302,-0.7290780922662394
-3.962,1.017080472251745,-0.3158091944647096
-3.9615,0.8997085488172365,0.07626642652648545
-3.961,0.8676980242441885,0.4789386859228479
-3.9605,1.326515543124542,1.135930267043229
-3.96,1.379866417412955,1.877694955404949
-3.9595,0.4302208550792003,2.418123514068488
-3.959,-0.5514352318276028,2.216787384370307
-3.9585,-1.415719395299897,1.411442865577582
-3.958,-2.098610586191586,0.3411823866556712
-3.9575,-2.258663209056825,-0.6654982618352349
-3.957,-2.247993034199143,-1.237716735714276
-3.9565,-1.927887788468663,-1.417859588602123
-3.956,-0.9462317015618604,-1.301296566145281
-3.9555,-0.1139580626626144,-1.068170521231597
-3.955,0.408880505363835,-0.8138511995075789
-3.9545,0.6756348768059011,-0.6019184314042303
-3.954,0.7609962756673623,-0.4641621321370536
-3.9535,0.7609962756673623,-0.400582301706049
-3.953,0.7183155762366316,-0.4111789401112165
-3.9525,0.4729015545099309,-0.2734226408440398
-3.952,-0.3166913849585846,0.5425185163538525
-3.9515,-1.074273799854052,1.506812611224089
-3.951,-1.575772018165136,2.1214176387238
-3.9505,-1.895877263895616,1.739938656137773
-3.95,-1.661133417026597,0.92399749893988
-3.9495,-0.7968492535543035,0.08686306493165288
-3.949,0.0674349099179905,-0.5277419625680583
-3.9485,0.6756348768059011,-0.8880276683437509
-3.948,0.9957401225363802,-1.068170521231597
-3.9475,1.102441871113207,-1.121153713257435
-3.947,1.113112045970889,-1.163540266878104
-3.9465,1.038420821967111,-1.152943628472937
-3.946,0.9530594231056497,-0.8774310299385835
-3.9455,0.8890383739595538,-0.5065486857577234
-3.945,0.8463576745288233,-0.1250697031716958
-3.9445,0.8143471499557753,0.2246193641988295
-3.944,1.145122570543937,0.8180311148882058
-3.9435,1.35852606769759,1.612778995275763
-3.943,0.5369226036560266,2.259173937990977
-3.9425,-0.5194247072545548,2.439316790878823
-3.942,-1.426389570157579,1.496215972818921
-3.9415,-2.119950935906951,0.1716361721729923
-3.941,-2.258663209056825,-0.8138511995075789
-3.9405,-2.247993034199143,-1.290699927740113
-3.94,-1.821186039891837,-1.364876396576285
-3.9395,-0.8181896032696687,-1.195330182093607
-3.939,-0.01792648894347063,-0.9516074987747555
-3.9385,0.4835717293676135,-0.718481453861072
-3.938,0.7183155762366316,-0.5383386009732256
-3.9375,0.7823366253827275,-0.4323722169215513
-3.937,0.7716664505250448,-0.400582301706049
-3.9365,0.7289857510943143,-0.4535654937318862
-3.936,0.5796033030867573,-0.4535654937318862
-3.9355,-0.1139580626626144,0.2246193641988295
-3.935,-0.9355615267041777,1.220703374284568
-3.9345,-1.533091318734406,1.983661339456623
-3.934,-1.767835165603424,1.845905040189447
-3.9335,-1.565101843307454,1.019367244586387
-3.933,-0.8181896032696687,0.1292496185523226
-3.9325,0.00341386077189465,-0.5383386009732256
-3.932,0.6009436528021226,-0.9304142219644207
-3.9315,0.9530594231056497,-1.121153713257435
-3.931,1.102441871113207,-1.163540266878104
-3.9305,1.134452395686255,-1.131750351662602
-3.93,1.017080472251745,-1.131750351662602
-3.9295,0.8997085488172365,-0.9198175835592532
-3.929,0.8356874996711408,-0.570128516188728
-3.9285,0.8036769750980928,-0.1886495336027004
-3.928,0.79300680024041,0.1610395337678249
-3.9275,0.9317190733902845,0.6166949851900245
-3.927,1.486568165989782,1.358459673551745
-3.9265,1.091771696255524,2.068434446697963
-3.926,0.02475421048725994,2.471106706094325
-3.9255,-1.010252750707956,1.803518486568777
-3.925,-1.853196564464885,0.5001319627331828
-3.9245,-2.23732285934146,-0.570128516188728
-3.924,-2.258663209056825,-1.142346990067769
-3.9235,-2.183971985053047,-1.301296566145281
-3.923,-1.415719395299897,-1.195330182093607
-3.9225,-0.4767440078238243,-0.9728007755850904
-3.922,0.2061471830678648,-0.7502713690765743
-3.9215,0.5902734779444399,-0.570128516188728
-3.921,0.7503261008096795,-0.474758770542221
-3.9205,0.7716664505250448,-0.4429688553267188
-3.92,0.7503261008096795,-0.4853554089473885
-3.9195,0.6649647019482183,-0.5383386009732256
-3.919,0.1101156093487211,0.02328323450064829
-3.9185,-0.7328282044082075,1.029963882991555
-3.918,-1.394379045584531,1.877694955404949
-3.9175,-1.767835165603424,2.07903108510313
-3.917,-1.949228138184029,1.33726639674141
-3.9165,-1.447729919872945,0.4259554938970107
-3.916,-0.5514352318276028,-0.326405832869877
-3.9155,0.2381577076409128,-0.8244478379127463
-3.915,0.7823366253827275,-1.068170521231597
-3.9145,1.027750647109428,-1.131750351662602
-3.914,1.113112045970889,-1.163540266878104
-3.9135,1.027750647109428,-1.004590690800593
-3.913,0.8890383739595538,-0.7396747306714069
-3.9125,0.8356874996711408,-0.5489352393783931
-3.912,0.8143471499557753,-0.3475991096802118
-3.9115,0.8036769750980928,-0.1250697031716958
-3.911,0.857027849386506,0.1822328105781598
-3.9105,1.337185717982225,0.8816109453192104
-3.91,1.113112045970889,1.70814874092227
-3.9095,0.09944543449103843,2.322753768421981
-3.909,-0.9035510021311299,2.110821000318633
-3.9085,-1.725154466172693,0.92399749893988
-3.908,-2.215982509626095,-0.2204394488182027
-3.9075,-2.247993034199143,-0.8880276683437509
-3.907,-2.141291285622316,-1.0999604364471
-3.9065,-1.277007122150022,-1.004590690800593
-3.906,-0.3593720843893152,-0.7608680074817418
-3.9055,0.291508581929326,-0.4959520473525559
-3.905,0.6329541773751706,-0.2840192792492073
-3.9045,0.7609962756673623,-0.1462629799820306
-3.904,0.7716664505250448,-0.09327978795619347
-3.9035,0.7503261008096795,-0.1250697031716958
-3.903,0.707645401378949,-0.2310360872233701
-3.9025,0.3661998059331045,-0.04029659593035631
-3.902,-0.4447334832507763,0.8074344764830383
-3.9015,-1.202315898146244,1.686955464111935
-3.901,-1.682473766741963,2.132014277128968
-3.9005,-1.83185621474952,1.559795803249926
-3.9,-1.287677297007705,0.6060983467848571
-3.8995,-0.423393133535411,-0.2416327256285375
-3.899,0.3341892813600565,-0.8350444763179138
-3.8985,0.857027849386506,-1.152943628472937
-3.898,1.145122570543937,-1.290699927740113
-3.8975,1.219813794547716,-1.311893204550448
-3.897,1.230483969405398,-1.248313374119443
-3.8965,1.241154144263081,-1.163540266878104
-3.896,1.145122570543937,-0.8880276683437509
-3.8955,1.017080472251745,-0.5489352393783931
-3.895,0.9210488985326017,-0.2098428104130352
-3.8945,0.857027849386506,0.13984625695749
-3.894,1.177133095116985,0.7544512844572011
-3.8935,1.379866417412955,1.580989080060261
-3.893,0.5262524287983441,2.248577299585809
-3.8925,-0.5087545323968721,2.396930237258153
-3.892,-1.383708870726849,1.803518486568777
-3.8915,-2.07727023647622,0.9663840525605498
-3.891,-2.23732285934146,-0.1144730647665284
-3.8905,-2.23732285934146,-0.9092209451540858
-3.89,-1.789175515318789,-1.280103289334946
-3.8895,-0.7968492535543035,-1.290699927740113
-3.889,-0.007256314085787988,-1.110557074852267
-3.8885,0.4942419042252961,-0.8562377531282487
-3.888,0.7289857510943143,-0.6231117082145651
-3.8875,0.8036769750980928,-0.4429688553267188
-3.887,0.79300680024041,-0.3370024712750445
-3.8865,0.7503261008096795,-0.3158091944647096
-3.886,0.5582629533713921,-0.1992461720078678
-3.8855,-0.1886492866663929,0.55311515475902
-3.885,-1.020922925565639,1.485619334413754
-3.8845,-1.650463242168915,2.16380419234447
