Class_1_Relax_eyes_closed/Class_1_Relax_Eyes_closed_Zakour_9.csv

#Digilent WaveForms Oscilloscope Acquisition
#Device Name: EExplorer
#Serial Number: SN:210151A2B84A
#Date Time: 2021-01-28 09:49:11.937
#Sample rate: 2000Hz
#Samples: 16384
#Trigger: Source: Channel 1 Type: Edge Condition: Rising Level: 0 V Hyst.: Auto HoldOff: 0 s
#Channel 1: Range: 1 V/div Offset: 0 V Attenuation: 1 X
#Channel 2: Range: 1 V/div Offset: 0 V Attenuation: 1 X
#Power Supplies: ON
#Fixed Supply: ON
#Voltage: 3.3 V Readback: 3.328 V
#Positive Supply: ON
#Voltage: 3.7 V Readback: 3.717 V
#Current: 40 mA Readback: 21 mA
#Negative Supply: ON
#Voltage: -3.7 V Readback: -3.353 V
#Current: -40 mA Readback: -9 mA
#Reference 1: ON
#Voltage: 0 V
#Reference 2: ON
#Voltage: 0 V

Time (s),Channel 1 (V),Channel 2 (V)
-4.096,0.5902734779444399,0.6696781772158616
-4.0955,-0.1779791118080114,1.411442865576908
-4.095,-0.7648387289816243,1.782325209757825
-4.0945,-1.170305373573196,1.104140351827727
-4.094,-1.277007122149925,0.03387987290678907
-4.0935,-0.6474668055460477,-0.8032545611028162
-4.093,0.1207857842064037,-1.248313374119443
-4.0925,0.6969752265207423,-1.322489842955548
-4.092,1.059761171682631,-1.142346990067538
-4.0915,1.230483969405398,-0.8880276683437509
-4.091,1.283834843693812,-0.6443049850249
-4.0905,1.262494493978252,-0.4429688553266031
-4.09,1.049090996824793,-0.3158091944647096
-4.0895,0.4515612047945656,-0.2628260024388724
-4.089,-0.2846808603848671,-0.1462629799821367
-4.0885,-0.8928808272734472,0.3623756634660061
-4.088,-1.010252750707956,1.040560521396722
-4.0875,-1.116954499284686,1.729342017731979
-4.087,-1.30901764672308,2.248577299585664
-4.0865,-1.319687821580753,2.089627723508298
-4.086,-1.341028171296099,0.9981739677770449
-4.0855,-1.373038695869176,-0.2098428104138641
-4.085,-1.383708870726849,-1.121153713257435
-4.0845,-1.383708870726849,-1.799338571187533
-4.084,-1.341028171295546,-1.990078062480884
-4.0835,-0.7114878546928423,-1.682775548731308
-4.083,0.1314559590640864,-1.184733543688439
-4.0825,0.558262953371625,-0.9410108603693954
-4.082,0.8143471499557753,-0.7290780922662394
-4.0815,1.038420821967111,-0.5171453241628908
-4.081,1.198473444832205,-0.3475991096803661
-4.0805,1.262494493978446,-0.2416327256285375
-4.08,1.219813794547716,0.02328323450064829
-4.0795,0.8997085488175276,0.4259554938966445
-4.079,0.1634664836365035,1.082947075017912
-4.0785,-0.5300948821122373,1.655165548896433
-4.078,-1.031593100422866,1.337266396741699
-4.0775,-1.319687821580336,0.3305857482496365
-4.077,-0.8608703027003992,-0.6231117082145651
-4.0765,-0.0499370135172561,-1.237716735713717
-4.076,0.5902734779448087,-1.502632695843395
-4.0755,0.9957401225363802,-1.42845622700729
-4.075,1.209143619690033,-1.184733543688439
-4.0745,1.273164668836129,-0.9198175835590509
-4.074,1.273164668836129,-0.6972881770507372
-4.0735,1.187803269974668,-0.5489352393783931
-4.073,0.8036769750984422,-0.4641621321371307
-4.0725,0.1741366584948169,-0.4323722169215513
-4.072,-0.5087545323968721,-0.2416327256285375
-4.0715,-0.8928808272730978,0.5425185163531393
-4.071,-1.063603624996583,1.464426057604056
-4.0705,-1.298347471865388,2.16380419234447
-4.07,-1.351698346153752,2.35454368363731
-4.0695,-1.351698346153811,1.485619334412607
-4.069,-1.362368521011484,0.2246193641988295
-4.0685,-1.373038695869166,-0.8138511995075789
-4.068,-1.37303869586904,-1.576809164679827
-4.0675,-1.234326422719292,-1.788741932782983
-4.067,-0.4447334832507763,-1.364876396576285
-4.0665,0.3448594562181371,-0.9410108603694339
-4.066,0.7823366253827275,-0.7714646458869092
-4.0655,0.8143471499557753,-0.718481453861072
-4.065,0.9423892482478505,-0.5171453241630739
-4.0645,1.081101521397841,-0.3052125560595421
-4.064,1.177133095116985,-0.1568596183871981
-4.0635,1.209143619690004,-0.02969995752530455
-4.063,1.027750647108846,0.2670059178200967
-4.0625,0.3875401556484697,0.92399749893988
-4.062,-0.3593720843886358,1.612778995275137
-4.0615,-0.8715404775584313,1.655165548895595
-4.061,-1.255666772434657,0.7332580076468663
-4.0605,-1.042263275281004,-0.2946159176543747
-4.06,-0.2740106855272232,-1.025783967611149
-4.0595,0.4195506802215176,-1.269506650929778
-4.059,0.8997085488172365,-1.05757388282643
-4.0585,1.155792745401387,-0.7290780922665382
-4.058,1.262494493978446,-0.474758770542221
-4.0575,1.283834843693812,-0.3899856633008816
-4.057,1.230483969405447,-0.3793890248957238
-4.0565,0.942389248247967,-0.4111789401112165
-4.056,0.3448594562177392,-0.4535654937318862
-4.0555,-0.3487019095310017,-0.3793890248957816
-4.055,-0.8395299529850436,0.2458126410098679
-4.0545,-0.8502001278427167,1.019367244586387
-4.054,-1.010252750707811,1.771728571352591
-4.0535,-1.223656247861619,2.248577299585366
-4.053,-1.234326422719292,1.761131932948107
-4.0525,-1.330357996438436,0.5637117931641874
-4.052,-1.373038695869166,-0.5383386009739773
-4.0515,-1.373038695869166,-1.364876396576285
-4.051,-1.383708870726849,-1.915901593644992
-4.0505,-1.373038695869176,-2.000674700886254
-4.05,-1.042263275281004,-1.809935209593318
-4.0495,-0.1779791118087102,-1.152943628472937
-4.049,0.2701682322135531,-0.7926579226975716
-4.0485,0.6756348768061825,-0.4005823017057503
-4.048,0.9850699476786977,-0.07208651114585861
-4.0475,1.17713309511681,0.1080563417418239
-4.047,1.251824319120638,0.1928294489834911
-4.0465,1.113112045970889,0.3729723018711736
-4.046,0.6222840025179343,0.7438546460516964
-4.0455,-0.145968587236167,1.316073119931326
-4.045,-0.7008176798351597,1.591585718465428
-4.0445,-1.074273799854052,0.92399749893988
-4.044,-1.031593100422701,-0.09327978795697411
-4.0435,-0.3487019095316325,-0.9516074987747555
-4.043,0.3341892813600565,-1.534422611058964
-4.0425,0.8356874996706847,-1.820531847998225
-4.042,1.123782220828572,-1.767548655972648
-4.0415,1.251824319120764,-1.502632695843462
-4.041,1.283834843693783,-1.237716735714517
-4.0405,1.251824319120589,-1.036380606015979
-4.04,1.059761171682476,-0.9092209451540858
-4.0395,0.5262524287988294,-0.8350444763179813
-4.039,-0.1673089369515905,-0.697288177050159
-4.0385,-0.7861790786966207,-0.06148987274069118
-4.038,-0.914221176988696,0.7756445612667746
-4.0375,-0.9995825758504872,1.570392441655652
-4.037,-1.234326422719292,2.184997469154805
-4.0365,-1.298347471865388,2.16380419234447
-4.036,-1.341028171296138,1.125333628636953
-4.0355,-1.362368521011484,-0.09327978795619347
-4.035,-1.373038695869166,-1.036380606016095
-4.0345,-1.319687821580801,-1.576809164679143
-4.034,-0.690147504977477,-1.333086481360783
-4.0335,0.1314559590640864,-0.8138511995075789
-4.033,0.7716664505244625,-0.3581957480857937
-4.0325,0.9423892482479961,-0.2310360872232641
-4.032,0.974399772821015,-0.1144730647665284
-4.0315,1.070431346540071,0.0444765113108386
-4.031,1.166462920259361,0.1716361721730887
-4.0305,1.230483969405398,0.2776025562246667
-4.03,1.209143619690052,0.4789386859226648
-4.0295,0.8890383739588744,0.8074344764835298
-4.029,0.142126133921769,1.347863035146577
-4.0285,-0.5514352318276028,1.824711763379112
-4.028,-1.052933450138803,1.485619334412809
-4.0275,-1.180975548430879,0.4471487707073456
-4.027,-0.5407650569699201,-0.5277419625680583
-4.0265,0.1954770082095126,-1.195330182093
-4.026,0.7503261008096795,-1.566212526274467
-4.0255,1.081101521397841,-1.629792356705471
-4.025,1.230483969405263,-1.470842780628104
-4.0245,1.273164668836119,-1.21652345890372
-4.024,1.262494493978446,-0.9728007755850904
-4.0235,1.16646292025939,-0.7926579226974079
-4.023,0.7503261008091167,-0.7184814538610816
-4.0225,0.1314559590640864,-0.7290780922662394
-4.022,-0.5300948821116357,-0.5065486857579258
-4.0215,-0.8075194284120442,0.2564092794151317
-4.021,-0.8715404775580819,1.135930267043229
-4.0205,-1.138294849000148,1.920081509025619
-4.02,-1.298347471865436,2.227384022774742
-4.0195,-1.351698346153801,1.42203950398275
-4.019,-1.373038695869166,0.2140227257936621
-4.0185,-1.383708870726839,-0.8032545611014862
-4.018,-1.383708870726849,-1.555615887869299
-4.0175,-1.383708870726849,-1.968884785670829
-4.017,-1.234326422719428,-1.91590159364504
-4.0165,-0.4233931335347996,-1.290699927739583
-4.016,0.2488278824985954,-0.7078848154559045
-4.0155,0.6009436528018024,-0.3687923864908552
-4.015,0.9210488985328056,-0.07208651114567549
-4.0145,1.145122570543937,0.1292496185523226
-4.014,1.273164668836012,0.2352160026039006
-4.0135,1.29450501855129,0.3199891098455195
-4.013,1.070431346540159,0.5213252395435176
-4.0125,0.3875401556484697,0.9769806909657173
-4.012,-0.3807124341051462,1.485619334413735
-4.0115,-0.8928808272734472,1.464426057603419
-4.011,-1.277007122150022,0.5955017083796896
-4.0105,-1.138294849000274,-0.3899856632999853
-4.01,-0.3700422592469978,-1.121153713257435
-4.0095,0.3555296310754218,-1.576809164679634
-4.009,0.8570278493860499,-1.714565463946685
-4.0085,1.145122570544044,-1.598002441489747
-4.008,1.262494493978446,-1.354279758171118
-4.0075,1.283834843693792,-1.121153713257647
-4.007,1.241154144262867,-0.9410108603694821
-4.0065,1.006410297394063,-0.8244478379127463
-4.006,0.4622313796522482,-0.7608680074817418
-4.0055,-0.231329986097599,-0.548935239377728
-4.005,-0.754168554123573,0.1822328105781598
-4.0045,-0.8715404775580819,1.00877060618122
-4.004,-1.116954499284957,1.803518486569211
-4.0035,-1.30901764672307,2.280367214801311
-4.003,-1.319687821580753,1.79292184816361
-4.0025,-1.351698346153772,0.6060983467859364
-4.002,-1.373038695869166,-0.5065486857577234
-4.0015,-1.373038695869166,-1.301296566145281
-4.001,-1.244996597577091,-1.396666311791701
-4.0005,-0.5087545323961636,-0.9728007755847241
-4,0.2701682322139607,-0.570128516188728
-3.9995,0.8143471499557753,-0.2946159176543747
-3.999,0.8890383739595538,-0.252229364033705
-3.9985,0.974399772821015,-0.1462629799820306
-3.998,1.091771696255524,0.02328323450064829
-3.9975,1.187803269974668,0.1610395337678249
-3.997,1.241154144263081,0.2881991946298341
-3.9965,1.15579274540162,0.5425185163538525
-3.996,0.6436243522328531,1.019367244586387
-3.9955,-0.1459685872356623,1.602182356870596
-3.995,-0.7328282044082075,1.898888232215284
-3.9945,-0.9889124009925911,1.199510097474233
-3.994,-0.690147504977477,0.1186529801471552
-3.9935,-0.04993701351651855,-0.7608680074817418
-3.993,0.5369226036560266,-1.311893204550448
-3.9925,0.942389248247967,-1.566212526274467
-3.992,1.166462920259302,-1.51322933424863
-3.9915,1.251824319120764,-1.290699927740113
-3.991,1.262494493978446,-1.078767159636765
-3.9905,1.241154144263081,-0.9198175835592532
-3.99,1.017080472251745,-0.8244478379127463
-3.9895,0.4195506802215176,-0.7714646458869092
-3.989,-0.2526703358124887,-0.7608680074817418
-3.9885,-0.8181896032696687,-0.326405832869877
-3.988,-0.9569018764195432,0.5425185163538525
-3.9875,-1.116954499284783,1.464426057603419
-3.987,-1.319687821580753,2.142610915534135
-3.9865,-1.341028171296118,2.057837808292796
-3.986,-1.351698346153801,0.9875773293708847
-3.9855,-1.373038695869166,-0.1886495336027004
-3.985,-1.373038695869166,-1.089363798041932
-3.9845,-1.383708870726849,-1.75695201756748
-3.984,-1.298347471865388,-1.915901593644992
-3.9835,-0.5621054066852853,-1.38606967338662
-3.983,0.291508581929326,-0.8244478379127463
-3.9825,0.6756348768059011,-0.6231117082145651
-3.982,0.857027849386506,-0.4111789401112165
-3.9815,1.059761171682476,-0.1250697031716958
-3.981,1.19847344483235,0.1080563417419877
-3.9805,1.273164668836129,0.2458126410091644
-3.98,1.262494493978446,0.4047622170866759
-3.9795,0.9637295979633325,0.6590815388106942
-3.979,0.2274875327832301,1.167720182258731
-3.9785,-0.4767440078238243,1.612778995275763
-3.978,-0.8608703027003992,1.220703374284568
-3.9775,-0.6047861061160158,0.2352160026039969
-3.977,0.02475421048725994,-0.6760949002404023
-3.9765,0.5902734779444399,-1.301296566145281
-3.976,0.9637295979633325,-1.640388995110639
-3.9755,1.177133095116985,-1.682775548731308
-3.975,1.251824319120764,-1.492036057438295
-3.9745,1.262494493978446,-1.248313374119443
-3.974,1.241154144263081,-1.036380606016095
-3.9735,1.15579274540162,-0.8986243067489184
-3.973,0.8676980242441885,-0.8138511995075789
-3.9725,0.3021787567870086,-0.7714646458869092
-3.972,-0.391382608962363,-0.474758770542221
-3.9715,-0.7755089038389382,0.3941655786815084
-3.971,-0.9995825758502737,1.347863035146577
-3.9705,-1.287677297007705,2.100224361913465
-3.97,-1.362368521011484,2.343947045232316
-3.9695,-1.362368521011484,1.506812611224089
-3.969,-1.373038695869166,0.2670059178194992
-3.9685,-1.383708870726849,-0.7714646458869092
-3.968,-1.383708870726849,-1.523825972653797
-3.9675,-1.341028171296118,-1.88411167842949
-3.967,-0.690147504977477,-1.449649503817625
-3.9665,0.1634664836371343,-0.8562377531282487
-3.966,0.6649647019482183,-0.4853554089473885
-3.9655,0.7716664505250448,-0.3370024712750445
-3.965,0.9210488985326017,-0.1038764263613609
-3.9645,1.081101521397841,0.1080563417419877
-3.964,1.187803269974668,0.2458126410091644
-3.9635,1.19847344483235,0.4365521323021782
-3.963,0.9957401225363802,0.7438546460520338
-3.9625,0.3982103305061524,1.199510097474233
-3.962,-0.3487019095316325,1.697552102517103
-3.9615,-0.8502001278427167,1.676358825706768
-3.961,-0.8715404775580819,0.7544512844572011
-3.9605,-0.2633405106701714,-0.2840192792492073
-3.96,0.3661998059331045,-1.046977244421262
-3.9595,0.8356874996711408,-1.534422611058964
-3.959,1.113112045970889,-1.714565463946811
-3.9585,1.230483969405398,-1.619195718300304
-3.958,1.262494493978446,-1.396666311791788
-3.9575,1.251824319120764,-1.174136905283272
-3.957,1.19847344483235,-0.9939940523954253
-3.9565,0.9530594231056497,-0.8880276683437509
-3.956,0.3982103305061524,-0.8350444763179138
-3.9555,-0.2953510352432193,-0.6337083466197325
-3.955,-0.7968492535543035,0.07626642652648545
-3.9545,-0.8608703027003992,0.9663840525605498
-3.954,-1.074273799854052,1.803518486568777
-3.9535,-1.287677297007705,2.322753768421981
-3.953,-1.319687821580753,1.867098316999781
-3.9525,-1.362368521011484,0.6802748156210291
-3.952,-1.383708870726849,-0.4429688553267188
-3.9515,-1.383708870726849,-1.280103289334946
-3.951,-1.383708870726849,-1.852321763213987
-3.9505,-1.341028171296118,-1.937094870455327
-3.95,-0.7008176798351597,-1.545019249464132
-3.9495,0.09944543449103843,-0.8456411147230812
-3.949,0.4302208550792003,-0.5277419625680583
-3.9485,0.7503261008096795,-0.1886495336027004
-3.948,1.017080472251745,0.07626642652648545
-3.9475,1.177133095116985,0.2458126410091644
-3.947,1.241154144263081,0.3623756634660061
-3.9465,1.123782220828572,0.6060983467848571
-3.946,0.6222840025174878,0.9769806909657173
-3.9455,-0.1459685872356623,1.485619334413754
-3.945,-0.7328282044082075,1.718745379327438
-3.9445,-1.127624674142465,1.019367244586387
-3.944,-0.9035510021311299,-0.02969995752518888
-3.9435,-0.1779791118087102,-0.8774310299385835
-3.943,0.4622313796522482,-1.439052865412457
-3.9425,0.9103787236749192,-1.714565463946811
-3.942,1.15579274540162,-1.672178910326141
-3.9415,1.251824319120764,-1.449649503817625
-3.941,1.273164668836129,-1.195330182093607
-3.9405,1.241154144263081,-1.004590690800593
-3.94,1.059761171682476,-0.8668343915334161
-3.9395,0.6329541773751706,-0.792657922697244
-3.939,-0.01792648894347063,-0.6972881770507372
-3.9385,-0.6261264558313813,-0.1780528951975329
-3.938,-0.8288597781273515,0.6696781772158616
-3.9375,-1.031593100423322,1.559795803249926
-3.937,-1.298347471865388,2.227384022775475
-3.9365,-1.330357996438436,2.1214176387238
-3.936,-1.351698346153801,1.040560521396722
-3.9355,-1.373038695869166,-0.1462629799820306
-3.935,-1.383708870726849,-1.05757388282643
-3.9345,-1.383708870726849,-1.534422611058964
-3.934,-1.095614149569417,-1.174136905283272
-3.9335,-0.2846808603855366,-0.6654982618352349
-3.933,0.4515612047945656,-0.2416327256285375
-3.9325,0.7396559259519968,-0.1886495336027004
-3.932,0.8783681991018712,-0.1356663415768632
-3.9315,1.038420821967111,0.002089957690313421
-3.931,1.166462920259302,0.1610395337678249
-3.9305,1.241154144263081,0.2776025562246667
-3.93,1.251824319120764,0.4683420475176805
-3.9295,0.9210488985326017,0.8074344764830383
-3.929,0.1527963087794516,1.369056311956912
-3.9285,-0.5407650569699201,1.803518486568777
-3.928,-0.9035510021311299,1.33726639674141
-3.9275,-0.8502001278427167,0.2987958330350016
-3.927,-0.4127229586777283,-0.6337083466197325
-3.9265,0.1954770082101822,-1.258910012524611
-3.926,0.707645401378949,-1.598002441489969
-3.9255,1.027750647109428,-1.619195718300304
-3.925,1.19847344483235,-1.449649503817625
-3.9245,1.251824319120764,-1.216523458903942
-3.924,1.251824319120764,-1.01518732920576
-3.9235,1.145122570543937,-0.8668343915334161
-3.923,0.7396559259519968,-0.792657922697244
-3.9225,0.07810508477567314,-0.7714646458869092
-3.922,-0.572775581542968,-0.4853554089473885
-3.9215,-0.9355615267041777,0.4365521323021782
-3.921,-1.127624674142465,1.443232780793084
-3.9205,-1.341028171296118,2.195594107559972
-3.92,-1.373038695869166,2.418123514068488
-3.9195,-1.362368521011484,1.549199164844759
-3.919,-1.373038695869166,0.2881991946298341
-3.9185,-1.383708870726849,-0.7502713690765743
-3.918,-1.383708870726849,-1.51322933424863
-3.9175,-1.362368521011484,-1.905304955239825
-3.917,-0.7968492535543035,-1.587405803084801
-3.9165,0.04609456020262521,-0.8774310299385835
-3.916,0.6116138276598051,-0.4111789401112165
-3.9155,0.8783681991018712,-0.1674562567923655
-3.915,1.091771696255524,0.04447651131098315
-3.9145,1.230483969405398,0.1822328105781598
-3.914,1.294505018551494,0.2564092794143318
-3.9135,1.294505018551494,0.309392471440169
-3.913,1.102441871113207,0.4259554938970107
-3.9125,0.4302208550792003,0.8922075837243778
-3.912,-0.3487019095316325,1.464426057603419
-3.9115,-0.8502001278427167,1.464426057603419
-3.911,-1.031593100423322,0.6060983467848571
-3.9105,-0.5087545323968721,-0.3687923864905467
-3.91,0.1634664836371343,-1.078767159636765
-3.9095,0.707645401378949,-1.51322933424863
-3.909,1.038420821967111,-1.640388995110639
-3.9085,1.209143619690033,-1.523825972653797
-3.908,1.262494493978446,-1.301296566145281
-3.9075,1.251824319120764,-1.068170521231597
-3.907,1.19847344483235,-0.792657922697244
-3.9065,0.9530594231056497,-0.6125150698093976
-3.906,0.4835717293676135,-0.5807251545938954
-3.9055,-0.156638762093345,-0.5913217929990628
-3.905,-0.6474668055467465,-0.06148987274069118
-3.9045,-0.7755089038389382,0.8074344764830383
-3.904,-1.042263275281004,1.686955464111935
-3.9035,-1.287677297007705,2.259173937990977
-3.903,-1.330357996438436,1.824711763379112
-3.9025,-1.373038695869166,0.6590815388106942
-3.902,-1.383708870726849,-0.4429688553267188
-3.9015,-1.394379045584531,-1.269506650929778
-3.901,-1.394379045584531,-1.831128486403653
-3.9005,-1.298347471865388,-1.894708316834657
-3.9,-0.5514352318276028,-1.354279758171118
-3.8995,0.2274875327832301,-0.7078848154559045
-3.899,0.5796033030867573,-0.4323722169215513
-3.8985,0.857027849386506,-0.1462629799820306
-3.898,1.081101521397841,0.09745970333682032
-3.8975,1.219813794547716,0.2458126410091644
-3.897,1.273164668836129,0.309392471440169
-3.8965,1.187803269974668,0.383568940276341
-3.896,0.6436243522328531,0.775644561267536
-3.8955,-0.156638762093345,1.33726639674141
-3.895,-0.754168554123573,1.633972272086098
-3.8945,-0.9889124009925911,0.9663840525605498
-3.894,-0.4980843575391895,-0.05089323433552374
-3.8935,0.1634664836371343,-0.8774310299385835
-3.893,0.6969752265212663,-1.417859588602123
-3.8925,1.038420821967111,-1.672178910326141
-3.892,1.19847344483235,-1.650985633515806
-3.8915,1.251824319120764,-1.460246142222792
-3.891,1.251824319120764,-1.237716735714276
-3.8905,1.219813794547716,-1.046977244421262
-3.89,0.9850699476786977,-0.9092209451540858
-3.8895,0.3982103305061524,-0.8350444763179138
-3.889,-0.2953510352432193,-0.718481453861072
-3.8885,-0.8928808272734472,-0.1462629799820306
-3.888,-0.9569018764195432,0.7120647308365314
-3.8875,-1.020922925565639,1.559795803249926
-3.887,-1.223656247861609,2.216787384370307
-3.8865,-1.234326422719292,2.110821000318633
-3.886,-1.30901764672307,1.051157159801889
-3.8855,-1.373038695869166,-0.1356663415768632
-3.885,-1.383708870726849,-1.036380606016095
-3.8845,-1.383708870726849,-1.703968825541643
