Class_1_Relax_eyes_closed/Class_1_Relax_eyes_closed_Basim_1.csv

#Digilent WaveForms Oscilloscope Acquisition
#Device Name: EExplorer
#Serial Number: SN:210151A2B84A
#Date Time: 2020-10-20 12:59:30.576
#Sample rate: 2000Hz
#Samples: 16384
#Trigger: Source: Channel 1 Type: Edge Condition: Rising Level: 0 V Hyst.: Auto HoldOff: 0 s
#Channel 1: Range: 1 V/div Offset: 0 V
#Channel 2: Range: 1 V/div Offset: 0 V

Time (s),Channel 1 (V),Channel 2 (V)
-4.0960000000000001,0.33418928136005654,0.78624119967270345
-4.0955000000000004,0.34485945621772945,0.65908153881080989
-4.0949999999999998,0.47290155451050342,0.37297230187057606
-4.0945,1.1024418711132067,-0.28401927924920728
-4.0940000000000003,1.6572909637121995,-1.2271200973082512
-4.0934999999999997,1.4652278162742223,-2.1596242769637275
-4.093,1.2518243191207636,-2.0324646161018336
-4.0925000000000002,0.82501732481384615,-1.3648763965768924
-4.0919999999999996,0.47290155450982413,-0.63370834661919284
-4.0914999999999999,0.35552963107542179,-0.04029659593035631
-4.0910000000000002,0.27016823221396069,0.23521600260399694
-4.0904999999999996,0.18480683335248985,0.2881991946298052
-4.0899999999999999,0.17413665849481691,0.25640927941433178
-4.0895000000000001,0.18480683335249956,0.20342608738849466
-4.0890000000000004,0.18480683335249956,0.20342608738849466
-4.0884999999999998,0.17413665849481691,0.26700591781949923
-4.0880000000000001,0.19547700821018218,0.21402272579366208
-4.0875000000000004,0.227487532783201,0.13984625695755748
-4.0869999999999997,0.2381577076407769,0.086863064931787803
-4.0865,0.08877525963335578,0.23521600260399694
-4.0860000000000003,-0.6794773301190955,0.8816109453186225
-4.0854999999999997,-1.6718035918849883,1.5280058880341345
-4.085,-2.4507263564951129,1.2101067358794007
-4.0845000000000002,-2.9949052742364328,-0.0085066807137457179
-4.0839999999999996,-2.9842350993784783,-1.1317503516627465
-4.0834999999999999,-2.1412912856223163,-1.2906999277401132
-4.0830000000000002,-1.1062843244271001,-0.792657922697244
-4.0824999999999996,-0.33803173467353259,-0.18864953360225703
-4.0819999999999999,0.12078578420640371,0.29879583303500157
-4.0815000000000001,0.34485945621773917,0.62729162359519197
-4.0810000000000004,0.40888050536377679,0.79683783807771669
-4.0804999999999998,0.38754015564846972,0.86041766850887547
-4.0800000000000001,0.36619980593310447,0.82862775329337313
-4.0795000000000003,0.3448594562177586,0.70146809243147967
-4.0789999999999997,0.3448594562177586,0.57430843156921996
-4.0785,0.36619980593310447,0.42595549389701071
-4.0780000000000003,0.85702784938605958,-0.10387642636087913
-4.0774999999999997,1.6146102642823812,-0.87743102993918098
-4.077,2.0627576083046444,-1.5344226110589645
-4.0765000000000002,1.8920348105818774,-2.2761872994200099
-4.0759999999999996,1.2624944939779998,-1.9794814240752061
-4.0754999999999999,0.77166645052504479,-1.1105570748522671
-4.0750000000000002,0.3982103305061524,-0.4535654937318862
-4.0744999999999996,0.25949805735623926,0.033879872906008468
-4.0739999999999998,0.21681735792554749,0.24581264100916439
-4.0735000000000001,0.16346648363713429,0.23521600260399694
-4.0730000000000004,0.16346648363713429,0.17163617217305016
-4.0724999999999998,0.16346648363713429,0.16103953376782493
-4.0720000000000001,0.067434909917990504,0.41535885549184332
-4.0715000000000003,0.056764735060317567,0.45774540911247452
-4.0709999999999997,0.088775259633394596,0.41535885549176621
-4.0705,0.13145595906408636,0.33058574825050385
-4.0700000000000003,0.12078578420641341,0.34118238665566158
-4.0694999999999997,-0.41272295867858233,0.76504792286224332
-4.069,-1.3516983461538008,0.62729162359519197
-4.0685000000000002,-2.2053123347684123,-0.31580919446470956
-4.0679999999999996,-2.8455228262293999,-1.3118932045511131
-4.0674999999999999,-2.8775333508024183,-2.043061254507001
-4.0670000000000002,-2.4400561816374302,-1.9159015936449921
-4.0664999999999996,-1.3516983461530439,-1.0893637980411901
-4.0659999999999998,-0.51942470725455481,-0.27342264084403983
-4.0655000000000001,0.024754210487259936,0.33058574825050385
-4.0650000000000004,0.29150858192908335,0.69087145402586891
-4.0644999999999998,0.38754015564846972,0.86041766850887547
-4.0640000000000001,0.38754015564846972,0.89220758372437781
-4.0635000000000003,0.3661998059331239,0.84982103010374654
-4.0629999999999997,0.33418928136004683,0.75445128445709508
-4.0625,0.32351910650237387,0.63788826200035942
-4.0620000000000003,0.31284893164470096,0.54251851635393922
-4.0614999999999997,0.25949805735634601,-0.17805289519874726
-4.0609999999999999,0.33418928136005654,-1.5132293342486296
-4.0605000000000002,0.93171907339028448,-2.3079772146361868
-4.0599999999999996,1.5079085157052539,-2.901388965325264
-4.0594999999999999,1.625280439139656,-2.5728931747653725
-4.0590000000000002,1.3478558928399074,-1.5132293342486296
-4.0585000000000004,0.88903837395997098,-0.66549826183600591
-4.0579999999999998,0.49424190422529612,-0.17805289519753292
-4.0575000000000001,0.27016823221396069,0.033879872905815719
-4.0570000000000004,0.18480683335257719,0.097459703336762488
-4.0564999999999998,0.17413665849481691,0.086863064931652884
-4.056,0.18480683335249956,0.065669788121318018
-4.0555000000000003,0.15279630877948075,0.24581264100900055
-4.0549999999999997,0.1421261339217981,0.33058574825046533
-4.0545,0.17413665849481691,0.28819919462983412
-4.0540000000000003,0.19547700821016278,0.21402272579372955
-4.0534999999999997,0.19547700820985223,0.22461936419921499
-4.0529999999999999,-0.16730893695102761,0.64848490040552687
-4.0525000000000002,-1.0529334501386869,1.3584596735517449
-4.0519999999999996,-1.9492281381845626,1.8988882322149947
-4.0514999999999999,-2.5360877553565739,1.5809890800602608
-4.0510000000000002,-2.9095438753754665,0.29879583303500157
-4.0505000000000004,-2.5787684547876051,-0.69728817704983126
-4.0499999999999998,-1.5437614935920885,-0.72907809226623943
-4.0495000000000001,-0.66880715526211176,-0.31580919446470956
-4.0490000000000004,-0.071277363232427282,0.17163617217254901
-4.0484999999999998,0.24882788249871185,0.56371179316442832
-4.048,0.3768699807907871,0.82862775329337313
-4.0475000000000003,0.39821033050613297,0.98757732937074016
-4.0469999999999997,0.37686998079075801,1.0299638829915063
-4.0465,0.34485945621773917,0.97698069096571727
-4.0460000000000003,0.34485945621773917,0.83922439169866592
-4.0454999999999997,0.3555296310756062,0.69087145402583994
-4.0449999999999999,0.55826295337139209,0.29879583303500157
-4.0445000000000002,1.2091436196900331,-0.41117894011121647
-4.0439999999999996,1.7960032368621999,-1.2589100125256036
-4.0434999999999999,1.3798664174129553,-2.3503637682568566
-4.0430000000000001,1.1557927454016199,-2.1702209153690104
-4.0425000000000004,0.77166645052539418,-1.407262950197649
-4.0419999999999998,0.44089102993688295,-0.66549826183523486
-4.0415000000000001,0.34485945621773917,-0.050893234335523743
-4.0410000000000004,0.28083840707170155,0.21402272579342119
-4.0404999999999998,0.20614718306784544,0.22461936419876202
-4.04,0.18480683335249956,0.15044289536265748
-4.0395000000000003,0.18480683335249956,0.065669788121395123
-4.0389999999999997,0.17413665849480719,0.097459703336907053
-4.0385,0.16346648363713429,0.19282944898332721
-4.0380000000000003,0.18480683335248016,0.16103953376785385
-4.0374999999999996,0.2168173579255572,0.10805634174195884
-4.0369999999999999,0.22748753278323011,0.076266426526485451
-4.0365000000000002,0.035424385344942577,0.28819919462983412
-4.0359999999999996,-0.72215802955134989,0.96638405256116666
-4.0354999999999999,-1.6291228924535495,1.6445689104912655
-4.0350000000000001,-2.2586632090568255,1.5915857184654283
-4.0345000000000004,-2.7068105530790887,0.4789386859238598
-4.0339999999999998,-2.7708316022255923,-0.71848145386107198
-4.0335000000000001,-1.8425263896072024,-0.96220413717992292
-4.0330000000000004,-0.92489135184732973,-0.57012851618908456
-4.0324999999999998,-0.24200016095443733,-0.04029659592995153
-4.032,0.16346648363713429,0.40476221708667587
-4.0315000000000003,0.3555296310752471,0.71206473083625199
-4.0309999999999997,0.39821033050614268,0.89220758372445486
-4.0305,0.38754015564846972,0.97698069096571727
-4.0300000000000002,0.35552963107545088,0.96638405256055948
-4.0294999999999996,0.33418928136007597,0.88161094531903683
-4.0289999999999999,0.35552963107542179,0.69087145402619654
-4.0285000000000002,0.63295417737517057,0.18223281057815977
-4.0279999999999996,1.3798664174136055,-0.59132179299967003
-4.0274999999999999,2.0947681328776921,-1.2589100125246109
-4.0270000000000001,2.6496172254771895,-1.7781452943778153
-4.0265000000000004,2.5642558266158062,-2.2338007457996003
-4.0259999999999998,1.625280439139656,-1.9900780624811638
-4.0255000000000001,0.98506994767869771,-1.1211537132574345
-4.0250000000000004,0.50491207908341562,-0.44296885532733565
-4.0244999999999997,0.30217875678695039,-0.0085066807146612598
-4.024,0.23815770764091276,0.20342608738849466
-4.0235000000000003,0.17413665849487514,0.17163617217302127
-4.0229999999999997,0.15279630877945163,0.086863064931614331
-4.0225,0.15279630877945163,0.044476511310983152
-4.0220000000000002,0.099445434491086948,0.17163617217287669
-4.0214999999999996,0.11011560934876959,0.16103953376774782
-4.0209999999999999,0.16346648363713429,0.076266426526485451
-4.0205000000000002,0.21681735792554749,0.012686596095480854
-4.0199999999999996,0.17413665849429286,0.097459703337360024
-4.0194999999999999,-0.40205278382004572,0.69087145402619654
-4.0190000000000001,-1.3623685210114835,1.0829470750173917
-4.0185000000000004,-2.2159825096253183,0.40476221708729265
-4.0179999999999998,-2.8455228262293706,-0.68669153864556975
-4.0175000000000001,-2.8561930010870533,-1.5874058030848013
-4.0170000000000003,-2.3333544330610794,-1.6403889951105903
-4.0164999999999997,-1.2663369472916022,-0.98339741398957359
-4.016,-0.4554036581084589,-0.2310360872233701
-4.0155000000000003,0.046094560202169121,0.34118238665515077
-4.0149999999999997,0.30217875678708628,0.70146809243153752
-4.0145,0.38754015564846972,0.89220758372437781
-4.0140000000000002,0.38754015564846972,0.96638405256048232
-4.0134999999999996,0.35552963107540236,0.95578741415529567
-4.0129999999999999,0.33418928136005654,0.86041766850887547
-4.0125000000000002,0.33418928136005654,0.72266136924169888
-4.0119999999999996,0.45156120479459466,0.3941655786806314
-4.0114999999999998,0.4835717293676135,-0.57012851618872795
-4.0110000000000001,0.8997085488172365,-1.7781452943778153
-4.0105000000000004,1.8920348105808196,-2.4563301523079142
-4.0099999999999998,2.5642558266157285,-2.975565434161735
-4.0095000000000001,2.521575127184998,-2.6682629204118795
-4.0090000000000003,1.9240453351553133,-1.6509856335167312
-4.0084999999999997,1.1878032699741339,-0.76086800748125993
-4.008,0.60094365280212259,-0.2310360872233701
-4.0075000000000003,0.28083840707193447,0.044476511310732603
-4.0069999999999997,0.14212613392174958,0.12924961855231298
-4.0065,0.12078578420640371,0.11865298014715518
-4.0060000000000002,0.15279630877945163,0.097459703336820316
-4.0054999999999996,0.11011560934872107,0.28819919462989196
-4.0049999999999999,0.11011560934872107,0.35177902506083869
-4.0045000000000002,0.15279630877945163,0.26700591781949923
-4.0039999999999996,0.17413665849480719,0.17163617217298272
-4.0034999999999998,0.16346648363713429,0.16103953376782493
-4.0030000000000001,-0.29535103524321932,0.62729162359519197
-4.0025000000000004,-1.2129860730030919,1.347863035145922
-4.0019999999999998,-1.9492281381840288,1.8353084017842791
-4.0015000000000001,-2.23732285934146,1.3902495887672472
-4.0010000000000003,-2.5574281050716481,0.1186529801483116
-4.0004999999999997,-2.2586632090560297,-0.78206128429204769
-4,-1.3837088707268488,-0.75027136907657432
-3.9994999999999998,-0.59411593125833329,-0.30521255605954212
-3.9990000000000001,-0.049937013516518552,0.18223281057815977
-3.9984999999999999,0.23815770764091276,0.5637117931641874
-3.9980000000000002,0.35552963107542179,0.81803111488820579
-3.9975000000000001,0.3768699807907871,0.97698069096571727
-3.9969999999999999,0.35552963107542179,1.0299638829915545
-3.9965000000000002,0.32351910650237387,0.98757732937088472
-3.996,0.31284893164469124,0.90280422212954525
-3.9954999999999998,0.33418928136005654,0.74385464605203377
-3.9950000000000001,0.52625242879834411,0.36237566346600614
-3.9944999999999999,1.1771330951169852,-0.31580919446470956
-3.9940000000000002,1.5612593899935603,-1.1211537132574345
-3.9935,1.0811015213978414,-2.2232041073948472
-3.9929999999999999,0.98506994767869771,-2.3821536834723589
-3.9925000000000002,0.71831557623663156,-1.6827755487313083
-3.992,0.44089102993688295,-0.89862430674891836
-3.9914999999999998,0.35552963107542179,-0.22043944881820265
-3.9910000000000001,0.28083840707164331,0.11865298014715518
-3.9904999999999999,0.19547700821018218,0.18223281057815977
-3.9900000000000002,0.17413665849481691,0.13984625695749003
-3.9895,0.17413665849481691,0.076266426526485451
-3.9889999999999999,0.15279630877945163,0.15044289536265748
-3.9885000000000002,0.099445434491038431,0.29879583303500157
-3.988,0.13145595906408636,0.23521600260399694
-3.9874999999999998,0.18480683335249956,0.12924961855232261
-3.9870000000000001,0.21681735792554749,0.044476511310983152
-3.9864999999999999,0.11011560934872107,0.2246193641988295
-3.9860000000000002,-0.50875453239687207,0.88161094531921036
-3.9855,-1.1169544992847826,1.0829470750173917
-3.9849999999999999,-1.554431668449771,0.2246193641988295
-3.9845000000000002,-2.0559298867608553,-0.9304142219644207
-3.984,-2.2053123347684123,-1.6403889951106385
-3.9834999999999998,-1.5651018433074537,-1.3542797581711179
-3.9830000000000001,-0.79684925355430347,-0.64430498502489997
-3.9824999999999999,-0.20998963638175816,0.023283234500648287
-3.9820000000000002,0.15279630877945163,0.50013196273318283
-3.9815,0.32351910650237387,0.7968378380778709
-3.9809999999999999,0.3768699807907871,0.93459413734504748
-3.9805000000000001,0.35552963107542179,0.98757732937088472
-3.98,0.33418928136005654,0.94519077575021493
-3.9794999999999998,0.31284893164469124,0.82862775329337313
-3.9790000000000001,0.33418928136005654,0.6590815388106942
-3.9784999999999999,0.4835717293676135,0.28819919462983412
-3.9780000000000002,1.0170804722517455,-0.36879238649054674
-3.9775,1.5079085157051471,-1.0575738828264298
-3.9769999999999999,1.2091436196900331,-1.9264982320501591
-3.9765000000000001,0.79300680024041004,-2.2761872994206844
-3.976,0.60094365280212259,-1.7145654639468106
-3.9754999999999998,0.35552963107542179,-1.0575738828264298
-3.9750000000000001,0.28083840707164331,-0.43237221692155131
-3.9744999999999999,0.27016823221396069,-0.0085066807148540119
-3.9740000000000002,0.20614718306786484,0.12924961855232261
-3.9735,0.18480683335249956,0.16103953376782493
-3.9729999999999999,0.18480683335249956,0.13984625695749003
-3.9725000000000001,0.18480683335249956,0.15044289536265748
-3.972,0.12078578420640371,0.28819919462983412
-3.9714999999999998,0.13145595906408636,0.27760255622466667
-3.9710000000000001,0.18480683335249956,0.19282944898332721
-3.9704999999999999,0.22748753278323011,0.11865298014715518
-3.9700000000000002,0.17413665849481691,0.18223281057815977
-3.9695,-0.40205278382004572,0.76504792286236856
-3.9689999999999999,-1.3410281712961183,1.4750226960085864
-3.9685000000000001,-2.1626316353376818,1.5915857184654283
-3.968,-2.7494912525102269,0.57430843156935485
-3.9674999999999998,-2.8668631759447361,-0.65490162343006741
-3.9670000000000001,-2.2053123347684123,-1.0999604364470996
-3.9664999999999999,-1.1809755484308786,-0.76086800748174177
-3.9660000000000002,-0.41272295867772835,-0.20984281041303524
-3.9655,0.067434909917990504,0.27760255622466667
-3.9649999999999999,0.30217875678700862,0.62729162359519197
-3.9645000000000001,0.38754015564846972,0.82862775329337313
-3.964,0.36619980593310447,0.9134008605347127
-3.9634999999999998,0.34485945621773917,0.92399749893988004
-3.9630000000000001,0.32351910650237387,0.86041766850887547
-3.9624999999999999,0.31284893164469124,0.75445128445720111
-3.9620000000000002,0.34485945621773917,0.57430843156935485
-3.9615,0.5689331282290746,0.10805634174198775
-3.9609999999999999,0.70764540137894905,-1.1953301820936066
-3.9605000000000001,0.92104889853260175,-2.159624276963843
-3.96,1.2518243191207636,-2.6894561972222144
-3.9594999999999998,1.1984734448323504,-2.3715570450671914
-3.9590000000000001,0.95305942310564973,-1.3966663117917877
-3.9584999999999999,0.6863050516635838,-0.52774196256805828
-3.9580000000000002,0.40888050536383502,-0.050893234335523743
-3.9575,0.23815770764091276,0.16103953376782493
-3.9569999999999999,0.17413665849481691,0.23521600260399694
-3.9565000000000001,0.16346648363713429,0.2246193641988295
-3.956,0.18480683335249956,0.20342608738849466
-3.9554999999999998,0.11011560934872107,0.42595549389701071
-3.9550000000000001,0.067434909917990504,0.53192187794868506
-3.9544999999999999,0.12078578420640371,0.43655213230217815
-3.9540000000000002,0.17413665849481691,0.29879583303500157
-3.9535,0.18480683335249956,0.21402272579366208
-3.9529999999999998,-0.22065981123944084,0.60609834678485708
-3.9525000000000001,-0.77550890383893822,0.93459413734504748
-3.952,-1.1489650238578306,0.37297230187117358
-3.9514999999999998,-1.6291228924535495,-0.70788481545590454
-3.9510000000000001,-2.2053123347684123,-1.6827755487313083
-3.9504999999999999,-2.1412912856223163,-1.9264982320501591
-3.9500000000000002,-1.405049220442214,-1.3012965661452807
-3.9495,-0.64746680554674652,-0.49595204735255594
-3.9489999999999998,-0.10328788780493176,0.15044289536265748
-3.9485000000000001,0.20614718306786484,0.5637117931641874
-3.948,0.34485945621773917,0.775644561267536
-3.9474999999999998,0.3768699807907871,0.86041766850887547
-3.9470000000000001,0.35552963107542179,0.86041766850887547
-3.9464999999999999,0.33418928136005654,0.76504792286236856
-3.9460000000000002,0.32351910650237387,0.63788826200035942
-3.9455,0.34485945621773917,0.46834204751768049
-3.9449999999999998,0.50491207908297886,0.10805634174198775
-3.9445000000000001,1.1451225705439372,-0.59132179299906285
-3.944,1.8600242860086742,-1.3012965661452807
-3.9434999999999998,1.9453856848701352,-2.2020108305845123
-3.9430000000000001,1.5825997397089255,-2.1384310001535081
-3.9424999999999999,1.1237822208285719,-1.4072629501969551
-3.9420000000000002,0.66496470194821833,-0.76086800748174177
-3.9415,0.43022085507920033,-0.26282600243887239
-3.9409999999999998,0.27016823221396069,-0.019103319120021445
-3.9405000000000001,0.17413665849481691,0.055073149716150585
-3.9399999999999999,0.15279630877945163,0.065669788121318018
-3.9394999999999998,0.16346648363713429,0.065669788121318018
-3.9390000000000001,0.16346648363713429,0.18223281057815977
-3.9384999999999999,0.16346648363713429,0.26700591781949923
-3.9380000000000002,0.19547700821018218,0.28819919462983412
-3.9375,0.22748753278323011,0.27760255622466667
-3.9369999999999998,0.22748753278323011,0.27760255622466667
-3.9365000000000001,-0.017926488943470625,0.57430843156935485
-3.9359999999999999,-0.77550890383893822,1.241896651094903
-3.9355000000000002,-1.4477299198729445,1.8247117633791117
-3.9350000000000001,-1.9598983130417114,1.8988882322152838
-3.9344999999999999,-2.4400561816374302,0.9134008605347127
-3.9340000000000002,-2.4507263564951129,-0.2310360872233701
-3.9335,-1.5757720181651362,-0.49595204735255594
-3.9329999999999998,-0.75416855412357298,-0.25222936403370499
-3.9325000000000001,-0.16730893695102761,0.13984625695749003
-3.9319999999999999,0.18480683335249956,0.48953532432801533
-3.9315000000000002,0.33418928136005654,0.74385464605203377
-3.931,0.36619980593310447,0.9134008605347127
-3.9304999999999999,0.35552963107542179,0.98757732937088472
-3.9300000000000002,0.33418928136005654,0.96638405256054982
-3.9295,0.32351910650237387,0.89220758372437781
-3.9289999999999998,0.16346648363713429,0.58490506997452218
-3.9285000000000001,-0.33803173467394987,-0.32640583286987701
-3.9279999999999999,0.40888050536383502,-1.1105570748522671
-3.9275000000000002,1.5292488654205123,-1.9688847856708289
