Class_1_Relax_eyes_closed/Class_1_Relax_eyes_closed_Suko_9.csv

#Digilent WaveForms Oscilloscope Acquisition
#Device Name: EExplorer
#Serial Number: SN:210151A2B84A
#Date Time: 2021-02-03 11:32:48.143
#Sample rate: 2000Hz
#Samples: 16384
#Trigger: Source: Channel 1 Type: Edge Condition: Rising Level: 0 V Hyst.: Auto HoldOff: 0 s
#Channel 1: Range: 1 V/div Offset: 0 V Attenuation: 1 X
#Channel 2: Range: 1 V/div Offset: 0 V Attenuation: 1 X
#Power Supplies: ON
#Fixed Supply: ON
#Voltage: 3.3 V Readback: 3.361 V
#Positive Supply: ON
#Voltage: 3.7 V Readback: 3.717 V
#Current: 40 mA Readback: 18 mA
#Negative Supply: ON
#Voltage: -3.7 V Readback: -3.363 V
#Current: -40 mA Readback: 0 A
#Reference 1: ON
#Voltage: 0 V
#Reference 2: ON
#Voltage: 0 V

Time (s),Channel 1 (V),Channel 2 (V)
-4.096,-0.3380317346739499,-0.6866915386455698
-4.0955,0.355529631074791,-0.6019184314043073
-4.095,0.7823366253828343,-0.6019184314042978
-4.0945,0.8997085488172365,-0.6760949002404023
-4.094,0.825017324813526,-0.7608680074816647
-4.0935,0.7396559259521229,-0.8562377531282583
-4.093,0.8783681991018712,-0.8668343915334161
-4.0925,0.8783681991018712,-0.8138511995076271
-4.092,0.7609962756672362,-0.7078848154557793
-4.0915,0.6222840025174878,-0.570128516188728
-4.091,0.5049120790829789,-0.400582301706049
-4.0905,0.451561204794847,-0.1886495336022281
-4.09,0.7609962756673623,0.3305857482505039
-4.0895,0.825017324813458,1.061753798207057
-4.089,0.2488278824991195,1.114736990232846
-4.0885,-0.4767440078238243,0.3411823866556712
-4.088,-1.234326422719292,-0.5913217929990628
-4.0875,-1.927887788468033,-1.269506650929161
-4.087,-1.938557963325657,-1.396666311791209
-4.0865,-1.180975548430879,-0.7608680074817418
-4.086,-0.4874141826821377,0.06566978812056623
-4.0855,0.01408403562983932,0.7438546460524482
-4.085,0.3021787567870086,1.199510097474233
-4.0845,0.4302208550790839,1.453829419198021
-4.084,0.4408910299368635,1.570392441655113
-4.0835,0.4195506802215176,1.591585718465428
-4.083,0.3768699807907871,1.559795803249926
-4.0825,0.3341892813599498,1.475022696008529
-4.082,0.2168173579255475,1.411442865577582
-4.0815,-0.1352984123779797,1.580989080060261
-4.081,-0.6154562809732618,1.316073119931316
-4.0805,-0.9569018764195432,0.3941655786815084
-4.08,-0.8715404775580819,-0.3687923864905467
-4.0795,-0.2633405106707245,-0.6443049850246494
-4.079,0.3128489316450309,-0.6760949002404216
-4.0785,0.6863050516635838,-0.6972881770507372
-4.078,0.803676975097986,-0.7290780922662106
-4.0775,0.7716664505249672,-0.750271369076555
-4.077,0.6863050516635838,-0.7290780922662394
-4.0765,0.7609962756672943,-0.8032545611023439
-4.076,0.8463576745287457,-0.8668343915332812
-4.0755,0.7609962756673623,-0.718481453861072
-4.075,0.6222840025174878,-0.4959520473525559
-4.0745,0.5155822539405934,-0.2628260024386603
-4.074,0.4408910299368829,-0.02969995752518888
-4.0735,0.6436243522328531,0.4153588554918433
-4.073,0.9423892482476952,1.093543713421942
-4.0725,0.3555296310754218,1.231300012689736
-4.072,-0.5300948821122373,0.4047622170866759
-4.0715,-1.3730386958684,-0.5913217929981569
-4.071,-2.087940411333981,-1.311893204550679
-4.0705,-2.173301810195364,-1.566212526274467
-4.07,-1.415719395300586,-1.004590690801103
-4.0695,-0.6261264558308669,-0.1780528951968776
-4.069,-0.06060718837420119,0.5425185163538525
-4.0685,0.2701682322139607,1.019367244586387
-4.068,0.4195506802215467,1.284283204715679
-4.0675,0.4515612047945656,1.400846227172415
-4.067,0.4408910299368829,1.400846227172415
-4.0665,0.3982103305061136,1.358459673551668
-4.066,0.3555296310754218,1.273686566310405
-4.0655,0.3021787567870086,1.188913459069066
-4.065,-0.1352984123775818,1.337266396741275
-4.0645,-0.690147504977477,1.347863035146577
-4.064,-1.084943974711735,0.7332580076468663
-4.0635,-1.138294849000099,0.0126865960961362
-4.063,-0.5727755815423566,-0.3264058328700023
-4.0625,0.09944543449103843,-0.4641621321370536
-4.062,0.5689331282286476,-0.5595318777834738
-4.0615,0.79300680024041,-0.6019184314042496
-4.061,0.79300680024041,-0.6231117082145651
-4.0605,0.7289857510943143,-0.6654982618352349
-4.06,0.6863050516636614,-0.7714646458870249
-4.0595,0.7716664505250448,-0.8986243067489184
-4.059,0.707645401378949,-0.7820612842920766
-4.0585,0.6009436528022196,-0.5807251545940785
-4.058,0.5155822539406614,-0.3475991096802118
-4.0575,0.4729015545099309,-0.1144730647665284
-4.057,0.5049120790829498,0.1716361721727321
-4.0565,0.942389248247967,0.7438546460520338
-4.056,0.9317190733902845,0.7650479228623686
-4.0555,0.2488278824992165,-0.008506680714150505
-4.055,-0.6581369804051763,-0.8244478379132572
-4.0545,-1.479740444445993,-1.38606967338662
-4.054,-2.055929886760331,-1.629792356705249
-4.0535,-1.618452717595178,-1.17413690528251
-4.053,-0.8608703027003992,-0.3370024712750445
-4.0525,-0.2420001609548061,0.4259554938970107
-4.052,0.1634664836373187,0.955787414155633
-4.0515,0.3661998059331045,1.231300012689736
-4.051,0.4408910299368829,1.347863035146577
-4.0505,0.43022085507921,1.347863035146577
-4.05,0.3768699807907871,1.284283204715573
-4.0495,0.3235191065023739,1.199510097474233
-4.049,0.2808384070716821,1.104140351827813
-4.0485,0.07810508477524615,0.966384052560145
-4.048,-0.391382608962363,0.5213252395435176
-4.0475,-0.7114878546925512,-0.326405832869106
-4.047,-0.9462317015616275,-1.131750351662727
-4.0465,-0.690147504977477,-1.269506650929778
-4.046,-0.07127736323244671,-0.9516074987750446
-4.0455,0.4729015545101929,-0.6654982618351096
-4.045,0.7609962756673623,-0.5277419625680583
-4.0445,0.8356874996711408,-0.5489352393783931
-4.044,0.7716664505249574,-0.6125150698095037
-4.0435,0.6756348768059011,-0.7290780922662394
-4.043,0.857027849386506,-0.9728007755850904
-4.0425,0.9210488985325436,-0.9939940523954059
-4.042,0.79300680024041,-0.7820612842920766
-4.0415,0.6329541773751706,-0.5171453241628908
-4.041,0.5049120790830953,-0.2628260024391037
-4.0405,0.4622313796524229,-0.01910331911952029
-4.04,0.6542945270905358,0.5319218779486851
-4.0395,0.5155822539407875,1.199510097473626
-4.039,-0.1673089369516972,1.082947075016592
-4.0385,-0.9035510021311299,0.2034260873884947
-4.038,-1.618452717595217,-0.7608680074808648
-4.0375,-2.194642159910652,-1.470842780628143
-4.037,-2.109280761049269,-1.672178910326141
-4.0365,-1.277007122150022,-1.036380606016095
-4.036,-0.530094882111752,-0.2098428104124184
-4.0355,0.00341386077189465,0.4683420475176805
-4.035,0.3021787567870086,0.9134008605347127
-4.0345,0.4302208550790839,1.157123543853342
-4.034,0.4408910299368829,1.263089927905238
-4.0335,0.408880505363835,1.29487984312074
-4.033,0.3768699807908162,1.252493289500109
-4.0325,0.3555296310753441,1.178316820663821
-4.032,0.2701682322139607,1.093543713422559
-4.0315,-0.1566387620929567,1.167720182258663
-4.031,-0.583445756401029,0.8286277532925925
-4.0305,-0.9995825758502737,-0.02969995752518888
-4.03,-0.8928808272735442,-0.6125150698088676
-4.0295,-0.2633405106696377,-0.6125150698093494
-4.029,0.3235191065023739,-0.5595318777835605
-4.0285,0.6649647019482183,-0.6019184314042303
-4.028,0.7823366253827179,-0.6231117082145458
-4.0275,0.7716664505250448,-0.6019184314042303
-4.027,0.707645401378949,-0.570128516188728
-4.0265,0.7716664505249866,-0.6654982618351482
-4.026,0.8783681991018712,-0.792657922697244
-4.0255,0.79300680024041,-0.6866915386455698
-4.025,0.6969752265213537,-0.4959520473527294
-4.0245,0.5902734779443428,-0.2734226408438567
-4.024,0.4835717293676135,-0.07208651114585861
-4.0235,0.2808384070718277,-0.08268314955101641
-4.023,-0.3913826089629453,-0.008506680714747998
-4.0225,-1.031593100423322,0.1080563417419877
-4.022,-1.437059745014893,-0.3264058328694819
-4.0215,-1.917217613611292,-0.856237753128586
-4.021,-2.258663209056825,-1.227120097309109
-4.0205,-2.151961460479999,-1.311893204550448
-4.02,-1.34102817129542,-0.7926579226965693
-4.0195,-0.572775581542968,-0.05089323433552374
-4.019,-0.01792648894347063,0.5425185163538525
-4.0185,0.3021787567867175,0.9028042221292176
-4.018,0.4302208550792003,1.051157159801889
-4.0175,0.4622313796522482,1.061753798207057
-4.017,0.4302208550792295,0.9875773293709522
-4.0165,0.3982103305061136,0.8604176685087598
-4.016,0.3555296310754218,0.7332580076468663
-4.0155,0.3021787567870571,0.6272916235952883
-4.015,-0.1032878878052714,0.8286277532933538
-4.0145,-0.4767440078238243,0.8074344764830383
-4.014,-0.6901475049772829,0.03387987290651928
-4.0135,-0.946231701561744,-0.7820612842922018
-4.013,-0.8181896032696687,-0.9198175835592532
-4.0125,-0.1993194615240755,-0.7714646458869092
-4.012,0.366199805933415,-0.6125150698092724
-4.0115,0.707645401378949,-0.474758770542221
-4.011,0.79300680024041,-0.4641621321370536
-4.0105,0.7609962756673914,-0.5065486857576849
-4.01,0.7183155762366316,-0.6443049850249
-4.0095,0.825017324813458,-0.8562377531282487
-4.009,0.7716664505250933,-0.8032545611024596
-4.0085,0.6436243522327463,-0.5913217929988411
-4.008,0.5262524287983441,-0.3475991096802118
-4.0075,0.4515612047946335,-0.1144730647667404
-4.007,0.4835717293679725,0.1504428953631876
-4.0065,0.8783681991018712,0.7332580076468663
-4.006,0.5902734779444399,1.347863035146577
-4.0055,-0.2099896363824957,1.157123543852686
-4.005,-1.020922925565639,0.1928294489833272
-4.0045,-1.757164990745741,-0.8138511995075789
-4.004,-2.24799303419891,-1.513229334248707
-4.0035,-1.991908837614759,-1.598002441489969
-4.003,-1.116954499284783,-0.8986243067489184
-4.0025,-0.4020527838206959,-0.09327978795692593
-4.002,0.08877525963335578,0.55311515475902
-4.0015,0.3448594562177392,0.9663840525605498
-4.001,0.4408910299367956,1.188913459068863
-4.0005,0.4515612047945365,1.29487984312074
-4,0.4195506802215176,1.29487984312074
-3.9995,0.3768699807907871,1.25249328950007
-3.999,0.3555296310754218,1.167720182258731
-3.9985,0.2488278824985954,0.9981739677760521
-3.998,-0.1993194615240755,0.4365521323021782
-3.9975,-0.658136980404429,-0.400582301706049
-3.997,-0.9142211769888124,-0.9516074987747555
-3.9965,-0.6367966306890638,-0.7396747306714069
-3.996,0.01408403562957729,-0.3899856633008816
-3.9955,0.5582629533713921,-0.1886495336027004
-3.995,0.8676980242441885,-0.1886495336027004
-3.9945,0.9210488985326017,-0.2840192792492073
-3.994,0.8463576745288233,-0.4429688553267188
-3.9935,0.7503261008096795,-0.6654982618352349
-3.993,0.8783681991018712,-0.9622041371799229
-3.9925,0.8890383739595538,-1.004590690800593
-3.992,0.7609962756673623,-0.8350444763179138
-3.9915,0.6009436528021226,-0.6231117082145651
-3.991,0.4835717293676135,-0.4217755785163839
-3.9905,0.3875401556484697,-0.2946159176543747
-3.99,0.2488278824985954,-0.5171453241628908
-3.9895,0.03542438534494258,-0.9198175835592532
-3.989,-0.4020527838200457,-1.38606967338662
-3.9885,-0.9248913518464952,-1.640388995110639
-3.988,-1.501080794161358,-1.767548655972648
-3.9875,-2.07727023647622,-1.788741932782983
-3.987,-2.045259711903173,-1.523825972653797
-3.9865,-1.244996597576974,-0.7608680074817418
-3.986,-0.5087545323968721,0.04447651131098315
-3.9855,0.01408403562957729,0.627291623595192
-3.985,0.3128489316446912,0.9557874141553824
-3.9845,0.4302208550792003,1.082947075017392
-3.984,0.4408910299368829,1.093543713422559
-3.9835,0.408880505363835,1.029963882991555
-3.983,0.3768699807907871,0.92399749893988
-3.9825,0.3555296310754218,0.7862411996727035
-3.982,0.291508581929326,0.627291623595192
-3.9815,-0.04993701351651855,0.1504428953626575
-3.981,-0.3700422592469978,-0.6443049850249
-3.9805,-0.7648387289812555,-1.375473034981453
-3.98,-0.9035510021311299,-1.598002441489969
-3.9795,-0.4127229586777283,-1.269506650929778
-3.979,0.142126133921769,-0.8456411147230812
-3.9785,0.5155822539406614,-0.5171453241628908
-3.978,0.707645401378949,-0.4217755785163839
-3.9775,0.7289857510943143,-0.4641621321370536
-3.977,0.6863050516635838,-0.5277419625680583
-3.9765,0.7396559259519968,-0.6231117082145651
-3.976,0.857027849386506,-0.7608680074817418
-3.9755,0.7716664505250448,-0.7290780922662394
-3.975,0.6329541773751706,-0.5913217929990628
-3.9745,0.5369226036560266,-0.400582301706049
-3.974,0.4835717293676135,-0.2098428104130352
-3.9735,0.6222840025174878,0.13984625695749
-3.973,0.942389248247967,0.8392243916985406
-3.9725,0.4515612047945656,1.25249328950007
-3.972,-0.3166913849585846,0.7438546460520338
-3.9715,-1.1062843244271,-0.1250697031716958
-3.971,-1.821186039891837,-0.9516074987747555
-3.9705,-2.247993034199143,-1.460246142222792
-3.97,-1.842526389607202,-1.269506650929778
-3.9695,-0.9889124009925911,-0.5065486857577234
-3.969,-0.3060212101009019,0.2881991946298341
-3.9685,0.142126133921769,0.8710143069140429
-3.968,0.3661998059331045,1.231300012689736
-3.9675,0.4408910299368829,1.42203950398275
-3.967,0.4302208550792003,1.475022696008586
-3.9665,0.3768699807907871,1.475022696008586
-3.966,0.3448594562177392,1.432636142387917
-3.9655,0.3021787567870086,1.326669758336243
-3.965,-0.08194753808956648,1.146526905448396
-3.9645,-0.5834457564006506,0.9557874141553824
-3.964,-0.8822106524157645,0.1822328105781598
-3.9635,-1.010252750707956,-0.4535654937318862
-3.963,-0.5407650569699201,-0.5065486857577234
-3.9625,0.1207857842064037,-0.4535654937318862
-3.962,0.6222840025174878,-0.4323722169215513
-3.9615,0.857027849386506,-0.4641621321370536
-3.961,0.8676980242441885,-0.5807251545938954
-3.9605,0.7823366253827275,-0.718481453861072
-3.96,0.7183155762366316,-0.8668343915334161
-3.9595,0.825017324813458,-0.9304142219644207
-3.959,0.7716664505250448,-0.9092209451540858
-3.9585,0.6649647019482183,-0.8244478379127463
-3.958,0.5902734779444399,-0.7078848154559045
-3.9575,0.5689331282290746,-0.570128516188728
-3.957,0.5796033030867573,-0.3687923864905467
-3.9565,0.8783681991018712,0.03387987290581572
-3.956,0.5902734779444399,0.05507314971615059
-3.9555,-0.1139580626626144,-0.4959520473525559
-3.955,-0.9355615267041777,-1.068170521231597
-3.9545,-1.693143941599645,-1.439052865412457
-3.954,-2.215982509626095,-1.545019249464132
-3.9535,-1.799845690176472,-1.0999604364471
-3.953,-0.9569018764195432,-0.2416327256285375
-3.9525,-0.2953510352432193,0.5425185163538525
-3.952,0.142126133921769,1.082947075017392
-3.9515,0.3661998059331045,1.37965295036208
-3.951,0.4515612047945656,1.485619334413754
-3.9505,0.4302208550792003,1.475022696008586
-3.95,0.3875401556484697,1.390249588767247
-3.9495,0.3555296310754218,1.273686566310405
-3.949,0.3235191065023739,1.114736990232894
-3.9485,0.09944543449103843,1.125333628638062
-3.948,-0.3487019095316325,1.125333628638062
-3.9475,-0.423393133535411,0.4047622170866759
-3.947,-0.5407650569699201,-0.5595318777835605
-3.9465,-0.4020527838200457,-1.05757388282643
-3.946,0.0674349099179905,-1.046977244421262
-3.9455,0.4729015545099309,-0.8668343915334161
-3.945,0.6756348768059011,-0.7396747306714069
-3.9445,0.7289857510943143,-0.6654982618352349
-3.944,0.6969752265212663,-0.6231117082145651
-3.9435,0.6542945270905358,-0.6972881770507372
-3.943,0.79300680024041,-0.8986243067489184
-3.9425,0.8463576745288233,-0.9304142219644207
-3.942,0.7396559259519968,-0.7608680074817418
-3.9415,0.6009436528021226,-0.5171453241628908
-3.941,0.4942419042252961,-0.2734226408440398
-3.9405,0.4302208550792003,-0.05089323433552374
-3.94,0.7396559259519968,0.4365521323021782
-3.9395,0.8997085488172365,1.135930267043229
-3.939,0.2488278824985954,1.390249588767247
-3.9385,-0.5834457564006506,0.627291623595192
-3.938,-1.383708870726849,-0.4323722169215513
-3.9375,-2.087940411333903,-1.248313374119443
-3.937,-2.162631635337682,-1.576809164679634
-3.9365,-1.405049220442214,-1.046977244421262
-3.936,-0.6261264558313813,-0.2310360872233701
-3.9355,-0.06060718837420119,0.4789386859228479
-3.935,0.2701682322139607,0.9557874141553824
-3.9345,0.4195506802215176,1.231300012689736
-3.934,0.4408910299368829,1.369056311956912
-3.9335,0.4195506802215176,1.42203950398275
-3.933,0.3768699807907871,1.390249588767247
-3.9325,0.3448594562177392,1.33726639674141
-3.932,0.2701682322139607,1.263089927905238
-3.9315,-0.1886492866663929,1.400846227172415
-3.931,-0.6474668055467465,1.210106735879401
-3.9305,-0.7861790786966207,0.3517790250608387
-3.93,-0.5194247072545548,-0.1568596183871981
-3.9295,0.03542438534494258,-0.2310360872233701
-3.929,0.5049120790829789,-0.2628260024388724
-3.9285,0.7716664505250448,-0.4323722169215513
-3.928,0.8463576745288233,-0.6337083466197325
-3.9275,0.79300680024041,-0.7714646458869092
-3.927,0.6969752265212663,-0.8562377531282487
-3.9265,0.7183155762366316,-0.9833974139902578
-3.926,0.8463576745288233,-1.078767159636765
-3.9255,0.7823366253827275,-0.8986243067489184
-3.925,0.6542945270905358,-0.5913217929990628
-3.9245,0.5475927785137094,-0.2946159176543747
-3.924,0.4835717293676135,-0.02969995752518888
-3.9235,0.5689331282290746,0.3411823866556712
-3.923,1.049090996824793,0.9981739677760521
-3.9225,0.8463576745288233,1.369056311956912
-3.922,0.1101156093487211,0.7332580076468663
-3.9215,-0.7968492535543035,-0.2946159176543747
-3.921,-1.607782542738184,-1.121153713257435
-3.9205,-1.959898313041711,-1.481439419033127
-3.92,-1.362368521011484,-1.004590690800593
-3.9195,-0.658136980404429,-0.2098428104130352
-3.919,-0.1139580626626144,0.5001319627331828
-3.9185,0.2274875327832301,0.9875773293708847
-3.918,0.3875401556484697,1.263089927905238
-3.9175,0.4195506802215176,1.390249588767247
-3.917,0.3982103305061524,1.411442865577582
-3.9165,0.3661998059331045,1.37965295036208
-3.916,0.3235191065023739,1.326669758336243
-3.9155,0.3021787567870086,1.220703374284568
-3.915,0.2808384070716433,1.125333628638062
-3.9145,0.2381577076409128,1.051157159801889
-3.914,-0.1673089369510276,0.3411823866556712
-3.9135,-0.5834457564006506,-0.4853554089473885
-3.913,-0.4340633083930936,-0.7396747306714069
-3.9125,0.03542438534494258,-0.6866915386455698
-3.912,0.4515612047945656,-0.6019184314042303
-3.9115,0.6863050516635838,-0.5807251545938954
-3.911,0.7396559259519968,-0.6019184314042303
-3.9105,0.6863050516635838,-0.7078848154559045
-3.91,0.6756348768059011,-0.8244478379127463
-3.9095,0.857027849386506,-0.9833974139902578
-3.909,0.8356874996711408,-0.8986243067489184
-3.9085,0.6969752265212663,-0.6866915386455698
-3.908,0.5582629533713921,-0.4323722169215513
-3.9075,0.4515612047945656,-0.2098428104130352
-3.907,0.4408910299368829,0.05507314971615059
-3.9065,0.8143471499557753,0.6484849004055269
-3.906,0.6329541773751706,1.347863035146577
-3.9055,-0.1993194615240755,1.6657621873016
-3.905,-0.9995825758502737,1.072350436612224
-3.9045,-1.693143941599645,-0.02969995752518888
-3.904,-2.23732285934146,-0.9833974139902578
-3.9035,-2.055929886760855,-1.34368311976595
-3.903,-1.202315898146244,-0.8562377531282487
-3.9025,-0.4767440078238243,-0.1250697031716958
-3.902,0.03542438534494258,0.5213252395435176
-3.9015,0.3128489316446912,0.9663840525605498
-3.901,0.4195506802215176,1.231300012689736
-3.9005,0.4302208550792003,1.358459673551745
-3.9,0.3875401556484697,1.411442865577582
-3.8995,0.3448594562177392,1.390249588767247
-3.899,0.3128489316446912,1.326669758336243
-3.8985,0.1527963087794516,1.220703374284568
-3.898,-0.4660738329661415,0.9981739677760521
-3.8975,-1.202315898146244,0.701468092431364
-3.897,-1.51175096901904,0.2564092794143318
-3.8965,-0.9782422261349084,-0.09327978795619347
-3.896,-0.1673089369510276,-0.1356663415768632
-3.8955,0.4515612047945656,-0.1356663415768632
-3.895,0.7716664505250448,-0.1992461720078678
-3.8945,0.8463576745288233,-0.3370024712750445
-3.894,0.7716664505250448,-0.4959520473525559
-3.8935,0.6969752265212663,-0.6654982618352349
-3.893,0.7823366253827275,-0.8562377531282487
-3.8925,0.79300680024041,-0.9198175835592532
-3.892,0.6863050516635838,-0.8138511995075789
-3.8915,0.5475927785137094,-0.6549016234300674
-3.891,0.4622313796522482,-0.4853554089473885
-3.8905,0.3982103305061524,-0.3581957480853793
-3.89,0.1314559590640864,-0.570128516188728
-3.8895,-0.5194247072545548,-1.078767159636765
-3.889,-1.06360362499637,-1.555615887869299
-3.8885,-1.405049220442214,-1.926498232050159
-3.888,-1.87453691418025,-2.074851169722503
-3.8875,-2.247993034199143,-1.968884785670829
-3.887,-2.045259711903173,-1.598002441489969
-3.8865,-1.202315898146244,-0.792657922697244
-3.886,-0.4767440078238243,0.04447651131098315
