Class_1_Relax_eyes_closed/Class_1_Relax_eyes_closed_Basim_7.csv

#Digilent WaveForms Oscilloscope Acquisition
#Device Name: EExplorer
#Serial Number: SN:210151A2B84A
#Date Time: 2020-12-15 13:55:06.155
#Sample rate: 2000Hz
#Samples: 16384
#Trigger: Source: Channel 1 Type: Edge Condition: Rising Level: 0 V Hyst.: Auto HoldOff: 0 s
#Channel 1: Range: 1 V/div Offset: 0 V Attenuation: 1 X
#Channel 2: Range: 1 V/div Offset: 0 V Attenuation: 1 X
#Power Supplies: ON
#Fixed Supply: ON
#Voltage: 3.3 V Readback: 3.328 V
#Positive Supply: ON
#Voltage: 3.7 V Readback: 3.711 V
#Current: 40 mA Readback: 20 mA
#Negative Supply: ON
#Voltage: -3.7 V Readback: -3.348 V
#Current: -40 mA Readback: -6 mA
#Reference 1: ON
#Voltage: 0 V
#Reference 2: ON
#Voltage: 0 V

Time (s),Channel 1 (V),Channel 2 (V)
-4.096,-0.1673089369510276,0.03387987290581572
-4.0955,-0.6688071552616557,-0.7396747306707033
-4.095,-1.180975548430966,-1.301296566145107
-4.0945,-1.277007122150022,-1.110557074852267
-4.094,-0.7114878546933566,-0.6654982618356396
-4.0935,-0.09261771294690947,-0.2946159176541723
-4.093,0.2808384070716433,-0.07208651114585861
-4.0925,0.4302208550790645,-0.008506680714911841
-4.092,0.4408910299368539,-0.061489872740749
-4.0915,0.408880505363835,-0.1250697031716958
-4.091,0.3661998059331045,-0.1992461720078678
-4.0905,0.3768699807907677,-0.3158091944647963
-4.09,0.3555296310754218,-0.4111789401112165
-4.0895,0.3128489316446912,-0.4641621321370536
-4.089,0.2915085819293454,-0.4747587705422114
-4.0885,0.2808384070716433,-0.4535654937318862
-4.088,0.0674349099179905,-0.1992461720078678
-4.0875,-0.508754532396348,0.478938685922231
-4.087,-0.9142211769890356,0.6060983467842981
-4.0865,-1.159635198715513,-0.008506680714854012
-4.086,-1.266336947292243,-0.07208651114580078
-4.0855,-0.8928808272730105,-0.008506680714796187
-4.085,-0.4127229586777283,0.05507314971615059
-4.0845,-0.03926683865917557,0.1504428953625707
-4.084,0.2061471830679619,0.2564092794144474
-4.0835,0.3128489316446912,0.383568940276341
-4.083,0.3448594562177392,0.5001319627331828
-4.0825,0.3448594562177197,0.6060983467849438
-4.082,0.3235191065023739,0.701468092431364
-4.0815,0.3021787567870086,0.7650479228623686
-4.081,0.3021787567870086,0.8180311148881576
-4.0805,0.291508581929326,0.8286277532933731
-4.08,0.3021787567870086,0.7968378380778709
-4.0795,0.4302208550790839,0.3199891098457701
-4.079,-0.02859666380173554,-0.46416213213768
-4.0785,-0.6688071552621118,-1.152943628472937
-4.078,-0.9035510021309164,-1.227120097309041
-4.0775,-0.5514352318271661,-0.7820612842916718
-4.077,-0.07127736323188383,-0.3370024712750445
-4.0765,0.2488278824983042,-0.06148987274094175
-4.076,0.3875401556484988,0.02328323450062901
-4.0755,0.4195506802215176,0.002089957690313421
-4.075,0.3875401556484697,-0.09327978795619347
-4.0745,0.3341892813600468,-0.2098428104131509
-4.074,0.3235191065023739,-0.3370024712750445
-4.0735,0.3235191065023739,-0.4429688553267188
-4.073,0.302178756787028,-0.5171453241628233
-4.0725,0.2808384070716433,-0.5595318777835605
-4.072,0.2808384070716433,-0.5595318777835605
-4.0715,0.2061471830679328,-0.4429688553268248
-4.071,-0.3166913849591377,0.1610395337681526
-4.0705,-0.9248913518464952,0.5213252395435176
-4.07,-1.362368521011086,0.002089957690785682
-4.0695,-1.565101843307124,-0.1038764263612452
-4.069,-1.202315898146244,0.02328323450064829
-4.0685,-0.6367966306890638,0.07626642652648545
-4.068,-0.1566387620930732,0.1504428953627346
-4.0675,0.142126133921769,0.2352160026039969
-4.067,0.3021787567870086,0.3411823866556712
-4.0665,0.3555296310754218,0.4577454091126094
-4.066,0.3555296310754218,0.5637117931641874
-4.0655,0.3341892813600565,0.6696781772158616
-4.065,0.3128489316447107,0.7438546460519663
-4.0645,0.3021787567870086,0.8074344764830383
-4.064,0.291508581929326,0.8392243916985406
-4.0635,0.3021787567869989,0.8392243916985406
-4.063,0.4088805053635148,0.5425185163531875
-4.0625,0.05676473506030786,-0.1886495336027004
-4.062,-0.6261264558307602,-0.9304142219637461
-4.0615,-1.04226327528081,-1.290699927739834
-4.061,-0.8288597781273515,-0.9833974139902578
-4.0605,-0.2953510352432193,-0.5277419625680583
-4.06,0.1101156093489249,-0.1674562567921727
-4.0595,0.3341892813600565,0.04447651131098315
-4.059,0.408880505363835,0.08686306493165288
-4.0585,0.3982103305061621,0.002089957690390526
-4.058,0.3661998059331045,-0.1038764263613609
-4.0575,0.3555296310754218,-0.2628260024388724
-4.057,0.3768699807907677,-0.4535654937317127
-4.0565,0.3555296310754218,-0.5489352393783931
-4.056,0.3235191065023739,-0.5807251545938954
-4.0555,0.302178756787028,-0.5913217929990532
-4.055,0.2701682322136307,-0.5489352393780172
-4.0545,-0.09261771294724913,-0.1356663415768632
-4.054,-0.7114878546922794,0.5531151547583936
-4.0535,-1.127624674142747,0.3835689402759941
-4.053,-1.437059745015262,0.002089957690313421
-4.0525,-1.30901764672307,0.07626642652648545
-4.052,-0.7968492535538571,0.08686306493165288
-4.0515,-0.3060212101009019,0.08686306493165288
-4.051,0.05676473506030786,0.1292496185523226
-4.0505,0.2594980573560937,0.214022725793585
-4.05,0.3341892813600565,0.3199891098453364
-4.0495,0.3555296310754218,0.4365521323021782
-4.049,0.3448594562177489,0.5531151547589139
-4.0485,0.3235191065023544,0.6484849004055944
-4.048,0.3021787567870086,0.7226613692416989
-4.0475,0.3021787567870086,0.7756445612674878
-4.047,0.2915085819293454,0.8074344764829035
-4.0465,0.3128489316446912,0.6590815388106942
-4.046,0.1101156093489054,0.0126865960960687
-4.0455,-0.4020527838204048,-0.7396747306718984
-4.045,-0.7968492535543035,-1.280103289334946
-4.0445,-0.6367966306890638,-1.195330182093607
-4.044,-0.167308936950688,-0.6972881770503228
-4.0435,0.2061471830678648,-0.2416327256285375
-4.043,0.3875401556484697,0.05507314971615059
-4.0425,0.4408910299368344,0.1610395337677286
-4.042,0.4195506802215176,0.09745970333682032
-4.0415,0.3768699807907871,-0.008506680714854012
-4.041,0.3341892813600953,-0.114473064766432
-4.0405,0.3341892813600468,-0.2522293640338495
-4.04,0.3235191065023739,-0.4111789401112165
-4.0395,0.302178756787028,-0.5383386009731099
-4.039,0.291508581929326,-0.6125150698094169
-4.0385,0.291508581929326,-0.6337083466197325
-4.038,0.06743490991819429,-0.4217755785165767
-4.0375,-0.6154562809742614,0.2987958330351943
-4.037,-1.234326422719292,0.5107286011383502
-4.0365,-1.565101843307454,0.05507314971615059
-4.036,-1.511750969018555,0.09745970333683959
-4.0355,-0.9782422261349084,0.1186529801471552
-4.035,-0.423393133535411,0.1186529801471552
-4.0345,-0.007256314086166449,0.1610395337677864
-4.034,0.2381577076409128,0.2458126410091644
-4.0335,0.3341892813600565,0.3517790250608387
-4.033,0.3661998059330753,0.4789386859227323
-4.0325,0.3555296310754024,0.595501708379786
-4.032,0.3341892813600565,0.701468092431364
-4.0315,0.3128489316447107,0.7756445612674685
-4.031,0.3021787567870086,0.8392243916985694
-4.0305,0.3021787567870086,0.8710143069140429
-4.03,0.3021787567870086,0.818031114888254
-4.0295,0.3235191065020439,0.3199891098446329
-4.029,-0.03926683865883591,-0.4535654937318862
-4.0285,-0.4447334832507763,-1.110557074852267
-4.028,-0.5514352318273213,-1.195330182093211
-4.0275,-0.2420001609548061,-0.7608680074817418
-4.027,0.0674349099179905,-0.3158091944647096
-4.0265,0.2594980573561034,0.01268659609518208
-4.026,0.3448594562177392,0.13984625695749
-4.0255,0.3661998059331045,0.1080563417419877
-4.025,0.3555296310754315,-0.008506680714747999
-4.0245,0.3341892813600663,-0.1356663415769885
-4.024,0.3448594562177392,-0.2734226408440398
-4.0235,0.3448594562177392,-0.4005823017059333
-4.023,0.3235191065023642,-0.4959520473526234
-4.0225,0.3128489316446912,-0.570128516188728
-4.022,0.2915085819293454,-0.6019184314042014
-4.0215,0.2168173579251011,-0.5171453241623415
-4.021,-0.274010685527854,0.08686306493165288
-4.0205,-1.042263275281004,0.4789386859228479
-4.02,-1.639793067311455,-0.0402965959304816
-4.0195,-1.885207089037933,-0.1780528951975329
-4.019,-1.362368521011484,-0.05089323433552374
-4.0185,-0.7008176798357614,0.01268659609542303
-4.018,-0.1673089369510276,0.06566978812131802
-4.0175,0.1634664836371343,0.1504428953626575
-4.017,0.3235191065022283,0.2458126410090777
-4.0165,0.3661998059331045,0.3517790250609447
-4.016,0.3661998059331045,0.4683420475176805
-4.0155,0.3448594562177586,0.5637117931641007
-4.015,0.3235191065023642,0.6484849004055847
-4.0145,0.3128489316446912,0.7120647308365314
-4.014,0.3021787567870183,0.7544512844571626
-4.0135,0.3021787567868824,0.7756445612672758
-4.013,0.1634664836371343,0.4895353243280153
-4.0125,-0.3487019095316325,-0.2310360872233701
-4.012,-0.7968492535544879,-0.9622041371802892
-4.0115,-0.9995825758502737,-1.364876396576285
-4.011,-0.6261264558313813,-1.0999604364471
-4.0105,-0.1139580626630803,-0.5701285161892098
-4.01,0.2488278824985954,-0.1462629799820306
-4.0095,0.408880505363835,0.09745970333682032
-4.009,0.4302208550791809,0.1610395337677671
-4.0085,0.3982103305061136,0.1080563417419106
-4.008,0.3555296310754218,0.02328323450064829
-4.0075,0.3448594562177489,-0.04029659593029848
-4.007,0.3448594562177295,-0.1038764263614669
-4.0065,0.3341892813600565,-0.2204394488182027
-4.006,0.3128489316446912,-0.3370024712750445
-4.0055,0.3021787567869892,-0.4217755785164128
-4.005,0.2808384070716433,-0.4535654937318862
-4.0045,-0.03926683865883591,-0.07208651114585861
-4.004,-0.7755089038395108,0.5531151547587597
-4.0035,-1.405049220442214,0.2670059178194992
-4.003,-1.725154466172693,-0.1462629799820306
-4.0025,-1.45840009473087,-0.07208651114592607
-4.002,-0.8502001278427167,-0.02969995752518888
-4.0015,-0.2953510352432193,0.002089957690313421
-4.001,0.07810508477533346,0.07626642652641799
-4.0005,0.2808384070717113,0.1610395337679117
-4,0.3555296310754218,0.2564092794143318
-3.9995,0.3768699807907871,0.3623756634660061
-3.999,0.3555296310754218,0.457745409112513
-3.9985,0.3341892813600565,0.5425185163538525
-3.998,0.3128489316446912,0.6166949851900245
-3.9975,0.3128489316446912,0.6696781772158616
-3.997,0.3021787567870086,0.701468092431364
-3.9965,0.3341892813600565,0.5955017083796896
-3.996,0.4835717293676135,-0.008506680714854012
-3.9955,-0.007256314085787988,-0.7608680074817418
-3.995,-0.7328282044082075,-1.311893204550448
-3.9945,-0.9035510021311299,-1.205926820498774
-3.994,-0.4660738329661415,-0.6972881770507372
-3.9935,0.00341386077189465,-0.2098428104130352
-3.993,0.2808384070716433,0.1080563417419877
-3.9925,0.408880505363835,0.2140227257936621
-3.992,0.4302208550792003,0.1928294489833272
-3.9915,0.408880505363835,0.09745970333682032
-3.991,0.3768699807907871,0.01268659609548085
-3.9905,0.3875401556484697,-0.04029659593035631
-3.99,0.3768699807907871,-0.1992461720078678
-3.9895,0.3448594562177392,-0.3793890248957141
-3.989,0.3128489316446912,-0.5065486857577234
-3.9885,0.291508581929326,-0.570128516188728
-3.988,0.07810508477567314,-0.3475991096802118
-3.9875,-0.5834457564006506,0.3411823866556712
-3.987,-1.255666772434657,0.383568940276341
-3.9865,-1.757164990745741,-0.1462629799820306
-3.986,-1.735824641030376,-0.09327978795619347
-3.9855,-1.116954499284783,-0.008506680714854012
-3.985,-0.4980843575391895,0.04447651131098315
-3.9845,-0.02859666380115328,0.1186529801471552
-3.984,0.2274875327832301,0.2140227257936621
-3.9835,0.3555296310754218,0.3305857482505039
-3.983,0.3768699807907871,0.4471487707073456
-3.9825,0.3661998059331045,0.55311515475902
-3.982,0.3448594562177392,0.6590815388106942
-3.9815,0.3235191065023739,0.7332580076468663
-3.981,0.3128489316446912,0.7968378380778709
-3.9805,0.3021787567870086,0.8286277532933731
-3.98,0.3128489316446912,0.7968378380778709
-3.9795,0.4729015545099309,0.309392471440169
-3.979,0.09944543449103843,-0.4641621321370536
-3.9785,-0.6047861061160158,-1.131750351662602
-3.978,-0.9035510021311299,-1.216523458903942
-3.9775,-0.5407650569699201,-0.7608680074817418
-3.977,-0.06060718837420119,-0.326405832869877
-3.9765,0.2381577076409128,-0.02969995752518888
-3.976,0.3768699807907871,0.09745970333682032
-3.9755,0.4195506802215176,0.08686306493165288
-3.975,0.3982103305061524,-0.01910331912002144
-3.9745,0.3661998059331045,-0.1462629799820306
-3.974,0.3875401556484697,-0.2628260024388724
-3.9735,0.3875401556484697,-0.3899856633008816
-3.973,0.3555296310754218,-0.5171453241628908
-3.9725,0.3235191065023739,-0.6019184314042303
-3.972,0.3128489316446912,-0.6443049850249
-3.9715,0.2381577076409128,-0.5595318777835605
-3.971,-0.2526703358124887,0.03387987290581572
-3.9705,-0.8181896032696687,0.4365521323021782
-3.97,-1.170305373573196,-0.05089323433552374
-3.9695,-1.405049220442214,-0.1462629799820306
-3.969,-1.095614149569417,-0.01910331912002144
-3.9685,-0.5834457564006506,0.04447651131098315
-3.968,-0.1352984123779797,0.1292496185523226
-3.9675,0.1527963087794516,0.2246193641988295
-3.967,0.3021787567870086,0.3411823866556712
-3.9665,0.3555296310754218,0.457745409112513
-3.966,0.3555296310754218,0.5743084315693548
-3.9655,0.3448594562177392,0.6802748156210291
-3.965,0.3235191065023739,0.7650479228623686
-3.9645,0.3128489316446912,0.8180311148882058
-3.964,0.3021787567870086,0.8604176685088755
-3.9635,0.3021787567870086,0.8604176685088755
-3.963,0.1954770082101822,0.5425185163538525
-3.9625,-0.3807124341046804,-0.1992461720078678
-3.962,-0.8288597781273515,-0.9410108603695881
-3.9615,-1.042263275281004,-1.311893204550448
-3.961,-0.7861790786966207,-0.9939940523954253
-3.9605,-0.2633405106701714,-0.5065486857577234
-3.96,0.1314559590640864,-0.1780528951975329
-3.9595,0.3235191065023739,-0.04029659593035631
-3.959,0.3875401556484697,-0.05089323433552374
-3.9585,0.3768699807907871,-0.1144730647665284
-3.958,0.3555296310754218,-0.1886495336027004
-3.9575,0.3661998059331045,-0.252229364033705
-3.957,0.3875401556484697,-0.3158091944647096
-3.9565,0.3661998059331045,-0.400582301706049
-3.956,0.3448594562177392,-0.4535654937318862
-3.9555,0.3128489316446912,-0.4853554089473885
-3.955,0.291508581929326,-0.4641621321370536
-3.9545,0.01408403562957729,-0.07208651114585861
-3.954,-0.690147504977477,0.4789386859228479
-3.9535,-1.394379045584531,0.13984625695749
-3.953,-1.885207089037933,-0.2416327256285375
-3.9525,-1.67180359188428,-0.06148987274069118
-3.952,-0.9889124009925911,0.03387987290581572
-3.9515,-0.3807124341046804,0.09745970333682032
-3.951,0.04609456020262521,0.1716361721729923
-3.9505,0.2808384070716433,0.2670059178194992
-3.95,0.3661998059331045,0.3623756634660061
-3.9495,0.3875401556484697,0.457745409112513
-3.949,0.3661998059331045,0.55311515475902
-3.9485,0.3448594562177392,0.627291623595192
-3.948,0.3235191065023739,0.701468092431364
-3.9475,0.3128489316446912,0.7332580076468663
-3.947,0.3128489316446912,0.7544512844572011
-3.9465,0.3341892813600565,0.6378882620003594
-3.946,0.2701682322139607,0.02328323450064829
-3.9455,-0.156638762093345,-0.7502713690765743
-3.945,-0.5087545323968721,-1.333086481360783
-3.9445,-0.3700422592469978,-1.258910012524611
-3.944,0.01408403562957729,-0.7714646458869092
-3.9435,0.3021787567870086,-0.3052125560595421
-3.943,0.4302208550792003,-0.008506680714854012
-3.9425,0.4515612047945656,0.07626642652648545
-3.942,0.4195506802215176,0.04447651131098315
-3.9415,0.3768699807907871,-0.02969995752518888
-3.941,0.3341892813600565,-0.08268314955102604
-3.9405,0.3128489316446912,-0.06148987274069118
-3.94,0.291508581929326,-0.1568596183871981
-3.9395,0.2808384070716433,-0.2946159176543747
-3.939,0.2808384070716433,-0.4111789401112165
-3.9385,0.2808384070716433,-0.4641621321370536
-3.938,0.1848068333524996,-0.3158091944647096
-3.9375,-0.3700422592469978,0.2881991946298341
-3.937,-0.9995825758502737,0.2140227257936621
-3.9365,-1.447729919872945,-0.3581957480853793
-3.936,-1.51175096901904,-0.2628260024388724
-3.9355,-1.010252750707956,-0.1038764263613609
-3.935,-0.4554036581084589,0.002089957690313421
-3.9345,-0.02859666380115328,0.1080563417419877
-3.934,0.2274875327832301,0.2034260873884947
-3.9335,0.3341892813600565,0.2987958330350016
-3.933,0.3768699807907871,0.4047622170866759
-3.9325,0.3661998059331045,0.5001319627331828
-3.932,0.3448594562177392,0.5849050699745222
-3.9315,0.3235191065023739,0.6484849004055269
-3.931,0.3128489316446912,0.701468092431364
-3.9305,0.3021787567870086,0.7226613692416989
-3.93,0.3021787567870086,0.701468092431364
-3.9295,0.02475421048725994,0.2670059178194992
-3.929,-0.6154562809736985,-0.4959520473525559
-3.9285,-1.052933450138687,-1.174136905283272
-3.928,-1.042263275281004,-1.301296566145281
-3.9275,-0.5300948821122373,-0.8350444763179138
-3.927,-0.007256314085787988,-0.3370024712750445
-3.9265,0.3128489316446912,0.002089957690313421
-3.926,0.4408910299368829,0.1292496185523226
-3.9255,0.4515612047945656,0.1186529801471552
-3.925,0.4195506802215176,0.05507314971615059
-3.9245,0.3661998059331045,-0.07208651114585861
-3.924,0.3661998059331045,-0.2416327256285375
-3.9235,0.3555296310754218,-0.3581957480853793
-3.923,0.3341892813600565,-0.4323722169215513
-3.9225,0.3128489316446912,-0.474758770542221
-3.922,0.3021787567870086,-0.474758770542221
-3.9215,0.2594980573562781,-0.400582301706049
-3.921,-0.1352984123779797,0.1292496185523226
-3.9205,-0.7008176798351597,0.3729723018711736
-3.92,-1.180975548430879,-0.2310360872233701
-3.9195,-1.501080794161358,-0.8880276683437509
-3.919,-1.191645723288561,-0.9622041371799229
-3.9185,-0.658136980404429,-0.6125150698093976
-3.918,-0.1779791118087102,-0.1780528951975329
-3.9175,0.142126133921769,0.1716361721729923
-3.917,0.3021787567870086,0.4047622170866759
-3.9165,0.3661998059331045,0.55311515475902
-3.916,0.3661998059331045,0.627291623595192
-3.9155,0.3555296310754218,0.6696781772158616
-3.915,0.3341892813600565,0.6696781772158616
-3.9145,0.3128489316446912,0.6590815388106942
-3.914,0.3128489316446912,0.627291623595192
-3.9135,0.3128489316446912,0.5743084315693548
-3.913,0.4515612047945656,0.2352160026039969
-3.9125,0.4302208550792003,-0.5595318777835605
-3.912,-0.1886492866663929,-1.354279758171118
-3.9115,-0.722158029550525,-1.778145294377815
-3.911,-0.6474668055467465,-1.354279758171118
-3.9105,-0.2313299860971235,-0.7820612842920766
-3.91,0.1207857842064037,-0.3581957480853793
-3.9095,0.3235191065023739,-0.1462629799820306
-3.909,0.408880505363835,-0.08268314955102604
-3.9085,0.408880505363835,-0.1144730647665284
-3.908,0.3768699807907871,-0.1674562567923655
-3.9075,0.3661998059331045,-0.2734226408440398
-3.907,0.3768699807907871,-0.3899856633008816
-3.9065,0.3555296310754218,-0.4323722169215513
-3.906,0.3341892813600565,-0.4323722169215513
-3.9055,0.3128489316446912,-0.400582301706049
-3.905,0.291508581929326,-0.3370024712750445
-3.9045,0.03542438534494258,0.05507314971615059
-3.904,-0.5941159312583333,0.5743084315693548
-3.9035,-1.191645723288561,0.1822328105781598
-3.903,-1.543761493592088,-0.2734226408440398
-3.9025,-1.394379045584531,-0.1356663415768632
-3.902,-0.839529952985034,0.002089957690313421
-3.9015,-0.3060212101009019,0.1186529801471552
-3.901,0.0674349099179905,0.2352160026039969
-3.9005,0.2701682322139607,0.3411823866556712
-3.9,0.3555296310754218,0.4365521323021782
-3.8995,0.3768699807907871,0.5319218779486851
-3.899,0.3661998059331045,0.6166949851900245
-3.8985,0.3341892813600565,0.6802748156210291
-3.898,0.3235191065023739,0.7226613692416989
-3.8975,0.3128489316446912,0.7438546460520338
-3.897,0.3128489316446912,0.7438546460520338
-3.8965,0.3555296310754218,0.6378882620003594
-3.896,0.4835717293676135,0.03387987290581572
-3.8955,0.05676473506030786,-0.7714646458869092
-3.895,-0.5621054066852853,-1.375473034981453
-3.8945,-0.6688071552621118,-1.301296566145281
-3.894,-0.2953510352432193,-0.8032545611024114
-3.8935,0.07810508477567314,-0.3475991096802118
-3.893,0.291508581929326,-0.07208651114585861
-3.8925,0.3875401556484697,0.03387987290581572
-3.892,0.3982103305061524,0.002089957690313421
-3.8915,0.3768699807907871,-0.06148987274069118
-3.891,0.3448594562177392,-0.1780528951975329
-3.8905,0.3235191065023739,-0.3052125560595421
-3.89,0.3021787567870086,-0.4111789401112165
-3.8895,0.291508581929326,-0.4641621321370536
-3.889,0.291508581929326,-0.4853554089473885
-3.8885,0.2808384070716433,-0.4853554089473885
-3.888,0.1527963087794516,-0.2734226408440398
