Class_1_Relax_eyes_closed/Class_1_Relax_Eyes_closed_Zakour_10.csv

#Digilent WaveForms Oscilloscope Acquisition
#Device Name: EExplorer
#Serial Number: SN:210151A2B84A
#Date Time: 2021-01-28 10:03:12.048
#Sample rate: 2000Hz
#Samples: 16384
#Trigger: Source: Channel 1 Type: Edge Condition: Rising Level: 0 V Hyst.: Auto HoldOff: 0 s
#Channel 1: Range: 1 V/div Offset: 0 V Attenuation: 1 X
#Channel 2: Range: 1 V/div Offset: 0 V Attenuation: 1 X
#Power Supplies: ON
#Fixed Supply: ON
#Voltage: 3.3 V Readback: 3.325 V
#Positive Supply: ON
#Voltage: 3.7 V Readback: 3.717 V
#Current: 40 mA Readback: 18 mA
#Negative Supply: ON
#Voltage: -3.7 V Readback: -3.355 V
#Current: -40 mA Readback: -9 mA
#Reference 1: ON
#Voltage: 0 V
#Reference 2: ON
#Voltage: 0 V

Time (s),Channel 1 (V),Channel 2 (V)
-4.096,0.07810508477567314,-0.2734226408440398
-4.0955,0.8143471499551057,0.5319218779479526
-4.095,1.646620788855536,1.369056311957462
-4.0945,2.212140056312201,1.973064701051456
-4.094,1.721312012859246,1.973064701051456
-4.0935,0.2594980573550165,0.9769806909646956
-4.093,-1.127624674142465,-0.1462629799820306
-4.0925,-1.853196564464225,-0.8774310299379184
-4.092,-1.661133417026132,-1.099960436446965
-4.0915,-1.148965023857831,-0.9516074987747555
-4.091,-0.6794773301197943,-0.6337083466197325
-4.0905,-0.3487019095314675,-0.3264058328697228
-4.09,-0.1673089369510276,-0.1568596183871981
-4.0895,-0.1352984123779797,-0.08268314955102604
-4.089,-0.2740106855277279,-0.06148987274071045
-4.0885,-0.5194247072545548,-0.1144730647665284
-4.088,-1.074273799854052,-0.1780528951975329
-4.0875,-1.373038695868894,0.1398462569572009
-4.087,-0.4767440078226888,0.8922075837250332
-4.0865,0.7716664505250448,1.612778995275763
-4.086,1.62528043913888,1.909484870620181
-4.0855,1.07043134653912,1.157123543852532
-4.085,-0.07127736323188383,0.02328323450064829
-4.0845,-0.6901475049769141,-0.6760949002397663
-4.084,-0.7648387289810905,-0.9728007755851579
-4.0835,-0.5834457564006506,-1.046977244421262
-4.083,-0.3593720843893152,-1.068170521231597
-4.0825,-0.167308936950882,-1.025783967610889
-4.082,-0.007256314085787988,-0.9833974139902578
-4.0815,0.08877525963335578,-0.9833974139902578
-4.081,0.05676473506033698,-0.9622041371799422
-4.0805,-0.007256314085787988,-0.8986243067489184
-4.08,-0.07127736323188383,-0.7608680074817418
-4.0795,-0.007256314085846219,-0.5065486857579546
-4.079,0.5902734779452065,0.1610395337685959
-4.0785,1.433217291701369,1.00877060618122
-4.078,2.116108482592437,1.718745379326792
-4.0775,2.137448832307297,1.930678147430035
-4.077,0.8997085488172365,1.104140351827727
-4.0765,-0.551435231826283,-0.04029659592931534
-4.076,-1.244996597576926,-0.84564111472338
-4.0755,-1.191645723288561,-1.174136905283272
-4.075,-0.8715404775580819,-1.068170521231597
-4.0745,-0.5407650569697066,-0.7078848154555479
-4.074,-0.3060212101009019,-0.3158091944647096
-4.0735,-0.1779791118087102,-0.08268314955102604
-4.073,-0.1352984123780185,0.02328323450055191
-4.0725,-0.2313299860971235,0.03387987290581572
-4.072,-0.4340633083930936,-0.01910331912002144
-4.0715,-0.8181896032693193,-0.1250697031715994
-4.071,-1.266336947291787,-0.09327978795568269
-4.0705,-0.658136980404429,0.4683420475176805
-4.07,0.5369226036549397,1.263089927904515
-4.0695,1.571929564851223,1.814115124973559
-4.069,1.550589215135878,1.390249588767247
-4.0685,0.6542945270905358,0.4047622170866759
-4.068,-0.007256314086030599,-0.3475991096806552
-4.0675,-0.274010685527854,-0.8350444763179138
-4.067,-0.2953510352432193,-1.110557074852267
-4.0665,-0.2099896363816708,-1.21652345890397
-4.066,-0.1139580626626144,-1.248313374119443
-4.0655,-0.03926683865883591,-1.216523458903942
-4.065,-0.1673089369509111,-0.919817583559523
-4.0645,-0.2420001609548061,-0.7608680074817418
-4.064,-0.2420001609548061,-0.6866915386455698
-4.0635,-0.2099896363817873,-0.6019184314043073
-4.063,-0.156638762092918,-0.4429688553262658
-4.0625,0.3128489316446912,0.05507314971615059
-4.062,1.155792745400853,0.8604176685081431
-4.0615,1.924045335155081,1.602182356870972
-4.061,2.265490930600615,2.015451254672126
-4.0605,1.347855892839907,1.464426057603419
-4.06,-0.1886492866675671,0.2881991946289764
-4.0595,-1.479740444445993,-0.6549016234300674
-4.059,-1.991908837614759,-1.121153713257435
-4.0585,-1.618452717596207,-1.131750351662592
-4.058,-1.06360362499637,-0.8668343915334161
-4.0575,-0.5941159312583333,-0.5065486857577234
-4.057,-0.295351035243491,-0.1992461720081473
-4.0565,-0.1459685872356623,-0.02969995752518888
-4.056,-0.1673089369510276,0.03387987290581572
-4.0555,-0.3487019095314675,0.01268659609550013
-4.055,-0.7221580295510781,-0.08268314955107423
-4.0545,-1.330357996438436,-0.1356663415768632
-4.054,-1.116954499284977,0.1504428953623972
-4.0535,0.03542438534603918,0.9028042221302006
-4.053,1.241154144263081,1.623375633680931
-4.0525,1.678631313428069,1.75053529454294
-4.052,0.7076454013777166,0.8392243916974804
-4.0515,-0.6474668055467465,-0.326405832869877
-4.051,-1.693143941599645,-1.195330182093607
-4.0505,-1.842526389607066,-1.41785958860192
-4.05,-1.373038695869166,-1.301296566145281
-4.0495,-0.8181896032696687,-1.163540266878104
-4.049,-0.3593720843897324,-1.078767159636842
-4.0485,-0.1673089369509985,-0.8562377531281427
-4.048,-0.1352984123779797,-0.7396747306714069
-4.0475,-0.1246282375203067,-0.7926579226971958
-4.047,-0.124628237520297,-0.8562377531282294
-4.0465,-0.124628237520297,-0.8350444763179138
-4.046,0.1314559590638535,-0.5277419625683377
-4.0455,0.9103787236756665,0.2776025562254473
-4.045,1.731982187716482,1.135930267043229
-4.0445,2.265490930600615,1.771728571353275
-4.044,1.710641837999778,1.761131932947211
-4.0435,0.2381577076409128,0.775644561267536
-4.043,-1.170305373573196,-0.3370024712750445
-4.0425,-1.959898313040993,-1.068170521230932
-4.042,-1.757164990745741,-1.290699927740113
-4.0415,-1.202315898146244,-1.121153713257435
-4.041,-0.7008176798356158,-0.7078848154562805
-4.0405,-0.3487019095314675,-0.2840192792489952
-4.04,-0.1673089369510276,-0.05089323433552374
-4.0395,-0.1246282375203358,0.03387987290573861
-4.039,-0.2420001609550293,0.03387987290574826
-4.0385,-0.4874141826815069,-0.04029659593035631
-4.038,-1.031593100422827,-0.09327978795614528
-4.0375,-1.191645723287697,0.3411823866563748
-4.037,-0.2420001609548061,1.114736990232894
-4.0365,0.974399772821015,1.782325209758442
-4.036,1.742652362573583,1.973064701050656
-4.0355,1.102441871113207,1.093543713422559
-4.035,-0.2420001609548061,-0.1356663415768632
-4.0345,-1.479740444444867,-1.142346990066854
-4.034,-2.312014083345239,-1.778145294377815
-4.0335,-2.023919362187807,-1.682775548731308
-4.033,-1.298347471866047,-1.29069992774047
-4.0325,-0.6688071552617429,-0.9622041371797205
-4.032,-0.2633405106701714,-0.7396747306714069
-4.0315,-0.1246282375204232,-0.5489352393785665
-4.031,-0.08194753808955678,-0.5701285161888147
-4.0305,-0.07127736323188383,-0.6654982618352349
-4.03,-0.08194753808955678,-0.7184814538610238
-4.0295,0.0460945602032463,-0.5701285161880822
-4.029,0.7289857510943143,0.13984625695749
-4.0285,1.56125938999356,0.9875773293708847
-4.028,2.201469881454373,1.665762187301793
-4.0275,2.041417258589279,1.877694955404949
-4.027,0.6969752265212663,1.114736990232894
-4.0265,-0.626126455830178,-0.05089323433446369
-4.026,-1.074273799854052,-0.9092209451540858
-4.0255,-0.9675720512772257,-1.301296566145281
-4.025,-0.6794773301200563,-1.248313374119492
-4.0245,-0.423393133535246,-0.9304142219640834
-4.024,-0.2420001609548061,-0.5595318777835605
-4.0235,-0.1459685872357497,-0.3264058328700891
-4.023,-0.1246282375204038,-0.2310360872233508
-4.0225,-0.2420001609548061,-0.2098428104130352
-4.022,-0.4660738329659377,-0.2522293640336665
-4.0215,-0.9675720512775847,-0.3158091944645361
-4.021,-1.362368521011484,-0.1250697031716958
-4.0205,-0.6047861061160158,0.5849050699745222
-4.02,0.6436243522337847,1.400846227172897
-4.0195,1.667961138570387,1.930678147430786
-4.019,1.51857869056283,1.453829419198252
-4.0185,0.3661998059341525,0.362375663466999
-4.018,-0.4340633083930936,-0.3793890248957141
-4.0175,-0.6367966306890638,-0.8032545611024114
-4.017,-0.5194247072546616,-0.9939940523952517
-4.0165,-0.3487019095314869,-1.046977244421301
-4.016,-0.1886492866663929,-1.089363798041932
-4.0155,-0.06060718837431764,-1.025783967610985
-4.015,-0.1032878878049609,-0.7608680074816454
-4.0145,-0.1352984123779797,-0.6549016234300674
-4.014,-0.1459685872356526,-0.6125150698094362
-4.0135,-0.1459685872356235,-0.5489352393782485
-4.013,-0.1032878878049318,-0.3899856633008816
-4.0125,0.3768699807907871,0.1186529801471552
-4.012,1.219813794548395,0.9028042221302006
-4.0115,1.966726034585501,1.623375633680931
-4.011,2.254820755742932,2.047241169887628
-4.0105,1.251824319121676,1.909484870620576
-4.01,-0.1673089369510276,0.849821030103708
-4.0095,-0.8502001278427167,-0.2416327256285375
-4.009,-0.8928808272734083,-0.9092209451534786
-4.0085,-0.6901475049772635,-1.121153713257309
-4.008,-0.4554036581084589,-0.9833974139902578
-4.0075,-0.274010685528019,-0.665498261835524
-4.007,-0.1673089369509888,-0.3581957480851866
-4.0065,-0.124628237520297,-0.1462629799820306
-4.006,-0.1886492866663929,-0.02969995752518888
-4.0055,-0.3913826089627027,-0.008506680714911837
-4.005,-0.7648387289812555,-0.07208651114585861
-4.0045,-1.351698346153801,-0.01910331912002144
-4.004,-1.042263275279917,0.4683420475183744
-4.0035,0.1527963087794516,1.231300012689736
-4.003,1.326515543124542,1.856501678594614
-4.0025,1.710641838000768,1.718745379327563
-4.002,0.6969752265212663,0.6378882620003594
-4.0015,-0.6688071552621118,-0.5277419625680583
-4.001,-1.565101843306639,-1.205926820498157
-4.0005,-1.543761493591691,-1.227120097308964
-4,-1.1062843244271,-1.068170521231597
-3.9995,-0.5941159312583333,-0.9516074987747555
-3.999,-0.1779791118087102,-0.8562377531282487
-3.9985,-0.09261771294724913,-0.6866915386455698
-3.998,-0.1352984123779797,-0.6019184314042303
-3.9975,-0.156638762093345,-0.6549016234300674
-3.997,-0.1459685872356623,-0.6972881770507372
-3.9965,-0.124628237520297,-0.6760949002404023
-3.996,0.1954770082101822,-0.3370024712750445
-3.9955,1.017080472251745,0.4789386859228479
-3.995,1.817343586577944,1.284283204715573
-3.9945,2.308171630031345,1.835308401784279
-3.994,1.657290963712704,1.655165548896433
-3.9935,0.1634664836371343,0.6060983467848571
-3.993,-1.223656247861609,-0.474758770542221
-3.9925,-1.970568487899394,-1.142346990067769
-3.992,-1.725154466172693,-1.290699927740113
-3.9915,-1.170305373573196,-1.036380606016095
-3.991,-0.6688071552621118,-0.6443049850249
-3.9905,-0.3273615598162672,-0.3370024712750445
-3.99,-0.1459685872356623,-0.2098428104130352
-3.9895,-0.124628237520297,-0.1780528951975329
-3.989,-0.2633405106701714,-0.1886495336027004
-3.9885,-0.5621054066852853,-0.252229364033705
-3.988,-1.170305373573196,-0.2416327256285375
-3.9875,-1.255666772434657,0.2776025562246667
-3.987,-0.2420001609548061,1.093543713422559
-3.9865,0.9957401225363802,1.79292184816361
-3.986,1.731982187716482,1.962468062646288
-3.9855,1.027750647109428,1.051157159801889
-3.985,-0.3273615598162672,-0.1780528951975329
-3.9845,-1.351698346153801,-1.046977244421262
-3.984,-1.51175096901904,-1.322489842955616
-3.9835,-1.127624674142465,-1.280103289334946
-3.983,-0.6474668055467465,-1.121153713257435
-3.9825,-0.2420001609548061,-1.004590690800593
-3.982,-0.01792648894347063,-0.8350444763179138
-3.9815,0.03542438534494258,-0.7078848154559045
-3.981,0.01408403562957729,-0.6972881770507372
-3.9805,-0.02859666380115328,-0.718481453861072
-3.98,-0.07127736323188383,-0.6866915386455698
-3.9795,0.07810508477567314,-0.4429688553267188
-3.979,0.7823366253827275,0.2987958330350016
-3.9785,1.614610264281974,1.146526905448396
-3.978,2.233480406027567,1.803518486568777
-3.9775,2.052087433446962,1.814115124973944
-3.977,0.707645401378949,0.849821030103708
-3.9765,-0.7648387289812555,-0.2734226408440398
-3.976,-1.501080794161358,-1.01518732920576
-3.9755,-1.405049220442214,-1.269506650929778
-3.975,-0.9889124009925911,-1.142346990067769
-3.9745,-0.5941159312583333,-0.8244478379127463
-3.974,-0.3166913849585846,-0.5065486857577234
-3.9735,-0.156638762093345,-0.3052125560595421
-3.973,-0.1139580626626144,-0.1992461720078678
-3.9725,-0.2099896363817582,-0.1674562567923655
-3.972,-0.423393133535411,-0.1886495336027004
-3.9715,-0.9035510021311299,-0.252229364033705
-3.971,-1.298347471865388,-0.06148987274069118
-3.9705,-0.5514352318276028,0.627291623595192
-3.97,0.6863050516635838,1.432636142387917
-3.9695,1.678631313428069,1.941274785835954
-3.969,1.475897991132099,1.506812611224089
-3.9685,0.3555296310754218,0.4365521323021782
-3.968,-0.4340633083930936,-0.3475991096802118
-3.9675,-0.658136980404429,-0.8244478379127463
-3.967,-0.5621054066852853,-1.046977244421262
-3.9665,-0.3593720843893152,-1.121153713257435
-3.966,-0.1459685872356623,-1.142346990067769
-3.9655,0.01408403562957729,-1.121153713257435
-3.965,0.1527963087794516,-0.9304142219644207
-3.9645,0.1314559590640864,-0.8032545611024114
-3.964,0.05676473506030786,-0.718481453861072
-3.9635,-0.01792648894347063,-0.6019184314042303
-3.963,-0.03926683865883591,-0.400582301706049
-3.9625,0.4302208550792003,0.1822328105781598
-3.962,1.273164668836129,0.9981739677760521
-3.9615,2.009406734016231,1.70814874092227
-3.961,2.222810231169884,2.026047893077293
-3.9605,1.145122570543937,1.326669758336243
-3.96,-0.3700422592469978,0.1610395337678249
-3.9595,-1.458400094730627,-0.718481453861072
-3.959,-1.629122892453549,-1.131750351662602
-3.9585,-1.244996597576974,-1.142346990067769
-3.958,-0.7861790786966207,-0.8668343915334161
-3.9575,-0.423393133535411,-0.4959520473525559
-3.957,-0.2099896363817582,-0.2204394488182027
-3.9565,-0.1139580626626144,-0.06148987274069118
-3.956,-0.1673089369510276,0.02328323450064829
-3.9555,-0.3593720843893152,0.002089957690313421
-3.955,-0.7328282044082075,-0.09327978795619347
-3.9545,-1.319687821580753,-0.1674562567923655
-3.954,-1.010252750707956,0.002089957690313421
-3.9535,0.1741366584948169,0.7120647308365314
-3.953,1.347855892839907,1.475022696008586
-3.9525,1.657290963712704,1.464426057603419
-3.952,0.6009436528021226,0.4895353243280153
-3.9515,-0.690147504977477,-0.5489352393783931
-3.951,-1.277007122150022,-0.9939940523954253
-3.9505,-1.170305373573196,-1.078767159636765
-3.95,-0.7861790786966207,-1.110557074852267
-3.9495,-0.4127229586777283,-1.142346990067769
-3.949,-0.1459685872356623,-1.121153713257435
-3.9485,-0.1459685872356623,-0.9092209451540858
-3.948,-0.2099896363817582,-0.8032545611024114
-3.9475,-0.2099896363817582,-0.8244478379127463
-3.947,-0.1779791118087102,-0.8562377531282487
-3.9465,-0.1459685872356623,-0.8138511995075789
-3.946,0.1954770082101822,-0.4111789401112165
-3.9455,1.006410297394063,0.457745409112513
-3.945,1.817343586577944,1.305476481525908
-3.9445,2.276161105458297,1.877694955404949
-3.944,1.529248865420512,1.75053529454294
-3.9435,0.02475421048725994,0.7120647308365314
-3.943,-1.255666772434657,-0.3793890248957141
-3.9425,-1.639793067311232,-1.046977244421262
-3.942,-1.330357996438436,-1.248313374119443
-3.9415,-0.8715404775580819,-1.110557074852267
-3.941,-0.4874141826815069,-0.8032545611024114
-3.9405,-0.2420001609548061,-0.5171453241628908
-3.94,-0.124628237520297,-0.3158091944647096
-3.9395,-0.124628237520297,-0.1780528951975329
-3.939,-0.2633405106701714,-0.1250697031716958
-3.9385,-0.5407650569699201,-0.1356663415768632
-3.938,-1.116954499284783,-0.1144730647665284
-3.9375,-1.148965023857831,0.3729723018711736
-3.937,-0.1139580626626144,1.157123543853563
-3.9365,1.091771696255524,1.835308401784279
-3.936,1.774662887147213,2.004854616266958
-3.9355,1.017080472251745,1.114736990232894
-3.935,-0.3487019095316325,-0.1144730647665284
-3.9345,-1.554431668449771,-1.121153713257435
-3.934,-2.408045657064382,-1.767548655972648
-3.9335,-2.098610586191586,-1.608599079895136
-3.933,-1.319687821580753,-1.216523458903942
-3.9325,-0.658136980404429,-0.9410108603695881
-3.932,-0.3273615598162672,-0.8774310299385835
-3.9315,-0.3060212101009019,-0.8880276683437509
-3.931,-0.2420001609548061,-0.8032545611024114
-3.9305,-0.1886492866663929,-0.7078848154559045
-3.93,-0.1352984123779797,-0.5913217929990628
-3.9295,0.05676473506030786,-0.3052125560595421
-3.929,0.7823366253827275,0.4471487707073456
-3.9285,1.625280439139656,1.25249328950007
-3.928,2.244150580885249,1.835308401784279
-3.9275,1.934715510012453,1.867098316999781
-3.927,0.5369226036560266,0.92399749893988
-3.9265,-0.9035510021311299,-0.252229364033705
-3.926,-1.629122892453549,-1.089363798041932
-3.9255,-1.46907026958831,-1.460246142222792
-3.925,-1.020922925565639,-1.407262950196955
-3.9245,-0.5941159312583333,-1.0999604364471
-3.924,-0.2953510352432193,-0.7714646458869092
-3.9235,-0.1352984123779797,-0.6019184314042303
-3.923,-0.09261771294724913,-0.5277419625680583
-3.9225,-0.2206598112394408,-0.5171453241628908
-3.922,-0.4554036581084589,-0.5595318777835605
-3.9215,-0.9675720512772257,-0.6125150698093976
-3.921,-1.330357996438436,-0.3793890248957141
-3.9205,-0.5407650569699201,0.4153588554918433
-3.92,0.707645401378949,1.316073119931075
-3.9195,1.667961138570387,1.867098316999781
-3.919,1.294505018551494,1.33726639674141
-3.9185,0.02475421048725994,0.1822328105781598
-3.918,-1.010252750707956,-0.718481453861072
-3.9175,-1.26633694729234,-1.078767159636765
-3.917,-1.010252750707956,-1.121153713257435
-3.9165,-0.6154562809736985,-1.05757388282643
-3.916,-0.2633405106701714,-0.9833974139902578
-3.9155,-0.02859666380115328,-0.9198175835592532
-3.915,0.1207857842064037,-0.7078848154559045
-3.9145,0.1207857842064037,-0.570128516188728
-3.914,0.05676473506030786,-0.474758770542221
-3.9135,-0.007256314085787988,-0.3793890248957141
-3.913,-0.007256314085787988,-0.2098428104130352
-3.9125,0.4729015545099309,0.3411823866556712
-3.912,1.305175193409177,1.135930267043229
-3.9115,2.041417258589279,1.824711763379112
-3.911,2.148119007166105,2.132014277128968
-3.9105,0.9850699476786977,1.517409249629256
-3.91,-0.3700422592469978,0.3411823866556712
-3.9095,-1.010252750707956,-0.6125150698093976
-3.909,-0.9889124009925911,-1.0999604364471
-3.9085,-0.7328282044082075,-1.184733543688439
-3.908,-0.4554036581084589,-1.004590690800593
-3.9075,-0.2526703358124887,-0.7502713690765743
-3.907,-0.1459685872356623,-0.5171453241628908
-3.9065,-0.1032878878049318,-0.3475991096802118
-3.906,-0.1886492866663929,-0.2628260024388724
-3.9055,-0.4020527838200457,-0.252229364033705
-3.905,-0.7328282044082075,-0.3052125560595421
-3.9045,-1.223656247861609,-0.2310360872233701
-3.904,-0.8288597781273515,0.3517790250608387
-3.9035,0.3448594562177392,1.188913459069066
-3.903,1.465227816274416,1.835308401784279
-3.9025,1.625280439139656,1.623375633680931
-3.902,0.5049120790829789,0.5425185163538525
-3.9015,-0.8288597781273515,-0.5913217929990628
-3.901,-1.639793067311232,-1.280103289334946
-3.9005,-1.565101843307454,-1.38606967338662
-3.9,-1.084943974711735,-1.205926820498774
-3.8995,-0.5407650569699201,-0.9833974139902578
-3.899,-0.1459685872356623,-0.8986243067489184
-3.8985,0.1101156093487211,-0.8138511995075789
-3.898,0.1741366584948169,-0.7714646458869092
-3.8975,0.1207857842064037,-0.7714646458869092
-3.897,0.03542438534494258,-0.7502713690765743
-3.8965,-0.01792648894347063,-0.6549016234300674
-3.896,0.3021787567870086,-0.2204394488182027
-3.8955,1.102441871113207,0.5955017083796896
-3.895,1.881364635724039,1.400846227172415
-3.8945,2.308171630031345,1.930678147430786
-3.894,1.507908515705147,1.559795803249926
-3.8935,0.02475421048725994,0.4365521323021782
-3.893,-0.9675720512772257,-0.5595318777835605
-3.8925,-1.116954499284783,-1.121153713257435
-3.892,-0.8822106524157645,-1.258910012524611
-3.8915,-0.572775581542968,-1.089363798041932
-3.891,-0.3273615598162672,-0.8138511995075789
-3.8905,-0.1673089369510276,-0.5383386009732256
-3.89,-0.1032878878049318,-0.3370024712750445
-3.8895,-0.1352984123779797,-0.1886495336027004
-3.889,-0.2846808603855366,-0.1250697031716958
-3.8885,-0.6047861061160158,-0.1462629799820306
-3.888,-1.223656247861609,-0.08268314955102604
-3.8875,-1.148965023857831,0.5001319627331828
