Class_1_Relax_eyes_closed/Class_1_Relax_eyes_closed_Basim_3.csv

#Digilent WaveForms Oscilloscope Acquisition
#Device Name: EExplorer
#Serial Number: SN:210151A2B84A
#Date Time: 2020-11-04 10:58:48.658
#Sample rate: 2000Hz
#Samples: 16384
#Trigger: Source: Channel 1 Type: Edge Condition: Rising Level: 0 V Hyst.: Auto HoldOff: 0 s
#Channel 1: Range: 1 V/div Offset: 0 V Attenuation: 1 X
#Channel 2: Range: 1 V/div Offset: 0 V Attenuation: 1 X
#Power Supplies: ON
#Fixed Supply: ON
#Voltage: 3.3 V Readback: 3.322 V
#Positive Supply: ON
#Voltage: 3.7 V Readback: 3.71 V
#Current: 500 mA Readback: 18 mA
#Negative Supply: ON
#Voltage: -3.7 V Readback: -3.708 V
#Current: -500 mA Readback: -10 mA
#Reference 1: ON
#Voltage: 0 V
#Reference 2: ON
#Voltage: 0 V

Time (s),Channel 1 (V),Channel 2 (V)
-4.096,-1.341028171296118,-0.2310360872233701
-4.0955,-1.799845690176054,-0.9833974139895736
-4.095,-2.087940411333583,-1.449649503817509
-4.0945,-1.735824641030376,-1.322489842955616
-4.094,-0.9995825758509432,-0.6337083466203589
-4.0935,-0.338031734673552,0.08686306493213476
-4.093,0.09944543449103843,0.6166949851900245
-4.0925,0.3235191065021701,0.9451907757499162
-4.092,0.4088805053638447,1.093543713422607
-4.0915,0.4195506802215176,1.146526905448396
-4.091,0.3982103305061524,1.125333628638062
-4.0905,0.366199805933085,1.06175379820696
-4.09,0.3448594562177392,0.9557874141553824
-4.0895,0.3341892813600565,0.849821030103708
-4.089,0.3448594562177295,0.7014680924314989
-4.0885,0.3128489316446912,0.06566978812131802
-4.088,-0.04993701351651855,-0.8562377531282487
-4.0875,-0.6261264558308572,-1.629792356704768
-4.087,-0.6794773301192897,-1.958288147265536
-4.0865,-0.124628237520297,-1.820531847998485
-4.086,0.2915085819289475,-1.17413690528386
-4.0855,0.4729015545099697,-0.5383386009728305
-4.085,0.5155822539406614,-0.1038764263613609
-4.0845,0.4835717293676426,0.108056341741795
-4.084,0.4302208550791615,0.1610395337678153
-4.0835,0.3875401556484697,0.1504428953626575
-4.083,0.3982103305061524,0.1504428953626575
-4.0825,0.536922603656046,0.2987958330350016
-4.082,0.5582629533713921,0.2987958330350016
-4.0815,0.4942419042252961,0.2458126410091644
-4.081,0.4195506802215856,0.214022725793691
-4.0805,0.3128489316446912,0.2881991946298341
-4.08,-0.2526703358124887,0.6166949851900245
-4.0795,-1.095614149568651,0.1186529801476082
-4.079,-1.650463242169235,-0.7290780922667695
-4.0785,-2.002579012472442,-1.311893204550448
-4.078,-1.842526389607348,-1.417859588602026
-4.0775,-1.138294848999527,-0.8138511995069042
-4.077,-0.4554036581084589,-0.07208651114585861
-4.0765,0.02475421048682325,0.5213252395429779
-4.076,0.2915085819294327,0.8922075837245513
-4.0755,0.408880505363835,1.082947075017392
-4.075,0.4195506802215176,1.157123543853563
-4.0745,0.398210330506133,1.146526905448348
-4.074,0.3768699807907871,1.093543713422559
-4.0735,0.3448594562177392,1.00877060618122
-4.073,0.3341892813600663,0.9028042221296416
-4.0725,0.3341892813600565,0.7862411996727035
-4.072,0.3982103305061524,0.383568940276341
-4.0715,0.4302208550791712,-0.5065486857569138
-4.071,-0.1139580626630511,-1.364876396576738
-4.0705,-0.5941159312583333,-1.862918401619155
-4.07,-0.2420001609551263,-1.831128486403681
-4.0695,0.1741366584950304,-1.216523458903383
-4.069,0.408880505363835,-0.6019184314042303
-4.0685,0.4942419042252961,-0.1674562567923655
-4.068,0.4835717293675747,0.06566978812138548
-4.0675,0.4408910299368829,0.13984625695749
-4.067,0.3982103305061524,0.1186529801471552
-4.0665,0.3768699807909133,0.1080563417420552
-4.066,0.5155822539406614,0.1822328105781598
-4.0655,0.5902734779444399,0.1928294489833272
-4.065,0.5475927785137482,0.1716361721730116
-4.0645,0.4515612047945656,0.1716361721729923
-4.064,0.3768699807907871,0.2140227257936621
-4.0635,-0.007256314085438587,0.5531151547587115
-4.063,-0.8181896032703286,0.394165578680747
-4.0625,-1.543761493592088,-0.4429688553267188
-4.062,-1.959898313041333,-1.11055707485166
-4.0615,-2.109280761048735,-1.502632695843134
-4.061,-1.522421143876723,-1.142346990067769
-4.0605,-0.7648387289812555,-0.400582301706049
-4.06,-0.1673089369506977,0.2776025562250907
-4.0595,0.1954770082101822,0.7438546460520338
-4.059,0.3768699807907871,1.00877060618122
-4.0585,0.4302208550791518,1.125333628637956
-4.058,0.4195506802215176,1.146526905448396
-4.0575,0.3875401556484697,1.104140351827727
-4.057,0.3555296310754509,1.029963882991622
-4.0565,0.3448594562177392,0.9345941373450475
-4.056,0.3341892813600565,0.8180311148882058
-4.0555,0.3555296310754024,0.5743084315695766
-4.055,0.270168232213427,-0.2204394488190219
-4.0545,-0.3166913849585846,-1.121153713257435
-4.054,-1.052933450138017,-1.799338571187533
-4.0535,-0.839529952984442,-2.085447808127382
-4.053,-0.1886492866663929,-1.767548655972648
-4.0525,0.2808384070716433,-1.004590690800593
-4.052,0.5049120790830177,-0.3793890248953768
-4.0515,0.5475927785137094,-0.008506680714854012
-4.051,0.5049120790829789,0.13984625695749
-4.0505,0.4515612047946141,0.1716361721729634
-4.05,0.3982103305061524,0.13984625695749
-4.0495,0.4515612047945656,0.1928294489833272
-4.049,0.5689331282289678,0.2987958330349052
-4.0485,0.5475927785136414,0.2670059178194607
-4.048,0.4729015545099309,0.2246193641988295
-4.0475,0.3982103305062203,0.2034260873885139
-4.047,0.1848068333518008,0.3941655786816241
-4.0465,-0.5834457564006506,0.5213252395435176
-4.046,-1.405049220441467,-0.1886495336020547
-4.0455,-1.938557963326666,-1.025783967611467
-4.045,-2.290673733629873,-1.619195718300304
-4.0445,-1.853196564464885,-1.492036057438295
-4.044,-1.052933450138056,-0.7502713690758708
-4.0435,-0.3593720843893152,0.02328323450064829
-4.043,0.09944543449103843,0.6060983467848571
-4.0425,0.344859456217516,0.9451907757499065
-4.042,0.4302208550792003,1.104140351827727
-4.0415,0.4408910299368829,1.146526905448396
-4.041,0.4088805053638641,1.114736990232923
-4.0405,0.3768699807907677,1.040560521396635
-4.04,0.3555296310754218,0.9451907757502149
-4.0395,0.3448594562177489,0.8392243916986369
-4.039,0.3448594562177974,0.6908714540256569
-4.0385,0.408880505363835,0.09745970333682032
-4.038,0.3555296310754703,-0.8138511995067501
-4.0375,-0.1993194615242502,-1.587405803085033
-4.037,-0.391382608962363,-1.84172512480882
-4.0365,-0.007256314085787988,-1.629792356705471
-4.036,0.3341892813602021,-1.01518732920524
-4.0355,0.4942419042252961,-0.4429688553267188
-4.035,0.5155822539406614,-0.08268314955102604
-4.0345,0.4835717293676426,0.07626642652634089
-4.034,0.4408910299368829,0.1080563417419877
-4.0335,0.3982103305061524,0.08686306493165288
-4.033,0.3875401556484794,0.08686306493165288
-4.0325,0.5262524287983635,0.2458126410091837
-4.032,0.5475927785137094,0.2670059178194992
-4.0315,0.4942419042253446,0.2352160026040259
-4.031,0.41955068022144,0.2140227257937103
-4.0305,0.3341892813600565,0.2670059178194992
-4.03,-0.1886492866659174,0.5425185163536019
-4.0295,-0.8608703027008456,0.05507314971538921
-4.029,-1.351698346153801,-0.7820612842920766
-4.0285,-1.746494815888059,-1.364876396576285
-4.028,-1.863866739322063,-1.566212526273946
-4.0275,-1.30901764672307,-0.9939940523954253
-4.027,-0.6261264558313813,-0.1992461720078678
-4.0265,-0.09261771294773447,0.4683420475170733
-4.026,0.2274875327832301,0.8922075837243778
-4.0255,0.3768699807907871,1.114736990232894
-4.025,0.4302208550791518,1.199510097474156
-4.0245,0.4195506802214886,1.188913459069008
-4.024,0.3875401556484697,1.125333628638062
-4.0235,0.3661998059331239,1.029963882991641
-4.023,0.3448594562177392,0.913400860534597
-4.0225,0.3448594562177392,0.7862411996727035
-4.022,0.3982103305061039,0.3623756634663917
-4.0215,0.1848068333518688,-0.5277419625688389
-4.021,-0.5087545323968721,-1.38606967338662
-4.0205,-1.010252750707956,-1.873515040024322
-4.02,-0.7328282044077126,-1.778145294377276
-4.0195,-0.1886492866663929,-1.184733543688439
-4.019,0.2061471830678648,-0.6231117082145651
-4.0185,0.4088805053636506,-0.2310360872237267
-4.018,0.4729015545099309,-0.02969995752518888
-4.0175,0.4622313796522482,0.03387987290581572
-4.017,0.4302208550792295,0.04447651131097351
-4.0165,0.3875401556485862,0.04447651131113736
-4.016,0.5155822539406614,0.2140227257936621
-4.0155,0.6116138276597177,0.3411823866555556
-4.015,0.5582629533713145,0.298795833034963
-4.0145,0.4729015545099309,0.2564092794143318
-4.014,0.3875401556485474,0.245812641009174
-4.0135,0.07810508477498412,0.5637117931641104
-4.013,-0.6794773301197943,0.4789386859228479
-4.0125,-1.351698346153801,-0.3370024712750445
-4.012,-1.746494815888224,-1.015187329206107
-4.0115,-1.927887788468663,-1.396666311791788
-4.011,-1.426389570157579,-1.025783967610927
-4.0105,-0.7328282044088383,-0.2946159176550397
-4.01,-0.156638762093345,0.3729723018711736
-4.0095,0.1954770082101822,0.8392243916985406
-4.009,0.3661998059329492,1.104140351827486
-4.0085,0.4302208550791906,1.220703374284597
-4.008,0.4195506802215176,1.25249328950007
-4.0075,0.3982103305061718,1.210106735879439
-4.007,0.366199805933085,1.125333628637956
-4.0065,0.3448594562177392,1.00877060618122
-4.006,0.3448594562177392,0.8922075837243778
-4.0055,0.3555296310753053,0.6590815388099907
-4.005,0.2274875327832301,-0.1144730647665284
-4.0045,-0.391382608962363,-1.046977244421262
-4.004,-1.020922925565532,-1.746355379162496
-4.0035,-0.9035510021311299,-1.947691508860494
-4.003,-0.3273615598162672,-1.502632695843462
-4.0025,0.142126133921342,-0.8138511995082053
-4.002,0.4195506802215176,-0.2734226408440398
-4.0015,0.5262524287983441,0.01268659609548085
-4.001,0.515582253940671,0.07626642652642762
-4.0005,0.4622313796522094,0.0444765113109446
-4,0.4195506802215176,0.002089957690313421
-3.9995,0.4408910299368829,0.01268659609548085
-3.999,0.5475927785137094,0.05507314971615059
-3.9985,0.5262524287983441,0.05507314971615059
-3.998,0.4622313796522482,0.06566978812131802
-3.9975,0.3982103305061524,0.09745970333682032
-3.997,0.2488278824985954,0.309392471440169
-3.9965,-0.4447334832507763,0.5107286011383502
-3.996,-1.234326422719292,-0.1568596183871981
-3.9955,-1.639793067311232,-0.9198175835592532
-3.995,-1.917217613610981,-1.396666311791788
-3.9945,-1.67180359188428,-1.311893204550448
-3.994,-0.9889124009925911,-0.6125150698093976
-3.9935,-0.3487019095316325,0.1504428953626575
-3.993,0.08877525963335578,0.7226613692416989
-3.9925,0.3235191065023739,1.082947075017392
-3.992,0.4195506802215176,1.25249328950007
-3.9915,0.4302208550792003,1.305476481525908
-3.991,0.408880505363835,1.273686566310405
-3.9905,0.3768699807907871,1.199510097474233
-3.99,0.3555296310754218,1.082947075017392
-3.9895,0.3448594562177392,0.9557874141553824
-3.989,0.3555296310754218,0.7862411996727035
-3.9885,0.3341892813600565,0.2034260873884947
-3.988,-0.06060718837420119,-0.7290780922662394
-3.9875,-0.6047861061160158,-1.545019249464132
-3.987,-0.7434983792658902,-1.958288147265661
-3.9865,-0.2846808603855366,-1.905304955239825
-3.986,0.1634664836371343,-1.333086481360783
-3.9855,0.408880505363835,-0.718481453861072
-3.985,0.5049120790829789,-0.2628260024388724
-3.9845,0.4942419042252961,-0.008506680714854012
-3.984,0.4515612047945656,0.09745970333682032
-3.9835,0.408880505363835,0.09745970333682032
-3.983,0.3982103305061524,0.08686306493165288
-3.9825,0.5262524287983441,0.2458126410091644
-3.982,0.5582629533713921,0.2776025562246667
-3.9815,0.5049120790829789,0.2246193641988295
-3.981,0.4302208550792003,0.1822328105781598
-3.9805,0.3555296310754218,0.2246193641988295
-3.98,-0.124628237520297,0.5849050699745222
-3.9795,-0.9889124009925911,0.2352160026039969
-3.979,-1.67180359188428,-0.6125150698093976
-3.9785,-2.055929886760855,-1.205926820498774
-3.978,-2.07727023647622,-1.492036057438295
-3.9775,-1.394379045584531,-1.01518732920576
-3.977,-0.6474668055467465,-0.252229364033705
-3.9765,-0.08194753808956648,0.3941655786815084
-3.976,0.2488278824985954,0.8286277532933731
-3.9755,0.408880505363835,1.061753798207057
-3.975,0.4408910299368829,1.167720182258731
-3.9745,0.4302208550792003,1.178316820663898
-3.974,0.3982103305061524,1.135930267043229
-3.9735,0.3661998059331045,1.051157159801889
-3.973,0.3555296310754218,0.9557874141553824
-3.9725,0.3448594562177392,0.849821030103708
-3.972,0.3875401556484697,0.4683420475176805
-3.9715,0.2168173579255475,-0.4217755785163839
-3.971,-0.5194247072545548,-1.301296566145281
-3.9705,-1.180975548430879,-1.926498232050159
-3.97,-0.754168554123573,-2.149027638558676
-3.9695,-0.124628237520297,-1.555615887869299
-3.969,0.2701682322139607,-0.792657922697244
-3.9685,0.4622313796522482,-0.2310360872233701
-3.968,0.5049120790829789,0.08686306493165288
-3.9675,0.4835717293676135,0.1928294489833272
-3.967,0.4408910299368829,0.1822328105781598
-3.9665,0.408880505363835,0.1292496185523226
-3.966,0.4835717293676135,0.02328323450064829
-3.9655,0.5475927785137094,-0.04029659593035631
-3.965,0.5049120790829789,-0.01910331912002144
-3.9645,0.4408910299368829,0.04447651131098315
-3.964,0.3875401556484697,0.1186529801471552
-3.9635,0.07810508477567314,0.457745409112513
-3.963,-0.690147504977477,0.4789386859228479
-3.9625,-1.426389570157579,-0.3052125560595421
-3.962,-1.959898313041711,-1.110557074852267
-3.9615,-2.130621110764634,-1.555615887869299
-3.961,-1.490410619303675,-1.163540266878104
-3.9605,-0.7328282044082075,-0.4111789401112165
-3.96,-0.1352984123779797,0.2670059178194992
-3.9595,0.2274875327832301,0.7226613692416989
-3.959,0.3982103305061524,0.9769806909657173
-3.9585,0.4515612047945656,1.093543713422559
-3.958,0.4408910299368829,1.114736990232894
-3.9575,0.408880505363835,1.072350436612224
-3.957,0.3768699807907871,0.9981739677760521
-3.9565,0.3661998059331045,0.9028042221295453
-3.956,0.3555296310754218,0.7968378380778709
-3.9555,0.3661998059331045,0.6060983467848571
-3.955,0.3235191065023739,-0.1144730647665284
-3.9545,-0.1459685872356623,-1.01518732920576
-3.954,-0.7861790786966207,-1.703968825541643
-3.9535,-0.754168554123573,-1.79933857118815
-3.953,-0.2526703358124887,-1.333086481360783
-3.9525,0.1741366584948169,-0.6972881770507372
-3.952,0.408880505363835,-0.2204394488182027
-3.9515,0.4835717293676135,0.02328323450064829
-3.951,0.4835717293676135,0.1292496185523226
-3.9505,0.4515612047945656,0.13984625695749
-3.95,0.4195506802215176,0.1292496185523226
-3.9495,0.4515612047945656,0.1716361721729923
-3.949,0.5582629533713921,0.3411823866556712
-3.9485,0.5582629533713921,0.3517790250608387
-3.948,0.4942419042252961,0.3199891098453364
-3.9475,0.4195506802215176,0.2987958330350016
-3.947,0.2808384070716433,0.4365521323021782
-3.9465,-0.3807124341046804,0.5849050699745222
-3.946,-1.234326422719292,-0.1038764263613609
-3.9455,-1.917217613610981,-0.9092209451540858
-3.945,-2.408045657064382,-1.417859588602123
-3.9445,-2.055929886760855,-1.42845622700729
-3.944,-1.202315898146244,-0.7714646458869092
-3.9435,-0.4447334832507763,-0.01910331912002144
-3.943,0.0674349099179905,0.5743084315693548
-3.9425,0.3341892813600565,0.9345941373450475
-3.942,0.4408910299368829,1.114736990232894
-3.9415,0.4622313796522482,1.167720182258731
-3.941,0.4302208550792003,1.146526905448396
-3.9405,0.3982103305061524,1.082947075017392
-3.94,0.3768699807907871,0.9875773293708847
-3.9395,0.3555296310754218,0.8816109453192104
-3.939,0.3661998059331045,0.7438546460520338
-3.9385,0.3448594562177392,0.2352160026039969
-3.938,-0.1139580626626144,-0.6760949002404023
-3.9375,-0.8822106524157645,-1.492036057438295
-3.937,-1.244996597576974,-1.852321763213987
-3.9365,-0.7328282044082075,-1.555615887869299
-3.936,-0.124628237520297,-0.8774310299385835
-3.9355,0.3021787567870086,-0.2946159176543747
-3.935,0.5049120790829789,0.02328323450064829
-3.9345,0.5369226036560266,0.13984625695749
-3.934,0.5155822539406614,0.13984625695749
-3.9335,0.4622313796522482,0.06566978812131802
-3.933,0.4302208550792003,0.02328323450064829
-3.9325,0.5582629533713921,0.2034260873884947
-3.932,0.6009436528021226,0.2881991946298341
-3.9315,0.5369226036560266,0.2670059178194992
-3.931,0.4622313796522482,0.2564092794143318
-3.9305,0.3768699807907871,0.309392471440169
-3.93,-0.1032878878049318,0.6484849004055269
-3.9295,-0.8928808272734472,0.309392471440169
-3.929,-1.543761493592088,-0.570128516188728
-3.9285,-2.013249187330125,-1.311893204550448
-3.928,-1.885207089037933,-1.47084278062796
-3.9275,-1.180975548430879,-0.8562377531282487
-3.927,-0.4767440078238243,-0.07208651114585861
-3.9265,0.02475421048725994,0.5637117931641874
-3.926,0.3128489316446912,0.9769806909657173
-3.9255,0.4302208550792003,1.188913459069066
-3.925,0.4515612047945656,1.263089927905238
-3.9245,0.4408910299368829,1.263089927905238
-3.924,0.408880505363835,1.199510097474233
-3.9235,0.3768699807907871,1.114736990232894
-3.923,0.3661998059331045,0.9981739677760521
-3.9225,0.3661998059331045,0.8710143069140429
-3.922,0.4195506802215176,0.5213252395435176
-3.9215,0.4515612047945656,-0.3581957480853793
-3.921,-0.1459685872356623,-1.248313374119443
-3.9205,-0.7114878546928423,-1.873515040024322
-3.92,-0.3060212101009019,-2.149027638558676
-3.9195,0.2168173579255475,-1.725162102351978
-3.919,0.5262524287983441,-0.9939940523954253
-3.9185,0.6222840025174878,-0.400582301706049
-3.918,0.5902734779444399,-0.04029659593035631
-3.9175,0.5262524287983441,0.1080563417419877
-3.917,0.4622313796522482,0.1080563417419877
-3.9165,0.408880505363835,0.07626642652648545
-3.916,0.4515612047945656,0.1822328105781598
-3.9155,0.5155822539406614,0.2881991946298341
-3.915,0.4942419042252961,0.2246193641988295
-3.9145,0.4408910299368829,0.1504428953626575
-3.914,0.3875401556484697,0.1080563417419877
-3.9135,0.1634664836371343,0.3199891098453364
-3.913,-0.6047861061160158,0.2987958330350016
-3.9125,-1.426389570157579,-0.4429688553267188
-3.912,-1.991908837614759,-1.163540266878104
-3.9115,-2.312014083345239,-1.608599079895136
-3.911,-1.789175515318789,-1.364876396576285
-3.9105,-0.9675720512772257,-0.5913217929990628
-3.91,-0.2846808603855366,0.1822328105781598
-3.9095,0.1527963087794516,0.7332580076468663
-3.909,0.3768699807907871,1.061753798207057
-3.9085,0.4622313796522482,1.210106735879401
-3.908,0.4622313796522482,1.241896651094903
-3.9075,0.4302208550792003,1.199510097474233
-3.907,0.3982103305061524,1.125333628638062
-3.9065,0.3768699807907871,1.00877060618122
-3.906,0.3661998059331045,0.8922075837243778
-3.9055,0.3875401556484697,0.701468092431364
-3.905,0.408880505363835,0.01268659609548085
-3.9045,-0.007256314085787988,-0.9198175835592532
-3.904,-0.7008176798351597,-1.661582271920973
-3.9035,-0.690147504977477,-1.937094870455327
-3.903,-0.156638762093345,-1.650985633515806
-3.9025,0.2808384070716433,-0.9622041371799229
-3.902,0.4942419042252961,-0.3687923864905467
-3.9015,0.5475927785137094,-0.02969995752518888
-3.901,0.5262524287983441,0.1080563417419877
-3.9005,0.4729015545099309,0.1186529801471552
-3.9,0.4195506802215176,0.08686306493165288
-3.8995,0.4408910299368829,0.09745970333682032
-3.899,0.5796033030867573,0.1928294489833272
-3.8985,0.5796033030867573,0.1928294489833272
-3.898,0.5155822539406614,0.1504428953626575
-3.8975,0.4408910299368829,0.13984625695749
-3.897,0.3235191065023739,0.2670059178194992
-3.8965,-0.3060212101009019,0.5637117931641874
-3.896,-1.127624674142465,0.002089957690313421
-3.8955,-1.703814116457328,-0.8138511995075789
-3.895,-2.07727023647622,-1.333086481360783
-3.8945,-1.810515865034154,-1.364876396576285
-3.894,-1.074273799854052,-0.718481453861072
-3.8935,-0.391382608962363,0.02328323450064829
-3.893,0.08877525963335578,0.6060983467848571
-3.8925,0.3448594562177392,0.9663840525605498
-3.892,0.4408910299368829,1.157123543853563
-3.8915,0.4622313796522482,1.220703374284568
-3.891,0.4408910299368829,1.210106735879401
-3.8905,0.408880505363835,1.146526905448396
-3.89,0.3768699807907871,1.061753798207057
-3.8895,0.3661998059331045,0.9451907757502149
-3.889,0.3661998059331045,0.8074344764830383
-3.8885,0.408880505363835,0.2881991946298341
-3.888,0.3021787567870086,-0.6337083466197325
-3.8875,-0.2633405106701714,-1.460246142222792
-3.887,-0.6794773301197943,-1.958288147265661
-3.8865,-0.3380317346739499,-1.831128486403653
-3.886,0.09944543449103843,-1.152943628472937
-3.8855,0.3768699807907871,-0.4959520473525559
