Class_1_Relax_eyes_closed/Class_1_Relax_eyes_closed_Basim_5.csv

#Digilent WaveForms Oscilloscope Acquisition
#Device Name: EExplorer
#Serial Number: SN:210151A2B84A
#Date Time: 2020-11-26 10:34:31.671
#Sample rate: 2000Hz
#Samples: 16384
#Trigger: Source: Channel 1 Type: Edge Condition: Rising Level: 0 V Hyst.: Auto HoldOff: 0 s
#Channel 1: Range: 1 V/div Offset: 0 V Attenuation: 1 X
#Channel 2: Range: 1 V/div Offset: 0 V Attenuation: 1 X
#Power Supplies: ON
#Fixed Supply: ON
#Voltage: 3.3 V Readback: 3.321 V
#Positive Supply: ON
#Voltage: 3.7 V Readback: 3.714 V
#Current: 500 mA Readback: 20 mA
#Negative Supply: ON
#Voltage: -3.7 V Readback: -3.705 V
#Current: -500 mA Readback: -8 mA
#Reference 1: ON
#Voltage: 0 V
#Reference 2: ON
#Voltage: 0 V

Time (s),Channel 1 (V),Channel 2 (V)
-4.096,-1.052933450138687,-1.767548655972648
-4.0955,-0.4447334832513294,-1.343683119766336
-4.095,0.1527963087797719,-0.7714646458863887
-4.0945,0.5049120790829789,-0.1992461720078678
-4.094,0.6329541773750541,0.2670059178190752
-4.0935,0.6329541773751221,0.521325239543614
-4.093,0.5796033030867573,0.627291623595192
-4.0925,0.5369226036560655,0.5849050699745607
-4.092,0.6969752265213343,0.2670059178192679
-4.0915,0.7716664505250448,0.01268659609548085
-4.091,0.6969752265212663,-0.09327978795619347
-4.0905,0.600943652802045,-0.1568596183872559
-4.09,0.5155822539406614,-0.2204394488182027
-4.0895,0.4195506802215176,-0.2310360872233701
-4.089,-0.1246282375198021,0.2034260873880995
-4.0885,-0.7861790786966207,0.9134008605347127
-4.088,-1.095614149569417,1.167720182258731
-4.0875,-1.437059745014952,0.4577454091131588
-4.087,-1.522421143876267,-0.4853554089476487
-4.0865,-1.020922925565639,-0.7714646458869092
-4.086,-0.4233931335359544,-0.6443049850250157
-4.0855,0.04609456020287753,-0.4005823017058274
-4.085,0.3235191065023739,-0.1568596183871981
-4.0845,0.462231379652122,0.03387987290564226
-4.084,0.4942419042252864,0.1716361721730791
-4.0835,0.4835717293676135,0.2670059178194992
-4.083,0.4622313796522482,0.3305857482505039
-4.0825,0.4408910299368732,0.3835689402763796
-4.082,0.4302208550792003,0.4259554938970107
-4.0815,0.4195506802215176,0.4365521323021782
-4.081,0.1527963087796942,0.1610395337680755
-4.0805,-0.6474668055467465,-0.6231117082145651
-4.08,-1.437059745015262,-1.396666311791788
-4.0795,-1.885207089037525,-1.767548655972311
-4.079,-1.309017646722274,-1.439052865412043
-4.0785,-0.4340633083930936,-0.9833974139902578
-4.078,0.2274875327826285,-0.4959520473529992
-4.0775,0.568933128229162,-0.008506680714526335
-4.077,0.6649647019482183,0.3517790250608387
-4.0765,0.6436243522328725,0.5531151547588369
-4.076,0.5902734779445175,0.6166949851898896
-4.0755,0.6756348768059011,0.4683420475176805
-4.075,0.8356874996711408,0.13984625695749
-4.0745,0.7823366253826207,-0.008506680714902199
-4.074,0.6649647019482183,-0.06148987274069118
-4.0735,0.5582629533713921,-0.1144730647665284
-4.073,0.4729015545100085,-0.1780528951974751
-4.0725,0.1207857842064037,0.06566978812131802
-4.072,-0.658136980404429,0.7120647308365314
-4.0715,-1.319687821580151,1.263089927904737
-4.071,-1.778505340461223,0.9663840525596535
-4.0705,-1.906547438753298,-0.01910331912002144
-4.07,-1.309017646723614,-0.5277419625675956
-4.0695,-0.5941159312578287,-0.5807251545937702
-4.069,-0.03926683865883591,-0.4429688553267188
-4.0685,0.3021787567870086,-0.252229364033705
-4.068,0.4622313796522967,-0.08268314955090075
-4.0675,0.5155822539406614,0.05507314971615059
-4.067,0.5049120790829789,0.1610395337678249
-4.0665,0.4729015545099114,0.2564092794143896
-4.066,0.4515612047945656,0.3199891098453364
-4.0655,0.4302208550792003,0.383568940276341
-4.065,0.4195506802215274,0.4153588554918144
-4.0645,0.3661998059331045,0.3623756634660061
-4.064,-0.1673089369510276,-0.2204394488182027
-4.0635,-0.7755089038383851,-1.025783967610195
-4.063,-1.362368521011425,-1.640388995110561
-4.0625,-1.298347471865388,-1.555615887869299
-4.062,-0.6367966306896654,-1.036380606016567
-4.0615,0.01408403562995577,-0.4853554089469163
-4.061,0.4302208550792003,0.03387987290581572
-4.0605,0.5902734779444399,0.4153588554918433
-4.06,0.6222840025174587,0.6060983467848859
-4.0595,0.5902734779444399,0.6378882620003594
-4.059,0.6009436528021226,0.5319218779486851
-4.0585,0.8036769750979084,0.1822328105784778
-4.058,0.79300680024041,0.02328323450064829
-4.0575,0.6969752265212663,-0.04029659593035631
-4.057,0.5796033030868641,-0.08268314955098749
-4.0565,0.4942419042252961,-0.1462629799820306
-4.056,0.3021787567870086,-0.09327978795619347
-4.0555,-0.3807124341040594,0.4577454091120119
-4.055,-0.9355615267044397,1.125333628638042
-4.0545,-1.223656247861609,1.104140351827727
-4.054,-1.511750969018778,0.1610395337686827
-4.0535,-1.234326422718768,-0.5065486857578486
-4.053,-0.658136980404429,-0.6443049850249
-4.0525,-0.124628237520297,-0.5383386009732256
-4.052,0.2274875327834048,-0.3475991096800576
-4.0515,0.4195506802215176,-0.1780528951975329
-4.051,0.4942419042252961,-0.04029659593035631
-4.0505,0.4942419042252961,0.06566978812122164
-4.05,0.4729015545099309,0.1504428953626575
-4.0495,0.4515612047945656,0.2140227257936621
-4.049,0.4302208550792198,0.267005917819451
-4.0485,0.4195506802215079,0.3093924714401786
-4.048,0.408880505363835,0.3199891098453364
-4.0475,0.01408403562993632,-0.1038764263609754
-4.047,-0.647466805547125,-0.8986243067495447
-4.0465,-1.06360362499637,-1.587405803084801
-4.046,-1.042263275281023,-1.767548655972484
-4.0455,-0.4660738329655884,-1.375473034980932
-4.045,0.142126133921769,-0.8032545611024114
-4.0445,0.5155822539406614,-0.2098428104130352
-4.044,0.6542945270905358,0.2881991946301136
-4.0435,0.6542945270905358,0.5955017083796896
-4.043,0.6009436528021226,0.7120647308365314
-4.0425,0.5475927785137579,0.6908714540262159
-4.042,0.6542945270905358,0.5637117931641874
-4.0415,0.707645401378949,0.4153588554918433
-4.041,0.6542945270905843,0.277602556224792
-4.0405,0.5689331282290164,0.129249618552207
-4.04,0.5049120790829789,0.002089957690313421
-4.0395,0.4195506802215953,-0.09327978795610674
-4.039,-0.09261771294790903,0.2776025562252739
-4.0385,-0.8181896032696687,0.9451907757502149
-4.038,-1.170305373572876,1.326669758335896
-4.0375,-1.479740444445925,0.7544512844564012
-4.037,-1.405049220442214,-0.1250697031716958
-4.0365,-0.8608703027003992,-0.4959520473525559
-4.036,-0.2846808603851582,-0.5383386009731292
-4.0355,0.1314559590640864,-0.4323722169215513
-4.035,0.3661998059331045,-0.2840192792492073
-4.0345,0.4729015545098338,-0.1356663415769981
-4.034,0.4942419042252961,-0.008506680714854012
-4.0335,0.4835717293676135,0.09745970333682032
-4.033,0.4622313796522676,0.1822328105780827
-4.0325,0.4302208550791906,0.2670059178195571
-4.032,0.4195506802215176,0.3305857482505039
-4.0315,0.4195506802215176,0.3729723018711351
-4.031,0.2061471830672535,0.1610395337671792
-4.0305,-0.4660738329661415,-0.5489352393783931
-4.03,-0.8288597781270215,-1.248313374118807
-4.0295,-0.9569018764192229,-1.640388995110398
-4.029,-0.6047861061160158,-1.375473034981453
-4.0285,-0.01792648894347063,-0.8774310299385835
-4.028,0.4088805053640194,-0.3475991096797589
-4.0275,0.6116138276598051,0.1504428953626575
-4.027,0.6436243522328531,0.5001319627331828
-4.0265,0.6116138276598342,0.6802748156208652
-4.026,0.5582629533713921,0.701468092431364
-4.0255,0.6009436528021226,0.5637117931641874
-4.025,0.7183155762365248,0.3199891098455581
-4.0245,0.6863050516635062,0.171636172172896
-4.024,0.6009436528021226,0.06566978812131802
-4.0235,0.515582253940739,-0.02969995752510214
-4.023,0.4622313796520153,-0.1250697031715609
-4.0225,0.2061471830678648,0.02328323450064829
-4.022,-0.5621054066845865,0.6484849004049582
-4.0215,-1.180975548431199,1.284283204715428
-4.021,-1.533091318734406,1.125333628638062
-4.0205,-1.735824641030376,0.1292496185523226
-4.02,-1.277007122149421,-0.453565493731973
-4.0195,-0.6154562809736985,-0.5489352393783931
-4.019,-0.07127736323188383,-0.4217755785163839
-4.0185,0.2701682322136502,-0.2522293640338592
-4.018,0.4408910299368829,-0.09327978795619347
-4.0175,0.4942419042252961,0.03387987290581572
-4.017,0.4942419042252961,0.1186529801470781
-4.0165,0.4729015545099018,0.1928294489833754
-4.016,0.4408910299368829,0.2458126410091644
-4.0155,0.43022085507921,0.2881991946297956
-4.015,0.4195506802214594,0.3199891098452882
-4.0145,0.3555296310754218,0.2670059178194992
-4.014,-0.2420001609542626,-0.3158091944641795
-4.0135,-0.9462317015620351,-1.121153713257984
-4.013,-1.138294849000148,-1.725162102351978
-4.0125,-0.7968492535543035,-1.75695201756748
-4.012,-0.1673089369505618,-1.280103289334396
-4.0115,0.3448594562177392,-0.6760949002404023
-4.011,0.6009436528021226,-0.08268314955102604
-4.0105,0.6542945270904873,0.383568940275917
-4.01,0.6329541773751706,0.6590815388106942
-4.0095,0.5796033030867573,0.775644561267536
-4.009,0.5689331282290843,0.7332580076469049
-4.0085,0.728985751094324,0.5955017083795451
-4.008,0.7396559259519968,0.4365521323021782
-4.0075,0.6542945270906134,0.288199194629969
-4.007,0.5582629533713241,0.1292496185521973
-4.0065,0.4835717293676135,-0.008506680714854012
-4.006,0.3555296310754218,-0.02969995752518888
-4.0055,-0.2526703358130322,0.4683420475182684
-4.005,-0.8502001278427167,1.114736990232894
-4.0045,-1.287677297007705,1.210106735879401
-4.004,-1.714484291314817,0.330585748249781
-4.0035,-1.501080794161358,-0.4641621321370536
-4.003,-0.8715404775580819,-0.6654982618352349
-4.0025,-0.2633405106707245,-0.5701285161888147
-4.002,0.1634664836371343,-0.3793890248957141
-4.0015,0.3875401556484697,-0.1992461720078678
-4.001,0.4835717293675261,-0.05089323433565865
-4.0005,0.5049120790829594,0.05507314971622768
-4,0.4835717293676135,0.13984625695749
-3.9995,0.4515612047945656,0.2034260873884947
-3.999,0.4302208550792003,0.2564092794143318
-3.9985,0.4195506802215176,0.309392471440169
-3.998,0.3982103305061524,0.3305857482505039
-3.9975,-0.007256314085787988,-0.07208651114585861
-3.997,-0.807519428411986,-0.8668343915334161
-3.9965,-1.501080794161358,-1.576809164679634
-3.996,-1.586442193022819,-1.75695201756748
-3.9955,-0.9142211769888124,-1.311893204550448
-3.995,-0.1673089369510276,-0.7290780922662394
-3.9945,0.3448594562177392,-0.1674562567923655
-3.994,0.5796033030867573,0.2987958330350016
-3.9935,0.6436243522328531,0.6060983467848571
-3.993,0.6116138276598051,0.7438546460520338
-3.9925,0.5689331282290746,0.7226613692416989
-3.992,0.7289857510943143,0.383568940276341
-3.9915,0.825017324813458,0.08686306493165288
-3.991,0.7503261008096795,-0.008506680714854012
-3.9905,0.6329541773751706,-0.05089323433552374
-3.99,0.5262524287983441,-0.1038764263613609
-3.9895,0.4302208550792003,-0.1356663415768632
-3.989,-0.08194753808956648,0.2458126410091644
-3.9885,-0.839529952985034,0.9134008605347127
-3.988,-1.170305373573196,1.25249328950007
-3.9875,-1.458400094730627,0.6908714540261965
-3.987,-1.501080794161358,-0.2416327256285375
-3.9865,-0.9889124009925911,-0.6125150698093976
-3.986,-0.391382608962363,-0.6125150698093976
-3.9855,0.0674349099179905,-0.4429688553267188
-3.985,0.3341892813600565,-0.2628260024388724
-3.9845,0.4622313796522482,-0.09327978795619347
-3.984,0.4942419042252961,0.03387987290581572
-3.9835,0.4835717293676135,0.13984625695749
-3.983,0.4622313796522482,0.2246193641988295
-3.9825,0.4408910299368829,0.2987958330350016
-3.982,0.4195506802215176,0.3517790250608387
-3.9815,0.4195506802215176,0.383568940276341
-3.981,0.2168173579255475,0.1928294489833272
-3.9805,-0.5514352318276028,-0.5383386009732256
-3.98,-1.26633694729234,-1.301296566145281
-3.9795,-1.51175096901904,-1.746355379162313
-3.979,-1.042263275281004,-1.492036057438295
-3.9785,-0.274010685527854,-0.9728007755850904
-3.978,0.3021787567870086,-0.4111789401112165
-3.9775,0.5902734779444399,0.13984625695749
-3.977,0.6756348768059011,0.5107286011383502
-3.9765,0.6436243522328531,0.6802748156210291
-3.976,0.5796033030867573,0.6908714540261965
-3.9755,0.6436243522328531,0.5107286011383502
-3.975,0.8036769750980928,0.1928294489833272
-3.9745,0.7609962756673623,0.04447651131098315
-3.974,0.6542945270905358,-0.01910331912002144
-3.9735,0.5582629533713921,-0.08268314955102604
-3.973,0.4729015545099309,-0.1674562567923655
-3.9725,0.1741366584948169,0.02328323450064829
-3.972,-0.6474668055467465,0.6590815388106942
-3.9715,-1.287677297007705,1.241896651094903
-3.971,-1.618452717595867,1.019367244586387
-3.9705,-1.821186039891837,0.03387987290581572
-3.97,-1.351698346153801,-0.5489352393783931
-3.9695,-0.658136980404429,-0.6231117082145651
-3.969,-0.09261771294724913,-0.4853554089473885
-3.9685,0.2594980573562781,-0.2840192792492073
-3.968,0.4408910299368829,-0.1038764263613609
-3.9675,0.5049120790829789,0.03387987290581572
-3.967,0.4942419042252961,0.1504428953626575
-3.9665,0.4729015545099309,0.2246193641988295
-3.966,0.4515612047945656,0.2987958330350016
-3.9655,0.4302208550792003,0.3411823866556712
-3.965,0.4195506802215176,0.3729723018711736
-3.9645,0.3341892813600565,0.2987958330350016
-3.964,-0.2846808603855366,-0.3158091944647096
-3.9635,-0.9889124009925911,-1.121153713257435
-3.963,-1.319687821580753,-1.714565463946811
-3.9625,-1.052933450138687,-1.661582271920973
-3.962,-0.3593720843893152,-1.174136905283272
-3.9615,0.2381577076409128,-0.6019184314042303
-3.961,0.5689331282290746,-0.04029659593035631
-3.9605,0.6649647019482183,0.3729723018711736
-3.96,0.6542945270905358,0.6166949851900245
-3.9595,0.5902734779444399,0.7120647308365314
-3.959,0.5582629533713921,0.6378882620003594
-3.9585,0.7503261008096795,0.2246193641988295
-3.958,0.7823366253827275,-0.008506680714854012
-3.9575,0.6969752265212663,-0.07208651114585861
-3.957,0.5902734779444399,-0.1038764263613609
-3.9565,0.5049120790829789,-0.1462629799820306
-3.956,0.3555296310754218,-0.1038764263613609
-3.9555,-0.2953510352432193,0.4153588554918433
-3.955,-0.9248913518464952,1.061753798207057
-3.9545,-1.26633694729234,1.051157159801889
-3.954,-1.629122892453549,0.1292496185523226
-3.9535,-1.533091318734406,-0.7078848154559045
-3.953,-0.9355615267041777,-0.8456411147230812
-3.9525,-0.3273615598162672,-0.6443049850249
-3.952,0.1101156093487211,-0.3793890248957141
-3.9515,0.3661998059331045,-0.1356663415768632
-3.951,0.4729015545099309,0.04447651131098315
-3.9505,0.5049120790829789,0.1716361721729923
-3.95,0.4835717293676135,0.2564092794143318
-3.9495,0.4515612047945656,0.3199891098453364
-3.949,0.4302208550792003,0.3623756634660061
-3.9485,0.4195506802215176,0.383568940276341
-3.948,0.408880505363835,0.3941655786815084
-3.9475,0.04609456020262521,0.02328323450064829
-3.947,-0.8181896032696687,-0.7820612842920766
-3.9465,-1.650463242168915,-1.523825972653797
-3.946,-1.906547438753298,-1.767548655972648
-3.9455,-1.191645723288561,-1.364876396576285
-3.945,-0.3380317346739499,-0.7820612842920766
-3.9445,0.2701682322139607,-0.2310360872233701
-3.944,0.5689331282290746,0.2670059178194992
-3.9435,0.6542945270905358,0.5849050699745222
-3.943,0.6329541773751706,0.6908714540261965
-3.9425,0.5796033030867573,0.6484849004055269
-3.942,0.707645401378949,0.3623756634660061
-3.9415,0.7823366253827275,0.08686306493165288
-3.941,0.707645401378949,-0.008506680714854012
-3.9405,0.6116138276598051,-0.06148987274069118
-3.94,0.5155822539406614,-0.1144730647665284
-3.9395,0.4408910299368829,-0.1462629799820306
-3.939,-0.007256314085787988,0.1928294489833272
-3.9385,-0.8502001278427167,0.8710143069140429
-3.938,-1.458400094730627,1.369056311956912
-3.9375,-1.906547438753298,0.8922075837243778
-3.937,-1.938557963326346,-0.1250697031716958
-3.9365,-1.26633694729234,-0.5489352393783931
-3.936,-0.5407650569699201,-0.5383386009732256
-3.9355,0.00341386077189465,-0.3581957480853793
-3.935,0.3341892813600565,-0.1568596183871981
-3.9345,0.4835717293676135,0.01268659609548085
-3.934,0.5155822539406614,0.13984625695749
-3.9335,0.5049120790829789,0.2352160026039969
-3.933,0.4729015545099309,0.2987958330350016
-3.9325,0.4515612047945656,0.3411823866556712
-3.932,0.4302208550792003,0.383568940276341
-3.9315,0.4195506802215176,0.3941655786815084
-3.931,0.2381577076409128,0.1928294489833272
-3.9305,-0.4554036581084589,-0.5489352393783931
-3.93,-0.9355615267041777,-1.333086481360783
-3.9295,-1.074273799854052,-1.820531847998485
-3.929,-0.7008176798351597,-1.629792356705471
-3.9285,-0.09261771294724913,-1.078767159636765
-3.928,0.3768699807907871,-0.4429688553267188
-3.9275,0.5902734779444399,0.1292496185523226
-3.927,0.6329541773751706,0.4895353243280153
-3.9265,0.6009436528021226,0.6378882620003594
-3.926,0.5582629533713921,0.6378882620003594
-3.9255,0.6116138276598051,0.4789386859228479
-3.925,0.7823366253827275,0.1186529801471552
-3.9245,0.7609962756673623,-0.04029659593035631
-3.924,0.6542945270905358,-0.1144730647665284
-3.9235,0.5582629533713921,-0.1674562567923655
-3.923,0.4835717293676135,-0.2310360872233701
-3.9225,0.1954770082101822,-0.02969995752518888
-3.922,-0.6047861061160158,0.627291623595192
-3.9215,-1.373038695869166,1.273686566310405
-3.921,-1.789175515318789,1.263089927905238
-3.9205,-2.03458953704549,0.2776025562246667
-3.92,-1.543761493592088,-0.4217755785163839
-3.9195,-0.7861790786966207,-0.5595318777835605
-3.919,-0.1673089369510276,-0.4217755785163839
-3.9185,0.2381577076409128,-0.2098428104130352
-3.918,0.4408910299368829,-0.01910331912002144
-3.9175,0.5155822539406614,0.1292496185523226
-3.917,0.5155822539406614,0.2458126410091644
-3.9165,0.4835717293676135,0.3199891098453364
-3.916,0.4515612047945656,0.383568940276341
-3.9155,0.4408910299368829,0.4153588554918433
-3.915,0.4195506802215176,0.4365521323021782
-3.9145,0.3768699807907871,0.3729723018711736
-3.914,-0.1673089369510276,-0.2098428104130352
-3.9135,-0.9782422261349084,-1.036380606016095
-3.913,-1.319687821580753,-1.682775548731308
-3.9125,-1.042263275281004,-1.693372187136476
-3.912,-0.3487019095316325,-1.290699927740113
-3.9115,0.2594980573562781,-0.7820612842920766
-3.911,0.5902734779444399,-0.252229364033705
-3.9105,0.6756348768059011,0.2034260873884947
-3.91,0.6542945270905358,0.4895353243280153
-3.9095,0.6009436528021226,0.627291623595192
-3.909,0.5796033030867573,0.6696781772158616
-3.9085,0.8036769750980928,0.7968378380778709
-3.908,0.8356874996711408,0.701468092431364
-3.9075,0.7289857510943143,0.4683420475176805
-3.907,0.6116138276598051,0.2246193641988295
-3.9065,0.5155822539406614,0.02328323450064829
-3.906,0.3661998059331045,-0.02969995752518888
-3.9055,-0.3060212101009019,0.4365521323021782
-3.905,-0.9355615267041777,1.082947075017392
-3.9045,-1.255666772434657,1.231300012689736
-3.904,-1.629122892453549,0.383568940276341
-3.9035,-1.479740444445993,-0.4323722169215513
-3.903,-0.8715404775580819,-0.6443049850249
-3.9025,-0.274010685527854,-0.5277419625680583
-3.902,0.1527963087794516,-0.3052125560595421
-3.9015,0.3875401556484697,-0.09327978795619347
-3.901,0.4835717293676135,0.06566978812131802
-3.9005,0.5049120790829789,0.1928294489833272
-3.9,0.4835717293676135,0.2881991946298341
-3.8995,0.4622313796522482,0.3623756634660061
-3.899,0.4408910299368829,0.4047622170866759
-3.8985,0.4302208550792003,0.4471487707073456
-3.898,0.408880505363835,0.4471487707073456
-3.8975,0.05676473506030786,0.06566978812131802
-3.897,-0.722158029550525,-0.7396747306714069
-3.8965,-1.415719395299897,-1.47084278062796
-3.896,-1.703814116457328,-1.75695201756748
-3.8955,-1.095614149569417,-1.375473034981453
-3.895,-0.3060212101009019,-0.8244478379127463
-3.8945,0.2808384070716433,-0.252229364033705
-3.894,0.5582629533713921,0.2246193641988295
-3.8935,0.6436243522328531,0.5107286011383502
-3.893,0.6222840025174878,0.6060983467848571
-3.8925,0.5689331282290746,0.5955017083796896
-3.892,0.6863050516635838,0.4153588554918433
-3.8915,0.79300680024041,0.13984625695749
-3.891,0.7289857510943143,-0.008506680714854012
-3.8905,0.6222840025174878,-0.1144730647665284
-3.89,0.5262524287983441,-0.1886495336027004
-3.8895,0.4515612047945656,-0.2416327256285375
-3.889,-0.01792648894347063,0.1080563417419877
-3.8885,-0.8608703027003992,0.8074344764830383
-3.888,-1.394379045584531,1.263089927905238
-3.8875,-1.767835165603424,0.7650479228623686
-3.887,-1.789175515318789,-0.1992461720078678
