Class_1_Relax_eyes_closed/Class_1_Relax_eyes_closed_Basim_11.csv

#Digilent WaveForms Oscilloscope Acquisition
#Device Name: EExplorer
#Serial Number: SN:210151A2B84A
#Date Time: 2021-02-03 11:02:10.368
#Sample rate: 2000Hz
#Samples: 16384
#Trigger: Source: Channel 1 Type: Edge Condition: Rising Level: 0 V Hyst.: Auto HoldOff: 0 s
#Channel 1: Range: 1 V/div Offset: 0 V Attenuation: 1 X
#Channel 2: Range: 1 V/div Offset: 0 V Attenuation: 1 X
#Power Supplies: ON
#Fixed Supply: ON
#Voltage: 3.3 V Readback: 3.324 V
#Positive Supply: ON
#Voltage: 3.7 V Readback: 3.716 V
#Current: 40 mA Readback: 19 mA
#Negative Supply: ON
#Voltage: -3.7 V Readback: -3.345 V
#Current: -40 mA Readback: -7 mA
#Reference 1: ON
#Voltage: 0 V
#Reference 2: ON
#Voltage: 0 V

Time (s),Channel 1 (V),Channel 2 (V)
-4.096,-1.447729919872945,-1.894708316834657
-4.0955,-0.8502001278432602,-1.990078062481077
-4.095,-0.2206598112390527,-1.428456227006731
-4.0945,0.2061471830678648,-0.8138511995075789
-4.094,0.4302208550789965,-0.3370024712754782
-4.0935,0.5049120790829692,-0.06148987274058516
-4.093,0.4942419042252961,0.05507314971615059
-4.0925,0.4729015545099503,0.07626642652646617
-4.092,0.5689331282291037,-0.07208651114595499
-4.0915,0.6009436528021226,-0.1780528951975329
-4.091,0.5262524287983441,-0.1886495336027004
-4.0905,0.4408910299368247,-0.1674562567923366
-4.09,0.3768699807907871,-0.1356663415768632
-4.0895,0.3235191065023739,-0.1038764263613609
-4.089,-0.01792648894316012,0.1186529801469528
-4.0885,-0.7008176798351597,-0.1780528951975329
-4.088,-0.9889124009925911,-0.8244478379127463
-4.0875,-1.20231589814605,-1.417859588601583
-4.087,-1.116954499284375,-1.481439419032636
-4.0865,-0.6688071552621118,-0.9410108603695881
-4.086,-0.2206598112398484,-0.326405832870436
-4.0855,0.09944543449120341,0.1610395337681044
-4.085,0.2808384070716433,0.4683420475176805
-4.0845,0.3555296310753538,0.6272916235950474
-4.084,0.3768699807907774,0.6908714540262062
-4.0835,0.3661998059331045,0.701468092431364
-4.083,0.3448594562177392,0.6802748156210291
-4.0825,0.3341892813600371,0.648484900405498
-4.082,0.3128489316446912,0.6166949851900245
-4.0815,0.3128489316446912,0.5637117931641874
-4.081,0.2701682322139995,0.3835689402765049
-4.0805,-0.07127736323188383,-0.2946159176543747
-4.08,-0.4980843575391895,-1.078767159636765
-4.0795,-0.732828204407994,-1.555615887868866
-4.079,-0.4980843575388207,-1.237716735713823
-4.0785,-0.09261771294724913,-0.7396747306714069
-4.078,0.2381577076406119,-0.2946159176547795
-4.0775,0.4302208550792683,-0.008506680714719085
-4.077,0.5049120790829789,0.13984625695749
-4.0765,0.4942419042253058,0.1610395337678057
-4.076,0.4729015545099697,0.118652980147213
-4.0755,0.5155822539406614,0.1822328105781598
-4.075,0.5689331282290746,0.2564092794143318
-4.0745,0.5155822539405934,0.1822328105780537
-4.074,0.4408910299368829,0.06566978812131802
-4.0735,0.3768699807907871,-0.01910331912002144
-4.073,0.3341892813600953,-0.06148987274065262
-4.0725,0.1527963087794516,0.08686306493165288
-4.072,-0.4980843575391895,0.13984625695749
-4.0715,-1.266336947291641,-0.4641621321365042
-4.071,-1.927887788468877,-0.7184814538604841
-4.0705,-2.162631635337682,-0.07208651114585861
-4.07,-1.447729919873595,0.3199891098449798
-4.0695,-0.7008176798346454,0.4047622170866662
-4.069,-0.1352984123779797,0.3941655786815084
-4.0685,0.1954770082101822,0.383568940276341
-4.068,0.3555296310754703,0.4047622170867241
-4.0675,0.408880505363835,0.457745409112513
-4.067,0.3982103305061524,0.5425185163538525
-4.0665,0.366199805933085,0.6378882620004269
-4.066,0.3448594562177392,0.7120647308365314
-4.0655,0.3235191065023739,0.7862411996727035
-4.065,0.312848931644701,0.8392243916984924
-4.0645,0.3128489316446912,0.8286277532933731
-4.064,0.1101156093487211,0.3623756634660061
-4.0635,-0.2420001609544858,-0.3475991096795662
-4.063,-0.7434983792659678,-0.9410108603695496
-4.0625,-0.8288597781273515,-0.8986243067489184
-4.062,-0.4447334832511257,-0.4429688553271331
-4.0615,-0.007256314085506558,-0.008506680714603435
-4.061,0.3021787567870086,0.2670059178194992
-4.0605,0.4622313796522482,0.3623756634660061
-4.06,0.5049120790829594,0.3517790250607519
-4.0595,0.4835717293676135,0.2564092794143318
-4.059,0.5049120790829789,0.09745970333682032
-4.0585,0.6542945270903999,-0.2204394488179136
-4.058,0.6329541773751706,-0.3370024712750445
-4.0575,0.5369226036560266,-0.326405832869877
-4.057,0.4408910299369703,-0.2840192792492459
-4.0565,0.3661998059331045,-0.2416327256285375
-4.056,0.2594980573562781,-0.1356663415768632
-4.0555,-0.2740106855273687,0.1822328105778707
-4.055,-0.9889124009928822,-0.1886495336033461
-4.0545,-1.30901764672307,-0.8986243067489184
-4.054,-1.501080794161183,-1.460246142222282
-4.0535,-1.159635198715009,-1.333086481360253
-4.053,-0.6047861061160158,-0.7502713690765743
-4.0525,-0.1352984123779797,-0.1780528951975329
-4.052,0.1634664836372799,0.2352160026042283
-4.0515,0.3235191065023739,0.4895353243280153
-4.051,0.3768699807907871,0.6166949851900245
-4.0505,0.38754015564846,0.6590815388106557
-4.05,0.3661998059331045,0.6590815388106942
-4.0495,0.3448594562177392,0.627291623595192
-4.049,0.3235191065023933,0.5955017083797185
-4.0485,0.3235191065023642,0.5531151547589814
-4.048,0.3128489316446912,0.5107286011383502
-4.0475,0.1954770082102889,0.1398462569578274
-4.047,-0.1566387620935779,-0.6125150698100433
-4.0465,-0.4127229586777283,-1.322489842955616
-4.046,-0.5727755815428225,-1.576809164679403
-4.0455,-0.3060212101005817,-1.195330182093154
-4.045,0.04609456020262521,-0.6972881770507372
-4.0445,0.3128489316446912,-0.2628260024388724
-4.044,0.462231379652287,0.03387987290596028
-4.0435,0.5049120790829789,0.1928294489833272
-4.043,0.4942419042252961,0.2670059178194992
-4.0425,0.4622313796522773,0.2670059178194992
-4.042,0.4195506802215176,0.2881991946298341
-4.0415,0.3875401556484697,0.2670059178194992
-4.041,0.3661998059331239,0.1716361721730791
-4.0405,0.3341892813600468,0.07626642652643727
-4.04,0.3235191065023739,0.02328323450064829
-4.0395,0.302178756787028,0.002089957690332697
-4.039,-0.0392668386594667,-0.06148987274115378
-4.0385,-0.7328282044082075,-0.570128516188728
-4.038,-1.052933450138396,-1.121153713256933
-4.0375,-1.255666772434783,-0.8032545611016019
-4.037,-1.394379045584531,0.08686306493165288
-4.0365,-1.010252750707956,0.4789386859228479
-4.036,-0.4767440078234361,0.5001319627331058
-4.0355,-0.04993701351651855,0.4153588554918433
-4.035,0.2061471830678648,0.3411823866556712
-4.0345,0.3341892813599401,0.3305857482505135
-4.034,0.3768699807907871,0.3729723018711736
-4.0335,0.3768699807907871,0.4365521323021782
-4.033,0.3555296310754412,0.5213252395434405
-4.0325,0.3341892813600468,0.6060983467849149
-4.032,0.3235191065023739,0.6696781772158616
-4.0315,0.312848931644701,0.7332580076468085
-4.031,0.3021787567866592,0.6484849004049872
-4.0305,-0.08194753808956648,0.05507314971615059
-4.03,-0.839529952984345,-0.6549016234294217
-4.0295,-1.426389570157337,-1.174136905283272
-4.029,-1.159635198715513,-1.174136905283272
-4.0285,-0.572775581542968,-0.7396747306714069
-4.028,-0.06060718837389065,-0.1780528951971571
-4.0275,0.2808384070716433,0.2352160026039969
-4.027,0.4408910299368829,0.4153588554918433
-4.0265,0.4835717293675747,0.47893868592279
-4.026,0.4729015545099309,0.4365521323021782
-4.0255,0.5369226036560266,0.4683420475176805
-4.025,0.6222840025174102,0.4683420475176805
-4.0245,0.568933128228997,0.2776025562244643
-4.024,0.4835717293676135,0.05507314971615059
-4.0235,0.39821033050623,-0.1250697031715319
-4.023,0.3448594562175548,-0.2310360872233123
-4.0225,0.142126133921769,-0.1674562567923655
-4.022,-0.5087545323962801,-0.2734226408439435
-4.0215,-1.244996597577382,-0.8456411147232354
-4.021,-1.693143941599645,-1.01518732920576
-4.0205,-1.959898313041711,-0.2416327256285375
-4.02,-1.437059745014631,0.2881991946299305
-4.0195,-0.7434983792658902,0.3941655786815084
-4.019,-0.1886492866663929,0.3517790250608387
-4.0185,0.163466483636814,0.288199194629892
-4.018,0.3448594562177392,0.2670059178194992
-4.0175,0.3982103305061524,0.2987958330350016
-4.017,0.3982103305061524,0.3623756634659483
-4.0165,0.3768699807907677,0.4471487707074227
-4.016,0.3555296310754218,0.5319218779486851
-4.0155,0.334189281360076,0.6166949851899475
-4.015,0.3235191065023642,0.6802748156210484
-4.0145,0.3128489316446912,0.701468092431364
-4.014,0.07810508477588662,0.3093924714405256
-4.0135,-0.6047861061166466,-0.4005823017065694
-4.013,-1.298347471865388,-0.9728007755850904
-4.0125,-1.180975548430879,-0.8244478379127463
-4.012,-0.5621054066847807,-0.4535654937315585
-4.0115,-0.007256314085787988,-0.09327978795619347
-4.011,0.3341892813600565,0.1822328105781598
-4.0105,0.4942419042251506,0.3093924714400533
-4.01,0.5262524287983441,0.3623756634660061
-4.0095,0.5049120790829789,0.3411823866556712
-4.009,0.5049120790829789,0.3411823866556712
-4.0085,0.6756348768059011,0.5107286011382923
-4.008,0.6756348768059011,0.4471487707073456
-4.0075,0.5796033030868447,0.2458126410093475
-4.007,0.4622313796521705,0.05507314971603493
-4.0065,0.3768699807907871,-0.07208651114585861
-4.006,0.2701682322139607,-0.05089323433552374
-4.0055,-0.2740106855284945,0.2246193641984633
-4.005,-0.9782422261349084,-0.1780528951975329
-4.0045,-1.26633694729234,-0.8668343915334161
-4.004,-1.511750969018817,-0.9833974139897855
-4.0035,-1.26633694729234,-0.4641621321370536
-4.003,-0.722158029550525,-0.06148987274069118
-4.0025,-0.220659811239897,0.1928294489830959
-4.002,0.1207857842064037,0.3517790250608387
-4.0015,0.3021787567870086,0.4471487707073456
-4.001,0.3768699807907192,0.5213252395434501
-4.0005,0.38754015564846,0.5743084315693934
-4,0.3768699807907871,0.6166949851900245
-3.9995,0.3555296310754218,0.6590815388106942
-3.999,0.3341892813600565,0.6802748156210291
-3.9985,0.3235191065023739,0.701468092431364
-3.998,0.3235191065023739,0.701468092431364
-3.9975,0.2061471830678648,0.4683420475176805
-3.997,-0.391382608962363,-0.2310360872233701
-3.9965,-1.170305373573196,-0.9728007755850904
-3.996,-1.447729919872945,-1.174136905283272
-3.9955,-0.9355615267041777,-0.8244478379127463
-3.995,-0.3060212101009019,-0.4429688553267188
-3.9945,0.1527963087794516,-0.07208651114585861
-3.994,0.408880505363835,0.1504428953626575
-3.9935,0.5049120790829789,0.2564092794143318
-3.993,0.5155822539406614,0.2458126410091644
-3.9925,0.4835717293676135,0.2034260873884947
-3.992,0.5369226036560266,0.2670059178194992
-3.9915,0.5475927785137094,0.2881991946298341
-3.991,0.4835717293676135,0.2034260873884947
-3.9905,0.4195506802215176,0.08686306493165288
-3.99,0.3661998059331045,0.002089957690313421
-3.9895,0.3235191065023739,-0.05089323433552374
-3.989,-0.007256314085787988,-0.1568596183871981
-3.9885,-0.6688071552621118,-0.6866915386455698
-3.988,-1.148965023857831,-1.311893204550448
-3.9875,-1.383708870726849,-1.79933857118815
-3.987,-1.095614149569417,-1.502632695843462
-3.9865,-0.5834457564006506,-0.8138511995075789
-3.986,-0.124628237520297,-0.1992461720078678
-3.9855,0.1634664836371343,0.2352160026039969
-3.985,0.3235191065023739,0.4789386859228479
-3.9845,0.3875401556484697,0.5849050699745222
-3.984,0.3875401556484697,0.6166949851900245
-3.9835,0.3661998059331045,0.5955017083796896
-3.983,0.3448594562177392,0.5637117931641874
-3.9825,0.3341892813600565,0.5213252395435176
-3.982,0.3235191065023739,0.4789386859228479
-3.9815,0.3235191065023739,0.4365521323021782
-3.981,0.291508581929326,0.2670059178194992
-3.9805,-0.156638762093345,-0.3899856633008816
-3.98,-0.9248913518464952,-1.142346990067769
-3.9795,-1.501080794161358,-1.629792356705471
-3.979,-1.223656247861609,-1.333086481360783
-3.9785,-0.5834457564006506,-0.8456411147230812
-3.978,-0.03926683865883591,-0.3370024712750445
-3.9775,0.3021787567870086,-0.008506680714854012
-3.977,0.4729015545099309,0.1610395337678249
-3.9765,0.5155822539406614,0.2352160026039969
-3.976,0.5049120790829789,0.2564092794143318
-3.9755,0.5262524287983441,0.2776025562246667
-3.975,0.5796033030867573,0.2881991946298341
-3.9745,0.5262524287983441,0.1716361721729923
-3.974,0.4515612047945656,0.05507314971615059
-3.9735,0.3875401556484697,-0.01910331912002144
-3.973,0.3448594562177392,-0.05089323433552374
-3.9725,0.1954770082101822,-0.07208651114585861
-3.972,-0.423393133535411,-0.400582301706049
-3.9715,-1.180975548430879,-1.01518732920576
-3.971,-1.67180359188428,-1.566212526274467
-3.9705,-1.437059745015262,-1.449649503817625
-3.97,-0.839529952985034,-0.8138511995075789
-3.9695,-0.2846808603855366,-0.1780528951975329
-3.969,0.09944543449103843,0.2987958330350016
-3.9685,0.3021787567870086,0.5955017083796896
-3.968,0.3875401556484697,0.7438546460520338
-3.9675,0.408880505363835,0.7968378380778709
-3.967,0.3875401556484697,0.7968378380778709
-3.9665,0.3661998059331045,0.7650479228623686
-3.966,0.3448594562177392,0.7226613692416989
-3.9655,0.3341892813600565,0.6696781772158616
-3.965,0.3235191065023739,0.6060983467848571
-3.9645,0.3235191065023739,0.5001319627331828
-3.964,0.0674349099179905,-0.02969995752518888
-3.9635,-0.5514352318276028,-0.8350444763179138
-3.963,-1.042263275281004,-1.492036057438295
-3.9625,-0.9889124009925911,-1.42845622700729
-3.962,-0.4874141826815069,-1.01518732920576
-3.9615,-0.01792648894347063,-0.5913217929990628
-3.961,0.3021787567870086,-0.2734226408440398
-3.9605,0.4515612047945656,-0.1250697031716958
-3.96,0.5049120790829789,-0.04029659593035631
-3.9595,0.4942419042252961,-0.008506680714854012
-3.959,0.4942419042252961,-0.05089323433552374
-3.9585,0.6542945270905358,-0.252229364033705
-3.958,0.6542945270905358,-0.3052125560595421
-3.9575,0.5582629533713921,-0.252229364033705
-3.957,0.4622313796522482,-0.1674562567923655
-3.9565,0.3768699807907871,-0.08268314955102604
-3.956,0.3128489316446912,0.01268659609548085
-3.9555,-0.1139580626626144,0.1822328105781598
-3.955,-0.8822106524157645,-0.252229364033705
-3.9545,-1.597112367880501,-0.9516074987747555
-3.954,-2.183971985053047,-1.449649503817625
-3.9535,-1.885207089037933,-1.121153713257435
-3.953,-1.06360362499637,-0.4959520473525559
-3.9525,-0.391382608962363,0.05507314971615059
-3.952,0.0674349099179905,0.4471487707073456
-3.9515,0.3128489316446912,0.6696781772158616
-3.951,0.408880505363835,0.7862411996727035
-3.9505,0.4195506802215176,0.8180311148882058
-3.95,0.3982103305061524,0.8286277532933731
-3.9495,0.3661998059331045,0.7968378380778709
-3.949,0.3448594562177392,0.7650479228623686
-3.9485,0.3341892813600565,0.7226613692416989
-3.948,0.3235191065023739,0.6696781772158616
-3.9475,0.2701682322139607,0.3411823866556712
-3.947,-0.02859666380115328,-0.4217755785163839
-3.9465,-0.6474668055467465,-1.195330182093607
-3.946,-1.095614149569417,-1.79933857118815
-3.9455,-0.7861790786966207,-1.735758740757146
-3.945,-0.274010685527854,-1.152943628472937
-3.9445,0.142126133921769,-0.5383386009732256
-3.944,0.3875401556484697,-0.1038764263613609
-3.9435,0.4835717293676135,0.13984625695749
-3.943,0.5049120790829789,0.2140227257936621
-3.9425,0.4835717293676135,0.13984625695749
-3.942,0.5796033030867573,-0.09327978795619347
-3.9415,0.6222840025174878,-0.2946159176543747
-3.941,0.5582629533713921,-0.3370024712750445
-3.9405,0.4729015545099309,-0.2946159176543747
-3.94,0.3982103305061524,-0.2416327256285375
-3.9395,0.3448594562177392,-0.1674562567923655
-3.939,0.03542438534494258,0.09745970333682032
-3.9385,-0.6688071552621118,-0.1144730647665284
-3.938,-1.084943974711735,-0.7396747306714069
-3.9375,-1.330357996438436,-0.6972881770507372
-3.937,-1.479740444445993,0.08686306493165288
-3.9365,-1.06360362499637,0.4683420475176805
-3.936,-0.5194247072545548,0.5001319627331828
-3.9355,-0.06060718837420119,0.4365521323021782
-3.935,0.2168173579255475,0.383568940276341
-3.9345,0.3555296310754218,0.3941655786815084
-3.934,0.3982103305061524,0.4471487707073456
-3.9335,0.3982103305061524,0.5319218779486851
-3.933,0.3768699807907871,0.6378882620003594
-3.9325,0.3555296310754218,0.7226613692416989
-3.932,0.3448594562177392,0.8074344764830383
-3.9315,0.3341892813600565,0.8604176685088755
-3.931,0.291508581929326,0.7968378380778709
-3.9305,-0.1779791118087102,0.2352160026039969
-3.93,-0.9248913518464952,-0.4853554089473885
-3.9295,-1.223656247861609,-0.9092209451540858
-3.929,-0.8288597781273515,-0.6760949002404023
-3.9285,-0.2633405106701714,-0.3158091944647096
-3.928,0.1634664836371343,0.04447651131098315
-3.9275,0.3982103305061524,0.2776025562246667
-3.927,0.5049120790829789,0.3729723018711736
-3.9265,0.5155822539406614,0.3941655786815084
-3.926,0.4942419042252961,0.3623756634660061
-3.9255,0.5582629533713921,0.3305857482505039
-3.925,0.6756348768059011,0.3517790250608387
-3.9245,0.6329541773751706,0.1822328105781598
-3.924,0.5262524287983441,-0.01910331912002144
-3.9235,0.4302208550792003,-0.1780528951975329
-3.923,0.3661998059331045,-0.2734226408440398
-3.9225,0.2381577076409128,-0.2098428104130352
-3.922,-0.3487019095316325,-0.1250697031716958
-3.9215,-0.9355615267041777,-0.6125150698093976
-3.921,-1.020922925565639,-1.036380606016095
-3.9205,-0.7008176798351597,-0.8562377531282487
-3.92,-0.2846808603855366,-0.4217755785163839
-3.9195,0.04609456020262521,0.002089957690313421
-3.919,0.2488278824985954,0.3199891098453364
-3.9185,0.3448594562177392,0.5213252395435176
-3.918,0.3768699807907871,0.6378882620003594
-3.9175,0.3768699807907871,0.701468092431364
-3.917,0.3555296310754218,0.7226613692416989
-3.9165,0.3448594562177392,0.7332580076468663
-3.916,0.3341892813600565,0.7332580076468663
-3.9155,0.3235191065023739,0.7120647308365314
-3.915,0.3235191065023739,0.6802748156210291
-3.9145,0.3235191065023739,0.627291623595192
-3.914,0.1207857842064037,0.1716361721729923
-3.9135,-0.3807124341046804,-0.5913217929990628
-3.913,-0.7648387289812555,-1.258910012524611
-3.9125,-0.7328282044082075,-1.396666311791788
-3.912,-0.3380317346739499,-1.036380606016095
-3.9115,0.0674349099179905,-0.570128516188728
-3.911,0.3341892813600565,-0.2098428104130352
-3.9105,0.4622313796522482,0.01268659609548085
-3.91,0.5049120790829789,0.13984625695749
-3.9095,0.4835717293676135,0.1716361721729923
-3.909,0.4729015545099309,0.1716361721729923
-3.9085,0.4835717293676135,0.1610395337678249
-3.908,0.4515612047945656,0.06566978812131802
-3.9075,0.408880505363835,-0.04029659593035631
-3.907,0.3661998059331045,-0.1038764263613609
-3.9065,0.3341892813600565,-0.1144730647665284
-3.906,0.291508581929326,-0.04029659593035631
-3.9055,-0.1779791118087102,0.2881991946298341
-3.905,-0.9142211769888124,-0.04029659593035631
-3.9045,-1.51175096901904,-0.6337083466197325
-3.904,-2.013249187330125,-0.3052125560595421
-3.9035,-1.853196564464885,0.3517790250608387
-3.903,-1.1062843244271,0.5425185163538525
-3.9025,-0.4447334832507763,0.5001319627331828
-3.902,0.02475421048725994,0.4365521323021782
-3.9015,0.2808384070716433,0.4047622170866759
-3.901,0.3982103305061524,0.4365521323021782
-3.9005,0.4195506802215176,0.5107286011383502
-3.9,0.3982103305061524,0.6060983467848571
-3.8995,0.3661998059331045,0.701468092431364
-3.899,0.3448594562177392,0.7862411996727035
-3.8985,0.3341892813600565,0.8604176685088755
-3.898,0.3235191065023739,0.9028042221295453
-3.8975,0.2594980573562781,0.6908714540261965
-3.897,-0.2313299860971235,0.02328323450064829
-3.8965,-0.8181896032696687,-0.6549016234300674
-3.896,-1.148965023857831,-0.8774310299385835
-3.8955,-0.754168554123573,-0.5277419625680583
-3.895,-0.2206598112394408,-0.1886495336027004
-3.8945,0.1954770082101822,0.1080563417419877
-3.894,0.4302208550792003,0.2881991946298341
-3.8935,0.5155822539406614,0.3305857482505039
-3.893,0.5262524287983441,0.2776025562246667
-3.8925,0.4942419042252961,0.2246193641988295
-3.892,0.5475927785137094,0.3199891098453364
-3.8915,0.5689331282290746,0.309392471440169
-3.891,0.5155822539406614,0.13984625695749
-3.8905,0.4408910299368829,-0.04029659593035631
-3.89,0.3768699807907871,-0.1780528951975329
-3.8895,0.3341892813600565,-0.2416327256285375
-3.889,0.04609456020262521,0.03387987290581572
-3.8885,-0.6688071552621118,0.03387987290581572
-3.888,-1.298347471865388,-0.5595318777835605
-3.8875,-1.650463242168915,-0.6443049850249
-3.887,-1.789175515318789,0.05507314971615059
