Class_1_Relax_eyes_closed/Class_1_Relax_eyes_closed_Suko_2.csv

#Digilent WaveForms Oscilloscope Acquisition
#Device Name: EExplorer
#Serial Number: SN:210151A2B84A
#Date Time: 2020-10-27 14:00:00.443
#Sample rate: 2000Hz
#Samples: 16384
#Trigger: Source: Channel 1 Type: Edge Condition: Rising Level: 0 V Hyst.: Auto HoldOff: 0 s
#Channel 1: Range: 1 V/div Offset: 0 V Attenuation: 1 X
#Channel 2: Range: 1 V/div Offset: 0 V Attenuation: 1 X
#Power Supplies: ON
#Fixed Supply: ON
#Voltage: 3.3 V Readback: 3.328 V
#Positive Supply: ON
#Voltage: 3.7 V Readback: 3.713 V
#Current: 500 mA Readback: 22 mA
#Negative Supply: ON
#Voltage: -3.7 V Readback: -3.702 V
#Current: -500 mA Readback: -8 mA
#Reference 1: ON
#Voltage: 0 V
#Reference 2: ON
#Voltage: 0 V

Time (s),Channel 1 (V),Channel 2 (V)
-4.096,-0.3807124341046804,-0.474758770542221
-4.0955,0.06743490991758294,-1.004590690800111
-4.095,0.3021787567870959,-1.322489842955673
-4.0945,0.3982103305061524,-1.38606967338662
-4.094,0.3982103305061524,-1.2906999277402
-4.0935,0.3875401556485765,-1.131750351662641
-4.093,0.5049120790829789,-1.174136905283272
-4.0925,0.5475927785136705,-1.078767159636852
-4.092,0.4729015545098436,-0.7926579226969646
-4.0915,0.3768699807907871,-0.4853554089473885
-4.091,0.3128489316446912,-0.2204394488182027
-4.0905,0.4408910299374943,0.1292496185527948
-4.09,1.113112045970889,0.6484849004055269
-4.0895,1.806673411720261,1.104140351827727
-4.089,1.988066384300701,1.411442865577303
-4.0885,1.145122570543937,1.580989080060261
-4.088,-0.2846808603855366,1.633972272086098
-4.0875,-1.031593100422642,1.316073119931364
-4.087,-0.9569018764192035,0.5637117931635706
-4.0865,-0.5834457564006506,-0.1144730647665284
-4.086,-0.2099896363820978,-0.5171453241625246
-4.0855,0.04609456020276108,-0.6654982618351963
-4.085,0.1954770082101822,-0.6231117082145651
-4.0845,0.227487532783201,-0.4959520473526716
-4.084,0.2168173579255281,-0.3264058328697325
-4.0835,0.1954770082101822,-0.1674562567923655
-4.083,0.142126133921769,-0.008506680714854012
-4.0825,0.05676473505983234,0.1504428953629466
-4.082,-0.4660738329661415,0.4683420475176805
-4.0815,-1.170305373573196,0.8922075837243778
-4.081,-1.490410619303384,1.220703374284269
-4.0805,-1.490410619303675,1.061753798207057
-4.08,-1.084943974711735,0.2987958330350016
-4.0795,-0.4874141826820503,-0.506548685756991
-4.079,-0.01792648894318919,-1.036380606016317
-4.0785,0.291508581929326,-1.280103289334946
-4.078,0.4195506802214012,-1.311893204550419
-4.0775,0.4408910299368635,-1.237716735714161
-4.077,0.4195506802215176,-1.110557074852267
-4.0765,0.4835717293675553,-0.8668343915336378
-4.076,0.6009436528020935,-0.5489352393782774
-4.0755,0.5689331282290746,-0.4217755785163839
-4.075,0.4729015545099309,-0.3370024712750445
-4.0745,0.3661998059330948,-0.2628260024387568
-4.074,0.3555296310754218,-0.1356663415768632
-4.0735,0.8356874996711408,0.2564092794143318
-4.073,1.678631313427303,0.7862411996722216
-4.0725,2.318841804889028,1.178316820663898
-4.072,1.817343586577944,1.241896651094903
-4.0715,0.3235191065037326,1.326669758336166
-4.071,-0.9569018764197761,1.358459673551301
-4.0705,-1.212986073003927,0.8710143069140429
-4.07,-0.8928808272737383,0.2034260873891018
-4.0695,-0.444733483250456,-0.2840192792494193
-4.069,-0.09261771294724913,-0.5171453241628908
-4.0685,0.1314559590640864,-0.5489352393783931
-4.068,0.2274875327832301,-0.4429688553265645
-4.0675,0.2274875327832301,-0.2734226408440398
-4.067,0.1954770082101822,-0.08268314955102604
-4.0665,0.1421261339217302,0.07626642652663002
-4.066,0.09944543449103843,0.2352160026039969
-4.0655,-0.274010685527854,0.4789386859228479
-4.065,-1.106284324426343,0.8816109453188441
-4.0645,-1.927887788468663,1.220703374284568
-4.064,-2.450726356495113,1.369056311956912
-4.0635,-1.927887788469139,0.8498210301041803
-4.063,-1.074273799853382,0.01268659609484477
-4.0625,-0.3380317346739499,-0.6866915386455698
-4.062,0.1421261339213323,-1.152943628472513
-4.0615,0.3875401556485474,-1.375473034981462
-4.061,0.4729015545099309,-1.38606967338662
-4.0605,0.4622313796522482,-1.290699927740113
-4.06,0.4729015545100182,-1.152943628472783
-4.0595,0.5689331282290746,-0.9833974139902578
-4.059,0.5369226036560266,-0.7608680074817418
-4.0585,0.4302208550792974,-0.5277419625682703
-4.058,0.3448594562177392,-0.326405832869877
-4.0575,0.291508581929326,-0.1462629799820306
-4.057,0.611613827659514,0.2140227257933344
-4.0565,1.166462920259302,0.7332580076468663
-4.056,0.8676980242441885,1.167720182258731
-4.0555,-0.1459685872347405,1.443232780792834
-4.055,-1.287677297008297,1.59158571846539
-4.0545,-1.938557963326346,1.549199164844759
-4.054,-1.639793067311504,0.9769806909662377
-4.0535,-0.9782422261343746,0.2352160026035054
-4.053,-0.391382608962363,-0.3052125560595421
-4.0525,0.00341386077189465,-0.570128516188728
-4.052,0.2168173579256154,-0.6019184314041436
-4.0515,0.291508581929326,-0.5065486857577234
-4.051,0.2701682322139607,-0.3370024712750445
-4.0505,0.1954770082102501,-0.1462629799822041
-4.05,0.1314559590640864,0.01268659609548085
-4.0495,0.07810508477567314,0.1504428953626575
-4.049,-0.02859666380105623,0.2881991946297088
-4.0485,-0.6047861061166757,0.5955017083800462
-4.048,-1.330357996438436,0.9875773293708847
-4.0475,-1.949228138183466,1.220703374284356
-4.047,-1.757164990745013,0.7120647308356737
-4.0465,-0.9569018764195432,-0.2310360872233701
-4.046,-0.2633405106708022,-0.909220945153469
-4.0455,0.1848068333527033,-1.333086481360937
-4.045,0.408880505363835,-1.502632695843462
-4.0445,0.4622313796522482,-1.460246142222792
-4.044,0.4302208550791615,-1.333086481360629
-4.0435,0.3875401556484697,-1.163540266878104
-4.043,0.3982103305061524,-0.9833974139902578
-4.0425,0.3875401556484794,-0.8244478379128909
-4.042,0.3341892813600565,-0.6866915386455698
-4.0415,0.3021787567870086,-0.5595318777835605
-4.041,0.2701682322139898,-0.4429688553268248
-4.0405,0.419550680222129,-0.1886495336021992
-4.04,1.091771696255524,0.3623756634660061
-4.0395,1.945385684869359,0.9134008605342115
-4.039,2.308171630030491,1.30547648152611
-4.0385,1.369196242555273,1.528005888034424
-4.038,-0.1352984123766114,1.623375633680844
-4.0375,-0.9355615267041388,1.305476481525233
-4.037,-0.8928808272734472,0.5637117931641874
-4.0365,-0.5514352318276028,-0.08268314955102604
-4.036,-0.1993194615238523,-0.4641621321371596
-4.0355,0.04609456020262521,-0.5807251545938954
-4.035,0.1848068333524996,-0.5277419625680583
-4.0345,0.2488278824985372,-0.3899856633010069
-4.034,0.2381577076409128,-0.2098428104130352
-4.0335,0.1848068333524996,-0.01910331912002144
-4.033,0.1314559590641349,0.1398462569573455
-4.0325,0.05676473505984204,0.2776025562249173
-4.032,-0.4554036581084589,0.55311515475902
-4.0315,-1.106284324426508,0.9451907757498583
-4.031,-1.383708870726771,1.252493289499868
-4.0305,-1.298347471865388,1.029963882991555
-4.03,-0.8395299529854512,0.2564092794150353
-4.0295,-0.3166913849582449,-0.5065486857581764
-4.029,0.05676473506030786,-1.004590690800593
-4.0285,0.2808384070716433,-1.280103289334946
-4.028,0.3875401556484794,-1.375473034981395
-4.0275,0.3982103305061524,-1.311893204550448
-4.027,0.3768699807907871,-1.184733543688439
-4.0265,0.4195506802214788,-1.03638060601623
-4.026,0.4622313796522482,-0.8668343915334161
-4.0255,0.408880505363835,-0.6549016234300674
-4.025,0.3448594562177974,-0.4429688553269115
-4.0245,0.3021787567870086,-0.2628260024387086
-4.024,0.3021787567870086,-0.08268314955102604
-4.0235,0.7183155762362531,0.277602556224339
-4.023,1.561259389994133,0.7756445612678444
-4.0225,2.190799706596836,1.114736990232894
-4.022,1.689301488286208,0.9134008605348958
-4.0215,0.2488278824976249,0.9239974989399186
-4.021,-0.8181896032696687,0.9663840525605498
-4.0205,-0.9569018764195432,0.4895353243280153
-4.02,-0.6581369804040991,-0.09327978795656934
-4.0195,-0.2953510352432193,-0.5065486857577234
-4.019,-0.01792648894347063,-0.7078848154559045
-4.0185,0.1527963087792964,-0.739674730671378
-4.018,0.2274875327832301,-0.6549016234300674
-4.0175,0.2381577076409128,-0.5065486857577234
-4.017,0.206147183067894,-0.3475991096803564
-4.0165,0.1421261339216622,-0.1992461720076847
-4.016,0.02475421048725994,0.002089957690313421
-4.0155,-0.2099896363815447,0.2140227257934693
-4.015,-0.8822106524163273,0.5849050699749077
-4.0145,-1.501080794161358,1.00877060618122
-4.014,-1.650463242168779,1.19951009747406
-4.0135,-1.383708870726325,0.8074344764824408
-4.013,-0.807519428411986,0.1504428953626575
-4.0125,-0.2633405106701714,-0.3687923864905467
-4.012,0.1207857842065978,-0.6549016234301734
-4.0115,0.3341892813600565,-0.7714646458869092
-4.011,0.408880505363835,-0.7396747306714069
-4.0105,0.3982103305061621,-0.6443049850249867
-4.01,0.3982103305061524,-0.570128516188728
-4.0095,0.5049120790829789,-0.6125150698093976
-4.009,0.47290155450996,-0.5913217929990822
-4.0085,0.3982103305060942,-0.5277419625680004
-4.008,0.3341892813600565,-0.4641621321370536
-4.0075,0.2915085819293648,-0.4111789401112647
-4.007,0.5796033030874658,-0.1992461720073763
-4.0065,1.35852606769759,0.3411823866556712
-4.006,2.105438307735375,0.8922075837243778
-4.0055,2.094768132876634,0.902804222129314
-4.005,0.9317190733902845,0.6484849004055269
-4.0045,-0.4874141826815069,0.7862411996727035
-4.004,-1.042263275280858,0.616694985189533
-4.0035,-0.8822106524157645,0.07626642652648545
-4.003,-0.5087545323968721,-0.4217755785163839
-4.0025,-0.1566387620936652,-0.7290780922659599
-4.002,0.07810508477567314,-0.8350444763179138
-4.0015,0.2061471830678648,-0.8138511995075789
-4.001,0.2381577076408836,-0.7078848154560009
-4.0005,0.2061471830677872,-0.5489352393782195
-4,0.1207857842064037,-0.3581957480853793
-3.9995,0.02475421048725994,-0.1780528951975329
-3.999,-0.1352984123779797,0.01268659609548085
-3.9985,-0.722158029550525,0.3941655786815084
-3.998,-1.437059745015262,0.8710143069140429
-3.9975,-2.055929886760855,1.188913459069066
-3.997,-2.03458953704549,0.7650479228623686
-3.9965,-1.373038695869166,0.002089957690313421
-3.996,-0.6474668055467465,-0.6019184314042303
-3.9955,-0.09261771294724913,-0.9410108603695881
-3.995,0.2594980573562781,-1.068170521231597
-3.9945,0.3982103305061524,-1.05757388282643
-3.994,0.4195506802215176,-0.9410108603695881
-3.9935,0.4195506802215176,-0.792657922697244
-3.993,0.4302208550792003,-0.6866915386455698
-3.9925,0.3982103305061524,-0.5171453241628908
-3.992,0.3448594562177392,-0.3052125560595421
-3.9915,0.291508581929326,-0.1250697031716958
-3.991,0.2594980573562781,0.02328323450064829
-3.9905,0.4942419042252961,0.2140227257936621
-3.99,1.251824319120764,0.627291623595192
-3.9895,1.838683936293309,1.061753798207057
-3.989,1.817343586577944,1.369056311956912
-3.9885,0.7609962756673623,1.538602526439591
-3.988,-0.6154562809736985,1.612778995275763
-3.9875,-1.234326422719292,1.305476481525908
-3.987,-1.042263275281004,0.5213252395435176
-3.9865,-0.6154562809736985,-0.2098428104130352
-3.986,-0.2099896363817582,-0.6654982618352349
-3.9855,0.05676473506030786,-0.8668343915334161
-3.985,0.2061471830678648,-0.8774310299385835
-3.9845,0.2488278824985954,-0.7820612842920766
-3.984,0.2061471830678648,-0.6125150698093976
-3.9835,0.1527963087794516,-0.4429688553267188
-3.983,0.09944543449103843,-0.2946159176543747
-3.9825,0.03542438534494258,-0.1462629799820306
-3.982,-0.423393133535411,0.1716361721729923
-3.9815,-1.1062843244271,0.6802748156210291
-3.981,-1.565101843307454,1.114736990232894
-3.9805,-1.682473766741963,1.241896651094903
-3.98,-1.234326422719292,0.7120647308365314
-3.9795,-0.6154562809736985,-0.02969995752518888
-3.979,-0.1139580626626144,-0.6231117082145651
-3.9785,0.2168173579255475,-1.036380606016095
-3.978,0.3875401556484697,-1.174136905283272
-3.9775,0.4302208550792003,-1.142346990067769
-3.977,0.4195506802215176,-0.9939940523954253
-3.9765,0.4408910299368829,-0.8986243067489184
-3.976,0.4729015545099309,-0.8350444763179138
-3.9755,0.4195506802215176,-0.6019184314042303
-3.975,0.3555296310754218,-0.3370024712750445
-3.9745,0.291508581929326,-0.1144730647665284
-3.974,0.3235191065023739,0.1080563417419877
-3.9735,0.8463576745288233,0.5319218779486851
-3.973,1.689301488285752,0.9875773293708847
-3.9725,2.233480406027567,1.326669758336243
-3.972,1.774662887147213,1.496215972818921
-3.9715,0.3555296310754218,1.580989080060261
-3.971,-0.690147504977477,1.400846227172415
-3.9705,-0.8502001278427167,0.701468092431364
-3.97,-0.5941159312583333,-0.02969995752518888
-3.9695,-0.2633405106701714,-0.5171453241628908
-3.969,-0.007256314085787988,-0.7396747306714069
-3.9685,0.1527963087794516,-0.7608680074817418
-3.968,0.2168173579255475,-0.6654982618352349
-3.9675,0.2061471830678648,-0.5065486857577234
-3.967,0.1741366584948169,-0.3370024712750445
-3.9665,0.1207857842064037,-0.1780528951975329
-3.966,0.0674349099179905,-0.02969995752518888
-3.9655,-0.2099896363817582,0.2140227257936621
-3.965,-0.9035510021311299,0.627291623595192
-3.9645,-1.46907026958831,1.051157159801889
-3.964,-1.714484291315011,1.263089927905238
-3.9635,-1.394379045584531,0.9769806909657173
-3.963,-0.7968492535543035,0.4365521323021782
-3.9625,-0.2420001609548061,-0.09327978795619347
-3.962,0.1314559590640864,-0.4429688553267188
-3.9615,0.3341892813600565,-0.6019184314042303
-3.961,0.4195506802215176,-0.6019184314042303
-3.9605,0.4195506802215176,-0.5277419625680583
-3.96,0.4195506802215176,-0.4535654937318862
-3.9595,0.5369226036560266,-0.326405832869877
-3.959,0.5262524287983441,-0.3052125560595421
-3.9585,0.4408910299368829,-0.3687923864905467
-3.958,0.3448594562177392,-0.4535654937318862
-3.9575,0.2808384070716433,-0.5383386009732256
-3.957,0.5049120790829789,-0.3687923864905467
-3.9565,1.273164668836129,0.2034260873884947
-3.956,2.094768132877692,0.7862411996727035
-3.9555,2.297501455173662,1.199510097474233
-3.955,1.113112045970889,1.453829419198252
-3.9545,-0.3380317346739499,1.506812611224089
-3.954,-0.8822106524157645,0.9875773293708847
-3.9535,-0.7648387289812555,0.1822328105781598
-3.953,-0.4340633083930936,-0.4641621321370536
-3.9525,-0.1352984123779797,-0.8350444763179138
-3.952,0.07810508477567314,-0.9516074987747555
-3.9515,0.1848068333524996,-0.9092209451540858
-3.951,0.2168173579255475,-0.7714646458869092
-3.9505,0.1848068333524996,-0.5913217929990628
-3.95,0.1207857842064037,-0.400582301706049
-3.9495,0.05676473506030786,-0.1992461720078678
-3.949,-0.1139580626626144,0.04447651131098315
-3.9485,-0.7434983792658902,0.4471487707073456
-3.948,-1.575772018165136,0.9134008605347127
-3.9475,-2.344024607918286,1.273686566310405
-3.947,-2.525417580498891,1.210106735879401
-3.9465,-1.725154466172693,0.5213252395435176
-3.946,-0.8822106524157645,-0.2310360872233701
-3.9455,-0.2206598112394408,-0.7608680074817418
-3.945,0.1848068333524996,-1.05757388282643
-3.9445,0.3875401556484697,-1.121153713257435
-3.944,0.4515612047945656,-1.036380606016095
-3.9435,0.4408910299368829,-0.8774310299385835
-3.943,0.5369226036560266,-0.5489352393783931
-3.9425,0.5902734779444399,-0.2840192792492073
-3.942,0.5049120790829789,-0.1674562567923655
-3.9415,0.3982103305061524,-0.07208651114585861
-3.941,0.3128489316446912,0.002089957690313421
-3.9405,0.3875401556484697,0.1610395337678249
-3.94,0.9850699476786977,0.55311515475902
-3.9395,1.753322537431848,0.9981739677760521
-3.939,2.201469881454519,1.326669758336243
-3.9385,1.486568165989782,1.517409249629256
-3.938,0.01408403562957729,1.602182356870596
-3.9375,-0.9035510021311299,1.326669758336243
-3.937,-0.9355615267041777,0.5849050699745222
-3.9365,-0.6154562809736985,-0.09327978795619347
-3.936,-0.2526703358124887,-0.5171453241628908
-3.9355,0.01408403562957729,-0.6760949002404023
-3.935,0.1634664836371343,-0.6549016234300674
-3.9345,0.2274875327832301,-0.5383386009732256
-3.934,0.2168173579255475,-0.3581957480853793
-3.9335,0.1634664836371343,-0.1780528951975329
-3.933,0.09944543449103843,-0.008506680714854012
-3.9325,0.01408403562957729,0.13984625695749
-3.932,-0.4020527838200457,0.4365521323021782
-3.9315,-1.074273799854052,0.8604176685088755
-3.931,-1.51175096901904,1.210106735879401
-3.9305,-1.639793067311232,1.072350436612224
-3.93,-1.138294849000148,0.2352160026039969
-3.9295,-0.5407650569699201,-0.5383386009732256
-3.929,-0.04993701351651855,-1.036380606016095
-3.9285,0.2381577076409128,-1.280103289334946
-3.928,0.3555296310754218,-1.333086481360783
-3.9275,0.3768699807907871,-1.248313374119443
-3.927,0.3555296310754218,-1.110557074852267
-3.9265,0.3555296310754218,-0.9728007755850904
-3.926,0.3661998059331045,-0.8562377531282487
-3.9255,0.3448594562177392,-0.6549016234300674
-3.925,0.3021787567870086,-0.4535654937318862
-3.9245,0.2594980573562781,-0.2628260024388724
-3.924,0.2701682322139607,-0.06148987274069118
-3.9235,0.707645401378949,0.3411823866556712
-3.923,1.550589215135878,0.8392243916985406
-3.9225,2.254820755742932,1.231300012689736
-3.922,1.988066384300866,1.453829419198252
-3.9215,0.5796033030867573,1.559795803249926
-3.921,-0.7008176798351597,1.496215972818921
-3.9205,-0.9995825758502737,0.8816109453192104
-3.92,-0.754168554123573,0.13984625695749
-3.9195,-0.391382608962363,-0.3793890248957141
-3.919,-0.08194753808956648,-0.6231117082145651
-3.9185,0.1101156093487211,-0.6549016234300674
-3.918,0.2061471830678648,-0.5595318777835605
-3.9175,0.2168173579255475,-0.400582301706049
-3.917,0.1741366584948169,-0.2098428104130352
-3.9165,0.1207857842064037,-0.04029659593035631
-3.916,0.03542438534494258,0.13984625695749
-3.9155,-0.274010685527854,0.383568940276341
-3.915,-0.9995825758502737,0.7650479228623686
-3.9145,-1.746494815888059,1.135930267043229
-3.914,-2.151961460479999,1.33726639674141
-3.9135,-1.863866739322568,0.9345941373450475
-3.913,-1.138294849000148,0.13984625695749
-3.9125,-0.4340633083930936,-0.6019184314042303
-3.912,0.05676473506030786,-1.089363798041932
-3.9115,0.3235191065023739,-1.322489842955616
-3.911,0.3982103305061524,-1.333086481360783
-3.9105,0.3982103305061524,-1.195330182093607
-3.91,0.3875401556484697,-1.004590690800593
-3.9095,0.5262524287983441,-0.718481453861072
-3.909,0.5262524287983441,-0.5171453241628908
-3.9085,0.4408910299368829,-0.3581957480853793
-3.908,0.3448594562177392,-0.2310360872233701
-3.9075,0.2808384070716433,-0.1356663415768632
-3.907,0.4729015545099309,0.09745970333682032
-3.9065,1.219813794547716,0.5743084315693548
-3.906,1.934715510012453,1.029963882991555
-3.9055,1.956055859727818,1.33726639674141
-3.905,0.8143471499557753,1.496215972818921
-3.9045,-0.5514352318276028,1.538602526439591
-3.904,-1.042263275281004,1.051157159801889
-3.9035,-0.8608703027003992,0.2987958330350016
-3.903,-0.4767440078238243,-0.2734226408440398
-3.9025,-0.1459685872356623,-0.5807251545938954
-3.902,0.07810508477567314,-0.6549016234300674
-3.9015,0.1954770082101822,-0.5807251545938954
-3.901,0.2381577076409128,-0.4323722169215513
-3.9005,0.2274875327832301,-0.2628260024388724
-3.9,0.1848068333524996,-0.09327978795619347
-3.8995,0.1207857842064037,0.06566978812131802
-3.899,-0.01792648894347063,0.2458126410091644
-3.8985,-0.5941159312583333,0.5637117931641874
-3.898,-1.244996597576974,0.9663840525605498
-3.8975,-1.842526389607202,1.284283204715573
-3.897,-2.023919362187807,1.231300012689736
-3.8965,-1.458400094730627,0.5637117931641874
-3.896,-0.722158029550525,-0.2734226408440398
-3.8955,-0.1352984123779797,-0.8986243067489184
-3.895,0.2061471830678648,-1.205926820498774
-3.8945,0.3661998059331045,-1.290699927740113
-3.894,0.408880505363835,-1.269506650929778
-3.8935,0.3982103305061524,-1.184733543688439
-3.893,0.4835717293676135,-0.8986243067489184
-3.8925,0.5369226036560266,-0.6337083466197325
-3.892,0.4942419042252961,-0.5277419625680583
-3.8915,0.4195506802215176,-0.4641621321370536
-3.891,0.3555296310754218,-0.4111789401112165
-3.8905,0.3768699807907871,-0.2840192792492073
-3.89,0.9317190733902845,0.1504428953626575
-3.8895,1.56125938999356,0.7120647308365314
-3.889,1.796003236862578,1.072350436612224
-3.8885,1.059761171682476,0.8922075837243778
-3.888,-0.3060212101009019,0.9451907757502149
-3.8875,-1.116954499284783,0.9028042221295453
-3.887,-1.052933450138687,0.3941655786815084
-3.8865,-0.658136980404429,-0.1356663415768632
