Class_1_Relax_eyes_closed/Class_1_Relax_Eyes_closed_Turki_14.csv

#Digilent WaveForms Oscilloscope Acquisition
#Device Name: EExplorer
#Serial Number: SN:210151A2B84A
#Date Time: 2021-02-04 11:21:50.813
#Sample rate: 2000Hz
#Samples: 16384
#Trigger: Source: Channel 1 Type: Edge Condition: Rising Level: 0 V Hyst.: Auto HoldOff: 0 s
#Channel 1: Range: 1 V/div Offset: 0 V Attenuation: 1 X
#Channel 2: Range: 1 V/div Offset: 0 V Attenuation: 1 X
#Power Supplies: ON
#Fixed Supply: ON
#Voltage: 3.3 V Readback: 3.327 V
#Positive Supply: ON
#Voltage: 3.7 V Readback: 3.712 V
#Current: 40 mA Readback: 18 mA
#Negative Supply: ON
#Voltage: -3.7 V Readback: -3.351 V
#Current: -40 mA Readback: -8 mA
#Reference 1: ON
#Voltage: 0 V
#Reference 2: ON
#Voltage: 0 V

Time (s),Channel 1 (V),Channel 2 (V)
-4.096,-1.639793067311232,-1.661582271920973
-4.0955,-1.437059745015446,-1.121153713257926
-4.095,-0.8822106524152986,-0.231036087222628
-4.0945,-0.3700422592469978,0.5849050699745222
-4.094,-0.02859666380146381,1.157123543853043
-4.0935,0.1634664836372022,1.485619334413879
-4.093,0.2381577076409128,1.623375633680931
-4.0925,0.2488278824985857,1.633972272086089
-4.092,0.2274875327832107,1.580989080060203
-4.0915,0.2061471830678648,1.517409249629256
-4.091,0.1954770082101822,1.400846227172415
-4.0905,0.1848068333524802,1.241896651094672
-4.09,0.1634664836371343,0.9875773293708847
-4.0895,-0.124628237520297,0.3941655786815084
-4.089,-0.6154562809732521,-0.5277419625672199
-4.0885,-0.9995825758502737,-1.333086481360783
-4.088,-1.447729919872945,-1.650985633515806
-4.0875,-1.234326422719486,-1.131750351663074
-4.087,-0.6581369804039729,-0.718481453860966
-4.0865,-0.156638762093345,-0.6019184314042303
-4.086,0.1634664836368432,-0.6443049850248614
-4.0855,0.3128489316447203,-0.760868007481867
-4.085,0.3448594562177392,-0.8986243067489184
-4.0845,0.4088805053637768,-1.068170521231443
-4.084,0.5902734779444204,-1.174136905283118
-4.0835,0.5689331282290746,-1.004590690800593
-4.083,0.4622313796522482,-0.7714646458869092
-4.0825,0.3448594562176712,-0.5277419625678944
-4.082,0.2701682322139607,-0.3475991096802118
-4.0815,0.1314559590640864,-0.3370024712750445
-4.081,-0.4340633083925793,-0.7608680074813563
-4.0805,-0.8181896032696687,-1.269506650929778
-4.08,-1.084943974711735,-1.629792356705471
-4.0795,-1.415719395299596,-1.725162102351891
-4.079,-1.244996597576528,-1.195330182092788
-4.0785,-0.754168554123573,-0.2946159176543747
-4.078,-0.3060212101013095,0.5107286011376178
-4.0775,0.003413860772049922,1.082947075017691
-4.077,0.1741366584948169,1.411442865577582
-4.0765,0.2381577076408545,1.549199164844633
-4.076,0.2488278824985857,1.559795803249878
-4.0755,0.2381577076409128,1.506812611224089
-4.075,0.2168173579255475,1.42203950398275
-4.0745,0.2061471830678551,1.294879843120596
-4.074,0.1954770082101822,1.135930267043229
-4.0735,0.1848068333524996,0.9557874141553824
-4.073,-0.07127736323165093,0.6802748156212797
-4.0725,-0.7328282044082075,-0.1038764263613609
-4.072,-1.042263275281004,-0.9622041371799229
-4.0715,-1.127624674142388,-1.534422611058444
-4.071,-1.031593100422934,-1.32248984295522
-4.0705,-0.6047861061160158,-0.8880276683437509
-4.07,-0.1779791118090984,-0.6337083466199638
-4.0695,0.1314559590642319,-0.6443049850250157
-4.069,0.291508581929326,-0.7714646458869092
-4.0685,0.3448594562177392,-0.9092209451540858
-4.068,0.355529631075548,-0.9728007755849265
-4.0675,0.4942419042252961,-0.792657922697244
-4.067,0.5475927785137094,-0.6654982618352349
-4.0665,0.4835717293675358,-0.6760949002403926
-4.066,0.3982103305061524,-0.6654982618352349
-4.0655,0.3235191065023739,-0.5807251545938954
-4.065,0.2808384070716821,-0.4111789401113707
-4.0645,0.4515612047945656,-0.06148987274069118
-4.064,0.1954770082101822,-0.326405832869877
-4.0635,-0.2526703358120811,-0.8668343915329246
-4.063,-0.7861790786968148,-1.269506650929711
-4.0625,-0.9995825758502737,-1.195330182093607
-4.062,-0.7434983792661232,-0.4747587705428764
-4.0615,-0.3807124341044087,0.3835689402769771
-4.061,-0.08194753808956648,1.082947075017392
-4.0605,0.1101156093487211,1.549199164844759
-4.06,0.206147183067894,1.803518486568864
-4.0595,0.2381577076409128,1.898888232215284
-4.059,0.2381577076409128,1.898888232215284
-4.0585,0.2274875327832398,1.856501678594653
-4.058,0.2061471830678648,1.75053529454294
-4.0575,0.1954770082101822,1.591585718465428
-4.057,0.1954770082101822,1.464426057603535
-4.0565,0.0674349099179905,1.25249328950007
-4.056,-0.4874141826815069,0.4895353243280153
-4.0555,-0.9142211769884243,-0.5277419625671329
-4.055,-1.415719395300169,-1.354279758171253
-4.0545,-1.714484291315011,-1.502632695843462
-4.054,-1.255666772435074,-1.099960436447466
-4.0535,-0.6367966306885979,-0.7820612842919513
-4.053,-0.124628237520297,-0.6443049850249
-4.0525,0.1954770082101822,-0.718481453861072
-4.052,0.3555296310754606,-0.8668343915335318
-4.0515,0.3982103305061524,-0.9939940523954253
-4.051,0.5475927785137094,-1.0999604364471
-4.0505,0.771666450524841,-1.131750351662573
-4.05,0.7183155762366316,-0.9198175835592532
-4.0495,0.5689331282290746,-0.6654982618352349
-4.049,0.4195506802216535,-0.4323722169217633
-4.0485,0.3235191065023448,-0.2416327256284604
-4.048,0.291508581929326,-0.1568596183871981
-4.0475,0.1314559590642319,-0.3581957480851962
-4.047,-0.4874141826818563,-0.9198175835596195
-4.0465,-0.8715404775580819,-1.322489842955616
-4.046,-1.351698346153364,-1.545019249463929
-4.0455,-1.479740444445595,-1.386069673385946
-4.045,-1.042263275281004,-0.6443049850249
-4.0445,-0.5300948821122373,0.1610395337678249
-4.044,-0.1246282375200835,0.7862411996730504
-4.0435,0.1101156093487211,1.167720182258731
-4.043,0.2274875327832301,1.358459673551745
-4.0425,0.259498057356249,1.400846227172376
-4.042,0.2488278824985954,1.369056311956912
-4.0415,0.2381577076409128,1.316073119931075
-4.041,0.2168173579255669,1.24189665109497
-4.0405,0.2061471830678357,1.135930267043084
-4.04,0.1741366584948169,0.9769806909657173
-4.0395,-0.1993194615237359,0.4577454091129853
-4.039,-0.6794773301200854,-0.4429688553274608
-4.0385,-0.9995825758502737,-1.258910012524611
-4.038,-1.255666772434424,-1.661582271920607
-4.0375,-1.084943974711298,-1.163540266877671
-4.037,-0.6047861061160158,-0.6866915386455698
-4.0365,-0.1673089369510276,-0.4641621321370536
-4.036,0.1527963087796069,-0.4535654937319826
-4.0355,0.3235191065023739,-0.5595318777835605
-4.035,0.3768699807907871,-0.6972881770507372
-4.0345,0.4302208550791518,-0.8138511995074729
-4.034,0.6329541773751706,-0.9516074987747555
-4.0335,0.6222840025174878,-0.8350444763179138
-4.033,0.5049120790830857,-0.6019184314044423
-4.0325,0.3875401556483921,-0.3581957480851866
-4.032,0.3021787567870086,-0.1462629799820306
-4.0315,0.227487532783298,0.05507314971596747
-4.031,-0.1246282375207823,0.002089957689783354
-4.0305,-0.658136980404429,-0.5807251545938954
-4.03,-1.031593100422982,-1.163540266877574
-4.0295,-1.319687821580549,-1.513229334248312
-4.029,-1.095614149569417,-1.163540266878104
-4.0285,-0.6367966306890638,-0.3899856633008816
-4.028,-0.2206598112391885,0.3517790250613109
-4.0275,0.05676473506030786,0.8710143069140429
-4.027,0.1954770082101822,1.178316820663898
-4.0265,0.2488278824985469,1.31607311993095
-4.026,0.2594980573562781,1.347863035146577
-4.0255,0.2381577076409128,1.29487984312074
-4.025,0.2274875327832398,1.220703374284636
-4.0245,0.2061471830678551,1.135930267043123
-4.024,0.1954770082101822,1.019367244586387
-4.0235,0.1848068333525093,0.9134008605348091
-4.023,0.0354243853445641,0.5107286011375696
-4.0225,-0.3807124341046804,-0.3475991096802118
-4.022,-0.5834457564004661,-1.163540266877362
-4.0215,-0.8075194284121801,-1.756952017567162
-4.021,-1.020922925565639,-1.407262950196955
-4.0205,-0.7328282044082075,-0.8350444763179138
-4.02,-0.2953510352428991,-0.4853554089473114
-4.0195,0.05676473506030786,-0.400582301706049
-4.019,0.2701682322139607,-0.570128516188728
-4.0185,0.3661998059330172,-0.7502713690764105
-4.018,0.408880505363835,-0.8986243067489184
-4.0175,0.4835717293676135,-1.036380606016095
-4.017,0.4835717293676135,-0.9516074987748326
-4.0165,0.4195506802214594,-0.7184814538608599
-4.016,0.3555296310754218,-0.4853554089473885
-4.0155,0.323519106502403,-0.2734226408442326
-4.015,0.3021787567872124,-0.06148987274034422
-4.0145,0.5262524287983441,0.3199891098453364
-4.014,0.3448594562179041,0.1186529801473383
-4.0135,-0.1779791118090984,-0.5383386009736111
-4.013,-0.6047861061160158,-0.9622041371799229
-4.0125,-1.159635198715513,-1.227120097309109
-4.012,-1.212986073003577,-0.9728007755844253
-4.0115,-0.8288597781273515,-0.2416327256285375
-4.011,-0.3807124341046804,0.5001319627331828
-4.0105,-0.04993701351681934,1.04056052139623
-4.01,0.1527963087794516,1.358459673551745
-4.0095,0.2381577076409128,1.496215972818921
-4.009,0.2594980573562586,1.517409249629237
-4.0085,0.2594980573562586,1.464426057603362
-4.008,0.2381577076409128,1.400846227172415
-4.0075,0.2168173579255669,1.252493289500205
-4.007,0.1954770082100948,1.051157159801706
-4.0065,0.09944543449103843,0.849821030103708
-4.006,-0.3807124341046804,0.1716361721729923
-4.0055,-0.6794773301198234,-0.7184814538616984
-4.005,-0.7114878546928423,-1.407262950196955
-4.0045,-0.5407650569699201,-1.502632695843462
-4.004,-0.2206598112391788,-1.227120097308829
-4.0035,0.0674349099179905,-0.9198175835592532
-4.003,0.2488278824985954,-0.718481453861072
-4.0025,0.3235191065023059,-0.665498261835283
-4.002,0.3448594562177392,-0.718481453861072
-4.0015,0.3448594562177392,-0.792657922697244
-4.001,0.4195506802214497,-0.9092209451539798
-4.0005,0.5155822539406225,-0.9092209451539798
-4,0.4729015545099309,-0.792657922697244
-3.9995,0.408880505363835,-0.6125150698093976
-3.999,0.3448594562177392,-0.4217755785163839
-3.9985,0.291508581929326,-0.2310360872233701
-3.998,0.4515612047945656,0.1292496185523226
-3.9975,0.5262524287983441,0.2458126410091644
-3.997,0.04609456020262521,-0.3370024712750445
-3.9965,-0.572775581542968,-0.9728007755850904
-3.996,-1.223656247861609,-1.364876396576285
-3.9955,-1.255666772434657,-1.163540266878104
-3.995,-0.8502001278427167,-0.3899856633008816
-3.9945,-0.391382608962363,0.4259554938970107
-3.994,-0.04993701351651855,1.040560521396722
-3.9935,0.1527963087794516,1.42203950398275
-3.993,0.2381577076409128,1.612778995275763
-3.9925,0.2594980573562781,1.6657621873016
-3.992,0.2594980573562781,1.644568910491266
-3.9915,0.2381577076409128,1.580989080060261
-3.991,0.2168173579255475,1.475022696008586
-3.9905,0.2061471830678648,1.305476481525908
-3.99,0.1848068333524996,1.178316820663898
-3.9895,-0.1352984123779797,0.7120647308365314
-3.989,-0.5941159312583333,-0.2098428104130352
-3.9885,-0.8608703027003992,-1.078767159636765
-3.988,-1.052933450138687,-1.545019249464132
-3.9875,-0.8608703027003992,-1.248313374119443
-3.987,-0.4554036581084589,-0.8032545611024114
-3.9865,-0.07127736323188383,-0.6019184314042303
-3.986,0.1741366584948169,-0.6019184314042303
-3.9855,0.3235191065023739,-0.7396747306714069
-3.985,0.3768699807907871,-0.9304142219644207
-3.9845,0.408880505363835,-1.004590690800593
-3.984,0.408880505363835,-1.025783967610927
-3.9835,0.3982103305061524,-0.8986243067489184
-3.983,0.3982103305061524,-0.7396747306714069
-3.9825,0.3555296310754218,-0.5489352393783931
-3.982,0.3021787567870086,-0.326405832869877
-3.9815,0.2488278824985954,-0.1250697031716958
-3.981,-0.1673089369510276,-0.4535654937318862
-3.9805,-0.6154562809736985,-1.01518732920576
-3.98,-0.8822106524157645,-1.439052865412457
-3.9795,-1.244996597576974,-1.629792356705471
-3.979,-1.234326422719292,-1.269506650929778
-3.9785,-0.8181896032696687,-0.4111789401112165
-3.978,-0.3593720843893152,0.4471487707073456
-3.9775,-0.02859666380115328,1.072350436612224
-3.977,0.1634664836371343,1.453829419198252
-3.9765,0.2488278824985954,1.633972272086098
-3.976,0.2701682322139607,1.6657621873016
-3.9755,0.2594980573562781,1.612778995275763
-3.975,0.2381577076409128,1.528005888034424
-3.9745,0.2274875327832301,1.42203950398275
-3.974,0.2061471830678648,1.316073119931075
-3.9735,0.1954770082101822,1.188913459069066
-3.973,0.0674349099179905,0.7968378380778709
-3.9725,-0.4340633083930936,-0.1038764263613609
-3.972,-0.6688071552621118,-0.9939940523954253
-3.9715,-0.7008176798351597,-1.682775548731308
-3.971,-0.6688071552621118,-1.672178910326141
-3.9705,-0.3380317346739499,-1.227120097309109
-3.97,0.00341386077189465,-0.8986243067489184
-3.9695,0.2381577076409128,-0.7502713690765743
-3.969,0.3448594562177392,-0.792657922697244
-3.9685,0.3875401556484697,-0.9198175835592532
-3.968,0.3875401556484697,-0.9410108603695881
-3.9675,0.3982103305061524,-0.8986243067489184
-3.967,0.3768699807907871,-0.8244478379127463
-3.9665,0.3555296310754218,-0.7290780922662394
-3.966,0.3128489316446912,-0.6125150698093976
-3.9655,0.2808384070716433,-0.4535654937318862
-3.965,0.2808384070716433,-0.3158091944647096
-3.9645,0.1527963087794516,-0.5807251545938954
-3.964,-0.3273615598162672,-1.078767159636765
-3.9635,-0.7008176798351597,-1.481439419033127
-3.963,-1.06360362499637,-1.640388995110639
-3.9625,-1.127624674142465,-1.290699927740113
-3.962,-0.7755089038389382,-0.4323722169215513
-3.9615,-0.3593720843893152,0.4365521323021782
-3.961,-0.03926683865883591,1.082947075017392
-3.9605,0.1527963087794516,1.475022696008586
-3.96,0.2381577076409128,1.6657621873016
-3.9595,0.2701682322139607,1.70814874092227
-3.959,0.2594980573562781,1.655165548896433
-3.9585,0.2488278824985954,1.570392441655093
-3.958,0.2274875327832301,1.464426057603419
-3.9575,0.2168173579255475,1.316073119931075
-3.957,0.2061471830678648,1.146526905448396
-3.9565,0.1101156093487211,0.8922075837243778
-3.956,-0.4340633083930936,0.1504428953626575
-3.9555,-0.9035510021311299,-0.7608680074817418
-3.955,-0.9035510021311299,-1.449649503817625
-3.9545,-0.5834457564006506,-1.449649503817625
-3.954,-0.1886492866663929,-1.025783967610927
-3.9535,0.1314559590640864,-0.7078848154559045
-3.953,0.3235191065023739,-0.6972881770507372
-3.9525,0.408880505363835,-0.7714646458869092
-3.952,0.4195506802215176,-0.9304142219644207
-3.9515,0.3875401556484697,-1.046977244421262
-3.951,0.4408910299368829,-1.142346990067769
-3.9505,0.6116138276598051,-1.174136905283272
-3.95,0.5796033030867573,-0.9622041371799229
-3.9495,0.4622313796522482,-0.6866915386455698
-3.949,0.3555296310754218,-0.4111789401112165
-3.9485,0.3021787567870086,-0.1886495336027004
-3.948,0.1527963087794516,-0.2310360872233701
-3.9475,-0.4554036581084589,-0.7290780922662394
-3.947,-0.9355615267041777,-1.237716735714276
-3.9465,-1.277007122150022,-1.545019249464132
-3.946,-1.51175096901904,-1.555615887869299
-3.9455,-1.180975548430879,-0.9410108603695881
-3.945,-0.658136980404429,-0.06148987274069118
-3.9445,-0.2099896363817582,0.701468092431364
-3.944,0.07810508477567314,1.210106735879401
-3.9435,0.2274875327832301,1.485619334413754
-3.943,0.2701682322139607,1.580989080060261
-3.9425,0.2808384070716433,1.559795803249926
-3.942,0.2594980573562781,1.496215972818921
-3.9415,0.2381577076409128,1.400846227172415
-3.941,0.2274875327832301,1.273686566310405
-3.9405,0.2061471830678648,1.125333628638062
-3.94,0.1848068333524996,0.9663840525605498
-3.9395,-0.1779791118087102,0.4683420475176805
-3.939,-0.6154562809736985,-0.4217755785163839
-3.9385,-0.8822106524157645,-1.227120097309109
-3.938,-1.180975548430879,-1.714565463946811
-3.9375,-1.042263275281004,-1.396666311791788
-3.937,-0.5407650569699201,-0.9304142219644207
-3.9365,-0.07127736323188383,-0.6549016234300674
-3.936,0.2168173579255475,-0.5171453241628908
-3.9355,0.3555296310754218,-0.5383386009732256
-3.935,0.3875401556484697,-0.6549016234300674
-3.9345,0.3982103305061524,-0.8138511995075789
-3.934,0.4835717293676135,-0.8880276683437509
-3.9335,0.4835717293676135,-0.8350444763179138
-3.933,0.408880505363835,-0.718481453861072
-3.9325,0.3448594562177392,-0.5595318777835605
-3.932,0.291508581929326,-0.3899856633008816
-3.9315,0.3021787567870086,-0.1780528951975329
-3.931,0.4622313796522482,0.13984625695749
-3.9305,0.1207857842064037,-0.2310360872233701
-3.93,-0.3593720843893152,-0.8350444763179138
-3.9295,-0.9889124009925911,-1.248313374119443
-3.929,-1.554431668449771,-1.42845622700729
-3.9285,-1.426389570157579,-1.004590690800593
-3.928,-0.8928808272734472,-0.1674562567923655
-3.9275,-0.3807124341046804,0.6166949851900245
-3.927,-0.01792648894347063,1.178316820663898
-3.9265,0.1848068333524996,1.506812611224089
-3.926,0.2701682322139607,1.655165548896433
-3.9255,0.291508581929326,1.676358825706768
-3.925,0.2701682322139607,1.633972272086098
-3.9245,0.2488278824985954,1.549199164844759
-3.924,0.2274875327832301,1.443232780793084
-3.9235,0.2168173579255475,1.369056311956912
-3.923,0.07810508477567314,1.157123543853563
-3.9225,-0.4127229586777283,0.3729723018711736
-3.922,-0.690147504977477,-0.6019184314042303
-3.9215,-0.8608703027003992,-1.375473034981453
-3.921,-1.095614149569417,-1.322489842955616
-3.9205,-0.8288597781273515,-0.8562377531282487
-3.92,-0.3593720843893152,-0.5489352393783931
-3.9195,0.05676473506030786,-0.4429688553267188
-3.919,0.291508581929326,-0.5277419625680583
-3.9185,0.3768699807907871,-0.6972881770507372
-3.918,0.3875401556484697,-0.8774310299385835
-3.9175,0.5155822539406614,-1.05757388282643
-3.917,0.6116138276598051,-1.05757388282643
-3.9165,0.5689331282290746,-0.8456411147230812
-3.916,0.4622313796522482,-0.6019184314042303
-3.9155,0.3661998059331045,-0.2734226408440398
-3.915,0.3021787567870086,-0.06148987274069118
-3.9145,-0.01792648894347063,-0.3158091944647096
-3.914,-0.7008176798351597,-0.8880276683437509
-3.9135,-1.074273799854052,-1.38606967338662
-3.913,-1.26633694729234,-1.650985633515806
-3.9125,-1.629122892453549,-1.661582271920973
-3.912,-1.51175096901904,-1.205926820498774
-3.9115,-0.9569018764195432,-0.326405832869877
-3.911,-0.4127229586777283,0.4789386859228479
-3.9105,-0.02859666380115328,1.051157159801889
-3.91,0.1848068333524996,1.369056311956912
-3.9095,0.2808384070716433,1.496215972818921
-3.909,0.291508581929326,1.475022696008586
-3.9085,0.2808384070716433,1.390249588767247
-3.908,0.2594980573562781,1.273686566310405
-3.9075,0.2381577076409128,1.146526905448396
-3.907,0.2274875327832301,0.9875773293708847
-3.9065,0.2061471830678648,0.775644561267536
-3.906,-0.1673089369510276,0.1716361721729923
-3.9055,-0.7755089038389382,-0.6760949002404023
-3.905,-1.405049220442214,-1.375473034981453
-3.9045,-1.405049220442214,-1.407262950196955
-3.904,-0.8608703027003992,-0.9939940523954253
-3.9035,-0.2953510352432193,-0.6019184314042303
-3.903,0.09944543449103843,-0.4641621321370536
-3.9025,0.3021787567870086,-0.4959520473525559
-3.902,0.3875401556484697,-0.6125150698093976
-3.9015,0.3982103305061524,-0.7502713690765743
-3.901,0.4515612047945656,-0.8774310299385835
-3.9005,0.5902734779444399,-0.9622041371799229
-3.9,0.5475927785137094,-0.8350444763179138
-3.8995,0.4515612047945656,-0.6231117082145651
-3.899,0.3555296310754218,-0.400582301706049
-3.8985,0.3021787567870086,-0.1886495336027004
-3.898,0.291508581929326,-0.1356663415768632
-3.8975,0.1954770082101822,-0.570128516188728
-3.897,-0.2099896363817582,-1.110557074852267
-3.8965,-0.6367966306890638,-1.460246142222792
-3.896,-1.074273799854052,-1.51322933424863
-3.8955,-0.9782422261349084,-0.9198175835592532
-3.895,-0.5941159312583333,-0.04029659593035631
-3.8945,-0.2099896363817582,0.7226613692416989
-3.894,0.05676473506030786,1.231300012689736
-3.8935,0.2061471830678648,1.506812611224089
-3.893,0.2701682322139607,1.612778995275763
-3.8925,0.2808384070716433,1.602182356870596
-3.892,0.2701682322139607,1.528005888034424
-3.8915,0.2488278824985954,1.400846227172415
-3.891,0.2381577076409128,1.284283204715573
-3.8905,0.2274875327832301,1.167720182258731
-3.89,0.2168173579255475,1.019367244586387
-3.8895,-0.06060718837420119,0.4895353243280153
-3.889,-0.3807124341046804,-0.4111789401112165
-3.8885,-0.423393133535411,-1.216523458903942
-3.888,-0.7328282044082075,-1.75695201756748
-3.8875,-0.7861790786966207,-1.460246142222792
-3.887,-0.4554036581084589,-0.9939940523954253
-3.8865,-0.09261771294724913,-0.7290780922662394
