Class_1_Relax_eyes_closed/Class_1_Relax_eyes_closed_AM_8.csv

#Digilent WaveForms Oscilloscope Acquisition
#Device Name: EExplorer
#Serial Number: SN:210151A2B84A
#Date Time: 2020-12-06 10:54:04.337
#Sample rate: 2000Hz
#Samples: 16384
#Trigger: Source: Channel 1 Type: Edge Condition: Rising Level: 0 V Hyst.: Auto HoldOff: 0 s
#Channel 1: Range: 1 V/div Offset: 0 V Attenuation: 1 X
#Channel 2: Range: 1 V/div Offset: 0 V Attenuation: 1 X
#Power Supplies: ON
#Fixed Supply: ON
#Voltage: 3.3 V Readback: 3.329 V
#Positive Supply: ON
#Voltage: 3.7 V Readback: 3.713 V
#Current: 40 mA Readback: 15 mA
#Negative Supply: ON
#Voltage: -3.7 V Readback: -3.789 V
#Current: -40 mA Readback: 0 A
#Reference 1: ON
#Voltage: 0 V
#Reference 2: ON
#Voltage: 0 V

Time (s),Channel 1 (V),Channel 2 (V)
-4.096,0.79300680024041,-0.9516074987747555
-4.0955,0.7823366253827372,-0.1886495336033943
-4.095,0.6436243522326105,0.2881991946301907
-4.0945,0.3768699807907871,0.6802748156210291
-4.094,0.1207857842066366,0.9663840525602896
-4.0935,0.0887752596334043,0.9134008605345778
-4.093,0.142126133921769,0.7650479228623686
-4.0925,0.2168173579254796,0.6166949851901594
-4.092,0.227487532782677,0.5743084315697693
-4.0915,-0.3807124341046804,1.029963882991555
-4.091,-1.255666772434657,1.411442865577582
-4.0905,-1.767835165603482,0.6378882619993378
-4.09,-1.83185621474952,-0.4853554089473885
-4.0895,-1.330357996438436,-0.8986243067489184
-4.089,-0.6688071552627134,-0.5383386009735533
-4.0885,-0.1459685872356623,0.03387987290581572
-4.088,0.1848068333524996,0.5213252395435176
-4.0875,0.3448594562175936,0.8710143069137248
-4.087,0.3982103305061524,1.061753798207144
-4.0865,0.3982103305061524,1.157123543853563
-4.086,0.3768699807908065,1.199510097474195
-4.0855,0.3555296310754121,1.188913459068998
-4.085,0.3448594562177392,1.114736990232894
-4.0845,0.3341892813600663,1.051157159801947
-4.084,0.3661998059331724,0.9557874141550933
-4.0835,0.4408910299368829,0.6378882620003594
-4.083,0.2168173579255475,-0.07208651114585861
-4.0825,-0.2633405106707051,-0.7714646458875067
-4.082,-0.8502001278427167,-1.42845622700729
-4.0815,-1.415719395299897,-2.403346960282694
-4.081,-0.5834457564014075,-2.583489813170376
-4.0805,0.2274875327832301,-2.657666282006712
-4.08,0.707645401378949,-2.371557045067191
-4.0795,0.9530594231054266,-1.576809164680357
-4.079,0.9423892482478117,-0.7714646458863792
-4.0785,0.7716664505250448,-0.1886495336027004
-4.078,0.5796033030869321,0.2034260873881381
-4.0775,0.3448594562176421,0.5425185163539007
-4.077,0.2381577076409128,0.5955017083796896
-4.0765,0.2274875327832398,0.5213252395435851
-4.076,0.2381577076409128,0.4789386859228575
-4.0755,0.2381577076409128,0.4895353243280153
-4.075,-0.007256314085787988,0.8286277532933731
-4.0745,-0.08194753808995466,1.422039503982393
-4.074,-0.5087545323968721,1.029963882991555
-4.0735,-1.084943974711735,0.1504428953626575
-4.073,-1.75716499074513,-0.08268314955081402
-4.0725,-2.002579012472442,-0.4429688553267188
-4.072,-1.458400094730627,-0.326405832869877
-4.0715,-0.7541685541242135,0.08686306493127699
-4.071,-0.17797911180839,0.5107286011386393
-4.0705,0.1741366584948169,0.8286277532933731
-4.07,0.3448594562175839,1.040560521396529
-4.0695,0.4088805053638253,1.167720182258779
-4.069,0.3982103305061524,1.220703374284568
-4.0685,0.3768699807907871,1.210106735879401
-4.068,0.3768699807907968,1.114736990232807
-4.0675,0.3875401556484697,1.019367244586387
-4.067,0.4302208550792003,0.8710143069140429
-4.0665,0.2594980573557055,0.3729723018700267
-4.066,-0.3700422592469978,-0.8880276683437509
-4.0655,-0.4767440078238243,-1.237716735714276
-4.065,-0.850200127842377,-1.788741932782482
-4.0645,-0.2526703358124887,-2.307977214636187
-4.064,0.6969752265212663,-2.551699897955038
-4.0635,1.262494493977932,-2.519909982739564
-4.063,1.283834843693608,-1.852321763213139
-4.0625,1.059761171682476,-0.9198175835592532
-4.062,0.8036769750983257,-0.2310360872239965
-4.0615,0.6009436528019382,0.2140227257939512
-4.061,0.3982103305061524,0.5319218779486851
-4.0605,0.2808384070716433,0.6378882620003594
-4.06,0.2594980573562878,0.5743084315692778
-4.0595,0.2701682322139607,0.4895353243280153
-4.059,0.2594980573562781,0.4259554938970107
-4.0585,0.0674349099181652,0.5849050699743776
-4.058,-0.722158029550525,1.231300012689736
-4.0575,-1.554431668449771,1.369056311956912
-4.057,-2.109280761048764,0.4365521323030263
-4.0565,-2.578768454787304,-0.6972881770507372
-4.056,-2.312014083345239,-1.364876396576285
-4.0555,-1.426389570158385,-1.057573882826709
-4.055,-0.6261264558308572,-0.3475991096796047
-4.0545,-0.04993701351651855,0.3199891098453364
-4.054,0.2701682322136696,0.7756445612671217
-4.0535,0.3982103305061815,1.051157159802005
-4.053,0.4302208550792003,1.178316820663898
-4.0525,0.408880505363835,1.210106735879401
-4.052,0.3768699807907677,1.178316820663792
-4.0515,0.3555296310754218,1.061753798207057
-4.051,0.3661998059331045,0.9451907757502149
-4.0505,0.4302208550791421,0.7544512844573745
-4.05,0.4302208550792003,0.309392471440169
-4.0495,-0.124628237520297,-0.3687923864905467
-4.049,-0.6901475049769626,-0.8668343915329632
-4.0485,-1.437059745014699,-1.852321763214363
-4.048,-0.8181896032696687,-2.265590661015517
-4.0475,0.03542438534416614,-2.604683089980567
-4.047,0.6329541773754422,-2.731842750842286
-4.0465,0.9317190733902845,-2.074851169722503
-4.046,0.9637295979633034,-1.13175035166346
-4.0455,0.7930068002402547,-0.3370024712745626
-4.045,0.6222840025174878,0.1928294489833272
-4.0445,0.4515612047945656,0.55311515475902
-4.044,0.2594980573562393,0.7756445612674878
-4.0435,0.2168173579255475,0.7226613692416989
-4.043,0.2381577076409128,0.5955017083796896
-4.0425,0.2701682322139316,0.5319218779487429
-4.042,0.2701682322139607,0.55311515475902
-4.0415,-0.124628237520297,0.9981739677760521
-4.041,-0.7434983792653274,1.506812611223626
-4.0405,-1.405049220442787,0.8604176685077961
-4.04,-2.03458953704549,-0.326405832869877
-4.0395,-2.504077230783099,-1.333086481359868
-4.039,-2.077270236475444,-1.545019249463534
-4.0385,-1.223656247861609,-0.8880276683437509
-4.038,-0.4767440078245037,-0.0720865111466007
-4.0375,0.0354243853451949,0.584905069974898
-4.037,0.3128489316446912,0.9981739677760521
-4.0365,0.4195506802215176,1.220703374284568
-4.036,0.4302208550791809,1.305476481525898
-4.0355,0.408880505363835,1.29487984312074
-4.035,0.3875401556484697,1.199510097474233
-4.0345,0.3768699807907968,1.082947075017498
-4.034,0.3875401556484697,0.9345941373450475
-4.0335,0.3235191065023739,0.7332580076468663
-4.033,-0.1352984123775624,0.09745970333739851
-4.0325,-0.70081767983548,-0.6125150698098891
-4.032,-1.052933450138687,-1.152943628472937
-4.0315,-1.084943974711706,-1.852321763213352
-4.031,-0.6261264558305369,-2.498716705929259
-4.0305,0.3021787567870086,-2.562296536360205
-4.03,0.7716664505246178,-2.339767129851892
-4.0295,0.9317190733902941,-1.576809164678786
-4.029,0.942389248247967,-0.6443049850249
-4.0285,0.7716664505250448,-0.01910331912002144
-4.028,0.5475927785134085,0.3729723018715109
-4.0275,0.2168173579255475,0.7438546460520338
-4.027,0.08877525963335578,0.7650479228623686
-4.0265,0.1207857842063746,0.6166949851901594
-4.026,0.1848068333524996,0.4683420475176805
-4.0255,0.2381577076409128,0.4153588554918433
-4.025,-0.01792648894323773,0.6802748156207882
-4.0245,-0.7968492535547305,1.337266396741275
-4.024,-1.26633694729234,1.188913459069066
-4.0235,-1.458400094730453,0.1504428953636021
-4.023,-1.874536914180531,-0.9198175835598893
-4.0225,-2.183971985053047,-1.619195718300304
-4.022,-1.671803591884746,-1.354279758171359
-4.0215,-0.9035510021305574,-0.5489352393776895
-4.021,-0.274010685527854,0.2246193641988295
-4.0205,0.142126133921769,0.7968378380778709
-4.02,0.3448594562178071,1.125333628638216
-4.0195,0.4195506802215176,1.29487984312074
-4.019,0.4195506802215176,1.33726639674141
-4.0185,0.3982103305061718,1.284283204715621
-4.018,0.3982103305061524,1.135930267043229
-4.0175,0.408880505363835,0.9769806909657173
-4.017,0.4302208550791809,0.7862411996728769
-4.0165,-0.04993701351712023,-0.0932797879573307
-4.016,-0.7114878546928423,-1.34368311976595
-4.0155,-1.010252750707685,-1.926498232049629
-4.015,-1.15963519871495,-2.445733513903672
-4.0145,-0.5407650569699201,-2.784825942868721
-4.014,0.3021787567862421,-2.83780913489451
-4.0135,0.8356874996712281,-2.466926790712956
-4.013,0.9317190733902845,-1.650985633515806
-4.0125,0.8463576745288233,-0.8562377531282487
-4.012,0.7183155762365151,-0.1992461720075016
-4.0115,0.5902734779444399,0.2034260873884947
-4.011,0.3235191065023739,0.6060983467848571
-4.0105,0.1741366584949528,0.7332580076467506
-4.01,0.1741366584948169,0.6590815388106942
-4.0095,0.2168173579255475,0.5425185163538525
-4.009,0.2488278824985663,0.5001319627332214
-4.0085,0.1101156093480515,0.6484849004060377
-4.008,-0.6261264558313813,1.210106735879401
-4.0075,-1.511750969018235,1.294879843120663
-4.007,-2.013249187330484,0.3941655786809012
-4.0065,-2.408045657064382,-0.2734226408440398
-4.006,-2.312014083345239,-0.2416327256285375
-4.0055,-1.533091318733668,-0.09327978795589471
-4.005,-0.722158029550525,0.2352160026039969
-4.0045,-0.1139580626626144,0.5637117931641874
-4.004,0.2381577076410583,0.8286277532935467
-4.0035,0.3982103305061524,1.019367244586387
-4.003,0.4408910299368829,1.146526905448396
-4.0025,0.43022085507921,1.231300012689658
-4.002,0.3982103305061524,1.284283204715573
-4.0015,0.3875401556484697,1.210106735879401
-4.001,0.3982103305061427,1.104140351827823
-4.0005,0.4195506802214012,1.029963882991362
-4,0.291508581929326,0.8180311148882058
-3.9995,-0.3487019095316325,0.2034260873884947
-3.999,-1.074273799854052,-0.5595318777835605
-3.9985,-1.981238662757077,-1.693372187136476
-3.998,-1.426389570157579,-2.117237723343173
-3.9975,-0.4554036581084589,-2.519909982739535
-3.997,0.3768699807907871,-2.647069643601545
-3.9965,0.8783681991018712,-2.096044446532838
-3.996,1.017080472251745,-1.142346990067769
-3.9955,0.8676980242441885,-0.3581957480853793
-3.995,0.6863050516635838,0.1186529801471552
-3.9945,0.4729015545099309,0.4259554938970107
-3.994,0.2594980573562781,0.627291623595192
-3.9935,0.2168173579255475,0.5743084315693548
-3.993,0.2381577076409128,0.457745409112513
-3.9925,0.291508581929326,0.3729723018711736
-3.992,0.2701682322139607,0.383568940276341
-3.9915,-0.1032878878049318,0.8816109453192104
-3.991,0.04609456020262521,1.496215972818921
-3.9905,-0.1779791118087102,0.9981739677760521
-3.99,-0.754168554123573,0.3411823866556712
-3.9895,-1.565101843307454,0.1080563417419877
-3.989,-1.842526389607202,-0.400582301706049
-3.9885,-1.351698346153801,-0.326405832869877
-3.988,-0.6794773301197943,0.06566978812131802
-3.9875,-0.1352984123779797,0.4895353243280153
-3.987,0.2061471830678648,0.8286277532933731
-3.9865,0.3768699807907871,1.061753798207057
-3.986,0.4302208550792003,1.199510097474233
-3.9855,0.4302208550792003,1.273686566310405
-3.985,0.408880505363835,1.29487984312074
-3.9845,0.3875401556484697,1.263089927905238
-3.984,0.3982103305061524,1.199510097474233
-3.9835,0.4302208550792003,0.9663840525605498
-3.983,0.142126133921769,0.3517790250608387
-3.9825,-0.274010685527854,-0.3158091944647096
-3.982,-0.5621054066852853,-0.6972881770507372
-3.9815,-0.4340633083930936,-1.195330182093607
-3.981,-0.2953510352432193,-2.149027638558676
-3.9805,0.408880505363835,-2.382153683472359
-3.98,0.7823366253827275,-2.329170491446522
-3.9795,0.857027849386506,-1.746355379162313
-3.979,0.8890383739595538,-0.8774310299385835
-3.9785,0.7716664505250448,-0.1992461720078678
-3.978,0.5796033030867573,0.1928294489833272
-3.9775,0.3875401556484697,0.4789386859228479
-3.977,0.291508581929326,0.5213252395435176
-3.9765,0.2701682322139607,0.4259554938970107
-3.976,0.291508581929326,0.3411823866556712
-3.9755,0.3021787567870086,0.3199891098453364
-3.975,0.02475421048725994,0.6696781772158616
-3.9745,-0.06060718837420119,1.37965295036208
-3.974,-0.423393133535411,1.220703374284568
-3.9735,-0.9782422261349084,0.13984625695749
-3.973,-1.383708870726849,-0.9410108603695881
-3.9725,-1.234326422719292,-1.280103289334946
-3.972,-0.7328282044082075,-0.7714646458869092
-3.9715,-0.2313299860971235,-0.05089323433552374
-3.971,0.1207857842064037,0.5425185163538525
-3.9705,0.3128489316446912,0.9345941373450475
-3.97,0.3982103305061524,1.157123543853563
-3.9695,0.408880505363835,1.25249328950007
-3.969,0.3982103305061524,1.263089927905238
-3.9685,0.3768699807907871,1.220703374284568
-3.968,0.3661998059331045,1.104140351827727
-3.9675,0.3875401556484697,0.9663840525605498
-3.967,0.4302208550792003,0.8074344764830383
-3.9665,0.408880505363835,0.3305857482505039
-3.966,0.5902734779444399,-0.4217755785163839
-3.9655,-0.007256314085787988,-1.34368311976595
-3.965,-0.7114878546928423,-2.329170491446522
-3.9645,-0.2099896363817582,-2.58348981317054
-3.964,0.3128489316446912,-2.827212496489391
-3.9635,0.6863050516635838,-2.519909982739535
-3.963,0.8890383739595538,-1.523825972653797
-3.9625,0.8463576745288233,-0.6654982618352349
-3.962,0.6756348768059011,-0.1144730647665284
-3.9615,0.5582629533713921,0.2246193641988295
-3.961,0.4195506802215176,0.5107286011383502
-3.9605,0.3128489316446912,0.6166949851900245
-3.96,0.291508581929326,0.55311515475902
-3.9595,0.3021787567870086,0.4895353243280153
-3.959,0.3128489316446912,0.457745409112513
-3.9585,0.2274875327832301,0.5955017083796896
-3.958,-0.4660738329661415,1.178316820663898
-3.9575,-1.287677297007705,1.697552102517103
-3.957,-1.682473766741963,1.019367244586387
-3.9565,-2.098610586191586,-0.2098428104130352
-3.956,-2.557428105071939,-1.237716735714276
-3.9555,-2.183971985053047,-1.502632695843462
-3.955,-1.298347471865388,-0.8562377531282487
-3.9545,-0.5194247072545548,-0.008506680714854012
-3.954,0.02475421048725994,0.6802748156210291
-3.9535,0.3128489316446912,1.146526905448396
-3.953,0.4302208550792003,1.390249588767247
-3.9525,0.4515612047945656,1.485619334413754
-3.952,0.4302208550792003,1.485619334413754
-3.9515,0.3982103305061524,1.411442865577582
-3.951,0.3875401556484697,1.284283204715573
-3.9505,0.4408910299368829,1.040560521396722
-3.95,0.3448594562177392,0.7650479228623686
-3.9495,-0.1993194615240755,0.06566978812131802
-3.949,-0.6047861061160158,-0.5171453241628908
-3.9485,-1.1062843244271,-1.248313374119443
-3.948,-1.490410619303675,-2.21260746898968
-3.9475,-0.6047861061160158,-2.488120067524033
-3.947,0.2381577076409128,-2.657666282006712
-3.9465,0.7289857510943143,-2.21260746898968
-3.946,0.9103787236749192,-1.258910012524611
-3.9455,0.8356874996711408,-0.474758770542221
-3.945,0.6863050516635838,0.02328323450064829
-3.9445,0.5049120790829789,0.2776025562246667
-3.944,0.2808384070716433,0.457745409112513
-3.9435,0.2061471830678648,0.4365521323021782
-3.943,0.2274875327832301,0.3517790250608387
-3.9425,0.2808384070716433,0.2776025562246667
-3.942,0.3021787567870086,0.2670059178194992
-3.9415,0.07810508477567314,0.6696781772158616
-3.941,0.2488278824985954,1.358459673551745
-3.9405,-0.007256314085787988,1.061753798207057
-3.94,-0.6047861061160158,0.07626642652648545
-3.9395,-1.415719395299897,-0.6654982618352349
-3.939,-1.778505340461106,-1.131750351662602
-3.9385,-1.341028171296118,-0.8032545611024114
-3.938,-0.690147504977477,-0.1462629799820306
-3.9375,-0.1459685872356623,0.457745409112513
-3.937,0.1954770082101822,0.8816109453192104
-3.9365,0.3661998059331045,1.135930267043229
-3.936,0.4195506802215176,1.263089927905238
-3.9355,0.4195506802215176,1.305476481525908
-3.935,0.3982103305061524,1.273686566310405
-3.9345,0.3875401556484697,1.199510097474233
-3.934,0.3875401556484697,1.114736990232894
-3.9335,0.4195506802215176,0.9557874141553824
-3.933,0.05676473506030786,0.2352160026039969
-3.9325,-1.042263275281004,-1.142346990067769
-3.932,-1.287677297007705,-1.650985633515806
-3.9315,-1.26633694729234,-2.159624276963843
-3.931,-0.4767440078238243,-2.551699897955038
-3.9305,0.4729015545099309,-2.657666282006712
-3.93,1.049090996824793,-2.403346960282694
-3.9295,1.134452395686255,-1.693372187136476
-3.929,0.9850699476786977,-0.8774310299385835
-3.9285,0.8143471499557753,-0.2204394488182027
-3.928,0.6542945270905358,0.2140227257936621
-3.9275,0.5262524287983441,0.4365521323021782
-3.927,0.4515612047945656,0.4683420475176805
-3.9265,0.3982103305061524,0.4153588554918433
-3.926,0.3661998059331045,0.3517790250608387
-3.9255,0.3448594562177392,0.2987958330350016
-3.925,0.1741366584948169,0.457745409112513
-3.9245,-0.4554036581084589,0.6378882620003594
-3.924,-1.159635198715513,0.1822328105781598
-3.9235,-1.554431668449771,-0.7078848154559045
-3.923,-2.013249187330125,-1.502632695843462
-3.9225,-2.215982509626095,-1.968884785670829
-3.922,-1.607782542738184,-1.460246142222792
-3.9215,-0.8288597781273515,-0.5383386009732256
-3.921,-0.1993194615240755,0.2564092794143318
-3.9205,0.1848068333524996,0.7862411996727035
-3.92,0.3768699807907871,1.082947075017392
-3.9195,0.4408910299368829,1.199510097474233
-3.919,0.4302208550792003,1.210106735879401
-3.9185,0.408880505363835,1.135930267043229
-3.918,0.3875401556484697,1.051157159801889
-3.9175,0.3875401556484697,0.9557874141553824
-3.917,0.3875401556484697,0.8710143069140429
-3.9165,0.2061471830678648,0.5213252395435176
-3.916,-0.02859666380115328,-0.2310360872233701
-3.9155,-1.095614149569417,-1.555615887869299
-3.915,-1.330357996438436,-1.958288147265661
-3.9145,-0.6367966306890638,-2.307977214636187
-3.914,0.3128489316446912,-2.604683089980875
-3.9135,1.038420821967111,-2.572893174765372
-3.913,1.294505018551494,-1.915901593644992
-3.9125,1.145122570543937,-1.01518732920576
-3.912,0.8890383739595538,-0.2840192792492073
-3.9115,0.6863050516635838,0.2140227257936621
-3.911,0.4835717293676135,0.627291623595192
-3.9105,0.3021787567870086,0.8286277532933731
-3.91,0.2594980573562781,0.7544512844572011
-3.9095,0.2701682322139607,0.6166949851900245
-3.909,0.3021787567870086,0.4895353243280153
-3.9085,0.2274875327832301,0.5107286011383502
-3.908,-0.3380317346739499,1.061753798207057
-3.9075,-0.9142211769888124,1.326669758336243
-3.907,-1.426389570157579,0.4683420475176805
-3.9065,-1.991908837614759,-0.6443049850249
-3.906,-2.493407055925843,-1.51322933424863
-3.9055,-2.087940411333903,-1.619195718300304
-3.905,-1.223656247861609,-0.9092209451540858
-3.9045,-0.4554036581084589,-0.08268314955102604
-3.904,0.05676473506030786,0.55311515475902
-3.9035,0.3341892813600565,0.9451907757502149
-3.903,0.4408910299368829,1.146526905448396
-3.9025,0.4622313796522482,1.220703374284568
-3.902,0.4302208550792003,1.199510097474233
-3.9015,0.408880505363835,1.114736990232894
-3.901,0.3875401556484697,0.9981739677760521
-3.9005,0.3875401556484697,0.9345941373450475
-3.9,0.4515612047945656,0.7438546460520338
-3.8995,0.3448594562177392,0.05507314971615059
-3.899,-0.1032878878049318,-0.6125150698093976
-3.8985,-0.8288597781273515,-1.354279758171118
-3.898,-1.319687821580753,-2.382153683472359
-3.8975,-0.4554036581084589,-2.62587636679121
-3.897,0.3128489316446912,-2.753036027653219
-3.8965,0.7289857510943143,-2.318573853041354
-3.896,0.8890383739595538,-1.364876396576285
-3.8955,0.857027849386506,-0.474758770542221
-3.895,0.6969752265212663,0.08686306493165288
-3.8945,0.5689331282290746,0.4047622170866759
-3.894,0.4835717293676135,0.5319218779486851
-3.8935,0.4195506802215176,0.5319218779486851
-3.893,0.3768699807907871,0.5001319627331828
-3.8925,0.3661998059331045,0.457745409112513
-3.892,0.3341892813600565,0.4789386859228479
-3.8915,-0.08194753808956648,0.8816109453192104
-3.891,-0.8928808272734472,1.157123543853563
-3.8905,-1.565101843307454,0.3517790250608387
-3.89,-1.661133417026597,-0.6443049850249
-3.8895,-1.191645723288561,-0.8350444763179138
-3.889,-0.572775581542968,-0.4217755785163839
-3.8885,-0.08194753808956648,0.1080563417419877
-3.888,0.2274875327832301,0.5319218779486851
-3.8875,0.3768699807907871,0.8180311148882058
-3.887,0.4302208550792003,0.9663840525605498
-3.8865,0.4195506802215176,1.040560521396722
-3.886,0.3982103305061524,1.061753798207057
-3.8855,0.3768699807907871,1.061753798207057
-3.885,0.3661998059331045,1.040560521396722
-3.8845,0.3661998059331045,0.9769806909657173
