Class_1_Relax_eyes_closed/Class_1_Relax_eyes_closed_Suko_6.csv

#Digilent WaveForms Oscilloscope Acquisition
#Device Name: EExplorer
#Serial Number: SN:210151A2B84A
#Date Time: 2020-12-22 14:21:47.661
#Sample rate: 2000Hz
#Samples: 16384
#Trigger: Source: Channel 1 Type: Edge Condition: Rising Level: 0 V Hyst.: Auto HoldOff: 0 s
#Channel 1: Range: 1 V/div Offset: 0 V Attenuation: 1 X
#Channel 2: Range: 1 V/div Offset: 0 V Attenuation: 1 X
#Power Supplies: ON
#Fixed Supply: ON
#Voltage: 3.3 V Readback: 3.322 V
#Positive Supply: ON
#Voltage: 3.7 V Readback: 3.673 V
#Current: 40 mA Readback: 19 mA
#Negative Supply: ON
#Voltage: -3.7 V Readback: -4.007 V
#Current: -40 mA Readback: -7 mA
#Reference 1: ON
#Voltage: 0 V
#Reference 2: ON
#Voltage: 0 V

Time (s),Channel 1 (V),Channel 2 (V)
-4.096,0.7503261008096795,-0.7396747306714069
-4.0955,0.5155822539408749,-0.008506680715519077
-4.095,0.3341892813599401,0.4577454091127154
-4.0945,0.2061471830678648,0.6802748156210291
-4.094,0.1101156093488084,0.7120647308365026
-4.0935,0.0674349099179808,0.6484849004054208
-4.093,0.05676473506030786,0.5319218779486851
-4.0925,0.0674349099179808,0.4153588554919493
-4.092,0.07810508477559551,0.2987958330349823
-4.0915,-0.007256314085787988,0.2776025562246667
-4.091,-0.5300948821122373,0.7544512844572011
-4.0905,-1.24499659757746,1.294879843120557
-4.09,-1.778505340461106,1.093543713422559
-4.0895,-1.735824641030376,0.4365521323021782
-4.089,-1.191645723289056,0.002089957690708522
-4.0885,-0.6154562809736985,-0.1886495336027004
-4.088,-0.1993194615240755,-0.1992461720078678
-4.0875,0.04609456020240199,-0.1144730647666055
-4.087,0.1527963087793546,0.02328323450066756
-4.0865,0.04609456020262521,0.04447651131098315
-4.086,-0.4660738329656757,-0.3052125560592241
-4.0855,-0.5941159312581877,-0.2522293640334255
-4.085,-0.4340633083930936,0.05507314971615059
-4.0845,-0.2633405106703267,0.3517790250605689
-4.084,-0.02859666380099801,0.6908714540264086
-4.0835,0.142126133921769,0.92399749893988
-4.083,0.3235191065023739,0.7650479228623686
-4.0825,0.8783681991017742,-0.008506680715528642
-4.082,0.7716664505250448,-0.7502713690765743
-4.0815,0.3555296310754218,-1.131750351662602
-4.081,0.4302208550791324,-1.513229334248283
-4.0805,0.7716664505250448,-1.693372187136476
-4.08,0.9530594231056497,-1.502632695843462
-4.0795,0.899708548817285,-0.7926579226978897
-4.079,0.6969752265210722,0.002089957690824213
-4.0785,0.4835717293676135,0.5637117931641874
-4.078,0.3021787567871736,0.8286277532931322
-4.0775,0.1741366584947296,0.8392243916984249
-4.077,0.07810508477567314,0.7120647308365314
-4.0765,0.04609456020265433,0.5319218779488489
-4.076,0.04609456020263492,0.3411823866555074
-4.0755,0.05676473506030786,0.1610395337678249
-4.075,0.04609456020262521,0.03387987290581572
-4.0745,-0.3487019095323312,0.3623756634666229
-4.074,-1.116954499284783,1.040560521396722
-4.0735,-1.83185621474952,1.602182356870596
-4.073,-2.301343908487129,1.718745379327332
-4.0725,-2.504077230783526,1.655165548896433
-4.072,-1.789175515318789,1.135930267043229
-4.0715,-0.9995825758509918,0.500131962733761
-4.071,-0.4020527838197158,0.05507314971596747
-4.0705,-0.03926683865883591,-0.1462629799820306
-4.07,0.142126133921604,-0.1462629799820306
-4.0695,0.2061471830678551,-0.008506680714680536
-4.069,0.1954770082101822,0.1822328105781598
-4.0685,0.1741366584948169,0.4153588554918433
-4.068,0.1527963087792575,0.6272916235951727
-4.0675,-0.06060718837420119,0.6060983467848571
-4.067,-0.658136980404429,0.1610395337678249
-4.0665,-0.5087545323964354,0.4153588554917373
-4.066,-0.02859666380115328,0.2987958330350016
-4.0655,0.7609962756673623,-0.3370024712750445
-4.065,1.027750647109186,-0.877431029938092
-4.0645,1.081101521397841,-1.227120097309109
-4.064,1.15579274540162,-1.396666311791788
-4.0635,1.113112045970928,-1.174136905283474
-4.063,0.9317190733900419,-0.5171453241621969
-4.0625,0.6649647019482183,0.2458126410091644
-4.062,0.4302208550794138,0.7968378380773697
-4.0615,0.2701682322138637,1.040560521396712
-4.061,0.1634664836371343,1.029963882991555
-4.0605,0.04609456020262521,0.7968378380778709
-4.06,0.003413860771904355,0.5425185163536501
-4.0595,0.01408403562957729,0.3199891098453364
-4.059,0.04609456020262521,0.09745970333682032
-4.0585,0.0674349099179711,-0.1144730647663356
-4.058,0.00341386077189465,-0.1250697031716958
-4.0575,-0.6261264558313813,0.4153588554918433
-4.057,-1.575772018164272,1.051157159801311
-4.0565,-2.258663209056825,1.263089927905238
-4.056,-2.792171951940957,0.5107286011383502
-4.0555,-2.54675793021448,-0.008506680714381765
-4.055,-1.618452717595139,-0.1674562567923462
-4.0545,-0.8181896032696687,-0.1462629799820306
-4.054,-0.2420001609553302,-0.04029659593045269
-4.0535,0.06743490991810695,0.08686306493177817
-4.053,0.1954770082101822,0.2246193641988295
-4.0525,0.2274875327832301,0.3517790250608387
-4.052,0.1954770082101628,0.4683420475177673
-4.0515,0.1741366584948169,0.5637117931641874
-4.051,0.1741366584948169,0.6484849004055269
-4.0505,0.1741366584948169,0.7226613692416314
-4.05,0.2168173579255475,0.7544512844572011
-4.0495,0.6969752265212663,0.3517790250608387
-4.049,1.006410297393781,-0.4853554089466271
-4.0485,0.3128489316444098,-1.545019249464344
-4.048,0.00341386077189465,-1.778145294377815
-4.0475,0.2061471830676805,-1.725162102352026
-4.047,0.4942419042254902,-1.566212526273985
-4.0465,0.707645401378949,-1.036380606016095
-4.046,0.6863050516636032,-0.3581957480859961
-4.0455,0.4942419042251409,0.2140227257940283
-4.045,0.3235191065023739,0.6166949851900245
-4.0445,0.1954770082101822,0.7968378380778709
-4.044,0.08877525963331696,0.7968378380777745
-4.0435,0.04609456020262521,0.6908714540261965
-4.043,0.05676473506030786,0.5425185163538525
-4.0425,0.07810508477565373,0.3835689402764856
-4.042,0.08877525963335578,0.2246193641988295
-4.0415,0.04609456020262521,0.1504428953626575
-4.041,-0.2313299860968712,0.5425185163534959
-4.0405,-0.8715404775586643,1.167720182258866
-4.04,-1.51175096901904,1.316073119931075
-4.0395,-2.087940411333379,0.648484900406134
-4.039,-2.013249187329552,0.118652980146895
-4.0385,-1.383708870726849,-0.1674562567923655
-4.038,-0.7114878546934537,-0.2840192792491013
-4.0375,-0.2206598112391885,-0.2628260024387856
-4.037,0.05676473506030786,-0.1674562567923655
-4.0365,0.1741366584948169,-0.02969995752518888
-4.036,0.2061471830678454,0.1398462569576442
-4.0355,0.1848068333524996,0.309392471440169
-4.035,0.1634664836371343,0.4789386859228479
-4.0345,0.1527963087794613,0.6272916235950571
-4.034,0.1634664836371343,0.7544512844572011
-4.0335,0.2168173579255475,0.8392243916985406
-4.033,0.2488278824985663,0.9028042221294874
-4.0325,0.6436243522329695,0.5849050699740307
-4.032,0.7716664505250448,0.04447651131098315
-4.0315,0.3555296310758003,-0.5065486857572222
-4.031,-0.2099896363818649,-1.322489842956011
-4.0305,-0.3273615598162672,-1.75695201756748
-4.03,0.04609456020228553,-1.364876396576642
-4.0295,0.2168173579256542,-0.7184814538603299
-4.029,0.3341892813600565,0.09745970333682032
-4.0285,0.3768699807907871,0.701468092431364
-4.028,0.2701682322139025,0.923997498939803
-4.0275,0.2061471830678648,0.8392243916985406
-4.027,0.1848068333524996,0.5637117931641874
-4.0265,0.1527963087794807,0.3941655786816626
-4.026,0.1314559590640864,0.2564092794143318
-4.0255,0.1207857842064037,0.1292496185523226
-4.025,0.09944543449105783,0.01268659609558687
-4.0245,-0.1779791118094381,0.25640927941491
-4.024,-0.9782422261349084,0.8922075837243778
-4.0235,-1.895877263894781,1.453829419197741
-4.023,-2.557428105072357,1.422039503982538
-4.0225,-3.016245623952293,1.188913459069066
-4.022,-2.322684258203552,0.8074344764833853
-4.0215,-1.373038695868467,0.2881991946294775
-4.021,-0.6047861061160158,-0.1038764263613609
-4.0205,-0.1032878878049318,-0.2946159176543747
-4.02,0.1421261339218466,-0.2946159176542686
-4.0195,0.2274875327832301,-0.1780528951975329
-4.019,0.2381577076409128,0.01268659609548085
-4.0185,0.206147183067894,0.2246193641986368
-4.018,0.1848068333524996,0.4471487707073456
-4.0175,0.1741366584948169,0.6590815388106942
-4.017,0.1848068333524898,0.8286277532932189
-4.0165,0.2061471830681366,0.9663840525603281
-4.016,0.5049120790829789,0.7226613692416989
-4.0155,1.145122570543355,0.1186529801477045
-4.015,1.230483969405272,-0.4005823017060683
-4.0145,1.091771696255524,-0.4217755785163839
-4.014,1.017080472251813,-0.3370024712751216
-4.0135,0.6009436528015015,-0.4005823017060779
-4.013,-0.08194753808956648,-0.4323722169215513
-4.0125,-0.06060718837420119,0.2458126410091644
-4.012,-0.06060718837410414,0.6484849004057774
-4.0115,0.04609456020262521,0.92399749893988
-4.011,0.1634664836371343,1.00877060618122
-4.0105,0.1421261339217884,0.8074344764832214
-4.01,0.1207857842064037,0.5849050699745222
-4.0095,0.1101156093487211,0.383568940276341
-4.009,0.1101156093487211,0.1928294489835007
-4.0085,0.09944543449108695,0.02328323450059046
-4.008,0.1527963087794516,-0.04029659593035631
-4.0075,0.5902734779440419,0.4047622170862711
-4.007,0.6649647019476652,1.061753798207163
-4.0065,0.05676473506030786,1.178316820663898
-4.006,-0.9569018764195432,0.9345941373450475
-4.0055,-1.373038695868914,0.7120647308361363
-4.005,-1.095614149569417,0.2776025562246667
-4.0045,-0.6367966306890638,-0.09327978795619347
-4.004,-0.2526703358122558,-0.2840192792492362
-4.0035,0.00341386077189465,-0.3158091944647096
-4.003,0.1314559590640864,-0.2204394488182027
-4.0025,0.1741366584947781,-0.05089323433567794
-4.002,0.1741366584948169,0.1504428953626575
-4.0015,0.1634664836371343,0.3623756634660061
-4.001,0.1634664836371343,0.5743084315691621
-4.0005,0.1741366584948266,0.7544512844573553
-4,0.1848068333524996,0.92399749893988
-3.9995,0.4835717293676135,0.7650479228623686
-3.999,1.027750647109428,0.1716361721729923
-3.9985,0.8036769750980928,-0.400582301706049
-3.998,0.3128489316446912,-0.7078848154559045
-3.9975,0.3768699807907871,-0.7820612842920766
-3.997,0.6009436528021226,-0.6972881770507372
-3.9965,0.707645401378949,-0.2946159176543747
-3.996,0.5689331282290746,0.1504428953626575
-3.9955,-0.1032878878049318,0.07626642652648545
-3.995,-0.3807124341046804,0.2458126410091644
-3.9945,-0.3273615598162672,0.4895353243280153
-3.994,-0.3273615598162672,0.5213252395435176
-3.9935,-0.1993194615240755,0.5319218779486851
-3.993,-0.04993701351651855,0.457745409112513
-3.9925,0.00341386077189465,0.2458126410091644
-3.992,0.04609456020262521,0.03387987290581572
-3.9915,0.02475421048725994,-0.1038764263613609
-3.991,-0.5087545323968721,0.2776025562246667
-3.9905,-1.447729919872945,0.92399749893988
-3.99,-2.141291285622316,1.305476481525908
-3.9895,-2.632119329075718,1.231300012689736
-3.989,-2.749491252510227,1.167720182258731
-3.9885,-1.991908837614759,0.6802748156210291
-3.988,-1.1062843244271,0.1080563417419877
-3.9875,-0.423393133535411,-0.2840192792492073
-3.987,-0.01792648894347063,-0.4323722169215513
-3.9865,0.1848068333524996,-0.400582301706049
-3.986,0.2381577076409128,-0.2416327256285375
-3.9855,0.2274875327832301,-0.01910331912002144
-3.985,0.1954770082101822,0.2352160026039969
-3.9845,0.1848068333524996,0.4789386859228479
-3.984,0.1848068333524996,0.7120647308365314
-3.9835,0.1954770082101822,0.92399749893988
-3.983,0.2808384070716433,0.9875773293708847
-3.9825,0.6756348768059011,0.6060983467848571
-3.982,0.8676980242441885,-0.02969995752518888
-3.9815,0.7823366253827275,-0.474758770542221
-3.981,0.8356874996711408,-0.5277419625680583
-3.9805,0.9103787236749192,-0.400582301706049
-3.98,0.8890383739595538,-0.008506680714854012
-3.9795,0.7609962756673623,0.4895353243280153
-3.979,0.5582629533713921,0.8816109453192104
-3.9785,0.3555296310754218,1.135930267043229
-3.978,-0.04993701351651855,0.9028042221295453
-3.9775,-0.7328282044082075,0.09745970333682032
-3.977,-0.7008176798351597,-0.2098428104130352
-3.9765,-0.5514352318276028,-0.3158091944647096
-3.976,-0.2953510352432193,-0.2734226408440398
-3.9755,-0.02859666380115328,-0.1992461720078678
-3.975,0.0674349099179905,-0.2734226408440398
-3.9745,-0.1886492866663929,-0.06148987274069118
-3.974,-1.020922925565639,0.5849050699745222
-3.9735,-1.906547438753298,1.146526905448396
-3.973,-2.215982509626095,1.157123543853563
-3.9725,-2.418715831922065,1.199510097474233
-3.972,-2.258663209056825,1.072350436612224
-3.9715,-1.522421143876723,0.5319218779486851
-3.971,-0.7648387289812555,0.002089957690313421
-3.9705,-0.2313299860971235,-0.2946159176543747
-3.97,0.0674349099179905,-0.3687923864905467
-3.9695,0.2061471830678648,-0.2734226408440398
-3.969,0.2381577076409128,-0.06148987274069118
-3.9685,0.2168173579255475,0.1928294489833272
-3.968,0.1954770082101822,0.457745409112513
-3.9675,0.1848068333524996,0.7120647308365314
-3.967,0.1848068333524996,0.9451907757502149
-3.9665,0.2274875327832301,1.104140351827727
-3.966,0.7503261008096795,0.775644561267536
-3.9655,1.326515543124542,0.1186529801471552
-3.965,1.15579274540162,-0.3370024712750445
-3.9645,0.974399772821015,-0.5171453241628908
-3.964,1.059761171682476,-0.6125150698093976
-3.9635,1.070431346540159,-0.4853554089473885
-3.963,0.9317190733902845,-0.008506680714854012
-3.9625,0.707645401378949,0.5743084315693548
-3.962,0.4942419042252961,1.00877060618122
-3.9615,0.3235191065023739,1.157123543853563
-3.961,0.1954770082101822,1.072350436612224
-3.9605,0.1207857842064037,0.8392243916985406
-3.96,-0.08194753808956648,0.4047622170866759
-3.9595,-0.658136980404429,-0.4429688553267188
-3.959,-0.6154562809736985,-0.6654982618352349
-3.9585,-0.4554036581084589,-0.7396747306714069
-3.958,-0.3487019095316325,-0.6337083466197325
-3.9575,-0.4020527838200457,0.08686306493165288
-3.957,-1.042263275281004,0.8604176685088755
-3.9565,-1.842526389607202,1.114736990232894
-3.956,-2.333354433060604,0.4895353243280153
-3.9555,-1.970568487899394,-0.1250697031716958
-3.955,-1.223656247861609,-0.5171453241628908
-3.9545,-0.5514352318276028,-0.6866915386455698
-3.954,-0.1032878878049318,-0.6654982618352349
-3.9535,0.142126133921769,-0.5277419625680583
-3.953,0.2274875327832301,-0.3158091944647096
-3.9525,0.2274875327832301,-0.08268314955102604
-3.952,0.2061471830678648,0.1716361721729923
-3.9515,0.1848068333524996,0.4259554938970107
-3.951,0.1848068333524996,0.6590815388106942
-3.9505,0.1954770082101822,0.8710143069140429
-3.95,0.2061471830678648,1.061753798207057
-3.9495,0.4302208550792003,0.9557874141553824
-3.949,0.9637295979633325,0.3517790250608387
-3.9485,0.857027849386506,-0.2310360872233701
-3.948,0.6116138276598051,-0.5065486857577234
-3.9475,0.7396559259519968,-0.6654982618352349
-3.947,0.8890383739595538,-0.6443049850249
-3.9465,0.8890383739595538,-0.2946159176543747
-3.946,0.7503261008096795,0.2987958330350016
-3.9455,0.5582629533713921,0.849821030103708
-3.945,0.3768699807907871,1.104140351827727
-3.9445,0.2488278824985954,1.093543713422559
-3.944,0.1101156093487211,0.9028042221295453
-3.9435,0.02475421048725994,0.6378882620003594
-3.943,0.02475421048725994,0.3729723018711736
-3.9425,0.04609456020262521,0.1292496185523226
-3.942,0.07810508477567314,-0.1038764263613609
-3.9415,-0.06060718837420119,-0.4111789401112165
-3.941,-0.9889124009925911,-0.6231117082145651
-3.9405,-1.906547438753298,0.04447651131098315
-3.94,-2.557428105071939,0.6590815388106942
-3.9395,-3.026915798809975,0.5001319627331828
-3.939,-2.738821077652544,0.4153588554918433
-3.9385,-1.83185621474952,0.08686306493165288
-3.938,-0.9675720512772257,-0.3158091944647096
-3.9375,-0.3380317346739499,-0.5277419625680583
-3.937,0.03542438534494258,-0.5595318777835605
-3.9365,0.2061471830678648,-0.4429688553267188
-3.936,0.2488278824985954,-0.2310360872233701
-3.9355,0.2381577076409128,0.03387987290581572
-3.935,0.2168173579255475,0.309392471440169
-3.9345,0.1954770082101822,0.5637117931641874
-3.934,0.1954770082101822,0.7968378380778709
-3.9335,0.1954770082101822,1.00877060618122
-3.933,0.3128489316446912,1.061753798207057
-3.9325,0.8997085488172365,0.5001319627331828
-3.932,1.091771696255524,-0.1886495336027004
-3.9315,0.7716664505250448,-0.5489352393783931
-3.931,0.6863050516635838,-0.6019184314042303
-3.9305,0.7716664505250448,-0.5065486857577234
-3.93,0.79300680024041,-0.1780528951975329
-3.9295,0.6756348768059011,0.3411823866556712
-3.929,0.5049120790829789,0.8604176685088755
-3.9285,0.3555296310754218,1.104140351827727
-3.928,0.2381577076409128,1.093543713422559
-3.9275,0.1634664836371343,0.92399749893988
-3.927,0.08877525963335578,0.6484849004055269
-3.9265,0.07810508477567314,0.383568940276341
-3.926,0.07810508477567314,0.1504428953626575
-3.9255,0.08877525963335578,-0.08268314955102604
-3.925,0.08877525963335578,-0.2840192792492073
-3.9245,-0.1779791118087102,-0.1250697031716958
-3.924,-0.8608703027003992,0.4789386859228479
-3.9235,-1.479740444445993,0.92399749893988
-3.923,-1.938557963326346,0.4153588554918433
-3.9225,-2.674800028506448,-0.2416327256285375
-3.922,-2.333354433060604,-0.2628260024388724
-3.9215,-1.554431668449771,-0.4959520473525559
-3.921,-0.7861790786966207,-0.6443049850249
-3.9205,-0.1673089369510276,-0.6019184314042303
-3.92,0.1207857842064037,-0.5065486857577234
-3.9195,0.2061471830678648,-0.3581957480853793
-3.919,0.2168173579255475,-0.1356663415768632
-3.9185,0.1954770082101822,0.13984625695749
-3.918,0.1848068333524996,0.4153588554918433
-3.9175,0.1954770082101822,0.6696781772158616
-3.917,0.2274875327832301,0.9028042221295453
-3.9165,0.3021787567870086,1.051157159801889
-3.916,0.6222840025174878,0.7120647308365314
-3.9155,1.091771696255524,-0.04029659593035631
-3.915,0.9850699476786977,-0.6760949002404023
-3.9145,0.6863050516635838,-1.05757388282643
-3.914,0.7609962756673623,-1.152943628472937
-3.9135,0.8783681991018712,-0.9304142219644207
-3.913,0.857027849386506,-0.326405832869877
-3.9125,0.7183155762366316,0.4259554938970107
-3.912,0.5262524287983441,0.9557874141553824
-3.9115,0.3555296310754218,1.167720182258731
-3.911,0.2381577076409128,1.135930267043229
-3.9105,0.1101156093487211,0.9981739677760521
-3.91,0.04609456020262521,0.7544512844572011
-3.9095,0.04609456020262521,0.4365521323021782
-3.909,0.0674349099179905,0.1186529801471552
-3.9085,0.07810508477567314,-0.1886495336027004
-3.908,-0.007256314085787988,-0.2840192792492073
-3.9075,-0.5407650569699201,0.1716361721729923
-3.907,-1.30901764672307,0.775644561267536
-3.9065,-1.991908837614759,1.082947075017392
-3.906,-2.247993034199143,0.8604176685088755
-3.9055,-1.597112367880501,0.3199891098453364
-3.905,-0.9995825758502737,-0.3899856633008816
-3.9045,-0.9782422261349084,-1.301296566145281
-3.904,-0.7328282044082075,-1.534422611058964
-3.9035,-0.4020527838200457,-1.311893204550448
-3.903,-0.1886492866663929,-0.9622041371799229
-3.9025,0.04609456020262521,-0.4641621321370536
-3.902,0.1741366584948169,-0.01910331912002144
-3.9015,0.1741366584948169,0.2881991946298341
-3.901,0.1741366584948169,0.5743084315693548
-3.9005,0.1741366584948169,0.8392243916985406
-3.9,0.1954770082101822,1.061753798207057
-3.8995,0.4195506802215176,0.9981739677760521
-3.899,1.017080472251745,0.2987958330350016
-3.8985,1.049090996824793,-0.4111789401112165
-3.898,0.5049120790829789,-0.8880276683437509
-3.8975,0.3875401556484697,-1.184733543688439
-3.897,0.6222840025174878,-1.184733543688439
-3.8965,0.825017324813458,-0.8774310299385835
-3.896,0.79300680024041,-0.2098428104130352
-3.8955,0.6542945270905358,0.4895353243280153
-3.895,0.4729015545099309,0.9557874141553824
-3.8945,0.3128489316446912,1.125333628638062
-3.894,0.1848068333524996,1.040560521396722
-3.8935,0.1207857842064037,0.8074344764830383
-3.893,0.08877525963335578,0.5001319627331828
-3.8925,0.09944543449103843,0.1716361721729923
-3.892,0.09944543449103843,-0.1356663415768632
-3.8915,0.08877525963335578,-0.3899856633008816
-3.891,-0.2099896363817582,-0.2098428104130352
-3.8905,-0.9142211769888124,0.3411823866556712
-3.89,-1.618452717595867,0.5743084315693548
-3.8895,-2.002579012472442,0.3941655786815084
-3.889,-2.290673733629873,0.5107286011383502
-3.8885,-1.757164990745741,0.2881991946298341
-3.888,-1.020922925565639,-0.1780528951975329
-3.8875,-0.4127229586777283,-0.5383386009732256
-3.887,-0.02859666380115328,-0.6866915386455698
