Class_1_Relax_eyes_closed/Class_1_Relax_eyes_closed_UZ_9.csv

#Digilent WaveForms Oscilloscope Acquisition
#Device Name: EExplorer
#Serial Number: SN:210151A2B84A
#Date Time: 2020-12-21 13:35:21.834
#Sample rate: 2000Hz
#Samples: 16384
#Trigger: Source: Channel 1 Type: Edge Condition: Rising Level: 0 V Hyst.: Auto HoldOff: 0 s
#Channel 1: Range: 1 V/div Offset: 0 V
#Channel 2: Range: 1 V/div Offset: 0 V

Time (s),Channel 1 (V),Channel 2 (V)
-4.0960000000000001,0.82501732481345802,0.54251851635385251
-4.0955000000000004,0.8036769750981122,-0.25222936403298213
-4.0949999999999998,0.70764540137882292,-0.8774310299388437
-4.0945,0.5689331282290746,-1.1635402668781043
-4.0940000000000003,0.4302208550793265,-1.2377167357142089
-4.0934999999999997,0.2915085819291513,-1.1953301820936548
-4.093,0.099445434491038431,-1.2483133741194434
-4.0925000000000002,-0.060607188374055626,-1.2165234589039704
-4.0919999999999996,-0.081947538089537364,-0.97280077558481093
-4.0914999999999999,-0.049937013516518552,-0.66549826183523486
-4.0910000000000002,-0.017926488943470625,-0.37938902489571413
-4.0904999999999996,0.0034138607716326297,-0.12506970317137772
-4.0899999999999999,-0.28468086038553664,0.2246193641988295
-4.0895000000000001,-0.97824222613490841,0.73325800764686633
-4.0890000000000004,-1.5651018433069199,1.1783168206634935
-4.0884999999999998,-2.0452597119031726,1.2736865663104053
-4.0880000000000001,-2.4507263564951129,1.1677201822587309
-4.0875000000000004,-1.917217613611466,0.80743447648336608
-4.0869999999999997,-1.1276246741419123,0.25640927941393665
-4.0865,-0.51942470725455481,-0.17805289519753292
-4.0860000000000003,-0.11395806266298319,-0.40058230170584663
-4.0854999999999997,0.078105084775741074,-0.46416213213700541
-4.085,0.15279630877945163,-0.41117894011121647
-4.0845000000000002,0.15279630877945163,-0.30521255605963848
-4.0839999999999996,0.14212613392175927,-0.18864953360259434
-4.0834999999999999,0.13145595906408636,-0.072086511145858609
-4.0830000000000002,0.14212613392176898,0.033879872905815719
-4.0824999999999996,0.15279630877951955,0.11865298014725156
-4.0819999999999999,0.22748753278323011,0.2246193641988295
-4.0815000000000001,0.57960330308675734,0.58490506997452218
-4.0810000000000004,0.57960330308675734,0.97698069096536067
-4.0804999999999998,0.91037872367491923,1.2207033742845681
-4.0800000000000001,1.2945050185514941,0.80743447648303834
-4.0795000000000003,1.3905365922705506,0.17163617217357052
-4.0789999999999997,1.2411541442628382,-0.49595204735297033
-4.0785,0.97439977282101498,-0.95160749877475548
-4.0780000000000003,0.66496470194849977,-1.2059268204985427
-4.0774999999999997,0.43022085507903535,-1.2589100125245916
-4.077,0.24882788249859539,-1.2377167357142764
-4.0765000000000002,0.13145595906419311,-1.205926820498803
-4.0759999999999996,0.056764735060288452,-1.1635402668779598
-4.0754999999999999,0.035424385344942577,-1.0045906908005926
-4.0750000000000002,0.035424385344942577,-0.80325456110241145
-4.0744999999999996,0.035424385344942577,-0.58072515459370266
-4.0739999999999998,0.035424385344942577,-0.36879238649054674
-4.0735000000000001,-0.15663876209334496,-0.1674562567923655
-4.0730000000000004,-0.78617907869604819,0.19282944898299956
-4.0724999999999998,-1.437059745015262,0.72266136924169888
-4.0720000000000001,-1.8958772638956156,0.98757732937088472
-4.0715000000000003,-2.3546947827755518,0.23521600260468112
-4.0709999999999997,-2.2159825096253667,-0.55953187778374358
-4.0705,-1.4157193952998968,-0.76086800748174177
-4.0700000000000003,-0.73282820440882857,-0.64430498502500599
-4.0694999999999997,-0.25267033581223641,-0.43237221692135858
-4.069,0.024754210487259936,-0.22043944881820265
-4.0685000000000002,0.13145595906408636,-0.072086511145858609
-4.0679999999999996,0.16346648363711488,0.03387987290586391
-4.0674999999999999,0.14212613392176898,0.086863064931652884
-4.0670000000000002,0.13145595906408636,0.10805634174198775
-4.0664999999999996,0.13145595906410576,0.10805634174196847
-4.0659999999999998,0.15279630877945163,0.086863064931652884
-4.0655000000000001,0.22748753278323011,0.086863064931652884
-4.0650000000000004,0.59027347794410989,0.3305857482502822
-4.0644999999999998,1.2731646688361289,0.775644561267536
-4.0640000000000001,1.7639927122895305,1.1253336286380615
-4.0635000000000003,1.6999716631434927,1.0299638829916413
-4.0629999999999997,1.5505892151356349,0.50013196273250815
-4.0625,1.2838348436938116,-0.24163272562853755
-4.0620000000000003,0.99574012253664224,-0.89862430674832083
-4.0614999999999997,0.75032610080946605,-1.3224898429557697
-4.0609999999999999,0.51558225394066137,-1.4920360574382947
-4.0605000000000002,0.32351910650237387,-1.4814394190331273
-4.0599999999999996,0.1954770082101919,-1.3648763965760831
-4.0594999999999999,0.20614718306786484,-1.1423469900677694
-4.0590000000000002,0.18480683335249956,-0.99399405239542526
-4.0585000000000004,0.14212613392180778,-0.89862430674900506
-4.0579999999999998,0.099445434491038431,-0.792657922697244
-4.0575000000000001,0.05676473506030786,-0.66549826183523486
-4.0570000000000004,-0.049937013516421498,-0.51714532416302572
-4.0564999999999998,-0.42339313353541097,-0.4641621321370536
-4.056,-1.0102527507079564,-0.1674562567923655
-4.0555000000000003,-1.5437614935916031,0.4471487707067866
-4.0549999999999997,-2.0986105861917896,1.008770606181451
-4.0545,-2.322684258202921,1.2630899279052379
-4.0540000000000003,-1.6291228924541803,0.8816109453195573
-4.0534999999999997,-0.90355100213064465,0.29879583303461604
-4.0529999999999999,-0.3700422592469978,-0.12506970317169577
-4.0525000000000002,-0.039266838658835915,-0.32640583286987701
-4.0519999999999996,0.11011560934875989,-0.34759910968012508
-4.0514999999999999,0.15279630877945163,-0.25222936403370499
-4.0510000000000002,0.14212613392176898,-0.11447306476652835
-4.0505000000000004,0.13145595906409607,0.033879872905680813
-4.0499999999999998,0.12078578420640371,0.17163617217299235
-4.0495000000000001,0.14212613392176898,0.28819919462983412
-4.0490000000000004,0.18480683335246073,0.38356894027625432
-4.0484999999999998,0.47290155451024141,0.64848490040588347
-4.048,0.81434714995577528,1.0405605213967219
-4.0475000000000003,0.34485945621816616,1.3478630351462979
-4.0469999999999997,-0.3380317346737558,1.2948798431200368
-4.0465,-0.12462823752029703,0.52132523954351762
-4.0460000000000003,0.32351910650196625,-0.16745625679173914
-4.0454999999999997,0.64362435223294046,-0.75027136907695979
-4.0449999999999999,0.73965592595199681,-1.1741369052832717
-4.0445000000000002,0.64362435223285308,-1.3860696733866202
-4.0439999999999996,0.48357172936746795,-1.375473034981366
-4.0434999999999999,0.32351910650237387,-1.2801032893349458
-4.0430000000000001,0.22748753278323011,-1.131750351662602
-4.0425000000000004,0.15279630877951955,-0.98339741399039271
-4.0419999999999998,0.099445434491038431,-0.86683439153341613
-4.0415000000000001,0.067434909917990504,-0.73967473067140688
-4.0410000000000004,0.056764735060317567,-0.60191843140435553
-4.0404999999999998,0.035424385344806714,-0.45356549373173199
-4.04,-0.11395806266261441,-0.28401927924920728
-4.0395000000000003,-0.49808435753884017,-0.040296595930577966
-4.0389999999999997,-1.0315931004238554,0.46834204751816239
-4.0385,-1.618452717595867,0.99817396777605205
-4.0380000000000003,-2.0452597119027844,1.2948798431204704
-4.0374999999999996,-1.6397930673106402,0.95578741415483304
-4.0369999999999999,-0.98891240099259115,0.35177902506083869
-4.0365000000000002,-0.4554036581084589,-0.12506970317169577
-4.0359999999999996,-0.10328788780476678,-0.40058230170610687
-4.0354999999999999,0.078105084775673142,-0.4641621321370536
-4.0350000000000001,0.14212613392176898,-0.41117894011121647
-4.0345000000000004,0.14212613392176898,-0.2946159176544807
-4.0339999999999998,0.13145595906408636,-0.15685961838719809
-4.0335000000000001,0.12078578420640371,-0.019103319120021445
-4.0330000000000004,0.13145595906407664,0.097459703336714304
-4.0324999999999998,0.15279630877950987,0.19282944898342358
-4.032,0.21681735792554749,0.29879583303500157
-4.0315000000000003,0.7396559259515213,0.62729162359489321
-4.0309999999999997,1.0917716962550581,1.0405605213969917
-4.0305,0.57960330308675734,1.33726639674141
-4.0300000000000002,0.2488278824988962,1.33726639674141
-4.0294999999999996,0.38754015564865413,0.77564456126679393
-4.0289999999999999,0.59027347794443985,-0.04029659593035631
-4.0285000000000002,0.70764540137894905,-0.73967473067140688
-4.0279999999999996,0.65429452709039992,-1.2059268204989475
-4.0274999999999999,0.50491207908297886,-1.3966663117917877
-4.0270000000000001,0.35552963107542179,-1.4602461422227924
-4.0265000000000004,0.23815770764101951,-1.4602461422227924
-4.0259999999999998,0.13145595906408636,-1.4814394190331273
-4.0255000000000001,0.067434909917990504,-1.2589100125246109
-4.0250000000000004,0.046094560202644623,-0.94101086036987724
-4.0244999999999997,0.03542438534493287,-0.64430498502465905
-4.024,0.024754210487259936,-0.37938902489571413
-4.0235000000000003,-0.18864928666619879,-0.2734226408441362
-4.0229999999999997,-0.76483872898179894,-0.24163272562814242
-4.0225,-1.3623685210114835,0.19282944898332721
-4.0220000000000002,-1.8638667393221116,0.65908153881027021
-4.0214999999999996,-2.3546947827759208,0.56371179316409104
-4.0209999999999999,-2.301343908487556,0.45774540911251305
-4.0205000000000002,-1.4904106193036752,0.21402272579366208
-4.0199999999999996,-0.77550890383848214,-0.029699957525343081
-4.0194999999999999,-0.27401068552785401,-0.19924617200786782
-4.0190000000000001,0.014084035629577295,-0.27342264084403983
-4.0185000000000004,0.14212613392165252,-0.27342264084403983
-4.0179999999999998,0.16346648363713429,-0.25222936403370499
-4.0175000000000001,0.15279630877945163,-0.20984281041303524
-4.0170000000000003,0.13145595906410576,-0.16745625679240406
-4.0164999999999997,0.13145595906411547,-0.13566634157684393
-4.016,0.16346648363713429,-0.11447306476652835
-4.0155000000000003,0.27016823221386366,-0.04029659593042377
-4.0149999999999997,0.77166645052520011,0.3199891098457508
-4.0145,0.94238924824796699,0.775644561267536
-4.0140000000000002,0.31284893164526373,1.1677201822583743
-4.0134999999999996,-0.1246282375200253,1.4008462271724436
-4.0129999999999999,0.17413665849481691,1.432636142387917
-4.0125000000000002,0.52625242879834411,0.92399749893988004
-4.0119999999999996,0.70764540137896847,0.086863064930978257
-4.0114999999999998,0.72898575109431429,-0.65490162343006741
-4.0110000000000001,0.59027347794443985,-1.0787671596367647
-4.0105000000000004,0.43022085507934593,-1.2483133741192893
-4.0099999999999998,0.27016823221396069,-1.2695066509297783
-4.0095000000000001,0.08877525963335578,-1.3860696733866202
-4.0090000000000003,-0.017926488943373578,-1.2695066509298842
-4.0084999999999997,-0.028596663801133869,-0.99399405239513616
-4.008,-0.0072563140857879876,-0.67609490024040231
-4.0075000000000003,0.014084035629557887,-0.4005823017062996
-4.0069999999999997,0.014084035629324979,-0.16745625679231732
-4.0065,-0.26334051067017139,-0.11447306476652835
-4.0060000000000002,-0.78617907869662074,0.086863064931652884
-4.0054999999999996,-1.3730386958696901,0.56371179316407172
-4.0049999999999999,-1.9492281381840288,0.43655213230217815
-4.0045000000000002,-2.2693333839145078,-0.3581957480853793
-4.0039999999999996,-1.6504632421682741,-0.69728817705069868
-4.0034999999999998,-0.94623170156186043,-0.65490162343006741
-4.0030000000000001,-0.39138260896236304,-0.48535540894738849
-4.0025000000000004,-0.049937013516829054,-0.31580919446486377
-4.0019999999999998,0.11011560934872107,-0.18864953360270037
-4.0015000000000001,0.16346648363713429,-0.12506970317169577
-4.0010000000000003,0.15279630877946135,-0.10387642636138018
-4.0004999999999997,0.14212613392175927,-0.10387642636138018
-4,0.13145595906408636,-0.12506970317169577
-3.9994999999999998,0.14212613392176898,-0.15685961838719809
-3.9990000000000001,0.18480683335249956,-0.18864953360270037
-3.9984999999999999,0.41955068022151765,-0.11447306476652835
-3.9980000000000002,1.0490909968247935,0.29879583303500157
-3.9975000000000001,1.0597611716824762,0.7968378380778709
-3.9969999999999999,0.36619980593310447,1.1147369902328941
-3.9965000000000002,0.23815770764091276,1.0405605213967219
-3.996,0.38754015564846972,0.59550170837968963
-3.9954999999999998,0.53692260365602662,-0.082683149551026042
-3.9950000000000001,0.60094365280212259,-0.71848145386107198
-3.9944999999999999,0.5689331282290746,-1.1423469900677694
-3.9940000000000002,0.44089102993688295,-1.3542797581711179
-3.9935,0.29150858192932599,-1.3966663117917877
-3.9929999999999999,0.19547700821018218,-1.2483133741194434
-3.9925000000000002,0.14212613392176898,-1.0469772444212624
-3.992,0.099445434491038431,-0.86683439153341613
-3.9914999999999998,0.078105084775673142,-0.68669153864556975
-3.9910000000000001,0.05676473506030786,-0.51714532416289083
-3.9904999999999999,0.024754210487259936,-0.34759910968021185
-3.9900000000000002,-0.28468086038553664,-0.10387642636136091
-3.9895,-0.82885977812735145,0.37297230187117358
-3.9889999999999999,-1.2663369472923398,0.9134008605347127
-3.9885000000000002,-1.6077825427381842,0.9134008605347127
-3.988,-2.0132491873301248,-0.061489872740691176
-3.9874999999999998,-1.8105158650341544,-0.80325456110241145
-3.9870000000000001,-1.1703053735731959,-0.88802766834375091
-3.9864999999999999,-0.58344575640065055,-0.67609490024040231
-3.9860000000000002,-0.17797911180871023,-0.38998566330088158
-3.9855,0.046094560202625215,-0.15685961838719809
-3.9849999999999999,0.14212613392176898,0.0020899576903134209
-3.9845000000000002,0.16346648363713429,0.097459703336820316
-3.984,0.14212613392176898,0.13984625695749003
-3.9834999999999998,0.13145595906408636,0.13984625695749003
-3.9830000000000001,0.14212613392176898,0.12924961855232261
-3.9824999999999999,0.19547700821018218,0.10805634174198775
-3.9820000000000002,0.25949805735627807,0.076266426526485451
-3.9815,0.77166645052504479,0.31998910984533641
-3.9809999999999999,1.2731646688361289,0.76504792286236856
-3.9805000000000001,1.2731646688361289,1.1041403518277266
-3.98,1.1131120459708892,0.84982103010370802
-3.9794999999999998,1.0811015213978414,0.42595549389701071
-3.9790000000000001,1.0277506471094282,-0.26282600243887239
-3.9784999999999999,0.8997085488172365,-0.89862430674891836
-3.9780000000000002,0.69697522652126631,-1.2801032893349458
-3.9775,0.49424190422529612,-1.523825972653797
-3.9769999999999999,0.32351910650237387,-1.5662125262744668
-3.9765000000000001,0.15279630877945163,-1.5132293342486296
-3.976,-0.017926488943470625,-1.4708427806279598
-3.9754999999999998,-0.071277363231883828,-1.2695066509297783
-3.9750000000000001,-0.049937013516518552,-1.01518732920576
-3.9744999999999999,-0.0072563140857879876,-0.75027136907657432
-3.9740000000000002,0.014084035629577295,-0.51714532416289083
-3.9735,-0.049937013516518552,-0.27342264084403983
-3.9729999999999999,-0.4980843575391895,0.044476511310983152
-3.9725000000000001,-1.2129860730039266,0.31998910984533641
-3.972,-1.7571649907457412,0.68027481562102909
-3.9714999999999998,-2.301343908487556,1.0829470750173917
-3.9710000000000001,-2.2693333839145078,1.1783168206638983
-3.9704999999999999,-1.46907026958831,0.73325800764686633
-3.9700000000000002,-0.76483872898125549,0.20342608738849466
-3.9695,-0.26334051067017139,-0.1674562567923655
-3.9689999999999999,0.014084035629577295,-0.3581957480853793
-3.9685000000000001,0.14212613392176898,-0.40058230170604903
-3.968,0.17413665849481691,-0.3581957480853793
-3.9674999999999998,0.15279630877945163,-0.27342264084403983
-3.9670000000000001,0.14212613392176898,-0.17805289519753292
-3.9664999999999999,0.14212613392176898,-0.082683149551026042
-3.9660000000000002,0.15279630877945163,-0.0085066807148540119
-3.9655,0.21681735792554749,0.097459703336820316
-3.9649999999999999,0.6863050516635838,0.48953532432801533
-3.9645000000000001,1.0277506471094282,0.97698069096571727
-3.964,0.52625242879834411,1.33726639674141
-3.9634999999999998,0.024754210487259936,1.4644260576034194
-3.9630000000000001,0.18480683335249956,1.0617537982070568
-3.9624999999999999,0.45156120479456557,0.37297230187117358
-3.9620000000000002,0.59027347794443985,-0.34759910968021185
-3.9615,0.60094365280212259,-0.82444783791274634
-3.9609999999999999,0.50491207908297886,-1.0681705212315973
-3.9605000000000001,0.35552963107542179,-1.1211537132574345
-3.96,0.22748753278323011,-1.0681705212315973
-3.9594999999999998,0.12078578420640371,-1.1741369052832717
-3.9590000000000001,0.046094560202625215,-1.1105570748522671
-3.9584999999999999,0.035424385344942577,-0.86683439153341613
-3.9580000000000002,0.035424385344942577,-0.5807251545938954
-3.9575,0.046094560202625215,-0.32640583286987701
-3.9569999999999999,-0.071277363231883828,-0.10387642636136091
-3.9565000000000001,-0.62612645583138127,0.23521600260399694
-3.956,-1.3516983461538008,0.73325800764686633
-3.9554999999999998,-1.8318562147495197,1.1783168206638983
-3.9550000000000001,-2.2800035587721905,1.4856193344137538
-3.9544999999999999,-2.322684258202921,1.4856193344137538
-3.9540000000000002,-1.5437614935920885,0.90280422212954525
-3.9535,-0.82885977812735145,0.21402272579366208
-3.9529999999999998,-0.30602121010090194,-0.28401927924920728
-3.9525000000000001,0.0034138607718946501,-0.52774196256805828
-3.952,0.14212613392176898,-0.57012851618872795
-3.9514999999999998,0.17413665849481691,-0.50654868575772338
-3.9510000000000001,0.16346648363713429,-0.37938902489571413
-3.9504999999999999,0.14212613392176898,-0.2310360872233701
-3.9500000000000002,0.14212613392176898,-0.093279787956193475
-3.9495,0.16346648363713429,0.033879872905815719
-3.9489999999999998,0.22748753278323011,0.17163617217299235
-3.9485000000000001,0.45156120479456557,0.41535885549184332
-3.948,0.8997085488172365,0.82862775329337313
-3.9474999999999998,0.69697522652126631,1.2101067358794007
-3.9470000000000001,0.18480683335249956,1.4220395039827496
-3.9464999999999999,0.16346648363713429,1.3584596735517449
-3.9460000000000002,0.3982103305061524,0.71206473083653143
-3.9455,0.59027347794443985,-0.019103319120021445
-3.9449999999999998,0.65429452709053582,-0.61251506980939763
-3.9445000000000001,0.57960330308675734,-0.95160749877475548
-3.944,0.43022085507920033,-1.0681705212315973
-3.9434999999999998,0.28083840707164331,-1.1105570748522671
-3.9430000000000001,0.22748753278323011,-0.94101086036958814
-3.9424999999999999,0.18480683335249956,-0.71848145386107198
-3.9420000000000002,0.14212613392176898,-0.5807251545938954
-3.9415,0.099445434491038431,-0.4641621321370536
-3.9409999999999998,0.078105084775673142,-0.33700247127504446
-3.9405000000000001,0.046094560202625215,-0.18864953360270037
-3.9399999999999999,-0.13529841237797968,0.086863064931652884
-3.9394999999999998,-0.61545628097369853,0.51072860113835017
-3.9390000000000001,-1.2556667724346571,0.99817396777605205
-3.9384999999999999,-1.7358246410303759,1.3584596735517449
-3.9380000000000002,-2.1839719850530468,1.5491991648447585
-3.9375,-1.8211860398918371,1.1995100974742332
-3.9369999999999998,-1.1062843244271001,0.52132523954351762
-3.9365000000000001,-0.51942470725455481,-0.04029659593035631
-3.9359999999999999,-0.12462823752029703,-0.36879238649054674
-3.9355000000000002,0.08877525963335578,-0.48535540894738849
-3.9350000000000001,0.16346648363713429,-0.44296885532671876
-3.9344999999999999,0.17413665849481691,-0.32640583286987701
-3.9340000000000002,0.15279630877945163,-0.18864953360270037
-3.9335,0.14212613392176898,-0.04029659593035631
-3.9329999999999998,0.14212613392176898,0.086863064931652884
-3.9325000000000001,0.20614718306786484,0.20342608738849466
-3.9319999999999999,0.31284893164469124,0.35177902506083869
-3.9315000000000002,0.78233662538272752,0.64848490040552687
-3.931,1.5612593899935603,1.0511571598018894
-3.9304999999999999,1.7639927122895305,1.3266697583362426
-3.9300000000000002,1.5505892151358776,1.1359302670432285
-3.9295,1.3798664174129553,0.52132523954351762
-3.9289999999999998,1.1557927454016199,-0.12506970317169577
-3.9285000000000001,0.92104889853260175,-0.66549826183523486
