Class_1_Relax_eyes_closed/Class_1_Relax_eyes_closed_Suko_4.csv

#Digilent WaveForms Oscilloscope Acquisition
#Device Name: EExplorer
#Serial Number: SN:210151A2B84A
#Date Time: 2020-12-15 14:10:20.476
#Sample rate: 2000Hz
#Samples: 16384
#Trigger: Source: Channel 1 Type: Edge Condition: Rising Level: 0 V Hyst.: Auto HoldOff: 0 s
#Channel 1: Range: 1 V/div Offset: 0 V Attenuation: 1 X
#Channel 2: Range: 1 V/div Offset: 0 V Attenuation: 1 X
#Power Supplies: ON
#Fixed Supply: ON
#Voltage: 3.3 V Readback: 3.326 V
#Positive Supply: ON
#Voltage: 3.7 V Readback: 3.716 V
#Current: 40 mA Readback: 20 mA
#Negative Supply: ON
#Voltage: -3.7 V Readback: -3.339 V
#Current: -40 mA Readback: -6 mA
#Reference 1: ON
#Voltage: 0 V
#Reference 2: ON
#Voltage: 0 V

Time (s),Channel 1 (V),Channel 2 (V)
-4.096,0.5369226036560266,-0.8774310299385835
-4.0955,0.4729015545099891,-0.6654982618354276
-4.095,0.3768699807907192,-0.4535654937317031
-4.0945,0.3021787567870086,-0.252229364033705
-4.094,0.2594980573563169,-0.1038764263614958
-4.0935,0.6009436528021905,-0.3052125560595325
-4.093,0.6756348768059011,-0.2946159176543747
-4.0925,-0.1246282375195692,0.2352160026035152
-4.092,-1.020922925566192,0.7544512844575192
-4.0915,-1.629122892453549,1.104140351827727
-4.091,-1.426389570157579,0.8286277532933731
-4.0905,-0.8715404775576064,0.2458126410087211
-4.09,-0.3487019095316325,-0.2416327256285375
-4.0895,0.00341386077189465,-0.5277419625680583
-4.089,0.2061471830676805,-0.6231117082144784
-4.0885,0.2808384070716433,-0.5807251545938954
-4.088,0.291508581929326,-0.474758770542221
-4.0875,0.280838407071653,-0.3370024712751697
-4.087,0.2488278824985663,-0.1992461720077425
-4.0865,0.2168173579255475,-0.06148987274069118
-4.086,0.2061471830678746,0.06566978812120236
-4.0855,-0.01792648894409171,0.330585748250899
-4.085,-0.7008176798351597,0.7650479228623686
-4.0845,-1.458400094729938,1.146526905448049
-4.084,-1.99190883761409,1.347863035146472
-4.0835,-1.255666772434657,1.231300012689736
-4.083,-0.3166913849585846,0.6060983467848571
-4.0825,0.334189281360338,-0.2628260024394699
-4.082,0.6436243522328531,-0.9198175835592532
-4.0815,0.6756348768059011,-1.227120097309109
-4.081,0.5902734779445175,-1.322489842955529
-4.0805,0.4835717293676135,-1.248313374119443
-4.08,0.4408910299368829,-1.0999604364471
-4.0795,0.5475927785136123,-0.9092209451542592
-4.079,0.515582253940574,-0.6654982618350131
-4.0785,0.4195506802215176,-0.4217755785163839
-4.078,0.3341892813601341,-0.1992461720080702
-4.0775,0.2701682322141645,-0.01910331911997326
-4.077,0.4942419042252961,0.03387987290581572
-4.0765,0.7930068002401383,-0.02969995752513105
-4.076,0.1101156093478962,0.3517790250612338
-4.0755,-0.7968492535543035,0.7862411996727035
-4.075,-1.501080794161358,1.093543713422559
-4.0745,-1.479740444445527,0.9028042221290152
-4.074,-0.9675720512772257,0.3199891098453364
-4.0735,-0.4340633083930936,-0.2098428104130352
-4.073,-0.04993701351686791,-0.5383386009729269
-4.0725,0.1741366584948169,-0.6654982618352349
-4.072,0.2701682322139607,-0.6549016234300674
-4.0715,0.2915085819293066,-0.570128516188805
-4.071,0.2808384070716142,-0.4429688553265935
-4.0705,0.2488278824985954,-0.3052125560595421
-4.07,0.2274875327832495,-0.1780528951976486
-4.0695,0.2168173579254699,-0.06148987274053697
-4.069,0.1314559590640864,0.1080563417419877
-4.0685,-0.4340633083930936,0.5213252395435176
-4.068,-1.212986073004577,0.9663840525608293
-4.0675,-1.927887788468663,1.273686566310405
-4.067,-1.650463242168915,1.316073119931075
-4.0665,-0.7008176798344707,0.9239974989391283
-4.066,0.05676473506030786,0.09745970333682032
-4.0655,0.4942419042252961,-0.6019184314042303
-4.065,0.6436243522327172,-1.057573882826015
-4.0645,0.6222840025174878,-1.248313374119443
-4.064,0.5262524287983441,-1.216523458903942
-4.0635,0.4515612047946335,-1.046977244421416
-4.063,0.5475927785137094,-0.9198175835590509
-4.0625,0.5475927785137094,-0.6972881770507372
-4.062,0.4622313796523259,-0.4535654937321079
-4.0615,0.3555296310753636,-0.2204394488180196
-4.061,0.291508581929326,-0.01910331912002144
-4.0605,0.3448594562177392,0.05507314971615059
-4.06,0.7396559259515989,-0.1674562567921149
-4.0595,0.3021787567870086,0.1080563417419877
-4.059,-0.6047861061160158,0.6060983467848571
-4.0585,-1.362368521010795,1.008770606180853
-4.058,-1.714484291315011,1.114736990232894
-4.0575,-1.287677297007705,0.627291623595192
-4.057,-0.6901475049780205,0.01268659609603984
-4.0565,-0.2099896363817582,-0.4323722169215513
-4.056,0.09944543449103843,-0.6654982618352349
-4.0555,0.2488278824984595,-0.7290780922661816
-4.055,0.3021787567870086,-0.6654982618351385
-4.0545,0.3021787567870086,-0.5595318777835605
-4.054,0.2701682322139898,-0.4217755785165092
-4.0535,0.2381577076408934,-0.2840192792490723
-4.053,0.2168173579255475,-0.1356663415768632
-4.0525,0.1954770082101822,0.01268659609548085
-4.052,-0.1993194615247645,0.3729723018716073
-4.0515,-0.9569018764195432,0.849821030103708
-4.051,-1.703814116457328,1.210106735879401
-4.0505,-1.917217613610787,1.305476481525821
-4.05,-1.06360362499637,0.8604176685088755
-4.0495,-0.2313299860971235,0.03387987290581572
-4.049,0.3235191065018693,-0.6443049850242831
-4.0485,0.5796033030867962,-1.068170521231703
-4.048,0.6222840025174878,-1.184733543688439
-4.0475,0.5689331282291231,-1.121153713257492
-4.047,0.4729015545100182,-0.9728007755851
-4.0465,0.5689331282290746,-0.9833974139902578
-4.046,0.675634876805804,-0.9833974139902578
-4.0455,0.6009436528019965,-0.7184814538607829
-4.045,0.4622313796522482,-0.400582301706049
-4.0445,0.3448594562177392,-0.1144730647665284
-4.044,0.302178756787358,0.1292496185524575
-4.0435,0.6863050516635838,0.2776025562246667
-4.043,0.8356874996711408,0.2564092794143318
-4.0425,0.05676473506101631,0.5849050699742234
-4.042,-0.8822106524157645,0.9028042221295453
-4.0415,-1.51175096901904,1.093543713422559
-4.041,-1.330357996438601,0.733258007647194
-4.0405,-0.8075194284115396,0.1292496185518793
-4.04,-0.3166913849585846,-0.3581957480853793
-4.0395,0.02475421048694942,-0.6337083466194819
-4.039,0.2168173579256057,-0.7290780922662201
-4.0385,0.2808384070716433,-0.7078848154559045
-4.038,0.3021787567869892,-0.6125150698094843
-4.0375,0.2808384070716142,-0.4853554089472632
-4.037,0.2488278824985954,-0.3475991096802118
-4.0365,0.2274875327832301,-0.2204394488182027
-4.036,0.2168173579253534,-0.08268314955077546
-4.0355,0.00341386077189465,0.1928294489833272
-4.035,-0.5300948821122373,0.6696781772158616
-4.0345,-1.202315898145633,1.093543713422174
-4.034,-1.714484291315011,1.326669758336243
-4.0335,-1.138294849000148,1.178316820663898
-4.033,-0.295351035243986,0.5849050699750619
-4.0325,0.3021787567872706,-0.1356663415773836
-4.032,0.5902734779444399,-0.7078848154559045
-4.0315,0.6329541773751317,-1.06817052123127
-4.031,0.568933128228997,-1.142346990067654
-4.0305,0.4835717293676135,-1.01518732920576
-4.03,0.4729015545099406,-0.8562377531283932
-4.0295,0.5796033030867185,-0.6443049850247072
-4.029,0.5369226036560266,-0.4323722169215513
-4.0285,0.4302208550792003,-0.2416327256285375
-4.028,0.334189281360008,-0.07208651114573332
-4.0275,0.2808384070716433,0.06566978812131802
-4.027,0.5155822539406614,0.1716361721729923
-4.0265,0.750326100809466,0.2352160026039391
-4.026,0.04609456020262521,0.627291623595192
-4.0255,-0.8181896032696687,0.92399749893988
-4.025,-1.51175096901841,1.135930267043036
-4.0245,-1.586442193022353,0.9769806909651776
-4.024,-1.074273799854052,0.383568940276341
-4.0235,-0.5087545323973864,-0.1780528951970222
-4.023,-0.08194753808934328,-0.548935239378528
-4.0225,0.1634664836371343,-0.6972881770507372
-4.022,0.2808384070715366,-0.6972881770507372
-4.0215,0.3128489316446718,-0.6019184314041146
-4.021,0.291508581929326,-0.474758770542221
-4.0205,0.2701682322139607,-0.3370024712750445
-4.02,0.2381577076408934,-0.1886495336025751
-4.0195,0.2168173579255475,-0.05089323433552374
-4.019,0.1314559590640864,0.13984625695749
-4.0185,-0.4020527838195604,0.5531151547586441
-4.018,-1.148965023857831,0.9981739677760521
-4.0175,-1.821186039891837,1.29487984312074
-4.017,-1.479740444446303,1.231300012689793
-4.0165,-0.5834457564000101,0.6696781772151581
-4.016,0.1207857842064037,-0.1038764263613609
-4.0155,0.5262524287979753,-0.7290780922656708
-4.015,0.6542945270905067,-1.110557074852373
-4.0145,0.6222840025174878,-1.227120097309109
-4.014,0.5155822539407584,-1.152943628473004
-4.0135,0.4302208550793071,-0.9833974139900072
-4.013,0.5475927785137094,-0.7078848154559045
-4.0125,0.5475927785137094,-0.4853554089473885
-4.012,0.4622313796521609,-0.3264058328697614
-4.0115,0.3661998059331045,-0.1992461720078678
-4.011,0.291508581929326,-0.07208651114585861
-4.0105,0.3768699807907094,0.002089957690245961
-4.01,0.8463576745288233,-0.2098428104130352
-4.0095,0.5582629533713921,-0.01910331912002144
-4.009,-0.3807124341038264,0.4895353243275527
-4.0085,-1.244996597577275,0.9345941373451535
-4.008,-1.575772018165136,1.051157159801889
-4.0075,-1.180975548431238,0.5743084315697886
-4.007,-0.6261264558309639,0.002089957689937555
-4.0065,-0.1673089369510276,-0.4111789401112165
-4.006,0.1101156093487211,-0.6231117082145651
-4.0055,0.2594980573563169,-0.6549016234300096
-4.005,0.3021787567870086,-0.5913217929990628
-4.0045,0.3021787567870086,-0.4853554089473885
-4.004,0.2701682322139413,-0.3475991096800769
-4.0035,0.2488278824985954,-0.1992461720078678
-4.003,0.2274875327832301,-0.08268314955102604
-4.0025,0.2061471830678842,0.05507314971602531
-4.002,-0.156638762093345,0.4153588554918433
-4.0015,-0.8822106524157645,0.8710143069140429
-4.001,-1.62912289245287,1.231300012689408
-4.0005,-1.82118603989107,1.316073119930844
-4,-0.9782422261349084,1.061753798207057
-3.9995,-0.156638762093345,0.3623756634660061
-3.999,0.3661998059331045,-0.3158091944647096
-3.9985,0.6116138276598051,-0.792657922697244
-3.998,0.6329541773751706,-1.05757388282643
-3.9975,0.5475927785137094,-1.110557074852267
-3.997,0.4515612047945656,-1.025783967610927
-3.9965,0.5475927785137094,-1.078767159636765
-3.996,0.6649647019482183,-1.068170521231597
-3.9955,0.5902734779444399,-0.8138511995075789
-3.995,0.4622313796522482,-0.4959520473525559
-3.9945,0.3448594562177392,-0.2098428104130352
-3.994,0.3128489316446912,0.03387987290581572
-3.9935,0.6863050516635838,0.13984625695749
-3.993,0.6116138276598051,0.3517790250608387
-3.9925,-0.2526703358124887,0.7650479228623686
-3.992,-1.1062843244271,1.072350436612224
-3.9915,-1.661133417026597,1.231300012689736
-3.991,-1.405049220442214,0.8074344764830383
-3.9905,-0.8288597781273515,0.1716361721729923
-3.99,-0.3060212101009019,-0.326405832869877
-3.9895,0.04609456020262521,-0.6019184314042303
-3.989,0.2274875327832301,-0.6866915386455698
-3.9885,0.3021787567870086,-0.6443049850249
-3.988,0.3128489316446912,-0.5277419625680583
-3.9875,0.2808384070716433,-0.400582301706049
-3.987,0.2594980573562781,-0.252229364033705
-3.9865,0.2274875327832301,-0.1144730647665284
-3.986,0.2168173579255475,0.002089957690313421
-3.9855,-0.01792648894347063,0.2564092794143318
-3.985,-0.7114878546928423,0.7120647308365314
-3.9845,-1.479740444445993,1.125333628638062
-3.984,-2.002579012472442,1.305476481525908
-3.9835,-1.351698346153801,1.040560521396722
-3.983,-0.4660738329661415,0.2564092794143318
-3.9825,0.2061471830678648,-0.474758770542221
-3.982,0.5475927785137094,-0.9410108603695881
-3.9815,0.6436243522328531,-1.184733543688439
-3.981,0.6009436528021226,-1.227120097309109
-3.9805,0.5049120790829789,-1.131750351662602
-3.98,0.4622313796522482,-0.9092209451540858
-3.9795,0.5475927785137094,-0.5807251545938954
-3.979,0.5049120790829789,-0.3793890248957141
-3.9785,0.4195506802215176,-0.2416327256285375
-3.978,0.3341892813600565,-0.1144730647665284
-3.9775,0.2808384070716433,0.02328323450064829
-3.977,0.4408910299368829,0.2670059178194992
-3.9765,0.6863050516635838,0.6484849004055269
-3.976,0.03542438534494258,1.051157159801889
-3.9755,-0.8288597781273515,1.199510097474233
-3.975,-1.522421143876723,1.241896651094903
-3.9745,-1.607782542738184,1.00877060618122
-3.974,-1.084943974711735,0.3941655786815084
-3.9735,-0.5087545323968721,-0.1462629799820306
-3.973,-0.08194753808956648,-0.474758770542221
-3.9725,0.1741366584948169,-0.5913217929990628
-3.972,0.2808384070716433,-0.5489352393783931
-3.9715,0.3128489316446912,-0.4429688553267188
-3.971,0.3021787567870086,-0.2946159176543747
-3.9705,0.2701682322139607,-0.1356663415768632
-3.97,0.2488278824985954,0.01268659609548085
-3.9695,0.2274875327832301,0.13984625695749
-3.969,0.142126133921769,0.2987958330350016
-3.9685,-0.4127229586777283,0.6802748156210291
-3.968,-1.180975548430879,1.072350436612224
-3.9675,-1.863866739322568,1.326669758336243
-3.967,-1.597112367880501,1.25249328950007
-3.9665,-0.7328282044082075,0.5637117931641874
-3.966,0.01408403562957729,-0.2840192792492073
-3.9655,0.4622313796522482,-0.9092209451540858
-3.965,0.6222840025174878,-1.258910012524611
-3.9645,0.6116138276598051,-1.333086481360783
-3.964,0.5369226036560266,-1.248313374119443
-3.9635,0.4622313796522482,-1.121153713257435
-3.963,0.5475927785137094,-1.036380606016095
-3.9625,0.5262524287983441,-0.8244478379127463
-3.962,0.4408910299368829,-0.5489352393783931
-3.9615,0.3555296310754218,-0.2946159176543747
-3.961,0.291508581929326,-0.08268314955102604
-3.9605,0.3768699807907871,0.1292496185523226
-3.96,0.7716664505250448,0.07626642652648545
-3.9595,0.3448594562177392,0.3305857482505039
-3.959,-0.5621054066852853,0.7226613692416989
-3.9585,-1.341028171296118,0.9875773293708847
-3.958,-1.522421143876723,0.9451907757502149
-3.9575,-1.074273799854052,0.4153588554918433
-3.957,-0.5300948821122373,-0.1250697031716958
-3.9565,-0.1032878878049318,-0.4853554089473885
-3.956,0.1527963087794516,-0.6549016234300674
-3.9555,0.2701682322139607,-0.6654982618352349
-3.955,0.3128489316446912,-0.5913217929990628
-3.9545,0.3021787567870086,-0.474758770542221
-3.954,0.2808384070716433,-0.3370024712750445
-3.9535,0.2488278824985954,-0.1886495336027004
-3.953,0.2381577076409128,-0.06148987274069118
-3.9525,0.2061471830678648,0.07626642652648545
-3.952,-0.1459685872356623,0.4047622170866759
-3.9515,-0.7861790786966207,0.8604176685088755
-3.951,-1.501080794161358,1.220703374284568
-3.9505,-1.607782542738184,1.263089927905238
-3.95,-0.7968492535543035,0.8604176685088755
-3.9495,-0.06060718837420119,0.1716361721729923
-3.949,0.4302208550792003,-0.5171453241628908
-3.9485,0.6329541773751706,-0.9516074987747555
-3.948,0.6222840025174878,-1.152943628472937
-3.9475,0.5369226036560266,-1.174136905283272
-3.947,0.4302208550792003,-1.046977244421262
-3.9465,0.5262524287983441,-1.025783967610927
-3.946,0.6222840025174878,-0.9516074987747555
-3.9455,0.5475927785137094,-0.6866915386455698
-3.945,0.4408910299368829,-0.3793890248957141
-3.9445,0.3448594562177392,-0.1038764263613609
-3.944,0.3021787567870086,0.1292496185523226
-3.9435,0.6436243522328531,0.2670059178194992
-3.943,0.4622313796522482,0.4789386859228479
-3.9425,-0.4020527838200457,0.8604176685088755
-3.942,-1.234326422719292,1.072350436612224
-3.9415,-1.703814116457328,1.157123543853563
-3.941,-1.362368521011484,0.7120647308365314
-3.9405,-0.7648387289812555,0.08686306493165288
-3.94,-0.2526703358124887,-0.3899856633008816
-3.9395,0.07810508477567314,-0.6443049850249
-3.939,0.2488278824985954,-0.7078848154559045
-3.9385,0.3128489316446912,-0.6654982618352349
-3.938,0.3235191065023739,-0.5489352393783931
-3.9375,0.3021787567870086,-0.4111789401112165
-3.937,0.2701682322139607,-0.2734226408440398
-3.9365,0.2381577076409128,-0.1356663415768632
-3.936,0.2274875327832301,-0.008506680714854012
-3.9355,-0.01792648894347063,0.2670059178194992
-3.935,-0.6261264558313813,0.7438546460520338
-3.9345,-1.330357996438436,1.146526905448396
-3.934,-1.767835165603424,1.347863035146577
-3.9335,-1.074273799854052,1.29487984312074
-3.933,-0.2206598112394408,0.849821030103708
-3.9325,0.3661998059331045,0.1186529801471552
-3.932,0.6436243522328531,-0.5383386009732256
-3.9315,0.6863050516635838,-0.9410108603695881
-3.931,0.6009436528021226,-1.078767159636765
-3.9305,0.4942419042252961,-1.046977244421262
-3.93,0.4729015545099309,-0.9939940523954253
-3.9295,0.5902734779444399,-0.9939940523954253
-3.929,0.5582629533713921,-0.7714646458869092
-3.9285,0.4515612047945656,-0.474758770542221
-3.928,0.3555296310754218,-0.1886495336027004
-3.9275,0.3021787567870086,0.03387987290581572
-3.927,0.5689331282290746,0.1080563417419877
-3.9265,0.6969752265212663,0.2140227257936621
-3.926,-0.07127736323188383,0.6378882620003594
-3.9255,-0.9675720512772257,0.9451907757502149
-3.925,-1.639793067311232,1.146526905448396
-3.9245,-1.607782542738184,0.9345941373450475
-3.924,-1.031593100423322,0.3199891098453364
-3.9235,-0.4554036581084589,-0.2310360872233701
-3.923,-0.03926683865883591,-0.570128516188728
-3.9225,0.2061471830678648,-0.718481453861072
-3.922,0.3021787567870086,-0.7078848154559045
-3.9215,0.3235191065023739,-0.6231117082145651
-3.921,0.3128489316446912,-0.4959520473525559
-3.9205,0.2808384070716433,-0.3475991096802118
-3.92,0.2594980573562781,-0.1992461720078678
-3.9195,0.2381577076409128,-0.06148987274069118
-3.919,0.1314559590640864,0.13984625695749
-3.9185,-0.04993701351651855,0.5743084315693548
-3.918,-0.4340633083930936,1.019367244586387
-3.9175,-1.095614149569417,1.305476481525908
-3.917,-1.042263275281004,1.210106735879401
-3.9165,-0.4340633083930936,0.5319218779486851
-3.916,0.142126133921769,-0.2310360872233701
-3.9155,0.4729015545099309,-0.7608680074817418
-3.915,0.6009436528021226,-1.046977244421262
-3.9145,0.5796033030867573,-1.131750351662602
-3.914,0.4942419042252961,-1.078767159636765
-3.9135,0.4408910299368829,-0.9092209451540858
-3.913,0.5689331282290746,-0.6019184314042303
-3.9125,0.5796033030867573,-0.4429688553267188
-3.912,0.4835717293676135,-0.3687923864905467
-3.9115,0.3875401556484697,-0.2946159176543747
-3.911,0.3128489316446912,-0.1992461720078678
-3.9105,0.3982103305061524,-0.1568596183871981
-3.91,0.8676980242441885,-0.3793890248957141
-3.9095,0.5155822539406614,-0.1462629799820306
-3.909,-0.4020527838200457,0.4047622170866759
-3.9085,-1.202315898146244,0.8710143069140429
-3.908,-1.426389570157579,0.92399749893988
-3.9075,-1.020922925565639,0.4683420475176805
-3.907,-0.5087545323968721,-0.04029659593035631
-3.9065,-0.09261771294724913,-0.3793890248957141
-3.906,0.1527963087794516,-0.5171453241628908
-3.9055,0.2701682322139607,-0.5171453241628908
-3.905,0.3128489316446912,-0.4323722169215513
-3.9045,0.3128489316446912,-0.3052125560595421
-3.904,0.2808384070716433,-0.1780528951975329
-3.9035,0.2594980573562781,-0.05089323433552374
-3.903,0.2381577076409128,0.06566978812131802
-3.9025,0.1954770082101822,0.1928294489833272
-3.902,-0.1673089369510276,0.5319218779486851
-3.9015,-0.722158029550525,0.9557874141553824
-3.901,-1.405049220442214,1.273686566310405
-3.9005,-1.533091318734406,1.316073119931075
-3.9,-0.8181896032696687,0.8286277532933731
-3.8995,-0.1032878878049318,0.02328323450064829
-3.899,0.3768699807907871,-0.7078848154559045
-3.8985,0.5902734779444399,-1.163540266878104
-3.898,0.6116138276598051,-1.333086481360783
-3.8975,0.5582629533713921,-1.290699927740113
-3.897,0.4729015545099309,-1.163540266878104
-3.8965,0.5475927785137094,-1.174136905283272
-3.896,0.6116138276598051,-1.089363798041932
-3.8955,0.5262524287983441,-0.8244478379127463
-3.895,0.4195506802215176,-0.5171453241628908
-3.8945,0.3341892813600565,-0.2416327256285375
-3.894,0.3235191065023739,-0.008506680714854012
-3.8935,0.7396559259519968,-0.07208651114585861
-3.893,0.7183155762366316,0.002089957690313421
-3.8925,-0.1459685872356623,0.4683420475176805
-3.892,-1.052933450138687,0.8710143069140429
-3.8915,-1.607782542738184,1.114736990232894
-3.891,-1.351698346153801,0.7650479228623686
-3.8905,-0.7861790786966207,0.1822328105781598
-3.89,-0.2846808603855366,-0.2840192792492073
-3.8895,0.05676473506030786,-0.5383386009732256
-3.889,0.2381577076409128,-0.6125150698093976
-3.8885,0.3128489316446912,-0.570128516188728
-3.888,0.3235191065023739,-0.4641621321370536
-3.8875,0.3021787567870086,-0.326405832869877
-3.887,0.2701682322139607,-0.1780528951975329
