Class_1_Relax_eyes_closed/Class_1_Relax_Eyes_closed_Turki_1.csv

#Digilent WaveForms Oscilloscope Acquisition
#Device Name: EExplorer
#Serial Number: SN:210151A2B84A
#Date Time: 2020-10-20 13:16:02.399
#Sample rate: 2000Hz
#Samples: 16384
#Trigger: Source: Channel 1 Type: Edge Condition: Rising Level: 0 V Hyst.: Auto HoldOff: 0 s
#Channel 1: Range: 1 V/div Offset: 0 V
#Channel 2: Range: 1 V/div Offset: 0 V

Time (s),Channel 1 (V),Channel 2 (V)
-4.0960000000000001,0.51558225394066137,-0.12506970317169577
-4.0955000000000004,1.2091436196894023,-0.061489872740749005
-4.0949999999999998,2.0094067340164639,0.38356894027673616
-4.0945,2.2654909306006146,0.81803111488820579
-4.0940000000000003,1.8706944608667158,0.62729162359536539
-4.0934999999999997,1.2731646688356728,0.18223281057787064
-4.093,0.77166645052504479,-0.13566634157686319
-4.0925000000000002,0.44089102993718376,-0.23103608722328337
-4.0919999999999996,0.25949805735621012,-0.16745625679223058
-4.0914999999999999,0.18480683335249956,-0.019103319120021445
-4.0910000000000002,0.18480683335249956,0.15044289536265748
-4.0904999999999996,0.21681735792561541,0.26700591781952815
-4.0899999999999999,0.29150858192932599,0.29879583303500157
-4.0895000000000001,0.30217875678700862,0.31998910984533641
-4.0890000000000004,0.29150858192933571,0.30939247144017862
-4.0884999999999998,0.27016823221396069,0.25640927941433178
-4.0880000000000001,0.20614718306786484,0.2246193641988295
-4.0875000000000004,-0.24200016095439852,0.42595549389682763
-4.0869999999999997,-0.76483872898150784,0.78624119967300221
-4.0865,-1.0422632752810042,1.1147369902328941
-4.0860000000000003,-1.0956141495693688,1.2948798431205764
-4.0854999999999997,-1.4370597450153493,1.3690563119564017
-4.085,-1.5330913187344057,0.80743447648303834
-4.0845000000000002,-1.6397930673111352,-0.623111708213264
-4.0839999999999996,-1.0742737998535961,-1.311893204550747
-4.0834999999999999,-0.57277558154296804,-1.6403889951106385
-4.0830000000000002,-0.20998963638175816,-1.6721789103261409
-4.0824999999999996,0.13145595906423194,-1.4178595886018623
-4.0819999999999999,0.29150858192932599,-1.131750351662602
-4.0815000000000001,0.30217875678700862,-0.9304142219644207
-4.0810000000000004,0.28083840707166274,-0.71848145386126472
-4.0804999999999998,0.28083840707164331,-0.51714532416289083
-4.0800000000000001,0.29150858192932599,-0.33700247127504446
-4.0795000000000003,0.39821033050605537,-0.093279787956415117
-4.0789999999999997,0.985069947679445,-0.13566634157661261
-4.0785,1.806673411720261,0.13984625695749003
-4.0780000000000003,2.137448832308122,0.73325800764632665
-4.0774999999999997,1.870694460865852,0.7862411996722023
-4.077,1.3158453682668594,0.23521600260399694
-4.0765000000000002,0.83568749967157752,-0.25222936403326168
-4.0759999999999996,0.49424190422513115,-0.44296885532667057
-4.0754999999999999,0.31284893164469124,-0.38998566330088158
-4.0750000000000002,0.22748753278323011,-0.19924617200786782
-4.0744999999999996,0.20614718306787455,0.033879872905998837
-4.0739999999999998,0.21681735792554749,0.23521600260399694
-4.0735000000000001,0.12078578420640371,0.45774540911251305
-4.0730000000000004,0.078105084775711958,0.55311515475893325
-4.0724999999999998,0.11011560934872107,0.54251851635385251
-4.0720000000000001,0.16346648363713429,0.47893868592284788
-4.0715000000000003,0.19547700821015307,0.41535885549190116
-4.0709999999999997,0.21681735792598419,0.33058574825018583
-4.0705,0.69697522652126631,-0.019103319120021445
-4.0700000000000003,1.1131120459705106,0.21402272579345005
-4.0694999999999997,0.81434714995488244,0.54251851635414161
-4.069,-0.16730893695102761,0.86041766850887547
-4.0685000000000002,-0.93556152670417769,0.95578741415538238
-4.0679999999999996,-0.93556152670385739,0.39416557868087232
-4.0674999999999999,-0.58344575640065055,-0.30521255605954212
-4.0670000000000002,-0.22065981123944084,-0.84564111472308123
-4.0664999999999996,-0.092617712947685837,-1.2801032893355915
-4.0659999999999998,-0.57277558154296804,-1.9900780624811638
-4.0655000000000001,-0.46607383296614152,-1.9053049552398247
-4.0650000000000004,-0.3166913849587204,-1.6297923567057215
-4.0644999999999998,-0.15663876209334496,-1.3012965661452807
-4.0640000000000001,0.099445434491038431,-0.87743102993858346
-4.0635000000000003,0.28083840707147834,-0.58072515459416518
-4.0629999999999997,0.38754015564887728,-0.36879238649008411
-4.0625,0.83568749967114075,0.13984625695749003
-4.0620000000000003,1.1237822208283099,0.7650479228617999
-4.0614999999999997,0.85702784938623433,1.25249328950008
-4.0609999999999999,0.55826295337139209,1.2630899279052379
-4.0605000000000002,0.41955068022151765,0.58490506997452218
-4.0599999999999996,0.33418928136001774,0.012686596095268827
-4.0594999999999999,0.29150858192932599,-0.22043944881820265
-4.0590000000000002,0.27016823221396069,-0.18864953360270037
-4.0585000000000004,0.25949805735628778,-0.019103319120175655
-4.0579999999999998,0.24882788249859539,0.19282944898332721
-4.0575000000000001,0.25949805735627807,0.36237566346600614
-4.0570000000000004,0.16346648363722163,0.40476221708663729
-4.0564999999999998,0.0034138607718946501,0.42595549389701071
-4.056,0.014084035629577295,0.46834204751768049
-4.0555000000000003,0.078105084775614925,0.48953532432799607
-4.0549999999999997,0.15279630877955838,0.45774540911240702
-4.0545,0.27016823221396069,0.34118238665567124
-4.0540000000000003,0.69697522652087818,0.23521600260409331
-4.0534999999999997,0.52625242879766476,0.56371179316455367
-4.0529999999999999,-0.22065981123944084,0.96638405256054982
-4.0525000000000002,-1.1489650238578306,1.2524932895000704
-4.0519999999999996,-1.8425263896070276,1.3478630351460668
-4.0514999999999999,-1.6504632421689147,0.78624119967270345
-4.0510000000000002,-1.0209229255656389,-0.082683149551026042
-4.0505000000000004,-0.43406330839362739,-0.79265792269659829
-4.0499999999999998,-0.017926488943470625,-1.227120097309109
-4.0495000000000001,0.20614718306786484,-1.4072629501969551
-4.0490000000000004,0.29150858192924833,-1.3966663117917972
-4.0484999999999998,0.3128489316446233,-1.2801032893348399
-4.048,0.23815770764091276,-1.1635402668781043
-4.0475000000000003,-0.37004225924644468,-1.5874058030844158
-4.0469999999999997,-0.47674400782368842,-1.4814394190327802
-4.0465,-0.32736155981626724,-1.0999604364470996
-4.0460000000000003,0.14212613392134199,-0.38998566330152729
-4.0454999999999997,1.1664629202597683,0.59550170838039318
-4.0449999999999999,1.6786313134280693,1.3690563119569124
-4.0445000000000002,1.3905365922706379,1.5068126112240887
-4.0439999999999996,0.97439977282072388,0.90280422212894773
-4.0434999999999999,0.65429452709053582,0.24581264100916439
-4.0430000000000001,0.43022085507920033,-0.12506970317169577
-4.0425000000000004,0.30217875678712508,-0.17805289519748474
-4.0419999999999998,0.24882788249859539,0.023283234500648287
-4.0415000000000001,0.22748753278323011,0.29879583303500157
-4.0410000000000004,0.23815770764090305,0.56371179316394648
-4.0404999999999998,0.23815770764082542,0.7120647308365603
-4.04,0.14212613392176898,0.74385464605203377
-4.0395000000000003,0.11011560934875018,0.7120647308365603
-4.0389999999999997,0.14212613392180781,0.6272916235950956
-4.0385,0.18480683335249956,0.52132523954351762
-4.0380000000000003,0.19547700821017247,0.44714877070741305
-4.0374999999999996,-0.03926683865931143,0.37297230187129887
-4.0369999999999999,-0.5621054066852853,0.51072860113835017
-4.0365000000000002,-1.0422632752810042,0.86041766850887547
-4.0359999999999996,-1.6184527175963037,1.1677201822588177
-4.0354999999999999,-2.0986105861915858,1.2630899279052379
-4.0350000000000001,-1.7464948158880587,0.71206473083653143
-4.0345000000000004,-1.0315931004239718,-0.13566634157609214
-4.0339999999999998,-0.40205278382004572,-0.83504447631791379
-4.0335000000000001,0.014084035629577295,-1.2589100125246109
-4.0330000000000004,0.22748753278303602,-1.4284562270071359
-4.0324999999999998,0.31284893164469124,-1.4178595886020069
-4.032,0.31284893164469124,-1.2906999277401132
-4.0315000000000003,0.29150858192934542,-1.1105570748524309
-4.0309999999999997,0.28083840707164331,-0.90922094515392193
-4.0305,0.28083840707164331,-0.72907809226623943
-4.0300000000000002,0.30217875678698919,-0.54893523937855693
-4.0294999999999996,0.36619980593302681,-0.24163272562841226
-4.0289999999999999,0.28083840707164331,-0.10387642636136091
-4.0285000000000002,0.21681735792554749,0.28819919462983412
-4.0279999999999996,0.18480683335242193,0.9451907757501089
-4.0274999999999999,0.099445434491038431,0.82862775329337313
-4.0270000000000001,0.18480683335249956,0.26700591781949923
-4.0265000000000004,0.29150858192922896,-0.061489872740392415
-4.0259999999999998,0.28083840707164331,-0.17805289519753292
-4.0255000000000001,0.24882788249859539,-0.093279787956193475
-4.0250000000000004,0.24882788249859539,0.097459703336646844
-4.0244999999999997,0.25949805735628778,0.31998910984552914
-4.024,0.27016823221396069,0.53192187794868506
-4.0235000000000003,0.31284893164465244,0.70146809243120978
-4.0229999999999997,0.32351910650236415,0.74385464605199525
-4.0225,0.31284893164469124,0.70146809243136399
-4.0220000000000002,0.29150858192934542,0.60609834678494379
-4.0214999999999996,0.27016823221415476,0.48953532432804425
-4.0209999999999999,0.4835717293676135,0.52132523954351762
-4.0205000000000002,1.1451225705439372,0.54251851635385251
-4.0199999999999996,1.2945050185508244,0.76504792286256129
-4.0194999999999999,0.55826295337139209,0.97698069096571727
-4.0190000000000001,-0.69014750497747701,1.1677201822587309
-4.0185000000000004,-1.5651018433066579,1.1253336286381002
-4.0179999999999998,-1.4477299198729445,0.46834204751768049
-4.0175000000000001,-0.90355100213112993,-0.33700247127504446
-4.0170000000000003,-0.38071243410515587,-0.95160749877419648
-4.0164999999999997,-0.007256314085603603,-1.2906999277402096
-4.016,0.19547700821018218,-1.3966663117917877
-4.0155000000000003,0.28083840707156571,-1.3542797581711565
-4.0149999999999997,0.29150858192932599,-1.2059268204986102
-4.0145,0.29150858192932599,-1.0257839676109275
-4.0140000000000002,0.28083840707165303,-0.83504447631808731
-4.0134999999999996,0.2808384070716724,-0.63370834661950126
-4.0129999999999999,0.31284893164469124,-0.37938902489571413
-4.0125000000000002,0.75032610080967954,0.055073149716150585
-4.0119999999999996,1.5719295648516407,0.56371179316465003
-4.0114999999999998,2.0094067340162312,1.0723504366122243
-4.0110000000000001,1.8280137614356262,1.0405605213967219
-4.0105000000000004,1.2518243191212877,0.44714877070788528
-4.0099999999999998,0.16346648363713429,-0.65490162343006741
-4.0095000000000001,-0.24200016095480609,-0.9304142219644207
-4.0090000000000003,-0.30602121010084371,-0.76086800748189598
-4.0084999999999997,-0.26334051066997732,-0.45356549373146215
-4.008,-0.049937013516518552,0.012686596095480854
-4.0075000000000003,0.13145595906392138,0.3729723018708459
-4.0069999999999997,0.13145595906399901,0.54251851635394888
-4.0065,0.035424385344942577,0.64848490040552687
-4.0060000000000002,0.046094560202625215,0.60609834678485708
-4.0054999999999996,0.099445434491086948,0.51072860113826346
-4.0049999999999999,0.15279630877945163,0.41535885549184332
-4.0045000000000002,0.30217875678700862,0.11865298014715518
-4.0039999999999996,0.9957401225370498,-0.64430498502499634
-4.0034999999999998,1.7319821877164825,-0.75027136907657432
-4.0030000000000001,1.4758979911320991,-0.14626297998203064
-4.0025000000000004,0.13145595906530927,0.57430843156869948
-4.0019999999999998,-0.87154047755808195,0.81803111488820579
-4.0015000000000001,-0.94623170156186043,0.31998910984533641
-4.0010000000000003,-0.63679663068934522,-0.34759910967960467
-4.0004999999999997,-0.27401068552760172,-0.87743102993887256
-4,0.0034138607718946501,-1.1953301820936066
-3.9994999999999998,0.16346648363713429,-1.3224898429556156
-3.9990000000000001,0.23815770764091276,-1.3118932045504481
-3.9984999999999999,0.24882788249859539,-1.2165234589039415
-3.9980000000000002,0.24882788249859539,-1.0787671596367647
-3.9975000000000001,0.25949805735627807,-0.94101086036958814
-3.9969999999999999,0.27016823221396069,-0.80325456110241145
-3.9965000000000002,0.30217875678700862,-0.65490162343006741
-3.996,0.4835717293676135,-0.19924617200786782
-3.9954999999999998,0.88903837395955376,0.54251851635385251
-3.9950000000000001,1.0170804722517455,1.1677201822587309
-3.9944999999999999,0.79300680024041004,1.4114428655775821
-3.9940000000000002,0.51558225394066137,0.90280422212954525
-3.9935,0.31284893164469124,0.24581264100916439
-3.9929999999999999,0.20614718306786484,-0.1674562567923655
-3.9925000000000002,0.17413665849481691,-0.28401927924920728
-3.992,0.13145595906408636,-0.20984281041303524
-3.9914999999999998,-0.4554036581084589,-0.5807251545938954
-3.9910000000000001,-0.53009488211223732,-0.43237221692155131
-3.9904999999999999,-0.38071243410468042,-0.13566634157686319
-3.9900000000000002,-0.23132998609712346,0.10805634174198775
-3.9895,0.014084035629577295,0.4471487707073456
-3.9889999999999999,0.18480683335249956,0.68027481562102909
-3.9885000000000002,0.20614718306786484,0.71206473083653143
-3.988,0.099445434491038431,0.72266136924169888
-3.9874999999999998,-0.6047861061160158,0.96638405256054982
-3.9870000000000001,-1.6397930673112322,1.2630899279052379
-3.9864999999999999,-2.4187158319220647,1.4432327807930845
-3.9860000000000002,-2.7388210776525441,1.4538294191982519
-3.9855,-3.0909368479560713,1.432636142387917
-3.9849999999999999,-2.5467579302142567,1.0299638829915545
-3.9845000000000002,-1.554431668449771,0.18223281057815977
-3.984,-0.67947733011979428,-0.60191843140423029
-3.9834999999999998,-0.10328788780493176,-1.0999604364470996
-3.9830000000000001,0.20614718306786484,-1.3224898429556156
-3.9824999999999999,0.33418928136005654,-1.3224898429556156
-3.9820000000000002,0.34485945621773917,-1.2059268204987741
-3.9815,0.31284893164469124,-1.0257839676109275
-3.9809999999999999,0.29150858192932599,-0.83504447631791379
-3.9805000000000001,0.28083840707164331,-0.63370834661973252
-3.98,0.28083840707164331,-0.44296885532671876
-3.9794999999999998,0.40888050536383502,-0.10387642636136091
-3.9790000000000001,1.0277506471094282,0.40476221708667587
-3.9784999999999999,1.689301488285752,0.96638405256054982
-3.9780000000000002,1.7319821877164825,1.3902495887672472
-3.9775,1.3051751934091769,1.1783168206638983
-3.9769999999999999,0.83568749967114075,0.4471487707073456
-3.9765000000000001,0.49424190422529612,-0.11447306476652835
-3.976,0.30217875678700862,-0.32640583286987701
-3.9754999999999998,0.21681735792554749,-0.24163272562853755
-3.9750000000000001,0.18480683335249956,-0.019103319120021445
-3.9744999999999999,0.18480683335249956,0.23521600260399694
-3.9740000000000002,0.18480683335249956,0.4471487707073456
-3.9735,-0.16730893695102761,0.34118238665567124
-3.9729999999999999,-0.72215802955052499,-0.12506970317169577
-3.9725000000000001,-0.5621054066852853,-0.04029659593035631
-3.972,-0.38071243410468042,0.023283234500648287
-3.9714999999999998,-0.16730893695102761,0.13984625695749003
-3.9710000000000001,-0.049937013516518552,0.38356894027634103
-3.9704999999999999,-0.44473348325077627,0.40476221708667587
-3.9700000000000002,-1.3623685210114835,0.71206473083653143
-3.9695,-1.8852070890379329,1.0511571598018894
-3.9689999999999999,-2.3333544330606037,1.3054764815259077
-3.9685000000000001,-2.2266526844837773,1.1253336286380615
-3.968,-1.4904106193036752,0.39416557868150842
-3.9674999999999998,-0.70081767983515975,-0.34759910968021185
-3.9670000000000001,-0.14596858723566233,-0.87743102993858346
-3.9664999999999999,0.16346648363713429,-1.1635402668781043
-3.9660000000000002,0.29150858192932599,-1.2483133741194434
-3.9655,0.32351910650237387,-1.1953301820936066
-3.9649999999999999,0.30217875678700862,-1.0681705212315973
-3.9645000000000001,0.29150858192932599,-0.91981758355925325
-3.964,0.28083840707164331,-0.77146464588690922
-3.9634999999999998,0.29150858192932599,-0.63370834661973252
-3.9630000000000001,0.40888050536383502,-0.47475877054222104
-3.9624999999999999,0.93171907339028448,0.10805634174198775
-3.9620000000000002,1.6786313134280693,0.80743447648303834
-3.9615,1.9773962094431832,1.3054764815259077
-3.9609999999999999,1.7533225374318477,1.1889134590690658
-3.9605000000000001,1.2411541442630809,0.52132523954351762
-3.96,0.78233662538272752,-0.093279787956193475
-3.9594999999999998,0.44089102993688295,-0.36879238649054674
-3.9590000000000001,0.23815770764091276,-0.34759910968021185
-3.9584999999999999,0.15279630877945163,-0.15685961838719809
-3.9580000000000002,0.13145595906408636,0.076266426526485451
-3.9575,0.15279630877945163,0.27760255622466667
-3.9569999999999999,0.20614718306786484,0.40476221708667587
-3.9565000000000001,0.23815770764091276,0.48953532432801533
-3.956,0.23815770764091276,0.57430843156935485
-3.9554999999999998,0.19547700821018218,0.59550170837968963
-3.9550000000000001,-0.40205278382004572,0.044476511310983152
-3.9544999999999999,-0.90355100213112993,0.16103953376782493
-3.9540000000000002,-1.6291228924535495,0.64848490040552687
-3.9535,-2.4507263564951129,1.1147369902328941
-3.9529999999999998,-2.8241824765140051,1.5386025264395911
-3.9525000000000001,-3.0695964982407062,1.7293420177326051
-3.952,-3.2296491211059455,1.6233756336809306
-3.9514999999999998,-2.386705307349017,0.92399749893988004
-3.9510000000000001,-1.3303579964384356,0.0020899576903134209
-3.9504999999999999,-0.48741418268150688,-0.71848145386107198
-3.9500000000000002,0.024754210487259936,-1.131750351662602
-3.9495,0.28083840707164331,-1.2801032893349458
-3.9489999999999998,0.36619980593310447,-1.2483133741194434
-3.9485000000000001,0.36619980593310447,-1.1105570748522671
-3.948,0.32351910650237387,-0.94101086036958814
-3.9474999999999998,0.29150858192932599,-0.76086800748174177
-3.9470000000000001,0.28083840707164331,-0.5807251545938954
-3.9464999999999999,0.30217875678700862,-0.38998566330088158
-3.9460000000000002,0.57960330308675734,0.097459703336820316
-3.9455,1.3265155431245421,0.76504792286236856
-3.9449999999999998,1.8493541111509915,1.2948798431207402
-3.9445000000000001,1.7639927122895305,1.432636142387917
-3.944,1.3158453682668594,0.92399749893988004
-3.9434999999999998,0.87836819910187125,0.26700591781949923
-3.9430000000000001,0.55826295337139209,-0.17805289519753292
-3.9424999999999999,0.33418928136005654,-0.30521255605954212
-3.9420000000000002,0.21681735792554749,-0.22043944881820265
-3.9415,0.19547700821018218,-0.04029659593035631
-3.9409999999999998,0.19547700821018218,0.17163617217299235
-3.9405000000000001,0.19547700821018218,0.37297230187117358
-3.9399999999999999,0.19547700821018218,0.55311515475901996
-3.9394999999999998,0.19547700821018218,0.63788826200035942
-3.9390000000000001,0.20614718306786484,0.64848490040552687
-3.9384999999999999,0.20614718306786484,0.62729162359519197
-3.9380000000000002,0.17413665849481691,0.60609834678485708
-3.9375,0.14212613392176898,0.25640927941433178
-3.9369999999999998,-0.24200016095480609,-0.792657922697244
-3.9365000000000001,-0.66880715526211176,-0.63370834661973252
-3.9359999999999999,-1.2983474718653876,0.12924961855232261
-3.9355000000000002,-2.1092807610492685,0.775644561267536
-3.9350000000000001,-1.9919088376147593,0.80743447648303834
-3.9344999999999999,-1.2663369472923398,0.19282944898332721
-3.9340000000000002,-0.61545628097369853,-0.55953187778356051
-3.9335,-0.14596858723566233,-1.1105570748522671
-3.9329999999999998,0.13145595906408636,-1.3966663117917877
-3.9325000000000001,0.25949805735627807,-1.4708427806279598
-3.9319999999999999,0.29150858192932599,-1.4178595886021226
-3.9315000000000002,0.29150858192932599,-1.2801032893349458
-3.931,0.29150858192932599,-1.1105570748522671
-3.9304999999999999,0.29150858192932599,-0.95160749877475548
-3.9300000000000002,0.31284893164469124,-0.83504447631791379
-3.9295,0.3982103305061524,-0.54893523937839306
-3.9289999999999998,0.92104889853260175,0.17163617217299235
-3.9285000000000001,1.657290963712704,0.90280422212954525
-3.9279999999999999,2.0200769088739139,1.3796529503620798
