Class_1_Relax_eyes_closed/Class_1_Relax_eyes_closed_Basim_13.csv

#Digilent WaveForms Oscilloscope Acquisition
#Device Name: EExplorer
#Serial Number: SN:210151A2B84A
#Date Time: 2021-02-07 15:54:03.466
#Sample rate: 2000Hz
#Samples: 16384
#Trigger: Source: Channel 1 Type: Edge Condition: Rising Level: 0 V Hyst.: Auto HoldOff: 0 s
#Channel 1: Range: 1 V/div Offset: 0 V Attenuation: 1 X
#Channel 2: Range: 1 V/div Offset: 0 V Attenuation: 1 X
#Power Supplies: ON
#Fixed Supply: ON
#Voltage: 3.3 V Readback: 3.361 V
#Positive Supply: ON
#Voltage: 3.7 V Readback: 3.703 V
#Current: 40 mA Readback: 18 mA
#Negative Supply: ON
#Voltage: -3.7 V Readback: -3.712 V
#Current: -40 mA Readback: -9 mA
#Reference 1: ON
#Voltage: 0 V
#Reference 2: ON
#Voltage: 0 V

Time (s),Channel 1 (V),Channel 2 (V)
-4.096,-0.04993701351651855,0.02328323450064829
-4.0955,-0.04993701351651855,0.07626642652643725
-4.095,0.02475421048748314,0.2246193641991957
-4.0945,0.2701682322139607,0.627291623595192
-4.094,0.05676473506050195,1.040560521396346
-4.0935,-0.604786106116239,1.432636142388071
-4.093,-0.8502001278427167,1.602182356870596
-4.0925,-0.4980843575395097,1.241896651095231
-4.092,-0.11395806266243,0.5955017083791885
-4.0915,0.08877525963335578,0.04447651131098315
-4.091,0.1314559590640864,-0.2946159176543747
-4.0905,0.08877525963330726,-0.4323722169215224
-4.09,0.03542438534494258,-0.400582301706049
-4.0895,-0.06060718837420119,-0.3370024712750445
-4.089,-0.1566387620932576,-0.2840192792492555
-4.0885,-0.1673089369510276,-0.09327978795619347
-4.088,-0.1459685872356623,0.1186529801471552
-4.0875,-0.1139580626626435,0.2987958330348377
-4.087,-0.1032878878050482,0.4365521323020721
-4.0865,-0.2313299860971235,0.3199891098453364
-4.086,-0.4447334832505822,-0.08268314955065981
-4.0855,-0.7541685541238835,0.2034260873890536
-4.085,-1.095614149569417,0.8180311148882058
-4.0845,-1.309017646722876,1.051157159801677
-4.084,-1.042263275280664,0.7014680924309207
-4.0835,-0.6688071552621118,0.2140227257936621
-4.083,-0.3487019095316325,-0.1886495336027004
-4.0825,-0.1566387620932479,-0.4217755785164707
-4.082,-0.04993701351651855,-0.5171453241628908
-4.0815,-0.01792648894347063,-0.5277419625680583
-4.081,-0.01792648894347063,-0.485355408947427
-4.0805,-0.02859666380115328,-0.400582301706049
-4.08,-0.03926683865883591,-0.3052125560595421
-4.0795,-0.02859666380116298,-0.1886495336028064
-4.079,-0.01792648894346092,-0.07208651114574295
-4.0785,-0.007256314085787988,0.05507314971615059
-4.078,-0.2846808603852843,0.4047622170863578
-4.0775,-0.839529952985393,0.8710143069143802
-4.077,-1.234326422719292,1.241896651094903
-4.0765,-1.319687821580675,1.506812611223848
-4.076,-0.7755089038384336,1.210106735878842
-4.0755,-0.2206598112394408,0.5955017083796896
-4.075,0.1101156093487211,0.08686306493165288
-4.0745,0.2061471830678357,-0.1992461720079353
-4.074,0.1741366584948169,-0.2734226408440398
-4.0735,0.1101156093487211,-0.2098428104130352
-4.073,0.04609456020268345,-0.1038764263614573
-4.0725,0.02475421048725994,-0.04029659593035631
-4.072,-0.007256314085787988,0.1080563417419877
-4.0715,-0.02859666380113387,0.2987958330348281
-4.071,-0.03926683865885532,0.4577454091125998
-4.0705,-0.06060718837420119,0.55311515475902
-4.07,-0.263340510669987,0.4577454091125998
-4.0695,-0.9995825758507686,0.03387987290600847
-4.069,-1.543761493592088,0.2458126410091644
-4.0685,-1.639793067311232,0.7650479228623686
-4.068,-1.469070269587883,0.9557874141550933
-4.0675,-0.9995825758502737,0.6378882620003594
-4.067,-0.5621054066852853,0.2034260873884947
-4.0665,-0.2526703358123237,-0.1568596183874101
-4.066,-0.07127736323188383,-0.3899856633008816
-4.0655,-0.007256314085787988,-0.5065486857577234
-4.065,0.003413860771884946,-0.5383386009731967
-4.0645,0.00341386077189465,-0.5171453241628908
-4.064,-0.01792648894347063,-0.474758770542221
-4.0635,-0.02859666380114357,-0.4217755785164321
-4.063,-0.007256314085778284,-0.3370024712749674
-4.0625,0.00341386077189465,-0.252229364033705
-4.062,0.01408403562956759,-0.1886495336027582
-4.0615,0.3235191065027038,0.1292496185528238
-4.061,0.6863050516635838,0.6802748156210291
-4.0605,0.3982103305061524,1.093543713422559
-4.06,-0.2633405106702781,1.453829419198107
-4.0595,-0.3807124341046804,1.29487984312074
-4.059,-0.1352984123779797,0.6802748156210291
-4.0585,0.07810508477547903,0.118652980147666
-4.058,0.1634664836371343,-0.1886495336027004
-4.0575,0.1527963087794516,-0.2734226408440398
-4.057,0.08877525963341401,-0.1992461720079353
-4.0565,0.03542438534494258,-0.04029659593035631
-4.056,-0.03926683865883591,0.08686306493165288
-4.0555,-0.08194753808952766,0.2246193641987042
-4.055,-0.08194753808955678,0.3835689402764663
-4.0545,-0.07127736323188383,0.5213252395435176
-4.054,-0.07127736323188383,0.6166949851899378
-4.0535,-0.1459685872361961,0.6802748156211255
-4.053,-0.7328282044082075,0.7862411996727035
-4.0525,-1.415719395299897,1.114736990232894
-4.052,-1.799845690176549,1.475022696008673
-4.0515,-1.885207089037933,1.570392441655093
-4.051,-1.458400094730627,1.00877060618122
-4.0505,-0.8928808272739616,0.2881991946304895
-4.05,-0.4340633083930936,-0.2946159176543747
-4.0495,-0.1459685872356623,-0.6337083466197325
-4.049,-0.01792648894358709,-0.771464645886784
-4.0485,0.02475421048725994,-0.7714646458868417
-4.048,0.02475421048725994,-0.6972881770507372
-4.0475,0.003413860771914058,-0.5807251545940014
-4.047,-0.007256314085797692,-0.4429688553265838
-4.0465,-0.01792648894347063,-0.2946159176543747
-4.046,-0.007256314085797692,-0.12506970317185
-4.0455,0.01408403562964523,0.0338798729060663
-4.045,0.08877525963335578,0.309392471440169
-4.0445,-0.1673089369510276,0.7968378380778709
-4.044,-0.4660738329665685,1.220703374284751
-4.0435,-0.9355615267041777,1.42203950398275
-4.043,-0.7861790786966207,0.9875773293708847
-4.0425,-0.3273615598166845,0.4895353243284683
-4.042,0.04609456020262521,0.09745970333682032
-4.0415,0.2168173579255475,-0.09327978795619347
-4.041,0.2274875327832204,-0.1356663415768246
-4.0405,0.1634664836370664,-0.08268314955092966
-4.04,0.08877525963335578,0.02328323450064829
-4.0395,0.02475421048731817,0.1504428953625418
-4.039,-0.007256314085807397,0.2881991946299401
-4.0385,-0.02859666380115328,0.4047622170866759
-4.038,-0.03926683865882621,0.4789386859227804
-4.0375,-0.03926683865884562,0.5213252395435273
-4.037,-0.04993701351651855,0.5319218779486851
-4.0365,-0.01792648894347063,0.3517790250608387
-4.036,-0.2526703358130516,-0.2310360872233123
-4.0355,-0.8715404775580819,-0.1674562567923655
-4.035,-1.244996597576974,0.3623756634660061
-4.0345,-1.19164572328861,0.5107286011382153
-4.034,-0.8288597781273515,0.2564092794143318
-4.0335,-0.4660738329661415,-0.09327978795619347
-4.033,-0.2099896363819911,-0.3899856633006117
-4.0325,-0.06060718837414297,-0.5807251545939918
-4.032,0.00341386077189465,-0.6866915386455698
-4.0315,0.01408403562956759,-0.7290780922662009
-4.031,0.01408403562955789,-0.7290780922662106
-4.0305,-0.007256314085787988,-0.6972881770507372
-4.03,-0.007256314085787988,-0.6231117082146326
-4.0295,0.00341386077189465,-0.5277419625679908
-4.029,0.00341386077189465,-0.4535654937318862
-4.0285,0.03542438534494258,-0.3158091944647096
-4.028,-0.09261771294763731,0.08686306493220222
-4.0275,-0.5194247072545548,0.6908714540261965
-4.027,-0.9035510021311299,1.220703374284568
-4.0265,-1.010252750707859,1.400846227172251
-4.026,-0.5941159312583333,0.9769806909657173
-4.0255,-0.1352984123779797,0.4259554938970107
-4.025,0.1527963087791896,0.03387987290617234
-4.0245,0.2381577076408836,-0.1250697031716958
-4.024,0.2061471830678648,-0.1250697031716958
-4.0235,0.1207857842064813,-0.02969995752527561
-4.023,0.04609456020256699,0.09745970333695524
-4.0225,-0.01792648894347063,0.2458126410091644
-4.022,-0.04993701351648944,0.4047622170865313
-4.0215,-0.04993701351651855,0.5425185163539296
-4.021,-0.04993701351651855,0.627291623595192
-4.0205,-0.03926683865883591,0.6696781772158616
-4.02,-0.1139580626627503,0.5425185163537947
-4.0195,-0.2633405106701714,0.4789386859228479
-4.019,-0.5087545323968721,0.8180311148882058
-4.0185,-1.031593100422846,1.23130001268936
-4.018,-1.212986073003927,1.146526905448396
-4.0175,-0.9355615267041777,0.5849050699745222
-4.017,-0.562105406685625,-0.008506680714314374
-4.0165,-0.274010685527689,-0.4535654937321271
-4.016,-0.09261771294724913,-0.718481453861072
-4.0155,-0.00725631408586562,-0.8350444763178078
-4.015,0.02475421048725994,-0.8562377531282198
-4.0145,0.02475421048725994,-0.8244478379127463
-4.014,0.014084035629587,-0.7502713690766418
-4.0135,0.003413860771904355,-0.6443049850247843
-4.013,0.01408403562957729,-0.5171453241628908
-4.0125,0.02475421048725994,-0.400582301706049
-4.012,0.0567647350603952,-0.2522293640334062
-4.0115,0.1527963087794516,0.07626642652648545
-4.011,0.3555296310754218,0.6590815388106942
-4.0105,-0.03926683865847685,1.210106735878899
-4.01,-0.6474668055467465,1.612778995275763
-4.0095,-0.5407650569699201,1.390249588767247
-4.009,-0.1566387620936943,0.8074344764835684
-4.0085,0.1314559590641931,0.2564092794140427
-4.008,0.2488278824985954,-0.06148987274069118
-4.0075,0.2274875327832495,-0.1568596183871113
-4.007,0.1527963087793837,-0.1038764263612452
-4.0065,0.07810508477567314,0.02328323450064829
-4.006,0.04609456020262521,0.002089957690313421
-4.0055,0.01408403562955789,0.0762664265266782
-4.005,-0.007256314085787988,0.2881991946298341
-4.0045,-0.01792648894347063,0.5001319627331828
-4.004,-0.02859666380122121,0.6590815388107327
-4.0035,-0.1032878878049318,0.701468092431364
-4.003,-0.690147504977477,0.5425185163538525
-4.0025,-1.351698346153199,0.7862411996724818
-4.002,-1.51175096901904,1.178316820663898
-4.0015,-1.244996597576974,1.114736990232894
-4.001,-0.796849253554711,0.6060983467853197
-4.0005,-0.4020527838198128,0.05507314971577472
-4,-0.1459685872356623,-0.3581957480853793
-3.9995,-0.007256314085787988,-0.6125150698093976
-3.999,0.03542438534494258,-0.7290780922662394
-3.9985,0.04609456020262521,-0.7608680074817418
-3.998,0.02475421048725994,-0.7396747306714069
-3.9975,0.01408403562957729,-0.6972881770507372
-3.997,0.00341386077189465,-0.6125150698093976
-3.9965,0.01408403562957729,-0.5171453241628908
-3.996,0.03542438534494258,-0.4111789401112165
-3.9955,0.05676473506030786,-0.3052125560595421
-3.995,0.2808384070716433,-0.04029659593035631
-3.9945,0.6969752265212663,0.55311515475902
-3.994,0.2274875327832301,1.157123543853563
-3.9935,-0.6047861061160158,1.602182356870596
-3.993,-0.8502001278427167,1.623375633680931
-3.9925,-0.4874141826815069,1.019367244586387
-3.992,-0.07127736323188383,0.3517790250608387
-3.9915,0.1848068333524996,-0.09327978795619347
-3.991,0.2381577076409128,-0.2416327256285375
-3.9905,0.1848068333524996,-0.2204394488182027
-3.99,0.1207857842064037,-0.07208651114585861
-3.9895,0.01408403562957729,0.01268659609548085
-3.989,-0.09261771294724913,0.05507314971615059
-3.9885,-0.1032878878049318,0.2352160026039969
-3.988,-0.08194753808956648,0.4471487707073456
-3.9875,-0.06060718837420119,0.6060983467848571
-3.987,-0.03926683865883591,0.701468092431364
-3.9865,0.1101156093487211,0.5743084315693548
-3.986,0.1741366584948169,0.1716361721729923
-3.9855,-0.3166913849585846,0.3941655786815084
-3.985,-0.8181896032696687,0.8074344764830383
-3.9845,-0.839529952985034,0.6590815388106942
-3.984,-0.6047861061160158,0.2034260873884947
-3.9835,-0.3487019095316325,-0.252229364033705
-3.983,-0.1459685872356623,-0.5807251545938954
-3.9825,-0.03926683865883591,-0.7714646458869092
-3.982,0.01408403562957729,-0.8562377531282487
-3.9815,0.02475421048725994,-0.8668343915334161
-3.981,0.02475421048725994,-0.8350444763179138
-3.9805,0.01408403562957729,-0.7714646458869092
-3.98,0.01408403562957729,-0.6760949002404023
-3.9795,0.02475421048725994,-0.5595318777835605
-3.979,0.03542438534494258,-0.4429688553267188
-3.9785,0.04609456020262521,-0.3052125560595421
-3.978,0.1848068333524996,0.1292496185523226
-3.9775,0.142126133921769,0.775644561267536
-3.977,-0.4660738329661415,1.273686566310405
-3.9765,-0.4554036581084589,1.241896651094903
-3.976,-0.09261771294724913,0.7650479228623686
-3.9755,0.2061471830678648,0.2246193641988295
-3.975,0.3448594562177392,-0.1250697031716958
-3.9745,0.3235191065023739,-0.2310360872233701
-3.974,0.2274875327832301,-0.1886495336027004
-3.9735,0.142126133921769,-0.04029659593035631
-3.973,0.0674349099179905,0.08686306493165288
-3.9725,0.01408403562957729,0.07626642652648545
-3.972,-0.007256314085787988,0.2246193641988295
-3.9715,-0.01792648894347063,0.4365521323021782
-3.971,-0.02859666380115328,0.627291623595192
-3.9705,-0.01792648894347063,0.7544512844572011
-3.97,-0.03926683865883591,0.8286277532933731
-3.9695,0.07810508477567314,0.8710143069140429
-3.969,-0.4020527838200457,1.104140351827727
-3.9685,-1.042263275281004,1.347863035146577
-3.968,-1.1062843244271,1.051157159801889
-3.9675,-0.807519428411986,0.4365521323021782
-3.967,-0.4660738329661415,-0.1356663415768632
-3.9665,-0.1993194615240755,-0.5277419625680583
-3.966,-0.04993701351651855,-0.7502713690765743
-3.9655,0.02475421048725994,-0.8456411147230812
-3.965,0.04609456020262521,-0.8456411147230812
-3.9645,0.03542438534494258,-0.8138511995075789
-3.964,0.02475421048725994,-0.7396747306714069
-3.9635,0.02475421048725994,-0.6443049850249
-3.963,0.02475421048725994,-0.5277419625680583
-3.9625,0.04609456020262521,-0.4217755785163839
-3.962,0.0674349099179905,-0.2946159176543747
-3.9615,0.04609456020262521,0.06566978812131802
-3.961,-0.3380317346739499,0.6484849004055269
-3.9605,-0.7434983792658902,1.188913459069066
-3.96,-0.9995825758502737,1.506812611224089
-3.9595,-0.690147504977477,1.178316820663898
-3.959,-0.1993194615240755,0.6060983467848571
-3.9585,0.142126133921769,0.08686306493165288
-3.958,0.2701682322139607,-0.1886495336027004
-3.9575,0.2488278824985954,-0.2416327256285375
-3.957,0.1741366584948169,-0.1462629799820306
-3.9565,0.09944543449103843,0.002089957690313421
-3.956,0.09944543449103843,0.04447651131098315
-3.9555,0.08877525963335578,0.1610395337678249
-3.955,0.05676473506030786,0.3517790250608387
-3.9545,0.02475421048725994,0.5213252395435176
-3.954,0.01408403562957729,0.6484849004055269
-3.9535,0.01408403562957729,0.701468092431364
-3.953,0.2701682322139607,0.4683420475176805
-3.9525,0.01408403562957729,-0.02969995752518888
-3.952,-0.8608703027003992,0.1822328105781598
-3.9515,-1.501080794161358,0.5849050699745222
-3.951,-1.351698346153801,0.4471487707073456
-3.9505,-0.9035510021311299,0.06566978812131802
-3.95,-0.4767440078238243,-0.3052125560595421
-3.9495,-0.1779791118087102,-0.5913217929990628
-3.949,-0.01792648894347063,-0.7714646458869092
-3.9485,0.04609456020262521,-0.8562377531282487
-3.948,0.0674349099179905,-0.8774310299385835
-3.9475,0.04609456020262521,-0.8562377531282487
-3.947,0.03542438534494258,-0.8032545611024114
-3.9465,0.03542438534494258,-0.718481453861072
-3.946,0.04609456020262521,-0.6125150698093976
-3.9455,0.05676473506030786,-0.4959520473525559
-3.945,0.09944543449103843,-0.2946159176543747
-3.9445,0.3235191065023739,0.2987958330350016
-3.944,0.08877525963335578,0.9028042221295453
-3.9435,-0.1779791118087102,1.093543713422559
-3.943,0.02475421048725994,0.6590815388106942
-3.9425,0.291508581929326,0.2564092794143318
-3.942,0.4195506802215176,-0.05089323433552374
-3.9415,0.408880505363835,-0.1886495336027004
-3.941,0.3021787567870086,-0.1886495336027004
-3.9405,0.1848068333524996,-0.07208651114585861
-3.94,0.08877525963335578,0.08686306493165288
-3.9395,0.04609456020262521,0.2352160026039969
-3.939,0.03542438534494258,0.3517790250608387
-3.9385,0.02475421048725994,0.4789386859228479
-3.938,0.01408403562957729,0.5849050699745222
-3.9375,0.00341386077189465,0.6590815388106942
-3.937,-0.03926683865883591,0.6590815388106942
-3.9365,-0.4020527838200457,0.3729723018711736
-3.936,-0.9782422261349084,-0.1780528951975329
-3.9355,-1.26633694729234,0.03387987290581572
-3.935,-1.490410619303675,0.5637117931641874
-3.9345,-1.234326422719292,0.5637117931641874
-3.934,-0.7755089038389382,0.1928294489833272
-3.9335,-0.3807124341046804,-0.2098428104130352
-3.933,-0.1139580626626144,-0.5383386009732256
-3.9325,0.01408403562957729,-0.7396747306714069
-3.932,0.0674349099179905,-0.8456411147230812
-3.9315,0.0674349099179905,-0.8774310299385835
-3.931,0.05676473506030786,-0.8668343915334161
-3.9305,0.03542438534494258,-0.8138511995075789
-3.93,0.03542438534494258,-0.7290780922662394
-3.9295,0.04609456020262521,-0.6231117082145651
-3.929,0.05676473506030786,-0.5065486857577234
-3.9285,0.09944543449103843,-0.3370024712750445
-3.928,0.3021787567870086,0.08686306493165288
-3.9275,0.1954770082101822,0.7332580076468663
-3.927,-0.572775581542968,1.284283204715573
-3.9265,-1.127624674142465,1.580989080060261
-3.926,-0.807519428411986,1.326669758336243
-3.9255,-0.2953510352432193,0.6908714540261965
-3.925,0.07810508477567314,0.09745970333682032
-3.9245,0.2274875327832301,-0.2310360872233701
-3.924,0.2274875327832301,-0.2946159176543747
-3.9235,0.1741366584948169,-0.1886495336027004
-3.923,0.1314559590640864,-0.05089323433552374
-3.9225,0.1848068333524996,-0.008506680714854012
-3.922,0.1634664836371343,0.1716361721729923
-3.9215,0.1101156093487211,0.4153588554918433
-3.921,0.05676473506030786,0.6166949851900245
-3.9205,0.02475421048725994,0.7650479228623686
-3.92,0.0674349099179905,0.7438546460520338
-3.9195,0.2594980573562781,0.1610395337678249
-3.919,-0.1459685872356623,-0.3158091944647096
-3.9185,-0.5834457564006506,-0.01910331912002144
-3.918,-0.6474668055467465,0.1928294489833272
-3.9175,-0.4767440078238243,0.1716361721729923
-3.917,-0.2633405106701714,0.02328323450064829
-3.9165,-0.1139580626626144,-0.1568596183871981
-3.916,-0.01792648894347063,-0.326405832869877
-3.9155,0.03542438534494258,-0.474758770542221
-3.915,0.04609456020262521,-0.6019184314042303
-3.9145,0.04609456020262521,-0.7078848154559045
-3.914,0.03542438534494258,-0.7820612842920766
-3.9135,0.03542438534494258,-0.8138511995075789
-3.913,0.04609456020262521,-0.8138511995075789
-3.9125,0.04609456020262521,-0.8032545611024114
-3.912,0.0674349099179905,-0.7714646458869092
-3.9115,0.3341892813600565,-0.4111789401112165
-3.911,0.408880505363835,0.2987958330350016
-3.9105,0.08877525963335578,0.8604176685088755
-3.91,-0.08194753808956648,1.082947075017392
-3.9095,0.1101156093487211,0.7438546460520338
-3.909,0.3235191065023739,0.2246193641988295
-3.9085,0.3982103305061524,-0.1780528951975329
-3.908,0.3768699807907871,-0.4217755785163839
-3.9075,0.2701682322139607,-0.4535654937318862
-3.907,0.1634664836371343,-0.3475991096802118
-3.9065,0.08877525963335578,-0.1674562567923655
-3.906,0.00341386077189465,-0.01910331912002144
-3.9055,-0.03926683865883591,0.13984625695749
-3.905,-0.03926683865883591,0.3305857482505039
-3.9045,-0.01792648894347063,0.5001319627331828
-3.904,-0.007256314085787988,0.6378882620003594
-3.9035,-0.07127736323188383,0.6908714540261965
-3.903,-0.6154562809736985,0.6908714540261965
-3.9025,-1.277007122150022,0.9769806909657173
-3.902,-1.693143941599645,1.369056311956912
-3.9015,-1.895877263895616,1.538602526439591
-3.901,-1.51175096901904,1.061753798207057
-3.9005,-0.9248913518464952,0.3623756634660061
-3.9,-0.4340633083930936,-0.2098428104130352
-3.8995,-0.124628237520297,-0.5595318777835605
-3.899,0.03542438534494258,-0.7290780922662394
-3.8985,0.08877525963335578,-0.7502713690765743
-3.898,0.09944543449103843,-0.6972881770507372
-3.8975,0.07810508477567314,-0.6125150698093976
-3.897,0.05676473506030786,-0.4959520473525559
-3.8965,0.05676473506030786,-0.3581957480853793
-3.896,0.0674349099179905,-0.2204394488182027
-3.8955,0.09944543449103843,-0.01910331912002144
-3.895,0.1741366584948169,0.2881991946298341
-3.8945,0.07810508477567314,0.8286277532933731
-3.894,-0.2420001609548061,1.273686566310405
-3.8935,-0.6047861061160158,1.485619334413754
-3.893,-0.572775581542968,1.369056311956912
-3.8925,-0.1779791118087102,0.7438546460520338
-3.892,0.1634664836371343,0.13984625695749
-3.8915,0.3128489316446912,-0.252229364033705
-3.891,0.3021787567870086,-0.4111789401112165
-3.8905,0.2274875327832301,-0.3899856633008816
