Class_1_Relax_eyes_closed/Class_1_Relax_eyes_closed_SH_10.csv

#Digilent WaveForms Oscilloscope Acquisition
#Device Name: EExplorer
#Serial Number: SN:210151A2B84A
#Date Time: 2021-01-27 11:55:22.976
#Sample rate: 2000Hz
#Samples: 16384
#Trigger: Source: Channel 1 Type: Edge Condition: Rising Level: 0 V Hyst.: Auto HoldOff: 0 s
#Channel 1: Range: 1 V/div Offset: 0 V Attenuation: 1 X
#Channel 2: Range: 1 V/div Offset: 0 V Attenuation: 1 X
#Channel 4: Range: 1 V/div Offset: 0 V Attenuation: 1 X
#Power Supplies: ON
#Fixed Supply: ON
#Voltage: 3.3 V Readback: 3.361 V
#Positive Supply: ON
#Voltage: 3.7 V Readback: 3.717 V
#Current: 40 mA Readback: 12 mA
#Negative Supply: ON
#Voltage: -3.7 V Readback: -3.363 V
#Current: -40 mA Readback: -13 mA
#Reference 1: ON
#Voltage: 0 V
#Reference 2: ON
#Voltage: 0 V

Time (s),Channel 1 (V),Channel 2 (V),Channel 4 (V)
-4.096,0.2168173579255475,0.3623756634660061,-0.08495261429437276
-4.0955,0.003413860772088745,0.5425185163536886,-0.04262030465101476
-4.095,-0.5727755815434435,0.9451907757500511,-0.06378645947266487
-4.0945,-1.095614149569417,0.7650479228623686,-0.05320338206182537
-4.094,-1.543761493591681,-0.1250697031708862,-0.02145414982930687
-4.0935,-1.746494815887719,-0.7608680074817706,-0.0320372272401175
-4.093,-1.373038695869166,-0.792657922697244,-0.021454149829278
-4.0925,-0.8502001278431922,-0.5913217929992459,-0.021454149829278
-4.092,-0.348701909531254,-0.4005823017059623,-0.021454149829278
-4.0915,0.0674349099179905,-0.3052125560595421,-0.021454149829278
-4.091,0.291508581929326,-0.2734226408440398,-0.021454149829278
-4.0905,0.387540155648557,-0.2628260024388627,-0.03203722724009826
-4.09,0.4835717293676135,-0.252229364033705,-0.000287995007579752
-4.0895,0.6222840025174878,-0.2946159176543747,0.04204431463581675
-4.089,0.600943652802142,-0.2416327256285857,0.03146123722497725
-4.0885,0.5155822539406614,-0.1356663415768632,0.03146123722496762
-4.088,0.4302208550792003,0.002089957690313421,0.01029508240326937
-4.0875,0.3875401556485085,0.1398462569573647,-0.02145414982924913
-4.087,0.5155822539406614,-0.08268314955156575,-0.04262030465099551
-4.0865,0.5155822539406614,-0.6760949002404023,-0.0637864594726745
-4.086,-0.03926683865833136,-1.131750351662188,-0.04262030465099551
-4.0855,-0.828859778127594,-1.407262950196743,-0.08495261429434388
-4.085,-1.095614149569417,-1.174136905283272,-0.05320338206182537
-4.0845,-0.7968492535545753,-0.4747587705428571,-0.03203722724014638
-4.084,-0.3700422592466873,0.2034260873889187,-0.03203722724013675
-4.0835,-0.02859666380115328,0.6696781772158616,-0.04262030465097626
-4.083,0.1954770082101822,0.92399749893988,-0.04262030465097626
-4.0825,0.3021787567870474,1.008770606181191,-0.05320338206182537
-4.082,0.3448594562177392,0.9769806909657173,-0.05320338206182537
-4.0815,0.3341892813600565,0.8922075837243778,-0.0637864594726745
-4.081,0.3235191065023836,0.7862411996727998,-0.116701846526872
-4.0805,0.291508581929326,0.6802748156210291,-0.1272849239377692
-4.08,0.2701682322139607,0.5743084315693548,-0.1167018465269201
-4.0795,0.2594980573562878,0.4577454091126191,-0.1061187691160806
-4.079,0.1954770082097067,0.3941655786817975,-0.053203382061835
-4.0785,-0.3273615598162672,0.7120647308365314,-0.0637864594726745
-4.078,-0.9462317015612975,0.8710143069138984,-0.053203382061835
-4.0775,-1.319687821580753,0.1822328105777068,-0.021454149829278
-4.077,-1.319687821580753,-0.3158091944647096,-0.021454149829278
-4.0765,-0.8502001278431437,-0.4323722169214453,-0.021454149829278
-4.076,-0.3700422592466873,-0.4217755785163743,-0.021454149829278
-4.0755,-0.02859666380115328,-0.4111789401112165,-0.021454149829278
-4.075,0.2274875327832301,-0.4535654937318862,-0.021454149829278
-4.0745,0.3555296310754606,-0.4853554089473306,-0.0320372272401175
-4.074,0.3982103305061524,-0.4217755785163839,-0.021454149829278
-4.0735,0.4195506802215176,-0.3370024712750445,-0.021454149829278
-4.073,0.6436243522326492,-0.4853554089472536,0.042044314635759
-4.0725,0.6863050516635838,-0.4429688553267188,0.04204431463581675
-4.072,0.6009436528021226,-0.252229364033705,0.03146123722496762
-4.0715,0.5369226036560848,-0.04029659593054907,0.02087815981412813
-4.071,0.4729015545098338,0.1716361721730116,-0.000287995007618253
-4.0705,0.3661998059331045,0.1928294489833272,-0.04262030465097626
-4.07,-0.1673089369505423,-0.2840192792487736,-0.06378645947265525
-4.0695,-0.8502001278432116,-0.8456411147234667,-0.0637864594726745
-4.069,-1.394379045584531,-1.269506650929778,-0.0637864594726745
-4.0685,-1.586442193022819,-1.34368311976595,-0.0637864594726745
-4.068,-1.127624674141941,-0.7820612842914502,-0.03203722724012713
-4.0675,-0.5514352318276028,-0.09327978795619347,-0.03203722724012713
-4.067,-0.1032878878049318,0.4365521323021782,-0.04262030465097626
-4.0665,0.1848068333526257,0.7332580076469627,-0.04262030465098588
-4.066,0.3235191065023739,0.8392243916985406,-0.05320338206182537
-4.0655,0.3661998059331045,0.8286277532933731,-0.05320338206182537
-4.065,0.3661998059331045,0.733258007646953,-0.05320338206182537
-4.0645,0.3341892813600565,0.6166949851900245,-0.1167018465269201
-4.064,0.3021787567870086,0.5001319627331828,-0.1272849239377692
-4.0635,0.2808384070716627,0.3835689402764471,-0.1167018465269297
-4.063,0.248827882498576,0.2776025562245896,-0.1061187691160421
-4.0625,0.2274875327832301,0.1928294489833272,-0.07436953688352363
-4.062,-0.1139580626623039,0.3305857482503786,-0.05320338206184462
-4.0615,-0.7328282044086442,0.5849050699740499,-0.05320338206181575
-4.061,-1.212986073003927,0.06566978812131802,-0.04262030465097626
-4.0605,-1.607782542738184,-0.6866915386455698,-0.021454149829278
-4.06,-1.586442193022392,-0.9092209451538931,-0.021454149829278
-4.0595,-1.116954499284783,-0.6972881770507372,-0.021454149829278
-4.059,-0.5621054066852853,-0.400582301706049,-0.021454149829278
-4.0585,-0.08194753809000316,-0.1886495336028931,-0.021454149829278
-4.058,0.2594980573562781,-0.06148987274069118,-0.021454149829278
-4.0575,0.4195506802215176,0.002089957690313421,-0.021454149829278
-4.057,0.4729015545098824,0.002089957690313421,-0.0320372272401175
-4.0565,0.6542945270905358,-0.1886495336027004,0.0208781598141185
-4.056,0.7503261008096795,-0.2840192792492073,0.04204431463581675
-4.0555,0.675634876805969,-0.1886495336027871,0.03146123722497725
-4.055,0.5369226036559296,-0.01910331911986724,0.03146123722494838
-4.0545,0.4302208550792003,0.1504428953626575,0.01029508240326937
-4.054,0.3982103305061815,0.3093924714400244,-0.02145414982924913
-4.0535,0.7289857510942367,0.7544512844574035,-0.04262030465097626
-4.053,0.6436243522328531,0.9769806909657173,-0.04262030465097626
-4.0525,-0.1779791118087102,0.2776025562246667,-0.05320338206182537
-4.052,-0.9675720512774488,-0.6019184314045869,-0.1061187691160325
-4.0515,-1.212986073003927,-0.9939940523954253,-0.0637864594726745
-4.051,-0.8715404775580819,-0.7290780922662394,-0.04262030465097626
-4.0505,-0.4127229586781456,-0.2628260024392964,-0.03203722724013675
-4.05,-0.02859666380115328,0.13984625695749,-0.04262030465097626
-4.0495,0.2061471830678648,0.4259554938970107,-0.04262030465097626
-4.049,0.3128489316445942,0.5955017083795354,-0.04262030465097626
-4.0485,0.3555296310754218,0.6696781772158905,-0.04262030465101476
-4.048,0.3555296310754218,0.701468092431364,-0.08495261429437276
-4.0475,0.323519106502403,0.701468092431364,-0.1272849239377307
-4.047,0.2915085819292969,0.701468092431364,-0.1272849239377596
-4.0465,0.2594980573562781,0.701468092431364,-0.1167018465269201
-4.046,0.2274875327832592,0.7120647308365218,-0.09553569170524114
-4.0455,0.08877525963282204,0.7332580076468085,-0.04262030465099551
-4.045,-0.4980843575391895,0.6696781772158616,-0.0637864594726745
-4.0445,-1.042263275281004,0.04447651131098315,-0.0637864594726745
-4.044,-1.351698346153869,-0.8032545611027102,-0.0108710724184385
-4.0435,-1.426389570157579,-1.131750351662602,-0.021454149829278
-4.043,-1.084943974711735,-0.8456411147230812,-0.021454149829278
-4.0425,-0.540765056970415,-0.4641621321374005,-0.021454149829278
-4.042,-0.06060718837420119,-0.1674562567923655,-0.021454149829278
-4.0415,0.2168173579255475,0.01268659609548085,-0.021454149829278
-4.041,0.3341892813599498,0.09745970333674321,-0.021454149829278
-4.0405,0.3768699807908744,0.07626642652641799,-0.03203722724009826
-4.04,0.4729015545099309,0.002089957690313421,-0.000287995007579752
-4.0395,0.6222840025173519,-0.1356663415767379,0.04204431463577825
-4.039,0.600943652802045,-0.18864953360271,0.03146123722496762
-4.0385,0.5155822539406614,-0.1992461720078678,0.03146123722496762
-4.038,0.430220855079278,-0.1780528951975522,0.01029508240328863
-4.0375,0.3875401556486735,-0.1356663415768246,-0.01087107241844813
-4.037,0.6116138276598051,-0.09327978795619347,-0.03203722724012713
-4.0365,0.825017324813458,0.383568940276341,-0.04262030465097626
-4.036,0.163466483636387,0.2034260873878393,-0.05320338206186388
-4.0355,-0.658136980404429,-0.5171453241628908,-0.09553569170522189
-4.035,-1.116954499284783,-1.036380606016095,-0.07436953688352363
-4.0345,-0.9142211769889969,-0.8562377531284125,-0.04262030465100513
-4.034,-0.4874141826815069,-0.400582301706049,-0.03203722724012713
-4.0335,-0.1032878878049318,0.04447651131098315,-0.04262030465097626
-4.033,0.1527963087792187,0.3729723018708748,-0.04262030465097626
-4.0325,0.2915085819293745,0.5849050699746186,-0.04262030465098588
-4.032,0.3448594562177392,0.6908714540261965,-0.05320338206182537
-4.0315,0.3448594562177392,0.7332580076468278,-0.07436953688350438
-4.031,0.3341892813600275,0.7544512844572011,-0.1167018465269297
-4.0305,0.3021787567870086,0.7544512844572011,-0.1272849239377692
-4.03,0.2915085819293357,0.7438546460520434,-0.1167018465269297
-4.0295,0.2594980573562004,0.7756445612675745,-0.09553569170518339
-4.029,0.1741366584948169,0.8180311148882058,-0.05320338206182537
-4.0285,-0.3593720843893152,1.093543713422559,-0.0637864594726745
-4.028,-0.8928808272737577,1.00877060618041,-0.06378645947264562
-4.0275,-1.234326422719292,0.1186529801471552,-0.03203722724012713
-4.027,-1.522421143876723,-0.7290780922662394,-0.021454149829278
-4.0265,-1.383708870726975,-0.856237753128133,-0.021454149829278
-4.026,-0.9142211769888124,-0.6549016234300674,-0.021454149829278
-4.0255,-0.4020527838200457,-0.3899856633008816,-0.021454149829278
-4.025,0.03542438534454467,-0.1780528951977257,-0.021454149829278
-4.0245,0.2808384070717501,-0.08268314955097786,-0.021454149829278
-4.024,0.3982103305061524,-0.02969995752518888,-0.021454149829278
-4.0235,0.4408910299368441,-0.02969995752518888,-0.021454149829278
-4.023,0.6436243522328822,-0.231036087223399,0.04204431463581675
-4.0225,0.6756348768059011,-0.2628260024388724,0.04204431463581675
-4.022,0.5902734779445175,-0.1568596183872945,0.03146123722497725
-4.0215,0.4942419042252185,-0.0296999575250925,0.02087815981409925
-4.021,0.408880505363835,0.07626642652648545,-0.000287995007579752
-4.0205,0.4622313796522482,0.2564092794143318,-0.03203722724012713
-4.02,0.8356874996708108,0.7968378380779384,-0.03203722724014638
-4.0195,0.4729015545099309,0.8710143069140429,-0.05320338206182537
-4.019,-0.2420001609548061,0.1186529801471552,-0.0637864594726745
-4.0185,-0.956901876418893,-0.7608680074809419,-0.09553569170519302
-4.018,-1.052933450138687,-1.01518732920576,-0.05320338206182537
-4.0175,-0.7008176798351597,-0.6972881770507372,-0.03203722724012713
-4.017,-0.2740106855282422,-0.2522293640341098,-0.03203722724012713
-4.0165,0.04609456020279989,0.1186529801473865,-0.04262030465097626
-4.016,0.2381577076409128,0.3729723018711736,-0.04262030465097626
-4.0155,0.3235191065022962,0.5107286011382248,-0.04262030465097626
-4.015,0.3555296310754121,0.5743084315693742,-0.0532033820618735
-4.0145,0.3448594562177392,0.5955017083796896,-0.106118769116071
-4.014,0.3235191065023933,0.6060983467848474,-0.1167018465269105
-4.0135,0.2808384070716142,0.6272916235952208,-0.12728492393775
-4.013,0.2488278824985954,0.6590815388106942,-0.106118769116071
-4.0125,0.2061471830678648,0.7226613692416989,-0.0637864594726745
-4.012,-0.1352984123785717,0.9875773293712317,-0.053203382061835
-4.0115,-0.7861790786966207,1.369056311956912,-0.0637864594726745
-4.011,-1.074273799854052,1.019367244586387,-0.03203722724012713
-4.0105,-1.2129860730038,0.1716361721737634,-0.02145414982928762
-4.01,-1.06360362499637,-0.2310360872233701,-0.03203722724012713
-4.0095,-0.6261264558313813,-0.3475991096802118,-0.021454149829278
-4.009,-0.1673089369514449,-0.3264058328698963,-0.021454149829278
-4.0085,0.1634664836372896,-0.188649533602604,-0.021454149829278
-4.008,0.3341892813600565,-0.08268314955102604,-0.021454149829278
-4.0075,0.41955068022144,-0.05089323433555266,-0.021454149829278
-4.007,0.4302208550793556,-0.01910331912014673,-0.03203722724006938
-4.0065,0.6009436528021226,-0.1568596183871981,0.03146123722496762
-4.006,0.707645401378949,-0.2204394488182027,0.04204431463581675
-4.0055,0.643624352232756,-0.08268314955085257,0.03146123722496762
-4.005,0.5369226036560266,0.1080563417419877,0.03146123722496762
-4.0045,0.4408910299368829,0.2881991946298341,0.01029508240326937
-4.004,0.4088805053641262,0.468342047518066,-0.02145414982929725
-4.0035,0.7289857510943143,0.8922075837243778,-0.04262030465097626
-4.003,0.5369226036560266,1.019367244586387,-0.05320338206182537
-4.0025,-0.2420001609540977,0.2776025562253414,-0.04262030465098588
-4.002,-0.8502001278427167,-0.08268314955102604,-0.08495261429437276
-4.0015,-1.170305373573196,-0.3052125560595421,-0.07436953688352363
-4.001,-0.9035510021313726,-0.262826002438911,-0.04262030465100513
-4.0005,-0.4660738329657825,-0.05089323433532136,-0.04262030465097626
-4,-0.07127736323188383,0.1716361721729923,-0.04262030465097626
-3.9995,0.1741366584948169,0.3411823866556712,-0.04262030465097626
-3.999,0.3021787567870086,0.4471487707073456,-0.04262030465097626
-3.9985,0.3555296310754218,0.5107286011383502,-0.04262030465097626
-3.998,0.3555296310754218,0.5319218779486851,-0.08495261429437276
-3.9975,0.3341892813600565,0.5425185163538525,-0.1272849239377692
-3.997,0.3128489316446912,0.55311515475902,-0.1167018465269201
-3.9965,0.291508581929326,0.5743084315693548,-0.106118769116071
-3.996,0.2594980573562781,0.5849050699745222,-0.09553569170522189
-3.9955,0.1741366584948169,0.5425185163538525,-0.04262030465097626
-3.995,-0.2953510352432193,0.3623756634660061,-0.0637864594726745
-3.9945,-0.7328282044082075,-0.2946159176543747,-0.05320338206182537
-3.994,-1.052933450138687,-0.9939940523954253,-0.01087107241842888
-3.9935,-1.148965023857831,-1.110557074852267,-0.021454149829278
-3.993,-0.7755089038389382,-0.7290780922662394,-0.021454149829278
-3.9925,-0.2846808603855366,-0.3370024712750445,-0.021454149829278
-3.992,0.1101156093487211,-0.07208651114585861,-0.021454149829278
-3.9915,0.3448594562177392,0.07626642652648545,-0.021454149829278
-3.991,0.4302208550792003,0.1080563417419877,-0.021454149829278
-3.9905,0.4408910299368829,0.07626642652648545,-0.03203722724012713
-3.99,0.5049120790829789,-0.08268314955102604,-0.000287995007579752
-3.9895,0.6329541773751706,-0.2734226408440398,0.04204431463581675
-3.989,0.5902734779444399,-0.252229364033705,0.03146123722496762
-3.9885,0.5049120790829789,-0.1568596183871981,0.03146123722496762
-3.988,0.4302208550792003,-0.06148987274069118,0.01029508240326937
-3.9875,0.408880505363835,-0.01910331912002144,-0.021454149829278
-3.987,0.3875401556484697,-0.3052125560595421,-0.05320338206182537
-3.9865,-0.08194753808956648,-0.8880276683437509,-0.0637864594726745
-3.986,-0.658136980404429,-1.47084278062796,-0.05320338206182537
-3.9855,-1.202315898146244,-1.979481424075996,-0.07436953688352363
-3.985,-1.319687821580753,-1.852321763213987,-0.05320338206182537
-3.9845,-0.9035510021311299,-1.089363798041932,-0.03203722724012713
-3.984,-0.4020527838200457,-0.3793890248957141,-0.03203722724012713
-3.9835,-0.007256314085787988,0.1292496185523226,-0.04262030465097626
-3.983,0.2274875327832301,0.4153588554918433,-0.04262030465097626
-3.9825,0.3341892813600565,0.5319218779486851,-0.05320338206182537
-3.982,0.3661998059331045,0.55311515475902,-0.04262030465097626
-3.9815,0.3555296310754218,0.5213252395435176,-0.07436953688352363
-3.981,0.3341892813600565,0.4789386859228479,-0.1167018465269201
-3.9805,0.3021787567870086,0.4365521323021782,-0.1272849239377692
-3.98,0.2701682322139607,0.4047622170866759,-0.1167018465269201
-3.9795,0.2488278824985954,0.3941655786815084,-0.09553569170522189
-3.979,0.07810508477567314,0.5849050699745222,-0.04262030465097626
-3.9785,-0.5087545323968721,1.072350436612224,-0.0637864594726745
-3.978,-1.020922925565639,1.082947075017392,-0.05320338206182537
-3.9775,-1.394379045584531,0.2670059178194992,-0.03203722724012713
-3.977,-1.629122892453549,-0.1038764263613609,-0.021454149829278
-3.9765,-1.287677297007705,-0.1356663415768632,-0.021454149829278
-3.976,-0.7434983792658902,-0.08268314955102604,-0.021454149829278
-3.9755,-0.2099896363817582,-0.04029659593035631,-0.021454149829278
-3.975,0.1741366584948169,-0.06148987274069118,-0.021454149829278
-3.9745,0.3768699807907871,-0.07208651114585861,-0.021454149829278
-3.974,0.4515612047945656,-0.07208651114585861,-0.03203722724012713
-3.9735,0.4729015545099309,-0.008506680714854012,-0.01087107241842888
-3.973,0.6329541773751706,0.03387987290581572,0.04204431463581675
-3.9725,0.6436243522328531,0.08686306493165288,0.04204431463581675
-3.972,0.5902734779444399,0.1504428953626575,0.03146123722496762
-3.9715,0.5369226036560266,0.2140227257936621,0.0208781598141185
-3.971,0.4729015545099309,0.309392471440169,-0.000287995007579752
-3.9705,0.5369226036560266,0.5001319627331828,-0.03203722724012713
-3.97,0.8356874996711408,0.9557874141553824,-0.04262030465097626
-3.9695,0.3448594562177392,0.8286277532933731,-0.0637864594726745
-3.969,-0.3807124341046804,-0.01910331912002144,-0.07436953688352363
-3.9685,-0.9569018764195432,-0.8244478379127463,-0.09553569170522189
-3.968,-0.9142211769888124,-0.9198175835592532,-0.05320338206182537
-3.9675,-0.5514352318276028,-0.5595318777835605,-0.03203722724012713
-3.967,-0.1673089369510276,-0.1356663415768632,-0.04262030465097626
-3.9665,0.1101156093487211,0.2034260873884947,-0.04262030465097626
-3.966,0.2701682322139607,0.4259554938970107,-0.04262030465097626
-3.9655,0.3341892813600565,0.5425185163538525,-0.04262030465097626
-3.965,0.3555296310754218,0.5849050699745222,-0.05320338206182537
-3.9645,0.3448594562177392,0.5955017083796896,-0.1167018465269201
-3.964,0.3235191065023739,0.5849050699745222,-0.1272849239377692
-3.9635,0.291508581929326,0.5955017083796896,-0.1272849239377692
-3.963,0.2594980573562781,0.6060983467848571,-0.106118769116071
-3.9625,0.2168173579255475,0.6378882620003594,-0.0637864594726745
-3.962,-0.1993194615240755,0.9451907757502149,-0.05320338206182537
-3.9615,-0.9142211769888124,1.390249588767247,-0.0637864594726745
-3.961,-1.26633694729234,1.210106735879401,-0.03203722724012713
-3.9605,-1.458400094730627,0.6060983467848571,-0.021454149829278
-3.96,-1.180975548430879,0.3199891098453364,-0.03203722724012713
-3.9595,-0.7008176798351597,0.13984625695749,-0.03203722724012713
-3.959,-0.2633405106701714,-0.008506680714854012,-0.03203722724012713
-3.9585,0.08877525963335578,-0.1462629799820306,-0.03203722724012713
-3.958,0.291508581929326,-0.1568596183871981,-0.021454149829278
-3.9575,0.3875401556484697,-0.1144730647665284,-0.021454149829278
-3.957,0.4195506802215176,-0.05089323433552374,-0.03203722724012713
-3.9565,0.5796033030867573,-0.1674562567923655,0.0208781598141185
-3.956,0.6969752265212663,-0.2310360872233701,0.04204431463581675
-3.9555,0.6329541773751706,-0.08268314955102604,0.03146123722496762
-3.955,0.5262524287983441,0.1080563417419877,0.03146123722496762
-3.9545,0.4408910299368829,0.2881991946298341,0.01029508240326937
-3.954,0.4195506802215176,0.4683420475176805,-0.021454149829278
-3.9535,0.7503261008096795,0.9134008605347127,-0.04262030465097626
-3.953,0.6542945270905358,1.00877060618122,-0.04262030465097626
-3.9525,-0.1139580626626144,0.1928294489833272,-0.0637864594726745
-3.952,-0.9248913518464952,-0.7608680074817418,-0.09553569170522189
