Class_1_Relax_eyes_closed/Class_1_Relax_Eyes_closed_Turki_3.csv

#Digilent WaveForms Oscilloscope Acquisition
#Device Name: EExplorer
#Serial Number: SN:210151A2B84A
#Date Time: 2020-11-04 11:25:21.269
#Sample rate: 2000Hz
#Samples: 16384
#Trigger: Source: Channel 1 Type: Edge Condition: Rising Level: 0 V Hyst.: Auto HoldOff: 0 s
#Channel 1: Range: 1 V/div Offset: 0 V Attenuation: 1 X
#Channel 2: Range: 1 V/div Offset: 0 V Attenuation: 1 X
#Power Supplies: ON
#Fixed Supply: ON
#Voltage: 3.3 V Readback: 3.324 V
#Positive Supply: ON
#Voltage: 3.7 V Readback: 3.71 V
#Current: 500 mA Readback: 19 mA
#Negative Supply: ON
#Voltage: -3.7 V Readback: -3.703 V
#Current: -500 mA Readback: -10 mA
#Reference 1: ON
#Voltage: 0 V
#Reference 2: ON
#Voltage: 0 V

Time (s),Channel 1 (V),Channel 2 (V)
-4.096,-0.2420001609548061,-0.8244478379127463
-4.0955,-1.063603624995622,-1.301296566144847
-4.095,-1.693143941599704,-1.682775548731347
-4.0945,-1.757164990745741,-1.725162102351978
-4.094,-1.052933450139327,-1.152943628473457
-4.0935,-0.2206598112389168,-0.5171453241625632
-4.093,0.3555296310754218,-0.1568596183871981
-4.0925,0.6436243522325911,-0.06148987274077791
-4.092,0.7396559259519871,-0.04029659593035631
-4.0915,0.7289857510943143,-0.04029659593035631
-4.091,0.6756348768059011,-0.04029659593035631
-4.0905,0.6969752265214507,-0.1780528951976197
-4.09,0.8997085488172365,-0.2734226408440398
-4.0895,0.9850699476786977,-0.1992461720078678
-4.089,0.8676980242442953,0.01268659609528808
-4.0885,0.6969752265212663,0.2034260873884947
-4.088,0.7609962756673623,0.2034260873884947
-4.0875,0.8570278493864186,-0.3052125560590795
-4.087,0.02475421048641565,-0.8986243067491978
-4.0865,-0.9035510021311299,-1.205926820498774
-4.086,-1.479740444445468,-1.174136905283301
-4.0855,-1.341028171295614,-1.004590690800361
-4.085,-0.7861790786966207,-0.7502713690765743
-4.0845,-0.2420001609553011,-0.4959520473527873
-4.084,0.1421261339219631,-0.1780528951970414
-4.0835,0.3555296310754218,0.3623756634660061
-4.083,0.4408910299368829,1.178316820663898
-4.0825,0.4622313796522288,1.920081509025888
-4.082,0.4408910299368829,2.216787384370307
-4.0815,0.408880505363835,2.068434446697963
-4.081,0.3768699807908162,1.506812611224599
-4.0805,0.3555296310754218,0.6166949851900245
-4.08,0.3448594562177392,-0.09327978795619347
-4.0795,-0.01792648894314064,-0.6866915386450301
-4.079,-0.7861790786972807,-1.258910012525035
-4.0785,-1.51175096901904,-1.725162102351978
-4.078,-1.917217613610612,-1.873515040024187
-4.0775,-1.554431668448985,-1.364876396575659
-4.077,-0.690147504977477,-0.6760949002404023
-4.0765,0.04609456020195568,-0.220439448818617
-4.076,0.4835717293677882,0.02328323450064829
-4.0755,0.6756348768059011,0.02328323450064829
-4.075,0.7183155762366316,-0.05089323433552374
-4.0745,0.6969752265212567,-0.1568596183872656
-4.074,0.6863050516635838,-0.2310360872233701
-4.0735,0.8890383739595538,-0.2204394488182027
-4.073,1.070431346539994,-0.02969995752536236
-4.0725,1.006410297394063,0.1928294489833272
-4.072,0.8356874996711408,0.7120647308365314
-4.0715,0.7289857510944113,0.8498210301035827
-4.071,0.8997085488166736,0.3411823866549677
-4.0705,0.2808384070716433,-0.4323722169215513
-4.07,-0.7648387289803044,-0.9833974139897568
-4.0695,-1.650463242169361,-1.078767159636668
-4.069,-2.141291285622316,-0.9728007755850904
-4.0685,-1.67180359188428,-0.7820612842920766
-4.068,-0.8928808272728456,-0.5383386009730136
-4.0675,-0.2313299860971235,-0.3052125560595421
-4.067,0.1848068333524996,0.01268659609548085
-4.0665,0.408880505363903,0.6272916235959244
-4.066,0.4835717293676135,1.432636142387917
-4.0655,0.4729015545099309,1.962468062646288
-4.065,0.4302208550792391,1.739938656137975
-4.0645,0.3982103305061524,1.220703374284568
-4.064,0.3875401556484697,0.7120647308365314
-4.0635,0.3555296310754509,0.1080563417425371
-4.063,0.01408403562888828,-0.5701285161892676
-4.0625,-0.7434983792658902,-1.163540266878104
-4.062,-1.426389570156958,-1.66158227192052
-4.0615,-1.970568487899375,-1.894708316834493
-4.061,-1.949228138184029,-1.714565463946811
-4.0605,-1.06360362499637,-0.8986243067489184
-4.06,-0.1886492866658785,-0.294615917654153
-4.0595,0.3768699807907871,-0.05089323433552374
-4.059,0.6329541773751706,0.01268659609548085
-4.0585,0.7076454013788811,-0.04029659593030812
-4.058,0.6969752265212663,-0.1144730647665284
-4.0575,0.6649647019482183,-0.1992461720078678
-4.057,0.7930068002402936,-0.3264058328697613
-4.0565,0.8356874996711408,-0.1038764263613609
-4.056,0.7503261008096795,0.2776025562246667
-4.0555,0.6542945270906232,0.4895353243278225
-4.055,0.5796033030869612,0.5955017083794197
-4.0545,0.8036769750980928,0.2987958330350016
-4.054,0.5582629533716152,-0.3793890248950973
-4.0535,-0.3913826089631977,-0.9939940523957337
-4.053,-1.30901764672307,-1.333086481360783
-4.0525,-1.415719395299897,-1.34368311976595
-4.052,-0.9248913518459808,-1.131750351662332
-4.0515,-0.3593720843893152,-0.8350444763179138
-4.051,0.0674349099179905,-0.5489352393783931
-4.0505,0.312848931644468,-0.1886495336030281
-4.05,0.4302208550792003,0.5001319627331828
-4.0495,0.4622313796522482,1.347863035146577
-4.049,0.4515612047945753,1.994257977861203
-4.0485,0.4195506802214982,2.142610915534125
-4.048,0.3982103305061524,2.132014277128968
-4.0475,0.3982103305061524,1.898888232215496
-4.047,0.4088805053636506,1.400846227171682
-4.0465,0.2061471830678648,0.5955017083796896
-4.046,-0.2953510352427632,-0.1674562567916716
-4.0455,-0.9569018764201157,-0.8880276683442906
-4.045,-1.586442193022819,-1.481439419033127
-4.0445,-1.927887788468663,-1.714565463946811
-4.044,-1.415719395299091,-1.057573882825861
-4.0435,-0.5300948821122373,-0.4323722169215513
-4.043,0.142126133921769,-0.09327978795619347
-4.0425,0.5155822539403216,0.03387987290570006
-4.042,0.6756348768059011,0.02328323450064829
-4.0415,0.7183155762366316,-0.1144730647665284
-4.041,0.6969752265212857,-0.2840192792490531
-4.0405,0.7609962756674593,-0.3793890248956659
-4.04,0.8676980242441885,-0.326405832869877
-4.0395,0.8036769750981509,-0.02969995752545873
-4.039,0.6756348768057943,0.2881991946300558
-4.0385,0.5582629533713921,0.5319218779486851
-4.038,0.6756348768057943,0.4789386859228961
-4.0375,0.7609962756666053,-0.1250697031723126
-4.037,-0.07127736323188383,-0.8032545611024114
-4.0365,-1.06360362499637,-1.205926820498774
-4.036,-1.863866739322752,-1.269506650929663
-4.0355,-2.066600061618538,-1.142346990067769
-4.035,-1.426389570157579,-0.9092209451540858
-4.0345,-0.6688071552628008,-0.6443049850251409
-4.034,-0.08194753808956648,-0.3158091944647096
-4.0335,0.2701682322139607,0.309392471440169
-4.033,0.4408910299367277,1.146526905447635
-4.0325,0.4835717293675941,1.845905040189591
-4.032,0.4622313796522482,2.004854616266958
-4.0315,0.4195506802215564,1.42203950398328
-4.031,0.3982103305061427,0.659081538810087
-4.0305,0.3875401556484697,-0.008506680714854012
-4.03,0.3341892813601051,-0.5913217929985328
-4.0295,0.142126133921439,-1.015187329206097
-4.029,-0.2206598112394408,-1.38606967338662
-4.0285,-0.9248913518464952,-1.725162102351978
-4.028,-1.490410619303491,-1.862918401618731
-4.0275,-1.287677297007705,-1.396666311791788
-4.027,-0.5194247072545548,-0.5913217929990628
-4.0265,0.1314559590634944,-0.07208651114633091
-4.026,0.5369226036560266,0.06566978812131802
-4.0255,0.7183155762366316,0.01268659609548085
-4.025,0.7396559259519774,-0.04029659593030812
-4.0245,0.6863050516635644,-0.08268314955112242
-4.024,0.6649647019482183,-0.1886495336027004
-4.0235,0.8036769750979667,-0.04029659593049123
-4.023,0.8570278493864963,0.3199891098455002
-4.0225,0.8463576745288233,0.5001319627331828
-4.022,0.7716664505251127,0.4047622170867626
-4.0215,0.7396559259522685,0.4365521323020432
-4.021,1.038420821967111,0.2881991946298341
-4.0205,0.4942419042252961,-0.326405832869877
-4.02,-0.5621054066861102,-0.8986243067491786
-4.0195,-1.46907026958831,-1.184733543688439
-4.019,-1.67180359188428,-1.184733543688439
-4.0185,-1.159635198715979,-0.9728007755852831
-4.018,-0.5194247072545548,-0.6866915386455698
-4.0175,-0.01792648894347063,-0.3052125560595421
-4.017,0.2808384070713715,0.3517790250602412
-4.0165,0.4302208550792294,1.252493289500755
-4.016,0.4622313796522482,2.004854616266958
-4.0155,0.4515612047945753,2.365140322042323
-4.015,0.4195506802214982,2.312157130016438
-4.0145,0.3982103305061524,1.898888232215284
-4.014,0.3982103305061524,1.072350436612976
-4.0135,0.3661998059327648,0.4047622170860783
-4.013,-0.007256314085787988,-0.252229364033705
-4.0125,-0.8181896032696687,-0.8562377531282487
-4.012,-1.565101843307861,-1.396666311792067
-4.0115,-2.013249187330125,-1.703968825541643
-4.011,-1.757164990745741,-1.439052865412457
-4.0105,-0.8608703027012143,-0.6972881770514119
-4.01,-0.04993701351651855,-0.06148987274069118
-4.0095,0.4729015545099309,0.2246193641988295
-4.009,0.7183155762364084,0.2881991946297763
-4.0085,0.7716664505250059,0.1822328105779959
-4.008,0.7289857510943143,0.002089957690313421
-4.0075,0.6542945270906038,-0.06148987274063335
-4.007,0.7396559259520453,-0.1038764263612452
-4.0065,0.79300680024041,0.02328323450064829
-4.006,0.7289857510943143,0.1610395337678249
-4.0055,0.6329541773751124,0.2246193641989066
-4.005,0.5689331282290746,0.309392471440169
-4.0045,0.8890383739595538,0.08686306493165288
-4.004,0.7716664505241617,-0.5065486857582342
-4.0035,-0.1993194615240755,-1.068170521231597
-4.003,-1.244996597576974,-1.38606967338662
-4.0025,-1.73582464102993,-1.38606967338662
-4.002,-1.351698346153801,-1.142346990067769
-4.0015,-0.7008176798351597,-0.8350444763179138
-4.001,-0.1459685872361669,-0.5383386009734954
-4.0005,0.2168173579257125,-0.1992461720073474
-4,0.3982103305061524,0.3729723018711736
-3.9995,0.4622313796522482,1.210106735879401
-3.999,0.4622313796522482,1.898888232215284
-3.9985,0.4302208550792003,1.983661339456623
-3.998,0.3982103305061524,1.570392441655093
-3.9975,0.3768699807907871,1.00877060618122
-3.997,0.3768699807907871,0.4047622170866759
-3.9965,0.2381577076409128,-0.2310360872233701
-3.996,-0.4660738329661415,-0.8138511995075789
-3.9955,-1.287677297007705,-1.333086481360783
-3.995,-1.959898313041711,-1.75695201756748
-3.9945,-2.429386006779747,-1.831128486403653
-3.994,-1.778505340461106,-1.205926820498774
-3.9935,-0.754168554123573,-0.4853554089473885
-3.993,0.03542438534494258,-0.1038764263613609
-3.9925,0.4942419042252961,0.002089957690313421
-3.992,0.6969752265212663,-0.06148987274069118
-3.9915,0.7183155762366316,-0.2098428104130352
-3.991,0.6863050516635838,-0.3052125560595421
-3.9905,0.7396559259519968,-0.3475991096802118
-3.99,0.9317190733902845,-0.2416327256285375
-3.9895,1.059761171682476,0.002089957690313421
-3.989,0.9637295979633325,0.1292496185523226
-3.9885,0.79300680024041,0.2776025562246667
-3.988,0.8783681991018712,0.3199891098453364
-3.9875,1.027750647109428,-0.1886495336027004
-3.987,0.1954770082101822,-0.8032545611024114
-3.9865,-0.8822106524157645,-1.163540266878104
-3.986,-1.725154466172693,-1.184733543688439
-3.9855,-1.885207089037933,-1.036380606016095
-3.985,-1.287677297007705,-0.8032545611024114
-3.9845,-0.5834457564006506,-0.5383386009732256
-3.984,-0.03926683865883591,-0.1356663415768632
-3.9835,0.2808384070716433,0.6166949851900245
-3.983,0.4408910299368829,1.485619334413754
-3.9825,0.4729015545099309,2.132014277128968
-3.982,0.4515612047945656,2.280367214801311
-3.9815,0.4195506802215176,1.983661339456623
-3.981,0.3982103305061524,1.612778995275763
-3.9805,0.3982103305061524,1.42203950398275
-3.98,0.3448594562177392,1.369056311956912
-3.9795,0.1954770082101822,0.9451907757502149
-3.979,-0.2953510352432193,0.07626642652648545
-3.9785,-1.074273799854052,-0.7714646458869092
-3.978,-1.725154466172693,-1.364876396576285
-3.9775,-1.565101843307454,-1.333086481360783
-3.977,-0.7648387289812555,-0.8774310299385835
-3.9765,-0.03926683865883591,-0.4323722169215513
-3.976,0.4302208550792003,-0.1356663415768632
-3.9755,0.6436243522328531,-0.04029659593035631
-3.975,0.6969752265212663,-0.06148987274069118
-3.9745,0.6756348768059011,-0.1992461720078678
-3.974,0.6863050516635838,-0.4111789401112165
-3.9735,0.825017324813458,-0.4535654937318862
-3.973,0.8463576745288233,-0.1886495336027004
-3.9725,0.79300680024041,0.1292496185523226
-3.972,0.707645401378949,0.3729723018711736
-3.9715,0.6969752265212663,0.4471487707073456
-3.971,0.9210488985326017,0.04447651131098315
-3.9705,0.291508581929326,-0.6125150698093976
-3.97,-0.754168554123573,-1.121153713257435
-3.9695,-1.607782542738184,-1.322489842955616
-3.969,-1.703814116457328,-1.216523458903942
-3.9685,-1.148965023857831,-0.9410108603695881
-3.968,-0.4980843575391895,-0.6443049850249
-3.9675,0.00341386077189465,-0.3581957480853793
-3.967,0.291508581929326,-0.02969995752518888
-3.9665,0.4302208550792003,0.5637117931641874
-3.966,0.4729015545099309,1.37965295036208
-3.9655,0.4515612047945656,1.941274785835954
-3.965,0.408880505363835,1.75053529454294
-3.9645,0.3875401556484697,1.231300012689736
-3.964,0.3768699807907871,0.8604176685088755
-3.9635,0.3555296310754218,0.9769806909657173
-3.963,0.1527963087794516,0.627291623595192
-3.9625,-0.6047861061160158,-0.1568596183871981
-3.962,-1.341028171296118,-0.8986243067489184
-3.9615,-1.863866739322568,-1.502632695843462
-3.961,-1.938557963326346,-1.693372187136476
-3.9605,-1.1062843244271,-1.110557074852267
-3.96,-0.2526703358124887,-0.5171453241628908
-3.9595,0.3448594562177392,-0.1462629799820306
-3.959,0.6329541773751706,0.06566978812131802
-3.9585,0.7289857510943143,0.05507314971615059
-3.958,0.7183155762366316,-0.09327978795619347
-3.9575,0.6863050516635838,-0.2416327256285375
-3.957,0.8356874996711408,-0.400582301706049
-3.9565,0.8997085488172365,-0.2416327256285375
-3.956,0.8676980242441885,0.04447651131098315
-3.9555,0.7609962756673623,0.1292496185523226
-3.955,0.6436243522328531,0.2881991946298341
-3.9545,0.5262524287983441,0.1186529801471552
-3.954,0.1848068333524996,-0.4641621321370536
-3.9535,-0.6794773301197943,-1.004590690800593
-3.953,-1.447729919872945,-1.311893204550448
-3.9525,-2.045259711903173,-1.311893204550448
-3.952,-1.906547438753298,-1.110557074852267
-3.9515,-1.159635198715513,-0.8456411147230812
-3.951,-0.4447334832507763,-0.5807251545938954
-3.9505,0.05676473506030786,-0.2310360872233701
-3.95,0.3448594562177392,0.4471487707073456
-3.9495,0.4622313796522482,1.284283204715573
-3.949,0.4835717293676135,1.898888232215284
-3.9485,0.4515612047945656,2.036644531482461
-3.948,0.4195506802215176,2.036644531482461
-3.9475,0.3982103305061524,2.110821000318633
-3.947,0.3768699807907871,2.089627723508298
-3.9465,0.2808384070716433,1.432636142387917
-3.946,-0.3593720843893152,0.2987958330350016
-3.9455,-1.212986073003927,-0.6866915386455698
-3.945,-1.906547438753298,-1.42845622700729
-3.9445,-2.376035132491334,-1.79933857118815
-3.944,-1.714484291315011,-1.333086481360783
-3.9435,-0.690147504977477,-0.6549016234300674
-3.943,0.07810508477567314,-0.1886495336027004
-3.9425,0.5369226036560266,0.01268659609548085
-3.942,0.7183155762366316,-0.01910331912002144
-3.9415,0.7396559259519968,-0.1462629799820306
-3.941,0.707645401378949,-0.2098428104130352
-3.9405,0.79300680024041,-0.2734226408440398
-3.94,1.049090996824793,0.04447651131098315
-3.9395,1.070431346540159,0.4789386859228479
-3.939,0.8997085488172365,0.6696781772158616
-3.9385,0.707645401378949,0.7226613692416989
-3.938,0.7503261008096795,0.5425185163538525
-3.9375,0.9103787236749192,-0.1038764263613609
-3.937,0.08877525963335578,-0.8032545611024114
-3.9365,-0.839529952985034,-1.184733543688439
-3.936,-1.543761493592088,-1.227120097309109
-3.9355,-1.725154466172693,-1.0999604364471
-3.935,-1.191645723288561,-0.8774310299385835
-3.9345,-0.5300948821122373,-0.6549016234300674
-3.934,-0.01792648894347063,-0.400582301706049
-3.9335,0.2808384070716433,0.04447651131098315
-3.933,0.4302208550792003,0.8074344764830383
-3.9325,0.4729015545099309,1.559795803249926
-3.932,0.4408910299368829,1.803518486568777
-3.9315,0.408880505363835,1.305476481525908
-3.931,0.3875401556484697,0.7544512844572011
-3.9305,0.3768699807907871,0.3729723018711736
-3.93,0.3555296310754218,-0.008506680714854012
-3.9295,0.02475421048725994,-0.5171453241628908
-3.929,-0.5407650569699201,-1.068170521231597
-3.9285,-1.202315898146244,-1.555615887869299
-3.928,-1.479740444445993,-1.788741932782983
-3.9275,-1.170305373573196,-1.364876396576285
-3.927,-0.4447334832507763,-0.6337083466197325
-3.9265,0.1527963087794516,-0.1250697031716958
-3.926,0.5049120790829789,0.1080563417419877
-3.9255,0.6649647019482183,0.13984625695749
-3.925,0.6969752265212663,0.03387987290581572
-3.9245,0.6649647019482183,-0.04029659593035631
-3.924,0.6649647019482183,-0.1568596183871981
-3.9235,0.8890383739595538,-0.06148987274069118
-3.923,0.9850699476786977,0.1822328105781598
-3.9225,0.8676980242441885,0.2987958330350016
-3.922,0.707645401378949,0.4259554938970107
-3.9215,0.6436243522328531,0.4683420475176805
-3.921,0.9210488985326017,0.02328323450064829
-3.9205,0.3448594562177392,-0.6443049850249
-3.92,-0.6794773301197943,-1.152943628472937
-3.9195,-1.522421143876723,-1.290699927740113
-3.919,-2.066600061618538,-1.216523458903942
-3.9185,-1.714484291315011,-0.9939940523954253
-3.918,-0.9675720512772257,-0.7290780922662394
-3.9175,-0.2953510352432193,-0.4853554089473885
-3.917,0.1527963087794516,-0.2098428104130352
-3.9165,0.3768699807907871,0.3411823866556712
-3.916,0.4729015545099309,1.135930267043229
-3.9155,0.4729015545099309,1.718745379327438
-3.915,0.4302208550792003,1.485619334413754
-3.9145,0.3982103305061524,0.8922075837243778
-3.914,0.3768699807907871,0.2352160026039969
-3.9135,0.3235191065023739,-0.3687923864905467
-3.913,-0.03926683865883591,-0.8350444763179138
-3.9125,-0.754168554123573,-1.227120097309109
-3.912,-1.426389570157579,-1.608599079895136
-3.9115,-1.970568487899394,-1.831128486403653
-3.911,-2.045259711903173,-1.598002441489969
-3.9105,-1.212986073003927,-0.8032545611024114
-3.91,-0.3166913849585846,-0.1674562567923655
-3.9095,0.291508581929326,0.2246193641988295
-3.909,0.6116138276598051,0.3729723018711736
-3.9085,0.7183155762366316,0.3199891098453364
-3.908,0.707645401378949,0.2034260873884947
-3.9075,0.6649647019482183,0.02328323450064829
-3.907,0.8356874996711408,-0.252229364033705
-3.9065,0.9317190733902845,-0.1462629799820306
-3.906,0.857027849386506,0.08686306493165288
-3.9055,0.6969752265212663,0.2458126410091644
-3.905,0.5796033030867573,0.2987958330350016
-3.9045,0.9103787236749192,0.06566978812131802
-3.904,1.070431346540159,-0.5065486857577234
-3.9035,0.1741366584948169,-1.036380606016095
-3.903,-0.8608703027003992,-1.184733543688439
-3.9025,-1.607782542738184,-1.110557074852267
-3.902,-1.51175096901904,-0.9198175835592532
-3.9015,-0.9248913518464952,-0.6866915386455698
-3.901,-0.3166913849585846,-0.400582301706049
-3.9005,0.1101156093487211,0.13984625695749
-3.9,0.3448594562177392,0.9981739677760521
-3.8995,0.4515612047945656,1.803518486568777
-3.899,0.4622313796522482,2.290963853206479
-3.8985,0.4408910299368829,2.365140322042651
-3.898,0.4195506802215176,2.20619074596514
-3.8975,0.3982103305061524,1.824711763379112
-3.897,0.3875401556484697,1.33726639674141
-3.8965,0.2381577076409128,0.6802748156210291
-3.896,-0.4554036581084589,-0.2098428104130352
-3.8955,-1.244996597576974,-0.9833974139902578
-3.895,-1.789175515318789,-1.51322933424863
-3.8945,-1.703814116457328,-1.502632695843462
-3.894,-1.010252750707956,-0.9092209451540858
-3.8935,-0.2206598112394408,-0.3793890248957141
-3.893,0.3555296310754218,-0.1144730647665284
-3.8925,0.6542945270905358,0.002089957690313421
-3.892,0.7503261008096795,0.04447651131098315
-3.8915,0.7289857510943143,0.03387987290581572
-3.891,0.6649647019482183,-0.01910331912002144
-3.8905,0.7289857510943143,-0.1462629799820306
-3.89,0.8676980242441885,-0.1568596183871981
-3.8895,0.8143471499557753,0.01268659609548085
-3.889,0.707645401378949,0.1822328105781598
-3.8885,0.6329541773751706,0.4259554938970107
-3.888,0.7823366253827275,0.4471487707073456
-3.8875,0.8783681991018712,-0.08268314955102604
-3.887,0.00341386077189465,-0.7290780922662394
-3.8865,-1.052933450138687,-1.121153713257435
