Class_1_Relax_eyes_closed/Class_1_Relax_Eyes_closed_Zakour_7.csv

#Digilent WaveForms Oscilloscope Acquisition
#Device Name: EExplorer
#Serial Number: SN:210151A2B84A
#Date Time: 2020-12-21 15:16:04.504
#Sample rate: 2000Hz
#Samples: 16384
#Trigger: Source: Channel 1 Type: Edge Condition: Rising Level: 0 V Hyst.: Auto HoldOff: 0 s
#Channel 1: Range: 1 V/div Offset: 0 V
#Channel 2: Range: 1 V/div Offset: 0 V

Time (s),Channel 1 (V),Channel 2 (V)
-4.0960000000000001,-1.6824737667419627,-0.27342264084403983
-4.0955000000000004,-2.0132491873298242,-0.050893234335726123
-4.0949999999999998,-1.6184527175950323,-0.13566634157725832
-4.0945,-0.70081767983515975,-0.57012851618872795
-4.0940000000000003,0.15279630877867523,-0.84564111472283066
-4.0934999999999997,0.69697522652149924,-0.95160749877474582
-4.093,0.95305942310564973,-0.94101086036958814
-4.0925000000000002,1.0064102973940143,-0.95160749877474582
-4.0919999999999996,0.98506994767876566,-0.85623775312802697
-4.0914999999999999,1.0597611716824762,-0.61251506980939763
-4.0910000000000002,1.0490909968247935,-0.68669153864556975
-4.0904999999999996,0.94238924824784087,-0.84564111472313908
-4.0899999999999999,0.80367697509809277,-0.9092209451540858
-4.0895000000000001,0.71831557623663156,-0.86683439153341613
-4.0890000000000004,0.63295417737524817,-0.83504447631794265
-4.0884999999999998,0.36619980593310447,-1.2589100125246109
-4.0880000000000001,-0.3700422592469978,-1.227120097309109
-4.0875000000000004,-1.1382948489994493,-0.57012851618932547
-4.0869999999999997,-1.7251544661730231,0.065669788121809541
-4.0865,-2.0879404113339031,0.60609834678485708
-4.0860000000000003,-1.6184527175962939,0.96638405256022208
-4.0854999999999997,-0.81818960326905732,1.1465269054483767
-4.085,-0.14596858723566233,1.1253336286380615
-4.0845000000000002,0.29150858192892815,0.74385464605238072
-4.0839999999999996,0.51558225394073898,0.15044289536217559
-4.0834999999999999,0.60094365280212259,-0.37938902489571413
-4.0830000000000002,0.59027347794443985,-0.54893523937839306
-4.0824999999999996,0.515582253940574,-0.16745625679189327
-4.0819999999999999,0.41955068022151765,0.35177902506083869
-4.0815000000000001,0.36619980593310447,0.775644561267536
-4.0810000000000004,0.32351910650241267,1.040560521396481
-4.0804999999999998,-0.08194753808956648,1.0299638829915545
-4.0800000000000001,-0.8928808272734472,0.99817396777605205
-4.0795000000000003,-1.6824737667412446,1.0299638829915256
-4.0789999999999997,-2.1412912856219668,0.97698069096541851
-4.0785,-1.7571649907457412,0.64848490040552687
-4.0780000000000003,-0.79684925355517688,0.0020899576909012563
-4.0774999999999997,0.067434909918533958,-0.55953187778387858
-4.077,0.66496470194821833,-0.9092209451540858
-4.0765000000000002,0.96372959796306068,-1.0681705212314527
-4.0759999999999996,1.0384208219670719,-1.0257839676107734
-4.0754999999999999,0.99574012253638022,-0.85623775312824868
-4.0750000000000002,1.0597611716824762,-0.59132179299906285
-4.0744999999999996,1.1878032699746774,-0.33700247127506372
-4.0739999999999998,1.1984734448323504,-0.3581957480853793
-4.0735000000000001,1.0490909968247935,-0.48535540894738849
-4.0730000000000004,0.87836819910202646,-0.52774196256801975
-4.0724999999999998,0.72898575109431429,-0.47475877054222104
-4.0720000000000001,0.71831557623663156,-0.792657922697244
-4.0715000000000003,0.32351910650273291,-0.99399405239524219
-4.0709999999999997,-0.59411593125914841,-0.49595204735194875
-4.0705,-1.4904106193036752,0.17163617217299235
-4.0700000000000003,-1.8638667393222279,0.69087145402572425
-4.0694999999999997,-1.3410281712954584,1.0193672445865316
-4.069,-0.61545628097369853,1.1783168206638983
-4.0685000000000002,-0.028596663801153277,1.2207033742845681
-4.0679999999999996,0.34485945621790415,1.0723504366118388
-4.0674999999999999,0.52625242879834411,0.64848490040552687
-4.0670000000000002,0.59027347794443985,0.076266426526485451
-4.0664999999999996,0.59027347794439133,-0.34759910968008656
-4.0659999999999998,0.53692260365602662,-0.20984281041303524
-4.0655000000000001,0.4622313796522482,0.2246193641988295
-4.0650000000000004,0.41955068022155645,0.6484849004051414
-4.0644999999999998,0.36619980593310447,0.95578741415538238
-4.0640000000000001,0.11011560934872107,1.1147369902328941
-4.0635000000000003,-0.63679663068838444,1.1359302670432092
-4.0629999999999997,-1.3623685210119785,1.1147369902328941
-4.0625,-1.9065474387532981,1.1147369902328941
-4.0620000000000003,-2.3546947827755615,1.1041403518277362
-4.0614999999999997,-2.0025790124715006,0.82862775329280447
-4.0609999999999999,-0.96757205127722568,0.20342608738849466
-4.0605000000000002,-0.017926488943470625,-0.32640583286987701
-4.0599999999999996,0.6116138276600962,-0.70788481545603943
-4.0594999999999999,0.93171907339028448,-0.85623775312824868
-4.0590000000000002,1.0170804722517455,-0.83504447631791379
-4.0585000000000004,1.0490909968247644,-0.6443049850250735
-4.0579999999999998,1.1984734448323504,-0.36879238649054674
-4.0575000000000001,1.1237822208285719,-0.31580919446470956
-4.0570000000000004,0.95305942310580494,-0.34759910968018293
-4.0564999999999998,0.81434714995577528,-0.4535654937318862
-4.056,0.70764540137894905,-0.47475877054222104
-4.0555000000000003,0.83568749967102429,-0.65490162342990355
-4.0549999999999997,0.82501732481268164,-1.2271200973090415
-4.0545,-0.028596663801153277,-1.1529436284729369
-4.0540000000000003,-0.97824222613404488,-0.49595204735315346
-4.0534999999999997,-1.7571649907459255,0.1928294489838091
-4.0529999999999999,-1.9598983130417114,0.72266136924169888
-4.0525000000000002,-1.3303579964384356,1.0299638829915545
-4.0519999999999996,-0.57277558154242458,1.167720182258625
-4.0514999999999999,0.024754210487259936,1.0511571598018894
-4.0510000000000002,0.3768699807907871,0.60609834678485708
-4.0505000000000004,0.54759277851355415,0.0020899576908627315
-4.0499999999999998,0.60094365280212259,-0.49595204735255594
-4.0495000000000001,0.5689331282290746,-0.49595204735255594
-4.0490000000000004,0.39821033050630766,-0.040296595930770673
-4.0484999999999998,0.23815770764089336,0.47893868592318523
-4.048,0.21681735792554749,0.84982103010370802
-4.0475000000000003,0.1634664836371828,1.0723504366120218
-4.0469999999999997,-0.40205278382073473,1.1783168206639176
-4.0465,-1.1596351987155133,1.1995100974742332
-4.0460000000000003,-1.6824737667414871,1.1889134590690753
-4.0454999999999997,-2.1199509359068731,1.157123543853313
-4.0449999999999999,-2.0345895370454898,0.88161094531921036
-4.0445000000000002,-1.0742737998540521,0.11865298014715518
-4.0439999999999996,-0.1352984123773586,-0.52774196256835704
-4.0434999999999999,0.54759277851370936,-0.85623775312824868
-4.0430000000000001,0.91037872367491923,-0.9304142219644207
-4.0425000000000004,1.0384208219669944,-0.89862430674894722
-4.0419999999999998,1.0277506471094282,-0.70788481545590454
-4.0415000000000001,1.1131120459708892,-0.41117894011121647
-4.0410000000000004,1.1024418711132165,-0.34759910968026969
-4.0404999999999998,1.0277506471093796,-0.44296885532679586
-4.04,0.97439977282101498,-0.52774196256805828
-4.0395000000000003,0.86769802424428555,-0.53833860097321595
-4.0389999999999997,0.71831557623646658,-0.58072515459435803
-4.0385,0.53692260365602662,-1.0893637980419322
-4.0380000000000003,-0.20998963638107881,-1.1635402668780368
-4.0374999999999996,-1.138294849000876,-0.53833860097257991
-4.0369999999999999,-1.9385579633263461,0.17163617217299235
-4.0365000000000002,-2.4293860067797475,0.71206473083653143
-4.0359999999999996,-1.9065474387524732,1.0299638829916895
-4.0354999999999999,-0.99958257585027366,1.1783168206638983
-4.0350000000000001,-0.23132998609712346,1.1995100974742332
-4.0345000000000004,0.25949805735583165,0.97698069096591966
-4.0339999999999998,0.51558225394066137,0.48953532432801533
-4.0335000000000001,0.6116138276598051,-0.093279787956193475
-4.0330000000000004,0.6116138276598051,-0.43237221692124289
-4.0324999999999998,0.568933128228997,-0.50654868575754985
-4.032,0.4835717293676135,-0.31580919446470956
-4.0315000000000003,0.38754015564855704,0.15044289536223343
-4.0309999999999997,0.3341892813597751,0.60609834678513652
-4.0305,0.024754210487259936,0.9134008605347127
-4.0300000000000002,-0.7648387289805374,1.0617537982069218
-4.0294999999999996,-1.5544316684503727,1.1253336286380038
-4.0289999999999999,-2.2159825096260946,1.0617537982070568
-4.0285000000000002,-2.3333544330606037,0.6590815388106942
-4.0279999999999996,-1.4370597450143303,-0.093279787956819918
-4.0274999999999999,-0.41272295867772835,-0.78206128429207655
-4.0270000000000001,0.34485945621773917,-1.1635402668781043
-4.0265000000000004,0.79300680024000247,-1.2801032893348399
-4.0259999999999998,0.97439977282101498,-1.1953301820936066
-4.0255000000000001,0.99574012253638022,-1.0363806060160949
-4.0250000000000004,1.0490909968247448,-0.66549826183557226
-4.0244999999999997,1.1131120459707728,-0.33700247127504446
-4.024,0.98506994767869771,-0.33700247127504446
-4.0235000000000003,0.86769802424429532,-0.40058230170599118
-4.0229999999999997,0.78233662538262072,-0.45356549373187655
-4.0225,0.66496470194821833,-0.44296885532671876
-4.0220000000000002,0.16346648363759031,-0.1250697031719849
-4.0214999999999996,-0.64746680554743552,0.3517790250612049
-4.0209999999999999,-1.405049220442214,0.75445128445720111
-4.0205000000000002,-1.9812386627570766,0.93459413734504748
-4.0199999999999996,-2.4400561816373041,1.0405605213967895
-4.0194999999999999,-2.301343908487556,1.1147369902328941
-4.0190000000000001,-1.405049220442214,1.1571235438535634
-4.0185000000000004,-0.54076505697070609,1.1253336286380904
-4.0179999999999998,0.08877525963335578,0.89220758372437781
-4.0175000000000001,0.44089102993688295,0.43655213230217815
-4.0170000000000003,0.59027347794430396,-0.040296595929922574
-4.0164999999999997,0.62228400251745875,-0.31580919446466138
-4.016,0.59027347794443985,-0.26282600243887239
-4.0155000000000003,0.54759277851374821,-0.040296595930558704
-4.0149999999999997,0.47290155450983384,0.33058574825084119
-4.0145,0.36619980593310447,0.70146809243136399
-4.0140000000000002,0.11011560934895398,0.955787414155151
-4.0134999999999996,-0.63679663068974313,1.1041403518277748
-4.0129999999999999,-1.3837088707268488,1.1571235438535634
-4.0125000000000002,-1.7571649907457412,1.1147369902328941
-4.0119999999999996,-1.6824737667413028,0.84982103010308163
-4.0114999999999998,-0.95690187641954316,0.16103953376782493
-4.0110000000000001,-0.092617712947249131,-0.59132179299906285
-4.0105000000000004,0.56893312822847308,-1.0893637980414792
-4.0099999999999998,0.93171907339028448,-1.333086481360783
-4.0095000000000001,1.0490909968247935,-1.333086481360783
-4.0090000000000003,1.0384208219671205,-1.1741369052834163
-4.0084999999999997,1.0490909968250071,-0.95160749877445672
-4.008,1.2838348436938116,-0.62311170821456507
-4.0075000000000003,1.2518243191207927,-0.60191843140424961
-4.0069999999999997,1.1557927454015036,-0.78206128429218258
-4.0065,1.0277506471094282,-0.89862430674891836
-4.0060000000000002,0.86769802424418851,-0.84564111472308123
-4.0054999999999996,0.85702784938636045,-0.88802766834403035
-4.0049999999999999,0.69697522652126631,-1.1953301820936066
-4.0045000000000002,-0.16730893695102761,-0.81385119950757889
-4.0039999999999996,-1.0849439747124336,-0.14626297998151022
-4.0034999999999998,-1.8531965644648849,0.42595549389701071
-4.0030000000000001,-2.2800035587721905,0.84982103010370802
-4.0025000000000004,-1.6824737667425063,1.0829470750171797
-4.0019999999999998,-0.81818960326966872,1.1889134590690658
-4.0015000000000001,-0.12462823752029703,1.1571235438535634
-4.0010000000000003,0.31284893164429328,0.88161094531946094
-4.0004999999999997,0.53692260365609457,0.38356894027588806
-4,0.6116138276598051,-0.11447306476652835
-3.9994999999999998,0.54759277851370936,-0.18864953360270037
-3.9990000000000001,0.41955068022151765,0.16103953376782493
-3.9984999999999999,0.32351910650237387,0.5637117931641874
-3.9980000000000002,0.30217875678700862,0.88161094531921036
-3.9975000000000001,0.25949805735627807,1.0723504366122243
-3.9969999999999999,-0.17797911180871023,1.1359302670432285
-3.9965000000000002,-0.91422117698881245,1.1253336286380615
-3.996,-1.4797404444459925,1.1253336286380615
-3.9954999999999998,-1.7038141164573279,1.0617537982070568
-3.9950000000000001,-1.437059745015262,0.71206473083653143
-3.9944999999999999,-0.61545628097369853,0.012686596095480854
-3.9940000000000002,0.16346648363713429,-0.53833860097322561
-3.9935,0.66496470194821833,-0.82444783791274634
-3.9929999999999999,0.8997085488172365,-0.86683439153341613
-3.9925000000000002,0.96372959796333246,-0.792657922697244
-3.992,0.94238924824796699,-0.64430498502489997
-3.9914999999999998,0.95305942310564973,-0.40058230170604903
-3.9910000000000001,1.0277506471094282,-0.4641621321370536
-3.9904999999999999,1.1451225705439372,-0.71848145386107198
-3.9900000000000002,1.1664629202593024,-0.84564111472308123
-3.9895,1.0384208219671107,-0.75027136907657432
-3.9889999999999999,0.86769802424418851,-0.67609490024040231
-3.9885000000000002,0.86769802424418851,-1.0469772444212624
-3.988,0.16346648363713429,-1.0045906908005926
-3.9874999999999998,-0.82885977812735145,-0.37938902489571413
-3.9870000000000001,-1.67180359188428,0.28819919462983412
-3.9864999999999999,-2.2693333839145078,0.76504792286236856
-3.9860000000000002,-1.9598983130417114,1.0511571598018894
-3.9855,-1.0956141495694174,1.1783168206638983
-3.9849999999999999,-0.32736155981626724,1.1889134590690658
-3.9845000000000002,0.19547700821018218,0.99817396777605205
-3.984,0.4835717293676135,0.53192187794868506
-3.9834999999999998,0.60094365280212259,-0.050893234335523743
-3.9830000000000001,0.6116138276598051,-0.37938902489571413
-3.9824999999999999,0.55826295337139209,-0.12506970317169577
-3.9820000000000002,0.44089102993688295,0.33058574825050385
-3.9815,0.3768699807907871,0.73325800764686633
-3.9809999999999999,0.23815770764091276,0.98757732937088472
-3.9805000000000001,-0.17797911180871023,0.99817396777605205
-3.98,-0.94623170156186043,0.52132523954351762
-3.9794999999999998,-1.5330913187344057,0.45774540911251305
-3.9790000000000001,-1.7891755153187892,0.61669498519002452
-3.9784999999999999,-1.7358246410303759,0.57430843156935485
-3.9780000000000002,-0.91422117698881245,0.055073149716150585
-3.9775,-0.017926488943470625,-0.50654868575772338
-3.9769999999999999,0.6116138276598051,-0.89862430674891836
-3.9765000000000001,0.93171907339028448,-1.01518732920576
-3.976,1.0277506471094282,-0.98339741399025782
-3.9754999999999998,0.99574012253638022,-0.89862430674891836
-3.9750000000000001,1.0277506471094282,-0.68669153864556975
-3.9744999999999999,1.0917716962555239,-0.4535654937318862
-3.9740000000000002,1.0384208219671107,-0.42177557851638392
-3.9735,0.92104889853260175,-0.47475877054222104
-3.9729999999999999,0.81434714995577528,-0.50654868575772338
-3.9725000000000001,0.70764540137894905,-0.48535540894738849
-3.972,0.72898575109431429,-0.80325456110241145
-3.9714999999999998,0.40888050536383502,-1.1211537132574345
-3.9710000000000001,-0.43406330839309365,-0.67609490024040231
-3.9704999999999999,-1.2876772970077051,-0.10387642636136091
-3.9700000000000002,-1.7998456901764717,0.42595549389701071
-3.9695,-1.554431668449771,0.81803111488820579
-3.9689999999999999,-0.86087030270039921,1.0511571598018894
-3.9685000000000001,-0.20998963638175816,1.1359302670432285
-3.968,0.23815770764091276,0.96638405256054982
-3.9674999999999998,0.4835717293676135,0.50013196273318283
-3.9670000000000001,0.57960330308675734,-0.10387642636136091
-3.9664999999999999,0.59027347794443985,-0.54893523937839306
-3.9660000000000002,0.55826295337139209,-0.42177557851638392
-3.9655,0.45156120479456557,-0.019103319120021445
-3.9649999999999999,0.36619980593310447,0.4471487707073456
-3.9645000000000001,0.33418928136005654,0.80743447648303834
-3.964,0.16346648363713429,0.98757732937088472
-3.9634999999999998,-0.54076505696992005,0.39416557868150842
-3.9630000000000001,-1.2983474718653876,-0.050893234335523743
-3.9624999999999999,-1.8105158650341544,0.11865298014715518
-3.9620000000000002,-2.1946421599107295,0.43655213230217815
-3.9615,-1.8745369141802501,0.31998910984533641
-3.9609999999999999,-0.90355100213112993,-0.25222936403370499
-3.9605000000000001,0.0034138607718946501,-0.72907809226623943
-3.96,0.62228400251748783,-0.9304142219644207
-3.9594999999999998,0.93171907339028448,-0.97280077558509037
-3.9590000000000001,1.0170804722517455,-1.0045906908005926
-3.9584999999999999,1.0490909968247935,-0.94101086036958814
-3.9580000000000002,1.2091436196900331,-0.75027136907657432
-3.9575,1.2731646688361289,-0.73967473067140688
-3.9569999999999999,1.2304839694053984,-0.75027136907657432
-3.9565000000000001,1.0704313465401587,-0.70788481545590454
-3.956,0.8997085488172365,-0.60191843140423029
-3.9554999999999998,0.8997085488172365,-0.61251506980939763
-3.9550000000000001,0.97439977282101498,-1.0257839676109275
-3.9544999999999999,0.16346648363713429,-0.81385119950757889
-3.9540000000000002,-0.86087030270039921,-0.18864953360270037
-3.9535,-1.5651018433074537,0.40476221708667587
-3.9529999999999998,-1.4263895701575793,0.82862775329337313
-3.9525000000000001,-0.81818960326966872,1.0723504366122243
-3.952,-0.19931946152407554,1.1783168206638983
-3.9514999999999998,0.22748753278323011,1.1041403518277266
-3.9510000000000001,0.47290155450993088,0.775644561267536
-3.9504999999999999,0.5689331282290746,0.23521600260399694
-3.9500000000000002,0.59027347794443985,-0.27342264084403983
-3.9495,0.54759277851370936,-0.34759910968021185
-3.9489999999999998,0.49424190422529612,0.033879872905815719
-3.9485000000000001,0.47290155450993088,0.29879583303500157
-3.948,0.41955068022151765,0.50013196273318283
-3.9474999999999998,0.32351910650237387,0.75445128445720111
-3.9470000000000001,-0.13529841237797968,0.95578741415538238
-3.9464999999999999,-0.82885977812735145,1.0829470750173917
-3.9460000000000002,-1.4904106193036752,1.1359302670432285
-3.9455,-1.9919088376147593,1.146526905448396
-3.9449999999999998,-2.0239193621878071,0.84982103010370802
-3.9445000000000001,-1.2023158981462438,0.12924961855232261
-3.944,-0.25267033581248871,-0.44296885532671876
-3.9434999999999998,0.45156120479456557,-0.72907809226623943
-3.9430000000000001,0.83568749967114075,-0.82444783791274634
-3.9424999999999999,0.96372959796333246,-0.86683439153341613
-3.9420000000000002,0.95305942310564973,-0.83504447631791379
-3.9415,0.83568749967114075,-0.64430498502489997
-3.9409999999999998,0.77166645052504479,-0.60191843140423029
-3.9405000000000001,0.72898575109431429,-0.76086800748174177
-3.9399999999999999,0.71831557623663156,-0.84564111472308123
-3.9394999999999998,0.6863050516635838,-0.80325456110241145
-3.9390000000000001,0.66496470194821833,-0.76086800748174177
-3.9384999999999999,0.73965592595199681,-1.1741369052832717
-3.9380000000000002,0.13145595906408636,-1.1847335436884392
-3.9375,-0.79684925355430347,-0.57012851618872795
-3.9369999999999998,-1.618452717595867,0.033879872905815719
-3.9365000000000001,-2.2800035587721905,0.55311515475901996
-3.9359999999999999,-2.0239193621878071,0.9134008605347127
-3.9355000000000002,-1.1382948490001481,1.1041403518277266
-3.9350000000000001,-0.35937208438931517,1.1359302670432285
-3.9344999999999999,0.18480683335249956,0.90280422212954525
-3.9340000000000002,0.47290155450993088,0.40476221708667587
-3.9335,0.59027347794443985,-0.14626297998203064
-3.9329999999999998,0.6116138276598051,-0.41117894011121647
-3.9325000000000001,0.50491207908297886,-0.11447306476652835
-3.9319999999999999,0.28083840707164331,0.35177902506083869
-3.9315000000000002,0.17413665849481691,0.74385464605203377
-3.931,0.16346648363713429,0.99817396777605205
-3.9304999999999999,-0.08194753808956648,1.1147369902328941
-3.9300000000000002,-0.81818960326966872,1.1041403518277266
-3.9295,-1.522421143876723,1.1041403518277266
-3.9289999999999998,-2.0452597119031726,1.0087706061812196
-3.9285000000000001,-2.23732285934146,0.73325800764686633
-3.9279999999999999,-1.4157193952998968,0.17163617217299235
