Class_1_Relax_eyes_closed/Class_1_Relax_eyes_closed_UZ_1.csv

#Digilent WaveForms Oscilloscope Acquisition
#Device Name: EExplorer
#Serial Number: SN:210151A2B84A
#Date Time: 2020-11-17 10:33:41.618
#Sample rate: 2000Hz
#Samples: 16384
#Trigger: Source: Channel 1 Type: Edge Condition: Rising Level: 0 V Hyst.: Auto HoldOff: 0 s
#Channel 1: Range: 1 V/div Offset: 0 V Attenuation: 1 X
#Channel 2: Range: 1 V/div Offset: 0 V Attenuation: 1 X
#Power Supplies: ON
#Fixed Supply: ON
#Voltage: 3.3 V Readback: 3.328 V
#Positive Supply: ON
#Voltage: 3.7 V Readback: 3.719 V
#Current: 40 mA Readback: 18 mA
#Negative Supply: ON
#Voltage: -3.7 V Readback: -3.359 V
#Current: -40 mA Readback: -7 mA
#Reference 1: ON
#Voltage: 0 V
#Reference 2: ON
#Voltage: 0 V

Time (s),Channel 1 (V),Channel 2 (V)
-4.096,-0.2206598112394408,-0.9622041371799229
-4.0955,-0.1032878878050385,-0.3899856633014021
-4.095,0.01408403562965493,-0.008506680714680536
-4.0945,0.09944543449103843,0.1822328105781598
-4.094,0.1421261339217302,0.2564092794142643
-4.0935,0.1527963087794613,0.2670059178194992
-4.093,0.1634664836371343,0.2670059178194992
-4.0925,0.1421261339217884,0.2881991946298149
-4.092,0.1101156093487211,0.3199891098453267
-4.0915,0.1101156093487211,0.309392471440169
-4.091,0.1101156093487211,0.2987958330350016
-4.0905,0.1207857842062581,0.3093924714400147
-4.09,-0.03926683865883591,0.13984625695749
-4.0895,-0.4767440078238243,-0.4535654937318862
-4.089,-0.839529952984704,-1.121153713256827
-4.0885,-1.074273799854052,-1.598002441489969
-4.088,-1.244996597576974,-1.672178910326141
-4.0875,-0.9675720512774779,-1.0045906908012
-4.087,-0.5407650569695901,-0.2416327256280171
-4.0865,-0.1779791118087102,0.3305857482505039
-4.086,0.04609456020242142,0.680274815620711
-4.0855,0.1634664836371634,0.8498210301037562
-4.085,0.1954770082101822,0.9028042221295453
-4.0845,0.1954770082101822,0.8816109453192297
-4.084,0.1848068333524802,0.8392243916984924
-4.0835,0.1634664836371343,0.7862411996727035
-4.083,0.1634664836371343,0.7438546460520338
-4.0825,0.1741366584948169,0.7226613692416507
-4.082,0.1741366584948169,0.6696781772158616
-4.0815,0.2594980573562781,0.2458126410091644
-4.081,0.2915085819292969,-0.5383386009725124
-4.0805,-0.156638762093345,-1.269506650929778
-4.08,-0.4447334832507763,-1.364876396576285
-4.0795,-0.2953510352433552,-0.8032545611029223
-4.079,-0.08194753808943062,-0.3264058328696168
-4.0785,0.0674349099179905,-0.04029659593035631
-4.078,0.152796308779374,0.09745970333669504
-4.0775,0.1848068333524996,0.13984625695749
-4.077,0.1848068333524996,0.13984625695749
-4.0765,0.1848068333524996,0.1292496185523322
-4.076,0.1421261339217108,0.08686306493151796
-4.0755,0.07810508477567314,-0.06148987274069118
-4.075,0.0674349099179905,-0.04029659593035631
-4.0745,0.07810508477569256,0.0868630649317878
-4.074,0.09944543449103843,0.2352160026039969
-4.0735,0.04609456020262521,0.2987958330350016
-4.073,-0.4127229586773111,-0.01910331911973234
-4.0725,-0.8715404775580819,-0.570128516188728
-4.072,-1.127624674142465,-1.078767159636765
-4.0715,-1.287677297007559,-1.333086481360552
-4.071,-1.234326422718923,-1.142346990067172
-4.0705,-0.8288597781273515,-0.4853554089473885
-4.07,-0.3913826089627609,0.1716361721723948
-4.0695,-0.0819475380893918,0.6166949851902558
-4.069,0.1101156093487211,0.8710143069140429
-4.0685,0.1954770082101822,0.9663840525605498
-4.068,0.2168173579255378,0.9557874141553245
-4.0675,0.2061471830678648,0.8922075837243778
-4.067,0.1848068333524996,0.8074344764830383
-4.0665,0.1741366584948072,0.7332580076467796
-4.066,0.1634664836371343,0.6378882620003594
-4.0655,0.1634664836371343,0.5637117931641874
-4.065,0.1741366584948072,0.4365521323022938
-4.0645,0.3021787567870086,0.2776025562246667
-4.064,0.1207857842064037,-0.3158091944647096
-4.0635,-0.3060212101005138,-0.9833974139896506
-4.063,-0.5194247072544287,-1.174136905282896
-4.0625,-0.3807124341046804,-0.7608680074817418
-4.062,-0.1673089369512217,-0.2734226408444831
-4.0615,0.003413860772001399,0.03387987290596028
-4.061,0.1207857842064037,0.1928294489833272
-4.0605,0.1741366584948169,0.2564092794143318
-4.06,0.1741366584948266,0.2564092794143029
-4.0595,0.1848068333524996,0.2246193641988295
-4.059,0.1527963087794516,0.1504428953626575
-4.0585,0.1101156093487599,0.09745970333686851
-4.058,0.1101156093487211,0.1292496185523226
-4.0575,0.1207857842064037,0.1928294489833272
-4.057,0.09944543449105783,0.2140227257936428
-4.0565,-0.2633405106701714,-0.1674562567923655
-4.056,-0.9889124009925911,-0.8350444763179138
-4.0555,-1.415719395299509,-1.386069673386119
-4.055,-1.511750969019031,-1.746355379162245
-4.0545,-1.501080794161358,-1.672178910326141
-4.054,-1.042263275281421,-0.9304142219650954
-4.0535,-0.5300948821118879,-0.1780528951970414
-4.053,-0.1459685872356623,0.3623756634660061
-4.0525,0.09944543449103843,0.6908714540261965
-4.052,0.1954770082102113,0.8180311148882347
-4.0515,0.2274875327832301,0.849821030103708
-4.051,0.2168173579255475,0.8180311148882058
-4.0505,0.1954770082102016,0.7650479228624167
-4.05,0.1848068333524996,0.7120647308365314
-4.0495,0.1741366584948169,0.6590815388106942
-4.049,0.1741366584948169,0.6272916235952208
-4.0485,0.259498057356773,0.5743084315691621
-4.048,0.8036769750980928,0.3623756634660061
-4.0475,1.123782220828281,-0.2628260024383037
-4.047,0.6649647019478204,-0.9728007755853216
-4.0465,0.2274875327832301,-1.227120097309109
-4.046,0.05676473506046312,-0.8668343915337438
-4.0455,0.03542438534496199,-0.4111789401108888
-4.045,0.05676473506030786,-0.05089323433552374
-4.0445,0.1101156093487211,0.1504428953626575
-4.044,0.1314559590641058,0.2140227257936717
-4.0435,0.1527963087794516,0.2246193641988295
-4.043,0.1634664836371343,0.2246193641988295
-4.0425,0.1207857842064425,0.1822328105781983
-4.042,0.05676473506030786,0.1186529801471552
-4.0415,0.05676473506030786,0.1504428953626575
-4.041,0.08877525963332666,0.2352160026039198
-4.0405,0.1101156093486434,0.3199891098455195
-4.04,0.02475421048725994,0.5213252395435176
-4.0395,-0.4447334832503493,0.9769806909653029
-4.039,-0.7114878546930461,0.6060983467840765
-4.0385,-0.9355615267041777,-0.252229364033705
-4.038,-1.330357996438077,-1.046977244420539
-4.0375,-1.202315898145846,-1.078767159636292
-4.037,-0.7648387289812555,-0.5595318777835605
-4.0365,-0.3380317346739499,0.01268659609548085
-4.036,-0.02859666380099801,0.4683420475179311
-4.0355,0.142126133921769,0.7438546460520338
-4.035,0.2061471830678648,0.9028042221295453
-4.0345,0.2168173579255378,0.9557874141553342
-4.034,0.2061471830678648,0.9663840525605498
-4.0335,0.1954770082101822,0.9557874141553824
-4.033,0.1741366584948363,0.9345941373450668
-4.0325,0.174136658494846,0.913400860534703
-4.032,0.2061471830678648,0.9028042221295453
-4.0315,0.4622313796520153,0.9981739677759653
-4.031,1.038420821966917,1.241896651094325
-4.0305,0.825017324813458,0.6060983467848571
-4.03,0.334189281360503,-0.1250697031710307
-4.0295,0.1207857842063649,-0.3581957480853118
-4.029,0.07810508477567314,-0.2840192792492073
-4.0285,0.08877525963335578,-0.1356663415768632
-4.028,0.1101156093487502,-0.04029659593027921
-4.0275,0.142126133921769,0.04447651131098315
-4.027,0.1527963087794516,0.09745970333682032
-4.0265,0.1527963087794516,0.1292496185522937
-4.026,0.1634664836371343,0.1716361721729923
-4.0255,0.142126133921769,0.13984625695749
-4.025,0.1314559590640961,0.1716361721729634
-4.0245,0.1314559590640961,0.2670059178195956
-4.024,0.142126133921769,0.3729723018711736
-4.0235,0.1207857842064231,0.4789386859227515
-4.023,-0.2313299860977154,0.7968378380776396
-4.0225,-0.8822106524157645,0.5425185163538525
-4.022,-1.55443166844916,-0.2734226408432977
-4.0215,-2.162631635337565,-1.068170521231771
-4.021,-2.03458953704549,-1.258910012524611
-4.0205,-1.287677297007705,-0.7396747306714069
-4.02,-0.6154562809732812,-0.1038764263609079
-4.0195,-0.156638762093345,0.3941655786815084
-4.019,0.1101156093487211,0.7226613692416989
-4.0185,0.2274875327831234,0.8816109453190658
-4.018,0.2488278824985954,0.9345941373450475
-4.0175,0.2274875327832301,0.9134008605347127
-4.017,0.1954770082102113,0.8816109453192392
-4.0165,0.1848068333524996,0.839224391698502
-4.016,0.1848068333524996,0.7968378380778709
-4.0155,0.1848068333524996,0.7544512844572396
-4.015,0.1848068333525772,0.4577454091118481
-4.0145,0.2701682322139607,-0.2734226408440398
-4.014,0.2381577076409419,-1.025783967610243
-4.0135,0.01408403562954818,-1.566212526274476
-4.013,-0.01792648894347063,-1.576809164679634
-4.0125,0.04609456020262521,-1.004590690800593
-4.012,0.1207857842064425,-0.4323722169211851
-4.0115,0.1634664836371343,-0.02969995752518888
-4.011,0.1741366584948169,0.1716361721729923
-4.0105,0.1741366584948169,0.2458126410090969
-4.01,0.1741366584948169,0.2352160026039969
-4.0095,0.1741366584948169,0.2034260873884947
-4.009,0.1101156093487793,0.1610395337678635
-4.0085,0.04609456020264462,0.1080563417419974
-4.008,0.0674349099179905,0.1186529801471552
-4.0075,0.09944543449100932,0.1504428953626286
-4.007,0.09944543449071819,0.1716361721726454
-4.0065,-0.2526703358124887,-0.2098428104130352
-4.006,-0.8822106524157645,-0.718481453861072
-4.0055,-1.148965023857928,-1.28010328933537
-4.005,-1.255666772434657,-1.746355379162313
-4.0045,-1.234326422719292,-1.672178910326141
-4.004,-0.8288597781269536,-0.9410108603689135
-4.0035,-0.391382608962363,-0.1992461720078678
-4.003,-0.06060718837420119,0.3411823866556712
-4.0025,0.1101156093485658,0.6484849004052473
-4.002,0.1954770082101822,0.8074344764830383
-4.0015,0.2274875327832301,0.849821030103708
-4.001,0.2168173579255572,0.8392243916985502
-4.0005,0.1954770082101725,0.796837838077842
-4,0.1848068333524996,0.7650479228623686
-3.9995,0.1848068333524996,0.7438546460520338
-3.999,0.1848068333524996,0.7120647308365314
-3.9985,0.2274875327832301,0.701468092431364
-3.998,0.6969752265212663,0.9981739677760521
-3.9975,1.038420821967111,0.9028042221295453
-3.997,0.7716664505250448,0.1186529801471552
-3.9965,0.3661998059331045,-0.5913217929990628
-3.996,0.1741366584948169,-0.6337083466197325
-3.9955,0.1101156093487211,-0.400582301706049
-3.995,0.1101156093487211,-0.1250697031716958
-3.9945,0.1207857842064037,0.04447651131098315
-3.994,0.142126133921769,0.1610395337678249
-3.9935,0.1634664836371343,0.2246193641988295
-3.993,0.1634664836371343,0.2564092794143318
-3.9925,0.142126133921769,0.309392471440169
-3.992,0.08877525963335578,0.4047622170866759
-3.9915,0.07810508477567314,0.4047622170866759
-3.991,0.08877525963335578,0.3941655786815084
-3.9905,0.1207857842064037,0.4047622170866759
-3.99,0.07810508477567314,0.5213252395435176
-3.9895,-0.1139580626626144,0.9663840525605498
-3.989,-0.3700422592469978,0.7120647308365314
-3.9885,-0.7648387289812555,-0.1462629799820306
-3.988,-1.26633694729234,-0.9728007755850904
-3.9875,-1.234326422719292,-1.068170521231597
-3.987,-0.8181896032696687,-0.5913217929990628
-3.9865,-0.3807124341046804,-0.02969995752518888
-3.986,-0.06060718837420119,0.4259554938970107
-3.9855,0.1207857842064037,0.7226613692416989
-3.985,0.1954770082101822,0.8710143069140429
-3.9845,0.2274875327832301,0.9557874141553824
-3.984,0.2168173579255475,0.9663840525605498
-3.9835,0.1954770082101822,0.9663840525605498
-3.983,0.1954770082101822,0.9663840525605498
-3.9825,0.1954770082101822,0.9451907757502149
-3.982,0.2168173579255475,0.9345941373450475
-3.9815,0.5049120790829789,0.9134008605347127
-3.981,1.006410297394063,1.029963882991555
-3.9805,0.7396559259519968,0.4047622170866759
-3.98,0.2701682322139607,-0.3370024712750445
-3.9795,0.07810508477567314,-0.5065486857577234
-3.979,0.05676473506030786,-0.3475991096802118
-3.9785,0.08877525963335578,-0.1462629799820306
-3.978,0.1314559590640864,0.01268659609548085
-3.9775,0.1527963087794516,0.1080563417419877
-3.977,0.1634664836371343,0.1504428953626575
-3.9765,0.1527963087794516,0.1504428953626575
-3.976,0.1527963087794516,0.1716361721729923
-3.9755,0.05676473506030786,0.09745970333682032
-3.975,0.02475421048725994,0.08686306493165288
-3.9745,0.04609456020262521,0.1504428953626575
-3.974,0.07810508477567314,0.2246193641988295
-3.9735,0.04609456020262521,0.2352160026039969
-3.973,-0.4980843575391895,-0.2628260024388724
-3.9725,-1.127624674142465,-0.9304142219644207
-3.972,-1.394379045584531,-1.407262950196955
-3.9715,-1.703814116457328,-1.75695201756748
-3.971,-1.682473766741963,-1.608599079895136
-3.9705,-1.138294849000148,-0.8456411147230812
-3.97,-0.5621054066852853,-0.1038764263613609
-3.9695,-0.1459685872356623,0.4259554938970107
-3.969,0.09944543449103843,0.7332580076468663
-3.9685,0.2168173579255475,0.849821030103708
-3.968,0.2488278824985954,0.8710143069140429
-3.9675,0.2168173579255475,0.8074344764830383
-3.967,0.2061471830678648,0.7332580076468663
-3.9665,0.1954770082101822,0.6696781772158616
-3.966,0.1848068333524996,0.6060983467848571
-3.9655,0.1954770082101822,0.55311515475902
-3.965,0.2274875327832301,0.3729723018711736
-3.9645,0.4835717293676135,-0.2310360872233701
-3.964,0.3341892813600565,-0.9516074987747555
-3.9635,-0.3273615598162672,-1.576809164679634
-3.963,-0.8181896032696687,-1.672178910326141
-3.9625,-0.690147504977477,-1.078767159636765
-3.962,-0.3807124341046804,-0.4641621321370536
-3.9615,-0.09261771294724913,-0.05089323433552374
-3.961,0.07810508477567314,0.1610395337678249
-3.9605,0.1741366584948169,0.2564092794143318
-3.96,0.2168173579255475,0.2776025562246667
-3.9595,0.2061471830678648,0.2458126410091644
-3.959,0.1314559590640864,0.1080563417419877
-3.9585,0.07810508477567314,0.002089957690313421
-3.958,0.07810508477567314,0.02328323450064829
-3.9575,0.1101156093487211,0.09745970333682032
-3.957,0.1207857842064037,0.1610395337678249
-3.9565,-0.1993194615240755,-0.1144730647665284
-3.956,-0.8715404775580819,-0.7290780922662394
-3.9555,-1.405049220442214,-1.354279758171118
-3.955,-1.501080794161358,-1.725162102351978
-3.9545,-1.607782542738184,-1.820531847998485
-3.954,-1.244996597576974,-1.227120097309109
-3.9535,-0.690147504977477,-0.4535654937318862
-3.953,-0.2313299860971235,0.1610395337678249
-3.9525,0.05676473506030786,0.55311515475902
-3.952,0.1954770082101822,0.7544512844572011
-3.9515,0.2381577076409128,0.7968378380778709
-3.951,0.2274875327832301,0.7862411996727035
-3.9505,0.2168173579255475,0.7544512844572011
-3.95,0.2061471830678648,0.701468092431364
-3.9495,0.1954770082101822,0.6590815388106942
-3.949,0.1954770082101822,0.627291623595192
-3.9485,0.1954770082101822,0.5637117931641874
-3.948,0.08877525963335578,0.1080563417419877
-3.9475,-0.2953510352432193,-0.6760949002404023
-3.947,-0.7008176798351597,-1.322489842955616
-3.9465,-0.6688071552621118,-1.322489842955616
-3.946,-0.3700422592469978,-0.8456411147230812
-3.9455,-0.08194753808956648,-0.3581957480853793
-3.945,0.08877525963335578,-0.05089323433552374
-3.9445,0.1954770082101822,0.1504428953626575
-3.944,0.2274875327832301,0.2140227257936621
-3.9435,0.2274875327832301,0.2246193641988295
-3.943,0.1954770082101822,0.2034260873884947
-3.9425,0.1634664836371343,0.1716361721729923
-3.942,0.0674349099179905,0.08686306493165288
-3.9415,0.05676473506030786,0.09745970333682032
-3.941,0.07810508477567314,0.13984625695749
-3.9405,0.1101156093487211,0.2034260873884947
-3.94,-0.03926683865883591,0.06566978812131802
-3.9395,-0.572775581542968,-0.5383386009732256
-3.939,-0.8608703027003992,-1.174136905283272
-3.9385,-1.074273799854052,-1.661582271920973
-3.938,-1.341028171296118,-1.862918401619155
-3.9375,-1.1062843244271,-1.237716735714276
-3.937,-0.6367966306890638,-0.4429688553267188
-3.9365,-0.2420001609548061,0.1822328105781598
-3.936,0.03542438534494258,0.5849050699745222
-3.9355,0.1848068333524996,0.7968378380778709
-3.935,0.2381577076409128,0.8710143069140429
-3.9345,0.2381577076409128,0.8604176685088755
-3.934,0.2168173579255475,0.8180311148882058
-3.9335,0.2061471830678648,0.775644561267536
-3.933,0.2061471830678648,0.7332580076468663
-3.9325,0.2061471830678648,0.6908714540261965
-3.932,0.2274875327832301,0.6908714540261965
-3.9315,0.6756348768059011,1.061753798207057
-3.931,1.113112045970889,1.082947075017392
-3.9305,0.857027849386506,0.2670059178194992
-3.93,0.4302208550792003,-0.4111789401112165
-3.9295,0.2701682322139607,-0.3581957480853793
-3.929,0.2061471830678648,-0.1886495336027004
-3.9285,0.1741366584948169,-0.04029659593035631
-3.928,0.1527963087794516,0.06566978812131802
-3.9275,0.1741366584948169,0.13984625695749
-3.927,0.1741366584948169,0.1822328105781598
-3.9265,0.1741366584948169,0.2140227257936621
-3.926,0.1741366584948169,0.2458126410091644
-3.9255,0.1314559590640864,0.2458126410091644
-3.925,0.1207857842064037,0.2564092794143318
-3.9245,0.1207857842064037,0.2987958330350016
-3.924,0.1314559590640864,0.3729723018711736
-3.9235,0.07810508477567314,0.3729723018711736
-3.923,-0.4127229586777283,-0.08268314955102604
-3.9225,-0.9889124009925911,-0.6866915386455698
-3.922,-1.212986073003927,-1.110557074852267
-3.9215,-1.479740444445993,-1.42845622700729
-3.921,-1.458400094730627,-1.301296566145281
-3.9205,-0.9995825758502737,-0.6443049850249
-3.92,-0.4767440078238243,0.03387987290581572
-3.9195,-0.09261771294724913,0.5107286011383502
-3.919,0.1314559590640864,0.775644561267536
-3.9185,0.2168173579255475,0.8604176685088755
-3.918,0.2488278824985954,0.849821030103708
-3.9175,0.2381577076409128,0.7862411996727035
-3.917,0.2168173579255475,0.6908714540261965
-3.9165,0.2061471830678648,0.6166949851900245
-3.916,0.1954770082101822,0.5319218779486851
-3.9155,0.2061471830678648,0.4789386859228479
-3.915,0.2701682322139607,0.309392471440169
-3.9145,0.6863050516635838,-0.326405832869877
-3.914,0.8356874996711408,-0.9728007755850904
-3.9135,0.3235191065023739,-1.523825972653797
-3.913,-0.1779791118087102,-1.629792356705471
-3.9125,-0.2633405106701714,-1.036380606016095
-3.912,-0.156638762093345,-0.4111789401112165
-3.9115,-0.007256314085787988,0.04447651131098315
-3.911,0.09944543449103843,0.2670059178194992
-3.9105,0.1634664836371343,0.3411823866556712
-3.91,0.1954770082101822,0.3199891098453364
-3.9095,0.1954770082101822,0.2881991946298341
-3.909,0.1527963087794516,0.2352160026039969
-3.9085,0.1101156093487211,0.1716361721729923
-3.908,0.1101156093487211,0.1822328105781598
-3.9075,0.1314559590640864,0.2140227257936621
-3.907,0.1314559590640864,0.2246193641988295
-3.9065,-0.1886492866663929,-0.1250697031716958
-3.906,-0.7755089038389382,-0.792657922697244
-3.9055,-1.074273799854052,-1.417859588602123
-3.905,-1.341028171296118,-1.926498232050159
-3.9045,-1.383708870726849,-1.862918401619155
-3.904,-0.9675720512772257,-1.05757388282643
-3.9035,-0.4767440078238243,-0.2946159176543747
-3.903,-0.1032878878049318,0.2670059178194992
-3.9025,0.1101156093487211,0.5637117931641874
-3.902,0.2168173579255475,0.7226613692416989
-3.9015,0.2488278824985954,0.7650479228623686
-3.901,0.2381577076409128,0.7332580076468663
-3.9005,0.2274875327832301,0.6908714540261965
-3.9,0.1954770082101822,0.6378882620003594
-3.8995,0.2061471830678648,0.6060983467848571
-3.899,0.2061471830678648,0.5849050699745222
-3.8985,0.2488278824985954,0.6166949851900245
-3.898,0.7716664505250448,1.040560521396722
-3.8975,1.102441871113207,1.00877060618122
-3.897,0.7716664505250448,0.1716361721729923
-3.8965,0.4515612047945656,-0.4959520473525559
-3.896,0.2701682322139607,-0.5277419625680583
-3.8955,0.2061471830678648,-0.3158091944647096
-3.895,0.1848068333524996,-0.1144730647665284
-3.8945,0.1848068333524996,0.04447651131098315
-3.894,0.1848068333524996,0.13984625695749
-3.8935,0.1848068333524996,0.2140227257936621
-3.893,0.1741366584948169,0.2458126410091644
-3.8925,0.1634664836371343,0.2881991946298341
-3.892,0.08877525963335578,0.2034260873884947
-3.8915,0.0674349099179905,0.2140227257936621
-3.891,0.08877525963335578,0.2987958330350016
-3.8905,0.1207857842064037,0.4047622170866759
-3.89,0.01408403562957729,0.3199891098453364
-3.8895,-0.4767440078238243,-0.1780528951975329
-3.889,-0.9142211769888124,-0.8244478379127463
-3.8885,-1.212986073003927,-1.322489842955616
-3.888,-1.543761493592088,-1.566212526274467
-3.8875,-1.394379045584531,-1.195330182093607
-3.887,-0.8822106524157645,-0.4641621321370536
