Class_1_Relax_eyes_closed/Class_1_Relax_Eyes_closed_Turki_15.csv

#Digilent WaveForms Oscilloscope Acquisition
#Device Name: EExplorer
#Serial Number: SN:210151A2B84A
#Date Time: 2021-02-07 10:53:53.704
#Sample rate: 2000Hz
#Samples: 16384
#Trigger: Source: Channel 1 Type: Edge Condition: Rising Level: 0 V Hyst.: Auto HoldOff: 0 s
#Channel 1: Range: 1 V/div Offset: 0 V Attenuation: 1 X
#Channel 2: Range: 1 V/div Offset: 0 V Attenuation: 1 X
#Power Supplies: ON
#Fixed Supply: ON
#Voltage: 3.3 V Readback: 3.317 V
#Positive Supply: ON
#Voltage: 3.7 V Readback: 3.703 V
#Current: 40 mA Readback: 15 mA
#Negative Supply: ON
#Voltage: -3.7 V Readback: -3.348 V
#Current: -40 mA Readback: -2 mA
#Reference 1: ON
#Voltage: 0 V
#Reference 2: ON
#Voltage: 0 V

Time (s),Channel 1 (V),Channel 2 (V)
-4.096,0.05676473506030786,1.114736990232894
-4.0955,-0.007256314085729763,0.902804222129738
-4.095,-0.4660738329664812,0.2352160026031296
-4.0945,-0.839529952985034,-0.718481453861072
-4.094,-0.9569018764194364,-1.396666311791171
-4.0935,-0.7114878546924832,-1.364876396575986
-4.093,-0.3166913849585846,-1.036380606016095
-4.0925,-0.007256314086069415,-0.7608680074819923
-4.092,0.1421261339218078,-0.6760949002404312
-4.0915,0.1848068333524996,-0.7078848154559045
-4.091,0.1741366584948169,-0.7502713690765743
-4.0905,0.1421261339217981,-0.7290780922663358
-4.09,0.1741366584948169,-0.8350444763179138
-4.0895,0.2701682322139607,-0.8138511995075789
-4.089,0.3128489316446524,-0.3899856633012671
-4.0885,0.4515612047945656,0.1080563417419877
-4.088,0.5049120790829789,0.2881991946298341
-4.0875,0.4408910299369412,0.2670059178195185
-4.087,0.2381577076403305,0.2670059178191812
-4.0865,-0.4020527838200457,-0.08268314955102604
-4.086,-0.9462317015613655,-0.8350444763172296
-4.0855,-1.020922925565387,-1.311893204550207
-4.085,-0.7434983792658902,-1.046977244421262
-4.0845,-0.4127229586780292,-0.4429688553272682
-4.084,-0.1459685872355168,0.1398462569578948
-4.0835,0.01408403562957729,0.5849050699745222
-4.083,0.07810508477567314,0.8816109453192104
-4.0825,0.1101156093487114,1.051157159801966
-4.082,0.09944543449103843,1.135930267043229
-4.0815,0.08877525963335578,1.157123543853563
-4.081,0.07810508477568284,1.135930267043248
-4.0805,0.0674349099179905,1.082947075017392
-4.08,0.0674349099179905,0.9981739677760521
-4.0795,0.0674349099179905,0.8922075837244742
-4.079,0.03542438534453499,0.7544512844567
-4.0785,-0.4127229586777283,0.2034260873884947
-4.078,-0.9355615267037022,-0.6866915386447602
-4.0775,-1.095614149569175,-1.470842780628008
-4.077,-0.8288597781273515,-1.523825972653797
-4.0765,-0.1352984123786105,-1.068170521232012
-4.076,0.3982103305063659,-0.7396747306712623
-4.0755,0.6329541773751706,-0.5807251545938954
-4.075,0.5902734779444399,-0.5383386009732256
-4.0745,0.4408910299367374,-0.6019184314042881
-4.074,0.2808384070716433,-0.6654982618352349
-4.0735,0.1848068333524996,-0.6972881770507372
-4.073,0.3982103305059583,-0.8986243067487353
-4.0725,0.5262524287983441,-0.8774310299385835
-4.072,0.4622313796522482,-0.718481453861072
-4.0715,0.3448594562178459,-0.5807251545940206
-4.071,0.2488278824985372,-0.4429688553266031
-4.0705,0.1848068333524996,-0.3158091944647096
-4.07,-0.3487019095311472,-0.654901623429759
-4.0695,-0.8715404775583245,-1.258910012525045
-4.069,-1.138294849000148,-1.735758740757146
-4.0685,-1.212986073003927,-1.682775548731308
-4.068,-0.8928808272730882,-1.015187329205085
-4.0675,-0.4980843575391895,-0.2734226408440398
-4.067,-0.1886492866663929,0.3199891098453364
-4.0665,0.003413860771972286,0.7120647308367145
-4.066,0.08877525963335578,0.9134008605347127
-4.0655,0.1207857842064037,0.9981739677760521
-4.065,0.1101156093487308,1.00877060618121
-4.0645,0.09944543449103843,0.9663840525605498
-4.064,0.08877525963335578,0.8922075837243778
-4.0635,0.07810508477568284,0.7968378380779576
-4.063,0.0674349099179905,0.7014680924312483
-4.0625,0.0674349099179905,0.5743084315693548
-4.062,-0.1566387620931412,0.1822328105785164
-4.0615,-0.6047861061161517,-0.6443049850256228
-4.061,-0.754168554123573,-1.439052865412457
-4.0605,-0.6794773301197943,-1.809935209593318
-4.06,-0.1246282375198506,-1.311893204550053
-4.0595,0.3661998059331045,-0.8774310299385835
-4.059,0.6009436528021226,-0.6337083466197325
-4.0585,0.5689331282291037,-0.5277419625681546
-4.058,0.4195506802215176,-0.4853554089473885
-4.0575,0.2701682322139607,-0.4959520473525559
-4.057,0.1634664836372313,-0.5065486857577137
-4.0565,0.3021787567870086,-0.5489352393783931
-4.056,0.4729015545099309,-0.4217755785163839
-4.0555,0.5155822539406225,-0.0296999575255455
-4.055,0.5262524287983052,0.2776025562247149
-4.0545,0.4835717293676135,0.3305857482505039
-4.054,0.3448594562178653,0.2140227257937681
-4.0535,-0.1352984123787075,0.002089957689715891
-4.053,-0.9355615267041777,-0.6549016234300674
-4.0525,-1.426389570157579,-1.34368311976595
-4.052,-1.479740444445633,-1.756952017567172
-4.0515,-1.084943974711735,-1.417859588602123
-4.051,-0.6154562809736985,-0.6866915386455698
-4.0505,-0.2420001609551458,0.02328323450000258
-4.05,-0.007256314085787988,0.5425185163538525
-4.0495,0.09944543449103843,0.8710143069140429
-4.049,0.1314559590640572,1.02996388299141
-4.0485,0.120785784206394,1.082947075017382
-4.048,0.1101156093487211,1.072350436612224
-4.0475,0.08877525963337518,1.019367244586435
-4.047,0.07810508477566344,0.9451907757500992
-4.0465,0.0674349099179905,0.8180311148882058
-4.046,0.0674349099179905,0.6484849004056811
-4.0455,0.03542438534474849,0.4365521323015614
-4.045,-0.1779791118087102,-0.2416327256285375
-4.0445,-0.3380317346739499,-1.068170521231597
-4.044,-0.4980843575390051,-1.703968825541547
-4.0435,-0.2953510352432193,-1.598002441489969
-4.043,0.0674349099179905,-1.163540266878104
-4.0425,0.312848931644468,-0.7820612842924235
-4.042,0.3661998059331045,-0.5595318777835605
-4.0415,0.3128489316446912,-0.4429688553267188
-4.041,0.2274875327833077,-0.4429688553267188
-4.0405,0.1527963087795099,-0.4747587705423174
-4.04,0.2168173579255475,-0.5807251545938954
-4.0395,0.5049120790827168,-0.7078848154557889
-4.039,0.5582629533713436,-0.5701285161885449
-4.0385,0.5049120790829789,-0.3687923864905467
-4.038,0.4088805053639224,-0.1886495336028642
-4.0375,0.3448594562174384,0.0444765113107904
-4.037,0.01408403562957729,-0.1674562567923655
-4.0365,-0.6688071552621118,-0.8244478379127463
-4.036,-0.9995825758503998,-1.460246142223159
-4.0355,-1.138294849000148,-1.862918401619155
-4.035,-0.9248913518464952,-1.439052865412457
-4.0345,-0.5621054066856153,-0.6760949002410962
-4.034,-0.2420001609548061,0.01268659609548085
-4.0335,-0.03926683865883591,0.5107286011383502
-4.033,0.06743490991789346,0.8074344764827686
-4.0325,0.1101156093487211,0.9557874141554209
-4.032,0.1101156093487211,0.9981739677760521
-4.0315,0.09944543449104813,0.9875773293708944
-4.031,0.08877525963334608,0.9451907757501474
-4.0305,0.07810508477567314,0.8710143069140429
-4.03,0.0674349099180002,0.7756445612676227
-4.0295,0.06743490991797109,0.6696781772157364
-4.029,0.04609456020262521,0.5319218779486851
-4.0285,-0.3060212101009019,0.01268659609548085
-4.028,-0.6688071552622186,-0.8138511995082246
-4.0275,-0.7861790786966207,-1.523825972653797
-4.027,-0.6154562809736985,-1.555615887869299
-4.0265,-0.2526703358128187,-1.152943628473303
-4.026,0.03542438534494258,-0.7502713690765743
-4.0255,0.1848068333524996,-0.5065486857577234
-4.025,0.2061471830678454,-0.4323722169216188
-4.0245,0.1848068333524704,-0.4641621321371789
-4.024,0.1527963087794516,-0.6019184314042303
-4.0235,0.1421261339217787,-0.7078848154558082
-4.023,0.3448594562178944,-0.7396747306711563
-4.0225,0.5155822539406614,-0.4641621321370536
-4.022,0.5582629533713532,-0.3264058328700023
-4.0215,0.4835717293675068,-0.2840192792491976
-4.021,0.3661998059331045,-0.2734226408440398
-4.0205,0.3021787567870086,-0.3581957480853793
-4.02,-0.1886492866671498,-0.6549016234305686
-4.0195,-1.020922925565639,-1.205926820498774
-4.019,-1.565101843307454,-1.619195718300304
-4.0185,-1.351698346153995,-1.280103289335254
-4.018,-0.8608703027003992,-0.6125150698093976
-4.0175,-0.4127229586777283,0.01268659609548085
-4.017,-0.1032878878052132,0.4789386859224238
-4.0165,0.05676473506036608,0.7650479228625034
-4.016,0.1207857842064037,0.9134008605347127
-4.0155,0.1421261339217496,0.9769806909656594
-4.015,0.1207857842063843,0.9875773293708654
-4.0145,0.09944543449103843,0.9663840525605498
-4.014,0.08877525963336548,0.9134008605347609
-4.0135,0.07810508477567314,0.849821030103631
-4.013,0.07810508477567314,0.7650479228623686
-4.0125,0.07810508477567314,0.6590815388106942
-4.012,0.03542438534475819,0.4471487707066806
-4.0115,-0.1673089369510276,-0.2840192792492073
-4.011,-0.3807124341046804,-1.121153713257435
-4.0105,-0.4233931335353722,-1.502632695843115
-4.01,0.1207857842064037,-0.9304142219644207
-4.0095,0.5582629533713921,-0.4959520473525559
-4.009,0.718315576236486,-0.3581957480855046
-4.0085,0.6436243522326784,-0.379389024895772
-4.008,0.4515612047945656,-0.4429688553267188
-4.0075,0.2808384070717986,-0.4747587705421921
-4.007,0.1634664836371537,-0.495952047352527
-4.0065,0.1848068333524996,-0.4641621321370536
-4.006,0.2274875327832301,-0.3475991096802118
-4.0055,0.2594980573563363,-0.2946159176542494
-4.005,0.3235191065023739,-0.1568596183871981
-4.0045,0.3661998059331045,-0.04029659593035631
-4.004,0.3341892813597072,0.00208995769023632
-4.0035,-0.04993701351651855,-0.08268314955102604
-4.003,-0.7755089038389382,-0.5807251545938954
-4.0025,-1.138294848999818,-1.205926820498205
-4.002,-1.052933450138687,-1.354279758171118
-4.0015,-0.7008176798351597,-0.8244478379127463
-4.001,-0.3487019095319527,-0.1356663415774896
-4.0005,-0.09261771294712297,0.4577454091129082
-4,0.04609456020262521,0.8922075837243778
-3.9995,0.1101156093487211,1.146526905448396
-3.999,0.1207857842064037,1.29487984312074
-3.9985,0.1101156093487211,1.347863035146577
-3.998,0.09944543449103843,1.347863035146577
-3.9975,0.08877525963335578,1.29487984312074
-3.997,0.07810508477567314,1.220703374284568
-3.9965,0.07810508477567314,1.104140351827727
-3.996,0.0674349099179905,0.9557874141553824
-3.9955,0.03542438534494258,0.7120647308365314
-3.995,-0.1993194615240755,-0.01910331912002144
-3.9945,-0.3700422592469978,-0.9304142219644207
-3.994,-0.5194247072545548,-1.587405803084801
-3.9935,-0.2633405106701714,-1.375473034981453
-3.993,0.1634664836371343,-1.004590690800593
-3.9925,0.4408910299368829,-0.7714646458869092
-3.992,0.4835717293676135,-0.6654982618352349
-3.9915,0.3875401556484697,-0.6654982618352349
-3.991,0.2701682322139607,-0.7290780922662394
-3.9905,0.1741366584948169,-0.8032545611024114
-3.99,0.1741366584948169,-0.8350444763179138
-3.9895,0.2594980573562781,-0.7502713690765743
-3.989,0.2808384070716433,-0.6654982618352349
-3.9885,0.2594980573562781,-0.570128516188728
-3.988,0.2168173579255475,-0.4959520473525559
-3.9875,0.1954770082101822,-0.4217755785163839
-3.987,0.00341386077189465,-0.4535654937318862
-3.9865,-0.6367966306890638,-0.8456411147230812
-3.986,-1.170305373573196,-1.396666311791788
-3.9855,-1.319687821580753,-1.79933857118815
-3.985,-1.074273799854052,-1.51322933424863
-3.9845,-0.6474668055467465,-0.7396747306714069
-3.984,-0.2846808603855366,0.05507314971615059
-3.9835,-0.04993701351651855,0.6696781772158616
-3.983,0.07810508477567314,1.061753798207057
-3.9825,0.1207857842064037,1.29487984312074
-3.982,0.1314559590640864,1.390249588767247
-3.9815,0.1101156093487211,1.400846227172415
-3.981,0.09944543449103843,1.358459673551745
-3.9805,0.08877525963335578,1.284283204715573
-3.98,0.07810508477567314,1.167720182258731
-3.9795,0.07810508477567314,1.029963882991555
-3.979,0.05676473506030786,0.8604176685088755
-3.9785,-0.3273615598162672,0.3411823866556712
-3.978,-0.7861790786966207,-0.570128516188728
-3.9775,-0.9355615267041777,-1.375473034981453
-3.977,-0.7114878546928423,-1.534422611058964
-3.9765,-0.2526703358124887,-1.205926820498774
-3.976,0.09944543449103843,-0.8986243067489184
-3.9755,0.2488278824985954,-0.718481453861072
-3.975,0.2701682322139607,-0.6443049850249
-3.9745,0.2274875327832301,-0.6337083466197325
-3.974,0.1741366584948169,-0.7290780922662394
-3.9735,0.1634664836371343,-0.7714646458869092
-3.973,0.3128489316446912,-0.8880276683437509
-3.9725,0.3661998059331045,-0.792657922697244
-3.972,0.4302208550792003,-0.2840192792492073
-3.9715,0.4835717293676135,0.09745970333682032
-3.971,0.4515612047945656,0.06566978812131802
-3.9705,0.3021787567870086,0.06566978812131802
-3.97,-0.2313299860971235,0.1292496185523226
-3.9695,-0.8181896032696687,-0.4323722169215513
-3.969,-1.255666772434657,-1.152943628472937
-3.9685,-1.405049220442214,-1.608599079895136
-3.968,-1.06360362499637,-1.333086481360783
-3.9675,-0.6047861061160158,-0.6337083466197325
-3.967,-0.2420001609548061,0.06566978812131802
-3.9665,-0.007256314085787988,0.5955017083796896
-3.966,0.09944543449103843,0.92399749893988
-3.9655,0.1314559590640864,1.104140351827727
-3.965,0.1314559590640864,1.178316820663898
-3.9645,0.1207857842064037,1.178316820663898
-3.964,0.09944543449103843,1.135930267043229
-3.9635,0.08877525963335578,1.061753798207057
-3.963,0.07810508477567314,0.9557874141553824
-3.9625,0.07810508477567314,0.8392243916985406
-3.962,-0.03926683865883591,0.4789386859228479
-3.9615,-0.3166913849585846,-0.3581957480853793
-3.961,-0.5194247072545548,-1.205926820498774
-3.9605,-0.4980843575391895,-1.51322933424863
-3.96,-0.1993194615240755,-1.216523458903942
-3.9595,0.07810508477567314,-0.8456411147230812
-3.959,0.2168173579255475,-0.5595318777835605
-3.9585,0.2488278824985954,-0.4217755785163839
-3.958,0.2168173579255475,-0.400582301706049
-3.9575,0.1741366584948169,-0.4853554089473885
-3.957,0.142126133921769,-0.5489352393783931
-3.9565,0.2701682322139607,-0.6125150698093976
-3.956,0.4408910299368829,-0.5171453241628908
-3.9555,0.5475927785137094,-0.326405832869877
-3.955,0.7183155762366316,0.2034260873884947
-3.9545,0.7823366253827275,0.5849050699745222
-3.954,0.6436243522328531,0.5107286011383502
-3.9535,0.1848068333524996,0.4047622170866759
-3.953,-0.6794773301197943,-0.1992461720078678
-3.9525,-1.287677297007705,-1.004590690800593
-3.952,-1.479740444445993,-1.523825972653797
-3.9515,-1.148965023857831,-1.269506650929778
-3.951,-0.6688071552621118,-0.5807251545938954
-3.9505,-0.274010685527854,0.1080563417419877
-3.95,-0.02859666380115328,0.6378882620003594
-3.9495,0.09944543449103843,0.9769806909657173
-3.949,0.142126133921769,1.167720182258731
-3.9485,0.142126133921769,1.241896651094903
-3.948,0.1207857842064037,1.25249328950007
-3.9475,0.09944543449103843,1.220703374284568
-3.947,0.08877525963335578,1.146526905448396
-3.9465,0.07810508477567314,1.051157159801889
-3.946,0.07810508477567314,0.9345941373450475
-3.9455,-0.01792648894347063,0.7332580076468663
-3.945,-0.5194247072545548,0.04447651131098315
-3.9445,-0.8715404775580819,-0.8562377531282487
-3.944,-0.8288597781273515,-1.439052865412457
-3.9435,-0.4660738329661415,-1.311893204550448
-3.943,-0.06060718837420119,-0.9728007755850904
-3.9425,0.1848068333524996,-0.6866915386455698
-3.942,0.2701682322139607,-0.5171453241628908
-3.9415,0.2594980573562781,-0.474758770542221
-3.941,0.2061471830678648,-0.5383386009732256
-3.9405,0.1634664836371343,-0.6549016234300674
-3.94,0.1954770082101822,-0.8032545611024114
-3.9395,0.3021787567870086,-0.8456411147230812
-3.939,0.3128489316446912,-0.7608680074817418
-3.9385,0.291508581929326,-0.6443049850249
-3.938,0.2381577076409128,-0.6019184314042303
-3.9375,0.1954770082101822,-0.5171453241628908
-3.937,-0.1352984123779797,-0.6125150698093976
-3.9365,-0.8715404775580819,-1.0999604364471
-3.936,-1.26633694729234,-1.608599079895136
-3.9355,-1.287677297007705,-1.937094870455327
-3.935,-1.031593100423322,-1.502632695843462
-3.9345,-0.6154562809736985,-0.6866915386455698
-3.934,-0.2526703358124887,0.08686306493165288
-3.9335,-0.02859666380115328,0.6484849004055269
-3.933,0.08877525963335578,0.9981739677760521
-3.9325,0.1314559590640864,1.167720182258731
-3.932,0.142126133921769,1.220703374284568
-3.9315,0.1207857842064037,1.210106735879401
-3.931,0.1101156093487211,1.157123543853563
-3.9305,0.09944543449103843,1.072350436612224
-3.93,0.08877525963335578,0.9557874141553824
-3.9295,0.08877525963335578,0.8286277532933731
-3.929,0.05676473506030786,0.6696781772158616
-3.9285,-0.391382608962363,0.1292496185523226
-3.928,-0.9248913518464952,-0.7396747306714069
-3.9275,-0.9889124009925911,-1.481439419033127
-3.927,-0.6367966306890638,-1.640388995110639
-3.9265,-0.1032878878049318,-1.280103289334946
-3.926,0.2808384070716433,-0.8774310299385835
-3.9255,0.4195506802215176,-0.5913217929990628
-3.925,0.3875401556484697,-0.4535654937318862
-3.9245,0.3021787567870086,-0.4111789401112165
-3.924,0.2061471830678648,-0.4111789401112165
-3.9235,0.1527963087794516,-0.4853554089473885
-3.923,0.2594980573562781,-0.4111789401112165
-3.9225,0.3555296310754218,-0.2946159176543747
-3.922,0.3555296310754218,-0.2946159176543747
-3.9215,0.3448594562177392,-0.326405832869877
-3.921,0.3341892813600565,-0.3370024712750445
-3.9205,0.2488278824985954,-0.2310360872233701
-3.92,-0.274010685527854,0.04447651131098315
-3.9195,-1.084943974711735,-0.3475991096802118
-3.919,-1.714484291315011,-1.01518732920576
-3.9185,-1.661133417026597,-1.280103289334946
-3.918,-1.116954499284783,-0.8668343915334161
-3.9175,-0.572775581542968,-0.2098428104130352
-3.917,-0.1886492866663929,0.383568940276341
-3.9165,0.04609456020262521,0.8180311148882058
-3.916,0.142126133921769,1.082947075017392
-3.9155,0.1634664836371343,1.241896651094903
-3.915,0.1527963087794516,1.305476481525908
-3.9145,0.1314559590640864,1.305476481525908
-3.914,0.1101156093487211,1.263089927905238
-3.9135,0.09944543449103843,1.199510097474233
-3.913,0.09944543449103843,1.093543713422559
-3.9125,0.08877525963335578,0.9663840525605498
-3.912,-0.02859666380115328,0.5849050699745222
-3.9115,-0.3807124341046804,-0.2734226408440398
-3.911,-0.6794773301197943,-1.142346990067769
-3.9105,-0.722158029550525,-1.608599079895136
-3.91,-0.2633405106701714,-1.364876396576285
-3.9095,0.2061471830678648,-0.9833974139902578
-3.909,0.4622313796522482,-0.6654982618352349
-3.9085,0.4835717293676135,-0.4959520473525559
-3.908,0.3875401556484697,-0.474758770542221
-3.9075,0.2701682322139607,-0.5595318777835605
-3.907,0.1848068333524996,-0.6654982618352349
-3.9065,0.2274875327832301,-0.6549016234300674
-3.906,0.3235191065023739,-0.474758770542221
-3.9055,0.3555296310754218,-0.3899856633008816
-3.905,0.3341892813600565,-0.4323722169215513
-3.9045,0.291508581929326,-0.4853554089473885
-3.904,0.2168173579255475,-0.4959520473525559
-3.9035,-0.1779791118087102,-0.6549016234300674
-3.903,-0.6688071552621118,-1.131750351662602
-3.9025,-0.9355615267041777,-1.598002441489969
-3.902,-0.839529952985034,-1.417859588602123
-3.9015,-0.5300948821122373,-0.7290780922662394
-3.901,-0.2420001609548061,-0.008506680714854012
-3.9005,-0.03926683865883591,0.5637117931641874
-3.9,0.07810508477567314,0.9557874141553824
-3.8995,0.1207857842064037,1.188913459069066
-3.899,0.1314559590640864,1.305476481525908
-3.8985,0.1314559590640864,1.347863035146577
-3.898,0.1101156093487211,1.33726639674141
-3.8975,0.09944543449103843,1.29487984312074
-3.897,0.09944543449103843,1.199510097474233
-3.8965,0.09944543449103843,1.082947075017392
-3.896,0.08877525963335578,0.9451907757502149
-3.8955,0.00341386077189465,0.7332580076468663
-3.895,-0.423393133535411,0.02328323450064829
-3.8945,-0.807519428411986,-0.8774310299385835
-3.894,-1.170305373573196,-1.523825972653797
-3.8935,-0.6154562809736985,-1.152943628472937
-3.893,0.1634664836371343,-0.6654982618352349
-3.8925,0.6542945270905358,-0.4641621321370536
-3.892,0.79300680024041,-0.4429688553267188
-3.8915,0.6649647019482183,-0.5489352393783931
-3.891,0.4622313796522482,-0.6866915386455698
-3.8905,0.2808384070716433,-0.7714646458869092
-3.89,0.2488278824985954,-0.8456411147230812
-3.8895,0.3448594562177392,-0.7396747306714069
-3.889,0.3661998059331045,-0.5383386009732256
-3.8885,0.3341892813600565,-0.400582301706049
-3.888,0.291508581929326,-0.326405832869877
