Class_1_Relax_eyes_closed/Class_1_Relax_eyes_closed_SH_6.csv

#Digilent WaveForms Oscilloscope Acquisition
#Device Name: EExplorer
#Serial Number: SN:210151A2B84A
#Date Time: 2020-12-17 15:38:51.721
#Sample rate: 2000Hz
#Samples: 16384
#Trigger: Source: Channel 1 Type: Edge Condition: Rising Level: 0 V Hyst.: Auto HoldOff: 0 s
#Channel 1: Range: 1 V/div Offset: 0 V Attenuation: 1 X
#Channel 2: Range: 1 V/div Offset: 0 V Attenuation: 1 X
#Power Supplies: ON
#Fixed Supply: ON
#Voltage: 3.3 V Readback: 3.325 V
#Positive Supply: ON
#Voltage: 3.7 V Readback: 3.718 V
#Current: 40 mA Readback: 20 mA
#Negative Supply: ON
#Voltage: -3.7 V Readback: -3.353 V
#Current: -40 mA Readback: -7 mA
#Reference 1: ON
#Voltage: 0 V
#Reference 2: ON
#Voltage: 0 V

Time (s),Channel 1 (V),Channel 2 (V)
-4.096,-0.5621054066852853,-0.5807251545938954
-4.0955,0.04609456020207214,-0.6760949002403156
-4.095,0.4088805053639903,-0.824447837912862
-4.0945,0.5796033030867573,-0.9516074987747555
-4.094,0.6436243522327949,-1.046977244421176
-4.0935,0.5475927785134764,-1.142346990067808
-4.093,0.291508581929326,-1.184733543688439
-4.0925,0.2594980573563072,-0.9516074987749675
-4.092,0.3235191065024418,-0.6231117082142567
-4.0915,0.3982103305061524,-0.2840192792492073
-4.091,0.4408910299368829,0.01268659609548085
-4.0905,0.5582629533714697,0.1292496185523901
-4.09,0.6436243522328531,0.2034260873884947
-4.0895,-0.02859666380115328,-0.2734226408440398
-4.089,-0.7968492535536047,-0.7820612842916139
-4.0885,-1.020922925565639,-0.792657922697244
-4.088,-0.6688071552621118,-0.2204394488182027
-4.0875,-0.2099896363821754,0.4259554938964228
-4.087,0.1634664836373381,0.9239974989401403
-4.0865,0.3875401556484697,1.210106735879401
-4.086,0.4942419042251991,1.326669758336137
-4.0855,0.536922603656017,1.316073119930988
-4.085,0.5262524287983441,1.220703374284568
-4.0845,0.5262524287983441,1.11473699023299
-4.084,0.5582629533714503,1.061753798207047
-4.0835,0.6222840025174878,1.051157159801889
-4.083,0.707645401378949,1.072350436612224
-4.0825,0.7609962756672264,1.188913459069365
-4.082,0.6116138276598051,1.517409249629256
-4.0815,0.02475421048725994,1.326669758336243
-4.081,-0.7434983792651915,0.2987958330359364
-4.0805,-1.191645723288561,-0.5807251545938954
-4.08,-0.9995825758502737,-0.8774310299385835
-4.0795,-0.4874141826819727,-0.9092209451540569
-4.079,-0.03926683865855449,-0.9304142219644785
-4.0785,0.2701682322139607,-0.9939940523954253
-4.078,0.4729015545097465,-1.110557074852161
-4.0775,0.5689331282290746,-1.17413690528332
-4.077,0.5689331282290746,-1.227120097309109
-4.0765,0.3555296310756159,-1.322489842955529
-4.076,0.2915085819293745,-1.184733543688179
-4.0755,0.3448594562177392,-0.8986243067489184
-4.075,0.408880505363835,-0.5913217929990628
-4.0745,0.4515612047944491,-0.2946159176543265
-4.074,0.3235191065023739,-0.2416327256285375
-4.0735,0.6329541773751706,0.01268659609548085
-4.073,1.027750647109069,0.3411823866553725
-4.0725,0.4195506802215176,-0.1780528951975329
-4.072,-0.4767440078238243,-0.8668343915334161
-4.0715,-0.7861790786963393,-0.9622041371798362
-4.071,-0.5407650569695707,-0.4429688553261405
-4.0705,-0.156638762093345,0.1928294489833272
-4.07,0.1634664836368432,0.7120647308360591
-4.0695,0.3768699807908744,1.06175379820724
-4.069,0.4729015545099309,1.263089927905238
-4.0685,0.5155822539406614,1.33726639674141
-4.068,0.5155822539406808,1.347863035146587
-4.0675,0.5369226036560266,1.358459673551745
-4.067,0.5902734779444399,1.411442865577582
-4.0665,0.6756348768059787,1.443232780793113
-4.066,0.7609962756673623,1.475022696008586
-4.0655,0.5902734779444399,1.655165548896433
-4.065,0.1954770082105413,1.655165548896433
-4.0645,-0.3700422592469978,0.7226613692416989
-4.064,-0.9569018764195432,-0.326405832869877
-4.0635,-1.138294848999983,-0.6760949002400842
-4.063,-0.7648387289807896,-0.8244478379127463
-4.0625,-0.2526703358124887,-0.8244478379127463
-4.062,0.1527963087790829,-0.9092209451540088
-4.0615,0.3982103305062494,-1.015187329205828
-4.061,0.5049120790829789,-1.089363798041932
-4.0605,0.5475927785137094,-1.174136905283272
-4.06,0.3982103305060166,-1.290699927740065
-4.0595,0.2488278824985954,-1.237716735714276
-4.059,0.2701682322139607,-0.9833974139902578
-4.0585,0.3555296310753442,-0.665498261835524
-4.058,0.4408910299368829,-0.3581957480853793
-4.0575,0.3982103305061524,-0.1992461720078678
-4.057,0.5582629533712465,0.03387987290560371
-4.0565,0.6649647019482183,0.13984625695749
-4.056,0.03542438534494258,-0.400582301706049
-4.0555,-0.7114878546921628,-0.9622041371794121
-4.055,-1.0742737998538,-1.13175035166213
-4.0545,-0.7968492535543035,-0.6125150698093976
-4.054,-0.3273615598166942,0.0974597033361746
-4.0535,0.07810508477590605,0.7014680924317206
-4.053,0.3341892813600565,1.093543713422559
-4.0525,0.4622313796522482,1.316073119931075
-4.052,0.5155822539406614,1.400846227172405
-4.0515,0.5155822539406614,1.390249588767247
-4.051,0.5155822539406614,1.33726639674141
-4.0505,0.5475927785136803,1.33726639674141
-4.05,0.6222840025174878,1.37965295036208
-4.0495,0.7289857510943143,1.390249588767247
-4.049,0.6756348768059496,1.485619334413667
-4.0485,0.771666450524676,1.739938656137493
-4.048,0.3661998059331045,1.432636142387917
-4.0475,-0.4127229586770199,0.4577454091133997
-4.047,-0.882210652415648,-0.2734226408443386
-4.0465,-0.754168554123573,-0.6019184314042303
-4.046,-0.3166913849589825,-0.8138511995073862
-4.0455,0.07810508477592545,-0.9198175835593303
-4.045,0.3555296310754218,-1.004590690800593
-4.0445,0.5262524287983441,-1.131750351662602
-4.044,0.5902734779443913,-1.227120097309205
-4.0435,0.5369226036560266,-1.333086481360783
-4.043,0.3555296310754218,-1.364876396576285
-4.0425,0.323519106502403,-1.142346990067972
-4.042,0.3555296310754218,-0.8350444763179138
-4.0415,0.3982103305061524,-0.5171453241628908
-4.041,0.3875401556484794,-0.2734226408442615
-4.0405,0.3982103305062786,-0.4111789401113321
-4.04,0.5369226036560266,-0.5383386009732256
-4.0395,-0.03926683865831193,-0.8244478379124861
-4.039,-0.6794773301202989,-1.015187329205828
-4.0385,-1.234326422719292,-1.089363798041932
-4.038,-1.127624674142562,-0.6125150698098314
-4.0375,-0.6367966306886077,0.1610395337684224
-4.037,-0.1352984123779797,0.8180311148882058
-4.0365,0.2168173579255475,1.241896651094903
-4.036,0.4195506802215856,1.432636142387927
-4.0355,0.4942419042252961,1.443232780793084
-4.035,0.5155822539406614,1.358459673551745
-4.0345,0.5049120790829885,1.210106735879536
-4.034,0.5262524287983441,1.093543713422559
-4.0335,0.6009436528021226,1.072350436612224
-4.033,0.6756348768058331,1.008770606181277
-4.0325,0.7396559259519677,1.061753798207327
-4.032,0.707645401378949,1.358459673551745
-4.0315,0.1634664836376292,1.337266396741429
-4.031,-0.6474668055471056,0.5107286011376948
-4.0305,-1.042263275281004,-0.2098428104130352
-4.03,-0.8181896032698726,-0.6443049850245048
-4.0295,-0.3273615598158208,-0.9304142219645942
-4.029,0.1634664836371343,-1.121153713257435
-4.0285,0.4622313796522482,-1.184733543688439
-4.028,0.568933128229094,-1.237716735714305
-4.0275,0.5902734779444399,-1.269506650929778
-4.027,0.5689331282290746,-1.269506650929778
-4.0265,0.3875401556486347,-1.322489842955567
-4.026,0.3128489316446912,-1.131750351662602
-4.0255,0.3341892813600565,-0.8244478379127463
-4.025,0.3875401556484212,-0.4959520473528547
-4.0245,0.4195506802215079,-0.1780528951974558
-4.024,0.408880505363835,-0.09327978795619347
-4.0235,0.6649647019479854,-0.1780528951974558
-4.023,0.2701682322132232,-0.506548685758051
-4.0225,-0.5407650569699201,-0.8668343915334161
-4.022,-1.234326422718661,-1.057573882826256
-4.0215,-1.223656247861163,-0.7078848154552203
-4.021,-0.7328282044082075,0.04447651131098315
-4.0205,-0.2099896363817582,0.7120647308365314
-4.02,0.1634664836373381,1.157123543853756
-4.0195,0.3875401556484697,1.369056311956912
-4.019,0.4835717293676135,1.390249588767247
-4.0185,0.5049120790829594,1.294879843120827
-4.018,0.4942419042252961,1.135930267043229
-4.0175,0.5049120790829789,0.9981739677760521
-4.017,0.5475927785136705,0.9134008605347899
-4.0165,0.590273477944498,0.8392243916985117
-4.016,0.6542945270905358,0.8074344764830383
-4.0155,0.6009436528021711,1.029963882991352
-4.015,0.4195506802208577,1.061753798206295
-4.0145,-0.3060212101009019,0.2246193641988295
-4.014,-0.8181896032692029,-0.5489352393776894
-4.0135,-0.7541685541232042,-0.8138511995076656
-4.013,-0.3487019095316325,-0.9092209451540858
-4.0125,0.05676473506030786,-1.05757388282643
-4.012,0.3341892813602021,-1.174136905283272
-4.0115,0.4942419042252961,-1.174136905283272
-4.011,0.5369226036560266,-1.068170521231597
-4.0105,0.5369226036560266,-1.046977244421282
-4.01,0.408880505363835,-1.152943628472937
-4.0095,0.2594980573562781,-1.142346990067769
-4.009,0.270168232213951,-0.9304142219646134
-4.0085,0.3341892813601245,-0.6443049850246301
-4.008,0.408880505363835,-0.3475991096802118
-4.0075,0.3448594562177974,-0.1992461720080027
-4.007,0.2061471830675834,-0.5171453241632666
-4.0065,-0.1032878878049318,-0.9304142219644207
-4.006,-0.7008176798351597,-1.195330182093607
-4.0055,-1.244996597577091,-1.280103289334705
-4.005,-1.373038695869166,-1.01518732920576
-4.0045,-0.9035510021311299,-0.252229364033705
-4.004,-0.3487019095312346,0.5319218779491959
-4.0035,0.08877525963335578,1.093543713422559
-4.003,0.3448594562177392,1.390249588767247
-4.0025,0.4622313796521414,1.475022696008509
-4.002,0.5049120790829789,1.42203950398275
-4.0015,0.4942419042252961,1.273686566310405
-4.001,0.4942419042252961,1.125333628638197
-4.0005,0.5155822539407195,1.040560521396664
-4,0.5796033030867573,0.9769806909657173
-3.9995,0.6649647019482183,0.92399749893988
-3.999,0.6756348768059011,1.019367244586387
-3.9985,0.7289857510943143,1.241896651094903
-3.998,0.1207857842064037,0.7226613692416989
-3.9975,-0.6261264558313813,-0.252229364033705
-3.997,-0.9248913518464952,-0.8244478379127463
-3.9965,-0.7328282044082075,-0.9833974139902578
-3.996,-0.3380317346739499,-0.9728007755850904
-3.9955,0.05676473506030786,-0.9728007755850904
-3.995,0.3341892813600565,-1.01518732920576
-3.9945,0.4515612047945656,-1.0999604364471
-3.994,0.4942419042252961,-1.205926820498774
-3.9935,0.4302208550792003,-1.311893204550448
-3.993,0.1101156093487211,-1.417859588602123
-3.9925,0.03542438534494258,-1.195330182093607
-3.992,0.1314559590640864,-0.8138511995075789
-3.9915,0.2594980573562781,-0.400582301706049
-3.991,0.3341892813600565,-0.07208651114585861
-3.9905,0.08877525963335578,-0.1992461720078678
-3.99,0.1848068333524996,-0.2416327256285375
-3.9895,-0.2633405106701714,-0.5595318777835605
-3.989,-0.839529952985034,-0.9198175835592532
-3.9885,-1.373038695869166,-1.131750351662602
-3.988,-1.30901764672307,-0.792657922697244
-3.9875,-0.7648387289812555,-0.07208651114585861
-3.987,-0.2313299860971235,0.6060983467848571
-3.9865,0.1634664836371343,1.061753798207057
-3.986,0.3875401556484697,1.284283204715573
-3.9855,0.4729015545099309,1.33726639674141
-3.985,0.4942419042252961,1.273686566310405
-3.9845,0.4835717293676135,1.157123543853563
-3.984,0.5049120790829789,1.072350436612224
-3.9835,0.5689331282290746,1.061753798207057
-3.983,0.6222840025174878,1.072350436612224
-3.9825,0.6222840025174878,1.167720182258731
-3.982,0.6756348768059011,1.485619334413754
-3.9815,0.3875401556484697,1.231300012689736
-3.981,-0.4020527838200457,0.1822328105781598
-3.9805,-1.116954499284783,-0.7502713690765743
-3.98,-1.127624674142465,-0.8880276683437509
-3.9795,-0.6154562809736985,-0.8244478379127463
-3.979,-0.1139580626626144,-0.8138511995075789
-3.9785,0.2701682322139607,-0.8986243067489184
-3.978,0.4942419042252961,-1.01518732920576
-3.9775,0.5475927785137094,-1.142346990067769
-3.977,0.5689331282290746,-1.248313374119443
-3.9765,0.3768699807907871,-1.333086481360783
-3.976,0.2808384070716433,-1.184733543688439
-3.9755,0.3021787567870086,-0.9092209451540858
-3.975,0.3555296310754218,-0.6231117082145651
-3.9745,0.3982103305061524,-0.3581957480853793
-3.974,0.1848068333524996,-0.4217755785163839
-3.9735,0.0674349099179905,-0.7396747306714069
-3.973,-0.2420001609548061,-1.05757388282643
-3.9725,-0.8181896032696687,-1.290699927740113
-3.972,-1.277007122150022,-1.322489842955616
-3.9715,-1.074273799854052,-0.7820612842920766
-3.971,-0.572775581542968,0.02328323450064829
-3.9705,-0.09261771294724913,0.701468092431364
-3.97,0.2274875327832301,1.146526905448396
-3.9695,0.408880505363835,1.369056311956912
-3.969,0.4729015545099309,1.42203950398275
-3.9685,0.4835717293676135,1.358459673551745
-3.968,0.4729015545099309,1.241896651094903
-3.9675,0.4835717293676135,1.146526905448396
-3.967,0.5369226036560266,1.125333628638062
-3.9665,0.6116138276598051,1.114736990232894
-3.966,0.707645401378949,1.135930267043229
-3.9655,0.4622313796522482,1.347863035146577
-3.965,-0.02859666380115328,1.347863035146577
-3.9645,-0.754168554123573,0.4471487707073456
-3.964,-1.277007122150022,-0.4853554089473885
-3.9635,-1.287677297007705,-0.8562377531282487
-3.963,-0.807519428411986,-0.8562377531282487
-3.9625,-0.2846808603855366,-0.9092209451540858
-3.962,0.142126133921769,-0.9939940523954253
-3.9615,0.408880505363835,-1.068170521231597
-3.961,0.5262524287983441,-1.131750351662602
-3.9605,0.5475927785137094,-1.195330182093607
-3.96,0.3982103305061524,-1.301296566145281
-3.9595,0.1848068333524996,-1.269506650929778
-3.959,0.1848068333524996,-1.025783967610927
-3.9585,0.2594980573562781,-0.7290780922662394
-3.958,0.3448594562177392,-0.4429688553267188
-3.9575,0.3128489316446912,-0.2840192792492073
-3.957,-0.1779791118087102,-0.6337083466197325
-3.9565,-0.7968492535543035,-1.121153713257435
-3.956,-1.362368521011484,-1.449649503817625
-3.9555,-1.895877263895616,-1.566212526274467
-3.955,-1.938557963326346,-1.333086481360783
-3.9545,-1.212986073003927,-0.5595318777835605
-3.954,-0.4980843575391895,0.2881991946298341
-3.9535,0.03542438534494258,0.9028042221295453
-3.953,0.3448594562177392,1.263089927905238
-3.9525,0.4835717293676135,1.400846227172415
-3.952,0.5155822539406614,1.37965295036208
-3.9515,0.5049120790829789,1.273686566310405
-3.951,0.4942419042252961,1.157123543853563
-3.9505,0.5262524287983441,1.093543713422559
-3.95,0.5902734779444399,1.082947075017392
-3.9495,0.6863050516635838,1.104140351827727
-3.949,0.5902734779444399,1.146526905448396
-3.9485,0.3875401556484697,1.443232780793084
-3.948,0.7823366253827275,1.761131932948107
-3.9475,0.6436243522328531,1.517409249629256
-3.947,0.142126133921769,0.701468092431364
-3.9465,-0.007256314085787988,-0.008506680714854012
-3.946,0.08877525963335578,-0.5489352393783931
-3.9455,0.2594980573562781,-0.9622041371799229
-3.945,0.408880505363835,-1.237716735714276
-3.9445,0.4729015545099309,-1.354279758171118
-3.944,0.4942419042252961,-1.354279758171118
-3.9435,0.4408910299368829,-1.322489842955616
-3.943,0.2488278824985954,-1.290699927740113
-3.9425,0.2274875327832301,-1.036380606016095
-3.942,0.2808384070716433,-0.6866915386455698
-3.9415,0.3448594562177392,-0.3370024712750445
-3.941,0.408880505363835,-0.01910331912002144
-3.9405,0.6116138276598051,0.13984625695749
-3.94,0.7289857510943143,0.1610395337678249
-3.9395,0.02475421048725994,-0.3052125560595421
-3.939,-0.7755089038389382,-0.718481453861072
-3.9385,-1.383708870726849,-0.9516074987747555
-3.938,-1.287677297007705,-0.6337083466197325
-3.9375,-0.754168554123573,0.07626642652648545
-3.937,-0.2206598112394408,0.7226613692416989
-3.9365,0.1527963087794516,1.157123543853563
-3.936,0.3768699807907871,1.369056311956912
-3.9355,0.4622313796522482,1.400846227172415
-3.935,0.4835717293676135,1.316073119931075
-3.9345,0.4729015545099309,1.188913459069066
-3.934,0.4942419042252961,1.072350436612224
-3.9335,0.5369226036560266,0.9769806909657173
-3.933,0.6116138276598051,0.8922075837243778
-3.9325,0.5796033030867573,0.7332580076468663
-3.932,0.2168173579255475,0.9451907757502149
-3.9315,-0.1993194615240755,0.8816109453192104
-3.931,-0.8608703027003992,0.02328323450064829
-3.9305,-1.180975548430879,-0.6972881770507372
-3.93,-0.8608703027003992,-0.9622041371799229
-3.9295,-0.3487019095316325,-0.9728007755850904
-3.929,0.02475421048725994,-1.004590690800593
-3.9285,0.3235191065023739,-1.068170521231597
-3.928,0.4835717293676135,-1.163540266878104
-3.9275,0.5262524287983441,-1.258910012524611
-3.927,0.5262524287983441,-1.258910012524611
-3.9265,0.3128489316446912,-1.290699927740113
-3.926,0.2061471830678648,-1.131750351662602
-3.9255,0.2274875327832301,-0.8456411147230812
-3.925,0.3021787567870086,-0.5171453241628908
-3.9245,0.3661998059331045,-0.2204394488182027
-3.924,0.3341892813600565,-0.08268314955102604
-3.9235,0.4729015545099309,0.1292496185523226
-3.923,0.04609456020262521,-0.1568596183871981
-3.9225,-0.690147504977477,-0.7608680074817418
-3.922,-1.341028171296118,-1.205926820498774
-3.9215,-1.554431668449771,-1.248313374119443
-3.921,-1.074273799854052,-0.6443049850249
-3.9205,-0.4660738329661415,0.09745970333682032
-3.92,0.00341386077189465,0.6908714540261965
-3.9195,0.3021787567870086,1.061753798207057
-3.919,0.4408910299368829,1.241896651094903
-3.9185,0.4835717293676135,1.284283204715573
-3.918,0.4729015545099309,1.231300012689736
-3.9175,0.4729015545099309,1.188913459069066
-3.917,0.5262524287983441,1.210106735879401
-3.9165,0.5796033030867573,1.220703374284568
-3.916,0.6542945270905358,1.263089927905238
-3.9155,0.4408910299368829,1.475022696008586
-3.915,0.02475421048725994,1.644568910491266
-3.9145,-0.6474668055467465,0.9028042221295453
-3.914,-1.170305373573196,-0.1886495336027004
-3.9135,-1.234326422719292,-0.7078848154559045
-3.913,-0.754168554123573,-0.8456411147230812
-3.9125,-0.2206598112394408,-0.9304142219644207
-3.912,0.1848068333524996,-0.9939940523954253
-3.9115,0.4302208550792003,-1.036380606016095
-3.911,0.5582629533713921,-1.121153713257435
-3.9105,0.5796033030867573,-1.131750351662602
-3.91,0.4515612047945656,-1.205926820498774
-3.9095,0.2381577076409128,-1.205926820498774
-3.909,0.2168173579255475,-0.9939940523954253
-3.9085,0.2701682322139607,-0.7290780922662394
-3.908,0.3448594562177392,-0.4535654937318862
-3.9075,0.3341892813600565,-0.2840192792492073
-3.907,0.142126133921769,-0.5171453241628908
-3.9065,0.4408910299368829,-0.3899856633008816
-3.906,0.05676473506030786,-0.6654982618352349
-3.9055,-0.5300948821122373,-0.9939940523954253
-3.905,-1.116954499284783,-1.227120097309109
-3.9045,-1.127624674142465,-0.9622041371799229
-3.904,-0.690147504977477,-0.2946159176543747
-3.9035,-0.2099896363817582,0.3411823866556712
-3.903,0.1527963087794516,0.8074344764830383
-3.9025,0.3555296310754218,1.072350436612224
-3.902,0.4408910299368829,1.188913459069066
-3.9015,0.4622313796522482,1.199510097474233
-3.901,0.4729015545099309,1.178316820663898
-3.9005,0.5155822539406614,1.199510097474233
-3.9,0.5689331282290746,1.231300012689736
-3.8995,0.6329541773751706,1.263089927905238
-3.899,0.5689331282290746,1.347863035146577
-3.8985,-0.07127736323188383,1.580989080060261
-3.898,-0.8502001278427167,1.082947075017392
-3.8975,-1.319687821580753,0.03387987290581572
-3.897,-1.26633694729234,-0.5065486857577234
-3.8965,-0.7968492535543035,-0.570128516188728
-3.896,-0.2633405106701714,-0.6443049850249
-3.8955,0.142126133921769,-0.7396747306714069
-3.895,0.3768699807907871,-0.8562377531282487
-3.8945,0.4622313796522482,-0.9622041371799229
-3.894,0.4729015545099309,-1.05757388282643
-3.8935,0.4408910299368829,-1.184733543688439
-3.893,0.2381577076409128,-1.311893204550448
-3.8925,0.1848068333524996,-1.152943628472937
-3.892,0.2381577076409128,-0.8562377531282487
-3.8915,0.3235191065023739,-0.5383386009732256
-3.891,0.3768699807907871,-0.2310360872233701
-3.8905,0.3768699807907871,-0.1356663415768632
-3.89,0.2808384070716433,-0.4959520473525559
-3.8895,-0.3273615598162672,-0.9092209451540858
-3.889,-0.9995825758502737,-1.142346990067769
-3.8885,-1.543761493592088,-1.184733543688439
-3.888,-1.426389570157579,-0.7290780922662394
-3.8875,-0.839529952985034,0.07626642652648545
-3.887,-0.2633405106701714,0.775644561267536
-3.8865,0.142126133921769,1.220703374284568
-3.886,0.3661998059331045,1.432636142387917
-3.8855,0.4622313796522482,1.443232780793084
