Class_1_Relax_eyes_closed/Class_1_Relax_Eyes_closed_Zakour_1.csv

#Digilent WaveForms Oscilloscope Acquisition
#Device Name: EExplorer
#Serial Number: SN:210151A2B84A
#Date Time: 2020-10-20 13:14:52.084
#Sample rate: 2000Hz
#Samples: 16384
#Trigger: Source: Channel 1 Type: Edge Condition: Rising Level: 0 V Hyst.: Auto HoldOff: 0 s
#Channel 1: Range: 1 V/div Offset: 0 V
#Channel 2: Range: 1 V/div Offset: 0 V

Time (s),Channel 1 (V),Channel 2 (V)
-4.0960000000000001,1.9560558597278179,-1.01518732920576
-4.0955000000000004,2.2228102311696416,-1.862918401618384
-4.0949999999999998,1.5932699145660549,-2.2126074689889474
-4.0945,0.98506994767869771,-1.4072629501969551
-4.0940000000000003,0.39821033050668619,-0.80325456110296078
-4.0934999999999997,0.078105084775634326,-0.33700247127475536
-4.093,0.035424385344942577,-0.019103319120021445
-4.0925000000000002,-0.0072563140857491715,0.055073149716083125
-4.0919999999999996,-0.017926488943470625,-0.04029659593042377
-4.0914999999999999,-0.017926488943470625,-0.11447306476652835
-4.0910000000000002,-0.028596663801153277,-0.093279787956193475
-4.0904999999999996,-0.12462823752026791,0.076266426526485451
-4.0899999999999999,-0.092617712947249131,0.076266426526485451
-4.0895000000000001,-0.19931946152407554,0.34118238665567124
-4.0890000000000004,-0.35937208438916957,0.68027481562072067
-4.0884999999999998,-0.39138260896236304,0.80743447648303834
-4.0880000000000001,-0.92489135184649518,1.2630899279052379
-4.0875000000000004,-1.7998456901756759,1.4432327807929206
-4.0869999999999997,-2.4827368810684907,0.52132523954249599
-4.0865,-2.8455228262293706,-0.60191843140423029
-4.0860000000000003,-3.0375859736674835,-1.5344226110581163
-4.0854999999999997,-2.2586632090559133,-1.555615887868673
-4.085,-1.2556667724346571,-0.86683439153341613
-4.0845000000000002,-0.47674400782453275,-0.093279787956897064
-4.0839999999999996,0.024754210487473435,0.51072860113870677
-4.0834999999999999,0.25949805735627807,0.90280422212954525
-4.0830000000000002,0.34485945621773917,1.1147369902328941
-4.0824999999999996,0.34485945621773917,1.1995100974741464
-4.0819999999999999,0.34485945621773917,1.1041403518277266
-4.0815000000000001,0.49424190422529612,0.64848490040552687
-4.0810000000000004,0.55826295337133391,0.40476221708689752
-4.0804999999999998,0.53692260365602662,0.29879583303500157
-4.0800000000000001,0.91037872367491923,-0.15685961838719809
-4.0795000000000003,1.6786313134273705,-0.86683439153277042
-4.0789999999999997,2.3828628540352885,-1.5132293342489187
-4.0785,2.5642558266157285,-1.8311284864036526
-4.0780000000000003,1.62528043914051,-1.74635537916239
-4.0774999999999997,0.62228400251708027,-1.4708427806274973
-4.077,0.17413665849481691,-0.96220413717992292
-4.0765000000000002,-0.071277363231660618,-0.63370834662003128
-4.0759999999999996,-0.07127736323177708,-0.36879238649039253
-4.0754999999999999,0.046094560202625215,-0.19924617200786782
-4.0750000000000002,0.046094560202625215,-0.18864953360270037
-4.0744999999999996,0.024754210487085256,-0.14626297998178006
-4.0739999999999998,-0.16730893695102761,0.12924961855232261
-4.0735000000000001,-0.19931946152407554,0.19282944898332721
-4.0730000000000004,-0.1032878878050191,0.11865298014722264
-4.0724999999999998,0.024754210487259936,0.055073149716150585
-4.0720000000000001,0.099445434491038431,0.076266426526485451
-4.0715000000000003,-0.32736155981587906,0.47893868592248168
-4.0709999999999997,-1.2770071221508374,0.35177902505998093
-4.0705,-2.1733018101953641,-0.59132179299906285
-4.0700000000000003,-2.8988737005171239,-1.5238259726529488
-4.0694999999999997,-3.0269157988095774,-2.1172377233429516
-4.069,-2.5894386296449872,-1.8735150400243223
-4.0685000000000002,-1.4797404444459925,-0.97280077558509037
-4.0679999999999996,-0.61545628097318417,-0.082683149550428506
-4.0674999999999999,-0.049937013516518552,0.57430843156935485
-4.0670000000000002,0.23815770764091276,0.95578741415538238
-4.0664999999999996,0.34485945621773917,1.1359302670432672
-4.0659999999999998,0.34485945621773917,1.1783168206638983
-4.0655000000000001,0.33418928136005654,1.0935437134225592
-4.0650000000000004,0.33418928136005654,0.86041766850908752
-4.0644999999999998,0.38754015564846972,0.55311515475901996
-4.0640000000000001,0.57960330308675734,0.12924961855232261
-4.0635000000000003,0.95305942310531,-0.40058230170556719
-4.0629999999999997,1.5825997397092653,-1.0787671596374779
-4.0625,1.9560558597278179,-1.8629184016191549
-4.0620000000000003,1.7426523625743591,-2.6682629204111472
-4.0614999999999997,1.5185786905623539,-2.2867839378251098
-4.0609999999999999,0.99574012253638022,-1.4708427806279598
-4.0605000000000002,0.54759277851370936,-0.68669153864556975
-4.0599999999999996,0.2915085819291513,-0.13566634157671864
-4.0594999999999999,0.099445434491038431,0.023283234500648287
-4.0590000000000002,0.024754210487259936,-0.0085066807148540119
-4.0585000000000004,0.024754210487259936,-0.082683149550958582
-4.0579999999999998,0.046094560202625215,-0.12506970317169577
-4.0575000000000001,-0.028596663801153277,0.055073149716150585
-4.0570000000000004,-0.11395806266253677,0.22461936419867529
-4.0564999999999998,-0.049937013516518552,0.2246193641988295
-4.056,0.035424385344942577,0.18223281057815977
-4.0555000000000003,0.046094560202615514,0.26700591781942212
-4.0549999999999997,-0.19931946152479366,0.62729162359577983
-4.0545,-0.98891240099259115,1.2736865663104053
-4.0540000000000003,-1.8745369141794446,1.400846227172299
-4.0534999999999997,-2.5254175804991825,0.50013196273216121
-4.0529999999999999,-2.8455228262293706,-0.62311170821456507
-4.0525000000000002,-2.6321193290757177,-1.2906999277401132
-4.0519999999999996,-1.6291228924527634,-1.0151873292051818
-4.0514999999999999,-0.76483872898125549,-0.37938902489571413
-4.0510000000000002,-0.15663876209334496,0.23521600260399694
-4.0505000000000004,0.17413665849451612,0.68027481562062431
-4.0499999999999998,0.30217875678700862,0.95578741415538238
-4.0495000000000001,0.33418928136005654,1.1041403518277266
-4.0490000000000004,0.32351910650238358,1.1253336286380422
-4.0484999999999998,0.31284893164468153,1.0299638829914581
-4.048,0.30217875678700862,0.92399749893988004
-4.0475000000000003,0.4195506802214109,0.59550170837998839
-4.0469999999999997,0.31284893164488531,-0.29461591765549261
-4.0465,0.52625242879834411,-1.523825972653797
-4.0460000000000003,1.5719295648502918,-2.2338007457993689
-4.0454999999999997,2.3721926791774508,-2.784825942868471
-4.0449999999999999,2.3828628540351238,-2.5093133443343683
-4.0445000000000002,1.7960032368625782,-1.6297923567054711
-4.0439999999999996,1.0917716962550097,-0.84564111472262826
-4.0434999999999999,0.52625242879834411,-0.34759910968021185
-4.0430000000000001,0.19547700821018218,-0.093279787956193475
-4.0425000000000004,0.067434909918106967,0.012686596095384473
-4.0419999999999998,0.035424385344942577,0.023283234500648287
-4.0415000000000001,0.035424385344942577,0.044476511310983152
-4.0410000000000004,-0.017926488943422102,0.15044289536256111
-4.0404999999999998,-0.15663876209330613,0.33058574825040749
-4.04,-0.11395806266261441,0.2246193641988295
-4.0395000000000003,-0.017926488943557972,0.055073149716304781
-4.0389999999999997,0.067434909917961389,-0.061489872740614078
-4.0385,0.035424385344942577,0.023283234500648287
-4.0380000000000003,-0.58344575640008767,0.64848490040495821
-4.0374999999999996,-1.5544316684505182,0.93459413734426688
-4.0369999999999999,-2.3760351324913342,0.076266426526485451
-4.0365000000000002,-2.9842350993792448,-1.0363806060160949
-4.0359999999999996,-2.9842350993785072,-1.7675486559723974
-4.0354999999999999,-2.1733018101953641,-1.4920360574382947
-4.0350000000000001,-1.1382948490001481,-0.71848145386107198
-4.0345000000000004,-0.38071243410536937,0.033879872905131503
-4.0339999999999998,0.078105084775673142,0.57430843156935485
-4.0335000000000001,0.29150858192932599,0.89220758372437781
-4.0330000000000004,0.34485945621769065,1.0511571598017448
-4.0324999999999998,0.34485945621771974,1.0935437134224628
-4.032,0.32351910650237387,0.98757732937088472
-4.0315000000000003,0.32351910650237387,0.81803111488836
-4.0309999999999997,0.37686998079121409,0.59550170837918848
-4.0305,0.84635767452882327,0.044476511310983152
-4.0300000000000002,1.5185786905622183,-0.70788481545522031
-4.0294999999999996,1.9453856848702613,-1.343683119766548
-4.0289999999999999,2.0840979580200099,-2.0006747008863313
-4.0285000000000002,1.657290963712704,-2.6046830899808748
-4.0279999999999996,1.2198137945472207,-2.0430612545062878
-4.0274999999999999,0.67563487680590106,-1.2589100125246109
-4.0270000000000001,0.25949805735627807,-0.60191843140423029
-4.0265000000000004,0.14212613392187573,-0.14626297998244503
-4.0259999999999998,0.08877525963335578,0.0020899576903134209
-4.0255000000000001,0.035424385344942577,-0.04029659593035631
-4.0250000000000004,0.035424385344942577,-0.093279787956145277
-4.0244999999999997,0.035424385344816421,-0.072086511145646584
-4.024,-0.10328788780493176,0.16103953376782493
-4.0235000000000003,-0.10328788780493176,0.21402272579361389
-4.0229999999999997,-0.01792648894339299,0.17163617217298272
-4.0225,0.067434909917990504,0.16103953376782493
-4.0220000000000002,0.078105084775663441,0.2352160026039295
-4.0214999999999996,-0.39138260896309091,0.76504792286299494
-4.0209999999999999,-1.1916457232885611,1.4538294191982519
-4.0205000000000002,-1.9598983130417114,1.5491991648447585
-4.0199999999999996,-2.1626316353376138,0.57430843156818867
-4.0194999999999999,-2.0879404113339031,-0.70788481545590454
-4.0190000000000001,-1.7038141164573279,-1.2906999277401132
-4.0185000000000004,-1.0102527507085872,-0.93041422196474843
-4.0179999999999998,-0.40205278382004572,-0.28401927924920728
-4.0175000000000001,0.014084035629577295,0.31998910984533641
-4.0170000000000003,0.22748753278303602,0.75445128445680598
-4.0164999999999997,0.30217875678701833,1.0193672445865123
-4.016,0.31284893164469124,1.1571235438535634
-4.0155000000000003,0.30217875678701833,1.1465269054484055
-4.0149999999999997,0.31284893164470096,1.0299638829914195
-4.0145,0.32351910650237387,0.88161094531921036
-4.0140000000000002,0.40888050536375742,0.61669498519026544
-4.0134999999999996,0.80367697509878178,0.086863064931007164
-4.0129999999999999,1.5612593899935603,-0.62311170821456507
-4.0125000000000002,1.9987365591585484,-1.5556158878692994
-4.0119999999999996,2.0094067340159398,-2.3609604066616385
-4.0114999999999998,1.689301488285752,-1.9370948704553266
-4.0110000000000001,1.0277506471094282,-1.2059268204987741
-4.0105000000000004,0.51558225394112722,-0.4429688553274127
-4.0099999999999998,0.22748753278323011,0.086863064931652884
-4.0095000000000001,0.035424385344942577,0.16103953376782493
-4.0090000000000003,-0.017926488943422102,0.065669788121404754
-4.0084999999999997,-0.0072563140857588746,-0.061489872740749005
-4.008,0.024754210487259936,-0.12506970317169577
-4.0075000000000003,-0.10328788780481528,0.033879872905671155
-4.0069999999999997,-0.18864928666631525,0.13984625695741293
-4.0065,-0.10328788780493176,0.055073149716150585
-4.0060000000000002,0.024754210487259936,-0.029699957525188878
-4.0054999999999996,0.11011560934872107,-0.072086511145694768
-4.0049999999999999,0.11011560934872107,0.10805634174198775
-4.0045000000000002,-0.16730893695102761,0.7968378380778709
-4.0039999999999996,-0.73282820440861507,1.5280058880345586
-4.0034999999999998,-1.1809755484308786,1.6763588257067679
-4.0030000000000001,-1.0422632752810042,0.63788826200035942
-4.0025000000000004,-0.17797911180949622,-0.4535654937308935
-4.0019999999999998,0.33418928136005654,-0.62311170821456507
-4.0015000000000001,0.4835717293676135,-0.26282600243887239
-4.0010000000000003,0.46223137965226763,0.22461936419838618
-4.0004999999999997,0.37686998079071915,0.63788826200062931
-4,0.30217875678700862,0.93459413734504748
-3.9994999999999998,0.23815770764091276,1.1147369902328941
-3.9990000000000001,0.21681735792554749,1.1889134590690658
-3.9984999999999999,0.22748753278323011,1.1147369902328941
-3.9980000000000002,0.28083840707164331,0.9134008605347127
-3.9975000000000001,0.40888050536383502,0.61669498519002452
-3.9969999999999999,0.75032610080967954,0.16103953376782493
-3.9965000000000002,0.857027849386506,-0.81385119950757889
-3.996,0.62228400251748783,-1.4178595886021226
-3.9954999999999998,0.70764540137894905,-1.746355379162313
-3.9950000000000001,0.93171907339028448,-2.1172377233431732
-3.9944999999999999,0.82501732481345802,-1.4814394190331273
-3.9940000000000002,0.60094365280212259,-0.59132179299906285
-3.9935,0.32351910650237387,-0.04029659593035631
-3.9929999999999999,0.11011560934872107,0.13984625695749003
-3.9925000000000002,0.035424385344942577,0.11865298014715518
-3.992,0.035424385344942577,0.023283234500648287
-3.9914999999999998,0.05676473506030786,-0.061489872740691176
-3.9910000000000001,-0.017926488943470625,0.0020899576903134209
-3.9904999999999999,-0.23132998609712346,0.26700591781949923
-3.9900000000000002,-0.20998963638175816,0.24581264100916439
-3.9895,-0.092617712947249131,0.11865298014715518
-3.9889999999999999,0.014084035629577295,0.023283234500648287
-3.9885000000000002,-0.092617712947249131,0.24581264100916439
-3.988,-0.78617907869662074,0.93459413734504748
-3.9874999999999998,-1.6824737667419627,1.4856193344137538
-3.9870000000000001,-2.3120140833452387,0.86041766850887547
-3.9864999999999999,-2.8988737005177838,-0.41117894011121647
-3.9860000000000002,-2.952224574806197,-1.3754730349814528
-3.9855,-2.0239193621878071,-1.2906999277401132
-3.9849999999999999,-1.0529334501386869,-0.64430498502489997
-3.9845000000000002,-0.33803173467394987,0.044476511310983152
-3.984,0.08877525963335578,0.57430843156935485
-3.9834999999999998,0.29150858192932599,0.9134008605347127
-3.9830000000000001,0.33418928136005654,1.1041403518277266
-3.9824999999999999,0.32351910650237387,1.1783168206638983
-3.9820000000000002,0.31284893164469124,1.1147369902328941
-3.9815,0.31284893164469124,0.9134008605347127
-3.9809999999999999,0.3768699807907871,0.62729162359519197
-3.9805000000000001,0.65429452709053582,0.16103953376782493
-3.98,1.2624944939784462,-0.4535654937318862
-3.9794999999999998,1.9880663843008659,-1.1211537132574345
-3.9790000000000001,2.4255435534658543,-1.7145654639468106
-3.9784999999999999,1.9560558597278179,-2.360960406662024
-3.9780000000000002,1.2731646688361289,-1.9264982320501591
-3.9775,0.64362435223285308,-1.1741369052832717
-3.9769999999999999,0.18480683335249956,-0.53833860097322561
-3.9765000000000001,0.046094560202625215,-0.093279787956193475
-3.976,0.014084035629577295,0.055073149716150585
-3.9754999999999998,-0.0072563140857879876,0.0020899576903134209
-3.9750000000000001,0.0034138607718946501,-0.082683149551026042
-3.9744999999999999,0.0034138607718946501,-0.082683149551026042
-3.9740000000000002,-0.19931946152407554,0.18223281057815977
-3.9735,-0.22065981123944084,0.24581264100916439
-3.9729999999999999,-0.10328788780493176,0.16103953376782493
-3.9725000000000001,0.024754210487259936,0.097459703336820316
-3.972,0.099445434491038431,0.11865298014715518
-3.9714999999999998,-0.30602121010090194,0.52132523954351762
-3.9710000000000001,-1.2343264227192918,0.34118238665567124
-3.9704999999999999,-1.9492281381840288,-0.57012851618872795
-3.9700000000000002,-1.9492281381840288,-1.42845622700729
-3.9695,-1.8318562147495197,-2.0006747008863313
-3.9689999999999999,-1.373038695869166,-1.9264982320501591
-3.9685000000000001,-0.74349837926589024,-1.0787671596367647
-3.968,-0.23132998609712346,-0.17805289519753292
-3.9674999999999998,0.08877525963335578,0.51072860113835017
-3.9670000000000001,0.23815770764091276,0.93459413734504748
-3.9664999999999999,0.29150858192932599,1.1253336286380615
-3.9660000000000002,0.28083840707164331,1.1677201822587309
-3.9655,0.27016823221396069,1.0617537982070568
-3.9649999999999999,0.33418928136005654,0.775644561267536
-3.9645000000000001,0.38754015564846972,0.47893868592284788
-3.964,0.4835717293676135,0.13984625695749003
-3.9634999999999998,0.80367697509809277,-0.37938902489571413
-3.9630000000000001,1.1451225705439372,-1.3966663117917877
-3.9624999999999999,1.1878032699746677,-2.4033469602826938
-3.9620000000000002,1.2518243191207636,-2.5728931747653725
-3.9615,1.0170804722517455,-2.1278343617483406
-3.9609999999999999,0.6863050516635838,-1.3648763965762853
-3.9605000000000001,0.47290155450993088,-0.64430498502489997
-3.96,0.27016823221396069,-0.27342264084403983
-3.9594999999999998,0.12078578420640371,-0.13566634157686319
-3.9590000000000001,0.067434909917990504,-0.093279787956193475
-3.9584999999999999,0.05676473506030786,-0.093279787956193475
-3.9580000000000002,0.05676473506030786,-0.072086511145858609
-3.9575,-0.13529841237797968,0.19282944898332721
-3.9569999999999999,-0.29535103524321932,0.40476221708667587
-3.9565000000000001,-0.20998963638175816,0.35177902506083869
-3.956,-0.071277363231883828,0.24581264100916439
-3.9554999999999998,0.046094560202625215,0.19282944898332721
-3.9550000000000001,-0.12462823752029703,0.46834204751768049
-3.9544999999999999,-0.8502001278427167,0.90280422212954525
-3.9540000000000002,-1.6077825427381842,0.34118238665567124
-3.9535,-2.0452597119031726,-0.73967473067140688
-3.9529999999999998,-2.5254175804988912,-1.6403889951106385
-3.9525000000000001,-2.4613965313527957,-1.9159015936449921
-3.952,-1.6077825427381842,-1.2589100125246109
-3.9514999999999998,-0.78617907869662074,-0.37938902489571413
-3.9510000000000001,-0.19931946152407554,0.35177902506083869
-3.9504999999999999,0.14212613392176898,0.82862775329337313
-3.9500000000000002,0.29150858192932599,1.0723504366122243
-3.9495,0.32351910650237387,1.1783168206638983
-3.9489999999999998,0.31284893164469124,1.146526905448396
-3.9485000000000001,0.31284893164469124,0.97698069096571727
-3.948,0.33418928136005654,0.72266136924169888
-3.9474999999999998,0.41955068022151765,0.38356894027634103
-3.9470000000000001,0.6863050516635838,-0.10387642636136091
-3.9464999999999999,1.3265155431245421,-0.792657922697244
-3.9460000000000002,1.9667260345855007,-1.5026326958434622
-3.9455,1.8813646357240394,-2.4881200675240334
-3.9449999999999998,1.5825997397089255,-2.2761872994206844
-3.9445000000000001,0.98506994767869771,-1.5132293342486296
-3.944,0.44089102993688295,-0.87743102993858346
-3.9434999999999998,0.18480683335249956,-0.32640583286987701
-3.9430000000000001,0.05676473506030786,-0.04029659593035631
-3.9424999999999999,-0.028596663801153277,-0.061489872740691176
-3.9420000000000002,-0.028596663801153277,-0.13566634157686319
-3.9415,0.014084035629577295,-0.17805289519753292
-3.9409999999999998,-0.049937013516518552,-0.050893234335523743
-3.9405000000000001,-0.19931946152407554,0.20342608738849466
-3.9399999999999999,-0.14596858723566233,0.2246193641988295
-3.9394999999999998,-0.028596663801153277,0.19282944898332721
-3.9390000000000001,0.08877525963335578,0.18223281057815977
-3.9384999999999999,0.05676473506030786,0.33058574825050385
-3.9380000000000002,-0.59411593125833329,0.93459413734504748
-3.9375,-1.5117509690190405,1.1571235438535634
-3.9369999999999998,-2.0666000616185376,0.23521600260399694
-3.9365000000000001,-2.5147474056412089,-0.89862430674891836
-3.9359999999999999,-2.8668631759447361,-1.6615822719209734
-3.9355000000000002,-2.1306211107646336,-1.4708427806279598
-3.9350000000000001,-1.1916457232885611,-0.68669153864556975
-3.9344999999999999,-0.44473348325077627,0.11865298014715518
-3.9340000000000002,0.024754210487259936,0.72266136924169888
-3.9335,0.24882788249859539,1.0829470750173917
-3.9329999999999998,0.32351910650237387,1.2630899279052379
-3.9325000000000001,0.32351910650237387,1.2948798431207402
-3.9319999999999999,0.34485945621773917,1.1147369902328941
-3.9315000000000002,0.3768699807907871,0.87101430691404291
-3.931,0.41955068022151765,0.59550170837968963
-3.9304999999999999,0.53692260365602662,0.21402272579366208
-3.9300000000000002,0.97439977282101498,-0.37938902489571413
-3.9295,1.006410297394063,-1.5132293342486296
-3.9289999999999998,0.95305942310564973,-2.043061254507001
-3.9285000000000001,1.0597611716824762,-2.3185738530413542
