Class_1_Relax_eyes_closed/Class_1_Relax_eyes_closed_SH_9.csv

#Digilent WaveForms Oscilloscope Acquisition
#Device Name: EExplorer
#Serial Number: SN:210151A2B84A
#Date Time: 2021-01-21 11:56:50.351
#Sample rate: 2000Hz
#Samples: 16384
#Trigger: Source: Channel 1 Type: Edge Condition: Rising Level: 0 V Hyst.: Auto HoldOff: 0 s
#Channel 1: Range: 1 V/div Offset: 0 V Attenuation: 1 X
#Channel 2: Range: 1 V/div Offset: 0 V Attenuation: 1 X
#Power Supplies: ON
#Fixed Supply: ON
#Voltage: 3.3 V Readback: 3.326 V
#Positive Supply: ON
#Voltage: 3.7 V Readback: 3.707 V
#Current: 40 mA Readback: 19 mA
#Negative Supply: ON
#Voltage: -3.7 V Readback: -3.736 V
#Current: -40 mA Readback: 0 A
#Reference 1: ON
#Voltage: 0 V
#Reference 2: ON
#Voltage: 0 V

Time (s),Channel 1 (V),Channel 2 (V)
-4.096,-1.170305373573196,-0.474758770542221
-4.0955,-0.2206598112403045,-0.4959520473525367
-4.095,0.4302208550795206,-0.4535654937318477
-4.0945,0.7823366253827275,-0.4111789401112165
-4.094,0.9210488985324756,-0.3899856633009008
-4.0935,0.9423892482479281,-0.3899856633009008
-4.093,0.8997085488172365,-0.4111789401112165
-4.0925,0.8676980242442176,-0.4217755785163743
-4.092,0.8570278493865254,-0.4111789401111876
-4.0915,0.8783681991018712,-0.3793890248957141
-4.091,0.8783681991018712,-0.326405832869877
-4.0905,0.7716664505243849,-0.103876426360879
-4.09,0.04609456020262521,0.4259554938970107
-4.0895,-0.9035510021311299,0.9663840525605498
-4.089,-1.714484291314273,1.400846227172019
-4.0885,-2.151961460479999,1.644568910491266
-4.088,-1.543761493592088,1.369056311956912
-4.0875,-0.5941159312591969,0.7756445612680757
-4.087,0.163466483637571,0.2246193641985114
-4.0865,0.6436243522328531,-0.1250697031716958
-4.086,0.8676980242439847,-0.2416327256284315
-4.0855,0.9530594231055624,-0.1992461720078293
-4.085,0.857027849386506,-0.1568596183871981
-4.0845,0.7183155762367577,-0.0826831495510935
-4.084,0.7396559259520357,0.1504428953628984
-4.0835,0.7823366253827275,0.4153588554918433
-4.083,0.8356874996711408,0.6378882620003594
-4.0825,0.8570278493858655,0.7650479228616747
-4.082,0.1527963087794516,0.002089957690313421
-4.0815,-0.8715404775580819,-0.9728007755850904
-4.081,-1.703814116456571,-0.8668343915335125
-4.0805,-2.376035132491334,-0.3581957480853793
-4.08,-2.183971985053047,-0.4111789401112165
-4.0795,-1.234326422720156,-0.3899856633009008
-4.079,-0.3380317346733676,-0.4217755785164128
-4.0785,0.3021787567870086,-0.4535654937318862
-4.078,0.6863050516632344,-0.4747587705422018
-4.0775,0.8570278493865449,-0.5065486857577522
-4.077,0.8997085488172365,-0.5383386009732256
-4.0765,0.8997085488172365,-0.5595318777835412
-4.076,0.8783681991018712,-0.5701285161887086
-4.0755,0.8783681991018712,-0.5489352393783931
-4.075,0.8676980242441885,-0.5277419625680583
-4.0745,0.86769802424414,-0.432372216921426
-4.074,0.8143471499557753,-0.2946159176543747
-4.0735,0.1954770082101822,0.1504428953626575
-4.073,-0.8288597781264198,0.7332580076463364
-4.0725,-1.703814116457328,1.231300012689736
-4.072,-2.269333383914508,1.591585718465428
-4.0715,-2.002579012472685,1.602182356870586
-4.071,-1.042263275280228,1.114736990232354
-4.0705,-0.1886492866663929,0.5213252395435176
-4.07,0.3875401556479456,0.1080563417423636
-4.0695,0.7396559259521521,-0.0614898727406719
-4.069,0.9103787236749192,-0.04029659593035631
-4.0685,0.9317190733902845,0.02328323450064829
-4.068,0.7609962756673234,-0.07208651114574295
-4.0675,0.7183155762366316,0.05507314971615059
-4.067,0.7503261008096795,0.2881991946298341
-4.0665,0.8036769750981413,0.5107286011385044
-4.066,0.857027849386506,0.6802748156210291
-4.0655,0.8356874996711408,0.5849050699745222
-4.065,0.3875401556488773,0.3411823866558929
-4.0645,-0.4127229586777283,0.6590815388106942
-4.064,-1.159635198715513,1.040560521396722
-4.0635,-1.735824641029852,0.3517790250614651
-4.063,-1.725154466171936,-0.7184814538612744
-4.0625,-0.8928808272734472,-0.9410108603695881
-4.062,-0.2099896363823792,-1.004590690800535
-4.0615,0.3448594562180982,-0.8880276683435582
-4.061,0.7396559259519968,-0.6760949002404023
-4.0605,0.857027849386506,-0.5807251545938954
-4.06,0.8676980242441594,-0.5383386009731774
-4.0595,0.8356874996711408,-0.4853554089473885
-4.059,0.825017324813458,-0.4323722169215513
-4.0585,0.8463576745288038,-0.347599109680289
-4.058,0.857027849386506,-0.1886495336027004
-4.0575,0.7823366253827275,0.01268659609548085
-4.057,0.184806833353043,0.4365521323017926
-4.0565,-0.8502001278427167,0.9028042221295453
-4.056,-1.789175515318789,1.231300012689736
-4.0555,-2.440056181636838,1.422039503982576
-4.055,-2.354694782775077,1.506812611223732
-4.0545,-1.373038695869166,1.114736990232894
-4.054,-0.4233931335362746,0.5955017083801619
-4.0535,0.2915085819297045,0.2034260873882633
-4.053,0.707645401378949,-0.05089323433552374
-4.0525,0.9103787236749192,-0.1462629799820306
-4.052,0.9637295979631869,-0.1144730647665284
-4.0515,0.8036769750980928,-0.1144730647665284
-4.051,0.7183155762366316,-0.01910331912002144
-4.0505,0.7503261008096505,0.1822328105779767
-4.05,0.8143471499557753,0.4047622170866759
-4.0495,0.8676980242441885,0.5743084315693548
-4.049,0.8570278493865157,0.6272916235951438
-4.0485,0.8143471499554162,0.5425185163541513
-4.048,0.4195506802215176,0.8710143069140429
-4.0475,-0.4127229586769714,1.252493289499724
-4.047,-1.06360362499637,0.9239974989391765
-4.0465,-1.06360362499637,0.1504428953626575
-4.046,-0.5194247072550497,-0.3158091944642855
-4.0455,0.05676473506068633,-0.5171453241629294
-4.045,0.4729015545099309,-0.5595318777835605
-4.0445,0.5689331282290746,-0.6654982618352349
-4.044,0.0887752596333946,-1.184733543688352
-4.0435,0.1314559590640864,-1.089363798041932
-4.043,0.2594980573562781,-0.8774310299385835
-4.0425,0.4302208550790451,-0.6125150698096385
-4.042,0.7183155762366316,-0.2416327256285375
-4.0415,0.8890383739595538,0.05507314971615059
-4.041,0.9103787236748998,0.1610395337677286
-4.0405,0.7289857510934312,0.3517790250612531
-4.04,-0.2420001609548061,0.8074344764830383
-4.0395,-1.415719395298829,1.263089927904824
-4.039,-2.23732285934145,1.61277899527585
-4.0385,-2.226652684483777,1.70814874092227
-4.038,-1.373038695869942,1.273686566310801
-4.0375,-0.4447334832501358,0.6272916235947005
-4.037,0.2594980573562781,0.08686306493165288
-4.0365,0.6863050516635838,-0.2204394488182027
-4.036,0.8783681991019294,-0.3475991096801733
-4.0355,0.942389248247967,-0.3052125560595421
-4.035,0.825017324813458,-0.326405832869877
-4.0345,0.5902734779446533,-0.4005823017059816
-4.034,0.5796033030867573,-0.1886495336027004
-4.0335,0.6756348768059011,0.09745970333682032
-4.033,0.7823366253826305,0.3517790250606074
-4.0325,0.8783681991017742,0.5001319627332792
-4.032,0.7716664505250448,0.6060983467848571
-4.0315,0.09944543449164989,0.9451907757499065
-4.031,-0.8181896032703675,1.347863035146577
-4.0305,-1.586442193022819,1.347863035146577
-4.03,-1.725154466172567,0.5425185163545849
-4.0295,-1.010252750707258,-0.09327978795650188
-4.029,-0.2420001609548061,-0.4323722169215513
-4.0285,0.3341892813600565,-0.5595318777835605
-4.028,0.6756348768060466,-0.5807251545938376
-4.0275,0.8356874996711408,-0.5171453241628908
-4.027,0.8783681991018712,-0.4429688553267188
-4.0265,0.8676980242441982,-0.3581957480854564
-4.026,0.8463576745288233,-0.2840192792492073
-4.0255,0.8356874996711408,-0.1992461720078678
-4.025,0.6863050516637197,-0.2628260024388145
-4.0245,0.09944543449105785,-0.7396747306712816
-4.024,0.1207857842064037,-0.6019184314042303
-4.0235,-0.1246282375200738,-0.1356663415772872
-4.023,-0.8181896032703772,0.637888262001063
-4.0225,-1.597112367880501,1.411442865577582
-4.022,-2.087940411333457,1.835308401783894
-4.0215,-1.746494815887263,1.67635882570618
-4.021,-0.8715404775580819,1.029963882991555
-4.0205,-0.07127736323188383,0.3305857482505039
-4.02,0.4622313796525199,-0.1568596183874101
-4.0195,0.7609962756673623,-0.3899856633008816
-4.019,0.9103787236749192,-0.3687923864905467
-4.0185,0.9423892482479379,-0.2946159176544421
-4.018,0.7396559259519968,-0.4217755785163839
-4.0175,0.6756348768059011,-0.3158091944647096
-4.017,0.70764540137892,-0.05089323433576465
-4.0165,0.7716664505250933,0.2034260873886778
-4.016,0.825017324813458,0.4047622170866759
-4.0155,0.8036769750981122,0.3835689402763603
-4.015,0.857027849385982,-0.1780528951975811
-4.0145,0.2808384070716433,-0.2310360872233701
-4.014,-0.7114878546919398,0.3093924714396775
-4.0135,-1.447729919872818,0.182232810577755
-4.013,-1.30901764672307,-0.2628260024388724
-4.0125,-0.6474668055467465,-0.4641621321370536
-4.012,0.01408403562999459,-0.5277419625680583
-4.0115,0.4729015545099309,-0.5277419625680583
-4.011,0.7396559259519968,-0.5065486857577234
-4.0105,0.8463576745287262,-0.47475877054225
-4.01,0.8676980242441885,-0.4429688553267188
-4.0095,0.8463576745288233,-0.4217755785163839
-4.009,0.8356874996711504,-0.3899856633009105
-4.0085,0.8463576745288621,-0.3264058328697806
-4.008,0.8890383739595538,-0.2204394488182027
-4.0075,0.8997085488172268,-0.07208651114599354
-4.007,0.5582629533706837,0.2352160026044403
-4.0065,-0.2206598112394408,0.7226613692416989
-4.006,-1.020922925565639,1.167720182258731
-4.0055,-1.618452717596119,1.273686566309711
-4.005,-1.895877263895616,0.5107286011383502
-4.0045,-1.159635198715513,0.04447651131098315
-4.004,-0.4020527838195023,-0.3581957480855431
-4.0035,0.1954770082101822,-0.5383386009732256
-4.003,0.6863050516635838,-0.4535654937318862
-4.0025,0.9317190733900613,-0.3264058328699927
-4.002,0.9637295979633325,-0.2204394488182027
-4.0015,0.7396559259519968,-0.2946159176543747
-4.001,0.6116138276599216,-0.2416327256285857
-4.0005,0.6329541773752482,0.03387987290610485
-4,0.7183155762366316,0.3517790250608387
-3.9995,0.79300680024041,0.6166949851900245
-3.999,0.8463576745288233,0.7544512844572011
-3.9985,1.027750647109428,0.7650479228623686
-3.998,0.5262524287983441,1.072350436612224
-3.9975,-0.6047861061160158,1.42203950398275
-3.997,-1.575772018165136,1.220703374284568
-3.9965,-1.575772018165136,0.4153588554918433
-3.996,-0.8928808272734472,-0.1356663415768632
-3.9955,-0.156638762093345,-0.4429688553267188
-3.995,0.3768699807907871,-0.5489352393783931
-3.9945,0.6969752265212663,-0.5383386009732256
-3.994,0.8356874996711408,-0.474758770542221
-3.9935,0.8676980242441885,-0.3899856633008816
-3.993,0.857027849386506,-0.3052125560595421
-3.9925,0.8356874996711408,-0.2204394488182027
-3.992,0.8356874996711408,-0.1250697031716958
-3.9915,0.857027849386506,0.01268659609548085
-3.991,0.8676980242441885,0.13984625695749
-3.9905,0.7396559259519968,0.2352160026039969
-3.99,0.1527963087794516,0.5743084315693548
-3.9895,-0.6474668055467465,1.040560521396722
-3.989,-1.362368521011484,1.432636142387917
-3.9885,-1.778505340461106,1.6657621873016
-3.988,-1.287677297007705,1.400846227172415
-3.9875,-0.4660738329661415,0.8180311148882058
-3.987,0.1848068333524996,0.2246193641988295
-3.9865,0.5369226036560266,-0.2098428104130352
-3.986,0.2274875327832301,-0.9410108603695881
-3.9855,0.1314559590640864,-1.142346990067769
-3.985,0.1741366584948169,-0.9833974139902578
-3.9845,0.03542438534494258,-0.9304142219644207
-3.984,0.2488278824985954,-0.5171453241628908
-3.9835,0.5262524287983441,-0.06148987274069118
-3.983,0.6863050516635838,0.2246193641988295
-3.9825,0.7716664505250448,0.4047622170866759
-3.982,0.8783681991018712,0.4471487707073456
-3.9815,0.6649647019482183,0.7544512844572011
-3.981,-0.4127229586777283,1.199510097474233
-3.9805,-1.426389570157579,1.284283204715573
-3.98,-1.959898313041711,0.309392471440169
-3.9795,-1.522421143876723,-0.4323722169215513
-3.979,-0.690147504977477,-0.6866915386455698
-3.9785,0.02475421048725994,-0.6760949002404023
-3.978,0.5049120790829789,-0.5595318777835605
-3.9775,0.7609962756673623,-0.4323722169215513
-3.977,0.8676980242441885,-0.3158091944647096
-3.9765,0.8783681991018712,-0.2310360872233701
-3.976,0.857027849386506,-0.1568596183871981
-3.9755,0.8356874996711408,-0.09327978795619347
-3.975,0.857027849386506,-0.008506680714854012
-3.9745,0.9210488985326017,0.1610395337678249
-3.974,0.9103787236749192,0.2352160026039969
-3.9735,0.5049120790829789,0.4259554938970107
-3.973,-0.3487019095316325,0.849821030103708
-3.9725,-1.223656247861609,1.273686566310405
-3.972,-1.917217613610981,1.591585718465428
-3.9715,-1.87453691418025,1.633972272086098
-3.971,-1.031593100423322,1.146526905448396
-3.9705,-0.2313299860971235,0.5107286011383502
-3.97,0.3448594562177392,-0.01910331912002144
-3.9695,0.707645401378949,-0.3052125560595421
-3.969,0.9103787236749192,-0.4111789401112165
-3.9685,0.9317190733902845,-0.400582301706049
-3.968,0.6863050516635838,-0.4959520473525559
-3.9675,0.4302208550792003,-0.570128516188728
-3.967,-0.08194753808956648,-0.8880276683437509
-3.9665,0.08877525963335578,-0.5383386009732256
-3.966,0.2808384070716433,-0.1886495336027004
-3.9655,0.5689331282290746,0.1610395337678249
-3.965,1.113112045970889,0.7650479228623686
-3.9645,0.5262524287983441,1.316073119931075
-3.964,-0.690147504977477,1.602182356870596
-3.9635,-1.586442193022819,0.8074344764830383
-3.963,-1.629122892453549,-0.2416327256285375
-3.9625,-0.9675720512772257,-0.6549016234300674
-3.962,-0.2206598112394408,-0.6972881770507372
-3.9615,0.3555296310754218,-0.5807251545938954
-3.961,0.6863050516635838,-0.4217755785163839
-3.9605,0.825017324813458,-0.2840192792492073
-3.96,0.857027849386506,-0.1886495336027004
-3.9595,0.8463576745288233,-0.1038764263613609
-3.959,0.825017324813458,-0.04029659593035631
-3.9585,0.8356874996711408,0.02328323450064829
-3.958,0.857027849386506,0.1186529801471552
-3.9575,0.8676980242441885,0.2458126410091644
-3.957,0.5475927785137094,0.5319218779486851
-3.9565,-0.3807124341046804,0.9663840525605498
-3.956,-1.319687821580753,1.347863035146577
-3.9555,-1.87453691418025,1.549199164844759
-3.955,-1.83185621474952,1.559795803249926
-3.9545,-1.116954499284783,1.082947075017392
-3.954,-0.3166913849585846,0.4789386859228479
-3.9535,0.2488278824985954,-0.02969995752518888
-3.953,0.6116138276598051,-0.3687923864905467
-3.9525,0.825017324813458,-0.5277419625680583
-3.952,0.8997085488172365,-0.5065486857577234
-3.9515,0.7609962756673623,-0.5595318777835605
-3.951,0.5902734779444399,-0.5383386009732256
-3.9505,0.5902734779444399,-0.2840192792492073
-3.95,0.6649647019482183,0.01268659609548085
-3.9495,0.7503261008096795,0.2564092794143318
-3.949,0.3768699807907871,-0.008506680714854012
-3.9485,-0.6047861061160158,-0.7290780922662394
-3.948,-1.341028171296118,-0.2734226408440398
-3.9475,-2.109280761049269,0.5319218779486851
-3.947,-2.546757930214257,0.9028042221295453
-3.9465,-1.991908837614759,0.4895353243280153
-3.946,-1.042263275281004,-0.01910331912002144
-3.9455,-0.1886492866663929,-0.3581957480853793
-3.945,0.3982103305061524,-0.5171453241628908
-3.9445,0.7183155762366316,-0.5595318777835605
-3.944,0.8463576745288233,-0.5065486857577234
-3.9435,0.8783681991018712,-0.4323722169215513
-3.943,0.8676980242441885,-0.3370024712750445
-3.9425,0.8463576745288233,-0.2416327256285375
-3.942,0.8463576745288233,-0.1356663415768632
-3.9415,0.8463576745288233,-0.02969995752518888
-3.941,0.857027849386506,0.08686306493165288
-3.9405,0.7716664505250448,0.2987958330350016
-3.94,0.1848068333524996,0.6696781772158616
-3.9395,-0.7648387289812555,1.114736990232894
-3.939,-1.639793067311232,1.496215972818921
-3.9385,-2.183971985053047,1.739938656137773
-3.938,-1.725154466172693,1.528005888034424
-3.9375,-0.7861790786966207,0.9134008605347127
-3.937,0.04609456020262521,0.309392471440169
-3.9365,0.5796033030867573,-0.1356663415768632
-3.936,0.857027849386506,-0.3475991096802118
-3.9355,0.942389248247967,-0.3793890248957141
-3.935,0.8676980242441885,-0.3581957480853793
-3.9345,0.6009436528021226,-0.4217755785163839
-3.934,0.5582629533713921,-0.2734226408440398
-3.9335,0.6222840025174878,-0.04029659593035631
-3.933,0.7183155762366316,0.1928294489833272
-3.9325,0.79300680024041,0.3623756634660061
-3.932,0.7503261008096795,0.5743084315693548
-3.9315,0.2274875327832301,0.9875773293708847
-3.931,-0.658136980404429,1.305476481525908
-3.9305,-1.789175515318789,0.8074344764830383
-3.93,-2.215982509626095,-0.2946159176543747
-3.9295,-1.789175515318789,-0.9939940523954253
-3.929,-0.9462317015618604,-1.110557074852267
-3.9285,-0.08194753808956648,-0.8456411147230812
-3.928,0.4835717293676135,-0.570128516188728
-3.9275,0.7289857510943143,-0.400582301706049
-3.927,0.825017324813458,-0.2734226408440398
-3.9265,0.8356874996711408,-0.1780528951975329
-3.926,0.8143471499557753,-0.1038764263613609
-3.9255,0.825017324813458,-0.02969995752518888
-3.925,0.8463576745288233,0.04447651131098315
-3.9245,0.8676980242441885,0.1186529801471552
-3.924,0.857027849386506,0.2246193641988295
-3.9235,0.3448594562177392,0.5001319627331828
-3.923,-0.7114878546928423,0.9345941373450475
-3.9225,-1.682473766741963,1.305476481525908
-3.922,-2.408045657064382,1.485619334413754
-3.9215,-2.461396531352796,1.623375633680931
-3.921,-1.629122892453549,1.316073119931075
-3.9205,-0.6154562809736985,0.6484849004055269
-3.92,0.1634664836371343,0.05507314971615059
-3.9195,0.6329541773751706,-0.3052125560595421
-3.919,0.857027849386506,-0.4641621321370536
-3.9185,0.9103787236749192,-0.4535654937318862
-3.918,0.79300680024041,-0.4429688553267188
-3.9175,0.79300680024041,-0.3370024712750445
-3.917,0.8463576745288233,-0.1568596183871981
-3.9165,0.8676980242441885,0.04447651131098315
-3.916,0.8783681991018712,0.2034260873884947
-3.9155,0.8356874996711408,0.1928294489833272
-3.915,0.2808384070716433,-0.008506680714854012
-3.9145,-0.5941159312583333,0.3623756634660061
-3.914,-1.373038695869166,0.775644561267536
-3.9135,-1.853196564464885,0.3729723018711736
-3.913,-1.341028171296118,-0.1462629799820306
-3.9125,-0.7008176798351597,-0.5913217929990628
-3.912,-0.6261264558313813,-1.248313374119443
-3.9115,-0.1032878878049318,-1.131750351662602
-3.911,0.2488278824985954,-0.9410108603695881
-3.9105,0.5155822539406614,-0.6866915386455698
-3.91,0.7503261008096795,-0.400582301706049
-3.9095,0.8143471499557753,-0.2628260024388724
-3.909,0.8036769750980928,-0.2098428104130352
-3.9085,0.8143471499557753,-0.1462629799820306
-3.908,0.825017324813458,-0.08268314955102604
-3.9075,0.8463576745288233,0.002089957690313421
-3.907,0.5155822539406614,0.2564092794143318
-3.9065,-0.4554036581084589,0.7332580076468663
-3.906,-1.490410619303675,1.220703374284568
-3.9055,-2.290673733629873,1.580989080060261
-3.905,-2.536087755356574,1.729342017732605
-3.9045,-1.703814116457328,1.305476481525908
-3.904,-0.6688071552621118,0.5849050699745222
-3.9035,0.1527963087794516,0.05507314971615059
-3.903,0.6756348768059011,-0.2946159176543747
-3.9025,0.9317190733902845,-0.4323722169215513
-3.902,0.9957401225363802,-0.4111789401112165
-3.9015,0.825017324813458,-0.4323722169215513
-3.901,0.6436243522328531,-0.4535654937318862
-3.9005,0.6542945270905358,-0.252229364033705
-3.9,0.7396559259519968,0.002089957690313421
-3.8995,0.825017324813458,0.2246193641988295
-3.899,0.8676980242441885,0.3199891098453364
-3.8985,0.3982103305061524,-0.1038764263613609
-3.898,-0.391382608962363,-0.6972881770507372
-3.8975,-1.191645723288561,-0.4535654937318862
-3.897,-1.853196564464885,-0.008506680714854012
-3.8965,-1.597112367880501,-0.09327978795619347
-3.896,-0.754168554123573,-0.2310360872233701
-3.8955,-0.02859666380115328,-0.3475991096802118
-3.895,0.4622313796522482,-0.4429688553267188
-3.8945,0.7289857510943143,-0.4959520473525559
-3.894,0.6969752265212663,-0.6760949002404023
-3.8935,0.142126133921769,-1.269506650929778
-3.893,0.1101156093487211,-1.290699927740113
-3.8925,0.2274875327832301,-1.131750351662602
-3.892,0.3982103305061524,-0.9092209451540858
-3.8915,0.6329541773751706,-0.570128516188728
-3.891,0.79300680024041,-0.326405832869877
-3.8905,0.8036769750980928,-0.1568596183871981
-3.89,0.2168173579255475,0.309392471440169
-3.8895,-0.8928808272734472,0.8604176685088755
-3.889,-1.87453691418025,1.305476481525908
-3.8885,-2.269333383914508,1.602182356870596
-3.888,-1.789175515318789,1.496215972818921
-3.8875,-0.8502001278427167,0.9557874141553824
-3.887,-0.007256314085787988,0.3941655786815084
