Class_1_Relax_eyes_closed/Class_1_Relax_eyes_closed_AM_4.csv

#Digilent WaveForms Oscilloscope Acquisition
#Device Name: EExplorer
#Serial Number: SN:210151A2B84A
#Date Time: 2020-11-17 16:03:57.997
#Sample rate: 2000Hz
#Samples: 16384
#Trigger: Source: Channel 1 Type: Edge Condition: Rising Level: 0 V Hyst.: Auto HoldOff: 0 s
#Channel 1: Range: 1 V/div Offset: 0 V Attenuation: 1 X
#Channel 2: Range: 1 V/div Offset: 0 V Attenuation: 1 X
#Power Supplies: ON
#Fixed Supply: ON
#Voltage: 3.3 V Readback: 3.317 V
#Positive Supply: ON
#Voltage: 3.7 V Readback: 3.717 V
#Current: 500 mA Readback: 25 mA
#Negative Supply: ON
#Voltage: -3.7 V Readback: -3.697 V
#Current: -500 mA Readback: -9 mA
#Reference 1: ON
#Voltage: 0 V
#Reference 2: ON
#Voltage: 0 V

Time (s),Channel 1 (V),Channel 2 (V)
-4.096,0.3875401556484697,1.761131932948107
-4.0955,0.2915085819294133,1.231300012690217
-4.095,-0.2099896363822919,0.2987958330340378
-4.0945,-0.7968492535543035,-0.7608680074817418
-4.094,-1.25566677243424,-1.587405803084049
-4.0935,-1.309017646722401,-1.990078062480836
-4.093,-0.572775581542968,-1.629792356705471
-4.0925,0.2061471830671564,-1.131750351663055
-4.092,0.6649647019483639,-0.8456411147230427
-4.0915,0.825017324813458,-0.8032545611024114
-4.091,0.825017324813458,-0.8880276683437509
-4.0905,0.7609962756673041,-0.951607498774794
-4.09,0.6969752265212663,-0.9939940523954253
-4.0895,0.7716664505250448,-0.9198175835592532
-4.089,0.8463576745287553,-0.8032545611025175
-4.0885,0.7609962756673623,-0.7502713690765743
-4.088,0.6222840025174878,-0.6654982618352349
-4.0875,0.5262524287984315,-0.5277419625681836
-4.087,0.8463576745293085,-0.1780528951967619
-4.0865,1.379866417412955,0.6696781772158616
-4.086,0.8997085488176733,0.7650479228622818
-4.0855,-0.1352984123789792,-0.008506680715557555
-4.085,-1.234326422719292,-0.7820612842920766
-4.0845,-2.002579012471744,-1.205926820498389
-4.084,-1.842526389606533,-1.227120097308444
-4.0835,-1.1062843244271,-0.4959520473525559
-4.083,-0.4127229586777283,0.6590815388106942
-4.0825,0.07810508477591575,1.538602526440034
-4.082,0.3448594562177392,2.026047893077293
-4.0815,0.4622313796522482,2.237980661180642
-4.081,0.4729015545099212,2.269770576396115
-4.0805,0.4515612047945656,2.195594107559972
-4.08,0.4195506802215176,2.036644531482461
-4.0795,0.4088805053638447,1.814115124974147
-4.079,0.3448594562172539,1.464426057602639
-4.0785,-0.1886492866663929,0.6060983467848571
-4.078,-0.6794773301193479,-0.4323722169206068
-4.0775,-0.9142211769887639,-1.30129656614584
-4.077,-0.8608703027003992,-1.915901593644992
-4.0765,-0.2206598112400232,-1.83112848640373
-4.076,0.4622313796526072,-1.333086481360436
-4.0755,0.857027849386506,-0.9516074987747555
-4.075,0.9637295979633325,-0.8456411147230812
-4.0745,0.9103787236748124,-0.8456411147231294
-4.074,0.79300680024041,-0.8986243067489184
-4.0735,0.6969752265212663,-0.9833974139902578
-4.073,0.7076454013789394,-0.9939940523954156
-4.0725,0.857027849386506,-0.9939940523954253
-4.072,0.8036769750980928,-0.9622041371799229
-4.0715,0.6756348768060175,-0.856237753128345
-4.071,0.558262953371528,-0.6654982618347434
-4.0705,0.707645401378949,-0.1250697031716958
-4.07,1.027750647109137,0.5849050699738765
-4.0695,0.4942419042244615,0.2564092794136572
-4.069,-0.423393133535411,-0.4853554089473885
-4.0685,-1.383708870726849,-1.046977244421262
-4.068,-2.194642159910865,-1.258910012524543
-4.0675,-2.344024607918286,-1.184733543688439
-4.067,-1.533091318734406,-0.6443049850249
-4.0665,-0.7008176798345969,0.4683420475185575
-4.066,-0.08194753808956648,1.432636142387917
-4.0655,0.2808384070716433,1.983661339456623
-4.065,0.4408910299367373,2.216787384370095
-4.0645,0.4835717293676135,2.237980661180642
-4.064,0.4622313796522482,2.142610915534135
-4.0635,0.4302208550792295,1.962468062646452
-4.063,0.398210330506133,1.75053529454269
-4.0625,0.3768699807907871,1.475022696008586
-4.062,0.07810508477594486,1.008770606181644
-4.0615,-0.4554036581087694,0.04447651131007722
-4.061,-0.7968492535543035,-0.9516074987747555
-4.0605,-1.148965023857831,-1.714565463946811
-4.06,-0.9782422261342,-1.820531847998042
-4.0595,-0.1993194615240755,-1.333086481360783
-4.059,0.4729015545099309,-0.9622041371799229
-4.0585,0.8143471499554648,-0.7290780922664515
-4.058,0.8890383739595538,-0.7396747306714069
-4.0575,0.8356874996711408,-0.8456411147230812
-4.057,0.7396559259520842,-0.9516074987746591
-4.0565,0.6756348768059011,-1.05757388282643
-4.056,0.825017324813458,-1.195330182093607
-4.0555,0.825017324813458,-1.089363798042029
-4.055,0.7183155762365345,-0.8138511995072801
-4.0545,0.6116138276598051,-0.4853554089473885
-4.054,0.5049120790830759,-0.008506680715287707
-4.0535,0.5155822539405158,0.7862411996726264
-4.053,0.3555296310754218,0.701468092431364
-4.0525,-0.1779791118087102,-0.1144730647665284
-4.052,-0.9889124009933287,-0.8774310299389689
-4.0515,-1.799845690176472,-1.301296566145281
-4.051,-2.354694782775969,-1.38606967338662
-4.0505,-1.906547438753706,-1.19533018209378
-4.05,-1.06360362499637,-0.4217755785163839
-4.0495,-0.3380317346739499,0.701468092431364
-4.049,0.1314559590636594,1.528005888033672
-4.0485,0.3768699807908744,1.983661339456777
-4.048,0.4729015545099309,2.153207553939303
-4.0475,0.4729015545099309,2.110821000318671
-4.047,0.4408910299368539,1.973064701051263
-4.0465,0.408880505363835,1.761131932948107
-4.046,0.3768699807908162,1.475022696008847
-4.0455,0.2061471830675737,0.9663840525596535
-4.045,-0.1139580626626144,-0.01910331912002144
-4.0445,-0.6154562809736985,-1.004590690800593
-4.044,-1.052933450138571,-1.746355379162486
-4.0435,-0.9248913518464952,-1.937094870455327
-4.043,-0.1886492866663929,-1.587405803084801
-4.0425,0.4622313796516562,-1.142346990068174
-4.042,0.8036769750980928,-0.9092209451540858
-4.0415,0.8997085488172365,-0.9092209451540858
-4.041,0.8463576745288718,-1.004590690800506
-4.0405,0.750326100809631,-1.025783967610908
-4.04,0.6969752265212663,-1.004590690800593
-4.0395,0.8036769750979957,-1.110557074852171
-4.039,0.8783681991017742,-1.068170521231347
-4.0385,0.7716664505250448,-0.792657922697244
-4.038,0.6436243522329695,-0.4429688553270368
-4.0375,0.5582629533716735,-0.06148987274006473
-4.037,0.8676980242441885,0.627291623595192
-4.0365,0.9850699476786977,1.051157159801889
-4.036,0.2274875327823664,0.425955493896259
-4.0355,-0.722158029550525,-0.400582301706049
-4.035,-1.629122892453549,-1.004590690800593
-4.0345,-2.312014083344618,-1.269506650929537
-4.034,-1.991908837614759,-1.121153713257435
-4.0335,-1.159635198715513,-0.2204394488182027
-4.033,-0.4233931335360805,0.8816109453182082
-4.0325,0.08877525963359839,1.644568910491622
-4.032,0.3555296310754218,2.036644531482461
-4.0315,0.4622313796521512,2.163804192344355
-4.031,0.4729015545099018,2.121417638723675
-4.0305,0.4408910299368829,1.983661339456623
-4.03,0.4088805053638641,1.782325209758626
-4.0295,0.3875401556483727,1.475022696007998
-4.029,0.2808384070716433,0.8286277532933731
-4.0285,-0.3166913849585846,0.04447651131098315
-4.028,-0.9355615267045367,-0.8668343915341004
-4.0275,-1.330357996438436,-1.619195718300304
-4.027,-1.565101843307454,-2.085447808127671
-4.0265,-0.9462317015624233,-1.8523217632142
-4.026,-0.03926683865883591,-1.280103289334946
-4.0255,0.5902734779444399,-0.8880276683437509
-4.025,0.8463576745285903,-0.7502713690766996
-4.0245,0.8676980242441206,-0.7820612842920959
-4.024,0.79300680024041,-0.8032545611024114
-4.0235,0.7076454013790267,-0.8880276683436739
-4.023,0.718315576236748,-1.057573882826526
-4.0225,0.8463576745288233,-1.163540266878104
-4.022,0.8143471499558044,-0.9833974139904217
-4.0215,0.7716664505249866,-0.6549016234297493
-4.021,0.707645401378949,-0.3052125560595421
-4.0205,0.6009436528021226,0.2670059178194992
-4.02,0.2168173579249749,1.146526905448579
-4.0195,-0.4127229586777283,1.347863035146577
-4.019,-1.1062843244271,0.4789386859228479
-4.0185,-1.799845690175841,-0.4959520473516693
-4.018,-2.386705307349017,-1.131750351662602
-4.0175,-2.055929886760855,-1.333086481360783
-4.017,-1.20231589814702,-0.824447837913209
-4.0165,-0.4340633083926279,0.3411823866565675
-4.016,0.07810508477567314,1.326669758336243
-4.0155,0.3555296310751695,1.856501678594132
-4.015,0.4622313796522676,2.057837808292805
-4.0145,0.4835717293676135,2.068434446697963
-4.014,0.4515612047945947,1.9836613394567
-4.0135,0.4088805053638059,1.867098316999637
-4.013,0.3768699807907871,1.70814874092227
-4.0125,0.3448594562177392,1.432636142387917
-4.012,0.3555296310754315,0.6590815388097786
-4.0115,0.3661998059331045,-0.3475991096802118
-4.011,-0.2206598112394408,-1.216523458903942
-4.0105,-0.7221580295500689,-1.862918401618567
-4.01,-0.4340633083930936,-1.968884785670829
-4.0095,0.2168173579255475,-1.460246142222792
-4.009,0.6863050516631568,-0.9833974139906916
-4.0085,0.8676980242441885,-0.707884815455866
-4.008,0.8676980242441885,-0.6654982618352349
-4.0075,0.7823366253828051,-0.6972881770507083
-4.007,0.70764540137892,-0.729078092266278
-4.0065,0.6756348768059011,-0.7714646458869092
-4.006,0.8356874996711408,-0.9198175835592532
-4.0055,0.8250173248133512,-0.8456411147228788
-4.005,0.707645401378949,-0.6231117082145651
-4.0045,0.5902734779444399,-0.3581957480853793
-4.004,0.5369226036556676,0.002089957690988052
-4.0035,0.142126133921769,0.7438546460520338
-4.003,-0.5621054066852853,0.7650479228623686
-4.0025,-1.095614149568932,-0.02969995752446597
-4.002,-1.650463242168915,-0.8456411147230812
-4.0015,-2.247993034199143,-1.354279758171118
-4.001,-2.472066706210274,-1.502632695843327
-4.0005,-1.693143941598859,-1.099960436446088
-4,-0.8288597781273515,0.01268659609548085
-3.9995,-0.1673089369510276,1.040560521396722
-3.999,0.2381577076409128,1.676358825706768
-3.9985,0.4302208550792003,1.962468062646288
-3.998,0.4835717293676135,2.036644531482461
-3.9975,0.4729015545099309,1.962468062646288
-3.997,0.4302208550792003,1.803518486568777
-3.9965,0.3982103305061524,1.612778995275763
-3.996,0.3768699807907871,1.369056311956912
-3.9955,0.08877525963335578,0.6484849004055269
-3.995,-0.5407650569699201,-0.400582301706049
-3.9945,-0.9782422261349084,-1.311893204550448
-3.994,-1.244996597576974,-2.000674700886331
-3.9935,-1.170305373573196,-2.25499402261035
-3.993,-0.3593720843893152,-1.714565463946811
-3.9925,0.4195506802215176,-1.163540266878104
-3.992,0.8356874996711408,-0.792657922697244
-3.9915,0.942389248247967,-0.6972881770507372
-3.991,0.8890383739595538,-0.6760949002404023
-3.9905,0.7823366253827275,-0.6760949002404023
-3.99,0.707645401378949,-0.7608680074817418
-3.9895,0.825017324813458,-0.9304142219644207
-3.989,0.8783681991018712,-0.9728007755850904
-3.9885,0.7716664505250448,-0.8244478379127463
-3.988,0.6436243522328531,-0.5807251545938954
-3.9875,0.5689331282290746,-0.2840192792492073
-3.987,0.9530594231056497,0.4365521323021782
-3.9865,1.337185717982225,1.146526905448396
-3.986,0.7289857510943143,0.7120647308365314
-3.9855,-0.2526703358124887,-0.1250697031716958
-3.985,-1.287677297007705,-0.8668343915334161
-3.9845,-2.055929886760855,-1.269506650929778
-3.984,-1.906547438753298,-1.174136905283272
-3.9835,-1.170305373573196,-0.2416327256285375
-3.983,-0.4554036581084589,0.849821030103708
-3.9825,0.04609456020262521,1.612778995275763
-3.982,0.3341892813600565,2.026047893077293
-3.9815,0.4408910299368829,2.195594107559972
-3.981,0.4622313796522482,2.184997469154805
-3.9805,0.4408910299368829,2.068434446697963
-3.98,0.408880505363835,1.888291593810116
-3.9795,0.3875401556484697,1.686955464111935
-3.979,0.3128489316446912,1.305476481525908
-3.9785,-0.2099896363817582,0.383568940276341
-3.978,-0.754168554123573,-0.6760949002404023
-3.9775,-1.170305373573196,-1.523825972653797
-3.977,-1.362368521011484,-2.117237723343173
-3.9765,-0.690147504977477,-1.979481424075996
-3.976,0.1848068333524996,-1.38606967338662
-3.9755,0.7503261008096795,-0.9728007755850904
-3.975,0.9637295979633325,-0.7502713690765743
-3.9745,0.9530594231056497,-0.7608680074817418
-3.974,0.8356874996711408,-0.8456411147230812
-3.9735,0.7289857510943143,-0.9304142219644207
-3.973,0.7503261008096795,-0.9622041371799229
-3.9725,0.9103787236749192,-0.9198175835592532
-3.972,0.8676980242441885,-0.8880276683437509
-3.9715,0.7289857510943143,-0.792657922697244
-3.971,0.5902734779444399,-0.6337083466197325
-3.9705,0.5475927785137094,-0.1144730647665284
-3.97,0.5155822539406614,0.4895353243280153
-3.9695,0.08877525963335578,0.08686306493165288
-3.969,-0.5407650569699201,-0.570128516188728
-3.9685,-1.30901764672307,-0.9833974139902578
-3.968,-1.991908837614759,-1.110557074852267
-3.9675,-1.949228138184029,-0.8350444763179138
-3.967,-1.244996597576974,0.1186529801471552
-3.9665,-0.5194247072545548,1.157123543853563
-3.966,0.00341386077189465,1.888291593810116
-3.9655,0.3021787567870086,2.301560491611646
-3.965,0.4408910299368829,2.481703344499493
-3.9645,0.4622313796522482,2.49229998290466
-3.964,0.4408910299368829,2.386333598852986
-3.9635,0.408880505363835,2.20619074596514
-3.963,0.3768699807907871,1.973064701051456
-3.9625,0.3235191065023739,1.655165548896433
-3.962,-0.1779791118087102,0.9028042221295453
-3.9615,-0.9569018764195432,-0.2204394488182027
-3.961,-1.447729919872945,-1.195330182093607
-3.9605,-1.757164990745741,-1.905304955239825
-3.96,-1.212986073003927,-1.88411167842949
-3.9595,-0.2099896363817582,-1.375473034981453
-3.959,0.5369226036560266,-1.025783967610927
-3.9585,0.8783681991018712,-0.8562377531282487
-3.958,0.9317190733902845,-0.8668343915334161
-3.9575,0.857027849386506,-0.9622041371799229
-3.957,0.7609962756673623,-1.078767159636765
-3.9565,0.7183155762366316,-1.121153713257435
-3.956,0.8676980242441885,-1.195330182093607
-3.9555,0.8463576745288233,-1.01518732920576
-3.955,0.707645401378949,-0.6972881770507372
-3.9545,0.5796033030867573,-0.3581957480853793
-3.954,0.4835717293676135,0.09745970333682032
-3.9535,-0.08194753808956648,0.6590815388106942
-3.953,-0.807519428411986,0.2564092794143318
-3.9525,-1.202315898146244,-0.5383386009732256
-3.952,-1.693143941599645,-1.142346990067769
-3.9515,-2.205312334768412,-1.407262950196955
-3.951,-2.098610586191586,-1.38606967338662
-3.9505,-1.319687821580753,-1.004590690800593
-3.95,-0.5514352318276028,0.02328323450064829
-3.9495,0.00341386077189465,1.093543713422559
-3.949,0.3128489316446912,1.739938656137773
-3.9485,0.4515612047945656,2.015451254672126
-3.948,0.4729015545099309,2.057837808292796
-3.9475,0.4515612047945656,1.951871424241121
-3.947,0.4195506802215176,1.771728571353275
-3.9465,0.3875401556484697,1.549199164844759
-3.946,0.3661998059331045,1.316073119931075
-3.9455,0.1207857842064037,0.8180311148882058
-3.945,-0.5834457564006506,-0.1568596183871981
-3.9445,-1.074273799854052,-1.0999604364471
-3.944,-1.415719395299897,-1.831128486403653
-3.9435,-1.287677297007705,-2.021867977696666
-3.943,-0.391382608962363,-1.439052865412457
-3.9425,0.4302208550792003,-0.8986243067489184
-3.942,0.857027849386506,-0.6337083466197325
-3.9415,0.9530594231056497,-0.6549016234300674
-3.941,0.8783681991018712,-0.7608680074817418
-3.9405,0.7503261008096795,-0.8562377531282487
-3.94,0.6436243522328531,-0.9516074987747555
-3.9395,0.7716664505250448,-1.046977244421262
-3.939,0.857027849386506,-0.9622041371799229
-3.9385,0.7716664505250448,-0.7608680074817418
-3.938,0.6436243522328531,-0.5171453241628908
-3.9375,0.5262524287983441,-0.1780528951975329
-3.937,0.6009436528021226,0.5743084315693548
-3.9365,0.6116138276598051,0.8922075837243778
-3.936,-0.08194753808956648,0.1822328105781598
-3.9355,-1.06360362499637,-0.6760949002404023
-3.935,-1.938557963326346,-1.227120097309109
-3.9345,-2.568098279929622,-1.42845622700729
-3.934,-2.087940411333903,-1.237716735714276
-3.9335,-1.170305373573196,-0.3370024712750445
-3.933,-0.4020527838200457,0.7968378380778709
-3.9325,0.1101156093487211,1.591585718465428
-3.932,0.3768699807907871,2.015451254672126
-3.9315,0.4729015545099309,2.16380419234447
-3.931,0.4835717293676135,2.142610915534135
-3.9305,0.4515612047945656,2.015451254672126
-3.93,0.408880505363835,1.845905040189447
-3.9295,0.3768699807907871,1.602182356870596
-3.929,0.3341892813600565,1.273686566310405
-3.9285,0.3768699807907871,0.55311515475902
-3.928,0.1527963087794516,-0.4641621321370536
-3.9275,-0.4554036581084589,-1.301296566145281
-3.927,-0.8502001278427167,-1.640388995110639
-3.9265,-0.3273615598162672,-1.38606967338662
-3.926,0.3448594562177392,-1.046977244421262
-3.9255,0.7716664505250448,-0.8350444763179138
-3.925,0.8997085488172365,-0.7714646458869092
-3.9245,0.857027849386506,-0.8456411147230812
-3.924,0.7503261008096795,-0.9939940523954253
-3.9235,0.6863050516635838,-1.0999604364471
-3.923,0.7289857510943143,-1.152943628472937
-3.9225,0.8463576745288233,-1.0999604364471
-3.922,0.7823366253827275,-0.8138511995075789
-3.9215,0.6436243522328531,-0.4641621321370536
-3.921,0.5369226036560266,-0.1250697031716958
-3.9205,0.4835717293676135,0.4153588554918433
-3.92,0.5262524287983441,0.9769806909657173
-3.9195,0.02475421048725994,0.4789386859228479
-3.919,-0.7328282044082075,-0.3475991096802118
-3.9185,-1.490410619303675,-0.9198175835592532
-3.918,-2.119950935906951,-1.248313374119443
-3.9175,-1.895877263895616,-1.205926820498774
-3.917,-1.127624674142465,-0.3687923864905467
-3.9165,-0.423393133535411,0.7438546460520338
-3.916,0.07810508477567314,1.517409249629256
-3.9155,0.3448594562177392,1.941274785835954
-3.915,0.4515612047945656,2.100224361913465
-3.9145,0.4622313796522482,2.089627723508298
-3.914,0.4408910299368829,1.973064701051456
-3.9135,0.408880505363835,1.803518486568777
-3.913,0.3768699807907871,1.612778995275763
-3.9125,0.3448594562177392,1.305476481525908
-3.912,0.02475421048725994,0.4365521323021782
-3.9115,-0.3593720843893152,-0.6231117082145651
-3.911,-0.6047861061160158,-1.481439419033127
-3.9105,-0.6474668055467465,-2.074851169722503
-3.91,-0.08194753808956648,-2.117237723343173
-3.9095,0.5689331282290746,-1.693372187136476
-3.909,0.9317190733902845,-1.216523458903942
-3.9085,0.9957401225363802,-0.9198175835592532
-3.908,0.9103787236749192,-0.8350444763179138
-3.9075,0.8036769750980928,-0.8668343915334161
-3.907,0.6969752265212663,-0.9198175835592532
-3.9065,0.6756348768059011,-0.9410108603695881
-3.906,0.825017324813458,-0.6972881770507372
-3.9055,0.8143471499557753,-0.5595318777835605
-3.905,0.6969752265212663,-0.4959520473525559
-3.9045,0.5796033030867573,-0.3793890248957141
-3.904,0.5796033030867573,-0.07208651114585861
-3.9035,1.038420821967111,0.7438546460520338
-3.903,1.19847344483235,1.135930267043229
-3.9025,0.3875401556484697,0.4789386859228479
-3.902,-0.7114878546928423,-0.2946159176543747
-3.9015,-1.703814116457328,-0.8880276683437509
-3.901,-2.247993034199143,-1.142346990067769
-3.9005,-1.746494815888059,-0.718481453861072
-3.9,-0.9462317015618604,0.3623756634660061
-3.8995,-0.274010685527854,1.347863035146577
-3.899,0.1527963087794516,1.983661339456623
-3.8985,0.3768699807907871,2.312157130016814
-3.898,0.4515612047945656,2.407526875663321
-3.8975,0.4515612047945656,2.322753768421981
-3.897,0.4195506802215176,2.184997469154805
-3.8965,0.3875401556484697,2.004854616266958
-3.896,0.3661998059331045,1.782325209758442
-3.8955,0.02475421048725994,1.199510097474233
-3.895,-0.5407650569699201,0.1504428953626575
-3.8945,-0.754168554123573,-0.8774310299385835
-3.894,-1.031593100423322,-1.672178910326141
-3.8935,-0.9035510021311299,-1.979481424075996
-3.893,-0.124628237520297,-1.587405803084801
-3.8925,0.5582629533713921,-1.152943628472937
-3.892,0.8676980242441885,-0.8880276683437509
-3.8915,0.9210488985326017,-0.8456411147230812
-3.891,0.8356874996711408,-0.9410108603695881
-3.8905,0.7183155762366316,-1.046977244421262
-3.89,0.6542945270905358,-1.121153713257435
-3.8895,0.7716664505250448,-1.258910012524611
-3.889,0.825017324813458,-1.163540266878104
-3.8885,0.7289857510943143,-0.8774310299385835
-3.888,0.5902734779444399,-0.5595318777835605
-3.8875,0.5155822539406614,-0.1780528951975329
-3.887,0.1101156093487211,0.6378882620003594
-3.8865,-0.7328282044082075,1.316073119931075
-3.886,-1.575772018165136,0.8180311148882058
-3.8855,-2.322684258202921,-0.1886495336027004
-3.885,-2.706810553079496,-1.004590690800593
