Class_10_Using_Wats_App/Class_10_WatsApp_UZ_4.csv

#Digilent WaveForms Oscilloscope Acquisition
#Device Name: EExplorer
#Serial Number: SN:210151A2B84A
#Date Time: 2020-12-03 12:24:36.232
#Sample rate: 2000Hz
#Samples: 16384
#Trigger: Source: Channel 1 Type: Edge Condition: Rising Level: 0 V Hyst.: Auto HoldOff: 0 s
#Channel 1: Range: 1 V/div Offset: 0 V Attenuation: 1 X
#Channel 2: Range: 1 V/div Offset: 0 V Attenuation: 1 X
#Power Supplies: ON
#Fixed Supply: ON
#Voltage: 3.3 V Readback: 3.331 V
#Positive Supply: ON
#Voltage: 3.7 V Readback: 3.688 V
#Current: 40 mA Readback: 83 mA
#Negative Supply: ON
#Voltage: -3.7 V Readback: -4.876 V
#Current: -40 mA Readback: 0 A
#Reference 1: ON
#Voltage: 0 V
#Reference 2: ON
#Voltage: 0 V

Time (s),Channel 1 (V),Channel 2 (V)
-4.096,0.1954770082101822,0.5425185163538525
-4.0955,0.3021787567869116,0.5319218779486947
-4.095,0.6863050516642243,0.3517790250601351
-4.0945,1.390536592270638,-0.4217755785163839
-4.094,1.998736559157995,-1.258910012523849
-4.0935,2.190799706596593,-1.608599079894587
-4.093,1.92404533515477,-1.004590690800593
-4.0925,1.358526067698104,-0.2840192792498627
-4.092,0.803676975097724,0.29879583303531
-4.0915,0.3982103305061524,0.6378882620003594
-4.091,0.1527963087794516,0.7862411996727035
-4.0905,0.03542438534490376,0.8392243916985502
-4.09,-0.007256314085787988,0.849821030103708
-4.0895,-0.156638762093345,0.7332580076468663
-4.089,-0.2633405106700744,0.6166949851901306
-4.0885,-0.2206598112394408,0.627291623595192
-4.088,-0.1352984123779797,0.6908714540261965
-4.0875,-0.06060718837426912,0.7438546460519856
-4.087,-0.08194753808998377,0.7226613692412459
-4.0865,-0.5407650569699201,0.2246193641988295
-4.086,-1.597112367879541,-0.9304142219633702
-4.0855,-2.087940411333816,-1.767548655972976
-4.085,-1.991908837614759,-2.127834361748341
-4.0845,-1.874536914180357,-2.053657892912236
-4.084,-1.277007122149411,-1.216523458903093
-4.0835,-0.6047861061160158,-0.2840192792492073
-4.083,-0.2206598112394408,0.2987958330350016
-4.0825,-0.01792648894338329,0.5955017083797957
-4.082,0.07810508477567314,0.7120647308365314
-4.0815,0.09944543449103843,0.7120647308365314
-4.081,0.09944543449103843,0.680274815621058
-4.0805,0.09944543449103843,0.627291623595192
-4.08,0.1207857842064037,0.5849050699745222
-4.0795,0.1314559590640766,0.542518516353891
-4.079,0.1527963087795778,0.5319218779486754
-4.0785,0.291508581929326,0.5213252395435176
-4.078,0.6863050516632248,0.1186529801475214
-4.0775,1.251824319121152,-0.6443049850255747
-4.077,1.678631313428069,-1.38606967338662
-4.0765,2.052087433446622,-1.809935209592932
-4.076,1.796003236862074,-1.354279758170347
-4.0755,1.241154144263081,-0.5065486857577234
-4.075,0.6863050516635838,0.1716361721729923
-4.0745,0.3021787567868048,0.6060983467850691
-4.074,0.07810508477567314,0.8392243916985406
-4.0735,-0.01792648894347063,0.9134008605347127
-4.073,-0.0926177129471812,0.9134008605347127
-4.0725,-0.2420001609548061,0.8604176685088755
-4.072,-0.2313299860971235,0.8180311148882058
-4.0715,-0.1673089369510858,0.7862411996727323
-4.071,-0.1032878878049123,0.7544512844571626
-4.0705,-0.08194753808956648,0.7120647308365314
-4.07,-0.2740106855276793,0.5213252395436911
-4.0695,-1.063603624997379,-0.2946159176555601
-4.069,-2.173301810195364,-1.598002441489969
-4.0685,-2.173301810195364,-2.106641084938006
-4.068,-2.36536495763338,-2.47752342911848
-4.0675,-2.066600061618538,-2.053657892912168
-4.067,-1.277007122150022,-1.036380606016095
-4.0665,-0.5941159312579742,-0.1568596183867451
-4.066,-0.1993194615240755,0.3411823866556712
-4.0655,0.01408403562957729,0.6060983467848571
-4.065,0.0994454344909608,0.6908714540261194
-4.0645,0.1207857842064037,0.6908714540261965
-4.064,0.1101156093487211,0.6484849004055269
-4.0635,0.120785784206394,0.6060983467848956
-4.063,0.1421261339218175,0.5743084315693452
-4.0625,0.1954770082101822,0.5637117931641874
-4.062,0.2488278824985469,0.5319218779487139
-4.0615,0.6542945270912442,0.08686306493085297
-4.061,1.433217291701369,-0.792657922697244
-4.0605,2.030747083731597,-1.545019249464132
-4.06,2.073427783161949,-1.672178910325534
-4.0595,1.657290963712704,-1.004590690800593
-4.059,1.102441871113207,-0.2204394488182027
-4.0585,0.6329541773755976,0.3517790250603182
-4.058,0.291508581929326,0.701468092431364
-4.0575,0.09944543449103843,0.8922075837243778
-4.057,0.003413860771981997,0.934594137345009
-4.0565,-0.04993701351651855,0.92399749893988
-4.056,-0.2099896363817582,0.849821030103708
-4.0555,-0.242000160954777,0.7756445612676035
-4.055,-0.1779791118086423,0.7332580076468375
-4.0545,-0.1032878878049318,0.701468092431364
-4.054,-0.03926683865889415,0.6802748156210484
-4.0535,-0.1673089369515808,0.5637117931636284
-4.053,-0.7755089038389382,-0.05089323433552374
-4.0525,-1.67180359188428,-0.9410108603695881
-4.052,-2.600108804502718,-2.053657892912448
-4.0515,-2.653459678791083,-2.360960406662024
-4.051,-2.418715831922065,-2.138431000153508
-4.0505,-1.639793067311941,-1.258910012525411
-4.05,-0.7968492535543035,-0.2840192792492073
-4.0495,-0.2633405106701714,0.3199891098453364
-4.049,-0.007256314086020899,0.6166949851897547
-4.0485,0.09944543449106755,0.7226613692417085
-4.048,0.1314559590640864,0.7332580076468663
-4.0475,0.1207857842064134,0.7014680924313929
-4.047,0.1101156093487308,0.648484900405498
-4.0465,0.1207857842064037,0.6166949851900245
-4.046,0.1421261339217496,0.5849050699745511
-4.0455,0.1954770082105995,0.5849050699746957
-4.045,0.6542945270905358,0.775644561267536
-4.0445,1.337185717982225,0.4683420475176805
-4.044,1.710641838001302,-0.4111789401119585
-4.0435,1.913375160297087,-1.227120097309109
-4.043,1.92404533515477,-1.42845622700729
-4.0425,1.529248865420871,-0.8138511995081379
-4.042,1.006410297394063,-0.1038764263613609
-4.0415,0.5369226036560266,0.4789386859228479
-4.041,0.2274875327835115,0.8074344764827396
-4.0405,0.05676473506023993,0.9557874141554209
-4.04,-0.01792648894347063,0.9981739677760521
-4.0395,-0.1779791118085647,0.8710143069141586
-4.039,-0.3273615598162284,0.690871454026158
-4.0385,-0.2846808603855366,0.6484849004055269
-4.038,-0.1886492866664802,0.6590815388106845
-4.0375,-0.09261771294725883,0.6802748156209906
-4.037,-0.1032878878049318,0.6378882620003594
-4.0365,-0.722158029550525,0.04447651131098315
-4.036,-1.863866739322597,-1.184733543688873
-4.0355,-1.895877263895616,-1.661582271920973
-4.035,-1.981238662757077,-2.159624276963843
-4.0345,-1.938557963326385,-2.149027638558685
-4.034,-1.298347471865388,-1.290699927740113
-4.0335,-0.658136980404429,-0.400582301706049
-4.033,-0.2633405106705304,0.1716361721724718
-4.0325,-0.03926683865872917,0.5001319627333081
-4.032,0.07810508477567314,0.6378882620003594
-4.0315,0.110115609348692,0.6590815388106749
-4.031,0.1101156093487211,0.6378882620003209
-4.0305,0.1101156093487211,0.5955017083796896
-4.03,0.120785784206394,0.5637117931642163
-4.0295,0.152796308779471,0.5425185163538429
-4.029,0.1741366584948169,0.5319218779486851
-4.0285,0.4408910299368829,0.4259554938970107
-4.028,1.19847344483302,-0.2522293640344856
-4.0275,1.934715510012453,-1.110557074852267
-4.027,2.361522504319758,-1.75695201756748
-4.0265,2.457554078038815,-2.011271339291267
-4.026,2.009406734016231,-1.333086481360783
-4.0255,1.326515543124542,-0.4111789401112165
-4.025,0.7289857510948577,0.3199891098446714
-4.0245,0.3021787567867951,0.7544512844573746
-4.024,0.0674349099179905,0.9451907757502149
-4.0235,-0.03926683865873887,0.9875773293708462
-4.023,-0.1246282375204329,1.029963882991612
-4.0225,-0.274010685527854,1.093543713422559
-4.022,-0.2526703358125081,0.9769806909658233
-4.0215,-0.1779791118086326,0.8074344764829131
-4.021,-0.09261771294724913,0.6696781772158616
-4.0205,-0.03926683865883591,0.5637117931641874
-4.02,-0.2953510352437725,0.214022725793026
-4.0195,-0.9035510021311299,-0.4853554089473885
-4.019,-1.842526389607202,-1.598002441489969
-4.0185,-2.514747405640597,-2.318573853040699
-4.018,-2.696140378221814,-2.403346960282694
-4.0175,-2.290673733629873,-1.873515040024322
-4.017,-1.437059745016038,-0.8880276683446472
-4.0165,-0.6261264558309737,0.01268659609593382
-4.016,-0.1779791118087102,0.5107286011383502
-4.0155,0.03542438534474848,0.7332580076466639
-4.015,0.1207857842064134,0.7968378380778709
-4.0145,0.1314559590640864,0.7968378380778709
-4.014,0.1101156093487405,0.7544512844572396
-4.0135,0.1101156093487502,0.7120647308365026
-4.013,0.142126133921769,0.6802748156210291
-4.0125,0.1954770082101822,0.6590815388106942
-4.012,0.216817357925858,0.6166949851896294
-4.0115,0.5582629533713921,0.1822328105781598
-4.011,1.113112045970889,-0.6760949002404023
-4.0105,1.379866417412713,-1.396666311791132
-4.01,1.497238340847464,-1.767548655972648
-4.0095,1.35852606769759,-1.364876396576285
-4.009,1.006410297394383,-0.5701285161894508
-4.0085,0.6436243522325911,0.1186529801475407
-4.008,0.3555296310754218,0.5425185163538525
-4.0075,0.152796308779636,0.775644561267324
-4.007,0.04609456020256699,0.8710143069140526
-4.0065,-0.01792648894347063,0.8816109453192104
-4.006,-0.2099896363817582,0.8074344764830383
-4.0055,-0.2526703358124305,0.7332580076468278
-4.005,-0.1886492866663929,0.6908714540261965
-4.0045,-0.1139580626626144,0.6484849004055269
-4.004,-0.0499370135166156,0.6166949851899185
-4.0035,-0.156638762093345,0.5001319627331828
-4.003,-0.7434983792658902,-0.08268314955102604
-4.0025,-1.255666772434191,-0.8032545611017561
-4.002,-1.586442193022819,-1.47084278062796
-4.0015,-2.162631635337682,-2.117237723343173
-4.001,-1.682473766742399,-1.481439419033705
-4.0005,-1.063603624995923,-0.6866915386449916
-4,-0.572775581542968,-0.05089323433552374
-3.9995,-0.1459685872356623,0.457745409112513
-3.999,0.08877525963335578,0.7120647308365314
-3.9985,0.1101156093487211,0.7332580076468663
-3.998,0.09944543449103843,0.701468092431364
-3.9975,0.07810508477567314,0.6590815388106942
-3.997,0.07810508477567314,0.6166949851900245
-3.9965,0.09944543449103843,0.5955017083796896
-3.996,0.1314559590640864,0.5955017083796896
-3.9955,0.2061471830678648,0.5955017083796896
-3.995,0.6116138276598051,0.2564092794143318
-3.9945,1.401206767128321,-0.6443049850249
-3.994,2.041417258589279,-1.492036057438295
-3.9935,2.308171630031345,-2.032464616101834
-3.993,2.158789182023788,-1.767548655972648
-3.9925,1.603940089424291,-0.8456411147230812
-3.992,0.9957401225363802,0.05507314971615059
-3.9915,0.5262524287983441,0.6484849004055269
-3.991,0.2381577076409128,0.9345941373450475
-3.9905,0.07810508477567314,1.051157159801889
-3.99,0.01408403562957729,1.029963882991555
-3.9895,-0.1139580626626144,0.9345941373450475
-3.989,-0.1779791118087102,0.8180311148882058
-3.9885,-0.1459685872356623,0.7438546460520338
-3.988,-0.08194753808956648,0.6802748156210291
-3.9875,-0.03926683865883591,0.6378882620003594
-3.987,-0.1032878878049318,0.5637117931641874
-3.9865,-0.6688071552621118,0.07626642652648545
-3.986,-1.394379045584531,-0.6760949002404023
-3.9855,-1.895877263895616,-1.333086481360783
-3.985,-2.365364957633652,-1.926498232050159
-3.9845,-2.877533350802418,-2.435136875498196
-3.984,-2.19464215991073,-1.682775548731308
-3.9835,-1.373038695869166,-0.7820612842920766
-3.983,-0.6688071552621118,-0.04029659593035631
-3.9825,-0.124628237520297,0.5107286011383502
-3.982,0.08877525963335578,0.7120647308365314
-3.9815,0.142126133921769,0.7438546460520338
-3.981,0.1314559590640864,0.701468092431364
-3.9805,0.1101156093487211,0.6484849004055269
-3.98,0.08877525963335578,0.5955017083796896
-3.9795,0.1101156093487211,0.5637117931641874
-3.979,0.1634664836371343,0.55311515475902
-3.9785,0.408880505363835,0.4153588554918433
-3.978,1.102441871113207,-0.3158091944647096
-3.9775,1.785333062004896,-1.184733543688439
-3.977,2.116108482593058,-1.746355379162313
-3.9765,2.009406734016231,-1.290699927740113
-3.976,1.550589215135878,-0.5065486857577234
-3.9755,1.006410297394063,0.1080563417419877
-3.975,0.5582629533713921,0.5107286011383502
-3.9745,0.2381577076409128,0.701468092431364
-3.974,0.05676473506030786,0.8180311148882058
-3.9735,-0.01792648894347063,0.849821030103708
-3.973,-0.04993701351651855,0.8604176685088755
-3.9725,-0.09261771294724913,0.8922075837243778
-3.972,-0.08194753808956648,0.8604176685088755
-3.9715,-0.04993701351651855,0.7968378380778709
-3.971,-0.01792648894347063,0.7544512844572011
-3.9705,-0.01792648894347063,0.7120647308365314
-3.97,-0.423393133535411,0.383568940276341
-3.9695,-1.212986073003927,-0.4429688553267188
-3.969,-2.023919362187807,-1.555615887869299
-3.9685,-1.821186039891837,-1.703968825541643
-3.968,-1.725154466172693,-1.693372187136476
-3.9675,-1.26633694729234,-1.0999604364471
-3.967,-0.6367966306890638,-0.252229364033705
-3.9665,-0.2313299860971235,0.3305857482505039
-3.966,-0.02859666380115328,0.627291623595192
-3.9655,0.0674349099179905,0.7650479228623686
-3.965,0.09944543449103843,0.7968378380778709
-3.9645,0.09944543449103843,0.7650479228623686
-3.964,0.08877525963335578,0.7226613692416989
-3.9635,0.09944543449103843,0.6908714540261965
-3.963,0.1207857842064037,0.6590815388106942
-3.9625,0.1527963087794516,0.627291623595192
-3.962,0.2488278824985954,0.5849050699745222
-3.9615,0.707645401378949,0.1292496185523226
-3.961,1.497238340847464,-0.7290780922662394
-3.9605,1.881364635724039,-1.460246142222792
-3.96,1.945385684870135,-1.725162102351978
-3.9595,1.593269914566608,-1.163540266878104
-3.959,1.059761171682476,-0.3687923864905467
-3.9585,0.5902734779444399,0.3199891098453364
-3.958,0.2701682322139607,0.7438546460520338
-3.9575,0.07810508477567314,0.9345941373450475
-3.957,0.00341386077189465,0.9557874141553824
-3.9565,-0.02859666380115328,0.9028042221295453
-3.956,-0.09261771294724913,0.7332580076468663
-3.9555,-0.1032878878049318,0.6696781772158616
-3.955,-0.07127736323188383,0.6590815388106942
-3.9545,-0.02859666380115328,0.6696781772158616
-3.954,-0.007256314085787988,0.6590815388106942
-3.9535,-0.124628237520297,0.5425185163538525
-3.953,-1.298347471865388,-0.6443049850249
-3.9525,-1.87453691418025,-1.545019249464132
-3.952,-2.109280761049269,-2.191414192179345
-3.9515,-2.44005618163743,-2.636473005196377
-3.951,-2.205312334768412,-2.244397384205182
-3.9505,-1.437059745015262,-1.216523458903942
-3.95,-0.7648387289812555,-0.3475991096802118
-3.9495,-0.2953510352432193,0.2352160026039969
-3.949,-0.02859666380115328,0.5425185163538525
-3.9485,0.09944543449103843,0.6590815388106942
-3.948,0.1314559590640864,0.6696781772158616
-3.9475,0.1314559590640864,0.6378882620003594
-3.947,0.1314559590640864,0.5955017083796896
-3.9465,0.142126133921769,0.55311515475902
-3.946,0.1634664836371343,0.5213252395435176
-3.9455,0.1954770082101822,0.5001319627331828
-3.945,0.6009436528021226,0.1928294489833272
-3.9445,1.347855892839907,-0.6231117082145651
-3.944,1.76399271228953,-1.375473034981453
-3.9435,1.956055859727818,-1.873515040024322
-3.943,2.116108482593058,-2.000674700886331
-3.9425,1.753322537431848,-1.280103289334946
-3.942,1.15579274540162,-0.3687923864905467
-3.9415,0.6329541773751706,0.3729723018711736
-3.941,0.2701682322139607,0.8286277532933731
-3.9405,0.0674349099179905,1.029963882991555
-3.94,-0.02859666380115328,1.061753798207057
-3.9395,-0.1993194615240755,0.8710143069140429
-3.939,-0.2846808603855366,0.701468092431364
-3.9385,-0.2313299860971235,0.6696781772158616
-3.938,-0.1459685872356623,0.6802748156210291
-3.9375,-0.08194753808956648,0.6802748156210291
-3.937,-0.1139580626626144,0.5849050699745222
-3.9365,-0.807519428411986,-0.1780528951975329
-3.936,-2.013249187330125,-1.439052865412457
-3.9355,-2.109280761049269,-1.926498232050159
-3.935,-2.183971985053047,-2.392750321877526
-3.9345,-2.183971985053047,-2.403346960282694
-3.934,-1.543761493592088,-1.523825972653797
-3.9335,-0.8715404775580819,-0.6231117082145651
-3.933,-0.3807124341046804,0.02328323450064829
-3.9325,-0.08194753808956648,0.3941655786815084
-3.932,0.0674349099179905,0.5637117931641874
-3.9315,0.1207857842064037,0.5955017083796896
-3.931,0.1314559590640864,0.5637117931641874
-3.9305,0.1314559590640864,0.5213252395435176
-3.93,0.142126133921769,0.4789386859228479
-3.9295,0.1527963087794516,0.457745409112513
-3.929,0.1634664836371343,0.4365521323021782
-3.9285,0.3768699807907871,0.2881991946298341
-3.928,1.081101521397841,-0.4111789401112165
-3.9275,1.817343586577944,-1.205926820498774
-3.927,2.318841804889028,-1.703968825541643
-3.9265,2.158789182023788,-1.280103289334946
-3.926,1.550589215135878,-0.4641621321370536
-3.9255,0.9317190733902845,0.2246193641988295
-3.925,0.4515612047945656,0.6802748156210291
-3.9245,0.1527963087794516,0.9028042221295453
-3.924,0.00341386077189465,0.9981739677760521
-3.9235,-0.04993701351651855,1.019367244586387
-3.923,-0.08194753808956648,1.00877060618122
-3.9225,-0.1139580626626144,0.9769806909657173
-3.922,-0.1032878878049318,0.9134008605347127
-3.9215,-0.06060718837420119,0.8604176685088755
-3.921,-0.02859666380115328,0.8180311148882058
-3.9205,-0.04993701351651855,0.7332580076468663
-3.92,-0.9675720512772257,-0.2204394488182027
-3.9195,-1.757164990745741,-0.8244478379127463
-3.919,-2.493407055925843,-1.460246142222792
-3.9185,-2.770831602225592,-2.085447808127671
-3.918,-2.770831602225592,-2.350363768256857
-3.9175,-2.151961460479999,-1.820531847998485
-3.917,-1.319687821580753,-0.9304142219644207
-3.9165,-0.6367966306890638,-0.1780528951975329
-3.916,-0.1779791118087102,0.3305857482505039
-3.9155,0.04609456020262521,0.5849050699745222
-3.915,0.142126133921769,0.6802748156210291
-3.9145,0.1634664836371343,0.6802748156210291
-3.914,0.1527963087794516,0.6484849004055269
-3.9135,0.142126133921769,0.6060983467848571
-3.913,0.142126133921769,0.5637117931641874
-3.9125,0.1527963087794516,0.5319218779486851
-3.912,0.2274875327832301,0.5107286011383502
-3.9115,0.6542945270905358,0.1186529801471552
-3.911,1.123782220828572,-0.5595318777835605
-3.9105,1.262494493978446,-1.184733543688439
-3.91,1.433217291701369,-1.619195718300304
-3.9095,1.390536592270638,-1.258910012524611
-3.909,1.027750647109428,-0.5277419625680583
-3.9085,0.6329541773751706,0.1610395337678249
-3.908,0.3341892813600565,0.6166949851900245
-3.9075,0.1314559590640864,0.849821030103708
-3.907,0.03542438534494258,0.9663840525605498
-3.9065,-0.02859666380115328,0.9981739677760521
-3.906,-0.156638762093345,0.9981739677760521
-3.9055,-0.1993194615240755,0.9663840525605498
-3.905,-0.156638762093345,0.9028042221295453
-3.9045,-0.09261771294724913,0.8392243916985406
-3.904,-0.03926683865883591,0.775644561267536
-3.9035,-0.1352984123779797,0.6590815388106942
-3.903,-0.754168554123573,0.07626642652648545
-3.9025,-2.055929886760855,-1.280103289334946
-3.902,-2.269333383914508,-1.862918401619155
-3.9015,-2.429386006779747,-2.286783937825852
-3.901,-2.269333383914508,-2.149027638558676
-3.9005,-1.490410619303675,-1.248313374119443
-3.9,-0.722158029550525,-0.3475991096802118
-3.8995,-0.2526703358124887,0.2140227257936621
-3.899,-0.007256314085787988,0.5001319627331828
-3.8985,0.09944543449103843,0.6166949851900245
-3.898,0.1314559590640864,0.6378882620003594
-3.8975,0.1314559590640864,0.6060983467848571
-3.897,0.1314559590640864,0.5743084315693548
-3.8965,0.1527963087794516,0.55311515475902
-3.896,0.1848068333524996,0.5425185163538525
-3.8955,0.2168173579255475,0.5319218779486851
-3.895,0.5796033030867573,0.2034260873884947
-3.8945,1.347855892839907,-0.6443049850249
-3.894,1.998736559158548,-1.449649503817625
-3.8935,2.382862854035124,-1.894708316834657
-3.893,2.212140056312201,-1.566212526274467
-3.8925,1.593269914566608,-0.7396747306714069
-3.892,0.9210488985326017,0.04447651131098315
-3.8915,0.4302208550792003,0.5955017083796896
-3.891,0.1314559590640864,0.8710143069140429
-3.8905,-0.007256314085787988,0.9875773293708847
-3.89,-0.04993701351651855,1.00877060618122
-3.8895,-0.1779791118087102,1.093543713422559
-3.889,-0.2420001609548061,1.072350436612224
-3.8885,-0.1886492866663929,0.9345941373450475
-3.888,-0.1352984123779797,0.7862411996727035
-3.8875,-0.09261771294724913,0.6802748156210291
-3.887,-0.1139580626626144,0.55311515475902
-3.8865,-0.5300948821122373,0.03387987290581572
-3.886,-1.255666772434657,-0.6972881770507372
