Class_10_Using_Wats_App/Class_10_WatsApp_SH_4.csv

#Digilent WaveForms Oscilloscope Acquisition
#Device Name: EExplorer
#Serial Number: SN:210151A2B84A
#Date Time: 2020-12-07 14:16:42.042
#Sample rate: 2000Hz
#Samples: 16384
#Trigger: Source: Channel 1 Type: Edge Condition: Rising Level: 0 V Hyst.: Auto HoldOff: 0 s
#Channel 1: Range: 1 V/div Offset: 0 V Attenuation: 1 X
#Channel 2: Range: 1 V/div Offset: 0 V Attenuation: 1 X
#Power Supplies: ON
#Fixed Supply: ON
#Voltage: 3.3 V Readback: 3.329 V
#Positive Supply: ON
#Voltage: 3.7 V Readback: 3.717 V
#Current: 50 mA Readback: 20 mA
#Negative Supply: ON
#Voltage: -3.7 V Readback: -3.707 V
#Current: -50 mA Readback: -8 mA
#Reference 1: ON
#Voltage: 0 V
#Reference 2: ON
#Voltage: 0 V

Time (s),Channel 1 (V),Channel 2 (V)
-4.096,0.3448594562177392,0.2776025562246667
-4.0955,0.5262524287981791,0.2352160026040355
-4.095,0.5902734779445563,0.118652980147001
-4.0945,0.7183155762366316,-0.05089323433552374
-4.094,0.8570278493863799,-0.2098428104128907
-4.0935,0.8143471499556879,-0.1780528951974462
-4.093,0.7183155762366316,-0.08268314955102604
-4.0925,0.6222840025175752,0.03387987290570971
-4.092,0.5689331282289,0.1080563417417372
-4.0915,0.3768699807907871,-0.1674562567923655
-4.091,-0.3487019095316325,-0.8562377531282487
-4.0905,-1.031593100423817,-1.545019249464517
-4.09,-1.575772018165136,-1.968884785670829
-4.0895,-1.383708870726849,-1.545019249464132
-4.089,-0.7861790786971642,-0.6972881770515083
-4.0885,-0.2099896363817582,0.05507314971615059
-4.088,0.1741366584948169,0.5637117931641874
-4.0875,0.3982103305059486,0.8498210301034478
-4.087,0.4835717293676232,0.9557874141554017
-4.0865,0.4942419042252961,0.9769806909657173
-4.086,0.4835717293676232,0.934594137345086
-4.0855,0.4515612047945268,0.8816109453191525
-4.085,0.408880505363835,0.8180311148882058
-4.0845,0.3448594562177974,0.7756445612675745
-4.084,0.2168173579254699,0.7544512844571626
-4.0835,0.1314559590640864,0.7120647308365314
-4.083,0.03542438534494258,0.3517790250608387
-4.0825,-0.391382608962955,-0.4005823017067718
-4.082,-1.042263275281004,-1.195330182093607
-4.0815,-1.426389570157579,-1.51322933424863
-4.081,-1.106284324427391,-1.057573882826844
-4.0805,-0.5087545323968721,-0.4535654937318862
-4.08,0.00341386077189465,-0.008506680714854012
-4.0795,0.3128489316444098,0.2246193641986174
-4.079,0.4942419042253446,0.2670059178194703
-4.0785,0.5475927785137094,0.2352160026039969
-4.078,0.6009436528020741,0.1186529801472612
-4.0775,0.8143471499557849,-0.1356663415768728
-4.077,0.825017324813458,-0.1462629799820306
-4.0765,0.7289857510944017,-0.0191033191201371
-4.076,0.6222840025174199,0.139846256957625
-4.0755,0.5475927785137094,0.2881991946298341
-4.075,0.5369226036560266,0.1504428953626575
-4.0745,0.3341892813596878,-0.5171453241635751
-4.074,-0.07127736323188383,-1.269506650929778
-4.0735,-0.7434983792658902,-1.788741932782983
-4.073,-1.255666772434191,-1.947691508860349
-4.0725,-1.074273799854052,-1.301296566145281
-4.072,-0.572775581542968,-0.4323722169215513
-4.0715,-0.09261771294768584,0.2564092794137054
-4.071,0.2274875327833854,0.6908714540263893
-4.0705,0.3982103305061524,0.9028042221295453
-4.07,0.4729015545098629,0.9451907757501764
-4.0695,0.4835717293675941,0.9134008605346452
-4.069,0.4622313796522482,0.8392243916985406
-4.0685,0.4195506802215176,0.7438546460520338
-4.068,0.3768699807906998,0.6696781772158328
-4.0675,0.2808384070716433,0.6378882620003594
-4.067,0.1954770082101822,0.6166949851900245
-4.0665,-0.1673089369513381,0.5849050699742909
-4.066,-0.5087545323968721,0.3305857482505039
-4.0655,-0.807519428411986,-0.400582301706049
-4.065,-1.191645723288212,-1.184733543687726
-4.0645,-1.394379045584531,-1.195330182093607
-4.064,-1.020922925565639,-0.6019184314042303
-4.0635,-0.4767440078243192,-0.08268314955149836
-4.063,-0.007256314085506558,0.2140227257938066
-4.0625,0.3021787567870086,0.3729723018711736
-4.062,0.4729015545097756,0.3305857482505424
-4.0615,0.5475927785139325,0.2670059178194221
-4.061,0.79300680024041,0.1822328105781598
-4.0605,0.9317190733902845,0.1080563417419877
-4.06,0.8783681991017644,0.1504428953627442
-4.0595,0.7609962756673623,0.2458126410091644
-4.059,0.6436243522328531,0.3305857482505039
-4.0585,0.6436243522328531,0.2670059178195571
-4.058,0.6009436528021226,-0.2840192792492073
-4.0575,0.4195506802215176,-1.025783967610927
-4.057,0.05676473506063784,-1.523825972653344
-4.0565,-0.4980843575391895,-1.809935209593318
-4.056,-0.6047861061160158,-1.364876396576285
-4.0555,-0.3487019095318654,-0.5701285161894508
-4.055,-0.02859666380093007,0.1186529801475696
-4.0545,0.2168173579255475,0.5743084315693548
-4.054,0.3661998059329686,0.8074344764828263
-4.0535,0.4302208550792198,0.8816109453192007
-4.053,0.4515612047945656,0.8710143069140429
-4.0525,0.4515612047945656,0.8180311148882058
-4.052,0.4302208550791615,0.7438546460519663
-4.0515,0.3875401556484697,0.6696781772158616
-4.051,0.3448594562177392,0.6166949851900245
-4.0505,0.2701682322140286,0.6166949851900245
-4.05,0.00341386077189465,0.55311515475902
-4.0495,-0.7008176798351597,-0.1568596183871981
-4.049,-1.458400094729938,-1.046977244420453
-4.0485,-1.949228138183912,-1.608599079894703
-4.048,-1.821186039891837,-1.131750351662602
-4.0475,-1.095614149570077,-0.4853554089479764
-4.047,-0.370042259246532,-0.06148987274053697
-4.0465,0.142126133921769,0.1080563417419877
-4.046,0.4515612047942841,0.1822328105780923
-4.0455,0.6009436528021322,0.1822328105781405
-4.045,0.6116138276598051,0.1610395337678249
-4.0445,0.6863050516635838,0.13984625695749
-4.044,0.8143471499557364,0.09745970333682995
-4.0435,0.7716664505250448,0.1080563417419877
-4.043,0.7183155762366316,0.1610395337678249
-4.0425,0.6329541773752482,0.2352160026039295
-4.042,0.5796033030867573,0.309392471440169
-4.0415,0.5689331282290746,0.03387987290581572
-4.041,0.6009436528020935,-0.548935239377863
-4.0405,0.6436243522322417,-1.057573882826815
-4.04,-0.02859666380115328,-1.481439419033127
-4.0395,-0.3807124341043602,-1.248313374119655
-4.039,-0.2953510352429961,-0.5171453241622451
-4.0385,-0.04993701351651855,0.1928294489833272
-4.038,0.1741366584946131,0.7014680924309014
-4.0375,0.3235191065024418,0.9769806909658136
-4.037,0.3982103305061524,1.082947075017392
-4.0365,0.4302208550792003,1.082947075017392
-4.036,0.4408910299368635,1.01936724458631
-4.0355,0.4195506802215176,0.9345941373450475
-4.035,0.3768699807907871,0.8392243916985406
-4.0345,0.3341892813600953,0.7544512844572782
-4.034,0.2808384070716433,0.6802748156210291
-4.0335,0.2168173579255475,0.6166949851900245
-4.033,-0.07127736323162179,0.8074344764828649
-4.0325,-0.6901475049779914,0.9557874141546885
-4.032,-1.255666772434657,0.1928294489833272
-4.0315,-1.533091318734153,-0.5489352393777184
-4.031,-1.255666772434114,-0.5701285161885062
-4.0305,-0.658136980404429,-0.326405832869877
-4.03,-0.08194753809009048,-0.09327978795640549
-4.0295,0.3021787567872124,0.0232832345007543
-4.029,0.5262524287983441,0.13984625695749
-4.0285,0.5902734779444399,0.13984625695749
-4.028,0.6116138276600283,0.1186529801470588
-4.0275,0.857027849386506,0.01268659609548085
-4.027,0.9103787236749192,0.002089957690313421
-4.0265,0.8036769750981898,0.09745970333673358
-4.026,0.6542945270905358,0.2246193641988295
-4.0255,0.5582629533713921,0.3517790250608387
-4.025,0.6222840025174297,0.2776025562247341
-4.0245,0.6329541773745204,-0.3581957480860347
-4.024,-0.08194753808956648,-1.078767159636765
-4.0235,-0.8715404775573639,-1.587405803084339
-4.023,-1.330357996438232,-1.714565463946242
-4.0225,-1.1062843244271,-1.089363798041932
-4.022,-0.5834457564011261,-0.2522293640344664
-4.0215,-0.1032878878046406,0.436552132302554
-4.021,0.2168173579255475,0.849821030103708
-4.0205,0.3875401556484697,1.029963882991555
-4.02,0.4622313796522579,1.051157159801822
-4.0195,0.4729015545099309,0.9769806909657173
-4.019,0.4515612047945656,0.8710143069140429
-4.0185,0.4195506802215467,0.7544512844573071
-4.018,0.3555296310754218,0.6484849004055269
-4.0175,0.3128489316446912,0.5425185163538525
-4.017,0.2808384070716724,0.4577454091125902
-4.0165,-0.09261771294776347,0.3729723018707206
-4.016,-0.658136980404429,-0.1250697031716958
-4.0155,-1.341028171295497,-0.888027668343057
-4.015,-1.778505340460844,-1.280103289334502
-4.0145,-1.490410619303675,-0.792657922697244
-4.014,-0.8395299529856259,-0.2628260024393542
-4.0135,-0.2099896363813603,0.05507314971622768
-4.013,0.2274875327832301,0.13984625695749
-4.0125,0.4835717293676135,0.1716361721729923
-4.012,0.6009436528021322,0.1716361721729442
-4.0115,0.6116138276598051,0.1186529801471552
-4.011,0.7289857510943143,0.07626642652648545
-4.0105,0.7930068002403519,0.07626642652648545
-4.01,0.7609962756673623,0.1292496185523226
-4.0095,0.7609962756673623,0.1928294489833272
-4.009,0.6863050516636517,0.2776025562245896
-4.0085,0.6542945270906038,0.2987958330346546
-4.008,0.7289857510943143,-0.08268314955102604
-4.0075,0.9317190733901001,-0.5595318777831267
-4.007,0.2808384070708378,-1.142346990068145
-4.0065,-0.6047861061160158,-1.555615887869299
-4.006,-0.8288597781273515,-1.237716735714276
-4.0055,-0.5621054066849359,-0.4959520473519295
-4.005,-0.1779791118087102,0.1928294489833272
-4.0045,0.1314559590640864,0.6484849004055269
-4.004,0.3128489316447786,0.8922075837244453
-4.0035,0.408880505363835,0.9663840525605498
-4.003,0.4408910299368829,0.9345941373450475
-4.0025,0.4408910299368829,0.860417668508943
-4.002,0.4195506802215176,0.775644561267536
-4.0015,0.3768699807907871,0.6802748156210291
-4.001,0.3341892813600953,0.5955017083797667
-4.0005,0.2594980573560743,0.5319218779486465
-4,0.03542438534494258,0.4895353243280153
-3.9995,-0.4340633083930936,0.02328323450064829
-3.999,-1.031593100423322,-0.7078848154559045
-3.9985,-1.490410619303675,-1.42845622700729
-3.998,-1.821186039891837,-1.661582271920973
-3.9975,-1.543761493592088,-1.046977244421262
-3.997,-0.839529952985034,-0.4429688553267188
-3.9965,-0.156638762093345,-0.05089323433552374
-3.996,0.291508581929326,0.1080563417419877
-3.9955,0.5262524287983441,0.1610395337678249
-3.995,0.6009436528021226,0.1610395337678249
-3.9945,0.6436243522328531,0.1186529801471552
-3.994,0.7716664505250448,0.02328323450064829
-3.9935,0.7289857510943143,0.01268659609548085
-3.993,0.6542945270905358,0.06566978812131802
-3.9925,0.6009436528021226,0.13984625695749
-3.992,0.5582629533713921,0.2034260873884947
-3.9915,0.4835717293676135,0.06566978812131802
-3.991,-0.1993194615240755,-0.6125150698093976
-3.9905,-0.9462317015618604,-1.322489842955616
-3.99,-1.533091318734406,-1.831128486403653
-3.9895,-1.618452717595867,-1.778145294377815
-3.989,-1.095614149569417,-1.004590690800593
-3.9885,-0.4660738329661415,-0.1780528951975329
-3.988,0.01408403562957729,0.4471487707073456
-3.9875,0.3021787567870086,0.8074344764830383
-3.987,0.4408910299368829,0.9663840525605498
-3.9865,0.4729015545099309,0.9875773293708847
-3.986,0.4729015545099309,0.9451907757502149
-3.9855,0.4408910299368829,0.8604176685088755
-3.985,0.408880505363835,0.775644561267536
-3.9845,0.3555296310754218,0.7226613692416989
-3.984,0.2381577076409128,0.701468092431364
-3.9835,0.02475421048725994,0.775644561267536
-3.983,-0.5407650569699201,0.457745409112513
-3.9825,-1.30901764672307,-0.4535654937318862
-3.982,-1.917217613610981,-1.322489842955616
-3.9815,-2.03458953704549,-1.714565463946811
-3.981,-1.437059745015262,-1.311893204550448
-3.9805,-0.658136980404429,-0.6125150698093976
-3.98,-0.02859666380115328,-0.08268314955102604
-3.9795,0.3768699807907871,0.2034260873884947
-3.979,0.5796033030867573,0.3199891098453364
-3.9785,0.6436243522328531,0.3305857482505039
-3.978,0.6649647019482183,0.2034260873884947
-3.9775,0.8676980242441885,0.1080563417419877
-3.977,0.9103787236749192,0.06566978812131802
-3.9765,0.825017324813458,0.07626642652648545
-3.976,0.7396559259519968,0.1080563417419877
-3.9755,0.6436243522328531,0.1504428953626575
-3.975,0.5689331282290746,0.1928294489833272
-3.9745,0.09944543449103843,-0.1144730647665284
-3.974,-0.7114878546928423,-0.8562377531282487
-3.9735,-1.426389570157579,-1.523825972653797
-3.973,-1.597112367880501,-1.725162102351978
-3.9725,-1.116954499284783,-1.131750351662602
-3.972,-0.4980843575391895,-0.3370024712750445
-3.9715,-0.007256314085787988,0.2987958330350016
-3.971,0.291508581929326,0.7120647308365314
-3.9705,0.4302208550792003,0.9134008605347127
-3.97,0.4835717293676135,0.9875773293708847
-3.9695,0.4729015545099309,0.9875773293708847
-3.969,0.4515612047945656,0.9451907757502149
-3.9685,0.4195506802215176,0.8816109453192104
-3.968,0.3875401556484697,0.8180311148882058
-3.9675,0.3661998059331045,0.7650479228623686
-3.967,0.3128489316446912,0.7332580076468663
-3.9665,-0.01792648894347063,0.55311515475902
-3.966,-0.754168554123573,-0.2416327256285375
-3.9655,-1.341028171296118,-1.131750351662602
-3.965,-1.735824641030376,-1.788741932782983
-3.9645,-1.757164990745741,-1.587405803084801
-3.964,-1.170305373573196,-0.792657922697244
-3.9635,-0.4874141826815069,-0.1250697031716958
-3.963,0.02475421048725994,0.2458126410091644
-3.9625,0.3661998059331045,0.3623756634660061
-3.962,0.5155822539406614,0.3199891098453364
-3.9615,0.5582629533713921,0.2034260873884947
-3.961,0.6649647019482183,-0.008506680714854012
-3.9605,0.7609962756673623,-0.1356663415768632
-3.96,0.707645401378949,-0.07208651114585861
-3.9595,0.6436243522328531,0.02328323450064829
-3.959,0.5796033030867573,0.1292496185523226
-3.9585,0.5262524287983441,0.2034260873884947
-3.958,0.3982103305061524,-0.1038764263613609
-3.9575,-0.2526703358124887,-0.8138511995075789
-3.957,-1.052933450138687,-1.51322933424863
-3.9565,-1.479740444445993,-1.725162102351978
-3.956,-1.138294849000148,-1.142346990067769
-3.9555,-0.5621054066852853,-0.3899856633008816
-3.955,-0.07127736323188383,0.2140227257936621
-3.9545,0.2488278824985954,0.5955017083796896
-3.954,0.408880505363835,0.7862411996727035
-3.9535,0.4729015545099309,0.849821030103708
-3.953,0.4729015545099309,0.8392243916985406
-3.9525,0.4515612047945656,0.7968378380778709
-3.952,0.4195506802215176,0.7438546460520338
-3.9515,0.3768699807907871,0.701468092431364
-3.951,0.3235191065023739,0.6696781772158616
-3.9505,0.08877525963335578,0.8392243916985406
-3.95,-0.1886492866663929,0.9981739677760521
-3.9495,-0.6474668055467465,0.6378882620003594
-3.949,-1.234326422719292,-0.3158091944647096
-3.9485,-1.789175515318789,-1.237716735714276
-3.948,-2.130621110764634,-1.693372187136476
-3.9475,-1.746494815888059,-1.227120097309109
-3.947,-1.020922925565639,-0.4959520473525559
-3.9465,-0.3807124341046804,0.06566978812131802
-3.946,0.0674349099179905,0.3517790250608387
-3.9455,0.3555296310754218,0.4153588554918433
-3.945,0.4835717293676135,0.3729723018711736
-3.9445,0.6009436528021226,0.2246193641988295
-3.944,0.857027849386506,-0.06148987274069118
-3.9435,0.8783681991018712,-0.1038764263613609
-3.943,0.7609962756673623,-0.008506680714854012
-3.9425,0.6542945270905358,0.1186529801471552
-3.942,0.5796033030867573,0.2140227257936621
-3.9415,0.4515612047945656,0.002089957690313421
-3.941,-0.3060212101009019,-0.718481453861072
-3.9405,-1.170305373573196,-1.449649503817625
-3.94,-1.757164990745741,-1.990078062481164
-3.9395,-1.970568487899394,-2.117237723343173
-3.939,-1.405049220442214,-1.375473034981453
-3.9385,-0.6794773301197943,-0.4959520473525559
-3.938,-0.09261771294724913,0.1928294489833272
-3.9375,0.2701682322139607,0.6166949851900245
-3.937,0.4408910299368829,0.8074344764830383
-3.9365,0.5049120790829789,0.8604176685088755
-3.936,0.4942419042252961,0.8286277532933731
-3.9355,0.4729015545099309,0.7650479228623686
-3.935,0.4195506802215176,0.6908714540261965
-3.9345,0.3555296310754218,0.6378882620003594
-3.934,0.3021787567870086,0.5955017083796896
-3.9335,0.1954770082101822,0.5955017083796896
-3.933,-0.2846808603855366,0.5213252395435176
-3.9325,-1.074273799854052,-0.2204394488182027
-3.932,-1.789175515318789,-1.0999604364471
-3.9315,-2.109280761049269,-1.439052865412457
-3.931,-1.650463242168915,-1.004590690800593
-3.9305,-0.8608703027003992,-0.4111789401112165
-3.93,-0.2206598112394408,0.04447651131098315
-3.9295,0.2488278824985954,0.2776025562246667
-3.929,0.5049120790829789,0.3623756634660061
-3.9285,0.6116138276598051,0.3729723018711736
-3.928,0.6329541773751706,0.3199891098453364
-3.9275,0.857027849386506,0.3517790250608387
-3.927,0.9317190733902845,0.2881991946298341
-3.9265,0.825017324813458,0.2140227257936621
-3.926,0.6969752265212663,0.1822328105781598
-3.9255,0.6116138276598051,0.1716361721729923
-3.925,0.5796033030867573,0.1504428953626575
-3.9245,0.2701682322139607,-0.2840192792492073
-3.924,-0.4874141826815069,-1.004590690800593
-3.9235,-1.170305373573196,-1.608599079895136
-3.923,-1.447729919872945,-1.831128486403653
-3.9225,-1.095614149569417,-1.227120097309109
-3.922,-0.5300948821122373,-0.3687923864905467
-3.9215,-0.04993701351651855,0.3411823866556712
-3.921,0.2594980573562781,0.7968378380778709
-3.9205,0.4195506802215176,1.029963882991555
-3.92,0.4835717293676135,1.104140351827727
-3.9195,0.4835717293676135,1.082947075017392
-3.919,0.4622313796522482,1.019367244586387
-3.9185,0.4302208550792003,0.9345941373450475
-3.918,0.3875401556484697,0.8710143069140429
-3.9175,0.3448594562177392,0.7968378380778709
-3.917,0.2701682322139607,0.7650479228623686
-3.9165,0.08877525963335578,0.5319218779486851
-3.916,-0.572775581542968,-0.2734226408440398
-3.9155,-1.202315898146244,-1.163540266878104
-3.915,-1.607782542738184,-1.84172512480882
-3.9145,-1.842526389607202,-1.778145294377815
-3.914,-1.426389570157579,-0.9622041371799229
-3.9135,-0.7008176798351597,-0.2416327256285375
-3.913,-0.06060718837420119,0.2140227257936621
-3.9125,0.3555296310754218,0.383568940276341
-3.912,0.5475927785137094,0.3199891098453364
-3.9115,0.6222840025174878,0.1610395337678249
-3.911,0.7716664505250448,-0.06148987274069118
-3.9105,0.9850699476786977,-0.2840192792492073
-3.91,1.006410297394063,-0.2734226408440398
-3.9095,0.9957401225363802,-0.1886495336027004
-3.909,0.8676980242441885,-0.02969995752518888
-3.9085,0.7396559259519968,0.07626642652648545
-3.908,0.6222840025174878,-0.2416327256285375
-3.9075,0.7396559259519968,-0.8138511995075789
-3.907,0.6969752265212663,-1.333086481360783
-3.9065,0.05676473506030786,-1.735758740757146
-3.906,-0.4660738329661415,-1.650985633515806
-3.9055,-0.423393133535411,-0.9410108603695881
-3.905,-0.1673089369510276,-0.1674562567923655
-3.9045,0.08877525963335578,0.3941655786815084
-3.904,0.2808384070716433,0.7226613692416989
-3.9035,0.3875401556484697,0.8710143069140429
-3.903,0.4302208550792003,0.9134008605347127
-3.9025,0.4408910299368829,0.8816109453192104
-3.902,0.4302208550792003,0.8180311148882058
-3.9015,0.3875401556484697,0.7650479228623686
-3.901,0.3341892813600565,0.7120647308365314
-3.9005,0.2488278824985954,0.7332580076468663
-3.9,0.04609456020262521,0.7544512844572011
-3.8995,-0.5834457564006506,0.2670059178194992
-3.899,-1.277007122150022,-0.6654982618352349
-3.8985,-1.821186039891837,-1.439052865412457
-3.898,-1.885207089037933,-1.417859588602123
-3.8975,-1.30901764672307,-0.7820612842920766
-3.897,-0.6154562809736985,-0.1992461720078678
-3.8965,-0.03926683865883591,0.13984625695749
-3.896,0.3235191065023739,0.3411823866556712
-3.8955,0.5155822539406614,0.3729723018711736
-3.895,0.5796033030867573,0.2564092794143318
-3.8945,0.6116138276598051,0.09745970333682032
-3.894,0.7396559259519968,-0.01910331912002144
-3.8935,0.7396559259519968,-0.04029659593035631
-3.893,0.7183155762366316,-0.02969995752518888
-3.8925,0.6969752265212663,0.01268659609548085
-3.892,0.6329541773751706,0.09745970333682032
-3.8915,0.7183155762366316,0.07626642652648545
-3.891,1.241154144263081,-0.4853554089473885
-3.8905,1.241154144263081,-1.216523458903942
-3.89,0.3768699807907871,-1.79933857118815
-3.8895,-0.3807124341046804,-1.831128486403653
-3.889,-0.4660738329661415,-1.078767159636765
-3.8885,-0.2526703358124887,-0.2310360872233701
-3.888,0.02475421048725994,0.4259554938970107
-3.8875,0.2274875327832301,0.8180311148882058
-3.887,0.3555296310754218,1.019367244586387
-3.8865,0.4195506802215176,1.072350436612224
