Class_10_Using_Wats_App/Class_10_WatsApp_Souku_8.csv

#Digilent WaveForms Oscilloscope Acquisition
#Device Name: EExplorer
#Serial Number: SN:210151A2B84A
#Date Time: 2021-02-04 11:11:01.549
#Sample rate: 2000Hz
#Samples: 16384
#Trigger: Source: Channel 1 Type: Edge Condition: Rising Level: 0 V Hyst.: Auto HoldOff: 0 s
#Channel 1: Range: 1 V/div Offset: 0 V Attenuation: 1 X
#Channel 2: Range: 1 V/div Offset: 0 V Attenuation: 1 X
#Power Supplies: ON
#Fixed Supply: ON
#Voltage: 3.3 V Readback: 3.316 V
#Positive Supply: ON
#Voltage: 3.7 V Readback: 3.711 V
#Current: 40 mA Readback: 19 mA
#Negative Supply: ON
#Voltage: -3.7 V Readback: -3.355 V
#Current: -40 mA Readback: -6 mA
#Reference 1: ON
#Voltage: 0 V
#Reference 2: ON
#Voltage: 0 V

Time (s),Channel 1 (V),Channel 2 (V)
-4.096,0.01408403562957729,-0.04029659593035631
-4.0955,-0.02859666380111446,0.03387987290574826
-4.095,-0.4447334832512518,-0.294615917654924
-4.0945,-0.9675720512772257,-0.8986243067489184
-4.094,-1.138294848999993,-1.216523458903652
-4.0935,-0.764838728980712,-1.216523458903797
-4.093,-0.1673089369510276,-1.05757388282643
-4.0925,0.2701682322135628,-0.7184814538613804
-4.092,0.4622313796522385,-0.1674562567918836
-4.0915,0.4515612047945656,0.3623756634660061
-4.091,0.3555296310754218,0.7332580076468663
-4.0905,0.2381577076409613,0.9239974989400149
-4.09,0.291508581929326,1.072350436612224
-4.0895,0.5262524287983441,1.241896651094903
-4.089,0.5475927785136899,1.082947075017536
-4.0885,0.4408910299368829,0.7968378380778709
-4.088,0.3341892813600565,0.5213252395435176
-4.0875,0.2168173579256542,0.2776025562248883
-4.087,0.1741366584947684,0.1610395337678924
-4.0865,0.1207857842064037,0.2352160026039969
-4.086,-0.3273615598158597,-0.2522293640332617
-4.0855,-0.7968492535548373,-0.8244478379124379
-4.085,-1.383708870726849,-0.4853554089473885
-4.0845,-1.60778254273798,0.2246193641981838
-4.084,-1.234326422718836,0.3941655786813831
-4.0835,-0.7328282044082075,0.2564092794143318
-4.083,-0.3166913849585846,0.07626642652648545
-4.0825,-0.07127736323176738,-0.06148987274073937
-4.082,0.05676473506030786,-0.1144730647665284
-4.0815,0.09944543449103843,-0.1038764263613609
-4.081,0.08877525963336548,-0.04029659593041414
-4.0805,0.05676473506030786,0.04447651131098315
-4.08,0.03542438534494258,0.1292496185523226
-4.0795,0.0140840356295967,0.2246193641987428
-4.079,-0.007256314086137349,0.2987958330347606
-4.0785,-0.391382608962363,0.03387987290581572
-4.078,-0.9248913518460098,-0.5595318777830208
-4.0775,-1.180975548430791,-1.015187329205741
-4.077,-1.084943974711735,-0.9939940523954253
-4.0765,-0.540765056970415,-0.7078848154561648
-4.076,0.01408403562985872,-0.4323722169212429
-4.0755,0.3235191065023739,-0.09327978795619347
-4.075,0.4195506802215176,0.2987958330350016
-4.0745,0.3875401556483824,0.6166949851901787
-4.074,0.291508581929326,0.7862411996727035
-4.0735,0.2381577076409128,0.8286277532933731
-4.073,0.4835717293673903,1.008770606181056
-4.0725,0.6116138276598051,1.019367244586387
-4.072,0.5262524287983441,0.7862411996727035
-4.0715,0.4088805053639418,0.5107286011386007
-4.071,0.3128489316446233,0.2564092794141486
-4.0705,0.2381577076409128,0.05507314971615059
-4.07,0.5689331282287737,0.3835689402760423
-4.0695,0.6756348768054256,0.8074344764826336
-4.069,0.1527963087794516,0.3623756634660061
-4.0685,-0.6047861061160158,0.2034260873884947
-4.068,-1.415719395300081,0.7120647308367724
-4.0675,-1.618452717595867,0.9769806909657173
-4.067,-1.202315898146244,0.6908714540261965
-4.0665,-0.690147504977118,0.3093924714399087
-4.066,-0.2953510352432193,0.02328323450064829
-4.0655,-0.04993701351651855,-0.1144730647665284
-4.065,0.06743490991788376,-0.1144730647665284
-4.0645,0.09944543449103843,-0.04029659593035631
-4.064,0.08877525963335578,0.08686306493165288
-4.0635,0.05676473506033698,0.2140227257935464
-4.063,0.03542438534492317,0.3411823866557773
-4.0625,0.01408403562957729,0.457745409112513
-4.062,-0.2099896363815544,0.3729723018712507
-4.0615,-0.7968492535545461,-0.1780528951979859
-4.061,-1.06360362499637,-0.6760949002404023
-4.0605,-1.084943974711735,-1.025783967610927
-4.06,-0.6154562809731551,-1.152943628472802
-4.0595,-0.01792648894347063,-1.004590690800593
-4.059,0.3768699807907871,-0.6019184314042303
-4.0585,0.5155822539405353,-0.02969995752570931
-4.058,0.4622313796522482,0.4683420475176805
-4.0575,0.3341892813600565,0.7650479228623686
-4.057,0.2274875327833272,0.8604176685087888
-4.0565,0.3341892813600565,0.6378882620003594
-4.056,0.3875401556484697,0.4047622170866759
-4.0555,0.3235191065024321,0.3093924714402557
-4.055,0.2274875327831622,0.2140227257935561
-4.0545,0.1527963087794516,0.09745970333682032
-4.054,0.1207857842064328,-0.02969995752507322
-4.0535,0.3661998059330948,0.2458126410095595
-4.053,0.3555296310754218,0.6802748156210291
-4.0525,-0.2099896363817582,0.2352160026039969
-4.052,-0.8822106524163079,-0.3581957480850902
-4.0515,-1.479740444445993,-0.04029659593035631
-4.051,-1.405049220442214,0.2564092794143318
-4.0505,-0.9569018764199507,0.1822328105782272
-4.05,-0.4980843575391895,0.01268659609548085
-4.0495,-0.1673089369510276,-0.1356663415768632
-4.049,0.01408403562941232,-0.2098428104129678
-4.0485,0.08877525963337519,-0.2098428104129967
-4.048,0.1101156093487211,-0.1674562567923655
-4.0475,0.08877525963337518,-0.08268314955110315
-4.047,0.04609456020260581,0.01268659609557723
-4.0465,0.02475421048725994,0.1186529801471552
-4.046,0.014084035629587,0.2140227257935753
-4.0455,-0.04993701351696496,0.214022725793238
-4.045,-0.5407650569699201,-0.252229364033705
-4.0445,-1.223656247861609,-0.8350444763179138
-4.044,-1.447729919872556,-1.152943628472889
-4.0435,-1.020922925565639,-1.0999604364471
-4.043,-0.3273615598162672,-0.9410108603695881
-4.0425,0.2168173579250525,-0.6443049850251699
-4.042,0.4515612047945656,-0.1992461720078678
-4.0415,0.4729015545099309,0.3305857482505039
-4.041,0.3875401556485474,0.7120647308361845
-4.0405,0.2808384070716627,0.9134008605347994
-4.04,0.3021787567870086,1.00877060618122
-4.0395,0.4302208550790839,1.051157159801851
-4.039,0.4088805053637671,0.8180311148879456
-4.0385,0.3341892813600565,0.5319218779486851
-4.038,0.2701682322140189,0.277602556224898
-4.0375,0.2061471830679522,0.06566978812137585
-4.037,0.3021787567870086,0.1292496185523226
-4.0365,0.6329541773751706,0.7120647308365314
-4.036,0.2381577076402723,0.9028042221288802
-4.0355,-0.4660738329661415,0.1716361721729923
-4.035,-1.298347471865388,-0.252229364033705
-4.0345,-1.639793067310922,0.08686306493134444
-4.034,-1.298347471865388,0.1928294489833272
-4.0335,-0.7755089038389382,0.1292496185523226
-4.033,-0.3487019095320207,0.04447651131106026
-4.0325,-0.07127736323175766,0.002089957690303783
-4.032,0.0674349099179905,-0.008506680714854012
-4.0315,0.1101156093486823,0.03387987290577717
-4.031,0.09944543449100932,0.09745970333688778
-4.0305,0.0674349099179905,0.1716361721729923
-4.03,0.03542438534497169,0.2458126410090969
-4.0295,0.02475421048724053,0.3199891098453749
-4.029,0.00341386077189465,0.3623756634660061
-4.0285,-0.2846808603855366,0.09745970333682032
-4.028,-0.7008176798353247,-0.4323722169219079
-4.0275,-0.8822106524157645,-0.8244478379127463
-4.027,-0.7861790786966207,-1.195330182093607
-4.0265,-0.2526703358129739,-1.311893204550342
-4.026,0.2274875327832301,-1.110557074852267
-4.0255,0.4835717293676135,-0.6866915386455698
-4.025,0.5155822539406323,-0.1462629799825221
-4.0245,0.4195506802214109,0.3305857482507544
-4.024,0.3021787567870086,0.6060983467848571
-4.0235,0.2701682322139898,0.7120647308364351
-4.023,0.4835717293676232,0.7968378380778131
-4.0225,0.4942419042252961,0.7332580076468663
-4.022,0.3875401556485668,0.5637117931643416
-4.0215,0.2594980573562004,0.3729723018710098
-4.021,0.1741366584948169,0.1928294489833272
-4.0205,0.142126133921769,0.08686306493165288
-4.02,0.3555296310751695,0.372972301871058
-4.0195,0.07810508477567314,0.2458126410091644
-4.019,-0.4660738329661415,-0.474758770542221
-4.0185,-1.170305373572555,-0.8562377531279017
-4.018,-1.714484291315011,-0.2416327256285375
-4.0175,-1.522421143876723,0.1716361721729923
-4.017,-0.9889124009930764,0.1928294489833079
-4.0165,-0.4874141826811964,0.06566978812119273
-4.016,-0.1459685872356623,-0.07208651114585861
-4.0155,0.0354243853447776,-0.1462629799819632
-4.015,0.1101156093487308,-0.1674562567923366
-4.0145,0.1207857842064037,-0.1356663415768632
-4.014,0.09944543449105783,-0.07208651114591644
-4.0135,0.06743490991797109,0.002089957690390522
-4.013,0.04609456020262521,0.08686306493165288
-4.0125,0.03542438534494258,0.1822328105781598
-4.012,-0.1352984123782611,0.08686306493129629
-4.0115,-0.4447334832507763,-0.3052125560595421
-4.011,-0.4874141826815069,-0.5489352393783931
-4.0105,-0.4447334832508151,-0.8456411147228113
-4.01,-0.06060718837420119,-1.089363798041932
-4.0095,0.3555296310754218,-1.078767159636765
-4.009,0.5689331282288805,-0.7820612842923464
-4.0085,0.5796033030866505,-0.284019279248735
-4.008,0.4622313796522482,0.2352160026039969
-4.0075,0.334189281360173,0.5849050699742042
-4.007,0.2381577076409904,0.7650479228625421
-4.0065,0.3235191065023739,0.9557874141553824
-4.006,0.3555296310754218,0.9345941373450475
-4.0055,0.3128489316446622,0.7438546460518314
-4.005,0.2808384070716433,0.5213252395435176
-4.0045,0.2274875327832301,0.309392471440169
-4.004,0.1741366584948751,0.1504428953627828
-4.0035,0.2381577076409128,0.2881991946298341
-4.003,0.01408403562957729,0.7438546460520338
-4.0025,-0.444733483250359,0.3835689402766687
-4.002,-1.042263275281004,-0.3158091944647096
-4.0015,-1.629122892453549,-0.09327978795619347
-4.001,-1.554431668449839,0.2564092794140138
-4.0005,-1.052933450138231,0.2352160026038717
-4,-0.5514352318276028,0.09745970333682032
-3.9995,-0.1886492866663929,-0.04029659593035631
-3.999,0.02475421048725994,-0.1144730647665284
-3.9985,0.1101156093487211,-0.1250697031716958
-3.998,0.1207857842064037,-0.09327978795619347
-3.9975,0.1101156093487211,-0.01910331912002144
-3.997,0.08877525963335578,0.05507314971615059
-3.9965,0.05676473506030786,0.13984625695749
-3.996,0.03542438534494258,0.2140227257936621
-3.9955,-0.01792648894347063,0.2352160026039969
-3.995,-0.3807124341046804,-0.1674562567923655
-3.9945,-0.690147504977477,-0.6972881770507372
-3.994,-0.8928808272734472,-1.110557074852267
-3.9935,-0.6474668055467465,-1.396666311791788
-3.993,-0.08194753808956648,-1.407262950196955
-3.9925,0.3875401556484697,-1.195330182093607
-3.992,0.5796033030867573,-0.6549016234300674
-3.9915,0.5475927785137094,0.01268659609548085
-3.991,0.4302208550792003,0.4895353243280153
-3.9905,0.3021787567870086,0.7332580076468663
-3.99,0.3021787567870086,0.7968378380778709
-3.9895,0.3768699807907871,0.7438546460520338
-3.989,0.3341892813600565,0.6378882620003594
-3.9885,0.2488278824985954,0.5001319627331828
-3.988,0.1741366584948169,0.3623756634660061
-3.9875,0.1207857842064037,0.2352160026039969
-3.987,0.2488278824985954,0.3411823866556712
-3.9865,0.4408910299368829,0.8816109453192104
-3.986,0.0674349099179905,0.8604176685088755
-3.9855,-0.7008176798351597,0.002089957690313421
-3.985,-1.501080794161358,-0.5277419625680583
-3.9845,-1.746494815888059,-0.2098428104130352
-3.984,-1.298347471865388,-0.02969995752518888
-3.9835,-0.754168554123573,-0.01910331912002144
-3.983,-0.3166913849585846,-0.06148987274069118
-3.9825,-0.03926683865883591,-0.1038764263613609
-3.982,0.08877525963335578,-0.1144730647665284
-3.9815,0.1314559590640864,-0.1038764263613609
-3.981,0.1207857842064037,-0.07208651114585861
-3.9805,0.08877525963335578,-0.01910331912002144
-3.98,0.0674349099179905,0.03387987290581572
-3.9795,0.04609456020262521,0.1080563417419877
-3.979,0.04609456020262521,0.1822328105781598
-3.9785,-0.02859666380115328,0.09745970333682032
-3.978,-0.1673089369510276,-0.2204394488182027
-3.9775,-0.3700422592469978,-0.718481453861072
-3.977,-0.1993194615240755,-1.195330182093607
-3.9765,0.4515612047945656,-1.545019249464132
-3.976,0.8463576745288233,-1.587405803084801
-3.9755,0.9317190733902845,-1.311893204550448
-3.975,0.8036769750980928,-0.7820612842920766
-3.9745,0.5796033030867573,-0.1356663415768632
-3.974,0.3768699807907871,0.3729723018711736
-3.9735,0.2381577076409128,0.6484849004055269
-3.973,0.2701682322139607,0.55311515475902
-3.9725,0.2701682322139607,0.457745409112513
-3.972,0.2274875327832301,0.4153588554918433
-3.9715,0.1741366584948169,0.3729723018711736
-3.971,0.142126133921769,0.309392471440169
-3.9705,0.1741366584948169,0.2987958330350016
-3.97,0.6542945270905358,0.7332580076468663
-3.9695,1.315845368266859,1.358459673551745
-3.969,0.974399772821015,1.835308401784279
-3.9685,-0.1459685872356623,2.110821000318633
-3.968,-1.116954499284783,2.142610915534135
-3.9675,-1.26633694729234,1.591585718465428
-3.967,-0.9355615267041777,0.775644561267536
-3.9665,-0.5300948821122373,0.1186529801471552
-3.966,-0.1993194615240755,-0.252229364033705
-3.9655,-0.007256314085787988,-0.3793890248957141
-3.965,0.08877525963335578,-0.3475991096802118
-3.9645,0.1101156093487211,-0.2310360872233701
-3.964,0.08877525963335578,-0.07208651114585861
-3.9635,0.05676473506030786,0.08686306493165288
-3.963,0.03542438534494258,0.2564092794143318
-3.9625,0.02475421048725994,0.4047622170866759
-3.962,-0.1993194615240755,0.2881991946298341
-3.9615,-0.722158029550525,-0.2204394488182027
-3.961,-1.052933450138687,-0.6972881770507372
-3.9605,-1.319687821580753,-1.036380606016095
-3.96,-0.9355615267041777,-1.036380606016095
-3.9595,-0.2953510352432193,-0.7714646458869092
-3.959,0.1954770082101822,-0.3899856633008816
-3.9585,0.4195506802215176,0.09745970333682032
-3.958,0.4302208550792003,0.5637117931641874
-3.9575,0.3448594562177392,0.8392243916985406
-3.957,0.2594980573562781,0.9451907757502149
-3.9565,0.3768699807907871,0.701468092431364
-3.956,0.4515612047945656,0.4047622170866759
-3.9555,0.3768699807907871,0.2458126410091644
-3.955,0.2701682322139607,0.1292496185523226
-3.9545,0.1741366584948169,0.002089957690313421
-3.954,0.1207857842064037,-0.1356663415768632
-3.9535,0.07810508477567314,-0.1992461720078678
-3.953,-0.3807124341046804,-0.4323722169215513
-3.9525,-1.042263275281004,-1.004590690800593
-3.952,-1.522421143876723,-1.38606967338662
-3.9515,-1.917217613610981,-0.7714646458869092
-3.951,-1.586442193022819,-0.1674562567923655
-3.9505,-0.9782422261349084,0.002089957690313421
-3.95,-0.4554036581084589,-0.02969995752518888
-3.9495,-0.1139580626626144,-0.1250697031716958
-3.949,0.0674349099179905,-0.2098428104130352
-3.9485,0.142126133921769,-0.2416327256285375
-3.948,0.142126133921769,-0.2310360872233701
-3.9475,0.1101156093487211,-0.1886495336027004
-3.947,0.08877525963335578,-0.1250697031716958
-3.9465,0.05676473506030786,-0.04029659593035631
-3.946,0.03542438534494258,0.03387987290581572
-3.9455,-0.04993701351651855,0.04447651131098315
-3.945,-0.4340633083930936,-0.3793890248957141
-3.9445,-0.6367966306890638,-0.7820612842920766
-3.944,-0.6367966306890638,-1.05757388282643
-3.9435,-0.1673089369510276,-1.290699927740113
-3.943,0.3661998059331045,-1.322489842955616
-3.9425,0.6542945270905358,-1.068170521231597
-3.942,0.6969752265212663,-0.5065486857577234
-3.9415,0.5689331282290746,0.06566978812131802
-3.941,0.408880505363835,0.4789386859228479
-3.9405,0.2808384070716433,0.701468092431364
-3.94,0.3128489316446912,0.8816109453192104
-3.9395,0.4195506802215176,0.9557874141553824
-3.939,0.3875401556484697,0.8392243916985406
-3.9385,0.3021787567870086,0.6484849004055269
-3.938,0.2168173579255475,0.4471487707073456
-3.9375,0.1527963087794516,0.2776025562246667
-3.937,0.2274875327832301,0.3941655786815084
-3.9365,-0.156638762093345,0.8074344764830383
-3.936,-0.8288597781273515,0.4259554938970107
-3.9355,-1.383708870726849,-0.4323722169215513
-3.935,-1.917217613610981,-0.5277419625680583
-3.9345,-1.83185621474952,-0.04029659593035631
-3.934,-1.212986073003927,0.1080563417419877
-3.9335,-0.6261264558313813,0.06566978812131802
-3.933,-0.2099896363817582,-0.01910331912002144
-3.9325,0.02475421048725994,-0.09327978795619347
-3.932,0.1314559590640864,-0.1144730647665284
-3.9315,0.1527963087794516,-0.1038764263613609
-3.931,0.142126133921769,-0.06148987274069118
-3.9305,0.09944543449103843,-0.008506680714854012
-3.93,0.0674349099179905,0.05507314971615059
-3.9295,0.04609456020262521,0.1292496185523226
-3.929,0.02475421048725994,0.1822328105781598
-3.9285,-0.3060212101009019,-0.08268314955102604
-3.928,-0.7328282044082075,-0.6443049850249
-3.9275,-0.8822106524157645,-1.036380606016095
-3.927,-0.5300948821122373,-1.311893204550448
-3.9265,0.1314559590640864,-1.439052865412457
-3.926,0.5796033030867573,-1.248313374119443
-3.9255,0.7289857510943143,-0.792657922697244
-3.925,0.6756348768059011,-0.1886495336027004
-3.9245,0.5155822539406614,0.3199891098453364
-3.924,0.3448594562177392,0.6166949851900245
-3.9235,0.2701682322139607,0.7650479228623686
-3.923,0.3982103305061524,0.8710143069140429
-3.9225,0.3982103305061524,0.8180311148882058
-3.922,0.3128489316446912,0.6908714540261965
-3.9215,0.2168173579255475,0.5213252395435176
-3.921,0.1634664836371343,0.3623756634660061
-3.9205,0.1634664836371343,0.2776025562246667
-3.92,0.4515612047945656,0.6484849004055269
-3.9195,0.08877525963335578,0.9875773293708847
-3.919,-0.690147504977477,0.457745409112513
-3.9185,-1.46907026958831,0.3305857482505039
-3.918,-1.927887788468663,0.7438546460520338
-3.9175,-1.543761493592088,0.7120647308365314
-3.917,-0.9355615267041777,0.383568940276341
-3.9165,-0.4127229586777283,0.04447651131098315
-3.916,-0.08194753808956648,-0.1780528951975329
-3.9155,0.08877525963335578,-0.2734226408440398
-3.915,0.1527963087794516,-0.2734226408440398
-3.9145,0.1527963087794516,-0.2098428104130352
-3.914,0.1207857842064037,-0.1144730647665284
-3.9135,0.08877525963335578,-0.008506680714854012
-3.913,0.07810508477567314,0.1080563417419877
-3.9125,0.0674349099179905,0.2140227257936621
-3.912,-0.1459685872356623,0.09745970333682032
-3.9115,-0.6474668055467465,-0.4429688553267188
-3.911,-1.255666772434657,-1.01518732920576
-3.9105,-1.586442193022819,-1.417859588602123
-3.91,-0.807519428411986,-1.598002441489969
-3.9095,0.03542438534494258,-1.47084278062796
-3.909,0.5475927785137094,-1.089363798041932
-3.9085,0.6969752265212663,-0.5489352393783931
-3.908,0.6116138276598051,0.07626642652648545
-3.9075,0.4408910299368829,0.5319218779486851
-3.907,0.3021787567870086,0.7650479228623686
-3.9065,0.3555296310754218,0.9345941373450475
-3.906,0.3661998059331045,0.8922075837243778
-3.9055,0.3021787567870086,0.701468092431364
-3.905,0.2274875327832301,0.4683420475176805
-3.9045,0.1741366584948169,0.2458126410091644
-3.904,0.1527963087794516,0.08686306493165288
-3.9035,0.2701682322139607,0.3729723018711736
-3.903,-0.02859666380115328,0.4683420475176805
-3.9025,-0.5300948821122373,-0.1462629799820306
-3.902,-1.052933450138687,-0.5595318777835605
-3.9015,-1.618452717595867,-0.008506680714854012
-3.901,-1.554431668449771,0.4153588554918433
-3.9005,-1.052933450138687,0.3411823866556712
-3.9,-0.5407650569699201,0.1080563417419877
-3.8995,-0.1673089369510276,-0.1038764263613609
-3.899,0.04609456020262521,-0.2204394488182027
-3.8985,0.142126133921769,-0.2416327256285375
-3.898,0.1527963087794516,-0.1992461720078678
-3.8975,0.142126133921769,-0.1144730647665284
-3.897,0.1101156093487211,-0.01910331912002144
-3.8965,0.07810508477567314,0.08686306493165288
-3.896,0.05676473506030786,0.1928294489833272
-3.8955,-0.01792648894347063,0.2034260873884947
-3.895,-0.3807124341046804,-0.2098428104130352
-3.8945,-0.6688071552621118,-0.7078848154559045
-3.894,-0.9462317015618604,-1.089363798041932
-3.8935,-0.8181896032696687,-1.227120097309109
-3.893,-0.2953510352432193,-1.068170521231597
-3.8925,0.1634664836371343,-0.6866915386455698
-3.892,0.3982103305061524,-0.1780528951975329
-3.8915,0.4408910299368829,0.3729723018711736
-3.891,0.3768699807907871,0.7332580076468663
-3.8905,0.291508581929326,0.8816109453192104
-3.89,0.3341892813600565,0.9451907757502149
-3.8895,0.4195506802215176,0.9981739677760521
-3.889,0.3768699807907871,0.8604176685088755
-3.8885,0.2808384070716433,0.6484849004055269
