Class_10_Using_Wats_App/Class_10_WatsApp_Zakour_5.csv

#Digilent WaveForms Oscilloscope Acquisition
#Device Name: EExplorer
#Serial Number: SN:210151A2B84A
#Date Time: 2020-12-21 15:21:12.537
#Sample rate: 2000Hz
#Samples: 16384
#Trigger: Source: Channel 1 Type: Edge Condition: Rising Level: 0 V Hyst.: Auto HoldOff: 0 s
#Channel 1: Range: 1 V/div Offset: 0 V
#Channel 2: Range: 1 V/div Offset: 0 V

Time (s),Channel 1 (V),Channel 2 (V)
-4.0960000000000001,-0.41272295867772835,-0.40058230170604903
-4.0955000000000004,0.035424385344535014,-0.85623775312783423
-4.0949999999999998,0.30217875678711537,-1.0469772444212624
-4.0945,0.41955068022151765,-1.0469772444212624
-4.0940000000000003,0.44089102993686352,-0.91981758355936893
-4.0934999999999997,0.43022085507917124,-0.75027136907639125
-4.093,0.3982103305061524,-0.54893523937839306
-4.0925000000000002,0.36619980593313362,-0.35819574808555277
-4.0919999999999996,0.33418928136000803,-0.17805289519738837
-4.0914999999999999,0.28083840707164331,-0.019103319120021445
-4.0910000000000002,0.15279630877945163,0.17163617217299235
-4.0904999999999996,-0.48741418268223474,0.57430843156974998
-4.0899999999999999,-1.2876772970077051,1.0087706061812196
-4.0895000000000001,-1.7358246410303759,1.33726639674141
-4.0890000000000004,-1.4797404444462254,1.2313000126898319
-4.0884999999999998,-0.6047861061160158,0.47893868592284788
-4.0880000000000001,0.15279630877945163,-0.15685961838719809
-4.0875000000000004,0.62228400251706084,-0.421775578516143
-4.0869999999999997,0.83568749967118927,-0.53833860097323527
-4.0865,0.88903837395955376,-0.54893523937839306
-4.0860000000000003,0.84635767452886213,-0.53833860097323527
-4.0854999999999997,0.84635767452893973,-0.38998566330062134
-4.085,0.97439977282101498,-0.10387642636136091
-4.0845000000000002,0.88903837395963137,-0.01910331912009855
-4.0839999999999996,0.73965592595186092,-0.029699957525217792
-4.0834999999999999,0.59027347794443985,-0.061489872740691176
-4.0830000000000002,0.47290155450993088,-0.061489872740691176
-4.0824999999999996,0.35552963107515978,0.17163617217343569
-4.0819999999999999,0.067434909917990504,0.6590815388106942
-4.0815000000000001,-0.63679663068906378,1.0617537982070568
-4.0810000000000004,-1.2023158981457294,1.2842832047153703
-4.0804999999999998,-1.6504632421689147,1.3266697583362426
-4.0800000000000001,-1.437059745015262,0.9134008605347127
-4.0795000000000003,-0.83952995298557742,0.15044289536335131
-4.0789999999999997,-0.26334051066981234,-0.48535540894771617
-4.0785,0.13145595906408636,-0.84564111472308123
-4.0780000000000003,0.3448594562175451,-0.9622041371798169
-4.0774999999999997,0.43022085507921004,-0.89862430674878346
-4.077,0.44089102993688295,-0.75027136907657432
-4.0765000000000002,0.41955068022153708,-0.55953187778373392
-4.0759999999999996,0.37686998079073858,-0.35819574808520582
-4.0754999999999999,0.32351910650237387,-0.1674562567923655
-4.0750000000000002,0.24882788249859539,0.0020899576903134209
-4.0744999999999996,-0.1459685872362349,0.26700591781941246
-4.0739999999999998,-0.77550890383893822,0.17163617217299235
-4.0735000000000001,-1.4477299198729445,0.055073149716150585
-4.0730000000000004,-2.0025790124719376,0.42595549389667337
-4.0724999999999998,-1.9919088376147593,0.80743447648303834
-4.0720000000000001,-1.1062843244271001,0.60609834678485708
-4.0715000000000003,-0.15663876209420857,0.076266426526967246
-4.0709999999999997,0.49424190422559694,-0.36879238649078766
-4.0705,0.82501732481345802,-0.63370834661973252
-4.0700000000000003,0.93171907339018745,-0.76086800748162609
-4.0694999999999997,0.89970854881715889,-0.72907809226614306
-4.069,0.81434714995577528,-0.62311170821456507
-4.0685000000000002,0.92104889853260175,-0.48535540894738849
-4.0679999999999996,0.88903837395940821,-0.34759910968009622
-4.0674999999999999,0.72898575109431429,-0.22043944881820265
-4.0670000000000002,0.59027347794443985,-0.12506970317169577
-4.0664999999999996,0.50491207908297886,-0.040296595930279212
-4.0659999999999998,0.50491207908297886,0.044476511310983152
-4.0655000000000001,0.97439977282101498,0.26700591781949923
-4.0650000000000004,0.92104889853265026,0.57430843156907541
-4.0644999999999998,-0.049937013516518552,0.94519077575021493
-4.0640000000000001,-0.99958257585027366,1.1571235438535634
-4.0635000000000003,-1.1489650238576947,0.82862775329367189
-4.0629999999999997,-0.75416855412315564,0.12924961855175399
-4.0625,-0.29535103524321932,-0.49595204735255594
-4.0620000000000003,0.067434909917660546,-0.87743102993823652
-4.0614999999999997,0.29150858192941331,-1.0469772444212624
-4.0609999999999999,0.38754015564846972,-1.0469772444212624
-4.0605000000000002,0.41955068022151765,-0.96220413717992292
-4.0599999999999996,0.40888050536380594,-0.82444783791260179
-4.0594999999999999,0.3768699807907871,-0.66549826183523486
-4.0590000000000002,0.32351910650237387,-0.51714532416289083
-4.0585000000000004,0.2594980573563363,-0.35819574808552385
-4.0579999999999998,0.13145595906408636,-0.14626297998203064
-4.0575000000000001,-0.0072563140857879876,0.044476511310983152
-4.0570000000000004,-0.4233931335350325,0.23521600260382347
-4.0564999999999998,-1.1062843244271001,0.64848490040552687
-4.056,-1.586442193022819,0.90280422212954525
-4.0555000000000003,-1.1276246741428826,0.52132523954386456
-4.0549999999999997,-0.34870190953103081,-0.029699957525555105
-4.0545,0.31284893164469124,-0.43237221692155131
-4.0540000000000003,0.70764540137859,-0.62311170821439155
-4.0534999999999997,0.85702784938648657,-0.67609490024028662
-4.0529999999999999,0.83568749967114075,-0.54893523937839306
-4.0525000000000002,0.75032610080967954,-0.40058230170604903
-4.0519999999999996,0.82501732481353562,-0.15685961838700532
-4.0514999999999999,0.91037872367491923,0.055073149716150585
-4.0510000000000002,0.79300680024041004,0.044476511310983152
-4.0505000000000004,0.64362435223298897,-0.029699957525121418
-4.0499999999999998,0.52625242879834411,-0.093279787956193475
-4.0495000000000001,0.45156120479456557,-0.11447306476652835
-4.0490000000000004,0.77166645052475369,-0.13566634157684393
-4.0484999999999998,0.95305942310498015,-0.040296595929999721
-4.048,0.21681735792554749,0.35177902506083869
-4.0475000000000003,-0.76483872898036265,0.77564456126715053
-4.0469999999999997,-1.2236562478613568,0.84982103010325505
-4.0465,-0.94623170156186043,0.35177902506083869
-4.0460000000000003,-0.46607383296657823,-0.24163272562799787
-4.0454999999999997,-0.049937013516275941,-0.68669153864578181
-4.0449999999999999,0.21681735792554749,-0.91981758355925325
-4.0445000000000002,0.35552963107542179,-0.99399405239542526
-4.0439999999999996,0.40888050536383502,-0.95160749877466877
-4.0434999999999999,0.40888050536383502,-0.85623775312824868
-4.0430000000000001,0.38754015564846972,-0.71848145386107198
-4.0425000000000004,0.3661998059331239,-0.59132179299917853
-4.0419999999999998,0.32351910650237387,-0.4641621321370536
-4.0415000000000001,0.27016823221396069,-0.33700247127504446
-4.0410000000000004,0.1954770082102501,-0.16745625679251971
-4.0404999999999998,-0.17797911180917605,0.28819919463032562
-4.04,-0.69014750497747701,0.82862775329337313
-4.0395000000000003,-1.3943790455838907,1.2418966510945271
-4.0389999999999997,-1.5010807941606688,1.1677201822581622
-4.0385,-0.74349837926589024,0.54251851635385251
-4.0380000000000003,0.056764735059580018,-0.13566634157624635
-4.0374999999999996,0.61161382766004768,-0.58072515459404961
-4.0369999999999999,0.87836819910187125,-0.75027136907657432
-4.0365000000000002,0.91037872367491923,-0.70788481545590454
-4.0359999999999996,0.81434714995575586,-0.54893523937820032
-4.0354999999999999,0.79300680024041004,-0.33700247127504446
-4.0350000000000001,0.94238924824796699,-0.0085066807148540119
-4.0345000000000004,0.87836819910192943,0.086863064931566147
-4.0339999999999998,0.70764540137894905,0.0020899576903134209
-4.0335000000000001,0.53692260365602662,-0.061489872740691176
-4.0330000000000004,0.44089102993697027,-0.040296595930375587
-4.0324999999999998,0.23815770764031108,0.12924961855273703
-4.032,-0.42339313353541097,0.58490506997452218
-4.0315000000000003,-0.95690187641905788,1.0193672445859918
-4.0309999999999997,-1.2236562478619681,1.2842832047156498
-4.0305,-1.618452717595867,1.3690563119569124
-4.0300000000000002,-1.4690702695884459,0.99817396777638945
-4.0294999999999996,-0.8822106524152501,0.2458126410085765
-4.0289999999999999,-0.31669138495858457,-0.40058230170604903
-4.0285000000000002,0.08877525963335578,-0.77146464588690922
-4.0279999999999996,0.31284893164477856,-0.89862430674887983
-4.0274999999999999,0.40888050536383502,-0.85623775312824868
-4.0270000000000001,0.43022085507920033,-0.70788481545590454
-4.0265000000000004,0.40888050536385445,-0.51714532416306436
-4.0259999999999998,0.36619980593310447,-0.31580919446470956
-4.0255000000000001,0.33418928136005654,-0.14626297998203064
-4.0250000000000004,0.2915085819293648,0.012686596095336289
-4.0244999999999997,0.22748753278280312,0.15044289536293698
-4.024,-0.24200016095480609,0.45774540911251305
-4.0235000000000003,-0.94623170156121983,0.89220758372398268
-4.0229999999999997,-1.5224211438767328,1.25249328950008
-4.0225,-1.5330913187344057,1.2630899279052379
-4.0220000000000002,-0.75416855412428141,0.69087145402671701
-4.0214999999999996,0.088775259633860418,-0.019103319120464774
-4.0209999999999999,0.64362435223285308,-0.50654868575772338
-4.0205000000000002,0.87836819910187125,-0.72907809226623943
-4.0199999999999996,0.89970854881716855,-0.77146464588688035
-4.0194999999999999,0.82501732481345802,-0.73967473067140688
-4.0190000000000001,0.72898575109431429,-0.61251506980939763
-4.0185000000000004,0.83568749967104372,-0.27342264084434825
-4.0179999999999998,0.82501732481345802,-0.072086511145858609
-4.0175000000000001,0.69697522652126631,-0.072086511145858609
-4.0170000000000003,0.57960330308686414,-0.093279787956174198
-4.0164999999999997,0.51558225394062251,-0.11447306476654763
-4.016,0.47290155450993088,-0.13566634157686319
-4.0155000000000003,0.82501732481313783,-0.55953187778317504
-4.0149999999999997,0.63295417737426807,-1.2271200973089644
-4.0145,-0.35937208438931517,-1.0681705212315973
-4.0140000000000002,-1.3623685210105714,-0.31580919446539379
-4.0134999999999996,-1.7571649907453433,0.24581264100904873
-4.0129999999999999,-1.3196878215807528,0.11865298014715518
-4.0125000000000002,-0.66880715526211176,-0.29461591765437467
-4.0119999999999996,-0.13529841237767884,-0.66549826183544691
-4.0114999999999998,0.19547700821018218,-0.89862430674891836
-4.0110000000000001,0.36619980593310447,-0.98339741399025782
-4.0105000000000004,0.41955068022146913,-0.97280077558510003
-4.0099999999999998,0.41955068022151765,-0.87743102993858346
-4.0095000000000001,0.3768699807907871,-0.76086800748174177
-4.0090000000000003,0.31284893164474947,-0.63370834661984821
-4.0084999999999997,0.23815770764087393,-0.49595204735243065
-4.008,0.19547700821018218,-0.3581957480853793
-4.0075000000000003,0.067434909918106967,-0.22043944881832794
-4.0069999999999997,-0.43406330839343332,-0.33700247127476496
-4.0065,-0.80751942841198598,-0.029699957525188878
-4.0060000000000002,-1.2343264227192918,0.5637117931641874
-4.0054999999999996,-1.394379045583988,0.86041766850855739
-4.0049999999999999,-0.79684925355430347,0.51072860113835017
-4.0045000000000002,-0.11395806266261441,0.0020899576903134209
-4.0039999999999996,0.43022085507944297,-0.38998566330108397
-4.0034999999999998,0.69697522652126631,-0.61251506980939763
-4.0030000000000001,0.78233662538272752,-0.66549826183523486
-4.0025000000000004,0.76099627566738171,-0.68669153864555044
-4.0019999999999998,0.84635767452882327,-0.4535654937318862
-4.0015000000000001,0.97439977282101498,-0.14626297998203064
-4.0010000000000003,0.87836819910195862,-0.08268314955108387
-4.0004999999999997,0.70764540137881315,-0.10387642636138981
-4,0.55826295337139209,-0.13566634157686319
-3.9994999999999998,0.45156120479456557,-0.12506970317169577
-3.9990000000000001,0.63295417737517057,-0.13566634157686319
-3.9984999999999999,1.2945050185514941,-0.6972881770507372
-3.9980000000000002,1.8280137614356262,-1.4708427806279598
-3.9975000000000001,1.3265155431245421,-1.5768091646796343
-3.9969999999999999,0.14212613392176898,-0.82444783791274634
-3.9965000000000002,-0.55143523182760279,-0.27342264084403983
-3.996,-0.55143523182760279,-0.25222936403370499
-3.9954999999999998,-0.28468086038553664,-0.43237221692155131
-3.9950000000000001,-0.017926488943470625,-0.63370834661973252
-3.9944999999999999,0.18480683335249956,-0.76086800748174177
-3.9940000000000002,0.30217875678700862,-0.81385119950757889
-3.9935,0.35552963107542179,-0.80325456110241145
-3.9929999999999999,0.36619980593310447,-0.76086800748174177
-3.9925000000000002,0.33418928136005654,-0.68669153864556975
-3.992,0.30217875678700862,-0.60191843140423029
-3.9914999999999998,0.24882788249859539,-0.51714532416289083
-3.9910000000000001,0.13145595906408636,-0.37938902489571413
-3.9904999999999999,-0.4554036581084589,0.055073149716150585
-3.9900000000000002,-1.1062843244271001,0.60609834678485708
-3.9895,-1.5651018433074537,1.0723504366122243
-3.9889999999999999,-1.2876772970077051,0.99817396777605205
-3.9885000000000002,-0.47674400782382426,0.42595549389701071
-3.988,0.22748753278323011,-0.14626297998203064
-3.9874999999999998,0.62228400251748783,-0.4641621321370536
-3.9870000000000001,0.77166645052504479,-0.55953187778356051
-3.9864999999999999,0.79300680024041004,-0.54893523937839306
-3.9860000000000002,0.76099627566736228,-0.43237221692155131
-3.9855,0.76099627566736228,-0.29461591765437467
-3.9849999999999999,0.93171907339028448,-0.093279787956193475
-3.9845000000000002,0.87836819910187125,0.0020899576903134209
-3.984,0.71831557623663156,0.044476511310983152
-3.9834999999999998,0.5689331282290746,0.065669788121318018
-3.9830000000000001,0.4622313796522482,0.086863064931652884
-3.9824999999999999,0.53692260365602662,0.044476511310983152
-3.9820000000000002,0.96372959796333246,-0.47475877054222104
-3.9815,0.49424190422529612,-0.85623775312824868
-3.9809999999999999,-0.4554036581084589,-0.41117894011121647
-3.9805000000000001,-1.3943790455845313,0.27760255622466667
-3.98,-1.7678351656034239,0.6590815388106942
-3.9794999999999998,-1.3303579964384356,0.31998910984533641
-3.9790000000000001,-0.69014750497747701,-0.24163272562853755
-3.9784999999999999,-0.15663876209334496,-0.70788481545590454
-3.9780000000000002,0.18480683335249956,-0.98339741399025782
-3.9775,0.34485945621773917,-1.0893637980419322
-3.9769999999999999,0.40888050536383502,-1.0681705212315973
-3.9765000000000001,0.3982103305061524,-0.96220413717992292
-3.976,0.36619980593310447,-0.82444783791274634
-3.9754999999999998,0.28083840707164331,-0.67609490024040231
-3.9750000000000001,0.19547700821018218,-0.51714532416289083
-3.9744999999999999,0.15279630877945163,-0.32640583286987701
-3.9740000000000002,-0.017926488943470625,-0.26282600243887239
-3.9735,-0.20998963638175816,-0.78206128429207655
-3.9729999999999999,-0.40205278382004572,-0.86683439153341613
-3.9725000000000001,-0.55143523182760279,-0.4641621321370536
-3.972,-0.15663876209334496,-0.4535654937318862
-3.9714999999999998,0.33418928136005654,-0.50654868575772338
-3.9710000000000001,0.70764540137894905,-0.47475877054222104
-3.9704999999999999,0.87836819910187125,-0.37938902489571413
-3.9700000000000002,0.87836819910187125,-0.24163272562853755
-3.9695,0.80367697509809277,-0.093279787956193475
-3.9689999999999999,0.70764540137894905,-0.061489872740691176
-3.9685000000000001,0.78233662538272752,-0.30521255605954212
-3.968,0.76099627566736228,-0.4535654937318862
-3.9674999999999998,0.63295417737517057,-0.44296885532671876
-3.9670000000000001,0.51558225394066137,-0.37938902489571413
-3.9664999999999999,0.43022085507920033,-0.33700247127504446
-3.9660000000000002,0.34485945621773917,-0.25222936403370499
-3.9655,-0.17797911180871023,0.19282944898332721
-3.9649999999999999,-0.77550890383893822,0.76504792286236856
-3.9645000000000001,-1.3623685210114835,1.1783168206638983
-3.964,-1.9065474387532981,1.3902495887672472
-3.9634999999999998,-1.9172176136109809,1.241896651094903
-3.9630000000000001,-1.2770071221500223,0.52132523954351762
-3.9624999999999999,-0.58344575640065055,-0.25222936403370499
-3.9620000000000002,-0.06060718837420119,-0.792657922697244
-3.9615,0.23815770764091276,-1.0469772444212624
-3.9609999999999999,0.3768699807907871,-1.0999604364470996
-3.9605000000000001,0.40888050536383502,-1.0045906908005926
-3.96,0.3982103305061524,-0.84564111472308123
-3.9594999999999998,0.35552963107542179,-0.64430498502489997
-3.9590000000000001,0.31284893164469124,-0.4535654937318862
-3.9584999999999999,0.27016823221396069,-0.26282600243887239
-3.9580000000000002,0.18480683335249956,-0.061489872740691176
-3.9575,-0.071277363231883828,0.31998910984533641
-3.9569999999999999,-0.71148785469284226,0.82862775329337313
-3.9565000000000001,-1.3943790455845313,1.2524932895000704
-3.956,-1.9278877884686634,1.4750226960085864
-3.9554999999999998,-1.5971123678805015,1.1359302670432285
-3.9550000000000001,-0.76483872898125549,0.45774540911251305
-3.9544999999999999,0.046094560202625215,-0.17805289519753292
-3.9540000000000002,0.59027347794443985,-0.59132179299906285
-3.9535,0.82501732481345802,-0.70788481545590454
-3.9529999999999998,0.857027849386506,-0.64430498502489997
-3.9525000000000001,0.76099627566736228,-0.51714532416289083
-3.952,0.78233662538272752,-0.25222936403370499
-3.9514999999999998,0.87836819910187125,0.044476511310983152
-3.9510000000000001,0.77166645052504479,0.11865298014715518
-3.9504999999999999,0.62228400251748783,0.12924961855232261
-3.9500000000000002,0.4835717293676135,0.11865298014715518
-3.9495,0.3982103305061524,0.13984625695749003
-3.9489999999999998,0.66496470194821833,0.34118238665567124
-3.9485000000000001,1.0384208219671107,0.62729162359519197
-3.948,0.32351910650237387,0.95578741415538238
-3.9474999999999998,-0.75416855412357298,1.1677201822587309
-3.9470000000000001,-1.6291228924535495,1.2524932895000704
-3.9464999999999999,-1.6611334170265974,0.93459413734504748
-3.9460000000000002,-1.0849439747117349,0.24581264100916439
-3.9455,-0.47674400782382426,-0.37938902489571413
-3.9449999999999998,-0.0072563140857879876,-0.76086800748174177
-3.9445000000000001,0.24882788249859539,-0.9092209451540858
-3.944,0.3768699807907871,-0.89862430674891836
-3.9434999999999998,0.3982103305061524,-0.78206128429207655
-3.9430000000000001,0.3768699807907871,-0.62311170821456507
-3.9424999999999999,0.31284893164469124,-0.4535654937318862
-3.9420000000000002,0.22748753278323011,-0.28401927924920728
-3.9415,0.19547700821018218,-0.13566634157686319
-3.9409999999999998,0.014084035629577295,0.076266426526485451
-3.9405000000000001,-0.44473348325077627,0.33058574825050385
-3.9399999999999999,-0.88221065241576446,0.54251851635385251
-3.9394999999999998,-1.2556667724346571,0.92399749893988004
-3.9390000000000001,-1.2023158981462438,1.1253336286380615
-3.9384999999999999,-0.5621054066852853,0.76504792286236856
-3.9380000000000002,0.08877525963335578,0.18223281057815977
-3.9375,0.52625242879834411,-0.30521255605954212
-3.9369999999999998,0.73965592595199681,-0.64430498502489997
-3.9365000000000001,0.77166645052504479,-0.75027136907657432
-3.9359999999999999,0.73965592595199681,-0.73967473067140688
-3.9355000000000002,0.69697522652126631,-0.60191843140423029
-3.9350000000000001,0.79300680024041004,-0.30521255605954212
-3.9344999999999999,0.73965592595199681,-0.13566634157686319
-3.9340000000000002,0.62228400251748783,-0.061489872740691176
-3.9335,0.49424190422529612,-0.029699957525188878
-3.9329999999999998,0.40888050536383502,-0.0085066807148540119
-3.9325000000000001,0.25949805735627807,0.17163617217299235
-3.9319999999999999,-0.41272295867772835,0.62729162359519197
-3.9315000000000002,-1.2983474718653876,1.0617537982070568
-3.931,-2.0345895370454898,1.3266697583362426
-3.9304999999999999,-2.5360877553565739,1.4220395039827496
-3.9300000000000002,-2.5147474056412089,1.2842832047155728
-3.9295,-1.6397930673112322,0.61669498519002452
