Class_10_Using_Wats_App/Class_10_WatsApp_UZ_8.csv

#Digilent WaveForms Oscilloscope Acquisition
#Device Name: EExplorer
#Serial Number: SN:210151A2B84A
#Date Time: 2020-12-20 12:45:45.220
#Sample rate: 2000Hz
#Samples: 16384
#Trigger: Source: Channel 1 Type: Edge Condition: Rising Level: 0 V Hyst.: Auto HoldOff: 0 s
#Channel 1: Range: 1 V/div Offset: 0 V
#Channel 2: Range: 1 V/div Offset: 0 V

Time (s),Channel 1 (V),Channel 2 (V)
-4.0960000000000001,0.60094365280212259,-0.5807251545938954
-4.0955000000000004,0.51558225394073898,-0.5807251545938954
-4.0949999999999998,0.31284893164424482,-0.061489872740045456
-4.0945,-0.17797911180871023,0.64848490040552687
-4.0940000000000003,-0.56210540668493592,1.2207033742840476
-4.0934999999999997,-0.9035510021315375,1.5597958032500512
-4.093,-1.3516983461538008,1.6975521025171028
-4.0925000000000002,-1.3090176467231092,1.3266697583365799
-4.0919999999999996,-0.81818960326919321,0.57430843156878619
-4.0914999999999999,-0.29535103524321932,-0.050893234335523743
-4.0910000000000002,0.078105084775673142,-0.41117894011121647
-4.0904999999999996,0.29150858192941331,-0.51714532416282333
-4.0899999999999999,0.38754015564846972,-0.44296885532671876
-4.0895000000000001,0.40888050536383502,-0.26282600243887239
-4.0890000000000004,0.35552963107547031,-0.06148987274087428
-4.0884999999999998,0.24882788249859539,0.11865298014715518
-4.0880000000000001,0.13145595906408636,0.21402272579366208
-4.0875000000000004,-0.028596663801007699,0.076266426526610726
-4.0869999999999997,-0.38071243410518507,-0.27342264084438678
-4.0865,-0.93556152670417769,-0.65490162343006741
-4.0860000000000003,-1.5651018433068811,-1.0257839676105902
-4.0854999999999997,-2.0452597119024931,-1.2059268204983211
-4.085,-1.2983474718653876,-0.70788481545590454
-4.0845000000000002,-0.39138260896318799,-0.093279787956752513
-4.0839999999999996,0.23815770764123301,0.28819919462986304
-4.0834999999999999,0.59027347794443985,0.31998910984533641
-4.0830000000000002,0.70764540137894905,0.17163617217299235
-4.0824999999999996,0.76099627566732342,0.023283234500542274
-4.0819999999999999,0.71831557623663156,-0.093279787956193475
-4.0815000000000001,0.67563487680590106,-0.15685961838719809
-4.0810000000000004,0.78233662538263049,-0.18864953360267145
-4.0804999999999998,0.75032610080967954,-0.2310360872233701
-4.0800000000000001,0.63295417737517057,-0.28401927924920728
-4.0795000000000003,0.51558225394076818,-0.35819574808531185
-4.0789999999999997,0.44089102993668888,-0.41117894011094663
-4.0785,0.22748753278323011,-0.11447306476652835
-4.0780000000000003,0.078105084775809019,0.58490506997388625
-4.0774999999999997,0.36619980593336648,1.2207033742848572
-4.077,0.65429452709053582,1.5386025264395911
-4.0765000000000002,0.32351910650267468,1.2418966510951728
-4.0759999999999996,-0.27401068552794133,0.99817396777559908
-4.0754999999999999,-0.3700422592469978,0.50013196273318283
-4.0750000000000002,-0.19931946152407554,0.0020899576903134209
-4.0744999999999996,0.01408403562974227,-0.29461591765447104
-4.0739999999999998,0.19547700821018218,-0.40058230170604903
-4.0735000000000001,0.29150858192932599,-0.3581957480853793
-4.0730000000000004,0.34485945621769065,-0.23103608722348576
-4.0724999999999998,0.34485945621773917,-0.072086511145858609
-4.0720000000000001,0.28083840707164331,0.065669788121318018
-4.0715000000000003,0.17413665849491394,0.097459703336791409
-4.0709999999999997,-0.10328788780539756,-0.072086511146118817
-4.0705,-0.61545628097369853,-0.3581957480853793
-4.0700000000000003,-0.96757205127690549,-0.54893523937821964
-4.0694999999999997,-1.1276246741426206,-0.91981758355956167
-4.069,-1.2983474718653876,-1.2589100125246109
-4.0685000000000002,-1.0636036249963696,-1.3224898429556156
-4.0679999999999996,-0.16730893695051327,-1.0151873292052878
-4.0674999999999999,0.3982103305061524,-0.49595204735255594
-4.0670000000000002,0.67563487680590106,-0.072086511145858609
-4.0664999999999996,0.7823366253827081,0.22461936419894515
-4.0659999999999998,0.76099627566736228,0.35177902506083869
-4.0655000000000001,0.69697522652126631,0.37297230187117358
-4.0650000000000004,0.62228400251755578,0.2670059178195956
-4.0644999999999998,0.78233662538272752,-0.14626297998203064
-4.0640000000000001,0.87836819910187125,-0.50654868575772338
-4.0635000000000003,0.76099627566746908,-0.61251506980930126
-4.0629999999999997,0.61161382765969829,-0.62311170821456507
-4.0625,0.49424190422529612,-0.62311170821456507
-4.0620000000000003,0.36619980593322093,-0.49595204735267162
-4.0614999999999997,-0.22065981124015896,0.12924961855296832
-4.0609999999999999,-1.0102527507079564,0.83922439169854057
-4.0605000000000002,-1.7464948158880587,1.3584596735517449
-4.0599999999999996,-2.2693333839145464,1.644568910491333
-4.0594999999999999,-2.3120140833452387,1.7187453793274377
-4.0590000000000002,-1.8211860398918371,1.2207033742845681
-4.0585000000000004,-0.92489135184731031,0.44714877070804915
-4.0579999999999998,-0.25267033581248871,-0.15685961838719809
-4.0575000000000001,0.16346648363713429,-0.49595204735255594
-4.0570000000000004,0.36619980593292012,-0.58072515459381835
-4.0564999999999998,0.43022085507920033,-0.50654868575772338
-4.056,0.41955068022151765,-0.33700247127504446
-4.0555000000000003,0.35552963107548002,-0.14626297998220411
-4.0549999999999997,0.24882788249846924,0.0020899576903134209
-4.0545,0.11011560934872107,0.0020899576903134209
-4.0540000000000003,-0.092617712947064737,-0.17805289519736908
-4.0534999999999997,-0.50875453239742519,-0.40058230170637671
-4.0529999999999999,-1.1169544992847826,-0.76086800748174177
-4.0525000000000002,-1.6291228924535495,-1.1423469900677694
-4.0519999999999996,-1.714484291314506,-1.2801032893345796
-4.0514999999999999,-1.1596351987155133,-0.87743102993858346
-4.0510000000000002,-0.4980843575391895,-0.27342264084403983
-4.0505000000000004,0.067434909917476193,0.22461936419837653
-4.0499999999999998,0.4622313796522482,0.47893868592284788
-4.0495000000000001,0.65429452709053582,0.57430843156935485
-4.0490000000000004,0.69697522652122745,0.50013196273325033
-4.0484999999999998,0.67563487680590106,0.43655213230215889
-4.048,0.67563487680590106,0.41535885549184332
-4.0475000000000003,0.67563487680590106,0.30939247144026533
-4.0469999999999997,0.5902734779443719,0.086863064931440859
-4.0465,0.51558225394066137,-0.14626297998203064
-4.0460000000000003,0.46223137965229671,-0.34759910968002872
-4.0454999999999997,0.44089102993665003,-0.41117894011085987
-4.0449999999999999,0.18480683335249956,-0.019103319120021445
-4.0445000000000002,-0.48741418268150688,0.63788826200035942
-4.0439999999999996,-1.1276246741429796,1.1253336286382543
-4.0434999999999999,-1.6931439415996454,1.33726639674141
-4.0430000000000001,-2.1839719850530468,1.4856193344137538
-4.0425000000000004,-1.8852070890382047,1.220703374284809
-4.0419999999999998,-1.0529334501386869,0.54251851635385251
-4.0415000000000001,-0.38071243410468042,-0.082683149551026042
-4.0410000000000004,0.078105084775255851,-0.46416213213670665
-4.0404999999999998,0.3235191065024709,-0.60191843140419177
-4.04,0.43022085507920033,-0.55953187778356051
-4.0395000000000003,0.44089102993687324,-0.42177557851650921
-4.0389999999999997,0.39821033050602622,-0.23103608722325444
-4.0385,0.25949805735627807,-0.10387642636136091
-4.0380000000000003,0.099445434491184009,-0.050893234335571934
-4.0374999999999996,-0.11395806266275997,-0.17805289519757148
-4.0369999999999999,-0.27401068552785401,-0.22043944881820265
-4.0365000000000002,-0.73282820440820751,-0.14626297998203064
-4.0359999999999996,-1.2556667724349384,-0.40058230170642489
-4.0354999999999999,-1.5651018433074537,-0.81385119950757889
-4.0350000000000001,-1.4584000947306273,-0.97280077558509037
-4.0345000000000004,-0.78617907869723214,-0.76086800748193451
-4.0339999999999998,-0.12462823752029703,-0.37938902489571413
-4.0335000000000001,0.36619980593310447,-0.061489872740691176
-4.0330000000000004,0.61161382765958194,0.17163617217278032
-4.0324999999999998,0.65429452709053582,0.33058574825059062
-4.032,0.65429452709053582,0.42595549389701071
-4.0315000000000003,0.65429452709053582,0.41535885549185297
-4.0309999999999997,0.84635767452882327,0.52132523954339238
-4.0305,0.84635767452882327,0.38356894027634103
-4.0300000000000002,0.70764540137907517,0.10805634174223833
-4.0294999999999996,0.56893312822897757,-0.16745625679253898
-4.0289999999999999,0.4622313796522482,-0.3581957480853793
-4.0285000000000002,0.23815770764091276,-0.15685961838719809
-4.0279999999999996,-0.11395806266239121,0.42595549389739623
-4.0274999999999999,0.13145595906408636,0.84982103010370802
-4.0270000000000001,0.57960330308675734,0.97698069096571727
-4.0265000000000004,0.29150858192958801,1.1465269054482419
-4.0259999999999998,-0.06060718837420119,0.93459413734504748
-4.0255000000000001,-0.08194753808956648,0.36237566346600614
-4.0250000000000004,0.035424385344835829,-0.1568596183867258
-4.0244999999999997,0.17413665849490426,-0.47475877054232707
-4.024,0.27016823221396069,-0.59132179299906285
-4.0235000000000003,0.33418928135999831,-0.54893523937843158
-4.0229999999999997,0.35552963107540236,-0.42177557851623937
-4.0225,0.33418928136005654,-0.26282600243887239
-4.0220000000000002,0.27016823221401892,-0.10387642636150546
-4.0214999999999996,0.17413665849471988,-0.019103319120069632
-4.0209999999999999,0.067434909917990504,-0.072086511145858609
-4.0205000000000002,-0.19931946152407554,-0.3581957480853793
-4.0199999999999996,-0.73282820440868301,-0.75027136907695013
-4.0194999999999999,-1.2556667724346571,-1.1635402668781043
-4.0190000000000001,-1.7358246410303759,-1.4496495038176249
-4.0185000000000004,-1.9278877884684886,-1.3966663117918359
-4.0179999999999998,-1.3837088707268488,-0.91981758355925325
-4.0175000000000001,-0.67947733011979428,-0.29461591765437467
-4.0170000000000003,-0.049937013517091122,0.21402272579319948
-4.0164999999999997,0.38754015564865413,0.53192187794880075
-4.016,0.59027347794443985,0.6590815388106942
-4.0155000000000003,0.65429452709047764,0.62729162359522084
-4.0149999999999997,0.66496470194831536,0.42595549389670229
-4.0145,0.77166645052504479,0.086863064931652884
-4.0140000000000002,0.76099627566737194,-0.1356663415766608
-4.0134999999999996,0.65429452709042901,-0.24163272562861465
-4.0129999999999999,0.53692260365602662,-0.32640583286987701
-4.0125000000000002,0.45156120479456557,-0.38998566330088158
-4.0119999999999996,0.36619980593282303,-0.24163272562797858
-4.0114999999999998,0.05676473506030786,0.37297230187117358
-4.0110000000000001,0.035424385344942577,1.0193672445863871
-4.0105000000000004,0.47290155450953297,1.4644260576030146
-4.0099999999999998,0.3982103305061524,1.6869554641119353
-4.0095000000000001,-0.24200016095480609,1.6445689104912655
-4.0090000000000003,-0.42339313353524599,0.99817396777663991
-4.0084999999999997,-0.26334051066995789,0.214022725793132
-4.008,-0.028596663801153277,-0.36879238649054674
-4.0075000000000003,0.16346648363695959,-0.66549826183496497
-4.0069999999999997,0.29150858192937451,-0.72907809226615272
-4.0065,0.34485945621773917,-0.63370834661973252
-4.0060000000000002,0.36619980593310447,-0.4641621321370536
-4.0054999999999996,0.3341892813599886,-0.27342264084390488
-4.0049999999999999,0.25949805735627807,-0.12506970317169577
-4.0045000000000002,0.12078578420640371,-0.11447306476652835
-4.0039999999999996,0.024754210486959097,-0.15685961838732337
-4.0034999999999998,-0.30602121010090194,-0.29461591765437467
-4.0030000000000001,-0.92489135184649518,-0.6972881770507372
-4.0025000000000004,-1.5544316684491983,-1.121153713257049
-4.0019999999999998,-1.8745369141802501,-1.4072629501969551
-4.0015000000000001,-1.0102527507079564,-1.4178595886021226
-4.0010000000000003,-0.16730893695179427,-0.88802766834423275
-4.0004999999999997,0.37686998079104911,-0.19924617200750158
-4,0.66496470194821833,0.20342608738849466
-3.9994999999999998,0.75032610080967954,0.38356894027634103
-3.9990000000000001,0.72898575109431429,0.43655213230217815
-3.9984999999999999,0.6863050516635838,0.41535885549184332
-3.9980000000000002,0.64362435223285308,0.36237566346600614
-3.9975000000000001,0.6116138276598051,0.25640927941433178
-3.9969999999999999,0.52625242879834411,0.10805634174198775
-3.9965000000000002,0.45156120479456557,-0.050893234335523743
-3.996,0.40888050536383502,-0.18864953360270037
-3.9954999999999998,0.38754015564846972,-0.2310360872233701
-3.9950000000000001,-0.039266838658835915,0.18223281057815977
-3.9944999999999999,-0.79684925355430347,0.82862775329337313
-3.9940000000000002,-1.5330913187344057,1.33726639674141
-3.9935,-2.1626316353376818,1.6233756336809306
-3.9929999999999999,-2.301343908487556,1.7293420177326051
-3.9925000000000002,-2.0879404113339031,1.4114428655775821
-3.992,-1.2023158981462438,0.62729162359519197
-3.9914999999999998,-0.4554036581084589,-0.10387642636136091
-3.9910000000000001,0.046094560202625215,-0.57012851618872795
-3.9904999999999999,0.32351910650237387,-0.75027136907657432
-3.9900000000000002,0.43022085507920033,-0.73967473067140688
-3.9895,0.45156120479456557,-0.60191843140423029
-3.9889999999999999,0.3982103305061524,-0.41117894011121647
-3.9885000000000002,0.30217875678700862,-0.24163272562853755
-3.988,0.19547700821018218,-0.14626297998203064
-3.9874999999999998,0.08877525963335578,-0.1674562567923655
-3.9870000000000001,-0.17797911180871023,-0.32640583286987701
-3.9864999999999999,-0.73282820440820751,-0.68669153864556975
-3.9860000000000002,-1.3410281712961183,-1.0999604364470996
-3.9855,-1.8852070890379329,-1.3542797581711179
-3.9849999999999999,-1.6291228924535495,-1.1211537132574345
-3.9845000000000002,-0.82885977812735145,-0.50654868575772338
-3.984,-0.14596858723566233,0.033879872905815719
-3.9834999999999998,0.33418928136005654,0.30939247144016896
-3.9830000000000001,0.60094365280212259,0.43655213230217815
-3.9824999999999999,0.67563487680590106,0.47893868592284788
-3.9820000000000002,0.65429452709053582,0.46834204751768049
-3.9815,0.64362435223285308,0.41535885549184332
-3.9809999999999999,0.80367697509809277,0.29879583303500157
-3.9805000000000001,0.79300680024041004,0.16103953376782493
-3.98,0.67563487680590106,0.055073149716150585
-3.9794999999999998,0.55826295337139209,-0.093279787956193475
-3.9790000000000001,0.4835717293676135,-0.22043944881820265
-3.9784999999999999,0.32351910650237387,-0.050893234335523743
-3.9780000000000002,0.067434909917990504,0.27760255622466667
-3.9775,0.20614718306786484,0.40476221708667587
-3.9769999999999999,0.57960330308675734,0.33058574825050385
-3.9765000000000001,0.18480683335249956,0.59550170837968963
-3.976,-0.33803173467394987,0.70146809243136399
-3.9754999999999998,-0.35937208438931517,0.28819919462983412
-3.9750000000000001,-0.15663876209334496,-0.22043944881820265
-3.9744999999999999,0.067434909917990504,-0.59132179299906285
-3.9740000000000002,0.22748753278323011,-0.76086800748174177
-3.9735,0.32351910650237387,-0.77146464588690922
-3.9729999999999999,0.36619980593310447,-0.66549826183523486
-3.9725000000000001,0.36619980593310447,-0.51714532416289083
-3.972,0.28083840707164331,-0.3581957480853793
-3.9714999999999998,0.18480683335249956,-0.25222936403370499
-3.9710000000000001,0.078105084775673142,-0.25222936403370499
-3.9704999999999999,-0.14596858723566233,-0.48535540894738849
-3.9700000000000002,-0.6047861061160158,-0.86683439153341613
-3.9695,-1.2023158981462438,-1.2589100125246109
-3.9689999999999999,-1.6931439415996454,-1.4072629501969551
-3.9685000000000001,-1.9172176136109809,-1.3118932045504481
-3.968,-1.3410281712961183,-0.83504447631791379
-3.9674999999999998,-0.61545628097369853,-0.18864953360270037
-3.9670000000000001,0.024754210487259936,0.31998910984533641
-3.9664999999999999,0.41955068022151765,0.64848490040552687
-3.9660000000000002,0.60094365280212259,0.78624119967270345
-3.9655,0.67563487680590106,0.80743447648303834
-3.9649999999999999,0.67563487680590106,0.68027481562102909
-3.9645000000000001,0.82501732481345802,0.51072860113835017
-3.964,0.8997085488172365,0.29879583303500157
-3.9634999999999998,0.78233662538272752,0.097459703336820316
-3.9630000000000001,0.63295417737517057,-0.093279787956193475
-3.9624999999999999,0.51558225394066137,-0.24163272562853755
-3.9620000000000002,0.5689331282290746,-0.061489872740691176
-3.9615,0.099445434491038431,0.53192187794868506
-3.9609999999999999,-0.72215802955052499,1.1359302670432285
-3.9605000000000001,-1.3943790455845313,1.4962159728189213
-3.96,-1.8958772638956156,1.4750226960085864
-3.9594999999999998,-1.7464948158880587,1.146526905448396
-3.9590000000000001,-1.0209229255656389,0.42595549389701071
-3.9584999999999999,-0.38071243410468042,-0.22043944881820265
-3.9580000000000002,0.067434909917990504,-0.63370834661973252
-3.9575,0.32351910650237387,-0.792657922697244
-3.9569999999999999,0.41955068022151765,-0.78206128429207655
-3.9565000000000001,0.44089102993688295,-0.66549826183523486
-3.956,0.41955068022151765,-0.49595204735255594
-3.9554999999999998,0.36619980593310447,-0.30521255605954212
-3.9550000000000001,0.28083840707164331,-0.17805289519753292
-3.9544999999999999,0.17413665849481691,-0.12506970317169577
-3.9540000000000002,0.067434909917990504,-0.17805289519753292
-3.9535,-0.30602121010090194,-0.51714532416289083
-3.9529999999999998,-0.78617907869662074,-0.97280077558509037
-3.9525000000000001,-1.1276246741424654,-1.3542797581711179
-3.952,-1.2876772970077051,-1.4814394190331273
-3.9514999999999998,-0.77550890383893822,-0.9304142219644207
-3.9510000000000001,-0.08194753808956648,-0.2310360872233701
-3.9504999999999999,0.43022085507920033,0.15044289536265748
-3.9500000000000002,0.67563487680590106,0.41535885549184332
-3.9495,0.78233662538272752,0.63788826200035942
-3.9489999999999998,0.75032610080967954,0.64848490040552687
-3.9485000000000001,0.67563487680590106,0.51072860113835017
-3.948,0.71831557623663156,0.4471487707073456
-3.9474999999999998,0.81434714995577528,0.4471487707073456
-3.9470000000000001,0.72898575109431429,0.28819919462983412
-3.9464999999999999,0.60094365280212259,0.097459703336820316
-3.9460000000000002,0.49424190422529612,-0.082683149551026042
-3.9455,0.4622313796522482,-0.1674562567923655
-3.9449999999999998,0.30217875678700862,0.21402272579366208
-3.9445000000000001,0.17413665849481691,0.84982103010370802
-3.944,0.16346648363713429,1.3478630351465775
-3.9434999999999998,0.22748753278323011,1.5809890800602608
-3.9430000000000001,-0.27401068552785401,1.6445689104912655
-3.9424999999999999,-0.48741418268150688,1.2101067358794007
-3.9420000000000002,-0.32736155981626724,0.43655213230217815
-3.9415,-0.071277363231883828,-0.20984281041303524
-3.9409999999999998,0.15279630877945163,-0.5807251545938954
-3.9405000000000001,0.28083840707164331,-0.70788481545590454
-3.9399999999999999,0.35552963107542179,-0.66549826183523486
-3.9394999999999998,0.3768699807907871,-0.51714532416289083
-3.9390000000000001,0.35552963107542179,-0.33700247127504446
-3.9384999999999999,0.27016823221396069,-0.18864953360270037
-3.9380000000000002,0.17413665849481691,-0.13566634157686319
-3.9375,0.014084035629577295,-0.24163272562853755
-3.9369999999999998,-0.39138260896236304,-0.48535540894738849
-3.9365000000000001,-0.71148785469284226,-0.47475877054222104
-3.9359999999999999,-0.59411593125833329,-0.65490162343006741
-3.9355000000000002,-0.51942470725455481,-0.89862430674891836
-3.9350000000000001,-0.17797911180871023,-0.57012851618872795
-3.9344999999999999,0.20614718306786484,-0.019103319120021445
-3.9340000000000002,0.50491207908297886,0.4471487707073456
-3.9335,0.6116138276598051,0.68027481562102909
-3.9329999999999998,0.64362435223285308,0.73325800764686633
-3.9325000000000001,0.65429452709053582,0.76504792286236856
-3.9319999999999999,0.62228400251748783,0.61669498519002452
-3.9315000000000002,0.63295417737517057,0.4471487707073456
-3.931,0.84635767452882327,0.26700591781949923
-3.9304999999999999,0.83568749967114075,0.10805634174198775
-3.9300000000000002,0.70764540137894905,-0.04029659593035631
-3.9295,0.5689331282290746,-0.18864953360270037
-3.9289999999999998,0.4835717293676135,-0.29461591765437467
