Class_10_Using_Wats_App/Class_10_WatsApp_AM_7.csv

#Digilent WaveForms Oscilloscope Acquisition
#Device Name: EExplorer
#Serial Number: SN:210151A2B84A
#Date Time: 2021-01-19 10:09:42.929
#Sample rate: 2000Hz
#Samples: 16384
#Trigger: Source: Channel 1 Type: Edge Condition: Rising Level: 0 V Hyst.: Auto HoldOff: 0 s
#Channel 1: Range: 1 V/div Offset: 0 V Attenuation: 1 X
#Channel 2: Range: 1 V/div Offset: 0 V Attenuation: 1 X
#Power Supplies: ON
#Fixed Supply: ON
#Voltage: 3.3 V Readback: 3.317 V
#Positive Supply: ON
#Voltage: 3.7 V Readback: 3.717 V
#Current: 40 mA Readback: 16 mA
#Negative Supply: ON
#Voltage: -3.7 V Readback: -3.319 V
#Current: -40 mA Readback: 0 A
#Reference 1: ON
#Voltage: 0 V
#Reference 2: ON
#Voltage: 0 V

Time (s),Channel 1 (V),Channel 2 (V)
-4.096,0.8036769750980928,0.6590815388106942
-4.0955,0.6542945270906717,0.3305857482508026
-4.095,0.5262524287982082,0.04447651131087714
-4.0945,0.3768699807907871,-0.07208651114585861
-4.094,-0.0606071883738033,0.362375663465611
-4.0935,-0.7755089038395691,0.9451907757500414
-4.093,-1.46907026958831,0.7544512844572011
-4.0925,-2.002579012471957,-0.09327978795542247
-4.092,-2.194642159910468,-0.9939940523957722
-4.0915,-1.906547438753298,-1.375473034981453
-4.091,-1.042263275281004,-1.05757388282643
-4.0905,-0.3380317346735229,-0.5595318777831654
-4.09,0.1314559590640864,-0.1250697031716958
-4.0895,0.3875401556484697,0.1716361721729923
-4.089,0.4835717293675261,0.3517790250606748
-4.0885,0.5049120790829789,0.4259554938970107
-4.088,0.4729015545099309,0.457745409112513
-4.0875,0.4408910299369121,0.4365521323021974
-4.087,0.4088805053637865,0.3835689402762639
-4.0865,0.3555296310754218,0.2987958330350016
-4.086,-0.01792648894313092,-0.1674562567919415
-4.0855,-0.7008176798358002,-0.8986243067495159
-4.085,-1.405049220442214,-1.555615887869299
-4.0845,-1.842526389606804,-1.968884785670453
-4.084,-1.309017646722304,-1.788741932782626
-4.0835,-0.4660738329661415,-1.396666311791788
-4.083,0.2061471830678648,-0.792657922697244
-4.0825,0.6009436528022585,-0.1568596183867451
-4.082,0.7503261008096795,0.3411823866556712
-4.0815,0.7503261008096795,0.627291623595192
-4.081,0.686305051663642,0.73325800764677
-4.0805,0.6969752265212663,0.627291623595192
-4.08,0.8997085488172365,0.2881991946298341
-4.0795,0.8676980242442176,0.1504428953627828
-4.079,0.7183155762364957,0.1080563417419588
-4.0785,0.5689331282290746,0.07626642652648545
-4.078,0.4622313796523452,0.05507314971616986
-4.0775,0.3341892813601439,0.3941655786820867
-4.077,0.4302208550792003,1.029963882991555
-4.0765,-0.1246282375197924,1.559795803249444
-4.076,-0.8075194284125585,1.369056311955968
-4.0755,-1.437059745015262,0.3305857482505039
-4.075,-1.746494815888059,-0.6443049850249
-4.0745,-1.223656247861017,-0.8668343915332137
-4.074,-0.572775581542968,-0.6443049850249
-4.0735,-0.04993701351651855,-0.3158091944647096
-4.073,0.2701682322136696,-0.04029659593060686
-4.0725,0.4302208550792003,0.1504428953626575
-4.072,0.4835717293676135,0.2564092794143318
-4.0715,0.4835717293676135,0.3093924714401208
-4.071,0.4515612047945268,0.3199891098453171
-4.0705,0.408880505363835,0.2987958330350016
-4.07,0.3768699807908162,0.2352160026040548
-4.0695,0.120785784205967,-0.05089323433613091
-4.069,-0.3593720843893152,-0.718481453861072
-4.0685,-0.8502001278427167,-1.364876396576285
-4.068,-1.362368521011319,-1.852321763213852
-4.0675,-1.180975548430879,-1.703968825541643
-4.067,-0.4874141826815069,-1.290699927740113
-4.0665,0.1634664836375128,-0.7926579226967525
-4.066,0.5796033030867573,-0.252229364033705
-4.0655,0.7609962756673623,0.2140227257936621
-4.065,0.7823366253827081,0.5001319627329226
-4.0645,0.7183155762366316,0.6590815388106942
-4.064,0.6436243522328531,0.6908714540261965
-4.0635,0.825017324813293,0.4365521323024095
-4.063,0.8570278493863992,0.2776025562246281
-4.0625,0.7396559259519968,0.2352160026039969
-4.062,0.6009436528022487,0.2034260873885236
-4.0615,0.4942419042251021,0.1504428953628213
-4.061,0.2808384070716433,0.3305857482505039
-4.0605,-0.3060212101009019,0.9028042221295453
-4.06,-1.052933450139279,1.42203950398248
-4.0595,-1.703814116457328,1.125333628638062
-4.059,-2.151961460479999,0.13984625695749
-4.0585,-2.194642159910691,-0.8562377531273426
-4.058,-1.650463242168915,-1.163540266878104
-4.0575,-0.7968492535543035,-0.8986243067489184
-4.057,-0.1566387620939272,-0.50654868575808
-4.0565,0.2381577076409128,-0.1674562567923655
-4.056,0.4408910299368829,0.05507314971615059
-4.0555,0.5049120790829207,0.1716361721728863
-4.055,0.5049120790829498,0.2246193641988488
-4.0545,0.4729015545099309,0.2458126410091644
-4.054,0.4302208550792391,0.2352160026040066
-4.0535,0.3875401556483727,0.2140227257935464
-4.053,0.2808384070716433,0.08686306493165288
-4.0525,-0.04993701351651855,-0.474758770542221
-4.052,-0.1032878878053685,-1.152943628473467
-4.0515,-0.5834457564006506,-1.735758740757146
-4.051,-0.8288597781273515,-1.873515040024322
-4.0505,-0.4340633083934527,-1.396666311792221
-4.05,0.08877525963335578,-0.8668343915334161
-4.0495,0.4835717293676135,-0.2946159176543747
-4.049,0.6863050516633994,0.2987958330344619
-4.0485,0.7609962756673526,0.8074344764832407
-4.048,0.7503261008096795,1.029963882991555
-4.0475,0.6649647019482959,0.9769806909657655
-4.047,0.8250173248136133,1.008770606181171
-4.0465,0.9957401225363802,0.9557874141553824
-4.046,0.8890383739596508,0.6484849004058064
-4.0455,0.718315576236486,0.298795833034751
-4.045,0.5582629533713921,0.02328323450064829
-4.0445,0.4195506802215176,-0.06148987274069118
-4.044,-0.02859666380183259,0.4047622170872541
-4.0435,-0.7755089038389382,1.040560521396722
-4.043,-1.46907026958831,1.114736990232894
-4.0425,-1.991908837614284,0.3623756634666904
-4.042,-2.19464215991073,-0.6231117082145651
-4.0415,-1.842526389607202,-1.110557074852267
-4.041,-0.9782422261356944,-0.8986243067491111
-4.0405,-0.295351035242802,-0.4747587705418548
-4.04,0.1634664836371343,-0.07208651114585861
-4.0395,0.4088805053636118,0.2246193641985597
-4.039,0.4942419042253058,0.4047622170867722
-4.0385,0.5049120790829789,0.5107286011383502
-4.038,0.4835717293676329,0.5637117931641392
-4.0375,0.4408910299368539,0.5637117931641392
-4.037,0.408880505363835,0.5107286011383502
-4.0365,0.3555296310754218,0.4153588554918433
-4.036,0.003413860771768492,-0.07208651114651396
-4.0355,-0.1352984123779797,-0.792657922697244
-4.035,-0.5087545323968721,-1.407262950196955
-4.0345,-0.9035510021307709,-1.735758740756847
-4.034,-0.5621054066852853,-1.47084278062796
-4.0335,0.01408403562957729,-1.163540266878104
-4.033,0.4622313796518406,-0.7184814538614768
-4.0325,0.7183155762366897,-0.2310360872230232
-4.032,0.7823366253827275,0.1504428953626575
-4.0315,0.7396559259520357,0.4047622170864446
-4.031,0.6542945270905262,0.5531151547591452
-4.0305,0.6436243522328531,0.6908714540261965
-4.03,0.7716664505249283,0.8604176685087213
-4.0295,0.73965592595189,0.7120647308362809
-4.029,0.6222840025174878,0.4365521323021782
-4.0285,0.5262524287983441,0.1716361721729923
-4.028,0.4622313796524423,-0.008506680714574522
-4.0275,0.6756348768059011,0.2987958330350016
-4.027,0.9530594231056497,0.9345941373450475
-4.0265,0.3021787567876006,1.443232780792622
-4.026,-0.5300948821122373,1.199510097474233
-4.0255,-1.277007122150022,0.2140227257936621
-4.025,-1.650463242168575,-0.6972881770499084
-4.0245,-1.191645723287988,-0.8668343915331849
-4.024,-0.5621054066852853,-0.6125150698093976
-4.0235,-0.06060718837465728,-0.2628260024391904
-4.023,0.2594980573564236,0.03387987290600847
-4.0225,0.4195506802215176,0.2458126410091644
-4.022,0.4729015545098824,0.3729723018710579
-4.0215,0.4729015545099018,0.4365521323021974
-4.021,0.4408910299368829,0.457745409112513
-4.0205,0.408880505363835,0.4365521323021782
-4.02,0.376869980790593,0.3835689402760808
-4.0195,0.1634664836371343,0.09745970333682032
-4.019,-0.423393133535411,-0.570128516188728
-4.0185,-1.116954499284152,-1.237716735713669
-4.018,-1.682473766741963,-1.703968825541643
-4.0175,-1.383708870726849,-1.523825972653797
-4.017,-0.5941159312590514,-1.07876715963717
-4.0165,0.1101156093491287,-0.6443049850245048
-4.016,0.5582629533713921,-0.2098428104130352
-4.0155,0.7396559259518318,0.2246193641984344
-4.015,0.7609962756673041,0.5213252395436622
-4.0145,0.6969752265212663,0.6802748156210291
-4.014,0.6436243522329016,0.7120647308365026
-4.0135,0.8250173248134871,0.4471487707071432
-4.013,0.857027849386506,0.2246193641988295
-4.0125,0.7396559259519968,0.1080563417419877
-4.012,0.6009436528020256,0.01268659609540375
-4.0115,0.4942419042252961,-0.07208651114585861
-4.011,0.3875401556484697,0.1186529801471552
-4.0105,0.5369226036558907,0.7332580076463073
-4.01,0.1848068333524996,1.25249328950007
-4.0095,-0.5621054066852853,0.9769806909657173
-4.009,-1.255666772434026,0.214022725794356
-4.0085,-1.714484291314642,-0.6654982618354661
-4.008,-1.30901764672307,-0.9198175835592532
-4.0075,-0.6688071552626941,-0.7184814538612551
-4.007,-0.1246282375199768,-0.389985663300631
-4.0065,0.2274875327832301,-0.1144730647665284
-4.006,0.408880505363835,0.08686306493165288
-4.0055,0.4729015545099309,0.2034260873885621
-4.005,0.4729015545099309,0.2776025562246667
-4.0045,0.4515612047945656,0.309392471440169
-4.004,0.4195506802214886,0.3093924714401497
-4.0035,0.3875401556484697,0.2881991946298341
-4.003,0.2594980573562781,0.1080563417419877
-4.0025,-0.1352984123776206,-0.5065486857571644
-4.002,-0.3807124341046804,-1.184733543688439
-4.0015,-0.9035510021311299,-1.714565463946811
-4.001,-0.9889124009925135,-1.809935209593231
-4.0005,-0.4447334832502522,-1.417859588601602
-4,0.1314559590640864,-0.8456411147230812
-3.9995,0.5369226036560266,-0.2946159176543747
-3.999,0.707645401378949,0.1822328105781598
-3.9985,0.7396559259519968,0.5319218779486851
-3.998,0.7183155762366316,0.6378882620003594
-3.9975,0.6649647019482183,0.6696781772158616
-3.997,0.79300680024041,0.849821030103708
-3.9965,0.8783681991018712,0.8922075837243778
-3.996,0.7716664505250448,0.7226613692416989
-3.9955,0.6329541773751706,0.4683420475176805
-3.995,0.5049120790829789,0.2246193641988295
-3.9945,0.4302208550792003,0.1186529801471552
-3.994,0.6329541773751706,0.5319218779486851
-3.9935,0.6222840025174878,1.135930267043229
-3.993,-0.1139580626626144,1.263089927905238
-3.9925,-0.8928808272734472,0.5107286011383502
-3.992,-1.575772018165136,-0.5171453241628908
-3.9915,-1.607782542738184,-1.0999604364471
-3.991,-0.9995825758502737,-0.9728007755850904
-3.9905,-0.391382608962363,-0.6125150698093976
-3.99,0.0674349099179905,-0.252229364033705
-3.9895,0.3235191065023739,0.002089957690313421
-3.989,0.4408910299368829,0.1610395337678249
-3.9885,0.4729015545099309,0.2458126410091644
-3.988,0.4622313796522482,0.2776025562246667
-3.9875,0.4302208550792003,0.2776025562246667
-3.987,0.3875401556484697,0.2564092794143318
-3.9865,0.3341892813600565,0.1822328105781598
-3.986,-0.07127736323188383,-0.2840192792492073
-3.9855,-0.754168554123573,-0.9728007755850904
-3.985,-1.447729919872945,-1.587405803084801
-3.9845,-1.799845690176472,-1.862918401619155
-3.984,-1.159635198715513,-1.417859588602123
-3.9835,-0.3593720843893152,-0.8350444763179138
-3.983,0.2594980573562781,-0.2628260024388724
-3.9825,0.6116138276598051,0.2776025562246667
-3.982,0.7503261008096795,0.6484849004055269
-3.9815,0.7396559259519968,0.8074344764830383
-3.981,0.6649647019482183,0.849821030103708
-3.9805,0.707645401378949,0.8710143069140429
-3.98,0.8997085488172365,0.9134008605347127
-3.9795,0.857027849386506,0.7226613692416989
-3.979,0.707645401378949,0.4471487707073456
-3.9785,0.5582629533713921,0.1822328105781598
-3.978,0.4408910299368829,0.002089957690313421
-3.9775,0.4195506802215176,0.2881991946298341
-3.977,0.6116138276598051,0.8922075837243778
-3.9765,0.02475421048725994,1.42203950398275
-3.976,-0.7328282044082075,1.273686566310405
-3.9755,-1.437059745015262,0.2670059178194992
-3.975,-1.682473766741963,-0.6125150698093976
-3.9745,-1.148965023857831,-0.7714646458869092
-3.974,-0.5087545323968721,-0.5383386009732256
-3.9735,-0.01792648894347063,-0.2310360872233701
-3.973,0.2808384070716433,0.03387987290581572
-3.9725,0.4302208550792003,0.2140227257936621
-3.972,0.4729015545099309,0.3305857482505039
-3.9715,0.4622313796522482,0.3941655786815084
-3.971,0.4302208550792003,0.4047622170866759
-3.9705,0.3982103305061524,0.3729723018711736
-3.97,0.3661998059331045,0.3199891098453364
-3.9695,0.1314559590640864,0.03387987290581572
-3.969,-0.4447334832507763,-0.6337083466197325
-3.9685,-1.116954499284783,-1.290699927740113
-3.968,-1.661133417026597,-1.75695201756748
-3.9675,-1.351698346153801,-1.661582271920973
-3.967,-0.5621054066852853,-1.34368311976595
-3.9665,0.1207857842064037,-0.8986243067489184
-3.966,0.5475927785137094,-0.3052125560595421
-3.9655,0.7289857510943143,0.2140227257936621
-3.965,0.7396559259519968,0.5001319627331828
-3.9645,0.6756348768059011,0.627291623595192
-3.964,0.6222840025174878,0.6802748156210291
-3.9635,0.8890383739595538,0.8604176685088755
-3.963,0.9317190733902845,0.7650479228623686
-3.9625,0.79300680024041,0.4895353243280153
-3.962,0.6329541773751706,0.1928294489833272
-3.9615,0.5049120790829789,-0.02969995752518888
-3.961,0.4729015545099309,0.03387987290581572
-3.9605,0.8143471499557753,0.6166949851900245
-3.96,0.4622313796522482,1.263089927905238
-3.9595,-0.3593720843893152,1.633972272086098
-3.959,-1.1062843244271,1.29487984312074
-3.9585,-1.67180359188428,0.2670059178194992
-3.958,-1.394379045584531,-0.3581957480853793
-3.9575,-0.7648387289812555,-0.4323722169215513
-3.957,-0.2099896363817582,-0.2628260024388724
-3.9565,0.1741366584948169,-0.02969995752518888
-3.956,0.3768699807907871,0.1822328105781598
-3.9555,0.4622313796522482,0.3517790250608387
-3.955,0.4729015545099309,0.4789386859228479
-3.9545,0.4515612047945656,0.55311515475902
-3.954,0.408880505363835,0.5637117931641874
-3.9535,0.3768699807907871,0.5319218779486851
-3.953,0.2701682322139607,0.3729723018711736
-3.9525,-0.2846808603855366,-0.2204394488182027
-3.952,-1.010252750707956,-0.8986243067489184
-3.9515,-1.693143941599645,-1.407262950196955
-3.951,-1.479740444445993,-1.587405803084801
-3.9505,-0.572775581542968,-1.449649503817625
-3.95,0.1634664836371343,-0.9939940523954253
-3.9495,0.6009436528021226,-0.3793890248957141
-3.949,0.7716664505250448,0.2140227257936621
-3.9485,0.7716664505250448,0.6060983467848571
-3.948,0.6969752265212663,0.7544512844572011
-3.9475,0.6116138276598051,0.7438546460520338
-3.947,0.7716664505250448,0.4683420475176805
-3.9465,0.8997085488172365,0.13984625695749
-3.946,0.8036769750980928,0.002089957690313421
-3.9455,0.6542945270905358,-0.07208651114585861
-3.945,0.5155822539406614,-0.1462629799820306
-3.9445,0.3875401556484697,-0.1250697031716958
-3.944,0.01408403562957729,0.3729723018711736
-3.9435,-0.690147504977477,1.019367244586387
-3.943,-1.383708870726849,0.9557874141553824
-3.9425,-1.959898313041711,0.13984625695749
-3.942,-2.205312334768412,-0.8032545611024114
-3.9415,-1.87453691418025,-1.237716735714276
-3.941,-1.010252750707956,-1.004590690800593
-3.9405,-0.3166913849585846,-0.5807251545938954
-3.94,0.142126133921769,-0.1992461720078678
-3.9395,0.3875401556484697,0.06566978812131802
-3.939,0.4835717293676135,0.2246193641988295
-3.9385,0.4942419042252961,0.2881991946298341
-3.938,0.4622313796522482,0.3199891098453364
-3.9375,0.4195506802215176,0.309392471440169
-3.937,0.3875401556484697,0.2670059178194992
-3.9365,0.3341892813600565,0.1822328105781598
-3.936,-0.08194753808956648,-0.2840192792492073
-3.9355,-0.7968492535543035,-0.9939940523954253
-3.935,-1.501080794161358,-1.619195718300304
-3.9345,-1.757164990745741,-1.990078062481164
-3.934,-0.9248913518464952,-1.968884785670829
-3.9335,-0.09261771294724913,-1.38606967338662
-3.933,0.4835717293676135,-0.6972881770507372
-3.9325,0.7503261008096795,-0.1144730647665284
-3.932,0.8036769750980928,0.2987958330350016
-3.9315,0.7503261008096795,0.5849050699745222
-3.931,0.6542945270905358,0.6908714540261965
-3.9305,0.6969752265212663,0.55311515475902
-3.93,0.9210488985326017,0.1822328105781598
-3.9295,0.8676980242441885,0.05507314971615059
-3.929,0.7183155762366316,0.05507314971615059
-3.9285,0.5689331282290746,0.07626642652648545
-3.928,0.4515612047945656,0.1080563417419877
-3.9275,0.3341892813600565,0.5213252395435176
-3.927,0.4515612047945656,1.167720182258731
-3.9265,-0.09261771294724913,1.697552102517103
-3.926,-0.754168554123573,1.580989080060261
-3.9255,-1.362368521011484,0.5425185163538525
-3.925,-1.586442193022819,-0.4323722169215513
-3.9245,-1.084943974711735,-0.6654982618352349
-3.924,-0.4767440078238243,-0.5065486857577234
-3.9235,-0.007256314085787988,-0.2416327256285375
-3.923,0.2808384070716433,-0.008506680714854012
-3.9225,0.4302208550792003,0.1610395337678249
-3.922,0.4729015545099309,0.2670059178194992
-3.9215,0.4622313796522482,0.3305857482505039
-3.921,0.4302208550792003,0.3411823866556712
-3.9205,0.3982103305061524,0.3199891098453364
-3.92,0.3661998059331045,0.2776025562246667
-3.9195,0.09944543449103843,-0.05089323433552374
-3.919,-0.5621054066852853,-0.7290780922662394
-3.9185,-1.277007122150022,-1.364876396576285
-3.918,-1.83185621474952,-1.820531847998485
-3.9175,-1.234326422719292,-1.937094870455327
-3.917,-0.3166913849585846,-1.703968825541643
-3.9165,0.3661998059331045,-1.078767159636765
-3.916,0.7183155762366316,-0.4111789401112165
-3.9155,0.8143471499557753,0.13984625695749
-3.915,0.79300680024041,0.4789386859228479
-3.9145,0.6969752265212663,0.6378882620003594
-3.914,0.6436243522328531,0.7226613692416989
-3.9135,0.8676980242441885,0.9028042221295453
-3.913,0.8890383739595538,0.8074344764830383
-3.9125,0.7609962756673623,0.5319218779486851
-3.912,0.6009436528021226,0.2458126410091644
-3.9115,0.4942419042252961,0.02328323450064829
-3.911,0.4835717293676135,0.1716361721729923
-3.9105,0.8783681991018712,0.7968378380778709
-3.91,0.5796033030867573,1.411442865577582
-3.9095,-0.2526703358124887,1.602182356870596
-3.909,-1.031593100423322,0.7862411996727035
-3.9085,-1.629122892453549,-0.3158091944647096
-3.908,-1.383708870726849,-0.7608680074817418
-3.9075,-0.7648387289812555,-0.6231117082145651
-3.907,-0.2099896363817582,-0.3052125560595421
-3.9065,0.1634664836371343,0.002089957690313421
-3.906,0.3768699807907871,0.2352160026039969
-3.9055,0.4515612047945656,0.383568940276341
-3.905,0.4622313796522482,0.457745409112513
-3.9045,0.4408910299368829,0.5001319627331828
-3.904,0.408880505363835,0.4789386859228479
-3.9035,0.3768699807907871,0.4259554938970107
-3.903,0.2488278824985954,0.2246193641988295
-3.9025,-0.04993701351651855,-0.400582301706049
-3.902,0.142126133921769,-1.0999604364471
-3.9015,-0.2526703358124887,-1.650985633515806
-3.901,-0.4554036581084589,-1.809935209593318
-3.9005,-0.09261771294724913,-1.619195718300304
-3.9,0.3235191065023739,-1.142346990067769
-3.8995,0.6009436528021226,-0.6654982618352349
-3.899,0.7183155762366316,-0.1780528951975329
-3.8985,0.7183155762366316,0.2034260873884947
-3.898,0.6649647019482183,0.4471487707073456
-3.8975,0.5902734779444399,0.5849050699745222
-3.897,0.7289857510943143,0.775644561267536
-3.8965,0.8356874996711408,0.7862411996727035
-3.896,0.7396559259519968,0.5743084315693548
-3.8955,0.6116138276598051,0.3199891098453364
-3.895,0.4942419042252961,0.09745970333682032
-3.8945,0.4729015545099309,0.08686306493165288
-3.894,0.8997085488172365,0.6166949851900245
-3.8935,0.8463576745288233,1.273686566310405
-3.893,0.01408403562957729,1.284283204715573
-3.8925,-0.8502001278427167,0.4047622170866759
-3.892,-1.575772018165136,-0.6443049850249
-3.8915,-1.565101843307454,-1.110557074852267
-3.891,-0.9569018764195432,-0.9092209451540858
-3.8905,-0.3593720843893152,-0.4853554089473885
-3.89,0.07810508477567314,-0.1144730647665284
-3.8895,0.3235191065023739,0.1610395337678249
-3.889,0.4302208550792003,0.3199891098453364
-3.8885,0.4622313796522482,0.3941655786815084
-3.888,0.4408910299368829,0.4259554938970107
-3.8875,0.408880505363835,0.4047622170866759
-3.887,0.3768699807907871,0.3517790250608387
-3.8865,0.3235191065023739,0.2564092794143318
-3.886,-0.1032878878049318,-0.2416327256285375
