Class_10_Using_Wats_App/Class_10_WatsApp_SH_1.csv

#Digilent WaveForms Oscilloscope Acquisition
#Device Name: EExplorer
#Serial Number: SN:210151A2B84A
#Date Time: 2020-11-17 10:29:49.195
#Sample rate: 2000Hz
#Samples: 16384
#Trigger: Source: Channel 1 Type: Edge Condition: Rising Level: 0 V Hyst.: Auto HoldOff: 0 s
#Channel 1: Range: 1 V/div Offset: 0 V Attenuation: 1 X
#Channel 2: Range: 1 V/div Offset: 0 V Attenuation: 1 X
#Power Supplies: ON
#Fixed Supply: ON
#Voltage: 3.3 V Readback: 3.331 V
#Positive Supply: ON
#Voltage: 3.7 V Readback: 3.711 V
#Current: 40 mA Readback: 21 mA
#Negative Supply: ON
#Voltage: -3.7 V Readback: -3.342 V
#Current: -40 mA Readback: -7 mA
#Reference 1: ON
#Voltage: 0 V
#Reference 2: ON
#Voltage: 0 V

Time (s),Channel 1 (V),Channel 2 (V)
-4.096,0.3875401556484697,0.8604176685088755
-4.0955,0.3661998059331239,0.7968378380779287
-4.095,0.3448594562177197,0.7226613692416218
-4.0945,0.3235191065023739,0.6378882620003594
-4.094,0.312848931644701,0.5531151547590971
-4.0935,0.3128489316445748,0.4471487707069408
-4.093,0.1848068333524996,0.002089957690313421
-4.0925,-0.1993194615237262,-0.6866915386449434
-4.092,-0.7755089038391032,-1.290699927740229
-4.0915,-0.9569018764195432,-1.417859588602123
-4.091,-0.6367966306890638,-0.8774310299385835
-4.0905,-0.209989636381467,-0.3158091944643626
-4.09,0.1101156093487211,0.06566978812131802
-4.0895,0.3021787567870086,0.2564092794143318
-4.089,0.3875401556483921,0.3093924714401208
-4.0885,0.408880505363835,0.2987958330350016
-4.088,0.3875401556484697,0.2458126410091644
-4.0875,0.3982103305061427,0.2564092794143221
-4.087,0.536922603656046,0.4153588554918433
-4.0865,0.5582629533713921,0.4153588554918433
-4.086,0.5049120790830274,0.3517790250608965
-4.0855,0.4408910299368539,0.2881991946296799
-4.085,0.408880505363835,0.1186529801471552
-4.0845,0.6542945270903127,-0.4429688553262079
-4.084,0.4302208550785986,-1.121153713257878
-4.0835,-0.2313299860971235,-1.608599079895136
-4.083,-0.6794773301197943,-1.714565463946811
-4.0825,-1.031593100423137,-1.576809164679008
-4.082,-0.8288597781273515,-0.8880276683437509
-4.0815,-0.423393133535411,-0.1674562567923655
-4.081,-0.04993701351685825,0.3729723018706821
-4.0805,0.1954770082101822,0.6908714540261965
-4.08,0.3235191065023739,0.8286277532933731
-4.0795,0.3661998059330657,0.8604176685088466
-4.079,0.3768699807907677,0.8180311148881383
-4.0785,0.3555296310754218,0.7438546460520338
-4.078,0.334189281360076,0.6590815388107714
-4.0775,0.3235191065023544,0.5743084315692681
-4.077,0.3021787567870086,0.4789386859228479
-4.0765,-0.06060718837387125,0.01268659609590489
-4.076,-0.7114878546933469,-0.7396747306720044
-4.0755,-1.26633694729234,-1.396666311791788
-4.075,-1.330357996438436,-1.417859588602123
-4.0745,-0.8395299529845099,-0.7184814538605226
-4.074,-0.2633405106701714,-0.1144730647665284
-4.0735,0.1634664836371343,0.2034260873884947
-4.073,0.376869980790593,0.2564092794142836
-4.0725,0.4408910299368829,0.1928294489833272
-4.072,0.4408910299368829,0.1186529801471552
-4.0715,0.4088805053638641,0.0656697881213662
-4.071,0.3875401556485668,0.04447651131116627
-4.0705,0.4942419042252961,0.2458126410091644
-4.07,0.5475927785136608,0.3835689402762157
-4.0695,0.5049120790829303,0.3835689402763121
-4.069,0.4515612047945656,0.3517790250608387
-4.0685,0.3982103305061524,0.3199891098453364
-4.068,0.6863050516637197,0.02328323450005076
-4.0675,0.8356874996711408,-0.6337083466197325
-4.067,0.2274875327832301,-1.205926820498774
-4.0665,-0.5194247072550886,-1.492036057438285
-4.066,-1.1062843244271,-1.481439419033127
-4.0655,-0.9889124009925911,-0.8774310299385835
-4.065,-0.5727755815433465,-0.1356663415775379
-4.0645,-0.156638762093345,0.4471487707073456
-4.064,0.142126133921769,0.8074344764830383
-4.0635,0.302178756786863,0.9663840525604053
-4.063,0.3661998059331142,0.9981739677760135
-4.0625,0.3768699807907871,0.9557874141553824
-4.062,0.3661998059331142,0.8816109453192779
-4.0615,0.3448594562177197,0.7756445612674396
-4.061,0.3235191065023739,0.6696781772158616
-4.0605,0.3128489316446912,0.5637117931641874
-4.06,0.05676473505970618,0.2140227257930067
-4.0595,-0.6047861061160158,-0.5065486857577234
-4.059,-1.223656247861609,-1.163540266878104
-4.0585,-1.394379045584376,-1.364876396576102
-4.058,-0.9142211769888124,-0.8244478379127463
-4.0575,-0.3593720843893152,-0.3052125560595421
-4.057,0.05676473505992941,-0.008506680715123838
-4.0565,0.291508581929326,0.09745970333682032
-4.056,0.3875401556484697,0.08686306493165288
-4.0555,0.4088805053638156,0.03387987290586391
-4.055,0.398210330506133,-0.008506680714873286
-4.0545,0.3768699807907871,-0.02969995752518888
-4.054,0.4302208550791518,0.08686306493154687
-4.0535,0.4942419042252767,0.2352160026040259
-4.053,0.4729015545099309,0.2670059178194992
-4.0525,0.4195506802215176,0.2670059178194992
-4.052,0.3875401556484406,0.2881991946296799
-4.0515,0.3555296310754218,0.1186529801471552
-4.051,0.1741366584948169,-0.5065486857577234
-4.0505,-0.3380317346734841,-1.068170521231087
-4.05,-0.7008176798351597,-1.364876396576285
-4.0495,-0.9248913518464952,-1.301296566145281
-4.049,-0.6794773301200174,-0.676094900240971
-4.0485,-0.2953510352429282,0.01268659609596273
-4.048,0.02475421048725994,0.5425185163538525
-4.0475,0.2274875327830457,0.8604176685085864
-4.047,0.3341892813600856,1.008770606181248
-4.0465,0.3661998059331045,1.040560521396722
-4.046,0.3661998059331045,1.008770606181248
-4.0455,0.3555296310754024,0.9345941373449608
-4.045,0.3341892813600565,0.8392243916985406
-4.0445,0.3235191065023739,0.7332580076468663
-4.044,0.3128489316446718,0.6378882620002052
-4.0435,0.291508581929326,0.4683420475176805
-4.043,-0.03926683865883591,-0.1462629799820306
-4.0425,-0.540765056969464,-0.856237753127603
-4.042,-0.839529952985034,-1.34368311976595
-4.0415,-0.7861790786966207,-1.184733543688439
-4.041,-0.4447334832510868,-0.6866915386460227
-4.0405,-0.06060718837396829,-0.2416327256283062
-4.04,0.1954770082101822,0.01268659609548085
-4.0395,0.3341892813599304,0.1292496185522166
-4.039,0.3875401556484794,0.1398462569574611
-4.0385,0.3982103305061524,0.1080563417419877
-4.038,0.3768699807908065,0.06566978812135657
-4.0375,0.3875401556485862,0.09745970333701306
-4.037,0.5155822539406614,0.309392471440169
-4.0365,0.5262524287983441,0.3623756634660061
-4.036,0.4835717293675553,0.3305857482504749
-4.0355,0.4195506802215176,0.2987958330350016
-4.035,0.4515612047945656,0.1292496185523226
-4.0345,0.8997085488168289,-0.4747587705416717
-4.034,0.857027849386506,-1.131750351662602
-4.0335,0.2488278824985954,-1.481439419033127
-4.033,-0.3380317346734161,-1.481439419033127
-4.0325,-0.6794773301196584,-1.205926820498167
-4.032,-0.5300948821122373,-0.5383386009732256
-4.0315,-0.2313299860973952,0.0974597033362421
-4.031,0.03542438534510756,0.5425185163540838
-4.0305,0.2168173579255475,0.7968378380778709
-4.03,0.3128489316446039,0.9028042221294489
-4.0295,0.3448594562177489,0.9134008605346838
-4.029,0.3555296310754218,0.8816109453192104
-4.0285,0.3341892813600565,0.8074344764830383
-4.028,0.3235191065023642,0.7226613692416218
-4.0275,0.3128489316446912,0.6378882620003594
-4.027,0.2808384070716433,0.5319218779486851
-4.0265,-0.1139580626622554,0.0338798729062687
-4.026,-0.8181896032696687,-0.7290780922662394
-4.0255,-1.341028171296118,-1.322489842955616
-4.025,-1.330357996438445,-1.3012965661453
-4.0245,-0.9462317015613946,-0.8032545611019681
-4.024,-0.4340633083930936,-0.3158091944647096
-4.0235,-0.01792648894384913,0.002089957690024291
-4.023,0.2381577076410292,0.1610395337678538
-4.0225,0.3661998059331045,0.1928294489833272
-4.022,0.4088805053637962,0.1822328105781694
-4.0215,0.3982103305061427,0.1504428953626478
-4.021,0.3875401556484697,0.13984625695749
-4.0205,0.4835717293676135,0.3729723018711736
-4.02,0.5262524287983052,0.4683420475176323
-4.0195,0.4835717293676135,0.4153588554918433
-4.019,0.4302208550792003,0.3411823866556712
-4.0185,0.3555296310754897,0.2246193641989355
-4.018,-0.1139580626626144,-0.3052125560595421
-4.0175,-0.7861790786966207,-0.9939940523954253
-4.017,-1.18097554843052,-1.375473034981106
-4.0165,-1.266336947292388,-1.470842780627873
-4.016,-1.319687821580753,-1.375473034981453
-4.0155,-0.9142211769891813,-0.7608680074823008
-4.015,-0.4127229586773596,-0.07208651114536709
-4.0145,-0.007256314085787988,0.4683420475176805
-4.014,0.2274875327830166,0.7756445612672564
-4.0135,0.3448594562177683,0.9134008605347416
-4.013,0.3768699807907871,0.9451907757502149
-4.0125,0.3768699807907871,0.9028042221295453
-4.012,0.3555296310754024,0.8180311148881191
-4.0115,0.3341892813600565,0.7226613692416989
-4.011,0.3128489316446912,0.6166949851900245
-4.0105,0.3021787567870183,0.5319218779487622
-4.01,0.1314559590640864,0.2670059178194992
-4.0095,-0.5087545323968721,-0.4323722169215513
-4.009,-1.170305373572594,-1.142346990067124
-4.0085,-1.394379045584221,-1.449649503817124
-4.008,-1.052933450138687,-0.8986243067489184
-4.0075,-0.508754532397367,-0.3052125560600818
-4.007,-0.04993701351625653,0.03387987290593137
-4.0065,0.2381577076409128,0.1610395337678249
-4.006,0.3768699807907871,0.1822328105781598
-4.0055,0.4195506802215079,0.1398462569574611
-4.005,0.408880505363835,0.1080563417419877
-4.0045,0.3875401556484697,0.08686306493165288
-4.004,0.408880505363835,0.1716361721730405
-4.0035,0.408880505363835,0.2246193641988295
-4.003,0.3875401556484697,0.2246193641988295
-4.0025,0.3555296310754509,0.2352160026039873
-4.002,0.3448594562177392,0.2564092794143318
-4.0015,0.1527963087794516,-0.01910331912002144
-4.001,-0.4660738329655787,-0.665498261834647
-4.0005,-0.7755089038390353,-1.057573882826613
-4,-0.8822106524157645,-1.258910012524611
-3.9995,-0.9355615267041777,-1.216523458903942
-3.999,-0.6154562809736985,-0.6443049850249
-3.9985,-0.2313299860971235,0.002089957690313421
-3.998,0.07810508477567314,0.4895353243280153
-3.9975,0.2594980573562781,0.7862411996727035
-3.997,0.3448594562177392,0.9134008605347127
-3.9965,0.3661998059331045,0.9451907757502149
-3.996,0.3661998059331045,0.9134008605347127
-3.9955,0.3448594562177392,0.849821030103708
-3.995,0.3341892813600565,0.7650479228623686
-3.9945,0.3128489316446912,0.6696781772158616
-3.994,0.3021787567870086,0.5743084315693548
-3.9935,0.2488278824985954,0.4153588554918433
-3.993,-0.2313299860971235,-0.1674562567923655
-3.9925,-0.839529952985034,-0.8774310299385835
-3.992,-1.212986073003927,-1.407262950196955
-3.9915,-0.9462317015618604,-1.121153713257435
-3.991,-0.4340633083930936,-0.5277419625680583
-3.9905,-0.01792648894347063,-0.1356663415768632
-3.99,0.2274875327832301,0.07626642652648545
-3.9895,0.3555296310754218,0.1610395337678249
-3.989,0.3875401556484697,0.1610395337678249
-3.9885,0.3875401556484697,0.1292496185523226
-3.988,0.3768699807907871,0.1080563417419877
-3.9875,0.3768699807907871,0.1504428953626575
-3.987,0.4195506802215176,0.2987958330350016
-3.9865,0.4195506802215176,0.3305857482505039
-3.986,0.3875401556484697,0.309392471440169
-3.9855,0.3661998059331045,0.309392471440169
-3.985,0.1741366584948169,0.1080563417419877
-3.9845,-0.4340633083930936,-0.5383386009732256
-3.984,-1.116954499284783,-1.195330182093607
-3.9835,-1.575772018165136,-1.682775548731308
-3.983,-1.949228138184029,-1.905304955239825
-3.9825,-1.618452717595867,-1.417859588602123
-3.982,-0.9142211769888124,-0.5807251545938954
-3.9815,-0.3060212101009019,0.13984625695749
-3.981,0.09944543449103843,0.6166949851900245
-3.9805,0.3128489316446912,0.8604176685088755
-3.98,0.3982103305061524,0.9451907757502149
-3.9795,0.408880505363835,0.9345941373450475
-3.979,0.3875401556484697,0.8604176685088755
-3.9785,0.3555296310754218,0.775644561267536
-3.978,0.3341892813600565,0.6802748156210291
-3.9775,0.3235191065023739,0.5849050699745222
-3.977,0.2808384070716433,0.4471487707073456
-3.9765,-0.1673089369510276,-0.07208651114585861
-3.976,-0.8715404775580819,-0.8138511995075789
-3.9755,-1.415719395299897,-1.417859588602123
-3.975,-1.415719395299897,-1.407262950196955
-3.9745,-0.8928808272734472,-0.8244478379127463
-3.974,-0.3273615598162672,-0.2946159176543747
-3.9735,0.08877525963335578,0.02328323450064829
-3.973,0.3128489316446912,0.1610395337678249
-3.9725,0.408880505363835,0.1822328105781598
-3.972,0.4195506802215176,0.1504428953626575
-3.9715,0.408880505363835,0.1186529801471552
-3.971,0.3875401556484697,0.1186529801471552
-3.9705,0.4302208550792003,0.2987958330350016
-3.97,0.4515612047945656,0.4259554938970107
-3.9695,0.4408910299368829,0.4153588554918433
-3.969,0.3982103305061524,0.3729723018711736
-3.9685,0.3128489316446912,0.2564092794143318
-3.968,-0.1993194615240755,-0.3052125560595421
-3.9675,-0.6474668055467465,-0.8986243067489184
-3.967,-0.8288597781273515,-1.290699927740113
-3.9665,-1.042263275281004,-1.523825972653797
-3.966,-0.9462317015618604,-1.205926820498774
-3.9655,-0.5514352318276028,-0.5065486857577234
-3.965,-0.1459685872356623,0.1292496185523226
-3.9645,0.142126133921769,0.5743084315693548
-3.964,0.3021787567870086,0.8180311148882058
-3.9635,0.3661998059331045,0.9134008605347127
-3.963,0.3875401556484697,0.9134008605347127
-3.9625,0.3661998059331045,0.8710143069140429
-3.962,0.3555296310754218,0.7968378380778709
-3.9615,0.3341892813600565,0.701468092431364
-3.961,0.3235191065023739,0.6166949851900245
-3.9605,0.3128489316446912,0.5425185163538525
-3.96,0.291508581929326,0.4153588554918433
-3.9595,0.07810508477567314,0.07626642652648545
-3.959,-0.2099896363817582,-0.4429688553267188
-3.9585,-0.5941159312583333,-0.9410108603695881
-3.958,-0.690147504977477,-0.7502713690765743
-3.9575,-0.423393133535411,-0.2628260024388724
-3.957,-0.09261771294724913,0.08686306493165288
-3.9565,0.1527963087794516,0.2564092794143318
-3.956,0.3021787567870086,0.309392471440169
-3.9555,0.3661998059331045,0.2881991946298341
-3.955,0.3875401556484697,0.2458126410091644
-3.9545,0.3875401556484697,0.2246193641988295
-3.954,0.5475927785137094,0.4047622170866759
-3.9535,0.7183155762366316,0.6060983467848571
-3.953,0.6863050516635838,0.55311515475902
-3.9525,0.5689331282290746,0.4259554938970107
-3.952,0.4515612047945656,0.309392471440169
-3.9515,0.3128489316446912,-0.1250697031716958
-3.951,0.142126133921769,-0.8244478379127463
-3.9505,-0.4447334832507763,-1.439052865412457
-3.95,-0.7968492535543035,-1.555615887869299
-3.9495,-1.042263275281004,-1.47084278062796
-3.949,-0.839529952985034,-0.9410108603695881
-3.9485,-0.4340633083930936,-0.2840192792492073
-3.948,-0.06060718837420119,0.2564092794143318
-3.9475,0.1848068333524996,0.5955017083796896
-3.947,0.3235191065023739,0.7650479228623686
-3.9465,0.3661998059331045,0.8286277532933731
-3.946,0.3768699807907871,0.8286277532933731
-3.9455,0.3555296310754218,0.7968378380778709
-3.945,0.3448594562177392,0.7438546460520338
-3.9445,0.3235191065023739,0.6802748156210291
-3.944,0.3128489316446912,0.6166949851900245
-3.9435,0.1634664836371343,0.383568940276341
-3.943,-0.4660738329661415,-0.3052125560595421
-3.9425,-1.234326422719292,-1.068170521231597
-3.942,-1.67180359188428,-1.587405803084801
-3.9415,-1.277007122150022,-1.237716735714276
-3.941,-0.6261264558313813,-0.570128516188728
-3.9405,-0.124628237520297,-0.09327978795619347
-3.94,0.1954770082101822,0.13984625695749
-3.9395,0.3555296310754218,0.2034260873884947
-3.939,0.4195506802215176,0.1928294489833272
-3.9385,0.4195506802215176,0.1610395337678249
-3.938,0.3982103305061524,0.1292496185523226
-3.9375,0.408880505363835,0.1822328105781598
-3.937,0.4942419042252961,0.3517790250608387
-3.9365,0.4942419042252961,0.3729723018711736
-3.936,0.4515612047945656,0.3623756634660061
-3.9355,0.408880505363835,0.3411823866556712
-3.935,0.3982103305061524,0.08686306493165288
-3.9345,0.6649647019482183,-0.570128516188728
-3.934,0.3128489316446912,-1.227120097309109
-3.9335,-0.5300948821122373,-1.703968825541643
-3.933,-0.9569018764195432,-1.523825972653797
-3.9325,-0.754168554123573,-0.7608680074817418
-3.932,-0.3700422592469978,-0.02969995752518888
-3.9315,-0.01792648894347063,0.5001319627331828
-3.931,0.2061471830678648,0.7968378380778709
-3.9305,0.3235191065023739,0.92399749893988
-3.93,0.3661998059331045,0.9451907757502149
-3.9295,0.3661998059331045,0.9028042221295453
-3.929,0.3555296310754218,0.8286277532933731
-3.9285,0.3341892813600565,0.7332580076468663
-3.928,0.3235191065023739,0.627291623595192
-3.9275,0.3128489316446912,0.5319218779486851
-3.927,0.2488278824985954,0.4047622170866759
-3.9265,-0.2633405106701714,-0.1462629799820306
-3.926,-0.9355615267041777,-0.8668343915334161
-3.9255,-1.287677297007705,-1.439052865412457
-3.925,-1.244996597576974,-1.396666311791788
-3.9245,-0.7755089038389382,-0.7820612842920766
-3.924,-0.3166913849585846,-0.2204394488182027
-3.9235,0.02475421048725994,0.07626642652648545
-3.923,0.2488278824985954,0.1610395337678249
-3.9225,0.3555296310754218,0.13984625695749
-3.922,0.3875401556484697,0.08686306493165288
-3.9215,0.3982103305061524,0.04447651131098315
-3.921,0.3982103305061524,0.07626642652648545
-3.9205,0.5155822539406614,0.3305857482505039
-3.92,0.5475927785137094,0.4259554938970107
-3.9195,0.4942419042252961,0.4047622170866759
-3.919,0.4302208550792003,0.3623756634660061
-3.9185,0.3341892813600565,0.2458126410091644
-3.918,-0.1352984123779797,-0.2840192792492073
-3.9175,-0.690147504977477,-0.9410108603695881
-3.917,-1.180975548430879,-1.417859588602123
-3.9165,-1.330357996438436,-1.555615887869299
-3.916,-1.351698346153801,-1.396666311791788
-3.9155,-0.9035510021311299,-0.7078848154559045
-3.915,-0.3807124341046804,0.01268659609548085
-3.9145,0.01408403562957729,0.55311515475902
-3.914,0.2488278824985954,0.8604176685088755
-3.9135,0.3555296310754218,0.9875773293708847
-3.913,0.3875401556484697,1.00877060618122
-3.9125,0.3768699807907871,0.9557874141553824
-3.912,0.3661998059331045,0.8710143069140429
-3.9115,0.3341892813600565,0.7544512844572011
-3.911,0.3235191065023739,0.6484849004055269
-3.9105,0.3128489316446912,0.5425185163538525
-3.91,0.02475421048725994,0.1504428953626575
-3.9095,-0.5941159312583333,-0.5913217929990628
-3.909,-1.074273799854052,-1.248313374119443
-3.9085,-1.30901764672307,-1.492036057438295
-3.908,-0.8608703027003992,-0.8880276683437509
-3.9075,-0.3060212101009019,-0.326405832869877
-3.907,0.09944543449103843,-0.008506680714854012
-3.9065,0.3235191065023739,0.09745970333682032
-3.906,0.408880505363835,0.09745970333682032
-3.9055,0.4195506802215176,0.05507314971615059
-3.905,0.408880505363835,0.01268659609548085
-3.9045,0.3875401556484697,0.01268659609548085
-3.904,0.4622313796522482,0.2140227257936621
-3.9035,0.5155822539406614,0.3623756634660061
-3.903,0.4942419042252961,0.3623756634660061
-3.9025,0.4302208550792003,0.3199891098453364
-3.902,0.3768699807907871,0.2776025562246667
-3.9015,0.1634664836371343,-0.1568596183871981
-3.901,-0.3273615598162672,-0.8138511995075789
-3.9005,-0.6794773301197943,-1.195330182093607
-3.9,-0.9995825758502737,-1.47084278062796
-3.8995,-1.138294849000148,-1.375473034981453
-3.899,-0.7861790786966207,-0.7078848154559045
-3.8985,-0.3380317346739499,0.01268659609548085
-3.898,0.02475421048725994,0.5637117931641874
-3.8975,0.2381577076409128,0.8816109453192104
-3.897,0.3448594562177392,1.029963882991555
-3.8965,0.3768699807907871,1.061753798207057
-3.896,0.3768699807907871,1.019367244586387
-3.8955,0.3555296310754218,0.9345941373450475
-3.895,0.3341892813600565,0.8286277532933731
-3.8945,0.3235191065023739,0.7226613692416989
-3.894,0.3128489316446912,0.6060983467848571
-3.8935,0.2808384070716433,0.4047622170866759
-3.893,-0.007256314085787988,-0.252229364033705
-3.8925,-0.5941159312583333,-0.9939940523954253
-3.892,-0.9995825758502737,-1.449649503817625
-3.8915,-0.8608703027003992,-1.068170521231597
-3.891,-0.4127229586777283,-0.4535654937318862
-3.8905,0.00341386077189465,-0.06148987274069118
-3.89,0.2594980573562781,0.07626642652648545
-3.8895,0.3768699807907871,0.08686306493165288
-3.889,0.408880505363835,0.04447651131098315
-3.8885,0.408880505363835,0.002089957690313421
-3.888,0.3875401556484697,-0.01910331912002144
-3.8875,0.408880505363835,0.06566978812131802
-3.887,0.4515612047945656,0.2140227257936621
-3.8865,0.4408910299368829,0.2670059178194992
