Class_10_Using_Wats_App/Class_10_WatsApp_UZ_3.csv

#Digilent WaveForms Oscilloscope Acquisition
#Device Name: EExplorer
#Serial Number: SN:210151A2B84A
#Date Time: 2020-11-30 10:44:26.963
#Sample rate: 2000Hz
#Samples: 16384
#Trigger: Source: Channel 1 Type: Edge Condition: Rising Level: 0 V Hyst.: Auto HoldOff: 0 s
#Channel 1: Range: 1 V/div Offset: 0 V Attenuation: 1 X
#Channel 2: Range: 1 V/div Offset: 0 V Attenuation: 1 X
#Power Supplies: ON
#Fixed Supply: ON
#Voltage: 3.3 V Readback: 3.319 V
#Positive Supply: ON
#Voltage: 3.7 V Readback: 3.712 V
#Current: 500 mA Readback: 20 mA
#Negative Supply: ON
#Voltage: -3.7 V Readback: -3.703 V
#Current: -500 mA Readback: -9 mA
#Reference 1: ON
#Voltage: 0 V
#Reference 2: ON
#Voltage: 0 V

Time (s),Channel 1 (V),Channel 2 (V)
-4.096,-0.5407650569699201,1.358459673551745
-4.0955,-0.03926683865929204,1.951871424240581
-4.095,0.2274875327833175,2.206190745965207
-4.0945,0.3235191065023739,2.280367214801311
-4.094,0.3448594562177197,2.227384022775523
-4.0935,0.3341892813600663,2.089627723508124
-4.093,0.3448594562177392,1.898888232215284
-4.0925,0.4942419042251602,1.496215972819287
-4.092,1.155792745402358,0.5001319627321998
-4.0915,1.966726034585501,-0.5807251545938954
-4.091,2.596266351188776,-1.407262950196955
-4.0905,2.884361072345858,-2.01127133929146
-4.09,2.500234777469633,-1.968884785670829
-4.0895,1.76399271228953,-1.280103289334946
-4.089,1.091771696256135,-0.6760949002409516
-4.0885,0.5796033030867573,-0.326405832869877
-4.088,0.2594980573562781,-0.2310360872233701
-4.0875,0.1314559590642028,-0.2204394488182123
-4.087,-0.03926683865907853,-0.4217755785164899
-4.0865,-0.3060212101009019,-0.5383386009732256
-4.086,-0.295351035243229,-0.368792386490701
-4.0855,-0.1673089369509111,-0.1568596183870342
-4.085,-0.03926683865883591,0.02328323450064829
-4.0845,0.04609456020254758,0.2670059178192776
-4.084,-0.1993194615247937,0.2458126410086054
-4.0835,-0.9889124009925911,-0.3687923864905467
-4.083,-1.767835165603424,-1.036380606016095
-4.0825,-2.162631635338002,-1.460246142222918
-4.082,-2.514747405641209,-1.598002441489969
-4.0815,-2.845522826229371,-1.47084278062796
-4.081,-2.877533350802389,-1.227120097309331
-4.0805,-2.770831602225592,-0.9516074987747555
-4.08,-1.863866739322568,-0.2628260024388724
-4.0795,-0.9569018764203681,0.6908714540253291
-4.079,-0.2953510352428603,1.47502269600901
-4.0785,0.09944543449103843,1.941274785835954
-4.078,0.2808384070714783,2.174400830749426
-4.0775,0.3555296310754218,2.248577299585761
-4.077,0.3555296310754218,2.195594107559972
-4.0765,0.3448594562177489,2.047241169887763
-4.076,0.3982103305065503,1.771728571352542
-4.0755,0.8356874996711408,0.9663840525605498
-4.075,1.635950613997339,-0.1462629799820306
-4.0745,2.350852329462435,-1.089363798042568
-4.074,2.745648799196333,-1.788741932782983
-4.0735,2.564255826615728,-1.958288147265661
-4.073,1.934715510013025,-1.29069992774072
-4.0725,1.283834843693812,-0.6337083466197325
-4.072,0.7289857510943143,-0.2310360872233701
-4.0715,0.3875401556487802,-0.08268314955116096
-4.071,0.2274875327831719,-0.1038764263615055
-4.0705,0.1634664836371343,-0.2628260024388724
-4.07,0.07810508477575077,-0.5065486857575017
-4.0695,0.05676473506032727,-0.4747587705420572
-4.069,0.07810508477567314,-0.2946159176543747
-4.0685,0.1101156093487211,0.002089957690313421
-4.068,0.142126133921604,0.298795833034963
-4.0675,-0.03926683865883591,0.2564092794143318
-4.067,-0.7968492535543035,-0.3370024712750445
-4.0665,-1.661133417027102,-1.004590690800988
-4.066,-2.215982509626095,-1.439052865412457
-4.0655,-2.418715831922065,-1.545019249464132
-4.065,-2.717480727936907,-1.386069673386765
-4.0645,-2.866863175944736,-1.121153713257435
-4.064,-2.80284212679864,-0.8244478379127463
-4.0635,-1.959898313042478,-0.1992461720084365
-4.063,-1.042263275280383,0.7756445612682877
-4.0625,-0.3593720843893152,1.602182356870596
-4.062,0.06743490991760231,2.121417638723328
-4.0615,0.2701682322140189,2.333350406827168
-4.061,0.3341892813600565,2.354543683637484
-4.0605,0.3341892813600565,2.259173937990977
-4.06,0.3235191065023836,2.089627723508095
-4.0595,0.3341892813600565,1.867098316999781
-4.059,0.6222840025174878,1.241896651094903
-4.0585,1.390536592269939,0.1186529801481768
-4.058,2.180129531739154,-0.8986243067489184
-4.0575,2.713638274623285,-1.650985633515806
-4.057,2.713638274623285,-2.032464616101487
-4.0565,2.158789182023788,-1.555615887869299
-4.056,1.486568165989782,-0.8668343915334161
-4.0555,0.8676980242447514,-0.4111789401116309
-4.055,0.462231379652025,-0.2204394488182219
-4.0545,0.2168173579255475,-0.2416327256285375
-4.054,0.09944543449114518,-0.3370024712749577
-4.0535,-0.01792648894350944,-0.5595318777835605
-4.053,-0.06060718837420119,-0.5595318777835605
-4.0525,-0.01792648894347063,-0.3687923864905467
-4.052,-0.01792648894346092,-0.1250697031714934
-4.0515,-0.007256314085787988,0.09745970333682032
-4.051,0.01408403562957729,0.2776025562246667
-4.0505,-0.3273615598159567,0.0232832345008796
-4.05,-1.138294849000148,-0.6231117082145651
-4.0495,-1.863866739322568,-1.205926820498774
-4.049,-1.949228138183951,-1.51322933424835
-4.0485,-1.885207089038195,-1.513229334248427
-4.048,-2.173301810195364,-1.290699927740113
-4.0475,-2.546757930213917,-1.015187329206011
-4.047,-2.205312334767656,-0.5913217929982436
-4.0465,-1.373038695869166,0.309392471440169
-4.046,-0.6261264558320606,1.252493289499213
-4.0455,-0.1032878878046794,1.90948487062074
-4.045,0.1741366584948169,2.227384022775475
-4.0445,0.3021787567870086,2.322753768421981
-4.044,0.3341892813600565,2.30156049161155
-4.0435,0.3341892813600565,2.195594107559972
-4.043,0.3341892813600565,2.004854616266958
-4.0425,0.5049120790828237,1.506812611224542
-4.042,1.187803269974668,0.4259554938970107
-4.0415,1.998736559158548,-0.6654982618352349
-4.041,2.574926001472887,-1.449649503816912
-4.0405,2.532245302042186,-1.756952017567133
-4.04,1.988066384300866,-1.375473034981453
-4.0395,1.305175193409798,-0.8774310299390364
-4.039,0.782336625382417,-0.5065486857575981
-4.0385,0.4408910299368829,-0.3687923864905467
-4.038,0.2061471830680783,-0.2840192792492844
-4.0375,0.09944543449083464,-0.3475991096803853
-4.037,-0.124628237520297,-0.5383386009732256
-4.0365,-0.4340633083930936,-0.7078848154559045
-4.036,-0.4020527838199195,-0.4747587705419126
-4.0355,-0.2633405106701714,-0.1356663415768632
-4.035,-0.1032878878049318,0.08686306493165288
-4.0345,0.02475421048714346,0.2246193641987042
-4.034,-0.1352984123779797,0.09745970333682032
-4.0335,-0.839529952985034,-0.5065486857577234
-4.033,-1.650463242168177,-1.110557074851718
-4.0325,-2.130621110765002,-1.460246142222831
-4.032,-2.536087755356574,-1.502632695843462
-4.0315,-2.845522826229089,-1.322489842955779
-4.031,-2.770831602224836,-1.046977244420723
-4.0305,-1.938557963326346,-0.4535654937318862
-4.03,-1.042263275281819,0.5531151547581044
-4.0295,-0.359372084388927,1.443232780793624
-4.029,0.0674349099179905,2.036644531482461
-4.0285,0.2594980573562781,2.322753768421981
-4.028,0.3235191065023836,2.396930237258115
-4.0275,0.3341892813600565,2.354543683637484
-4.027,0.3235191065023739,2.237980661180642
-4.0265,0.3875401556484115,1.994257977862012
-4.026,0.5155822539406614,1.443232780793084
-4.0255,0.9317190733902845,0.55311515475902
-4.025,1.699971663142736,-0.4959520473516018
-4.0245,2.393533028893214,-1.333086481361352
-4.024,2.841680372915477,-1.958288147265661
-4.0235,2.766989148911767,-2.149027638558502
-4.023,2.148119007165436,-1.587405803084107
-4.0225,1.411876941986003,-0.8244478379127463
-4.022,0.8356874996716648,-0.3687923864909611
-4.0215,0.4302208550789965,-0.1886495336027582
-4.021,0.2061471830678648,-0.252229364033705
-4.0205,0.09944543449103843,-0.4429688553267188
-4.02,-0.07127736323190324,-0.6760949002403156
-4.0195,-0.09261771294724913,-0.5807251545938954
-4.019,-0.01792648894347063,-0.400582301706049
-4.0185,0.04609456020256698,-0.1780528951977353
-4.018,0.08877525963335578,0.02328323450064829
-4.0175,-0.03926683865883591,-0.008506680714854012
-4.017,-0.690147504976885,-0.5065486857572704
-4.0165,-1.522421143877199,-1.099960436447476
-4.016,-2.045259711903173,-1.51322933424863
-4.0155,-2.280003558771977,-1.629792356705365
-4.015,-2.632119329075921,-1.470842780627709
-4.0145,-2.856193001087053,-1.195330182093607
-4.014,-2.84552282622938,-0.9198175835595038
-4.0135,-2.162631635336808,-0.4217755785155262
-4.013,-1.202315898146244,0.5213252395435176
-4.0125,-0.4660738329661415,1.390249588767247
-4.012,0.01408403562979079,1.962468062646549
-4.0115,0.2488278824985954,2.248577299585809
-4.011,0.3448594562177392,2.343947045232316
-4.0105,0.366199805933085,2.301560491611685
-4.01,0.3661998059331045,2.16380419234447
-4.0095,0.3982103305061524,1.930678147430786
-4.009,0.6863050516633218,1.273686566311003
-4.0085,1.44388746655975,0.1398462569565552
-4.008,2.212140056312201,-0.8880276683437509
-4.0075,2.734978624338175,-1.640388995109954
-4.007,2.905701422061165,-2.11723772334298
-4.0065,2.457554078038902,-1.905304955239825
-4.006,1.7213120128588,-1.216523458903942
-4.0055,1.049090996824347,-0.7078848154556636
-4.005,0.5582629533713921,-0.4429688553267188
-4.0045,0.2701682322139607,-0.3687923864905467
-4.004,0.08877525963327815,-0.3899856633010551
-4.0035,0.00341386077189465,-0.5807251545938954
-4.003,0.00341386077189465,-0.3687923864905467
-4.0025,0.0460945602025864,-0.01910331912033947
-4.002,0.08877525963335578,0.1504428953626575
-4.0015,0.1101156093487211,0.2564092794143318
-4.001,0.09944543449104813,0.298795833034963
-4.0005,-0.3700422592477838,-0.07208651114648505
-4,-1.234326422719292,-0.7608680074817418
-3.9995,-1.927887788468663,-1.322489842955616
-3.999,-2.19464215991073,-1.619195718300304
-3.9985,-2.514747405641209,-1.587405803084801
-3.998,-2.834852651371688,-1.354279758171118
-3.9975,-2.866863175944736,-1.068170521231597
-3.997,-2.3973754822067,-0.6125150698093976
-3.9965,-1.394379045584531,0.3199891098453364
-3.996,-0.5941159312583333,1.241896651094903
-3.9955,-0.07127736323188383,1.877694955404949
-3.995,0.2168173579255475,2.20619074596514
-3.9945,0.3341892813600565,2.322753768421981
-3.994,0.3555296310754218,2.301560491611646
-3.9935,0.3448594562177392,2.184997469154805
-3.993,0.3448594562177392,1.983661339456623
-3.9925,0.5049120790829789,1.570392441655093
-3.992,1.145122570543937,0.55311515475902
-3.9915,1.945385684870135,-0.5489352393783931
-3.991,2.585596176331094,-1.396666311791788
-3.9905,2.89503124720389,-2.011271339291499
-3.99,2.574926001473411,-2.064254531317336
-3.9895,1.838683936293309,-1.460246142222792
-3.989,1.134452395686255,-0.7820612842920766
-3.9885,0.5902734779444399,-0.3475991096802118
-3.988,0.2594980573562781,-0.1144730647665284
-3.9875,0.08877525963335578,-0.1038764263613609
-3.987,-0.09261771294724913,-0.2840192792492073
-3.9865,-0.2846808603855366,-0.474758770542221
-3.986,-0.2526703358124887,-0.3581957480853793
-3.9855,-0.1459685872356623,-0.1568596183871981
-3.985,-0.01792648894347063,0.02328323450064829
-3.9845,0.01408403562957729,0.1080563417419877
-3.984,-0.1886492866663929,-0.05089323433552374
-3.9835,-0.8928808272734472,-0.6231117082145651
-3.983,-1.639793067311232,-1.216523458903942
-3.9825,-1.821186039891837,-1.629792356705471
-3.982,-1.842526389607202,-1.725162102351978
-3.9815,-2.162631635337682,-1.555615887869299
-3.981,-2.610778979360353,-1.280103289334946
-3.9805,-2.557428105071939,-0.9516074987747555
-3.98,-1.693143941599645,-0.1780528951975329
-3.9795,-0.8608703027003992,0.7968378380778709
-3.979,-0.2420001609548061,1.570392441655093
-3.9785,0.1207857842064037,2.004854616266958
-3.978,0.291508581929326,2.216787384370307
-3.9775,0.3555296310754218,2.290963853206479
-3.977,0.3555296310754218,2.227384022775475
-3.9765,0.3448594562177392,2.068434446697963
-3.976,0.3875401556484697,1.782325209758442
-3.9755,0.9210488985326017,0.9028042221295453
-3.975,1.753322537431848,-0.2416327256285375
-3.9745,2.446883903181219,-1.163540266878104
-3.974,2.777659323769381,-1.852321763213987
-3.9735,2.532245302042681,-2.000674700886331
-3.973,1.870694460866357,-1.34368311976595
-3.9725,1.209143619690033,-0.7290780922662394
-3.972,0.7183155762366316,-0.3370024712750445
-3.9715,0.3875401556484697,-0.1886495336027004
-3.971,0.1848068333524996,-0.2204394488182027
-3.9705,0.09944543449103843,-0.3581957480853793
-3.97,0.1314559590640864,-0.4217755785163839
-3.9695,0.142126133921769,-0.2098428104130352
-3.969,0.1314559590640864,-0.09327978795619347
-3.9685,0.1314559590640864,-0.04029659593035631
-3.968,0.1314559590640864,0.01268659609548085
-3.9675,-0.007256314085787988,-0.02969995752518888
-3.967,-0.7008176798351597,-0.5277419625680583
-3.9665,-1.554431668449771,-1.0999604364471
-3.966,-2.03458953704549,-1.47084278062796
-3.9655,-1.970568487899394,-1.460246142222792
-3.965,-1.863866739322568,-1.205926820498774
-3.9645,-2.07727023647622,-0.9198175835592532
-3.964,-2.354694782775969,-0.6549016234300674
-3.9635,-1.917217613610981,-0.1462629799820306
-3.963,-1.148965023857831,0.7862411996727035
-3.9625,-0.4660738329661415,1.6657621873016
-3.962,-0.02859666380115328,2.248577299585809
-3.9615,0.2168173579255475,2.513493259714995
-3.961,0.3128489316446912,2.555879813335665
-3.9605,0.3341892813600565,2.449913429283991
-3.96,0.3235191065023739,2.248577299585809
-3.9595,0.3661998059331045,1.845905040189447
-3.959,0.8783681991018712,0.8392243916985406
-3.9585,1.699971663143435,-0.326405832869877
-3.958,2.404203203750489,-1.248313374119443
-3.9575,2.85235054777316,-1.915901593644992
-3.957,2.969722471207669,-2.180817553774178
-3.9565,2.574926001473411,-2.043061254507001
-3.956,1.806673411720261,-1.354279758171118
-3.9555,1.123782220828572,-0.7714646458869092
-3.955,0.6329541773751706,-0.4535654937318862
-3.9545,0.3448594562177392,-0.3370024712750445
-3.954,0.1954770082101822,-0.3793890248957141
-3.9535,0.03542438534494258,-0.6019184314042303
-3.953,-0.09261771294724913,-0.7078848154559045
-3.9525,-0.07127736323188383,-0.5277419625680583
-3.952,0.00341386077189465,-0.2734226408440398
-3.9515,0.0674349099179905,-0.04029659593035631
-3.951,0.08877525963335578,0.09745970333682032
-3.9505,-0.2846808603855366,-0.1674562567923655
-3.95,-1.1062843244271,-0.7714646458869092
-3.9495,-1.863866739322568,-1.333086481360783
-3.949,-2.344024607918286,-1.661582271920973
-3.9485,-2.781501777083275,-1.693372187136476
-3.948,-2.877533350802418,-1.492036057438295
-3.9475,-2.877533350802418,-1.216523458903942
-3.947,-2.621449154218035,-0.8456411147230812
-3.9465,-1.607782542738184,0.002089957690313421
-3.946,-0.754168554123573,0.9557874141553824
-3.9455,-0.156638762093345,1.6657621873016
-3.945,0.1741366584948169,2.057837808292796
-3.9445,0.3235191065023739,2.248577299585809
-3.944,0.3661998059331045,2.290963853206479
-3.9435,0.3555296310754218,2.20619074596514
-3.943,0.3768699807907871,2.047241169887628
-3.9425,0.5262524287983441,1.570392441655093
-3.942,1.177133095116985,0.5001319627331828
-3.9415,1.988066384300866,-0.6019184314042303
-3.941,2.596266351188776,-1.42845622700729
-3.9405,2.916371596919256,-2.021867977696666
-3.94,2.713638274623285,-2.053657892912168
-3.9395,1.998736559158548,-1.333086481360783
-3.939,1.241154144263081,-0.7290780922662394
-3.9385,0.6542945270905358,-0.3475991096802118
-3.938,0.291508581929326,-0.1356663415768632
-3.9375,0.08877525963335578,-0.1038764263613609
-3.937,-0.04993701351651855,-0.3158091944647096
-3.9365,-0.1886492866663929,-0.4111789401112165
-3.936,-0.156638762093345,-0.2204394488182027
-3.9355,-0.06060718837420119,-0.04029659593035631
-3.935,0.04609456020262521,0.07626642652648545
-3.9345,0.09944543449103843,0.13984625695749
-3.934,-0.1459685872356623,-0.05089323433552374
-3.9335,-0.9355615267041777,-0.6337083466197325
-3.933,-1.639793067311232,-1.216523458903942
-3.9325,-1.810515865034154,-1.534422611058964
-3.932,-1.981238662757077,-1.545019249464132
-3.9315,-2.376035132491334,-1.354279758171118
-3.931,-2.80284212679864,-1.089363798041932
-3.9305,-2.728150902794861,-0.8138511995075789
-3.93,-1.83185621474952,-0.1250697031716958
-3.9295,-0.9462317015618604,0.8392243916985406
-3.929,-0.2953510352432193,1.623375633680931
-3.9285,0.09944543449103843,2.057837808292796
-3.928,0.291508581929326,2.195594107559972
-3.9275,0.3448594562177392,2.216787384370307
-3.927,0.3448594562177392,2.110821000318633
-3.9265,0.3661998059331045,1.951871424241121
-3.926,0.4195506802215176,1.655165548896433
-3.9255,0.825017324813458,0.8180311148882058
-3.925,1.614610264281974,-0.2840192792492073
-3.9245,2.340182154604393,-1.184733543688439
-3.924,2.820340023200112,-1.852321763213987
-3.9235,2.841680372915477,-2.138431000153508
-3.923,2.297501455173662,-1.682775548731308
-3.9225,1.539919040278195,-0.9516074987747555
-3.922,0.8890383739595538,-0.4111789401112165
-3.9215,0.4622313796522482,-0.1356663415768632
-3.921,0.2274875327832301,-0.09327978795619347
-3.9205,0.1101156093487211,-0.2310360872233701
-3.92,-0.02859666380115328,-0.4429688553267188
-3.9195,-0.09261771294724913,-0.400582301706049
-3.919,-0.2846808603855366,-0.2098428104130352
-3.9185,-0.3380317346739499,-0.05089323433552374
-3.918,-0.2206598112394408,0.07626642652648545
-3.9175,-0.1993194615240755,0.08686306493165288
-3.917,-0.7434983792658902,-0.4111789401112165
-3.9165,-1.522421143876723,-1.025783967610927
-3.916,-2.03458953704549,-1.47084278062796
-3.9155,-2.002579012472442,-1.598002441489969
-3.915,-2.151961460479999,-1.439052865412457
-3.9145,-2.525417580498891,-1.152943628472937
-3.914,-2.80284212679864,-0.8562377531282487
-3.9135,-2.173301810195364,-0.3370024712750445
-3.913,-1.255666772434657,0.6166949851900245
-3.9125,-0.5087545323968721,1.506812611224089
-3.912,-0.02859666380115328,2.07903108510313
-3.9115,0.2274875327832301,2.322753768421981
-3.911,0.3235191065023739,2.375736960447818
-3.9105,0.3448594562177392,2.301560491611646
-3.91,0.3341892813600565,2.153207553939303
-3.9095,0.3448594562177392,1.930678147430786
-3.909,0.5582629533713921,1.29487984312074
-3.9085,1.294505018551494,0.1716361721729923
-3.908,2.08409795802001,-0.8562377531282487
-3.9075,2.638947050619507,-1.598002441489969
-3.907,2.724308449480968,-2.053657892912168
-3.9065,2.233480406027567,-1.693372187136476
-3.906,1.51857869056283,-1.05757388282643
-3.9055,0.8997085488172365,-0.5807251545938954
-3.905,0.4835717293676135,-0.3581957480853793
-3.9045,0.2061471830678648,-0.3475991096802118
-3.904,0.0674349099179905,-0.4217755785163839
-3.9035,0.03542438534494258,-0.5807251545938954
-3.903,0.03542438534494258,-0.5171453241628908
-3.9025,0.01408403562957729,-0.3158091944647096
-3.902,0.03542438534494258,-0.1674562567923655
-3.9015,0.07810508477567314,-0.05089323433552374
-3.901,0.05676473506030786,0.04447651131098315
-3.9005,-0.4340633083930936,-0.252229364033705
-3.9,-1.277007122150022,-0.8456411147230812
-3.8995,-1.970568487899394,-1.322489842955616
-3.899,-2.247993034199143,-1.502632695843462
-3.8985,-2.557428105071939,-1.396666311791788
-3.898,-2.845522826229371,-1.142346990067769
-3.8975,-2.866863175944736,-0.8562377531282487
-3.897,-2.546757930214257,-0.4641621321370536
-3.8965,-1.533091318734406,0.4047622170866759
-3.896,-0.7008176798351597,1.347863035146577
-3.8955,-0.124628237520297,2.015451254672126
-3.895,0.1848068333524996,2.322753768421981
-3.8945,0.3235191065023739,2.418123514068488
-3.894,0.3555296310754218,2.375736960447818
-3.8935,0.3448594562177392,2.20619074596514
-3.893,0.3235191065023739,1.983661339456623
-3.8925,0.4515612047945656,1.580989080060261
-3.892,1.123782220828572,0.5743084315693548
-3.8915,1.945385684870135,-0.5277419625680583
-3.891,2.574926001473411,-1.375473034981453
-3.8905,2.702968099765603,-1.873515040024322
-3.89,2.244150580885249,-1.555615887869299
-3.8895,1.571929564851243,-1.01518732920576
-3.889,0.9637295979633325,-0.6337083466197325
-3.8885,0.5369226036560266,-0.3899856633008816
-3.888,0.3128489316446912,-0.3158091944647096
-3.8875,0.1954770082101822,-0.3899856633008816
-3.887,0.1207857842064037,-0.5489352393783931
-3.8865,0.05676473506030786,-0.5171453241628908
-3.886,0.05676473506030786,-0.326405832869877
-3.8855,0.0674349099179905,-0.1356663415768632
