Class_10_Using_Wats_App/Class_10_WatsApp_Basim_8.csv

#Digilent WaveForms Oscilloscope Acquisition
#Device Name: EExplorer
#Serial Number: SN:210151A2B84A
#Date Time: 2021-02-03 11:08:18.753
#Sample rate: 2000Hz
#Samples: 16384
#Trigger: Source: Channel 1 Type: Edge Condition: Rising Level: 0 V Hyst.: Auto HoldOff: 0 s
#Channel 1: Range: 1 V/div Offset: 0 V Attenuation: 1 X
#Channel 2: Range: 1 V/div Offset: 0 V Attenuation: 1 X
#Power Supplies: ON
#Fixed Supply: ON
#Voltage: 3.3 V Readback: 3.302 V
#Positive Supply: ON
#Voltage: 3.7 V Readback: 3.732 V
#Current: 40 mA Readback: 21 mA
#Negative Supply: ON
#Voltage: -3.7 V Readback: -3.334 V
#Current: -40 mA Readback: -9 mA
#Reference 1: ON
#Voltage: 0 V
#Reference 2: ON
#Voltage: 0 V

Time (s),Channel 1 (V),Channel 2 (V)
-4.096,0.3875401556484697,-0.1674562567923655
-4.0955,0.4835717293675261,0.1292496185520528
-4.095,0.4835717293675844,0.256409279414351
-4.0945,0.4515612047945656,0.2776025562246667
-4.094,0.5155822539406032,0.30939247144014
-4.0935,0.6649647019481795,0.4153588554917759
-4.093,0.6222840025174878,0.3411823866556712
-4.0925,0.5155822539407584,0.2352160026040933
-4.092,0.4195506802214497,0.1398462569574515
-4.0915,0.3448594562177392,0.09745970333682032
-4.091,0.1634664836371343,0.2776025562246667
-4.0905,-0.4767440078244647,0.4047622170861073
-4.09,-1.180975548430879,-0.2204394488182027
-4.0895,-1.565101843307454,-0.6760949002404023
-4.089,-1.906547438752987,-0.3581957480856684
-4.0885,-1.554431668449771,-0.2310360872233701
-4.088,-0.8715404775580819,-0.07208651114585861
-4.0875,-0.2953510352437434,0.08686306493150832
-4.087,0.09944543449122281,0.2246193641989355
-4.0865,0.3021787567870086,0.3411823866556712
-4.086,0.3768699807907192,0.4365521323020914
-4.0855,0.3875401556484503,0.5213252395435658
-4.085,0.3661998059331045,0.5743084315693548
-4.0845,0.3448594562177586,0.6272916235951438
-4.084,0.3235191065023642,0.6590815388107039
-4.0835,0.3128489316446912,0.6696781772158616
-4.083,0.2808384070716433,0.6378882620003594
-4.0825,-0.1352984123786105,0.1610395337671696
-4.082,-0.8288597781273515,-0.5595318777835605
-4.0815,-1.244996597576974,-1.121153713257435
-4.081,-1.159635198715591,-1.057573882826488
-4.0805,-0.5834457564006506,-0.718481453861072
-4.08,-0.03926683865883591,-0.2946159176543747
-4.0795,0.3021787567866981,0.1080563417416215
-4.079,0.4515612047946044,0.3729723018712603
-4.0785,0.4942419042252961,0.4683420475176805
-4.078,0.4729015545099503,0.4577454091125227
-4.0775,0.4622313796524326,0.436552132302342
-4.077,0.6649647019482183,0.6166949851900245
-4.0765,0.6969752265212372,0.5849050699745511
-4.076,0.6009436528020158,0.3941655786813253
-4.0755,0.4835717293676135,0.1928294489833272
-4.075,0.3982103305061524,0.04447651131098315
-4.0745,0.3021787567866107,0.04447651131129156
-4.074,-0.1352984123779797,0.383568940276341
-4.0735,-0.839529952985034,0.08686306493165288
-4.073,-1.244996597576606,-0.5701285161881304
-4.0725,-1.607782542738184,-0.3581957480853793
-4.072,-1.607782542738184,0.1610395337678249
-4.0715,-1.052933450139192,0.2776025562245606
-4.071,-0.455403658108061,0.2034260873884272
-4.0705,-0.01792648894347063,0.1292496185523226
-4.07,0.2381577076406799,0.08686306493169144
-4.0695,0.3555296310754509,0.1080563417420456
-4.069,0.3875401556484697,0.1716361721729923
-4.0685,0.3768699807907871,0.2670059178194992
-4.068,0.3555296310754024,0.3729723018712603
-4.0675,0.3341892813600565,0.4683420475176805
-4.067,0.3128489316446912,0.5637117931641874
-4.0665,0.3128489316444875,0.6272916235949992
-4.066,0.08877525963335578,0.4153588554918433
-4.0655,-0.5941159312583333,-0.2204394488182027
-4.065,-1.063603624995943,-0.8032545611018814
-4.0645,-1.06360362499637,-1.025783967610927
-4.064,-0.5941159312583333,-0.7502713690765743
-4.0635,-0.07127736323235934,-0.252229364034158
-4.063,0.270168232214116,0.2458126410094824
-4.0625,0.4408910299368829,0.5955017083796896
-4.062,0.4942419042252476,0.7544512844570566
-4.0615,0.4729015545099114,0.7862411996726649
-4.061,0.4515612047945656,0.7438546460520338
-4.0605,0.6116138276598051,0.627291623595192
-4.06,0.7289857510942367,0.5425185163537176
-4.0595,0.6436243522328531,0.3941655786815084
-4.059,0.5262524287983441,0.2246193641988295
-4.0585,0.4195506802216147,0.08686306493177817
-4.058,0.3448594562177392,0.002089957690313421
-4.0575,0.02475421048725994,0.2140227257936621
-4.057,-0.658136980403808,0.06566978812145294
-4.0565,-1.170305373573196,-0.5913217929990628
-4.056,-1.565101843307454,-0.6654982618352349
-4.0555,-1.725154466172548,-0.2416327256289231
-4.055,-1.212986073003354,-0.09327978795615492
-4.0545,-0.5834457564006506,-0.05089323433552374
-4.054,-0.09261771294769555,-0.04029659593036595
-4.0535,0.206147183067991,-0.0296999575251696
-4.053,0.3448594562177392,-0.008506680714854012
-4.0525,0.3875401556484697,0.03387987290581572
-4.052,0.3875401556484406,0.09745970333688778
-4.0515,0.3555296310754218,0.1716361721729923
-4.051,0.3341892813600565,0.2458126410091644
-4.0505,0.3235191065023836,0.319989109845269
-4.05,0.3128489316446912,0.383568940276341
-4.0495,0.2168173579255475,0.3199891098453364
-4.049,-0.3273615598157723,-0.2204394488177112
-4.0485,-0.8075194284122189,-0.8138511995079355
-4.048,-1.06360362499637,-1.205926820498774
-4.0475,-0.7755089038392002,-0.9728007755853024
-4.047,-0.231329986096745,-0.4853554089468777
-4.0465,0.1848068333524996,0.07626642652648545
-4.046,0.4088805053636312,0.5001319627327973
-4.0455,0.4942419042252961,0.7756445612676517
-4.045,0.4942419042252961,0.9028042221295453
-4.0445,0.4622313796522482,0.8922075837243778
-4.044,0.5262524287985091,0.9028042221295934
-4.0435,0.707645401378949,0.9557874141553824
-4.043,0.6756348768059011,0.7650479228623686
-4.0425,0.5582629533714989,0.4895353243282659
-4.042,0.4515612047945656,0.2670059178194992
-4.0415,0.3661998059331045,0.1292496185523226
-4.041,0.2168173579256834,0.1822328105781116
-4.0405,-0.3487019095320304,0.3729723018706821
-4.04,-0.7861790786966207,-0.1674562567923655
-4.0395,-1.031593100423098,-0.6443049850244662
-4.039,-1.383708870726732,-0.1780528951971281
-4.0385,-1.255666772434657,0.2670059178194992
-4.038,-0.7434983792663561,0.2881991946298149
-4.0375,-0.2526703358121782,0.1610395337677093
-4.037,0.08877525963335578,0.03387987290581572
-4.0365,0.2808384070716433,-0.008506680714854012
-4.036,0.3661998059331142,0.002089957690380884
-4.0355,0.3768699807907871,0.07626642652648545
-4.035,0.3661998059331045,0.1716361721729923
-4.0345,0.3448594562177586,0.2776025562245703
-4.034,0.3235191065023739,0.383568940276341
-4.0335,0.3128489316446912,0.4789386859228479
-4.033,0.2808384070716724,0.5213252395434791
-4.0325,-0.1459685872363028,0.1080563417414191
-4.032,-0.8502001278427167,-0.5171453241628908
-4.0315,-1.362368521011018,-1.015187329205307
-4.031,-1.309017646722507,-0.9728007755847434
-4.0305,-0.690147504977477,-0.5913217929990628
-4.03,-0.1032878878054655,-0.05089323433601523
-4.0295,0.2701682322141257,0.425955493897242
-4.029,0.4515612047945656,0.6802748156210291
-4.0285,0.5049120790829789,0.7968378380778709
-4.028,0.4835717293676038,0.7862411996726264
-4.0275,0.4729015545099309,0.701468092431364
-4.027,0.707645401378949,0.3199891098453364
-4.0265,0.7609962756673138,0.0974597033370227
-4.026,0.6542945270905358,0.05507314971615059
-4.0255,0.5155822539406614,0.05507314971615059
-4.025,0.4088805053639321,0.06566978812130839
-4.0245,0.3021787567865913,0.09745970333713835
-4.024,-0.156638762093345,0.4471487707073456
-4.0235,-0.8715404775574318,0.2352160026041897
-4.023,-1.469070269588698,-0.5277419625686943
-4.0225,-1.895877263895616,-1.227120097309109
-4.022,-1.469070269588698,-1.26950665092974
-4.0215,-0.7861790786961161,-0.8562377531278342
-4.021,-0.2313299860971235,-0.400582301706049
-4.0205,0.1314559590640864,-0.06148987274069118
-4.02,0.3235191065024321,0.1292496185523997
-4.0195,0.3875401556484697,0.2140227257936621
-4.019,0.3982103305061524,0.2246193641988295
-4.0185,0.3768699807908065,0.2034260873885139
-4.018,0.3448594562177392,0.1822328105781598
-4.0175,0.3235191065023739,0.1610395337678249
-4.017,0.312848931644701,0.1398462569575093
-4.0165,0.3128489316445068,0.1292496185520624
-4.016,0.1101156093487211,-0.1568596183871981
-4.0155,-0.5621054066846739,-0.8138511995069814
-4.015,-1.309017646723361,-1.449649503817808
-4.0145,-1.629122892453549,-1.650985633515806
-4.014,-1.031593100423865,-1.174136905283705
-4.0135,-0.3166913849581284,-0.6972881770502842
-4.013,0.1848068333524996,-0.1992461720078678
-4.0125,0.4515612047945656,0.2140227257936621
-4.012,0.536922603656017,0.4895353243281503
-4.0115,0.5262524287983441,0.6378882620003594
-4.011,0.4835717293676135,0.6802748156210291
-4.0105,0.6329541773750347,0.8180311148880806
-4.01,0.79300680024041,0.8922075837243778
-4.0095,0.7183155762366316,0.7226613692416989
-4.009,0.5796033030868835,0.5001319627333852
-4.0085,0.4515612047944879,0.2987958330348859
-4.008,0.3661998059331045,0.1716361721729923
-4.0075,0.07810508477593514,0.3093924714400437
-4.007,-0.5621054066856734,0.1610395337671889
-4.0065,-0.9889124009925911,-0.5383386009732256
-4.006,-1.244996597576974,-0.718481453861072
-4.0055,-1.511750969018769,-0.04029659592999008
-4.005,-1.212986073003927,0.3623756634660061
-4.0045,-0.658136980404429,0.3411823866556712
-4.004,-0.1779791118084094,0.203426087388379
-4.0035,0.1527963087794516,0.07626642652648545
-4.003,0.3128489316446912,0.03387987290581572
-4.0025,0.3768699807907289,0.05507314971613131
-4.002,0.3875401556484697,0.1292496185523226
-4.0015,0.3661998059331045,0.2246193641988295
-4.001,0.3448594562177586,0.3305857482504075
-4.0005,0.3341892813600468,0.4365521323022649
-4,0.3235191065023739,0.5319218779486851
-3.9995,0.2594980573562781,0.5213252395435176
-3.999,-0.1993194615240755,0.05507314971615059
-3.9985,-0.5941159312583333,-0.4641621321370536
-3.998,-0.9675720512772257,-0.8986243067489184
-3.9975,-0.8715404775580819,-0.9516074987747555
-3.997,-0.3807124341046804,-0.6019184314042303
-3.9965,0.05676473506030786,-0.09327978795619347
-3.996,0.3235191065023739,0.383568940276341
-3.9955,0.4515612047945656,0.7120647308365314
-3.995,0.4729015545099309,0.8604176685088755
-3.9945,0.4515612047945656,0.8604176685088755
-3.994,0.5155822539406614,0.8180311148882058
-3.9935,0.79300680024041,0.8816109453192104
-3.993,0.7823366253827275,0.701468092431364
-3.9925,0.6542945270905358,0.4259554938970107
-3.992,0.5049120790829789,0.1610395337678249
-3.9915,0.3982103305061524,-0.01910331912002144
-3.991,0.2488278824985954,-0.02969995752518888
-3.9905,-0.3380317346739499,0.309392471440169
-3.99,-0.807519428411986,-0.008506680714854012
-3.9895,-0.8822106524157645,-0.6231117082145651
-3.989,-0.6047861061160158,-0.7502713690765743
-3.9885,-0.2420001609548061,-0.570128516188728
-3.988,0.05676473506030786,-0.3158091944647096
-3.9875,0.2381577076409128,-0.09327978795619347
-3.987,0.3341892813600565,0.06566978812131802
-3.9865,0.3661998059331045,0.1716361721729923
-3.986,0.3555296310754218,0.2352160026039969
-3.9855,0.3448594562177392,0.2987958330350016
-3.985,0.3341892813600565,0.3411823866556712
-3.9845,0.3235191065023739,0.3729723018711736
-3.984,0.3128489316446912,0.4047622170866759
-3.9835,0.3128489316446912,0.4365521323021782
-3.983,0.3021787567870086,0.4259554938970107
-3.9825,-0.02859666380115328,0.03387987290581572
-3.982,-0.6047861061160158,-0.6443049850249
-3.9815,-0.9889124009925911,-1.205926820498774
-3.981,-0.9142211769888124,-1.195330182093607
-3.9805,-0.4020527838200457,-0.8138511995075789
-3.98,0.07810508477567314,-0.3899856633008816
-3.9795,0.3661998059331045,0.05507314971615059
-3.979,0.4835717293676135,0.3729723018711736
-3.9785,0.5049120790829789,0.5637117931641874
-3.978,0.4835717293676135,0.6802748156210291
-3.9775,0.4408910299368829,0.701468092431364
-3.977,0.5155822539406614,0.8180311148882058
-3.9765,0.5369226036560266,0.7650479228623686
-3.976,0.4729015545099309,0.55311515475902
-3.9755,0.408880505363835,0.3411823866556712
-3.975,0.3661998059331045,0.1822328105781598
-3.9745,0.3128489316446912,0.1186529801471552
-3.974,-0.08194753808956648,0.3729723018711736
-3.9735,-0.6474668055467465,0.1186529801471552
-3.973,-1.095614149569417,-0.6125150698093976
-3.9725,-1.405049220442214,-1.290699927740113
-3.972,-1.191645723288561,-1.34368311976595
-3.9715,-0.6794773301197943,-0.8774310299385835
-3.971,-0.1993194615240755,-0.3475991096802118
-3.9705,0.1207857842064037,0.04447651131098315
-3.97,0.3021787567870086,0.2881991946298341
-3.9695,0.3661998059331045,0.4047622170866759
-3.969,0.3768699807907871,0.4471487707073456
-3.9685,0.3661998059331045,0.4471487707073456
-3.968,0.3448594562177392,0.4259554938970107
-3.9675,0.3235191065023739,0.4047622170866759
-3.967,0.3128489316446912,0.383568940276341
-3.9665,0.3128489316446912,0.3623756634660061
-3.966,0.1848068333524996,0.1080563417419877
-3.9655,-0.3593720843893152,-0.570128516188728
-3.965,-0.690147504977477,-1.163540266878104
-3.9645,-0.690147504977477,-1.481439419033127
-3.964,-0.3060212101009019,-1.375473034981453
-3.9635,0.1207857842064037,-0.9833974139902578
-3.963,0.3768699807907871,-0.4535654937318862
-3.9625,0.4942419042252961,0.02328323450064829
-3.962,0.5049120790829789,0.3199891098453364
-3.9615,0.4622313796522482,0.4683420475176805
-3.961,0.4302208550792003,0.5213252395435176
-3.9605,0.5369226036560266,0.6590815388106942
-3.96,0.6756348768059011,0.7650479228623686
-3.9595,0.6222840025174878,0.6378882620003594
-3.959,0.5155822539406614,0.4365521323021782
-3.9585,0.4195506802215176,0.2670059178194992
-3.958,0.3555296310754218,0.1610395337678249
-3.9575,0.1527963087794516,0.309392471440169
-3.957,-0.4767440078238243,0.3411823866556712
-3.9565,-1.180975548430879,-0.3158091944647096
-3.956,-1.746494815888059,-0.6972881770507372
-3.9555,-2.087940411333903,-0.1886495336027004
-3.955,-1.522421143876723,0.09745970333682032
-3.9545,-0.7861790786966207,0.1504428953626575
-3.954,-0.2099896363817582,0.1186529801471552
-3.9535,0.1634664836371343,0.09745970333682032
-3.953,0.3341892813600565,0.09745970333682032
-3.9525,0.3982103305061524,0.13984625695749
-3.952,0.3982103305061524,0.2034260873884947
-3.9515,0.3768699807907871,0.2776025562246667
-3.951,0.3448594562177392,0.3623756634660061
-3.9505,0.3235191065023739,0.4365521323021782
-3.95,0.3128489316446912,0.5001319627331828
-3.9495,0.2701682322139607,0.4789386859228479
-3.949,-0.2099896363817582,-0.008506680714854012
-3.9485,-0.8288597781273515,-0.6654982618352349
-3.948,-1.255666772434657,-1.131750351662602
-3.9475,-0.9142211769888124,-0.8774310299385835
-3.947,-0.274010685527854,-0.474758770542221
-3.9465,0.2168173579255475,-0.1144730647665284
-3.946,0.4622313796522482,0.2458126410091644
-3.9455,0.5475927785137094,0.4895353243280153
-3.945,0.5262524287983441,0.6166949851900245
-3.9445,0.4835717293676135,0.6590815388106942
-3.944,0.4515612047945656,0.6908714540261965
-3.9435,0.5369226036560266,0.8074344764830383
-3.943,0.5262524287983441,0.6908714540261965
-3.9425,0.4622313796522482,0.4789386859228479
-3.942,0.3982103305061524,0.2881991946298341
-3.9415,0.3555296310754218,0.1504428953626575
-3.941,0.2594980573562781,0.1186529801471552
-3.9405,-0.2633405106701714,0.2670059178194992
-3.94,-0.8822106524157645,-0.2310360872233701
-3.9395,-1.234326422719292,-0.8880276683437509
-3.939,-1.597112367880501,-1.354279758171118
-3.9385,-1.575772018165136,-1.534422611058964
-3.938,-1.010252750707956,-1.0999604364471
-3.9375,-0.423393133535411,-0.5383386009732256
-3.937,0.00341386077189465,-0.09327978795619347
-3.9365,0.2488278824985954,0.1716361721729923
-3.936,0.3661998059331045,0.309392471440169
-3.9355,0.3875401556484697,0.3517790250608387
-3.935,0.3768699807907871,0.3411823866556712
-3.9345,0.3555296310754218,0.3199891098453364
-3.934,0.3341892813600565,0.2987958330350016
-3.9335,0.3235191065023739,0.2776025562246667
-3.933,0.3128489316446912,0.2564092794143318
-3.9325,0.03542438534494258,-0.06148987274069118
-3.932,-0.6794773301197943,-0.7608680074817418
-3.9315,-1.255666772434657,-1.407262950196955
-3.931,-1.074273799854052,-1.407262950196955
-3.9305,-0.423393133535411,-0.9728007755850904
-3.93,0.142126133921769,-0.6337083466197325
-3.9295,0.4515612047945656,-0.2946159176543747
-3.929,0.5475927785137094,0.002089957690313421
-3.9285,0.5475927785137094,0.1928294489833272
-3.928,0.4942419042252961,0.2987958330350016
-3.9275,0.4515612047945656,0.3517790250608387
-3.927,0.6222840025174878,0.4259554938970107
-3.9265,0.6863050516635838,0.4789386859228479
-3.926,0.6116138276598051,0.4365521323021782
-3.9255,0.4942419042252961,0.3517790250608387
-3.925,0.3982103305061524,0.2776025562246667
-3.9245,0.3341892813600565,0.2564092794143318
-3.924,0.00341386077189465,0.55311515475902
-3.9235,-0.6474668055467465,0.3517790250608387
-3.923,-1.202315898146244,-0.4323722169215513
-3.9225,-1.618452717595867,-1.163540266878104
-3.922,-1.341028171296118,-1.227120097309109
-3.9215,-0.754168554123573,-0.7820612842920766
-3.921,-0.2313299860971235,-0.2628260024388724
-3.9205,0.1207857842064037,0.13984625695749
-3.92,0.3128489316446912,0.3729723018711736
-3.9195,0.3768699807907871,0.5001319627331828
-3.919,0.3875401556484697,0.5319218779486851
-3.9185,0.3768699807907871,0.5319218779486851
-3.918,0.3448594562177392,0.5107286011383502
-3.9175,0.3341892813600565,0.4789386859228479
-3.917,0.3235191065023739,0.4471487707073456
-3.9165,0.3128489316446912,0.4047622170866759
-3.916,0.1848068333524996,0.1928294489833272
-3.9155,-0.4447334832507763,-0.4853554089473885
-3.915,-1.212986073003927,-1.216523458903942
-3.9145,-1.725154466172693,-1.661582271920973
-3.914,-1.234326422719292,-1.396666311791788
-3.9135,-0.4980843575391895,-0.9622041371799229
-3.913,0.0674349099179905,-0.4429688553267188
-3.9125,0.3768699807907871,-0.01910331912002144
-3.912,0.4942419042252961,0.2352160026039969
-3.9115,0.5049120790829789,0.3623756634660061
-3.911,0.4835717293676135,0.4047622170866759
-3.9105,0.5475927785137094,0.2352160026039969
-3.91,0.6542945270905358,0.02328323450064829
-3.9095,0.5902734779444399,-0.02969995752518888
-3.909,0.5049120790829789,-0.008506680714854012
-3.9085,0.408880505363835,0.02328323450064829
-3.908,0.3555296310754218,0.04447651131098315
-3.9075,0.1634664836371343,0.2458126410091644
-3.907,-0.4660738329661415,0.2987958330350016
-3.9065,-0.9355615267041777,-0.3475991096802118
-3.906,-1.159635198715513,-0.7290780922662394
-3.9055,-1.458400094730627,-0.1462629799820306
-3.905,-1.244996597576974,0.309392471440169
-3.9045,-0.7114878546928423,0.3411823866556712
-3.904,-0.2206598112394408,0.2246193641988295
-3.9035,0.1207857842064037,0.1292496185523226
-3.903,0.3021787567870086,0.09745970333682032
-3.9025,0.3768699807907871,0.1186529801471552
-3.902,0.3875401556484697,0.2034260873884947
-3.9015,0.3768699807907871,0.2987958330350016
-3.901,0.3555296310754218,0.4047622170866759
-3.9005,0.3341892813600565,0.5107286011383502
-3.9,0.3235191065023739,0.5955017083796896
-3.8995,0.2808384070716433,0.6060983467848571
-3.899,-0.1673089369510276,0.13984625695749
-3.8985,-0.9035510021311299,-0.5065486857577234
-3.898,-1.330357996438436,-0.9939940523954253
-3.8975,-1.138294849000148,-1.036380606016095
-3.897,-0.5407650569699201,-0.6654982618352349
-3.8965,-0.007256314085787988,-0.1674562567923655
-3.896,0.3128489316446912,0.3305857482505039
-3.8955,0.4622313796522482,0.6484849004055269
-3.895,0.4942419042252961,0.7968378380778709
-3.8945,0.4729015545099309,0.7968378380778709
-3.894,0.4515612047945656,0.7226613692416989
-3.8935,0.5155822539406614,0.6802748156210291
-3.893,0.5049120790829789,0.5425185163538525
-3.8925,0.4515612047945656,0.3517790250608387
-3.892,0.3875401556484697,0.1610395337678249
-3.8915,0.3555296310754218,0.02328323450064829
-3.891,0.291508581929326,-0.05089323433552374
-3.8905,-0.1779791118087102,0.13984625695749
-3.89,-0.8608703027003992,-0.2204394488182027
-3.8895,-1.170305373573196,-0.8880276683437509
-3.889,-1.447729919872945,-1.492036057438295
-3.8885,-1.223656247861609,-1.502632695843462
-3.888,-0.7008176798351597,-0.9939940523954253
-3.8875,-0.2099896363817582,-0.4535654937318862
-3.887,0.1314559590640864,-0.06148987274069118
