Class_10_Using_Wats_App/Class_10_WatsApp_SH_7.csv

#Digilent WaveForms Oscilloscope Acquisition
#Device Name: EExplorer
#Serial Number: SN:210151A2B84A
#Date Time: 2020-12-17 15:46:46.536
#Sample rate: 2000Hz
#Samples: 16384
#Trigger: Source: Channel 1 Type: Edge Condition: Rising Level: 0 V Hyst.: Auto HoldOff: 0 s
#Channel 1: Range: 1 V/div Offset: 0 V Attenuation: 1 X
#Channel 2: Range: 1 V/div Offset: 0 V Attenuation: 1 X
#Power Supplies: ON
#Fixed Supply: ON
#Voltage: 3.3 V Readback: 3.327 V
#Positive Supply: ON
#Voltage: 3.7 V Readback: 3.721 V
#Current: 40 mA Readback: 20 mA
#Negative Supply: ON
#Voltage: -3.7 V Readback: -3.358 V
#Current: -40 mA Readback: -7 mA
#Reference 1: ON
#Voltage: 0 V
#Reference 2: ON
#Voltage: 0 V

Time (s),Channel 1 (V),Channel 2 (V)
-4.096,0.4729015545099309,-0.1992461720078678
-4.0955,0.6009436528020061,-0.07208651114597428
-4.095,0.6116138276597857,0.1504428953628406
-4.0945,0.5902734779444399,0.3517790250608387
-4.094,0.5475927785137482,0.4683420475175745
-4.0935,0.5369226036559781,0.4789386859229346
-4.093,0.4835717293676135,0.5743084315693548
-4.0925,0.4195506802215759,0.7014680924312483
-4.092,0.3875401556484309,0.7968378380779191
-4.0915,0.3448594562177392,0.849821030103708
-4.091,-0.02859666380115328,0.5001319627331828
-4.0905,-0.7755089038395884,-0.1992461720084653
-4.09,-1.490410619303675,-0.8562377531282487
-4.0895,-1.87453691418025,-1.258910012524611
-4.089,-1.917217613610942,-1.396666311791662
-4.0885,-1.26633694729234,-0.9516074987747555
-4.088,-0.572775581542968,-0.3581957480853793
-4.0875,-0.06060718837466705,0.07626642652609034
-4.087,0.2488278824987215,0.2776025562246859
-4.0865,0.3875401556484697,0.2987958330350016
-4.086,0.4302208550791615,0.2034260873885814
-4.0855,0.4195506802214982,0.05507314971601566
-4.085,0.3982103305061524,-0.09327978795619347
-4.0845,0.3768699807908065,-0.2098428104129292
-4.084,0.3661998059331045,-0.262826002438882
-4.0835,0.3661998059331045,-0.2734226408440398
-4.083,0.3341892813600565,-0.252229364033705
-4.0825,0.1634664836369111,0.192829448983626
-4.082,-0.08194753808956648,0.5213252395435176
-4.0815,-0.5514352318276028,0.06566978812131802
-4.081,-0.6794773301196778,-0.2204394488179424
-4.0805,-0.3487019095316325,-0.3475991096802118
-4.08,0.0674349099179905,-0.326405832869877
-4.0795,0.3555296310751598,-0.220439448818299
-4.079,0.5049120790830079,-0.125069703171638
-4.0785,0.5369226036560266,-0.06148987274069118
-4.078,0.5369226036560266,0.07626642652636018
-4.0775,0.5049120790829983,0.2458126410093475
-4.077,0.5262524287983441,0.4471487707073456
-4.0765,0.5049120790829983,0.5531151547589236
-4.076,0.4515612047945171,0.6272916235952305
-4.0755,0.3982103305061524,0.6696781772158616
-4.075,0.3661998059331045,0.7120647308365314
-4.0745,0.4622313796527722,0.8286277532937394
-4.074,1.038420821967111,1.231300012689736
-4.0735,1.113112045970889,1.305476481525908
-4.073,0.3448594562184379,0.4365521323029684
-4.0725,-0.5300948821122373,-0.5595318777835605
-4.072,-0.7968492535543035,-0.9516074987747555
-4.0715,-0.5727755815431719,-0.7396747306715996
-4.071,-0.2313299860968517,-0.368792386490248
-4.0705,0.0674349099179905,-0.04029659593035631
-4.07,0.2488278824984304,0.1716361721727996
-4.0695,0.3448594562177683,0.2881991946298726
-4.069,0.3768699807907871,0.3305857482505039
-4.0685,0.3768699807907871,0.3411823866556712
-4.068,0.3661998059330948,0.3517790250609255
-4.0675,0.3555296310754218,0.4471487707073456
-4.067,0.3661998059331045,0.5213252395435176
-4.0665,0.3875401556484212,0.616694985190304
-4.066,0.3341892813600565,0.92399749893988
-4.0655,-0.02859666380115328,0.9557874141553824
-4.065,-0.3700422592466873,0.1822328105788633
-4.0645,-0.4340633083930936,-0.5171453241628908
-4.064,-0.156638762093345,-0.5807251545938954
-4.0635,0.1954770082098619,-0.4535654937320018
-4.063,0.4302208550792974,-0.2840192792491013
-4.0625,0.5369226036560266,-0.1674562567923655
-4.062,0.5582629533713727,-0.07208651114594535
-4.0615,0.526252428798315,0.002089957690380884
-4.061,0.4942419042252961,0.07626642652648545
-4.0605,0.4835717293676135,0.05507314971615059
-4.06,0.4835717293675747,0.03387987290592173
-4.0595,0.4408910299368829,0.1504428953626575
-4.059,0.3982103305061524,0.3199891098453364
-4.0585,0.3661998059331336,0.4577454091123878
-4.058,0.2701682322139607,0.4471487707073456
-4.0575,-0.1993194615240755,-0.07208651114585861
-4.057,-0.8181896032691058,-0.7502713690759575
-4.0565,-1.458400094730627,-1.301296566145281
-4.056,-2.013249187330125,-1.650985633515806
-4.0555,-1.949228138184087,-1.587405803084859
-4.055,-1.202315898145603,-0.9622041371793351
-4.0545,-0.4980843575391895,-0.3158091944647096
-4.054,-0.007256314086234394,0.1398462569570756
-4.0535,0.2808384070717501,0.3517790250608772
-4.053,0.3982103305061524,0.3941655786815084
-4.0525,0.4195506802215176,0.3305857482505039
-4.052,0.4088805053638059,0.2140227257935561
-4.0515,0.3768699807907871,0.09745970333682032
-4.051,0.3555296310754218,0.01268659609548085
-4.0505,0.3555296310754218,-0.02969995752515033
-4.05,0.3661998059331045,-0.008506680714854012
-4.0495,0.3128489316446912,-0.07208651114585861
-4.049,0.08877525963355956,-0.1780528951974366
-4.0485,-0.4127229586780195,-0.6654982618357745
-4.048,-0.7328282044082075,-1.258910012524611
-4.0475,-0.6261264558314783,-1.386069673386505
-4.047,-0.2206598112390915,-0.9410108603691159
-4.0465,0.1634664836371343,-0.4217755785163839
-4.046,0.4302208550789577,-0.01910331912038765
-4.0455,0.5369226036560266,0.1610395337678249
-4.045,0.5369226036560266,0.1610395337678249
-4.0445,0.4942419042252961,0.1186529801471552
-4.044,0.4835717293676814,0.03387987290565188
-4.0435,0.5582629533713921,-0.1462629799820306
-4.043,0.5369226036560266,-0.09327978795619347
-4.0425,0.4729015545099891,0.05507314971601567
-4.042,0.408880505363835,0.2140227257936621
-4.0415,0.3661998059331045,0.3305857482505039
-4.041,0.2915085819293939,0.1610395337679791
-4.0405,0.3982103305057642,-0.2734226408445988
-4.04,-0.02859666380115328,-0.8880276683437509
-4.0395,-0.6688071552615296,-1.195330182093327
-4.039,-1.309017646723119,-1.33308648136061
-4.0385,-1.362368521011484,-1.142346990067769
-4.038,-0.8928808272738742,-0.5807251545944062
-4.0375,-0.3593720843889561,-0.0720865111455502
-4.037,0.03542438534494258,0.2670059178194992
-4.0365,0.2701682322139607,0.4259554938970107
-4.036,0.3661998059331336,0.4471487707072974
-4.0355,0.3982103305061524,0.3941655786815084
-4.035,0.3875401556484697,0.309392471440169
-4.0345,0.3661998059331239,0.2140227257937488
-4.034,0.3555296310754218,0.1610395337678249
-4.0335,0.3555296310754218,0.1504428953626575
-4.033,0.3982103305061136,0.2987958330348667
-4.0325,0.5582629533715086,0.7332580076471844
-4.032,0.6863050516635838,1.082947075017392
-4.0315,0.1527963087799369,0.4683420475182395
-4.031,-0.007256314085584194,0.06566978812137585
-4.0305,0.2168173579255475,0.1292496185523226
-4.03,0.4088805053636603,0.06566978812137585
-4.0295,0.536922603656046,0.03387987290572898
-4.029,0.5582629533713921,-0.06148987274069118
-4.0285,0.5155822539406614,-0.1356663415768632
-4.028,0.4729015545099018,-0.1462629799819728
-4.0275,0.4408910299368829,-0.08268314955102604
-4.027,0.4515612047945656,-0.04029659593035631
-4.0265,0.4302208550792198,0.07626642652637944
-4.026,0.3982103305061524,0.2246193641988295
-4.0255,0.3768699807907871,0.3729723018711736
-4.025,0.3448594562177683,0.4789386859227515
-4.0245,0.1848068333525578,0.3623756634656785
-4.024,0.2488278824985954,0.002089957690313421
-4.0235,0.654294527090167,-0.4747587705417873
-4.023,0.2488278824978676,-0.9833974139905854
-4.0225,-0.5514352318276028,-1.34368311976595
-4.022,-0.8715404775577908,-1.184733543688584
-4.0215,-0.6474668055464166,-0.591321792998552
-4.021,-0.2846808603855366,-0.02969995752518888
-4.0205,0.02475421048725994,0.3411823866556712
-4.02,0.2274875327833175,0.5001319627331828
-4.0195,0.3235191065023739,0.5001319627331828
-4.019,0.3661998059331045,0.4153588554918433
-4.0185,0.3555296310754315,0.2987958330351076
-4.018,0.3448594562177392,0.1716361721729923
-4.0175,0.3341892813600565,0.08686306493165288
-4.017,0.3341892813600565,0.0550731497161795
-4.0165,0.3768699807909812,0.09745970333713835
-4.016,0.5902734779444399,0.4471487707073456
-4.0155,0.9637295979629927,0.9875773293703932
-4.015,0.7396559259515698,0.7968378380772155
-4.0145,0.2701682322139607,0.07626642652648545
-4.014,0.05676473506050195,-0.2946159176540373
-4.0135,0.1314559590642125,-0.4535654937319151
-4.013,0.2701682322139607,-0.4853554089473885
-4.0125,0.3768699807907871,-0.4429688553267188
-4.012,0.4515612047945947,-0.36879238649046
-4.0115,0.4835717293676135,-0.2734226408440398
-4.011,0.4622313796522482,-0.1568596183871981
-4.0105,0.4835717293675941,0.03387987290564226
-4.01,0.5049120790829789,0.2246193641988295
-4.0095,0.4622313796522482,0.3517790250608387
-4.009,0.3982103305062106,0.4577454091124167
-4.0085,0.3555296310753441,0.5425185163538814
-4.008,0.2701682322139607,0.5743084315693548
-4.0075,0.1421261339218854,0.2564092794146209
-4.007,0.1207857842058409,-0.2840192792497084
-4.0065,-0.4980843575391895,-0.8350444763179138
-4.006,-0.9889124009925911,-1.01518732920576
-4.0055,-1.383708870726684,-1.152943628472667
-4.005,-1.202315898146244,-0.8562377531282487
-4.0045,-0.690147504977477,-0.3158091944647096
-4.004,-0.209989636381467,0.1186529801473865
-4.0035,0.1101156093487211,0.3729723018711736
-4.003,0.291508581929326,0.4683420475176805
-4.0025,0.3555296310753636,0.4365521323022071
-4.002,0.3661998059331045,0.3411823866556712
-4.0015,0.3555296310754218,0.2352160026039969
-4.001,0.334189281360076,0.1398462569575768
-4.0005,0.3235191065023836,0.07626642652648545
-4,0.3341892813600565,0.07626642652648545
-3.9995,0.4408910299368829,0.2881991946298341
-3.999,0.5049120790829789,0.849821030103708
-3.9985,0.2381577076409128,1.305476481525908
-3.998,-0.3593720843893152,1.019367244586387
-3.9975,-0.3487019095316325,0.5319218779486851
-3.997,-0.01792648894347063,0.09745970333682032
-3.9965,0.2701682322139607,-0.1886495336027004
-3.996,0.4408910299368829,-0.252229364033705
-3.9955,0.5155822539406614,-0.2310360872233701
-3.995,0.5155822539406614,-0.2310360872233701
-3.9945,0.4835717293676135,-0.2098428104130352
-3.994,0.4302208550792003,-0.1038764263613609
-3.9935,0.3448594562177392,0.04447651131098315
-3.993,0.3021787567870086,0.2140227257936621
-3.9925,0.291508581929326,0.383568940276341
-3.992,0.291508581929326,0.5319218779486851
-3.9915,0.291508581929326,0.6590815388106942
-3.991,0.0674349099179905,0.457745409112513
-3.9905,-0.4767440078238243,-0.1356663415768632
-3.99,-1.180975548430879,-0.6972881770507372
-3.9895,-1.629122892453549,-0.9304142219644207
-3.989,-1.949228138184029,-0.9622041371799229
-3.9885,-1.575772018165136,-0.6549016234300674
-3.988,-0.8822106524157645,-0.07208651114585861
-3.9875,-0.2953510352432193,0.4153588554918433
-3.987,0.09944543449103843,0.6802748156210291
-3.9865,0.3021787567870086,0.7438546460520338
-3.986,0.3768699807907871,0.6696781772158616
-3.9855,0.3875401556484697,0.5107286011383502
-3.985,0.3661998059331045,0.3199891098453364
-3.9845,0.3448594562177392,0.1504428953626575
-3.984,0.3235191065023739,0.01268659609548085
-3.9835,0.3235191065023739,-0.08268314955102604
-3.983,0.3768699807907871,-0.08268314955102604
-3.9825,0.6863050516635838,0.3623756634660061
-3.982,0.9957401225363802,0.849821030103708
-3.9815,0.3555296310754218,0.4259554938970107
-3.981,-0.07127736323188383,0.01268659609548085
-3.9805,0.04609456020262521,0.07626642652648545
-3.98,0.2488278824985954,0.01268659609548085
-3.9795,0.4195506802215176,-0.1356663415768632
-3.979,0.4942419042252961,-0.252229364033705
-3.9785,0.4942419042252961,-0.3052125560595421
-3.978,0.4835717293676135,-0.3581957480853793
-3.9775,0.4515612047945656,-0.3052125560595421
-3.977,0.6436243522328531,-0.4217755785163839
-3.9765,0.857027849386506,-0.4959520473525559
-3.976,0.7823366253827275,-0.2416327256285375
-3.9755,0.6116138276598051,0.09745970333682032
-3.975,0.4622313796522482,0.383568940276341
-3.9745,0.291508581929326,0.457745409112513
-3.974,0.02475421048725994,0.002089957690313421
-3.9735,-0.3700422592469978,-0.6231117082145651
-3.973,-1.010252750707956,-1.121153713257435
-3.9725,-1.533091318734406,-1.407262950196955
-3.972,-1.415719395299897,-1.142346990067769
-3.9715,-0.8715404775580819,-0.4959520473525559
-3.971,-0.3380317346739499,0.07626642652648545
-3.9705,0.04609456020262521,0.4365521323021782
-3.97,0.2594980573562781,0.5743084315693548
-3.9695,0.3448594562177392,0.5637117931641874
-3.969,0.3661998059331045,0.457745409112513
-3.9685,0.3555296310754218,0.309392471440169
-3.968,0.3341892813600565,0.1716361721729923
-3.9675,0.3128489316446912,0.07626642652648545
-3.967,0.3128489316446912,0.01268659609548085
-3.9665,0.3235191065023739,-0.02969995752518888
-3.966,0.5155822539406614,0.09745970333682032
-3.9655,0.974399772821015,0.5319218779486851
-3.965,0.5262524287983441,0.2458126410091644
-3.9645,-0.2846808603855366,-0.570128516188728
-3.964,-0.6474668055467465,-0.9304142219644207
-3.9635,-0.3807124341046804,-0.7396747306714069
-3.963,-0.02859666380115328,-0.4959520473525559
-3.9625,0.2274875327832301,-0.3475991096802118
-3.962,0.3875401556484697,-0.2840192792492073
-3.9615,0.4729015545099309,-0.2628260024388724
-3.961,0.4622313796522482,-0.1568596183871981
-3.9605,0.4835717293676135,-0.01910331912002144
-3.96,0.5369226036560266,0.06566978812131802
-3.9595,0.4942419042252961,0.1822328105781598
-3.959,0.4195506802215176,0.2987958330350016
-3.9585,0.3555296310754218,0.383568940276341
-3.958,0.2701682322139607,0.3941655786815084
-3.9575,-0.2313299860971235,-0.08268314955102604
-3.957,-0.9569018764195432,-0.8138511995075789
-3.9565,-1.565101843307454,-1.38606967338662
-3.956,-1.938557963326346,-1.47084278062796
-3.9555,-2.130621110764634,-1.492036057438295
-3.955,-1.51175096901904,-1.089363798041932
-3.9545,-0.7755089038389382,-0.5171453241628908
-3.954,-0.1993194615240755,-0.05089323433552374
-3.9535,0.1527963087794516,0.2246193641988295
-3.953,0.3235191065023739,0.3305857482505039
-3.9525,0.3768699807907871,0.3199891098453364
-3.952,0.3768699807907871,0.2564092794143318
-3.9515,0.3448594562177392,0.1822328105781598
-3.951,0.3235191065023739,0.1292496185523226
-3.9505,0.3128489316446912,0.09745970333682032
-3.95,0.3128489316446912,0.1080563417419877
-3.9495,0.2168173579255475,0.3411823866556712
-3.949,-0.391382608962363,0.8922075837243778
-3.9485,-1.148965023857831,1.37965295036208
-3.948,-1.629122892453549,1.040560521396722
-3.9475,-1.341028171296118,0.6378882620003594
-3.947,-0.6688071552621118,0.2776025562246667
-3.9465,-0.06060718837420119,0.03387987290581572
-3.946,0.3128489316446912,-0.1356663415768632
-3.9455,0.4835717293676135,-0.2098428104130352
-3.945,0.5262524287983441,-0.1674562567923655
-3.9445,0.4942419042252961,-0.08268314955102604
-3.944,0.4515612047945656,0.002089957690313421
-3.9435,0.408880505363835,-0.08268314955102604
-3.943,0.3555296310754218,0.02328323450064829
-3.9425,0.3235191065023739,0.2670059178194992
-3.942,0.3021787567870086,0.5107286011383502
-3.9415,0.291508581929326,0.701468092431364
-3.941,0.1101156093487211,0.5637117931641874
-3.9405,0.1101156093487211,0.002089957690313421
-3.94,-0.03926683865883591,-0.5913217929990628
-3.9395,-0.658136980404429,-1.01518732920576
-3.939,-1.26633694729234,-1.216523458903942
-3.9385,-1.244996597576974,-0.8880276683437509
-3.938,-0.7861790786966207,-0.2628260024388724
-3.9375,-0.3060212101009019,0.2564092794143318
-3.937,0.04609456020262521,0.5425185163538525
-3.9365,0.2488278824985954,0.6166949851900245
-3.936,0.3341892813600565,0.5425185163538525
-3.9355,0.3555296310754218,0.383568940276341
-3.935,0.3448594562177392,0.2034260873884947
-3.9345,0.3235191065023739,0.03387987290581572
-3.934,0.3341892813600565,0.01268659609548085
-3.9335,0.3341892813600565,-0.02969995752518888
-3.933,0.3661998059331045,0.01268659609548085
-3.9325,0.4195506802215176,0.4153588554918433
-3.932,0.8143471499557753,0.9345941373450475
-3.9315,0.4195506802215176,0.6590815388106942
-3.931,0.00341386077189465,-0.02969995752518888
-3.9305,0.07810508477567314,-0.4111789401112165
-3.93,0.2701682322139607,-0.4853554089473885
-3.9295,0.4195506802215176,-0.3899856633008816
-3.929,0.4729015545099309,-0.2734226408440398
-3.9285,0.5049120790829789,-0.2310360872233701
-3.928,0.4942419042252961,-0.2310360872233701
-3.9275,0.4622313796522482,-0.1780528951975329
-3.927,0.3661998059331045,-0.1992461720078678
-3.9265,0.2808384070716433,-0.09327978795619347
-3.926,0.2488278824985954,0.1292496185523226
-3.9255,0.2594980573562781,0.3729723018711736
-3.925,0.2701682322139607,0.5743084315693548
-3.9245,0.2381577076409128,0.6484849004055269
-3.924,0.2808384070716433,0.309392471440169
-3.9235,0.3661998059331045,-0.2628260024388724
-3.923,-0.2099896363817582,-0.8032545611024114
-3.9225,-0.9675720512772257,-1.174136905283272
-3.922,-1.437059745015262,-1.216523458903942
-3.9215,-1.159635198715513,-0.6972881770507372
-3.921,-0.6474668055467465,-0.06148987274069118
-3.9205,-0.1779791118087102,0.383568940276341
-3.92,0.1314559590640864,0.5955017083796896
-3.9195,0.2808384070716433,0.6166949851900245
-3.919,0.3448594562177392,0.5213252395435176
-3.9185,0.3448594562177392,0.3517790250608387
-3.918,0.3341892813600565,0.1716361721729923
-3.9175,0.3128489316446912,0.02328323450064829
-3.917,0.3128489316446912,-0.07208651114585861
-3.9165,0.3235191065023739,-0.1144730647665284
-3.916,0.2381577076409128,-0.2310360872233701
-3.9155,-0.007256314085787988,-0.5171453241628908
-3.915,-0.5621054066852853,-1.05757388282643
-3.9145,-1.127624674142465,-1.598002441489969
-3.914,-1.052933450138687,-1.354279758171118
-3.9135,-0.5087545323968721,-0.718481453861072
-3.913,-0.007256314085787988,-0.2840192792492073
-3.9125,0.3128489316446912,-0.06148987274069118
-3.912,0.4729015545099309,0.03387987290581572
-3.9115,0.5155822539406614,0.002089957690313421
-3.911,0.5049120790829789,-0.06148987274069118
-3.9105,0.5155822539406614,-0.07208651114585861
-3.91,0.6329541773751706,-0.1038764263613609
-3.9095,0.5902734779444399,-0.07208651114585861
-3.909,0.4835717293676135,0.002089957690313421
-3.9085,0.3982103305061524,0.09745970333682032
-3.908,0.3128489316446912,0.1504428953626575
-3.9075,-0.1352984123779797,-0.2310360872233701
-3.907,-0.9142211769888124,-0.8986243067489184
-3.9065,-1.543761493592088,-1.460246142222792
-3.906,-1.885207089037933,-1.788741932782983
-3.9055,-1.83185621474952,-1.714565463946811
-3.905,-1.180975548430879,-1.025783967610927
-3.9045,-0.5300948821122373,-0.2946159176543747
-3.904,-0.04993701351651855,0.2564092794143318
-3.9035,0.2168173579255475,0.55311515475902
-3.903,0.3448594562177392,0.6696781772158616
-3.9025,0.3768699807907871,0.6590815388106942
-3.902,0.3555296310754218,0.5849050699745222
-3.9015,0.3341892813600565,0.4895353243280153
-3.901,0.3128489316446912,0.4259554938970107
-3.9005,0.3021787567870086,0.3517790250608387
-3.9,0.3128489316446912,0.2987958330350016
-3.8995,0.3128489316446912,0.3941655786815084
-3.899,-0.02859666380115328,0.6696781772158616
-3.8985,-0.5621054066852853,0.3729723018711736
-3.898,-0.8288597781273515,-0.4217755785163839
-3.8975,-0.7648387289812555,-0.7608680074817418
-3.897,-0.3593720843893152,-0.6654982618352349
-3.8965,0.02475421048725994,-0.5277419625680583
-3.896,0.2808384070716433,-0.4111789401112165
-3.8955,0.4195506802215176,-0.4111789401112165
-3.895,0.4729015545099309,-0.400582301706049
-3.8945,0.4622313796522482,-0.3475991096802118
-3.894,0.4195506802215176,-0.2416327256285375
-3.8935,0.4515612047945656,-0.1356663415768632
-3.893,0.4729015545099309,-0.07208651114585861
-3.8925,0.4302208550792003,0.03387987290581572
-3.892,0.3661998059331045,0.1610395337678249
-3.8915,0.3235191065023739,0.2670059178194992
-3.891,0.1207857842064037,0.1080563417419877
-3.8905,-0.5087545323968721,-0.5065486857577234
-3.89,-1.180975548430879,-1.121153713257435
-3.8895,-1.714484291315011,-1.523825972653797
-3.889,-2.023919362187807,-1.640388995110639
-3.8885,-1.522421143876723,-1.163540266878104
-3.888,-0.8181896032696687,-0.4429688553267188
