Class_10_Using_Wats_App/Class_10_WatsApp_UZ_6.csv

#Digilent WaveForms Oscilloscope Acquisition
#Device Name: EExplorer
#Serial Number: SN:210151A2B84A
#Date Time: 2020-12-07 12:17:53.537
#Sample rate: 2000Hz
#Samples: 16384
#Trigger: Source: Channel 1 Type: Edge Condition: Rising Level: 0 V Hyst.: Auto HoldOff: 0 s
#Channel 1: Range: 1 V/div Offset: 0 V Attenuation: 1 X
#Channel 2: Range: 1 V/div Offset: 0 V Attenuation: 1 X
#Power Supplies: ON
#Fixed Supply: ON
#Voltage: 3.3 V Readback: 3.322 V
#Positive Supply: ON
#Voltage: 3.7 V Readback: 3.673 V
#Current: 40 mA Readback: 25 mA
#Negative Supply: ON
#Voltage: -3.7 V Readback: -4.076 V
#Current: -40 mA Readback: -13 mA
#Reference 1: ON
#Voltage: 0 V
#Reference 2: ON
#Voltage: 0 V

Time (s),Channel 1 (V),Channel 2 (V)
-4.096,0.05676473506030786,0.1292496185523226
-4.0955,0.1527963087793643,0.2670059178193739
-4.095,0.04609456020256699,0.1186529801470299
-4.0945,-0.01792648894347063,-0.01910331912002144
-4.094,0.01408403562954818,-0.05089323433549483
-4.0935,0.05676473506034668,-0.04029659593033703
-4.093,0.09944543449103843,-0.01910331912002144
-4.0925,0.09944543449103843,-0.00850668071486365
-4.092,-0.3273615598170824,-0.1568596183874872
-4.0915,-1.223656247861609,-0.474758770542221
-4.091,-1.863866739322568,-0.9410108603695881
-4.0905,-2.258663209056602,-1.046977244420867
-4.09,-2.013249187330125,-0.6125150698093976
-4.0895,-1.287677297007705,-0.2204394488182027
-4.089,-0.5941159312589641,0.05507314971589999
-4.0885,-0.1139580626626144,0.2140227257936621
-4.088,0.1527963087794516,0.2987958330350016
-4.0875,0.259498057356181,0.3517790250607905
-4.087,0.2701682322139413,0.3729723018712025
-4.0865,0.2488278824985954,0.4047622170866759
-4.086,0.2274875327832495,0.4259554938969914
-4.0855,0.2168173579255475,0.4577454091125227
-4.085,0.2168173579255475,0.4683420475176805
-4.0845,0.2168173579255475,0.4895353243279961
-4.084,0.3768699807913985,0.4789386859227226
-4.0835,1.049090996824793,0.3411823866556712
-4.083,1.646620788855021,-0.1886495336027004
-4.0825,1.806673411720096,-0.8456411147229849
-4.082,1.625280439139656,-0.7396747306714069
-4.0815,1.305175193409177,-0.474758770542221
-4.081,0.963729597963643,-0.1250697031720138
-4.0805,0.5796033030867573,-0.04029659593035631
-4.08,-0.2846808603855366,-0.6019184314042303
-4.0795,-0.4233931335352848,-0.5701285161887568
-4.079,-0.3700422592469493,-0.4535654937318284
-4.0785,-0.3166913849585846,-0.3899856633008816
-4.078,-0.2099896363818552,-0.3581957480854082
-4.0775,-0.0712773632318159,-0.2416327256284604
-4.077,0.00341386077189465,-0.1568596183871981
-4.0765,0.05676473506025934,-0.07208651114593571
-4.076,0.09944543449081523,0.02328323450077358
-4.0755,-0.1459685872356623,0.1610395337678249
-4.075,-0.9462317015618604,0.4047622170866759
-4.0745,-1.693143941600053,0.3517790250606363
-4.074,-2.141291285622316,0.1292496185523226
-4.0735,-2.386705307349017,0.5107286011383502
-4.073,-1.917217613611408,0.6802748156208749
-4.0725,-1.138294849000148,0.55311515475902
-4.072,-0.4660738329661415,0.3729723018711736
-4.0715,-0.02859666380155118,0.2670059178195956
-4.071,0.1954770082102501,0.2352160026040162
-4.0705,0.2701682322139607,0.2564092794143318
-4.07,0.2808384070716336,0.3199891098452786
-4.0695,0.248827882498576,0.4047622170867433
-4.069,0.2274875327832301,0.4789386859228479
-4.0685,0.2168173579255475,0.55311515475902
-4.068,0.216817357925596,0.616694985190063
-4.0675,0.2701682322139607,0.6590815388106942
-4.067,0.7823366253827275,0.6060983467848571
-4.0665,1.593269914567054,0.192829448982643
-4.066,2.08409795802001,-0.5595318777835605
-4.0655,2.041417258589279,-0.7396747306714069
-4.065,1.721312012859091,-0.421775578516673
-4.0645,1.251824319120764,-0.08268314955102604
-4.064,0.79300680024041,0.1610395337678249
-4.0635,0.472901554510222,0.2352160026039295
-4.063,0.2808384070715366,0.2246193641987813
-4.0625,0.1634664836371343,0.1716361721729923
-4.062,-0.4980843575385879,-0.485355408946791
-4.0615,-0.6261264558312357,-0.6337083466196168
-4.061,-0.4660738329661415,-0.5065486857577234
-4.0605,-0.3273615598162672,-0.400582301706049
-4.06,-0.0819475380894015,-0.199246172007704
-4.0595,0.09944543449103843,-0.01910331912002144
-4.059,0.03542438534494258,0.02328323450064829
-4.0585,-0.6367966306884523,0.1716361721728574
-4.058,-1.661133417026597,0.2458126410091644
-4.0575,-2.247993034199143,0.01268659609548085
-4.057,-2.568098279929331,0.2670059178192679
-4.0565,-2.258663209056825,0.5849050699745222
-4.056,-1.426389570157579,0.5319218779486851
-4.0555,-0.6474668055474549,0.3623756634661603
-4.055,-0.1246282375200447,0.2246193641987813
-4.0545,0.1527963087794516,0.1716361721729923
-4.054,0.259498057356181,0.1822328105781501
-4.0535,0.2808384070716336,0.2458126410092415
-4.053,0.2701682322139607,0.3305857482505039
-4.0525,0.2381577076409128,0.4259554938970107
-4.052,0.2168173579255475,0.5107286011384177
-4.0515,0.2168173579255475,0.5849050699745222
-4.051,0.2274875327832301,0.6378882620003594
-4.0505,0.5689331282287641,0.6484849004055172
-4.05,1.347855892839907,0.4153588554918433
-4.0495,2.052087433446962,-0.2734226408440398
-4.049,2.297501455173439,-0.7820612842916139
-4.0485,1.924045335154304,-0.6125150698090892
-4.048,1.411876941986003,-0.2734226408440398
-4.0475,0.9317190733907212,-0.02969995752541055
-4.047,0.5796033030865438,0.1292496185524094
-4.0465,0.3448594562177392,0.2246193641988295
-4.046,0.206147183067991,0.2670059178194607
-4.0455,0.1421261339216622,0.267005917819345
-4.045,0.02475421048725994,0.09745970333682032
-4.0445,-0.07127736323188383,-0.07208651114585861
-4.044,-0.07127736323238847,-0.1356663415774125
-4.0435,-0.6261264558313813,-0.7396747306714069
-4.043,-0.690147504977477,-0.8138511995075789
-4.0425,-0.5407650569700559,-0.654901623430212
-4.042,-0.807519428411986,-0.4535654937318862
-4.0415,-1.490410619303675,-0.1780528951975329
-4.041,-2.247993034198454,-0.3052125560594264
-4.0405,-2.781501777083265,-0.2628260024383905
-4.04,-2.770831602225592,0.2670059178194992
-4.0395,-1.959898313042449,0.383568940276235
-4.039,-1.031593100422701,0.2881991946297185
-4.0385,-0.3487019095316325,0.1610395337678249
-4.038,0.06743490991761203,0.08686306493172034
-4.0375,0.2594980573563266,0.09745970333685887
-4.037,0.3128489316446912,0.13984625695749
-4.0365,0.291508581929326,0.2246193641988295
-4.036,0.248827882498576,0.3199891098454232
-4.0355,0.2274875327832301,0.4153588554918433
-4.035,0.2168173579255475,0.5213252395435176
-4.0345,0.2274875327832204,0.60609834678478
-4.034,0.3982103305061524,0.6696781772158616
-4.0335,1.091771696255524,0.5743084315693548
-4.033,1.582599739708479,0.09745970333725401
-4.0325,1.657290963712694,-0.707884815456319
-4.032,1.646620788855021,-1.163540266878104
-4.0315,1.443887466559235,-0.8350444763182125
-4.031,1.070431346539839,-0.3052125560590602
-4.0305,0.7183155762366316,0.2246193641988295
-4.03,0.4515612047948082,0.563711793163879
-4.0295,0.2915085819292483,0.6696781772158135
-4.029,0.2061471830678648,0.6166949851900245
-4.0285,0.1101156093487211,0.4259554938970107
-4.028,-0.01792648894349003,0.1080563417418432
-4.0275,-0.03926683865883591,-0.05089323433552374
-4.027,0.00341386077189465,-0.1356663415768632
-4.0265,0.05676473506025934,-0.1886495336026522
-4.026,0.08877525963335578,-0.2310360872233701
-4.0255,-0.156638762093345,-0.2946159176543747
-4.025,-1.490410619302462,-0.8774310299380534
-4.0245,-2.365364957634205,-1.015187329206001
-4.024,-2.973564924521563,-1.280103289334946
-4.0235,-3.058926323382946,-0.9939940523956855
-4.023,-2.151961460479058,-0.5277419625677788
-4.0225,-1.116954499284783,-0.2204394488182027
-4.022,-0.4127229586783688,-0.1144730647666247
-4.0215,0.01408403562976168,-0.05089323433545628
-4.021,0.2168173579255475,0.02328323450064829
-4.0205,0.2808384070716433,0.1186529801471552
-4.02,0.2808384070716239,0.2246193641989259
-4.0195,0.2594980573562781,0.3305857482505039
-4.019,0.2488278824985954,0.4471487707073456
-4.0185,0.2381577076409225,0.5531151547589236
-4.018,0.2274875327832301,0.627291623595192
-4.0175,0.2594980573562781,0.6908714540261965
-4.017,0.6222840025171579,0.6590815388107231
-4.0165,1.358526067698046,0.2776025562239535
-4.016,1.860024286008674,-0.5065486857577234
-4.0155,1.977396209443076,-0.7184814538608792
-4.015,1.774662887146835,-0.3581957480850805
-4.0145,1.35852606769759,-0.02969995752518888
-4.014,0.9210488985329996,0.1716361721728092
-4.0135,0.5582629533711786,0.2987958330350594
-4.013,0.3235191065023739,0.3623756634660061
-4.0125,0.2061471830678648,0.3623756634660061
-4.012,0.1314559590639505,0.2987958330347606
-4.0115,-0.01792648894347063,0.03387987290581572
-4.011,-0.06060718837420119,-0.1144730647665284
-4.0105,-0.01792648894350944,-0.1356663415768439
-4.01,0.03542438534494258,-0.1038764263613609
-4.0095,0.08877525963335578,-0.08268314955102604
-4.009,0.0354243853449911,-0.05089323433555266
-4.0085,-0.508754532397532,0.06566978812131802
-4.008,-1.234326422719292,0.06566978812131802
-4.0075,-1.885207089037341,-0.3158091944643626
-4.007,-2.728150902794522,-1.110557074852171
-4.0065,-2.354694782775969,-1.004590690800593
-4.006,-1.533091318734406,-0.6866915386455698
-4.0055,-0.7968492535537504,-0.4111789401109081
-4.005,-0.1886492866663929,-0.07208651114585861
-4.0045,0.1634664836371343,0.1716361721729923
-4.004,0.2488278824986051,0.2458126410092222
-4.0035,0.2594980573562781,0.309392471440169
-4.003,0.2381577076409128,0.3623756634660061
-4.0025,0.206147183067894,0.4153588554917951
-4.002,0.2061471830678648,0.457745409112513
-4.0015,0.2168173579255475,0.5107286011383502
-4.001,0.2488278824985663,0.5531151547589814
-4.0005,0.5689331282297734,0.5531151547587887
-4,1.337185717982225,0.2987958330350016
-3.9995,1.849354111150991,-0.4429688553267188
-3.999,1.966726034585501,-0.9833974139902578
-3.9985,1.828013761435626,-0.6654982618352349
-3.998,1.465227816274416,-0.2416327256285375
-3.9975,1.038420821967111,0.03387987290581572
-3.997,0.6649647019482183,0.1928294489833272
-3.9965,0.3982103305061524,0.2352160026039969
-3.996,0.2274875327832301,0.2352160026039969
-3.9955,0.1527963087794516,0.2246193641988295
-3.995,0.04609456020262521,0.07626642652648545
-3.9945,-0.04993701351651855,-0.1250697031716958
-3.994,-0.01792648894347063,-0.1462629799820306
-3.9935,0.03542438534494258,-0.09327978795619347
-3.993,0.07810508477567314,-0.04029659593035631
-3.9925,0.09944543449103843,0.01268659609548085
-3.992,-0.1779791118087102,0.1610395337678249
-3.9915,-0.9035510021311299,0.457745409112513
-3.991,-1.650463242168915,0.4789386859228479
-3.9905,-2.226652684483777,0.5637117931641874
-3.99,-2.151961460479999,0.7968378380778709
-3.9895,-1.725154466172693,0.2670059178194992
-3.989,-1.46907026958831,-0.4429688553267188
-3.9885,-0.8181896032696687,-0.4959520473525559
-3.988,-0.4020527838200457,-0.4535654937318862
-3.9875,-0.07127736323188383,-0.252229364033705
-3.987,0.1848068333524996,0.04447651131098315
-3.9865,0.2488278824985954,0.2140227257936621
-3.986,0.2168173579255475,0.3199891098453364
-3.9855,0.1954770082101822,0.4259554938970107
-3.985,0.1954770082101822,0.5107286011383502
-3.9845,0.2061471830678648,0.5955017083796896
-3.984,0.3661998059331045,0.6590815388106942
-3.9835,1.027750647109428,0.5425185163538525
-3.983,1.678631313428069,-0.02969995752518888
-3.9825,1.998736559158548,-0.8562377531282487
-3.982,1.934715510012453,-0.8138511995075789
-3.9815,1.593269914566608,-0.3793890248957141
-3.981,1.15579274540162,0.002089957690313421
-3.9805,0.79300680024041,0.2881991946298341
-3.98,0.4942419042252961,0.4365521323021782
-3.9795,0.291508581929326,0.4365521323021782
-3.979,0.1741366584948169,0.383568940276341
-3.9785,0.08877525963335578,0.2670059178194992
-3.978,-0.03926683865883591,-0.01910331912002144
-3.9775,-0.03926683865883591,-0.1356663415768632
-3.977,0.00341386077189465,-0.1356663415768632
-3.9765,0.04609456020262521,-0.1250697031716958
-3.976,0.07810508477567314,-0.1038764263613609
-3.9755,-0.1352984123779797,-0.04029659593035631
-3.975,-0.7648387289812555,0.1822328105781598
-3.9745,-1.51175096901904,0.2034260873884947
-3.974,-2.087940411333903,0.06566978812131802
-3.9735,-2.226652684483777,0.3305857482505039
-3.973,-1.522421143876723,0.3411823866556712
-3.9725,-0.7968492535543035,0.2034260873884947
-3.972,-0.2633405106701714,0.07626642652648545
-3.9715,-0.07127736323188383,-0.1250697031716958
-3.971,-0.5300948821122373,-0.718481453861072
-3.9705,-0.4447334832507763,-0.6231117082145651
-3.97,-0.3060212101009019,-0.3899856633008816
-3.9695,-0.1673089369510276,-0.1144730647665284
-3.969,0.05676473506030786,0.2458126410091644
-3.9685,0.1848068333524996,0.4789386859228479
-3.968,0.1954770082101822,0.5743084315693548
-3.9675,0.2594980573562781,0.6378882620003594
-3.967,0.7609962756673623,0.6484849004055269
-3.9665,1.539919040278195,0.3199891098453364
-3.966,2.158789182023788,-0.5171453241628908
-3.9655,2.372192679177441,-0.7714646458869092
-3.965,2.116108482593058,-0.4959520473525559
-3.9645,1.603940089424291,-0.1886495336027004
-3.964,1.070431346540159,0.06566978812131802
-3.9635,0.6542945270905358,0.2881991946298341
-3.963,0.3555296310754218,0.383568940276341
-3.9625,0.1848068333524996,0.383568940276341
-3.962,0.1207857842064037,0.3305857482505039
-3.9615,-0.03926683865883591,0.04447651131098315
-3.961,-0.1032878878049318,-0.1462629799820306
-3.9605,-0.06060718837420119,-0.1674562567923655
-3.96,0.01408403562957729,-0.1250697031716958
-3.9595,0.05676473506030786,-0.08268314955102604
-3.959,0.00341386077189465,-0.05089323433552374
-3.9585,-0.5407650569699201,0.01268659609548085
-3.958,-1.383708870726849,0.02328323450064829
-3.9575,-2.151961460479999,-0.2628260024388724
-3.957,-2.653459678791083,-0.1674562567923655
-3.9565,-2.03458953704549,0.06566978812131802
-3.956,-1.159635198715513,0.1080563417419877
-3.9555,-0.4767440078238243,0.09745970333682032
-3.955,-0.03926683865883591,0.07626642652648545
-3.9545,0.1848068333524996,0.09745970333682032
-3.954,0.2594980573562781,0.13984625695749
-3.9535,0.2488278824985954,0.1928294489833272
-3.953,-0.3807124341046804,-0.3370024712750445
-3.9525,-0.5514352318276028,-0.400582301706049
-3.952,-0.423393133535411,-0.1886495336027004
-3.9515,-0.2846808603855366,0.02328323450064829
-3.951,-0.02859666380115328,0.3199891098453364
-3.9505,0.5369226036560266,0.5743084315693548
-3.95,1.35852606769759,0.5319218779486851
-3.9495,1.76399271228953,-0.09327978795619347
-3.949,1.774662887147213,-0.792657922697244
-3.9485,1.646620788855021,-0.6866915386455698
-3.948,1.315845368266859,-0.326405832869877
-3.9475,0.9850699476786977,0.04447651131098315
-3.947,0.6863050516635838,0.2352160026039969
-3.9465,0.4622313796522482,0.3411823866556712
-3.946,0.291508581929326,0.383568940276341
-3.9455,0.1848068333524996,0.383568940276341
-3.945,0.07810508477567314,0.2352160026039969
-3.9445,-0.007256314085787988,0.002089957690313421
-3.944,0.00341386077189465,-0.07208651114585861
-3.9435,0.04609456020262521,-0.1038764263613609
-3.943,0.07810508477567314,-0.1144730647665284
-3.9425,0.08877525963335578,-0.1250697031716958
-3.942,-0.2313299860971235,-0.04029659593035631
-3.9415,-1.010252750707956,0.1186529801471552
-3.941,-1.714484291315011,-0.05089323433552374
-3.9405,-2.280003558772191,-0.2628260024388724
-3.94,-2.215982509626095,-0.01910331912002144
-3.9395,-1.458400094730627,0.04447651131098315
-3.939,-0.7328282044082075,0.02328323450064829
-3.9385,-0.2099896363817582,-0.008506680714854012
-3.938,0.09944543449103843,-0.008506680714854012
-3.9375,0.2274875327832301,0.04447651131098315
-3.937,0.2594980573562781,0.1186529801471552
-3.9365,0.2488278824985954,0.2140227257936621
-3.936,0.2168173579255475,0.309392471440169
-3.9355,0.1954770082101822,0.4047622170866759
-3.935,0.1954770082101822,0.5001319627331828
-3.9345,-0.02859666380115328,0.3517790250608387
-3.934,-0.4874141826815069,-0.1886495336027004
-3.9335,0.3021787567870086,-0.1144730647665284
-3.933,1.049090996824793,-0.4217755785163839
-3.9325,1.401206767128321,-1.142346990067769
-3.932,1.7213120128588,-1.449649503817625
-3.9315,1.603940089424291,-0.9092209451540858
-3.931,1.15579274540162,-0.2946159176543747
-3.9305,0.7289857510943143,0.2140227257936621
-3.93,0.408880505363835,0.5107286011383502
-3.9295,0.2168173579255475,0.5743084315693548
-3.929,0.1314559590640864,0.5319218779486851
-3.9285,0.08877525963335578,0.4047622170866759
-3.928,-0.01792648894347063,0.07626642652648545
-3.9275,-0.01792648894347063,-0.09327978795619347
-3.927,0.01408403562957729,-0.1780528951975329
-3.9265,0.0674349099179905,-0.2204394488182027
-3.926,0.09944543449103843,-0.2416327256285375
-3.9255,-0.1139580626626144,-0.2946159176543747
-3.925,-0.8502001278427167,-0.4111789401112165
-3.9245,-1.693143941599645,-0.7290780922662394
-3.924,-2.226652684483777,-1.131750351662602
-3.9235,-2.429386006779747,-0.6866915386455698
-3.923,-1.799845690176472,-0.2946159176543747
-3.9225,-1.010252750707956,-0.1568596183871981
-3.922,-0.3807124341046804,-0.1038764263613609
-3.9215,0.01408403562957729,-0.07208651114585861
-3.921,0.1954770082101822,-0.01910331912002144
-3.9205,0.2594980573562781,0.05507314971615059
-3.92,0.2594980573562781,0.1610395337678249
-3.9195,0.2274875327832301,0.2776025562246667
-3.919,0.2061471830678648,0.4047622170866759
-3.9185,0.1954770082101822,0.5213252395435176
-3.918,0.2061471830678648,0.627291623595192
-3.9175,0.2488278824985954,0.7226613692416989
-3.917,0.6969752265212663,0.775644561267536
-3.9165,1.369196242555273,0.55311515475902
-3.916,1.497238340847464,-0.3158091944647096
-3.9155,1.017080472251745,-1.142346990067769
-3.915,0.942389248247967,-0.8032545611024114
-3.9145,0.7396559259519968,-0.3687923864905467
-3.914,0.5689331282290746,0.03387987290581572
-3.9135,0.4942419042252961,0.383568940276341
-3.913,0.3341892813600565,0.4683420475176805
-3.9125,0.2168173579255475,0.4259554938970107
-3.912,0.142126133921769,0.3411823866556712
-3.9115,0.00341386077189465,0.08686306493165288
-3.911,-0.03926683865883591,-0.08268314955102604
-3.9105,-0.007256314085787988,-0.1356663415768632
-3.91,0.05676473506030786,-0.1250697031716958
-3.9095,0.1101156093487211,-0.1250697031716958
-3.909,0.00341386077189465,-0.1038764263613609
-3.9085,-0.6154562809736985,0.05507314971615059
-3.908,-1.415719395299897,0.13984625695749
-3.9075,-1.927887788468663,-0.1780528951975329
-3.907,-2.247993034199143,-0.4111789401112165
-3.9065,-1.863866739322568,-0.2946159176543747
-3.906,-1.127624674142465,-0.1780528951975329
-3.9055,-0.4874141826815069,-0.09327978795619347
-3.905,-0.06060718837420119,-0.008506680714854012
-3.9045,0.1634664836371343,0.06566978812131802
-3.904,0.2488278824985954,0.1504428953626575
-3.9035,0.2594980573562781,0.2246193641988295
-3.903,0.2381577076409128,0.309392471440169
-3.9025,0.2061471830678648,0.3941655786815084
-3.902,0.1954770082101822,0.4683420475176805
-3.9015,0.1954770082101822,0.5319218779486851
-3.901,0.2061471830678648,0.5849050699745222
-3.9005,0.4729015545099309,0.6166949851900245
-3.9,1.145122570543937,0.5213252395435176
-3.8995,1.529248865420512,-0.008506680714854012
-3.899,1.56125938999356,-0.5489352393783931
-3.8985,1.422547116843686,-0.3581957480853793
-3.898,1.038420821967111,-0.2310360872233701
-3.8975,0.08877525963335578,-0.6019184314042303
-3.897,-0.1459685872356623,-0.4111789401112165
-3.8965,-0.1993194615240755,-0.1780528951975329
-3.896,-0.156638762093345,-0.01910331912002144
-3.8955,0.01408403562957729,0.1822328105781598
-3.895,0.0674349099179905,0.1504428953626575
-3.8945,0.00341386077189465,-0.05089323433552374
-3.894,0.01408403562957729,-0.1144730647665284
-3.8935,0.04609456020262521,-0.1144730647665284
-3.893,0.07810508477567314,-0.08268314955102604
-3.8925,0.08877525963335578,-0.06148987274069118
-3.892,-0.2099896363817582,0.04447651131098315
-3.8915,-1.095614149569417,0.1716361721729923
-3.891,-1.981238662757077,-0.01910331912002144
-3.8905,-2.514747405641209,-0.400582301706049
-3.89,-2.472066706210478,-0.2310360872233701
-3.8895,-1.703814116457328,-0.07208651114585861
-3.889,-0.8822106524157645,-0.008506680714854012
-3.8885,-0.274010685527854,0.04447651131098315
-3.888,0.07810508477567314,0.08686306493165288
