Class_10_Using_Wats_App/Class_10_WatsApp_Turki_12.csv

#Digilent WaveForms Oscilloscope Acquisition
#Device Name: EExplorer
#Serial Number: SN:210151A2B84A
#Date Time: 2021-02-07 11:01:28.192
#Sample rate: 2000Hz
#Samples: 16384
#Trigger: Source: Channel 1 Type: Edge Condition: Rising Level: 0 V Hyst.: Auto HoldOff: 0 s
#Channel 1: Range: 1 V/div Offset: 0 V Attenuation: 1 X
#Channel 2: Range: 1 V/div Offset: 0 V Attenuation: 1 X
#Power Supplies: ON
#Fixed Supply: ON
#Voltage: 3.3 V Readback: 3.317 V
#Positive Supply: ON
#Voltage: 3.7 V Readback: 3.717 V
#Current: 40 mA Readback: 25 mA
#Negative Supply: ON
#Voltage: -3.7 V Readback: -3.348 V
#Current: -40 mA Readback: -4 mA
#Reference 1: ON
#Voltage: 0 V
#Reference 2: ON
#Voltage: 0 V

Time (s),Channel 1 (V),Channel 2 (V)
-4.096,0.1207857842064037,0.5637117931641874
-4.0955,0.1101156093487308,0.5319218779487139
-4.095,0.1101156093485464,0.4895353243277744
-4.0945,-0.08194753808956648,0.2246193641988295
-4.094,-0.6154562809732133,-0.4853554089467428
-4.0935,-0.9248913518463593,-1.142346990067789
-4.093,-0.7755089038389382,-1.163540266878104
-4.0925,-0.295351035243656,-0.7184814538614768
-4.092,0.1101156093489152,-0.3052125560592723
-4.0915,0.3235191065023739,-0.008506680714854012
-4.091,0.3768699807907871,0.13984625695749
-4.0905,0.3341892813599983,0.1928294489833368
-4.09,0.2701682322139607,0.2034260873884947
-4.0895,0.2274875327832301,0.1822328105781598
-4.089,0.3235191065022865,0.1928294489833176
-4.0885,0.3875401556484697,0.1716361721729923
-4.088,0.3448594562177392,0.1504428953626575
-4.0875,0.3021787567870474,0.1504428953626575
-4.087,0.2594980573562393,0.1716361721730116
-4.0865,0.2168173579255475,0.1928294489833272
-4.086,-0.09261771294696772,-0.1038764263610911
-4.0855,-0.6367966306896461,-0.7290780922667888
-4.085,-1.277007122150022,-1.333086481360783
-4.0845,-1.479740444445808,-1.460246142222677
-4.084,-1.095614149568971,-0.8986243067483305
-4.0835,-0.6047861061160158,-0.252229364033705
-4.083,-0.2099896363817582,0.2458126410091644
-4.0825,0.03542438534504933,0.563711793164332
-4.082,0.1527963087794516,0.7226613692416989
-4.0815,0.1848068333524996,0.775644561267536
-4.081,0.1848068333524996,0.775644561267536
-4.0805,0.1634664836371343,0.7438546460520338
-4.08,0.1527963087794516,0.6908714540261965
-4.0795,0.1314559590641058,0.6484849004055654
-4.079,0.1207857842064037,0.584905069974474
-4.0785,0.1207857842064037,0.5319218779486851
-4.078,0.02475421048734729,0.3517790250610026
-4.0775,-0.3166913849589048,-0.29461591765503
-4.077,-0.6688071552621118,-1.01518732920576
-4.0765,-0.9035510021309164,-1.54501924946365
-4.076,-0.7008176798347618,-1.396666311791287
-4.0755,-0.2633405106701714,-0.8456411147230812
-4.075,0.0674349099179905,-0.3475991096802118
-4.0745,0.2488278824986342,-0.02969995752508287
-4.074,0.291508581929326,0.08686306493165288
-4.0735,0.2808384070716433,0.06566978812131802
-4.073,0.2488278824986245,0.02328323450068684
-4.0725,0.3235191065023739,-0.07208651114585861
-4.072,0.4622313796522482,-0.1886495336027004
-4.0715,0.4302208550792295,-0.1356663415769114
-4.071,0.3448594562176615,-0.008506680714757636
-4.0705,0.2594980573562781,0.09745970333682032
-4.07,0.2061471830679134,0.1504428953626093
-4.0695,0.06743490991751498,-0.0826831495515561
-4.069,-0.4554036581084589,-0.6654982618352349
-4.0685,-0.8928808272734472,-1.269506650929778
-4.068,-1.138294849000022,-1.72516210235167
-4.0675,-0.9995825758502737,-1.38606967338662
-4.067,-0.6154562809736985,-0.7078848154559045
-4.0665,-0.2633405106699482,-0.1144730647661621
-4.066,-0.01792648894347063,0.2881991946298341
-4.0655,0.1207857842064037,0.5107286011383502
-4.065,0.1741366584947684,0.6060983467847704
-4.0645,0.1848068333524996,0.6166949851900245
-4.064,0.1741366584948169,0.6060983467848571
-4.0635,0.152796308779471,0.5637117931642259
-4.063,0.1421261339217593,0.5319218779486562
-4.0625,0.1314559590640864,0.5001319627331828
-4.062,0.1207857842064134,0.4577454091125516
-4.0615,0.09944543449071819,0.415358855491506
-4.061,-0.2526703358124887,0.04447651131098315
-4.0605,-0.5194247072545548,-0.5383386009732256
-4.06,-0.6047861061159382,-1.11055707485245
-4.0595,-0.5194247072545548,-1.311893204550448
-4.059,-0.1886492866663929,-0.9198175835592532
-4.0585,0.09944543449077639,-0.4111789401116791
-4.058,0.2488278824985954,-0.01910331912002144
-4.0575,0.291508581929326,0.1822328105781598
-4.057,0.2701682322139801,0.2352160026039488
-4.0565,0.2381577076409128,0.1928294489833272
-4.056,0.2274875327832301,0.1504428953626575
-4.0555,0.248827882498576,0.1610395337678153
-4.055,0.2488278824985857,0.1928294489833368
-4.0545,0.2381577076409128,0.2034260873884947
-4.054,0.2168173579255669,0.2140227257936524
-4.0535,0.1954770082100754,0.2246193641987138
-4.053,0.07810508477567314,0.09745970333682032
-4.0525,-0.3700422592469978,-0.400582301706049
-4.052,-0.7541685541237865,-0.8456411147233897
-4.0515,-0.9889124009925911,-1.184733543688439
-4.051,-0.807519428411986,-0.9198175835592532
-4.0505,-0.4660738329664521,-0.4111789401116791
-4.05,-0.156638762093345,0.03387987290581572
-4.0495,0.03542438534494258,0.3411823866556712
-4.049,0.131455959063999,0.510728601138196
-4.0485,0.1741366584948169,0.5743084315693645
-4.048,0.1741366584948169,0.5849050699745222
-4.0475,0.163466483637144,0.5637117931642067
-4.047,0.1527963087794419,0.5319218779486657
-4.0465,0.142126133921769,0.5107286011383502
-4.046,0.1314559590640961,0.4789386859228768
-4.0455,0.120785784206394,0.4471487707073167
-4.045,0.1101156093487211,0.4153588554918433
-4.0445,-0.09261771294724913,0.13984625695749
-4.044,-0.6794773301201242,-0.5277419625686365
-4.0435,-1.042263275281004,-1.163540266878104
-4.043,-0.8288597781273515,-1.121153713257435
-4.0425,-0.3380317346743963,-0.6337083466201758
-4.042,0.05676473506030786,-0.2204394488182027
-4.0415,0.2701682322139607,-0.008506680714854012
-4.041,0.3448594562176712,0.05507314971609276
-4.0405,0.3235191065023253,0.07626642652649508
-4.04,0.2701682322139607,0.08686306493165288
-4.0395,0.2274875327832689,0.06566978812133729
-4.039,0.3555296310754703,-0.01910331912000217
-4.0385,0.408880505363835,0.002089957690313421
-4.038,0.3768699807908162,0.09745970333673358
-4.0375,0.3341892813599983,0.1928294489834043
-4.037,0.2701682322139607,0.2776025562246667
-4.0365,0.2168173579255475,0.3517790250608387
-4.036,0.08877525963287056,0.6802748156209809
-4.0355,-0.4447334832507763,0.627291623595192
-4.035,-0.9035510021311299,-0.1144730647665284
-4.0345,-0.9889124009925135,-0.6549016234295759
-4.034,-0.7114878546928423,-0.5489352393783931
-4.0335,-0.3700422592469978,-0.1886495336027004
-4.033,-0.09261771294750143,0.1610395337675069
-4.0325,0.07810508477574107,0.4365521323023227
-4.032,0.1527963087794516,0.5955017083796896
-4.0315,0.1848068333524704,0.6908714540261098
-4.031,0.1741366584948072,0.7226613692417085
-4.0305,0.1634664836371343,0.7332580076468663
-4.03,0.1527963087794613,0.7226613692417085
-4.0295,0.1421261339217593,0.7014680924313351
-4.029,0.1314559590640864,0.6696781772158616
-4.0285,0.1207857842064037,0.6378882620003594
-4.028,0.06743490991779641,0.5001319627326528
-4.0275,-0.1459685872356623,-0.08268314955102604
-4.027,-0.3380317346739499,-0.7502713690765743
-4.0265,-0.4980843575390439,-1.30129656614478
-4.026,-0.2420001609548061,-1.227120097309109
-4.0255,0.07810508477567314,-0.7608680074817418
-4.025,0.270168232213786,-0.3158091944651144
-4.0245,0.3341892813600468,-0.01910331911992507
-4.024,0.3235191065023739,0.08686306493165288
-4.0235,0.2701682322140092,0.0550731497161795
-4.023,0.2274875327832495,0.002089957690351971
-4.0225,0.2488278824985954,0.04447651131098315
-4.022,0.2808384070716142,0.09745970333677212
-4.0215,0.2701682322139316,0.1186529801471648
-4.021,0.2381577076409128,0.1292496185523226
-4.0205,0.2061471830678648,0.13984625695749
-4.02,0.1954770082100269,0.1398462569572684
-4.0195,0.02475421048725994,-0.1038764263613609
-4.019,-0.5514352318276028,-0.6972881770507372
-4.0185,-1.020922925565212,-1.280103289334416
-4.018,-1.26633694729234,-1.566212526274467
-4.0175,-0.9995825758502737,-1.089363798041932
-4.017,-0.5621054066856832,-0.4323722169221489
-4.0165,-0.1993194615238718,0.09745970333713835
-4.016,0.02475421048725994,0.4471487707073456
-4.0155,0.1421261339216622,0.637888262000186
-4.015,0.1848068333524996,0.7120647308365411
-4.0145,0.1848068333524996,0.7226613692416989
-4.014,0.1741366584948266,0.7014680924313833
-4.0135,0.1634664836371149,0.6590815388106557
-4.013,0.142126133921769,0.6166949851900245
-4.0125,0.1314559590640864,0.5743084315693548
-4.012,0.120785784206394,0.5319218779486272
-4.0115,0.1101156093487211,0.4683420475176805
-4.011,-0.08194753808956648,0.04447651131098315
-4.0105,-0.3380317346737169,-0.6654982618345892
-4.01,-0.5194247072545548,-1.280103289334946
-4.0095,-0.4980843575391895,-1.619195718300304
-4.009,-0.1779791118090014,-1.195330182093992
-4.0085,0.09944543449117429,-0.6337083466193277
-4.008,0.2488278824985954,-0.1886495336027004
-4.0075,0.2915085819292872,0.08686306493140233
-4.007,0.2701682322139316,0.1716361721729249
-4.0065,0.2381577076409128,0.09745970333682032
-4.006,0.2488278824985954,0.04447651131098315
-4.0055,0.3555296310754218,0.1610395337678827
-4.005,0.3555296310754218,0.2246193641988295
-4.0045,0.3021787567870086,0.2352160026039969
-4.004,0.2488278824985566,0.2246193641988295
-4.0035,0.2061471830678648,0.2246193641988295
-4.003,0.2061471830678648,0.2987958330350016
-4.0025,0.3021787567869213,0.5531151547587887
-4.002,-0.04993701351651855,0.1080563417419877
-4.0015,-0.5834457564006506,-0.6443049850249
-4.001,-0.8075194284117821,-0.9092209451538449
-4.0005,-0.6154562809734365,-0.5913217929986581
-4,-0.3273615598162672,-0.1462629799820306
-3.9995,-0.08194753808956648,0.2246193641988295
-3.999,0.0674349099179905,0.4789386859228479
-3.9985,0.142126133921769,0.6166949851900245
-3.998,0.1741366584948169,0.6696781772158616
-3.9975,0.1741366584948169,0.6908714540261965
-3.997,0.1634664836371343,0.6802748156210291
-3.9965,0.142126133921769,0.6590815388106942
-3.996,0.1314559590640864,0.627291623595192
-3.9955,0.1207857842064037,0.5955017083796896
-3.995,0.1207857842064037,0.5637117931641874
-3.9945,-0.007256314085787988,0.2881991946298341
-3.994,-0.5941159312583333,-0.4217755785163839
-3.9935,-1.052933450138687,-1.121153713257435
-3.993,-1.074273799854052,-1.417859588602123
-3.9925,-0.6367966306890638,-1.025783967610927
-3.992,-0.1673089369510276,-0.474758770542221
-3.9915,0.142126133921769,-0.06148987274069118
-3.991,0.2701682322139607,0.1610395337678249
-3.9905,0.3021787567870086,0.2246193641988295
-3.99,0.2808384070716433,0.2140227257936621
-3.9895,0.2488278824985954,0.1186529801471552
-3.989,0.3982103305061524,0.01268659609548085
-3.9885,0.4729015545099309,-0.02969995752518888
-3.988,0.408880505363835,0.002089957690313421
-3.9875,0.3235191065023739,0.05507314971615059
-3.987,0.2594980573562781,0.09745970333682032
-3.9865,0.2061471830678648,0.07626642652648545
-3.986,-0.06060718837420119,-0.3052125560595421
-3.9855,-0.754168554123573,-0.8986243067489184
-3.985,-1.212986073003927,-1.396666311791788
-3.9845,-1.212986073003927,-1.407262950196955
-3.984,-0.8288597781273515,-0.8562377531282487
-3.9835,-0.4020527838200457,-0.2734226408440398
-3.983,-0.09261771294724913,0.1716361721729923
-3.9825,0.08877525963335578,0.4471487707073456
-3.982,0.1741366584948169,0.5849050699745222
-3.9815,0.1954770082101822,0.6378882620003594
-3.981,0.1848068333524996,0.6378882620003594
-3.9805,0.1741366584948169,0.6166949851900245
-3.98,0.1634664836371343,0.5955017083796896
-3.9795,0.1527963087794516,0.5637117931641874
-3.979,0.142126133921769,0.5425185163538525
-3.9785,0.1314559590640864,0.5107286011383502
-3.978,0.04609456020262521,0.3411823866556712
-3.9775,-0.1993194615240755,-0.2946159176543747
-3.977,-0.4767440078238243,-1.004590690800593
-3.9765,-0.839529952985034,-1.598002441489969
-3.976,-0.690147504977477,-1.545019249464132
-3.9755,-0.274010685527854,-0.9304142219644207
-3.975,0.07810508477567314,-0.3475991096802118
-3.9745,0.2594980573562781,0.05507314971615059
-3.974,0.3128489316446912,0.2352160026039969
-3.9735,0.291508581929326,0.2458126410091644
-3.973,0.2488278824985954,0.1716361721729923
-3.9725,0.3448594562177392,0.04447651131098315
-3.972,0.4942419042252961,-0.08268314955102604
-3.9715,0.4622313796522482,-0.02969995752518888
-3.971,0.3768699807907871,0.05507314971615059
-3.9705,0.291508581929326,0.13984625695749
-3.97,0.2488278824985954,0.1716361721729923
-3.9695,0.2701682322139607,-0.1568596183871981
-3.969,-0.1886492866663929,-0.7608680074817418
-3.9685,-0.572775581542968,-1.269506650929778
-3.968,-0.8822106524157645,-1.587405803084801
-3.9675,-0.807519428411986,-1.205926820498774
-3.967,-0.5087545323968721,-0.5913217929990628
-3.9665,-0.2099896363817582,-0.06148987274069118
-3.966,0.00341386077189465,0.2881991946298341
-3.9655,0.1207857842064037,0.4789386859228479
-3.965,0.1741366584948169,0.5425185163538525
-3.9645,0.1848068333524996,0.55311515475902
-3.964,0.1741366584948169,0.5425185163538525
-3.9635,0.1634664836371343,0.5107286011383502
-3.963,0.142126133921769,0.4895353243280153
-3.9625,0.1314559590640864,0.457745409112513
-3.962,0.1207857842064037,0.4365521323021782
-3.9615,0.07810508477567314,0.383568940276341
-3.961,-0.3593720843893152,-0.06148987274069118
-3.9605,-0.7328282044082075,-0.7714646458869092
-3.96,-0.8822106524157645,-1.375473034981453
-3.9595,-0.7434983792658902,-1.354279758171118
-3.959,-0.3273615598162672,-0.8350444763179138
-3.9585,0.03542438534494258,-0.3158091944647096
-3.958,0.2381577076409128,0.04447651131098315
-3.9575,0.3128489316446912,0.2246193641988295
-3.957,0.3021787567870086,0.2776025562246667
-3.9565,0.2594980573562781,0.2881991946298341
-3.956,0.2701682322139607,0.2776025562246667
-3.9555,0.3555296310754218,0.3199891098453364
-3.955,0.3555296310754218,0.3199891098453364
-3.9545,0.3021787567870086,0.2776025562246667
-3.954,0.2488278824985954,0.2564092794143318
-3.9535,0.2061471830678648,0.2458126410091644
-3.953,0.1207857842064037,0.2246193641988295
-3.9525,-0.4020527838200457,-0.1992461720078678
-3.952,-1.127624674142465,-0.8774310299385835
-3.9515,-1.67180359188428,-1.460246142222792
-3.951,-1.543761493592088,-1.354279758171118
-3.9505,-0.9889124009925911,-0.7502713690765743
-3.95,-0.4660738329661415,-0.1568596183871981
-3.9495,-0.09261771294724913,0.2776025562246667
-3.949,0.1101156093487211,0.5319218779486851
-3.9485,0.1954770082101822,0.6378882620003594
-3.948,0.2168173579255475,0.6590815388106942
-3.9475,0.2061471830678648,0.6378882620003594
-3.947,0.1848068333524996,0.5955017083796896
-3.9465,0.1634664836371343,0.55311515475902
-3.946,0.1527963087794516,0.5107286011383502
-3.9455,0.1314559590640864,0.4683420475176805
-3.945,0.1314559590640864,0.4259554938970107
-3.9445,-0.07127736323188383,0.1716361721729923
-3.944,-0.6794773301197943,-0.5065486857577234
-3.9435,-1.138294849000148,-1.195330182093607
-3.943,-1.095614149569417,-1.47084278062796
-3.9425,-0.6261264558313813,-1.05757388282643
-3.942,-0.1459685872356623,-0.5277419625680583
-3.9415,0.1634664836371343,-0.1144730647665284
-3.941,0.291508581929326,0.1186529801471552
-3.9405,0.3128489316446912,0.2246193641988295
-3.94,0.3021787567870086,0.2352160026039969
-3.9395,0.2701682322139607,0.1928294489833272
-3.939,0.3555296310754218,0.1080563417419877
-3.9385,0.3768699807907871,0.08686306493165288
-3.938,0.3341892813600565,0.1186529801471552
-3.9375,0.2808384070716433,0.1822328105781598
-3.937,0.2274875327832301,0.2246193641988295
-3.9365,0.2594980573562781,0.2458126410091644
-3.936,0.2061471830678648,0.1080563417419877
-3.9355,-0.3700422592469978,-0.474758770542221
-3.935,-0.8608703027003992,-1.0999604364471
-3.9345,-1.06360362499637,-1.290699927740113
-3.934,-0.807519428411986,-0.8562377531282487
-3.9335,-0.4340633083930936,-0.2946159176543747
-3.933,-0.124628237520297,0.1610395337678249
-3.9325,0.0674349099179905,0.457745409112513
-3.932,0.1634664836371343,0.627291623595192
-3.9315,0.1954770082101822,0.6908714540261965
-3.931,0.1954770082101822,0.701468092431364
-3.9305,0.1848068333524996,0.6908714540261965
-3.93,0.1634664836371343,0.6696781772158616
-3.9295,0.1527963087794516,0.6378882620003594
-3.929,0.142126133921769,0.5955017083796896
-3.9285,0.1314559590640864,0.5637117931641874
-3.928,0.04609456020262521,0.4153588554918433
-3.9275,-0.3166913849585846,-0.2098428104130352
-3.927,-0.4874141826815069,-0.8880276683437509
-3.9265,-0.5194247072545548,-1.269506650929778
-3.926,-0.2846808603855366,-1.025783967610927
-3.9255,0.00341386077189465,-0.6019184314042303
-3.925,0.1741366584948169,-0.2416327256285375
-3.9245,0.2488278824985954,-0.05089323433552374
-3.924,0.2594980573562781,0.03387987290581572
-3.9235,0.2488278824985954,0.04447651131098315
-3.923,0.2274875327832301,-0.01910331912002144
-3.9225,0.3555296310754218,-0.2098428104130352
-3.922,0.5369226036560266,-0.3793890248957141
-3.9215,0.5049120790829789,-0.252229364033705
-3.921,0.3982103305061524,-0.04029659593035631
-3.9205,0.3021787567870086,0.1504428953626575
-3.92,0.2594980573562781,0.309392471440169
-3.9195,-0.08194753808956648,0.06566978812131802
-3.919,-0.7861790786966207,-0.6019184314042303
-3.9185,-1.234326422719292,-1.195330182093607
-3.918,-1.447729919872945,-1.598002441489969
-3.9175,-1.191645723288561,-1.258910012524611
-3.917,-0.7008176798351597,-0.5913217929990628
-3.9165,-0.274010685527854,-0.01910331912002144
-3.916,0.00341386077189465,0.3729723018711736
-3.9155,0.1527963087794516,0.5743084315693548
-3.915,0.2061471830678648,0.6484849004055269
-3.9145,0.2168173579255475,0.6484849004055269
-3.914,0.1954770082101822,0.6166949851900245
-3.9135,0.1848068333524996,0.5743084315693548
-3.913,0.1634664836371343,0.5213252395435176
-3.9125,0.1527963087794516,0.4683420475176805
-3.912,0.142126133921769,0.4259554938970107
-3.9115,0.1101156093487211,0.3411823866556712
-3.911,-0.3273615598162672,-0.1462629799820306
-3.9105,-0.7968492535543035,-0.8562377531282487
-3.91,-0.9569018764195432,-1.333086481360783
-3.9095,-0.6688071552621118,-1.068170521231597
-3.909,-0.2313299860971235,-0.6019184314042303
-3.9085,0.1101156093487211,-0.2204394488182027
-3.908,0.2701682322139607,0.01268659609548085
-3.9075,0.3128489316446912,0.09745970333682032
-3.907,0.3021787567870086,0.1292496185523226
-3.9065,0.2701682322139607,0.1186529801471552
-3.906,0.291508581929326,0.02328323450064829
-3.9055,0.4515612047945656,-0.1462629799820306
-3.905,0.4622313796522482,-0.09327978795619347
-3.9045,0.3875401556484697,0.06566978812131802
-3.904,0.3235191065023739,0.2246193641988295
-3.9035,0.2594980573562781,0.3411823866556712
-3.903,0.2274875327832301,0.383568940276341
-3.9025,0.1207857842064037,0.06566978812131802
-3.902,-0.2420001609548061,-0.5065486857577234
-3.9015,-0.5621054066852853,-0.9304142219644207
-3.901,-0.658136980404429,-0.8668343915334161
-3.9005,-0.4660738329661415,-0.4323722169215513
-3.9,-0.2099896363817582,0.01268659609548085
-3.8995,-0.01792648894347063,0.3305857482505039
-3.899,0.1101156093487211,0.5213252395435176
-3.8985,0.1634664836371343,0.5955017083796896
-3.898,0.1848068333524996,0.6060983467848571
-3.8975,0.1848068333524996,0.5849050699745222
-3.897,0.1741366584948169,0.5425185163538525
-3.8965,0.1634664836371343,0.5001319627331828
-3.896,0.1527963087794516,0.4683420475176805
-3.8955,0.142126133921769,0.4259554938970107
-3.895,0.142126133921769,0.3941655786815084
-3.8945,-0.06060718837420119,0.1080563417419877
-3.894,-0.4554036581084589,-0.5277419625680583
-3.8935,-0.5407650569699201,-1.131750351662602
-3.893,-0.423393133535411,-1.545019249464132
-3.8925,-0.09261771294724913,-1.248313374119443
-3.892,0.1848068333524996,-0.6760949002404023
-3.8915,0.3128489316446912,-0.1780528951975329
-3.891,0.3341892813600565,0.1292496185523226
-3.8905,0.3128489316446912,0.2458126410091644
-3.89,0.2701682322139607,0.2458126410091644
-3.8895,0.2488278824985954,0.1928294489833272
-3.889,0.291508581929326,0.1292496185523226
-3.8885,0.3021787567870086,0.13984625695749
-3.888,0.2808384070716433,0.1822328105781598
-3.8875,0.2381577076409128,0.2352160026039969
