Class_10_Using_Wats_App/Class_10_WatsApp_Turki_7.csv

#Digilent WaveForms Oscilloscope Acquisition
#Device Name: EExplorer
#Serial Number: SN:210151A2B84A
#Date Time: 2020-12-21 15:29:39.074
#Sample rate: 2000Hz
#Samples: 16384
#Trigger: Source: Channel 1 Type: Edge Condition: Rising Level: 0 V Hyst.: Auto HoldOff: 0 s
#Channel 1: Range: 1 V/div Offset: 0 V
#Channel 2: Range: 1 V/div Offset: 0 V

Time (s),Channel 1 (V),Channel 2 (V)
-4.0960000000000001,-1.2770071221500223,-0.77146464588690922
-4.0955000000000004,-1.4050492204420975,-0.95160749877459161
-4.0949999999999998,-0.82885977812674982,-0.50654868575724155
-4.0945,-0.16730893695102761,0.023283234500648287
-4.0940000000000003,0.32351910650192744,0.4259554938966445
-4.0934999999999997,0.57960330308685437,0.64848490040562323
-4.093,0.6863050516635838,0.75445128445720111
-4.0925000000000002,0.71831557623660247,0.82862775329330562
-4.0919999999999996,0.88903837395957319,0.76504792286230106
-4.0914999999999999,0.91037872367491923,0.69087145402619654
-4.0910000000000002,0.81434714995577528,0.69087145402619654
-4.0904999999999996,0.68630505166349642,0.70146809243137365
-4.0899999999999999,0.59027347794443985,0.71206473083653143
-4.0895000000000001,0.60094365280212259,0.75445128445720111
-4.0890000000000004,0.9637295979630025,0.92399749893972583
-4.0884999999999998,0.92104889853260175,0.46834204751768049
-4.0880000000000001,0.067434909917990504,-0.4535654937318862
-4.0875000000000004,-0.90355100213024686,-1.3012965661445095
-4.0869999999999997,-1.5010807941611055,-1.7993385711877841
-4.0865,-1.2236562478616091,-1.3966663117917877
-4.0860000000000003,-0.61545628097425165,-0.67609490024105767
-4.0854999999999997,-0.071277363231544169,-0.061489872740334586
-4.085,0.30217875678700862,0.33058574825050385
-4.0845000000000002,0.49424190422512143,0.52132523954334409
-4.0839999999999996,0.56893312822908426,0.57430843156934519
-4.0834999999999999,0.57960330308675734,0.5637117931641874
-4.0830000000000002,0.54759277851370936,0.52132523954351762
-4.0824999999999996,0.51558225394063228,0.48953532432800567
-4.0819999999999999,0.4835717293676135,0.47893868592284788
-4.0815000000000001,0.4622313796522482,0.47893868592284788
-4.0810000000000004,0.22748753278344361,0.25640927941453417
-4.0804999999999998,-0.46607383296614152,-0.4641621321370536
-4.0800000000000001,-1.0636036249963696,-1.227120097309109
-4.0795000000000003,-1.2023158981461177,-1.5662125262741584
-4.0789999999999997,-0.82885977812685652,-1.1423469900671332
-4.0785,-0.28468086038553664,-0.44296885532671876
-4.0780000000000003,0.1848068333520726,0.097459703336328862
-4.0774999999999997,0.49424190422540287,0.53192187794891632
-4.077,0.6116138276598051,0.78624119967270345
-4.0765000000000002,0.64362435223282399,0.80743447648301903
-4.0759999999999996,0.63295417737514148,0.73325800764674109
-4.0754999999999999,0.60094365280212259,0.59550170837968963
-4.0750000000000002,0.57960330308675734,0.57430843156935485
-4.0744999999999996,0.54759277851368993,0.64848490040559437
-4.0739999999999998,0.52625242879834411,0.72266136924169888
-4.0735000000000001,0.51558225394066137,0.76504792286236856
-4.0730000000000004,0.51558225394066137,0.78624119967268413
-4.0724999999999998,0.71831557623663156,0.98757732937088472
-4.0720000000000001,0.91037872367491923,0.98757732937088472
-4.0715000000000003,0.19547700821083236,0.17163617217373439
-4.0709999999999997,-0.81818960327043533,-0.82444783791344023
-4.0705,-1.6611334170265974,-1.5874058030848013
-4.0700000000000003,-1.6718035918842702,-1.6509856335157482
-4.0694999999999997,-1.0422632752803831,-1.0151873292051337
-4.069,-0.35937208438931517,-0.32640583286987701
-4.0685000000000002,0.13145595906408636,0.17163617217299235
-4.0679999999999996,0.41955068022163411,0.44714877070744197
-4.0674999999999999,0.54759277851370936,0.55311515475901996
-4.0670000000000002,0.57960330308675734,0.57430843156935485
-4.0664999999999996,0.558262953371363,0.54251851635381398
-4.0659999999999998,0.52625242879834411,0.50013196273318283
-4.0655000000000001,0.49424190422529612,0.46834204751768049
-4.0650000000000004,0.45156120479460438,0.46834204751768049
-4.0644999999999998,0.31284893164469124,0.46834204751768049
-4.0640000000000001,-0.29535103524321932,0.30939247144016896
-4.0635000000000003,-1.0529334501379979,-0.3793890248950878
-4.0629999999999997,-1.522421143876393,-1.0893637980418744
-4.0625,-1.1596351987155133,-1.0257839676109275
-4.0620000000000003,-0.47674400782444537,-0.48535540894787998
-4.0614999999999997,0.088775259633705139,0.044476511311368656
-4.0609999999999999,0.47290155450993088,0.46834204751768049
-4.0605000000000002,0.64362435223285308,0.72266136924169888
-4.0599999999999996,0.69697522652124688,0.84982103010373689
-4.0594999999999999,0.67563487680590106,0.88161094531921036
-4.0590000000000002,0.72898575109431429,0.80743447648303834
-4.0585000000000004,0.88903837395940821,0.61669498519019794
-4.0579999999999998,0.84635767452882327,0.62729162359519197
-4.0575000000000001,0.72898575109431429,0.70146809243136399
-4.0570000000000004,0.62228400251758487,0.76504792286231071
-4.0564999999999998,0.55826295337139209,0.78624119967270345
-4.056,0.3982103305061524,0.55311515475901996
-4.0555000000000003,-0.17797911180818615,-0.24163272562781468
-4.0549999999999997,-0.94623170156248149,-1.1105570748528839
-4.0545,-1.6291228924535495,-1.7887419327829828
-4.0540000000000003,-2.1519614604795234,-2.2867839378253989
-4.0534999999999997,-1.8531965644641473,-2.0536578929113687
-4.0529999999999999,-1.0422632752810042,-1.1741369052832717
-4.0525000000000002,-0.30602121010090194,-0.40058230170604903
-4.0519999999999996,0.19547700821043451,0.10805634174221905
-4.0514999999999999,0.47290155450993088,0.36237566346600614
-4.0510000000000002,0.57960330308675734,0.4471487707073456
-4.0505000000000004,0.59027347794443019,0.42595549389702997
-4.0499999999999998,0.5689331282290746,0.37297230187117358
-4.0495000000000001,0.53692260365602662,0.31998910984533641
-4.0490000000000004,0.50491207908300795,0.2776025562247052
-4.0484999999999998,0.48357172936756498,0.26700591781949923
-4.048,0.43022085507920033,0.26700591781949923
-4.0475000000000003,0.18480683335272277,-0.18864953360228598
-4.0469999999999997,-0.38071243410531119,-0.93041422196498935
-4.0465,-1.0742737998540521,-1.5556158878692994
-4.0460000000000003,-1.3837088707265672,-1.7357587407569817
-4.0454999999999997,-0.9675720512766337,-1.1317503516618599
-4.0449999999999999,-0.31669138495858457,-0.31580919446470956
-4.0445000000000002,0.21681735792554749,0.31998910984533641
-4.0439999999999996,0.53692260365616251,0.70146809243154706
-4.0434999999999999,0.6863050516635838,0.90280422212954525
-4.0430000000000001,0.71831557623663156,0.9134008605347127
-4.0425000000000004,0.69697522652128574,0.84982103010376586
-4.0419999999999998,0.70764540137894905,0.62729162359519197
-4.0415000000000001,0.70764540137894905,0.5637117931641874
-4.0410000000000004,0.64362435223291126,0.66967817721576528
-4.0404999999999998,0.59027347794439133,0.78624119967275163
-4.04,0.53692260365602662,0.83922439169854057
-4.0395000000000003,0.55826295337137266,0.87101430691401405
-4.0389999999999997,0.95305942310549441,1.0299638829910629
-4.0385,0.78233662538272752,0.48953532432801533
-4.0380000000000003,-0.092617712946453379,-0.43237221692071287
-4.0374999999999996,-0.71148785469339537,-0.90922094515451946
-4.0369999999999999,-1.3196878215807528,-1.3860696733866202
-4.0365000000000002,-1.3303579964384356,-1.3648763965762853
-4.0359999999999996,-0.80751942841146196,-0.84564111472258008
-4.0354999999999999,-0.23132998609712346,-0.29461591765437467
-4.0350000000000001,0.18480683335249956,0.076266426526485451
-4.0345000000000004,0.43022085507897712,0.26700591781932576
-4.0339999999999998,0.53692260365602662,0.33058574825050385
-4.0335000000000001,0.55826295337139209,0.31998910984533641
-4.0330000000000004,0.54759277851371901,0.2776025562247052
-4.0324999999999998,0.50491207908295943,0.24581264100915476
-4.032,0.4835717293676135,0.23521600260399694
-4.0315000000000003,0.45156120479459472,0.24581264100915476
-4.0309999999999997,0.15279630877880143,0.18223281057801521
-4.0305,-0.5621054066852853,0.023283234500648287
-4.0300000000000002,-1.1382948489996241,-0.46416213213661028
-4.0294999999999996,-1.4477299198727407,-1.0575738828264587
-4.0289999999999999,-1.2236562478616091,-1.0893637980419322
-4.0285000000000002,-0.54076505696992005,-0.59132179299906285
-4.0279999999999996,0.078105084776032202,0.0338798729062205
-4.0274999999999999,0.47290155450993088,0.47893868592284788
-4.0270000000000001,0.66496470194821833,0.76504792286236856
-4.0265000000000004,0.72898575109425612,0.88161094531910433
-4.0259999999999998,0.71831557623663156,0.9134008605347127
-4.0255000000000001,0.75032610080967954,0.78624119967270345
-4.0250000000000004,0.78233662538269844,0.71206473083659894
-4.0244999999999997,0.71831557623654418,0.78624119967277095
-4.024,0.62228400251748783,0.86041766850887547
-4.0235000000000003,0.55826295337145027,0.91340086053466452
-4.0229999999999997,0.53692260365625954,0.92399749893977401
-4.0225,0.79300680024041004,0.80743447648303834
-4.0220000000000002,1.145122570543617,0.23521600260451736
-4.0214999999999996,0.44089102993597074,-0.6549016234306746
-4.0209999999999999,-0.5621054066852853,-1.3224898429556156
-4.0205000000000002,-1.46907026958831,-1.8205318479984851
-4.0199999999999996,-1.6184527175953622,-1.7569520175668443
-4.0194999999999999,-1.0636036249963696,-1.0575738828264298
-4.0190000000000001,-0.41272295867772835,-0.36879238649054674
-4.0185000000000004,0.088775259632899672,0.10805634174155404
-4.0179999999999998,0.38754015564846972,0.35177902506083869
-4.0175000000000001,0.52625242879834411,0.41535885549184332
-4.0170000000000003,0.558262953371363,0.39416557868152768
-4.0164999999999997,0.54759277851368027,0.33058574825045567
-4.016,0.51558225394066137,0.27760255622466667
-4.0155000000000003,0.48357172936764259,0.22461936419887768
-4.0149999999999997,0.45156120479441031,0.21402272579354642
-4.0145,0.28083840707164331,0.086863064931652884
-4.0140000000000002,-0.37004225924640577,-0.5065486857571837
-4.0134999999999996,-1.0849439747121812,-1.216523458904385
-4.0129999999999999,-1.5757720181651362,-1.7039688255416432
-4.0125000000000002,-1.46907026958831,-1.3860696733866202
-4.0119999999999996,-0.80751942841137458,-0.72907809226567077
-4.0114999999999998,-0.13529841237797968,-0.10387642636136091
-4.0110000000000001,0.34485945621773917,0.29879583303500157
-4.0105000000000004,0.6116138276595624,0.48953532432784186
-4.0099999999999998,0.71831557623663156,0.66967817721586165
-4.0095000000000001,0.72898575109431429,0.78624119967270345
-4.0090000000000003,0.76099627566733319,0.80743447648301903
-4.0084999999999997,0.94238924824793791,0.61669498519006305
-4.008,0.91037872367491923,0.6590815388106942
-4.0075000000000003,0.77166645052517091,0.77564456126742998
-4.0069999999999997,0.64362435223277548,0.86041766850890433
-4.0065,0.55826295337139209,0.89220758372437781
-4.0060000000000002,0.6863050516635838,1.0617537982070568
-4.0054999999999996,1.2198137945476379,1.5597958032500512
-4.0049999999999999,1.1344523956862547,1.6975521025171028
-4.0045000000000002,0.45156120479456557,0.80743447648303834
-4.0039999999999996,-0.5621054066858191,-0.34759910968088648
-4.0034999999999998,-1.1489650238578306,-1.0893637980419322
-4.0030000000000001,-0.92489135184649518,-0.97280077558509037
-4.0025000000000004,-0.44473348325121298,-0.49595204735298964
-4.0019999999999998,0.0034138607718946501,-0.061489872740691176
-4.0015000000000001,0.30217875678700862,0.24581264100916439
-4.0010000000000003,0.46223137965210259,0.41535885549168911
-4.0004999999999997,0.52625242879834411,0.47893868592284788
-4,0.52625242879834411,0.47893868592284788
-3.9994999999999998,0.51558225394066137,0.46834204751768049
-3.9990000000000001,0.4835717293676135,0.45774540911251305
-3.9984999999999999,0.45156120479456557,0.46834204751768049
-3.9980000000000002,0.41955068022151765,0.46834204751768049
-3.9975000000000001,0.067434909917990504,0.48953532432801533
-3.9969999999999999,-0.59411593125833329,0.065669788121318018
-3.9965000000000002,-1.0742737998540521,-0.75027136907657432
-3.996,-1.1169544992847826,-0.97280077558509037
-3.9954999999999998,-0.64746680554674652,-0.48535540894738849
-3.9950000000000001,-0.092617712947249131,0.012686596095480854
-3.9944999999999999,0.31284893164469124,0.38356894027634103
-3.9940000000000002,0.57960330308675734,0.59550170837968963
-3.9935,0.69697522652126631,0.68027481562102909
-3.9929999999999999,0.70764540137894905,0.68027481562102909
-3.9925000000000002,0.6863050516635838,0.70146809243136399
-3.992,0.78233662538272752,0.78624119967270345
-3.9914999999999998,0.81434714995577528,0.86041766850887547
-3.9910000000000001,0.72898575109431429,0.81803111488820579
-3.9904999999999999,0.62228400251748783,0.73325800764686633
-3.9900000000000002,0.54759277851370936,0.6590815388106942
-3.9895,0.55826295337139209,0.63788826200035942
-3.9889999999999999,1.006410297394063,0.73325800764686633
-3.9885000000000002,0.99574012253638022,0.16103953376782493
-3.988,0.17413665849481691,-0.73967473067140688
-3.9874999999999998,-0.83952995298503397,-1.5026326958434622
-3.9870000000000001,-1.405049220442214,-1.9053049552398247
-3.9864999999999999,-1.1276246741424654,-1.3966663117917877
-3.9860000000000002,-0.5621054066852853,-0.63370834661973252
-3.9855,-0.06060718837420119,0.0020899576903134209
-3.9849999999999999,0.28083840707164331,0.39416557868150842
-3.9845000000000002,0.4622313796522482,0.58490506997452218
-3.984,0.52625242879834411,0.63788826200035942
-3.9834999999999998,0.52625242879834411,0.62729162359519197
-3.9830000000000001,0.50491207908297886,0.58490506997452218
-3.9824999999999999,0.47290155450993088,0.54251851635385251
-3.9820000000000002,0.44089102993688295,0.51072860113835017
-3.9815,0.3768699807907871,0.51072860113835017
-3.9809999999999999,0.099445434491038431,0.33058574825050385
-3.9805000000000001,-0.6047861061160158,-0.3581957480853793
-3.98,-1.1489650238578306,-1.1529436284729369
-3.9794999999999998,-1.2770071221500223,-1.4920360574382947
-3.9790000000000001,-0.86087030270039921,-0.95160749877475548
-3.9784999999999999,-0.24200016095480609,-0.29461591765437467
-3.9780000000000002,0.25949805735627807,0.18223281057815977
-3.9775,0.57960330308675734,0.41535885549184332
-3.9769999999999999,0.70764540137894905,0.50013196273318283
-3.9765000000000001,0.71831557623663156,0.4471487707073456
-3.976,0.67563487680590106,0.36237566346600614
-3.9754999999999998,0.65429452709053582,0.4471487707073456
-3.9750000000000001,0.67563487680590106,0.5637117931641874
-3.9744999999999999,0.62228400251748783,0.53192187794868506
-3.9740000000000002,0.55826295337139209,0.47893868592284788
-3.9735,0.51558225394066137,0.4471487707073456
-3.9729999999999999,0.49424190422529612,0.45774540911251305
-3.9725000000000001,0.72898575109431429,0.63788826200035942
-3.972,1.1664629202593024,0.55311515475901996
-3.9714999999999998,0.78233662538272752,-0.22043944881820265
-3.9710000000000001,-0.15663876209334496,-1.0363806060160949
-3.9704999999999999,-1.0422632752810042,-1.5344226110589645
-3.9700000000000002,-1.1062843244271001,-1.227120097309109
-3.9695,-0.66880715526211176,-0.4641621321370536
-3.9689999999999999,-0.18864928666639288,0.24581264100916439
-3.9685000000000001,0.17413665849481691,0.72266136924169888
-3.968,0.3982103305061524,0.98757732937088472
-3.9674999999999998,0.49424190422529612,1.0829470750173917
-3.9670000000000001,0.51558225394066137,1.0829470750173917
-3.9664999999999999,0.50491207908297886,1.0299638829915545
-3.9660000000000002,0.47290155450993088,0.94519077575021493
-3.9655,0.44089102993688295,0.87101430691404291
-3.9649999999999999,0.41955068022151765,0.78624119967270345
-3.9645000000000001,0.25949805735627807,0.6590815388106942
-3.964,-0.39138260896236304,0.012686596095480854
-3.9634999999999998,-0.99958257585027366,-0.88802766834375091
-3.9630000000000001,-1.3516983461538008,-1.6085990798951362
-3.9624999999999999,-1.4584000947306273,-1.9370948704553266
-3.9620000000000002,-0.99958257585027366,-1.4602461422227924
-3.9615,-0.32736155981626724,-0.75027136907657432
-3.9609999999999999,0.23815770764091276,-0.20984281041303524
-3.9605000000000001,0.55826295337139209,0.17163617217299235
-3.96,0.67563487680590106,0.34118238665567124
-3.9594999999999998,0.69697522652126631,0.35177902506083869
-3.9590000000000001,0.72898575109431429,0.21402272579366208
-3.9584999999999999,0.8997085488172365,-0.04029659593035631
-3.9580000000000002,0.857027849386506,-0.061489872740691176
-3.9575,0.72898575109431429,0.055073149716150585
-3.9569999999999999,0.6116138276598051,0.17163617217299235
-3.9565000000000001,0.51558225394066137,0.26700591781949923
-3.956,0.6116138276598051,0.38356894027634103
-3.9554999999999998,0.95305942310564973,0.5637117931641874
-3.9550000000000001,0.38754015564846972,-0.019103319120021445
-3.9544999999999999,-0.47674400782382426,-0.86683439153341613
-3.9540000000000002,-1.2876772970077051,-1.5662125262744668
-3.9535,-1.6504632421689147,-1.8205318479984851
-3.9529999999999998,-1.2129860730039266,-1.2059268204987741
-3.9525000000000001,-0.57277558154296804,-0.41117894011121647
-3.952,-0.039266838658835915,0.2246193641988295
-3.9514999999999998,0.30217875678700862,0.62729162359519197
-3.9510000000000001,0.4622313796522482,0.83922439169854057
-3.9504999999999999,0.52625242879834411,0.9134008605347127
-3.9500000000000002,0.51558225394066137,0.90280422212954525
-3.9495,0.49424190422529612,0.87101430691404291
-3.9489999999999998,0.45156120479456557,0.82862775329337313
-3.9485000000000001,0.43022085507920033,0.78624119967270345
-3.948,0.34485945621773917,0.71206473083653143
-3.9474999999999998,0.18480683335249956,0.48953532432801533
-3.9470000000000001,-0.25267033581248871,-0.14626297998203064
-3.9464999999999999,-0.83952995298503397,-0.97280077558509037
-3.9460000000000002,-1.1596351987155133,-1.4708427806279598
-3.9455,-0.95690187641954316,-1.2377167357142764
-3.9449999999999998,-0.42339313353541097,-0.71848145386107198
-3.9445000000000001,0.08877525963335578,-0.2310360872233701
-3.944,0.41955068022151765,0.10805634174198775
-3.9434999999999998,0.5689331282290746,0.26700591781949923
-3.9430000000000001,0.62228400251748783,0.33058574825050385
-3.9424999999999999,0.63295417737517057,0.34118238665567124
-3.9420000000000002,0.67563487680590106,0.39416557868150842
-3.9415,0.66496470194821833,0.38356894027634103
-3.9409999999999998,0.60094365280212259,0.33058574825050385
-3.9405000000000001,0.53692260365602662,0.29879583303500157
-3.9399999999999999,0.49424190422529612,0.29879583303500157
-3.9394999999999998,0.49424190422529612,0.34118238665567124
-3.9390000000000001,0.54759277851370936,0.31998910984533641
-3.9384999999999999,0.47290155450993088,-0.061489872740691176
-3.9380000000000002,-0.017926488943470625,-0.73967473067140688
-3.9375,-0.63679663068906378,-1.2695066509297783
-3.9369999999999998,-1.0956141495694174,-1.5132293342486296
-3.9365000000000001,-0.8928808272734472,-0.99399405239542526
-3.9359999999999999,-0.42339313353541097,-0.2310360872233701
-3.9355000000000002,0.0034138607718946501,0.40476221708667587
-3.9350000000000001,0.28083840707164331,0.81803111488820579
-3.9344999999999999,0.43022085507920033,1.0193672445863871
-3.9340000000000002,0.49424190422529612,1.0829470750173917
-3.9335,0.49424190422529612,1.0617537982070568
-3.9329999999999998,0.47290155450993088,1.0087706061812196
-3.9325000000000001,0.45156120479456557,0.93459413734504748
-3.9319999999999999,0.41955068022151765,0.86041766850887547
-3.9315000000000002,0.3982103305061524,0.78624119967270345
-3.931,0.08877525963335578,0.80743447648303834
-3.9304999999999999,-0.65813698040442903,0.6590815388106942
-3.9300000000000002,-1.2449965975769743,-0.11447306476652835
-3.9295,-1.6397930673112322,-1.0045906908005926
-3.9289999999999998,-1.7891755153187892,-1.4390528654124575
-3.9285000000000001,-1.2343264227192918,-1.0893637980419322
-3.9279999999999999,-0.50875453239687207,-0.52774196256805828
