Class_10_Using_Wats_App/Class_10_WatsApp_SH_9.csv

#Digilent WaveForms Oscilloscope Acquisition
#Device Name: EExplorer
#Serial Number: SN:210151A2B84A
#Date Time: 2021-01-20 10:42:33.277
#Sample rate: 2000Hz
#Samples: 16384
#Trigger: Source: Channel 1 Type: Edge Condition: Rising Level: 0 V Hyst.: Auto HoldOff: 0 s
#Channel 1: Range: 1 V/div Offset: 0 V Attenuation: 1 X
#Channel 2: Range: 1 V/div Offset: 0 V Attenuation: 1 X
#Power Supplies: ON
#Fixed Supply: ON
#Voltage: 3.3 V Readback: 3.324 V
#Positive Supply: ON
#Voltage: 3.7 V Readback: 3.718 V
#Current: 40 mA Readback: 19 mA
#Negative Supply: ON
#Voltage: -3.7 V Readback: -3.702 V
#Current: -40 mA Readback: -7 mA
#Reference 1: ON
#Voltage: 0 V
#Reference 2: ON
#Voltage: 0 V

Time (s),Channel 1 (V),Channel 2 (V)
-4.096,-0.6261264558313813,-0.7502713690765743
-4.0955,-0.7968492535541483,-0.5489352393785761
-4.095,-0.5300948821119074,0.04447651131144575
-4.0945,-0.1673089369510276,0.55311515475902
-4.094,0.1101156093484688,0.8286277532931225
-4.0935,0.2915085819294037,0.8710143069139272
-4.093,0.3768699807907871,0.7438546460520338
-4.0925,0.398210330506133,0.5107286011385622
-4.092,0.398210330506133,0.2458126410089331
-4.0915,0.3768699807907871,-0.008506680714854012
-4.091,0.3448594562177392,-0.2204394488182027
-4.0905,0.3128489316446427,-0.3793890248957431
-4.09,0.2594980573562781,-0.4111789401112165
-4.0895,-0.156638762093345,-0.1144730647665284
-4.089,-0.7968492535537212,0.3199891098449413
-4.0885,-1.223656247861609,0.3517790250608387
-4.088,-1.191645723288561,0.09745970333682032
-4.0875,-0.8608703027007001,-0.2628260024385447
-4.087,-0.5087545323965325,-0.6337083466199831
-4.0865,-0.1352984123779797,-0.9092209451540858
-4.086,0.1634664836368626,-1.025783967610822
-4.0855,0.3555296310755091,-1.015187329205644
-4.085,0.4515612047945656,-0.8880276683437509
-4.0845,0.4835717293675844,-0.6866915386457528
-4.084,0.7076454013790946,-0.6654982618351674
-4.0835,0.8676980242441885,-0.5913217929990628
-4.083,0.79300680024041,-0.1886495336027004
-4.0825,0.6436243522327463,0.2564092794146787
-4.082,0.5262524287983441,0.6378882620003594
-4.0815,0.4622313796522482,0.8922075837243778
-4.081,0.8143471499554551,0.9663840525604823
-4.0805,0.9850699476786977,0.8710143069140429
-4.08,0.2808384070716433,0.1186529801471552
-4.0795,0.05676473506051163,-0.4429688553262079
-4.079,0.5049120790831148,-0.7926579226970609
-4.0785,0.6542945270905358,-0.5913217929990628
-4.078,0.6222840025175169,-0.1886495336030666
-4.0775,0.536922603655949,0.1504428953628406
-4.077,0.4515612047945656,0.3517790250608387
-4.0765,0.387540155648528,0.4153588554917855
-4.076,0.3555296310754024,0.3941655786814313
-4.0755,0.3341892813600565,0.309392471440169
-4.075,0.3341892813600565,0.2140227257936621
-4.0745,0.3235191065023544,0.1504428953626286
-4.074,0.3021787567870086,0.1186529801471552
-4.0735,0.2808384070716433,0.1504428953626575
-4.073,0.003413860772146948,0.3729723018709712
-4.0725,-0.722158029550525,0.8286277532933731
-4.072,-1.06360362499637,0.9451907757502149
-4.0715,-0.9355615267042942,0.1822328105788537
-4.071,-0.9462317015617245,-0.05089323433551411
-4.0705,-0.7968492535543035,-0.04029659593035631
-4.07,-0.4447334832510965,-0.1250697031716187
-4.0695,-0.09261771294701622,-0.2310360872234472
-4.069,0.1634664836371343,-0.3158091944647096
-4.0685,0.3341892813600565,-0.3687923864905467
-4.068,0.4195506802216535,-0.3370024712750445
-4.0675,0.5689331282290746,-0.3370024712750445
-4.067,0.8036769750980928,-0.400582301706049
-4.0665,0.803676975097986,-0.2310360872231099
-4.066,0.6863050516635838,0.05507314971615059
-4.0655,0.5582629533713921,0.3305857482505039
-4.065,0.4729015545100085,0.531921877948502
-4.0645,0.6649647019482183,0.2670059178194992
-4.064,1.091771696255524,-0.4429688553267188
-4.0635,0.739655925952317,-1.089363798041344
-4.063,0.03542438534430208,-1.439052865412544
-4.0625,-0.6688071552621118,-1.534422611058964
-4.062,-0.7434983792658223,-1.036380606016548
-4.0615,-0.4554036581081581,-0.3581957480848974
-4.061,-0.124628237520297,0.1716361721729923
-4.0605,0.1314559590640864,0.4259554938970107
-4.06,0.2915085819293939,0.4789386859227611
-4.0595,0.3661998059331045,0.383568940276341
-4.059,0.3875401556484697,0.2034260873884947
-4.0585,0.3768699807907968,0.01268659609565431
-4.058,0.3555296310754218,-0.1568596183871981
-4.0575,0.3341892813600565,-0.2946159176543747
-4.057,0.3235191065023836,-0.4111789401111104
-4.0565,0.2808384070716433,-0.3793890248957141
-4.056,-0.1673089369510276,-0.008506680714854012
-4.0555,-0.7755089038383851,0.5107286011378779
-4.055,-1.277007122150323,0.6908714540262159
-4.0545,-1.607782542738184,0.7120647308365314
-4.054,-1.501080794161455,0.5319218779488489
-4.0535,-1.04226327528049,0.1504428953623684
-4.053,-0.4767440078238243,-0.1674562567923655
-4.0525,0.01408403562957729,-0.3581957480853793
-4.052,0.3021787567871348,-0.4111789401111972
-4.0515,0.4408910299368829,-0.3899856633008816
-4.051,0.5155822539406614,-0.3370024712750445
-4.0505,0.6969752265211013,-0.4323722169214645
-4.05,0.7289857510943143,-0.2628260024388724
-4.0495,0.6329541773751706,0.07626642652648545
-4.049,0.5262524287984411,0.4153588554915349
-4.0485,0.4408910299369218,0.7014680924315085
-4.048,0.4835717293676135,0.8604176685088755
-4.0475,0.9637295979628957,1.061753798206874
-4.047,0.8036769750972679,0.9663840525597884
-4.0465,-0.1032878878049318,0.1292496185523226
-4.046,-0.572775581542541,-0.7078848154551431
-4.0455,-0.7114878546926288,-1.152943628472705
-4.045,-0.4767440078238243,-0.8986243067489184
-4.0445,-0.156638762093345,-0.4429688553267188
-4.044,0.1101156093488666,-0.06148987274048879
-4.0435,0.2701682322139607,0.1610395337678249
-4.043,0.3555296310754218,0.2564092794143318
-4.0425,0.3768699807907677,0.245812641009174
-4.042,0.3768699807907871,0.1928294489833272
-4.0415,0.3555296310754218,0.13984625695749
-4.041,0.323519106502403,0.1080563417420167
-4.0405,0.2915085819292969,0.1080563417420359
-4.04,0.2594980573562781,0.1610395337678249
-4.0395,-0.1459685872352935,0.4789386859225588
-4.039,-0.9035510021317219,0.9557874141556618
-4.0385,-1.554431668449771,1.263089927905238
-4.038,-1.725154466172538,1.051157159802082
-4.0375,-1.266336947291787,0.4789386859224238
-4.037,-0.658136980404429,0.01268659609548085
-4.0365,-0.1352984123779797,-0.252229364033705
-4.036,0.2168173579257222,-0.3899856633008912
-4.0355,0.408880505363835,-0.400582301706049
-4.035,0.4942419042252961,-0.3370024712750445
-4.0345,0.4942419042252961,-0.2416327256286243
-4.034,0.6969752265212663,-0.1992461720078678
-4.0335,0.857027849386506,-0.1780528951975329
-4.033,0.7930068002404682,0.00208995769014958
-4.0325,0.6542945270904097,0.2246193641990223
-4.032,0.5155822539406614,0.4365521323021782
-4.0315,0.4835717293676426,0.5213252395434405
-4.031,0.2381577076403499,0.03387987290519891
-4.0305,-0.3807124341046804,-0.6443049850249
-4.03,-1.020922925565057,-1.163540266877632
-4.0295,-1.607782542738136,-1.502632695843279
-4.029,-1.554431668449771,-1.301296566145281
-4.0285,-0.9782422261349084,-0.6125150698093976
-4.028,-0.3913826089619749,0.03387987290617231
-4.0275,0.03542438534494258,0.4259554938970107
-4.027,0.2808384070716433,0.5743084315693548
-4.0265,0.3875401556483727,0.5425185163538814
-4.026,0.4195506802215176,0.4047622170866759
-4.0255,0.3982103305061524,0.2140227257936621
-4.025,0.3768699807908065,0.01268659609566397
-4.0245,0.3555296310753927,-0.1674562567924426
-4.024,0.3235191065023739,-0.252229364033705
-4.0235,0.2808384070716821,-0.2416327256285472
-4.023,0.09944543449042705,-0.114473064766085
-4.0225,-0.572775581542968,0.3729723018711736
-4.022,-1.277007122149382,0.8604176685084322
-4.0215,-1.618452717595945,1.09354371342255
-4.021,-1.703814116457328,1.082947075017392
-4.0205,-1.394379045584531,0.6802748156210291
-4.02,-0.8075194284114814,0.1822328105777357
-4.0195,-0.2526703358124887,-0.2840192792492073
-4.019,0.1314559590640864,-0.5277419625680583
-4.0185,0.3448594562175451,-0.5701285161886894
-4.018,0.4408910299368829,-0.5065486857577234
-4.0175,0.5582629533713921,-0.4535654937318862
-4.017,0.8250173248132153,-0.5807251545937797
-4.0165,0.8356874996710243,-0.3581957480850516
-4.016,0.707645401378949,0.002089957690313421
-4.0155,0.5689331282292007,0.3729723018708363
-4.015,0.4729015545100959,0.6802748156210291
-4.0145,0.6542945270905358,0.6802748156210291
-4.014,1.241154144262547,0.7438546460519759
-4.0135,1.027750647108574,0.4153588554913036
-4.013,0.08877525963335578,-0.1780528951975329
-4.0125,-0.5834457564006506,-0.6125150698093976
-4.012,-0.6261264558311483,-0.6337083466193856
-4.0115,-0.3700422592469978,-0.252229364033705
-4.011,-0.06060718837420119,0.13984625695749
-4.0105,0.1634664836369305,0.3835689402761194
-4.01,0.3021787567870086,0.457745409112513
-4.0095,0.3555296310754218,0.4153588554918433
-4.009,0.3768699807907677,0.2881991946299498
-4.0085,0.366199805933085,0.129249618552207
-4.008,0.3448594562177392,0.002089957690313421
-4.0075,0.3128489316447204,-0.07208651114579115
-4.007,0.280838407071556,-0.09327978795611637
-4.0065,0.1848068333524996,-0.008506680714854012
-4.006,-0.3807124341046804,0.4153588554918433
-4.0055,-1.116954499285258,0.9451907757505522
-4.005,-1.639793067311232,1.316073119931075
-4.0045,-1.789175515318789,1.220703374284568
-4.004,-1.341028171295555,0.6166949851894752
-4.0035,-0.722158029550525,0.01268659609548085
-4.003,-0.1673089369510276,-0.3899856633008816
-4.0025,0.1954770082098522,-0.580725154593722
-4.002,0.3875401556484697,-0.6019184314042303
-4.0015,0.4622313796522482,-0.5171453241628908
-4.001,0.494241904225267,-0.3899856633009973
-4.0005,0.8143471499558821,-0.5171453241628138
-4,0.9317190733902845,-0.4323722169215513
-3.9995,0.8463576745288233,-0.09327978795619347
-3.999,0.6863050516635838,0.2881991946298341
-3.9985,0.5369226036560266,0.6166949851900245
-3.998,0.5369226036560266,0.6908714540261965
-3.9975,1.017080472251745,0.1610395337678249
-3.997,1.070431346540159,-0.5065486857577234
-3.9965,0.2701682322139607,-1.025783967610927
-3.996,-0.4767440078238243,-1.258910012524611
-3.9955,-0.7861790786966207,-1.089363798041932
-3.995,-0.5834457564006506,-0.4959520473525559
-3.9945,-0.2420001609548061,0.06566978812131802
-3.994,0.04609456020262521,0.383568940276341
-3.9935,0.2381577076409128,0.4683420475176805
-3.993,0.3341892813600565,0.383568940276341
-3.9925,0.3768699807907871,0.2034260873884947
-3.992,0.3768699807907871,-0.01910331912002144
-3.9915,0.3555296310754218,-0.2310360872233701
-3.991,0.3341892813600565,-0.4323722169215513
-3.9905,0.3128489316446912,-0.5277419625680583
-3.99,0.2061471830678648,-0.3370024712750445
-3.9895,-0.2099896363817582,0.08686306493165288
-3.989,-0.9569018764195432,0.6484849004055269
-3.9885,-1.46907026958831,0.8392243916985406
-3.988,-1.757164990745741,0.6166949851900245
-3.9875,-1.725154466172693,0.3729723018711736
-3.987,-1.255666772434657,-0.06148987274069118
-3.9865,-0.6367966306890638,-0.4429688553267188
-3.986,-0.1352984123779797,-0.6549016234300674
-3.9855,0.2061471830678648,-0.6760949002404023
-3.985,0.408880505363835,-0.5489352393783931
-3.9845,0.4942419042252961,-0.326405832869877
-3.984,0.6649647019482183,-0.1992461720078678
-3.9835,0.8143471499557753,-0.08268314955102604
-3.983,0.7396559259519968,0.2034260873884947
-3.9825,0.6116138276598051,0.5107286011383502
-3.982,0.5049120790829789,0.775644561267536
-3.9815,0.4515612047945656,0.9345941373450475
-3.981,0.7716664505250448,0.8286277532933731
-3.9805,1.059761171682476,0.6908714540261965
-3.98,0.3875401556484697,0.01268659609548085
-3.9795,-0.1779791118087102,-0.4959520473525559
-3.979,-0.1459685872356623,-0.8350444763179138
-3.9785,0.02475421048725994,-0.6654982618352349
-3.978,0.1741366584948169,-0.3052125560595421
-3.9775,0.2808384070716433,-0.008506680714854012
-3.977,0.3235191065023739,0.1292496185523226
-3.9765,0.3448594562177392,0.1292496185523226
-3.976,0.3448594562177392,0.04447651131098315
-3.9755,0.3448594562177392,-0.08268314955102604
-3.975,0.3341892813600565,-0.2098428104130352
-3.9745,0.3128489316446912,-0.2946159176543747
-3.974,0.291508581929326,-0.3370024712750445
-3.9735,0.2701682322139607,-0.2946159176543747
-3.973,0.09944543449103843,-0.1144730647665284
-3.9725,-0.5834457564006506,0.4153588554918433
-3.972,-1.244996597576974,0.9663840525605498
-3.9715,-1.607782542738184,0.9663840525605498
-3.971,-1.458400094730627,0.5319218779486851
-3.9705,-0.9035510021311299,0.09745970333682032
-3.97,-0.3273615598162672,-0.1886495336027004
-3.9695,0.09944543449103843,-0.3052125560595421
-3.969,0.3448594562177392,-0.3158091944647096
-3.9685,0.4622313796522482,-0.2310360872233701
-3.968,0.4942419042252961,-0.1674562567923655
-3.9675,0.5582629533713921,-0.1462629799820306
-3.967,0.79300680024041,-0.2310360872233701
-3.9665,0.79300680024041,-0.02969995752518888
-3.966,0.6649647019482183,0.2987958330350016
-3.9655,0.5262524287983441,0.6060983467848571
-3.965,0.4302208550792003,0.8392243916985406
-3.9645,0.5796033030867573,1.051157159801889
-3.964,1.251824319120764,1.37965295036208
-3.9635,1.860024286008674,1.676358825706768
-3.963,1.379866417412955,1.506812611224089
-3.9625,0.2594980573562781,0.5319218779486851
-3.962,-0.3807124341046804,-0.3052125560595421
-3.9615,-0.4127229586777283,-0.5383386009732256
-3.961,-0.2099896363817582,-0.474758770542221
-3.9605,0.01408403562957729,-0.3158091944647096
-3.96,0.1848068333524996,-0.1568596183871981
-3.9595,0.291508581929326,-0.04029659593035631
-3.959,0.3341892813600565,0.03387987290581572
-3.9585,0.3448594562177392,0.08686306493165288
-3.958,0.3341892813600565,0.1292496185523226
-3.9575,0.3128489316446912,0.2140227257936621
-3.957,0.2808384070716433,0.3411823866556712
-3.9565,0.2381577076409128,0.4895353243280153
-3.956,-0.1459685872356623,0.7438546460520338
-3.9555,-0.6474668055467465,0.9981739677760521
-3.955,-1.202315898146244,1.072350436612224
-3.9545,-1.522421143876723,1.061753798207057
-3.954,-1.447729919872945,0.8710143069140429
-3.9535,-0.9782422261349084,0.5107286011383502
-3.953,-0.4660738329661415,0.08686306493165288
-3.9525,-0.04993701351651855,-0.2204394488182027
-3.952,0.2381577076409128,-0.3370024712750445
-3.9515,0.3768699807907871,-0.2734226408440398
-3.951,0.4622313796522482,-0.1250697031716958
-3.9505,0.7503261008096795,-0.1038764263613609
-3.95,0.8463576745288233,-0.04029659593035631
-3.9495,0.7396559259519968,0.1080563417419877
-3.949,0.5902734779444399,0.2670059178194992
-3.9485,0.4729015545099309,0.4047622170866759
-3.948,0.4729015545099309,0.4471487707073456
-3.9475,0.9637295979633325,0.4683420475176805
-3.947,1.283834843693812,0.5955017083796896
-3.9465,0.5475927785137094,-0.05089323433552374
-3.946,-0.3593720843893152,-0.8562377531282487
-3.9455,-0.8288597781273515,-1.322489842955616
-3.945,-0.6794773301197943,-1.110557074852267
-3.9445,-0.3380317346739499,-0.6972881770507372
-3.944,-0.02859666380115328,-0.3370024712750445
-3.9435,0.1848068333524996,-0.1144730647665284
-3.943,0.3021787567870086,-0.008506680714854012
-3.9425,0.3448594562177392,0.01268659609548085
-3.942,0.3555296310754218,0.002089957690313421
-3.9415,0.3341892813600565,-0.01910331912002144
-3.941,0.3021787567870086,-0.008506680714854012
-3.9405,0.2808384070716433,0.02328323450064829
-3.94,0.2488278824985954,0.1080563417419877
-3.9395,-0.1032878878049318,0.4153588554918433
-3.939,-0.8822106524157645,0.92399749893988
-3.9385,-1.522421143876723,1.369056311956912
-3.938,-1.618452717595867,1.316073119931075
-3.9375,-1.223656247861609,0.7650479228623686
-3.937,-0.6474668055467465,0.2352160026039969
-3.9365,-0.1459685872356623,-0.1780528951975329
-3.936,0.1954770082101822,-0.4217755785163839
-3.9355,0.3875401556484697,-0.4641621321370536
-3.935,0.4515612047945656,-0.326405832869877
-3.9345,0.4408910299368829,-0.1568596183871981
-3.934,0.4729015545099309,-0.008506680714854012
-3.9335,0.5262524287983441,0.06566978812131802
-3.933,0.4835717293676135,0.1822328105781598
-3.9325,0.4408910299368829,0.3411823866556712
-3.932,0.3875401556484697,0.5107286011383502
-3.9315,0.3875401556484697,0.6166949851900245
-3.931,0.7716664505250448,0.2670059178194992
-3.9305,1.411876941986003,-0.4641621321370536
-3.93,1.19847344483235,-1.121153713257435
-3.9295,0.291508581929326,-1.502632695843462
-3.929,-0.4980843575391895,-1.523825972653797
-3.9285,-0.5941159312583333,-0.9410108603695881
-3.928,-0.3700422592469978,-0.2734226408440398
-3.9275,-0.09261771294724913,0.1716361721729923
-3.927,0.1314559590640864,0.3623756634660061
-3.9265,0.2594980573562781,0.3623756634660061
-3.926,0.3235191065023739,0.2352160026039969
-3.9255,0.3448594562177392,0.04447651131098315
-3.925,0.3341892813600565,-0.1462629799820306
-3.9245,0.3128489316446912,-0.2946159176543747
-3.924,0.2808384070716433,-0.3687923864905467
-3.9235,0.2488278824985954,-0.3687923864905467
-3.923,0.1848068333524996,-0.2098428104130352
-3.9225,-0.2099896363817582,0.2881991946298341
-3.922,-0.8822106524157645,0.8710143069140429
-3.9215,-1.319687821580753,1.231300012689736
-3.921,-1.351698346153801,1.135930267043229
-3.9205,-1.06360362499637,0.7120647308365314
-3.92,-0.5407650569699201,0.2034260873884947
-3.9195,-0.1032878878049318,-0.1886495336027004
-3.919,0.1634664836371343,-0.4323722169215513
-3.9185,0.3021787567870086,-0.474758770542221
-3.918,0.3661998059331045,-0.4111789401112165
-3.9175,0.4622313796522482,-0.3370024712750445
-3.917,0.7609962756673623,-0.4429688553267188
-3.9165,0.7823366253827275,-0.2204394488182027
-3.916,0.6649647019482183,0.1610395337678249
-3.9155,0.5262524287983441,0.5319218779486851
-3.915,0.4302208550792003,0.8180311148882058
-3.9145,0.5582629533713921,0.8074344764830383
-3.914,1.049090996824793,0.457745409112513
-3.9135,0.6542945270905358,-0.1462629799820306
-3.913,-0.2846808603855366,-0.7714646458869092
-3.9125,-1.031593100423322,-1.121153713257435
-3.912,-0.9995825758502737,-0.7608680074817418
-3.9115,-0.6154562809736985,-0.1674562567923655
-3.911,-0.1993194615240755,0.2776025562246667
-3.9105,0.09944543449103843,0.4789386859228479
-3.91,0.2701682322139607,0.4789386859228479
-3.9095,0.3448594562177392,0.3305857482505039
-3.909,0.3555296310754218,0.1186529801471552
-3.9085,0.3448594562177392,-0.1250697031716958
-3.908,0.3128489316446912,-0.3158091944647096
-3.9075,0.2808384070716433,-0.4535654937318862
-3.907,0.2594980573562781,-0.5277419625680583
-3.9065,0.1848068333524996,-0.5171453241628908
-3.906,-0.3487019095316325,-0.09327978795619347
-3.9055,-1.191645723288561,0.5107286011383502
-3.905,-1.83185621474952,0.9663840525605498
-3.9045,-1.83185621474952,0.8604176685088755
-3.904,-1.234326422719292,0.3305857482505039
-3.9035,-0.5514352318276028,-0.1886495336027004
-3.903,-0.06060718837420119,-0.4959520473525559
-3.9025,0.2381577076409128,-0.6231117082145651
-3.902,0.3768699807907871,-0.6337083466197325
-3.9015,0.4302208550792003,-0.4853554089473885
-3.901,0.4408910299368829,-0.252229364033705
-3.9005,0.5902734779444399,-0.08268314955102604
-3.9,0.6222840025174878,0.13984625695749
-3.8995,0.5475927785137094,0.3941655786815084
-3.899,0.4515612047945656,0.627291623595192
-3.8985,0.3875401556484697,0.8286277532933731
-3.898,0.4195506802215176,0.9134008605347127
-3.8975,0.8997085488172365,0.7120647308365314
-3.897,1.177133095116985,0.3411823866556712
-3.8965,0.5155822539406614,-0.3052125560595421
-3.896,-0.3593720843893152,-0.8350444763179138
-3.8955,-0.7008176798351597,-0.7502713690765743
-3.895,-0.5300948821122373,-0.2310360872233701
-3.8945,-0.2313299860971235,0.2458126410091644
-3.894,0.03542438534494258,0.5213252395435176
-3.8935,0.2168173579255475,0.5637117931641874
-3.893,0.3021787567870086,0.457745409112513
-3.8925,0.3341892813600565,0.2564092794143318
-3.892,0.3341892813600565,0.02328323450064829
-3.8915,0.3128489316446912,-0.1992461720078678
-3.891,0.291508581929326,-0.3475991096802118
-3.8905,0.2701682322139607,-0.4429688553267188
-3.89,0.2488278824985954,-0.4959520473525559
-3.8895,0.05676473506030786,-0.3475991096802118
-3.889,-0.5087545323968721,0.1186529801471552
-3.8885,-0.8181896032696687,0.02328323450064829
-3.888,-1.095614149569417,-0.5383386009732256
-3.8875,-1.212986073003927,-0.5595318777835605
