Class_10_Using_Wats_App/Class_10_WatsApp_Turki_9.csv

#Digilent WaveForms Oscilloscope Acquisition
#Device Name: EExplorer
#Serial Number: SN:210151A2B84A
#Date Time: 2021-01-31 11:25:11.899
#Sample rate: 2000Hz
#Samples: 16384
#Trigger: Source: Channel 1 Type: Edge Condition: Rising Level: 0 V Hyst.: Auto HoldOff: 0 s
#Channel 1: Range: 1 V/div Offset: 0 V Attenuation: 1 X
#Channel 2: Range: 1 V/div Offset: 0 V Attenuation: 1 X
#Power Supplies: ON
#Fixed Supply: ON
#Voltage: 3.3 V Readback: 3.322 V
#Positive Supply: ON
#Voltage: 3.7 V Readback: 3.718 V
#Current: 40 mA Readback: 17 mA
#Negative Supply: ON
#Voltage: -3.7 V Readback: -3.347 V
#Current: -40 mA Readback: -9 mA
#Reference 1: ON
#Voltage: 0 V
#Reference 2: ON
#Voltage: 0 V

Time (s),Channel 1 (V),Channel 2 (V)
-4.096,0.1848068333524996,0.08686306493165288
-4.0955,0.1741366584948266,0.1292496185522841
-4.095,0.3128489316449824,0.2670059178194125
-4.0945,0.6329541773751706,0.1716361721729923
-4.094,0.3555296310756741,-0.432372216921002
-4.0935,-0.007256314085729761,-0.7926579226970127
-4.093,0.05676473506030786,-0.5383386009732256
-4.0925,0.3021787567867854,-0.156859618387545
-4.092,0.4942419042253252,0.1822328105783429
-4.0915,0.5262524287983441,0.383568940276341
-4.091,0.4835717293676135,0.4683420475176805
-4.0905,0.4195506802214594,0.5425185163539296
-4.09,0.3555296310754218,0.627291623595192
-4.0895,0.3982103305061524,0.775644561267536
-4.089,0.4515612047945171,0.881610945319114
-4.0885,0.408880505363835,0.8604176685088755
-4.088,0.3448594562177392,0.8074344764830383
-4.0875,0.2808384070717015,0.7544512844572493
-4.087,0.1954770082097358,0.6802748156205858
-4.0865,-0.2953510352432193,0.1928294489833272
-4.086,-0.7861790786961743,-0.5807251545931919
-4.0855,-1.266336947292689,-1.237716735714623
-4.085,-1.650463242168915,-1.619195718300304
-4.0845,-1.362368521011746,-1.237716735714623
-4.084,-0.7968492535538571,-0.5807251545934039
-4.0835,-0.3060212101009019,-0.04029659593035631
-4.083,0.02475421048725994,0.2987958330350016
-4.0825,0.2061471830679231,0.4577454091125323
-4.082,0.2701682322139607,0.4789386859228479
-4.0815,0.2808384070716433,0.4365521323021782
-4.081,0.2594980573562975,0.3729723018712314
-4.0805,0.2381577076409128,0.309392471440169
-4.08,0.2061471830678648,0.2564092794143318
-4.0795,0.184806833352519,0.2352160026040162
-4.079,0.1741366584948654,0.2034260873884754
-4.0785,0.2274875327832301,0.1822328105781598
-4.078,0.238157707640903,-0.188649533602363
-4.0775,-0.1993194615244055,-0.8350444763183861
-4.077,-0.5621054066852853,-1.354279758171118
-4.0765,-0.4980843575392477,-1.237716735714382
-4.076,-0.04993701351614978,-0.665498261834724
-4.0755,0.3555296310754218,-0.1038764263613609
-4.075,0.5475927785137094,0.309392471440169
-4.0745,0.5689331282290067,0.5107286011384369
-4.074,0.4942419042252961,0.6060983467848571
-4.0735,0.408880505363835,0.6378882620003594
-4.073,0.3982103305061621,0.5849050699745704
-4.0725,0.5796033030867573,0.4047622170866759
-4.072,0.5689331282290746,0.4365521323021782
-4.0715,0.4729015545100183,0.5425185163537561
-4.071,0.3555296310753441,0.6166949851900438
-4.0705,0.2701682322139607,0.6378882620003594
-4.07,-0.06060718837390039,0.3517790250610989
-4.0695,-0.6261264558318373,-0.3687923864912021
-4.069,-1.127624674142465,-1.089363798041932
-4.0685,-1.575772018165136,-1.640388995110639
-4.068,-1.501080794160882,-1.576809164679094
-4.0675,-0.9782422261349084,-0.9833974139902578
-4.067,-0.4447334832507763,-0.4217755785163839
-4.0665,-0.06060718837399739,-0.04029659593018283
-4.066,0.1634664836371343,0.1504428953626575
-4.0655,0.2488278824985954,0.2034260873884947
-4.065,0.2701682322139413,0.1928294489833368
-4.0645,0.2701682322139607,0.13984625695749
-4.064,0.2381577076409128,0.09745970333682032
-4.0635,0.2274875327832398,0.07626642652650473
-4.063,0.2061471830678551,0.06566978812133729
-4.0625,0.1954770082101822,0.08686306493165288
-4.062,0.1634664836371634,0.1292496185522841
-4.0615,-0.1993194615245608,-0.1780528951981016
-4.061,-0.7328282044082075,-0.8032545611024114
-4.0605,-1.06360362499637,-1.333086481360783
-4.06,-0.9569018764190094,-1.248313374118913
-4.0595,-0.3700422592469978,-0.6654982618352349
-4.059,0.1954770082101822,-0.01910331912002144
-4.0585,0.5049120790826974,0.4683420475172372
-4.058,0.6009436528021226,0.7650479228623686
-4.0575,0.5582629533713921,0.8816109453192104
-4.057,0.4729015545100085,0.8498210301037369
-4.0565,0.3982103305061524,0.7862411996727035
-4.056,0.6222840025174878,0.4895353243280153
-4.0555,0.7183155762365442,0.3835689402764374
-4.055,0.6222840025173423,0.4895353243281406
-4.0545,0.4622313796522482,0.627291623595192
-4.054,0.334189281360173,0.7226613692416122
-4.0535,0.1314559590635332,0.6908714540256665
-4.053,-0.4767440078238243,0.1080563417419877
-4.0525,-1.202315898146244,-0.7290780922662394
-4.052,-1.831856214749549,-1.439052865412641
-4.0515,-1.863866739322568,-1.640388995110639
-4.051,-1.234326422719292,-1.121153713257435
-4.0505,-0.6047861061165883,-0.5383386009737556
-4.05,-0.1352984123779797,-0.1250697031716958
-4.0495,0.1314559590640864,0.09745970333682032
-4.049,0.2594980573561616,0.1716361721729249
-4.0485,0.2915085819293163,0.1504428953626189
-4.048,0.2808384070716433,0.1080563417419877
-4.0475,0.2488278824986245,0.05507314971619878
-4.047,0.2274875327832204,0.01268659609547122
-4.0465,0.2168173579255475,0.002089957690313421
-4.046,0.1954770082102016,0.01268659609547122
-4.0455,0.1954770082102501,0.04447651131103134
-4.045,0.2701682322139607,0.09745970333682032
-4.0445,0.408880505363835,-0.008506680714854012
-4.044,0.07810508477527525,-0.5595318777839846
-4.0435,-0.3593720843893152,-1.025783967610927
-4.043,-0.2633405106701714,-0.8138511995075789
-4.0425,0.06743490991768969,-0.2734226408445313
-4.042,0.3448594562177392,0.2034260873884947
-4.0415,0.4622313796522482,0.4789386859228479
-4.041,0.4835717293675941,0.7120647308363194
-4.0405,0.4408910299368247,0.8498210301037562
-4.04,0.3768699807907871,0.9028042221295453
-4.0395,0.398210330506133,0.913400860534703
-4.039,0.4622313796522094,0.9028042221294778
-4.0385,0.4195506802215176,0.8286277532933731
-4.038,0.35552963107548,0.7438546460521109
-4.0375,0.2915085819292775,0.6696781772158038
-4.037,0.2381577076409128,0.6060983467848571
-4.0365,-0.124628237520297,0.3305857482505039
-4.036,-0.8181896032700569,-0.4005823017067237
-4.0355,-1.244996597576974,-1.142346990067769
-4.035,-1.298347471865388,-1.523825972653797
-4.0345,-0.903551002131489,-1.142346990068116
-4.034,-0.4447334832507763,-0.570128516188728
-4.0335,-0.08194753808956648,-0.1038764263613609
-4.033,0.1314559590638923,0.1716361721727418
-4.0325,0.2381577076409419,0.2881991946298534
-4.032,0.2701682322139607,0.309392471440169
-4.0315,0.2594980573562878,0.2670059178195378
-4.031,0.238157707640903,0.2246193641987909
-4.0305,0.2274875327832301,0.1822328105781598
-4.03,0.2061471830678842,0.1504428953626864
-4.0295,0.1954770082101725,0.1504428953626671
-4.029,0.1848068333524996,0.1610395337678249
-4.0285,0.04609456020262521,0.1186529801471552
-4.028,-0.5087545323974446,-0.3370024712756324
-4.0275,-1.138294849000148,-0.9833974139902578
-4.027,-1.30901764672307,-1.38606967338662
-4.0265,-0.9035510021314987,-1.078767159637044
-4.026,-0.2526703358124887,-0.4959520473525559
-4.0255,0.2381577076409128,0.002089957690313421
-4.025,0.4622313796520444,0.2987958330347318
-4.0245,0.5155822539406129,0.4683420475177865
-4.024,0.4622313796522482,0.5849050699745222
-4.0235,0.3875401556485377,0.6378882620003112
-4.023,0.3982103305063174,0.6272916235951823
-4.0225,0.5796033030867573,0.6166949851900245
-4.022,0.5689331282290843,0.648484900405498
-4.0215,0.4622313796521512,0.669678177215852
-4.021,0.3555296310754218,0.6590815388106942
-4.0205,0.2808384070716433,0.627291623595192
-4.02,0.1207857842058603,0.4153588554912169
-4.0195,-0.4767440078238243,-0.2734226408440398
-4.019,-1.031593100423322,-1.036380606016095
-4.0185,-1.373038695868856,-1.650985633515247
-4.018,-1.255666772434657,-1.576809164679634
-4.0175,-0.7861790786966207,-0.9516074987747555
-4.017,-0.3273615598166845,-0.3687923864910768
-4.0165,0.003413860772059626,0.03387987290599884
-4.016,0.1848068333524996,0.2352160026039969
-4.0155,0.2594980573562101,0.2987958330349437
-4.015,0.270168232213951,0.2881991946297956
-4.0145,0.2594980573562781,0.2458126410091644
-4.014,0.2381577076409322,0.2034260873885332
-4.0135,0.2274875327832107,0.1610395337678153
-4.013,0.2061471830678648,0.1504428953626575
-4.0125,0.1954770082101822,0.1610395337678249
-4.012,0.1954770082104248,0.1928294489836067
-4.0115,0.4622313796522482,0.5001319627331828
-4.011,0.5796033030867573,0.5001319627331828
-4.0105,0.1848068333528586,-0.178052895196916
-4.01,-0.1459685872356623,-0.6125150698093976
-4.0095,0.04609456020262521,-0.4429688553267188
-4.009,0.3448594562174674,-0.0826831495513537
-4.0085,0.5049120790830177,0.2564092794145824
-4.008,0.5475927785137094,0.5319218779486851
-4.0075,0.4942419042253446,0.690871454026052
-4.007,0.4088805053637671,0.7438546460520626
-4.0065,0.3341892813600565,0.775644561267536
-4.006,0.3661998059331045,0.849821030103708
-4.0055,0.3768699807907483,0.8922075837243585
-4.005,0.3341892813600565,0.8710143069140429
-4.0045,0.291508581929326,0.8286277532933731
-4.004,0.2488278824984401,0.7862411996725011
-4.0035,0.07810508477567314,0.5637117931641874
-4.003,-0.4767440078238243,-0.1462629799820306
-4.0025,-1.159635198714892,-0.9198175835585497
-4.002,-1.821186039891837,-1.460246142222792
-4.0015,-2.045259711903173,-1.545019249464132
-4.001,-1.415719395300469,-1.0257839676114
-4.0005,-0.7328282044077417,-0.4217755785159791
-4,-0.2206598112394408,0.02328323450064829
-3.9995,0.09944543449103843,0.2670059178194992
-3.999,0.2488278824985954,0.3517790250608387
-3.9985,0.291508581929326,0.3411823866556712
-3.998,0.2808384070716433,0.2881991946298341
-3.9975,0.2594980573562781,0.2246193641988295
-3.997,0.2381577076409128,0.1716361721729923
-3.9965,0.2061471830678648,0.1292496185523226
-3.996,0.1848068333524996,0.1186529801471552
-3.9955,0.1634664836371343,0.1292496185523226
-3.995,-0.1779791118087102,-0.1144730647665284
-3.9945,-0.754168554123573,-0.7290780922662394
-3.994,-1.020922925565639,-1.301296566145281
-3.9935,-1.180975548430879,-1.640388995110639
-3.993,-0.7755089038389382,-1.301296566145281
-3.9925,-0.1139580626626144,-0.5913217929990628
-3.992,0.3768699807907871,0.02328323450064829
-3.9915,0.5902734779444399,0.4153588554918433
-3.991,0.6009436528021226,0.5637117931641874
-3.9905,0.5369226036560266,0.6484849004055269
-3.99,0.4302208550792003,0.701468092431364
-3.9895,0.4515612047945656,0.775644561267536
-3.989,0.5049120790829789,0.7332580076468663
-3.9885,0.4515612047945656,0.6484849004055269
-3.988,0.3661998059331045,0.55311515475902
-3.9875,0.291508581929326,0.4789386859228479
-3.987,0.2061471830678648,0.3623756634660061
-3.9865,-0.3166913849585846,-0.1780528951975329
-3.986,-0.9889124009925911,-0.9198175835592532
-3.9855,-1.287677297007705,-1.555615887869299
-3.985,-1.138294849000148,-1.672178910326141
-3.9845,-0.7008176798351597,-1.078767159636765
-3.984,-0.2846808603855366,-0.4535654937318862
-3.9835,0.01408403562957729,0.01268659609548085
-3.983,0.1848068333524996,0.2881991946298341
-3.9825,0.2594980573562781,0.3941655786815084
-3.982,0.2701682322139607,0.4047622170866759
-3.9815,0.2594980573562781,0.3729723018711736
-3.981,0.2381577076409128,0.3199891098453364
-3.9805,0.2274875327832301,0.2881991946298341
-3.98,0.2061471830678648,0.2670059178194992
-3.9795,0.1954770082101822,0.2564092794143318
-3.979,0.1848068333524996,0.2670059178194992
-3.9785,0.0674349099179905,0.2352160026039969
-3.978,-0.4980843575391895,-0.1038764263613609
-3.9775,-1.127624674142465,-0.7502713690765743
-3.977,-1.490410619303675,-1.311893204550448
-3.9765,-1.223656247861609,-1.280103289334946
-3.976,-0.4554036581084589,-0.7502713690765743
-3.9755,0.2274875327832301,-0.1356663415768632
-3.975,0.6116138276598051,0.3517790250608387
-3.9745,0.707645401378949,0.6166949851900245
-3.974,0.6116138276598051,0.7438546460520338
-3.9735,0.4835717293676135,0.7650479228623686
-3.973,0.4195506802215176,0.7438546460520338
-3.9725,0.4622313796522482,0.6378882620003594
-3.972,0.4302208550792003,0.5849050699745222
-3.9715,0.3555296310754218,0.55311515475902
-3.971,0.291508581929326,0.5319218779486851
-3.9705,0.2488278824985954,0.5107286011383502
-3.97,0.02475421048725994,0.3411823866556712
-3.9695,-0.6474668055467465,-0.3052125560595421
-3.969,-1.191645723288561,-1.046977244421262
-3.9685,-1.533091318734406,-1.661582271920973
-3.968,-1.415719395299897,-1.629792356705471
-3.9675,-0.8928808272734472,-0.9939940523954253
-3.967,-0.391382608962363,-0.3899856633008816
-3.9665,-0.02859666380115328,0.03387987290581572
-3.966,0.1848068333524996,0.2670059178194992
-3.9655,0.2701682322139607,0.3411823866556712
-3.965,0.2808384070716433,0.3411823866556712
-3.9645,0.2701682322139607,0.2987958330350016
-3.964,0.2488278824985954,0.2564092794143318
-3.9635,0.2274875327832301,0.2140227257936621
-3.963,0.2061471830678648,0.2034260873884947
-3.9625,0.1954770082101822,0.2140227257936621
-3.962,0.142126133921769,0.1928294489833272
-3.9615,-0.2526703358124887,0.2246193641988295
-3.961,-0.8502001278427167,0.002089957690313421
-3.9605,-1.127624674142465,-0.6337083466197325
-3.96,-1.042263275281004,-0.9833974139902578
-3.9595,-0.4447334832507763,-0.7502713690765743
-3.959,0.1848068333524996,-0.2946159176543747
-3.9585,0.5796033030867573,0.13984625695749
-3.958,0.6756348768059011,0.457745409112513
-3.9575,0.6009436528021226,0.6484849004055269
-3.957,0.4835717293676135,0.7120647308365314
-3.9565,0.3982103305061524,0.7332580076468663
-3.956,0.6542945270905358,0.5637117931641874
-3.9555,0.9637295979633325,0.2034260873884947
-3.955,0.8997085488172365,0.2034260873884947
-3.9545,0.6756348768059011,0.3517790250608387
-3.954,0.4622313796522482,0.5107286011383502
-3.9535,0.1954770082101822,0.457745409112513
-3.953,-0.4447334832507763,-0.1568596183871981
-3.9525,-0.8608703027003992,-0.9304142219644207
-3.952,-1.074273799854052,-1.375473034981453
-3.9515,-1.234326422719292,-1.110557074852267
-3.951,-0.9569018764195432,-0.718481453861072
-3.9505,-0.5194247072545548,-0.3581957480853793
-3.95,-0.1459685872356623,-0.1144730647665284
-3.9495,0.09944543449103843,0.002089957690313421
-3.949,0.2274875327832301,0.03387987290581572
-3.9485,0.2701682322139607,0.03387987290581572
-3.948,0.2701682322139607,0.02328323450064829
-3.9475,0.2488278824985954,0.02328323450064829
-3.947,0.2381577076409128,0.04447651131098315
-3.9465,0.2168173579255475,0.07626642652648545
-3.946,0.2061471830678648,0.1504428953626575
-3.9455,0.1741366584948169,0.2352160026039969
-3.945,0.02475421048725994,0.1292496185523226
-3.9445,-0.3700422592469978,-0.400582301706049
-3.944,-0.6047861061160158,-0.9939940523954253
-3.9435,-0.807519428411986,-1.364876396576285
-3.943,-0.5407650569699201,-1.01518732920576
-3.9425,-0.007256314085787988,-0.3475991096802118
-3.942,0.4195506802215176,0.2352160026039969
-3.9415,0.6009436528021226,0.5743084315693548
-3.941,0.6116138276598051,0.7332580076468663
-3.9405,0.5369226036560266,0.8286277532933731
-3.94,0.4302208550792003,0.8604176685088755
-3.9395,0.4622313796522482,0.9663840525605498
-3.939,0.5155822539406614,1.00877060618122
-3.9385,0.4515612047945656,0.9028042221295453
-3.938,0.3661998059331045,0.775644561267536
-3.9375,0.3021787567870086,0.6484849004055269
-3.937,0.2168173579255475,0.55311515475902
-3.9365,-0.1673089369510276,0.1716361721729923
-3.936,-0.7755089038389382,-0.5595318777835605
-3.9355,-1.223656247861609,-1.258910012524611
-3.935,-1.415719395299897,-1.693372187136476
-3.9345,-1.074273799854052,-1.290699927740113
-3.934,-0.5834457564006506,-0.6549016234300674
-3.9335,-0.1673089369510276,-0.1462629799820306
-3.933,0.09944543449103843,0.1716361721729923
-3.9325,0.2274875327832301,0.3199891098453364
-3.932,0.2701682322139607,0.3517790250608387
-3.9315,0.2701682322139607,0.3199891098453364
-3.931,0.2594980573562781,0.2670059178194992
-3.9305,0.2381577076409128,0.2246193641988295
-3.93,0.2168173579255475,0.1928294489833272
-3.9295,0.2061471830678648,0.1822328105781598
-3.929,0.1954770082101822,0.1822328105781598
-3.9285,0.1207857842064037,0.13984625695749
-3.928,-0.4020527838200457,-0.3158091944647096
-3.9275,-0.7968492535543035,-0.9728007755850904
-3.927,-1.031593100423322,-1.502632695843462
-3.9265,-0.8608703027003992,-1.38606967338662
-3.926,-0.2206598112394408,-0.718481453861072
-3.9255,0.3555296310754218,-0.1038764263613609
-3.925,0.6756348768059011,0.3199891098453364
-3.9245,0.7396559259519968,0.5955017083796896
-3.924,0.6542945270905358,0.7438546460520338
-3.9235,0.5049120790829789,0.7650479228623686
-3.923,0.4515612047945656,0.6908714540261965
-3.9225,0.6116138276598051,0.4789386859228479
-3.922,0.5902734779444399,0.4683420475176805
-3.9215,0.4729015545099309,0.55311515475902
-3.921,0.3661998059331045,0.6166949851900245
-3.9205,0.2701682322139607,0.6378882620003594
-3.92,-0.007256314085787988,0.5637117931641874
-3.9195,-0.5407650569699201,0.7226613692416989
-3.919,-1.074273799854052,0.1928294489833272
-3.9185,-1.362368521011484,-0.2734226408440398
-3.918,-1.383708870726849,-0.4323722169215513
-3.9175,-0.9462317015618604,-0.3475991096802118
-3.917,-0.4554036581084589,-0.1780528951975329
-3.9165,-0.07127736323188383,-0.02969995752518888
-3.916,0.142126133921769,0.05507314971615059
-3.9155,0.2488278824985954,0.1080563417419877
-3.915,0.2808384070716433,0.1292496185523226
-3.9145,0.2701682322139607,0.13984625695749
-3.914,0.2488278824985954,0.1610395337678249
-3.9135,0.2274875327832301,0.1928294489833272
-3.913,0.2061471830678648,0.2352160026039969
-3.9125,0.1954770082101822,0.2881991946298341
-3.912,0.1741366584948169,0.3305857482505039
-3.9115,-0.2206598112394408,-0.01910331912002144
-3.911,-0.7861790786966207,-0.6972881770507372
-3.9105,-1.127624674142465,-1.322489842955616
-3.91,-1.084943974711735,-1.42845622700729
-3.9095,-0.4767440078238243,-0.792657922697244
-3.909,0.142126133921769,-0.08268314955102604
-3.9085,0.5049120790829789,0.4683420475176805
-3.908,0.6116138276598051,0.7862411996727035
-3.9075,0.5796033030867573,0.849821030103708
-3.907,0.4835717293676135,0.7650479228623686
-3.9065,0.408880505363835,0.701468092431364
-3.906,0.5689331282290746,0.5213252395435176
-3.9055,0.6329541773751706,0.4683420475176805
-3.905,0.5475927785137094,0.5107286011383502
-3.9045,0.4195506802215176,0.5743084315693548
-3.904,0.3235191065023739,0.6166949851900245
-3.9035,0.1848068333524996,0.5213252395435176
-3.903,-0.3700422592469978,-0.02969995752518888
-3.9025,-0.9569018764195432,-0.7820612842920766
-3.902,-1.405049220442214,-1.449649503817625
-3.9015,-1.479740444445993,-1.650985633515806
-3.901,-1.020922925565639,-1.110557074852267
-3.9005,-0.4980843575391895,-0.5065486857577234
-3.9,-0.1032878878049318,-0.06148987274069118
-3.8995,0.142126133921769,0.1822328105781598
-3.899,0.2488278824985954,0.2670059178194992
-3.8985,0.2808384070716433,0.2564092794143318
-3.898,0.2808384070716433,0.2034260873884947
-3.8975,0.2594980573562781,0.13984625695749
-3.897,0.2381577076409128,0.09745970333682032
-3.8965,0.2168173579255475,0.06566978812131802
-3.896,0.2061471830678648,0.05507314971615059
-3.8955,0.1954770082101822,0.06566978812131802
-3.895,-0.04993701351651855,-0.1250697031716958
-3.8945,-0.4340633083930936,-0.6972881770507372
-3.894,-0.6794773301197943,-1.311893204550448
-3.8935,-0.7434983792658902,-1.629792356705471
-3.893,-0.3487019095316325,-1.195330182093607
-3.8925,0.1527963087794516,-0.5277419625680583
-3.892,0.4835717293676135,0.07626642652648545
-3.8915,0.5796033030867573,0.4895353243280153
-3.891,0.5262524287983441,0.6908714540261965
-3.8905,0.4408910299368829,0.7438546460520338
-3.89,0.3555296310754218,0.7332580076468663
-3.8895,0.408880505363835,0.6484849004055269
-3.889,0.4622313796522482,0.5849050699745222
-3.8885,0.408880505363835,0.5849050699745222
-3.888,0.3448594562177392,0.6060983467848571
-3.8875,0.291508581929326,0.6166949851900245
-3.887,0.2274875327832301,0.5955017083796896
-3.8865,-0.1139580626626144,0.2987958330350016
