Class_10_Using_Wats_App/Class_10_WatsApp_UZ_11.csv

#Digilent WaveForms Oscilloscope Acquisition
#Device Name: EExplorer
#Serial Number: SN:210151A2B84A
#Date Time: 2021-01-18 13:54:23.429
#Sample rate: 2000Hz
#Samples: 16384
#Trigger: Source: Channel 1 Type: Edge Condition: Rising Level: 0 V Hyst.: Auto HoldOff: 0 s
#Channel 1: Range: 1 V/div Offset: 0 V Attenuation: 1 X
#Channel 2: Range: 1 V/div Offset: 0 V Attenuation: 1 X
#Power Supplies: ON
#Fixed Supply: ON
#Voltage: 3.3 V Readback: 3.323 V
#Positive Supply: ON
#Voltage: 3.7 V Readback: 3.703 V
#Current: 40 mA Readback: 20 mA
#Negative Supply: ON
#Voltage: -3.7 V Readback: -4.026 V
#Current: -40 mA Readback: -2 mA
#Reference 1: ON
#Voltage: 0 V
#Reference 2: ON
#Voltage: 0 V

Time (s),Channel 1 (V),Channel 2 (V)
-4.096,0.857027849386506,-0.7820612842920766
-4.0955,0.7823366253827955,-0.02969995752587307
-4.095,0.6649647019480437,0.4047622170868204
-4.0945,0.4729015545099309,0.5637117931641874
-4.094,0.280838407071818,0.5001319627332407
-4.0935,0.1314559590640378,0.3835689402763218
-4.093,0.07810508477567314,0.3623756634660061
-4.0925,0.05676473506032727,0.3411823866556905
-4.092,0.02475421048723082,0.309392471440169
-4.0915,-0.007256314085787988,0.309392471440169
-4.091,-0.01792648894347063,0.3411823866556712
-4.0905,-0.1673089369515225,0.2458126410086729
-4.09,-0.7114878546928423,-0.2946159176543747
-4.0895,-1.415719395299897,-0.9410108603695881
-4.089,-1.693143941599393,-1.290699927739795
-4.0885,-1.938557963326346,-1.449649503817625
-4.088,-1.799845690176472,-1.163540266878104
-4.0875,-1.234326422719806,-0.4005823017067429
-4.087,-0.754168554123146,0.2564092794148715
-4.0865,-0.2846808603855366,0.849821030103708
-4.086,-0.5300948821120142,0.6802748156211833
-4.0855,-0.5834457564004856,0.6590815388108581
-4.085,-0.4020527838200457,0.8392243916985406
-4.0845,-0.2526703358126245,0.9557874141552763
-4.084,-0.06060718837413326,1.093543713422559
-4.0835,0.01408403562957729,1.093543713422559
-4.083,0.01408403562957729,1.00877060618122
-4.0825,0.01408403562976168,0.9134008605343464
-4.082,0.2168173579255475,0.5107286011383502
-4.0815,0.8143471499557753,-0.5277419625680583
-4.081,0.9743997728208694,-1.439052865411629
-4.0805,0.8676980242441885,-2.106641084938006
-4.08,1.102441871113207,-2.477523429118866
-4.0795,1.251824319120628,-2.180817553774448
-4.079,1.209143619689849,-1.0999604364463
-4.0785,1.006410297394063,-0.2204394488182027
-4.078,0.7183155762368936,0.3305857482500028
-4.0775,0.4302208550789965,0.5637117931641777
-4.077,0.2061471830678648,0.55311515475902
-4.0765,0.08877525963346253,0.4895353243280732
-4.076,0.0460945602025961,0.4471487707072492
-4.0755,0.01408403562957729,0.3411823866556712
-4.075,-0.007256314085787988,0.2564092794143318
-4.0745,-0.02859666380119209,0.2034260873884561
-4.074,-0.07127736323188383,0.1610395337678249
-4.0735,-0.5514352318276028,-0.2946159176543747
-4.073,-1.319687821580054,-0.9833974139896314
-4.0725,-1.67180359188428,-1.502632695843462
-4.072,-1.863866739322568,-1.852321763213987
-4.0715,-1.725154466172819,-1.534422611059254
-4.071,-1.180975548430384,-0.6654982618345024
-4.0705,-0.6367966306890638,0.13984625695749
-4.07,-0.2526703358128381,0.7120647308360111
-4.0695,-0.03926683865874857,1.040560521396857
-4.069,0.05676473506030786,1.188913459069066
-4.0685,0.07810508477567314,1.220703374284568
-4.068,0.05676473506020111,1.199510097474089
-4.0675,-0.06060718837420119,1.040560521396722
-4.067,-0.007256314085787988,1.040560521396722
-4.0665,-0.6688071552620438,0.3305857482505039
-4.066,-0.5941159312583333,0.3305857482505039
-4.0655,-0.4127229586777283,0.3411823866556712
-4.065,0.1527963087789372,-0.2098428104125341
-4.0645,0.6222840025174878,-1.01518732920576
-4.064,0.79300680024041,-1.703968825541643
-4.0635,0.9210488985324853,-1.396666311792067
-4.063,0.9850699476786492,-0.6972881770501493
-4.0625,0.9317190733902845,-0.05089323433552374
-4.062,0.7823366253828634,0.2881991946295257
-4.0615,0.5796033030865633,0.457745409112513
-4.061,0.3661998059331045,0.457745409112513
-4.0605,0.1954770082101822,0.3941655786815084
-4.06,0.08877525963330726,0.3199891098453461
-4.0595,0.03542438534494258,0.3305857482505039
-4.059,0.01408403562957729,0.3411823866556712
-4.0585,-0.00725631408576858,0.351779025060829
-4.058,-0.01792648894347063,0.383568940276341
-4.0575,-0.02859666380115328,0.4471487707073456
-4.057,-0.3700422592466873,0.2034260873887163
-4.0565,-1.127624674142465,-0.570128516188728
-4.056,-1.842526389607202,-1.301296566145281
-4.0555,-2.290673733629466,-1.756952017567066
-4.055,-2.386705307348435,-1.725162102351236
-4.0545,-1.746494815888059,-0.9092209451540858
-4.054,-1.010252750708626,0.002089957689484612
-4.0535,-0.4447334832504657,0.7120647308369072
-4.053,-0.1032878878049318,1.125333628638062
-4.0525,0.05676473506030786,1.326669758336243
-4.052,0.09944543449102873,1.369056311956864
-4.0515,0.08877525963335578,1.316073119931075
-4.051,0.0674349099179905,1.231300012689736
-4.0505,0.03542438534497169,1.125333628638158
-4.05,0.02475421048725994,1.019367244586387
-4.0495,0.02475421048725994,0.9134008605347127
-4.049,0.05676473506027875,0.7862411996728191
-4.0485,0.5475927785141558,0.2776025562239053
-4.048,1.038420821967111,-0.5595318777835605
-4.0475,1.07043134654013,-1.046977244420819
-4.047,1.070431346540275,-0.8986243067480606
-4.0465,1.19847344483235,0.04447651131098315
-4.046,1.187803269974677,0.5213252395430839
-4.0455,1.059761171682272,0.5849050699744162
-4.045,0.8356874996711408,0.4683420475176805
-4.0445,0.5475927785137094,0.3199891098453364
-4.044,0.3021787567868436,0.2140227257935946
-4.0435,0.1207857842064037,0.13984625695749
-4.043,-0.04993701351651855,-0.01910331912002144
-4.0425,-0.01792648894349974,0.05507314971608313
-4.042,-0.04993701351651855,0.1186529801471552
-4.0415,-0.5300948821122373,-0.252229364033705
-4.041,-0.7221580295503502,-0.3264058328698096
-4.0405,-0.7328282044086248,-0.2628260024393639
-4.04,-1.191645723288561,-0.8032545611024114
-4.0395,-1.84252638960661,-1.534422611058299
-4.039,-2.173301810195616,-2.011271339291769
-4.0385,-2.450726356495113,-2.307977214636187
-4.038,-2.109280761049579,-1.767548655973139
-4.0375,-1.373038695868555,-0.6866915386446831
-4.037,-0.7008176798351597,0.2881991946298341
-4.0365,-0.2420001609548061,0.9557874141553824
-4.036,0.003413860771991695,1.326669758336368
-4.0355,0.1101156093487211,1.464426057603419
-4.035,0.1314559590640864,1.475022696008586
-4.0345,0.1101156093487405,1.390249588767324
-4.034,0.0674349099179905,1.273686566310405
-4.0335,0.04609456020262521,1.146526905448396
-4.033,0.02475421048727934,1.019367244586503
-4.0325,0.03542438534517548,0.9028042221291983
-4.032,0.291508581929326,0.5213252395435176
-4.0315,0.9637295979627212,-0.4111789401103684
-4.031,1.134452395686138,-1.227120097309601
-4.0305,1.006410297394063,-1.767548655972648
-4.03,1.134452395686138,-1.862918401619068
-4.0295,1.198473444832253,-1.025783967610157
-4.029,1.091771696255524,-0.1780528951975329
-4.0285,0.8676980242441885,0.3199891098453364
-4.028,0.6116138276595819,0.4577454091124359
-4.0275,0.3661998059331045,0.3729723018711736
-4.027,0.1741366584948169,0.2564092794143318
-4.0265,0.06743490991808755,0.1610395337679117
-4.026,0.01408403562957729,0.1186529801471552
-4.0255,-0.007256314085787988,0.1292496185523226
-4.025,-0.01792648894346092,0.161039533767796
-4.0245,-0.01792648894350944,0.2140227257937006
-4.024,-0.06060718837420119,0.2564092794143318
-4.0235,-0.5194247072541375,-0.07208651114555986
-4.023,-1.287677297008219,-0.707884815456396
-4.0225,-1.853196564464885,-1.248313374119443
-4.022,-2.237322859341111,-1.65098563351544
-4.0215,-1.842526389606989,-1.227120097308733
-4.021,-1.607782542738184,-0.8138511995075789
-4.0205,-1.202315898146244,-0.2416327256285375
-4.02,-0.6474668055464069,0.4365521323026022
-4.0195,-0.274010685527854,0.9028042221295453
-4.019,0.01408403562957729,1.231300012689736
-4.0185,0.08877525963328783,1.316073119930998
-4.018,0.07810508477567314,1.273686566310405
-4.0175,0.05676473506030786,1.210106735879401
-4.017,0.03542438534496199,1.125333628638139
-4.0165,0.02475421048726964,1.040560521396645
-4.016,0.03542438534494258,0.9557874141553824
-4.0155,0.1421261339216719,0.7544512844573842
-4.015,0.7396559259524238,-0.08268314955198017
-4.0145,1.209143619690033,-1.131750351662602
-4.014,1.219813794547706,-1.937094870454594
-4.0135,1.294505018551494,-2.392750321877045
-4.013,1.294505018551494,-1.862918401619155
-4.0125,1.177133095116985,-0.8986243067489184
-4.012,0.9850699476784746,-0.09327978795577906
-4.0115,0.7396559259519968,0.3623756634660061
-4.011,0.4622313796522482,0.5107286011383502
-4.0105,0.2594980573564625,0.4789386859228768
-4.01,0.142126133921769,0.383568940276341
-4.0095,0.09944543449103843,0.3941655786815084
-4.009,0.06743490991801962,0.3305857482505617
-4.0085,0.03542438534491346,0.2564092794142836
-4.008,0.00341386077189465,0.2034260873884947
-4.0075,-0.01792648894345122,0.2034260873884947
-4.007,-0.2633405106707924,-0.008506680715412992
-4.0065,-0.9462317015618604,-0.6231117082145651
-4.006,-1.426389570157579,-1.205926820498774
-4.0055,-1.714484291315127,-1.608599079895146
-4.005,-1.842526389607202,-1.619195718300304
-4.0045,-1.405049220442214,-0.8668343915334161
-4.004,-0.8395299529846846,-0.02969995752465881
-4.0035,-0.4554036581084589,0.55311515475902
-4.003,-0.1139580626626144,1.019367244586387
-4.0025,-0.1673089369509791,1.040560521396703
-4.002,-0.5834457564006506,0.6378882620003594
-4.0015,-0.4127229586777283,0.8074344764830383
-4.001,-0.2740106855279801,0.9134008605346163
-4.0005,-0.09261771294714238,1.040560521396761
-4,0.02475421048725994,1.082947075017392
-3.9995,0.02475421048725994,1.00877060618122
-3.999,0.04609456020262521,0.9028042221295453
-3.9985,0.4729015545099309,0.2987958330350016
-3.998,0.9210488985326017,-0.6549016234300674
-3.9975,0.8676980242441885,-1.439052865412457
-3.997,0.8783681991018712,-2.011271339291499
-3.9965,1.134452395686255,-2.307977214636187
-3.996,1.219813794547716,-1.746355379162313
-3.9955,1.113112045970889,-0.8668343915334161
-3.995,0.8783681991018712,-0.1356663415768632
-3.9945,0.5796033030867573,0.2564092794143318
-3.994,0.3235191065023739,0.383568940276341
-3.9935,0.1527963087794516,0.3941655786815084
-3.993,0.1207857842064037,0.4259554938970107
-3.9925,0.1101156093487211,0.3941655786815084
-3.992,0.07810508477567314,0.3305857482505039
-3.9915,0.04609456020262521,0.2881991946298341
-3.991,0.01408403562957729,0.2670059178194992
-3.9905,-0.08194753808956648,0.2034260873884947
-3.99,-0.6794773301197943,-0.3475991096802118
-3.9895,-1.148965023857831,-1.004590690800593
-3.989,-1.437059745015262,-1.51322933424863
-3.9885,-1.565101843307454,-1.693372187136476
-3.988,-1.244996597576974,-1.05757388282643
-3.9875,-0.754168554123573,-0.2204394488182027
-3.987,-0.3593720843893152,0.4471487707073456
-3.9865,-0.1032878878049318,0.8922075837243778
-3.986,0.02475421048725994,1.125333628638062
-3.9855,0.0674349099179905,1.220703374284568
-3.985,0.07810508477567314,1.241896651094903
-3.9845,0.05676473506030786,1.210106735879401
-3.984,0.03542438534494258,1.157123543853563
-3.9835,-0.01792648894347063,1.040560521396722
-3.983,-0.03926683865883591,0.9557874141553824
-3.9825,-0.1886492866663929,0.7332580076468663
-3.982,-0.4767440078238243,-0.09327978795619347
-3.9815,0.4195506802215176,-0.8880276683437509
-3.981,0.8997085488172365,-1.767548655972648
-3.9805,0.9530594231056497,-2.350363768256857
-3.98,1.187803269974668,-2.371557045067191
-3.9795,1.230483969405398,-1.439052865412457
-3.979,1.091771696255524,-0.4111789401112165
-3.9785,0.857027849386506,0.2140227257936621
-3.978,0.5796033030867573,0.457745409112513
-3.9775,0.3235191065023739,0.457745409112513
-3.977,0.1527963087794516,0.3941655786815084
-3.9765,0.0674349099179905,0.4259554938970107
-3.976,0.02475421048725994,0.6590815388106942
-3.9755,-0.007256314085787988,0.6378882620003594
-3.975,-0.007256314085787988,0.5213252395435176
-3.9745,-0.01792648894347063,0.4259554938970107
-3.974,-0.06060718837420119,0.3305857482505039
-3.9735,-0.5941159312583333,-0.1886495336027004
-3.973,-1.405049220442214,-1.025783967610927
-3.9725,-1.917217613610981,-1.703968825541643
-3.972,-2.44005618163743,-2.149027638558676
-3.9715,-2.333354433060604,-1.852321763213987
-3.971,-1.607782542738184,-0.8880276683437509
-3.9705,-0.8822106524157645,0.03387987290581572
-3.97,-0.3487019095316325,0.6908714540261965
-3.9695,-0.04993701351651855,1.072350436612224
-3.969,0.08877525963335578,1.241896651094903
-3.9685,0.1207857842064037,1.273686566310405
-3.968,0.09944543449103843,1.231300012689736
-3.9675,0.07810508477567314,1.167720182258731
-3.967,0.05676473506030786,1.072350436612224
-3.9665,0.03542438534494258,0.9875773293708847
-3.966,0.03542438534494258,0.9028042221295453
-3.9655,0.1207857842064037,0.7438546460520338
-3.965,0.707645401378949,0.1080563417419877
-3.9645,1.19847344483235,-0.6866915386455698
-3.964,1.113112045970889,-1.301296566145281
-3.9635,1.166462920259302,-1.778145294377815
-3.963,1.347855892839907,-1.831128486403653
-3.9625,1.315845368266859,-1.205926820498774
-3.962,0.5262524287983441,-0.9833974139902578
-3.9615,0.2701682322139607,-0.400582301706049
-3.961,0.1101156093487211,-0.008506680714854012
-3.9605,0.03542438534494258,0.2140227257936621
-3.96,0.05676473506030786,0.3411823866556712
-3.9595,0.00341386077189465,0.1080563417419877
-3.959,-0.02859666380115328,0.04447651131098315
-3.9585,-0.02859666380115328,0.1186529801471552
-3.958,-0.02859666380115328,0.2246193641988295
-3.9575,-0.02859666380115328,0.3199891098453364
-3.957,-0.1886492866663929,0.1186529801471552
-3.9565,-0.9355615267041777,-0.718481453861072
-3.956,-1.714484291315011,-1.566212526274467
-3.9555,-2.066600061618538,-2.127834361748341
-3.955,-2.418715831922065,-2.477523429118866
-3.9545,-2.098610586191586,-1.905304955239825
-3.954,-1.362368521011484,-0.8668343915334161
-3.9535,-0.690147504977477,0.02328323450064829
-3.953,-0.2313299860971235,0.627291623595192
-3.9525,0.01408403562957729,0.9451907757502149
-3.952,0.1101156093487211,1.061753798207057
-3.9515,0.1207857842064037,1.061753798207057
-3.951,0.09944543449103843,1.00877060618122
-3.9505,0.0674349099179905,0.9451907757502149
-3.95,0.05676473506030786,0.8710143069140429
-3.9495,0.04609456020262521,0.8074344764830383
-3.949,0.05676473506030786,0.7438546460520338
-3.9485,0.3661998059331045,0.3517790250608387
-3.948,0.974399772821015,-0.4323722169215513
-3.9475,1.027750647109428,-1.0999604364471
-3.947,0.8676980242441885,-1.195330182093607
-3.9465,0.8036769750980928,-0.474758770542221
-3.946,0.7609962756673623,0.2458126410091644
-3.9455,0.707645401378949,0.627291623595192
-3.945,0.6009436528021226,0.7120647308365314
-3.9445,0.4515612047945656,0.6060983467848571
-3.944,0.2168173579255475,0.3941655786815084
-3.9435,0.1314559590640864,0.3517790250608387
-3.943,0.05676473506030786,0.3305857482505039
-3.9425,-0.3380317346739499,0.01268659609548085
-3.942,-0.6154562809736985,-0.1992461720078678
-3.9415,-0.4767440078238243,0.002089957690313421
-3.941,-0.3166913849585846,0.2246193641988295
-3.9405,-0.1993194615240755,0.3941655786815084
-3.94,-0.839529952985034,-0.2416327256285375
-3.9395,-1.799845690176472,-1.269506650929778
-3.939,-2.728150902794861,-2.064254531317336
-3.9385,-3.186968421675215,-2.382153683472359
-3.938,-2.493407055925843,-1.672178910326141
-3.9375,-1.522421143876723,-0.5913217929990628
-3.937,-0.7114878546928423,0.309392471440169
-3.9365,-0.1886492866663929,0.8922075837243778
-3.936,0.0674349099179905,1.167720182258731
-3.9355,0.1527963087794516,1.25249328950007
-3.935,0.1527963087794516,1.220703374284568
-3.9345,0.1207857842064037,1.135930267043229
-3.934,0.08877525963335578,1.040560521396722
-3.9335,0.0674349099179905,0.9345941373450475
-3.933,0.05676473506030786,0.8286277532933731
-3.9325,0.05676473506030786,0.7332580076468663
-3.932,0.1954770082101822,0.5107286011383502
-3.9315,0.8143471499557753,-0.252229364033705
-3.931,1.177133095116985,-1.0999604364471
-3.9305,1.19847344483235,-1.619195718300304
-3.93,1.177133095116985,-1.068170521231597
-3.9295,1.123782220828572,-0.05089323433552374
-3.929,1.006410297394063,0.5849050699745222
-3.9285,0.8036769750980928,0.775644561267536
-3.928,0.5582629533713921,0.6696781772158616
-3.9275,0.3448594562177392,0.4789386859228479
-3.927,0.1848068333524996,0.3305857482505039
-3.9265,0.07810508477567314,0.2881991946298341
-3.926,0.00341386077189465,0.3729723018711736
-3.9255,-0.01792648894347063,0.4047622170866759
-3.925,-0.01792648894347063,0.4259554938970107
-3.9245,-0.007256314085787988,0.4683420475176805
-3.924,-0.1139580626626144,0.4153588554918433
-3.9235,-0.3593720843893152,0.1928294489833272
-3.923,-1.010252750707956,-0.4853554089473885
-3.9225,-1.67180359188428,-1.110557074852267
-3.922,-2.23732285934146,-1.51322933424863
-3.9215,-2.205312334768412,-1.354279758171118
-3.921,-1.490410619303675,-0.5595318777835605
-3.9205,-0.807519428411986,0.2458126410091644
-3.92,-0.3166913849585846,0.8286277532933731
-3.9195,-0.03926683865883591,1.167720182258731
-3.919,-0.007256314085787988,1.220703374284568
-3.9185,0.09944543449103843,1.316073119931075
-3.918,-0.4767440078238243,0.6908714540261965
-3.9175,-0.5941159312583333,0.5107286011383502
-3.917,-0.5087545323968721,0.5213252395435176
-3.9165,-0.3487019095316325,0.5849050699745222
-3.916,-0.1139580626626144,0.7120647308365314
-3.9155,0.07810508477567314,0.7226613692416989
-3.915,0.5262524287983441,0.02328323450064829
-3.9145,0.825017324813458,-1.068170521231597
-3.914,0.8356874996711408,-1.937094870455327
-3.9135,1.006410297394063,-2.488120067524033
-3.913,1.230483969405398,-2.127834361748341
-3.9125,1.241154144263081,-1.05757388282643
-3.912,1.081101521397841,-0.2204394488182027
-3.9115,0.825017324813458,0.2564092794143318
-3.911,0.5582629533713921,0.4365521323021782
-3.9105,0.3235191065023739,0.4789386859228479
-3.91,0.1527963087794516,0.4259554938970107
-3.9095,0.04609456020262521,0.3623756634660061
-3.909,0.00341386077189465,0.2987958330350016
-3.9085,-0.007256314085787988,0.2564092794143318
-3.908,-0.007256314085787988,0.2352160026039969
-3.9075,-0.007256314085787988,0.2352160026039969
-3.907,-0.2099896363817582,0.05507314971615059
-3.9065,-0.9782422261349084,-0.6443049850249
-3.906,-1.661133417026597,-1.38606967338662
-3.9055,-2.215982509626095,-1.958288147265661
-3.905,-2.504077230783526,-2.106641084938006
-3.9045,-1.895877263895616,-1.311893204550448
-3.904,-1.127624674142465,-0.3475991096802118
-3.9035,-0.5087545323968721,0.4047622170866759
-3.903,-0.124628237520297,0.8816109453192104
-3.9025,0.0674349099179905,1.125333628638062
-3.902,0.1314559590640864,1.199510097474233
-3.9015,0.1314559590640864,1.188913459069066
-3.901,0.09944543449103843,1.125333628638062
-3.9005,0.0674349099179905,1.051157159801889
-3.9,0.05676473506030786,0.9769806909657173
-3.8995,0.05676473506030786,0.9028042221295453
-3.899,0.0674349099179905,0.8286277532933731
-3.8985,0.3661998059331045,0.4259554938970107
-3.898,0.8783681991018712,-0.3899856633008816
-3.8975,1.049090996824793,-1.078767159636765
-3.897,1.123782220828572,-1.460246142222792
-3.8965,1.262494493978446,-1.417859588602123
-3.896,1.241154144263081,-0.5489352393783931
-3.8955,1.070431346540159,0.1928294489833272
-3.895,0.8356874996711408,0.5425185163538525
-3.8945,0.5582629533713921,0.6378882620003594
-3.894,0.3341892813600565,0.55311515475902
-3.8935,0.1741366584948169,0.4153588554918433
-3.893,-0.007256314085787988,0.1292496185523226
-3.8925,0.03542438534494258,0.1292496185523226
-3.892,-0.4447334832507763,-0.2840192792492073
-3.8915,-0.6794773301197943,-0.400582301706049
-3.891,-0.5834457564006506,-0.1780528951975329
-3.8905,-0.4980843575391895,-0.008506680714854012
-3.89,-0.9782422261349084,-0.4535654937318862
-3.8895,-1.543761493592088,-1.227120097309109
-3.889,-1.735824641030376,-1.820531847998485
-3.8885,-2.013249187330125,-2.138431000153508
-3.888,-2.344024607918286,-2.244397384205182
-3.8875,-1.917217613610981,-1.502632695843462
-3.887,-1.180975548430879,-0.4641621321370536
-3.8865,-0.5514352318276028,0.3729723018711736
