Class_10_Using_Wats_App/Class_10_WatsApp_Souku_1.csv

#Digilent WaveForms Oscilloscope Acquisition
#Device Name: EExplorer
#Serial Number: SN:210151A2B84A
#Date Time: 2020-12-15 14:18:15.148
#Sample rate: 2000Hz
#Samples: 16384
#Trigger: Source: Channel 1 Type: Edge Condition: Rising Level: 0 V Hyst.: Auto HoldOff: 0 s
#Channel 1: Range: 1 V/div Offset: 0 V Attenuation: 1 X
#Channel 2: Range: 1 V/div Offset: 0 V Attenuation: 1 X
#Power Supplies: ON
#Fixed Supply: ON
#Voltage: 3.3 V Readback: 3.324 V
#Positive Supply: ON
#Voltage: 3.7 V Readback: 3.716 V
#Current: 40 mA Readback: 20 mA
#Negative Supply: ON
#Voltage: -3.7 V Readback: -3.341 V
#Current: -40 mA Readback: -7 mA
#Reference 1: ON
#Voltage: 0 V
#Reference 2: ON
#Voltage: 0 V

Time (s),Channel 1 (V),Channel 2 (V)
-4.096,-0.8608703027003992,0.3305857482505039
-4.0955,-0.07127736323260192,-0.3264058328692794
-4.095,0.4088805053639903,-0.7290780922663551
-4.0945,0.5796033030867573,-0.8562377531282487
-4.094,0.5796033030867573,-0.7926579226973018
-4.0935,0.4835717293675165,-0.6443049850247651
-4.093,0.3768699807907871,-0.4959520473525559
-4.0925,0.5262524287982082,-0.5913217929989761
-4.092,0.57960330308667,-0.548935239378181
-4.0915,0.4835717293676135,-0.3158091944647096
-4.091,0.3448594562177392,-0.06148987274069118
-4.0905,0.2381577076409128,0.1398462569576153
-4.09,0.2381577076409128,0.2776025562246667
-4.0895,0.7289857510943143,0.5213252395435176
-4.089,1.29450501855098,0.9134008605343561
-4.0885,0.7823366253827275,1.199510097474233
-4.088,-0.2206598112394408,0.6060983467848571
-4.0875,-0.9675720512765462,-0.1886495336019774
-4.087,-0.9889124009923,-0.538338600973322
-4.0865,-0.6688071552621118,-0.6443049850249
-4.086,-0.3166913849589048,-0.6337083466197422
-4.0855,-0.06060718837406533,-0.5807251545938472
-4.085,0.08877525963335578,-0.5277419625680583
-4.0845,0.1527963087793934,-0.485355408947427
-4.084,0.1741366584947878,-0.4535654937318573
-4.0835,0.142126133921769,-0.4217755785163839
-4.083,0.09944543449103843,-0.3687923864905467
-4.0825,0.05676473506026904,-0.3158091944646228
-4.082,0.01408403562957729,-0.2204394488182027
-4.0815,-0.3380317346739499,0.1292496185523226
-4.081,-1.074273799853382,0.6696781772153702
-4.0805,-1.821186039891837,1.114736990232894
-4.08,-2.151961460479999,1.178316820663898
-4.0795,-1.212986073004781,0.4895353243286418
-4.079,-0.2846808603849835,0.00208995768987973
-4.0785,0.3235191065023739,-0.474758770542221
-4.078,0.6009436528018703,-0.8032545611021127
-4.0775,0.6329541773751026,-0.9516074987747458
-4.077,0.5582629533713921,-0.9410108603695881
-4.0765,0.4408910299369897,-0.8244478379128524
-4.076,0.4729015545100376,-0.8562377531283257
-4.0755,0.5902734779444399,-0.9410108603695881
-4.075,0.5155822539406614,-0.7502713690765743
-4.0745,0.387540155648363,-0.4747587705419801
-4.074,0.2701682322139607,-0.2098428104130352
-4.0735,0.2061471830678648,0.002089957690313421
-4.073,0.5049120790827071,0.330585748250205
-4.0725,1.273164668836129,0.8074344764830383
-4.072,1.390536592270638,1.210106735879401
-4.0715,0.4195506802224007,1.485619334413503
-4.071,-0.5194247072547489,1.443232780792526
-4.0705,-0.7328282044082075,0.8286277532933731
-4.07,-0.5621054066854405,0.1292496185529587
-4.0695,-0.2953510352430155,-0.3687923864907684
-4.069,-0.07127736323188383,-0.6125150698093976
-4.0685,0.0674349099179905,-0.6760949002404023
-4.068,0.1314559590641058,-0.6019184314041243
-4.0675,0.1527963087794516,-0.4853554089473885
-4.067,0.142126133921769,-0.3370024712750445
-4.0665,0.08877525963330726,-0.1674562567922113
-4.066,0.03542438534494258,0.002089957690313421
-4.0655,0.00341386077189465,0.1928294489833272
-4.065,-0.1886492866662182,0.5001319627329033
-4.0645,-0.8288597781273515,0.92399749893988
-4.064,-1.575772018165136,1.273686566310405
-4.0635,-2.194642159910167,1.411442865577457
-4.063,-1.543761493591176,0.7544512844565554
-4.0625,-0.5407650569699201,0.04447651131098315
-4.062,0.1634664836364937,-0.464162132136591
-4.0615,0.4942419042253738,-0.6866915386456468
-4.061,0.5796033030867573,-0.7714646458869092
-4.0605,0.5369226036560266,-0.792657922697244
-4.06,0.4515612047945268,-0.7502713690765068
-4.0595,0.408880505363835,-0.6760949002404023
-4.059,0.5902734779444399,-0.792657922697244
-4.0585,0.568933128229094,-0.6654982618353505
-4.058,0.4408910299368829,-0.4323722169215513
-4.0575,0.3128489316446912,-0.2098428104130352
-4.057,0.2061471830679619,-0.04029659593051052
-4.0565,0.2808384070716433,0.08686306493165288
-4.056,0.8143471499557753,0.4047622170866759
-4.0555,0.6863050516637003,0.860417668508461
-4.055,-0.2206598112402657,1.231300012689928
-4.0545,-1.127624674142465,1.443232780793084
-4.054,-1.341028171295924,1.114736990233193
-4.0535,-0.9889124009921836,0.4047622170860976
-4.053,-0.5407650569699201,-0.2310360872233701
-4.0525,-0.1779791118087102,-0.6337083466197325
-4.052,0.04609456020272226,-0.8032545611024308
-4.0515,0.1527963087794516,-0.8244478379127463
-4.051,0.1848068333524996,-0.7502713690765743
-4.0505,0.1741366584948266,-0.6231117082146808
-4.05,0.1314559590640864,-0.474758770542221
-4.0495,0.0674349099179905,-0.3052125560595421
-4.049,0.03542438534497169,-0.1462629799821752
-4.0485,-0.03926683865929202,0.08686306493202875
-4.048,-0.5407650569699201,0.5001319627331828
-4.0475,-1.287677297007026,0.9769806909652836
-4.047,-2.013249187330037,1.305476481525667
-4.0465,-1.917217613610981,1.040560521396722
-4.046,-0.9248913518473977,0.2987958330356763
-4.0455,-0.08194753808911037,-0.284019279249535
-4.045,0.4195506802215176,-0.6443049850249
-4.0445,0.5796033030867573,-0.7608680074817418
-4.044,0.5689331282289872,-0.7290780922661816
-4.0435,0.4729015545099309,-0.6654982618352349
-4.043,0.3768699807907871,-0.5807251545938954
-4.0425,0.4835717293675165,-0.6866915386454734
-4.042,0.5155822539406614,-0.6337083466197325
-4.0415,0.4302208550792003,-0.4111789401112165
-4.041,0.312848931644798,-0.1674562567925872
-4.0405,0.2274875327832301,0.04447651131111808
-4.04,0.2274875327832301,0.1928294489833272
-4.0395,0.6969752265208393,0.4683420475174299
-4.039,1.091771696254971,0.8922075837246959
-4.0385,0.4835717293676135,1.241896651094903
-4.038,-0.4767440078229508,1.379652950361955
-4.0375,-1.13829484900007,1.273686566309837
-4.037,-1.052933450138687,0.6484849004055269
-4.0365,-0.6794773301197943,-0.02969995752518888
-4.036,-0.3060212101006593,-0.5065486857579546
-4.0355,-0.03926683865883591,-0.7608680074817418
-4.035,0.1101156093487211,-0.8244478379127463
-4.0345,0.1634664836370858,-0.7820612842921151
-4.034,0.1741366584948169,-0.6760949002404023
-4.0335,0.142126133921769,-0.5383386009732256
-4.033,0.0887752596334043,-0.3793890248958587
-4.0325,0.03542438534491346,-0.2098428104128618
-4.032,0.00341386077189465,-0.01910331912002144
-4.0315,-0.2740106855276017,0.319989109845028
-4.031,-0.9675720512778953,0.8074344764834046
-4.0305,-1.703814116457328,1.210106735879401
-4.03,-2.066600061618208,1.241896651094874
-4.0295,-1.234326422718477,0.5849050699738475
-4.029,-0.3380317346739499,-0.1568596183871981
-4.0285,0.2488278824985954,-0.6760949002404023
-4.028,0.5369226036560751,-0.9410108603696556
-4.0275,0.5902734779444399,-1.01518732920576
-4.027,0.5155822539406614,-0.9304142219644207
-4.0265,0.3982103305062591,-0.7502713690767382
-4.026,0.3875401556484697,-0.5595318777835605
-4.0255,0.4622313796522482,-0.4323722169215513
-4.025,0.3982103305062106,-0.241632725628711
-4.0245,0.3021787567869407,-0.05089323433537918
-4.024,0.2274875327832301,0.1080563417419877
-4.0235,0.1954770082102113,0.2246193641987235
-4.023,0.4942419042259948,0.34118238665597
-4.0225,1.262494493978446,0.6696781772158616
-4.022,1.379866417412849,1.0617537982067
-4.0215,0.4408910299359513,1.210106735879391
-4.021,-0.5834457564006506,1.199510097474233
-4.0205,-0.8715404775580819,0.7332580076468663
-4.02,-0.6901475049771956,0.07626642652603248
-4.0195,-0.3807124341046804,-0.4217755785163839
-4.019,-0.1139580626626144,-0.7078848154559045
-4.0185,0.04609456020247965,-0.8138511995074825
-4.018,0.1314559590640864,-0.792657922697244
-4.0175,0.1634664836371343,-0.6972881770507372
-4.017,0.1527963087794613,-0.5701285161888436
-4.0165,0.09944543449099962,-0.4217755785162394
-4.016,0.05676473506030786,-0.2628260024388724
-4.0155,0.02475421048728905,-0.09327978795634767
-4.015,-0.1352984123785328,0.1822328105785934
-4.0145,-0.7434983792658902,0.6590815388106942
-4.014,-1.479740444445323,1.104140351827322
-4.0135,-2.109280761048793,1.337266396740928
-4.013,-1.586442193022819,0.8074344764830383
-4.0125,-0.5941159312583333,0.1504428953626575
-4.012,0.1314559590644066,-0.3475991096805203
-4.0115,0.4835717293676135,-0.6866915386455698
-4.011,0.5689331282290746,-0.8350444763179138
-4.0105,0.504912079083037,-0.7820612842921247
-4.01,0.3982103305061524,-0.6231117082145651
-4.0095,0.3448594562177392,-0.4959520473525559
-4.009,0.5369226036558519,-0.6125150698092916
-4.0085,0.5475927785136123,-0.5171453241626884
-4.008,0.4408910299368829,-0.2946159176543747
-4.0075,0.3235191065024806,-0.07208651114606102
-4.007,0.2381577076410001,0.08686306493169144
-4.0065,0.3341892813600565,0.1292496185523226
-4.006,0.9637295979633325,0.1928294489833272
-4.0055,1.379866417412286,0.5955017083800654
-4.005,0.6436243522328531,1.00877060618122
-4.0045,-0.4447334832507763,1.263089927905238
-4.004,-0.9035510021310135,0.9981739677754352
-4.0035,-0.7755089038389382,0.3199891098453364
-4.003,-0.4660738329661415,-0.3052125560595421
-4.0025,-0.1779791118089722,-0.7078848154555384
-4.002,0.01408403562957729,-0.9092209451540858
-4.0015,0.1207857842064037,-0.9410108603695881
-4.001,0.1634664836370955,-0.8774310299386413
-4.0005,0.1634664836371052,-0.7714646458867743
-4,0.1314559590640864,-0.6231117082145651
-3.9995,0.0674349099179905,-0.4641621321370536
-3.999,0.03542438534494258,-0.2946159176543747
-3.9985,-0.02859666380115328,-0.06148987274069118
-3.998,-0.5194247072545548,0.4153588554918433
-3.9975,-1.26633694729234,0.9345941373450475
-3.997,-2.002579012472442,1.29487984312074
-3.9965,-1.917217613610981,1.082947075017392
-3.996,-0.9035510021311299,0.4895353243280153
-3.9955,-0.08194753808956648,-0.05089323433552374
-3.995,0.408880505363835,-0.4323722169215513
-3.9945,0.6009436528021226,-0.5595318777835605
-3.994,0.6009436528021226,-0.4959520473525559
-3.9935,0.5049120790829789,-0.4111789401112165
-3.993,0.3875401556484697,-0.3052125560595421
-3.9925,0.5475927785137094,-0.4535654937318862
-3.992,0.6116138276598051,-0.4853554089473885
-3.9915,0.5049120790829789,-0.2946159176543747
-3.991,0.3661998059331045,-0.08268314955102604
-3.9905,0.2594980573562781,0.09745970333682032
-3.99,0.2274875327832301,0.2458126410091644
-3.9895,0.707645401378949,0.5955017083796896
-3.989,1.187803269974668,1.00877060618122
-3.9885,0.5582629533713921,1.29487984312074
-3.988,-0.4020527838200457,0.92399749893988
-3.9875,-1.084943974711735,0.6166949851900245
-3.987,-1.031593100423322,0.1610395337678249
-3.9865,-0.6794773301197943,-0.3052125560595421
-3.986,-0.3166913849585846,-0.6019184314042303
-3.9855,-0.04993701351651855,-0.7502713690765743
-3.985,0.09944543449103843,-0.7714646458869092
-3.9845,0.1634664836371343,-0.718481453861072
-3.984,0.1848068333524996,-0.6337083466197325
-3.9835,0.1527963087794516,-0.5171453241628908
-3.983,0.09944543449103843,-0.3899856633008816
-3.9825,0.04609456020262521,-0.252229364033705
-3.982,0.01408403562957729,-0.07208651114585861
-3.9815,-0.3273615598162672,0.2670059178194992
-3.981,-1.042263275281004,0.775644561267536
-3.9805,-1.789175515318789,1.188913459069066
-3.98,-2.205312334768412,1.273686566310405
-3.9795,-1.351698346153801,0.6802748156210291
-3.979,-0.423393133535411,-0.08268314955102604
-3.9785,0.2274875327832301,-0.6654982618352349
-3.978,0.5475927785137094,-0.9728007755850904
-3.9775,0.6116138276598051,-1.025783967610927
-3.977,0.5369226036560266,-0.9516074987747555
-3.9765,0.408880505363835,-0.8032545611024114
-3.976,0.4195506802215176,-0.5489352393783931
-3.9755,0.5155822539406614,-0.252229364033705
-3.975,0.4622313796522482,-0.09327978795619347
-3.9745,0.3555296310754218,0.01268659609548085
-3.974,0.2594980573562781,0.09745970333682032
-3.9735,0.1954770082101822,0.1822328105781598
-3.973,0.408880505363835,0.3411823866556712
-3.9725,1.123782220828572,0.6802748156210291
-3.972,1.219813794547716,1.072350436612224
-3.9715,0.3555296310754218,0.9345941373450475
-3.971,-0.6474668055467465,0.2034260873884947
-3.9705,-0.9889124009925911,-0.1674562567923655
-3.97,-0.7861790786966207,-0.4111789401112165
-3.9695,-0.4447334832507763,-0.5171453241628908
-3.969,-0.1459685872356623,-0.5277419625680583
-3.9685,0.04609456020262521,-0.4959520473525559
-3.968,0.142126133921769,-0.4429688553267188
-3.9675,0.1741366584948169,-0.3899856633008816
-3.967,0.1634664836371343,-0.3370024712750445
-3.9665,0.1207857842064037,-0.2628260024388724
-3.966,0.07810508477567314,-0.1886495336027004
-3.9655,0.04609456020262521,-0.07208651114585861
-3.965,-0.1139580626626144,0.2034260873884947
-3.9645,-0.7328282044082075,0.6802748156210291
-3.964,-1.490410619303675,1.114736990232894
-3.9635,-2.162631635337682,1.347863035146577
-3.963,-1.639793067311232,0.7650479228623686
-3.9625,-0.6154562809736985,-0.1250697031716958
-3.962,0.142126133921769,-0.7290780922662394
-3.9615,0.5369226036560266,-0.9939940523954253
-3.961,0.6436243522328531,-1.046977244421262
-3.9605,0.6009436528021226,-0.9728007755850904
-3.96,0.4835717293676135,-0.8668343915334161
-3.9595,0.408880505363835,-0.792657922697244
-3.959,0.5369226036560266,-0.9198175835592532
-3.9585,0.5262524287983441,-0.8244478379127463
-3.958,0.408880505363835,-0.6125150698093976
-3.9575,0.3021787567870086,-0.3793890248957141
-3.957,0.2168173579255475,-0.1780528951975329
-3.9565,0.2488278824985954,-0.02969995752518888
-3.956,0.7823366253827275,0.2987958330350016
-3.9555,0.7823366253827275,0.7862411996727035
-3.955,-0.06060718837420119,1.040560521396722
-3.9545,-0.9782422261349084,0.9769806909657173
-3.954,-1.362368521011484,0.8180311148882058
-3.9535,-1.084943974711735,0.2987958330350016
-3.953,-0.6261264558313813,-0.1886495336027004
-3.9525,-0.2313299860971235,-0.5065486857577234
-3.952,0.01408403562957729,-0.6337083466197325
-3.9515,0.142126133921769,-0.6337083466197325
-3.951,0.1954770082101822,-0.5489352393783931
-3.9505,0.1848068333524996,-0.4323722169215513
-3.95,0.1527963087794516,-0.2946159176543747
-3.9495,0.08877525963335578,-0.1462629799820306
-3.949,0.04609456020262521,0.002089957690313421
-3.9485,-0.01792648894347063,0.2140227257936621
-3.948,-0.4874141826815069,0.6060983467848571
-3.9475,-1.223656247861609,1.040560521396722
-3.947,-1.949228138184029,1.347863035146577
-3.9465,-1.885207089037933,1.029963882991555
-3.946,-0.8928808272734472,0.3729723018711736
-3.9455,-0.06060718837420119,-0.1144730647665284
-3.945,0.4195506802215176,-0.5595318777835605
-3.9445,0.5902734779444399,-0.7820612842920766
-3.944,0.5796033030867573,-0.8032545611024114
-3.9435,0.4942419042252961,-0.7820612842920766
-3.943,0.3768699807907871,-0.718481453861072
-3.9425,0.4835717293676135,-0.8456411147230812
-3.942,0.5582629533713921,-0.8774310299385835
-3.9415,0.4729015545099309,-0.6654982618352349
-3.941,0.3448594562177392,-0.400582301706049
-3.9405,0.2488278824985954,-0.1568596183871981
-3.94,0.2381577076409128,0.02328323450064829
-3.9395,0.7289857510943143,0.2776025562246667
-3.939,1.262494493978446,0.7226613692416989
-3.9385,0.6756348768059011,1.093543713422559
-3.938,-0.3273615598162672,0.6060983467848571
-3.9375,-0.9462317015618604,-0.2098428104130352
-3.937,-0.8928808272734472,-0.5595318777835605
-3.9365,-0.572775581542968,-0.6231117082145651
-3.936,-0.2526703358124887,-0.5595318777835605
-3.9355,-0.01792648894347063,-0.4535654937318862
-3.935,0.1101156093487211,-0.3581957480853793
-3.9345,0.1634664836371343,-0.2840192792492073
-3.934,0.1741366584948169,-0.2416327256285375
-3.9335,0.1527963087794516,-0.2098428104130352
-3.933,0.09944543449103843,-0.1674562567923655
-3.9325,0.04609456020262521,-0.1356663415768632
-3.932,0.02475421048725994,-0.08268314955102604
-3.9315,-0.2633405106701714,0.13984625695749
-3.931,-0.9782422261349084,0.6378882620003594
-3.9305,-1.725154466172693,1.072350436612224
-3.93,-2.119950935906951,1.167720182258731
-3.9295,-1.170305373573196,0.3623756634660061
-3.929,-0.1993194615240755,-0.3793890248957141
-3.9285,0.4195506802215176,-0.8032545611024114
-3.928,0.6649647019482183,-0.9833974139902578
-3.9275,0.6756348768059011,-0.9939940523954253
-3.927,0.5902734779444399,-0.9198175835592532
-3.9265,0.4515612047945656,-0.8350444763179138
-3.926,0.4302208550792003,-0.8350444763179138
-3.9255,0.5475927785137094,-0.9410108603695881
-3.925,0.4835717293676135,-0.8244478379127463
-3.9245,0.3768699807907871,-0.6125150698093976
-3.924,0.2701682322139607,-0.3899856633008816
-3.9235,0.2061471830678648,-0.2204394488182027
-3.923,0.4302208550792003,-0.3052125560595421
-3.9225,1.134452395686255,-0.2946159176543747
-3.922,1.219813794547716,0.2246193641988295
-3.9215,0.4195506802215176,0.4259554938970107
-3.921,-0.5087545323968721,-0.252229364033705
-3.9205,-0.807519428411986,-0.6760949002404023
-3.92,-0.6474668055467465,-0.7078848154559045
-3.9195,-0.3700422592469978,-0.5913217929990628
-3.919,-0.1139580626626144,-0.4429688553267188
-3.9185,0.05676473506030786,-0.3158091944647096
-3.918,0.142126133921769,-0.2416327256285375
-3.9175,0.1634664836371343,-0.1992461720078678
-3.917,0.1634664836371343,-0.1780528951975329
-3.9165,0.1207857842064037,-0.1674562567923655
-3.916,0.0674349099179905,-0.1462629799820306
-3.9155,0.02475421048725994,-0.08268314955102604
-3.915,-0.124628237520297,0.1292496185523226
-3.9145,-0.754168554123573,0.5849050699745222
-3.914,-1.501080794161358,1.051157159801889
-3.9135,-2.162631635337682,1.284283204715573
-3.913,-1.639793067311232,0.8392243916985406
-3.9125,-0.6794773301197943,0.1186529801471552
-3.912,0.04609456020262521,-0.5277419625680583
-3.9115,0.4622313796522482,-0.9622041371799229
-3.911,0.6116138276598051,-1.205926820498774
-3.9105,0.5902734779444399,-1.205926820498774
-3.91,0.4942419042252961,-1.142346990067769
-3.9095,0.408880505363835,-1.068170521231597
-3.909,0.5582629533713921,-1.163540266878104
-3.9085,0.5369226036560266,-1.01518732920576
-3.908,0.4302208550792003,-0.7290780922662394
-3.9075,0.3021787567870086,-0.4111789401112165
-3.907,0.2168173579255475,-0.1356663415768632
-3.9065,0.3021787567870086,0.1610395337678249
-3.906,0.8890383739595538,0.6378882620003594
-3.9055,1.145122570543937,1.104140351827727
-3.905,0.3448594562177392,1.400846227172415
-3.9045,-0.690147504977477,1.475022696008586
-3.904,-1.148965023857831,1.199510097474233
-3.9035,-0.9569018764195432,0.5637117931641874
-3.903,-0.5621054066852853,0.002089957690313421
-3.9025,-0.2206598112394408,-0.326405832869877
-3.902,0.01408403562957729,-0.4429688553267188
-3.9015,0.1314559590640864,-0.400582301706049
-3.901,0.1848068333524996,-0.2840192792492073
-3.9005,0.1848068333524996,-0.1356663415768632
-3.9,0.142126133921769,0.02328323450064829
-3.8995,0.07810508477567314,0.1822328105781598
-3.899,0.03542438534494258,0.3305857482505039
-3.8985,-0.01792648894347063,0.5107286011383502
-3.898,-0.4447334832507763,0.8286277532933731
-3.8975,-1.170305373573196,1.178316820663898
-3.897,-1.895877263895616,1.42203950398275
-3.8965,-1.927887788468663,1.146526905448396
-3.896,-0.9675720512772257,0.3941655786815084
-3.8955,-0.124628237520297,-0.2734226408440398
-3.895,0.3555296310754218,-0.7608680074817418
-3.8945,0.5689331282290746,-1.046977244421262
-3.894,0.5689331282290746,-1.142346990067769
-3.8935,0.4835717293676135,-1.0999604364471
-3.893,0.3768699807907871,-0.9833974139902578
-3.8925,0.4622313796522482,-1.046977244421262
-3.892,0.5155822539406614,-1.036380606016095
-3.8915,0.4408910299368829,-0.8032545611024114
-3.891,0.3341892813600565,-0.5171453241628908
-3.8905,0.2381577076409128,-0.2734226408440398
-3.89,0.2168173579255475,-0.1250697031716958
-3.8895,0.6116138276598051,-0.4111789401112165
-3.889,1.187803269974668,-0.6443049850249
-3.8885,0.7183155762366316,-0.1674562567923655
-3.888,-0.3166913849585846,-0.1144730647665284
-3.8875,-1.06360362499637,-0.474758770542221
