Class_10_Using_Wats_App/Class_10_WatsApp_AM_6.csv

#Digilent WaveForms Oscilloscope Acquisition
#Device Name: EExplorer
#Serial Number: SN:210151A2B84A
#Date Time: 2020-12-14 14:17:44.751
#Sample rate: 2000Hz
#Samples: 16384
#Trigger: Source: Channel 1 Type: Edge Condition: Rising Level: 0 V Hyst.: Auto HoldOff: 0 s
#Channel 1: Range: 1 V/div Offset: 0 V Attenuation: 1 X
#Channel 2: Range: 1 V/div Offset: 0 V Attenuation: 1 X
#Power Supplies: ON
#Fixed Supply: ON
#Voltage: 3.3 V Readback: 3.319 V
#Positive Supply: ON
#Voltage: 3.7 V Readback: 3.716 V
#Current: 40 mA Readback: 18 mA
#Negative Supply: ON
#Voltage: -3.7 V Readback: -3.349 V
#Current: -40 mA Readback: -7 mA
#Reference 1: ON
#Voltage: 0 V
#Reference 2: ON
#Voltage: 0 V

Time (s),Channel 1 (V),Channel 2 (V)
-4.096,0.6969752265212663,0.1610395337678249
-4.0955,0.3875401556487512,0.6802748156205569
-4.095,-0.316691384959196,1.125333628638254
-4.0945,-0.9889124009925911,1.33726639674141
-4.094,-0.9889124009925911,0.8710143069144669
-4.0935,-0.6581369804040991,0.1398462569569407
-4.093,-0.2953510352432193,-0.4641621321370536
-4.0925,-0.02859666380139592,-0.8138511995072608
-4.092,0.1207857842064619,-0.9410108603695496
-4.0915,0.1848068333524996,-0.8986243067489184
-4.091,0.2061471830678648,-0.7714646458869092
-4.0905,0.1954770082101531,-0.591321792998899
-4.09,0.1634664836371343,-0.4111789401112165
-4.0895,0.142126133921769,-0.2310360872233701
-4.089,0.1207857842064231,-0.07208651114600317
-4.0885,0.02475421048725994,-0.1250697031716958
-4.088,-0.3273615598162672,-0.4853554089473885
-4.0875,-0.7861790786962035,-0.8774310299382269
-4.087,-1.106284324426799,-0.8774310299383329
-4.0865,-0.7755089038389382,-0.6019184314042303
-4.086,0.035424385344205,-0.5383386009732835
-4.0855,0.6863050516638749,-0.5489352393781713
-4.085,1.006410297394063,-0.3052125560595421
-4.0845,1.059761171682428,0.1504428953622431
-4.084,0.8890383739593597,0.553115154759232
-4.0835,0.6756348768059011,0.7862411996727035
-4.083,0.5262524287983441,0.8392243916985406
-4.0825,0.622284002517449,0.8922075837242429
-4.082,0.5796033030867573,0.7438546460520338
-4.0815,0.4515612047945656,0.4683420475176805
-4.081,0.3341892813601633,0.18223281057842
-4.0805,0.2381577076409128,-0.1038764263613609
-4.08,0.1848068333524996,-0.1038764263613609
-4.0795,-0.03926683865863215,0.415358855491371
-4.079,-0.6154562809741935,0.95578741415571
-4.0785,-1.159635198715513,1.316073119931075
-4.078,-1.682473766741487,1.475022696008442
-4.0775,-1.927887788468188,1.400846227171817
-4.077,-1.405049220442214,0.7438546460520338
-4.0765,-0.7755089038395108,0.002089957690988076
-4.076,-0.2740106855275726,-0.5383386009734569
-4.0755,0.03542438534494258,-0.792657922697244
-4.075,0.1848068333524996,-0.8244478379127463
-4.0745,0.238157707640903,-0.707884815455731
-4.074,0.2274875327832301,-0.5171453241628908
-4.0735,0.2061471830678648,-0.2946159176543747
-4.073,0.174136658494846,-0.1038764263615344
-4.0725,0.142126133921769,0.05507314971615059
-4.072,0.1207857842064037,0.1716361721729923
-4.0715,0.07810508477571196,0.2246193641987813
-4.071,-0.1886492866667714,-0.1144730647667211
-4.0705,-0.6047861061160158,-0.326405832869877
-4.07,-0.7861790786964558,-0.1568596183873523
-4.0695,-0.3166913849580411,-0.05089323433551411
-4.069,0.2808384070716433,-0.04029659593035631
-4.0685,0.6969752265212663,0.08686306493165288
-4.068,0.8570278493864478,0.2776025562249173
-4.0675,0.79300680024041,0.55311515475902
-4.067,0.6222840025174878,0.7332580076468663
-4.0665,0.4408910299369315,0.7650479228623011
-4.066,0.4942419042252961,0.6908714540261965
-4.0655,0.5369226036560266,0.5637117931641874
-4.065,0.4515612047946432,0.3411823866558736
-4.0645,0.3555296310754218,0.08686306493165288
-4.064,0.2701682322139607,-0.1780528951975329
-4.0635,0.1954770082102501,-0.2946159176542686
-4.063,-0.2740106855285139,0.1504428953632068
-4.0625,-0.9995825758502737,0.7544512844572011
-4.062,-1.543761493591594,1.167720182258355
-4.0615,-2.023919362187953,1.358459673551706
-4.061,-2.183971985053047,1.316073119931075
-4.0605,-1.522421143876723,0.6908714540261965
-4.06,-0.8075194284115007,-0.09327978795672354
-4.0595,-0.274010685527854,-0.6760949002404023
-4.059,0.04609456020262521,-0.9622041371799229
-4.0585,0.2061471830677193,-1.015187329205712
-4.058,0.2488278824985954,-0.8880276683437509
-4.0575,0.2381577076409128,-0.6760949002404023
-4.057,0.2168173579255669,-0.4217755785166152
-4.0565,0.1848068333524996,-0.1674562567923655
-4.056,0.142126133921769,0.04447651131098315
-4.0555,0.09944543449107725,0.1398462569574033
-4.055,-0.09261771294779259,0.03387987290582536
-4.0545,-0.690147504977477,0.04447651131098315
-4.054,-1.212986073003451,0.2776025562244546
-4.0535,-1.319687821580151,0.7014680924314025
-4.053,-0.658136980404429,0.7438546460520338
-4.0525,0.1741366584948169,0.3411823866556712
-4.052,0.7716664505252874,0.002089957690323059
-4.0515,1.038420821967111,0.01268659609548085
-4.051,1.038420821967111,0.2776025562246667
-4.0505,0.857027849386671,0.5531151547587694
-4.05,0.6222840025174878,0.7120647308365314
-4.0495,0.5369226036560266,0.7120647308365314
-4.049,0.6222840025174102,0.6590815388107424
-4.0485,0.5475927785135929,0.5213252395433249
-4.048,0.4195506802215176,0.309392471440169
-4.0475,0.3021787567871154,0.07626642652669749
-4.047,0.2274875327829875,-0.1780528951975426
-4.0465,-0.03926683865883591,-0.1886495336027004
-4.046,-0.6688071552615392,0.3305857482500316
-4.0455,-1.244996597577333,0.8816109453194031
-4.045,-1.639793067311232,1.093543713422559
-4.0445,-2.066600061618538,1.178316820663898
-4.044,-1.906547438752667,0.9769806909650909
-4.0435,-1.212986073003927,0.2881991946298341
-4.043,-0.572775581542968,-0.400582301706049
-4.0425,-0.1246282375207046,-0.8350444763175187
-4.042,0.1207857842064037,-1.025783967610927
-4.0415,0.2274875327832301,-1.004590690800593
-4.041,0.248827882498576,-0.8562377531283836
-4.0405,0.227487532783201,-0.6443049850246976
-4.04,0.1954770082101822,-0.4217755785163839
-4.0395,0.1634664836371634,-0.1886495336029124
-4.039,0.1314559590640572,0.00208995769043871
-4.0385,0.09944543449103843,0.13984625695749
-4.038,-0.2206598112391497,0.0232832345007543
-4.0375,-0.6154562809739605,-0.04029659592999972
-4.037,-0.9035510021311299,0.3517790250608387
-4.0365,-0.690147504977477,0.627291623595192
-4.036,0.3128489316454094,0.2140227257932091
-4.0355,1.102441871113207,-0.2840192792492073
-4.035,1.401206767128321,-0.326405832869877
-4.0345,1.337185717982283,0.01268659609517242
-4.034,1.091771696255524,0.4047622170866759
-4.0335,0.7823366253827275,0.6590815388106942
-4.033,0.5582629533715959,0.7968378380777457
-4.0325,0.7076454013789394,0.9345941373448933
-4.032,0.6969752265212663,0.7650479228623686
-4.0315,0.5689331282291911,0.4047622170870036
-4.031,0.4195506802214109,0.03387987290552659
-4.0305,0.3021787567870086,-0.2840192792492073
-4.03,0.227487532783298,-0.3052125560595229
-4.0295,-0.1566387620938884,0.235216002604527
-4.029,-0.754168554123573,0.8180311148882058
-4.0285,-1.234326422719292,1.199510097474233
-4.028,-1.70381411645727,1.443232780792892
-4.0275,-1.639793067311232,1.231300012689736
-4.027,-1.074273799854052,0.5319218779486851
-4.0265,-0.5194247072550594,-0.1462629799814138
-4.026,-0.1139580626626144,-0.5807251545938954
-4.0255,0.1101156093487211,-0.7502713690765743
-4.025,0.2168173579254504,-0.7184814538611008
-4.0245,0.2381577076408934,-0.5807251545937027
-4.024,0.2168173579255475,-0.3687923864905467
-4.0235,0.1954770082102016,-0.1568596183873908
-4.023,0.1527963087794322,0.01268659609563506
-4.0225,0.1314559590640864,0.1822328105781598
-4.022,0.0887752596333946,0.2670059178194221
-4.0215,-0.2099896363822434,0.002089957689870092
-4.021,-0.7434983792658902,-0.4853554089473885
-4.0205,-1.06360362499637,-0.6866915386455698
-4.02,-1.127624674141844,-0.517145324162862
-4.0195,-0.4447334832507763,-0.4853554089473885
-4.019,0.3555296310754218,-0.3687923864905467
-4.0185,0.8676980242437227,-0.1356663415770752
-4.018,1.038420821967111,0.1928294489833272
-4.0175,0.942389248247967,0.457745409112513
-4.017,0.7396559259521812,0.5849050699744065
-4.0165,0.5369226036560557,0.5637117931641585
-4.016,0.5689331282290746,0.5319218779486851
-4.0155,0.6222840025174393,0.4683420475177383
-4.015,0.5155822539405449,0.2458126410089234
-4.0145,0.3875401556484697,-0.01910331912002144
-4.014,0.2808384070717403,-0.2840192792489664
-4.0135,0.2381577076411942,-0.4641621321367259
-4.013,0.5475927785137094,-0.1038764263613609
-4.0125,0.5689331282290746,0.5001319627331828
-4.012,0.01408403562891739,0.9345941373452017
-4.0115,-0.7114878546928423,1.104140351827727
-4.011,-1.362368521011484,1.210106735879401
-4.0105,-1.298347471865446,0.7968378380782468
-4.01,-0.839529952985034,0.1292496185523226
-4.0095,-0.391382608962363,-0.400582301706049
-4.009,-0.06060718837450202,-0.6760949002401517
-4.0085,0.1207857842064813,-0.7290780922661527
-4.008,0.2061471830678648,-0.6337083466197325
-4.0075,0.2168173579255378,-0.45356549373205
-4.007,0.206147183067826,-0.2416327256283641
-4.0065,0.1634664836371343,-0.05089323433552374
-4.006,0.1314559590640864,0.1080563417419877
-4.0055,0.1101156093486046,0.224619364198762
-4.005,-0.01792648894347063,0.1504428953626575
-4.0045,-0.4340633083930936,-0.2416327256285375
-4.004,-0.75416855412367,-0.1568596183867259
-4.0035,-0.8608703027003992,0.3623756634660061
-4.003,-0.4340633083930936,0.5213252395435176
-4.0025,0.2168173579249555,0.2246193641990993
-4.002,0.7183155762366316,-0.008506680714854012
-4.0015,0.9317190733902845,-0.06148987274069118
-4.001,0.9210488985326114,0.1186529801469914
-4.0005,0.7609962756671682,0.3729723018713181
-4,0.5475927785137094,0.5319218779486851
-3.9995,0.4622313796522482,0.5107286011383502
-3.999,0.5582629533713921,0.4365521323021782
-3.9985,0.5049120790829789,0.2881991946298341
-3.998,0.3875401556484697,0.08686306493165288
-3.9975,0.2808384070716433,-0.1356663415768632
-3.997,0.2061471830678648,-0.3475991096802118
-3.9965,-0.09261771294724913,-0.1886495336027004
-3.996,-0.7648387289812555,0.4153588554918433
-3.9955,-1.159635198715513,0.9769806909657173
-3.995,-1.351698346153801,1.241896651094903
-3.9945,-1.554431668449771,1.347863035146577
-3.994,-1.255666772434657,0.8604176685088755
-3.9935,-0.722158029550525,0.1080563417419877
-3.993,-0.274010685527854,-0.4959520473525559
-3.9925,0.01408403562957729,-0.8244478379127463
-3.992,0.1634664836371343,-0.9198175835592532
-3.9915,0.2168173579255475,-0.8456411147230812
-3.991,0.2274875327832301,-0.6760949002404023
-3.9905,0.2061471830678648,-0.4641621321370536
-3.99,0.1848068333524996,-0.2416327256285375
-3.9895,0.1527963087794516,-0.05089323433552374
-3.989,0.142126133921769,0.1186529801471552
-3.9885,0.1207857842064037,0.2987958330350016
-3.988,-0.1673089369510276,0.3199891098453364
-3.9875,-0.5834457564006506,-0.02969995752518888
-3.987,-0.7755089038389382,-0.04029659593035631
-3.9865,-0.5194247072545548,0.1080563417419877
-3.986,0.09944543449103843,-0.06148987274069118
-3.9855,0.6329541773751706,-0.1780528951975329
-3.985,0.9210488985326017,0.02328323450064829
-3.9845,0.9530594231056497,0.3623756634660061
-3.984,0.79300680024041,0.5955017083796896
-3.9835,0.5902734779444399,0.6696781772158616
-3.983,0.4515612047945656,0.6060983467848571
-3.9825,0.5582629533713921,0.3411823866556712
-3.982,0.5582629533713921,0.1716361721729923
-3.9815,0.4515612047945656,0.03387987290581572
-3.981,0.3341892813600565,-0.1038764263613609
-3.9805,0.2381577076409128,-0.2840192792492073
-3.98,0.3448594562177392,-0.2416327256285375
-3.9795,0.7609962756673623,0.2987958330350016
-3.979,0.3875401556484697,0.8604176685088755
-3.9785,-0.3807124341046804,1.210106735879401
-3.978,-1.212986073003927,1.37965295036208
-3.9775,-1.533091318734406,1.188913459069066
-3.977,-1.170305373573196,0.4471487707073456
-3.9765,-0.658136980404429,-0.3052125560595421
-3.976,-0.2313299860971235,-0.8032545611024114
-3.9755,0.03542438534494258,-1.025783967610927
-3.975,0.1741366584948169,-1.025783967610927
-3.9745,0.2168173579255475,-0.8880276683437509
-3.974,0.2168173579255475,-0.6654982618352349
-3.9735,0.1954770082101822,-0.4323722169215513
-3.973,0.1527963087794516,-0.2098428104130352
-3.9725,0.1207857842064037,-0.02969995752518888
-3.972,0.1101156093487211,0.1186529801471552
-3.9715,-0.06060718837420119,0.2140227257936621
-3.971,-0.6047861061160158,0.03387987290581572
-3.9705,-1.138294849000148,-0.1568596183871981
-3.97,-1.287677297007705,-0.2204394488182027
-3.9695,-0.6047861061160158,-0.1674562567923655
-3.969,0.2488278824985954,-0.4429688553267188
-3.9685,0.8036769750980928,-0.4959520473525559
-3.968,1.017080472251745,-0.1886495336027004
-3.9675,0.9637295979633325,0.1928294489833272
-3.967,0.7716664505250448,0.4365521323021782
-3.9665,0.5689331282290746,0.6060983467848571
-3.966,0.5369226036560266,0.7438546460520338
-3.9655,0.5262524287983441,0.7226613692416989
-3.965,0.4302208550792003,0.5001319627331828
-3.9645,0.3128489316446912,0.2246193641988295
-3.964,0.2274875327832301,-0.04029659593035631
-3.9635,0.1954770082101822,-0.2310360872233701
-3.963,0.2381577076409128,0.08686306493165288
-3.9625,-0.02859666380115328,0.701468092431364
-3.962,-0.4127229586777283,0.9769806909657173
-3.9615,-0.9569018764195432,1.167720182258731
-3.961,-1.394379045584531,1.316073119931075
-3.9605,-1.202315898146244,0.8710143069140429
-3.96,-0.722158029550525,0.1928294489833272
-3.9595,-0.2953510352432193,-0.3475991096802118
-3.959,-0.007256314085787988,-0.6443049850249
-3.9585,0.1527963087794516,-0.7290780922662394
-3.958,0.2061471830678648,-0.6760949002404023
-3.9575,0.2168173579255475,-0.5383386009732256
-3.957,0.1954770082101822,-0.3581957480853793
-3.9565,0.1741366584948169,-0.1780528951975329
-3.956,0.1527963087794516,-0.008506680714854012
-3.9555,0.1314559590640864,0.08686306493165288
-3.955,-0.03926683865883591,-0.008506680714854012
-3.9545,-0.5941159312583333,-0.4853554089473885
-3.954,-0.9462317015618604,-0.6337083466197325
-3.9535,-1.127624674142465,-0.1038764263613609
-3.953,-0.8715404775580819,0.2246193641988295
-3.9525,-0.156638762093345,0.002089957690313421
-3.952,0.4515612047945656,-0.1462629799820306
-3.9515,0.8143471499557753,-0.1144730647665284
-3.951,0.8890383739595538,0.08686306493165288
-3.9505,0.7609962756673623,0.3199891098453364
-3.95,0.5796033030867573,0.5001319627331828
-3.9495,0.5369226036560266,0.627291623595192
-3.949,0.7183155762366316,0.7544512844572011
-3.9485,0.6649647019482183,0.5637117931641874
-3.948,0.5155822539406614,0.2458126410091644
-3.9475,0.3555296310754218,-0.05089323433552374
-3.947,0.2488278824985954,-0.3052125560595421
-3.9465,0.2061471830678648,-0.1886495336027004
-3.946,0.08877525963335578,0.4259554938970107
-3.9455,-0.3700422592469978,1.019367244586387
-3.945,-0.9889124009925911,1.369056311956912
-3.9445,-1.607782542738184,1.538602526439591
-3.944,-1.618452717595867,1.316073119931075
-3.9435,-1.1062843244271,0.6378882620003594
-3.943,-0.5514352318276028,0.002089957690313421
-3.9425,-0.1459685872356623,-0.3899856633008816
-3.942,0.09944543449103843,-0.5489352393783931
-3.9415,0.2061471830678648,-0.5171453241628908
-3.941,0.2274875327832301,-0.3899856633008816
-3.9405,0.2168173579255475,-0.2098428104130352
-3.94,0.1954770082101822,-0.01910331912002144
-3.9395,0.1634664836371343,0.1186529801471552
-3.939,0.142126133921769,0.2034260873884947
-3.9385,0.09944543449103843,0.2458126410091644
-3.938,-0.274010685527854,-0.09327978795619347
-3.9375,-0.6047861061160158,-0.3899856633008816
-3.937,-0.9462317015618604,0.01268659609548085
-3.9365,-0.9995825758502737,0.5319218779486851
-3.936,-0.3807124341046804,0.2987958330350016
-3.9355,0.3021787567870086,-0.1674562567923655
-3.935,0.7289857510943143,-0.4111789401112165
-3.9345,0.8463576745288233,-0.3158091944647096
-3.934,0.7503261008096795,-0.06148987274069118
-3.9335,0.5902734779444399,0.1610395337678249
-3.933,0.4515612047945656,0.2987958330350016
-3.9325,0.5902734779444399,0.457745409112513
-3.932,0.5902734779444399,0.4259554938970107
-3.9315,0.4729015545099309,0.2352160026039969
-3.931,0.3448594562177392,0.03387987290581572
-3.9305,0.2381577076409128,-0.1780528951975329
-3.93,0.142126133921769,-0.1568596183871981
-3.9295,-0.3807124341046804,0.4047622170866759
-3.929,-0.8822106524157645,0.9134008605347127
-3.9285,-1.159635198715513,1.231300012689736
-3.928,-1.042263275281004,0.9981739677760521
-3.9275,-0.658136980404429,0.3941655786815084
-3.927,-0.274010685527854,-0.1462629799820306
-3.9265,-0.007256314085787988,-0.4959520473525559
-3.926,0.1314559590640864,-0.6337083466197325
-3.9255,0.1954770082101822,-0.6231117082145651
-3.925,0.2061471830678648,-0.5277419625680583
-3.9245,0.1954770082101822,-0.3899856633008816
-3.924,0.1848068333524996,-0.2310360872233701
-3.9235,0.1634664836371343,-0.08268314955102604
-3.923,0.1101156093487211,0.02328323450064829
-3.9225,0.0674349099179905,0.07626642652648545
-3.922,0.05676473506030786,0.002089957690313421
-3.9215,-0.08194753808956648,-0.1462629799820306
-3.921,-0.5087545323968721,-0.5171453241628908
-3.9205,-0.8288597781273515,-0.5807251545938954
-3.92,-0.9462317015618604,-0.252229364033705
-3.9195,-0.4127229586777283,-0.2628260024388724
-3.919,0.2808384070716433,-0.474758770542221
-3.9185,0.7503261008096795,-0.4535654937318862
-3.918,0.9317190733902845,-0.1992461720078678
-3.9175,0.8783681991018712,0.08686306493165288
-3.917,0.6969752265212663,0.309392471440169
-3.9165,0.5049120790829789,0.3941655786815084
-3.916,0.5049120790829789,0.4895353243280153
-3.9155,0.5582629533713921,0.4895353243280153
-3.915,0.4729015545099309,0.2670059178194992
-3.9145,0.3448594562177392,0.002089957690313421
-3.914,0.2594980573562781,-0.252229364033705
-3.9135,0.2061471830678648,-0.4429688553267188
-3.913,0.4408910299368829,-0.474758770542221
-3.9125,0.6009436528021226,-0.02969995752518888
-3.912,0.03542438534494258,0.6590815388106942
-3.9115,-0.7861790786966207,1.241896651094903
-3.911,-1.415719395299897,1.528005888034424
-3.9105,-1.287677297007705,1.125333628638062
-3.91,-0.8181896032696687,0.4153588554918433
-3.9095,-0.3700422592469978,-0.1674562567923655
-3.909,-0.04993701351651855,-0.5065486857577234
-3.9085,0.1207857842064037,-0.6125150698093976
-3.908,0.1954770082101822,-0.5595318777835605
-3.9075,0.2168173579255475,-0.4217755785163839
-3.907,0.1954770082101822,-0.252229364033705
-3.9065,0.1527963087794516,-0.1038764263613609
-3.906,0.1101156093487211,0.002089957690313421
-3.9055,0.08877525963335578,0.1080563417419877
-3.905,-0.08194753808956648,0.01268659609548085
-3.9045,-0.6367966306890638,-0.4853554089473885
-3.904,-0.9569018764195432,-0.6337083466197325
-3.9035,-1.202315898146244,-0.1674562567923655
-3.903,-0.9889124009925911,0.13984625695749
-3.9025,-0.2420001609548061,-0.09327978795619347
-3.902,0.4408910299368829,-0.3581957480853793
-3.9015,0.825017324813458,-0.252229364033705
-3.901,0.9210488985326017,0.02328323450064829
-3.9005,0.8036769750980928,0.2564092794143318
-3.9,0.6222840025174878,0.383568940276341
-3.8995,0.5155822539406614,0.457745409112513
-3.899,0.6542945270905358,0.627291623595192
-3.8985,0.6116138276598051,0.4789386859228479
-3.898,0.4729015545099309,0.1716361721729923
-3.8975,0.3341892813600565,-0.1462629799820306
-3.897,0.2381577076409128,-0.400582301706049
-3.8965,0.291508581929326,-0.3581957480853793
-3.896,0.4835717293676135,0.2352160026039969
-3.8955,0.07810508477567314,0.8710143069140429
-3.895,-0.5941159312583333,1.220703374284568
-3.8945,-1.330357996438436,1.390249588767247
-3.894,-1.597112367880501,1.29487984312074
-3.8935,-1.202315898146244,0.6696781772158616
-3.893,-0.658136980404429,0.02328323450064829
-3.8925,-0.2313299860971235,-0.4111789401112165
-3.892,0.04609456020262521,-0.5913217929990628
-3.8915,0.1741366584948169,-0.5807251545938954
-3.891,0.2168173579255475,-0.4641621321370536
-3.8905,0.2168173579255475,-0.2840192792492073
-3.89,0.1954770082101822,-0.08268314955102604
-3.8895,0.1634664836371343,0.08686306493165288
-3.889,0.142126133921769,0.2034260873884947
-3.8885,0.1207857842064037,0.2881991946298341
-3.888,-0.156638762093345,0.3517790250608387
-3.8875,-0.7755089038389382,0.1822328105781598
