Class_10_Using_Wats_App/Class_10_WatsApp_Souku_3.csv

#Digilent WaveForms Oscilloscope Acquisition
#Device Name: EExplorer
#Serial Number: SN:210151A2B84A
#Date Time: 2020-12-22 14:28:27.509
#Sample rate: 2000Hz
#Samples: 16384
#Trigger: Source: Channel 1 Type: Edge Condition: Rising Level: 0 V Hyst.: Auto HoldOff: 0 s
#Channel 1: Range: 1 V/div Offset: 0 V Attenuation: 1 X
#Channel 2: Range: 1 V/div Offset: 0 V Attenuation: 1 X
#Power Supplies: ON
#Fixed Supply: ON
#Voltage: 3.3 V Readback: 3.326 V
#Positive Supply: ON
#Voltage: 3.7 V Readback: 3.689 V
#Current: 40 mA Readback: 20 mA
#Negative Supply: ON
#Voltage: -3.7 V Readback: -4.065 V
#Current: -40 mA Readback: -16 mA
#Reference 1: ON
#Voltage: 0 V
#Reference 2: ON
#Voltage: 0 V

Time (s),Channel 1 (V),Channel 2 (V)
-4.096,0.1634664836371343,-0.008506680714854012
-4.0955,0.1314559590641155,0.3093924714398799
-4.095,0.3448594562180012,0.2670059178193354
-4.0945,0.6329541773751706,0.08686306493165288
-4.094,0.6436243522328434,0.002089957690390526
-4.0935,0.568933128228997,-0.08268314955111278
-4.093,0.4835717293676135,-0.1780528951975329
-4.0925,0.39821033050623,-0.2734226408439531
-4.092,0.08877525963264736,-0.1250697031712139
-4.0915,-0.690147504977477,0.4047622170866759
-4.091,-1.319687821580753,0.9981739677760521
-4.0905,-1.746494815888068,0.8604176685080562
-4.09,-1.757164990745741,-0.04029659593035631
-4.0895,-1.180975548430879,-0.5171453241628908
-4.089,-0.5194247072551564,-0.6549016234299421
-4.0885,-0.01792648894347063,-0.6019184314042303
-4.088,0.2808384070716433,-0.474758770542221
-4.0875,0.4088805053637186,-0.3370024712751697
-4.087,0.4515612047945461,-0.2098428104129292
-4.0865,0.4302208550792003,-0.09327978795619347
-4.086,0.4088805053638545,0.02328323450054227
-4.0855,0.376869980790758,0.1292496185524094
-4.085,0.3448594562177392,0.2246193641988295
-4.0845,0.3235191065023933,0.3199891098452496
-4.084,0.216817357925004,0.3941655786815084
-4.0835,-0.3807124341046804,0.3941655786815084
-4.083,-0.9782422261349084,0.2881991946298341
-4.0825,-1.244996597576683,0.08686306493161433
-4.082,-0.9248913518464952,0.04447651131098315
-4.0815,-0.2526703358124887,0.01268659609548085
-4.081,0.3661998059325416,0.1504428953625322
-4.0805,0.7183155762366316,0.3729723018711736
-4.08,0.825017324813458,0.6378882620003594
-4.0795,0.8036769750981122,0.7120647308364639
-4.079,0.6969752265209849,0.7226613692414194
-4.0785,0.3875401556484697,0.4153588554918433
-4.078,-0.1993194615235418,-0.347599109679518
-4.0775,-0.1032878878048541,-0.3687923864905082
-4.077,-0.01792648894347063,-0.326405832869877
-4.0765,0.1101156093486046,-0.220439448818299
-4.076,0.2915085819292483,-0.1038764263613127
-4.0755,0.2061471830678648,-0.05089323433552374
-4.075,-0.4340633083930936,0.2352160026039969
-4.0745,-1.447729919873663,0.7756445612680275
-4.074,-2.23732285934146,1.316073119931075
-4.0735,-2.80284212679864,1.644568910491266
-4.073,-2.333354433061031,1.33726639674169
-4.0725,-1.373038695869166,0.627291623595192
-4.072,-0.5087545323968721,-0.008506680714854012
-4.0715,0.05676473505979351,-0.4111789401108503
-4.071,0.3555296310755285,-0.5701285161886991
-4.0705,0.4729015545099309,-0.5383386009732256
-4.07,0.4835717293676038,-0.4005823017061743
-4.0695,0.4622313796522094,-0.2098428104128521
-4.069,0.4195506802215176,-0.008506680714854012
-4.0685,0.3768699807907871,0.2034260873884947
-4.068,0.355529631075383,0.394165578681653
-4.0675,0.3128489316446912,0.55311515475902
-4.067,-0.2313299860971235,0.5849050699745222
-4.0665,-0.8715404775583634,0.4577454091122914
-4.066,-1.180975548430879,0.2140227257936621
-4.0655,-1.116954499284783,-0.2098428104130352
-4.065,-0.3700422592476772,-0.5913217929987159
-4.0645,0.3982103305061524,-0.6443049850249
-4.064,0.8356874996711408,-0.2840192792492073
-4.0635,0.963729597963216,0.2352160026035247
-4.063,0.8997085488171104,0.627291623595375
-4.0625,0.7609962756673623,0.8286277532933731
-4.062,0.632954177375287,0.8180311148882154
-4.0615,0.7289857510943046,0.5001319627329516
-4.061,0.7183155762366316,0.2458126410091644
-4.0605,0.6116138276598051,0.08686306493165288
-4.06,0.3341892813594549,-0.220439448818858
-4.0595,-0.3273615598162672,-0.9410108603695881
-4.059,-0.3487019095316325,-0.9516074987747555
-4.0585,-0.6794773301194934,-0.3475991096807612
-4.058,-1.426389570157579,0.5425185163538525
-4.0575,-2.045259711903173,1.316073119931075
-4.057,-2.621449154217511,1.135930267043392
-4.0565,-2.770831602225592,0.04447651131098315
-4.056,-1.959898313041711,-0.7290780922662394
-4.0555,-0.9995825758511471,-1.036380606015815
-4.055,-0.2420001609543888,-1.046977244421127
-4.0545,0.2168173579255475,-0.8986243067489184
-4.054,0.4408910299366792,-0.6760949002406047
-4.0535,0.5049120790829692,-0.4323722169213393
-4.053,0.4942419042252961,-0.1992461720078678
-4.0525,0.4515612047945656,0.02328323450064829
-4.052,0.3982103305061136,0.2458126410093475
-4.0515,0.3555296310754218,0.4471487707073456
-4.051,0.3341892813600565,0.6166949851900245
-4.0505,0.1314559590642707,0.6378882620003401
-4.05,-0.3807124341046804,0.3517790250608387
-4.0495,-0.7755089038389382,0.02328323450064829
-4.049,-0.9355615267040321,-0.3052125560592434
-4.0485,-0.3807124341040399,-0.6654982618353024
-4.048,0.3235191065023739,-0.7396747306714069
-4.0475,0.8143471499553289,-0.421775578516673
-4.047,1.017080472251707,0.06566978812174207
-4.0465,0.974399772821015,0.5319218779486851
-4.046,0.8356874996712669,0.7544512844569987
-4.0455,0.6649647019482087,0.8286277532931996
-4.045,0.6542945270905358,0.6378882620003594
-4.0445,0.6649647019482183,0.3411823866556712
-4.044,0.5902734779443622,0.1398462569573262
-4.0435,0.5049120790829789,-0.04029659593035631
-4.043,0.4302208550792003,-0.2204394488182027
-4.0425,0.3875401556485085,-0.411178940111043
-4.042,0.2381577076409128,-0.3581957480853793
-4.0415,-0.4020527838200457,-0.2416327256285375
-4.041,-1.490410619302685,-0.580725154593587
-4.0405,-1.917217613611398,-0.3475991096797685
-4.04,-2.376035132491334,0.13984625695749
-4.0395,-1.95989831304209,0.1822328105781212
-4.039,-1.063603624995719,-0.1144730647668849
-4.0385,-0.3487019095316325,-0.5065486857577234
-4.038,0.09944543449063087,-0.7502713690763527
-4.0375,0.3448594562178265,-0.7926579226971476
-4.037,0.4408910299368829,-0.6866915386455698
-4.0365,0.4622313796522482,-0.4853554089473885
-4.036,0.4408910299368635,-0.2204394488179521
-4.0355,0.4195506802215176,0.05507314971615059
-4.035,0.3982103305061524,0.3305857482505039
-4.0345,0.3768699807908065,0.5849050699742908
-4.034,0.3021787567870086,0.7968378380778709
-4.0335,0.03542438534494258,0.8392243916985406
-4.033,-0.2526703358122267,0.6484849004057003
-4.0325,-0.5727755815428031,0.3093924714400051
-4.032,-0.391382608962363,0.1292496185523226
-4.0315,0.1741366584943025,-0.08268314955083328
-4.031,0.6649647019484415,0.05507314971632406
-4.0305,0.9103787236749192,0.2458126410091644
-4.03,0.9423892482479379,0.5319218779484248
-4.0295,0.8676980242440721,0.6802748156210676
-4.029,0.7396559259519968,0.7226613692416989
-4.0285,0.6329541773751706,0.6696781772158616
-4.028,0.6222840025174199,0.4895353243278611
-4.0275,0.5475927785137094,0.3199891098453364
-4.027,0.4835717293676135,0.1504428953626575
-4.0265,0.4408910299369218,-0.05089323433534063
-4.026,0.3982103305061524,-0.2628260024388724
-4.0255,0.4195506802215176,-0.3581957480853793
-4.025,0.3128489316447883,0.02328323450030134
-4.0245,-0.4020527838207542,0.6378882620007739
-4.024,-1.180975548430879,1.093543713422559
-4.0235,-1.831856214748928,0.9557874141555076
-4.023,-1.842526389607125,0.129249618551195
-4.0225,-1.757164990745741,-1.110557074852267
-4.022,-1.063603624997,-1.470842780627632
-4.0215,-0.466073832965763,-1.492036057438112
-4.021,-0.04993701351651855,-1.290699927740113
-4.0205,0.291508581929326,-0.9092209451540858
-4.02,0.4408910299368732,-0.5595318777833292
-4.0195,0.4302208550792003,-0.3052125560595421
-4.019,0.3982103305061524,-0.05089323433552374
-4.0185,0.3661998059331336,0.2034260873882633
-4.018,0.3341892813600565,0.4471487707073456
-4.0175,0.3341892813600565,0.6696781772158616
-4.017,0.09944543449125193,0.8498210301035442
-4.0165,-0.4340633083936953,0.9028042221294778
-4.016,-1.095614149569417,0.8286277532933731
-4.0155,-1.586442193022373,0.4471487707076925
-4.015,-1.031593100422545,-0.08268314955121879
-4.0145,-0.1779791118087102,-0.2946159176543747
-4.014,0.4942419042246847,-0.1780528951976389
-4.0135,0.7930068002404489,0.2564092794147076
-4.013,0.8356874996711408,0.6696781772158616
-4.0125,0.7396559259519968,0.8710143069140429
-4.012,0.6329541773752191,0.8604176685085382
-4.0115,0.6863050516635838,0.4895353243280153
-4.011,0.6863050516635838,0.1610395337678249
-4.0105,0.6009436528022002,-0.0191033191198576
-4.01,0.5049120790829789,-0.1674562567923655
-4.0095,0.4408910299368829,-0.3158091944647096
-4.009,0.3341892813601536,-0.4005823017059719
-4.0085,0.2808384070714298,-0.1038764263608887
-4.008,0.04609456020262521,0.4153588554918433
-4.0075,-0.594115931257751,0.892207583723944
-4.007,-1.255666772434929,0.7968378380776878
-4.0065,-1.554431668449771,0.5955017083796896
-4.006,-1.127624674142465,0.09745970333682032
-4.0055,-0.5407650569694834,-0.4005823017063285
-4.005,-0.06060718837420119,-0.7078848154559045
-4.0045,0.1207857842064037,-0.9198175835592532
-4.004,-0.2633405106702102,-1.386069673386543
-4.0035,-0.3060212101009019,-1.301296566145281
-4.003,-0.1459685872356623,-0.8986243067489184
-4.0025,0.003413860771758787,-0.4747587705426066
-4.002,0.2061471830678648,0.02328323450064829
-4.0015,0.3341892813600565,0.4259554938970107
-4.001,0.3235191065023836,0.6696781772156399
-4.0005,-0.07127736323266989,0.9134008605349536
-4,-0.9355615267041777,1.178316820663898
-3.9995,-1.383708870726849,1.25249328950007
-3.999,-1.405049220442214,0.9875773293708847
-3.9985,-0.6367966306890638,0.2352160026039969
-3.998,0.291508581929326,-0.2204394488182027
-3.9975,0.8997085488172365,-0.1674562567923655
-3.997,1.102441871113207,0.05507314971615059
-3.9965,1.059761171682476,0.4047622170866759
-3.996,0.8783681991018712,0.627291623595192
-3.9955,0.6863050516635838,0.6908714540261965
-3.995,0.6009436528021226,0.5425185163538525
-3.9945,0.5796033030867573,0.2987958330350016
-3.994,0.5262524287983441,0.13984625695749
-3.9935,0.4622313796522482,-0.01910331912002144
-3.993,0.4195506802215176,-0.1780528951975329
-3.9925,0.3768699807907871,-0.3158091944647096
-3.992,0.04609456020262521,-0.1038764263613609
-3.9915,-0.7328282044082075,0.5107286011383502
-3.991,-1.319687821580753,1.082947075017392
-3.9905,-1.650463242168915,1.199510097474233
-3.99,-1.789175515318789,1.029963882991555
-3.9895,-1.255666772434657,0.4789386859228479
-3.989,-0.5941159312583333,-0.1250697031716958
-3.9885,-0.07127736323188383,-0.5383386009732256
-3.988,0.2488278824985954,-0.7078848154559045
-3.9875,0.408880505363835,-0.6866915386455698
-3.987,0.4622313796522482,-0.5489352393783931
-3.9865,0.4515612047945656,-0.3370024712750445
-3.986,0.408880505363835,-0.1038764263613609
-3.9855,0.08877525963335578,-0.1462629799820306
-3.985,-0.4980843575391895,-0.4641621321370536
-3.9845,-0.3273615598162672,-0.07208651114585861
-3.984,-0.2846808603855366,0.2246193641988295
-3.9835,-0.7755089038389382,0.3941655786815084
-3.983,-0.9995825758502737,0.4683420475176805
-3.9825,-1.138294849000148,0.2352160026039969
-3.982,-0.9035510021311299,-0.326405832869877
-3.9815,-0.08194753808956648,-0.8668343915334161
-3.981,0.6329541773751706,-0.9198175835592532
-3.9805,0.9957401225363802,-0.3687923864905467
-3.98,1.038420821967111,0.2140227257936621
-3.9795,0.8997085488172365,0.5849050699745222
-3.979,0.7289857510943143,0.7438546460520338
-3.9785,0.6329541773751706,0.6590815388106942
-3.978,0.7396559259519968,0.2776025562246667
-3.9775,0.707645401378949,0.02328323450064829
-3.977,0.6009436528021226,-0.1356663415768632
-3.9765,0.5049120790829789,-0.2734226408440398
-3.976,0.4302208550792003,-0.4217755785163839
-3.9755,0.2061471830678648,-0.4429688553267188
-3.975,-0.5514352318276028,-0.02969995752518888
-3.9745,-1.277007122150022,0.6166949851900245
-3.974,-1.810515865034154,0.9981739677760521
-3.9735,-2.290673733629873,0.4683420475176805
-3.973,-1.981238662757077,-0.2310360872233701
-3.9725,-1.159635198715513,-0.6972881770507372
-3.972,-0.423393133535411,-0.8986243067489184
-3.9715,0.08877525963335578,-0.9198175835592532
-3.971,0.3555296310754218,-0.792657922697244
-3.9705,0.4622313796522482,-0.6125150698093976
-3.97,0.4835717293676135,-0.3899856633008816
-3.9695,0.4408910299368829,-0.1568596183871981
-3.969,0.4195506802215176,0.07626642652648545
-3.9685,0.3875401556484697,0.309392471440169
-3.968,0.3555296310754218,0.5213252395435176
-3.9675,0.3341892813600565,0.701468092431364
-3.967,-0.03926683865883591,0.8710143069140429
-3.9665,-0.6367966306890638,1.135930267043229
-3.966,-1.191645723288561,0.9981739677760521
-3.9655,-1.597112367880501,0.05507314971615059
-3.965,-0.722158029550525,-0.5171453241628908
-3.9645,0.07810508477567314,-0.792657922697244
-3.964,0.6222840025174878,-0.4853554089473885
-3.9635,0.9210488985326017,0.04447651131098315
-3.963,0.942389248247967,0.4683420475176805
-3.9625,0.7823366253827275,0.627291623595192
-3.962,0.6222840025174878,0.6802748156210291
-3.9615,0.5902734779444399,0.5001319627331828
-3.961,0.5475927785137094,0.3199891098453364
-3.9605,0.4835717293676135,0.1610395337678249
-3.96,0.4408910299368829,-0.01910331912002144
-3.9595,0.4195506802215176,-0.2098428104130352
-3.959,0.3555296310754218,-0.3475991096802118
-3.9585,-0.1779791118087102,-0.05089323433552374
-3.958,-0.9142211769888124,0.55311515475902
-3.9575,-1.618452717595867,1.029963882991555
-3.957,-2.19464215991073,0.5743084315693548
-3.9565,-2.290673733629873,-0.4323722169215513
-3.956,-1.575772018165136,-0.8244478379127463
-3.9555,-0.7434983792658902,-0.7820612842920766
-3.955,-0.1139580626626144,-0.5913217929990628
-3.9545,0.2594980573562781,-0.3793890248957141
-3.954,0.4408910299368829,-0.2098428104130352
-3.9535,0.4942419042252961,-0.08268314955102604
-3.953,0.4729015545099309,0.02328323450064829
-3.9525,0.4408910299368829,0.09745970333682032
-3.952,0.3875401556484697,0.1716361721729923
-3.9515,0.3555296310754218,0.2352160026039969
-3.951,0.3555296310754218,0.2881991946298341
-3.9505,0.1848068333524996,0.3517790250608387
-3.95,-0.4660738329661415,0.5001319627331828
-3.9495,-1.06360362499637,0.6166949851900245
-3.949,-1.330357996438436,0.55311515475902
-3.9485,-0.7328282044082075,0.02328323450064829
-3.948,0.07810508477567314,-0.3793890248957141
-3.9475,0.6649647019482183,-0.3581957480853793
-3.947,0.8143471499557753,-0.2098428104130352
-3.9465,0.3021787567870086,-0.4853554089473885
-3.946,0.0674349099179905,-0.4429688553267188
-3.9455,0.07810508477567314,-0.1886495336027004
-3.945,0.2061471830678648,-0.08268314955102604
-3.9445,0.4729015545099309,-0.01910331912002144
-3.944,0.5796033030867573,0.07626642652648545
-3.9435,0.5155822539406614,0.05507314971615059
-3.943,0.4515612047945656,0.02328323450064829
-3.9425,0.3875401556484697,-0.01910331912002144
-3.942,0.02475421048725994,0.2458126410091644
-3.9415,-0.839529952985034,0.8392243916985406
-3.941,-1.67180359188428,1.400846227172415
-3.9405,-2.301343908487556,1.591585718465428
-3.94,-2.472066706210478,1.157123543853563
-3.9395,-1.767835165603424,0.5319218779486851
-3.939,-0.8928808272734472,-0.01910331912002144
-3.9385,-0.1993194615240755,-0.3581957480853793
-3.938,0.2274875327832301,-0.474758770542221
-3.9375,0.4408910299368829,-0.4429688553267188
-3.937,0.5049120790829789,-0.326405832869877
-3.9365,0.4942419042252961,-0.1674562567923655
-3.936,0.4622313796522482,0.01268659609548085
-3.9355,0.4195506802215176,0.1822328105781598
-3.935,0.3982103305061524,0.3517790250608387
-3.9345,0.3875401556484697,0.5001319627331828
-3.934,0.3021787567870086,0.627291623595192
-3.9335,-0.2953510352432193,0.7544512844572011
-3.933,-0.9675720512772257,0.775644561267536
-3.9325,-1.437059745015262,0.5955017083796896
-3.932,-1.394379045584531,0.1186529801471552
-3.9315,-0.5941159312583333,-0.326405832869877
-3.931,0.2061471830678648,-0.2628260024388724
-3.9305,0.6756348768059011,-0.02969995752518888
-3.93,0.8356874996711408,0.2776025562246667
-3.9295,0.825017324813458,0.4683420475176805
-3.929,0.7289857510943143,0.5955017083796896
-3.9285,0.5689331282290746,0.457745409112513
-3.928,0.142126133921769,-0.3581957480853793
-3.9275,-0.04993701351651855,-0.7396747306714069
-3.927,0.03542438534494258,-0.6972881770507372
-3.9265,0.08877525963335578,-0.6337083466197325
-3.926,0.2488278824985954,-0.4959520473525559
-3.9255,0.2381577076409128,-0.2204394488182027
-3.925,-0.5514352318276028,0.4153588554918433
-3.9245,-1.682473766741963,1.093543713422559
-3.924,-2.589438629644987,1.570392441655093
-3.9235,-3.272329820536676,1.814115124973944
-3.923,-2.856193001087053,1.580989080060261
-3.9225,-1.703814116457328,0.8180311148882058
-3.922,-0.690147504977477,0.1080563417419877
-3.9215,0.00341386077189465,-0.3475991096802118
-3.921,0.3661998059331045,-0.5383386009732256
-3.9205,0.5155822539406614,-0.5171453241628908
-3.92,0.5369226036560266,-0.3793890248957141
-3.9195,0.5049120790829789,-0.1674562567923655
-3.919,0.4622313796522482,0.06566978812131802
-3.9185,0.4195506802215176,0.2776025562246667
-3.918,0.3982103305061524,0.4895353243280153
-3.9175,0.3875401556484697,0.6590815388106942
-3.917,0.1101156093487211,0.8180311148882058
-3.9165,-0.5194247072545548,0.9345941373450475
-3.916,-1.202315898146244,0.92399749893988
-3.9155,-1.341028171296118,0.6696781772158616
-3.915,-0.4874141826815069,0.03387987290581572
-3.9145,0.3768699807907871,-0.3899856633008816
-3.914,0.9103787236749192,-0.2840192792492073
-3.9135,1.059761171682476,0.07626642652648545
-3.913,0.9850699476786977,0.3517790250608387
-3.9125,0.8356874996711408,0.5637117931641874
-3.912,0.6756348768059011,0.627291623595192
-3.9115,0.6542945270905358,0.4683420475176805
-3.911,0.6222840025174878,0.2670059178194992
-3.9105,0.5582629533713921,0.1080563417419877
-3.91,0.4835717293676135,-0.07208651114585861
-3.9095,-0.02859666380115328,-0.7290780922662394
-3.909,-0.4554036581084589,-1.258910012524611
-3.9085,-0.8288597781273515,-0.9622041371799229
-3.908,-1.693143941599645,-0.2840192792492073
-3.9075,-2.173301810195364,0.5955017083796896
-3.907,-2.333354433060604,0.8180311148882058
-3.9065,-2.408045657064382,-0.01910331912002144
-3.906,-1.725154466172693,-0.6549016234300674
-3.9055,-0.8502001278427167,-0.8668343915334161
-3.905,-0.1673089369510276,-0.8350444763179138
-3.9045,0.2594980573562781,-0.6866915386455698
-3.904,0.4622313796522482,-0.5065486857577234
-3.9035,0.5262524287983441,-0.3052125560595421
-3.903,0.5262524287983441,-0.1250697031716958
-3.9025,0.4835717293676135,0.04447651131098315
-3.902,0.4408910299368829,0.1928294489833272
-3.9015,0.408880505363835,0.3411823866556712
-3.901,0.3875401556484697,0.4683420475176805
-3.9005,0.1101156093487211,0.6060983467848571
-3.9,-0.6261264558313813,0.7968378380778709
-3.8995,-1.084943974711735,0.8286277532933731
-3.899,-1.234326422719292,0.627291623595192
-3.8985,-0.658136980404429,0.3411823866556712
-3.898,0.1207857842064037,0.2881991946298341
-3.8975,0.707645401378949,0.2670059178194992
-3.897,0.9637295979633325,0.3199891098453364
-3.8965,0.9637295979633325,0.4471487707073456
-3.896,0.857027849386506,0.55311515475902
-3.8955,0.707645401378949,0.5637117931641874
-3.895,0.6542945270905358,0.4365521323021782
-3.8945,0.6649647019482183,0.2034260873884947
-3.894,0.6009436528021226,0.07626642652648545
-3.8935,0.5369226036560266,-0.01910331912002144
-3.893,0.4835717293676135,-0.1144730647665284
-3.8925,0.4408910299368829,-0.2310360872233701
-3.892,0.408880505363835,-0.326405832869877
-3.8915,0.1207857842064037,-0.2628260024388724
-3.891,-0.9355615267041777,-0.1568596183871981
-3.8905,-2.002579012472442,-0.4641621321370536
-3.89,-2.344024607918286,-1.068170521231597
-3.8895,-2.141291285622316,-1.523825972653797
-3.889,-1.330357996438436,-1.258910012524611
-3.8885,-0.4660738329661415,-0.7502713690765743
-3.888,0.07810508477567314,-0.3899856633008816
-3.8875,0.3448594562177392,-0.1780528951975329
