Class_10_Using_Wats_App/Class_10_WatsApp_Zakour_8.csv

#Digilent WaveForms Oscilloscope Acquisition
#Device Name: EExplorer
#Serial Number: SN:210151A2B84A
#Date Time: 2021-02-03 11:19:25.024
#Sample rate: 2000Hz
#Samples: 16384
#Trigger: Source: Channel 1 Type: Edge Condition: Rising Level: 0 V Hyst.: Auto HoldOff: 0 s
#Channel 1: Range: 1 V/div Offset: 0 V Attenuation: 1 X
#Channel 2: Range: 1 V/div Offset: 0 V Attenuation: 1 X
#Power Supplies: ON
#Fixed Supply: ON
#Voltage: 3.3 V Readback: 3.331 V
#Positive Supply: ON
#Voltage: 3.7 V Readback: 3.747 V
#Current: 40 mA Readback: 16 mA
#Negative Supply: ON
#Voltage: -3.7 V Readback: -3.334 V
#Current: -40 mA Readback: -13 mA
#Reference 1: ON
#Voltage: 0 V
#Reference 2: ON
#Voltage: 0 V

Time (s),Channel 1 (V),Channel 2 (V)
-4.096,-0.04993701351651855,-1.640388995110639
-4.0955,0.4408910299364365,-1.110557074852749
-4.095,0.6969752265213148,-0.6654982618349939
-4.0945,0.7503261008096795,-0.400582301706049
-4.094,0.6542945270906232,-0.3052125560596288
-4.0935,0.5369226036561334,-0.2840192792493133
-4.093,0.6542945270905358,-0.400582301706049
-4.0925,0.771666450524938,-0.4747587705421536
-4.092,0.6649647019480824,-0.3475991096800095
-4.0915,0.5155822539406614,-0.1250697031716958
-4.091,0.3875401556484697,0.08686306493165288
-4.0905,0.3021787567868728,0.2881991946301425
-4.09,0.1527963087794516,0.627291623595192
-4.0895,-0.423393133535411,0.5107286011383502
-4.089,-0.9995825758497496,-0.1674562567917487
-4.0885,-1.362368521011484,-0.6760949002404023
-4.088,-1.778505340461106,-1.025783967610927
-4.0875,-1.874536914180163,-1.11055707485219
-4.087,-1.27700712214943,-0.5489352393777184
-4.0865,-0.6261264558313813,0.1928294489833272
-4.086,-0.1352984123784261,0.7862411996721638
-4.0855,0.1634664836372604,1.167720182258895
-4.085,0.3021787567870086,1.347863035146577
-4.0845,0.3341892813600275,1.400846227172367
-4.084,0.3128489316446524,1.337266396741285
-4.0835,0.2701682322139607,1.199510097474233
-4.083,0.2381577076409128,1.040560521396722
-4.0825,0.2168173579254601,0.8498210301034574
-4.082,0.1207857842064037,0.5743084315693548
-4.0815,-0.423393133535411,-0.1144730647665284
-4.081,-0.9248913518460391,-0.8668343915327319
-4.0805,-1.212986073003927,-1.439052865412457
-4.08,-0.8822106524157645,-1.703968825541643
-4.0795,-0.1993194615246966,-1.831128486403537
-4.079,0.3661998059334053,-1.492036057437842
-4.0785,0.6969752265212663,-0.9939940523954253
-4.078,0.8036769750979957,-0.5807251545942713
-4.0775,0.7503261008095727,-0.3264058328697614
-4.077,0.6329541773751706,-0.1992461720078678
-4.0765,0.6222840025174975,-0.2310360872233412
-4.076,0.8250173248134192,-0.4217755785163454
-4.0755,0.7823366253827275,-0.3793890248957141
-4.075,0.6222840025174878,-0.1886495336027004
-4.0745,0.4622313796521414,0.04447651131116627
-4.074,0.3448594562177392,0.2458126410091644
-4.0735,0.2594980573562781,0.5213252395435176
-4.073,-0.07127736323158301,0.6590815388105689
-4.0725,-0.5514352318276028,0.09745970333682032
-4.072,-1.159635198715513,-0.6125150698093976
-4.0715,-1.789175515318217,-1.142346990067288
-4.071,-1.906547438752725,-1.174136905282674
-4.0705,-1.277007122150022,-0.5171453241628908
-4.07,-0.6154562809743002,0.2776025562239438
-4.0695,-0.1246282375200253,0.8922075837247344
-4.069,0.1741366584948169,1.284283204715573
-4.0685,0.3021787567870086,1.475022696008586
-4.068,0.3448594562177197,1.517409249629208
-4.0675,0.3235191065023739,1.464426057603419
-4.067,0.2808384070716433,1.326669758336243
-4.0665,0.2381577076408934,1.146526905448213
-4.066,0.2168173579255475,0.9451907757502149
-4.0655,0.1954770082101822,0.7226613692416989
-4.065,-0.1246282375200059,0.2352160026044403
-4.0645,-0.6688071552621118,-0.5383386009732256
-4.064,-0.9462317015618604,-1.195330182093607
-4.0635,-0.9355615267041874,-1.629792356705076
-4.063,-0.4447334832502522,-1.396666311791489
-4.0625,0.1314559590640864,-1.068170521231597
-4.062,0.5475927785133309,-0.6866915386459167
-4.0615,0.7396559259520065,-0.4005823017059334
-4.061,0.7503261008096795,-0.2734226408440398
-4.0605,0.6436243522328531,-0.2734226408440398
-4.06,0.5475927785138258,-0.2946159176545096
-4.0595,0.6756348768059011,-0.4429688553267188
-4.059,0.6863050516635838,-0.4217755785163839
-4.0585,0.5689331282291814,-0.2522293640338592
-4.058,0.4408910299368829,-0.04029659593035631
-4.0575,0.3448594562177392,0.1610395337678249
-4.057,0.2808384070717015,0.3835689402761386
-4.0565,-0.08194753808956648,0.701468092431364
-4.056,-0.6688071552621118,0.2776025562246667
-4.0555,-1.052933450138338,-0.4217755785157479
-4.055,-1.341028171296468,-0.8986243067491883
-4.0545,-1.725154466172693,-1.195330182093607
-4.054,-1.607782542738291,-0.9833974139904506
-4.0535,-0.9995825758497496,-0.2522293640330207
-4.053,-0.423393133535411,0.5001319627331828
-4.0525,-0.007256314085787988,1.040560521396722
-4.052,0.2168173579256445,1.358459673551861
-4.0515,0.3235191065023739,1.485619334413754
-4.051,0.3341892813600565,1.485619334413754
-4.0505,0.3021787567870378,1.369056311957018
-4.05,0.2701682322139607,1.188913459069066
-4.0495,0.2381577076409128,0.9875773293708847
-4.049,0.2168173579255669,0.7862411996728865
-4.0485,0.08877525963285114,0.4259554938963457
-4.048,-0.4660738329661415,-0.3052125560595421
-4.0475,-0.8715404775577131,-1.015187329205114
-4.047,-0.8715404775575676,-1.428456227006982
-4.0465,-0.3060212101009019,-1.089363798041932
-4.046,0.3341892813594743,-1.068170521231617
-4.0455,0.7716664505252001,-0.9833974139901808
-4.045,0.942389248247967,-0.8986243067489184
-4.0445,0.9103787236749192,-0.6866915386455698
-4.044,0.7396559259518609,-0.4853554089472439
-4.0435,0.5902734779444399,-0.326405832869877
-4.043,0.6436243522328531,-0.1780528951975329
-4.0425,0.7396559259519094,-0.06148987274079719
-4.042,0.707645401378949,0.04447651131098315
-4.0415,0.5796033030867573,0.06566978812131802
-4.041,0.4408910299370091,0.09745970333679141
-4.0405,0.3448594562175645,0.1610395337679695
-4.04,0.1527963087794516,0.3199891098453364
-4.0395,-0.4233931335348869,0.1716361721731273
-4.039,-0.9782422261352578,-0.4111789401116791
-4.0385,-1.362368521011484,-0.9198175835592532
-4.038,-1.799845690176074,-1.205926820498514
-4.0375,-1.597112367879929,-0.9198175835585304
-4.037,-0.9675720512772257,-0.1250697031716958
-4.0365,-0.391382608962363,0.6590815388106942
-4.036,0.01408403562977138,1.231300012690044
-4.0355,0.2274875327832301,1.570392441655093
-4.035,0.3235191065023739,1.729342017732605
-4.0345,0.3341892813600468,1.739938656137763
-4.034,0.3128489316446912,1.644568910491266
-4.0335,0.2701682322139607,1.496215972818921
-4.033,0.2381577076409419,1.294879843120923
-4.0325,0.2168173579254893,1.061753798206777
-4.032,0.1527963087794516,0.7544512844572011
-4.0315,-0.3487019095311764,0.04447651131162889
-4.031,-0.892880827273651,-0.7820612842926356
-4.0305,-1.116954499284783,-1.396666311791788
-4.03,-0.7755089038392488,-1.492036057438208
-4.0295,-0.1566387620928403,-1.481439419032896
-4.029,0.3982103305061524,-1.227120097309109
-4.0285,0.7183155762366316,-0.9410108603695881
-4.028,0.8036769750980248,-0.7290780922661142
-4.0275,0.7289857510943143,-0.5913217929990628
-4.027,0.6009436528021226,-0.5171453241628908
-4.0265,0.5689331282291037,-0.453565493731944
-4.026,0.7716664505250448,-0.4111789401112165
-4.0255,0.7289857510943143,-0.3475991096802118
-4.025,0.590273477944566,-0.2310360872234761
-4.0245,0.4408910299367859,-0.06148987274055625
-4.024,0.3341892813600565,0.08686306493165288
-4.0235,0.2061471830679813,0.3305857482502822
-4.023,-0.3273615598167622,0.500131962732701
-4.0225,-0.8715404775580819,-0.02969995752518888
-4.022,-1.234326422718962,-0.644304985024341
-4.0215,-1.661133417026859,-1.036380606016172
-4.021,-1.949228138184029,-1.121153713257435
-4.0205,-1.426389570157579,-0.5489352393783931
-4.02,-0.7541685541230877,0.2881991946304895
-4.0195,-0.2206598112394408,1.00877060618122
-4.019,0.1207857842064037,1.475022696008586
-4.0185,0.2915085819291707,1.729342017732374
-4.018,0.3448594562177392,1.803518486568777
-4.0175,0.3341892813600565,1.75053529454294
-4.017,0.2915085819293648,1.612778995275888
-4.0165,0.2488278824985663,1.422039503982547
-4.016,0.2168173579255475,1.199510097474233
-4.0155,0.2061471830678746,0.9345941373452884
-4.015,-0.1459685872361573,0.3411823866549002
-4.0145,-0.690147504977477,-0.5065486857577234
-4.014,-1.095614149569049,-1.237716735713611
-4.0135,-0.9675720512765172,-1.417859588601882
-4.013,-0.1886492866663929,-1.152943628472937
-4.0125,0.5049120790829789,-1.280103289334946
-4.012,0.8997085488173335,-1.31189320455014
-4.0115,1.006410297394063,-0.9728007755850904
-4.011,0.9210488985326017,-0.6549016234300674
-4.0105,0.7609962756675078,-0.4323722169217537
-4.01,0.6009436528021226,-0.326405832869877
-4.0095,0.6542945270905358,-0.3370024712750445
-4.009,0.6436243522328627,-0.3475991096802022
-4.0085,0.5369226036559296,-0.305212556059465
-4.008,0.4302208550792003,-0.2204394488182027
-4.0075,0.3448594562178168,-0.1144730647666247
-4.007,0.312848931644895,0.05507314971647826
-4.0065,0.5369226036560266,0.4153588554918433
-4.006,0.3448594562177392,0.1292496185523226
-4.0055,-0.1566387620939272,-0.5171453241634016
-4.005,-0.7968492535543035,-1.078767159636765
-4.0045,-1.341028171296118,-1.364876396576285
-4.004,-1.202315898145807,-0.877431029937851
-4.0035,-0.722158029550525,-0.07208651114585861
-4.003,-0.2633405106701714,0.6590815388106942
-4.0025,0.05676473506001672,1.167720182258268
-4.002,0.2381577076409128,1.464426057603419
-4.0015,0.3128489316446912,1.602182356870596
-4.001,0.3128489316446912,1.612778995275754
-4.0005,0.2808384070716142,1.549199164844653
-4,0.2488278824985954,1.432636142387917
-3.9995,0.2168173579255475,1.273686566310405
-3.999,0.2061471830678648,1.093543713422559
-3.9985,0.0674349099179905,0.7332580076468663
-3.998,-0.4660738329661415,-0.06148987274069118
-3.9975,-0.9035510021311299,-0.8774310299385835
-3.997,-0.9782422261349084,-1.354279758171118
-3.9965,-0.3166913849585846,-0.7608680074817418
-3.996,0.408880505363835,-0.3370024712750445
-3.9955,0.8676980242441885,-0.5595318777835605
-3.995,1.038420821967111,-0.6019184314042303
-3.9945,0.9957401225363802,-0.5595318777835605
-3.994,0.825017324813458,-0.474758770542221
-3.9935,0.6436243522328531,-0.4111789401112165
-3.993,0.6649647019482183,-0.1674562567923655
-3.9925,0.7503261008096795,0.1186529801471552
-3.992,0.6649647019482183,0.13984625695749
-3.9915,0.5155822539406614,0.08686306493165288
-3.991,0.3982103305061524,0.06566978812131802
-3.9905,0.3128489316446912,0.1292496185523226
-3.99,0.2701682322139607,0.383568940276341
-3.9895,-0.1352984123779797,0.2670059178194992
-3.989,-0.5834457564006506,-0.3370024712750445
-3.9885,-0.9889124009925911,-0.9198175835592532
-3.988,-1.46907026958831,-1.280103289334946
-3.9875,-1.373038695869166,-0.9622041371799229
-3.987,-0.8608703027003992,-0.1674562567923655
-3.9865,-0.3487019095316325,0.6060983467848571
-3.986,0.01408403562957729,1.167720182258731
-3.9855,0.2168173579255475,1.496215972818921
-3.985,0.3021787567870086,1.655165548896433
-3.9845,0.3235191065023739,1.686955464111935
-3.984,0.3021787567870086,1.623375633680931
-3.9835,0.2594980573562781,1.506812611224089
-3.983,0.2274875327832301,1.33726639674141
-3.9825,0.2061471830678648,1.125333628638062
-3.982,0.1527963087794516,0.8286277532933731
-3.9815,-0.3487019095316325,0.1186529801471552
-3.981,-0.807519428411986,-0.7290780922662394
-3.9805,-1.031593100423322,-1.396666311791788
-3.98,-0.8502001278427167,-1.788741932782983
-3.9795,-0.2206598112394408,-1.947691508860494
-3.979,0.3555296310754218,-1.629792356705471
-3.9785,0.707645401378949,-1.237716735714276
-3.978,0.8143471499557753,-0.8668343915334161
-3.9775,0.7609962756673623,-0.6231117082145651
-3.977,0.6436243522328531,-0.474758770542221
-3.9765,0.5369226036560266,-0.400582301706049
-3.976,0.6009436528021226,-0.3687923864905467
-3.9755,0.5582629533713921,-0.3052125560595421
-3.975,0.4622313796522482,-0.1992461720078678
-3.9745,0.3768699807907871,-0.08268314955102604
-3.974,0.3128489316446912,0.05507314971615059
-3.9735,0.3555296310754218,0.2987958330350016
-3.973,0.5155822539406614,0.5743084315693548
-3.9725,0.1314559590640864,0.1610395337678249
-3.972,-0.3807124341046804,-0.3793890248957141
-3.9715,-1.052933450138687,-0.7820612842920766
-3.971,-1.30901764672307,-0.8032545611024114
-3.9705,-0.9675720512772257,-0.2098428104130352
-3.97,-0.4980843575391895,0.5213252395435176
-3.9695,-0.09261771294724913,1.104140351827727
-3.969,0.1527963087794516,1.485619334413754
-3.9685,0.2701682322139607,1.676358825706768
-3.968,0.3128489316446912,1.739938656137773
-3.9675,0.3128489316446912,1.697552102517103
-3.967,0.2808384070716433,1.580989080060261
-3.9665,0.2381577076409128,1.390249588767247
-3.966,0.2061471830678648,1.146526905448396
-3.9655,0.1954770082101822,0.9028042221295453
-3.965,-0.07127736323188383,0.383568940276341
-3.9645,-0.5941159312583333,-0.4323722169215513
-3.964,-0.9142211769888124,-1.142346990067769
-3.9635,-0.839529952985034,-1.481439419033127
-3.963,-0.124628237520297,-1.555615887869299
-3.9625,0.5369226036560266,-1.195330182093607
-3.962,0.942389248247967,-0.792657922697244
-3.9615,1.059761171682476,-0.5277419625680583
-3.961,0.974399772821015,-0.4429688553267188
-3.9605,0.7823366253827275,-0.3899856633008816
-3.96,0.6222840025174878,-0.326405832869877
-3.9595,0.6969752265212663,-0.3687923864905467
-3.959,0.6969752265212663,-0.3899856633008816
-3.9585,0.5689331282290746,-0.326405832869877
-3.958,0.4408910299368829,-0.2098428104130352
-3.9575,0.3341892813600565,-0.06148987274069118
-3.957,0.2701682322139607,0.1080563417419877
-3.9565,-0.08194753808956648,0.5001319627331828
-3.956,-0.754168554123573,0.2564092794143318
-3.9555,-1.287677297007705,-0.4111789401112165
-3.955,-1.682473766741963,-0.8774310299385835
-3.9545,-2.119950935906951,-1.195330182093607
-3.954,-1.853196564464885,-1.036380606016095
-3.9535,-1.095614149569417,-0.3158091944647096
-3.953,-0.4554036581084589,0.4365521323021782
-3.9525,-0.007256314085787988,1.00877060618122
-3.952,0.2274875327832301,1.369056311956912
-3.9515,0.3235191065023739,1.528005888034424
-3.951,0.3341892813600565,1.549199164844759
-3.9505,0.3128489316446912,1.496215972818921
-3.95,0.2701682322139607,1.347863035146577
-3.9495,0.2381577076409128,1.157123543853563
-3.949,0.2168173579255475,0.9451907757502149
-3.9485,0.09944543449103843,0.5743084315693548
-3.948,-0.4447334832507763,-0.1992461720078678
-3.9475,-0.9035510021311299,-0.9728007755850904
-3.947,-1.074273799854052,-1.566212526274467
-3.9465,-0.6474668055467465,-1.979481424075996
-3.946,0.03542438534494258,-2.043061254507001
-3.9455,0.5689331282290746,-1.502632695843462
-3.945,0.8463576745288233,-0.9198175835592532
-3.9445,0.8783681991018712,-0.5489352393783931
-3.944,0.7716664505250448,-0.3687923864905467
-3.9435,0.6116138276598051,-0.2734226408440398
-3.943,0.6329541773751706,-0.3475991096802118
-3.9425,0.7183155762366316,-0.400582301706049
-3.942,0.6542945270905358,-0.2946159176543747
-3.9415,0.5262524287983441,-0.1568596183871981
-3.941,0.408880505363835,-0.01910331912002144
-3.9405,0.3235191065023739,0.1292496185523226
-3.94,0.1634664836371343,0.3729723018711736
-3.9395,-0.3380317346739499,0.3199891098453364
-3.939,-0.8181896032696687,-0.2734226408440398
-3.9385,-1.191645723288561,-0.8562377531282487
-3.938,-1.639793067311232,-1.248313374119443
-3.9375,-1.543761493592088,-1.046977244421262
-3.937,-0.9782422261349084,-0.3052125560595421
-3.9365,-0.4127229586777283,0.457745409112513
-3.936,-0.01792648894347063,1.029963882991555
-3.9355,0.2168173579255475,1.358459673551745
-3.935,0.3128489316446912,1.517409249629256
-3.9345,0.3341892813600565,1.549199164844759
-3.934,0.3021787567870086,1.475022696008586
-3.9335,0.2701682322139607,1.33726639674141
-3.933,0.2274875327832301,1.157123543853563
-3.9325,0.2168173579255475,0.9663840525605498
-3.932,0.1634664836371343,0.7120647308365314
-3.9315,-0.3060212101009019,0.06566978812131802
-3.931,-0.7648387289812555,-0.6972881770507372
-3.9305,-1.052933450138687,-1.311893204550448
-3.93,-0.8715404775580819,-1.629792356705471
-3.9295,-0.1993194615240755,-1.788741932782983
-3.929,0.408880505363835,-1.449649503817625
-3.9285,0.7716664505250448,-1.174136905283272
-3.928,0.8890383739595538,-0.8244478379127463
-3.9275,0.825017324813458,-0.5383386009732256
-3.927,0.6756348768059011,-0.3687923864905467
-3.9265,0.5902734779444399,-0.2628260024388724
-3.926,0.6969752265212663,-0.2310360872233701
-3.9255,0.6436243522328531,-0.2416327256285375
-3.925,0.5155822539406614,-0.2098428104130352
-3.9245,0.3982103305061524,-0.1144730647665284
-3.924,0.3235191065023739,0.01268659609548085
-3.9235,0.2488278824985954,0.2458126410091644
-3.923,-0.1779791118087102,0.55311515475902
-3.9225,-0.8608703027003992,0.1186529801471552
-3.922,-1.244996597576974,-0.4959520473525559
-3.9215,-1.575772018165136,-0.8668343915334161
-3.921,-1.927887788468663,-1.121153713257435
-3.9205,-1.575772018165136,-0.792657922697244
-3.92,-0.9035510021311299,-0.04029659593035631
-3.9195,-0.3273615598162672,0.6802748156210291
-3.919,0.05676473506030786,1.199510097474233
-3.9185,0.2594980573562781,1.496215972818921
-3.918,0.3341892813600565,1.623375633680931
-3.9175,0.3341892813600565,1.623375633680931
-3.917,0.291508581929326,1.517409249629256
-3.9165,0.2381577076409128,1.347863035146577
-3.916,0.2168173579255475,1.157123543853563
-3.9155,0.2061471830678648,0.9345941373450475
-3.915,-0.07127736323188383,0.4153588554918433
-3.9145,-0.6154562809736985,-0.4323722169215513
-3.914,-0.9035510021311299,-1.184733543688439
-3.9135,-1.042263275281004,-1.788741932782983
-3.913,-0.6688071552621118,-2.117237723343173
-3.9125,-0.02859666380115328,-2.127834361748341
-3.912,0.4622313796522482,-1.958288147265661
-3.9115,0.7183155762366316,-1.322489842955616
-3.911,0.7609962756673623,-0.7820612842920766
-3.9105,0.6542945270905358,-0.4535654937318862
-3.91,0.5369226036560266,-0.3052125560595421
-3.9095,0.6649647019482183,-0.1568596183871981
-3.909,0.6969752265212663,-0.08268314955102604
-3.9085,0.6009436528021226,-0.09327978795619347
-3.908,0.4729015545099309,-0.1144730647665284
-3.9075,0.3661998059331045,-0.1038764263613609
-3.907,0.3021787567870086,0.01268659609548085
-3.9065,-0.01792648894347063,0.4683420475176805
-3.906,-0.6261264558313813,0.3305857482505039
-3.9055,-1.234326422719292,-0.326405832869877
-3.905,-1.746494815888059,-0.8138511995075789
-3.9045,-2.226652684483777,-1.152943628472937
-3.904,-1.885207089037933,-0.9728007755850904
-3.9035,-1.084943974711735,-0.2628260024388724
-3.903,-0.423393133535411,0.4789386859228479
-3.9025,0.01408403562957729,1.040560521396722
-3.902,0.2488278824985954,1.390249588767247
-3.9015,0.3448594562177392,1.559795803249926
-3.901,0.3555296310754218,1.602182356870596
-3.9005,0.3341892813600565,1.570392441655093
-3.9,0.2808384070716433,1.464426057603419
-3.8995,0.2381577076409128,1.29487984312074
-3.899,0.2168173579255475,1.082947075017392
-3.8985,0.1101156093487211,0.7332580076468663
-3.898,-0.423393133535411,-0.05089323433552374
-3.8975,-0.8288597781273515,-0.8244478379127463
-3.897,-0.754168554123573,-1.237716735714276
-3.8965,-0.2953510352432193,-1.195330182093607
-3.896,0.2488278824985954,-0.9516074987747555
-3.8955,0.6329541773751706,-0.718481453861072
-3.895,0.8143471499557753,-0.5383386009732256
-3.8945,0.825017324813458,-0.474758770542221
-3.894,0.7183155762366316,-0.4853554089473885
-3.8935,0.5796033030867573,-0.4853554089473885
-3.893,0.6009436528021226,-0.5383386009732256
-3.8925,0.6969752265212663,-0.5489352393783931
-3.892,0.6116138276598051,-0.3899856633008816
-3.8915,0.4942419042252961,-0.1568596183871981
-3.891,0.3875401556484697,0.07626642652648545
-3.8905,0.3128489316446912,0.2987958330350016
-3.89,0.4195506802215176,0.6696781772158616
-3.8895,0.2808384070716433,0.6696781772158616
-3.889,-0.3166913849585846,0.03387987290581572
-3.8885,-0.9035510021311299,-0.5277419625680583
-3.888,-1.490410619303675,-0.8774310299385835
-3.8875,-1.810515865034154,-0.9622041371799229
-3.887,-1.341028171296118,-0.400582301706049
-3.8865,-0.7008176798351597,0.3623756634660061
