Class_10_Using_Wats_App/Class_10_WatsApp_AM_5.csv

#Digilent WaveForms Oscilloscope Acquisition
#Device Name: EExplorer
#Serial Number: SN:210151A2B84A
#Date Time: 2020-12-06 11:02:07.232
#Sample rate: 2000Hz
#Samples: 16384
#Trigger: Source: Channel 1 Type: Edge Condition: Rising Level: 0 V Hyst.: Auto HoldOff: 0 s
#Channel 1: Range: 1 V/div Offset: 0 V Attenuation: 1 X
#Channel 2: Range: 1 V/div Offset: 0 V Attenuation: 1 X
#Power Supplies: ON
#Fixed Supply: ON
#Voltage: 3.3 V Readback: 3.331 V
#Positive Supply: ON
#Voltage: 3.7 V Readback: 3.688 V
#Current: 40 mA Readback: 18 mA
#Negative Supply: ON
#Voltage: -3.7 V Readback: -3.595 V
#Current: -40 mA Readback: -2 mA
#Reference 1: ON
#Voltage: 0 V
#Reference 2: ON
#Voltage: 0 V

Time (s),Channel 1 (V),Channel 2 (V)
-4.096,0.8463576745288233,1.506812611224089
-4.0955,0.8890383739595149,1.538602526439562
-4.095,0.7716664505248992,1.220703374284173
-4.0945,0.6116138276598051,0.7862411996727035
-4.094,0.48357172936773,0.3729723018715494
-4.0935,0.2915085819285981,0.1504428953629948
-4.093,-0.5087545323968721,0.5213252395435176
-4.0925,-1.362368521010707,0.8816109453188827
-4.092,-1.959898313041905,0.2352160026035054
-4.0915,-2.173301810195364,-0.3052125560595421
-4.091,-1.693143941599645,-0.1992461720078678
-4.0905,-0.9248913518459032,-0.1568596183871981
-4.09,-0.274010685527854,-0.1568596183871981
-4.0895,0.1527963087794516,-0.1568596183871981
-4.089,0.3555296310752374,-0.1356663415768825
-4.0885,0.4302208550792003,-0.09327978795619347
-4.088,0.4302208550792003,-0.02969995752518888
-4.0875,0.4088805053638545,0.06566978812123128
-4.087,0.3768699807907483,0.1504428953627057
-4.0865,0.3341892813600565,0.2034260873884947
-4.086,0.3021787567870378,0.2564092794142836
-4.0855,0.2808384070714395,0.2987958330348378
-4.085,0.05676473506030786,0.1186529801471552
-4.0845,-0.5941159312577413,-0.4429688553262079
-4.084,-0.9569018764195335,-0.919817583559552
-4.0835,-0.9462317015618604,-1.248313374119443
-4.083,-0.2099896363817582,-1.42845622700729
-4.0825,0.6116138276600768,-1.481439419033291
-4.082,0.9103787236749192,-1.661582271920973
-4.0815,0.6756348768059011,-1.947691508860494
-4.081,0.7609962756672847,-1.269506650930395
-4.0805,0.6969752265212663,-0.4429688553267188
-4.08,0.6542945270905358,0.309392471440169
-4.0795,0.7823366253826111,0.9663840525599523
-4.079,0.8143471499556588,1.220703374284472
-4.0785,0.6863050516635838,1.114736990232894
-4.078,0.5475927785138355,0.8604176685091067
-4.0775,0.440891029936815,0.5955017083795451
-4.077,0.3661998059331045,0.4365521323021782
-4.0765,0.06743490991826223,0.7756445612672276
-4.076,-0.3913826089629065,1.379652950361926
-4.0755,-0.9889124009925911,1.210106735879401
-4.075,-1.51175096901904,0.6802748156210291
-4.0745,-2.002579012472228,0.9134008605347705
-4.074,-1.767835165603424,0.9769806909657173
-4.0735,-1.06360362499637,0.627291623595192
-4.073,-0.4020527838206474,0.2458126410095113
-4.0725,0.05676473506030786,-0.01910331912002144
-4.072,0.3128489316446912,-0.1250697031716958
-4.0715,0.4195506802214206,-0.114473064766538
-4.071,0.4302208550791809,-0.01910331911991543
-4.0705,0.408880505363835,0.09745970333682032
-4.07,0.3661998059331433,0.2140227257935561
-4.0695,0.3235191065023448,0.3093924714402364
-4.069,0.291508581929326,0.383568940276341
-4.0685,0.07810508477567314,0.1716361721729923
-4.068,-0.4874141826820212,-0.3793890248961478
-4.0675,-1.052933450138687,-0.8562377531282487
-4.067,-1.394379045584531,-1.089363798041932
-4.0665,-1.885207089037254,-1.841725124808984
-4.066,-1.138294849000148,-2.021867977696666
-4.0655,-0.1673089369510276,-1.968884785670829
-4.065,0.4729015545093486,-1.746355379162515
-4.0645,0.8356874996711408,-1.078767159636765
-4.064,0.974399772821015,-0.2310360872233701
-4.0635,0.8570278493866128,0.4789386859222022
-4.063,0.7609962756674108,0.9663840525607811
-4.0625,0.8143471499557753,1.220703374284568
-4.062,0.7396559259520648,1.167720182258779
-4.0615,0.6009436528020158,0.9345941373447776
-4.061,0.4835717293676135,0.6378882620003594
-4.0605,0.4195506802215176,0.383568940276341
-4.06,0.3875401556483339,0.3941655786819325
-4.0595,0.2381577076409128,0.8604176685088755
-4.059,-0.4127229586777283,0.9663840525605498
-4.0585,-1.020922925565086,0.2352160026046619
-4.058,-1.287677297007705,0.1186529801471552
-4.0575,-0.9889124009925911,0.1292496185523226
-4.057,-0.4874141826819629,0.01268659609558687
-4.0565,-0.07127736323188383,-0.1038764263613609
-4.056,0.2061471830678648,-0.1780528951975329
-4.0555,0.344859456217613,-0.1780528951975329
-4.055,0.3982103305061524,-0.1356663415767957
-4.0545,0.3982103305061524,-0.06148987274069118
-4.054,0.3768699807908065,0.04447651131088677
-4.0535,0.3448594562177197,0.1186529801472226
-4.053,0.3235191065023739,0.1928294489833272
-4.0525,0.3021787567870086,0.2776025562246667
-4.052,0.2274875327829487,0.2458126410087596
-4.0515,-0.08194753808956648,-0.1992461720078678
-4.051,-0.3487019095316325,-0.6760949002404023
-4.0505,-0.7008176798348396,-1.036380606015767
-4.05,-0.7648387289812555,-1.280103289334946
-4.0495,-0.5194247072545548,-1.75695201756748
-4.049,-0.1779791118090208,-2.085447808127372
-4.0485,0.4302208550794623,-1.873515040023966
-4.048,0.7183155762366316,-1.481439419033127
-4.0475,0.8463576745287068,-0.6760949002411347
-4.047,0.89970854881712,0.1186529801476563
-4.0465,0.7716664505250448,0.6696781772158616
-4.046,0.8143471499557364,1.093543713422174
-4.0455,0.7716664505249283,1.210106735879266
-4.045,0.6436243522328531,1.061753798207057
-4.0445,0.5049120790829789,0.8074344764830383
-4.044,0.4195506802214109,0.5531151547589332
-4.0435,0.3021787567870086,0.457745409112513
-4.043,-0.156638762093345,0.8922075837243778
-4.0425,-0.8822106524151045,1.358459673551321
-4.042,-1.405049220442214,0.8180311148882058
-4.0415,-1.938557963326346,-0.2098428104130352
-4.041,-2.119950935906786,-0.2628260024388242
-4.0405,-1.533091318733717,-0.1144730647664802
-4.04,-0.7755089038389382,-0.06148987274069118
-4.0395,-0.1779791118092536,-0.05089323433553338
-4.039,0.1954770082103472,-0.05089323433551411
-4.0385,0.3768699807907871,-0.04029659593035631
-4.038,0.4302208550791518,-0.008506680714882926
-4.0375,0.4302208550791615,0.0444765113110217
-4.037,0.3875401556484697,0.08686306493165288
-4.0365,0.3341892813600565,0.08686306493165288
-4.036,0.2915085819292872,0.06566978812128911
-4.0355,0.2488278824985954,0.03387987290581572
-4.035,-0.03926683865883591,-0.2734226408440398
-4.0345,-0.6261264558308475,-0.8562377531277188
-4.034,-1.095614149569417,-1.333086481360783
-4.0335,-1.522421143876723,-1.650985633515806
-4.033,-1.842526389606911,-2.265590661014958
-4.0325,-1.170305373572313,-2.445733513903209
-4.032,-0.1993194615240755,-2.276187299420684
-4.0315,0.4302208550786277,-1.894708316835004
-4.031,0.7609962756674884,-1.004590690799706
-4.0305,0.8997085488172365,-0.02969995752518888
-4.03,0.7823366253828343,0.5849050699739632
-4.0295,0.7609962756673719,0.8392243916986176
-4.029,0.7716664505250448,0.92399749893988
-4.0285,0.6649647019482183,0.9451907757502149
-4.028,0.5475927785136318,0.8816109453191043
-4.0275,0.4622313796522482,0.7650479228623686
-4.027,0.3768699807907871,0.6590815388106942
-4.0265,-0.0606071883738033,1.019367244586059
-4.026,-0.8715404775580819,1.570392441655093
-4.0255,-1.735824641030376,1.570392441655093
-4.025,-2.386705307348425,0.871014306914679
-4.0245,-2.642789503932711,0.8180311148880419
-4.024,-1.885207089037933,0.6378882620003594
-4.0235,-0.9675720512780602,0.2670059178198366
-4.023,-0.2633405106697735,-0.04029659593052015
-4.0225,0.1741366584948169,-0.2204394488182027
-4.022,0.3875401556482756,-0.2734226408439916
-4.0215,0.4622313796522385,-0.2204394488181063
-4.021,0.4515612047945656,-0.1144730647665284
-4.0205,0.4195506802215176,0.02328323450064829
-4.02,0.3661998059330754,0.1398462569575768
-4.0195,0.3341892813600565,0.2352160026039969
-4.019,0.3021787567870086,0.2776025562246667
-4.0185,0.1954770082102792,0.2352160026040355
-4.018,-0.3487019095316325,-0.1992461720078678
-4.0175,-0.8181896032696687,-0.6972881770507372
-4.017,-0.9995825758501087,-1.046977244420944
-4.0165,-0.4660738329657533,-1.216523458904327
-4.016,-0.03926683865883591,-1.640388995110639
-4.0155,0.2594980573560063,-1.979481424075688
-4.015,0.7396559259521036,-1.725162102351467
-4.0145,0.857027849386506,-1.163540266878104
-4.014,0.8463576745288329,-0.3370024712757962
-4.0135,0.8036769750980054,0.4471487707077889
-4.013,0.707645401378949,0.9345941373450475
-4.0125,0.7716664505250448,1.199510097474233
-4.012,0.6969752265211693,1.188913459068921
-4.0115,0.5902734779444399,1.029963882991555
-4.011,0.4942419042252961,0.7968378380778709
-4.0105,0.4195506802215856,0.5531151547592417
-4.01,0.291508581929326,0.5637117931641874
-4.0095,0.1314559590640864,1.040560521396722
-4.009,-0.3593720843888688,1.072350436612195
-4.0085,-1.180975548431587,0.1186529801461143
-4.008,-1.959898313041711,-1.025783967610927
-4.0075,-1.938557963326365,-1.555615887868818
-4.007,-1.26633694729169,-1.269506650929325
-4.0065,-0.5514352318276028,-0.7714646458869092
-4.006,-0.02859666380115328,-0.3370024712750445
-4.0055,0.2701682322140869,-0.05089323433538882
-4.005,0.408880505363835,0.09745970333682032
-4.0045,0.4408910299368829,0.1716361721729923
-4.004,0.4195506802214594,0.1716361721729538
-4.0035,0.3555296310754218,0.1292496185523226
-4.003,0.3128489316446912,0.07626642652648545
-4.0025,0.2701682322139995,-0.008506680714776907
-4.002,0.2061471830678648,-0.1568596183871981
-4.0015,-0.3166913849585846,-0.6337083466197325
-4.001,-1.020922925564998,-1.237716735713727
-4.0005,-1.394379045584327,-1.661582271921407
-4,-1.170305373573196,-2.138431000153508
-3.9995,-0.572775581542968,-2.615279728386042
-3.999,0.4302208550792003,-2.530506621144703
-3.9985,0.9957401225363802,-2.424540237093029
-3.998,1.219813794547716,-1.873515040024322
-3.9975,1.187803269974668,-0.8562377531282487
-3.997,0.9317190733902845,0.01268659609548085
-3.9965,0.7396559259519968,0.627291623595192
-3.996,0.7396559259519968,1.072350436612224
-3.9955,0.6863050516635838,1.167720182258731
-3.995,0.5796033030867573,1.061753798207057
-3.9945,0.5155822539406614,0.8816109453192104
-3.994,0.4515612047945656,0.6802748156210291
-3.9935,0.3448594562177392,0.6802748156210291
-3.993,-0.3166913849585846,1.178316820663898
-3.9925,-1.191645723288561,1.644568910491266
-3.992,-1.778505340461106,1.241896651094903
-3.9915,-2.247993034199143,1.029963882991555
-3.991,-2.3973754822067,1.241896651094903
-3.9905,-1.639793067311232,1.019367244586387
-3.99,-0.807519428411986,0.5743084315693548
-3.9895,-0.1673089369510276,0.2140227257936621
-3.989,0.2168173579255475,0.02328323450064829
-3.9885,0.3982103305061524,-0.01910331912002144
-3.988,0.4515612047945656,0.04447651131098315
-3.9875,0.4408910299368829,0.1610395337678249
-3.987,0.3875401556484697,0.2776025562246667
-3.9865,0.3448594562177392,0.3729723018711736
-3.986,0.3021787567870086,0.4259554938970107
-3.9855,0.2594980573562781,0.4365521323021782
-3.985,-0.1352984123779797,0.08686306493165288
-3.9845,-1.287677297007705,-0.9622041371799229
-3.984,-2.002579012472442,-1.746355379162313
-3.9835,-1.87453691418025,-2.000674700886331
-3.983,-1.010252750707956,-2.17022091536901
-3.9825,0.0674349099179905,-2.117237723343173
-3.982,0.8997085488172365,-1.873515040024322
-3.9815,1.241154144263081,-1.481439419033127
-3.981,1.187803269974668,-0.8244478379127463
-3.9805,0.9957401225363802,-0.05089323433552374
-3.98,0.7716664505250448,0.5213252395435176
-3.9795,0.7503261008096795,0.9769806909657173
-3.979,0.79300680024041,1.167720182258731
-3.9785,0.7183155762366316,1.019367244586387
-3.978,0.6329541773751706,0.7650479228623686
-3.9775,0.5262524287983441,0.4365521323021782
-3.977,0.4302208550792003,0.2670059178194992
-3.9765,-0.1032878878049318,0.6696781772158616
-3.976,-0.8822106524157645,0.9134008605347127
-3.9755,-1.501080794161358,0.2458126410091644
-3.975,-1.810515865034154,-0.3581957480853793
-3.9745,-2.205312334768412,0.1186529801471552
-3.974,-1.949228138184029,0.5743084315693548
-3.9735,-1.180975548430879,0.5213252395435176
-3.973,-0.4554036581084589,0.309392471440169
-3.9725,0.04609456020262521,0.13984625695749
-3.972,0.3235191065023739,0.05507314971615059
-3.9715,0.4302208550792003,0.07626642652648545
-3.971,0.4515612047945656,0.1610395337678249
-3.9705,0.4195506802215176,0.2564092794143318
-3.97,0.3555296310754218,0.3199891098453364
-3.9695,0.3021787567870086,0.3623756634660061
-3.969,0.291508581929326,0.4471487707073456
-3.9685,0.1741366584948169,0.3941655786815084
-3.968,-0.4554036581084589,-0.08268314955102604
-3.9675,-1.010252750707956,-0.570128516188728
-3.967,-1.554431668449771,-1.078767159636765
-3.9665,-1.597112367880501,-1.968884785670829
-3.966,-0.3380317346739499,-2.106641084938006
-3.9655,0.5582629533713921,-2.159624276963843
-3.965,1.049090996824793,-2.000674700886331
-3.9645,1.251824319120764,-1.364876396576285
-3.964,1.166462920259302,-0.5489352393783931
-3.9635,0.9210488985326017,0.2246193641988295
-3.963,0.7716664505250448,0.7968378380778709
-3.9625,0.8463576745288233,1.178316820663898
-3.962,0.7716664505250448,1.114736990232894
-3.9615,0.6329541773751706,0.8392243916985406
-3.961,0.5262524287983441,0.5425185163538525
-3.9605,0.4408910299368829,0.309392471440169
-3.96,0.0674349099179905,0.5107286011383502
-3.9595,-0.8288597781273515,1.114736990232894
-3.959,-1.725154466172693,1.559795803249926
-3.9585,-2.290673733629873,1.25249328950007
-3.958,-2.792171951940957,1.220703374284568
-3.9575,-2.365364957633652,1.199510097474233
-3.957,-1.394379045584531,0.7332580076468663
-3.9565,-0.5514352318276028,0.2458126410091644
-3.956,0.02475421048725994,-0.07208651114585861
-3.9555,0.3341892813600565,-0.1780528951975329
-3.955,0.4515612047945656,-0.1356663415768632
-3.9545,0.4729015545099309,0.002089957690313421
-3.954,0.4408910299368829,0.1822328105781598
-3.9535,0.3768699807907871,0.3199891098453364
-3.953,0.3021787567870086,0.3729723018711736
-3.9525,0.2381577076409128,0.2881991946298341
-3.952,0.1741366584948169,0.2564092794143318
-3.9515,-0.3273615598162672,-0.06148987274069118
-3.951,-0.9248913518464952,-0.5171453241628908
-3.9505,-1.244996597576974,-0.8350444763179138
-3.95,-1.116954499284783,-0.9833974139902578
-3.9495,-0.5514352318276028,-1.152943628472937
-3.949,-0.391382608962363,-1.703968825541643
-3.9485,0.2274875327832301,-1.481439419033127
-3.948,0.5689331282290746,-0.9516074987747555
-3.9475,0.6969752265212663,-0.1356663415768632
-3.947,0.8036769750980928,0.5743084315693548
-3.9465,0.7823366253827275,0.9663840525605498
-3.946,0.9103787236749192,1.273686566310405
-3.9455,0.8676980242441885,1.210106735879401
-3.945,0.7183155762366316,0.9028042221295453
-3.9445,0.5582629533713921,0.5425185163538525
-3.944,0.4515612047945656,0.2352160026039969
-3.9435,0.3448594562177392,0.1822328105781598
-3.943,-0.274010685527854,0.6908714540261965
-3.9425,-1.095614149569417,1.072350436612224
-3.942,-1.799845690176472,0.4259554938970107
-3.9415,-2.301343908487556,-0.400582301706049
-3.941,-2.632119329075718,-1.227120097309109
-3.9405,-1.949228138184029,-1.354279758171118
-3.94,-1.042263275281004,-0.9304142219644207
-3.9395,-0.3060212101009019,-0.4217755785163839
-3.939,0.1634664836371343,-0.01910331912002144
-3.9385,0.3982103305061524,0.2458126410091644
-3.938,0.4729015545099309,0.3941655786815084
-3.9375,0.4729015545099309,0.4683420475176805
-3.937,0.4408910299368829,0.4895353243280153
-3.9365,0.3982103305061524,0.4895353243280153
-3.936,0.3555296310754218,0.4259554938970107
-3.9355,0.3235191065023739,0.3305857482505039
-3.935,0.01408403562957729,-0.04029659593035631
-3.9345,-0.6794773301197943,-0.718481453861072
-3.934,-1.06360362499637,-1.216523458903942
-3.9335,-0.9142211769888124,-1.523825972653797
-3.933,-0.1352984123779797,-1.894708316834657
-3.9325,0.05676473506030786,-2.572893174765372
-3.932,0.6329541773751706,-2.530506621144703
-3.9315,0.8997085488172365,-2.286783937825852
-3.931,0.9103787236749192,-1.576809164679634
-3.9305,0.8997085488172365,-0.6125150698093976
-3.93,0.7609962756673623,0.1716361721729923
-3.9295,0.7289857510943143,0.7120647308365314
-3.929,0.7183155762366316,0.9345941373450475
-3.9285,0.6116138276598051,0.8604176685088755
-3.928,0.5155822539406614,0.6802748156210291
-3.9275,0.4408910299368829,0.5001319627331828
-3.927,0.3448594562177392,0.4683420475176805
-3.9265,-0.2526703358124887,0.9557874141553824
-3.926,-1.116954499284783,1.506812611224089
-3.9255,-1.778505340461106,1.082947075017392
-3.925,-2.23732285934146,0.4895353243280153
-3.9245,-2.226652684483777,0.6802748156210291
-3.924,-1.501080794161358,0.6696781772158616
-3.9235,-0.7008176798351597,0.457745409112513
-3.923,-0.09261771294724913,0.2564092794143318
-3.9225,0.2594980573562781,0.1504428953626575
-3.922,0.4195506802215176,0.13984625695749
-3.9215,0.4729015545099309,0.2034260873884947
-3.921,0.4515612047945656,0.2987958330350016
-3.9205,0.4195506802215176,0.3941655786815084
-3.92,0.3768699807907871,0.457745409112513
-3.9195,0.3448594562177392,0.4789386859228479
-3.919,0.3128489316446912,0.4683420475176805
-3.9185,0.1741366584948169,0.2670059178194992
-3.918,-0.3700422592469978,-0.2840192792492073
-3.9175,-0.7861790786966207,-0.7290780922662394
-3.917,-1.06360362499637,-1.046977244421262
-3.9165,-1.084943974711735,-1.481439419033127
-3.916,-0.9569018764195432,-2.202010830584512
-3.9155,-0.1139580626626144,-2.149027638558676
-3.915,0.4408910299368829,-1.979481424075996
-3.9145,0.6969752265212663,-1.396666311791788
-3.914,0.8463576745288233,-0.4217755785163839
-3.9135,0.8143471499557753,0.3941655786815084
-3.913,0.7716664505250448,0.775644561267536
-3.9125,0.8356874996711408,0.9451907757502149
-3.912,0.7503261008096795,0.8922075837243778
-3.9115,0.6329541773751706,0.7226613692416989
-3.911,0.5369226036560266,0.5425185163538525
-3.9105,0.4622313796522482,0.3729723018711736
-3.91,0.5262524287983441,0.4259554938970107
-3.9095,0.974399772821015,0.6908714540261965
-3.909,0.5582629533713921,0.1610395337678249
-3.9085,-0.4554036581084589,-0.3475991096802118
-3.908,-1.479740444445993,0.2034260873884947
-3.9075,-1.67180359188428,0.7226613692416989
-3.907,-1.159635198715513,0.6696781772158616
-3.9065,-0.5300948821122373,0.4047622170866759
-3.906,-0.03926683865883591,0.1716361721729923
-3.9055,0.2594980573562781,0.04447651131098315
-3.905,0.3982103305061524,0.01268659609548085
-3.9045,0.4408910299368829,0.06566978812131802
-3.904,0.4302208550792003,0.1504428953626575
-3.9035,0.3982103305061524,0.2352160026039969
-3.903,0.3448594562177392,0.2987958330350016
-3.9025,0.3128489316446912,0.3411823866556712
-3.902,0.2061471830678648,0.2564092794143318
-3.9015,-0.3380317346739499,-0.2310360872233701
-3.901,-0.8928808272734472,-0.7290780922662394
-3.9005,-1.234326422719292,-1.046977244421262
-3.9,-0.8502001278427167,-1.174136905283272
-3.8995,-0.1779791118087102,-1.439052865412457
-3.899,0.03542438534494258,-1.958288147265661
-3.8985,0.5689331282290746,-1.746355379162313
-3.898,0.7823366253827275,-1.216523458903942
-3.8975,0.825017324813458,-0.3581957480853793
-3.897,0.8356874996711408,0.4471487707073456
-3.8965,0.7396559259519968,0.9028042221295453
-3.896,0.825017324813458,1.199510097474233
-3.8955,0.7609962756673623,1.135930267043229
-3.895,0.6329541773751706,0.8816109453192104
-3.8945,0.5155822539406614,0.6060983467848571
-3.894,0.4302208550792003,0.3729723018711736
-3.8935,0.3661998059331045,0.4365521323021782
-3.893,-0.1993194615240755,0.9557874141553824
-3.8925,-1.010252750707956,1.464426057603419
-3.892,-1.597112367880501,1.061753798207057
-3.8915,-2.141291285622316,0.9663840525605498
-3.891,-2.130621110764634,1.114736990232894
-3.8905,-1.394379045584531,0.8180311148882058
-3.89,-0.6154562809736985,0.4047622170866759
-3.8895,-0.04993701351651855,0.08686306493165288
-3.889,0.2808384070716433,-0.07208651114585861
-3.8885,0.4302208550792003,-0.08268314955102604
-3.888,0.4622313796522482,-0.008506680714854012
-3.8875,0.4515612047945656,0.1080563417419877
-3.887,0.408880505363835,0.2352160026039969
-3.8865,0.3768699807907871,0.3517790250608387
-3.886,0.3341892813600565,0.3941655786815084
