Class_10_Using_Wats_App/Class_10_WatsApp_Zakour_9.csv

#Digilent WaveForms Oscilloscope Acquisition
#Device Name: EExplorer
#Serial Number: SN:210151A2B84A
#Date Time: 2021-02-07 16:10:08.916
#Sample rate: 2000Hz
#Samples: 16384
#Trigger: Source: Channel 1 Type: Edge Condition: Rising Level: 0 V Hyst.: Auto HoldOff: 0 s
#Channel 1: Range: 1 V/div Offset: 0 V Attenuation: 1 X
#Channel 2: Range: 1 V/div Offset: 0 V Attenuation: 1 X
#Power Supplies: ON
#Fixed Supply: ON
#Voltage: 3.3 V Readback: 3.331 V
#Positive Supply: ON
#Voltage: 3.7 V Readback: 3.688 V
#Current: 40 mA Readback: 16 mA
#Negative Supply: ON
#Voltage: -3.7 V Readback: -3.712 V
#Current: -40 mA Readback: -4 mA
#Reference 1: ON
#Voltage: 0 V
#Reference 2: ON
#Voltage: 0 V

Time (s),Channel 1 (V),Channel 2 (V)
-4.096,-1.447729919872945,-1.767548655972648
-4.0955,-1.415719395299926,-1.990078062480961
-4.095,-0.8395299529845099,-1.672178910325543
-4.0945,-0.2633405106701714,-1.01518732920576
-4.094,0.06743490991768969,-0.2840192792498724
-4.0935,0.1848068333524996,0.3517790250612435
-4.093,0.1848068333524996,0.7968378380778709
-4.0925,0.1314559590641349,0.998173967775869
-4.092,0.0887752596333849,1.082947075017449
-4.0915,0.1207857842064037,1.146526905448396
-4.091,0.08877525963335578,1.061753798207057
-4.0905,0.04609456020257669,0.8816109453190465
-4.09,-0.007256314085787988,0.701468092431364
-4.0895,-0.02859666380115328,0.5319218779486851
-4.089,-0.2313299860969391,0.2564092794145824
-4.0885,-0.8502001278427167,-0.4959520473525559
-4.088,-1.51175096901904,-1.333086481360783
-4.0875,-1.917217613610612,-1.8311284864032
-4.087,-1.970568487898928,-1.608599079894606
-4.0865,-1.458400094730627,-1.025783967610927
-4.086,-0.8715404775586157,-0.5065486857581957
-4.0855,-0.4127229586774857,-0.1674562567922017
-4.085,-0.1459685872356623,0.01268659609548085
-4.0845,-0.01792648894358709,0.06566978812126983
-4.084,0.01408403562956759,0.07626642652646617
-4.0835,0.00341386077189465,0.05507314971615059
-4.083,-0.01792648894347063,0.04447651131098315
-4.0825,-0.04993701351653796,0.04447651131097351
-4.082,-0.07127736323188383,0.03387987290581572
-4.0815,-0.09261771294724913,0.03387987290581572
-4.081,-0.113958062662595,-0.008506680714815459
-4.0805,-0.4767440078238243,-0.4429688553267188
-4.08,-1.052933450138687,-1.152943628472937
-4.0795,-1.479740444445604,-1.799338571187562
-4.079,-1.73582464102993,-2.276187299420656
-4.0785,-1.244996597576974,-2.244397384205182
-4.078,-0.4980843575398689,-1.650985633516346
-4.0775,0.01408403562978109,-0.845641114722368
-4.077,0.2381577076409128,-0.06148987274069118
-4.0765,0.2594980573562586,0.5213252395429876
-4.076,0.1954770082101143,0.8498210301038237
-4.0755,0.1207857842064037,0.9769806909657173
-4.075,0.2061471830678648,0.8816109453192104
-4.0745,0.3021787567869989,0.7756445612674878
-4.074,0.291508581929326,0.7226613692416989
-4.0735,0.2061471830678648,0.6484849004055269
-4.073,0.1101156093488084,0.5637117931642646
-4.0725,0.00341386077189465,0.4789386859228479
-4.072,-0.5194247072545548,0.6166949851900245
-4.0715,-1.266336947291661,0.1822328105785549
-4.071,-1.703814116457512,-0.7290780922668755
-4.0705,-1.906547438753298,-1.42845622700729
-4.07,-1.565101843307764,-1.311893204550554
-4.0695,-0.9995825758498272,-0.8244478379123319
-4.069,-0.5087545323968721,-0.3687923864905467
-4.0685,-0.1993194615240755,-0.05089323433552374
-4.068,-0.03926683865877769,0.0974597033368685
-4.0675,0.02475421048725994,0.1504428953626575
-4.067,0.02475421048725994,0.1504428953626575
-4.0665,0.01408403562954818,0.1292496185522937
-4.066,-0.01792648894347063,0.09745970333682032
-4.0655,-0.06060718837420119,0.06566978812131802
-4.065,-0.09261771294722002,0.01268659609552904
-4.0645,-0.09261771294724913,-0.04029659593035631
-4.064,-0.2206598112394408,-0.2734226408440398
-4.0635,-0.6047861061156664,-0.8774310299380341
-4.063,-1.074273799854363,-1.513229334249063
-4.0625,-1.415719395299897,-1.990078062481164
-4.062,-1.298347471865494,-2.191414192179162
-4.0615,-0.7008176798346842,-1.778145294377131
-4.061,-0.1779791118087102,-1.025783967610927
-4.0605,0.09944543449103843,-0.2628260024388724
-4.06,0.2168173579255475,0.3411823866560182
-4.0595,0.2168173579255475,0.7226613692416989
-4.059,0.1741366584948169,0.9028042221295453
-4.0585,0.1848068333524898,0.8286277532934406
-4.058,0.2701682322139607,0.6060983467848571
-4.0575,0.2168173579255475,0.5425185163538525
-4.057,0.1421261339218369,0.5319218779486947
-4.0565,0.08877525963335578,0.5319218779486851
-4.056,0.05676473506030786,0.5107286011383502
-4.0555,-0.306021210100572,0.3517790250609832
-4.055,-1.052933450139095,-0.4005823017068297
-4.0545,-1.501080794161358,-1.258910012524611
-4.054,-1.746494815887836,-1.915901593644395
-4.0535,-1.565101843306988,-1.788741932782376
-4.053,-1.052933450138687,-1.121153713257435
-4.0525,-0.572775581542968,-0.4959520473525559
-4.052,-0.2313299860969488,-0.07208651114566586
-4.0515,-0.03926683865883591,0.13984625695749
-4.051,0.03542438534494258,0.2034260873884947
-4.0505,0.04609456020261551,0.1928294489833368
-4.05,0.03542438534494258,0.1504428953626575
-4.0495,0.00341386077189465,0.09745970333682032
-4.049,-0.01792648894345122,0.05507314971618914
-4.0485,-0.03926683865884562,0.02328323450061937
-4.048,-0.04993701351651855,-0.008506680714854012
-4.0475,-0.09261771294721031,-0.08268314955095858
-4.047,-0.6154562809741935,-0.5807251545945508
-4.0465,-1.159635198715513,-1.301296566145281
-4.046,-1.607782542737777,-1.915901593644433
-4.0455,-1.863866739322044,-2.350363768256683
-4.045,-1.287677297007705,-2.159624276963843
-4.0445,-0.5514352318276028,-1.481439419033127
-4.044,-0.06060718837399739,-0.6337083466190675
-4.0435,0.1634664836371343,0.09745970333682032
-4.043,0.2274875327832301,0.5849050699745222
-4.0425,0.2061471830678842,0.8392243916983093
-4.042,0.1634664836371343,0.9451907757502149
-4.0415,0.1848068333524996,0.9769806909657173
-4.041,0.1741366584948266,0.9451907757502438
-4.0405,0.1421261339217302,0.8604176685087888
-4.04,0.09944543449103843,0.7650479228623686
-4.0395,0.06743490991801962,0.6696781772159484
-4.039,-0.1139580626632064,0.563711793163908
-4.0385,-0.7648387289812555,0.2564092794143318
-4.038,-1.415719395299305,-0.5489352393776606
-4.0375,-1.74649481588802,-1.375473034981684
-4.037,-1.703814116457328,-1.629792356705471
-4.0365,-1.212986073003927,-1.163540266878104
-4.036,-0.6794773301194352,-0.5913217929986677
-4.0355,-0.2846808603855366,-0.1568596183871981
-4.035,-0.06060718837420119,0.09745970333682032
-4.0345,0.04609456020252817,0.1928294489832405
-4.034,0.0674349099179905,0.2034260873884947
-4.0335,0.05676473506030786,0.1716361721729923
-4.033,0.03542438534496199,0.1292496185523612
-4.0325,0.01408403562955789,0.08686306493161433
-4.032,-0.007256314085787988,0.04447651131098315
-4.0315,-0.02859666380113387,0.002089957690351973
-4.031,-0.03926683865907853,-0.02969995752545873
-4.0305,-0.3060212101009019,-0.326405832869877
-4.03,-1.010252750707316,-0.9939940523948181
-4.0295,-1.458400094730889,-1.650985633516259
-4.029,-1.746494815888059,-2.149027638558676
-4.0285,-1.287677297007705,-2.138431000153508
-4.028,-0.5727755815424925,-1.566212526273734
-4.0275,-0.04993701351651855,-0.7608680074817418
-4.027,0.1954770082101822,-0.01910331912002144
-4.0265,0.2701682322138927,0.5213252395430261
-4.026,0.2381577076409128,0.8074344764830383
-4.0255,0.1848068333524996,0.92399749893988
-4.025,0.2381577076408642,1.061753798206932
-4.0245,0.2594980573562296,1.040560521396587
-4.024,0.2061471830678648,0.8922075837243778
-4.0235,0.1314559590641543,0.7120647308366953
-4.023,0.08877525963332666,0.5531151547589236
-4.0225,0.05676473506030786,0.4471487707073456
-4.022,-0.3380317346735908,0.4365521323021878
-4.0215,-1.031593100423797,-0.08268314955180668
-4.021,-1.554431668449771,-0.9410108603695881
-4.0205,-1.799845690176472,-1.51322933424863
-4.02,-1.44772991987243,-1.25891001252409
-4.0195,-0.8822106524157645,-0.6866915386455698
-4.019,-0.4127229586777283,-0.1674562567923655
-4.0185,-0.1246282375205591,0.1822328105778418
-4.018,0.03542438534494258,0.3623756634660061
-4.0175,0.07810508477567314,0.4153588554918433
-4.017,0.08877525963334608,0.4153588554918433
-4.0165,0.06743490991796139,0.3941655786814795
-4.016,0.03542438534494258,0.3623756634660061
-4.0155,0.0140840356295967,0.319989109845375
-4.015,-0.007256314085787988,0.2776025562246185
-4.0145,-0.007256314085787988,0.2246193641988295
-4.014,-0.0712773632318256,0.03387987290598921
-4.0135,-0.4340633083933654,-0.5807251545945122
-4.013,-0.7328282044082075,-1.258910012524611
-4.0125,-0.8822106524157645,-1.714565463946811
-4.012,-0.7221580295500591,-2.021867977696656
-4.0115,-0.2099896363817582,-2.011271339291499
-4.011,0.1848068333524996,-1.587405803084801
-4.0105,0.3448594562175936,-0.8986243067495447
-4.01,0.3235191065023739,-0.1780528951975329
-4.0095,0.2488278824985954,0.3623756634660061
-4.009,0.1741366584948849,0.6696781772155822
-4.0085,0.1848068333525772,0.8074344764831058
-4.008,0.2701682322139607,0.8816109453192104
-4.0075,0.2488278824986148,0.8710143069140526
-4.007,0.1848068333524413,0.8074344764829708
-4.0065,0.1207857842064037,0.7332580076468663
-4.006,0.0674349099179905,0.6484849004055269
-4.0055,-0.1032878878050773,0.3623756634655724
-4.005,-0.2633405106701714,-0.1144730647665284
-4.0045,-0.8181896032696687,-0.8986243067489184
-4.004,-1.341028171296157,-1.555615887869222
-4.0035,-1.383708870726849,-1.47084278062796
-4.003,-0.9889124009925911,-0.9092209451540858
-4.0025,-0.5514352318280007,-0.3581957480858804
-4.002,-0.2206598112394408,0.01268659609548085
-4.0015,-0.02859666380115328,0.2140227257936621
-4.001,0.05676473506023022,0.2881991946297667
-4.0005,0.08877525963334608,0.2881991946298149
-4,0.07810508477567314,0.2670059178194992
-3.9995,0.05676473506030786,0.2352160026039969
-3.999,0.02475421048725994,0.1928294489833272
-3.9985,0.00341386077189465,0.1610395337678249
-3.998,-0.007256314085787988,0.1292496185523226
-3.9975,-0.02859666380115328,0.08686306493165288
-3.997,-0.3273615598162672,-0.3475991096802118
-3.9965,-0.4554036581084589,-1.078767159636765
-3.996,-0.6474668055467465,-1.735758740757146
-3.9955,-0.7968492535543035,-2.223204107394847
-3.995,-0.3700422592469978,-2.297380576231019
-3.9945,0.1101156093487211,-1.873515040024322
-3.994,0.3768699807907871,-1.174136905283272
-3.9935,0.4195506802215176,-0.3687923864905467
-3.993,0.3341892813600565,0.2776025562246667
-3.9925,0.2274875327832301,0.6802748156210291
-3.992,0.1634664836371343,0.849821030103708
-3.9915,0.1954770082101822,0.8180311148882058
-3.991,0.1954770082101822,0.775644561267536
-3.9905,0.1741366584948169,0.7226613692416989
-3.99,0.1527963087794516,0.6590815388106942
-3.9895,0.1207857842064037,0.5849050699745222
-3.989,-0.03926683865883591,0.4683420475176805
-3.9885,-0.6474668055467465,-0.1144730647665284
-3.988,-1.415719395299897,-0.9728007755850904
-3.9875,-2.002579012472442,-1.693372187136476
-3.987,-1.927887788468663,-1.735758740757146
-3.9865,-1.330357996438436,-1.131750351662602
-3.986,-0.7114878546928423,-0.4959520473525559
-3.9855,-0.2633405106701714,-0.04029659593035631
-3.985,-0.007256314085787988,0.2140227257936621
-3.9845,0.09944543449103843,0.309392471440169
-3.984,0.1207857842064037,0.3199891098453364
-3.9835,0.1101156093487211,0.2881991946298341
-3.983,0.08877525963335578,0.2458126410091644
-3.9825,0.0674349099179905,0.2034260873884947
-3.982,0.04609456020262521,0.1716361721729923
-3.9815,0.02475421048725994,0.13984625695749
-3.981,0.02475421048725994,0.1080563417419877
-3.9805,-0.2846808603855366,-0.2098428104130352
-3.98,-0.9782422261349084,-0.9198175835592532
-3.9795,-1.373038695869166,-1.587405803084801
-3.979,-1.479740444445993,-2.117237723343173
-3.9785,-1.074273799854052,-2.244397384205182
-3.978,-0.4127229586777283,-1.75695201756748
-3.9775,0.0674349099179905,-0.9939940523954253
-3.977,0.2808384070716433,-0.1992461720078678
-3.9765,0.3235191065023739,0.4047622170866759
-3.976,0.2808384070716433,0.775644561267536
-3.9755,0.2168173579255475,0.9451907757502149
-3.975,0.3341892813600565,0.849821030103708
-3.9745,0.5582629533713921,0.8816109453192104
-3.974,0.5262524287983441,0.849821030103708
-3.9735,0.3875401556484697,0.7544512844572011
-3.973,0.2594980573562781,0.6484849004055269
-3.9725,0.1741366584948169,0.5107286011383502
-3.972,0.408880505363835,0.6696781772158616
-3.9715,0.09944543449103843,0.6484849004055269
-3.971,-0.6154562809736985,-0.1674562567923655
-3.9705,-1.191645723288561,-0.9410108603695881
-3.97,-1.116954499284783,-0.9410108603695881
-3.9695,-0.754168554123573,-0.5383386009732256
-3.969,-0.3807124341046804,-0.1144730647665284
-3.9685,-0.1139580626626144,0.1928294489833272
-3.968,0.02475421048725994,0.3623756634660061
-3.9675,0.08877525963335578,0.4471487707073456
-3.967,0.09944543449103843,0.4789386859228479
-3.9665,0.08877525963335578,0.4789386859228479
-3.966,0.07810508477567314,0.4683420475176805
-3.9655,0.05676473506030786,0.4365521323021782
-3.965,0.03542438534494258,0.4047622170866759
-3.9645,0.02475421048725994,0.3623756634660061
-3.964,-0.06060718837420119,0.2352160026039969
-3.9635,-0.5194247072545548,-0.3793890248957141
-3.963,-1.138294849000148,-1.163540266878104
-3.9625,-1.373038695869166,-1.682775548731308
-3.962,-1.010252750707956,-1.725162102351978
-3.9615,-0.4020527838200457,-1.407262950196955
-3.961,0.0674349099179905,-0.8032545611024114
-3.9605,0.291508581929326,-0.1462629799820306
-3.96,0.3448594562177392,0.309392471440169
-3.9595,0.3021787567870086,0.6060983467848571
-3.959,0.2381577076409128,0.7650479228623686
-3.9585,0.2274875327832301,0.8392243916985406
-3.958,0.3875401556484697,1.019367244586387
-3.9575,0.4195506802215176,1.00877060618122
-3.957,0.3341892813600565,0.8604176685088755
-3.9565,0.2381577076409128,0.6696781772158616
-3.956,0.1527963087794516,0.5107286011383502
-3.9555,-0.04993701351651855,0.5955017083796896
-3.955,-0.658136980404429,0.8074344764830383
-3.9545,-1.244996597576974,0.1186529801471552
-3.954,-1.575772018165136,-0.8138511995075789
-3.9535,-1.437059745015262,-1.078767159636765
-3.953,-0.9462317015618604,-0.7502713690765743
-3.9525,-0.4767440078238243,-0.2946159176543747
-3.952,-0.1459685872356623,0.06566978812131802
-3.9515,0.03542438534494258,0.2987958330350016
-3.951,0.1207857842064037,0.4047622170866759
-3.9505,0.1314559590640864,0.4471487707073456
-3.95,0.1207857842064037,0.4471487707073456
-3.9495,0.09944543449103843,0.4365521323021782
-3.949,0.0674349099179905,0.4153588554918433
-3.9485,0.05676473506030786,0.383568940276341
-3.948,0.03542438534494258,0.309392471440169
-3.9475,0.00341386077189465,0.1928294489833272
-3.947,-0.4020527838200457,-0.3370024712750445
-3.9465,-0.9995825758502737,-1.0999604364471
-3.946,-1.394379045584531,-1.735758740757146
-3.9455,-1.554431668449771,-2.21260746898968
-3.945,-0.9675720512772257,-2.138431000153508
-3.9445,-0.2526703358124887,-1.587405803084801
-3.944,0.1848068333524996,-0.8138511995075789
-3.9435,0.3555296310754218,-0.07208651114585861
-3.943,0.3555296310754218,0.4365521323021782
-3.9425,0.291508581929326,0.7120647308365314
-3.942,0.2488278824985954,0.8074344764830383
-3.9415,0.3661998059331045,0.7862411996727035
-3.941,0.3875401556484697,0.7544512844572011
-3.9405,0.3128489316446912,0.6696781772158616
-3.94,0.2381577076409128,0.5743084315693548
-3.9395,0.1741366584948169,0.4895353243280153
-3.939,0.05676473506030786,0.5107286011383502
-3.9385,-0.4447334832507763,0.7968378380778709
-3.938,-1.074273799854052,0.2776025562246667
-3.9375,-1.405049220442214,-0.6337083466197325
-3.937,-1.244996597576974,-0.9622041371799229
-3.9365,-0.807519428411986,-0.6972881770507372
-3.936,-0.3807124341046804,-0.3052125560595421
-3.9355,-0.09261771294724913,0.02328323450064829
-3.935,0.0674349099179905,0.2246193641988295
-3.9345,0.1314559590640864,0.3305857482505039
-3.934,0.142126133921769,0.3729723018711736
-3.9335,0.1314559590640864,0.383568940276341
-3.933,0.1101156093487211,0.3729723018711736
-3.9325,0.08877525963335578,0.3623756634660061
-3.932,0.0674349099179905,0.3411823866556712
-3.9315,0.05676473506030786,0.3305857482505039
-3.931,0.04609456020262521,0.2881991946298341
-3.9305,-0.08194753808956648,0.09745970333682032
-3.93,-0.6367966306890638,-0.5913217929990628
-3.9295,-1.159635198715513,-1.290699927740113
-3.929,-1.362368521011484,-1.746355379162313
-3.9285,-1.042263275281004,-1.778145294377815
-3.928,-0.423393133535411,-1.354279758171118
-3.9275,0.03542438534494258,-0.6231117082145651
-3.927,0.2488278824985954,0.04447651131098315
-3.9265,0.3021787567870086,0.5001319627331828
-3.926,0.2808384070716433,0.7332580076468663
-3.9255,0.2274875327832301,0.8286277532933731
-3.925,0.2808384070716433,0.9345941373450475
-3.9245,0.3555296310754218,0.9981739677760521
-3.924,0.3448594562177392,0.9134008605347127
-3.9235,0.2808384070716433,0.7650479228623686
-3.923,0.2381577076409128,0.6166949851900245
-3.9225,0.1741366584948169,0.457745409112513
-3.922,-0.2420001609548061,-0.02969995752518888
-3.9215,-0.9142211769888124,-0.8668343915334161
-3.921,-1.394379045584531,-1.619195718300304
-3.9205,-1.735824641030376,-2.043061254507001
-3.92,-1.51175096901904,-1.555615887869299
-3.9195,-0.9569018764195432,-0.8032545611024114
-3.919,-0.4447334832507763,-0.1886495336027004
-3.9185,-0.1032878878049318,0.1928294489833272
-3.918,0.07810508477567314,0.3729723018711736
-3.9175,0.1527963087794516,0.4259554938970107
-3.917,0.1634664836371343,0.4153588554918433
-3.9165,0.1527963087794516,0.3729723018711736
-3.916,0.1314559590640864,0.3305857482505039
-3.9155,0.09944543449103843,0.2987958330350016
-3.915,0.08877525963335578,0.2564092794143318
-3.9145,0.07810508477567314,0.2140227257936621
-3.914,-0.02859666380115328,0.04447651131098315
-3.9135,-0.6261264558313813,-0.6019184314042303
-3.913,-1.1062843244271,-1.301296566145281
-3.9125,-1.341028171296118,-1.79933857118815
-3.912,-1.244996597576974,-2.074851169722503
-3.9115,-0.6047861061160158,-1.894708316834657
-3.911,-0.007256314085787988,-1.364876396576285
-3.9105,0.291508581929326,-0.5913217929990628
-3.91,0.3768699807907871,0.09745970333682032
-3.9095,0.3555296310754218,0.5637117931641874
-3.909,0.291508581929326,0.8180311148882058
-3.9085,0.291508581929326,0.9028042221295453
-3.908,0.4302208550792003,0.849821030103708
-3.9075,0.408880505363835,0.7544512844572011
-3.907,0.3341892813600565,0.6484849004055269
-3.9065,0.2488278824985954,0.5425185163538525
-3.906,0.1848068333524996,0.4683420475176805
-3.9055,0.01408403562957729,0.6908714540261965
-3.905,-0.4874141826815069,0.9451907757502149
-3.9045,-0.7861790786966207,0.2987958330350016
-3.904,-1.06360362499637,-0.570128516188728
-3.9035,-0.9142211769888124,-0.7820612842920766
-3.903,-0.572775581542968,-0.5383386009732256
-3.9025,-0.2420001609548061,-0.2098428104130352
-3.902,-0.01792648894347063,0.06566978812131802
-3.9015,0.09944543449103843,0.2564092794143318
-3.901,0.142126133921769,0.3729723018711736
-3.9005,0.1527963087794516,0.4471487707073456
-3.9,0.142126133921769,0.4895353243280153
-3.8995,0.1314559590640864,0.5213252395435176
-3.899,0.1101156093487211,0.5425185163538525
-3.8985,0.09944543449103843,0.5425185163538525
-3.898,0.08877525963335578,0.5213252395435176
-3.8975,0.0674349099179905,0.457745409112513
-3.897,-0.3593720843893152,-0.06148987274069118
-3.8965,-0.9782422261349084,-0.8562377531282487
-3.896,-1.341028171296118,-1.481439419033127
-3.8955,-1.255666772434657,-1.449649503817625
-3.895,-0.690147504977477,-0.9939940523954253
-3.8945,-0.124628237520297,-0.4641621321370536
-3.894,0.2061471830678648,0.08686306493165288
-3.8935,0.3235191065023739,0.5319218779486851
-3.893,0.3341892813600565,0.8074344764830383
-3.8925,0.2808384070716433,0.92399749893988
-3.892,0.2488278824985954,0.9557874141553824
-3.8915,0.3661998059331045,1.00877060618122
-3.891,0.3768699807907871,0.9028042221295453
-3.8905,0.3128489316446912,0.701468092431364
-3.89,0.2488278824985954,0.5001319627331828
-3.8895,0.2061471830678648,0.3305857482505039
-3.889,0.08877525963335578,0.2352160026039969
-3.8885,-0.4447334832507763,-0.1568596183871981
-3.888,-0.9782422261349084,-0.9092209451540858
