Class_10_Using_Wats_App/Class_10_WatsApp_UZ_10.csv

#Digilent WaveForms Oscilloscope Acquisition
#Device Name: EExplorer
#Serial Number: SN:210151A2B84A
#Date Time: 2020-12-23 13:11:55.715
#Sample rate: 2000Hz
#Samples: 16384
#Trigger: Source: Channel 1 Type: Edge Condition: Rising Level: 0 V Hyst.: Auto HoldOff: 0 s
#Channel 1: Range: 1 V/div Offset: 0 V Attenuation: 1 X
#Channel 2: Range: 1 V/div Offset: 0 V Attenuation: 1 X
#Power Supplies: ON
#Fixed Supply: ON
#Voltage: 3.3 V Readback: 3.321 V
#Positive Supply: ON
#Voltage: 3.7 V Readback: 3.635 V
#Current: 40 mA Readback: 14 mA
#Negative Supply: ON
#Voltage: -3.7 V Readback: -4.249 V
#Current: -40 mA Readback: -28 mA
#Reference 1: ON
#Voltage: 0 V
#Reference 2: ON
#Voltage: 0 V

Time (s),Channel 1 (V),Channel 2 (V)
-4.096,1.19847344483235,-0.2098428104130352
-4.0955,0.7503261008100871,-0.9092209451534498
-4.095,0.05676473506025934,-1.311893204550342
-4.0945,0.00341386077189465,-1.195330182093607
-4.094,0.2701682322137181,-0.5595318777841387
-4.0935,0.515582253940739,0.09745970333724437
-4.093,0.6009436528021226,0.5637117931641874
-4.0925,0.5582629533714309,0.8286277532931322
-4.092,0.4515612047944588,0.9134008605346742
-4.0915,0.3341892813600565,0.8710143069140429
-4.091,0.1314559590640864,0.5001319627331828
-4.0905,-0.3380317346739693,-0.1250697031717921
-4.09,-0.3593720843893152,-0.2310360872233701
-4.0895,-0.2313299860971235,-0.1674562567923655
-4.089,-0.08194753808970234,-0.08268314955110315
-4.0885,0.07810508477567314,0.04447651131098315
-4.088,-0.3273615598162672,0.2564092794143318
-4.0875,-1.362368521010542,0.5743084315690657
-4.087,-2.066600061619052,0.8074344764829516
-4.0865,-2.632119329075718,0.7120647308365314
-4.086,-2.792171951940812,0.01268659609611689
-4.0855,-2.013249187329281,-0.3475991096802215
-4.085,-1.084943974711735,-0.3581957480853793
-4.0845,-0.3487019095323021,-0.2204394488183279
-4.084,0.08877525963354016,-0.05089323433539845
-4.0835,0.291508581929326,0.08686306493165288
-4.083,0.3448594562177392,0.2140227257936621
-4.0825,0.3341892813600275,0.3093924714402461
-4.082,0.3021787567870086,0.3941655786815084
-4.0815,0.2808384070716433,0.4683420475176805
-4.081,0.2701682322139704,0.5319218779486272
-4.0805,0.2808384070716433,0.5849050699745222
-4.08,0.4515612047945656,0.5213252395435176
-4.0795,1.027750647108904,0.08686306493204798
-4.079,0.9317190733895081,-0.6549016234306746
-4.0785,0.07810508477567314,-1.322489842955616
-4.078,-0.1779791118084773,-1.470842780627825
-4.0775,0.1101156093490316,-0.9410108603689231
-4.077,0.4515612047945656,-0.2098428104130352
-4.0765,0.6542945270903514,0.3517790250603279
-4.076,0.664964701948131,0.6908714540263411
-4.0755,0.5689331282290746,0.849821030103708
-4.075,0.4408910299368829,0.8604176685088755
-4.0745,0.3982103305061912,0.7544512844570276
-4.074,0.4408910299368829,0.5637117931641874
-4.0735,0.3982103305061524,0.4365521323021782
-4.073,0.3235191065024418,0.341182386655758
-4.0725,0.2061471830678648,0.1928294489833272
-4.072,0.01408403562957729,-0.008506680714854012
-4.0715,-0.5194247072540695,0.1716361721728285
-4.071,-1.767835165604035,0.3729723018719542
-4.0705,-2.44005618163743,1.231300012689736
-4.07,-2.973564924521077,1.602182356870258
-4.0695,-3.282999995393844,0.7014680924305255
-4.069,-2.717480727937179,-0.2204394488182027
-4.0685,-1.714484291315011,-0.4853554089473885
-4.068,-0.7755089038383657,-0.358195748085148
-4.0675,-0.1459685872356623,-0.1038764263613609
-4.067,0.1954770082101822,0.1504428953626575
-4.0665,0.3448594562177586,0.3411823866558062
-4.066,0.3661998059331045,0.4895353243280153
-4.0655,0.3448594562177392,0.5849050699745222
-4.065,0.3128489316447204,0.6590815388106267
-4.0645,0.291508581929326,0.6908714540261965
-4.064,0.3021787567870086,0.6908714540261965
-4.0635,0.3768699807907192,0.669678177215881
-4.063,0.9317190733906048,0.2564092794136282
-4.0625,1.283834843693812,-0.5171453241628908
-4.062,0.9317190733906047,-0.9622041371795181
-4.0615,0.5262524287983538,-0.9092209451536328
-4.061,0.5369226036560266,-0.4111789401112165
-4.0605,0.6542945270905358,0.13984625695749
-4.06,0.7076454013789102,0.5213252395436718
-4.0595,0.6649647019482183,0.6908714540261965
-4.059,0.5582629533713921,0.775644561267536
-4.0585,0.4515612047946626,0.7120647308365893
-4.058,0.3768699807907871,0.5955017083796896
-4.0575,0.4835717293676135,0.4259554938970107
-4.057,0.4835717293676135,0.2987958330351173
-4.0565,0.408880505363835,0.2034260873884947
-4.056,0.3235191065023739,0.1186529801471552
-4.0555,0.2488278824986633,0.04447651131105061
-4.055,0.06743490991744705,0.10805634174246
-4.0545,-0.5300948821122373,0.627291623595192
-4.054,-1.223656247860978,1.008770606180873
-4.0535,-1.938557963326967,1.029963882991063
-4.053,-2.621449154218035,0.4895353243280153
-4.0525,-2.322684258202921,-0.2946159176543747
-4.052,-1.97056848789855,-0.9622041371797109
-4.0515,-1.042263275281004,-0.7290780922662394
-4.051,-0.4127229586777283,-0.4323722169215513
-4.0505,0.04609456020220792,-0.06148987274102852
-4.05,0.3021787567870086,0.2458126410091644
-4.0495,0.3235191065023739,0.4047622170866759
-4.049,0.302178756787028,0.5213252395434116
-4.0485,0.2808384070716336,0.627291623595269
-4.048,0.2701682322139607,0.7120647308365314
-4.0475,0.2701682322139607,0.7756445612674782
-4.047,0.3235191065027718,0.8180311148880323
-4.0465,0.7609962756673623,0.627291623595192
-4.046,1.422547116843084,-0.01910331911943353
-4.0455,1.34785589283915,-0.8986243067495159
-4.045,0.5155822539406614,-1.555615887869299
-4.0445,0.2594980573562781,-1.407262950196955
-4.044,0.3875401556486347,-0.6972881770501108
-4.0435,0.5689331282290746,-0.008506680714854012
-4.043,0.6222840025174878,0.457745409112513
-4.0425,0.5689331282291231,0.6802748156208267
-4.042,0.4729015545099309,0.7650479228623686
-4.0415,0.3875401556484697,0.7120647308365314
-4.041,0.4195506802214886,0.5319218779488489
-4.0405,0.4515612047945171,0.3305857482503689
-4.04,0.3982103305061524,0.1822328105781598
-4.0395,0.3235191065024418,0.06566978812142403
-4.039,0.2594980573562198,-0.0508932343355912
-4.0385,0.1954770082101822,-0.1250697031716958
-4.038,-0.2099896363813894,0.1504428953624069
-4.0375,-0.9782422261355586,0.807434476483578
-4.037,-1.693143941599645,1.400846227172415
-4.0365,-2.087940411333903,1.517409249629256
-4.036,-1.639793067310582,0.9875773293703547
-4.0355,-0.9248913518464952,0.4047622170866759
-4.035,-0.3380317346739499,-0.008506680714854012
-4.0345,0.003413860771584121,-0.2310360872231677
-4.034,0.03542438534494258,-0.400582301706049
-4.0335,-0.4340633083930936,-0.8456411147230812
-4.033,-0.3273615598163643,-0.5701285161889785
-4.0325,-0.177979111808555,-0.2098428104126883
-4.032,-0.007256314085787988,0.1716361721729923
-4.0315,0.2061471830676707,0.553115154758673
-4.031,0.2808384070716627,0.7544512844573263
-4.0305,0.3021787567870086,0.8922075837243778
-4.03,0.4195506802214109,0.9769806909656402
-4.0295,0.9743997728210053,0.786241199672183
-4.029,0.9637295979633325,0.2140227257936621
-4.0285,0.08877525963335578,-0.5277419625680583
-4.028,-0.2099896363815155,-0.919817583558993
-4.0275,0.05676473506030786,-0.6337083466197325
-4.027,0.3982103305061524,-0.1144730647665284
-4.0265,0.5796033030865924,0.3729723018707303
-4.026,0.5689331282290746,0.6590815388106942
-4.0255,0.4835717293676135,0.7862411996727035
-4.025,0.39821033050623,0.7968378380778612
-4.0245,0.3555296310754412,0.6484849004052666
-4.024,0.3768699807907871,0.3623756634660061
-4.0235,0.3448594562177683,0.1716361721731658
-4.023,0.3021787567869698,0.02328323450053264
-4.0225,0.2594980573562781,-0.1038764263613609
-4.022,0.2061471830679134,-0.2098428104129388
-4.0215,-0.04993701351719786,-0.05089323433496476
-4.021,-0.7968492535543035,0.5637117931641874
-4.0205,-1.597112367880501,1.167720182258731
-4.02,-2.066600061618702,1.241896651094334
-4.0195,-2.247993034199143,0.6166949851900245
-4.019,-1.586442193022819,-0.008506680714854012
-4.0185,-0.8288597781280405,-0.3264058328695879
-4.018,-0.2526703358124887,-0.4111789401112165
-4.0175,0.1101156093487211,-0.3370024712750445
-4.017,0.280838407071488,-0.1780528951976775
-4.0165,0.3341892813600468,0.01268659609566397
-4.016,0.3235191065023739,0.2140227257936621
-4.0155,0.2915085819293551,0.4153588554916602
-4.015,0.07810508477574107,0.4047622170868879
-4.0145,0.1527963087794516,0.6378882620003594
-4.014,-0.4980843575385976,0.1080563417424696
-4.0135,-0.1779791118079533,0.3835689402762254
-4.013,0.6542945270905358,0.2564092794143318
-4.0125,1.145122570543937,-0.3158091944647096
-4.012,0.5049120790824548,-1.004590690800602
-4.0115,-0.07127736323188383,-1.01518732920576
-4.011,0.1207857842064037,-0.4535654937318862
-4.0105,0.4515612047942648,0.02328323450021458
-4.01,0.6329541773751706,0.3941655786815084
-4.0095,0.6222840025174878,0.5849050699745222
-4.009,0.5369226036561042,0.6378882620003112
-4.0085,0.4408910299368247,0.6166949851899667
-4.008,0.3768699807907871,0.55311515475902
-4.0075,0.4729015545098435,0.341182386655864
-4.007,0.4622313796521803,0.214022725793585
-4.0065,0.3875401556484697,0.1292496185523226
-4.006,0.3128489316446912,0.06566978812131802
-4.0055,0.2594980573560354,-0.008506680714950388
-4.005,-0.007256314085787988,-0.1144730647665284
-4.0045,-0.722158029550525,-0.1674562567923655
-4.004,-1.650463242169652,-0.2098428104131509
-4.0035,-2.461396531352796,-0.3370024712750445
-4.003,-2.973564924521563,-0.6337083466197325
-4.0025,-2.578768454787664,-0.9092209451538352
-4.002,-1.522421143876723,-0.7502713690765743
-4.0015,-0.6688071552621118,-0.4429688553267188
-4.001,-0.09261771294777321,-0.1462629799823005
-4.0005,0.2274875327833369,0.07626642652663002
-4,0.3448594562177392,0.2352160026039969
-3.9995,0.3555296310754218,0.3517790250608387
-3.999,0.3341892813600565,0.4365521323021782
-3.9985,0.3021787567870086,0.5001319627331828
-3.998,0.2808384070716433,0.5425185163538525
-3.9975,0.291508581929326,0.5849050699745222
-3.997,0.3341892813600565,0.5849050699745222
-3.9965,0.8143471499557753,0.1716361721729923
-3.996,1.283834843693812,-0.6972881770507372
-3.9955,1.017080472251745,-1.311893204550448
-3.995,-0.1459685872356623,-1.915901593644992
-3.9945,-0.4020527838200457,-1.566212526274467
-3.994,-0.04993701351651855,-0.7820612842920766
-3.9935,0.3021787567870086,-0.08268314955102604
-3.993,0.5796033030867573,0.4895353243280153
-3.9925,0.6009436528021226,0.7226613692416989
-3.992,0.5049120790829789,0.7650479228623686
-3.9915,0.3875401556484697,0.6908714540261965
-3.991,0.4515612047945656,0.4789386859228479
-3.9905,0.4942419042252961,0.2881991946298341
-3.99,0.4408910299368829,0.1928294489833272
-3.9895,0.3555296310754218,0.13984625695749
-3.989,0.2808384070716433,0.07626642652648545
-3.9885,0.1314559590640864,0.09745970333682032
-3.988,-0.4874141826815069,0.4789386859228479
-3.9875,-1.341028171296118,0.9981739677760521
-3.987,-1.842526389607202,1.369056311956912
-3.9865,-2.03458953704549,1.157123543853563
-3.986,-1.757164990745741,0.457745409112513
-3.9855,-1.084943974711735,0.002089957690313421
-3.985,-0.4447334832507763,-0.1780528951975329
-3.9845,-0.01792648894347063,-0.1992461720078678
-3.984,0.2168173579255475,-0.1250697031716958
-3.9835,0.3128489316446912,-0.008506680714854012
-3.983,0.3341892813600565,0.1292496185523226
-3.9825,0.3128489316446912,0.2564092794143318
-3.982,0.2808384070716433,0.383568940276341
-3.9815,0.2701682322139607,0.4895353243280153
-3.981,0.2808384070716433,0.5849050699745222
-3.9805,0.291508581929326,0.6696781772158616
-3.98,0.408880505363835,0.627291623595192
-3.9795,0.8676980242441885,0.1186529801471552
-3.979,0.974399772821015,-0.5807251545938954
-3.9785,0.5475927785137094,-1.131750351662602
-3.978,0.3661998059331045,-1.333086481360783
-3.9775,0.4622313796522482,-0.9728007755850904
-3.977,0.5475927785137094,-0.4323722169215513
-3.9765,0.408880505363835,-0.04029659593035631
-3.976,0.02475421048725994,-0.008506680714854012
-3.9755,0.07810508477567314,0.3199891098453364
-3.975,0.1207857842064037,0.4789386859228479
-3.9745,0.2808384070716433,0.5637117931641874
-3.974,0.3661998059331045,0.4365521323021782
-3.9735,0.3341892813600565,0.2987958330350016
-3.973,0.291508581929326,0.1716361721729923
-3.9725,0.2488278824985954,0.06566978812131802
-3.972,0.2061471830678648,-0.02969995752518888
-3.9715,-0.124628237520297,0.002089957690313421
-3.971,-0.9782422261349084,0.2458126410091644
-3.9705,-1.554431668449771,0.4471487707073456
-3.97,-1.906547438753298,0.4683420475176805
-3.9695,-2.183971985053047,0.1928294489833272
-3.969,-2.087940411333903,-0.3899856633008816
-3.9685,-1.394379045584531,-0.5171453241628908
-3.968,-0.658136980404429,-0.3899856633008816
-3.9675,-0.124628237520297,-0.1780528951975329
-3.967,0.1741366584948169,0.01268659609548085
-3.9665,0.3128489316446912,0.1822328105781598
-3.966,0.3448594562177392,0.309392471440169
-3.9655,0.3235191065023739,0.4153588554918433
-3.965,0.3021787567870086,0.4895353243280153
-3.9645,0.2808384070716433,0.5637117931641874
-3.964,0.291508581929326,0.6166949851900245
-3.9635,0.3341892813600565,0.627291623595192
-3.963,0.6009436528021226,0.5107286011383502
-3.9625,0.9530594231056497,0.08686306493165288
-3.962,0.5369226036560266,-0.570128516188728
-3.9615,0.1207857842064037,-0.9410108603695881
-3.961,0.2594980573562781,-0.8456411147230812
-3.9605,0.4942419042252961,-0.400582301706049
-3.96,0.6329541773751706,0.1080563417419877
-3.9595,0.6222840025174878,0.5319218779486851
-3.959,0.5369226036560266,0.7862411996727035
-3.9585,0.2488278824985954,0.627291623595192
-3.958,0.2381577076409128,0.55311515475902
-3.9575,-0.2953510352432193,-0.3687923864905467
-3.957,-0.08194753808956648,-0.3475991096802118
-3.9565,0.01408403562957729,-0.2840192792492073
-3.956,0.142126133921769,-0.1462629799820306
-3.9555,0.2381577076409128,-0.06148987274069118
-3.955,-0.1139580626626144,0.02328323450064829
-3.9545,-0.9675720512772257,0.4365521323021782
-3.954,-1.885207089037933,0.92399749893988
-3.9535,-2.632119329075718,1.241896651094903
-3.953,-3.229649121105945,0.9875773293708847
-3.9525,-2.824182476514005,0.2034260873884947
-3.952,-1.746494815888059,-0.1568596183871981
-3.9515,-0.7968492535543035,-0.2098428104130352
-3.951,-0.1352984123779797,-0.1144730647665284
-3.9505,0.2168173579255475,0.03387987290581572
-3.95,0.3555296310754218,0.1822328105781598
-3.9495,0.3768699807907871,0.3199891098453364
-3.949,0.3555296310754218,0.4365521323021782
-3.9485,0.3235191065023739,0.5319218779486851
-3.948,0.3021787567870086,0.6060983467848571
-3.9475,0.291508581929326,0.6590815388106942
-3.947,0.3128489316446912,0.701468092431364
-3.9465,0.6009436528021226,0.5849050699745222
-3.946,1.294505018551494,0.1080563417419877
-3.9455,1.486568165989782,-0.6231117082145651
-3.945,1.049090996824793,-0.9622041371799229
-3.9445,0.9530594231056497,-0.570128516188728
-3.944,0.9637295979633325,-0.2734226408440398
-3.9435,0.9317190733902845,-0.08268314955102604
-3.943,0.8356874996711408,0.04447651131098315
-3.9425,0.6649647019482183,0.1186529801471552
-3.942,0.4942419042252961,0.1292496185523226
-3.9415,0.3661998059331045,0.1080563417419877
-3.941,0.4302208550792003,-0.008506680714854012
-3.9405,0.4835717293676135,-0.1462629799820306
-3.94,0.4195506802215176,-0.1462629799820306
-3.9395,0.1741366584948169,-0.2628260024388724
-3.939,0.1848068333524996,-0.1144730647665284
-3.9385,-0.5087545323968721,-0.6231117082145651
-3.938,-1.031593100423322,-0.4217755785163839
-3.9375,-1.863866739322568,-0.04029659593035631
-3.937,-2.333354433060604,0.1928294489833272
-3.9365,-2.557428105071939,-0.008506680714854012
-3.936,-2.60010880450267,-0.7608680074817418
-3.9355,-1.895877263895616,-0.8456411147230812
-3.935,-1.010252750707956,-0.4641621321370536
-3.9345,-0.3166913849585846,-0.01910331912002144
-3.934,0.09944543449103843,0.3305857482505039
-3.9335,0.3021787567870086,0.5637117931641874
-3.933,0.3661998059331045,0.6908714540261965
-3.9325,0.3661998059331045,0.7544512844572011
-3.932,0.3341892813600565,0.7544512844572011
-3.9315,0.3021787567870086,0.7226613692416989
-3.931,0.291508581929326,0.6802748156210291
-3.9305,0.3128489316446912,0.6166949851900245
-3.93,0.5369226036560266,0.457745409112513
-3.9295,1.230483969405398,-0.1250697031716958
-3.929,1.539919040278195,-1.046977244421262
-3.9285,1.337185717982225,-1.84172512480882
-3.928,1.145122570543937,-1.979481424075996
-3.9275,1.049090996824793,-1.460246142222792
-3.927,0.9530594231056497,-0.7714646458869092
-3.9265,0.825017324813458,-0.252229364033705
-3.926,0.6436243522328531,0.09745970333682032
-3.9255,0.4729015545099309,0.2458126410091644
-3.925,0.3555296310754218,0.2352160026039969
-3.9245,0.3341892813600565,0.1080563417419877
-3.924,0.3982103305061524,-0.1356663415768632
-3.9235,0.3768699807907871,-0.2310360872233701
-3.923,0.3235191065023739,-0.2204394488182027
-3.9225,0.2701682322139607,-0.1780528951975329
-3.922,0.2381577076409128,-0.1462629799820306
-3.9215,-0.04993701351651855,0.06566978812131802
-3.921,-0.7755089038389382,0.6060983467848571
-3.9205,-1.447729919872945,1.051157159801889
-3.92,-2.087940411333903,0.9981739677760521
-3.9195,-2.19464215991073,0.6802748156210291
-3.919,-2.301343908487556,-0.3793890248957141
-3.9185,-1.437059745015262,-0.3687923864905467
-3.918,-0.690147504977477,-0.1886495336027004
-3.9175,-0.124628237520297,0.1080563417419877
-3.917,0.2381577076409128,0.4153588554918433
-3.9165,0.3235191065023739,0.5637117931641874
-3.916,0.3235191065023739,0.6590815388106942
-3.9155,0.3021787567870086,0.7332580076468663
-3.915,0.2808384070716433,0.7862411996727035
-3.9145,0.2808384070716433,0.8180311148882058
-3.914,0.3021787567870086,0.8286277532933731
-3.9135,0.3982103305061524,0.7650479228623686
-3.913,0.9210488985326017,0.3623756634660061
-3.9125,1.230483969405398,-0.4323722169215513
-3.912,0.8783681991018712,-1.322489842955616
-3.9115,0.7396559259519968,-1.227120097309109
-3.911,0.9103787236749192,-0.570128516188728
-3.9105,1.017080472251745,-0.2946159176543747
-3.91,0.9850699476786977,-0.1780528951975329
-3.9095,0.825017324813458,-0.1144730647665284
-3.909,0.6222840025174878,-0.08268314955102604
-3.9085,0.4515612047945656,-0.1038764263613609
-3.908,0.3448594562177392,-0.1462629799820306
-3.9075,0.3661998059331045,-0.2840192792492073
-3.907,0.3341892813600565,-0.3052125560595421
-3.9065,0.291508581929326,-0.2416327256285375
-3.906,0.2488278824985954,-0.1568596183871981
-3.9055,0.2274875327832301,-0.05089323433552374
-3.905,-0.02859666380115328,0.1610395337678249
-3.9045,-0.6688071552621118,0.6590815388106942
-3.904,-1.341028171296118,1.178316820663898
-3.9035,-1.842526389607202,1.517409249629256
-3.903,-2.215982509626095,1.29487984312074
-3.9025,-1.842526389607202,0.7650479228623686
-3.902,-1.074273799854052,0.5319218779486851
-3.9015,-0.4340633083930936,0.5107286011383502
-3.901,0.00341386077189465,0.5743084315693548
-3.9005,0.1101156093487211,0.5425185163538525
-3.9,0.1314559590640864,0.5637117931641874
-3.8995,-0.4980843575391895,-0.01910331912002144
-3.899,-0.3166913849585846,0.2140227257936621
-3.8985,-0.1673089369510276,0.383568940276341
-3.898,0.01408403562957729,0.5637117931641874
-3.8975,0.2168173579255475,0.7226613692416989
-3.897,0.2808384070716433,0.6802748156210291
-3.8965,0.4942419042252961,0.5425185163538525
-3.896,1.059761171682476,0.1292496185523226
-3.8955,0.9530594231056497,-0.5807251545938954
-3.895,0.4515612047945656,-1.004590690800593
-3.8945,0.3875401556484697,-0.792657922697244
-3.894,0.5475927785137094,-0.5277419625680583
-3.8935,0.6969752265212663,-0.3687923864905467
-3.893,0.6863050516635838,-0.3052125560595421
-3.8925,0.6009436528021226,-0.326405832869877
-3.892,0.4729015545099309,-0.3158091944647096
-3.8915,0.3555296310754218,-0.2734226408440398
-3.891,0.4622313796522482,-0.3052125560595421
-3.8905,0.5689331282290746,-0.326405832869877
-3.89,0.5155822539406614,-0.252229364033705
-3.8895,0.408880505363835,-0.1462629799820306
-3.889,0.3128489316446912,-0.05089323433552374
-3.8885,0.142126133921769,0.05507314971615059
-3.888,-0.4767440078238243,0.4683420475176805
-3.8875,-1.341028171296118,1.093543713422559
-3.887,-1.799845690176472,1.538602526439591
-3.8865,-2.066600061618538,1.316073119931075
