Class_10_Using_Wats_App/Class_10_WatsApp_Basim_7.csv

#Digilent WaveForms Oscilloscope Acquisition
#Device Name: EExplorer
#Serial Number: SN:210151A2B84A
#Date Time: 2021-01-28 09:29:13.037
#Sample rate: 2000Hz
#Samples: 16384
#Trigger: Source: Channel 1 Type: Edge Condition: Rising Level: 0 V Hyst.: Auto HoldOff: 0 s
#Channel 1: Range: 1 V/div Offset: 0 V Attenuation: 1 X
#Channel 2: Range: 1 V/div Offset: 0 V Attenuation: 1 X
#Power Supplies: ON
#Fixed Supply: ON
#Voltage: 3.3 V Readback: 3.313 V
#Positive Supply: ON
#Voltage: 3.7 V Readback: 3.702 V
#Current: 40 mA Readback: 20 mA
#Negative Supply: ON
#Voltage: -3.7 V Readback: -3.343 V
#Current: -40 mA Readback: -7 mA
#Reference 1: ON
#Voltage: 0 V
#Reference 2: ON
#Voltage: 0 V

Time (s),Channel 1 (V),Channel 2 (V)
-4.096,0.5902734779444399,0.13984625695749
-4.0955,0.4729015545100376,0.0232832345007543
-4.095,0.3341892813596101,0.03387987290625905
-4.0945,-0.156638762093345,0.5213252395435176
-4.094,-0.9248913518457964,0.5637117931641489
-4.0935,-1.618452717596245,-0.1674562567927028
-4.093,-2.03458953704549,-0.5383386009732256
-4.0925,-1.799845690176685,-0.6231117082144879
-4.092,-1.052933450138095,-0.3793890248953961
-4.0915,-0.4020527838200457,-0.02969995752518888
-4.091,0.05676473506030786,0.2776025562246667
-4.0905,0.3128489316447883,0.4895353243281406
-4.09,0.4195506802215176,0.627291623595192
-4.0895,0.4408910299368829,0.7120647308365314
-4.089,0.4195506802215371,0.7438546460520049
-4.0885,0.3875401556484697,0.7650479228623686
-4.088,0.3661998059331045,0.7544512844572011
-4.0875,0.3555296310754315,0.7332580076468856
-4.087,0.3661998059333859,0.6802748156206725
-4.0865,0.6756348768059011,0.2881991946298341
-4.086,1.155792745401183,-0.4747587705415272
-4.0855,0.6009436528012783,-1.195330182094011
-4.085,-0.3273615598162672,-1.640388995110639
-4.0845,-0.540765056969726,-1.269506650930116
-4.084,-0.2740106855275823,-0.7396747306709636
-4.0835,0.02475421048725994,-0.252229364033705
-4.083,0.2488278824985954,0.07626642652648545
-4.0825,0.3661998059331433,0.2352160026040259
-4.082,0.408880505363835,0.2670059178194992
-4.0815,0.408880505363835,0.2246193641988295
-4.081,0.3875401556484891,0.1928294489833561
-4.0805,0.3128489316446912,0.3411823866556712
-4.08,0.2808384070716433,0.2776025562246667
-4.0795,0.2808384070716433,0.1292496185524575
-4.079,0.3021787567870086,-0.01910331912008891
-4.0785,0.3021787567870086,-0.09327978795619347
-4.078,0.07810508477587691,0.2034260873882248
-4.0775,-0.5834457564013299,0.5425185163533514
-4.077,-1.330357996438436,-0.008506680714854012
-4.0765,-1.92788778846812,-0.7608680074810575
-4.076,-2.013249187329475,-1.195330182093375
-4.0755,-1.298347471865388,-0.9410108603695881
-4.075,-0.5834457564006506,-0.4217755785163839
-4.0745,-0.06060718837391976,0.05507314971644935
-4.074,0.2488278824985954,0.383568940276341
-4.0735,0.3982103305061524,0.5743084315693548
-4.073,0.4408910299368441,0.6696781772157749
-4.0725,0.4195506802215176,0.6908714540261965
-4.072,0.3982103305061524,0.6908714540261965
-4.0715,0.3768699807908065,0.6590815388107231
-4.071,0.3555296310754218,0.6060983467848089
-4.0705,0.3555296310754218,0.55311515475902
-4.07,0.49424190422517,0.3305857482507062
-4.0695,0.9530594231055624,-0.3687923864912503
-4.069,0.857027849386506,-1.142346990067769
-4.0685,-0.03926683865883591,-1.778145294377815
-4.068,-0.5514352318274572,-1.629792356704864
-4.0675,-0.391382608962363,-0.9622041371799229
-4.067,-0.06060718837420119,-0.400582301706049
-4.0665,0.195477008210318,-0.02969995752502504
-4.066,0.3448594562177392,0.1504428953626575
-4.0655,0.3982103305061524,0.2034260873884947
-4.065,0.3982103305061524,0.1928294489833368
-4.0645,0.3982103305061524,0.1504428953626575
-4.064,0.6222840025174878,0.3411823866556712
-4.0635,0.7289857510942173,0.4153588554917759
-4.063,0.654294527090429,0.2881991946296992
-4.0625,0.5369226036560266,0.13984625695749
-4.062,0.4302208550792974,0.05507314971622769
-4.0615,0.280838407071129,0.1822328105785549
-4.061,-0.2846808603855366,0.6166949851900245
-4.0605,-1.06360362499637,0.2352160026039969
-4.06,-1.714484291315312,-0.5595318777841098
-4.0595,-2.045259711903173,-1.163540266878104
-4.059,-1.479740444445993,-1.05757388282643
-4.0585,-0.7541685541242329,-0.5595318777840135
-4.058,-0.1779791118087102,-0.04029659593035631
-4.0575,0.1848068333524996,0.3411823866556712
-4.057,0.3661998059329395,0.5849050699743006
-4.0565,0.4302208550792003,0.701468092431364
-4.056,0.4195506802215176,0.7438546460520338
-4.0555,0.3982103305061718,0.7544512844571915
-4.055,0.3768699807907677,0.72266136924167
-4.0545,0.3555296310754218,0.6908714540261965
-4.054,0.3555296310754218,0.6272916235952498
-4.0535,0.3982103305064047,0.5001319627326432
-4.053,0.6756348768059011,-0.09327978795619347
-4.0525,0.8463576745288233,-0.8880276683437509
-4.052,0.1741366584942735,-1.587405803084888
-4.0515,-0.423393133535411,-1.682775548731308
-4.051,-0.2953510352432193,-0.9622041371799229
-4.0505,0.01408403562929583,-0.4853554089478222
-4.05,0.2594980573562781,-0.1886495336027004
-4.0495,0.3875401556484697,-0.02969995752518888
-4.049,0.4302208550791615,0.03387987290575789
-4.0485,0.4195506802214982,0.04447651131097351
-4.048,0.3982103305061524,0.03387987290581572
-4.0475,0.4729015545098629,0.1716361721728671
-4.047,0.6009436528020935,0.3729723018711254
-4.0465,0.5689331282290746,0.3199891098453364
-4.046,0.4942419042253641,0.2034260873886007
-4.0455,0.4195506802214109,0.1186529801472034
-4.045,0.3021787567870086,0.1716361721729923
-4.0445,-0.1886492866663929,0.6484849004055269
-4.044,-0.9248913518471162,0.6060983467841632
-4.0435,-1.607782542738184,-0.1568596183871981
-4.043,-2.098610586191586,-0.6866915386455698
-4.0425,-1.917217613611146,-0.8880276683435678
-4.042,-1.127624674142465,-0.570128516188728
-4.0415,-0.4447334832507763,-0.1144730647665284
-4.041,0.03542438534450587,0.2776025562243101
-4.0405,0.3021787567871057,0.5531151547591645
-4.04,0.408880505363835,0.7120647308365314
-4.0395,0.4302208550791809,0.7862411996726359
-4.039,0.4088805053638156,0.8074344764830287
-4.0385,0.3875401556484697,0.7968378380778709
-4.038,0.3661998059331239,0.7650479228623974
-4.0375,0.3448594562177489,0.7014680924312869
-4.037,0.3555296310754218,0.6166949851900245
-4.0365,0.5796033030867573,0.2034260873884947
-4.036,0.2808384070708767,-0.5913217929997471
-4.0355,-0.5621054066852853,-1.34368311976595
-4.035,-1.26633694729234,-1.809935209593318
-4.0345,-1.127624674142591,-1.375473034981848
-4.034,-0.5941159312583333,-0.8032545611024114
-4.0335,-0.1032878878049318,-0.3581957480853793
-4.033,0.2168173579252564,-0.07208651114611886
-4.0325,0.3768699807908356,0.0550731497161795
-4.032,0.4302208550792003,0.08686306493165288
-4.0315,0.4195506802215274,0.06566978812133729
-4.031,0.4302208550793362,0.06566978812147221
-4.0305,0.5796033030867573,0.2352160026039969
-4.03,0.6009436528021032,0.2352160026039969
-4.0295,0.5262524287982665,0.1398462569574129
-4.029,0.4408910299368829,0.05507314971615059
-4.0285,0.3768699807907871,0.02328323450064829
-4.028,0.08877525963273469,0.3517790250611567
-4.0275,-0.5941159312583333,0.701468092431364
-4.027,-1.341028171296118,0.1292496185523226
-4.0265,-1.92788778846813,-0.3793890248952515
-4.026,-1.970568487899394,-0.08268314955102604
-4.0255,-1.255666772434657,0.1186529801471552
-4.025,-0.5621054066859161,0.2034260873884176
-4.0245,-0.03926683865856419,0.2670059178195474
-4.024,0.2594980573562781,0.3199891098453364
-4.0235,0.3982103305060263,0.394165578681441
-4.023,0.4302208550791906,0.4789386859229346
-4.0225,0.4195506802215176,0.5743084315693548
-4.022,0.3982103305061718,0.6484849004054594
-4.0215,0.3661998059330948,0.7226613692417471
-4.021,0.3555296310754218,0.775644561267536
-4.0205,0.3555296310754218,0.8074344764830383
-4.02,0.5049120790835127,0.6590815388101255
-4.0195,1.091771696255524,0.03387987290581572
-4.019,1.081101521397841,-0.6760949002404023
-4.0185,0.1634664836379688,-1.195330182093134
-4.018,-0.391382608962363,-1.227120097309109
-4.0175,-0.3166913849585846,-0.6337083466197325
-4.017,-0.06060718837443413,0.002089957689735189
-4.0165,0.1848068333526354,0.4153588554919879
-4.016,0.3341892813600565,0.5743084315693548
-4.0155,0.3982103305060942,0.5531151547590393
-4.015,0.3982103305061427,0.4259554938968854
-4.0145,0.3875401556484697,0.2881991946298341
-4.014,0.4195506802214886,0.3623756634659387
-4.0135,0.4088805053638059,0.3517790250606845
-4.013,0.3768699807907871,0.1822328105781598
-4.0125,0.3555296310754218,0.002089957690313421
-4.012,0.3341892813599498,-0.1462629799819246
-4.0115,0.2168173579255475,-0.02969995752518888
-4.011,-0.3060212101009019,0.4683420475176805
-4.0105,-1.042263275280335,0.1716361721732622
-4.01,-1.650463242168915,-0.5065486857577234
-4.0095,-1.959898313041711,-0.9198175835592532
-4.009,-1.543761493592467,-0.930414221964411
-4.0085,-0.8395299529845002,-0.5383386009728305
-4.008,-0.2526703358124887,-0.1038764263613609
-4.0075,0.1421261339214099,0.2352160026036885
-4.007,0.3448594562178071,0.447148770707442
-4.0065,0.4195506802215176,0.55311515475902
-4.006,0.4195506802215176,0.5955017083796896
-4.0055,0.398210330506133,0.59550170837968
-4.005,0.3768699807907871,0.5849050699745222
-4.0045,0.3555296310754218,0.55311515475902
-4.004,0.3448594562177877,0.5213252395434309
-4.0035,0.3982103305061524,0.4259554938970107
-4.003,0.825017324813458,-0.1250697031716958
-4.0025,1.1237822208283,-0.9092209451533726
-4.002,0.3982103305061524,-1.598002441489969
-4.0015,-0.3700422592469978,-1.788741932782983
-4.001,-0.3807124341046707,-1.258910012525093
-4.0005,-0.1139580626623815,-0.612515069808935
-4,0.142126133921769,-0.1038764263613609
-3.9995,0.3128489316446912,0.2034260873884947
-3.999,0.3875401556484697,0.3199891098453364
-3.9985,0.3982103305061524,0.3199891098453364
-3.998,0.3875401556484697,0.2670059178194992
-3.9975,0.3875401556484697,0.2881991946298341
-3.997,0.3982103305061524,0.3517790250608387
-3.9965,0.3768699807907871,0.2776025562246667
-3.996,0.3555296310754218,0.1716361721729923
-3.9955,0.3341892813600565,0.08686306493165288
-3.995,0.291508581929326,0.1080563417419877
-3.9945,-0.1032878878049318,0.55311515475902
-3.994,-0.807519428411986,0.4895353243280153
-3.9935,-1.51175096901904,-0.252229364033705
-3.993,-1.981238662757077,-0.6019184314042303
-3.9925,-1.83185621474952,-0.6866915386455698
-3.992,-1.095614149569417,-0.4535654937318862
-3.9915,-0.4340633083930936,-0.1356663415768632
-3.991,0.02475421048725994,0.13984625695749
-3.9905,0.291508581929326,0.3305857482505039
-3.99,0.3982103305061524,0.4471487707073456
-3.9895,0.4302208550792003,0.5213252395435176
-3.989,0.408880505363835,0.55311515475902
-3.9885,0.3875401556484697,0.5743084315693548
-3.988,0.3555296310754218,0.5743084315693548
-3.9875,0.3448594562177392,0.5637117931641874
-3.987,0.3555296310754218,0.5319218779486851
-3.9865,0.6222840025174878,0.1610395337678249
-3.986,1.049090996824793,-0.5807251545938954
-3.9855,0.5475927785137094,-1.269506650929778
-3.985,-0.3593720843893152,-1.703968825541643
-3.9845,-0.5834457564006506,-1.227120097309109
-3.984,-0.3166913849585846,-0.5807251545938954
-3.9835,0.00341386077189465,-0.05089323433552374
-3.983,0.2381577076409128,0.3199891098453364
-3.9825,0.3661998059331045,0.4895353243280153
-3.982,0.408880505363835,0.5213252395435176
-3.9815,0.3982103305061524,0.4683420475176805
-3.981,0.4195506802215176,0.4259554938970107
-3.9805,0.6329541773751706,0.5955017083796896
-3.98,0.6542945270905358,0.5213252395435176
-3.9795,0.5689331282290746,0.3305857482505039
-3.979,0.4729015545099309,0.1292496185523226
-3.9785,0.3875401556484697,0.002089957690313421
-3.978,0.1101156093487211,0.2564092794143318
-3.9775,-0.5834457564006506,0.5107286011383502
-3.977,-1.351698346153801,-0.08268314955102604
-3.9765,-1.927887788468663,-0.8244478379127463
-3.976,-1.991908837614759,-1.248313374119443
-3.9755,-1.287677297007705,-0.9939940523954253
-3.975,-0.5834457564006506,-0.4853554089473885
-3.9745,-0.06060718837420119,-0.02969995752518888
-3.974,0.2488278824985954,0.2776025562246667
-3.9735,0.3875401556484697,0.457745409112513
-3.973,0.4302208550792003,0.5319218779486851
-3.9725,0.408880505363835,0.5637117931641874
-3.972,0.3875401556484697,0.55311515475902
-3.9715,0.3661998059331045,0.5319218779486851
-3.971,0.3448594562177392,0.5001319627331828
-3.9705,0.3448594562177392,0.457745409112513
-3.97,0.4408910299368829,0.2670059178194992
-3.9695,0.291508581929326,-0.4111789401112165
-3.969,-0.4660738329661415,-1.174136905283272
-3.9685,-1.223656247861609,-1.79933857118815
-3.968,-1.298347471865388,-1.735758740757146
-3.9675,-0.754168554123573,-1.0999604364471
-3.967,-0.1993194615240755,-0.4429688553267188
-3.9665,0.1848068333524996,0.07626642652648545
-3.966,0.3982103305061524,0.3941655786815084
-3.9655,0.4729015545099309,0.5001319627331828
-3.965,0.4622313796522482,0.4683420475176805
-3.9645,0.4302208550792003,0.3941655786815084
-3.964,0.4195506802215176,0.5213252395435176
-3.9635,0.3875401556484697,0.5425185163538525
-3.963,0.3661998059331045,0.3729723018711736
-3.9625,0.3448594562177392,0.2034260873884947
-3.962,0.3341892813600565,0.06566978812131802
-3.9615,0.1741366584948169,0.1822328105781598
-3.961,-0.423393133535411,0.6696781772158616
-3.9605,-1.170305373573196,0.3517790250608387
-3.96,-1.810515865034154,-0.4111789401112165
-3.9595,-2.141291285622316,-0.9092209451540858
-3.959,-1.554431668449771,-0.8880276683437509
-3.9585,-0.7968492535543035,-0.5065486857577234
-3.958,-0.1993194615240755,-0.09327978795619347
-3.9575,0.1741366584948169,0.2140227257936621
-3.957,0.3661998059331045,0.4153588554918433
-3.9565,0.4302208550792003,0.5213252395435176
-3.956,0.4302208550792003,0.5637117931641874
-3.9555,0.3982103305061524,0.5743084315693548
-3.955,0.3768699807907871,0.5637117931641874
-3.9545,0.3555296310754218,0.5425185163538525
-3.954,0.3448594562177392,0.5001319627331828
-3.9535,0.3875401556484697,0.4047622170866759
-3.953,0.7609962756673623,-0.1250697031716958
-3.9525,0.9637295979633325,-0.9092209451540858
-3.952,0.2168173579255475,-1.598002441489969
-3.9515,-0.5194247072545548,-1.79933857118815
-3.951,-0.4980843575391895,-1.216523458903942
-3.9505,-0.1993194615240755,-0.4853554089473885
-3.95,0.1101156093487211,0.05507314971615059
-3.9495,0.3128489316446912,0.309392471440169
-3.949,0.408880505363835,0.4153588554918433
-3.9485,0.4302208550792003,0.4259554938970107
-3.948,0.408880505363835,0.3729723018711736
-3.9475,0.4515612047945656,0.4047622170866759
-3.947,0.5369226036560266,0.5001319627331828
-3.9465,0.5155822539406614,0.4047622170866759
-3.946,0.4515612047945656,0.2458126410091644
-3.9455,0.3875401556484697,0.1186529801471552
-3.945,0.3021787567870086,0.07626642652648545
-3.9445,-0.1139580626626144,0.4789386859228479
-3.944,-0.839529952985034,0.4471487707073456
-3.9435,-1.543761493592088,-0.2946159176543747
-3.943,-2.002579012472442,-0.9939940523954253
-3.9425,-1.757164990745741,-1.216523458903942
-3.942,-1.020922925565639,-0.8456411147230812
-3.9415,-0.3807124341046804,-0.3475991096802118
-3.941,0.0674349099179905,0.06566978812131802
-3.9405,0.3128489316446912,0.3305857482505039
-3.94,0.408880505363835,0.4789386859228479
-3.9395,0.4302208550792003,0.5425185163538525
-3.939,0.408880505363835,0.55311515475902
-3.9385,0.3768699807907871,0.5425185163538525
-3.938,0.3661998059331045,0.5213252395435176
-3.9375,0.3448594562177392,0.4789386859228479
-3.937,0.3555296310754218,0.4365521323021782
-3.9365,0.6329541773751706,0.03387987290581572
-3.936,0.4942419042252961,-0.7290780922662394
-3.9355,-0.3380317346739499,-1.439052865412457
-3.935,-1.084943974711735,-1.926498232050159
-3.9345,-0.9889124009925911,-1.566212526274467
-3.934,-0.4767440078238243,-0.8032545611024114
-3.9335,-0.02859666380115328,-0.1886495336027004
-3.933,0.2594980573562781,0.1716361721729923
-3.9325,0.408880505363835,0.309392471440169
-3.932,0.4408910299368829,0.3199891098453364
-3.9315,0.4302208550792003,0.2776025562246667
-3.931,0.4302208550792003,0.2670059178194992
-3.9305,0.5902734779444399,0.457745409112513
-3.93,0.6009436528021226,0.4259554938970107
-3.9295,0.5262524287983441,0.2881991946298341
-3.929,0.4408910299368829,0.1716361721729923
-3.9285,0.3661998059331045,0.09745970333682032
-3.928,0.08877525963335578,0.4047622170866759
-3.9275,-0.5300948821122373,0.6908714540261965
-3.927,-1.26633694729234,0.07626642652648545
-3.9265,-1.821186039891837,-0.6549016234300674
-3.926,-1.981238662757077,-1.089363798041932
-3.9255,-1.341028171296118,-0.9092209451540858
-3.925,-0.6367966306890638,-0.4323722169215513
-3.9245,-0.1032878878049318,0.01268659609548085
-3.924,0.2274875327832301,0.3411823866556712
-3.9235,0.3875401556484697,0.5319218779486851
-3.923,0.4302208550792003,0.6166949851900245
-3.9225,0.4195506802215176,0.6484849004055269
-3.922,0.3982103305061524,0.6378882620003594
-3.9215,0.3661998059331045,0.6060983467848571
-3.921,0.3555296310754218,0.5637117931641874
-3.9205,0.3555296310754218,0.5107286011383502
-3.92,0.5155822539406614,0.2670059178194992
-3.9195,0.8356874996711408,-0.4535654937318862
-3.919,0.5369226036560266,-1.216523458903942
-3.9185,-0.3380317346739499,-1.84172512480882
-3.918,-0.7755089038389382,-1.714565463946811
-3.9175,-0.5300948821122373,-0.9622041371799229
-3.917,-0.1352984123779797,-0.3581957480853793
-3.9165,0.1741366584948169,0.04447651131098315
-3.916,0.3448594562177392,0.2246193641988295
-3.9155,0.408880505363835,0.2670059178194992
-3.915,0.4195506802215176,0.2458126410091644
-3.9145,0.3982103305061524,0.2034260873884947
-3.914,0.2701682322139607,0.3941655786815084
-3.9135,0.1741366584948169,0.4789386859228479
-3.913,0.1848068333524996,0.3517790250608387
-3.9125,0.2381577076409128,0.1928294489833272
-3.912,0.2808384070716433,0.08686306493165288
-3.9115,0.2061471830678648,0.1822328105781598
-3.911,-0.3166913849585846,0.6060983467848571
-3.9105,-1.06360362499637,0.2352160026039969
-3.91,-1.703814116457328,-0.5489352393783931
-3.9095,-2.087940411333903,-1.174136905283272
-3.909,-1.650463242168915,-1.216523458903942
-3.9085,-0.9035510021311299,-0.7290780922662394
-3.908,-0.274010685527854,-0.1780528951975329
-3.9075,0.1314559590640864,0.2352160026039969
-3.907,0.3448594562177392,0.5107286011383502
-3.9065,0.4195506802215176,0.6484849004055269
-3.906,0.4302208550792003,0.701468092431364
-3.9055,0.408880505363835,0.7120647308365314
-3.905,0.3768699807907871,0.6908714540261965
-3.9045,0.3661998059331045,0.6590815388106942
-3.904,0.3555296310754218,0.6060983467848571
-3.9035,0.3982103305061524,0.4789386859228479
-3.903,0.6969752265212663,-0.09327978795619347
-3.9025,0.291508581929326,-0.8986243067489184
-3.902,-0.6047861061160158,-1.598002441489969
-3.9015,-1.159635198715513,-1.894708316834657
-3.901,-0.8928808272734472,-1.258910012524611
-3.9005,-0.3487019095316325,-0.5065486857577234
-3.9,0.07810508477567314,-0.07208651114585861
-3.8995,0.3235191065023739,0.1080563417419877
-3.899,0.4302208550792003,0.13984625695749
-3.8985,0.4408910299368829,0.1080563417419877
-3.898,0.4195506802215176,0.05507314971615059
-3.8975,0.5049120790829789,0.1292496185523226
-3.897,0.6756348768059011,0.309392471440169
-3.8965,0.6542945270905358,0.2776025562246667
-3.896,0.5582629533713921,0.1716361721729923
-3.8955,0.4515612047945656,0.09745970333682032
-3.895,0.3341892813600565,0.1186529801471552
-3.8945,-0.09261771294724913,0.5743084315693548
-3.894,-0.839529952985034,0.5849050699745222
-3.8935,-1.543761493592088,-0.1568596183871981
-3.893,-2.002579012472442,-0.8986243067489184
-3.8925,-1.682473766741963,-1.068170521231597
-3.892,-0.9462317015618604,-0.6654982618352349
-3.8915,-0.3273615598162672,-0.1462629799820306
-3.891,0.09944543449103843,0.2776025562246667
-3.8905,0.3341892813600565,0.55311515475902
-3.89,0.4195506802215176,0.7120647308365314
-3.8895,0.4302208550792003,0.775644561267536
-3.889,0.408880505363835,0.7968378380778709
-3.8885,0.3875401556484697,0.775644561267536
-3.888,0.3661998059331045,0.7438546460520338
-3.8875,0.3555296310754218,0.6908714540261965
-3.887,0.3661998059331045,0.5955017083796896
-3.8865,0.5689331282290746,0.1928294489833272
-3.886,0.2808384070716433,-0.6019184314042303
