Class_10_Using_Wats_App/Class_10_WatsApp_Souku_5.csv

#Digilent WaveForms Oscilloscope Acquisition
#Device Name: EExplorer
#Serial Number: SN:210151A2B84A
#Date Time: 2021-01-27 15:10:25.011
#Sample rate: 2000Hz
#Samples: 16384
#Trigger: Source: Channel 1 Type: Edge Condition: Rising Level: 0 V Hyst.: Auto HoldOff: 0 s
#Channel 1: Range: 1 V/div Offset: 0 V Attenuation: 1 X
#Channel 2: Range: 1 V/div Offset: 0 V Attenuation: 1 X
#Channel 4: Range: 1 V/div Offset: 0 V Attenuation: 1 X
#Power Supplies: ON
#Fixed Supply: ON
#Voltage: 3.3 V Readback: 3.346 V
#Positive Supply: ON
#Voltage: 3.7 V Readback: 3.717 V
#Current: 40 mA Readback: 20 mA
#Negative Supply: ON
#Voltage: -3.7 V Readback: -3.334 V
#Current: -40 mA Readback: -8 mA
#Reference 1: ON
#Voltage: 0 V
#Reference 2: ON
#Voltage: 0 V

Time (s),Channel 1 (V),Channel 2 (V),Channel 4 (V)
-4.096,0.8997085488172365,-0.5065486857577234,-0.03203722724012713
-4.0955,0.9317190733902554,-0.3793890248958298,-0.03203722724012713
-4.095,0.8997085488171006,-0.2310360872233123,-0.03203722724012713
-4.0945,0.7503261008096795,-0.1674562567923655,-0.03203722724012713
-4.094,0.5262524287985479,-0.1144730647665765,-0.03203722724012713
-4.0935,0.3341892813599013,-0.1144730647666055,-0.03203722724012713
-4.093,0.1634664836371343,-0.1992461720078678,-0.03203722724012713
-4.0925,0.1314559590641155,-0.3052125560594457,0.02087815981407037
-4.092,0.1314559590640281,-0.3687923864905564,0.03146123722496762
-4.0915,0.0674349099179905,-0.3793890248957141,0.03146123722496762
-4.091,0.01408403562957729,-0.3687923864905467,0.0208781598141185
-4.0905,-0.03926683865892325,-0.3264058328698096,-0.0002879950075893773
-4.09,-0.1352984123779797,-0.252229364033705,-0.01087107241842888
-4.0895,-0.6474668055467465,0.1928294489833272,-0.03203722724012713
-4.089,-1.405049220441525,0.8498210301031105,-0.03203722724012713
-4.0885,-2.130621110764634,1.326669758336243,-0.04262030465097626
-4.088,-2.493407055925843,1.273686566310405,-0.0637864594726745
-4.0875,-2.472066706210498,0.4895353243287286,-0.074369536883514
-4.087,-1.778505340460388,0.06566978812128911,-0.05320338206181575
-4.0865,-0.9889124009925911,0.03387987290581572,-0.04262030465097626
-4.086,-0.4447334832512713,0.1928294489831827,-0.04262030465097626
-4.0855,-0.1246282375201709,0.3941655786816819,-0.04262030465097626
-4.085,0.01408403562957729,0.5849050699745222,-0.04262030465097626
-4.0845,0.05676473506026904,0.7226613692415735,-0.05320338206181575
-4.084,0.0460945602025961,0.8286277532934213,-0.08495261429441126
-4.0835,0.01408403562957729,0.8816109453192104,-0.1272849239377692
-4.083,-0.02859666380115328,0.8922075837243778,-0.1272849239377692
-4.0825,-0.03926683865882621,0.8922075837243103,-0.1167018465269009
-4.082,-0.02859666380115328,0.8180311148882058,-0.09553569170522189
-4.0815,0.2061471830678648,0.5001319627331828,-0.07436953688352363
-4.081,0.7930068002398762,-0.1886495336020739,-0.06378645947268413
-4.0805,0.942389248247967,-0.8774310299385835,-0.05320338206182537
-4.08,0.857027849386506,-1.34368311976595,-0.03203722724012713
-4.0795,0.9103787236748707,-1.05757388282669,-0.02145414982928762
-4.079,0.9637295979633228,-0.7290780922659695,-0.03203722724012713
-4.0785,0.9530594231056497,-0.4323722169215513,-0.03203722724012713
-4.078,0.8250173248135745,-0.241632725628711,-0.03203722724012713
-4.0775,0.5902734779442167,-0.1568596183871981,-0.03203722724012713
-4.077,0.3448594562177392,-0.1568596183871981,-0.03203722724012713
-4.0765,0.1421261339219534,-0.2416327256284604,-0.03203722724012713
-4.076,0.08877525963346253,-0.3158091944647096,-0.01087107241839038
-4.0755,0.2061471830678648,-0.3158091944647096,0.03146123722496762
-4.075,0.1954770082101822,-0.2946159176543747,0.03146123722496762
-4.0745,0.1207857842063261,-0.3052125560595421,0.02087815981410887
-4.074,0.03542438534494258,-0.3052125560595421,0.01029508240326937
-4.0735,-0.03926683865883591,-0.2840192792492073,-0.01087107241842888
-4.073,-0.3380317346736781,-0.2734226408440495,-0.03203722724010788
-4.0725,-1.031593100423322,-0.570128516188728,-0.04262030465097626
-4.072,-1.767835165603424,-0.9728007755850904,-0.05320338206182537
-4.0715,-2.365364957633108,-0.9728007755850904,-0.05320338206182537
-4.071,-2.482736881067763,-0.8774310299384678,-0.05320338206181575
-4.0705,-2.045259711903173,-0.7502713690765743,-0.04262030465097626
-4.07,-1.202315898147011,-0.3687923864908937,-0.03203722724013675
-4.0695,-0.5834457564003012,0.02328323450093741,-0.04262030465097626
-4.069,-0.1993194615240755,0.3411823866556712,-0.04262030465097626
-4.0685,-0.007256314085787988,0.5425185163538525,-0.04262030465097626
-4.068,0.05676473506030786,0.6696781772159291,-0.04262030465099551
-4.0675,0.05676473506030786,0.7438546460520338,-0.0637864594726745
-4.067,0.02475421048725994,0.775644561267536,-0.1167018465269201
-4.0665,-0.007256314085807397,0.76504792286233,-0.1272849239377596
-4.066,-0.02859666380115328,0.7226613692416989,-0.1167018465269201
-4.0655,-0.01792648894347063,0.627291623595192,-0.106118769116071
-4.065,0.03542438534489405,0.5001319627332985,-0.08495261429439201
-4.0645,0.3235191065023739,0.3199891098453364,-0.0637864594726745
-4.064,0.5902734779444399,-0.1250697031716958,-0.05320338206182537
-4.0635,0.6542945270904776,-0.7608680074811636,-0.04262030465098588
-4.063,0.7930068002405459,-1.333086481360831,-0.03203722724012713
-4.0625,0.942389248247967,-1.38606967338662,-0.03203722724012713
-4.062,0.9850699476786589,-0.9728007755854662,-0.02145414982928762
-4.0615,0.9317190733901098,-0.548935239378181,-0.02145414982928762
-4.061,0.7396559259519968,-0.3158091944647096,-0.03203722724012713
-4.0605,0.4835717293676135,-0.1992461720078678,-0.03203722724012713
-4.06,0.2488278824984692,-0.1462629799820403,-0.0320372272401175
-4.0595,0.1101156093487211,-0.1568596183871981,-0.021454149829278
-4.059,0.1634664836371343,-0.1886495336027004,0.0208781598141185
-4.0585,0.1527963087794613,-0.2098428104130159,0.031461237224958
-4.058,0.09944543449103843,-0.1992461720078678,0.03146123722496762
-4.0575,0.03542438534494258,-0.1780528951975329,0.01029508240326937
-4.057,-0.0179264889434221,-0.1568596183872173,-0.000287995007570126
-4.0565,-0.2526703358124887,0.01268659609548085,-0.021454149829278
-4.056,-0.8822106524157645,0.5319218779486851,-0.03203722724012713
-4.0555,-1.55443166844916,0.9981739677756281,-0.04262030465096663
-4.055,-2.162631635337973,1.104140351827129,-0.06378645947268413
-4.0545,-2.482736881068161,0.4471487707073456,-0.07436953688352363
-4.054,-2.098610586191935,-0.1144730647660176,-0.05320338206184462
-4.0535,-1.255666772434094,-0.167456256792221,-0.04262030465097626
-4.053,-0.6367966306890638,-0.008506680714854012,-0.04262030465097626
-4.0525,-0.2313299860971235,0.2140227257936621,-0.04262030465097626
-4.052,-0.01792648894340269,0.4047622170867915,-0.04262030465097626
-4.0515,0.05676473506030786,0.5319218779486851,-0.04262030465097626
-4.051,0.05676473506030786,0.6166949851900245,-0.05320338206182537
-4.0505,0.03542438534496199,0.6590815388106557,-0.1061187691160229
-4.05,-0.007256314085787988,0.6696781772158616,-0.1272849239377692
-4.0495,-0.02859666380115328,0.6378882620003594,-0.1272849239377692
-4.049,-0.02859666380115328,0.5743084315694127,-0.1061187691160903
-4.0485,0.01408403562988784,0.4471487707069987,-0.08495261429436313
-4.048,0.3555296310754218,0.06566978812131802,-0.07436953688352363
-4.0475,0.8570278493860499,-0.6337083466190965,-0.05320338206184462
-4.047,1.070431346540314,-1.301296566145473,-0.04262030465095701
-4.0465,1.241154144263081,-1.51322933424863,-0.021454149829278
-4.046,1.326515543124464,-0.9833974139907397,-0.021454149829278
-4.0455,1.262494493978281,-0.5171453241626306,-0.02145414982928762
-4.045,1.081101521397841,-0.2310360872233701,-0.03203722724012713
-4.0445,0.8143471499557753,-0.1992461720078678,-0.03203722724012713
-4.044,0.5155822539404382,-0.1674562567923655,-0.03203722724012713
-4.0435,0.2701682322139607,-0.1674562567923655,-0.03203722724012713
-4.043,0.09944543449103843,-0.1780528951975329,-0.03203722724012713
-4.0425,0.08877525963336548,-0.1780528951975329,0.01029508240323087
-4.042,0.09944543449103843,-0.1462629799820306,0.03146123722496762
-4.0415,0.0674349099179905,-0.1144730647665284,0.03146123722496762
-4.041,0.02475421048729876,-0.07208651114589716,0.02087815981412813
-4.0405,-0.01792648894354826,-0.04029659593027921,-0.0002879950075990025
-4.04,-0.1032878878049318,0.04447651131098315,-0.021454149829278
-4.0395,-0.5941159312578869,0.4789386859224528,-0.0320372272401175
-4.039,-1.309017646723575,1.0723504366126,-0.04262030465098588
-4.0385,-1.863866739322568,1.485619334413754,-0.05320338206182537
-4.038,-2.354694782775523,1.051157159802285,-0.07436953688350438
-4.0375,-2.386705307348347,0.1080563417416504,-0.07436953688349475
-4.037,-1.650463242168915,-0.2628260024388724,-0.04262030465097626
-4.0365,-0.9248913518464952,-0.1992461720078678,-0.04262030465097626
-4.036,-0.4127229586774566,0.03387987290604702,-0.04262030465097626
-4.0355,-0.1139580626626144,0.2881991946298341,-0.04262030465097626
-4.035,0.02475421048725994,0.4895353243280153,-0.04262030465097626
-4.0345,0.05676473506027875,0.6378882620002245,-0.05320338206181575
-4.034,0.04609456020262521,0.7332580076468663,-0.08495261429437276
-4.0335,0.01408403562957729,0.775644561267536,-0.1272849239377692
-4.033,-0.00725631408576858,0.775644561267536,-0.1272849239377692
-4.0325,-0.01792648894347063,0.7544512844571626,-0.1167018465269009
-4.032,-0.01792648894347063,0.7120647308365314,-0.09553569170522189
-4.0315,0.3128489316443904,0.3623756634663242,-0.07436953688354288
-4.031,0.9957401225366617,-0.3581957480858804,-0.06378645947266487
-4.0305,1.305175193409177,-0.9092209451540858,-0.05320338206182537
-4.03,1.123782220828737,-1.184733543688189,-0.03203722724014638
-4.0295,1.070431346540139,-1.237716735713949,-0.0320372272401175
-4.029,1.049090996824793,-0.8774310299385835,-0.021454149829278
-4.0285,0.974399772821015,-0.474758770542221,-0.03203722724012713
-4.028,0.8356874996709273,-0.1568596183871017,-0.03203722724012713
-4.0275,0.6009436528021226,-0.05089323433552374,-0.03203722724012713
-4.027,0.3555296310754218,-0.09327978795619347,-0.03203722724012713
-4.0265,0.152796308779636,-0.1886495336026136,-0.03203722724012713
-4.026,0.05676473506030786,-0.2734226408440398,-0.01087107241842888
-4.0255,0.04609456020262521,-0.2946159176543747,0.03146123722496762
-4.025,0.02475421048727934,-0.3052125560595325,0.03146123722496762
-4.0245,-0.007256314085807397,-0.3158091944646903,0.02087815981410887
-4.024,-0.02859666380115328,-0.2946159176543747,0.01029508240326937
-4.0235,-0.08194753808951796,-0.2310360872234279,-0.01087107241840963
-4.023,-0.4980843575397912,0.09745970333739858,-0.03203722724012713
-4.0225,-1.159635198715513,0.7332580076468663,-0.03203722724012713
-4.022,-1.810515865033562,1.305476481525387,-0.04262030465096663
-4.0215,-2.05592988676037,1.464426057603111,-0.06378645947266487
-4.021,-1.522421143876723,1.125333628638062,-0.05320338206182537
-4.0205,-0.9142211769888124,0.7120647308365314,-0.05320338206182537
-4.02,-0.4340633083928219,0.4471487707072396,-0.05320338206182537
-4.0195,-0.1352984123779797,0.3305857482505039,-0.05320338206182537
-4.019,0.00341386077189465,0.3517790250608387,-0.04262030465097626
-4.0185,0.0460945602025864,0.436552132302101,-0.05320338206181575
-4.018,0.04609456020262521,0.5637117931641874,-0.04262030465097626
-4.0175,0.02475421048725994,0.6802748156210291,-0.0637864594726745
-4.017,-0.007256314085758876,0.7756445612674493,-0.116701846526872
-4.0165,-0.03926683865884562,0.8180311148882251,-0.1272849239377596
-4.016,-0.04993701351651855,0.8392243916985406,-0.1167018465269201
-4.0155,-0.02859666380117269,0.8180311148882251,-0.1061187691160806
-4.015,0.06743490991845631,0.7014680924309399,-0.08495261429435351
-4.0145,0.5796033030867573,0.2352160026039969,-0.0637864594726745
-4.014,1.070431346539712,-0.4641621321364176,-0.0637864594726745
-4.0135,1.102441871113207,-1.046977244421243,-0.04262030465095701
-4.013,1.102441871113207,-1.025783967610927,-0.021454149829278
-4.0125,1.102441871113207,-0.5065486857577234,-0.021454149829278
-4.012,1.038420821967004,-0.1462629799819343,-0.03203722724012713
-4.0115,0.9210488985326017,-0.04029659593035631,-0.03203722724012713
-4.011,0.7183155762366316,-0.05089323433552374,-0.03203722724012713
-4.0105,0.483571729367827,-0.02969995752520815,-0.03203722724012713
-4.01,0.2701682322139607,-0.05089323433552374,-0.03203722724012713
-4.0095,0.1101156093487211,-0.1780528951975329,-0.021454149829278
-4.009,0.08877525963337518,-0.2946159176542686,0.02087815981408
-4.0085,0.06743490991795169,-0.3793890248957527,0.03146123722496762
-4.008,0.02475421048725994,-0.4217755785163839,0.03146123722496762
-4.0075,-0.01792648894343181,-0.4217755785163839,0.01029508240328863
-4.007,-0.03926683865903,-0.4005823017058756,-0.0002879950075990025
-4.0065,-0.2526703358124887,-0.2098428104130352,-0.021454149829278
-4.006,-0.8715404775580819,0.4153588554918433,-0.021454149829278
-4.0055,-1.522421143877053,1.082947075017739,-0.03203722724014638
-4.005,-1.885207089037933,1.464426057603419,-0.05320338206182537
-4.0045,-2.130621110764634,1.00877060618122,-0.07436953688352363
-4.004,-1.650463242168333,0.4259554938967794,-0.05320338206181575
-4.0035,-1.010252750707956,0.1716361721729923,-0.04262030465097626
-4.003,-0.4980843575391895,0.13984625695749,-0.04262030465097626
-4.0025,-0.1779791118090014,0.245812641009068,-0.04262030465097626
-4.002,-0.007256314085787988,0.4047622170866759,-0.04262030465097626
-4.0015,0.04609456020262521,0.5743084315693548,-0.04262030465097626
-4.001,0.04609456020262521,0.722661369241564,-0.05320338206181575
-4.0005,0.02475421048723082,0.8392243916986081,-0.1061187691160903
-4,-0.007256314085787988,0.9134008605347127,-0.1272849239377692
-3.9995,-0.02859666380115328,0.9345941373450475,-0.1272849239377692
-3.999,-0.01792648894347063,0.9134008605347127,-0.106118769116071
-3.9985,0.1207857842064037,0.701468092431364,-0.09553569170522189
-3.998,0.3555296310754218,0.5319218779486851,-0.0637864594726745
-3.9975,0.707645401378949,0.2140227257936621,-0.05320338206182537
-3.997,0.825017324813458,-0.3793890248957141,-0.05320338206182537
-3.9965,0.9317190733902845,-0.7396747306714069,-0.021454149829278
-3.996,1.081101521397841,-0.718481453861072,-0.03203722724012713
-3.9955,1.134452395686255,-0.6231117082145651,-0.03203722724012713
-3.995,1.059761171682476,-0.3793890248957141,-0.03203722724012713
-3.9945,0.8676980242441885,-0.2204394488182027,-0.03203722724012713
-3.994,0.5902734779444399,-0.1780528951975329,-0.03203722724012713
-3.9935,0.3341892813600565,-0.1992461720078678,-0.03203722724012713
-3.993,0.142126133921769,-0.2628260024388724,-0.03203722724012713
-3.9925,0.142126133921769,-0.3581957480853793,0.01029508240326937
-3.992,0.2168173579255475,-0.4111789401112165,0.03146123722496762
-3.9915,0.1634664836371343,-0.4323722169215513,0.03146123722496762
-3.991,0.08877525963335578,-0.4429688553267188,0.0208781598141185
-3.9905,0.01408403562957729,-0.4429688553267188,-0.000287995007579752
-3.99,-0.07127736323188383,-0.400582301706049,-0.01087107241842888
-3.9895,-0.5300948821122373,-0.1674562567923655,-0.03203722724012713
-3.989,-1.277007122150022,0.1716361721729923,-0.04262030465097626
-3.9885,-1.927887788468663,0.4365521323021782,-0.05320338206182537
-3.988,-2.386705307349017,0.2987958330350016,-0.0637864594726745
-3.9875,-2.141291285622316,-0.1886495336027004,-0.05320338206182537
-3.987,-1.373038695869166,-0.2840192792492073,-0.04262030465097626
-3.9865,-0.7328282044082075,-0.1462629799820306,-0.04262030465097626
-3.986,-0.2953510352432193,0.07626642652648545,-0.04262030465097626
-3.9855,-0.06060718837420119,0.2987958330350016,-0.04262030465097626
-3.985,0.03542438534494258,0.4683420475176805,-0.05320338206182537
-3.9845,0.05676473506030786,0.6060983467848571,-0.04262030465097626
-3.984,0.03542438534494258,0.701468092431364,-0.08495261429437276
-3.9835,0.01408403562957729,0.7544512844572011,-0.1272849239377692
-3.983,-0.01792648894347063,0.7650479228623686,-0.1272849239377692
-3.9825,-0.02859666380115328,0.7544512844572011,-0.1167018465269201
-3.982,-0.01792648894347063,0.7226613692416989,-0.09553569170522189
-3.9815,0.1741366584948169,0.5107286011383502,-0.07436953688352363
-3.981,0.6542945270905358,-0.1144730647665284,-0.0637864594726745
-3.9805,0.7716664505250448,-0.8244478379127463,-0.05320338206182537
-3.98,0.825017324813458,-1.248313374119443,-0.03203722724012713
-3.9795,0.9103787236749192,-0.9728007755850904,-0.021454149829278
-3.979,0.9530594231056497,-0.6231117082145651,-0.021454149829278
-3.9785,0.942389248247967,-0.3899856633008816,-0.03203722724012713
-3.978,0.8143471499557753,-0.2734226408440398,-0.03203722724012713
-3.9775,0.6009436528021226,-0.1886495336027004,-0.03203722724012713
-3.977,0.3768699807907871,-0.252229364033705,-0.03203722724012713
-3.9765,0.1954770082101822,-0.326405832869877,-0.03203722724012713
-3.976,0.09944543449103843,-0.3687923864905467,-0.01087107241842888
-3.9755,0.1314559590640864,-0.3793890248957141,0.03146123722496762
-3.975,0.1101156093487211,-0.3899856633008816,0.03146123722496762
-3.9745,0.05676473506030786,-0.3687923864905467,0.0208781598141185
-3.974,0.00341386077189465,-0.3370024712750445,0.01029508240326937
-3.9735,-0.06060718837420119,-0.2840192792492073,-0.01087107241842888
-3.973,-0.4554036581084589,0.08686306493165288,-0.021454149829278
-3.9725,-1.084943974711735,0.7332580076468663,-0.03203722724012713
-3.972,-1.415719395299897,1.051157159801889,-0.04262030465097626
-3.9715,-1.83185621474952,0.8074344764830383,-0.0637864594726745
-3.971,-1.981238662757077,0.08686306493165288,-0.0637864594726745
-3.9705,-1.447729919872945,-0.2098428104130352,-0.0637864594726745
-3.97,-0.8608703027003992,-0.1462629799820306,-0.04262030465097626
-3.9695,-0.4020527838200457,0.06566978812131802,-0.05320338206182537
-3.969,-0.124628237520297,0.2881991946298341,-0.04262030465097626
-3.9685,0.00341386077189465,0.4895353243280153,-0.04262030465097626
-3.968,0.04609456020262521,0.6484849004055269,-0.04262030465097626
-3.9675,0.04609456020262521,0.7544512844572011,-0.0637864594726745
-3.967,0.02475421048725994,0.8286277532933731,-0.1167018465269201
-3.9665,-0.007256314085787988,0.8604176685088755,-0.1272849239377692
-3.966,-0.007256314085787988,0.849821030103708,-0.1167018465269201
-3.9655,0.00341386077189465,0.7862411996727035,-0.106118769116071
-3.965,0.1101156093487211,0.627291623595192,-0.08495261429437276
-3.9645,0.6542945270905358,0.06566978812131802,-0.0637864594726745
-3.964,1.049090996824793,-0.6760949002404023,-0.05320338206182537
-3.9635,1.006410297394063,-1.258910012524611,-0.04262030465097626
-3.963,0.974399772821015,-1.460246142222792,-0.03203722724012713
-3.9625,0.9957401225363802,-1.333086481360783,-0.03203722724012713
-3.962,0.9850699476786977,-0.9833974139902578,-0.021454149829278
-3.9615,0.8997085488172365,-0.5489352393783931,-0.03203722724012713
-3.961,0.707645401378949,-0.326405832869877,-0.03203722724012713
-3.9605,0.4729015545099309,-0.2416327256285375,-0.03203722724012713
-3.96,0.2488278824985954,-0.2098428104130352,-0.03203722724012713
-3.9595,0.09944543449103843,-0.2734226408440398,-0.021454149829278
-3.959,0.142126133921769,-0.4429688553267188,0.0208781598141185
-3.9585,0.142126133921769,-0.4535654937318862,0.03146123722496762
-3.958,0.08877525963335578,-0.4111789401112165,0.03146123722496762
-3.9575,0.02475421048725994,-0.3687923864905467,0.01029508240326937
-3.957,-0.02859666380115328,-0.3475991096802118,-0.000287995007579752
-3.9565,-0.2633405106701714,-0.1462629799820306,-0.021454149829278
-3.956,-0.807519428411986,0.457745409112513,-0.03203722724012713
-3.9555,-1.341028171296118,0.9345941373450475,-0.03203722724012713
-3.955,-1.927887788468663,0.9875773293708847,-0.0637864594726745
-3.9545,-2.333354433060604,0.3623756634660061,-0.07436953688352363
-3.954,-1.799845690176472,-0.08268314955102604,-0.05320338206182537
-3.9535,-1.095614149569417,-0.1144730647665284,-0.04262030465097626
-3.953,-0.5407650569699201,0.05507314971615059,-0.04262030465097626
