Class_10_Using_Wats_App/Class_10_WatsApp_SH_11.csv

#Digilent WaveForms Oscilloscope Acquisition
#Device Name: EExplorer
#Serial Number: SN:210151A2B84A
#Date Time: 2021-01-27 12:07:30.783
#Sample rate: 2000Hz
#Samples: 16384
#Trigger: Source: Channel 1 Type: Edge Condition: Rising Level: 0 V Hyst.: Auto HoldOff: 0 s
#Channel 1: Range: 1 V/div Offset: 0 V Attenuation: 1 X
#Channel 2: Range: 1 V/div Offset: 0 V Attenuation: 1 X
#Channel 4: Range: 1 V/div Offset: 0 V Attenuation: 1 X
#Power Supplies: ON
#Fixed Supply: ON
#Voltage: 3.3 V Readback: 3.317 V
#Positive Supply: ON
#Voltage: 3.7 V Readback: 3.717 V
#Current: 40 mA Readback: 16 mA
#Negative Supply: ON
#Voltage: -3.7 V Readback: -3.406 V
#Current: -40 mA Readback: 0 A
#Reference 1: ON
#Voltage: 0 V
#Reference 2: ON
#Voltage: 0 V

Time (s),Channel 1 (V),Channel 2 (V),Channel 4 (V)
-4.096,0.4729015545099309,0.13984625695749,-0.01087107241842888
-4.0955,0.6863050516633897,0.05507314971622769,0.03146123722492912
-4.095,0.6863050516635062,0.1398462569576635,0.031461237224958
-4.0945,0.6009436528021226,0.3305857482505039,0.0208781598141185
-4.094,0.4942419042253932,0.5213252395433441,0.010295082403279
-4.0935,0.4302208550793653,0.6590815388104918,-0.01087107241845775
-4.093,0.6116138276598051,0.4365521323021782,-0.04262030465097626
-4.0925,0.7716664505248992,-0.2098428104124473,-0.06378645947265525
-4.092,0.1848068333518008,-0.8350444763182222,-0.04262030465099551
-4.0915,-0.5834457564006506,-1.174136905283272,-0.0637864594726745
-4.091,-1.223656247861609,-1.322489842955616,-0.08495261429437276
-4.0905,-1.244996597576576,-1.0575738828259,-0.05320338206180612
-4.09,-0.807519428411986,-0.474758770542221,-0.03203722724012713
-4.0895,-0.3273615598162672,0.03387987290581572,-0.04262030465097626
-4.089,0.03542438534461262,0.3093924714399184,-0.04262030465097626
-4.0885,0.2488278824985954,0.4047622170866759,-0.05320338206182537
-4.088,0.3341892813600565,0.3517790250608387,-0.04262030465097626
-4.0875,0.3661998059330753,0.2246193641989452,-0.05320338206181575
-4.087,0.3555296310753927,0.07626642652636016,-0.1061187691160806
-4.0865,0.3235191065023739,-0.06148987274069118,-0.1167018465269201
-4.086,0.2808384070716821,-0.1674562567922691,-0.1167018465269201
-4.0855,0.2594980573562198,-0.2416327256285183,-0.09553569170517376
-4.085,0.1954770082101822,-0.2204394488182027,-0.04262030465097626
-4.0845,-0.2420001609544082,0.1928294489829513,-0.05320338206181575
-4.084,-0.903551002131586,0.7862411996725589,-0.05320338206180612
-4.0835,-1.405049220442214,0.627291623595192,-0.03203722724012713
-4.083,-1.501080794161358,0.2246193641988295,-0.021454149829278
-4.0825,-1.052933450138153,0.04447651131087714,-0.02145414982928762
-4.082,-0.4660738329661415,-0.07208651114585861,-0.03203722724012713
-4.0815,0.00341386077189465,-0.1780528951975329,-0.021454149829278
-4.081,0.3128489316444098,-0.2098428104130063,-0.0320372272401175
-4.0805,0.4408910299368829,-0.1886495336027004,-0.021454149829278
-4.08,0.4729015545099309,-0.09327978795619347,-0.021454149829278
-4.0795,0.451561204794585,0.04447651131085788,-0.021454149829278
-4.079,0.5475927785137288,0.05507314971622768,0.03146123722496762
-4.0785,0.5689331282290746,0.13984625695749,0.03146123722496762
-4.078,0.504912079083037,0.2881991946296992,0.03146123722496762
-4.0775,0.4408910299368344,0.4683420475178154,0.02087815981410887
-4.077,0.3875401556484697,0.6166949851900245,0.01029508240326937
-4.0765,0.3875401556484697,0.6590815388106557,-0.03203722724008862
-4.076,0.6756348768057264,0.1928294489827297,-0.05320338206182537
-4.0755,0.4835717293676135,-0.4641621321370536,-0.05320338206182537
-4.075,-0.3487019095316325,-1.004590690800593,-0.0637864594726745
-4.0745,-1.148965023857976,-1.333086481360638,-0.08495261429434388
-4.074,-1.30901764672307,-1.174136905283272,-0.05320338206182537
-4.0735,-0.9035510021311299,-0.570128516188728,-0.03203722724012713
-4.073,-0.4127229586781748,0.002089957689792921,-0.03203722724012713
-4.0725,-0.01792648894347063,0.3623756634660061,-0.04262030465097626
-4.072,0.2168173579255475,0.5107286011383502,-0.05320338206182537
-4.0715,0.3341892813599498,0.4895353243280346,-0.05320338206182537
-4.071,0.3661998059330948,0.372972301871029,-0.05320338206186388
-4.0705,0.3555296310754218,0.2140227257936621,-0.09553569170522189
-4.07,0.323519106502403,0.05507314971629515,-0.1167018465269009
-4.0695,0.2915085819292969,-0.07208651114594535,-0.1167018465269105
-4.069,0.2594980573562781,-0.1674562567923655,-0.106118769116071
-4.0685,0.2168173579255475,-0.1992461720078678,-0.07436953688352363
-4.068,-0.1032878878055625,0.09745970333739858,-0.04262030465098588
-4.0675,-0.7968492535543035,0.7332580076468663,-0.05320338206182537
-4.067,-1.415719395299897,1.273686566310405,-0.03203722724012713
-4.0665,-1.661133417026219,1.188913459068565,-0.01087107241844813
-4.066,-1.244996597576974,0.6378882620003594,-0.03203722724012713
-4.0655,-0.6688071552621118,0.13984625695749,-0.03203722724012713
-4.065,-0.1459685872361378,-0.2416327256281906,-0.03203722724012713
-4.0645,0.2061471830678648,-0.4853554089473885,-0.03203722724012713
-4.064,0.3448594562177392,-0.5065486857577234,-0.03203722724012713
-4.0635,0.4088805053637768,-0.368792386490672,-0.02145414982928762
-4.063,0.4302208550793168,-0.1992461720078486,-0.03203722724008862
-4.0625,0.5582629533713921,-0.1780528951975329,0.01029508240326937
-4.062,0.6863050516634673,-0.1674562567923751,0.03146123722494837
-4.0615,0.6542945270904873,0.04447651131119518,0.031461237224958
-4.061,0.6009436528021226,0.2776025562246667,0.0208781598141185
-4.0605,0.5369226036560266,0.5319218779486851,0.01029508240326937
-4.06,0.4622313796525102,0.7756445612678636,-0.02145414982929725
-4.0595,0.7503261008096795,1.135930267043229,-0.04262030465097626
-4.059,0.974399772821015,1.231300012689736,-0.05320338206182537
-4.0585,0.3661998059336575,0.5531151547596368,-0.04262030465098588
-4.058,-0.4660738329661415,-0.2310360872233701,-0.08495261429437276
-4.0575,-1.148965023857831,-0.792657922697244,-0.09553569170522189
-4.057,-1.106284324427139,-0.6972881770508239,-0.04262030465102438
-4.0565,-0.6794773301197943,-0.2628260024388724,-0.03203722724012713
-4.056,-0.2420001609548061,0.13984625695749,-0.04262030465097626
-4.0555,0.07810508477538197,0.3835689402761194,-0.04262030465097626
-4.055,0.2594980573563557,0.4577454091124745,-0.04262030465098588
-4.0545,0.3448594562177392,0.4153588554918433,-0.05320338206182537
-4.054,0.3555296310754121,0.3093924714402653,-0.07436953688350438
-4.0535,0.3448594562177101,0.1716361721728671,-0.1167018465269201
-4.053,0.3128489316446912,0.03387987290581572,-0.1167018465269201
-4.0525,0.2808384070716433,-0.07208651114585861,-0.106118769116071
-4.052,0.2594980573561422,-0.1462629799819439,-0.09553569170516414
-4.0515,0.1101156093487211,-0.05089323433552374,-0.03203722724012713
-4.051,-0.4874141826815069,0.4789386859228479,-0.0637864594726745
-4.0505,-1.052933450138173,0.7862411996724239,-0.04262030465099551
-4.05,-1.490410619303675,0.3517790250608387,-0.021454149829278
-4.0495,-1.405049220442214,-0.1038764263613609,-0.03203722724012713
-4.049,-0.9462317015622776,-0.358195748085148,-0.03203722724012713
-4.0485,-0.4233931335350034,-0.3899856633008623,-0.021454149829278
-4.048,0.02475421048725994,-0.3687923864905467,-0.021454149829278
-4.0475,0.3021787567867563,-0.3158091944647577,-0.021454149829278
-4.047,0.4088805053638641,-0.2416327256284894,-0.0320372272401175
-4.0465,0.4408910299368829,-0.1886495336027004,-0.021454149829278
-4.046,0.5049120790829207,-0.1674562567923848,-0.0108710724184385
-4.0455,0.6649647019481892,-0.1886495336025558,0.03146123722496762
-4.045,0.6329541773751706,-0.02969995752518888,0.03146123722496762
-4.0445,0.5369226036560266,0.2246193641988295,0.0208781598141185
-4.044,0.4622313796522191,0.4471487707075094,0.01029508240325975
-4.0435,0.4302208550792003,0.627291623595192,-0.000287995007579752
-4.043,0.6329541773751706,0.8392243916985406,-0.03203722724012713
-4.0425,1.198473444831836,0.9345941373449608,-0.05320338206180612
-4.042,1.049090996824793,0.4683420475176805,-0.04262030465097626
-4.0415,0.3555296310754218,-0.1886495336027004,-0.08495261429437276
-4.041,-0.1246282375198604,-0.4429688553264874,-0.06378645947269375
-4.0405,-0.1886492866662861,-0.146262979981674,-0.04262030465097626
-4.04,-0.07127736323188383,0.2458126410091644,-0.04262030465097626
-4.0395,0.07810508477553726,0.521325239543267,-0.04262030465097626
-4.039,0.2061471830679231,0.6484849004055172,-0.04262030465098588
-4.0385,0.2701682322139607,0.6378882620003594,-0.05320338206182537
-4.038,0.3021787567869795,0.5319218779487814,-0.05320338206182537
-4.0375,0.3128489316446912,0.3835689402761868,-0.063786459472713
-4.037,0.3128489316446912,0.2140227257936621,-0.106118769116071
-4.0365,0.3021787567870086,0.06566978812131802,-0.1167018465269201
-4.036,0.259498057356249,-0.05089323433561048,-0.1167018465269009
-4.0355,0.2274875327832301,-0.1462629799820306,-0.09553569170522189
-4.035,0.1634664836371343,-0.1568596183871981,-0.04262030465097626
-4.0345,-0.3166913849581479,0.2881991946294293,-0.05320338206181575
-4.034,-0.9889124009925911,0.9345941373450475,-0.04262030465097626
-4.0335,-1.522421143876723,1.029963882991555,-0.021454149829278
-4.033,-1.735824641030182,0.6484849004058738,-0.021454149829278
-4.0325,-1.341028171295584,0.2034260873881959,-0.03203722724012713
-4.032,-0.754168554123573,-0.1250697031716958,-0.03203722724012713
-4.0315,-0.2313299860975989,-0.2840192792490627,-0.03203722724012713
-4.031,0.1421261339219534,-0.2946159176543361,-0.03203722724012713
-4.0305,0.3448594562177392,-0.252229364033705,-0.03203722724012713
-4.03,0.4408910299367956,-0.2098428104130738,-0.03203722724012713
-4.0295,0.4835717293677785,-0.1674562567924233,-0.02145414982922987
-4.029,0.6649647019482183,-0.2310360872233701,0.03146123722496762
-4.0285,0.6863050516635838,-0.1038764263613609,0.03146123722496762
-4.028,0.6009436528020352,0.1292496185525443,0.031461237224958
-4.0275,0.5049120790829789,0.3729723018711736,0.0208781598141185
-4.027,0.4195506802215176,0.5849050699745222,-0.000287995007579752
-4.0265,0.4729015545098824,0.6696781772157845,-0.03203722724009825
-4.026,0.9103787236749192,0.4789386859228479,-0.05320338206182537
-4.0255,0.6756348768059011,-0.02969995752518888,-0.05320338206182537
-4.025,-0.145968587234915,-0.5807251545933942,-0.07436953688350438
-4.0245,-0.6367966306889958,-0.7078848154555191,-0.06378645947265525
-4.024,-0.5621054066852853,-0.2840192792492073,-0.04262030465097626
-4.0235,-0.2846808603857889,0.2352160026035247,-0.04262030465097626
-4.023,-0.01792648894329595,0.5849050699746764,-0.04262030465098588
-4.0225,0.1741366584948169,0.7544512844572011,-0.05320338206182537
-4.022,0.2808384070715463,0.7544512844572011,-0.05320338206182537
-4.0215,0.3235191065023836,0.6378882620002149,-0.05320338206182537
-4.021,0.3341892813600565,0.4789386859228479,-0.05320338206182537
-4.0205,0.3235191065023739,0.2987958330350016,-0.09553569170522189
-4.02,0.2915085819292969,0.1186529801470203,-0.1167018465269201
-4.0195,0.2594980573562781,-0.02969995752518888,-0.1167018465269201
-4.019,0.2488278824985954,-0.1674562567923655,-0.09553569170522189
-4.0185,0.2274875327832495,-0.2628260024387856,-0.06378645947270337
-4.018,-0.1673089369510276,0.09745970333682032,-0.04262030465097626
-4.0175,-0.8181896032696687,0.7226613692416989,-0.05320338206182537
-4.017,-1.22365624786124,0.6802748156210676,-0.03203722724014638
-4.0165,-1.437059745014971,0.07626642652616741,-0.02145414982928762
-4.016,-1.116954499284783,-0.2734226408440398,-0.03203722724012713
-4.0155,-0.5941159312588088,-0.421775578516249,-0.03203722724012713
-4.015,-0.1459685872353809,-0.48535540894735,-0.0320372272401175
-4.0145,0.1634664836371343,-0.4429688553267188,-0.021454149829278
-4.014,0.3341892813599013,-0.379389024895772,-0.0320372272401175
-4.0135,0.4088805053638447,-0.2946159176542686,-0.02145414982928762
-4.013,0.4195506802215176,-0.1780528951975329,-0.03203722724012713
-4.0125,0.5689331282290746,-0.1674562567923655,0.0208781598141185
-4.012,0.7076454013789296,-0.1356663415767186,0.03146123722496762
-4.0115,0.6863050516635838,0.02328323450064829,0.03146123722496762
-4.011,0.5796033030867573,0.2140227257936621,0.0208781598141185
-4.0105,0.4835717293677009,0.4047622170865024,0.010295082403279
-4.01,0.4622313796522482,0.4895353243280153,-0.021454149829278
-4.0095,0.8997085488172365,0.07626642652648545,-0.05320338206182537
-4.009,0.9637295979632743,-0.5595318777829823,-0.05320338206182537
-4.0085,0.2381577076400588,-1.068170521231896,-0.05320338206185424
-4.008,-0.7008176798351597,-1.396666311791788,-0.08495261429437276
-4.0075,-1.106284324426731,-1.311893204550525,-0.05320338206185424
-4.007,-0.8715404775576938,-0.7078848154553359,-0.03203722724012713
-4.0065,-0.4447334832507763,-0.08268314955102604,-0.03203722724012713
-4.006,-0.07127736323188383,0.3305857482505039,-0.04262030465097626
-4.0055,0.1741366584949237,0.5213252395435273,-0.04262030465098588
-4.005,0.291508581929326,0.5319218779486851,-0.05320338206182537
-4.0045,0.3448594562177392,0.4365521323021782,-0.05320338206182537
-4.004,0.3448594562177197,0.2987958330348666,-0.08495261429439201
-4.0035,0.3235191065023739,0.1504428953626575,-0.106118769116071
-4.003,0.291508581929326,0.02328323450064829,-0.1167018465269201
-4.0025,0.2381577076409613,-0.07208651114577187,-0.1061187691160806
-4.002,0.2061471830678648,-0.1356663415768632,-0.08495261429437276
-4.0015,0.02475421048725994,-0.01910331912002144,-0.03203722724012713
-4.001,-0.5727755815424246,0.5425185163533417,-0.06378645947264563
-4.0005,-1.106284324427401,0.7862411996722312,-0.05320338206178687
-4,-1.437059745015262,0.2670059178194992,-0.01087107241842888
-3.9995,-1.383708870726849,0.03387987290581572,-0.021454149829278
-3.999,-0.8715404775580819,-0.07208651114585861,-0.03203722724012713
-3.9985,-0.3060212101009019,-0.1780528951975329,-0.03203722724012713
-3.998,0.1314559590640864,-0.2310360872233701,-0.03203722724012713
-3.9975,0.3875401556484697,-0.1780528951975329,-0.03203722724012713
-3.997,0.4729015545099309,-0.1250697031716958,-0.03203722724012713
-3.9965,0.4729015545099309,-0.07208651114585861,-0.03203722724012713
-3.996,0.5155822539406614,-0.1250697031716958,-0.01087107241842888
-3.9955,0.6649647019482183,-0.252229364033705,0.03146123722496762
-3.995,0.6329541773751706,-0.1462629799820306,0.0208781598141185
-3.9945,0.5902734779444399,-0.02969995752518888,0.0208781598141185
-3.994,0.5262524287983441,0.1504428953626575,0.01029508240326937
-3.9935,0.4515612047945656,0.3411823866556712,-0.01087107241842888
-3.993,0.6116138276598051,0.309392471440169,-0.04262030465097626
-3.9925,0.8783681991018712,0.09745970333682032,-0.05320338206182537
-3.992,0.3128489316446912,-0.4217755785163839,-0.05320338206182537
-3.9915,-0.5087545323968721,-0.8880276683437509,-0.08495261429437276
-3.991,-0.9995825758502737,-1.078767159636765,-0.07436953688352363
-3.9905,-0.8502001278427167,-0.6760949002404023,-0.04262030465097626
-3.99,-0.4554036581084589,-0.1144730647665284,-0.04262030465097626
-3.9895,-0.1032878878049318,0.309392471440169,-0.04262030465097626
-3.989,0.1527963087794516,0.5319218779486851,-0.05320338206182537
-3.9885,0.2808384070716433,0.5849050699745222,-0.05320338206182537
-3.988,0.3341892813600565,0.5213252395435176,-0.05320338206182537
-3.9875,0.3448594562177392,0.4047622170866759,-0.0637864594726745
-3.987,0.3235191065023739,0.2564092794143318,-0.106118769116071
-3.9865,0.3128489316446912,0.1186529801471552,-0.1167018465269201
-3.986,0.2808384070716433,0.002089957690313421,-0.106118769116071
-3.9855,0.2168173579255475,-0.01910331912002144,-0.08495261429437276
-3.985,0.01408403562957729,0.2246193641988295,-0.04262030465097626
-3.9845,-0.5300948821122373,0.7332580076468663,-0.0637864594726745
-3.984,-1.010252750707956,0.9557874141553824,-0.05320338206182537
-3.9835,-1.255666772434657,0.2987958330350016,-0.03203722724012713
-3.983,-1.351698346153801,-0.5065486857577234,-0.021454149829278
-3.9825,-0.9675720512772257,-0.7714646458869092,-0.021454149829278
-3.982,-0.4660738329661415,-0.7078848154559045,-0.021454149829278
-3.9815,-0.04993701351651855,-0.6125150698093976,-0.021454149829278
-3.981,0.2061471830678648,-0.4535654937318862,-0.021454149829278
-3.9805,0.3341892813600565,-0.3052125560595421,-0.021454149829278
-3.98,0.3768699807907871,-0.1886495336027004,-0.021454149829278
-3.9795,0.3875401556484697,-0.08268314955102604,-0.021454149829278
-3.979,0.4515612047945656,-0.1038764263613609,0.0208781598141185
-3.9785,0.4515612047945656,-0.04029659593035631,0.03146123722496762
-3.978,0.4195506802215176,0.08686306493165288,0.0208781598141185
-3.9775,0.3768699807907871,0.2246193641988295,0.0208781598141185
-3.977,0.3448594562177392,0.3411823866556712,-0.000287995007579752
-3.9765,0.3982103305061524,0.2987958330350016,-0.04262030465097626
-3.976,0.4622313796522482,-0.2204394488182027,-0.0637864594726745
-3.9755,-0.1032878878049318,-0.792657922697244,-0.05320338206182537
-3.975,-0.807519428411986,-1.237716735714276,-0.03203722724012713
-3.9745,-1.351698346153801,-1.492036057438295,-0.08495261429437276
-3.974,-1.533091318734406,-1.417859588602123,-0.0637864594726745
-3.9735,-1.074273799854052,-0.8032545611024114,-0.03203722724012713
-3.973,-0.5087545323968721,-0.1674562567923655,-0.04262030465097626
-3.9725,-0.07127736323188383,0.2776025562246667,-0.07436953688352363
-3.972,0.1954770082101822,0.4895353243280153,-0.07436953688352363
-3.9715,0.3235191065023739,0.5213252395435176,-0.05320338206182537
-3.971,0.3661998059331045,0.457745409112513,-0.05320338206182537
-3.9705,0.3555296310754218,0.3305857482505039,-0.09553569170522189
-3.97,0.3341892813600565,0.1928294489833272,-0.106118769116071
-3.9695,0.2808384070716433,0.09745970333682032,-0.1167018465269201
-3.969,0.2381577076409128,0.03387987290581572,-0.09553569170522189
-3.9685,0.1314559590640864,0.1292496185523226,-0.0637864594726745
-3.968,-0.274010685527854,0.5319218779486851,-0.04262030465097626
-3.9675,-0.9248913518464952,1.093543713422559,-0.05320338206182537
-3.967,-1.341028171296118,1.146526905448396,-0.03203722724012713
-3.9665,-1.607782542738184,0.55311515475902,-0.021454149829278
-3.966,-1.298347471865388,0.1504428953626575,-0.03203722724012713
-3.9655,-0.722158029550525,-0.1144730647665284,-0.03203722724012713
-3.965,-0.1993194615240755,-0.2204394488182027,-0.03203722724012713
-3.9645,0.1848068333524996,-0.3052125560595421,-0.03203722724012713
-3.964,0.3982103305061524,-0.3899856633008816,-0.03203722724012713
-3.9635,0.4835717293676135,-0.3687923864905467,-0.03203722724012713
-3.963,0.4942419042252961,-0.2628260024388724,-0.03203722724012713
-3.9625,0.6009436528021226,-0.2310360872233701,0.0208781598141185
-3.962,0.6116138276598051,-0.1144730647665284,0.03146123722496762
-3.9615,0.5369226036560266,0.07626642652648545,0.03146123722496762
-3.961,0.4515612047945656,0.2776025562246667,0.0208781598141185
-3.9605,0.3768699807907871,0.4471487707073456,-0.000287995007579752
-3.96,0.3982103305061524,0.5107286011383502,-0.03203722724012713
-3.9595,0.8036769750980928,0.07626642652648545,-0.0637864594726745
-3.959,0.9317190733902845,-0.4641621321370536,-0.04262030465097626
-3.9585,0.2594980573562781,-0.9304142219644207,-0.05320338206182537
-3.958,-0.5407650569699201,-1.258910012524611,-0.08495261429437276
-3.9575,-0.9248913518464952,-1.163540266878104,-0.05320338206182537
-3.957,-0.7328282044082075,-0.6019184314042303,-0.03203722724012713
-3.9565,-0.3593720843893152,-0.02969995752518888,-0.03203722724012713
-3.956,-0.02859666380115328,0.3517790250608387,-0.04262030465097626
-3.9555,0.1848068333524996,0.5213252395435176,-0.04262030465097626
-3.955,0.291508581929326,0.5213252395435176,-0.05320338206182537
-3.9545,0.3341892813600565,0.4365521323021782,-0.05320338206182537
-3.954,0.3448594562177392,0.2881991946298341,-0.08495261429437276
-3.9535,0.3235191065023739,0.1504428953626575,-0.1167018465269201
-3.953,0.2701682322139607,0.03387987290581572,-0.1167018465269201
-3.9525,0.2274875327832301,-0.04029659593035631,-0.106118769116071
