Class_10_Using_Wats_App/Class_10_WatsApp_UZ_2.csv

#Digilent WaveForms Oscilloscope Acquisition
#Device Name: EExplorer
#Serial Number: SN:210151A2B84A
#Date Time: 2020-11-24 12:55:02.130
#Sample rate: 2000Hz
#Samples: 16384
#Trigger: Source: Channel 1 Type: Edge Condition: Rising Level: 0 V Hyst.: Auto HoldOff: 0 s
#Channel 1: Range: 1 V/div Offset: 0 V Attenuation: 1 X
#Channel 2: Range: 1 V/div Offset: 0 V Attenuation: 1 X
#Power Supplies: ON
#Fixed Supply: ON
#Voltage: 3.3 V Readback: 3.339 V
#Positive Supply: ON
#Voltage: 3.7 V Readback: 3.712 V
#Current: 40 mA Readback: 22 mA
#Negative Supply: ON
#Voltage: -3.7 V Readback: -3.354 V
#Current: -40 mA Readback: -12 mA
#Reference 1: ON
#Voltage: 0 V
#Reference 2: ON
#Voltage: 0 V

Time (s),Channel 1 (V),Channel 2 (V)
-4.096,1.241154144263081,-1.311893204550448
-4.0955,1.2731646688361,-1.131750351662766
-4.095,1.123782220828349,-0.8880276683436352
-4.0945,0.8783681991018712,-0.7608680074817418
-4.094,0.6009436528023748,-0.7290780922662683
-4.0935,0.3982103305062203,-0.7184814538611008
-4.093,0.4729015545099309,-0.7502713690765743
-4.0925,0.4729015545099309,-0.665498261835312
-4.092,0.355529631075315,-0.5065486857575499
-4.0915,0.2381577076409128,-0.3158091944647096
-4.091,0.142126133921769,-0.1462629799820306
-4.0905,0.01408403562907266,0.002089957690457985
-4.09,-0.5407650569699201,0.1610395337678249
-4.0895,-1.180975548430879,0.5955017083796896
-4.089,-1.458400094730375,0.2352160026043246
-4.0885,-1.821186039891837,-0.3899856633008816
-4.088,-2.354694782775969,-0.8880276683437509
-4.0875,-2.546757930214082,-1.099960436446907
-4.087,-1.970568487898618,-0.7184814538602817
-4.0865,-1.116954499284783,0.1504428953626575
-4.086,-0.4767440078244066,0.998173967775281
-4.0855,-0.09261771294706475,1.602182356870923
-4.085,0.1101156093487211,1.962468062646288
-4.0845,0.1741366584947587,2.10022436191334
-4.084,0.1741366584948072,2.184997469154805
-4.0835,0.1634664836371343,2.184997469154805
-4.083,0.142126133921769,2.07903108510313
-4.0825,0.1421261339218175,1.920081509025262
-4.082,0.1954770082101822,1.528005888034424
-4.0815,0.07810508477567314,0.5743084315693548
-4.081,-0.2206598112391691,-0.4535654937309513
-4.0805,-0.3166913849585846,-1.163540266878104
-4.08,0.2168173579255475,-1.502632695843462
-4.0795,0.803676975097559,-1.407262950197042
-4.079,1.123782220828601,-1.089363798041739
-4.0785,1.15579274540162,-0.8774310299385835
-4.078,0.97439977282118,-0.8244478379127945
-4.0775,0.7183155762364277,-0.8668343915334643
-4.077,0.4942419042252961,-0.9198175835592532
-4.0765,0.4729015545099503,-1.015187329205673
-4.076,0.6436243522327851,-1.121153713257174
-4.0755,0.5689331282290746,-0.8350444763179138
-4.075,0.3982103305061524,-0.4217755785163839
-4.0745,0.2381577076408157,-0.0508932343352828
-4.074,0.1314559590640864,0.2140227257936621
-4.0735,-0.1886492866663929,0.6484849004055269
-4.073,-0.8928808272728067,0.8180311148880516
-4.0725,-1.543761493592088,0.1716361721729923
-4.072,-2.055929886760855,-0.6019184314042303
-4.0715,-2.525417580498464,-1.13175035166212
-4.071,-2.578768454787246,-1.343683119765883
-4.0705,-2.514747405641209,-1.269506650929778
-4.07,-1.703814116458065,-0.6549016234306264
-4.0695,-0.8928808272729232,0.2352160026047101
-4.069,-0.3166913849585846,1.019367244586387
-4.0685,0.02475421048725994,1.538602526439591
-4.068,0.1527963087794807,1.792921848163735
-4.0675,0.1848068333524996,1.930678147430786
-4.067,0.1848068333524996,1.962468062646288
-4.0665,0.1634664836371246,1.909484870620336
-4.066,0.1527963087794516,1.782325209758442
-4.0655,0.1741366584948169,1.464426057603419
-4.065,0.5582629533710427,1.135930267043527
-4.0645,0.8463576745288233,0.6590815388106942
-4.064,0.3555296310754218,-0.2098428104130352
-4.0635,-0.1032878878045145,-0.9410108603689231
-4.063,0.1314559590644357,-1.386069673386533
-4.0625,0.5155822539406614,-1.290699927740113
-4.062,0.7823366253824848,-1.025783967611168
-4.0615,0.8250173248133512,-0.8562377531282102
-4.061,0.707645401378949,-0.8138511995075789
-4.0605,0.5369226036560266,-0.8032545611024114
-4.06,0.4302208550792683,-0.8456411147231487
-4.0595,0.5049120790829789,-0.9198175835592532
-4.059,0.4408910299368829,-0.7396747306714069
-4.0585,0.3128489316448077,-0.4853554089476198
-4.058,0.2061471830678648,-0.2734226408440398
-4.0575,0.1207857842064037,-0.1038764263613609
-4.057,-0.03926683865869035,0.1716361721727418
-4.0565,-0.6261264558313813,0.7650479228623686
-4.056,-1.26633694729234,0.5425185163538525
-4.0555,-1.62912289245322,-0.103876426360773
-4.055,-1.959898313042129,-0.5595318777838304
-4.0545,-2.418715831922065,-0.8562377531282487
-4.054,-2.54675793021414,-0.9304142219643532
-4.0535,-1.959898313040935,-0.548935239377622
-4.053,-1.1062843244271,0.2987958330350016
-4.0525,-0.4767440078238243,1.125333628638062
-4.052,-0.07127736323169945,1.718745379327717
-4.0515,0.1314559590640864,2.026047893077293
-4.051,0.1954770082101822,2.1214176387238
-4.0505,0.1954770082101822,2.153207553939274
-4.05,0.1741366584948169,2.110821000318633
-4.0495,0.1527963087794516,2.015451254672126
-4.049,0.1634664836371246,1.835308401784443
-4.0485,0.3555296310756741,1.464426057602909
-4.048,0.6329541773751706,0.9028042221295453
-4.0475,0.2168173579259259,-0.04029659592949852
-4.047,-0.220659811239043,-0.81385119950808
-4.0465,0.2168173579255475,-1.364876396576285
-4.046,0.7609962756668673,-1.513229334248495
-4.0455,1.049090996824813,-1.237716735714074
-4.045,1.070431346540159,-1.01518732920576
-4.0445,0.8997085488172365,-0.9198175835592532
-4.044,0.6436243522326687,-0.9198175835592918
-4.0435,0.4408910299368829,-0.9622041371799229
-4.043,0.5582629533713921,-1.078767159636765
-4.0425,0.6116138276597566,-0.9410108603697134
-4.042,0.4835717293676135,-0.6019184314042303
-4.0415,0.3235191065023739,-0.2734226408440398
-4.041,0.1954770082102986,-0.02969995752541055
-4.0405,0.07810508477523644,0.1610395337682972
-4.04,-0.4020527838200457,0.6802748156210291
-4.0395,-1.052933450138095,0.5955017083797667
-4.039,-1.191645723288648,-0.08268314955150792
-4.0385,-1.287677297007705,-0.6125150698093976
-4.038,-1.703814116456949,-1.025783967610552
-4.0375,-2.205312334768286,-1.216523458903739
-4.037,-2.066600061618538,-0.9939940523954253
-4.0365,-1.319687821580753,-0.1992461720078678
-4.036,-0.6688071552616848,0.6590815388112917
-4.0355,-0.1993194615240755,1.316073119931075
-4.035,0.0674349099179905,1.70814874092227
-4.0345,0.1634664836370469,1.888291593809952
-4.034,0.1741366584948169,1.983661339456623
-4.0335,0.1741366584948169,2.004854616266958
-4.033,0.152796308779471,1.962468062646327
-4.0325,0.1527963087795002,1.771728571352851
-4.032,0.2061471830678648,1.305476481525908
-4.0315,0.3021787567869213,0.7544512844577023
-4.031,0.06743490991757321,-0.02969995752586351
-4.0305,-0.391382608962363,-0.7714646458869092
-4.03,-0.08194753808984795,-1.24831337411901
-4.0295,0.5369226036563954,-1.354279758170887
-4.029,0.942389248247967,-1.0999604364471
-4.0285,1.070431346540159,-0.8668343915334161
-4.028,0.9637295979631286,-0.7714646458869477
-4.0275,0.7396559259519968,-0.8138511995075789
-4.027,0.5049120790829789,-0.8986243067489184
-4.0265,0.4195506802215953,-1.025783967610812
-4.026,0.3982103305061524,-0.9833974139902578
-4.0255,0.3128489316446912,-0.6972881770507372
-4.025,0.2168173579256348,-0.3899856633011611
-4.0245,0.1527963087793934,-0.1356663415766801
-4.024,0.08877525963335578,0.06566978812131802
-4.0235,-0.2633405106698511,0.3729723018708941
-4.023,-0.9462317015622971,0.7332580076464327
-4.0225,-1.426389570157579,0.2564092794143318
-4.022,-1.75716499074544,-0.3475991096796625
-4.0215,-2.237322859341751,-0.8138511995078295
-4.021,-2.557428105071939,-1.089363798041932
-4.0205,-2.472066706210478,-1.068170521231597
-4.02,-1.650463242168187,-0.495952047351756
-4.0195,-0.8502001278427167,0.383568940276341
-4.019,-0.2953510352432193,1.125333628638062
-4.0185,0.03542438534464176,1.623375633680478
-4.018,0.1848068333524996,1.856501678594614
-4.0175,0.2061471830678648,1.951871424241121
-4.017,0.1954770082101919,1.994257977861752
-4.0165,0.1848068333524898,1.951871424240967
-4.016,0.1741366584948169,1.782325209758442
-4.0155,0.1848068333524898,1.485619334414024
-4.015,0.5475927785139132,1.157123543853024
-4.0145,0.7716664505250448,0.5637117931641874
-4.014,0.3128489316451085,-0.2946159176535941
-4.0135,0.2168173579259551,-0.7396747306717538
-4.013,0.6649647019482183,-1.121153713257435
-4.0125,1.038420821967111,-1.142346990067769
-4.012,1.177133095116898,-0.9939940523953578
-4.0115,1.081101521397841,-0.9198175835592532
-4.011,0.8356874996711408,-0.9092209451540858
-4.0105,0.5796033030869903,-0.9198175835592436
-4.01,0.3982103305061524,-0.9516074987747555
-4.0095,0.3448594562177392,-0.9622041371799229
-4.009,0.2701682322140286,-0.7926579226973982
-4.0085,0.1848068333524607,-0.5383386009730039
-4.008,0.142126133921769,-0.2946159176543747
-4.0075,0.1101156093487502,-0.07208651114606102
-4.007,0.01408403562917941,0.2246193641993692
-4.0065,-0.423393133535411,0.8180311148882058
-4.006,-1.031593100423322,0.5955017083796896
-4.0055,-1.501080794161814,-0.05089323433596707
-4.005,-2.002579012472442,-0.5383386009732256
-4.0045,-2.504077230783526,-0.8774310299385835
-4.004,-2.557428105071629,-0.9833974139899879
-4.0035,-2.215982509626095,-0.6866915386455698
-4.003,-1.287677297007705,0.13984625695749
-4.0025,-0.583445756401291,1.008770606180429
-4.002,-0.1139580626626144,1.655165548896433
-4.0015,0.1207857842064037,2.015451254672126
-4.001,0.2061471830677872,2.153207553939177
-4.0005,0.2168173579255281,2.184997469154766
-4,0.1954770082101822,2.142610915534135
-3.9995,0.1954770082101822,2.015451254672126
-3.999,0.1954770082101822,1.70814874092227
-3.9985,0.3235191065023739,1.072350436612224
-3.998,0.5689331282290746,0.1504428953626575
-3.9975,0.2061471830678648,-0.7714646458869092
-3.997,-0.06060718837420119,-1.34368311976595
-3.9965,0.4515612047945656,-1.714565463946811
-3.996,0.974399772821015,-1.682775548731308
-3.9955,1.209143619690033,-1.280103289334946
-3.995,1.187803269974668,-0.9516074987747555
-3.9945,0.974399772821015,-0.8350444763179138
-3.994,0.6969752265212663,-0.8562377531282487
-3.9935,0.4729015545099309,-0.9092209451540858
-3.993,0.5049120790829789,-0.9939940523954253
-3.9925,0.5049120790829789,-0.8138511995075789
-3.992,0.3875401556484697,-0.570128516188728
-3.9915,0.2701682322139607,-0.3581957480853793
-3.991,0.1741366584948169,-0.2098428104130352
-3.9905,0.09944543449103843,-0.04029659593035631
-3.99,-0.3060212101009019,0.5213252395435176
-3.9895,-0.9248913518464952,0.6696781772158616
-3.989,-1.341028171296118,0.05507314971615059
-3.9885,-1.67180359188428,-0.4535654937318862
-3.988,-2.162631635337682,-0.8562377531282487
-3.9875,-2.525417580498891,-1.05757388282643
-3.987,-2.109280761049269,-0.8456411147230812
-3.9865,-1.244996597576974,-0.05089323433552374
-3.986,-0.572775581542968,0.8074344764830383
-3.9855,-0.124628237520297,1.464426057603419
-3.985,0.1207857842064037,1.867098316999781
-3.9845,0.2061471830678648,2.026047893077293
-3.984,0.2168173579255475,2.089627723508298
-3.9835,0.2061471830678648,2.110821000318633
-3.983,0.1848068333524996,2.036644531482461
-3.9825,0.1848068333524996,1.856501678594614
-3.982,0.2381577076409128,1.411442865577582
-3.9815,0.4622313796522482,0.6060983467848571
-3.981,0.5155822539406614,-0.3370024712750445
-3.9805,0.08877525963335578,-1.0999604364471
-3.98,0.3341892813600565,-1.608599079895136
-3.9795,1.038420821967111,-1.958288147265661
-3.979,1.411876941986003,-1.714565463946811
-3.9785,1.433217291701369,-1.216523458903942
-3.978,1.19847344483235,-0.8986243067489184
-3.9775,0.8676980242441885,-0.792657922697244
-3.977,0.5796033030867573,-0.8244478379127463
-3.9765,0.4942419042252961,-0.9833974139902578
-3.976,0.5262524287983441,-1.01518732920576
-3.9755,0.4302208550792003,-0.8032545611024114
-3.975,0.291508581929326,-0.5489352393783931
-3.9745,0.1848068333524996,-0.3475991096802118
-3.974,0.1207857842064037,-0.2098428104130352
-3.9735,-0.1886492866663929,0.1504428953626575
-3.973,-0.8822106524157645,0.4365521323021782
-3.9725,-1.383708870726849,-0.05089323433552374
-3.972,-1.575772018165136,-0.7396747306714069
-3.9715,-1.970568487899394,-1.248313374119443
-3.971,-2.461396531352796,-1.460246142222792
-3.9705,-2.461396531352796,-1.322489842955616
-3.97,-1.661133417026597,-0.6549016234300674
-3.9695,-0.8822106524157645,0.2881991946298341
-3.969,-0.3060212101009019,1.082947075017392
-3.9685,0.02475421048725994,1.612778995275763
-3.968,0.1848068333524996,1.877694955404949
-3.9675,0.2274875327832301,1.973064701051456
-3.967,0.2168173579255475,2.015451254672126
-3.9665,0.1954770082101822,1.994257977861791
-3.966,0.1848068333524996,1.898888232215284
-3.9655,0.2061471830678648,1.612778995275763
-3.965,0.5262524287983441,1.241896651094903
-3.9645,0.6649647019482183,0.6484849004055269
-3.964,0.2488278824985954,-0.2840192792492073
-3.9635,0.1848068333524996,-0.9939940523954253
-3.963,0.6649647019482183,-1.502632695843462
-3.9625,1.059761171682476,-1.407262950196955
-3.962,1.209143619690033,-1.121153713257435
-3.9615,1.134452395686255,-0.8774310299385835
-3.961,0.9103787236749192,-0.7502713690765743
-3.9605,0.6649647019482183,-0.7608680074817418
-3.96,0.4622313796522482,-0.8880276683437509
-3.9595,0.4302208550792003,-0.9516074987747555
-3.959,0.3661998059331045,-0.6654982618352349
-3.9585,0.2701682322139607,-0.3687923864905467
-3.958,0.1954770082101822,-0.1356663415768632
-3.9575,0.142126133921769,0.01268659609548085
-3.957,0.04609456020262521,0.2034260873884947
-3.9565,-0.5087545323968721,0.7120647308365314
-3.956,-1.148965023857831,0.4683420475176805
-3.9555,-1.437059745015262,-0.2628260024388724
-3.955,-1.83185621474952,-0.9092209451540858
-3.9545,-2.354694782775969,-1.269506650929778
-3.954,-2.546757930214257,-1.333086481360783
-3.9535,-2.23732285934146,-0.9939940523954253
-3.953,-1.319687821580753,-0.1462629799820306
-3.9525,-0.6047861061160158,0.7332580076468663
-3.952,-0.124628237520297,1.37965295036208
-3.9515,0.1207857842064037,1.75053529454294
-3.951,0.2061471830678648,1.920081509025619
-3.9505,0.2168173579255475,2.004854616266958
-3.95,0.2061471830678648,1.994257977861791
-3.9495,0.1954770082101822,1.920081509025619
-3.949,0.1954770082101822,1.676358825706768
-3.9485,0.2808384070716433,1.082947075017392
-3.948,0.6116138276598051,0.3305857482505039
-3.9475,0.5475927785137094,-0.4853554089473885
-3.947,0.1101156093487211,-1.068170521231597
-3.9465,0.2594980573562781,-1.396666311791788
-3.946,0.6436243522328531,-1.449649503817625
-3.9455,0.9210488985326017,-1.311893204550448
-3.945,0.9957401225363802,-1.142346990067769
-3.9445,0.857027849386506,-1.078767159636765
-3.944,0.6649647019482183,-1.068170521231597
-3.9435,0.4835717293676135,-1.046977244421262
-3.943,0.4515612047945656,-1.089363798041932
-3.9425,0.4195506802215176,-0.9092209451540858
-3.942,0.3341892813600565,-0.6231117082145651
-3.9415,0.2274875327832301,-0.3899856633008816
-3.941,0.1634664836371343,-0.2098428104130352
-3.9405,0.1101156093487211,-0.01910331912002144
-3.94,-0.2313299860971235,0.5319218779486851
-3.9395,-0.7968492535543035,0.627291623595192
-3.939,-1.234326422719292,0.02328323450064829
-3.9385,-1.618452717595867,-0.5065486857577234
-3.938,-2.162631635337682,-0.8880276683437509
-3.9375,-2.525417580498891,-1.05757388282643
-3.937,-2.173301810195364,-0.8138511995075789
-3.9365,-1.277007122150022,-0.02969995752518888
-3.936,-0.572775581542968,0.849821030103708
-3.9355,-0.1139580626626144,1.528005888034424
-3.935,0.1314559590640864,1.930678147430786
-3.9345,0.2274875327832301,2.100224361913465
-3.934,0.2274875327832301,2.195594107559972
-3.9335,0.2168173579255475,2.16380419234447
-3.933,0.2061471830678648,2.036644531482461
-3.9325,0.2061471830678648,1.856501678594614
-3.932,0.3448594562177392,1.549199164844759
-3.9315,0.8463576745288233,1.167720182258731
-3.931,0.6863050516635838,0.2987958330350016
-3.9305,0.1848068333524996,-0.570128516188728
-3.93,0.4622313796522482,-1.110557074852267
-3.9295,0.9530594231056497,-1.449649503817625
-3.929,1.230483969405398,-1.311893204550448
-3.9285,1.251824319120764,-1.089363798041932
-3.928,1.059761171682476,-0.9516074987747555
-3.9275,0.7823366253827275,-0.8986243067489184
-3.927,0.5262524287983441,-0.9198175835592532
-3.9265,0.4729015545099309,-1.036380606016095
-3.926,0.6009436528021226,-0.9939940523954253
-3.9255,0.5262524287983441,-0.6972881770507372
-3.925,0.3768699807907871,-0.3793890248957141
-3.9245,0.2594980573562781,-0.1356663415768632
-3.924,0.1634664836371343,0.04447651131098315
-3.9235,-0.124628237520297,0.4047622170866759
-3.923,-0.8288597781273515,0.6060983467848571
-3.9225,-1.394379045584531,0.01268659609548085
-3.922,-1.917217613610981,-0.6866915386455698
-3.9215,-2.461396531352796,-1.152943628472937
-3.921,-2.546757930214257,-1.301296566145281
-3.9205,-2.536087755356574,-1.195330182093607
-3.92,-1.949228138184029,-0.6443049850249
-3.9195,-1.042263275281004,0.2670059178194992
-3.919,-0.4020527838200457,1.093543713422559
-3.9185,0.00341386077189465,1.644568910491266
-3.918,0.1848068333524996,1.909484870620451
-3.9175,0.2381577076409128,2.004854616266958
-3.917,0.2381577076409128,2.004854616266958
-3.9165,0.2168173579255475,1.962468062646288
-3.916,0.2274875327832301,1.771728571353275
-3.9155,0.2274875327832301,1.411442865577582
-3.915,0.4942419042252961,1.029963882991555
-3.9145,0.707645401378949,0.4365521323021782
-3.914,0.2381577076409128,-0.4429688553267188
-3.9135,0.1314559590640864,-1.089363798041932
-3.913,0.6222840025174878,-1.492036057438295
-3.9125,1.027750647109428,-1.396666311791788
-3.912,1.19847344483235,-1.121153713257435
-3.9115,1.134452395686255,-0.9304142219644207
-3.911,0.8890383739595538,-0.8138511995075789
-3.9105,0.6329541773751706,-0.8032545611024114
-3.91,0.4515612047945656,-0.9092209451540858
-3.9095,0.5049120790829789,-1.121153713257435
-3.909,0.4729015545099309,-1.004590690800593
-3.9085,0.3555296310754218,-0.6549016234300674
-3.908,0.2488278824985954,-0.2946159176543747
-3.9075,0.1741366584948169,-0.04029659593035631
-3.907,0.02475421048725994,0.2034260873884947
-3.9065,-0.5514352318276028,0.6060983467848571
-3.906,-1.191645723288561,0.2881991946298341
-3.9055,-1.67180359188428,-0.3475991096802118
-3.905,-2.130621110764634,-0.7396747306714069
-3.9045,-2.514747405641209,-1.046977244421262
-3.904,-2.536087755356574,-1.163540266878104
-3.9035,-1.959898313041711,-0.8244478379127463
-3.903,-1.074273799854052,-0.02969995752518888
-3.9025,-0.423393133535411,0.7650479228623686
-3.902,-0.01792648894347063,1.347863035146577
-3.9015,0.1741366584948169,1.644568910491266
-3.901,0.2381577076409128,1.79292184816361
-3.9005,0.2381577076409128,1.867098316999781
-3.9,0.2274875327832301,1.867098316999781
-3.8995,0.2168173579255475,1.771728571353275
-3.899,0.2274875327832301,1.591585718465428
-3.8985,0.3235191065023739,1.146526905448396
-3.898,0.5582629533713921,0.5955017083796896
-3.8975,0.3021787567870086,-0.252229364033705
-3.897,0.02475421048725994,-0.8456411147230812
-3.8965,0.3982103305061524,-1.237716735714276
-3.896,0.8463576745288233,-1.354279758171118
-3.8955,1.091771696255524,-1.152943628472937
-3.895,1.081101521397841,-0.9728007755850904
-3.8945,0.8997085488172365,-0.8350444763179138
-3.894,0.6649647019482183,-0.7714646458869092
-3.8935,0.4622313796522482,-0.7714646458869092
-3.893,0.5155822539406614,-0.8562377531282487
-3.8925,0.5582629533713921,-0.6337083466197325
-3.892,0.4515612047945656,-0.3370024712750445
-3.8915,0.3235191065023739,-0.1250697031716958
-3.891,0.2274875327832301,0.02328323450064829
-3.8905,0.1314559590640864,0.1504428953626575
-3.89,-0.2953510352432193,0.5425185163538525
-3.8895,-0.9569018764195432,0.4895353243280153
-3.889,-1.373038695869166,-0.1780528951975329
-3.8885,-1.810515865034154,-0.7396747306714069
-3.888,-2.354694782775969,-1.0999604364471
-3.8875,-2.536087755356574,-1.216523458903942
-3.887,-2.44005618163743,-1.068170521231597
-3.8865,-1.586442193022819,-0.3687923864905467
-3.886,-0.7861790786966207,0.5213252395435176
-3.8855,-0.2313299860971235,1.241896651094903
-3.885,0.08877525963335578,1.697552102517103
