Class_10_Using_Wats_App/Class_10_WatsApp_SH_3.csv

#Digilent WaveForms Oscilloscope Acquisition
#Device Name: EExplorer
#Serial Number: SN:210151A2B84A
#Date Time: 2020-12-03 11:55:31.855
#Sample rate: 2000Hz
#Samples: 16384
#Trigger: Source: Channel 1 Type: Edge Condition: Rising Level: 0 V Hyst.: Auto HoldOff: 0 s
#Channel 1: Range: 1 V/div Offset: 0 V Attenuation: 1 X
#Channel 2: Range: 1 V/div Offset: 0 V Attenuation: 1 X
#Power Supplies: ON
#Fixed Supply: ON
#Voltage: 3.3 V Readback: 3.317 V
#Positive Supply: ON
#Voltage: 3.7 V Readback: 3.717 V
#Current: 40 mA Readback: 27 mA
#Negative Supply: ON
#Voltage: -3.7 V Readback: -4.672 V
#Current: -40 mA Readback: -6 mA
#Reference 1: ON
#Voltage: 0 V
#Reference 2: ON
#Voltage: 0 V

Time (s),Channel 1 (V),Channel 2 (V)
-4.096,0.5369226036560266,0.3199891098453364
-4.0955,0.1848068333528198,-0.5171453241621293
-4.095,0.8463576745291241,-1.354279758171764
-4.0945,1.177133095116985,-2.064254531317336
-4.094,0.4515612047952255,-2.498716705928806
-4.0935,-0.2633405106702393,-2.350363768256028
-4.093,-0.3380317346739499,-1.439052865412457
-4.0925,-0.1779791118088558,-0.4429688553276248
-4.092,0.05676473506048254,0.309392471440593
-4.0915,0.2488278824985954,0.775644561267536
-4.091,0.3875401556484697,0.9981739677760521
-4.0905,0.4622313796522773,1.061753798207047
-4.09,0.4942419042252961,1.051157159801889
-4.0895,0.5049120790829789,0.9981739677760521
-4.089,0.47290155450996,0.9451907757502631
-4.0885,0.4195506802215176,0.9345941373450475
-4.088,0.3661998059331045,0.9451907757502149
-4.0875,0.2274875327833563,0.9557874141553727
-4.087,-0.4447334832516012,0.2987958330341342
-4.0865,-1.351698346153801,-0.6549016234300674
-4.086,-2.066600061617887,-1.439052865411744
-4.0855,-2.269333383913896,-1.555615887868846
-4.085,-1.597112367880501,-1.05757388282643
-4.0845,-0.7541685541243396,-0.4429688553272778
-4.084,-0.1032878878045048,-0.02969995752498649
-4.0835,0.3661998059331045,0.1928294489833272
-4.083,0.6329541773751706,0.2881991946298341
-4.0825,0.7396559259520162,0.2881991946297859
-4.082,0.7609962756673623,0.2352160026039969
-4.0815,0.8997085488172365,0.05507314971615059
-4.081,0.8890383739595634,0.06566978812130839
-4.0805,0.8036769750980928,0.13984625695749
-4.08,0.6969752265212663,0.2246193641988295
-4.0795,0.6116138276598827,0.3093924714400919
-4.079,0.568933128228997,0.2034260873880995
-4.0785,0.4835717293676135,-0.2310360872233701
-4.078,0.09944543449138782,-1.216523458903045
-4.0775,-0.4020527838208609,-1.852321763214335
-4.077,-1.298347471865388,-2.233800745800015
-4.0765,-1.799845690176016,-2.180817553774226
-4.076,-1.30901764672242,-1.216523458902978
-4.0755,-0.5941159312583333,-0.1568596183871981
-4.075,-0.07127736323188383,0.5637117931641874
-4.0745,0.2701682322141257,0.9875773293710582
-4.074,0.4515612047945656,1.178316820663898
-4.0735,0.5155822539406614,1.231300012689736
-4.073,0.5262524287983344,1.188913459069104
-4.0725,0.5049120790829789,1.135930267043229
-4.072,0.4622313796522482,1.104140351827727
-4.0715,0.4195506802215564,1.093543713422569
-4.071,0.3448594562172637,1.125333628637666
-4.0705,-0.1779791118087102,0.6908714540261965
-4.07,-1.08494397471091,0.2670059178198848
-4.0695,-1.927887788469003,-0.3370024712755456
-4.069,-2.301343908487556,-0.8880276683437509
-4.0685,-1.735824641030376,-0.792657922697244
-4.068,-0.839529952984345,-0.3687923864902191
-4.0675,-0.08194753808956648,-0.008506680714854012
-4.067,0.3982103305061524,0.1292496185523226
-4.0665,0.6222840025175752,0.1292496185522166
-4.066,0.7183155762366316,0.01268659609548085
-4.0655,0.7289857510943143,-0.04029659593035631
-4.065,0.8463576745287165,-0.1144730647664609
-4.0645,0.9530594231056497,-0.1144730647665284
-4.064,0.8997085488172365,0.03387987290581572
-4.0635,0.8036769750981801,0.1716361721728671
-4.063,0.6969752265212567,0.3093924714402171
-4.0625,0.6863050516635838,0.3623756634660061
-4.062,0.7503261008096214,-0.06148987274030565
-4.0615,0.7503261008087965,-0.411178940112132
-4.061,-0.2206598112394408,-1.417859588602123
-4.0605,-0.8288597781273515,-1.75695201756748
-4.06,-1.490410619303743,-1.968884785670492
-4.0595,-1.565101843307454,-1.598002441489969
-4.059,-0.9355615267041777,-0.6019184314042303
-4.0585,-0.2846808603861286,0.2776025562238668
-4.058,0.1207857842064037,0.7968378380778709
-4.0575,0.3661998059331045,1.072350436612224
-4.057,0.4835717293675068,1.167720182258644
-4.0565,0.5155822539406614,1.157123543853563
-4.056,0.5155822539406614,1.093543713422559
-4.0555,0.4729015545099697,1.04056052139677
-4.055,0.4195506802214788,1.019367244586397
-4.0545,0.3768699807907871,1.029963882991555
-4.054,0.03542438534525311,0.8604176685090297
-4.0535,-0.8181896032703577,0.4259554938967312
-4.053,-1.575772018165136,0.1186529801471552
-4.0525,-1.970568487899394,-0.5913217929990628
-4.052,-1.789175515318168,-0.9516074987745627
-4.0515,-1.1062843244271,-0.7396747306714069
-4.051,-0.4020527838200457,-0.3581957480853793
-4.0505,0.142126133921274,-0.08268314955127659
-4.05,0.4729015545099309,0.1292496185523226
-4.0495,0.6222840025174878,0.2034260873884947
-4.049,0.6756348768058525,0.2246193641988102
-4.0485,0.7396559259521521,0.1610395337676322
-4.048,0.9103787236749192,-0.05089323433552374
-4.0475,0.8783681991019003,-0.02969995752520815
-4.047,0.7930068002403324,0.1080563417421227
-4.0465,0.707645401378949,0.2564092794143318
-4.046,0.6329541773752385,0.351779025060752
-4.0455,0.750326100810058,0.05507314971590001
-4.045,1.166462920259302,-0.2204394488182027
-4.0445,1.19847344483235,-0.8986243067489184
-4.044,0.2488278824983043,-1.69337218713611
-4.0435,-0.07127736323188383,-1.290699927740113
-4.043,-0.124628237520297,-0.5913217929990628
-4.0425,0.04609456020246996,0.1292496185516673
-4.042,0.291508581929326,0.6908714540261965
-4.0415,0.3768699807907871,0.92399749893988
-4.041,0.4195506802214788,1.008770606181143
-4.0405,0.4408910299368927,1.019367244586358
-4.04,0.4515612047945656,0.9875773293708847
-4.0395,0.4515612047945656,0.9557874141554112
-4.039,0.4408910299368539,0.9451907757502342
-4.0385,0.408880505363835,0.9663840525605498
-4.038,0.3875401556484891,1.019367244586339
-4.0375,0.2274875327825993,1.02996388299088
-4.037,-0.4660738329661415,0.2881991946298341
-4.0365,-1.383708870726849,-0.6231117082145651
-4.036,-2.087940411333874,-1.417859588602296
-4.0355,-2.055929886760855,-1.608599079895136
-4.035,-1.287677297007705,-1.05757388282643
-4.0345,-0.4660738329668889,-0.43237221692212
-4.034,0.1634664836371343,0.002089957690313421
-4.0335,0.5369226036560266,0.2776025562246667
-4.033,0.7076454013787938,0.3517790250607712
-4.0325,0.7396559259519968,0.3093924714400822
-4.032,0.7396559259519968,0.2140227257936621
-4.0315,0.8997085488170909,0.002089957690506183
-4.031,0.9103787236748416,-0.0720865111458297
-4.0305,0.825017324813458,-0.04029659593035631
-4.03,0.7289857510944017,0.04447651131090605
-4.0295,0.6436243522328822,0.1610395337676996
-4.029,0.6756348768059011,0.02328323450064829
-4.0285,0.7823366253827275,-0.1780528951975329
-4.028,1.262494493977932,0.1186529801463842
-4.0275,0.6969752265212663,-0.7290780922662394
-4.027,-0.2206598112394408,-1.502632695843462
-4.0265,-1.116954499283968,-1.958288147265247
-4.026,-1.127624674142465,-1.47084278062796
-4.0255,-0.6047861061160158,-0.5277419625680583
-4.025,-0.09261771294771504,0.2564092794136186
-4.0245,0.1954770082103472,0.7120647308367627
-4.024,0.3768699807907871,0.9663840525605498
-4.0235,0.4622313796521705,1.082947075017286
-4.023,0.4835717293676038,1.114736990232904
-4.0225,0.4729015545099309,1.125333628638062
-4.022,0.4195506802215662,1.157123543853535
-4.0215,0.3768699807907094,1.210106735879478
-4.021,0.291508581929326,1.29487984312074
-4.0205,-0.3060212101009019,0.8816109453192104
-4.02,-1.212986073004654,0.1610395337670346
-4.0195,-2.013249187330125,-0.7078848154559045
-4.019,-2.333354433060604,-1.195330182093607
-4.0185,-1.714484291315574,-0.8562377531285571
-4.018,-0.8928808272734472,-0.3370024712750445
-4.0175,-0.1673089369510276,0.02328323450064829
-4.017,0.3341892813596004,0.1504428953625418
-4.0165,0.6222840025175849,0.09745970333677213
-4.016,0.7289857510943143,0.04447651131098315
-4.0155,0.7503261008096601,0.01268659609550977
-4.015,0.9103787236750163,-0.1250697031717536
-4.0145,1.017080472251745,-0.1886495336027004
-4.014,0.9103787236750163,-0.01910331912017565
-4.0135,0.7503261008095825,0.1928294489834718
-4.013,0.6436243522328531,0.3517790250608387
-4.0125,0.6116138276598051,0.4153588554918433
-4.012,0.5796033030871067,0.1292496185525154
-4.0115,0.9637295979633325,0.3411823866556712
-4.011,0.974399772821015,0.04447651131098315
-4.0105,-0.4127229586764667,-1.205926820497637
-4.01,-1.277007122150022,-1.820531847998485
-4.0095,-1.277007122150022,-1.534422611058964
-4.009,-0.807519428412413,-0.7396747306721297
-4.0085,-0.1993194615237068,0.1080563417424889
-4.008,0.2061471830678648,0.6590815388106942
-4.0075,0.3875401556483047,0.9134008605344814
-4.007,0.4622313796522676,1.029963882991574
-4.0065,0.4835717293676135,1.051157159801889
-4.006,0.4729015545099309,1.040560521396722
-4.0055,0.4408910299368635,1.029963882991555
-4.005,0.4195506802215176,1.029963882991555
-4.0045,0.3768699807907871,1.082947075017392
-4.004,0.01408403562874271,0.9875773293700655
-4.0035,-0.9035510021311299,0.08686306493165288
-4.003,-1.789175515318789,-0.9622041371799229
-4.0025,-2.280003558771744,-1.661582271920337
-4.002,-1.917217613610981,-1.439052865412457
-4.0015,-1.084943974711735,-0.7502713690765743
-4.001,-0.3380317346746292,-0.1780528951980533
-4.0005,0.1848068333528198,0.1186529801472323
-4,0.5369226036560266,0.2034260873884947
-3.9995,0.6969752265212663,0.2458126410091644
-3.999,0.7183155762366316,0.2352160026039969
-3.9985,0.7503261008096795,0.1716361721729923
-3.998,0.8463576745288233,0.06566978812131802
-3.9975,0.79300680024041,0.05507314971615059
-3.997,0.7503261008096795,0.01268659609548085
-3.9965,0.707645401378949,0.002089957690313421
-3.996,0.6756348768059011,0.06566978812131802
-3.9955,0.7183155762366316,-0.2416327256285375
-3.995,0.6329541773751706,-0.8244478379127463
-3.9945,0.2274875327832301,-1.502632695843462
-3.994,-0.7755089038389382,-2.159624276963843
-3.9935,-1.426389570157579,-2.202010830584512
-3.993,-1.575772018165136,-1.778145294377815
-3.9925,-1.020922925565639,-0.7608680074817418
-3.992,-0.3380317346739499,0.2352160026039969
-3.9915,0.09944543449103843,0.8392243916985406
-3.991,0.3448594562177392,1.146526905448396
-3.9905,0.4622313796522482,1.263089927905238
-3.99,0.5049120790829789,1.263089927905238
-3.9895,0.4942419042252961,1.210106735879401
-3.989,0.4622313796522482,1.146526905448396
-3.9885,0.408880505363835,1.114736990232894
-3.988,0.3661998059331045,1.114736990232894
-3.9875,0.1634664836371343,1.061753798207057
-3.987,-0.5834457564006506,0.4365521323021782
-3.9865,-1.490410619303675,0.01268659609548085
-3.986,-2.226652684483777,-0.6760949002404023
-3.9855,-2.504077230783526,-0.9939940523954253
-3.985,-1.757164990745741,-0.7608680074817418
-3.9845,-0.8288597781273515,-0.3475991096802118
-3.984,-0.06060718837420119,0.04447651131098315
-3.9835,0.4195506802215176,0.2034260873884947
-3.983,0.6649647019482183,0.1504428953626575
-3.9825,0.7609962756673623,0.002089957690313421
-3.982,0.7716664505250448,-0.1038764263613609
-3.9815,0.9957401225363802,-0.3052125560595421
-3.981,1.006410297394063,-0.2840192792492073
-3.9805,0.8783681991018712,-0.1144730647665284
-3.98,0.7396559259519968,0.02328323450064829
-3.9795,0.6542945270905358,0.1504428953626575
-3.979,0.2488278824985954,-0.4323722169215513
-3.9785,0.6542945270905358,-1.258910012524611
-3.978,0.7183155762366316,-1.926498232050159
-3.9775,-0.3487019095316325,-2.382153683472359
-3.977,-0.9355615267041777,-2.106641084938006
-3.9765,-0.7328282044082075,-1.05757388282643
-3.976,-0.3593720843893152,-0.08268314955102604
-3.9755,-0.007256314085787988,0.6166949851900245
-3.975,0.2488278824985954,1.029963882991555
-3.9745,0.408880505363835,1.220703374284568
-3.974,0.4729015545099309,1.263089927905238
-3.9735,0.5049120790829789,1.231300012689736
-3.973,0.5049120790829789,1.167720182258731
-3.9725,0.4729015545099309,1.093543713422559
-3.972,0.4195506802215176,1.029963882991555
-3.9715,0.3661998059331045,1.00877060618122
-3.971,0.2808384070716433,1.040560521396722
-3.9705,-0.2526703358124887,0.6908714540261965
-3.97,-1.074273799854052,0.383568940276341
-3.9695,-1.87453691418025,-0.1462629799820306
-3.969,-2.290673733629873,-0.6972881770507372
-3.9685,-1.757164990745741,-0.6760949002404023
-3.968,-0.8822106524157645,-0.3899856633008816
-3.9675,-0.1139580626626144,-0.09327978795619347
-3.967,0.3875401556484697,0.1504428953626575
-3.9665,0.6329541773751706,0.2776025562246667
-3.966,0.7183155762366316,0.2670059178194992
-3.9655,0.7183155762366316,0.1822328105781598
-3.965,0.8783681991018712,-0.08268314955102604
-3.9645,0.9637295979633325,-0.2098428104130352
-3.964,0.8676980242441885,-0.08268314955102604
-3.9635,0.7289857510943143,0.07626642652648545
-3.963,0.6329541773751706,0.2352160026039969
-3.9625,0.6116138276598051,0.2987958330350016
-3.962,-0.1352984123779797,-0.6972881770507372
-3.9615,-0.7968492535543035,-1.587405803084801
-3.961,-1.501080794161358,-2.117237723343173
-3.9605,-2.045259711903173,-2.329170491446522
-3.96,-2.290673733629873,-2.21260746898968
-3.9595,-1.725154466172693,-1.38606967338662
-3.959,-0.9248913518464952,-0.3899856633008816
-3.9585,-0.2526703358124887,0.4153588554918433
-3.958,0.2061471830678648,0.92399749893988
-3.9575,0.4408910299368829,1.157123543853563
-3.957,0.5369226036560266,1.220703374284568
-3.9565,0.5582629533713921,1.178316820663898
-3.956,0.5369226036560266,1.093543713422559
-3.9555,0.4729015545099309,1.029963882991555
-3.955,0.408880505363835,0.9451907757502149
-3.9545,0.3235191065023739,0.9557874141553824
-3.954,-0.09261771294724913,1.104140351827727
-3.9535,-0.9782422261349084,1.125333628638062
-3.953,-1.799845690176472,0.8604176685088755
-3.9525,-2.301343908487556,0.002089957690313421
-3.952,-1.959898313041711,-0.3158091944647096
-3.9515,-1.138294849000148,-0.252229364033705
-3.951,-0.2953510352432193,-0.1886495336027004
-3.9505,0.3128489316446912,-0.1462629799820306
-3.95,0.6222840025174878,-0.1568596183871981
-3.9495,0.7289857510943143,-0.1568596183871981
-3.949,0.7183155762366316,-0.05089323433552374
-3.9485,0.7396559259519968,-0.008506680714854012
-3.948,0.857027849386506,-0.06148987274069118
-3.9475,0.8036769750980928,0.05507314971615059
-3.947,0.7183155762366316,0.2034260873884947
-3.9465,0.6863050516635838,0.2246193641988295
-3.946,0.6969752265212663,0.1716361721729923
-3.9455,0.7183155762366316,-0.08268314955102604
-3.945,0.2594980573562781,-0.5913217929990628
-3.9445,-0.1673089369510276,-0.9728007755850904
-3.944,-0.9782422261349084,-1.598002441489969
-3.9435,-1.362368521011484,-1.809935209593318
-3.943,-0.9355615267041777,-1.068170521231597
-3.9425,-0.3380317346739499,-0.1568596183871981
-3.942,0.05676473506030786,0.4895353243280153
-3.9415,0.3128489316446912,0.9028042221295453
-3.941,0.4408910299368829,1.114736990232894
-3.9405,0.4942419042252961,1.199510097474233
-3.94,0.5049120790829789,1.199510097474233
-3.9395,0.5049120790829789,1.178316820663898
-3.939,0.4729015545099309,1.157123543853563
-3.9385,0.4302208550792003,1.157123543853563
-3.938,0.3768699807907871,1.167720182258731
-3.9375,0.142126133921769,1.210106735879401
-3.937,-0.6047861061160158,0.6590815388106942
-3.9365,-1.447729919872945,0.1504428953626575
-3.936,-2.087940411333903,-0.6231117082145651
-3.9355,-2.173301810195364,-0.8562377531282487
-3.935,-1.522421143876723,-0.5913217929990628
-3.9345,-0.722158029550525,-0.2204394488182027
-3.934,-0.03926683865883591,-0.01910331912002144
-3.9335,0.3982103305061524,0.04447651131098315
-3.933,0.6222840025174878,-0.01910331912002144
-3.9325,0.6969752265212663,-0.02969995752518888
-3.932,0.7289857510943143,-0.02969995752518888
-3.9315,0.942389248247967,-0.2416327256285375
-3.931,0.9530594231056497,-0.2204394488182027
-3.9305,0.857027849386506,-0.05089323433552374
-3.93,0.7503261008096795,0.1186529801471552
-3.9295,0.6756348768059011,0.2881991946298341
-3.929,0.6542945270905358,0.2564092794143318
-3.9285,0.8143471499557753,0.2564092794143318
-3.928,1.113112045970889,0.3623756634660061
-3.9275,0.3021787567870086,-0.6337083466197325
-3.927,-0.6154562809736985,-1.205926820498774
-3.9265,-1.458400094730627,-1.703968825541643
-3.926,-1.330357996438436,-1.301296566145281
-3.9255,-0.690147504977477,-0.4323722169215513
-3.925,-0.1352984123779797,0.2776025562246667
-3.9245,0.2061471830678648,0.701468092431364
-3.924,0.3982103305061524,0.9451907757502149
-3.9235,0.4835717293676135,1.061753798207057
-3.923,0.5049120790829789,1.093543713422559
-3.9225,0.4942419042252961,1.093543713422559
-3.922,0.4515612047945656,1.125333628638062
-3.9215,0.408880505363835,1.188913459069066
-3.921,0.3021787567870086,1.305476481525908
-3.9205,-0.274010685527854,0.92399749893988
-3.92,-1.020922925565639,0.6802748156210291
-3.9195,-1.757164990745741,0.02328323450064829
-3.919,-2.066600061618538,-0.6549016234300674
-3.9185,-1.586442193022819,-0.6866915386455698
-3.918,-0.807519428411986,-0.326405832869877
-3.9175,-0.124628237520297,-0.008506680714854012
-3.917,0.3661998059331045,0.1716361721729923
-3.9165,0.6542945270905358,0.1822328105781598
-3.916,0.7716664505250448,0.1504428953626575
-3.9155,0.7609962756673623,0.1716361721729923
-3.915,0.8356874996711408,0.02328323450064829
-3.9145,0.8783681991018712,-0.1144730647665284
-3.914,0.7823366253827275,-0.04029659593035631
-3.9135,0.6756348768059011,0.1186529801471552
-3.913,0.6116138276598051,0.2140227257936621
-3.9125,0.6222840025174878,0.2352160026039969
-3.912,0.5475927785137094,-0.1250697031716958
-3.9115,0.6009436528021226,-0.5383386009732256
-3.911,-0.03926683865883591,-1.152943628472937
-3.9105,-1.223656247861609,-1.915901593644992
-3.91,-1.853196564464885,-2.032464616101834
-3.9095,-1.67180359188428,-1.481439419033127
-3.909,-0.9675720512772257,-0.5065486857577234
-3.9085,-0.2313299860971235,0.383568940276341
-3.908,0.1954770082101822,0.8816109453192104
-3.9075,0.408880505363835,1.104140351827727
-3.907,0.5049120790829789,1.178316820663898
-3.9065,0.5155822539406614,1.146526905448396
-3.906,0.5049120790829789,1.082947075017392
-3.9055,0.4622313796522482,1.040560521396722
-3.905,0.4195506802215176,1.029963882991555
-3.9045,0.3661998059331045,1.082947075017392
-3.904,0.07810508477567314,1.082947075017392
-3.9035,-0.722158029550525,0.9981739677760521
-3.903,-1.501080794161358,0.701468092431364
-3.9025,-2.002579012472442,-0.2098428104130352
-3.902,-2.023919362187807,-0.8668343915334161
-3.9015,-1.30901764672307,-0.7608680074817418
-3.901,-0.5194247072545548,-0.400582301706049
-3.9005,0.07810508477567314,-0.08268314955102604
-3.9,0.4729015545099309,0.03387987290581572
-3.8995,0.6542945270905358,0.05507314971615059
-3.899,0.7183155762366316,0.06566978812131802
-3.8985,0.79300680024041,0.01268659609548085
-3.898,0.9530594231056497,-0.1250697031716958
-3.8975,0.8997085488172365,-0.02969995752518888
-3.897,0.7716664505250448,0.1292496185523226
-3.8965,0.6436243522328531,0.2881991946298341
-3.896,0.5796033030867573,0.3729723018711736
-3.8955,0.6542945270905358,-0.08268314955102604
-3.895,0.5369226036560266,-1.354279758171118
-3.8945,1.059761171682476,-2.043061254507001
-3.894,0.4515612047945656,-2.488120067524033
-3.8935,-0.722158029550525,-2.647069643601545
-3.893,-1.074273799854052,-1.968884785670829
-3.8925,-0.754168554123573,-0.8562377531282487
-3.892,-0.3380317346739499,0.04447651131098315
-3.8915,0.04609456020262521,0.6484849004055269
-3.891,0.3021787567870086,0.9663840525605498
-3.8905,0.4408910299368829,1.082947075017392
-3.89,0.5049120790829789,1.072350436612224
-3.8895,0.5155822539406614,1.019367244586387
-3.889,0.4942419042252961,0.9557874141553824
-3.8885,0.4515612047945656,0.9134008605347127
-3.888,0.3875401556484697,0.9134008605347127
-3.8875,0.1741366584948169,0.849821030103708
-3.887,-0.572775581542968,0.2670059178194992
-3.8865,-1.458400094730627,0.05507314971615059
-3.886,-2.151961460479999,-0.5595318777835605
