Class_10_Using_Wats_App/Class_10_WatsApp_UZ_7.csv

#Digilent WaveForms Oscilloscope Acquisition
#Device Name: EExplorer
#Serial Number: SN:210151A2B84A
#Date Time: 2020-12-14 13:31:04.859
#Sample rate: 2000Hz
#Samples: 16384
#Trigger: Source: Channel 1 Type: Edge Condition: Rising Level: 0 V Hyst.: Auto HoldOff: 0 s
#Channel 1: Range: 1 V/div Offset: 0 V Attenuation: 1 X
#Channel 2: Range: 1 V/div Offset: 0 V Attenuation: 1 X
#Power Supplies: ON
#Fixed Supply: ON
#Voltage: 3.3 V Readback: 3.324 V
#Positive Supply: ON
#Voltage: 3.7 V Readback: 3.719 V
#Current: 40 mA Readback: 20 mA
#Negative Supply: ON
#Voltage: -3.7 V Readback: -3.346 V
#Current: -40 mA Readback: -7 mA
#Reference 1: ON
#Voltage: 0 V
#Reference 2: ON
#Voltage: 0 V

Time (s),Channel 1 (V),Channel 2 (V)
-4.096,0.6116138276598051,-0.3052125560595421
-4.0955,-0.007256314085225091,-0.5913217929988026
-4.095,0.1421261339221086,-0.7078848154558564
-4.0945,0.5155822539406614,-0.6549016234300674
-4.094,0.750326100809466,-0.421775578516596
-4.0935,0.7609962756672167,0.03387987290626868
-4.093,0.6009436528021226,0.5319218779486851
-4.0925,0.3982103305063368,0.8710143069137345
-4.092,0.2274875327832883,0.9451907757500414
-4.0915,0.291508581929326,0.7544512844572011
-4.091,0.4408910299368829,0.5107286011383502
-4.0905,0.3768699807906706,0.2246193641985693
-4.09,0.2488278824985954,-0.06148987274069118
-4.0895,0.1314559590640864,-0.3475991096802118
-4.089,0.02475421048735699,-0.6019184314039989
-4.0885,-0.3807124341046804,-0.4217755785163839
-4.088,-1.031593100423322,0.1292496185523226
-4.0875,-1.639793067310679,0.6166949851895812
-4.087,-2.290673733629815,0.9557874141552571
-4.0865,-2.226652684483777,0.8180311148882058
-4.086,-1.458400094731326,0.1398462569581069
-4.0855,-0.7755089038385112,-0.5277419625684341
-4.085,-0.3060212101009019,-0.9410108603695881
-4.0845,-0.02859666380140558,-1.078767159636639
-4.084,0.08877525963337519,-0.9939940523952229
-4.0835,0.1101156093487211,-0.7714646458869092
-4.083,0.09944543449103843,-0.474758770542221
-4.0825,0.07810508477566344,-0.1568596183869571
-4.082,0.0674349099179905,0.1080563417419877
-4.0815,0.07810508477567314,0.3199891098453364
-4.081,0.1314559590640378,0.4471487707072299
-4.0805,0.1848068333524996,0.55311515475902
-4.08,0.5155822539406614,0.2670059178194992
-4.0795,0.5262524287983344,-0.1568596183868126
-4.079,-0.1032878878049997,-0.3687923864904889
-4.0785,-0.1779791118087102,-0.3052125560595421
-4.078,0.2061471830675154,-0.2840192792492265
-4.0775,0.5796033030869029,-0.220439448817981
-4.077,0.7396559259519968,0.02328323450064829
-4.0765,0.6649647019482863,0.3623756634656977
-4.076,0.5049120790828139,0.5955017083798149
-4.0755,0.3235191065023739,0.7332580076468663
-4.075,0.2168173579255475,0.775644561267536
-4.0745,0.2274875327831913,0.7862411996724914
-4.074,0.1848068333524996,0.55311515475902
-4.0735,0.1101156093487211,0.2034260873884947
-4.073,0.05676473506035638,-0.1674562567920282
-4.0725,0.00341386077189465,-0.4853554089473885
-4.072,-0.2206598112394408,-0.4323722169215513
-4.0715,-0.8181896032691252,0.09745970333633852
-4.071,-1.543761493592671,0.637888262000687
-4.0705,-2.183971985053047,0.9981739677760521
-4.07,-2.514747405640908,1.093543713422472
-4.0695,-1.86386673932185,0.5637117931635224
-4.069,-1.074273799854052,-0.1674562567923655
-4.0685,-0.4874141826815069,-0.718481453861072
-4.068,-0.1139580626624494,-0.9833974139902578
-4.0675,0.0674349099179905,-0.9833974139902578
-4.067,0.1207857842064037,-0.8138511995075789
-4.0665,0.1101156093487017,-0.5489352393781136
-4.066,0.08877525963335578,-0.2416327256285375
-4.0655,0.0674349099179905,0.04447651131098315
-4.065,0.0674349099179905,0.2881991946296125
-4.0645,0.08877525963335578,0.4683420475176805
-4.064,0.142126133921769,0.55311515475902
-4.0635,0.4195506802212653,0.3835689402764952
-4.063,0.4942419042246751,-0.06148987274104777
-4.0625,-0.1886492866663929,-0.4535654937318862
-4.062,-0.5834457564002915,-0.6866915386453577
-4.0615,-0.1566387620928889,-0.7396747306712912
-4.061,0.3448594562177392,-0.6125150698093976
-4.0605,0.6436243522328531,-0.2840192792492073
-4.06,0.6756348768057652,0.1822328105785646
-4.0595,0.5262524287983441,0.627291623595192
-4.059,0.3448594562177392,0.8604176685088755
-4.0585,0.195477008210318,0.8922075837243489
-4.058,0.2274875327832301,0.849821030103708
-4.0575,0.2274875327832301,0.6378882620003594
-4.057,0.1634664836371925,0.3093924714404677
-4.0565,0.09944543449103843,-0.02969995752518888
-4.056,0.04609456020262521,-0.3687923864905467
-4.0555,-0.1352984123778147,-0.4853554089472825
-4.055,-0.7114878546934924,-0.04029659592985516
-4.0545,-1.426389570157579,0.5107286011383502
-4.054,-2.055929886760283,0.9239974989395041
-4.0535,-2.461396531352281,1.104140351827322
-4.053,-1.895877263895616,0.6590815388106942
-4.0525,-1.127624674142465,-0.08268314955102604
-4.052,-0.5300948821118879,-0.6760949002406722
-4.0515,-0.1459685872356623,-0.9728007755850904
-4.051,0.05676473506030786,-1.004590690800593
-4.0505,0.1207857842063455,-0.8668343915335415
-4.05,0.1207857842064037,-0.6125150698093976
-4.0495,0.09944543449103843,-0.3052125560595421
-4.049,0.07810508477569256,-0.008506680715123838
-4.0485,0.07810508477569256,0.2458126410093282
-4.048,0.09944543449103843,0.4259554938970107
-4.0475,0.2274875327831136,0.415358855491853
-4.047,0.6863050516642437,0.1398462569571334
-4.0465,1.411876941986003,-0.252229364033705
-4.046,1.454557641416695,-0.3370024712749674
-4.0455,0.825017324813361,-0.1674562567924041
-4.045,0.7183155762366316,-0.2098428104130352
-4.0445,0.8143471499557753,-0.2946159176543747
-4.044,0.8570278493864381,-0.2204394488179039
-4.0435,0.7823366253827275,0.1080563417419877
-4.043,0.5902734779444399,0.5213252395435176
-4.0425,0.3661998059333083,0.7968378380776203
-4.042,0.1954770082101822,0.8710143069140429
-4.0415,0.2488278824985954,0.8604176685088755
-4.041,0.3448594562176518,0.7438546460521398
-4.0405,0.291508581929229,0.425955493896683
-4.04,0.1848068333524996,0.06566978812131802
-4.0395,0.09944543449111606,-0.2734226408437314
-4.039,-0.007256314086185871,-0.5595318777833966
-4.0385,-0.4447334832507763,-0.3793890248957141
-4.038,-1.180975548430209,0.2034260873879646
-4.0375,-1.885207089038457,0.722661369241988
-4.037,-2.461396531352796,1.040560521396722
-4.0365,-2.226652684483777,0.8392243916985406
-4.036,-1.383708870726237,0.15044289536206
-4.0355,-0.7114878546928423,-0.5065486857577234
-4.035,-0.2420001609548061,-0.8986243067489184
-4.0345,0.00341386077167144,-1.025783967610812
-4.034,0.1101156093487211,-0.9410108603695881
-4.0335,0.1314559590640864,-0.718481453861072
-4.033,0.1101156093487405,-0.4323722169218115
-4.0325,0.07810508477567314,-0.1356663415766222
-4.032,0.07810508477567314,0.1292496185523226
-4.0315,0.08877525963334608,0.3305857482503207
-4.031,0.1101156093488278,0.510728601138379
-4.0305,0.2274875327832301,0.5425185163538525
-4.03,0.5475927785134183,0.1398462569578562
-4.0295,0.4515612047939833,-0.2310360872234472
-4.029,-0.1886492866663929,-0.3158091944647096
-4.0285,-0.2420001609548061,-0.4217755785163839
-4.028,0.1741366584951663,-0.4747587705421536
-4.0275,0.5582629533713921,-0.400582301706049
-4.027,0.707645401378949,-0.1144730647665284
-4.0265,0.6329541773752385,0.2776025562243101
-4.026,0.4622313796522482,0.627291623595192
-4.0255,0.2808384070716433,0.7968378380778709
-4.025,0.1848068333525869,0.7968378380778709
-4.0245,0.1954770082101531,0.6908714540259653
-4.024,0.1634664836371343,0.4365521323021782
-4.0235,0.1101156093487696,0.1080563417422865
-4.023,0.05676473506026904,-0.2204394488184532
-4.0225,0.01408403562957729,-0.4959520473525559
-4.022,-0.1779791118085355,-0.4535654937319248
-4.0215,-0.7541685541242329,0.02328323450112053
-4.021,-1.479740444445993,0.5425185163538525
-4.0205,-2.130621110764634,0.8180311148882058
-4.02,-2.493407055925261,0.8392243916980779
-4.0195,-1.853196564464885,0.3305857482505039
-4.019,-1.074273799854052,-0.3581957480853793
-4.0185,-0.4767440078243678,-0.8456411147226379
-4.018,-0.1139580626626144,-1.068170521231597
-4.0175,0.0674349099179905,-1.046977244421262
-4.017,0.1314559590640281,-0.8562377531284222
-4.0165,0.1314559590640572,-0.5701285161884388
-4.016,0.09944543449103843,-0.252229364033705
-4.0155,0.07810508477569256,0.04447651131071334
-4.015,0.08877525963336548,0.298795833035175
-4.0145,0.09944543449103843,0.4895353243280153
-4.014,0.1421261339217302,0.6060983467847511
-4.0135,0.2915085819297724,0.5637117931638116
-4.013,0.7823366253827275,0.1504428953626575
-4.0125,0.5475927785137094,-0.2310360872233701
-4.012,0.2915085819295201,-0.46416213213715
-4.0115,0.5049120790829789,-0.570128516188728
-4.011,0.7503261008096795,-0.4853554089473885
-4.0105,0.8463576745287359,-0.2204394488184436
-4.01,0.7609962756673623,0.1822328105781598
-4.0095,0.5689331282290746,0.5743084315693548
-4.009,0.3555296310756159,0.8180311148879842
-4.0085,0.1954770082102598,0.8498210301037273
-4.008,0.2808384070716433,0.8710143069140429
-4.0075,0.2915085819293163,0.6378882620005715
-4.007,0.2168173579254796,0.224619364198444
-4.0065,0.142126133921769,-0.1992461720078678
-4.006,0.05676473506030786,-0.5595318777835605
-4.0055,-0.04993701351690673,-0.7714646458866201
-4.005,-0.4767440078238243,-0.4535654937318862
-4.0045,-1.138294849000148,0.08686306493165288
-4.004,-1.72515446617314,0.5425185163540838
-4.0035,-2.215982509626095,0.7968378380778709
-4.003,-1.83185621474952,0.457745409112513
-4.0025,-1.127624674143106,-0.1992461720072702
-4.002,-0.5514352318276028,-0.718481453861072
-4.0015,-0.1673089369510276,-0.9728007755850904
-4.001,0.04609456020243111,-0.9728007755850904
-4.0005,0.1207857842064037,-0.7926579226969838
-4,0.1207857842064037,-0.5065486857577234
-3.9995,0.1101156093487211,-0.1780528951975329
-3.999,0.08877525963335578,0.1504428953626575
-3.9985,0.07810508477567314,0.4153588554918433
-3.998,0.09944543449103843,0.6166949851900245
-3.9975,0.142126133921769,0.7544512844572011
-3.997,0.4195506802215176,0.6378882620003594
-3.9965,1.049090996824793,0.2352160026039969
-3.996,0.7823366253827275,-0.08268314955102604
-3.9955,0.1634664836371343,-0.3052125560595421
-3.995,0.3128489316446912,-0.4429688553267188
-3.9945,0.6116138276598051,-0.4217755785163839
-3.994,0.7823366253827275,-0.1780528951975329
-3.9935,0.7609962756673623,0.2564092794143318
-3.993,0.6009436528021226,0.6166949851900245
-3.9925,0.408880505363835,0.775644561267536
-3.992,0.2488278824985954,0.775644561267536
-3.9915,0.1527963087794516,0.7650479228623686
-3.991,0.09944543449103843,0.6378882620003594
-3.9905,0.05676473506030786,0.2776025562246667
-3.99,0.02475421048725994,-0.1462629799820306
-3.9895,0.00341386077189465,-0.5065486857577234
-3.989,-0.01792648894347063,-0.7714646458869092
-3.9885,-0.3166913849585846,-0.5913217929990628
-3.988,-0.9995825758502737,-0.01910331912002144
-3.9875,-1.725154466172693,0.5319218779486851
-3.987,-2.322684258202921,0.8074344764830383
-3.9865,-2.215982509626095,0.6802748156210291
-3.986,-1.426389570157579,0.07626642652648545
-3.9855,-0.7434983792658902,-0.5171453241628908
-3.985,-0.274010685527854,-0.8562377531282487
-3.9845,-0.007256314085787988,-0.9410108603695881
-3.984,0.1101156093487211,-0.8138511995075789
-3.9835,0.1314559590640864,-0.570128516188728
-3.983,0.1207857842064037,-0.2628260024388724
-3.9825,0.09944543449103843,0.05507314971615059
-3.982,0.07810508477567314,0.3411823866556712
-3.9815,0.08877525963335578,0.55311515475902
-3.981,0.1314559590640864,0.6590815388106942
-3.9805,0.2701682322139607,0.627291623595192
-3.98,0.825017324813458,0.2564092794143318
-3.9795,0.9850699476786977,-0.02969995752518888
-3.979,0.3341892813600565,-0.1780528951975329
-3.9785,0.2061471830678648,-0.2310360872233701
-3.978,0.4942419042252961,-0.3158091944647096
-3.9775,0.7396559259519968,-0.3052125560595421
-3.977,0.7823366253827275,-0.08268314955102604
-3.9765,0.6329541773751706,0.3305857482505039
-3.976,0.4195506802215176,0.6378882620003594
-3.9755,0.2488278824985954,0.7438546460520338
-3.975,0.1634664836371343,0.7332580076468663
-3.9745,0.142126133921769,0.6802748156210291
-3.974,0.1101156093487211,0.3941655786815084
-3.9735,0.0674349099179905,0.03387987290581572
-3.973,0.03542438534494258,-0.3052125560595421
-3.9725,0.00341386077189465,-0.6231117082145651
-3.972,-0.2420001609548061,-0.6125150698093976
-3.9715,-0.9142211769888124,-0.09327978795619347
-3.971,-1.629122892453549,0.4683420475176805
-3.9705,-2.269333383914508,0.7438546460520338
-3.97,-2.536087755356574,0.7332580076468663
-3.9695,-1.927887788468663,0.3199891098453364
-3.969,-1.1062843244271,-0.2946159176543747
-3.9685,-0.4980843575391895,-0.7608680074817418
-3.968,-0.1139580626626144,-0.9516074987747555
-3.9675,0.07810508477567314,-0.9198175835592532
-3.967,0.142126133921769,-0.7290780922662394
-3.9665,0.142126133921769,-0.4535654937318862
-3.966,0.1101156093487211,-0.1356663415768632
-3.9655,0.09944543449103843,0.1610395337678249
-3.965,0.1101156093487211,0.3623756634660061
-3.9645,0.1527963087794516,0.4895353243280153
-3.964,0.2381577076409128,0.5213252395435176
-3.9635,0.6649647019482183,0.2034260873884947
-3.963,1.15579274540162,-0.2416327256285375
-3.9625,0.8997085488172365,-0.570128516188728
-3.962,0.6969752265212663,-0.7290780922662394
-3.9615,1.049090996824793,-0.7820612842920766
-3.961,1.241154144263081,-0.7078848154559045
-3.9605,1.209143619690033,-0.5065486857577234
-3.96,0.9850699476786977,-0.08268314955102604
-3.9595,0.6969752265212663,0.383568940276341
-3.959,0.4195506802215176,0.6484849004055269
-3.9585,0.2168173579255475,0.7120647308365314
-3.958,0.2061471830678648,0.627291623595192
-3.9575,0.1848068333524996,0.4259554938970107
-3.957,0.1314559590640864,0.13984625695749
-3.9565,0.07810508477567314,-0.1674562567923655
-3.956,0.03542438534494258,-0.4641621321370536
-3.9555,-0.08194753808956648,-0.6443049850249
-3.955,-0.6367966306890638,-0.3052125560595421
-3.9545,-1.373038695869166,0.2776025562246667
-3.954,-1.991908837614759,0.6908714540261965
-3.9535,-2.482736881068161,0.6378882620003594
-3.953,-2.151961460479999,0.3941655786815084
-3.9525,-1.319687821580753,-0.1250697031716958
-3.952,-0.658136980404429,-0.570128516188728
-3.9515,-0.2099896363817582,-0.8032545611024114
-3.951,0.03542438534494258,-0.8350444763179138
-3.9505,0.1207857842064037,-0.718481453861072
-3.95,0.142126133921769,-0.5171453241628908
-3.9495,0.1207857842064037,-0.2628260024388724
-3.949,0.09944543449103843,-0.01910331912002144
-3.9485,0.08877525963335578,0.1822328105781598
-3.948,0.09944543449103843,0.3517790250608387
-3.9475,0.1527963087794516,0.4259554938970107
-3.947,0.4302208550792003,0.2670059178194992
-3.9465,1.038420821967111,-0.1886495336027004
-3.946,1.027750647109428,-0.5383386009732256
-3.9455,0.4408910299368829,-0.6654982618352349
-3.945,0.4942419042252961,-0.7608680074817418
-3.9445,0.7716664505250448,-0.7608680074817418
-3.944,0.9103787236749192,-0.5913217929990628
-3.9435,0.8463576745288233,-0.1886495336027004
-3.943,0.6436243522328531,0.3199891098453364
-3.9425,0.408880505363835,0.6696781772158616
-3.942,0.2168173579255475,0.7862411996727035
-3.9415,0.2061471830678648,0.7968378380778709
-3.941,0.2701682322139607,0.6802748156210291
-3.9405,0.2274875327832301,0.383568940276341
-3.94,0.1527963087794516,0.05507314971615059
-3.9395,0.08877525963335578,-0.2628260024388724
-3.939,0.02475421048725994,-0.5171453241628908
-3.9385,-0.2526703358124887,-0.3793890248957141
-3.938,-0.9035510021311299,0.1822328105781598
-3.9375,-1.607782542738184,0.7226613692416989
-3.937,-2.205312334768412,1.051157159801889
-3.9365,-2.03458953704549,0.8392243916985406
-3.936,-1.30901764672307,0.1504428953626575
-3.9355,-0.6794773301197943,-0.4959520473525559
-3.935,-0.2313299860971235,-0.8774310299385835
-3.9345,0.01408403562957729,-0.9939940523954253
-3.934,0.1101156093487211,-0.9092209451540858
-3.9335,0.1314559590640864,-0.6972881770507372
-3.933,0.1207857842064037,-0.4217755785163839
-3.9325,0.08877525963335578,-0.1356663415768632
-3.932,0.08877525963335578,0.1186529801471552
-3.9315,0.09944543449103843,0.3199891098453364
-3.931,0.1314559590640864,0.4365521323021782
-3.9305,0.1314559590640864,0.6060983467848571
-3.93,0.2701682322139607,0.4683420475176805
-3.9295,0.3768699807907871,0.002089957690313421
-3.929,-0.1139580626626144,-0.4323722169215513
-3.9285,-0.1032878878049318,-0.6549016234300674
-3.928,0.291508581929326,-0.6866915386455698
-3.9275,0.6222840025174878,-0.474758770542221
-3.927,0.7503261008096795,-0.04029659593035631
-3.9265,0.6649647019482183,0.5001319627331828
-3.926,0.5049120790829789,0.8604176685088755
-3.9255,0.3341892813600565,0.9451907757502149
-3.925,0.1741366584948169,0.9028042221295453
-3.9245,0.02475421048725994,0.7862411996727035
-3.924,-0.02859666380115328,0.457745409112513
-3.9235,-0.03926683865883591,0.08686306493165288
-3.923,-0.02859666380115328,-0.2628260024388724
-3.9225,-0.01792648894347063,-0.5595318777835605
-3.922,-0.1779791118087102,-0.5913217929990628
-3.9215,-0.754168554123573,-0.1038764263613609
-3.921,-1.437059745015262,0.4683420475176805
-3.9205,-2.066600061618538,0.7544512844572011
-3.92,-2.493407055925843,0.6908714540261965
-3.9195,-1.917217613610981,0.3305857482505039
-3.919,-1.116954499284783,-0.2098428104130352
-3.9185,-0.5087545323968721,-0.6125150698093976
-3.918,-0.124628237520297,-0.792657922697244
-3.9175,0.07810508477567314,-0.7608680074817418
-3.917,0.142126133921769,-0.6019184314042303
-3.9165,0.142126133921769,-0.3581957480853793
-3.916,0.1207857842064037,-0.09327978795619347
-3.9155,0.09944543449103843,0.1610395337678249
-3.915,0.09944543449103843,0.3517790250608387
-3.9145,0.1207857842064037,0.4895353243280153
-3.914,0.1848068333524996,0.5213252395435176
-3.9135,0.6436243522328531,0.2140227257936621
-3.913,1.059761171682476,-0.2310360872233701
-3.9125,0.6969752265212663,-0.4641621321370536
-3.912,0.2808384070716433,-0.6125150698093976
-3.9115,0.4729015545099309,-0.718481453861072
-3.911,0.7503261008096795,-0.7078848154559045
-3.9105,0.8783681991018712,-0.4959520473525559
-3.91,0.7823366253827275,-0.1038764263613609
-3.9095,0.5582629533713921,0.2564092794143318
-3.909,0.3448594562177392,0.5107286011383502
-3.9085,0.1954770082101822,0.5849050699745222
-3.908,0.2488278824985954,0.2352160026039969
-3.9075,0.2701682322139607,-0.06148987274069118
-3.907,0.2061471830678648,-0.252229364033705
-3.9065,0.1314559590640864,-0.4111789401112165
-3.906,0.0674349099179905,-0.5807251545938954
-3.9055,-0.06060718837420119,-0.6972881770507372
-3.905,-0.6261264558313813,-0.2946159176543747
-3.9045,-1.298347471865388,0.309392471440169
-3.904,-1.938557963326346,0.7544512844572011
-3.9035,-2.408045657064382,0.849821030103708
-3.903,-1.917217613610981,0.4895353243280153
-3.9025,-1.159635198715513,-0.1568596183871981
-3.902,-0.5407650569699201,-0.6760949002404023
-3.9015,-0.1459685872356623,-0.9304142219644207
-3.901,0.0674349099179905,-0.9622041371799229
-3.9005,0.142126133921769,-0.8138511995075789
-3.9,0.142126133921769,-0.5807251545938954
-3.8995,0.1207857842064037,-0.2946159176543747
-3.899,0.09944543449103843,0.002089957690313421
-3.8985,0.08877525963335578,0.2352160026039969
-3.898,0.1101156093487211,0.4259554938970107
-3.8975,0.1527963087794516,0.5107286011383502
-3.897,0.1848068333524996,0.5637117931641874
-3.8965,0.3235191065023739,0.2140227257936621
-3.896,-0.02859666380115328,-0.1780528951975329
-3.8955,-0.572775581542968,-0.4323722169215513
-3.895,-0.3593720843893152,-0.6125150698093976
-3.8945,0.1634664836371343,-0.6231117082145651
-3.894,0.5582629533713921,-0.4217755785163839
-3.8935,0.6969752265212663,-0.008506680714854012
-3.893,0.6116138276598051,0.5319218779486851
-3.8925,0.4408910299368829,0.8392243916985406
-3.892,0.2701682322139607,0.8922075837243778
-3.8915,0.1634664836371343,0.8604176685088755
-3.891,0.07810508477567314,0.7226613692416989
-3.8905,0.03542438534494258,0.3623756634660061
-3.89,0.02475421048725994,-0.06148987274069118
-3.8895,0.02475421048725994,-0.4535654937318862
-3.889,-0.007256314085787988,-0.7078848154559045
-3.8885,-0.4340633083930936,-0.4323722169215513
-3.888,-1.148965023857831,0.1716361721729923
