Class_10_Using_Wats_App/Class_10_WatsApp_Basim_4.csv

#Digilent WaveForms Oscilloscope Acquisition
#Device Name: EExplorer
#Serial Number: SN:210151A2B84A
#Date Time: 2020-12-15 14:00:06.858
#Sample rate: 2000Hz
#Samples: 16384
#Trigger: Source: Channel 1 Type: Edge Condition: Rising Level: 0 V Hyst.: Auto HoldOff: 0 s
#Channel 1: Range: 1 V/div Offset: 0 V Attenuation: 1 X
#Channel 2: Range: 1 V/div Offset: 0 V Attenuation: 1 X
#Power Supplies: ON
#Fixed Supply: ON
#Voltage: 3.3 V Readback: 3.321 V
#Positive Supply: ON
#Voltage: 3.7 V Readback: 3.719 V
#Current: 40 mA Readback: 19 mA
#Negative Supply: ON
#Voltage: -3.7 V Readback: -3.353 V
#Current: -40 mA Readback: -7 mA
#Reference 1: ON
#Voltage: 0 V
#Reference 2: ON
#Voltage: 0 V

Time (s),Channel 1 (V),Channel 2 (V)
-4.096,0.5902734779444399,0.2140227257936621
-4.0955,0.568933128229094,0.06566978812145294
-4.095,0.5155822539406129,-0.1038764263614958
-4.0945,0.4622313796522482,-0.252229364033705
-4.094,0.4302208550792295,-0.3899856633007563
-4.0935,0.227487532782609,-0.2204394488176051
-4.093,-0.4554036581084589,0.4365521323021782
-4.0925,-1.22365624786091,0.9451907757497523
-4.092,-1.874536914180202,0.9345941373449222
-4.0915,-1.821186039891837,0.7968378380778709
-4.091,-1.084943974711735,0.309392471440169
-4.0905,-0.4020527838195993,-0.1462629799823005
-4.09,0.08877525963335578,-0.4429688553267188
-4.0895,0.3555296310754218,-0.5489352393783931
-4.089,0.4729015545098241,-0.5171453241629197
-4.0885,0.5049120790829789,-0.400582301706049
-4.088,0.4835717293676135,-0.2416327256285375
-4.0875,0.4622313796522676,-0.06148987274085502
-4.087,0.4302208550791906,0.1080563417421419
-4.0865,0.4195506802215176,0.2776025562246667
-4.086,0.4088805053638447,0.415358855491718
-4.0855,0.3875401556481107,0.425955493896577
-4.085,-0.007256314085787988,-0.05089323433552374
-4.0845,-0.7648387289805665,-0.6760949002398337
-4.084,-1.437059745015048,-1.121153713257242
-4.0835,-1.202315898146244,-0.9092209451540858
-4.083,-0.4447334832507763,-0.4641621321370536
-4.0825,0.1207857842066851,-0.05089323433525389
-4.082,0.4302208550792003,0.2458126410091644
-4.0815,0.5475927785137094,0.3941655786815084
-4.081,0.5582629533713824,0.4259554938969818
-4.0805,0.5262524287983441,0.3729723018711736
-4.08,0.5049120790829789,0.2776025562246667
-4.0795,0.6009436528020352,0.161039533767931
-4.079,0.6222840025174393,0.04447651131088678
-4.0785,0.5689331282290746,-0.06148987274069118
-4.078,0.504912079083037,-0.1674562567922691
-4.0775,0.45156120479442,-0.2522293640336472
-4.077,0.291508581929326,-0.1886495336027004
-4.0765,-0.3380317346733773,0.362375663465505
-4.076,-1.106284324427663,0.9875773293708172
-4.0755,-1.725154466172693,0.9134008605347127
-4.075,-2.055929886760855,0.2352160026039969
-4.0745,-1.469070269587621,-0.337002471275295
-4.074,-0.7114878546928423,-0.6125150698093976
-4.0735,-0.124628237520297,-0.6760949002404023
-4.073,0.2594980573559287,-0.5913217929991399
-4.0725,0.4408910299368829,-0.4641621321370536
-4.072,0.5049120790829789,-0.3052125560595421
-4.0715,0.5049120790829789,-0.1356663415770174
-4.071,0.4729015545099114,0.01268659609561578
-4.0705,0.4515612047945656,0.1610395337678249
-4.07,0.4302208550792198,0.2987958330348763
-4.0695,0.408880505363835,0.4047622170867433
-4.069,0.408880505363835,0.4789386859228479
-4.0685,0.1741366584948169,0.1822328105781598
-4.068,-0.5194247072552342,-0.4641621321375837
-4.0675,-1.26633694729234,-1.046977244421262
-4.067,-1.426389570157579,-1.131750351662602
-4.0665,-0.7434983792652692,-0.676094900239959
-4.066,-0.06060718837420119,-0.1886495336027004
-4.0655,0.3555296310754218,0.1822328105781598
-4.065,0.5369226036558616,0.383568940276158
-4.0645,0.5689331282290746,0.4259554938970107
-4.064,0.5475927785137094,0.383568940276341
-4.0635,0.5049120790830177,0.2881991946299208
-4.063,0.5475927785137482,0.01268659609524955
-4.0625,0.5902734779444399,-0.2416327256285375
-4.062,0.5582629533714212,-0.3475991096801155
-4.0615,0.5049120790829303,-0.3899856633009105
-4.061,0.4515612047945656,-0.4217755785163839
-4.0605,0.3768699807907871,-0.4111789401112165
-4.06,-0.09261771294792845,0.04447651131159032
-4.0595,-0.839529952985034,0.7120647308365314
-4.059,-1.533091318734406,0.775644561267536
-4.0585,-2.002579012472015,0.5743084315695379
-4.058,-1.618452717595867,0.383568940276341
-4.0575,-0.8715404775580819,0.01268659609548085
-4.057,-0.2313299860977057,-0.2840192792489374
-4.0565,0.1954770082101822,-0.4323722169215513
-4.056,0.408880505363835,-0.4429688553267188
-4.0555,0.4942419042252185,-0.3581957480854564
-4.055,0.5049120790829594,-0.1992461720077136
-4.0545,0.4835717293676135,-0.02969995752518888
-4.054,0.4515612047945947,0.1504428953624937
-4.0535,0.4302208550791906,0.3093924714403039
-4.053,0.4195506802215176,0.457745409112513
-4.0525,0.408880505363835,0.5743084315693548
-4.052,0.2808384070710804,0.415358855491294
-4.0515,-0.3380317346739499,-0.1886495336027004
-4.051,-1.127624674142465,-0.8032545611024114
-4.0505,-1.629122892453093,-1.142346990067461
-4.05,-1.148965023857831,-0.8456411147230812
-4.0495,-0.4447334832507763,-0.3158091944647096
-4.049,0.09944543449054349,0.1504428953622334
-4.0485,0.4195506802216244,0.4577454091126094
-4.048,0.5369226036560266,0.5637117931641874
-4.0475,0.5582629533713727,0.5107286011383984
-4.047,0.5262524287983538,0.4153588554917277
-4.0465,0.5369226036560266,0.2881991946298341
-4.046,0.6009436528020644,0.1504428953627828
-4.0455,0.5689331282290357,-0.04029659593052979
-4.045,0.5262524287983441,-0.2310360872233701
-4.0445,0.4729015545099309,-0.4217755785163839
-4.044,0.4302208550789383,-0.5701285161885256
-4.0435,0.142126133921769,-0.3475991096802118
-4.043,-0.5834457564006506,0.3305857482505039
-4.0425,-1.319687821580083,0.7226613692413423
-4.042,-1.917217613610981,0.5319218779486851
-4.0415,-1.87453691418025,0.457745409112513
-4.041,-1.116954499285472,0.1186529801474636
-4.0405,-0.4233931335349548,-0.2310360872235629
-4.04,0.07810508477567314,-0.4429688553267188
-4.0395,0.3555296310751695,-0.5065486857576655
-4.039,0.4835717293676329,-0.4429688553266031
-4.0385,0.5049120790829789,-0.3158091944647096
-4.038,0.4942419042253058,-0.1462629799821848
-4.0375,0.4622313796522288,0.03387987290597956
-4.037,0.4408910299368829,0.2140227257936621
-4.0365,0.4195506802215176,0.3729723018711736
-4.036,0.4088805053637962,0.5107286011383502
-4.0355,0.3661998059331045,0.5107286011383502
-4.035,-0.1352984123779797,0.01268659609548085
-4.0345,-0.8502001278420666,-0.6231117082139869
-4.034,-1.458400094730627,-1.068170521231597
-4.0335,-1.191645723288561,-0.8562377531282487
-4.033,-0.4340633083937826,-0.3581957480858323
-4.0325,0.1527963087797428,0.06566978812155896
-4.032,0.4729015545099309,0.3305857482505039
-4.0315,0.590273477944333,0.4365521323020818
-4.031,0.590273477944401,0.4365521323021203
-4.0305,0.5475927785137094,0.3729723018711736
-4.03,0.5155822539406905,0.2881991946299112
-4.0295,0.6009436528021322,0.2881991946297378
-4.029,0.6116138276598051,0.1822328105781598
-4.0285,0.5582629533713921,0.01268659609548085
-4.028,0.4942419042252573,-0.156859618387333
-4.0275,0.4515612047945656,-0.3052125560595421
-4.027,0.291508581929326,-0.252229364033705
-4.0265,-0.3487019095310502,0.3093924714396582
-4.026,-1.116954499284783,0.8604176685088755
-4.0255,-1.725154466172693,0.6378882620003594
-4.025,-1.959898313041498,0.5319218779487814
-4.0245,-1.341028171295458,0.2564092794140041
-4.024,-0.6154562809736985,-0.1038764263613609
-4.0235,-0.04993701351703295,-0.3475991096799902
-4.023,0.2915085819294715,-0.4535654937318669
-4.0225,0.4515612047945656,-0.4323722169215513
-4.022,0.5049120790829303,-0.3370024712751312
-4.0215,0.4942419042252767,-0.1886495336025558
-4.021,0.4729015545099309,-0.02969995752518888
-4.0205,0.4515612047945656,0.13984625695749
-4.02,0.4302208550791906,0.277602556224792
-4.0195,0.4195506802215176,0.4153588554918433
-4.019,0.3982103305061524,0.4895353243280153
-4.0185,0.06743490991829132,0.1504428953629659
-4.018,-0.6367966306890638,-0.4959520473525559
-4.0175,-1.341028171296118,-1.046977244421262
-4.017,-1.479740444445866,-1.258910012524418
-4.0165,-0.7968492535537212,-0.9516074987741965
-4.016,-0.156638762093345,-0.3370024712750445
-4.0155,0.2594980573558996,0.1822328105776875
-4.015,0.4729015545099891,0.4789386859229346
-4.0145,0.5369226036560266,0.5743084315693548
-4.014,0.5369226036560266,0.5425185163538814
-4.0135,0.504912079083037,0.4259554938967601
-4.013,0.5689331282290746,0.1504428953626575
-4.0125,0.6222840025174878,-0.1144730647665284
-4.012,0.5796033030866992,-0.2734226408441459
-4.0115,0.5155822539406614,-0.3899856633008816
-4.011,0.4622313796522482,-0.4853554089473885
-4.0105,0.3768699807908648,-0.5277419625680198
-4.01,-0.1139580626626144,-0.06148987274069118
-4.0095,-0.8608703027003992,0.5637117931641874
-4.009,-1.447729919872411,0.3835689402765049
-4.0085,-1.821186039891517,0.1822328105780923
-4.008,-1.46907026958831,0.1080563417419877
-4.0075,-0.7755089038395691,-0.1250697031714837
-4.007,-0.1886492866660338,-0.3264058328699638
-4.0065,0.2061471830678648,-0.4217755785163839
-4.006,0.4195506802215176,-0.4217755785163839
-4.0055,0.4942419042253058,-0.3475991096801058
-4.005,0.5049120790829789,-0.2310360872233701
-4.0045,0.4835717293676135,-0.09327978795619347
-4.004,0.4515612047945461,0.05507314971627587
-4.0035,0.4302208550792003,0.1928294489833272
-4.003,0.4195506802215176,0.3199891098453364
-4.0025,0.4088805053638447,0.4153588554917566
-4.002,0.4302208550792003,0.383568940276341
-4.0015,0.2061471830678648,-0.07208651114585861
-4.001,-0.4767440078232031,-0.7184814538604841
-4.0005,-1.03159310042306,-1.089363798041682
-4,-0.7434983792658902,-0.8138511995075789
-3.9995,-0.1779791118087102,-0.3581957480853793
-3.999,0.2381577076409128,0.08686306493165288
-3.9985,0.4622313796522482,0.3623756634660061
-3.998,0.5369226036560266,0.4789386859228479
-3.9975,0.5369226036560266,0.4683420475176805
-3.997,0.5155822539406614,0.383568940276341
-3.9965,0.5049120790829789,0.2564092794143318
-3.996,0.5369226036560266,0.1186529801471552
-3.9955,0.5155822539406614,-0.01910331912002144
-3.995,0.4835717293676135,-0.1356663415768632
-3.9945,0.4515612047945656,-0.2416327256285375
-3.994,0.4195506802215176,-0.3158091944647096
-3.9935,0.1207857842064037,-0.04029659593035631
-3.993,-0.6047861061160158,0.627291623595192
-3.9925,-1.351698346153801,0.9981739677760521
-3.992,-1.927887788468663,0.7544512844572011
-3.9915,-1.767835165603424,0.5425185163538525
-3.991,-1.020922925565639,0.1292496185523226
-3.9905,-0.3487019095316325,-0.2416327256285375
-3.99,0.1207857842064037,-0.4535654937318862
-3.9895,0.3768699807907871,-0.4959520473525559
-3.989,0.4835717293676135,-0.4429688553267188
-3.9885,0.5049120790829789,-0.3158091944647096
-3.988,0.4835717293676135,-0.1462629799820306
-3.9875,0.4622313796522482,0.02328323450064829
-3.987,0.4408910299368829,0.1822328105781598
-3.9865,0.4195506802215176,0.3305857482505039
-3.986,0.4195506802215176,0.457745409112513
-3.9855,0.3661998059331045,0.457745409112513
-3.985,-0.1139580626626144,-0.02969995752518888
-3.9845,-0.8715404775580819,-0.6654982618352349
-3.984,-1.51175096901904,-1.131750351662602
-3.9835,-1.26633694729234,-0.9092209451540858
-3.983,-0.5300948821122373,-0.5065486857577234
-3.9825,0.05676473506030786,-0.1250697031716958
-3.982,0.3982103305061524,0.1716361721729923
-3.9815,0.5369226036560266,0.3411823866556712
-3.981,0.5582629533713921,0.3941655786815084
-3.9805,0.5369226036560266,0.3623756634660061
-3.98,0.5155822539406614,0.2881991946298341
-3.9795,0.6329541773751706,0.2881991946298341
-3.979,0.6542945270905358,0.1822328105781598
-3.9785,0.5796033030867573,0.02328323450064829
-3.978,0.5155822539406614,-0.1462629799820306
-3.9775,0.4622313796522482,-0.2840192792492073
-3.977,0.2594980573562781,-0.1992461720078678
-3.9765,-0.4020527838200457,0.3941655786815084
-3.976,-1.170305373573196,0.9028042221295453
-3.9755,-1.789175515318789,0.5107286011383502
-3.975,-2.013249187330125,-0.326405832869877
-3.9745,-1.362368521011484,-0.7608680074817418
-3.974,-0.6261264558313813,-0.8138511995075789
-3.9735,-0.06060718837420119,-0.6760949002404023
-3.973,0.291508581929326,-0.4959520473525559
-3.9725,0.4622313796522482,-0.3158091944647096
-3.972,0.5049120790829789,-0.1568596183871981
-3.9715,0.5049120790829789,-0.02969995752518888
-3.971,0.4729015545099309,0.08686306493165288
-3.9705,0.4515612047945656,0.1928294489833272
-3.97,0.4302208550792003,0.2776025562246667
-3.9695,0.4195506802215176,0.3517790250608387
-3.969,0.408880505363835,0.3729723018711736
-3.9685,0.142126133921769,-0.05089323433552374
-3.968,-0.5621054066852853,-0.7396747306714069
-3.9675,-1.277007122150022,-1.322489842955616
-3.967,-1.426389570157579,-1.545019249464132
-3.9665,-0.8181896032696687,-1.216523458903942
-3.966,-0.1886492866663929,-0.6231117082145651
-3.9655,0.2274875327832301,-0.06148987274069118
-3.965,0.4515612047945656,0.2881991946298341
-3.9645,0.5262524287983441,0.4365521323021782
-3.964,0.5369226036560266,0.4259554938970107
-3.9635,0.5049120790829789,0.3305857482505039
-3.963,0.5689331282290746,0.08686306493165288
-3.9625,0.6116138276598051,-0.1462629799820306
-3.962,0.5689331282290746,-0.2946159176543747
-3.9615,0.5155822539406614,-0.400582301706049
-3.961,0.4622313796522482,-0.474758770542221
-3.9605,0.3661998059331045,-0.474758770542221
-3.96,-0.1779791118087102,0.03387987290581572
-3.9595,-0.9569018764195432,0.7650479228623686
-3.959,-1.597112367880501,0.8816109453192104
-3.9585,-1.970568487899394,0.1186529801471552
-3.958,-1.554431668449771,-0.5065486857577234
-3.9575,-0.807519428411986,-0.6443049850249
-3.957,-0.1993194615240755,-0.5489352393783931
-3.9565,0.2061471830678648,-0.3687923864905467
-3.956,0.4195506802215176,-0.1886495336027004
-3.9555,0.5049120790829789,-0.02969995752518888
-3.955,0.5049120790829789,0.09745970333682032
-3.9545,0.4835717293676135,0.2034260873884947
-3.954,0.4515612047945656,0.2881991946298341
-3.9535,0.4302208550792003,0.3517790250608387
-3.953,0.4195506802215176,0.4047622170866759
-3.9525,0.4195506802215176,0.4259554938970107
-3.952,0.2808384070716433,0.1504428953626575
-3.9515,-0.3487019095316325,-0.5489352393783931
-3.951,-1.095614149569417,-1.227120097309109
-3.9505,-1.554431668449771,-1.587405803084801
-3.95,-1.1062843244271,-1.237716735714276
-3.9495,-0.4447334832507763,-0.6654982618352349
-3.949,0.07810508477567314,-0.1356663415768632
-3.9485,0.3875401556484697,0.1822328105781598
-3.948,0.5155822539406614,0.3199891098453364
-3.9475,0.5369226036560266,0.309392471440169
-3.947,0.5155822539406614,0.2246193641988295
-3.9465,0.5262524287983441,0.1080563417419877
-3.946,0.5475927785137094,-0.01910331912002144
-3.9455,0.5262524287983441,-0.1462629799820306
-3.945,0.4835717293676135,-0.2628260024388724
-3.9445,0.4515612047945656,-0.3687923864905467
-3.944,0.4195506802215176,-0.4323722169215513
-3.9435,0.09944543449103843,-0.1038764263613609
-3.943,-0.6261264558313813,0.6060983467848571
-3.9425,-1.383708870726849,0.9769806909657173
-3.942,-2.002579012472442,0.7544512844572011
-3.9415,-1.87453691418025,0.6166949851900245
-3.941,-1.084943974711735,0.2246193641988295
-3.9405,-0.391382608962363,-0.1356663415768632
-3.94,0.09944543449103843,-0.3370024712750445
-3.9395,0.3768699807907871,-0.3899856633008816
-3.939,0.4942419042252961,-0.3158091944647096
-3.9385,0.5155822539406614,-0.1886495336027004
-3.938,0.4942419042252961,-0.01910331912002144
-3.9375,0.4729015545099309,0.1504428953626575
-3.937,0.4408910299368829,0.309392471440169
-3.9365,0.4302208550792003,0.4471487707073456
-3.936,0.4195506802215176,0.5637117931641874
-3.9355,0.3982103305061524,0.5001319627331828
-3.935,-0.04993701351651855,-0.06148987274069118
-3.9345,-0.807519428411986,-0.6972881770507372
-3.934,-1.437059745015262,-1.152943628472937
-3.9335,-1.255666772434657,-1.078767159636765
-3.933,-0.572775581542968,-0.6019184314042303
-3.9325,0.02475421048725994,-0.08268314955102604
-3.932,0.3875401556484697,0.2987958330350016
-3.9315,0.5475927785137094,0.5001319627331828
-3.931,0.5796033030867573,0.5319218779486851
-3.9305,0.5582629533713921,0.4471487707073456
-3.93,0.5369226036560266,0.3305857482505039
-3.9295,0.6329541773751706,0.309392471440169
-3.929,0.6222840025174878,0.1504428953626575
-3.9285,0.5689331282290746,-0.08268314955102604
-3.928,0.5049120790829789,-0.3158091944647096
-3.9275,0.4515612047945656,-0.5065486857577234
-3.927,0.2808384070716433,-0.4535654937318862
-3.9265,-0.3593720843893152,0.1610395337678249
-3.926,-1.074273799854052,0.6590815388106942
-3.9255,-1.650463242168915,0.3729723018711736
-3.925,-1.810515865034154,0.2881991946298341
-3.9245,-1.191645723288561,0.05507314971615059
-3.924,-0.5194247072545548,-0.2204394488182027
-3.9235,0.01408403562957729,-0.3899856633008816
-3.923,0.3235191065023739,-0.4323722169215513
-3.9225,0.4622313796522482,-0.3793890248957141
-3.922,0.5155822539406614,-0.2628260024388724
-3.9215,0.5049120790829789,-0.1038764263613609
-3.921,0.4729015545099309,0.05507314971615059
-3.9205,0.4515612047945656,0.2034260873884947
-3.92,0.4302208550792003,0.3517790250608387
-3.9195,0.4195506802215176,0.4789386859228479
-3.919,0.4195506802215176,0.5213252395435176
-3.9185,0.3021787567870086,0.1292496185523226
-3.918,-0.2953510352432193,-0.5277419625680583
-3.9175,-1.052933450138687,-1.068170521231597
-3.917,-1.383708870726849,-1.205926820498774
-3.9165,-0.9142211769888124,-0.8456411147230812
-3.916,-0.2633405106701714,-0.3158091944647096
-3.9155,0.2061471830678648,0.1504428953626575
-3.915,0.4622313796522482,0.4365521323021782
-3.9145,0.5475927785137094,0.5637117931641874
-3.914,0.5582629533713921,0.5425185163538525
-3.9135,0.5262524287983441,0.4259554938970107
-3.913,0.5796033030867573,0.2564092794143318
-3.9125,0.6009436528021226,0.06566978812131802
-3.912,0.5582629533713921,-0.1356663415768632
-3.9115,0.5049120790829789,-0.326405832869877
-3.911,0.4622313796522482,-0.4853554089473885
-3.9105,0.3661998059331045,-0.5383386009732256
-3.91,-0.1459685872356623,-0.04029659593035631
-3.9095,-0.9142211769888124,0.5849050699745222
-3.909,-1.586442193022819,0.457745409112513
-3.9085,-1.949228138184029,0.2670059178194992
-3.908,-1.437059745015262,0.09745970333682032
-3.9075,-0.7114878546928423,-0.1886495336027004
-3.907,-0.124628237520297,-0.3899856633008816
-3.9065,0.2594980573562781,-0.474758770542221
-3.906,0.4408910299368829,-0.4429688553267188
-3.9055,0.5049120790829789,-0.3370024712750445
-3.905,0.5049120790829789,-0.1992461720078678
-3.9045,0.4835717293676135,-0.04029659593035631
-3.904,0.4622313796522482,0.1292496185523226
-3.9035,0.4408910299368829,0.2776025562246667
-3.903,0.4302208550792003,0.4153588554918433
-3.9025,0.4195506802215176,0.5319218779486851
-3.902,0.2274875327832301,0.3623756634660061
-3.9015,-0.4340633083930936,-0.2416327256285375
-3.901,-1.191645723288561,-0.8562377531282487
-3.9005,-1.565101843307454,-1.110557074852267
-3.9,-0.9248913518464952,-0.7608680074817418
-3.8995,-0.1886492866663929,-0.3793890248957141
-3.899,0.2808384070716433,0.01268659609548085
-3.8985,0.5155822539406614,0.2670059178194992
-3.898,0.5902734779444399,0.383568940276341
-3.8975,0.5689331282290746,0.383568940276341
-3.897,0.5262524287983441,0.3199891098453364
-3.8965,0.5689331282290746,0.1080563417419877
-3.896,0.6756348768059011,-0.1886495336027004
-3.8955,0.6542945270905358,-0.3052125560595421
-3.895,0.5796033030867573,-0.3475991096802118
-3.8945,0.5049120790829789,-0.3687923864905467
-3.894,0.4515612047945656,-0.3899856633008816
-3.8935,0.2061471830678648,-0.1038764263613609
-3.893,-0.5194247072545548,0.55311515475902
-3.8925,-1.287677297007705,0.7226613692416989
-3.892,-1.885207089037933,0.3729723018711736
-3.8915,-1.703814116457328,0.2246193641988295
-3.891,-0.9675720512772257,-0.04029659593035631
-3.8905,-0.3166913849585846,-0.2628260024388724
-3.89,0.142126133921769,-0.3793890248957141
-3.8895,0.3875401556484697,-0.3899856633008816
-3.889,0.4942419042252961,-0.3158091944647096
-3.8885,0.5155822539406614,-0.1992461720078678
-3.888,0.4942419042252961,-0.06148987274069118
-3.8875,0.4622313796522482,0.07626642652648545
