Class_10_Using_Wats_App/Class_10_WatsApp_Basim_9.csv

#Digilent WaveForms Oscilloscope Acquisition
#Device Name: EExplorer
#Serial Number: SN:210151A2B84A
#Date Time: 2021-02-04 10:58:54.385
#Sample rate: 2000Hz
#Samples: 16384
#Trigger: Source: Channel 1 Type: Edge Condition: Rising Level: 0 V Hyst.: Auto HoldOff: 0 s
#Channel 1: Range: 1 V/div Offset: 0 V Attenuation: 1 X
#Channel 2: Range: 1 V/div Offset: 0 V Attenuation: 1 X
#Power Supplies: ON
#Fixed Supply: ON
#Voltage: 3.3 V Readback: 3.325 V
#Positive Supply: ON
#Voltage: 3.7 V Readback: 3.713 V
#Current: 40 mA Readback: 19 mA
#Negative Supply: ON
#Voltage: -3.7 V Readback: -3.354 V
#Current: -40 mA Readback: -9 mA
#Reference 1: ON
#Voltage: 0 V
#Reference 2: ON
#Voltage: 0 V

Time (s),Channel 1 (V),Channel 2 (V)
-4.096,0.09944543449103843,-0.4217755785163839
-4.0955,-0.2420001609544956,-0.9516074987742736
-4.095,-0.5300948821123441,-1.439052865412544
-4.0945,-0.6474668055467465,-1.534422611058964
-4.094,-0.3166913849588854,-1.248313374119704
-4.0935,0.05676473506051165,-1.046977244421002
-4.093,0.2808384070716433,-0.7608680074817418
-4.0925,0.3555296310753538,-0.3687923864909033
-4.092,0.3448594562177004,0.0338798729060663
-4.0915,0.3021787567870086,0.309392471440169
-4.091,0.2808384070716433,0.4789386859228479
-4.0905,0.3875401556485085,0.4365521323022071
-4.09,0.4302208550792003,0.4683420475176805
-4.0895,0.3768699807907871,0.5319218779486851
-4.089,0.3128489316447495,0.5743084315693163
-4.0885,0.2594980573562781,0.5955017083796896
-4.088,0.2168173579255475,0.6378882620003594
-4.0875,-0.1886492866660241,0.9557874141550933
-4.087,-0.8822106524160361,1.072350436611521
-4.0865,-1.180975548430879,0.2987958330350016
-4.086,-1.074273799854149,-0.548935239377622
-4.0855,-0.7114878546924832,-0.8032545611023247
-4.085,-0.3166913849585846,-0.7078848154559045
-4.0845,-0.02859666380141529,-0.5277419625682221
-4.084,0.1421261339218369,-0.3687923864904504
-4.0835,0.2168173579255475,-0.2628260024388724
-4.083,0.2274875327832301,-0.2098428104130352
-4.0825,0.2274875327832107,-0.1886495336026907
-4.082,0.2061471830678648,-0.1780528951975329
-4.0815,0.1848068333524996,-0.1674562567923655
-4.081,0.1741366584948266,-0.1462629799820499
-4.0805,0.1741366584948169,-0.1250697031716958
-4.08,0.1634664836371343,-0.09327978795619347
-4.0795,0.1421261339217884,-0.09327978795619347
-4.079,-0.2633405106705693,-0.49595204735298
-4.0785,-0.7008176798351597,-0.9622041371799229
-4.078,-0.7968492535542161,-1.205926820498552
-4.0775,-0.4554036581080416,-1.099960436447061
-4.077,0.00341386077189465,-1.05757388282643
-4.0765,0.291508581929064,-0.8986243067490629
-4.076,0.38754015564846,-0.5701285161883617
-4.0755,0.3768699807907871,-0.1674562567923655
-4.075,0.3341892813600565,0.1822328105781598
-4.0745,0.280838407071721,0.4153588554918433
-4.074,0.3661998059331045,0.4153588554918433
-4.0735,0.4835717293676135,0.3623756634660061
-4.073,0.4515612047945947,0.3835689402763218
-4.0725,0.3661998059331045,0.4153588554918433
-4.072,0.3021787567870086,0.4365521323021782
-4.0715,0.238157707640971,0.4047622170867048
-4.071,0.08877525963277351,0.4683420475180949
-4.0705,-0.5514352318276028,0.92399749893988
-4.07,-1.309017646722381,1.188913459068825
-4.0695,-1.714484291315059,0.521325239543161
-4.069,-1.767835165603424,0.1292496185523226
-4.0685,-1.244996597576974,-0.07208651114585861
-4.068,-0.6474668055463195,-0.2310360872234665
-4.0675,-0.1779791118087102,-0.3370024712750445
-4.067,0.08877525963335578,-0.3687923864905467
-4.0665,0.2168173579255863,-0.3581957480853408
-4.066,0.2594980573562781,-0.3158091944647096
-4.0655,0.2488278824985954,-0.252229364033705
-4.065,0.2168173579255766,-0.1780528951976004
-4.0645,0.1954770082101822,-0.1038764263613609
-4.064,0.1848068333524996,-0.008506680714854012
-4.0635,0.1741366584948266,0.07626642652640835
-4.063,0.174136658494681,0.1716361721728671
-4.0625,0.02475421048725994,0.03387987290581572
-4.062,-0.1886492866661988,-0.2628260024386025
-4.0615,-0.4980843575391604,-0.7290780922666827
-4.061,-0.4660738329661415,-1.216523458903942
-4.0605,-0.02859666380115328,-1.364876396576285
-4.06,0.2701682322140674,-1.121153713257001
-4.0595,0.3875401556484697,-0.6443049850249
-4.059,0.3661998059331045,-0.07208651114585861
-4.0585,0.3235191065024127,0.3835689402759266
-4.058,0.2808384070716433,0.6590815388106942
-4.0575,0.291508581929326,0.7968378380778709
-4.057,0.5262524287981306,1.051157159801658
-4.0565,0.5902734779444399,0.9981739677760521
-4.056,0.5049120790829789,0.6908714540261965
-4.0555,0.4088805053639224,0.3835689402766205
-4.055,0.3128489316446233,0.1716361721729152
-4.0545,0.2381577076409128,0.08686306493165288
-4.054,-0.2206598112390236,0.3729723018709133
-4.0535,-1.020922925566076,0.1610395337671599
-4.053,-1.501080794161358,-0.570128516188728
-4.0525,-1.277007122150022,-0.8562377531282487
-4.052,-0.7755089038385112,-0.7290780922660082
-4.0515,-0.3060212101009019,-0.474758770542221
-4.051,0.00341386077189465,-0.252229364033705
-4.0505,0.1741366584946616,-0.1038764263614958
-4.05,0.2381577076409128,-0.01910331912002144
-4.0495,0.2488278824985954,0.03387987290581572
-4.049,0.2381577076409225,0.05507314971613131
-4.0485,0.2168173579255281,0.06566978812133729
-4.048,0.1954770082101822,0.08686306493165288
-4.0475,0.1848068333525093,0.09745970333681067
-4.047,0.1741366584948169,0.1186529801471648
-4.0465,0.1741366584948169,0.1292496185523226
-4.046,0.1207857842064522,-0.02969995752504431
-4.0455,-0.1566387620938399,-0.5701285161893351
-4.045,-0.7008176798351597,-1.237716735714276
-4.0445,-0.7648387289812555,-1.725162102351978
-4.044,-0.1673089369506103,-2.043061254506808
-4.0435,0.291508581929326,-1.831128486403653
-4.043,0.4835717293676135,-1.301296566145281
-4.0425,0.4835717293676135,-0.6654982618358131
-4.042,0.3982103305061524,-0.1038764263613609
-4.0415,0.3235191065023739,0.2246193641988295
-4.041,0.2701682322140092,0.3729723018710387
-4.0405,0.3875401556485085,0.5425185163538814
-4.04,0.4302208550792003,0.5743084315693548
-4.0395,0.3875401556485085,0.4577454091126191
-4.039,0.3128489316446427,0.2987958330348666
-4.0385,0.2594980573562781,0.1504428953626575
-4.038,0.2168173579255863,0.01268659609560613
-4.0375,-0.06060718837485139,0.2564092794144571
-4.037,-0.7755089038389382,0.3941655786815084
-4.0365,-1.30901764672307,-0.2628260024388724
-4.036,-1.244996597576586,-0.7502713690765455
-4.0355,-0.8181896032696687,-0.718481453861072
-4.035,-0.3700422592469978,-0.5065486857577234
-4.0345,-0.03926683865913672,-0.2734226408442518
-4.034,0.142126133921769,-0.09327978795619347
-4.0335,0.2274875327832301,0.01268659609548085
-4.033,0.238157707640903,0.08686306493158542
-4.0325,0.2381577076408934,0.1186529801471841
-4.032,0.2168173579255475,0.1504428953626575
-4.0315,0.1954770082102016,0.1610395337678153
-4.031,0.1848068333524802,0.1716361721729731
-4.0305,0.1634664836371343,0.1504428953626575
-4.03,0.1634664836371343,0.1610395337678153
-4.0295,0.1314559590637467,0.08686306493119991
-4.029,-0.2420001609548061,-0.4111789401112165
-4.0285,-0.5407650569699201,-0.8456411147230812
-4.028,-0.8715404775579461,-1.33308648136112
-4.0275,-0.722158029550525,-1.703968825541643
-4.027,-0.2633405106701714,-1.703968825541643
-4.0265,0.1101156093483814,-1.343683119766278
-4.026,0.2808384070716433,-0.8138511995075789
-4.0255,0.3341892813600565,-0.3052125560595421
-4.025,0.3128489316447107,0.06566978812098068
-4.0245,0.2808384070717015,0.2881991946300269
-4.024,0.3448594562177392,0.5001319627331828
-4.0235,0.4302208550791227,0.6166949851899185
-4.023,0.3982103305061136,0.5319218779485502
-4.0225,0.3555296310754218,0.383568940276341
-4.022,0.31284893164473,0.2140227257938163
-4.0215,0.2701682322138249,0.06566978812133729
-4.021,0.1207857842064037,0.08686306493165288
-4.0205,-0.5194247072545548,0.5319218779486851
-4.02,-1.30901764672339,0.4153588554912361
-4.0195,-1.661133417026597,-0.252229364033705
-4.019,-1.277007122150022,-0.5171453241628908
-4.0185,-0.7114878546933566,-0.4959520473525752
-4.018,-0.2420001609548061,-0.3581957480853793
-4.0175,0.05676473506030786,-0.2098428104130352
-4.017,0.206147183067729,-0.09327978795629949
-4.0165,0.2594980573562781,0.002089957690371247
-4.016,0.2594980573562781,0.06566978812131802
-4.0155,0.2381577076409322,0.118652980147107
-4.015,0.2168173579255281,0.1716361721730213
-4.0145,0.1954770082101822,0.2034260873884947
-4.014,0.1848068333525093,0.2140227257936524
-4.0135,0.1741366584948169,0.245812641009174
-4.013,0.1741366584948169,0.2564092794143318
-4.0125,0.04609456020262521,0.04447651131098315
-4.012,-0.2633405106703946,-0.4853554089478318
-4.0115,-0.5087545323968721,-0.9728007755850904
-4.011,-0.572775581542968,-1.417859588602123
-4.0105,-0.2526703358127799,-1.523825972653701
-4.01,0.0674349099179905,-1.280103289334946
-4.0095,0.2488278824985954,-0.8350444763179138
-4.009,0.3021787567869601,-0.3687923864909708
-4.0085,0.3128489316446622,0.01268659609573143
-4.008,0.2808384070716433,0.2881991946298341
-4.0075,0.3128489316446621,0.4047622170865698
-4.007,0.4622313796522482,0.2564092794142643
-4.0065,0.4622313796522482,0.1822328105781598
-4.006,0.3875401556484697,0.1610395337678249
-4.0055,0.3235191065023448,0.1398462569575864
-4.005,0.291508581929326,0.2458126410091644
-4.0045,0.2488278824985954,0.2776025562246667
-4.004,-0.2099896363823016,0.4577454091121275
-4.0035,-0.807519428411986,0.03387987290581572
-4.003,-1.127624674142465,-0.718481453861072
-4.0025,-1.479740444445672,-0.6019184314043363
-4.002,-1.479740444445993,-0.06148987274069118
-4.0015,-0.9995825758502737,0.05507314971615059
-4.001,-0.4874141826819727,-0.04029659593026957
-4.0005,-0.09261771294704534,-0.1674562567924426
-4,0.1314559590640864,-0.252229364033705
-3.9995,0.2274875327832301,-0.2840192792492073
-3.999,0.2594980573562781,-0.252229364033705
-3.9985,0.2488278824985954,-0.1886495336027004
-3.998,0.2274875327832301,-0.1038764263613609
-3.9975,0.2061471830678648,0.002089957690313421
-3.997,0.1954770082101822,0.08686306493165288
-3.9965,0.1848068333524996,0.1610395337678249
-3.996,0.09944543449103843,0.1292496185523226
-3.9955,-0.3593720843893152,-0.3052125560595421
-3.995,-0.6367966306890638,-0.6337083466197325
-3.9945,-0.754168554123573,-0.9410108603695881
-3.994,-0.4767440078238243,-1.05757388282643
-3.9935,-0.09261771294724913,-0.8668343915334161
-3.993,0.1527963087794516,-0.4853554089473885
-3.9925,0.2594980573562781,-0.04029659593035631
-3.992,0.291508581929326,0.3517790250608387
-3.9915,0.291508581929326,0.5955017083796896
-3.991,0.2808384070716433,0.701468092431364
-3.9905,0.4408910299368829,0.8286277532933731
-3.99,0.4942419042252961,0.7650479228623686
-3.9895,0.4408910299368829,0.5637117931641874
-3.989,0.3555296310754218,0.3411823866556712
-3.9885,0.291508581929326,0.1504428953626575
-3.988,0.2488278824985954,0.02328323450064829
-3.9875,0.01408403562957729,0.309392471440169
-3.987,-0.6367966306890638,0.6802748156210291
-3.9865,-0.9995825758502737,0.1610395337678249
-3.986,-1.031593100423322,-0.3793890248957141
-3.9855,-0.722158029550525,-0.5171453241628908
-3.985,-0.3380317346739499,-0.474758770542221
-3.9845,-0.04993701351651855,-0.3793890248957141
-3.984,0.1314559590640864,-0.2840192792492073
-3.9835,0.2168173579255475,-0.1992461720078678
-3.983,0.2381577076409128,-0.1356663415768632
-3.9825,0.2381577076409128,-0.07208651114585861
-3.982,0.2274875327832301,-0.01910331912002144
-3.9815,0.2061471830678648,0.03387987290581572
-3.981,0.1954770082101822,0.08686306493165288
-3.9805,0.1848068333524996,0.13984625695749
-3.98,0.1848068333524996,0.1716361721729923
-3.9795,0.1741366584948169,0.1822328105781598
-3.979,-0.01792648894347063,-0.1250697031716958
-3.9785,-0.391382608962363,-0.6337083466197325
-3.978,-0.807519428411986,-1.152943628472937
-3.9775,-0.658136980404429,-1.280103289334946
-3.977,-0.2633405106701714,-1.05757388282643
-3.9765,0.04609456020262521,-0.6443049850249
-3.976,0.2168173579255475,-0.1886495336027004
-3.9755,0.291508581929326,0.2034260873884947
-3.975,0.3021787567870086,0.4365521323021782
-3.9745,0.2808384070716433,0.55311515475902
-3.974,0.3235191065023739,0.6060983467848571
-3.9735,0.3661998059331045,0.5955017083796896
-3.973,0.3448594562177392,0.5107286011383502
-3.9725,0.3021787567870086,0.383568940276341
-3.972,0.2594980573562781,0.2352160026039969
-3.9715,0.2381577076409128,0.1080563417419877
-3.971,0.1207857842064037,0.1292496185523226
-3.9705,-0.4660738329661415,0.5319218779486851
-3.97,-1.1062843244271,0.2246193641988295
-3.9695,-1.437059745015262,-0.5913217929990628
-3.969,-1.255666772434657,-0.9516074987747555
-3.9685,-0.7755089038389382,-0.8032545611024114
-3.968,-0.3166913849585846,-0.5277419625680583
-3.9675,0.00341386077189465,-0.2734226408440398
-3.967,0.1741366584948169,-0.1144730647665284
-3.9665,0.2488278824985954,-0.02969995752518888
-3.966,0.2594980573562781,0.002089957690313421
-3.9655,0.2381577076409128,0.01268659609548085
-3.965,0.2168173579255475,0.01268659609548085
-3.9645,0.2061471830678648,0.01268659609548085
-3.964,0.1848068333524996,0.002089957690313421
-3.9635,0.1848068333524996,0.01268659609548085
-3.963,0.1741366584948169,0.02328323450064829
-3.9625,-0.06060718837420119,-0.2628260024388724
-3.962,-0.4660738329661415,-0.8032545611024114
-3.9615,-0.7434983792658902,-1.311893204550448
-3.961,-0.658136980404429,-1.534422611058964
-3.9605,-0.2420001609548061,-1.439052865412457
-3.96,0.09944543449103843,-1.131750351662602
-3.9595,0.2808384070716433,-0.6866915386455698
-3.959,0.3341892813600565,-0.2204394488182027
-3.9585,0.3235191065023739,0.1186529801471552
-3.958,0.3021787567870086,0.3305857482505039
-3.9575,0.3341892813600565,0.4789386859228479
-3.957,0.5049120790829789,0.6908714540261965
-3.9565,0.5155822539406614,0.6696781772158616
-3.956,0.4302208550792003,0.5107286011383502
-3.9555,0.3341892813600565,0.3411823866556712
-3.955,0.2701682322139607,0.2034260873884947
-3.9545,0.1741366584948169,0.1716361721729923
-3.954,-0.3700422592469978,0.6166949851900245
-3.9535,-0.9675720512772257,0.7438546460520338
-3.953,-1.1062843244271,0.06566978812131802
-3.9525,-0.8608703027003992,-0.4217755785163839
-3.952,-0.4660738329661415,-0.5277419625680583
-3.9515,-0.1352984123779797,-0.4535654937318862
-3.951,0.08877525963335578,-0.3158091944647096
-3.9505,0.1954770082101822,-0.1992461720078678
-3.95,0.2381577076409128,-0.09327978795619347
-3.9495,0.2381577076409128,-0.008506680714854012
-3.949,0.2274875327832301,0.05507314971615059
-3.9485,0.2168173579255475,0.1186529801471552
-3.948,0.2061471830678648,0.1716361721729923
-3.9475,0.1848068333524996,0.2140227257936621
-3.947,0.1848068333524996,0.2564092794143318
-3.9465,0.1848068333524996,0.2670059178194992
-3.946,0.1207857842064037,0.1610395337678249
-3.9455,-0.1993194615240755,-0.3899856633008816
-3.945,-0.5194247072545548,-0.9516074987747555
-3.9445,-0.6261264558313813,-1.439052865412457
-3.944,-0.2526703358124887,-1.608599079895136
-3.9435,0.1101156093487211,-1.364876396576285
-3.943,0.3021787567870086,-0.9092209451540858
-3.9425,0.3555296310754218,-0.400582301706049
-3.942,0.3341892813600565,0.04447651131098315
-3.9415,0.3021787567870086,0.3305857482505039
-3.941,0.2808384070716433,0.4895353243280153
-3.9405,0.4835717293676135,0.7438546460520338
-3.94,0.6222840025174878,0.849821030103708
-3.9395,0.5582629533713921,0.6484849004055269
-3.939,0.4408910299368829,0.383568940276341
-3.9385,0.3768699807907871,0.2352160026039969
-3.938,0.3021787567870086,0.06566978812131802
-3.9375,-0.06060718837420119,-0.1674562567923655
-3.937,-0.7861790786966207,-0.570128516188728
-3.9365,-1.30901764672307,-1.205926820498774
-3.936,-1.458400094730627,-1.608599079895136
-3.9355,-1.06360362499637,-1.322489842955616
-3.935,-0.5621054066852853,-0.8032545611024114
-3.9345,-0.156638762093345,-0.3475991096802118
-3.934,0.09944543449103843,-0.06148987274069118
-3.9335,0.2168173579255475,0.09745970333682032
-3.933,0.2594980573562781,0.1610395337678249
-3.9325,0.2488278824985954,0.1716361721729923
-3.932,0.2381577076409128,0.1504428953626575
-3.9315,0.2168173579255475,0.13984625695749
-3.931,0.1954770082101822,0.1186529801471552
-3.9305,0.1954770082101822,0.1186529801471552
-3.93,0.1848068333524996,0.1186529801471552
-3.9295,0.1741366584948169,0.07626642652648545
-3.929,0.04609456020262521,-0.2734226408440398
-3.9285,-0.1993194615240755,-0.8244478379127463
-3.928,-0.3807124341046804,-1.269506650929778
-3.9275,-0.1673089369510276,-1.640388995110639
-3.927,0.1527963087794516,-1.661582271920973
-3.9265,0.3448594562177392,-1.364876396576285
-3.926,0.3982103305061524,-0.8774310299385835
-3.9255,0.3768699807907871,-0.3052125560595421
-3.925,0.3235191065023739,0.1610395337678249
-3.9245,0.2808384070716433,0.4047622170866759
-3.924,0.3128489316446912,0.5001319627331828
-3.9235,0.3982103305061524,0.5425185163538525
-3.923,0.3768699807907871,0.4789386859228479
-3.9225,0.3235191065023739,0.383568940276341
-3.922,0.2701682322139607,0.2458126410091644
-3.9215,0.2168173579255475,0.1186529801471552
-3.921,0.08877525963335578,0.1610395337678249
-3.9205,-0.5194247072545548,0.6802748156210291
-3.92,-1.287677297007705,0.8286277532933731
-3.9195,-1.725154466172693,0.1080563417419877
-3.919,-1.778505340461106,-0.6337083466197325
-3.9185,-1.234326422719292,-0.7502713690765743
-3.918,-0.6261264558313813,-0.5171453241628908
-3.9175,-0.1673089369510276,-0.2416327256285375
-3.917,0.1101156093487211,0.002089957690313421
-3.9165,0.2381577076409128,0.1610395337678249
-3.916,0.2701682322139607,0.2458126410091644
-3.9155,0.2594980573562781,0.2987958330350016
-3.915,0.2381577076409128,0.3199891098453364
-3.9145,0.2168173579255475,0.3199891098453364
-3.914,0.1954770082101822,0.309392471440169
-3.9135,0.1848068333524996,0.2881991946298341
-3.913,0.1848068333524996,0.2670059178194992
-3.9125,0.09944543449103843,0.002089957690313421
-3.912,-0.1352984123779797,-0.6125150698093976
-3.9115,-0.4340633083930936,-1.174136905283272
-3.911,-0.5621054066852853,-1.619195718300304
-3.9105,-0.3060212101009019,-1.672178910326141
-3.91,-0.007256314085787988,-1.364876396576285
-3.9095,0.1848068333524996,-0.9092209451540858
-3.909,0.2701682322139607,-0.4429688553267188
-3.9085,0.291508581929326,-0.09327978795619347
-3.908,0.291508581929326,0.13984625695749
-3.9075,0.3448594562177392,0.3305857482505039
-3.907,0.6009436528021226,0.5955017083796896
-3.9065,0.6329541773751706,0.5743084315693548
-3.906,0.5369226036560266,0.3941655786815084
-3.9055,0.4195506802215176,0.1928294489833272
-3.905,0.3128489316446912,0.05507314971615059
-3.9045,0.2274875327832301,0.08686306493165288
-3.904,-0.2420001609548061,0.6060983467848571
-3.9035,-0.9995825758502737,0.8074344764830383
-3.903,-1.565101843307454,0.1716361721729923
-3.9025,-1.362368521011484,-0.2416327256285375
-3.902,-0.8288597781273515,-0.326405832869877
-3.9015,-0.3380317346739499,-0.2416327256285375
-3.901,0.00341386077189465,-0.1038764263613609
-3.9005,0.1848068333524996,0.03387987290581572
-3.9,0.2488278824985954,0.1504428953626575
-3.8995,0.2701682322139607,0.2458126410091644
-3.899,0.2488278824985954,0.3199891098453364
-3.8985,0.2274875327832301,0.383568940276341
-3.898,0.2061471830678648,0.4259554938970107
-3.8975,0.1954770082101822,0.4471487707073456
-3.897,0.1848068333524996,0.457745409112513
-3.8965,0.1848068333524996,0.457745409112513
-3.896,0.1741366584948169,0.3729723018711736
-3.8955,0.0674349099179905,-0.01910331912002144
-3.895,-0.1779791118087102,-0.6443049850249
-3.8945,-0.1352984123779797,-1.184733543688439
-3.894,0.3875401556484697,-1.608599079895136
-3.8935,0.6649647019482183,-1.640388995110639
-3.893,0.6756348768059011,-1.322489842955616
-3.8925,0.5582629533713921,-0.8032545611024114
-3.892,0.4195506802215176,-0.326405832869877
-3.8915,0.3021787567870086,0.01268659609548085
-3.891,0.2594980573562781,0.1716361721729923
-3.8905,0.4195506802215176,0.2034260873884947
-3.89,0.4835717293676135,0.2034260873884947
-3.8895,0.4408910299368829,0.1504428953626575
-3.889,0.3555296310754218,0.1186529801471552
-3.8885,0.291508581929326,0.07626642652648545
-3.888,0.2381577076409128,0.01268659609548085
-3.8875,-0.03926683865883591,0.1716361721729923
