Class_10_Using_Wats_App/Class_10_WatsApp_Souku_6.csv

#Digilent WaveForms Oscilloscope Acquisition
#Device Name: EExplorer
#Serial Number: SN:210151A2B84A
#Date Time: 2021-01-28 10:11:03.933
#Sample rate: 2000Hz
#Samples: 16384
#Trigger: Source: Channel 1 Type: Edge Condition: Rising Level: 0 V Hyst.: Auto HoldOff: 0 s
#Channel 1: Range: 1 V/div Offset: 0 V Attenuation: 1 X
#Channel 2: Range: 1 V/div Offset: 0 V Attenuation: 1 X
#Power Supplies: ON
#Fixed Supply: ON
#Voltage: 3.3 V Readback: 3.319 V
#Positive Supply: ON
#Voltage: 3.7 V Readback: 3.716 V
#Current: 40 mA Readback: 19 mA
#Negative Supply: ON
#Voltage: -3.7 V Readback: -3.355 V
#Current: -40 mA Readback: -9 mA
#Reference 1: ON
#Voltage: 0 V
#Reference 2: ON
#Voltage: 0 V

Time (s),Channel 1 (V),Channel 2 (V)
-4.096,0.1101156093487211,-0.7396747306714069
-4.0955,-0.02859666380102711,-0.474758770542462
-4.095,-0.1139580626624591,-0.1992461720074438
-4.0945,0.05676473506030786,0.2670059178194992
-4.094,0.7503261008090487,0.9875773293702294
-4.0935,1.571929564851573,1.644568910491516
-4.093,1.934715510012453,1.920081509025619
-4.0925,0.9957401225372342,1.135930267043942
-4.092,-0.4554036581095846,-0.08268314955187415
-4.0915,-1.693143941599645,-1.01518732920576
-4.091,-2.365364957633652,-1.375473034981453
-4.0905,-1.917217613610379,-0.8774310299378414
-4.09,-1.255666772434657,-0.06148987274069118
-4.0895,-0.7114878546928423,0.6590815388106942
-4.089,-0.3700422592473083,1.15712354385311
-4.0885,-0.1886492866663929,1.443232780793084
-4.088,-0.2206598112394408,1.326669758336243
-4.0875,-0.4554036581082454,0.7650479228628794
-4.087,-0.8928808272740003,0.07626642652609031
-4.0865,-1.501080794161358,-0.3581957480853793
-4.086,-1.671803591884125,-0.07208651114611886
-4.0855,-0.7114878546916389,0.701468092432029
-4.085,0.6116138276598051,1.432636142387917
-4.0845,1.347855892839238,1.549199164844653
-4.084,1.28383484369354,0.8074344764822866
-4.0835,0.9850699476786977,-0.01910331912002144
-4.083,0.707645401378949,-0.6866915386455698
-4.0825,0.5049120790828624,-1.025783967611053
-4.082,0.3768699807907871,-1.163540266878104
-4.0815,0.3128489316446912,-1.184733543688439
-4.081,0.2594980573563266,-1.174136905283281
-4.0805,0.3555296310754218,-0.9198175835592532
-4.08,0.3768699807907871,-0.6443049850249
-4.0795,0.227487532783366,-0.5595318777836376
-4.079,0.0567647350601914,-0.4853554089472825
-4.0785,-0.07127736323188383,-0.3687923864905467
-4.078,-0.04993701351653796,-0.09327978795644404
-4.0775,0.5049120790837262,0.5637117931648621
-4.077,1.326515543124542,1.305476481525908
-4.0765,1.966726034584918,1.845905040188955
-4.076,1.486568165988511,1.4962159728179
-4.0755,0.08877525963335578,0.3729723018711736
-4.075,-1.1062843244271,-0.6443049850249
-4.0745,-1.490410619303471,-0.9198175835587714
-4.074,-1.26633694729234,-0.3899856633008816
-4.0735,-0.8715404775580819,0.3411823866556712
-4.073,-0.5300948821125478,0.9875773293702969
-4.0725,-0.3060212101009019,1.443232780793084
-4.072,-0.1886492866663929,1.70814874092227
-4.0715,-0.1993194615240658,1.718745379327428
-4.071,-0.3807124341049424,1.241896651094277
-4.0705,-0.6688071552621118,0.55311515475902
-4.07,-1.202315898145759,-0.07208651114528997
-4.0695,-1.671803591883717,-0.3370024712747071
-4.069,-1.052933450138687,0.03387987290581572
-4.0685,0.2381577076409128,0.8180311148882058
-4.068,1.23048396940502,1.358459673551244
-4.0675,0.8143471499557753,0.8074344764830383
-4.067,-0.2313299860971235,-0.2098428104130352
-4.0665,-0.6901475049774091,-0.7820612842922308
-4.066,-0.6154562809736985,-0.9516074987747555
-4.0655,-0.3166913849585846,-1.01518732920576
-4.065,-0.01792648894374238,-1.036380606016076
-4.0645,0.1741366584948169,-1.089363798041932
-4.064,0.3128489316446912,-1.0999604364471
-4.0635,0.4302208550790936,-0.8880276683439436
-4.063,0.3128489316445165,-0.8350444763179138
-4.0625,0.1207857842064037,-0.8350444763179138
-4.062,-0.02859666380101741,-0.8138511995075982
-4.0615,-0.1032878878046503,-0.6972881770503709
-4.061,0.2061471830678648,-0.2946159176543747
-4.0605,0.9850699476786977,0.5107286011383502
-4.06,1.76399271228955,1.305476481526081
-4.0595,1.785333062004896,1.496215972818921
-4.059,0.5796033030867573,0.6060983467848571
-4.0585,-0.8395299529837432,-0.4747587705412382
-4.058,-2.002579012472442,-1.227120097309109
-4.0575,-2.493407055925843,-1.375473034981453
-4.057,-1.917217613611505,-0.7184814538616695
-4.0565,-1.202315898146244,0.1504428953626575
-4.056,-0.658136980404429,0.8816109453192104
-4.0555,-0.3273615598165681,1.379652950361627
-4.055,-0.177979111808817,1.612778995275493
-4.0545,-0.2953510352432193,1.316073119931075
-4.054,-0.5727755815427158,0.6696781772164495
-4.0535,-1.020922925566182,0.02328323450024351
-4.053,-1.618452717595867,-0.4217755785163839
-4.0525,-1.501080794161358,-0.3793890248957141
-4.052,-0.3380317346728144,0.3517790250615422
-4.0515,0.9103787236749192,1.125333628638062
-4.051,1.294505018551494,1.072350436612224
-4.0505,1.102441871113381,0.4259554938975986
-4.05,0.79300680024041,-0.2840192792492073
-4.0495,0.4942419042252961,-0.8244478379127463
-4.049,0.2488278824988186,-1.14234699006748
-4.0485,0.1421261339217593,-1.30129656614531
-4.048,0.1314559590640864,-1.333086481360783
-4.0475,0.1634664836371052,-1.280103289334994
-4.047,0.3235191065023544,-1.078767159636639
-4.0465,0.3021787567870086,-0.9410108603695881
-4.046,0.1527963087795875,-0.8456411147231679
-4.0455,0.00341386077180731,-0.7184814538609178
-4.045,-0.09261771294724913,-0.5489352393783931
-4.0445,0.05676473506030786,-0.1992461720078678
-4.044,0.7183155762373788,0.5107286011390441
-4.0435,1.539919040278195,1.273686566310405
-4.043,1.966726034585501,1.718745379327438
-4.0425,1.102441871113993,1.093543713423128
-4.042,-0.3273615598162672,-0.04029659593035631
-4.0415,-1.255666772434657,-0.8456411147230812
-4.041,-1.351698346153714,-0.750271369076661
-4.0405,-1.042263275280674,-0.1144730647658826
-4.04,-0.6794773301197943,0.5955017083796896
-4.0395,-0.402052783820298,1.16772018225821
-4.039,-0.2313299860970652,1.549199164844951
-4.0385,-0.1673089369510276,1.761131932948107
-4.038,-0.2206598112393923,1.633972272086214
-4.0375,-0.4660738329664521,1.061753798206421
-4.037,-0.807519428411986,0.3623756634660061
-4.0365,-1.330357996438436,-0.1886495336027004
-4.036,-1.575772018164331,-0.3052125560590217
-4.0355,-0.690147504977477,0.2670059178194992
-4.035,0.6116138276598051,1.061753798207057
-4.0345,1.337185717981565,1.316073119930844
-4.034,1.550589215135878,0.5743084315693548
-4.0335,1.92404533515477,-0.4959520473525559
-4.033,2.28683128031565,-1.396666311790968
-4.0325,2.468224252896225,-2.127834361748379
-4.032,2.073427783162327,-2.17022091536901
-4.0315,1.401206767128932,-1.672178910326594
-4.031,0.8143471499555229,-1.258910012524466
-4.0305,0.5369226036560266,-1.0999604364471
-4.03,0.3768699807909327,-1.068170521231626
-4.0295,0.1527963087792867,-0.9728007755850037
-4.029,-0.02859666380115328,-0.8774310299385835
-4.0285,-0.1352984123779797,-0.7820612842920766
-4.028,-0.1246282375198312,-0.6231117082141024
-4.0275,0.3875401556484697,-0.1144730647665284
-4.027,1.219813794547716,0.6908714540261965
-4.0265,1.892034810581111,1.369056311956296
-4.026,1.465227816274416,1.167720182258731
-4.0255,0.09944543449103843,0.13984625695749
-4.025,-1.244996597575752,-0.8880276683428161
-4.0245,-2.045259711903008,-1.513229334248389
-4.024,-1.863866739322568,-1.248313374119443
-4.0235,-1.298347471865902,-0.5065486857583981
-4.023,-0.7755089038386179,0.2246193641993307
-4.0225,-0.423393133535411,0.775644561267536
-4.022,-0.2206598112396252,1.125333628637744
-4.0215,-0.1779791118088558,1.220703374284231
-4.021,-0.3380317346739499,0.849821030103708
-4.0205,-0.6261264558313813,0.2246193641988295
-4.02,-1.159635198716037,-0.3475991096805203
-4.0195,-1.735824641030376,-0.6866915386455698
-4.019,-1.479740444445993,-0.8562377531282487
-4.0185,-0.2420001609559319,-0.2734226408445698
-4.018,0.942389248247967,0.55311515475902
-4.0175,1.497238340847464,0.4047622170866759
-4.017,1.689301488285577,-0.3475991096795276
-4.0165,1.379866417412557,-0.7396747306714839
-4.016,0.942389248247967,-0.8244478379127463
-4.0155,0.5475927785140684,-0.8456411147230619
-4.015,0.3021787567869116,-0.9410108603696845
-4.0145,0.1954770082101822,-1.046977244421262
-4.014,0.2061471830678551,-1.089363798041894
-4.0135,0.3021787567869213,-1.131750351662534
-4.013,0.2061471830678648,-1.05757388282643
-4.0125,0.05676473506030786,-0.9092209451540858
-4.012,-0.07127736323193234,-0.7184814538608696
-4.0115,-0.124628237520297,-0.4959520473525559
-4.011,0.1634664836371343,-0.09327978795619347
-4.0105,0.9317190733895857,0.6484849004048522
-4.01,1.7213120128588,1.390249588767247
-4.0095,1.774662887147213,1.559795803249926
-4.009,0.590273477945517,0.6696781772166712
-4.0085,-0.7968492535548954,-0.432372216921985
-4.008,-1.447729919872945,-0.9092209451540858
-4.0075,-1.330357996438542,-0.5595318777838785
-4.007,-0.9569018764192229,0.08686306493220222
-4.0065,-0.6047861061160158,0.6908714540261965
-4.006,-0.3487019095316325,1.146526905448396
-4.0055,-0.220659811239402,1.44323278079319
-4.005,-0.1779791118087102,1.559795803249926
-4.0045,-0.3060212101009019,1.241896651094903
-4.004,-0.6047861061164039,0.6060983467842596
-4.0035,-1.031593100423322,-0.05089323433552374
-4.003,-1.607782542738184,-0.4959520473525559
-4.0025,-1.501080794161455,-0.5913217929989761
-4.002,-0.3273615598162672,0.06566978812131802
-4.0015,0.9317190733902845,0.92399749893988
-4.001,1.145122570543743,0.9875773293708269
-4.0005,0.643624352232756,0.4365521323016385
-4,0.5369226036560266,-0.1568596183871981
-3.9995,0.7396559259519968,-0.9198175835592532
-3.999,0.7716664505250448,-1.227120097309109
-3.9985,0.6649647019482183,-1.174136905283272
-3.998,0.5475927785137094,-1.121153713257435
-3.9975,0.408880505363835,-1.110557074852267
-3.997,0.4195506802215176,-1.163540266878104
-3.9965,0.3128489316446912,-1.078767159636765
-3.996,0.1207857842064037,-0.8986243067489184
-3.9955,-0.03926683865883591,-0.6972881770507372
-3.995,-0.1352984123779797,-0.5065486857577234
-3.9945,0.03542438534494258,-0.1568596183871981
-3.994,0.7396559259519968,0.5425185163538525
-3.9935,1.56125938999356,1.284283204715573
-3.993,1.977396209443183,1.686955464111935
-3.9925,1.102441871113207,1.040560521396722
-3.992,-0.3487019095316325,-0.1250697031716958
-3.9915,-1.607782542738184,-1.089363798041932
-3.991,-2.258663209056825,-1.492036057438295
-3.9905,-1.863866739322568,-1.01518732920576
-3.99,-1.234326422719292,-0.2310360872233701
-3.9895,-0.7114878546928423,0.4683420475176805
-3.989,-0.3807124341046804,0.9663840525605498
-3.9885,-0.1993194615240755,1.25249328950007
-3.988,-0.2420001609548061,1.157123543853563
-3.9875,-0.4660738329661415,0.6060983467848571
-3.987,-0.7648387289812555,-0.04029659593035631
-3.9865,-1.277007122150022,-0.4959520473525559
-3.986,-1.650463242168915,-0.5065486857577234
-3.9855,-0.9035510021311299,0.05507314971615059
-3.985,0.3982103305061524,0.9028042221295453
-3.9845,1.113112045970889,1.25249328950007
-3.984,0.942389248247967,0.5743084315693548
-3.9835,0.7183155762366316,-0.2310360872233701
-3.983,0.4195506802215176,-0.7608680074817418
-3.9825,0.2168173579255475,-1.078767159636765
-3.982,0.1741366584948169,-1.205926820498774
-3.9815,0.1848068333524996,-1.237716735714276
-3.981,0.1954770082101822,-1.227120097309109
-3.9805,0.2808384070716433,-1.216523458903942
-3.98,0.3128489316446912,-1.195330182093607
-3.9795,0.1848068333524996,-1.004590690800593
-3.979,0.02475421048725994,-0.7502713690765743
-3.9785,-0.09261771294724913,-0.4853554089473885
-3.978,-0.09261771294724913,-0.1886495336027004
-3.9775,0.408880505363835,0.3941655786815084
-3.977,1.230483969405398,1.146526905448396
-3.9765,1.913375160297087,1.75053529454294
-3.976,1.56125938999356,1.538602526439591
-3.9755,0.2168173579255475,0.4471487707073456
-3.975,-1.116954499284783,-0.6337083466197325
-3.9745,-1.639793067311232,-1.05757388282643
-3.974,-1.415719395299897,-0.6337083466197325
-3.9735,-0.9889124009925911,0.06566978812131802
-3.973,-0.5941159312583333,0.701468092431364
-3.9725,-0.3380317346739499,1.157123543853563
-3.972,-0.1993194615240755,1.432636142387917
-3.9715,-0.2099896363817582,1.443232780793084
-3.971,-0.4020527838200457,0.9663840525605498
-3.9705,-0.6794773301197943,0.3305857482505039
-3.97,-1.212986073003927,-0.2416327256285375
-3.9695,-1.735824641030376,-0.4323722169215513
-3.969,-1.202315898146244,-0.008506680714854012
-3.9685,0.09944543449103843,0.8180311148882058
-3.968,1.177133095116985,1.400846227172415
-3.9675,1.401206767128321,0.9134008605347127
-3.967,1.646620788855021,-0.1462629799820306
-3.9665,1.56125938999356,-0.8244478379127463
-3.966,1.166462920259302,-0.9939940523954253
-3.9655,0.7823366253827275,-1.025783967610927
-3.965,0.5049120790829789,-1.036380606016095
-3.9645,0.3235191065023739,-1.046977244421262
-3.964,0.2701682322139607,-1.131750351662602
-3.9635,0.3555296310754218,-1.205926820498774
-3.963,0.2488278824985954,-1.036380606016095
-3.9625,0.07810508477567314,-0.7820612842920766
-3.962,-0.06060718837420119,-0.5171453241628908
-3.9615,-0.1352984123779797,-0.2734226408440398
-3.961,0.1741366584948169,0.1504428953626575
-3.9605,0.9530594231056497,0.8816109453192104
-3.96,1.742652362574165,1.570392441655093
-3.9595,1.828013761435626,1.697552102517103
-3.959,0.6649647019482183,0.775644561267536
-3.9585,-0.7648387289812555,-0.3793890248957141
-3.958,-1.767835165603424,-1.163540266878104
-3.9575,-1.810515865034154,-1.036380606016095
-3.957,-1.341028171296118,-0.3899856633008816
-3.9565,-0.8502001278427167,0.2987958330350016
-3.956,-0.4767440078238243,0.8392243916985406
-3.9555,-0.2633405106701714,1.188913459069066
-3.955,-0.1779791118087102,1.33726639674141
-3.9545,-0.2846808603855366,1.061753798207057
-3.954,-0.5087545323968721,0.4789386859228479
-3.9535,-0.8715404775580819,-0.1462629799820306
-3.953,-1.458400094730627,-0.5807251545938954
-3.9525,-1.394379045584531,-0.6019184314042303
-3.952,-0.2846808603855366,0.1292496185523226
-3.9515,0.9317190733902845,0.9875773293708847
-3.951,1.315845368266859,1.040560521396722
-3.9505,1.337185717982225,0.2458126410091644
-3.95,1.134452395686255,-0.4959520473525559
-3.9495,0.7823366253827275,-0.8244478379127463
-3.949,0.5155822539406614,-0.9833974139902578
-3.9485,0.3768699807907871,-1.046977244421262
-3.948,0.3235191065023739,-1.0999604364471
-3.9475,0.3021787567870086,-1.131750351662602
-3.947,0.4515612047945656,-1.216523458903942
-3.9465,0.3875401556484697,-1.0999604364471
-3.946,0.1954770082101822,-0.8244478379127463
-3.9455,0.01408403562957729,-0.5383386009732256
-3.945,-0.1032878878049318,-0.2628260024388724
-3.9445,0.0674349099179905,0.2140227257936621
-3.944,0.7609962756673623,0.9557874141553824
-3.9435,1.571929564851243,1.623375633680931
-3.943,1.998736559158548,1.951871424241121
-3.9425,1.145122570543937,1.25249328950007
-3.942,-0.3166913849585846,0.02328323450064829
-3.9415,-1.597112367880501,-0.9939940523954253
-3.941,-2.280003558772191,-1.417859588602123
-3.9405,-1.895877263895616,-0.9516074987747555
-3.94,-1.255666772434657,-0.1780528951975329
-3.9395,-0.7328282044082075,0.5213252395435176
-3.939,-0.3807124341046804,1.00877060618122
-3.9385,-0.2099896363817582,1.284283204715573
-3.938,-0.2313299860971235,1.178316820663898
-3.9375,-0.4340633083930936,0.6590815388106942
-3.937,-0.754168554123573,0.02328323450064829
-3.9365,-1.341028171296118,-0.4535654937318862
-3.936,-1.650463242168915,-0.5489352393783931
-3.9355,-0.7648387289812555,0.002089957690313421
-3.935,0.5475927785137094,0.8604176685088755
-3.9345,1.337185717982225,1.25249328950007
-3.934,1.326515543124542,0.8180311148882058
-3.9335,1.027750647109428,0.08686306493165288
-3.933,0.7716664505250448,-0.4535654937318862
-3.9325,0.5475927785137094,-0.7820612842920766
-3.932,0.3555296310754218,-0.9833974139902578
-3.9315,0.2168173579255475,-1.05757388282643
-3.931,0.1848068333524996,-1.0999604364471
-3.9305,0.3021787567870086,-1.205926820498774
-3.93,0.3555296310754218,-1.174136905283272
-3.9295,0.2168173579255475,-0.9304142219644207
-3.929,0.04609456020262521,-0.6231117082145651
-3.9285,-0.08194753808956648,-0.3052125560595421
-3.928,-0.1032878878049318,0.03387987290581572
-3.9275,0.3875401556484697,0.6060983467848571
-3.927,1.209143619690033,1.305476481525908
-3.9265,1.892034810581722,1.835308401784279
-3.926,1.529248865420512,1.549199164844759
-3.9255,0.1741366584948169,0.4153588554918433
-3.925,-1.095614149569417,-0.6760949002404023
-3.9245,-1.533091318734406,-1.025783967610927
-3.924,-1.30901764672307,-0.5913217929990628
-3.9235,-0.9035510021311299,0.07626642652648545
-3.923,-0.5621054066852853,0.6696781772158616
-3.9225,-0.3273615598162672,1.082947075017392
-3.922,-0.2099896363817582,1.33726639674141
-3.9215,-0.2099896363817582,1.358459673551745
-3.921,-0.4020527838200457,0.9028042221295453
-3.9205,-0.754168554123573,0.2352160026039969
-3.92,-1.351698346153801,-0.3687923864905467
-3.9195,-1.863866739322568,-0.718481453861072
-3.919,-1.330357996438436,-0.5277419625680583
-3.9185,0.00341386077189465,0.3305857482505039
-3.918,1.134452395686255,1.093543713422559
-3.9175,0.9850699476786977,0.7968378380778709
-3.917,-0.09261771294724913,-0.1674562567923655
-3.9165,-0.7328282044082075,-0.6337083466197325
-3.916,-0.722158029550525,-0.6549016234300674
-3.9155,-0.4127229586777283,-0.7078848154559045
-3.915,-0.07127736323188383,-0.792657922697244
-3.9145,0.1527963087794516,-0.8880276683437509
-3.914,0.2808384070716433,-0.8562377531282487
-3.9135,0.4195506802215176,-0.718481453861072
-3.913,0.3128489316446912,-0.7078848154559045
-3.9125,0.1314559590640864,-0.718481453861072
-3.912,-0.03926683865883591,-0.6866915386455698
-3.9115,-0.1032878878049318,-0.5489352393783931
-3.911,0.2274875327832301,-0.06148987274069118
-3.9105,1.017080472251745,0.7544512844572011
-3.91,1.785333062004896,1.485619334413754
-3.9095,1.849354111150991,1.70814874092227
-3.909,0.6649647019482183,0.849821030103708
-3.9085,-0.7755089038389382,-0.3052125560595421
-3.908,-1.927887788468663,-1.152943628472937
-3.9075,-2.280003558772191,-1.301296566145281
-3.907,-1.714484291315011,-0.6654982618352349
-3.9065,-1.084943974711735,0.1504428953626575
-3.906,-0.6047861061160158,0.8392243916985406
-3.9055,-0.3060212101009019,1.305476481525908
-3.905,-0.1886492866663929,1.538602526439591
-3.9045,-0.274010685527854,1.29487984312074
-3.904,-0.5194247072545548,0.701468092431364
-3.9035,-0.8928808272734472,0.05507314971615059
-3.903,-1.447729919872945,-0.3581957480853793
-3.9025,-1.543761493592088,-0.4217755785163839
-3.902,-0.5087545323968721,0.1080563417419877
-3.9015,0.7609962756673623,0.9134008605347127
-3.901,1.027750647109428,0.9451907757502149
-3.9005,0.6116138276598051,0.2352160026039969
-3.9,0.291508581929326,-0.3687923864905467
-3.8995,0.09944543449103843,-0.7502713690765743
-3.899,0.0674349099179905,-0.9728007755850904
-3.8985,0.142126133921769,-1.110557074852267
-3.898,0.1954770082101822,-1.174136905283272
-3.8975,0.2168173579255475,-1.174136905283272
-3.897,0.3555296310754218,-1.248313374119443
-3.8965,0.3235191065023739,-1.195330182093607
-3.896,0.1634664836371343,-1.01518732920576
-3.8955,0.00341386077189465,-0.7714646458869092
-3.895,-0.1032878878049318,-0.5277419625680583
-3.8945,0.01408403562957729,-0.1568596183871981
-3.894,0.6863050516635838,0.5425185163538525
-3.8935,1.507908515705147,1.305476481525908
-3.893,1.977396209443183,1.771728571353275
-3.8925,1.177133095116985,1.188913459069066
-3.892,-0.274010685527854,0.03387987290581572
-3.8915,-1.543761493592088,-0.9410108603695881
-3.891,-2.205312334768412,-1.301296566145281
-3.8905,-1.83185621474952,-0.792657922697244
-3.89,-1.223656247861609,-0.008506680714854012
-3.8895,-0.7114878546928423,0.6908714540261965
-3.889,-0.3700422592469978,1.188913459069066
-3.8885,-0.1993194615240755,1.475022696008586
-3.888,-0.2099896363817582,1.42203950398275
-3.8875,-0.4127229586777283,0.9028042221295453
-3.887,-0.7755089038389382,0.2458126410091644
-3.8865,-1.383708870726849,-0.2946159176543747
-3.886,-1.597112367880501,-0.3793890248957141
-3.8855,-0.6367966306890638,0.2670059178194992
