Class_10_Using_Wats_App/Class_10_WatsApp_SH_5.csv

#Digilent WaveForms Oscilloscope Acquisition
#Device Name: EExplorer
#Serial Number: SN:210151A2B84A
#Date Time: 2020-12-13 13:35:15.312
#Sample rate: 2000Hz
#Samples: 16384
#Trigger: Source: Channel 1 Type: Edge Condition: Rising Level: 0 V Hyst.: Auto HoldOff: 0 s
#Channel 1: Range: 1 V/div Offset: 0 V Attenuation: 1 X
#Channel 2: Range: 1 V/div Offset: 0 V Attenuation: 1 X
#Power Supplies: ON
#Fixed Supply: ON
#Voltage: 3.3 V Readback: 3.327 V
#Positive Supply: ON
#Voltage: 3.7 V Readback: 3.719 V
#Current: 40 mA Readback: 19 mA
#Negative Supply: ON
#Voltage: -3.7 V Readback: -3.347 V
#Current: -40 mA Readback: -7 mA
#Reference 1: ON
#Voltage: 0 V
#Reference 2: ON
#Voltage: 0 V

Time (s),Channel 1 (V),Channel 2 (V)
-4.096,0.3341892813600565,-0.07208651114585861
-4.0955,0.248827882498673,0.002089957690245961
-4.095,-0.1779791118093119,0.4259554938973962
-4.0945,-0.839529952985034,0.849821030103708
-4.094,-1.415719395299373,0.3517790250612917
-4.0935,-1.565101843306949,-0.3687923864905757
-4.093,-1.010252750707956,-0.400582301706049
-4.0925,-0.3593720843899071,-0.1568596183874197
-4.092,0.1314559590643581,-0.0402965959302503
-4.0915,0.4302208550792003,0.07626642652648545
-4.091,0.5796033030867573,0.08686306493165288
-4.0905,0.6116138276597954,0.1080563417420552
-4.09,0.6009436528021226,0.1822328105781598
-4.0895,0.6863050516635838,0.1716361721729923
-4.089,0.7609962756672943,0.1716361721729923
-4.0885,0.7609962756673623,0.2140227257936621
-4.088,0.7716664505250448,0.2564092794143318
-4.0875,0.6756348768059884,0.4153588554916988
-4.087,0.5902734779446145,0.5319218779484056
-4.0865,0.7823366253827275,0.2246193641988295
-4.086,0.7716664505250544,-0.4323722169209538
-4.0855,0.06743490991726267,-1.004590690800949
-4.085,-0.7328282044082075,-1.396666311791788
-4.0845,-1.084943974711415,-1.375473034981472
-4.084,-0.8075194284115784,-0.8244478379122259
-4.0835,-0.3593720843893152,-0.252229364033705
-4.083,0.02475421048725994,0.1292496185523226
-4.0825,0.2701682322140674,0.2987958330350016
-4.082,0.3875401556484697,0.2987958330350016
-4.0815,0.4302208550792003,0.2140227257936621
-4.081,0.4302208550792003,0.08686306493176854
-4.0805,0.408880505363835,-0.02969995752518888
-4.08,0.3768699807907871,-0.1250697031716958
-4.0795,0.3448594562177683,-0.1462629799820114
-4.079,0.3128489316445942,-0.1356663415767861
-4.0785,0.2061471830678648,-0.05089323433552374
-4.078,-0.316691384958109,0.3835689402759459
-4.0775,-0.93556152670476,0.203426087387849
-4.077,-1.575772018165136,-0.5065486857577234
-4.0765,-1.981238662756708,-0.4959520473525656
-4.076,-1.469070269587582,-0.02969995752491902
-4.0755,-0.6688071552621118,0.2670059178194992
-4.075,-0.02859666380115328,0.3411823866556712
-4.0745,0.3661998059333083,0.2776025562245606
-4.074,0.5902734779444399,0.1610395337678249
-4.0735,0.6649647019482183,0.07626642652648545
-4.073,0.7289857510942561,0.04447651131101207
-4.0725,0.9637295979633325,-0.09327978795619347
-4.072,0.942389248247967,0.04447651131098315
-4.0715,0.7930068002405459,0.2776025562244546
-4.071,0.6329541773750638,0.5213252395436622
-4.0705,0.5155822539406614,0.6802748156210291
-4.07,0.5902734779443719,0.4365521323023998
-4.0695,0.5796033030861363,-0.2416327256291351
-4.069,-0.1032878878049318,-0.8986243067489184
-4.0685,-0.8822106524157645,-1.364876396576285
-4.068,-1.330357996438183,-1.492036057437842
-4.0675,-1.052933450138687,-0.9939940523954253
-4.067,-0.5300948821122373,-0.3793890248957141
-4.0665,-0.08194753808928505,0.07626642652669748
-4.066,0.2274875327832301,0.309392471440169
-4.0655,0.3768699807907871,0.3411823866556712
-4.065,0.4408910299368247,0.2776025562247245
-4.0645,0.4408910299368829,0.1504428953626575
-4.064,0.4195506802215176,0.002089957690313421
-4.0635,0.3982103305061718,-0.1144730647664223
-4.063,0.3661998059330462,-0.1568596183871499
-4.0625,0.3021787567870086,-0.1038764263613609
-4.062,0.2488278824986439,-0.05089323433557193
-4.0615,-0.1459685872362834,0.3411823866560375
-4.061,-0.8288597781273515,0.7438546460520338
-4.0605,-1.341028171296118,0.2670059178194992
-4.06,-1.757164990745547,-0.4005823017059816
-4.0595,-1.543761493592088,-0.326405832869877
-4.059,-0.807519428411986,-0.1356663415768632
-4.0585,-0.09261771294789933,0.1186529801469239
-4.058,0.3768699807907871,0.2458126410091644
-4.0575,0.6222840025174878,0.1186529801471552
-4.057,0.6863050516635256,0.0656697881213662
-4.0565,0.6649647019482183,0.1292496185523226
-4.056,0.857027849386506,0.03387987290581572
-4.0555,0.9743997728209082,0.01268659609550013
-4.055,0.9210488985324464,0.1398462569577021
-4.0545,0.7503261008096795,0.3729723018711736
-4.054,0.6009436528022585,0.5637117931640139
-4.0535,0.4408910299365627,0.5637117931637248
-4.053,0.08877525963335578,0.05507314971615059
-4.0525,-0.5834457564006506,-0.6125150698093976
-4.052,-1.309017646723604,-1.142346990068068
-4.0515,-1.895877263895616,-1.47084278062796
-4.051,-1.661133417026597,-1.227120097309109
-4.0505,-0.9355615267048376,-0.6019184314047989
-4.05,-0.3060212101009019,-0.04029659593035631
-4.0495,0.1207857842064037,0.2987958330350016
-4.049,0.3555296310752083,0.425955493896895
-4.0485,0.4515612047945753,0.3941655786814024
-4.048,0.4622313796522482,0.2776025562246667
-4.0475,0.4515612047945753,0.1398462569576153
-4.047,0.4088805053637962,0.01268659609541339
-4.0465,0.3661998059331045,-0.06148987274069118
-4.046,0.3341892813600856,-0.09327978795616457
-4.0455,0.3021787567868631,-0.1144730647665284
-4.045,0.142126133921769,-0.1144730647665284
-4.0445,-0.4980843575391895,0.309392471440169
-4.044,-1.202315898146642,0.319989109844922
-4.0435,-1.639793067311232,-0.1356663415768632
-4.043,-1.394379045584531,0.04447651131098315
-4.0425,-0.7114878546934633,0.09745970333677212
-4.042,-0.07127736323188383,0.02328323450064829
-4.0415,0.3768699807907871,0.01268659609548085
-4.041,0.6116138276595916,0.02328323450063865
-4.0405,0.6756348768058816,0.07626642652655291
-4.04,0.6542945270905358,0.1504428953626575
-4.0395,0.7289857510942463,0.1186529801471841
-4.039,0.8570278493864575,0.05507314971626624
-4.0385,0.8036769750980928,0.1822328105781598
-4.038,0.6756348768060175,0.3941655786813156
-4.0375,0.5475927785136512,0.6060983467849728
-4.037,0.4835717293676135,0.7332580076468663
-4.0365,0.7396559259519968,0.4259554938970107
-4.036,0.6329541773744427,-0.2310360872239098
-4.0355,-0.1673089369510276,-0.8244478379127463
-4.035,-0.9995825758502737,-1.152943628472937
-4.0345,-1.479740444445556,-1.227120097309041
-4.034,-1.170305373573196,-0.7608680074817418
-4.0335,-0.6047861061160158,-0.1568596183871981
-4.033,-0.1139580626630609,0.2776025562242715
-4.0325,0.2061471830680201,0.4895353243280346
-4.032,0.3768699807907871,0.5107286011383502
-4.0315,0.4408910299368247,0.4153588554919301
-4.031,0.4515612047945365,0.2776025562245221
-4.0305,0.4195506802215176,0.1186529801471552
-4.03,0.366199805933153,0.03387987290589282
-4.0295,0.3341892813599789,-0.06148987274064299
-4.029,0.2488278824985954,-0.008506680714854012
-4.0285,0.04609456020262521,0.1928294489833272
-4.028,-0.5407650569704344,0.6378882620000895
-4.0275,-1.1062843244271,0.3411823866556712
-4.027,-1.522421143876723,-0.4111789401112165
-4.0265,-1.554431668449742,-0.4535654937318476
-4.026,-0.9782422261349084,-0.2628260024388724
-4.0255,-0.3060212101009019,-0.07208651114585861
-4.025,0.216817357925072,0.03387987290571934
-4.0245,0.5262524287984606,0.07626642652641799
-4.024,0.6542945270905358,0.002089957690313421
-4.0235,0.6649647019482087,0.002089957690313421
-4.023,0.6542945270905649,0.02328323450062901
-4.0225,0.6863050516635838,0.002089957690313421
-4.022,0.622284002517546,0.129249618552207
-4.0215,0.5475927785136608,0.2987958330351365
-4.021,0.4942419042252961,0.4471487707073456
-4.0205,0.4729015545099309,0.5425185163538525
-4.02,0.2701682322133299,0.2776025562240788
-4.0195,-0.423393133535411,-0.3687923864905467
-4.019,-1.138294849000148,-0.9516074987747555
-4.0185,-1.725154466172159,-1.333086481360436
-4.018,-2.173301810195364,-1.42845622700729
-4.0175,-1.703814116457328,-0.9304142219644207
-4.017,-0.8928808272741847,-0.2628260024394796
-4.0165,-0.2526703358121005,0.2458126410094053
-4.016,0.1741366584948169,0.5107286011383502
-4.0155,0.3875401556482756,0.574308431569297
-4.015,0.4729015545099309,0.5213252395434019
-4.0145,0.4729015545099309,0.3941655786815084
-4.014,0.4408910299369121,0.2458126410092993
-4.0135,0.3982103305061136,0.1292496185522551
-4.013,0.3555296310754218,0.05507314971615059
-4.0125,0.3128489316446912,0.02328323450064829
-4.012,0.2701682322135531,0.002089957690660374
-4.0115,-0.1779791118087102,0.383568940276341
-4.011,-0.839529952985034,0.6378882620003594
-4.0105,-1.426389570157045,0.05507314971668065
-4.01,-1.87453691418025,-0.2416327256285375
-4.0095,-1.639793067311232,0.09745970333682032
-4.009,-0.8715404775587807,0.2987958330348185
-4.0085,-0.1886492866659756,0.2564092794141872
-4.008,0.2701682322139607,0.09745970333682032
-4.0075,0.5155822539404382,-0.02969995752507322
-4.007,0.63295417737519,-0.1780528951975137
-4.0065,0.6542945270905358,-0.1568596183871981
-4.006,0.8356874996711408,-0.2840192792492073
-4.0055,0.8676980242440721,-0.2310360872231388
-4.005,0.7396559259519968,0.02328323450064829
-4.0045,0.6116138276598051,0.2987958330350016
-4.004,0.515582253940671,0.5319218779487429
-4.0035,0.5262524287983441,0.5955017083796896
-4.003,0.8676980242441885,0.1504428953626575
-4.0025,0.4195506802219252,-0.5171453241622836
-4.002,-0.4340633083930936,-0.9728007755850904
-4.0015,-1.191645723288561,-0.6549016234300674
-4.001,-1.501080794161076,-0.421775578516596
-4.0005,-1.074273799853528,-0.1780528951973498
-4,-0.4980843575391895,0.02328323450064829
-3.9995,-0.02859666380115328,0.1504428953626575
-3.999,0.2594980573562781,0.1928294489833272
-3.9985,0.408880505363835,0.1822328105781598
-3.998,0.4515612047945656,0.13984625695749
-3.9975,0.4515612047945656,0.09745970333682032
-3.997,0.4302208550792003,0.06566978812131802
-3.9965,0.3982103305061524,0.05507314971615059
-3.996,0.3661998059331045,0.07626642652648545
-3.9955,0.3021787567870086,0.2034260873884947
-3.995,0.0674349099179905,0.383568940276341
-3.9945,-0.572775581542968,0.5637117931641874
-3.994,-1.234326422719292,0.03387987290581572
-3.9935,-1.746494815888059,-0.6337083466197325
-3.993,-1.67180359188428,-0.5065486857577234
-3.9925,-0.9569018764195432,-0.1038764263613609
-3.992,-0.2526703358124887,0.09745970333682032
-3.9915,0.291508581929326,0.05507314971615059
-3.991,0.5689331282290746,0.05507314971615059
-3.9905,0.6542945270905358,0.08686306493165288
-3.99,0.6542945270905358,0.1292496185523226
-3.9895,0.8143471499557753,0.002089957690313421
-3.989,1.006410297394063,-0.1144730647665284
-3.9885,0.8997085488172365,0.06566978812131802
-3.988,0.7289857510943143,0.2987958330350016
-3.9875,0.5689331282290746,0.5001319627331828
-3.987,0.4622313796522482,0.5637117931641874
-3.9865,0.1527963087794516,0.1080563417419877
-3.986,-0.4020527838200457,-0.6125150698093976
-3.9855,-1.010252750707956,-1.237716735714276
-3.985,-1.479740444445993,-1.650985633515806
-3.9845,-1.586442193022819,-1.682775548731308
-3.984,-1.052933450138687,-1.089363798041932
-3.9835,-0.4447334832507763,-0.4535654937318862
-3.983,0.01408403562957729,-0.008506680714854012
-3.9825,0.291508581929326,0.2140227257936621
-3.982,0.4195506802215176,0.2670059178194992
-3.9815,0.4622313796522482,0.2140227257936621
-3.981,0.4515612047945656,0.1186529801471552
-3.9805,0.4195506802215176,0.02328323450064829
-3.98,0.3661998059331045,0.002089957690313421
-3.9795,0.291508581929326,0.05507314971615059
-3.979,0.2274875327832301,0.1292496185523226
-3.9785,-0.156638762093345,0.5213252395435176
-3.978,-0.7648387289812555,0.775644561267536
-3.9775,-1.362368521011484,0.2034260873884947
-3.977,-1.778505340461106,-0.570128516188728
-3.9765,-1.714484291315011,-0.4535654937318862
-3.976,-1.031593100423322,-0.1462629799820306
-3.9755,-0.3273615598162672,0.07626642652648545
-3.975,0.2061471830678648,0.1822328105781598
-3.9745,0.5155822539406614,0.1080563417419877
-3.974,0.6542945270905358,0.02328323450064829
-3.9735,0.6756348768059011,0.05507314971615059
-3.973,0.6969752265212663,0.13984625695749
-3.9725,0.9530594231056497,0.06566978812131802
-3.972,0.9317190733902845,0.2034260873884947
-3.9715,0.7716664505250448,0.4259554938970107
-3.971,0.6222840025174878,0.6166949851900245
-3.9705,0.5262524287983441,0.7438546460520338
-3.97,0.6863050516635838,0.5319218779486851
-3.9695,0.8143471499557753,-0.1356663415768632
-3.969,0.09944543449103843,-0.792657922697244
-3.9685,-0.754168554123573,-1.248313374119443
-3.968,-1.405049220442214,-1.492036057438295
-3.9675,-1.319687821580753,-1.163540266878104
-3.967,-0.7861790786966207,-0.5489352393783931
-3.9665,-0.2526703358124887,-0.02969995752518888
-3.966,0.1314559590640864,0.2564092794143318
-3.9655,0.3448594562177392,0.3411823866556712
-3.965,0.4408910299368829,0.2987958330350016
-3.9645,0.4515612047945656,0.1822328105781598
-3.964,0.4408910299368829,0.04447651131098315
-3.9635,0.408880505363835,-0.07208651114585861
-3.963,0.3661998059331045,-0.1356663415768632
-3.9625,0.3235191065023739,-0.1674562567923655
-3.962,0.2488278824985954,-0.1462629799820306
-3.9615,-0.274010685527854,0.3305857482505039
-3.961,-0.9142211769888124,0.383568940276341
-3.9605,-1.415719395299897,-0.2840192792492073
-3.96,-1.639793067311232,-0.474758770542221
-3.9595,-1.202315898146244,-0.1144730647665284
-3.959,-0.4980843575391895,0.03387987290581572
-3.9585,0.08877525963335578,0.1080563417419877
-3.958,0.4515612047945656,0.1080563417419877
-3.9575,0.6009436528021226,0.1186529801471552
-3.957,0.6222840025174878,0.1504428953626575
-3.9565,0.6009436528021226,0.2034260873884947
-3.956,0.79300680024041,0.06566978812131802
-3.9555,0.8356874996711408,0.1080563417419877
-3.955,0.7289857510943143,0.309392471440169
-3.9545,0.6116138276598051,0.5107286011383502
-3.954,0.5369226036560266,0.6378882620003594
-3.9535,0.4515612047945656,0.55311515475902
-3.953,-0.09261771294724913,-0.01910331912002144
-3.9525,-0.7434983792658902,-0.6654982618352349
-3.952,-1.116954499284783,-1.110557074852267
-3.9515,-1.46907026958831,-1.396666311791788
-3.951,-1.319687821580753,-1.195330182093607
-3.9505,-0.7648387289812555,-0.6019184314042303
-3.95,-0.2313299860971235,-0.07208651114585861
-3.9495,0.142126133921769,0.2564092794143318
-3.949,0.3555296310754218,0.383568940276341
-3.9485,0.4408910299368829,0.3517790250608387
-3.948,0.4622313796522482,0.2458126410091644
-3.9475,0.4408910299368829,0.1080563417419877
-3.947,0.3982103305061524,-0.008506680714854012
-3.9465,0.3661998059331045,-0.1038764263613609
-3.946,0.3448594562177392,-0.1568596183871981
-3.9455,0.291508581929326,-0.1462629799820306
-3.945,0.01408403562957729,0.1610395337678249
-3.9445,-0.5941159312583333,0.4789386859228479
-3.944,-1.223656247861609,-0.05089323433552374
-3.9435,-1.714484291315011,-0.5065486857577234
-3.943,-1.67180359188428,-0.08268314955102604
-3.9425,-0.9889124009925911,0.2034260873884947
-3.942,-0.2846808603855366,0.2246193641988295
-3.9415,0.2488278824985954,0.09745970333682032
-3.941,0.5582629533713921,-0.008506680714854012
-3.9405,0.6542945270905358,0.03387987290581572
-3.94,0.6329541773751706,0.13984625695749
-3.9395,0.7396559259519968,0.1186529801471552
-3.939,0.8463576745288233,0.08686306493165288
-3.9385,0.7716664505250448,0.2458126410091644
-3.938,0.6329541773751706,0.4365521323021782
-3.9375,0.5262524287983441,0.6060983467848571
-3.937,0.4942419042252961,0.6696781772158616
-3.9365,0.8036769750980928,0.3623756634660061
-3.936,0.6009436528021226,-0.252229364033705
-3.9355,-0.2313299860971235,-0.8456411147230812
-3.935,-1.074273799854052,-1.258910012524611
-3.9345,-1.447729919872945,-1.311893204550448
-3.934,-1.084943974711735,-0.7714646458869092
-3.9335,-0.5194247072545548,-0.1568596183871981
-3.933,-0.04993701351651855,0.2776025562246667
-3.9325,0.2488278824985954,0.4789386859228479
-3.932,0.3982103305061524,0.5001319627331828
-3.9315,0.4515612047945656,0.4153588554918433
-3.931,0.4515612047945656,0.2670059178194992
-3.9305,0.4195506802215176,0.1292496185523226
-3.93,0.3875401556484697,0.002089957690313421
-3.9295,0.3555296310754218,-0.06148987274069118
-3.929,0.3128489316446912,-0.07208651114585861
-3.9285,0.142126133921769,0.09745970333682032
-3.928,-0.423393133535411,0.5955017083796896
-3.9275,-1.06360362499637,0.5001319627331828
-3.927,-1.650463242168915,-0.2734226408440398
-3.9265,-1.810515865034154,-0.4853554089473885
-3.926,-1.116954499284783,-0.09327978795619347
-3.9255,-0.3487019095316325,0.1822328105781598
-3.925,0.2168173579255475,0.2564092794143318
-3.9245,0.5369226036560266,0.2352160026039969
-3.924,0.6863050516635838,0.1186529801471552
-3.9235,0.707645401378949,0.06566978812131802
-3.923,0.707645401378949,0.04447651131098315
-3.9225,0.7503261008096795,-0.008506680714854012
-3.922,0.6863050516635838,0.1080563417419877
-3.9215,0.5902734779444399,0.2670059178194992
-3.921,0.5155822539406614,0.4259554938970107
-3.9205,0.4835717293676135,0.5319218779486851
-3.92,0.6329541773751706,0.2564092794143318
-3.9195,0.7716664505250448,-0.3899856633008816
-3.919,0.07810508477567314,-0.9833974139902578
-3.9185,-0.7755089038389382,-1.163540266878104
-3.918,-1.447729919872945,-1.0999604364471
-3.9175,-1.415719395299897,-0.8880276683437509
-3.917,-0.8715404775580819,-0.4217755785163839
-3.9165,-0.3060212101009019,-0.008506680714854012
-3.916,0.09944543449103843,0.2458126410091644
-3.9155,0.3341892813600565,0.3411823866556712
-3.915,0.4302208550792003,0.3305857482505039
-3.9145,0.4622313796522482,0.2564092794143318
-3.914,0.4408910299368829,0.1716361721729923
-3.9135,0.3982103305061524,0.1186529801471552
-3.913,0.3555296310754218,0.08686306493165288
-3.9125,0.3235191065023739,0.09745970333682032
-3.912,0.2594980573562781,0.1822328105781598
-3.9115,-0.1993194615240755,0.5319218779486851
-3.911,-0.8822106524157645,0.9134008605347127
-3.9105,-1.437059745015262,0.4365521323021782
-3.91,-1.490410619303675,0.03387987290581572
-3.9095,-0.8928808272734472,0.1080563417419877
-3.909,-0.2099896363817582,0.08686306493165288
-3.9085,0.3128489316446912,-0.09327978795619347
-3.908,0.6009436528021226,-0.1462629799820306
-3.9075,0.6863050516635838,-0.1250697031716958
-3.907,0.6542945270905358,-0.02969995752518888
-3.9065,0.6116138276598051,0.1186529801471552
-3.906,0.7503261008096795,0.1928294489833272
-3.9055,0.7716664505250448,0.2987958330350016
-3.905,0.6863050516635838,0.4259554938970107
-3.9045,0.5689331282290746,0.5637117931641874
-3.904,0.4942419042252961,0.6590815388106942
-3.9035,0.4408910299368829,0.5319218779486851
-3.903,0.1848068333524996,-0.07208651114585861
-3.9025,-0.4660738329661415,-0.7290780922662394
-3.902,-1.052933450138687,-1.174136905283272
-3.9015,-1.458400094730627,-1.407262950196955
-3.901,-1.223656247861609,-1.068170521231597
-3.9005,-0.6688071552621118,-0.4429688553267188
-3.9,-0.1673089369510276,0.07626642652648545
-3.8995,0.1848068333524996,0.3729723018711736
-3.899,0.3661998059331045,0.4789386859228479
-3.8985,0.4408910299368829,0.4365521323021782
-3.898,0.4515612047945656,0.3199891098453364
-3.8975,0.4302208550792003,0.1928294489833272
-3.897,0.3875401556484697,0.08686306493165288
-3.8965,0.3341892813600565,0.03387987290581572
-3.896,0.2061471830678648,0.1928294489833272
-3.8955,0.04609456020262521,0.4259554938970107
-3.895,-0.2953510352432193,0.7438546460520338
-3.8945,-0.8715404775580819,1.093543713422559
-3.894,-1.362368521011484,0.5743084315693548
-3.8935,-1.67180359188428,-0.1250697031716958
-3.893,-1.351698346153801,-0.1780528951975329
-3.8925,-0.7114878546928423,-0.02969995752518888
-3.892,-0.06060718837420119,0.09745970333682032
-3.8915,0.3875401556484697,0.02328323450064829
-3.891,0.6116138276598051,-0.07208651114585861
-3.8905,0.6756348768059011,-0.02969995752518888
-3.89,0.6329541773751706,0.08686306493165288
-3.8895,0.7716664505250448,0.03387987290581572
-3.889,0.9210488985326017,-0.02969995752518888
-3.8885,0.8356874996711408,0.1504428953626575
-3.888,0.6863050516635838,0.3941655786815084
-3.8875,0.5689331282290746,0.5743084315693548
