Class_10_Using_Wats_App/Class_10_WatsApp_Basim_10.csv

#Digilent WaveForms Oscilloscope Acquisition
#Device Name: EExplorer
#Serial Number: SN:210151A2B84A
#Date Time: 2021-02-07 15:59:36.301
#Sample rate: 2000Hz
#Samples: 16384
#Trigger: Source: Channel 1 Type: Edge Condition: Rising Level: 0 V Hyst.: Auto HoldOff: 0 s
#Channel 1: Range: 1 V/div Offset: 0 V Attenuation: 1 X
#Channel 2: Range: 1 V/div Offset: 0 V Attenuation: 1 X
#Power Supplies: ON
#Fixed Supply: ON
#Voltage: 3.3 V Readback: 3.317 V
#Positive Supply: ON
#Voltage: 3.7 V Readback: 3.703 V
#Current: 40 mA Readback: 16 mA
#Negative Supply: ON
#Voltage: -3.7 V Readback: -3.712 V
#Current: -40 mA Readback: 0 A
#Reference 1: ON
#Voltage: 0 V
#Reference 2: ON
#Voltage: 0 V

Time (s),Channel 1 (V),Channel 2 (V)
-4.096,-0.06060718837420119,0.7438546460520338
-4.0955,-0.4127229586774081,1.082947075017083
-4.095,-0.7755089038386859,1.252493289499377
-4.0945,-0.4980843575391895,0.4895353243280153
-4.094,-0.1032878878052908,-0.4429688553258707
-4.0935,0.1101156093487696,-0.8668343915334258
-4.093,0.1634664836371343,-0.8774310299385835
-4.0925,0.1421261339217884,-0.7078848154560587
-4.092,0.08877525963330726,-0.4959520473523728
-4.0915,0.03542438534494258,-0.2946159176543747
-4.091,0.1954770082101822,-0.3475991096802118
-4.0905,0.2701682322139025,-0.3158091944645746
-4.09,0.2061471830678648,-0.1674562567923655
-4.0895,0.1101156093487211,0.03387987290581572
-4.089,0.01408403562966463,0.2140227257934982
-4.0885,-0.09261771294724913,0.3729723018711736
-4.088,-0.5621054066852853,0.7332580076468663
-4.0875,-1.106284324426605,1.14652690544802
-4.087,-1.565101843307551,1.506812611224098
-4.0865,-1.67180359188428,1.517409249629256
-4.086,-1.266336947292709,0.9557874141558932
-4.0855,-0.7541685541232236,0.319989109844922
-4.085,-0.3700422592469978,-0.1356663415768632
-4.0845,-0.1246282375205202,-0.3793890248954925
-4.084,-0.007256314085758875,-0.4535654937318477
-4.0835,0.02475421048725994,-0.4111789401112165
-4.083,0.02475421048725994,-0.3158091944647096
-4.0825,0.003413860771875241,-0.2098428104129292
-4.082,-0.01792648894347063,-0.09327978795619347
-4.0815,-0.02859666380115328,0.02328323450064829
-4.081,-0.02859666380115328,0.1292496185522262
-4.0805,-0.02859666380115328,0.2034260873884947
-4.08,0.2061471830678648,0.4259554938970107
-4.0795,0.6756348768054741,0.8922075837239538
-4.079,0.3982103305056866,1.326669758336252
-4.0785,-0.1139580626626144,1.33726639674141
-4.078,-0.06060718837424971,0.351779025061735
-4.0775,0.1527963087795584,-0.6760949002407589
-4.077,0.2701682322139607,-1.068170521231597
-4.0765,0.2488278824986148,-0.9939940523954928
-4.076,0.174136658494749,-0.7184814538608117
-4.0755,0.09944543449103843,-0.4323722169215513
-4.075,0.03542438534494258,-0.1992461720078678
-4.0745,0.04609456020266403,-0.1462629799820403
-4.074,0.08877525963335578,-0.1568596183871981
-4.0735,0.07810508477567314,-0.04029659593035631
-4.073,0.03542438534498139,0.08686306493153723
-4.0725,0.00341386077189465,0.1928294489833272
-4.072,-0.04993701351651855,0.2670059178194992
-4.0715,-0.3166913849583419,0.4365521323020239
-4.071,-0.9142211769891715,0.849821030104055
-4.0705,-1.30901764672307,1.231300012689736
-4.07,-1.533091318734202,1.453829419198049
-4.0695,-1.437059745014854,1.210106735878832
-4.069,-0.9889124009925911,0.5849050699745222
-4.0685,-0.5514352318276028,0.02328323450064829
-4.068,-0.2420001609546411,-0.3475991096803661
-4.0675,-0.06060718837420119,-0.5171453241628908
-4.067,0.01408403562957729,-0.5383386009732256
-4.0665,0.02475421048725023,-0.4853554089473017
-4.066,0.01408403562957729,-0.3899856633008816
-4.0655,0.00341386077189465,-0.2840192792492073
-4.065,-0.01792648894345122,-0.1674562567924715
-4.0645,-0.01792648894347063,-0.05089323433552374
-4.064,-0.01792648894347063,0.04447651131098315
-4.0635,0.09944543449093168,0.2140227257935079
-4.063,0.6436243522326784,0.6696781772163146
-4.0625,0.4515612047945656,1.167720182258731
-4.062,-0.5407650569690177,1.570392441654727
-4.0615,-0.9675720512769151,1.390249588766235
-4.061,-0.6261264558313813,0.2776025562246667
-4.0605,-0.1993194615240755,-0.6443049850249
-4.06,0.04609456020271255,-0.9410108603695206
-4.0595,0.142126133921769,-0.8668343915334161
-4.059,0.142126133921769,-0.6337083466197325
-4.0585,0.1101156093487502,-0.3687923864907877
-4.058,0.08877525963335578,-0.1886495336027004
-4.0575,0.1527963087794516,-0.1780528951975329
-4.057,0.1314559590641058,-0.05089323433563939
-4.0565,0.07810508477567314,0.1186529801471552
-4.056,0.02475421048725994,0.2881991946298341
-4.0555,-0.007256314085758876,0.4153588554917277
-4.055,-0.2206598112401104,0.6060983467852329
-4.0545,-0.9569018764195432,1.019367244586387
-4.054,-1.735824641029668,1.432636142387541
-4.0535,-1.94922813818365,1.570392441654717
-4.053,-1.533091318734406,1.157123543853563
-4.0525,-0.9355615267041777,0.5001319627331828
-4.052,-0.4554036581081872,-0.029699957525478
-4.0515,-0.156638762093345,-0.3475991096802118
-4.051,0.00341386077189465,-0.4641621321370536
-4.0505,0.0460945602025864,-0.4641621321370536
-4.05,0.04609456020262521,-0.3899856633008816
-4.0495,0.02475421048725994,-0.2840192792492073
-4.049,0.003413860771914058,-0.1674562567924715
-4.0485,-0.007256314085797692,-0.05089323433542737
-4.048,-0.01792648894347063,0.05507314971615059
-4.0475,-0.01792648894347063,0.1398462569574129
-4.047,0.003413860772234306,0.2140227257939608
-4.0465,0.3768699807907871,0.5425185163538525
-4.046,0.7503261008093398,1.040560521396269
-4.0455,0.2915085819288699,1.432636142387686
-4.045,-0.2099896363817582,1.178316820663898
-4.0445,-0.1459685872356623,0.07626642652648545
-4.044,0.06743490991808755,-0.8880276683440208
-4.0435,0.1741366584948169,-1.184733543688439
-4.043,0.1741366584948169,-1.068170521231597
-4.0425,0.1421261339217981,-0.8244478379129681
-4.042,0.08877525963335578,-0.5383386009732256
-4.0415,0.05676473506030786,-0.2946159176543747
-4.041,0.206147183067729,-0.3899856633007949
-4.0405,0.3128489316446427,-0.4323722169213971
-4.04,0.2594980573562781,-0.2628260024388724
-4.0395,0.1527963087795487,-0.0402965959305587
-4.039,0.05676473506021081,0.1504428953628213
-4.0385,-0.04993701351651855,0.3305857482505039
-4.038,-0.5514352318271467,0.7226613692413423
-4.0375,-1.191645723288852,1.199510097474561
-4.037,-1.51175096901904,1.559795803249926
-4.0365,-1.757164990745741,1.676358825706768
-4.036,-1.447729919872459,1.167720182258104
-4.0355,-0.9142211769888124,0.4789386859228479
-4.035,-0.4660738329661415,-0.05089323433552374
-4.0345,-0.1673089369512993,-0.347599109679942
-4.034,-0.007256314085787988,-0.4323722169215513
-4.0335,0.04609456020262521,-0.400582301706049
-4.033,0.04609456020262521,-0.294615917654471
-4.0325,0.03542438534492317,-0.1674562567922402
-4.032,0.01408403562957729,-0.02969995752518888
-4.0315,0.003413860771904354,0.1080563417418625
-4.031,-0.007256314085778284,0.2140227257937392
-4.0305,0.00341386077189465,0.2987958330350016
-4.03,-0.007256314085778284,0.4047622170865795
-4.0295,-0.1459685872359049,0.7968378380782082
-4.029,-0.4127229586777283,1.167720182258731
-4.0285,-0.4660738329661415,1.104140351827727
-4.028,-0.1566387620930538,0.25640927941358
-4.0275,0.1634664836371343,-0.570128516188728
-4.027,0.3021787567870086,-0.8880276683437509
-4.0265,0.2915085819293357,-0.8032545611024886
-4.026,0.2168173579255475,-0.570128516188728
-4.0255,0.142126133921769,-0.3370024712750445
-4.025,0.07810508477573137,-0.1780528951976775
-4.0245,0.110115609348789,-0.1674562567924233
-4.024,0.1848068333524996,-0.2310360872233701
-4.0235,0.1634664836371537,-0.1780528951975811
-4.023,0.09944543449098991,-0.09327978795612601
-4.0225,0.04609456020262521,-0.01910331912002144
-4.022,-0.01792648894341239,0.03387987290576753
-4.0215,-0.4340633083938215,0.245812641009627
-4.021,-1.234326422719292,0.7544512844572011
-4.0205,-1.885207089037933,1.241896651094903
-4.02,-1.970568487898957,1.369056311956488
-4.0195,-1.490410619303675,0.9028042221295453
-4.019,-0.8715404775580819,0.2776025562246667
-4.0185,-0.4020527838204727,-0.2098428104125919
-4.018,-0.1032878878049318,-0.474758770542221
-4.0175,0.03542438534494258,-0.570128516188728
-4.017,0.07810508477563433,-0.5383386009732545
-4.0165,0.06743490991797109,-0.4429688553266031
-4.016,0.04609456020262521,-0.3158091944647096
-4.0155,0.02475421048727934,-0.188649533602816
-4.015,0.01408403562956759,-0.05089323433541773
-4.0145,0.00341386077189465,0.06566978812131802
-4.014,0.00341386077189465,0.171636172172896
-4.0135,0.01408403562939291,0.2881991946301715
-4.013,-0.1886492866663929,0.6590815388106942
-4.0125,-0.7648387289812555,1.135930267043229
-4.012,-1.138294848999934,1.411442865577023
-4.0115,-0.9035510021311299,0.7968378380778709
-4.011,-0.3380317346739499,-0.3581957480853793
-4.0105,0.1101156093483135,-1.089363798041267
-4.01,0.291508581929326,-1.174136905283272
-4.0095,0.291508581929326,-0.9410108603695881
-4.009,0.2168173579256154,-0.633708346620012
-4.0085,0.1314559590640475,-0.3687923864903925
-4.008,0.08877525963335578,-0.1992461720078678
-4.0075,0.1314559590640476,-0.1674562567923944
-4.007,0.1207857842063649,-0.06148987274057553
-4.0065,0.07810508477567314,0.06566978812131802
-4.006,0.04609456020262521,0.1822328105781598
-4.0055,0.01408403562935409,0.2564092794144956
-4.005,-0.2313299860971235,0.4365521323021782
-4.0045,-0.8822106524157645,0.8816109453192104
-4.004,-1.40504922044268,1.326669758336532
-4.0035,-1.917217613610981,1.644568910491266
-4.003,-1.83185621474952,1.400846227172415
-4.0025,-1.266336947292854,0.701468092432
-4.002,-0.6794773301197943,0.06566978812131802
-4.0015,-0.274010685527854,-0.3581957480853793
-4.001,-0.0392668386590494,-0.5595318777833774
-4.0005,0.06743490991800992,-0.5913217929989953
-4,0.08877525963335578,-0.5171453241628908
-3.9995,0.07810508477567314,-0.400582301706049
-3.999,0.05676473506030786,-0.2734226408440398
-3.9985,0.03542438534494258,-0.1356663415768632
-3.998,0.02475421048725994,-0.008506680714854012
-3.9975,0.02475421048725994,0.09745970333682032
-3.997,0.03542438534494258,0.1928294489833272
-3.9965,0.2381577076409128,0.4365521323021782
-3.996,0.4835717293676135,0.8922075837243778
-3.9955,-0.07127736323188383,1.326669758336243
-3.995,-0.6047861061160158,1.241896651094903
-3.9945,-0.5300948821122373,0.4789386859228479
-3.994,-0.2206598112394408,-0.2840192792492073
-3.9935,0.00341386077189465,-0.6549016234300674
-3.993,0.1101156093487211,-0.7078848154559045
-3.9925,0.142126133921769,-0.5807251545938954
-3.992,0.1314559590640864,-0.4111789401112165
-3.9915,0.09944543449103843,-0.2416327256285375
-3.991,0.1954770082101822,-0.2840192792492073
-3.9905,0.2381577076409128,-0.252229364033705
-3.99,0.1848068333524996,-0.1038764263613609
-3.9895,0.1207857842064037,0.04447651131098315
-3.989,0.05676473506030786,0.1716361721729923
-3.9885,-0.04993701351651855,0.2670059178194992
-3.988,-0.6047861061160158,0.5955017083796896
-3.9875,-1.362368521011484,1.072350436612224
-3.987,-1.842526389607202,1.464426057603419
-3.9865,-1.789175515318789,1.316073119931075
-3.986,-1.255666772434657,0.6802748156210291
-3.9855,-0.690147504977477,0.06566978812131802
-3.985,-0.274010685527854,-0.3475991096802118
-3.9845,-0.03926683865883591,-0.5489352393783931
-3.984,0.0674349099179905,-0.5913217929990628
-3.9835,0.09944543449103843,-0.5277419625680583
-3.983,0.08877525963335578,-0.4217755785163839
-3.9825,0.0674349099179905,-0.2946159176543747
-3.982,0.04609456020262521,-0.1674562567923655
-3.9815,0.03542438534494258,-0.04029659593035631
-3.981,0.02475421048725994,0.07626642652648545
-3.9805,0.03542438534494258,0.1610395337678249
-3.98,0.04609456020262521,0.3411823866556712
-3.9795,-0.124628237520297,0.7862411996727035
-3.979,-0.5087545323968721,1.220703374284568
-3.9785,-0.9462317015618604,1.496215972818921
-3.978,-0.807519428411986,0.8710143069140429
-3.9775,-0.3700422592469978,-0.1250697031716958
-3.977,-0.04993701351651855,-0.6866915386455698
-3.9765,0.1101156093487211,-0.8350444763179138
-3.976,0.1527963087794516,-0.7608680074817418
-3.9755,0.142126133921769,-0.6019184314042303
-3.975,0.1207857842064037,-0.4111789401112165
-3.9745,0.1527963087794516,-0.3158091944647096
-3.974,0.2274875327832301,-0.2734226408440398
-3.9735,0.1954770082101822,-0.1250697031716958
-3.973,0.1314559590640864,0.05507314971615059
-3.9725,0.07810508477567314,0.2034260873884947
-3.972,0.02475421048725994,0.309392471440169
-3.9715,-0.3700422592469978,0.5955017083796896
-3.971,-1.1062843244271,1.061753798207057
-3.9705,-1.693143941599645,1.464426057603419
-3.97,-1.938557963326346,1.644568910491266
-3.9695,-1.714484291315011,1.326669758336243
-3.969,-1.116954499284783,0.6378882620003594
-3.9685,-0.572775581542968,0.03387987290581572
-3.968,-0.1886492866663929,-0.3475991096802118
-3.9675,0.01408403562957729,-0.5065486857577234
-3.967,0.09944543449103843,-0.5065486857577234
-3.9665,0.1101156093487211,-0.4217755785163839
-3.966,0.09944543449103843,-0.3052125560595421
-3.9655,0.0674349099179905,-0.1674562567923655
-3.965,0.05676473506030786,-0.04029659593035631
-3.9645,0.04609456020262521,0.08686306493165288
-3.964,0.04609456020262521,0.1822328105781598
-3.9635,0.07810508477567314,0.2987958330350016
-3.963,0.08877525963335578,0.6378882620003594
-3.9625,-0.2846808603855366,1.061753798207057
-3.962,-0.754168554123573,1.284283204715573
-3.9615,-0.839529952985034,0.9981739677760521
-3.961,-0.4660738329661415,0.1186529801471552
-3.9605,-0.08194753808956648,-0.5913217929990628
-3.96,0.1527963087794516,-0.8562377531282487
-3.9595,0.2274875327832301,-0.8244478379127463
-3.959,0.2061471830678648,-0.6337083466197325
-3.9585,0.1634664836371343,-0.4217755785163839
-3.958,0.1527963087794516,-0.2946159176543747
-3.9575,0.3235191065023739,-0.4853554089473885
-3.957,0.3341892813600565,-0.4641621321370536
-3.9565,0.2594980573562781,-0.2946159176543747
-3.956,0.1634664836371343,-0.09327978795619347
-3.9555,0.08877525963335578,0.05507314971615059
-3.955,-0.124628237520297,0.2670059178194992
-3.9545,-0.8288597781273515,0.7438546460520338
-3.954,-1.415719395299897,1.178316820663898
-3.9535,-1.490410619303675,1.29487984312074
-3.953,-1.26633694729234,1.051157159801889
-3.9525,-0.8181896032696687,0.4683420475176805
-3.952,-0.4020527838200457,-0.05089323433552374
-3.9515,-0.1139580626626144,-0.3687923864905467
-3.951,0.03542438534494258,-0.5065486857577234
-3.9505,0.09944543449103843,-0.5065486857577234
-3.95,0.09944543449103843,-0.4323722169215513
-3.9495,0.08877525963335578,-0.3158091944647096
-3.949,0.07810508477567314,-0.1886495336027004
-3.9485,0.05676473506030786,-0.07208651114585861
-3.948,0.05676473506030786,0.04447651131098315
-3.9475,0.05676473506030786,0.1504428953626575
-3.947,0.0674349099179905,0.2246193641988295
-3.9465,0.1314559590640864,0.4789386859228479
-3.946,0.1634664836371343,0.9345941373450475
-3.9455,-0.1886492866663929,1.326669758336243
-3.945,-0.391382608962363,1.114736990232894
-3.9445,-0.1459685872356623,0.08686306493165288
-3.944,0.1314559590640864,-0.7714646458869092
-3.9435,0.2808384070716433,-1.0999604364471
-3.943,0.291508581929326,-1.036380606016095
-3.9425,0.2274875327832301,-0.8244478379127463
-3.942,0.1634664836371343,-0.570128516188728
-3.9415,0.1101156093487211,-0.3899856633008816
-3.941,0.1634664836371343,-0.4111789401112165
-3.9405,0.1848068333524996,-0.3793890248957141
-3.94,0.1634664836371343,-0.2416327256285375
-3.9395,0.1207857842064037,-0.08268314955102604
-3.939,0.0674349099179905,0.04447651131098315
-3.9385,0.02475421048725994,0.1504428953626575
-3.938,-0.3593720843893152,0.4365521323021782
-3.9375,-1.084943974711735,0.9345941373450475
-3.937,-1.607782542738184,1.326669758336243
-3.9365,-1.863866739322568,1.496215972818921
-3.936,-1.501080794161358,1.019367244586387
-3.9355,-0.9035510021311299,0.3517790250608387
-3.935,-0.4127229586777283,-0.1674562567923655
-3.9345,-0.09261771294724913,-0.4641621321370536
-3.934,0.0674349099179905,-0.5595318777835605
-3.9335,0.1207857842064037,-0.5277419625680583
-3.933,0.1207857842064037,-0.4323722169215513
-3.9325,0.1101156093487211,-0.3052125560595421
-3.932,0.08877525963335578,-0.1780528951975329
-3.9315,0.0674349099179905,-0.05089323433552374
-3.931,0.0674349099179905,0.06566978812131802
-3.9305,0.0674349099179905,0.1610395337678249
-3.93,0.2274875327832301,0.3729723018711736
-3.9295,0.6649647019482183,0.7862411996727035
-3.929,0.4622313796522482,1.157123543853563
-3.9285,0.05676473506030786,1.220703374284568
-3.928,0.07810508477567314,0.55311515475902
-3.9275,0.2274875327832301,-0.252229364033705
-3.927,0.3128489316446912,-0.6125150698093976
-3.9265,0.3021787567870086,-0.6443049850249
-3.926,0.2488278824985954,-0.5277419625680583
-3.9255,0.1741366584948169,-0.3687923864905467
-3.925,0.1207857842064037,-0.2204394488182027
-3.9245,0.1527963087794516,-0.2204394488182027
-3.924,0.2488278824985954,-0.3158091944647096
-3.9235,0.2274875327832301,-0.252229364033705
-3.923,0.1741366584948169,-0.1250697031716958
-3.9225,0.1101156093487211,-0.01910331912002144
-3.922,0.0674349099179905,0.05507314971615059
-3.9215,-0.1139580626626144,0.2670059178194992
-3.921,-0.7968492535543035,0.7544512844572011
-3.9205,-1.437059745015262,1.199510097474233
-3.92,-1.735824641030376,1.464426057603419
-3.9195,-1.565101843307454,1.167720182258731
-3.919,-1.031593100423322,0.4895353243280153
-3.9185,-0.5194247072545548,-0.1038764263613609
-3.918,-0.156638762093345,-0.474758770542221
-3.9175,0.03542438534494258,-0.6443049850249
-3.917,0.1101156093487211,-0.6443049850249
-3.9165,0.1314559590640864,-0.5595318777835605
-3.916,0.1207857842064037,-0.4323722169215513
-3.9155,0.09944543449103843,-0.2946159176543747
-3.915,0.07810508477567314,-0.1462629799820306
-3.9145,0.0674349099179905,-0.01910331912002144
-3.914,0.07810508477567314,0.09745970333682032
-3.9135,0.09944543449103843,0.2352160026039969
-3.913,0.142126133921769,0.627291623595192
-3.9125,-0.2846808603855366,1.114736990232894
-3.912,-0.7008176798351597,1.37965295036208
-3.9115,-0.5300948821122373,0.7438546460520338
-3.911,-0.08194753808956648,-0.3899856633008816
-3.9105,0.2381577076409128,-1.089363798041932
-3.91,0.3448594562177392,-1.163540266878104
-3.9095,0.3235191065023739,-0.8986243067489184
-3.909,0.2488278824985954,-0.5807251545938954
-3.9085,0.1848068333524996,-0.3158091944647096
-3.908,0.1314559590640864,-0.1250697031716958
-3.9075,0.142126133921769,0.002089957690313421
-3.907,0.1314559590640864,0.1080563417419877
-3.9065,0.1101156093487211,0.1822328105781598
-3.906,0.07810508477567314,0.2352160026039969
-3.9055,0.0674349099179905,0.2564092794143318
-3.905,-0.03926683865883591,0.3199891098453364
-3.9045,-0.5621054066852853,0.6696781772158616
-3.904,-1.373038695869166,1.135930267043229
-3.9035,-2.130621110764634,1.496215972818921
-3.903,-2.141291285622316,1.326669758336243
-3.9025,-1.490410619303675,0.6484849004055269
-3.902,-0.7968492535543035,-0.008506680714854012
-3.9015,-0.2953510352432193,-0.4641621321370536
-3.901,-0.007256314085787988,-0.6972881770507372
-3.9005,0.1314559590640864,-0.7502713690765743
-3.9,0.1634664836371343,-0.6972881770507372
-3.8995,0.142126133921769,-0.5913217929990628
-3.899,0.1207857842064037,-0.4641621321370536
-3.8985,0.09944543449103843,-0.326405832869877
-3.898,0.07810508477567314,-0.1886495336027004
-3.8975,0.07810508477567314,-0.06148987274069118
-3.897,0.08877525963335578,0.04447651131098315
-3.8965,0.3235191065023739,0.3517790250608387
-3.896,0.6542945270905358,0.8710143069140429
-3.8955,0.1954770082101822,1.316073119931075
-3.895,-0.2526703358124887,1.475022696008586
-3.8945,-0.124628237520297,0.7544512844572011
-3.894,0.142126133921769,-0.3052125560595421
-3.8935,0.291508581929326,-0.8562377531282487
-3.893,0.3128489316446912,-0.9304142219644207
-3.8925,0.2594980573562781,-0.792657922697244
-3.892,0.2061471830678648,-0.5595318777835605
-3.8915,0.142126133921769,-0.3052125560595421
-3.891,0.2061471830678648,-0.2204394488182027
-3.8905,0.2488278824985954,-0.1462629799820306
-3.89,0.2168173579255475,0.002089957690313421
-3.8895,0.1634664836371343,0.1504428953626575
-3.889,0.1101156093487211,0.2776025562246667
-3.8885,0.04609456020262521,0.383568940276341
