Class_10_Using_Wats_App/Class_10_WatsApp_UZ_1.csv

#Digilent WaveForms Oscilloscope Acquisition
#Device Name: EExplorer
#Serial Number: SN:210151A2B84A
#Date Time: 2020-11-17 10:39:44.777
#Sample rate: 2000Hz
#Samples: 16384
#Trigger: Source: Channel 1 Type: Edge Condition: Rising Level: 0 V Hyst.: Auto HoldOff: 0 s
#Channel 1: Range: 1 V/div Offset: 0 V Attenuation: 1 X
#Channel 2: Range: 1 V/div Offset: 0 V Attenuation: 1 X
#Power Supplies: ON
#Fixed Supply: ON
#Voltage: 3.3 V Readback: 3.326 V
#Positive Supply: ON
#Voltage: 3.7 V Readback: 3.714 V
#Current: 40 mA Readback: 18 mA
#Negative Supply: ON
#Voltage: -3.7 V Readback: -3.354 V
#Current: -40 mA Readback: -8 mA
#Reference 1: ON
#Voltage: 0 V
#Reference 2: ON
#Voltage: 0 V

Time (s),Channel 1 (V),Channel 2 (V)
-4.096,0.05676473506030786,0.2776025562246667
-4.0955,-0.07127736323176737,0.362375663465929
-4.095,-0.1032878878049318,0.3835689402763121
-4.0945,-0.1032878878049318,0.3517790250608387
-4.094,-0.1246282375202776,0.3941655786814698
-4.0935,-0.2740106855278637,0.6060983467848571
-4.093,-0.2846808603855366,0.6060983467848571
-4.0925,-0.2206598112394991,0.5001319627332792
-4.092,-0.1459685872356623,0.394165578681306
-4.0915,-0.1459685872356623,0.1716361721729923
-4.091,-0.3593720843893152,-0.4535654937318862
-4.0905,-0.6261264558315268,-1.142346990068299
-4.09,-0.7861790786966207,-1.725162102351978
-4.0895,-1.020922925565639,-2.011271339291499
-4.089,-0.9675720512772742,-1.396666311792347
-4.0885,-0.690147504977477,-0.5595318777835605
-4.088,-0.391382608962363,0.1292496185523226
-4.0875,-0.1779791118089043,0.5637117931637923
-4.087,-0.06060718837415267,0.7756445612676035
-4.0865,-0.007256314085787988,0.849821030103708
-4.086,0.003413860771884946,0.8392243916985502
-4.0855,-0.007256314085797692,0.7862411996726456
-4.085,-0.01792648894347063,0.7226613692416989
-4.0845,-0.02859666380114357,0.6484849004055944
-4.084,-0.01792648894346092,0.5955017083796414
-4.0835,-0.007256314085787988,0.5425185163538525
-4.083,0.2274875327832301,0.1610395337678249
-4.0825,0.7289857510947996,-0.5701285161893737
-4.082,1.262494493978446,-1.280103289334946
-4.0815,1.529248865420512,-1.545019249464132
-4.081,1.283834843694035,-0.9833974139907686
-4.0805,0.8356874996711408,-0.3581957480853793
-4.08,0.4195506802215176,0.04447651131098315
-4.0795,0.1314559590643484,0.2246193641986657
-4.079,-0.0285966638012115,0.2881991946298052
-4.0785,-0.09261771294724913,0.2564092794143318
-4.078,-0.1032878878049221,0.2246193641988584
-4.0775,-0.09261771294729765,0.2034260873886199
-4.077,-0.1459685872356623,0.3411823866556712
-4.0765,-0.1673089369510082,0.4259554938969336
-4.076,-0.1459685872356235,0.4153588554918144
-4.0755,-0.1032878878049318,0.383568940276341
-4.075,-0.1032878878049318,0.3623756634660061
-4.0745,-0.4554036581088568,0.3517790250605013
-4.074,-0.8928808272734472,-0.01910331912002144
-4.0735,-0.8715404775580819,-0.6866915386455698
-4.073,-0.8822106524157548,-1.269506650929248
-4.0725,-1.010252750707956,-1.417859588602123
-4.072,-0.807519428411986,-0.8668343915334161
-4.0715,-0.5087545323971439,-0.1992461720084751
-4.071,-0.2633405106700258,0.3199891098456352
-4.0705,-0.1032878878049318,0.6484849004055269
-4.07,-0.02859666380122121,0.796837838077736
-4.0695,-0.007256314085787988,0.8392243916985213
-4.069,-0.007256314085787988,0.8180311148882058
-4.0685,-0.01792648894347063,0.7650479228623686
-4.068,-0.01792648894348033,0.7014680924313158
-4.0675,-0.02859666380115328,0.6484849004055269
-4.067,-0.01792648894347063,0.6060983467848571
-4.0665,0.01408403562978109,0.457745409111954
-4.066,0.2381577076409128,-0.1568596183871981
-4.0655,0.5155822539406614,-0.9092209451540858
-4.065,0.7609962756671391,-1.502632695842923
-4.0645,0.8356874996711408,-1.492036057438295
-4.064,0.6222840025174878,-0.9198175835592532
-4.0635,0.3555296310756644,-0.3581957480858901
-4.063,0.1421261339216428,0.0232832345008314
-4.0625,0.00341386077189465,0.2246193641988295
-4.062,-0.04993701351647003,0.2987958330349341
-4.0615,-0.07127736323188383,0.2987958330349726
-4.061,-0.07127736323188383,0.2670059178194992
-4.0605,-0.09261771294724913,0.2881991946298341
-4.06,-0.1139580626626047,0.3305857482504942
-4.0595,-0.1032878878049318,0.3199891098453364
-4.059,-0.08194753808956648,0.2776025562246667
-4.0585,-0.07127736323189353,0.2458126410091933
-4.058,-0.1459685872356623,-0.06148987274069118
-4.0575,-0.3807124341046804,-0.718481453861072
-4.057,-0.5621054066851203,-1.311893204549909
-4.0565,-0.6474668055467465,-1.703968825541643
-4.056,-0.9355615267041777,-1.809935209593318
-4.0555,-0.903551002131159,-1.17413690528385
-4.055,-0.6474668055464942,-0.4005823017054804
-4.0545,-0.3700422592469978,0.2246193641988295
-4.054,-0.167308936951212,0.6166949851896679
-4.0535,-0.06060718837415267,0.7968378380779191
-4.053,-0.007256314085787988,0.849821030103708
-4.0525,-0.007256314085787988,0.8180311148882058
-4.052,-0.007256314085797692,0.7544512844571336
-4.0515,-0.01792648894347063,0.6802748156210291
-4.051,-0.01792648894347063,0.6166949851900245
-4.0505,-0.01792648894347063,0.5637117931642356
-4.05,0.02475421048725994,0.4471487707073456
-4.0495,0.4622313796522482,-0.1144730647665284
-4.049,1.145122570543316,-0.8668343915327319
-4.0485,1.689301488285859,-1.502632695843694
-4.048,1.806673411720261,-1.75695201756748
-4.0475,1.358526067697998,-1.18473354368896
-4.047,0.7823366253823102,-0.5383386009728112
-4.0465,0.3235191065023739,-0.08268314955102604
-4.046,0.05676473506055052,0.171636172172761
-4.0455,-0.07127736323192264,0.2670059178195185
-4.045,-0.1139580626626144,0.2881991946298341
-4.0445,-0.1139580626626144,0.2670059178194992
-4.044,-0.1032878878049706,0.2776025562247727
-4.0435,-0.1459685872356623,0.3941655786815084
-4.043,-0.1459685872356623,0.4047622170866759
-4.0425,-0.1139580626626435,0.3729723018712025
-4.042,-0.09261771294724913,0.3199891098453364
-4.0415,-0.1673089369510276,0.09745970333682032
-4.041,-0.6794773301193284,-0.5383386009726474
-4.0405,-1.234326422719515,-1.216523458904414
-4.04,-1.479740444445993,-1.735758740757146
-4.0395,-1.394379045584609,-2.011271339291248
-4.039,-1.255666772434308,-1.67217891032536
-4.0385,-0.8715404775580819,-0.8138511995075789
-4.038,-0.4874141826818563,-0.05089323433621762
-4.0375,-0.2099896363816223,0.4683420475179407
-4.037,-0.06060718837420119,0.7544512844572011
-4.0365,0.00341386077189465,0.8604176685088755
-4.036,0.01408403562956759,0.8604176685088273
-4.0355,0.00341386077189465,0.8074344764830383
-4.035,-0.007256314085787988,0.7332580076468663
-4.0345,-0.01792648894346092,0.6590815388107617
-4.034,-0.01792648894347063,0.5955017083796896
-4.0335,-0.007256314085787988,0.5319218779486851
-4.033,0.3555296310750918,0.1928294489836356
-4.0325,1.006410297394403,-0.538338600973852
-4.032,1.379866417412955,-1.227120097309109
-4.0315,1.593269914566414,-1.693372187136052
-4.031,1.337185717981779,-1.364876396575688
-4.0305,0.8463576745288233,-0.7078848154559045
-4.03,0.4088805053642329,-0.1886495336031726
-4.0295,0.1207857842062581,0.1398462569576346
-4.029,-0.03926683865883591,0.2987958330350016
-4.0285,-0.1032878878049318,0.3199891098453364
-4.028,-0.1032878878049221,0.30939247144014
-4.0275,-0.09261771294724913,0.2776025562246667
-4.027,-0.156638762093345,0.3199891098453364
-4.0265,-0.1673089369510179,0.3199891098453364
-4.026,-0.1459685872356623,0.2987958330350016
-4.0255,-0.1139580626626144,0.2776025562246667
-4.025,-0.07127736323192264,0.2987958330349823
-4.0245,-0.1139580626627115,0.5955017083796703
-4.024,-0.2206598112394408,0.5743084315693548
-4.0235,-0.2526703358124596,-0.1462629799813753
-4.023,-0.4127229586781068,-0.9516074987751796
-4.0225,-0.8288597781273515,-1.417859588602123
-4.022,-0.8181896032696784,-1.057573882826758
-4.0215,-0.5834457564004371,-0.4005823017055382
-4.021,-0.3487019095316325,0.1610395337678249
-4.0205,-0.1673089369510276,0.55311515475902
-4.02,-0.06060718837416237,0.7756445612676131
-4.0195,-0.01792648894347063,0.8604176685088755
-4.019,-0.007256314085787988,0.8816109453192104
-4.0185,-0.01792648894346092,0.8604176685088948
-4.018,-0.02859666380115328,0.8286277532933731
-4.0175,-0.01792648894347063,0.7968378380778709
-4.017,-0.01792648894347063,0.7544512844572396
-4.0165,0.1634664836377069,0.6378882619998004
-4.016,0.79300680024041,0.02328323450064829
-4.0155,1.134452395685944,-0.7714646458861864
-4.015,1.155792745401455,-1.343683119766018
-4.0145,0.974399772821015,-1.417859588602123
-4.014,0.643624352233154,-0.930414221964864
-4.0135,0.3341892813598528,-0.4111789401108695
-4.013,0.1101156093487211,-0.02969995752518888
-4.0125,-0.01792648894347063,0.1716361721729923
-4.012,-0.07127736323190324,0.2352160026039969
-4.0115,-0.09261771294724913,0.2352160026039969
-4.011,-0.08194753808956648,0.2140227257936621
-4.0105,-0.08194753808956648,0.2034260873885043
-4.01,-0.08194753808956648,0.2140227257936621
-4.0095,-0.07127736323188383,0.2140227257936621
-4.009,-0.06060718837421089,0.2246193641988199
-4.0085,-0.06060718837433705,0.235216002603756
-4.008,-0.2099896363817582,-0.02969995752518888
-4.0075,-0.5941159312579839,-0.6549016234294988
-4.007,-0.7541685541235924,-1.269506650930135
-4.0065,-0.7755089038389382,-1.661582271920973
-4.006,-1.1062843244271,-1.79933857118815
-4.0055,-1.212986073003655,-1.375473034980749
-4.005,-0.9142211769888124,-0.6019184314042303
-4.0045,-0.5514352318276028,0.07626642652648545
-4.004,-0.2633405106700258,0.5319218779489068
-4.0035,-0.1032878878049318,0.775644561267536
-4.003,-0.01792648894347063,0.8604176685088755
-4.0025,0.003413860771875242,0.8604176685088755
-4.002,0.00341386077189465,0.8074344764830383
-4.0015,-0.007256314085787988,0.7438546460520338
-4.001,-0.01792648894346092,0.6802748156210869
-4.0005,-0.02859666380111446,0.6166949851899957
-4,0.01408403562957729,0.5849050699745222
-3.9995,0.3448594562177392,0.2140227257936621
-3.999,1.006410297394063,-0.5489352393783931
-3.9985,1.539919040278195,-1.248313374119443
-3.998,1.667961138570387,-1.598002441489969
-3.9975,1.262494493978446,-1.184733543688439
-3.997,0.7289857510943143,-0.6019184314042303
-3.9965,0.3021787567870086,-0.1568596183871981
-3.996,0.05676473506030786,0.1080563417419877
-3.9955,-0.07127736323188383,0.2246193641988295
-3.995,-0.1139580626626144,0.2458126410091644
-3.9945,-0.1032878878049318,0.2352160026039969
-3.994,-0.1032878878049318,0.2352160026039969
-3.9935,-0.156638762093345,0.3517790250608387
-3.993,-0.156638762093345,0.3729723018711736
-3.9925,-0.124628237520297,0.3517790250608387
-3.992,-0.09261771294724913,0.3411823866556712
-3.9915,-0.1032878878049318,0.2352160026039969
-3.991,-0.2206598112394408,-0.3158091944647096
-3.9905,-0.3380317346739499,-1.01518732920576
-3.99,-0.3593720843893152,-1.598002441489969
-3.9895,-0.4127229586777283,-1.75695201756748
-3.989,-0.3807124341046804,-1.089363798041932
-3.9885,-0.2633405106701714,-0.3158091944647096
-3.988,-0.1673089369510276,0.2881991946298341
-3.9875,-0.08194753808956648,0.6590815388106942
-3.987,-0.04993701351651855,0.8392243916985406
-3.9865,-0.02859666380115328,0.8816109453192104
-3.986,-0.02859666380115328,0.8604176685088755
-3.9855,-0.03926683865883591,0.8074344764830383
-3.985,-0.03926683865883591,0.7438546460520338
-3.9845,-0.03926683865883591,0.6696781772158616
-3.984,-0.02859666380115328,0.6166949851900245
-3.9835,-0.01792648894347063,0.5637117931641874
-3.983,0.2808384070716433,0.2881991946298341
-3.9825,0.9530594231056497,-0.4217755785163839
-3.982,1.454557641416734,-1.142346990067769
-3.9815,1.657290963712704,-1.587405803084801
-3.981,1.347855892839907,-1.163540266878104
-3.9805,0.8356874996711408,-0.5913217929990628
-3.98,0.3768699807907871,-0.1462629799820306
-3.9795,0.09944543449103843,0.13984625695749
-3.979,-0.04993701351651855,0.2670059178194992
-3.9785,-0.1139580626626144,0.2987958330350016
-3.978,-0.1139580626626144,0.2776025562246667
-3.9775,-0.1032878878049318,0.2458126410091644
-3.977,-0.1352984123779797,0.3199891098453364
-3.9765,-0.156638762093345,0.383568940276341
-3.976,-0.1352984123779797,0.3623756634660061
-3.9755,-0.1032878878049318,0.3411823866556712
-3.975,-0.09261771294724913,0.2881991946298341
-3.9745,-0.3380317346739499,-0.1674562567923655
-3.974,-0.807519428411986,-0.8668343915334161
-3.9735,-1.084943974711735,-1.481439419033127
-3.973,-1.202315898146244,-1.905304955239825
-3.9725,-1.319687821580753,-1.852321763213987
-3.972,-1.042263275281004,-1.05757388282643
-3.9715,-0.658136980404429,-0.2734226408440398
-3.971,-0.3273615598162672,0.3199891098453364
-3.9705,-0.124628237520297,0.6590815388106942
-3.97,-0.02859666380115328,0.8074344764830383
-3.9695,0.00341386077189465,0.8392243916985406
-3.969,0.00341386077189465,0.8074344764830383
-3.9685,-0.01792648894347063,0.7438546460520338
-3.968,-0.02859666380115328,0.6802748156210291
-3.9675,-0.02859666380115328,0.6166949851900245
-3.967,-0.02859666380115328,0.5637117931641874
-3.9665,0.02475421048725994,0.4471487707073456
-3.966,0.4835717293676135,-0.1144730647665284
-3.9655,0.857027849386506,-0.8350444763179138
-3.965,0.974399772821015,-1.407262950196955
-3.9645,0.9210488985326017,-1.195330182093607
-3.964,0.6542945270905358,-0.6443049850249
-3.9635,0.3448594562177392,-0.1992461720078678
-3.963,0.1314559590640864,0.07626642652648545
-3.9625,-0.007256314085787988,0.2034260873884947
-3.962,-0.07127736323188383,0.2352160026039969
-3.9615,-0.08194753808956648,0.2352160026039969
-3.961,-0.08194753808956648,0.2246193641988295
-3.9605,-0.1032878878049318,0.2987958330350016
-3.96,-0.1459685872356623,0.4259554938970107
-3.9595,-0.1352984123779797,0.4365521323021782
-3.959,-0.1032878878049318,0.4153588554918433
-3.9585,-0.08194753808956648,0.4047622170866759
-3.958,-0.04993701351651855,0.1504428953626575
-3.9575,-0.01792648894347063,-0.5277419625680583
-3.957,0.04609456020262521,-1.195330182093607
-3.9565,0.1634664836371343,-1.629792356705471
-3.956,-0.1673089369510276,-1.75695201756748
-3.9555,-0.4874141826815069,-1.269506650929778
-3.955,-0.4874141826815069,-0.4853554089473885
-3.9545,-0.3487019095316325,0.1928294489833272
-3.954,-0.2099896363817582,0.6378882620003594
-3.9535,-0.1139580626626144,0.849821030103708
-3.953,-0.06060718837420119,0.9134008605347127
-3.9525,-0.02859666380115328,0.8922075837243778
-3.952,-0.02859666380115328,0.8180311148882058
-3.9515,-0.02859666380115328,0.7438546460520338
-3.951,-0.02859666380115328,0.6590815388106942
-3.9505,-0.02859666380115328,0.5849050699745222
-3.95,0.01408403562957729,0.5107286011383502
-3.9495,0.3661998059331045,0.06566978812131802
-3.949,0.9850699476786977,-0.6866915386455698
-3.9485,1.369196242555273,-1.354279758171118
-3.948,1.550589215135878,-1.714565463946811
-3.9475,1.251824319120764,-1.290699927740113
-3.947,0.7503261008096795,-0.6654982618352349
-3.9465,0.3341892813600565,-0.1780528951975329
-3.946,0.0674349099179905,0.1186529801471552
-3.9455,-0.06060718837420119,0.2458126410091644
-3.945,-0.1139580626626144,0.2670059178194992
-3.9445,-0.1139580626626144,0.2458126410091644
-3.944,-0.1032878878049318,0.2352160026039969
-3.9435,-0.1139580626626144,0.309392471440169
-3.943,-0.1139580626626144,0.3305857482505039
-3.9425,-0.09261771294724913,0.3199891098453364
-3.942,-0.08194753808956648,0.3199891098453364
-3.9415,-0.1032878878049318,0.3517790250608387
-3.941,-0.5514352318276028,0.4365521323021782
-3.9405,-1.084943974711735,-0.1038764263613609
-3.94,-1.159635198715513,-0.8350444763179138
-3.9395,-0.9889124009925911,-1.205926820498774
-3.939,-0.6688071552621118,-0.8244478379127463
-3.9385,-0.3807124341046804,-0.2416327256285375
-3.938,-0.1673089369510276,0.2776025562246667
-3.9375,-0.06060718837420119,0.6060983467848571
-3.937,-0.01792648894347063,0.775644561267536
-3.9365,-0.007256314085787988,0.849821030103708
-3.936,-0.01792648894347063,0.849821030103708
-3.9355,-0.02859666380115328,0.8180311148882058
-3.935,-0.03926683865883591,0.7650479228623686
-3.9345,-0.03926683865883591,0.7226613692416989
-3.934,-0.03926683865883591,0.6696781772158616
-3.9335,-0.02859666380115328,0.6378882620003594
-3.933,0.05676473506030786,0.4153588554918433
-3.9325,0.408880505363835,-0.252229364033705
-3.932,0.6542945270905358,-0.9622041371799229
-3.9315,0.9103787236749192,-1.502632695843462
-3.931,0.9317190733902845,-1.354279758171118
-3.9305,0.6542945270905358,-0.7502713690765743
-3.93,0.3448594562177392,-0.2098428104130352
-3.9295,0.1207857842064037,0.1504428953626575
-3.929,-0.007256314085787988,0.309392471440169
-3.9285,-0.08194753808956648,0.3305857482505039
-3.928,-0.09261771294724913,0.3199891098453364
-3.9275,-0.08194753808956648,0.2881991946298341
-3.927,-0.1032878878049318,0.3305857482505039
-3.9265,-0.1032878878049318,0.3517790250608387
-3.926,-0.09261771294724913,0.3199891098453364
-3.9255,-0.08194753808956648,0.2881991946298341
-3.925,-0.08194753808956648,0.2458126410091644
-3.9245,-0.391382608962363,-0.1886495336027004
-3.924,-0.9142211769888124,-0.8668343915334161
-3.9235,-1.127624674142465,-1.492036057438295
-3.923,-1.116954499284783,-1.937094870455327
-3.9225,-0.9142211769888124,-1.502632695843462
-3.922,-0.5941159312583333,-0.6866915386455698
-3.9215,-0.3273615598162672,-0.008506680714854012
-3.921,-0.1352984123779797,0.457745409112513
-3.9205,-0.03926683865883591,0.701468092431364
-3.92,-0.007256314085787988,0.7968378380778709
-3.9195,-0.007256314085787988,0.8074344764830383
-3.919,-0.01792648894347063,0.7650479228623686
-3.9185,-0.02859666380115328,0.7120647308365314
-3.918,-0.03926683865883591,0.6590815388106942
-3.9175,-0.03926683865883591,0.6060983467848571
-3.917,-0.02859666380115328,0.5743084315693548
-3.9165,0.00341386077189465,0.4683420475176805
-3.916,0.3875401556484697,-0.09327978795619347
-3.9155,0.8036769750980928,-0.8138511995075789
-3.915,1.059761171682476,-1.396666311791788
-3.9145,0.9957401225363802,-1.195330182093607
-3.914,0.6649647019482183,-0.6443049850249
-3.9135,0.3235191065023739,-0.1886495336027004
-3.913,0.09944543449103843,0.1080563417419877
-3.9125,-0.02859666380115328,0.2458126410091644
-3.912,-0.08194753808956648,0.2881991946298341
-3.9115,-0.09261771294724913,0.2881991946298341
-3.911,-0.09261771294724913,0.2670059178194992
-3.9105,-0.09261771294724913,0.3199891098453364
-3.91,-0.1032878878049318,0.4047622170866759
-3.9095,-0.1032878878049318,0.4153588554918433
-3.909,-0.08194753808956648,0.4153588554918433
-3.9085,-0.07127736323188383,0.4153588554918433
-3.908,-0.1993194615240755,0.1504428953626575
-3.9075,-0.690147504977477,-0.5277419625680583
-3.907,-0.9995825758502737,-1.205926820498774
-3.9065,-1.031593100423322,-1.725162102351978
-3.906,-1.095614149569417,-1.852321763213987
-3.9055,-0.8928808272734472,-1.163540266878104
-3.905,-0.572775581542968,-0.3581957480853793
-3.9045,-0.3166913849585846,0.2458126410091644
-3.904,-0.124628237520297,0.627291623595192
-3.9035,-0.03926683865883591,0.7968378380778709
-3.903,-0.007256314085787988,0.8286277532933731
-3.9025,-0.007256314085787988,0.7968378380778709
-3.902,-0.01792648894347063,0.7332580076468663
-3.9015,-0.02859666380115328,0.6590815388106942
-3.901,-0.02859666380115328,0.5955017083796896
-3.9005,-0.02859666380115328,0.5319218779486851
-3.9,-0.007256314085787988,0.4683420475176805
-3.8995,0.3235191065023739,0.1080563417419877
-3.899,1.006410297394063,-0.5807251545938954
-3.8985,1.454557641416734,-1.248313374119443
-3.898,1.401206767128321,-1.364876396576285
-3.8975,0.9637295979633325,-0.8350444763179138
-3.897,0.5155822539406614,-0.3158091944647096
-3.8965,0.1848068333524996,0.01268659609548085
-3.896,0.00341386077189465,0.1928294489833272
-3.8955,-0.08194753808956648,0.2458126410091644
-3.895,-0.1032878878049318,0.2352160026039969
-3.8945,-0.09261771294724913,0.2246193641988295
-3.894,-0.09261771294724913,0.2352160026039969
-3.8935,-0.1139580626626144,0.3305857482505039
-3.893,-0.124628237520297,0.3623756634660061
-3.8925,-0.1032878878049318,0.3729723018711736
-3.892,-0.08194753808956648,0.3729723018711736
-3.8915,-0.1032878878049318,0.2776025562246667
-3.891,-0.2206598112394408,-0.2628260024388724
-3.8905,-0.3700422592469978,-0.9622041371799229
-3.89,-0.4554036581084589,-1.417859588602123
