Class_10_Using_Wats_App/Class_10_WatsApp_Basim_1.csv

#Digilent WaveForms Oscilloscope Acquisition
#Device Name: EExplorer
#Serial Number: SN:210151A2B84A
#Date Time: 2020-11-18 11:26:30.114
#Sample rate: 2000Hz
#Samples: 16384
#Trigger: Source: Channel 1 Type: Edge Condition: Rising Level: 0 V Hyst.: Auto HoldOff: 0 s
#Channel 1: Range: 1 V/div Offset: 0 V Attenuation: 1 X
#Channel 2: Range: 1 V/div Offset: 0 V Attenuation: 1 X
#Power Supplies: ON
#Fixed Supply: ON
#Voltage: 3.3 V Readback: 3.315 V
#Positive Supply: ON
#Voltage: 3.7 V Readback: 3.715 V
#Current: 500 mA Readback: 18 mA
#Negative Supply: ON
#Voltage: -3.7 V Readback: -3.702 V
#Current: -500 mA Readback: -8 mA
#Reference 1: ON
#Voltage: 0 V
#Reference 2: ON
#Voltage: 0 V

Time (s),Channel 1 (V),Channel 2 (V)
-4.096,0.4515612047945656,0.7650479228623686
-4.0955,0.3982103305062009,0.5637117931643705
-4.095,0.3448594562177004,0.3835689402762254
-4.0945,0.3021787567870086,0.2564092794143318
-4.094,0.003413860772166377,0.4365521323020143
-4.0935,-0.8181896032704062,1.008770606181162
-4.093,-1.629122892453549,0.9451907757502149
-4.0925,-2.109280761048832,0.01268659609632894
-4.092,-1.799845690175812,-0.5807251545938761
-4.0915,-1.074273799854052,-0.5595318777835605
-4.091,-0.4127229586777283,-0.3158091944647096
-4.0905,0.03542438534515607,-0.06148987274052733
-4.09,0.2701682322139607,0.1186529801471552
-4.0895,0.3661998059331045,0.2352160026039969
-4.089,0.3768699807907774,0.2987958330349437
-4.0885,0.3555296310754218,0.3305857482505039
-4.088,0.3235191065023739,0.3517790250608387
-4.0875,0.2915085819293551,0.3517790250608387
-4.087,0.2808384070716336,0.3623756634659869
-4.0865,0.2701682322139607,0.3411823866556712
-4.086,0.2488278824986148,0.2034260873886199
-4.0855,-0.1886492866670334,-0.3687923864912696
-4.085,-0.8928808272734472,-1.163540266878104
-4.0845,-1.458400094730113,-1.80993520959273
-4.084,-1.383708870726208,-2.053657892911754
-4.0835,-0.6794773301197943,-1.598002441489969
-4.083,-0.03926683865883591,-0.7820612842920766
-4.0825,0.3768699807909521,-0.04029659592988407
-4.082,0.5582629533713921,0.4789386859228479
-4.0815,0.5902734779444399,0.7650479228623686
-4.081,0.5369226036560751,0.8286277532933153
-4.0805,0.4622313796522482,0.7968378380778709
-4.08,0.5049120790829789,0.8392243916985406
-4.0795,0.4942419042253058,0.7862411996727516
-4.079,0.4408910299368247,0.6484849004053823
-4.0785,0.3768699807907871,0.4895353243280153
-4.078,0.3235191065024224,0.351779025060964
-4.0775,0.2061471830673505,0.3305857482506677
-4.077,-0.3593720843893152,0.5107286011383502
-4.0765,-1.191645723287804,0.1822328105784585
-4.076,-1.746494815888146,-0.6337083466202915
-4.0755,-1.842526389607202,-1.248313374119443
-4.075,-1.30901764672307,-1.089363798041932
-4.0745,-0.6474668055462807,-0.6231117082141699
-4.074,-0.1352984123779797,-0.1886495336027004
-4.0735,0.1848068333524996,0.1080563417419877
-4.073,0.3235191065022477,0.2776025562245125
-4.0725,0.3661998059331045,0.3411823866556712
-4.072,0.3661998059331045,0.3517790250608387
-4.0715,0.3341892813600856,0.3411823866556809
-4.071,0.3128489316446718,0.3199891098453075
-4.0705,0.291508581929326,0.2881991946298341
-4.07,0.280838407071653,0.2246193641988873
-4.0695,0.2808384070714686,0.1292496185520239
-4.069,0.08877525963335578,-0.1992461720078678
-4.0685,-0.6474668055467465,-0.9092209451540858
-4.068,-1.202315898146467,-1.53442261105936
-4.0675,-1.447729919872945,-1.968884785670829
-4.067,-1.084943974711735,-1.608599079895136
-4.0665,-0.4127229586772334,-0.9198175835586269
-4.066,0.1314559590640864,-0.2310360872233701
-4.0655,0.4408910299368829,0.2881991946298341
-4.065,0.5475927785136123,0.6590815388103568
-4.0645,0.5369226036560266,0.8392243916985406
-4.064,0.4729015545099309,0.8604176685088755
-4.0635,0.5262524287982956,0.8922075837243489
-4.063,0.5902734779443817,0.9134008605346163
-4.0625,0.5262524287983441,0.8074344764830383
-4.062,0.4408910299369606,0.6378882620005136
-4.0615,0.3661998059330172,0.4683420475176034
-4.061,0.2701682322139607,0.383568940276341
-4.0605,-0.1993194615240755,0.5849050699745222
-4.06,-0.91422117698922,0.6802748156203544
-4.0595,-1.362368521011484,-0.06148987274069118
-4.059,-1.522421143876723,-0.9092209451540858
-4.0585,-1.180975548431189,-1.025783967610822
-4.058,-0.6154562809736985,-0.6972881770507372
-4.0575,-0.1459685872356623,-0.3052125560595421
-4.057,0.1527963087791799,-0.008506680715123838
-4.0565,0.3021787567870086,0.1822328105781598
-4.056,0.3555296310754218,0.2670059178194992
-4.0555,0.3661998059330948,0.3093924714401304
-4.055,0.3448594562177197,0.3199891098453364
-4.0545,0.3235191065023739,0.3199891098453364
-4.054,0.2915085819293551,0.3093924714401786
-4.0535,0.2808384070716433,0.2987958330349534
-4.053,0.2808384070716433,0.2458126410091644
-4.0525,0.2701682322139607,0.1292496185523226
-4.052,0.2168173579252466,-0.4111789401119008
-4.0515,-0.1139580626626144,-1.163540266878104
-4.051,-0.6367966306890638,-1.703968825541643
-4.0505,-0.6047861061160449,-1.650985633515854
-4.05,-0.156638762093345,-1.195330182093607
-4.0495,0.2488278824985954,-0.5383386009732256
-4.049,0.4729015545097271,0.05507314971561095
-4.0485,0.5369226036560266,0.5001319627334334
-4.048,0.5369226036560266,0.775644561267536
-4.0475,0.483571729367662,0.8604176685087983
-4.047,0.4622313796523259,0.8710143069140718
-4.0465,0.5475927785137094,0.9028042221295453
-4.046,0.5155822539406905,0.7650479228624938
-4.0455,0.4408910299368247,0.5743084315692006
-4.045,0.3768699807907871,0.4047622170866759
-4.0445,0.3235191065023739,0.2776025562246667
-4.044,0.03542438534430208,0.5001319627336936
-4.0435,-0.6688071552621118,1.061753798207057
-4.043,-1.244996597576974,0.9557874141553824
-4.0425,-1.565101843307163,0.05507314971696986
-4.042,-1.373038695869166,-0.3899856633008816
-4.0415,-0.8181896032696687,-0.3687923864905467
-4.041,-0.2953510352436949,-0.1780528951977064
-4.0405,0.07810508477584782,0.02328323450079285
-4.04,0.2701682322139607,0.1822328105781598
-4.0395,0.3555296310753442,0.2987958330348955
-4.039,0.366199805933085,0.3623756634660543
-4.0385,0.3448594562177392,0.4153588554918433
-4.038,0.3235191065023933,0.4471487707073167
-4.0375,0.3021787567869892,0.4471487707073263
-4.037,0.2808384070716433,0.4259554938970107
-4.0365,0.2808384070716433,0.3941655786815084
-4.036,0.2701682322138927,0.2670059178189884
-4.0355,0.1954770082101822,-0.2946159176543747
-4.035,-0.423393133535411,-1.068170521231597
-4.0345,-1.18097554843019,-1.661582271920434
-4.034,-1.148965023857831,-1.84172512480882
-4.0335,-0.4980843575391895,-1.619195718300304
-4.033,0.1207857842058408,-1.036380606016625
-4.0325,0.4729015545100473,-0.3687923864899877
-4.032,0.6009436528021226,0.2458126410091644
-4.0315,0.5902734779444495,0.5955017083793717
-4.031,0.5155822539406032,0.7438546460520626
-4.0305,0.4515612047945656,0.775644561267536
-4.03,0.5582629533712951,0.8498210301036405
-4.0295,0.5689331282290067,0.765047922862195
-4.029,0.4942419042252961,0.5743084315693548
-4.0285,0.4195506802215176,0.3729723018711736
-4.028,0.3555296310753248,0.2246193641988295
-4.0275,0.2488278824985954,0.2246193641988295
-4.027,-0.2633405106701714,0.7226613692416989
-4.0265,-0.8822106524152016,0.9981739677758015
-4.026,-1.426389570157579,0.2881991946298341
-4.0255,-1.885207089037933,0.05507314971615059
-4.025,-1.671803591884474,0.2140227257935175
-4.0245,-1.010252750707394,0.2034260873884368
-4.024,-0.391382608962363,0.13984625695749
-4.0235,0.03542438534455439,0.08686306493170107
-4.023,0.270168232214048,0.08686306493169144
-4.0225,0.3661998059331045,0.1292496185523226
-4.022,0.3768699807907774,0.1928294489832694
-4.0215,0.3555296310753927,0.2776025562247341
-4.021,0.3235191065023739,0.3517790250608387
-4.0205,0.3021787567870086,0.4047622170866759
-4.02,0.2808384070716433,0.4365521323021589
-4.0195,0.2808384070716433,0.4153588554918433
-4.019,0.142126133921769,0.02328323450064829
-4.0185,-0.2526703358121297,-0.7078848154552395
-4.018,-0.9355615267041777,-1.354279758171118
-4.0175,-1.330357996438436,-1.661582271920973
-4.017,-0.8502001278431535,-1.407262950197187
-4.0165,-0.2099896363813215,-0.7184814538604841
-4.016,0.2701682322139607,-0.07208651114585861
-4.0155,0.4835717293674194,0.4259554938965577
-4.015,0.526252428798315,0.743854646052159
-4.0145,0.4942419042252961,0.8816109453192104
-4.014,0.4302208550792586,0.8710143069140526
-4.0135,0.4942419042253446,0.9134008605346645
-4.013,0.5475927785137094,0.8604176685088755
-4.0125,0.5049120790829789,0.6590815388106942
-4.012,0.4302208550791324,0.4153588554916506
-4.0115,0.3555296310754218,0.2034260873884947
-4.011,0.2594980573562781,0.1292496185523226
-4.0105,-0.3166913849580605,0.5743084315689501
-4.01,-1.138294849000148,1.114736990232894
-4.0095,-1.757164990745741,0.6484849004055269
-4.009,-2.087940411333602,0.05507314971669031
-4.0085,-1.746494815887399,0.02328323450060974
-4.008,-1.020922925565639,-0.01910331912002144
-4.0075,-0.3807124341052627,-0.04029659593033703
-4.007,0.05676473506052136,-0.02969995752515033
-4.0065,0.291508581929326,0.01268659609548085
-4.006,0.3768699807907871,0.07626642652648545
-4.0055,0.3875401556484503,0.1504428953627442
-4.005,0.3661998059331045,0.2458126410091644
-4.0045,0.3341892813600565,0.3199891098453364
-4.004,0.3021787567869892,0.38356894027637
-4.0035,0.2808384070716433,0.4153588554918433
-4.003,0.2808384070716433,0.4153588554918433
-4.0025,0.1848068333525869,0.118652980147425
-4.002,-0.4020527838200457,-0.6019184314042303
-4.0015,-0.9569018764195432,-1.248313374119443
-4.001,-1.362368521011115,-1.640388995110282
-4.0005,-1.042263275280393,-1.42845622700675
-4,-0.3700422592469978,-0.8350444763179138
-3.9995,0.1634664836371343,-0.2310360872233701
-3.999,0.4515612047945656,0.2987958330350016
-3.9985,0.5475927785137094,0.6590815388106942
-3.998,0.5262524287983441,0.8604176685088755
-3.9975,0.4729015545099309,0.9134008605347127
-3.997,0.5049120790829789,0.9451907757502149
-3.9965,0.7183155762366316,1.019367244586387
-3.996,0.707645401378949,0.8286277532933731
-3.9955,0.5796033030867573,0.5319218779486851
-3.995,0.4622313796522482,0.2564092794143318
-3.9945,0.3768699807907871,0.05507314971615059
-3.994,0.2701682322139607,0.09745970333682032
-3.9935,-0.3166913849585846,0.02328323450064829
-3.993,-0.8181896032696687,-0.6231117082145651
-3.9925,-1.127624674142465,-1.354279758171118
-3.992,-0.9782422261349084,-1.42845622700729
-3.9915,-0.5514352318276028,-0.9516074987747555
-3.991,-0.1459685872356623,-0.4217755785163839
-3.9905,0.1314559590640864,-0.01910331912002144
-3.99,0.2808384070716433,0.2246193641988295
-3.9895,0.3448594562177392,0.3517790250608387
-3.989,0.3555296310754218,0.3941655786815084
-3.9885,0.3448594562177392,0.3941655786815084
-3.988,0.3235191065023739,0.3941655786815084
-3.9875,0.3128489316446912,0.3729723018711736
-3.987,0.291508581929326,0.3517790250608387
-3.9865,0.291508581929326,0.309392471440169
-3.986,0.2488278824985954,0.2034260873884947
-3.9855,-0.274010685527854,-0.3793890248957141
-3.985,-0.9675720512772257,-1.152943628472937
-3.9845,-1.607782542738184,-1.79933857118815
-3.984,-1.87453691418025,-2.223204107394847
-3.9835,-1.244996597576974,-1.820531847998485
-3.983,-0.4447334832507763,-1.036380606016095
-3.9825,0.1314559590640864,-0.2628260024388724
-3.982,0.4302208550792003,0.3199891098453364
-3.9815,0.5262524287983441,0.6484849004055269
-3.981,0.5049120790829789,0.775644561267536
-3.9805,0.4729015545099309,0.7862411996727035
-3.98,0.5902734779444399,0.8816109453192104
-3.9795,0.6009436528021226,0.7968378380778709
-3.979,0.5262524287983441,0.5955017083796896
-3.9785,0.4302208550792003,0.3941655786815084
-3.978,0.3661998059331045,0.2140227257936621
-3.9775,0.3235191065023739,0.1822328105781598
-3.977,0.2168173579255475,0.6484849004055269
-3.9765,-0.3807124341046804,0.8922075837243778
-3.976,-0.9675720512772257,0.1822328105781598
-3.9755,-0.9995825758502737,-0.3793890248957141
-3.975,-0.6474668055467465,-0.4429688553267188
-3.9745,-0.2313299860971235,-0.2840192792492073
-3.974,0.07810508477567314,-0.08268314955102604
-3.9735,0.2594980573562781,0.09745970333682032
-3.973,0.3341892813600565,0.2246193641988295
-3.9725,0.3555296310754218,0.3199891098453364
-3.972,0.3448594562177392,0.3941655786815084
-3.9715,0.3235191065023739,0.4471487707073456
-3.971,0.3021787567870086,0.4683420475176805
-3.9705,0.291508581929326,0.4895353243280153
-3.97,0.2808384070716433,0.4895353243280153
-3.9695,0.291508581929326,0.4471487707073456
-3.969,0.05676473506030786,0.13984625695749
-3.9685,-0.6688071552621118,-0.6231117082145651
-3.968,-1.383708870726849,-1.364876396576285
-3.9675,-1.725154466172693,-1.88411167842949
-3.967,-1.234326422719292,-1.979481424075996
-3.9665,-0.4554036581084589,-1.47084278062796
-3.966,0.1527963087794516,-0.6760949002404023
-3.9655,0.4835717293676135,0.02328323450064829
-3.965,0.6009436528021226,0.457745409112513
-3.9645,0.5689331282290746,0.6908714540261965
-3.964,0.4942419042252961,0.7544512844572011
-3.9635,0.5155822539406614,0.7650479228623686
-3.963,0.5369226036560266,0.7120647308365314
-3.9625,0.4729015545099309,0.55311515475902
-3.962,0.408880505363835,0.3941655786815084
-3.9615,0.3555296310754218,0.2352160026039969
-3.961,0.3128489316446912,0.1716361721729923
-3.9605,0.0674349099179905,0.3623756634660061
-3.96,-0.572775581542968,0.2670059178194992
-3.9595,-1.095614149569417,-0.474758770542221
-3.959,-1.437059745015262,-0.8350444763179138
-3.9585,-1.330357996438436,-0.4959520473525559
-3.958,-0.8181896032696687,-0.2204394488182027
-3.9575,-0.3060212101009019,-0.05089323433552374
-3.957,0.0674349099179905,0.04447651131098315
-3.9565,0.2701682322139607,0.1080563417419877
-3.956,0.3555296310754218,0.1504428953626575
-3.9555,0.3768699807907871,0.2034260873884947
-3.955,0.3555296310754218,0.2458126410091644
-3.9545,0.3341892813600565,0.2987958330350016
-3.954,0.3128489316446912,0.3305857482505039
-3.9535,0.3021787567870086,0.3729723018711736
-3.953,0.291508581929326,0.3411823866556712
-3.9525,0.2168173579255475,0.13984625695749
-3.952,-0.3593720843893152,-0.5065486857577234
-3.9515,-1.052933450138687,-1.227120097309109
-3.951,-1.714484291315011,-1.767548655972648
-3.9505,-1.554431668449771,-1.990078062481164
-3.95,-0.7328282044082075,-1.714565463946811
-3.9495,-0.007256314085787988,-0.9833974139902578
-3.949,0.4302208550792003,-0.1992461720078678
-3.9485,0.6009436528021226,0.4153588554918433
-3.948,0.6222840025174878,0.7438546460520338
-3.9475,0.5689331282290746,0.8710143069140429
-3.947,0.5049120790829789,0.9028042221295453
-3.9465,0.4835717293676135,0.8816109453192104
-3.946,0.4302208550792003,0.7650479228623686
-3.9455,0.3875401556484697,0.5955017083796896
-3.945,0.3448594562177392,0.4153588554918433
-3.9445,0.3128489316446912,0.2776025562246667
-3.944,-0.02859666380115328,0.5107286011383502
-3.9435,-0.658136980404429,0.7332580076468663
-3.943,-1.052933450138687,0.07626642652648545
-3.9425,-1.351698346153801,-0.6549016234300674
-3.942,-1.341028171296118,-0.5807251545938954
-3.9415,-0.8715404775580819,-0.400582301706049
-3.941,-0.3593720843893152,-0.2628260024388724
-3.9405,0.02475421048725994,-0.1674562567923655
-3.94,0.2488278824985954,-0.1144730647665284
-3.9395,0.3555296310754218,-0.07208651114585861
-3.939,0.3768699807907871,-0.01910331912002144
-3.9385,0.3661998059331045,0.03387987290581572
-3.938,0.3448594562177392,0.08686306493165288
-3.9375,0.3235191065023739,0.13984625695749
-3.937,0.3021787567870086,0.1928294489833272
-3.9365,0.291508581929326,0.2140227257936621
-3.936,0.2808384070716433,0.2034260873884947
-3.9355,-0.09261771294724913,-0.2098428104130352
-3.935,-0.8608703027003992,-0.9198175835592532
-3.9345,-1.458400094730627,-1.481439419033127
-3.934,-1.30901764672307,-1.746355379162313
-3.9335,-0.6047861061160158,-1.449649503817625
-3.933,0.02475421048725994,-0.7078848154559045
-3.9325,0.408880505363835,0.03387987290581572
-3.932,0.5902734779444399,0.6060983467848571
-3.9315,0.6009436528021226,0.92399749893988
-3.931,0.5582629533713921,0.9981739677760521
-3.9305,0.5155822539406614,0.9557874141553824
-3.93,0.6329541773751706,0.9981739677760521
-3.9295,0.6329541773751706,0.9134008605347127
-3.929,0.5475927785137094,0.7226613692416989
-3.9285,0.4515612047945656,0.5213252395435176
-3.928,0.3768699807907871,0.3305857482505039
-3.9275,0.1954770082101822,0.2881991946298341
-3.927,-0.4980843575391895,0.5425185163538525
-3.9265,-1.138294849000148,0.1610395337678249
-3.926,-1.757164990745741,-0.6760949002404023
-3.9255,-2.119950935906951,-0.7290780922662394
-3.925,-1.639793067311232,-0.3793890248957141
-3.9245,-0.8928808272734472,-0.1462629799820306
-3.924,-0.274010685527854,-0.01910331912002144
-3.9235,0.1314559590640864,0.04447651131098315
-3.923,0.3341892813600565,0.06566978812131802
-3.9225,0.3982103305061524,0.07626642652648545
-3.922,0.408880505363835,0.09745970333682032
-3.9215,0.3768699807907871,0.1292496185523226
-3.921,0.3448594562177392,0.1610395337678249
-3.9205,0.3128489316446912,0.1822328105781598
-3.92,0.3021787567870086,0.2140227257936621
-3.9195,0.291508581929326,0.2140227257936621
-3.919,-0.04993701351651855,-0.1992461720078678
-3.9185,-0.8928808272734472,-0.9622041371799229
-3.918,-1.586442193022819,-1.587405803084801
-3.9175,-1.703814116457328,-1.703968825541643
-3.917,-0.9782422261349084,-1.248313374119443
-3.9165,-0.1779791118087102,-0.6972881770507372
-3.916,0.3341892813600565,-0.1356663415768632
-3.9155,0.5582629533713921,0.3199891098453364
-3.915,0.5902734779444399,0.6166949851900245
-3.9145,0.5369226036560266,0.7544512844572011
-3.914,0.4729015545099309,0.7862411996727035
-3.9135,0.5369226036560266,0.849821030103708
-3.913,0.5902734779444399,0.8710143069140429
-3.9125,0.5369226036560266,0.7650479228623686
-3.912,0.4515612047945656,0.6166949851900245
-3.9115,0.3875401556484697,0.4683420475176805
-3.911,0.3235191065023739,0.3729723018711736
-3.9105,-0.06060718837420119,0.6590815388106942
-3.91,-0.7008176798351597,1.00877060618122
-3.9095,-1.06360362499637,0.4365521323021782
-3.909,-1.277007122150022,-0.1780528951975329
-3.9085,-1.170305373573196,-0.1780528951975329
-3.908,-0.7008176798351597,-0.1462629799820306
-3.9075,-0.2313299860971235,-0.1038764263613609
-3.907,0.1101156093487211,-0.06148987274069118
-3.9065,0.291508581929326,-0.008506680714854012
-3.906,0.3661998059331045,0.05507314971615059
-3.9055,0.3875401556484697,0.1292496185523226
-3.905,0.3661998059331045,0.2034260873884947
-3.9045,0.3448594562177392,0.2776025562246667
-3.904,0.3341892813600565,0.3411823866556712
-3.9035,0.3128489316446912,0.3941655786815084
-3.903,0.3128489316446912,0.4153588554918433
-3.9025,0.1527963087794516,0.1292496185523226
-3.902,-0.4980843575391895,-0.5913217929990628
-3.9015,-1.052933450138687,-1.237716735714276
-3.901,-1.234326422719292,-1.576809164679634
-3.9005,-0.754168554123573,-1.439052865412457
-3.9,-0.07127736323188383,-0.9304142219644207
-3.8995,0.3982103305061524,-0.1886495336027004
-3.899,0.6009436528021226,0.383568940276341
-3.8985,0.6222840025174878,0.7332580076468663
-3.898,0.5582629533713921,0.9028042221295453
-3.8975,0.4835717293676135,0.92399749893988
-3.897,0.4622313796522482,0.8816109453192104
-3.8965,0.4942419042252961,0.8180311148882058
-3.896,0.4622313796522482,0.6802748156210291
-3.8955,0.408880505363835,0.5001319627331828
-3.895,0.3661998059331045,0.3199891098453364
-3.8945,0.3235191065023739,0.1822328105781598
-3.894,-0.08194753808956648,0.4683420475176805
-3.8935,-0.9355615267041777,1.104140351827727
-3.893,-1.67180359188428,1.316073119931075
-3.8925,-2.130621110764634,0.7650479228623686
-3.892,-2.098610586191586,0.6484849004055269
-3.8915,-1.373038695869166,0.4047622170866759
-3.891,-0.6261264558313813,0.1186529801471552
-3.8905,-0.07127736323188383,-0.07208651114585861
-3.89,0.2488278824985954,-0.1462629799820306
-3.8895,0.3875401556484697,-0.1250697031716958
-3.889,0.4195506802215176,-0.02969995752518888
-3.8885,0.408880505363835,0.09745970333682032
-3.888,0.3768699807907871,0.2246193641988295
-3.8875,0.3448594562177392,0.3411823866556712
-3.887,0.3235191065023739,0.4259554938970107
-3.8865,0.3021787567870086,0.4683420475176805
