Class_10_Using_Wats_App/Class_10_WatsApp_UZ_9.csv

#Digilent WaveForms Oscilloscope Acquisition
#Device Name: EExplorer
#Serial Number: SN:210151A2B84A
#Date Time: 2020-12-21 13:42:08.097
#Sample rate: 2000Hz
#Samples: 16384
#Trigger: Source: Channel 1 Type: Edge Condition: Rising Level: 0 V Hyst.: Auto HoldOff: 0 s
#Channel 1: Range: 1 V/div Offset: 0 V
#Channel 2: Range: 1 V/div Offset: 0 V

Time (s),Channel 1 (V),Channel 2 (V)
-4.0960000000000001,0.87836819910187125,1.3160731199310751
-4.0955000000000004,0.36619980593357027,1.273686566310444
-4.0949999999999998,0.35552963107555763,0.5531151547582297
-4.0945,0.50491207908297886,-0.31580919446470956
-4.0940000000000003,0.62228400251738103,-0.98339741398965064
-4.0934999999999997,0.60094365280202555,-1.343683119766095
-4.093,0.49424190422529612,-1.5026326958434622
-4.0925000000000002,0.37686998079089384,-1.4284562270073575
-4.0919999999999996,0.2594980573563363,-1.2483133741193952
-4.0914999999999999,0.32351910650237387,-1.1953301820936066
-4.0910000000000002,0.36619980593310447,-1.0893637980419322
-4.0904999999999996,0.3021787567869213,-0.86683439153320407
-4.0899999999999999,0.20614718306786484,-0.63370834661973252
-4.0895000000000001,0.14212613392176898,-0.41117894011121647
-4.0890000000000004,0.067434909918058436,-0.20984281041321834
-4.0884999999999998,-0.39138260896236304,0.2246193641988295
-4.0880000000000001,-1.1489650238578306,0.7968378380778709
-4.0875000000000004,-1.7998456901758797,1.2524932894996561
-4.0869999999999997,-2.3760351324910429,1.5386025264394079
-4.0865,-2.0559298867608553,1.33726639674141
-4.0860000000000003,-1.2556667724353849,0.68027481562162662
-4.0854999999999997,-0.60478610611560824,0.065669788120971059
-4.085,-0.15663876209334496,-0.31580919446470956
-4.0845000000000002,0.07810508477545966,-0.45356549373176092
-4.0839999999999996,0.17413665849482662,-0.41117894011111045
-4.0834999999999999,0.18480683335249956,-0.29461591765437467
-4.0830000000000002,0.16346648363713429,-0.13566634157686319
-4.0824999999999996,0.13145595906407664,0.023283234500783213
-4.0819999999999999,0.12078578420640371,0.17163617217299235
-4.0815000000000001,0.12078578420640371,0.28819919462983412
-4.0810000000000004,0.15279630877942252,0.38356894027625432
-4.0804999999999998,0.40888050536383502,0.61669498519002452
-4.0800000000000001,0.8997085488172365,0.98757732937088472
-4.0795000000000003,1.2091436196897516,1.3160731199307762
-4.0789999999999997,1.0704313465401489,1.4644260576033423
-4.0785,1.0597611716824762,1.3796529503620798
-4.0780000000000003,1.1131120459708406,1.0405605213970304
-4.0774999999999997,1.0277506471092535,0.27760255622408841
-4.077,0.83568749967114075,-0.3581957480853793
-4.0765000000000002,0.6222840025176819,-0.73967473067105993
-4.0759999999999996,0.44089102993675677,-0.93041422196451706
-4.0754999999999999,0.30217875678700862,-1.0363806060160949
-4.0750000000000002,0.30217875678700862,-1.1423469900677694
-4.0744999999999996,0.49424190422526704,-1.2906999277399687
-4.0739999999999998,0.4622313796522482,-1.131750351662602
-4.0735000000000001,0.33418928136005654,-0.84564111472308123
-4.0730000000000004,0.2061471830679813,-0.54893523937866284
-4.0724999999999998,0.11011560934872107,-0.29461591765437467
-4.0720000000000001,-0.12462823752029703,0.10805634174198775
-4.0715000000000003,-0.74349837926532736,0.68027481562050862
-4.0709999999999997,-1.3943790455850069,1.1783168206641874
-4.0705,-1.9172176136109809,1.4962159728189213
-4.0700000000000003,-2.3226842582025524,1.6233756336808149
-4.0694999999999997,-1.8211860398911579,1.1889134590684201
-4.069,-1.0742737998540521,0.47893868592284788
-4.0685000000000002,-0.47674400782382426,-0.061489872740691176
-4.0679999999999996,-0.092617712947074451,-0.35819574808543714
-4.0674999999999999,0.099445434491038431,-0.42177557851638392
-4.0670000000000002,0.17413665849481691,-0.33700247127504446
-4.0664999999999996,0.17413665849479751,-0.18864953360255582
-4.0659999999999998,0.15279630877945163,-0.029699957525188878
-4.0655000000000001,0.13145595906408636,0.15044289536265748
-4.0650000000000004,0.13145595906408636,0.29879583303486668
-4.0644999999999998,0.13145595906408636,0.39416557868150842
-4.0640000000000001,0.16346648363713429,0.4471487707073456
-4.0635000000000003,0.43022085507895769,0.65908153881050147
-4.0629999999999997,0.80367697509784042,1.0193672445866666
-4.0625,0.52625242879834411,1.3266697583362426
-4.0620000000000003,0.078105084776080691,1.1783168206640333
-4.0614999999999997,0.15279630877966513,0.36237566346527367
-4.0609999999999999,0.38754015564846972,-0.44296885532671876
-4.0605000000000002,0.51558225394066137,-1.0045906908005926
-4.0599999999999996,0.52625242879827616,-1.354279758171272
-4.0594999999999999,0.45156120479456557,-1.523825972653797
-4.0590000000000002,0.35552963107542179,-1.5344226110589645
-4.0585000000000004,0.2701682322140383,-1.4708427806280175
-4.0579999999999998,0.23815770764091276,-1.4390528654124575
-4.0575000000000001,0.18480683335249956,-1.42845622700729
-4.0570000000000004,0.13145595906413488,-1.258910012524765
-4.0564999999999998,0.099445434491038431,-1.01518732920576
-4.056,0.067434909917990504,-0.77146464588690922
-4.0555000000000003,-0.02859666380106593,-0.45356549373217531
-4.0549999999999997,-0.53009488211275169,0.16103953376843211
-4.0545,-1.0956141495694174,0.82862775329337313
-4.0540000000000003,-1.5971123678800454,1.2630899279048426
-4.0534999999999997,-2.1412912856223065,1.4008462271723088
-4.0529999999999999,-2.1306211107646336,1.2842832047155728
-4.0525000000000002,-1.405049220442214,0.73325800764686633
-4.0519999999999996,-0.73282820440776109,0.20342608738820553
-4.0514999999999999,-0.24200016095480609,-0.11447306476652835
-4.0510000000000002,0.035424385344942577,-0.19924617200786782
-4.0505000000000004,0.15279630877934489,-0.13566634157692103
-4.0499999999999998,0.18480683335249956,0.012686596095480854
-4.0495000000000001,0.17413665849481691,0.18223281057815977
-4.0490000000000004,0.1421261339217981,0.35177902506068448
-4.0484999999999998,0.12078578420641341,0.50013196273326954
-4.048,0.13145595906408636,0.59550170837968963
-4.0475000000000003,0.17413665849477811,0.66967817721579415
-4.0469999999999997,0.29150858192961715,0.75445128445741316
-4.0465,0.6116138276598051,0.98757732937088472
-4.0460000000000003,0.19547700821056069,1.2736865663101451
-4.0454999999999997,-0.42339313353529451,1.178316820663214
-4.0449999999999999,-0.29535103524321932,0.42595549389701071
-4.0445000000000002,0.08877525963335578,-0.30521255605954212
-4.0439999999999996,0.40888050536394177,-0.93041422196481582
-4.0434999999999999,0.52625242879834411,-1.3648763965762853
-4.0430000000000001,0.4835717293676135,-1.523825972653797
-4.0425000000000004,0.37686998079088413,-1.5344226110589549
-4.0419999999999998,0.25949805735627807,-1.4602461422227924
-4.0415000000000001,0.35552963107542179,-1.4814394190331273
-4.0410000000000004,0.47290155450982413,-1.4708427806279694
-4.0404999999999998,0.40888050536372827,-1.248313374119193
-4.04,0.29150858192932599,-0.97280077558509037
-4.0395000000000003,0.18480683335259662,-0.71848145386130335
-4.0389999999999997,0.046094560202081768,-0.50654868575741496
-4.0385,-0.55143523182760279,-0.1674562567923655
-4.0380000000000003,-1.2236562478609976,0.4471487707067866
-4.0374999999999996,-1.5544316684501494,0.91340086053504999
-4.0369999999999999,-1.9705684878993939,1.2842832047155728
-4.0365000000000002,-2.23732285934146,1.4432327807930845
-4.0359999999999996,-1.6397930673105821,1.008770606180651
-4.0354999999999999,-0.92489135184649518,0.38356894027634103
-4.0350000000000001,-0.38071243410468042,-0.093279787956193475
-4.0345000000000004,-0.03926683865914643,-0.31580919446450717
-4.0339999999999998,0.13145595906408636,-0.3581957480853793
-4.0335000000000001,0.18480683335249956,-0.26282600243887239
-4.0330000000000004,0.18480683335249956,-0.12506970317182106
-4.0324999999999998,0.15279630877944192,0.033879872905950646
-4.032,0.14212613392176898,0.18223281057815977
-4.0315000000000003,0.14212613392176898,0.30939247144005333
-4.0309999999999997,0.17413665849494306,0.39416557868157587
-4.0305,0.31284893164469124,0.46834204751768049
-4.0300000000000002,0.71831557623626274,0.70146809243115193
-4.0294999999999996,0.59027347794390606,1.0617537982072882
-4.0289999999999999,0.0034138607718946501,1.3160731199310751
-4.0285000000000002,-0.06060718837420119,0.76504792286236856
-4.0279999999999996,0.248827882498838,-0.082683149551604301
-4.0274999999999999,0.51558225394066137,-0.71848145386107198
-4.0270000000000001,0.62228400251748783,-1.0893637980419322
-4.0265000000000004,0.59027347794446894,-1.2483133741192989
-4.0259999999999998,0.49424190422529612,-1.3224898429556156
-4.0255000000000001,0.35552963107542179,-1.3012965661452807
-4.0250000000000004,0.32351910650240301,-1.3118932045504386
-4.0244999999999997,0.47290155450990179,-1.3966663117916431
-4.024,0.44089102993688295,-1.2377167357142764
-4.0235000000000003,0.32351910650248061,-0.98339741399048908
-4.0229999999999997,0.21681735792546014,-0.75027136907638159
-4.0225,0.12078578420640371,-0.53833860097322561
-4.0220000000000002,-0.16730893695076557,-0.1356663415772294
-4.0214999999999996,-0.78617907869715453,0.48953532432851649
-4.0209999999999999,-1.373038695869166,1.0405605213967219
-4.0205000000000002,-1.9598983130417114,1.4008462271724147
-4.0199999999999996,-2.4507263564946857,1.5597958032495887
-4.0194999999999999,-1.9812386627570766,1.1889134590690658
-4.0190000000000001,-1.1596351987155133,0.51072860113835017
-4.0185000000000004,-0.51942470725513712,-0.050893234335012916
-4.0179999999999998,-0.10328788780493176,-0.34759910968021185
-4.0175000000000001,0.11011560934872107,-0.42177557851638392
-4.0170000000000003,0.18480683335243164,-0.34759910968027929
-4.0164999999999997,0.19547700821016278,-0.19924617200772327
-4.016,0.17413665849481691,-0.04029659593035631
-4.0155000000000003,0.1421261339217981,0.1292496185521684
-4.0149999999999997,0.13145595906410576,0.26700591781960525
-4.0145,0.15279630877945163,0.38356894027634103
-4.0140000000000002,0.27016823221385394,0.50013196273307681
-4.0134999999999996,0.71831557623718467,0.80743447648336597
-4.0129999999999999,1.3265155431245421,1.1677201822587309
-4.0125000000000002,1.0597611716824762,1.432636142387917
-4.0119999999999996,0.48357172936758441,1.1677201822579599
-4.0114999999999998,0.45156120479456557,0.31998910984533641
-4.0110000000000001,0.57960330308675734,-0.52774196256805828
-4.0105000000000004,0.66496470194814072,-1.0893637980414215
-4.0099999999999998,0.64362435223285308,-1.3436831197659505
-4.0095000000000001,0.53692260365602662,-1.42845622700729
-4.0090000000000003,0.39821033050627852,-1.3436831197660275
-4.0084999999999997,0.29150858192932599,-1.2165234589038645
-4.008,0.29150858192932599,-1.131750351662602
-4.0075000000000003,0.24882788249863419,-1.0363806060161818
-4.0069999999999997,0.18480683335245104,-0.89862430674869664
-4.0065,0.13145595906408636,-0.65490162343006741
-4.0060000000000002,0.08877525963335578,-0.41117894011121647
-4.0054999999999996,-0.10328788780551403,-0.30521255605959996
-4.0049999999999999,-0.74349837926589024,-0.36879238649054674
-4.0045000000000002,-1.4584000947306273,-0.0085066807148540119
-4.0039999999999996,-2.0666000616189062,0.56371179316422593
-4.0034999999999998,-2.472066706210478,0.60609834678485708
-4.0030000000000001,-2.0879404113339031,0.45774540911251305
-4.0025000000000004,-1.2449965975777411,0.15044289536293698
-4.0019999999999998,-0.58344575640065055,-0.13566634157686319
-4.0015000000000001,-0.13529841237797968,-0.29461591765437467
-4.0010000000000003,0.099445434490824935,-0.34759910968016366
-4.0004999999999997,0.18480683335250928,-0.32640583286982883
-4,0.19547700821018218,-0.27342264084403983
-3.9994999999999998,0.17413665849481691,-0.20984281041303524
-3.9990000000000001,0.15279630877945163,-0.14626297998203064
-3.9984999999999999,0.15279630877945163,-0.061489872740691176
-3.9980000000000002,0.17413665849481691,0.023283234500648287
-3.9975000000000001,0.23815770764091276,0.055073149716150585
-3.9969999999999999,0.32351910650237387,0.19282944898332721
-3.9965000000000002,0.6116138276598051,0.62729162359519197
-3.996,0.60094365280212259,1.0723504366122243
-3.9954999999999998,0.17413665849481691,1.3690563119569124
-3.9950000000000001,0.17413665849481691,1.1889134590690658
-3.9944999999999999,0.41955068022151765,0.40476221708667587
-3.9940000000000002,0.6116138276598051,-0.42177557851638392
-3.9935,0.63295417737517057,-0.99399405239542526
-3.9929999999999999,0.53692260365602662,-1.3118932045504481
-3.9925000000000002,0.43022085507920033,-1.3648763965762853
-3.992,0.31284893164469124,-1.2906999277401132
-3.9914999999999998,0.31284893164469124,-1.2801032893349458
-3.9910000000000001,0.31284893164469124,-1.1953301820936066
-3.9904999999999999,0.24882788249859539,-0.97280077558509037
-3.9900000000000002,0.18480683335249956,-0.70788481545590454
-3.9895,0.13145595906408636,-0.4535654937318862
-3.9889999999999999,0.035424385344942577,-0.20984281041303524
-3.9885000000000002,-0.50875453239687207,0.13984625695749003
-3.988,-1.2449965975769743,0.69087145402619654
-3.9874999999999998,-1.8105158650341544,1.1677201822587309
-3.9870000000000001,-2.2586632090568255,1.4750226960085864
-3.9864999999999999,-1.8745369141802501,1.2630899279052379
-3.9860000000000002,-1.1382948490001481,0.62729162359519197
-3.9855,-0.51942470725455481,0.065669788121318018
-3.9849999999999999,-0.11395806266261441,-0.26282600243887239
-3.9845000000000002,0.099445434491038431,-0.36879238649054674
-3.984,0.18480683335249956,-0.32640583286987701
-3.9834999999999998,0.19547700821018218,-0.19924617200786782
-3.9830000000000001,0.17413665849481691,-0.050893234335523743
-3.9824999999999999,0.15279630877945163,0.097459703336820316
-3.9820000000000002,0.13145595906408636,0.23521600260399694
-3.9815,0.13145595906408636,0.34118238665567124
-3.9809999999999999,0.14212613392176898,0.39416557868150842
-3.9805000000000001,0.35552963107542179,0.5637117931641874
-3.98,0.79300680024041004,0.93459413734504748
-3.9794999999999998,1.1131120459708892,1.2736865663104053
-3.9790000000000001,0.98506994767869771,1.4750226960085864
-3.9784999999999999,0.8997085488172365,1.0935437134225592
-3.9780000000000002,0.88903837395955376,0.2246193641988295
-3.9775,0.86769802424418851,-0.59132179299906285
-3.9769999999999999,0.76099627566736228,-1.1423469900677694
-3.9765000000000001,0.60094365280212259,-1.3436831197659505
-3.976,0.43022085507920033,-1.3754730349814528
-3.9754999999999998,0.31284893164469124,-1.3436831197659505
-3.9750000000000001,0.29150858192932599,-1.2801032893349458
-3.9744999999999999,0.41955068022151765,-1.2695066509297783
-3.9740000000000002,0.38754015564846972,-1.0575738828264298
-3.9735,0.28083840707164331,-0.77146464588690922
-3.9729999999999999,0.19547700821018218,-0.49595204735255594
-3.9725000000000001,0.11011560934872107,-0.25222936403370499
-3.972,-0.22065981123944084,0.033879872905815719
-3.9714999999999998,-0.94623170156186043,0.53192187794868506
-3.9710000000000001,-1.586442193022819,1.0405605213967219
-3.9704999999999999,-2.1199509359069508,1.4114428655775821
-3.9700000000000002,-2.4507263564951129,1.5597958032499259
-3.9695,-1.7998456901764717,1.1253336286380615
-3.9689999999999999,-1.0102527507079564,0.43655213230217815
-3.9685000000000001,-0.42339313353541097,-0.093279787956193475
-3.968,-0.049937013516518552,-0.36879238649054674
-3.9674999999999998,0.13145595906408636,-0.43237221692155131
-3.9670000000000001,0.19547700821018218,-0.3581957480853793
-3.9664999999999999,0.19547700821018218,-0.22043944881820265
-3.9660000000000002,0.16346648363713429,-0.061489872740691176
-3.9655,0.14212613392176898,0.097459703336820316
-3.9649999999999999,0.14212613392176898,0.2246193641988295
-3.9645000000000001,0.15279630877945163,0.31998910984533641
-3.964,0.17413665849481691,0.38356894027634103
-3.9634999999999998,0.40888050536383502,0.61669498519002452
-3.9630000000000001,0.77166645052504479,0.99817396777605205
-3.9624999999999999,0.51558225394066137,1.3266697583362426
-3.9620000000000002,0.046094560202625215,1.241896651094903
-3.9615,0.099445434491038431,0.55311515475901996
-3.9609999999999999,0.31284893164469124,-0.15685961838719809
-3.9605000000000001,0.49424190422529612,-0.73967473067140688
-3.96,0.52625242879834411,-1.1423469900677694
-3.9594999999999998,0.45156120479456557,-1.333086481360783
-3.9590000000000001,0.35552963107542179,-1.3436831197659505
-3.9584999999999999,0.28083840707164331,-1.2801032893349458
-3.9580000000000002,0.45156120479456557,-1.4390528654124575
-3.9575,0.51558225394066137,-1.4178595886021226
-3.9569999999999999,0.41955068022151765,-1.1423469900677694
-3.9565000000000001,0.29150858192932599,-0.80325456110241145
-3.956,0.18480683335249956,-0.50654868575772338
-3.9554999999999998,0.067434909917990504,-0.20984281041303524
-3.9550000000000001,-0.41272295867772835,0.30939247144016896
-3.9544999999999999,-1.1169544992847826,0.89220758372437781
-3.9540000000000002,-1.7358246410303759,1.3054764815259077
-3.9535,-2.301343908487556,1.4644260576034194
-3.9529999999999998,-2.3546947827759692,1.4008462271724147
-3.9525000000000001,-1.554431668449771,0.83922439169854057
-3.952,-0.80751942841198598,0.2246193641988295
-3.9514999999999998,-0.27401068552785401,-0.17805289519753292
-3.9510000000000001,0.035424385344942577,-0.33700247127504446
-3.9504999999999999,0.16346648363713429,-0.32640583286987701
-3.9500000000000002,0.20614718306786484,-0.20984281041303524
-3.9495,0.18480683335249956,-0.061489872740691176
-3.9489999999999998,0.16346648363713429,0.10805634174198775
-3.9485000000000001,0.14212613392176898,0.25640927941433178
-3.948,0.14212613392176898,0.37297230187117358
-3.9474999999999998,0.18480683335249956,0.45774540911251305
-3.9470000000000001,0.49424190422529612,0.68027481562102909
-3.9464999999999999,0.92104889853260175,1.0405605213967219
-3.9460000000000002,0.50491207908297886,1.3478630351465775
-3.9455,-0.25267033581248871,1.3690563119569124
-3.9449999999999998,-0.31669138495858457,0.66967817721586165
-3.9445000000000001,-0.0072563140857879876,-0.22043944881820265
-3.944,0.33418928136005654,-0.95160749877475548
-3.9434999999999998,0.52625242879834411,-1.3754730349814528
-3.9430000000000001,0.53692260365602662,-1.5980024414899687
-3.9424999999999999,0.45156120479456557,-1.5874058030848013
-3.9420000000000002,0.34485945621773917,-1.4178595886021226
-3.9415,0.3768699807907871,-1.3648763965762853
-3.9409999999999998,0.50491207908297886,-1.333086481360783
-3.9405000000000001,0.44089102993688295,-1.0575738828264298
-3.9399999999999999,0.31284893164469124,-0.64430498502489997
-3.9394999999999998,0.20614718306786484,-0.27342264084403983
-3.9390000000000001,0.12078578420640371,-0.019103319120021445
-3.9384999999999999,-0.26334051067017139,0.35177902506083869
-3.9380000000000002,-0.92489135184649518,0.86041766850887547
-3.9375,-1.4263895701575793,1.2736865663104053
-3.9369999999999998,-1.8105158650341544,1.5386025264395911
-3.9365000000000001,-1.8852070890379329,1.4644260576034194
-3.9359999999999999,-1.3090176467230703,0.84982103010370802
-3.9355000000000002,-0.70081767983515975,0.20342608738849466
-3.9350000000000001,-0.24200016095480609,-0.22043944881820265
-3.9344999999999999,0.035424385344942577,-0.40058230170604903
-3.9340000000000002,0.15279630877945163,-0.40058230170604903
-3.9335,0.19547700821018218,-0.29461591765437467
-3.9329999999999998,0.18480683335249956,-0.13566634157686319
-3.9325000000000001,0.16346648363713429,0.012686596095480854
-3.9319999999999999,0.14212613392176898,0.16103953376782493
-3.9315000000000002,0.14212613392176898,0.26700591781949923
-3.931,0.19547700821018218,0.38356894027634103
-3.9304999999999999,0.30217875678700862,0.51072860113835017
-3.9300000000000002,0.80367697509809277,0.82862775329337313
-3.9295,1.2304839694053984,1.1783168206638983
-3.9289999999999998,1.0277506471094282,1.4008462271724147
-3.9285000000000001,0.87836819910187125,0.80743447648303834
-3.9279999999999999,0.8997085488172365,-0.082683149551026042
