Class_10_Using_Wats_App/Class_10_WatsApp_SH_10.csv

#Digilent WaveForms Oscilloscope Acquisition
#Device Name: EExplorer
#Serial Number: SN:210151A2B84A
#Date Time: 2021-01-21 12:08:07.303
#Sample rate: 2000Hz
#Samples: 16384
#Trigger: Source: Channel 1 Type: Edge Condition: Rising Level: 0 V Hyst.: Auto HoldOff: 0 s
#Channel 1: Range: 1 V/div Offset: 0 V Attenuation: 1 X
#Channel 2: Range: 1 V/div Offset: 0 V Attenuation: 1 X
#Power Supplies: ON
#Fixed Supply: ON
#Voltage: 3.3 V Readback: 3.331 V
#Positive Supply: ON
#Voltage: 3.7 V Readback: 3.806 V
#Current: 40 mA Readback: 9 mA
#Negative Supply: ON
#Voltage: -3.7 V Readback: -4.279 V
#Current: -40 mA Readback: -39 mA
#Reference 1: ON
#Voltage: 0 V
#Reference 2: ON
#Voltage: 0 V

Time (s),Channel 1 (V),Channel 2 (V)
-4.096,-0.8608703027003992,-0.1356663415768632
-4.0955,-0.2526703358130418,0.372972301870711
-4.095,0.2168173579257901,0.6802748156211061
-4.0945,0.4835717293676135,0.7650479228623686
-4.094,0.6116138276596886,0.690871454026264
-4.0935,0.6436243522328434,0.5319218779484923
-4.093,0.6329541773751706,0.3199891098453364
-4.0925,0.6116138276598245,0.0974597033370227
-4.092,0.5796033030867282,-0.09327978795631876
-4.0915,0.5475927785137094,-0.2310360872233701
-4.091,0.5049120790829789,-0.326405832869877
-4.0905,0.05676473505960914,-0.008506680714275757
-4.09,-0.7114878546928423,0.627291623595192
-4.0895,-1.298347471865388,1.157123543853563
-4.089,-1.607782542737903,1.284283204715457
-4.0885,-1.212986073003927,0.7650479228623686
-4.088,-0.5194247072545548,0.06566978812131802
-4.0875,0.06743490991745671,-0.4535654937314139
-4.087,0.4729015545101153,-0.6549016234301059
-4.0865,0.6756348768059011,-0.6972881770507372
-4.086,0.6009436528021905,-0.7714646458868417
-4.0855,0.03542438534481642,-1.227120097309186
-4.085,-0.1032878878049318,-1.311893204550448
-4.0845,-0.1673089369509694,-1.174136905283397
-4.084,-0.007256314085506558,-0.6443049850243121
-4.0835,0.3021787567870086,0.002089957690313421
-4.083,0.5262524287983441,0.4471487707073456
-4.0825,0.5689331282289387,0.6060983467844426
-4.082,0.4195506802215176,0.1504428953626575
-4.0815,0.6542945270905358,-0.6866915386455698
-4.081,0.04609456020317837,-1.449649503816931
-4.0805,-0.9675720512772257,-1.915901593644992
-4.08,-1.234326422719292,-1.619195718300304
-4.0795,-0.8075194284123741,-0.7396747306722068
-4.079,-0.2526703358120908,0.05507314971659391
-4.0785,0.1848068333524996,0.5425185163538525
-4.078,0.4622313796519959,0.7120647308363772
-4.0775,0.5902734779444787,0.6696781772157074
-4.077,0.6329541773751706,0.5001319627331828
-4.0765,0.6329541773751706,0.2564092794145534
-4.076,0.611613827659776,0.002089957690120669
-4.0755,0.5796033030867573,-0.2098428104130352
-4.075,0.5582629533713921,-0.3793890248957141
-4.0745,0.5369226036559198,-0.4959520473525367
-4.074,0.4195506802215176,-0.474758770542221
-4.0735,-0.04993701351651855,0.03387987290581572
-4.073,-0.6581369804038759,0.690871454025599
-4.0725,-1.212986073003927,1.167720182258731
-4.072,-1.383708870726849,1.199510097474233
-4.0715,-0.9142211769892394,0.6802748156215014
-4.071,-0.2846808603850902,0.1080563417415733
-4.0705,0.2061471830678648,-0.3475991096802118
-4.07,0.5155822539403799,-0.6231117082143145
-4.0695,0.6542945270905843,-0.6866915386455119
-4.069,0.707645401378949,-0.6231117082145651
-4.0685,0.6969752265212663,-0.5277419625680583
-4.068,0.6116138276593198,-0.4429688553268633
-4.0675,0.07810508477567314,-0.6019184314042303
-4.067,-0.124628237520297,-0.4111789401112165
-4.0665,0.02475421048741521,0.0550731497164879
-4.066,0.1954770082101822,0.4259554938970107
-4.0655,0.4622313796522482,0.3411823866556712
-4.065,0.6116138276596692,-0.3793890248950588
-4.0645,-0.1459685872356623,-1.216523458903942
-4.064,-1.170305373573196,-1.809935209593318
-4.0635,-1.789175515318226,-1.947691508860369
-4.063,-1.437059745014612,-1.248313374118615
-4.0625,-0.722158029550525,-0.3370024712750445
-4.062,-0.08194753809014876,0.3305857482498966
-4.0615,0.3555296310756256,0.6696781772159002
-4.061,0.5796033030867573,0.7120647308365314
-4.0605,0.6542945270905358,0.5637117931641874
-4.06,0.6542945270905067,0.3093924714399184
-4.0595,0.6222840025174878,0.03387987290581572
-4.059,0.5902734779444399,-0.2310360872233701
-4.0585,0.568933128229094,-0.4323722169213682
-4.058,0.5475927785137094,-0.5595318777835605
-4.0575,0.4942419042252961,-0.6231117082145651
-4.057,0.04609456020303276,-0.3793890248959358
-4.0565,-0.7755089038389382,0.2458126410091644
-4.056,-1.501080794161358,0.8286277532933731
-4.0555,-1.895877263895257,1.08294707501716
-4.055,-1.426389570156861,0.7226613692411689
-4.0545,-0.6367966306890638,0.13984625695749
-4.054,-0.007256314086360516,-0.2522293640333484
-4.0535,0.4088805053640097,-0.4535654937319633
-4.053,0.6009436528021226,-0.5383386009732256
-4.0525,0.6756348768059011,-0.474758770542221
-4.052,0.6969752265213343,-0.3475991096801733
-4.0515,0.7716664505250448,-0.3052125560595421
-4.051,0.7716664505250448,-0.08268314955102604
-4.0505,0.7183155762366801,0.2458126410088656
-4.05,0.5902734779444399,0.4789386859228479
-4.0495,0.02475421048725994,0.1928294489833272
-4.049,-0.1673089369508529,0.05507314971627586
-4.0485,-0.4233931335358089,-0.4747587705427896
-4.048,-0.8608703027003992,-1.0999604364471
-4.0475,-1.351698346153354,-1.407262950196676
-4.047,-1.874536914180143,-1.598002441489718
-4.0465,-1.757164990745741,-1.322489842955616
-4.046,-1.052933450139327,-0.5171453241636232
-4.0455,-0.3380317346734744,0.1928294489837127
-4.045,0.1848068333524996,0.6166949851900245
-4.0445,0.4942419042252961,0.7438546460520338
-4.044,0.6329541773752094,0.6590815388105015
-4.0435,0.6756348768059011,0.4471487707073456
-4.043,0.6542945270905358,0.1822328105781598
-4.0425,0.611613827659844,-0.1038764263611007
-4.042,0.5796033030867573,-0.3370024712750445
-4.0415,0.5475927785137094,-0.5171453241628908
-4.041,0.5262524287983635,-0.6443049850247843
-4.0405,0.5155822539408458,-0.5489352393778822
-4.04,0.7183155762366316,0.01268659609548085
-4.0395,0.3875401556487705,0.5425185163533707
-4.039,-0.3593720843898004,0.7650479228624071
-4.0385,-0.8928808272734472,0.8074344764830383
-4.038,-0.6901475049776614,0.3835689402767266
-4.0375,-0.2526703358120908,-0.125069703172062
-4.037,0.1848068333524996,-0.5277419625680583
-4.0365,0.4942419042252961,-0.7714646458869092
-4.036,0.6436243522328919,-0.7502713690764105
-4.0355,0.6863050516635838,-0.570128516188728
-4.035,0.7716664505250448,-0.4641621321370536
-4.0345,0.8036769750980637,-0.2522293640338977
-4.034,0.7609962756673623,0.09745970333682032
-4.0335,0.6969752265212663,0.457745409112513
-4.033,0.6542945270905747,0.7544512844569313
-4.0325,0.6542945270908075,0.902804222129314
-4.032,0.9530594231056497,0.6484849004055269
-4.0315,1.177133095116781,-0.4111789401102528
-4.031,1.561259389993327,-1.205926820499169
-4.0305,1.305175193409177,-1.640388995110639
-4.03,0.3021787567879208,-1.68277554873127
-4.0295,-0.007256314085739466,-0.8774310299377932
-4.029,0.04609456020262521,-0.008506680714854012
-4.0285,0.1634664836371343,0.5213252395435176
-4.028,0.3021787567871154,0.7438546460520049
-4.0275,0.4195506802215176,0.7120647308365314
-4.027,0.4942419042252961,0.5425185163538525
-4.0265,0.5369226036559878,0.2881991946300654
-4.026,0.5582629533713921,0.02328323450064829
-4.0255,0.5582629533713921,-0.2098428104130352
-4.025,0.547592778513719,-0.4323722169213489
-4.0245,0.5262524287982373,-0.6125150698094073
-4.024,0.408880505363835,-0.6231117082145651
-4.0235,-0.3380317346732705,-0.1038764263618331
-4.023,-1.180975548431461,0.5531151547594344
-4.0225,-1.821186039891837,1.00877060618122
-4.022,-1.949228138183912,0.934594137345115
-4.0215,-1.351698346153083,0.3835689402758591
-4.021,-0.5621054066852853,-0.1462629799820306
-4.0205,0.08877525963335578,-0.5065486857577234
-4.02,0.4942419042254514,-0.6654982618352252
-4.0195,0.6649647019482183,-0.6549016234300674
-4.019,0.6969752265212663,-0.5277419625680583
-4.0185,0.6969752265212663,-0.3475991096803757
-4.018,0.7396559259519968,-0.2310360872233701
-4.0175,0.707645401378949,0.03387987290581572
-4.017,0.6649647019482572,0.3517790250605496
-4.0165,0.6222840025174587,0.6484849004057581
-4.016,0.5902734779444399,0.9028042221295453
-4.0155,0.7930068002402256,0.9239974989398607
-4.015,1.177133095116471,0.3835689402757531
-4.0145,0.6116138276598051,-0.2628260024388724
-4.014,-0.6367966306879285,-1.004590690799918
-4.0135,-1.831856214749452,-1.587405803084464
-4.013,-1.757164990745741,-1.216523458903942
-4.0125,-1.148965023857831,-0.5065486857577234
-4.012,-0.402052783819512,0.2034260873888994
-4.0115,0.1848068333524996,0.6484849004055269
-4.011,0.4515612047945656,0.7226613692416989
-4.0105,0.5582629533712951,0.6060983467849631
-4.01,0.5902734779444399,0.4047622170866759
-4.0095,0.5796033030867573,0.1716361721729923
-4.009,0.5582629533714115,-0.06148987274047915
-4.0085,0.5475927785136997,-0.2628260024390169
-4.008,0.5369226036560266,-0.4217755785163839
-4.0075,0.4408910299369703,-0.3899856633009105
-4.007,-0.2206598112401881,0.1504428953632261
-4.0065,-1.042263275281004,0.775644561267536
-4.006,-1.522421143876723,1.178316820663898
-4.0055,-1.853196564464671,1.347863035146279
-4.005,-1.618452717595867,1.019367244586387
-4.0045,-0.8608703027003992,0.3729723018711736
-4.004,-0.1352984123775139,-0.2098428104133725
-4.0035,0.3768699807907871,-0.5807251545938954
-4.003,0.6649647019482183,-0.718481453861072
-4.0025,0.7503261008096019,-0.6549016234301253
-4.002,0.7503261008096795,-0.4535654937318862
-4.0015,0.8783681991018712,-0.326405832869877
-4.001,0.8997085488172171,-0.1356663415770367
-4.0005,0.8143471499556783,0.1398462569577406
-4,0.707645401378949,0.4153588554918433
-3.9995,0.6436243522328531,0.6484849004055269
-3.999,0.6009436528021226,0.7332580076468663
-3.9985,0.5796033030867573,0.2776025562246667
-3.998,0.6969752265212663,-0.3370024712750445
-3.9975,0.1741366584948169,-0.8138511995075789
-3.997,-0.4767440078238243,-1.025783967610927
-3.9965,-0.7008176798351597,-0.7502713690765743
-3.996,-0.9462317015618604,-0.6337083466197325
-3.9955,-0.6474668055467465,-0.1674562567923655
-3.995,-0.2313299860971235,0.2458126410091644
-3.9945,0.1101156093487211,0.4683420475176805
-3.994,0.4195506802215176,0.5955017083796896
-3.9935,0.5582629533713921,0.5107286011383502
-3.993,0.5582629533713921,0.2776025562246667
-3.9925,0.5369226036560266,0.03387987290581572
-3.992,0.5262524287983441,-0.1886495336027004
-3.9915,0.5155822539406614,-0.3793890248957141
-3.991,0.5049120790829789,-0.5065486857577234
-3.9905,0.2594980573562781,-0.3370024712750445
-3.99,-0.156638762093345,0.2881991946298341
-3.9895,-0.9248913518464952,0.92399749893988
-3.989,-1.661133417026597,1.25249328950007
-3.9885,-1.767835165603424,1.082947075017392
-3.988,-1.180975548430879,0.5319218779486851
-3.9875,-0.4340633083930936,-0.05089323433552374
-3.987,0.1527963087794516,-0.4535654937318862
-3.9865,0.5262524287983441,-0.5807251545938954
-3.986,0.6969752265212663,-0.5595318777835605
-3.9855,0.7289857510943143,-0.4641621321370536
-3.985,0.6756348768059011,-0.5065486857577234
-3.9845,0.5475927785137094,-0.5065486857577234
-3.984,0.5049120790829789,-0.1992461720078678
-3.9835,0.5155822539406614,0.1822328105781598
-3.983,0.5369226036560266,0.5319218779486851
-3.9825,0.5689331282290746,0.775644561267536
-3.982,0.8783681991018712,0.6696781772158616
-3.9815,1.123782220828572,0.2034260873884947
-3.981,0.408880505363835,-0.3793890248957141
-3.9805,-0.5514352318276028,-0.8456411147230812
-3.98,-0.9675720512772257,-0.8350444763179138
-3.9795,-0.7114878546928423,-0.2840192792492073
-3.979,-0.2526703358124887,0.2881991946298341
-3.9785,0.09944543449103843,0.6166949851900245
-3.978,-0.1459685872356623,0.2352160026039969
-3.9775,-0.2420001609548061,-0.05089323433552374
-3.977,-0.02859666380115328,-0.07208651114585861
-3.9765,0.1207857842064037,-0.1568596183871981
-3.976,0.3448594562177392,-0.1674562567923655
-3.9755,0.4942419042252961,-0.1992461720078678
-3.975,0.5049120790829789,-0.3687923864905467
-3.9745,0.4942419042252961,-0.5489352393783931
-3.974,0.4515612047945656,-0.6654982618352349
-3.9735,-0.1459685872356623,-0.3052125560595421
-3.973,-1.042263275281004,0.383568940276341
-3.9725,-1.447729919872945,0.9875773293708847
-3.972,-1.778505340461106,1.347863035146577
-3.9715,-1.554431668449771,1.114736990232894
-3.971,-0.9035510021311299,0.4895353243280153
-3.9705,-0.2206598112394408,-0.09327978795619347
-3.97,0.2808384070716433,-0.4217755785163839
-3.9695,0.5689331282290746,-0.5171453241628908
-3.969,0.6863050516635838,-0.4959520473525559
-3.9685,0.7183155762366316,-0.3899856633008816
-3.968,0.8783681991018712,-0.4959520473525559
-3.9675,0.8997085488172365,-0.3899856633008816
-3.967,0.8036769750980928,-0.07208651114585861
-3.9665,0.6969752265212663,0.2881991946298341
-3.966,0.6222840025174878,0.5955017083796896
-3.9655,0.4195506802215176,0.5213252395435176
-3.965,0.3128489316446912,-0.07208651114585861
-3.9645,-0.06060718837420119,-0.6654982618352349
-3.964,-0.4874141826815069,-0.9198175835592532
-3.9635,-0.9142211769888124,-1.004590690800593
-3.963,-0.8288597781273515,-0.6125150698093976
-3.9625,-0.4127229586777283,0.02328323450064829
-3.962,0.01408403562957729,0.5213252395435176
-3.9615,0.3128489316446912,0.775644561267536
-3.961,0.4835717293676135,0.7968378380778709
-3.9605,0.5582629533713921,0.6802748156210291
-3.96,0.5689331282290746,0.4683420475176805
-3.9595,0.4942419042252961,0.1610395337678249
-3.959,-0.06060718837420119,-0.5913217929990628
-3.9585,-0.2526703358124887,-0.9833974139902578
-3.958,-0.1139580626626144,-1.025783967610927
-3.9575,0.01408403562957729,-0.9728007755850904
-3.957,-0.06060718837420119,-0.400582301706049
-3.9565,-0.722158029550525,0.4683420475176805
-3.956,-1.170305373573196,0.9981739677760521
-3.9555,-1.383708870726849,1.29487984312074
-3.955,-1.26633694729234,1.072350436612224
-3.9545,-0.7114878546928423,0.4365521323021782
-3.954,-0.1352984123779797,-0.1568596183871981
-3.9535,0.3128489316446912,-0.5489352393783931
-3.953,0.5796033030867573,-0.7078848154559045
-3.9525,0.6969752265212663,-0.6866915386455698
-3.952,0.7289857510943143,-0.570128516188728
-3.9515,0.825017324813458,-0.6866915386455698
-3.951,0.8356874996711408,-0.5913217929990628
-3.9505,0.7609962756673623,-0.1992461720078678
-3.95,0.6863050516635838,0.2458126410091644
-3.9495,0.6222840025174878,0.627291623595192
-3.949,0.6222840025174878,0.8180311148882058
-3.9485,1.038420821967111,0.4153588554918433
-3.948,0.9530594231056497,-0.3158091944647096
-3.9475,0.03542438534494258,-0.9092209451540858
-3.947,-0.8502001278427167,-1.205926820498774
-3.9465,-1.148965023857831,-1.004590690800593
-3.946,-0.7861790786966207,-0.3370024712750445
-3.9455,-0.274010685527854,0.2987958330350016
-3.945,0.142126133921769,0.6696781772158616
-3.9445,0.408880505363835,0.775644561267536
-3.944,0.5369226036560266,0.6802748156210291
-3.9435,0.5689331282290746,0.4789386859228479
-3.943,0.5689331282290746,0.2246193641988295
-3.9425,0.5475927785137094,-0.04029659593035631
-3.942,0.5262524287983441,-0.2946159176543747
-3.9415,0.5155822539406614,-0.4959520473525559
-3.941,0.4942419042252961,-0.5913217929990628
-3.9405,0.2381577076409128,-0.474758770542221
-3.94,-0.9248913518464952,-0.474758770542221
-3.9395,-1.863866739322568,-0.2310360872233701
-3.939,-2.386705307349017,0.3199891098453364
-3.9385,-2.290673733629873,0.3305857482505039
-3.938,-1.458400094730627,0.05507314971615059
-3.9375,-0.5514352318276028,-0.2628260024388724
-3.937,0.07810508477567314,-0.5383386009732256
-3.9365,0.4622313796522482,-0.6231117082145651
-3.936,0.6542945270905358,-0.5807251545938954
-3.9355,0.7183155762366316,-0.4217755785163839
-3.935,0.7396559259519968,-0.3687923864905467
-3.9345,0.7289857510943143,-0.3158091944647096
-3.934,0.6863050516635838,-0.008506680714854012
-3.9335,0.6436243522328531,0.3517790250608387
-3.933,0.6116138276598051,0.6696781772158616
-3.9325,0.5796033030867573,0.8816109453192104
-3.932,0.2274875327832301,0.5425185163538525
-3.9315,-0.5300948821122373,-0.2416327256285375
-3.931,-1.255666772434657,-0.9092209451540858
-3.9305,-1.586442193022819,-1.195330182093607
-3.93,-1.479740444445993,-1.025783967610927
-3.9295,-0.8715404775580819,-0.3475991096802118
-3.929,-0.2420001609548061,0.309392471440169
-3.9285,0.2061471830678648,0.701468092431364
-3.928,0.4622313796522482,0.8286277532933731
-3.9275,0.5796033030867573,0.7544512844572011
-3.927,0.6009436528021226,0.55311515475902
-3.9265,0.5902734779444399,0.2881991946298341
-3.926,0.5582629533713921,0.02328323450064829
-3.9255,0.5369226036560266,-0.2204394488182027
-3.925,0.5049120790829789,-0.4111789401112165
-3.9245,0.4835717293676135,-0.5383386009732256
-3.924,0.3875401556484697,-0.5277419625680583
-3.9235,-0.1459685872356623,-0.02969995752518888
-3.923,-0.7434983792658902,0.5425185163538525
-3.9225,-1.148965023857831,0.8604176685088755
-3.922,-1.319687821580753,0.8074344764830383
-3.9215,-1.383708870726849,-0.06148987274069118
-3.921,-1.074273799854052,-0.8880276683437509
-3.9205,-0.391382608962363,-1.0999604364471
-3.92,0.07810508477567314,-1.089363798041932
-3.9195,0.4302208550792003,-0.8350444763179138
-3.919,0.6222840025174878,-0.5171453241628908
-3.9185,0.6756348768059011,-0.3687923864905467
-3.918,0.8143471499557753,-0.4323722169215513
-3.9175,0.8036769750980928,-0.2098428104130352
-3.917,0.7503261008096795,0.13984625695749
-3.9165,0.6863050516635838,0.5001319627331828
-3.916,0.6329541773751706,0.8074344764830383
-3.9155,0.6329541773751706,0.7332580076468663
-3.915,0.8356874996711408,0.002089957690313421
-3.9145,0.3021787567870086,-0.8138511995075789
-3.914,-0.5834457564006506,-1.258910012524611
-3.9135,-1.341028171296118,-1.354279758171118
-3.913,-1.298347471865388,-0.9198175835592532
-3.9125,-0.754168554123573,-0.1992461720078678
-3.912,-0.1886492866663929,0.3729723018711736
-3.9115,0.2274875327832301,0.6590815388106942
-3.911,0.4622313796522482,0.6908714540261965
-3.9105,0.5582629533713921,0.55311515475902
-3.91,0.5902734779444399,0.3305857482505039
-3.9095,0.5689331282290746,0.06566978812131802
-3.909,0.5475927785137094,-0.1886495336027004
-3.9085,0.5262524287983441,-0.4217755785163839
-3.908,0.5049120790829789,-0.6019184314042303
-3.9075,0.4835717293676135,-0.6866915386455698
-3.907,0.1527963087794516,-0.3793890248957141
-3.9065,-0.274010685527854,0.2987958330350016
-3.906,-0.8288597781273515,0.9028042221295453
-3.9055,-1.234326422719292,1.305476481525908
-3.905,-1.223656247861609,1.220703374284568
-3.9045,-0.6794773301197943,0.6378882620003594
-3.904,-0.1032878878049318,0.05507314971615059
-3.9035,0.2168173579255475,-0.4641621321370536
-3.903,-0.06060718837420119,-1.174136905283272
-3.9025,-0.06060718837420119,-1.248313374119443
-3.902,0.08877525963335578,-0.9728007755850904
-3.9015,0.2701682322139607,-0.8668343915334161
-3.901,0.4729015545099309,-0.4959520473525559
-3.9005,0.5902734779444399,0.002089957690313421
-3.9,0.5902734779444399,0.3941655786815084
-3.8995,0.5796033030867573,0.7120647308365314
-3.899,0.5689331282290746,0.849821030103708
-3.8985,0.1848068333524996,0.55311515475902
-3.898,-0.8181896032696687,-0.1462629799820306
-3.8975,-1.51175096901904,-0.8986243067489184
-3.897,-1.757164990745741,-1.375473034981453
-3.8965,-1.46907026958831,-1.163540266878104
-3.896,-0.7861790786966207,-0.4217755785163839
-3.8955,-0.1673089369510276,0.2458126410091644
-3.895,0.2594980573562781,0.6378882620003594
-3.8945,0.4942419042252961,0.7544512844572011
-3.894,0.5902734779444399,0.6696781772158616
-3.8935,0.6009436528021226,0.4683420475176805
-3.893,0.5796033030867573,0.1928294489833272
-3.8925,0.5475927785137094,-0.07208651114585861
-3.892,0.5155822539406614,-0.3052125560595421
-3.8915,0.4942419042252961,-0.4853554089473885
-3.891,0.4835717293676135,-0.6019184314042303
-3.8905,0.2808384070716433,-0.4641621321370536
-3.89,0.1954770082101822,0.1186529801471552
-3.8895,-0.1779791118087102,0.7332580076468663
-3.889,-0.8502001278427167,1.167720182258731
-3.8885,-1.223656247861609,1.199510097474233
-3.888,-0.9355615267041777,0.6378882620003594
-3.8875,-0.3700422592469978,-0.02969995752518888
