Class_10_Using_Wats_App/Class_10_WatsApp_AM_2.csv

#Digilent WaveForms Oscilloscope Acquisition
#Device Name: EExplorer
#Serial Number: SN:210151A2B84A
#Date Time: 2020-11-24 16:20:27.314
#Sample rate: 2000Hz
#Samples: 16384
#Trigger: Source: Channel 1 Type: Edge Condition: Rising Level: 0 V Hyst.: Auto HoldOff: 0 s
#Channel 1: Range: 1 V/div Offset: 0 V Attenuation: 1 X
#Channel 2: Range: 1 V/div Offset: 0 V Attenuation: 1 X
#Power Supplies: ON
#Fixed Supply: ON
#Voltage: 3.3 V Readback: 3.331 V
#Positive Supply: ON
#Voltage: 3.7 V Readback: 3.71 V
#Current: 40 mA Readback: 20 mA
#Negative Supply: ON
#Voltage: -3.7 V Readback: -3.334 V
#Current: -40 mA Readback: -9 mA
#Reference 1: ON
#Voltage: 0 V
#Reference 2: ON
#Voltage: 0 V

Time (s),Channel 1 (V),Channel 2 (V)
-4.096,0.3128489316446912,1.220703374284568
-4.0955,0.2915085819293454,1.029963882991728
-4.095,0.02475421048682323,0.7968378380774372
-4.0945,-0.4554036581084589,0.3199891098453364
-4.094,-0.7328282044079553,-0.4535654937311827
-4.0935,-0.5834457563997383,-1.142346990068174
-4.093,0.4195506802215176,-1.587405803084801
-4.0925,1.33718571798139,-0.8986243067495447
-4.092,1.710641838001098,-0.1992461720075787
-4.0915,1.689301488285752,0.1186529801471552
-4.091,1.433217291701369,0.1610395337678249
-4.0905,1.09177169625531,0.04447651131089642
-4.09,0.857027849386506,-0.05089323433552374
-4.0895,0.8890383739595538,-0.2098428104130352
-4.089,0.8356874996711893,-0.3052125560594554
-4.0885,0.6756348768059011,-0.2734226408440398
-4.088,0.5262524287983441,-0.1674562567923655
-4.0875,0.4302208550792876,-0.01910331912015636
-4.087,0.4729015545102803,0.04447651131099279
-4.0865,0.857027849386506,0.05507314971615059
-4.086,0.7609962756674497,-0.2840192792488989
-4.0855,0.1421261339211091,-0.7396747306715996
-4.085,-0.5834457564006506,-0.9516074987747555
-4.0845,-1.255666772434046,-1.152943628472754
-4.084,-1.917217613611311,-1.237716735714209
-4.0835,-2.280003558772191,-1.163540266878104
-4.083,-1.650463242168915,-0.5807251545938954
-4.0825,-0.8395299529844809,0.2776025562253316
-4.082,-0.2313299860971235,1.00877060618122
-4.0815,0.1527963087794516,1.496215972818921
-4.081,0.3448594562175645,1.718745379327235
-4.0805,0.3982103305061524,1.782325209758442
-4.08,0.3875401556484697,1.729342017732605
-4.0795,0.344859456217778,1.623375633681027
-4.079,0.3021787567867175,1.453829419197953
-4.0785,-0.01792648894347063,1.125333628638062
-4.078,-0.4980843575387528,0.3623756634667
-4.0775,-0.7434983792659873,-0.5171453241635462
-4.077,-0.8502001278427167,-1.237716735714276
-4.0765,-0.2526703358130321,-1.756952017567008
-4.076,0.5689331282295599,-1.449649503817018
-4.0755,1.102441871113207,-0.7820612842920766
-4.075,1.305175193409177,-0.4111789401112165
-4.0745,1.262494493978252,-0.2204394488181641
-4.074,1.049090996824793,-0.1780528951975329
-4.0735,0.8463576745288233,-0.1886495336027004
-4.073,0.8570278493864963,-0.2416327256284894
-4.0725,0.8463576745288233,-0.3052125560595421
-4.072,0.707645401378949,-0.3370024712750445
-4.0715,0.5475927785138549,-0.305212556059571
-4.071,0.4302208550791712,-0.1992461720076751
-4.0705,0.3982103305061524,0.01268659609548085
-4.07,0.611613827659611,0.6908714540255797
-4.0695,0.4088805053633207,1.305476481525484
-4.069,-0.156638762093345,0.8392243916985406
-4.0685,-0.8822106524157645,-0.04029659593035631
-4.068,-1.607782542738786,-0.739674730671725
-4.0675,-2.269333383914508,-1.089363798041932
-4.067,-2.3973754822067,-1.110557074852267
-4.0665,-1.885207089037108,-0.580725154593057
-4.066,-0.9782422261349084,0.3411823866556712
-4.0655,-0.3060212101009019,1.188913459069066
-4.065,0.1207857842060155,1.782325209757903
-4.0645,0.3341892813600565,2.068434446697963
-4.064,0.3875401556484697,2.16380419234447
-4.0635,0.3768699807907968,2.132014277128996
-4.063,0.3448594562177101,2.015451254671972
-4.0625,0.3128489316446912,1.845905040189447
-4.062,0.2061471830679619,1.485619334414082
-4.0615,-0.2099896363820493,0.6166949851891379
-4.061,-0.5300948821122373,-0.3581957480853793
-4.0605,-0.8715404775580819,-1.152943628472937
-4.06,-0.4874141826807014,-1.587405803084213
-4.0595,0.3982103305061524,-0.9410108603695881
-4.059,1.049090996824793,-0.3793890248957141
-4.0585,1.358526067697309,-0.1144730647667693
-4.058,1.369196242555273,-0.1250697031716958
-4.0575,1.187803269974668,-0.2946159176543747
-4.057,0.9103787236751715,-0.5701285161884774
-4.0565,0.7716664505250448,-0.8350444763179138
-4.056,0.8463576745288233,-0.9622041371799229
-4.0555,0.7396559259520938,-0.803254561102556
-4.055,0.5902734779443234,-0.5383386009729847
-4.0545,0.4622313796522482,-0.2734226408440398
-4.054,0.3875401556485377,-0.04029659593056834
-4.0535,0.6116138276601932,0.2564092794147848
-4.053,1.038420821967111,0.7544512844572011
-4.0525,0.6116138276598051,0.4471487707073456
-4.052,-0.2846808603863712,-0.2628260024394314
-4.0515,-1.202315898146244,-0.8774310299385835
-4.051,-2.013249187330125,-1.227120097309109
-4.0505,-2.39737548220635,-1.290699927740055
-4.05,-2.173301810195364,-0.9516074987747555
-4.0495,-1.26633694729234,-0.1038764263613609
-4.049,-0.5087545323975611,0.7650479228615783
-4.0485,0.003413860772146966,1.400846227172723
-4.048,0.2808384070716433,1.739938656137773
-4.0475,0.3875401556483727,1.877694955404824
-4.047,0.3875401556484309,1.877694955404872
-4.0465,0.3448594562177392,1.79292184816361
-4.046,0.3128489316447204,1.655165548896558
-4.0455,0.2381577076404373,1.411442865576936
-4.045,-0.2846808603855366,0.701468092431364
-4.0445,-0.9035510021311299,-0.252229364033705
-4.044,-1.148965023857753,-1.046977244421677
-4.0435,-1.06360362499637,-1.502632695843462
-4.043,-0.2953510352432193,-1.163540266878104
-4.0425,0.504912079082251,-0.4959520473531631
-4.042,1.027750647109428,-0.1674562567923655
-4.0415,1.219813794547716,-0.09327978795619347
-4.041,1.145122570544005,-0.167456256792298
-4.0405,0.9530594231054944,-0.2946159176545096
-4.04,0.7823366253827275,-0.4429688553267188
-4.0395,0.8676980242441109,-0.6549016234298747
-4.039,0.7930068002402547,-0.6125150698092434
-4.0385,0.6222840025174878,-0.4429688553267188
-4.038,0.4835717293677396,-0.2310360872235629
-4.0375,0.376869980790855,-0.01910331911969377
-4.037,0.4515612047945656,0.3411823866556712
-4.0365,0.8356874996711408,0.9875773293708847
-4.036,0.5582629533708195,0.7756445612668131
-4.0355,-0.07127736323188383,-0.01910331912002144
-4.035,-0.7755089038389382,-0.6972881770507372
-4.0345,-1.330357996437931,-1.06817052123126
-4.034,-1.906547438753298,-1.227120097309109
-4.0335,-2.280003558772191,-1.152943628472937
-4.033,-1.66113341702716,-0.6019184314047314
-4.0325,-0.8608703026998363,0.2670059178201835
-4.032,-0.2420001609548061,1.019367244586387
-4.0315,0.1421261339214196,1.517409249628803
-4.031,0.3341892813601051,1.750535294542998
-4.0305,0.3875401556484697,1.814115124973944
-4.03,0.3661998059331239,1.761131932948156
-4.0295,0.3235191065023448,1.633972272085944
-4.029,0.291508581929326,1.464426057603419
-4.0285,0.01408403562957729,0.9134008605347127
-4.028,-0.6261264558318373,-0.01910331912080209
-4.0275,-1.127624674142465,-0.8774310299385835
-4.027,-1.020922925565639,-1.407262950196955
-4.0265,-0.1246282375211122,-1.333086481360851
-4.026,0.7503261008096795,-0.6549016234300674
-4.0255,1.273164668836129,-0.1886495336027004
-4.025,1.433217291701223,0.09745970333656007
-4.0245,1.337185717981982,0.06566978812111562
-4.024,1.070431346540159,-0.1568596183871981
-4.0235,0.8036769750983355,-0.3475991096800384
-4.023,0.8250173248134677,-0.4959520473526138
-4.0225,0.8356874996711408,-0.5595318777835605
-4.022,0.6863050516637197,-0.4747587705422981
-4.0215,0.5369226036559198,-0.3158091944645361
-4.021,0.4195506802215176,-0.1250697031716958
-4.0205,0.3768699807907871,0.1186529801471552
-4.02,0.4088805053636312,0.6696781772159291
-4.0195,0.1848068333524996,0.7438546460520338
-4.019,-0.2953510352432193,0.08686306493165288
-4.0185,-0.9035510021305768,-0.6231117082139194
-4.018,-1.554431668449771,-1.078767159636765
-4.0175,-2.19464215991073,-1.227120097309109
-4.017,-2.408045657064188,-1.142346990067846
-4.0165,-2.045259711902338,-0.6866915386447698
-4.016,-1.127624674142465,0.1928294489833272
-4.0155,-0.4127229586783785,1.029963882990793
-4.015,0.05676473506053106,1.602182356870866
-4.0145,0.3021787567870086,1.898888232215284
-4.014,0.3768699807907192,1.983661339456546
-4.0135,0.376869980790758,1.920081509025493
-4.013,0.3448594562177392,1.782325209758442
-4.0125,0.3021787567870086,1.602182356870596
-4.012,0.1207857842058797,1.422039503982239
-4.0115,-0.4554036581084589,0.8604176685088755
-4.011,-0.8608703027003992,-0.1038764263613609
-4.0105,-0.924891351846437,-0.8456411147224066
-4.01,-0.2313299860971235,-1.301296566145281
-4.0095,0.6116138276598051,-1.280103289334946
-4.009,1.166462920258798,-0.8032545611028452
-4.0085,1.379866417412897,-0.5277419625679426
-4.008,1.315845368266859,-0.400582301706049
-4.0075,1.102441871113401,-0.4323722169215224
-4.007,0.8463576745287844,-0.5595318777837147
-4.0065,0.8036769750980928,-0.7290780922662394
-4.006,0.8676980242441885,-0.792657922697244
-4.0055,0.7396559259518415,-0.6443049850246879
-4.005,0.5689331282290746,-0.4111789401112165
-4.0045,0.4408910299368829,-0.1568596183871981
-4.004,0.35552963107548,0.07626642652692878
-4.0035,0.4195506802215176,0.5637117931641874
-4.003,0.408880505363835,0.849821030103708
-4.0025,-0.1566387620928306,0.2670059178200292
-4.002,-0.754168554123573,-0.3687923864905467
-4.0015,-1.415719395299897,-0.8562377531282487
-4.001,-2.077270236475619,-1.110557074852036
-4.0005,-2.397375482206574,-1.152943628472715
-4,-2.258663209056825,-0.9092209451540858
-3.9995,-1.394379045584531,-0.1356663415768632
-3.999,-0.6047861061160158,0.7226613692416989
-3.9985,-0.06060718837420119,1.369056311956912
-3.998,0.2488278824985954,1.729342017732605
-3.9975,0.3555296310754218,1.856501678594614
-3.997,0.3768699807907871,1.835308401784279
-3.9965,0.3555296310754218,1.729342017732605
-3.996,0.3128489316446912,1.570392441655093
-3.9955,0.2168173579255475,1.326669758336243
-3.995,-0.274010685527854,0.6590815388106942
-3.9945,-0.7648387289812555,-0.2840192792492073
-3.994,-1.191645723288561,-1.078767159636765
-3.9935,-1.341028171296118,-1.693372187136476
-3.993,-0.572775581542968,-1.407262950196955
-3.9925,0.3128489316446912,-0.7820612842920766
-3.992,0.942389248247967,-0.4535654937318862
-3.9915,1.209143619690033,-0.3052125560595421
-3.991,1.15579274540162,-0.3158091944647096
-3.9905,0.9530594231056497,-0.3581957480853793
-3.99,0.8036769750980928,-0.4853554089473885
-3.9895,0.8997085488172365,-0.5913217929990628
-3.989,0.825017324813458,-0.5383386009732256
-3.9885,0.6542945270905358,-0.3899856633008816
-3.988,0.5049120790829789,-0.2204394488182027
-3.9875,0.3982103305061524,-0.06148987274069118
-3.987,0.3768699807907871,0.1610395337678249
-3.9865,-0.04993701351651855,0.4153588554918433
-3.986,-0.690147504977477,0.13984625695749
-3.9855,-1.30901764672307,-0.4853554089473885
-3.985,-1.938557963326346,-1.004590690800593
-3.9845,-2.376035132491334,-1.269506650929778
-3.984,-2.418715831922065,-1.269506650929778
-3.9835,-2.376035132491334,-1.078767159636765
-3.983,-1.67180359188428,-0.4429688553267188
-3.9825,-0.7968492535543035,0.4365521323021782
-3.982,-0.1779791118087102,1.178316820663898
-3.9815,0.1954770082101822,1.612778995275763
-3.981,0.3661998059331045,1.771728571353275
-3.9805,0.408880505363835,1.782325209758442
-3.98,0.3982103305061524,1.70814874092227
-3.9795,0.3661998059331045,1.570392441655093
-3.979,0.3021787567870086,1.390249588767247
-3.9785,-0.1459685872356623,0.849821030103708
-3.978,-0.754168554123573,-0.07208651114585861
-3.9775,-1.202315898146244,-0.9198175835592532
-3.977,-1.298347471865388,-1.38606967338662
-3.9765,-0.5941159312583333,-1.290699927740113
-3.976,0.3021787567870086,-0.8562377531282487
-3.9755,0.9530594231056497,-0.474758770542221
-3.975,1.230483969405398,-0.2416327256285375
-3.9745,1.219813794547716,-0.2628260024388724
-3.974,1.027750647109428,-0.4429688553267188
-3.9735,0.825017324813458,-0.6125150698093976
-3.973,0.8356874996711408,-0.8032545611024114
-3.9725,0.7716664505250448,-0.7714646458869092
-3.972,0.6222840025174878,-0.570128516188728
-3.9715,0.4835717293676135,-0.3370024712750445
-3.971,0.3982103305061524,-0.1144730647665284
-3.9705,0.3875401556484697,0.1716361721729923
-3.97,0.7289857510943143,0.7968378380778709
-3.9695,0.5155822539406614,0.7862411996727035
-3.969,-0.06060718837420119,0.09745970333682032
-3.9685,-0.8181896032696687,-0.5383386009732256
-3.968,-1.575772018165136,-1.004590690800593
-3.9675,-2.247993034199143,-1.216523458903942
-3.967,-2.354694782775969,-1.163540266878104
-3.9665,-1.693143941599645,-0.5913217929990628
-3.966,-0.8502001278427167,0.2881991946298341
-3.9655,-0.2099896363817582,1.061753798207057
-3.965,0.1741366584948169,1.549199164844759
-3.9645,0.3448594562177392,1.761131932948107
-3.964,0.3875401556484697,1.814115124973944
-3.9635,0.3661998059331045,1.761131932948107
-3.963,0.3341892813600565,1.644568910491266
-3.9625,0.291508581929326,1.475022696008586
-3.962,0.08877525963335578,1.019367244586387
-3.9615,-0.3807124341046804,0.1080563417419877
-3.961,-0.6261264558313813,-0.7714646458869092
-3.9605,-0.658136980404429,-1.47084278062796
-3.96,-0.1352984123779797,-1.640388995110639
-3.9595,0.6649647019482183,-0.5913217929990628
-3.959,1.19847344483235,0.3199891098453364
-3.9585,1.401206767128321,0.6060983467848571
-3.958,1.337185717982225,0.4789386859228479
-3.9575,1.123782220828572,0.1822328105781598
-3.957,0.8890383739595538,-0.1356663415768632
-3.9565,0.8143471499557753,-0.4535654937318862
-3.956,0.8463576745288233,-0.570128516188728
-3.9555,0.7823366253827275,-0.474758770542221
-3.955,0.6436243522328531,-0.3052125560595421
-3.9545,0.5049120790829789,-0.1250697031716958
-3.954,0.4302208550792003,0.05507314971615059
-3.9535,0.6649647019482183,0.5107286011383502
-3.953,0.79300680024041,0.7332580076468663
-3.9525,0.2488278824985954,0.13984625695749
-3.952,-0.5621054066852853,-0.5277419625680583
-3.9515,-1.373038695869166,-1.025783967610927
-3.951,-2.119950935906951,-1.258910012524611
-3.9505,-2.3973754822067,-1.258910012524611
-3.95,-2.098610586191586,-0.8668343915334161
-3.9495,-1.180975548430879,-0.01910331912002144
-3.949,-0.4554036581084589,0.8074344764830383
-3.9485,0.03542438534494258,1.400846227172415
-3.948,0.291508581929326,1.697552102517103
-3.9475,0.3661998059331045,1.782325209758442
-3.947,0.3768699807907871,1.761131932948107
-3.9465,0.3448594562177392,1.655165548896433
-3.946,0.3235191065023739,1.496215972818921
-3.9455,0.2061471830678648,1.241896651094903
-3.945,-0.3273615598162672,0.4683420475176805
-3.9445,-0.6688071552621118,-0.4641621321370536
-3.944,-0.8822106524157645,-1.216523458903942
-3.9435,-0.3487019095316325,-1.661582271920973
-3.943,0.5369226036560266,-1.163540266878104
-3.9425,1.15579274540162,-0.5807251545938954
-3.942,1.422547116843686,-0.3475991096802118
-3.9415,1.401206767128321,-0.2946159176543747
-3.941,1.187803269974668,-0.3370024712750445
-3.9405,0.9210488985326017,-0.3475991096802118
-3.94,0.7609962756673623,-0.3899856633008816
-3.9395,0.8356874996711408,-0.5595318777835605
-3.939,0.7503261008096795,-0.5277419625680583
-3.9385,0.5902734779444399,-0.3687923864905467
-3.938,0.4622313796522482,-0.1780528951975329
-3.9375,0.3768699807907871,0.002089957690313421
-3.937,0.4622313796522482,0.383568940276341
-3.9365,0.6756348768059011,0.8710143069140429
-3.936,0.2488278824985954,0.457745409112513
-3.9355,-0.2633405106701714,-0.2098428104130352
-3.935,-0.9782422261349084,-0.7502713690765743
-3.9345,-1.693143941599645,-1.089363798041932
-3.934,-2.301343908487556,-1.195330182093607
-3.9335,-2.312014083345239,-1.036380606016095
-3.933,-1.522421143876723,-0.326405832869877
-3.9325,-0.7114878546928423,0.5425185163538525
-3.932,-0.124628237520297,1.231300012689736
-3.9315,0.2168173579255475,1.633972272086098
-3.931,0.3661998059331045,1.771728571353275
-3.9305,0.3875401556484697,1.761131932948107
-3.93,0.3555296310754218,1.686955464111935
-3.9295,0.3128489316446912,1.549199164844759
-3.929,0.2808384070716433,1.358459673551745
-3.9285,0.05676473506030786,0.9451907757502149
-3.928,-0.423393133535411,0.1610395337678249
-3.9275,-0.754168554123573,-0.6866915386455698
-3.927,-0.7008176798351597,-1.34368311976595
-3.9265,-0.03926683865883591,-1.05757388282643
-3.926,0.7183155762366316,-0.4323722169215513
-3.9255,1.19847344483235,-0.06148987274069118
-3.925,1.35852606769759,0.06566978812131802
-3.9245,1.241154144263081,-0.01910331912002144
-3.924,1.006410297394063,-0.1356663415768632
-3.9235,0.79300680024041,-0.326405832869877
-3.923,0.8036769750980928,-0.4111789401112165
-3.9225,0.7503261008096795,-0.3370024712750445
-3.922,0.6116138276598051,-0.2734226408440398
-3.9215,0.4835717293676135,-0.1992461720078678
-3.921,0.3982103305061524,-0.09327978795619347
-3.9205,0.4195506802215176,0.06566978812131802
-3.92,0.79300680024041,0.457745409112513
-3.9195,0.6116138276598051,0.2564092794143318
-3.919,-0.01792648894347063,-0.3793890248957141
-3.9185,-0.7861790786966207,-0.9198175835592532
-3.918,-1.554431668449771,-1.237716735714276
-3.9175,-2.23732285934146,-1.311893204550448
-3.917,-2.3973754822067,-1.163540266878104
-3.9165,-1.906547438753298,-0.5913217929990628
-3.916,-0.9995825758502737,0.309392471440169
-3.9155,-0.3273615598162672,1.093543713422559
-3.915,0.1101156093487211,1.623375633680931
-3.9145,0.3235191065023739,1.867098316999781
-3.914,0.3875401556484697,1.909484870620451
-3.9135,0.3768699807907871,1.845905040189447
-3.913,0.3555296310754218,1.70814874092227
-3.9125,0.3235191065023739,1.517409249629256
-3.912,0.1101156093487211,1.146526905448396
-3.9115,-0.4447334832507763,0.2670059178194992
-3.911,-0.8502001278427167,-0.6549016234300674
-3.9105,-1.084943974711735,-1.333086481360783
-3.91,-0.8181896032696687,-1.502632695843462
-3.9095,-0.03926683865883591,-1.068170521231597
-3.909,0.6542945270905358,-0.6972881770507372
-3.9085,1.038420821967111,-0.4959520473525559
-3.908,1.102441871113207,-0.3793890248957141
-3.9075,0.9530594231056497,-0.3793890248957141
-3.907,0.7823366253827275,-0.4111789401112165
-3.9065,0.8036769750980928,-0.5913217929990628
-3.906,0.8676980242441885,-0.7078848154559045
-3.9055,0.7396559259519968,-0.570128516188728
-3.905,0.5796033030867573,-0.3475991096802118
-3.9045,0.4408910299368829,-0.1038764263613609
-3.904,0.3661998059331045,0.1080563417419877
-3.9035,0.5369226036560266,0.6166949851900245
-3.903,0.6863050516635838,0.8180311148882058
-3.9025,0.1634664836371343,0.1822328105781598
-3.902,-0.658136980404429,-0.4853554089473885
-3.9015,-1.458400094730627,-1.01518732920576
-3.901,-2.19464215991073,-1.290699927740113
-3.9005,-2.3973754822067,-1.322489842955616
-3.9,-2.002579012472442,-0.8880276683437509
-3.8995,-1.084943974711735,-0.02969995752518888
-3.899,-0.3807124341046804,0.7862411996727035
-3.8985,0.07810508477567314,1.347863035146577
-3.898,0.3021787567870086,1.644568910491266
-3.8975,0.3661998059331045,1.729342017732605
-3.897,0.3555296310754218,1.686955464111935
-3.8965,0.3235191065023739,1.580989080060261
-3.896,0.291508581929326,1.443232780793084
-3.8955,0.2274875327832301,1.231300012689736
-3.895,-0.1459685872356623,0.5319218779486851
-3.8945,-0.4340633083930936,-0.3793890248957141
-3.894,-0.6261264558313813,-1.152943628472937
-3.8935,-0.3380317346739499,-1.693372187136476
-3.893,0.3875401556484697,-1.566212526274467
-3.8925,0.9850699476786977,-0.9304142219644207
-3.892,1.283834843693812,-0.3899856633008816
-3.8915,1.305175193409177,-0.1250697031716958
-3.891,1.145122570543937,-0.1038764263613609
-3.8905,0.8997085488172365,-0.1674562567923655
-3.89,0.7609962756673623,-0.3899856633008816
-3.8895,0.8783681991018712,-0.6654982618352349
-3.889,0.79300680024041,-0.6231117082145651
-3.8885,0.6329541773751706,-0.4217755785163839
-3.888,0.4942419042252961,-0.1886495336027004
-3.8875,0.3875401556484697,0.03387987290581572
-3.887,0.4195506802215176,0.383568940276341
-3.8865,0.7609962756673623,0.9769806909657173
-3.886,0.3875401556484697,0.7226613692416989
-3.8855,-0.3700422592469978,-0.07208651114585861
