Class_10_Using_Wats_App/Class_10_WatsApp_Turki_11.csv

#Digilent WaveForms Oscilloscope Acquisition
#Device Name: EExplorer
#Serial Number: SN:210151A2B84A
#Date Time: 2021-02-04 11:27:18.404
#Sample rate: 2000Hz
#Samples: 16384
#Trigger: Source: Channel 1 Type: Edge Condition: Rising Level: 0 V Hyst.: Auto HoldOff: 0 s
#Channel 1: Range: 1 V/div Offset: 0 V Attenuation: 1 X
#Channel 2: Range: 1 V/div Offset: 0 V Attenuation: 1 X
#Power Supplies: ON
#Fixed Supply: ON
#Voltage: 3.3 V Readback: 3.333 V
#Positive Supply: ON
#Voltage: 3.7 V Readback: 3.717 V
#Current: 40 mA Readback: 18 mA
#Negative Supply: ON
#Voltage: -3.7 V Readback: -3.352 V
#Current: -40 mA Readback: -9 mA
#Reference 1: ON
#Voltage: 0 V
#Reference 2: ON
#Voltage: 0 V

Time (s),Channel 1 (V),Channel 2 (V)
-4.096,0.1314559590640864,0.9557874141553824
-4.0955,0.0887752596333946,0.8816109453192779
-4.095,0.07810508477564403,0.8180311148881094
-4.0945,0.04609456020262521,0.7120647308365314
-4.094,-0.06060718837410414,0.4683420475179021
-4.0935,-0.4660738329664521,-0.1780528951981979
-4.093,-0.807519428411986,-0.9092209451540858
-4.0925,-1.127624674142174,-1.534422611058396
-4.092,-1.052933450138192,-1.640388995110089
-4.0915,-0.5087545323968721,-1.036380606016095
-4.091,0.01408403562957729,-0.4323722169215513
-4.0905,0.3235191065024709,-0.04029659593019247
-4.09,0.4302208550792003,0.13984625695749
-4.0895,0.4195506802215176,0.1822328105781598
-4.089,0.366199805933153,0.118652980147213
-4.0885,0.4515612047945656,0.1610395337678249
-4.088,0.5902734779444399,0.2881991946298341
-4.0875,0.5262524287984023,0.2458126410092029
-4.087,0.4088805053637477,0.1716361721729538
-4.0865,0.3128489316446912,0.1292496185523226
-4.086,0.2381577076409807,0.1504428953626382
-4.0855,0.3982103305061136,0.07626642652600357
-4.085,0.3555296310754218,-0.4535654937318862
-4.0845,-0.167308936950552,-0.9939940523949338
-4.084,-0.7434983792664434,-1.343683119766134
-4.0835,-1.351698346153801,-1.545019249464132
-4.083,-1.351698346153801,-1.152943628472937
-4.0825,-0.9248913518460876,-0.3899856633002648
-4.082,-0.4767440078238243,0.2881991946298341
-4.0815,-0.1352984123779797,0.7650479228623686
-4.081,0.05676473506013316,1.019367244586156
-4.0805,0.142126133921769,1.125333628638062
-4.08,0.1634664836371343,1.125333628638062
-4.0795,0.1421261339217884,1.061753798207115
-4.079,0.09944543449099962,0.9769806909656209
-4.0785,0.05676473506030786,0.8710143069140429
-4.078,0.01408403562961611,0.7332580076469917
-4.0775,-0.03926683865917557,0.5001319627326142
-4.077,-0.4127229586777283,-0.1250697031716958
-4.0765,-0.7434983792655894,-0.8668343915327414
-4.076,-0.9355615267042456,-1.492036057438507
-4.0755,-1.010252750707956,-1.725162102351978
-4.075,-0.5621054066852853,-1.184733543688439
-4.0745,-0.02859666380082333,-0.6019184314038545
-4.074,0.3341892813600565,-0.1886495336027004
-4.0735,0.4729015545099309,0.002089957690313421
-4.073,0.4835717293676038,0.02328323450062901
-4.0725,0.4302208550792003,0.02328323450064829
-4.072,0.4195506802215176,-0.02969995752518888
-4.0715,0.5475927785135929,-0.178052895197398
-4.071,0.5155822539405934,-0.156859618387121
-4.0705,0.4408910299368829,-0.07208651114585861
-4.07,0.3448594562178265,0.06566978812119274
-4.0695,0.2915085819293066,0.2352160026040933
-4.069,0.2701682322139607,0.3411823866556712
-4.0685,0.3448594562177392,0.1610395337678249
-4.068,-0.1246282375208599,-0.4641621321375933
-4.0675,-0.7434983792658902,-1.05757388282643
-4.067,-1.415719395299897,-1.51322933424863
-4.0665,-1.693143941599277,-1.566212526273869
-4.066,-1.287677297007705,-0.9092209451540858
-4.0655,-0.7434983792658902,-0.1568596183871981
-4.065,-0.2953510352436269,0.4365521323016385
-4.0645,-0.007256314085787988,0.7968378380778709
-4.064,0.1314559590640864,0.9663840525605498
-4.0635,0.1741366584947781,1.008770606181181
-4.063,0.1741366584947878,0.9769806909656498
-4.0625,0.142126133921769,0.9028042221295453
-4.062,0.1101156093487502,0.8074344764831251
-4.0615,0.07810508477564403,0.7120647308364351
-4.061,0.04609456020262521,0.6060983467848571
-4.0605,-0.3487019095316325,0.1610395337678249
-4.06,-0.8288597781275068,-0.6019184314048471
-4.0595,-0.9995825758502737,-1.280103289334946
-4.059,-1.042263275281004,-1.75695201756748
-4.0585,-0.6794773301201242,-1.47084278062822
-4.058,-0.1459685872356623,-0.8138511995075789
-4.0575,0.2488278824985954,-0.2734226408440398
-4.057,0.4302208550790353,0.0656697881210096
-4.0565,0.4408910299368829,0.1928294489833272
-4.056,0.3982103305061524,0.1822328105781598
-4.0555,0.3341892813601148,0.09745970333689742
-4.055,0.515582253940739,-0.1462629799820981
-4.0545,0.6009436528021226,-0.2204394488182027
-4.054,0.4942419042253932,-0.09327978795630912
-4.0535,0.3661998059330172,0.06566978812144331
-4.053,0.2701682322139607,0.2034260873884947
-4.0525,0.2274875327832301,0.3199891098453364
-4.052,0.5155822539405061,0.4047622170861844
-4.0515,0.3448594562177392,-0.1356663415768632
-4.051,-0.3380317346739499,-0.8350444763179138
-4.0505,-1.074273799853382,-1.417859588601593
-4.05,-1.607782542738184,-1.75695201756748
-4.0495,-1.405049220442214,-1.280103289334946
-4.049,-0.88221065241624,-0.5277419625687425
-4.0485,-0.4020527838197449,0.09745970333719618
-4.048,-0.07127736323188383,0.5107286011383502
-4.0475,0.09944543449088317,0.7120647308363484
-4.047,0.1741366584948169,0.7862411996726938
-4.0465,0.1741366584948169,0.775644561267536
-4.046,0.1421261339217981,0.7332580076469049
-4.0455,0.09944543449098991,0.6696781772157846
-4.045,0.04609456020262521,0.5849050699745222
-4.0445,0.02475421048725994,0.5107286011383502
-4.044,-0.1566387620938108,0.2881991946292559
-4.0435,-0.6688071552621118,-0.3475991096802118
-4.043,-0.9782422261349084,-1.036380606016095
-4.0425,-1.20231589814604,-1.619195718299774
-4.042,-1.116954499284783,-1.640388995110639
-4.0415,-0.5621054066852853,-1.004590690800593
-4.041,-0.01792648894396554,-0.4005823017065984
-4.0405,0.3021787567871251,0.03387987290602774
-4.04,0.4302208550792003,0.2670059178194992
-4.0395,0.4302208550792003,0.2881991946298149
-4.039,0.38754015564846,0.2034260873884079
-4.0385,0.3768699807907871,0.1080563417419877
-4.038,0.3661998059331142,0.06566978812135657
-4.0375,0.3021787567869601,0.08686306493171071
-4.037,0.2488278824985954,0.1504428953626575
-4.0365,0.2061471830678648,0.2034260873884947
-4.036,0.1848068333523249,0.2564092794142354
-4.0355,-0.007256314085787988,0.1504428953626575
-4.035,-0.6154562809736985,-0.4323722169215513
-4.0345,-1.255666772434075,-1.089363798041335
-4.034,-1.522421143876723,-1.460246142222792
-4.0335,-1.191645723288561,-1.05757388282643
-4.033,-0.6901475049779331,-0.3687923864911731
-4.0325,-0.2633405106699288,0.2352160026043632
-4.032,0.00341386077189465,0.6378882620003594
-4.0315,0.1314559590639699,0.8604176685086731
-4.031,0.1848068333524996,0.9451907757502246
-4.0305,0.1848068333524996,0.9557874141553824
-4.03,0.1634664836371537,0.9239974989399089
-4.0295,0.1421261339217399,0.8710143069139754
-4.029,0.1101156093487211,0.7968378380778709
-4.0285,0.08877525963335578,0.7332580076468663
-4.028,0.07810508477564403,0.6484849004054112
-4.0275,0.04609456020262521,0.5213252395435176
-4.027,-0.274010685527854,-0.01910331912002144
-4.0265,-0.6474668055464068,-0.7714646458862251
-4.026,-0.9782422261349084,-1.407262950196955
-4.0255,-1.084943974711735,-1.576809164679634
-4.025,-0.6047861061164526,-0.9939940523959553
-4.0245,-0.04993701351621772,-0.4217755785160948
-4.024,0.2808384070716433,-0.1038764263613609
-4.0235,0.4195506802213915,-0.008506680714940748
-4.023,0.4408910299368539,0.05507314971615059
-4.0225,0.408880505363835,0.05507314971615059
-4.022,0.408880505363835,0.05507314971615059
-4.0215,0.4622313796521997,0.1398462569575093
-4.021,0.408880505363835,0.1610395337678249
-4.0205,0.3128489316446912,0.1610395337678249
-4.02,0.2488278824985663,0.1716361721730405
-4.0195,0.2168173579255475,0.2246193641988295
-4.019,0.1527963087794516,0.1716361721729923
-4.0185,-0.3166913849581576,-0.3581957480848975
-4.018,-0.807519428411986,-0.9939940523954253
-4.0175,-1.212986073003927,-1.47084278062796
-4.017,-1.586442193022479,-1.703968825541431
-4.0165,-1.383708870726373,-1.205926820498051
-4.016,-0.8608703027003992,-0.4111789401112165
-4.0155,-0.39138260896279,0.2776025562240403
-4.015,-0.06060718837403621,0.7438546460522555
-4.0145,0.1207857842064037,0.9875773293708847
-4.014,0.1848068333524413,1.072350436612147
-4.0135,0.1954770082101725,1.072350436612176
-4.013,0.1848068333524996,1.019367244586387
-4.0125,0.1527963087794516,0.9345941373450475
-4.012,0.1207857842063843,0.8286277532932671
-4.0115,0.09944543449103843,0.7120647308365314
-4.011,0.0674349099179905,0.5849050699745222
-4.0105,-0.18864928666616,0.5849050699745222
-4.01,-0.7328282044082075,0.5849050699745222
-4.0095,-1.159635198715513,-0.08268314955102604
-4.009,-1.234326422719224,-0.7820612842914405
-4.0085,-0.8075194284114231,-0.8562377531279306
-4.008,-0.1886492866663929,-0.5065486857577234
-4.0075,0.2701682322135435,-0.1568596183875161
-4.007,0.47290155450996,0.04447651131104098
-4.0065,0.5049120790829789,0.1080563417419877
-4.006,0.4622313796522482,0.08686306493165288
-4.0055,0.4088805053638447,0.08686306493165288
-4.005,0.4195506802215176,0.08686306493165288
-4.0045,0.3982103305061524,0.1080563417419877
-4.004,0.3341892813599886,0.1186529801471745
-4.0035,0.2594980573562781,0.13984625695749
-4.003,0.2168173579255475,0.1928294489833272
-4.0025,0.1848068333525287,0.2140227257936428
-4.002,-0.1673089369510276,-0.1780528951975329
-4.0015,-0.7755089038389382,-0.8244478379127463
-4.001,-1.223656247861201,-1.375473034980952
-4.0005,-1.511750969018827,-1.66158227192054
-4,-1.277007122150022,-1.184733543688439
-3.9995,-0.7755089038389382,-0.400582301706049
-3.999,-0.3273615598162672,0.2881991946298341
-3.9985,-0.02859666380115328,0.7438546460520338
-3.998,0.1314559590640864,0.9981739677760521
-3.9975,0.1954770082101822,1.104140351827727
-3.997,0.1954770082101822,1.104140351827727
-3.9965,0.1848068333524996,1.051157159801889
-3.996,0.1527963087794516,0.9769806909657173
-3.9955,0.1314559590640864,0.8922075837243778
-3.995,0.1101156093487211,0.7862411996727035
-3.9945,0.08877525963335578,0.6802748156210291
-3.994,0.00341386077189465,0.4259554938970107
-3.9935,-0.3166913849585846,-0.2734226408440398
-3.993,-0.5194247072545548,-0.9939940523954253
-3.9925,-0.722158029550525,-1.576809164679634
-3.992,-0.5834457564006506,-1.576809164679634
-3.9915,-0.09261771294724913,-0.9622041371799229
-3.991,0.3021787567870086,-0.400582301706049
-3.9905,0.4835717293676135,-0.02969995752518888
-3.99,0.5049120790829789,0.1292496185523226
-3.9895,0.4408910299368829,0.1186529801471552
-3.989,0.3661998059331045,0.06566978812131802
-3.9885,0.4835717293676135,0.01268659609548085
-3.988,0.6969752265212663,-0.09327978795619347
-3.9875,0.6329541773751706,-0.08268314955102604
-3.987,0.4835717293676135,0.01268659609548085
-3.9865,0.3341892813600565,0.1080563417419877
-3.986,0.2488278824985954,0.1822328105781598
-3.9855,0.3982103305061524,-0.07208651114585861
-3.985,0.3768699807907871,-0.6549016234300674
-3.9845,-0.06060718837420119,-1.184733543688439
-3.984,-0.7968492535543035,-1.619195718300304
-3.9835,-1.501080794161358,-1.905304955239825
-3.983,-1.533091318734406,-1.481439419033127
-3.9825,-1.052933450138687,-0.6549016234300674
-3.982,-0.5407650569699201,0.06566978812131802
-3.9815,-0.1459685872356623,0.5637117931641874
-3.981,0.07810508477567314,0.8392243916985406
-3.9805,0.1741366584948169,0.9451907757502149
-3.98,0.2061471830678648,0.9557874141553824
-3.9795,0.1741366584948169,0.9134008605347127
-3.979,0.142126133921769,0.8392243916985406
-3.9785,0.1207857842064037,0.7650479228623686
-3.978,0.1101156093487211,0.6908714540261965
-3.9775,0.05676473506030786,0.55311515475902
-3.977,-0.3700422592469978,0.002089957690313421
-3.9765,-0.8288597781273515,-0.7290780922662394
-3.976,-1.074273799854052,-1.322489842955616
-3.9755,-0.7434983792658902,-1.534422611058964
-3.975,-0.1352984123779797,-1.078767159636765
-3.9745,0.3128489316446912,-0.5383386009732256
-3.974,0.5262524287983441,-0.1250697031716958
-3.9735,0.5475927785137094,0.06566978812131802
-3.973,0.4835717293676135,0.06566978812131802
-3.9725,0.3982103305061524,-0.008506680714854012
-3.972,0.3875401556484697,-0.01910331912002144
-3.9715,0.5155822539406614,-0.04029659593035631
-3.971,0.4835717293676135,0.01268659609548085
-3.9705,0.3875401556484697,0.07626642652648545
-3.97,0.291508581929326,0.1504428953626575
-3.9695,0.2274875327832301,0.2352160026039969
-3.969,0.09944543449103843,0.1080563417419877
-3.9685,-0.2420001609548061,-0.3899856633008816
-3.968,-0.5300948821122373,-0.8456411147230812
-3.9675,-0.7968492535543035,-1.205926820498774
-3.967,-1.170305373573196,-1.375473034981453
-3.9665,-1.554431668449771,-1.460246142222792
-3.966,-1.330357996438436,-0.9728007755850904
-3.9655,-0.8181896032696687,-0.252229364033705
-3.965,-0.3593720843893152,0.3517790250608387
-3.9645,-0.03926683865883591,0.7438546460520338
-3.964,0.1314559590640864,0.9451907757502149
-3.9635,0.1954770082101822,1.00877060618122
-3.963,0.1954770082101822,0.9875773293708847
-3.9625,0.1634664836371343,0.9134008605347127
-3.962,0.09944543449103843,0.8074344764830383
-3.9615,0.0674349099179905,0.6908714540261965
-3.961,0.05676473506030786,0.5849050699745222
-3.9605,-0.274010685527854,0.1504428953626575
-3.96,-0.8822106524157645,-0.6019184314042303
-3.9595,-1.298347471865388,-1.258910012524611
-3.959,-1.170305373573196,-1.333086481360783
-3.9585,-0.5834457564006506,-0.8668343915334161
-3.958,-0.01792648894347063,-0.4217755785163839
-3.9575,0.3235191065023739,-0.1462629799820306
-3.957,0.4515612047945656,-0.08268314955102604
-3.9565,0.4622313796522482,-0.04029659593035631
-3.956,0.4195506802215176,-0.05089323433552374
-3.9555,0.3875401556484697,-0.08268314955102604
-3.955,0.5796033030867573,-0.05089323433552374
-3.9545,0.5902734779444399,-0.008506680714854012
-3.954,0.4835717293676135,0.07626642652648545
-3.9535,0.3448594562177392,0.1822328105781598
-3.953,0.2594980573562781,0.2458126410091644
-3.9525,0.2488278824985954,0.2670059178194992
-3.952,0.5155822539406614,-0.02969995752518888
-3.9515,0.2168173579255475,-0.6019184314042303
-3.951,-0.2099896363817582,-0.9198175835592532
-3.9505,-0.6794773301197943,-0.9198175835592532
-3.95,-1.277007122150022,-1.078767159636765
-3.9495,-1.351698346153801,-0.9092209451540858
-3.949,-0.9462317015618604,-0.326405832869877
-3.9485,-0.4874141826815069,0.2564092794143318
-3.948,-0.1352984123779797,0.6696781772158616
-3.9475,0.07810508477567314,0.9134008605347127
-3.947,0.1741366584948169,1.019367244586387
-3.9465,0.1954770082101822,1.029963882991555
-3.946,0.1741366584948169,0.9875773293708847
-3.9455,0.1314559590640864,0.9134008605347127
-3.945,0.09944543449103843,0.8286277532933731
-3.9445,0.07810508477567314,0.7120647308365314
-3.944,-0.1779791118087102,0.309392471440169
-3.9435,-0.7008176798351597,-0.4641621321370536
-3.943,-1.042263275281004,-1.184733543688439
-3.9425,-1.170305373573196,-1.661582271920973
-3.942,-0.7648387289812555,-1.301296566145281
-3.9415,-0.1779791118087102,-0.6760949002404023
-3.941,0.2061471830678648,-0.2310360872233701
-3.9405,0.3768699807907871,0.01268659609548085
-3.94,0.408880505363835,0.1080563417419877
-3.9395,0.3768699807907871,0.09745970333682032
-3.939,0.3341892813600565,0.03387987290581572
-3.9385,0.4622313796522482,-0.01910331912002144
-3.938,0.5582629533713921,-0.05089323433552374
-3.9375,0.4835717293676135,-0.01910331912002144
-3.937,0.3768699807907871,0.04447651131098315
-3.9365,0.3021787567870086,0.1292496185523226
-3.936,0.2701682322139607,0.2034260873884947
-3.9355,0.1527963087794516,-0.07208651114585861
-3.935,-0.3166913849585846,-0.6654982618352349
-3.9345,-0.8502001278427167,-1.163540266878104
-3.934,-1.26633694729234,-1.34368311976595
-3.9335,-1.725154466172693,-1.439052865412457
-3.933,-1.789175515318789,-1.237716735714276
-3.9325,-1.223656247861609,-0.5489352393783931
-3.932,-0.6261264558313813,0.1610395337678249
-3.9315,-0.1886492866663929,0.6802748156210291
-3.931,0.07810508477567314,0.9769806909657173
-3.9305,0.1954770082101822,1.114736990232894
-3.93,0.2274875327832301,1.125333628638062
-3.9295,0.2061471830678648,1.072350436612224
-3.929,0.1527963087794516,0.9769806909657173
-3.9285,0.1207857842064037,0.8816109453192104
-3.928,0.08877525963335578,0.7226613692416989
-3.9275,0.00341386077189465,0.4153588554918433
-3.927,-0.4874141826815069,-0.2734226408440398
-3.9265,-0.9675720512772257,-1.004590690800593
-3.926,-1.287677297007705,-1.598002441489969
-3.9255,-1.277007122150022,-1.619195718300304
-3.925,-0.690147504977477,-1.046977244421262
-3.9245,-0.09261771294724913,-0.4959520473525559
-3.924,0.291508581929326,-0.07208651114585861
-3.9235,0.4302208550792003,0.1080563417419877
-3.923,0.4302208550792003,0.1292496185523226
-3.9225,0.3768699807907871,0.07626642652648545
-3.922,0.3661998059331045,-0.02969995752518888
-3.9215,0.3875401556484697,-0.1038764263613609
-3.921,0.3555296310754218,-0.1038764263613609
-3.9205,0.3021787567870086,-0.06148987274069118
-3.92,0.2808384070716433,0.002089957690313421
-3.9195,0.2808384070716433,0.08686306493165288
-3.919,0.08877525963335578,0.01268659609548085
-3.9185,-0.4447334832507763,-0.5171453241628908
-3.918,-0.9248913518464952,-1.131750351662602
-3.9175,-1.341028171296118,-1.629792356705471
-3.917,-1.789175515318789,-1.915901593644992
-3.9165,-1.67180359188428,-1.545019249464132
-3.916,-1.084943974711735,-0.6760949002404023
-3.9155,-0.5194247072545548,0.09745970333682032
-3.915,-0.1032878878049318,0.6378882620003594
-3.9145,0.1207857842064037,0.9451907757502149
-3.914,0.2168173579255475,1.082947075017392
-3.9135,0.2381577076409128,1.093543713422559
-3.913,0.2061471830678648,1.051157159801889
-3.9125,0.1527963087794516,0.9663840525605498
-3.912,0.1207857842064037,0.8710143069140429
-3.9115,0.1101156093487211,0.7650479228623686
-3.911,0.05676473506030786,0.5001319627331828
-3.9105,-0.3487019095316325,-0.09327978795619347
-3.91,-0.8928808272734472,-0.8456411147230812
-3.9095,-1.234326422719292,-1.47084278062796
-3.909,-1.437059745015262,-1.862918401619155
-3.9085,-0.9355615267041777,-1.38606967338662
-3.908,-0.2420001609548061,-0.7078848154559045
-3.9075,0.2381577076409128,-0.1992461720078678
-3.907,0.4622313796522482,0.09745970333682032
-3.9065,0.4942419042252961,0.2352160026039969
-3.906,0.4515612047945656,0.2352160026039969
-3.9055,0.4408910299368829,0.13984625695749
-3.905,0.6542945270905358,0.03387987290581572
-3.9045,0.6542945270905358,0.05507314971615059
-3.904,0.5155822539406614,0.1292496185523226
-3.9035,0.3768699807907871,0.13984625695749
-3.903,0.2701682322139607,0.1186529801471552
-3.9025,0.2061471830678648,0.04447651131098315
-3.902,-0.1779791118087102,-0.4429688553267188
-3.9015,-0.7114878546928423,-1.036380606016095
-3.901,-1.159635198715513,-1.523825972653797
-3.9005,-1.639793067311232,-1.873515040024322
-3.9,-1.863866739322568,-1.820531847998485
-3.8995,-1.351698346153801,-1.025783967610927
-3.899,-0.7328282044082075,-0.2098428104130352
-3.8985,-0.2526703358124887,0.4365521323021782
-3.898,0.05676473506030786,0.8180311148882058
-3.8975,0.2061471830678648,1.00877060618122
-3.897,0.2488278824985954,1.061753798207057
-3.8965,0.2381577076409128,1.040560521396722
-3.896,0.1954770082101822,0.9663840525605498
-3.8955,0.142126133921769,0.8710143069140429
-3.895,0.1207857842064037,0.7650479228623686
-3.8945,0.1101156093487211,0.6696781772158616
-3.894,-0.03926683865883591,0.3517790250608387
-3.8935,-0.4554036581084589,-0.3687923864905467
-3.893,-0.6794773301197943,-1.068170521231597
-3.8925,-0.8502001278427167,-1.629792356705471
-3.892,-0.5514352318276028,-1.672178910326141
-3.8915,0.01408403562957729,-1.068170521231597
-3.891,0.4195506802215176,-0.474758770542221
-3.8905,0.6009436528021226,-0.08268314955102604
-3.89,0.5902734779444399,0.09745970333682032
-3.8895,0.5049120790829789,0.1822328105781598
-3.889,0.4195506802215176,0.1716361721729923
-3.8885,0.5155822539406614,0.1504428953626575
-3.888,0.5582629533713921,0.1080563417419877
-3.8875,0.4622313796522482,0.09745970333682032
