Class_10_Using_Wats_App/Class_10_WatsApp_Basim_5.csv

#Digilent WaveForms Oscilloscope Acquisition
#Device Name: EExplorer
#Serial Number: SN:210151A2B84A
#Date Time: 2020-12-16 09:20:34.071
#Sample rate: 2000Hz
#Samples: 16384
#Trigger: Source: Channel 1 Type: Edge Condition: Rising Level: 0 V Hyst.: Auto HoldOff: 0 s
#Channel 1: Range: 1 V/div Offset: 0 V Attenuation: 1 X
#Channel 2: Range: 1 V/div Offset: 0 V Attenuation: 1 X
#Power Supplies: ON
#Fixed Supply: ON
#Voltage: 3.3 V Readback: 3.324 V
#Positive Supply: ON
#Voltage: 3.7 V Readback: 3.712 V
#Current: 40 mA Readback: 21 mA
#Negative Supply: ON
#Voltage: -3.7 V Readback: -3.344 V
#Current: -40 mA Readback: -9 mA
#Reference 1: ON
#Voltage: 0 V
#Reference 2: ON
#Voltage: 0 V

Time (s),Channel 1 (V),Channel 2 (V)
-4.096,-1.074273799854052,1.00877060618122
-4.0955,-1.714484291314428,1.496215972818478
-4.095,-2.034589537044966,1.686955464111521
-4.0945,-1.458400094730627,1.231300012689736
-4.094,-0.7114878546935216,0.5743084315699524
-4.0935,-0.13529841237764,0.08686306493144086
-4.093,0.2381577076409128,-0.1462629799820306
-4.0925,0.4088805053636798,-0.178052895197504
-4.092,0.4729015545099212,-0.07208651114570441
-4.0915,0.4622313796522482,0.09745970333682032
-4.091,0.4408910299368829,0.2670059178194992
-4.0905,0.4088805053638253,0.4153588554919589
-4.09,0.3982103305061524,0.5425185163538525
-4.0895,0.3875401556484697,0.6166949851900245
-4.089,0.3875401556484697,0.648484900405498
-4.0885,0.4302208550792003,0.4047622170866759
-4.088,0.1634664836371343,-0.1144730647665284
-4.0875,-0.5087545323962606,-0.01910331912010818
-4.087,-1.020922925565367,0.341182386655199
-4.0865,-0.722158029550525,-0.1780528951975329
-4.086,-0.1459685872361863,-0.9833974139895254
-4.0855,0.2701682322141451,-1.428456227007348
-4.085,0.4729015545099309,-1.492036057438295
-4.0845,0.5369226036559684,-1.386069673386717
-4.084,0.5155822539406323,-1.248313374119328
-4.0835,0.4835717293676135,-1.121153713257435
-4.083,0.4302208550792003,-1.004590690800593
-4.0825,0.3768699807907677,-0.8986243067488605
-4.082,0.3555296310754218,-0.8350444763179138
-4.0815,0.3555296310754218,-0.7714646458869092
-4.081,0.3555296310754218,-0.6866915386456469
-4.0805,0.3341892813600565,-0.5383386009732256
-4.08,-0.1032878878049318,-0.01910331912002144
-4.0795,-0.8715404775573832,0.7226613692410242
-4.079,-1.607782542738708,1.316073119931412
-4.0785,-2.183971985053047,1.686955464111935
-4.078,-1.927887788468896,1.51740924962941
-4.0775,-1.074273799853412,0.8922075837238767
-4.077,-0.3700422592469978,0.3411823866556712
-4.0765,0.09944543449061144,0.02328323450093739
-4.076,0.3555296310755188,-0.06148987274061408
-4.0755,0.4622313796522482,0.02328323450064829
-4.075,0.4729015545099309,0.1822328105781598
-4.0745,0.4622313796522191,0.3623756634661507
-4.074,0.4302208550792003,0.5213252395435176
-4.0735,0.3982103305061524,0.6590815388106942
-4.073,0.3875401556484794,0.7438546460519566
-4.0725,0.3875401556484697,0.7862411996727035
-4.072,0.4408910299368829,0.6484849004055269
-4.0715,0.5155822539405934,0.07626642652700588
-4.071,0.1527963087787626,-0.06148987274029603
-4.0705,-0.6047861061160158,0.3729723018711736
-4.07,-0.7221580295504182,0.1822328105783332
-4.0695,-0.2740106855274658,-0.6231117082151241
-4.069,0.1527963087794516,-1.237716735714276
-4.0685,0.3982103305061524,-1.449649503817625
-4.068,0.4942419042253058,-1.449649503817538
-4.0675,0.5049120790829789,-1.354279758171118
-4.067,0.4729015545099309,-1.237716735714276
-4.0665,0.4408910299369315,-1.078767159636514
-4.066,0.4942419042252961,-0.8032545611024114
-4.0655,0.5049120790829789,-0.6654982618352349
-4.065,0.47290155450996,-0.6337083466197614
-4.0645,0.4302208550792003,-0.6125150698093976
-4.064,0.3982103305061524,-0.5489352393783931
-4.0635,0.2381577076410583,-0.2628260024391326
-4.063,-0.3700422592476965,0.4153588554924505
-4.0625,-1.138294849000148,1.082947075017392
-4.062,-1.789175515318197,1.549199164844334
-4.0615,-1.842526389606581,1.549199164844238
-4.061,-1.159635198715513,0.9769806909657173
-4.0605,-0.4767440078238243,0.3941655786815084
-4.06,0.01408403562984902,0.03387987290570007
-4.0595,0.3128489316446912,-0.09327978795619347
-4.059,0.4408910299368829,-0.05089323433552374
-4.0585,0.4622313796522288,0.08686306493152761
-4.058,0.4515612047945656,0.2670059178194992
-4.0575,0.4302208550792003,0.4259554938970107
-4.057,0.4088805053638545,0.5637117931640621
-4.0565,0.3875401556484697,0.6590815388106942
-4.056,0.3875401556484697,0.7226613692416989
-4.0555,0.3982103305061427,0.6908714540262254
-4.055,0.3875401556479942,0.3941655786816434
-4.0545,-0.1352984123779797,0.5425185163538525
-4.054,-0.7861790786960288,0.9769806909653221
-4.0535,-1.010252750707549,1.146526905447779
-4.053,-0.5621054066852853,0.4683420475176805
-4.0525,-0.03926683865883591,-0.4217755785163839
-4.052,0.3021787567871542,-0.9833974139904699
-4.0515,0.4622313796522482,-1.216523458903942
-4.051,0.5049120790829789,-1.269506650929778
-4.0505,0.4835717293676329,-1.205926820498832
-4.05,0.4515612047945656,-1.068170521231597
-4.0495,0.4195506802215176,-1.036380606016095
-4.049,0.3875401556484989,-1.015187329205779
-4.0485,0.3768699807907774,-0.9198175835591184
-4.048,0.3661998059331045,-0.7714646458869092
-4.0475,0.3661998059331045,-0.6019184314043845
-4.047,0.2701682322134075,-0.3687923864899974
-4.0465,-0.3380317346739499,0.2352160026039969
-4.046,-1.116954499284074,0.9134008605340957
-4.0455,-1.778505340461465,1.422039503982962
-4.045,-2.173301810195364,1.655165548896433
-4.0445,-1.586442193022819,1.263089927905238
-4.044,-0.7861790786960676,0.6272916235947487
-4.0435,-0.1779791118087102,0.13984625695749
-4.043,0.2168173579255475,-0.08268314955102604
-4.0425,0.4088805053636603,-0.09327978795618383
-4.042,0.4729015545099309,0.02328323450064829
-4.0415,0.4729015545099309,0.2034260873884947
-4.041,0.451561204794585,0.3835689402761772
-4.0405,0.4195506802214982,0.5425185163539682
-4.04,0.3982103305061524,0.6696781772158616
-4.0395,0.3875401556484794,0.7544512844571241
-4.039,0.3875401556486541,0.7756445612672758
-4.0385,0.5902734779444399,0.4895353243280153
-4.038,0.6756348768058235,0.08686306493201912
-4.0375,-0.06060718837489991,0.362375663466382
-4.037,-0.8288597781273515,0.775644561267536
-4.0365,-0.7861790786966207,0.4153588554918433
-4.036,-0.3273615598158985,-0.3687923864910382
-4.0355,0.07810508477567314,-0.9092209451540858
-4.035,0.3341892813600565,-1.174136905283272
-4.0345,0.4515612047944588,-1.258910012524534
-4.034,0.4835717293676135,-1.237716735714276
-4.0335,0.4729015545099309,-1.163540266878104
-4.033,0.451561204794585,-1.099960436447157
-4.0325,0.4195506802214982,-1.099960436447051
-4.032,0.3982103305061524,-1.046977244421262
-4.0315,0.3768699807908065,-0.9410108603696845
-4.031,0.3768699807907677,-0.8032545611022572
-4.0305,0.3555296310754218,-0.6337083466197325
-4.03,-0.04993701351614982,-0.1250697031721584
-4.0295,-0.8288597781280016,0.6166949851905835
-4.029,-1.543761493592088,1.231300012689736
-4.0285,-2.07727023647622,1.29487984312074
-4.028,-1.853196564464167,0.6908714540257629
-4.0275,-1.06360362499637,0.2140227257936621
-4.027,-0.3807124341046804,-0.008506680714854012
-4.0265,0.09944543449060173,-0.0296999575251696
-4.026,0.3555296310754218,0.08686306493165288
-4.0255,0.4622313796522482,0.2458126410091644
-4.025,0.4729015545099212,0.4259554938968468
-4.0245,0.4515612047945461,0.5743084315694609
-4.024,0.4302208550792003,0.6908714540261965
-4.0235,0.4088805053638545,0.7650479228623011
-4.023,0.3875401556484697,0.7862411996726841
-4.0225,0.3875401556484697,0.7650479228623686
-4.022,0.4515612047945073,0.6060983467850016
-4.0215,0.8890383739594858,-0.06148987274093212
-4.021,0.8143471499557753,-0.326405832869877
-4.0205,0.01408403562957729,0.1504428953626575
-4.02,-0.3380317346737558,0.1928294489827393
-4.0195,-0.124628237520297,-0.4535654937318862
-4.019,0.1848068333524996,-1.0999604364471
-4.0185,0.3768699807906124,-1.428456227006991
-4.018,0.4515612047945656,-1.502632695843462
-4.0175,0.4729015545099309,-1.47084278062796
-4.017,0.4622313796522579,-1.407262950197013
-4.0165,0.4515612047947111,-1.322489842955673
-4.016,0.6116138276598051,-1.38606967338662
-4.0155,0.643624352232824,-1.280103289335042
-4.015,0.5689331282290067,-1.068170521231395
-4.0145,0.4942419042252961,-0.8456411147230812
-4.014,0.4302208550792586,-0.644304985025083
-4.0135,0.152796308778782,-0.25222936403304
-4.013,-0.5834457564006506,0.4789386859228479
-4.0125,-1.362368521011484,1.146526905448396
-4.012,-2.045259711903299,1.475022696008345
-4.0115,-2.183971985053047,1.210106735879401
-4.011,-1.426389570157579,0.7120647308365314
-4.0105,-0.6474668055474549,0.2564092794147462
-4.01,-0.07127736323188383,0.01268659609548085
-4.0095,0.2701682322139607,-0.02969995752518888
-4.009,0.4302208550790547,0.05507314971607348
-4.0085,0.4729015545099212,0.1928294489834814
-4.008,0.4622313796522482,0.3623756634660061
-4.0075,0.4302208550792295,0.5001319627330576
-4.007,0.4088805053638156,0.616694985190092
-4.0065,0.3875401556484697,0.6908714540261965
-4.006,0.3768699807907871,0.7120647308365314
-4.0055,0.3982103305064629,0.6696781772154087
-4.005,0.7396559259519968,0.1716361721729923
-4.0045,1.219813794547716,-0.4429688553267188
-4.004,0.6756348768051538,-0.2204394488178268
-4.0035,-0.1459685872356623,0.1928294489833272
-4.003,-0.2420001609548061,-0.1568596183871981
-4.0025,0.00341386077167144,-0.7714646458863502
-4.002,0.2274875327832301,-1.131750351662602
-4.0015,0.3661998059331045,-1.258910012524611
-4.001,0.440891029936815,-1.290699927740084
-4.0005,0.4622313796522385,-1.258910012524534
-4,0.4515612047945656,-1.174136905283272
-3.9995,0.4729015545099309,-1.110557074852267
-3.999,0.4942419042252961,-1.025783967610927
-3.9985,0.4622313796522482,-0.9410108603695881
-3.998,0.4302208550792003,-0.8562377531282487
-3.9975,0.3982103305061524,-0.7502713690765743
-3.997,0.3021787567870086,-0.5489352393783931
-3.9965,-0.2953510352432193,0.06566978812131802
-3.996,-1.06360362499637,0.8074344764830383
-3.9955,-1.67180359188428,1.347863035146577
-3.995,-2.023919362187807,1.506812611224089
-3.9945,-1.533091318734406,1.135930267043229
-3.994,-0.7861790786966207,0.5743084315693548
-3.9935,-0.1886492866663929,0.1610395337678249
-3.993,0.1954770082101822,-0.01910331912002144
-3.9925,0.3875401556484697,0.002089957690313421
-3.992,0.4622313796522482,0.13984625695749
-3.9915,0.4622313796522482,0.3199891098453364
-3.991,0.4408910299368829,0.5001319627331828
-3.9905,0.408880505363835,0.6590815388106942
-3.99,0.3875401556484697,0.775644561267536
-3.9895,0.3768699807907871,0.849821030103708
-3.989,0.3768699807907871,0.8710143069140429
-3.9885,0.5689331282290746,0.5743084315693548
-3.988,0.6329541773751706,0.08686306493165288
-3.9875,-0.09261771294724913,0.309392471440169
-3.987,-0.839529952985034,0.7332580076468663
-3.9865,-0.7861790786966207,0.4895353243280153
-3.986,-0.3166913849585846,-0.2946159176543747
-3.9855,0.09944543449103843,-0.9198175835592532
-3.985,0.3555296310754218,-1.237716735714276
-3.9845,0.4622313796522482,-1.311893204550448
-3.984,0.4942419042252961,-1.301296566145281
-3.9835,0.4729015545099309,-1.205926820498774
-3.983,0.4729015545099309,-1.142346990067769
-3.9825,0.4729015545099309,-1.142346990067769
-3.982,0.4515612047945656,-1.05757388282643
-3.9815,0.4195506802215176,-0.9304142219644207
-3.981,0.3875401556484697,-0.7820612842920766
-3.9805,0.3555296310754218,-0.6125150698093976
-3.98,-0.02859666380115328,-0.1144730647665284
-3.9795,-0.7968492535543035,0.627291623595192
-3.979,-1.554431668449771,1.241896651094903
-3.9785,-2.183971985053047,1.633972272086098
-3.978,-1.981238662757077,1.496215972818921
-3.9775,-1.127624674142465,0.8816109453192104
-3.977,-0.4127229586777283,0.3305857482505039
-3.9765,0.07810508477567314,0.01268659609548085
-3.976,0.3448594562177392,-0.06148987274069118
-3.9755,0.4515612047945656,0.02328323450064829
-3.975,0.4729015545099309,0.1928294489833272
-3.9745,0.4515612047945656,0.383568940276341
-3.974,0.4195506802215176,0.55311515475902
-3.9735,0.3982103305061524,0.6908714540261965
-3.973,0.3875401556484697,0.7862411996727035
-3.9725,0.3768699807907871,0.8392243916985406
-3.972,0.4302208550792003,0.7226613692416989
-3.9715,0.5475927785137094,0.1504428953626575
-3.971,0.1314559590640864,-0.008506680714854012
-3.9705,-0.6794773301197943,0.4365521323021782
-3.97,-0.9675720512772257,0.383568940276341
-3.9695,-0.5514352318276028,-0.4111789401112165
-3.969,-0.04993701351651855,-1.121153713257435
-3.9685,0.2808384070716433,-1.42845622700729
-3.968,0.4408910299368829,-1.449649503817625
-3.9675,0.4942419042252961,-1.375473034981453
-3.967,0.4835717293676135,-1.290699927740113
-3.9665,0.4729015545099309,-1.184733543688439
-3.966,0.5689331282290746,-1.078767159636765
-3.9655,0.5796033030867573,-0.9833974139902578
-3.965,0.5262524287983441,-0.8986243067489184
-3.9645,0.4515612047945656,-0.792657922697244
-3.964,0.408880505363835,-0.6654982618352349
-3.9635,0.1634664836371343,-0.3475991096802118
-3.963,-0.5514352318276028,0.3623756634660061
-3.9625,-1.330357996438436,1.051157159801889
-3.962,-2.023919362187807,1.549199164844759
-3.9615,-2.119950935906951,1.612778995275763
-3.961,-1.330357996438436,1.082947075017392
-3.9605,-0.572775581542968,0.5001319627331828
-3.96,-0.02859666380115328,0.1292496185523226
-3.9595,0.291508581929326,0.002089957690313421
-3.959,0.4408910299368829,0.05507314971615059
-3.9585,0.4729015545099309,0.2140227257936621
-3.958,0.4622313796522482,0.3941655786815084
-3.9575,0.4302208550792003,0.5743084315693548
-3.957,0.408880505363835,0.7226613692416989
-3.9565,0.3875401556484697,0.8180311148882058
-3.956,0.3768699807907871,0.8710143069140429
-3.9555,0.3982103305061524,0.8392243916985406
-3.955,0.5369226036560266,0.383568940276341
-3.9545,0.1741366584948169,0.1504428953626575
-3.954,-0.6261264558313813,0.5425185163538525
-3.9535,-1.084943974711735,0.849821030103708
-3.953,-0.7114878546928423,0.2458126410091644
-3.9525,-0.1352984123779797,-0.7078848154559045
-3.952,0.2594980573562781,-1.280103289334946
-3.9515,0.4515612047945656,-1.481439419033127
-3.951,0.5049120790829789,-1.47084278062796
-3.9505,0.5049120790829789,-1.364876396576285
-3.95,0.4729015545099309,-1.237716735714276
-3.9495,0.4835717293676135,-1.089363798041932
-3.949,0.5155822539406614,-0.9939940523954253
-3.9485,0.4835717293676135,-0.9410108603695881
-3.948,0.4408910299368829,-0.8668343915334161
-3.9475,0.408880505363835,-0.7608680074817418
-3.947,0.3128489316446912,-0.5595318777835605
-3.9465,-0.2526703358124887,0.04447651131098315
-3.946,-1.052933450138687,0.7650479228623686
-3.9455,-1.735824641030376,1.326669758336243
-3.945,-2.183971985053047,1.485619334413754
-3.9445,-1.767835165603424,1.210106735879401
-3.944,-0.9462317015618604,0.6696781772158616
-3.9435,-0.2846808603855366,0.2564092794143318
-3.943,0.1527963087794516,0.07626642652648545
-3.9425,0.3768699807907871,0.08686306493165288
-3.942,0.4622313796522482,0.2246193641988295
-3.9415,0.4729015545099309,0.4153588554918433
-3.941,0.4408910299368829,0.6060983467848571
-3.9405,0.4195506802215176,0.775644561267536
-3.94,0.3982103305061524,0.8922075837243778
-3.9395,0.3768699807907871,0.9557874141553824
-3.939,0.3768699807907871,0.9769806909657173
-3.9385,0.5049120790829789,0.701468092431364
-3.938,0.3555296310754218,0.1822328105781598
-3.9375,-0.2846808603855366,0.2987958330350016
-3.937,-0.8608703027003992,0.7438546460520338
-3.9365,-0.7008176798351597,0.5001319627331828
-3.936,-0.1886492866663929,-0.4217755785163839
-3.9355,0.2274875327832301,-1.163540266878104
-3.935,0.4408910299368829,-1.523825972653797
-3.9345,0.5155822539406614,-1.619195718300304
-3.934,0.5155822539406614,-1.566212526274467
-3.9335,0.4835717293676135,-1.460246142222792
-3.933,0.4835717293676135,-1.354279758171118
-3.9325,0.5582629533713921,-1.248313374119443
-3.932,0.5475927785137094,-1.0999604364471
-3.9315,0.4942419042252961,-0.9304142219644207
-3.931,0.4302208550792003,-0.7608680074817418
-3.9305,0.3768699807907871,-0.5807251545938954
-3.93,-0.007256314085787988,-0.09327978795619347
-3.9295,-0.7861790786966207,0.627291623595192
-3.929,-1.533091318734406,1.25249328950007
-3.9285,-2.151961460479999,1.644568910491266
-3.928,-1.959898313041711,1.528005888034424
-3.9275,-1.127624674142465,0.9345941373450475
-3.927,-0.4127229586777283,0.4047622170866759
-3.9265,0.07810508477567314,0.09745970333682032
-3.926,0.3448594562177392,0.03387987290581572
-3.9255,0.4515612047945656,0.1186529801471552
-3.925,0.4729015545099309,0.2881991946298341
-3.9245,0.4515612047945656,0.4683420475176805
-3.924,0.4195506802215176,0.6378882620003594
-3.9235,0.3982103305061524,0.7650479228623686
-3.923,0.3875401556484697,0.849821030103708
-3.9225,0.3768699807907871,0.8816109453192104
-3.922,0.4408910299368829,0.7862411996727035
-3.9215,0.8997085488172365,0.1928294489833272
-3.921,0.8356874996711408,-0.07208651114585861
-3.9205,0.01408403562957729,0.3517790250608387
-3.92,-0.4447334832507763,0.383568940276341
-3.9195,-0.2526703358124887,-0.3793890248957141
-3.919,0.09944543449103843,-1.142346990067769
-3.9185,0.3341892813600565,-1.492036057438295
-3.918,0.4408910299368829,-1.545019249464132
-3.9175,0.4729015545099309,-1.47084278062796
-3.917,0.4622313796522482,-1.375473034981453
-3.9165,0.4408910299368829,-1.269506650929778
-3.916,0.4515612047945656,-1.205926820498774
-3.9155,0.4302208550792003,-1.163540266878104
-3.915,0.408880505363835,-1.078767159636765
-3.9145,0.3875401556484697,-0.9516074987747555
-3.914,0.3768699807907871,-0.792657922697244
-3.9135,0.1634664836371343,-0.4853554089473885
-3.913,-0.5407650569699201,0.2246193641988295
-3.9125,-1.30901764672307,0.9557874141553824
-3.912,-2.03458953704549,1.485619334413754
-3.9115,-2.215982509626095,1.644568910491266
-3.911,-1.46907026958831,1.178316820663898
-3.9105,-0.6794773301197943,0.5955017083796896
-3.91,-0.09261771294724913,0.2140227257936621
-3.9095,0.2594980573562781,0.06566978812131802
-3.909,0.4302208550792003,0.1186529801471552
-3.9085,0.4729015545099309,0.2776025562246667
-3.908,0.4622313796522482,0.4789386859228479
-3.9075,0.4302208550792003,0.6590815388106942
-3.907,0.3982103305061524,0.8180311148882058
-3.9065,0.3875401556484697,0.92399749893988
-3.906,0.3768699807907871,0.9769806909657173
-3.9055,0.3875401556484697,0.9557874141553824
-3.905,0.4515612047945656,0.5849050699745222
-3.9045,-0.04993701351651855,0.5425185163538525
-3.904,-0.8608703027003992,0.9028042221295453
-3.9035,-1.223656247861609,0.9345941373450475
-3.903,-0.6688071552621118,0.002089957690313421
-3.9025,-0.007256314085787988,-1.036380606016095
-3.902,0.4195506802215176,-1.598002441489969
-3.9015,0.5796033030867573,-1.703968825541643
-3.901,0.5902734779444399,-1.587405803084801
-3.9005,0.5475927785137094,-1.439052865412457
-3.9,0.4835717293676135,-1.269506650929778
-3.8995,0.4942419042252961,-1.195330182093607
-3.899,0.5262524287983441,-1.152943628472937
-3.8985,0.4942419042252961,-1.01518732920576
-3.898,0.4408910299368829,-0.8562377531282487
-3.8975,0.3982103305061524,-0.6972881770507372
-3.897,0.3235191065023739,-0.4853554089473885
-3.8965,-0.1459685872356623,0.08686306493165288
-3.896,-0.9035510021311299,0.7862411996727035
-3.8955,-1.586442193022819,1.33726639674141
-3.895,-2.130621110764634,1.644568910491266
-3.8945,-1.725154466172693,1.358459673551745
-3.894,-0.9248913518464952,0.7226613692416989
-3.8935,-0.274010685527854,0.2034260873884947
-3.893,0.1527963087794516,-0.06148987274069118
-3.8925,0.3768699807907871,-0.1038764263613609
-3.892,0.4622313796522482,0.002089957690313421
-3.8915,0.4622313796522482,0.1822328105781598
-3.891,0.4408910299368829,0.3729723018711736
-3.8905,0.408880505363835,0.5425185163538525
-3.89,0.3982103305061524,0.6802748156210291
-3.8895,0.3768699807907871,0.7650479228623686
-3.889,0.3768699807907871,0.8074344764830383
-3.8885,0.5049120790829789,0.6484849004055269
-3.888,0.9957401225363802,0.05507314971615059
-3.8875,0.6649647019482183,0.01268659609548085
-3.887,-0.1993194615240755,0.4153588554918433
-3.8865,-0.3700422592469978,0.05507314971615059
-3.886,-0.06060718837420119,-0.7502713690765743
