Class_10_Using_Wats_App/Class_10_WatsApp_Souku_2.csv

#Digilent WaveForms Oscilloscope Acquisition
#Device Name: EExplorer
#Serial Number: SN:210151A2B84A
#Date Time: 2020-12-21 15:38:32.779
#Sample rate: 2000Hz
#Samples: 16384
#Trigger: Source: Channel 1 Type: Edge Condition: Rising Level: 0 V Hyst.: Auto HoldOff: 0 s
#Channel 1: Range: 1 V/div Offset: 0 V
#Channel 2: Range: 1 V/div Offset: 0 V

Time (s),Channel 1 (V),Channel 2 (V)
-4.0960000000000001,0.92104889853260175,-0.093279787956193475
-4.0955000000000004,0.73965592595216179,-0.10387642636135128
-4.0949999999999998,0.57960330308684471,-0.093279787956058555
-4.0945,0.67563487680590106,0.055073149716150585
-4.0940000000000003,1.1131120459704913,0.4895353243276202
-4.0934999999999997,0.96372959796248814,0.92399749894014027
-4.093,0.035424385344942577,1.2101067358794007
-4.0925000000000002,-1.0849439747107159,1.3266697583361367
-4.0919999999999996,-1.7571649907454985,1.2207033742839706
-4.0914999999999999,-1.4904106193036752,0.5637117931641874
-4.0910000000000002,-0.87154047755808195,-0.18864953360270037
-4.0904999999999996,-0.29535103524286993,-0.71848145386128404
-4.0899999999999999,0.08877525963335578,-0.95160749877475548
-4.0895000000000001,0.29150858192932599,-0.97280077558509037
-4.0890000000000004,0.37686998079070944,-0.85623775312835471
-4.0884999999999998,0.3768699807907871,-0.67609490024040231
-4.0880000000000001,0.34485945621773917,-0.4535654937318862
-4.0875000000000004,0.22748753278333686,-0.11447306476683677
-4.0869999999999997,0.11011560934864344,0.17163617217319474
-4.0865,0.024754210487259936,0.39416557868150842
-4.0860000000000003,-0.42339313353500341,0.68027481562076886
-4.0854999999999997,-1.0422632752812855,1.019367244586628
-4.085,-1.3516983461538008,1.2842832047155728
-4.0845000000000002,-1.5651018433072597,1.4114428655774665
-4.0839999999999996,-1.533091318734066,1.0193672445856738
-4.0834999999999999,-1.1596351987155133,0.23521600260399694
-4.0830000000000002,-0.63679663068906378,-0.40058230170604903
-4.0824999999999996,-0.11395806266225535,-0.79265792269743673
-4.0819999999999999,0.28083840707164331,-1.0045906908005926
-4.0815000000000001,0.51558225394066137,-1.0363806060160949
-4.0810000000000004,0.6222840025173908,-0.95160749877483264
-4.0804999999999998,0.82501732481345802,-1.0257839676109275
-4.0800000000000001,0.91037872367491923,-0.91981758355925325
-4.0795000000000003,0.80367697509818981,-0.68669153864578181
-4.0789999999999997,0.63295417737504445,-0.41117894011099482
-4.0785,0.49424190422529612,-0.1674562567923655
-4.0780000000000003,0.46223137965227734,0.04447651131079039
-4.0774999999999997,0.94238924824819992,0.45774540911290817
-4.077,1.1984734448323504,0.89220758372437781
-4.0765000000000002,0.53692260365662825,1.1359302670430069
-4.0759999999999996,-0.20998963638258303,1.0193672445863484
-4.0754999999999999,-1.1169544992847826,0.97698069096571727
-4.0750000000000002,-1.4584000947306273,0.68027481562102909
-4.0744999999999996,-1.0849439747112399,-0.019103319120580425
-4.0739999999999998,-0.54076505696992005,-0.63370834661973252
-4.0735000000000001,-0.092617712947249131,-1.01518732920576
-4.0730000000000004,0.18480683335224724,-1.1529436284728116
-4.0724999999999998,0.32351910650237387,-1.1105570748522671
-4.0720000000000001,0.36619980593310447,-0.96220413717992292
-4.0715000000000003,0.31284893164473976,-0.72907809226645148
-4.0709999999999997,0.22748753278313308,-0.45356549373162597
-4.0705,0.12078578420640371,-0.1674562567923655
-4.0700000000000003,-0.12462823752007382,0.15044289536236835
-4.0694999999999997,-0.78617907869728065,0.60609834678523289
-4.069,-1.5117509690190405,1.0193672445863871
-4.0685000000000002,-1.8211860398918371,1.3160731199310751
-4.0679999999999996,-1.9172176136108838,1.4114428655773026
-4.0674999999999999,-1.8105158650341544,1.1041403518277266
-4.0670000000000002,-1.2770071221500223,0.46834204751768049
-4.0664999999999996,-0.54076505696938626,-0.17805289519787024
-4.0659999999999998,0.046094560202625215,-0.54893523937839306
-4.0655000000000001,0.40888050536383502,-0.67609490024040231
-4.0650000000000004,0.59027347794427487,-0.62311170821461326
-4.0644999999999998,0.64362435223285308,-0.44296885532671876
-4.0640000000000001,0.67563487680590106,-0.29461591765437467
-4.0635000000000003,0.68630505166357414,-0.2204394488182701
-4.0629999999999997,0.61161382765974692,-0.11447306476639343
-4.0625,0.54759277851370936,0.033879872905815719
-4.0620000000000003,0.48357172936767173,0.16103953376770924
-4.0614999999999997,0.46223137965256844,0.24581264100926076
-4.0609999999999999,0.81434714995577528,0.35177902506083869
-4.0605000000000002,1.4758979911320991,0.63788826200035942
-4.0599999999999996,1.4438874665582941,0.96638405256071369
-4.0594999999999999,0.6116138276598051,1.146526905448396
-4.0590000000000002,-0.61545628097369853,1.2313000126897355
-4.0585000000000004,-1.2663369472917478,0.98757732937110632
-4.0579999999999998,-1.0742737998540521,0.21402272579366208
-4.0575000000000001,-0.6047861061160158,-0.57012851618872795
-4.0570000000000004,-0.16730893695142551,-1.1211537132569334
-4.0564999999999998,0.13145595906408636,-1.3966663117917877
-4.056,0.29150858192932599,-1.4708427806279598
-4.0555000000000003,0.35552963107536356,-1.3966663117918552
-4.0549999999999997,0.33418928135997888,-1.2271200973089067
-4.0545,0.24882788249859539,-1.0045906908005926
-4.0540000000000003,0.17413665849488486,-0.75027136907680569
-4.0534999999999997,0.099445434490834636,-0.48535540894704154
-4.0529999999999999,-0.12462823752029703,-0.10387642636136091
-4.0525000000000002,-0.80751942841198598,0.43655213230217815
-4.0519999999999996,-1.2876772970079478,0.9345941373453559
-4.0514999999999999,-1.554431668449771,1.2736865663104053
-4.0510000000000002,-1.6077825427381842,1.241896651094903
-4.0505000000000004,-1.1489650238582478,0.62729162359575097
-4.0499999999999998,-0.57277558154296804,-0.050893234335523743
-4.0495000000000001,-0.028596663801153277,-0.38998566330088158
-4.0490000000000004,0.33418928135972659,-0.45356549373182836
-4.0484999999999998,0.53692260365611399,-0.40058230170591408
-4.048,0.63295417737517057,-0.25222936403370499
-4.0475000000000003,0.69697522652120814,-0.13566634157696922
-4.0469999999999997,0.83568749967112133,-0.14626297998193427
-4.0465,0.81434714995577528,-0.04029659593035631
-4.0460000000000003,0.73965592595206475,0.086863064931537226
-4.0454999999999997,0.61161382765969829,0.19282944898339469
-4.0449999999999999,0.49424190422529612,0.26700591781949923
-4.0445000000000002,0.60094365280212259,0.36237566346600614
-4.0439999999999996,1.1664629202591568,0.6908714540264953
-4.0434999999999999,1.006410297394063,1.0193672445863871
-4.0430000000000001,-0.06060718837420119,1.2313000126897355
-4.0425000000000004,-1.2236562478605513,1.3160731199309981
-4.0419999999999998,-1.8852070890379329,1.1889134590690658
-4.0415000000000001,-1.5757720181651362,0.48953532432801533
-4.0410000000000004,-0.91422117698941407,-0.34759910967945046
-4.0404999999999998,-0.3166913849582158,-0.97280077558538913
-4.04,0.08877525963335578,-1.3012965661452807
-4.0395000000000003,0.3021787567868145,-1.4072629501968588
-4.0389999999999997,0.37686998079077738,-1.3542797581709733
-4.0385,0.36619980593310447,-1.1953301820936066
-4.0380000000000003,0.29150858192939394,-0.97280077558529277
-4.0374999999999996,0.19547700821010455,-0.73967473067117562
-4.0369999999999999,0.11011560934872107,-0.48535540894738849
-4.0365000000000002,-0.049937013516518552,-0.12506970317169577
-4.0359999999999996,-0.58344575640131047,0.35177902506129166
-4.0354999999999999,-1.3090176467230703,0.84982103010370802
-4.0350000000000001,-1.8531965644648849,1.2101067358794007
-4.0345000000000004,-2.055929886760671,0.98757732937108711
-4.0339999999999998,-1.6077825427381842,0.23521600260399694
-4.0335000000000001,-0.91422117698881245,-0.40058230170604903
-4.0330000000000004,-0.23132998609774447,-0.71848145386078288
-4.0324999999999998,0.28083840707188595,-0.69728817705062152
-4.032,0.54759277851370936,-0.57012851618872795
-4.0315000000000003,0.63295417737509296,-0.38998566330104545
-4.0309999999999997,0.62228400251764315,-0.178052895197504
-4.0305,0.79300680024041004,-0.14626297998203064
-4.0300000000000002,0.81434714995575586,-0.093279787956241672
-4.0294999999999996,0.71831557623653453,0.033879872905950646
-4.0289999999999999,0.6116138276598051,0.18223281057815977
-4.0285000000000002,0.65429452709053582,0.35177902506083869
-4.0279999999999996,0.68630505166395261,0.42595549389722276
-4.0274999999999999,1.0917716962555239,0.6590815388106942
-4.0270000000000001,1.2198137945477157,0.97698069096571727
-4.0265000000000004,0.35552963107620783,1.2101067358791886
-4.0259999999999998,-0.8502001278427167,1.3054764815259077
-4.0255000000000001,-1.7464948158880587,1.2736865663104053
-4.0250000000000004,-1.6931439415996941,0.70146809243188446
-4.0244999999999997,-1.0742737998534893,-0.15685961838782453
-4.024,-0.4554036581084589,-0.84564111472308123
-4.0235000000000003,0.0034138607714773728,-1.258910012524235
-4.0229999999999997,0.2594980573563751,-1.4072629501969456
-4.0225,0.36619980593310447,-1.3966663117917877
-4.0220000000000002,0.38754015564845029,-1.2589100125247361
-4.0214999999999996,0.34485945621769065,-1.0575738828262466
-4.0209999999999999,0.29150858192932599,-0.85623775312824868
-4.0205000000000002,0.18480683335249956,-0.5807251545938954
-4.0199999999999996,0.056764735059997316,-0.25222936403335805
-4.0194999999999999,-0.28468086038553664,0.12924961855232261
-4.0190000000000001,-0.96757205127722568,0.64848490040552687
-4.0185000000000004,-1.3943790455841432,1.0723504366118388
-4.0179999999999998,-1.5010807941613578,1.33726639674141
-4.0175000000000001,-1.522421143876723,1.1783168206638983
-4.0170000000000003,-1.1596351987158433,0.50013196273379967
-4.0164999999999997,-0.59411593125784801,-0.082683149551315172
-4.016,-0.06060718837420119,-0.40058230170604903
-4.0155000000000003,0.32351910650202448,-0.44296885532668018
-4.0149999999999997,0.53692260365610422,-0.37938902489558884
-4.0145,0.62228400251748783,-0.24163272562853755
-4.0140000000000002,0.78233662538258197,-0.32640583286979991
-4.0134999999999996,0.94238924824790882,-0.47475877054210541
-4.0129999999999999,0.87836819910187125,-0.34759910968021185
-4.0125000000000002,0.71831557623663156,-0.13566634157686319
-4.0119999999999996,0.568933128228997,0.044476511311098803
-4.0114999999999998,0.4835717293676135,0.17163617217299235
-4.0110000000000001,0.82501732481345802,0.4471487707073456
-4.0105000000000004,1.177133095116665,0.83922439169818397
-4.0099999999999998,0.51558225394066137,1.1359302670432285
-4.0095000000000001,-0.55143523182760279,1.2948798431207402
-4.0090000000000003,-1.5757720181642045,1.3584596735516872
-4.0084999999999997,-1.9598983130412553,1.1147369902322002
-4.008,-1.4584000947306273,0.35177902506083869
-4.0075000000000003,-0.76483872898188632,-0.42177557851568037
-4.0069999999999997,-0.19931946152374558,-0.95160749877497719
-4.0065,0.16346648363713429,-1.1953301820936066
-4.0060000000000002,0.33418928136005654,-1.227120097309109
-4.0054999999999996,0.39821033050612331,-1.1423469900676055
-4.0049999999999999,0.36619980593310447,-0.96220413717992292
-4.0045000000000002,0.27016823221396069,-0.72907809226623943
-4.0039999999999996,0.15279630877938372,-0.48535540894715717
-4.0034999999999998,0.078105084775673142,-0.2310360872233701
-4.0030000000000001,-0.092617712947249131,0.10805634174198775
-4.0025000000000004,-0.71148785469227938,0.58490506997408853
-4.0019999999999998,-1.0956141495694174,1.0193672445863871
-4.0015000000000001,-1.4157193952998968,1.3160731199310751
-4.0010000000000003,-1.5864421930226638,1.4008462271723376
-4.0004999999999997,-1.3516983461532961,0.86041766850818158
-4,-0.79684925355430347,0.097459703336820316
-3.9994999999999998,-0.30602121010090194,-0.4535654937318862
-3.9990000000000001,0.13145595906408636,-0.82444783791274634
-3.9984999999999999,0.41955068022151765,-0.99399405239542526
-3.9980000000000002,0.57960330308675734,-0.89862430674891836
-3.9975000000000001,0.6863050516635838,-0.75027136907657432
-3.9969999999999999,0.92104889853260175,-0.80325456110241145
-3.9965000000000002,0.88903837395955376,-0.59132179299906285
-3.996,0.75032610080967954,-0.28401927924920728
-3.9954999999999998,0.60094365280212259,-0.019103319120021445
-3.9950000000000001,0.49424190422529612,0.15044289536265748
-3.9944999999999999,0.6116138276598051,0.39416557868150842
-3.9940000000000002,1.0704313465401587,0.775644561267536
-3.9935,0.59027347794443985,1.1041403518277266
-3.9929999999999999,-0.40205278382004572,1.0511571598018894
-3.9925000000000002,-1.3090176467230703,0.012686596095480854
-3.992,-1.8852070890379329,-0.52774196256805828
-3.9914999999999998,-1.5651018433074537,-0.72907809226623943
-3.9910000000000001,-0.8928808272734472,-0.88802766834375091
-3.9904999999999999,-0.29535103524321932,-0.99399405239542526
-3.9900000000000002,0.099445434491038431,-1.0257839676109275
-3.9895,0.31284893164469124,-1.0045906908005926
-3.9889999999999999,0.38754015564846972,-0.96220413717992292
-3.9885000000000002,0.38754015564846972,-0.88802766834375091
-3.988,0.31284893164469124,-0.78206128429207655
-3.9874999999999998,0.21681735792554749,-0.65490162343006741
-3.9870000000000001,0.13145595906408636,-0.49595204735255594
-3.9864999999999999,0.024754210487259936,-0.26282600243887239
-3.9860000000000002,-0.4980843575391895,0.13984625695749003
-3.9855,-1.1062843244271001,0.62729162359519197
-3.9849999999999999,-1.2023158981462438,0.97698069096571727
-3.9845000000000002,-1.2663369472923398,1.1677201822587309
-3.984,-1.2129860730039266,0.78624119967270345
-3.9834999999999998,-0.8502001278427167,0.086863064931652884
-3.9830000000000001,-0.32736155981626724,-0.51714532416289083
-3.9824999999999999,0.099445434491038431,-0.95160749877475548
-3.9820000000000002,0.38754015564846972,-1.1635402668781043
-3.9815,0.54759277851370936,-1.0787671596367647
-3.9809999999999999,0.60094365280212259,-0.89862430674891836
-3.9805000000000001,0.79300680024041004,-0.9304142219644207
-3.98,0.86769802424418851,-0.89862430674891836
-3.9794999999999998,0.76099627566736228,-0.66549826183523486
-3.9790000000000001,0.64362435223285308,-0.38998566330088158
-3.9784999999999999,0.69697522652126631,-0.11447306476652835
-3.9780000000000002,0.78233662538272752,0.12924961855232261
-3.9775,1.1984734448323504,0.48953532432801533
-3.9769999999999999,0.91037872367491923,0.90280422212954525
-3.9765000000000001,0.16346648363713429,1.2101067358794007
-3.976,-0.80751942841198598,1.3796529503620798
-3.9754999999999998,-1.5117509690190405,1.3584596735517449
-3.9750000000000001,-1.3623685210114835,0.7968378380778709
-3.9744999999999999,-0.81818960326966872,0.0020899576903134209
-3.9740000000000002,-0.28468086038553664,-0.62311170821456507
-3.9735,0.078105084775673142,-0.97280077558509037
-3.9729999999999999,0.29150858192932599,-1.0999604364470996
-3.9725000000000001,0.3768699807907871,-1.0787671596367647
-3.972,0.38754015564846972,-0.96220413717992292
-3.9714999999999998,0.34485945621773917,-0.792657922697244
-3.9710000000000001,0.20614718306786484,-0.55953187778356051
-3.9704999999999999,0.046094560202625215,-0.27342264084403983
-3.9700000000000002,-0.16730893695102761,0.18223281057815977
-3.9695,-0.55143523182760279,0.64848490040552687
-3.9689999999999999,-1.0956141495694174,1.0299638829915545
-3.9685000000000001,-1.6931439415996454,1.3054764815259077
-3.968,-2.1306211107646336,1.3584596735517449
-3.9674999999999998,-1.7998456901764717,0.82862775329337313
-3.9670000000000001,-1.1062843244271001,0.065669788121318018
-3.9664999999999999,-0.40205278382004572,-0.47475877054222104
-3.9660000000000002,0.16346648363713429,-0.80325456110241145
-3.9655,0.47290155450993088,-0.91981758355925325
-3.9649999999999999,0.6116138276598051,-0.87743102993858346
-3.9645000000000001,0.64362435223285308,-0.71848145386107198
-3.964,0.79300680024041004,-0.47475877054222104
-3.9634999999999998,0.8997085488172365,-0.28401927924920728
-3.9630000000000001,0.79300680024041004,-0.082683149551026042
-3.9624999999999999,0.6863050516635838,0.076266426526485451
-3.9620000000000002,0.59027347794443985,0.18223281057815977
-3.9615,0.52625242879834411,0.24581264100916439
-3.9609999999999999,0.857027849386506,0.47893868592284788
-3.9605000000000001,1.0597611716824762,0.84982103010370802
-3.96,0.24882788249859539,1.146526905448396
-3.9594999999999998,-0.83952995298503397,1.3054764815259077
-3.9590000000000001,-1.7891755153187892,1.3584596735517449
-3.9584999999999999,-1.9705684878993939,1.0193672445863871
-3.9580000000000002,-1.3623685210114835,0.21402272579366208
-3.9575,-0.64746680554674652,-0.53833860097322561
-3.9569999999999999,-0.11395806266261441,-1.0257839676109275
-3.9565000000000001,0.21681735792554749,-1.2377167357142764
-3.956,0.36619980593310447,-1.2589100125246109
-3.9554999999999998,0.40888050536383502,-1.1529436284729369
-3.9550000000000001,0.3982103305061524,-0.99399405239542526
-3.9544999999999999,0.33418928136005654,-0.78206128429207655
-3.9540000000000002,0.23815770764091276,-0.53833860097322561
-3.9535,0.16346648363713429,-0.29461591765437467
-3.9529999999999998,-0.06060718837420119,0.023283234500648287
-3.9525000000000001,-0.71148785469284226,0.50013196273318283
-3.952,-1.437059745015262,0.95578741415538238
-3.9514999999999998,-1.8211860398918371,1.2736865663104053
-3.9510000000000001,-1.9812386627570766,1.3584596735517449
-3.9504999999999999,-1.554431668449771,0.7968378380778709
-3.9500000000000002,-0.86087030270039921,0.065669788121318018
-3.9495,-0.20998963638175816,-0.44296885532671876
-3.9489999999999998,0.27016823221396069,-0.68669153864556975
-3.9485000000000001,0.53692260365602662,-0.70788481545590454
-3.948,0.64362435223285308,-0.66549826183523486
-3.9474999999999998,0.76099627566736228,-0.57012851618872795
-3.9470000000000001,1.1024418711132067,-0.70788481545590454
-3.9464999999999999,1.1131120459708892,-0.64430498502489997
-3.9460000000000002,0.8997085488172365,-0.40058230170604903
-3.9455,0.69697522652126631,-0.14626297998203064
-3.9449999999999998,0.53692260365602662,0.044476511310983152
-3.9445000000000001,0.73965592595199681,0.30939247144016896
-3.944,1.2304839694053984,0.73325800764686633
-3.9434999999999998,0.71831557623663156,1.0935437134225592
-3.9430000000000001,-0.34870190953163249,1.2842832047155728
-3.9424999999999999,-1.3410281712961183,1.33726639674141
-3.9420000000000002,-1.8638667393225676,1.1783168206638983
-3.9415,-1.4797404444459925,0.47893868592284788
-3.9409999999999998,-0.81818960326966872,-0.27342264084403983
-3.9405000000000001,-0.23132998609712346,-0.80325456110241145
-3.9399999999999999,0.14212613392176898,-1.0575738828264298
-3.9394999999999998,0.33418928136005654,-1.0893637980419322
-3.9390000000000001,0.40888050536383502,-0.99399405239542526
-3.9384999999999999,0.3982103305061524,-0.82444783791274634
-3.9380000000000002,0.33418928136005654,-0.60191843140423029
-3.9375,0.25949805735627807,-0.37938902489571413
-3.9369999999999998,0.17413665849481691,-0.14626297998203064
-3.9365000000000001,-0.13529841237797968,0.26700591781949923
-3.9359999999999999,-0.73282820440820751,0.75445128445720111
-3.9355000000000002,-1.2663369472923398,1.146526905448396
-3.9350000000000001,-1.3303579964384356,1.3690563119569124
-3.9344999999999999,-1.3090176467230703,1.2313000126897355
-3.9340000000000002,-1.0102527507079564,0.59550170837968963
-3.9335,-0.5621054066852853,-0.093279787956193475
-3.9329999999999998,-0.10328788780493176,-0.54893523937839306
-3.9325000000000001,0.27016823221396069,-0.76086800748174177
-3.9319999999999999,0.49424190422529612,-0.75027136907657432
-3.9315000000000002,0.57960330308675734,-0.53833860097322561
-3.931,0.60094365280212259,-0.30521255605954212
-3.9304999999999999,0.71831557623663156,-0.10387642636136091
-3.9300000000000002,0.76099627566736228,-0.0085066807148540119
-3.9295,0.70764540137894905,0.044476511310983152
-3.9289999999999998,0.6116138276598051,0.076266426526485451
-3.9285000000000001,0.50491207908297886,0.086863064931652884
