Class_11_Cell_phone_Call/Class_11_Cell_phone_Call_Basim_6.csv

#Digilent WaveForms Oscilloscope Acquisition
#Device Name: EExplorer
#Serial Number: SN:210151A2B84A
#Date Time: 2021-01-24 16:26:40.038
#Sample rate: 2000Hz
#Samples: 16384
#Trigger: Source: Channel 1 Type: Edge Condition: Rising Level: 0 V Hyst.: Auto HoldOff: 0 s
#Channel 1: Range: 1 V/div Offset: 0 V Attenuation: 1 X
#Channel 2: Range: 1 V/div Offset: 0 V Attenuation: 1 X
#Power Supplies: ON
#Fixed Supply: ON
#Voltage: 3.3 V Readback: 3.331 V
#Positive Supply: ON
#Voltage: 3.7 V Readback: 3.732 V
#Current: 40 mA Readback: 14 mA
#Negative Supply: ON
#Voltage: -3.7 V Readback: -3.348 V
#Current: -40 mA Readback: -4 mA
#Reference 1: ON
#Voltage: 0 V
#Reference 2: ON
#Voltage: 0 V

Time (s),Channel 1 (V),Channel 2 (V)
-4.096,-0.3700422592469978,-0.9092209451540858
-4.0955,-0.007256314086117932,-0.5065486857580896
-4.095,0.3235191065025097,-0.442968855326526
-4.0945,0.4729015545099309,-0.2310360872233701
-4.094,0.4835717293676038,0.01268659609525918
-4.0935,0.387540155648363,0.1928294489833658
-4.093,0.2701682322139607,0.2352160026039969
-4.0925,0.1848068333525772,0.2564092794143125
-4.092,0.3341892813600953,0.5001319627332695
-4.0915,0.3768699807907871,0.5955017083796896
-4.091,0.291508581929326,0.5319218779486851
-4.0905,0.1848068333524219,0.4471487707073071
-4.09,0.09944543449103843,0.4047622170866759
-4.0895,-0.03926683865883591,0.4471487707073456
-4.089,-0.5834457564001556,0.7968378380775529
-4.0885,-1.30901764672307,0.6696781772158616
-4.088,-1.83185621474952,-0.09327978795619347
-4.0875,-2.162631635337381,-0.8032545611017657
-4.087,-1.682473766741342,-0.835044476317509
-4.0865,-0.9995825758502737,-0.3899856633008816
-4.086,-0.4660738329666269,0.1080563417415348
-4.0855,-0.1139580626624591,0.5001319627334141
-4.085,0.05676473506030786,0.7544512844572011
-4.0845,0.1314559590640184,0.8922075837242525
-4.084,0.131455959064067,0.9451907757502246
-4.0835,0.1101156093487211,0.9557874141553824
-4.083,0.07810508477567314,0.9134008605347127
-4.0825,0.0674349099179905,0.8180311148881094
-4.082,0.0674349099179905,0.7120647308365314
-4.0815,0.07810508477567314,0.5955017083796896
-4.081,0.2488278824984401,0.2458126410094824
-4.0805,0.79300680024041,-0.474758770542221
-4.08,0.857027849386506,-1.163540266878104
-4.0795,0.3555296310758779,-1.502632695843154
-4.079,0.2701682322140674,-0.8350444763176536
-4.0785,0.3875401556484697,-0.5489352393783931
-4.078,0.4408910299368344,-0.3581957480855528
-4.0775,0.4195506802214303,-0.1992461720077811
-4.077,0.3235191065023739,-0.1038764263613609
-4.0765,0.2274875327833175,-0.01910331912009855
-4.076,0.1527963087794905,0.04447651131114699
-4.0755,0.1954770082101822,0.2246193641988295
-4.075,0.2594980573562781,0.3729723018711736
-4.0745,0.2168173579254893,0.3941655786814795
-4.074,0.1527963087794516,0.3623756634660061
-4.0735,0.09944543449103843,0.3517790250608387
-4.073,0.03542438534500081,0.3729723018711543
-4.0725,-0.3807124341046804,0.7438546460520338
-4.072,-1.042263275281004,1.220703374284568
-4.0715,-1.511750969018613,0.8392243916988875
-4.071,-1.895877263895441,-0.07208651114627303
-4.0705,-1.703814116457328,-0.5277419625680583
-4.07,-1.106284324427643,-0.3475991096803757
-4.0695,-0.5621054066849457,0.0444765113113301
-4.069,-0.1886492866663929,0.4259554938970107
-4.0685,0.02475421048725994,0.7120647308365314
-4.068,0.1101156093487405,0.9028042221296513
-4.0675,0.1314559590640864,1.019367244586387
-4.067,0.1101156093487211,1.072350436612224
-4.0665,0.08877525963333636,1.082947075017334
-4.066,0.0674349099179905,1.019367244586387
-4.0655,0.0674349099179905,0.92399749893988
-4.065,0.07810508477566344,0.7756445612676709
-4.0645,0.2488278824985954,0.3729723018711736
-4.064,0.8143471499557753,-0.3475991096802118
-4.0635,1.081101521397599,-1.046977244420626
-4.063,0.6863050516633314,-1.608599079895107
-4.0625,0.408880505363835,-1.576809164679634
-4.062,0.4195506802215079,-1.195330182093953
-4.0615,0.4195506802214886,-0.6760949002400842
-4.061,0.3875401556484697,-0.326405832869877
-4.0605,0.3235191065023739,-0.1462629799820306
-4.06,0.2488278824985275,-0.02969995752513105
-4.0595,0.1741366584948169,0.03387987290581572
-4.059,0.1634664836371343,0.1292496185523226
-4.0585,0.2808384070715366,0.3411823866554785
-4.058,0.2701682322139607,0.3411823866556712
-4.0575,0.1954770082101822,0.2776025562246667
-4.057,0.1314559590641446,0.2140227257937199
-4.0565,0.0674349099179905,0.1822328105781598
-4.056,-0.1886492866663929,0.4153588554918433
-4.0555,-0.8075194284114231,0.9345941373445752
-4.055,-1.277007122150265,0.7438546460514074
-4.0545,-1.543761493592088,0.05507314971615059
-4.054,-1.714484291314855,0.04447651131099279
-4.0535,-1.341028171295633,0.2140227257937488
-4.053,-0.807519428411986,0.309392471440169
-4.0525,-0.3593720843893152,0.3941655786815084
-4.052,-0.07127736323175766,0.4895353243281021
-4.0515,0.0674349099179905,0.5849050699745222
-4.051,0.1207857842064037,0.701468092431364
-4.0505,0.1207857842064037,0.807434476482942
-4.05,0.09944543449103843,0.9028042221295453
-4.0495,0.07810508477567314,0.9451907757502149
-4.049,0.0674349099180002,0.9451907757502149
-4.0485,0.06743490991802932,0.9239974989397837
-4.048,0.1101156093487211,0.8180311148882058
-4.0475,0.4195506802212362,0.3199891098457894
-4.047,0.707645401378687,-0.3581957480858804
-4.0465,0.4195506802215176,-0.9092209451540858
-4.046,0.06743490991831075,-0.8880276683437702
-4.0455,0.1848068333526743,-0.4429688553264682
-4.045,0.3768699807907871,-0.1674562567923655
-4.0445,0.4408910299368829,0.03387987290581572
-4.044,0.4088805053637477,0.07626642652645654
-4.0435,0.3128489316446912,0.04447651131098315
-4.043,0.2168173579255475,0.03387987290581572
-4.0425,0.1527963087795099,0.04447651131097351
-4.042,0.291508581929326,0.2776025562246667
-4.0415,0.3341892813600565,0.3517790250608387
-4.041,0.2701682322140189,0.2987958330350498
-4.0405,0.1741366584947587,0.2034260873884561
-4.04,0.1101156093487211,0.1610395337678249
-4.0395,-0.03926683865870005,0.2564092794142451
-4.039,-0.5727755815434921,0.5849050699743101
-4.0385,-1.148965023857831,0.3517790250608387
-4.038,-1.511750969018711,-0.3687923864898914
-4.0375,-1.810515865033883,-1.015187329205721
-4.037,-1.51175096901904,-0.9728007755850904
-4.0365,-0.9462317015618604,-0.4429688553267188
-4.036,-0.4554036581081581,0.1186529801475407
-4.0355,-0.124628237520297,0.5425185163538525
-4.035,0.05676473506030786,0.8074344764830383
-4.0345,0.1207857842063455,0.9451907757500897
-4.034,0.1314559590640864,0.9875773293708847
-4.0335,0.1101156093487211,0.9875773293708847
-4.033,0.08877525963337518,0.9451907757502535
-4.0325,0.07810508477566344,0.8498210301035923
-4.032,0.0674349099179905,0.7226613692416989
-4.0315,0.07810508477566344,0.563711793164332
-4.031,0.099445434491184,0.3623756634654471
-4.0305,0.2594980573562781,-0.252229364033705
-4.03,0.1207857842065299,-0.9622041371792772
-4.0295,-0.2846808603853619,-1.375473034980913
-4.029,-0.09261771294724913,-0.7820612842920766
-4.0285,0.2594980573562781,-0.4323722169215513
-4.028,0.4195506802215467,-0.305212556059465
-4.0275,0.4515612047945656,-0.2204394488182027
-4.027,0.3768699807907871,-0.1356663415768632
-4.0265,0.2701682322140577,-0.08268314955107423
-4.026,0.1741366584948169,-0.05089323433552374
-4.0255,0.2701682322139607,0.13984625695749
-4.025,0.387540155648363,0.3411823866554882
-4.0245,0.3235191065022768,0.3517790250608002
-4.024,0.2168173579255475,0.309392471440169
-4.0235,0.131455959064164,0.309392471440169
-4.023,0.04609456020228556,0.3199891098456255
-4.0225,-0.3273615598162672,0.6378882620003594
-4.022,-0.9995825758496623,0.9663840525602511
-4.0215,-1.490410619304025,0.4365521323013879
-4.021,-1.87453691418025,-0.4323722169215513
-4.0205,-1.778505340461106,-0.8350444763179138
-4.02,-1.191645723288047,-0.5383386009727533
-4.0195,-0.6261264558313813,-0.01910331912002144
-4.019,-0.2206598112394408,0.4471487707073456
-4.0185,0.01408403562936381,0.786241199672395
-4.018,0.1101156093487211,0.9875773293708847
-4.0175,0.1314559590640864,1.093543713422559
-4.017,0.1207857842064134,1.125333628638033
-4.0165,0.09944543449101902,1.114736990232827
-4.016,0.07810508477567314,1.040560521396722
-4.0155,0.0674349099180002,0.9239974989399861
-4.015,0.07810508477577019,0.7650479228620891
-4.0145,0.1848068333524996,0.457745409112513
-4.014,0.6756348768054546,-0.2310360872227437
-4.0135,0.9530594231053489,-0.9728007755856204
-4.013,0.6222840025174878,-1.555615887869299
-4.0125,0.4729015545099309,-1.174136905283272
-4.012,0.6009436528021711,-0.3264058328695686
-4.0115,0.6542945270905358,0.01268659609548085
-4.011,0.5902734779444399,0.03387987290581572
-4.0105,0.4302208550793459,-0.01910331911997325
-4.01,0.2808384070716433,-0.05089323433552374
-4.0095,0.1634664836371343,-0.08268314955102604
-4.009,0.1527963087794613,-0.008506680714921472
-4.0085,0.3341892813600856,0.3623756634661122
-4.008,0.3661998059331045,0.4789386859228479
-4.0075,0.2808384070717209,0.4153588554919012
-4.007,0.1848068333524219,0.3199891098452979
-4.0065,0.09944543449103843,0.2776025562246667
-4.006,-0.1459685872356623,0.4895353243280153
-4.0055,-0.7434983792663755,0.8922075837240115
-4.005,-1.277007122150022,0.4895353243280153
-4.0045,-1.83185621474952,-0.3581957480853793
-4.004,-2.13062111076411,-0.9728007755849458
-4.0035,-1.554431668449771,-0.8138511995075789
-4.003,-0.8928808272734472,-0.2840192792492073
-4.0025,-0.3807124341051462,0.2458126410086826
-4.002,-0.06060718837420119,0.6484849004055269
-4.0015,0.08877525963335578,0.8922075837243778
-4.001,0.1421261339217205,1.019367244586271
-4.0005,0.131455959064067,1.072350436612224
-4,0.1101156093487211,1.072350436612224
-3.9995,0.08877525963335578,1.00877060618122
-3.999,0.0674349099179905,0.9345941373450475
-3.9985,0.0674349099179905,0.7968378380778709
-3.998,0.08877525963335578,0.6166949851900245
-3.9975,0.1101156093487211,0.2458126410091644
-3.997,0.1527963087794516,-0.4853554089473885
-3.9965,-0.1032878878049318,-1.184733543688439
-3.996,-0.2953510352432193,-1.629792356705471
-3.9955,-0.07127736323188383,-1.566212526274467
-3.995,0.1954770082101822,-1.131750351662602
-3.9945,0.3768699807907871,-0.6231117082145651
-3.994,0.4195506802215176,-0.2310360872233701
-3.9935,0.3448594562177392,-0.01910331912002144
-3.993,0.2488278824985954,0.05507314971615059
-3.9925,0.1741366584948169,0.06566978812131802
-3.992,0.2594980573562781,0.2564092794143318
-3.9915,0.2808384070716433,0.309392471440169
-3.991,0.2168173579255475,0.2352160026039969
-3.9905,0.1527963087794516,0.1504428953626575
-3.99,0.09944543449103843,0.1080563417419877
-3.9895,0.05676473506030786,0.1292496185523226
-3.989,-0.1779791118087102,0.1928294489833272
-3.9885,-0.807519428411986,-0.2204394488182027
-3.988,-1.437059745015262,-0.8668343915334161
-3.9875,-1.917217613610981,-1.375473034981453
-3.987,-1.714484291315011,-1.227120097309109
-3.9865,-1.095614149569417,-0.5913217929990628
-3.986,-0.5514352318276028,0.05507314971615059
-3.9855,-0.1673089369510276,0.5213252395435176
-3.985,0.03542438534494258,0.7968378380778709
-3.9845,0.1314559590640864,0.9345941373450475
-3.984,0.142126133921769,0.9769806909657173
-3.9835,0.1314559590640864,0.9663840525605498
-3.983,0.09944543449103843,0.9028042221295453
-3.9825,0.08877525963335578,0.7968378380778709
-3.982,0.07810508477567314,0.6696781772158616
-3.9815,0.08877525963335578,0.5213252395435176
-3.981,0.1741366584948169,0.08686306493165288
-3.9805,0.1848068333524996,-0.6231117082145651
-3.98,-0.007256314085787988,-1.269506650929778
-3.9795,-0.4554036581084589,-1.809935209593318
-3.979,-0.3593720843893152,-2.117237723343173
-3.9785,0.04609456020262521,-1.926498232050159
-3.978,0.3235191065023739,-1.248313374119443
-3.9775,0.408880505363835,-0.6125150698093976
-3.977,0.3768699807907871,-0.1568596183871981
-3.9765,0.291508581929326,0.09745970333682032
-3.976,0.1954770082101822,0.2034260873884947
-3.9755,0.2381577076409128,0.3411823866556712
-3.975,0.3235191065023739,0.5001319627331828
-3.9745,0.291508581929326,0.4471487707073456
-3.974,0.2168173579255475,0.3199891098453364
-3.9735,0.142126133921769,0.2140227257936621
-3.973,0.07810508477567314,0.1716361721729923
-3.9725,-0.2953510352432193,0.383568940276341
-3.972,-0.9462317015618604,0.2670059178194992
-3.9715,-1.479740444445993,-0.400582301706049
-3.971,-1.970568487899394,-1.089363798041932
-3.9705,-1.885207089037933,-1.237716735714276
-3.97,-1.234326422719292,-0.7396747306714069
-3.9695,-0.6367966306890638,-0.1462629799820306
-3.969,-0.2099896363817582,0.3305857482505039
-3.9685,0.02475421048725994,0.627291623595192
-3.968,0.1314559590640864,0.7862411996727035
-3.9675,0.1527963087794516,0.8392243916985406
-3.967,0.142126133921769,0.8392243916985406
-3.9665,0.1101156093487211,0.8074344764830383
-3.966,0.08877525963335578,0.7332580076468663
-3.9655,0.07810508477567314,0.6378882620003594
-3.965,0.08877525963335578,0.5319218779486851
-3.9645,0.09944543449103843,0.4153588554918433
-3.964,0.1207857842064037,-0.04029659593035631
-3.9635,0.01408403562957729,-0.7608680074817418
-3.963,-0.3700422592469978,-1.354279758171118
-3.9625,-0.3380317346739499,-1.163540266878104
-3.962,0.05676473506030786,-0.8562377531282487
-3.9615,0.3768699807907871,-0.6125150698093976
-3.961,0.4835717293676135,-0.3052125560595421
-3.9605,0.4302208550792003,-0.08268314955102604
-3.96,0.3235191065023739,0.04447651131098315
-3.9595,0.2168173579255475,0.09745970333682032
-3.959,0.1848068333524996,0.1716361721729923
-3.9585,0.3128489316446912,0.3729723018711736
-3.958,0.3128489316446912,0.4047622170866759
-3.9575,0.2381577076409128,0.3517790250608387
-3.957,0.1634664836371343,0.2987958330350016
-3.9565,0.1101156093487211,0.2881991946298341
-3.956,-0.03926683865883591,0.3411823866556712
-3.9555,-0.6154562809736985,0.05507314971615059
-3.955,-1.26633694729234,-0.5913217929990628
-3.9545,-1.543761493592088,-1.131750351662602
-3.954,-1.661133417026597,-1.354279758171118
-3.9535,-1.244996597576974,-0.8986243067489184
-3.953,-0.7114878546928423,-0.2310360872233701
-3.9525,-0.2846808603855366,0.3199891098453364
-3.952,-0.02859666380115328,0.6696781772158616
-3.9515,0.09944543449103843,0.8604176685088755
-3.951,0.142126133921769,0.92399749893988
-3.9505,0.142126133921769,0.92399749893988
-3.95,0.1207857842064037,0.8816109453192104
-3.9495,0.09944543449103843,0.7862411996727035
-3.949,0.08877525963335578,0.6590815388106942
-3.9485,0.08877525963335578,0.5213252395435176
-3.948,0.1314559590640864,0.3305857482505039
-3.9475,0.4729015545099309,-0.1568596183871981
-3.947,1.006410297394063,-0.8562377531282487
-3.9465,0.9637295979633325,-1.460246142222792
-3.946,0.5155822539406614,-1.926498232050159
-3.9455,0.4622313796522482,-2.074851169722503
-3.945,0.5369226036560266,-1.523825972653797
-3.9445,0.5262524287983441,-0.8350444763179138
-3.944,0.4302208550792003,-0.3581957480853793
-3.9435,0.3235191065023739,-0.05089323433552374
-3.943,0.2274875327832301,0.1080563417419877
-3.9425,0.1634664836371343,0.1610395337678249
-3.942,0.1527963087794516,0.2246193641988295
-3.9415,0.142126133921769,0.2352160026039969
-3.941,0.1207857842064037,0.2246193641988295
-3.9405,0.08877525963335578,0.2246193641988295
-3.94,0.0674349099179905,0.2034260873884947
-3.9395,-0.007256314085787988,0.2458126410091644
-3.939,-0.4980843575391895,0.5743084315693548
-3.9385,-1.202315898146244,0.309392471440169
-3.938,-1.618452717595867,-0.4323722169215513
-3.9375,-1.842526389607202,-1.078767159636765
-3.937,-1.490410619303675,-1.046977244421262
-3.9365,-0.9035510021311299,-0.5277419625680583
-3.936,-0.4127229586777283,0.02328323450064829
-3.9355,-0.09261771294724913,0.4471487707073456
-3.935,0.07810508477567314,0.7120647308365314
-3.9345,0.142126133921769,0.849821030103708
-3.934,0.1527963087794516,0.9028042221295453
-3.9335,0.1314559590640864,0.9134008605347127
-3.933,0.1101156093487211,0.8604176685088755
-3.9325,0.08877525963335578,0.7650479228623686
-3.932,0.08877525963335578,0.6590815388106942
-3.9315,0.1101156093487211,0.5213252395435176
-3.931,0.09944543449103843,0.3411823866556712
-3.9305,0.00341386077189465,-0.2734226408440398
-3.93,-0.2633405106701714,-0.9833974139902578
-3.9295,-0.5621054066852853,-1.576809164679634
-3.929,-0.274010685527854,-1.990078062481164
-3.9285,0.142126133921769,-1.88411167842949
-3.928,0.3875401556484697,-1.237716735714276
-3.9275,0.4302208550792003,-0.6443049850249
-3.927,0.3555296310754218,-0.1886495336027004
-3.9265,0.2701682322139607,0.07626642652648545
-3.926,0.1848068333524996,0.1928294489833272
-3.9255,0.2488278824985954,0.3623756634660061
-3.925,0.3661998059331045,0.5213252395435176
-3.9245,0.3341892813600565,0.457745409112513
-3.924,0.2488278824985954,0.3199891098453364
-3.9235,0.1634664836371343,0.2246193641988295
-3.923,0.09944543449103843,0.1822328105781598
-3.9225,-0.1886492866663929,0.4365521323021782
-3.922,-0.8502001278427167,0.9875773293708847
-3.9215,-1.447729919872945,0.8604176685088755
-3.921,-2.023919362187807,0.02328323450064829
-3.9205,-2.002579012472442,-0.5595318777835605
-3.92,-1.30901764672307,-0.4641621321370536
-3.9195,-0.690147504977477,-0.09327978795619347
-3.919,-0.2313299860971235,0.2881991946298341
-3.9185,0.02475421048725994,0.5955017083796896
-3.918,0.142126133921769,0.7862411996727035
-3.9175,0.1634664836371343,0.8922075837243778
-3.917,0.1527963087794516,0.9557874141553824
-3.9165,0.1314559590640864,0.9557874141553824
-3.916,0.1101156093487211,0.9134008605347127
-3.9155,0.09944543449103843,0.8180311148882058
-3.915,0.09944543449103843,0.7120647308365314
-3.9145,0.1527963087794516,0.4895353243280153
-3.914,0.291508581929326,-0.1250697031716958
-3.9135,0.2061471830678648,-0.8456411147230812
-3.913,-0.1779791118087102,-1.42845622700729
-3.9125,-0.2420001609548061,-1.937094870455327
-3.912,0.1101156093487211,-2.106641084938006
-3.9115,0.4195506802215176,-1.714565463946811
-3.911,0.5155822539406614,-1.046977244421262
-3.9105,0.4835717293676135,-0.5489352393783931
-3.91,0.3661998059331045,-0.1780528951975329
-3.9095,0.2594980573562781,0.03387987290581572
-3.909,0.1954770082101822,0.1610395337678249
-3.9085,0.2701682322139607,0.3517790250608387
-3.908,0.2594980573562781,0.3517790250608387
-3.9075,0.2061471830678648,0.2670059178194992
-3.907,0.1527963087794516,0.1928294489833272
-3.9065,0.09944543449103843,0.1504428953626575
-3.906,-0.04993701351651855,0.2564092794143318
-3.9055,-0.6154562809736985,0.13984625695749
-3.905,-1.170305373573196,-0.4535654937318862
-3.9045,-1.554431668449771,-1.0999604364471
-3.904,-1.778505340461106,-1.481439419033127
-3.9035,-1.362368521011484,-1.068170521231597
-3.903,-0.7968492535543035,-0.400582301706049
-3.9025,-0.3273615598162672,0.1716361721729923
-3.902,-0.03926683865883591,0.5637117931641874
-3.9015,0.1101156093487211,0.775644561267536
-3.901,0.1527963087794516,0.8710143069140429
-3.9005,0.1527963087794516,0.8922075837243778
-3.9,0.1314559590640864,0.8604176685088755
-3.8995,0.1101156093487211,0.8074344764830383
-3.899,0.09944543449103843,0.7120647308365314
-3.8985,0.09944543449103843,0.5743084315693548
-3.898,0.1101156093487211,0.4471487707073456
-3.8975,0.142126133921769,0.13984625695749
-3.897,0.2808384070716433,-0.5171453241628908
-3.8965,0.2594980573562781,-1.184733543688439
-3.896,0.03542438534494258,-1.735758740757146
-3.8955,0.1848068333524996,-2.043061254507001
-3.895,0.3982103305061524,-1.746355379162313
-3.8945,0.4942419042252961,-1.036380606016095
-3.894,0.4729015545099309,-0.4217755785163839
-3.8935,0.3768699807907871,-0.08268314955102604
-3.893,0.2701682322139607,0.08686306493165288
-3.8925,0.1954770082101822,0.1610395337678249
-3.892,0.291508581929326,0.3623756634660061
-3.8915,0.3448594562177392,0.4365521323021782
-3.891,0.291508581929326,0.3623756634660061
-3.8905,0.2168173579255475,0.2564092794143318
-3.89,0.142126133921769,0.1822328105781598
-3.8895,0.08877525963335578,0.1822328105781598
-3.889,-0.1779791118087102,0.3199891098453364
-3.8885,-0.807519428411986,0.06566978812131802
-3.888,-1.415719395299897,-0.6019184314042303
-3.8875,-1.981238662757077,-1.184733543688439
-3.887,-1.746494815888059,-1.121153713257435
