Class_11_Cell_phone_Call/Class_11_Cell_phone_Call_SH_8.csv

#Digilent WaveForms Oscilloscope Acquisition
#Device Name: EExplorer
#Serial Number: SN:210151A2B84A
#Date Time: 2020-12-22 12:17:22.391
#Sample rate: 2000Hz
#Samples: 16384
#Trigger: Source: Channel 1 Type: Edge Condition: Rising Level: 0 V Hyst.: Auto HoldOff: 0 s
#Channel 1: Range: 1 V/div Offset: 0 V Attenuation: 1 X
#Channel 2: Range: 1 V/div Offset: 0 V Attenuation: 1 X
#Power Supplies: ON
#Fixed Supply: ON
#Voltage: 3.3 V Readback: 3.325 V
#Positive Supply: ON
#Voltage: 3.7 V Readback: 3.703 V
#Current: 40 mA Readback: 20 mA
#Negative Supply: ON
#Voltage: -3.7 V Readback: -3.9 V
#Current: -40 mA Readback: -4 mA
#Reference 1: ON
#Voltage: 0 V
#Reference 2: ON
#Voltage: 0 V

Time (s),Channel 1 (V),Channel 2 (V)
-4.096,0.1207857842064037,0.2246193641988295
-4.0955,0.5262524287979753,0.4153588554916698
-4.095,0.6863050516635935,0.3835689402762157
-4.0945,0.6969752265212663,0.2458126410091644
-4.094,0.6542945270905747,0.1186529801472709
-4.0935,0.6542945270905164,0.0550731497161795
-4.093,0.6329541773751706,0.08686306493165288
-4.0925,0.6009436528021517,0.1292496185522841
-4.092,0.5582629533713727,0.1716361721730405
-4.0915,0.5369226036560266,0.2246193641988295
-4.091,0.5262524287983441,0.2352160026039969
-4.0905,0.5475927785133988,-0.1674562567929727
-4.09,0.2061471830678648,-0.8350444763179138
-4.0895,-0.4447334832507763,-1.481439419033127
-4.089,-1.244996597576246,-1.990078062480701
-4.0885,-1.575772018165136,-1.958288147265661
-4.088,-1.159635198715513,-1.195330182093607
-4.0875,-0.508754532397464,-0.2840192792500361
-4.087,0.07810508477594487,0.4577454091128504
-4.0865,0.3768699807907871,0.8286277532933731
-4.086,0.5155822539405353,0.9769806909655824
-4.0855,0.5582629533713921,1.008770606181181
-4.085,0.5582629533713921,0.9663840525605498
-4.0845,0.547592778513719,0.8922075837244453
-4.084,0.5262524287983344,0.8180311148881383
-4.0835,0.5155822539406614,0.7438546460520338
-4.083,0.5049120790829789,0.7120647308365314
-4.0825,0.3661998059325222,0.7226613692418724
-4.082,-0.274010685527854,0.9134008605347127
-4.0815,-0.8288597781273515,0.2352160026039969
-4.081,-1.106284324426848,-0.6972881770498891
-4.0805,-0.9142211769888124,-0.8138511995075789
-4.08,-0.3807124341046804,-0.4429688553267188
-4.0795,0.1101156093482746,-0.1038764263616693
-4.079,0.4302208550793556,0.09745970333683959
-4.0785,0.6009436528021226,0.1186529801471552
-4.078,0.6649647019481602,0.076266426526524
-4.0775,0.6542945270905649,0.04447651131099279
-4.077,0.6863050516635838,0.05507314971615059
-4.0765,0.7503261008096214,0.1186529801470974
-4.076,0.7076454013788909,0.1610395337678635
-4.0755,0.6436243522328531,0.2034260873884947
-4.075,0.5796033030867573,0.2564092794143318
-4.0745,0.5369226036556967,0.2776025562242908
-4.074,0.1741366584948169,-0.1356663415768632
-4.0735,-0.5514352318276028,-0.8244478379127463
-4.073,-1.298347471864708,-1.513229334248003
-4.0725,-1.799845690176472,-1.725162102351978
-4.072,-2.269333383914508,-1.809935209593318
-4.0715,-1.746494815888534,-1.311893204550901
-4.071,-0.9248913518457867,-0.591321792998446
-4.0705,-0.1459685872356623,0.08686306493165288
-4.07,0.3021787567866011,0.4895353243276491
-4.0695,0.5049120790830468,0.6802748156210966
-4.069,0.5796033030867573,0.7544512844572011
-4.0685,0.5796033030867573,0.775644561267536
-4.068,0.5582629533713727,0.7650479228623589
-4.0675,0.5369226036560266,0.7544512844572011
-4.067,0.5262524287983441,0.7332580076468663
-4.0665,0.5155822539405449,0.7332580076469338
-4.066,0.3875401556484697,0.8074344764830383
-4.0655,-0.2633405106701714,1.029963882991555
-4.065,-1.052933450137969,0.4789386859233491
-4.0645,-1.618452717595867,-0.6019184314042303
-4.064,-1.714484291315011,-1.078767159636765
-4.0635,-1.127624674142999,-0.7184814538613997
-4.063,-0.4020527838195411,-0.2522293640333581
-4.0625,0.1527963087794516,0.1292496185523226
-4.062,0.4622313796519667,0.3093924714400051
-4.0615,0.6009436528021517,0.3305857482504557
-4.061,0.6329541773751706,0.2776025562246667
-4.0605,0.6222840025174878,0.2458126410091644
-4.06,0.6863050516635644,0.3623756634660158
-4.0595,0.6649647019482183,0.3729723018711736
-4.059,0.6222840025174878,0.3411823866556712
-4.0585,0.5796033030867962,0.3305857482505135
-4.058,0.5582629533713921,0.3517790250608387
-4.0575,0.4942419042252961,0.1928294489833272
-4.057,0.3555296310755479,-0.4323722169209826
-4.0565,-0.3060212101009019,-1.280103289334946
-4.056,-1.244996597576974,-2.053657892912168
-4.0555,-1.959898313041061,-2.403346960282376
-4.055,-1.746494815887389,-1.915901593644077
-4.0545,-1.010252750707956,-0.9092209451540858
-4.054,-0.2420001609555049,0.04447651131011576
-4.0535,0.2274875327834436,0.6060983467851077
-4.053,0.4622313796522482,0.8816109453192104
-4.0525,0.5582629533713921,0.9663840525605498
-4.052,0.5796033030867477,0.9451907757501571
-4.0515,0.5689331282290746,0.8816109453192104
-4.051,0.5475927785137094,0.7862411996727035
-4.0505,0.5369226036560363,0.7014680924314411
-4.05,0.5262524287983441,0.6166949851900245
-4.0495,0.5049120790829789,0.5425185163538525
-4.049,0.131455959064426,0.2458126410094342
-4.0485,-0.7968492535550119,-0.6019184314050495
-4.048,-1.575772018165136,-1.502632695843462
-4.0475,-1.821186039891614,-1.79933857118788
-4.047,-1.351698346153131,-1.163540266877468
-4.0465,-0.6154562809736985,-0.4641621321370536
-4.046,0.02475421048667759,0.03387987290536276
-4.0455,0.4515612047947403,0.2352160026040066
-4.045,0.6436243522328531,0.2458126410091644
-4.0445,0.6756348768059011,0.1822328105781598
-4.044,0.6542945270906911,0.1292496185524865
-4.0435,0.825017324813458,0.309392471440169
-4.043,1.027750647109428,0.5213252395435176
-4.0425,0.9850699476787366,0.4577454091125709
-4.042,0.8356874996711408,0.3199891098453364
-4.0415,0.6969752265212663,0.2140227257936621
-4.041,0.5902734779445369,0.09745970333692633
-4.0405,0.4515612047940706,-0.4217755785169911
-4.04,-0.09261771294724913,-1.089363798041932
-4.0395,-0.8822106524150464,-1.778145294377189
-4.039,-1.511750969019099,-2.24439738420496
-4.0385,-1.575772018165136,-2.000674700886331
-4.038,-0.9035510021317413,-0.9939940523963406
-4.0375,-0.2953510352427438,-0.09327978795554775
-4.037,0.2274875327832301,0.6166949851900245
-4.0365,0.4942419042252961,0.9981739677760521
-4.036,0.5582629533714017,1.114736990232904
-4.0355,0.5689331282290746,1.125333628638062
-4.035,0.5475927785137094,1.082947075017392
-4.0345,0.5369226036560363,1.029963882991603
-4.034,0.5155822539406614,0.9663840525605498
-4.0335,0.5155822539406614,0.9028042221295453
-4.033,0.5049120790829885,0.8498210301037562
-4.0325,0.2274875327824829,0.9875773293709907
-4.032,-0.5941159312583333,1.104140351827727
-4.0315,-1.255666772434056,0.298795833035734
-4.031,-1.629122892453617,-0.8032545611027005
-4.0305,-1.703814116457328,-1.121153713257435
-4.03,-1.170305373573681,-0.729078092266596
-4.0295,-0.4767440078233099,-0.305212556059253
-4.029,0.08877525963335578,0.01268659609548085
-4.0285,0.4195506802215176,0.1504428953626575
-4.028,0.5796033030867864,0.1398462569574322
-4.0275,0.6116138276598051,0.07626642652648545
-4.027,0.6756348768059011,-0.008506680714854012
-4.0265,0.7823366253826305,-0.1038764263612742
-4.026,0.7503261008096795,-0.04029659593035631
-4.0255,0.6756348768059011,0.07626642652648545
-4.025,0.6009436528021905,0.203426087388379
-4.0245,0.5689331282288611,0.2881991946295161
-4.024,0.3341892813600565,-0.06148987274069118
-4.0235,-0.3593720843886844,-0.7714646458862635
-4.023,-0.9569018764199798,-1.375473034981848
-4.0225,-1.437059745015262,-1.809935209593318
-4.022,-1.5010807941613,-1.714565463946897
-4.0215,-1.212986073003781,-1.195330182093318
-4.021,-1.052933450138687,-0.8774310299385835
-4.0205,-0.3807124341046804,-0.1038764263613609
-4.02,0.04609456020293576,0.372972301871482
-4.0195,0.3875401556484697,0.7120647308365314
-4.019,0.5689331282290746,0.8816109453192104
-4.0185,0.5796033030867477,0.8392243916985791
-4.018,0.5475927785137094,0.7650479228623686
-4.0175,0.5262524287983441,0.6802748156210291
-4.017,0.5049120790829983,0.5955017083797667
-4.0165,0.4942419042252379,0.5531151547590393
-4.016,0.4302208550792003,0.5743084315693548
-4.0155,-0.1673089369504842,0.08686306493209617
-4.015,-1.042263275281528,-0.9198175835600532
-4.0145,-1.618452717595867,-1.79933857118815
-4.014,-1.490410619303792,-1.629792356705625
-4.0135,-0.7434983792653079,-0.813851199506991
-4.013,-0.1032878878049318,-0.1674562567923655
-4.0125,0.3235191065023739,0.1822328105781598
-4.012,0.5689331282291716,0.2776025562246088
-4.0115,0.6756348768059011,0.2140227257936621
-4.011,0.6863050516635838,0.13984625695749
-4.0105,0.6649647019482378,0.06566978812138548
-4.01,0.8036769750980928,-0.1144730647665284
-4.0095,0.825017324813458,-0.1038764263613609
-4.009,0.7503261008097475,0.03387987290569044
-4.0085,0.6649647019481504,0.1928294489834621
-4.008,0.5902734779444399,0.3411823866556712
-4.0075,0.6116138276597857,0.5425185163536694
-4.007,0.9423892482476661,0.9345941373446909
-4.0065,0.6116138276598051,0.5425185163538525
-4.006,-0.2633405106701714,-0.3687923864905467
-4.0055,-0.9462317015617828,-1.046977244421127
-4.005,-0.8608703027003992,-0.8986243067489184
-4.0045,-0.423393133535411,-0.3581957480853793
-4.004,-0.1673089369511538,0.01268659609543267
-4.0035,-0.3060212101009019,-0.04029659593035631
-4.003,-0.2420001609548061,0.06566978812131802
-4.0025,0.00341386077167144,0.3517790250605785
-4.002,0.1954770082101822,0.55311515475902
-4.0015,0.4195506802215176,0.7650479228623686
-4.001,0.515582253940574,0.8392243916984731
-4.0005,0.5049120790829594,0.8074344764829902
-4,0.4835717293676135,0.7544512844572011
-3.9995,0.4729015545099309,0.7120647308365314
-3.999,0.291508581929326,0.4789386859228479
-3.9985,-0.4660738329661415,-0.3475991096802118
-3.998,-1.277007122150022,-1.38606967338662
-3.9975,-1.51175096901904,-1.746355379162313
-3.997,-1.159635198715513,-1.036380606016095
-3.9965,-0.5194247072545548,-0.2946159176543747
-3.996,0.05676473506030786,0.1610395337678249
-3.9955,0.408880505363835,0.2987958330350016
-3.995,0.6009436528021226,0.2458126410091644
-3.9945,0.6542945270905358,0.1292496185523226
-3.994,0.6436243522328531,0.03387987290581572
-3.9935,0.6969752265212663,-0.02969995752518888
-3.993,0.7289857510943143,-0.05089323433552374
-3.9925,0.6863050516635838,-0.01910331912002144
-3.992,0.6436243522328531,0.03387987290581572
-3.9915,0.5902734779444399,0.1292496185523226
-3.991,0.5475927785137094,0.1610395337678249
-3.9905,0.2808384070716433,-0.3370024712750445
-3.99,-0.4554036581084589,-1.046977244421262
-3.9895,-1.202315898146244,-1.576809164679634
-3.989,-1.789175515318789,-1.852321763213987
-3.9885,-1.714484291315011,-1.523825972653797
-3.988,-1.010252750707956,-0.6549016234300674
-3.9875,-0.3273615598162672,0.1716361721729923
-3.987,0.1741366584948169,0.7438546460520338
-3.9865,0.4515612047945656,1.061753798207057
-3.986,0.5689331282290746,1.167720182258731
-3.9855,0.408880505363835,0.9663840525605498
-3.985,-0.06060718837420119,0.4259554938970107
-3.9845,-0.1352984123779797,0.2670059178194992
-3.984,0.00341386077189465,0.3199891098453364
-3.9835,0.1741366584948169,0.383568940276341
-3.983,0.3768699807907871,0.5213252395435176
-3.9825,0.2274875327832301,0.55311515475902
-3.982,-0.658136980404429,-0.2204394488182027
-3.9815,-1.394379045584531,-1.34368311976595
-3.981,-1.853196564464885,-2.074851169722503
-3.9805,-1.735824641030376,-1.619195718300304
-3.98,-1.010252750707956,-0.8244478379127463
-3.9795,-0.2420001609548061,-0.2416327256285375
-3.979,0.3021787567870086,0.002089957690313421
-3.9785,0.5796033030867573,0.1504428953626575
-3.978,0.6542945270905358,0.1716361721729923
-3.9775,0.6436243522328531,0.1080563417419877
-3.977,0.6649647019482183,0.1292496185523226
-3.9765,0.7716664505250448,0.2352160026039969
-3.976,0.7503261008096795,0.2246193641988295
-3.9755,0.6756348768059011,0.1822328105781598
-3.975,0.6116138276598051,0.1610395337678249
-3.9745,0.5689331282290746,0.1716361721729923
-3.974,0.79300680024041,-0.1780528951975329
-3.9735,1.113112045970889,-0.9410108603695881
-3.973,0.6222840025174878,-1.640388995110639
-3.9725,-0.1673089369510276,-2.074851169722503
-3.972,-0.722158029550525,-2.011271339291499
-3.9715,-0.6261264558313813,-1.174136905283272
-3.971,-0.2633405106701714,-0.2734226408440398
-3.9705,0.09944543449103843,0.4153588554918433
-3.97,0.3448594562177392,0.8392243916985406
-3.9695,0.4835717293676135,1.029963882991555
-3.969,0.5369226036560266,1.093543713422559
-3.9685,0.5475927785137094,1.072350436612224
-3.968,0.5369226036560266,1.00877060618122
-3.9675,0.5155822539406614,0.9345941373450475
-3.967,0.5049120790829789,0.8604176685088755
-3.9665,0.3021787567870086,0.6378882620003594
-3.966,-0.274010685527854,0.13984625695749
-3.9655,-0.2420001609548061,0.2881991946298341
-3.965,-0.4874141826815069,-0.1356663415768632
-3.9645,-0.9889124009925911,-1.0999604364471
-3.964,-1.212986073003927,-1.364876396576285
-3.9635,-0.8181896032696687,-0.7820612842920766
-3.963,-0.2846808603855366,-0.2204394488182027
-3.9625,0.1634664836371343,0.07626642652648545
-3.962,0.4515612047945656,0.1822328105781598
-3.9615,0.5796033030867573,0.13984625695749
-3.961,0.6222840025174878,0.05507314971615059
-3.9605,0.6116138276598051,0.002089957690313421
-3.96,0.5902734779444399,0.06566978812131802
-3.9595,0.5689331282290746,0.1080563417419877
-3.959,0.5475927785137094,0.1186529801471552
-3.9585,0.5262524287983441,0.1504428953626575
-3.958,0.5262524287983441,0.1928294489833272
-3.9575,0.5689331282290746,0.2776025562246667
-3.957,0.9530594231056497,-0.008506680714854012
-3.9565,0.7396559259519968,-0.8350444763179138
-3.956,-0.3273615598162672,-1.598002441489969
-3.9555,-1.202315898146244,-1.958288147265661
-3.955,-1.148965023857831,-1.417859588602123
-3.9545,-0.6474668055467465,-0.5277419625680583
-3.954,-0.124628237520297,0.2458126410091644
-3.9535,0.2488278824985954,0.7438546460520338
-3.953,0.4622313796522482,1.00877060618122
-3.9525,0.5475927785137094,1.093543713422559
-3.952,0.5689331282290746,1.082947075017392
-3.9515,0.5582629533713921,1.019367244586387
-3.951,0.5369226036560266,0.92399749893988
-3.9505,0.5049120790829789,0.8392243916985406
-3.95,0.4835717293676135,0.7544512844572011
-3.9495,0.4729015545099309,0.6802748156210291
-3.949,0.1741366584948169,0.55311515475902
-3.9485,-0.4554036581084589,-0.1038764263613609
-3.948,-1.06360362499637,-0.9833974139902578
-3.9475,-1.661133417026597,-1.650985633515806
-3.947,-2.258663209056825,-1.88411167842949
-3.9465,-1.554431668449771,-1.089363798041932
-3.946,-0.7434983792658902,-0.4429688553267188
-3.9455,-0.02859666380115328,0.05507314971615059
-3.945,0.4515612047945656,0.309392471440169
-3.9445,0.6009436528021226,0.2776025562246667
-3.944,0.6329541773751706,0.1610395337678249
-3.9435,0.7183155762366316,0.1822328105781598
-3.943,0.79300680024041,0.2352160026039969
-3.9425,0.7503261008096795,0.1822328105781598
-3.942,0.6649647019482183,0.1292496185523226
-3.9415,0.6009436528021226,0.1186529801471552
-3.941,0.5582629533713921,0.08686306493165288
-3.9405,0.4408910299368829,-0.4641621321370536
-3.94,-0.1993194615240755,-1.322489842955616
-3.9395,-0.9035510021311299,-1.990078062481164
-3.939,-1.362368521011484,-2.339767129851689
-3.9385,-1.319687821580753,-1.926498232050159
-3.938,-0.7755089038389382,-0.9410108603695881
-3.9375,-0.2099896363817582,-0.01910331912002144
-3.937,0.2061471830678648,0.6166949851900245
-3.9365,0.4515612047945656,0.9769806909657173
-3.936,0.5475927785137094,1.114736990232894
-3.9355,0.5796033030867573,1.135930267043229
-3.935,0.5689331282290746,1.082947075017392
-3.9345,0.5369226036560266,0.9981739677760521
-3.934,0.5155822539406614,0.9028042221295453
-3.9335,0.4942419042252961,0.8180311148882058
-3.933,0.4729015545099309,0.7332580076468663
-3.9325,0.3341892813600565,0.5955017083796896
-3.932,-0.274010685527854,0.002089957690313421
-3.9315,-0.722158029550525,-0.8032545611024114
-3.931,-0.9355615267041777,-1.333086481360783
-3.9305,-0.807519428411986,-0.9410108603695881
-3.93,-0.5834457564006506,-0.5277419625680583
-3.9295,-0.6474668055467465,-0.6019184314042303
-3.929,-0.3166913849585846,-0.3793890248957141
-3.9285,0.01408403562957729,-0.2098428104130352
-3.928,0.2701682322139607,-0.1780528951975329
-3.9275,0.5155822539406614,-0.1250697031716958
-3.927,0.6222840025174878,-0.1356663415768632
-3.9265,0.6542945270905358,-0.1886495336027004
-3.926,0.6116138276598051,-0.1462629799820306
-3.9255,0.5689331282290746,-0.05089323433552374
-3.925,0.5369226036560266,0.05507314971615059
-3.9245,0.5155822539406614,0.1716361721729923
-3.924,0.6222840025174878,0.13984625695749
-3.9235,1.262494493978446,-0.4111789401112165
-3.923,1.667961138570387,-1.301296566145281
-3.9225,1.251824319120764,-1.778145294377815
-3.922,0.79300680024041,-1.88411167842949
-3.9215,0.2594980573562781,-1.587405803084801
-3.921,0.1207857842064037,-0.8032545611024114
-3.9205,0.1848068333524996,-0.02969995752518888
-3.92,0.291508581929326,0.5213252395435176
-3.9195,0.3875401556484697,0.8392243916985406
-3.919,0.4515612047945656,0.9875773293708847
-3.9185,0.4835717293676135,1.029963882991555
-3.918,0.4942419042252961,1.019367244586387
-3.9175,0.4942419042252961,0.9769806909657173
-3.917,0.4835717293676135,0.92399749893988
-3.9165,0.4729015545099309,0.8922075837243778
-3.916,0.4195506802215176,0.8710143069140429
-3.9155,-0.08194753808956648,0.5001319627331828
-3.915,-0.807519428411986,-0.3899856633008816
-3.9145,-1.26633694729234,-1.205926820498774
-3.914,-1.437059745015262,-1.566212526274467
-3.9135,-1.010252750707956,-1.05757388282643
-3.913,-0.4127229586777283,-0.4111789401112165
-3.9125,0.08877525963335578,0.07626642652648545
-3.912,0.1954770082101822,0.1080563417419877
-3.9115,-0.156638762093345,-0.4111789401112165
-3.911,-0.01792648894347063,-0.4111789401112165
-3.9105,0.1314559590640864,-0.3793890248957141
-3.91,0.3448594562177392,-0.2310360872233701
-3.9095,0.5475927785137094,-0.04029659593035631
-3.909,0.5689331282290746,0.03387987290581572
-3.9085,0.5369226036560266,0.06566978812131802
-3.908,0.5155822539406614,0.1080563417419877
-3.9075,0.5369226036560266,0.09745970333682032
-3.907,0.9317190733902845,-0.3687923864905467
-3.9065,0.7716664505250448,-1.237716735714276
-3.906,-0.06060718837420119,-1.990078062481164
-3.9055,-1.020922925565639,-2.435136875498196
-3.905,-1.277007122150022,-2.064254531317336
-3.9045,-0.8715404775580819,-1.05757388282643
-3.904,-0.3273615598162672,-0.1038764263613609
-3.9035,0.1101156093487211,0.5637117931641874
-3.903,0.3768699807907871,0.9451907757502149
-3.9025,0.5155822539406614,1.104140351827727
-3.902,0.5582629533713921,1.125333628638062
-3.9015,0.5475927785137094,1.072350436612224
-3.901,0.5262524287983441,0.9981739677760521
-3.9005,0.4942419042252961,0.9134008605347127
-3.9,0.4729015545099309,0.8286277532933731
-3.8995,0.4515612047945656,0.7650479228623686
-3.899,0.1207857842064037,0.6166949851900245
-3.8985,-0.6154562809736985,-0.1356663415768632
-3.898,-1.180975548430879,-1.01518732920576
-3.8975,-1.330357996438436,-1.417859588602123
-3.897,-0.8502001278427167,-0.9304142219644207
-3.8965,-0.2526703358124887,-0.3793890248957141
-3.896,0.2168173579255475,0.002089957690313421
-3.8955,0.4729015545099309,0.1292496185523226
-3.895,0.5689331282290746,0.1080563417419877
-3.8945,0.3661998059331045,-0.1780528951975329
-3.894,-0.156638762093345,-0.7396747306714069
-3.8935,0.08877525963335578,-0.792657922697244
-3.893,0.4408910299368829,-0.792657922697244
-3.8925,0.6116138276598051,-0.474758770542221
-3.892,0.6969752265212663,-0.07208651114585861
-3.8915,0.6222840025174878,0.1822328105781598
-3.891,0.5369226036560266,0.2670059178194992
-3.8905,0.1207857842064037,-0.326405832869877
-3.89,-0.8608703027003992,-1.290699927740113
-3.8895,-1.87453691418025,-2.064254531317336
-3.889,-2.664129853648766,-2.530506621144703
-3.8885,-2.493407055925843,-2.25499402261035
-3.888,-1.522421143876723,-1.248313374119443
-3.8875,-0.5941159312583333,-0.252229364033705
-3.887,0.05676473506030786,0.4471487707073456
-3.8865,0.4195506802215176,0.8286277532933731
-3.886,0.5689331282290746,0.9769806909657173
