Class_11_Cell_phone_Call/Class_11_Cell_phone_Call_Turki_1.csv

#Digilent WaveForms Oscilloscope Acquisition
#Device Name: EExplorer
#Serial Number: SN:210151A2B84A
#Date Time: 2020-11-18 11:36:14.621
#Sample rate: 2000Hz
#Samples: 16384
#Trigger: Source: Channel 1 Type: Edge Condition: Rising Level: 0 V Hyst.: Auto HoldOff: 0 s
#Channel 1: Range: 1 V/div Offset: 0 V Attenuation: 1 X
#Channel 2: Range: 1 V/div Offset: 0 V Attenuation: 1 X
#Power Supplies: ON
#Fixed Supply: ON
#Voltage: 3.3 V Readback: 3.332 V
#Positive Supply: ON
#Voltage: 3.7 V Readback: 3.716 V
#Current: 500 mA Readback: 20 mA
#Negative Supply: ON
#Voltage: -3.7 V Readback: -3.707 V
#Current: -500 mA Readback: -8 mA
#Reference 1: ON
#Voltage: 0 V
#Reference 2: ON
#Voltage: 0 V

Time (s),Channel 1 (V),Channel 2 (V)
-4.096,0.1314559590640864,0.9451907757502149
-4.0955,-0.2633405106698123,0.5319218779490609
-4.095,-1.020922925566047,-0.3581957480861503
-4.0945,-1.46907026958831,-1.205926820498774
-4.094,-1.597112367880385,-1.778145294377295
-4.0935,-1.052933450137998,-1.555615887868692
-4.093,-0.2953510352432193,-0.8880276683437509
-4.0925,0.2061471830674087,-0.2734226408445989
-4.092,0.4835717293676717,0.09745970333693597
-4.0915,0.5475927785137094,0.2246193641988295
-4.091,0.5049120790829789,0.2246193641988295
-4.0905,0.4195506802215953,0.1398462569574611
-4.09,0.5049120790829789,0.1080563417419877
-4.0895,0.5902734779444399,0.13984625695749
-4.089,0.5155822539407293,0.1186529801471745
-4.0885,0.4195506802215176,0.09745970333682032
-4.088,0.3448594562177392,0.1080563417419877
-4.0875,0.3128489316447204,0.1716361721729345
-4.087,0.6863050516636129,0.6378882620007545
-4.0865,0.7183155762366316,1.072350436612224
-4.086,-0.1779791118078951,0.4683420475182298
-4.0855,-1.127624674142921,-0.4641621321376029
-4.085,-1.629122892453549,-1.068170521231597
-4.0845,-1.319687821581034,-0.8244478379129681
-4.084,-0.7648387289808188,-0.2310360872228593
-4.0835,-0.2846808603855366,0.3305857482505039
-4.083,0.03542438534494258,0.7438546460520338
-4.0825,0.1954770082102404,0.9981739677761869
-4.082,0.2594980573562781,1.146526905448396
-4.0815,0.2594980573562781,1.188913459069066
-4.081,0.2381577076409322,1.199510097474224
-4.0805,0.2061471830678648,1.167720182258731
-4.08,0.1741366584948169,1.125333628638062
-4.0795,0.1421261339217981,1.051157159801957
-4.079,0.06743490991746647,0.881610945318584
-4.0785,-0.5087545323968721,0.1928294489833272
-4.078,-1.052933450138192,-0.623111708213823
-4.0775,-1.309017646722954,-1.269506650929942
-4.077,-1.180975548430879,-1.449649503817625
-4.0765,-0.5087545323974835,-0.9939940523958397
-4.076,0.05676473506062811,-0.4641621321367163
-4.0755,0.408880505363835,-0.09327978795619347
-4.075,0.5262524287983441,0.04447651131098315
-4.0745,0.5155822539406129,0.0444765113109446
-4.074,0.4622313796522482,0.002089957690313421
-4.0735,0.4408910299368829,-0.05089323433552374
-4.073,0.4729015545099018,-0.09327978795615492
-4.0725,0.4195506802215176,-0.09327978795619347
-4.072,0.3661998059331045,-0.05089323433552374
-4.0715,0.3128489316447398,0.01268659609542303
-4.071,0.2701682322141742,0.07626642652683241
-4.0705,0.5049120790829789,0.457745409112513
-4.07,0.9850699476782609,1.157123543852927
-4.0695,0.4515612047936922,1.040560521395884
-4.069,-0.5087545323968721,0.1186529801471552
-4.0685,-1.255666772434657,-0.7608680074817418
-4.068,-1.191645723288173,-0.8032545611019873
-4.0675,-0.7648387289812555,-0.3370024712750445
-4.067,-0.3273615598162672,0.2034260873884947
-4.0665,-0.007256314085632716,0.6272916235954522
-4.066,0.1634664836371343,0.9134008605347127
-4.0655,0.2381577076409128,1.072350436612224
-4.065,0.2488278824985857,1.157123543853486
-4.0645,0.2381577076409128,1.178316820663898
-4.064,0.2061471830678648,1.157123543853563
-4.0635,0.174136658494846,1.12533362863809
-4.063,0.1421261339217011,1.061753798206951
-4.0625,0.0674349099179905,0.9451907757502149
-4.062,-0.4554036581079833,0.3517790250613784
-4.0615,-1.010252750708238,-0.538338600973881
-4.061,-1.319687821580753,-1.258910012524611
-4.0605,-1.319687821580753,-1.269506650929778
-4.06,-0.7541685541230101,-0.7396747306709636
-4.0595,-0.1352984123779797,-0.252229364033705
-4.059,0.3128489316446912,0.05507314971615059
-4.0585,0.52625242879815,0.1610395337677286
-4.058,0.5582629533713921,0.1716361721729923
-4.0575,0.5049120790829789,0.1080563417419877
-4.057,0.4408910299369412,0.002089957690409802
-4.0565,0.5049120790829789,-0.1568596183871981
-4.056,0.4729015545099309,-0.1780528951975329
-4.0555,0.3982103305062203,-0.125069703171744
-4.055,0.3448594562177101,-0.04029659593026957
-4.0545,0.3128489316446912,0.05507314971615059
-4.054,0.4088805053637476,0.07626642652646617
-4.0535,0.4942419042247915,-0.4217755785170296
-4.053,-0.06060718837420119,-1.131750351662602
-4.0525,-0.9248913518464952,-1.672178910326141
-4.052,-1.287677297007443,-1.629792356704816
-4.0515,-0.9995825758502737,-0.9092209451540858
-4.051,-0.5514352318276028,-0.1144730647665284
-4.0505,-0.167308936951377,0.489535324327466
-4.05,0.08877525963335578,0.849821030103708
-4.0495,0.2061471830678648,1.019367244586387
-4.049,0.2488278824985566,1.061753798207018
-4.0485,0.248827882498576,1.040560521396664
-4.048,0.2274875327832301,0.9769806909657173
-4.0475,0.2061471830678842,0.892207583724455
-4.047,0.1741366584948072,0.8074344764829613
-4.0465,0.1634664836371343,0.7226613692416989
-4.046,0.1421261339217884,0.6272916235952787
-4.0455,-0.1032878878053005,0.21402272579292
-4.045,-0.5087545323968721,-0.6019184314042303
-4.0445,-0.7008176798351597,-1.227120097309109
-4.044,-0.9889124009923971,-1.650985633515517
-4.0435,-0.7755089038389382,-1.333086481360783
-4.043,-0.2846808603855366,-0.6972881770507372
-4.0425,0.120785784206035,-0.1568596183876896
-4.042,0.3448594562177392,0.1716361721729923
-4.0415,0.4302208550792003,0.2881991946298341
-4.041,0.4195506802215274,0.2987958330349919
-4.0405,0.3768699807908841,0.2352160026039198
-4.04,0.4835717293676135,0.1504428953626575
-4.0395,0.5582629533713241,0.08686306493171071
-4.039,0.5155822539405838,0.08686306493168179
-4.0385,0.4302208550792003,0.1186529801471552
-4.038,0.3448594562178168,0.1610395337677864
-4.0375,0.3128489316450503,0.2564092794147944
-4.037,0.707645401378949,0.7650479228623686
-4.0365,0.8676980242441885,1.263089927905238
-4.036,0.05676473505941505,0.6802748156201135
-4.0355,-0.9248913518464952,-0.326405832869877
-4.035,-1.202315898146244,-0.8032545611024114
-4.0345,-0.9035510021314017,-0.5383386009734665
-4.034,-0.4767440078238243,-0.04029659593035631
-4.0335,-0.1139580626626144,0.4047622170866759
-4.033,0.09944543449084434,0.7332580076465676
-4.0325,0.2168173579255766,0.9345941373451438
-4.032,0.2488278824985954,1.040560521396722
-4.0315,0.2488278824985954,1.082947075017353
-4.031,0.2274875327832107,1.09354371342254
-4.0305,0.2061471830678648,1.072350436612224
-4.03,0.174136658494846,1.029963882991593
-4.0295,0.1421261339215361,0.9769806909654667
-4.029,-0.1139580626626144,0.701468092431364
-4.0285,-0.7861790786966207,-0.09327978795619347
-4.028,-1.330357996438562,-0.9622041371804626
-4.0275,-1.46907026958831,-1.555615887869299
-4.027,-1.052933450138687,-1.269506650929778
-4.0265,-0.4020527838206377,-0.6231117082151529
-4.026,0.1634664836371343,-0.08268314955102604
-4.0255,0.4622313796522482,0.1928294489833272
-4.025,0.5155822539406129,0.2881991946297474
-4.0245,0.46223137965219,0.2458126410090198
-4.024,0.3982103305061524,0.08686306493165288
-4.0235,0.4302208550791712,0.03387987290586391
-4.023,0.5902734779444302,0.1610395337678249
-4.0225,0.5796033030867573,0.1610395337678249
-4.022,0.4835717293677009,0.1080563417420359
-4.0215,0.3875401556484115,0.06566978812130839
-4.021,0.3235191065023739,0.05507314971615059
-4.0205,0.6222840025174878,-0.1568596183871981
-4.02,1.113112045970443,-0.7926579226978319
-4.0195,0.6222840025174878,-1.439052865412457
-4.019,-0.2206598112394408,-1.75695201756748
-4.0185,-1.020922925564911,-1.809935209593269
-4.018,-1.074273799854052,-1.174136905283272
-4.0175,-0.722158029550525,-0.326405832869877
-4.017,-0.3273615598166263,0.3729723018705375
-4.0165,-0.02859666380099801,0.8286277532935755
-4.016,0.142126133921769,1.051157159801889
-4.0155,0.2274875327831525,1.125333628637994
-4.015,0.2488278824985857,1.104140351827669
-4.0145,0.2381577076409128,1.040560521396722
-4.014,0.2168173579255669,0.9557874141554594
-4.0135,0.2061471830678163,0.8710143069139465
-4.013,0.1527963087794516,0.7650479228623686
-4.0125,-0.007256314085787988,0.55311515475902
-4.012,-0.6261264558318083,-0.1568596183879691
-4.0115,-1.095614149569417,-1.004590690800593
-4.011,-1.394379045584531,-1.619195718300304
-4.0105,-1.287677297007802,-1.428456227007463
-4.01,-0.7328282044082075,-0.9410108603695881
-4.0095,-0.1032878878049318,-0.4959520473525559
-4.009,0.2915085819289669,-0.2098428104132954
-4.0085,0.4835717293676329,-0.05089323433547555
-4.008,0.5049120790829789,0.002089957690313421
-4.0075,0.4515612047946141,0.02328323450062901
-4.007,0.4195506802215953,0.02328323450061937
-4.0065,0.5049120790829789,-0.008506680714854012
-4.006,0.4942419042252961,0.01268659609548085
-4.0055,0.4622313796521803,0.08686306493172999
-4.005,0.3875401556484697,0.1716361721729923
-4.0045,0.3128489316446912,0.2458126410091644
-4.004,0.3875401556488773,0.436552132302689
-4.0035,0.8356874996711408,0.9981739677760521
-4.003,0.4835717293676135,0.9981739677760521
-4.0025,-0.4020527838192403,0.1716361721737441
-4.002,-1.277007122150022,-0.5913217929990628
-4.0015,-1.554431668449771,-0.9516074987747555
-4.001,-1.159635198715872,-0.6019184314045483
-4.0005,-0.6154562809733006,-0.05089323433507078
-4,-0.1779791118087102,0.4471487707073456
-3.9995,0.08877525963335578,0.7968378380778709
-3.999,0.2168173579255475,1.00877060618122
-3.9985,0.2594980573562781,1.104140351827727
-3.998,0.2594980573562781,1.146526905448396
-3.9975,0.2274875327832301,1.146526905448396
-3.997,0.2061471830678648,1.114736990232894
-3.9965,0.1741366584948169,1.061753798207057
-3.996,0.1207857842064037,0.9875773293708847
-3.9955,-0.3807124341046804,0.4683420475176805
-3.995,-1.020922925565639,-0.400582301706049
-3.9945,-1.244996597576974,-1.131750351662602
-3.994,-1.074273799854052,-1.301296566145281
-3.9935,-0.5621054066852853,-0.8350444763179138
-3.993,-0.01792648894347063,-0.3899856633008816
-3.9925,0.3448594562177392,-0.08268314955102604
-3.992,0.5155822539406614,0.03387987290581572
-3.9915,0.5369226036560266,-0.008506680714854012
-3.991,0.4942419042252961,-0.07208651114585861
-3.9905,0.4195506802215176,-0.1038764263613609
-3.99,0.4302208550792003,0.002089957690313421
-3.9895,0.408880505363835,0.07626642652648545
-3.989,0.3448594562177392,0.07626642652648545
-3.9885,0.291508581929326,0.06566978812131802
-3.988,0.2488278824985954,0.09745970333682032
-3.9875,0.2808384070716433,0.13984625695749
-3.987,0.7396559259519968,0.07626642652648545
-3.9865,0.942389248247967,-0.400582301706049
-3.986,0.1314559590640864,-1.121153713257435
-3.9855,-0.7648387289812555,-1.598002441489969
-3.985,-0.9355615267041777,-1.258910012524611
-3.9845,-0.658136980404429,-0.4959520473525559
-3.984,-0.3166913849585846,0.2140227257936621
-3.9835,-0.03926683865883591,0.7120647308365314
-3.983,0.1314559590640864,0.9875773293708847
-3.9825,0.2168173579255475,1.114736990232894
-3.982,0.2381577076409128,1.146526905448396
-3.9815,0.2381577076409128,1.114736990232894
-3.981,0.2061471830678648,1.051157159801889
-3.9805,0.1848068333524996,0.9769806909657173
-3.98,0.1527963087794516,0.8922075837243778
-3.9795,0.1314559590640864,0.7968378380778709
-3.979,-0.1673089369510276,0.4471487707073456
-3.9785,-0.8608703027003992,-0.4111789401112165
-3.978,-1.415719395299897,-1.280103289334946
-3.9775,-1.842526389607202,-1.947691508860494
-3.977,-1.970568487899394,-2.064254531317336
-3.9765,-1.255666772434657,-1.364876396576285
-3.976,-0.3700422592469978,-0.6654982618352349
-3.9755,0.2274875327832301,-0.1674562567923655
-3.975,0.5262524287983441,0.1292496185523226
-3.9745,0.5902734779444399,0.2246193641988295
-3.974,0.5369226036560266,0.1716361721729923
-3.9735,0.5049120790829789,0.1186529801471552
-3.973,0.5262524287983441,0.1822328105781598
-3.9725,0.4515612047945656,0.2140227257936621
-3.972,0.3875401556484697,0.1610395337678249
-3.9715,0.3341892813600565,0.1186529801471552
-3.971,0.291508581929326,0.1186529801471552
-3.9705,0.5369226036560266,0.4153588554918433
-3.97,0.8997085488172365,1.00877060618122
-3.9695,0.2701682322139607,0.6590815388106942
-3.969,-0.4127229586777283,-0.1674562567923655
-3.9685,-0.5407650569699201,-0.3793890248957141
-3.968,-0.3700422592469978,-0.1356663415768632
-3.9675,-0.1459685872356623,0.2352160026039969
-3.967,0.03542438534494258,0.5637117931641874
-3.9665,0.1527963087794516,0.7968378380778709
-3.966,0.2061471830678648,0.9557874141553824
-3.9655,0.2274875327832301,1.051157159801889
-3.965,0.2274875327832301,1.104140351827727
-3.9645,0.2061471830678648,1.114736990232894
-3.964,0.1848068333524996,1.104140351827727
-3.9635,0.1634664836371343,1.082947075017392
-3.963,0.1527963087794516,1.029963882991555
-3.9625,0.1101156093487211,0.9028042221295453
-3.962,-0.3273615598162672,0.2670059178194992
-3.9615,-0.807519428411986,-0.6337083466197325
-3.961,-1.010252750707956,-1.354279758171118
-3.9605,-0.9782422261349084,-1.703968825541643
-3.96,-0.6154562809736985,-1.301296566145281
-3.9595,-0.156638762093345,-0.6549016234300674
-3.959,0.2168173579255475,-0.1674562567923655
-3.9585,0.4195506802215176,0.07626642652648545
-3.958,0.4729015545099309,0.05507314971615059
-3.9575,0.4408910299368829,-0.06148987274069118
-3.957,0.408880505363835,-0.1462629799820306
-3.9565,0.4729015545099309,-0.2204394488182027
-3.956,0.4515612047945656,-0.2204394488182027
-3.9555,0.3875401556484697,-0.1568596183871981
-3.955,0.3341892813600565,-0.08268314955102604
-3.9545,0.291508581929326,-0.008506680714854012
-3.954,0.3341892813600565,-0.008506680714854012
-3.9535,0.6542945270905358,-0.4853554089473885
-3.953,0.3555296310754218,-1.174136905283272
-3.9525,-0.4767440078238243,-1.682775548731308
-3.952,-1.330357996438436,-1.905304955239825
-3.9515,-1.586442193022819,-1.587405803084801
-3.951,-1.170305373573196,-0.7290780922662394
-3.9505,-0.6154562809736985,0.09745970333682032
-3.95,-0.1779791118087102,0.6802748156210291
-3.9495,0.09944543449103843,1.00877060618122
-3.949,0.2274875327832301,1.146526905448396
-3.9485,0.2594980573562781,1.157123543853563
-3.948,0.2594980573562781,1.104140351827727
-3.9475,0.2274875327832301,1.019367244586387
-3.947,0.1848068333524996,0.9134008605347127
-3.9465,0.1634664836371343,0.8074344764830383
-3.946,0.1527963087794516,0.6908714540261965
-3.9455,-0.2526703358124887,0.2140227257936621
-3.945,-0.8608703027003992,-0.6654982618352349
-3.9445,-1.138294849000148,-1.439052865412457
-3.944,-1.447729919872945,-2.011271339291499
-3.9435,-1.458400094730627,-2.011271339291499
-3.943,-0.8288597781273515,-1.269506650929778
-3.9425,-0.1779791118087102,-0.5065486857577234
-3.942,0.2808384070716433,-0.01910331912002144
-3.9415,0.4942419042252961,0.1504428953626575
-3.941,0.5155822539406614,0.1504428953626575
-3.9405,0.4622313796522482,0.08686306493165288
-3.94,0.4942419042252961,0.002089957690313421
-3.9395,0.4942419042252961,-0.04029659593035631
-3.939,0.4195506802215176,-0.06148987274069118
-3.9385,0.3661998059331045,-0.04029659593035631
-3.938,0.3235191065023739,0.002089957690313421
-3.9375,0.3021787567870086,0.01268659609548085
-3.937,0.09944543449103843,-0.4217755785163839
-3.9365,-0.4874141826815069,-1.131750351662602
-3.936,-1.255666772434657,-1.746355379162313
-3.9355,-1.682473766741963,-1.958288147265661
-3.935,-1.351698346153801,-1.290699927740113
-3.9345,-0.7755089038389382,-0.4217755785163839
-3.934,-0.274010685527854,0.2776025562246667
-3.9335,0.04609456020262521,0.7332580076468663
-3.933,0.2168173579255475,0.9557874141553824
-3.9325,0.2701682322139607,1.040560521396722
-3.932,0.2701682322139607,1.040560521396722
-3.9315,0.2594980573562781,0.9981739677760521
-3.931,0.2168173579255475,0.92399749893988
-3.9305,0.1741366584948169,0.8392243916985406
-3.93,0.142126133921769,0.7650479228623686
-3.9295,0.1314559590640864,0.6802748156210291
-3.929,-0.09261771294724913,0.3729723018711736
-3.9285,-0.7434983792658902,-0.4323722169215513
-3.928,-1.244996597576974,-1.258910012524611
-3.9275,-1.554431668449771,-1.873515040024322
-3.927,-1.51175096901904,-1.915901593644992
-3.9265,-0.7968492535543035,-1.227120097309109
-3.926,-0.09261771294724913,-0.5277419625680583
-3.9255,0.3555296310754218,-0.02969995752518888
-3.925,0.5369226036560266,0.2140227257936621
-3.9245,0.5475927785137094,0.2564092794143318
-3.924,0.4729015545099309,0.2034260873884947
-3.9235,0.4729015545099309,0.1080563417419877
-3.923,0.5475927785137094,0.01268659609548085
-3.9225,0.5049120790829789,-0.008506680714854012
-3.922,0.4302208550792003,0.01268659609548085
-3.9215,0.3448594562177392,0.06566978812131802
-3.921,0.291508581929326,0.1186529801471552
-3.9205,0.5155822539406614,0.3623756634660061
-3.92,0.79300680024041,0.6696781772158616
-3.9195,0.07810508477567314,0.07626642652648545
-3.919,-0.8288597781273515,-0.5595318777835605
-3.9185,-1.490410619303675,-1.01518732920576
-3.918,-1.362368521011484,-0.8880276683437509
-3.9175,-0.8502001278427167,-0.3687923864905467
-3.917,-0.3487019095316325,0.1610395337678249
-3.9165,-0.007256314085787988,0.5637117931641874
-3.916,0.1848068333524996,0.8074344764830383
-3.9155,0.2594980573562781,0.9345941373450475
-3.915,0.2701682322139607,0.9875773293708847
-3.9145,0.2488278824985954,0.9981739677760521
-3.914,0.2168173579255475,0.9769806909657173
-3.9135,0.1954770082101822,0.9557874141553824
-3.913,0.1741366584948169,0.9028042221295453
-3.9125,0.09944543449103843,0.7862411996727035
-3.912,-0.4447334832507763,0.1822328105781598
-3.9115,-1.042263275281004,-0.7078848154559045
-3.911,-1.415719395299897,-1.481439419033127
-3.9105,-1.383708870726849,-1.831128486403653
-3.91,-0.7755089038389382,-1.38606967338662
-3.9095,-0.156638762093345,-0.718481453861072
-3.909,0.2594980573562781,-0.2416327256285375
-3.9085,0.4622313796522482,0.002089957690313421
-3.908,0.5049120790829789,0.1292496185523226
-3.9075,0.4622313796522482,0.1504428953626575
-3.907,0.4515612047945656,0.09745970333682032
-3.9065,0.7183155762366316,-0.1250697031716958
-3.906,0.7823366253827275,-0.2204394488182027
-3.9055,0.6436243522328531,-0.1674562567923655
-3.905,0.4835717293676135,-0.06148987274069118
-3.9045,0.3661998059331045,0.04447651131098315
-3.904,0.4515612047945656,0.3305857482505039
-3.9035,0.9317190733902845,1.019367244586387
-3.903,0.5369226036560266,1.072350436612224
-3.9025,-0.5087545323968721,0.1504428953626575
-3.902,-1.277007122150022,-0.7714646458869092
-3.9015,-1.202315898146244,-0.8456411147230812
-3.901,-0.754168554123573,-0.400582301706049
-3.9005,-0.3166913849585846,0.1186529801471552
-3.9,0.00341386077189465,0.5213252395435176
-3.8995,0.1741366584948169,0.7862411996727035
-3.899,0.2488278824985954,0.9345941373450475
-3.8985,0.2701682322139607,0.9981739677760521
-3.898,0.2488278824985954,1.019367244586387
-3.8975,0.2168173579255475,0.9981739677760521
-3.897,0.1848068333524996,0.9663840525605498
-3.8965,0.1634664836371343,0.9134008605347127
-3.896,0.1101156093487211,0.8286277532933731
-3.8955,-0.3807124341046804,0.2564092794143318
-3.895,-1.042263275281004,-0.6443049850249
-3.8945,-1.405049220442214,-1.439052865412457
-3.894,-1.351698346153801,-1.555615887869299
-3.8935,-0.722158029550525,-0.9092209451540858
-3.893,-0.09261771294724913,-0.3687923864905467
-3.8925,0.3021787567870086,-0.07208651114585861
-3.892,0.4729015545099309,0.1292496185523226
-3.8915,0.4942419042252961,0.1928294489833272
-3.891,0.4408910299368829,0.1292496185523226
-3.8905,0.3875401556484697,0.04447651131098315
-3.89,0.6009436528021226,-0.1992461720078678
-3.8895,0.7503261008096795,-0.3052125560595421
-3.889,0.6863050516635838,-0.1780528951975329
-3.8885,0.5369226036560266,0.002089957690313421
-3.888,0.3982103305061524,0.1610395337678249
-3.8875,0.3448594562177392,0.2458126410091644
-3.887,0.05676473506030786,-0.1250697031716958
