Class_11_Cell_phone_Call/Class_11_Cell_phone_Call_SH_12.csv

#Digilent WaveForms Oscilloscope Acquisition
#Device Name: EExplorer
#Serial Number: SN:210151A2B84A
#Date Time: 2021-01-28 12:58:01.052
#Sample rate: 2000Hz
#Samples: 16384
#Trigger: Source: Channel 1 Type: Edge Condition: Rising Level: 0 V Hyst.: Auto HoldOff: 0 s
#Channel 1: Range: 1 V/div Offset: 0 V Attenuation: 1 X
#Channel 2: Range: 1 V/div Offset: 0 V Attenuation: 1 X
#Power Supplies: ON
#Fixed Supply: ON
#Voltage: 3.3 V Readback: 3.324 V
#Positive Supply: ON
#Voltage: 3.7 V Readback: 3.719 V
#Current: 40 mA Readback: 17 mA
#Negative Supply: ON
#Voltage: -3.7 V Readback: -3.706 V
#Current: -40 mA Readback: -8 mA
#Reference 1: ON
#Voltage: 0 V
#Reference 2: ON
#Voltage: 0 V

Time (s),Channel 1 (V),Channel 2 (V)
-4.096,0.5049120790829789,0.4153588554918433
-4.0955,0.2701682322141742,0.1610395337680562
-4.095,-0.5514352318283986,-0.5807251545945411
-4.0945,-1.426389570157579,-1.290699927740113
-4.094,-1.842526389606824,-1.714565463946425
-4.0935,-2.151961460479834,-1.894708316834349
-4.093,-1.970568487899394,-1.555615887869299
-4.0925,-1.202315898146943,-0.6549016234308866
-4.092,-0.4554036581079834,0.2034260873890536
-4.0915,0.0674349099179905,0.8180311148882058
-4.091,0.3661998059331045,1.157123543853563
-4.0905,0.4942419042253252,1.284283204715573
-4.09,0.5262524287983441,1.284283204715573
-4.0895,0.4942419042252961,1.210106735879401
-4.089,0.4515612047946044,1.082947075017507
-4.0885,0.3875401556484697,0.92399749893988
-4.088,0.3235191065023739,0.7438546460520338
-4.0875,0.1101156093489151,0.3517790250611953
-4.087,-0.4980843575397718,-0.4217755785170971
-4.0865,-1.138294849000148,-1.205926820498774
-4.086,-1.565101843307066,-1.809935209592768
-4.0855,-1.87453691417994,-2.170220915368548
-4.085,-1.533091318734406,-1.661582271920973
-4.0845,-0.7861790786973001,-0.760868007482561
-4.084,-0.1032878878045145,-0.125069703171397
-4.0835,0.3555296310754218,0.2034260873884947
-4.083,0.6009436528021226,0.3305857482505039
-4.0825,0.6756348768059107,0.3729723018711351
-4.082,0.6863050516635838,0.3305857482505039
-4.0815,0.8143471499557753,0.3517790250608387
-4.081,0.7930068002404295,0.3199891098453653
-4.0805,0.6863050516635838,0.2458126410091644
-4.08,0.5796033030867573,0.1928294489833272
-4.0795,0.5049120790830468,0.1928294489833272
-4.079,0.3128489316444195,0.0656697881207494
-4.0785,0.01408403562957729,-0.5595318777835605
-4.078,-0.4980843575387237,-1.258910012523975
-4.0775,-1.180975548431325,-1.809935209593578
-4.077,-1.67180359188428,-2.096044446532838
-4.0765,-1.49041061930384,-1.619195718300737
-4.076,-0.8715404775575288,-0.6760949002396313
-4.0755,-0.2633405106701714,0.1716361721729923
-4.075,0.1634664836371343,0.7438546460520338
-4.0745,0.3875401556485668,1.061753798207173
-4.074,0.4942419042252961,1.188913459069066
-4.0735,0.5049120790829789,1.199510097474233
-4.073,0.4942419042253058,1.146526905448444
-4.0725,0.4515612047945656,1.061753798207057
-4.072,0.4195506802215176,0.9451907757502149
-4.0715,0.366199805933153,0.8180311148883215
-4.071,0.2701682322134658,0.6272916235946233
-4.0705,-0.274010685527854,0.002089957690313421
-4.07,-1.084943974710997,-0.8668343915326259
-4.0695,-1.63979306731131,-1.576809164679952
-4.069,-1.725154466172693,-1.926498232050159
-4.0685,-1.180975548430879,-1.364876396576285
-4.068,-0.4767440078233293,-0.5701285161882557
-4.0675,0.0674349099179905,-0.05089323433552374
-4.067,0.4195506802215176,0.2458126410091644
-4.0665,0.622284002517546,0.3941655786815084
-4.066,0.6863050516635838,0.3941655786815084
-4.0655,0.6649647019482183,0.3305857482505039
-4.065,0.7396559259519289,0.118652980147348
-4.0645,0.7503261008096795,0.002089957690313421
-4.064,0.6969752265212663,0.06566978812131802
-4.0635,0.6116138276598827,0.171636172172896
-4.063,0.5262524287983538,0.2881991946299401
-4.0625,0.5369226036560266,0.4047622170866759
-4.062,1.017080472251309,0.8286277532929875
-4.0615,1.603940089423893,1.443232780792872
-4.061,1.166462920259302,1.210106735879401
-4.0605,-0.007256314085787988,0.1504428953626575
-4.06,-1.04226327528113,-0.8244478379128524
-4.0595,-1.180975548430879,-0.9410108603695881
-4.059,-0.7648387289812555,-0.4323722169215513
-4.0585,-0.2633405106706275,0.1822328105776007
-4.058,0.1207857842064037,0.6590815388106942
-4.0575,0.3448594562177392,0.9769806909657173
-4.057,0.4515612047944685,1.1571235438534
-4.0565,0.4835717293676135,1.231300012689736
-4.056,0.4622313796522482,1.241896651094903
-4.0555,0.4088805053638835,1.167720182258798
-4.055,0.334189281360008,1.06175379820696
-4.0545,0.2808384070716433,0.9557874141553824
-4.054,0.0460945602028387,0.765047922862542
-4.0535,-0.6474668055473967,0.3835689402756471
-4.053,-1.362368521011484,-0.3793890248957141
-4.0525,-1.885207089037933,-1.068170521231597
-4.052,-1.607782542737515,-0.8880276683432016
-4.0515,-0.8715404775580819,-0.2840192792492073
-4.051,-0.1673089369510276,0.2034260873884947
-4.0505,0.3128489316442545,0.4471487707071239
-4.05,0.5796033030867573,0.457745409112513
-4.0495,0.6969752265212663,0.3199891098453364
-4.049,0.6969752265212663,0.1292496185524961
-4.0485,0.7396559259521036,0.161039533768008
-4.048,0.857027849386506,0.3623756634660061
-4.0475,0.8143471499558141,0.3729723018711639
-4.047,0.6969752265211693,0.3305857482504557
-4.0465,0.5902734779444399,0.2776025562246667
-4.046,0.5155822539407293,0.2881991946298245
-4.0455,0.7716664505255592,0.3941655786814988
-4.045,1.337185717982225,0.383568940276341
-4.0445,0.9850699476786977,-0.2734226408440398
-4.044,0.05676473505936653,-1.025783967611429
-4.0435,-0.9782422261349084,-1.576809164679634
-4.043,-1.373038695869166,-1.502632695843462
-4.0425,-1.020922925565959,-0.7502713690772586
-4.042,-0.4660738329661415,0.07626642652648545
-4.0415,-0.007256314085787988,0.6908714540261965
-4.041,0.2808384070713813,1.06175379820672
-4.0405,0.4302208550792488,1.231300012689774
-4.04,0.4835717293676135,1.273686566310405
-4.0395,0.4729015545099406,1.231300012689774
-4.039,0.4408910299368344,1.135930267043123
-4.0385,0.3875401556484697,1.019367244586387
-4.038,0.3661998059331239,0.9028042221296513
-4.0375,0.1634664836364647,0.5955017083789379
-4.037,-0.572775581542968,-0.2310360872233701
-4.0365,-1.319687821580753,-1.110557074852267
-4.036,-1.6931439415995,-1.756952017567326
-4.0355,-1.533091318734406,-1.587405803084801
-4.035,-0.8928808272734472,-1.025783967610927
-4.0345,-0.2099896363823792,-0.5595318777839846
-4.034,0.2808384070716433,-0.2734226408440398
-4.0335,0.5475927785137094,-0.08268314955102604
-4.033,0.6436243522327657,0.02328323450055191
-4.0325,0.6436243522328434,0.08686306493167216
-4.032,0.6329541773751706,0.1080563417419877
-4.0315,0.718315576236554,0.1398462569574611
-4.031,0.6969752265211887,0.171636172173002
-4.0305,0.6116138276598051,0.1822328105781598
-4.03,0.5369226036560946,0.2140227257936332
-4.0295,0.4729015545100085,0.2670059178195956
-4.029,0.5582629533713921,0.3729723018711736
-4.0285,1.027750647109428,0.3411823866556712
-4.028,0.846357674528076,-0.2628260024394314
-4.0275,0.02475421048725994,-0.8774310299385835
-4.027,-0.807519428411986,-0.9833974139902578
-4.0265,-1.405049220441671,-1.142346990067625
-4.026,-1.191645723288561,-0.718481453861072
-4.0255,-0.6367966306890638,-0.08268314955102604
-4.025,-0.1352984123784358,0.4683420475171793
-4.0245,0.2061471830680395,0.8498210301038911
-4.024,0.3982103305061524,1.051157159801889
-4.0235,0.4729015545098629,1.146526905448309
-4.023,0.4835717293675747,1.157123543853515
-4.0225,0.4408910299368829,1.104140351827727
-4.022,0.3982103305061912,1.029963882991622
-4.0215,0.3768699807907192,0.9663840525603956
-4.021,0.3021787567870086,0.7968378380778709
-4.0205,-0.1886492866663929,0.1610395337678249
-4.02,-0.9569018764200284,-0.7184814538617467
-4.0195,-1.490410619303675,-1.460246142222792
-4.019,-1.959898313041711,-2.032464616101834
-4.0185,-2.162631635337497,-2.191414192179201
-4.018,-1.458400094730627,-1.417859588602123
-4.0175,-0.6154562809736985,-0.6443049850249
-4.017,0.04609456020202363,-0.0614898727412212
-4.0165,0.4302208550793556,0.1822328105782369
-4.016,0.6009436528021226,0.2670059178194992
-4.0155,0.6329541773751415,0.277602556224657
-4.015,0.6542945270905164,0.2034260873884657
-4.0145,0.6329541773751706,0.1716361721729923
-4.014,0.5689331282291328,0.1610395337678346
-4.0135,0.5155822539406225,0.171636172173002
-4.013,0.4729015545099309,0.1822328105781598
-4.0125,0.3982103305061524,0.1928294489833272
-4.012,0.5369226036563081,0.2140227257934501
-4.0115,0.8463576745288233,-0.01910331912002144
-4.011,0.2274875327832301,-0.718481453861072
-4.0105,-0.7328282044073341,-1.343683119765382
-4.01,-1.479740444445993,-1.725162102351978
-4.0095,-1.362368521011484,-1.301296566145281
-4.009,-0.8075194284124906,-0.5065486857584462
-4.0085,-0.25267033581212,0.1928294489837706
-4.008,0.1527963087794516,0.6802748156210291
-4.0075,0.3768699807905833,0.945190775749974
-4.007,0.4622313796522676,1.061753798207076
-4.0065,0.4835717293676135,1.082947075017392
-4.006,0.4622313796522482,1.051157159801889
-4.0055,0.4195506802214788,0.9769806909656306
-4.005,0.3768699807907871,0.8816109453192104
-4.0045,0.3448594562177392,0.7862411996727035
-4.004,0.09944543449041734,0.4365521323014264
-4.0035,-0.5834457564006506,-0.3899856633008816
-4.003,-1.287677297007705,-1.227120097309109
-4.0025,-1.693143941599277,-1.820531847997946
-4.002,-1.479740444445993,-1.650985633515806
-4.0015,-0.839529952985034,-0.8986243067489184
-4.001,-0.1993194615246578,-0.2416327256291351
-4.0005,0.280838407071886,0.1186529801472708
-4,0.5475927785137094,0.2458126410091644
-3.9995,0.6542945270905358,0.2352160026039969
-3.999,0.6542945270905358,0.2246193641988295
-3.9985,0.6756348768059011,0.3411823866556712
-3.998,0.7396559259519968,0.5425185163538525
-3.9975,0.6756348768059011,0.5319218779486851
-3.997,0.5902734779444399,0.457745409112513
-3.9965,0.5155822539406614,0.3941655786815084
-3.996,0.4622313796522482,0.3729723018711736
-3.9955,0.5582629533713921,0.4047622170866759
-3.995,1.113112045970889,0.2670059178194992
-3.9945,0.8676980242441885,-0.4429688553267188
-3.994,-0.04993701351651855,-0.9092209451540858
-3.9935,-0.9995825758502737,-0.9516074987747555
-3.993,-1.426389570157579,-1.004590690800593
-3.9925,-1.074273799854052,-0.5489352393783931
-3.992,-0.5194247072545548,0.02328323450064829
-3.9915,-0.04993701351651855,0.4895353243280153
-3.991,0.2594980573562781,0.7862411996727035
-3.9905,0.4195506802215176,0.9557874141553824
-3.99,0.4729015545099309,1.029963882991555
-3.9895,0.4729015545099309,1.040560521396722
-3.989,0.4302208550792003,1.00877060618122
-3.9885,0.3768699807907871,0.9345941373450475
-3.988,0.3235191065023739,0.849821030103708
-3.9875,0.1207857842064037,0.5955017083796896
-3.987,-0.5941159312583333,-0.1780528951975329
-3.9865,-1.330357996438436,-1.004590690800593
-3.986,-1.863866739322568,-1.650985633515806
-3.9855,-1.746494815888059,-1.75695201756748
-3.985,-1.074273799854052,-1.131750351662602
-3.9845,-0.3380317346739499,-0.3793890248957141
-3.984,0.2061471830678648,0.1928294489833272
-3.9835,0.5155822539406614,0.4895353243280153
-3.983,0.6436243522328531,0.5637117931641874
-3.9825,0.6649647019482183,0.4895353243280153
-3.982,0.6542945270905358,0.3941655786815084
-3.9815,0.8143471499557753,0.3199891098453364
-3.981,0.8143471499557753,0.2352160026039969
-3.9805,0.707645401378949,0.1822328105781598
-3.98,0.5902734779444399,0.1716361721729923
-3.9795,0.5049120790829789,0.2034260873884947
-3.979,0.5902734779444399,0.2352160026039969
-3.9785,1.15579274540162,0.2670059178194992
-3.978,1.070431346540159,-0.252229364033705
-3.9775,0.1314559590640864,-0.8668343915334161
-3.977,-0.7648387289812555,-0.8668343915334161
-3.9765,-1.426389570157579,-1.01518732920576
-3.976,-1.255666772434657,-0.7078848154559045
-3.9755,-0.7114878546928423,-0.1462629799820306
-3.975,-0.1886492866663929,0.3517790250608387
-3.9745,0.1848068333524996,0.7120647308365314
-3.974,0.3768699807907871,0.9134008605347127
-3.9735,0.4622313796522482,1.019367244586387
-3.973,0.4729015545099309,1.061753798207057
-3.9725,0.4408910299368829,1.040560521396722
-3.972,0.408880505363835,0.9981739677760521
-3.9715,0.3448594562177392,0.92399749893988
-3.971,0.2488278824985954,0.7650479228623686
-3.9705,-0.2526703358124887,0.1822328105781598
-3.97,-0.9889124009925911,-0.6549016234300674
-3.9695,-1.586442193022819,-1.364876396576285
-3.969,-2.162631635337682,-1.937094870455327
-3.9685,-2.098610586191586,-1.968884785670829
-3.968,-1.255666772434657,-1.152943628472937
-3.9675,-0.423393133535411,-0.3475991096802118
-3.967,0.1741366584948169,0.1928294489833272
-3.9665,0.5155822539406614,0.457745409112513
-3.966,0.6436243522328531,0.5001319627331828
-3.9655,0.6649647019482183,0.4365521323021782
-3.965,0.7396559259519968,0.457745409112513
-3.9645,0.7503261008096795,0.4471487707073456
-3.964,0.6649647019482183,0.3623756634660061
-3.9635,0.5689331282290746,0.2987958330350016
-3.963,0.4942419042252961,0.2564092794143318
-3.9625,0.4302208550792003,0.2352160026039969
-3.962,-0.04993701351651855,-0.1780528951975329
-3.9615,-0.7328282044082075,-0.8456411147230812
-3.961,-1.234326422719292,-1.375473034981453
-3.9605,-1.46907026958831,-1.650985633515806
-3.96,-1.501080794161358,-1.587405803084801
-3.9595,-0.9995825758502737,-0.8562377531282487
-3.959,-0.4127229586777283,-0.02969995752518888
-3.9585,0.04609456020262521,0.5849050699745222
-3.958,0.3128489316446912,0.9557874141553824
-3.9575,0.4515612047945656,1.104140351827727
-3.957,0.4835717293676135,1.125333628638062
-3.9565,0.4729015545099309,1.072350436612224
-3.956,0.4408910299368829,0.9663840525605498
-3.9555,0.3875401556484697,0.8286277532933731
-3.955,0.3448594562177392,0.701468092431364
-3.9545,0.3021787567870086,0.5637117931641874
-3.954,0.05676473506030786,0.1716361721729923
-3.9535,-0.6367966306890638,-0.6125150698093976
-3.953,-1.255666772434657,-1.364876396576285
-3.9525,-1.725154466172693,-1.958288147265661
-3.952,-1.970568487899394,-2.180817553774178
-3.9515,-1.394379045584531,-1.51322933424863
-3.951,-0.6154562809736985,-0.6866915386455698
-3.9505,0.03542438534494258,-0.08268314955102604
-3.95,0.4408910299368829,0.2458126410091644
-3.9495,0.6222840025174878,0.383568940276341
-3.949,0.6542945270905358,0.3411823866556712
-3.9485,0.6329541773751706,0.2246193641988295
-3.948,0.6116138276598051,0.1292496185523226
-3.9475,0.5796033030867573,0.13984625695749
-3.947,0.5369226036560266,0.1928294489833272
-3.9465,0.4942419042252961,0.2564092794143318
-3.946,0.4515612047945656,0.3199891098453364
-3.9455,0.291508581929326,0.2458126410091644
-3.945,0.5689331282290746,-0.07208651114585861
-3.9445,0.5689331282290746,-0.7608680074817418
-3.944,-0.2099896363817582,-1.42845622700729
-3.9435,-1.1062843244271,-1.873515040024322
-3.943,-1.30901764672307,-1.545019249464132
-3.9425,-0.8822106524157645,-0.7078848154559045
-3.942,-0.3487019095316325,0.07626642652648545
-3.9415,0.0674349099179905,0.627291623595192
-3.941,0.3128489316446912,0.92399749893988
-3.9405,0.4408910299368829,1.051157159801889
-3.94,0.4729015545099309,1.061753798207057
-3.9395,0.4729015545099309,1.019367244586387
-3.939,0.4302208550792003,0.9345941373450475
-3.9385,0.3982103305061524,0.849821030103708
-3.938,0.3661998059331045,0.7438546460520338
-3.9375,0.2061471830678648,0.5001319627331828
-3.937,-0.4767440078238243,-0.2204394488182027
-3.9365,-1.191645723288561,-1.068170521231597
-3.936,-1.789175515318789,-1.735758740757146
-3.9355,-2.141291285622316,-2.127834361748341
-3.935,-1.607782542738184,-1.555615887869299
-3.9345,-0.7755089038389382,-0.7078848154559045
-3.934,-0.04993701351651855,-0.08268314955102604
-3.9335,0.3982103305061524,0.2246193641988295
-3.933,0.6222840025174878,0.3199891098453364
-3.9325,0.6969752265212663,0.2987958330350016
-3.932,0.6756348768059011,0.309392471440169
-3.9315,0.6542945270905358,0.5319218779486851
-3.931,0.5902734779444399,0.5425185163538525
-3.9305,0.5369226036560266,0.4471487707073456
-3.93,0.4835717293676135,0.3411823866556712
-3.9295,0.4622313796522482,0.2881991946298341
-3.929,0.5902734779444399,0.3729723018711736
-3.9285,1.230483969405398,0.6378882620003594
-3.928,1.796003236862578,0.3411823866556712
-3.9275,1.262494493978446,-0.4853554089473885
-3.927,0.04609456020262521,-1.258910012524611
-3.9265,-0.9462317015618604,-1.661582271920973
-3.926,-1.031593100423322,-1.174136905283272
-3.9255,-0.6367966306890638,-0.3793890248957141
-3.925,-0.1993194615240755,0.309392471440169
-3.9245,0.142126133921769,0.7650479228623686
-3.924,0.3448594562177392,1.019367244586387
-3.9235,0.4302208550792003,1.114736990232894
-3.923,0.4622313796522482,1.125333628638062
-3.9225,0.4408910299368829,1.082947075017392
-3.922,0.3982103305061524,0.9875773293708847
-3.9215,0.3768699807907871,0.9028042221295453
-3.921,0.2701682322139607,0.7226613692416989
-3.9205,-0.3593720843893152,-0.008506680714854012
-3.92,-1.06360362499637,-0.8986243067489184
-3.9195,-1.46907026958831,-1.619195718300304
-3.919,-1.597112367880501,-2.011271339291499
-3.9185,-1.1062843244271,-1.460246142222792
-3.918,-0.4447334832507763,-0.7502713690765743
-3.9175,0.1101156093487211,-0.2840192792492073
-3.917,0.4515612047945656,0.05507314971615059
-3.9165,0.6116138276598051,0.2776025562246667
-3.916,0.6436243522328531,0.3305857482505039
-3.9155,0.6222840025174878,0.2881991946298341
-3.915,0.707645401378949,0.3305857482505039
-3.9145,0.7396559259519968,0.2987958330350016
-3.914,0.6649647019482183,0.2564092794143318
-3.9135,0.5689331282290746,0.2352160026039969
-3.913,0.4942419042252961,0.2458126410091644
-3.9125,0.4515612047945656,0.2987958330350016
-3.912,0.02475421048725994,-0.07208651114585861
-3.9115,-0.7648387289812555,-0.8032545611024114
-3.911,-1.298347471865388,-1.439052865412457
-3.9105,-1.767835165603424,-1.852321763213987
-3.91,-1.810515865034154,-1.79933857118815
-3.9095,-1.212986073003927,-0.9939940523954253
-3.909,-0.5300948821122373,-0.09327978795619347
-3.9085,-0.007256314085787988,0.5849050699745222
-3.908,0.3021787567870086,0.9981739677760521
-3.9075,0.4515612047945656,1.178316820663898
-3.907,0.4942419042252961,1.210106735879401
-3.9065,0.4835717293676135,1.167720182258731
-3.906,0.4515612047945656,1.082947075017392
-3.9055,0.4195506802215176,0.9663840525605498
-3.905,0.3768699807907871,0.8392243916985406
-3.9045,0.3235191065023739,0.6802748156210291
-3.904,0.02475421048725994,0.2034260873884947
-3.9035,-0.722158029550525,-0.6443049850249
-3.903,-1.490410619303675,-1.417859588602123
-3.9025,-1.789175515318789,-1.831128486403653
-3.902,-1.298347471865388,-1.301296566145281
-3.9015,-0.5407650569699201,-0.6549016234300674
-3.901,0.0674349099179905,-0.2310360872233701
-3.9005,0.4408910299368829,-0.04029659593035631
-3.9,0.6009436528021226,0.03387987290581572
-3.8995,0.6222840025174878,0.05507314971615059
-3.899,0.6009436528021226,0.06566978812131802
-3.8985,0.6756348768059011,0.1822328105781598
-3.898,0.825017324813458,0.3729723018711736
-3.8975,0.7823366253827275,0.3941655786815084
-3.897,0.6649647019482183,0.3623756634660061
-3.8965,0.5582629533713921,0.3411823866556712
-3.896,0.4942419042252961,0.3623756634660061
-3.8955,0.7716664505250448,0.2246193641988295
-3.895,1.294505018551494,-0.2628260024388724
-3.8945,0.7823366253827275,-0.9939940523954253
-3.894,-0.2420001609548061,-1.534422611058964
-3.8935,-1.244996597576974,-1.84172512480882
-3.893,-1.554431668449771,-1.545019249464132
-3.8925,-1.116954499284783,-0.6866915386455698
-3.892,-0.5087545323968721,0.1504428953626575
-3.8915,-0.02859666380115328,0.7438546460520338
-3.891,0.2808384070716433,1.082947075017392
-3.8905,0.4195506802215176,1.210106735879401
-3.89,0.4729015545099309,1.231300012689736
-3.8895,0.4622313796522482,1.167720182258731
-3.889,0.4195506802215176,1.040560521396722
-3.8885,0.3768699807907871,0.9134008605347127
-3.888,0.3555296310754218,0.8074344764830383
-3.8875,0.2808384070716433,0.5849050699745222
-3.887,-0.274010685527854,-0.1674562567923655
-3.8865,-0.9675720512772257,-1.036380606016095
-3.886,-1.426389570157579,-1.703968825541643
-3.8855,-1.46907026958831,-1.778145294377815
-3.885,-0.9248913518464952,-1.184733543688439
