Class_11_Cell_phone_Call/Class_11_Cell_phone_Call_Basim_3.csv

#Digilent WaveForms Oscilloscope Acquisition
#Device Name: EExplorer
#Serial Number: SN:210151A2B84A
#Date Time: 2020-12-13 12:28:46.680
#Sample rate: 2000Hz
#Samples: 16384
#Trigger: Source: Channel 1 Type: Edge Condition: Rising Level: 0 V Hyst.: Auto HoldOff: 0 s
#Channel 1: Range: 1 V/div Offset: 0 V Attenuation: 1 X
#Channel 2: Range: 1 V/div Offset: 0 V Attenuation: 1 X
#Power Supplies: ON
#Fixed Supply: ON
#Voltage: 3.3 V Readback: 3.328 V
#Positive Supply: ON
#Voltage: 3.7 V Readback: 3.71 V
#Current: 40 mA Readback: 20 mA
#Negative Supply: ON
#Voltage: -3.7 V Readback: -3.357 V
#Current: -40 mA Readback: -8 mA
#Reference 1: ON
#Voltage: 0 V
#Reference 2: ON
#Voltage: 0 V

Time (s),Channel 1 (V),Channel 2 (V)
-4.096,0.1848068333524996,0.6166949851900245
-4.0955,0.3768699807906124,0.2564092794146595
-4.095,1.059761171682767,-0.4429688553273549
-4.0945,1.379866417412955,-1.142346990067769
-4.094,0.7289857510949063,-1.693372187135975
-4.0935,0.440891029936912,-2.032464616101544
-4.093,0.4729015545099309,-1.714565463946811
-4.0925,0.4302208550792391,-0.9516074987754494
-4.092,0.3768699807907192,-0.3370024712746879
-4.0915,0.3021787567870086,0.05507314971615059
-4.091,0.2381577076409128,0.2670059178194992
-4.0905,0.1741366584947587,0.3199891098453364
-4.09,0.1101156093487211,0.3199891098453364
-4.0895,0.00341386077189465,0.5319218779486851
-4.089,-0.01792648894345122,0.4895353243280539
-4.0885,0.00341386077189465,0.3517790250608387
-4.088,0.03542438534494258,0.2352160026039969
-4.0875,0.04609456020261551,0.2246193641988391
-4.087,-0.2633405106708216,0.2352160026035343
-4.0865,-0.9782422261349084,-0.2734226408440398
-4.086,-1.629122892452957,-0.9410108603689809
-4.0855,-2.162631635337992,-1.449649503817875
-4.085,-2.504077230783526,-1.725162102351978
-4.0845,-2.109280761049628,-1.33308648136114
-4.084,-1.234326422718671,-0.495952047351862
-4.0835,-0.5514352318276028,0.2670059178194992
-4.083,-0.1032878878049318,0.8074344764830383
-4.0825,0.131455959064164,1.104140351827833
-4.082,0.2168173579255475,1.220703374284568
-4.0815,0.2274875327832301,1.231300012689736
-4.081,0.2061471830678842,1.167720182258789
-4.0805,0.1848068333524996,1.019367244586387
-4.08,0.1848068333524996,0.8074344764830383
-4.0795,0.2808384070715559,0.4153588554921999
-4.079,0.504912079083367,-0.09327978795660789
-4.0785,0.9317190733902845,-0.5489352393783931
-4.078,1.390536592270221,-1.110557074851756
-4.0775,0.9210488985321068,-1.608599079895464
-4.077,0.3768699807907871,-1.968884785670829
-4.0765,0.3768699807907871,-1.809935209593462
-4.076,0.3555296310754024,-1.078767159636235
-4.0755,0.3341892813600565,-0.4959520473525559
-4.075,0.2701682322139607,-0.05089323433552374
-4.0745,0.2381577076408934,0.1822328105782369
-4.074,0.2168173579255475,0.2670059178194992
-4.0735,0.1954770082101822,0.2246193641988295
-4.073,0.408880505363641,0.4259554938968276
-4.0725,0.5049120790829789,0.5107286011383502
-4.072,0.4302208550792003,0.4153588554918433
-4.0715,0.3021787567871251,0.3199891098454232
-4.071,0.1848068333523346,0.2564092794143896
-4.0705,0.00341386077189465,0.3199891098453364
-4.07,-0.5514352318270982,0.02328323450091813
-4.0695,-1.234326422719777,-0.6443049850254493
-4.069,-1.767835165603424,-1.248313374119443
-4.0685,-2.333354433060604,-1.661582271920973
-4.068,-2.162631635336944,-1.513229334247897
-4.0675,-1.351698346153801,-0.7078848154559045
-4.067,-0.658136980404429,0.09745970333682032
-4.0665,-0.1779791118084676,0.6908714540265242
-4.066,0.08877525963335578,1.051157159801889
-4.0655,0.2061471830678648,1.220703374284568
-4.065,0.2274875327832107,1.263089927905199
-4.0645,0.2061471830678648,1.220703374284568
-4.064,0.1848068333524996,1.072350436612224
-4.0635,0.1741366584948266,0.8922075837245417
-4.063,0.1848068333525384,0.7014680924311616
-4.0625,0.2274875327832301,0.4789386859228479
-4.062,0.5155822539403994,0.09745970333716725
-4.0615,1.134452395686138,-0.5913217929996507
-4.061,1.006410297394063,-1.237716735714276
-4.0605,0.3661998059331045,-1.735758740757146
-4.06,0.387540155648528,-1.905304955239266
-4.0595,0.4515612047945656,-1.290699927740113
-4.059,0.4195506802215176,-0.6654982618352349
-4.0585,0.3448594562178071,-0.1674562567928185
-4.058,0.2488278824985954,0.05507314971615059
-4.0575,0.1741366584948169,0.13984625695749
-4.057,0.1314559590641252,0.1716361721729634
-4.0565,0.01408403562957729,0.3411823866556712
-4.056,-0.156638762093345,0.55311515475902
-4.0555,-0.145968587235672,0.5107286011383887
-4.055,-0.06060718837414297,0.3941655786814217
-4.0545,0.00341386077189465,0.2987958330350016
-4.054,0.03542438534491346,0.2670059178195281
-4.0535,-0.2313299860977251,0.1716361721725683
-4.053,-0.8928808272734472,-0.2946159176543747
-4.0525,-1.554431668449771,-0.9198175835592532
-4.052,-1.981238662757368,-1.23771673571445
-4.0515,-2.301343908487556,-1.42845622700729
-4.051,-1.789175515318789,-1.0999604364471
-4.0505,-1.042263275281683,-0.4111789401118429
-4.05,-0.4447334832507763,0.2246193641988295
-4.0495,-0.04993701351651855,0.6590815388106942
-4.049,0.1527963087792673,0.9239974989396391
-4.0485,0.2168173579255572,1.029963882991583
-4.048,0.2274875327832301,1.061753798207057
-4.0475,0.2061471830678842,1.029963882991583
-4.047,0.1848068333524802,0.9769806909656498
-4.0465,0.1634664836371343,0.9028042221295453
-4.046,0.206147183067826,0.7332580076470205
-4.0455,0.2808384070719636,0.4895353243274949
-4.045,0.6329541773751706,-0.08268314955102604
-4.0445,0.8890383739595538,-0.8032545611024114
-4.044,0.5155822539403023,-1.407262950197369
-4.0435,0.1207857842064037,-1.862918401619155
-4.043,0.1848068333524996,-1.88411167842949
-4.0425,0.2701682322138831,-1.25891001252518
-4.042,0.3021787567870086,-0.5807251545938954
-4.0415,0.291508581929326,-0.1144730647665284
-4.041,0.2701682322139801,0.1610395337675743
-4.0405,0.2168173579255184,0.3199891098454328
-4.04,0.1848068333524996,0.4259554938970107
-4.0395,0.08877525963344313,0.6908714540259556
-4.039,0.04609456020263492,0.6696781772157171
-4.0385,0.05676473506030786,0.5107286011383502
-4.038,0.0674349099179808,0.3729723018712989
-4.0375,0.07810508477545965,0.3199891098455966
-4.037,-0.156638762093345,0.6060983467848571
-4.0365,-0.807519428411986,0.9345941373450475
-4.036,-1.426389570158035,0.3623756634652159
-4.0355,-1.927887788468663,-0.5065486857577234
-4.035,-2.07727023647622,-1.068170521231597
-4.0345,-1.447729919873517,-0.8244478379129681
-4.034,-0.7755089038389382,-0.2204394488182027
-4.0335,-0.274010685527854,0.3517790250608387
-4.033,0.03542438534466114,0.7650479228619926
-4.0325,0.1848068333525384,1.008770606181326
-4.032,0.2274875327832301,1.125333628638062
-4.0315,0.2168173579255572,1.157123543853535
-4.031,0.1954770082101725,1.104140351827582
-4.0305,0.1848068333524996,0.9451907757502149
-4.03,0.1848068333524996,0.786241199672848
-4.0295,0.1954770082102307,0.6378882620002149
-4.029,0.2488278824985954,0.4789386859228479
-4.0285,0.7183155762366316,-0.02969995752518888
-4.028,1.294505018551193,-0.76086800748232
-4.0275,0.9637295979633325,-1.396666311791788
-4.027,0.2808384070716433,-1.88411167842949
-4.0265,0.1527963087795681,-1.862918401619174
-4.026,0.1954770082101822,-1.216523458903942
-4.0255,0.2381577076409128,-0.6125150698093976
-4.025,0.2701682322139316,-0.1674562567927703
-4.0245,0.2808384070716239,0.07626642652659146
-4.024,0.2594980573562781,0.1928294489833272
-4.0235,0.2168173579255863,0.203426087388485
-4.023,0.05676473506023023,0.4365521323022649
-4.0225,-0.02859666380115328,0.5319218779486851
-4.022,-0.01792648894348033,0.4577454091125805
-4.0215,0.02475421048727934,0.3623756634659869
-4.021,0.04609456020262521,0.3411823866556712
-4.0205,-0.02859666380115328,0.2458126410091644
-4.02,-0.5407650569705896,-0.2098428104136135
-4.0195,-1.277007122150022,-0.8456411147230812
-4.019,-1.938557963326346,-1.396666311791788
-4.0185,-2.450726356494647,-1.746355379161995
-4.018,-2.418715831922065,-1.661582271920973
-4.0175,-1.607782542738184,-0.8668343915334161
-4.017,-0.8181896032703868,-0.02969995752595023
-4.0165,-0.2633405106698706,0.6060983467852137
-4.016,0.0674349099179905,0.9981739677760521
-4.0155,0.2061471830677387,1.178316820663734
-4.015,0.248827882498576,1.220703374284539
-4.0145,0.2274875327832301,1.188913459069066
-4.014,0.2061471830678842,1.061753798207173
-4.0135,0.1848068333524898,0.913400860534597
-4.013,0.1741366584948169,0.7862411996727035
-4.0125,0.1848068333524996,0.6378882620003594
-4.012,0.4088805053642523,0.1716361721723274
-4.0115,0.8676980242441885,-0.5595318777835605
-4.011,0.6969752265212663,-1.237716735714276
-4.0105,0.1741366584952925,-1.778145294377324
-4.01,0.1741366584948169,-2.032464616101834
-4.0095,0.3341892813600565,-1.523825972653797
-4.009,0.4088805053637671,-0.792657922697909
-4.0085,0.4195506802214788,-0.199246172007492
-4.008,0.3768699807907871,0.2140227257936621
-4.0075,0.2915085819294037,0.3093924714400822
-4.007,0.195477008210056,0.2776025562247727
-4.0065,0.05676473506030786,0.3941655786815084
-4.006,-0.07127736323188383,0.5849050699745222
-4.0055,-0.0712773632318256,0.5319218779485694
-4.005,-0.007256314085787988,0.4047622170866759
-4.0045,0.03542438534494258,0.3199891098453364
-4.004,0.03542438534458351,0.3305857482503978
-4.0035,-0.3593720843893152,0.2140227257936621
-4.003,-1.052933450138687,-0.400582301706049
-4.0025,-1.533091318733969,-1.057573882825832
-4.002,-1.853196564464885,-1.566212526274467
-4.0015,-2.130621110764634,-1.778145294377815
-4.001,-1.639793067311679,-1.205926820499295
-4.0005,-0.9462317015613461,-0.3581957480847239
-4,-0.3807124341046804,0.3623756634660061
-3.9995,-0.01792648894347063,0.8286277532933731
-3.999,0.1634664836371343,1.082947075017392
-3.9985,0.2274875327832301,1.178316820663898
-3.998,0.2381577076409128,1.178316820663898
-3.9975,0.2168173579255475,1.104140351827727
-3.997,0.1954770082101822,0.9769806909657173
-3.9965,0.1954770082101822,0.8180311148882058
-3.996,0.2274875327832301,0.627291623595192
-3.9955,0.5155822539406614,0.1928294489833272
-3.995,1.19847344483235,-0.5171453241628908
-3.9945,1.283834843693812,-1.195330182093607
-3.994,0.4622313796522482,-1.746355379162313
-3.9935,0.03542438534494258,-1.968884785670829
-3.993,0.02475421048725994,-1.460246142222792
-3.9925,0.07810508477567314,-0.718481453861072
-3.992,0.1314559590640864,-0.1038764263613609
-3.9915,0.1741366584948169,0.1822328105781598
-3.991,0.1848068333524996,0.2140227257936621
-3.9905,0.1741366584948169,0.1822328105781598
-3.99,0.1634664836371343,0.2458126410091644
-3.9895,0.1207857842064037,0.5107286011383502
-3.989,0.08877525963335578,0.5213252395435176
-3.9885,0.08877525963335578,0.4047622170866759
-3.988,0.09944543449103843,0.2987958330350016
-3.9875,0.09944543449103843,0.2776025562246667
-3.987,-0.09261771294724913,0.5319218779486851
-3.9865,-0.722158029550525,0.7968378380778709
-3.986,-1.30901764672307,0.2246193641988295
-3.9855,-1.639793067311232,-0.5807251545938954
-3.985,-1.927887788468663,-1.184733543688439
-3.9845,-1.565101843307454,-1.05757388282643
-3.984,-0.9355615267041777,-0.4111789401112165
-3.9835,-0.391382608962363,0.2564092794143318
-3.983,-0.02859666380115328,0.7544512844572011
-3.9825,0.1527963087794516,1.072350436612224
-3.982,0.2274875327832301,1.231300012689736
-3.9815,0.2274875327832301,1.284283204715573
-3.981,0.2168173579255475,1.273686566310405
-3.9805,0.1954770082101822,1.188913459069066
-3.98,0.2061471830678648,0.9875773293708847
-3.9795,0.2274875327832301,0.775644561267536
-3.979,0.4195506802215176,0.4259554938970107
-3.9785,0.8356874996711408,-0.1992461720078678
-3.978,1.19847344483235,-0.9092209451540858
-3.9775,1.017080472251745,-1.523825972653797
-3.977,0.825017324813458,-1.968884785670829
-3.9765,1.091771696255524,-2.064254531317336
-3.976,1.102441871113207,-1.407262950196955
-3.9755,0.8356874996711408,-0.5807251545938954
-3.975,0.5796033030867573,-0.05089323433552374
-3.9745,0.3982103305061524,0.2246193641988295
-3.974,0.2701682322139607,0.2987958330350016
-3.9735,0.1954770082101822,0.2458126410091644
-3.973,0.2061471830678648,0.3941655786815084
-3.9725,0.1954770082101822,0.3941655786815084
-3.972,0.1634664836371343,0.2881991946298341
-3.9715,0.142126133921769,0.1716361721729923
-3.971,0.1101156093487211,0.1610395337678249
-3.9705,-0.1032878878049318,0.3623756634660061
-3.97,-0.7328282044082075,0.2352160026039969
-3.9695,-1.351698346153801,-0.4217755785163839
-3.969,-1.767835165603424,-1.078767159636765
-3.9685,-2.173301810195364,-1.555615887869299
-3.968,-1.991908837614759,-1.481439419033127
-3.9675,-1.26633694729234,-0.7290780922662394
-3.967,-0.6047861061160158,0.07626642652648545
-3.9665,-0.1459685872356623,0.6908714540261965
-3.966,0.1101156093487211,1.061753798207057
-3.9655,0.2168173579255475,1.25249328950007
-3.965,0.2381577076409128,1.305476481525908
-3.9645,0.2274875327832301,1.273686566310405
-3.964,0.1954770082101822,1.199510097474233
-3.9635,0.1848068333524996,1.082947075017392
-3.963,0.1954770082101822,0.8604176685088755
-3.9625,0.2701682322139607,0.5637117931641874
-3.962,0.7183155762366316,-0.04029659593035631
-3.9615,1.35852606769759,-0.792657922697244
-3.961,1.15579274540162,-1.439052865412457
-3.9605,0.3341892813600565,-1.926498232050159
-3.96,0.1527963087794516,-1.926498232050159
-3.9595,0.2168173579255475,-1.184733543688439
-3.959,0.2594980573562781,-0.4853554089473885
-3.9585,0.2701682322139607,-0.08268314955102604
-3.958,0.2488278824985954,0.1610395337678249
-3.9575,0.2168173579255475,0.2458126410091644
-3.957,0.1848068333524996,0.2246193641988295
-3.9565,0.142126133921769,0.3623756634660061
-3.956,0.07810508477567314,0.5637117931641874
-3.9555,0.0674349099179905,0.4789386859228479
-3.955,0.07810508477567314,0.3517790250608387
-3.9545,0.08877525963335578,0.2670059178194992
-3.954,0.05676473506030786,0.2881991946298341
-3.9535,-0.3593720843893152,0.1716361721729923
-3.953,-0.9675720512772257,-0.400582301706049
-3.9525,-1.447729919872945,-1.046977244421262
-3.952,-1.895877263895616,-1.534422611058964
-3.9515,-1.83185621474952,-1.502632695843462
-3.951,-1.202315898146244,-0.7714646458869092
-3.9505,-0.5941159312583333,0.02328323450064829
-3.95,-0.156638762093345,0.6378882620003594
-3.9495,0.09944543449103843,1.019367244586387
-3.949,0.2061471830678648,1.220703374284568
-3.9485,0.2381577076409128,1.273686566310405
-3.948,0.2168173579255475,1.263089927905238
-3.9475,0.1954770082101822,1.178316820663898
-3.947,0.1848068333524996,1.061753798207057
-3.9465,0.1848068333524996,0.9028042221295453
-3.946,0.1954770082101822,0.7438546460520338
-3.9455,0.4408910299368829,0.3729723018711736
-3.945,1.027750647109428,-0.3793890248957141
-3.9445,0.9317190733902845,-1.110557074852267
-3.944,0.1207857842064037,-1.682775548731308
-3.9435,-0.1032878878049318,-2.011271339291499
-3.943,0.02475421048725994,-1.693372187136476
-3.9425,0.142126133921769,-0.9939940523954253
-3.942,0.2061471830678648,-0.4429688553267188
-3.9415,0.2168173579255475,-0.05089323433552374
-3.941,0.1848068333524996,0.1080563417419877
-3.9405,0.1527963087794516,0.13984625695749
-3.94,0.09944543449103843,0.1928294489833272
-3.9395,-0.06060718837420119,0.4471487707073456
-3.939,-0.08194753808956648,0.4471487707073456
-3.9385,-0.02859666380115328,0.3305857482505039
-3.938,0.02475421048725994,0.2458126410091644
-3.9375,0.05676473506030786,0.2352160026039969
-3.937,-0.1673089369510276,0.5425185163538525
-3.9365,-0.807519428411986,0.92399749893988
-3.936,-1.405049220442214,0.383568940276341
-3.9355,-1.938557963326346,-0.474758770542221
-3.935,-2.3973754822067,-1.131750351662602
-3.9345,-1.895877263895616,-1.089363798041932
-3.934,-1.095614149569417,-0.4535654937318862
-3.9335,-0.4554036581084589,0.2246193641988295
-3.933,-0.04993701351651855,0.7544512844572011
-3.9325,0.1634664836371343,1.082947075017392
-3.932,0.2488278824985954,1.241896651094903
-3.9315,0.2488278824985954,1.29487984312074
-3.931,0.2274875327832301,1.284283204715573
-3.9305,0.2168173579255475,1.146526905448396
-3.93,0.1954770082101822,1.019367244586387
-3.9295,0.2061471830678648,0.8922075837243778
-3.929,0.291508581929326,0.627291623595192
-3.9285,0.79300680024041,-0.04029659593035631
-3.928,1.113112045970889,-0.8244478379127463
-3.9275,0.5582629533713921,-1.481439419033127
-3.927,0.142126133921769,-1.979481424075996
-3.9265,0.2274875327832301,-1.947691508860494
-3.926,0.291508581929326,-1.333086481360783
-3.9255,0.3021787567870086,-0.6443049850249
-3.925,0.291508581929326,-0.1568596183871981
-3.9245,0.2701682322139607,0.1292496185523226
-3.924,0.2488278824985954,0.2881991946298341
-3.9235,0.2061471830678648,0.309392471440169
-3.923,0.09944543449103843,0.5001319627331828
-3.9225,0.03542438534494258,0.5213252395435176
-3.922,0.04609456020262521,0.3623756634660061
-3.9215,0.05676473506030786,0.2564092794143318
-3.921,0.0674349099179905,0.2246193641988295
-3.9205,-0.1032878878049318,0.3623756634660061
-3.92,-0.7008176798351597,0.08686306493165288
-3.9195,-1.330357996438436,-0.5807251545938954
-3.919,-1.821186039891837,-1.205926820498774
-3.9185,-2.258663209056825,-1.619195718300304
-3.918,-1.970568487899394,-1.42845622700729
-3.9175,-1.191645723288561,-0.6231117082145651
-3.917,-0.5407650569699201,0.1610395337678249
-3.9165,-0.1032878878049318,0.7438546460520338
-3.916,0.142126133921769,1.082947075017392
-3.9155,0.2381577076409128,1.241896651094903
-3.915,0.2594980573562781,1.273686566310405
-3.9145,0.2381577076409128,1.241896651094903
-3.914,0.2168173579255475,1.125333628638062
-3.9135,0.2168173579255475,0.9345941373450475
-3.913,0.2381577076409128,0.6908714540261965
-3.9125,0.3555296310754218,0.3729723018711736
-3.912,0.7289857510943143,-0.1674562567923655
-3.9115,1.347855892839907,-0.8562377531282487
-3.911,1.134452395686255,-1.460246142222792
-3.9105,0.3875401556484697,-1.926498232050159
-3.91,0.3875401556484697,-2.064254531317336
-3.9095,0.4835717293676135,-1.502632695843462
-3.909,0.4515612047945656,-0.8880276683437509
-3.9085,0.3768699807907871,-0.3475991096802118
-3.908,0.2808384070716433,-0.02969995752518888
-3.9075,0.2168173579255475,0.1610395337678249
-3.907,0.1741366584948169,0.2352160026039969
-3.9065,0.07810508477567314,0.4259554938970107
-3.906,-0.02859666380115328,0.6166949851900245
-3.9055,-0.01792648894347063,0.5319218779486851
-3.905,0.03542438534494258,0.3941655786815084
-3.9045,0.0674349099179905,0.309392471440169
-3.904,0.01408403562957729,0.3305857482505039
-3.9035,-0.4554036581084589,0.383568940276341
-3.903,-1.052933450138687,-0.08268314955102604
-3.9025,-1.565101843307454,-0.7820612842920766
-3.902,-2.087940411333903,-1.364876396576285
-3.9015,-2.408045657064382,-1.672178910326141
-3.901,-1.735824641030376,-1.142346990067769
-3.9005,-0.9462317015618604,-0.3370024712750445
-3.9,-0.3487019095316325,0.3517790250608387
-3.8995,0.02475421048725994,0.8180311148882058
-3.899,0.2061471830678648,1.072350436612224
-3.8985,0.2594980573562781,1.167720182258731
-3.898,0.2594980573562781,1.178316820663898
-3.8975,0.2274875327832301,1.125333628638062
-3.897,0.2168173579255475,0.9769806909657173
-3.8965,0.2061471830678648,0.8286277532933731
-3.896,0.2381577076409128,0.6378882620003594
-3.8955,0.4515612047945656,0.2881991946298341
-3.895,1.113112045970889,-0.4217755785163839
-3.8945,1.283834843693812,-1.121153713257435
-3.894,0.5475927785137094,-1.693372187136476
-3.8935,0.1527963087794516,-2.000674700886331
-3.893,0.1314559590640864,-1.481439419033127
-3.8925,0.1634664836371343,-0.8138511995075789
-3.892,0.1848068333524996,-0.3687923864905467
-3.8915,0.1848068333524996,-0.06148987274069118
-3.891,0.1741366584948169,0.02328323450064829
-3.8905,0.1741366584948169,0.02328323450064829
-3.89,0.1207857842064037,0.1080563417419877
-3.8895,-0.08194753808956648,0.4259554938970107
-3.889,-0.1139580626626144,0.4683420475176805
-3.8885,-0.04993701351651855,0.3941655786815084
-3.888,0.01408403562957729,0.3411823866556712
-3.8875,0.0674349099179905,0.3411823866556712
-3.887,-0.09261771294724913,0.6060983467848571
-3.8865,-0.722158029550525,0.8604176685088755
-3.886,-1.405049220442214,0.2458126410091644
-3.8855,-1.927887788468663,-0.5913217929990628
