Class_11_Cell_phone_Call/Class_11_Cell_phone_Call_AM_2.csv

#Digilent WaveForms Oscilloscope Acquisition
#Device Name: EExplorer
#Serial Number: SN:210151A2B84A
#Date Time: 2020-11-30 11:35:03.051
#Sample rate: 2000Hz
#Samples: 16384
#Trigger: Source: Channel 1 Type: Edge Condition: Rising Level: 0 V Hyst.: Auto HoldOff: 0 s
#Channel 1: Range: 1 V/div Offset: 0 V Attenuation: 1 X
#Channel 2: Range: 1 V/div Offset: 0 V Attenuation: 1 X
#Power Supplies: ON
#Fixed Supply: ON
#Voltage: 3.3 V Readback: 3.317 V
#Positive Supply: ON
#Voltage: 3.7 V Readback: 3.703 V
#Current: 500 mA Readback: 18 mA
#Negative Supply: ON
#Voltage: -3.7 V Readback: -3.712 V
#Current: -500 mA Readback: -24 mA
#Reference 1: ON
#Voltage: 0 V
#Reference 2: ON
#Voltage: 0 V

Time (s),Channel 1 (V),Channel 2 (V)
-4.096,1.401206767128321,-1.089363798041932
-4.0955,1.571929564851088,-0.5277419625685691
-4.095,1.518578690562665,0.2034260873890344
-4.0945,1.337185717982225,0.7968378380778709
-4.094,1.155792745401785,1.188913459068709
-4.0935,1.251824319120793,1.199510097473867
-4.093,1.283834843693812,0.7968378380778709
-4.0925,1.049090996825007,0.5955017083798727
-4.092,0.7930068002402256,0.5213252395434887
-4.0915,0.5902734779444399,0.4895353243280153
-4.091,0.4729015545099309,0.5001319627331828
-4.0905,0.5262524287980724,0.6484849004052763
-4.09,0.2274875327832301,0.3729723018711736
-4.0895,-0.572775581542968,-0.4111789401112165
-4.089,-1.383708870726111,-1.174136905282578
-4.0885,-2.130621110764634,-1.735758740757146
-4.088,-2.696140378221814,-1.258910012524611
-4.0875,-2.760161427367851,0.08686306493042895
-4.087,-2.237322859340538,0.9981739677761869
-4.0865,-1.223656247861609,1.146526905448396
-4.086,-0.4340633083938117,0.9769806909658715
-4.0855,0.07810508477589634,0.7544512844570566
-4.085,0.3235191065023739,0.5955017083796896
-4.0845,0.3875401556484115,0.5107286011384273
-4.084,0.3661998059330754,0.5001319627332214
-4.0835,0.3341892813600565,0.5425185163538525
-4.083,0.291508581929326,0.5955017083796896
-4.0825,0.003413860771312382,0.3517790250602412
-4.082,-0.6367966306890638,-0.3052125560595421
-4.0815,-0.9995825758502737,-0.9092209451540858
-4.081,-0.9675720512772548,-1.205926820498504
-4.0805,-0.2099896363817582,-1.237716735714276
-4.08,0.6649647019482183,-1.227120097309109
-4.0795,1.283834843693249,-1.110557074852373
-4.079,1.571929564851262,-0.6549016234294314
-4.0785,1.593269914566608,0.04447651131098315
-4.078,1.45455764141686,0.669678177215293
-4.0775,1.262494493978407,1.12533362863809
-4.077,1.219813794547716,1.157123543853563
-4.0765,1.102441871113313,1.040560521396828
-4.076,0.8570278493863022,1.019367244586378
-4.0755,0.6329541773751706,1.00877060618122
-4.075,0.4729015545099309,0.9451907757502149
-4.0745,0.3875401556487317,0.860417668509126
-4.074,0.6756348768059011,1.135930267043229
-4.0735,1.017080472251745,1.485619334413754
-4.073,0.4195506802220611,0.8392243916991284
-4.0725,-0.6688071552621118,-0.2310360872233701
-4.072,-1.661133417026597,-1.152943628472937
-4.0715,-2.482736881067413,-1.650985633515353
-4.071,-2.770831602225388,-0.835044476316873
-4.0705,-2.546757930214257,0.309392471440169
-4.07,-1.554431668450674,0.7650479228619542
-4.0695,-0.6688071552615587,0.7862411996725782
-4.069,-0.06060718837420119,0.6484849004055269
-4.0685,0.2701682322139607,0.4895353243280153
-4.068,0.3768699807907871,0.3729723018711254
-4.0675,0.3768699807907871,0.3199891098453364
-4.067,0.3341892813600565,0.309392471440169
-4.0665,0.2915085819291804,0.3199891098452593
-4.066,0.1314559590640864,0.2352160026039969
-4.0655,-0.5087545323968721,-0.3370024712750445
-4.065,-1.052933450138192,-1.036380606015459
-4.0645,-1.244996597576974,-1.481439419033127
-4.064,-0.6794773301197943,-1.439052865412457
-4.0635,0.2381577076400782,-1.301296566145406
-4.063,0.9957401225367781,-1.004590690799966
-4.0625,1.433217291701369,-0.3158091944647096
-4.062,1.550589215135771,0.4683420475169673
-4.0615,1.465227816274242,1.019367244586647
-4.061,1.273164668836129,1.305476481525908
-4.0605,1.134452395686255,1.316073119931075
-4.06,1.113112045970714,1.029963882991497
-4.0595,0.9210488985326017,0.9663840525605498
-4.059,0.707645401378949,0.9769806909657173
-4.0585,0.5475927785138549,0.9769806909657173
-4.058,0.4302208550792003,0.9345941373450475
-4.0575,0.4195506802215176,0.92399749893988
-4.057,0.6436243522326492,1.029963882991458
-4.0565,0.08877525963335578,0.3941655786815084
-4.056,-0.8288597781273515,-0.5489352393783931
-4.0555,-1.703814116456532,-1.343683119765227
-4.055,-2.47206670621074,-1.947691508860292
-4.0545,-2.76016142736791,-1.725162102351978
-4.054,-2.685470203364199,-0.4323722169227271
-4.0535,-1.821186039890983,0.4047622170869072
-4.053,-0.8822106524157645,0.6590815388106942
-4.0525,-0.1993194615240755,0.6378882620003594
-4.052,0.2061471830680201,0.5107286011382345
-4.0515,0.3768699807907871,0.383568940276341
-4.051,0.4195506802215176,0.2987958330350016
-4.0505,0.3768699807908259,0.2352160026040548
-4.05,0.3341892813600565,0.2140227257936621
-4.0495,0.291508581929326,0.2034260873884947
-4.049,0.08877525963354016,-0.08268314955076583
-4.0485,-0.1993194615244249,-0.5807251545943291
-4.048,-0.5834457564006506,-1.05757388282643
-4.0475,-0.850200127842474,-1.34368311976569
-4.047,-0.3700422592463088,-1.280103289334849
-4.0465,0.3875401556484697,-1.174136905283272
-4.046,1.0064102973935,-0.9622041371801157
-4.0455,1.347855892839985,-0.2946159176536904
-4.045,1.433217291701369,0.457745409112513
-4.0445,1.326515543124542,0.9981739677760521
-4.044,1.187803269974707,1.337266396741593
-4.0435,1.230483969405398,1.538602526439591
-4.043,1.081101521397841,1.485619334413754
-4.0425,0.8356874996713639,1.316073119931229
-4.042,0.6222840025174878,1.135930267043229
-4.0415,0.4942419042252961,0.9875773293708847
-4.041,0.5049120790829692,0.8392243916986755
-4.0405,1.049090996825531,0.6060983467846836
-4.04,1.860024286008674,0.4153588554918433
-4.0395,2.073427783162133,-0.2734226408434134
-4.039,0.9530594231043105,-1.036380606016673
-4.0385,-0.5194247072545548,-1.672178910326141
-4.038,-1.703814116456251,-2.149027638558242
-4.0375,-2.568098279929389,-2.254994022610041
-4.037,-2.312014083345239,-1.915901593644992
-4.0365,-1.383708870726849,-0.9516074987747555
-4.036,-0.583445756400146,-0.1462629799815391
-4.0355,-0.02859666380115328,0.3941655786815084
-4.035,0.2701682322139607,0.6590815388106942
-4.0345,0.3555296310753442,0.722661369241641
-4.034,0.3341892813600565,0.6802748156210291
-4.0335,0.2808384070716433,0.5955017083796896
-4.033,0.2488278824986245,0.4789386859229539
-4.0325,-0.02859666380175496,0.1186529801464998
-4.032,-0.690147504977477,-0.6019184314042303
-4.0315,-1.074273799853703,-1.301296566144645
-4.031,-1.180975548430277,-1.587405803084599
-4.0305,-0.5194247072545548,-1.364876396576285
-4.03,0.3875401556476448,-1.470842780627863
-4.0295,1.070431346540489,-1.56621252627413
-4.029,1.433217291701369,-1.195330182093607
-4.0285,1.507908515705147,-0.6019184314042303
-4.028,1.401206767128146,-0.09327978795587544
-4.0275,1.209143619690033,0.2564092794143318
-4.027,1.166462920259302,0.6378882620003594
-4.0265,1.123782220828611,0.8710143069138309
-4.026,1.027750647109428,0.8604176685088755
-4.0255,0.8997085488172365,0.849821030103708
-4.025,0.7183155762367965,0.7756445612676035
-4.0245,0.558262953371363,0.7332580076468278
-4.024,0.5262524287983441,0.6908714540261965
-4.0235,0.4195506802216147,0.4153588554920939
-4.023,-0.1886492866670431,-0.2946159176549915
-4.0225,-0.9035510021311299,-0.9728007755850904
-4.022,-1.693143941598927,-1.417859588601718
-4.0215,-2.418715831922385,-1.205926820497714
-4.021,-2.770831602225592,-0.04029659593035631
-4.0205,-2.60010880450267,1.093543713422559
-4.02,-1.639793067310417,1.422039503982644
-4.0195,-0.7434983792658902,1.305476481525908
-4.019,-0.1139580626626144,1.072350436612224
-4.0185,0.2381577076405925,0.9028042221296995
-4.018,0.3555296310754218,0.7968378380778709
-4.0175,0.3661998059331045,0.775644561267536
-4.017,0.3448594562177586,0.8074344764830095
-4.0165,0.3021787567868922,0.8604176685088273
-4.016,0.1741366584948169,0.8074344764830383
-4.0155,-0.3913826089618487,0.2352160026045174
-4.015,-0.8715404775583149,-0.5065486857582342
-4.0145,-1.127624674142465,-1.068170521231597
-4.014,-0.8822106524159876,-1.417859588601805
-4.0135,0.08877525963412243,-1.523825972653527
-4.013,0.9317190733902845,-1.227120097309109
-4.0125,1.422547116843686,-0.6125150698093976
-4.012,1.582599739708858,0.09745970333739858
-4.0115,1.507908515705147,0.7332580076468663
-4.011,1.315845368266859,1.061753798207057
-4.0105,1.198473444832457,1.241896651094739
-4.01,1.315845368266859,1.453829419198252
-4.0095,1.145122570543937,1.263089927905238
-4.009,0.8676980242444408,0.8816109453195573
-4.0085,0.6222840025173325,0.5319218779484538
-4.008,0.4515612047945656,0.2776025562246667
-4.0075,0.4195506802215467,0.1186529801472997
-4.007,0.4515612047944103,-0.1462629799824932
-4.0065,0.2808384070716433,-0.6549016234300674
-4.006,-0.06060718837420119,-1.142346990067769
-4.0055,-0.5087545323973864,-0.9622041371789206
-4.005,-1.074273799854052,0.13984625695749
-4.0045,-1.735824641030376,1.326669758336243
-4.004,-2.290673733629582,2.195594107560078
-4.0035,-1.970568487899394,2.312157130016814
-4.003,-1.180975548430879,1.814115124973944
-4.0025,-0.4660738329667917,1.273686566310897
-4.002,0.02475421048725994,0.9134008605347127
-4.0015,0.2808384070716433,0.7650479228623686
-4.001,0.3661998059330268,0.7650479228623686
-4.0005,0.3661998059330754,0.8604176685089815
-4,0.3341892813600565,0.9769806909657173
-3.9995,0.291508581929326,1.051157159801889
-3.999,-0.06060718837420119,1.019367244586387
-3.9985,-0.5941159312583333,0.5001319627331828
-3.998,-0.8288597781273515,-0.1462629799820306
-3.9975,-0.7861790786966207,-0.718481453861072
-3.997,0.1954770082101822,-1.0999604364471
-3.9965,1.251824319120764,-1.248313374119443
-3.996,1.806673411720261,-1.163540266878104
-3.9955,1.945385684870135,-0.8774310299385835
-3.995,1.828013761435626,-0.1780528951975329
-3.9945,1.56125938999356,0.55311515475902
-3.994,1.305175193409177,1.029963882991555
-3.9935,1.230483969405398,1.390249588767247
-3.993,1.027750647109428,1.358459673551745
-3.9925,0.7716664505250448,1.061753798207057
-3.992,0.5582629533713921,0.7226613692416989
-3.9915,0.4302208550792003,0.4471487707073456
-3.991,0.4195506802215176,0.2881991946298341
-3.9905,0.3128489316446912,0.05507314971615059
-3.99,-0.4980843575391895,-0.6231117082145651
-3.9895,-1.319687821580753,-1.290699927740113
-3.989,-1.927887788468663,-1.809935209593318
-3.9885,-2.536087755356574,-2.138431000153508
-3.988,-2.781501777083275,-1.301296566145281
-3.9875,-2.781501777083275,0.1716361721729923
-3.987,-2.322684258202921,1.146526905448396
-3.9865,-1.298347471865388,1.263089927905238
-3.986,-0.4874141826815069,1.019367244586387
-3.9855,0.03542438534494258,0.7332580076468663
-3.985,0.3021787567870086,0.5213252395435176
-3.9845,0.3768699807907871,0.4047622170866759
-3.984,0.3448594562177392,0.3729723018711736
-3.9835,0.3021787567870086,0.4153588554918433
-3.983,0.2594980573562781,0.4789386859228479
-3.9825,0.1207857842064037,0.3729723018711736
-3.982,-0.4660738329661415,-0.2416327256285375
-3.9815,-0.9889124009925911,-0.9304142219644207
-3.981,-1.287677297007705,-1.417859588602123
-3.9805,-0.658136980404429,-1.693372187136476
-3.98,0.4942419042252961,-1.672178910326141
-3.9795,1.283834843693812,-1.34368311976595
-3.979,1.635950613997339,-0.8350444763179138
-3.9785,1.657290963712704,-0.07208651114585861
-3.978,1.497238340847464,0.6590815388106942
-3.9775,1.273164668836129,1.125333628638062
-3.977,1.273164668836129,1.506812611224089
-3.9765,1.283834843693812,1.697552102517103
-3.976,1.038420821967111,1.453829419198252
-3.9755,0.7609962756673623,1.082947075017392
-3.975,0.5369226036560266,0.7544512844572011
-3.9745,0.408880505363835,0.5319218779486851
-3.974,0.4942419042252961,0.701468092431364
-3.9735,0.6756348768059011,1.051157159801889
-3.973,0.05676473506030786,0.5001319627331828
-3.9725,-0.9248913518464952,-0.4535654937318862
-3.972,-1.821186039891837,-1.290699927740113
-3.9715,-2.589438629644987,-1.831128486403653
-3.971,-2.781501777083275,-1.142346990067769
-3.9705,-2.589438629644987,0.08686306493165288
-3.97,-1.607782542738184,0.6908714540261965
-3.9695,-0.722158029550525,0.8286277532933731
-3.969,-0.1032878878049318,0.7650479228623686
-3.9685,0.2488278824985954,0.6802748156210291
-3.968,0.3768699807907871,0.5955017083796896
-3.9675,0.3661998059331045,0.55311515475902
-3.967,0.3235191065023739,0.5637117931641874
-3.9665,0.3021787567870086,0.6166949851900245
-3.966,0.1954770082101822,0.5955017083796896
-3.9655,-0.423393133535411,0.04447651131098315
-3.965,-1.191645723288561,-0.7078848154559045
-3.9645,-1.661133417026597,-1.280103289334946
-3.964,-1.447729919872945,-1.640388995110639
-3.9635,-0.3060212101009019,-1.725162102351978
-3.963,0.7183155762366316,-1.417859588602123
-3.9625,1.315845368266859,-0.8138511995075789
-3.962,1.539919040278195,-0.05089323433552374
-3.9615,1.507908515705147,0.5319218779486851
-3.961,1.326515543124542,0.9663840525605498
-3.9605,1.19847344483235,1.167720182258731
-3.96,1.134452395686255,1.093543713422559
-3.9595,0.9957401225363802,1.125333628638062
-3.959,0.7823366253827275,1.061753798207057
-3.9585,0.5796033030867573,0.9134008605347127
-3.958,0.4302208550792003,0.7438546460520338
-3.9575,0.2594980573562781,0.4683420475176805
-3.957,-0.3700422592469978,-0.2416327256285375
-3.9565,-0.9782422261349084,-1.036380606016095
-3.956,-1.277007122150022,-1.682775548731308
-3.9555,-1.757164990745741,-2.17022091536901
-3.955,-2.312014083345239,-2.307977214636187
-3.9545,-2.728150902794861,-2.25499402261035
-3.954,-2.717480727937179,-1.301296566145281
-3.9535,-1.938557963326346,-0.2416327256285375
-3.953,-0.9995825758502737,0.309392471440169
-3.9525,-0.2846808603855366,0.5107286011383502
-3.952,0.1527963087794516,0.5213252395435176
-3.9515,0.3448594562177392,0.4365521323021782
-3.951,0.3661998059331045,0.3305857482505039
-3.9505,0.3341892813600565,0.2670059178194992
-3.95,0.291508581929326,0.1822328105781598
-3.9495,0.2381577076409128,0.07626642652648545
-3.949,-0.1886492866663929,-0.2628260024388724
-3.9485,-0.807519428411986,-0.8880276683437509
-3.948,-1.084943974711735,-1.481439419033127
-3.9475,-0.8608703027003992,-1.619195718300304
-3.947,-0.03926683865883591,-1.492036057438295
-3.9465,0.7503261008096795,-1.290699927740113
-3.946,1.294505018551494,-1.046977244421262
-3.9455,1.529248865420512,-0.5383386009732256
-3.945,1.51857869056283,0.2034260873884947
-3.9445,1.369196242555273,0.7862411996727035
-3.944,1.187803269974668,1.135930267043229
-3.9435,1.166462920259302,1.146526905448396
-3.943,1.027750647109428,1.104140351827727
-3.9425,0.8036769750980928,1.093543713422559
-3.942,0.6009436528021226,1.082947075017392
-3.9415,0.4622313796522482,1.040560521396722
-3.941,0.4195506802215176,0.9981739677760521
-3.9405,0.4729015545099309,0.775644561267536
-3.94,0.1101156093487211,-0.008506680714854012
-3.9395,-0.4767440078238243,-0.8668343915334161
-3.939,-1.234326422719292,-1.555615887869299
-3.9385,-1.959898313041711,-2.000674700886331
-3.938,-2.621449154218035,-1.195330182093607
-3.9375,-2.770831602225592,0.2352160026039969
-3.937,-2.408045657064382,1.178316820663898
-3.9365,-1.383708870726849,1.231300012689736
-3.936,-0.5514352318276028,0.9134008605347127
-3.9355,0.00341386077189465,0.5637117931641874
-3.935,0.291508581929326,0.2987958330350016
-3.9345,0.3875401556484697,0.1504428953626575
-3.934,0.3768699807907871,0.08686306493165288
-3.9335,0.3448594562177392,0.1186529801471552
-3.933,0.3128489316446912,0.2034260873884947
-3.9325,0.2594980573562781,0.2458126410091644
-3.932,-0.1139580626626144,-0.1462629799820306
-3.9315,-0.4447334832507763,-0.6760949002404023
-3.931,-0.7968492535543035,-1.163540266878104
-3.9305,-0.3380317346739499,-1.51322933424863
-3.93,0.5475927785137094,-1.608599079895136
-3.9295,1.209143619690033,-1.417859588602123
-3.929,1.539919040278195,-1.036380606016095
-3.9285,1.582599739708926,-0.4323722169215513
-3.928,1.465227816274416,0.3729723018711736
-3.9275,1.262494493978446,1.040560521396722
-3.927,1.134452395686255,1.25249328950007
-3.9265,0.9957401225363802,1.273686566310405
-3.926,0.79300680024041,1.316073119931075
-3.9255,0.6222840025174878,1.316073119931075
-3.925,0.5155822539406614,1.273686566310405
-3.9245,0.4408910299368829,1.178316820663898
-3.924,0.2488278824985954,0.9451907757502149
-3.9235,-0.4767440078238243,0.1080563417419877
-3.923,-1.255666772434657,-0.8350444763179138
-3.9225,-1.885207089037933,-1.587405803084801
-3.922,-2.504077230783526,-2.138431000153508
-3.9215,-2.76016142736791,-2.297380576231019
-3.921,-2.781501777083275,-1.788741932782983
-3.9205,-2.632119329075718,-0.4111789401112165
-3.92,-1.682473766741963,0.3305857482505039
-3.9195,-0.7755089038389382,0.5107286011383502
-3.919,-0.124628237520297,0.4259554938970107
-3.9185,0.2381577076409128,0.2458126410091644
-3.918,0.3661998059331045,0.07626642652648545
-3.9175,0.3661998059331045,-0.04029659593035631
-3.917,0.3555296310754218,-0.08268314955102604
-3.9165,0.3341892813600565,-0.07208651114585861
-3.916,0.2488278824985954,-0.1038764263613609
-3.9155,-0.3166913849585846,-0.5595318777835605
-3.915,-0.807519428411986,-1.174136905283272
-3.9145,-1.1062843244271,-1.703968825541643
-3.914,-0.9889124009925911,-2.032464616101834
-3.9135,-0.1459685872356623,-1.968884785670829
-3.913,0.707645401378949,-1.576809164679634
-3.9125,1.251824319120764,-0.9092209451540858
-3.912,1.475897991132099,-0.1356663415768632
-3.9115,1.465227816274416,0.6166949851900245
-3.911,1.315845368266859,1.157123543853563
-3.9105,1.145122570543937,1.496215972818921
-3.91,0.9957401225363802,1.697552102517103
-3.9095,0.7823366253827275,1.676358825706768
-3.909,0.6009436528021226,1.538602526439591
-3.9085,0.4622313796522482,1.347863035146577
-3.908,0.3875401556484697,1.178316820663898
-3.9075,0.5369226036560266,1.167720182258731
-3.907,1.102441871113207,1.33726639674141
-3.9065,0.8997085488172365,0.6696781772158616
-3.906,0.04609456020262521,-0.3687923864905467
-3.9055,-0.9035510021311299,-1.248313374119443
-3.905,-1.735824641030376,-1.915901593644992
-3.9045,-2.482736881068161,-2.276187299420684
-3.904,-2.728150902794861,-2.297380576231019
-3.9035,-2.109280761049269,-1.820531847998485
-3.903,-1.138294849000148,-0.8774310299385835
-3.9025,-0.3807124341046804,-0.1462629799820306
-3.902,0.09944543449103843,0.2987958330350016
-3.9015,0.3341892813600565,0.4789386859228479
-3.901,0.3875401556484697,0.5001319627331828
-3.9005,0.3661998059331045,0.4259554938970107
-3.9,0.3235191065023739,0.3305857482505039
-3.8995,0.2701682322139607,0.1822328105781598
-3.899,-0.2313299860971235,-0.3475991096802118
-3.8985,-0.9248913518464952,-1.036380606016095
-3.898,-1.46907026958831,-1.650985633515806
-3.8975,-1.543761493592088,-2.117237723343173
-3.897,-0.423393133535411,-2.265590661015517
-3.8965,0.7289857510943143,-2.233800745800015
-3.896,1.443887466559051,-1.852321763213987
-3.8955,1.7213120128588,-1.280103289334946
-3.895,1.667961138570387,-0.5065486857577234
-3.8945,1.475897991132099,0.2881991946298341
-3.894,1.251824319120764,0.8180311148882058
-3.8935,1.230483969405398,0.9134008605347127
-3.893,1.113112045970889,0.8922075837243778
-3.8925,0.857027849386506,0.9028042221295453
-3.892,0.6329541773751706,0.8922075837243778
-3.8915,0.4622313796522482,0.8710143069140429
-3.891,0.4302208550792003,0.8604176685088755
-3.8905,0.6116138276598051,0.8180311148882058
-3.89,0.5049120790829789,0.4259554938970107
-3.8895,-0.04993701351651855,-0.3687923864905467
-3.889,-0.8822106524157645,-1.152943628472937
-3.8885,-1.725154466172693,-1.75695201756748
-3.888,-2.472066706210478,-1.407262950196955
-3.8875,-2.76016142736791,-0.08268314955102604
-3.887,-2.322684258202921,0.9028042221295453
-3.8865,-1.319687821580753,1.093543713422559
-3.886,-0.5087545323968721,0.9134008605347127
-3.8855,0.03542438534494258,0.6696781772158616
-3.885,0.3021787567870086,0.4895353243280153
-3.8845,0.3982103305061524,0.383568940276341
-3.884,0.3768699807907871,0.3305857482505039
