Class_11_Cell_phone_Call/Class_11_Cell_phone_Call_Zakour_3.csv

#Digilent WaveForms Oscilloscope Acquisition
#Device Name: EExplorer
#Serial Number: SN:210151A2B84A
#Date Time: 2020-11-26 10:51:40.389
#Sample rate: 2000Hz
#Samples: 16384
#Trigger: Source: Channel 1 Type: Edge Condition: Rising Level: 0 V Hyst.: Auto HoldOff: 0 s
#Channel 1: Range: 1 V/div Offset: 0 V Attenuation: 1 X
#Channel 2: Range: 1 V/div Offset: 0 V Attenuation: 1 X
#Power Supplies: ON
#Fixed Supply: ON
#Voltage: 3.3 V Readback: 3.324 V
#Positive Supply: ON
#Voltage: 3.7 V Readback: 3.713 V
#Current: 500 mA Readback: 20 mA
#Negative Supply: ON
#Voltage: -3.7 V Readback: -3.704 V
#Current: -500 mA Readback: -8 mA
#Reference 1: ON
#Voltage: 0 V
#Reference 2: ON
#Voltage: 0 V

Time (s),Channel 1 (V),Channel 2 (V)
-4.096,0.7716664505250448,-0.5807251545938954
-4.0955,0.6863050516636614,-0.4853554089474752
-4.095,0.6329541773753841,-0.3370024712744951
-4.0945,0.8676980242441885,0.2670059178194992
-4.094,0.9317190733902263,1.135930267042438
-4.0935,0.09944543449021355,1.835308401784029
-4.093,-0.807519428411986,1.559795803249926
-4.0925,-1.565101843306765,0.3411823866567796
-4.092,-2.226652684483913,-0.8774310299393159
-4.0915,-2.376035132491334,-1.682775548731308
-4.091,-1.789175515318789,-1.576809164679634
-4.0905,-0.839529952984345,-0.7820612842913055
-4.09,-0.08194753808956648,0.06566978812131802
-4.0895,0.3875401556484697,0.7120647308365314
-4.089,0.6222840025172743,1.114736990232528
-4.0885,0.6863050516635838,1.305476481525908
-4.088,0.6756348768059011,1.369056311956912
-4.0875,0.6329541773752094,1.337266396741439
-4.087,0.5902734779441488,1.199510097473751
-4.0865,0.2701682322139607,0.6696781772158616
-4.086,-0.5514352318268555,-0.2628260024380242
-4.0855,-1.394379045584968,-1.131750351663103
-4.085,-1.87453691418025,-1.682775548731308
-4.0845,-1.180975548431509,-1.576809164679731
-4.084,-0.2420001609541559,-1.004590690800072
-4.0835,0.4729015545099309,-0.4323722169215513
-4.083,0.8676980242441885,-0.1356663415768632
-4.0825,0.9957401225363511,-0.08268314955107423
-4.082,0.9637295979633325,-0.1356663415768632
-4.0815,0.8890383739595538,-0.2734226408440398
-4.081,0.8676980242442079,-0.5489352393781425
-4.0805,0.9210488985326017,-0.8138511995075789
-4.08,0.857027849386506,-0.7820612842920766
-4.0795,0.7609962756674497,-0.6443049850250253
-4.079,0.6756348768058622,-0.4959520473524306
-4.0785,0.6329541773751706,-0.3581957480853793
-4.078,0.8036769750979376,0.06566978812093249
-4.0775,1.241154144262547,0.9028042221302199
-4.077,0.6542945270905358,1.644568910491266
-4.0765,-0.3593720843883932,1.517409249629372
-4.076,-1.287677297008413,0.4047622170855772
-4.0755,-2.066600061618538,-0.8032545611024114
-4.075,-2.386705307349017,-1.661582271920973
-4.0745,-1.949228138183146,-1.703968825540959
-4.074,-0.9782422261349084,-0.9516074987747555
-4.0735,-0.1886492866663929,-0.1038764263613609
-4.073,0.334189281359581,0.5637117931635802
-4.0725,0.6009436528021226,0.9875773293708847
-4.072,0.6863050516635838,1.199510097474233
-4.0715,0.6863050516635838,1.273686566310338
-4.071,0.6436243522328142,1.252493289499955
-4.0705,0.6009436528021226,1.125333628638062
-4.07,0.4622313796523744,0.7968378380781697
-4.0695,-0.2099896363825539,0.3093924714397256
-4.069,-1.084943974711735,-0.1780528951975329
-4.0685,-1.810515865034154,-0.9304142219644207
-4.068,-1.554431668448917,-1.354279758170954
-4.0675,-0.6154562809736985,-1.174136905283272
-4.067,0.2061471830678648,-0.7608680074817418
-4.0665,0.7503261008098736,-0.3793890248955407
-4.066,0.9637295979633325,-0.1886495336027004
-4.0655,0.974399772821015,-0.1462629799820306
-4.065,0.8890383739596314,-0.178052895197504
-4.0645,0.8463576745288233,-0.2734226408440398
-4.064,0.9637295979633325,-0.5383386009732256
-4.0635,0.9317190733903136,-0.6019184314041724
-4.063,0.8250173248133706,-0.5383386009731196
-4.0625,0.7289857510943143,-0.4217755785163839
-4.062,0.6542945270906038,-0.3052125560596481
-4.0615,0.6863050516640108,-0.0932797879555574
-4.061,1.15579274540162,0.6060983467848571
-4.0605,0.9530594231056497,1.411442865577582
-4.06,-0.06060718837514252,1.920081509025021
-4.0595,-1.095614149569417,1.263089927905238
-4.059,-1.949228138184029,-0.04029659593035631
-4.0585,-2.397375482206292,-1.163540266877083
-4.058,-2.386705307349017,-1.79933857118815
-4.0575,-1.67180359188428,-1.47084278062796
-4.057,-0.7114878546937157,-0.6231117082153361
-4.0565,0.01408403562957729,0.1928294489833272
-4.056,0.4515612047945656,0.775644561267536
-4.0555,0.6436243522326783,1.114736990232586
-4.055,0.6863050516635547,1.263089927905257
-4.0545,0.6542945270905358,1.284283204715573
-4.054,0.611613827659844,1.210106735879468
-4.0535,0.5475927785132824,0.97698069096538
-4.053,0.07810508477567314,0.6060983467848571
-4.0525,-0.7755089038389382,0.6378882620003594
-4.052,-1.586442193022955,0.03387987290510254
-4.0515,-1.735824641030376,-0.7502713690765743
-4.051,-0.839529952985034,-0.9833974139902578
-4.0505,0.06743490991716561,-0.8668343915335222
-4.05,0.6649647019482183,-0.7078848154559045
-4.0495,0.942389248247967,-0.5807251545938954
-4.049,1.006410297394005,-0.5171453241629487
-4.0485,0.9530594231055818,-0.474758770542221
-4.048,0.8783681991018712,-0.474758770542221
-4.0475,0.9957401225362734,-0.6549016234299035
-4.047,1.049090996824687,-0.6972881770505637
-4.0465,0.9317190733902845,-0.5065486857577234
-4.046,0.8036769750982092,-0.2522293640339363
-4.0455,0.6969752265212178,-0.01910331911980942
-4.045,0.6436243522328531,0.2140227257936621
-4.0445,0.8997085488172365,0.7968378380778709
-4.044,0.7076454013781047,1.506812611224378
-4.0435,-0.2206598112394408,1.824711763379112
-4.043,-1.1062843244271,1.104140351827727
-4.0425,-1.842526389606533,-0.1568596183860513
-4.042,-2.365364957633652,-1.248313374119443
-4.0415,-2.365364957633652,-1.852321763213987
-4.041,-1.618452717596546,-1.481439419033465
-4.0405,-0.6901475049768269,-0.623111708213823
-4.04,0.02475421048725994,0.1928294489833272
-4.0395,0.4515612047941774,0.775644561267006
-4.039,0.6436243522328919,1.114736990233029
-4.0385,0.6863050516635838,1.263089927905238
-4.038,0.6649647019482378,1.294879843120711
-4.0375,0.622284002517449,1.241896651094739
-4.037,0.5796033030867573,1.061753798207057
-4.0365,0.2701682322139607,0.4789386859228479
-4.036,-0.4980843575399465,-0.4429688553274898
-4.0355,-1.330357996438436,-1.290699927740113
-4.035,-1.810515865034154,-1.831128486403653
-4.0345,-1.127624674143086,-1.65098563351597
-4.034,-0.1779791118087102,-1.046977244421262
-4.0335,0.5369226036560266,-0.4959520473525559
-4.033,0.9210488985322524,-0.2204394488184532
-4.0325,1.027750647109389,-0.1780528951975618
-4.032,0.9850699476786977,-0.2098428104130352
-4.0315,0.8783681991019683,-0.2628260024388242
-4.031,0.9210488985327376,-0.4429688553269212
-4.0305,1.070431346540159,-0.6654982618352349
-4.03,0.9957401225364482,-0.6337083466197614
-4.0295,0.8570278493863895,-0.495952047352421
-4.029,0.7289857510943143,-0.3475991096802118
-4.0285,0.6436243522328531,-0.2098428104130352
-4.028,0.6649647019484124,0.224619364199562
-4.0275,0.8783681991018712,1.029963882991555
-4.027,0.2381577076409128,1.697552102517103
-4.0265,-0.7221580295496515,1.51740924962942
-4.026,-1.565101843307454,0.383568940276341
-4.0255,-2.247993034199143,-0.8350444763179138
-4.025,-2.408045657064237,-1.703968825540853
-4.0245,-2.066600061617654,-1.852321763213322
-4.024,-1.095614149569417,-1.121153713257435
-4.0235,-0.2633405106709283,-0.2416327256293375
-4.023,0.291508581929588,0.4577454091129274
-4.0225,0.5796033030867573,0.9134008605347127
-4.022,0.6863050516634868,1.146526905448184
-4.0215,0.6863050516635449,1.220703374284549
-4.021,0.6436243522328531,1.199510097474233
-4.0205,0.6009436528021226,1.072350436612224
-4.02,0.4515612047939639,0.7756445612676709
-4.0195,-0.2099896363817582,0.92399749893988
-4.019,-1.074273799854052,1.210106735879401
-4.0185,-1.799845690175812,0.5637117931647753
-4.018,-1.46907026958831,-0.252229364033705
-4.0175,-0.4767440078238243,-0.6231117082145651
-4.017,0.3661998059323379,-0.7078848154558275
-4.0165,0.8783681991020266,-0.718481453861072
-4.016,1.049090996824793,-0.718481453861072
-4.0155,1.017080472251775,-0.6549016234301253
-4.015,0.8997085488171783,-0.5701285161886509
-4.0145,0.8356874996711408,-0.4853554089473885
-4.014,0.9850699476785618,-0.5701285161886509
-4.0135,0.9743997728209082,-0.4641621321368415
-4.013,0.857027849386506,-0.2310360872233701
-4.0125,0.7396559259519968,0.02328323450064829
-4.012,0.6542945270904776,0.2564092794146016
-4.0115,0.5902734779444399,0.55311515475902
-4.011,0.5049120790829789,1.146526905448396
-4.0105,-0.1246282375197245,1.771728571352706
-4.01,-0.9782422261349084,2.047241169887628
-4.0095,-1.639793067311232,1.167720182258731
-4.009,-2.226652684483243,-0.178052895196309
-4.0085,-2.408045657064227,-1.269506650930212
-4.008,-2.23732285934146,-1.746355379162313
-4.0075,-1.319687821581587,-1.227120097309581
-4.007,-0.4447334832502037,-0.3687923864898529
-4.0065,0.1848068333524996,0.3941655786815084
-4.006,0.5262524287983441,0.9134008605347127
-4.0055,0.6756348768059205,1.199510097474339
-4.005,0.6969752265212663,1.316073119931075
-4.0045,0.6649647019482183,1.326669758336243
-4.004,0.6222840025174297,1.241896651094653
-4.0035,0.5582629533713921,0.9663840525605498
-4.003,0.0674349099179905,0.4471487707073456
-4.0025,-0.7968492535535174,0.1822328105784007
-4.002,-1.597112367880501,-0.4853554089473885
-4.0015,-1.703814116457328,-1.004590690800593
-4.001,-0.8181896032704742,-0.9198175835593303
-4.0005,0.08877525963390893,-0.6231117082143723
-4,0.6969752265212663,-0.4111789401112165
-3.9995,0.9850699476786977,-0.3370024712750445
-3.999,1.027750647109428,-0.3687923864905467
-3.9985,0.9530594231056497,-0.4111789401112165
-3.998,0.8783681991018712,-0.474758770542221
-3.9975,1.027750647109428,-0.718481453861072
-3.997,1.091771696255524,-0.7820612842920766
-3.9965,0.974399772821015,-0.6337083466197325
-3.996,0.825017324813458,-0.4217755785163839
-3.9955,0.707645401378949,-0.2310360872233701
-3.995,0.6222840025174878,-0.01910331912002144
-3.9945,0.4515612047945656,0.5743084315693548
-3.994,-0.1673089369510276,1.347863035146577
-3.9935,-1.031593100423322,1.888291593810116
-3.993,-1.703814116457328,1.411442865577582
-3.9925,-2.247993034199143,0.13984625695749
-3.992,-2.408045657064382,-1.036380606016095
-3.9915,-2.365364957633652,-1.767548655972648
-3.991,-1.618452717595867,-1.534422611058964
-3.9905,-0.6794773301197943,-0.718481453861072
-3.99,0.02475421048725994,0.1080563417419877
-3.9895,0.4515612047945656,0.7120647308365314
-3.989,0.6542945270905358,1.061753798207057
-3.9885,0.6969752265212663,1.241896651094903
-3.988,0.6756348768059011,1.284283204715573
-3.9875,0.6329541773751706,1.241896651094903
-3.987,0.5902734779444399,1.029963882991555
-3.9865,0.2808384070716433,0.4789386859228479
-3.986,-0.5300948821122373,-0.4323722169215513
-3.9855,-1.373038695869166,-1.269506650929778
-3.985,-1.885207089037933,-1.809935209593318
-3.9845,-1.234326422719292,-1.725162102351978
-3.984,-0.2846808603855366,-1.121153713257435
-3.9835,0.4729015545099309,-0.5489352393783931
-3.983,0.8997085488172365,-0.2416327256285375
-3.9825,1.038420821967111,-0.2310360872233701
-3.982,1.006410297394063,-0.2946159176543747
-3.9815,0.9210488985326017,-0.3581957480853793
-3.981,0.9317190733902845,-0.5171453241628908
-3.9805,1.027750647109428,-0.6866915386455698
-3.98,0.9530594231056497,-0.6972881770507372
-3.9795,0.825017324813458,-0.6337083466197325
-3.979,0.7183155762366316,-0.5277419625680583
-3.9785,0.6436243522328531,-0.4111789401112165
-3.978,0.4302208550792003,0.04447651131098315
-3.9775,-0.2526703358124887,0.8922075837243778
-3.977,-1.127624674142465,1.6657621873016
-3.9765,-1.83185621474952,1.623375633680931
-3.976,-2.344024607918286,0.5319218779486851
-3.9755,-2.408045657064382,-0.6972881770507372
-3.975,-2.408045657064382,-1.566212526274467
-3.9745,-2.055929886760855,-1.703968825541643
-3.974,-1.06360362499637,-0.9728007755850904
-3.9735,-0.2313299860971235,-0.07208651114585861
-3.973,0.3128489316446912,0.6590815388106942
-3.9725,0.6009436528021226,1.125333628638062
-3.972,0.6969752265212663,1.369056311956912
-3.9715,0.6863050516635838,1.453829419198252
-3.971,0.6542945270905358,1.432636142387917
-3.9705,0.6116138276598051,1.29487984312074
-3.97,0.4622313796522482,0.8922075837243778
-3.9695,-0.1993194615240755,0.07626642652648545
-3.969,-1.052933450138687,-0.8138511995075789
-3.9685,-1.767835165603424,-1.534422611058964
-3.968,-1.447729919872945,-1.534422611058964
-3.9675,-0.4874141826815069,-1.025783967610927
-3.967,0.3448594562177392,-0.5913217929990628
-3.9665,0.8143471499557753,-0.3370024712750445
-3.966,0.9850699476786977,-0.2734226408440398
-3.9655,0.9850699476786977,-0.3158091944647096
-3.965,0.9103787236749192,-0.4111789401112165
-3.9645,0.8676980242441885,-0.5595318777835605
-3.964,0.8997085488172365,-0.8032545611024114
-3.9635,0.857027849386506,-0.8350444763179138
-3.963,0.7716664505250448,-0.7290780922662394
-3.9625,0.6969752265212663,-0.570128516188728
-3.962,0.6436243522328531,-0.400582301706049
-3.9615,0.6436243522328531,-0.1250697031716958
-3.961,0.942389248247967,0.5955017083796896
-3.9605,0.6116138276598051,1.42203950398275
-3.96,-0.3166913849585846,1.909484870620451
-3.9595,-1.084943974711735,1.25249328950007
-3.959,-1.757164990745741,0.4789386859228479
-3.9585,-2.301343908487556,-0.3158091944647096
-3.958,-2.258663209056825,-0.9939940523954253
-3.9575,-1.415719395299897,-0.8138511995075789
-3.957,-0.5300948821122373,-0.1674562567923655
-3.9565,0.1207857842064037,0.4895353243280153
-3.956,0.5049120790829789,0.9769806909657173
-3.9555,0.6649647019482183,1.284283204715573
-3.955,0.6969752265212663,1.443232780793084
-3.9545,0.6649647019482183,1.485619334413754
-3.954,0.6329541773751706,1.42203950398275
-3.9535,0.5689331282290746,1.167720182258731
-3.953,0.05676473506030786,0.4365521323021782
-3.9525,-0.7968492535543035,-0.4959520473525559
-3.952,-1.607782542738184,-1.280103289334946
-3.9515,-1.682473766741963,-1.640388995110639
-3.951,-0.7861790786966207,-1.364876396576285
-3.9505,0.09944543449103843,-0.7714646458869092
-3.95,0.6649647019482183,-0.2946159176543747
-3.9495,0.942389248247967,-0.08268314955102604
-3.949,1.006410297394063,-0.07208651114585861
-3.9485,0.9530594231056497,-0.1886495336027004
-3.948,0.8783681991018712,-0.3687923864905467
-3.9475,0.9530594231056497,-0.6549016234300674
-3.947,0.974399772821015,-0.7820612842920766
-3.9465,0.8783681991018712,-0.718481453861072
-3.946,0.7716664505250448,-0.6019184314042303
-3.9455,0.6756348768059011,-0.474758770542221
-3.945,0.6542945270905358,-0.2946159176543747
-3.9445,0.9530594231056497,0.3623756634660061
-3.944,0.7823366253827275,1.231300012689736
-3.9435,-0.1673089369510276,1.909484870620451
-3.943,-1.074273799854052,1.644568910491266
-3.9425,-1.853196564464885,0.4047622170866759
-3.942,-2.365364957633652,-0.8244478379127463
-3.9415,-2.354694782775969,-1.598002441489969
-3.941,-1.639793067311232,-1.38606967338662
-3.9405,-0.690147504977477,-0.6019184314042303
-3.94,0.02475421048725994,0.1928294489833272
-3.9395,0.4515612047945656,0.7650479228623686
-3.939,0.6542945270905358,1.114736990232894
-3.9385,0.6969752265212663,1.273686566310405
-3.938,0.6756348768059011,1.305476481525908
-3.9375,0.6329541773751706,1.25249328950007
-3.937,0.5902734779444399,1.061753798207057
-3.9365,0.2808384070716433,0.5001319627331828
-3.936,-0.5407650569699201,-0.4217755785163839
-3.9355,-1.383708870726849,-1.269506650929778
-3.935,-1.842526389607202,-1.778145294377815
-3.9345,-1.138294849000148,-1.502632695843462
-3.934,-0.1673089369510276,-0.9410108603695881
-3.9335,0.5582629533713921,-0.4535654937318862
-3.933,0.9317190733902845,-0.2310360872233701
-3.9325,1.027750647109428,-0.1992461720078678
-3.932,0.974399772821015,-0.252229364033705
-3.9315,0.8676980242441885,-0.326405832869877
-3.931,0.8997085488172365,-0.4853554089473885
-3.9305,1.027750647109428,-0.6972881770507372
-3.93,0.9637295979633325,-0.6760949002404023
-3.9295,0.8463576745288233,-0.570128516188728
-3.929,0.7289857510943143,-0.4217755785163839
-3.9285,0.6542945270905358,-0.2840192792492073
-3.928,0.7289857510943143,0.09745970333682032
-3.9275,0.974399772821015,0.8922075837243778
-3.927,0.3128489316446912,1.549199164844759
-3.9265,-0.6794773301197943,1.231300012689736
-3.926,-1.543761493592088,0.1292496185523226
-3.9255,-2.23732285934146,-0.9939940523954253
-3.925,-2.3973754822067,-1.75695201756748
-3.9245,-2.109280761049269,-1.852321763213987
-3.924,-1.138294849000148,-1.089363798041932
-3.9235,-0.2953510352432193,-0.1674562567923655
-3.923,0.2701682322139607,0.5743084315693548
-3.9225,0.5796033030867573,1.040560521396722
-3.922,0.6863050516635838,1.284283204715573
-3.9215,0.6863050516635838,1.369056311956912
-3.921,0.6542945270905358,1.33726639674141
-3.9205,0.6116138276598051,1.188913459069066
-3.92,0.4622313796522482,0.775644561267536
-3.9195,-0.2206598112394408,0.3729723018711736
-3.919,-1.095614149569417,0.002089957690313421
-3.9185,-1.821186039891837,-0.7820612842920766
-3.918,-1.46907026958831,-1.227120097309109
-3.9175,-0.4660738329661415,-1.089363798041932
-3.917,0.3661998059331045,-0.7502713690765743
-3.9165,0.8463576745288233,-0.4641621321370536
-3.916,1.017080472251745,-0.326405832869877
-3.9155,1.017080472251745,-0.3370024712750445
-3.915,0.9317190733902845,-0.4217755785163839
-3.9145,0.8783681991018712,-0.5595318777835605
-3.914,0.9850699476786977,-0.8138511995075789
-3.9135,0.942389248247967,-0.8350444763179138
-3.913,0.8356874996711408,-0.718481453861072
-3.9125,0.7289857510943143,-0.5489352393783931
-3.912,0.6542945270905358,-0.3793890248957141
-3.9115,0.6116138276598051,-0.09327978795619347
-3.911,0.3768699807907871,0.6484849004055269
-3.9105,-0.3807124341046804,1.443232780793084
-3.91,-1.244996597576974,1.633972272086098
-3.9095,-1.938557963326346,0.849821030103708
-3.909,-2.376035132491334,-0.3581957480853793
-3.9085,-2.408045657064382,-1.333086481360783
-3.908,-2.258663209056825,-1.75695201756748
-3.9075,-1.362368521011484,-1.227120097309109
-3.907,-0.4660738329661415,-0.326405832869877
-3.9065,0.1741366584948169,0.4789386859228479
-3.906,0.5369226036560266,1.029963882991555
-3.9055,0.6756348768059011,1.33726639674141
-3.905,0.6969752265212663,1.464426057603419
-3.9045,0.6649647019482183,1.475022696008586
-3.904,0.6329541773751706,1.390249588767247
-3.9035,0.5689331282290746,1.135930267043229
-3.903,0.08877525963335578,0.4153588554918433
-3.9025,-0.7328282044082075,-0.5383386009732256
-3.902,-1.533091318734406,-1.354279758171118
-3.9015,-1.639793067311232,-1.629792356705471
-3.901,-0.7648387289812555,-1.216523458903942
-3.9005,0.1207857842064037,-0.7396747306714069
-3.9,0.707645401378949,-0.4535654937318862
-3.8995,0.974399772821015,-0.3475991096802118
-3.899,1.027750647109428,-0.3687923864905467
-3.8985,0.9637295979633325,-0.4535654937318862
-3.898,0.8890383739595538,-0.5807251545938954
-3.8975,1.038420821967111,-0.8562377531282487
-3.897,1.081101521397841,-0.9622041371799229
-3.8965,0.974399772821015,-0.8244478379127463
-3.896,0.825017324813458,-0.6019184314042303
-3.8955,0.707645401378949,-0.400582301706049
-3.895,0.6222840025174878,-0.1356663415768632
-3.8945,0.4195506802215176,0.5425185163538525
-3.894,-0.2206598112394408,1.358459673551745
-3.8935,-1.074273799854052,1.464426057603419
-3.893,-1.650463242168915,1.125333628638062
-3.8925,-2.03458953704549,1.305476481525908
-3.892,-2.354694782775969,1.602182356870596
-3.8915,-2.333354433060604,1.093543713422559
-3.891,-1.575772018165136,0.4895353243280153
-3.8905,-0.658136980404429,0.3199891098453364
-3.89,0.04609456020262521,0.4153588554918433
-3.8895,0.4622313796522482,0.6166949851900245
-3.889,0.6542945270905358,0.849821030103708
-3.8885,0.707645401378949,1.051157159801889
-3.888,0.6756348768059011,1.210106735879401
-3.8875,0.6329541773751706,1.305476481525908
-3.887,0.5902734779444399,1.263089927905238
-3.8865,0.2594980573562781,0.8604176685088755
-3.886,-0.5407650569699201,0.07626642652648545
-3.8855,-1.373038695869166,-0.6654982618352349
-3.885,-1.842526389607202,-1.131750351662602
