Class_11_Cell_phone_Call/Class_11_Cell_phone_Call_Souku_5.csv

#Digilent WaveForms Oscilloscope Acquisition
#Device Name: EExplorer
#Serial Number: SN:210151A2B84A
#Date Time: 2021-01-27 15:18:20.398
#Sample rate: 2000Hz
#Samples: 16384
#Trigger: Source: Channel 1 Type: Edge Condition: Rising Level: 0 V Hyst.: Auto HoldOff: 0 s
#Channel 1: Range: 1 V/div Offset: 0 V Attenuation: 1 X
#Channel 2: Range: 1 V/div Offset: 0 V Attenuation: 1 X
#Channel 4: Range: 1 V/div Offset: 0 V Attenuation: 1 X
#Power Supplies: ON
#Fixed Supply: ON
#Voltage: 3.3 V Readback: 3.331 V
#Positive Supply: ON
#Voltage: 3.7 V Readback: 3.762 V
#Current: 40 mA Readback: 18 mA
#Negative Supply: ON
#Voltage: -3.7 V Readback: -3.348 V
#Current: -40 mA Readback: -13 mA
#Reference 1: ON
#Voltage: 0 V
#Reference 2: ON
#Voltage: 0 V

Time (s),Channel 1 (V),Channel 2 (V),Channel 4 (V)
-4.096,-0.03926683865883591,0.775644561267536,-0.09553569170522189
-4.0955,-0.04993701351650885,0.7544512844572204,-0.08495261429438239
-4.095,0.1314559590646589,0.5531151547584321,-0.0637864594726745
-4.0945,0.7609962756673623,-0.09327978795619347,-0.0637864594726745
-4.094,1.326515543124028,-0.8138511995069235,-0.053203382061835
-4.0935,1.635950613997397,-1.333086481360754,-0.0320372272401175
-4.093,1.699971663143435,-1.301296566145281,-0.021454149829278
-4.0925,1.539919040278341,-0.8880276683441268,-0.021454149829278
-4.092,1.251824319120492,-0.4429688553264393,-0.03203722724012713
-4.0915,0.9530594231056497,-0.1356663415768632,-0.03203722724012713
-4.091,0.6542945270905358,0.01268659609548085,-0.03203722724012713
-4.0905,0.387540155648295,0.0444765113109446,-0.03203722724012713
-4.09,0.1954770082101822,0.002089957690313421,-0.03203722724012713
-4.0895,0.1101156093487211,-0.08268314955102604,-0.021454149829278
-4.089,0.1634664836370858,-0.1568596183871306,0.02087815981408
-4.0885,0.142126133921769,-0.2204394488182027,0.0208781598141185
-4.088,0.07810508477567314,-0.2734226408440398,0.01029508240326937
-4.0875,0.01408403562963552,-0.2734226408440398,-0.000287995007570126
-4.087,-0.06060718837450203,-0.2310360872230617,-0.01087107241844813
-4.0865,-0.391382608962363,0.1080563417419877,-0.03203722724012713
-4.086,-1.052933450138085,0.7862411996720866,-0.03203722724012713
-4.0855,-1.703814116457842,1.390249588767459,-0.04262030465099551
-4.085,-2.269333383914508,1.623375633680931,-0.0637864594726745
-4.0845,-2.472066706210294,0.9557874141559896,-0.074369536883514
-4.084,-1.885207089037234,0.2670059178192968,-0.05320338206181575
-4.0835,-1.116954499284783,0.04447651131098315,-0.04262030465097626
-4.083,-0.5514352318276028,0.08686306493165288,-0.04262030465097626
-4.0825,-0.1886492866662376,0.2458126410093475,-0.04262030465097626
-4.082,-0.01792648894347063,0.4471487707073456,-0.04262030465097626
-4.0815,0.04609456020262521,0.627291623595192,-0.04262030465097626
-4.081,0.03542438534495228,0.7650479228622433,-0.05320338206181575
-4.0805,0.01408403562957729,0.8816109453192104,-0.09553569170522189
-4.08,-0.007256314085787988,0.9557874141553824,-0.106118769116071
-4.0795,-0.02859666380113387,0.976980690965698,-0.106118769116071
-4.079,-0.02859666380106594,0.9451907757500992,-0.08495261429436313
-4.0785,0.0674349099179905,0.8180311148882058,-0.07436953688352363
-4.078,0.5475927785132726,0.2776025562251582,-0.06378645947268413
-4.0775,0.8250173248133804,-0.4429688553272584,-0.05320338206181575
-4.077,0.7396559259519968,-1.036380606016095,-0.04262030465097626
-4.0765,0.7503261008096699,-1.036380606016095,-0.02145414982929725
-4.076,0.8783681991019294,-0.3264058328694819,-0.02145414982928762
-4.0755,0.942389248247967,0.1080563417419877,-0.03203722724012713
-4.075,0.8997085488172365,0.1928294489833272,-0.03203722724012713
-4.0745,0.7396559259517833,0.0974597033366854,-0.03203722724012713
-4.074,0.5049120790829789,-0.05089323433552374,-0.03203722724012713
-4.0735,0.3128489316446912,-0.1144730647665284,-0.03203722724012713
-4.073,0.1527963087795972,-0.1992461720077907,-0.03203722724012713
-4.0725,0.1527963087794516,-0.3052125560595421,0.01029508240326937
-4.072,0.142126133921769,-0.3899856633008816,0.0208781598141185
-4.0715,0.0887752596334043,-0.4111789401111972,0.010295082403279
-4.071,0.02475421048721141,-0.4005823017060105,0.01029508240325012
-4.0705,-0.02859666380115328,-0.3581957480853793,-0.01087107241842888
-4.07,-0.2313299860969391,-0.2204394488183279,-0.02145414982926837
-4.0695,-0.8288597781278755,0.3411823866562784,-0.03203722724012713
-4.069,-1.405049220442214,1.00877060618122,-0.03203722724012713
-4.0685,-1.895877263895616,1.347863035146577,-0.05320338206182537
-4.068,-2.354694782775989,1.019367244585626,-0.074369536883514
-4.0675,-2.376035132491334,0.1822328105781598,-0.0637864594726745
-4.067,-1.629122892453549,-0.1356663415768632,-0.04262030465097626
-4.0665,-0.9248913518460293,-0.06148987274046951,-0.04262030465096663
-4.066,-0.4127229586777283,0.1822328105781598,-0.03203722724012713
-4.0655,-0.1139580626626144,0.4471487707073456,-0.04262030465097626
-4.065,0.01408403562946084,0.6590815388105015,-0.04262030465097626
-4.0645,0.04609456020262521,0.8286277532933731,-0.04262030465097626
-4.064,0.03542438534494258,0.9345941373450475,-0.08495261429437276
-4.0635,0.0140840356295967,0.9981739677759942,-0.1061187691160518
-4.063,-0.0179264889434124,1.008770606181075,-0.1061187691160614
-4.0625,0.04609456020262521,0.849821030103708,-0.09553569170522189
-4.062,0.2915085819291028,0.4683420475180274,-0.08495261429438239
-4.0615,0.5689331282295792,0.09745970333636735,-0.06378645947266487
-4.061,1.123782220828572,-0.400582301706049,-0.05320338206182537
-4.0605,1.443887466559051,-0.9622041371799229,-0.04262030465097626
-4.06,1.43321729170131,-1.195330182093279,-0.021454149829278
-4.0595,1.369196242555273,-0.8350444763179138,-0.021454149829278
-4.059,1.241154144263081,-0.3581957480853793,-0.021454149829278
-4.0585,1.059761171682641,-0.1356663415770656,-0.0320372272401175
-4.058,0.825017324813458,-0.09327978795619347,-0.03203722724012713
-4.0575,0.5582629533713921,-0.1144730647665284,-0.03203722724012713
-4.057,0.3448594562179332,-0.1992461720077907,-0.03203722724012713
-4.0565,0.1741366584948169,-0.2946159176543747,-0.03203722724012713
-4.056,0.142126133921769,-0.400582301706049,-0.000287995007579752
-4.0555,0.1741366584947878,-0.4747587705421536,0.02087815981409925
-4.055,0.1314559590640184,-0.4853554089473596,0.01029508240326937
-4.0545,0.05676473506030786,-0.4535654937318862,0.01029508240326937
-4.054,-0.007256314085729763,-0.3899856633009394,-0.000287995007570126
-4.0535,-0.07127736323212644,-0.3052125560594361,-0.02145414982929725
-4.053,-0.3380317346739499,-0.1886495336027004,-0.04262030465097626
-4.0525,-0.9675720512772257,-0.04029659593035631,-0.04262030465097626
-4.052,-1.54376149359236,0.01268659609522064,-0.053203382061835
-4.0515,-1.842526389607202,-0.2734226408440398,-0.0637864594726745
-4.051,-1.575772018165136,-0.4641621321370536,-0.05320338206182537
-4.0505,-1.042263275281489,-0.2522293640338977,-0.04262030465098588
-4.05,-0.5514352318276028,0.08686306493165288,-0.04262030465097626
-4.0495,-0.2206598112394408,0.3941655786815084,-0.04262030465097626
-4.049,-0.04993701351667382,0.6272916235949799,-0.04262030465097626
-4.0485,0.014084035629587,0.7756445612676227,-0.04262030465097626
-4.048,0.02475421048725994,0.8710143069140429,-0.04262030465097626
-4.0475,0.014084035629587,0.9134008605346742,-0.07436953688349476
-4.047,-0.007256314085807397,0.9239974989398512,-0.106118769116071
-4.0465,-0.02859666380115328,0.8922075837243778,-0.106118769116071
-4.046,-0.04993701351649914,0.8392243916985888,-0.09553569170523152
-4.0455,-0.03926683865868064,0.7438546460518796,-0.08495261429435351
-4.045,0.1314559590640864,0.5743084315693548,-0.0637864594726745
-4.0445,0.6756348768059011,0.1610395337678249,-0.05320338206182537
-4.044,0.8463576745287359,-0.4747587705427607,-0.05320338206180612
-4.0435,0.7503261008096795,-1.068170521231597,-0.03203722724012713
-4.043,0.7823366253827275,-1.025783967610927,-0.021454149829278
-4.0425,0.8783681991017839,-0.8138511995077716,-0.0320372272401175
-4.042,0.8997085488172365,-0.7502713690765743,-0.03203722724012713
-4.0415,0.8143471499557753,-0.6337083466197325,-0.03203722724012713
-4.041,0.6222840025176626,-0.45356549373205,-0.03203722724012713
-4.0405,0.40888050536367,-0.3370024712750445,-0.03203722724012713
-4.04,0.2274875327832301,-0.3370024712750445,-0.03203722724012713
-4.0395,0.1314559590641737,-0.3793890248956756,-0.01087107241844813
-4.039,0.1741366584947878,-0.4217755785163647,0.0208781598141185
-4.0385,0.142126133921769,-0.400582301706049,0.0208781598141185
-4.038,0.07810508477573137,-0.3370024712751023,0.0208781598141185
-4.0375,0.003413860771836423,-0.2522293640336086,-0.0002879950075893773
-4.037,-0.06060718837420119,-0.1462629799820306,-0.01087107241842888
-4.0365,-0.4127229586777283,0.2140227257936621,-0.03203722724012713
-4.036,-1.063603624996952,0.8604176685094055,-0.03203722724013675
-4.0355,-1.703814116457328,1.443232780793084,-0.04262030465097626
-4.035,-2.109280761049269,1.70814874092227,-0.05320338206182537
-4.0345,-1.693143941600024,1.369056311957221,-0.05320338206182537
-4.034,-1.06360362499637,0.849821030103708,-0.05320338206182537
-4.0335,-0.5407650569699201,0.4895353243280153,-0.05320338206182537
-4.033,-0.1993194615243861,0.3305857482506484,-0.04262030465098588
-4.0325,-0.02859666380110475,0.3411823866557773,-0.04262030465097626
-4.032,0.02475421048725994,0.457745409112513,-0.04262030465097626
-4.0315,0.03542438534493288,0.61669498518988,-0.04262030465097626
-4.031,0.01408403562955789,0.7862411996728383,-0.05320338206186388
-4.0305,-0.007256314085787988,0.9345941373450475,-0.09553569170522189
-4.03,-0.02859666380113387,1.040560521396626,-0.1061187691160614
-4.0295,-0.04993701351651855,1.093543713422569,-0.1061187691160518
-4.029,-0.04993701351651855,1.104140351827727,-0.08495261429437276
-4.0285,0.0674349099179905,0.9981739677760521,-0.07436953688352363
-4.028,0.6542945270910502,0.4365521323015228,-0.06378645947266487
-4.0275,1.219813794547716,-0.2840192792492073,-0.05320338206182537
-4.027,1.337185717982225,-0.8668343915334161,-0.04262030465097626
-4.0265,1.326515543124552,-1.057573882826256,-0.03203722724013675
-4.026,1.273164668836129,-0.8244478379127463,-0.021454149829278
-4.0255,1.145122570543937,-0.4217755785163839,-0.021454149829278
-4.025,0.9743997728211702,-0.07208651114617665,-0.0320372272401175
-4.0245,0.7076454013786967,0.06566978812117345,-0.03203722724013675
-4.024,0.4302208550792003,-0.09327978795619347,-0.04262030465097626
-4.0235,0.2274875327834145,-0.2098428104129292,-0.03203722724013675
-4.023,0.0887752596334043,-0.3158091944648059,-0.02145414982924912
-4.0225,0.142126133921769,-0.4217755785163839,0.01029508240326937
-4.022,0.1634664836371149,-0.5171453241628041,0.02087815981410887
-4.0215,0.1101156093486531,-0.5807251545939243,0.01029508240326937
-4.021,0.03542438534494258,-0.6125150698093976,0.01029508240326937
-4.0205,-0.01792648894347063,-0.6125150698093976,-0.01087107241842888
-4.02,-0.103287887805155,-0.5489352393783737,-0.02145414982929725
-4.0195,-0.3487019095316325,-0.5277419625680583,-0.04262030465097626
-4.019,-0.9569018764195432,-0.5913217929990628,-0.04262030465097626
-4.0185,-1.607782542737592,-0.7078848154557985,-0.07436953688349476
-4.018,-2.269333383914508,-1.036380606016095,-0.07436953688352363
-4.0175,-2.258663209056825,-1.237716735714276,-0.08495261429437276
-4.017,-1.51175096901972,-0.8880276683440689,-0.05320338206185424
-4.0165,-0.8502001278422897,-0.3581957480849456,-0.03203722724012713
-4.016,-0.3807124341046804,0.1186529801471552,-0.03203722724012713
-4.0155,-0.1032878878051841,0.4683420475173625,-0.04262030465096663
-4.015,0.01408403562960641,0.7014680924314989,-0.04262030465097626
-4.0145,0.04609456020262521,0.849821030103708,-0.04262030465097626
-4.014,0.02475421048727934,0.9345941373449704,-0.08495261429433426
-4.0135,0.003413860771865537,0.9663840525605498,-0.106118769116071
-4.013,-0.02859666380115328,0.9663840525605498,-0.106118769116071
-4.0125,-0.03926683865883591,0.9451907757502149,-0.09553569170522189
-4.012,-0.02859666380095919,0.8816109453190755,-0.07436953688350438
-4.0115,0.1848068333524996,0.7332580076468663,-0.05320338206182537
-4.011,0.6116138276598051,0.2564092794143318,-0.05320338206182537
-4.0105,0.803676975097918,-0.4641621321363982,-0.05320338206182537
-4.01,0.9637295979633325,-1.0999604364471,-0.03203722724012713
-4.0095,1.123782220828572,-1.0999604364471,-0.021454149829278
-4.009,1.145122570543918,-0.6972881770511035,-0.021454149829278
-4.0085,1.059761171682311,-0.3052125560593976,-0.03203722724012713
-4.008,0.8783681991018712,-0.1462629799820306,-0.03203722724012713
-4.0075,0.6009436528023748,-0.1144730647665573,-0.03203722724012713
-4.007,0.3661998059329298,-0.1038764263614284,-0.03203722724012713
-4.0065,0.1741366584948169,-0.1780528951975329,-0.03203722724012713
-4.006,0.142126133921769,-0.2946159176543747,-0.000287995007579752
-4.0055,0.1954770082101434,-0.3899856633009105,0.02087815981410887
-4.005,0.1527963087794516,-0.4217755785163839,0.01029508240326937
-4.0045,0.07810508477567314,-0.4323722169215513,0.01029508240326937
-4.004,0.00341386077180731,-0.400582301705943,-0.0108710724184385
-4.0035,-0.09261771294724913,-0.2840192792492073,-0.021454149829278
-4.003,-0.5941159312583333,0.2670059178194992,-0.03203722724012713
-4.0025,-1.255666772434056,0.9239974989392825,-0.03203722724012713
-4.002,-1.863866739322568,1.316073119931075,-0.04262030465097626
-4.0015,-2.376035132491334,1.135930267043229,-0.07436953688352363
-4.001,-2.493407055925737,0.2670059178202895,-0.07436953688352363
-4.0005,-1.98123866275632,-0.2098428104130063,-0.04262030465096663
-4,-1.148965023857831,-0.1780528951975329,-0.03203722724012713
-3.9995,-0.5514352318276028,0.06566978812131802,-0.03203722724012713
-3.999,-0.1886492866663929,0.3517790250608387,-0.04262030465097626
-3.9985,-0.007256314085787988,0.5955017083796896,-0.04262030465097626
-3.998,0.05676473506030786,0.775644561267536,-0.04262030465097626
-3.9975,0.04609456020262521,0.8922075837243778,-0.07436953688352363
-3.997,0.01408403562957729,0.9557874141553824,-0.106118769116071
-3.9965,-0.01792648894347063,0.9769806909657173,-0.106118769116071
-3.996,-0.02859666380115328,0.9451907757502149,-0.09553569170522189
-3.9955,-0.007256314085787988,0.849821030103708,-0.08495261429437276
-3.995,0.2594980573562781,0.5213252395435176,-0.0637864594726745
-3.9945,0.8676980242441885,-0.1780528951975329,-0.0637864594726745
-3.994,1.070431346540159,-0.8668343915334161,-0.05320338206182537
-3.9935,1.059761171682476,-1.407262950196955,-0.03203722724012713
-3.993,1.145122570543937,-1.608599079895136,-0.03203722724012713
-3.9925,1.166462920259302,-1.0999604364471,-0.021454149829278
-3.992,1.081101521397841,-0.6760949002404023,-0.021454149829278
-3.9915,0.9103787236749192,-0.3475991096802118,-0.03203722724012713
-3.991,0.6542945270905358,-0.1780528951975329,-0.03203722724012713
-3.9905,0.4195506802215176,-0.1780528951975329,-0.03203722724012713
-3.99,0.2168173579255475,-0.2734226408440398,-0.03203722724012713
-3.9895,0.1101156093487211,-0.3899856633008816,-0.01087107241842888
-3.989,0.142126133921769,-0.5171453241628908,0.0208781598141185
-3.9885,0.1207857842064037,-0.5595318777835605,0.0208781598141185
-3.988,0.05676473506030786,-0.5383386009732256,0.01029508240326937
-3.9875,0.00341386077189465,-0.4853554089473885,-0.000287995007579752
-3.987,-0.04993701351651855,-0.400582301706049,-0.01087107241842888
-3.9865,-0.423393133535411,-0.02969995752518888,-0.03203722724012713
-3.986,-1.148965023857831,0.6908714540261965,-0.03203722724012713
-3.9855,-1.842526389607202,1.33726639674141,-0.04262030465097626
-3.985,-2.429386006779747,1.612778995275763,-0.0637864594726745
-3.9845,-2.386705307349017,1.051157159801889,-0.0637864594726745
-3.984,-1.607782542738184,0.5001319627331828,-0.05320338206182537
-3.9835,-0.8928808272734472,0.2458126410091644,-0.04262030465097626
-3.983,-0.391382608962363,0.2140227257936621,-0.04262030465097626
-3.9825,-0.1032878878049318,0.3199891098453364,-0.04262030465097626
-3.982,0.02475421048725994,0.4789386859228479,-0.04262030465097626
-3.9815,0.05676473506030786,0.6590815388106942,-0.04262030465097626
-3.981,0.04609456020262521,0.8074344764830383,-0.05320338206182537
-3.9805,0.00341386077189465,0.9345941373450475,-0.09553569170522189
-3.98,-0.03926683865883591,0.9875773293708847,-0.106118769116071
-3.9795,-0.06060718837420119,1.00877060618122,-0.106118769116071
-3.979,-0.04993701351651855,1.00877060618122,-0.08495261429437276
-3.9785,0.04609456020262521,0.8604176685088755,-0.07436953688352363
-3.978,0.3555296310754218,0.5425185163538525,-0.0637864594726745
-3.9775,0.6969752265212663,0.03387987290581572,-0.05320338206182537
-3.977,0.7716664505250448,-0.5595318777835605,-0.04262030465097626
-3.9765,0.8890383739595538,-0.5807251545938954,-0.03203722724012713
-3.976,1.027750647109428,-0.570128516188728,-0.03203722724012713
-3.9755,1.059761171682476,-0.3158091944647096,-0.03203722724012713
-3.975,1.006410297394063,-0.1356663415768632,-0.03203722724012713
-3.9745,0.8143471499557753,-0.1250697031716958,-0.03203722724012713
-3.974,0.5475927785137094,-0.2098428104130352,-0.04262030465097626
-3.9735,0.3128489316446912,-0.3475991096802118,-0.03203722724012713
-3.973,0.1527963087794516,-0.4323722169215513,-0.03203722724012713
-3.9725,0.1314559590640864,-0.4323722169215513,0.01029508240326937
-3.972,0.09944543449103843,-0.3687923864905467,0.0208781598141185
-3.9715,0.03542438534494258,-0.3370024712750445,0.01029508240326937
-3.971,-0.007256314085787988,-0.3158091944647096,-0.000287995007579752
-3.9705,-0.03926683865883591,-0.2840192792492073,-0.01087107241842888
-3.97,-0.2099896363817582,-0.09327978795619347,-0.03203722724012713
-3.9695,-0.8181896032696687,0.5213252395435176,-0.03203722724012713
-3.969,-1.586442193022819,1.178316820663898,-0.04262030465097626
-3.9685,-2.312014083345239,1.612778995275763,-0.05320338206182537
-3.968,-2.504077230783526,1.241896651094903,-0.07436953688352363
-3.9675,-2.429386006779747,0.3623756634660061,-0.0637864594726745
-3.967,-1.618452717595867,-0.01910331912002144,-0.04262030465097626
-3.9665,-0.8608703027003992,-0.008506680714854012,-0.04262030465097626
-3.966,-0.3487019095316325,0.1822328105781598,-0.04262030465097626
-3.9655,-0.07127736323188383,0.4259554938970107,-0.04262030465097626
-3.965,0.04609456020262521,0.6484849004055269,-0.04262030465097626
-3.9645,0.0674349099179905,0.8286277532933731,-0.04262030465097626
-3.964,0.04609456020262521,0.9557874141553824,-0.09553569170522189
-3.9635,0.00341386077189465,1.029963882991555,-0.106118769116071
-3.963,-0.02859666380115328,1.061753798207057,-0.106118769116071
-3.9625,-0.03926683865883591,1.061753798207057,-0.09553569170522189
-3.962,-0.01792648894347063,1.019367244586387,-0.07436953688352363
-3.9615,0.3235191065023739,0.7120647308365314,-0.0637864594726745
-3.961,0.8463576745288233,0.02328323450064829,-0.05320338206182537
-3.9605,0.8783681991018712,-0.6549016234300674,-0.04262030465097626
-3.96,0.7183155762366316,-0.8986243067489184,-0.03203722724012713
-3.9595,0.7609962756673623,-0.6549016234300674,-0.021454149829278
-3.959,0.8143471499557753,-0.326405832869877,-0.03203722724012713
-3.9585,0.8143471499557753,-0.3475991096802118,-0.03203722724012713
-3.958,0.6969752265212663,-0.400582301706049,-0.03203722724012713
-3.9575,0.5049120790829789,-0.4323722169215513,-0.03203722724012713
-3.957,0.3235191065023739,-0.4535654937318862,-0.03203722724012713
-3.9565,0.1634664836371343,-0.4959520473525559,-0.03203722724012713
-3.956,0.1527963087794516,-0.5489352393783931,0.01029508240326937
-3.9555,0.1741366584948169,-0.5807251545938954,0.0208781598141185
-3.955,0.1207857842064037,-0.5595318777835605,0.01029508240326937
-3.9545,0.05676473506030786,-0.5171453241628908,0.01029508240326937
-3.954,0.00341386077189465,-0.4641621321370536,-0.01087107241842888
-3.9535,-0.124628237520297,-0.5065486857577234,-0.03203722724012713
-3.953,-0.5941159312583333,-0.8562377531282487,-0.05320338206182537
