Class_11_Cell_phone_Call/Class_11_Cell_phone_Call_Basim_1.csv

#Digilent WaveForms Oscilloscope Acquisition
#Device Name: EExplorer
#Serial Number: SN:210151A2B84A
#Date Time: 2020-11-18 11:27:27.521
#Sample rate: 2000Hz
#Samples: 16384
#Trigger: Source: Channel 1 Type: Edge Condition: Rising Level: 0 V Hyst.: Auto HoldOff: 0 s
#Channel 1: Range: 1 V/div Offset: 0 V Attenuation: 1 X
#Channel 2: Range: 1 V/div Offset: 0 V Attenuation: 1 X
#Power Supplies: ON
#Fixed Supply: ON
#Voltage: 3.3 V Readback: 3.324 V
#Positive Supply: ON
#Voltage: 3.7 V Readback: 3.715 V
#Current: 500 mA Readback: 20 mA
#Negative Supply: ON
#Voltage: -3.7 V Readback: -3.698 V
#Current: -500 mA Readback: -8 mA
#Reference 1: ON
#Voltage: 0 V
#Reference 2: ON
#Voltage: 0 V

Time (s),Channel 1 (V),Channel 2 (V)
-4.096,0.3448594562177392,0.2458126410091644
-4.0955,0.3128489316447204,0.319989109845269
-4.095,0.2915085819293163,0.3623756634660447
-4.0945,0.2808384070716433,0.4047622170866759
-4.094,0.2594980573562975,0.3729723018712025
-4.0935,-0.1246282375210054,-0.1038764263620259
-4.093,-0.9035510021311299,-0.8350444763179138
-4.0925,-1.607782542737544,-1.417859588601593
-4.092,-1.650463242168274,-1.640388995110224
-4.0915,-0.9462317015618604,-1.184733543688439
-4.091,-0.2313299860971235,-0.474758770542221
-4.0905,0.2701682322141742,0.161039533768249
-4.09,0.5049120790829789,0.627291623595192
-4.0895,0.5582629533713921,0.9134008605347127
-4.089,0.5155822539407002,1.008770606181133
-4.0885,0.4622313796522482,0.9769806909657173
-4.088,0.5475927785137094,0.9981739677760521
-4.0875,0.5475927785137094,0.8498210301038429
-4.087,0.4729015545098726,0.6060983467846643
-4.0865,0.408880505363835,0.3941655786815084
-4.086,0.3661998059331433,0.2140227257938259
-4.0855,0.2701682322134852,0.1292496185527274
-4.085,-0.2526703358124887,0.5743084315693548
-4.0845,-0.9889124009919217,0.8922075837240887
-4.084,-1.447729919872993,0.2034260873877526
-4.0835,-1.501080794161358,-0.6125150698093976
-4.083,-1.052933450138687,-0.7608680074817418
-4.0825,-0.487414182681109,-0.5489352393781425
-4.082,-0.04993701351651855,-0.2734226408440398
-4.0815,0.2061471830678648,-0.04029659593035631
-4.081,0.3341892813599401,0.1292496185521684
-4.0805,0.3768699807907871,0.2352160026039969
-4.08,0.3661998059331045,0.2987958330350016
-4.0795,0.3448594562177586,0.3411823866556327
-4.079,0.3128489316446718,0.3729723018711736
-4.0785,0.291508581929326,0.3729723018711736
-4.078,0.280838407071653,0.3623756634660158
-4.0775,0.2808384070715171,0.362375663465823
-4.077,0.142126133921769,0.1610395337678249
-4.0765,-0.4660738329655885,-0.5171453241622739
-4.076,-1.074273799854363,-1.237716735714758
-4.0755,-1.415719395299897,-1.767548655972648
-4.075,-0.9142211769888124,-1.767548655972648
-4.0745,-0.2313299860966771,-1.195330182092913
-4.074,0.2594980573562781,-0.4323722169215513
-4.0735,0.4942419042252961,0.2140227257936621
-4.073,0.5582629533713339,0.6060983467845005
-4.0725,0.5262524287983441,0.7862411996727035
-4.072,0.4622313796522482,0.8286277532933731
-4.0715,0.494241904225267,0.8816109453191622
-4.071,0.5369226036559781,0.8604176685087116
-4.0705,0.4835717293676135,0.6802748156210291
-4.07,0.4195506802215759,0.478938685923031
-4.0695,0.3555296310753248,0.2987958330349341
-4.069,0.2488278824985954,0.2246193641988295
-4.0685,-0.3700422592469978,0.6802748156210291
-4.068,-1.084943974712152,1.210106735878977
-4.0675,-1.543761493592088,0.7438546460520338
-4.067,-1.682473766741963,-0.1780528951975329
-4.0665,-1.223656247861046,-0.4853554089473017
-4.066,-0.6047861061160158,-0.3899856633008816
-4.0655,-0.1139580626626144,-0.1780528951975329
-4.065,0.1848068333522278,0.03387987290562297
-4.0645,0.3341892813600565,0.1822328105781598
-4.064,0.3768699807907871,0.2776025562246667
-4.0635,0.3768699807907871,0.3411823866556134
-4.063,0.3555296310753927,0.3729723018711928
-4.0625,0.3235191065023739,0.3941655786815084
-4.062,0.302178756787028,0.3835689402763507
-4.0615,0.2915085819293163,0.3729723018711447
-4.061,0.2808384070716433,0.3411823866556712
-4.0605,0.1848068333524996,0.09745970333682032
-4.06,-0.4233931335359932,-0.6337083466203975
-4.0595,-1.06360362499637,-1.364876396576285
-4.059,-1.46907026958831,-1.873515040024322
-4.0585,-1.244996597577178,-1.714565463946955
-4.058,-0.572775581542968,-1.0999604364471
-4.0575,0.01408403562957729,-0.400582301706049
-4.057,0.3768699807904571,0.1928294489827875
-4.0565,0.5369226036560266,0.5955017083796896
-4.056,0.5582629533713921,0.8074344764830383
-4.0555,0.5155822539407002,0.8392243916985117
-4.055,0.4942419042253544,0.7226613692415061
-4.0545,0.5582629533713921,0.5107286011383502
-4.054,0.5155822539407002,0.3941655786816144
-4.0535,0.4408910299368247,0.3199891098452882
-4.053,0.3768699807907871,0.2670059178194992
-4.0525,0.3235191065023739,0.2140227257936621
-4.052,0.02475421048655151,0.4153588554920457
-4.0515,-0.754168554123573,0.6378882620003594
-4.051,-1.501080794161358,0.1186529801471552
-4.0505,-1.906547438752929,-0.7714646458860996
-4.05,-1.650463242168915,-1.089363798041932
-4.0495,-0.9782422261349084,-0.8032545611024114
-4.049,-0.359372084389878,-0.3793890248960997
-4.0485,0.0674349099181943,-0.02969995752497685
-4.048,0.291508581929326,0.2034260873884947
-4.0475,0.3768699807907094,0.3199891098452304
-4.047,0.398210330506133,0.3729723018711928
-4.0465,0.3768699807907871,0.3941655786815084
-4.046,0.3448594562177683,0.3835689402763507
-4.0455,0.3128489316446815,0.351779025060829
-4.045,0.3021787567870086,0.3411823866556712
-4.0445,0.291508581929326,0.3517790250608387
-4.044,0.2701682322135337,0.2987958330344908
-4.0435,-0.1993194615240755,-0.2628260024388724
-4.043,-0.8502001278427167,-1.05757388282643
-4.0425,-1.415719395299382,-1.746355379161687
-4.042,-1.586442193022819,-2.21260746898968
-4.0415,-0.9889124009925911,-2.021867977696666
-4.041,-0.2633405106708313,-1.290699927740778
-4.0405,0.2594980573565013,-0.4323722169209634
-4.04,0.5049120790829789,0.2140227257936621
-4.0395,0.5689331282290164,0.5955017083793427
-4.039,0.5369226036559781,0.7544512844572396
-4.0385,0.4835717293676135,0.7968378380778709
-4.038,0.5902734779443428,0.8710143069139754
-4.0375,0.5796033030866894,0.765047922862195
-4.037,0.5049120790829789,0.5743084315693548
-4.0365,0.4195506802215176,0.3729723018711736
-4.036,0.3555296310752665,0.2246193641988391
-4.0355,0.1848068333524996,0.2352160026039969
-4.035,-0.5407650569699201,0.7544512844572011
-4.0345,-1.191645723287969,1.072350436611935
-4.034,-1.437059745015262,0.4047622170866759
-4.0335,-1.191645723288561,-0.1886495336027004
-4.033,-0.6581369804049143,-0.3264058328697517
-4.0325,-0.1779791118084191,-0.2416327256284026
-4.032,0.142126133921769,-0.09327978795619347
-4.0315,0.312848931644536,0.06566978812117345
-4.031,0.3768699807907871,0.1928294489834236
-4.0305,0.3768699807907871,0.2987958330350016
-4.03,0.3661998059331142,0.3835689402762639
-4.0295,0.3448594562177197,0.4577454091125516
-4.029,0.3235191065023739,0.5001319627331828
-4.0285,0.3021787567870086,0.5107286011383502
-4.028,0.291508581929326,0.500131962733125
-4.0275,0.291508581929326,0.4365521323021782
-4.027,-0.02859666380115328,-0.06148987274069118
-4.0265,-0.8181896032689506,-0.8562377531275258
-4.026,-1.501080794161358,-1.502632695843462
-4.0255,-1.767835165603424,-1.894708316834657
-4.025,-1.255666772435123,-1.778145294377921
-4.0245,-0.4767440078232711,-1.184733543687774
-4.024,0.1314559590640864,-0.4535654937318862
-4.0235,0.4729015545096203,0.1822328105775815
-4.023,0.5796033030867379,0.5849050699747149
-4.0225,0.5582629533713921,0.7968378380778709
-4.022,0.4942419042253544,0.839224391698502
-4.0215,0.5689331282291328,0.9239974989398512
-4.021,0.6329541773751706,0.8922075837243778
-4.0205,0.5689331282290746,0.6696781772158616
-4.02,0.4729015545098629,0.4047622170864735
-4.0195,0.3982103305061524,0.1822328105781598
-4.019,0.3235191065023739,0.08686306493165288
-4.0185,-0.1459685872352354,0.5425185163534382
-4.018,-0.9675720512772257,1.178316820663898
-4.0175,-1.522421143876723,0.9557874141553824
-4.017,-1.746494815887855,0.3941655786820192
-4.0165,-1.405049220441641,0.1610395337676707
-4.016,-0.7755089038389382,-0.008506680714854012
-4.0155,-0.2206598112399455,-0.09327978795611637
-4.015,0.142126133921934,-0.1038764263613224
-4.0145,0.3235191065023739,-0.06148987274069118
-4.014,0.3875401556484115,0.02328323450057118
-4.0135,0.398210330506133,0.129249618552419
-4.013,0.3768699807907871,0.2352160026039969
-4.0125,0.3448594562177392,0.3411823866556712
-4.012,0.3235191065023642,0.4259554938970782
-4.0115,0.3128489316446912,0.5001319627331828
-4.011,0.3128489316446912,0.457745409112513
-4.0105,0.2168173579256348,0.2246193641990415
-4.01,-0.423393133535411,-0.3899856633008816
-4.0095,-1.074273799854052,-1.05757388282643
-4.009,-1.373038695868894,-1.407262950196637
-4.0085,-0.90355100213047,-1.184733543687928
-4.008,-0.1779791118087102,-0.6231117082145651
-4.0075,0.3448594562172636,-0.06148987274120199
-4.007,0.6009436528021614,0.3941655786817879
-4.0065,0.6436243522328531,0.701468092431364
-4.006,0.5796033030867573,0.849821030103708
-4.0055,0.494241904225267,0.871014306914014
-4.005,0.4622313796522482,0.8392243916985406
-4.0045,0.4835717293676135,0.7968378380778709
-4.004,0.4515612047945268,0.648484900405363
-4.0035,0.408880505363835,0.4683420475176805
-4.003,0.3661998059331045,0.2987958330350016
-4.0025,0.3128489316447398,0.1928294489834236
-4.002,-0.07127736323188383,0.4471487707073456
-4.0015,-0.8822106524157645,1.082947075017392
-4.001,-1.543761493591487,1.411442865577283
-4.0005,-1.821186039891449,0.7544512844566421
-4,-1.394379045584531,0.13984625695749
-3.9995,-0.7328282044082075,-0.1780528951975329
-3.999,-0.1886492866663929,-0.2734226408440398
-3.9985,0.1634664836371343,-0.2628260024388724
-3.998,0.3448594562177392,-0.1780528951975329
-3.9975,0.3982103305061524,-0.08268314955102604
-3.997,0.3982103305061524,0.03387987290581572
-3.9965,0.3768699807907871,0.13984625695749
-3.996,0.3555296310754218,0.2352160026039969
-3.9955,0.3235191065023739,0.309392471440169
-3.995,0.3128489316446912,0.3729723018711736
-3.9945,0.3021787567870086,0.4047622170866759
-3.994,0.2808384070716433,0.309392471440169
-3.9935,-0.2099896363817582,-0.2416327256285375
-3.993,-1.010252750707956,-0.9516074987747555
-3.9925,-1.51175096901904,-1.492036057438295
-3.992,-1.373038695869166,-1.672178910326141
-3.9915,-0.6794773301197943,-1.311893204550448
-3.991,-0.01792648894347063,-0.6760949002404023
-3.9905,0.3875401556484697,0.01268659609548085
-3.99,0.5796033030867573,0.5743084315693548
-3.9895,0.6009436528021226,0.8816109453192104
-3.989,0.5369226036560266,0.9557874141553824
-3.9885,0.4942419042252961,0.92399749893988
-3.988,0.6009436528021226,0.9345941373450475
-3.9875,0.6009436528021226,0.7968378380778709
-3.987,0.5262524287983441,0.5637117931641874
-3.9865,0.4408910299368829,0.3517790250608387
-3.986,0.3768699807907871,0.1610395337678249
-3.9855,0.2168173579255475,0.1610395337678249
-3.985,-0.4340633083930936,0.6908714540261965
-3.9845,-1.06360362499637,1.125333628638062
-3.984,-1.447729919872945,0.5319218779486851
-3.9835,-1.51175096901904,-0.1356663415768632
-3.983,-1.020922925565639,-0.3052125560595421
-3.9825,-0.4554036581084589,-0.2416327256285375
-3.982,-0.01792648894347063,-0.09327978795619347
-3.9815,0.2488278824985954,0.05507314971615059
-3.981,0.3661998059331045,0.1716361721729923
-3.9805,0.3982103305061524,0.2564092794143318
-3.98,0.3875401556484697,0.3305857482505039
-3.9795,0.3661998059331045,0.383568940276341
-3.979,0.3448594562177392,0.4365521323021782
-3.9785,0.3235191065023739,0.457745409112513
-3.978,0.3128489316446912,0.457745409112513
-3.9775,0.3235191065023739,0.3729723018711736
-3.977,0.1741366584948169,-0.2204394488182027
-3.9765,-0.2420001609548061,-0.9939940523954253
-3.976,-0.8181896032696687,-1.545019249464132
-3.9755,-0.8928808272734472,-1.735758740757146
-3.975,-0.3380317346739499,-1.587405803084801
-3.9745,0.2061471830678648,-1.01518732920576
-3.974,0.5262524287983441,-0.3793890248957141
-3.9735,0.6436243522328531,0.1610395337678249
-3.973,0.6116138276598051,0.5107286011383502
-3.9725,0.5369226036560266,0.6908714540261965
-3.972,0.4622313796522482,0.7332580076468663
-3.9715,0.5155822539406614,0.7968378380778709
-3.971,0.5369226036560266,0.7332580076468663
-3.9705,0.4835717293676135,0.5637117931641874
-3.97,0.4195506802215176,0.3729723018711736
-3.9695,0.3768699807907871,0.2246193641988295
-3.969,0.3021787567870086,0.2246193641988295
-3.9685,-0.1352984123779797,0.7226613692416989
-3.968,-0.8502001278427167,1.33726639674141
-3.9675,-1.383708870726849,1.093543713422559
-3.967,-1.501080794161358,0.3517790250608387
-3.9665,-1.084943974711735,-0.01910331912002144
-3.966,-0.5194247072545548,-0.1568596183871981
-3.9655,-0.07127736323188383,-0.1568596183871981
-3.965,0.2168173579255475,-0.09327978795619347
-3.9645,0.3448594562177392,0.002089957690313421
-3.964,0.3982103305061524,0.09745970333682032
-3.9635,0.3875401556484697,0.1928294489833272
-3.963,0.3661998059331045,0.2881991946298341
-3.9625,0.3448594562177392,0.3517790250608387
-3.962,0.3235191065023739,0.3941655786815084
-3.9615,0.3128489316446912,0.4153588554918433
-3.961,0.3128489316446912,0.4259554938970107
-3.9605,0.1848068333524996,0.2246193641988295
-3.96,-0.4874141826815069,-0.4429688553267188
-3.9595,-1.244996597576974,-1.163540266878104
-3.959,-1.842526389607202,-1.682775548731308
-3.9585,-1.618452717595867,-1.788741932782983
-3.958,-0.8181896032696687,-1.290699927740113
-3.9575,-0.09261771294724913,-0.5807251545938954
-3.957,0.3661998059331045,0.03387987290581572
-3.9565,0.5369226036560266,0.5001319627331828
-3.956,0.5582629533713921,0.7862411996727035
-3.9555,0.5155822539406614,0.8710143069140429
-3.955,0.5155822539406614,0.92399749893988
-3.9545,0.6116138276598051,0.9663840525605498
-3.954,0.5796033030867573,0.7650479228623686
-3.9535,0.4942419042252961,0.5001319627331828
-3.953,0.4195506802215176,0.2458126410091644
-3.9525,0.3555296310754218,0.04447651131098315
-3.952,0.00341386077189465,0.2670059178194992
-3.9515,-0.6474668055467465,0.7332580076468663
-3.951,-1.074273799854052,0.2776025562246667
-3.9505,-1.415719395299897,-0.4217755785163839
-3.95,-1.458400094730627,-0.326405832869877
-3.9495,-0.9675720512772257,-0.1886495336027004
-3.949,-0.4127229586777283,-0.1038764263613609
-3.9485,0.00341386077189465,-0.05089323433552374
-3.948,0.2594980573562781,0.01268659609548085
-3.9475,0.3661998059331045,0.06566978812131802
-3.947,0.3982103305061524,0.1292496185523226
-3.9465,0.3875401556484697,0.2034260873884947
-3.946,0.3661998059331045,0.2776025562246667
-3.9455,0.3341892813600565,0.3305857482505039
-3.945,0.3235191065023739,0.383568940276341
-3.9445,0.3128489316446912,0.3941655786815084
-3.944,0.2594980573562781,0.2246193641988295
-3.9435,-0.2953510352432193,-0.4111789401112165
-3.943,-1.074273799854052,-1.152943628472937
-3.9425,-1.746494815888059,-1.693372187136476
-3.942,-1.895877263895616,-1.947691508860494
-3.9415,-1.148965023857831,-1.661582271920973
-3.941,-0.3380317346739499,-0.9939940523954253
-3.9405,0.2168173579255475,-0.252229364033705
-3.94,0.5049120790829789,0.3517790250608387
-3.9395,0.5689331282290746,0.7226613692416989
-3.939,0.5369226036560266,0.8816109453192104
-3.9385,0.5049120790829789,0.9028042221295453
-3.938,0.6009436528021226,0.9451907757502149
-3.9375,0.6009436528021226,0.7968378380778709
-3.937,0.5155822539406614,0.5637117931641874
-3.9365,0.4408910299368829,0.3305857482505039
-3.936,0.3768699807907871,0.13984625695749
-3.9355,0.1314559590640864,0.2140227257936621
-3.935,-0.5834457564006506,0.7862411996727035
-3.9345,-1.26633694729234,0.7332580076468663
-3.934,-1.639793067311232,-0.1250697031716958
-3.9335,-1.565101843307454,-0.5383386009732256
-3.933,-0.9995825758502737,-0.5277419625680583
-3.9325,-0.4127229586777283,-0.3793890248957141
-3.932,0.02475421048725994,-0.2098428104130352
-3.9315,0.2808384070716433,-0.08268314955102604
-3.931,0.3875401556484697,0.03387987290581572
-3.9305,0.4195506802215176,0.1186529801471552
-3.93,0.3982103305061524,0.1928294489833272
-3.9295,0.3768699807907871,0.2564092794143318
-3.929,0.3555296310754218,0.309392471440169
-3.9285,0.3341892813600565,0.3517790250608387
-3.928,0.3235191065023739,0.383568940276341
-3.9275,0.3235191065023739,0.3623756634660061
-3.927,0.2701682322139607,0.1504428953626575
-3.9265,-0.08194753808956648,-0.5171453241628908
-3.926,-0.5834457564006506,-1.142346990067769
-3.9255,-0.8288597781273515,-1.534422611058964
-3.925,-0.4554036581084589,-1.502632695843462
-3.9245,0.05676473506030786,-1.05757388282643
-3.924,0.4302208550792003,-0.3793890248957141
-3.9235,0.6116138276598051,0.2670059178194992
-3.923,0.6436243522328531,0.7226613692416989
-3.9225,0.5902734779444399,0.9134008605347127
-3.922,0.5155822539406614,0.9028042221295453
-3.9215,0.5582629533713921,0.9134008605347127
-3.921,0.5796033030867573,0.8180311148882058
-3.9205,0.5155822539406614,0.5955017083796896
-3.92,0.4408910299368829,0.3623756634660061
-3.9195,0.3875401556484697,0.1610395337678249
-3.919,0.3128489316446912,0.1080563417419877
-3.9185,-0.1673089369510276,0.4259554938970107
-3.918,-0.8288597781273515,0.3941655786815084
-3.9175,-1.148965023857831,-0.3475991096802118
-3.917,-1.30901764672307,-0.7502713690765743
-3.9165,-0.9675720512772257,-0.6337083466197325
-3.916,-0.4660738329661415,-0.400582301706049
-3.9155,-0.03926683865883591,-0.1886495336027004
-3.915,0.2168173579255475,-0.02969995752518888
-3.9145,0.3555296310754218,0.07626642652648545
-3.914,0.3982103305061524,0.13984625695749
-3.9135,0.3982103305061524,0.2034260873884947
-3.913,0.3768699807907871,0.2458126410091644
-3.9125,0.3448594562177392,0.2881991946298341
-3.912,0.3235191065023739,0.309392471440169
-3.9115,0.3235191065023739,0.3411823866556712
-3.911,0.3235191065023739,0.3517790250608387
-3.9105,0.1741366584948169,0.04447651131098315
-3.91,-0.5300948821122373,-0.718481453861072
-3.9095,-1.202315898146244,-1.42845622700729
-3.909,-1.51175096901904,-1.84172512480882
-3.9085,-0.9675720512772257,-1.735758740757146
-3.908,-0.2206598112394408,-1.216523458903942
-3.9075,0.3021787567870086,-0.5065486857577234
-3.907,0.5796033030867573,0.13984625695749
-3.9065,0.6436243522328531,0.5955017083796896
-3.906,0.5902734779444399,0.8286277532933731
-3.9055,0.5155822539406614,0.8816109453192104
-3.905,0.5369226036560266,0.92399749893988
-3.9045,0.6329541773751706,0.92399749893988
-3.904,0.5902734779444399,0.701468092431364
-3.9035,0.5049120790829789,0.4471487707073456
-3.903,0.4195506802215176,0.2140227257936621
-3.9025,0.3448594562177392,0.08686306493165288
-3.902,-0.08194753808956648,0.4471487707073456
-3.9015,-0.9142211769888124,1.125333628638062
-3.901,-1.533091318734406,1.443232780793084
-3.9005,-1.799845690176472,0.8074344764830383
-3.9,-1.501080794161358,0.2140227257936621
-3.8995,-0.8608703027003992,-0.1250697031716958
-3.899,-0.274010685527854,-0.2734226408440398
-3.8985,0.1207857842064037,-0.2628260024388724
-3.898,0.3235191065023739,-0.1886495336027004
-3.8975,0.408880505363835,-0.06148987274069118
-3.897,0.4195506802215176,0.07626642652648545
-3.8965,0.3982103305061524,0.2140227257936621
-3.896,0.3661998059331045,0.3305857482505039
-3.8955,0.3448594562177392,0.4259554938970107
-3.895,0.3235191065023739,0.5107286011383502
-3.8945,0.3235191065023739,0.5213252395435176
-3.894,0.3128489316446912,0.3199891098453364
-3.8935,-0.1673089369510276,-0.3687923864905467
-3.893,-1.031593100423322,-1.068170521231597
-3.8925,-1.757164990745741,-1.523825972653797
-3.892,-1.543761493592088,-1.375473034981453
-3.8915,-0.7328282044082075,-0.8244478379127463
-3.891,-0.01792648894347063,-0.1568596183871981
-3.8905,0.408880505363835,0.4047622170866759
-3.89,0.5796033030867573,0.7438546460520338
-3.8895,0.5902734779444399,0.9028042221295453
-3.889,0.5369226036560266,0.92399749893988
-3.8885,0.5155822539406614,0.8816109453192104
-3.888,0.6542945270905358,0.9134008605347127
-3.8875,0.6436243522328531,0.7226613692416989
-3.887,0.5582629533713921,0.4365521323021782
-3.8865,0.4729015545099309,0.1504428953626575
-3.886,0.3982103305061524,-0.06148987274069118
