Class_11_Cell_phone_Call/Class_11_Cell_phone_Call_UZ_11.csv

#Digilent WaveForms Oscilloscope Acquisition
#Device Name: EExplorer
#Serial Number: SN:210151A2B84A
#Date Time: 2021-01-18 13:55:22.358
#Sample rate: 2000Hz
#Samples: 16384
#Trigger: Source: Channel 1 Type: Edge Condition: Rising Level: 0 V Hyst.: Auto HoldOff: 0 s
#Channel 1: Range: 1 V/div Offset: 0 V Attenuation: 1 X
#Channel 2: Range: 1 V/div Offset: 0 V Attenuation: 1 X
#Power Supplies: ON
#Fixed Supply: ON
#Voltage: 3.3 V Readback: 3.313 V
#Positive Supply: ON
#Voltage: 3.7 V Readback: 3.712 V
#Current: 40 mA Readback: 18 mA
#Negative Supply: ON
#Voltage: -3.7 V Readback: -3.409 V
#Current: -40 mA Readback: -8 mA
#Reference 1: ON
#Voltage: 0 V
#Reference 2: ON
#Voltage: 0 V

Time (s),Channel 1 (V),Channel 2 (V)
-4.096,0.3555296310754218,-0.1144730647665284
-4.0955,0.7609962756669935,-0.8986243067482051
-4.095,0.8143471499557753,-1.417859588602036
-4.0945,0.8143471499557753,-1.322489842955616
-4.094,0.8250173248134484,-0.7502713690770948
-4.0935,0.7503261008095534,-0.1992461720075691
-4.093,0.6116138276598051,0.1292496185523226
-4.0925,0.4088805053640194,0.214022725793585
-4.092,0.2274875327830845,0.1398462569574129
-4.0915,0.0674349099179905,0.05507314971615059
-4.091,0.00341386077189465,0.03387987290581572
-4.0905,-0.01792648894349003,0.0232832345006772
-4.09,-0.03926683865883591,0.05507314971615059
-4.0895,-0.06060718837420119,0.09745970333682032
-4.089,-0.08194753808954708,0.1610395337677671
-4.0885,-0.1032878878049318,0.2246193641988295
-4.088,-0.3166913849585846,0.09745970333682032
-4.0875,-0.9035510021305961,-0.4535654937313851
-4.087,-1.437059745015611,-1.11055707485273
-4.0865,-1.821186039891837,-1.619195718300304
-4.086,-2.077270236475988,-1.788741932782829
-4.0855,-1.650463242168362,-1.142346990067008
-4.085,-1.042263275281004,-0.3052125560595421
-4.0845,-0.5300948821127032,0.3835689402757146
-4.084,-0.209989636381632,0.8180311148883793
-4.0835,-0.07127736323188383,1.00877060618122
-4.083,0.00341386077189465,1.104140351827727
-4.0825,0.01408403562955789,1.093543713422511
-4.082,-0.007256314085787988,1.040560521396722
-4.0815,-0.01792648894347063,0.9557874141553824
-4.081,-0.02859666380114357,0.8710143069141201
-4.0805,-0.02859666380115328,0.7862411996727035
-4.08,0.03542438534494258,0.7438546460520338
-4.0795,0.4088805053634954,0.5849050699746667
-4.079,0.8890383739596119,-0.07208651114661034
-4.0785,0.9530594231056497,-0.8986243067489184
-4.078,0.9957401225363414,-1.460246142222282
-4.0775,1.049090996824735,-1.14234699006722
-4.077,0.9850699476786977,-0.5383386009732256
-4.0765,0.8356874996712766,-0.103876426361756
-4.076,0.5902734779441875,0.1716361721730598
-4.0755,0.3128489316446912,0.2458126410091644
-4.075,0.142126133921769,0.2034260873884947
-4.0745,0.02475421048721141,0.1080563417420456
-4.074,-0.02859666380115328,0.1716361721729923
-4.0735,-0.04993701351651855,0.2140227257936621
-4.073,-0.07127736323186443,0.1822328105781887
-4.0725,-0.08194753808956648,0.1610395337678249
-4.072,-0.09261771294724913,0.1716361721729923
-4.0715,-0.2099896363816514,0.139846256957519
-4.071,-0.8395299529856065,-0.3581957480859479
-4.0705,-1.46907026958831,-0.9833974139902578
-4.07,-1.821186039891517,-1.50263269584299
-4.0695,-2.066600061618295,-1.767548655972272
-4.069,-1.799845690176472,-1.354279758171118
-4.0685,-1.191645723288561,-0.5171453241628908
-4.068,-0.6474668055464069,0.2352160026044595
-4.0675,-0.274010685527854,0.7438546460520338
-4.067,-0.08194753808956648,1.019367244586387
-4.0665,0.003413860771914059,1.135930267043238
-4.066,0.02475421048725994,1.146526905448396
-4.0655,0.00341386077189465,1.093543713422559
-4.065,-0.01792648894345122,1.008770606181297
-4.0645,-0.06060718837420119,0.8922075837243778
-4.064,-0.03926683865883591,0.8180311148882058
-4.0635,-0.01792648894349003,0.7332580076469435
-4.063,0.2915085819298015,0.4259554938963264
-4.0625,0.8143471499557753,-0.326405832869877
-4.062,0.8783681991018131,-1.099960436446396
-4.0615,0.8250173248135356,-1.64038899511033
-4.061,0.9103787236749192,-1.301296566145281
-4.0605,0.9210488985326017,-0.5171453241628908
-4.06,0.8463576745286777,-0.06148987274052733
-4.0595,0.6863050516635838,0.1186529801471552
-4.059,0.4408910299368829,0.1610395337678249
-4.0585,0.2168173579257513,0.08686306493172034
-4.058,0.04609456020262521,-0.008506680714854012
-4.0575,-0.007256314085787988,-0.01910331912002144
-4.057,-0.007256314085787988,0.03387987290576753
-4.0565,-0.02859666380115328,0.06566978812131802
-4.056,-0.04993701351651855,0.09745970333682032
-4.0555,-0.09261771294721031,0.1186529801471359
-4.055,-0.1352984123783873,0.171636172172684
-4.0545,-0.5834457564006506,-0.1674562567923655
-4.054,-1.212986073003354,-0.8244478379121488
-4.0535,-1.597112367880715,-1.375473034981703
-4.053,-1.83185621474952,-1.650985633515806
-4.0525,-1.565101843307454,-1.163540266878104
-4.052,-1.031593100422895,-0.3370024712743891
-4.0515,-0.5621054066852853,0.383568940276341
-4.051,-0.2420001609548061,0.8604176685088755
-4.0505,-0.06060718837436618,1.135930267042978
-4.05,0.00341386077189465,1.231300012689736
-4.0495,0.01408403562957729,1.231300012689736
-4.049,-0.00725631408576858,1.157123543853631
-4.0485,-0.06060718837418178,1.029963882991497
-4.048,-0.03926683865883591,0.9663840525605498
-4.0475,-0.03926683865883591,0.8604176685089718
-4.047,-0.03926683865875828,0.754451284457018
-4.0465,0.04609456020262521,0.55311515475902
-4.046,0.6116138276592907,-0.1250697031710789
-4.0455,0.899708548817285,-0.9198175835598219
-4.045,0.9530594231056497,-1.545019249464132
-4.0445,1.241154144263081,-1.862918401619155
-4.044,1.411876941985887,-1.110557074851525
-4.0435,1.283834843693812,-0.2946159176543747
-4.043,1.006410297394063,0.1716361721729923
-4.0425,0.654294527090856,0.3093924714400437
-4.042,0.3448594562177392,0.2776025562246667
-4.0415,0.1207857842064037,0.1928294489833272
-4.041,-0.007256314085671539,0.1080563417420649
-4.0405,-0.0606071883742206,0.1186529801471359
-4.04,-0.08194753808956648,0.09745970333682032
-4.0395,-0.07127736323189353,0.05507314971618914
-4.039,-0.07127736323189353,0.04447651131099279
-4.0385,-0.08194753808956648,0.05507314971615059
-4.038,-0.2420001609546605,-0.008506680714796183
-4.0375,-0.8395299529855969,-0.5171453241634595
-4.037,-1.458400094730627,-1.142346990067769
-4.0365,-1.991908837614759,-1.661582271920973
-4.036,-2.269333383914081,-1.809935209592788
-4.0355,-1.799845690176472,-1.227120097309109
-4.035,-1.138294849000148,-0.400582301706049
-4.0345,-0.5834457564011551,0.2987958330343655
-4.034,-0.2206598112394408,0.7544512844572011
-4.0335,-0.03926683865883591,0.9981739677760521
-4.033,0.03542438534487465,1.093543713422472
-4.0325,0.02475421048721141,1.082947075017315
-4.032,-0.02859666380115328,0.9981739677760521
-4.0315,-0.01792648894348033,0.9663840525605787
-4.031,-0.02859666380116298,0.8922075837243103
-4.0305,-0.03926683865883591,0.8180311148882058
-4.03,-0.007256314085817103,0.7120647308366278
-4.0295,0.4408910299373294,0.2034260873877622
-4.029,0.9317190733902845,-0.6019184314042303
-4.0285,0.8783681991018712,-1.248313374119443
-4.028,0.8036769750981996,-1.534422611058473
-4.0275,0.9210488985326017,-0.9939940523954253
-4.027,0.9317190733902845,-0.3899856633008816
-4.0265,0.8250173248135551,0.03387987290543021
-4.026,0.6222840025174878,0.2034260873884947
-4.0255,0.3875401556484697,0.2034260873884947
-4.025,0.1848068333526839,0.1292496185523901
-4.0245,0.04609456020254758,0.04447651131105061
-4.024,-0.03926683865883591,0.1186529801471552
-4.0235,-0.09261771294720061,0.1504428953626286
-4.023,-0.08194753808956648,0.171636172173002
-4.0225,-0.08194753808956648,0.1822328105781598
-4.022,-0.09261771294723943,0.2034260873884754
-4.0215,-0.199319461524619,0.1292496185518407
-4.021,-0.7968492535543035,-0.400582301706049
-4.0205,-1.319687821580753,-0.9939940523954253
-4.02,-1.469070269588329,-1.34368311976597
-4.0195,-1.490410619303675,-1.364876396576285
-4.019,-1.116954499284783,-0.7608680074817418
-4.0185,-0.6794773301201922,-0.04029659593101165
-4.018,-0.3273615598162672,0.5425185163538525
-4.0175,-0.124628237520297,0.9028042221295453
-4.017,-0.01792648894356767,1.07235043661207
-4.0165,0.01408403562956759,1.125333628638042
-4.016,0.00341386077189465,1.104140351827727
-4.0155,-0.02859666380112416,1.019367244586464
-4.015,-0.03926683865883591,0.9451907757501474
-4.0145,-0.03926683865883591,0.8710143069140429
-4.014,-0.02859666380116298,0.7862411996727805
-4.0135,-0.02859666380100771,0.7014680924311038
-4.013,0.1314559590640864,0.4153588554918433
-4.0125,0.7183155762366316,-0.326405832869877
-4.012,0.9850699476787171,-1.078767159637285
-4.0115,1.006410297394063,-1.650985633515806
-4.011,1.241154144263081,-1.958288147265661
-4.0105,1.251824319120754,-1.672178910326401
-4.01,1.081101521397841,-0.8774310299385835
-4.0095,0.79300680024041,-0.2734226408440398
-4.009,0.4835717293678949,0.0656697881210096
-4.0085,0.2274875327830748,0.1822328105781405
-4.008,0.05676473506030786,0.1610395337678249
-4.0075,-0.08194753808944033,0.1504428953626671
-4.007,-0.1032878878049318,0.2140227257936235
-4.0065,-0.1032878878049318,0.1716361721729923
-4.006,-0.09261771294724913,0.1186529801471552
-4.0055,-0.08194753808957618,0.09745970333682032
-4.005,-0.09261771294724913,0.09745970333682032
-4.0045,-0.5087545323968721,-0.1886495336027004
-4.004,-1.223656247861997,-0.8350444763184149
-4.0035,-1.650463242168915,-1.38606967338662
-4.003,-2.002579012472442,-1.714565463946811
-4.0025,-2.077270236476152,-1.661582271921022
-4.002,-1.533091318734406,-0.9410108603695881
-4.0015,-0.9035510021311299,-0.1462629799820306
-4.001,-0.4233931335358477,0.4683420475171215
-4.0005,-0.1352984123778632,0.8392243916987044
-4,-0.007256314085787988,1.019367244586387
-3.9995,0.00341386077189465,1.040560521396722
-3.999,0.01408403562957729,1.040560521396722
-3.9985,0.00341386077189465,0.9875773293708847
-3.998,-0.01792648894347063,0.9134008605347127
-3.9975,-0.02859666380115328,0.849821030103708
-3.997,-0.01792648894347063,0.7862411996727035
-3.9965,0.00341386077189465,0.6802748156210291
-3.996,0.1954770082101822,0.13984625695749
-3.9955,0.3341892813600565,-0.6231117082145651
-3.995,0.3555296310754218,-0.9939940523954253
-3.9945,0.5262524287983441,-0.570128516188728
-3.994,0.7183155762366316,-0.02969995752518888
-3.9935,0.7716664505250448,0.309392471440169
-3.993,0.6969752265212663,0.4471487707073456
-3.9925,0.5155822539406614,0.4153588554918433
-3.992,0.3021787567870086,0.2564092794143318
-3.9915,0.09944543449103843,0.06566978812131802
-3.991,0.02475421048725994,0.03387987290581572
-3.9905,-0.007256314085787988,0.1928294489833272
-3.99,-0.02859666380115328,0.2458126410091644
-3.9895,-0.03926683865883591,0.2458126410091644
-3.989,-0.04993701351651855,0.2458126410091644
-3.9885,-0.07127736323188383,0.2776025562246667
-3.988,-0.2953510352432193,0.08686306493165288
-3.9875,-0.9782422261349084,-0.570128516188728
-3.987,-1.618452717595867,-1.163540266878104
-3.9865,-2.07727023647622,-1.555615887869299
-3.986,-2.333354433060604,-1.650985633515806
-3.9855,-1.789175515318789,-1.046977244421262
-3.985,-1.095614149569417,-0.2204394488182027
-3.9845,-0.5407650569699201,0.457745409112513
-3.984,-0.1886492866663929,0.8816109453192104
-3.9835,-0.02859666380115328,1.082947075017392
-3.983,0.02475421048725994,1.135930267043229
-3.9825,0.03542438534494258,1.125333628638062
-3.982,0.02475421048725994,1.051157159801889
-3.9815,0.00341386077189465,0.9451907757502149
-3.981,-0.007256314085787988,0.8392243916985406
-3.9805,-0.01792648894347063,0.7438546460520338
-3.98,-0.01792648894347063,0.5743084315693548
-3.9795,0.4622313796522482,0.1186529801471552
-3.979,0.9530594231056497,-0.6760949002404023
-3.9785,0.942389248247967,-1.364876396576285
-3.978,0.9530594231056497,-1.237716735714276
-3.9775,1.017080472251745,-0.3370024712750445
-3.977,0.9850699476786977,0.1928294489833272
-3.9765,0.825017324813458,0.4153588554918433
-3.976,0.6009436528021226,0.3941655786815084
-3.9755,0.3448594562177392,0.2352160026039969
-3.975,0.1741366584948169,0.1504428953626575
-3.9745,0.04609456020262521,0.05507314971615059
-3.974,0.02475421048725994,0.1610395337678249
-3.9735,0.02475421048725994,0.2352160026039969
-3.973,0.00341386077189465,0.2246193641988295
-3.9725,-0.01792648894347063,0.2246193641988295
-3.972,-0.03926683865883591,0.2352160026039969
-3.9715,-0.1886492866663929,0.1716361721729923
-3.971,-0.7008176798351597,-0.2628260024388724
-3.9705,-1.244996597576974,-0.8562377531282487
-3.97,-1.597112367880501,-1.333086481360783
-3.9695,-2.013249187330125,-1.608599079895136
-3.969,-1.83185621474952,-1.248313374119443
-3.9685,-1.234326422719292,-0.4429688553267188
-3.968,-0.6794773301197943,0.2881991946298341
-3.9675,-0.2846808603855366,0.7968378380778709
-3.967,-0.09261771294724913,1.040560521396722
-3.9665,0.01408403562957729,1.167720182258731
-3.966,0.04609456020262521,1.167720182258731
-3.9655,0.03542438534494258,1.104140351827727
-3.965,0.01408403562957729,1.019367244586387
-3.9645,-0.007256314085787988,0.9134008605347127
-3.964,-0.007256314085787988,0.8074344764830383
-3.9635,-0.007256314085787988,0.701468092431364
-3.963,0.1848068333524996,0.3729723018711736
-3.9625,0.8676980242441885,-0.326405832869877
-3.962,1.123782220828572,-1.089363798041932
-3.9615,1.102441871113207,-1.640388995110639
-3.961,1.294505018551494,-1.990078062481164
-3.9605,1.315845368266859,-1.460246142222792
-3.96,1.134452395686255,-0.6231117082145651
-3.9595,0.8676980242441885,-0.04029659593035631
-3.959,0.5475927785137094,0.1822328105781598
-3.9585,0.2488278824985954,0.1504428953626575
-3.958,0.08877525963335578,0.1080563417419877
-3.9575,-0.02859666380115328,0.13984625695749
-3.957,-0.09261771294724913,0.2034260873884947
-3.9565,-0.1032878878049318,0.1716361721729923
-3.956,-0.09261771294724913,0.1080563417419877
-3.9555,-0.09261771294724913,0.07626642652648545
-3.955,-0.124628237520297,0.05507314971615059
-3.9545,-0.6261264558313813,-0.3687923864905467
-3.954,-1.277007122150022,-0.9622041371799229
-3.9535,-1.853196564464885,-1.523825972653797
-3.953,-2.280003558772191,-1.852321763213987
-3.9525,-2.408045657064382,-1.79933857118815
-3.952,-1.714484291315011,-1.036380606016095
-3.9515,-0.9995825758502737,-0.1992461720078678
-3.951,-0.4660738329661415,0.4471487707073456
-3.9505,-0.1352984123779797,0.849821030103708
-3.95,-0.01792648894347063,0.9981739677760521
-3.9495,0.04609456020262521,1.072350436612224
-3.949,0.04609456020262521,1.051157159801889
-3.9485,0.02475421048725994,0.9875773293708847
-3.948,0.00341386077189465,0.9028042221295453
-3.9475,-0.007256314085787988,0.8286277532933731
-3.947,0.00341386077189465,0.7438546460520338
-3.9465,0.0674349099179905,0.5743084315693548
-3.946,0.5049120790829789,-0.07208651114585861
-3.9455,0.79300680024041,-0.7714646458869092
-3.945,0.8036769750980928,-1.311893204550448
-3.9445,0.8783681991018712,-1.068170521231597
-3.944,0.9317190733902845,-0.474758770542221
-3.9435,0.8890383739595538,-0.01910331912002144
-3.943,0.7289857510943143,0.1822328105781598
-3.9425,0.5155822539406614,0.2140227257936621
-3.942,0.2594980573562781,0.1716361721729923
-3.9415,0.1207857842064037,0.1504428953626575
-3.941,0.01408403562957729,0.1504428953626575
-3.9405,-0.04993701351651855,0.309392471440169
-3.94,-0.07127736323188383,0.309392471440169
-3.9395,-0.07127736323188383,0.2564092794143318
-3.939,-0.07127736323188383,0.2246193641988295
-3.9385,-0.08194753808956648,0.2140227257936621
-3.938,-0.2526703358124887,0.1080563417419877
-3.9375,-0.8181896032696687,-0.3370024712750445
-3.937,-1.490410619303675,-1.01518732920576
-3.9365,-1.885207089037933,-1.545019249464132
-3.936,-2.19464215991073,-1.788741932782983
-3.9355,-1.757164990745741,-1.227120097309109
-3.935,-1.095614149569417,-0.3793890248957141
-3.9345,-0.5514352318276028,0.3305857482505039
-3.934,-0.1993194615240755,0.7968378380778709
-3.9335,-0.04993701351651855,1.00877060618122
-3.933,0.03542438534494258,1.125333628638062
-3.9325,0.04609456020262521,1.135930267043229
-3.932,0.03542438534494258,1.093543713422559
-3.9315,0.01408403562957729,1.00877060618122
-3.931,0.00341386077189465,0.92399749893988
-3.9305,0.00341386077189465,0.8392243916985406
-3.93,0.02475421048725994,0.7332580076468663
-3.9295,0.408880505363835,0.2034260873884947
-3.929,0.9210488985326017,-0.5595318777835605
-3.9285,0.942389248247967,-1.227120097309109
-3.928,0.9957401225363802,-1.767548655972648
-3.9275,1.123782220828572,-1.555615887869299
-3.927,1.081101521397841,-0.718481453861072
-3.9265,0.9210488985326017,-0.1250697031716958
-3.926,0.6756348768059011,0.2246193641988295
-3.9255,0.3982103305061524,0.3199891098453364
-3.925,0.1527963087794516,0.2246193641988295
-3.9245,0.04609456020262521,0.1504428953626575
-3.924,-0.007256314085787988,0.2881991946298341
-3.9235,-0.03926683865883591,0.4047622170866759
-3.923,-0.04993701351651855,0.3305857482505039
-3.9225,-0.04993701351651855,0.2458126410091644
-3.922,-0.06060718837420119,0.1822328105781598
-3.9215,-0.2099896363817582,0.03387987290581572
-3.921,-0.7861790786966207,-0.5171453241628908
-3.9205,-1.30901764672307,-1.089363798041932
-3.92,-1.565101843307454,-1.439052865412457
-3.9195,-1.319687821580753,-1.163540266878104
-3.919,-0.8502001278427167,-0.4853554089473885
-3.9185,-0.4447334832507763,0.1504428953626575
-3.918,-0.1673089369510276,0.6166949851900245
-3.9175,-0.01792648894347063,0.8816109453192104
-3.917,0.02475421048725994,0.9981739677760521
-3.9165,0.00341386077189465,1.00877060618122
-3.916,0.01408403562957729,1.019367244586387
-3.9155,0.00341386077189465,0.9875773293708847
-3.915,-0.007256314085787988,0.9451907757502149
-3.9145,-0.007256314085787988,0.8816109453192104
-3.914,-0.007256314085787988,0.8180311148882058
-3.9135,0.00341386077189465,0.7544512844572011
-3.913,0.2168173579255475,0.4895353243280153
-3.9125,0.8997085488172365,-0.2840192792492073
-3.912,1.305175193409177,-0.9304142219644207
-3.9115,1.251824319120764,-1.417859588602123
-3.911,1.177133095116985,-1.174136905283272
-3.9105,1.049090996824793,-0.3793890248957141
-3.91,0.857027849386506,0.1186529801471552
-3.9095,0.6116138276598051,0.3305857482505039
-3.909,0.3661998059331045,0.3199891098453364
-3.9085,0.1634664836371343,0.1822328105781598
-3.908,0.04609456020262521,0.1080563417419877
-3.9075,0.00341386077189465,0.1292496185523226
-3.907,-0.01792648894347063,0.1928294489833272
-3.9065,-0.02859666380115328,0.1928294489833272
-3.906,-0.03926683865883591,0.1928294489833272
-3.9055,-0.04993701351651855,0.2034260873884947
-3.905,-0.1032878878049318,0.2140227257936621
-3.9045,-0.5194247072545548,-0.1038764263613609
-3.904,-1.202315898146244,-0.7290780922662394
-3.9035,-1.842526389607202,-1.333086481360783
-3.903,-2.376035132491334,-1.767548655972648
-3.9025,-2.386705307349017,-1.703968825541643
-3.902,-1.618452717595867,-0.9304142219644207
-3.9015,-0.9142211769888124,-0.1250697031716958
-3.901,-0.391382608962363,0.4895353243280153
-3.9005,-0.09261771294724913,0.849821030103708
-3.9,0.00341386077189465,0.9769806909657173
-3.8995,0.05676473506030786,1.040560521396722
-3.899,0.05676473506030786,1.019367244586387
-3.8985,0.03542438534494258,0.9557874141553824
-3.898,0.01408403562957729,0.8816109453192104
-3.8975,0.00341386077189465,0.8074344764830383
-3.897,-0.007256314085787988,0.7226613692416989
-3.8965,0.09944543449103843,0.5425185163538525
-3.896,0.6863050516635838,-0.1250697031716958
-3.8955,1.081101521397841,-0.9304142219644207
-3.895,1.177133095116985,-1.51322933424863
-3.8945,1.283834843693812,-1.84172512480882
-3.894,1.251824319120764,-1.301296566145281
-3.8935,1.081101521397841,-0.6231117082145651
-3.893,0.8036769750980928,-0.1356663415768632
-3.8925,0.5049120790829789,0.1822328105781598
-3.892,0.2381577076409128,0.2881991946298341
-3.8915,0.03542438534494258,0.2246193641988295
-3.891,-0.007256314085787988,0.2034260873884947
-3.8905,-0.007256314085787988,0.2564092794143318
-3.89,-0.007256314085787988,0.2352160026039969
-3.8895,-0.01792648894347063,0.1822328105781598
-3.889,-0.01792648894347063,0.1504428953626575
-3.8885,-0.03926683865883591,0.1504428953626575
