Class_11_Cell_phone_Call/Class_11_Cell_phone_Call_Souku_3.csv

#Digilent WaveForms Oscilloscope Acquisition
#Device Name: EExplorer
#Serial Number: SN:210151A2B84A
#Date Time: 2020-12-22 14:36:10.582
#Sample rate: 2000Hz
#Samples: 16384
#Trigger: Source: Channel 1 Type: Edge Condition: Rising Level: 0 V Hyst.: Auto HoldOff: 0 s
#Channel 1: Range: 1 V/div Offset: 0 V Attenuation: 1 X
#Channel 2: Range: 1 V/div Offset: 0 V Attenuation: 1 X
#Power Supplies: ON
#Fixed Supply: ON
#Voltage: 3.3 V Readback: 3.328 V
#Positive Supply: ON
#Voltage: 3.7 V Readback: 3.705 V
#Current: 40 mA Readback: 17 mA
#Negative Supply: ON
#Voltage: -3.7 V Readback: -4.144 V
#Current: -40 mA Readback: -9 mA
#Reference 1: ON
#Voltage: 0 V
#Reference 2: ON
#Voltage: 0 V

Time (s),Channel 1 (V),Channel 2 (V)
-4.096,1.315845368266859,-1.301296566145281
-4.0955,1.059761171682709,-1.407262950196859
-4.095,1.049090996824823,-1.460246142222802
-4.0945,1.081101521397841,-1.47084278062796
-4.094,1.03842082196715,-1.290699927740277
-4.0935,0.8890383739593597,-0.7714646458862828
-4.093,0.6756348768059011,-0.08268314955102604
-4.0925,0.174136658495273,0.1186529801469721
-4.092,-0.4874141826813031,-0.1250697031713392
-4.0915,-0.2633405106701714,0.2670059178194992
-4.091,-0.1139580626626144,0.457745409112513
-4.0905,0.03542438534506873,0.521325239543508
-4.09,0.1741366584948169,0.5107286011383502
-4.0895,0.1634664836371343,0.3305857482505039
-4.089,0.07810508477575077,0.2034260873886103
-4.0885,-0.391382608962363,0.5849050699745222
-4.088,-1.319687821580753,1.188913459069066
-4.0875,-2.130621110763896,1.633972272085693
-4.087,-2.781501777083449,1.040560521395623
-4.0865,-2.973564924521563,-0.1674562567923655
-4.086,-2.119950935907727,-0.6443049850244662
-4.0855,-1.170305373572536,-0.5807251545936737
-4.085,-0.4447334832507763,-0.3370024712750445
-4.0845,-0.007256314086185878,-0.08268314955125738
-4.084,0.1954770082102404,0.1186529801472805
-4.0835,0.2594980573562781,0.2564092794143318
-4.083,0.2488278824985954,0.3411823866556712
-4.0825,0.2168173579255087,0.3941655786815277
-4.082,0.1741366584948169,0.4153588554918433
-4.0815,0.1527963087794516,0.4153588554918433
-4.081,0.1527963087794516,0.38356894027637
-4.0805,0.408880505363835,-0.02969995752518888
-4.08,0.857027849386506,-0.718481453861072
-4.0795,0.686305051663739,-1.301296566144751
-4.079,0.1954770082101046,-1.640388995110658
-4.0785,0.1101156093487211,-1.661582271920973
-4.078,0.3341892813598528,-1.481439419033291
-4.0775,0.5369226036560848,-1.131750351662081
-4.077,0.6009436528021226,-0.5595318777835605
-4.0765,0.5262524287984121,0.04447651131043384
-4.076,0.3982103305060554,0.4471487707075094
-4.0755,0.291508581929326,0.627291623595192
-4.075,0.03542438534494258,0.4259554938970107
-4.0745,-0.5087545323967556,-0.167456256792327
-4.074,-0.3807124341046804,-0.1250697031716958
-4.0735,-0.274010685527854,-0.1356663415768632
-4.073,-0.103287887805087,-0.08268314955107423
-4.0725,0.05676473506030786,0.02328323450064829
-4.072,-0.274010685527854,0.3305857482505039
-4.0715,-1.266336947291437,0.9557874141548137
-4.071,-2.194642159911312,1.549199164845028
-4.0705,-2.834852651371688,1.845905040189447
-4.07,-3.165628071959549,1.093543713423244
-4.0695,-2.354694782775057,0.2670059178191523
-4.069,-1.351698346153801,-0.1144730647665284
-4.0685,-0.5407650569699201,-0.2098428104130352
-4.068,-0.03926683865862242,-0.146262979981915
-4.0675,0.1954770082101822,-0.01910331912002144
-4.067,0.2701682322139607,0.1292496185523226
-4.0665,0.2701682322139316,0.2881991946299498
-4.066,0.2381577076409128,0.4153588554918433
-4.0655,0.1954770082101822,0.5107286011383502
-4.065,0.1634664836371634,0.5955017083796126
-4.0645,0.1527963087794516,0.6590815388106942
-4.064,0.1634664836371343,0.5849050699745222
-4.0635,0.2594980573561907,-0.05089323433494553
-4.063,0.3128489316444875,-0.8244478379132475
-4.0625,0.08877525963335578,-1.375473034981453
-4.062,0.08877525963335578,-1.555615887869136
-4.0615,0.4088805053640777,-1.566212526274284
-4.061,0.6756348768059011,-1.364876396576285
-4.0605,0.7716664505250448,-0.9198175835592532
-4.06,0.686305051663477,-0.368792386490113
-4.0595,0.5689331282290746,0.1080563417419877
-4.059,0.4195506802215176,0.4683420475176805
-4.0585,0.3128489316447883,0.6696781772156786
-4.058,0.2594980573562781,0.701468092431364
-4.0575,0.2168173579255475,0.6166949851900245
-4.057,-0.09261771294696772,0.1822328105785549
-4.0565,-0.690147504977477,-0.6019184314042303
-4.056,-0.5407650569699201,-0.6337083466197325
-4.0555,-0.5194247072545742,-0.4959520473526812
-4.055,-1.042263275281577,0.2776025562255052
-4.0545,-1.67180359188428,1.199510097474233
-4.054,-2.205312334767927,1.718745379326965
-4.0535,-2.760161427367745,1.167720182257757
-4.053,-2.578768454787304,0.09745970333682032
-4.0525,-1.735824641030376,-0.3687923864905467
-4.052,-0.8715404775575094,-0.4429688553265935
-4.0515,-0.2420001609548061,-0.3052125560595421
-4.051,0.1101156093487211,-0.1144730647665284
-4.0505,0.2594980573561422,0.07626642652631199
-4.05,0.291508581929326,0.2352160026039969
-4.0495,0.2594980573562781,0.3517790250608387
-4.049,0.2168173579255863,0.4577454091124167
-4.0485,0.1848068333524898,0.5425185163538429
-4.048,0.1741366584948169,0.5319218779486851
-4.0475,0.1848068333524898,0.4683420475177383
-4.047,0.1954770082103083,0.08686306493101681
-4.0465,0.3341892813600565,-0.6125150698093976
-4.046,0.3661998059330753,-1.152943628472445
-4.0455,0.5582629533717026,-1.587405803085013
-4.045,0.8997085488172365,-1.820531847998485
-4.0445,1.102441871113207,-1.788741932782983
-4.044,1.113112045970744,-1.460246142222243
-4.0435,0.9530594231056497,-0.8562377531282487
-4.043,0.707645401378949,-0.1992461720078678
-4.0425,0.4729015545101444,0.330585748250022
-4.042,0.3128489316446912,0.627291623595192
-4.0415,0.3448594562177392,0.775644561267536
-4.041,0.3341892813600663,0.7544512844572204
-4.0405,0.2808384070715948,0.606098346784674
-4.04,0.2274875327832301,0.4047622170866759
-4.0395,0.1848068333525384,0.19282944898352
-4.039,0.03542438534395272,0.04447651131089642
-4.0385,-1.052933450138687,-0.05089323433552374
-4.038,-2.11995093590598,0.4365521323017348
-4.0375,-2.706810553079894,1.199510097474012
-4.037,-3.144287722244484,0.9557874141553824
-4.0365,-3.186968421675215,-0.1038764263613609
-4.036,-2.301343908486663,-0.5913217929990628
-4.0355,-1.319687821580753,-0.5913217929990628
-4.035,-0.5407650569699201,-0.3687923864905467
-4.0345,-0.049937013516965,-0.1038764263616018
-4.034,0.1954770082101822,0.1292496185523226
-4.0335,0.2808384070716433,0.2987958330350016
-4.033,0.2808384070716433,0.4153588554917373
-4.0325,0.259498057356249,0.500131962733231
-4.032,0.2274875327832301,0.55311515475902
-4.0315,0.1954770082102113,0.5637117931641777
-4.031,0.1954770082101822,0.5001319627330961
-4.0305,0.1954770082101822,0.4047622170866759
-4.03,0.3021787567869116,-0.1992461720073185
-4.0295,0.3235191065022477,-0.9833974139905469
-4.029,0.1848068333524996,-1.301296566145281
-4.0285,0.3661998059331045,-1.555615887869299
-4.028,0.6329541773752967,-1.598002441489728
-4.0275,0.7716664505250448,-1.333086481360783
-4.027,0.7609962756673623,-0.792657922697244
-4.0265,0.632954177375287,-0.1250697031723029
-4.026,0.4835717293676135,0.383568940276341
-4.0255,0.3555296310754218,0.6590815388106942
-4.025,0.3661998059330948,0.7544512844571144
-4.0245,0.4302208550791518,0.7438546460519085
-4.024,0.3768699807907871,0.6060983467848571
-4.0235,0.2915085819294037,0.404762217086859
-4.023,0.2168173579254796,0.2140227257935561
-4.0225,0.142126133921769,0.09745970333682032
-4.022,-0.3273615598158403,0.4789386859225009
-4.0215,-1.020922925566231,1.10414035182816
-4.021,-1.67180359188428,1.580989080060261
-4.0205,-2.44005618163743,1.25249328950007
-4.02,-2.93088422509022,-0.2310360872239002
-4.0195,-2.258663209056825,-0.8138511995075789
-4.019,-1.373038695869166,-0.8350444763179138
-4.0185,-0.6474668055474064,-0.6231117082147578
-4.018,-0.08194753808956648,-0.2416327256285375
-4.0175,0.2061471830678648,0.04447651131098315
-4.017,0.2594980573562296,0.2140227257935079
-4.0165,0.2488278824985663,0.3411823866557676
-4.016,0.2168173579255475,0.4471487707073456
-4.0155,0.1848068333525287,0.5107286011382923
-4.015,0.163466483637144,0.5743084315694127
-4.0145,0.1741366584948169,0.6378882620003594
-4.014,0.1954770082101628,0.6272916235952016
-4.0135,0.2808384070715948,0.1928294489825658
-4.013,0.2274875327832301,-0.6443049850249
-4.0125,-0.2206598112394408,-1.439052865412457
-4.012,-0.220659811239043,-1.937094870455432
-4.0115,0.2168173579255475,-2.053657892912168
-4.011,0.6222840025174878,-1.862918401619155
-4.0105,0.8356874996709467,-1.481439419033474
-4.01,0.8143471499557753,-0.8562377531282487
-4.0095,0.6756348768059011,-0.2416327256285375
-4.009,0.5049120790831341,0.2352160026035632
-4.0085,0.3875401556484891,0.53192187794882
-4.008,0.408880505363835,0.6802748156210291
-4.0075,0.3661998059331433,0.6484849004055557
-4.007,0.2915085819292678,0.5001319627330093
-4.0065,0.2274875327832301,0.309392471440169
-4.006,0.1741366584948169,0.13984625695749
-4.0055,-0.1352984123785814,0.3093924714406894
-4.005,-0.7968492535543035,0.8816109453192104
-4.0045,-1.447729919872945,1.432636142387917
-4.004,-2.013249187330561,1.665762187300926
-4.0035,-2.493407055925843,0.92399749893988
-4.003,-2.151961460479999,0.08686306493165288
-4.0025,-1.255666772435472,-0.2416327256282388
-4.002,-0.8608703027003992,-0.570128516188728
-4.0015,-0.9248913518464952,-0.9939940523954253
-4.001,-0.4874141826819048,-0.6549016234303758
-4.0005,-0.2313299860969294,-0.3581957480850902
-4,-0.01792648894347063,-0.04029659593035631
-3.9995,0.1741366584948169,0.2776025562246667
-3.999,0.2061471830678648,0.3941655786815084
-3.9985,0.1848068333524996,0.4259554938970107
-3.998,0.1634664836371343,0.4471487707073456
-3.9975,0.1741366584948169,0.4259554938970107
-3.997,0.1848068333524996,-0.02969995752518888
-3.9965,0.2381577076409128,-0.9516074987747555
-3.996,0.07810508477567314,-1.746355379162313
-3.9955,-0.2206598112394408,-2.25499402261035
-3.995,0.01408403562957729,-2.360960406662024
-3.9945,0.408880505363835,-2.117237723343173
-3.994,0.6863050516635838,-1.619195718300304
-3.9935,0.7396559259519968,-0.9092209451540858
-3.993,0.6649647019482183,-0.08268314955102604
-3.9925,0.5475927785137094,0.55311515475902
-3.992,0.4195506802215176,0.7968378380778709
-3.9915,0.408880505363835,0.8074344764830383
-3.991,0.3661998059331045,0.6908714540261965
-3.9905,0.3021787567870086,0.5001319627331828
-3.99,0.2381577076409128,0.2987958330350016
-3.9895,0.1954770082101822,0.1186529801471552
-3.989,0.07810508477567314,0.1186529801471552
-3.9885,-0.4980843575391895,0.5849050699745222
-3.988,-1.244996597576974,1.199510097474233
-3.9875,-1.853196564464885,1.655165548896433
-3.987,-2.461396531352796,1.33726639674141
-3.9865,-2.525417580498891,0.3411823866556712
-3.986,-1.67180359188428,-0.1780528951975329
-3.9855,-0.8502001278427167,-0.2734226408440398
-3.985,-0.2526703358124887,-0.1568596183871981
-3.9845,0.08877525963335578,0.02328323450064829
-3.984,0.2381577076409128,0.1822328105781598
-3.9835,-0.1779791118087102,-0.1250697031716958
-3.983,-0.5514352318276028,-0.3581957480853793
-3.9825,-0.391382608962363,-0.07208651114585861
-3.982,-0.2633405106701714,0.1292496185523226
-3.9815,-0.06060718837420119,0.3623756634660061
-3.981,0.142126133921769,0.5107286011383502
-3.9805,0.5155822539406614,0.002089957690313421
-3.98,1.145122570543937,-0.9516074987747555
-3.9795,1.113112045970889,-1.75695201756748
-3.979,0.5689331282290746,-2.286783937825852
-3.9785,0.4515612047945656,-2.477523429118866
-3.978,0.6222840025174878,-2.25499402261035
-3.9775,0.7823366253827275,-1.820531847998485
-3.977,0.8143471499557753,-1.089363798041932
-3.9765,0.6863050516635838,-0.3475991096802118
-3.976,0.5582629533713921,0.1504428953626575
-3.9755,0.4408910299368829,0.4365521323021782
-3.975,0.4302208550792003,0.6166949851900245
-3.9745,0.4942419042252961,0.6802748156210291
-3.974,0.4302208550792003,0.5955017083796896
-3.9735,0.3341892813600565,0.4259554938970107
-3.973,0.2594980573562781,0.2352160026039969
-3.9725,0.1634664836371343,0.08686306493165288
-3.972,-0.3807124341046804,0.4047622170866759
-3.9715,-1.095614149569417,1.019367244586387
-3.971,-1.703814116457328,1.559795803249926
-3.9705,-2.247993034199143,1.845905040189447
-3.97,-2.151961460479999,1.570392441655093
-3.9695,-1.405049220442214,0.8286277532933731
-3.969,-0.6794773301197943,0.1610395337678249
-3.9685,-0.1673089369510276,-0.2628260024388724
-3.968,0.1207857842064037,-0.4217755785163839
-3.9675,0.2488278824985954,-0.3899856633008816
-3.967,0.2808384070716433,-0.252229364033705
-3.9665,0.2701682322139607,-0.05089323433552374
-3.966,0.2381577076409128,0.1716361721729923
-3.9655,0.2061471830678648,0.3623756634660061
-3.965,0.1848068333524996,0.5319218779486851
-3.9645,-0.02859666380115328,0.4895353243280153
-3.964,-0.6154562809736985,0.03387987290581572
-3.9635,-0.572775581542968,-0.08268314955102604
-3.963,-0.658136980404429,-0.6760949002404023
-3.9625,-0.9782422261349084,-1.301296566145281
-3.962,-0.7755089038389382,-1.38606967338662
-3.9615,-0.1993194615240755,-1.046977244421262
-3.961,0.2808384070716433,-0.6549016234300674
-3.9605,0.5262524287983441,-0.04029659593035631
-3.96,0.6009436528021226,0.5319218779486851
-3.9595,0.5796033030867573,0.8816109453192104
-3.959,0.4942419042252961,1.072350436612224
-3.9585,0.4408910299368829,1.082947075017392
-3.958,0.4942419042252961,1.061753798207057
-3.9575,0.4622313796522482,0.849821030103708
-3.957,0.3555296310754218,0.5107286011383502
-3.9565,0.2701682322139607,0.1716361721729923
-3.956,0.2168173579255475,-0.1250697031716958
-3.9555,-0.007256314085787988,-0.1038764263613609
-3.955,-0.7648387289812555,0.4047622170866759
-3.9545,-1.629122892453549,0.9769806909657173
-3.954,-2.322684258202921,1.37965295036208
-3.9535,-2.952224574806197,1.273686566310405
-3.953,-2.546757930214257,0.5001319627331828
-3.9525,-1.522421143876723,-0.1038764263613609
-3.952,-0.690147504977477,-0.4111789401112165
-3.9515,-0.124628237520297,-0.4959520473525559
-3.951,0.1848068333524996,-0.4111789401112165
-3.9505,0.3021787567870086,-0.2416327256285375
-3.95,0.3235191065023739,-0.04029659593035631
-3.9495,0.291508581929326,0.1822328105781598
-3.949,0.2488278824985954,0.3729723018711736
-3.9485,0.2168173579255475,0.5213252395435176
-3.948,0.1954770082101822,0.6484849004055269
-3.9475,0.2274875327832301,0.6802748156210291
-3.947,0.4729015545099309,0.2352160026039969
-3.9465,0.7716664505250448,-0.3793890248957141
-3.946,0.8463576745288233,-0.8244478379127463
-3.9455,0.6329541773751706,-1.237716735714276
-3.945,0.3021787567870086,-1.852321763213987
-3.9445,0.4408910299368829,-1.682775548731308
-3.944,0.5582629533713921,-1.248313374119443
-3.9435,0.5796033030867573,-0.5489352393783931
-3.943,0.5902734779444399,0.2670059178194992
-3.9425,0.5049120790829789,0.8180311148882058
-3.942,0.3661998059331045,0.9875773293708847
-3.9415,0.3875401556484697,0.9981739677760521
-3.941,0.3875401556484697,0.849821030103708
-3.9405,0.3341892813600565,0.5849050699745222
-3.94,0.2808384070716433,0.2670059178194992
-3.9395,0.2381577076409128,-0.02969995752518888
-3.939,0.0674349099179905,-0.1356663415768632
-3.9385,-0.658136980404429,0.3305857482505039
-3.938,-1.415719395299897,0.9345941373450475
-3.9375,-1.959898313041711,1.358459673551745
-3.937,-2.525417580498891,1.199510097474233
-3.9365,-2.674800028506448,0.2458126410091644
-3.936,-1.853196564464885,-0.326405832869877
-3.9355,-0.9889124009925911,-0.4853554089473885
-3.935,-0.3166913849585846,-0.4217755785163839
-3.9345,0.07810508477567314,-0.2628260024388724
-3.934,0.2594980573562781,-0.08268314955102604
-3.9335,0.3128489316446912,0.08686306493165288
-3.933,0.3021787567870086,0.2458126410091644
-3.9325,0.2701682322139607,0.383568940276341
-3.932,0.2274875327832301,0.4789386859228479
-3.9315,0.2061471830678648,0.5849050699745222
-3.931,0.2061471830678648,0.6484849004055269
-3.9305,0.2061471830678648,0.5849050699745222
-3.93,0.3341892813600565,0.04447651131098315
-3.9295,0.3128489316446912,-0.5171453241628908
-3.929,-0.03926683865883591,-0.9939940523954253
-3.9285,0.1314559590640864,-1.290699927740113
-3.928,0.4835717293676135,-1.481439419033127
-3.9275,0.3021787567870086,-1.831128486403653
-3.927,0.2061471830678648,-1.598002441489969
-3.9265,0.2701682322139607,-0.8880276683437509
-3.926,0.2701682322139607,-0.1886495336027004
-3.9255,0.3341892813600565,0.4259554938970107
-3.925,0.3661998059331045,0.7226613692416989
-3.9245,0.3235191065023739,0.7226613692416989
-3.924,0.2701682322139607,0.5849050699745222
-3.9235,0.2381577076409128,0.383568940276341
-3.923,0.2061471830678648,0.1716361721729923
-3.9225,0.1954770082101822,-0.008506680714854012
-3.922,0.04609456020262521,0.06566978812131802
-3.9215,-0.5834457564006506,0.6378882620003594
-3.921,-1.394379045584531,1.284283204715573
-3.9205,-2.055929886760855,1.305476481525908
-3.92,-2.621449154218035,0.2352160026039969
-3.9195,-2.280003558772191,-0.5595318777835605
-3.919,-1.426389570157579,-0.6443049850249
-3.9185,-0.6367966306890638,-0.4323722169215513
-3.918,-0.1032878878049318,-0.1674562567923655
-3.9175,0.1848068333524996,0.05507314971615059
-3.917,0.3021787567870086,0.2140227257936621
-3.9165,0.3235191065023739,0.3199891098453364
-3.916,0.291508581929326,0.383568940276341
-3.9155,0.2594980573562781,0.4153588554918433
-3.915,0.2274875327832301,0.4259554938970107
-3.9145,0.2168173579255475,0.4365521323021782
-3.914,0.2168173579255475,0.3199891098453364
-3.9135,0.2488278824985954,-0.2098428104130352
-3.913,0.4835717293676135,-0.8668343915334161
-3.9125,0.408880505363835,-1.195330182093607
-3.912,0.3875401556484697,-1.47084278062796
-3.9115,0.6649647019482183,-1.703968825541643
-3.911,0.7503261008096795,-1.937094870455327
-3.9105,0.3768699807907871,-2.297380576231019
-3.91,0.3661998059331045,-1.714565463946811
-3.9095,0.3341892813600565,-0.8456411147230812
-3.909,0.3341892813600565,-0.1250697031716958
-3.9085,0.3875401556484697,0.3729723018711736
-3.908,0.3661998059331045,0.55311515475902
-3.9075,0.3021787567870086,0.5637117931641874
-3.907,0.2488278824985954,0.5107286011383502
-3.9065,0.2168173579255475,0.4153588554918433
-3.906,0.1954770082101822,0.3199891098453364
-3.9055,0.00341386077189465,0.4895353243280153
-3.905,-0.7328282044082075,1.082947075017392
-3.9045,-1.586442193022819,1.686955464111935
-3.904,-2.141291285622316,1.983661339456623
-3.9035,-2.664129853648766,1.114736990232894
-3.903,-2.536087755356574,0.002089957690313421
-3.9025,-1.639793067311232,-0.3793890248957141
-3.902,-0.7968492535543035,-0.326405832869877
-3.9015,-0.1886492866663929,-0.1250697031716958
-3.901,0.1527963087794516,0.09745970333682032
-3.9005,0.3021787567870086,0.2670059178194992
-3.9,0.3341892813600565,0.383568940276341
-3.8995,0.3128489316446912,0.457745409112513
-3.899,0.2701682322139607,0.4895353243280153
-3.8985,0.2381577076409128,0.5001319627331828
-3.898,0.2274875327832301,0.4683420475176805
-3.8975,0.2594980573562781,0.3305857482505039
-3.897,0.6542945270905358,-0.2628260024388724
-3.8965,1.15579274540162,-0.9833974139902578
-3.896,1.081101521397841,-1.47084278062796
-3.8955,0.8783681991018712,-1.84172512480882
-3.895,0.5049120790829789,-2.424540237093029
-3.8945,0.4408910299368829,-2.594086451575707
-3.894,0.6222840025174878,-2.286783937825852
-3.8935,0.6649647019482183,-1.672178910326141
-3.893,0.6649647019482183,-0.718481453861072
-3.8925,0.5369226036560266,-0.01910331912002144
-3.892,0.3661998059331045,0.3411823866556712
-3.8915,0.4408910299368829,0.55311515475902
-3.891,0.4622313796522482,0.6060983467848571
-3.8905,0.3982103305061524,0.5425185163538525
-3.89,0.3235191065023739,0.4471487707073456
-3.8895,0.2594980573562781,0.3411823866556712
-3.889,0.1314559590640864,0.3623756634660061
-3.8885,-0.4980843575391895,0.8604176685088755
-3.888,-1.30901764672307,1.496215972818921
-3.8875,-1.906547438753298,1.951871424241121
-3.887,-2.301343908487556,1.962468062646288
-3.8865,-2.162631635337682,1.199510097474233
-3.886,-1.415719395299897,0.457745409112513
-3.8855,-0.6794773301197943,0.002089957690313421
