Class_11_Cell_phone_Call/Class_11_Cell_phone_Call_Turki_5.csv

#Digilent WaveForms Oscilloscope Acquisition
#Device Name: EExplorer
#Serial Number: SN:210151A2B84A
#Date Time: 2020-12-15 14:08:45.457
#Sample rate: 2000Hz
#Samples: 16384
#Trigger: Source: Channel 1 Type: Edge Condition: Rising Level: 0 V Hyst.: Auto HoldOff: 0 s
#Channel 1: Range: 1 V/div Offset: 0 V Attenuation: 1 X
#Channel 2: Range: 1 V/div Offset: 0 V Attenuation: 1 X
#Power Supplies: ON
#Fixed Supply: ON
#Voltage: 3.3 V Readback: 3.323 V
#Positive Supply: ON
#Voltage: 3.7 V Readback: 3.716 V
#Current: 40 mA Readback: 19 mA
#Negative Supply: ON
#Voltage: -3.7 V Readback: -3.348 V
#Current: -40 mA Readback: -9 mA
#Reference 1: ON
#Voltage: 0 V
#Reference 2: ON
#Voltage: 0 V

Time (s),Channel 1 (V),Channel 2 (V)
-4.096,-0.124628237520297,0.3305857482505039
-4.0955,-0.8181896032690379,-0.453565493731173
-4.095,-1.351698346153937,-1.216523458904327
-4.0945,-1.501080794161358,-1.640388995110639
-4.094,-1.052933450139094,-1.34368311976622
-4.0935,-0.455403658108061,-0.7926579226968489
-4.093,-0.01792648894347063,-0.3581957480853793
-4.0925,0.2488278824983528,-0.04029659593064544
-4.092,0.3661998059331336,0.04447651131092532
-4.0915,0.3982103305061524,-0.01910331912002144
-4.091,0.3875401556484697,-0.1250697031716958
-4.0905,0.4515612047946141,-0.1568596183871595
-4.09,0.5049120790829789,-0.1144730647665284
-4.0895,0.4622313796522482,-0.1144730647665284
-4.089,0.3982103305062106,-0.1038764263613705
-4.0885,0.3341892813600565,-0.09327978795619347
-4.088,0.3235191065023739,-0.02969995752518888
-4.0875,0.6542945270902349,0.4153588554914385
-4.087,0.4942419042245586,0.6484849004049487
-4.0865,-0.3166913849585846,0.01268659609548085
-4.086,-0.9995825758496526,-0.6972881770500915
-4.0855,-1.415719395299664,-1.195330182093395
-4.085,-1.159635198715513,-0.9622041371799229
-4.0845,-0.6474668055472124,-0.4005823017065598
-4.084,-0.1886492866661212,0.1398462569578563
-4.0835,0.1101156093487211,0.5425185163538525
-4.083,0.2701682322139607,0.775644561267536
-4.0825,0.3341892813600565,0.8922075837244163
-4.082,0.3341892813600565,0.9345941373450475
-4.0815,0.3235191065023739,0.92399749893988
-4.081,0.2915085819293551,0.8922075837244067
-4.0805,0.2701682322139607,0.849821030103708
-4.08,0.2488278824985954,0.775644561267536
-4.0795,0.0140840356297908,0.4895353243282756
-4.079,-0.6901475049781564,-0.2628260024396049
-4.0785,-1.437059745015262,-1.068170521231597
-4.078,-2.013249187329601,-1.650985633515276
-4.0775,-1.735824641029687,-1.555615887868818
-4.077,-0.9782422261349084,-1.025783967610927
-4.0765,-0.3060212101015133,-0.5277419625685112
-4.076,0.1421261339219728,-0.1886495336025655
-4.0755,0.3661998059331045,-0.04029659593035631
-4.075,0.4622313796522482,-0.008506680714854012
-4.0745,0.47290155450996,-0.008506680714960026
-4.074,0.5049120790829789,-0.1250697031716958
-4.0735,0.6756348768059011,-0.3052125560595421
-4.073,0.6542945270905552,-0.2734226408440688
-4.0725,0.5369226036560266,-0.1356663415768632
-4.072,0.4195506802215176,0.01268659609548085
-4.0715,0.3448594562178071,0.1292496185522166
-4.071,0.5049120790831244,0.4365521323025733
-4.0705,0.6649647019482183,0.8710143069140429
-4.07,-0.06060718837354129,0.3941655786819421
-4.0695,-0.9569018764201157,-0.3793890248962635
-4.069,-1.586442193022819,-0.9833974139902578
-4.0685,-1.415719395299897,-0.9939940523954253
-4.068,-0.8502001278422314,-0.538338600972763
-4.0675,-0.3166913849585846,-0.02969995752518888
-4.067,0.05676473506030786,0.3623756634660061
-4.0665,0.259498057356346,0.6060983467849728
-4.066,0.3341892813600565,0.7332580076468663
-4.0655,0.3555296310754218,0.7862411996727035
-4.065,0.334189281360076,0.7862411996727035
-4.0645,0.3128489316446912,0.775644561267536
-4.064,0.2808384070716433,0.7332580076468663
-4.0635,0.2594980573562975,0.6908714540262351
-4.063,0.1527963087789082,0.5425185163532743
-4.0625,-0.4447334832507763,-0.09327978795619347
-4.062,-1.212986073003228,-0.888027668343028
-4.0615,-1.84252638960729,-1.555615887869328
-4.061,-1.938557963326346,-1.587405803084801
-4.0605,-1.234326422719292,-1.046977244421262
-4.06,-0.4980843575387237,-0.5277419625677017
-4.0595,0.01408403562957729,-0.1356663415768632
-4.059,0.3235191065023739,0.06566978812131802
-4.0585,0.4408910299367762,0.09745970333679141
-4.058,0.4622313796522482,0.04447651131098315
-4.0575,0.4408910299368829,-0.01910331912002144
-4.057,0.5796033030866312,-0.2204394488180196
-4.0565,0.6116138276598051,-0.2416327256285375
-4.056,0.5369226036560266,-0.1250697031716958
-4.0555,0.4302208550792974,0.02328323450051337
-4.055,0.3661998059331433,0.1504428953628213
-4.0545,0.408880505363835,0.3305857482505039
-4.054,0.7289857510940232,0.8074344764826047
-4.0535,0.2168173579247129,0.6060983467841247
-4.053,-0.7008176798351597,-0.1992461720078678
-4.0525,-1.490410619303675,-0.8986243067489184
-4.052,-1.65046324216843,-1.205926820498446
-4.0515,-1.116954499284783,-0.8456411147230812
-4.051,-0.5300948821122373,-0.2946159176543747
-4.0505,-0.07127736323230111,0.1716361721725683
-4.05,0.1954770082101822,0.4895353243280153
-4.0495,0.3235191065023739,0.6590815388106942
-4.049,0.3555296310753927,0.7332580076467988
-4.0485,0.3448594562177197,0.7544512844571818
-4.048,0.3235191065023739,0.7332580076468663
-4.0475,0.2915085819293551,0.7120647308365508
-4.047,0.2701682322139316,0.6696781772157941
-4.0465,0.2381577076409128,0.5955017083796896
-4.046,-0.2099896363813506,0.1292496185527467
-4.0455,-0.9569018764201546,-0.6654982618359095
-4.045,-1.629122892453549,-1.407262950196955
-4.0445,-1.895877263895616,-1.682775548731308
-4.044,-1.26633694729168,-1.18473354368788
-4.0435,-0.5407650569699201,-0.570128516188728
-4.043,0.01408403562957729,-0.1144730647665284
-4.0425,0.3555296310751113,0.129249618552101
-4.042,0.4835717293676135,0.2140227257936621
-4.0415,0.4729015545099309,0.13984625695749
-4.041,0.4302208550792391,0.0232832345007543
-4.0405,0.483571729367662,-0.01910331912006963
-4.04,0.5369226036560266,-0.07208651114585861
-4.0395,0.4942419042253349,-0.07208651114585861
-4.039,0.4195506802214594,-0.04029659593030812
-4.0385,0.3555296310754218,0.01268659609548085
-4.038,0.3448594562177489,0.09745970333674321
-4.0375,0.6863050516635062,0.5425185163542188
-4.037,0.6009436528021226,0.9451907757502149
-4.0365,-0.2420001609548061,0.383568940276341
-4.036,-1.010252750708422,-0.4111789401118044
-4.0355,-1.522421143876723,-1.05757388282643
-4.035,-1.277007122150022,-0.9728007755850904
-4.0345,-0.7434983792663755,-0.4641621321375162
-4.034,-0.2420001609548061,0.07626642652648545
-4.0335,0.09944543449103843,0.4895353243280153
-4.033,0.2701682322138054,0.7438546460518025
-4.0325,0.3448594562177489,0.8710143069140911
-4.032,0.3555296310754218,0.92399749893988
-4.0315,0.334189281360076,0.92399749893988
-4.031,0.3128489316446622,0.8922075837243393
-4.0305,0.2808384070716433,0.849821030103708
-4.03,0.2701682322139704,0.7862411996727613
-4.0295,0.0140840356289368,0.4683420475169769
-4.029,-0.690147504977477,-0.3052125560595421
-4.0285,-1.394379045584531,-1.0999604364471
-4.028,-1.927887788468324,-1.682775548731231
-4.0275,-1.554431668449771,-1.598002441489969
-4.027,-0.807519428411986,-1.01518732920576
-4.0265,-0.1779791118092827,-0.4853554089478703
-4.026,0.2488278824985954,-0.1462629799820306
-4.0255,0.4408910299368829,0.01268659609548085
-4.025,0.5049120790829207,0.01268659609548085
-4.0245,0.4942419042252961,-0.05089323433552374
-4.024,0.4942419042252961,-0.05089323433552374
-4.0235,0.5902734779443525,0.118652980147001
-4.023,0.5689331282289872,0.1186529801470781
-4.0225,0.4729015545099309,0.03387987290581572
-4.022,0.3875401556485474,-0.02969995752513105
-4.0215,0.3341892813602506,-0.04029659593011537
-4.021,0.5475927785137094,0.2246193641988295
-4.0205,0.7609962756673623,0.7438546460520338
-4.02,0.06743490991725297,0.3729723018704797
-4.0195,-0.7434983792658902,-0.3899856633008816
-4.019,-1.330357996438436,-1.046977244421262
-4.0185,-1.298347471865417,-1.078767159636736
-4.018,-0.8181896032696687,-0.570128516188728
-4.0175,-0.3273615598162672,0.02328323450064829
-4.017,0.03542438534461262,0.4895353243275913
-4.0165,0.2381577076410001,0.7862411996728577
-4.016,0.3341892813600565,0.9557874141553824
-4.0155,0.3555296310754024,1.029963882991487
-4.015,0.3448594562177101,1.040560521396693
-4.0145,0.3128489316446912,1.00877060618122
-4.014,0.2915085819293454,0.9663840525605883
-4.0135,0.2701682322138637,0.8922075837242139
-4.013,0.1634664836371343,0.7120647308365314
-4.0125,-0.4340633083930936,0.05507314971615059
-4.012,-1.180975548431461,-0.7820612842927126
-4.0115,-1.821186039891837,-1.481439419033127
-4.011,-1.810515865034154,-1.725162102351978
-4.0105,-1.127624674143086,-1.311893204550824
-4.01,-0.4127229586777283,-0.718481453861072
-4.0095,0.09944543449103843,-0.2734226408440398
-4.009,0.3875401556482077,-0.04029659593056834
-4.0085,0.4835717293676329,-0.008506680714950388
-4.008,0.5049120790829789,-0.1144730647665284
-4.0075,0.4835717293676329,-0.1992461720077907
-4.007,0.5689331282290649,-0.3158091944647481
-4.0065,0.5582629533713921,-0.3581957480853793
-4.006,0.4729015545099309,-0.3158091944647096
-4.0055,0.3982103305061039,-0.2416327256284604
-4.005,0.3448594562177392,-0.1568596183871981
-4.0045,0.408880505363835,0.03387987290581572
-4.004,0.7503261008092525,0.6060983467847992
-4.0035,0.2808384070716433,0.5425185163538525
-4.003,-0.6047861061160158,-0.1780528951975329
-4.0025,-1.351698346153122,-0.8032545611018427
-4.002,-1.437059745015262,-1.004590690800593
-4.0015,-0.9569018764195432,-0.6231117082145651
-4.001,-0.4233931335358962,-0.08268314955151757
-4.0005,-0.01792648894325713,0.3729723018714531
-4,0.2168173579255475,0.6802748156210291
-3.9995,0.3341892813600565,0.8604176685088755
-3.999,0.3555296310754218,0.9557874141553824
-3.9985,0.3555296310754218,0.9769806909657173
-3.998,0.3341892813600565,0.9769806909657173
-3.9975,0.3021787567870086,0.9451907757502149
-3.997,0.2808384070716433,0.8922075837243778
-3.9965,0.2488278824985954,0.8074344764830383
-3.996,-0.1459685872356623,0.3623756634660061
-3.9955,-0.8822106524157645,-0.4429688553267188
-3.995,-1.607782542738184,-1.216523458903942
-3.9945,-1.906547438753298,-1.598002441489969
-3.994,-1.373038695869166,-1.227120097309109
-3.9935,-0.7114878546928423,-0.718481453861072
-3.993,-0.1459685872356623,-0.3158091944647096
-3.9925,0.2381577076409128,-0.08268314955102604
-3.992,0.4302208550792003,0.03387987290581572
-3.9915,0.4942419042252961,0.03387987290581572
-3.991,0.4835717293676135,-0.01910331912002144
-3.9905,0.5582629533713921,-0.1780528951975329
-3.99,0.6436243522328531,-0.2946159176543747
-3.9895,0.5796033030867573,-0.2628260024388724
-3.989,0.4729015545099309,-0.1568596183871981
-3.9885,0.3875401556484697,-0.05089323433552374
-3.988,0.3555296310754218,0.07626642652648545
-3.9875,0.6116138276598051,0.55311515475902
-3.987,0.3235191065023739,0.7226613692416989
-3.9865,-0.4980843575391895,0.03387987290581572
-3.986,-1.255666772434657,-0.6654982618352349
-3.9855,-1.607782542738184,-1.131750351662602
-3.985,-1.212986073003927,-0.8986243067489184
-3.9845,-0.6367966306890638,-0.3581957480853793
-3.984,-0.1459685872356623,0.13984625695749
-3.9835,0.1634664836371343,0.5001319627331828
-3.983,0.3128489316446912,0.7120647308365314
-3.9825,0.3661998059331045,0.8074344764830383
-3.982,0.3661998059331045,0.8392243916985406
-3.9815,0.3448594562177392,0.8392243916985406
-3.981,0.3128489316446912,0.8074344764830383
-3.9805,0.291508581929326,0.7650479228623686
-3.98,0.2808384070716433,0.701468092431364
-3.9795,0.0674349099179905,0.4259554938970107
-3.979,-0.5621054066852853,-0.3052125560595421
-3.9785,-1.159635198715513,-1.0999604364471
-3.978,-1.543761493592088,-1.672178910326141
-3.9775,-1.26633694729234,-1.51322933424863
-3.977,-0.6047861061160158,-0.9304142219644207
-3.9765,-0.03926683865883591,-0.4429688553267188
-3.976,0.291508581929326,-0.1250697031716958
-3.9755,0.4302208550792003,0.03387987290581572
-3.975,0.4729015545099309,0.03387987290581572
-3.9745,0.4622313796522482,-0.02969995752518888
-3.974,0.4729015545099309,-0.1356663415768632
-3.9735,0.5582629533713921,-0.2946159176543747
-3.973,0.5369226036560266,-0.2946159176543747
-3.9725,0.4622313796522482,-0.2204394488182027
-3.972,0.3982103305061524,-0.1144730647665284
-3.9715,0.3448594562177392,-0.008506680714854012
-3.971,0.5582629533713921,0.3623756634660061
-3.9705,0.6649647019482183,0.8604176685088755
-3.97,-0.08194753808956648,0.4153588554918433
-3.9695,-0.9248913518464952,-0.326405832869877
-3.969,-1.533091318734406,-0.9198175835592532
-3.9685,-1.426389570157579,-0.9622041371799229
-3.968,-0.8715404775580819,-0.5171453241628908
-3.9675,-0.3380317346739499,0.01268659609548085
-3.967,0.04609456020262521,0.4365521323021782
-3.9665,0.2594980573562781,0.7120647308365314
-3.966,0.3555296310754218,0.8604176685088755
-3.9655,0.3661998059331045,0.9345941373450475
-3.965,0.3555296310754218,0.9451907757502149
-3.9645,0.3341892813600565,0.92399749893988
-3.964,0.3021787567870086,0.8922075837243778
-3.9635,0.2808384070716433,0.8286277532933731
-3.963,0.1848068333524996,0.6802748156210291
-3.9625,-0.4020527838200457,0.05507314971615059
-3.962,-1.042263275281004,-0.7714646458869092
-3.9615,-1.554431668449771,-1.460246142222792
-3.961,-1.373038695869166,-1.608599079895136
-3.9605,-0.7648387289812555,-1.142346990067769
-3.96,-0.1886492866663929,-0.6231117082145651
-3.9595,0.1954770082101822,-0.252229364033705
-3.959,0.408880505363835,-0.07208651114585861
-3.9585,0.4942419042252961,-0.01910331912002144
-3.958,0.5049120790829789,-0.04029659593035631
-3.9575,0.4835717293676135,-0.1038764263613609
-3.957,0.6009436528021226,-0.2734226408440398
-3.9565,0.6116138276598051,-0.3052125560595421
-3.956,0.5262524287983441,-0.2098428104130352
-3.9555,0.4302208550792003,-0.08268314955102604
-3.955,0.3555296310754218,0.03387987290581572
-3.9545,0.4408910299368829,0.2352160026039969
-3.954,0.707645401378949,0.7544512844572011
-3.9535,0.1207857842064037,0.5107286011383502
-3.953,-0.754168554123573,-0.2840192792492073
-3.9525,-1.447729919872945,-0.9622041371799229
-3.952,-1.607782542738184,-1.258910012524611
-3.9515,-1.095614149569417,-0.8562377531282487
-3.951,-0.5194247072545548,-0.2840192792492073
-3.9505,-0.07127736323188383,0.2034260873884947
-3.95,0.2061471830678648,0.5319218779486851
-3.9495,0.3341892813600565,0.7120647308365314
-3.949,0.3661998059331045,0.7968378380778709
-3.9485,0.3661998059331045,0.8074344764830383
-3.948,0.3341892813600565,0.7862411996727035
-3.9475,0.3128489316446912,0.7544512844572011
-3.947,0.291508581929326,0.701468092431364
-3.9465,0.2488278824985954,0.627291623595192
-3.946,-0.1673089369510276,0.1610395337678249
-3.9455,-0.9142211769888124,-0.6443049850249
-3.945,-1.607782542738184,-1.38606967338662
-3.9445,-1.917217613610981,-1.735758740757146
-3.944,-1.362368521011484,-1.322489842955616
-3.9435,-0.6474668055467465,-0.7078848154559045
-3.943,-0.07127736323188383,-0.252229364033705
-3.9425,0.2808384070716433,-0.01910331912002144
-3.942,0.4515612047945656,0.04447651131098315
-3.9415,0.5049120790829789,0.002089957690313421
-3.941,0.4942419042252961,-0.06148987274069118
-3.9405,0.5369226036560266,-0.1568596183871981
-3.94,0.5796033030867573,-0.2310360872233701
-3.9395,0.5155822539406614,-0.2098428104130352
-3.939,0.4408910299368829,-0.1356663415768632
-3.9385,0.3768699807907871,-0.05089323433552374
-3.938,0.3661998059331045,0.07626642652648545
-3.9375,0.7503261008096795,0.5743084315693548
-3.937,0.6222840025174878,0.7862411996727035
-3.9365,-0.2526703358124887,0.09745970333682032
-3.936,-1.06360362499637,-0.6866915386455698
-3.9355,-1.543761493592088,-1.216523458903942
-3.935,-1.244996597576974,-0.9939940523954253
-3.9345,-0.690147504977477,-0.4111789401112165
-3.934,-0.1993194615240755,0.13984625695749
-3.9335,0.1314559590640864,0.55311515475902
-3.933,0.3021787567870086,0.7968378380778709
-3.9325,0.3661998059331045,0.9134008605347127
-3.932,0.3661998059331045,0.9557874141553824
-3.9315,0.3555296310754218,0.9451907757502149
-3.931,0.3235191065023739,0.9134008605347127
-3.9305,0.291508581929326,0.8604176685088755
-3.93,0.2808384070716433,0.7968378380778709
-3.9295,0.03542438534494258,0.5001319627331828
-3.929,-0.6688071552621118,-0.2628260024388724
-3.9285,-1.373038695869166,-1.068170521231597
-3.928,-1.767835165603424,-1.629792356705471
-3.9275,-1.415719395299897,-1.47084278062796
-3.927,-0.754168554123573,-0.9728007755850904
-3.9265,-0.1673089369510276,-0.4959520473525559
-3.926,0.2274875327832301,-0.2310360872233701
-3.9255,0.4302208550792003,-0.1144730647665284
-3.925,0.5049120790829789,-0.1038764263613609
-3.9245,0.4942419042252961,-0.1568596183871981
-3.924,0.5155822539406614,-0.1356663415768632
-3.9235,0.6116138276598051,-0.07208651114585861
-3.923,0.5689331282290746,-0.09327978795619347
-3.9225,0.4835717293676135,-0.1250697031716958
-3.922,0.3982103305061524,-0.1250697031716958
-3.9215,0.3555296310754218,-0.08268314955102604
-3.921,0.5796033030867573,0.2352160026039969
-3.9205,0.7289857510943143,0.701468092431364
-3.92,0.04609456020262521,0.2458126410091644
-3.9195,-0.7648387289812555,-0.4641621321370536
-3.919,-1.341028171296118,-1.004590690800593
-3.9185,-1.191645723288561,-0.8986243067489184
-3.918,-0.7008176798351597,-0.3793890248957141
-3.9175,-0.2206598112394408,0.1610395337678249
-3.917,0.09944543449103843,0.5637117931641874
-3.9165,0.2808384070716433,0.8286277532933731
-3.916,0.3555296310754218,0.9663840525605498
-3.9155,0.3661998059331045,1.019367244586387
-3.915,0.3555296310754218,1.019367244586387
-3.9145,0.3235191065023739,0.9875773293708847
-3.914,0.3021787567870086,0.9451907757502149
-3.9135,0.291508581929326,0.8816109453192104
-3.913,0.1741366584948169,0.701468092431364
-3.9125,-0.4020527838200457,0.04447651131098315
-3.912,-1.031593100423322,-0.8032545611024114
-3.9115,-1.554431668449771,-1.502632695843462
-3.911,-1.565101843307454,-1.661582271920973
-3.9105,-1.010252750707956,-1.152943628472937
-3.91,-0.3807124341046804,-0.6866915386455698
-3.9095,0.08877525963335578,-0.326405832869877
-3.909,0.3661998059331045,-0.1144730647665284
-3.9085,0.4729015545099309,-0.08268314955102604
-3.908,0.4835717293676135,-0.1568596183871981
-3.9075,0.4729015545099309,-0.2310360872233701
-3.907,0.5796033030867573,-0.1356663415768632
-3.9065,0.5796033030867573,-0.1250697031716958
-3.906,0.5049120790829789,-0.1568596183871981
-3.9055,0.4195506802215176,-0.1674562567923655
-3.905,0.3661998059331045,-0.1356663415768632
-3.9045,0.4302208550792003,0.03387987290581572
-3.904,0.6863050516635838,0.6166949851900245
-3.9035,0.08877525963335578,0.4895353243280153
-3.903,-0.7648387289812555,-0.2416327256285375
-3.9025,-1.426389570157579,-0.9092209451540858
-3.902,-1.533091318734406,-1.131750351662602
-3.9015,-1.031593100423322,-0.6760949002404023
-3.901,-0.4660738329661415,-0.07208651114585861
-3.9005,-0.02859666380115328,0.4471487707073456
-3.9,0.2274875327832301,0.7968378380778709
-3.8995,0.3448594562177392,0.9981739677760521
-3.899,0.3768699807907871,1.082947075017392
-3.8985,0.3661998059331045,1.104140351827727
-3.898,0.3448594562177392,1.082947075017392
-3.8975,0.3128489316446912,1.029963882991555
-3.897,0.291508581929326,0.9663840525605498
-3.8965,0.2594980573562781,0.8604176685088755
-3.896,-0.1673089369510276,0.3729723018711736
-3.8955,-0.8928808272734472,-0.4641621321370536
-3.895,-1.479740444445993,-1.258910012524611
-3.8945,-1.67180359188428,-1.555615887869299
-3.894,-1.191645723288561,-1.205926820498774
-3.8935,-0.5407650569699201,-0.7608680074817418
-3.893,-0.007256314085787988,-0.4111789401112165
-3.8925,0.3235191065023739,-0.2098428104130352
-3.892,0.4408910299368829,-0.1886495336027004
-3.8915,0.4729015545099309,-0.2310360872233701
-3.891,0.4515612047945656,-0.326405832869877
-3.8905,0.5262524287983441,-0.4217755785163839
-3.89,0.5902734779444399,-0.4535654937318862
-3.8895,0.5262524287983441,-0.3687923864905467
-3.889,0.4515612047945656,-0.2416327256285375
-3.8885,0.3875401556484697,-0.1038764263613609
-3.888,0.3768699807907871,0.07626642652648545
-3.8875,0.7503261008096795,0.6060983467848571
