Class_11_Cell_phone_Call/Class_11_Cell_phone_Call_Souku_1.csv

#Digilent WaveForms Oscilloscope Acquisition
#Device Name: EExplorer
#Serial Number: SN:210151A2B84A
#Date Time: 2020-12-15 14:20:03.499
#Sample rate: 2000Hz
#Samples: 16384
#Trigger: Source: Channel 1 Type: Edge Condition: Rising Level: 0 V Hyst.: Auto HoldOff: 0 s
#Channel 1: Range: 1 V/div Offset: 0 V Attenuation: 1 X
#Channel 2: Range: 1 V/div Offset: 0 V Attenuation: 1 X
#Power Supplies: ON
#Fixed Supply: ON
#Voltage: 3.3 V Readback: 3.326 V
#Positive Supply: ON
#Voltage: 3.7 V Readback: 3.712 V
#Current: 40 mA Readback: 21 mA
#Negative Supply: ON
#Voltage: -3.7 V Readback: -3.348 V
#Current: -40 mA Readback: -8 mA
#Reference 1: ON
#Voltage: 0 V
#Reference 2: ON
#Voltage: 0 V

Time (s),Channel 1 (V),Channel 2 (V)
-4.096,-1.565101843307454,1.549199164844759
-4.0955,-0.7755089038396563,1.25249328950034
-4.095,-0.04993701351610126,0.5849050699741271
-4.0945,0.408880505363835,0.1504428953626575
-4.094,0.6329541773749667,-0.1568596183869186
-4.0935,0.6649647019481504,-0.1992461720078196
-4.093,0.5902734779444399,-0.1462629799820306
-4.0925,0.5155822539407293,-0.02969995752529489
-4.092,0.6756348768059496,-0.1250697031716572
-4.0915,0.7289857510943143,-0.08268314955102604
-4.091,0.6329541773751706,0.1292496185523226
-4.0905,0.515582253940574,0.3517790250609832
-4.09,0.4195506802215176,0.5107286011383502
-4.0895,0.3128489316446912,0.55311515475902
-4.089,-0.1352984123775721,0.1186529801475503
-4.0885,-0.9035510021311299,-0.1992461720078678
-4.088,-1.629122892453549,0.2034260873884947
-4.0875,-2.205312334767888,0.7438546460515423
-4.087,-2.098610586190829,0.9981739677756666
-4.0865,-1.26633694729234,0.5743084315693548
-4.086,-0.5300948821129069,-0.04029659592979729
-4.0855,-0.0179264889431989,-0.5489352393786918
-4.085,0.2808384070716433,-0.8774310299385835
-4.0845,0.3982103305060457,-1.03638060601595
-4.084,0.4302208550791809,-1.068170521231568
-4.0835,0.408880505363835,-1.036380606016095
-4.083,0.3661998059331045,-0.9304142219644207
-4.0825,0.3235191065023448,-0.7608680074815682
-4.082,0.291508581929326,-0.570128516188728
-4.0815,0.2594980573562781,-0.3475991096802118
-4.081,0.02475421048747342,0.1398462569570467
-4.0805,-0.5407650569699201,0.7862411996727035
-4.08,-1.255666772434657,1.284283204715573
-4.0795,-1.533091318734153,1.316073119931046
-4.079,-0.7648387289804889,0.5743084315687862
-4.0785,0.07810508477567314,-0.05089323433552374
-4.078,0.5796033030863013,-0.400582301705731
-4.0775,0.7716664505250448,-0.4959520473524788
-4.077,0.7716664505250448,-0.4111789401112165
-4.0765,0.6863050516636614,-0.2734226408441651
-4.076,0.5689331282291231,-0.07208651114582006
-4.0755,0.6222840025174878,-0.02969995752518888
-4.075,0.7716664505250448,-0.07208651114585861
-4.0745,0.7076454013788326,0.08686306493182636
-4.074,0.5796033030867573,0.2776025562246667
-4.0735,0.4622313796522482,0.4259554938970107
-4.073,0.3768699807908648,0.4895353243279575
-4.0725,0.2808384070716433,0.1928294489833272
-4.072,-0.2313299860971235,-0.4323722169215513
-4.0715,-1.010252750707248,-0.3370024712751312
-4.071,-1.671803591884688,0.139846256957943
-4.0705,-2.119950935906951,0.6378882620003594
-4.07,-1.586442193023304,0.5849050699745704
-4.0695,-0.828859778126808,0.08686306493118064
-4.069,-0.2313299860971235,-0.4323722169215513
-4.0685,0.1527963087794516,-0.8032545611024114
-4.068,0.35552963107548,-1.025783967611014
-4.0675,0.4195506802215176,-1.121153713257435
-4.067,0.4195506802215176,-1.121153713257435
-4.0665,0.3875401556484309,-1.057573882826295
-4.066,0.3448594562177392,-0.9092209451540858
-4.0655,0.3128489316446912,-0.718481453861072
-4.065,0.2915085819293454,-0.5171453241630739
-4.0645,0.1207857842064037,-0.1462629799820306
-4.064,-0.3166913849585846,0.5107286011383502
-4.0635,-0.9142211769882689,1.104140351827187
-4.063,-1.458400094730268,1.411442865577148
-4.0625,-1.06360362499637,0.9345941373450475
-4.062,-0.2420001609555534,0.4683420475181045
-4.0615,0.3661998059333665,0.07626642652630233
-4.061,0.6542945270905358,-0.1250697031716958
-4.0605,0.7396559259519968,-0.2310360872233701
-4.06,0.6863050516634868,-0.2734226408439435
-4.0595,0.5796033030867573,-0.1674562567923655
-4.059,0.5475927785137094,-0.04029659593035631
-4.0585,0.7609962756671682,-0.1250697031716187
-4.058,0.7609962756673623,0.02328323450064829
-4.0575,0.6329541773751706,0.2458126410091644
-4.057,0.5049120790830953,0.4365521323020047
-4.0565,0.408880505363835,0.5425185163538525
-4.056,0.3128489316446912,0.5107286011383502
-4.0555,0.014084035629849,0.2881991946300365
-4.055,-0.7008176798357906,0.5213252395437489
-4.0545,-1.394379045584531,0.775644561267536
-4.054,-1.949228138183524,0.7544512844572204
-4.0535,-1.853196564464225,0.6908714540257532
-4.053,-1.127624674142465,0.2034260873884947
-4.0525,-0.4554036581084589,-0.326405832869877
-4.052,0.01408403562981991,-0.7290780922664515
-4.0515,0.2808384070716433,-0.9622041371799229
-4.051,0.3982103305061524,-1.068170521231597
-4.0505,0.4195506802214982,-1.068170521231597
-4.05,0.3982103305061524,-1.01518732920576
-4.0495,0.3661998059331045,-0.8880276683437509
-4.049,0.3235191065024127,-0.7184814538612262
-4.0485,0.2915085819292678,-0.5383386009729847
-4.048,0.2274875327832301,-0.2734226408440398
-4.0475,-0.2846808603850708,0.2776025562241656
-4.047,-1.042263275281664,0.9134008605351271
-4.0465,-1.767835165603424,1.369056311956912
-4.046,-1.629122892453676,1.135930267043441
-4.0455,-0.6367966306883263,0.5637117931638693
-4.045,0.1741366584948169,0.2140227257936621
-4.0445,0.6116138276598051,-0.07208651114585861
-4.044,0.7503261008096699,-0.2098428104130738
-4.0435,0.7396559259519968,-0.252229364033705
-4.043,0.6649647019482183,-0.1568596183871981
-4.0425,0.5582629533714891,0.00208995769016887
-4.042,0.6756348768059011,-0.04029659593035631
-4.0415,0.707645401378949,0.002089957690313421
-4.041,0.6116138276598925,0.1822328105779959
-4.0405,0.5049120790829013,0.3623756634661218
-4.04,0.4195506802215176,0.4895353243280153
-4.0395,0.35552963107548,0.5319218779486465
-4.039,0.2915085819288505,0.4047622170867626
-4.0385,-0.2313299860971235,0.5001319627331828
-4.038,-0.9889124009919021,0.8286277532930744
-4.0375,-1.629122892453928,0.9134008605348379
-4.037,-2.045259711903173,1.051157159801889
-4.0365,-1.522421143876723,0.6696781772158616
-4.036,-0.7861790786960869,0.03387987290531456
-4.0355,-0.1993194615240755,-0.5171453241628908
-4.035,0.1741366584948169,-0.8668343915334161
-4.0345,0.3555296310752568,-1.046977244421099
-4.034,0.4195506802215176,-1.089363798041932
-4.0335,0.4195506802215176,-1.046977244421262
-4.033,0.3875401556484989,-0.9198175835593689
-4.0325,0.3448594562177004,-0.7396747306712238
-4.032,0.3021787567870086,-0.5383386009732256
-4.0315,0.2808384070716627,-0.315809194464912
-4.031,-0.01792648894411112,0.1398462569580683
-4.0305,-0.722158029550525,0.775644561267536
-4.03,-1.458400094729958,1.28428320471511
-4.0295,-1.77850534046033,1.369056311956305
-4.029,-0.9248913518464952,0.701468092431364
-4.0285,-0.01792648894347063,0.3199891098453364
-4.028,0.5582629533715959,0.002089957690139944
-4.0275,0.7823366253827275,-0.1886495336027004
-4.027,0.7823366253827275,-0.1886495336027004
-4.0265,0.6756348768059981,-0.1250697031717536
-4.026,0.5582629533713921,0.01268659609548085
-4.0255,0.5689331282290746,0.02328323450064829
-4.025,0.664964701948131,-0.02969995752514069
-4.0245,0.6222840025174005,0.1080563417421516
-4.024,0.5262524287983441,0.2881991946298341
-4.0235,0.4408910299369606,0.4259554938968854
-4.023,0.3661998059328522,0.5001319627329226
-4.0225,0.08877525963335578,0.2140227257936621
-4.022,-0.5941159312577122,-0.4429688553261212
-4.0215,-1.341028171296662,-0.4005823017056539
-4.021,-1.938557963326346,0.03387987290581572
-4.0205,-2.215982509626095,0.4683420475176805
-4.02,-1.54376149359138,0.3941655786811133
-4.0195,-0.7648387289812555,-0.04029659593035631
-4.019,-0.1673089369510276,-0.4959520473525559
-4.0185,0.1954770082098522,-0.8244478379124476
-4.018,0.3768699807907871,-1.025783967610927
-4.0175,0.4302208550792003,-1.110557074852267
-4.017,0.4195506802215274,-1.110557074852267
-4.0165,0.3982103305061136,-1.046977244421127
-4.016,0.3555296310754218,-0.8986243067489184
-4.0155,0.31284893164473,-0.7184814538612359
-4.015,0.2915085819292095,-0.5171453241626017
-4.0145,0.1634664836371343,-0.1992461720078678
-4.014,-0.4127229586772043,0.425955493896442
-4.0135,-1.074273799854557,1.029963882991892
-4.013,-1.629122892453549,1.400846227172415
-4.0125,-1.191645723288561,0.8922075837243778
-4.012,-0.2953510352426176,0.224619364198444
-4.0115,0.3661998059331045,-0.1992461720078678
-4.011,0.6863050516635838,-0.4217755785163839
-4.0105,0.7609962756672943,-0.4535654937318573
-4.01,0.6969752265212663,-0.3370024712750445
-4.0095,0.5796033030867573,-0.1250697031716958
-4.009,0.5369226036560655,0.04447651131082894
-4.0085,0.7183155762366219,-0.0296999575250925
-4.008,0.707645401378949,0.07626642652648545
-4.0075,0.6009436528022196,0.2670059178193258
-4.007,0.4942419042252185,0.4365521323022649
-4.0065,0.408880505363835,0.5319218779486851
-4.006,0.3448594562177392,0.4895353243280153
-4.0055,0.1848068333519076,0.1080563417421323
-4.005,-0.4660738329661415,0.2670059178194992
-4.0045,-1.212986073003927,0.6802748156210291
-4.004,-1.842526389607144,1.051157159801851
-4.0035,-1.778505340461106,1.00877060618122
-4.003,-1.095614149569417,0.4153588554918433
-4.0025,-0.4340633083936952,-0.24163272562794
-4.002,0.02475421048725994,-0.7290780922662394
-4.0015,0.291508581929326,-1.01518732920576
-4.001,0.3982103305060554,-1.142346990067654
-4.0005,0.4302208550791809,-1.142346990067702
-4,0.408880505363835,-1.068170521231597
-3.9995,0.3661998059331045,-0.9198175835592532
-3.999,0.3235191065023739,-0.7078848154559045
-3.9985,0.291508581929326,-0.5065486857577234
-3.998,0.2274875327832301,-0.252229364033705
-3.9975,-0.2526703358124887,0.2987958330350016
-3.997,-0.9995825758502737,0.92399749893988
-3.9965,-1.714484291315011,1.37965295036208
-3.996,-1.714484291315011,1.549199164844759
-3.9955,-0.7861790786966207,1.241896651094903
-3.995,0.04609456020262521,0.7120647308365314
-3.9945,0.5582629533713921,0.1822328105781598
-3.994,0.7716664505250448,-0.1674562567923655
-3.9935,0.7823366253827275,-0.2840192792492073
-3.993,0.6969752265212663,-0.2310360872233701
-3.9925,0.5796033030867573,-0.07208651114585861
-3.992,0.7289857510943143,-0.1250697031716958
-3.9915,0.8036769750980928,-0.07208651114585861
-3.991,0.6969752265212663,0.1610395337678249
-3.9905,0.5582629533713921,0.4153588554918433
-3.99,0.4515612047945656,0.5955017083796896
-3.9895,0.3661998059331045,0.6802748156210291
-3.989,0.2061471830678648,0.5425185163538525
-3.9885,-0.3380317346739499,0.5425185163538525
-3.988,-1.084943974711735,0.8392243916985406
-3.9875,-1.650463242168915,0.701468092431364
-3.987,-1.917217613610981,0.6696781772158616
-3.9865,-1.351698346153801,0.3305857482505039
-3.986,-0.6688071552621118,-0.1780528951975329
-3.9855,-0.124628237520297,-0.6019184314042303
-3.985,0.2168173579255475,-0.8880276683437509
-3.9845,0.3768699807907871,-1.036380606016095
-3.984,0.4302208550792003,-1.078767159636765
-3.9835,0.4195506802215176,-1.05757388282643
-3.983,0.3875401556484697,-0.9728007755850904
-3.9825,0.3448594562177392,-0.8138511995075789
-3.982,0.3128489316446912,-0.6337083466197325
-3.9815,0.291508581929326,-0.4429688553267188
-3.981,0.02475421048725994,-0.05089323433552374
-3.9805,-0.6688071552621118,0.5955017083796896
-3.98,-1.373038695869166,1.157123543853563
-3.9795,-1.778505340461106,1.390249588767247
-3.979,-1.095614149569417,0.9875773293708847
-3.9785,-0.2206598112394408,0.5955017083796896
-3.978,0.3661998059331045,0.1716361721729923
-3.9775,0.6436243522328531,-0.06148987274069118
-3.977,0.707645401378949,-0.1568596183871981
-3.9765,0.6542945270905358,-0.1780528951975329
-3.976,0.5582629533713921,-0.09327978795619347
-3.9755,0.5902734779444399,-0.08268314955102604
-3.975,0.7289857510943143,-0.1674562567923655
-3.9745,0.6756348768059011,-0.01910331912002144
-3.974,0.5689331282290746,0.1928294489833272
-3.9735,0.4622313796522482,0.383568940276341
-3.973,0.3982103305061524,0.5001319627331828
-3.9725,0.5582629533713921,0.2670059178194992
-3.972,1.15579274540162,-0.04029659593035631
-3.9715,0.9637295979633325,0.2881991946298341
-3.971,0.02475421048725994,0.6590815388106942
-3.9705,-0.8715404775580819,0.9769806909657173
-3.97,-1.031593100423322,0.775644561267536
-3.9695,-0.690147504977477,0.1928294489833272
-3.969,-0.274010685527854,-0.3793890248957141
-3.9685,0.0674349099179905,-0.7714646458869092
-3.968,0.2701682322139607,-0.9833974139902578
-3.9675,0.3661998059331045,-1.05757388282643
-3.967,0.3875401556484697,-1.036380606016095
-3.9665,0.3768699807907871,-0.9410108603695881
-3.966,0.3448594562177392,-0.792657922697244
-3.9655,0.3128489316446912,-0.6125150698093976
-3.965,0.291508581929326,-0.4323722169215513
-3.9645,0.1954770082101822,-0.1568596183871981
-3.964,-0.3487019095316325,0.4153588554918433
-3.9635,-1.095614149569417,1.019367244586387
-3.963,-1.714484291315011,1.37965295036208
-3.9625,-1.330357996438436,1.093543713422559
-3.962,-0.4554036581084589,0.4153588554918433
-3.9615,0.2061471830678648,-0.1886495336027004
-3.961,0.5582629533713921,-0.4959520473525559
-3.9605,0.6756348768059011,-0.5277419625680583
-3.96,0.6649647019482183,-0.474758770542221
-3.9595,0.6009436528021226,-0.3052125560595421
-3.959,0.5475927785137094,-0.1250697031716958
-3.9585,0.707645401378949,-0.1674562567923655
-3.958,0.6969752265212663,-0.01910331912002144
-3.9575,0.5902734779444399,0.2140227257936621
-3.957,0.4835717293676135,0.4259554938970107
-3.9565,0.3982103305061524,0.5637117931641874
-3.956,0.3235191065023739,0.55311515475902
-3.9555,0.01408403562957729,0.309392471440169
-3.955,-0.7008176798351597,0.5107286011383502
-3.9545,-1.405049220442214,0.8074344764830383
-3.954,-1.970568487899394,0.7544512844572011
-3.9535,-1.821186039891837,0.627291623595192
-3.953,-1.084943974711735,0.1504428953626575
-3.9525,-0.423393133535411,-0.3581957480853793
-3.952,0.04609456020262521,-0.718481453861072
-3.9515,0.3021787567870086,-0.9410108603695881
-3.951,0.408880505363835,-1.025783967610927
-3.9505,0.4302208550792003,-1.036380606016095
-3.95,0.408880505363835,-0.9833974139902578
-3.9495,0.3661998059331045,-0.8562377531282487
-3.949,0.3235191065023739,-0.6866915386455698
-3.9485,0.291508581929326,-0.5171453241628908
-3.948,0.2594980573562781,-0.2840192792492073
-3.9475,-0.1139580626626144,0.1822328105781598
-3.947,-0.839529952985034,0.8074344764830383
-3.9465,-1.575772018165136,1.284283204715573
-3.946,-1.661133417026597,1.443232780793084
-3.9455,-0.7968492535543035,1.29487984312074
-3.945,0.02475421048725994,0.8074344764830383
-3.9445,0.5049120790829789,0.1928294489833272
-3.944,0.6863050516635838,-0.1568596183871981
-3.9435,0.6863050516635838,-0.3370024712750445
-3.943,0.6116138276598051,-0.3581957480853793
-3.9425,0.5262524287983441,-0.252229364033705
-3.942,0.6863050516635838,-0.326405832869877
-3.9415,0.8036769750980928,-0.3052125560595421
-3.941,0.7183155762366316,-0.05089323433552374
-3.9405,0.5796033030867573,0.2246193641988295
-3.94,0.4622313796522482,0.4471487707073456
-3.9395,0.3555296310754218,0.55311515475902
-3.939,-0.06060718837420119,0.1928294489833272
-3.9385,-0.8288597781273515,-0.2734226408440398
-3.938,-1.565101843307454,0.002089957690313421
-3.9375,-2.19464215991073,0.6060983467848571
-3.937,-2.013249187330125,0.849821030103708
-3.9365,-1.170305373573196,0.457745409112513
-3.936,-0.4554036581084589,-0.09327978795619347
-3.9355,0.03542438534494258,-0.5595318777835605
-3.935,0.3021787567870086,-0.8456411147230812
-3.9345,0.4195506802215176,-0.9939940523954253
-3.934,0.4408910299368829,-1.036380606016095
-3.9335,0.4195506802215176,-1.004590690800593
-3.933,0.3768699807907871,-0.9092209451540858
-3.9325,0.3341892813600565,-0.7608680074817418
-3.932,0.3021787567870086,-0.5913217929990628
-3.9315,0.2808384070716433,-0.3899856633008816
-3.931,0.04609456020262521,0.02328323450064829
-3.9305,-0.658136980404429,0.6590815388106942
-3.93,-1.394379045584531,1.199510097474233
-3.9295,-1.83185621474952,1.400846227172415
-3.929,-1.052933450138687,0.7120647308365314
-3.9285,-0.09261771294724913,0.2352160026039969
-3.928,0.5262524287983441,-0.07208651114585861
-3.9275,0.7716664505250448,-0.1674562567923655
-3.927,0.7716664505250448,-0.1462629799820306
-3.9265,0.6863050516635838,-0.1144730647665284
-3.926,0.5796033030867573,-0.04029659593035631
-3.9255,0.6009436528021226,-0.07208651114585861
-3.925,0.7503261008096795,-0.1886495336027004
-3.9245,0.6969752265212663,-0.07208651114585861
-3.924,0.5796033030867573,0.13984625695749
-3.9235,0.4729015545099309,0.309392471440169
-3.923,0.3875401556484697,0.4047622170866759
-3.9225,0.2061471830678648,0.2246193641988295
-3.922,-0.3487019095316325,-0.2310360872233701
-3.9215,-1.1062843244271,-0.008506680714854012
-3.921,-1.725154466172693,0.2564092794143318
-3.9205,-2.183971985053047,0.5107286011383502
-3.92,-1.757164990745741,0.5107286011383502
-3.9195,-0.9569018764195432,0.08686306493165288
-3.919,-0.3060212101009019,-0.3793890248957141
-3.9185,0.1207857842064037,-0.7290780922662394
-3.918,0.3448594562177392,-0.9304142219644207
-3.9175,0.4302208550792003,-1.004590690800593
-3.917,0.4302208550792003,-1.004590690800593
-3.9165,0.408880505363835,-0.9410108603695881
-3.916,0.3661998059331045,-0.8032545611024114
-3.9155,0.3235191065023739,-0.6337083466197325
-3.915,0.3021787567870086,-0.4535654937318862
-3.9145,0.1848068333524996,-0.1780528951975329
-3.914,-0.391382608962363,0.4047622170866759
-3.9135,-1.06360362499637,1.00877060618122
-3.913,-1.661133417026597,1.390249588767247
-3.9125,-1.287677297007705,0.9451907757502149
-3.912,-0.4020527838200457,0.4365521323021782
-3.9115,0.2701682322139607,0.07626642652648545
-3.911,0.6116138276598051,-0.2098428104130352
-3.9105,0.7183155762366316,-0.3793890248957141
-3.91,0.6649647019482183,-0.3687923864905467
-3.9095,0.5689331282290746,-0.2098428104130352
-3.909,0.5262524287983441,-0.06148987274069118
-3.9085,0.7289857510943143,-0.1250697031716958
-3.908,0.7396559259519968,-0.01910331912002144
-3.9075,0.6329541773751706,0.1716361721729923
-3.907,0.5155822539406614,0.3623756634660061
-3.9065,0.4302208550792003,0.4789386859228479
-3.906,0.2808384070716433,0.5425185163538525
-3.9055,-0.274010685527854,0.6378882620003594
-3.905,-1.052933450138687,0.9663840525605498
-3.9045,-1.735824641030376,1.273686566310405
-3.904,-2.23732285934146,1.432636142387917
-3.9035,-1.842526389607202,1.135930267043229
-3.903,-1.010252750707956,0.4153588554918433
-3.9025,-0.3380317346739499,-0.2628260024388724
-3.902,0.1101156093487211,-0.7290780922662394
-3.9015,0.3448594562177392,-0.9728007755850904
-3.901,0.4302208550792003,-1.05757388282643
-3.9005,0.4408910299368829,-1.025783967610927
-3.9,0.4195506802215176,-0.9304142219644207
-3.8995,0.3768699807907871,-0.792657922697244
-3.899,0.3341892813600565,-0.6231117082145651
-3.8985,0.3128489316446912,-0.4429688553267188
-3.898,0.2701682322139607,-0.2098428104130352
-3.8975,-0.1352984123779797,0.2987958330350016
-3.897,-0.8822106524157645,0.8922075837243778
-3.8965,-1.618452717595867,1.347863035146577
-3.896,-1.767835165603424,1.580989080060261
-3.8955,-0.8928808272734472,1.305476481525908
-3.895,-0.03926683865883591,0.6802748156210291
-3.8945,0.4942419042252961,0.05507314971615059
-3.894,0.707645401378949,-0.3158091944647096
-3.8935,0.7183155762366316,-0.4535654937318862
-3.893,0.6649647019482183,-0.4641621321370536
-3.8925,0.5689331282290746,-0.2946159176543747
-3.892,0.6756348768059011,-0.252229364033705
-3.8915,0.7609962756673623,-0.1674562567923655
-3.891,0.6756348768059011,0.08686306493165288
-3.8905,0.5475927785137094,0.3305857482505039
-3.89,0.4515612047945656,0.5107286011383502
-3.8895,0.3875401556484697,0.6060983467848571
-3.889,0.4515612047945656,0.3729723018711736
-3.8885,0.1634664836371343,0.2246193641988295
-3.888,-0.6047861061160158,0.5637117931641874
-3.8875,-1.30901764672307,0.3941655786815084
-3.887,-1.714484291315011,0.2458126410091644
-3.8865,-1.319687821580753,0.01268659609548085
