Class_11_Cell_phone_Call/Class_11_Cell_phone_Call_Souku_8.csv

#Digilent WaveForms Oscilloscope Acquisition
#Device Name: EExplorer
#Serial Number: SN:210151A2B84A
#Date Time: 2021-02-04 11:11:31.135
#Sample rate: 2000Hz
#Samples: 16384
#Trigger: Source: Channel 1 Type: Edge Condition: Rising Level: 0 V Hyst.: Auto HoldOff: 0 s
#Channel 1: Range: 1 V/div Offset: 0 V Attenuation: 1 X
#Channel 2: Range: 1 V/div Offset: 0 V Attenuation: 1 X
#Power Supplies: ON
#Fixed Supply: ON
#Voltage: 3.3 V Readback: 3.32 V
#Positive Supply: ON
#Voltage: 3.7 V Readback: 3.715 V
#Current: 40 mA Readback: 22 mA
#Negative Supply: ON
#Voltage: -3.7 V Readback: -3.349 V
#Current: -40 mA Readback: -8 mA
#Reference 1: ON
#Voltage: 0 V
#Reference 2: ON
#Voltage: 0 V

Time (s),Channel 1 (V),Channel 2 (V)
-4.096,-0.2846808603855366,0.13984625695749
-4.0955,-0.6154562809733977,-0.3158091944642952
-4.095,-0.7968492535540803,-0.6337083466199156
-4.0945,-0.5514352318276028,-0.8350444763179138
-4.094,0.0460945602020818,-0.9198175835591762
-4.0935,0.4729015545100861,-0.7078848154554516
-4.093,0.6436243522328531,-0.2098428104130352
-4.0925,0.6009436528021614,0.3411823866551701
-4.092,0.4515612047944297,0.7544512844573746
-4.0915,0.3021787567870086,0.9451907757502149
-4.091,0.2488278824985954,0.9663840525605498
-4.0905,0.4622313796522676,0.8180311148880806
-4.09,0.4835717293676135,0.6802748156210291
-4.0895,0.3875401556484697,0.5743084315693548
-4.089,0.2594980573563945,0.4471487707074613
-4.0885,0.1634664836371343,0.309392471440169
-4.088,0.142126133921769,0.2670059178194992
-4.0875,0.0887752596334043,0.6378882620000221
-4.087,-0.3807124341052627,0.5425185163531971
-4.0865,-1.020922925565639,-0.1780528951975329
-4.086,-1.469070269587903,-0.2204394488181641
-4.0855,-1.959898313041653,0.4365521323025348
-4.085,-1.895877263895616,0.8286277532933731
-4.0845,-1.277007122150585,0.5849050699747438
-4.084,-0.6688071552617236,0.1716361721726936
-4.0835,-0.2420001609548061,-0.1568596183871981
-4.083,0.00341386077189465,-0.3370024712750445
-4.0825,0.1101156093487405,-0.3899856633008334
-4.082,0.1314559590640864,-0.3370024712750445
-4.0815,0.09944543449103843,-0.2310360872233701
-4.081,0.06743490991801962,-0.09327978795631875
-4.0805,0.03542438534494258,0.06566978812131802
-4.08,0.02475421048725994,0.2034260873884947
-4.0795,-0.2313299860968906,0.07626642652660112
-4.079,-0.7541685541237089,-0.432372216921773
-4.0785,-0.9035510021311299,-0.6760949002404023
-4.078,-0.7328282044083627,-0.7714646458868225
-4.0775,0.04609456020319778,-0.9622041371798941
-4.077,0.6756348768059011,-0.9304142219644207
-4.0765,0.9103787236747057,-0.6125150698096867
-4.076,0.8570278493863216,-0.1144730647660272
-4.0755,0.6542945270905358,0.4365521323021782
-4.075,0.4302208550792003,0.8286277532933731
-4.0745,0.2808384070717403,1.040560521396674
-4.074,0.3875401556484697,0.9875773293708847
-4.0735,0.4302208550792003,0.849821030103708
-4.073,0.3555296310754897,0.7438546460521301
-4.0725,0.2488278824985954,0.627291623595192
-4.072,0.1741366584948169,0.4789386859228479
-4.0715,0.1207857842064522,0.3411823866557965
-4.071,0.05676473505986145,0.5955017083801811
-4.0705,-0.4340633083930936,1.135930267043229
-4.07,-0.9675720512767405,1.061753798207124
-4.0695,-1.426389570158035,0.2776025562246474
-4.069,-1.927887788468663,0.2564092794143318
-4.0685,-1.757164990745741,0.4153588554918433
-4.068,-1.148965023857326,0.235216002603756
-4.0675,-0.5941159312583333,-0.02969995752518888
-4.067,-0.1886492866663929,-0.2310360872233701
-4.0665,0.02475421048734728,-0.3370024712750637
-4.066,0.1207857842064037,-0.3581957480853793
-4.0655,0.1314559590640864,-0.3158091944647096
-4.065,0.1101156093487405,-0.2310360872234472
-4.0645,0.04609456020262521,-0.1356663415768632
-4.064,0.00341386077189465,-0.01910331912002144
-4.0635,-0.007256314085778284,0.0974597033367143
-4.063,-0.03926683865919498,0.1822328105778706
-4.0625,-0.4340633083930936,-0.1356663415768632
-4.062,-0.6901475049772441,-0.506548685757386
-4.0615,-0.8608703027001469,-0.877431029938834
-4.061,-0.5834457564006506,-1.152943628472937
-4.0605,-0.02859666380115328,-1.121153713257435
-4.06,0.3875401556486153,-0.8032545611018332
-4.0595,0.5475927785137094,-0.1674562567923655
-4.059,0.5155822539406614,0.4789386859228479
-4.0585,0.3982103305062591,0.8710143069136863
-4.058,0.2701682322139607,1.029963882991555
-4.0575,0.3021787567870086,1.082947075017392
-4.057,0.398210330506065,1.029963882991603
-4.0565,0.3448594562177392,0.8922075837243778
-4.056,0.2488278824985954,0.7120647308365314
-4.0555,0.1634664836372119,0.5319218779488489
-4.055,0.1207857842065687,0.3729723018712507
-4.0545,0.3021787567870086,0.457745409112513
-4.054,0.5475927785134862,0.7332580076466158
-4.0535,0.05676473505962855,0.1928294489825369
-4.053,-0.690147504977477,-0.6760949002404023
-4.0525,-1.458400094730627,-0.8986243067489184
-4.052,-1.714484291314623,-0.3370024712747746
-4.0515,-1.287677297007705,-0.04029659593035631
-4.051,-0.7434983792658902,0.002089957690313421
-4.0505,-0.3060212101012998,-0.05089323433547555
-4.05,-0.03926683865883591,-0.1250697031716958
-4.0495,0.08877525963335578,-0.1780528951975329
-4.049,0.1314559590640476,-0.1992461720078486
-4.0485,0.1207857842063843,-0.1886495336026618
-4.048,0.09944543449103843,-0.1462629799820306
-4.0475,0.06743490991801962,-0.09327978795624167
-4.047,0.04609456020260581,-0.02969995752512141
-4.0465,0.02475421048725994,0.04447651131098315
-4.046,-0.3060212101006011,-0.1992461720076462
-4.0455,-0.6261264558315851,-0.6125150698097349
-4.045,-0.8502001278427167,-0.9833974139902578
-4.0445,-0.839529952985034,-1.195330182093607
-4.044,-0.3273615598158208,-1.152943628472686
-4.0435,0.1634664836371343,-0.8774310299385835
-4.043,0.4408910299368829,-0.4111789401112165
-4.0425,0.4942419042252476,0.1398462569569889
-4.042,0.4195506802215176,0.5637117931641874
-4.0415,0.3021787567870086,0.8286277532933731
-4.041,0.2701682322139898,0.8710143069140044
-4.0405,0.4195506802215176,0.6484849004054594
-4.04,0.4195506802215176,0.5743084315693548
-4.0395,0.3341892813601341,0.5531151547590393
-4.039,0.2381577076408351,0.5213252395434598
-4.0385,0.1527963087794516,0.457745409112513
-4.038,0.1741366584947975,0.4471487707073553
-4.0375,0.3768699807904474,0.8392243916984731
-4.037,0.00341386077189465,0.7650479228623686
-4.0365,-0.572775581542968,0.002089957690313421
-4.036,-1.212986073004218,-0.3052125560591566
-4.0355,-1.533091318734406,0.1186529801471552
-4.035,-1.223656247861609,0.2352160026039969
-4.0345,-0.7328282044086539,0.09745970333694559
-4.034,-0.3166913849585846,-0.08268314955102604
-4.0335,-0.04993701351651855,-0.2204394488182027
-4.033,0.07810508477555669,-0.2840192792491494
-4.0325,0.1314559590640766,-0.2840192792491591
-4.032,0.1207857842064037,-0.2310360872233701
-4.0315,0.1101156093487308,-0.1568596183872655
-4.031,0.08877525963333636,-0.0614898727405948
-4.0305,0.0674349099179905,0.04447651131098315
-4.03,0.05676473506031757,0.1292496185522455
-4.0295,-0.1139580626629444,0.07626642652616741
-4.029,-0.4767440078238243,-0.2734226408440398
-4.0285,-0.6367966306890638,-0.5807251545938954
-4.028,-0.7648387289809838,-0.8668343915334643
-4.0275,-0.4660738329661415,-0.9198175835592532
-4.027,0.01408403562957729,-0.7820612842920766
-4.0265,0.3341892813597654,-0.400582301706396
-4.026,0.4515612047945656,0.09745970333682032
-4.0255,0.408880505363835,0.55311515475902
-4.025,0.3235191065024515,0.8498210301034381
-4.0245,0.2488278824986827,0.9981739677760809
-4.024,0.3448594562177392,1.029963882991555
-4.0235,0.3982103305061039,0.9663840525606077
-4.023,0.3235191065022962,0.8498210301035538
-4.0225,0.2381577076409128,0.6802748156210291
-4.022,0.1634664836372022,0.5001319627333467
-4.0215,0.1207857842063164,0.3305857482503015
-4.021,0.02475421048725994,0.1080563417419877
-4.0205,-0.3380317346739499,-0.3370024712750445
-4.02,-0.508754532397202,-0.8138511995078873
-4.0195,-0.8715404775580819,-1.152943628472937
-4.019,-1.437059745015262,-0.570128516188728
-4.0185,-1.490410619303627,0.1080563417413709
-4.018,-1.06360362499637,0.2352160026039969
-4.0175,-0.572775581542968,0.1080563417419877
-4.017,-0.2099896363820881,-0.06148987274053697
-4.0165,0.01408403562966463,-0.1886495336027582
-4.016,0.1101156093487211,-0.252229364033705
-4.0155,0.131455959064067,-0.2416327256285472
-4.015,0.1207857842063746,-0.1886495336026329
-4.0145,0.08877525963335578,-0.1144730647665284
-4.014,0.06743490991800991,-0.01910331912010818
-4.0135,0.0567647350601817,0.08686306493163361
-4.013,-0.08194753808956648,0.06566978812131802
-4.0125,-0.5407650569699201,-0.3687923864905467
-4.012,-0.8075194284121315,-0.8456411147233415
-4.0115,-0.9675720512772257,-1.131750351662602
-4.011,-0.722158029550525,-0.9198175835592532
-4.0105,-0.2420001609552428,-0.4747587705426258
-4.01,0.142126133921769,-0.07208651114585861
-4.0095,0.3448594562177392,0.3623756634660061
-4.009,0.376869980790758,0.7120647308362134
-4.0085,0.3235191065023059,0.9028042221296031
-4.008,0.2488278824985954,0.9663840525605498
-4.0075,0.2808384070716142,0.9769806909657076
-4.007,0.3555296310753927,0.9451907757501186
-4.0065,0.3235191065023739,0.8392243916985406
-4.006,0.2594980573562781,0.6908714540261965
-4.0055,0.2061471830678163,0.5213252395433731
-4.005,0.1527963087794516,0.3623756634660061
-4.0045,0.3555296310754218,0.4789386859228479
-4.004,0.4835717293671962,0.9769806909656594
-4.0035,0.02475421048725994,0.9134008605347127
-4.003,-0.5834457564006506,0.383568940276341
-4.0025,-1.319687821580083,0.6166949851898125
-4.002,-1.767835165603424,1.029963882991555
-4.0015,-1.437059745015262,0.8604176685088755
-4.001,-0.8822106524162691,0.4153588554922481
-4.0005,-0.4020527838197546,0.02328323450042662
-4,-0.08194753808956648,-0.2204394488182027
-3.9995,0.08877525963335578,-0.3052125560595421
-3.999,0.142126133921769,-0.2734226408440398
-3.9985,0.142126133921769,-0.1780528951975329
-3.998,0.1101156093487211,-0.04029659593035631
-3.9975,0.08877525963335578,0.1080563417419877
-3.997,0.05676473506030786,0.2458126410091644
-3.9965,0.01408403562957729,0.3517790250608387
-3.996,-0.4020527838200457,0.04447651131098315
-3.9955,-0.8502001278427167,-0.474758770542221
-3.995,-1.06360362499637,-0.8668343915334161
-3.9945,-0.7114878546928423,-1.078767159636765
-3.994,0.01408403562957729,-1.0999604364471
-3.9935,0.5155822539406614,-0.8456411147230812
-3.993,0.707645401378949,-0.3475991096802118
-3.9925,0.6756348768059011,0.2987958330350016
-3.992,0.5155822539406614,0.7332580076468663
-3.9915,0.3555296310754218,0.92399749893988
-3.991,0.3021787567870086,0.9345941373450475
-3.9905,0.4302208550792003,0.92399749893988
-3.99,0.4195506802215176,0.8074344764830383
-3.9895,0.3661998059331045,0.6378882620003594
-3.989,0.2808384070716433,0.4471487707073456
-3.9885,0.2061471830678648,0.2352160026039969
-3.988,0.1954770082101822,0.1186529801471552
-3.9875,0.3661998059331045,0.4895353243280153
-3.987,-0.007256314085787988,0.6166949851900245
-3.9865,-0.4554036581084589,-0.04029659593035631
-3.986,-1.1062843244271,-0.3581957480853793
-3.9855,-1.533091318734406,0.1080563417419877
-3.985,-1.277007122150022,0.2670059178194992
-3.9845,-0.7968492535543035,0.13984625695749
-3.984,-0.3593720843893152,-0.04029659593035631
-3.9835,-0.07127736323188383,-0.1674562567923655
-3.983,0.07810508477567314,-0.2098428104130352
-3.9825,0.142126133921769,-0.1886495336027004
-3.982,0.142126133921769,-0.1250697031716958
-3.9815,0.1207857842064037,-0.02969995752518888
-3.981,0.08877525963335578,0.07626642652648545
-3.9805,0.05676473506030786,0.1716361721729923
-3.98,0.04609456020262521,0.2776025562246667
-3.9795,-0.01792648894347063,0.2458126410091644
-3.979,-0.156638762093345,-0.04029659593035631
-3.9785,-0.3700422592469978,-0.4217755785163839
-3.978,-0.423393133535411,-0.7290780922662394
-3.9775,-0.09261771294724913,-0.9092209451540858
-3.977,0.291508581929326,-0.8562377531282487
-3.9765,0.5155822539406614,-0.5595318777835605
-3.976,0.5475927785137094,-0.1038764263613609
-3.9755,0.4622313796522482,0.383568940276341
-3.975,0.3448594562177392,0.6908714540261965
-3.9745,0.2488278824985954,0.8180311148882058
-3.974,0.3661998059331045,0.9557874141553824
-3.9735,0.408880505363835,0.9028042221295453
-3.973,0.3555296310754218,0.7332580076468663
-3.9725,0.2808384070716433,0.5107286011383502
-3.972,0.2061471830678648,0.2881991946298341
-3.9715,0.1527963087794516,0.1186529801471552
-3.971,0.2594980573562781,0.04447651131098315
-3.9705,-0.07127736323188383,-0.3899856633008816
-3.97,-0.7008176798351597,-1.068170521231597
-3.9695,-1.415719395299897,-1.619195718300304
-3.969,-1.949228138184029,-1.195330182093607
-3.9685,-1.639793067311232,-0.5171453241628908
-3.968,-1.020922925565639,-0.1674562567923655
-3.9675,-0.4767440078238243,-0.04029659593035631
-3.967,-0.1139580626626144,-0.01910331912002144
-3.9665,0.07810508477567314,-0.05089323433552374
-3.966,0.1527963087794516,-0.08268314955102604
-3.9655,0.1634664836371343,-0.09327978795619347
-3.965,0.1314559590640864,-0.08268314955102604
-3.9645,0.09944543449103843,-0.06148987274069118
-3.964,0.0674349099179905,-0.01910331912002144
-3.9635,0.05676473506030786,0.03387987290581572
-3.963,-0.06060718837420119,-0.05089323433552374
-3.9625,-0.572775581542968,-0.5913217929990628
-3.962,-0.8715404775580819,-1.110557074852267
-3.9615,-1.010252750707956,-1.364876396576285
-3.961,-0.7008176798351597,-1.05757388282643
-3.9605,-0.1032878878049318,-0.9304142219644207
-3.96,0.3448594562177392,-0.8138511995075789
-3.9595,0.5262524287983441,-0.4641621321370536
-3.959,0.5155822539406614,-0.04029659593035631
-3.9585,0.408880505363835,0.2881991946298341
-3.958,0.3021787567870086,0.5107286011383502
-3.9575,0.2701682322139607,0.6166949851900245
-3.957,0.2808384070716433,0.6590815388106942
-3.9565,0.2808384070716433,0.627291623595192
-3.956,0.3341892813600565,0.6060983467848571
-3.9555,0.3448594562177392,0.5743084315693548
-3.955,0.291508581929326,0.4895353243280153
-3.9545,0.3768699807907871,0.6060983467848571
-3.954,0.4195506802215176,1.104140351827727
-3.9535,-0.1032878878049318,1.167720182258731
-3.953,-0.6688071552621118,0.4047622170866759
-3.9525,-1.351698346153801,0.1504428953626575
-3.952,-1.565101843307454,0.4259554938970107
-3.9515,-1.170305373573196,0.4047622170866759
-3.951,-0.658136980404429,0.2352160026039969
-3.9505,-0.2526703358124887,0.09745970333682032
-3.95,0.00341386077189465,0.03387987290581572
-3.9495,0.1207857842064037,0.03387987290581572
-3.949,0.1527963087794516,0.08686306493165288
-3.9485,0.1527963087794516,0.1610395337678249
-3.948,0.1207857842064037,0.2458126410091644
-3.9475,0.08877525963335578,0.3199891098453364
-3.947,0.05676473506030786,0.3941655786815084
-3.9465,0.02475421048725994,0.4153588554918433
-3.946,-0.3700422592469978,0.03387987290581572
-3.9455,-0.7968492535543035,-0.5489352393783931
-3.945,-0.9569018764195432,-0.9092209451540858
-3.9445,-0.7648387289812555,-0.9304142219644207
-3.944,-0.2206598112394408,-0.8986243067489184
-3.9435,0.2594980573562781,-0.7820612842920766
-3.943,0.5049120790829789,-0.474758770542221
-3.9425,0.5262524287983441,-0.05089323433552374
-3.942,0.4302208550792003,0.309392471440169
-3.9415,0.3341892813600565,0.5107286011383502
-3.941,0.2808384070716433,0.6484849004055269
-3.9405,0.2701682322139607,0.7120647308365314
-3.94,0.2488278824985954,0.6378882620003594
-3.9395,0.2168173579255475,0.4895353243280153
-3.939,0.1741366584948169,0.3305857482505039
-3.9385,0.1527963087794516,0.1822328105781598
-3.938,0.1634664836371343,0.1080563417419877
-3.9375,0.4729015545099309,0.5001319627331828
-3.937,0.3555296310754218,1.114736990232894
-3.9365,-0.2846808603855366,1.029963882991555
-3.936,-1.1062843244271,1.051157159801889
-3.9355,-1.746494815888059,1.347863035146577
-3.935,-1.586442193022819,1.178316820663898
-3.9345,-1.031593100423322,0.6696781772158616
-3.934,-0.4980843575391895,0.2140227257936621
-3.9335,-0.1352984123779797,-0.06148987274069118
-3.933,0.0674349099179905,-0.1568596183871981
-3.9325,0.1527963087794516,-0.1356663415768632
-3.932,0.1634664836371343,-0.02969995752518888
-3.9315,0.1527963087794516,0.1080563417419877
-3.931,0.1101156093487211,0.2458126410091644
-3.9305,0.08877525963335578,0.383568940276341
-3.93,0.07810508477567314,0.4895353243280153
-3.9295,-0.07127736323188383,0.4471487707073456
-3.929,-0.4660738329661415,-0.01910331912002144
-3.9285,-0.658136980404429,-0.3899856633008816
-3.928,-0.5407650569699201,-0.3899856633008816
-3.9275,-0.124628237520297,-0.3158091944647096
-3.927,0.291508581929326,-0.2840192792492073
-3.9265,0.5369226036560266,-0.1356663415768632
-3.926,0.5796033030867573,0.1928294489833272
-3.9255,0.4835717293676135,0.5213252395435176
-3.925,0.3555296310754218,0.7226613692416989
-3.9245,0.2701682322139607,0.7968378380778709
-3.924,0.3768699807907871,0.8286277532933731
-3.9235,0.408880505363835,0.7332580076468663
-3.923,0.3555296310754218,0.5637117931641874
-3.9225,0.291508581929326,0.3729723018711736
-3.922,0.2274875327832301,0.1822328105781598
-3.9215,0.1741366584948169,0.01268659609548085
-3.921,0.0674349099179905,0.002089957690313421
-3.9205,-0.4020527838200457,-0.2840192792492073
-3.92,-0.9782422261349084,-0.9410108603695881
-3.9195,-1.607782542738184,-1.322489842955616
-3.919,-2.23732285934146,-0.6125150698093976
-3.9185,-2.098610586191586,0.13984625695749
-3.918,-1.319687821580753,0.2987958330350016
-3.9175,-0.658136980404429,0.1610395337678249
-3.917,-0.1886492866663929,-0.02969995752518888
-3.9165,0.0674349099179905,-0.1674562567923655
-3.916,0.1741366584948169,-0.2416327256285375
-3.9155,0.1848068333524996,-0.2416327256285375
-3.915,0.1527963087794516,-0.2098428104130352
-3.9145,0.1207857842064037,-0.1462629799820306
-3.914,0.08877525963335578,-0.06148987274069118
-3.9135,0.0674349099179905,0.02328323450064829
-3.913,-0.04993701351651855,-0.01910331912002144
-3.9125,-0.6154562809736985,-0.5277419625680583
-3.912,-1.180975548430879,-1.110557074852267
-3.9115,-1.255666772434657,-1.449649503817625
-3.911,-0.5514352318276028,-1.598002441489969
-3.9105,0.1954770082101822,-1.449649503817625
-3.91,0.6329541773751706,-1.078767159636765
-3.9095,0.7396559259519968,-0.474758770542221
-3.909,0.6436243522328531,0.1928294489833272
-3.9085,0.4835717293676135,0.6378882620003594
-3.908,0.3448594562177392,0.8604176685088755
-3.9075,0.408880505363835,0.7332580076468663
-3.907,0.5369226036560266,0.4895353243280153
-3.9065,0.4835717293676135,0.4259554938970107
-3.906,0.3768699807907871,0.4047622170866759
-3.9055,0.2808384070716433,0.3623756634660061
-3.905,0.2168173579255475,0.2987958330350016
-3.9045,0.2168173579255475,0.383568940276341
-3.904,-0.2633405106701714,0.3517790250608387
-3.9035,-0.9142211769888124,-0.3052125560595421
-3.903,-1.394379045584531,-1.046977244421262
-3.9025,-1.938557963326346,-1.51322933424863
-3.902,-2.130621110764634,-1.004590690800593
-3.9015,-1.490410619303675,-0.474758770542221
-3.901,-0.807519428411986,-0.2204394488182027
-3.9005,-0.2953510352432193,-0.1356663415768632
-3.9,0.01408403562957729,-0.1462629799820306
-3.8995,0.1527963087794516,-0.1780528951975329
-3.899,0.1954770082101822,-0.2098428104130352
-3.8985,0.1848068333524996,-0.2204394488182027
-3.898,0.1527963087794516,-0.2098428104130352
-3.8975,0.1314559590640864,-0.1886495336027004
-3.897,0.09944543449103843,-0.1462629799820306
-3.8965,0.04609456020262521,-0.1250697031716958
-3.896,-0.3700422592469978,-0.4959520473525559
-3.8955,-0.7434983792658902,-0.9939940523954253
-3.895,-0.9355615267041777,-1.333086481360783
-3.8945,-0.8928808272734472,-1.523825972653797
-3.894,-0.3593720843893152,-1.449649503817625
-3.8935,0.1527963087794516,-1.110557074852267
-3.893,0.4515612047945656,-0.4959520473525559
-3.8925,0.5155822539406614,0.1610395337678249
-3.892,0.4515612047945656,0.5955017083796896
-3.8915,0.3448594562177392,0.8180311148882058
-3.891,0.3448594562177392,0.9451907757502149
-3.8905,0.5582629533713921,1.114736990232894
-3.89,0.5582629533713921,0.9875773293708847
-3.8895,0.4408910299368829,0.7226613692416989
-3.889,0.3128489316446912,0.4683420475176805
-3.8885,0.2168173579255475,0.2776025562246667
-3.888,0.1634664836371343,0.1716361721729923
