Class_11_Cell_phone_Call/Class_11_Cell_phone_Call_UZ_10.csv

#Digilent WaveForms Oscilloscope Acquisition
#Device Name: EExplorer
#Serial Number: SN:210151A2B84A
#Date Time: 2020-12-23 13:16:11.388
#Sample rate: 2000Hz
#Samples: 16384
#Trigger: Source: Channel 1 Type: Edge Condition: Rising Level: 0 V Hyst.: Auto HoldOff: 0 s
#Channel 1: Range: 1 V/div Offset: 0 V Attenuation: 1 X
#Channel 2: Range: 1 V/div Offset: 0 V Attenuation: 1 X
#Power Supplies: ON
#Fixed Supply: ON
#Voltage: 3.3 V Readback: 3.33 V
#Positive Supply: ON
#Voltage: 3.7 V Readback: 3.704 V
#Current: 40 mA Readback: 19 mA
#Negative Supply: ON
#Voltage: -3.7 V Readback: -3.996 V
#Current: -40 mA Readback: -8 mA
#Reference 1: ON
#Voltage: 0 V
#Reference 2: ON
#Voltage: 0 V

Time (s),Channel 1 (V),Channel 2 (V)
-4.096,0.3021787567870086,-0.4217755785163839
-4.0955,0.4302208550790839,-0.5277419625679619
-4.095,0.1954770082098134,-0.6549016234300963
-4.0945,-0.2099896363817582,-0.6866915386455698
-4.094,-0.1352984123780476,-0.2204394488186267
-4.0935,-0.03926683865878739,0.17163617217332
-4.093,0.01408403562957729,0.5319218779486851
-4.0925,-0.5727755815424342,0.7544512844569987
-4.092,-1.533091318735085,1.061753798207394
-4.0915,-2.280003558772191,1.432636142387917
-4.091,-2.845522826229371,1.718745379327438
-4.0905,-2.536087755355739,1.570392441654544
-4.09,-1.618452717595867,0.9663840525605498
-4.0895,-0.7328282044082075,0.3729723018711736
-4.089,-0.1246282375208502,-0.08268314955061168
-4.0885,0.2061471830678648,-0.3581957480853793
-4.088,0.3341892813600565,-0.5065486857577234
-4.0875,0.3555296310754024,-0.5595318777835123
-4.087,0.3341892813600275,-0.5595318777835316
-4.0865,0.3021787567870086,-0.5277419625680583
-4.086,0.2808384070716627,-0.485355408947427
-4.0855,0.2701682322139995,-0.4323722169214742
-4.085,0.3128489316446912,-0.3475991096802118
-4.0845,0.7823366253823005,0.05507314971578436
-4.084,1.369196242554943,0.7438546460525735
-4.0835,1.006410297394063,1.33726639674141
-4.083,0.2061471830678648,1.538602526439591
-4.0825,0.09944543449123253,1.1041403518271
-4.082,0.3128489316446912,0.4153588554918433
-4.0815,0.5369226036560266,-0.1144730647665284
-4.081,0.6116138276597372,-0.4111789401109466
-4.0805,0.5582629533713921,-0.5171453241628908
-4.08,0.4622313796522482,-0.4535654937318862
-4.0795,0.3661998059331918,-0.2946159176545192
-4.079,0.3341892813600275,-0.1462629799818668
-4.0785,0.3021787567870086,0.03387987290581572
-4.078,0.2701682322139898,0.224619364198656
-4.0775,0.2488278824985663,0.3941655786816337
-4.077,0.2168173579255475,0.5319218779486851
-4.0765,-0.1246282375199865,0.4153588554919493
-4.076,-0.7434983792669966,0.4577454091120022
-4.0755,-1.959898313041711,-0.1038764263613609
-4.075,-2.301343908487556,0.1716361721729923
-4.0745,-2.749491252510207,0.5319218779491187
-4.074,-2.728150902794861,1.00877060618122
-4.0735,-1.906547438753298,0.9028042221295453
-4.073,-1.020922925566444,0.4577454091129178
-4.0725,-0.3380317346739499,0.03387987290581572
-4.072,0.07810508477567314,-0.2734226408440398
-4.0715,0.280838407071459,-0.4535654937317224
-4.071,0.3448594562177392,-0.5489352393784316
-4.0705,0.3448594562177392,-0.5913217929990628
-4.07,0.3128489316447204,-0.5913217929990628
-4.0695,0.2915085819293066,-0.5807251545938665
-4.069,0.2701682322139607,-0.5489352393783931
-4.0685,0.2808384070716433,-0.5065486857577234
-4.068,0.3555296310757906,-0.4111789401109562
-4.0675,0.7609962756673623,-0.1250697031716958
-4.067,0.707645401378949,0.3411823866556712
-4.0665,0.1101156093486046,0.7332580076469724
-4.066,-0.01792648894347063,0.849821030103708
-4.0655,0.2594980573562781,0.6166949851900245
-4.065,0.5582629533711203,0.3093924714404485
-4.0645,0.6863050516635838,0.13984625695749
-4.064,0.6542945270905358,0.1080563417419877
-4.0635,0.5475927785138064,0.1398462569574611
-4.063,0.4302208550792003,0.1292496185522359
-4.0625,0.4302208550792003,0.03387987290581572
-4.062,0.4942419042252379,-0.1144730647663934
-4.0615,0.440891029936815,-0.08268314955093931
-4.061,0.3661998059331045,0.01268659609548085
-4.0605,0.291508581929326,0.1080563417419877
-4.06,0.1954770082097455,0.1504428953625804
-4.0595,-0.2846808603855366,0.06566978812131802
-4.059,-1.020922925565639,-0.008506680714854012
-4.0585,-1.629122892452996,0.06566978812125056
-4.058,-2.162631635337682,0.2670059178194992
-4.0575,-2.386705307349017,0.6484849004055269
-4.057,-1.799845690177005,0.4577454091126865
-4.0565,-0.9462317015618604,0.1822328105781598
-4.056,-0.8608703027003992,-0.6654982618352349
-4.0555,-0.5300948821125382,-0.9516074987744952
-4.055,-0.1886492866661794,-0.9198175835591472
-4.0545,0.04609456020262521,-0.8032545611024114
-4.054,0.248827882498411,-0.6019184314044134
-4.0535,0.3021787567869795,-0.5065486857576752
-4.053,0.2701682322139607,-0.4535654937318862
-4.0525,0.2701682322139607,-0.3899856633008816
-4.052,0.2808384070717306,-0.326405832869771
-4.0515,0.3768699807907871,-0.2098428104130352
-4.051,0.9637295979633325,0.2458126410091644
-4.0505,1.635950613996727,0.9028042221289476
-4.05,1.337185717982225,1.400846227172415
-4.0495,0.8676980242441885,0.9557874141553824
-4.049,0.8250173248134969,0.24581264100981
-4.0485,0.8463576745287942,-0.1992461720079931
-4.048,0.8143471499557753,-0.3370024712750445
-4.0475,0.7076454013790461,-0.2946159176544132
-4.047,0.558262953371266,-0.1992461720077714
-4.0465,0.4195506802215176,-0.09327978795619347
-4.046,0.366199805933153,-0.02969995752524671
-4.0455,0.4515612047945559,-0.125069703171638
-4.045,0.4408910299368829,-0.06148987274069118
-4.0445,0.3661998059331045,0.08686306493165288
-4.044,0.3021787567869504,0.2246193641989162
-4.0435,0.2381577076409128,0.3199891098453364
-4.043,-0.06060718837420119,0.3199891098453364
-4.0425,-0.7221580295499234,0.288199194629863
-4.042,-1.394379045584531,0.4153588554918433
-4.0415,-1.906547438753298,0.6908714540261965
-4.041,-2.333354433060216,1.019367244586088
-4.0405,-1.810515865033446,0.9451907757498391
-4.04,-1.031593100423322,0.5319218779486851
-4.0395,-0.3807124341052723,0.1186529801475311
-4.039,0.03542438534513666,-0.1992461720080509
-4.0385,0.2488278824985954,-0.400582301706049
-4.038,0.3235191065023059,-0.506548685757627
-4.0375,0.3235191065022768,-0.5383386009733123
-4.037,0.2168173579255475,-0.6337083466197325
-4.0365,0.09944543449103843,-0.6972881770507372
-4.036,-0.5514352318274572,-1.301296566145107
-4.0355,-0.391382608962363,-1.110557074852267
-4.035,-0.1886492866663929,-0.8562377531282487
-4.0345,0.4302208550786374,-0.3052125560600433
-4.034,1.369196242555273,0.5955017083796896
-4.0335,1.294505018551494,1.316073119931075
-4.033,0.5155822539413698,1.718745379327071
-4.0325,0.3021787567871057,1.485619334413147
-4.032,0.408880505363835,0.8180311148882058
-4.0315,0.5262524287982373,0.2564092794148426
-4.031,0.5475927785136705,-0.06148987274079719
-4.0305,0.5049120790829789,-0.1780528951975329
-4.03,0.4195506802215953,-0.1780528951975329
-4.0295,0.3555296310754897,-0.1356663415769307
-4.029,0.4302208550792003,-0.2098428104130352
-4.0285,0.4408910299368829,-0.1674562567923655
-4.028,0.3875401556484018,-0.08268314955090075
-4.0275,0.3128489316446912,0.05507314971615059
-4.027,0.2594980573562781,0.1928294489833272
-4.0265,0.0674349099181652,0.2352160026039584
-4.026,-0.5621054066852853,0.1610395337678249
-4.0255,-1.341028171296118,0.1610395337678249
-4.025,-1.991908837614167,0.3199891098451919
-4.0245,-2.632119329075582,0.7226613692419301
-4.024,-2.482736881068161,0.9769806909657173
-4.0235,-1.565101843308288,0.6908714540264568
-4.023,-0.7328282044076737,0.2564092794139944
-4.0225,-0.1459685872356623,-0.1144730647665284
-4.022,0.1848068333521987,-0.3581957480851576
-4.0215,0.323519106502403,-0.4747587705422596
-4.021,0.3555296310754218,-0.5171453241628908
-4.0205,0.3235191065023739,-0.5065486857577234
-4.02,0.2915085819293066,-0.4641621321370054
-4.0195,0.2701682322139607,-0.4111789401112165
-4.019,0.2594980573562781,-0.3581957480853793
-4.0185,0.2808384070716239,-0.2840192792492747
-4.018,0.5369226036560266,-0.04029659593035631
-4.0175,1.134452395686255,0.5001319627331828
-4.017,1.059761171682544,1.029963882991073
-4.0165,0.142126133921342,1.082947075016544
-4.016,-0.3273615598162672,0.1504428953626575
-4.0155,0.05676473505995849,-0.1250697031714452
-4.015,0.37686998079102,-0.3581957480853986
-4.0145,0.6329541773751706,-0.3793890248957141
-4.014,0.6329541773751706,-0.3793890248957141
-4.0135,0.4942419042251894,-0.3475991096801155
-4.013,0.3768699807907871,-0.2416327256285375
-4.0125,0.3768699807907871,-0.2310360872233701
-4.012,0.4195506802214886,-0.241632725628393
-4.0115,0.3875401556484697,-0.08268314955102604
-4.011,0.3128489316446912,0.1186529801471552
-4.0105,0.2701682322139995,0.2881991946296799
-4.01,0.1848068333524996,0.4047622170866759
-4.0095,-0.4127229586777283,0.3729723018711736
-4.009,-1.405049220441311,0.3411823866557002
-4.0085,-2.194642159911273,0.46834204751796
-4.008,-2.792171951940957,0.775644561267536
-4.0075,-2.877533350802341,1.09354371342227
-4.007,-1.949228138183175,0.8922075837239634
-4.0065,-1.010252750707956,0.4365521323021782
-4.006,-0.2953510352432193,0.01268659609548085
-4.0055,0.1207857842065784,-0.2840192792493711
-4.005,0.3128489316446912,-0.4641621321370536
-4.0045,0.3661998059331045,-0.5383386009732256
-4.004,0.355529631075383,-0.5595318777835508
-4.0035,0.3128489316446912,-0.5489352393783931
-4.003,0.291508581929326,-0.5171453241628908
-4.0025,0.280838407071653,-0.4747587705422596
-4.002,0.2808384070716433,-0.4217755785163839
-4.0015,0.3982103305061524,-0.2840192792492073
-4.001,1.027750647108856,0.2776025562241559
-4.0005,1.347855892839364,0.9557874141558065
-4,0.7503261008096795,1.42203950398275
-3.9995,0.5049120790829789,0.9451907757502149
-3.999,0.6969752265212663,0.01268659609548085
-3.9985,0.8463576745288233,-0.3687923864905467
-3.998,0.7716664505250448,-0.5807251545938954
-3.9975,0.5689331282290746,-0.6125150698093976
-3.997,0.1527963087794516,-0.7078848154559045
-3.9965,-0.2846808603855366,-0.8244478379127463
-3.996,-0.1352984123779797,-0.4959520473525559
-3.9955,0.09944543449103843,-0.3158091944647096
-3.995,0.291508581929326,0.002089957690313421
-3.9945,0.3235191065023739,0.2246193641988295
-3.994,0.2701682322139607,0.3517790250608387
-3.9935,0.2061471830678648,0.4259554938970107
-3.993,-0.2633405106701714,0.1292496185523226
-3.9925,-1.084943974711735,-0.5277419625680583
-3.992,-1.83185621474952,-1.036380606016095
-3.9915,-2.312014083345239,-1.163540266878104
-3.991,-2.376035132491334,-0.792657922697244
-3.9905,-1.703814116457328,-0.3158091944647096
-3.99,-0.8928808272734472,-0.02969995752518888
-3.9895,-0.2633405106701714,0.07626642652648545
-3.989,0.1207857842064037,0.05507314971615059
-3.9885,0.3021787567870086,-0.05089323433552374
-3.988,0.3555296310754218,-0.1886495336027004
-3.9875,0.3448594562177392,-0.326405832869877
-3.987,0.3128489316446912,-0.4535654937318862
-3.9865,0.2808384070716433,-0.5595318777835605
-3.986,0.2701682322139607,-0.6443049850249
-3.9855,0.2808384070716433,-0.7078848154559045
-3.985,0.3768699807907871,-0.6866915386455698
-3.9845,0.942389248247967,-0.1568596183871981
-3.984,1.699971663143435,0.627291623595192
-3.9835,1.657290963712704,1.273686566310405
-3.983,1.027750647109428,1.231300012689736
-3.9825,0.8783681991018712,0.5849050699745222
-3.982,0.8676980242441885,0.08686306493165288
-3.9815,0.8463576745288233,-0.2840192792492073
-3.981,0.7609962756673623,-0.474758770542221
-3.9805,0.6009436528021226,-0.4641621321370536
-3.98,0.4408910299368829,-0.326405832869877
-3.9795,0.3448594562177392,-0.1780528951975329
-3.979,0.4408910299368829,-0.1886495336027004
-3.9785,0.2701682322139607,-0.3158091944647096
-3.978,0.2381577076409128,-0.1038764263613609
-3.9775,-0.4447334832507763,-0.5489352393783931
-3.977,-0.3273615598162672,-0.252229364033705
-3.9765,-0.4340633083930936,-0.1780528951975329
-3.976,-1.084943974711735,-0.6760949002404023
-3.9755,-1.959898313041711,-1.311893204550448
-3.975,-2.514747405641209,-1.619195718300304
-3.9745,-2.973564924521563,-1.195330182093607
-3.974,-2.888203525660101,-0.326405832869877
-3.9735,-1.970568487899394,0.03387987290581572
-3.973,-0.9889124009925911,0.02328323450064829
-3.9725,-0.274010685527854,-0.1356663415768632
-3.972,0.1527963087794516,-0.3052125560595421
-3.9715,0.3341892813600565,-0.4429688553267188
-3.971,0.3768699807907871,-0.5383386009732256
-3.9705,0.3555296310754218,-0.5913217929990628
-3.97,0.3128489316446912,-0.6125150698093976
-3.9695,0.2808384070716433,-0.6019184314042303
-3.969,0.2701682322139607,-0.5489352393783931
-3.9685,0.291508581929326,-0.4853554089473885
-3.968,0.5262524287983441,-0.2734226408440398
-3.9675,1.230483969405398,0.3517790250608387
-3.967,1.411876941986003,0.92399749893988
-3.9665,0.7396559259519968,1.125333628638062
-3.966,0.4729015545099309,0.9345941373450475
-3.9655,0.5475927785137094,0.5637117931641874
-3.965,0.6649647019482183,0.2140227257936621
-3.9645,0.6542945270905358,-0.01910331912002144
-3.964,0.5796033030867573,-0.05089323433552374
-3.9635,0.4729015545099309,0.01268659609548085
-3.963,0.3768699807907871,0.08686306493165288
-3.9625,0.4408910299368829,0.03387987290581572
-3.962,0.5582629533713921,-0.07208651114585861
-3.9615,0.5155822539406614,0.01268659609548085
-3.961,0.4195506802215176,0.1292496185523226
-3.9605,0.3128489316446912,0.2352160026039969
-3.96,0.2168173579255475,0.2987958330350016
-3.9595,-0.3593720843893152,0.2564092794143318
-3.959,-1.020922925565639,0.3941655786815084
-3.9585,-2.087940411333903,0.1610395337678249
-3.958,-2.674800028506448,0.2987958330350016
-3.9575,-2.813512301656323,0.8180311148882058
-3.957,-2.162631635337682,0.7968378380778709
-3.9565,-1.159635198715513,0.457745409112513
-3.956,-0.4127229586777283,0.002089957690313421
-3.9555,0.03542438534494258,-0.3581957480853793
-3.955,0.2594980573562781,-0.570128516188728
-3.9545,0.3341892813600565,-0.6549016234300674
-3.954,0.3341892813600565,-0.6654982618352349
-3.9535,0.3128489316446912,-0.6337083466197325
-3.953,0.291508581929326,-0.5595318777835605
-3.9525,0.291508581929326,-0.474758770542221
-3.952,0.3128489316446912,-0.3899856633008816
-3.9515,0.4622313796522482,-0.1250697031716958
-3.951,0.9317190733902845,0.5213252395435176
-3.9505,1.081101521397841,1.167720182258731
-3.95,0.3555296310754218,1.538602526439591
-3.9495,0.1527963087794516,0.8286277532933731
-3.949,0.4515612047945656,-0.09327978795619347
-3.9485,0.7183155762366316,-0.3793890248957141
-3.948,0.8143471499557753,-0.3793890248957141
-3.9475,0.7503261008096795,-0.2416327256285375
-3.947,0.6116138276598051,-0.08268314955102604
-3.9465,0.4622313796522482,0.04447651131098315
-3.946,0.408880505363835,0.08686306493165288
-3.9455,0.5049120790829789,0.002089957690313421
-3.945,0.4835717293676135,0.04447651131098315
-3.9445,0.3982103305061524,0.1716361721729923
-3.944,0.3128489316446912,0.3199891098453364
-3.9435,0.2488278824985954,0.4153588554918433
-3.943,-0.03926683865883591,0.383568940276341
-3.9425,-0.7008176798351597,0.2458126410091644
-3.942,-1.212986073003927,0.1822328105781598
-3.9415,-1.597112367880501,0.1716361721729923
-3.941,-1.895877263895616,0.3623756634660061
-3.9405,-1.490410619303675,0.4365521323021782
-3.94,-0.839529952985034,0.2564092794143318
-3.9395,-0.5194247072545548,-0.1992461720078678
-3.939,-0.572775581542968,-0.8244478379127463
-3.9385,-0.4660738329661415,-1.05757388282643
-3.938,-0.2099896363817582,-0.9833974139902578
-3.9375,-0.02859666380115328,-0.8774310299385835
-3.937,0.1634664836371343,-0.7078848154559045
-3.9365,0.2701682322139607,-0.6019184314042303
-3.936,0.2594980573562781,-0.6019184314042303
-3.9355,0.2701682322139607,-0.5913217929990628
-3.935,0.3021787567870086,-0.5489352393783931
-3.9345,0.5582629533713921,-0.3687923864905467
-3.934,0.6863050516635838,-0.1038764263613609
-3.9335,-0.007256314085787988,0.2352160026039969
-3.933,-0.4554036581084589,0.2776025562246667
-3.9325,-0.124628237520297,-0.01910331912002144
-3.932,0.3341892813600565,-0.1780528951975329
-3.9315,0.6436243522328531,-0.1886495336027004
-3.931,0.707645401378949,-0.07208651114585861
-3.9305,0.6436243522328531,-0.01910331912002144
-3.93,0.5155822539406614,0.01268659609548085
-3.9295,0.408880505363835,0.04447651131098315
-3.929,0.4942419042252961,-0.1250697031716958
-3.9285,0.5049120790829789,-0.1462629799820306
-3.928,0.4302208550792003,-0.02969995752518888
-3.9275,0.3448594562177392,0.09745970333682032
-3.927,0.2808384070716433,0.2034260873884947
-3.9265,0.02475421048725994,0.2034260873884947
-3.926,-0.7008176798351597,0.06566978812131802
-3.9255,-1.51175096901904,-0.008506680714854012
-3.925,-2.055929886760855,0.04447651131098315
-3.9245,-2.461396531352796,0.3411823866556712
-3.924,-2.07727023647622,0.5849050699745222
-3.9235,-1.223656247861609,0.4047622170866759
-3.923,-0.5087545323968721,0.09745970333682032
-3.9225,-0.02859666380115328,-0.1674562567923655
-3.922,0.2274875327832301,-0.3581957480853793
-3.9215,0.3341892813600565,-0.4641621321370536
-3.921,0.3448594562177392,-0.5171453241628908
-3.9205,0.3235191065023739,-0.5171453241628908
-3.92,0.1741366584948169,-0.6231117082145651
-3.9195,0.1634664836371343,-0.5807251545938954
-3.919,-0.2313299860971235,-0.9198175835592532
-3.9185,-0.423393133535411,-1.078767159636765
-3.918,-0.1779791118087102,-0.8032545611024114
-3.9175,0.2274875327832301,-0.4535654937318862
-3.917,0.2168173579255475,-0.05089323433552374
-3.9165,-0.2953510352432193,0.1928294489833272
-3.916,-0.1886492866663929,-0.06148987274069118
-3.9155,0.2274875327832301,-0.04029659593035631
-3.915,0.5796033030867573,0.01268659609548085
-3.9145,0.7396559259519968,0.06566978812131802
-3.914,0.7183155762366316,0.1186529801471552
-3.9135,0.6009436528021226,0.1292496185523226
-3.913,0.4729015545099309,0.1186529801471552
-3.9125,0.5475927785137094,-0.1144730647665284
-3.912,0.6969752265212663,-0.3793890248957141
-3.9115,0.6116138276598051,-0.326405832869877
-3.911,0.4835717293676135,-0.1886495336027004
-3.9105,0.3555296310754218,-0.06148987274069118
-3.91,0.2168173579255475,0.002089957690313421
-3.9095,-0.274010685527854,-0.04029659593035631
-3.909,-1.1062843244271,-0.02969995752518888
-3.9085,-1.842526389607202,0.1504428953626575
-3.908,-2.280003558772191,0.4789386859228479
-3.9075,-2.290673733629873,0.7968378380778709
-3.907,-1.565101843307454,0.6060983467848571
-3.9065,-0.7755089038389382,0.2034260873884947
-3.906,-0.1886492866663929,-0.1568596183871981
-3.9055,0.1527963087794516,-0.3899856633008816
-3.905,0.3128489316446912,-0.5065486857577234
-3.9045,0.3555296310754218,-0.5383386009732256
-3.904,0.3448594562177392,-0.5171453241628908
-3.9035,0.3128489316446912,-0.4641621321370536
-3.903,0.2808384070716433,-0.3899856633008816
-3.9025,0.2808384070716433,-0.3158091944647096
-3.902,0.291508581929326,-0.2310360872233701
-3.9015,0.3661998059331045,-0.1144730647665284
-3.901,0.707645401378949,0.02328323450064829
-3.9005,1.347855892839907,0.1716361721729923
-3.9,1.422547116843686,0.1928294489833272
-3.8995,1.603940089424291,-0.05089323433552374
-3.899,0.9530594231056497,-1.110557074852267
-3.8985,0.8783681991018712,-0.9833974139902578
-3.898,0.7609962756673623,-0.6654982618352349
-3.8975,0.6329541773751706,-0.326405832869877
-3.897,0.5475927785137094,-0.07208651114585861
-3.8965,0.3982103305061524,-0.008506680714854012
-3.896,0.3341892813600565,-0.05089323433552374
-3.8955,0.408880505363835,-0.2628260024388724
-3.895,0.3982103305061524,-0.2734226408440398
-3.8945,0.3448594562177392,-0.1992461720078678
-3.894,0.291508581929326,-0.1250697031716958
-3.8935,0.2488278824985954,-0.09327978795619347
-3.893,0.01408403562957729,-0.1144730647665284
-3.8925,-0.7434983792658902,-0.1144730647665284
-3.892,-1.607782542738184,-0.02969995752518888
-3.8915,-2.173301810195364,0.2140227257936621
-3.891,-2.514747405641209,0.6484849004055269
-3.8905,-1.981238662757077,0.6590815388106942
-3.89,-1.138294849000148,0.2987958330350016
-3.8895,-0.423393133535411,-0.08268314955102604
-3.889,0.03542438534494258,-0.3581957480853793
-3.8885,0.2594980573562781,-0.4959520473525559
-3.888,0.3448594562177392,-0.5383386009732256
-3.8875,0.3448594562177392,-0.5065486857577234
