Class_11_Cell_phone_Call/Class_11_Cell_phone_Call_Souku_2.csv

#Digilent WaveForms Oscilloscope Acquisition
#Device Name: EExplorer
#Serial Number: SN:210151A2B84A
#Date Time: 2020-12-21 15:39:30.932
#Sample rate: 2000Hz
#Samples: 16384
#Trigger: Source: Channel 1 Type: Edge Condition: Rising Level: 0 V Hyst.: Auto HoldOff: 0 s
#Channel 1: Range: 1 V/div Offset: 0 V
#Channel 2: Range: 1 V/div Offset: 0 V

Time (s),Channel 1 (V),Channel 2 (V)
-4.0960000000000001,0.47290155450993088,0.27760255622466667
-4.0955000000000004,0.72898575109408137,0.38356894027624466
-4.0949999999999998,0.99574012253580768,0.66967817721617007
-4.0945,0.36619980593310447,1.0087706061812196
-4.0940000000000003,-0.44473348325003875,1.1359302670431128
-4.0934999999999997,-1.2343264227196316,1.1677201822585286
-4.093,-1.6077825427381842,0.94519077575021493
-4.0925000000000002,-1.2236562478619586,0.20342608738916934
-4.0919999999999996,-0.64746680554630986,-0.58072515459439655
-4.0914999999999999,-0.16730893695102761,-1.131750351662602
-4.0910000000000002,0.14212613392176898,-1.4178595886021226
-4.0904999999999996,0.29150858192937451,-1.502632695843414
-4.0899999999999999,0.34485945621773917,-1.4496495038176249
-4.0895000000000001,0.33418928136005654,-1.2906999277401132
-4.0890000000000004,0.27016823221401892,-1.0893637980421154
-4.0884999999999998,0.15279630877945163,-0.792657922697244
-4.0880000000000001,-0.26334051067017139,-0.26282600243887239
-4.0875000000000004,-0.65813698040406998,0.1610395337674394
-4.0869999999999997,-1.2129860730043536,0.57430843156973066
-4.0865,-1.6824737667419627,0.98757732937088472
-4.0860000000000003,-1.9598983130414591,1.2948798431204607
-4.0854999999999997,-2.0986105861912945,1.3796529503616461
-4.085,-1.7785053404611064,0.90280422212954525
-4.0845000000000002,-1.170305373573749,0.21402272579428849
-4.0839999999999996,-0.49808435753869457,-0.3475991096804335
-4.0834999999999999,0.046094560202625215,-0.59132179299906285
-4.0830000000000002,0.3982103305061524,-0.4641621321370536
-4.0824999999999996,0.56893312822917164,-0.25222936403355078
-4.0819999999999999,0.67563487680590106,-0.082683149551026042
-4.0815000000000001,0.97439977282101498,-0.26282600243887239
-4.0810000000000004,0.97439977282101498,-0.20984281041308342
-4.0804999999999998,0.857027849386506,0.044476511310983152
-4.0800000000000001,0.73965592595199681,0.31998910984533641
-4.0795000000000003,0.61161382765992156,0.44714877070722991
-4.0789999999999997,0.72898575109479957,0.48953532432824665
-4.0785,1.2624944939784462,0.74385464605203377
-4.0780000000000003,1.6146102642816533,1.0511571598016098
-4.0774999999999997,1.0384208219661402,1.146526905448078
-4.077,-0.028596663801153277,0.7968378380778709
-4.0765000000000002,-1.0742737998531011,0.65908153881081954
-4.0759999999999996,-1.2343264227189521,0.18223281057754295
-4.0754999999999999,-0.86087030270039921,-0.49595204735255594
-4.0750000000000002,-0.38071243410468042,-1.0363806060160949
-4.0744999999999996,-0.01792648894326683,-1.3542797581712143
-4.0739999999999998,0.20614718306786484,-1.4602461422227924
-4.0735000000000001,0.31284893164469124,-1.42845622700729
-4.0730000000000004,0.33418928136003712,-1.3012965661453963
-4.0724999999999998,0.31284893164469124,-1.1211537132574345
-4.0720000000000001,0.24882788249859539,-0.9092209451540858
-4.0715000000000003,0.099445434491174295,-0.55953187778387847
-4.0709999999999997,-0.092617712947724654,-0.12506970317126209
-4.0705,-0.61545628097369853,0.35177902506083869
-4.0700000000000003,-1.1276246741419995,0.86041766850841284
-4.0694999999999997,-1.4904106193038402,1.2313000126898415
-4.069,-1.67180359188428,1.3478630351465775
-4.0685000000000002,-1.4904106193036752,0.90280422212954525
-4.0679999999999996,-0.97824222613439404,0.19282944898284532
-4.0674999999999999,-0.41272295867772835,-0.33700247127504446
-4.0670000000000002,0.08877525963335578,-0.59132179299906285
-4.0664999999999996,0.40888050536397086,-0.58072515459372187
-4.0659999999999998,0.55826295337139209,-0.38998566330088158
-4.0655000000000001,0.6116138276598051,-0.17805289519753292
-4.0650000000000004,0.81434714995559088,-0.30521255605942643
-4.0644999999999998,0.8997085488172365,-0.31580919446470956
-4.0640000000000001,0.80367697509809277,-0.082683149551026042
-4.0635000000000003,0.7930068002404197,0.2458126410088656
-4.0629999999999997,0.70764540137892962,0.45774540911256123
-4.0625,0.6863050516635838,0.51072860113835017
-4.0620000000000003,1.1344523956858472,0.71206473083634836
-4.0614999999999997,1.1771330951161603,0.99817396777624479
-4.0609999999999999,0.27016823221396069,1.2101067358794007
-4.0605000000000002,-0.80751942841198598,1.2842832047155728
-4.0599999999999996,-1.6611334170265586,1.2418966510943825
-4.0594999999999999,-1.618452717595867,0.66967817721586165
-4.0590000000000002,-1.0529334501386869,-0.18864953360270037
-4.0585000000000004,-0.4554036581090023,-0.90922094515343055
-4.0579999999999998,-0.017926488943470625,-1.3436831197659505
-4.0575000000000001,0.22748753278323011,-1.523825972653797
-4.0570000000000004,0.33418928135995951,-1.523825972653797
-4.0564999999999998,0.35552963107542179,-1.4072629501969551
-4.056,0.28083840707164331,-1.1529436284729369
-4.0555000000000003,0.20614718306793278,-0.87743102993883404
-4.0549999999999997,0.13145595906401844,-0.65490162342983615
-4.0545,0.05676473506030786,-0.40058230170604903
-4.0540000000000003,-0.20998963638151555,0.0020899576899471861
-4.0534999999999997,-0.90355100213162487,0.56371179316462106
-4.0529999999999999,-1.4477299198729445,1.0405605213967219
-4.0525000000000002,-1.8531965644648849,1.2313000126897355
-4.0519999999999996,-1.5971123678799193,0.76504792286179035
-4.0514999999999999,-0.95690187641954316,0.12924961855232261
-4.0510000000000002,-0.31669138495858457,-0.32640583286987701
-4.0505000000000004,0.16346648363669758,-0.5277419625678752
-4.0499999999999998,0.4622313796522482,-0.55953187778356051
-4.0495000000000001,0.59027347794443985,-0.40058230170604903
-4.0490000000000004,0.579603303086767,-0.20984281041320871
-4.0484999999999998,0.65429452709059399,0.023283234500850677
-4.048,0.71831557623663156,0.24581264100916439
-4.0475000000000003,0.63295417737524817,0.36237566346590011
-4.0469999999999997,0.5262524287982665,0.40476221708667587
-4.0465,0.44089102993688295,0.40476221708667587
-4.0460000000000003,0.40888050536386411,0.38356894027636029
-4.0454999999999997,0.82501732481413736,0.28819919462967991
-4.0449999999999999,1.5719295648512428,0.11865298014715518
-4.0445000000000002,1.4865681659897818,0.36237566346600614
-4.0439999999999996,0.40888050536268988,0.74385464605231322
-4.0434999999999999,-0.8502001278427167,1.0511571598018894
-4.0430000000000001,-1.5330913187344057,0.99817396777605205
-4.0425000000000004,-1.3090176467232741,0.31998910984595319
-4.0419999999999998,-0.75416855412357298,-0.48535540894738849
-4.0415000000000001,-0.25267033581248871,-1.0787671596367647
-4.0410000000000004,0.088775259633045278,-1.4284562270069721
-4.0404999999999998,0.27016823221402864,-1.5662125262744475
-4.04,0.34485945621773917,-1.5450192494641319
-4.0395000000000003,0.34485945621773917,-1.4284562270073959
-4.0389999999999997,0.30217875678694067,-1.2589100125244277
-4.0385,0.22748753278323011,-1.0575738828264298
-4.0380000000000003,0.014084035629771396,-0.7184814538613804
-4.0374999999999996,-0.67947733012048328,-0.11447306476601757
-4.0369999999999999,-1.437059745015262,0.4471487707073456
-4.0365000000000002,-1.8745369141802501,0.94519077575021493
-4.0359999999999996,-1.9919088376145362,1.2524932894997813
-4.0354999999999999,-1.7464948158880587,0.93459413734504748
-4.0350000000000001,-1.1276246741424654,0.26700591781949923
-4.0345000000000004,-0.44473348325139739,-0.2628260024383906
-4.0339999999999998,0.05676473506030786,-0.44296885532671876
-4.0335000000000001,0.36619980593310447,-0.37938902489571413
-4.0330000000000004,0.52625242879819856,-0.19924617200803166
-4.0324999999999998,0.59027347794446894,-0.019103319119915432
-4.032,0.62228400251748783,0.097459703336820316
-4.0315000000000003,0.78233662538258197,0.055073149716189138
-4.0309999999999997,0.73965592595187069,0.15044289536280203
-4.0305,0.60094365280212259,0.30939247144016896
-4.0300000000000002,0.49424190422539316,0.42595549389690468
-4.0294999999999996,0.41955068022165348,0.47893868592293465
-4.0289999999999999,0.5689331282290746,0.57430843156935485
-4.0285000000000002,1.1878032699746677,0.84982103010370802
-4.0279999999999996,1.3798664174122177,1.1359302670433924
-4.0274999999999999,0.5689331282290746,1.3160731199310751
-4.0270000000000001,-0.65813698040442903,1.3902495887672472
-4.0265000000000004,-1.4584000947298994,1.2313000126898801
-4.0259999999999998,-1.3196878215807528,0.48953532432801533
-4.0255000000000001,-0.80751942841198598,-0.37938902489571413
-4.0250000000000004,-0.29535103524368522,-1.0363806060154974
-4.0244999999999997,0.056764735060492247,-1.4072629501970708
-4.024,0.25949805735627807,-1.5344226110589645
-4.0235000000000003,0.3341892813599886,-1.502632695843491
-4.0229999999999997,0.34485945621768094,-1.3648763965760926
-4.0225,0.28083840707164331,-1.1529436284729369
-4.0220000000000002,0.18480683335258691,-0.9198175835594653
-4.0214999999999996,0.14212613392172047,-0.6654982618350036
-4.0209999999999999,0.08877525963335578,-0.41117894011121647
-4.0205000000000002,-0.31669138495858457,0.033879872905815719
-4.0199999999999996,-1.10628432442776,0.55311515475945361
-4.0194999999999999,-1.8318562147495197,1.0299638829915545
-4.0190000000000001,-2.0879404113339031,1.2630899279052379
-4.0185000000000004,-1.6504632421693126,0.91340086053503078
-4.0179999999999998,-0.97824222613490841,0.26700591781949923
-4.0175000000000001,-0.31669138495858457,-0.22043944881820265
-4.0170000000000003,0.15279630877902467,-0.45356549373167421
-4.0164999999999997,0.43022085507930707,-0.42177557851623937
-4.016,0.54759277851370936,-0.26282600243887239
-4.0155000000000003,0.56893312822905517,-0.14626297998213666
-4.0149999999999997,0.77166645052509331,-0.30521255605957104
-4.0145,0.82501732481345802,-0.33700247127504446
-4.0140000000000002,0.70764540137905585,-0.16745625679251971
-4.0134999999999996,0.55826295337127563,0.033879872905950646
-4.0129999999999999,0.43022085507920033,0.18223281057815977
-4.0125000000000002,0.44089102993688295,0.29879583303500157
-4.0119999999999996,0.82501732481353562,0.59550170838001726
-4.0114999999999998,0.91037872367491923,0.95578741415538238
-4.0110000000000001,0.20614718306786484,1.2101067358794007
-4.0105000000000004,-0.81818960326873713,1.3478630351464522
-4.0099999999999998,-1.6504632421689147,1.3160731199310751
-4.0095000000000001,-1.5757720181651362,0.73325800764686633
-4.0090000000000003,-0.99958257585079768,-0.11447306476575725
-4.0084999999999997,-0.42339313353502278,-0.80325456110277771
-4.008,0.0034138607718946501,-1.2059268204987741
-4.0075000000000003,0.23815770764069927,-1.3648763965761408
-4.0069999999999997,0.3448594562177586,-1.354279758171012
-4.0065,0.36619980593310447,-1.2377167357142764
-4.0060000000000002,0.33418928136005654,-1.0469772444212624
-4.0054999999999996,0.22748753278314277,-0.78206128429183563
-4.0049999999999999,0.13145595906408636,-0.51714532416289083
-4.0045000000000002,0.035424385344942577,-0.20984281041303524
-4.0039999999999996,-0.29535103524388895,0.10805634174230579
-4.0034999999999998,-1.0315931004233216,0.45774540911251305
-4.0030000000000001,-1.5437614935920885,0.86041766850887547
-4.0025000000000004,-1.9065474387529682,1.1995100974739248
-4.0019999999999998,-2.1839719850530468,1.3266697583362426
-4.0015000000000001,-1.8852070890379329,0.81803111488820579
-4.0010000000000003,-1.1596351987161733,0.13984625695810693
-4.0004999999999997,-0.40205278381957021,-0.4111789401115345
-4,0.12078578420640371,-0.76086800748174177
-3.9994999999999998,0.41955068022151765,-0.81385119950757889
-3.9990000000000001,0.55826295337139209,-0.68669153864556975
-3.9984999999999999,0.75032610080967954,-0.6972881770507372
-3.9980000000000002,0.94238924824796699,-0.78206128429207655
-3.9975000000000001,0.84635767452882327,-0.55953187778356051
-3.9969999999999999,0.66496470194821833,-0.25222936403370499
-3.9965000000000002,0.50491207908297886,0.012686596095480854
-3.996,0.43022085507920033,0.20342608738849466
-3.9954999999999998,0.76099627566736228,0.48953532432801533
-3.9950000000000001,1.539919040278195,0.89220758372437781
-3.9944999999999999,1.9453856848701352,1.1995100974742332
-3.9940000000000002,1.1984734448323504,1.3690563119569124
-3.9935,-0.17797911180871023,1.4114428655775821
-3.9929999999999999,-1.0529334501386869,1.146526905448396
-3.9925000000000002,-1.0209229255656389,0.37297230187117358
-3.992,-0.62612645583138127,-0.40058230170604903
-3.9914999999999998,-0.20998963638175816,-0.91981758355925325
-3.9910000000000001,0.08877525963335578,-1.1741369052832717
-3.9904999999999999,0.25949805735627807,-1.2165234589039415
-3.9900000000000002,0.32351910650237387,-1.1423469900677694
-3.9895,0.33418928136005654,-0.98339741399025782
-3.9889999999999999,0.25949805735627807,-0.76086800748174177
-3.9885000000000002,0.19547700821018218,-0.52774196256805828
-3.988,0.11011560934872107,-0.25222936403370499
-3.9874999999999998,-0.0072563140857879876,0.0020899576903134209
-3.9870000000000001,-0.17797911180871023,0.19282944898332721
-3.9864999999999999,-0.4554036581084589,0.52132523954351762
-3.9860000000000002,-0.97824222613490841,0.90280422212954525
-3.9855,-0.88221065241576446,0.95578741415538238
-3.9849999999999999,-0.40205278382004572,0.63788826200035942
-3.9845000000000002,-0.017926488943470625,0.11865298014715518
-3.984,0.28083840707164331,-0.24163272562853755
-3.9834999999999998,0.4622313796522482,-0.44296885532671876
-3.9830000000000001,0.54759277851370936,-0.52774196256805828
-3.9824999999999999,0.5689331282290746,-0.57012851618872795
-3.9820000000000002,0.60094365280212259,-0.51714532416289083
-3.9815,0.73965592595199681,-0.25222936403370499
-3.9809999999999999,0.70764540137894905,-0.14626297998203064
-3.9805000000000001,0.59027347794443985,-0.13566634157686319
-3.98,0.47290155450993088,-0.13566634157686319
-3.9794999999999998,0.38754015564846972,-0.12506970317169577
-3.9790000000000001,0.50491207908297886,0.033879872905815719
-3.9784999999999999,1.0170804722517455,0.48953532432801533
-3.9780000000000002,0.71831557623663156,0.92399749893988004
-3.9775,-0.17797911180871023,1.1995100974742332
-3.9769999999999999,-1.1596351987155133,1.3266697583362426
-3.9765000000000001,-1.7358246410303759,1.2101067358794007
-3.976,-1.437059745015262,0.54251851635385251
-3.9754999999999998,-0.81818960326966872,-0.2310360872233701
-3.9750000000000001,-0.27401068552785401,-0.77146464588690922
-3.9744999999999999,0.08877525963335578,-1.0257839676109275
-3.9740000000000002,0.28083840707164331,-1.0681705212315973
-3.9735,0.35552963107542179,-0.97280077558509037
-3.9729999999999999,0.35552963107542179,-0.80325456110241145
-3.9725000000000001,0.32351910650237387,-0.59132179299906285
-3.972,0.22748753278323011,-0.33700247127504446
-3.9714999999999998,0.14212613392176898,-0.093279787956193475
-3.9710000000000001,0.0034138607718946501,0.21402272579366208
-3.9704999999999999,-0.54076505696992005,0.63788826200035942
-3.9700000000000002,-1.0529334501386869,1.0405605213967219
-3.9695,-1.3196878215807528,1.3266697583362426
-3.9689999999999999,-1.586442193022819,1.3902495887672472
-3.9685000000000001,-1.554431668449771,0.87101430691404291
-3.968,-1.0956141495694174,0.10805634174198775
-3.9674999999999998,-0.46607383296614152,-0.44296885532671876
-3.9670000000000001,0.046094560202625215,-0.78206128429207655
-3.9664999999999999,0.36619980593310447,-0.97280077558509037
-3.9660000000000002,0.53692260365602662,-0.97280077558509037
-3.9655,0.57960330308675734,-0.792657922697244
-3.9649999999999999,0.79300680024041004,-0.50654868575772338
-3.9645000000000001,0.86769802424418851,-0.28401927924920728
-3.964,0.77166645052504479,-0.13566634157686319
-3.9634999999999998,0.62228400251748783,-0.029699957525188878
-3.9630000000000001,0.4835717293676135,0.044476511310983152
-3.9624999999999999,0.4835717293676135,0.13984625695749003
-3.9620000000000002,0.98506994767869771,0.50013196273318283
-3.9615,1.0704313465401587,0.90280422212954525
-3.9609999999999999,0.23815770764091276,1.1783168206638983
-3.9605000000000001,-0.78617907869662074,1.2842832047155728
-3.96,-1.6504632421689147,1.2736865663104053
-3.9594999999999998,-1.67180359188428,0.7968378380778709
-3.9590000000000001,-1.1062843244271001,0.0020899576903134209
-3.9584999999999999,-0.48741418268150688,-0.64430498502489997
-3.9580000000000002,-0.039266838658835915,-1.01518732920576
-3.9575,0.22748753278323011,-1.1423469900677694
-3.9569999999999999,0.33418928136005654,-1.0893637980419322
-3.9565000000000001,0.36619980593310447,-0.94101086036958814
-3.956,0.34485945621773917,-0.72907809226623943
-3.9554999999999998,0.29150858192932599,-0.44296885532671876
-3.9550000000000001,0.19547700821018218,-0.13566634157686319
-3.9544999999999999,0.078105084775673142,0.13984625695749003
-3.9540000000000002,-0.19931946152407554,0.42595549389701071
-3.9535,-0.75416855412357298,0.80743447648303834
-3.9529999999999998,-1.3090176467230703,1.146526905448396
-3.9525000000000001,-1.6291228924535495,1.2948798431207402
-3.952,-1.586442193022819,0.87101430691404291
-3.9514999999999998,-1.1169544992847826,0.12924961855232261
-3.9510000000000001,-0.47674400782382426,-0.47475877054222104
-3.9504999999999999,-0.0072563140857879876,-0.73967473067140688
-3.9500000000000002,0.29150858192932599,-0.80325456110241145
-3.9495,0.47290155450993088,-0.81385119950757889
-3.9489999999999998,0.52625242879834411,-0.70788481545590454
-3.9485000000000001,0.66496470194821833,-0.65490162343006741
-3.948,0.78233662538272752,-0.6972881770507372
-3.9474999999999998,0.79300680024041004,-0.54893523937839306
-3.9470000000000001,0.91037872367491923,-0.32640583286987701
-3.9464999999999999,0.86769802424418851,-0.13566634157686319
-3.9460000000000002,0.75032610080967954,0.0020899576903134209
-3.9455,1.0704313465401587,0.26700591781949923
-3.9449999999999998,1.3905365922706379,0.70146809243136399
-3.9445000000000001,0.72898575109431429,1.0617537982070568
-3.944,-0.42339313353541097,1.2630899279052379
-3.9434999999999998,-1.4157193952998968,1.3054764815259077
-3.9430000000000001,-1.5330913187344057,0.87101430691404291
-3.9424999999999999,-1.0422632752810042,0.065669788121318018
-3.9420000000000002,-0.47674400782382426,-0.63370834661973252
-3.9415,-0.049937013516518552,-1.0575738828264298
-3.9409999999999998,0.20614718306786484,-1.227120097309109
-3.9405000000000001,0.32351910650237387,-1.2059268204987741
-3.9399999999999999,0.35552963107542179,-1.0893637980419322
-3.9394999999999998,0.32351910650237387,-0.88802766834375091
-3.9390000000000001,0.22748753278323011,-0.64430498502489997
-3.9384999999999999,0.13145595906408636,-0.41117894011121647
-3.9380000000000002,0.067434909917990504,-0.15685961838719809
-3.9375,-0.13529841237797968,0.17163617217299235
-3.9369999999999998,-0.78617907869662074,0.64848490040552687
-3.9365000000000001,-1.4477299198729445,1.0723504366122243
-3.9359999999999999,-1.7998456901764717,1.3160731199310751
-3.9355000000000002,-1.8638667393225676,1.1677201822587309
-3.9350000000000001,-1.4477299198729445,0.53192187794868506
-3.9344999999999999,-0.81818960326966872,-0.15685961838719809
-3.9340000000000002,-0.24200016095480609,-0.64430498502489997
-3.9335,0.13145595906408636,-0.80325456110241145
-3.9329999999999998,0.36619980593310447,-0.76086800748174177
-3.9325000000000001,0.50491207908297886,-0.62311170821456507
-3.9319999999999999,0.62228400251748783,-0.38998566330088158
-3.9315000000000002,0.78233662538272752,-0.17805289519753292
-3.931,0.78233662538272752,-0.050893234335523743
-3.9304999999999999,0.65429452709053582,0.023283234500648287
-3.9300000000000002,0.50491207908297886,0.044476511310983152
-3.9295,0.40888050536383502,0.065669788121318018
-3.9289999999999998,0.62228400251748783,0.076266426526485451
-3.9285000000000001,1.2411541442630809,0.27760255622466667
