Class_11_Cell_phone_Call/Class_11_Cell_phone_Call_UZ_6.csv

#Digilent WaveForms Oscilloscope Acquisition
#Device Name: EExplorer
#Serial Number: SN:210151A2B84A
#Date Time: 2020-12-07 12:19:17.082
#Sample rate: 2000Hz
#Samples: 16384
#Trigger: Source: Channel 1 Type: Edge Condition: Rising Level: 0 V Hyst.: Auto HoldOff: 0 s
#Channel 1: Range: 1 V/div Offset: 0 V Attenuation: 1 X
#Channel 2: Range: 1 V/div Offset: 0 V Attenuation: 1 X
#Power Supplies: ON
#Fixed Supply: ON
#Voltage: 3.3 V Readback: 3.323 V
#Positive Supply: ON
#Voltage: 3.7 V Readback: 3.679 V
#Current: 40 mA Readback: 18 mA
#Negative Supply: ON
#Voltage: -3.7 V Readback: -4.058 V
#Current: -40 mA Readback: -6 mA
#Reference 1: ON
#Voltage: 0 V
#Reference 2: ON
#Voltage: 0 V

Time (s),Channel 1 (V),Channel 2 (V)
-4.096,-1.138294849000148,0.2034260873884947
-4.0955,-0.4127229586783883,0.1186529801472323
-4.095,0.02475421048746373,0.0232832345006001
-4.0945,0.2488278824985954,-0.02969995752518888
-4.094,0.3235191065023059,-0.01910331912003108
-4.0935,0.3235191065023544,0.02328323450071575
-4.093,0.3021787567870086,0.09745970333682032
-4.0925,0.2701682322139898,0.1716361721729249
-4.092,0.2488278824985857,0.2458126410092319
-4.0915,0.2381577076409128,0.3199891098453364
-4.091,0.3982103305061524,0.4259554938970107
-4.0905,1.102441871113944,0.6378882620003979
-4.09,1.913375160297087,0.6802748156210291
-4.0895,2.180129531739154,0.2034260873884947
-4.089,2.030747083731733,-0.3687923864900263
-4.0885,1.635950613997339,-0.3475991096802118
-4.088,1.15579274540162,-0.1038764263613609
-4.0875,0.7183155762370295,0.1504428953624262
-4.087,0.4088805053636798,0.3517790250609351
-4.0865,0.2381577076409128,0.457745409112513
-4.086,0.1634664836372022,0.4789386859228286
-4.0855,0.09944543449092198,0.4047622170864735
-4.085,-0.02859666380115328,0.1822328105781598
-4.0845,-0.02859666380115328,0.08686306493173962
-4.084,0.0354243853450008,0.05507314971614095
-4.0835,0.09944543449103843,0.04447651131098315
-4.083,0.1314559590640864,0.02328323450064829
-4.0825,-0.08194753809016815,-0.008506680714873286
-4.082,-0.7434983792658902,-0.02969995752518888
-4.0815,-1.479740444445993,-0.3158091944647096
-4.081,-2.557428105070959,-1.343683119765016
-4.0805,-2.877533350802418,-1.979481424075996
-4.08,-2.482736881068161,-2.021867977696666
-4.0795,-1.629122892454326,-1.470842780628461
-4.079,-0.7221580295499525,-0.7290780922657383
-4.0785,-0.09261771294724913,-0.1780528951975329
-4.078,0.1741366584945743,0.08686306493141199
-4.0775,0.2701682322139801,0.2140227257937103
-4.077,0.291508581929326,0.2670059178194992
-4.0765,0.2701682322139801,0.277602556224657
-4.076,0.2488278824985954,0.2776025562246667
-4.0755,0.2488278824985954,0.2776025562246667
-4.075,0.2594980573562781,0.2881991946298341
-4.0745,0.3128489316451668,0.2987958330351076
-4.074,0.8356874996711408,0.4153588554918433
-4.0735,1.657290963712704,0.4683420475176805
-4.073,2.233480406027043,0.06566978812168422
-4.0725,2.12677865745074,-0.2734226408440398
-4.072,1.614610264281974,-0.2840192792492073
-4.0715,1.123782220829018,-0.1038764263615247
-4.071,0.7289857510940619,0.002089957690342334
-4.0705,0.4515612047945656,0.03387987290581572
-4.07,0.2808384070717986,0.03387987290581572
-4.0695,0.1848068333524704,0.08686306493171071
-4.069,0.1527963087794516,0.1504428953626575
-4.0685,0.142126133921769,0.05507314971615059
-4.068,0.163466483637144,0.03387987290586391
-4.0675,0.1741366584948169,0.08686306493165288
-4.067,0.1741366584948169,0.1610395337678249
-4.0665,0.1741366584947393,0.2034260873885332
-4.066,0.08877525963335578,0.2458126410091644
-4.0655,-0.423393133535411,0.3411823866556712
-4.065,-1.191645723287862,0.3623756634659869
-4.0645,-1.67180359188428,0.08686306493165288
-4.064,-1.917217613610981,-0.02969995752518888
-4.0635,-1.490410619304063,0.07626642652638907
-4.063,-0.9995825758503513,-0.02969995752572858
-4.0625,-1.084943974711735,-0.6231117082145651
-4.062,-0.6794773301201631,-0.5595318777836183
-4.0615,-0.3593720843891114,-0.4217755785162297
-4.061,-0.1352984123779797,-0.252229364033705
-4.0605,0.1207857842064037,0.002089957690313421
-4.06,0.238157707640903,0.1504428953626767
-4.0595,0.2274875327832301,0.1716361721729923
-4.059,0.2168173579255475,0.1822328105781598
-4.0585,0.2168173579255475,0.2034260873884754
-4.058,0.2381577076409128,0.2246193641988295
-4.0575,0.5582629533713921,0.2881991946298341
-4.057,1.337185717981516,0.3517790250607808
-4.0565,1.774662887147213,0.02328323450064829
-4.056,1.699971663143435,-0.4641621321370536
-4.0555,1.486568165989976,-0.3687923864906335
-4.055,1.155792745401319,-0.2204394488181063
-4.0545,0.825017324813458,-0.1144730647665284
-4.054,0.5475927785139616,-0.05089323433558157
-4.0535,0.3448594562176421,-0.04029659593030812
-4.053,0.2381577076409128,0.01268659609548085
-4.0525,0.1848068333524996,0.08686306493165288
-4.052,0.1101156093486726,0.06566978812126983
-4.0515,0.05676473506030786,0.01268659609548085
-4.051,0.0674349099179905,0.06566978812131802
-4.0505,0.09944543449100932,0.1610395337677382
-4.05,0.1314559590640864,0.2458126410091644
-4.0495,0.1207857842064037,0.2670059178194992
-4.049,-0.274010685527495,-0.09327978795586578
-4.0485,-1.042263275281664,-0.6866915386461576
-4.048,-1.767835165603424,-1.333086481360783
-4.0475,-2.344024607917762,-1.280103289334994
-4.047,-2.301343908486789,-0.4853554089469741
-4.0465,-1.458400094730627,-0.02969995752518888
-4.046,-0.7114878546935216,0.1186529801470203
-4.0455,-0.1779791118084385,0.1292496185522841
-4.045,0.1207857842064037,0.08686306493165288
-4.0445,-0.3166913849585846,-0.5277419625680583
-4.044,-0.4447334832506598,-0.6972881770505927
-4.0435,-0.3166913849585846,-0.5383386009732256
-4.043,-0.1993194615240755,-0.3687923864905467
-4.0425,0.01408403562938321,-0.09327978795644404
-4.042,0.1954770082101822,0.1504428953626575
-4.0415,0.2274875327832301,0.2246193641988295
-4.041,0.3661998059329783,0.3093924714400919
-4.0405,1.017080472252493,0.4895353243280153
-4.04,1.838683936293309,0.4895353243280153
-4.0395,2.212140056311862,0.06566978812170354
-4.039,1.988066384300439,-0.1038764263612934
-4.0385,1.51857869056283,-0.02969995752518888
-4.038,1.027750647109875,0.06566978812123128
-4.0375,0.6436243522326202,0.2034260873885814
-4.037,0.3875401556484697,0.2987958330350016
-4.0365,0.2381577076409128,0.3941655786815084
-4.036,0.1741366584947781,0.4153588554917855
-4.0355,0.1314559590640864,0.3517790250608387
-4.035,0.05676473506030786,0.1610395337678249
-4.0345,0.05676473506030786,0.1080563417420359
-4.034,0.07810508477567314,0.1186529801471552
-4.0335,0.1101156093487211,0.1610395337678249
-4.033,0.131455959064067,0.1822328105781405
-4.0325,-0.04993701351713964,0.2564092794145342
-4.032,-0.7328282044082075,0.4789386859228479
-4.0315,-1.586442193022043,0.6166949851898993
-4.031,-2.183971985053328,0.5955017083799595
-4.0305,-2.493407055925843,0.8922075837243778
-4.03,-1.853196564465467,0.88161094531922
-4.0295,-1.042263275280412,0.5743084315690657
-4.029,-0.391382608962363,0.2564092794143318
-4.0285,0.01408403562957729,0.04447651131098315
-4.028,0.2168173579256154,-0.05089323433553338
-4.0275,0.291508581929326,-0.06148987274069118
-4.027,0.291508581929326,-0.02969995752518888
-4.0265,0.1741366584949237,-0.04029659593034667
-4.026,-0.4980843575391895,-0.6019184314042303
-4.0255,-0.5407650569699201,-0.5383386009732256
-4.025,-0.4020527838201718,-0.315809194464912
-4.0245,-0.1993194615233477,-0.08268314955065018
-4.024,0.6009436528021226,0.3305857482505039
-4.0235,1.582599739708033,0.5743084315691331
-4.023,1.902704985439317,0.1716361721726647
-4.0225,1.806673411720261,-0.1886495336027004
-4.022,1.507908515705419,-0.09327978795628021
-4.0215,1.102441871112877,0.09745970333698416
-4.021,0.7396559259519968,0.2776025562246667
-4.0205,0.4835717293676135,0.3729723018711736
-4.02,0.3128489316446136,0.4153588554918433
-4.0195,0.2274875327832301,0.4153588554918433
-4.019,0.1741366584948169,0.3729723018711736
-4.0185,0.03542438534506873,0.1716361721731754
-4.018,-0.01792648894347063,0.05507314971615059
-4.0175,0.01408403562957729,0.06566978812131802
-4.017,0.06743490991794199,0.09745970333679141
-4.0165,0.1101156093486823,0.1292496185523419
-4.016,0.0674349099179905,0.1504428953626575
-4.0155,-0.4660738329656563,0.2458126410090777
-4.015,-1.35169834615447,0.2987958330348378
-4.0145,-2.087940411333903,0.1186529801471552
-4.014,-2.504077230783148,0.3517790250606266
-4.0135,-2.194642159909982,0.6590815388105785
-4.013,-1.373038695869166,0.5319218779486851
-4.0125,-0.6261264558313813,0.2670059178194992
-4.012,-0.1139580626623621,0.05507314971604457
-4.0115,0.1634664836371343,-0.06148987274069118
-4.011,0.2701682322139607,-0.09327978795619347
-4.0105,0.2915085819293066,-0.0508932343355623
-4.01,0.2701682322139607,0.01268659609548085
-4.0095,0.2488278824985954,0.1080563417419877
-4.009,0.2274875327832495,0.2034260873884079
-4.0085,0.2274875327832398,0.2881991946299112
-4.008,0.2381577076409128,0.3729723018711736
-4.0075,0.2488278824985857,0.1928294489834911
-4.007,0.5689331282298995,-0.2522293640339459
-4.0065,1.475897991132099,-0.5171453241628908
-4.006,1.881364635724039,-0.9410108603695881
-4.0055,1.817343586577633,-0.6231117082141218
-4.005,1.475897991132099,-0.1356663415768632
-4.0045,0.9850699476786977,0.2352160026039969
-4.004,0.5582629533711592,0.4047622170866951
-4.0035,0.3021787567870086,0.4259554938970107
-4.003,0.1741366584948169,0.4047622170866759
-4.0025,0.1314559590641252,0.3623756634660447
-4.002,0.04609456020262521,0.2034260873884947
-4.0015,-0.04993701351651855,0.002089957690313421
-4.001,-0.01792648894349974,-0.008506680714844374
-4.0005,0.03542438534498139,0.0232832345006772
-4,0.07810508477567314,0.05507314971615059
-3.9995,0.1101156093487211,0.06566978812131802
-3.999,-0.274010685527854,0.04447651131098315
-3.9985,-1.148965023857831,-0.05089323433552374
-3.998,-1.959898313041711,-0.3687923864905467
-3.9975,-2.514747405641209,-0.7396747306714069
-3.997,-2.280003558772191,-0.5807251545938954
-3.9965,-1.458400094730627,-0.326405832869877
-3.996,-0.690147504977477,-0.1250697031716958
-3.9955,-0.1459685872356623,0.01268659609548085
-3.995,0.1527963087794516,0.08686306493165288
-3.9945,0.2701682322139607,0.1292496185523226
-3.994,0.291508581929326,0.1504428953626575
-3.9935,0.2808384070716433,0.1716361721729923
-3.993,0.2488278824985954,0.1928294489833272
-3.9925,0.2274875327832301,0.2140227257936621
-3.992,0.2168173579255475,0.2352160026039969
-3.9915,0.2168173579255475,0.2564092794143318
-3.991,0.3661998059331045,0.309392471440169
-3.9905,1.049090996824793,0.4471487707073456
-3.99,1.678631313428069,0.3517790250608387
-3.9895,1.849354111150991,-0.1462629799820306
-3.989,1.443887466559051,-0.2416327256285375
-3.9885,0.7183155762366316,-0.4111789401112165
-3.988,-0.1459685872356623,-0.7820612842920766
-3.9875,-0.2206598112394408,-0.4641621321370536
-3.987,-0.2313299860971235,-0.2416327256285375
-3.9865,-0.124628237520297,-0.05089323433552374
-3.986,0.0674349099179905,0.1822328105781598
-3.9855,0.1314559590640864,0.2034260873884947
-3.985,0.02475421048725994,0.01268659609548085
-3.9845,0.01408403562957729,-0.02969995752518888
-3.984,0.05676473506030786,0.01268659609548085
-3.9835,0.09944543449103843,0.07626642652648545
-3.983,0.1314559590640864,0.13984625695749
-3.9825,0.00341386077189465,0.2034260873884947
-3.982,-0.7434983792658902,0.3199891098453364
-3.9815,-1.554431668449771,0.2246193641988295
-3.981,-2.023919362187807,-0.04029659593035631
-3.9805,-2.301343908487556,0.2987958330350016
-3.98,-1.842526389607202,0.4683420475176805
-3.9795,-1.084943974711735,0.3517790250608387
-3.979,-0.423393133535411,0.1928294489833272
-3.9785,-0.007256314085787988,0.06566978812131802
-3.978,0.2061471830678648,0.002089957690313421
-3.9775,0.2808384070716433,0.002089957690313421
-3.977,0.2808384070716433,0.04447651131098315
-3.9765,0.2594980573562781,0.09745970333682032
-3.976,0.2381577076409128,0.1716361721729923
-3.9755,0.2168173579255475,0.2458126410091644
-3.975,0.2168173579255475,0.309392471440169
-3.9745,0.2701682322139607,0.3729723018711736
-3.974,0.79300680024041,0.5001319627331828
-3.9735,1.635950613997339,0.5001319627331828
-3.973,2.08409795802001,0.04447651131098315
-3.9725,2.020076908873914,-0.252229364033705
-3.972,1.689301488285752,-0.1674562567923655
-3.9715,1.209143619690033,0.01268659609548085
-3.971,0.7823366253827275,0.1080563417419877
-3.9705,0.4729015545099309,0.1822328105781598
-3.97,0.1314559590640864,0.07626642652648545
-3.9695,-0.572775581542968,-0.5065486857577234
-3.969,-0.5514352318276028,-0.4535654937318862
-3.9685,-0.4980843575391895,-0.4853554089473885
-3.968,-0.3593720843893152,-0.400582301706049
-3.9675,-0.09261771294724913,-0.1356663415768632
-3.967,0.0674349099179905,0.03387987290581572
-3.9665,0.09944543449103843,0.08686306493165288
-3.966,0.05676473506030786,0.1080563417419877
-3.9655,-0.4767440078238243,0.08686306493165288
-3.965,-1.501080794161358,-0.02969995752518888
-3.9645,-2.376035132491334,-0.3052125560595421
-3.964,-2.920214050233149,-0.08268314955102604
-3.9635,-2.482736881068161,0.309392471440169
-3.963,-1.554431668449771,0.3517790250608387
-3.9625,-0.7114878546928423,0.2458126410091644
-3.962,-0.1459685872356623,0.1292496185523226
-3.9615,0.1634664836371343,0.06566978812131802
-3.961,0.291508581929326,0.04447651131098315
-3.9605,0.3128489316446912,0.07626642652648545
-3.96,0.2808384070716433,0.1186529801471552
-3.9595,0.2488278824985954,0.1822328105781598
-3.959,0.2274875327832301,0.2352160026039969
-3.9585,0.2168173579255475,0.2987958330350016
-3.958,0.2274875327832301,0.3517790250608387
-3.9575,0.5582629533713921,0.4471487707073456
-3.957,1.369196242555273,0.5319218779486851
-3.9565,2.148119007166105,0.2776025562246667
-3.956,2.425543553465854,-0.1886495336027004
-3.9555,2.116108482593058,-0.2204394488182027
-3.955,1.550589215135878,-0.1038764263613609
-3.9545,0.9850699476786977,0.13984625695749
-3.954,0.5582629533713921,0.3623756634660061
-3.9535,0.291508581929326,0.457745409112513
-3.953,0.142126133921769,0.4471487707073456
-3.9525,0.09944543449103843,0.3729723018711736
-3.952,0.02475421048725994,0.1610395337678249
-3.9515,-0.658136980404429,-0.6972881770507372
-3.951,-0.7114878546928423,-0.8350444763179138
-3.9505,-0.5300948821122373,-0.6866915386455698
-3.95,-0.3487019095316325,-0.5171453241628908
-3.9495,-0.124628237520297,-0.2416327256285375
-3.949,-0.2633405106701714,-0.008506680714854012
-3.9485,-1.084943974711735,-0.04029659593035631
-3.948,-1.981238662757077,-0.4323722169215513
-3.9475,-2.696140378221814,-0.8350444763179138
-3.947,-2.685470203364131,-0.5383386009732256
-3.9465,-1.863866739322568,-0.2416327256285375
-3.946,-0.9569018764195432,-0.04029659593035631
-3.9455,-0.2846808603855366,0.06566978812131802
-3.945,0.09944543449103843,0.1292496185523226
-3.9445,0.2701682322139607,0.1610395337678249
-3.944,0.3128489316446912,0.1928294489833272
-3.9435,0.291508581929326,0.2352160026039969
-3.943,0.2594980573562781,0.2670059178194992
-3.9425,0.2381577076409128,0.3199891098453364
-3.942,0.2274875327832301,0.3517790250608387
-3.9415,0.2274875327832301,0.3941655786815084
-3.941,0.3982103305061524,0.4471487707073456
-3.9405,1.113112045970889,0.6166949851900245
-3.94,1.817343586577944,0.5213252395435176
-3.9395,2.009406734016231,-0.02969995752518888
-3.939,1.870694460866357,-0.1462629799820306
-3.9385,1.465227816274416,-0.01910331912002144
-3.938,1.038420821967111,0.1080563417419877
-3.9375,0.6649647019482183,0.2034260873884947
-3.937,0.3875401556484697,0.2246193641988295
-3.9365,0.2168173579255475,0.2140227257936621
-3.936,0.142126133921769,0.2140227257936621
-3.9355,0.08877525963335578,0.1716361721729923
-3.935,-0.02859666380115328,-0.02969995752518888
-3.9345,-0.02859666380115328,-0.1038764263613609
-3.934,0.02475421048725994,-0.09327978795619347
-3.9335,0.00341386077189465,-0.1462629799820306
-3.933,-0.6261264558313813,-0.7714646458869092
-3.9325,-0.9675720512772257,-0.8244478379127463
-3.932,-1.661133417026597,-0.7396747306714069
-3.9315,-2.493407055925843,-0.7608680074817418
-3.931,-2.973564924521563,-0.7290780922662394
-3.9305,-3.101607022813754,-0.07208651114585861
-3.93,-2.376035132491334,0.2776025562246667
-3.9295,-1.383708870726849,0.2670059178194992
-3.929,-0.5621054066852853,0.1504428953626575
-3.9285,-0.04993701351651855,0.05507314971615059
-3.928,0.2168173579255475,0.02328323450064829
-3.9275,0.3128489316446912,0.04447651131098315
-3.927,0.3235191065023739,0.1080563417419877
-3.9265,0.291508581929326,0.1822328105781598
-3.926,0.2594980573562781,0.2564092794143318
-3.9255,0.2274875327832301,0.3305857482505039
-3.925,0.2274875327832301,0.4047622170866759
-3.9245,0.2808384070716433,0.4789386859228479
-3.924,0.7609962756673623,0.5955017083796896
-3.9235,1.56125938999356,0.5955017083796896
-3.923,2.212140056312201,0.13984625695749
-3.9225,2.233480406027567,-0.1992461720078678
-3.922,1.817343586577944,-0.1674562567923655
-3.9215,1.294505018551494,0.01268659609548085
-3.921,0.825017324813458,0.1610395337678249
-3.9205,0.4835717293676135,0.2670059178194992
-3.92,0.2808384070716433,0.309392471440169
-3.9195,0.1741366584948169,0.309392471440169
-3.919,0.1314559590640864,0.2670059178194992
-3.9185,0.01408403562957729,0.06566978812131802
-3.918,-0.02859666380115328,-0.06148987274069118
-3.9175,0.00341386077189465,-0.07208651114585861
-3.917,0.0674349099179905,-0.05089323433552374
-3.9165,0.09944543449103843,-0.02969995752518888
-3.916,0.0674349099179905,-0.06148987274069118
-3.9155,-0.3593720843893152,-0.2628260024388724
-3.915,-1.522421143876723,-1.078767159636765
-3.9145,-2.461396531352796,-1.937094870455327
-3.914,-2.834852651371688,-1.407262950196955
-3.9135,-2.696140378221814,-0.474758770542221
-3.913,-1.821186039891837,-0.008506680714854012
-3.9125,-0.8502001278427167,0.1610395337678249
-3.912,-0.2420001609548061,0.09745970333682032
-3.9115,0.08877525963335578,0.01268659609548085
-3.911,0.2381577076409128,-0.008506680714854012
-3.9105,0.2808384070716433,0.01268659609548085
-3.91,0.2701682322139607,0.08686306493165288
-3.9095,0.2488278824985954,0.1716361721729923
-3.909,0.2381577076409128,0.2776025562246667
-3.9085,0.2488278824985954,0.3729723018711736
-3.908,0.2488278824985954,0.4471487707073456
-3.9075,0.5582629533713921,0.5637117931641874
-3.907,1.326515543124542,0.6908714540261965
-3.9065,1.860024286008674,0.4471487707073456
-3.906,1.998736559158548,0.01268659609548085
-3.9055,1.892034810581722,0.05507314971615059
-3.905,1.454557641416734,0.13984625695749
-3.9045,1.006410297394063,0.1928294489833272
-3.904,0.6329541773751706,0.2352160026039969
-3.9035,0.3768699807907871,0.2881991946298341
-3.903,0.2274875327832301,0.309392471440169
-3.9025,0.1634664836371343,0.2987958330350016
-3.902,0.0674349099179905,0.13984625695749
-3.9015,-0.04993701351651855,-0.1144730647665284
-3.901,-0.02859666380115328,-0.1568596183871981
-3.9005,0.02475421048725994,-0.1144730647665284
-3.9,0.07810508477567314,-0.06148987274069118
-3.8995,0.09944543449103843,-0.01910331912002144
-3.899,-0.1139580626626144,0.07626642652648545
-3.8985,-0.807519428411986,0.2564092794143318
-3.898,-1.533091318734406,0.2034260873884947
-3.8975,-2.087940411333903,0.1716361721729923
-3.897,-2.269333383914508,0.2987958330350016
-3.8965,-2.151961460479999,-0.3475991096802118
-3.896,-1.383708870726849,-0.4429688553267188
-3.8955,-0.7434983792658902,-0.474758770542221
-3.895,-0.2846808603855366,-0.3899856633008816
-3.8945,0.08877525963335578,-0.1568596183871981
-3.894,0.2594980573562781,0.002089957690313421
-3.8935,0.2594980573562781,0.07626642652648545
-3.893,0.2274875327832301,0.1610395337678249
-3.8925,0.2061471830678648,0.2352160026039969
-3.892,0.2061471830678648,0.3199891098453364
-3.8915,0.2168173579255475,0.3941655786815084
-3.891,0.4195506802215176,0.5213252395435176
-3.8905,1.123782220828572,0.8074344764830383
-3.89,1.92404533515477,0.8392243916985406
-3.8895,2.297501455173662,0.3623756634660061
-3.889,2.190799706596836,0.309392471440169
-3.8885,1.742652362574165,0.309392471440169
-3.888,1.19847344483235,0.309392471440169
-3.8875,0.7503261008096795,0.3517790250608387
