Class_11_Cell_phone_Call/Class_11_Cell_phone_Call_SH_7.csv

#Digilent WaveForms Oscilloscope Acquisition
#Device Name: EExplorer
#Serial Number: SN:210151A2B84A
#Date Time: 2020-12-17 15:48:15.541
#Sample rate: 2000Hz
#Samples: 16384
#Trigger: Source: Channel 1 Type: Edge Condition: Rising Level: 0 V Hyst.: Auto HoldOff: 0 s
#Channel 1: Range: 1 V/div Offset: 0 V Attenuation: 1 X
#Channel 2: Range: 1 V/div Offset: 0 V Attenuation: 1 X
#Power Supplies: ON
#Fixed Supply: ON
#Voltage: 3.3 V Readback: 3.326 V
#Positive Supply: ON
#Voltage: 3.7 V Readback: 3.722 V
#Current: 40 mA Readback: 18 mA
#Negative Supply: ON
#Voltage: -3.7 V Readback: -3.353 V
#Current: -40 mA Readback: -7 mA
#Reference 1: ON
#Voltage: 0 V
#Reference 2: ON
#Voltage: 0 V

Time (s),Channel 1 (V),Channel 2 (V)
-4.096,0.07810508477567314,-0.5595318777835605
-4.0955,0.3768699807905154,-0.5701285161887183
-4.095,0.5155822539406905,-0.6019184314042592
-4.0945,0.5475927785137094,-0.6337083466197325
-4.094,0.5262524287983635,-0.6866915386455216
-4.0935,0.483571729367662,-0.6654982618353216
-4.093,0.5369226036560266,-0.7608680074817418
-4.0925,0.5155822539406808,-0.7078848154559527
-4.092,0.4515612047945073,-0.4747587705419897
-4.0915,0.3875401556484697,-0.2204394488182027
-4.091,0.3448594562177392,0.03387987290581572
-4.0905,0.1634664836366393,0.06566978812087469
-4.09,-0.3807124341046804,-0.4217755785163839
-4.0895,-1.042263275281004,-0.9622041371799229
-4.089,-1.650463242168362,-1.301296566144972
-4.0885,-2.023919362187807,-1.375473034981453
-4.088,-1.586442193022819,-0.9198175835592532
-4.0875,-0.8608703027010591,-0.1356663415775764
-4.087,-0.274010685527495,0.5213252395438934
-4.0865,0.1207857842064037,0.9345941373450475
-4.086,0.3235191065021895,1.125333628637888
-4.0855,0.3982103305061524,1.146526905448319
-4.085,0.3982103305061524,1.061753798207057
-4.0845,0.3768699807908065,0.9239974989400053
-4.084,0.3448594562177197,0.796837838077736
-4.0835,0.3235191065023739,0.6484849004055269
-4.083,0.3235191065023739,0.5001319627331828
-4.0825,0.3448594562178459,0.4047622170868686
-4.082,0.4622313796522482,0.6166949851900245
-4.0815,0.4622313796522482,1.104140351827727
-4.081,0.1421261339220601,1.432636142387618
-4.0805,-0.5300948821122373,1.178316820663898
-4.08,-0.6474668055467465,0.6378882620003594
-4.0795,-0.2740106855281937,-0.02969995752458165
-4.079,0.131455959064329,-0.5277419625683474
-4.0785,0.3982103305061524,-0.8456411147230812
-4.078,0.5262524287982276,-0.9728007755849747
-4.0775,0.5369226036559878,-0.9622041371798459
-4.077,0.4942419042252961,-0.8774310299385835
-4.0765,0.5689331282290067,-0.8350444763179523
-4.076,0.7289857510942658,-0.7926579226969741
-4.0755,0.6756348768059011,-0.4959520473525559
-4.075,0.5582629533713921,-0.1250697031716958
-4.0745,0.4408910299368247,0.245812641009415
-4.074,0.3768699807907871,0.5213252395435176
-4.0735,0.6542945270905358,0.7226613692416989
-4.073,0.6542945270905358,0.6272916235952787
-4.0725,0.09944543449103843,0.1292496185523226
-4.072,-0.5941159312583333,-0.3370024712750445
-4.0715,-0.9035510021308485,-0.3158091944647288
-4.071,-0.6688071552617818,0.2140227257941729
-4.0705,-0.3060212101009019,0.775644561267536
-4.07,0.01408403562928612,1.157123543853217
-4.0695,0.2168173579256348,1.326669758336233
-4.069,0.3128489316446912,1.316073119931075
-4.0685,0.3555296310754218,1.188913459069066
-4.068,0.3555296310754024,0.9875773293706823
-4.0675,0.3341892813600565,0.7650479228623686
-4.067,0.3235191065023739,0.5425185163538525
-4.0665,0.312848931644701,0.3199891098451919
-4.066,0.3235191065023739,0.1610395337678249
-4.0655,0.3021787567870086,0.2246193641988295
-4.065,0.3021787567870086,0.6590815388102991
-4.0645,0.02475421048725994,0.6696781772158616
-4.064,-0.391382608962363,-0.04029659593035631
-4.0635,-0.2740106855279608,-0.5489352393779304
-4.063,0.05676473506056988,-0.7078848154559045
-4.0625,0.3448594562177392,-0.7078848154559045
-4.062,0.4942419042251602,-0.7290780922662201
-4.0615,0.5475927785136899,-0.856237753128268
-4.061,0.5262524287983441,-0.8774310299385835
-4.0605,0.4729015545099309,-0.8032545611024114
-4.06,0.4835717293678367,-0.750271369076661
-4.0595,0.7289857510943143,-0.8456411147230812
-4.059,0.7503261008096795,-0.6866915386455698
-4.0585,0.6329541773752774,-0.3899856633011514
-4.058,0.4942419042252961,-0.05089323433552374
-4.0575,0.3875401556484697,0.2458126410091644
-4.057,0.4195506802214886,0.4577454091123203
-4.0565,0.7183155762366316,0.5213252395435176
-4.056,0.1634664836371343,0.06566978812131802
-4.0555,-0.7648387289804111,-0.4641621321365718
-4.055,-1.362368521011309,-0.7078848154555383
-4.0545,-1.170305373573196,-0.3052125560595421
-4.054,-0.6688071552625678,0.3305857482499256
-4.0535,-0.209989636381467,0.8392243916988105
-4.053,0.1101156093487211,1.135930267043229
-4.0525,0.2808384070716433,1.220703374284568
-4.052,0.3448594562177489,1.178316820663773
-4.0515,0.3555296310754218,1.040560521396722
-4.051,0.3448594562177392,0.849821030103708
-4.0505,0.3235191065023933,0.6484849004057099
-4.05,0.3128489316446912,0.5107286011383502
-4.0495,0.3235191065023739,0.4259554938970107
-4.049,0.3341892813600468,0.3411823866557483
-4.0485,0.1421261339216137,0.02328323450026278
-4.048,-0.02859666380115328,-0.400582301706049
-4.0475,-0.4554036581080707,-1.046977244420674
-4.047,-0.6474668055464651,-1.216523458903643
-4.0465,-0.3380317346739499,-0.8880276683437509
-4.046,0.06743490991762174,-0.6337083466199638
-4.0455,0.3661998059332112,-0.4641621321370729
-4.045,0.4835717293676135,-0.4853554089473885
-4.0445,0.5155822539406614,-0.5807251545938954
-4.044,0.50491207908294,-0.6443049850249193
-4.0435,0.4622313796522482,-0.6654982618352349
-4.043,0.408880505363835,-0.8350444763179138
-4.0425,0.2915085819294327,-0.8668343915333873
-4.042,0.2594980573562781,-0.6231117082145651
-4.0415,0.2488278824985954,-0.3052125560595421
-4.041,0.2701682322139413,0.002089957690033895
-4.0405,0.3448594562181662,0.2352160026040451
-4.04,0.8143471499557753,0.2881991946298341
-4.0395,0.7716664505250836,-0.07208651114553094
-4.039,-0.03926683865958316,-0.5383386009733027
-4.0385,-0.8608703027003992,-0.6231117082145651
-4.038,-1.287677297007317,-0.7184814538609853
-4.0375,-1.031593100422885,-0.3793890248952804
-4.037,-0.5514352318276028,0.09745970333682032
-4.0365,-0.124628237520297,0.4789386859228479
-4.036,0.1527963087795778,0.7120647308366278
-4.0355,0.291508581929326,0.8180311148882058
-4.035,0.3448594562177392,0.8180311148882058
-4.0345,0.3448594562177392,0.7650479228624167
-4.034,0.3341892813600565,0.6802748156210291
-4.0335,0.3128489316446912,0.6484849004055269
-4.033,0.3021787567870183,0.6060983467848956
-4.0325,0.3021787567868534,0.5213252395437007
-4.032,0.1314559590640864,0.7226613692416989
-4.0315,0.09944543449106755,1.167720182258326
-4.031,-0.08194753808977027,0.9663840525597306
-4.0305,-0.3060212101009019,0.06566978812131802
-4.03,-0.1779791118088267,-0.506548685757203
-4.0295,0.1421261339219825,-0.7078848154559142
-4.029,0.3768699807907871,-0.718481453861072
-4.0285,0.4942419042252961,-0.6972881770507372
-4.028,0.526252428798315,-0.7078848154558949
-4.0275,0.4942419042252961,-0.6972881770507372
-4.027,0.4408910299368829,-0.6231117082145651
-4.0265,0.4088805053638641,-0.6549016234300385
-4.026,0.4195506802215176,-0.6866915386455698
-4.0255,0.3875401556484697,-0.474758770542221
-4.025,0.344859456217778,-0.1886495336029606
-4.0245,0.3128489316446427,0.08686306493182636
-4.024,0.2594980573562781,0.2776025562246667
-4.0235,-0.1886492866659853,-0.04029659593006718
-4.023,-0.796849253554779,-0.6231117082149892
-4.0225,-1.319687821580753,-1.089363798041932
-4.022,-1.597112367880249,-1.333086481360561
-4.0215,-1.458400094730123,-1.099960436446454
-4.021,-0.9035510021311299,-0.3899856633008816
-4.0205,-0.3593720843893152,0.2881991946298341
-4.02,0.03542438534513666,0.7544512844574035
-4.0195,0.2488278824985954,0.9769806909657173
-4.019,0.3448594562177392,1.00877060618122
-4.0185,0.3555296310754121,0.934594137345115
-4.018,0.3448594562177392,0.7968378380778709
-4.0175,0.3235191065023739,0.627291623595192
-4.017,0.302178756787028,0.5001319627332985
-4.0165,0.3021787567870571,0.4259554938970878
-4.016,0.3555296310754218,0.5107286011383502
-4.0155,0.3982103305061136,0.521325239543508
-4.015,0.1101156093480903,0.5107286011377623
-4.0145,-0.5834457564006506,-0.1356663415768632
-4.014,-1.074273799853606,-0.9516074987740134
-4.0135,-0.9675720512767404,-1.174136905283069
-4.013,-0.4340633083930936,-0.9516074987747555
-4.0125,0.08877525963335578,-0.6866915386455698
-4.012,0.3982103305062786,-0.5489352393783256
-4.0115,0.5369226036560266,-0.474758770542221
-4.011,0.5475927785137094,-0.4641621321370536
-4.0105,0.4942419042253446,-0.4747587705422114
-4.01,0.4515612047945656,-0.4959520473525559
-4.0095,0.5262524287983441,-0.6019184314042303
-4.009,0.515582253940671,-0.5277419625681258
-4.0085,0.440891029936815,-0.3581957480851962
-4.008,0.3661998059331045,-0.1568596183871981
-4.0075,0.3128489316447398,0.03387987290564226
-4.007,0.04609456020221762,-0.1250697031722162
-4.0065,-0.4020527838200457,-0.6972881770507372
-4.006,-1.06360362499637,-1.227120097309109
-4.0055,-1.607782542738504,-1.492036057438324
-4.005,-1.959898313041711,-1.523825972653797
-4.0045,-1.554431668449771,-1.036380606016095
-4.004,-0.8608703026998752,-0.2522293640331075
-4.0035,-0.2846808603855366,0.4047622170866759
-4.003,0.09944543449103843,0.8180311148882058
-4.0025,0.2915085819291513,1.008770606181046
-4.002,0.3661998059331045,1.040560521396722
-4.0015,0.3661998059331045,0.9663840525605498
-4.001,0.3448594562177586,0.8392243916986563
-4.0005,0.3235191065023544,0.7120647308364351
-4,0.3021787567870086,0.6060983467848571
-3.9995,0.3021787567870086,0.5425185163538525
-3.999,0.3661998059331045,0.5955017083796896
-3.9985,0.7183155762366316,0.92399749893988
-3.998,1.166462920259302,1.369056311956912
-3.9975,0.8036769750980928,1.188913459069066
-3.997,0.1954770082101822,0.457745409112513
-3.9965,0.09944543449103843,-0.06148987274069118
-3.996,0.2274875327832301,-0.474758770542221
-3.9955,0.3661998059331045,-0.6760949002404023
-3.995,0.4515612047945656,-0.8138511995075789
-3.9945,0.4835717293676135,-0.8774310299385835
-3.994,0.4622313796522482,-0.8562377531282487
-3.9935,0.4408910299368829,-0.7502713690765743
-3.993,0.5689331282290746,-0.6972881770507372
-3.9925,0.6436243522328531,-0.5913217929990628
-3.992,0.5689331282290746,-0.3581957480853793
-3.9915,0.4622313796522482,-0.1038764263613609
-3.991,0.3768699807907871,0.13984625695749
-3.9905,0.2594980573562781,0.2776025562246667
-3.99,-0.2420001609548061,-0.08268314955102604
-3.9895,-0.9035510021311299,-0.6125150698093976
-3.989,-1.298347471865388,-0.9728007755850904
-3.9885,-1.650463242168915,-1.174136905283272
-3.988,-1.458400094730627,-0.8986243067489184
-3.9875,-0.8822106524157645,-0.1780528951975329
-3.987,-0.3380317346739499,0.4895353243280153
-3.9865,0.04609456020262521,0.9345941373450475
-3.986,0.2488278824985954,1.146526905448396
-3.9855,0.3341892813600565,1.167720182258731
-3.985,0.3555296310754218,1.082947075017392
-3.9845,0.3341892813600565,0.92399749893988
-3.984,0.3128489316446912,0.7438546460520338
-3.9835,0.291508581929326,0.5637117931641874
-3.983,0.291508581929326,0.4153588554918433
-3.9825,0.3021787567870086,0.2987958330350016
-3.982,0.1527963087794516,0.1822328105781598
-3.9815,-0.4340633083930936,0.09745970333682032
-3.981,-1.116954499284783,-0.474758770542221
-3.9805,-1.330357996438436,-1.05757388282643
-3.98,-0.8608703027003992,-1.025783967610927
-3.9795,-0.2099896363817582,-0.8456411147230812
-3.979,0.2381577076409128,-0.7396747306714069
-3.9785,0.4729015545099309,-0.6866915386455698
-3.978,0.5475927785137094,-0.7078848154559045
-3.9775,0.5369226036560266,-0.718481453861072
-3.977,0.4835717293676135,-0.6972881770507372
-3.9765,0.5262524287983441,-0.6654982618352349
-3.976,0.79300680024041,-0.8244478379127463
-3.9755,0.8143471499557753,-0.7820612842920766
-3.975,0.6649647019482183,-0.5489352393783931
-3.9745,0.5049120790829789,-0.2628260024388724
-3.974,0.3555296310754218,-0.01910331912002144
-3.9735,0.2061471830678648,-0.1780528951975329
-3.973,0.2274875327832301,-0.6549016234300674
-3.9725,-0.3487019095316325,-1.142346990067769
-3.972,-1.010252750707956,-1.258910012524611
-3.9715,-1.554431668449771,-1.227120097309109
-3.971,-1.383708870726849,-0.7608680074817418
-3.9705,-0.8288597781273515,-0.05089323433552374
-3.97,-0.3060212101009019,0.5425185163538525
-3.9695,0.05676473506030786,0.9134008605347127
-3.969,0.2594980573562781,1.072350436612224
-3.9685,0.3341892813600565,1.072350436612224
-3.968,0.3448594562177392,0.9981739677760521
-3.9675,0.3341892813600565,0.8710143069140429
-3.967,0.3128489316446912,0.775644561267536
-3.9665,0.3021787567870086,0.6802748156210291
-3.966,0.3021787567870086,0.5849050699745222
-3.9655,0.3021787567870086,0.6060983467848571
-3.965,0.5049120790829789,0.9451907757502149
-3.9645,0.3875401556484697,1.082947075017392
-3.964,-0.2420001609548061,0.3517790250608387
-3.9635,-0.5194247072545548,-0.1462629799820306
-3.963,-0.3060212101009019,-0.2946159176543747
-3.9625,0.01408403562957729,-0.4535654937318862
-3.962,0.2808384070716433,-0.6125150698093976
-3.9615,0.4408910299368829,-0.7396747306714069
-3.961,0.4942419042252961,-0.8244478379127463
-3.9605,0.4729015545099309,-0.8032545611024114
-3.96,0.4408910299368829,-0.7396747306714069
-3.9595,0.5475927785137094,-0.8032545611024114
-3.959,0.5689331282290746,-0.718481453861072
-3.9585,0.4942419042252961,-0.4853554089473885
-3.958,0.3982103305061524,-0.2098428104130352
-3.9575,0.3341892813600565,0.04447651131098315
-3.957,0.05676473506030786,0.002089957690313421
-3.9565,-0.6047861061160158,-0.5065486857577234
-3.956,-1.277007122150022,-1.01518732920576
-3.9555,-1.821186039891837,-1.248313374119443
-3.955,-2.226652684483777,-1.216523458903942
-3.9545,-1.970568487899394,-0.9198175835592532
-3.954,-1.170305373573196,-0.2204394488182027
-3.9535,-0.4874141826815069,0.4471487707073456
-3.953,-0.007256314085787988,0.9028042221295453
-3.9525,0.2488278824985954,1.114736990232894
-3.952,0.3555296310754218,1.157123543853563
-3.9515,0.3768699807907871,1.072350436612224
-3.951,0.3555296310754218,0.9345941373450475
-3.9505,0.3235191065023739,0.7862411996727035
-3.95,0.3021787567870086,0.6484849004055269
-3.9495,0.3128489316446912,0.5743084315693548
-3.949,0.3448594562177392,0.5743084315693548
-3.9485,0.6756348768059011,0.7544512844572011
-3.948,0.9530594231056497,0.701468092431364
-3.9475,0.5262524287983441,-0.09327978795619347
-3.947,-0.1139580626626144,-0.7290780922662394
-3.9465,-0.2313299860971235,-0.8456411147230812
-3.946,0.02475421048725994,-0.718481453861072
-3.9455,0.2808384070716433,-0.6125150698093976
-3.945,0.4515612047945656,-0.5489352393783931
-3.9445,0.5049120790829789,-0.6019184314042303
-3.944,0.5155822539406614,-0.6972881770507372
-3.9435,0.4835717293676135,-0.7290780922662394
-3.943,0.5582629533713921,-0.8244478379127463
-3.9425,0.6009436528021226,-0.792657922697244
-3.942,0.5262524287983441,-0.570128516188728
-3.9415,0.4302208550792003,-0.3052125560595421
-3.941,0.3448594562177392,-0.05089323433552374
-3.9405,0.2168173579255475,0.07626642652648545
-3.94,-0.2099896363817582,-0.3158091944647096
-3.9395,-0.8288597781273515,-0.8668343915334161
-3.939,-1.30901764672307,-1.258910012524611
-3.9385,-1.725154466172693,-1.439052865412457
-3.938,-1.575772018165136,-1.0999604364471
-3.9375,-0.9675720512772257,-0.3158091944647096
-3.937,-0.391382608962363,0.4047622170866759
-3.9365,0.01408403562957729,0.8922075837243778
-3.936,0.2381577076409128,1.125333628638062
-3.9355,0.3341892813600565,1.188913459069066
-3.935,0.3555296310754218,1.125333628638062
-3.9345,0.3341892813600565,0.9875773293708847
-3.934,0.3128489316446912,0.8286277532933731
-3.9335,0.291508581929326,0.6696781772158616
-3.933,0.2808384070716433,0.5425185163538525
-3.9325,0.3021787567870086,0.5001319627331828
-3.932,0.1954770082101822,0.6166949851900245
-3.9315,-0.274010685527854,0.9345941373450475
-3.931,-0.7648387289812555,0.4789386859228479
-3.9305,-1.138294849000148,-0.4429688553267188
-3.93,-1.052933450138687,-0.9092209451540858
-3.9295,-0.5407650569699201,-0.8562377531282487
-3.929,-0.03926683865883591,-0.792657922697244
-3.9285,0.3021787567870086,-0.7608680074817418
-3.928,0.4408910299368829,-0.718481453861072
-3.9275,0.4942419042252961,-0.6337083466197325
-3.927,0.4729015545099309,-0.570128516188728
-3.9265,0.4835717293676135,-0.6019184314042303
-3.926,0.6436243522328531,-0.7608680074817418
-3.9255,0.6116138276598051,-0.6549016234300674
-3.925,0.5049120790829789,-0.4217755785163839
-3.9245,0.408880505363835,-0.1568596183871981
-3.924,0.3235191065023739,0.07626642652648545
-3.9235,0.3661998059331045,0.13984625695749
-3.923,0.5582629533713921,-0.2204394488182027
-3.9225,-0.007256314085787988,-0.7714646458869092
-3.922,-0.8502001278427167,-1.195330182093607
-3.9215,-1.362368521011484,-1.280103289334946
-3.921,-1.138294849000148,-0.718481453861072
-3.9205,-0.6474668055467465,0.02328323450064829
-3.92,-0.1993194615240755,0.6060983467848571
-3.9195,0.1101156093487211,0.9451907757502149
-3.919,0.2701682322139607,1.082947075017392
-3.9185,0.3235191065023739,1.072350436612224
-3.918,0.3341892813600565,0.9769806909657173
-3.9175,0.3128489316446912,0.8392243916985406
-3.917,0.3021787567870086,0.701468092431364
-3.9165,0.291508581929326,0.5743084315693548
-3.916,0.3021787567870086,0.5637117931641874
-3.9155,0.3768699807907871,0.627291623595192
-3.915,0.8143471499557753,0.9134008605347127
-3.9145,0.7609962756673623,0.5849050699745222
-3.914,0.01408403562957729,-0.3158091944647096
-3.9135,-0.4874141826815069,-0.8774310299385835
-3.913,-0.3700422592469978,-0.9622041371799229
-3.9125,-0.04993701351651855,-0.8668343915334161
-3.912,0.2381577076409128,-0.792657922697244
-3.9115,0.3982103305061524,-0.8032545611024114
-3.911,0.4515612047945656,-0.8138511995075789
-3.9105,0.4729015545099309,-0.7820612842920766
-3.91,0.4515612047945656,-0.7396747306714069
-3.9095,0.5369226036560266,-0.8032545611024114
-3.909,0.5262524287983441,-0.7078848154559045
-3.9085,0.4515612047945656,-0.4853554089473885
-3.908,0.3768699807907871,-0.2416327256285375
-3.9075,0.3235191065023739,-0.01910331912002144
-3.907,0.2168173579255475,0.08686306493165288
-3.9065,0.1101156093487211,-0.3052125560595421
-3.906,-0.3593720843893152,-0.8774310299385835
-3.9055,-0.9035510021311299,-1.290699927740113
-3.905,-1.383708870726849,-1.460246142222792
-3.9045,-1.244996597576974,-1.01518732920576
-3.904,-0.754168554123573,-0.2416327256285375
-3.9035,-0.2846808603855366,0.4365521323021782
-3.903,0.05676473506030786,0.8710143069140429
-3.9025,0.2381577076409128,1.082947075017392
-3.902,0.3128489316446912,1.125333628638062
-3.9015,0.3341892813600565,1.061753798207057
-3.901,0.3128489316446912,0.9451907757502149
-3.9005,0.3021787567870086,0.8074344764830383
-3.9,0.2808384070716433,0.6908714540261965
-3.8995,0.2808384070716433,0.627291623595192
-3.899,0.291508581929326,0.6060983467848571
-3.8985,0.07810508477567314,0.8710143069140429
-3.898,0.3768699807907871,1.305476481525908
-3.8975,0.5475927785137094,1.082947075017392
-3.897,-0.07127736323188383,0.1080563417419877
-3.8965,-0.3593720843893152,-0.4535654937318862
-3.896,-0.1779791118087102,-0.570128516188728
-3.8955,0.0674349099179905,-0.5913217929990628
-3.895,0.2701682322139607,-0.6654982618352349
-3.8945,0.3982103305061524,-0.7396747306714069
-3.894,0.4408910299368829,-0.7608680074817418
-3.8935,0.4195506802215176,-0.7290780922662394
-3.893,0.5369226036560266,-0.792657922697244
-3.8925,0.6649647019482183,-0.8032545611024114
-3.892,0.5902734779444399,-0.5807251545938954
-3.8915,0.4729015545099309,-0.2840192792492073
-3.891,0.3768699807907871,-0.008506680714854012
-3.8905,0.2488278824985954,0.1504428953626575
-3.89,-0.1993194615240755,-0.1992461720078678
-3.8895,-0.8181896032696687,-0.7608680074817418
-3.889,-1.415719395299897,-1.184733543688439
-3.8885,-1.885207089037933,-1.364876396576285
-3.888,-1.714484291315011,-1.05757388282643
-3.8875,-1.052933450138687,-0.3052125560595421
-3.887,-0.4340633083930936,0.3941655786815084
