Class_11_Cell_phone_Call/Class_11_Cell_phone_Call_Turki_3.csv

#Digilent WaveForms Oscilloscope Acquisition
#Device Name: EExplorer
#Serial Number: SN:210151A2B84A
#Date Time: 2020-12-10 14:12:19.650
#Sample rate: 2000Hz
#Samples: 16384
#Trigger: Source: Channel 1 Type: Edge Condition: Rising Level: 0 V Hyst.: Auto HoldOff: 0 s
#Channel 1: Range: 1 V/div Offset: 0 V Attenuation: 1 X
#Channel 2: Range: 1 V/div Offset: 0 V Attenuation: 1 X
#Power Supplies: ON
#Fixed Supply: ON
#Voltage: 3.3 V Readback: 3.33 V
#Positive Supply: ON
#Voltage: 3.7 V Readback: 3.709 V
#Current: 40 mA Readback: 23 mA
#Negative Supply: ON
#Voltage: -3.7 V Readback: -4.011 V
#Current: -40 mA Readback: -5 mA
#Reference 1: ON
#Voltage: 0 V
#Reference 2: ON
#Voltage: 0 V

Time (s),Channel 1 (V),Channel 2 (V)
-4.096,0.8143471499557753,-0.4217755785163839
-4.0955,0.6863050516637003,-0.4853554089473306
-4.095,0.7609962756673719,-0.707884815455837
-4.0945,0.7716664505250448,-0.6337083466197325
-4.094,0.6222840025176237,-0.3475991096804721
-4.0935,0.4515612047944394,-0.07208651114564658
-4.093,0.3128489316446912,0.1610395337678249
-4.0925,0.3128489316446912,0.3623756634658231
-4.092,0.825017324813885,0.3729723018714723
-4.0915,1.294505018551494,0.701468092431364
-4.091,0.9317190733902845,0.3411823866556712
-4.0905,-0.03926683865973843,-0.2946159176549047
-4.09,-1.031593100423322,-0.8774310299385835
-4.0895,-1.287677297007705,-0.8350444763179138
-4.089,-0.956901876419844,-0.1780528951981305
-4.0885,-0.5194247072545548,0.5637117931641874
-4.088,-0.3593720843893152,0.9345941373450475
-4.0875,-0.6474668055464845,0.7968378380779961
-4.087,-0.4340633083929287,1.093543713422752
-4.0865,-0.2526703358124887,1.305476481525908
-4.086,-0.08194753808972174,1.464426057603275
-4.0855,0.03542438534492317,1.623375633680902
-4.085,0.01408403562957729,1.591585718465428
-4.0845,-0.00725631408576858,1.422039503982904
-4.084,-0.2633405106708604,0.8180311148877046
-4.0835,-1.020922925565639,0.2670059178194992
-4.083,-1.607782542738184,-0.3793890248957141
-4.0825,-1.650463242168245,-1.322489842956329
-4.082,-0.9142211769888124,-2.106641084938006
-4.0815,0.2488278824985954,-2.647069643601545
-4.081,0.9743997728203551,-2.212607468990075
-4.0805,1.134452395686255,-1.354279758171118
-4.08,1.017080472251745,-0.8562377531282487
-4.0795,0.8570278493866516,-0.6231117082147771
-4.079,0.6863050516635449,-0.644304985024977
-4.0785,0.6436243522328531,-0.7290780922662394
-4.078,0.6969752265212178,-0.7714646458868707
-4.0775,0.590273477944304,-0.6443049850247169
-4.077,0.4408910299368829,-0.4429688553267188
-4.0765,0.3235191065024806,-0.2310360872235629
-4.076,0.2701682322142615,-0.01910331911987688
-4.0755,0.6009436528021226,0.13984625695749
-4.075,1.283834843693812,0.5849050699745222
-4.0745,1.219813794546862,0.415358855491159
-4.074,0.2808384070716433,-0.3370024712750445
-4.0735,-0.6154562809736985,-1.01518732920576
-4.073,-0.8822106524155218,-1.057573882826391
-4.0725,-0.6794773301197943,-0.3793890248957141
-4.072,-0.3593720843893152,0.4365521323021782
-4.0715,-0.09261771294749177,1.093543713421962
-4.071,0.08877525963343341,1.528005888034645
-4.0705,0.1741366584948169,1.771728571353275
-4.07,0.1954770082101628,1.867098316999695
-4.0695,0.04609456020247965,1.729342017732441
-4.069,-0.1139580626626144,1.549199164844759
-4.0685,-0.690147504977477,0.92399749893988
-4.068,-0.5194247072545063,0.9557874141551993
-4.0675,-0.4660738329661415,0.7544512844572011
-4.067,-0.9782422261349084,0.2776025562246667
-4.0665,-1.650463242169361,-0.3052125560604481
-4.066,-2.141291285622316,-1.301296566145281
-4.0655,-1.757164990745741,-1.88411167842949
-4.065,-0.6901475049784476,-1.873515040024332
-4.0645,0.3235191065023739,-1.227120097309109
-4.064,0.8890383739595538,-0.6125150698093976
-4.0635,1.027750647109302,-0.284019279249506
-4.063,0.9530594231055138,-0.1886495336027389
-4.0625,0.8036769750980928,-0.2310360872233701
-4.062,0.6863050516636906,-0.4111789401110526
-4.0615,0.7503261008096019,-0.6866915386454734
-4.061,0.6649647019482183,-0.5807251545938954
-4.0605,0.5049120790829789,-0.3899856633008816
-4.06,0.3661998059330074,-0.2098428104128618
-4.0595,0.2594980573562781,-0.01910331912002144
-4.059,0.4622313796522482,-0.08268314955102604
-4.0585,1.081101521397279,-0.241632725628393
-4.058,1.241154144263081,-0.3052125560595421
-4.0575,0.3341892813600565,-0.7714646458869092
-4.057,-0.92489135184535,-1.195330182093221
-4.0565,-1.789175515318789,-1.42845622700729
-4.056,-1.661133417026597,-0.9198175835592532
-4.0555,-1.074273799854586,-0.01910331912084062
-4.055,-0.4980843575388207,0.7862411996732143
-4.0545,-0.09261771294724913,1.347863035146577
-4.054,0.1314559590638826,1.665762187301311
-4.0535,0.2274875327832204,1.79292184816361
-4.053,0.2168173579255475,1.79292184816361
-4.0525,0.1207857842064037,1.761131932948107
-4.052,0.01408403562952877,1.591585718465245
-4.0515,-0.03926683865883591,1.390249588767247
-4.051,-0.1139580626626144,1.114736990232894
-4.0505,-0.5300948821118588,0.542518516354373
-4.05,-1.202315898146244,-0.1674562567923655
-4.0495,-1.533091318734406,-0.6019184314042303
-4.049,-1.597112367880443,-0.559531877783599
-4.0485,-1.063603624995322,-1.354279758171272
-4.048,0.08877525963335578,-1.523825972653797
-4.0475,0.7823366253820967,-1.205926820499063
-4.047,1.049090996824823,-0.7608680074815009
-4.0465,1.081101521397841,-0.4959520473525559
-4.046,0.8997085488174015,-0.4747587705422403
-4.0455,0.686305051663642,-0.5171453241631799
-4.045,0.7503261008096795,-0.8350444763179138
-4.0445,0.7823366253827275,-0.9198175835592532
-4.044,0.6222840025173325,-0.6654982618349458
-4.0435,0.4515612047945656,-0.3475991096802118
-4.043,0.3235191065023739,-0.09327978795619347
-4.0425,0.3555296310753927,0.192829448983067
-4.042,0.9210488985326017,0.8922075837243778
-4.0415,1.593269914566608,1.29487984312074
-4.041,1.326515543124785,0.5107286011390634
-4.0405,0.1101156093475371,-0.4429688553274608
-4.04,-1.191645723288561,-1.258910012524611
-4.0395,-1.565101843307114,-1.258910012524611
-4.039,-1.191645723288076,-0.4959520473517464
-4.0385,-0.658136980404429,0.3941655786815084
-4.038,-0.2206598112398387,1.104140351827081
-4.0375,0.04609456020275137,1.559795803250138
-4.037,0.1848068333524996,1.79292184816361
-4.0365,0.2274875327832301,1.877694955404949
-4.036,0.2061471830677969,1.845905040189398
-4.0355,0.1314559590640864,1.79292184816361
-4.035,0.0674349099179905,1.70814874092227
-4.0345,-0.01792648894339299,1.390249588767536
-4.034,-0.2313299860971235,0.6166949851900245
-4.0335,-0.8608703027003992,0.3305857482505039
-4.033,-1.501080794160775,0.1504428953628213
-4.0325,-1.810515865033543,-0.3899856633013249
-4.032,-1.138294849000148,-0.8774310299385835
-4.0315,-0.1566387620942378,-1.248313374119106
-4.031,0.4515612047949343,-1.439052865412217
-4.0305,0.857027849386506,-1.174136905283272
-4.03,0.4835717293679532,-1.354279758170954
-4.0295,0.4515612047945461,-1.110557074852045
-4.029,0.4302208550792003,-0.8668343915334161
-4.0285,0.5582629533713921,-0.7290780922662394
-4.028,0.6542945270904097,-0.6549016234299422
-4.0275,0.5155822539406614,-0.5171453241628908
-4.027,0.3768699807907871,-0.326405832869877
-4.0265,0.2808384070717307,-0.1568596183873523
-4.026,0.2594980573562781,0.01268659609548085
-4.0255,0.7289857510943143,0.08686306493165288
-4.025,1.454557641416074,0.3623756634657556
-4.0245,1.198473444831351,-0.09327978795679101
-4.024,0.09944543449103843,-0.7502713690765743
-4.0235,-1.148965023856695,-1.333086481360253
-4.023,-1.543761493591768,-1.248313374118701
-4.0225,-1.191645723288561,-0.4323722169215513
-4.022,-0.6688071552625873,0.4577454091117035
-4.0215,-0.2313299860968711,1.157123543853968
-4.021,0.04609456020262521,1.602182356870596
-4.0205,0.1848068333524996,1.835308401784279
-4.02,0.2274875327832107,1.909484870620413
-4.0195,0.2061471830678648,1.867098316999781
-4.019,0.142126133921769,1.803518486568777
-4.0185,0.07810508477573137,1.729342017732673
-4.018,0.03542438534494258,1.580989080060261
-4.0175,-0.1032878878049318,1.135930267043229
-4.017,-0.7008176798346164,0.712064730836917
-4.0165,-1.341028171296322,0.2034260873878007
-4.016,-1.565101843307454,-0.5595318777835605
-4.0155,-1.373038695869341,-1.015187329205346
-4.015,-0.7434983792653274,-1.290699927740142
-4.0145,-0.124628237520297,-1.322489842955616
-4.014,0.1207857842061805,-1.333086481360773
-4.0135,-0.007256314085593898,-1.470842780627767
-4.013,0.2061471830678648,-1.258910012524611
-4.0125,0.3341892813600565,-1.0999604364471
-4.012,0.5262524287987226,-0.9939940523957144
-4.0115,0.942389248247967,-1.311893204550448
-4.011,0.9637295979633325,-1.301296566145281
-4.0105,0.7609962756675467,-0.8986243067492845
-4.01,0.5369226036560266,-0.4323722169215513
-4.0095,0.3661998059331045,-0.04029659593035631
-4.009,0.6009436528019091,-0.02969995752519852
-4.0085,1.283834843693889,0.1292496185522359
-4.008,1.369196242555273,0.03387987290581572
-4.0075,0.3021787567879792,-0.654901623429441
-4.007,-1.074273799854751,-1.301296566145464
-4.0065,-1.842526389607202,-1.502632695843462
-4.006,-1.597112367880501,-0.8244478379127463
-4.0055,-0.9889124009920768,0.1080563417427009
-4.005,-0.423393133535411,0.8922075837243778
-4.0045,-0.04993701351651855,1.411442865577582
-4.004,0.1527963087795293,1.69755210251719
-4.0035,0.2381577076409128,1.79292184816361
-4.003,0.2381577076409128,1.782325209758442
-4.0025,0.1848068333525481,1.676358825706864
-4.002,0.1101156093487211,1.528005888034424
-4.0015,0.05676473506030786,1.432636142387917
-4.001,-0.02859666380107564,1.220703374284761
-4.0005,-0.4874141826820698,0.7120647308363676
-4,-1.1062843244271,0.5319218779486851
-3.9995,-1.533091318734406,-0.1250697031716958
-3.999,-1.703814116457328,-0.792657922697244
-3.9985,-1.202315898146244,-1.163540266878104
-3.998,-0.3700422592469978,-1.152943628472937
-3.9975,0.2594980573562781,-0.9833974139902578
-3.997,0.5902734779444399,-0.7608680074817418
-3.9965,0.142126133921769,-1.142346990067769
-3.996,0.2381577076409128,-0.9833974139902578
-3.9955,0.2808384070716433,-0.9092209451540858
-3.995,0.5582629533713921,-1.004590690800593
-3.9945,0.707645401378949,-0.8774310299385835
-3.994,0.6116138276598051,-0.6231117082145651
-3.9935,0.4622313796522482,-0.326405832869877
-3.993,0.3235191065023739,-0.07208651114585861
-3.9925,0.3448594562177392,0.1610395337678249
-3.992,0.8676980242441885,0.2776025562246667
-3.9915,1.56125938999356,0.2881991946298341
-3.991,1.379866417412955,-0.4323722169215513
-3.9905,0.1741366584948169,-1.089363798041932
-3.99,-1.244996597576974,-1.629792356705471
-3.9895,-1.789175515318789,-1.555615887869299
-3.989,-1.437059745015262,-0.6972881770507372
-3.9885,-0.8288597781273515,0.2881991946298341
-3.988,-0.3166913849585846,1.051157159801889
-3.9875,0.01408403562957729,1.528005888034424
-3.987,0.1848068333524996,1.761131932948107
-3.9865,0.2381577076409128,1.824711763379112
-3.986,0.1954770082101822,1.771728571353275
-3.9855,0.1101156093487211,1.718745379327438
-3.985,0.01408403562957729,1.623375633680931
-3.9845,-0.07127736323188383,1.432636142387917
-3.984,-0.4554036581084589,0.8710143069140429
-3.9835,-1.180975548430879,0.5001319627331828
-3.983,-1.650463242168915,-0.08268314955102604
-3.9825,-1.714484291315011,-0.792657922697244
-3.982,-0.8608703027003992,-1.354279758171118
-3.9815,0.1741366584948169,-1.576809164679634
-3.981,0.8036769750980928,-1.131750351662602
-3.9805,0.9850699476786977,-0.6866915386455698
-3.98,0.7716664505250448,-0.5807251545938954
-3.9795,0.3128489316446912,-0.8668343915334161
-3.979,-0.007256314085787988,-1.163540266878104
-3.9785,0.2061471830678648,-1.311893204550448
-3.978,0.5369226036560266,-1.354279758171118
-3.9775,0.6329541773751706,-0.9410108603695881
-3.977,0.5369226036560266,-0.5277419625680583
-3.9765,0.3661998059331045,-0.2310360872233701
-3.976,0.2701682322139607,0.03387987290581572
-3.9755,0.6009436528021226,0.6166949851900245
-3.975,1.294505018551494,1.326669758336243
-3.9745,1.145122570543937,0.9028042221295453
-3.974,0.09944543449103843,-0.1462629799820306
-3.9735,-1.234326422719292,-1.110557074852267
-3.973,-1.778505340461106,-1.34368311976595
-3.9725,-1.426389570157579,-0.6443049850249
-3.972,-0.8288597781273515,0.2881991946298341
-3.9715,-0.3166913849585846,1.072350436612224
-3.971,0.01408403562957729,1.612778995275763
-3.9705,0.1848068333524996,1.909484870620451
-3.97,0.2488278824985954,2.026047893077293
-3.9695,0.2274875327832301,2.026047893077293
-3.969,0.1634664836371343,1.973064701051456
-3.9685,0.09944543449103843,1.877694955404949
-3.968,0.03542438534494258,1.697552102517103
-3.9675,-0.2420001609548061,1.369056311956912
-3.967,-0.9355615267041777,1.00877060618122
-3.9665,-1.51175096901904,0.4047622170866759
-3.966,-1.789175515318789,-0.4535654937318862
-3.9655,-1.202315898146244,-1.01518732920576
-3.965,-0.2206598112394408,-1.42845622700729
-3.9645,0.4835717293676135,-1.280103289334946
-3.964,0.8356874996711408,-0.8986243067489184
-3.9635,0.8997085488172365,-0.6337083466197325
-3.963,0.7716664505250448,-0.6549016234300674
-3.9625,0.5582629533713921,-0.8562377531282487
-3.962,-0.02859666380115328,-1.523825972653797
-3.9615,0.1314559590640864,-1.38606967338662
-3.961,0.2381577076409128,-1.046977244421262
-3.9605,0.291508581929326,-0.7078848154559045
-3.96,0.3448594562177392,-0.3793890248957141
-3.9595,0.2808384070716433,-0.1780528951975329
-3.959,0.5155822539406614,-0.2946159176543747
-3.9585,1.049090996824793,-0.3475991096802118
-3.958,0.7396559259519968,-0.8138511995075789
-3.9575,-0.391382608962363,-1.439052865412457
-3.957,-1.607782542738184,-1.831128486403653
-3.9565,-2.045259711903173,-1.682775548731308
-3.956,-1.586442193022819,-0.6972881770507372
-3.9555,-0.8928808272734472,0.4365521323021782
-3.955,-0.3380317346739499,1.326669758336243
-3.9545,0.02475421048725994,1.888291593810116
-3.954,0.2061471830678648,2.174400830749637
-3.9535,0.2594980573562781,2.259173937990977
-3.953,0.2594980573562781,2.195594107559972
-3.9525,0.1848068333524996,2.089627723508298
-3.952,0.1101156093487211,1.962468062646288
-3.9515,0.0674349099179905,1.824711763379112
-3.951,0.02475421048725994,1.443232780793084
-3.9505,-0.391382608962363,0.627291623595192
-3.95,-0.9462317015618604,0.1080563417419877
-3.9495,-1.052933450138687,-0.6337083466197325
-3.949,-0.5621054066852853,-1.078767159636765
-3.9485,0.4942419042252961,-1.481439419033127
-3.948,1.187803269974668,-1.481439419033127
-3.9475,1.337185717982225,-1.036380606016095
-3.947,1.209143619690033,-0.6760949002404023
-3.9465,0.9957401225363802,-0.5595318777835605
-3.946,0.79300680024041,-0.5807251545938954
-3.9455,0.4515612047945656,-0.8350444763179138
-3.945,0.2808384070716433,-1.184733543688439
-3.9445,-0.07127736323188383,-1.481439419033127
-3.944,-0.01792648894347063,-1.163540266878104
-3.9435,0.03542438534494258,-0.8244478379127463
-3.943,0.1741366584948169,-0.4323722169215513
-3.9425,0.408880505363835,-0.1674562567923655
-3.942,1.017080472251745,-0.2204394488182027
-3.9415,0.9530594231056497,-0.6760949002404023
-3.941,-0.1993194615240755,-1.439052865412457
-3.9405,-1.586442193022819,-1.979481424075996
-3.94,-2.525417580498891,-2.159624276963843
-3.9395,-2.344024607918286,-1.534422611058964
-3.939,-1.533091318734406,-0.3475991096802118
-3.9385,-0.7434983792658902,0.7226613692416989
-3.938,-0.1779791118087102,1.475022696008586
-3.9375,0.1314559590640864,1.877694955404949
-3.937,0.2594980573562781,2.036644531482461
-3.9365,0.2808384070716433,2.036644531482461
-3.936,0.2168173579255475,1.941274785835954
-3.9355,0.1314559590640864,1.835308401784279
-3.935,0.04609456020262521,1.697552102517103
-3.9345,-0.01792648894347063,1.432636142387917
-3.934,-0.4127229586777283,0.8074344764830383
-3.9335,-1.116954499284783,0.5743084315693548
-3.933,-1.575772018165136,-0.05089323433552374
-3.9325,-1.575772018165136,-0.7714646458869092
-3.932,-0.7755089038389382,-1.354279758171118
-3.9315,0.1741366584948169,-1.714565463946811
-3.931,0.8036769750980928,-1.619195718300304
-3.9305,1.017080472251745,-1.205926820498774
-3.93,0.9957401225363802,-0.8456411147230812
-3.9295,0.857027849386506,-0.6443049850249
-3.929,0.6863050516635838,-0.6654982618352349
-3.9285,0.5155822539406614,-0.9622041371799229
-3.928,0.5796033030867573,-0.8880276683437509
-3.9275,-0.06060718837420119,-1.237716735714276
-3.927,0.01408403562957729,-0.7078848154559045
-3.9265,0.07810508477567314,-0.2946159176543747
-3.926,0.2381577076409128,0.02328323450064829
-3.9255,0.3021787567870086,-0.1250697031716958
-3.925,-0.4980843575391895,-0.3158091944647096
-3.9245,-1.383708870726849,-1.01518732920576
-3.924,-2.066600061618538,-1.576809164679634
-3.9235,-2.205312334768412,-1.767548655972648
-3.923,-1.607782542738184,-1.078767159636765
-3.9225,-0.8608703027003992,-0.06148987274069118
-3.922,-0.274010685527854,0.8074344764830383
-3.9215,0.07810508477567314,1.390249588767247
-3.921,0.2381577076409128,1.70814874092227
-3.9205,0.2808384070716433,1.835308401784279
-3.92,0.2701682322139607,1.845905040189447
-3.9195,0.2381577076409128,1.782325209758442
-3.919,0.2061471830678648,1.697552102517103
-3.9185,0.1314559590640864,1.475022696008586
-3.918,-0.01792648894347063,1.040560521396722
-3.9175,-0.572775581542968,0.2352160026039969
-3.917,-1.383708870726849,-0.1250697031716958
-3.9165,-1.767835165603424,-0.3581957480853793
-3.916,-1.778505340461106,-0.8986243067489184
-3.9155,-1.287677297007705,-1.227120097309109
-3.915,-0.3060212101009019,-1.174136905283272
-3.9145,0.5155822539406614,-0.8138511995075789
-3.914,0.942389248247967,-0.474758770542221
-3.9135,1.038420821967111,-0.3370024712750445
-3.913,0.9530594231056497,-0.3475991096802118
-3.9125,0.79300680024041,-0.474758770542221
-3.912,0.707645401378949,-0.6866915386455698
-3.9115,0.7823366253827275,-0.8350444763179138
-3.911,0.6542945270905358,-0.6972881770507372
-3.9105,0.3341892813600565,-0.6125150698093976
-3.91,-0.1779791118087102,-0.7396747306714069
-3.9095,-0.2846808603855366,-0.5595318777835605
-3.909,0.1848068333524996,-0.4535654937318862
-3.9085,1.134452395686255,0.002089957690313421
-3.908,1.796003236862578,0.2140227257936621
-3.9075,1.123782220828572,-0.4111789401112165
-3.907,-0.4020527838200457,-1.184733543688439
-3.9065,-1.415719395299897,-1.545019249464132
-3.906,-1.362368521011484,-0.8986243067489184
-3.9055,-0.8928808272734472,0.06566978812131802
-3.905,-0.4020527838200457,0.9134008605347127
-3.9045,-0.03926683865883591,1.496215972818921
-3.904,0.1634664836371343,1.824711763379112
-3.9035,0.2488278824985954,1.951871424241121
-3.903,0.2488278824985954,1.930678147430786
-3.9025,0.1848068333524996,1.856501678594614
-3.902,0.1207857842064037,1.761131932948107
-3.9015,0.0674349099179905,1.602182356870596
-3.901,-0.06060718837420119,1.273686566310405
-3.9005,-0.7328282044082075,0.849821030103708
-3.9,-1.533091318734406,0.6378882620003594
-3.8995,-1.895877263895616,-0.1674562567923655
-3.899,-1.447729919872945,-0.9622041371799229
-3.8985,-0.1352984123779797,-1.640388995110639
-3.898,0.8890383739595538,-1.926498232050159
-3.8975,1.369196242555273,-1.481439419033127
-3.897,1.401206767128321,-0.9092209451540858
-3.8965,1.187803269974668,-0.6231117082145651
-3.896,0.8997085488172365,-0.5489352393783931
-3.8955,0.6969752265212663,-0.570128516188728
-3.895,0.707645401378949,-0.6549016234300674
-3.8945,0.6116138276598051,-0.5595318777835605
-3.894,0.4729015545099309,-0.3899856633008816
-3.8935,0.3448594562177392,-0.2310360872233701
-3.893,0.2594980573562781,-0.1144730647665284
-3.8925,0.142126133921769,-0.01910331912002144
-3.892,0.3341892813600565,0.3941655786815084
-3.8915,0.942389248247967,1.178316820663898
-3.891,1.326515543124542,1.856501678594614
-3.8905,0.4515612047945656,1.231300012689736
-3.89,-0.807519428411986,-0.008506680714854012
-3.8895,-1.244996597576974,-0.474758770542221
-3.889,-1.010252750707956,-0.1356663415768632
-3.8885,-0.5834457564006506,0.4789386859228479
-3.888,-0.2099896363817582,1.061753798207057
-3.8875,0.04609456020262521,1.506812611224089
-3.887,0.1848068333524996,1.803518486568777
-3.8865,0.2381577076409128,1.962468062646288
-3.886,0.2381577076409128,2.036644531482461
-3.8855,0.1741366584948169,2.07903108510313
