Class_11_Cell_phone_Call/Class_11_Cell_phone_Call_AM_6.csv

#Digilent WaveForms Oscilloscope Acquisition
#Device Name: EExplorer
#Serial Number: SN:210151A2B84A
#Date Time: 2021-01-19 10:13:11.259
#Sample rate: 2000Hz
#Samples: 16384
#Trigger: Source: Channel 1 Type: Edge Condition: Rising Level: 0 V Hyst.: Auto HoldOff: 0 s
#Channel 1: Range: 1 V/div Offset: 0 V Attenuation: 1 X
#Channel 2: Range: 1 V/div Offset: 0 V Attenuation: 1 X
#Power Supplies: ON
#Fixed Supply: ON
#Voltage: 3.3 V Readback: 3.317 V
#Positive Supply: ON
#Voltage: 3.7 V Readback: 3.717 V
#Current: 40 mA Readback: 16 mA
#Negative Supply: ON
#Voltage: -3.7 V Readback: -3.348 V
#Current: -40 mA Readback: -2 mA
#Reference 1: ON
#Voltage: 0 V
#Reference 2: ON
#Voltage: 0 V

Time (s),Channel 1 (V),Channel 2 (V)
-4.096,0.2274875327832301,1.369056311956912
-4.0955,0.003413860772098432,0.9875773293712317
-4.095,-0.6154562809743294,0.2034260873877815
-4.0945,-1.30901764672307,-0.5807251545938954
-4.094,-1.906547438752755,-1.163540266877574
-4.0935,-1.554431668449004,-1.216523458903633
-4.093,-0.7114878546928423,-0.8774310299385835
-4.0925,0.003413860771244503,-0.644304985025112
-4.092,0.4515612047947403,-0.5383386009732063
-4.0915,0.6436243522328531,-0.5171453241628908
-4.091,0.6649647019482183,-0.4853554089473885
-4.0905,0.6009436528020644,-0.6019184314044038
-4.09,0.5369226036560266,-0.792657922697244
-4.0895,0.707645401378949,-0.9622041371799229
-4.089,0.7289857510942949,-0.9939940523953964
-4.0885,0.6009436528021226,-0.8986243067489184
-4.088,0.4515612047945656,-0.7608680074817418
-4.0875,0.3341892813601633,-0.6125150698095325
-4.087,0.3128489316451279,-0.3052125560588289
-4.0865,0.79300680024041,0.4789386859228479
-4.086,1.006410297393869,1.305476481525156
-4.0855,0.312848931643847,1.697552102516448
-4.085,-0.6154562809736985,0.9769806909657173
-4.0845,-1.479740444445206,-0.1462629799810091
-4.084,-2.045259711902765,-0.9728007755850422
-4.0835,-1.597112367880501,-0.9198175835592532
-4.083,-0.8928808272734472,-0.3475991096802118
-4.0825,-0.3166913849582449,0.2881991946302871
-4.082,0.05676473506030786,0.7862411996727035
-4.0815,0.2488278824985954,1.114736990232894
-4.081,0.3235191065023059,1.305476481525734
-4.0805,0.3128489316446912,1.37965295036208
-4.08,0.2808384070716433,1.369056311956912
-4.0795,0.2488278824986245,1.273686566310492
-4.079,0.1207857842060446,1.040560521396105
-4.0785,-0.274010685527854,0.3623756634660061
-4.078,-0.1673089369511246,-0.4429688553259863
-4.0775,-0.4020527838202107,-1.089363798042241
-4.077,-0.5834457564006506,-1.42845622700729
-4.0765,-0.1993194615244249,-1.460246142222763
-4.076,0.2381577076411748,-1.258910012524197
-4.0755,0.5262524287983441,-0.8032545611024114
-4.075,0.6436243522328531,-0.4429688553267188
-4.0745,0.6222840025174199,-0.3370024712751216
-4.074,0.5475927785137094,-0.4217755785163839
-4.0735,0.4729015545099309,-0.570128516188728
-4.073,0.5796033030866603,-0.46416213213715
-4.0725,0.707645401378949,-0.2946159176543747
-4.072,0.6222840025174878,-0.3793890248957141
-4.0715,0.4835717293677396,-0.5171453241627655
-4.071,0.3661998059330365,-0.6125150698093591
-4.0705,0.291508581929326,-0.570128516188728
-4.07,0.611613827659514,0.01268659609495082
-4.0695,1.209143619689693,0.8922075837249946
-4.069,0.8356874996711408,1.570392441655093
-4.0685,-0.07127736323188383,1.263089927905238
-4.068,-1.042263275281645,0.2246193641979717
-4.0675,-1.746494815888059,-0.718481453861072
-4.067,-1.575772018165136,-0.8562377531282487
-4.0665,-0.9675720512767113,-0.3793890248951551
-4.066,-0.4020527838200457,0.2352160026039969
-4.0655,-0.007256314085787988,0.7544512844572011
-4.065,0.2061471830676707,1.104140351827409
-4.0645,0.3021787567870086,1.316073119931075
-4.064,0.3128489316446912,1.42203950398275
-4.0635,0.2808384070716724,1.42203950398275
-4.063,0.2488278824985469,1.347863035146442
-4.0625,0.1954770082101822,1.199510097474233
-4.062,-0.1459685872353518,0.6590815388111857
-4.0615,-0.7541685541241844,-0.1356663415775186
-4.061,-1.426389570157579,-0.8562377531282487
-4.0605,-1.842526389607202,-1.290699927740113
-4.06,-1.330357996437698,-1.248313374119357
-4.0595,-0.5194247072545548,-1.152943628472937
-4.059,0.1314559590640864,-0.9622041371799229
-4.0585,0.515582253940312,-0.8350444763180295
-4.058,0.6542945270905358,-0.8244478379127463
-4.0575,0.6329541773751706,-0.8456411147230812
-4.057,0.55826295337146,-0.8986243067488702
-4.0565,0.5689331282290746,-0.9833974139902578
-4.056,0.7716664505250448,-1.0999604364471
-4.0555,0.7289857510943532,-0.9728007755852061
-4.055,0.5689331282289387,-0.7502713690763719
-4.0545,0.4195506802215176,-0.5277419625680583
-4.054,0.3235191065024612,-0.3052125560597445
-4.0535,0.6116138276604067,0.2458126410098969
-4.053,1.273164668836129,1.051157159801889
-4.0525,1.091771696255524,1.70814874092227
-4.052,0.163466483636193,1.623375633679996
-4.0515,-0.8715404775580819,0.5955017083796896
-4.051,-1.693143941599645,-0.4959520473525559
-4.0505,-1.725154466172664,-0.9304142219640256
-4.05,-1.127624674142465,-0.5807251545938954
-4.0495,-0.5194247072545548,0.002089957690313421
-4.049,-0.08194753808996436,0.5319218779482032
-4.0485,0.1741366584949237,0.9134008605349248
-4.048,0.291508581929326,1.146526905448396
-4.0475,0.3235191065023447,1.263089927905132
-4.047,0.2915085819292969,1.284283204715525
-4.0465,0.2594980573562781,1.231300012689736
-4.046,0.2168173579255863,1.114736990233
-4.0455,-0.00725631408574917,0.7226613692410147
-4.045,0.03542438534494258,-0.02969995752518888
-4.0445,0.7609962756673623,-0.7820612842920766
-4.044,0.7716664505248022,-1.343683119766008
-4.0435,0.5049120790829789,-1.407262950196955
-4.043,0.4835717293676135,-1.195330182093607
-4.0425,0.5582629533713241,-0.8138511995079258
-4.042,0.5902734779444399,-0.6231117082145651
-4.0415,0.5796033030867573,-0.5383386009732256
-4.041,0.5475927785137384,-0.5277419625680679
-4.0405,0.4835717293675747,-0.5489352393784606
-4.04,0.4408910299368829,-0.6231117082145651
-4.0395,0.6436243522326687,-0.6337083466197229
-4.039,0.6756348768057943,-0.6549016234300867
-4.0385,0.5582629533713921,-0.6760949002404023
-4.038,0.4195506802216438,-0.6549016234300867
-4.0375,0.3128489316445165,-0.5595318777832039
-4.037,0.1207857842064037,-0.1674562567923655
-4.0365,0.2488278824985954,0.6590815388106942
-4.036,0.5155822539401955,1.443232780793402
-4.0355,0.00341386077189465,1.79292184816361
-4.035,-0.7114878546928423,1.061753798207057
-4.0345,-1.458400094729948,-0.06148987273966955
-4.034,-1.853196564464885,-0.8244478379127463
-4.0335,-1.394379045584531,-0.6760949002404023
-4.033,-0.7541685541241553,-0.09327978795672354
-4.0325,-0.2420001609545052,0.5319218779491284
-4.032,0.08877525963335578,1.019367244586387
-4.0315,0.2488278824984498,1.337266396741121
-4.031,0.3021787567870086,1.517409249629314
-4.0305,0.3021787567870086,1.580989080060261
-4.03,0.2594980573563169,1.549199164844787
-4.0295,0.227487532783104,1.443232780792824
-4.029,0.08877525963335578,1.157123543853563
-4.0285,-0.2313299860971235,0.4259554938970107
-4.028,0.1101156093486434,-0.3899856633014888
-4.0275,0.02475421048725994,-1.05757388282643
-4.027,-0.2313299860971235,-1.38606967338662
-4.0265,-0.03926683865901059,-1.449649503817567
-4.026,0.2594980573562781,-1.163540266878104
-4.0255,0.4835717293676135,-0.9410108603695881
-4.025,0.6009436528020158,-0.7608680074819056
-4.0245,0.6116138276597566,-0.7184814538611298
-4.024,0.5582629533713921,-0.7820612842920766
-4.0235,0.4835717293676814,-0.8562377531281812
-4.023,0.5796033030868544,-0.8244478379126982
-4.0225,0.6863050516635838,-0.7714646458869092
-4.022,0.5902734779445272,-0.7820612842920669
-4.0215,0.4515612047944588,-0.7926579226972343
-4.021,0.3341892813600565,-0.7820612842920766
-4.0205,0.2381577076409128,-0.6443049850249
-4.02,0.3875401556489259,-0.008506680714034816
-4.0195,0.8890383739595538,0.8922075837243778
-4.019,0.4835717293676135,1.570392441655093
-4.0185,-0.4020527838192403,1.220703374284886
-4.018,-1.287677297007705,0.1822328105781598
-4.0175,-1.970568487899394,-0.7396747306714069
-4.017,-1.714484291315244,-0.8668343915333004
-4.0165,-1.020922925565096,-0.3475991096796239
-4.016,-0.423393133535411,0.2987958330350016
-4.0155,-0.007256314086166449,0.8392243916980491
-4.015,0.2061471830679522,1.220703374284761
-4.0145,0.3021787567870086,1.432636142387917
-4.014,0.3021787567870086,1.538602526439495
-4.0135,0.2701682322139316,1.528005888034347
-4.013,0.2381577076409128,1.443232780793084
-4.0125,0.1741366584948169,1.25249328950007
-4.012,-0.1779791118087685,0.6696781772151292
-4.0115,-0.2420001609548061,-0.1356663415768632
-4.011,-0.3380317346739499,-0.8668343915334161
-4.0105,-0.6581369804041379,-1.322489842955201
-4.01,-0.3273615598162672,-1.555615887869299
-4.0095,0.1314559590640864,-1.42845622700729
-4.009,0.4622313796519474,-1.036380606016452
-4.0085,0.6222840025174975,-0.7714646458867743
-4.008,0.6329541773751706,-0.6231117082145651
-4.0075,0.5902734779444787,-0.6443049850248806
-4.007,0.5155822539406808,-0.6972881770508143
-4.0065,0.5369226036560266,-0.7820612842920766
-4.006,0.7183155762366316,-0.8350444763179138
-4.0055,0.6542945270904097,-0.8986243067489184
-4.005,0.5155822539406614,-0.8986243067489184
-4.0045,0.3768699807907871,-0.8562377531282487
-4.004,0.2915085819295589,-0.7290780922657286
-4.0035,0.5475927785137094,-0.1674562567923655
-4.003,1.209143619690033,0.7332580076468663
-4.0025,1.01708047225192,1.528005888033701
-4.002,0.1527963087794516,1.549199164844759
-4.0015,-0.8288597781273515,0.5955017083796896
-4.001,-1.597112367879803,-0.4429688553257742
-4.0005,-1.586442193022314,-0.7714646458865334
-4,-1.031593100423322,-0.3581957480853793
-3.9995,-0.4767440078238243,0.2670059178194992
-3.999,-0.06060718837420119,0.8286277532933731
-3.9985,0.1741366584948169,1.231300012689736
-3.998,0.2701682322139607,1.485619334413754
-3.9975,0.291508581929326,1.623375633680931
-3.997,0.2701682322139607,1.644568910491266
-3.9965,0.2381577076409128,1.580989080060261
-3.996,0.1954770082101822,1.464426057603419
-3.9955,-0.04993701351651855,1.040560521396722
-3.995,-0.572775581542968,0.2352160026039969
-3.9945,-1.212986073003927,-0.5489352393783931
-3.994,-1.735824641030376,-1.121153713257435
-3.9935,-1.30901764672307,-1.354279758171118
-3.993,-0.5194247072545548,-1.227120097309109
-3.9925,0.1314559590640864,-0.8668343915334161
-3.992,0.5262524287983441,-0.6125150698093976
-3.9915,0.6756348768059011,-0.570128516188728
-3.991,0.6756348768059011,-0.7078848154559045
-3.9905,0.5902734779444399,-0.8668343915334161
-3.99,0.5262524287983441,-0.8986243067489184
-3.9895,0.7609962756673623,-0.5913217929990628
-3.989,0.7823366253827275,-0.5065486857577234
-3.9885,0.6329541773751706,-0.6125150698093976
-3.988,0.4622313796522482,-0.718481453861072
-3.9875,0.3341892813600565,-0.7608680074817418
-3.987,0.4195506802215176,-0.474758770542221
-3.9865,1.006410297394063,0.3517790250608387
-3.986,1.102441871113207,1.220703374284568
-3.9855,0.3341892813600565,1.612778995275763
-3.985,-0.6154562809736985,0.8816109453192104
-3.9845,-1.479740444445993,-0.1886495336027004
-3.984,-1.87453691418025,-0.8562377531282487
-3.9835,-1.383708870726849,-0.6443049850249
-3.983,-0.7434983792658902,-0.02969995752518888
-3.9825,-0.2313299860971235,0.6060983467848571
-3.982,0.08877525963335578,1.093543713422559
-3.9815,0.2488278824985954,1.411442865577582
-3.981,0.3021787567870086,1.591585718465428
-3.9805,0.291508581929326,1.655165548896433
-3.98,0.2594980573562781,1.612778995275763
-3.9795,0.2168173579255475,1.496215972818921
-3.979,0.0674349099179905,1.199510097474233
-3.9785,-0.4874141826815069,0.457745409112513
-3.978,-1.191645723288561,-0.3581957480853793
-3.9775,-1.853196564464885,-1.025783967610927
-3.977,-1.767835165603424,-1.237716735714276
-3.9765,-0.9462317015618604,-0.9939940523954253
-3.976,-0.1673089369510276,-0.8350444763179138
-3.9755,0.3661998059331045,-0.7714646458869092
-3.975,0.6009436528021226,-0.7290780922662394
-3.9745,0.6436243522328531,-0.8456411147230812
-3.974,0.6116138276598051,-0.9939940523954253
-3.9735,0.5262524287983441,-1.0999604364471
-3.973,0.6969752265212663,-1.248313374119443
-3.9725,0.8036769750980928,-1.227120097309109
-3.972,0.6863050516635838,-1.01518732920576
-3.9715,0.5049120790829789,-0.7714646458869092
-3.971,0.3661998059331045,-0.570128516188728
-3.9705,0.2808384070716433,-0.3158091944647096
-3.97,0.6222840025174878,0.383568940276341
-3.9695,0.9637295979633325,1.210106735879401
-3.969,0.3448594562177392,1.75053529454294
-3.9685,-0.572775581542968,1.231300012689736
-3.968,-1.437059745015262,0.1080563417419877
-3.9675,-2.173301810195364,-0.8562377531282487
-3.967,-1.917217613610981,-1.05757388282643
-3.9665,-1.127624674142465,-0.570128516188728
-3.966,-0.4767440078238243,0.06566978812131802
-3.9655,-0.03926683865883591,0.5955017083796896
-3.965,0.2061471830678648,0.9557874141553824
-3.9645,0.3021787567870086,1.167720182258731
-3.964,0.3128489316446912,1.25249328950007
-3.9635,0.2808384070716433,1.241896651094903
-3.963,0.2274875327832301,1.157123543853563
-3.9625,0.1527963087794516,0.9557874141553824
-3.962,-0.2633405106701714,0.3623756634660061
-3.9615,-0.6047861061160158,-0.4217755785163839
-3.961,-1.042263275281004,-1.110557074852267
-3.9605,-1.255666772434657,-1.492036057438295
-3.96,-0.7114878546928423,-1.523825972653797
-3.9595,-0.07127736323188383,-1.248313374119443
-3.959,0.3875401556484697,-0.7396747306714069
-3.9585,0.6009436528021226,-0.3158091944647096
-3.958,0.6542945270905358,-0.1038764263613609
-3.9575,0.6116138276598051,-0.07208651114585861
-3.957,0.5369226036560266,-0.1780528951975329
-3.9565,0.5689331282290746,-0.3687923864905467
-3.956,0.7396559259519968,-0.6019184314042303
-3.9555,0.6756348768059011,-0.6972881770507372
-3.955,0.5155822539406614,-0.7078848154559045
-3.9545,0.3875401556484697,-0.6549016234300674
-3.954,0.2808384070716433,-0.5383386009732256
-3.9535,0.4835717293676135,-0.04029659593035631
-3.953,1.091771696255524,0.8074344764830383
-3.9525,0.8143471499557753,1.549199164844759
-3.952,-0.1139580626626144,1.485619334413754
-3.9515,-1.084943974711735,0.4895353243280153
-3.951,-1.885207089037933,-0.570128516188728
-3.9505,-1.906547438753298,-0.9833974139902578
-3.95,-1.212986073003927,-0.6231117082145651
-3.9495,-0.5621054066852853,-0.008506680714854012
-3.949,-0.1032878878049318,0.5425185163538525
-3.9485,0.1634664836371343,0.9345941373450475
-3.948,0.2808384070716433,1.178316820663898
-3.9475,0.3128489316446912,1.29487984312074
-3.947,0.291508581929326,1.316073119931075
-3.9465,0.2488278824985954,1.273686566310405
-3.946,0.2168173579255475,1.157123543853563
-3.9455,-0.08194753808956648,0.7226613692416989
-3.945,-0.4447334832507763,-0.02969995752518888
-3.9445,-0.7434983792658902,-0.7820612842920766
-3.944,-1.170305373573196,-1.311893204550448
-3.9435,-0.9142211769888124,-1.576809164679634
-3.943,-0.2846808603855366,-1.629792356705471
-3.9425,0.2488278824985954,-1.269506650929778
-3.942,0.5369226036560266,-0.8774310299385835
-3.9415,0.6329541773751706,-0.570128516188728
-3.941,0.6222840025174878,-0.4641621321370536
-3.9405,0.5475927785137094,-0.5171453241628908
-3.94,0.4942419042252961,-0.5913217929990628
-3.9395,0.6969752265212663,-0.7820612842920766
-3.939,0.707645401378949,-0.8032545611024114
-3.9385,0.5796033030867573,-0.7078848154559045
-3.938,0.4302208550792003,-0.570128516188728
-3.9375,0.3235191065023739,-0.4429688553267188
-3.937,0.4515612047945656,-0.05089323433552374
-3.9365,1.081101521397841,0.7544512844572011
-3.936,1.187803269974668,1.506812611224089
-3.9355,0.3661998059331045,1.75053529454294
-3.935,-0.6688071552621118,0.9345941373450475
-3.9345,-1.554431668449771,-0.2098428104130352
-3.934,-1.927887788468663,-0.9304142219644207
-3.9335,-1.383708870726849,-0.7714646458869092
-3.933,-0.7328282044082075,-0.2310360872233701
-3.9325,-0.2206598112394408,0.3199891098453364
-3.932,0.09944543449103843,0.7438546460520338
-3.9315,0.2594980573562781,1.019367244586387
-3.931,0.3021787567870086,1.157123543853563
-3.9305,0.291508581929326,1.199510097474233
-3.93,0.2594980573562781,1.167720182258731
-3.9295,0.2168173579255475,1.082947075017392
-3.929,0.0674349099179905,0.8074344764830383
-3.9285,-0.4767440078238243,0.09745970333682032
-3.928,-1.148965023857831,-0.6760949002404023
-3.9275,-1.789175515318789,-1.280103289334946
-3.927,-1.618452717595867,-1.555615887869299
-3.9265,-0.754168554123573,-1.725162102351978
-3.926,-0.007256314085787988,-1.576809164679634
-3.9255,0.4729015545099309,-1.227120097309109
-3.925,0.6863050516635838,-0.9304142219644207
-3.9245,0.7183155762366316,-0.6654982618352349
-3.924,0.6542945270905358,-0.5383386009732256
-3.9235,0.5582629533713921,-0.4853554089473885
-3.923,0.6863050516635838,-0.3052125560595421
-3.9225,0.7609962756673623,-0.1886495336027004
-3.922,0.6329541773751706,-0.2628260024388724
-3.9215,0.4729015545099309,-0.3687923864905467
-3.921,0.3448594562177392,-0.4217755785163839
-3.9205,0.2701682322139607,-0.2840192792492073
-3.92,0.6542945270905358,0.383568940276341
-3.9195,1.166462920259302,1.199510097474233
-3.919,0.6863050516635838,1.75053529454294
-3.9185,-0.2206598112394408,1.326669758336243
-3.918,-1.159635198715513,0.2352160026039969
-3.9175,-1.789175515318789,-0.6972881770507372
-3.917,-1.522421143876723,-0.7820612842920766
-3.9165,-0.9035510021311299,-0.3052125560595421
-3.916,-0.3593720843893152,0.2881991946298341
-3.9155,0.01408403562957729,0.775644561267536
-3.915,0.2168173579255475,1.104140351827727
-3.9145,0.291508581929326,1.29487984312074
-3.914,0.3021787567870086,1.37965295036208
-3.9135,0.2701682322139607,1.369056311956912
-3.913,0.2274875327832301,1.284283204715573
-3.9125,0.1634664836371343,1.114736990232894
-3.912,-0.2633405106701714,0.5319218779486851
-3.9115,-0.9035510021311299,-0.2734226408440398
-3.911,-1.586442193022819,-0.9728007755850904
-3.9105,-1.778505340461106,-1.34368311976595
-3.91,-1.031593100423322,-1.258910012524611
-3.9095,-0.2526703358124887,-0.8668343915334161
-3.909,0.3128489316446912,-0.3899856633008816
-3.9085,0.6009436528021226,-0.1886495336027004
-3.908,0.6649647019482183,-0.1886495336027004
-3.9075,0.6222840025174878,-0.3052125560595421
-3.907,0.5475927785137094,-0.5277419625680583
-3.9065,0.5796033030867573,-0.718481453861072
-3.906,0.7289857510943143,-0.8774310299385835
-3.9055,0.6542945270905358,-0.9092209451540858
-3.905,0.5049120790829789,-0.8774310299385835
-3.9045,0.3661998059331045,-0.8032545611024114
-3.904,0.2808384070716433,-0.6654982618352349
-3.9035,0.4622313796522482,-0.08268314955102604
-3.903,0.9530594231056497,0.8074344764830383
-3.9025,0.5155822539406614,1.559795803249926
-3.902,-0.4020527838200457,1.475022696008586
-3.9015,-1.298347471865388,0.4683420475176805
-3.901,-2.07727023647622,-0.5807251545938954
-3.9005,-2.023919362187807,-0.9728007755850904
-3.9,-1.244996597576974,-0.570128516188728
-3.8995,-0.5621054066852853,0.06566978812131802
-3.899,-0.08194753808956648,0.6484849004055269
-3.8985,0.1848068333524996,1.072350436612224
-3.898,0.3021787567870086,1.326669758336243
-3.8975,0.3235191065023739,1.443232780793084
-3.897,0.291508581929326,1.464426057603419
-3.8965,0.2594980573562781,1.411442865577582
-3.896,0.2168173579255475,1.29487984312074
-3.8955,-0.06060718837420119,0.8392243916985406
-3.895,-0.02859666380115328,0.04447651131098315
-3.8945,0.5262524287983441,-0.718481453861072
-3.894,0.3661998059331045,-1.248313374119443
-3.8935,0.4942419042252961,-1.555615887869299
-3.893,0.707645401378949,-1.682775548731308
-3.8925,0.7823366253827275,-1.301296566145281
-3.892,0.7609962756673623,-0.8668343915334161
-3.8915,0.6863050516635838,-0.718481453861072
-3.891,0.5796033030867573,-0.718481453861072
-3.8905,0.4729015545099309,-0.7396747306714069
-3.89,0.4195506802215176,-0.6972881770507372
-3.8895,0.5689331282290746,-0.4217755785163839
-3.889,0.5796033030867573,-0.3687923864905467
-3.8885,0.4835717293676135,-0.4641621321370536
-3.888,0.3768699807907871,-0.5595318777835605
-3.8875,0.291508581929326,-0.5913217929990628
-3.887,0.4195506802215176,-0.2734226408440398
-3.8865,1.059761171682476,0.5319218779486851
-3.886,1.219813794547716,1.347863035146577
