Class_11_Cell_phone_Call/Class_11_Cell_phone_Call_Basim_2.csv

#Digilent WaveForms Oscilloscope Acquisition
#Device Name: EExplorer
#Serial Number: SN:210151A2B84A
#Date Time: 2020-11-26 10:44:12.559
#Sample rate: 2000Hz
#Samples: 16384
#Trigger: Source: Channel 1 Type: Edge Condition: Rising Level: 0 V Hyst.: Auto HoldOff: 0 s
#Channel 1: Range: 1 V/div Offset: 0 V Attenuation: 1 X
#Channel 2: Range: 1 V/div Offset: 0 V Attenuation: 1 X
#Power Supplies: ON
#Fixed Supply: ON
#Voltage: 3.3 V Readback: 3.329 V
#Positive Supply: ON
#Voltage: 3.7 V Readback: 3.715 V
#Current: 500 mA Readback: 20 mA
#Negative Supply: ON
#Voltage: -3.7 V Readback: -3.702 V
#Current: -500 mA Readback: -7 mA
#Reference 1: ON
#Voltage: 0 V
#Reference 2: ON
#Voltage: 0 V

Time (s),Channel 1 (V),Channel 2 (V)
-4.096,0.6116138276598051,0.3411823866556712
-4.0955,0.462231379652384,0.08686306493188417
-4.095,-0.231329986097861,-0.6654982618359577
-4.0945,-1.042263275281004,-1.460246142222792
-4.094,-1.586442193022324,-2.032464616101313
-4.0935,-1.191645723287775,-1.937094870454816
-4.093,-0.3273615598162672,-1.375473034981453
-4.0925,0.3768699807901466,-0.644304985025565
-4.092,0.7609962756674787,0.002089957690698924
-4.0915,0.8890383739595538,0.4259554938970107
-4.091,0.8676980242441885,0.627291623595192
-4.0905,0.8036769750980928,0.6696781772158328
-4.09,0.8036769750980928,0.6378882620003594
-4.0895,0.9850699476786977,0.6908714540261965
-4.089,0.9850699476786977,0.5637117931643031
-4.0885,0.8783681991018712,0.3305857482505039
-4.088,0.7716664505250448,0.1186529801471552
-4.0875,0.6969752265213343,-0.06148987274052735
-4.087,0.5155822539400403,0.02328323450122654
-4.0865,-0.1673089369510276,0.6590815388106942
-4.086,-1.01025275070719,1.379652950361424
-4.0855,-1.629122892453918,1.686955464111155
-4.085,-2.03458953704549,0.8286277532933731
-4.0845,-2.312014083344986,-0.45356549373072
-4.084,-1.895877263894771,-1.216523458903807
-4.0835,-0.9675720512772257,-1.068170521231597
-4.083,-0.1886492866663929,-0.5913217929990628
-4.0825,0.3448594562179915,-0.1038764263610429
-4.082,0.6222840025174878,0.2458126410091644
-4.0815,0.7289857510943143,0.4683420475176805
-4.081,0.7289857510943143,0.5743084315692585
-4.0805,0.6969752265212663,0.5955017083796896
-4.08,0.6542945270905358,0.55311515475902
-4.0795,0.6222840025175169,0.4789386859229153
-4.079,0.5582629533708972,0.309392471439581
-4.0785,0.01408403562957729,-0.3370024712750445
-4.078,-0.8502001278419307,-1.152943628472195
-4.0775,-1.629122892453559,-1.80993520959352
-4.077,-1.639793067311232,-2.032464616101834
-4.0765,-0.7755089038397243,-1.640388995110995
-4.076,0.05676473506080279,-0.9304142219637653
-4.0755,0.6009436528021226,-0.2098428104130352
-4.075,0.857027849386506,0.2987958330350016
-4.0745,0.899708548817188,0.5637117931642356
-4.074,0.8463576745288233,0.6166949851900245
-4.0735,0.79300680024041,0.5849050699745222
-4.073,0.97439977282085,0.6908714540261002
-4.0725,1.038420821967111,0.6166949851900245
-4.072,0.9530594231056497,0.3729723018711736
-4.0715,0.8250173248135745,0.1186529801473865
-4.071,0.7289857510942173,-0.08268314955108387
-4.0705,0.6222840025174878,-0.1462629799820306
-4.07,0.1421261339222057,0.3623756634655435
-4.0695,-0.7221580295511849,1.135930267043749
-4.069,-1.447729919872945,1.70814874092227
-4.0685,-1.885207089037933,1.231300012689736
-4.068,-2.247993034199055,-0.029699957526143
-4.0675,-2.151961460479999,-1.078767159636765
-4.067,-1.298347471865388,-1.184733543688439
-4.0665,-0.4447334832502037,-0.739674730670925
-4.066,0.1848068333524996,-0.2098428104130352
-4.0655,0.5475927785137094,0.2034260873884947
-4.065,0.7076454013788035,0.4789386859225973
-4.0645,0.7396559259519968,0.627291623595192
-4.064,0.707645401378949,0.6696781772158616
-4.0635,0.6649647019482572,0.6378882620003883
-4.063,0.6329541773751415,0.563711793164091
-4.0625,0.6009436528021226,0.457745409112513
-4.062,0.2808384070719345,0.02328323450104341
-4.0615,-0.5407650569705994,-0.8032545611030957
-4.061,-1.287677297007705,-1.555615887869299
-4.0605,-1.565101843307454,-1.979481424075996
-4.06,-0.8822106524149979,-1.852321763213409
-4.0595,-0.03926683865883591,-1.216523458903942
-4.059,0.5689331282290746,-0.474758770542221
-4.0585,0.8783681991015898,0.06566978812082658
-4.058,0.9637295979633325,0.4153588554918433
-4.0575,0.9103787236749192,0.5637117931641874
-4.057,0.8356874996712087,0.5743084315693452
-4.0565,0.8997085488172365,0.627291623595192
-4.056,1.006410297394063,0.6484849004055269
-4.0555,0.9423892482480252,0.4895353243281599
-4.055,0.8356874996710534,0.2881991946296606
-4.0545,0.7396559259519968,0.09745970333682032
-4.054,0.6649647019482863,-0.04029659593023104
-4.0535,0.3128489316439537,0.2564092794149871
-4.053,-0.4980843575391895,0.9769806909657173
-4.0525,-1.341028171296118,1.623375633680931
-4.052,-1.885207089038185,1.506812611223038
-4.0515,-2.162631635337682,0.3517790250608387
-4.051,-2.312014083345239,-0.8880276683437509
-4.0505,-1.821186039892284,-1.449649503817114
-4.05,-0.8928808272734472,-1.142346990067769
-4.0495,-0.1352984123779797,-0.5807251545938954
-4.049,0.3768699807903213,-0.08268314955147904
-4.0485,0.6329541773752579,0.2564092794145053
-4.048,0.7289857510943143,0.4471487707073456
-4.0475,0.7289857510943143,0.5213252395434501
-4.047,0.6863050516635449,0.510728601138302
-4.0465,0.6436243522328531,0.457745409112513
-4.046,0.6222840025175073,0.3835689402764085
-4.0455,0.462231379651598,0.1080563417413035
-4.045,-0.2526703358124887,-0.6443049850249
-4.0445,-1.127624674142465,-1.42845622700729
-4.044,-1.767835165603065,-1.990078062481125
-4.0435,-1.373038695869166,-1.947691508860494
-4.043,-0.4874141826815069,-1.396666311791788
-4.0425,0.2701682322132716,-0.6549016234307421
-4.042,0.7183155762366316,-0.008506680714854012
-4.0415,0.8676980242441885,0.4047622170866759
-4.041,0.8783681991018616,0.606098346784674
-4.0405,0.8143471499557947,0.6484849004053823
-4.04,0.8356874996711408,0.4895353243280153
-4.0395,1.049090996824599,0.1080563417423347
-4.039,1.027750647109331,-0.02969995752520815
-4.0385,0.9210488985326017,-0.05089323433552374
-4.038,0.7930068002405265,-0.04029659593036595
-4.0375,0.6969752265210722,-0.05089323433533099
-4.037,0.4835717293676135,0.1610395337678249
-4.0365,-0.2099896363817582,0.849821030103708
-4.036,-1.063603624996971,1.538602526439784
-4.0355,-1.725154466172693,1.75053529454294
-4.035,-2.247993034199143,0.7968378380778709
-4.0345,-2.354694782775872,-0.5065486857565378
-4.034,-1.87453691418025,-1.174136905283272
-4.0335,-0.9035510021311299,-1.004590690800593
-4.033,-0.1246282375210055,-0.5595318777839653
-4.0325,0.3875401556487026,-0.1250697031714259
-4.032,0.6436243522328531,0.1716361721729923
-4.0315,0.7396559259519094,0.3517790250606748
-4.031,0.7396559259519579,0.425955493897001
-4.0305,0.6969752265212663,0.4153588554918433
-4.03,0.6542945270905747,0.38356894027637
-4.0295,0.6222840025174199,0.3199891098451726
-4.029,0.5475927785137094,0.13984625695749
-4.0285,-0.04993701351651855,-0.5383386009732256
-4.028,-0.9248913518471842,-1.343683119766548
-4.0275,-1.682473766741963,-2.000674700886331
-4.027,-1.682473766741963,-2.329170491446522
-4.0265,-0.7861790786974359,-2.011271339291788
-4.026,0.0674349099179905,-1.269506650929778
-4.0255,0.6222840025174878,-0.5065486857577234
-4.025,0.8997085488169843,0.05507314971563981
-4.0245,0.9530594231056012,0.447148770707548
-4.024,0.8997085488172365,0.6696781772158616
-4.0235,0.8356874996711989,0.7650479228622818
-4.023,1.006410297394102,0.9134008605346357
-4.0225,1.049090996824793,0.8286277532933731
-4.022,0.942389248248064,0.5637117931644283
-4.0215,0.825017324813361,0.2987958330347992
-4.021,0.7183155762366316,0.07626642652648545
-4.0205,0.6116138276598051,0.002089957690313421
-4.02,0.09944543449024267,0.5001319627338382
-4.0195,-0.7755089038389382,1.220703374284568
-4.019,-1.533091318734406,1.739938656137773
-4.0185,-1.938557963325977,1.358459673552092
-4.018,-2.247993034199143,0.1292496185523226
-4.0175,-2.07727023647622,-0.9198175835592532
-4.017,-1.191645723289366,-1.068170521231462
-4.0165,-0.3700422592464543,-0.7078848154554997
-4.016,0.2274875327832301,-0.2628260024388724
-4.0155,0.5689331282287641,0.1080563417416504
-4.015,0.7076454013789781,0.3411823866557965
-4.0145,0.7396559259519968,0.4789386859228479
-4.014,0.7076454013789781,0.5107286011383213
-4.0135,0.6649647019481892,0.4895353243279575
-4.013,0.6329541773751706,0.4259554938970107
-4.0125,0.6009436528021226,0.3517790250608387
-4.012,0.2381577076401461,-0.0826831495517585
-4.0115,-0.6047861061160158,-0.8880276683437509
-4.011,-1.405049220442214,-1.619195718300304
-4.0105,-1.735824641030075,-2.0218679776963
-4.01,-0.9995825758502737,-1.852321763213987
-4.0095,-0.1032878878049318,-1.280103289334946
-4.009,0.5369226036554442,-0.5595318777842159
-4.0085,0.8463576745289009,0.05507314971649754
-4.008,0.9317190733902845,0.4365521323021782
-4.0075,0.8997085488172656,0.6378882620001763
-4.007,0.8250173248135162,0.6802748156208652
-4.0065,0.8890383739595538,0.5001319627331828
-4.006,0.9850699476786977,0.2352160026039969
-4.0055,0.9210488985325144,0.1080563417419203
-4.005,0.825017324813458,0.03387987290581572
-4.0045,0.7289857510943143,-0.02969995752518888
-4.004,0.6649647019479175,-0.07208651114553093
-4.0035,0.3341892813600565,0.2881991946298341
-4.003,-0.4767440078238243,1.00877060618122
-4.0025,-1.330357996437659,1.633972272085529
-4.002,-2.03458953704549,1.443232780793084
-4.0015,-2.365364957633652,0.2670059178194992
-4.001,-2.354694782775979,-0.9304142219633316
-4.0005,-1.735824641029493,-1.31189320455014
-4,-0.7648387289812555,-0.9728007755850904
-3.9995,-0.007256314085787988,-0.4641621321370536
-3.999,0.4515612047945656,-0.04029659593035631
-3.9985,0.6756348768059011,0.2458126410091644
-3.998,0.7396559259519968,0.3941655786815084
-3.9975,0.7289857510943143,0.4471487707073456
-3.997,0.6863050516635838,0.4259554938970107
-3.9965,0.6436243522328531,0.3729723018711736
-3.996,0.6222840025174878,0.2987958330350016
-3.9955,0.4408910299368829,-0.008506680714854012
-3.995,-0.2953510352432193,-0.7820612842920766
-3.9945,-1.148965023857831,-1.555615887869299
-3.994,-1.746494815888059,-2.138431000153508
-3.9935,-1.30901764672307,-2.191414192179345
-3.993,-0.4020527838200457,-1.640388995110639
-3.9925,0.3448594562177392,-0.8456411147230812
-3.992,0.7503261008096795,-0.1250697031716958
-3.9915,0.8783681991018712,0.3411823866556712
-3.991,0.8783681991018712,0.5637117931641874
-3.9905,0.8143471499557753,0.6166949851900245
-3.99,0.8356874996711408,0.6484849004055269
-3.9895,1.027750647109428,0.7544512844572011
-3.989,1.006410297394063,0.5955017083796896
-3.9885,0.8997085488172365,0.3623756634660061
-3.988,0.7823366253827275,0.13984625695749
-3.9875,0.6969752265212663,-0.02969995752518888
-3.987,0.5049120790829789,0.07626642652648545
-3.9865,-0.1779791118087102,0.7120647308365314
-3.986,-1.06360362499637,1.411442865577582
-3.9855,-1.757164990745741,1.845905040189447
-3.985,-2.162631635337682,1.739938656137773
-3.9845,-2.344024607918286,0.6378882620003594
-3.984,-2.055929886760855,-0.4429688553267188
-3.9835,-1.1062843244271,-0.6654982618352349
-3.983,-0.2846808603855366,-0.4323722169215513
-3.9825,0.291508581929326,-0.08268314955102604
-3.982,0.6009436528021226,0.2352160026039969
-3.9815,0.7289857510943143,0.4683420475176805
-3.981,0.7396559259519968,0.6060983467848571
-3.9805,0.6969752265212663,0.6484849004055269
-3.98,0.6542945270905358,0.6166949851900245
-3.9795,0.6222840025174878,0.55311515475902
-3.979,0.5582629533713921,0.3623756634660061
-3.9785,0.02475421048725994,-0.2946159176543747
-3.978,-0.8288597781273515,-1.0999604364471
-3.9775,-1.607782542738184,-1.714565463946811
-3.977,-1.597112367880501,-1.703968825541643
-3.9765,-0.7648387289812555,-1.205926820498774
-3.976,0.04609456020262521,-0.5913217929990628
-3.9755,0.5902734779444399,-0.01910331912002144
-3.975,0.825017324813458,0.3941655786815084
-3.9745,0.8783681991018712,0.6060983467848571
-3.974,0.8356874996711408,0.6590815388106942
-3.9735,0.8036769750980928,0.627291623595192
-3.973,0.9957401225363802,0.7438546460520338
-3.9725,1.049090996824793,0.6378882620003594
-3.972,0.9530594231056497,0.3729723018711736
-3.9715,0.825017324813458,0.08686306493165288
-3.971,0.7289857510943143,-0.1356663415768632
-3.9705,0.6009436528021226,-0.1992461720078678
-3.97,0.07810508477567314,0.309392471440169
-3.9695,-0.7861790786966207,1.040560521396722
-3.969,-1.490410619303675,1.559795803249926
-3.9685,-1.991908837614759,1.029963882991555
-3.968,-2.322684258202921,-0.1992461720078678
-3.9675,-2.045259711903173,-1.05757388282643
-3.967,-1.1062843244271,-1.01518732920576
-3.9665,-0.2846808603855366,-0.570128516188728
-3.966,0.291508581929326,-0.1038764263613609
-3.9655,0.6009436528021226,0.2670059178194992
-3.965,0.7289857510943143,0.5001319627331828
-3.9645,0.7396559259519968,0.627291623595192
-3.964,0.707645401378949,0.6696781772158616
-3.9635,0.6649647019482183,0.6378882620003594
-3.963,0.6329541773751706,0.5637117931641874
-3.9625,0.6009436528021226,0.4259554938970107
-3.962,0.2168173579255475,-0.08268314955102604
-3.9615,-0.6047861061160158,-0.9198175835592532
-3.961,-1.426389570157579,-1.650985633515806
-3.9605,-1.735824641030376,-1.958288147265661
-3.96,-0.9995825758502737,-1.555615887869299
-3.9595,-0.1352984123779797,-0.8774310299385835
-3.959,0.4942419042252961,-0.2204394488182027
-3.9585,0.8143471499557753,0.2352160026039969
-3.958,0.9210488985326017,0.5107286011383502
-3.9575,0.8997085488172365,0.6484849004055269
-3.957,0.8356874996711408,0.6696781772158616
-3.9565,0.974399772821015,0.6696781772158616
-3.956,1.102441871113207,0.6060983467848571
-3.9555,1.027750647109428,0.4153588554918433
-3.955,0.8890383739595538,0.1928294489833272
-3.9545,0.7609962756673623,-0.008506680714854012
-3.954,0.6756348768059011,-0.1462629799820306
-3.9535,0.3341892813600565,0.13984625695749
-3.953,-0.4767440078238243,0.8392243916985406
-3.9525,-1.30901764672307,1.475022696008586
-3.952,-1.938557963326346,1.316073119931075
-3.9515,-2.333354433060604,0.1822328105781598
-3.951,-2.290673733629873,-0.9304142219644207
-3.9505,-1.51175096901904,-1.163540266878104
-3.95,-0.5834457564006506,-0.8138511995075789
-3.9495,0.09944543449103843,-0.3370024712750445
-3.949,0.5155822539406614,0.05507314971615059
-3.9485,0.6969752265212663,0.3199891098453364
-3.948,0.7503261008096795,0.457745409112513
-3.9475,0.7183155762366316,0.5001319627331828
-3.947,0.6756348768059011,0.4789386859228479
-3.9465,0.6329541773751706,0.4259554938970107
-3.946,0.6116138276598051,0.3517790250608387
-3.9455,0.3982103305061524,0.03387987290581572
-3.945,-0.3700422592469978,-0.7396747306714069
-3.9445,-1.191645723288561,-1.523825972653797
-3.944,-1.757164990745741,-2.053657892912168
-3.9435,-1.202315898146244,-2.032464616101834
-3.943,-0.274010685527854,-1.481439419033127
-3.9425,0.4302208550792003,-0.718481453861072
-3.942,0.8143471499557753,-0.02969995752518888
-3.9415,0.942389248247967,0.4259554938970107
-3.941,0.9103787236749192,0.627291623595192
-3.9405,0.8356874996711408,0.6484849004055269
-3.94,0.8463576745288233,0.5213252395435176
-3.9395,1.006410297394063,0.2564092794143318
-3.939,0.9850699476786977,0.1186529801471552
-3.9385,0.8783681991018712,0.04447651131098315
-3.938,0.7716664505250448,0.002089957690313421
-3.9375,0.6969752265212663,-0.05089323433552374
-3.937,0.5049120790829789,0.1186529801471552
-3.9365,-0.1886492866663929,0.775644561267536
-3.936,-1.052933450138687,1.485619334413754
-3.9355,-1.618452717595867,1.729342017732605
-3.935,-1.970568487899394,0.8074344764830383
-3.9345,-2.258663209056825,-0.4853554089473885
-3.934,-1.735824641030376,-1.142346990067769
-3.9335,-0.839529952985034,-0.9833974139902578
-3.933,-0.09261771294724913,-0.5383386009732256
-3.9325,0.3982103305061524,-0.1038764263613609
-3.932,0.6436243522328531,0.2034260873884947
-3.9315,0.7289857510943143,0.383568940276341
-3.931,0.7289857510943143,0.4683420475176805
-3.9305,0.6969752265212663,0.4789386859228479
-3.93,0.6542945270905358,0.4365521323021782
-3.9295,0.6222840025174878,0.3729723018711736
-3.929,0.5369226036560266,0.1610395337678249
-3.9285,-0.09261771294724913,-0.5277419625680583
-3.928,-0.9675720512772257,-1.322489842955616
-3.9275,-1.703814116457328,-1.937094870455327
-3.927,-1.629122892453549,-1.958288147265661
-3.9265,-0.7755089038389382,-1.38606967338662
-3.926,0.04609456020262521,-0.6972881770507372
-3.9255,0.6009436528021226,-0.1038764263613609
-3.925,0.857027849386506,0.3411823866556712
-3.9245,0.9103787236749192,0.627291623595192
-3.924,0.857027849386506,0.7120647308365314
-3.9235,0.8143471499557753,0.701468092431364
-3.923,1.006410297394063,0.8074344764830383
-3.9225,1.049090996824793,0.6908714540261965
-3.922,0.9530594231056497,0.4047622170866759
-3.9215,0.825017324813458,0.1186529801471552
-3.921,0.7289857510943143,-0.1038764263613609
-3.9205,0.6116138276598051,-0.1568596183871981
-3.92,0.0674349099179905,0.3729723018711736
-3.9195,-0.807519428411986,1.114736990232894
-3.919,-1.533091318734406,1.633972272086098
-3.9185,-1.917217613610981,1.146526905448396
-3.918,-2.23732285934146,-0.08268314955102604
-3.9175,-2.109280761049269,-1.078767159636765
-3.917,-1.234326422719292,-1.152943628472937
-3.9165,-0.4020527838200457,-0.718481453861072
-3.916,0.2061471830678648,-0.2098428104130352
-3.9155,0.5582629533713921,0.1928294489833272
-3.915,0.707645401378949,0.4683420475176805
-3.9145,0.7396559259519968,0.6166949851900245
-3.914,0.707645401378949,0.6484849004055269
-3.9135,0.6542945270905358,0.6166949851900245
-3.913,0.6222840025174878,0.5425185163538525
-3.9125,0.6009436528021226,0.4047622170866759
-3.912,0.2168173579255475,-0.09327978795619347
-3.9115,-0.6154562809736985,-0.9198175835592532
-3.911,-1.319687821580753,-1.640388995110639
-3.9105,-1.501080794161358,-1.894708316834657
-3.91,-0.722158029550525,-1.629792356705471
-3.9095,0.1314559590640864,-1.184733543688439
-3.909,0.6756348768059011,-0.6231117082145651
-3.9085,0.9103787236749192,-0.1674562567923655
-3.908,0.9317190733902845,0.1292496185523226
-3.9075,0.8783681991018712,0.2564092794143318
-3.907,0.79300680024041,0.2881991946298341
-3.9065,0.9317190733902845,0.4365521323021782
-3.906,1.081101521397841,0.5319218779486851
-3.9055,1.017080472251745,0.3941655786815084
-3.905,0.8890383739595538,0.2246193641988295
-3.9045,0.7609962756673623,0.07626642652648545
-3.904,0.6649647019482183,0.02328323450064829
-3.9035,0.2381577076409128,0.4153588554918433
-3.903,-0.5941159312583333,1.146526905448396
-3.9025,-1.405049220442214,1.761131932948107
-3.902,-2.066600061618538,1.528005888034424
-3.9015,-2.354694782775969,0.2987958330350016
-3.901,-2.344024607918286,-0.9198175835592532
-3.9005,-1.693143941599645,-1.258910012524611
-3.9,-0.7328282044082075,-0.8668343915334161
-3.8995,0.01408403562957729,-0.2946159176543747
-3.899,0.4622313796522482,0.1822328105781598
-3.8985,0.6863050516635838,0.5107286011383502
-3.898,0.7503261008096795,0.6908714540261965
-3.8975,0.7289857510943143,0.7544512844572011
-3.897,0.6863050516635838,0.7120647308365314
-3.8965,0.6436243522328531,0.627291623595192
-3.896,0.6116138276598051,0.5001319627331828
-3.8955,0.3768699807907871,0.09745970333682032
-3.895,-0.4020527838200457,-0.718481453861072
-3.8945,-1.255666772434657,-1.51322933424863
-3.894,-1.821186039891837,-2.074851169722503
-3.8935,-1.234326422719292,-2.17022091536901
-3.893,-0.2846808603855366,-1.714565463946811
-3.8925,0.4515612047945656,-0.9833974139902578
-3.892,0.825017324813458,-0.2840192792492073
-3.8915,0.9317190733902845,0.1822328105781598
-3.891,0.9103787236749192,0.4365521323021782
-3.8905,0.857027849386506,0.4789386859228479
-3.89,0.8783681991018712,0.4683420475176805
-3.8895,1.070431346540159,0.5637117931641874
-3.889,1.038420821967111,0.4259554938970107
-3.8885,0.9103787236749192,0.2034260873884947
-3.888,0.79300680024041,0.002089957690313421
-3.8875,0.6969752265212663,-0.1356663415768632
-3.887,0.4302208550792003,0.07626642652648545
-3.8865,-0.3487019095316325,0.8074344764830383
-3.886,-1.180975548430879,1.538602526439591
-3.8855,-1.810515865034154,1.718745379327438
