Class_11_Cell_phone_Call/Class_11_Cell_phone_Call_Turki_4.csv

#Digilent WaveForms Oscilloscope Acquisition
#Device Name: EExplorer
#Serial Number: SN:210151A2B84A
#Date Time: 2020-12-13 12:44:52.901
#Sample rate: 2000Hz
#Samples: 16384
#Trigger: Source: Channel 1 Type: Edge Condition: Rising Level: 0 V Hyst.: Auto HoldOff: 0 s
#Channel 1: Range: 1 V/div Offset: 0 V Attenuation: 1 X
#Channel 2: Range: 1 V/div Offset: 0 V Attenuation: 1 X
#Power Supplies: ON
#Fixed Supply: ON
#Voltage: 3.3 V Readback: 3.326 V
#Positive Supply: ON
#Voltage: 3.7 V Readback: 3.714 V
#Current: 40 mA Readback: 21 mA
#Negative Supply: ON
#Voltage: -3.7 V Readback: -3.354 V
#Current: -40 mA Readback: -8 mA
#Reference 1: ON
#Voltage: 0 V
#Reference 2: ON
#Voltage: 0 V

Time (s),Channel 1 (V),Channel 2 (V)
-4.096,0.1634664836371343,0.7968378380778709
-4.0955,-0.04993701351632446,0.2881991946302968
-4.095,-0.4767440078242318,-0.4747587705428764
-4.0945,-0.9248913518464952,-1.195330182093607
-4.094,-1.373038695868758,-1.75695201756697
-4.0935,-1.255666772434104,-1.481439419032617
-4.093,-0.6474668055467465,-0.9198175835592532
-4.0925,-0.1032878878054266,-0.6549016234303083
-4.092,0.2381577076410777,-0.4747587705421921
-4.0915,0.4195506802215176,-0.4429688553267188
-4.091,0.5049120790829789,-0.5277419625680583
-4.0905,0.5475927785139034,-0.7078848154560781
-4.09,0.7609962756673623,-0.8986243067489184
-4.0895,0.7503261008096795,-0.8350444763179138
-4.089,0.5902734779445854,-0.6443049850250735
-4.0885,0.4515612047945656,-0.4111789401112165
-4.088,0.3448594562177392,-0.1992461720078678
-4.0875,0.5049120790828333,0.1610395337674972
-4.087,1.081101521397618,0.6484849004052088
-4.0865,0.8356874996711408,0.2987958330350016
-4.086,-0.1139580626617508,-0.3581957480847817
-4.0855,-1.052933450138968,-0.8456411147231583
-4.085,-1.362368521011484,-0.9304142219644207
-4.0845,-1.010252750708277,-0.3687923864910575
-4.084,-0.5300948821118685,0.3411823866562206
-4.0835,-0.124628237520297,0.9451907757502149
-4.083,0.1314559590640864,1.33726639674141
-4.0825,0.2594980573563072,1.57039244165518
-4.082,0.291508581929326,1.6657621873016
-4.0815,0.291508581929326,1.655165548896433
-4.081,0.2594980573563072,1.591585718465486
-4.0805,0.2274875327832301,1.506812611224089
-4.08,0.1954770082101822,1.390249588767247
-4.0795,0.1634664836371634,1.178316820664091
-4.079,0.05676473506023993,0.8074344764828166
-4.0785,-0.01792648894347063,0.5637117931641874
-4.078,-0.3380317346736588,-0.1780528951968583
-4.0775,-0.519424707253856,-0.898624306749458
-4.077,0.2488278824985954,-1.492036057438295
-4.0765,0.9103787236743175,-1.629792356705346
-4.076,1.113112045970792,-1.195330182093298
-4.0755,1.006410297394063,-0.8562377531282487
-4.075,0.8143471499557753,-0.6443049850249
-4.0745,0.6436243522327366,-0.6443049850249482
-4.074,0.5155822539406614,-0.6972881770507372
-4.0735,0.6009436528021226,-0.8032545611024114
-4.073,0.6436243522328142,-0.7396747306714647
-4.0725,0.5582629533713921,-0.5383386009732256
-4.072,0.4408910299368829,-0.3052125560595421
-4.0715,0.3448594562178265,-0.1144730647667018
-4.071,0.3448594562181759,0.1080563417425082
-4.0705,0.825017324813458,0.6802748156210291
-4.07,1.027750647109244,0.6484849004055557
-4.0695,0.3128489316438566,-0.06148987274123088
-4.069,-0.6047861061160158,-0.6549016234300674
-4.0685,-1.298347471865388,-1.068170521231597
-4.068,-1.212986073003509,-0.7714646458862828
-4.0675,-0.754168554123573,-0.08268314955102604
-4.067,-0.3060212101009019,0.5743084315693548
-4.0665,0.01408403562974227,1.05115715980215
-4.066,0.1954770082101822,1.33726639674141
-4.0655,0.2701682322139607,1.485619334413754
-4.065,0.2808384070716336,1.517409249629227
-4.0645,0.2701682322139607,1.485619334413754
-4.064,0.2381577076409128,1.42203950398275
-4.0635,0.195477008210221,1.305476481526014
-4.063,0.1314559590638923,0.9663840525601257
-4.0625,-0.08194753808956648,0.5001319627331828
-4.062,-0.6901475049769239,-0.2734226408433363
-4.0615,-1.191645723288852,-1.04697724442185
-4.061,-1.51175096901904,-1.693372187136476
-4.0605,-1.693143941599645,-2.096044446532838
-4.06,-1.095614149568699,-1.598002441489313
-4.0595,-0.3060212101009019,-0.8774310299385835
-4.059,0.2594980573562781,-0.4323722169215513
-4.0585,0.5369226036557744,-0.2734226408441844
-4.058,0.6222840025174878,-0.3370024712750445
-4.0575,0.6222840025174878,-0.4535654937318862
-4.057,0.6756348768058525,-0.6549016234298843
-4.0565,0.7823366253827275,-0.8138511995075789
-4.056,0.6863050516635838,-0.718481453861072
-4.0555,0.5155822539408166,-0.5277419625682318
-4.055,0.3875401556484018,-0.3264058328696843
-4.0545,0.3128489316446912,-0.1144730647665284
-4.054,0.366199805933056,0.08686306493146978
-4.0535,0.6542945270902447,0.3941655786811807
-4.053,0.3341892813600565,0.03387987290581572
-4.0525,-0.3273615598162672,-0.6231117082145651
-4.052,-0.7008176798350529,-0.9092209451536907
-4.0515,-0.5834457564006506,-0.474758770542221
-4.051,-0.3060212101009019,0.2034260873884947
-4.0505,-0.04993701351675145,0.8180311148876468
-4.05,0.1314559590640864,1.25249328950007
-4.0495,0.2168173579255475,1.517409249629256
-4.049,0.2594980573562393,1.64456891049115
-4.0485,0.2594980573562586,1.686955464111906
-4.048,0.2381577076409128,1.655165548896433
-4.0475,0.206147183067894,1.580989080060328
-4.047,0.1954770082101628,1.485619334413638
-4.0465,0.1741366584948169,1.358459673551745
-4.046,0.02475421048739579,1.125333628638274
-4.0455,-0.5407650569703761,0.6060983467841247
-4.045,-1.042263275281004,-0.1992461720078678
-4.0445,-1.501080794161358,-1.01518732920576
-4.044,-1.938557963325958,-1.650985633515893
-4.0435,-1.51175096901904,-1.746355379162313
-4.043,-0.7328282044082075,-1.205926820498774
-4.0425,-0.07127736323248546,-0.7502713690769887
-4.042,0.3448594562177392,-0.4959520473525559
-4.0415,0.5475927785137094,-0.4535654937318862
-4.041,0.5796033030867282,-0.5701285161886219
-4.0405,0.568933128229259,-0.7502713690767574
-4.04,0.7716664505250448,-0.9516074987747555
-4.0395,0.750326100809699,-0.8668343915334933
-4.039,0.6009436528019867,-0.6654982618350325
-4.0385,0.4515612047945656,-0.4429688553267188
-4.038,0.3448594562178362,-0.2310360872235629
-4.0375,0.4942419042258493,0.08686306493195164
-4.037,1.102441871113207,0.4153588554918433
-4.0365,1.059761171682476,0.04447651131098315
-4.036,0.1527963087785297,-0.5701285161891327
-4.0355,-0.8608703027003992,-1.01518732920576
-4.035,-1.244996597576974,-0.9939940523954253
-4.0345,-0.9675720512774779,-0.3475991096807998
-4.034,-0.5194247072545548,0.4153588554918433
-4.0335,-0.1352984123779797,1.019367244586387
-4.033,0.1101156093484978,1.400846227172068
-4.0325,0.2381577076409516,1.602182356870653
-4.032,0.2808384070716433,1.6657621873016
-4.0315,0.2808384070716433,1.644568910491285
-4.031,0.2594980573562586,1.570392441654987
-4.0305,0.2381577076409128,1.453829419198252
-4.03,0.206147183067894,1.294879843120885
-4.0295,0.1527963087791314,1.040560521396153
-4.029,-0.1993194615240755,0.4153588554918433
-4.0285,-0.839529952985034,-0.4853554089473885
-4.028,-1.202315898146351,-1.258910012524977
-4.0275,-1.319687821580753,-1.661582271920973
-4.027,-0.9462317015618604,-1.534422611058964
-4.0265,-0.2846808603861383,-1.057573882826863
-4.026,0.2488278824985954,-0.6866915386455698
-4.0255,0.5369226036560266,-0.474758770542221
-4.025,0.654294527090429,-0.4111789401112743
-4.0245,0.6542945270904776,-0.474758770542356
-4.024,0.5902734779444399,-0.6231117082145651
-4.0235,0.7183155762365151,-0.8350444763177211
-4.023,0.7396559259518803,-0.8456411147229174
-4.0225,0.6116138276598051,-0.6654982618352349
-4.022,0.462231379652384,-0.4323722169217633
-4.0215,0.3448594562177004,-0.188649533602604
-4.021,0.3021787567870086,-0.08268314955102604
-4.0205,0.4942419042252961,-0.07208651114585861
-4.02,0.9210488985325823,0.2458126410092319
-4.0195,0.8997085488172365,0.3199891098453364
-4.019,0.2274875327832301,-0.252229364033705
-4.0185,-0.2420001609543791,-0.5065486857574921
-4.018,-0.2846808603855366,-0.1462629799820306
-4.0175,-0.156638762093345,0.4047622170866759
-4.017,0.003413860771749072,0.9028042221290923
-4.0165,0.1314559590641446,1.273686566310627
-4.016,0.1954770082101822,1.517409249629256
-4.0155,0.227487532783201,1.64456891049115
-4.015,0.238157707640903,1.697552102517093
-4.0145,0.2274875327832301,1.686955464111935
-4.014,0.2168173579255572,1.644568910491304
-4.0135,0.1954770082101434,1.580989080060087
-4.013,0.1527963087794516,1.390249588767247
-4.0125,-0.1139580626626144,0.9557874141553824
-4.012,-0.7434983792663269,0.2140227257928814
-4.0115,-1.223656247861609,-0.6443049850249
-4.011,-1.746494815888059,-1.375473034981453
-4.0105,-2.002579012472209,-1.968884785670289
-4.01,-1.26633694729234,-1.88411167842949
-4.0095,-0.4447334832507763,-1.258910012524611
-4.009,0.184806833351927,-0.7820612842925103
-4.0085,0.4942419042253932,-0.5807251545938761
-4.008,0.6009436528021226,-0.5595318777835605
-4.0075,0.5689331282291037,-0.6549016234299807
-4.007,0.6542945270906814,-0.8774310299386798
-4.0065,0.8143471499557753,-0.9833974139902578
-4.006,0.7183155762366316,-0.8032545611024114
-4.0055,0.5369226036558907,-0.5489352393781618
-4.005,0.3875401556484697,-0.2946159176543747
-4.0045,0.3128489316446912,-0.05089323433552374
-4.004,0.6436243522333286,0.5319218779490705
-4.0035,1.166462920259302,0.9557874141553824
-4.003,0.6542945270905358,0.3941655786815084
-4.0025,-0.3487019095307202,-0.3158091944640639
-4.002,-1.180975548430879,-0.8668343915334161
-4.0015,-1.212986073003927,-0.7290780922662394
-4.001,-0.8075194284123548,-0.1038764263619296
-4.0005,-0.3593720843890144,0.5531151547594729
-4,-0.02859666380115328,1.051157159801889
-3.9995,0.1741366584948169,1.37965295036208
-3.999,0.2594980573562781,1.549199164844759
-3.9985,0.2808384070716433,1.602182356870596
-3.998,0.2594980573562781,1.570392441655093
-3.9975,0.2274875327832301,1.506812611224089
-3.997,0.1954770082101822,1.443232780793084
-3.9965,0.1634664836371343,1.305476481525908
-3.996,0.09944543449103843,1.061753798207057
-3.9955,-0.3060212101009019,0.4259554938970107
-3.995,-0.754168554123573,-0.4111789401112165
-3.9945,-1.095614149569417,-1.163540266878104
-3.994,-0.6154562809736985,-1.672178910326141
-3.9935,0.3235191065023739,-1.778145294377815
-3.993,0.8036769750980928,-1.174136905283272
-3.9925,0.9103787236749192,-0.7502713690765743
-3.992,0.8463576745288233,-0.5595318777835605
-3.9915,0.707645401378949,-0.570128516188728
-3.991,0.5689331282290746,-0.6760949002404023
-3.9905,0.5155822539406614,-0.8032545611024114
-3.99,0.6969752265212663,-0.9622041371799229
-3.9895,0.6756348768059011,-0.8350444763179138
-3.989,0.5475927785137094,-0.5913217929990628
-3.9885,0.4302208550792003,-0.3370024712750445
-3.988,0.3341892813600565,-0.1356663415768632
-3.9875,0.4622313796522482,0.2670059178194992
-3.987,1.038420821967111,0.9028042221295453
-3.9865,0.8676980242441885,0.6166949851900245
-3.986,-0.06060718837420119,-0.2098428104130352
-3.9855,-1.052933450138687,-0.9304142219644207
-3.985,-1.394379045584531,-1.078767159636765
-3.9845,-1.06360362499637,-0.4959520473525559
-3.984,-0.572775581542968,0.2776025562246667
-3.9835,-0.156638762093345,0.92399749893988
-3.983,0.09944543449103843,1.358459673551745
-3.9825,0.2274875327832301,1.602182356870596
-3.982,0.2701682322139607,1.697552102517103
-3.9815,0.2701682322139607,1.697552102517103
-3.981,0.2274875327832301,1.644568910491266
-3.9805,0.1954770082101822,1.559795803249926
-3.98,0.1527963087794516,1.443232780793084
-3.9795,0.08877525963335578,1.25249328950007
-3.979,-0.3166913849585846,0.6802748156210291
-3.9785,-0.7755089038389382,-0.2734226408440398
-3.978,-1.084943974711735,-1.121153713257435
-3.9775,-1.020922925565639,-1.587405803084801
-3.977,-0.1673089369510276,-1.88411167842949
-3.9765,0.5262524287983441,-1.650985633515806
-3.976,0.8356874996711408,-1.089363798041932
-3.9755,0.8676980242441885,-0.6337083466197325
-3.975,0.7823366253827275,-0.4323722169215513
-3.9745,0.6542945270905358,-0.4323722169215513
-3.974,0.5475927785137094,-0.570128516188728
-3.9735,0.6756348768059011,-0.7714646458869092
-3.973,0.7289857510943143,-0.8244478379127463
-3.9725,0.6009436528021226,-0.7290780922662394
-3.972,0.4515612047945656,-0.5489352393783931
-3.9715,0.3448594562177392,-0.3475991096802118
-3.971,0.3341892813600565,-0.2204394488182027
-3.9705,0.5582629533713921,-0.2416327256285375
-3.97,0.8676980242441885,-0.02969995752518888
-3.9695,0.4622313796522482,-0.4111789401112165
-3.969,-0.3593720843893152,-0.9198175835592532
-3.9685,-0.722158029550525,-0.8562377531282487
-3.968,-0.5941159312583333,-0.2310360872233701
-3.9675,-0.3166913849585846,0.457745409112513
-3.967,-0.06060718837420119,1.019367244586387
-3.9665,0.1101156093487211,1.37965295036208
-3.966,0.2061471830678648,1.591585718465428
-3.9655,0.2381577076409128,1.676358825706768
-3.965,0.2381577076409128,1.676358825706768
-3.9645,0.2168173579255475,1.633972272086098
-3.964,0.1954770082101822,1.528005888034424
-3.9635,0.1634664836371343,1.390249588767247
-3.963,0.1207857842064037,1.114736990232894
-3.9625,0.02475421048725994,0.5107286011383502
-3.962,-0.2420001609548061,-0.2204394488182027
-3.9615,-0.5834457564006506,-0.9622041371799229
-3.961,-0.9035510021311299,-1.608599079895136
-3.9605,-0.7968492535543035,-1.873515040024322
-3.96,-0.3273615598162672,-1.322489842955616
-3.9595,0.1101156093487211,-0.8138511995075789
-3.959,0.3875401556484697,-0.5595318777835605
-3.9585,0.4942419042252961,-0.570128516188728
-3.958,0.5262524287983441,-0.6866915386455698
-3.9575,0.4942419042252961,-0.7714646458869092
-3.957,0.5902734779444399,-0.9410108603695881
-3.9565,0.7183155762366316,-0.9833974139902578
-3.956,0.6329541773751706,-0.7608680074817418
-3.9555,0.4942419042252961,-0.4853554089473885
-3.955,0.3768699807907871,-0.252229364033705
-3.9545,0.3128489316446912,-0.02969995752518888
-3.954,0.6329541773751706,0.5319218779486851
-3.9535,1.166462920259302,0.8604176685088755
-3.953,0.7396559259519968,0.2352160026039969
-3.9525,-0.1459685872356623,-0.4959520473525559
-3.952,-1.010252750707956,-1.046977244421262
-3.9515,-1.191645723288561,-0.9304142219644207
-3.951,-0.8502001278427167,-0.2628260024388724
-3.9505,-0.423393133535411,0.4471487707073456
-3.95,-0.08194753808956648,1.00877060618122
-3.9495,0.1314559590640864,1.358459673551745
-3.949,0.2274875327832301,1.549199164844759
-3.9485,0.2488278824985954,1.612778995275763
-3.948,0.2381577076409128,1.591585718465428
-3.9475,0.2061471830678648,1.538602526439591
-3.947,0.1741366584948169,1.443232780793084
-3.9465,0.1527963087794516,1.273686566310405
-3.946,0.03542438534494258,1.146526905448396
-3.9455,-0.5621054066852853,0.7438546460520338
-3.945,-1.191645723288561,-0.1674562567923655
-3.9445,-1.458400094730627,-0.9728007755850904
-3.944,-1.319687821580753,-1.439052865412457
-3.9435,-0.807519428411986,-1.545019249464132
-3.943,-0.1673089369510276,-1.142346990067769
-3.9425,0.2808384070716433,-0.6972881770507372
-3.942,0.5155822539406614,-0.4535654937318862
-3.9415,0.5796033030867573,-0.4959520473525559
-3.941,0.5475927785137094,-0.5913217929990628
-3.9405,0.5475927785137094,-0.7502713690765743
-3.94,0.7823366253827275,-0.9516074987747555
-3.9395,0.7609962756673623,-0.8138511995075789
-3.939,0.5902734779444399,-0.5171453241628908
-3.9385,0.4195506802215176,-0.252229364033705
-3.938,0.3021787567870086,-0.06148987274069118
-3.9375,0.3982103305061524,0.2670059178194992
-3.937,0.8997085488172365,0.8180311148882058
-3.9365,0.5902734779444399,0.457745409112513
-3.936,-0.274010685527854,-0.3475991096802118
-3.9355,-1.042263275281004,-0.9516074987747555
-3.935,-1.084943974711735,-0.7714646458869092
-3.9345,-0.7328282044082075,-0.1038764263613609
-3.934,-0.3273615598162672,0.5743084315693548
-3.9335,-0.02859666380115328,1.104140351827727
-3.933,0.1527963087794516,1.443232780793084
-3.9325,0.2274875327832301,1.633972272086098
-3.932,0.2488278824985954,1.70814874092227
-3.9315,0.2381577076409128,1.70814874092227
-3.931,0.2168173579255475,1.6657621873016
-3.9305,0.1848068333524996,1.580989080060261
-3.93,0.142126133921769,1.464426057603419
-3.9295,0.09944543449103843,1.273686566310405
-3.929,-0.3380317346739499,0.6484849004055269
-3.9285,-0.9248913518464952,-0.3052125560595421
-3.928,-1.255666772434657,-1.142346990067769
-3.9275,-1.490410619303675,-1.820531847998485
-3.927,-1.51175096901904,-2.043061254507001
-3.9265,-0.8715404775580819,-1.417859588602123
-3.926,-0.2099896363817582,-0.8986243067489184
-3.9255,0.2381577076409128,-0.6231117082145651
-3.925,0.4729015545099309,-0.5383386009732256
-3.9245,0.5582629533713921,-0.6549016234300674
-3.924,0.5475927785137094,-0.792657922697244
-3.9235,0.7183155762366316,-1.01518732920576
-3.923,0.7503261008096795,-1.004590690800593
-3.9225,0.6116138276598051,-0.792657922697244
-3.922,0.4408910299368829,-0.5277419625680583
-3.9215,0.3341892813600565,-0.2946159176543747
-3.921,0.3448594562177392,0.01268659609548085
-3.9205,0.8036769750980928,0.6484849004055269
-3.92,0.6969752265212663,0.5319218779486851
-3.9195,-0.1032878878049318,-0.1886495336027004
-3.919,-0.9355615267041777,-0.792657922697244
-3.9185,-1.351698346153801,-1.01518732920576
-3.918,-1.074273799854052,-0.5277419625680583
-3.9175,-0.6047861061160158,0.1822328105781598
-3.917,-0.1993194615240755,0.8074344764830383
-3.9165,0.0674349099179905,1.241896651094903
-3.916,0.2061471830678648,1.506812611224089
-3.9155,0.2488278824985954,1.623375633680931
-3.915,0.2594980573562781,1.644568910491266
-3.9145,0.2274875327832301,1.612778995275763
-3.914,0.1741366584948169,1.528005888034424
-3.9135,0.1314559590640864,1.400846227172415
-3.913,0.1101156093487211,1.210106735879401
-3.9125,0.01408403562957729,0.8392243916985406
-3.912,-0.2313299860971235,0.309392471440169
-3.9115,-0.5300948821122373,-0.400582301706049
-3.911,-0.9142211769888124,-1.142346990067769
-3.9105,-1.180975548430879,-1.650985633515806
-3.91,-0.7755089038389382,-1.449649503817625
-3.9095,-0.2526703358124887,-0.9198175835592532
-3.909,0.1741366584948169,-0.5595318777835605
-3.9085,0.3982103305061524,-0.4535654937318862
-3.908,0.4729015545099309,-0.5277419625680583
-3.9075,0.4729015545099309,-0.6549016234300674
-3.907,0.5902734779444399,-0.8562377531282487
-3.9065,0.7503261008096795,-0.9728007755850904
-3.906,0.6756348768059011,-0.8138511995075789
-3.9055,0.5155822539406614,-0.5595318777835605
-3.905,0.3768699807907871,-0.3052125560595421
-3.9045,0.291508581929326,-0.05089323433552374
-3.904,0.5902734779444399,0.4895353243280153
-3.9035,0.974399772821015,0.8286277532933731
-3.903,0.4835717293676135,0.2458126410091644
-3.9025,-0.2953510352432193,-0.4111789401112165
-3.902,-0.9995825758502737,-0.8562377531282487
-3.9015,-1.020922925565639,-0.6019184314042303
-3.901,-0.6688071552621118,0.06566978812131802
-3.9005,-0.2846808603855366,0.7120647308365314
-3.9,-0.007256314085787988,1.199510097474233
-3.8995,0.1527963087794516,1.506812611224089
-3.899,0.2274875327832301,1.6657621873016
-3.8985,0.2488278824985954,1.718745379327438
-3.898,0.2274875327832301,1.676358825706768
-3.8975,0.2061471830678648,1.602182356870596
-3.897,0.1741366584948169,1.506812611224089
-3.8965,0.142126133921769,1.305476481525908
-3.896,0.05676473506030786,0.9557874141553824
-3.8955,-0.3380317346739499,0.2246193641988295
-3.895,-0.7968492535543035,-0.6443049850249
-3.8945,-1.095614149569417,-1.290699927740113
-3.894,-1.1062843244271,-1.502632695843462
-3.8935,-0.722158029550525,-1.280103289334946
-3.893,-0.2313299860971235,-0.9516074987747555
-3.8925,0.1634664836371343,-0.6866915386455698
-3.892,0.3982103305061524,-0.5913217929990628
-3.8915,0.4942419042252961,-0.6125150698093976
-3.891,0.4942419042252961,-0.7078848154559045
-3.8905,0.5049120790829789,-0.8244478379127463
-3.89,0.6222840025174878,-0.8986243067489184
-3.8895,0.5582629533713921,-0.7714646458869092
-3.889,0.4515612047945656,-0.5807251545938954
-3.8885,0.3341892813600565,-0.3581957480853793
-3.888,0.2701682322139607,-0.1250697031716958
-3.8875,0.4729015545099309,0.3199891098453364
-3.887,0.825017324813458,0.775644561267536
-3.8865,0.291508581929326,0.2776025562246667
-3.886,-0.5514352318276028,-0.5065486857577234
