Class_11_Cell_phone_Call/Class_11_Cell_phone_Call_SH_13.csv

#Digilent WaveForms Oscilloscope Acquisition
#Device Name: EExplorer
#Serial Number: SN:210151A2B84A
#Date Time: 2021-02-03 13:56:43.923
#Sample rate: 2000Hz
#Samples: 16384
#Trigger: Source: Channel 1 Type: Edge Condition: Rising Level: 0 V Hyst.: Auto HoldOff: 0 s
#Channel 1: Range: 1 V/div Offset: 0 V Attenuation: 1 X
#Channel 2: Range: 1 V/div Offset: 0 V Attenuation: 1 X
#Power Supplies: ON
#Fixed Supply: ON
#Voltage: 3.3 V Readback: 3.338 V
#Positive Supply: ON
#Voltage: 3.7 V Readback: 3.707 V
#Current: 40 mA Readback: 18 mA
#Negative Supply: ON
#Voltage: -3.7 V Readback: -3.348 V
#Current: -40 mA Readback: -8 mA
#Reference 1: ON
#Voltage: 0 V
#Reference 2: ON
#Voltage: 0 V

Time (s),Channel 1 (V),Channel 2 (V)
-4.096,-0.2633405106701714,1.814115124973944
-4.0955,-0.9462317015612394,1.432636142388264
-4.095,-1.319687821581015,0.2987958330342498
-4.0945,-1.607782542738184,-0.5277419625680583
-4.094,-1.383708870727053,-0.6337083466196362
-4.0935,-0.7968492535537794,-0.601918431404211
-4.093,-0.2206598112394408,-0.5807251545938954
-4.0925,0.2488278824981684,-0.6125150698093688
-4.092,0.5475927785138549,-0.6972881770508529
-4.0915,0.707645401378949,-0.8244478379127463
-4.091,0.7289857510943143,-0.9939940523954253
-4.0905,0.6863050516636129,-1.025783967610687
-4.09,0.7183155762366316,-0.7608680074817418
-4.0895,0.7183155762366316,-0.5383386009732256
-4.089,0.8143471499556879,-0.5277419625680679
-4.0885,0.9957401225363802,-0.6654982618352349
-4.088,1.006410297394063,-1.078767159636765
-4.0875,0.2915085819299761,-1.523825972653392
-4.087,-0.4340633083936759,-1.735758740757126
-4.0865,-1.074273799854052,-1.714565463946811
-4.086,-1.703814116456755,-1.598002441490075
-4.0855,-1.970568487898821,-1.343683119765314
-4.085,-1.341028171296118,-0.6443049850249
-4.0845,-0.5621054066859937,0.2246193641980393
-4.084,0.02475421048758989,0.9134008605350982
-4.0835,0.3875401556484697,1.33726639674141
-4.083,0.5582629533713921,1.528005888034424
-4.0825,0.6116138276598148,1.570392441655074
-4.082,0.6222840025174878,1.549199164844759
-4.0815,0.6009436528021226,1.559795803249926
-4.081,0.5689331282291037,1.559795803249926
-4.0805,0.5262524287983441,1.528005888034424
-4.08,0.4622313796522482,1.528005888034424
-4.0795,-0.01792648894303395,1.686955464111791
-4.079,-0.7861790786972516,1.432636142386953
-4.0785,-1.479740444445993,0.3729723018711736
-4.078,-2.002579012471966,-0.5913217929981859
-4.0775,-1.991908837614187,-0.6654982618351192
-4.077,-1.362368521011484,-0.5383386009732256
-4.0765,-0.5514352318283403,-0.4959520473525945
-4.076,0.1421261339221766,-0.5807251545940689
-4.0755,0.5902734779444399,-0.7714646458869092
-4.075,0.8143471499557753,-0.9092209451540858
-4.0745,0.8783681991017644,-0.9833974139903542
-4.074,0.7609962756673623,-1.089363798041932
-4.0735,0.707645401378949,-1.01518732920576
-4.073,0.7609962756673138,-0.866834391533551
-4.0725,0.8143471499557753,-0.6866915386455698
-4.072,0.8783681991018712,-0.5277419625680583
-4.0715,0.8783681991018712,-0.2310360872236399
-4.071,0.8143471499551154,0.2987958330347895
-4.0705,0.08877525963335578,0.06566978812131802
-4.07,-0.796849253553498,-0.5913217929984653
-4.0695,-1.543761493592535,-1.099960436447331
-4.069,-2.03458953704549,-1.354279758171118
-4.0685,-1.703814116457328,-1.046977244421262
-4.068,-0.8608703026997782,-0.2416327256278051
-4.0675,-0.1779791118087102,0.5637117931641874
-4.067,0.2808384070716433,1.146526905448396
-4.0665,0.5155822539407487,1.485619334413889
-4.066,0.6116138276598051,1.633972272086098
-4.0655,0.6222840025174878,1.6657621873016
-4.065,0.6116138276598148,1.686955464111916
-4.0645,0.5902734779444399,1.686955464111935
-4.064,0.5475927785137094,1.655165548896433
-4.0635,0.5049120790830177,1.644568910491275
-4.063,0.238157707640282,1.697552102517055
-4.0625,-0.4554036581084589,1.644568910491266
-4.062,-1.159635198714873,0.7226613692425373
-4.0615,-1.799845690176637,-0.4005823017064056
-4.061,-1.981238662757077,-0.792657922697244
-4.0605,-1.351698346153801,-0.7396747306714069
-4.06,-0.5514352318270205,-0.6231117082145554
-4.0595,0.08877525963335578,-0.6125150698093976
-4.059,0.5049120790829789,-0.6972881770507372
-4.0585,0.7183155762364375,-0.8986243067487353
-4.058,0.8143471499557753,-1.0999604364471
-4.0575,0.8143471499557753,-1.184733543688439
-4.057,0.8356874996711213,-1.004590690800756
-4.0565,1.017080472251745,-0.6866915386455698
-4.056,1.19847344483235,-0.2946159176543747
-4.0555,1.209143619690023,-0.2628260024389013
-4.055,1.091771696255398,-0.2098428104126304
-4.0545,0.9530594231056497,0.2352160026039969
-4.054,0.2594980573569089,0.2776025562246281
-4.0535,-0.658136980405118,-0.3581957480858323
-4.053,-1.415719395299897,-0.8562377531282487
-4.0525,-2.002579012472442,-1.227120097309109
-4.052,-1.938557963325628,-1.248313374118865
-4.0515,-1.148965023857831,-0.6125150698093976
-4.051,-0.391382608962363,0.1928294489833272
-4.0505,0.1527963087789567,0.8498210301031105
-4.05,0.4622313796522482,1.284283204715573
-4.0495,0.5902734779444399,1.506812611224089
-4.049,0.6222840025174587,1.602182356870509
-4.0485,0.6222840025174587,1.676358825706864
-4.048,0.5902734779444399,1.782325209758442
-4.0475,0.5582629533714212,1.7929218481636
-4.047,0.5155822539405255,1.792921848163648
-4.0465,0.3661998059331045,1.835308401784279
-4.046,-0.2526703358119258,1.909484870620384
-4.0455,-0.9995825758507103,1.220703374283518
-4.045,-1.479740444445993,0.06566978812131802
-4.0445,-1.394379045584531,-0.5913217929990628
-4.044,-0.9035510021305961,-0.7396747306714069
-4.0435,-0.3166913849585846,-0.7396747306714069
-4.043,0.1954770082101822,-0.7502713690765743
-4.0425,0.5369226036557161,-0.8244478379126788
-4.042,0.7183155762366316,-0.9304142219644207
-4.0415,0.8143471499557753,-1.068170521231597
-4.041,0.8143471499557753,-1.046977244421282
-4.0405,0.8143471499557947,-1.036380606016008
-4.04,0.8356874996711408,-0.9410108603695881
-4.0395,0.8570278493864866,-0.7926579226973789
-4.039,0.8143471499557171,-0.5595318777833196
-4.0385,0.7503261008096795,-0.2946159176543747
-4.038,0.8463576745287359,0.1398462569570949
-4.0375,0.7503261008089517,0.5107286011378779
-4.037,-0.04993701351651855,-0.008506680714854012
-4.0365,-0.9035510021311299,-0.7714646458869092
-4.036,-1.650463242169196,-1.311893204550612
-4.0355,-1.959898313041711,-1.492036057438295
-4.035,-1.319687821580753,-0.9198175835592532
-4.0345,-0.5514352318283016,-0.08268314955178746
-4.034,0.03542438534494258,0.6378882620003594
-4.0335,0.3875401556484697,1.114736990232894
-4.033,0.5689331282289096,1.369056311956681
-4.0325,0.6116138276597954,1.464426057603468
-4.032,0.6009436528021226,1.517409249629256
-4.0315,0.5689331282291037,1.506812611224098
-4.031,0.5475927785136803,1.485619334413792
-4.0305,0.5155822539406614,1.528005888034424
-4.03,0.4515612047946238,1.64456891049116
-4.0295,0.003413860771215338,1.814115124973655
-4.029,-0.7434983792658902,1.496215972818921
-4.0285,-1.405049220442214,0.3729723018711736
-4.028,-1.959898313041653,-0.6231117082147096
-4.0275,-1.895877263895616,-0.7820612842920766
-4.027,-1.127624674142465,-0.6654982618352349
-4.0265,-0.3700422592476869,-0.6019184314042881
-4.026,0.1848068333524996,-0.6443049850249
-4.0255,0.5155822539406614,-0.7502713690765743
-4.025,0.6863050516634286,-0.8456411147229945
-4.0245,0.7396559259518998,-0.9939940523956277
-4.024,0.6329541773751706,-1.216523458903942
-4.0235,0.6116138276598245,-1.110557074852363
-4.023,0.739655925952055,-0.9410108603693376
-4.0225,0.8036769750980928,-0.6654982618352349
-4.022,0.8143471499557656,-0.4111789401114478
-4.0215,0.8463576745287651,-0.1038764263608983
-4.021,0.7823366253827275,0.4047622170866759
-4.0205,0.04609456020262521,0.13984625695749
-4.02,-0.8075194284126168,-0.5595318777840423
-4.0195,-1.501080794161358,-1.089363798041932
-4.019,-2.013249187330125,-1.460246142222792
-4.0185,-1.767835165603647,-1.322489842955741
-4.018,-0.9355615267041777,-0.5913217929990628
-4.0175,-0.2420001609548061,0.1716361721729923
-4.017,0.2381577076404761,0.7544512844566711
-4.0165,0.5049120790830662,1.114736990233039
-4.016,0.6009436528021226,1.273686566310405
-4.0155,0.6222840025174684,1.34786303514651
-4.015,0.6009436528020935,1.390249588767295
-4.0145,0.5689331282290746,1.443232780793084
-4.014,0.5369226036560557,1.4644260576034
-4.0135,0.4942419042250147,1.528005888034501
-4.013,0.1848068333524996,1.612778995275763
-4.0125,-0.5300948821122373,1.475022696008586
-4.012,-1.255666772435055,0.5001319627322576
-4.0115,-1.693143941599645,-0.5171453241628908
-4.011,-1.629122892453549,-0.9516074987747555
-4.0105,-1.074273799854557,-0.9622041371799133
-4.01,-0.423393133535411,-0.8138511995075789
-4.0095,0.1634664836371343,-0.7290780922662394
-4.009,0.5369226036556869,-0.7290780922662394
-4.0085,0.7396559259520648,-0.7608680074818478
-4.008,0.8143471499557753,-0.8774310299385835
-4.0075,0.7716664505250836,-1.046977244421108
-4.007,0.8676980242444409,-0.9622041371797494
-4.0065,1.145122570543937,-0.7714646458869092
-4.006,1.19847344483235,-0.5595318777835605
-4.0055,1.091771696255398,-0.3793890248955214
-4.005,0.9530594231056497,-0.1674562567923655
-4.0045,0.9850699476786977,0.3199891098453364
-4.004,0.4408910299360387,0.4365521323015902
-4.0035,-0.4874141826815069,-0.2098428104130352
-4.003,-1.330357996438436,-0.9304142219644207
-4.0025,-1.970568487898812,-1.407262950196521
-4.002,-1.821186039891837,-1.322489842955616
-4.0015,-0.9995825758502737,-0.5913217929990628
-4.001,-0.2846808603861868,0.2246193641980874
-4.0005,0.2061471830681172,0.8498210301040646
-4,0.4835717293676135,1.241896651094903
-3.9995,0.6009436528021226,1.432636142387917
-3.999,0.6222840025174878,1.496215972818921
-3.9985,0.6116138276598051,1.538602526439591
-3.998,0.5475927785137094,1.591585718465428
-3.9975,0.4835717293676135,1.591585718465428
-3.997,0.4515612047945656,1.602182356870596
-3.9965,0.3235191065023739,1.655165548896433
-3.996,-0.2633405106701714,1.676358825706768
-3.9955,-0.9995825758502737,0.8604176685088755
-3.995,-1.650463242168915,-0.2946159176543747
-3.9945,-2.045259711903173,-0.9304142219644207
-3.994,-1.778505340461106,-0.8244478379127463
-3.9935,-1.010252750707956,-0.6760949002404023
-3.993,-0.2420001609548061,-0.6125150698093976
-3.9925,0.3128489316446912,-0.6972881770507372
-3.992,0.6329541773751706,-0.8562377531282487
-3.9915,0.7716664505250448,-0.9728007755850904
-3.991,0.7183155762366316,-1.0999604364471
-3.9905,0.5155822539406614,-1.174136905283272
-3.99,0.4835717293676135,-0.9939940523954253
-3.9895,0.5155822539406614,-0.718481453861072
-3.989,0.5582629533713921,-0.4535654937318862
-3.9885,0.6116138276598051,-0.1992461720078678
-3.988,0.7289857510943143,0.2246193641988295
-3.9875,0.5369226036560266,0.55311515475902
-3.987,-0.2633405106701714,-0.008506680714854012
-3.9865,-0.9889124009925911,-0.6972881770507372
-3.986,-1.607782542738184,-1.184733543688439
-3.9855,-1.885207089037933,-1.375473034981453
-3.985,-1.255666772434657,-0.8668343915334161
-3.9845,-0.5194247072545548,-0.08268314955102604
-3.984,0.04609456020262521,0.5955017083796896
-3.9835,0.3982103305061524,1.051157159801889
-3.983,0.5689331282290746,1.29487984312074
-3.9825,0.6116138276598051,1.37965295036208
-3.982,0.6116138276598051,1.390249588767247
-3.9815,0.5902734779444399,1.400846227172415
-3.981,0.5689331282290746,1.411442865577582
-3.9805,0.5369226036560266,1.42203950398275
-3.98,0.4622313796522482,1.464426057603419
-3.9795,0.01408403562957729,1.612778995275763
-3.979,-0.722158029550525,1.316073119931075
-3.9785,-1.373038695869166,0.2564092794143318
-3.978,-1.639793067311232,-0.5807251545938954
-3.9775,-1.330357996438436,-0.792657922697244
-3.977,-0.7114878546928423,-0.792657922697244
-3.9765,-0.08194753808956648,-0.8244478379127463
-3.976,0.4302208550792003,-0.9622041371799229
-3.9755,0.707645401378949,-1.036380606016095
-3.975,0.8143471499557753,-0.9516074987747555
-3.9745,0.79300680024041,-0.9622041371799229
-3.974,0.6222840025174878,-1.0999604364471
-3.9735,0.6329541773751706,-1.025783967610927
-3.973,0.8356874996711408,-0.9833974139902578
-3.9725,0.9317190733902845,-0.7714646458869092
-3.972,0.9637295979633325,-0.5065486857577234
-3.9715,0.9210488985326017,-0.1886495336027004
-3.971,0.8463576745288233,0.2352160026039969
-3.9705,0.1314559590640864,-0.02969995752518888
-3.97,-0.7008176798351597,-0.6760949002404023
-3.9695,-1.362368521011484,-1.163540266878104
-3.969,-1.885207089037933,-1.460246142222792
-3.9685,-1.565101843307454,-1.195330182093607
-3.968,-0.7968492535543035,-0.4429688553267188
-3.9675,-0.1459685872356623,0.2987958330350016
-3.967,0.2808384070716433,0.8286277532933731
-3.9665,0.5155822539406614,1.125333628638062
-3.966,0.6009436528021226,1.25249328950007
-3.9655,0.6116138276598051,1.273686566310405
-3.965,0.6009436528021226,1.273686566310405
-3.9645,0.5796033030867573,1.305476481525908
-3.964,0.5475927785137094,1.358459673551745
-3.9635,0.4942419042252961,1.443232780793084
-3.963,0.1954770082101822,1.591585718465428
-3.9625,-0.5407650569699201,1.443232780793084
-3.962,-1.277007122150022,0.4471487707073456
-3.9615,-1.778505340461106,-0.5277419625680583
-3.961,-1.735824641030376,-0.8562377531282487
-3.9605,-1.127624674142465,-0.7608680074817418
-3.96,-0.4340633083930936,-0.6019184314042303
-3.9595,0.09944543449103843,-0.5383386009732256
-3.959,0.4729015545099309,-0.5913217929990628
-3.9585,0.6863050516635838,-0.7608680074817418
-3.958,0.7716664505250448,-0.9516074987747555
-3.9575,0.5902734779444399,-1.216523458903942
-3.957,0.4942419042252961,-1.174136905283272
-3.9565,0.6009436528021226,-0.8774310299385835
-3.956,0.7289857510943143,-0.570128516188728
-3.9555,0.79300680024041,-0.3052125560595421
-3.955,0.8036769750980928,-0.07208651114585861
-3.9545,0.8676980242441885,0.3729723018711736
-3.954,0.3235191065023739,0.383568940276341
-3.9535,-0.5621054066852853,-0.3158091944647096
-3.953,-1.362368521011484,-1.036380606016095
-3.9525,-1.981238662757077,-1.51322933424863
-3.952,-1.906547438753298,-1.502632695843462
-3.9515,-1.116954499284783,-0.7820612842920766
-3.951,-0.3700422592469978,0.04447651131098315
-3.9505,0.1634664836371343,0.6908714540261965
-3.95,0.4622313796522482,1.093543713422559
-3.9495,0.5902734779444399,1.29487984312074
-3.949,0.6222840025174878,1.369056311956912
-3.9485,0.6116138276598051,1.42203950398275
-3.948,0.5796033030867573,1.42203950398275
-3.9475,0.5582629533713921,1.390249588767247
-3.947,0.5155822539406614,1.432636142387917
-3.9465,0.3875401556484697,1.528005888034424
-3.946,-0.2099896363817582,1.644568910491266
-3.9455,-0.9355615267041777,0.9451907757502149
-3.945,-1.479740444445993,-0.1780528951975329
-3.9445,-1.51175096901904,-0.8986243067489184
-3.944,-0.9569018764195432,-1.01518732920576
-3.9435,-0.3807124341046804,-0.8774310299385835
-3.943,0.09944543449103843,-0.7714646458869092
-3.9425,0.408880505363835,-0.7608680074817418
-3.942,0.6009436528021226,-0.8668343915334161
-3.9415,0.6969752265212663,-0.9304142219644207
-3.941,0.707645401378949,-1.036380606016095
-3.9405,0.7503261008096795,-1.0999604364471
-3.94,0.8463576745288233,-0.9410108603695881
-3.9395,0.9530594231056497,-0.6866915386455698
-3.939,0.8997085488172365,-0.4323722169215513
-3.9385,0.825017324813458,-0.2098428104130352
-3.938,0.8676980242441885,0.1822328105781598
-3.9375,0.5689331282290746,0.4683420475176805
-3.937,-0.2846808603855366,-0.09327978795619347
-3.9365,-1.020922925565639,-0.7290780922662394
-3.936,-1.639793067311232,-1.184733543688439
-3.9355,-1.981238662757077,-1.407262950196955
-3.935,-1.426389570157579,-0.9833974139902578
-3.9345,-0.6367966306890638,-0.1886495336027004
-3.934,-0.02859666380115328,0.5213252395435176
-3.9335,0.3555296310754218,1.019367244586387
-3.933,0.5475927785137094,1.284283204715573
-3.9325,0.6116138276598051,1.400846227172415
-3.932,0.6116138276598051,1.42203950398275
-3.9315,0.6009436528021226,1.453829419198252
-3.931,0.5796033030867573,1.517409249629256
-3.9305,0.5369226036560266,1.633972272086098
-3.93,0.4408910299368829,1.718745379327438
-3.9295,0.00341386077189465,1.803518486568777
-3.929,-0.7434983792658902,1.42203950398275
-3.9285,-1.426389570157579,0.309392471440169
-3.928,-1.863866739322568,-0.6125150698093976
-3.9275,-1.543761493592088,-0.8668343915334161
-3.927,-0.8288597781273515,-0.7820612842920766
-3.9265,-0.1993194615240755,-0.6654982618352349
-3.926,0.3021787567870086,-0.6972881770507372
-3.9255,0.6222840025174878,-0.8138511995075789
-3.925,0.7823366253827275,-0.9516074987747555
-3.9245,0.79300680024041,-0.9939940523954253
-3.924,0.6756348768059011,-1.025783967610927
-3.9235,0.9210488985326017,-1.025783967610927
-3.923,1.017080472251745,-0.8880276683437509
-3.9225,0.9210488985326017,-0.5913217929990628
-3.922,0.8143471499557753,-0.2840192792492073
-3.9215,0.7823366253827275,0.04447651131098315
-3.921,0.7823366253827275,0.5637117931641874
-3.9205,0.09944543449103843,0.2776025562246667
-3.92,-0.754168554123573,-0.4853554089473885
-3.9195,-1.522421143876723,-1.152943628472937
-3.919,-2.023919362187807,-1.534422611058964
-3.9185,-1.639793067311232,-1.237716735714276
-3.918,-0.8181896032696687,-0.4535654937318862
-3.9175,-0.1459685872356623,0.3199891098453364
-3.917,0.291508581929326,0.8816109453192104
-3.9165,0.5262524287983441,1.199510097474233
-3.916,0.6116138276598051,1.33726639674141
-3.9155,0.6222840025174878,1.37965295036208
-3.915,0.6009436528021226,1.400846227172415
-3.9145,0.5796033030867573,1.411442865577582
-3.914,0.5475927785137094,1.432636142387917
-3.9135,0.5049120790829789,1.506812611224089
-3.913,0.2061471830678648,1.655165548896433
-3.9125,-0.5194247072545548,1.644568910491266
-3.912,-1.180975548430879,0.7332580076468663
-3.9115,-1.629122892453549,-0.3158091944647096
-3.911,-1.501080794161358,-0.7714646458869092
-3.9105,-0.9142211769888124,-0.8138511995075789
-3.91,-0.2633405106701714,-0.8032545611024114
-3.9095,0.2381577076409128,-0.7714646458869092
-3.909,0.5582629533713921,-0.7820612842920766
-3.9085,0.7396559259519968,-0.8138511995075789
-3.908,0.825017324813458,-0.8774310299385835
-3.9075,0.8356874996711408,-0.9939940523954253
-3.907,0.857027849386506,-1.004590690800593
-3.9065,0.8463576745288233,-0.8774310299385835
-3.906,0.7823366253827275,-0.6760949002404023
-3.9055,0.7289857510943143,-0.4535654937318862
-3.905,0.7289857510943143,-0.2098428104130352
-3.9045,0.8997085488172365,0.2987958330350016
-3.904,0.4515612047945656,0.3411823866556712
-3.9035,-0.4127229586777283,-0.326405832869877
-3.903,-1.074273799854052,-0.8880276683437509
-3.9025,-1.661133417026597,-1.269506650929778
-3.902,-1.906547438753298,-1.354279758171118
-3.9015,-1.255666772434657,-0.792657922697244
-3.901,-0.5087545323968721,0.03387987290581572
-3.9005,0.05676473506030786,0.7226613692416989
-3.9,0.3982103305061524,1.178316820663898
-3.8995,0.5689331282290746,1.42203950398275
-3.899,0.6116138276598051,1.506812611224089
-3.8985,0.6009436528021226,1.506812611224089
-3.898,0.5582629533713921,1.538602526439591
-3.8975,0.4942419042252961,1.559795803249926
-3.897,0.4515612047945656,1.549199164844759
-3.8965,0.3341892813600565,1.602182356870596
-3.896,-0.1993194615240755,1.464426057603419
-3.8955,-0.839529952985034,0.5319218779486851
-3.895,-1.373038695869166,-0.5489352393783931
-3.8945,-1.501080794161358,-1.142346990067769
-3.894,-1.010252750707956,-1.110557074852267
-3.8935,-0.3593720843893152,-0.9092209451540858
-3.893,0.1954770082101822,-0.8456411147230812
-3.8925,0.5582629533713921,-0.8032545611024114
-3.892,0.7289857510943143,-0.8456411147230812
-3.8915,0.8143471499557753,-1.01518732920576
-3.891,0.8783681991018712,-1.184733543688439
-3.8905,0.9850699476786977,-1.216523458903942
-3.89,1.006410297394063,-1.004590690800593
-3.8895,0.9850699476786977,-0.7290780922662394
-3.889,0.8890383739595538,-0.4641621321370536
-3.8885,0.8036769750980928,-0.252229364033705
-3.888,0.7289857510943143,-0.2310360872233701
-3.8875,0.408880505363835,-0.3687923864905467
-3.887,-0.3807124341046804,-0.8880276683437509
-3.8865,-1.159635198715513,-1.364876396576285
-3.886,-1.853196564464885,-1.640388995110639
-3.8855,-2.045259711903173,-1.608599079895136
