Class_11_Cell_phone_Call/Class_11_Cell_phone_Call_Souku_4.csv

#Digilent WaveForms Oscilloscope Acquisition
#Device Name: EExplorer
#Serial Number: SN:210151A2B84A
#Date Time: 2021-01-24 14:38:44.125
#Sample rate: 2000Hz
#Samples: 16384
#Trigger: Source: Channel 1 Type: Edge Condition: Rising Level: 0 V Hyst.: Auto HoldOff: 0 s
#Channel 1: Range: 1 V/div Offset: 0 V Attenuation: 1 X
#Channel 2: Range: 1 V/div Offset: 0 V Attenuation: 1 X
#Power Supplies: ON
#Fixed Supply: ON
#Voltage: 3.3 V Readback: 3.331 V
#Positive Supply: ON
#Voltage: 3.7 V Readback: 3.703 V
#Current: 40 mA Readback: 12 mA
#Negative Supply: ON
#Voltage: -3.7 V Readback: -3.334 V
#Current: -40 mA Readback: -6 mA
#Reference 1: ON
#Voltage: 0 V
#Reference 2: ON
#Voltage: 0 V

Time (s),Channel 1 (V),Channel 2 (V)
-4.096,0.4195506802215176,0.2564092794143318
-4.0955,0.05676473506063784,0.1080563417421227
-4.095,-0.4767440078242707,-0.47475877054278
-4.0945,-0.9675720512772257,-1.089363798041932
-4.094,-1.319687821580433,-1.481439419032771
-4.0935,-1.106284324426663,-1.131750351662004
-4.093,-0.6261264558313813,-0.474758770542221
-4.0925,-0.1886492866667908,0.1186529801466155
-4.092,0.099445434491184,0.52132523954372
-4.0915,0.2594980573562781,0.7438546460520338
-4.091,0.3235191065023739,0.8392243916985406
-4.0905,0.3341892813600371,0.8498210301036887
-4.09,0.3128489316446912,0.8286277532933731
-4.0895,0.291508581929326,0.7862411996727035
-4.089,0.2701682322139801,0.7226613692417567
-4.0885,0.2274875327832301,0.6484849004055269
-4.088,0.1954770082101822,0.5637117931641874
-4.0875,-0.01792648894327653,0.3093924714404003
-4.087,-0.6047861061164816,-0.3793890248963598
-4.0865,-1.116954499284783,-1.089363798041932
-4.086,-1.415719395299625,-1.38606967338635
-4.0855,-1.010252750707423,-0.9410108603692412
-4.085,-0.423393133535411,-0.5595318777835605
-4.0845,0.05676473505987117,-0.3158091944649312
-4.084,0.3555296310755285,-0.1356663415767572
-4.0835,0.4729015545099309,-0.01910331912002144
-4.083,0.5049120790829789,0.07626642652648545
-4.0825,0.4729015545100085,0.09745970333690705
-4.082,0.5582629533713921,0.1928294489833272
-4.0815,0.6649647019482183,0.3305857482505039
-4.081,0.6222840025175267,0.3305857482505039
-4.0805,0.5155822539406614,0.2987958330350016
-4.08,0.4195506802215176,0.2881991946298341
-4.0795,0.366199805933153,0.3093924714401497
-4.079,0.6116138276601932,0.2564092794138692
-4.0785,1.038420821967111,-0.252229364033705
-4.078,0.675634876806231,-0.9198175835586461
-4.0775,-0.103287887805252,-1.386069673386389
-4.077,-0.4554036581084589,-1.131750351662602
-4.0765,-0.3807124341047484,-0.4641621321376608
-4.076,-0.1566387620931606,0.1504428953630526
-4.0755,0.04609456020262521,0.5849050699745222
-4.075,0.1848068333524996,0.8286277532933731
-4.0745,0.2594980573563072,0.9345941373450571
-4.074,0.291508581929326,0.9451907757502149
-4.0735,0.291508581929326,0.9134008605347127
-4.073,0.280838407071653,0.8498210301037659
-4.0725,0.2594980573562781,0.775644561267536
-4.072,0.2381577076409128,0.6908714540261965
-4.0715,0.2274875327832398,0.5955017083797763
-4.071,0.08877525963283174,0.4047622170860879
-4.0705,-0.4874141826815069,-0.2416327256285375
-4.07,-1.127624674141883,-0.9728007755844253
-4.0695,-1.607782542738233,-1.566212526274534
-4.069,-1.661133417026597,-1.640388995110639
-4.0685,-1.084943974711735,-1.01518732920576
-4.068,-0.4660738329656854,-0.4111789401108599
-4.0675,0.03542438534494258,-0.01910331912002144
-4.067,0.3128489316446912,0.1292496185523226
-4.0665,0.4195506802215274,0.1398462569574515
-4.066,0.4302208550792003,0.09745970333682032
-4.0655,0.4622313796522482,0.07626642652648545
-4.065,0.6116138276596692,0.2246193641986945
-4.0645,0.6009436528021226,0.2352160026039969
-4.064,0.5155822539406614,0.2034260873884947
-4.0635,0.419550680221605,0.182232810578179
-4.063,0.3661998059331821,0.1928294489835489
-4.0625,0.4515612047945656,0.4365521323021782
-4.062,0.1527963087797234,0.4895353243279671
-4.0615,-0.5621054066858773,-0.1462629799827053
-4.061,-1.212986073003927,-0.8880276683437509
-4.0605,-1.437059745015262,-1.174136905283272
-4.06,-1.042263275280529,-0.7608680074811828
-4.0595,-0.5194247072545548,-0.1462629799820306
-4.059,-0.09261771294724913,0.3729723018711736
-4.0585,0.1634664836369014,0.712064730836223
-4.058,0.291508581929326,0.9028042221295453
-4.0575,0.3341892813600565,0.9875773293708847
-4.057,0.3341892813600565,0.9981739677760424
-4.0565,0.3021787567870086,0.9663840525605498
-4.056,0.2808384070716433,0.9134008605347127
-4.0555,0.2274875327832786,0.8180311148882925
-4.055,0.1954770082101531,0.7226613692416025
-4.0545,0.1634664836371343,0.6166949851900245
-4.054,0.04609456020273196,0.4153588554920264
-4.0535,-0.3273615598166069,-0.178052895198169
-4.053,-0.7008176798351597,-0.8774310299385835
-4.0525,-1.010252750707956,-1.089363798041932
-4.052,-0.8928808272730396,-0.8032545611020356
-4.0515,-0.4447334832507763,-0.3899856633008816
-4.051,-0.03926683865883591,-0.1038764263613609
-4.0505,0.2381577076406605,0.04447651131084823
-4.05,0.3875401556484697,0.08686306493165288
-4.0495,0.4302208550792003,0.03387987290581572
-4.049,0.4302208550792003,-0.02969995752513105
-4.0485,0.5582629533714212,0.07626642652654328
-4.048,0.5902734779444399,0.13984625695749
-4.0475,0.5155822539407293,0.13984625695749
-4.047,0.4302208550791615,0.150442895362696
-4.0465,0.3875401556484697,0.1928294489833272
-4.046,0.3768699807907968,0.2564092794142739
-4.0455,0.7076454013791529,0.1928294489828646
-4.045,0.9317190733902845,-0.3158091944647096
-4.0445,0.3235191065023739,-0.8880276683437509
-4.044,-0.4874141826816719,-1.216523458903604
-4.0435,-0.6688071552621118,-0.8456411147230812
-4.043,-0.4660738329661415,-0.1886495336027004
-4.0425,-0.1779791118089722,0.3941655786809784
-4.042,0.05676473506030786,0.7968378380778709
-4.0415,0.2061471830678648,1.00877060618122
-4.041,0.2808384070715754,1.082947075017324
-4.0405,0.3021787567870086,1.082947075017344
-4.04,0.3021787567870086,1.029963882991555
-4.0395,0.2915085819293357,0.945190775750292
-4.039,0.248827882498576,0.8392243916984345
-4.0385,0.2274875327832301,0.7226613692416989
-4.038,0.2061471830678842,0.5955017083798053
-4.0375,-0.03926683865930173,0.2352160026033512
-4.037,-0.5514352318276028,-0.474758770542221
-4.0365,-0.8181896032696687,-1.152943628472937
-4.036,-0.9995825758502057,-1.61919571830012
-4.0355,-0.9248913518464952,-1.417859588602123
-4.035,-0.5407650569699201,-0.8668343915334161
-4.0345,-0.1032878878053297,-0.4535654937322621
-4.034,0.1848068333524996,-0.1992461720078678
-4.0335,0.3341892813600565,-0.06148987274069118
-4.033,0.3982103305060942,0.002089957690255592
-4.0325,0.3982103305062882,-0.008506680714747998
-4.032,0.5475927785137094,0.1080563417419877
-4.0315,0.771666450524841,0.3411823866554592
-4.031,0.7396559259518803,0.3305857482504267
-4.0305,0.6116138276598051,0.2458126410091644
-4.03,0.472901554510057,0.1822328105782176
-4.0295,0.3768699807909424,0.1822328105781887
-4.029,0.5475927785137094,0.2140227257936621
-4.0285,0.707645401378949,-0.1886495336027004
-4.028,0.2061471830672729,-0.7820612842924524
-4.0275,-0.4447334832507763,-1.195330182093607
-4.027,-0.6261264558313813,-0.9622041371799229
-4.0265,-0.4340633083932683,-0.3581957480859287
-4.026,-0.1673089369510276,0.2352160026039969
-4.0255,0.05676473506030786,0.6590815388106942
-4.025,0.206147183067729,0.9028042221293235
-4.0245,0.2701682322139801,1.019367244586406
-4.024,0.291508581929326,1.040560521396722
-4.0235,0.291508581929326,1.019367244586406
-4.023,0.2701682322139413,0.9663840525604823
-4.0225,0.2488278824985954,0.8922075837243778
-4.022,0.2274875327832495,0.8074344764831154
-4.0215,0.2274875327831331,0.7120647308363676
-4.021,0.1207857842064037,0.5319218779486851
-4.0205,-0.391382608962363,-0.09327978795619347
-4.02,-0.9035510021313629,-0.8774310299391135
-4.0195,-1.159635198715513,-1.460246142222792
-4.019,-0.9889124009925911,-1.364876396576285
-4.0185,-0.4980843575396359,-0.7926579226977645
-4.018,-0.06060718837420119,-0.3052125560595421
-4.0175,0.2061471830678648,-0.01910331912002144
-4.017,0.344859456217613,0.07626642652639871
-4.0165,0.3875401556484794,0.1080563417419492
-4.016,0.3982103305061524,0.06566978812131802
-4.0155,0.4302208550791712,0.06566978812131802
-4.015,0.547592778513719,0.2140227257936717
-4.0145,0.5582629533713921,0.2246193641988295
-4.014,0.5262524287983732,0.1822328105781983
-4.0135,0.46223137965219,0.1610395337678249
-4.013,0.3982103305061524,0.1610395337678249
-4.0125,0.4729015545099309,0.002089957690313421
-4.012,0.7503261008092137,-0.5913217929996218
-4.0115,0.2381577076409128,-1.205926820498774
-4.011,-0.4767440078238243,-1.650985633515806
-4.0105,-0.9035510021307418,-1.555615887869386
-4.01,-0.754168554123573,-0.8350444763179138
-4.0095,-0.4020527838200457,-0.09327978795619347
-4.009,-0.08194753808985761,0.4577454091120119
-4.0085,0.1314559590641931,0.7862411996728383
-4.008,0.2488278824985954,0.9345941373450475
-4.0075,0.3021787567869601,0.9875773293708365
-4.007,0.3021787567869989,0.9663840525605016
-4.0065,0.291508581929326,0.9134008605347127
-4.006,0.2488278824985954,0.8286277532933731
-4.0055,0.2061471830678357,0.7438546460519471
-4.005,0.1741366584948169,0.6484849004055269
-4.0045,0.1634664836371343,0.5425185163538525
-4.004,-0.1459685872362155,0.1716361721723177
-4.0035,-0.754168554123573,-0.570128516188728
-4.003,-1.234326422719292,-1.248313374119443
-4.0025,-1.319687821580675,-1.449649503817442
-4.002,-0.9248913518464952,-1.025783967610927
-4.0015,-0.3593720843893152,-0.4959520473525559
-4.001,0.06743490991760231,-0.1144730647668753
-4.0005,0.2808384070717306,0.0444765113110217
-4,0.3768699807907871,0.08686306493165288
-3.9995,0.408880505363835,0.08686306493165288
-3.999,0.408880505363835,0.05507314971615059
-3.9985,0.5689331282290746,0.1928294489833272
-3.998,0.6436243522328531,0.2881991946298341
-3.9975,0.5689331282290746,0.2564092794143318
-3.997,0.4729015545099309,0.2140227257936621
-3.9965,0.3875401556484697,0.2034260873884947
-3.996,0.3555296310754218,0.2140227257936621
-3.9955,0.4408910299368829,0.07626642652648545
-3.995,0.1314559590640864,-0.4535654937318862
-3.9945,-0.5087545323968721,-1.036380606016095
-3.994,-1.020922925565639,-1.322489842955616
-3.9935,-0.9035510021311299,-0.8986243067489184
-3.993,-0.5300948821122373,-0.2628260024388724
-3.9925,-0.156638762093345,0.2881991946298341
-3.992,0.09944543449103843,0.6484849004055269
-3.9915,0.2381577076409128,0.849821030103708
-3.991,0.3021787567870086,0.92399749893988
-3.9905,0.3128489316446912,0.9345941373450475
-3.99,0.3021787567870086,0.9028042221295453
-3.9895,0.2701682322139607,0.849821030103708
-3.989,0.2274875327832301,0.7650479228623686
-3.9885,0.2061471830678648,0.6802748156210291
-3.988,0.1741366584948169,0.5955017083796896
-3.9875,-0.03926683865883591,0.2776025562246667
-3.987,-0.658136980404429,-0.4429688553267188
-3.9865,-1.084943974711735,-1.110557074852267
-3.986,-1.074273799854052,-1.216523458903942
-3.9855,-0.6474668055467465,-0.7820612842920766
-3.985,-0.1779791118087102,-0.3687923864905467
-3.9845,0.1101156093487211,-0.08268314955102604
-3.984,0.291508581929326,0.06566978812131802
-3.9835,0.3661998059331045,0.09745970333682032
-3.983,0.3875401556484697,0.07626642652648545
-3.9825,0.3661998059331045,0.03387987290581572
-3.982,0.5049120790829789,0.1080563417419877
-3.9815,0.6649647019482183,0.2352160026039969
-3.981,0.6436243522328531,0.2352160026039969
-3.9805,0.5582629533713921,0.2034260873884947
-3.98,0.4515612047945656,0.1928294489833272
-3.9795,0.3982103305061524,0.2140227257936621
-3.979,0.2381577076409128,0.07626642652648545
-3.9785,-0.423393133535411,-0.5171453241628908
-3.978,-1.042263275281004,-1.152943628472937
-3.9775,-1.533091318734406,-1.598002441489969
-3.977,-1.437059745015262,-1.322489842955616
-3.9765,-0.9035510021311299,-0.6019184314042303
-3.976,-0.3700422592469978,0.07626642652648545
-3.9755,0.00341386077189465,0.55311515475902
-3.975,0.2168173579255475,0.8180311148882058
-3.9745,0.3128489316446912,0.9345941373450475
-3.974,0.3341892813600565,0.9451907757502149
-3.9735,0.3128489316446912,0.9134008605347127
-3.973,0.2808384070716433,0.849821030103708
-3.9725,0.2381577076409128,0.7544512844572011
-3.972,0.2061471830678648,0.6590815388106942
-3.9715,0.1634664836371343,0.55311515475902
-3.971,-0.09261771294724913,0.2458126410091644
-3.9705,-0.6794773301197943,-0.4535654937318862
-3.97,-1.138294849000148,-1.131750351662602
-3.9695,-1.51175096901904,-1.566212526274467
-3.969,-1.362368521011484,-1.0999604364471
-3.9685,-0.7434983792658902,-0.5277419625680583
-3.968,-0.1886492866663929,-0.1780528951975329
-3.9675,0.1634664836371343,-0.08268314955102604
-3.967,0.3661998059331045,-0.06148987274069118
-3.9665,0.4408910299368829,-0.06148987274069118
-3.966,0.4408910299368829,-0.07208651114585861
-3.9655,0.4729015545099309,-0.02969995752518888
-3.965,0.6436243522328531,0.1928294489833272
-3.9645,0.6222840025174878,0.2564092794143318
-3.964,0.5369226036560266,0.2458126410091644
-3.9635,0.4515612047945656,0.2458126410091644
-3.963,0.3875401556484697,0.2670059178194992
-3.9625,0.5049120790829789,0.1716361721729923
-3.962,0.825017324813458,-0.3899856633008816
-3.9615,0.3982103305061524,-1.025783967610927
-3.961,-0.4127229586777283,-1.492036057438295
-3.9605,-0.9248913518464952,-1.439052865412457
-3.96,-0.7968492535543035,-0.7502713690765743
-3.9595,-0.4447334832507763,-0.008506680714854012
-3.959,-0.1032878878049318,0.5425185163538525
-3.9585,0.1207857842064037,0.8710143069140429
-3.958,0.2488278824985954,1.029963882991555
-3.9575,0.3021787567870086,1.061753798207057
-3.957,0.3021787567870086,1.029963882991555
-3.9565,0.291508581929326,0.9663840525605498
-3.956,0.2701682322139607,0.8710143069140429
-3.9555,0.2274875327832301,0.7544512844572011
-3.955,0.1848068333524996,0.6378882620003594
-3.9545,0.05676473506030786,0.4153588554918433
-3.954,-0.4980843575391895,-0.2416327256285375
-3.9535,-1.127624674142465,-0.9833974139902578
-3.953,-1.565101843307454,-1.576809164679634
-3.9525,-1.490410619303675,-1.492036057438295
-3.952,-0.9142211769888124,-0.8774310299385835
-3.9515,-0.3273615598162672,-0.4429688553267188
-3.951,0.1207857842064037,-0.1886495336027004
-3.9505,0.3555296310754218,-0.04029659593035631
-3.95,0.4408910299368829,0.02328323450064829
-3.9495,0.4408910299368829,0.02328323450064829
-3.949,0.4195506802215176,0.002089957690313421
-3.9485,0.5689331282290746,0.1716361721729923
-3.948,0.6222840025174878,0.2246193641988295
-3.9475,0.5582629533713921,0.1822328105781598
-3.947,0.4622313796522482,0.1504428953626575
-3.9465,0.3875401556484697,0.1504428953626575
-3.946,0.3661998059331045,0.1610395337678249
-3.9455,0.3128489316446912,-0.1674562567923655
-3.945,-0.2633405106701714,-0.8032545611024114
-3.9445,-0.9248913518464952,-1.364876396576285
-3.944,-1.394379045584531,-1.640388995110639
-3.9435,-1.202315898146244,-1.131750351662602
-3.943,-0.7114878546928423,-0.3687923864905467
-3.9425,-0.2420001609548061,0.2670059178194992
-3.942,0.07810508477567314,0.701468092431364
-3.9415,0.2488278824985954,0.92399749893988
-3.941,0.3128489316446912,1.00877060618122
-3.9405,0.3235191065023739,1.019367244586387
-3.94,0.3128489316446912,0.9663840525605498
-3.9395,0.2701682322139607,0.8922075837243778
-3.939,0.2381577076409128,0.7968378380778709
-3.9385,0.2061471830678648,0.6908714540261965
-3.938,0.1634664836371343,0.55311515475902
-3.9375,-0.1459685872356623,0.1822328105781598
-3.937,-0.7968492535543035,-0.5595318777835605
-3.9365,-1.234326422719292,-1.216523458903942
-3.936,-1.30901764672307,-1.449649503817625
-3.9355,-0.8822106524157645,-0.9304142219644207
-3.935,-0.2846808603855366,-0.4535654937318862
-3.9345,0.1207857842064037,-0.1674562567923655
-3.934,0.3341892813600565,0.002089957690313421
-3.9335,0.4195506802215176,0.06566978812131802
-3.933,0.4195506802215176,0.06566978812131802
-3.9325,0.3982103305061524,0.04447651131098315
-3.932,0.4515612047945656,0.09745970333682032
-3.9315,0.5049120790829789,0.1610395337678249
-3.931,0.4729015545099309,0.1504428953626575
-3.9305,0.408880505363835,0.13984625695749
-3.93,0.3661998059331045,0.13984625695749
-3.9295,0.3555296310754218,0.1716361721729923
-3.929,0.6116138276598051,0.2034260873884947
-3.9285,0.79300680024041,-0.1674562567923655
-3.928,0.291508581929326,-0.792657922697244
-3.9275,-0.4447334832507763,-1.290699927740113
-3.927,-0.7648387289812555,-1.184733543688439
-3.9265,-0.5941159312583333,-0.5807251545938954
-3.926,-0.2846808603855366,0.04447651131098315
-3.9255,-0.007256314085787988,0.5107286011383502
-3.925,0.1741366584948169,0.7862411996727035
-3.9245,0.2701682322139607,0.9134008605347127
-3.924,0.3021787567870086,0.9557874141553824
-3.9235,0.3021787567870086,0.92399749893988
-3.923,0.2701682322139607,0.8710143069140429
-3.9225,0.2488278824985954,0.7968378380778709
-3.922,0.2274875327832301,0.7120647308365314
-3.9215,0.2061471830678648,0.627291623595192
-3.921,0.142126133921769,0.5001319627331828
-3.9205,-0.3060212101009019,0.002089957690313421
-3.92,-0.754168554123573,-0.7502713690765743
-3.9195,-1.074273799854052,-1.301296566145281
-3.919,-1.042263275281004,-1.078767159636765
-3.9185,-0.5621054066852853,-0.5595318777835605
-3.918,-0.1139580626626144,-0.1462629799820306
-3.9175,0.1848068333524996,0.002089957690313421
-3.917,0.3448594562177392,0.02328323450064829
-3.9165,0.3982103305061524,-0.01910331912002144
-3.916,0.3982103305061524,-0.06148987274069118
-3.9155,0.4515612047945656,0.002089957690313421
-3.915,0.6542945270905358,0.2776025562246667
-3.9145,0.6649647019482183,0.3517790250608387
-3.914,0.5689331282290746,0.3199891098453364
-3.9135,0.4622313796522482,0.2776025562246667
-3.913,0.3768699807907871,0.2881991946298341
-3.9125,0.5262524287983441,0.3305857482505039
-3.912,1.006410297394063,0.04447651131098315
-3.9115,0.8676980242441885,-0.5489352393783931
-3.911,0.1954770082101822,-1.036380606016095
-3.9105,-0.3487019095316325,-1.068170521231597
-3.91,-0.391382608962363,-0.5277419625680583
-3.9095,-0.2206598112394408,0.09745970333682032
-3.909,-0.01792648894347063,0.5849050699745222
-3.9085,0.142126133921769,0.8816109453192104
-3.908,0.2274875327832301,1.019367244586387
-3.9075,0.2701682322139607,1.051157159801889
-3.907,0.2808384070716433,1.019367244586387
-3.9065,0.2808384070716433,0.9557874141553824
-3.906,0.2488278824985954,0.849821030103708
-3.9055,0.2168173579255475,0.7332580076468663
-3.905,0.1954770082101822,0.627291623595192
-3.9045,0.1527963087794516,0.4895353243280153
-3.904,-0.2953510352432193,-0.04029659593035631
-3.9035,-0.839529952985034,-0.792657922697244
-3.903,-1.298347471865388,-1.42845622700729
-3.9025,-1.575772018165136,-1.608599079895136
-3.902,-1.191645723288561,-1.0999604364471
-3.9015,-0.5834457564006506,-0.5595318777835605
-3.901,-0.04993701351651855,-0.1992461720078678
-3.9005,0.3235191065023739,-0.05089323433552374
-3.9,0.4729015545099309,-0.008506680714854012
-3.8995,0.5049120790829789,-0.02969995752518888
-3.899,0.4729015545099309,-0.05089323433552374
-3.8985,0.5475927785137094,0.07626642652648545
-3.898,0.5689331282290746,0.1610395337678249
-3.8975,0.5369226036560266,0.1610395337678249
-3.897,0.4622313796522482,0.1292496185523226
-3.8965,0.408880505363835,0.1186529801471552
-3.896,0.4408910299368829,0.06566978812131802
-3.8955,0.8783681991018712,-0.3581957480853793
-3.895,0.9530594231056497,-0.9939940523954253
-3.8945,0.2808384070716433,-1.534422611058964
-3.894,-0.4874141826815069,-1.75695201756748
-3.8935,-0.6688071552621118,-1.174136905283272
-3.893,-0.4660738329661415,-0.3899856633008816
-3.8925,-0.1779791118087102,0.2458126410091644
-3.892,0.04609456020262521,0.6696781772158616
-3.8915,0.1954770082101822,0.8816109453192104
-3.891,0.2701682322139607,0.9663840525605498
-3.8905,0.291508581929326,0.9769806909657173
-3.89,0.2808384070716433,0.92399749893988
-3.8895,0.2488278824985954,0.8604176685088755
-3.889,0.2061471830678648,0.775644561267536
-3.8885,0.1741366584948169,0.6802748156210291
-3.888,0.1527963087794516,0.5849050699745222
-3.8875,-0.1352984123779797,0.2458126410091644
-3.887,-0.754168554123573,-0.4853554089473885
-3.8865,-1.084943974711735,-1.110557074852267
