Class_11_Cell_phone_Call/Class_11_Cell_phone_Call_Turki_2.csv

#Digilent WaveForms Oscilloscope Acquisition
#Device Name: EExplorer
#Serial Number: SN:210151A2B84A
#Date Time: 2020-11-26 11:00:44.540
#Sample rate: 2000Hz
#Samples: 16384
#Trigger: Source: Channel 1 Type: Edge Condition: Rising Level: 0 V Hyst.: Auto HoldOff: 0 s
#Channel 1: Range: 1 V/div Offset: 0 V Attenuation: 1 X
#Channel 2: Range: 1 V/div Offset: 0 V Attenuation: 1 X
#Power Supplies: ON
#Fixed Supply: ON
#Voltage: 3.3 V Readback: 3.33 V
#Positive Supply: ON
#Voltage: 3.7 V Readback: 3.715 V
#Current: 500 mA Readback: 20 mA
#Negative Supply: ON
#Voltage: -3.7 V Readback: -3.708 V
#Current: -500 mA Readback: -9 mA
#Reference 1: ON
#Voltage: 0 V
#Reference 2: ON
#Voltage: 0 V

Time (s),Channel 1 (V),Channel 2 (V)
-4.096,0.8356874996711408,-1.025783967610927
-4.0955,0.8676980242441594,-1.004590690800612
-4.095,0.8676980242443826,-1.025783967611072
-4.0945,1.081101521397841,-1.184733543688439
-4.094,1.134452395686206,-1.205926820498755
-4.0935,0.9957401225362249,-0.993994052395165
-4.093,0.825017324813458,-0.7078848154559045
-4.0925,0.6969752265213828,-0.4217755785166442
-4.092,0.6756348768063571,-0.1038764263607537
-4.0915,1.177133095116985,0.5637117931641874
-4.091,1.241154144263081,1.358459673551745
-4.0905,0.2915085819284623,1.930678147430449
-4.09,-0.658136980404429,1.559795803249926
-4.0895,-1.458400094730627,0.2987958330350016
-4.089,-2.162631635337041,-0.8774310299375137
-4.0885,-2.450726356495113,-1.608599079895136
-4.088,-2.333354433060604,-1.79933857118815
-4.0875,-1.458400094731423,-1.195330182094156
-4.087,-0.5514352318270108,-0.2840192792485037
-4.0865,0.09944543449103843,0.4895353243280153
-4.086,0.4622313796519182,0.9345941373446427
-4.0855,0.5796033030867573,1.252493289500234
-4.085,0.5796033030867573,1.432636142387917
-4.0845,0.5475927785137384,1.485619334413706
-4.084,0.4835717293672641,1.390249588767074
-4.0835,0.09944543449103843,1.199510097474233
-4.083,-0.7114878546928423,1.37965295036208
-4.0825,-1.511750969019467,1.718745379327544
-4.082,-1.981238662757077,1.835308401784279
-4.0815,-1.522421143876723,1.167720182258731
-4.081,-0.6794773301205609,0.2670059178203185
-4.0805,0.0674349099179905,-0.4853554089473885
-4.08,0.5582629533713921,-0.9833974139902578
-4.0795,0.8143471499555424,-1.311893204550149
-4.079,0.8997085488172462,-1.470842780628008
-4.0785,0.9103787236749192,-1.523825972653797
-4.078,1.017080472251648,-1.449649503817692
-4.0775,1.166462920259205,-1.290699927739795
-4.077,1.059761171682476,-0.9410108603695881
-4.0765,0.899708548817382,-0.5383386009735918
-4.076,0.7503261008095922,-0.1356663415765162
-4.0755,0.6542945270905358,0.2458126410091644
-4.075,0.9210488985326017,0.7862411996727035
-4.0745,1.433217291700835,1.453829419198734
-4.074,0.8463576745288233,1.983661339456623
-4.0735,-0.1993194615240755,1.909484870620451
-4.073,-1.170305373572313,0.7544512844582516
-4.0725,-1.981238662757077,-0.5065486857577234
-4.072,-2.429386006779747,-1.354279758171118
-4.0715,-2.44005618163742,-1.693372187136167
-4.071,-1.8425263896063,-1.301296566144462
-4.0705,-0.8502001278427167,-0.400582301706049
-4.07,-0.09261771294793819,0.4683420475168902
-4.0695,0.3661998059332889,1.019367244586715
-4.069,0.5689331282290746,1.37965295036208
-4.0685,0.5902734779444399,1.623375633680931
-4.068,0.5369226036559781,1.729342017732566
-4.0675,0.4835717293676135,1.686955464111935
-4.067,0.3021787567870086,1.453829419198252
-4.0665,-0.4020527838207736,1.125333628638225
-4.066,-1.202315898146244,1.305476481525908
-4.0655,-1.778505340461106,1.188913459069066
-4.065,-1.373038695869535,0.4365521323028624
-4.0645,-0.572775581542968,-0.2204394488182027
-4.064,0.1207857842064037,-0.6760949002404023
-4.0635,0.5582629533709942,-0.9728007755848205
-4.063,0.8036769750981801,-1.110557074852335
-4.0625,0.8997085488172365,-1.184733543688439
-4.062,0.9103787236749096,-1.258910012524543
-4.0615,0.9317190733904689,-1.311893204550516
-4.061,1.134452395686255,-1.38606967338662
-4.0605,1.102441871113207,-1.237716735714276
-4.06,0.9423892482478214,-0.9304142219641123
-4.0595,0.7823366253827275,-0.5913217929990628
-4.059,0.6649647019482183,-0.2628260024388724
-4.0585,0.7396559259519289,0.182232810577755
-4.058,1.305175193409177,0.92399749893988
-4.0575,1.038420821967111,1.633972272086098
-4.057,0.003413860772836008,1.983661339456305
-4.0565,-1.052933450138687,1.188913459069066
-4.056,-1.917217613610981,-0.1250697031716958
-4.0555,-2.429386006779282,-1.152943628472002
-4.055,-2.450726356494744,-1.68277554873126
-4.0545,-2.045259711903173,-1.629792356705471
-4.054,-1.042263275281916,-1.025783967611477
-4.0535,-0.2313299860966382,-0.326405832869424
-4.053,0.3021787567870086,0.1716361721729923
-4.0525,0.5475927785137094,0.5955017083796896
-4.052,0.6009436528020935,1.029963882991844
-4.0515,0.5689331282290746,1.347863035146577
-4.051,0.5155822539406614,1.496215972818921
-4.0505,0.419550680221605,1.432636142387975
-4.05,-0.01792648894347063,1.263089927905238
-4.0495,-0.6154562809736985,1.453829419198252
-4.049,-1.170305373572691,1.697552102516881
-4.0485,-1.458400094730443,1.326669758335491
-4.048,-1.255666772434657,0.5001319627331828
-4.0475,-0.6261264558319538,-0.2204394488175473
-4.047,0.03542438534535987,-0.7820612842923657
-4.0465,0.4942419042252961,-1.0999604364471
-4.046,0.7396559259517737,-1.311893204550255
-4.0455,0.8570278493865351,-1.386069673386659
-4.045,0.8890383739595538,-1.42845622700729
-4.0445,1.081101521397841,-1.47084278062796
-4.044,1.134452395686129,-1.322489842955326
-4.0435,0.9957401225363802,-1.004590690800593
-4.043,0.825017324813458,-0.6337083466197325
-4.0425,0.6969752265213828,-0.2522293640340519
-4.042,0.6542945270905358,0.1292496185523226
-4.0415,1.102441871113207,0.7650479228623686
-4.041,1.305175193408993,1.475022696007941
-4.0405,0.4195506802206928,1.983661339456305
-4.04,-0.4874141826815069,1.633972272086098
-4.0395,-1.052933450138173,0.5743084315703184
-4.039,-1.554431668450256,-0.5383386009739773
-4.0385,-2.087940411333903,-1.364876396576285
-4.038,-2.280003558772016,-1.714565463946493
-4.0375,-1.53309131873361,-1.269506650928969
-4.037,-0.658136980404429,-0.3793890248957141
-4.0365,0.01408403562957729,0.4259554938970107
-4.036,0.4088805053639806,0.9134008605350403
-4.0355,0.5689331282290746,1.273686566310405
-4.035,0.5796033030867573,1.528005888034424
-4.0345,0.5475927785137384,1.64456891049116
-4.034,0.4835717293676135,1.623375633680931
-4.0335,0.1101156093487211,1.453829419198252
-4.033,-0.711487854692095,1.570392441654987
-4.0325,-1.479740444446517,1.835308401784337
-4.032,-2.055929886760855,1.898888232215284
-4.0315,-2.023919362187836,1.135930267043922
-4.031,-1.287677297006909,0.2034260873878297
-4.0305,-0.4127229586777283,-0.5277419625680583
-4.03,0.2701682322133396,-0.9622041371795278
-4.0295,0.6756348768060757,-1.195330182093703
-4.029,0.8676980242441885,-1.301296566145281
-4.0285,0.9210488985326017,-1.354279758171118
-4.028,1.017080472251891,-1.364876396576276
-4.0275,1.177133095116985,-1.354279758171118
-4.027,1.070431346540159,-1.110557074852267
-4.0265,0.8997085488173917,-0.7714646458872176
-4.026,0.7503261008096795,-0.4111789401112165
-4.0255,0.6542945270905358,-0.06148987274069118
-4.025,0.8676980242439944,0.4683420475171987
-4.0245,1.358526067697066,1.199510097474792
-4.024,0.7823366253827275,1.814115124973944
-4.0235,-0.1779791118078368,1.93067814743068
-4.023,-0.9142211769894335,1.061753798205891
-4.0225,-1.597112367880501,-0.2204394488182027
-4.022,-2.226652684483205,-1.216523458903036
-4.0215,-2.397375482206146,-1.714565463946589
-4.021,-1.789175515318789,-1.47084278062796
-4.0205,-0.839529952985034,-0.6443049850249
-4.02,-0.1032878878045048,0.1928294489838187
-4.0195,0.3661998059331045,0.7332580076468663
-4.019,0.5689331282290746,1.114736990232894
-4.0185,0.6009436528020935,1.400846227172154
-4.018,0.5582629533713921,1.549199164844759
-4.0175,0.5155822539406614,1.559795803249926
-4.017,0.3235191065025486,1.316073119931297
-4.0165,-0.3913826089631006,1.040560521396944
-4.016,-1.202315898146244,1.284283204715573
-4.0155,-1.629122892453161,1.475022696008413
-4.015,-1.373038695868506,0.9345941373443054
-4.0145,-0.6474668055467465,0.1186529801471552
-4.014,0.03542438534432146,-0.5701285161881016
-4.0135,0.515582253940904,-0.9939940523956758
-4.013,0.7823366253827275,-1.269506650929778
-4.0125,0.8890383739595538,-1.47084278062796
-4.012,0.9103787236749289,-1.534422611058926
-4.0115,0.9210488985326017,-1.492036057438295
-4.011,1.145122570543937,-1.523825972653797
-4.0105,1.134452395686264,-1.280103289335167
-4.01,0.974399772821015,-0.8774310299385835
-4.0095,0.8036769750980928,-0.4641621321370536
-4.009,0.6863050516636906,-0.0932797879565308
-4.0085,0.750326100810155,0.3411823866562977
-4.008,1.273164668836129,1.029963882991555
-4.0075,1.017080472251978,1.686955464111338
-4.007,-0.007256314086690504,2.004854616266255
-4.0065,-0.9995825758502737,1.231300012689736
-4.006,-1.842526389607202,-0.1038764263613609
-4.0055,-2.397375482206748,-1.174136905283802
-4.005,-2.450726356495113,-1.75695201756748
-4.0045,-2.344024607918286,-1.852321763213987
-4.004,-1.469070269587475,-1.301296566144529
-4.0035,-0.5514352318276028,-0.474758770542221
-4.003,0.1101156093487211,0.1822328105781598
-4.0025,0.462231379651928,0.6166949851896294
-4.002,0.5796033030867573,1.019367244586387
-4.0015,0.5902734779444399,1.284283204715573
-4.001,0.5582629533714212,1.400846227172309
-4.0005,0.4729015545094262,1.326669758335934
-4,-0.08194753808956648,0.9875773293708847
-3.9995,-0.9142211769888124,1.104140351827727
-3.999,-1.629122892453549,1.42203950398275
-3.9985,-2.141291285622316,1.125333628638062
-3.998,-2.087940411333903,0.383568940276341
-3.9975,-1.319687821580753,-0.2098428104130352
-3.997,-0.4660738329661415,-0.7078848154559045
-3.9965,0.2061471830678648,-1.05757388282643
-3.996,0.6222840025174878,-1.258910012524611
-3.9955,0.8356874996711408,-1.34368311976595
-3.995,0.9103787236749192,-1.375473034981453
-3.9945,1.102441871113207,-1.47084278062796
-3.994,1.177133095116985,-1.364876396576285
-3.9935,1.038420821967111,-1.025783967610927
-3.993,0.8676980242441885,-0.6231117082145651
-3.9925,0.7289857510943143,-0.252229364033705
-3.992,0.6649647019482183,0.1080563417419877
-3.9915,1.049090996824793,0.7226613692416989
-3.991,1.134452395686255,1.432636142387917
-3.9905,0.2168173579255475,1.962468062646288
-3.99,-0.8502001278427167,1.6657621873016
-3.9895,-1.735824641030376,0.4153588554918433
-3.989,-2.365364957633652,-0.8032545611024114
-3.9885,-2.44005618163743,-1.587405803084801
-3.988,-2.3973754822067,-1.862918401619155
-3.9875,-1.67180359188428,-1.481439419033127
-3.987,-0.7114878546928423,-0.718481453861072
-3.9865,0.01408403562957729,-0.05089323433552374
-3.986,0.4302208550792003,0.3729723018711736
-3.9855,0.6009436528021226,0.7862411996727035
-3.985,0.6116138276598051,1.125333628638062
-3.9845,0.5689331282290746,1.33726639674141
-3.984,0.5155822539406614,1.37965295036208
-3.9835,0.2061471830678648,1.167720182258731
-3.983,-0.5621054066852853,1.231300012689736
-3.9825,-1.394379045584531,1.570392441655093
-3.982,-1.917217613610981,1.75053529454294
-3.9815,-1.437059745015262,1.157123543853563
-3.981,-0.6047861061160158,0.3199891098453364
-3.9805,0.09944543449103843,-0.3793890248957141
-3.98,0.5796033030867573,-0.9304142219644207
-3.9795,0.825017324813458,-1.269506650929778
-3.979,0.8997085488172365,-1.417859588602123
-3.9785,0.8997085488172365,-1.481439419033127
-3.978,0.9850699476786977,-1.534422611058964
-3.9775,1.166462920259302,-1.534422611058964
-3.977,1.081101521397841,-1.216523458903942
-3.9765,0.9210488985326017,-0.7714646458869092
-3.976,0.7716664505250448,-0.326405832869877
-3.9755,0.6863050516635838,0.07626642652648545
-3.975,0.9317190733902845,0.6378882620003594
-3.9745,1.497238340847464,1.347863035146577
-3.974,0.9957401225363802,1.909484870620451
-3.9735,-0.06060718837420119,1.994257977861791
-3.973,-1.020922925565639,0.9345941373450475
-3.9725,-1.83185621474952,-0.3687923864905467
-3.972,-2.386705307349017,-1.311893204550448
-3.9715,-2.418715831922065,-1.735758740757146
-3.971,-1.938557963326346,-1.481439419033127
-3.9705,-0.9355615267041777,-0.5913217929990628
-3.97,-0.1459685872356623,0.3305857482505039
-3.9695,0.3555296310754218,0.9663840525605498
-3.969,0.5689331282290746,1.369056311956912
-3.9685,0.6116138276598051,1.612778995275763
-3.968,0.5689331282290746,1.697552102517103
-3.9675,0.5049120790829789,1.6657621873016
-3.967,0.3875401556484697,1.475022696008586
-3.9665,-0.2313299860971235,1.284283204715573
-3.966,-0.9355615267041777,1.475022696008586
-3.9655,-1.490410619303675,1.475022696008586
-3.965,-1.778505340461106,0.8180311148882058
-3.9645,-1.458400094730627,0.01268659609548085
-3.964,-0.7008176798351597,-0.5913217929990628
-3.9635,0.04609456020262521,-0.9939940523954253
-3.963,0.5475927785137094,-1.248313374119443
-3.9625,0.8036769750980928,-1.42845622700729
-3.962,0.8890383739595538,-1.545019249464132
-3.9615,0.9210488985326017,-1.608599079895136
-3.961,1.166462920259302,-1.661582271920973
-3.9605,1.177133095116985,-1.38606967338662
-3.96,1.027750647109428,-0.9410108603695881
-3.9595,0.8463576745288233,-0.4959520473525559
-3.959,0.7183155762366316,-0.1038764263613609
-3.9585,0.7503261008096795,0.3305857482505039
-3.958,1.273164668836129,1.00877060618122
-3.9575,1.134452395686255,1.655165548896433
-3.957,0.1314559590640864,2.036644531482461
-3.9565,-0.8502001278427167,1.369056311956912
-3.956,-1.703814116457328,0.03387987290581572
-3.9555,-2.333354433060604,-1.0999604364471
-3.955,-2.408045657064382,-1.735758740757146
-3.9545,-1.991908837614759,-1.650985633515806
-3.954,-0.9995825758502737,-0.8350444763179138
-3.9535,-0.1886492866663929,0.05507314971615059
-3.953,0.3341892813600565,0.6908714540261965
-3.9525,0.5796033030867573,1.040560521396722
-3.952,0.6329541773751706,1.284283204715573
-3.9515,0.5902734779444399,1.42203950398275
-3.951,0.5155822539406614,1.443232780793084
-3.9505,0.4515612047945656,1.347863035146577
-3.95,0.01408403562957729,0.9663840525605498
-3.9495,-0.8181896032696687,0.9345941373450475
-3.949,-1.501080794161358,0.8604176685088755
-3.9485,-1.629122892453549,0.1186529801471552
-3.948,-0.9782422261349084,-0.4323722169215513
-3.9475,-0.2420001609548061,-0.7502713690765743
-3.947,0.3128489316446912,-0.9833974139902578
-3.9465,0.6756348768059011,-1.110557074852267
-3.946,0.8463576745288233,-1.205926820498774
-3.9455,0.9103787236749192,-1.290699927740113
-3.945,0.9103787236749192,-1.364876396576285
-3.9445,1.059761171682476,-1.375473034981453
-3.944,1.134452395686255,-1.301296566145281
-3.9435,1.017080472251745,-1.068170521231597
-3.943,0.8676980242441885,-0.792657922697244
-3.9425,0.7503261008096795,-0.5065486857577234
-3.942,0.6969752265212663,-0.1992461720078678
-3.9415,1.059761171682476,0.4471487707073456
-3.941,1.337185717982225,1.241896651094903
-3.9405,0.5262524287983441,1.856501678594614
-3.94,-0.4874141826815069,1.718745379327438
-3.9395,-1.394379045584531,0.5425185163538525
-3.939,-2.151961460479999,-0.6760949002404023
-3.9385,-2.418715831922065,-1.47084278062796
-3.938,-2.354694782775969,-1.735758740757146
-3.9375,-1.533091318734406,-1.237716735714276
-3.937,-0.6047861061160158,-0.3475991096802118
-3.9365,0.07810508477567314,0.4259554938970107
-3.936,0.4729015545099309,0.8922075837243778
-3.9355,0.6116138276598051,1.241896651094903
-3.935,0.6009436528021226,1.475022696008586
-3.9345,0.5475927785137094,1.570392441655093
-3.934,0.4942419042252961,1.517409249629256
-3.9335,0.2594980573562781,1.29487984312074
-3.933,-0.4874141826815069,1.263089927905238
-3.9325,-1.180975548430879,1.517409249629256
-3.932,-1.46907026958831,1.199510097474233
-3.9315,-1.618452717595867,0.2776025562246667
-3.931,-1.255666772434657,-0.400582301706049
-3.9305,-0.5300948821122373,-0.8032545611024114
-3.93,0.1314559590640864,-1.078767159636765
-3.9295,0.5582629533713921,-1.205926820498774
-3.929,0.7716664505250448,-1.333086481360783
-3.9285,0.8676980242441885,-1.407262950196955
-3.928,0.9850699476786977,-1.492036057438295
-3.9275,1.209143619690033,-1.555615887869299
-3.927,1.15579274540162,-1.280103289334946
-3.9265,0.9850699476786977,-0.8774310299385835
-3.926,0.825017324813458,-0.4853554089473885
-3.9255,0.707645401378949,-0.1356663415768632
-3.925,0.8783681991018712,0.3623756634660061
-3.9245,1.497238340847464,1.104140351827727
-3.924,1.230483969405398,1.75053529454294
-3.9235,0.1634664836371343,1.898888232215284
-3.923,-0.9142211769888124,0.8816109453192104
-3.9225,-1.799845690176472,-0.4323722169215513
-3.922,-2.376035132491334,-1.396666311791788
-3.9215,-2.408045657064382,-1.862918401619155
-3.921,-1.87453691418025,-1.608599079895136
-3.9205,-0.8715404775580819,-0.8138511995075789
-3.92,-0.1032878878049318,-0.01910331912002144
-3.9195,0.3768699807907871,0.5001319627331828
-3.919,0.5902734779444399,0.849821030103708
-3.9185,0.6222840025174878,1.146526905448396
-3.918,0.5902734779444399,1.326669758336243
-3.9175,0.5369226036560266,1.369056311956912
-3.917,0.408880505363835,1.220703374284568
-3.9165,-0.2206598112394408,0.9557874141553824
-3.916,-0.9142211769888124,1.051157159801889
-3.9155,-1.394379045584531,0.4789386859228479
-3.915,-1.501080794161358,-0.4217755785163839
-3.9145,-0.9889124009925911,-0.8986243067489184
-3.914,-0.2953510352432193,-1.046977244421262
-3.9135,0.3021787567870086,-1.089363798041932
-3.913,0.6649647019482183,-1.142346990067769
-3.9125,0.857027849386506,-1.163540266878104
-3.912,0.9317190733902845,-1.142346990067769
-3.9115,0.9637295979633325,-1.152943628472937
-3.911,1.166462920259302,-1.163540266878104
-3.9105,1.15579274540162,-1.121153713257435
-3.91,1.006410297394063,-0.9516074987747555
-3.9095,0.8356874996711408,-0.7290780922662394
-3.909,0.7183155762366316,-0.4641621321370536
-3.9085,0.7289857510943143,-0.09327978795619347
-3.908,1.251824319120764,0.6378882620003594
-3.9075,1.209143619690033,1.411442865577582
-3.907,0.2274875327832301,1.941274785835954
-3.9065,-0.8502001278427167,1.475022696008586
-3.906,-1.746494815888059,0.1928294489833272
-3.9055,-2.354694782775969,-0.9304142219644207
-3.905,-2.418715831922065,-1.566212526274467
-3.9045,-2.087940411333903,-1.598002441489969
-3.904,-1.084943974711735,-0.9939940523954253
-3.9035,-0.2526703358124887,-0.2310360872233701
-3.903,0.3021787567870086,0.3517790250608387
-3.9025,0.5689331282290746,0.7226613692416989
-3.902,0.6329541773751706,1.093543713422559
-3.9015,0.6009436528021226,1.37965295036208
-3.901,0.5475927785137094,1.517409249629256
-3.9005,0.4729015545099309,1.475022696008586
-3.9,0.03542438534494258,1.25249328950007
-3.8995,-0.7755089038389382,1.358459673551745
-3.899,-1.490410619303675,1.6657621873016
-3.8985,-1.725154466172693,1.612778995275763
-3.898,-0.9782422261349084,0.8074344764830383
-3.8975,-0.1779791118087102,-0.05089323433552374
-3.897,0.4408910299368829,-0.7290780922662394
-3.8965,0.8143471499557753,-1.142346990067769
-3.896,0.9637295979633325,-1.311893204550448
-3.8955,0.974399772821015,-1.38606967338662
-3.895,0.942389248247967,-1.396666311791788
-3.8945,1.027750647109428,-1.417859588602123
-3.894,1.113112045970889,-1.333086481360783
-3.8935,1.006410297394063,-1.004590690800593
-3.893,0.857027849386506,-0.6231117082145651
-3.8925,0.7396559259519968,-0.2416327256285375
-3.892,0.6756348768059011,0.09745970333682032
-3.8915,0.9957401225363802,0.6696781772158616
-3.891,1.315845368266859,1.369056311956912
-3.8905,0.5262524287983441,1.909484870620451
-3.89,-0.5300948821122373,1.697552102517103
-3.8895,-1.458400094730627,0.4683420475176805
-3.889,-2.205312334768412,-0.7820612842920766
-3.8885,-2.418715831922065,-1.608599079895136
-3.888,-2.354694782775969,-1.915901593644992
-3.8875,-1.543761493592088,-1.523825972653797
-3.887,-0.6047861061160158,-0.7820612842920766
-3.8865,0.07810508477567314,-0.1356663415768632
-3.886,0.4835717293676135,0.2776025562246667
-3.8855,0.6222840025174878,0.6378882620003594
-3.885,0.6222840025174878,0.9557874141553824
-3.8845,0.5796033030867573,1.157123543853563
-3.884,0.5155822539406614,1.188913459069066
-3.8835,0.2594980573562781,0.9345941373450475
