Class_11_Cell_phone_Call/Class_11_Cell_phone_Call_SH_2.csv

#Digilent WaveForms Oscilloscope Acquisition
#Device Name: EExplorer
#Serial Number: SN:210151A2B84A
#Date Time: 2020-11-25 11:45:21.101
#Sample rate: 2000Hz
#Samples: 16384
#Trigger: Source: Channel 1 Type: Edge Condition: Rising Level: 0 V Hyst.: Auto HoldOff: 0 s
#Channel 1: Range: 1 V/div Offset: 0 V Attenuation: 1 X
#Channel 2: Range: 1 V/div Offset: 0 V Attenuation: 1 X
#Power Supplies: ON
#Fixed Supply: ON
#Voltage: 3.3 V Readback: 3.332 V
#Positive Supply: ON
#Voltage: 3.7 V Readback: 3.712 V
#Current: 40 mA Readback: 19 mA
#Negative Supply: ON
#Voltage: -3.7 V Readback: -3.35 V
#Current: -40 mA Readback: -5 mA
#Reference 1: ON
#Voltage: 0 V
#Reference 2: ON
#Voltage: 0 V

Time (s),Channel 1 (V),Channel 2 (V)
-4.096,0.6969752265212663,0.02328323450064829
-4.0955,0.8570278493863605,0.245812641008962
-4.095,0.8143471499556685,0.2881991946297956
-4.0945,0.6969752265212663,0.2458126410091644
-4.094,0.5582629533715182,0.4047622170865313
-4.0935,0.4622313796519862,0.4047622170862326
-4.093,0.1741366584948169,-0.08268314955102604
-4.0925,-0.2633405106697735,-0.7078848154553359
-4.092,-0.7008176798353636,-1.248313374119511
-4.0915,-0.9248913518464952,-1.322489842955616
-4.091,-0.6688071552621118,-0.7290780922662394
-4.0905,-0.3060212101006108,-0.01910331911949138
-4.09,0.01408403562957729,0.5637117931641874
-4.0895,0.2168173579255475,0.92399749893988
-4.089,0.3128489316446039,1.125333628637878
-4.0885,0.3448594562177392,1.188913459069066
-4.088,0.3448594562177392,1.188913459069066
-4.0875,0.3235191065023933,1.135930267043277
-4.087,0.2808384070715948,1.029963882991429
-4.0865,0.2274875327832301,0.8922075837243778
-4.086,0.1848068333525384,0.7226613692418531
-4.0855,0.1634664836368528,0.4895353243275624
-4.085,-0.1459685872356623,-0.008506680714854012
-4.0845,-0.7755089038383657,-0.6972881770501108
-4.084,-1.3090176467234,-1.333086481361159
-4.0835,-1.67180359188428,-1.746355379162313
-4.083,-1.629122892453549,-1.598002441489969
-4.0825,-1.074273799853509,-0.898624306748369
-4.082,-0.4767440078238243,-0.2946159176543747
-4.0815,0.02475421048725994,0.08686306493165288
-4.081,0.3128489316444292,0.1928294489832308
-4.0805,0.4729015545099309,0.04447651131098315
-4.08,0.5262524287983441,-0.1038764263613609
-4.0795,0.6649647019480922,-0.2734226408438856
-4.079,0.7930068002404489,-0.2946159176543457
-4.0785,0.8356874996711408,-0.2628260024388724
-4.078,1.006410297393908,-0.4747587705420283
-4.0775,0.9317190733901486,-0.3158091944644493
-4.077,0.7823366253827275,-0.02969995752518888
-4.0765,0.8570278493864381,-0.02969995752518888
-4.076,0.7609962756666635,-0.5277419625686076
-4.0755,-0.007256314085787988,-1.131750351662602
-4.075,-0.722158029550525,-1.481439419033127
-4.0745,-1.031593100423098,-1.375473034980836
-4.074,-0.7861790786966207,-0.6972881770507372
-4.0735,-0.3807124341046804,0.02328323450064829
-4.073,-0.02859666380147352,0.5743084315688537
-4.0725,0.1954770082101822,0.8922075837243778
-4.072,0.3021787567870086,1.040560521396722
-4.0715,0.3448594562177004,1.082947075017353
-4.071,0.3448594562177197,1.040560521396626
-4.0705,0.3235191065023739,0.9345941373450475
-4.07,0.2808384070716821,0.8180311148883118
-4.0695,0.2488278824985663,0.6908714540260135
-4.069,0.2168173579255475,0.4895353243280153
-4.0685,0.08877525963335578,0.1186529801471552
-4.068,-0.4767440078243192,-0.5277419625686655
-4.0675,-1.020922925565639,-1.195330182093607
-4.067,-1.30901764672307,-1.714565463946811
-4.0665,-1.373038695868817,-1.735758740756519
-4.066,-0.9889124009925911,-1.046977244421262
-4.0655,-0.4874141826815069,-0.2840192792492073
-4.065,-0.03926683865924346,0.2140227257932091
-4.0645,0.3021787567870086,0.3305857482505039
-4.064,0.4835717293676135,0.2352160026039969
-4.0635,0.5369226036559781,0.1398462569575768
-4.063,0.5796033030869417,0.1080563417421998
-4.0625,0.7823366253827275,0.3411823866556712
-4.062,0.8143471499557462,0.404762217086618
-4.0615,0.8890383739594956,0.1398462569574033
-4.061,0.825017324813458,0.04447651131098315
-4.0605,0.6649647019482183,0.09745970333682032
-4.06,0.4088805053631848,-0.1144730647670584
-4.0595,-0.3060212101009019,-0.6972881770507372
-4.059,-1.095614149569417,-1.269506650929778
-4.0585,-1.693143941599102,-1.661582271920617
-4.058,-1.67180359188428,-1.47084278062796
-4.0575,-1.06360362499637,-0.6760949002404023
-4.057,-0.455403658109012,0.1080563417412745
-4.0565,-0.01792648894347063,0.701468092431364
-4.056,0.2381577076409128,1.051157159801889
-4.0555,0.355529631075315,1.210106735879256
-4.055,0.3768699807907774,1.241896651094874
-4.0545,0.3661998059331045,1.210106735879401
-4.054,0.3341892813600856,1.114736990232981
-4.0535,0.3128489316446622,1.008770606181066
-4.053,0.2808384070716433,0.8392243916985406
-4.0525,0.2274875327832301,0.6166949851900245
-4.052,0.1101156093482747,0.2034260873878875
-4.0515,-0.3807124341046804,-0.4641621321370536
-4.051,-1.06360362499637,-1.163540266878104
-4.0505,-1.597112367880016,-1.725162102351467
-4.05,-1.863866739322568,-1.778145294377815
-4.0495,-1.405049220442214,-1.205926820498774
-4.049,-0.7221580295511461,-0.5383386009738328
-4.0485,-0.1139580626622359,-0.06148987274045987
-4.048,0.3021787567870086,0.1928294489833272
-4.0475,0.5155822539404673,0.2140227257936428
-4.047,0.5689331282290843,0.1080563417418046
-4.0465,0.5796033030867573,-0.09327978795619347
-4.046,0.8570278493862538,-0.4005823017057695
-4.0455,0.9743997728209082,-0.4641621321368705
-4.045,0.857027849386506,-0.2628260024388724
-4.0445,0.6649647019482183,-0.008506680714854012
-4.044,0.5155822539406905,0.2034260873884176
-4.0435,0.5475927785137094,0.1186529801471552
-4.043,1.102441871113207,-0.3370024712750445
-4.0425,1.209143619689936,-0.9410108603690388
-4.042,0.4408910299368829,-1.42845622700729
-4.0415,-0.2526703358124887,-1.47084278062796
-4.041,-0.3913826089622369,-0.8138511995081764
-4.0405,-0.2313299860969294,-0.06148987274016111
-4.04,-0.01792648894347063,0.5213252395435176
-4.0395,0.1314559590639505,0.8498210301034093
-4.039,0.2488278824986536,1.019367244586426
-4.0385,0.3128489316446912,1.061753798207057
-4.038,0.3235191065023642,1.019367244586426
-4.0375,0.3235191065023253,0.94519077575008
-4.037,0.2701682322139607,0.7968378380778709
-4.0365,0.1848068333524996,0.6060983467848571
-4.036,0.1741366584948169,0.5001319627330576
-4.0355,0.1741366584948169,0.3623756634660061
-4.035,-0.07127736323188383,-0.07208651114585861
-4.0345,-0.6901475049769141,-0.7820612842914308
-4.034,-1.1062843244271,-1.417859588602123
-4.0335,-1.234326422719292,-1.682775548731308
-4.033,-0.9248913518467766,-1.205926820499208
-4.0325,-0.4020527838196575,-0.5489352393779594
-4.032,0.02475421048725994,-0.07208651114585861
-4.0315,0.344859456217448,0.06566978812119274
-4.031,0.5155822539407293,0.08686306493164325
-4.0305,0.5902734779444399,0.07626642652648545
-4.03,0.6009436528021129,0.07626642652648545
-4.0295,0.6969752265213148,-0.06148987274075864
-4.029,0.7503261008096795,-0.1356663415768632
-4.0285,0.6863050516635838,-0.02969995752518888
-4.028,0.6222840025174102,0.07626642652659146
-4.0275,0.5369226036560266,0.1928294489833272
-4.027,0.5049120790829789,0.2352160026039969
-4.0265,0.7609962756671294,-0.08268314955073691
-4.026,0.6863050516635838,-0.5807251545938954
-4.0255,-0.1459685872356623,-1.163540266878104
-4.025,-0.8822106524150949,-1.523825972653469
-4.0245,-0.9355615267038768,-1.152943628472262
-4.024,-0.6047861061160158,-0.4111789401112165
-4.0235,-0.2206598112397902,0.2564092794137246
-4.023,0.07810508477582841,0.7332580076471072
-4.0225,0.2488278824985954,0.9981739677760521
-4.022,0.3235191065023059,1.114736990232788
-4.0215,0.3448594562177295,1.1359302670432
-4.021,0.3341892813600565,1.104140351827727
-4.0205,0.3128489316446912,1.019367244586387
-4.02,0.2701682322139122,0.90280422212942
-4.0195,0.2168173579255475,0.7650479228623686
-4.019,0.1848068333524996,0.5849050699745222
-4.0185,-0.01792648894328625,0.2140227257939994
-4.018,-0.658136980404429,-0.5171453241628908
-4.0175,-1.202315898146244,-1.227120097309109
-4.017,-1.522421143876432,-1.79933857118763
-4.0165,-1.714484291314671,-1.958288147264996
-4.016,-1.341028171296118,-1.227120097309109
-4.0155,-0.7008176798357421,-0.495952047353221
-4.015,-0.1673089369507268,-0.04029659593014429
-4.0145,0.1634664836371343,0.1928294489833272
-4.014,0.3661998059329201,0.2564092794142739
-4.0135,0.4515612047946529,0.1610395337676707
-4.013,0.5475927785137094,-0.008506680714854012
-4.0125,0.707645401378949,-0.1674562567923655
-4.012,0.707645401378949,-0.1356663415768343
-4.0115,0.707645401378949,-0.1038764263613609
-4.011,0.6222840025174878,0.01268659609548085
-4.0105,0.5796033030867962,0.08686306493158542
-4.01,0.408880505363835,-0.1462629799820306
-4.0095,0.1314559590640864,-0.5171453241628908
-4.009,-0.3593720843888688,-1.004590690800149
-4.0085,-0.7968492535545073,-1.417859588602113
-4.008,-1.020922925565639,-1.407262950196955
-4.0075,-0.7541685541238157,-0.7608680074823296
-4.007,-0.3487019095313317,-0.02969995752465881
-4.0065,-0.01792648894347063,0.55311515475902
-4.006,0.2061471830678648,0.92399749893988
-4.0055,0.3021787567870474,1.104140351827784
-4.005,0.3448594562177392,1.167720182258731
-4.0045,0.3448594562177392,1.157123543853563
-4.004,0.3128489316446524,1.082947075017305
-4.0035,0.2701682322139607,0.9875773293708847
-4.003,0.2274875327832301,0.8604176685088755
-4.0025,0.1527963087795196,0.6484849004057196
-4.002,0.02475421048725994,0.2458126410091644
-4.0015,-0.3807124341046804,-0.1674562567923655
-4.001,-0.8822106524153084,-0.5277419625677305
-4.0005,-1.341028171296371,-1.068170521231848
-4,-1.618452717595867,-1.34368311976595
-3.9995,-1.287677297007705,-0.9939940523954253
-3.999,-0.690147504977477,-0.4853554089473885
-3.9985,-0.1032878878049318,-0.01910331912002144
-3.998,0.291508581929326,0.2246193641988295
-3.9975,0.4942419042252961,0.1716361721729923
-3.997,0.5902734779444399,0.03387987290581572
-3.9965,0.6222840025174878,-0.1038764263613609
-3.996,0.7503261008096795,-0.1674562567923655
-3.9955,0.7823366253827275,0.02328323450064829
-3.995,0.707645401378949,0.1822328105781598
-3.9945,0.5902734779444399,0.2564092794143318
-3.994,0.5049120790829789,0.3517790250608387
-3.9935,0.5369226036560266,0.2670059178194992
-3.993,1.145122570543937,0.01268659609548085
-3.9925,1.76399271228953,0.1822328105781598
-3.992,1.273164668836129,-0.252229364033705
-3.9915,0.5262524287983441,-0.4959520473525559
-3.991,0.1741366584948169,-0.2310360872233701
-3.9905,0.07810508477567314,0.1822328105781598
-3.99,0.09944543449103843,0.55311515475902
-3.9895,0.1741366584948169,0.8392243916985406
-3.989,0.2274875327832301,1.019367244586387
-3.9885,0.2594980573562781,1.114736990232894
-3.988,0.291508581929326,1.178316820663898
-3.9875,0.291508581929326,1.188913459069066
-3.987,0.2808384070716433,1.157123543853563
-3.9865,0.2488278824985954,1.072350436612224
-3.986,0.2061471830678648,0.8922075837243778
-3.9855,0.1634664836371343,0.6908714540261965
-3.985,-0.2206598112394408,0.1928294489833272
-3.9845,-0.839529952985034,-0.5913217929990628
-3.984,-1.277007122150022,-1.311893204550448
-3.9835,-1.725154466172693,-1.905304955239825
-3.983,-1.842526389607202,-1.905304955239825
-3.9825,-1.244996597576974,-1.068170521231597
-3.982,-0.572775581542968,-0.4217755785163839
-3.9815,-0.02859666380115328,-0.06148987274069118
-3.981,0.3235191065023739,0.1080563417419877
-3.9805,0.5049120790829789,0.07626642652648545
-3.98,0.5689331282290746,0.002089957690313421
-3.9795,0.6649647019482183,-0.1144730647665284
-3.979,0.7289857510943143,-0.1250697031716958
-3.9785,0.7183155762366316,-0.1038764263613609
-3.978,0.6436243522328531,-0.04029659593035631
-3.9775,0.5582629533713921,0.05507314971615059
-3.977,0.4942419042252961,0.1080563417419877
-3.9765,0.1954770082101822,-0.2628260024388724
-3.976,-0.4447334832507763,-0.8668343915334161
-3.9755,-1.095614149569417,-1.396666311791788
-3.975,-1.543761493592088,-1.640388995110639
-3.9745,-1.330357996438436,-1.174136905283272
-3.974,-0.7755089038389382,-0.3687923864905467
-3.9735,-0.2633405106701714,0.3305857482505039
-3.973,0.08877525963335578,0.8074344764830383
-3.9725,0.2808384070716433,1.082947075017392
-3.972,0.3448594562177392,1.178316820663898
-3.9715,0.3661998059331045,1.188913459069066
-3.971,0.3448594562177392,1.125333628638062
-3.9705,0.3021787567870086,1.019367244586387
-3.97,0.2381577076409128,0.8710143069140429
-3.9695,0.1954770082101822,0.701468092431364
-3.969,0.142126133921769,0.457745409112513
-3.9685,-0.1032878878049318,-0.04029659593035631
-3.968,-0.7434983792658902,-0.7608680074817418
-3.9675,-1.287677297007705,-1.417859588602123
-3.967,-1.586442193022819,-1.820531847998485
-3.9665,-1.533091318734406,-1.545019249464132
-3.966,-1.010252750707956,-0.8668343915334161
-3.9655,-0.423393133535411,-0.2416327256285375
-3.965,0.02475421048725994,0.1292496185523226
-3.9645,0.3448594562177392,0.2881991946298341
-3.964,0.4835717293676135,0.2881991946298341
-3.9635,0.5475927785137094,0.1292496185523226
-3.963,0.6542945270905358,-0.1250697031716958
-3.9625,0.8783681991018712,-0.2840192792492073
-3.962,0.8890383739595538,-0.1780528951975329
-3.9615,0.8036769750980928,-0.01910331912002144
-3.961,0.6329541773751706,0.1716361721729923
-3.9605,0.4942419042252961,0.3199891098453364
-3.96,0.6009436528021226,0.309392471440169
-3.9595,0.707645401378949,-0.252229364033705
-3.959,0.1207857842064037,-0.9516074987747555
-3.9585,-0.690147504977477,-1.449649503817625
-3.958,-0.9889124009925911,-1.311893204550448
-3.9575,-0.7328282044082075,-0.6125150698093976
-3.957,-0.3487019095316325,0.1080563417419877
-3.9565,-0.01792648894347063,0.6378882620003594
-3.956,0.1954770082101822,0.9663840525605498
-3.9555,0.3021787567870086,1.114736990232894
-3.955,0.3341892813600565,1.157123543853563
-3.9545,0.3448594562177392,1.135930267043229
-3.954,0.3235191065023739,1.072350436612224
-3.9535,0.2808384070716433,0.9557874141553824
-3.953,0.2381577076409128,0.8180311148882058
-3.9525,0.1527963087794516,0.457745409112513
-3.952,0.02475421048725994,0.01268659609548085
-3.9515,-0.3380317346739499,-0.2946159176543747
-3.951,-0.6688071552621118,-0.326405832869877
-3.9505,-1.084943974711735,-0.7820612842920766
-3.95,-1.586442193022819,-1.280103289334946
-3.9495,-1.586442193022819,-1.269506650929778
-3.949,-0.9995825758502737,-0.7290780922662394
-3.9485,-0.3380317346739499,-0.2310360872233701
-3.948,0.1741366584948169,0.08686306493165288
-3.9475,0.4302208550792003,0.2034260873884947
-3.947,0.5262524287983441,0.1292496185523226
-3.9465,0.5902734779444399,-0.04029659593035631
-3.946,0.825017324813458,-0.326405832869877
-3.9455,0.8783681991018712,-0.3793890248957141
-3.945,0.7503261008096795,-0.2204394488182027
-3.9445,0.6009436528021226,-0.008506680714854012
-3.944,0.5689331282290746,0.09745970333682032
-3.9435,0.707645401378949,-0.3158091944647096
-3.943,0.5155822539406614,-0.8986243067489184
-3.9425,-0.1886492866663929,-1.449649503817625
-3.942,-0.9675720512772257,-1.788741932782983
-3.9415,-1.543761493592088,-1.778145294377815
-3.941,-1.565101843307454,-1.34368311976595
-3.9405,-1.020922925565639,-0.5383386009732256
-3.94,-0.4554036581084589,0.1822328105781598
-3.9395,-0.01792648894347063,0.6908714540261965
-3.939,0.2274875327832301,0.9663840525605498
-3.9385,0.3448594562177392,1.061753798207057
-3.938,0.3661998059331045,1.061753798207057
-3.9375,0.3555296310754218,0.9981739677760521
-3.937,0.3235191065023739,0.8816109453192104
-3.9365,0.291508581929326,0.7650479228623686
-3.936,0.2381577076409128,0.627291623595192
-3.9355,0.1314559590640864,0.3305857482505039
-3.935,-0.3273615598162672,-0.2628260024388724
-3.9345,-1.010252750707956,-0.9833974139902578
-3.934,-1.51175096901904,-1.598002441489969
-3.9335,-1.725154466172693,-1.915901593644992
-3.933,-1.437059745015262,-1.439052865412457
-3.9325,-0.7648387289812555,-0.6549016234300674
-3.932,-0.1779791118087102,-0.1038764263613609
-3.9315,0.1954770082101822,0.1822328105781598
-3.931,0.3982103305061524,0.2246193641988295
-3.9305,0.5262524287983441,0.1080563417419877
-3.93,0.5689331282290746,0.002089957690313421
-3.9295,0.6969752265212663,-0.02969995752518888
-3.929,0.7503261008096795,-0.008506680714854012
-3.9285,0.7289857510943143,0.002089957690313421
-3.928,0.6436243522328531,0.05507314971615059
-3.9275,0.5475927785137094,0.1928294489833272
-3.927,0.5262524287983441,0.2564092794143318
-3.9265,0.3128489316446912,-0.1568596183871981
-3.926,-0.1139580626626144,-0.7502713690765743
-3.9255,-0.8181896032696687,-1.301296566145281
-3.925,-1.405049220442214,-1.555615887869299
-3.9245,-1.575772018165136,-1.417859588602123
-3.924,-1.095614149569417,-0.7078848154559045
-3.9235,-0.5194247072545548,0.03387987290581572
-3.923,-0.08194753808956648,0.5955017083796896
-3.9225,0.1954770082101822,0.9345941373450475
-3.922,0.3341892813600565,1.082947075017392
-3.9215,0.3661998059331045,1.114736990232894
-3.921,0.3555296310754218,1.072350436612224
-3.9205,0.3235191065023739,0.9663840525605498
-3.92,0.2808384070716433,0.849821030103708
-3.9195,0.2381577076409128,0.6908714540261965
-3.919,0.1954770082101822,0.4683420475176805
-3.9185,-0.06060718837420119,-0.04029659593035631
-3.918,-0.7328282044082075,-0.7714646458869092
-3.9175,-1.330357996438436,-1.42845622700729
-3.917,-1.778505340461106,-1.947691508860494
-3.9165,-2.023919362187807,-1.968884785670829
-3.916,-1.458400094730627,-1.184733543688439
-3.9155,-0.6688071552621118,-0.4111789401112165
-3.915,-0.04993701351651855,0.13984625695749
-3.9145,0.3341892813600565,0.383568940276341
-3.914,0.5369226036560266,0.383568940276341
-3.9135,0.6116138276598051,0.2458126410091644
-3.913,0.6969752265212663,0.02328323450064829
-3.9125,0.8356874996711408,-0.1462629799820306
-3.912,0.79300680024041,-0.1144730647665284
-3.9115,0.8143471499557753,-0.2734226408440398
-3.911,0.825017324813458,-0.2734226408440398
-3.9105,0.7396559259519968,-0.04029659593035631
-3.91,0.4408910299368829,-0.1886495336027004
-3.9095,0.00341386077189465,-0.718481453861072
-3.909,-0.658136980404429,-1.258910012524611
-3.9085,-1.148965023857831,-1.587405803084801
-3.908,-1.052933450138687,-1.163540266878104
-3.9075,-0.6261264558313813,-0.400582301706049
-3.907,-0.1993194615240755,0.2776025562246667
-3.9065,0.1101156093487211,0.7544512844572011
-3.906,0.2808384070716433,1.019367244586387
-3.9055,0.3448594562177392,1.125333628638062
-3.905,0.3661998059331045,1.146526905448396
-3.9045,0.3555296310754218,1.114736990232894
-3.904,0.3128489316446912,1.029963882991555
-3.9035,0.2808384070716433,0.92399749893988
-3.903,0.2488278824985954,0.775644561267536
-3.9025,0.2274875327832301,0.627291623595192
-3.902,0.1954770082101822,0.4895353243280153
-3.9015,-0.2846808603855366,-0.08268314955102604
-3.901,-0.8608703027003992,-0.8244478379127463
-3.9005,-1.26633694729234,-1.460246142222792
-3.9,-1.554431668449771,-1.831128486403653
-3.8995,-1.277007122150022,-1.364876396576285
-3.899,-0.658136980404429,-0.6231117082145651
-3.8985,-0.1139580626626144,-0.05089323433552374
-3.898,0.2488278824985954,0.2881991946298341
-3.8975,0.4729015545099309,0.3411823866556712
-3.897,0.5796033030867573,0.2246193641988295
-3.8965,0.6329541773751706,0.02328323450064829
-3.896,0.8143471499557753,-0.2946159176543747
-3.8955,0.8143471499557753,-0.326405832869877
-3.895,0.6969752265212663,-0.1992461720078678
-3.8945,0.5796033030867573,-0.05089323433552374
-3.894,0.4942419042252961,0.1080563417419877
-3.8935,0.4622313796522482,0.1610395337678249
-3.893,0.05676473506030786,-0.3158091944647096
-3.8925,-0.6261264558313813,-0.9516074987747555
-3.892,-1.202315898146244,-1.396666311791788
-3.8915,-1.565101843307454,-1.51322933424863
-3.891,-1.255666772434657,-0.9939940523954253
-3.8905,-0.690147504977477,-0.2204394488182027
-3.89,-0.1886492866663929,0.4365521323021782
-3.8895,0.142126133921769,0.8710143069140429
-3.889,0.3128489316446912,1.093543713422559
-3.8885,0.3661998059331045,1.178316820663898
-3.888,0.3768699807907871,1.178316820663898
-3.8875,0.3555296310754218,1.104140351827727
-3.887,0.3021787567870086,0.9663840525605498
-3.8865,0.2488278824985954,0.8392243916985406
