Class_11_Cell_phone_Call/Class_11_Cell_phone_Call_Turki_9.csv

#Digilent WaveForms Oscilloscope Acquisition
#Device Name: EExplorer
#Serial Number: SN:210151A2B84A
#Date Time: 2021-01-31 11:27:13.326
#Sample rate: 2000Hz
#Samples: 16384
#Trigger: Source: Channel 1 Type: Edge Condition: Rising Level: 0 V Hyst.: Auto HoldOff: 0 s
#Channel 1: Range: 1 V/div Offset: 0 V Attenuation: 1 X
#Channel 2: Range: 1 V/div Offset: 0 V Attenuation: 1 X
#Power Supplies: ON
#Fixed Supply: ON
#Voltage: 3.3 V Readback: 3.329 V
#Positive Supply: ON
#Voltage: 3.7 V Readback: 3.716 V
#Current: 40 mA Readback: 19 mA
#Negative Supply: ON
#Voltage: -3.7 V Readback: -3.343 V
#Current: -40 mA Readback: -7 mA
#Reference 1: ON
#Voltage: 0 V
#Reference 2: ON
#Voltage: 0 V

Time (s),Channel 1 (V),Channel 2 (V)
-4.096,0.1954770082101822,0.55311515475902
-4.0955,0.1741366584948363,0.5425185163538622
-4.095,0.2061471830681366,0.5531151547591742
-4.0945,0.5049120790829789,0.7226613692416989
-4.094,0.5155822539406517,0.2776025562250715
-4.0935,0.1421261339216331,-0.4111789401113514
-4.093,-0.007256314085787988,-0.5595318777835605
-4.0925,0.1848068333523249,-0.4217755785165092
-4.092,0.3982103305062203,-0.2310360872232256
-4.0915,0.4729015545099309,-0.07208651114585861
-4.091,0.4729015545099309,-0.02969995752518888
-4.0905,0.440891029936815,0.02328323450066756
-4.09,0.3661998059331045,0.04447651131098315
-4.0895,0.3555296310754218,0.05507314971615059
-4.089,0.504912079082843,0.2776025562244643
-4.0885,0.5049120790829789,0.4683420475176805
-4.088,0.4302208550792003,0.5319218779486851
-4.0875,0.3341892813601439,0.5531151547590006
-4.087,0.2594980573560161,0.5637117931639368
-4.0865,-0.02859666380115328,0.2881991946298341
-4.086,-0.7328282044075671,-0.3899856633002647
-4.0855,-1.341028171296438,-1.015187329206088
-4.085,-1.693143941599645,-1.375473034981453
-4.0845,-1.426389570157822,-1.068170521231877
-4.084,-0.8502001278422509,-0.3899856633003419
-4.0835,-0.3380317346739499,0.2034260873884947
-4.083,0.00341386077189465,0.6060983467848571
-4.0825,0.1954770082102501,0.786241199672742
-4.082,0.2701682322139607,0.8286277532933731
-4.0815,0.2701682322139607,0.7862411996727035
-4.081,0.2594980573562878,0.7014680924314411
-4.0805,0.2381577076409128,0.5955017083796896
-4.08,0.2168173579255475,0.4895353243280153
-4.0795,0.1848068333525287,0.404762217086753
-4.079,0.1634664836370664,0.3199891098452593
-4.0785,0.08877525963335578,0.2352160026039969
-4.078,-0.4340633083926182,-0.1462629799816837
-4.0775,-1.127624674142854,-0.8244478379132764
-4.077,-1.554431668449771,-1.407262950196955
-4.0765,-1.277007122150275,-1.301296566145377
-4.076,-0.562105406684703,-0.8244478379123319
-4.0755,0.07810508477567314,-0.3687923864905467
-4.075,0.4302208550792003,-0.08268314955102604
-4.0745,0.5582629533714017,0.002089957690323059
-4.074,0.5689331282290746,0.01268659609548085
-4.0735,0.5049120790829789,0.002089957690313421
-4.073,0.4195506802215953,-0.02969995752515996
-4.0725,0.5369226036560266,0.002089957690313421
-4.072,0.5902734779444399,0.1610395337678249
-4.0715,0.5049120790830565,0.2352160026039295
-4.071,0.3982103305060651,0.2881991946298823
-4.0705,0.3021787567870086,0.3411823866556712
-4.07,0.1421261339219146,0.3411823866556712
-4.0695,-0.3060212101012028,0.1292496185518407
-4.069,-0.6367966306890638,-0.400582301706049
-4.0685,-0.9569018764195432,-0.9622041371799229
-4.068,-1.010252750707665,-1.078767159636312
-4.0675,-0.690147504977477,-0.5807251545938954
-4.067,-0.3166913849585846,0.01268659609548085
-4.0665,-0.0285966638009883,0.4895353243282659
-4.066,0.1527963087794516,0.7650479228623686
-4.0655,0.2381577076409128,0.8922075837243778
-4.065,0.2594980573562586,0.9134008605346934
-4.0645,0.2488278824985954,0.8710143069140429
-4.064,0.2381577076409128,0.7968378380778709
-4.0635,0.2274875327832398,0.7120647308366086
-4.063,0.2061471830678551,0.6272916235951149
-4.0625,0.1954770082101822,0.5425185163538525
-4.062,0.1741366584948363,0.4577454091125902
-4.0615,-0.07127736323238847,0.1292496185516769
-4.061,-0.6261264558313813,-0.5807251545938954
-4.0605,-1.042263275281004,-1.280103289334946
-4.06,-1.244996597576567,-1.682775548730981
-4.0595,-0.7968492535543035,-1.322489842955616
-4.059,-0.1459685872356623,-0.7502713690765743
-4.0585,0.2915085819289281,-0.3052125560599469
-4.058,0.4942419042252961,-0.04029659593035631
-4.0575,0.5262524287983441,0.06566978812131802
-4.057,0.4729015545099794,0.09745970333679141
-4.0565,0.3875401556484697,0.05507314971615059
-4.056,0.4302208550792003,-0.01910331912002144
-4.0555,0.5155822539405838,-0.1250697031715994
-4.055,0.4622313796521705,-0.125069703171638
-4.0545,0.3768699807907871,-0.06148987274069118
-4.054,0.2915085819294037,0.01268659609541339
-4.0535,0.2381577076406216,0.1504428953631008
-4.053,-0.08194753808956648,0.6378882620003594
-4.0525,-0.754168554123573,0.7544512844572011
-4.052,-1.373038695869506,0.05507314971553378
-4.0515,-1.746494815888059,-0.6231117082145651
-4.051,-1.479740444445993,-0.7608680074817418
-4.0505,-0.8822106524163079,-0.4111789401115345
-4.05,-0.3593720843893152,0.03387987290581572
-4.0495,0.00341386077189465,0.4153588554918433
-4.049,0.1954770082100075,0.6696781772156304
-4.0485,0.2701682322139704,0.8180311148882733
-4.048,0.2808384070716433,0.8922075837243778
-4.0475,0.2701682322139704,0.9134008605346934
-4.047,0.2381577076408934,0.9134008605346934
-4.0465,0.2168173579255475,0.8922075837243778
-4.046,0.1954770082102016,0.8710143069140622
-4.0455,0.1741366584947393,0.8392243916984539
-4.045,0.08877525963335578,0.7438546460520338
-4.0445,-0.3487019095316325,0.1716361721729923
-4.044,-0.7221580295506803,-0.6654982618358999
-4.0435,-0.8928808272734472,-1.396666311791788
-4.043,-0.5941159312583333,-1.587405803084801
-4.0425,0.003413860771351196,-1.099960436447543
-4.042,0.4408910299368829,-0.5807251545938954
-4.0415,0.6542945270905358,-0.2310360872233701
-4.041,0.6436243522328627,-0.07208651114600317
-4.0405,0.5369226036559198,0.002089957690332696
-4.04,0.4195506802215176,0.02328323450064829
-4.0395,0.3875401556484989,-0.06148987274061407
-4.039,0.5369226036560072,-0.2628260024388435
-4.0385,0.5155822539406614,-0.2310360872233701
-4.038,0.430220855079278,-0.1144730647666344
-4.0375,0.3341892813599983,0.01268659609557723
-4.037,0.2701682322139607,0.1186529801471552
-4.0365,-0.007256314085787988,0.06566978812131802
-4.036,-0.6367966306895004,-0.4853554089479957
-4.0355,-1.116954499284783,-1.152943628472937
-4.035,-1.362368521011484,-1.364876396576285
-4.0345,-1.2770071221501,-1.099960436447341
-4.034,-0.8181896032696687,-0.5383386009732256
-4.0335,-0.3487019095316325,-0.01910331912002144
-4.033,-0.01792648894377141,0.3411823866553436
-4.0325,0.1741366584948848,0.5531151547591067
-4.032,0.2488278824985954,0.6484849004055269
-4.0315,0.2701682322139413,0.6696781772158423
-4.031,0.2594980573562586,0.6484849004055075
-4.0305,0.2381577076409128,0.627291623595192
-4.03,0.2274875327832398,0.5955017083797185
-4.0295,0.2061471830678551,0.5637117931641585
-4.029,0.1954770082101822,0.5319218779486851
-4.0285,0.1741366584948169,0.5107286011383502
-4.028,-0.1459685872360311,0.489535324327572
-4.0275,-0.5514352318276028,0.002089957690313421
-4.027,-0.6047861061160158,-0.718481453861072
-4.0265,-0.4233931335355759,-1.1635402668777
-4.026,0.05676473506030786,-0.9728007755850904
-4.0255,0.4622313796522482,-0.5595318777835605
-4.025,0.6329541773750154,-0.1992461720081955
-4.0245,0.6329541773750832,-0.01910331911995398
-4.024,0.5369226036560266,0.05507314971615059
-4.0235,0.4302208550792974,0.05507314971615059
-4.023,0.3661998059332112,0.08686306493181672
-4.0225,0.4835717293676135,0.2670059178194992
-4.022,0.4942419042252864,0.3199891098452882
-4.0215,0.4302208550791227,0.2881991946298052
-4.021,0.3448594562177392,0.2564092794143318
-4.0205,0.2808384070716433,0.2458126410091644
-4.02,0.1741366584943026,0.0550731497155916
-4.0195,-0.391382608962363,-0.5595318777835605
-4.019,-0.9889124009925911,-1.227120097309109
-4.0185,-1.319687821580452,-1.587405803084474
-4.018,-1.373038695869166,-1.311893204550448
-4.0175,-0.9675720512772257,-0.6549016234300674
-4.017,-0.4767440078242707,-0.0191033191205997
-4.0165,-0.1032878878047183,0.4471487707075865
-4.016,0.1314559590640864,0.7120647308365314
-4.0155,0.2381577076408157,0.8180311148881094
-4.015,0.2701682322139607,0.8392243916985117
-4.0145,0.2701682322139607,0.8074344764830383
-4.014,0.2488278824986148,0.7544512844572493
-4.0135,0.2274875327832107,0.6908714540261387
-4.013,0.2061471830678648,0.627291623595192
-4.0125,0.1954770082101822,0.5637117931641874
-4.012,0.1741366584946034,0.5001319627330768
-4.0115,-0.06060718837420119,0.383568940276341
-4.011,-0.6367966306890638,-0.1356663415768632
-4.0105,-1.180975548430384,-0.8774310299379088
-4.01,-1.490410619303675,-1.34368311976595
-4.0095,-0.9995825758502737,-1.110557074852267
-4.009,-0.2740106855285139,-0.6337083466201663
-4.0085,0.2808384070718762,-0.1992461720076365
-4.008,0.5369226036560266,0.05507314971615059
-4.0075,0.5689331282290455,0.1716361721728863
-4.007,0.4835717293675262,0.1716361721729538
-4.0065,0.3875401556484697,0.1292496185523226
-4.006,0.4302208550792003,-0.01910331912002144
-4.0055,0.4942419042252476,-0.1356663415768439
-4.005,0.4408910299368829,-0.1144730647665284
-4.0045,0.3661998059331045,-0.02969995752518888
-4.004,0.3128489316445845,0.06566978812134693
-4.0035,0.1954770082101822,0.09745970333682032
-4.003,-0.3380317346739499,-0.3581957480853793
-4.0025,-1.010252750707345,-1.015187329205163
-4.002,-1.437059745015262,-1.523825972653797
-4.0015,-1.501080794161358,-1.354279758171118
-4.001,-1.063603624996768,-0.7290780922668081
-4.0005,-0.5407650569695416,-0.1038764263609465
-4,-0.124628237520297,0.3517790250608387
-3.9995,0.1314559590640864,0.627291623595192
-3.999,0.2488278824985954,0.7544512844572011
-3.9985,0.2808384070716433,0.775644561267536
-3.998,0.2701682322139607,0.7650479228623686
-3.9975,0.2594980573562781,0.7226613692416989
-3.997,0.2381577076409128,0.6802748156210291
-3.9965,0.2061471830678648,0.627291623595192
-3.996,0.1848068333524996,0.5849050699745222
-3.9955,0.1848068333524996,0.5319218779486851
-3.995,-0.03926683865883591,0.3729723018711736
-3.9945,-0.690147504977477,-0.2946159176543747
-3.994,-1.223656247861609,-1.046977244421262
-3.9935,-1.437059745015262,-1.42845622700729
-3.993,-0.9782422261349084,-1.046977244421262
-3.9925,-0.3273615598162672,-0.4959520473525559
-3.992,0.1634664836371343,-0.1250697031716958
-3.9915,0.4302208550792003,0.05507314971615059
-3.991,0.5155822539406614,0.1186529801471552
-3.9905,0.5049120790829789,0.1504428953626575
-3.99,0.4408910299368829,0.09745970333682032
-3.9895,0.4302208550792003,0.03387987290581572
-3.989,0.5582629533713921,-0.06148987274069118
-3.9885,0.5369226036560266,-0.07208651114585861
-3.988,0.4408910299368829,-0.01910331912002144
-3.9875,0.3448594562177392,0.06566978812131802
-3.987,0.2701682322139607,0.13984625695749
-3.9865,-0.007256314085787988,0.002089957690313421
-3.986,-0.6794773301197943,-0.5807251545938954
-3.9855,-0.9995825758502737,-1.195330182093607
-3.985,-1.234326422719292,-1.608599079895136
-3.9845,-1.074273799854052,-1.290699927740113
-3.984,-0.6474668055467465,-0.5807251545938954
-3.9835,-0.2420001609548061,0.06566978812131802
-3.983,0.04609456020262521,0.5213252395435176
-3.9825,0.2061471830678648,0.775644561267536
-3.982,0.2701682322139607,0.8816109453192104
-3.9815,0.2701682322139607,0.8922075837243778
-3.981,0.2594980573562781,0.849821030103708
-3.9805,0.2488278824985954,0.7968378380778709
-3.98,0.2274875327832301,0.7332580076468663
-3.9795,0.1954770082101822,0.6696781772158616
-3.979,0.1848068333524996,0.6060983467848571
-3.9785,0.142126133921769,0.5107286011383502
-3.978,-0.2206598112394408,0.02328323450064829
-3.9775,-0.8608703027003992,-0.7502713690765743
-3.977,-1.383708870726849,-1.354279758171118
-3.9765,-1.127624674142465,-1.195330182093607
-3.976,-0.4660738329661415,-0.718481453861072
-3.9755,0.1101156093487211,-0.3158091944647096
-3.975,0.4302208550792003,-0.08268314955102604
-3.9745,0.5369226036560266,-0.008506680714854012
-3.974,0.5049120790829789,0.002089957690313421
-3.9735,0.4408910299368829,-0.01910331912002144
-3.973,0.3768699807907871,-0.02969995752518888
-3.9725,0.5155822539406614,-0.04029659593035631
-3.972,0.5369226036560266,-0.05089323433552374
-3.9715,0.4622313796522482,-0.008506680714854012
-3.971,0.3768699807907871,0.06566978812131802
-3.9705,0.3021787567870086,0.13984625695749
-3.97,0.03542438534494258,-0.008506680714854012
-3.9695,-0.6047861061160158,-0.6125150698093976
-3.969,-1.234326422719292,-1.248313374119443
-3.9685,-1.522421143876723,-1.714565463946811
-3.968,-1.447729919872945,-1.619195718300304
-3.9675,-0.9462317015618604,-0.8774310299385835
-3.967,-0.4340633083930936,-0.1356663415768632
-3.9665,-0.04993701351651855,0.4259554938970107
-3.966,0.1741366584948169,0.7650479228623686
-3.9655,0.2701682322139607,0.9028042221295453
-3.965,0.291508581929326,0.9451907757502149
-3.9645,0.2808384070716433,0.9134008605347127
-3.964,0.2594980573562781,0.849821030103708
-3.9635,0.2381577076409128,0.775644561267536
-3.963,0.2168173579255475,0.701468092431364
-3.9625,0.1954770082101822,0.627291623595192
-3.962,0.1741366584948169,0.55311515475902
-3.9615,-0.06060718837420119,0.4789386859228479
-3.961,-0.6688071552621118,0.01268659609548085
-3.9605,-1.170305373573196,-0.7396747306714069
-3.96,-1.202315898146244,-1.046977244421262
-3.9595,-0.6688071552621118,-0.792657922697244
-3.959,-0.08194753808956648,-0.4535654937318862
-3.9585,0.3341892813600565,-0.1780528951975329
-3.958,0.4942419042252961,-0.01910331912002144
-3.9575,0.5049120790829789,0.05507314971615059
-3.957,0.4622313796522482,0.06566978812131802
-3.9565,0.3875401556484697,0.03387987290581572
-3.956,0.4408910299368829,0.002089957690313421
-3.9555,0.5049120790829789,-0.04029659593035631
-3.955,0.4622313796522482,-0.04029659593035631
-3.9545,0.3768699807907871,0.002089957690313421
-3.954,0.3128489316446912,0.05507314971615059
-3.9535,0.2168173579255475,0.07626642652648545
-3.953,-0.2099896363817582,-0.1674562567923655
-3.9525,-0.9142211769888124,-0.718481453861072
-3.952,-1.341028171296118,-1.237716735714276
-3.9515,-1.565101843307454,-1.481439419033127
-3.951,-1.277007122150022,-1.121153713257435
-3.9505,-0.7434983792658902,-0.4429688553267188
-3.95,-0.2633405106701714,0.1716361721729923
-3.9495,0.05676473506030786,0.5849050699745222
-3.949,0.2274875327832301,0.8286277532933731
-3.9485,0.291508581929326,0.92399749893988
-3.948,0.291508581929326,0.9345941373450475
-3.9475,0.2808384070716433,0.9028042221295453
-3.947,0.2594980573562781,0.849821030103708
-3.9465,0.2274875327832301,0.7862411996727035
-3.946,0.2168173579255475,0.7332580076468663
-3.9455,0.1954770082101822,0.6696781772158616
-3.945,-0.04993701351651855,0.4789386859228479
-3.9445,-0.690147504977477,-0.2204394488182027
-3.944,-1.159635198715513,-1.004590690800593
-3.9435,-1.138294849000148,-1.417859588602123
-3.943,-0.6367966306890638,-1.068170521231597
-3.9425,-0.02859666380115328,-0.570128516188728
-3.942,0.3875401556484697,-0.1886495336027004
-3.9415,0.5796033030867573,-0.008506680714854012
-3.941,0.5902734779444399,0.002089957690313421
-3.9405,0.5369226036560266,-0.1038764263613609
-3.94,0.4622313796522482,-0.1780528951975329
-3.9395,0.4195506802215176,-0.252229364033705
-3.939,0.4835717293676135,-0.3475991096802118
-3.9385,0.4515612047945656,-0.2840192792492073
-3.938,0.3768699807907871,-0.1568596183871981
-3.9375,0.3128489316446912,-0.01910331912002144
-3.937,0.2594980573562781,0.1080563417419877
-3.9365,0.00341386077189465,0.2458126410091644
-3.936,-0.5834457564006506,0.13984625695749
-3.9355,-1.095614149569417,-0.474758770542221
-3.935,-1.437059745015262,-1.05757388282643
-3.9345,-1.223656247861609,-0.9516074987747555
-3.934,-0.722158029550525,-0.400582301706049
-3.9335,-0.2633405106701714,0.1504428953626575
-3.933,0.04609456020262521,0.5637117931641874
-3.9325,0.2168173579255475,0.7968378380778709
-3.932,0.2808384070716433,0.9134008605347127
-3.9315,0.291508581929326,0.9345941373450475
-3.931,0.2808384070716433,0.9134008605347127
-3.9305,0.2594980573562781,0.8604176685088755
-3.93,0.2381577076409128,0.7968378380778709
-3.9295,0.2168173579255475,0.7226613692416989
-3.929,0.2061471830678648,0.6590815388106942
-3.9285,0.2061471830678648,0.5743084315693548
-3.928,0.05676473506030786,0.2670059178194992
-3.9275,-0.3700422592469978,-0.4217755785163839
-3.927,-0.722158029550525,-1.0999604364471
-3.9265,-0.7114878546928423,-1.280103289334946
-3.926,-0.2526703358124887,-0.9516074987747555
-3.9255,0.2061471830678648,-0.5171453241628908
-3.925,0.4622313796522482,-0.1568596183871981
-3.9245,0.5262524287983441,0.002089957690313421
-3.924,0.5155822539406614,0.02328323450064829
-3.9235,0.4515612047945656,0.002089957690313421
-3.923,0.408880505363835,-0.01910331912002144
-3.9225,0.6116138276598051,-0.06148987274069118
-3.922,0.7183155762366316,-0.1038764263613609
-3.9215,0.6222840025174878,-0.04029659593035631
-3.921,0.4729015545099309,0.04447651131098315
-3.9205,0.3555296310754218,0.1504428953626575
-3.92,0.1634664836371343,0.1292496185523226
-3.9195,-0.4127229586777283,-0.3370024712750445
-3.919,-1.020922925565639,-0.9939940523954253
-3.9185,-1.30901764672307,-1.502632695843462
-3.918,-1.191645723288561,-1.364876396576285
-3.9175,-0.7434983792658902,-0.7078848154559045
-3.917,-0.2953510352432193,-0.04029659593035631
-3.9165,0.02475421048725994,0.4471487707073456
-3.916,0.1954770082101822,0.7226613692416989
-3.9155,0.2701682322139607,0.849821030103708
-3.915,0.291508581929326,0.8710143069140429
-3.9145,0.2808384070716433,0.8392243916985406
-3.914,0.2594980573562781,0.7862411996727035
-3.9135,0.2381577076409128,0.7226613692416989
-3.913,0.2168173579255475,0.6590815388106942
-3.9125,0.2061471830678648,0.5955017083796896
-3.912,0.1634664836371343,0.5213252395435176
-3.9115,-0.2099896363817582,0.3941655786815084
-3.911,-0.8715404775580819,-0.05089323433552374
-3.9105,-1.351698346153801,-0.792657922697244
-3.91,-1.479740444445993,-1.322489842955616
-3.9095,-0.8715404775580819,-1.131750351662602
-3.909,-0.09261771294724913,-0.6654982618352349
-3.9085,0.4515612047945656,-0.2098428104130352
-3.908,0.6649647019482183,0.06566978812131802
-3.9075,0.6542945270905358,0.1504428953626575
-3.907,0.5582629533713921,0.1610395337678249
-3.9065,0.4408910299368829,0.1080563417419877
-3.906,0.4729015545099309,0.1292496185523226
-3.9055,0.5155822539406614,0.1610395337678249
-3.905,0.4515612047945656,0.13984625695749
-3.9045,0.3768699807907871,0.1292496185523226
-3.904,0.3128489316446912,0.1292496185523226
-3.9035,0.2488278824985954,0.1292496185523226
-3.903,-0.1352984123779797,0.1610395337678249
-3.9025,-0.8715404775580819,-0.1780528951975329
-3.902,-1.426389570157579,-0.8456411147230812
-3.9015,-1.618452717595867,-1.205926820498774
-3.901,-1.170305373573196,-0.8668343915334161
-3.9005,-0.6047861061160158,-0.2946159176543747
-3.9,-0.156638762093345,0.2034260873884947
-3.8995,0.1207857842064037,0.5425185163538525
-3.899,0.2594980573562781,0.7226613692416989
-3.8985,0.3021787567870086,0.7968378380778709
-3.898,0.3021787567870086,0.8074344764830383
-3.8975,0.2808384070716433,0.7862411996727035
-3.897,0.2594980573562781,0.7332580076468663
-3.8965,0.2381577076409128,0.6908714540261965
-3.896,0.2061471830678648,0.6590815388106942
-3.8955,0.1848068333524996,0.6166949851900245
-3.895,-0.07127736323188383,0.457745409112513
-3.8945,-0.658136980404429,-0.2416327256285375
-3.894,-1.06360362499637,-1.025783967610927
-3.8935,-1.191645723288561,-1.460246142222792
-3.893,-0.7008176798351597,-1.174136905283272
-3.8925,-0.08194753808956648,-0.6654982618352349
-3.892,0.3448594562177392,-0.2416327256285375
-3.8915,0.5582629533713921,-0.008506680714854012
-3.891,0.5689331282290746,0.08686306493165288
-3.8905,0.5049120790829789,0.09745970333682032
-3.89,0.4302208550792003,0.06566978812131802
-3.8895,0.4515612047945656,0.13984625695749
-3.889,0.5796033030867573,0.3199891098453364
-3.8885,0.5475927785137094,0.2987958330350016
-3.888,0.4408910299368829,0.2140227257936621
