Class_11_Cell_phone_Call/Class_11_Cell_phone_Call_Basim_4.csv

#Digilent WaveForms Oscilloscope Acquisition
#Device Name: EExplorer
#Serial Number: SN:210151A2B84A
#Date Time: 2020-12-15 14:01:13.541
#Sample rate: 2000Hz
#Samples: 16384
#Trigger: Source: Channel 1 Type: Edge Condition: Rising Level: 0 V Hyst.: Auto HoldOff: 0 s
#Channel 1: Range: 1 V/div Offset: 0 V Attenuation: 1 X
#Channel 2: Range: 1 V/div Offset: 0 V Attenuation: 1 X
#Power Supplies: ON
#Fixed Supply: ON
#Voltage: 3.3 V Readback: 3.327 V
#Positive Supply: ON
#Voltage: 3.7 V Readback: 3.713 V
#Current: 40 mA Readback: 19 mA
#Negative Supply: ON
#Voltage: -3.7 V Readback: -3.346 V
#Current: -40 mA Readback: -7 mA
#Reference 1: ON
#Voltage: 0 V
#Reference 2: ON
#Voltage: 0 V

Time (s),Channel 1 (V),Channel 2 (V)
-4.096,0.3128489316446912,0.05507314971615059
-4.0955,-0.2740106855273203,-0.5701285161881593
-4.095,-1.042263275281218,-1.13175035166266
-4.0945,-1.277007122150022,-1.195330182093607
-4.094,-0.6367966306896461,-0.7820612842924524
-4.0935,0.01408403562993636,-0.4111789401108599
-4.093,0.408880505363835,-0.01910331912002144
-4.0925,0.5796033030866021,0.2352160026037656
-4.092,0.6009436528020935,0.3411823866556712
-4.0915,0.5689331282290746,0.3411823866556712
-4.091,0.5155822539406614,0.2776025562246667
-4.0905,0.5689331282291135,0.2987958330349919
-4.09,0.6116138276598051,0.2881991946298341
-4.0895,0.5689331282290746,0.1610395337678249
-4.089,0.5155822539407099,0.002089957690457972
-4.0885,0.4622313796522482,-0.1356663415768632
-4.088,0.408880505363835,-0.1992461720078678
-4.0875,0.003413860772263411,0.1928294489829706
-4.087,-0.7648387289819348,0.8392243916985888
-4.0865,-1.51175096901904,0.8922075837243778
-4.086,-2.05592988676036,0.6272916235954329
-4.0855,-1.735824641029658,0.4471487707069987
-4.085,-0.9462317015618604,0.06566978812131802
-4.0845,-0.2846808603861383,-0.2522293640334159
-4.084,0.1634664836373478,-0.4217755785164128
-4.0835,0.3982103305061524,-0.4535654937318862
-4.083,0.4942419042252961,-0.3793890248957141
-4.0825,0.5049120790829692,-0.25222936403357
-4.082,0.4942419042252961,-0.1038764263613609
-4.0815,0.4622313796522482,0.05507314971615059
-4.081,0.4302208550792295,0.1928294489832019
-4.0805,0.4195506802215176,0.3199891098453364
-4.08,0.4195506802215176,0.4259554938970107
-4.0795,0.3021787567871154,0.2881991946299594
-4.079,-0.2846808603862354,-0.2840192792497759
-4.0785,-1.052933450138687,-0.9092209451540858
-4.078,-1.533091318733969,-1.237716735713978
-4.0775,-0.9675720512765269,-0.909220945153787
-4.077,-0.1993194615240755,-0.5807251545938954
-4.0765,0.3021787567865525,-0.1992461720082148
-4.076,0.5369226036560848,0.118652980147319
-4.0755,0.6009436528021226,0.2987958330350016
-4.075,0.5796033030867573,0.3411823866556712
-4.0745,0.536922603656017,0.2987958330349341
-4.074,0.5262524287983441,0.2246193641988295
-4.0735,0.5796033030867573,0.1716361721729923
-4.073,0.5582629533714115,0.0656697881214144
-4.0725,0.5049120790829789,-0.06148987274069118
-4.072,0.4622313796522482,-0.1780528951975329
-4.0715,0.4302208550792295,-0.2628260024387953
-4.071,0.1421261339211091,-0.02969995752459135
-4.0705,-0.5834457564006506,0.627291623595192
-4.07,-1.351698346153102,1.082947075016977
-4.0695,-1.906547438753424,0.7862411996726071
-4.069,-2.045259711903173,0.6802748156210291
-4.0685,-1.330357996438436,0.3729723018711736
-4.068,-0.583445756400146,-0.008506680715094951
-4.0675,-0.02859666380115328,-0.2734226408440398
-4.067,0.3128489316446912,-0.3793890248957141
-4.0665,0.4729015545099697,-0.36879238649046
-4.066,0.5155822539406614,-0.2734226408440398
-4.0655,0.5049120790829789,-0.1462629799820306
-4.065,0.47290155450996,0.002089957690178501
-4.0645,0.4408910299368829,0.1504428953626575
-4.064,0.4195506802215176,0.2670059178194992
-4.0635,0.4195506802215176,0.3729723018710772
-4.063,0.3875401556482271,0.3835689402759073
-4.0625,0.1207857842064037,-0.09327978795619347
-4.062,-0.5621054066846642,-0.739674730670819
-4.0615,-1.266336947292282,-1.227120097309051
-4.061,-1.202315898146244,-1.163540266878104
-4.0605,-0.5514352318276028,-0.7396747306714069
-4.06,0.03542438534527253,-0.2204394488178461
-4.0595,0.3982103305061524,0.1716361721729923
-4.059,0.5582629533713921,0.4047622170866759
-4.0585,0.5796033030867379,0.4789386859227804
-4.058,0.5475927785137094,0.457745409112513
-4.0575,0.5155822539406614,0.3517790250608387
-4.057,0.5902734779443719,0.288199194629892
-4.0565,0.6009436528021226,0.1610395337678249
-4.056,0.5475927785137094,-0.01910331912002144
-4.0555,0.4942419042253446,-0.199246172007704
-4.055,0.4515612047945268,-0.3475991096802408
-4.0545,0.408880505363835,-0.3793890248957141
-4.054,0.003413860772263411,0.1610395337673335
-4.0535,-0.7861790786972807,0.8074344764829708
-4.053,-1.51175096901904,0.7332580076468663
-4.0525,-1.917217613610981,0.6378882620003594
-4.052,-1.405049220441564,0.3305857482501183
-4.0515,-0.690147504977477,-0.09327978795619347
-4.051,-0.1139580626626144,-0.400582301706049
-4.0505,0.2594980573559384,-0.5489352393782582
-4.05,0.4408910299368829,-0.5595318777835605
-4.0495,0.5049120790829789,-0.4641621321370536
-4.049,0.4942419042253058,-0.3264058328700023
-4.0485,0.4729015545099114,-0.1568596183870439
-4.048,0.4515612047945656,0.01268659609548085
-4.0475,0.4302208550792198,0.1716361721728478
-4.047,0.4195506802215079,0.3093924714402653
-4.0465,0.408880505363835,0.4153588554918433
-4.046,0.1207857842066657,0.118652980147425
-4.0455,-0.5834457564013396,-0.4853554089478896
-4.045,-1.341028171296118,-1.036380606016095
-4.0445,-1.543761493592088,-1.216523458903942
-4.044,-0.8715404775574609,-0.9304142219639389
-4.0435,-0.1886492866663929,-0.400582301706049
-4.043,0.2594980573562781,0.1186529801471552
-4.0425,0.4835717293674097,0.4683420475173625
-4.042,0.5582629533713921,0.6166949851900245
-4.0415,0.5475927785137094,0.6166949851900245
-4.041,0.5155822539406905,0.5107286011384465
-4.0405,0.5902734779444884,0.4259554938969239
-4.04,0.6436243522328531,0.3305857482505039
-4.0395,0.6009436528021614,0.1292496185525057
-4.039,0.5262524287982956,-0.08268314955120916
-4.0385,0.4729015545099309,-0.2840192792492073
-4.038,0.3982103305062203,-0.400582301705943
-4.0375,-0.06060718837490962,-0.01910331911944319
-4.037,-0.839529952985034,0.6166949851900245
-4.0365,-1.565101843307454,0.5213252395435176
-4.036,-2.066600061618169,0.2564092794142162
-4.0355,-1.661133417026597,0.1292496185523226
-4.035,-0.8715404775580819,-0.1568596183871981
-4.0345,-0.2313299860977057,-0.4005823017058274
-4.034,0.1954770082101822,-0.5383386009732256
-4.0335,0.4195506802215176,-0.5595318777835605
-4.033,0.5049120790829013,-0.4853554089474559
-4.0325,0.5049120790829594,-0.3793890248955792
-4.032,0.4835717293676135,-0.2310360872233701
-4.0315,0.4622313796522676,-0.08268314955116096
-4.031,0.4302208550791906,0.06566978812143368
-4.0305,0.4195506802215176,0.1928294489833272
-4.03,0.4195506802215176,0.3093924714400629
-4.0295,0.3448594562172927,0.2140227257931609
-4.029,-0.1459685872356623,-0.3370024712750445
-4.0285,-0.9248913518464952,-0.9410108603695881
-4.028,-1.51175096901874,-1.3330864813606
-4.0275,-1.180975548430879,-1.131750351662602
-4.027,-0.4874141826815069,-0.4641621321370536
-4.0265,0.07810508477515882,0.05507314971567834
-4.026,0.4195506802215176,0.4153588554918433
-4.0255,0.5582629533713921,0.5849050699745222
-4.025,0.5689331282290649,0.6166949851899957
-4.0245,0.5369226036560363,0.5531151547589621
-4.024,0.5475927785137094,0.4895353243280153
-4.0235,0.6222840025174199,0.4789386859228575
-4.023,0.5902734779443913,0.3093924714399569
-4.0225,0.5369226036560266,0.07626642652648545
-4.022,0.483571729367662,-0.1462629799818282
-4.0215,0.4408910299366792,-0.3370024712748999
-4.021,0.2168173579255475,-0.1780528951975329
-4.0205,-0.4767440078238243,0.4789386859228479
-4.02,-1.255666772435268,0.8498210301034093
-4.0195,-1.927887788468663,0.5213252395435176
-4.019,-2.07727023647622,0.4789386859228479
-4.0185,-1.341028171296788,0.1822328105784296
-4.018,-0.5834457564006506,-0.1886495336027004
-4.0175,-0.01792648894347063,-0.4429688553267188
-4.017,0.3235191065020634,-0.5595318777834545
-4.0165,0.4729015545099697,-0.5489352393783063
-4.016,0.5155822539406614,-0.4535654937318862
-4.0155,0.5049120790829885,-0.3158091944648349
-4.015,0.4729015545099114,-0.1568596183870535
-4.0145,0.4515612047945656,0.002089957690313421
-4.014,0.4302208550792198,0.1504428953625226
-4.0135,0.4195506802214982,0.2670059178195185
-4.013,0.3982103305061524,0.2881991946298341
-4.0125,0.07810508477567314,-0.1462629799820306
-4.012,-0.6474668055473967,-0.7608680074821659
-4.0115,-1.362368521011484,-1.227120097309109
-4.011,-1.277007122150022,-1.280103289334946
-4.0105,-0.6047861061166272,-0.8880276683441075
-4.01,-0.007256314085787988,-0.2310360872233701
-4.0095,0.3555296310754218,0.2881991946298341
-4.009,0.5262524287981889,0.5849050699742524
-4.0085,0.5582629533713824,0.6802748156209906
-4.008,0.5475927785137094,0.6378882620003594
-4.0075,0.5262524287983635,0.5319218779487814
-4.007,0.6329541773751802,0.5531151547588851
-4.0065,0.6436243522328531,0.4047622170866759
-4.006,0.5902734779444399,0.1504428953626575
-4.0055,0.5155822539406129,-0.1144730647667211
-4.005,0.4622313796522482,-0.326405832869877
-4.0045,0.3768699807907871,-0.4217755785163839
-4.004,-0.1139580626633228,0.03387987290636506
-4.0035,-0.8928808272734472,0.6378882620003594
-4.003,-1.586442193022819,0.4153588554918433
-4.0025,-1.991908837614391,-0.3793890248949912
-4.002,-1.501080794161358,-0.8350444763179138
-4.0015,-0.7648387289812555,-0.8244478379127463
-4.001,-0.156638762093898,-0.6443049850250638
-4.0005,0.2381577076410971,-0.4323722169213875
-4,0.4408910299368829,-0.252229364033705
-3.9995,0.5049120790829789,-0.1144730647665284
-3.999,0.5049120790829789,-0.01910331912002144
-3.9985,0.4835717293676135,0.05507314971615059
-3.998,0.4515612047945656,0.1186529801471552
-3.9975,0.4302208550792003,0.1610395337678249
-3.997,0.4195506802215176,0.1822328105781598
-3.9965,0.4195506802215176,0.1610395337678249
-3.996,0.4408910299368829,-0.252229364033705
-3.9955,-0.007256314085787988,-0.9622041371799229
-3.995,-0.7755089038389382,-1.587405803084801
-3.9945,-1.191645723288561,-1.778145294377815
-3.994,-0.7968492535543035,-1.290699927740113
-3.9935,-0.2313299860971235,-0.6549016234300674
-3.993,0.1954770082101822,-0.1038764263613609
-3.9925,0.4408910299368829,0.2458126410091644
-3.992,0.5369226036560266,0.4047622170866759
-3.9915,0.5369226036560266,0.4153588554918433
-3.991,0.5155822539406614,0.3517790250608387
-3.9905,0.5902734779444399,0.3411823866556712
-3.99,0.6542945270905358,0.309392471440169
-3.9895,0.6116138276598051,0.1610395337678249
-3.989,0.5369226036560266,0.002089957690313421
-3.9885,0.4835717293676135,-0.1462629799820306
-3.988,0.408880505363835,-0.2310360872233701
-3.9875,-0.007256314085787988,0.1504428953626575
-3.987,-0.7755089038389382,0.8392243916985406
-3.9865,-1.51175096901904,1.114736990232894
-3.986,-2.03458953704549,0.9557874141553824
-3.9855,-1.767835165603424,0.7544512844572011
-3.985,-0.9782422261349084,0.2670059178194992
-3.9845,-0.3060212101009019,-0.1674562567923655
-3.984,0.1527963087794516,-0.4323722169215513
-3.9835,0.3982103305061524,-0.5065486857577234
-3.983,0.4942419042252961,-0.4641621321370536
-3.9825,0.5155822539406614,-0.3370024712750445
-3.982,0.4942419042252961,-0.1886495336027004
-3.9815,0.4622313796522482,-0.008506680714854012
-3.981,0.4408910299368829,0.13984625695749
-3.9805,0.4195506802215176,0.2776025562246667
-3.98,0.4195506802215176,0.3941655786815084
-3.9795,0.2808384070716433,0.2987958330350016
-3.979,-0.3273615598162672,-0.2628260024388724
-3.9785,-1.084943974711735,-0.8562377531282487
-3.978,-1.586442193022819,-1.174136905283272
-3.9775,-0.9995825758502737,-0.792657922697244
-3.977,-0.2099896363817582,-0.4429688553267188
-3.9765,0.3128489316446912,-0.1144730647665284
-3.976,0.5689331282290746,0.1716361721729923
-3.9755,0.6436243522328531,0.3411823866556712
-3.975,0.6116138276598051,0.383568940276341
-3.9745,0.5475927785137094,0.3517790250608387
-3.974,0.5582629533713921,0.3305857482505039
-3.9735,0.6649647019482183,0.4047622170866759
-3.973,0.6542945270905358,0.2881991946298341
-3.9725,0.5796033030867573,0.09745970333682032
-3.972,0.5049120790829789,-0.08268314955102604
-3.9715,0.4515612047945656,-0.2204394488182027
-3.971,0.2061471830678648,-0.07208651114585861
-3.9705,-0.5087545323968721,0.55311515475902
-3.97,-1.287677297007705,1.072350436612224
-3.9695,-1.917217613610981,0.7438546460520338
-3.969,-2.098610586191586,-0.1462629799820306
-3.9685,-1.394379045584531,-0.6019184314042303
-3.968,-0.6154562809736985,-0.6549016234300674
-3.9675,-0.03926683865883591,-0.5277419625680583
-3.967,0.3021787567870086,-0.3475991096802118
-3.9665,0.4729015545099309,-0.1674562567923655
-3.966,0.5155822539406614,-0.02969995752518888
-3.9655,0.5049120790829789,0.07626642652648545
-3.965,0.4835717293676135,0.1716361721729923
-3.9645,0.4515612047945656,0.2352160026039969
-3.964,0.4302208550792003,0.2776025562246667
-3.9635,0.4195506802215176,0.309392471440169
-3.963,0.3982103305061524,0.2140227257936621
-3.9625,0.1314559590640864,-0.3687923864905467
-3.962,-0.572775581542968,-1.068170521231597
-3.9615,-1.287677297007705,-1.608599079895136
-3.961,-1.191645723288561,-1.566212526274467
-3.9605,-0.5087545323968721,-1.131750351662602
-3.96,0.0674349099179905,-0.5595318777835605
-3.9595,0.3982103305061524,-0.08268314955102604
-3.959,0.5582629533713921,0.2352160026039969
-3.9585,0.5796033030867573,0.3517790250608387
-3.958,0.5475927785137094,0.3411823866556712
-3.9575,0.5369226036560266,0.2670059178194992
-3.957,0.6969752265212663,0.3517790250608387
-3.9565,0.7289857510943143,0.2670059178194992
-3.956,0.6542945270905358,0.06566978812131802
-3.9555,0.5582629533713921,-0.1462629799820306
-3.955,0.4835717293676135,-0.3052125560595421
-3.9545,0.3555296310754218,-0.3052125560595421
-3.954,-0.2099896363817582,0.2458126410091644
-3.9535,-0.9995825758502737,0.8604176685088755
-3.953,-1.725154466172693,0.5743084315693548
-3.9525,-2.045259711903173,-0.2628260024388724
-3.952,-1.405049220442214,-0.6760949002404023
-3.9515,-0.6474668055467465,-0.6866915386455698
-3.951,-0.07127736323188383,-0.5383386009732256
-3.9505,0.2808384070716433,-0.3370024712750445
-3.95,0.4622313796522482,-0.1568596183871981
-3.9495,0.5155822539406614,-0.01910331912002144
-3.949,0.5049120790829789,0.09745970333682032
-3.9485,0.4835717293676135,0.1822328105781598
-3.948,0.4515612047945656,0.2564092794143318
-3.9475,0.4302208550792003,0.2987958330350016
-3.947,0.4195506802215176,0.3199891098453364
-3.9465,0.4195506802215176,0.309392471440169
-3.946,0.1741366584948169,-0.07208651114585861
-3.9455,-0.5194247072545548,-0.7820612842920766
-3.945,-1.277007122150022,-1.417859588602123
-3.9445,-1.565101843307454,-1.767548655972648
-3.944,-0.9248913518464952,-1.587405803084801
-3.9435,-0.2420001609548061,-0.9833974139902578
-3.943,0.2274875327832301,-0.3793890248957141
-3.9425,0.4729015545099309,0.05507314971615059
-3.942,0.5582629533713921,0.2776025562246667
-3.9415,0.5475927785137094,0.3411823866556712
-3.941,0.5155822539406614,0.2881991946298341
-3.9405,0.6436243522328531,0.3517790250608387
-3.94,0.7503261008096795,0.3411823866556712
-3.9395,0.6863050516635838,0.1292496185523226
-3.939,0.5902734779444399,-0.1038764263613609
-3.9385,0.5049120790829789,-0.3158091944647096
-3.938,0.4302208550792003,-0.4217755785163839
-3.9375,0.00341386077189465,0.002089957690313421
-3.937,-0.7755089038389382,0.7438546460520338
-3.9365,-1.51175096901904,1.241896651094903
-3.936,-2.07727023647622,0.8286277532933731
-3.9355,-1.885207089037933,0.002089957690313421
-3.935,-1.074273799854052,-0.3793890248957141
-3.9345,-0.3700422592469978,-0.4535654937318862
-3.934,0.1101156093487211,-0.3581957480853793
-3.9335,0.3875401556484697,-0.1992461720078678
-3.933,0.4942419042252961,-0.05089323433552374
-3.9325,0.5155822539406614,0.08686306493165288
-3.932,0.4942419042252961,0.2034260873884947
-3.9315,0.4729015545099309,0.2987958330350016
-3.931,0.4408910299368829,0.3623756634660061
-3.9305,0.4302208550792003,0.4047622170866759
-3.93,0.4195506802215176,0.4259554938970107
-3.9295,0.4302208550792003,0.1716361721729923
-3.929,0.09944543449103843,-0.4959520473525559
-3.9285,-0.6367966306890638,-1.184733543688439
-3.928,-1.180975548430879,-1.566212526274467
-3.9275,-0.8181896032696687,-1.216523458903942
-3.927,-0.1779791118087102,-0.8456411147230812
-3.9265,0.2594980573562781,-0.4323722169215513
-3.926,0.4835717293676135,-0.1250697031716958
-3.9255,0.5582629533713921,0.04447651131098315
-3.925,0.5475927785137094,0.08686306493165288
-3.9245,0.5155822539406614,0.06566978812131802
-3.924,0.5369226036560266,0.07626642652648545
-3.9235,0.6329541773751706,0.1610395337678249
-3.923,0.6222840025174878,0.07626642652648545
-3.9225,0.5582629533713921,-0.07208651114585861
-3.922,0.4942419042252961,-0.1992461720078678
-3.9215,0.4515612047945656,-0.2946159176543747
-3.921,0.1954770082101822,-0.04029659593035631
-3.9205,-0.4874141826815069,0.627291623595192
-3.92,-1.255666772434657,0.9875773293708847
-3.9195,-1.87453691418025,0.5425185163538525
-3.919,-2.066600061618538,-0.1356663415768632
-3.9185,-1.351698346153801,-0.4959520473525559
-3.918,-0.5941159312583333,-0.5277419625680583
-3.9175,-0.02859666380115328,-0.400582301706049
-3.917,0.3128489316446912,-0.2204394488182027
-3.9165,0.4729015545099309,-0.04029659593035631
-3.916,0.5155822539406614,0.1080563417419877
-3.9155,0.5049120790829789,0.2352160026039969
-3.915,0.4835717293676135,0.3305857482505039
-3.9145,0.4515612047945656,0.4153588554918433
-3.914,0.4302208550792003,0.457745409112513
-3.9135,0.4195506802215176,0.4895353243280153
-3.913,0.3982103305061524,0.4047622170866759
-3.9125,-0.007256314085787988,-0.1568596183871981
-3.912,-0.7648387289812555,-0.8774310299385835
-3.9115,-1.46907026958831,-1.449649503817625
-3.911,-1.383708870726849,-1.629792356705471
-3.9105,-0.658136980404429,-1.248313374119443
-3.91,-0.02859666380115328,-0.6549016234300674
-3.9095,0.3768699807907871,-0.1250697031716958
-3.909,0.5582629533713921,0.1928294489833272
-3.9085,0.5902734779444399,0.3305857482505039
-3.908,0.5689331282290746,0.309392471440169
-3.9075,0.5369226036560266,0.2140227257936621
-3.907,0.6222840025174878,0.2352160026039969
-3.9065,0.6329541773751706,0.13984625695749
-3.906,0.5796033030867573,-0.06148987274069118
-3.9055,0.5155822539406614,-0.2628260024388724
-3.905,0.4622313796522482,-0.4217755785163839
-3.9045,0.3448594562177392,-0.4217755785163839
-3.904,-0.2099896363817582,0.13984625695749
-3.9035,-0.9995825758502737,0.775644561267536
-3.903,-1.67180359188428,0.5955017083796896
-3.9025,-2.098610586191586,0.4047622170866759
-3.902,-1.650463242168915,0.2034260873884947
-3.9015,-0.8502001278427167,-0.07208651114585861
-3.901,-0.2099896363817582,-0.252229364033705
-3.9005,0.2168173579255475,-0.3158091944647096
-3.9,0.4302208550792003,-0.2734226408440398
-3.8995,0.5155822539406614,-0.1780528951975329
-3.899,0.5155822539406614,-0.05089323433552374
-3.8985,0.4942419042252961,0.09745970333682032
-3.898,0.4622313796522482,0.2352160026039969
-3.8975,0.4408910299368829,0.3517790250608387
-3.897,0.4302208550792003,0.4471487707073456
-3.8965,0.4195506802215176,0.5001319627331828
-3.896,0.1634664836371343,0.1716361721729923
-3.8955,-0.5407650569699201,-0.4853554089473885
-3.895,-1.30901764672307,-1.078767159636765
-3.8945,-1.565101843307454,-1.34368311976595
-3.894,-0.9355615267041777,-1.110557074852267
-3.8935,-0.2313299860971235,-0.6019184314042303
-3.893,0.2488278824985954,-0.09327978795619347
-3.8925,0.4942419042252961,0.2776025562246667
-3.892,0.5689331282290746,0.457745409112513
-3.8915,0.5582629533713921,0.4895353243280153
-3.891,0.5262524287983441,0.4047622170866759
-3.8905,0.5796033030867573,0.3623756634660061
-3.89,0.6222840025174878,0.2776025562246667
-3.8895,0.5902734779444399,0.06566978812131802
-3.889,0.5262524287983441,-0.1674562567923655
-3.8885,0.4729015545099309,-0.3687923864905467
-3.888,0.4302208550792003,-0.5171453241628908
-3.8875,0.08877525963335578,-0.2098428104130352
