Class_11_Cell_phone_Call/Class_11_Cell_phone_Call_SH_4.csv

#Digilent WaveForms Oscilloscope Acquisition
#Device Name: EExplorer
#Serial Number: SN:210151A2B84A
#Date Time: 2020-12-07 14:17:42.580
#Sample rate: 2000Hz
#Samples: 16384
#Trigger: Source: Channel 1 Type: Edge Condition: Rising Level: 0 V Hyst.: Auto HoldOff: 0 s
#Channel 1: Range: 1 V/div Offset: 0 V Attenuation: 1 X
#Channel 2: Range: 1 V/div Offset: 0 V Attenuation: 1 X
#Power Supplies: ON
#Fixed Supply: ON
#Voltage: 3.3 V Readback: 3.321 V
#Positive Supply: ON
#Voltage: 3.7 V Readback: 3.718 V
#Current: 50 mA Readback: 21 mA
#Negative Supply: ON
#Voltage: -3.7 V Readback: -3.703 V
#Current: -50 mA Readback: -8 mA
#Reference 1: ON
#Voltage: 0 V
#Reference 2: ON
#Voltage: 0 V

Time (s),Channel 1 (V),Channel 2 (V)
-4.096,0.6436243522328531,0.2881991946298341
-4.0955,0.7503261008095825,0.01268659609573142
-4.095,0.8570278493864575,-0.1144730647664898
-4.0945,0.8036769750980928,-0.07208651114585861
-4.094,0.6969752265213633,0.03387987290571934
-4.0935,0.6116138276597566,0.1398462569575382
-4.093,0.5582629533713921,0.1928294489833272
-4.0925,0.3768699807909521,-0.2310360872229846
-4.092,0.1634664836365908,-0.9939940523960228
-4.0915,-0.4340633083930936,-1.650985633515806
-4.091,-1.095614149569417,-2.085447808127671
-4.0905,-1.191645723288173,-1.746355379161523
-4.09,-0.7648387289812555,-0.8774310299385835
-4.0895,-0.2633405106701714,-0.07208651114585861
-4.089,0.1207857842060543,0.4895353243275045
-4.0885,0.3448594562177392,0.7862411996727035
-4.088,0.4515612047945656,0.9134008605347127
-4.0875,0.4835717293675844,0.9239974989398704
-4.087,0.4729015545099114,0.8710143069139754
-4.0865,0.4515612047945656,0.7968378380778709
-4.086,0.4195506802215467,0.7332580076469242
-4.0855,0.3982103305060747,0.6696781772158905
-4.085,0.3128489316446912,0.701468092431364
-4.0845,0.05676473506054081,0.7650479228623107
-4.084,-0.6901475049780981,0.2670059178186511
-4.0835,-1.373038695869166,-0.6654982618352349
-4.083,-1.746494815888059,-1.38606967338662
-4.0825,-1.853196564464545,-0.9833974139895254
-4.082,-1.479740444445993,-0.1780528951975329
-4.0815,-0.7755089038389382,0.2352160026039969
-4.081,-0.1779791118092536,0.3305857482504171
-4.0805,0.2381577076409128,0.2458126410091644
-4.08,0.4835717293676135,0.1822328105781598
-4.0795,0.5902734779443428,0.09745970333689742
-4.079,0.7076454013791916,-0.01910331912022383
-4.0785,0.974399772821015,-0.2416327256285375
-4.078,0.9637295979633421,-0.1780528951975908
-4.0775,0.8463576745286874,0.03387987290601811
-4.077,0.6969752265212663,0.2564092794143318
-4.0765,0.5902734779445369,0.4471487707071721
-4.076,0.5582629533714115,0.3305857482498774
-4.0755,0.5796033030867573,-0.3581957480853793
-4.075,0.2594980573562781,-1.078767159636765
-4.0745,-0.6154562809741644,-1.576809164679625
-4.074,-1.127624674142465,-1.566212526274467
-4.0735,-0.8928808272734472,-0.8668343915334161
-4.073,-0.4340633083935109,-0.08268314955173928
-4.0725,-0.007256314085787988,0.4895353243280153
-4.072,0.2701682322139607,0.8074344764830383
-4.0715,0.4088805053637089,0.923997498939774
-4.071,0.4729015545099309,0.9028042221294682
-4.0705,0.4729015545099309,0.8180311148882058
-4.07,0.451561204794585,0.70146809243147
-4.0695,0.4195506802214886,0.5955017083795933
-4.069,0.3875401556484697,0.4895353243280153
-4.0685,0.3341892813600565,0.4259554938970107
-4.068,0.2381577076404081,0.415358855491612
-4.0675,-0.3166913849585846,0.1610395337678249
-4.067,-0.8928808272734472,-0.6019184314042303
-4.0665,-1.159635198715775,-1.364876396576729
-4.066,-1.447729919872945,-1.852321763213987
-4.0655,-1.319687821580753,-1.460246142222792
-4.065,-0.7541685541240873,-0.7184814538617467
-4.0645,-0.1993194615240755,-0.1250697031716958
-4.064,0.2488278824985954,0.2458126410091644
-4.0635,0.5369226036557646,0.4153588554916891
-4.063,0.6542945270905649,0.4153588554917855
-4.0625,0.6863050516635838,0.3517790250608387
-4.062,0.8890383739593694,0.1928294489834718
-4.0615,0.9530594231055527,0.06566978812131802
-4.061,0.8463576745288233,0.06566978812131802
-4.0605,0.707645401378949,0.13984625695749
-4.06,0.5796033030867282,0.2352160026039969
-4.0595,0.5475927785137094,0.2352160026039969
-4.059,0.5902734779444399,-0.3052125560595421
-4.0585,0.7609962756672071,-1.046977244420588
-4.058,0.08877525963335578,-1.661582271920973
-4.0575,-0.7648387289812555,-1.990078062481164
-4.057,-0.9248913518463496,-1.513229334249063
-4.0565,-0.6047861061160158,-0.6443049850249
-4.056,-0.1886492866663929,0.1080563417419877
-4.0555,0.1421261339214682,0.6060983467844041
-4.055,0.3448594562178168,0.8604176685089525
-4.0545,0.4302208550792003,0.9451907757502149
-4.054,0.4622313796522191,0.9239974989398994
-4.0535,0.4622313796522191,0.8604176685087984
-4.053,0.4302208550792003,0.775644561267536
-4.0525,0.3875401556484697,0.701468092431364
-4.052,0.334189281360008,0.6590815388106749
-4.0515,0.2808384070716433,0.6378882620003594
-4.051,-0.06060718837420119,0.5107286011383502
-4.0505,-0.7008176798345774,-0.2204394488175376
-4.05,-1.223656247861609,-1.089363798041932
-4.0495,-1.67180359188428,-1.566212526274467
-4.049,-1.586442193022897,-1.025783967611419
-4.0485,-0.9569018764189123,-0.3581957480849552
-4.048,-0.2633405106701714,0.1080563417419877
-4.0475,0.2488278824981296,0.3941655786812482
-4.047,0.5262524287984509,0.4259554938969239
-4.0465,0.6436243522328531,0.3305857482505039
-4.046,0.6542945270905262,0.2352160026040837
-4.0455,0.7716664505251613,0.05507314971600602
-4.045,0.8997085488172365,-0.1038764263613609
-4.0445,0.825017324813458,-0.05089323433552374
-4.044,0.6756348768057846,0.07626642652660111
-4.0435,0.5475927785137094,0.2034260873884947
-4.043,0.4942419042252961,0.309392471440169
-4.0425,0.5049120790829692,-0.04029659593003831
-4.042,-0.04993701351651855,-0.7820612842920766
-4.0415,-0.9248913518464952,-1.42845622700729
-4.041,-1.533091318733853,-1.788741932782655
-4.0405,-1.629122892453064,-1.672178910325437
-4.04,-1.095614149569417,-0.8986243067489184
-4.0395,-0.4660738329667141,-0.07208651114661035
-4.039,0.02475421048752196,0.5319218779489935
-4.0385,0.3128489316446912,0.8710143069140429
-4.038,0.4515612047944394,0.9981739677759364
-4.0375,0.4942419042252864,0.9981739677759845
-4.037,0.4835717293676135,0.92399749893988
-4.0365,0.4515612047945656,0.8180311148882058
-4.036,0.3982103305061233,0.7226613692416122
-4.0355,0.3661998059331045,0.627291623595192
-4.035,0.3235191065023739,0.5743084315693548
-4.0345,0.2168173579256445,0.5531151547590393
-4.034,-0.01792648894347063,0.1716361721729923
-4.0335,-0.4340633083930936,-0.4959520473525559
-4.033,-1.14896502385718,-1.205926820498128
-4.0325,-1.618452717595741,-0.9622041371791905
-4.032,-1.479740444445993,-0.1568596183871981
-4.0315,-0.8395299529856163,0.2670059178191137
-4.031,-0.2099896363813797,0.3517790250608098
-4.0305,0.2061471830678648,0.3199891098453364
-4.03,0.4729015545096882,0.1186529801473383
-4.0295,0.6009436528022002,-0.02969995752530453
-4.029,0.6863050516635838,-0.1568596183871981
-4.0285,0.8463576745288233,-0.2840192792492073
-4.028,0.8250173248133706,-0.1886495336025269
-4.0275,0.7289857510943143,0.002089957690313421
-4.027,0.6329541773751706,0.2140227257936621
-4.0265,0.547592778513787,0.4047622170865024
-4.026,0.5796033030867573,0.3623756634660061
-4.0255,0.9530594231056497,0.1504428953626575
-4.025,0.8676980242442661,-0.2946159176539699
-4.0245,0.05676473505956062,-0.8774310299389015
-4.024,-0.7648387289812555,-1.227120097309109
-4.0235,-0.8502001278426391,-0.8668343915337438
-4.023,-0.5194247072541958,-0.1568596183866391
-4.0225,-0.124628237520297,0.457745409112513
-4.022,0.1741366584945452,0.8392243916981936
-4.0215,0.3555296310754897,1.008770606181239
-4.021,0.4302208550792003,1.029963882991555
-4.0205,0.4515612047945656,0.9663840525605498
-4.02,0.4408910299368635,0.8498210301035923
-4.0195,0.4195506802215176,0.7226613692416989
-4.019,0.3555296310754218,0.6060983467848571
-4.0185,0.334189281360076,0.5107286011384369
-4.018,0.2488278824985954,0.4895353243280153
-4.0175,-0.2846808603855366,0.2881991946298341
-4.017,-1.020922925564969,-0.4853554089466849
-4.0165,-1.447729919873236,-1.31189320455094
-4.016,-1.767835165603424,-1.852321763213987
-4.0155,-1.693143941599713,-1.428456227007675
-4.015,-1.084943974711085,-0.644304985024341
-4.0145,-0.3700422592469978,-0.02969995752518888
-4.014,0.1421261339213032,0.3199891098450184
-4.0135,0.4408910299369994,0.3941655786814217
-4.013,0.5689331282290746,0.2987958330350016
-4.0125,0.6009436528021226,0.1610395337678249
-4.012,0.8463576745289688,-0.00850668071486365
-4.0115,1.006410297394063,-0.01910331912002144
-4.011,0.9210488985326017,0.06566978812131802
-4.0105,0.7609962756675078,0.1504428953625804
-4.01,0.6329541773751706,0.2246193641988295
-4.0095,0.5796033030867573,0.2140227257936621
-4.009,0.5902734779444302,-0.2840192792487543
-4.0085,0.9423892482479767,-0.9410108603701663
-4.008,0.9530594231056497,-1.576809164679634
-4.0075,0.3021787567876006,-1.97948142407563
-4.007,-0.145968587235672,-1.598002441489207
-4.0065,-0.156638762093345,-0.7608680074817418
-4.006,0.00341386077189465,-0.01910331912002144
-4.0055,0.1741366584949334,0.5001319627334334
-4.005,0.3021787567870086,0.775644561267536
-4.0045,0.3768699807907871,0.8816109453192104
-4.004,0.4088805053638447,0.8816109453191718
-4.0035,0.4195506802215176,0.8392243916985406
-4.003,0.408880505363835,0.775644561267536
-4.0025,0.3875401556484891,0.7120647308365893
-4.002,0.3235191065023739,0.6802748156210291
-4.0015,0.2701682322139607,0.6590815388106942
-4.001,0.0140840356298102,0.7544512844571144
-4.0005,-0.7221580295510879,0.3199891098445076
-4,-1.341028171296118,-0.5913217929990628
-3.9995,-1.639793067311232,-1.258910012524611
-3.999,-1.714484291315011,-0.7502713690765743
-3.9985,-1.362368521011484,-0.008506680714854012
-3.998,-0.690147504977477,0.383568940276341
-3.9975,-0.07127736323188383,0.4895353243280153
-3.997,0.3661998059331045,0.3729723018711736
-3.9965,0.5582629533713921,0.2246193641988295
-3.996,0.6222840025174878,0.08686306493165288
-3.9955,0.7183155762366316,0.05507314971615059
-3.995,0.8783681991018712,0.08686306493165288
-3.9945,0.8143471499557753,0.1292496185523226
-3.994,0.6969752265212663,0.1928294489833272
-3.9935,0.6009436528021226,0.2776025562246667
-3.993,0.5262524287983441,0.3729723018711736
-3.9925,0.707645401378949,0.2881991946298341
-3.992,1.166462920259302,-0.3687923864905467
-3.9915,0.8143471499557753,-1.036380606016095
-3.991,0.02475421048725994,-1.333086481360783
-3.9905,-0.807519428411986,-1.407262950196955
-3.99,-0.9675720512772257,-0.9833974139902578
-3.9895,-0.6367966306890638,-0.2416327256285375
-3.989,-0.2099896363817582,0.4047622170866759
-3.9885,0.1207857842064037,0.8180311148882058
-3.988,0.3235191065023739,1.019367244586387
-3.9875,0.4195506802215176,1.061753798207057
-3.987,0.4408910299368829,1.00877060618122
-3.9865,0.4302208550792003,0.9028042221295453
-3.986,0.3982103305061524,0.7968378380778709
-3.9855,0.3448594562177392,0.701468092431364
-3.985,0.3128489316446912,0.6060983467848571
-3.9845,0.2381577076409128,0.5743084315693548
-3.984,-0.2206598112394408,0.9345941373450475
-3.9835,-0.9248913518464952,1.273686566310405
-3.983,-1.287677297007705,0.5849050699745222
-3.9825,-1.618452717595867,-0.326405832869877
-3.982,-1.46907026958831,-0.4217755785163839
-3.9815,-0.9248913518464952,-0.1568596183871981
-3.981,-0.3060212101009019,0.05507314971615059
-3.9805,0.1314559590640864,0.1822328105781598
-3.98,0.3875401556484697,0.1504428953626575
-3.9795,0.5155822539406614,0.09745970333682032
-3.979,0.5796033030867573,0.05507314971615059
-3.9785,0.7609962756673623,-0.06148987274069118
-3.978,0.7716664505250448,-0.02969995752518888
-3.9775,0.6863050516635838,0.08686306493165288
-3.977,0.6009436528021226,0.2246193641988295
-3.9765,0.5475927785137094,0.3623756634660061
-3.976,0.5582629533713921,0.2881991946298341
-3.9755,0.3021787567870086,-0.3687923864905467
-3.975,-0.2313299860971235,-1.0999604364471
-3.9745,-0.9675720512772257,-1.598002441489969
-3.974,-1.383708870726849,-1.661582271920973
-3.9735,-1.074273799854052,-0.9728007755850904
-3.973,-0.5300948821122373,-0.1568596183871981
-3.9725,-0.06060718837420119,0.4789386859228479
-3.972,0.2381577076409128,0.8392243916985406
-3.9715,0.3982103305061524,0.9875773293708847
-3.971,0.4515612047945656,0.9981739677760521
-3.9705,0.4622313796522482,0.92399749893988
-3.97,0.4408910299368829,0.8180311148882058
-3.9695,0.408880505363835,0.701468092431364
-3.969,0.3661998059331045,0.5849050699745222
-3.9685,0.3128489316446912,0.4895353243280153
-3.968,0.2381577076409128,0.4789386859228479
-3.9675,-0.2099896363817582,0.383568940276341
-3.967,-0.839529952985034,-0.3370024712750445
-3.9665,-1.383708870726849,-1.184733543688439
-3.966,-1.87453691418025,-1.79933857118815
-3.9655,-1.906547438753298,-1.449649503817625
-3.965,-1.255666772434657,-0.6443049850249
-3.9645,-0.4767440078238243,-0.008506680714854012
-3.964,0.1207857842064037,0.3623756634660061
-3.9635,0.4515612047945656,0.457745409112513
-3.963,0.5902734779444399,0.3941655786815084
-3.9625,0.6116138276598051,0.2670059178194992
-3.962,0.7716664505250448,0.06566978812131802
-3.9615,0.857027849386506,-0.05089323433552374
-3.961,0.79300680024041,-0.04029659593035631
-3.9605,0.6863050516635838,0.04447651131098315
-3.96,0.5796033030867573,0.13984625695749
-3.9595,0.5155822539406614,0.1822328105781598
-3.959,0.4729015545099309,-0.2204394488182027
-3.9585,0.5902734779444399,-0.9622041371799229
-3.958,0.2061471830678648,-1.629792356705471
-3.9575,-0.5300948821122373,-2.021867977696666
-3.957,-0.754168554123573,-1.608599079895136
-3.9565,-0.5087545323968721,-0.7396747306714069
-3.956,-0.156638762093345,0.04447651131098315
-3.9555,0.1314559590640864,0.5743084315693548
-3.955,0.3128489316446912,0.8604176685088755
-3.9545,0.3982103305061524,0.9769806909657173
-3.954,0.4302208550792003,0.9769806909657173
-3.9535,0.4302208550792003,0.92399749893988
-3.953,0.4195506802215176,0.849821030103708
-3.9525,0.3875401556484697,0.775644561267536
-3.952,0.3448594562177392,0.7120647308365314
-3.9515,0.291508581929326,0.6696781772158616
-3.951,0.1848068333524996,0.7120647308365314
-3.9505,-0.1459685872356623,1.061753798207057
-3.95,-0.572775581542968,1.040560521396722
-3.9495,-1.159635198715513,0.1292496185523226
-3.949,-1.479740444445993,-0.474758770542221
-3.9485,-1.127624674142465,-0.3899856633008816
-3.948,-0.4980843575391895,-0.1462629799820306
-3.9475,0.03542438534494258,0.08686306493165288
-3.947,0.3448594562177392,0.2140227257936621
-3.9465,0.5049120790829789,0.2458126410091644
-3.946,0.5582629533713921,0.2352160026039969
-3.9455,0.6436243522328531,0.1716361721729923
-3.945,0.8463576745288233,0.05507314971615059
-3.9445,0.8356874996711408,0.07626642652648545
-3.944,0.7183155762366316,0.1716361721729923
-3.9435,0.6009436528021226,0.2776025562246667
-3.943,0.5369226036560266,0.3199891098453364
-3.9425,0.4729015545099309,-0.05089323433552374
-3.942,0.2274875327832301,-0.8244478379127463
-3.9415,0.1634664836371343,-1.51322933424863
-3.941,-0.391382608962363,-1.979481424075996
-3.9405,-0.9142211769888124,-1.958288147265661
-3.94,-0.7861790786966207,-1.174136905283272
-3.9395,-0.391382608962363,-0.3052125560595421
-3.939,-0.02859666380115328,0.3411823866556712
-3.9385,0.2274875327832301,0.7226613692416989
-3.938,0.3661998059331045,0.8816109453192104
-3.9375,0.4302208550792003,0.9028042221295453
-3.937,0.4302208550792003,0.849821030103708
-3.9365,0.4195506802215176,0.7544512844572011
-3.936,0.3875401556484697,0.6696781772158616
-3.9355,0.3341892813600565,0.5955017083796896
-3.935,0.291508581929326,0.5319218779486851
-3.9345,0.2168173579255475,0.5319218779486851
-3.934,-0.1993194615240755,0.2246193641988295
-3.9335,-0.9782422261349084,-0.6125150698093976
-3.933,-1.533091318734406,-1.42845622700729
-3.9325,-1.938557963326346,-1.831128486403653
-3.932,-1.67180359188428,-1.301296566145281
-3.9315,-0.9355615267041777,-0.5595318777835605
-3.931,-0.2846808603855366,0.04447651131098315
-3.9305,0.1741366584948169,0.3623756634660061
-3.93,0.4195506802215176,0.4259554938970107
-3.9295,0.5262524287983441,0.383568940276341
-3.929,0.5475927785137094,0.2987958330350016
-3.9285,0.5902734779444399,0.2246193641988295
-3.928,0.5902734779444399,0.1504428953626575
-3.9275,0.5582629533713921,0.08686306493165288
-3.927,0.5475927785137094,0.06566978812131802
-3.9265,0.5262524287983441,0.08686306493165288
-3.926,0.5796033030867573,0.002089957690313421
-3.9255,0.8676980242441885,-0.6019184314042303
-3.925,1.091771696255524,-1.333086481360783
-3.9245,0.4622313796522482,-1.894708316834657
-3.924,-0.4874141826815069,-2.138431000153508
-3.9235,-0.7328282044082075,-1.523825972653797
-3.923,-0.5087545323968721,-0.6125150698093976
-3.9225,-0.156638762093345,0.1504428953626575
-3.922,0.1207857842064037,0.6484849004055269
-3.9215,0.3021787567870086,0.9134008605347127
-3.921,0.3875401556484697,0.9981739677760521
-3.9205,0.4195506802215176,0.9875773293708847
-3.92,0.4195506802215176,0.9345941373450475
-3.9195,0.3982103305061524,0.8604176685088755
-3.919,0.3555296310754218,0.7968378380778709
-3.9185,0.3128489316446912,0.7438546460520338
-3.918,0.2381577076409128,0.7544512844572011
-3.9175,-0.09261771294724913,0.7968378380778709
-3.917,-0.7328282044082075,0.1928294489833272
-3.9165,-1.351698346153801,-0.7608680074817418
-3.916,-1.757164990745741,-1.523825972653797
-3.9155,-1.725154466172693,-1.502632695843462
-3.915,-1.116954499284783,-0.8986243067489184
-3.9145,-0.4447334832507763,-0.2946159176543747
-3.914,0.0674349099179905,0.04447651131098315
-3.9135,0.3875401556484697,0.1716361721729923
-3.913,0.5689331282290746,0.2564092794143318
-3.9125,0.6116138276598051,0.2564092794143318
-3.912,0.7396559259519968,0.2987958330350016
-3.9115,0.825017324813458,0.2776025562246667
-3.911,0.7289857510943143,0.1928294489833272
-3.9105,0.6009436528021226,0.1080563417419877
-3.91,0.4942419042252961,0.06566978812131802
-3.9095,0.4515612047945656,0.03387987290581572
-3.909,0.7396559259519968,-0.400582301706049
-3.9085,1.443887466559051,-1.131750351662602
-3.908,2.222810231169884,-1.767548655972648
-3.9075,2.233480406027567,-2.191414192179345
-3.907,1.347855892839907,-1.990078062481164
-3.9065,0.707645401378949,-1.089363798041932
-3.906,0.3768699807907871,-0.1886495336027004
-3.9055,0.2488278824985954,0.4789386859228479
-3.905,0.2381577076409128,0.8604176685088755
-3.9045,0.2701682322139607,1.029963882991555
-3.904,0.3128489316446912,1.072350436612224
-3.9035,0.3448594562177392,1.040560521396722
-3.903,0.3555296310754218,0.9663840525605498
-3.9025,0.3448594562177392,0.8922075837243778
-3.902,0.3128489316446912,0.8180311148882058
-3.9015,0.291508581929326,0.7544512844572011
-3.901,0.07810508477567314,0.7438546460520338
-3.9005,-0.5514352318276028,0.2352160026039969
-3.9,-1.223656247861609,-0.7078848154559045
-3.8995,-1.821186039891837,-1.481439419033127
-3.899,-2.162631635337682,-1.608599079895136
-3.8985,-1.725154466172693,-0.9728007755850904
-3.898,-0.8928808272734472,-0.3052125560595421
-3.8975,-0.1886492866663929,0.1186529801471552
-3.897,0.2701682322139607,0.2246193641988295
-3.8965,0.5049120790829789,0.2352160026039969
-3.896,0.5902734779444399,0.1928294489833272
-3.8955,0.6329541773751706,0.05507314971615059
-3.895,0.8783681991018712,-0.1992461720078678
-3.8945,0.9210488985326017,-0.1886495336027004
-3.894,0.8143471499557753,-0.07208651114585861
-3.8935,0.6649647019482183,0.07626642652648545
-3.893,0.5369226036560266,0.2034260873884947
-3.8925,0.4515612047945656,-0.01910331912002144
-3.892,0.291508581929326,-0.7502713690765743
-3.8915,-0.09261771294724913,-1.481439419033127
-3.891,-0.8715404775580819,-2.000674700886331
-3.8905,-1.394379045584531,-2.096044446532838
-3.89,-1.159635198715513,-1.34368311976595
-3.8895,-0.6261264558313813,-0.4429688553267188
-3.889,-0.1459685872356623,0.2564092794143318
-3.8885,0.1848068333524996,0.6908714540261965
-3.888,0.3555296310754218,0.8922075837243778
-3.8875,0.4195506802215176,0.9451907757502149
-3.887,0.4302208550792003,0.9134008605347127
-3.8865,0.4195506802215176,0.8392243916985406
