Class_11_Cell_phone_Call/Class_11_Cell_phone_Call_UZ_5.csv

#Digilent WaveForms Oscilloscope Acquisition
#Device Name: EExplorer
#Serial Number: SN:210151A2B84A
#Date Time: 2020-12-06 09:38:09.023
#Sample rate: 2000Hz
#Samples: 16384
#Trigger: Source: Channel 1 Type: Edge Condition: Rising Level: 0 V Hyst.: Auto HoldOff: 0 s
#Channel 1: Range: 1 V/div Offset: 0 V Attenuation: 1 X
#Channel 2: Range: 1 V/div Offset: 0 V Attenuation: 1 X
#Power Supplies: ON
#Fixed Supply: ON
#Voltage: 3.3 V Readback: 3.317 V
#Positive Supply: ON
#Voltage: 3.7 V Readback: 3.747 V
#Current: 40 mA Readback: 20 mA
#Negative Supply: ON
#Voltage: -3.7 V Readback: -3.523 V
#Current: -40 mA Readback: 0 A
#Reference 1: ON
#Voltage: 0 V
#Reference 2: ON
#Voltage: 0 V

Time (s),Channel 1 (V),Channel 2 (V)
-4.096,-2.589438629644987,-2.180817553774178
-4.0955,-2.482736881068258,-2.149027638558704
-4.095,-1.56510184330659,-1.216523458903026
-4.0945,-0.6154562809736985,-0.2098428104130352
-4.094,-0.01792648894401405,0.4365521323015903
-4.0935,0.3128489316448271,0.7968378380780154
-4.093,0.4622313796522482,0.9557874141553824
-4.0925,0.50491207908294,0.976980690965698
-4.092,0.4942419042252767,0.9345941373449896
-4.0915,0.4729015545099309,0.8710143069140429
-4.091,0.4515612047945656,0.7968378380778709
-4.0905,0.4302208550791712,0.7120647308364351
-4.09,0.3982103305061524,0.6060983467848571
-4.0895,0.142126133921769,0.2352160026039969
-4.089,-0.7008176798343931,-0.6231117082137845
-4.0885,-1.30901764672307,-1.407262950196955
-4.088,-1.46907026958831,-1.725162102351978
-4.0875,-0.935561526704663,-1.195330182094088
-4.087,-0.1779791118081765,-0.5383386009726859
-4.0865,0.408880505363835,0.05507314971615059
-4.086,0.6969752265210043,0.3835689402760423
-4.0855,0.7823366253827179,0.5001319627332022
-4.085,0.7716664505250448,0.5213252395435176
-4.0845,0.6863050516636614,0.5107286011383598
-4.084,0.6969752265213343,0.3729723018710386
-4.0835,0.7716664505250448,0.2246193641988295
-4.083,0.6969752265212663,0.2881991946298341
-4.0825,0.5902734779443622,0.4047622170867722
-4.082,0.5049120790829789,0.5107286011383502
-4.0815,0.4302208550792003,0.5849050699745222
-4.081,0.08877525963366634,0.3835689402765241
-4.0805,-0.6367966306890638,-0.1992461720078678
-4.08,-1.810515865034154,-1.375473034981453
-4.0795,-1.981238662756921,-1.301296566145348
-4.079,-2.226652684483457,-1.248313374119251
-4.0785,-1.87453691418025,-1.036380606016095
-4.078,-1.010252750708742,-0.3687923864911539
-4.0775,-0.2740106855274658,0.2034260873887934
-4.077,0.1527963087794516,0.5319218779486851
-4.0765,0.3875401556482562,0.7014680924312098
-4.076,0.4835717293676232,0.775644561267536
-4.0755,0.4942419042252961,0.775644561267536
-4.075,0.4835717293676135,0.7544512844572011
-4.0745,0.4622313796522385,0.7332580076468375
-4.074,0.4515612047945656,0.701468092431364
-4.0735,0.4302208550792003,0.6590815388106942
-4.073,0.3021787567871251,0.3941655786817493
-4.0725,-0.3060212101009019,-0.3793890248957141
-4.072,-0.9142211769888124,-1.121153713257435
-4.0715,-1.191645723288309,-1.57680916467922
-4.071,-1.08494397471124,-1.598002441489419
-4.0705,-0.5407650569699201,-0.9939940523954253
-4.07,0.07810508477511025,-0.3264058328704842
-4.0695,0.5369226036562207,0.1292496185526214
-4.069,0.7503261008096795,0.457745409112513
-4.0685,0.8036769750980928,0.6590815388106942
-4.068,0.7609962756673041,0.7014680924313351
-4.0675,0.6969752265212663,0.6696781772158616
-4.067,0.7183155762366316,0.775644561267536
-4.0665,0.6756348768058137,0.7544512844571241
-4.066,0.5796033030867573,0.6696781772158616
-4.0655,0.5049120790829789,0.5849050699745222
-4.065,0.462231379652287,0.542518516353891
-4.0645,0.2381577076409128,0.55311515475902
-4.064,-0.807519428411986,-0.1144730647665284
-4.0635,-1.895877263894626,-1.142346990066835
-4.063,-2.397375482207098,-1.481439419032433
-4.0625,-2.834852651371688,-0.718481453861072
-4.062,-2.557428105072192,0.07626642652576254
-4.0615,-1.554431668448946,0.4895353243280924
-4.061,-0.6474668055467465,0.5743084315693548
-4.0605,-0.02859666380115328,0.55311515475902
-4.06,0.3235191065025194,0.5425185163538718
-4.0595,0.4835717293676135,0.5637117931641874
-4.059,0.5369226036560266,0.627291623595192
-4.0585,0.5262524287983538,0.7120647308364543
-4.058,0.4942419042252961,0.7968378380778709
-4.0575,0.4729015545099309,0.8816109453192104
-4.057,0.4408910299369121,0.9345941373449993
-4.0565,0.3768699807907871,0.8922075837243778
-4.056,-0.06060718837420119,0.4047622170866759
-4.0555,-0.956901876418728,-0.4429688553259477
-4.055,-1.479740444446119,-1.068170521231906
-4.0545,-1.618452717595867,-1.407262950196955
-4.054,-0.9995825758508365,-0.9516074987751699
-4.0535,-0.1673089369504648,-0.135666341576256
-4.053,0.4515612047945656,0.5319218779486851
-4.0525,0.7503261008096795,0.9028042221295453
-4.052,0.8250173248133998,1.040560521396722
-4.0515,0.7609962756673623,1.040560521396722
-4.051,0.6649647019482183,0.9557874141553824
-4.0505,0.8143471499556394,0.8392243916986466
-4.05,0.8890383739595538,0.6908714540261965
-4.0495,0.7823366253827275,0.5743084315693548
-4.049,0.6542945270906523,0.4683420475177769
-4.0485,0.5475927785135832,0.3729723018710868
-4.048,0.408880505363835,0.2776025562246667
-4.0475,-0.1993194615235224,-0.1674562567919607
-4.047,-1.501080794161795,-1.41785958860273
-4.0465,-1.981238662757077,-2.085447808127671
-4.046,-2.386705307348648,-2.541103259549456
-4.0455,-2.397375482205943,-2.572893174764515
-4.045,-1.565101843307454,-1.629792356705471
-4.0445,-0.6688071552621118,-0.6337083466197325
-4.044,-0.07127736323155387,0.05507314971652645
-4.0435,0.291508581929326,0.4683420475176805
-4.043,0.4622313796522482,0.6484849004055269
-4.0425,0.5262524287982859,0.7014680924313158
-4.042,0.5155822539406614,0.6802748156210291
-4.0415,0.5049120790829789,0.6378882620003594
-4.041,0.4835717293676329,0.5955017083797282
-4.0405,0.4515612047945365,0.542518516353785
-4.04,0.4195506802215176,0.4683420475176805
-4.0395,0.1848068333527131,0.1398462569577888
-4.039,-0.5727755815435212,-0.6231117082151915
-4.0385,-1.180975548430879,-1.311893204550448
-4.038,-1.533091318734086,-1.608599079894866
-4.0375,-0.9782422261341709,-1.025783967610388
-4.037,-0.1673089369510276,-0.4323722169215513
-4.0365,0.4622313796522482,-0.008506680714854012
-4.036,0.7823366253827955,0.3093924714403424
-4.0355,0.857027849386506,0.5001319627331828
-4.035,0.79300680024041,0.627291623595192
-4.0345,0.6969752265213537,0.6696781772158231
-4.034,0.6969752265212663,0.6484849004055269
-4.0335,0.7823366253827275,0.5319218779486851
-4.033,0.7183155762366897,0.5637117931641585
-4.0325,0.6222840025174102,0.6484849004056039
-4.032,0.5369226036560266,0.7332580076468663
-4.0315,0.2915085819295492,0.6060983467849728
-4.031,-0.4874141826820406,-0.06148987274118269
-4.0305,-1.074273799854052,-0.6019184314042303
-4.03,-1.917217613610214,-1.47084278062717
-4.0295,-2.504077230783701,-1.990078062481299
-4.029,-2.696140378221814,-2.138431000153508
-4.0285,-2.07727023647622,-1.693372187136476
-4.028,-1.159635198714795,-0.856237753127574
-4.0275,-0.3700422592469978,-0.1144730647665284
-4.027,0.1527963087794516,0.383568940276341
-4.0265,0.430220855078948,0.637888262000128
-4.026,0.5369226036560266,0.7120647308365314
-4.0255,0.5582629533713921,0.701468092431364
-4.025,0.536922603656046,0.6378882620004173
-4.0245,0.50491207908294,0.5637117931641007
-4.024,0.4622313796522482,0.4683420475176805
-4.0235,0.4088805053638835,0.3729723018712603
-4.023,0.3235191065018596,0.2140227257931127
-4.0225,-0.2420001609548061,-0.3899856633008816
-4.022,-0.9355615267035469,-1.142346990067085
-4.0215,-1.095614149569126,-1.513229334248437
-4.021,-0.7755089038389382,-1.301296566145281
-4.0205,-0.124628237520297,-0.6549016234300674
-4.02,0.4408910299371935,-0.02969995752480337
-4.0195,0.7823366253827275,0.3941655786815084
-4.019,0.8890383739595538,0.6378882620003594
-4.0185,0.8570278493865351,0.6696781772158328
-4.018,0.7609962756673623,0.5955017083796896
-4.0175,0.6863050516635838,0.5001319627331828
-4.017,0.8463576745286777,0.2564092794145534
-4.0165,0.8356874996710437,0.2670059178196438
-4.016,0.7289857510943143,0.4259554938970107
-4.0155,0.600943652802239,0.5955017083795354
-4.015,0.515582253940477,0.733258007646876
-4.0145,0.3128489316446912,0.7438546460520338
-4.014,-0.4340633083924143,0.108056341742566
-4.0135,-1.757164990746255,-1.227120097309572
-4.013,-2.322684258202921,-1.735758740757146
-4.0125,-2.781501777083275,-1.852321763213987
-4.012,-2.600108804501758,-1.735758740756413
-4.0115,-1.597112367880501,-0.9304142219644207
-4.011,-0.6367966306890638,-0.1356663415768632
-4.0105,-0.01792648894403348,0.372972301870711
-4.01,0.3448594562177392,0.6590815388106942
-4.0095,0.5049120790829789,0.775644561267536
-4.009,0.5475927785136705,0.775644561267536
-4.0085,0.5369226036559975,0.7332580076468181
-4.008,0.5049120790829789,0.6802748156210291
-4.0075,0.4835717293676329,0.6166949851900824
-4.007,0.440891029936815,0.542518516353679
-4.0065,0.3661998059331045,0.3517790250608387
-4.006,-0.1886492866663929,-0.2946159176543747
-4.0055,-0.9889124009930278,-1.131750351663151
-4.005,-1.46907026958831,-1.735758740757146
-4.0045,-1.682473766741963,-1.979481424075996
-4.004,-1.031593100422526,-1.354279758170376
-4.0035,-0.156638762093345,-0.5383386009732256
-4.003,0.4729015545099309,0.1292496185523226
-4.0025,0.7823366253824461,0.6060983467844233
-4.002,0.8356874996711408,0.8074344764830383
-4.0015,0.7823366253827275,0.8392243916985406
-4.001,0.6863050516636712,0.8180311148882251
-4.0005,0.7716664505250739,0.6484849004054208
-4,0.8036769750980928,0.5319218779486851
-3.9995,0.707645401378949,0.5319218779486851
-3.999,0.6116138276598051,0.5743084315693548
-3.9985,0.5262524287983441,0.6060983467848571
-3.998,0.408880505363835,0.627291623595192
-3.9975,-0.1459685872356623,0.4683420475176805
-3.997,-1.341028171296118,-0.6760949002404023
-3.9965,-1.917217613610981,-1.47084278062796
-3.996,-2.258663209056825,-2.021867977696666
-3.9955,-2.045259711903173,-1.979481424075996
-3.995,-1.223656247861609,-1.174136905283272
-3.9945,-0.3807124341046804,-0.3052125560595421
-3.994,0.1207857842064037,0.2352160026039969
-3.9935,0.3875401556484697,0.5319218779486851
-3.993,0.4942419042252961,0.6590815388106942
-3.9925,0.5262524287983441,0.6908714540261965
-3.992,0.5155822539406614,0.6802748156210291
-3.9915,0.4942419042252961,0.6590815388106942
-3.991,0.4835717293676135,0.627291623595192
-3.9905,0.4622313796522482,0.6060983467848571
-3.99,0.4195506802215176,0.5107286011383502
-3.9895,0.142126133921769,0.1822328105781598
-3.989,-0.6474668055467465,-0.4429688553267188
-3.9885,-1.202315898146244,-1.227120097309109
-3.988,-1.490410619303675,-1.79933857118815
-3.9875,-1.191645723288561,-1.576809164679634
-3.987,-0.4127229586777283,-0.8244478379127463
-3.9865,0.2701682322139607,-0.08268314955102604
-3.986,0.6542945270905358,0.4047622170866759
-3.9855,0.8036769750980928,0.7226613692416989
-3.985,0.8143471499557753,0.8710143069140429
-3.9845,0.7396559259519968,0.92399749893988
-3.984,0.7289857510943143,0.8922075837243778
-3.9835,0.8036769750980928,0.7862411996727035
-3.983,0.7289857510943143,0.701468092431364
-3.9825,0.6329541773751706,0.6590815388106942
-3.982,0.5475927785137094,0.627291623595192
-3.9815,0.4942419042252961,0.5955017083796896
-3.981,0.2594980573562781,0.4047622170866759
-3.9805,-0.5834457564006506,-0.474758770542221
-3.98,-1.746494815888059,-1.735758740757146
-3.9795,-2.173301810195364,-1.725162102351978
-3.979,-2.578768454787304,-0.6549016234300674
-3.9785,-2.23732285934146,0.1716361721729923
-3.978,-1.26633694729234,0.5107286011383502
-3.9775,-0.4554036581084589,0.4789386859228479
-3.977,0.08877525963335578,0.3729723018711736
-3.9765,0.3875401556484697,0.2987958330350016
-3.976,0.5155822539406614,0.2881991946298341
-3.9755,0.5475927785137094,0.3411823866556712
-3.975,0.5369226036560266,0.4259554938970107
-3.9745,0.5155822539406614,0.5319218779486851
-3.974,0.4942419042252961,0.6484849004055269
-3.9735,0.4622313796522482,0.7332580076468663
-3.973,0.4195506802215176,0.7650479228623686
-3.9725,0.07810508477567314,0.8392243916985406
-3.972,-0.6474668055467465,0.4365521323021782
-3.9715,-1.255666772434657,-0.326405832869877
-3.971,-1.202315898146244,-0.5277419625680583
-3.9705,-0.5087545323968721,-0.07208651114585861
-3.97,0.2061471830678648,0.5001319627331828
-3.9695,0.6756348768059011,0.9557874141553824
-3.969,0.8783681991018712,1.25249328950007
-3.9685,0.8890383739595538,1.358459673551745
-3.968,0.825017324813458,1.347863035146577
-3.9675,0.7289857510943143,1.25249328950007
-3.967,0.79300680024041,1.00877060618122
-3.9665,0.7503261008096795,0.8286277532933731
-3.966,0.6542945270905358,0.7120647308365314
-3.9655,0.5689331282290746,0.6166949851900245
-3.965,0.5049120790829789,0.5107286011383502
-3.9645,0.291508581929326,0.2564092794143318
-3.964,-0.7861790786966207,-0.792657922697244
-3.9635,-1.87453691418025,-1.852321763213987
-3.963,-2.109280761049269,-2.276187299420684
-3.9625,-2.408045657064382,-2.66826292041188
-3.962,-2.066600061618538,-2.371557045067191
-3.9615,-1.159635198715513,-1.364876396576285
-3.961,-0.3807124341046804,-0.4853554089473885
-3.9605,0.1101156093487211,0.05507314971615059
-3.96,0.3982103305061524,0.3517790250608387
-3.9595,0.5155822539406614,0.4471487707073456
-3.959,0.5475927785137094,0.4471487707073456
-3.9585,0.5369226036560266,0.4047622170866759
-3.958,0.5155822539406614,0.3517790250608387
-3.9575,0.5049120790829789,0.3199891098453364
-3.957,0.4622313796522482,0.2670059178194992
-3.9565,0.408880505363835,0.1928294489833272
-3.956,-0.03926683865883591,-0.3158091944647096
-3.9555,-0.7755089038389382,-1.0999604364471
-3.955,-1.180975548430879,-1.693372187136476
-3.9545,-1.277007122150022,-1.926498232050159
-3.954,-0.7008176798351597,-1.34368311976595
-3.9535,0.05676473506030786,-0.4535654937318862
-3.953,0.6116138276598051,0.2881991946298341
-3.9525,0.8783681991018712,0.7332580076468663
-3.952,0.9103787236749192,0.9663840525605498
-3.9515,0.8356874996711408,1.040560521396722
-3.951,0.7289857510943143,1.040560521396722
-3.9505,0.7396559259519968,1.00877060618122
-3.95,0.7609962756673623,0.9557874141553824
-3.9495,0.6969752265212663,0.9028042221295453
-3.949,0.6116138276598051,0.849821030103708
-3.9485,0.5475927785137094,0.7968378380778709
-3.948,0.4622313796522482,0.7226613692416989
-3.9475,0.08877525963335578,0.4471487707073456
-3.947,-0.8288597781273515,-0.4217755785163839
-3.9465,-1.981238662757077,-1.640388995110639
-3.946,-2.269333383914508,-1.979481424075996
-3.9455,-2.290673733629873,-2.127834361748341
-3.945,-1.575772018165136,-1.481439419033127
-3.9445,-0.6474668055467465,-0.5595318777835605
-3.944,-0.007256314085787988,0.06566978812131802
-3.9435,0.3235191065023739,0.4047622170866759
-3.943,0.4835717293676135,0.5425185163538525
-3.9425,0.5369226036560266,0.5743084315693548
-3.942,0.5369226036560266,0.5425185163538525
-3.9415,0.5155822539406614,0.5001319627331828
-3.941,0.4942419042252961,0.4683420475176805
-3.9405,0.4729015545099309,0.4365521323021782
-3.94,0.4622313796522482,0.4153588554918433
-3.9395,0.2381577076409128,0.1504428953626575
-3.939,-0.5621054066852853,-0.6337083466197325
-3.9385,-1.26633694729234,-1.449649503817625
-3.938,-1.479740444445993,-1.968884785670829
-3.9375,-1.180975548430879,-1.852321763213987
-3.937,-0.423393133535411,-1.036380606016095
-3.9365,0.2808384070716433,-0.252229364033705
-3.936,0.707645401378949,0.309392471440169
-3.9355,0.8356874996711408,0.6166949851900245
-3.935,0.8356874996711408,0.8074344764830383
-3.9345,0.7609962756673623,0.8922075837243778
-3.934,0.7609962756673623,0.849821030103708
-3.9335,0.9103787236749192,0.6590815388106942
-3.933,0.857027849386506,0.5955017083796896
-3.9325,0.7289857510943143,0.6166949851900245
-3.932,0.6116138276598051,0.6378882620003594
-3.9315,0.5155822539406614,0.6484849004055269
-3.931,0.2701682322139607,0.5425185163538525
-3.9305,-0.1352984123779797,0.5743084315693548
-3.93,-1.341028171296118,-0.4641621321370536
-3.9295,-2.098610586191586,-1.036380606016095
-3.929,-2.578768454787304,-0.3581957480853793
-3.9285,-2.269333383914508,0.2881991946298341
-3.928,-1.298347471865388,0.5319218779486851
-3.9275,-0.4020527838200457,0.5319218779486851
-3.927,0.1207857842064037,0.383568940276341
-3.9265,0.408880505363835,0.2776025562246667
-3.926,0.5262524287983441,0.2564092794143318
-3.9255,0.5475927785137094,0.2987958330350016
-3.925,0.5369226036560266,0.383568940276341
-3.9245,0.5155822539406614,0.4895353243280153
-3.924,0.4942419042252961,0.6060983467848571
-3.9235,0.4835717293676135,0.7226613692416989
-3.923,0.4515612047945656,0.7968378380778709
-3.9225,-0.02859666380115328,0.4047622170866759
-3.922,-0.9248913518464952,-0.4429688553267188
-3.9215,-1.522421143876723,-1.174136905283272
-3.921,-1.607782542738184,-1.42845622700729
-3.9205,-0.9248913518464952,-0.8032545611024114
-3.92,-0.09261771294724913,-0.008506680714854012
-3.9195,0.4942419042252961,0.6166949851900245
-3.919,0.7609962756673623,1.019367244586387
-3.9185,0.8143471499557753,1.316073119931075
-3.918,0.7716664505250448,1.432636142387917
-3.9175,0.6969752265212663,1.37965295036208
-3.917,0.8143471499557753,1.316073119931075
-3.9165,0.8143471499557753,1.146526905448396
-3.916,0.7183155762366316,0.9345941373450475
-3.9155,0.6116138276598051,0.7332580076468663
-3.915,0.5369226036560266,0.5425185163538525
-3.9145,0.3235191065023739,0.4683420475176805
-3.914,-0.3700422592469978,0.09745970333682032
-3.9135,-1.116954499284783,-0.6125150698093976
-3.913,-1.959898313041711,-1.545019249464132
-3.9125,-2.610778979360353,-2.360960406662024
-3.912,-2.098610586191586,-2.064254531317336
-3.9115,-1.244996597576974,-1.290699927740113
-3.911,-0.4020527838200457,-0.474758770542221
-3.9105,0.2061471830678648,0.1292496185523226
-3.91,0.4622313796522482,0.3729723018711736
-3.9095,0.5475927785137094,0.4471487707073456
-3.909,0.5475927785137094,0.4365521323021782
-3.9085,0.5262524287983441,0.4047622170866759
-3.908,0.5049120790829789,0.3729723018711736
-3.9075,0.4835717293676135,0.3411823866556712
-3.907,0.4729015545099309,0.3411823866556712
-3.9065,0.4515612047945656,0.309392471440169
-3.906,0.05676473506030786,-0.1462629799820306
-3.9055,-0.754168554123573,-0.9622041371799229
-3.905,-1.394379045584531,-1.682775548731308
-3.9045,-1.575772018165136,-1.809935209593318
-3.904,-0.9569018764195432,-1.0999604364471
-3.9035,-0.1352984123779797,-0.2840192792492073
-3.903,0.4835717293676135,0.3411823866556712
-3.9025,0.7716664505250448,0.7968378380778709
-3.902,0.8463576745288233,1.061753798207057
-3.9015,0.79300680024041,1.157123543853563
-3.901,0.6969752265212663,1.199510097474233
-3.9005,0.7503261008096795,1.178316820663898
-3.9,0.79300680024041,1.114736990232894
-3.8995,0.7289857510943143,1.040560521396722
-3.899,0.6329541773751706,0.9345941373450475
-3.8985,0.5475927785137094,0.8180311148882058
-3.898,0.4835717293676135,0.6696781772158616
-3.8975,-0.1459685872356623,-0.1568596183871981
-3.897,-1.415719395299897,-1.439052865412457
-3.8965,-2.183971985053047,-2.117237723343173
-3.896,-2.824182476514005,-2.678859558817047
-3.8955,-2.845522826229371,-2.827212496489391
-3.895,-1.885207089037933,-1.968884785670829
-3.8945,-0.8608703027003992,-0.9516074987747555
-3.894,-0.1459685872356623,-0.2098428104130352
-3.8935,0.291508581929326,0.2246193641988295
-3.893,0.5155822539406614,0.4259554938970107
-3.8925,0.5796033030867573,0.4683420475176805
-3.892,0.5796033030867573,0.4365521323021782
-3.8915,0.5582629533713921,0.383568940276341
-3.891,0.5262524287983441,0.3305857482505039
-3.8905,0.4942419042252961,0.2776025562246667
-3.89,0.4622313796522482,0.2352160026039969
-3.8895,0.2808384070716433,-0.008506680714854012
-3.889,-0.4660738329661415,-0.7396747306714069
-3.8885,-1.319687821580753,-1.51322933424863
-3.888,-1.863866739322568,-2.127834361748341
-3.8875,-1.597112367880501,-2.011271339291499
-3.887,-0.690147504977477,-1.036380606016095
-3.8865,0.1314559590640864,-0.1250697031716958
-3.886,0.6329541773751706,0.55311515475902
-3.8855,0.8676980242441885,0.9663840525605498
-3.885,0.8997085488172365,1.178316820663898
