Class_11_Cell_phone_Call/Class_11_Cell_phone_Call_Zakour_9.csv

#Digilent WaveForms Oscilloscope Acquisition
#Device Name: EExplorer
#Serial Number: SN:210151A2B84A
#Date Time: 2021-02-07 16:12:05.744
#Sample rate: 2000Hz
#Samples: 16384
#Trigger: Source: Channel 1 Type: Edge Condition: Rising Level: 0 V Hyst.: Auto HoldOff: 0 s
#Channel 1: Range: 1 V/div Offset: 0 V Attenuation: 1 X
#Channel 2: Range: 1 V/div Offset: 0 V Attenuation: 1 X
#Power Supplies: ON
#Fixed Supply: ON
#Voltage: 3.3 V Readback: 3.331 V
#Positive Supply: ON
#Voltage: 3.7 V Readback: 3.717 V
#Current: 40 mA Readback: 18 mA
#Negative Supply: ON
#Voltage: -3.7 V Readback: -3.712 V
#Current: -40 mA Readback: -6 mA
#Reference 1: ON
#Voltage: 0 V
#Reference 2: ON
#Voltage: 0 V

Time (s),Channel 1 (V),Channel 2 (V)
-4.096,-0.4874141826815069,-1.396666311791788
-4.0955,-0.00725631408622468,-0.8456411147235824
-4.095,0.2381577076409516,-0.2628260024384676
-4.0945,0.2808384070716433,0.1822328105781598
-4.094,0.2381577076409516,0.4577454091122625
-4.0935,0.1848068333525481,0.5425185163539296
-4.093,0.2381577076409128,0.627291623595192
-4.0925,0.2701682322139316,0.5849050699745607
-4.092,0.2168173579254796,0.394165578681306
-4.0915,0.142126133921769,0.1716361721729923
-4.091,0.09944543449103843,-0.008506680714854012
-4.0905,0.01408403562919882,-0.07208651114548274
-4.09,-0.4020527838200457,0.3411823866556712
-4.0895,-1.06360362499637,0.6908714540261965
-4.089,-1.39437904558423,0.08686306493220219
-4.0885,-1.725154466172693,-0.1356663415768632
-4.088,-1.533091318734406,-0.02969995752518888
-4.0875,-0.9995825758507589,-0.04029659593034667
-4.087,-0.5087545323965615,-0.06148987274068154
-4.0865,-0.1673089369510276,-0.05089323433552374
-4.086,0.01408403562941232,0.00208995769026523
-4.0855,0.08877525963337519,0.0868630649317589
-4.085,0.1101156093487211,0.2034260873884947
-4.0845,0.08877525963337518,0.3199891098452304
-4.084,0.06743490991797109,0.4365521323022456
-4.0835,0.04609456020262521,0.5107286011383502
-4.083,0.02475421048725994,0.5637117931641874
-4.0825,0.01408403562947055,0.5743084315692681
-4.082,-0.1032878878049318,0.4789386859228479
-4.0815,-0.690147504977477,-0.1250697031716958
-4.081,-1.212986073003451,-0.8456411147224259
-4.0805,-1.554431668449771,-1.417859588602123
-4.08,-1.223656247861609,-1.703968825541643
-4.0795,-0.4447334832514848,-1.598002441490065
-4.079,0.1207857842066366,-1.11055707485166
-4.0785,0.3768699807907871,-0.4429688553267188
-4.078,0.398210330506133,0.09745970333632886
-4.0775,0.3235191065022865,0.3941655786815952
-4.077,0.2274875327832301,0.4895353243280153
-4.0765,0.2168173579255572,0.4789386859228575
-4.076,0.2701682322139316,0.4047622170865409
-4.0755,0.2381577076409128,0.2564092794143318
-4.075,0.1741366584948169,0.08686306493165288
-4.0745,0.1314559590640378,-0.06148987274079719
-4.074,0.07810508477567314,-0.1780528951975329
-4.0735,-0.2953510352432193,0.07626642652648545
-4.073,-1.084943974711017,0.6272916235946908
-4.0725,-1.618452717595867,0.2987958330350016
-4.072,-1.767835165603424,-0.5277419625680583
-4.0715,-1.362368521011852,-0.7714646458866876
-4.071,-0.8075194284115687,-0.5913217929988026
-4.0705,-0.3487019095316325,-0.3052125560595421
-4.07,-0.07127736323213613,-0.06148987274091283
-4.0695,0.06743490991803902,0.1186529801472612
-4.069,0.1207857842064037,0.2352160026039969
-4.0685,0.1207857842064037,0.309392471440169
-4.068,0.09944543449101902,0.351779025060858
-4.0675,0.07810508477567314,0.3729723018711736
-4.067,0.05676473506030786,0.383568940276341
-4.0665,0.04609456020261551,0.3835689402763314
-4.066,0.03542438534494258,0.3729723018711736
-4.0655,0.00341386077189465,0.3305857482505039
-4.065,-0.4127229586773499,-0.1568596183867548
-4.0645,-0.9355615267041777,-0.9198175835592532
-4.064,-1.287677297007705,-1.545019249464132
-4.0635,-1.41571939529978,-1.958288147265286
-4.063,-0.8288597781267498,-1.990078062480778
-4.0625,-0.1673089369510276,-1.566212526274467
-4.062,0.2274875327828711,-0.9092209451546833
-4.0615,0.3555296310754024,-0.2522293640332809
-4.061,0.3341892813600565,0.2140227257936621
-4.0605,0.2594980573562781,0.457745409112513
-4.06,0.216817357925664,0.5637117931643031
-4.0595,0.3448594562177392,0.6908714540261965
-4.059,0.3768699807907871,0.5849050699745222
-4.0585,0.3128489316447495,0.3411823866558929
-4.058,0.2168173579255475,0.08686306493165288
-4.0575,0.142126133921769,-0.1144730647665284
-4.057,0.003413860772020799,-0.1356663415768439
-4.0565,-0.5834457564006506,0.3517790250608387
-4.056,-1.30901764672307,0.7120647308365314
-4.0555,-1.693143941599296,0.2246193641992728
-4.055,-1.959898313041381,0.2246193641988488
-4.0545,-1.597112367880501,0.2458126410091644
-4.054,-0.9782422261354713,0.1292496185524286
-4.0535,-0.4447334832504657,0.03387987290578681
-4.053,-0.1032878878049318,0.002089957690313421
-4.0525,0.07810508477567314,0.04447651131098315
-4.052,0.142126133921769,0.1504428953627731
-4.0515,0.142126133921769,0.2776025562246667
-4.051,0.1207857842064037,0.4153588554918433
-4.0505,0.09944543449105783,0.531921877948579
-4.05,0.0674349099179905,0.6166949851900245
-4.0495,0.05676473506030786,0.6802748156210291
-4.049,0.05676473506030786,0.7120647308365026
-4.0485,-0.1032878878053976,0.5319218779480972
-4.048,-0.6154562809736985,-0.1144730647665284
-4.0475,-1.084943974711308,-0.8032545611017852
-4.047,-1.543761493591807,-1.343683119766105
-4.0465,-1.234326422719292,-1.51322933424863
-4.046,-0.519424707255205,-1.17413690528358
-4.0455,0.02475421048750255,-0.5489352393778534
-4.045,0.291508581929326,0.04447651131098315
-4.0445,0.3661998059331045,0.4153588554918433
-4.044,0.3235191065023156,0.5743084315693742
-4.0435,0.2594980573562781,0.5955017083796896
-4.043,0.2274875327832301,0.5637117931641874
-4.0425,0.1954770082102113,0.4365521323022938
-4.042,0.1741366584948169,0.2564092794143318
-4.0415,0.142126133921769,0.05507314971615059
-4.041,0.1207857842064231,-0.1356663415766897
-4.0405,0.0994454344907764,-0.2840192792494
-4.04,-0.1886492866663929,-0.4959520473525559
-4.0395,-0.8288597781267691,-1.00459069080013
-4.039,-1.255666772434541,-1.598002441489949
-4.0385,-1.127624674142465,-1.576809164679634
-4.038,-0.7328282044085666,-1.089363798042375
-4.0375,-0.3593720843890629,-0.5701285161883713
-4.037,-0.08194753808956648,-0.1780528951975329
-4.0365,0.05676473506030786,0.05507314971615059
-4.036,0.1207857842064134,0.1716361721730405
-4.0355,0.1314559590640864,0.2246193641988295
-4.035,0.1207857842064037,0.2458126410091644
-4.0345,0.1101156093487308,0.2564092794143221
-4.034,0.08877525963335578,0.2670059178194992
-4.0335,0.07810508477567314,0.2670059178194992
-4.033,0.0674349099180002,0.2670059178194992
-4.0325,0.06743490991792257,0.2564092794142258
-4.032,-0.007256314085787988,0.13984625695749
-4.0315,-0.519424707254089,-0.4959520473519777
-4.031,-1.04226327528115,-1.227120097309591
-4.0305,-1.202315898146244,-1.75695201756748
-4.03,-0.8715404775583828,-2.074851169722214
-4.0295,-0.220659811238975,-1.97948142407564
-4.029,0.291508581929326,-1.587405803084801
-4.0285,0.4942419042252961,-0.9304142219644207
-4.028,0.4835717293675262,-0.2310360872229461
-4.0275,0.3875401556484697,0.2352160026039969
-4.027,0.2701682322139607,0.4789386859228479
-4.0265,0.2488278824986148,0.6378882620002149
-4.026,0.5049120790829789,1.029963882991555
-4.0255,0.6116138276598051,1.125333628638062
-4.025,0.5155822539407487,0.8816109453194321
-4.0245,0.3555296310752956,0.5531151547587694
-4.024,0.2168173579255475,0.2776025562246667
-4.0235,-0.1139580626623136,0.3941655786814024
-4.023,-0.8288597781280114,0.8392243916982225
-4.0225,-1.554431668449771,0.4895353243280153
-4.022,-1.778505340460903,-0.2946159176536614
-4.0215,-1.469070269587796,-0.5489352393783449
-4.021,-0.9035510021311299,-0.4959520473525559
-4.0205,-0.4020527838200457,-0.3475991096802118
-4.02,-0.08194753808941121,-0.1886495336025751
-4.0195,0.08877525963335578,-0.05089323433552374
-4.019,0.1527963087794516,0.07626642652648545
-4.0185,0.1634664836371246,0.1716361721729056
-4.018,0.142126133921769,0.2564092794143318
-4.0175,0.1207857842064037,0.3411823866556712
-4.017,0.1101156093487308,0.4153588554917759
-4.0165,0.08877525963334608,0.4259554938969914
-4.016,0.07810508477567314,0.4047622170866759
-4.0155,0.04609456020265433,0.3411823866557291
-4.015,-0.3807124341052627,-0.156859618387892
-4.0145,-1.020922925565639,-0.9198175835592532
-4.014,-1.3516983461535,-1.449649503817143
-4.0135,-1.148965023857268,-1.629792356705365
-4.013,-0.5300948821122373,-1.51322933424863
-4.0125,0.0674349099179905,-1.174136905283272
-4.012,0.376869980790855,-0.6019184314037003
-4.0115,0.4515612047945656,-0.01910331912002144
-4.011,0.3875401556484697,0.383568940276341
-4.0105,0.3021787567870863,0.5955017083794969
-4.01,0.2274875327832301,0.6590815388106942
-4.0095,0.2808384070716433,0.7332580076468663
-4.009,0.2808384070716433,0.6378882620004461
-4.0085,0.2381577076408642,0.4471487707071529
-4.008,0.1848068333524996,0.2352160026039969
-4.0075,0.1421261339218078,0.03387987290599884
-4.007,-0.03926683865941819,0.04447651131147467
-4.0065,-0.6794773301197943,0.5849050699745222
-4.006,-1.405049220442214,0.6908714540261965
-4.0055,-1.85319656446505,-0.008506680714902199
-4.005,-2.03458953704549,-0.06148987274069118
-4.0045,-1.575772018165136,0.01268659609548085
-4.004,-0.9248913518460002,-0.008506680714892563
-4.0035,-0.3807124341046804,-0.05089323433552374
-4.003,-0.03926683865883591,-0.05089323433552374
-4.0025,0.1207857842062581,-0.01910331912005036
-4.002,0.1848068333524996,0.04447651131098315
-4.0015,0.1848068333524996,0.1292496185523226
-4.001,0.1634664836371537,0.2246193641987428
-4.0005,0.1314559590640572,0.3093924714402268
-4,0.09944543449103843,0.3729723018711736
-3.9995,0.08877525963335578,0.383568940276341
-3.999,0.07810508477567314,0.3623756634660061
-3.9985,-0.1139580626626144,0.13984625695749
-3.998,-0.5834457564006506,-0.4641621321370536
-3.9975,-0.9675720512772257,-1.046977244421262
-3.997,-1.202315898146244,-1.449649503817625
-3.9965,-0.8288597781273515,-1.407262950196955
-3.996,-0.2420001609548061,-1.025783967610927
-3.9955,0.1741366584948169,-0.4641621321370536
-3.995,0.3555296310754218,0.08686306493165288
-3.9945,0.3661998059331045,0.5107286011383502
-3.994,0.3128489316446912,0.7226613692416989
-3.9935,0.2594980573562781,0.7650479228623686
-3.993,0.3448594562177392,0.8286277532933731
-3.9925,0.4515612047945656,0.7968378380778709
-3.992,0.3875401556484697,0.5849050699745222
-3.9915,0.291508581929326,0.3305857482505039
-3.991,0.2061471830678648,0.08686306493165288
-3.9905,0.1314559590640864,-0.06148987274069118
-3.99,-0.2953510352432193,0.04447651131098315
-3.9895,-0.9995825758502737,-0.06148987274069118
-3.989,-1.479740444445993,-0.7608680074817418
-3.9885,-1.607782542738184,-1.375473034981453
-3.988,-1.255666772434657,-1.248313374119443
-3.9875,-0.722158029550525,-0.792657922697244
-3.987,-0.2846808603855366,-0.3475991096802118
-3.9865,-0.007256314085787988,-0.04029659593035631
-3.986,0.1314559590640864,0.13984625695749
-3.9855,0.1848068333524996,0.2246193641988295
-3.985,0.1848068333524996,0.2670059178194992
-3.9845,0.1634664836371343,0.2670059178194992
-3.984,0.142126133921769,0.2670059178194992
-3.9835,0.1207857842064037,0.2564092794143318
-3.983,0.09944543449103843,0.2352160026039969
-3.9825,0.09944543449103843,0.1822328105781598
-3.982,-0.007256314085787988,0.01268659609548085
-3.9815,-0.6154562809736985,-0.6654982618352349
-3.981,-1.202315898146244,-1.38606967338662
-3.9805,-1.298347471865388,-1.75695201756748
-3.98,-0.8288597781273515,-1.629792356705471
-3.9795,-0.156638762093345,-1.375473034981453
-3.979,0.3021787567870086,-0.9410108603695881
-3.9785,0.4729015545099309,-0.3581957480853793
-3.978,0.4622313796522482,0.1504428953626575
-3.9775,0.3768699807907871,0.4895353243280153
-3.977,0.291508581929326,0.6484849004055269
-3.9765,0.2274875327832301,0.6696781772158616
-3.976,0.2168173579255475,0.6378882620003594
-3.9755,0.2061471830678648,0.5637117931641874
-3.975,0.1954770082101822,0.457745409112513
-3.9745,0.1848068333524996,0.3623756634660061
-3.974,0.1741366584948169,0.2670059178194992
-3.9735,-0.02859666380115328,0.4153588554918433
-3.973,-0.6154562809736985,0.8710143069140429
-3.9725,-1.06360362499637,0.5107286011383502
-3.972,-1.46907026958831,-0.1356663415768632
-3.9715,-1.533091318734406,-0.1144730647665284
-3.971,-1.095614149569417,-0.09327978795619347
-3.9705,-0.572775581542968,-0.1038764263613609
-3.97,-0.1779791118087102,-0.1144730647665284
-3.9695,0.05676473506030786,-0.09327978795619347
-3.969,0.1634664836371343,-0.05089323433552374
-3.9685,0.1954770082101822,0.01268659609548085
-3.968,0.1848068333524996,0.08686306493165288
-3.9675,0.1634664836371343,0.1716361721729923
-3.967,0.142126133921769,0.2458126410091644
-3.9665,0.1207857842064037,0.2987958330350016
-3.966,0.1101156093487211,0.3305857482505039
-3.9655,0.09944543449103843,0.3305857482505039
-3.965,-0.2633405106701714,-0.04029659593035631
-3.9645,-0.8608703027003992,-0.7078848154559045
-3.964,-1.06360362499637,-1.184733543688439
-3.9635,-1.202315898146244,-1.555615887869299
-3.963,-0.754168554123573,-1.640388995110639
-3.9625,-0.1139580626626144,-1.354279758171118
-3.962,0.3128489316446912,-0.7608680074817418
-3.9615,0.4622313796522482,-0.09327978795619347
-3.961,0.4515612047945656,0.4047622170866759
-3.9605,0.3661998059331045,0.6696781772158616
-3.96,0.2808384070716433,0.7544512844572011
-3.9595,0.2594980573562781,0.775644561267536
-3.959,0.2274875327832301,0.6802748156210291
-3.9585,0.2061471830678648,0.5319218779486851
-3.958,0.1848068333524996,0.3623756634660061
-3.9575,0.1634664836371343,0.2140227257936621
-3.957,0.04609456020262521,0.1928294489833272
-3.9565,-0.5941159312583333,0.6696781772158616
-3.956,-1.277007122150022,0.701468092431364
-3.9555,-1.51175096901904,-0.1568596183871981
-3.955,-1.319687821580753,-0.8244478379127463
-3.9545,-0.839529952985034,-0.8138511995075789
-3.954,-0.3807124341046804,-0.5595318777835605
-3.9535,-0.06060718837420119,-0.2840192792492073
-3.953,0.1207857842064037,-0.08268314955102604
-3.9525,0.1954770082101822,0.04447651131098315
-3.952,0.2061471830678648,0.1080563417419877
-3.9515,0.1954770082101822,0.1504428953626575
-3.951,0.1741366584948169,0.1716361721729923
-3.9505,0.1634664836371343,0.1928294489833272
-3.95,0.142126133921769,0.1928294489833272
-3.9495,0.1314559590640864,0.1928294489833272
-3.949,0.1207857842064037,0.2034260873884947
-3.9485,-0.03926683865883591,-0.008506680714854012
-3.948,-0.6474668055467465,-0.6760949002404023
-3.9475,-1.095614149569417,-1.311893204550448
-3.947,-1.341028171296118,-1.820531847998485
-3.9465,-0.9569018764195432,-1.894708316834657
-3.946,-0.274010685527854,-1.598002441489969
-3.9455,0.2274875327832301,-1.025783967610927
-3.945,0.4195506802215176,-0.326405832869877
-3.9445,0.4408910299368829,0.2246193641988295
-3.944,0.3768699807907871,0.55311515475902
-3.9435,0.3021787567870086,0.6802748156210291
-3.943,0.3235191065023739,0.7332580076468663
-3.9425,0.3768699807907871,0.7226613692416989
-3.942,0.3341892813600565,0.6590815388106942
-3.9415,0.2701682322139607,0.5425185163538525
-3.941,0.2168173579255475,0.4047622170866759
-3.9405,0.1848068333524996,0.2670059178194992
-3.94,0.3448594562177392,0.4365521323021782
-3.9395,0.3448594562177392,0.701468092431364
-3.939,-0.1779791118087102,0.04447651131098315
-3.9385,-0.6261264558313813,-0.6866915386455698
-3.938,-0.5941159312583333,-0.792657922697244
-3.9375,-0.3700422592469978,-0.6019184314042303
-3.937,-0.1352984123779797,-0.3475991096802118
-3.9365,0.03542438534494258,-0.1568596183871981
-3.936,0.1314559590640864,-0.04029659593035631
-3.9355,0.1741366584948169,0.03387987290581572
-3.935,0.1848068333524996,0.07626642652648545
-3.9345,0.1741366584948169,0.09745970333682032
-3.934,0.1634664836371343,0.1186529801471552
-3.9335,0.142126133921769,0.1292496185523226
-3.933,0.1207857842064037,0.13984625695749
-3.9325,0.1207857842064037,0.1504428953626575
-3.932,0.0674349099179905,0.08686306493165288
-3.9315,-0.4447334832507763,-0.4853554089473885
-3.931,-0.9355615267041777,-1.205926820498774
-3.9305,-1.095614149569417,-1.672178910326141
-3.93,-0.6474668055467465,-1.75695201756748
-3.9295,-0.007256314085787988,-1.51322933424863
-3.929,0.4302208550792003,-0.9939940523954253
-3.9285,0.5796033030867573,-0.3475991096802118
-3.928,0.5475927785137094,0.2352160026039969
-3.9275,0.4408910299368829,0.6060983467848571
-3.927,0.3341892813600565,0.7650479228623686
-3.9265,0.2701682322139607,0.7862411996727035
-3.926,0.3128489316446912,0.7650479228623686
-3.9255,0.3128489316446912,0.6908714540261965
-3.925,0.2701682322139607,0.5743084315693548
-3.9245,0.2381577076409128,0.4471487707073456
-3.924,0.1954770082101822,0.309392471440169
-3.9235,-0.04993701351651855,0.4153588554918433
-3.923,-0.8502001278427167,0.8922075837243778
-3.9225,-1.543761493592088,0.627291623595192
-3.922,-1.895877263895616,-0.3158091944647096
-3.9215,-1.799845690176472,-0.718481453861072
-3.921,-1.212986073003927,-0.6231117082145651
-3.9205,-0.5941159312583333,-0.3793890248957141
-3.92,-0.156638762093345,-0.1674562567923655
-3.9195,0.09944543449103843,-0.02969995752518888
-3.919,0.2168173579255475,0.05507314971615059
-3.9185,0.2381577076409128,0.09745970333682032
-3.918,0.2274875327832301,0.1186529801471552
-3.9175,0.2061471830678648,0.13984625695749
-3.917,0.1741366584948169,0.1504428953626575
-3.9165,0.1527963087794516,0.1504428953626575
-3.916,0.142126133921769,0.1504428953626575
-3.9155,0.1314559590640864,0.1292496185523226
-3.915,-0.2099896363817582,-0.2840192792492073
-3.9145,-0.8715404775580819,-1.05757388282643
-3.914,-1.298347471865388,-1.746355379162313
-3.9135,-1.479740444445993,-2.244397384205182
-3.913,-0.9569018764195432,-2.297380576231019
-3.9125,-0.2206598112394408,-1.788741932782983
-3.912,0.3021787567870086,-1.121153713257435
-3.9115,0.5262524287983441,-0.3687923864905467
-3.911,0.5369226036560266,0.2670059178194992
-3.9105,0.4622313796522482,0.6484849004055269
-3.91,0.3555296310754218,0.7968378380778709
-3.9095,0.4515612047945656,0.9451907757502149
-3.909,0.5049120790829789,0.9134008605347127
-3.9085,0.4302208550792003,0.7120647308365314
-3.908,0.3341892813600565,0.4789386859228479
-3.9075,0.2594980573562781,0.2776025562246667
-3.907,0.142126133921769,0.1928294489833272
-3.9065,-0.3060212101009019,0.5955017083796896
-3.906,-0.7434983792658902,0.775644561267536
-3.9055,-0.8288597781273515,0.09745970333682032
-3.905,-1.084943974711735,-0.1038764263613609
-3.9045,-1.010252750707956,-0.05089323433552374
-3.904,-0.6367966306890638,-0.1250697031716958
-3.9035,-0.2633405106701714,-0.1992461720078678
-3.903,-0.007256314085787988,-0.2204394488182027
-3.9025,0.142126133921769,-0.1886495336027004
-3.902,0.2061471830678648,-0.1038764263613609
-3.9015,0.2168173579255475,0.02328323450064829
-3.901,0.2061471830678648,0.1504428953626575
-3.9005,0.1848068333524996,0.2881991946298341
-3.9,0.1741366584948169,0.3941655786815084
-3.8995,0.1527963087794516,0.4683420475176805
-3.899,0.142126133921769,0.5107286011383502
-3.8985,0.03542438534494258,0.457745409112513
-3.898,-0.572775581542968,-0.1038764263613609
-3.8975,-1.052933450138687,-0.7078848154559045
-3.897,-1.383708870726849,-1.142346990067769
-3.8965,-1.1062843244271,-1.227120097309109
-3.896,-0.4340633083930936,-0.9304142219644207
-3.8955,0.1101156093487211,-0.4429688553267188
-3.895,0.3768699807907871,0.1186529801471552
-3.8945,0.4408910299368829,0.5637117931641874
-3.894,0.3982103305061524,0.8180311148882058
-3.8935,0.3341892813600565,0.8922075837243778
-3.893,0.3128489316446912,0.8074344764830383
-3.8925,0.3235191065023739,0.6378882620003594
-3.892,0.291508581929326,0.457745409112513
-3.8915,0.2594980573562781,0.2776025562246667
-3.891,0.2381577076409128,0.1080563417419877
-3.8905,0.2274875327832301,-0.01910331912002144
-3.89,0.1848068333524996,0.04447651131098315
-3.8895,-0.2953510352432193,0.4683420475176805
-3.889,-0.9035510021311299,0.1186529801471552
-3.8885,-1.415719395299897,-0.6760949002404023
-3.888,-1.405049220442214,-0.8774310299385835
-3.8875,-0.9462317015618604,-0.6760949002404023
