Class_11_Cell_phone_Call/Class_11_Cell_phone_Call_Zakour_5.csv

#Digilent WaveForms Oscilloscope Acquisition
#Device Name: EExplorer
#Serial Number: SN:210151A2B84A
#Date Time: 2020-12-21 15:21:55.359
#Sample rate: 2000Hz
#Samples: 16384
#Trigger: Source: Channel 1 Type: Edge Condition: Rising Level: 0 V Hyst.: Auto HoldOff: 0 s
#Channel 1: Range: 1 V/div Offset: 0 V
#Channel 2: Range: 1 V/div Offset: 0 V

Time (s),Channel 1 (V),Channel 2 (V)
-4.0960000000000001,0.88903837395955376,0.63788826200035942
-4.0955000000000004,0.46223137965263639,1.0193672445860402
-4.0949999999999998,-0.41272295867850473,1.2736865663104824
-4.0945,-1.2663369472923398,1.3584596735517449
-4.0940000000000003,-1.373038695869069,0.95578741415574853
-4.0934999999999997,-0.91422117698832717,0.19282944898272003
-4.093,-0.38071243410468042,-0.47475877054222104
-4.0925000000000002,0.024754210486891193,-0.86683439153305952
-4.0919999999999996,0.27016823221406744,-1.0151873292057312
-4.0914999999999999,0.38754015564846972,-0.98339741399025782
-4.0910000000000002,0.40888050536383502,-0.85623775312824868
-4.0904999999999996,0.39821033050613297,-0.67609490024022878
-4.0899999999999999,0.3768699807907871,-0.48535540894738849
-4.0895000000000001,0.32351910650237387,-0.30521255605954212
-4.0890000000000004,0.2381577076409904,-0.12506970317185961
-4.0884999999999998,-0.028596663801153277,0.16103953376782493
-4.0880000000000001,-0.58344575640065055,0.40476221708667587
-4.0875000000000004,-1.2556667724340458,0.48953532432793823
-4.0869999999999997,-1.7785053404610482,0.78624119967257822
-4.0865,-1.7144842913150107,0.64848490040552687
-4.0860000000000003,-0.83952995298582977,-0.029699957524571996
-4.0854999999999997,0.078105084776226297,-0.48535540894756196
-4.085,0.6863050516635838,-0.67609490024040231
-4.0845000000000002,0.96372959796308022,-0.66549826183524452
-4.0839999999999996,0.97439977282090817,-0.59132179299894716
-4.0834999999999999,0.857027849386506,-0.4641621321370536
-4.0830000000000002,0.72898575109431429,-0.28401927924920728
-4.0824999999999996,0.81434714995575586,-0.12506970317161867
-4.0819999999999999,0.79300680024041004,-0.04029659593035631
-4.0815000000000001,0.67563487680590106,-0.0085066807148540119
-4.0810000000000004,0.54759277851382582,-0.0085066807148540119
-4.0804999999999998,0.4622313796522482,-0.029699957525188878
-4.0800000000000001,0.3982103305061524,0.012686596095480854
-4.0795000000000003,0.11011560934898307,0.39416557868116148
-4.0789999999999997,-0.61545628097433902,0.86041766850915491
-4.0785,-1.3196878215807528,1.1677201822587309
-4.0780000000000003,-1.8852070890374186,1.2630899279051511
-4.0774999999999997,-2.1733018101948303,1.1571235438529659
-4.077,-1.586442193022819,0.50013196273318283
-4.0765000000000002,-0.81818960327036749,-0.2946159176536518
-4.0759999999999996,-0.19931946152372618,-0.8774310299388437
-4.0754999999999999,0.18480683335249956,-1.1635402668781043
-4.0750000000000002,0.3768699807907871,-1.2165234589039415
-4.0744999999999996,0.44089102993687324,-1.1105570748520937
-4.0739999999999998,0.43022085507920033,-0.91981758355925325
-4.0735000000000001,0.3768699807907871,-0.6972881770507372
-4.0730000000000004,0.28083840707173069,-0.45356549373210786
-4.0724999999999998,0.19547700821018218,-0.2310360872233701
-4.0720000000000001,0.14212613392176898,-0.0085066807148540119
-4.0715000000000003,-0.092617712947035635,0.27760255622440644
-4.0709999999999997,-0.70081767983548005,0.69087145402658201
-4.0705,-1.0529334501386869,1.1147369902328941
-4.0700000000000003,-1.1169544992847245,1.3902495887669968
-4.0694999999999997,-0.81818960326908641,1.1783168206633201
-4.069,-0.17797911180871023,0.54251851635385251
-4.0685000000000002,0.3768699807907871,-0.029699957525188878
-4.0679999999999996,0.7609962756674884,-0.4005823017062225
-4.0674999999999999,0.8997085488172365,-0.59132179299906285
-4.0670000000000002,0.8997085488172365,-0.63370834661973252
-4.0664999999999996,0.81434714995576563,-0.54893523937821953
-4.0659999999999998,0.80367697509809277,-0.3581957480853793
-4.0655000000000001,0.87836819910187125,-0.13566634157686319
-4.0650000000000004,0.81434714995583346,0.01268659609534592
-4.0644999999999998,0.66496470194821833,0.097459703336820316
-4.0640000000000001,0.53692260365602662,0.15044289536265748
-4.0635000000000003,0.45156120479464323,0.17163617217297306
-4.0629999999999997,0.46223137965192795,0.41535885549222884
-4.0625,0.11011560934872107,0.83922439169854057
-4.0620000000000003,-0.72215802954976804,1.1783168206635899
-4.0614999999999997,-1.4690702695887661,1.3266697583362137
-4.0609999999999999,-1.9705684878993939,1.2948798431207402
-4.0605000000000002,-1.6397930673112322,0.75445128445720111
-4.0599999999999996,-0.93556152670360515,-0.050893234336111634
-4.0594999999999999,-0.30602121010090194,-0.6972881770507372
-4.0590000000000002,0.12078578420640371,-1.0681705212315973
-4.0585000000000004,0.33418928135986248,-1.1741369052831754
-4.0579999999999998,0.41955068022151765,-1.1105570748522671
-4.0575000000000001,0.43022085507920033,-0.95160749877475548
-4.0570000000000004,0.39821033050618149,-0.73967473067159961
-4.0564999999999998,0.34485945621773917,-0.52774196256805828
-4.056,0.28083840707164331,-0.32640583286987701
-4.0555000000000003,0.21681735792560572,-0.11447306476672112
-4.0549999999999997,0.16346648363688196,0.097459703337176906
-4.0545,-0.11395806266261441,0.48953532432801533
-4.0540000000000003,-0.75416855412299066,0.95578741415495827
-4.0534999999999997,-1.4797404444461963,1.3266697583363003
-4.0529999999999999,-1.7038141164573279,1.3902495887672472
-4.0525000000000002,-0.94623170156186043,0.90280422212954525
-4.0519999999999996,-0.060607188373686852,0.19282944898288387
-4.0514999999999999,0.50491207908297886,-0.29461591765437467
-4.0510000000000002,0.75032610080967954,-0.51714532416289083
-4.0505000000000004,0.79300680024037118,-0.52774196256804862
-4.0499999999999998,0.73965592595199681,-0.44296885532671876
-4.0495000000000001,0.69697522652126631,-0.28401927924920728
-4.0490000000000004,0.79300680024032266,0.023283234500368788
-4.0484999999999998,0.75032610080956308,0.13984625695749967
-4.048,0.62228400251748783,0.15044289536265748
-4.0475000000000003,0.51558225394075841,0.13984625695749967
-4.0469999999999997,0.44089102993697027,0.1292496185523708
-4.0465,0.53692260365602662,0.18223281057815977
-4.0460000000000003,0.86769802424388764,0.47893868592257804
-4.0454999999999997,0.28083840707071167,0.9028042221298247
-4.0449999999999999,-0.74349837926589024,1.2101067358794007
-4.0445000000000002,-1.6291228924535495,1.3478630351465775
-4.0439999999999996,-1.8105158650336497,1.1041403518270423
-4.0434999999999999,-1.2556667724346571,0.35177902506083869
-4.0430000000000001,-0.59411593125833329,-0.38998566330088158
-4.0425000000000004,-0.071277363232359336,-0.87743102993814015
-4.0419999999999998,0.23815770764091276,-1.1105570748522671
-4.0415000000000001,0.38754015564846972,-1.131750351662602
-4.0410000000000004,0.43022085507916152,-1.0363806060161818
-4.0404999999999998,0.41955068022147884,-0.86683439153323305
-4.04,0.3768699807907871,-0.66549826183523486
-4.0395000000000003,0.32351910650242238,-0.47475877054239451
-4.0389999999999997,0.24882788249854687,-0.29461591765421086
-4.0385,0.19547700821018218,-0.11447306476652835
-4.0380000000000003,-0.23132998609673525,0.22461936419852108
-4.0374999999999996,-1.0529334501393661,0.64848490040591233
-4.0369999999999999,-1.7998456901764717,1.0723504366122243
-4.0365000000000002,-1.9812386627570766,1.1995100974742332
-4.0359999999999996,-1.1489650238569669,0.74385464605146512
-4.0354999999999999,-0.19931946152407554,0.11865298014715518
-4.0350000000000001,0.41955068022151765,-0.33700247127504446
-4.0345000000000004,0.79300680024007031,-0.55953187778335811
-4.0339999999999998,0.8997085488172365,-0.63370834661973252
-4.0335000000000001,0.83568749967114075,-0.60191843140423029
-4.0330000000000004,0.72898575109441133,-0.48535540894749452
-4.0324999999999998,0.84635767452883293,-0.40058230170588521
-4.032,0.857027849386506,-0.22043944881820265
-4.0315000000000003,0.72898575109443076,-0.050893234335677939
-4.0309999999999997,0.59027347794434282,0.086863064931749265
-4.0305,0.4835717293676135,0.19282944898332721
-4.0300000000000002,0.44089102993692175,0.27760255622458957
-4.0294999999999996,0.60094365280191875,0.60609834678521368
-4.0289999999999999,0.3768699807907871,0.99817396777605205
-4.0285000000000002,-0.43406330839309365,1.2313000126897355
-4.0279999999999996,-1.2129860730044797,1.0511571598017544
-4.0274999999999999,-1.8211860398918371,0.90280422212954525
-4.0270000000000001,-1.6291228924535495,0.41535885549184332
-4.0265000000000004,-0.96757205127782731,-0.28401927924857123
-4.0259999999999998,-0.34870190953163249,-0.82444783791274634
-4.0255000000000001,0.078105084775673142,-1.1211537132574345
-4.0250000000000004,0.31284893164447775,-1.1847335436883815
-4.0244999999999997,0.40888050536385445,-1.110557074852113
-4.024,0.43022085507920033,-0.94101086036958814
-4.0235000000000003,0.37686998079083561,-0.72907809226643217
-4.0229999999999997,0.30217875678689216,-0.50654868575752099
-4.0225,0.17413665849481691,-0.28401927924920728
-4.0220000000000002,-0.039266838658641806,-0.019103319120262363
-4.0214999999999996,-0.46607383296672378,0.33058574825090864
-4.0209999999999999,-1.1062843244271001,0.775644561267536
-4.0205000000000002,-1.6824737667419627,1.1889134590690658
-4.0199999999999996,-2.0025790124720246,1.4008462271720388
-4.0194999999999999,-1.5437614935920885,0.98757732937088472
-4.0190000000000001,-0.62612645583138127,0.30939247144016896
-4.0185000000000004,0.12078578420572439,-0.22043944881772087
-4.0179999999999998,0.6116138276598051,-0.49595204735255594
-4.0175000000000001,0.81434714995577528,-0.52774196256805828
-4.0170000000000003,0.83568749967112133,-0.4111789401113225
-4.0164999999999997,0.76099627566737194,-0.30521255605943609
-4.016,0.77166645052504479,-0.18864953360270037
-4.0155000000000003,0.81434714995573643,-0.04029659593049123
-4.0149999999999997,0.72898575109420749,0.1186529801472901
-4.0145,0.6116138276598051,0.26700591781949923
-4.0140000000000002,0.50491207908307589,0.3411823866556038
-4.0134999999999996,0.45156120479452677,0.38356894027652416
-4.0129999999999999,0.40888050536383502,0.58490506997452218
-4.0125000000000002,0.0034138607718946501,0.94519077575021493
-4.0119999999999996,-0.76483872898185712,1.2207033742844429
-4.0114999999999998,-1.4263895701575793,1.0829470750173917
-4.0110000000000001,-1.9705684878993939,0.80743447648303834
-4.0105000000000004,-1.9278877884687022,0.51072860113862006
-4.0099999999999998,-1.2449965975769743,-0.12506970317169577
-4.0095000000000001,-0.53009488211223732,-0.70788481545590454
-4.0090000000000003,-0.017926488943936447,-1.0681705212312695
-4.0084999999999997,0.28083840707176949,-1.2059268204987452
-4.008,0.41955068022151765,-1.1741369052832717
-4.0075000000000003,0.45156120479453643,-1.0363806060162202
-4.0069999999999997,0.43022085507915181,-0.84564111472289816
-4.0065,0.3768699807907871,-0.64430498502489997
-4.0060000000000002,0.32351910650237387,-0.43237221692155131
-4.0054999999999996,0.25949805735619075,-0.22043944881800989
-4.0049999999999999,0.16346648363713429,-0.0085066807148540119
-4.0045000000000002,-0.40205278382004572,0.42595549389701071
-4.0039999999999996,-1.1169544992850349,0.9239974989401788
-4.0034999999999998,-1.3943790455845313,1.2524932895000704
-4.0030000000000001,-1.0956141495694174,1.0511571598018894
-4.0025000000000004,-0.31669138495929305,0.47893868592336841
-4.0019999999999998,0.32351910650237387,-0.04029659593035631
-4.0015000000000001,0.6863050516635838,-0.34759910968021185
-4.0010000000000003,0.8250173248133319,-0.45356549373178984
-4.0004999999999997,0.81434714995572677,-0.44296885532661273
-4,0.76099627566736228,-0.32640583286987701
-3.9994999999999998,0.72898575109431429,-0.12506970317169577
-3.9990000000000001,0.88903837395955376,0.18223281057815977
-3.9984999999999999,0.84635767452882327,0.21402272579366208
-3.9980000000000002,0.69697522652126631,0.11865298014715518
-3.9975000000000001,0.54759277851370936,0.023283234500648287
-3.9969999999999999,0.4622313796522482,-0.04029659593035631
-3.9965000000000002,0.51558225394066137,0.055073149716150585
-3.996,0.92104889853260175,0.46834204751768049
-3.9954999999999998,0.47290155450993088,0.9134008605347127
-3.9950000000000001,-0.54076505696992005,1.0935437134225592
-3.9944999999999999,-1.4477299198729445,0.92399749893988004
-3.9940000000000002,-1.9385579633263461,0.83922439169854057
-3.9935,-1.522421143876723,0.34118238665567124
-3.9929999999999999,-0.82885977812735145,-0.26282600243887239
-3.9925000000000002,-0.23132998609712346,-0.70788481545590454
-3.992,0.16346648363713429,-0.9092209451540858
-3.9914999999999998,0.35552963107542179,-0.9304142219644207
-3.9910000000000001,0.43022085507920033,-0.82444783791274634
-3.9904999999999999,0.43022085507920033,-0.65490162343006741
-3.9900000000000002,0.36619980593310447,-0.4641621321370536
-3.9895,0.27016823221396069,-0.27342264084403983
-3.9889999999999999,0.17413665849481691,-0.082683149551026042
-3.9885000000000002,-0.15663876209334496,0.24581264100916439
-3.988,-0.77550890383893822,0.62729162359519197
-3.9874999999999998,-1.5010807941613578,0.99817396777605205
-3.9870000000000001,-2.1306211107646336,1.3160731199310751
-3.9864999999999999,-2.1946421599107295,1.4220395039827496
-3.9860000000000002,-1.1916457232885611,0.94519077575021493
-3.9855,-0.15663876209334496,0.20342608738849466
-3.9849999999999999,0.47290155450993088,-0.36879238649054674
-3.9845000000000002,0.77166645052504479,-0.67609490024040231
-3.984,0.857027849386506,-0.65490162343006741
-3.9834999999999998,0.84635767452882327,-0.53833860097322561
-3.9830000000000001,0.77166645052504479,-0.47475877054222104
-3.9824999999999999,0.857027849386506,-0.42177557851638392
-3.9820000000000002,0.86769802424418851,-0.26282600243887239
-3.9815,0.75032610080967954,-0.050893234335523743
-3.9809999999999999,0.6116138276598051,0.11865298014715518
-3.9805000000000001,0.49424190422529612,0.23521600260399694
-3.98,0.44089102993688295,0.35177902506083869
-3.9794999999999998,0.3768699807907871,0.68027481562102909
-3.9790000000000001,-0.10328788780493176,1.0511571598018894
-3.9784999999999999,-0.83952995298503397,1.2948798431207402
-3.9780000000000002,-1.5651018433074537,1.3796529503620798
-3.9775,-1.7038141164573279,1.1147369902328941
-3.9769999999999999,-1.1703053735731959,0.34118238665567124
-3.9765000000000001,-0.53009488211223732,-0.40058230170604903
-3.976,-0.039266838658835915,-0.89862430674891836
-3.9754999999999998,0.24882788249859539,-1.131750351662602
-3.9750000000000001,0.38754015564846972,-1.1529436284729369
-3.9744999999999999,0.43022085507920033,-1.0469772444212624
-3.9740000000000002,0.41955068022151765,-0.87743102993858346
-3.9735,0.38754015564846972,-0.68669153864556975
-3.9729999999999999,0.33418928136005654,-0.48535540894738849
-3.9725000000000001,0.28083840707164331,-0.30521255605954212
-3.972,0.23815770764091276,-0.13566634157686319
-3.9714999999999998,0.05676473506030786,0.086863064931652884
-3.9710000000000001,-0.63679663068906378,0.5637117931641874
-3.9704999999999999,-1.2556667724346571,1.0299638829915545
-3.9700000000000002,-1.6504632421689147,1.3160731199310751
-3.9695,-1.46907026958831,1.0829470750173917
-3.9689999999999999,-0.74349837926589024,0.45774540911251305
-3.9685000000000001,-0.039266838658835915,-0.13566634157686319
-3.968,0.41955068022151765,-0.5807251545938954
-3.9674999999999998,0.66496470194821833,-0.70788481545590454
-3.9670000000000001,0.75032610080967954,-0.64430498502489997
-3.9664999999999999,0.75032610080967954,-0.50654868575772338
-3.9660000000000002,0.79300680024041004,-0.3581957480853793
-3.9655,0.88903837395955376,-0.14626297998203064
-3.9649999999999999,0.79300680024041004,-0.0085066807148540119
-3.9645000000000001,0.64362435223285308,0.086863064931652884
-3.964,0.52625242879834411,0.15044289536265748
-3.9634999999999998,0.45156120479456557,0.18223281057815977
-3.9630000000000001,0.5689331282290746,0.16103953376782493
-3.9624999999999999,0.6116138276598051,0.076266426526485451
-3.9620000000000002,-0.24200016095480609,0.41535885549184332
-3.9615,-1.2129860730039266,0.73325800764686633
-3.9609999999999999,-1.9598983130417114,0.94519077575021493
-3.9605000000000001,-1.8745369141802501,0.73325800764686633
-3.96,-1.1809755484308786,0.076266426526485451
-3.9594999999999998,-0.48741418268150688,-0.55953187778356051
-3.9590000000000001,0.014084035629577295,-0.98339741399025782
-3.9584999999999999,0.29150858192932599,-1.1635402668781043
-3.9580000000000002,0.41955068022151765,-1.1847335436884392
-3.9575,0.44089102993688295,-1.0999604364470996
-3.9569999999999999,0.40888050536383502,-0.94101086036958814
-3.9565000000000001,0.35552963107542179,-0.77146464588690922
-3.956,0.29150858192932599,-0.60191843140423029
-3.9554999999999998,0.21681735792554749,-0.38998566330088158
-3.9550000000000001,0.17413665849481691,-0.1674562567923655
-3.9544999999999999,-0.10328788780493176,0.044476511310983152
-3.9540000000000002,-0.73282820440820751,0.27760255622466667
-3.9535,-1.2556667724346571,0.71206473083653143
-3.9529999999999998,-0.99958257585027366,0.57430843156935485
-3.9525000000000001,-0.17797911180871023,-0.029699957525188878
-3.952,0.50491207908297886,-0.55953187778356051
-3.9514999999999998,0.86769802424418851,-0.68669153864556975
-3.9510000000000001,0.98506994767869771,-0.65490162343006741
-3.9504999999999999,0.93171907339028448,-0.62311170821456507
-3.9500000000000002,0.83568749967114075,-0.57012851618872795
-3.9495,0.73965592595199681,-0.4641621321370536
-3.9489999999999998,0.79300680024041004,-0.41117894011121647
-3.9485000000000001,0.72898575109431429,-0.28401927924920728
-3.948,0.65429452709053582,-0.15685961838719809
-3.9474999999999998,0.57960330308675734,-0.050893234335523743
-3.9470000000000001,0.50491207908297886,-0.0085066807148540119
-3.9464999999999999,0.50491207908297886,-0.061489872740691176
-3.9460000000000002,0.86769802424418851,-0.63370834661973252
-3.9455,0.55826295337139209,-1.4390528654124575
-3.9449999999999998,-0.4554036581084589,-1.3648763965762853
-3.9445000000000001,-1.437059745015262,-0.55953187778356051
-3.944,-1.7038141164573279,0.044476511310983152
-3.9434999999999998,-1.2236562478616091,-0.072086511145858609
-3.9430000000000001,-0.59411593125833329,-0.4641621321370536
-3.9424999999999999,-0.08194753808956648,-0.84564111472308123
-3.9420000000000002,0.22748753278323011,-1.0999604364470996
-3.9415,0.3768699807907871,-1.227120097309109
-3.9409999999999998,0.41955068022151765,-1.2377167357142764
-3.9405000000000001,0.41955068022151765,-1.1741369052832717
-3.9399999999999999,0.38754015564846972,-1.0575738828264298
-3.9394999999999998,0.34485945621773917,-0.91981758355925325
-3.9390000000000001,0.28083840707164331,-0.77146464588690922
-3.9384999999999999,0.20614718306786484,-0.61251506980939763
-3.9380000000000002,-0.19931946152407554,-0.28401927924920728
-3.9375,-1.0102527507079564,0.2246193641988295
-3.9369999999999998,-1.7358246410303759,0.7968378380778709
-3.9365000000000001,-1.9812386627570766,1.0299638829915545
-3.9359999999999999,-1.1596351987155133,0.59550170837968963
-3.9355000000000002,-0.13529841237797968,0.023283234500648287
-3.9350000000000001,0.59027347794443985,-0.34759910968021185
-3.9344999999999999,0.93171907339028448,-0.48535540894738849
-3.9340000000000002,0.99574012253638022,-0.47475877054222104
-3.9335,0.91037872367491923,-0.33700247127504446
-3.9329999999999998,0.78233662538272752,-0.22043944881820265
-3.9325000000000001,0.857027849386506,-0.36879238649054674
-3.9319999999999999,0.84635767452882327,-0.44296885532671876
-3.9315000000000002,0.70764540137894905,-0.28401927924920728
-3.931,0.55826295337139209,-0.061489872740691176
-3.9304999999999999,0.45156120479456557,0.10805634174198775
-3.9300000000000002,0.41955068022151765,0.23521600260399694
-3.9295,0.6863050516635838,0.57430843156935485
-3.9289999999999998,0.75032610080967954,0.97698069096571727
-3.9285000000000001,-0.017926488943470625,1.2524932895000704
