Class_11_Cell_phone_Call/Class_11_Cell_phone_Call_SH_5.csv

#Digilent WaveForms Oscilloscope Acquisition
#Device Name: EExplorer
#Serial Number: SN:210151A2B84A
#Date Time: 2020-12-13 13:36:48.373
#Sample rate: 2000Hz
#Samples: 16384
#Trigger: Source: Channel 1 Type: Edge Condition: Rising Level: 0 V Hyst.: Auto HoldOff: 0 s
#Channel 1: Range: 1 V/div Offset: 0 V Attenuation: 1 X
#Channel 2: Range: 1 V/div Offset: 0 V Attenuation: 1 X
#Power Supplies: ON
#Fixed Supply: ON
#Voltage: 3.3 V Readback: 3.319 V
#Positive Supply: ON
#Voltage: 3.7 V Readback: 3.712 V
#Current: 40 mA Readback: 20 mA
#Negative Supply: ON
#Voltage: -3.7 V Readback: -3.348 V
#Current: -40 mA Readback: -8 mA
#Reference 1: ON
#Voltage: 0 V
#Reference 2: ON
#Voltage: 0 V

Time (s),Channel 1 (V),Channel 2 (V)
-4.096,0.3555296310754218,-0.3052125560595421
-4.0955,0.2915085819293842,-0.2522293640337532
-4.095,0.2594980573565401,-0.1886495336022667
-4.0945,0.5475927785137094,0.2881991946298341
-4.094,0.4302208550793071,0.8392243916980394
-4.0935,-0.2953510352436075,0.6590815388103761
-4.093,-0.722158029550525,0.309392471440169
-4.0925,-0.5087545323970661,0.2246193641989066
-4.092,-0.06060718837385183,0.1080563417417757
-4.0915,0.3235191065023739,-0.1250697031716958
-4.091,0.5796033030867573,-0.2204394488182027
-4.0905,0.6649647019482183,-0.2098428104129292
-4.09,0.6649647019482183,-0.09327978795619347
-4.0895,0.6649647019482183,0.03387987290581572
-4.089,0.9850699476784066,-0.1250697031715512
-4.0885,1.059761171682476,-0.008506680714854012
-4.088,0.9210488985326017,0.2987958330350016
-4.0875,0.728985751094489,0.6272916235948932
-4.087,0.5902734779441973,0.8604176685088369
-4.0865,0.3235191065023739,0.8180311148882058
-4.086,-0.4020527838193858,0.2670059178200004
-4.0855,-1.138294849000701,-0.3687923864909805
-4.085,-1.746494815888059,-0.8456411147230812
-4.0845,-2.15196146047963,-1.121153713257184
-4.084,-1.639793067310495,-0.8562377531277187
-4.0835,-0.8288597781273515,-0.2734226408440398
-4.083,-0.1886492866663929,0.2034260873884947
-4.0825,0.2274875327834242,0.457745409112542
-4.082,0.4408910299368829,0.4895353243280153
-4.0815,0.5049120790829789,0.383568940276341
-4.081,0.5155822539406517,0.1928294489835007
-4.0805,0.4835717293676135,-0.01910331912002144
-4.08,0.4408910299368829,-0.2098428104130352
-4.0795,0.3982103305061912,-0.3475991096800866
-4.079,0.3448594562176615,-0.4111789401112068
-4.0785,0.2594980573562781,-0.400582301706049
-4.078,-0.2099896363813312,0.01268659609510497
-4.0775,-0.8502001278431631,0.3941655786810844
-4.077,-1.341028171296118,-0.07208651114585861
-4.0765,-1.597112367880269,-0.4111789401109081
-4.076,-1.309017646722439,-0.2204394488181641
-4.0755,-0.6154562809736985,-0.1780528951975329
-4.075,0.04609456020262521,-0.1250697031716958
-4.0745,0.5155822539408458,-0.2098428104130642
-4.074,0.7183155762366316,-0.2416327256285375
-4.0735,0.7503261008096795,-0.1992461720078678
-4.073,0.7076454013789879,-0.08268314955113205
-4.0725,0.8143471499557753,-0.1038764263613609
-4.072,0.8356874996711408,-0.008506680714854012
-4.0715,0.7503261008097571,0.2140227257934597
-4.071,0.6436243522327755,0.4471487707074998
-4.0705,0.5582629533713921,0.6166949851900245
-4.07,0.5049120790830274,0.6272916235951823
-4.0695,0.03542438534420504,0.1292496185517347
-4.069,-0.7755089038389382,-0.5171453241628908
-4.0685,-1.447729919872945,-1.01518732920576
-4.068,-1.938557963326297,-1.280103289334898
-4.0675,-1.885207089037933,-1.227120097309109
-4.067,-1.127624674142465,-0.6760949002404023
-4.0665,-0.4233931335349548,-0.1038764263610139
-4.066,0.07810508477567314,0.2776025562246667
-4.0655,0.3661998059331045,0.4259554938970107
-4.065,0.4942419042251797,0.4047622170866951
-4.0645,0.5155822539406614,0.2881991946298341
-4.064,0.5049120790829789,0.1186529801471552
-4.0635,0.462231379652287,-0.04029659593021175
-4.063,0.3982103305061136,-0.1568596183872559
-4.0625,0.3555296310754218,-0.2204394488182027
-4.062,0.1954770082103278,-0.1038764263614669
-4.0615,-0.1673089369515808,0.2776025562251871
-4.061,-0.7755089038389382,0.849821030103708
-4.0605,-1.362368521011484,1.072350436612224
-4.06,-1.842526389607008,0.6060983467846258
-4.0595,-1.629122892453549,0.3517790250608387
-4.059,-0.8608703027003992,0.1504428953626575
-4.0585,-0.1246282375209666,-0.1038764263611296
-4.058,0.408880505363835,-0.400582301706049
-4.0575,0.6649647019482183,-0.5065486857577234
-4.057,0.718315576236583,-0.421775578516461
-4.0565,0.6756348768059011,-0.2098428104130352
-4.056,0.7503261008096795,-0.06148987274069118
-4.0555,0.9423892482477922,-0.008506680714902203
-4.055,0.8997085488171006,0.2140227257939127
-4.0545,0.7503261008096795,0.4895353243280153
-4.054,0.6222840025176043,0.7544512844569602
-4.0535,0.5582629533711495,0.8498210301033322
-4.053,0.291508581929326,0.4365521323021782
-4.0525,-0.391382608962363,-0.1568596183871981
-4.052,-1.04226327528147,-0.6549016234302698
-4.0515,-1.554431668449771,-0.8774310299385835
-4.051,-1.821186039891837,-0.9304142219644207
-4.0505,-1.277007122150517,-0.506548685758109
-4.05,-0.5941159312583333,0.05507314971615059
-4.0495,-0.04993701351651855,0.4365521323021782
-4.049,0.2915085819290154,0.5849050699743873
-4.0485,0.4622313796522967,0.542518516353708
-4.048,0.5155822539406614,0.383568940276341
-4.0475,0.5049120790829885,0.1610395337680273
-4.047,0.4729015545098921,-0.06148987274085502
-4.0465,0.4302208550792003,-0.2416327256285375
-4.046,0.3661998059331627,-0.3581957480852733
-4.0455,0.3021787567869213,-0.4005823017060394
-4.045,0.2061471830678648,-0.3899856633008816
-4.0445,-0.274010685527854,-0.008506680714854012
-4.044,-0.5834457564008252,-0.2204394488187327
-4.0435,-0.7755089038389382,-0.8032545611024114
-4.043,-1.084943974711735,-0.5065486857577234
-4.0425,-1.106284324427081,0.1822328105775334
-4.042,-0.5941159312583333,0.309392471440169
-4.0415,0.00341386077189465,0.1822328105781598
-4.041,0.4302208550788121,-0.1250697031714162
-4.0405,0.6542945270906038,-0.3475991096802311
-4.04,0.7289857510943143,-0.3687923864905467
-4.0395,0.7609962756673332,-0.2416327256286532
-4.039,0.8997085488172074,-0.2204394488180099
-4.0385,0.8676980242441885,-0.008506680714854012
-4.038,0.7396559259521133,0.2776025562244064
-4.0375,0.6222840025174297,0.5107286011384851
-4.037,0.5582629533713921,0.6590815388106942
-4.0365,0.6542945270905358,0.5107286011383502
-4.036,1.081101521397492,-0.06148987274125979
-4.0355,0.6969752265212663,-0.6866915386455698
-4.035,-0.1459685872356623,-0.9198175835592532
-4.0345,-0.9355615267034596,-0.5277419625684149
-4.034,-1.116954499284783,-0.3475991096802118
-4.0335,-0.7328282044082075,-0.1462629799820306
-4.033,-0.2526703358129254,-0.0191033191201371
-4.0325,0.1101156093489346,0.02328323450062901
-4.032,0.3448594562177392,0.002089957690313421
-4.0315,0.4515612047944685,-0.05089323433547555
-4.031,0.4835717293676038,-0.1250697031717536
-4.0305,0.4729015545099309,-0.1886495336027004
-4.03,0.4302208550792391,-0.2098428104130159
-4.0295,0.3875401556484309,-0.1886495336026426
-4.029,0.3448594562177392,-0.1250697031716958
-4.0285,0.2381577076409128,0.06566978812131802
-4.028,-0.167308936951639,0.4471487707077504
-4.0275,-0.839529952985034,0.8922075837243778
-4.027,-1.458400094730627,0.7544512844572011
-4.0265,-1.746494815887797,0.4683420475179407
-4.026,-1.330357996438436,0.4047622170866759
-4.0255,-0.6047861061160158,0.2670059178194992
-4.025,0.03542438534436021,0.1504428953627635
-4.0245,0.4622313796524326,0.1292496185522841
-4.024,0.6649647019482183,0.08686306493165288
-4.0235,0.7076454013789102,0.08686306493165288
-4.023,0.6756348768059884,0.1398462569574419
-4.0225,0.7716664505250448,0.08686306493165288
-4.022,0.7716664505250448,0.182232810578073
-4.0215,0.6863050516634964,0.3729723018713471
-4.021,0.5902734779444399,0.5637117931641874
-4.0205,0.5155822539406614,0.7120647308365314
-4.02,0.547592778514049,0.6696781772154087
-4.0195,0.9210488985326017,0.1716361721729923
-4.019,0.6542945270905358,-0.4853554089473885
-4.0185,-0.1352984123772616,-1.015187329205278
-4.018,-0.9675720512772257,-1.354279758171118
-4.0175,-1.319687821580753,-1.322489842955616
-4.017,-0.9675720512775459,-0.7608680074822526
-4.0165,-0.4340633083926861,-0.1674562567920186
-4.016,0.01408403562957729,0.2140227257936621
-4.0155,0.2915085819290737,0.372972301871029
-4.015,0.4302208550792488,0.3517790250607231
-4.0145,0.4835717293676135,0.2246193641988295
-4.014,0.4835717293676135,0.05507314971630478
-4.0135,0.4515612047945171,-0.09327978795630913
-4.013,0.3982103305061524,-0.2204394488182027
-4.0125,0.3555296310754218,-0.2840192792492073
-4.012,0.302178756786766,-0.3052125560593301
-4.0115,0.03542438534494258,-0.07208651114585861
-4.011,-0.6261264558313813,0.5425185163538525
-4.0105,-1.180975548430374,0.7120647308363772
-4.01,-1.543761493592088,0.2246193641988295
-4.0095,-1.330357996438436,0.02328323450064829
-4.009,-0.6688071552627134,-0.1462629799818764
-4.0085,-0.02859666380073599,-0.2734226408440591
-4.008,0.4302208550792003,-0.2946159176543747
-4.0075,0.6329541773749862,-0.2946159176543747
-4.007,0.6863050516635547,-0.2840192792491109
-4.0065,0.6542945270905358,-0.1780528951975329
-4.006,0.7716664505250448,-0.1992461720078678
-4.0055,0.9637295979632743,-0.3052125560593494
-4.005,0.8997085488172365,-0.09327978795619347
-4.0045,0.7503261008096795,0.2140227257936621
-4.004,0.6116138276597275,0.489535324328131
-4.0035,0.5262524287983441,0.6166949851900245
-4.003,0.1527963087794516,0.2458126410091644
-4.0025,-0.5727755815423081,-0.3687923864899877
-4.002,-1.180975548430879,-0.8456411147230812
-4.0015,-1.51175096901904,-0.6866915386455698
-4.001,-1.767835165603191,0.1186529801464228
-4.0005,-1.319687821580142,0.510728601138302
-4,-0.6474668055467465,0.457745409112513
-3.9995,-0.09261771294724913,0.2458126410091644
-3.999,0.2594980573562781,0.04447651131098315
-3.9985,0.4408910299368829,-0.1144730647665284
-3.998,0.4942419042252961,-0.2098428104130352
-3.9975,0.5049120790829789,-0.2416327256285375
-3.997,0.4729015545099309,-0.2416327256285375
-3.9965,0.4302208550792003,-0.1780528951975329
-3.996,0.3768699807907871,-0.08268314955102604
-3.9955,0.3021787567870086,0.05507314971615059
-3.995,-0.06060718837420119,0.457745409112513
-3.9945,-0.6154562809736985,1.00877060618122
-3.994,-1.26633694729234,1.496215972818921
-3.9935,-1.778505340461106,1.739938656137773
-3.993,-2.087940411333903,1.877694955404949
-3.9925,-1.661133417026597,1.771728571353275
-3.992,-0.7968492535543035,1.263089927905238
-3.9915,-0.08194753808956648,0.7438546460520338
-3.991,0.408880505363835,0.2140227257936621
-3.9905,0.6863050516635838,-0.1780528951975329
-3.99,0.7716664505250448,-0.2098428104130352
-3.9895,0.8036769750980928,-0.06148987274069118
-3.989,1.070431346540159,-0.09327978795619347
-3.9885,1.059761171682476,0.1610395337678249
-3.988,0.8783681991018712,0.5213252395435176
-3.9875,0.6969752265212663,0.849821030103708
-3.987,0.5689331282290746,1.061753798207057
-3.9865,0.5796033030867573,0.9028042221295453
-3.986,0.6329541773751706,0.2776025562246667
-3.9855,0.01408403562957729,-0.3687923864905467
-3.985,-0.690147504977477,-0.7396747306714069
-3.9845,-1.277007122150022,-0.8562377531282487
-3.984,-1.341028171296118,-0.7502713690765743
-3.9835,-0.8608703027003992,-0.2946159176543747
-3.983,-0.3060212101009019,0.1080563417419877
-3.9825,0.1101156093487211,0.309392471440169
-3.982,0.3555296310754218,0.3199891098453364
-3.9815,0.4622313796522482,0.1822328105781598
-3.981,0.4942419042252961,-0.01910331912002144
-3.9805,0.4835717293676135,-0.252229364033705
-3.98,0.4408910299368829,-0.4323722169215513
-3.9795,0.3982103305061524,-0.5807251545938954
-3.979,0.3341892813600565,-0.6231117082145651
-3.9785,0.2381577076409128,-0.5913217929990628
-3.978,-0.3166913849585846,-0.08268314955102604
-3.9775,-1.031593100423322,0.6060983467848571
-3.977,-1.46907026958831,0.7226613692416989
-3.9765,-1.682473766741963,0.4153588554918433
-3.976,-1.373038695869166,0.4047622170866759
-3.9755,-0.6688071552621118,0.2881991946298341
-3.975,-0.01792648894347063,0.07626642652648545
-3.9745,0.4408910299368829,-0.06148987274069118
-3.974,0.6756348768059011,-0.1250697031716958
-3.9735,0.7503261008096795,-0.1356663415768632
-3.973,0.7289857510943143,-0.06148987274069118
-3.9725,0.9103787236749192,-0.1674562567923655
-3.972,0.9850699476786977,-0.09327978795619347
-3.9715,0.8783681991018712,0.2034260873884947
-3.971,0.7183155762366316,0.5425185163538525
-3.9705,0.5796033030867573,0.8286277532933731
-3.97,0.5475927785137094,0.9134008605347127
-3.9695,0.8783681991018712,0.6378882620003594
-3.969,0.9637295979633325,0.1080563417419877
-3.9685,0.3128489316446912,-0.3581957480853793
-3.968,-0.5407650569699201,-0.06148987274069118
-3.9675,-1.06360362499637,0.5425185163538525
-3.967,-0.8715404775580819,0.6590815388106942
-3.9665,-0.423393133535411,0.5001319627331828
-3.966,-0.01792648894347063,0.2564092794143318
-3.9655,0.2594980573562781,0.03387987290581572
-3.965,0.408880505363835,-0.1356663415768632
-3.9645,0.4622313796522482,-0.252229364033705
-3.964,0.4729015545099309,-0.326405832869877
-3.9635,0.4515612047945656,-0.3475991096802118
-3.963,0.3982103305061524,-0.3052125560595421
-3.9625,0.3555296310754218,-0.2416327256285375
-3.962,0.3128489316446912,-0.1038764263613609
-3.9615,-0.01792648894347063,0.2881991946298341
-3.961,-0.658136980404429,0.775644561267536
-3.9605,-1.223656247861609,0.55311515475902
-3.96,-1.629122892453549,-0.06148987274069118
-3.9595,-1.575772018165136,0.09745970333682032
-3.959,-0.9035510021311299,0.3517790250608387
-3.9585,-0.1993194615240755,0.4259554938970107
-3.958,0.3341892813600565,0.309392471440169
-3.9575,0.6222840025174878,0.1292496185523226
-3.957,0.707645401378949,0.06566978812131802
-3.9565,0.6969752265212663,0.1080563417419877
-3.956,0.7289857510943143,0.09745970333682032
-3.9555,0.7609962756673623,0.1292496185523226
-3.955,0.6863050516635838,0.3199891098453364
-3.9545,0.5902734779444399,0.5319218779486851
-3.954,0.5369226036560266,0.6908714540261965
-3.9535,0.5155822539406614,0.7438546460520338
-3.953,0.5049120790829789,0.3305857482505039
-3.9525,0.1101156093487211,-0.3581957480853793
-3.952,-0.5834457564006506,-0.9410108603695881
-3.9515,-1.191645723288561,-1.322489842955616
-3.951,-1.394379045584531,-1.354279758171118
-3.9505,-0.9569018764195432,-0.8350444763179138
-3.95,-0.4020527838200457,-0.2734226408440398
-3.9495,0.04609456020262521,0.1080563417419877
-3.949,0.3128489316446912,0.2564092794143318
-3.9485,0.4515612047945656,0.2352160026039969
-3.948,0.4835717293676135,0.1186529801471552
-3.9475,0.4835717293676135,-0.05089323433552374
-3.947,0.4515612047945656,-0.2204394488182027
-3.9465,0.4195506802215176,-0.3475991096802118
-3.946,0.3768699807907871,-0.4217755785163839
-3.9455,0.3235191065023739,-0.400582301706049
-3.945,0.1954770082101822,-0.3158091944647096
-3.9445,-0.3380317346739499,-0.1038764263613609
-3.944,-1.031593100423322,0.5107286011383502
-3.9435,-1.51175096901904,0.9134008605347127
-3.943,-1.607782542738184,1.157123543853563
-3.9425,-1.1062843244271,0.9345941373450475
-3.942,-0.423393133535411,0.3941655786815084
-3.9415,0.1634664836371343,-0.1780528951975329
-3.941,0.5262524287983441,-0.4323722169215513
-3.9405,0.6969752265212663,-0.474758770542221
-3.94,0.7289857510943143,-0.400582301706049
-3.9395,0.7503261008096795,-0.3052125560595421
-3.939,1.017080472251745,-0.4111789401112165
-3.9385,1.006410297394063,-0.2098428104130352
-3.938,0.8463576745288233,0.1292496185523226
-3.9375,0.6756348768059011,0.4683420475176805
-3.937,0.5582629533713921,0.7332580076468663
-3.9365,0.4622313796522482,0.627291623595192
-3.936,-0.06060718837420119,0.09745970333682032
-3.9355,-0.7434983792658902,-0.4535654937318862
-3.935,-1.244996597576974,-0.6337083466197325
-3.9345,-1.682473766741963,-0.02969995752518888
-3.934,-1.51175096901904,0.3623756634660061
-3.9335,-0.8608703027003992,0.4259554938970107
-3.933,-0.2633405106701714,0.3305857482505039
-3.9325,0.1527963087794516,0.1928294489833272
-3.932,0.3875401556484697,0.05507314971615059
-3.9315,0.4835717293676135,-0.05089323433552374
-3.931,0.5049120790829789,-0.1250697031716958
-3.9305,0.4835717293676135,-0.1780528951975329
-3.93,0.4408910299368829,-0.1886495336027004
-3.9295,0.3875401556484697,-0.1568596183871981
-3.929,0.3448594562177392,-0.09327978795619347
-3.9285,0.2488278824985954,0.07626642652648545
-3.928,-0.2313299860971235,0.5213252395435176
-3.9275,-0.8502001278427167,0.7438546460520338
-3.927,-1.362368521011484,0.09745970333682032
-3.9265,-1.437059745015262,-0.2946159176543747
-3.926,-0.9248913518464952,-0.2204394488182027
-3.9255,-0.2526703358124887,-0.07208651114585861
-3.925,0.2701682322139607,-0.08268314955102604
-3.9245,0.6009436528021226,-0.008506680714854012
-3.924,0.7609962756673623,0.08686306493165288
-3.9235,0.79300680024041,0.13984625695749
-3.923,0.7609962756673623,0.1716361721729923
-3.9225,0.9210488985326017,-0.008506680714854012
-3.922,0.9317190733902845,-0.008506680714854012
-3.9215,0.8036769750980928,0.1716361721729923
-3.921,0.6542945270905358,0.383568940276341
-3.9205,0.5475927785137094,0.5319218779486851
-3.92,0.5475927785137094,0.5743084315693548
-3.9195,0.9317190733902845,0.1716361721729923
-3.919,0.7503261008096795,-0.474758770542221
-3.9185,-0.06060718837420119,-1.036380606016095
-3.918,-0.7755089038389382,-1.237716735714276
-3.9175,-1.223656247861609,-0.9410108603695881
-3.917,-0.9889124009925911,-0.3899856633008816
-3.9165,-0.4874141826815069,0.04447651131098315
-3.916,-0.03926683865883591,0.2776025562246667
-3.9155,0.2488278824985954,0.3305857482505039
-3.915,0.408880505363835,0.2670059178194992
-3.9145,0.4729015545099309,0.1292496185523226
-3.914,0.4729015545099309,-0.01910331912002144
-3.9135,0.4515612047945656,-0.1568596183871981
-3.913,0.4195506802215176,-0.2734226408440398
-3.9125,0.3768699807907871,-0.3370024712750445
-3.912,0.3341892813600565,-0.3687923864905467
-3.9115,-0.1459685872356623,0.06566978812131802
-3.911,-0.9035510021311299,0.7862411996727035
-3.9105,-1.586442193022819,1.369056311956912
-3.91,-1.863866739322568,1.528005888034424
-3.9095,-1.447729919872945,1.25249328950007
-3.909,-0.690147504977477,0.6378882620003594
-3.9085,-0.01792648894347063,-0.008506680714854012
-3.908,0.3982103305061524,-0.4217755785163839
-3.9075,0.6009436528021226,-0.6019184314042303
-3.907,0.6649647019482183,-0.570128516188728
-3.9065,0.6436243522328531,-0.3687923864905467
-3.906,0.7396559259519968,-0.2204394488182027
-3.9055,0.825017324813458,-0.06148987274069118
-3.905,0.942389248247967,-0.01910331912002144
-3.9045,1.113112045970889,-0.06148987274069118
-3.904,1.006410297394063,0.2034260873884947
-3.9035,0.8143471499557753,0.5319218779486851
-3.903,0.9317190733902845,0.4471487707073456
-3.9025,0.79300680024041,-0.05089323433552374
-3.902,0.09944543449103843,-0.5489352393783931
-3.9015,-0.7434983792658902,-0.6337083466197325
-3.901,-1.212986073003927,-0.08268314955102604
-3.9005,-0.9675720512772257,0.309392471440169
-3.9,-0.4767440078238243,0.4365521323021782
-3.8995,-0.03926683865883591,0.3941655786815084
-3.899,0.2488278824985954,0.2670059178194992
-3.8985,0.408880505363835,0.1186529801471552
-3.898,0.4622313796522482,-0.02969995752518888
-3.8975,0.4622313796522482,-0.1674562567923655
-3.897,0.4408910299368829,-0.2628260024388724
-3.8965,0.3982103305061524,-0.3158091944647096
-3.896,0.3448594562177392,-0.3158091944647096
-3.8955,0.3021787567870086,-0.2840192792492073
-3.895,0.1101156093487211,-0.07208651114585861
-3.8945,-0.5194247072545548,0.5319218779486851
-3.894,-1.148965023857831,1.029963882991555
-3.8935,-1.51175096901904,0.7226613692416989
-3.893,-1.426389570157579,0.3623756634660061
-3.8925,-0.807519428411986,0.04447651131098315
-3.892,-0.1459685872356623,-0.2098428104130352
-3.8915,0.3448594562177392,-0.400582301706049
-3.891,0.6009436528021226,-0.4429688553267188
-3.8905,0.707645401378949,-0.5171453241628908
-3.89,0.6969752265212663,-0.4323722169215513
-3.8895,0.707645401378949,-0.2840192792492073
-3.889,0.79300680024041,-0.1462629799820306
-3.8885,0.7396559259519968,0.1186529801471552
-3.888,0.6329541773751706,0.4259554938970107
