Class_11_Cell_phone_Call/Class_11_Cell_phone_Call_Turki_13.csv

#Digilent WaveForms Oscilloscope Acquisition
#Device Name: EExplorer
#Serial Number: SN:210151A2B84A
#Date Time: 2021-02-07 11:02:48.993
#Sample rate: 2000Hz
#Samples: 16384
#Trigger: Source: Channel 1 Type: Edge Condition: Rising Level: 0 V Hyst.: Auto HoldOff: 0 s
#Channel 1: Range: 1 V/div Offset: 0 V Attenuation: 1 X
#Channel 2: Range: 1 V/div Offset: 0 V Attenuation: 1 X
#Power Supplies: ON
#Fixed Supply: ON
#Voltage: 3.3 V Readback: 3.287 V
#Positive Supply: ON
#Voltage: 3.7 V Readback: 3.659 V
#Current: 40 mA Readback: 16 mA
#Negative Supply: ON
#Voltage: -3.7 V Readback: -3.348 V
#Current: -40 mA Readback: -9 mA
#Reference 1: ON
#Voltage: 0 V
#Reference 2: ON
#Voltage: 0 V

Time (s),Channel 1 (V),Channel 2 (V)
-4.096,0.1527963087794516,0.3411823866556712
-4.0955,0.1314559590641058,0.3093924714401979
-4.095,0.1314559590639893,0.2987958330349919
-4.0945,0.02475421048725994,0.2881991946298341
-4.094,-0.4767440078233682,0.03387987290604705
-4.0935,-0.8928808272736025,-0.6231117082150566
-4.093,-1.06360362499637,-1.163540266878104
-4.0925,-0.8822106524159294,-1.110557074852315
-4.092,-0.4020527838196672,-0.6549016234296241
-4.0915,0.01408403562957729,-0.1674562567923655
-4.091,0.2488278824985954,0.1928294489833272
-4.0905,0.3235191065023642,0.3729723018712218
-4.09,0.3128489316446912,0.4259554938970107
-4.0895,0.2701682322139607,0.3941655786815084
-4.089,0.2808384070716336,0.3835689402763507
-4.0885,0.3661998059331045,0.4789386859228479
-4.088,0.3768699807907871,0.4789386859228479
-4.0875,0.398210330506133,0.4577454091125323
-4.087,0.3982103305061136,0.4153588554917951
-4.0865,0.3555296310754218,0.3623756634660061
-4.086,0.2061471830680007,0.08686306493190343
-4.0855,-0.3380317346743963,-0.5701285161893062
-4.085,-0.8288597781273515,-1.205926820498774
-4.0845,-1.14896502385754,-1.269506650929721
-4.084,-1.106284324426751,-0.7396747306710117
-4.0835,-0.722158029550525,-0.3052125560595421
-4.083,-0.3273615598162672,-0.04029659593035631
-4.0825,-0.04993701351637299,0.1080563417420649
-4.082,0.1101156093487211,0.1928294489833272
-4.0815,0.1848068333524996,0.2352160026039969
-4.081,0.2061471830678454,0.2670059178194703
-4.0805,0.1954770082101822,0.2987958330350016
-4.08,0.1741366584948169,0.3517790250608387
-4.0795,0.163466483637144,0.3941655786814698
-4.079,0.142126133921769,0.4471487707073938
-4.0785,0.142126133921769,0.5001319627331828
-4.078,0.09944543449107725,0.5319218779486562
-4.0775,-0.2953510352436657,0.1716361721723852
-4.077,-0.7861790786966207,-0.4959520473525559
-4.0765,-1.095614149569136,-1.089363798041393
-4.076,-1.095614149568981,-1.364876396575909
-4.0755,-0.6154562809736985,-0.9516074987747555
-4.075,-0.124628237520297,-0.326405832869877
-4.0745,0.1741366584949334,0.2140227257939319
-4.074,0.3021787567870086,0.5107286011383502
-4.0735,0.3128489316446912,0.6166949851900245
-4.073,0.2915085819293454,0.6060983467848667
-4.0725,0.2808384070716433,0.55311515475902
-4.072,0.3875401556484697,0.5743084315693548
-4.0715,0.3982103305061427,0.510728601138408
-4.071,0.334189281360008,0.3941655786814024
-4.0705,0.2808384070716433,0.2776025562246667
-4.07,0.2381577076409516,0.1822328105782465
-4.0695,0.1634664836366976,0.02328323450016641
-4.069,-0.3166913849585846,-0.5065486857577234
-4.0685,-0.9462317015618604,-1.131750351662602
-4.068,-1.330357996438533,-1.481439419032915
-4.0675,-1.437059745015262,-1.248313374119443
-4.067,-1.042263275281004,-0.7820612842920766
-4.0665,-0.5514352318272534,-0.3264058328695782
-4.066,-0.1673089369510276,0.002089957690313421
-4.0655,0.0674349099179905,0.1822328105781598
-4.065,0.1848068333523928,0.27760255622458
-4.0645,0.2168173579255475,0.309392471440169
-4.064,0.2061471830678648,0.309392471440169
-4.0635,0.1954770082101919,0.3199891098453267
-4.063,0.1741366584947975,0.3199891098453557
-4.0625,0.1527963087794516,0.3411823866556712
-4.062,0.1421261339217787,0.3623756634659869
-4.0615,0.1421261339216719,0.3835689402762447
-4.061,0.03542438534494258,0.2776025562246667
-4.0605,-0.4340633083930936,-0.3052125560595421
-4.06,-0.5941159312581974,-0.8668343915335607
-4.0595,-0.4447334832507763,-1.025783967610927
-4.059,-0.1352984123779797,-0.6654982618352349
-4.0585,0.1207857842061708,-0.1886495336031341
-4.058,0.2488278824985954,0.2034260873884947
-4.0575,0.291508581929326,0.4153588554918433
-4.057,0.280838407071653,0.4683420475176323
-4.0565,0.2488278824985954,0.4471487707073456
-4.056,0.2274875327832301,0.4259554938970107
-4.0555,0.3128489316446136,0.3941655786815373
-4.055,0.3661998059330948,0.3411823866556616
-4.0545,0.3555296310754218,0.3305857482505039
-4.054,0.3555296310754218,0.3305857482505039
-4.0535,0.3235191065023351,0.3305857482504846
-4.053,0.2808384070716433,0.309392471440169
-4.0525,0.3555296310754218,0.4683420475176805
-4.052,0.07810508477507147,0.2670059178189113
-4.0515,-0.5834457564006506,-0.3793890248957141
-4.051,-0.9462317015618604,-0.8350444763179138
-4.0505,-0.8181896032697852,-0.7290780922663358
-4.05,-0.4874141826815069,-0.3793890248957141
-4.0495,-0.1779791118087102,-0.02969995752518888
-4.049,0.02475421048707555,0.2140227257934404
-4.0485,0.1421261339218175,0.3517790250608869
-4.048,0.1954770082101822,0.4047622170866759
-4.0475,0.1954770082101822,0.4259554938969914
-4.047,0.1848068333524898,0.4153588554918433
-4.0465,0.1741366584948169,0.4153588554918433
-4.046,0.152796308779471,0.3941655786815277
-4.0455,0.142126133921769,0.3941655786815084
-4.045,0.142126133921769,0.3941655786815084
-4.0445,0.03542438534494258,0.3517790250608387
-4.044,-0.3807124341047969,-0.09327978795671391
-4.0435,-0.5087545323968721,-0.6654982618352349
-4.043,-0.4127229586777283,-1.152943628472937
-4.0425,-0.1139580626628862,-1.08936379804199
-4.042,0.1741366584948169,-0.6337083466197325
-4.0415,0.3235191065023739,-0.1674562567923655
-4.041,0.3555296310753927,0.1610395337675261
-4.0405,0.3235191065023253,0.3517790250609158
-4.04,0.2701682322139607,0.4365521323021782
-4.0395,0.2381577076409419,0.4259554938970204
-4.039,0.3021787567871154,0.4789386859229443
-4.0385,0.4195506802215176,0.5849050699745222
-4.038,0.4088805053638447,0.5319218779487332
-4.0375,0.3448594562176809,0.436552132302101
-4.037,0.2808384070716433,0.3517790250608387
-4.0365,0.2381577076409128,0.2881991946298341
-4.036,0.0567647350597353,0.02328323450006039
-4.0355,-0.572775581542968,-0.6231117082145651
-4.035,-1.223656247861609,-1.269506650929778
-4.0345,-1.618452717595508,-1.703968825541248
-4.034,-1.51175096901904,-1.523825972653797
-4.0335,-0.9782422261349084,-0.8562377531282487
-4.033,-0.4554036581089344,-0.2310360872239388
-4.0325,-0.09261771294705504,0.2034260873887163
-4.032,0.1207857842064037,0.4471487707073456
-4.0315,0.2061471830677872,0.5425185163537658
-4.031,0.2274875327832204,0.5637117931641681
-4.0305,0.2168173579255475,0.5425185163538525
-4.03,0.1954770082102016,0.5001319627332214
-4.0295,0.1741366584947975,0.4577454091124841
-4.029,0.1527963087794516,0.4259554938970107
-4.0285,0.142126133921769,0.383568940276341
-4.028,0.1421261339214973,0.3517790250605207
-4.0275,-0.156638762093345,0.002089957690313421
-4.027,-0.8288597781273515,-0.6972881770507372
-4.0265,-1.180975548430558,-1.322489842955047
-4.026,-0.839529952985034,-1.460246142222792
-4.0255,-0.3166913849585846,-0.9833974139902578
-4.025,0.07810508477531408,-0.400582301706579
-4.0245,0.2701682322140189,0.02328323450088923
-4.024,0.3341892813600565,0.2881991946298341
-4.0235,0.3128489316447107,0.3623756634659387
-4.023,0.2808384070716142,0.3305857482504267
-4.0225,0.2488278824985954,0.2458126410091644
-4.022,0.2915085819292872,0.1928294489833754
-4.0215,0.2915085819293066,0.1822328105781598
-4.021,0.2701682322139607,0.1822328105781598
-4.0205,0.2488278824985954,0.1928294489833272
-4.02,0.2274875327831331,0.203426087388379
-4.0195,0.1207857842064037,0.07626642652648545
-4.019,-0.4127229586777283,-0.4959520473525559
-4.0185,-0.786179078696281,-1.110557074851708
-4.018,-0.9995825758502737,-1.608599079895136
-4.0175,-1.042263275281004,-1.566212526274467
-4.017,-0.7114878546931431,-0.9410108603701568
-4.0165,-0.3380317346736976,-0.3158091944643048
-4.016,-0.06060718837420119,0.1292496185523226
-4.0155,0.1101156093485658,0.3941655786812676
-4.015,0.184806833352519,0.510728601138379
-4.0145,0.2061471830678648,0.5425185163538525
-4.014,0.2061471830678648,0.5319218779486947
-4.0135,0.1848068333524898,0.5107286011383213
-4.013,0.1741366584948169,0.4789386859228479
-4.0125,0.1634664836371343,0.457745409112513
-4.012,0.142126133921769,0.4259554938969914
-4.0115,0.142126133921769,0.4047622170866759
-4.011,0.01408403562957729,0.2564092794143318
-4.0105,-0.5834457564001071,-0.3581957480848202
-4.01,-1.084943974711735,-0.9939940523954253
-4.0095,-1.30901764672307,-1.396666311791788
-4.009,-0.9462317015621904,-1.089363798042212
-4.0085,-0.4127229586773596,-0.5383386009728015
-4.008,-0.007256314085787988,-0.07208651114585861
-4.0075,0.2168173579253437,0.2034260873882441
-4.007,0.3021787567870183,0.3623756634660447
-4.0065,0.3128489316446912,0.4047622170866759
-4.006,0.291508581929326,0.3941655786815084
-4.0055,0.4195506802215662,0.2352160026039295
-4.005,0.4729015545099309,0.1610395337678249
-4.0045,0.3982103305061524,0.1928294489833272
-4.004,0.3341892813600177,0.2458126410091933
-4.0035,0.291508581929326,0.2776025562246667
-4.003,0.2381577076409128,0.2987958330350016
-4.0025,-0.01792648894323773,0.5531151547587887
-4.002,-0.6047861061160158,0.2881991946298341
-4.0015,-0.8822106524157645,-0.4535654937318862
-4.001,-0.8075194284120539,-0.8562377531278824
-4.0005,-0.4980843575389178,-0.6760949002400842
-4,-0.1993194615240755,-0.326405832869877
-3.9995,0.02475421048725994,-0.008506680714854012
-3.999,0.142126133921769,0.2140227257936621
-3.9985,0.1954770082101822,0.3411823866556712
-3.998,0.2061471830678648,0.3941655786815084
-3.9975,0.1954770082101822,0.4153588554918433
-3.997,0.1848068333524996,0.4259554938970107
-3.9965,0.1741366584948169,0.4259554938970107
-3.996,0.1634664836371343,0.4259554938970107
-3.9955,0.1527963087794516,0.4259554938970107
-3.995,0.1527963087794516,0.4365521323021782
-3.9945,0.0674349099179905,0.3305857482505039
-3.994,-0.3700422592469978,-0.2416327256285375
-3.9935,-0.807519428411986,-0.9410108603695881
-3.993,-1.020922925565639,-1.38606967338662
-3.9925,-0.7434983792658902,-1.05757388282643
-3.992,-0.2846808603855366,-0.4535654937318862
-3.9915,0.0674349099179905,0.03387987290581572
-3.991,0.2594980573562781,0.3199891098453364
-3.9905,0.3128489316446912,0.4895353243280153
-3.99,0.3128489316446912,0.5001319627331828
-3.9895,0.2808384070716433,0.4471487707073456
-3.989,0.3448594562177392,0.3199891098453364
-3.9885,0.6222840025174878,-0.01910331912002144
-3.988,0.6649647019482183,-0.04029659593035631
-3.9875,0.5475927785137094,0.09745970333682032
-3.987,0.408880505363835,0.2352160026039969
-3.9865,0.3021787567870086,0.3305857482505039
-3.986,0.09944543449103843,0.09745970333682032
-3.9855,-0.4767440078238243,-0.570128516188728
-3.985,-0.9248913518464952,-1.237716735714276
-3.9845,-1.244996597576974,-1.693372187136476
-3.984,-1.052933450138687,-1.34368311976595
-3.9835,-0.6367966306890638,-0.7290780922662394
-3.983,-0.2420001609548061,-0.2098428104130352
-3.9825,0.01408403562957729,0.1186529801471552
-3.982,0.1634664836371343,0.2670059178194992
-3.9815,0.2168173579255475,0.309392471440169
-3.981,0.2168173579255475,0.2987958330350016
-3.9805,0.2061471830678648,0.2564092794143318
-3.98,0.1954770082101822,0.2140227257936621
-3.9795,0.1741366584948169,0.1928294489833272
-3.979,0.1634664836371343,0.1716361721729923
-3.9785,0.1527963087794516,0.1716361721729923
-3.978,0.1314559590640864,0.1610395337678249
-3.9775,-0.2526703358124887,-0.1886495336027004
-3.977,-0.9355615267041777,-0.8350444763179138
-3.9765,-1.287677297007705,-1.42845622700729
-3.976,-1.020922925565639,-1.587405803084801
-3.9755,-0.4447334832507763,-1.01518732920576
-3.975,0.01408403562957729,-0.3793890248957141
-3.9745,0.2701682322139607,0.1186529801471552
-3.974,0.3555296310754218,0.3941655786815084
-3.9735,0.3448594562177392,0.5213252395435176
-3.973,0.3021787567870086,0.55311515475902
-3.9725,0.3128489316446912,0.4895353243280153
-3.972,0.6863050516635838,0.09745970333682032
-3.9715,0.8356874996711408,-0.1462629799820306
-3.971,0.707645401378949,-0.05089323433552374
-3.9705,0.5155822539406614,0.13984625695749
-3.97,0.3661998059331045,0.2881991946298341
-3.9695,0.2274875327832301,0.309392471440169
-3.969,-0.2313299860971235,-0.1462629799820306
-3.9685,-0.8822106524157645,-0.8456411147230812
-3.968,-1.330357996438436,-1.449649503817625
-3.9675,-1.26633694729234,-1.396666311791788
-3.967,-0.8181896032696687,-0.8350444763179138
-3.9665,-0.3700422592469978,-0.3052125560595421
-3.966,-0.04993701351651855,0.06566978812131802
-3.9655,0.1314559590640864,0.2564092794143318
-3.965,0.2061471830678648,0.3305857482505039
-3.9645,0.2274875327832301,0.3199891098453364
-3.964,0.2168173579255475,0.2881991946298341
-3.9635,0.1954770082101822,0.2352160026039969
-3.963,0.1848068333524996,0.2034260873884947
-3.9625,0.1634664836371343,0.1822328105781598
-3.962,0.1527963087794516,0.1716361721729923
-3.9615,0.1527963087794516,0.1716361721729923
-3.961,-0.03926683865883591,-0.09327978795619347
-3.9605,-0.6261264558313813,-0.718481453861072
-3.96,-1.095614149569417,-1.290699927740113
-3.9595,-1.180975548430879,-1.38606967338662
-3.959,-0.7434983792658902,-0.8244478379127463
-3.9585,-0.2420001609548061,-0.252229364033705
-3.958,0.09944543449103843,0.13984625695749
-3.9575,0.2701682322139607,0.383568940276341
-3.957,0.3128489316446912,0.5213252395435176
-3.9565,0.3021787567870086,0.5319218779486851
-3.956,0.291508581929326,0.4789386859228479
-3.9555,0.3875401556484697,0.55311515475902
-3.955,0.4195506802215176,0.5849050699745222
-3.9545,0.3768699807907871,0.55311515475902
-3.954,0.3128489316446912,0.4895353243280153
-3.9535,0.2594980573562781,0.4259554938970107
-3.953,0.2061471830678648,0.3411823866556712
-3.9525,-0.08194753808956648,-0.1462629799820306
-3.952,-0.7114878546928423,-0.8456411147230812
-3.9515,-1.084943974711735,-1.396666311791788
-3.951,-0.9995825758502737,-1.34368311976595
-3.9505,-0.6367966306890638,-0.8032545611024114
-3.95,-0.2633405106701714,-0.2628260024388724
-3.9495,0.00341386077189465,0.1292496185523226
-3.949,0.1527963087794516,0.3517790250608387
-3.9485,0.2061471830678648,0.4471487707073456
-3.948,0.2274875327832301,0.4683420475176805
-3.9475,0.2168173579255475,0.4471487707073456
-3.947,0.1954770082101822,0.4153588554918433
-3.9465,0.1848068333524996,0.3941655786815084
-3.946,0.1634664836371343,0.3729723018711736
-3.9455,0.1634664836371343,0.3517790250608387
-3.945,0.1527963087794516,0.3411823866556712
-3.9445,0.1207857842064037,0.2352160026039969
-3.944,-0.156638762093345,-0.326405832869877
-3.9435,-0.4767440078238243,-0.9728007755850904
-3.943,-0.807519428411986,-1.51322933424863
-3.9425,-0.5941159312583333,-1.545019249464132
-3.942,-0.1886492866663929,-0.9622041371799229
-3.9415,0.142126133921769,-0.3581957480853793
-3.941,0.291508581929326,0.1292496185523226
-3.9405,0.3448594562177392,0.4047622170866759
-3.94,0.3235191065023739,0.5213252395435176
-3.9395,0.291508581929326,0.5213252395435176
-3.939,0.3875401556484697,0.6060983467848571
-3.9385,0.6009436528021226,0.8286277532933731
-3.938,0.6222840025174878,0.7438546460520338
-3.9375,0.5262524287983441,0.55311515475902
-3.937,0.3875401556484697,0.3623756634660061
-3.9365,0.291508581929326,0.2352160026039969
-3.936,0.0674349099179905,-0.07208651114585861
-3.9355,-0.5514352318276028,-0.718481453861072
-3.935,-0.9248913518464952,-1.280103289334946
-3.9345,-1.020922925565639,-1.534422611058964
-3.934,-0.7648387289812555,-1.110557074852267
-3.9335,-0.4020527838200457,-0.5065486857577234
-3.933,-0.1032878878049318,0.002089957690313421
-3.9325,0.08877525963335578,0.3305857482505039
-3.932,0.1848068333524996,0.5001319627331828
-3.9315,0.2168173579255475,0.5637117931641874
-3.931,0.2168173579255475,0.5743084315693548
-3.9305,0.2061471830678648,0.55311515475902
-3.93,0.1954770082101822,0.5319218779486851
-3.9295,0.1741366584948169,0.5107286011383502
-3.929,0.1634664836371343,0.4895353243280153
-3.9285,0.1527963087794516,0.457745409112513
-3.928,0.142126133921769,0.4047622170866759
-3.9275,-0.04993701351651855,-0.04029659593035631
-3.927,-0.3380317346739499,-0.7290780922662394
-3.9265,-0.6047861061160158,-1.322489842955616
-3.926,-0.5941159312583333,-1.502632695843462
-3.9255,-0.2526703358124887,-1.01518732920576
-3.925,0.05676473506030786,-0.4323722169215513
-3.9245,0.2488278824985954,0.002089957690313421
-3.924,0.3128489316446912,0.2776025562246667
-3.9235,0.3128489316446912,0.4259554938970107
-3.923,0.291508581929326,0.457745409112513
-3.9225,0.3021787567870086,0.3623756634660061
-3.922,0.4302208550792003,0.2458126410091644
-3.9215,0.4195506802215176,0.1928294489833272
-3.921,0.3555296310754218,0.1822328105781598
-3.9205,0.2808384070716433,0.1928294489833272
-3.92,0.2274875327832301,0.2140227257936621
-3.9195,0.142126133921769,0.1292496185523226
-3.919,-0.3166913849585846,-0.3687923864905467
-3.9185,-0.839529952985034,-1.004590690800593
-3.918,-1.031593100423322,-1.460246142222792
-3.9175,-0.8181896032696687,-1.184733543688439
-3.917,-0.4447334832507763,-0.6019184314042303
-3.9165,-0.1352984123779797,-0.08268314955102604
-3.916,0.07810508477567314,0.2776025562246667
-3.9155,0.1848068333524996,0.4789386859228479
-3.915,0.2168173579255475,0.5637117931641874
-3.9145,0.2168173579255475,0.5955017083796896
-3.914,0.2061471830678648,0.5849050699745222
-3.9135,0.1954770082101822,0.5637117931641874
-3.913,0.1741366584948169,0.5425185163538525
-3.9125,0.1634664836371343,0.5107286011383502
-3.912,0.1527963087794516,0.5001319627331828
-3.9115,0.1527963087794516,0.4683420475176805
-3.911,-0.08194753808956648,0.2034260873884947
-3.9105,-0.4874141826815069,-0.4535654937318862
-3.91,-0.9142211769888124,-1.110557074852267
-3.9095,-0.9035510021311299,-1.502632695843462
-3.909,-0.4554036581084589,-1.131750351662602
-3.9085,-0.01792648894347063,-0.5595318777835605
-3.908,0.2488278824985954,-0.08268314955102604
-3.9075,0.3555296310754218,0.2246193641988295
-3.907,0.3555296310754218,0.3623756634660061
-3.9065,0.3128489316446912,0.4153588554918433
-3.906,0.2808384070716433,0.4047622170866759
-3.9055,0.4302208550792003,0.2352160026039969
-3.905,0.4942419042252961,0.13984625695749
-3.9045,0.4515612047945656,0.1610395337678249
-3.904,0.3875401556484697,0.2034260873884947
-3.9035,0.3128489316446912,0.2352160026039969
-3.903,0.2488278824985954,0.2352160026039969
-3.9025,-0.007256314085787988,-0.08268314955102604
-3.902,-0.572775581542968,-0.7290780922662394
-3.9015,-0.9462317015618604,-1.216523458903942
-3.901,-1.138294849000148,-1.01518732920576
-3.9005,-0.8715404775580819,-0.5913217929990628
-3.9,-0.4660738329661415,-0.2310360872233701
-3.8995,-0.1352984123779797,0.01268659609548085
-3.899,0.07810508477567314,0.1504428953626575
-3.8985,0.1848068333524996,0.2246193641988295
-3.898,0.2274875327832301,0.2776025562246667
-3.8975,0.2274875327832301,0.3199891098453364
-3.897,0.2061471830678648,0.3517790250608387
-3.8965,0.1954770082101822,0.3941655786815084
-3.896,0.1741366584948169,0.4471487707073456
-3.8955,0.1634664836371343,0.4895353243280153
-3.895,0.1527963087794516,0.5319218779486851
-3.8945,0.08877525963335578,0.4895353243280153
-3.894,-0.423393133535411,-0.05089323433552374
-3.8935,-0.9142211769888124,-0.6972881770507372
-3.893,-1.116954499284783,-1.152943628472937
-3.8925,-0.807519428411986,-1.004590690800593
-3.892,-0.3060212101009019,-0.4323722169215513
-3.8915,0.0674349099179905,0.1080563417419877
-3.891,0.2701682322139607,0.457745409112513
-3.8905,0.3341892813600565,0.627291623595192
-3.89,0.3235191065023739,0.627291623595192
-3.8895,0.291508581929326,0.5213252395435176
-3.889,0.4195506802215176,0.309392471440169
-3.8885,0.6649647019482183,0.05507314971615059
-3.888,0.6436243522328531,0.05507314971615059
-3.8875,0.5155822539406614,0.1504428953626575
-3.887,0.3982103305061524,0.2246193641988295
-3.8865,0.3021787567870086,0.2458126410091644
