Class_11_Cell_phone_Call/Class_11_Cell_phone_Call_UZ_8.csv

#Digilent WaveForms Oscilloscope Acquisition
#Device Name: EExplorer
#Serial Number: SN:210151A2B84A
#Date Time: 2020-12-20 12:48:19.286
#Sample rate: 2000Hz
#Samples: 16384
#Trigger: Source: Channel 1 Type: Edge Condition: Rising Level: 0 V Hyst.: Auto HoldOff: 0 s
#Channel 1: Range: 1 V/div Offset: 0 V
#Channel 2: Range: 1 V/div Offset: 0 V

Time (s),Channel 1 (V),Channel 2 (V)
-4.0960000000000001,-0.99958257585027366,0.87101430691404291
-4.0955000000000004,-0.47674400782429982,0.16103953376847058
-4.0949999999999998,-0.081947538089352984,-0.30521255605971559
-4.0945,0.15279630877945163,-0.49595204735255594
-4.0940000000000003,0.25949805735618103,-0.49595204735255594
-4.0934999999999997,0.2808384070716336,-0.37938902489555992
-4.093,0.27016823221396069,-0.20984281041303524
-4.0925000000000002,0.1954770082102501,-0.050893234335668308
-4.0919999999999996,-0.028596663801483228,-0.11447306476678856
-4.0914999999999999,-0.39138260896236304,-0.40058230170604903
-4.0910000000000002,-0.65813698040442903,-0.62311170821456507
-4.0904999999999996,-1.0209229255660466,-0.44296885532657421
-4.0899999999999999,-1.46907026958831,-0.28401927924920728
-4.0895000000000001,-1.618452717595867,-0.57012851618872795
-4.0890000000000004,-1.6291228924535397,-0.89862430674861959
-4.0884999999999998,-1.405049220442214,-0.78206128429207655
-4.0880000000000001,-0.90355100213112993,-0.29461591765437467
-4.0875000000000004,-0.31669138495911842,0.023283234500359185
-4.0869999999999997,0.15279630877969425,0.31998910984551954
-4.0865,0.41955068022151765,0.52132523954351762
-4.0860000000000003,0.52625242879824707,0.57430843156930667
-4.0854999999999997,0.54759277851385491,0.53192187794873325
-4.085,0.70764540137894905,0.58490506997452218
-4.0845000000000002,0.88903837395938878,0.63788826200031123
-4.0839999999999996,0.78233662538256254,0.40476221708639637
-4.0834999999999999,0.60094365280212259,0.097459703336820316
-4.0830000000000002,0.4622313796522482,-0.15685961838719809
-4.0824999999999996,0.41955068022169234,-0.22043944881783642
-4.0819999999999999,0.6116138276598051,0.18223281057815977
-4.0815000000000001,1.2838348436938116,0.81803111488820579
-4.0810000000000004,1.9453856848695334,1.3372663967409377
-4.0804999999999998,1.7319821877164825,1.3266697583362426
-4.0800000000000001,0.55826295337139209,1.2101067358794007
-4.0795000000000003,-0.44473348324986417,0.55311515475961748
-4.0789999999999997,-0.66880715526195644,-0.019103319120272022
-4.0785,-0.4980843575391895,-0.29461591765437467
-4.0780000000000003,-0.22065981123969314,-0.33700247127500593
-4.0774999999999997,0.0034138607720305128,-0.25222936403357005
-4.077,0.15279630877945163,-0.10387642636136091
-4.0765000000000002,0.21681735792548926,0.065669788121163808
-4.0759999999999996,0.20614718306782601,0.19282944898342358
-4.0754999999999999,0.16346648363713429,0.29879583303500157
-4.0750000000000002,-0.017926488943470625,0.18223281057815977
-4.0744999999999996,-0.19931946152447341,-0.13566634157730653
-4.0739999999999998,-0.63679663068906378,-0.62311170821456507
-4.0735000000000001,-1.2556667724346571,-1.0999604364470996
-4.0730000000000004,-1.8318562147489956,-1.4390528654121491
-4.0724999999999998,-2.0772702364762203,-1.6297923567054711
-4.0720000000000001,-1.6931439415996454,-1.3860696733866202
-4.0715000000000003,-0.94623170156253977,-0.77146464588746821
-4.0709999999999997,-0.23132998609668676,-0.19924617200743414
-4.0705,0.24882788249859539,0.27760255622466667
-4.0700000000000003,0.51558225394041868,0.56371179316392717
-4.0694999999999997,0.63295417737517057,0.59550170837957395
-4.069,0.63295417737517057,0.46834204751768049
-4.0685000000000002,0.63295417737517057,0.25640927941433178
-4.0679999999999996,0.7609962756673041,0.17163617217282851
-4.0674999999999999,0.69697522652126631,-0.0085066807148540119
-4.0670000000000002,0.53692260365602662,-0.22043944881820265
-4.0664999999999996,0.40888050536377679,-0.38998566330093942
-4.0659999999999998,0.34485945621773917,-0.4535654937318862
-4.0655000000000001,0.31284893164469124,-0.04029659593035631
-4.0650000000000004,0.11011560934890544,0.69087145402553152
-4.0644999999999998,-0.18864928666639288,1.3160731199310751
-4.0640000000000001,-0.63679663068906378,1.6869554641119353
-4.0635000000000003,-1.159635198715038,1.8353084017841441
-4.0629999999999997,-1.2023158981458848,1.4750226960079118
-4.0625,-0.80751942841198598,0.73325800764686633
-4.0620000000000003,-0.35937208438972273,0.12924961855287198
-4.0614999999999997,-0.028596663800978597,-0.20984281041311234
-4.0609999999999999,0.16346648363713429,-0.29461591765437467
-4.0605000000000002,0.24882788249859539,-0.20984281041303524
-4.0599999999999996,0.2701682322139316,-0.040296595930173193
-4.0594999999999999,0.23815770764091276,0.16103953376782493
-4.0590000000000002,0.13145595906408636,0.28819919462983412
-4.0585000000000004,0.035424385345029924,0.33058574825046527
-4.0579999999999998,-0.049937013516518552,0.24581264100916439
-4.0575000000000001,-0.29535103524321932,-0.12506970317169577
-4.0570000000000004,-0.89288082727290363,-0.64430498502442768
-4.0564999999999998,-1.5757720181651362,-1.0681705212315973
-4.056,-2.1733018101953641,-1.3118932045504481
-4.0555000000000003,-1.853196564465176,-1.0257839676111877
-4.0549999999999997,-0.99958257584963317,-0.46416213213655244
-4.0545,-0.29535103524321932,0.086863064931652884
-4.0540000000000003,0.23815770764042749,0.44714877070701797
-4.0534999999999997,0.50491207908305646,0.61669498519003418
-4.0529999999999999,0.59027347794443985,0.62729162359519197
-4.0525000000000002,0.62228400251748783,0.52132523954351762
-4.0519999999999996,0.62228400251765281,0.31998910984495088
-4.0514999999999999,0.80367697509809277,-0.10387642636136091
-4.0510000000000002,0.80367697509809277,-0.36879238649054674
-4.0505000000000004,0.65429452709067171,-0.43237221692149347
-4.0499999999999998,0.47290155450993088,-0.4535654937318862
-4.0495000000000001,0.36619980593310447,-0.44296885532671876
-4.0490000000000004,0.53692260365587141,-0.19924617200808947
-4.0484999999999998,1.1344523956866235,0.48953532432864177
-4.048,1.539919040278195,1.1783168206638983
-4.0475000000000003,1.2838348436940445,1.6339722720856837
-4.0469999999999997,0.31284893164381783,1.8565016785945465
-4.0465,-0.64746680554674652,1.7823252097584423
-4.0460000000000003,-0.83952995298485922,1.125333628638659
-4.0454999999999997,-0.60478610611571493,0.36237566346552424
-4.0449999999999999,-0.27401068552785401,-0.1674562567923655
-4.0445000000000002,-0.017926488943470625,-0.42177557851638392
-4.0439999999999996,0.15279630877951955,-0.45356549373178018
-4.0434999999999999,0.22748753278323011,-0.33700247127504446
-4.0430000000000001,0.24882788249859539,-0.15685961838719809
-4.0425000000000004,0.18480683335255779,0.01268659609532663
-4.0419999999999998,0.14212613392176898,0.18223281057815977
-4.0415000000000001,0.046094560202625215,0.17163617217299235
-4.0410000000000004,-0.19931946152385233,-0.11447306476626815
-4.0404999999999998,-0.67947733012037659,-0.41117894011157308
-4.04,-1.3196878215807528,-0.80325456110241145
-4.0395000000000003,-1.9812386627564749,-1.142346990067461
-4.0389999999999997,-2.3867053073486773,-1.3330864813605516
-4.0385,-2.0132491873301248,-1.0787671596367647
-4.0380000000000003,-1.0209229255665413,-0.58072515459434837
-4.0374999999999996,-0.20998963638128265,-0.20984281041273647
-4.0369999999999999,0.31284893164469124,0.11865298014715518
-4.0365000000000002,0.55826295337139209,0.37297230187117358
-4.0359999999999996,0.63295417737516091,0.48953532432799607
-4.0354999999999999,0.62228400251748783,0.46834204751768049
-4.0350000000000001,0.69697522652126631,0.39416557868150842
-4.0345000000000004,0.80367697509799574,0.37297230187119285
-4.0339999999999998,0.6863050516635838,0.19282944898332721
-4.0335000000000001,0.51558225394066137,-0.04029659593035631
-4.0330000000000004,0.37686998079091327,-0.25222936403351226
-4.0324999999999998,0.32351910650220889,-0.35819574808497451
-4.032,0.14212613392176898,0.086863064931652884
-4.0315000000000003,-0.370042259246532,0.77564456126690962
-4.0309999999999997,-1.0422632752814409,1.3478630351468666
-4.0305,-1.522421143876723,1.6657621873016004
-4.0300000000000002,-1.5010807941613771,1.443232780793287
-4.0294999999999996,-0.97824222613442313,0.7226613692410917
-4.0289999999999999,-0.44473348325077627,0.055073149716150585
-4.0285000000000002,-0.049937013516518552,-0.36879238649054674
-4.0279999999999996,0.17413665849490426,-0.53833860097320629
-4.0274999999999999,0.27016823221396069,-0.51714532416289083
-4.0270000000000001,0.29150858192932599,-0.38998566330088158
-4.0265000000000004,0.28083840707165303,-0.20984281041319908
-4.0259999999999998,0.21681735792554749,-0.04029659593035631
-4.0255000000000001,0.11011560934872107,0.055073149716150585
-4.0250000000000004,-0.0072563140856812397,0.055073149716150585
-4.0244999999999997,-0.12462823752060757,-0.11447306476688494
-4.024,-0.46607383296614152,-0.50654868575772338
-4.0235000000000003,-1.074273799853499,-0.97280077558466638
-4.0229999999999997,-1.7144842913154279,-1.3118932045505638
-4.0225,-2.1733018101953641,-1.4390528654124575
-4.0220000000000002,-1.6077825427386987,-1.0681705212319346
-4.0214999999999996,-0.81818960326907675,-0.40058230170546111
-4.0209999999999999,-0.16730893695102761,0.24581264100916439
-4.0205000000000002,0.31284893164469124,0.64848490040552687
-4.0199999999999996,0.56893312822915221,0.74385464605198559
-4.0194999999999999,0.65429452709053582,0.69087145402619654
-4.0190000000000001,0.64362435223285308,0.46834204751768049
-4.0185000000000004,0.63295417737518023,0.21402272579389342
-4.0179999999999998,0.75032610080967954,0.0020899576903134209
-4.0175000000000001,0.69697522652126631,-0.14626297998203064
-4.0170000000000003,0.55826295337151821,-0.26282600243876636
-4.0164999999999997,0.46223137965219968,-0.35819574808538895
-4.016,0.40888050536383502,-0.36879238649054674
-4.0155000000000003,0.67563487680565837,0.055073149715765046
-4.0149999999999997,1.1771330951169754,0.77564456126810466
-4.0145,1.1664629202593024,1.4008462271724147
-4.0140000000000002,0.5582629533719452,1.7293420177323062
-4.0134999999999996,-0.42339313353596414,1.8670983169995694
-4.0129999999999999,-1.0315931004233216,1.6339722720860981
-4.0125000000000002,-0.91422117698881245,0.9134008605347127
-4.0119999999999996,-0.5407650569695901,0.22461936419843437
-4.0114999999999998,-0.17797911180871023,-0.20984281041303524
-4.0110000000000001,0.067434909917990504,-0.36879238649054674
-4.0105000000000004,0.20614718306773869,-0.33700247127507338
-4.0099999999999998,0.25949805735627807,-0.19924617200786782
-4.0095000000000001,0.25949805735627807,-0.0085066807148540119
-4.0090000000000003,0.18480683335256748,0.13984625695735509
-4.0084999999999997,0.078105084775566394,0.23521600260397768
-4.008,-0.039266838658835915,0.21402272579366208
-4.0075000000000003,-0.37004225924669698,-0.040296595930124995
-4.0069999999999997,-0.93556152670476966,-0.24163272562887486
-4.0065,-1.586442193022819,-0.61251506980939763
-4.0060000000000002,-2.1733018101953641,-0.97280077558509037
-4.0054999999999996,-2.1839719850523771,-0.89862430674853289
-4.0049999999999999,-1.4477299198729445,-0.47475877054222104
-4.0045000000000002,-0.65813698040442903,-0.082683149551026042
-4.0039999999999996,-0.049937013516188601,0.27760255622491725
-4.0034999999999998,0.31284893164469124,0.55311515475901996
-4.0030000000000001,0.4835717293676135,0.6590815388106942
-4.0025000000000004,0.54759277851365118,0.54251851635395854
-4.0019999999999998,0.6116138276598051,0.30939247144016896
-4.0015000000000001,0.82501732481345802,0.29879583303500157
-4.0010000000000003,0.85702784938647691,0.21402272579373918
-4.0004999999999997,0.69697522652110133,-0.029699957525420179
-4,0.51558225394066137,-0.28401927924920728
-3.9994999999999998,0.38754015564846972,-0.4535654937318862
-3.9990000000000001,0.52625242879834411,-0.29461591765437467
-3.9984999999999999,1.1451225705439372,0.37297230187117358
-3.9980000000000002,1.9133751602970874,1.0511571598018894
-3.9975000000000001,2.436213728323537,1.5386025264395911
-3.9969999999999999,1.8493541111509915,1.7929218481636098
-3.9965000000000002,0.53692260365602662,1.8141151249739442
-3.996,-0.18864928666639288,1.2630899279052379
-3.9954999999999998,-0.33803173467394987,0.52132523954351762
-3.9950000000000001,-0.23132998609712346,-0.019103319120021445
-3.9944999999999999,-0.06060718837420119,-0.29461591765437467
-3.9940000000000002,0.08877525963335578,-0.32640583286987701
-3.9935,0.17413665849481691,-0.20984281041303524
-3.9929999999999999,0.21681735792554749,-0.029699957525188878
-3.9925000000000002,0.20614718306786484,0.16103953376782493
-3.992,0.12078578420640371,0.24581264100916439
-3.9914999999999998,0.0034138607718946501,0.21402272579366208
-3.9910000000000001,-0.20998963638175816,-0.082683149551026042
-3.9904999999999999,-0.72215802955052499,-0.54893523937839306
-3.9900000000000002,-1.3516983461538008,-0.98339741399025782
-3.9895,-1.7998456901764717,-1.2589100125246109
-3.9889999999999999,-1.8105158650341544,-1.3648763965762853
-3.9885000000000002,-1.3516983461538008,-1.0893637980419322
-3.988,-0.66880715526211176,-0.4641621321370536
-3.9874999999999998,-0.071277363231883828,0.097459703336820316
-3.9870000000000001,0.32351910650237387,0.41535885549184332
-3.9864999999999999,0.51558225394066137,0.41535885549184332
-3.9860000000000002,0.59027347794443985,0.28819919462983412
-3.9855,0.5689331282290746,0.13984625695749003
-3.9849999999999999,0.65429452709053582,0.11865298014715518
-3.9845000000000002,0.78233662538272752,0.16103953376782493
-3.984,0.67563487680590106,-0.050893234335523743
-3.9834999999999998,0.52625242879834411,-0.30521255605954212
-3.9830000000000001,0.3982103305061524,-0.50654868575772338
-3.9824999999999999,0.3982103305061524,-0.51714532416289083
-3.9820000000000002,0.32351910650237387,0.044476511310983152
-3.9815,-0.39138260896236304,0.78624119967270345
-3.9809999999999999,-1.2023158981462438,1.3796529503620798
-3.9805000000000001,-1.7891755153187892,1.3266697583362426
-3.98,-2.2800035587721905,1.1359302670432285
-3.9794999999999998,-1.9172176136109809,0.95578741415538238
-3.9790000000000001,-1.1062843244271001,0.51072860113835017
-3.9784999999999999,-0.4554036581084589,0.11865298014715518
-3.9780000000000002,-0.017926488943470625,-0.093279787956193475
-3.9775,0.21681735792554749,-0.13566634157686319
-3.9769999999999999,0.30217875678700862,-0.050893234335523743
-3.9765000000000001,0.31284893164469124,0.086863064931652884
-3.976,0.25949805735627807,0.23521600260399694
-3.9754999999999998,0.046094560202625215,0.17163617217299235
-3.9750000000000001,-0.20998963638175816,-0.050893234335523743
-3.9744999999999999,-0.43406330839309365,-0.33700247127504446
-3.9740000000000002,-0.65813698040442903,-0.61251506980939763
-3.9735,-1.1169544992847826,-0.86683439153341613
-3.9729999999999999,-1.6931439415996454,-1.1741369052832717
-3.9725000000000001,-2.1306211107646336,-1.3966663117917877
-3.972,-1.8211860398918371,-1.2589100125246109
-3.9714999999999998,-0.97824222613490841,-0.71848145386107198
-3.9710000000000001,-0.26334051067017139,-0.11447306476652835
-3.9704999999999999,0.21681735792554749,0.21402272579366208
-3.9700000000000002,0.47290155450993088,0.43655213230217815
-3.9695,0.57960330308675734,0.48953532432801533
-3.9689999999999999,0.60094365280212259,0.39416557868150842
-3.9685000000000001,0.63295417737517057,0.24581264100916439
-3.968,0.80367697509809277,0.23521600260399694
-3.9674999999999998,0.76099627566736228,0.076266426526485451
-3.9670000000000001,0.60094365280212259,-0.1674562567923655
-3.9664999999999999,0.45156120479456557,-0.37938902489571413
-3.9660000000000002,0.36619980593310447,-0.50654868575772338
-3.9655,0.69697522652126631,-0.15685961838719809
-3.9649999999999999,1.4225471168436858,0.55311515475901996
-3.9645000000000001,1.8706944608663567,1.1995100974742332
-3.964,1.6679611385703865,1.6233756336809306
-3.9634999999999998,0.59027347794443985,1.8353084017842791
-3.9630000000000001,-0.3700422592469978,1.6657621873016004
-3.9624999999999999,-0.58344575640065055,0.96638405256054982
-3.9620000000000002,-0.42339313353541097,0.27760255622466667
-3.9615,-0.17797911180871023,-0.15685961838719809
-3.9609999999999999,0.024754210487259936,-0.32640583286987701
-3.9605000000000001,0.16346648363713429,-0.28401927924920728
-3.96,0.22748753278323011,-0.13566634157686319
-3.9594999999999998,0.24882788249859539,0.065669788121318018
-3.9590000000000001,0.18480683335249956,0.21402272579366208
-3.9584999999999999,0.046094560202625215,0.24581264100916439
-3.9580000000000002,-0.11395806266261441,0.11865298014715518
-3.9575,-0.38071243410468042,-0.18864953360270037
-3.9569999999999999,-0.92489135184649518,-0.36879238649054674
-3.9565000000000001,-1.5010807941613578,-0.55953187778356051
-3.956,-2.0345895370454898,-0.86683439153341613
-3.9554999999999998,-2.1839719850530468,-1.0787671596367647
-3.9550000000000001,-1.67180359188428,-0.792657922697244
-3.9544999999999999,-0.83952995298503397,-0.29461591765437467
-3.9540000000000002,-0.15663876209334496,0.10805634174198775
-3.9535,0.29150858192932599,0.4471487707073456
-3.9529999999999998,0.50491207908297886,0.59550170837968963
-3.9525000000000001,0.57960330308675734,0.51072860113835017
-3.952,0.59027347794443985,0.37297230187117358
-3.9514999999999998,0.76099627566736228,0.35177902506083869
-3.9510000000000001,0.81434714995577528,0.2246193641988295
-3.9504999999999999,0.6863050516635838,-0.050893234335523743
-3.9500000000000002,0.51558225394066137,-0.32640583286987701
-3.9495,0.40888050536383502,-0.49595204735255594
-3.9489999999999998,0.53692260365602662,-0.32640583286987701
-3.9485000000000001,0.75032610080967954,0.29879583303500157
-3.948,0.86769802424418851,0.95578741415538238
-3.9474999999999998,0.64362435223285308,1.3796529503620798
-3.9470000000000001,0.13145595906408636,1.3796529503620798
-3.9464999999999999,-0.6047861061160158,1.3584596735517449
-3.9460000000000002,-0.77550890383893822,0.9134008605347127
-3.9455,-0.54076505696992005,0.29879583303500157
-3.9449999999999998,-0.23132998609712346,-0.14626297998203064
-3.9445000000000001,0.014084035629577295,-0.3581957480853793
-3.944,0.16346648363713429,-0.3581957480853793
-3.9434999999999998,0.23815770764091276,-0.2310360872233701
-3.9430000000000001,0.25949805735627807,-0.04029659593035631
-3.9424999999999999,0.22748753278323011,0.13984625695749003
-3.9420000000000002,0.12078578420640371,0.19282944898332721
-3.9415,0.0034138607718946501,0.15044289536265748
-3.9409999999999998,-0.17797911180871023,-0.10387642636136091
-3.9405000000000001,-0.64746680554674652,-0.53833860097322561
-3.9399999999999999,-1.2876772970077051,-0.96220413717992292
-3.9394999999999998,-1.9385579633263461,-1.2589100125246109
-3.9390000000000001,-2.1199509359069508,-1.2589100125246109
-3.9384999999999999,-1.2556667724346571,-0.80325456110241145
-3.9380000000000002,-0.43406330839309365,-0.29461591765437467
-3.9375,0.24882788249859539,0.18223281057815977
-3.9369999999999998,0.62228400251748783,0.50013196273318283
-3.9365000000000001,0.72898575109431429,0.64848490040552687
-3.9359999999999999,0.70764540137894905,0.63788826200035942
-3.9355000000000002,0.63295417737517057,0.47893868592284788
-3.9350000000000001,0.70764540137894905,0.35177902506083869
-3.9344999999999999,0.8997085488172365,0.47893868592284788
-3.9340000000000002,0.80367697509809277,0.33058574825050385
-3.9335,0.6116138276598051,0.086863064931652884
-3.9329999999999998,0.43022085507920033,-0.20984281041303524
-3.9325000000000001,0.35552963107542179,-0.42177557851638392
-3.9319999999999999,0.17413665849481691,-0.061489872740691176
-3.9315000000000002,-0.54076505696992005,0.59550170837968963
-3.931,-1.2983474718653876,1.146526905448396
-3.9304999999999999,-1.8638667393225676,1.4962159728189213
-3.9300000000000002,-2.1412912856223163,1.5915857184654283
-3.9295,-1.5117509690190405,1.0829470750173917
-3.9289999999999998,-0.78617907869662074,0.38356894027634103
