Class_11_Cell_phone_Call/Class_11_Cell_phone_Call_Basim_5.csv

#Digilent WaveForms Oscilloscope Acquisition
#Device Name: EExplorer
#Serial Number: SN:210151A2B84A
#Date Time: 2020-12-16 09:21:36.857
#Sample rate: 2000Hz
#Samples: 16384
#Trigger: Source: Channel 1 Type: Edge Condition: Rising Level: 0 V Hyst.: Auto HoldOff: 0 s
#Channel 1: Range: 1 V/div Offset: 0 V Attenuation: 1 X
#Channel 2: Range: 1 V/div Offset: 0 V Attenuation: 1 X
#Power Supplies: ON
#Fixed Supply: ON
#Voltage: 3.3 V Readback: 3.326 V
#Positive Supply: ON
#Voltage: 3.7 V Readback: 3.714 V
#Current: 40 mA Readback: 19 mA
#Negative Supply: ON
#Voltage: -3.7 V Readback: -3.35 V
#Current: -40 mA Readback: -8 mA
#Reference 1: ON
#Voltage: 0 V
#Reference 2: ON
#Voltage: 0 V

Time (s),Channel 1 (V),Channel 2 (V)
-4.096,-0.6367966306890638,-0.1780528951975329
-4.0955,-0.06060718837472523,-0.2840192792491109
-4.095,0.3128489316448562,-0.3158091944646903
-4.0945,0.4942419042252961,-0.2946159176543747
-4.094,0.5369226036559878,-0.2840192792492169
-4.0935,0.5155822539406419,-0.2840192792492555
-4.093,0.4942419042252961,-0.3370024712750445
-4.0925,0.5049120790829692,-0.4535654937317802
-4.092,0.4835717293675844,-0.5277419625681065
-4.0915,0.4515612047945656,-0.5807251545938954
-4.091,0.4195506802215176,-0.6019184314042303
-4.0905,0.3982103305059874,-0.623111708214353
-4.09,0.2168173579255475,-0.3899856633008816
-4.0895,-0.3700422592469978,0.2881991946298341
-4.089,-1.116954499284103,0.9557874141547752
-4.0885,-1.821186039891837,1.369056311956912
-4.088,-2.119950935906951,1.390249588767247
-4.0875,-1.415719395300537,0.8074344764835684
-4.087,-0.6474668055462225,0.1186529801467119
-4.0865,-0.07127736323188383,-0.3687923864905467
-4.086,0.2701682322136502,-0.5913217929988605
-4.0855,0.4408910299369218,-0.6019184314041146
-4.085,0.4835717293676135,-0.474758770542221
-4.0845,0.4835717293676135,-0.2946159176545385
-4.084,0.4515612047945461,-0.08268314955084292
-4.0835,0.4302208550792003,0.1186529801471552
-4.083,0.408880505363835,0.2881991946298341
-4.0825,0.3982103305061621,0.4365521323022553
-4.082,0.408880505363835,0.5213252395435176
-4.0815,0.5155822539406614,0.1610395337678249
-4.081,0.248827882498838,-0.4005823017055383
-4.0805,-0.5514352318276028,-0.1992461720078678
-4.08,-0.9782422261349084,0.2987958330350016
-4.0795,-0.6154562809740285,0.1610395337679502
-4.079,-0.1139580626622942,-0.1886495336029028
-4.0785,0.2381577076409128,-0.4111789401112165
-4.078,0.4195506802213527,-0.5065486857576367
-4.0775,0.4835717293676135,-0.5277419625680486
-4.077,0.4835717293676135,-0.5171453241628908
-4.0765,0.4729015545099406,-0.4853554089474174
-4.076,0.6009436528022196,-0.6337083466198192
-4.0755,0.707645401378949,-0.7290780922662394
-4.075,0.6542945270905358,-0.6231117082145651
-4.0745,0.5582629533713145,-0.4747587705421054
-4.074,0.4729015545099309,-0.3475991096802118
-4.0735,0.3768699807907871,-0.1674562567923655
-4.073,-0.02859666380078452,0.3835689402758399
-4.0725,-0.7648387289812555,1.029963882991555
-4.072,-1.501080794161358,1.506812611224089
-4.0715,-2.087940411333369,1.708148740922087
-4.071,-1.682473766741254,1.294879843120056
-4.0705,-0.9035510021311299,0.5425185163538525
-4.07,-0.2526703358130806,-0.07208651114529963
-4.0695,0.174136658495011,-0.4217755785164803
-4.069,0.3875401556484697,-0.5277419625680583
-4.0685,0.4729015545099309,-0.4853554089473885
-4.068,0.4835717293675941,-0.3475991096800576
-4.0675,0.4622313796522482,-0.1780528951975329
-4.067,0.4302208550792003,-0.008506680714854012
-4.0665,0.4088805053638253,0.1504428953627828
-4.066,0.3982103305061524,0.2881991946298341
-4.0655,0.3982103305061524,0.383568940276341
-4.065,0.4729015545098629,0.1716361721731851
-4.0645,0.142126133921769,-0.4323722169215513
-4.064,-0.6474668055467465,-0.4641621321370536
-4.0635,-1.287677297007123,0.1080563417414673
-4.063,-1.084943974711192,0.0762664265260614
-4.0625,-0.4874141826815069,-0.3899856633008816
-4.062,0.03542438534446707,-0.6654982618349843
-4.0615,0.344859456217875,-0.7502713690765455
-4.061,0.4942419042252961,-0.718481453861072
-4.0605,0.5262524287983441,-0.6231117082145651
-4.06,0.4942419042252961,-0.5277419625679426
-4.0595,0.4942419042252961,-0.400582301706049
-4.059,0.5049120790829789,-0.2734226408440398
-4.0585,0.4835717293676329,-0.2416327256285665
-4.058,0.4515612047945656,-0.2310360872233701
-4.0575,0.4195506802215176,-0.2204394488182027
-4.057,0.3768699807908259,-0.1780528951975715
-4.0565,0.01408403562957729,0.1928294489833272
-4.056,-0.7008176798351597,0.8286277532933731
-4.0555,-1.437059745014592,1.358459673551263
-4.055,-2.07727023647623,1.686955464111868
-4.0545,-2.087940411333903,1.612778995275763
-4.054,-1.287677297008433,0.9663840525611377
-4.0535,-0.5300948821117424,0.2776025562242523
-4.053,0.01408403562957729,-0.1780528951975329
-4.0525,0.3235191065023739,-0.3793890248957141
-4.052,0.4622313796522773,-0.3793890248956081
-4.0515,0.4942419042252961,-0.2628260024388724
-4.051,0.4729015545099309,-0.09327978795619347
-4.0505,0.451561204794585,0.08686306493148906
-4.05,0.4195506802215176,0.2564092794143318
-4.0495,0.408880505363835,0.3941655786815084
-4.049,0.3982103305061621,0.5001319627330865
-4.0485,0.4302208550792876,0.4577454091120216
-4.048,0.5262524287983441,-0.08268314955102604
-4.0475,0.035424385345389,-0.3370024712748131
-4.047,-0.7648387289814399,0.1610395337680466
-4.0465,-0.9675720512772257,0.4047622170866759
-4.046,-0.5194247072549624,-0.01910331911963592
-4.0455,-0.02859666380087185,-0.4111789401114092
-4.045,0.2808384070716433,-0.6231117082145651
-4.0445,0.4408910299368829,-0.6972881770507372
-4.044,0.4942419042252864,-0.6972881770506987
-4.0435,0.4835717293676135,-0.6549016234300674
-4.043,0.4729015545099309,-0.6019184314042303
-4.0425,0.4729015545099309,-0.5489352393784412
-4.042,0.4622313796522482,-0.5065486857577234
-4.0415,0.4302208550792003,-0.4429688553267188
-4.041,0.4088805053638545,-0.379389024895772
-4.0405,0.3982103305060068,-0.2946159176541434
-4.04,0.2381577076409128,-0.04029659593035631
-4.0395,-0.3380317346734258,0.5955017083791114
-4.039,-1.095614149570068,1.199510097474609
-4.0385,-1.810515865034154,1.612778995275763
-4.038,-2.173301810195034,1.697552102517026
-4.0375,-1.511750969018322,1.157123543852918
-4.037,-0.722158029550525,0.4471487707073456
-4.0365,-0.1139580626626144,-0.07208651114585861
-4.036,0.2594980573564333,-0.3264058328699059
-4.0355,0.4302208550792003,-0.3581957480853793
-4.035,0.4835717293676135,-0.2628260024388724
-4.0345,0.4835717293676135,-0.09327978795634767
-4.034,0.4515612047945656,0.08686306493165288
-4.0335,0.4302208550792003,0.2564092794143318
-4.033,0.4088805053638545,0.4047622170865409
-4.0325,0.3982103305061621,0.5107286011383984
-4.032,0.408880505363835,0.5637117931641874
-4.0315,0.5475927785135832,0.1716361721733489
-4.031,0.4408910299362133,-0.411178940111043
-4.0305,-0.2953510352432193,-0.2204394488182027
-4.03,-0.8288597781268661,0.1822328105777936
-4.0295,-0.5727755815425701,-0.04029659593069362
-4.029,-0.1352984123779797,-0.4111789401112165
-4.0285,0.1954770082101822,-0.6337083466197325
-4.028,0.3768699807908648,-0.6972881770507372
-4.0275,0.4622313796522482,-0.6972881770507372
-4.027,0.4729015545099309,-0.6549016234300674
-4.0265,0.4622313796522579,-0.6019184314042785
-4.026,0.4622313796522482,-0.6125150698093976
-4.0255,0.4622313796522482,-0.5913217929990628
-4.025,0.4408910299369024,-0.5489352393784316
-4.0245,0.4195506802214982,-0.4853554089473306
-4.024,0.3982103305061524,-0.4217755785163839
-4.0235,0.3341892813601148,-0.2946159176544904
-4.023,-0.1352984123786687,0.256409279414939
-4.0225,-0.8928808272734472,0.92399749893988
-4.022,-1.618452717595207,1.422039503982297
-4.0215,-2.119950935906699,1.337266396741063
-4.021,-1.842526389607202,0.9557874141553824
-4.0205,-1.031593100423322,0.4047622170866759
-4.02,-0.3487019095312055,-0.02969995752539127
-4.0195,0.1207857842064037,-0.252229364033705
-4.019,0.3768699807907871,-0.2946159176543747
-4.0185,0.4729015545098435,-0.2098428104131123
-4.018,0.4835717293676135,-0.06148987274069118
-4.0175,0.4729015545099309,0.09745970333682032
-4.017,0.4408910299369121,0.2458126410090295
-4.0165,0.4195506802214982,0.3729723018712603
-4.016,0.3982103305061524,0.4683420475176805
-4.0155,0.3982103305061524,0.5319218779486272
-4.015,0.3875401556480815,0.298795833034404
-4.0145,-0.03926683865883591,-0.3581957480853793
-4.014,-0.8075194284112872,-0.7184814538607442
-4.0135,-1.415719395299664,-0.2840192792490241
-4.013,-1.159635198715513,-0.08268314955102604
-4.0125,-0.5300948821122373,-0.1992461720078678
-4.012,-0.007256314085496853,-0.3052125560596192
-4.0115,0.3128489316446912,-0.3899856633008816
-4.011,0.4729015545099309,-0.4323722169215513
-4.0105,0.5049120790829498,-0.4853554089473403
-4.01,0.4942419042252961,-0.5277419625680583
-4.0095,0.5049120790829789,-0.570128516188728
-4.009,0.6116138276597081,-0.6866915386454637
-4.0085,0.5902734779443913,-0.6760949002403348
-4.008,0.5369226036560266,-0.6019184314042303
-4.0075,0.4729015545099891,-0.5277419625681258
-4.007,0.4088805053635051,-0.442968855326314
-4.0065,0.04609456020262521,0.002089957690313421
-4.006,-0.658136980404429,0.7120647308365314
-4.0055,-1.405049220442787,1.284283204715862
-4.005,-2.03458953704549,1.602182356870596
-4.0045,-2.119950935906951,1.570392441655093
-4.004,-1.351698346153112,0.9557874141547463
-4.0035,-0.5941159312583333,0.2564092794143318
-4.003,-0.02859666380115328,-0.2310360872233701
-4.0025,0.3021787567867078,-0.4535654937316838
-4.002,0.4515612047945656,-0.474758770542221
-4.0015,0.4942419042252961,-0.3581957480853793
-4.001,0.4835717293676232,-0.1886495336028546
-4.0005,0.4515612047945461,0.002089957690467622
-4,0.4302208550792003,0.1716361721729923
-3.9995,0.408880505363835,0.3305857482505039
-3.999,0.3982103305061524,0.457745409112513
-3.9985,0.4622313796522482,0.4259554938970107
-3.998,0.857027849386506,-0.08268314955102604
-3.9975,0.9210488985326017,-0.400582301706049
-3.997,0.09944543449103843,0.06566978812131802
-3.9965,-0.3487019095316325,0.2034260873884947
-3.996,-0.156638762093345,-0.2310360872233701
-3.9955,0.142126133921769,-0.6019184314042303
-3.995,0.3341892813600565,-0.7290780922662394
-3.9945,0.4408910299368829,-0.7078848154559045
-3.994,0.4729015545099309,-0.6337083466197325
-3.9935,0.4729015545099309,-0.570128516188728
-3.993,0.4622313796522482,-0.5065486857577234
-3.9925,0.4515612047945656,-0.5489352393783931
-3.992,0.4302208550792003,-0.5383386009732256
-3.9915,0.408880505363835,-0.4641621321370536
-3.991,0.3982103305061524,-0.3793890248957141
-3.9905,0.3875401556484697,-0.2946159176543747
-3.99,0.2381577076409128,-0.05089323433552374
-3.9895,-0.3593720843893152,0.5637117931641874
-3.989,-1.127624674142465,1.178316820663898
-3.9885,-1.83185621474952,1.559795803249926
-3.988,-2.226652684483777,1.580989080060261
-3.9875,-1.67180359188428,1.125333628638062
-3.987,-0.839529952985034,0.4471487707073456
-3.9865,-0.1993194615240755,-0.07208651114585861
-3.986,0.2061471830678648,-0.3370024712750445
-3.9855,0.4195506802215176,-0.3793890248957141
-3.985,0.4835717293676135,-0.2946159176543747
-3.9845,0.4835717293676135,-0.1462629799820306
-3.984,0.4622313796522482,0.02328323450064829
-3.9835,0.4302208550792003,0.1928294489833272
-3.983,0.408880505363835,0.3411823866556712
-3.9825,0.3982103305061524,0.457745409112513
-3.982,0.408880505363835,0.5107286011383502
-3.9815,0.4408910299368829,0.1504428953626575
-3.981,-0.01792648894347063,-0.4641621321370536
-3.9805,-0.8181896032696687,-0.3687923864905467
-3.98,-1.30901764672307,0.1080563417419877
-3.9795,-0.9142211769888124,-0.09327978795619347
-3.979,-0.2846808603855366,-0.5171453241628908
-3.9785,0.1634664836371343,-0.718481453861072
-3.978,0.408880505363835,-0.7396747306714069
-3.9775,0.5049120790829789,-0.7078848154559045
-3.977,0.5155822539406614,-0.6654982618352349
-3.9765,0.4942419042252961,-0.6125150698093976
-3.976,0.5796033030867573,-0.7078848154559045
-3.9755,0.6863050516635838,-0.792657922697244
-3.975,0.6329541773751706,-0.6866915386455698
-3.9745,0.5475927785137094,-0.5277419625680583
-3.974,0.4729015545099309,-0.3899856633008816
-3.9735,0.3661998059331045,-0.2204394488182027
-3.973,-0.1993194615240755,0.309392471440169
-3.9725,-0.9889124009925911,0.9663840525605498
-3.972,-1.735824641030376,1.464426057603419
-3.9715,-2.23732285934146,1.739938656137773
-3.971,-1.949228138184029,1.485619334413754
-3.9705,-1.084943974711735,0.775644561267536
-3.97,-0.3700422592469978,0.1186529801471552
-3.9695,0.1207857842064037,-0.2734226408440398
-3.969,0.3768699807907871,-0.4217755785163839
-3.9685,0.4835717293676135,-0.3899856633008816
-3.968,0.4942419042252961,-0.252229364033705
-3.9675,0.4729015545099309,-0.08268314955102604
-3.967,0.4408910299368829,0.09745970333682032
-3.9665,0.4195506802215176,0.2564092794143318
-3.966,0.408880505363835,0.383568940276341
-3.9655,0.3982103305061524,0.4789386859228479
-3.965,0.4835717293676135,0.3305857482505039
-3.9645,0.3555296310754218,-0.252229364033705
-3.964,-0.3807124341046804,-0.3475991096802118
-3.9635,-1.116954499284783,0.1928294489833272
-3.963,-1.06360362499637,0.2670059178194992
-3.9625,-0.5194247072545548,-0.2310360872233701
-3.962,0.00341386077189465,-0.6337083466197325
-3.9615,0.3235191065023739,-0.8032545611024114
-3.961,0.4622313796522482,-0.8350444763179138
-3.9605,0.5049120790829789,-0.7502713690765743
-3.96,0.4942419042252961,-0.6443049850249
-3.9595,0.4942419042252961,-0.5807251545938954
-3.959,0.5369226036560266,-0.5913217929990628
-3.9585,0.5155822539406614,-0.5489352393783931
-3.958,0.4729015545099309,-0.474758770542221
-3.9575,0.4408910299368829,-0.3793890248957141
-3.957,0.408880505363835,-0.2946159176543747
-3.9565,0.1634664836371343,0.02328323450064829
-3.956,-0.5087545323968721,0.6696781772158616
-3.9555,-1.277007122150022,1.25249328950007
-3.955,-1.906547438753298,1.42203950398275
-3.9545,-2.045259711903173,1.114736990232894
-3.954,-1.319687821580753,0.5849050699745222
-3.9535,-0.5834457564006506,0.08686306493165288
-3.953,-0.02859666380115328,-0.2098428104130352
-3.9525,0.3021787567870086,-0.3052125560595421
-3.952,0.4515612047945656,-0.2734226408440398
-3.9515,0.4942419042252961,-0.1462629799820306
-3.951,0.4835717293676135,-0.008506680714854012
-3.9505,0.4515612047945656,0.13984625695749
-3.95,0.4302208550792003,0.2776025562246667
-3.9495,0.408880505363835,0.3729723018711736
-3.949,0.3982103305061524,0.457745409112513
-3.9485,0.4302208550792003,0.4047622170866759
-3.948,0.3021787567870086,-0.1356663415768632
-3.9475,-0.3807124341046804,-0.6760949002404023
-3.947,-1.170305373573196,-0.3475991096802118
-3.9465,-1.30901764672307,0.1080563417419877
-3.946,-0.7434983792658902,-0.07208651114585861
-3.9455,-0.1459685872356623,-0.400582301706049
-3.945,0.2488278824985954,-0.5913217929990628
-3.9445,0.4515612047945656,-0.6760949002404023
-3.944,0.5155822539406614,-0.6866915386455698
-3.9435,0.5155822539406614,-0.6549016234300674
-3.943,0.4942419042252961,-0.6125150698093976
-3.9425,0.5369226036560266,-0.6866915386455698
-3.942,0.5262524287983441,-0.6760949002404023
-3.9415,0.4835717293676135,-0.5913217929990628
-3.941,0.4408910299368829,-0.4959520473525559
-3.9405,0.4195506802215176,-0.400582301706049
-3.94,0.3128489316446912,-0.1674562567923655
-3.9395,-0.1993194615240755,0.4683420475176805
-3.939,-0.9569018764195432,1.114736990232894
-3.9385,-1.682473766741963,1.506812611224089
-3.938,-2.162631635337682,1.37965295036208
-3.9375,-1.618452717595867,0.92399749893988
-3.937,-0.8181896032696687,0.3411823866556712
-3.9365,-0.1886492866663929,-0.07208651114585861
-3.936,0.2168173579255475,-0.2734226408440398
-3.9355,0.4195506802215176,-0.2946159176543747
-3.935,0.4942419042252961,-0.1992461720078678
-3.9345,0.4942419042252961,-0.07208651114585861
-3.934,0.4622313796522482,0.07626642652648545
-3.9335,0.4408910299368829,0.2140227257936621
-3.933,0.4195506802215176,0.3305857482505039
-3.9325,0.408880505363835,0.4153588554918433
-3.932,0.408880505363835,0.457745409112513
-3.9315,0.6542945270905358,0.1080563417419877
-3.931,1.134452395686255,-0.5277419625680583
-3.9305,0.6436243522328531,-0.4429688553267188
-3.93,-0.124628237520297,0.09745970333682032
-3.9295,-0.1886492866663929,0.06566978812131802
-3.929,0.04609456020262521,-0.326405832869877
-3.9285,0.2594980573562781,-0.6337083466197325
-3.928,0.3875401556484697,-0.7608680074817418
-3.9275,0.4515612047945656,-0.7714646458869092
-3.927,0.4622313796522482,-0.7290780922662394
-3.9265,0.4515612047945656,-0.6549016234300674
-3.926,0.4302208550792003,-0.5807251545938954
-3.9255,0.408880505363835,-0.5277419625680583
-3.925,0.3982103305061524,-0.474758770542221
-3.9245,0.3875401556484697,-0.4111789401112165
-3.924,0.3875401556484697,-0.3581957480853793
-3.9235,0.3448594562177392,-0.2416327256285375
-3.923,-0.1352984123779797,0.2564092794143318
-3.9225,-0.8822106524157645,0.92399749893988
-3.922,-1.597112367880501,1.432636142387917
-3.9215,-2.119950935906951,1.33726639674141
-3.921,-1.87453691418025,0.9028042221295453
-3.9205,-1.074273799854052,0.3623756634660061
-3.92,-0.3807124341046804,-0.05089323433552374
-3.9195,0.09944543449103843,-0.252229364033705
-3.919,0.3661998059331045,-0.2840192792492073
-3.9185,0.4729015545099309,-0.2098428104130352
-3.918,0.4942419042252961,-0.07208651114585861
-3.9175,0.4729015545099309,0.07626642652648545
-3.917,0.4408910299368829,0.2140227257936621
-3.9165,0.4195506802215176,0.3305857482505039
-3.916,0.408880505363835,0.4259554938970107
-3.9155,0.3982103305061524,0.4789386859228479
-3.915,0.5049120790829789,0.2881991946298341
-3.9145,0.6542945270905358,-0.3370024712750445
-3.914,0.1101156093487211,-0.4429688553267188
-3.9135,-0.690147504977477,0.1186529801471552
-3.913,-0.7648387289812555,0.2246193641988295
-3.9125,-0.3487019095316325,-0.1886495336027004
-3.912,0.0674349099179905,-0.5489352393783931
-3.9115,0.3341892813600565,-0.7396747306714069
-3.911,0.4622313796522482,-0.7820612842920766
-3.9105,0.4942419042252961,-0.7608680074817418
-3.91,0.4835717293676135,-0.7078848154559045
-3.9095,0.4835717293676135,-0.6231117082145651
-3.909,0.5369226036560266,-0.5489352393783931
-3.9085,0.5262524287983441,-0.4959520473525559
-3.908,0.4835717293676135,-0.4429688553267188
-3.9075,0.4408910299368829,-0.3899856633008816
-3.907,0.408880505363835,-0.3158091944647096
-3.9065,0.2168173579255475,0.04447651131098315
-3.906,-0.3807124341046804,0.701468092431364
-3.9055,-1.138294849000148,1.29487984312074
-3.905,-1.789175515318789,1.485619334413754
-3.9045,-2.002579012472442,1.104140351827727
-3.904,-1.341028171296118,0.5955017083796896
-3.9035,-0.6154562809736985,0.1186529801471552
-3.903,-0.06060718837420119,-0.1568596183871981
-3.9025,0.2808384070716433,-0.2416327256285375
-3.902,0.4408910299368829,-0.1886495336027004
-3.9015,0.4835717293676135,-0.07208651114585861
-3.901,0.4729015545099309,0.06566978812131802
-3.9005,0.4515612047945656,0.2034260873884947
-3.9,0.4302208550792003,0.3305857482505039
-3.8995,0.408880505363835,0.4153588554918433
-3.899,0.3982103305061524,0.4789386859228479
-3.8985,0.4302208550792003,0.4471487707073456
-3.898,0.8783681991018712,-0.06148987274069118
-3.8975,1.006410297394063,-0.6654982618352349
-3.897,0.1848068333524996,-0.4323722169215513
-3.8965,-0.2846808603855366,-0.2204394488182027
-3.896,-0.02859666380115328,-0.6972881770507372
-3.8955,0.3128489316446912,-1.142346990067769
-3.895,0.4835717293676135,-1.195330182093607
-3.8945,0.5475927785137094,-1.046977244421262
-3.894,0.5262524287983441,-0.8986243067489184
-3.8935,0.4942419042252961,-0.7714646458869092
-3.893,0.4515612047945656,-0.6760949002404023
-3.8925,0.5049120790829789,-0.5913217929990628
-3.892,0.5155822539406614,-0.5383386009732256
-3.8915,0.4835717293676135,-0.4959520473525559
-3.891,0.4408910299368829,-0.4429688553267188
-3.8905,0.408880505363835,-0.3899856633008816
-3.89,0.3235191065023739,-0.2204394488182027
-3.8895,-0.156638762093345,0.3729723018711736
-3.889,-0.9142211769888124,1.040560521396722
-3.8885,-1.650463242168915,1.528005888034424
-3.888,-2.151961460479999,1.70814874092227
-3.8875,-1.607782542738184,1.241896651094903
