Class_11_Cell_phone_Call/Class_11_Cell_phone_Call_Zakour_1.csv

#Digilent WaveForms Oscilloscope Acquisition
#Device Name: EExplorer
#Serial Number: SN:210151A2B84A
#Date Time: 2020-11-04 11:39:42.848
#Sample rate: 2000Hz
#Samples: 16384
#Trigger: Source: Channel 1 Type: Edge Condition: Rising Level: 0 V Hyst.: Auto HoldOff: 0 s
#Channel 1: Range: 1 V/div Offset: 0 V Attenuation: 1 X
#Channel 2: Range: 1 V/div Offset: 0 V Attenuation: 1 X
#Power Supplies: ON
#Fixed Supply: ON
#Voltage: 3.3 V Readback: 3.329 V
#Positive Supply: ON
#Voltage: 3.7 V Readback: 3.711 V
#Current: 500 mA Readback: 19 mA
#Negative Supply: ON
#Voltage: -3.7 V Readback: -3.706 V
#Current: -500 mA Readback: -6 mA
#Reference 1: ON
#Voltage: 0 V
#Reference 2: ON
#Voltage: 0 V

Time (s),Channel 1 (V),Channel 2 (V)
-4.096,-1.074273799854052,-1.75695201756748
-4.0955,-0.8608703027005933,-2.053657892911898
-4.095,-0.2740106855274755,-1.629792356704796
-4.0945,0.142126133921769,-0.8880276683437509
-4.094,0.312848931644536,-0.2734226408445989
-4.0935,0.3235191065023156,0.09745970333696488
-4.093,0.2594980573562781,0.2564092794143318
-4.0925,0.1954770082102404,0.298795833034963
-4.092,0.1421261339217981,0.288199194629892
-4.0915,0.1741366584948169,0.3517790250608387
-4.091,0.3021787567870086,0.5319218779486851
-4.0905,0.291508581929258,0.5107286011382923
-4.09,0.2168173579255475,0.4471487707073456
-4.0895,0.1314559590640864,0.4153588554918433
-4.089,-0.2099896363814476,0.224619364199003
-4.0885,-0.9889124009925911,-0.3158091944647096
-4.088,-1.778505340461106,-1.025783967610927
-4.0875,-2.461396531352174,-1.608599079894606
-4.087,-2.76016142736723,-1.915901593644597
-4.0865,-2.013249187330125,-1.481439419033127
-4.086,-1.15963519871629,-0.6337083466205036
-4.0855,-0.4874141826811284,0.1080563417424504
-4.085,-0.07127736323188383,0.6166949851900245
-4.0845,0.131455959063902,0.8816109453189694
-4.084,0.1954770082101725,0.9875773293708847
-4.0835,0.1848068333524996,0.9875773293708847
-4.083,0.1527963087794516,0.9345941373450475
-4.0825,0.120785784206394,0.8074344764828938
-4.082,0.1101156093487211,0.6484849004055269
-4.0815,0.1314559590640864,0.3941655786815084
-4.081,0.2168173579254699,-0.08268314955059231
-4.0805,0.2061471830678648,-0.7396747306714069
-4.08,0.03542438534494258,-1.42845622700729
-4.0795,-0.4233931335349937,-2.000674700885811
-4.079,-0.7008176798348589,-2.202010830584069
-4.0785,-0.3700422592469978,-1.714565463946811
-4.078,0.003413860771554977,-0.9304142219651339
-4.0775,0.2274875327832786,-0.2628260024385062
-4.077,0.2808384070716433,0.13984625695749
-4.0765,0.2594980573562975,0.3199891098451726
-4.076,0.206147183067826,0.3729723018711543
-4.0755,0.1634664836371343,0.3517790250608387
-4.075,0.1527963087794516,0.3623756634660061
-4.0745,0.2701682322139801,0.5531151547590488
-4.074,0.291508581929326,0.5849050699745222
-4.0735,0.2381577076409128,0.4895353243280153
-4.073,0.1527963087795293,0.4259554938970685
-4.0725,0.04609456020262521,0.4683420475176805
-4.072,-0.4554036581084589,0.92399749893988
-4.0715,-1.212986073003238,0.8392243916986177
-4.071,-1.85319656446537,-0.0932797879570705
-4.0705,-2.386705307349017,-1.05757388282643
-4.07,-2.269333383914614,-1.470842780627584
-4.0695,-1.511750969018371,-1.004590690799918
-4.069,-0.7755089038389382,-0.2628260024388724
-4.0685,-0.2526703358124887,0.3623756634660061
-4.068,0.04609456020273196,0.7968378380780829
-4.0675,0.1634664836371343,1.029963882991555
-4.067,0.1954770082101822,1.135930267043229
-4.0665,0.1741366584947878,1.146526905448338
-4.066,0.142126133921769,1.082947075017392
-4.0655,0.1314559590640864,0.9345941373450475
-4.065,0.1314559590640864,0.701468092431576
-4.0645,0.1848068333524996,0.2140227257936621
-4.064,0.1848068333524996,-0.2946159176543747
-4.0635,-0.04993701351630506,-0.9939940523947892
-4.063,-0.5514352318280298,-1.661582271921455
-4.0625,-1.020922925565639,-2.191414192179345
-4.062,-0.658136980404759,-2.435136875497975
-4.0615,-0.09261771294693859,-1.873515040023513
-4.061,0.2488278824985954,-0.9833974139902578
-4.0605,0.3768699807907871,-0.3052125560595421
-4.06,0.3555296310753636,0.08686306493181672
-4.0595,0.291508581929326,0.2670059178194992
-4.059,0.2168173579255475,0.2987958330350016
-4.0585,0.1634664836371828,0.2670059178195281
-4.058,0.2061471830678648,0.4153588554918433
-4.0575,0.2488278824985954,0.5213252395435176
-4.057,0.2168173579255766,0.4683420475177287
-4.0565,0.1741366584948169,0.3941655786815084
-4.056,0.1207857842064037,0.3623756634660061
-4.0555,-0.263340510669822,0.7014680924310556
-4.055,-1.095614149570048,1.06175379820645
-4.0545,-1.789175515318789,0.3941655786815084
-4.054,-2.034589537045266,-0.5277419625672199
-4.0535,-2.173301810194898,-1.237716735714199
-4.053,-1.661133417026597,-1.152943628472937
-4.0525,-0.9569018764195432,-0.5383386009732256
-4.052,-0.3913826089620331,0.09745970333725401
-4.0515,-0.02859666380115328,0.5743084315693548
-4.051,0.142126133921769,0.8710143069140429
-4.0505,0.1954770082101337,1.019367244586252
-4.05,0.1954770082101822,1.072350436612224
-4.0495,0.1634664836371343,1.051157159801889
-4.049,0.1421261339217884,0.9239974989399957
-4.0485,0.1421261339218078,0.7438546460517447
-4.048,0.1848068333524996,0.4259554938970107
-4.0475,0.3768699807906124,-0.08268314955056344
-4.047,0.9103787236749968,-0.7926579226978897
-4.0465,0.9957401225363802,-1.502632695843462
-4.046,0.1207857842071995,-2.032464616101352
-4.0455,-0.3166913849584487,-1.958288147265093
-4.045,-0.1673089369510276,-1.333086481360783
-4.0445,0.0674349099179905,-0.6231117082145651
-4.044,0.2061471830679037,-0.1250697031714548
-4.0435,0.2488278824985954,0.13984625695749
-4.043,0.2274875327832301,0.2246193641988295
-4.0425,0.1954770082102113,0.2246193641988295
-4.042,0.1634664836371343,0.2140227257936621
-4.0415,0.1848068333524996,0.2776025562246667
-4.041,0.2701682322138831,0.4365521323020336
-4.0405,0.2488278824985566,0.4471487707072878
-4.04,0.2061471830678648,0.383568940276341
-4.0395,0.1527963087795002,0.3517790250608676
-4.039,-0.1993194615247937,0.319989109844816
-4.0385,-0.9889124009925911,-0.252229364033705
-4.038,-1.693143941599005,-1.036380606015382
-4.0375,-2.034589537045635,-1.481439419033156
-4.037,-2.19464215991073,-1.51322933424863
-4.0365,-1.87453691418025,-1.258910012524611
-4.036,-1.180975548430296,-0.5383386009725896
-4.0355,-0.5407650569699201,0.1610395337678249
-4.035,-0.1139580626626144,0.6590815388106942
-4.0345,0.1101156093485173,0.9451907757499547
-4.034,0.1954770082101822,1.061753798207057
-4.0335,0.2061471830678648,1.072350436612224
-4.033,0.184806833352519,1.019367244586435
-4.0325,0.1527963087794419,0.9028042221293622
-4.032,0.142126133921769,0.701468092431364
-4.0315,0.142126133921769,0.5213252395436815
-4.031,0.1634664836372119,0.3305857482500124
-4.0305,0.2488278824985954,-0.2098428104130352
-4.03,0.1954770082102307,-1.00459069079987
-4.0295,-0.5194247072552244,-1.682775548731771
-4.029,-1.255666772434657,-2.191414192179345
-4.0285,-0.9889124009925911,-2.329170491446522
-4.028,-0.3807124341042922,-1.629792356704719
-4.0275,0.04609456020262521,-0.8032545611024114
-4.027,0.2488278824985954,-0.1886495336027004
-4.0265,0.2915085819292872,0.1716361721726647
-4.026,0.2701682322139607,0.3305857482505039
-4.0255,0.2168173579255475,0.3623756634660061
-4.025,0.1954770082102016,0.3623756634660061
-4.0245,0.2915085819293454,0.5743084315694127
-4.024,0.3128489316446912,0.6378882620003594
-4.0235,0.2594980573563266,0.5213252395436236
-4.023,0.1954770082100463,0.3941655786815855
-4.0225,0.04609456020262521,0.4789386859228479
-4.022,-0.3700422592466193,1.051157159801369
-4.0215,-1.116954499285491,1.2524932894993
-4.021,-1.895877263895616,0.4047622170866759
-4.0205,-2.536087755356574,-0.6337083466197325
-4.02,-2.54675793021348,-1.301296566145059
-4.0195,-1.693143941599645,-1.05757388282643
-4.019,-0.8822106524157645,-0.4217755785163839
-4.0185,-0.2953510352437532,0.1928294489827682
-4.018,0.04609456020262521,0.627291623595192
-4.0175,0.1954770082101822,0.8922075837243778
-4.017,0.238157707640874,1.019367244586271
-4.0165,0.2168173579255184,1.061753798207028
-4.016,0.1848068333524996,1.029963882991555
-4.0155,0.1634664836371537,0.8710143069141875
-4.015,0.163466483637144,0.6696781772156786
-4.0145,0.1741366584948169,0.4683420475176805
-4.014,0.1848068333524898,0.06566978812168422
-4.0135,0.4622313796524326,-0.6760949002410962
-4.013,0.6649647019482183,-1.439052865412457
-4.0125,0.2594980573562781,-1.979481424075996
-4.012,0.3021787567871251,-2.074851169721896
-4.0115,0.4302208550792003,-1.407262950196955
-4.011,0.4408910299368829,-0.6337083466197325
-4.0105,0.3661998059331724,-0.08268314955152722
-4.01,0.291508581929326,0.2140227257936621
-4.0095,0.2168173579255475,0.3199891098453364
-4.009,0.1741366584948557,0.3199891098453364
-4.0085,0.1634664836372216,0.2776025562247438
-4.008,0.2594980573562781,0.3623756634660061
-4.0075,0.3235191065023156,0.4259554938969529
-4.007,0.2915085819292678,0.3517790250607712
-4.0065,0.2274875327832301,0.2776025562246667
-4.006,0.1527963087794516,0.2881991946298341
-4.0055,-0.1779791118094478,0.648484900405951
-4.005,-0.9889124009925911,1.114736990232894
-4.0045,-1.767835165603424,0.8180311148882058
-4.004,-2.397375482206904,-0.06148987274147182
-4.0035,-2.621449154218035,-0.9198175835592532
-4.003,-1.87453691418025,-1.01518732920576
-4.0025,-1.042263275281761,-0.4959520473530282
-4.002,-0.391382608962363,0.1080563417419877
-4.0015,0.00341386077189465,0.5955017083796896
-4.001,0.1848068333523346,0.9134008605344236
-4.0005,0.238157707640903,1.093543713422636
-4,0.2274875327832301,1.178316820663898
-3.9995,0.1954770082101822,1.178316820663898
-3.999,0.1741366584948169,1.082947075017392
-3.9985,0.1634664836371343,0.8922075837243778
-3.998,0.1741366584948169,0.6484849004055269
-3.9975,0.3235191065023739,0.2776025562246667
-3.997,0.7503261008096795,-0.4641621321370536
-3.9965,1.049090996824793,-1.248313374119443
-3.996,0.6009436528021226,-1.831128486403653
-3.9955,0.3768699807907871,-1.926498232050159
-3.995,0.4622313796522482,-1.47084278062796
-3.9945,0.4835717293676135,-0.792657922697244
-3.994,0.4195506802215176,-0.2416327256285375
-3.9935,0.3235191065023739,0.08686306493165288
-3.993,0.2488278824985954,0.2246193641988295
-3.9925,0.1848068333524996,0.2564092794143318
-3.992,0.1527963087794516,0.2352160026039969
-3.9915,0.1848068333524996,0.2670059178194992
-3.991,0.2594980573562781,0.4047622170866759
-3.9905,0.2594980573562781,0.4153588554918433
-3.99,0.2168173579255475,0.3517790250608387
-3.9895,0.1634664836371343,0.3305857482505039
-3.989,-0.07127736323188383,0.5955017083796896
-3.9885,-0.6688071552621118,1.125333628638062
-3.988,-1.341028171296118,0.6802748156210291
-3.9875,-1.938557963326346,-0.3370024712750445
-3.987,-2.322684258202921,-1.195330182093607
-3.9865,-1.842526389607202,-1.248313374119443
-3.986,-1.095614149569417,-0.6654982618352349
-3.9855,-0.4660738329661415,-0.008506680714854012
-3.985,-0.04993701351651855,0.5107286011383502
-3.9845,0.1527963087794516,0.8286277532933731
-3.984,0.2274875327832301,0.9981739677760521
-3.9835,0.2274875327832301,1.061753798207057
-3.983,0.2061471830678648,1.061753798207057
-3.9825,0.1741366584948169,0.9451907757502149
-3.982,0.1741366584948169,0.7544512844572011
-3.9815,0.1741366584948169,0.55311515475902
-3.981,0.2168173579255475,0.2987958330350016
-3.9805,0.4302208550792003,-0.2946159176543747
-3.98,0.5796033030867573,-1.089363798041932
-3.9795,0.2061471830678648,-1.767548655972648
-3.979,-0.007256314085787988,-2.21260746898968
-3.9785,0.3021787567870086,-2.159624276963843
-3.978,0.5049120790829789,-1.417859588602123
-3.9775,0.5369226036560266,-0.6549016234300674
-3.977,0.4515612047945656,-0.1144730647665284
-3.9765,0.3448594562177392,0.1928294489833272
-3.976,0.2488278824985954,0.3199891098453364
-3.9755,0.1848068333524996,0.3305857482505039
-3.975,0.1634664836371343,0.309392471440169
-3.9745,0.3021787567870086,0.5849050699745222
-3.974,0.3448594562177392,0.7332580076468663
-3.9735,0.3021787567870086,0.627291623595192
-3.973,0.2274875327832301,0.5107286011383502
-3.9725,0.09944543449103843,0.5319218779486851
-3.972,-0.423393133535411,1.051157159801889
-3.9715,-1.298347471865388,1.496215972818921
-3.971,-2.098610586191586,0.8604176685088755
-3.9705,-2.674800028506448,-0.1144730647665284
-3.97,-2.525417580498891,-0.8986243067489184
-3.9695,-1.618452717595867,-0.8138511995075789
-3.969,-0.8181896032696687,-0.3052125560595421
-3.9685,-0.2313299860971235,0.2352160026039969
-3.968,0.08877525963335578,0.6378882620003594
-3.9675,0.2274875327832301,0.8922075837243778
-3.967,0.2488278824985954,1.029963882991555
-3.9665,0.2274875327832301,1.082947075017392
-3.966,0.1954770082101822,1.051157159801889
-3.9655,0.1741366584948169,0.9028042221295453
-3.965,0.1634664836371343,0.701468092431364
-3.9645,0.1954770082101822,0.383568940276341
-3.964,0.3448594562177392,-0.1886495336027004
-3.9635,0.8783681991018712,-0.8774310299385835
-3.963,1.507908515705147,-1.51322933424863
-3.9625,1.454557641416734,-1.979481424075996
-3.962,1.337185717982225,-1.979481424075996
-3.9615,1.102441871113207,-1.460246142222792
-3.961,0.79300680024041,-0.8138511995075789
-3.9605,0.5369226036560266,-0.2840192792492073
-3.96,0.3448594562177392,0.06566978812131802
-3.9595,0.2274875327832301,0.2352160026039969
-3.959,0.1634664836371343,0.2881991946298341
-3.9585,0.142126133921769,0.2776025562246667
-3.958,0.2488278824985954,0.4259554938970107
-3.9575,0.3448594562177392,0.5319218779486851
-3.957,0.3128489316446912,0.4789386859228479
-3.9565,0.2594980573562781,0.383568940276341
-3.956,0.142126133921769,0.383568940276341
-3.9555,-0.2846808603855366,0.7862411996727035
-3.955,-0.9675720512772257,0.9875773293708847
-3.9545,-1.586442193022819,0.1928294489833272
-3.954,-2.055929886760855,-0.6549016234300674
-3.9535,-2.290673733629873,-1.258910012524611
-3.953,-1.714484291315011,-1.089363798041932
-3.9525,-0.9782422261349084,-0.4641621321370536
-3.952,-0.3700422592469978,0.1716361721729923
-3.9515,0.00341386077189465,0.6378882620003594
-3.951,0.1741366584948169,0.9028042221295453
-3.9505,0.2381577076409128,1.040560521396722
-3.95,0.2274875327832301,1.072350436612224
-3.9495,0.2061471830678648,1.040560521396722
-3.949,0.1741366584948169,0.9134008605347127
-3.9485,0.1741366584948169,0.7120647308365314
-3.948,0.2274875327832301,0.383568940276341
-3.9475,0.3982103305061524,0.02328323450064829
-3.947,1.059761171682476,-0.5383386009732256
-3.9465,1.294505018551494,-1.068170521231597
-3.946,0.4408910299368829,-1.608599079895136
-3.9455,-0.07127736323188383,-1.746355379162313
-3.945,0.01408403562957729,-1.280103289334946
-3.9445,0.1848068333524996,-0.6549016234300674
-3.944,0.2594980573562781,-0.1780528951975329
-3.9435,0.2701682322139607,0.1080563417419877
-3.943,0.2381577076409128,0.2352160026039969
-3.9425,0.2061471830678648,0.2564092794143318
-3.942,0.1848068333524996,0.2458126410091644
-3.9415,0.2061471830678648,0.3305857482505039
-3.941,0.3128489316446912,0.5743084315693548
-3.9405,0.3021787567870086,0.5955017083796896
-3.94,0.2488278824985954,0.5107286011383502
-3.9395,0.1741366584948169,0.457745409112513
-3.939,-0.08194753808956648,0.2987958330350016
-3.9385,-0.807519428411986,-0.400582301706049
-3.938,-1.586442193022819,-1.205926820498774
-3.9375,-2.119950935906951,-1.809935209593318
-3.937,-2.408045657064382,-2.106641084938006
-3.9365,-1.842526389607202,-1.576809164679634
-3.936,-1.074273799854052,-0.6549016234300674
-3.9355,-0.4340633083930936,0.13984625695749
-3.935,-0.02859666380115328,0.6696781772158616
-3.9345,0.1741366584948169,0.9451907757502149
-3.934,0.2381577076409128,1.051157159801889
-3.9335,0.2381577076409128,1.051157159801889
-3.933,0.2061471830678648,0.9769806909657173
-3.9325,0.1848068333524996,0.8392243916985406
-3.932,0.1741366584948169,0.5955017083796896
-3.9315,0.2061471830678648,0.2458126410091644
-3.931,0.2274875327832301,0.002089957690313421
-3.9305,0.2701682322139607,-0.1568596183871981
-3.93,0.5582629533713921,-0.4959520473525559
-3.9295,0.3661998059331045,-1.110557074852267
-3.929,-0.02859666380115328,-1.42845622700729
-3.9285,0.08877525963335578,-1.301296566145281
-3.928,0.291508581929326,-0.7714646458869092
-3.9275,0.3768699807907871,-0.252229364033705
-3.927,0.3768699807907871,0.06566978812131802
-3.9265,0.3235191065023739,0.2140227257936621
-3.926,0.2594980573562781,0.2564092794143318
-3.9255,0.2061471830678648,0.2670059178194992
-3.925,0.1954770082101822,0.2881991946298341
-3.9245,0.2808384070716433,0.4789386859228479
-3.924,0.291508581929326,0.5213252395435176
-3.9235,0.2488278824985954,0.457745409112513
-3.923,0.1954770082101822,0.4047622170866759
-3.9225,0.09944543449103843,0.4365521323021782
-3.922,-0.4127229586777283,0.849821030103708
-3.9215,-1.255666772434657,0.9345941373450475
-3.921,-1.810515865034154,0.2776025562246667
-3.9205,-2.098610586191586,-0.5489352393783931
-3.92,-2.002579012472442,-1.0999604364471
-3.9195,-1.351698346153801,-0.8350444763179138
-3.919,-0.6794773301197943,-0.2310360872233701
-3.9185,-0.1886492866663929,0.3305857482505039
-3.918,0.08877525963335578,0.7332580076468663
-3.9175,0.2168173579255475,0.9769806909657173
-3.917,0.2381577076409128,1.093543713422559
-3.9165,0.2274875327832301,1.135930267043229
-3.916,0.1954770082101822,1.104140351827727
-3.9155,0.1741366584948169,0.9557874141553824
-3.915,0.1848068333524996,0.701468092431364
-3.9145,0.2061471830678648,0.4153588554918433
-3.914,0.3341892813600565,0.09745970333682032
-3.9135,0.9317190733902845,0.03387987290581572
-3.913,1.145122570543937,-0.4111789401112165
-3.9125,0.5262524287983441,-1.025783967610927
-3.912,0.4195506802215176,-1.290699927740113
-3.9115,0.4729015545099309,-1.068170521231597
-3.911,0.4835717293676135,-0.570128516188728
-3.9105,0.4195506802215176,-0.1356663415768632
-3.91,0.3341892813600565,0.1080563417419877
-3.9095,0.2594980573562781,0.2140227257936621
-3.909,0.2061471830678648,0.2458126410091644
-3.9085,0.1741366584948169,0.2564092794143318
-3.908,0.1527963087794516,0.4153588554918433
-3.9075,0.1314559590640864,0.5743084315693548
-3.907,0.1207857842064037,0.5425185163538525
-3.9065,0.1207857842064037,0.4683420475176805
-3.906,0.1101156093487211,0.4471487707073456
-3.9055,-0.1139580626626144,0.8180311148882058
-3.905,-0.6794773301197943,1.316073119931075
-3.9045,-1.362368521011484,0.775644561267536
-3.904,-1.906547438753298,-0.2946159176543747
-3.9035,-2.07727023647622,-1.078767159636765
-3.903,-1.522421143876723,-0.9728007755850904
-3.9025,-0.8288597781273515,-0.400582301706049
-3.902,-0.2846808603855366,0.1928294489833272
-3.9015,0.04609456020262521,0.627291623595192
-3.901,0.1954770082101822,0.9028042221295453
-3.9005,0.2381577076409128,1.040560521396722
-3.9,0.2274875327832301,1.093543713422559
-3.8995,0.2061471830678648,1.082947075017392
-3.899,0.1848068333524996,0.9663840525605498
-3.8985,0.1741366584948169,0.8180311148882058
-3.898,0.1848068333524996,0.6378882620003594
-3.8975,0.2701682322139607,0.4365521323021782
-3.897,0.8356874996711408,0.5955017083796896
-3.8965,1.529248865420512,0.3199891098453364
-3.896,1.689301488285752,-0.4641621321370536
-3.8955,1.443887466559051,-1.110557074852267
-3.895,1.19847344483235,-1.078767159636765
-3.8945,0.9103787236749192,-0.6549016234300674
-3.894,0.6222840025174878,-0.2628260024388724
-3.8935,0.3982103305061524,-0.008506680714854012
-3.893,0.2594980573562781,0.1292496185523226
-3.8925,0.1848068333524996,0.2034260873884947
-3.892,0.142126133921769,0.2246193641988295
-3.8915,0.1741366584948169,0.3199891098453364
-3.891,0.291508581929326,0.55311515475902
-3.8905,0.3021787567870086,0.5849050699745222
-3.89,0.2488278824985954,0.5319218779486851
-3.8895,0.1741366584948169,0.5001319627331828
-3.889,0.00341386077189465,0.627291623595192
-3.8885,-0.5834457564006506,1.114736990232894
-3.888,-1.234326422719292,0.9134008605347127
-3.8875,-1.661133417026597,-0.06148987274069118
-3.887,-2.055929886760855,-1.036380606016095
-3.8865,-1.949228138184029,-1.417859588602123
-3.886,-1.298347471865388,-0.9516074987747555
-3.8855,-0.6367966306890638,-0.2416327256285375
-3.885,-0.1673089369510276,0.3729723018711736
