Class_11_Cell_phone_Call/Class_11_Cell_phone_Call_Turki_6.csv

#Digilent WaveForms Oscilloscope Acquisition
#Device Name: EExplorer
#Serial Number: SN:210151A2B84A
#Date Time: 2020-12-16 09:47:23.804
#Sample rate: 2000Hz
#Samples: 16384
#Trigger: Source: Channel 1 Type: Edge Condition: Rising Level: 0 V Hyst.: Auto HoldOff: 0 s
#Channel 1: Range: 1 V/div Offset: 0 V Attenuation: 1 X
#Channel 2: Range: 1 V/div Offset: 0 V Attenuation: 1 X
#Power Supplies: ON
#Fixed Supply: ON
#Voltage: 3.3 V Readback: 3.328 V
#Positive Supply: ON
#Voltage: 3.7 V Readback: 3.718 V
#Current: 40 mA Readback: 22 mA
#Negative Supply: ON
#Voltage: -3.7 V Readback: -3.354 V
#Current: -40 mA Readback: -7 mA
#Reference 1: ON
#Voltage: 0 V
#Reference 2: ON
#Voltage: 0 V

Time (s),Channel 1 (V),Channel 2 (V)
-4.096,-0.754168554123573,0.1716361721729923
-4.0955,-0.4554036581087306,0.6590815388102509
-4.095,-0.2740106855277861,0.9769806909658715
-4.0945,-0.1993194615240755,1.146526905448396
-4.094,-0.2099896363817484,1.188913459069027
-4.0935,-0.252670335812576,1.146526905448184
-4.093,-0.3487019095316325,0.9134008605347127
-4.0925,-0.6474668055464747,0.478938685923243
-4.092,-0.722158029549739,0.3941655786818939
-4.0915,0.142126133921769,0.8180311148882058
-4.091,1.187803269974668,1.326669758336243
-4.0905,1.486568165989229,1.263089927904563
-4.09,0.8783681991018712,0.5213252395435176
-4.0895,0.2701682322139607,-0.2734226408440398
-4.089,-0.08194753808924621,-0.9092209451535076
-4.0885,-0.2099896363817582,-1.301296566145281
-4.088,-0.2099896363817582,-1.449649503817625
-4.0875,-0.1673089369510664,-1.460246142222783
-4.087,-0.1032878878047571,-1.407262950196878
-4.0865,0.08877525963335578,-1.322489842955616
-4.086,0.1314559590640476,-1.152943628473091
-4.0855,0.04609456020251847,-0.9198175835590315
-4.085,-0.07127736323188383,-0.6760949002404023
-4.0845,-0.1459685872355944,-0.4005823017062996
-4.084,-0.09261771294669598,-0.05089323433492621
-4.0835,0.5155822539406614,0.6060983467848571
-4.083,1.369196242555273,1.305476481525908
-4.0825,1.998736559158092,1.771728571352812
-4.082,1.497238340847464,1.263089927905238
-4.0815,0.0674349099179905,0.07626642652648545
-4.081,-1.2770071221488,-0.9516074987738208
-4.0805,-1.778505340461106,-1.195330182093607
-4.08,-1.51175096901904,-0.6549016234300674
-4.0795,-1.031593100423758,0.07626642652582039
-4.079,-0.6261264558311387,0.6908714540265917
-4.0785,-0.3593720843893152,1.125333628638062
-4.078,-0.2313299860972399,1.358459673551533
-4.0775,-0.1993194615241047,1.453829419198223
-4.077,-0.2313299860971235,1.42203950398275
-4.0765,-0.306021210100834,1.241896651095067
-4.076,-0.5194247072548653,0.8286277532933056
-4.0755,-0.8608703027003992,0.7544512844572011
-4.075,-0.2313299860971235,1.125333628638062
-4.0745,0.8356874996718007,1.549199164844807
-4.074,1.56125938999356,1.602182356870596
-4.0735,1.251824319120764,0.8604176685088755
-4.073,0.6436243522334062,-0.01910331911922158
-4.0725,0.1954770082101822,-0.7078848154559045
-4.072,-0.04993701351651855,-1.152943628472937
-4.0715,-0.1566387620932479,-1.364876396576093
-4.071,-0.1779791118086908,-1.470842780627979
-4.0705,-0.156638762093345,-1.492036057438295
-4.07,-0.01792648894359677,-1.502632695843453
-4.0695,0.1101156093486726,-1.396666311791537
-4.069,0.05676473506030786,-1.121153713257435
-4.0685,-0.03926683865883591,-0.7714646458869092
-4.068,-0.1246282375203261,-0.4323722169212236
-4.0675,-0.156638762093345,-0.07208651114585861
-4.067,0.2594980573562781,0.5213252395435176
-4.0665,1.070431346540848,1.22070337428505
-4.066,1.828013761435626,1.75053529454294
-4.0655,1.785333062004896,1.6657621873016
-4.065,0.5902734779455268,0.8392243916992923
-4.0645,-0.8288597781273515,-0.2946159176543747
-4.064,-1.778505340461106,-1.121153713257435
-4.0635,-1.767835165603434,-1.057573882826488
-4.063,-1.309017646722634,-0.4641621321364464
-4.0625,-0.8288597781273515,0.2034260873884947
-4.062,-0.4767440078241445,0.7332580076463845
-4.0615,-0.2740106855277861,1.072350436612398
-4.061,-0.1993194615240755,1.263089927905238
-4.0605,-0.2099896363817582,1.326669758336243
-4.06,-0.2633405106702879,1.263089927904958
-4.0595,-0.391382608962363,0.9557874141553824
-4.059,-0.807519428411986,0.6802748156210291
-4.0585,-0.7328282044082755,0.945190775749974
-4.058,0.2274875327832301,1.390249588767247
-4.0575,1.230483969405398,1.697552102517103
-4.057,1.166462920259361,1.167720182259213
-4.0565,0.4515612047945656,0.2987958330350016
-4.056,-0.04993701351651855,-0.4323722169215513
-4.0555,-0.2313299860969585,-0.9516074987742833
-4.055,-0.2526703358124499,-1.248313374119578
-4.0545,-0.2099896363817582,-1.396666311791788
-4.054,-0.1459685872357206,-1.502632695843366
-4.0535,-0.06060718837404592,-1.55561588786928
-4.053,0.1101156093487211,-1.534422611058964
-4.0525,0.09944543449103843,-1.301296566145281
-4.052,0.003413860771797605,-0.9833974139899591
-4.0515,-0.1032878878049318,-0.6549016234300674
-4.051,-0.1673089369510276,-0.3370024712750445
-4.0505,0.0354243853447582,0.1186529801467408
-4.05,0.79300680024041,0.849821030103708
-4.0495,1.614610264281974,1.496215972818921
-4.049,1.998736559158199,1.739938656137551
-4.0485,1.07043134653881,0.9134008605335947
-4.048,-0.4127229586777283,-0.3158091944647096
-4.0475,-1.597112367879424,-1.216523458903122
-4.047,-1.799845690176122,-1.216523458903373
-4.0465,-1.415719395299897,-0.5913217929990628
-4.046,-0.9248913518469416,0.1292496185516673
-4.0455,-0.5407650569697162,0.7120647308368687
-4.045,-0.3166913849585846,1.082947075017392
-4.0445,-0.2099896363817582,1.29487984312074
-4.044,-0.1993194615241241,1.34786303514652
-4.0435,-0.2526703358124887,1.284283204715573
-4.043,-0.3380317346739499,1.061753798207057
-4.0425,-0.7008176798348298,0.6166949851904293
-4.042,-0.9035510021311299,0.7438546460520338
-4.0415,-0.07127736323188383,1.188913459069066
-4.041,1.027750647108428,1.612778995275378
-4.0405,1.454557641416026,1.422039503981824
-4.04,0.6756348768059011,0.4047622170866759
-4.0395,-0.1139580626618963,-0.4323722169207899
-4.039,-0.4554036581084783,-0.9516074987750061
-4.0385,-0.4767440078238243,-1.227120097309109
-4.038,-0.3593720843894219,-1.322489842955529
-4.0375,-0.2206598112393341,-1.386069673386678
-4.037,-0.1032878878049318,-1.449649503817625
-4.0365,0.1207857842064037,-1.534422611058964
-4.036,0.1848068333524122,-1.396666311791518
-4.0355,0.08877525963335578,-1.0999604364471
-4.035,-0.03926683865883591,-0.7608680074817418
-4.0345,-0.1352984123778923,-0.4217755785166923
-4.034,-0.09261771294724913,-0.05089323433552374
-4.0335,0.4835717293676135,0.6060983467848571
-4.033,1.326515543123775,1.294879843120114
-4.0325,1.977396209442805,1.761131932947732
-4.032,1.56125938999356,1.347863035146577
-4.0315,0.1634664836384054,0.1716361721740622
-4.031,-1.223656247862191,-0.9198175835596387
-4.0305,-1.863866739322568,-1.34368311976595
-4.03,-1.629122892453763,-0.8880276683441652
-4.0295,-1.13829484899974,-0.167456256791768
-4.029,-0.690147504977477,0.4895353243280153
-4.0285,-0.391382608962363,0.9451907757502149
-4.028,-0.2313299860970846,1.210106735879507
-4.0275,-0.1886492866663929,1.326669758336243
-4.027,-0.2206598112394408,1.326669758336243
-4.0265,-0.2846808603854784,1.210106735879507
-4.026,-0.423393133535411,0.8710143069140429
-4.0255,-0.8502001278427167,0.6590815388106942
-4.025,-0.4980843575395097,0.9663840525602703
-4.0245,0.5475927785144178,1.411442865577717
-4.024,1.326515543124542,1.559795803249926
-4.0235,1.017080472252027,0.9134008605353006
-4.023,0.366199805932726,0.05507314971550487
-4.0225,-0.04993701351651855,-0.6549016234300674
-4.022,-0.2099896363816126,-1.142346990067326
-4.0215,-0.1886492866663347,-1.417859588602219
-4.021,-0.124628237520297,-1.523825972653797
-4.0205,-0.07127736323188383,-1.502632695843462
-4.02,0.04609456020271255,-1.449649503817548
-4.0195,0.142126133921769,-1.364876396576285
-4.019,0.0674349099179905,-1.184733543688439
-4.0185,-0.03926683865873887,-0.9410108603698097
-4.018,-0.1352984123779797,-0.6443049850249
-4.0175,-0.1459685872356623,-0.3052125560595421
-4.017,0.3235191065019469,0.3517790250602412
-4.0165,1.145122570544607,1.104140351828257
-4.016,1.881364635724039,1.686955464111935
-4.0155,1.902704985439385,1.676358825706777
-4.015,0.6649647019469179,0.6272916235941318
-4.0145,-0.7648387289812555,-0.5383386009732256
-4.014,-1.394379045583959,-1.036380606015642
-4.0135,-1.298347471865067,-0.6654982618346277
-4.013,-0.9462317015618604,0.002089957690313421
-4.0125,-0.6047861061160158,0.6484849004055269
-4.012,-0.3700422592468813,1.125333628638331
-4.0115,-0.2420001609548061,1.42203950398275
-4.011,-0.1993194615240755,1.570392441655093
-4.0105,-0.2206598112394214,1.580989080060251
-4.01,-0.274010685527854,1.496215972818921
-4.0095,-0.3807124341046804,1.199510097474233
-4.009,-0.7755089038385792,0.8604176685091839
-4.0085,-0.5941159312574308,1.051157159802236
-4.008,0.3982103305061524,1.432636142387917
-4.0075,1.379866417412063,1.686955464111704
-4.007,1.379866417412305,1.188913459068256
-4.0065,0.6649647019482183,0.2987958330350016
-4.006,0.0674349099179905,-0.5277419625680583
-4.0055,-0.1993194615241435,-1.131750351662891
-4.005,-0.274010685527854,-1.449649503817625
-4.0045,-0.2526703358124887,-1.566212526274467
-4.004,-0.1886492866662959,-1.555615887869309
-4.0035,-0.08194753808956648,-1.566212526274467
-4.003,0.2061471830678648,-1.598002441489969
-4.0025,0.2274875327832107,-1.354279758171339
-4.002,0.09944543449103843,-0.9833974139902578
-4.0015,-0.03926683865883591,-0.6125150698093976
-4.001,-0.1352984123778923,-0.2628260024391904
-4.0005,0.05676473506094835,0.2458126410098101
-4,0.7609962756673623,0.9557874141553824
-3.9995,1.571929564851243,1.570392441655093
-3.999,1.998736559158548,1.824711763379112
-3.9985,1.15579274540162,1.072350436612224
-3.998,-0.3060212101009019,-0.1886495336027004
-3.9975,-1.554431668449771,-1.205926820498774
-3.997,-1.906547438753298,-1.38606967338662
-3.9965,-1.533091318734406,-0.8244478379127463
-3.996,-1.020922925565639,-0.1038764263613609
-3.9955,-0.5941159312583333,0.4895353243280153
-3.995,-0.3380317346739499,0.8922075837243778
-3.9945,-0.2099896363817582,1.125333628638062
-3.994,-0.1993194615240755,1.199510097474233
-3.9935,-0.2420001609548061,1.167720182258731
-3.993,-0.3273615598162672,0.9769806909657173
-3.9925,-0.6474668055467465,0.5213252395435176
-3.992,-0.839529952985034,0.5107286011383502
-3.9915,-0.02859666380115328,0.9451907757502149
-3.991,1.049090996824793,1.411442865577582
-3.9905,1.507908515705147,1.369056311956912
-3.99,0.9530594231056497,0.6166949851900245
-3.9895,0.3768699807907871,-0.1886495336027004
-3.989,0.03542438534494258,-0.7714646458869092
-3.9885,-0.124628237520297,-1.142346990067769
-3.988,-0.156638762093345,-1.354279758171118
-3.9875,-0.1352984123779797,-1.460246142222792
-3.987,-0.08194753808956648,-1.502632695843462
-3.9865,0.09944543449103843,-1.598002441489969
-3.986,0.1527963087794516,-1.439052865412457
-3.9855,0.05676473506030786,-1.0999604364471
-3.985,-0.04993701351651855,-0.7290780922662394
-3.9845,-0.1459685872356623,-0.3581957480853793
-3.984,-0.07127736323188383,0.08686306493165288
-3.9835,0.5689331282290746,0.8074344764830383
-3.983,1.411876941986003,1.453829419198252
-3.9825,2.041417258589279,1.856501678594614
-3.982,1.614610264281974,1.42203950398275
-3.9815,0.1954770082101822,0.2140227257936621
-3.981,-1.180975548430879,-0.8986243067489184
-3.9805,-1.735824641030376,-1.227120097309109
-3.98,-1.501080794161358,-0.7502713690765743
-3.9795,-1.042263275281004,-0.05089323433552374
-3.979,-0.6367966306890638,0.5637117931641874
-3.9785,-0.3700422592469978,0.9981739677760521
-3.978,-0.2313299860971235,1.25249328950007
-3.9775,-0.1993194615240755,1.369056311956912
-3.977,-0.2313299860971235,1.347863035146577
-3.9765,-0.2953510352432193,1.210106735879401
-3.976,-0.4767440078238243,0.8180311148882058
-3.9755,-0.8928808272734472,0.6696781772158616
-3.975,-0.4980843575391895,0.9769806909657173
-3.9745,0.5475927785137094,1.400846227172415
-3.974,1.390536592270638,1.570392441655093
-3.9735,1.102441871113207,0.92399749893988
-3.973,0.4302208550792003,0.04447651131098315
-3.9725,0.02475421048725994,-0.6654982618352349
-3.972,-0.156638762093345,-1.121153713257435
-3.9715,-0.2099896363817582,-1.375473034981453
-3.971,-0.2099896363817582,-1.481439419033127
-3.9705,-0.156638762093345,-1.51322933424863
-3.97,-0.01792648894347063,-1.407262950196955
-3.9695,0.08877525963335578,-1.184733543688439
-3.969,0.04609456020262521,-0.9939940523954253
-3.9685,-0.04993701351651855,-0.8032545611024114
-3.968,-0.1352984123779797,-0.570128516188728
-3.9675,-0.1673089369510276,-0.3052125560595421
-3.967,0.1848068333524996,0.1822328105781598
-3.9665,0.9850699476786977,0.9028042221295453
-3.966,1.76399271228953,1.528005888034424
-3.9655,1.870694460866357,1.580989080060261
-3.965,0.6969752265212663,0.5743084315693548
-3.9645,-0.7328282044082075,-0.5807251545938954
-3.964,-1.415719395299897,-1.110557074852267
-3.9635,-1.330357996438436,-0.7714646458869092
-3.963,-0.9889124009925911,-0.1038764263613609
-3.9625,-0.6367966306890638,0.5213252395435176
-3.962,-0.3807124341046804,0.9875773293708847
-3.9615,-0.2526703358124887,1.273686566310405
-3.961,-0.1993194615240755,1.42203950398275
-3.9605,-0.2313299860971235,1.432636142387917
-3.96,-0.2846808603855366,1.326669758336243
-3.9595,-0.391382608962363,1.00877060618122
-3.959,-0.754168554123573,0.6802748156210291
-3.9585,-0.5941159312583333,0.92399749893988
-3.958,0.3875401556484697,1.347863035146577
-3.9575,1.379866417412955,1.6657621873016
-3.957,1.422547116843686,1.210106735879401
-3.9565,0.707645401378949,0.2987958330350016
-3.956,0.1207857842064037,-0.4959520473525559
-3.9555,-0.1673089369510276,-1.036380606016095
-3.955,-0.2633405106701714,-1.34368311976595
-3.9545,-0.2526703358124887,-1.523825972653797
-3.954,-0.1886492866663929,-1.566212526274467
-3.9535,-0.08194753808956648,-1.555615887869299
-3.953,0.1848068333524996,-1.576809164679634
-3.9525,0.2168173579255475,-1.322489842955616
-3.952,0.09944543449103843,-0.9516074987747555
-3.9515,-0.03926683865883591,-0.5807251545938954
-3.951,-0.1352984123779797,-0.2416327256285375
-3.9505,-0.007256314085787988,0.1504428953626575
-3.95,0.6756348768059011,0.8074344764830383
-3.9495,1.497238340847464,1.432636142387917
-3.949,1.988066384300866,1.739938656137773
-3.9485,1.187803269974668,1.00877060618122
-3.948,-0.274010685527854,-0.2310360872233701
-3.9475,-1.543761493592088,-1.227120097309109
-3.947,-1.906547438753298,-1.407262950196955
-3.9465,-1.533091318734406,-0.8456411147230812
-3.946,-1.020922925565639,-0.1462629799820306
-3.9455,-0.6047861061160158,0.4471487707073456
-3.945,-0.3380317346739499,0.8392243916985406
-3.9445,-0.2099896363817582,1.051157159801889
-3.944,-0.1993194615240755,1.125333628638062
-3.9435,-0.2420001609548061,1.093543713422559
-3.943,-0.3273615598162672,0.8922075837243778
-3.9425,-0.5941159312583333,0.4789386859228479
-3.942,-0.839529952985034,0.5107286011383502
-3.9415,-0.1032878878049318,0.9451907757502149
-3.941,0.974399772821015,1.42203950398275
-3.9405,1.443887466559051,1.369056311956912
-3.94,0.7396559259519968,0.55311515475902
-3.9395,-0.01792648894347063,-0.2628260024388724
-3.939,-0.3700422592469978,-0.8350444763179138
-3.9385,-0.4020527838200457,-1.184733543688439
-3.938,-0.3166913849585846,-1.34368311976595
-3.9375,-0.1993194615240755,-1.38606967338662
-3.937,-0.1139580626626144,-1.375473034981453
-3.9365,0.02475421048725994,-1.417859588602123
-3.936,0.0674349099179905,-1.333086481360783
-3.9355,0.00341386077189465,-1.110557074852267
-3.935,-0.09261771294724913,-0.8350444763179138
-3.9345,-0.156638762093345,-0.5277419625680583
-3.934,-0.1139580626626144,-0.1674562567923655
-3.9335,0.4195506802215176,0.4683420475176805
-3.933,1.251824319120764,1.178316820663898
-3.9325,1.934715510012453,1.697552102517103
-3.932,1.625280439139656,1.390249588767247
-3.9315,0.2594980573562781,0.2352160026039969
-3.931,-0.9995825758502737,-0.8032545611024114
-3.9305,-1.351698346153801,-0.9728007755850904
-3.93,-1.159635198715513,-0.4853554089473885
-3.9295,-0.807519428411986,0.13984625695749
-3.929,-0.5194247072545548,0.6802748156210291
-3.9285,-0.3273615598162672,1.051157159801889
-3.928,-0.2206598112394408,1.273686566310405
-3.9275,-0.1993194615240755,1.358459673551745
-3.927,-0.2420001609548061,1.33726639674141
-3.9265,-0.2953510352432193,1.210106735879401
-3.926,-0.4447334832507763,0.8392243916985406
-3.9255,-0.839529952985034,0.701468092431364
-3.925,-0.423393133535411,1.040560521396722
-3.9245,0.6222840025174878,1.464426057603419
-3.924,1.486568165989782,1.644568910491266
-3.9235,1.209143619690033,1.029963882991555
-3.923,0.4408910299368829,0.1928294489833272
-3.9225,-0.04993701351651855,-0.5383386009732256
-3.922,-0.2420001609548061,-1.05757388282643
-3.9215,-0.2526703358124887,-1.375473034981453
-3.921,-0.1993194615240755,-1.492036057438295
-3.9205,-0.1459685872356623,-1.481439419033127
-3.92,-0.03926683865883591,-1.322489842955616
-3.9195,0.07810508477567314,-1.078767159636765
-3.919,0.03542438534494258,-0.9092209451540858
-3.9185,-0.04993701351651855,-0.7502713690765743
-3.918,-0.1352984123779797,-0.5595318777835605
-3.9175,-0.1673089369510276,-0.3158091944647096
-3.917,0.142126133921769,0.1716361721729923
-3.9165,0.9317190733902845,0.8922075837243778
-3.916,1.731982187716482,1.506812611224089
-3.9155,1.913375160297087,1.602182356870596
-3.915,0.7716664505250448,0.627291623595192
-3.9145,-0.7008176798351597,-0.5489352393783931
-3.914,-1.778505340461106,-1.311893204550448
-3.9135,-1.853196564464885,-1.184733543688439
-3.913,-1.394379045584531,-0.4959520473525559
-3.9125,-0.8822106524157645,0.2458126410091644
-3.912,-0.5087545323968721,0.8286277532933731
-3.9115,-0.2846808603855366,1.199510097474233
-3.911,-0.1993194615240755,1.390249588767247
-3.9105,-0.1993194615240755,1.432636142387917
-3.91,-0.2420001609548061,1.358459673551745
-3.9095,-0.3273615598162672,1.114736990232894
-3.909,-0.6794773301197943,0.5107286011383502
-3.9085,-0.7648387289812555,-0.09327978795619347
-3.908,0.1101156093487211,-0.1886495336027004
-3.9075,1.145122570543937,0.2458126410091644
-3.907,1.337185717982225,0.4365521323021782
-3.9065,0.7503261008096795,0.1504428953626575
-3.906,0.2488278824985954,-0.3052125560595421
-3.9055,-0.02859666380115328,-0.7608680074817418
-3.905,-0.124628237520297,-1.163540266878104
-3.9045,-0.1459685872356623,-1.42845622700729
-3.904,-0.124628237520297,-1.576809164679634
-3.9035,-0.07127736323188383,-1.619195718300304
-3.903,0.07810508477567314,-1.375473034981453
-3.9025,0.07810508477567314,-1.269506650929778
-3.902,-0.007256314085787988,-1.227120097309109
-3.9015,-0.09261771294724913,-1.152943628472937
-3.901,-0.1673089369510276,-1.01518732920576
-3.9005,-0.01792648894347063,-0.6443049850249
-3.9,0.6969752265212663,0.2034260873884947
-3.8995,1.51857869056283,1.061753798207057
-3.899,2.052087433446962,1.6657621873016
-3.8985,1.411876941986003,1.443232780793084
-3.898,-0.02859666380115328,0.3411823866556712
-3.8975,-1.287677297007705,-0.718481453861072
-3.897,-1.607782542738184,-0.9304142219644207
-3.8965,-1.319687821580753,-0.4429688553267188
-3.896,-0.8928808272734472,0.2246193641988295
-3.8955,-0.5407650569699201,0.8180311148882058
-3.895,-0.3273615598162672,1.231300012689736
-3.8945,-0.2206598112394408,1.496215972818921
-3.894,-0.1993194615240755,1.602182356870596
-3.8935,-0.2526703358124887,1.580989080060261
-3.893,-0.3380317346739499,1.390249588767247
-3.8925,-0.6154562809736985,0.9134008605347127
-3.892,-0.8502001278427167,0.8604176685088755
-3.8915,-0.1032878878049318,1.199510097474233
-3.891,0.9850699476786977,1.559795803249926
-3.8905,1.51857869056283,1.453829419198252
-3.89,0.9210488985326017,0.627291623595192
-3.8895,0.2168173579255475,-0.1780528951975329
-3.889,-0.1779791118087102,-0.7820612842920766
-3.8885,-0.2953510352432193,-1.184733543688439
-3.888,-0.274010685527854,-1.439052865412457
-3.8875,-0.2099896363817582,-1.576809164679634
-3.887,-0.1459685872356623,-1.587405803084801
-3.8865,-0.007256314085787988,-1.587405803084801
-3.886,0.05676473506030786,-1.481439419033127
