Class_11_Cell_phone_Call/Class_11_Cell_phone_Call_Turki_14.csv

#Digilent WaveForms Oscilloscope Acquisition
#Device Name: EExplorer
#Serial Number: SN:210151A2B84A
#Date Time: 2021-02-10 11:40:54.314
#Sample rate: 2000Hz
#Samples: 16384
#Trigger: Source: Channel 1 Type: Edge Condition: Rising Level: 0 V Hyst.: Auto HoldOff: 0 s
#Channel 1: Range: 1 V/div Offset: 0 V Attenuation: 1 X
#Channel 2: Range: 1 V/div Offset: 0 V Attenuation: 1 X
#Power Supplies: ON
#Fixed Supply: ON
#Voltage: 3.3 V Readback: 3.317 V
#Positive Supply: ON
#Voltage: 3.7 V Readback: 3.717 V
#Current: 40 mA Readback: 17 mA
#Negative Supply: ON
#Voltage: -3.7 V Readback: -3.697 V
#Current: -40 mA Readback: -4 mA
#Reference 1: ON
#Voltage: 0 V
#Reference 2: ON
#Voltage: 0 V

Time (s),Channel 1 (V),Channel 2 (V)
-4.096,-1.46907026958831,-1.894708316834657
-4.0955,-1.981238662756611,-2.159624276963602
-4.095,-2.034589537044888,-2.053657892911417
-4.0945,-1.373038695869166,-1.227120097309109
-4.094,-0.6367966306897334,-0.3793890248964852
-4.0935,-0.08194753808926564,0.235216002604315
-4.093,0.2488278824985954,0.5849050699745222
-4.0925,0.3982103305060165,0.7332580076467314
-4.092,0.4408910299368539,0.7544512844571818
-4.0915,0.408880505363835,0.7332580076468663
-4.091,0.3661998059331045,0.6802748156210291
-4.0905,0.3448594562177197,0.6060983467848089
-4.09,0.3235191065023739,0.55311515475902
-4.0895,0.1741366584948169,0.6484849004055269
-4.089,-0.3807124341041758,0.7862411996725782
-4.0885,-0.9782422261349084,0.09745970333682032
-4.088,-1.223656247861609,-0.6231117082145651
-4.0875,-0.8715404775584021,-0.6019184314042496
-4.087,-0.3166913849581576,-0.2734226408436929
-4.0865,0.1527963087794516,0.1080563417419877
-4.086,0.4622313796519667,0.3623756634657748
-4.0855,0.5796033030867864,0.4259554938969914
-4.085,0.6116138276598051,0.4047622170866759
-4.0845,0.6116138276598051,0.3835689402763603
-4.084,0.7823366253827857,0.2246193641988873
-4.0835,0.8463576745288233,0.2881991946298341
-4.083,0.7289857510943143,0.4789386859228479
-4.0825,0.590273477944333,0.6696781772159965
-4.082,0.4729015545099309,0.8180311148882058
-4.0815,0.4302208550792003,0.9345941373450475
-4.081,0.6649647019480048,1.294879843120412
-4.0805,0.4195506802215176,1.040560521396722
-4.08,-0.1673089369510276,0.04447651131098315
-4.0795,-0.8502001278420956,-0.8668343915325873
-4.079,-1.618452717596236,-1.576809164679972
-4.0785,-2.023919362187807,-1.947691508860494
-4.078,-1.554431668450198,-1.428456227007762
-4.0775,-0.8288597781267983,-0.6019184314035942
-4.077,-0.2206598112394408,0.09745970333682032
-4.0765,0.1741366584944579,0.5425185163534477
-4.076,0.3661998059331627,0.7544512844572686
-4.0755,0.4302208550792003,0.8286277532933731
-4.075,0.4302208550792003,0.8286277532933731
-4.0745,0.3982103305061233,0.7756445612674878
-4.074,0.3661998059331045,0.7226613692416989
-4.0735,0.3341892813600565,0.6802748156210291
-4.073,0.1527963087796166,0.5743084315694512
-4.0725,-0.4447334832507763,0.2034260873884947
-4.072,-0.9995825758502737,-0.5595318777835605
-4.0715,-1.266336947292097,-1.290699927739448
-4.071,-1.33035799643796,-1.492036057437832
-4.0705,-0.807519428411986,-0.9833974139902578
-4.07,-0.1566387620939369,-0.3475991096807901
-4.0695,0.2915085819295589,0.1292496185524961
-4.069,0.5475927785137094,0.3199891098453364
-4.0685,0.6542945270905358,0.3411823866556712
-4.068,0.6542945270905649,0.3411823866556712
-4.0675,0.6863050516635838,0.3411823866556712
-4.067,0.7503261008096795,0.2670059178194992
-4.0665,0.675634876805804,0.2670059178195378
-4.066,0.5689331282290746,0.309392471440169
-4.0655,0.4835717293676135,0.3623756634660061
-4.065,0.4302208550792488,0.4153588554917951
-4.0645,0.5262524287983441,0.5849050699745222
-4.064,0.5796033030867573,0.7650479228623686
-4.0635,-0.1886492866656941,0.09745970333742748
-4.063,-1.11695449928553,-0.8032545611030572
-4.0625,-1.938557963326346,-1.51322933424863
-4.062,-2.578768454786722,-1.968884785670415
-4.0615,-2.21598250962525,-1.788741932782202
-4.061,-1.287677297007705,-0.9304142219644207
-4.0605,-0.4980843575391895,-0.07208651114585861
-4.06,0.04609456020288723,0.5425185163541706
-4.0595,0.3341892813600565,0.8922075837243778
-4.059,0.4515612047945656,1.040560521396722
-4.0585,0.4515612047945656,1.072350436612195
-4.058,0.4195506802215176,1.029963882991555
-4.0575,0.3768699807907871,0.9663840525605498
-4.057,0.3341892813600953,0.9028042221296031
-4.0565,0.2488278824985954,0.8074344764830383
-4.056,-0.3166913849585846,0.2881991946298341
-4.0555,-0.8502001278422313,-0.6125150698085784
-4.055,-1.010252750707782,-1.375473034981472
-4.0545,-0.8181896032696687,-1.396666311791788
-4.054,-0.2953510352436949,-0.8774310299390558
-4.0535,0.1848068333527713,-0.4111789401109081
-4.053,0.4835717293676135,-0.07208651114585861
-4.0525,0.6009436528021226,0.1186529801471552
-4.052,0.6329541773751415,0.171636172173002
-4.0515,0.6009436528021226,0.1822328105781598
-4.051,0.5689331282290746,0.1822328105781598
-4.0505,0.5155822539407099,0.1928294489833176
-4.05,0.4622313796522482,0.2034260873884947
-4.0495,0.4195506802215176,0.2352160026039969
-4.049,0.3982103305061718,0.2776025562246281
-4.0485,0.3768699807908453,0.3411823866558062
-4.048,0.4408910299368829,0.4895353243280153
-4.0475,0.6863050516633606,0.9028042221291694
-4.047,0.2701682322135919,0.4895353243272251
-4.0465,-0.1352984123779797,-0.3793890248957141
-4.046,-0.8608703026997393,-1.205926820498022
-4.0455,-1.618452717595974,-1.767548655972629
-4.045,-1.735824641030376,-1.746355379162313
-4.0445,-1.170305373573196,-0.9410108603695881
-4.044,-0.5300948821117812,-0.07208651114526107
-4.0435,-0.02859666380115328,0.5849050699745222
-4.043,0.2701682322139607,0.9981739677760521
-4.0425,0.3982103305060359,1.188913459068892
-4.042,0.4302208550792003,1.263089927905238
-4.0415,0.408880505363835,1.25249328950007
-4.041,0.3661998059331433,1.210106735879439
-4.0405,0.3448594562177295,1.135930267043151
-4.04,0.3341892813600565,1.051157159801889
-4.0395,0.02475421048754139,0.7544512844574709
-4.039,-0.5300948821125769,0.02328323449983873
-4.0385,-0.9035510021311299,-0.8668343915334161
-4.038,-1.031593100423205,-1.417859588601621
-4.0375,-0.6474668055462516,-1.195330182093144
-4.037,-0.1032878878049318,-0.6866915386455698
-4.0365,0.3128489316446912,-0.2310360872233701
-4.036,0.5475927785137675,0.002089957690400159
-4.0355,0.6116138276598051,0.09745970333682032
-4.035,0.5902734779444399,0.1186529801471552
-4.0345,0.5582629533714212,0.076266426526524
-4.034,0.6756348768059011,-0.08268314955102604
-4.0335,0.7396559259519968,-0.1462629799820306
-4.033,0.6649647019482863,-0.02969995752529489
-4.0325,0.5582629533713145,0.1292496185524575
-4.032,0.4729015545099309,0.2776025562246667
-4.0315,0.4302208550792391,0.415358855491718
-4.031,0.6863050516634479,0.8392243916985309
-4.0305,0.5369226036560266,0.8286277532933731
-4.03,-0.04993701351598478,0.002089957691065125
-4.0295,-0.6688071552628299,-0.8138511995081764
-4.029,-1.458400094730627,-1.47084278062796
-4.0285,-1.927887788468663,-1.809935209593318
-4.028,-1.543761493591458,-1.333086481360002
-4.0275,-0.8502001278427167,-0.474758770542221
-4.027,-0.2420001609548061,0.2776025562246667
-4.0265,0.1527963087790926,0.7862411996722408
-4.026,0.3555296310754218,1.061753798207057
-4.0255,0.4302208550792003,1.167720182258731
-4.025,0.4302208550792003,1.188913459069046
-4.0245,0.3982103305061233,1.146526905448338
-4.024,0.3661998059331045,1.082947075017392
-4.0235,0.3448594562177586,0.9981739677761292
-4.023,0.1527963087788305,0.7862411996719806
-4.0225,-0.5300948821122373,-0.008506680714854012
-4.022,-1.170305373572614,-0.9304142219635823
-4.0215,-1.426389570157298,-1.566212526274284
-4.021,-1.116954499284783,-1.364876396576285
-4.0205,-0.4874141826815069,-0.7396747306714069
-4.02,0.04609456020295517,-0.2734226408437893
-4.0195,0.408880505363835,0.002089957690313421
-4.019,0.6009436528021226,0.05507314971615059
-4.0185,0.6542945270904873,0.04447651131099279
-4.018,0.6222840025174878,0.04447651131098315
-4.0175,0.6969752265212663,-0.02969995752518888
-4.017,0.889038373959379,-0.178052895197398
-4.0165,0.8356874996709952,-0.06148987274050806
-4.016,0.6756348768059011,0.13984625695749
-4.0155,0.5369226036561527,0.3093924714400147
-4.015,0.4515612047946626,0.4365521323023805
-4.0145,0.5582629533713921,0.6590815388106942
-4.014,0.718315576236486,0.7438546460519566
-4.0135,0.2594980573557928,0.04447651131021214
-4.013,-0.274010685527854,-0.8032545611024114
-4.0125,-1.052933450138687,-1.502632695843462
-4.012,-1.81051586503431,-1.990078062481173
-4.0115,-1.981238662757077,-2.000674700886331
-4.011,-1.373038695869166,-1.195330182093607
-4.0105,-0.6474668055474064,-0.3158091944655095
-4.01,-0.09261771294724913,0.3517790250608387
-4.0095,0.2381577076409128,0.7438546460520338
-4.009,0.3982103305060068,0.9134008605345585
-4.0085,0.4408910299368539,0.9557874141553631
-4.008,0.408880505363835,0.9345941373450475
-4.0075,0.3768699807908162,0.8816109453192585
-4.007,0.3448594562176809,0.8074344764828938
-4.0065,0.2808384070716433,0.6484849004055269
-4.006,-0.01792648894347063,0.2352160026039969
-4.0055,-0.6154562809740964,-0.4959520473532402
-4.005,-1.052933450138687,-1.248313374119443
-4.0045,-1.138294849000148,-1.481439419033127
-4.004,-0.7008176798346454,-1.036380606015574
-4.0035,-0.1352984123779797,-0.4641621321370536
-4.003,0.291508581929326,-0.05089323433552374
-4.0025,0.5155822539404575,0.1928294489831056
-4.002,0.5902734779444399,0.2564092794143318
-4.0015,0.6009436528021226,0.2881991946298341
-4.001,0.6009436528021226,0.2564092794143607
-4.0005,0.8250173248134774,0.04447651131095424
-4,0.8463576745288233,0.01268659609548085
-3.9995,0.7183155762366316,0.1292496185523226
-3.999,0.5689331282290746,0.2776025562246667
-3.9985,0.4622313796522482,0.4153588554918433
-3.998,0.4302208550792003,0.5743084315693548
-3.9975,0.5902734779444399,0.9028042221295453
-3.997,0.04609456020262521,0.5001319627331828
-3.9965,-0.658136980404429,-0.3899856633008816
-3.996,-1.30901764672307,-1.142346990067769
-3.9955,-1.970568487899394,-1.693372187136476
-3.995,-2.280003558772191,-1.947691508860494
-3.9945,-1.650463242168915,-1.364876396576285
-3.994,-0.8502001278427167,-0.474758770542221
-3.9935,-0.2099896363817582,0.2670059178194992
-3.993,0.1954770082101822,0.7438546460520338
-3.9925,0.3875401556484697,0.9769806909657173
-3.992,0.4515612047945656,1.051157159801889
-3.9915,0.4515612047945656,1.040560521396722
-3.991,0.408880505363835,0.9875773293708847
-3.9905,0.3661998059331045,0.92399749893988
-3.99,0.3235191065023739,0.8392243916985406
-3.9895,0.00341386077189465,0.5001319627331828
-3.989,-0.7328282044082075,-0.3475991096802118
-3.9885,-1.234326422719292,-1.195330182093607
-3.988,-1.383708870726849,-1.629792356705471
-3.9875,-0.9569018764195432,-1.248313374119443
-3.987,-0.2953510352432193,-0.6231117082145651
-3.9865,0.2381577076409128,-0.1674562567923655
-3.986,0.5475927785137094,0.03387987290581572
-3.9855,0.6756348768059011,0.01268659609548085
-3.985,0.6969752265212663,0.02328323450064829
-3.9845,0.6542945270905358,0.03387987290581572
-3.984,0.6542945270905358,-0.01910331912002144
-3.9835,0.6436243522328531,-0.02969995752518888
-3.983,0.5582629533713921,0.08686306493165288
-3.9825,0.4942419042252961,0.2140227257936621
-3.982,0.4408910299368829,0.3199891098453364
-3.9815,0.408880505363835,0.4047622170866759
-3.981,0.2168173579255475,0.1080563417419877
-3.9805,-0.3487019095316325,-0.6337083466197325
-3.98,-0.8822106524157645,-1.354279758171118
-3.9795,-1.202315898146244,-1.88411167842949
-3.979,-1.287677297007705,-2.064254531317336
-3.9785,-0.9142211769888124,-1.375473034981453
-3.978,-0.4020527838200457,-0.4535654937318862
-3.9775,0.00341386077189465,0.2987958330350016
-3.977,0.2594980573562781,0.775644561267536
-3.9765,0.3875401556484697,1.00877060618122
-3.976,0.4302208550792003,1.082947075017392
-3.9755,0.4195506802215176,1.072350436612224
-3.975,0.3875401556484697,1.029963882991555
-3.9745,0.3555296310754218,0.9663840525605498
-3.974,0.3235191065023739,0.8922075837243778
-3.9735,0.3235191065023739,0.8074344764830383
-3.973,0.1954770082101822,0.6802748156210291
-3.9725,-0.3593720843893152,0.3199891098453364
-3.972,-0.9355615267041777,-0.4217755785163839
-3.9715,-1.244996597576974,-1.163540266878104
-3.971,-1.138294849000148,-1.34368311976595
-3.9705,-0.5834457564006506,-0.9092209451540858
-3.97,-0.007256314085787988,-0.3899856633008816
-3.9695,0.408880505363835,-0.06148987274069118
-3.969,0.5902734779444399,0.1080563417419877
-3.9685,0.6436243522328531,0.1610395337678249
-3.968,0.6222840025174878,0.1610395337678249
-3.9675,0.6116138276598051,0.1292496185523226
-3.967,0.6649647019482183,-0.008506680714854012
-3.9665,0.6222840025174878,0.04447651131098315
-3.966,0.5475927785137094,0.1822328105781598
-3.9655,0.4835717293676135,0.3411823866556712
-3.965,0.4515612047945656,0.4683420475176805
-3.9645,0.5689331282290746,0.7438546460520338
-3.964,0.6329541773751706,1.029963882991555
-3.9635,-0.04993701351651855,0.3517790250608387
-3.963,-0.754168554123573,-0.5913217929990628
-3.9625,-1.46907026958831,-1.34368311976595
-3.962,-2.141291285622316,-1.84172512480882
-3.9615,-2.162631635337682,-1.862918401619155
-3.961,-1.394379045584531,-1.089363798041932
-3.9605,-0.6261264558313813,-0.2098428104130352
-3.96,-0.04993701351651855,0.4789386859228479
-3.9595,0.2808384070716433,0.8922075837243778
-3.959,0.4302208550792003,1.072350436612224
-3.9585,0.4622313796522482,1.125333628638062
-3.958,0.4302208550792003,1.093543713422559
-3.9575,0.3875401556484697,1.029963882991555
-3.957,0.3448594562177392,0.9451907757502149
-3.9565,0.2808384070716433,0.8710143069140429
-3.956,-0.1673089369510276,0.5319218779486851
-3.9555,-0.7648387289812555,-0.326405832869877
-3.955,-1.095614149569417,-1.184733543688439
-3.9545,-1.116954499284783,-1.566212526274467
-3.954,-0.6261264558313813,-1.216523458903942
-3.9535,-0.03926683865883591,-0.6654982618352349
-3.953,0.3661998059331045,-0.2204394488182027
-3.9525,0.5796033030867573,0.09745970333682032
-3.952,0.6222840025174878,0.1928294489833272
-3.9515,0.6116138276598051,0.1504428953626575
-3.951,0.6009436528021226,0.1186529801471552
-3.9505,0.707645401378949,0.2246193641988295
-3.95,0.6969752265212663,0.2458126410091644
-3.9495,0.6116138276598051,0.2564092794143318
-3.949,0.5262524287983441,0.2458126410091644
-3.9485,0.4622313796522482,0.2564092794143318
-3.948,0.4515612047945656,0.3517790250608387
-3.9475,0.6969752265212663,0.775644561267536
-3.947,0.3235191065023739,0.5425185163538525
-3.9465,-0.4127229586777283,-0.3370024712750445
-3.946,-1.191645723288561,-1.152943628472937
-3.9455,-1.938557963326346,-1.714565463946811
-3.945,-2.333354433060604,-1.926498232050159
-3.9445,-1.714484291315011,-1.333086481360783
-3.944,-0.9035510021311299,-0.400582301706049
-3.9435,-0.2313299860971235,0.4047622170866759
-3.943,0.1848068333524996,0.9345941373450475
-3.9425,0.3982103305061524,1.210106735879401
-3.942,0.4622313796522482,1.316073119931075
-3.9415,0.4408910299368829,1.305476481525908
-3.941,0.3982103305061524,1.263089927905238
-3.9405,0.3555296310754218,1.178316820663898
-3.94,0.3341892813600565,1.061753798207057
-3.9395,0.1527963087794516,0.6696781772158616
-3.939,-0.4020527838200457,-0.2204394488182027
-3.9385,-0.7755089038389382,-1.110557074852267
-3.938,-0.9675720512772257,-1.767548655972648
-3.9375,-0.8181896032696687,-1.714565463946811
-3.937,-0.3166913849585846,-1.078767159636765
-3.9365,0.142126133921769,-0.5065486857577234
-3.936,0.4408910299368829,-0.1674562567923655
-3.9355,0.5902734779444399,-0.09327978795619347
-3.935,0.6116138276598051,-0.1038764263613609
-3.9345,0.5902734779444399,-0.1356663415768632
-3.934,0.5902734779444399,-0.252229364033705
-3.9335,0.5689331282290746,-0.2946159176543747
-3.933,0.5155822539406614,-0.1250697031716958
-3.9325,0.4622313796522482,0.08686306493165288
-3.932,0.4195506802215176,0.2564092794143318
-3.9315,0.3982103305061524,0.3623756634660061
-3.931,0.02475421048725994,0.03387987290581572
-3.9305,-0.572775581542968,-0.7078848154559045
-3.93,-0.9889124009925911,-1.396666311791788
-3.9295,-1.148965023857831,-1.873515040024322
-3.929,-1.223656247861609,-2.138431000153508
-3.9285,-0.9675720512772257,-1.725162102351978
-3.928,-0.4874141826815069,-0.8138511995075789
-3.9275,-0.06060718837420119,0.02328323450064829
-3.927,0.2168173579255475,0.5849050699745222
-3.9265,0.3661998059331045,0.8922075837243778
-3.926,0.4302208550792003,0.9981739677760521
-3.9255,0.4302208550792003,0.9981739677760521
-3.925,0.3982103305061524,0.9557874141553824
-3.9245,0.3661998059331045,0.8922075837243778
-3.924,0.3341892813600565,0.8286277532933731
-3.9235,0.3021787567870086,0.7650479228623686
-3.923,0.2168173579255475,0.5849050699745222
-3.9225,-0.2633405106701714,-0.1038764263613609
-3.922,-0.7114878546928423,-0.9410108603695881
-3.9215,-0.9035510021311299,-1.576809164679634
-3.921,-0.9035510021311299,-1.619195718300304
-3.9205,-0.4980843575391895,-0.9833974139902578
-3.92,-0.01792648894347063,-0.3475991096802118
-3.9195,0.3448594562177392,-0.01910331912002144
-3.919,0.5475927785137094,0.08686306493165288
-3.9185,0.6009436528021226,0.2034260873884947
-3.918,0.5902734779444399,0.2881991946298341
-3.9175,0.6222840025174878,0.2352160026039969
-3.917,0.8143471499557753,0.002089957690313421
-3.9165,0.79300680024041,0.03387987290581572
-3.916,0.6649647019482183,0.2140227257936621
-3.9155,0.5475927785137094,0.5107286011383502
-3.915,0.4515612047945656,0.6590815388106942
-3.9145,0.5262524287983441,0.7968378380778709
-3.914,0.79300680024041,1.125333628638062
-3.9135,0.1741366584948169,0.5955017083796896
-3.913,-0.6047861061160158,-0.252229364033705
-3.9125,-1.298347471865388,-0.8456411147230812
-3.912,-1.981238662757077,-1.449649503817625
-3.9115,-2.183971985053047,-1.75695201756748
-3.911,-1.51175096901904,-1.216523458903942
-3.9105,-0.7328282044082075,-0.4111789401112165
-3.91,-0.124628237520297,0.2670059178194992
-3.9095,0.2381577076409128,0.7120647308365314
-3.909,0.408880505363835,0.9451907757502149
-3.9085,0.4515612047945656,1.040560521396722
-3.908,0.4302208550792003,1.061753798207057
-3.9075,0.3875401556484697,1.051157159801889
-3.907,0.3448594562177392,1.00877060618122
-3.9065,0.291508581929326,0.9557874141553824
-3.906,-0.1673089369510276,0.5637117931641874
-3.9055,-0.807519428411986,-0.2946159176543747
-3.905,-1.287677297007705,-1.152943628472937
-3.9045,-1.447729919872945,-1.608599079895136
-3.904,-0.9782422261349084,-1.163540266878104
-3.9035,-0.3273615598162672,-0.5171453241628908
-3.903,0.2274875327832301,0.01268659609548085
-3.9025,0.5369226036560266,0.3517790250608387
-3.902,0.6436243522328531,0.4365521323021782
-3.9015,0.6436243522328531,0.4153588554918433
-3.901,0.6116138276598051,0.2881991946298341
-3.9005,0.7503261008096795,0.05507314971615059
-3.9,0.7609962756673623,-0.008506680714854012
-3.8995,0.6649647019482183,0.05507314971615059
-3.899,0.5475927785137094,0.1716361721729923
-3.8985,0.4515612047945656,0.2881991946298341
-3.898,0.4515612047945656,0.4259554938970107
-3.8975,0.707645401378949,0.8604176685088755
-3.897,0.3128489316446912,0.5743084315693548
-3.8965,-0.4660738329661415,-0.2840192792492073
-3.896,-1.298347471865388,-0.9622041371799229
-3.8955,-2.045259711903173,-1.51322933424863
-3.895,-2.60010880450267,-1.873515040024322
-3.8945,-2.119950935906951,-1.598002441489969
-3.894,-1.180975548430879,-0.7396747306714069
-3.8935,-0.4127229586777283,0.08686306493165288
-3.893,0.09944543449103843,0.6802748156210291
-3.8925,0.3661998059331045,1.019367244586387
-3.892,0.4729015545099309,1.157123543853563
-3.8915,0.4622313796522482,1.178316820663898
-3.891,0.4302208550792003,1.146526905448396
-3.8905,0.3875401556484697,1.072350436612224
-3.89,0.3448594562177392,0.9875773293708847
-3.8895,0.142126133921769,0.7332580076468663
-3.889,-0.4874141826815069,-0.06148987274069118
-3.8885,-0.9248913518464952,-0.9622041371799229
-3.888,-1.212986073003927,-1.460246142222792
-3.8875,-0.9248913518464952,-1.142346990067769
-3.887,-0.3487019095316325,-0.6231117082145651
-3.8865,0.1527963087794516,-0.1886495336027004
