Class_11_Cell_phone_Call/Class_11_Cell_phone_Call_Turki_7.csv

#Digilent WaveForms Oscilloscope Acquisition
#Device Name: EExplorer
#Serial Number: SN:210151A2B84A
#Date Time: 2020-12-21 15:30:35.036
#Sample rate: 2000Hz
#Samples: 16384
#Trigger: Source: Channel 1 Type: Edge Condition: Rising Level: 0 V Hyst.: Auto HoldOff: 0 s
#Channel 1: Range: 1 V/div Offset: 0 V
#Channel 2: Range: 1 V/div Offset: 0 V

Time (s),Channel 1 (V),Channel 2 (V)
-4.0960000000000001,0.3982103305061524,0.59550170837968963
-4.0955000000000004,0.63295417737495707,0.83922439169831886
-4.0949999999999998,0.72898575109434338,0.90280422212955491
-4.0945,0.76099627566736228,0.9134008605347127
-4.0940000000000003,0.91037872367478334,0.78624119967281914
-4.0934999999999997,0.88903837395944696,0.7968378380779384
-4.093,0.77166645052504479,0.87101430691404291
-4.0925000000000002,0.65429452709064262,0.92399749893983185
-4.0919999999999996,0.56893312822901643,0.93459413734495111
-4.0914999999999999,0.50491207908297886,0.82862775329337313
-4.0910000000000002,0.067434909917990504,0.13984625695749003
-4.0904999999999996,-0.58344575640117458,-0.79265792269793789
-4.0899999999999999,-1.1596351987155133,-1.5556158878692994
-4.0895000000000001,-1.6931439415996454,-2.1490276385586755
-4.0890000000000004,-1.8531965644647392,-2.2655906610154108
-4.0884999999999998,-1.2449965975769743,-1.4814394190331273
-4.0880000000000001,-0.53009488211223732,-0.67609490024040231
-4.0875000000000004,0.035424385344428155,-0.10387642636188132
-4.0869999999999997,0.37686998079093265,0.20342608738859103
-4.0865,0.53692260365602662,0.30939247144016896
-4.0860000000000003,0.57960330308671848,0.29879583303501123
-4.0854999999999997,0.57960330308671848,0.24581264100911621
-4.085,0.53692260365602662,0.19282944898332721
-4.0845000000000002,0.49424190422533493,0.16103953376785385
-4.0839999999999996,0.46223137965218997,0.15044289536267674
-4.0834999999999999,0.3982103305061524,0.17163617217299235
-4.0830000000000002,-0.06060718837420119,0.033879872905815719
-4.0824999999999996,-0.65813698040468138,-0.48535540894800527
-4.0819999999999999,-0.93556152670417769,-1.1635402668781043
-4.0815000000000001,-1.1489650238578306,-1.5450192494641319
-4.0810000000000004,-0.82885977812764255,-1.1635402668784511
-4.0804999999999998,-0.26334051067017139,-0.47475877054222104
-4.0800000000000001,0.19547700821018218,0.16103953376782493
-4.0795000000000003,0.50491207908269742,0.55311515475866335
-4.0789999999999997,0.66496470194824742,0.76504792286251311
-4.0785,0.69697522652126631,0.92399749893988004
-4.0780000000000003,0.68630505166359346,1.0087706061811426
-4.0774999999999997,0.83568749967118927,0.87101430691400439
-4.077,0.88903837395955376,0.82862775329337313
-4.0765000000000002,0.79300680024049741,0.88161094531916218
-4.0759999999999996,0.67563487680582346,0.9345941373450668
-4.0754999999999999,0.59027347794443985,0.95578741415538238
-4.0750000000000002,0.5689331282290746,0.96638405256054982
-4.0744999999999996,0.9637295979636139,1.2630899279055559
-4.0739999999999998,1.2731646688361289,1.6127789952757632
-4.0735000000000001,0.51558225394066137,1.0617537982070568
-4.0730000000000004,-0.59411593125732409,-0.029699957524196074
-4.0724999999999998,-1.4584000947306273,-1.0257839676109275
-4.0720000000000001,-1.4157193952998968,-1.2377167357142764
-4.0715000000000003,-0.85020012784323107,-0.80325456110280657
-4.0709999999999997,-0.25267033581209081,-0.28401927924884107
-4.0705,0.18480683335249956,0.11865298014715518
-4.0700000000000003,0.43022085507897712,0.35177902506062664
-4.0694999999999997,0.54759277851372878,0.44714877070736486
-4.069,0.5689331282290746,0.46834204751768049
-4.0685000000000002,0.53692260365602662,0.45774540911251305
-4.0679999999999996,0.50491207908294977,0.44714877070733594
-4.0674999999999999,0.47290155450993088,0.43655213230217815
-4.0670000000000002,0.44089102993688295,0.43655213230217815
-4.0664999999999996,0.35552963107542179,0.50013196273346228
-4.0659999999999998,0.35552963107542179,0.80743447648303834
-4.0655000000000001,-0.039266838658835915,0.46834204751768049
-4.0650000000000004,-0.871540477557325,-0.41117894011041656
-4.0644999999999998,-1.3303579964384356,-0.97280077558509037
-4.0640000000000001,-0.96757205127722568,-0.71848145386107198
-4.0635000000000003,-0.34870190953219538,-0.18864953360318215
-4.0629999999999997,0.18480683335282952,0.30939247144049664
-4.0625,0.54759277851370936,0.66967817721586165
-4.0620000000000003,0.71831557623647635,0.8180311148880709
-4.0614999999999997,0.75032610080959217,0.81803111488803226
-4.0609999999999999,0.65429452709053582,0.62729162359519197
-4.0605000000000002,0.45156120479456557,0.34118238665567124
-4.0599999999999996,0.37686998079079681,0.42595549389719384
-4.0594999999999999,0.38754015564846972,0.62729162359519197
-4.0590000000000002,0.43022085507920033,0.80743447648303834
-4.0585000000000004,0.47290155450989207,0.90280422212945854
-4.0579999999999998,0.71831557623663156,1.0193672445863871
-4.0575000000000001,1.0597611716824762,0.89220758372437781
-4.0570000000000004,0.60094365280253981,0.033879872906596331
-4.0564999999999998,-0.15663876209334496,-0.9304142219644207
-4.056,-1.0636036249963696,-1.6933721871364757
-4.0555000000000003,-1.3303579964381929,-1.841725124808685
-4.0549999999999997,-0.91422117698830785,-1.2165234589033151
-4.0545,-0.35937208438931517,-0.52774196256805828
-4.0540000000000003,0.088775259632948245,-0.029699957525641862
-4.0534999999999997,0.36619980593323065,0.23521600260407405
-4.0529999999999999,0.50491207908297886,0.31998910984533641
-4.0525000000000002,0.54759277851370936,0.30939247144016896
-4.0519999999999996,0.53692260365598776,0.2564092794142836
-4.0514999999999999,0.49424190422529612,0.20342608738849466
-4.0510000000000002,0.44089102993688295,0.19282944898332721
-4.0505000000000004,0.40888050536386411,0.19282944898332721
-4.0499999999999998,0.36619980593310447,0.18223281057815977
-4.0495000000000001,-0.06060718837420119,0.17163617217299235
-4.0490000000000004,-0.70081767983457743,-0.29461591765395057
-4.0484999999999998,-1.1596351987157656,-1.0257839676113418
-4.048,-1.437059745015262,-1.4814394190331273
-4.0475000000000003,-1.0636036249967094,-1.0999604364474465
-4.0469999999999997,-0.42339313353488695,-0.37938902489518406
-4.0465,0.15279630877945163,0.20342608738849466
-4.0460000000000003,0.51558225394033141,0.6166949851896486
-4.0454999999999997,0.67563487680593015,0.83922439169855989
-4.0449999999999999,0.70764540137894905,0.86041766850887547
-4.0445000000000002,0.66496470194821833,0.86041766850887547
-4.0439999999999996,0.6863050516635838,0.84982103010365984
-4.0434999999999999,0.6863050516635838,0.7968378380778709
-4.0430000000000001,0.62228400251748783,0.775644561267536
-4.0425000000000004,0.56893312822912312,0.76504792286237822
-4.0419999999999998,0.52625242879834411,0.75445128445720111
-4.0415000000000001,0.55826295337139209,0.72266136924169888
-4.0410000000000004,0.92104889853227179,0.47893868592306954
-4.0404999999999998,0.52625242879747069,-0.30521255606027459
-4.04,-0.43406330839309365,-1.1105570748522671
-4.0395000000000003,-1.3196878215799475,-1.6827755487307878
-4.0389999999999997,-1.8852070890375932,-2.021867977696223
-4.0385,-1.5117509690190405,-1.5344226110589645
-4.0380000000000003,-0.79684925355495362,-0.73967473067212974
-4.0374999999999996,-0.16730893695063942,-0.10387642636100432
-4.0369999999999999,0.25949805735627807,0.28819919462983412
-4.0365000000000002,0.47290155450993088,0.46834204751768049
-4.0359999999999996,0.55826295337139209,0.5107286011383213
-4.0354999999999999,0.55826295337139209,0.47893868592284788
-4.0350000000000001,0.53692260365602662,0.42595549389701071
-4.0345000000000004,0.50491207908300795,0.38356894027637956
-4.0339999999999998,0.4622313796522482,0.35177902506083869
-4.0335000000000001,0.40888050536383502,0.33058574825050385
-4.0330000000000004,0.03542438534528225,-0.0085066807145455781
-4.0324999999999998,-0.77550890383948168,-0.75027136907720071
-4.032,-1.373038695869166,-1.4390528654124575
-4.0315000000000003,-1.4263895701575307,-1.6721789103259288
-4.0309999999999997,-0.9035510021305283,-1.1317503516620044
-4.0305,-0.24200016095480609,-0.47475877054222104
-4.0300000000000002,0.2701682322134949,0.076266426525984254
-4.0294999999999996,0.56893312822918141,0.4577454091127347
-4.0289999999999999,0.6863050516635838,0.70146809243136399
-4.0285000000000002,0.72898575109431429,0.80743447648303834
-4.0279999999999996,0.71831557623673836,0.81803111488817692
-4.0274999999999999,0.83568749967114075,0.78624119967270345
-4.0270000000000001,0.87836819910187125,0.72266136924169888
-4.0265000000000004,0.7823366253828149,0.68027481562106762
-4.0259999999999998,0.66496470194821833,0.64848490040552687
-4.0255000000000001,0.5689331282290746,0.61669498519002452
-4.0250000000000004,0.5689331282290746,0.58490506997455105
-4.0244999999999997,0.71831557623704889,0.11865298014638417
-4.024,1.1771330951169852,-0.72907809226623943
-4.0235000000000003,1.3905365922704438,-1.4814394190324429
-4.0229999999999997,0.50491207908200841,-2.0536578929123999
-4.0225,-0.5621054066852853,-2.3079772146361868
-4.0220000000000002,-0.83952995298478172,-1.6509856335164035
-4.0214999999999996,-0.55143523182724374,-0.73967473067076117
-4.0209999999999999,-0.15663876209334496,-0.029699957525188878
-4.0205000000000002,0.17413665849481691,0.40476221708667587
-4.0199999999999996,0.37686998079088413,0.60609834678490526
-4.0194999999999999,0.4835717293676135,0.6590815388106942
-4.0190000000000001,0.51558225394066137,0.62729162359519197
-4.0185000000000004,0.50491207908298852,0.56371179316424525
-4.0179999999999998,0.4835717293676135,0.51072860113835017
-4.0175000000000001,0.44089102993688295,0.47893868592284788
-4.0170000000000003,0.40888050536386411,0.45774540911253231
-4.0164999999999997,0.27016823221341724,0.31998910984485451
-4.016,-0.32736155981626724,-0.20984281041303524
-4.0155000000000003,-0.98891240099198952,-0.96220413717923869
-4.0149999999999997,-1.3516983461537426,-1.4814394190329923
-4.0145,-1.2876772970077051,-1.333086481360783
-4.0140000000000002,-0.69014750497802047,-0.67609490024099983
-4.0134999999999996,-0.060607188373774191,-0.019103319119597392
-4.0129999999999999,0.40888050536383502,0.4471487707073456
-4.0125000000000002,0.64362435223285308,0.68027481562102909
-4.0119999999999996,0.69697522652122745,0.66967817721573641
-4.0114999999999998,0.65429452709053582,0.53192187794868506
-4.0110000000000001,0.66496470194821833,0.37297230187117358
-4.0105000000000004,0.79300680024029357,0.18223281057833324
-4.0099999999999998,0.76099627566736228,0.2246193641988295
-4.0095000000000001,0.66496470194821833,0.37297230187117358
-4.0090000000000003,0.57960330308683494,0.51072860113822482
-4.0084999999999997,0.51558225394082635,0.62729162359545221
-4.008,0.69697522652126631,0.9134008605347127
-4.0075000000000003,1.3691962425546613,1.5068126112235491
-4.0069999999999997,1.8386839362926879,2.0366445314825183
-4.0065,1.1557927454016199,2.1002243619134653
-4.0060000000000002,-0.12462823752029703,1.0723504366122243
-4.0054999999999996,-0.89288082727336959,0.012686596095239915
-4.0049999999999999,-0.80751942841198598,-0.25222936403370499
-4.0045000000000002,-0.41272295867772835,-0.072086511145858609
-4.0039999999999996,-0.0072563140855356712,0.23521600260424752
-4.0034999999999998,0.27016823221396069,0.51072860113835017
-4.0030000000000001,0.43022085507920033,0.71206473083653143
-4.0025000000000004,0.49424190422523789,0.84982103010358268
-4.0019999999999998,0.50491207908297886,0.92399749893988004
-4.0015000000000001,0.47290155450993088,0.96638405256054982
-4.0010000000000003,0.44089102993691209,0.9875773293708654
-4.0004999999999997,0.4088805053637477,1.0087706061812003
-4,0.31284893164469124,0.98757732937088472
-3.9994999999999998,-0.17797911180871023,0.6590815388106942
-3.9990000000000001,-1.0102527507079564,-0.11447306476652835
-3.9984999999999999,-1.6397930673112322,-0.88802766834375091
-3.9980000000000002,-1.5971123678805015,-0.86683439153341613
-3.9975000000000001,-0.97824222613490841,-0.28401927924920728
-3.9969999999999999,-0.27401068552785401,0.25640927941433178
-3.9965000000000002,0.27016823221396069,0.5637117931641874
-3.996,0.60094365280212259,0.59550170837968963
-3.9954999999999998,0.72898575109431429,0.45774540911251305
-3.9950000000000001,0.75032610080967954,0.23521600260399694
-3.9944999999999999,0.75032610080967954,0.065669788121318018
-3.9940000000000002,0.83568749967114075,-0.029699957525188878
-3.9935,0.78233662538272752,-0.0085066807148540119
-3.9929999999999999,0.67563487680590106,0.065669788121318018
-3.9925000000000002,0.5689331282290746,0.13984625695749003
-3.992,0.50491207908297886,0.20342608738849466
-3.9914999999999998,0.36619980593310447,0.21402272579366208
-3.9910000000000001,-0.12462823752029703,-0.04029659593035631
-3.9904999999999999,-0.88221065241576446,-0.68669153864556975
-3.9900000000000002,-1.5437614935920885,-1.3436831197659505
-3.9895,-2.0879404113339031,-1.8099352095933177
-3.9889999999999999,-2.1306211107646336,-1.8735150400243223
-3.9885000000000002,-1.373038695869166,-1.131750351662602
-3.988,-0.58344575640065055,-0.25222936403370499
-3.9874999999999998,0.0034138607718946501,0.42595549389701071
-3.9870000000000001,0.35552963107542179,0.83922439169854057
-3.9864999999999999,0.51558225394066137,1.0299638829915545
-3.9860000000000002,0.55826295337139209,1.0723504366122243
-3.9855,0.53692260365602662,1.0193672445863871
-3.9849999999999999,0.50491207908297886,0.94519077575021493
-3.9845000000000002,0.47290155450993088,0.84982103010370802
-3.984,0.45156120479456557,0.75445128445720111
-3.9834999999999998,0.38754015564846972,0.6590815388106942
-3.9830000000000001,-0.092617712947249131,0.16103953376782493
-3.9824999999999999,-0.93556152670417769,-0.70788481545590454
-3.9820000000000002,-1.4797404444459925,-1.4920360574382947
-3.9815,-1.618452717595867,-2.0642545313173359
-3.9809999999999999,-1.3516983461538008,-1.84172512480882
-3.9805000000000001,-0.69014750497747701,-1.0575738828264298
-3.98,-0.0072563140857879876,-0.36879238649054674
-3.9794999999999998,0.43022085507920033,0.044476511310983152
-3.9790000000000001,0.67563487680590106,0.19282944898332721
-3.9784999999999999,0.75032610080967954,0.23521600260399694
-3.9780000000000002,0.75032610080967954,0.21402272579366208
-3.9775,0.83568749967114075,0.023283234500648287
-3.9769999999999999,0.88903837395955376,-0.10387642636136091
-3.9765000000000001,0.79300680024041004,-0.0085066807148540119
-3.976,0.66496470194821833,0.13984625695749003
-3.9754999999999998,0.55826295337139209,0.27760255622466667
-3.9750000000000001,0.50491207908297886,0.37297230187117358
-3.9744999999999999,0.23815770764091276,0.086863064931652884
-3.9740000000000002,-0.48741418268150688,-0.65490162343006741
-3.9735,-1.1703053735731959,-1.3860696733866202
-3.9729999999999999,-1.67180359188428,-1.9264982320501591
-3.9725000000000001,-2.0559298867608553,-2.2126074689896797
-3.972,-1.6504632421689147,-1.6721789103261409
-3.9714999999999998,-0.88221065241576446,-0.73967473067140688
-3.9710000000000001,-0.22065981123944084,0.055073149716150585
-3.9704999999999999,0.22748753278323011,0.57430843156935485
-3.9700000000000002,0.45156120479456557,0.83922439169854057
-3.9695,0.53692260365602662,0.92399749893988004
-3.9689999999999999,0.54759277851370936,0.90280422212954525
-3.9685000000000001,0.52625242879834411,0.83922439169854057
-3.968,0.4835717293676135,0.76504792286236856
-3.9674999999999998,0.45156120479456557,0.69087145402619654
-3.9670000000000001,0.41955068022151765,0.62729162359519197
-3.9664999999999999,0.24882788249859539,0.43655213230217815
-3.9660000000000002,-0.43406330839309365,-0.1674562567923655
-3.9655,-1.2449965975769743,-0.97280077558509037
-3.9649999999999999,-1.6611334170265974,-1.6191957183003036
-3.9645000000000001,-1.586442193022819,-1.6615822719209734
-3.964,-0.96757205127722568,-1.0681705212315973
-3.9634999999999998,-0.27401068552785401,-0.44296885532671876
-3.9630000000000001,0.22748753278323011,-0.019103319120021445
-3.9624999999999999,0.52625242879834411,0.21402272579366208
-3.9620000000000002,0.63295417737517057,0.30939247144016896
-3.9615,0.65429452709053582,0.34118238665567124
-3.9609999999999999,0.67563487680590106,0.35177902506083869
-3.9605000000000001,0.78233662538272752,0.43655213230217815
-3.96,0.73965592595199681,0.41535885549184332
-3.9594999999999998,0.65429452709053582,0.36237566346600614
-3.9590000000000001,0.5689331282290746,0.31998910984533641
-3.9584999999999999,0.50491207908297886,0.30939247144016896
-3.9580000000000002,0.66496470194821833,0.35177902506083869
-3.9575,1.1451225705439372,0.39416557868150842
-3.9569999999999999,0.82501732481345802,-0.20984281041303524
-3.9565000000000001,-0.08194753808956648,-1.0045906908005926
-3.956,-1.0849439747117349,-1.6085990798951362
-3.9554999999999998,-1.437059745015262,-1.6615822719209734
-3.9550000000000001,-1.0315931004233216,-0.95160749877475548
-3.9544999999999999,-0.4554036581084589,-0.13566634157686319
-3.9540000000000002,0.024754210487259936,0.47893868592284788
-3.9535,0.32351910650237387,0.84982103010370802
-3.9529999999999998,0.47290155450993088,1.0299638829915545
-3.9525000000000001,0.52625242879834411,1.0723504366122243
-3.952,0.51558225394066137,1.0405605213967219
-3.9514999999999998,0.49424190422529612,0.97698069096571727
-3.9510000000000001,0.4622313796522482,0.90280422212954525
-3.9504999999999999,0.44089102993688295,0.81803111488820579
-3.9500000000000002,0.3982103305061524,0.75445128445720111
-3.9495,0.31284893164469124,0.89220758372437781
-3.9489999999999998,0.4622313796522482,1.33726639674141
-3.9485000000000001,0.57960330308675734,1.2313000126897355
-3.948,0.078105084775673142,0.34118238665567124
-3.9474999999999998,-0.10328788780493176,-0.10387642636136091
-3.9470000000000001,0.05676473506030786,-0.082683149551026042
-3.9464999999999999,0.29150858192932599,0.033879872905815719
-3.9460000000000002,0.4622313796522482,0.13984625695749003
-3.9455,0.55826295337139209,0.18223281057815977
-3.9449999999999998,0.62228400251748783,0.18223281057815977
-3.9445000000000001,0.64362435223285308,0.15044289536265748
-3.944,0.73965592595199681,0.21402272579366208
-3.9434999999999998,0.73965592595199681,0.25640927941433178
-3.9430000000000001,0.65429452709053582,0.26700591781949923
-3.9424999999999999,0.55826295337139209,0.28819919462983412
-3.9420000000000002,0.49424190422529612,0.31998910984533641
-3.9415,0.4622313796522482,0.40476221708667587
-3.9409999999999998,0.63295417737517057,0.51072860113835017
-3.9405000000000001,0.31284893164469124,0.0020899576903134209
-3.9399999999999999,-0.59411593125833329,-0.82444783791274634
-3.9394999999999998,-1.4904106193036752,-1.4708427806279598
-3.9390000000000001,-1.7785053404611064,-1.6403889951106385
-3.9384999999999999,-1.2556667724346571,-0.99399405239542526
-3.9380000000000002,-0.57277558154296804,-0.17805289519753292
-3.9375,-0.028596663801153277,0.47893868592284788
-3.9369999999999998,0.31284893164469124,0.88161094531921036
-3.9365000000000001,0.47290155450993088,1.0723504366122243
-3.9359999999999999,0.52625242879834411,1.1147369902328941
-3.9355000000000002,0.51558225394066137,1.0829470750173917
-3.9350000000000001,0.4835717293676135,1.0193672445863871
-3.9344999999999999,0.45156120479456557,0.93459413734504748
-3.9340000000000002,0.41955068022151765,0.84982103010370802
-3.9335,0.38754015564846972,0.76504792286236856
-3.9329999999999998,0.046094560202625215,0.45774540911251305
-3.9325000000000001,-0.72215802955052499,-0.37938902489571413
-3.9319999999999999,-1.2983474718653876,-1.2377167357142764
-3.9315000000000002,-1.4584000947306273,-1.6933721871364757
-3.931,-0.99958257585027366,-1.2906999277401132
-3.9304999999999999,-0.35937208438931517,-0.63370834661973252
-3.9300000000000002,0.15279630877945163,-0.093279787956193475
-3.9295,0.47290155450993088,0.20342608738849466
-3.9289999999999998,0.63295417737517057,0.25640927941433178
-3.9285000000000001,0.6863050516635838,0.23521600260399694
-3.9279999999999999,0.64362435223285308,0.16103953376782493
