Class_11_Cell_phone_Call/Class_11_Cell_phone_Call_SH_3.csv

#Digilent WaveForms Oscilloscope Acquisition
#Device Name: EExplorer
#Serial Number: SN:210151A2B84A
#Date Time: 2020-12-03 11:57:32.548
#Sample rate: 2000Hz
#Samples: 16384
#Trigger: Source: Channel 1 Type: Edge Condition: Rising Level: 0 V Hyst.: Auto HoldOff: 0 s
#Channel 1: Range: 1 V/div Offset: 0 V Attenuation: 1 X
#Channel 2: Range: 1 V/div Offset: 0 V Attenuation: 1 X
#Power Supplies: ON
#Fixed Supply: ON
#Voltage: 3.3 V Readback: 3.331 V
#Positive Supply: ON
#Voltage: 3.7 V Readback: 3.688 V
#Current: 40 mA Readback: 27 mA
#Negative Supply: ON
#Voltage: -3.7 V Readback: -3.668 V
#Current: -40 mA Readback: 0 A
#Reference 1: ON
#Voltage: 0 V
#Reference 2: ON
#Voltage: 0 V

Time (s),Channel 1 (V),Channel 2 (V)
-4.096,0.6756348768059011,0.4153588554918433
-4.0955,0.5689331282291716,0.584905069974368
-4.095,0.5049120790831729,0.7226613692415543
-4.0945,0.7183155762366316,0.5637117931641874
-4.094,1.411876941985373,0.1080563417424021
-4.0935,1.667961138569494,-0.5913217929997086
-4.093,0.6863050516635838,-1.301296566145281
-4.0925,-0.2953510352423265,-1.619195718300015
-4.092,-0.5194247072543995,-1.163540266877449
-4.0915,-0.3487019095316325,-0.4429688553267188
-4.091,-0.07127736323188383,0.13984625695749
-4.0905,0.1527963087795875,0.489535324328131
-4.09,0.3021787567870086,0.6166949851900245
-4.0895,0.3661998059331045,0.627291623595192
-4.089,0.3982103305061233,0.5531151547590875
-4.0885,0.3875401556484697,0.4683420475176805
-4.088,0.3555296310754218,0.3941655786815084
-4.0875,0.3021787567870571,0.3623756634660351
-4.087,0.2488278824984692,0.4259554938972034
-4.0865,0.1101156093487211,0.6378882620003594
-4.086,-0.4554036581079445,0.5531151547590971
-4.0855,-1.223656247862269,0.4047622170860879
-4.085,-1.949228138184029,-0.2416327256285375
-4.0845,-2.109280761049123,-0.6231117082142181
-4.084,-1.341028171295614,-0.4747587705420958
-4.0835,-0.7861790786966207,-0.3370024712750445
-4.083,-0.7648387289812555,-0.6231117082145651
-4.0825,-0.2846808603852067,-0.4005823017058756
-4.082,0.07810508477567314,-0.2098428104130352
-4.0815,0.3128489316446912,-0.07208651114585861
-4.081,0.5475927785134959,0.1610395337676129
-4.0805,0.825017324813458,0.03387987290581572
-4.08,0.8463576745288233,0.03387987290581572
-4.0795,0.718315576236748,0.2458126410089716
-4.079,0.6116138276597566,0.4471487707074805
-4.0785,0.5582629533713921,0.5955017083796896
-4.078,0.6116138276597566,0.5531151547590585
-4.0775,0.4515612047938281,-0.1356663415776342
-4.077,-0.3593720843893152,-0.9833974139902578
-4.0765,-1.277007122149188,-1.629792356704883
-4.076,-1.949228138183864,-1.947691508860128
-4.0755,-1.767835165603424,-1.545019249464132
-4.075,-1.084943974711735,-0.6654982618352349
-4.0745,-0.4020527838196187,0.1080563417424214
-4.074,0.0674349099179905,0.5849050699745222
-4.0735,0.3341892813600565,0.7862411996727035
-4.073,0.4408910299367859,0.7862411996727035
-4.0725,0.4622313796522482,0.6908714540261965
-4.072,0.4408910299368829,0.5425185163538525
-4.0715,0.3982103305061912,0.4047622170868012
-4.071,0.3341892813599789,0.3199891098453267
-4.0705,0.2488278824985954,0.309392471440169
-4.07,0.142126133921866,0.4365521323020625
-4.0695,-0.2846808603862159,0.2776025562241366
-4.069,-1.031593100423322,-0.3052125560595421
-4.0685,-1.714484291315011,-0.9728007755850904
-4.068,-2.119950935906437,-1.333086481360417
-4.0675,-1.554431668449771,-0.9304142219644207
-4.067,-0.7861790786966207,-0.4429688553267188
-4.0665,-0.295351035243297,-0.2522293640339363
-4.066,-0.3807124341046804,-0.5065486857577234
-4.0655,-0.03926683865883591,-0.2734226408440398
-4.065,0.1954770082099687,-0.1674562567924619
-4.0645,0.3661998059331045,-0.02969995752518888
-4.064,0.6863050516635838,0.01268659609548085
-4.0635,0.8250173248133319,-0.06148987274062372
-4.063,0.7289857510941978,0.01268659609563506
-4.0625,0.6009436528021226,0.1822328105781598
-4.062,0.5262524287984121,0.3517790250606845
-4.0615,0.5369226036563954,0.5001319627332695
-4.061,0.942389248247967,0.5955017083796896
-4.0605,1.56125938999356,0.849821030103708
-4.06,1.027750647108332,0.1822328105772538
-4.0595,-0.1779791118087102,-0.8138511995075789
-4.059,-1.052933450138687,-1.449649503817625
-4.0585,-1.020922925565668,-1.131750351662891
-4.058,-0.6047861061160158,-0.4429688553267188
-4.0575,-0.1673089369510276,0.1822328105781598
-4.057,0.1527963087791605,0.6166949851896294
-4.0565,0.3341892813600565,0.8604176685088755
-4.056,0.4195506802215176,0.9451907757502149
-4.0555,0.4302208550791906,0.9557874141553727
-4.055,0.4088805053637962,0.9239974989398704
-4.0545,0.3661998059331045,0.9134008605347127
-4.054,0.3021787567870668,0.9345941373450282
-4.0535,0.2274875327829681,1.093543713422665
-4.053,-0.06060718837420119,1.210106735879401
-4.0525,-0.7434983792658902,0.9663840525605498
-4.052,-1.437059745015708,0.7120647308358375
-4.0515,-1.927887788468663,-0.05089323433552374
-4.051,-1.661133417026597,-0.3899856633008816
-4.0505,-0.9569018764201837,-0.2840192792493036
-4.05,-0.2846808603855366,-0.06148987274069118
-4.0495,-0.391382608962363,-0.4429688553267188
-4.049,-0.1993194615242502,-0.4429688553267188
-4.0485,0.05676473506044372,-0.2946159176542783
-4.048,0.2061471830678648,-0.1886495336027004
-4.0475,0.4729015545096882,-0.1250697031717536
-4.047,0.8676980242441789,-0.2946159176543168
-4.0465,0.857027849386506,-0.2310360872233701
-4.046,0.7076454013790849,0.01268659609525918
-4.0455,0.5796033030866894,0.2670059178196727
-4.045,0.5049120790829789,0.457745409112513
-4.0445,0.5262524287983441,0.3305857482505039
-4.044,0.6116138276593878,-0.4853554089481691
-4.0435,0.1527963087794516,-1.34368311976595
-4.043,-0.8822106524157645,-1.937094870455327
-4.0425,-1.703814116456581,-2.170220915368799
-4.042,-1.586442193022819,-1.576809164679634
-4.0415,-0.9675720512772257,-0.6125150698093976
-4.041,-0.3487019095321954,0.1822328105774369
-4.0405,0.08877525963357898,0.6802748156212315
-4.04,0.3341892813600565,0.9028042221295453
-4.0395,0.4408910299367859,0.9239974989398607
-4.039,0.4622313796522288,0.8392243916984345
-4.0385,0.4408910299368829,0.7226613692416989
-4.038,0.3875401556485182,0.6060983467849631
-4.0375,0.334189281360008,0.5319218779486947
-4.037,0.2808384070716433,0.5425185163538525
-4.0365,0.1527963087794516,0.6696781772158616
-4.036,-0.3913826089630423,0.3623756634653604
-4.0355,-1.138294849000148,-0.3475991096802118
-4.035,-1.693143941599645,-1.078767159636765
-4.0345,-1.671803591884299,-1.396666311791499
-4.034,-1.010252750707956,-1.068170521231597
-4.0335,-0.3273615598162672,-0.5065486857577234
-4.033,0.1954770082097067,-0.1250697031720427
-4.0325,0.206147183067564,-0.1674562567926932
-4.032,-0.124628237520297,-0.5277419625680583
-4.0315,0.06743490991781581,-0.4323722169216381
-4.031,0.1741366584951469,-0.3687923864906142
-4.0305,0.5369226036560266,-0.4429688553267188
-4.03,0.7716664505248313,-0.2416327256287207
-4.0295,0.7183155762365151,0.002089957690496535
-4.029,0.5902734779444399,0.2034260873884947
-4.0285,0.4942419042252961,0.3729723018711736
-4.028,0.5475927785142043,0.3941655786810073
-4.0275,1.091771696255524,-0.1568596183871981
-4.027,1.177133095116985,-0.9516074987747555
-4.0265,0.1207857842073645,-1.661582271920328
-4.026,-1.020922925565639,-2.021867977696666
-4.0255,-1.575772018165136,-1.968884785670829
-4.025,-1.244996597577275,-1.184733543689152
-4.0245,-0.6581369804039632,-0.2946159176537771
-4.024,-0.1459685872356623,0.3623756634660061
-4.0235,0.2061471830675446,0.7438546460516868
-4.023,0.376869980790855,0.9028042221295549
-4.0225,0.4515612047945656,0.9134008605347127
-4.022,0.4515612047945656,0.8498210301037659
-4.0215,0.4088805053637865,0.7756445612674975
-4.021,0.3555296310754218,0.7332580076468663
-4.0205,0.3021787567870086,0.7226613692416989
-4.02,0.2168173579251205,0.8392243916984731
-4.0195,-0.2526703358124887,0.7650479228623686
-4.019,-0.9995825758502737,0.13984625695749
-4.0185,-1.714484291314361,0.09745970333685887
-4.018,-2.269333383914508,-0.1038764263613609
-4.0175,-2.03458953704549,-0.326405832869877
-4.017,-1.148965023858636,-0.1992461720079835
-4.0165,-0.423393133534916,-0.01910331911989616
-4.016,0.1207857842064037,0.1186529801471552
-4.0155,0.4302208550789189,0.2458126410090487
-4.015,-0.01792648894356767,-0.315809194464883
-4.0145,-0.124628237520297,-0.5065486857577234
-4.014,0.1848068333522181,-0.6337083466196168
-4.0135,0.4942419042254223,-0.7396747306710696
-4.013,0.6329541773751706,-0.3687923864905467
-4.0125,0.6649647019482183,0.08686306493165288
-4.012,0.5582629533713532,0.3729723018713181
-4.0115,0.5155822539406614,0.5319218779486851
-4.011,0.8783681991018712,0.4153588554918433
-4.0105,1.369196242554826,0.4047622170866855
-4.01,0.707645401378949,-0.3899856633008816
-4.0095,-0.4447334832507763,-1.216523458903942
-4.009,-1.319687821579957,-1.725162102351515
-4.0085,-1.234326422718846,-1.333086481360089
-4.008,-0.7434983792658902,-0.570128516188728
-4.0075,-0.2313299860975893,0.1080563417413709
-4.007,0.1314559590642707,0.5531151547592417
-4.0065,0.3341892813600565,0.7968378380778709
-4.006,0.4302208550792003,0.8816109453192104
-4.0055,0.4515612047945365,0.8816109453191815
-4.005,0.4195506802215176,0.849821030103708
-4.0045,0.3661998059331045,0.8286277532933731
-4.004,0.3235191065023253,0.8392243916986369
-4.0035,0.2701682322139607,0.9451907757502149
-4.003,-0.02859666380115328,1.061753798207057
-4.0025,-0.7968492535536047,0.3941655786821155
-4.002,-1.533091318734406,-0.6019184314042303
-4.0015,-2.013249187330125,-1.354279758171118
-4.001,-1.746494815888301,-1.290699927740171
-4.0005,-1.020922925565047,-0.7290780922657383
-4,-0.3700422592469978,-0.1780528951975329
-3.9995,0.1634664836371343,0.1186529801471552
-3.999,0.4835717293676135,0.2034260873884947
-3.9985,0.6116138276598051,0.1292496185523226
-3.998,0.6329541773751706,0.05507314971615059
-3.9975,0.3768699807907871,-0.3052125560595421
-3.997,0.0674349099179905,-0.9198175835592532
-3.9965,0.2381577076409128,-0.7078848154559045
-3.996,0.2488278824985954,-0.4853554089473885
-3.9955,0.291508581929326,-0.3052125560595421
-3.995,0.4302208550792003,-0.04029659593035631
-3.9945,0.6969752265212663,-0.2840192792492073
-3.994,1.411876941986003,-0.5065486857577234
-3.9935,1.475897991132099,-0.7078848154559045
-3.993,0.4729015545099309,-1.301296566145281
-3.9925,-0.7328282044082075,-1.809935209593318
-3.992,-1.202315898146244,-1.693372187136476
-3.9915,-0.9142211769888124,-0.8986243067489184
-3.991,-0.423393133535411,-0.07208651114585861
-3.9905,-0.007256314085787988,0.5425185163538525
-3.99,0.2488278824985954,0.9028042221295453
-3.9895,0.3875401556484697,1.082947075017392
-3.989,0.4408910299368829,1.135930267043229
-3.9885,0.4408910299368829,1.125333628638062
-3.988,0.3982103305061524,1.114736990232894
-3.9875,0.3341892813600565,1.114736990232894
-3.987,0.2808384070716433,1.199510097474233
-3.9865,0.1527963087794516,1.37965295036208
-3.986,-0.3593720843893152,0.9663840525605498
-3.9855,-0.9569018764195432,0.04447651131098315
-3.985,-1.522421143876723,-0.9304142219644207
-3.9845,-1.682473766741963,-1.248313374119443
-3.984,-1.202315898146244,-0.9410108603695881
-3.9835,-0.5407650569699201,-0.5065486857577234
-3.983,0.03542438534494258,-0.2628260024388724
-3.9825,0.3982103305061524,-0.06148987274069118
-3.982,0.5902734779444399,0.05507314971615059
-3.9815,0.6542945270905358,0.06566978812131802
-3.981,0.6756348768059011,-0.008506680714854012
-3.9805,0.9637295979633325,-0.2840192792492073
-3.98,0.5475927785137094,-0.9516074987747555
-3.9795,0.1741366584948169,-1.036380606016095
-3.979,0.1314559590640864,-0.6443049850249
-3.9785,0.1207857842064037,-0.2840192792492073
-3.978,0.3448594562177392,-0.01910331912002144
-3.9775,1.059761171682476,-0.04029659593035631
-3.977,1.892034810581722,-0.1356663415768632
-3.9765,1.828013761435626,-0.6866915386455698
-3.976,0.6542945270905358,-1.248313374119443
-3.9755,-0.2846808603855366,-1.396666311791788
-3.975,-0.4554036581084589,-0.792657922697244
-3.9745,-0.2633405106701714,-0.05089323433552374
-3.974,-0.007256314085787988,0.5319218779486851
-3.9735,0.2061471830678648,0.8816109453192104
-3.973,0.3341892813600565,1.029963882991555
-3.9725,0.3875401556484697,1.040560521396722
-3.972,0.3982103305061524,0.9981739677760521
-3.9715,0.3768699807907871,0.9345941373450475
-3.971,0.3341892813600565,0.9028042221295453
-3.9705,0.2808384070716433,0.92399749893988
-3.97,0.2168173579255475,1.082947075017392
-3.9695,-0.2846808603855366,0.92399749893988
-3.969,-1.1062843244271,0.13984625695749
-3.9685,-1.714484291315011,-0.7396747306714069
-3.968,-1.991908837614759,-1.280103289334946
-3.9675,-1.586442193022819,-1.078767159636765
-3.967,-0.8288597781273515,-0.5277419625680583
-3.9665,-0.156638762093345,-0.1144730647665284
-3.966,0.2808384070716433,0.09745970333682032
-3.9655,0.5155822539406614,0.1080563417419877
-3.965,0.6329541773751706,0.002089957690313421
-3.9645,0.6436243522328531,-0.05089323433552374
-3.964,0.79300680024041,-0.1568596183871981
-3.9635,0.9317190733902845,-0.2734226408440398
-3.963,0.7289857510943143,-0.2840192792492073
-3.9625,-0.03926683865883591,-0.7502713690765743
-3.962,-0.06060718837420119,-0.8244478379127463
-3.9615,0.07810508477567314,-0.8562377531282487
-3.961,0.3128489316446912,-1.110557074852267
-3.9605,0.79300680024041,-1.280103289334946
-3.96,0.2274875327832301,-1.725162102351978
-3.9595,-0.7755089038389382,-2.106641084938006
-3.959,-1.533091318734406,-2.223204107394847
-3.9585,-1.373038695869166,-1.51322933424863
-3.958,-0.807519428411986,-0.5277419625680583
-3.9575,-0.2526703358124887,0.2776025562246667
-3.957,0.142126133921769,0.8074344764830383
-3.9565,0.3661998059331045,1.072350436612224
-3.956,0.4622313796522482,1.167720182258731
-3.9555,0.4622313796522482,1.146526905448396
-3.955,0.4302208550792003,1.082947075017392
-3.9545,0.3661998059331045,1.029963882991555
-3.954,0.3021787567870086,1.019367244586387
-3.9535,0.2594980573562781,1.114736990232894
-3.953,-0.007256314085787988,1.146526905448396
-3.9525,-0.7328282044082075,0.8922075837243778
-3.952,-1.415719395299897,0.6060983467848571
-3.9515,-1.575772018165136,-0.3052125560595421
-3.951,-1.714484291315011,-1.110557074852267
-3.9505,-1.373038695869166,-1.142346990067769
-3.95,-0.754168554123573,-0.7396747306714069
-3.9495,-0.156638762093345,-0.2946159176543747
-3.949,0.2701682322139607,0.05507314971615059
-3.9485,0.5049120790829789,0.2246193641988295
-3.948,0.6009436528021226,0.2034260873884947
-3.9475,0.6969752265212663,0.08686306493165288
-3.947,0.8890383739595538,-0.1356663415768632
-3.9465,0.8463576745288233,-0.1144730647665284
-3.946,0.6969752265212663,0.02328323450064829
-3.9455,0.5475927785137094,0.1080563417419877
-3.945,-0.1139580626626144,-0.4429688553267188
-3.9445,-0.124628237520297,-0.718481453861072
-3.944,0.6969752265212663,-0.1144730647665284
-3.9435,0.8036769750980928,-0.2628260024388724
-3.943,-0.04993701351651855,-0.8880276683437509
-3.9425,-1.06360362499637,-1.534422611058964
-3.942,-1.415719395299897,-1.640388995110639
-3.9415,-1.052933450138687,-0.9833974139902578
-3.941,-0.5087545323968721,-0.1780528951975329
-3.9405,-0.06060718837420119,0.4683420475176805
-3.94,0.2381577076409128,0.8816109453192104
-3.9395,0.3982103305061524,1.125333628638062
-3.939,0.4622313796522482,1.231300012689736
-3.9385,0.4622313796522482,1.263089927905238
-3.938,0.408880505363835,1.273686566310405
-3.9375,0.3341892813600565,1.305476481525908
-3.937,0.2701682322139607,1.347863035146577
-3.9365,0.142126133921769,1.42203950398275
-3.936,-0.5300948821122373,0.8922075837243778
-3.9355,-1.405049220442214,0.1080563417419877
-3.935,-2.045259711903173,-0.8456411147230812
-3.9345,-2.119950935906951,-1.576809164679634
-3.934,-1.490410619303675,-1.460246142222792
-3.9335,-0.6474668055467465,-0.8350444763179138
-3.933,0.02475421048725994,-0.2734226408440398
-3.9325,0.4302208550792003,0.03387987290581572
-3.932,0.6329541773751706,0.1504428953626575
-3.9315,0.7183155762366316,0.1080563417419877
-3.931,0.7289857510943143,0.01268659609548085
-3.9305,1.049090996824793,-0.3793890248957141
-3.93,1.315845368266859,-0.7608680074817418
-3.9295,1.19847344483235,-0.6760949002404023
-3.929,0.942389248247967,-0.3899856633008816
-3.9285,0.6969752265212663,-0.09327978795619347
-3.928,0.6329541773751706,0.05507314971615059
-3.9275,0.6116138276598051,-0.4111789401112165
-3.927,0.3555296310754218,-0.9198175835592532
-3.9265,-0.4554036581084589,-1.545019249464132
-3.926,-1.501080794161358,-2.149027638558676
-3.9255,-1.799845690176472,-2.085447808127671
-3.925,-1.244996597576974,-1.205926820498774
-3.9245,-0.6154562809736985,-0.3370024712750445
-3.924,-0.1139580626626144,0.2987958330350016
-3.9235,0.2061471830678648,0.6802748156210291
-3.923,0.3661998059331045,0.8710143069140429
-3.9225,0.4408910299368829,0.9345941373450475
-3.922,0.4515612047945656,0.92399749893988
-3.9215,0.4195506802215176,0.9028042221295453
-3.921,0.3555296310754218,0.9134008605347127
-3.9205,0.3021787567870086,0.9663840525605498
-3.92,0.2274875327832301,1.114736990232894
-3.9195,-0.2526703358124887,0.8816109453192104
-3.919,-1.1062843244271,0.2140227257936621
-3.9185,-1.789175515318789,-0.6549016234300674
-3.918,-2.173301810195364,-1.354279758171118
-3.9175,-2.173301810195364,-1.545019249464132
-3.917,-1.405049220442214,-1.004590690800593
-3.9165,-0.5621054066852853,-0.3158091944647096
-3.916,0.07810508477567314,0.13984625695749
-3.9155,0.4622313796522482,0.383568940276341
-3.915,0.6329541773751706,0.4047622170866759
-3.9145,0.6649647019482183,0.2987958330350016
-3.914,0.825017324813458,0.05507314971615059
-3.9135,0.9317190733902845,-0.1250697031716958
-3.913,0.8356874996711408,-0.08268314955102604
-3.9125,0.6863050516635838,0.05507314971615059
-3.912,0.5796033030867573,0.1716361721729923
-3.9115,0.5689331282290746,0.1928294489833272
-3.911,0.7823366253827275,-0.4111789401112165
-3.9105,0.6542945270905358,-1.481439419033127
-3.91,0.1954770082101822,-2.032464616101834
-3.9095,-0.754168554123573,-2.307977214636187
-3.909,-1.415719395299897,-2.233800745800015
-3.9085,-1.148965023857831,-1.364876396576285
-3.908,-0.6474668055467465,-0.4323722169215513
-3.9075,-0.1886492866663929,0.2670059178194992
-3.907,0.142126133921769,0.701468092431364
-3.9065,0.3235191065023739,0.9028042221295453
-3.906,0.4195506802215176,0.9663840525605498
-3.9055,0.4408910299368829,0.9451907757502149
-3.905,0.4302208550792003,0.8922075837243778
-3.9045,0.3875401556484697,0.8710143069140429
-3.904,0.3128489316446912,0.8710143069140429
-3.9035,0.2488278824985954,0.9557874141553824
-3.903,-0.02859666380115328,0.9451907757502149
-3.9025,-0.839529952985034,0.1292496185523226
-3.902,-1.67180359188428,-0.8880276683437509
-3.9015,-2.173301810195364,-1.555615887869299
-3.901,-1.810515865034154,-1.322489842955616
-3.9005,-1.020922925565639,-0.6760949002404023
-3.9,-0.2633405106701714,-0.08268314955102604
-3.8995,0.2808384070716433,0.2246193641988295
-3.899,0.5689331282290746,0.309392471440169
-3.8985,0.6863050516635838,0.2776025562246667
-3.898,0.6969752265212663,0.1716361721729923
-3.8975,0.7396559259519968,0.03387987290581572
-3.897,0.8783681991018712,-0.1780528951975329
-3.8965,0.8356874996711408,-0.1780528951975329
-3.896,0.707645401378949,-0.06148987274069118
-3.8955,0.6009436528021226,0.09745970333682032
-3.895,0.4408910299368829,0.13984625695749
-3.8945,0.01408403562957729,-0.7502713690765743
-3.894,0.707645401378949,-1.502632695843462
-3.8935,0.8783681991018712,-2.17022091536901
-3.893,-0.1352984123779797,-2.58348981317054
-3.8925,-1.116954499284783,-2.551699897955038
-3.892,-1.202315898146244,-1.767548655972648
-3.8915,-0.807519428411986,-0.7290780922662394
-3.891,-0.3380317346739499,0.1186529801471552
-3.8905,0.03542438534494258,0.6696781772158616
-3.89,0.2701682322139607,0.9663840525605498
-3.8895,0.3982103305061524,1.072350436612224
-3.889,0.4408910299368829,1.082947075017392
-3.8885,0.4408910299368829,1.040560521396722
-3.888,0.3982103305061524,1.00877060618122
-3.8875,0.3128489316446912,0.9875773293708847
-3.887,0.2594980573562781,1.019367244586387
-3.8865,0.1207857842064037,1.125333628638062
