Class_11_Cell_phone_Call/Class_11_Cell_phone_Call_UZ_4.csv

#Digilent WaveForms Oscilloscope Acquisition
#Device Name: EExplorer
#Serial Number: SN:210151A2B84A
#Date Time: 2020-12-03 12:25:33.282
#Sample rate: 2000Hz
#Samples: 16384
#Trigger: Source: Channel 1 Type: Edge Condition: Rising Level: 0 V Hyst.: Auto HoldOff: 0 s
#Channel 1: Range: 1 V/div Offset: 0 V Attenuation: 1 X
#Channel 2: Range: 1 V/div Offset: 0 V Attenuation: 1 X
#Power Supplies: ON
#Fixed Supply: ON
#Voltage: 3.3 V Readback: 3.331 V
#Positive Supply: ON
#Voltage: 3.7 V Readback: 3.659 V
#Current: 40 mA Readback: 18 mA
#Negative Supply: ON
#Voltage: -3.7 V Readback: -3.901 V
#Current: -40 mA Readback: 0 A
#Reference 1: ON
#Voltage: 0 V
#Reference 2: ON
#Voltage: 0 V

Time (s),Channel 1 (V),Channel 2 (V)
-4.096,0.3021787567870086,0.8180311148882058
-4.0955,0.7823366253822908,0.4153588554922095
-4.095,1.497238340847949,-0.474758770542992
-4.0945,2.030747083731597,-1.322489842955616
-4.094,2.158789182023672,-1.852321763213506
-4.0935,1.934715510011958,-1.661582271920251
-4.093,1.390536592270638,-0.8668343915334161
-4.0925,0.867698024244664,-0.1038764263620547
-4.092,0.4515612047943229,0.3941655786816916
-4.0915,0.1848068333524996,0.5955017083796896
-4.091,0.04609456020262521,0.6166949851900245
-4.0905,-0.02859666380127944,0.5637117931641007
-4.09,-0.1673089369510276,0.4683420475176805
-4.0895,-0.1993194615240755,0.4047622170866759
-4.089,-0.1459685872357109,0.3835689402763603
-4.0885,-0.08194753808956648,0.383568940276341
-4.088,-0.02859666380115328,0.4047622170866759
-4.0875,-0.08194753808951796,0.4153588554918337
-4.087,-0.4874141826823803,0.05507314971534103
-4.0865,-1.447729919872945,-0.8350444763179138
-4.086,-2.514747405640239,-1.968884785669798
-4.0855,-2.749491252510013,-2.339767129851487
-4.085,-2.514747405641209,-2.117237723343173
-4.0845,-1.693143941600393,-1.152943628473814
-4.084,-0.8075194284115007,-0.1038764263607537
-4.0835,-0.274010685527854,0.5637117931641874
-4.083,0.00341386077189465,0.9134008605347127
-4.0825,0.1207857842064231,1.072350436612263
-4.082,0.142126133921769,1.114736990232894
-4.0815,0.1314559590640864,1.082947075017392
-4.081,0.1314559590640864,1.040560521396761
-4.0805,0.142126133921769,0.9769806909657173
-4.08,0.1634664836371343,0.9134008605347127
-4.0795,0.1954770082101531,0.8498210301037659
-4.079,0.4088805053643979,0.4895353243271865
-4.0785,1.027750647109428,-0.4217755785163839
-4.078,1.518578690562383,-1.301296566144481
-4.0775,1.902704985439492,-1.937094870455346
-4.077,1.998736559158548,-1.958288147265661
-4.0765,1.635950613997669,-1.152943628473669
-4.076,1.091771696255097,-0.3581957480848492
-4.0755,0.6222840025174878,0.2246193641988295
-4.075,0.2808384070716433,0.5213252395435176
-4.0745,0.07810508477559551,0.5955017083796703
-4.074,-0.007256314085787988,0.5743084315693548
-4.0735,-0.156638762093345,0.5425185163538525
-4.073,-0.316691384958439,0.510728601138379
-4.0725,-0.2846808603855366,0.4683420475176805
-4.072,-0.1779791118087102,0.4365521323021782
-4.0715,-0.08194753808965383,0.4259554938970204
-4.071,-0.03926683865921439,0.4365521323018601
-4.0705,-0.4554036581084589,0.08686306493165288
-4.07,-1.863866739321287,-1.237716735713072
-4.0695,-2.482736881068461,-1.937094870455751
-4.069,-2.813512301656323,-2.403346960282694
-4.0685,-2.568098279929622,-2.17022091536901
-4.068,-1.671803591883504,-1.121153713256509
-4.0675,-0.8181896032696687,-0.1038764263613609
-4.067,-0.2953510352432193,0.55311515475902
-4.0665,-0.007256314085671534,0.9239974989400246
-4.066,0.1207857842064037,1.082947075017392
-4.0655,0.1527963087794516,1.125333628638062
-4.065,0.1421261339217787,1.093543713422588
-4.0645,0.1314559590640864,1.040560521396722
-4.064,0.1314559590640864,0.9769806909657173
-4.0635,0.1527963087794322,0.9028042221296128
-4.063,0.1634664836371634,0.8286277532932574
-4.0625,0.1954770082101822,0.701468092431364
-4.062,0.6756348768054643,0.02328323450126513
-4.0615,1.315845368267141,-0.9092209451547122
-4.061,1.625280439139656,-1.598002441489969
-4.0605,1.646620788855021,-1.449649503817625
-4.06,1.273164668835721,-0.7714646458863117
-4.0595,0.825017324813458,-0.1144730647665284
-4.059,0.4515612047945656,0.3199891098453364
-4.0585,0.1954770082104151,0.5213252395433345
-4.058,0.05676473506030786,0.5637117931641874
-4.0575,0.00341386077189465,0.5319218779486851
-4.057,0.00341386077189465,0.4789386859228961
-4.0565,0.01408403562957729,0.4471487707073456
-4.056,0.01408403562957729,0.4259554938970107
-4.0555,0.02475421048725023,0.4259554938970107
-4.055,0.02475421048725023,0.4471487707073745
-4.0545,0.01408403562957729,0.4789386859228479
-4.054,-0.2633405106699191,0.37297230187127
-4.0535,-1.116954499285908,-0.389985663302067
-4.053,-2.354694782775969,-1.693372187136476
-4.0525,-2.568098279929622,-2.149027638558676
-4.052,-2.674800028505963,-2.339767129851121
-4.0515,-2.141291285622316,-1.714565463946811
-4.051,-1.223656247861609,-0.6125150698093976
-4.0505,-0.5194247072551953,0.2670059178186993
-4.05,-0.1352984123779797,0.775644561267536
-4.0495,0.0674349099179905,1.029963882991555
-4.049,0.142126133921701,1.125333628637975
-4.0485,0.1527963087794322,1.125333628638023
-4.048,0.1314559590640864,1.082947075017392
-4.0475,0.1421261339217593,1.019367244586445
-4.047,0.163466483637144,0.9451907757501474
-4.0465,0.1741366584948169,0.8710143069140429
-4.046,0.2701682322138733,0.7438546460521495
-4.0455,0.8143471499564449,0.10805634174113
-4.045,1.550589215135878,-0.8350444763179138
-4.0445,2.169459356881471,-1.619195718300304
-4.044,2.574926001473227,-2.127834361747974
-4.0435,2.372192679177441,-1.725162102351978
-4.043,1.742652362574165,-0.8350444763179138
-4.0425,1.07043134654077,-0.06148987274139472
-4.042,0.5475927785137094,0.4365521323021782
-4.0415,0.2061471830678648,0.6590815388106942
-4.041,0.03542438534509784,0.6802748156210098
-4.0405,-0.03926683865890385,0.616694985189986
-4.04,-0.1139580626626144,0.5743084315693548
-4.0395,-0.1139580626626144,0.510728601138408
-4.039,-0.08194753808952766,0.4471487707073071
-4.0385,-0.03926683865883591,0.4047622170866759
-4.038,-0.01792648894349003,0.3835689402763603
-4.0375,-0.1352984123785328,0.2881991946293619
-4.037,-0.7434983792658902,-0.2310360872233701
-4.0365,-1.938557963326346,-1.364876396576285
-4.036,-2.119950935906863,-1.756952017567596
-4.0355,-2.023919362187807,-1.88411167842949
-4.035,-1.618452717595867,-1.439052865412457
-4.0345,-0.924891351847126,-0.5383386009740448
-4.034,-0.3593720843893152,0.2458126410091644
-4.0335,-0.07127736323188383,0.6802748156210291
-4.033,0.06743490991786436,0.9134008605345006
-4.0325,0.1101156093487308,1.008770606181239
-4.032,0.1207857842064037,1.029963882991555
-4.0315,0.1101156093487308,1.008770606181239
-4.031,0.1101156093487502,0.9769806909656884
-4.0305,0.142126133921769,0.9451907757502149
-4.03,0.1634664836371149,0.892207583724426
-4.0295,0.216817357925926,0.8392243916981454
-4.029,0.6329541773751706,0.4047622170866759
-4.0285,1.390536592270638,-0.5277419625680583
-4.028,1.924045335154906,-1.375473034981944
-4.0275,2.073427783162327,-1.915901593644992
-4.027,1.902704985439405,-1.693372187136476
-4.0265,1.401206767128777,-0.8562377531290101
-4.026,0.825017324813458,-0.09327978795619347
-4.0255,0.3875401556484697,0.383568940276341
-4.025,0.1207857842066463,0.6166949851898125
-4.0245,-0.007256314085817101,0.6696781772158135
-4.024,-0.03926683865883591,0.6166949851900245
-4.0235,-0.1352984123778923,0.5531151547590778
-4.023,-0.220659811239402,0.4895353243279671
-4.0225,-0.1779791118087102,0.4365521323021782
-4.022,-0.1139580626626726,0.4047622170867048
-4.0215,-0.04993701351652826,0.3941655786814988
-4.021,-0.06060718837420119,0.383568940276341
-4.0205,-0.8502001278427167,-0.3475991096802118
-4.02,-1.746494815888253,-1.343683119766384
-4.0195,-1.959898313041711,-1.820531847998485
-4.019,-2.301343908487556,-2.286783937825852
-4.0185,-2.429386006779631,-2.307977214636168
-4.018,-1.778505340461106,-1.42845622700729
-4.0175,-1.031593100423322,-0.4429688553267188
-4.017,-0.4660738329666559,0.2881991946291692
-4.0165,-0.1139580626624397,0.7544512844574035
-4.016,0.07810508477567314,0.9769806909657173
-4.0155,0.1421261339217108,1.06175379820698
-4.015,0.1527963087794516,1.061753798207018
-4.0145,0.1527963087794516,1.019367244586387
-4.014,0.1634664836371246,0.966384052560598
-4.0135,0.1741366584948557,0.9028042221294778
-4.013,0.2168173579255475,0.8286277532933731
-4.0125,0.4942419042252961,0.5107286011383502
-4.012,1.155792745401969,-0.3370024712757673
-4.0115,1.539919040278195,-1.131750351662602
-4.011,1.870694460866357,-1.725162102351978
-4.0105,2.009406734016105,-1.756952017567452
-4.01,1.689301488285752,-1.036380606016095
-4.0095,1.166462920259302,-0.326405832869877
-4.009,0.6649647019486744,0.1928294489828549
-4.0085,0.3128489316444972,0.4577454091125998
-4.008,0.09944543449103843,0.55311515475902
-4.0075,0.003413860771981997,0.5637117931641777
-4.007,-0.06060718837425941,0.5319218779486562
-4.0065,-0.124628237520297,0.5001319627331828
-4.006,-0.1032878878049318,0.4683420475176805
-4.0055,-0.04993701351648944,0.4365521323021782
-4.005,-0.01792648894347063,0.4365521323021782
-4.0045,-0.007256314085787988,0.4471487707073456
-4.004,-0.4340633083943067,0.07626642652532895
-4.0035,-1.767835165603424,-1.195330182093607
-4.003,-2.365364957633652,-1.88411167842949
-4.0025,-2.546757930214092,-2.297380576230644
-4.002,-2.653459678791083,-2.424540237093029
-4.0015,-2.07727023647622,-1.682775548731308
-4.001,-1.234326422720058,-0.6231117082155286
-4.0005,-0.5941159312579452,0.1928294489838187
-4,-0.1673089369510276,0.7332580076468663
-3.9995,0.05676473506030786,1.00877060618122
-3.999,0.142126133921769,1.104140351827727
-3.9985,0.1634664836371343,1.104140351827727
-3.998,0.1527963087794516,1.051157159801889
-3.9975,0.1527963087794516,0.9875773293708847
-3.997,0.1634664836371343,0.9028042221295453
-3.9965,0.1848068333524996,0.8180311148882058
-3.996,0.2488278824985954,0.7120647308365314
-3.9955,0.7503261008096795,0.1504428953626575
-3.995,1.422547116843686,-0.7502713690765743
-3.9945,1.838683936293309,-1.492036057438295
-3.994,1.913375160297087,-1.42845622700729
-3.9935,1.507908515705147,-0.6654982618352349
-3.993,0.9850699476786977,0.01268659609548085
-3.9925,0.5689331282290746,0.4365521323021782
-3.992,0.2701682322139607,0.5637117931641874
-3.9915,0.08877525963335578,0.55311515475902
-3.991,0.00341386077189465,0.5107286011383502
-3.9905,-0.02859666380115328,0.457745409112513
-3.99,-0.07127736323188383,0.4365521323021782
-3.9895,-0.08194753808956648,0.4153588554918433
-3.989,-0.04993701351651855,0.4259554938970107
-3.9885,-0.007256314085787988,0.4471487707073456
-3.988,0.01408403562957729,0.4895353243280153
-3.9875,-0.1032878878049318,0.4471487707073456
-3.987,-1.202315898146244,-0.5595318777835605
-3.9865,-2.280003558772191,-1.608599079895136
-3.986,-2.824182476514005,-2.159624276963843
-3.9855,-3.122947372529119,-2.466926790713698
-3.985,-2.557428105071939,-1.894708316834657
-3.9845,-1.543761493592088,-0.7608680074817418
-3.984,-0.7328282044082075,0.1610395337678249
-3.9835,-0.2313299860971235,0.7544512844572011
-3.983,0.04609456020262521,1.072350436612224
-3.9825,0.1527963087794516,1.199510097474233
-3.982,0.1741366584948169,1.199510097474233
-3.9815,0.1634664836371343,1.157123543853563
-3.981,0.1527963087794516,1.082947075017392
-3.9805,0.1527963087794516,0.9981739677760521
-3.98,0.1634664836371343,0.9028042221295453
-3.9795,0.1954770082101822,0.8074344764830383
-3.979,0.5369226036560266,0.4153588554918433
-3.9785,1.326515543124542,-0.4959520473525559
-3.978,2.094768132877692,-1.364876396576285
-3.9775,2.468224252896585,-1.735758740757146
-3.977,2.08409795802001,-1.227120097309109
-3.9765,1.422547116843686,-0.5277419625680583
-3.976,0.8463576745288233,0.03387987290581572
-3.9755,0.4302208550792003,0.383568940276341
-3.975,0.1741366584948169,0.5319218779486851
-3.9745,0.05676473506030786,0.5425185163538525
-3.974,0.01408403562957729,0.4895353243280153
-3.9735,0.01408403562957729,0.3941655786815084
-3.973,0.01408403562957729,0.3199891098453364
-3.9725,0.02475421048725994,0.2881991946298341
-3.972,0.03542438534494258,0.309392471440169
-3.9715,0.02475421048725994,0.3411823866556712
-3.971,-0.02859666380115328,0.3729723018711736
-3.9705,-0.5087545323968721,0.04447651131098315
-3.97,-1.629122892453549,-1.046977244421262
-3.9695,-1.789175515318789,-1.375473034981453
-3.969,-1.810515865034154,-1.650985633515806
-3.9685,-1.991908837614759,-1.788741932782983
-3.968,-1.490410619303675,-1.068170521231597
-3.9675,-0.8288597781273515,-0.1780528951975329
-3.967,-0.3807124341046804,0.4683420475176805
-3.9665,-0.08194753808956648,0.8816109453192104
-3.966,0.0674349099179905,1.104140351827727
-3.9655,0.1207857842064037,1.178316820663898
-3.965,0.1314559590640864,1.178316820663898
-3.9645,0.1314559590640864,1.135930267043229
-3.964,0.1527963087794516,1.082947075017392
-3.9635,0.1634664836371343,1.00877060618122
-3.963,0.1954770082101822,0.9345941373450475
-3.9625,0.3982103305061524,0.6802748156210291
-3.962,1.113112045970889,-0.1462629799820306
-3.9615,1.76399271228953,-1.05757388282643
-3.961,2.180129531739154,-1.650985633515806
-3.9605,2.169459356881471,-1.163540266878104
-3.96,1.689301488285752,-0.3370024712750445
-3.9595,1.081101521397841,0.1716361721729923
-3.959,0.6009436528021226,0.3729723018711736
-3.9585,0.2701682322139607,0.4259554938970107
-3.958,0.08877525963335578,0.4153588554918433
-3.9575,0.00341386077189465,0.3623756634660061
-3.957,-0.04993701351651855,0.3517790250608387
-3.9565,-0.124628237520297,0.3729723018711736
-3.956,-0.1139580626626144,0.383568940276341
-3.9555,-0.06060718837420119,0.4047622170866759
-3.955,-0.01792648894347063,0.4471487707073456
-3.9545,-0.007256314085787988,0.5001319627331828
-3.954,-0.8928808272734472,-0.2416327256285375
-3.9535,-1.895877263895616,-1.258910012524611
-3.953,-2.418715831922065,-1.926498232050159
-3.9525,-2.685470203364131,-2.286783937825852
-3.952,-2.770831602225592,-2.138431000153508
-3.9515,-2.269333383914508,-1.481439419033127
-3.951,-1.437059745015262,-0.4959520473525559
-3.9505,-0.722158029550525,0.309392471440169
-3.95,-0.2313299860971235,0.849821030103708
-3.9495,0.03542438534494258,1.135930267043229
-3.949,0.1527963087794516,1.241896651094903
-3.9485,0.1741366584948169,1.241896651094903
-3.948,0.1741366584948169,1.178316820663898
-3.9475,0.1634664836371343,1.093543713422559
-3.947,0.1527963087794516,0.9981739677760521
-3.9465,0.1314559590640864,0.8922075837243778
-3.946,0.1527963087794516,0.7650479228623686
-3.9455,0.6329541773751706,0.2034260873884947
-3.945,1.379866417412955,-0.7290780922662394
-3.9445,1.796003236862578,-1.51322933424863
-3.944,1.966726034585501,-1.926498232050159
-3.9435,1.753322537431848,-1.449649503817625
-3.943,1.230483969405398,-0.6549016234300674
-3.9425,0.7183155762366316,-0.01910331912002144
-3.942,0.3235191065023739,0.3941655786815084
-3.9415,0.09944543449103843,0.5319218779486851
-3.941,-0.007256314085787988,0.5001319627331828
-3.9405,-0.03926683865883591,0.4365521323021782
-3.94,-0.1352984123779797,0.4683420475176805
-3.9395,-0.1459685872356623,0.4365521323021782
-3.939,-0.09261771294724913,0.3941655786815084
-3.9385,-0.03926683865883591,0.3623756634660061
-3.938,0.00341386077189465,0.3729723018711736
-3.9375,-0.1352984123779797,0.309392471440169
-3.937,-0.839529952985034,-0.3475991096802118
-3.9365,-1.981238662757077,-1.566212526274467
-3.936,-2.344024607918286,-2.096044446532838
-3.9355,-2.621449154218035,-2.392750321877526
-3.935,-2.301343908487556,-1.947691508860494
-3.9345,-1.437059745015262,-0.8456411147230812
-3.934,-0.7008176798351597,0.09745970333682032
-3.9335,-0.2420001609548061,0.7226613692416989
-3.933,0.02475421048725994,1.072350436612224
-3.9325,0.1314559590640864,1.231300012689736
-3.932,0.1634664836371343,1.263089927905238
-3.9315,0.1527963087794516,1.220703374284568
-3.931,0.1634664836371343,1.157123543853563
-3.9305,0.1848068333524996,1.082947075017392
-3.93,0.2061471830678648,0.9981739677760521
-3.9295,0.2381577076409128,0.9028042221295453
-3.929,0.6436243522328531,0.4683420475176805
-3.9285,1.390536592270638,-0.4429688553267188
-3.928,1.988066384300866,-1.301296566145281
-3.9275,2.329511979746711,-1.746355379162313
-3.927,2.094768132877692,-1.280103289334946
-3.9265,1.539919040278195,-0.5489352393783931
-3.926,0.9637295979633325,0.02328323450064829
-3.9255,0.5155822539406614,0.3623756634660061
-3.925,0.1954770082101822,0.5107286011383502
-3.9245,0.01408403562957729,0.4895353243280153
-3.924,-0.04993701351651855,0.4259554938970107
-3.9235,-0.1352984123779797,0.3941655786815084
-3.923,-0.1886492866663929,0.3623756634660061
-3.9225,-0.1352984123779797,0.3305857482505039
-3.922,-0.07127736323188383,0.3199891098453364
-3.9215,-0.01792648894347063,0.3411823866556712
-3.921,-0.3487019095316325,0.03387987290581572
-3.9205,-1.330357996438436,-0.9516074987747555
-3.92,-2.03458953704549,-1.619195718300304
-3.9195,-2.621449154218035,-2.25499402261035
-3.919,-2.952224574806197,-2.551699897955038
-3.9185,-2.472066706210478,-1.968884785670829
-3.918,-1.575772018165136,-0.8774310299385835
-3.9175,-0.7968492535543035,0.05507314971615059
-3.917,-0.2633405106701714,0.7120647308365314
-3.9165,0.02475421048725994,1.082947075017392
-3.916,0.1527963087794516,1.241896651094903
-3.9155,0.1848068333524996,1.263089927905238
-3.915,0.1741366584948169,1.231300012689736
-3.9145,0.1634664836371343,1.167720182258731
-3.914,0.1634664836371343,1.082947075017392
-3.9135,0.1741366584948169,0.9875773293708847
-3.913,0.1954770082101822,0.8922075837243778
-3.9125,0.3555296310754218,0.6908714540261965
-3.912,0.9957401225363802,-0.09327978795619347
-3.9115,1.614610264281974,-1.025783967610927
-3.911,1.902704985439405,-1.735758740757146
-3.9105,1.966726034585501,-2.021867977696666
-3.91,1.593269914566608,-1.417859588602123
-3.9095,1.059761171682476,-0.5807251545938954
-3.909,0.5796033030867573,0.05507314971615059
-3.9085,0.2488278824985954,0.4259554938970107
-3.908,0.07810508477567314,0.5849050699745222
-3.9075,0.00341386077189465,0.5849050699745222
-3.907,-0.08194753808956648,0.5319218779486851
-3.9065,-0.2099896363817582,0.4895353243280153
-3.906,-0.1993194615240755,0.4047622170866759
-3.9055,-0.124628237520297,0.3517790250608387
-3.905,-0.07127736323188383,0.3199891098453364
-3.9045,-0.03926683865883591,0.3199891098453364
-3.904,-0.3487019095316325,0.1716361721729923
-3.9035,-1.650463242168915,-1.025783967610927
-3.903,-2.119950935906951,-1.778145294377815
-3.9025,-2.429386006779747,-2.297380576231019
-3.902,-2.621449154218035,-2.445733513903364
-3.9015,-1.991908837614759,-1.598002441489969
-3.901,-1.127624674142465,-0.474758770542221
-3.9005,-0.5087545323968721,0.3623756634660061
-3.9,-0.124628237520297,0.8922075837243778
-3.8995,0.07810508477567314,1.167720182258731
-3.899,0.1527963087794516,1.263089927905238
-3.8985,0.1634664836371343,1.263089927905238
-3.898,0.1527963087794516,1.220703374284568
-3.8975,0.1527963087794516,1.157123543853563
-3.897,0.1527963087794516,1.072350436612224
-3.8965,0.1634664836371343,0.9769806909657173
-3.896,0.2061471830678648,0.8604176685088755
-3.8955,0.5796033030867573,0.3729723018711736
-3.895,1.337185717982225,-0.5807251545938954
-3.8945,1.785333062004896,-1.407262950196955
-3.894,1.806673411720261,-1.47084278062796
-3.8935,1.433217291701369,-0.8774310299385835
-3.893,0.9637295979633325,-0.3158091944647096
-3.8925,0.5689331282290746,0.03387987290581572
-3.892,0.2594980573562781,0.2352160026039969
-3.8915,0.08877525963335578,0.3199891098453364
-3.891,0.02475421048725994,0.3305857482505039
-3.8905,-0.01792648894347063,0.3517790250608387
-3.89,-0.2420001609548061,0.6060983467848571
-3.8895,-0.3060212101009019,0.6908714540261965
-3.889,-0.2313299860971235,0.627291623595192
-3.8885,-0.1459685872356623,0.55311515475902
-3.888,-0.07127736323188383,0.5107286011383502
-3.8875,-0.1352984123779797,0.4683420475176805
-3.887,-0.7008176798351597,-0.1356663415768632
-3.8865,-1.789175515318789,-1.449649503817625
-3.886,-2.07727023647622,-2.064254531317336
-3.8855,-2.450726356495113,-2.424540237093029
