Class_11_Cell_phone_Call/Class_11_Cell_phone_Call_UZ_2.csv

#Digilent WaveForms Oscilloscope Acquisition
#Device Name: EExplorer
#Serial Number: SN:210151A2B84A
#Date Time: 2020-11-24 12:56:05.930
#Sample rate: 2000Hz
#Samples: 16384
#Trigger: Source: Channel 1 Type: Edge Condition: Rising Level: 0 V Hyst.: Auto HoldOff: 0 s
#Channel 1: Range: 1 V/div Offset: 0 V Attenuation: 1 X
#Channel 2: Range: 1 V/div Offset: 0 V Attenuation: 1 X
#Power Supplies: ON
#Fixed Supply: ON
#Voltage: 3.3 V Readback: 3.375 V
#Positive Supply: ON
#Voltage: 3.7 V Readback: 3.717 V
#Current: 40 mA Readback: 18 mA
#Negative Supply: ON
#Voltage: -3.7 V Readback: -3.377 V
#Current: -40 mA Readback: -15 mA
#Reference 1: ON
#Voltage: 0 V
#Reference 2: ON
#Voltage: 0 V

Time (s),Channel 1 (V),Channel 2 (V)
-4.096,1.177133095116985,-0.570128516188728
-4.0955,0.9210488985328347,-0.5065486857577812
-4.095,0.6116138276596207,-0.6125150698095325
-4.0945,0.408880505363835,-0.7608680074817418
-4.094,0.4942419042252185,-0.9410108603694243
-4.0935,0.4729015545098144,-0.8668343915332137
-4.093,0.3448594562177392,-0.6443049850249
-4.0925,0.216817357925664,-0.3793890248959551
-4.092,0.1207857842062873,-0.1356663415766608
-4.0915,-0.007256314085787988,0.08686306493165288
-4.091,-0.5300948821122373,0.5743084315693548
-4.0905,-1.159635198715892,0.510728601137772
-4.09,-1.575772018165136,-0.1250697031716958
-4.0895,-1.885207089037933,-0.5065486857577234
-4.089,-2.322684258202523,-0.8562377531279306
-4.0885,-2.568098279929622,-1.078767159636765
-4.088,-2.312014083345239,-0.9198175835592532
-4.0875,-1.405049220443039,-0.1886495336033653
-4.087,-0.69014750497705,0.627291623595751
-4.0865,-0.2206598112394408,1.241896651094903
-4.086,0.04609456020238256,1.623375633680584
-4.0855,0.1421261339217787,1.792921848163677
-4.085,0.1527963087794516,1.867098316999781
-4.0845,0.1421261339217787,1.856501678594624
-4.084,0.1314559590640961,1.729342017732403
-4.0835,0.142126133921769,1.506812611224089
-4.083,0.1954770082101822,1.135930267043229
-4.0825,0.3021787567867854,0.6378882619996173
-4.082,0.05676473506030786,-0.1780528951975329
-4.0815,-0.3166913849585846,-0.9516074987747555
-4.081,0.02475421048694942,-1.481439419032645
-4.0805,0.5689331282290746,-1.566212526274467
-4.08,0.9210488985326017,-1.216523458903942
-4.0795,1.006410297393985,-0.8986243067492075
-4.079,0.8890383739593597,-0.7502713690766032
-4.0785,0.6756348768059011,-0.7820612842920766
-4.078,0.4408910299370964,-0.8880276683436545
-4.0775,0.4088805053638641,-0.9728007755850037
-4.077,0.4408910299368829,-0.8774310299385835
-4.0765,0.3448594562178265,-0.644304985025112
-4.076,0.2274875327831428,-0.400582301705837
-4.0755,0.1314559590640864,-0.1674562567923655
-4.075,0.04609456020262521,0.03387987290581572
-4.0745,-0.2633405106708216,0.5107286011386104
-4.074,-0.9782422261349084,0.7968378380778709
-4.0735,-1.639793067311232,0.2140227257936621
-4.073,-2.151961460479533,-0.4111789401106478
-4.0725,-2.557428105071939,-0.8774310299385835
-4.072,-2.578768454787304,-1.0999604364471
-4.0715,-2.247993034199443,-0.8668343915336282
-4.071,-1.309017646722439,-0.07208651114507797
-4.0705,-0.6154562809736985,0.7862411996727035
-4.07,-0.1566387620937622,1.432636142387329
-4.0695,0.07810508477575077,1.824711763379276
-4.069,0.1634664836371343,2.004854616266958
-4.0685,0.1634664836371343,2.089627723508298
-4.068,0.1421261339217593,2.057837808292718
-4.0675,0.1314559590640864,1.973064701051456
-4.067,0.142126133921769,1.824711763379112
-4.0665,0.1634664836372701,1.580989080059924
-4.066,0.3128489316446912,1.210106735879401
-4.0655,0.5475927785137094,0.7862411996727035
-4.065,0.3448594562179236,-0.1038764263605514
-4.0645,0.3555296310754218,-0.9516074987747555
-4.064,0.7289857510943143,-1.47084278062796
-4.0635,1.038420821966829,-1.449649503817644
-4.063,1.14512257054383,-1.195330182093423
-4.0625,1.027750647109428,-0.9939940523954253
-4.062,0.7716664505252777,-0.9304142219644785
-4.0615,0.5155822539405255,-0.9092209451541533
-4.061,0.3661998059331045,-0.9833974139902578
-4.0605,0.4729015545099309,-1.078767159636765
-4.06,0.4195506802214109,-0.8774310299382847
-4.0595,0.3021787567870086,-0.5489352393783931
-4.059,0.1848068333524996,-0.2734226408440398
-4.0585,0.08877525963344313,-0.1144730647666729
-4.058,-0.07127736323188383,0.2246193641988295
-4.0575,-0.690147504977477,0.9769806909657173
-4.057,-1.351698346153199,1.241896651094662
-4.0565,-1.83185621474952,0.5319218779486851
-4.056,-2.3973754822067,-0.3581957480853793
-4.0555,-2.557428105071794,-0.9833974139896891
-4.055,-2.440056181636634,-1.174136905282761
-4.0545,-1.565101843307454,-0.6125150698093976
-4.054,-0.7968492535550022,0.2670059178186993
-4.0535,-0.2633405106699094,1.040560521397194
-4.053,0.02475421048725994,1.559795803249926
-4.0525,0.1527963087794516,1.856501678594614
-4.052,0.1741366584947975,2.004854616267103
-4.0515,0.1527963087794516,2.16380419234447
-4.051,0.1314559590640864,2.195594107559972
-4.0505,0.1207857842064134,2.01545125467229
-4.05,0.2168173579255475,1.845905040189447
-4.0495,0.3555296310754218,1.517409249629256
-4.049,0.4622313796521512,0.913400860535262
-4.0485,0.2168173579254796,-0.06148987274144291
-4.048,0.142126133921769,-0.8880276683437509
-4.0475,0.643624352232397,-1.449649503817114
-4.047,1.027750647109564,-1.608599079894895
-4.0465,1.177133095116985,-1.34368311976595
-4.046,1.102441871113275,-1.078767159637006
-4.0455,0.8463576745286001,-0.9198175835591665
-4.045,0.6009436528021226,-0.8244478379127463
-4.0445,0.4195506802215176,-0.8032545611024114
-4.044,0.5582629533714115,-0.8774310299384004
-4.0435,0.5796033030867573,-0.6760949002404023
-4.043,0.4515612047945656,-0.400582301706049
-4.0425,0.2808384070717986,-0.1568596183874197
-4.042,0.1634664836371343,0.04447651131098315
-4.0415,0.0674349099179905,0.2458126410091644
-4.041,-0.3380317346735811,0.7756445612670542
-4.0405,-1.020922925566124,0.8392243916978949
-4.04,-1.554431668449771,0.1292496185523226
-4.0395,-1.927887788468324,-0.6019184314035653
-4.039,-2.408045657064528,-1.078767159636938
-4.0385,-2.568098279929622,-1.269506650929778
-4.038,-2.45072635649522,-1.089363798042096
-4.0375,-1.586442193022111,-0.3264058328690578
-4.037,-0.807519428411986,0.5743084315693548
-4.0365,-0.2633405106701714,1.273686566310405
-4.036,0.03542438534504933,1.697552102517276
-4.0355,0.1527963087794516,1.888291593810116
-4.035,0.1848068333524996,1.951871424241121
-4.0345,0.1634664836371537,1.888291593810174
-4.034,0.1527963087794516,1.79292184816361
-4.0335,0.1634664836371343,1.686955464111935
-4.033,0.1421261339217884,1.422039503982991
-4.0325,0.1527963087791314,0.9345941373442187
-4.032,-0.1993194615240755,0.02328323450064829
-4.0315,-0.455403658108226,-0.7820612842913441
-4.031,0.05676473506084161,-1.269506650929836
-4.0305,0.6436243522328531,-1.333086481360783
-4.03,0.9743997728207141,-1.068170521231838
-4.0295,1.070431346540052,-0.877431029938516
-4.029,0.9530594231056497,-0.8032545611024114
-4.0285,0.7183155762366316,-0.8244478379127463
-4.028,0.5049120790829885,-0.8986243067490244
-4.0275,0.5155822539406614,-1.01518732920576
-4.027,0.6329541773751706,-1.004590690800593
-4.0265,0.5262524287984411,-0.72907809226649
-4.026,0.3555296310754218,-0.4323722169215513
-4.0255,0.2168173579255475,-0.1568596183871981
-4.025,0.09944543449114518,0.04447651131080005
-4.0245,-0.3273615598169465,-0.1356663415773162
-4.024,-1.074273799854052,-0.6337083466197325
-4.0235,-1.597112367880026,-1.131750351662149
-4.023,-2.04525971190358,-1.428456227007319
-4.0225,-2.493407055925843,-1.460246142222792
-4.022,-2.472066706210498,-1.258910012524794
-4.0215,-1.671803591883562,-0.5489352393775738
-4.021,-0.8822106524157645,0.3517790250608387
-4.0205,-0.3273615598162672,1.072350436612224
-4.02,0.003413860772030513,1.538602526439774
-4.0195,0.1527963087794516,1.739938656137773
-4.019,0.1848068333524996,1.771728571353275
-4.0185,0.1741366584948266,1.771728571353275
-4.018,0.1527963087794516,1.782325209758442
-4.0175,0.1314559590640864,1.655165548896433
-4.017,0.1314559590640864,1.464426057603593
-4.0165,0.1954770082106286,1.273686566310155
-4.016,0.6863050516635838,0.9981739677760521
-4.0155,0.8783681991016965,0.4047622170872156
-4.015,0.4408910299369024,-0.4535654937325319
-4.0145,0.4622313796522482,-1.163540266878104
-4.014,0.9210488985321845,-1.682775548730836
-4.0135,1.187803269974687,-1.619195718299966
-4.013,1.209143619690033,-1.248313374119443
-4.0125,1.038420821967111,-0.9833974139902578
-4.012,0.7716664505248119,-0.81385119950755
-4.0115,0.5155822539406614,-0.7820612842920766
-4.011,0.3555296310754218,-0.8456411147230812
-4.0105,0.4088805053637865,-0.9516074987746591
-4.01,0.3661998059331045,-0.8032545611024114
-4.0095,0.2701682322139607,-0.570128516188728
-4.009,0.1741366584949043,-0.3264058328700987
-4.0085,0.1101156093486434,-0.1038764263610429
-4.008,0.02475421048725994,0.2458126410091644
-4.0075,-0.2740106855275823,0.828627753292843
-4.007,-0.8715404775585769,0.5743084315687091
-4.0065,-1.415719395299897,-0.1356663415768632
-4.006,-1.981238662757077,-0.7078848154559045
-4.0055,-2.514747405641277,-1.089363798042019
-4.005,-2.589438629644987,-1.184733543688439
-4.0045,-2.386705307349017,-0.9516074987747555
-4.004,-1.458400094729938,-0.1674562567915752
-4.0035,-0.7008176798351597,0.701468092431364
-4.003,-0.1993194615240755,1.347863035146577
-4.0025,0.07810508477542083,1.729342017732258
-4.002,0.1741366584948169,1.909484870620451
-4.0015,0.1848068333524996,1.973064701051456
-4.001,0.1741366584948266,1.95187142424114
-4.0005,0.1527963087794516,1.782325209758221
-4,0.1527963087794516,1.538602526439591
-3.9995,0.3768699807907871,1.273686566310405
-3.999,0.8783681991018712,0.5107286011383502
-3.9985,0.9637295979633325,-0.4641621321370536
-3.998,0.8676980242441885,-1.184733543688439
-3.9975,1.283834843693812,-1.714565463946811
-3.997,1.582599739708926,-1.88411167842949
-3.9965,1.56125938999356,-1.534422611058964
-3.996,1.305175193409177,-1.068170521231597
-3.9955,0.9850699476786977,-0.7608680074817418
-3.995,0.6969752265212663,-0.6760949002404023
-3.9945,0.4622313796522482,-0.7714646458869092
-3.994,0.5155822539406614,-0.9622041371799229
-3.9935,0.5369226036560266,-0.9092209451540858
-3.993,0.408880505363835,-0.6866915386455698
-3.9925,0.2594980573562781,-0.4853554089473885
-3.992,0.1634664836371343,-0.2734226408440398
-3.9915,0.0674349099179905,-0.08268314955102604
-3.991,-0.4020527838200457,0.2034260873884947
-3.9905,-0.9995825758502737,0.1822328105781598
-3.99,-1.46907026958831,-0.4217755785163839
-3.9895,-1.895877263895616,-1.004590690800593
-3.989,-2.408045657064382,-1.38606967338662
-3.9885,-2.557428105071939,-1.481439419033127
-3.988,-2.03458953704549,-1.01518732920576
-3.9875,-1.159635198715513,-0.1038764263613609
-3.987,-0.4980843575391895,0.7544512844572011
-3.9865,-0.09261771294724913,1.347863035146577
-3.986,0.1207857842064037,1.697552102517103
-3.9855,0.1954770082101822,1.845905040189447
-3.985,0.1848068333524996,1.898888232215284
-3.9845,0.1634664836371343,1.962468062646288
-3.984,0.1634664836371343,1.941274785835954
-3.9835,0.1848068333524996,1.729342017732605
-3.983,0.4408910299368829,1.580989080060261
-3.9825,1.006410297394063,1.188913459069066
-3.982,0.825017324813458,0.2034260873884947
-3.9815,0.2381577076409128,-0.6654982618352349
-3.981,0.3341892813600565,-1.163540266878104
-3.9805,0.7609962756673623,-1.523825972653797
-3.98,1.059761171682476,-1.34368311976595
-3.9795,1.123782220828572,-1.004590690800593
-3.979,0.9850699476786977,-0.8138511995075789
-3.9785,0.7396559259519968,-0.7820612842920766
-3.978,0.5049120790829789,-0.8244478379127463
-3.9775,0.4835717293676135,-0.9198175835592532
-3.977,0.6009436528021226,-0.9092209451540858
-3.9765,0.5049120790829789,-0.6549016234300674
-3.976,0.3555296310754218,-0.3687923864905467
-3.9755,0.2168173579255475,-0.1144730647665284
-3.975,0.1101156093487211,0.07626642652648545
-3.9745,-0.1779791118087102,0.5319218779486851
-3.974,-0.8608703027003992,0.9769806909657173
-3.9735,-1.458400094730627,0.4365521323021782
-3.973,-1.810515865034154,-0.3793890248957141
-3.9725,-2.290673733629873,-0.9939940523954253
-3.972,-2.546757930214257,-1.311893204550448
-3.9715,-2.536087755356574,-1.290699927740113
-3.971,-1.83185621474952,-0.6549016234300674
-3.9705,-0.9782422261349084,0.2670059178194992
-3.97,-0.3807124341046804,1.040560521396722
-3.9695,-0.007256314085787988,1.559795803249926
-3.969,0.1527963087794516,1.824711763379112
-3.9685,0.1954770082101822,1.941274785835954
-3.968,0.1954770082101822,1.983661339456623
-3.9675,0.1848068333524996,2.015451254672126
-3.967,0.1634664836371343,1.856501678594614
-3.9665,0.2168173579255475,1.612778995275763
-3.966,0.7396559259519968,1.25249328950007
-3.9655,1.070431346540159,0.5849050699745222
-3.965,0.6756348768059011,-0.3475991096802118
-3.9645,0.4195506802215176,-1.131750351662602
-3.964,0.707645401378949,-1.587405803084801
-3.9635,0.9637295979633325,-1.396666311791788
-3.963,1.049090996824793,-1.025783967610927
-3.9625,0.9637295979633325,-0.8138511995075789
-3.962,0.7609962756673623,-0.7396747306714069
-3.9615,0.5262524287983441,-0.8032545611024114
-3.961,0.3982103305061524,-0.9092209451540858
-3.9605,0.5796033030867573,-1.036380606016095
-3.96,0.5582629533713921,-0.8880276683437509
-3.9595,0.408880505363835,-0.5807251545938954
-3.959,0.2701682322139607,-0.252229364033705
-3.9585,0.1527963087794516,-0.01910331912002144
-3.958,0.00341386077189465,0.2458126410091644
-3.9575,-0.572775581542968,0.849821030103708
-3.957,-1.244996597576974,0.7438546460520338
-3.9565,-1.767835165603424,0.05507314971615059
-3.956,-2.280003558772191,-0.5065486857577234
-3.9555,-2.557428105071939,-0.9833974139902578
-3.955,-2.450726356495113,-1.142346990067769
-3.9545,-1.607782542738184,-0.6231117082145651
-3.954,-0.8288597781273515,0.2246193641988295
-3.9535,-0.2846808603855366,0.9663840525605498
-3.953,0.03542438534494258,1.496215972818921
-3.9525,0.1741366584948169,1.782325209758442
-3.952,0.1954770082101822,1.941274785835954
-3.9515,0.1848068333524996,2.004854616266958
-3.951,0.1634664836371343,1.983661339456623
-3.9505,0.1634664836371343,1.867098316999781
-3.95,0.1848068333524996,1.6657621873016
-3.9495,0.2061471830678648,1.305476481525908
-3.949,0.4835717293676135,1.263089927905238
-3.9485,0.7396559259519968,0.7438546460520338
-3.948,0.6756348768059011,-0.2204394488182027
-3.9475,1.017080472251745,-1.068170521231597
-3.947,1.35852606769759,-1.598002441489969
-3.9465,1.433217291701369,-1.417859588602123
-3.946,1.283834843693812,-1.036380606016095
-3.9455,0.9957401225363802,-0.8138511995075789
-3.945,0.6756348768059011,-0.7608680074817418
-3.9445,0.4302208550792003,-0.7820612842920766
-3.944,0.4195506802215176,-0.8880276683437509
-3.9435,0.4302208550792003,-0.8138511995075789
-3.943,0.3235191065023739,-0.6231117082145651
-3.9425,0.2168173579255475,-0.4535654937318862
-3.942,0.142126133921769,-0.2628260024388724
-3.9415,0.08877525963335578,-0.07208651114585861
-3.941,0.1527963087794516,0.4047622170866759
-3.9405,0.00341386077189465,0.55311515475902
-3.94,-0.5087545323968721,-0.06148987274069118
-3.9395,-1.095614149569417,-0.6337083466197325
-3.939,-1.767835165603424,-1.05757388282643
-3.9385,-2.354694782775969,-1.258910012524611
-3.938,-2.098610586191586,-1.046977244421262
-3.9375,-1.298347471865388,-0.2416327256285375
-3.937,-0.6474668055467465,0.6060983467848571
-3.9365,-0.1779791118087102,1.284283204715573
-3.936,0.07810508477567314,1.676358825706768
-3.9355,0.1634664836371343,1.845905040189447
-3.935,0.1848068333524996,1.962468062646288
-3.9345,0.1741366584948169,2.036644531482461
-3.934,0.1527963087794516,1.930678147430786
-3.9335,0.1741366584948169,1.79292184816361
-3.933,0.1848068333524996,1.517409249629256
-3.9325,0.2381577076409128,1.093543713422559
-3.932,0.2701682322139607,0.2458126410091644
-3.9315,0.2061471830678648,-0.6337083466197325
-3.931,0.5475927785137094,-1.142346990067769
-3.9305,0.9103787236749192,-1.184733543688439
-3.93,1.091771696255524,-0.9728007755850904
-3.9295,1.081101521397841,-0.8032545611024114
-3.929,0.9210488985326017,-0.718481453861072
-3.9285,0.6863050516635838,-0.7502713690765743
-3.928,0.4622313796522482,-0.8244478379127463
-3.9275,0.3661998059331045,-0.9304142219644207
-3.927,0.3982103305061524,-0.9304142219644207
-3.9265,0.3235191065023739,-0.7078848154559045
-3.926,0.2274875327832301,-0.4535654937318862
-3.9255,0.1527963087794516,-0.2310360872233701
-3.925,0.07810508477567314,-0.06148987274069118
-3.9245,0.02475421048725994,0.2987958330350016
-3.924,-0.07127736323188383,0.7438546460520338
-3.9235,-0.5621054066852853,0.2776025562246667
-3.923,-1.095614149569417,-0.3899856633008816
-3.9225,-1.703814116457328,-0.8774310299385835
-3.922,-2.376035132491334,-1.163540266878104
-3.9215,-2.568098279929622,-1.174136905283272
-3.921,-2.013249187330125,-0.7078848154559045
-3.9205,-1.127624674142465,0.1822328105781598
-3.92,-0.4874141826815069,0.9875773293708847
-3.9195,-0.07127736323188383,1.549199164844759
-3.919,0.1314559590640864,1.856501678594614
-3.9185,0.1954770082101822,2.004854616266958
-3.918,0.1954770082101822,1.983661339456623
-3.9175,0.1848068333524996,1.877694955404949
-3.917,0.1634664836371343,1.803518486568777
-3.9165,0.1954770082101822,1.739938656137773
-3.916,0.6116138276598051,1.771728571353275
-3.9155,0.9103787236749192,1.42203950398275
-3.915,0.6222840025174878,0.383568940276341
-3.9145,0.5475927785137094,-0.4853554089473885
-3.914,1.038420821967111,-1.195330182093607
-3.9135,1.35852606769759,-1.481439419033127
-3.913,1.369196242555273,-1.216523458903942
-3.9125,1.177133095116985,-0.9304142219644207
-3.912,0.8676980242441885,-0.7820612842920766
-3.9115,0.6009436528021226,-0.7714646458869092
-3.911,0.408880505363835,-0.8562377531282487
-3.9105,0.4408910299368829,-0.9516074987747555
-3.91,0.408880505363835,-0.7714646458869092
-3.9095,0.3021787567870086,-0.400582301706049
-3.909,0.1954770082101822,-0.1568596183871981
-3.9085,0.1207857842064037,0.002089957690313421
-3.908,-0.02859666380115328,0.002089957690313421
-3.9075,-0.5621054066852853,0.07626642652648545
-3.907,-1.084943974711735,-0.01910331912002144
-3.9065,-1.565101843307454,-0.5807251545938954
-3.906,-2.098610586191586,-1.078767159636765
-3.9055,-2.536087755356574,-1.34368311976595
-3.905,-2.546757930214257,-1.364876396576285
-3.9045,-2.109280761049269,-0.8774310299385835
-3.904,-1.180975548430879,0.02328323450064829
-3.9035,-0.5087545323968721,0.8604176685088755
-3.903,-0.08194753808956648,1.443232780793084
-3.9025,0.1314559590640864,1.75053529454294
-3.902,0.1954770082101822,1.898888232215284
-3.9015,0.1954770082101822,1.909484870620451
-3.901,0.1741366584948169,1.835308401784279
-3.9005,0.1527963087794516,1.75053529454294
-3.9,0.1527963087794516,1.623375633680931
-3.8995,0.1207857842064037,1.125333628638062
-3.899,-0.1459685872356623,0.1292496185523226
-3.8985,-0.391382608962363,-0.8456411147230812
-3.898,-0.4340633083930936,-1.608599079895136
-3.8975,0.1848068333524996,-2.106641084938006
-3.897,0.8143471499557753,-1.915901593644992
-3.8965,1.113112045970889,-1.322489842955616
-3.896,1.123782220828572,-0.9198175835592532
-3.8955,0.9530594231056497,-0.7714646458869092
-3.895,0.6969752265212663,-0.7608680074817418
-3.8945,0.4835717293676135,-0.8244478379127463
-3.894,0.5369226036560266,-1.004590690800593
-3.8935,0.6116138276598051,-1.004590690800593
-3.893,0.4835717293676135,-0.7502713690765743
-3.8925,0.3341892813600565,-0.4535654937318862
-3.892,0.1848068333524996,-0.2204394488182027
-3.8915,0.08877525963335578,0.01268659609548085
-3.891,-0.1032878878049318,0.5319218779486851
-3.8905,-0.5941159312583333,0.6908714540261965
-3.89,-1.127624674142465,0.06566978812131802
-3.8895,-1.575772018165136,-0.4853554089473885
-3.889,-2.151961460479999,-0.9410108603695881
-3.8885,-2.546757930214257,-1.227120097309109
-3.888,-2.536087755356574,-1.248313374119443
-3.8875,-1.821186039891837,-0.7078848154559045
-3.887,-0.9782422261349084,0.1716361721729923
-3.8865,-0.3700422592469978,0.9345941373450475
-3.886,-0.007256314085787988,1.453829419198252
-3.8855,0.1634664836371343,1.729342017732605
