Class_11_Cell_phone_Call/Class_11_Cell_phone_Call_SH_6.csv

#Digilent WaveForms Oscilloscope Acquisition
#Device Name: EExplorer
#Serial Number: SN:210151A2B84A
#Date Time: 2020-12-15 15:02:32.378
#Sample rate: 2000Hz
#Samples: 16384
#Trigger: Source: Channel 1 Type: Edge Condition: Rising Level: 0 V Hyst.: Auto HoldOff: 0 s
#Channel 1: Range: 1 V/div Offset: 0 V Attenuation: 1 X
#Channel 2: Range: 1 V/div Offset: 0 V Attenuation: 1 X
#Power Supplies: ON
#Fixed Supply: ON
#Voltage: 3.3 V Readback: 3.32 V
#Positive Supply: ON
#Voltage: 3.7 V Readback: 3.709 V
#Current: 40 mA Readback: 18 mA
#Negative Supply: ON
#Voltage: -3.7 V Readback: -3.35 V
#Current: -40 mA Readback: -9 mA
#Reference 1: ON
#Voltage: 0 V
#Reference 2: ON
#Voltage: 0 V

Time (s),Channel 1 (V),Channel 2 (V)
-4.096,-0.9675720512772257,-0.9939940523954253
-4.0955,-0.8395299529851504,-0.9939940523954253
-4.095,-0.4233931335350422,-0.5489352393780654
-4.0945,-0.01792648894347063,-0.1886495336027004
-4.094,0.2594980573560257,-0.02969995752533344
-4.0935,0.3982103305061815,0.0550731497161795
-4.093,0.4302208550792003,0.08686306493165288
-4.0925,0.4195506802215274,0.08686306493165288
-4.092,0.4622313796523937,0.1398462569576539
-4.0915,0.6222840025174878,0.3199891098453364
-4.091,0.6116138276598051,0.309392471440169
-4.0905,0.5262524287982665,0.2458126410091162
-4.09,0.4408910299368829,0.1928294489833272
-4.0895,0.3875401556484697,0.1716361721729923
-4.089,0.2061471830680298,-0.06148987274047915
-4.0885,-0.4127229586777283,-0.6866915386455698
-4.088,-1.138294849000148,-1.322489842955616
-4.0875,-1.693143941599141,-1.703968825541296
-4.087,-1.458400094730074,-1.280103289334252
-4.0865,-0.8502001278427167,-0.5171453241628908
-4.086,-0.295351035243724,0.1398462569568925
-4.0855,0.07810508477585752,0.5955017083799113
-4.085,0.2808384070716433,0.8392243916985406
-4.0845,0.3661998059330268,0.9345941373449608
-4.084,0.3768699807907677,0.9451907757501861
-4.0835,0.3555296310754218,0.9134008605347127
-4.083,0.3341892813600565,0.849821030103708
-4.0825,0.2808384070716045,0.7650479228622818
-4.082,0.2381577076409128,0.6696781772158616
-4.0815,0.2061471830678648,0.5955017083796896
-4.081,0.1314559590641543,0.4789386859229539
-4.0805,-0.3593720843893152,-0.08268314955102604
-4.08,-1.06360362499637,-0.8456411147230812
-4.0795,-1.607782542737689,-1.42845622700676
-4.079,-1.255666772434016,-1.078767159636138
-4.0785,-0.5514352318276028,-0.3899856633008816
-4.078,0.003413860771390054,0.02328323450027242
-4.0775,0.3341892813601924,0.0868630649316047
-4.077,0.4835717293676135,0.03387987290581572
-4.0765,0.4942419042252864,0.002089957690342335
-4.076,0.4622313796522191,-0.008506680714854012
-4.0755,0.4302208550792003,-0.008506680714854012
-4.075,0.5689331282290746,0.13984625695749
-4.0745,0.6116138276597372,0.2140227257936717
-4.074,0.5369226036560266,0.2246193641988295
-4.0735,0.4408910299368829,0.2352160026039969
-4.073,0.3768699807908453,0.2564092794143125
-4.0725,0.1954770082101822,0.04447651131098315
-4.072,-0.4874141826815069,-0.5913217929990628
-4.0715,-1.244996597576285,-1.216523458903373
-4.071,-1.735824641030551,-1.598002441489988
-4.0705,-1.927887788468663,-1.619195718300304
-4.07,-1.383708870727344,-1.004590690801152
-4.0695,-0.7008176798346745,-0.2310360872227918
-4.069,-0.1673089369510276,0.4047622170866759
-4.0685,0.1741366584948169,0.7968378380778709
-4.068,0.3341892813601051,0.9769806909657461
-4.0675,0.3875401556484697,1.00877060618122
-4.067,0.3875401556484697,0.9769806909657173
-4.0665,0.3555296310753927,0.8922075837242911
-4.066,0.3235191065023739,0.7968378380778709
-4.0655,0.2488278824985954,0.6802748156210291
-4.065,0.1848068333525578,0.5637117931642934
-4.0645,0.1527963087794516,0.4789386859228479
-4.064,0.02475421048725994,0.3623756634660061
-4.0635,-0.487414182681041,-0.1250697031712524
-4.063,-1.020922925565668,-0.835044476318039
-4.0625,-1.052933450138687,-0.9728007755850904
-4.062,-0.5194247072550401,-0.5277419625684631
-4.0615,0.003413860772176079,-0.1462629799818572
-4.061,0.3128489316446912,0.04447651131098315
-4.0605,0.4622313796522482,-0.008506680714854012
-4.06,0.5155822539406323,-0.125069703171715
-4.0595,0.4835717293676135,-0.1462629799820306
-4.059,0.4302208550792003,-0.1038764263613609
-4.0585,0.5369226036559296,0.1186529801469528
-4.058,0.6756348768059011,0.3623756634660061
-4.0575,0.6329541773751706,0.383568940276341
-4.057,0.5155822539407682,0.3411823866557098
-4.0565,0.4195506802215176,0.3199891098453364
-4.056,0.3235191065023739,0.2564092794143318
-4.0555,-0.1993194615236,-0.2522293640332424
-4.055,-0.9142211769893462,-0.9092209451545484
-4.0545,-1.501080794161358,-1.417859588602123
-4.054,-1.650463242168779,-1.502632695843385
-4.0535,-1.170305373572653,-0.8774310299378896
-4.053,-0.572775581542968,-0.1144730647665284
-4.0525,-0.09261771294724913,0.4895353243280153
-4.052,0.1954770082103083,0.8498210301038622
-4.0515,0.3341892813600565,1.019367244586387
-4.051,0.3768699807907871,1.051157159801889
-4.0505,0.3768699807907871,1.008770606181258
-4.05,0.3555296310754218,0.92399749893988
-4.0495,0.3235191065023739,0.8180311148882058
-4.049,0.2808384070716821,0.6908714540263122
-4.0485,0.2168173579254699,0.5743084315692488
-4.048,0.1314559590640864,0.457745409112513
-4.0475,-0.1566387620930829,0.1292496185526214
-4.047,-0.7541685541241649,-0.5807251545945218
-4.0465,-1.405049220442214,-1.269506650929778
-4.046,-1.778505340460767,-1.608599079894828
-4.0455,-1.277007122149401,-1.068170521231067
-4.045,-0.5941159312583333,-0.4853554089473885
-4.0445,-0.03926683865883591,-0.08268314955102604
-4.044,0.3235191065025097,0.03387987290579644
-4.0435,0.4729015545099309,0.01268659609548085
-4.043,0.4942419042252961,-0.02969995752518888
-4.0425,0.4622313796522773,-0.07208651114582006
-4.042,0.4729015545099309,-0.01910331912002144
-4.0415,0.6222840025174878,0.2034260873884947
-4.041,0.600943652802142,0.2458126410091258
-4.0405,0.5155822539405838,0.2246193641988102
-4.04,0.4302208550792003,0.2034260873884947
-4.0395,0.3768699807908356,0.1928294489833368
-4.039,0.6542945270909434,-0.1568596183877956
-4.0385,1.102441871113207,-0.8138511995075789
-4.038,0.5689331282295599,-1.396666311791258
-4.0375,-0.274010685528378,-1.449649503817307
-4.037,-0.8502001278427167,-1.0999604364471
-4.0365,-0.7755089038389382,-0.474758770542221
-4.036,-0.4340633083927831,0.1398462569579045
-4.0355,-0.09261771294724913,0.5955017083796896
-4.035,0.1527963087794516,0.8604176685088755
-4.0345,0.2808384070715269,0.9769806909656112
-4.034,0.3341892813600565,1.00877060618122
-4.0335,0.3448594562177392,0.9769806909657173
-4.033,0.3341892813600663,0.9239974989399282
-4.0325,0.3021787567869698,0.849821030103631
-4.032,0.2594980573562781,0.7650479228623686
-4.0315,0.2274875327832592,0.6802748156211063
-4.031,0.163466483636717,0.5213252395429394
-4.0305,-0.2953510352432193,-0.1144730647665284
-4.03,-0.9889124009919603,-0.9092209451533628
-4.0295,-1.469070269588058,-1.523825972653556
-4.029,-1.191645723288561,-1.258910012524611
-4.0285,-0.6047861061160158,-0.6125150698093976
-4.028,-0.08194753808926564,-0.1568596183869764
-4.0275,0.2488278824985954,0.08686306493165288
-4.027,0.408880505363835,0.1504428953626575
-4.0265,0.4515612047945268,0.1080563417420263
-4.026,0.4408910299368829,0.04447651131098315
-4.0255,0.4195506802215176,0.002089957690313421
-4.025,0.5262524287982471,0.1186529801470492
-4.0245,0.5475927785136608,0.1716361721729827
-4.024,0.4942419042252961,0.1610395337678249
-4.0235,0.4195506802215856,0.1504428953626671
-4.023,0.366199805933153,0.1610395337677382
-4.0225,0.4195506802215176,0.06566978812131802
-4.022,0.7503261008093787,-0.4323722169210983
-4.0215,0.3021787567862905,-1.06817052123207
-4.021,-0.4874141826815069,-1.587405803084801
-4.0205,-1.06360362499637,-1.703968825541643
-4.02,-0.9569018764191743,-1.057573882825726
-4.0195,-0.5514352318276028,-0.2840192792492073
-4.019,-0.156638762093345,0.3411823866556712
-4.0185,0.1207857842061514,0.7438546460516675
-4.018,0.2808384070716433,0.9451907757502149
-4.0175,0.3448594562177392,1.00877060618122
-4.017,0.3555296310754121,1.00877060618122
-4.0165,0.3448594562177197,0.9557874141553149
-4.016,0.3235191065023739,0.8816109453192104
-4.0155,0.2915085819293551,0.7968378380779479
-4.015,0.2488278824984207,0.7226613692416122
-4.0145,0.05676473506030786,0.627291623595192
-4.014,-0.4874141826810119,0.1292496185527756
-4.0135,-1.148965023858277,-0.6760949002410191
-4.013,-1.639793067311232,-1.354279758171118
-4.0125,-1.543761493592088,-1.396666311791788
-4.012,-0.7755089038383268,-0.6866915386450204
-4.0115,-0.1032878878049318,-0.08268314955102604
-4.011,0.3128489316446912,0.2034260873884947
-4.0105,0.52625242879815,0.2987958330349149
-4.01,0.5689331282290746,0.2246193641988295
-4.0095,0.5155822539406614,0.07626642652648545
-4.009,0.4515612047946238,-0.0402965959302503
-4.0085,0.4942419042253834,-0.008506680714747998
-4.008,0.5902734779444399,0.1080563417419877
-4.0075,0.5475927785137482,0.1292496185523033
-4.007,0.46223137965219,0.1292496185523515
-4.0065,0.3982103305061524,0.1610395337678249
-4.006,0.3021787567870086,0.1504428953626575
-4.0055,-0.1673089369517263,-0.3052125560601204
-4.005,-0.9355615267041777,-0.9410108603695881
-4.0045,-1.575772018165136,-1.407262950196955
-4.004,-1.831856214749102,-1.534422611058454
-4.0035,-1.373038695869166,-0.9728007755850904
-4.003,-0.722158029550525,-0.1992461720078678
-4.0025,-0.1886492866668782,0.4471487707067577
-4.002,0.1527963087794516,0.8604176685088755
-4.0015,0.3235191065023739,1.061753798207057
-4.001,0.3875401556484115,1.125333628638004
-4.0005,0.3875401556484406,1.093543713422492
-4,0.3555296310754218,1.019367244586387
-3.9995,0.3341892813600565,0.9134008605347127
-3.999,0.291508581929326,0.7968378380778709
-3.9985,0.2381577076409128,0.6696781772158616
-3.998,0.1954770082101822,0.5637117931641874
-3.9975,-0.1673089369510276,0.2352160026039969
-3.997,-0.839529952985034,-0.4959520473525559
-3.9965,-1.383708870726849,-1.216523458903942
-3.996,-1.789175515318789,-1.767548655972648
-3.9955,-1.597112367880501,-1.534422611058964
-3.995,-0.9248913518464952,-0.8562377531282487
-3.9945,-0.2846808603855366,-0.3899856633008816
-3.994,0.1527963087794516,-0.08268314955102604
-3.9935,0.3768699807907871,0.07626642652648545
-3.993,0.4515612047945656,0.1080563417419877
-3.9925,0.4515612047945656,0.07626642652648545
-3.992,0.4729015545099309,0.06566978812131802
-3.9915,0.6329541773751706,0.13984625695749
-3.991,0.6222840025174878,0.1186529801471552
-3.9905,0.5369226036560266,0.06566978812131802
-3.99,0.4515612047945656,0.03387987290581572
-3.9895,0.3875401556484697,0.03387987290581572
-3.989,0.3021787567870086,-0.1250697031716958
-3.9885,0.3341892813600565,-0.5065486857577234
-3.988,0.3448594562177392,-1.004590690800593
-3.9875,-0.1993194615240755,-1.47084278062796
-3.987,-0.572775581542968,-1.42845622700729
-3.9865,-0.4660738329661415,-0.8032545611024114
-3.986,-0.2099896363817582,-0.1356663415768632
-3.9855,0.04609456020262521,0.383568940276341
-3.985,0.2061471830678648,0.701468092431364
-3.9845,0.3021787567870086,0.8710143069140429
-3.984,0.3341892813600565,0.9345941373450475
-3.9835,0.3448594562177392,0.9451907757502149
-3.983,0.3341892813600565,0.92399749893988
-3.9825,0.3021787567870086,0.8816109453192104
-3.982,0.2701682322139607,0.8286277532933731
-3.9815,0.2274875327832301,0.775644561267536
-3.981,0.09944543449103843,0.5955017083796896
-3.9805,-0.4874141826815069,-0.08268314955102604
-3.98,-1.223656247861609,-0.8986243067489184
-3.9795,-1.83185621474952,-1.576809164679634
-3.979,-1.799845690176472,-1.725162102351978
-3.9785,-1.084943974711735,-1.121153713257435
-3.978,-0.391382608962363,-0.6019184314042303
-3.9775,0.1101156093487211,-0.1992461720078678
-3.977,0.4195506802215176,-0.01910331912002144
-3.9765,0.5369226036560266,0.07626642652648545
-3.976,0.5369226036560266,0.08686306493165288
-3.9755,0.4835717293676135,0.04447651131098315
-3.975,0.6542945270905358,-0.008506680714854012
-3.9745,0.707645401378949,-0.06148987274069118
-3.974,0.6222840025174878,-0.05089323433552374
-3.9735,0.5049120790829789,0.002089957690313421
-3.973,0.408880505363835,0.05507314971615059
-3.9725,0.3021787567870086,-0.07208651114585861
-3.972,-0.2206598112394408,-0.6443049850249
-3.9715,-0.9142211769888124,-1.269506650929778
-3.971,-1.405049220442214,-1.725162102351978
-3.9705,-1.607782542738184,-1.778145294377815
-3.97,-1.180975548430879,-1.078767159636765
-3.9695,-0.5941159312583333,-0.2946159176543747
-3.969,-0.1139580626626144,0.3305857482505039
-3.9685,0.1848068333524996,0.7120647308365314
-3.968,0.3341892813600565,0.8922075837243778
-3.9675,0.3875401556484697,0.9451907757502149
-3.967,0.3768699807907871,0.92399749893988
-3.9665,0.3555296310754218,0.8710143069140429
-3.966,0.3235191065023739,0.7862411996727035
-3.9655,0.2808384070716433,0.701468092431364
-3.965,0.2061471830678648,0.6060983467848571
-3.9645,0.1634664836371343,0.5213252395435176
-3.964,-0.1139580626626144,0.13984625695749
-3.9635,-0.6688071552621118,-0.6125150698093976
-3.963,-1.202315898146244,-1.311893204550448
-3.9625,-1.458400094730627,-1.534422611058964
-3.962,-0.9995825758502737,-0.9516074987747555
-3.9615,-0.4020527838200457,-0.4323722169215513
-3.961,0.08877525963335578,-0.1038764263613609
-3.9605,0.3982103305061524,0.06566978812131802
-3.96,0.5155822539406614,0.1080563417419877
-3.9595,0.5155822539406614,0.06566978812131802
-3.959,0.4622313796522482,0.02328323450064829
-3.9585,0.5369226036560266,0.1716361721729923
-3.958,0.6649647019482183,0.4047622170866759
-3.9575,0.6116138276598051,0.383568940276341
-3.957,0.5155822539406614,0.309392471440169
-3.9565,0.4302208550792003,0.2564092794143318
-3.956,0.3875401556484697,0.1928294489833272
-3.9555,0.1527963087794516,-0.2734226408440398
-3.955,-0.5194247072545548,-0.9410108603695881
-3.9545,-1.212986073003927,-1.492036057438295
-3.954,-1.67180359188428,-1.746355379162313
-3.9535,-1.490410619303675,-1.311893204550448
-3.953,-0.8928808272734472,-0.5065486857577234
-3.9525,-0.3273615598162672,0.1928294489833272
-3.952,0.0674349099179905,0.6802748156210291
-3.9515,0.291508581929326,0.9345941373450475
-3.951,0.3768699807907871,1.029963882991555
-3.9505,0.3875401556484697,1.029963882991555
-3.95,0.3768699807907871,0.9769806909657173
-3.9495,0.3448594562177392,0.8922075837243778
-3.949,0.3128489316446912,0.7862411996727035
-3.9485,0.2701682322139607,0.6802748156210291
-3.948,0.2168173579255475,0.5849050699745222
-3.9475,-0.03926683865883591,0.2987958330350016
-3.947,-0.6794773301197943,-0.4323722169215513
-3.9465,-1.26633694729234,-1.163540266878104
-3.946,-1.682473766741963,-1.555615887869299
-3.9455,-1.26633694729234,-1.078767159636765
-3.945,-0.5941159312583333,-0.5065486857577234
-3.9445,-0.02859666380115328,-0.06148987274069118
-3.944,0.3128489316446912,0.07626642652648545
-3.9435,0.4622313796522482,0.07626642652648545
-3.943,0.4835717293676135,0.05507314971615059
-3.9425,0.4622313796522482,0.01268659609548085
-3.942,0.4729015545099309,0.04447651131098315
-3.9415,0.6649647019482183,0.2776025562246667
-3.941,0.6649647019482183,0.309392471440169
-3.9405,0.5689331282290746,0.2352160026039969
-3.94,0.4622313796522482,0.1716361721729923
-3.9395,0.3875401556484697,0.1292496185523226
-3.939,0.1634664836371343,-0.2310360872233701
-3.9385,-0.3700422592469978,-0.8774310299385835
-3.938,-0.9355615267041777,-1.47084278062796
-3.9375,-1.447729919872945,-1.88411167842949
-3.937,-1.373038695869166,-1.481439419033127
-3.9365,-0.8502001278427167,-0.6549016234300674
-3.936,-0.3273615598162672,0.07626642652648545
-3.9355,0.05676473506030786,0.5849050699745222
-3.935,0.2808384070716433,0.8710143069140429
-3.9345,0.3661998059331045,0.9981739677760521
-3.934,0.3875401556484697,1.019367244586387
-3.9335,0.3768699807907871,0.9875773293708847
-3.933,0.3555296310754218,0.92399749893988
-3.9325,0.3128489316446912,0.8392243916985406
-3.932,0.2381577076409128,0.7438546460520338
-3.9315,0.2061471830678648,0.6590815388106942
-3.931,0.1634664836371343,0.5425185163538525
-3.9305,-0.2099896363817582,-0.01910331912002144
-3.93,-0.7648387289812555,-0.792657922697244
-3.9295,-1.383708870726849,-1.439052865412457
-3.929,-1.799845690176472,-1.809935209593318
-3.9285,-1.341028171296118,-1.311893204550448
-3.928,-0.6154562809736985,-0.5489352393783931
-3.9275,-0.007256314085787988,0.01268659609548085
-3.927,0.3555296310754218,0.2352160026039969
-3.9265,0.4942419042252961,0.2246193641988295
-3.926,0.5049120790829789,0.1504428953626575
-3.9255,0.4835717293676135,0.06566978812131802
-3.925,0.6116138276598051,0.2246193641988295
-3.9245,0.6436243522328531,0.2987958330350016
-3.924,0.5689331282290746,0.2352160026039969
-3.9235,0.4835717293676135,0.13984625695749
-3.923,0.408880505363835,0.1080563417419877
-3.9225,0.4515612047945656,0.02328323450064829
-3.922,0.9957401225363802,-0.326405832869877
-3.9215,1.603940089424291,-0.9092209451540858
-3.921,1.251824319120764,-1.417859588602123
-3.9205,0.408880505363835,-1.566212526274467
-3.92,0.01408403562957729,-0.9728007755850904
-3.9195,-0.03926683865883591,-0.252229364033705
-3.919,0.04609456020262521,0.3411823866556712
-3.9185,0.1527963087794516,0.7120647308365314
-3.918,0.2381577076409128,0.9134008605347127
-3.9175,0.291508581929326,0.9981739677760521
-3.917,0.3235191065023739,0.9981739677760521
-3.9165,0.3235191065023739,0.9663840525605498
-3.916,0.3128489316446912,0.9134008605347127
-3.9155,0.291508581929326,0.8392243916985406
-3.915,0.2488278824985954,0.7650479228623686
-3.9145,0.1634664836371343,0.6802748156210291
-3.914,-0.3166913849585846,0.2034260873884947
-3.9135,-0.9889124009925911,-0.6019184314042303
-3.913,-1.597112367880501,-1.322489842955616
-3.9125,-1.682473766741963,-1.42845622700729
-3.912,-1.020922925565639,-0.7714646458869092
-3.9115,-0.3593720843893152,-0.2416327256285375
-3.911,0.1207857842064037,-0.01910331912002144
-3.9105,0.3875401556484697,0.03387987290581572
-3.91,0.4622313796522482,0.02328323450064829
-3.9095,0.4622313796522482,-0.008506680714854012
-3.909,0.4302208550792003,-0.02969995752518888
-3.9085,0.5262524287983441,0.04447651131098315
-3.908,0.6863050516635838,0.1292496185523226
-3.9075,0.6436243522328531,0.13984625695749
-3.907,0.5369226036560266,0.1292496185523226
-3.9065,0.4408910299368829,0.13984625695749
-3.906,0.3555296310754218,0.1186529801471552
-3.9055,-0.03926683865883591,-0.3052125560595421
-3.905,-0.7008176798351597,-0.9410108603695881
-3.9045,-1.202315898146244,-1.460246142222792
-3.904,-1.426389570157579,-1.682775548731308
-3.9035,-1.138294849000148,-1.152943628472937
-3.903,-0.6154562809736985,-0.3793890248957141
-3.9025,-0.1459685872356623,0.2776025562246667
-3.902,0.1527963087794516,0.701468092431364
-3.9015,0.3128489316446912,0.92399749893988
-3.901,0.3768699807907871,0.9981739677760521
-3.9005,0.3768699807907871,0.9981739677760521
-3.9,0.3661998059331045,0.9451907757502149
-3.8995,0.3341892813600565,0.8710143069140429
-3.899,0.3021787567870086,0.775644561267536
-3.8985,0.2381577076409128,0.6802748156210291
-3.898,0.1848068333524996,0.5955017083796896
-3.8975,0.02475421048725994,0.3411823866556712
-3.897,-0.5087545323968721,-0.3370024712750445
-3.8965,-1.074273799854052,-1.068170521231597
-3.896,-1.298347471865388,-1.417859588602123
-3.8955,-0.722158029550525,-0.8244478379127463
-3.895,-0.1352984123779797,-0.252229364033705
-3.8945,0.2701682322139607,0.02328323450064829
-3.894,0.4942419042252961,0.07626642652648545
-3.8935,0.5475927785137094,0.04447651131098315
-3.893,0.5155822539406614,-0.02969995752518888
-3.8925,0.4622313796522482,-0.07208651114585861
-3.892,0.4622313796522482,-0.01910331912002144
-3.8915,0.6969752265212663,0.3305857482505039
-3.891,0.7183155762366316,0.4259554938970107
-3.8905,0.6116138276598051,0.3729723018711736
-3.89,0.4942419042252961,0.309392471440169
-3.8895,0.4195506802215176,0.2564092794143318
-3.889,0.08877525963335578,0.03387987290581572
-3.8885,-0.6154562809736985,-0.6019184314042303
-3.888,-1.30901764672307,-1.216523458903942
-3.8875,-1.607782542738184,-1.523825972653797
-3.887,-1.554431668449771,-1.364876396576285
-3.8865,-0.9995825758502737,-0.6654982618352349
