Class_11_Cell_phone_Call/Class_11_Cell_phone_Call_UZ_9.csv

#Digilent WaveForms Oscilloscope Acquisition
#Device Name: EExplorer
#Serial Number: SN:210151A2B84A
#Date Time: 2020-12-21 13:45:23.992
#Sample rate: 2000Hz
#Samples: 16384
#Trigger: Source: Channel 1 Type: Edge Condition: Rising Level: 0 V Hyst.: Auto HoldOff: 0 s
#Channel 1: Range: 1 V/div Offset: 0 V
#Channel 2: Range: 1 V/div Offset: 0 V

Time (s),Channel 1 (V),Channel 2 (V)
-4.0960000000000001,0.3768699807907871,0.044476511310983152
-4.0955000000000004,0.71831557623632103,-0.12506970317154156
-4.0949999999999998,0.82501732481337064,-0.13566634157679572
-4.0945,0.72898575109431429,-0.061489872740691176
-4.0940000000000003,0.54759277851387433,0.023283234500571182
-4.0934999999999997,0.36619980593314327,0.086863064931479411
-4.093,0.40888050536383502,-0.10387642636136091
-4.0925000000000002,0.40888050536383502,-0.22043944881809663
-4.0919999999999996,0.31284893164460392,-0.18864953360264256
-4.0914999999999999,0.21681735792554749,-0.12506970317169577
-4.0910000000000002,0.14212613392176898,-0.082683149551026042
-4.0904999999999996,0.024754210486784417,-0.008506680714487784
-4.0899999999999999,-0.4980843575391895,0.39416557868150842
-4.0895000000000001,-1.1809755484308786,0.87101430691404291
-4.0890000000000004,-1.7358246410298714,1.1889134590687767
-4.0884999999999998,-2.1412912856223163,1.0405605213967219
-4.0880000000000001,-2.2479930341991428,0.83922439169854057
-4.0875000000000004,-1.5330913187350559,0.24581264100970412
-4.0869999999999997,-0.8288597781268856,-0.41117894011165018
-4.0865,-0.31669138495858457,-0.88802766834375091
-4.0860000000000003,-0.0072563140860694153,-1.142346990067538
-4.0854999999999997,0.14212613392180781,-1.1953301820935489
-4.085,0.18480683335249956,-1.131750351662602
-4.0845000000000002,0.17413665849482662,-0.99399405239555061
-4.0839999999999996,0.14212613392174958,-0.83504447631774026
-4.0834999999999999,0.12078578420640371,-0.64430498502489997
-4.0830000000000002,0.12078578420640371,-0.4641621321370536
-4.0824999999999996,0.17413665849506924,-0.27342264084378926
-4.0819999999999999,0.45156120479456557,0.0020899576903134209
-4.0815000000000001,0.94238924824796699,0.50013196273318283
-4.0810000000000004,0.64362435223312486,1.0193672445859148
-4.0804999999999998,-0.028596663801153277,1.3160731199310751
-4.0800000000000001,-0.039266838658835915,0.89220758372437781
-4.0795000000000003,0.28083840707135216,0.25640927941490999
-4.0789999999999997,0.56893312822922015,-0.20984281041328581
-4.0785,0.72898575109431429,-0.48535540894738849
-4.0780000000000003,0.68630505166362266,-0.59132179299896648
-4.0774999999999997,0.53692260365591016,-0.55953187778343527
-4.077,0.40888050536383502,-0.42177557851638392
-4.0765000000000002,0.37686998079081624,-0.35819574808543714
-4.0759999999999996,0.40888050536376708,-0.3475991096800769
-4.0754999999999999,0.33418928136005654,-0.19924617200786782
-4.0750000000000002,0.23815770764091276,-0.029699957525188878
-4.0744999999999996,0.15279630877936429,0.086863064931691436
-4.0739999999999998,0.05676473506030786,0.12924961855232261
-4.0735000000000001,-0.41272295867772835,0.044476511310983152
-4.0730000000000004,-1.1489650238571611,0.27760255622445462
-4.0724999999999998,-1.7571649907457412,0.74385464605203377
-4.0720000000000001,-2.2693333839145078,0.78624119967270345
-4.0715000000000003,-2.4613965313526212,0.24581264100965583
-4.0709999999999997,-1.7678351656027058,-0.17805289519787024
-4.0705,-0.97824222613490841,-0.54893523937839306
-4.0700000000000003,-0.39138260896289689,-0.80325456110218019
-4.0694999999999997,-0.039266838658680643,-0.94101086036963633
-4.069,0.13145595906408636,-0.99399405239542526
-4.0685000000000002,0.18480683335249956,-0.99399405239542526
-4.0679999999999996,0.18480683335247045,-0.96220413717987474
-4.0674999999999999,0.15279630877945163,-0.9092209451540858
-4.0670000000000002,0.13145595906408636,-0.83504447631791379
-4.0664999999999996,0.12078578420641341,-0.75027136907649727
-4.0659999999999998,0.13145595906408636,-0.66549826183523486
-4.0655000000000001,0.27016823221396069,-0.50654868575772338
-4.0650000000000004,0.83568749967062639,0.033879872905324238
-4.0644999999999998,0.65429452709053582,0.66967817721586165
-4.0640000000000001,-0.26334051067017139,1.1253336286380615
-4.0635000000000003,-0.60478610611570527,0.79683783807816966
-4.0629999999999997,-0.22065981123899445,0.05507314971558197
-4.0625,0.27016823221396069,-0.57012851618872795
-4.0620000000000003,0.62228400251716764,-0.94101086036925086
-4.0614999999999997,0.71831557623657338,-1.0469772444211949
-4.0609999999999999,0.65429452709053582,-0.97280077558509037
-4.0605000000000002,0.49424190422529612,-0.82444783791274634
-4.0599999999999996,0.37686998079093265,-0.6337083466197132
-4.0594999999999999,0.53692260365602662,-0.61251506980939763
-4.0590000000000002,0.50491207908297886,-0.43237221692155131
-4.0585000000000004,0.37686998079090356,-0.14626297998229087
-4.0579999999999998,0.23815770764091276,0.11865298014715518
-4.0575000000000001,0.13145595906408636,0.31998910984533641
-4.0570000000000004,-0.19931946152377472,0.45774540911238776
-4.0564999999999998,-0.90355100213112993,0.72266136924169888
-4.056,-1.46907026958831,1.0935437134225592
-4.0555000000000003,-1.7785053404608249,1.294879843120557
-4.0549999999999997,-2.0132491873301346,1.3372663967413523
-4.0545,-2.0239193621878071,1.2736865663104053
-4.0540000000000003,-1.3943790455851039,0.70146809243188446
-4.0534999999999997,-0.74349837926545359,0.023283234500176046
-4.0529999999999999,-0.26334051067017139,-0.49595204735255594
-4.0525000000000002,0.024754210487259936,-0.78206128429207655
-4.0519999999999996,0.15279630877948075,-0.89862430674891836
-4.0514999999999999,0.18480683335249956,-0.89862430674891836
-4.0510000000000002,0.17413665849481691,-0.83504447631791379
-4.0505000000000004,0.15279630877947104,-0.73967473067149359
-4.0499999999999998,0.13145595906408636,-0.63370834661973252
-4.0495000000000001,0.13145595906408636,-0.52774196256805828
-4.0490000000000004,0.18480683335245104,-0.4111789401113225
-4.0484999999999998,0.41955068022177966,-0.15685961838700532
-4.048,0.70764540137894905,0.055073149716150585
-4.0475000000000003,0.40888050536410675,0.26700591781930649
-4.0469999999999997,-0.01792648894326683,0.37297230187092301
-4.0465,0.20614718306786484,0.097459703336820316
-4.0460000000000003,0.54759277851339883,-0.093279787956020002
-4.0454999999999997,0.77166645052509331,-0.19924617200789674
-4.0449999999999999,0.82501732481345802,-0.2310360872233701
-4.0445000000000002,0.71831557623663156,-0.2310360872233701
-4.0439999999999996,0.52625242879818879,-0.19924617200784855
-4.0434999999999999,0.35552963107542179,-0.17805289519753292
-4.0430000000000001,0.40888050536383502,-0.37938902489571413
-4.0425000000000004,0.44089102993685381,-0.5065486857576077
-4.0419999999999998,0.35552963107542179,-0.48535540894738849
-4.0415000000000001,0.23815770764091276,-0.43237221692155131
-4.0410000000000004,0.15279630877952927,-0.3899856633009201
-4.0404999999999998,0.046094560202188516,-0.37938902489551174
-4.04,-0.43406330839309365,-0.15685961838719809
-4.0395000000000003,-1.1276246741418345,0.38356894027584953
-4.0389999999999997,-1.5864421930232169,0.88161094531953799
-4.0385,-2.0239193621878071,1.241896651094903
-4.0380000000000003,-2.226652684483593,1.3796529503619546
-4.0374999999999996,-1.5757720181644956,0.86041766850820078
-4.0369999999999999,-0.87154047755808195,0.11865298014715518
-4.0365000000000002,-0.33803173467394987,-0.47475877054222104
-4.0359999999999996,-0.007256314085652125,-0.82444783791286202
-4.0354999999999999,0.14212613392176898,-0.95160749877475548
-4.0350000000000001,0.19547700821018218,-0.94101086036958814
-4.0345000000000004,0.18480683335250928,-0.84564111472316794
-4.0339999999999998,0.15279630877945163,-0.71848145386107198
-4.0335000000000001,0.13145595906408636,-0.57012851618872795
-4.0330000000000004,0.13145595906408636,-0.4323722169216766
-4.0324999999999998,0.15279630877968453,-0.29461591765416262
-4.032,0.40888050536383502,-0.061489872740691176
-4.0315000000000003,0.83568749967075262,0.46834204751719866
-4.0309999999999997,0.41955068022097419,0.96638405256072335
-4.0305,-0.17797911180871023,1.1571235438535634
-4.0300000000000002,-0.27401068552776664,0.75445128445756726
-4.0294999999999996,0.09944543449137809,0.13984625695710454
-4.0289999999999999,0.47290155450993088,-0.28401927924920728
-4.0285000000000002,0.66496470194821833,-0.4535654937318862
-4.0279999999999996,0.68630505166345768,-0.45356549373173199
-4.0274999999999999,0.54759277851370936,-0.28401927924920728
-4.0270000000000001,0.3982103305061524,-0.12506970317169577
-4.0265000000000004,0.38754015564847943,-0.17805289519748474
-4.0259999999999998,0.49424190422529612,-0.36879238649054674
-4.0255000000000001,0.43022085507920033,-0.36879238649054674
-4.0250000000000004,0.30217875678712508,-0.28401927924928438
-4.0244999999999997,0.19547700821010455,-0.19924617200781
-4.024,0.11011560934872107,-0.13566634157686319
-4.0235000000000003,-0.22065981123914002,0.17163617217271282
-4.0229999999999997,-0.95690187642010605,0.71206473083693622
-4.0225,-1.5757720181651362,1.1571235438535634
-4.0220000000000002,-1.8318562147492867,1.3160731199309306
-4.0214999999999996,-2.1199509359066013,1.4114428655772255
-4.0209999999999999,-1.7358246410303759,1.0193672445863871
-4.0205000000000002,-1.0422632752810042,0.29879583303500157
-4.0199999999999996,-0.46607383296580185,-0.30521255605988906
-4.0194999999999999,-0.092617712947249131,-0.68669153864556975
-4.0190000000000001,0.11011560934872107,-0.82444783791274634
-4.0185000000000004,0.18480683335243164,-0.81385119950758855
-4.0179999999999998,0.18480683335249956,-0.71848145386107198
-4.0175000000000001,0.16346648363713429,-0.5807251545938954
-4.0170000000000003,0.14212613392178838,-0.42177557851652847
-4.0164999999999997,0.13145595906409607,-0.27342264084393381
-4.016,0.14212613392176898,-0.15685961838719809
-4.0155000000000003,0.18480683335246073,-0.050893234335620124
-4.0149999999999997,0.59027347794447871,0.13984625695788516
-4.0145,0.63295417737517057,0.57430843156935485
-4.0140000000000002,0.078105084776177724,0.99817396777566647
-4.0134999999999996,0.088775259633782772,0.66967817721524481
-4.0129999999999999,0.55826295337139209,-0.0085066807148540119
-4.0125000000000002,0.88903837395955376,-0.29461591765437467
-4.0119999999999996,1.006410297393995,-0.31580919446465172
-4.0114999999999998,0.93171907339028448,-0.25222936403370499
-4.0110000000000001,0.70764540137894905,-0.19924617200786782
-4.0105000000000004,0.49424190422549019,-0.16745625679239443
-4.0099999999999998,0.34485945621773917,-0.2310360872233701
-4.0095000000000001,0.32351910650237387,-0.4641621321370536
-4.0090000000000003,0.24882788249866333,-0.60191843140410506
-4.0084999999999997,0.18480683335245104,-0.68669153864561794
-4.008,0.13145595906408636,-0.73967473067140688
-4.0075000000000003,0.088775259633394596,-0.77146464588688035
-4.0069999999999997,-0.092617712947744055,-0.73967473067103107
-4.0065,-0.63679663068906378,-0.32640583286987701
-4.0060000000000002,-1.2983474718653876,0.36237566346600614
-4.0054999999999996,-1.9919088376152252,0.98757732937127019
-4.0049999999999999,-2.5040772307835262,1.4114428655775821
-4.0045000000000002,-2.3120140833452387,1.3160731199310751
-4.0039999999999996,-1.4157193952992368,0.63788826199974258
-4.0034999999999998,-0.69014750497747701,-0.04029659593035631
-4.0030000000000001,-0.18864928666639288,-0.49595204735255594
-4.0025000000000004,0.078105084775430517,-0.69728817705055413
-4.0019999999999998,0.18480683335249956,-0.71848145386107198
-4.0015000000000001,0.20614718306786484,-0.63370834661973252
-4.0010000000000003,0.18480683335251896,-0.49595204735268122
-4.0004999999999997,0.15279630877943223,-0.33700247127490951
-4,0.13145595906408636,-0.18864953360270037
-3.9994999999999998,0.13145595906408636,-0.050893234335523743
-3.9990000000000001,0.18480683335249956,0.065669788121318018
-3.9984999999999999,0.33418928136005654,0.20342608738849466
-3.9980000000000002,0.97439977282101498,0.48953532432801533
-3.9975000000000001,1.657290963712704,0.89220758372437781
-3.9969999999999999,1.5612593899935603,0.97698069096571727
-3.9965000000000002,1.4332172917013686,0.55311515475901996
-3.996,1.2945050185514941,0.17163617217299235
-3.9954999999999998,1.1344523956862547,-0.15685961838719809
-3.9950000000000001,0.94238924824796699,-0.34759910968021185
-3.9944999999999999,0.71831557623663156,-0.43237221692155131
-3.9940000000000002,0.51558225394066137,-0.4641621321370536
-3.9935,0.34485945621773917,-0.48535540894738849
-3.9929999999999999,0.38754015564846972,-0.66549826183523486
-3.9925000000000002,0.40888050536383502,-0.80325456110241145
-3.992,0.33418928136005654,-0.78206128429207655
-3.9914999999999998,0.22748753278323011,-0.71848145386107198
-3.9910000000000001,0.15279630877945163,-0.66549826183523486
-3.9904999999999999,0.024754210487259936,-0.60191843140423029
-3.9900000000000002,-0.55143523182760279,-0.24163272562853755
-3.9895,-1.2023158981462438,0.39416557868150842
-3.9889999999999999,-1.6611334170265974,0.83922439169854057
-3.9885000000000002,-2.1412912856223163,1.0087706061812196
-3.988,-2.4187158319220647,1.0511571598018894
-3.9874999999999998,-1.7251544661726932,0.66967817721586165
-3.9870000000000001,-0.95690187641954316,0.097459703336820316
-3.9864999999999999,-0.38071243410468042,-0.34759910968021185
-3.9860000000000002,-0.028596663801153277,-0.5807251545938954
-3.9855,0.14212613392176898,-0.63370834661973252
-3.9849999999999999,0.19547700821018218,-0.5807251545938954
-3.9845000000000002,0.19547700821018218,-0.4641621321370536
-3.984,0.16346648363713429,-0.32640583286987701
-3.9834999999999998,0.14212613392176898,-0.18864953360270037
-3.9830000000000001,0.13145595906408636,-0.072086511145858609
-3.9824999999999999,0.15279630877945163,0.033879872905815719
-3.9820000000000002,0.34485945621773917,0.23521600260399694
-3.9815,0.857027849386506,0.61669498519002452
-3.9809999999999999,1.3051751934091769,1.0617537982070568
-3.9805000000000001,1.1557927454016199,1.3584596735517449
-3.98,0.96372959796333246,1.0829470750173917
-3.9794999999999998,0.92104889853260175,0.48953532432801533
-3.9790000000000001,0.91037872367491923,0.0020899576903134209
-3.9784999999999999,0.857027849386506,-0.29461591765437467
-3.9780000000000002,0.75032610080967954,-0.4641621321370536
-3.9775,0.57960330308675734,-0.61251506980939763
-3.9769999999999999,0.38754015564846972,-0.6972881770507372
-3.9765000000000001,0.34485945621773917,-0.78206128429207655
-3.976,0.44089102993688295,-0.91981758355925325
-3.9754999999999998,0.38754015564846972,-0.85623775312824868
-3.9750000000000001,0.28083840707164331,-0.71848145386107198
-3.9744999999999999,0.18480683335249956,-0.5807251545938954
-3.9740000000000002,0.08877525963335578,-0.47475877054222104
-3.9735,-0.26334051067017139,-0.1674562567923655
-3.9729999999999999,-0.93556152670417769,0.4471487707073456
-3.9725000000000001,-1.405049220442214,1.0193672445863871
-3.972,-1.5651018433074537,1.2948798431207402
-3.9714999999999998,-1.7678351656034239,1.4220395039827496
-3.9710000000000001,-1.6824737667419627,1.2207033742845681
-3.9704999999999999,-1.1276246741424654,0.57430843156935485
-3.9700000000000002,-0.57277558154296804,-0.04029659593035631
-3.9695,-0.16730893695102761,-0.44296885532671876
-3.9689999999999999,0.05676473506030786,-0.60191843140423029
-3.9685000000000001,0.15279630877945163,-0.5807251545938954
-3.968,0.17413665849481691,-0.48535540894738849
-3.9674999999999998,0.16346648363713429,-0.33700247127504446
-3.9670000000000001,0.14212613392176898,-0.17805289519753292
-3.9664999999999999,0.13145595906408636,-0.04029659593035631
-3.9660000000000002,0.15279630877945163,0.086863064931652884
-3.9655,0.19547700821018218,0.19282944898332721
-3.9649999999999999,0.50491207908297886,0.46834204751768049
-3.9645000000000001,1.2091436196900331,0.89220758372437781
-3.964,1.2945050185514941,1.2630899279052379
-3.9634999999999998,1.0384208219671107,0.9134008605347127
-3.9630000000000001,1.1024418711132067,-0.082683149551026042
-3.9624999999999999,1.1237822208285719,-0.51714532416289083
-3.9620000000000002,1.0384208219671107,-0.78206128429207655
-3.9615,0.87836819910187125,-0.88802766834375091
-3.9609999999999999,0.65429452709053582,-0.9092209451540858
-3.9605000000000001,0.43022085507920033,-0.85623775312824868
-3.96,0.28083840707164331,-0.81385119950757889
-3.9594999999999998,0.33418928136005654,-0.9304142219644207
-3.9590000000000001,0.31284893164469124,-0.89862430674891836
-3.9584999999999999,0.24882788249859539,-0.76086800748174177
-3.9580000000000002,0.17413665849481691,-0.60191843140423029
-3.9575,0.12078578420640371,-0.47475877054222104
-3.9569999999999999,0.024754210487259936,-0.34759910968021185
-3.9565000000000001,-0.47674400782382426,0.023283234500648287
-3.956,-1.1169544992847826,0.60609834678485708
-3.9554999999999998,-1.7144842913150107,1.1147369902328941
-3.9550000000000001,-2.3333544330606037,1.4750226960085864
-3.9544999999999999,-2.4080456570643824,1.4856193344137538
-3.9540000000000002,-1.6077825427381842,0.89220758372437781
-3.9535,-0.8502001278427167,0.18223281057815977
-3.9529999999999998,-0.30602121010090194,-0.32640583286987701
-3.9525000000000001,0.014084035629577295,-0.59132179299906285
-3.952,0.16346648363713429,-0.64430498502489997
-3.9514999999999998,0.19547700821018218,-0.57012851618872795
-3.9510000000000001,0.18480683335249956,-0.44296885532671876
-3.9504999999999999,0.15279630877945163,-0.29461591765437467
-3.9500000000000002,0.13145595906408636,-0.14626297998203064
-3.9495,0.13145595906408636,-0.019103319120021445
-3.9489999999999998,0.15279630877945163,0.086863064931652884
-3.9485000000000001,0.35552963107542179,0.37297230187117358
-3.948,0.6863050516635838,0.84982103010370802
-3.9474999999999998,0.41955068022151765,1.2630899279052379
-3.9470000000000001,0.014084035629577295,1.1995100974742332
-3.9464999999999999,0.21681735792554749,0.28819919462983412
-3.9460000000000002,0.5689331282290746,-0.43237221692155131
-3.9455,0.79300680024041004,-0.91981758355925325
-3.9449999999999998,0.82501732481345802,-1.1741369052832717
-3.9445000000000001,0.69697522652126631,-1.1847335436884392
-3.944,0.50491207908297886,-1.0681705212315973
-3.9434999999999998,0.32351910650237387,-0.87743102993858346
-3.9430000000000001,0.22748753278323011,-0.6972881770507372
-3.9424999999999999,0.17413665849481691,-0.52774196256805828
-3.9420000000000002,0.13145595906408636,-0.3581957480853793
-3.9415,0.11011560934872107,-0.22043944881820265
-3.9409999999999998,0.08877525963335578,-0.093279787956193475
-3.9405000000000001,0.024754210487259936,0.012686596095480854
-3.9399999999999999,-0.48741418268150688,0.28819919462983412
-3.9394999999999998,-1.1916457232885611,0.775644561267536
-3.9390000000000001,-1.67180359188428,1.1995100974742332
-3.9384999999999999,-2.1306211107646336,1.4962159728189213
-3.9380000000000002,-2.365364957633652,1.5491991648447585
-3.9375,-1.6611334170265974,0.99817396777605205
-3.9369999999999998,-0.91422117698881245,0.26700591781949923
-3.9365000000000001,-0.35937208438931517,-0.29461591765437467
-3.9359999999999999,-0.017926488943470625,-0.60191843140423029
-3.9355000000000002,0.14212613392176898,-0.70788481545590454
-3.9350000000000001,0.19547700821018218,-0.66549826183523486
-3.9344999999999999,0.18480683335249956,-0.57012851618872795
-3.9340000000000002,0.16346648363713429,-0.44296885532671876
-3.9335,0.13145595906408636,-0.30521255605954212
-3.9329999999999998,0.12078578420640371,-0.18864953360270037
-3.9325000000000001,0.15279630877945163,-0.082683149551026042
-3.9319999999999999,0.3768699807907871,0.10805634174198775
-3.9315000000000002,0.94238924824796699,0.58490506997452218
-3.931,0.71831557623663156,1.0723504366122243
-3.9304999999999999,-0.11395806266261441,1.3160731199310751
-3.9300000000000002,-0.20998963638175816,0.75445128445720111
-3.9295,0.19547700821018218,0.11865298014715518
-3.9289999999999998,0.59027347794443985,-0.36879238649054674
