Class_9_Think_Grab_one_hand_movement/Class_9_Think_Right_hand_Grab_Basim_9.csv

#Digilent WaveForms Oscilloscope Acquisition
#Device Name: EExplorer
#Serial Number: SN:210151A2B84A
#Date Time: 2021-02-03 11:07:40.948
#Sample rate: 2000Hz
#Samples: 16384
#Trigger: Source: Channel 1 Type: Edge Condition: Rising Level: 0 V Hyst.: Auto HoldOff: 0 s
#Channel 1: Range: 1 V/div Offset: 0 V Attenuation: 1 X
#Channel 2: Range: 1 V/div Offset: 0 V Attenuation: 1 X
#Power Supplies: ON
#Fixed Supply: ON
#Voltage: 3.3 V Readback: 3.337 V
#Positive Supply: ON
#Voltage: 3.7 V Readback: 3.723 V
#Current: 40 mA Readback: 18 mA
#Negative Supply: ON
#Voltage: -3.7 V Readback: -3.345 V
#Current: -40 mA Readback: -8 mA
#Reference 1: ON
#Voltage: 0 V
#Reference 2: ON
#Voltage: 0 V

Time (s),Channel 1 (V),Channel 2 (V)
-4.096,-0.7328282044082075,0.05507314971615059
-4.0955,-1.010252750707704,-0.5807251545933172
-4.095,-1.298347471865456,-0.4535654937313465
-4.0945,-1.373038695869166,0.13984625695749
-4.094,-0.9248913518469027,0.298795833034857
-4.0935,-0.402052783819677,0.2246193641987331
-4.093,0.00341386077189465,0.1186529801471552
-4.0925,0.2381577076406993,0.05507314971620841
-4.092,0.3555296310754509,0.05507314971620841
-4.0915,0.3875401556484697,0.1186529801471552
-4.091,0.3768699807907871,0.2140227257936621
-4.0905,0.3555296310754121,0.3093924714402653
-4.09,0.3448594562177392,0.4153588554918433
-4.0895,0.3235191065023739,0.5107286011383502
-4.089,0.3235191065023739,0.5955017083796126
-4.0885,0.1848068333524996,0.4895353243280153
-4.088,-0.391382608962363,-0.08268314955102604
-4.0875,-0.8181896032692806,-0.6972881770501782
-4.087,-0.9355615267038089,-0.962204137179682
-4.0865,-0.5300948821122373,-0.6972881770507372
-4.086,-0.0285966638016093,-0.3264058328702144
-4.0855,0.3128489316448368,0.08686306493195164
-4.085,0.4729015545099309,0.4153588554918433
-4.0845,0.5049120790829498,0.584905069974368
-4.084,0.4942419042252573,0.6484849004055172
-4.0835,0.4515612047945656,0.6378882620003594
-4.083,0.5902734779444399,0.5849050699745222
-4.0825,0.7183155762365734,0.5001319627330671
-4.082,0.6542945270905358,0.3729723018711736
-4.0815,0.5369226036560266,0.2352160026039969
-4.081,0.4302208550792974,0.1186529801472612
-4.0805,0.3661998059331045,0.03387987290581572
-4.08,0.1101156093487211,0.1928294489833272
-4.0795,-0.4874141826809634,0.2564092794142739
-4.079,-0.8181896032698531,-0.3793890248959165
-4.0785,-1.020922925565639,-0.6019184314042303
-4.078,-1.319687821580481,0.002089957689764055
-4.0775,-1.095614149568971,0.3411823866556038
-4.077,-0.6047861061160158,0.2670059178194992
-4.0765,-0.1566387620937525,0.09745970333697451
-4.076,0.1527963087795972,-0.0296999575252467
-4.0755,0.3128489316446912,-0.09327978795619347
-4.075,0.3768699807907871,-0.08268314955102604
-4.0745,0.3768699807907774,-0.008506680714767274
-4.074,0.3661998059331045,0.08686306493165288
-4.0735,0.3448594562177392,0.1928294489833272
-4.073,0.3341892813600663,0.2987958330349052
-4.0725,0.3235191065023739,0.3941655786815084
-4.072,0.2701682322139607,0.4153588554918433
-4.0715,-0.1886492866659756,-0.0296999575247841
-4.071,-0.6794773301202213,-0.6125150698097928
-4.0705,-1.148965023857831,-1.046977244421262
-4.07,-1.042263275281101,-0.9516074987748422
-4.0695,-0.4980843575387528,-0.4853554089468681
-4.069,-0.01792648894347063,0.08686306493165288
-4.0685,0.291508581929326,0.5107286011383502
-4.068,0.4408910299369218,0.733258007646982
-4.0675,0.4835717293676135,0.8604176685088755
-4.067,0.4729015545099309,0.9028042221295453
-4.0665,0.5155822539407973,0.7332580076465097
-4.066,0.6649647019482183,0.3411823866556712
-4.0655,0.6436243522328531,0.1716361721729923
-4.065,0.5475927785137967,0.08686306493172999
-4.0645,0.4408910299368829,0.04447651131098315
-4.064,0.3768699807907871,0.002089957690313421
-4.0635,0.2381577076410389,0.08686306493157578
-4.063,-0.3380317346745321,0.2458126410086536
-4.0625,-0.9782422261349084,-0.3158091944647096
-4.062,-1.341028171295788,-0.8456411147225994
-4.0615,-1.68247376674174,-0.4005823017056057
-4.061,-1.437059745015262,0.08686306493165288
-4.0605,-0.8288597781273515,0.13984625695749
-4.06,-0.2740106855275143,0.03387987290569043
-4.0595,0.09944543449103843,-0.1038764263613609
-4.059,0.3021787567870086,-0.1780528951975329
-4.0585,0.3875401556483921,-0.1992461720078486
-4.058,0.3982103305061524,-0.1568596183871981
-4.0575,0.3768699807907871,-0.08268314955102604
-4.057,0.3555296310754412,0.002089957690236316
-4.0565,0.3341892813600565,0.1080563417419877
-4.056,0.3235191065023739,0.2140227257936621
-4.0555,0.312848931644701,0.2987958330349245
-4.055,0.003413860771254155,0.002089957689744803
-4.0545,-0.7008176798351597,-0.6231117082145651
-4.054,-1.31968782158019,-1.152943628472455
-4.0535,-1.458400094730103,-1.195330182093211
-4.053,-0.8822106524157645,-0.7608680074817418
-4.0525,-0.2526703358124887,-0.2310360872233701
-4.052,0.195477008210386,0.2776025562249847
-4.0515,0.4195506802215176,0.627291623595192
-4.051,0.5049120790829789,0.8180311148882058
-4.0505,0.5049120790829789,0.8922075837243103
-4.05,0.4835717293676135,0.8710143069140429
-4.0495,0.6329541773751706,0.6060983467848571
-4.049,0.6649647019481892,0.3941655786817012
-4.0485,0.5796033030866603,0.2776025562245992
-4.048,0.4729015545099309,0.2034260873884947
-4.0475,0.3982103305062203,0.1398462569575479
-4.047,0.334189281359746,0.09745970333708052
-4.0465,-0.007256314085787988,0.383568940276341
-4.046,-0.7541685541228936,0.2140227257938163
-4.0455,-1.266336947292699,-0.4747587705425584
-4.045,-1.661133417026597,-0.8456411147230812
-4.0445,-1.67180359188428,-1.142346990067769
-4.044,-1.084943974711172,-0.9516074987744279
-4.0435,-0.4660738329661415,-0.5913217929990628
-4.043,-0.01792648894347063,-0.2628260024388724
-4.0425,0.2488278824983528,-0.05089323433571649
-4.042,0.3768699807907871,0.05507314971615059
-4.0415,0.408880505363835,0.1080563417419877
-4.041,0.3982103305061621,0.1186529801471455
-4.0405,0.366199805933085,0.1186529801471456
-4.04,0.3448594562177392,0.1080563417419877
-4.0395,0.3341892813600663,0.1186529801471455
-4.039,0.3235191065022477,0.1292496185521684
-4.0385,0.1848068333524996,-0.04029659593035631
-4.038,-0.4767440078232226,-0.6549016234295084
-4.0375,-1.234326422719748,-1.322489842956049
-4.037,-1.735824641030376,-1.79933857118815
-4.0365,-1.277007122150022,-1.587405803084801
-4.036,-0.5514352318270788,-0.9622041371793351
-4.0355,0.02475421048725994,-0.3158091944647096
-4.035,0.3555296310754218,0.2246193641988295
-4.0345,0.504912079082843,0.5213252395432477
-4.034,0.5262524287983441,0.6908714540261965
-4.0335,0.5049120790829789,0.7650479228623686
-4.033,0.6329541773750541,0.8710143069139465
-4.0325,0.8143471499557073,0.91340086053452
-4.032,0.7396559259519968,0.701468092431364
-4.0315,0.6009436528022487,0.4259554938972613
-4.031,0.4729015545098532,0.1822328105780056
-4.0305,0.3875401556484697,0.01268659609548085
-4.03,0.1634664836373381,0.09745970333674321
-4.0295,-0.5194247072550886,0.07626642652592647
-4.029,-1.1062843244271,-0.5383386009732256
-4.0285,-1.394379045584531,-0.7714646458869092
-4.028,-1.58644219302245,-0.1462629799816933
-4.0275,-1.180975548430879,0.2246193641988295
-4.027,-0.5941159312583333,0.2352160026039969
-4.0265,-0.1139580626630511,0.1398462569575768
-4.026,0.1954770082101822,0.05507314971615059
-4.0255,0.3448594562177392,0.02328323450064829
-4.025,0.3982103305061039,0.04447651131096388
-4.0245,0.398210330506133,0.1186529801472323
-4.024,0.3768699807907871,0.2034260873884947
-4.0235,0.3555296310754412,0.288199194629757
-4.023,0.3448594562177295,0.3835689402764085
-4.0225,0.3341892813600565,0.457745409112513
-4.022,0.2701682322140189,0.4471487707073553
-4.0215,-0.2526703358131874,-0.04029659593095384
-4.021,-1.020922925565639,-0.6972881770507372
-4.0205,-1.703814116457328,-1.205926820498774
-4.02,-1.586442193022101,-1.439052865412178
-4.0195,-0.7968492535543035,-1.131750351662602
-4.019,-0.124628237520297,-0.5489352393783931
-4.0185,0.3021787567866204,0.05507314971560129
-4.018,0.4942419042252961,0.4789386859228479
-4.0175,0.5369226036560266,0.7120647308365314
-4.017,0.5155822539406808,0.7756445612674782
-4.0165,0.5369226036562498,0.7756445612676324
-4.016,0.7823366253827275,0.8816109453192104
-4.0155,0.7930068002404004,0.7120647308366856
-4.015,0.6649647019480922,0.4153588554915927
-4.0145,0.5262524287983441,0.13984625695749
-4.014,0.4195506802216147,-0.06148987274050807
-4.0135,0.3021787567865331,-0.1144730647663549
-4.013,-0.2206598112394408,0.07626642652648545
-4.0125,-0.9675720512772257,-0.3687923864905467
-4.012,-1.37303869586936,-1.057573882826931
-4.0115,-1.586442193022819,-1.608599079895136
-4.011,-1.180975548430879,-1.449649503817625
-4.0105,-0.5941159312588671,-0.8774310299391039
-4.01,-0.1139580626626144,-0.3475991096802118
-4.0095,0.1954770082101822,0.03387987290581572
-4.009,0.3555296310752762,0.2458126410089716
-4.0085,0.408880505363835,0.3411823866556905
-4.008,0.408880505363835,0.3623756634660061
-4.0075,0.3875401556484891,0.3517790250608483
-4.007,0.366199805933085,0.3305857482504846
-4.0065,0.3448594562177392,0.309392471440169
-4.006,0.3341892813600565,0.2881991946298341
-4.0055,0.3235191065021216,0.2564092794140041
-4.005,0.04609456020262521,-0.1038764263613609
-4.0045,-0.5621054066852853,-0.8138511995075789
-4.004,-1.052933450138813,-1.460246142223014
-4.0035,-1.191645723288561,-1.703968825541643
-4.003,-0.7008176798351597,-1.34368311976595
-4.0025,-0.135298412378494,-0.7290780922667984
-4.002,0.2488278824985954,-0.1356663415768632
-4.0015,0.4515612047945656,0.2564092794143318
-4.001,0.5155822539406032,0.4471487707071721
-4.0005,0.5049120790829594,0.5107286011383405
-4,0.4835717293676135,0.5001319627331828
-3.9995,0.6969752265212663,0.6696781772158616
-3.999,0.79300680024041,0.6908714540261965
-3.9985,0.6863050516635838,0.5107286011383502
-3.998,0.5582629533713921,0.2881991946298341
-3.9975,0.4408910299368829,0.1080563417419877
-3.997,0.3555296310754218,0.01268659609548085
-3.9965,-0.02859666380115328,0.1928294489833272
-3.996,-0.7008176798351597,-0.08268314955102604
-3.9955,-1.052933450138687,-0.7396747306714069
-3.995,-1.330357996438436,-0.6654982618352349
-3.9945,-1.437059745015262,-0.008506680714854012
-3.994,-0.9889124009925911,0.2458126410091644
-3.9935,-0.4447334832507763,0.2246193641988295
-3.993,-0.01792648894347063,0.13984625695749
-3.9925,0.2488278824985954,0.07626642652648545
-3.992,0.3661998059331045,0.07626642652648545
-3.9915,0.408880505363835,0.1292496185523226
-3.991,0.3982103305061524,0.2034260873884947
-3.9905,0.3768699807907871,0.2987958330350016
-3.99,0.3555296310754218,0.4047622170866759
-3.9895,0.3448594562177392,0.4895353243280153
-3.989,0.3341892813600565,0.5743084315693548
-3.9885,0.1954770082101822,0.457745409112513
-3.988,-0.3166913849585846,-0.1038764263613609
-3.9875,-0.7861790786966207,-0.718481453861072
-3.987,-0.9355615267041777,-1.01518732920576
-3.9865,-0.5407650569699201,-0.718481453861072
-3.986,-0.04993701351651855,-0.326405832869877
-3.9855,0.291508581929326,0.1080563417419877
-3.985,0.4515612047945656,0.4365521323021782
-3.9845,0.4942419042252961,0.6484849004055269
-3.984,0.4942419042252961,0.701468092431364
-3.9835,0.4515612047945656,0.6590815388106942
-3.983,0.5796033030867573,0.701468092431364
-3.9825,0.79300680024041,0.7650479228623686
-3.982,0.7503261008096795,0.5743084315693548
-3.9815,0.6222840025174878,0.3199891098453364
-3.981,0.4942419042252961,0.09745970333682032
-3.9805,0.3982103305061524,-0.05089323433552374
-3.98,0.1527963087794516,0.07626642652648545
-3.9795,-0.5194247072545548,0.1716361721729923
-3.979,-1.095614149569417,-0.4111789401112165
-3.9785,-1.383708870726849,-0.7290780922662394
-3.978,-1.629122892453549,-0.1568596183871981
-3.9775,-1.26633694729234,0.2352160026039969
-3.977,-0.6688071552621118,0.2458126410091644
-3.9765,-0.156638762093345,0.1504428953626575
-3.976,0.1741366584948169,0.05507314971615059
-3.9755,0.3448594562177392,0.02328323450064829
-3.975,0.408880505363835,0.04447651131098315
-3.9745,0.408880505363835,0.1080563417419877
-3.974,0.3875401556484697,0.1928294489833272
-3.9735,0.3661998059331045,0.2987958330350016
-3.973,0.3448594562177392,0.383568940276341
-3.9725,0.3448594562177392,0.4683420475176805
-3.972,0.3021787567870086,0.4789386859228479
-3.9715,-0.156638762093345,0.05507314971615059
-3.971,-0.722158029550525,-0.5595318777835605
-3.9705,-1.052933450138687,-0.9939940523954253
-3.97,-0.9355615267041777,-0.9622041371799229
-3.9695,-0.4127229586777283,-0.6019184314042303
-3.969,0.05676473506030786,-0.1250697031716958
-3.9685,0.3448594562177392,0.3199891098453364
-3.968,0.4835717293676135,0.6166949851900245
-3.9675,0.5049120790829789,0.7332580076468663
-3.967,0.4942419042252961,0.7438546460520338
-3.9665,0.5155822539406614,0.7226613692416989
-3.966,0.7289857510943143,0.8074344764830383
-3.9655,0.7289857510943143,0.6590815388106942
-3.965,0.6222840025174878,0.3941655786815084
-3.9645,0.5049120790829789,0.1610395337678249
-3.964,0.408880505363835,-0.01910331912002144
-3.9635,0.291508581929326,-0.05089323433552374
-3.963,-0.2420001609548061,0.2246193641988295
-3.9625,-0.9569018764195432,-0.1674562567923655
-3.962,-1.341028171296118,-0.7396747306714069
-3.9615,-1.682473766741963,-0.3793890248957141
-3.961,-1.533091318734406,0.1822328105781598
-3.9605,-0.9248913518464952,0.2776025562246667
-3.96,-0.3487019095316325,0.1610395337678249
-3.9595,0.0674349099179905,0.04447651131098315
-3.959,0.291508581929326,-0.02969995752518888
-3.9585,0.3982103305061524,-0.04029659593035631
-3.958,0.4195506802215176,0.01268659609548085
-3.9575,0.3982103305061524,0.08686306493165288
-3.957,0.3768699807907871,0.1822328105781598
-3.9565,0.3555296310754218,0.2776025562246667
-3.956,0.3448594562177392,0.3729723018711736
-3.9555,0.3341892813600565,0.457745409112513
-3.955,0.05676473506030786,0.2140227257936621
-3.9545,-0.4554036581084589,-0.3899856633008816
-3.954,-0.7861790786966207,-0.9410108603695881
-3.9535,-0.7434983792658902,-1.163540266878104
-3.953,-0.2846808603855366,-0.9410108603695881
-3.9525,0.142126133921769,-0.474758770542221
-3.952,0.3982103305061524,0.03387987290581572
-3.9515,0.5049120790829789,0.4471487707073456
-3.951,0.5155822539406614,0.6908714540261965
-3.9505,0.4942419042252961,0.7862411996727035
-3.95,0.4622313796522482,0.7438546460520338
-3.9495,0.5902734779444399,0.7120647308365314
-3.949,0.6436243522328531,0.6166949851900245
-3.9485,0.5689331282290746,0.457745409112513
-3.948,0.4835717293676135,0.2881991946298341
-3.9475,0.408880505363835,0.1292496185523226
-3.947,0.3448594562177392,0.002089957690313421
-3.9465,0.00341386077189465,0.1504428953626575
-3.946,-0.6154562809736985,-0.1144730647665284
-3.9455,-0.8822106524157645,-0.792657922697244
-3.945,-1.148965023857831,-0.792657922697244
-3.9445,-1.351698346153801,-0.1038764263613609
-3.944,-0.9889124009925911,0.1822328105781598
-3.9435,-0.4767440078238243,0.1292496185523226
-3.943,-0.04993701351651855,-0.008506680714854012
-3.9425,0.2168173579255475,-0.1356663415768632
-3.942,0.3555296310754218,-0.1886495336027004
-3.9415,0.3982103305061524,-0.1780528951975329
-3.941,0.3982103305061524,-0.1250697031716958
-3.9405,0.3768699807907871,-0.05089323433552374
-3.94,0.3555296310754218,0.04447651131098315
-3.9395,0.3448594562177392,0.1504428953626575
-3.939,0.3341892813600565,0.2458126410091644
-3.9385,0.2061471830678648,0.1822328105781598
-3.938,-0.3273615598162672,-0.3581957480853793
-3.9375,-0.7755089038389382,-0.9304142219644207
-3.937,-1.052933450138687,-1.311893204550448
-3.9365,-0.7861790786966207,-1.195330182093607
-3.936,-0.274010685527854,-0.6760949002404023
-3.9355,0.142126133921769,-0.05089323433552374
-3.935,0.3875401556484697,0.4471487707073456
-3.9345,0.4942419042252961,0.7438546460520338
-3.934,0.5155822539406614,0.9134008605347127
-3.9335,0.4835717293676135,0.92399749893988
-3.933,0.5369226036560266,0.7226613692416989
-3.9325,0.6649647019482183,0.4047622170866759
-3.932,0.6222840025174878,0.2776025562246667
-3.9315,0.5262524287983441,0.2140227257936621
-3.931,0.4408910299368829,0.1610395337678249
-3.9305,0.3768699807907871,0.1080563417419877
-3.93,0.1848068333524996,0.2034260873884947
-3.9295,-0.4554036581084589,0.2246193641988295
-3.929,-1.138294849000148,-0.4111789401112165
-3.9285,-1.618452717595867,-0.8456411147230812
-3.928,-1.991908837614759,-0.3052125560595421
-3.9275,-1.597112367880501,0.1716361721729923
-3.927,-0.8715404775580819,0.1822328105781598
-3.9265,-0.2633405106701714,0.03387987290581572
-3.926,0.1314559590640864,-0.1250697031716958
-3.9255,0.3341892813600565,-0.2310360872233701
-3.925,0.4195506802215176,-0.252229364033705
-3.9245,0.4195506802215176,-0.2204394488182027
-3.924,0.3982103305061524,-0.1568596183871981
-3.9235,0.3768699807907871,-0.06148987274069118
-3.923,0.3555296310754218,0.04447651131098315
-3.9225,0.3448594562177392,0.1610395337678249
-3.922,0.3128489316446912,0.2140227257936621
-3.9215,-0.1139580626626144,-0.1674562567923655
-3.921,-0.6367966306890638,-0.7502713690765743
-3.9205,-1.052933450138687,-1.195330182093607
-3.92,-0.9142211769888124,-1.05757388282643
-3.9195,-0.391382608962363,-0.6231117082145651
-3.919,0.0674349099179905,-0.1144730647665284
-3.9185,0.3555296310754218,0.3411823866556712
-3.918,0.4835717293676135,0.6590815388106942
-3.9175,0.5155822539406614,0.7862411996727035
-3.917,0.4942419042252961,0.8392243916985406
-3.9165,0.5049120790829789,0.8286277532933731
-3.916,0.6649647019482183,0.8604176685088755
-3.9155,0.6756348768059011,0.7650479228623686
-3.915,0.5796033030867573,0.5849050699745222
-3.9145,0.4835717293676135,0.3941655786815084
-3.914,0.408880505363835,0.2246193641988295
-3.9135,0.3235191065023739,0.1504428953626575
-3.913,-0.1352984123779797,0.3305857482505039
-3.9125,-0.9035510021311299,-0.1038764263613609
-3.912,-1.447729919872945,-0.8668343915334161
-3.9115,-1.87453691418025,-1.555615887869299
-3.911,-1.735824641030376,-1.778145294377815
-3.9105,-1.042263275281004,-1.269506650929778
-3.91,-0.4020527838200457,-0.6654982618352349
-3.9095,0.04609456020262521,-0.2098428104130352
-3.909,0.291508581929326,0.05507314971615059
-3.9085,0.408880505363835,0.1716361721729923
-3.908,0.4302208550792003,0.2034260873884947
-3.9075,0.408880505363835,0.1822328105781598
-3.907,0.3875401556484697,0.1504428953626575
-3.9065,0.3661998059331045,0.1186529801471552
-3.906,0.3448594562177392,0.09745970333682032
-3.9055,0.3341892813600565,0.07626642652648545
-3.905,0.07810508477567314,-0.2204394488182027
-3.9045,-0.6367966306890638,-0.8774310299385835
-3.904,-1.223656247861609,-1.502632695843462
-3.9035,-1.26633694729234,-1.788741932782983
-3.903,-0.722158029550525,-1.449649503817625
-3.9025,-0.124628237520297,-0.8986243067489184
-3.902,0.2808384070716433,-0.2946159176543747
-3.9015,0.4835717293676135,0.1928294489833272
-3.901,0.5369226036560266,0.4789386859228479
-3.9005,0.5155822539406614,0.627291623595192
-3.9,0.4942419042252961,0.6590815388106942
-3.8995,0.6009436528021226,0.7438546460520338
-3.899,0.6436243522328531,0.7438546460520338
-3.8985,0.5689331282290746,0.6060983467848571
-3.898,0.4835717293676135,0.4259554938970107
-3.8975,0.408880505363835,0.2670059178194992
-3.897,0.3661998059331045,0.13984625695749
-3.8965,0.04609456020262521,0.2670059178194992
-3.896,-0.6261264558313813,0.03387987290581572
-3.8955,-1.180975548430879,-0.6760949002404023
-3.895,-1.501080794161358,-0.792657922697244
-3.8945,-1.746494815888059,-0.3793890248957141
-3.894,-1.298347471865388,-0.2416327256285375
-3.8935,-0.6688071552621118,-0.1356663415768632
-3.893,-0.1352984123779797,-0.06148987274069118
-3.8925,0.1954770082101822,0.002089957690313421
-3.892,0.3661998059331045,0.04447651131098315
-3.8915,0.4195506802215176,0.09745970333682032
-3.891,0.4195506802215176,0.1504428953626575
-3.8905,0.3982103305061524,0.2140227257936621
-3.89,0.3768699807907871,0.2670059178194992
-3.8895,0.3555296310754218,0.3199891098453364
-3.889,0.3448594562177392,0.3623756634660061
-3.8885,0.2701682322139607,0.2881991946298341
-3.888,-0.2420001609548061,-0.2628260024388724
-3.8875,-0.6688071552621118,-0.8986243067489184
-3.887,-1.074273799854052,-1.417859588602123
