Class_9_Think_Grab_one_hand_movement/Class_9_Think_Right_hand_Grab_AM_4.csv

#Digilent WaveForms Oscilloscope Acquisition
#Device Name: EExplorer
#Serial Number: SN:210151A2B84A
#Date Time: 2020-11-30 11:32:01.542
#Sample rate: 2000Hz
#Samples: 16384
#Trigger: Source: Channel 1 Type: Edge Condition: Rising Level: 0 V Hyst.: Auto HoldOff: 0 s
#Channel 1: Range: 1 V/div Offset: 0 V Attenuation: 1 X
#Channel 2: Range: 1 V/div Offset: 0 V Attenuation: 1 X
#Power Supplies: ON
#Fixed Supply: ON
#Voltage: 3.3 V Readback: 3.317 V
#Positive Supply: ON
#Voltage: 3.7 V Readback: 3.688 V
#Current: 500 mA Readback: 18 mA
#Negative Supply: ON
#Voltage: -3.7 V Readback: -3.697 V
#Current: -500 mA Readback: -13 mA
#Reference 1: ON
#Voltage: 0 V
#Reference 2: ON
#Voltage: 0 V

Time (s),Channel 1 (V),Channel 2 (V)
-4.096,-0.2099896363817582,-0.252229364033705
-4.0955,-0.4660738329659086,-0.8350444763173838
-4.095,-0.4233931335346055,-1.343683119766336
-4.0945,0.4622313796522482,-1.767548655972648
-4.094,1.273164668835391,-1.958288147265488
-4.0935,1.710641838001224,-1.926498232049909
-4.093,1.828013761435626,-1.650985633515806
-4.0925,1.753322537431916,-1.089363798042443
-4.092,1.539919040277972,-0.294615917653729
-4.0915,1.294505018551494,0.4153588554918433
-4.091,1.369196242555273,1.210106735879401
-4.0905,1.571929564851078,1.941274785835992
-4.09,1.390536592270638,1.983661339456623
-4.0895,1.017080472251745,1.623375633680931
-4.089,0.6756348768062116,1.231300012690092
-4.0885,0.4835717293676135,0.9663840525605498
-4.088,0.09944543449103843,0.5213252395435176
-4.0875,-0.7434983792651237,-0.2840192792484748
-4.087,-1.309017646723517,-1.015187329206252
-4.0865,-1.799845690176472,-1.555615887869299
-4.086,-2.365364957633138,-1.905304955239507
-4.0855,-2.760161427367939,-1.968884785670752
-4.085,-2.792171951940957,-1.88411167842949
-4.0845,-2.54675793021448,-1.44964950381802
-4.084,-1.554431668448985,-0.4959520473517271
-4.0835,-0.690147504977477,0.4153588554918433
-4.083,-0.08194753808956648,1.051157159801889
-4.0825,0.2381577076410001,1.379652950362167
-4.082,0.3341892813600565,1.475022696008586
-4.0815,0.3341892813600565,1.42203950398275
-4.081,0.3021787567870378,1.305476481526014
-4.0805,0.2488278824985954,1.125333628638062
-4.08,-0.02859666380115328,0.7332580076468663
-4.0795,-0.7114878546922212,-0.09327978795544178
-4.079,-1.170305373573303,-0.8986243067494774
-4.0785,-1.287677297007705,-1.51322933424863
-4.078,-0.423393133536197,-1.926498232049783
-4.0775,0.6329541773758305,-2.021867977696666
-4.077,1.35852606769759,-2.021867977696666
-4.0765,1.710641838000797,-2.011271339291508
-4.076,1.763992712289404,-1.89470831683405
-4.0755,1.625280439139656,-1.227120097309109
-4.075,1.390536592270638,-0.5489352393783931
-4.0745,1.283834843693695,0.0444765113113301
-4.074,1.15579274540162,0.4259554938970107
-4.0735,0.974399772821015,0.5637117931641874
-4.073,0.7609962756675563,0.5743084315693452
-4.0725,0.5582629533713921,0.55311515475902
-4.072,0.4622313796522482,0.5637117931641874
-4.0715,0.3448594562178459,0.3623756634661892
-4.071,0.2274875327828322,-0.0402965959308671
-4.0705,-0.2099896363817582,-0.6019184314042303
-4.07,-0.8502001278421344,-1.110557074851804
-4.0695,-1.629122892454209,-1.428456227007367
-4.069,-2.354694782775969,-1.51322933424863
-4.0685,-2.770831602225592,-1.407262950196955
-4.068,-2.706810553078701,-1.110557074851525
-4.0675,-1.83185621474952,-0.2946159176543747
-4.067,-0.9035510021311299,0.6484849004055269
-4.0665,-0.2206598112390818,1.369056311957288
-4.066,0.1741366584948169,1.782325209758442
-4.0655,0.3555296310754218,1.930678147430786
-4.065,0.3875401556484406,1.888291593810155
-4.0645,0.3448594562177392,1.729342017732605
-4.064,0.3128489316446912,1.538602526439591
-4.0635,0.2168173579256348,1.241896651095173
-4.063,-0.3487019095321371,0.4577454091116649
-4.0625,-0.9035510021311299,-0.474758770542221
-4.062,-1.202315898145972,-1.227120097308425
-4.0615,-0.8715404775570047,-1.799338571188343
-4.061,0.3128489316446912,-2.011271339291499
-4.0605,1.273164668836129,-2.021867977696666
-4.06,1.753322537431935,-2.02186797769658
-4.0595,1.849354111150991,-1.926498232050159
-4.059,1.699971663143435,-1.311893204550448
-4.0585,1.454557641416957,-0.6654982618358227
-4.058,1.262494493978446,-0.3370024712750445
-4.0575,1.230483969405398,-0.3370024712750445
-4.057,1.006410297394267,-0.1568596183873619
-4.0565,0.7289857510943143,0.08686306493165288
-4.056,0.5262524287983441,0.2987958330350016
-4.0555,0.4088805053639418,0.4365521323020529
-4.055,0.4195506802217894,0.6590815388110218
-4.0545,0.7183155762366316,1.019367244586387
-4.054,0.483571729367827,0.7014680924316531
-4.0535,-0.2953510352440927,-0.1462629799827342
-4.053,-1.255666772434657,-0.9198175835592532
-4.0525,-2.087940411333903,-1.449649503817625
-4.052,-2.72815090279491,-1.693372187136399
-4.0515,-2.781501777083275,-1.608599079895136
-4.051,-2.151961460479999,-0.8668343915334161
-4.0505,-1.148965023858743,0.1504428953617322
-4.05,-0.391382608962363,0.9875773293708847
-4.0495,0.08877525963335578,1.528005888034424
-4.049,0.3021787567868145,1.782325209758211
-4.0485,0.3341892813600468,1.80351848656871
-4.048,0.3235191065023739,1.729342017732605
-4.0475,0.302178756787028,1.612778995275869
-4.047,0.2701682322136113,1.432636142387377
-4.0465,-0.1139580626626144,0.8392243916985406
-4.046,-0.7114878546922988,-0.1144730647656609
-4.0455,-0.999582575850099,-0.9198175835597929
-4.045,-0.807519428411986,-1.51322933424863
-4.0445,0.2274875327832301,-1.937094870455327
-4.044,1.134452395686711,-2.011271339291499
-4.0435,1.635950613997339,-2.011271339291499
-4.043,1.796003236862578,-1.852321763213987
-4.0425,1.699971663143522,-1.343683119766413
-4.042,1.486568165989782,-0.7820612842920766
-4.0415,1.241154144263081,-0.2946159176543747
-4.041,1.241154144263081,0.3517790250602508
-4.0405,1.070431346539965,0.6696781772158616
-4.04,0.857027849386506,0.6696781772158616
-4.0395,0.6649647019483931,0.5637117931642838
-4.039,0.4942419042251991,0.4789386859228575
-4.0385,0.3875401556484697,0.4895353243280153
-4.038,0.4729015545098533,0.7968378380775913
-4.0375,0.3341892813593093,0.8710143069133972
-4.037,-0.4874141826815069,0.1610395337678249
-4.0365,-1.447729919872945,-0.6549016234300674
-4.036,-2.269333383914974,-1.237716735714546
-4.0355,-2.781501777083275,-1.534422611058964
-4.035,-2.80284212679864,-1.523825972653797
-4.0345,-2.589438629645181,-1.121153713257801
-4.034,-1.586442193022819,-0.1674562567923655
-4.0335,-0.7008176798351597,0.7968378380778709
-4.033,-0.0926177129478023,1.496215972818285
-4.0325,0.2274875327833271,1.877694955405065
-4.032,0.3341892813600565,2.004854616266958
-4.0315,0.3235191065023836,1.951871424241169
-4.031,0.2701682322139316,1.803518486568594
-4.0305,0.2381577076409128,1.602182356870596
-4.03,0.1741366584948751,1.29487984312102
-4.0295,-0.2206598112398581,0.5001319627323251
-4.029,-0.6794773301197943,-0.4429688553267188
-4.0285,-0.807519428411986,-1.131750351662602
-4.028,-0.1032878878041554,-1.58740580308511
-4.0275,0.7503261008096795,-1.926498232050159
-4.027,1.35852606769759,-2.011271339291499
-4.0265,1.657290963712432,-2.000674700886341
-4.026,1.678631313428069,-1.629792356705471
-4.0255,1.529248865420512,-1.025783967610927
-4.025,1.294505018551708,-0.5383386009736689
-4.0245,1.209143619689897,-0.2840192792490627
-4.024,1.059761171682476,-0.1250697031716958
-4.0235,0.7823366253829798,0.03387987290567115
-4.023,0.5475927785135832,0.171636172173108
-4.0225,0.408880505363835,0.2987958330350016
-4.022,0.3448594562177974,0.425955493896895
-4.0215,0.4942419042255096,0.6908714540263411
-4.021,0.7289857510943143,0.849821030103708
-4.0205,0.2274875327832301,0.2352160026039969
-4.02,-0.6047861061168504,-0.5701285161892773
-4.0195,-1.522421143876723,-1.174136905283272
-4.019,-2.301343908487556,-1.174136905283272
-4.0185,-2.792171951940511,-0.08268314955201883
-4.018,-2.706810553079496,1.114736990232894
-4.0175,-1.799845690176472,1.570392441655093
-4.017,-0.882210652416599,1.559795803249935
-4.0165,-0.2099896363814088,1.422039503982644
-4.016,0.1741366584948169,1.305476481525908
-4.0155,0.334189281359911,1.252493289500119
-4.015,0.3661998059330948,1.273686566310473
-4.0145,0.3555296310754218,1.347863035146577
-4.014,0.31284893164473,1.379652950362051
-4.0135,0.1848068333519658,1.263089927904698
-4.013,-0.4020527838200457,0.6696781772158616
-4.0125,-0.9035510021311299,-0.06148987274069118
-4.012,-1.159635198715222,-0.6125150698097157
-4.0115,-0.839529952985034,-0.9622041371799229
-4.011,0.3128489316446912,-1.142346990067769
-4.0105,1.219813794546891,-1.068170521231665
-4.01,1.678631313428069,-0.8244478379127463
-4.0095,1.76399271228953,-0.2946159176543747
-4.009,1.646620788855128,0.4365521323015131
-4.0085,1.433217291701242,1.008770606181547
-4.008,1.294505018551494,1.369056311956912
-4.0075,1.283834843693821,1.453829419198175
-4.007,1.070431346539897,1.273686566310155
-4.0065,0.7823366253827275,0.9981739677760521
-4.006,0.5582629533713921,0.7332580076468663
-4.0055,0.4195506802215856,0.510728601138379
-4.005,0.4942419042252961,0.5425185163538525
-4.0045,1.006410297394063,0.9981739677760521
-4.004,1.091771696254981,0.9345941373443151
-4.0035,0.4942419042252961,0.1292496185523226
-4.003,-0.572775581542968,-0.7396747306714069
-4.0025,-1.575772018164224,-1.428456227006664
-4.002,-2.429386006779747,-1.926498232050159
-4.0015,-2.792171951940957,-2.021867977696666
-4.001,-2.344024607918694,-1.61919571830067
-4.0005,-1.341028171295381,-0.60191843140344
-4,-0.5300948821122373,0.2670059178194992
-3.9995,-0.007256314085787988,0.8392243916985406
-3.999,0.2594980573562781,1.135930267043229
-3.9985,0.3235191065023739,1.210106735879401
-3.998,0.2808384070716433,1.167720182258731
-3.9975,0.2594980573562781,1.093543713422559
-3.997,0.2274875327832301,0.9663840525605498
-3.9965,-0.1352984123779797,0.4471487707073456
-3.996,-0.7755089038389382,-0.3793890248957141
-3.9955,-1.138294849000148,-1.0999604364471
-3.995,-1.052933450138687,-1.682775548731308
-3.9945,0.02475421048725994,-2.000674700886331
-3.994,1.081101521397841,-2.032464616101834
-3.9935,1.667961138570387,-2.000674700886331
-3.993,1.849354111150991,-1.545019249464132
-3.9925,1.753322537431848,-0.6549016234300674
-3.992,1.529248865420512,0.01268659609548085
-3.9915,1.283834843693812,0.3941655786815084
-3.991,1.219813794547716,0.7120647308365314
-3.9905,1.070431346540159,0.8286277532933731
-3.99,0.8676980242441885,0.7862411996727035
-3.9895,0.6436243522328531,0.701468092431364
-3.989,0.4622313796522482,0.6378882620003594
-3.9885,0.3661998059331045,0.6908714540261965
-3.988,0.3875401556484697,1.104140351827727
-3.9875,0.1741366584948169,1.188913459069066
-3.987,-0.4340633083930936,0.3941655786815084
-3.9865,-1.212986073003927,-0.5171453241628908
-3.986,-1.970568487899394,-1.195330182093607
-3.9855,-2.653459678791083,-1.598002441489969
-3.985,-2.80284212679864,-1.693372187136476
-3.9845,-2.3973754822067,-1.174136905283272
-3.984,-1.383708870726849,-0.1780528951975329
-3.9835,-0.5621054066852853,0.7438546460520338
-3.983,-0.01792648894347063,1.369056311956912
-3.9825,0.2594980573562781,1.686955464111935
-3.982,0.3235191065023739,1.771728571353275
-3.9815,0.3128489316446912,1.729342017732605
-3.981,0.2808384070716433,1.612778995275763
-3.9805,0.2488278824985954,1.42203950398275
-3.98,0.08877525963335578,0.9557874141553824
-3.9795,-0.4660738329661415,0.03387987290581572
-3.979,-0.8822106524157645,-0.8456411147230812
-3.9785,-1.116954499284783,-1.523825972653797
-3.978,-0.5621054066852853,-1.979481424075996
-3.9775,0.4622313796522482,-2.053657892912168
-3.977,1.219813794547716,-2.053657892912168
-3.9765,1.625280439139656,-2.043061254507001
-3.976,1.710641838001117,-1.767548655972648
-3.9755,1.571929564851243,-1.036380606016095
-3.975,1.35852606769759,-0.4535654937318862
-3.9745,1.283834843693812,-0.1568596183871981
-3.974,1.15579274540162,-0.04029659593035631
-3.9735,0.8997085488172365,0.1080563417419877
-3.973,0.6436243522328531,0.2352160026039969
-3.9725,0.4515612047945656,0.3305857482505039
-3.972,0.3768699807907871,0.4365521323021782
-3.9715,0.6222840025174878,0.8816109453192104
-3.971,1.113112045970889,1.496215972818921
-3.9705,0.7289857510943143,1.135930267043229
-3.97,-0.3060212101009019,0.1504428953626575
-3.9695,-1.383708870726849,-0.7608680074817418
-3.969,-2.280003558772191,-1.333086481360783
-3.9685,-2.80284212679864,-1.576809164679634
-3.968,-2.76016142736791,-1.417859588602123
-3.9675,-1.927887788468663,-0.570128516188728
-3.967,-0.9782422261349084,0.4471487707073456
-3.9665,-0.274010685527854,1.263089927905238
-3.966,0.142126133921769,1.75053529454294
-3.9655,0.3021787567870086,1.962468062646288
-3.965,0.3235191065023739,1.983661339456623
-3.9645,0.291508581929326,1.898888232215284
-3.964,0.2594980573562781,1.75053529454294
-3.9635,0.1314559590640864,1.42203950398275
-3.963,-0.4447334832507763,0.55311515475902
-3.9625,-0.9462317015618604,-0.4323722169215513
-3.962,-1.202315898146244,-1.121153713257435
-3.9615,-0.722158029550525,-1.290699927740113
-3.961,0.2381577076409128,-1.523825972653797
-3.9605,1.049090996824793,-1.778145294377815
-3.96,1.51857869056283,-1.788741932782983
-3.9595,1.657290963712704,-1.375473034981453
-3.959,1.550589215135878,-0.8032545611024114
-3.9585,1.326515543124542,-0.4111789401112165
-3.958,1.19847344483235,-0.04029659593035631
-3.9575,1.273164668836129,0.4683420475176805
-3.957,1.123782220828572,0.5849050699745222
-3.9565,0.857027849386506,0.5001319627331828
-3.956,0.6009436528021226,0.3941655786815084
-3.9555,0.4302208550792003,0.3517790250608387
-3.955,0.3875401556484697,0.5213252395435176
-3.9545,-0.1352984123779797,0.4047622170866759
-3.954,-0.7861790786966207,-0.2098428104130352
-3.9535,-1.330357996438436,-0.8668343915334161
-3.953,-1.917217613610981,-1.333086481360783
-3.9525,-2.536087755356574,-1.545019249464132
-3.952,-2.80284212679864,-1.481439419033127
-3.9515,-2.792171951940957,-1.01518732920576
-3.951,-2.130621110764634,-0.1992461720078678
-3.9505,-1.138294849000148,0.7332580076468663
-3.95,-0.391382608962363,1.464426057603419
-3.9495,0.08877525963335578,1.888291593810116
-3.949,0.3128489316446912,2.057837808292796
-3.9485,0.3661998059331045,2.047241169887628
-3.948,0.3448594562177392,1.930678147430786
-3.9475,0.3021787567870086,1.70814874092227
-3.947,0.2488278824985954,1.37965295036208
-3.9465,-0.03926683865883591,0.701468092431364
-3.946,-0.5941159312583333,-0.2310360872233701
-3.9455,-0.9569018764195432,-0.9833974139902578
-3.945,-0.8181896032696687,-1.566212526274467
-3.9445,0.2488278824985954,-1.968884785670829
-3.944,1.230483969405398,-2.053657892912168
-3.9435,1.753322537431848,-2.053657892912168
-3.943,1.892034810581722,-2.000674700886331
-3.9425,1.785333062004896,-1.439052865412457
-3.942,1.539919040278195,-0.8244478379127463
-3.9415,1.294505018551494,-0.400582301706049
-3.941,1.283834843693812,-0.02969995752518888
-3.9405,1.102441871113207,0.07626642652648545
-3.94,0.8356874996711408,0.07626642652648545
-3.9395,0.6009436528021226,0.06566978812131802
-3.939,0.4408910299368829,0.08686306493165288
-3.9385,0.3341892813600565,0.1610395337678249
-3.938,-0.1459685872356623,-0.1144730647665284
-3.9375,-0.8608703027003992,-0.718481453861072
-3.937,-1.383708870726849,-1.258910012524611
-3.9365,-1.885207089037933,-1.598002441489969
-3.936,-2.461396531352796,-1.672178910326141
-3.9355,-2.792171951940957,-1.523825972653797
-3.935,-2.813512301656323,-1.290699927740113
-3.9345,-2.525417580498891,-0.8562377531282487
-3.934,-1.522421143876723,0.05507314971615059
-3.9335,-0.6688071552621118,0.9451907757502149
-3.933,-0.08194753808956648,1.570392441655093
-3.9325,0.2168173579255475,1.867098316999781
-3.932,0.3235191065023739,1.941274785835954
-3.9315,0.3341892813600565,1.856501678594614
-3.931,0.3128489316446912,1.697552102517103
-3.9305,0.2808384070716433,1.432636142387917
-3.93,0.1101156093487211,0.9557874141553824
-3.9295,-0.4554036581084589,0.03387987290581572
-3.929,-0.8502001278427167,-0.8244478379127463
-3.9285,-0.8181896032696687,-1.38606967338662
-3.928,0.01408403562957729,-1.788741932782983
-3.9275,1.19847344483235,-2.011271339291499
-3.927,1.913375160297087,-2.043061254507001
-3.9265,2.105438307735375,-2.032464616101834
-3.926,1.977396209443183,-1.926498232050159
-3.9255,1.699971663143435,-1.34368311976595
-3.925,1.390536592270638,-0.718481453861072
-3.9245,1.241154144263081,-0.4535654937318862
-3.924,1.102441871113207,-0.3370024712750445
-3.9235,0.8676980242441885,-0.1356663415768632
-3.923,0.6329541773751706,0.07626642652648545
-3.9225,0.4622313796522482,0.2246193641988295
-3.922,0.3661998059331045,0.3411823866556712
-3.9215,0.2701682322139607,0.13984625695749
-3.921,-0.3700422592469978,-0.4853554089473885
-3.9205,-1.095614149569417,-1.121153713257435
-3.92,-1.650463242168915,-1.598002441489969
-3.9195,-2.205312334768412,-1.831128486403653
-3.919,-2.717480727937179,-1.820531847998485
-3.9185,-2.813512301656323,-1.650985633515806
-3.918,-2.728150902794861,-1.34368311976595
-3.9175,-1.87453691418025,-0.5595318777835605
-3.917,-0.9355615267041777,0.383568940276341
-3.9165,-0.2526703358124887,1.104140351827727
-3.916,0.1527963087794516,1.506812611224089
-3.9155,0.3235191065023739,1.655165548896433
-3.915,0.3448594562177392,1.623375633680931
-3.9145,0.2808384070716433,1.453829419198252
-3.914,0.2381577076409128,1.220703374284568
-3.9135,0.1314559590640864,0.9134008605347127
-3.913,-0.4340633083930936,0.1822328105781598
-3.9125,-0.9355615267041777,-0.6654982618352349
-3.912,-1.095614149569417,-1.290699927740113
-3.9115,-0.5621054066852853,-1.566212526274467
-3.911,0.3555296310754218,-1.831128486403653
-3.9105,1.102441871113207,-1.979481424075996
-3.91,1.539919040278195,-1.990078062481164
-3.9095,1.667961138570387,-1.534422611058964
-3.909,1.571929564851243,-0.8350444763179138
-3.9085,1.379866417412955,-0.3370024712750445
-3.908,1.219813794547716,0.08686306493165288
-3.9075,1.241154144263081,0.5319218779486851
-3.907,1.241154144263081,0.6166949851900245
-3.9065,1.027750647109428,0.5637117931641874
-3.906,0.7396559259519968,0.5107286011383502
-3.9055,0.5369226036560266,0.5107286011383502
-3.905,0.3768699807907871,0.5425185163538525
-3.9045,0.1207857842064037,0.627291623595192
-3.904,-0.423393133535411,0.13984625695749
-3.9035,-0.9995825758502737,-0.5489352393783931
-3.903,-1.46907026958831,-1.004590690800593
-3.9025,-1.949228138184029,-0.5171453241628908
-3.902,-2.514747405641209,0.3517790250608387
-3.9015,-2.717480727937179,0.2670059178194992
-3.901,-1.991908837614759,0.1928294489833272
-3.9005,-1.074273799854052,0.5001319627331828
-3.9,-0.3487019095316325,0.8922075837243778
-3.8995,0.08877525963335578,1.220703374284568
-3.899,0.3021787567870086,1.443232780793084
-3.8985,0.3555296310754218,1.559795803249926
-3.898,0.3341892813600565,1.602182356870596
-3.8975,0.3021787567870086,1.602182356870596
-3.897,0.2594980573562781,1.528005888034424
-3.8965,-0.06060718837420119,1.104140351827727
-3.896,-0.5941159312583333,0.2776025562246667
-3.8955,-0.9142211769888124,-0.4853554089473885
-3.895,-0.658136980404429,-1.05757388282643
-3.8945,0.4622313796522482,-1.47084278062796
-3.894,1.497238340847464,-1.735758740757146
-3.8935,1.977396209443183,-1.75695201756748
-3.893,2.041417258589279,-1.375473034981453
-3.8925,1.870694460866357,-0.8456411147230812
-3.892,1.593269914566608,-0.2098428104130352
-3.8915,1.347855892839907,0.2140227257936621
-3.891,1.262494493978446,0.2140227257936621
-3.8905,1.006410297394063,0.2564092794143318
-3.89,0.7183155762366316,0.3305857482505039
-3.8895,0.5155822539406614,0.3729723018711736
-3.889,0.408880505363835,0.4047622170866759
-3.8885,0.3555296310754218,0.3941655786815084
-3.888,0.3021787567870086,0.4365521323021782
-3.8875,0.0674349099179905,0.5213252395435176
-3.887,-0.4340633083930936,-0.04029659593035631
-3.8865,-1.095614149569417,-0.7396747306714069
-3.886,-1.83185621474952,-1.354279758171118
-3.8855,-2.536087755356574,-1.820531847998485
-3.885,-2.80284212679864,-1.534422611058964
-3.8845,-2.504077230783526,-0.4429688553267188
-3.884,-1.501080794161358,0.4471487707073456
-3.8835,-0.6474668055467465,1.019367244586387
