Class_9_Think_Grab_one_hand_movement/Class_9_Think_Right_hand_Grab_Zakour_10.csv

#Digilent WaveForms Oscilloscope Acquisition
#Device Name: EExplorer
#Serial Number: SN:210151A2B84A
#Date Time: 2021-01-28 09:53:18.325
#Sample rate: 2000Hz
#Samples: 16384
#Trigger: Source: Channel 1 Type: Edge Condition: Rising Level: 0 V Hyst.: Auto HoldOff: 0 s
#Channel 1: Range: 1 V/div Offset: 0 V Attenuation: 1 X
#Channel 2: Range: 1 V/div Offset: 0 V Attenuation: 1 X
#Power Supplies: ON
#Fixed Supply: ON
#Voltage: 3.3 V Readback: 3.324 V
#Positive Supply: ON
#Voltage: 3.7 V Readback: 3.718 V
#Current: 40 mA Readback: 20 mA
#Negative Supply: ON
#Voltage: -3.7 V Readback: -3.35 V
#Current: -40 mA Readback: -9 mA
#Reference 1: ON
#Voltage: 0 V
#Reference 2: ON
#Voltage: 0 V

Time (s),Channel 1 (V),Channel 2 (V)
-4.096,-0.03926683865883591,-1.142346990067769
-4.0955,0.1954770082099687,-1.099960436447138
-4.095,0.2168173579254601,-1.142346990067683
-4.0945,0.1207857842064037,-1.046977244421262
-4.094,0.01408403562967435,-0.8986243067490532
-4.0935,-0.07127736323185471,-0.729078092266037
-4.093,-0.03926683865883591,-0.5065486857577234
-4.0925,0.5369226036555026,0.1186529801465865
-4.092,1.379866417413586,0.881610945319779
-4.0915,2.073427783162327,1.506812611224089
-4.091,2.222810231169884,1.655165548896433
-4.0905,1.283834843693016,0.7650479228616939
-4.09,0.408880505363835,0.02328323450064829
-4.0895,-0.08194753808956648,-0.1038764263613609
-4.089,-0.2846808603853522,0.08686306493147941
-4.0885,-0.3166913849585846,0.3941655786815084
-4.088,-0.274010685527854,0.701468092431364
-4.0875,-0.2313299860971623,0.955787414155151
-4.087,-0.1886492866663832,1.146526905448483
-4.0865,-0.1779791118087102,1.241896651094903
-4.086,-0.2846808603854396,1.008770606181432
-4.0855,-0.5834457564011066,0.4153588554912554
-4.085,-1.084943974711735,-0.2310360872233701
-4.0845,-1.607782542737709,-0.5913217929987351
-4.084,-1.063603624995205,-0.2204394488174606
-4.0835,0.2168173579255475,0.5955017083796896
-4.083,1.390536592270638,1.316073119931075
-4.0825,1.497238340846436,1.167720182257777
-4.082,0.3661998059331045,0.1186529801471552
-4.0815,-0.9569018764195432,-0.9939940523954253
-4.081,-1.650463242168284,-1.725162102351313
-4.0805,-1.383708870726849,-1.746355379162313
-4.08,-0.7755089038389382,-1.407262950196955
-4.0795,-0.2420001609552914,-1.195330182093799
-4.079,0.1101156093489734,-1.121153713257521
-4.0785,0.3875401556484697,-1.216523458903942
-4.078,0.4195506802214886,-1.195330182093626
-4.0775,0.2701682322138054,-1.025783967610754
-4.077,0.09944543449103843,-0.8350444763179138
-4.0765,-0.02859666380103681,-0.6549016234302313
-4.076,0.2061471830685538,-0.1992461720071643
-4.0755,0.9637295979633325,0.5743084315693548
-4.075,1.742652362574165,1.273686566310405
-4.0745,2.16945935688083,1.644568910490687
-4.074,1.465227816274416,1.00877060618122
-4.0735,0.5689331282290746,0.13984625695749
-4.073,0.02475421048775484,-0.1568596183869282
-4.0725,-0.2206598112394408,-0.07208651114585861
-4.072,-0.2953510352432193,0.1610395337678249
-4.0715,-0.2846808603855464,0.4365521323019276
-4.071,-0.2420001609547576,0.6908714540263796
-4.0705,-0.1886492866663929,0.8922075837243778
-4.07,-0.167308936951047,1.040560521396587
-4.0695,-0.2206598112396835,0.976980690965274
-4.069,-0.4874141826815069,0.4895353243280153
-4.0685,-0.9462317015618604,-0.1568596183871981
-4.068,-1.543761493591904,-0.6443049850247361
-4.0675,-1.341028171296118,-0.4641621321370536
-4.067,-0.1352984123779797,0.3305857482505039
-4.0665,1.123782220829106,1.146526905448637
-4.066,1.710641838001117,1.411442865577582
-4.0655,0.8356874996711408,0.5637117931641874
-4.065,-0.5194247072533222,-0.6019184314031704
-4.0645,-1.618452717595867,-1.502632695843462
-4.064,-1.725154466172693,-1.619195718300304
-4.0635,-1.180975548431374,-1.333086481361043
-4.063,-0.5621054066848777,-1.089363798041807
-4.0625,-0.1139580626626144,-0.9516074987747555
-4.062,0.1421261339215361,-0.9410108603695978
-4.0615,0.174136658494749,-0.9728007755850325
-4.061,0.09944543449103843,-0.9092209451540858
-4.0605,0.00341386077189465,-0.8032545611024114
-4.06,-0.07127736323174796,-0.6760949002401229
-4.0595,0.07810508477567314,-0.3687923864905467
-4.059,0.7823366253827275,0.3517790250608387
-4.0585,1.603940089423543,1.104140351827042
-4.058,2.201469881454519,1.644568910491266
-4.0575,1.849354111150991,1.358459673551745
-4.057,0.5155822539418744,0.2246193641998606
-4.0565,-0.4660738329661415,-0.5807251545938954
-4.056,-0.754168554123573,-0.570128516188728
-4.0555,-0.6794773301198622,-0.1780528951978895
-4.055,-0.4980843575390342,0.2881991946301907
-4.0545,-0.3273615598162672,0.6802748156210291
-4.054,-0.2206598112395379,0.9769806909654475
-4.0535,-0.1566387620933547,1.157123543853602
-4.053,-0.1673089369510276,1.199510097474233
-4.0525,-0.3166913849585846,0.8286277532933731
-4.052,-0.6261264558318956,0.2140227257931224
-4.0515,-1.191645723288561,-0.3793890248957141
-4.051,-1.426389570157579,-0.3899856633008816
-4.0505,-0.5194247072553797,0.2776025562240595
-4.05,0.7503261008096795,1.061753798207057
-4.0495,1.657290963712704,1.538602526439591
-4.049,1.187803269975095,0.9451907757507546
-4.0485,-0.1246282375213645,-0.2310360872243049
-4.048,-1.298347471865388,-1.258910012524611
-4.0475,-1.565101843307211,-1.74635537916187
-4.047,-1.138294848999672,-1.661582271920761
-4.0465,-0.6154562809736985,-1.42845622700729
-4.046,-0.1566387620937622,-1.290699927740238
-4.0455,0.1741366584949431,-1.205926820498735
-4.045,0.3128489316446912,-1.163540266878104
-4.0445,0.2488278824985954,-1.036380606016095
-4.044,0.1101156093486143,-0.8668343915332716
-4.0435,-0.007256314085787988,-0.7078848154559045
-4.043,-0.01792648894347063,-0.4853554089473885
-4.0425,0.5049120790825034,0.1292496185517636
-4.042,1.326515543124542,0.8922075837243778
-4.0415,2.030747083731597,1.517409249629256
-4.041,2.19079970659669,1.655165548896308
-4.0405,1.326515543123814,0.8180311148876661
-4.04,0.5262524287983441,0.2246193641988295
-4.0395,0.035424385345389,0.08686306493177817
-4.039,-0.1993194615241435,0.2034260873887067
-4.0385,-0.274010685527854,0.4365521323021782
-4.038,-0.2633405106701811,0.7014680924311231
-4.0375,-0.2313299860970943,0.9239974989400439
-4.037,-0.1993194615240755,1.104140351827727
-4.0365,-0.1779791118087102,1.210106735879401
-4.036,-0.2740106855280967,1.019367244585905
-4.0355,-0.5407650569699201,0.4895353243280153
-4.035,-1.052933450138687,-0.1356663415768632
-4.0345,-1.543761493591642,-0.3899856633006503
-4.034,-0.9782422261349084,0.02328323450064829
-4.0335,0.2701682322139607,0.7862411996727035
-4.033,1.422547116842638,1.432636142387329
-4.0325,1.550589215134839,1.231300012688753
-4.032,0.408880505363835,0.1504428953626575
-4.0315,-0.8502001278415715,-0.962204137178911
-4.031,-1.255666772434405,-1.439052865412419
-4.0305,-0.9782422261349084,-1.396666311791788
-4.03,-0.519424707254972,-1.322489842955683
-4.0295,-0.1032878878046891,-1.248313374119405
-4.029,0.1634664836371343,-1.205926820498774
-4.0285,0.3448594562177392,-1.269506650929778
-4.028,0.3235191065022477,-1.184733543688266
-4.0275,0.1848068333524996,-0.9939940523954253
-4.027,0.03542438534494258,-0.792657922697244
-4.0265,-0.04993701351644092,-0.5807251545940881
-4.026,0.2488278824985954,-0.1038764263613609
-4.0255,1.038420821967111,0.6696781772158616
-4.025,1.817343586577235,1.358459673551119
-4.0245,2.244150580884599,1.729342017731998
-4.024,1.529248865420512,1.061753798207057
-4.0235,0.5369226036569291,0.1080563417428552
-4.023,-0.03926683865906882,-0.1886495336025943
-4.0225,-0.2953510352432193,-0.07208651114585861
-4.022,-0.348701909531584,0.2246193641985597
-4.0215,-0.3060212101008534,0.5319218779489356
-4.021,-0.2526703358124887,0.8074344764830383
-4.0205,-0.2099896363817582,1.00877060618122
-4.02,-0.1779791118087587,1.146526905448309
-4.0195,-0.2313299860971235,1.051157159801889
-4.019,-0.4660738329661415,0.55311515475902
-4.0185,-0.8928808272730591,-0.09327978795560565
-4.018,-1.46907026958831,-0.5171453241628908
-4.0175,-1.341028171296118,-0.2628260024388724
-4.017,-0.177979111809768,0.4895353243273311
-4.0165,1.070431346540673,1.231300012689909
-4.016,1.635950613997339,1.42203950398275
-4.0155,0.750326100810485,0.5319218779494946
-4.015,-0.5941159312593328,-0.6337083466205903
-4.0145,-1.693143941599645,-1.576809164679634
-4.014,-1.885207089037758,-1.88411167842921
-4.0135,-1.351698346153248,-1.587405803084502
-4.013,-0.7434983792658902,-1.258910012524611
-4.0125,-0.2526703358124887,-1.0999604364471
-4.012,-0.03926683865891355,-1.121153713257444
-4.0115,-0.124628237520297,-1.131750351662602
-4.011,-0.156638762093345,-0.9622041371799229
-4.0105,-0.1673089369510179,-0.7608680074819248
-4.01,-0.156638762093345,-0.5595318777835605
-4.0095,0.05676473506030786,-0.2416327256285375
-4.009,0.8143471499550863,0.457745409111877
-4.0085,1.646620788855555,1.167720182259184
-4.008,2.233480406027567,1.6657621873016
-4.0075,1.870694460866687,1.37965295036234
-4.007,0.8997085488166251,0.5319218779482996
-4.0065,0.2274875327832301,0.1080563417419877
-4.006,-0.1352984123779797,0.02328323450064829
-4.0055,-0.2740106855278637,0.1504428953628502
-4.005,-0.2846808603855366,0.3623756634660061
-4.0045,-0.2526703358124887,0.5849050699745222
-4.004,-0.220659811239402,0.7756445612676806
-4.0035,-0.1779791118087102,0.9345941373450475
-4.003,-0.1886492866663929,0.9769806909657173
-4.0025,-0.3700422592468328,0.6378882620006678
-4.002,-0.690147504977477,0.05507314971615059
-4.0015,-1.223656247861609,-0.5065486857577234
-4.001,-1.501080794161106,-0.6443049850247746
-4.0005,-0.615456280972534,-0.01910331911925044
-4,0.6649647019482183,0.8286277532933731
-3.9995,1.625280439139656,1.42203950398275
-3.999,1.251824319120764,0.9663840525605498
-3.9985,-0.03926683865883591,-0.1674562567923655
-3.998,-1.287677297007705,-1.216523458903942
-3.9975,-1.789175515318789,-1.693372187136476
-3.997,-1.383708870726849,-1.534422611058964
-3.9965,-0.7434983792658902,-1.311893204550448
-3.996,-0.1886492866663929,-1.131750351662602
-3.9955,0.09944543449103843,-1.05757388282643
-3.995,0.1101156093487211,-0.9728007755850904
-3.9945,0.03542438534494258,-0.9092209451540858
-3.994,-0.03926683865883591,-0.8456411147230812
-3.9935,-0.09261771294724913,-0.7608680074817418
-3.993,-0.06060718837420119,-0.6019184314042303
-3.9925,0.4835717293676135,-0.008506680714854012
-3.992,1.326515543124542,0.775644561267536
-3.9915,2.030747083731597,1.432636142387917
-3.991,2.12677865745074,1.559795803249926
-3.9905,1.049090996824793,0.627291623595192
-3.99,-0.2420001609548061,-0.4853554089473885
-3.9895,-0.8288597781273515,-0.8350444763179138
-3.989,-0.8502001278427167,-0.4959520473525559
-3.9885,-0.658136980404429,0.06566978812131802
-3.988,-0.4447334832507763,0.5743084315693548
-3.9875,-0.274010685527854,0.9663840525605498
-3.987,-0.1779791118087102,1.231300012689736
-3.9865,-0.156638762093345,1.347863035146577
-3.986,-0.274010685527854,1.082947075017392
-3.9855,-0.5514352318276028,0.4895353243280153
-3.985,-1.042263275281004,-0.1674562567923655
-3.9845,-1.51175096901904,-0.3899856633008816
-3.984,-0.9675720512772257,0.07626642652648545
-3.9835,0.2808384070716433,0.8392243916985406
-3.983,1.433217291701369,1.464426057603419
-3.9825,1.582599739708926,1.231300012689736
-3.982,0.4515612047945656,0.1292496185523226
-3.9815,-0.8502001278427167,-0.9833974139902578
-3.981,-1.373038695869166,-1.502632695843462
-3.9805,-1.148965023857831,-1.545019249464132
-3.98,-0.690147504977477,-1.460246142222792
-3.9795,-0.2313299860971235,-1.322489842955616
-3.979,0.08877525963335578,-1.205926820498774
-3.9785,0.0674349099179905,-1.216523458903942
-3.978,-0.04993701351651855,-1.121153713257435
-3.9775,-0.124628237520297,-0.9304142219644207
-3.977,-0.1459685872356623,-0.7396747306714069
-3.9765,-0.1352984123779797,-0.5383386009732256
-3.976,0.2808384070716433,-0.06148987274069118
-3.9755,1.113112045970889,0.701468092431364
-3.975,1.892034810581722,1.369056311956912
-3.9745,2.28683128031598,1.718745379327438
-3.974,1.614610264281974,1.093543713422559
-3.9735,0.7396559259519968,0.383568940276341
-3.973,0.1634664836371343,0.1080563417419877
-3.9725,-0.1459685872356623,0.1186529801471552
-3.972,-0.2633405106701714,0.2987958330350016
-3.9715,-0.274010685527854,0.5319218779486851
-3.971,-0.2420001609548061,0.7544512844572011
-3.9705,-0.2099896363817582,0.9451907757502149
-3.97,-0.1886492866663929,1.082947075017392
-3.9695,-0.2313299860971235,1.029963882991555
-3.969,-0.4554036581084589,0.5743084315693548
-3.9685,-0.8715404775580819,-0.05089323433552374
-3.968,-1.458400094730627,-0.474758770542221
-3.9675,-1.351698346153801,-0.2734226408440398
-3.967,-0.2099896363817582,0.4683420475176805
-3.9665,1.049090996824793,1.210106735879401
-3.966,1.646620788855021,1.411442865577582
-3.9655,0.7823366253827275,0.5213252395435176
-3.965,-0.5194247072545548,-0.6549016234300674
-3.9645,-1.234326422719292,-1.460246142222792
-3.964,-1.116954499284783,-1.693372187136476
-3.9635,-0.722158029550525,-1.51322933424863
-3.963,-0.2953510352432193,-1.237716735714276
-3.9625,0.04609456020262521,-1.121153713257435
-3.962,0.2701682322139607,-1.163540266878104
-3.9615,0.3021787567870086,-1.184733543688439
-3.961,0.1741366584948169,-1.046977244421262
-3.9605,0.04609456020262521,-0.8456411147230812
-3.96,-0.06060718837420119,-0.6443049850249
-3.9595,0.0674349099179905,-0.2946159176543747
-3.959,0.7609962756673623,0.4365521323021782
-3.9585,1.582599739708926,1.157123543853563
-3.958,2.180129531739154,1.686955464111935
-3.9575,1.838683936293309,1.42203950398275
-3.957,0.7823366253827275,0.4365521323021782
-3.9565,0.09944543449103843,-0.04029659593035631
-3.956,-0.2206598112394408,-0.05089323433552374
-3.9555,-0.3273615598162672,0.1716361721729923
-3.955,-0.3166913849585846,0.4683420475176805
-3.9545,-0.2633405106701714,0.7544512844572011
-3.954,-0.2206598112394408,0.9769806909657173
-3.9535,-0.1886492866663929,1.146526905448396
-3.953,-0.1886492866663929,1.188913459069066
-3.9525,-0.3593720843893152,0.8392243916985406
-3.952,-0.690147504977477,0.2352160026039969
-3.9515,-1.26633694729234,-0.3370024712750445
-3.951,-1.458400094730627,-0.2946159176543747
-3.9505,-0.5087545323968721,0.3729723018711736
-3.95,0.7609962756673623,1.114736990232894
-3.9495,1.710641838001117,1.591585718465428
-3.949,1.315845368266859,1.072350436612224
-3.9485,-0.007256314085787988,-0.1144730647665284
-3.948,-1.26633694729234,-1.205926820498774
-3.9475,-1.821186039891837,-1.84172512480882
-3.947,-1.394379045584531,-1.979481424075996
-3.9465,-0.7114878546928423,-1.788741932782983
-3.946,-0.156638762093345,-1.492036057438295
-3.9455,0.09944543449103843,-1.280103289334946
-3.945,0.00341386077189465,-1.121153713257435
-3.9445,-0.08194753808956648,-0.9728007755850904
-3.944,-0.1352984123779797,-0.8350444763179138
-3.9435,-0.156638762093345,-0.718481453861072
-3.943,-0.08194753808956648,-0.5171453241628908
-3.9425,0.5155822539406614,0.1080563417419877
-3.942,1.369196242555273,0.8604176685088755
-3.9415,2.062757608304644,1.475022696008586
-3.941,2.105438307735375,1.538602526439591
-3.9405,0.8890383739595538,0.5637117931641874
-3.94,-0.3593720843893152,-0.4959520473525559
-3.9395,-0.8288597781273515,-0.7290780922662394
-3.939,-0.807519428411986,-0.400582301706049
-3.9385,-0.6154562809736985,0.08686306493165288
-3.938,-0.4127229586777283,0.5425185163538525
-3.9375,-0.2633405106701714,0.8816109453192104
-3.937,-0.1779791118087102,1.114736990232894
-3.9365,-0.156638762093345,1.231300012689736
-3.936,-0.2633405106701714,1.00877060618122
-3.9355,-0.572775581542968,0.4365521323021782
-3.935,-1.116954499284783,-0.1886495336027004
-3.9345,-1.607782542738184,-0.4111789401112165
-3.934,-1.042263275281004,0.08686306493165288
-3.9335,0.2381577076409128,0.849821030103708
-3.933,1.401206767128321,1.475022696008586
-3.9325,1.475897991132099,1.210106735879401
-3.932,0.3235191065023739,0.1080563417419877
-3.9315,-0.8928808272734472,-1.025783967610927
-3.931,-1.298347471865388,-1.735758740757146
-3.9305,-1.020922925565639,-1.88411167842949
-3.93,-0.5514352318276028,-1.75695201756748
-3.9295,-0.124628237520297,-1.545019249464132
-3.929,0.1314559590640864,-1.417859588602123
-3.9285,0.05676473506030786,-1.396666311791788
-3.928,-0.08194753808956648,-1.227120097309109
-3.9275,-0.1459685872356623,-0.9833974139902578
-3.927,-0.1673089369510276,-0.7502713690765743
-3.9265,-0.156638762093345,-0.5383386009732256
-3.926,0.2381577076409128,-0.05089323433552374
-3.9255,1.081101521397841,0.701468092431364
-3.925,1.860024286008674,1.358459673551745
-3.9245,2.276161105458297,1.70814874092227
-3.924,1.539919040278195,1.072350436612224
-3.9235,0.5049120790829789,0.2246193641988295
-3.923,-0.07127736323188383,-0.06148987274069118
-3.9225,-0.3060212101009019,0.01268659609548085
-3.922,-0.3487019095316325,0.2564092794143318
-3.9215,-0.3166913849585846,0.5425185163538525
-3.921,-0.2526703358124887,0.7862411996727035
-3.9205,-0.1993194615240755,0.9875773293708847
-3.92,-0.1779791118087102,1.125333628638062
-3.9195,-0.2206598112394408,1.061753798207057
-3.919,-0.4767440078238243,0.5743084315693548
-3.9185,-0.9035510021311299,-0.07208651114585861
-3.918,-1.479740444445993,-0.4959520473525559
-3.9175,-1.30901764672307,-0.252229364033705
-3.917,-0.1352984123779797,0.5001319627331828
-3.9165,1.113112045970889,1.25249328950007
-3.916,1.710641838001117,1.475022696008586
-3.9155,0.8676980242441885,0.6060983467848571
-3.915,-0.4767440078238243,-0.5807251545938954
-3.9145,-1.341028171296118,-1.47084278062796
-3.914,-1.298347471865388,-1.640388995110639
-3.9135,-0.8502001278427167,-1.354279758171118
-3.913,-0.3487019095316325,-1.121153713257435
-3.9125,0.04609456020262521,-0.9833974139902578
-3.912,0.3128489316446912,-0.9728007755850904
-3.9115,0.3768699807907871,-0.9304142219644207
-3.911,0.2488278824985954,-0.8350444763179138
-3.9105,0.08877525963335578,-0.7290780922662394
-3.91,-0.03926683865883591,-0.6125150698093976
-3.9095,0.05676473506030786,-0.3370024712750445
-3.909,0.7396559259519968,0.3623756634660061
-3.9085,1.56125938999356,1.093543713422559
-3.908,2.158789182023788,1.623375633680931
-3.9075,1.710641838001117,1.284283204715573
-3.907,0.3341892813600565,0.1716361721729923
-3.9065,-0.5621054066852853,-0.5065486857577234
-3.906,-0.7861790786966207,-0.4429688553267188
-3.9055,-0.690147504977477,-0.08268314955102604
-3.905,-0.4980843575391895,0.3411823866556712
-3.9045,-0.3273615598162672,0.701468092431364
-3.904,-0.2206598112394408,0.9663840525605498
-3.9035,-0.156638762093345,1.135930267043229
-3.903,-0.1779791118087102,1.157123543853563
-3.9025,-0.3700422592469978,0.7544512844572011
-3.902,-0.7008176798351597,0.1292496185523226
-3.9015,-1.26633694729234,-0.4641621321370536
-3.901,-1.51175096901904,-0.6443049850249
-3.9005,-0.5834457564006506,-0.01910331912002144
-3.9,0.707645401378949,0.8286277532933731
-3.8995,1.625280439139656,1.369056311956912
-3.899,1.145122570543937,0.7968378380778709
-3.8985,-0.156638762093345,-0.326405832869877
-3.898,-1.373038695869166,-1.34368311976595
-3.8975,-1.863866739322568,-1.862918401619155
-3.897,-1.394379045584531,-1.714565463946811
-3.8965,-0.7114878546928423,-1.407262950196955
-3.896,-0.2099896363817582,-1.216523458903942
-3.8955,0.0674349099179905,-1.152943628472937
-3.895,0.0674349099179905,-1.195330182093607
-3.8945,-0.007256314085787988,-1.078767159636765
-3.894,-0.07127736323188383,-0.9198175835592532
-3.8935,-0.1139580626626144,-0.7608680074817418
-3.893,-0.08194753808956648,-0.5595318777835605
-3.8925,0.4729015545099309,0.03387987290581572
-3.892,1.326515543124542,0.7968378380778709
-3.8915,2.030747083731597,1.42203950398275
-3.891,2.094768132877692,1.496215972818921
-3.8905,0.8783681991018712,0.5425185163538525
-3.89,-0.4660738329661415,-0.5489352393783931
-3.8895,-0.9782422261349084,-0.8350444763179138
-3.889,-0.9355615267041777,-0.5065486857577234
-3.8885,-0.690147504977477,-0.008506680714854012
-3.888,-0.4447334832507763,0.457745409112513
-3.8875,-0.274010685527854,0.8180311148882058
-3.887,-0.1779791118087102,1.051157159801889
-3.8865,-0.1459685872356623,1.167720182258731
-3.886,-0.2633405106701714,0.92399749893988
