Class_9_Think_Grab_one_hand_movement/Class_9_Think_Right_hand_Grab_Turki_2.csv

#Digilent WaveForms Oscilloscope Acquisition
#Device Name: EExplorer
#Serial Number: SN:210151A2B84A
#Date Time: 2020-11-18 11:34:53.531
#Sample rate: 2000Hz
#Samples: 16384
#Trigger: Source: Channel 1 Type: Edge Condition: Rising Level: 0 V Hyst.: Auto HoldOff: 0 s
#Channel 1: Range: 1 V/div Offset: 0 V Attenuation: 1 X
#Channel 2: Range: 1 V/div Offset: 0 V Attenuation: 1 X
#Power Supplies: ON
#Fixed Supply: ON
#Voltage: 3.3 V Readback: 3.316 V
#Positive Supply: ON
#Voltage: 3.7 V Readback: 3.718 V
#Current: 500 mA Readback: 18 mA
#Negative Supply: ON
#Voltage: -3.7 V Readback: -3.702 V
#Current: -500 mA Readback: -8 mA
#Reference 1: ON
#Voltage: 0 V
#Reference 2: ON
#Voltage: 0 V

Time (s),Channel 1 (V),Channel 2 (V)
-4.096,0.3128489316446912,0.3199891098453364
-4.0955,0.3235191065023642,0.3517790250608098
-4.095,0.3021787567869795,0.3517790250608387
-4.0945,0.2701682322139607,0.3517790250608387
-4.094,0.2594980573562878,0.3623756634659965
-4.0935,0.2488278824988768,0.3941655786818264
-4.093,0.5582629533713921,0.7438546460520338
-4.0925,0.5155822539407002,1.05115715980161
-4.092,-0.3807124341054859,0.3941655786808338
-4.0915,-1.26633694729234,-0.3475991096802118
-4.091,-1.479740444445993,-0.6654982618352349
-4.0905,-1.095614149568971,-0.4005823017056539
-4.09,-0.6047861061160158,0.03387987290581572
-4.0895,-0.2206598112394408,0.4153588554918433
-4.089,0.02475421048703672,0.6802748156207882
-4.0885,0.1314559590640864,0.8392243916985406
-4.088,0.1634664836371343,0.92399749893988
-4.0875,0.1634664836371343,0.9557874141553535
-4.087,0.1421261339217496,0.9557874141553631
-4.0865,0.1207857842064037,0.9345941373450475
-4.086,0.09944543449105783,0.9028042221295741
-4.0855,0.07810508477560521,0.8604176685087116
-4.085,0.00341386077189465,0.6802748156210291
-4.0845,-0.4233931335350228,-0.02969995752454313
-4.084,-0.7434983792662299,-0.8456411147235727
-4.0835,-1.116954499284783,-1.38606967338662
-4.083,-1.042263275281004,-1.068170521231597
-4.0825,-0.476744007823339,-0.5595318777832136
-4.082,0.05676473506030786,-0.1780528951975329
-4.0815,0.3661998059331045,0.06566978812131802
-4.081,0.440891029936815,0.1610395337677382
-4.0805,0.3982103305061524,0.1716361721729923
-4.08,0.3128489316446912,0.1504428953626575
-4.0795,0.2915085819293454,0.07626642652655291
-4.079,0.3021787567869892,0.002089957690323059
-4.0785,0.2808384070716433,0.01268659609548085
-4.078,0.2381577076409516,0.07626642652642762
-4.0775,0.2274875327832204,0.150442895362725
-4.077,0.2168173579255475,0.2246193641988295
-4.0765,0.462231379652025,0.4365521323019854
-4.076,0.7076454013782406,0.3941655786808145
-4.0755,-0.07127736323188383,-0.3687923864905467
-4.075,-1.095614149569417,-1.110557074852267
-4.0745,-1.597112367880239,-1.354279758170684
-4.074,-1.30901764672307,-0.8774310299385835
-4.0735,-0.7861790786966207,-0.1992461720078678
-4.073,-0.3380317346743574,0.3517790250603376
-4.0725,-0.03926683865883591,0.701468092431364
-4.072,0.1101156093487211,0.8816109453192104
-4.0715,0.1741366584947587,0.9451907757501571
-4.071,0.1741366584947975,0.934594137345009
-4.0705,0.1527963087794516,0.8922075837243778
-4.07,0.1207857842064328,0.828627753293431
-4.0695,0.08877525963334608,0.7650479228623011
-4.069,0.07810508477567314,0.6908714540261965
-4.0685,0.02475421048725994,0.5849050699745222
-4.068,-0.4340633083934721,0.00208995768960024
-4.0675,-0.8502001278427167,-0.7820612842920766
-4.067,-1.06360362499637,-1.439052865412457
-4.0665,-0.9462317015613751,-1.25891001252411
-4.066,-0.4127229586777283,-0.7078848154559045
-4.0655,0.09944543449103843,-0.2628260024388724
-4.065,0.4088805053635536,0.01268659609523026
-4.0645,0.4622313796522482,0.1080563417419877
-4.064,0.408880505363835,0.1716361721729923
-4.0635,0.3341892813601245,0.1610395337678346
-4.063,0.2808384070716433,0.13984625695749
-4.0625,0.2808384070716433,0.13984625695749
-4.062,0.2701682322139704,0.1610395337678057
-4.0615,0.248827882498576,0.1928294489833561
-4.061,0.2274875327832301,0.2246193641988295
-4.0605,0.2061471830678648,0.2776025562246667
-4.06,0.3448594562182147,0.447148770707654
-4.0595,0.8676980242441885,0.7862411996727035
-4.059,0.5369226036560266,0.3517790250608387
-4.0585,-0.4874141826805751,-0.5701285161878895
-4.058,-1.330357996438436,-1.258910012524611
-4.0575,-1.319687821580753,-1.0999604364471
-4.057,-0.9035510021315084,-0.4747587705427897
-4.0565,-0.4447334832507763,0.1292496185523226
-4.056,-0.1139580626626144,0.5637117931641874
-4.0555,0.06743490991782553,0.8074344764828167
-4.055,0.152796308779471,0.913400860534732
-4.0545,0.1741366584948169,0.9345941373450475
-4.054,0.152796308779471,0.9028042221295741
-4.0535,0.1314559590640475,0.8498210301036502
-4.053,0.08877525963335578,0.7862411996727035
-4.0525,0.0674349099179905,0.7226613692416989
-4.052,0.05676473506003613,0.637888261999945
-4.0515,-0.2420001609548061,0.1822328105781598
-4.051,-0.7328282044082075,-0.6760949002404023
-4.0505,-1.127624674142106,-1.449649503816921
-4.05,-1.362368521011484,-1.555615887869299
-4.0495,-0.9675720512772257,-0.9516074987747555
-4.049,-0.3487019095321954,-0.4429688553271813
-4.0485,0.1314559590642805,-0.1250697031715416
-4.048,0.3448594562177392,0.04447651131098315
-4.0475,0.4195506802214497,0.07626642652645654
-4.047,0.4088805053637768,0.05507314971612167
-4.0465,0.3448594562177392,0.02328323450064829
-4.046,0.3448594562177392,0.1080563417419106
-4.0455,0.3341892813600371,0.1822328105781983
-4.045,0.3128489316446912,0.2246193641988295
-4.0445,0.291508581929326,0.2670059178194992
-4.044,0.2488278824986245,0.2987958330350787
-4.0435,0.2808384070716433,0.383568940276341
-4.043,0.7396559259519968,0.1080563417419877
-4.0425,0.8783681991017451,-0.6866915386448469
-4.042,0.09944543449103843,-1.407262950196955
-4.0415,-0.5087545323968721,-1.492036057438295
-4.041,-0.5621054066852368,-0.8668343915339848
-4.0405,-0.391382608962169,-0.1462629799815199
-4.04,-0.1779791118087102,0.4153588554918433
-4.0395,-0.0179264889436162,0.7544512844568927
-4.039,0.0887752596333946,0.9239974989399282
-4.0385,0.1314559590640864,0.9769806909657173
-4.038,0.1421261339217593,0.9557874141554017
-4.0375,0.1421261339217496,0.9134008605346549
-4.037,0.1207857842064037,0.849821030103708
-4.0365,0.09944543449103843,0.775644561267536
-4.036,0.0674349099179905,0.7014680924312965
-4.0355,0.0674349099179905,0.627291623595192
-4.035,-0.08194753808956648,0.3517790250608387
-4.0345,-0.6474668055462321,-0.4429688553259958
-4.034,-1.06360362499637,-1.227120097309109
-4.0335,-1.223656247861609,-1.672178910326141
-4.033,-0.8928808272737481,-1.333086481361091
-4.0325,-0.2846808603850999,-0.6972881770502746
-4.032,0.1954770082101822,-0.1886495336027004
-4.0315,0.4302208550789868,0.1292496185520335
-4.031,0.4622313796521997,0.2776025562246474
-4.0305,0.408880505363835,0.2564092794143318
-4.03,0.3235191065024515,0.1822328105782272
-4.0295,0.3128489316447107,0.2564092794143992
-4.029,0.3341892813600565,0.3305857482505039
-4.0285,0.3128489316446912,0.309392471440169
-4.028,0.2808384070716142,0.26700591781948
-4.0275,0.2488278824985954,0.2458126410091644
-4.027,0.2274875327832301,0.2564092794143318
-4.0265,0.4835717293673806,0.5319218779484345
-4.026,0.7183155762366316,0.7438546460520338
-4.0255,-0.08194753808956648,0.04447651131098315
-4.025,-1.031593100422458,-0.6972881770500625
-4.0245,-1.351698346153519,-0.9092209451537292
-4.024,-1.042263275281004,-0.5171453241628908
-4.0235,-0.5941159312587408,0.002089957689841104
-4.023,-0.2206598112392273,0.4365521323024287
-4.0225,0.01408403562957729,0.7120647308365314
-4.022,0.1314559590639796,0.8604176685087406
-4.0215,0.1741366584948072,0.9134008605347127
-4.021,0.1634664836371343,0.9134008605347127
-4.0205,0.142126133921769,0.8922075837243778
-4.02,0.1207857842063843,0.8498210301036598
-4.0195,0.09944543449103843,0.7968378380778709
-4.019,0.08877525963335578,0.7438546460520338
-4.0185,0.02475421048731817,0.5955017083798245
-4.018,-0.4447334832507763,-0.09327978795619347
-4.0175,-1.138294849000148,-1.004590690800593
-4.017,-1.575772018164738,-1.693372187135849
-4.0165,-1.490410619303044,-1.735758740756616
-4.016,-0.7968492535543035,-1.152943628472937
-4.0155,-0.0819475380902166,-0.5277419625686269
-4.015,0.3661998059332792,-0.08268314955082365
-4.0145,0.5582629533713921,0.13984625695749
-4.014,0.536922603656046,0.2140227257935946
-4.0135,0.4302208550791324,0.1716361721729345
-4.013,0.3555296310754218,0.1080563417419877
-4.0125,0.3341892813600565,0.04447651131098315
-4.012,0.3021787567869698,0.033879872905835
-4.0115,0.2594980573562781,0.05507314971615059
-4.011,0.2168173579255475,0.08686306493165288
-4.0105,0.1954770082102016,0.1398462569574419
-4.01,0.2488278824985954,0.05507314971615059
-4.0095,0.5582629533713921,-0.4535654937318862
-4.009,0.3982103305062979,-1.152943628472301
-4.0085,-0.4874141826818466,-1.693372187136254
-4.008,-0.8608703027003992,-1.449649503817625
-4.0075,-0.7008176798353053,-0.718481453861737
-4.007,-0.4127229586774857,-0.01910331911956848
-4.0065,-0.1459685872356623,0.4789386859228479
-4.006,0.02475421048725994,0.7544512844572011
-4.0055,0.1207857842064328,0.8816109453192392
-4.005,0.1527963087794516,0.9134008605347127
-4.0045,0.1527963087794516,0.8922075837243778
-4.004,0.1421261339217496,0.8498210301036598
-4.0035,0.1207857842064037,0.7968378380778709
-4.003,0.09944543449103843,0.7438546460520338
-4.0025,0.04609456020267374,0.6696781772159291
-4.002,0.00341386077189465,0.5743084315693548
-4.0015,-0.4127229586777283,0.02328323450064829
-4.001,-1.170305373572507,-0.8668343915326066
-4.0005,-1.639793067311358,-1.619195718300728
-4,-1.778505340461106,-2.085447808127671
-3.9995,-1.170305373573196,-1.640388995110639
-3.999,-0.3380317346739499,-0.8668343915334161
-3.9985,0.2701682322139607,-0.2416327256285375
-3.998,0.5796033030867573,0.1080563417419877
-3.9975,0.6116138276598051,0.2776025562246667
-3.997,0.5049120790829789,0.309392471440169
-3.9965,0.3768699807907871,0.2458126410091644
-3.996,0.3341892813600565,0.2458126410091644
-3.9955,0.3021787567870086,0.2034260873884947
-3.995,0.2594980573562781,0.1504428953626575
-3.9945,0.2274875327832301,0.1080563417419877
-3.994,0.1954770082101822,0.1080563417419877
-3.9935,0.2594980573562781,0.2246193641988295
-3.993,0.6863050516635838,0.8074344764830383
-3.9925,0.5049120790829789,1.104140351827727
-3.992,-0.4127229586777283,0.3517790250608387
-3.9915,-0.8608703027003992,-0.2310360872233701
-3.991,-0.7434983792658902,-0.2098428104130352
-3.9905,-0.4447334832507763,0.05507314971615059
-3.99,-0.1673089369510276,0.3623756634660061
-3.9895,0.01408403562957729,0.6060983467848571
-3.989,0.1207857842064037,0.775644561267536
-3.9885,0.1527963087794516,0.8922075837243778
-3.988,0.1634664836371343,0.9557874141553824
-3.9875,0.1527963087794516,0.9875773293708847
-3.987,0.1314559590640864,0.9875773293708847
-3.9865,0.08877525963335578,0.9769806909657173
-3.986,0.07810508477567314,0.9451907757502149
-3.9855,0.07810508477567314,0.9028042221295453
-3.985,-0.03926683865883591,0.6908714540261965
-3.9845,-0.658136980404429,-0.09327978795619347
-3.984,-1.202315898146244,-0.9728007755850904
-3.9835,-1.639793067311232,-1.47084278062796
-3.983,-1.362368521011484,-1.131750351662602
-3.9825,-0.6688071552621118,-0.5807251545938954
-3.982,-0.04993701351651855,-0.1886495336027004
-3.9815,0.291508581929326,0.05507314971615059
-3.981,0.3982103305061524,0.1822328105781598
-3.9805,0.3875401556484697,0.1822328105781598
-3.98,0.3341892813600565,0.09745970333682032
-3.9795,0.3448594562177392,0.05507314971615059
-3.979,0.3448594562177392,0.04447651131098315
-3.9785,0.3128489316446912,0.02328323450064829
-3.978,0.2594980573562781,0.02328323450064829
-3.9775,0.2274875327832301,0.05507314971615059
-3.977,0.2274875327832301,0.1610395337678249
-3.9765,0.5796033030867573,0.6802748156210291
-3.976,0.79300680024041,1.25249328950007
-3.9755,-0.06060718837420119,0.7650479228623686
-3.975,-1.116954499284783,0.03387987290581572
-3.9745,-1.490410619303675,-0.326405832869877
-3.974,-1.148965023857831,-0.2310360872233701
-3.9735,-0.658136980404429,0.06566978812131802
-3.973,-0.2526703358124887,0.3729723018711736
-3.9725,0.01408403562957729,0.627291623595192
-3.972,0.142126133921769,0.8074344764830383
-3.9715,0.1848068333524996,0.9345941373450475
-3.971,0.1848068333524996,1.00877060618122
-3.9705,0.1634664836371343,1.061753798207057
-3.97,0.1314559590640864,1.082947075017392
-3.9695,0.09944543449103843,1.082947075017392
-3.969,0.08877525963335578,1.061753798207057
-3.9685,0.01408403562957729,0.9451907757502149
-3.968,-0.572775581542968,0.2987958330350016
-3.9675,-1.319687821580753,-0.5913217929990628
-3.967,-1.607782542738184,-1.322489842955616
-3.9665,-1.639793067311232,-1.725162102351978
-3.966,-0.9355615267041777,-1.301296566145281
-3.9655,-0.1459685872356623,-0.6337083466197325
-3.965,0.3768699807907871,-0.1144730647665284
-3.9645,0.6009436528021226,0.1610395337678249
-3.964,0.5796033030867573,0.2352160026039969
-3.9635,0.4622313796522482,0.2034260873884947
-3.963,0.3982103305061524,0.1928294489833272
-3.9625,0.4408910299368829,0.2776025562246667
-3.962,0.408880505363835,0.2034260873884947
-3.9615,0.3448594562177392,0.09745970333682032
-3.961,0.291508581929326,0.002089957690313421
-3.9605,0.2381577076409128,-0.05089323433552374
-3.96,0.4408910299368829,0.05507314971615059
-3.9595,0.8463576745288233,0.1504428953626575
-3.959,0.3341892813600565,-0.4429688553267188
-3.9585,-0.4020527838200457,-1.01518732920576
-3.958,-0.8928808272734472,-1.025783967610927
-3.9575,-0.7968492535543035,-0.6125150698093976
-3.957,-0.4980843575391895,-0.1038764263613609
-3.9565,-0.1993194615240755,0.2987958330350016
-3.956,0.00341386077189465,0.5743084315693548
-3.9555,0.1207857842064037,0.7332580076468663
-3.955,0.1634664836371343,0.8074344764830383
-3.9545,0.1741366584948169,0.849821030103708
-3.954,0.1634664836371343,0.8604176685088755
-3.9535,0.1314559590640864,0.849821030103708
-3.953,0.1101156093487211,0.8392243916985406
-3.9525,0.09944543449103843,0.8074344764830383
-3.952,0.08877525963335578,0.7650479228623686
-3.9515,-0.124628237520297,0.3729723018711736
-3.951,-0.5194247072545548,-0.4323722169215513
-3.9505,-0.7008176798351597,-1.152943628472937
-3.95,-1.010252750707956,-1.714565463946811
-3.9495,-0.690147504977477,-1.629792356705471
-3.949,-0.124628237520297,-1.025783967610927
-3.9485,0.3021787567870086,-0.3793890248957141
-3.948,0.5049120790829789,0.04447651131098315
-3.9475,0.5049120790829789,0.2246193641988295
-3.947,0.4302208550792003,0.2670059178194992
-3.9465,0.3448594562177392,0.2458126410091644
-3.946,0.3661998059331045,0.2458126410091644
-3.9455,0.3448594562177392,0.2034260873884947
-3.945,0.291508581929326,0.1504428953626575
-3.9445,0.2381577076409128,0.1080563417419877
-3.944,0.2061471830678648,0.08686306493165288
-3.9435,0.2701682322139607,0.1716361721729923
-3.943,0.7609962756673623,0.7332580076468663
-3.9425,0.857027849386506,1.157123543853563
-3.942,0.1314559590640864,0.5637117931641874
-3.9415,-0.7755089038389382,-0.1144730647665284
-3.941,-0.9995825758502737,-0.3793890248957141
-3.9405,-0.754168554123573,-0.2098428104130352
-3.94,-0.4127229586777283,0.07626642652648545
-3.9395,-0.124628237520297,0.3623756634660061
-3.939,0.05676473506030786,0.5637117931641874
-3.9385,0.142126133921769,0.7120647308365314
-3.938,0.1741366584948169,0.7968378380778709
-3.9375,0.1634664836371343,0.849821030103708
-3.937,0.142126133921769,0.8710143069140429
-3.9365,0.1207857842064037,0.8816109453192104
-3.936,0.08877525963335578,0.8710143069140429
-3.9355,0.04609456020262521,0.8392243916985406
-3.935,-0.1673089369510276,0.5319218779486851
-3.9345,-0.8608703027003992,-0.2946159176543747
-3.934,-1.618452717595867,-1.131750351662602
-3.9335,-2.055929886760855,-1.417859588602123
-3.933,-1.586442193022819,-0.8350444763179138
-3.9325,-0.6688071552621118,-0.252229364033705
-3.932,0.09944543449103843,0.08686306493165288
-3.9315,0.5369226036560266,0.2352160026039969
-3.931,0.6542945270905358,0.2776025562246667
-3.9305,0.5689331282290746,0.2458126410091644
-3.93,0.4302208550792003,0.1504428953626575
-3.9295,0.3768699807907871,0.1292496185523226
-3.929,0.3341892813600565,0.1292496185523226
-3.9285,0.2701682322139607,0.09745970333682032
-3.928,0.2168173579255475,0.07626642652648545
-3.9275,0.1954770082101822,0.08686306493165288
-3.927,0.1954770082101822,0.1186529801471552
-3.9265,0.5262524287983441,0.3517790250608387
-3.926,0.7183155762366316,0.1716361721729923
-3.9255,-0.07127736323188383,-0.6125150698093976
-3.925,-1.095614149569417,-1.354279758171118
-3.9245,-1.458400094730627,-1.460246142222792
-3.924,-1.138294849000148,-0.8774310299385835
-3.9235,-0.6474668055467465,-0.1780528951975329
-3.923,-0.2420001609548061,0.3623756634660061
-3.9225,0.02475421048725994,0.701468092431364
-3.922,0.1527963087794516,0.8710143069140429
-3.9215,0.1954770082101822,0.92399749893988
-3.921,0.1954770082101822,0.9134008605347127
-3.9205,0.1741366584948169,0.8710143069140429
-3.92,0.142126133921769,0.8074344764830383
-3.9195,0.1207857842064037,0.7438546460520338
-3.919,0.1101156093487211,0.6802748156210291
-3.9185,0.01408403562957729,0.4683420475176805
-3.918,-0.5514352318276028,-0.2946159176543747
-3.9175,-1.116954499284783,-1.174136905283272
-3.917,-1.394379045584531,-1.735758740757146
-3.9165,-1.06360362499637,-1.354279758171118
-3.916,-0.391382608962363,-0.7714646458869092
-3.9155,0.1634664836371343,-0.3158091944647096
-3.915,0.4729015545099309,-0.01910331912002144
-3.9145,0.5369226036560266,0.1186529801471552
-3.914,0.4622313796522482,0.1292496185523226
-3.9135,0.3768699807907871,0.08686306493165288
-3.913,0.3341892813600565,0.07626642652648545
-3.9125,0.3448594562177392,0.13984625695749
-3.912,0.3235191065023739,0.1716361721729923
-3.9115,0.291508581929326,0.1928294489833272
-3.911,0.2701682322139607,0.2246193641988295
-3.9105,0.2274875327832301,0.2776025562246667
-3.91,0.2168173579255475,0.2670059178194992
-3.9095,-0.007256314085787988,-0.2204394488182027
-3.909,-0.7008176798351597,-0.9939940523954253
-3.9085,-1.543761493592088,-1.608599079895136
-3.908,-1.917217613610981,-1.75695201756748
-3.9075,-1.501080794161358,-1.110557074852267
-3.907,-0.8715404775580819,-0.3052125560595421
-3.9065,-0.3487019095316325,0.3411823866556712
-3.906,-0.007256314085787988,0.7438546460520338
-3.9055,0.1634664836371343,0.92399749893988
-3.905,0.2168173579255475,0.9769806909657173
-3.9045,0.2168173579255475,0.9451907757502149
-3.904,0.1954770082101822,0.8710143069140429
-3.9035,0.1634664836371343,0.775644561267536
-3.903,0.1314559590640864,0.6802748156210291
-3.9025,0.09944543449103843,0.5849050699745222
-3.902,0.0674349099179905,0.4683420475176805
-3.9015,-0.2953510352432193,-0.04029659593035631
-3.901,-0.839529952985034,-0.8880276683437509
-3.9005,-1.298347471865388,-1.608599079895136
-3.9,-1.51175096901904,-1.492036057438295
-3.8995,-0.9782422261349084,-0.9198175835592532
-3.899,-0.2633405106701714,-0.400582301706049
-3.8985,0.2594980573562781,-0.04029659593035631
-3.898,0.4729015545099309,0.1080563417419877
-3.8975,0.4942419042252961,0.1080563417419877
-3.897,0.4302208550792003,0.06566978812131802
-3.8965,0.3555296310754218,0.03387987290581572
-3.896,0.3875401556484697,-0.05089323433552374
-3.8955,0.3768699807907871,-0.01910331912002144
-3.895,0.3235191065023739,0.06566978812131802
-3.8945,0.2808384070716433,0.1610395337678249
-3.894,0.2488278824985954,0.2458126410091644
-3.8935,0.291508581929326,0.3729723018711736
-3.893,0.6969752265212663,0.7120647308365314
-3.8925,0.3555296310754218,0.3411823866556712
-3.892,-0.6367966306890638,-0.4959520473525559
-3.8915,-1.426389570157579,-0.8880276683437509
-3.891,-1.415719395299897,-0.7608680074817418
-3.8905,-0.9462317015618604,-0.3052125560595421
-3.89,-0.4554036581084589,0.13984625695749
-3.8895,-0.1032878878049318,0.4683420475176805
-3.889,0.09944543449103843,0.6590815388106942
-3.8885,0.1848068333524996,0.7544512844572011
-3.888,0.2061471830678648,0.775644561267536
-3.8875,0.1954770082101822,0.775644561267536
-3.887,0.1634664836371343,0.7438546460520338
-3.8865,0.142126133921769,0.701468092431364
