Class_9_Think_Grab_one_hand_movement/Class_9_Think_Right_hand_Grab_SH_12.csv

#Digilent WaveForms Oscilloscope Acquisition
#Device Name: EExplorer
#Serial Number: SN:210151A2B84A
#Date Time: 2021-01-28 12:55:12.342
#Sample rate: 2000Hz
#Samples: 16384
#Trigger: Source: Channel 1 Type: Edge Condition: Rising Level: 0 V Hyst.: Auto HoldOff: 0 s
#Channel 1: Range: 1 V/div Offset: 0 V Attenuation: 1 X
#Channel 2: Range: 1 V/div Offset: 0 V Attenuation: 1 X
#Power Supplies: ON
#Fixed Supply: ON
#Voltage: 3.3 V Readback: 3.324 V
#Positive Supply: ON
#Voltage: 3.7 V Readback: 3.723 V
#Current: 40 mA Readback: 17 mA
#Negative Supply: ON
#Voltage: -3.7 V Readback: -3.708 V
#Current: -40 mA Readback: -6 mA
#Reference 1: ON
#Voltage: 0 V
#Reference 2: ON
#Voltage: 0 V

Time (s),Channel 1 (V),Channel 2 (V)
-4.096,-1.405049220442214,-1.725162102351978
-4.0955,-1.319687821580831,-1.608599079895242
-4.095,-0.7008176798346163,-0.8350444763172874
-4.0945,-0.1032878878049318,-0.1462629799820306
-4.094,0.3341892813596586,0.2670059178191234
-4.0935,0.5902734779445563,0.468342047517642
-4.093,0.7183155762366316,0.4259554938970107
-4.0925,0.7503261008096505,0.2987958330351173
-4.092,0.7823366253828149,0.2987958330351269
-4.0915,0.8783681991018712,0.4365521323021782
-4.091,0.825017324813458,0.4365521323021782
-4.0905,0.7289857510942173,0.3941655786814699
-4.09,0.6222840025174878,0.3517790250608387
-4.0895,0.5582629533713921,0.3517790250608387
-4.089,0.5155822539407002,0.1928294489834718
-4.0885,0.5049120790829789,-0.3158091944647096
-4.088,0.05676473506030786,-1.004590690800593
-4.0875,-0.5727755815423955,-1.598002441489429
-4.087,-1.309017646723167,-1.990078062480875
-4.0865,-1.415719395299897,-1.672178910326141
-4.086,-0.9035510021315958,-0.7820612842928861
-4.0855,-0.3166913849581673,0.06566978812185773
-4.085,0.142126133921769,0.6590815388106942
-4.0845,0.4195506802212653,0.9981739677757436
-4.084,0.5369226036560655,1.146526905448415
-4.0835,0.5796033030867573,1.167720182258731
-4.083,0.5582629533713921,1.125333628638062
-4.0825,0.5155822539406225,1.029963882991458
-4.082,0.4729015545099309,0.92399749893988
-4.0815,0.4302208550792003,0.8074344764830383
-4.081,0.2915085819294522,0.5849050699747246
-4.0805,-0.3487019095316325,-0.1250697031716958
-4.08,-1.170305373573196,-0.9833974139902578
-4.0795,-1.810515865033572,-1.650985633515199
-4.079,-1.714484291314361,-1.598002441489256
-4.0785,-0.9995825758502737,-0.8138511995075789
-4.078,-0.2740106855285139,-0.1462629799826378
-4.0775,0.2594980573565595,0.2776025562248209
-4.077,0.5689331282290746,0.4471487707073456
-4.0765,0.686305051663477,0.4683420475176612
-4.076,0.7183155762366219,0.4577454091124649
-4.0755,0.707645401378949,0.4047622170866759
-4.075,0.7396559259519968,0.4365521323021782
-4.0745,0.7076454013788909,0.4259554938969722
-4.074,0.6436243522328531,0.383568940276341
-4.0735,0.5902734779444399,0.3517790250608387
-4.073,0.5475927785137482,0.3623756634659965
-4.0725,0.6009436528021226,0.3411823866556712
-4.072,1.145122570543937,0.2352160026039969
-4.0715,1.710641838000603,-0.2946159176538929
-4.071,1.262494493977417,-0.9939940523959168
-4.0705,0.1314559590640864,-1.534422611058964
-4.07,-0.7114878546920756,-1.661582271920858
-4.0695,-0.7328282044078872,-0.9939940523946735
-4.069,-0.3807124341046804,-0.1674562567923655
-4.0685,0.00341386077189465,0.4895353243280153
-4.068,0.2808384070717986,0.902804222129738
-4.0675,0.4515612047945656,1.114736990232894
-4.067,0.5262524287983441,1.178316820663898
-4.0665,0.5369226036560072,1.157123543853496
-4.066,0.5155822539406614,1.082947075017392
-4.0655,0.4729015545099309,0.9663840525605498
-4.065,0.4302208550792391,0.849821030103814
-4.0645,0.3661998059331045,0.701468092431364
-4.064,-0.07127736323188383,0.1504428953626575
-4.0635,-0.7968492535536436,-0.7078848154551241
-4.063,-1.490410619303995,-1.46024614222311
-4.0625,-1.842526389607202,-1.809935209593318
-4.062,-1.394379045584939,-1.375473034981848
-4.0615,-0.6261264558307893,-0.6866915386450204
-4.061,0.02475421048725994,-0.08268314955102604
-4.0605,0.4515612047945656,0.2881991946298341
-4.06,0.6863050516636614,0.4259554938970107
-4.0595,0.7716664505250448,0.4259554938970107
-4.059,0.7503261008096795,0.3411823866556712
-4.0585,0.8143471499557171,0.3623756634659869
-4.058,0.8676980242441885,0.3941655786815084
-4.0575,0.79300680024041,0.3305857482505039
-4.057,0.6863050516636808,0.2776025562247149
-4.0565,0.5902734779444399,0.2670059178194992
-4.056,0.5689331282290746,0.309392471440169
-4.0555,0.9743997728206462,0.4153588554917469
-4.055,1.433217291700748,0.1398462569568347
-4.0545,0.7503261008096795,-0.5807251545938954
-4.054,-0.1993194615232119,-0.7608680074815779
-4.0535,-1.095614149569592,-0.7608680074816743
-4.053,-1.287677297007705,-0.6866915386455698
-4.0525,-0.8502001278427167,-0.2310360872233701
-4.052,-0.2953510352428311,0.2776025562250329
-4.0515,0.1314559590640864,0.6802748156210291
-4.051,0.3875401556484697,0.9345941373450475
-4.0505,0.5155822539405449,1.082947075017257
-4.05,0.5475927785137094,1.157123543853563
-4.0495,0.5369226036560266,1.167720182258731
-4.049,0.483571729367662,1.135930267043257
-4.0485,0.4302208550791615,1.082947075017324
-4.048,0.3875401556484697,1.00877060618122
-4.0475,0.1527963087796651,0.6908714540264856
-4.047,-0.6047861061167533,-0.1038764263621319
-4.0465,-1.415719395299897,-0.9516074987747555
-4.046,-1.821186039891468,-1.492036057437803
-4.0455,-1.319687821580054,-1.078767159636129
-4.045,-0.5514352318276028,-0.3793890248957141
-4.0445,0.0674349099179905,0.08686306493165288
-4.044,0.4622313796524326,0.2564092794143318
-4.0435,0.6649647019482183,0.2564092794143318
-4.043,0.7289857510943143,0.1822328105781598
-4.0425,0.7183155762366412,0.1292496185523708
-4.042,0.707645401378949,0.05507314971615059
-4.0415,0.7609962756673623,0.03387987290581572
-4.041,0.7503261008096892,0.09745970333676249
-4.0405,0.6756348768058331,0.1610395337678731
-4.04,0.6009436528021226,0.2140227257936621
-4.0395,0.5475927785137579,0.2564092794142933
-4.039,0.2808384070711096,-0.008506680715480455
-4.0385,-0.3060212101009019,-0.6972881770507372
-4.038,-1.031593100422662,-1.386069673385994
-4.0375,-1.65046324216941,-1.894708316834908
-4.037,-2.19464215991073,-2.17022091536901
-4.0365,-2.023919362187807,-1.778145294377815
-4.036,-1.202315898145536,-0.8244478379119561
-4.0355,-0.423393133535411,0.04447651131098315
-4.035,0.1207857842064037,0.6484849004055269
-4.0345,0.4302208550789189,0.9769806909654185
-4.034,0.5582629533713921,1.114736990232894
-4.0335,0.5902734779444399,1.114736990232894
-4.033,0.568933128229094,1.051157159801947
-4.0325,0.5049120790829109,0.9451907757500897
-4.032,0.4302208550792003,0.8074344764830383
-4.0315,0.3875401556485085,0.7014680924314604
-4.031,0.3341892813596101,0.5425185163533417
-4.0305,-0.156638762093345,-0.01910331912002144
-4.03,-0.9675720512764882,-0.8562377531274872
-4.0295,-1.6611334170265,-1.534422611058887
-4.029,-1.554431668449771,-1.449649503817625
-4.0285,-0.8181896032696687,-0.6866915386455698
-4.028,-0.1139580626621777,-0.0296999575248612
-4.0275,0.3661998059331045,0.3305857482505039
-4.027,0.6222840025174878,0.383568940276341
-4.0265,0.7183155762365442,0.3411823866557098
-4.026,0.7183155762366316,0.2458126410091644
-4.0255,0.6969752265212663,0.1928294489833272
-4.025,0.7396559259519579,0.3305857482503786
-4.0245,0.7289857510942561,0.4047622170866759
-4.024,0.6649647019482183,0.4047622170866759
-4.0235,0.6009436528021808,0.4047622170866759
-4.023,0.5475927785136803,0.4259554938970589
-4.0225,0.5155822539406614,0.4789386859228479
-4.022,0.7930068002401578,0.3093924714403232
-4.0215,1.059761171681933,-0.3052125560601878
-4.021,0.4622313796522482,-1.01518732920576
-4.0205,-0.4127229586777283,-1.449649503817625
-4.02,-0.8715404775578975,-1.407262950196319
-4.0195,-0.6688071552621118,-0.7078848154559045
-4.019,-0.2633405106701714,0.07626642652648545
-4.0185,0.09944543449070847,0.669678177215322
-4.018,0.3448594562177392,1.00877060618122
-4.0175,0.4729015545099309,1.167720182258731
-4.017,0.5262524287982956,1.199510097474204
-4.0165,0.5262524287983247,1.167720182258654
-4.016,0.5049120790829789,1.082947075017392
-4.0155,0.462231379652287,0.9557874141554981
-4.015,0.4195506802214691,0.8286277532932382
-4.0145,0.3661998059331045,0.6802748156210291
-4.014,-0.06060718837381301,0.1822328105786127
-4.0135,-0.8928808272740488,-0.6760949002410865
-4.013,-1.554431668449771,-1.42845622700729
-4.0125,-1.970568487899394,-1.915901593644992
-4.012,-1.74649481588737,-1.756952017566835
-4.0115,-0.9889124009925911,-1.046977244421262
-4.011,-0.2313299860971235,-0.4535654937318862
-4.0105,0.3235191065018693,-0.06148987274104778
-4.01,0.6222840025174878,0.1716361721729923
-4.0095,0.7183155762366316,0.2458126410091644
-4.009,0.7076454013789587,0.2458126410091644
-4.0085,0.7823366253827857,0.2034260873884368
-4.008,0.8463576745288233,0.13984625695749
-4.0075,0.7823366253827857,0.1292496185523322
-4.007,0.6756348768058137,0.1398462569575286
-4.0065,0.5796033030867573,0.1822328105781598
-4.006,0.5582629533713921,0.2458126410091644
-4.0055,0.9530594231062126,0.1928294489829706
-4.005,1.571929564851243,-0.1992461720078678
-4.0045,1.19847344483235,-0.8986243067489184
-4.004,0.1634664836361638,-1.354279758171359
-4.0035,-0.9035510021311299,-1.619195718300304
-4.003,-1.212986073003927,-1.301296566145281
-4.0025,-0.8395299529853737,-0.5065486857584462
-4.002,-0.3273615598162672,0.2458126410091644
-4.0015,0.09944543449103843,0.775644561267536
-4.001,0.3661998059328618,1.082947075017112
-4.0005,0.4942419042253349,1.21010673587942
-4,0.5369226036560266,1.231300012689736
-3.9995,0.5262524287983441,1.178316820663898
-3.999,0.4622313796522482,1.072350436612224
-3.9985,0.408880505363835,0.9557874141553824
-3.998,0.3768699807907871,0.8392243916985406
-3.9975,0.09944543449103843,0.4895353243280153
-3.997,-0.6688071552621118,-0.3581957480853793
-3.9965,-1.458400094730627,-1.205926820498774
-3.996,-1.842526389607202,-1.820531847998485
-3.9955,-1.415719395299897,-1.725162102351978
-3.995,-0.6047861061160158,-1.152943628472937
-3.9945,0.05676473506030786,-0.4853554089473885
-3.994,0.4835717293676135,0.002089957690313421
-3.9935,0.6863050516635838,0.13984625695749
-3.993,0.7503261008096795,0.1080563417419877
-3.9925,0.7289857510943143,0.06566978812131802
-3.992,0.7289857510943143,0.05507314971615059
-3.9915,0.8356874996711408,0.03387987290581572
-3.991,0.8036769750980928,0.06566978812131802
-3.9905,0.6969752265212663,0.1080563417419877
-3.99,0.6116138276598051,0.1822328105781598
-3.9895,0.5475927785137094,0.2670059178194992
-3.989,0.6756348768059011,0.4895353243280153
-3.9885,1.294505018551494,0.8710143069140429
-3.988,1.401206767128321,0.3941655786815084
-3.9875,0.4622313796522482,-0.5065486857577234
-3.987,-0.7008176798351597,-1.258910012524611
-3.9865,-1.287677297007705,-1.42845622700729
-3.986,-1.031593100423322,-0.8032545611024114
-3.9855,-0.4980843575391895,-0.01910331912002144
-3.985,-0.02859666380115328,0.6166949851900245
-3.9845,0.291508581929326,1.019367244586387
-3.984,0.4622313796522482,1.220703374284568
-3.9835,0.5262524287983441,1.29487984312074
-3.983,0.5262524287983441,1.284283204715573
-3.9825,0.4942419042252961,1.210106735879401
-3.982,0.4408910299368829,1.093543713422559
-3.9815,0.3982103305061524,0.9769806909657173
-3.981,0.2808384070716433,0.7438546460520338
-3.9805,-0.3593720843893152,0.01268659609548085
-3.98,-1.212986073003927,-0.8986243067489184
-3.9795,-1.906547438753298,-1.629792356705471
-3.979,-1.970568487899394,-1.852321763213987
-3.9785,-1.223656247861609,-1.290699927740113
-3.978,-0.4127229586777283,-0.6231117082145651
-3.9775,0.2061471830678648,-0.07208651114585861
-3.977,0.5475927785137094,0.2034260873884947
-3.9765,0.7183155762366316,0.3305857482505039
-3.976,0.7503261008096795,0.3623756634660061
-3.9755,0.707645401378949,0.2987958330350016
-3.975,0.7716664505250448,0.4471487707073456
-3.9745,0.79300680024041,0.5213252395435176
-3.974,0.7396559259519968,0.4471487707073456
-3.9735,0.6436243522328531,0.3517790250608387
-3.973,0.5689331282290746,0.2987958330350016
-3.9725,0.5582629533713921,0.3199891098453364
-3.972,1.027750647109428,0.5849050699745222
-3.9715,1.571929564851243,0.309392471440169
-3.971,1.507908515705147,-0.4641621321370536
-3.9705,0.8783681991018712,-0.9728007755850904
-3.97,-0.1459685872356623,-1.311893204550448
-3.9695,-0.5514352318276028,-0.9833974139902578
-3.969,-0.4020527838200457,-0.2416327256285375
-3.9685,-0.1032878878049318,0.4365521323021782
-3.968,0.1741366584948169,0.9028042221295453
-3.9675,0.3555296310754218,1.167720182258731
-3.967,0.4515612047945656,1.273686566310405
-3.9665,0.4835717293676135,1.284283204715573
-3.966,0.4729015545099309,1.220703374284568
-3.9655,0.4302208550792003,1.104140351827727
-3.965,0.3875401556484697,0.9875773293708847
-3.9645,0.3341892813600565,0.8392243916985406
-3.964,-0.1139580626626144,0.309392471440169
-3.9635,-0.8288597781273515,-0.5807251545938954
-3.963,-1.447729919872945,-1.364876396576285
-3.9625,-1.714484291315011,-1.746355379162313
-3.962,-1.148965023857831,-1.195330182093607
-3.9615,-0.423393133535411,-0.5065486857577234
-3.961,0.1527963087794516,-0.1144730647665284
-3.9605,0.4942419042252961,0.06566978812131802
-3.96,0.6649647019482183,0.1504428953626575
-3.9595,0.7289857510943143,0.1186529801471552
-3.959,0.6969752265212663,0.1080563417419877
-3.9585,0.7609962756673623,0.04447651131098315
-3.958,0.8463576745288233,-0.02969995752518888
-3.9575,0.7716664505250448,-0.008506680714854012
-3.957,0.6542945270905358,0.06566978812131802
-3.9565,0.5582629533713921,0.1610395337678249
-3.956,0.5262524287983441,0.2564092794143318
-3.9555,0.8783681991018712,0.4365521323021782
-3.955,1.454557641416734,0.3199891098453364
-3.9545,1.113112045970889,-0.4111789401112165
-3.954,0.1741366584948169,-0.9833974139902578
-3.9535,-0.839529952985034,-1.354279758171118
-3.953,-1.202315898146244,-1.195330182093607
-3.9525,-0.8715404775580819,-0.4853554089473885
-3.952,-0.3593720843893152,0.2458126410091644
-3.9515,0.05676473506030786,0.775644561267536
-3.951,0.3235191065023739,1.082947075017392
-3.9505,0.4622313796522482,1.220703374284568
-3.95,0.5049120790829789,1.241896651094903
-3.9495,0.4942419042252961,1.188913459069066
-3.949,0.4408910299368829,1.093543713422559
-3.9485,0.3982103305061524,0.9769806909657173
-3.948,0.3555296310754218,0.849821030103708
-3.9475,0.1207857842064037,0.4895353243280153
-3.947,-0.6261264558313813,-0.3475991096802118
-3.9465,-1.447729919872945,-1.195330182093607
-3.946,-2.119950935906951,-1.84172512480882
-3.9455,-2.098610586191586,-1.926498232050159
-3.945,-1.277007122150022,-1.290699927740113
-3.9445,-0.4447334832507763,-0.5807251545938954
-3.944,0.1527963087794516,-0.05089323433552374
-3.9435,0.5155822539406614,0.1716361721729923
-3.943,0.6863050516635838,0.2881991946298341
-3.9425,0.7396559259519968,0.309392471440169
-3.942,0.7503261008096795,0.3199891098453364
-3.9415,0.8890383739595538,0.4365521323021782
-3.941,0.8356874996711408,0.4047622170866759
-3.9405,0.7183155762366316,0.3199891098453364
-3.94,0.6009436528021226,0.2564092794143318
-3.9395,0.5262524287983441,0.2564092794143318
-3.939,0.7289857510943143,0.5637117931641874
-3.9385,1.411876941986003,1.241896651094903
-3.938,1.7213120128588,1.570392441655093
-3.9375,1.038420821967111,0.8816109453192104
-3.937,-0.156638762093345,-0.1992461720078678
-3.9365,-0.839529952985034,-0.8032545611024114
-3.936,-0.754168554123573,-0.570128516188728
-3.9355,-0.3700422592469978,-0.02969995752518888
-3.935,0.00341386077189465,0.5001319627331828
-3.9345,0.2701682322139607,0.8816109453192104
-3.934,0.4195506802215176,1.135930267043229
-3.9335,0.4729015545099309,1.273686566310405
-3.933,0.4729015545099309,1.326669758336243
-3.9325,0.4408910299368829,1.305476481525908
-3.932,0.3982103305061524,1.25249328950007
-3.9315,0.3661998059331045,1.188913459069066
-3.931,0.2488278824985954,1.019367244586387
-3.9305,-0.2846808603855366,0.3411823866556712
-3.93,-0.9035510021311299,-0.5171453241628908
-3.9295,-1.458400094730627,-1.195330182093607
-3.929,-1.618452717595867,-1.598002441489969
-3.9285,-1.127624674142465,-1.152943628472937
-3.928,-0.4340633083930936,-0.3899856633008816
-3.9275,0.1314559590640864,0.08686306493165288
-3.927,0.4835717293676135,0.2564092794143318
-3.9265,0.6542945270905358,0.2776025562246667
-3.926,0.6863050516635838,0.2458126410091644
-3.9255,0.6542945270905358,0.1928294489833272
-3.925,0.79300680024041,0.4365521323021782
-3.9245,0.8783681991018712,0.5955017083796896
-3.924,0.79300680024041,0.4789386859228479
-3.9235,0.6649647019482183,0.2987958330350016
-3.923,0.5582629533713921,0.1716361721729923
-3.9225,0.5369226036560266,0.1080563417419877
-3.922,0.9957401225363802,0.03387987290581572
-3.9215,1.497238340847464,-0.4535654937318862
-3.921,0.974399772821015,-1.110557074852267
-3.9205,-0.03926683865883591,-1.481439419033127
-3.92,-0.7968492535543035,-1.51322933424863
-3.9195,-0.7648387289812555,-0.8774310299385835
-3.919,-0.4127229586777283,-0.09327978795619347
-3.9185,-0.03926683865883591,0.5425185163538525
-3.918,0.2381577076409128,0.9451907757502149
-3.9175,0.3875401556484697,1.157123543853563
-3.917,0.4622313796522482,1.241896651094903
-3.9165,0.4729015545099309,1.241896651094903
-3.916,0.4515612047945656,1.188913459069066
-3.9155,0.408880505363835,1.104140351827727
-3.915,0.3661998059331045,1.00877060618122
-3.9145,0.3128489316446912,0.849821030103708
-3.914,-0.1139580626626144,0.309392471440169
-3.9135,-0.6688071552621118,-0.5913217929990628
-3.913,-1.26633694729234,-1.407262950196955
-3.9125,-1.597112367880501,-1.831128486403653
-3.912,-1.159635198715513,-1.290699927740113
-3.9115,-0.4554036581084589,-0.5489352393783931
-3.911,0.1101156093487211,0.02328323450064829
-3.9105,0.4729015545099309,0.309392471440169
-3.91,0.6222840025174878,0.3729723018711736
-3.9095,0.6649647019482183,0.2458126410091644
-3.909,0.6436243522328531,0.13984625695749
-3.9085,0.707645401378949,0.1928294489833272
-3.908,0.7609962756673623,0.309392471440169
-3.9075,0.707645401378949,0.2987958330350016
-3.907,0.6222840025174878,0.2564092794143318
-3.9065,0.5369226036560266,0.2352160026039969
-3.906,0.4942419042252961,0.2670059178194992
-3.9055,0.825017324813458,0.5425185163538525
-3.905,1.411876941986003,0.6378882620003594
-3.9045,1.049090996824793,-0.08268314955102604
-3.904,-0.007256314085787988,-0.9410108603695881
-3.9035,-0.7114878546928423,-1.322489842955616
-3.903,-0.6794773301197943,-0.8774310299385835
-3.9025,-0.3487019095316325,-0.1462629799820306
-3.902,-0.007256314085787988,0.4895353243280153
-3.9015,0.2381577076409128,0.9134008605347127
-3.901,0.3875401556484697,1.146526905448396
-3.9005,0.4515612047945656,1.241896651094903
-3.9,0.4622313796522482,1.25249328950007
-3.8995,0.4408910299368829,1.210106735879401
-3.899,0.4195506802215176,1.146526905448396
-3.8985,0.408880505363835,1.061753798207057
-3.898,0.3982103305061524,0.9769806909657173
-3.8975,0.142126133921769,0.6060983467848571
-3.897,-0.6367966306890638,-0.2734226408440398
-3.8965,-1.447729919872945,-1.152943628472937
-3.896,-1.906547438753298,-1.809935209593318
-3.8955,-1.789175515318789,-1.915901593644992
-3.895,-1.052933450138687,-1.322489842955616
-3.8945,-0.3060212101009019,-0.6866915386455698
-3.894,0.2274875327832301,-0.2416327256285375
-3.8935,0.5475927785137094,-0.02969995752518888
-3.893,0.6863050516635838,0.05507314971615059
-3.8925,0.707645401378949,0.09745970333682032
-3.892,0.7183155762366316,0.07626642652648545
-3.8915,0.8997085488172365,0.04447651131098315
-3.891,0.8783681991018712,0.02328323450064829
-3.8905,0.7503261008096795,0.03387987290581572
-3.89,0.6222840025174878,0.08686306493165288
-3.8895,0.5155822539406614,0.1610395337678249
-3.889,0.5582629533713921,0.13984625695749
-3.8885,1.017080472251745,-0.1144730647665284
-3.888,1.582599739708926,-0.7396747306714069
-3.8875,1.230483969405398,-1.364876396576285
-3.887,0.08877525963335578,-1.788741932782983
-3.8865,-0.5621054066852853,-1.492036057438295
-3.886,-0.5300948821122373,-0.6443049850249
-3.8855,-0.2526703358124887,0.1716361721729923
-3.885,0.04609456020262521,0.7650479228623686
