Class_9_Think_Grab_one_hand_movement/Class_9_Think_Right_hand_Grab_Basim_12.csv

#Digilent WaveForms Oscilloscope Acquisition
#Device Name: EExplorer
#Serial Number: SN:210151A2B84A
#Date Time: 2021-02-07 16:09:46.230
#Sample rate: 2000Hz
#Samples: 16384
#Trigger: Source: Channel 1 Type: Edge Condition: Rising Level: 0 V Hyst.: Auto HoldOff: 0 s
#Channel 1: Range: 1 V/div Offset: 0 V Attenuation: 1 X
#Channel 2: Range: 1 V/div Offset: 0 V Attenuation: 1 X
#Power Supplies: ON
#Fixed Supply: ON
#Voltage: 3.3 V Readback: 3.331 V
#Positive Supply: ON
#Voltage: 3.7 V Readback: 3.717 V
#Current: 40 mA Readback: 30 mA
#Negative Supply: ON
#Voltage: -3.7 V Readback: -3.712 V
#Current: -40 mA Readback: -9 mA
#Reference 1: ON
#Voltage: 0 V
#Reference 2: ON
#Voltage: 0 V

Time (s),Channel 1 (V),Channel 2 (V)
-4.096,-1.042263275281004,-1.915901593644992
-4.0955,-0.4233931335359739,-1.5874058030851
-4.095,-0.01792648894330565,-0.898624306748263
-4.0945,0.1634664836371343,-0.1780528951975329
-4.094,0.1848068333524802,0.4047622170861458
-4.0935,0.1314559590640281,0.7756445612676999
-4.093,0.0674349099179905,0.9557874141553824
-4.0925,0.1741366584947199,1.15712354385338
-4.092,0.2915085819292969,1.220703374284395
-4.0915,0.2594980573562781,1.029963882991555
-4.091,0.2488278824985954,0.8286277532933731
-4.0905,0.2168173579254407,0.5955017083795258
-4.09,0.09944543449103843,0.4153588554918433
-4.0895,-0.3487019095316325,0.5849050699745222
-4.089,-1.063603624995719,0.09745970333726361
-4.0885,-1.437059745015262,-0.7714646458869092
-4.088,-1.67180359188428,-1.354279758171118
-4.0875,-1.437059745015476,-1.205926820498909
-4.087,-0.9569018764191453,-0.6972881770503035
-4.0865,-0.5194247072545548,-0.2204394488182027
-4.086,-0.2313299860973855,0.108056341741689
-4.0855,-0.08194753808951796,0.2987958330350787
-4.085,-0.02859666380115328,0.383568940276341
-4.0845,-0.01792648894348033,0.4047622170866566
-4.084,-0.03926683865884562,0.3941655786814988
-4.0835,-0.04993701351651855,0.383568940276341
-4.083,-0.07127736323188383,0.3623756634660061
-4.0825,-0.09261771294725883,0.341182386655652
-4.082,-0.1032878878049318,0.3199891098453364
-4.0815,-0.2846808603855366,0.03387987290581572
-4.081,-0.9889124009919507,-0.7290780922655455
-4.0805,-1.522421143876723,-1.492036057438295
-4.08,-1.757164990745741,-2.053657892912168
-4.0795,-1.415719395300207,-2.360960406661745
-4.079,-0.6581369804038856,-2.127834361747849
-4.0785,-0.06060718837420119,-1.587405803084801
-4.078,0.2274875327829681,-0.8668343915340715
-4.0775,0.2701682322139025,-0.1462629799815777
-4.077,0.2061471830678648,0.3517790250608387
-4.0765,0.1207857842064813,0.6060983467846257
-4.076,0.1634664836372701,0.7014680924312869
-4.0755,0.3128489316446912,0.6166949851900245
-4.075,0.291508581929326,0.5319218779486851
-4.0745,0.1954770082100754,0.4259554938969239
-4.074,0.07810508477567314,0.3305857482505039
-4.0735,-0.007256314085787988,0.2458126410091644
-4.073,-0.3913826089620137,-0.0402965959300961
-4.0725,-1.06360362499637,-0.8032545611024114
-4.072,-1.490410619303675,-1.545019249464132
-4.0715,-1.554431668449713,-2.000674700885917
-4.071,-1.244996597576567,-1.619195718299658
-4.0705,-0.7968492535543035,-0.9092209451540858
-4.07,-0.4127229586780777,-0.2946159176549337
-4.0695,-0.1673089369509209,0.1080563417421709
-4.069,-0.04993701351651855,0.309392471440169
-4.0685,-0.007256314085787988,0.383568940276341
-4.068,-0.007256314085797692,0.3835689402763218
-4.0675,-0.01792648894347063,0.3623756634660061
-4.067,-0.04993701351651855,0.3305857482505039
-4.0665,-0.07127736323189353,0.2881991946297956
-4.066,-0.08194753808956648,0.2458126410091644
-4.0655,-0.08194753808956648,0.2246193641988295
-4.065,-0.1246282375202582,0.1292496185524094
-4.0645,-0.4874141826815069,-0.2946159176543747
-4.064,-0.9355615267041777,-0.8880276683437509
-4.0635,-1.362368521011095,-1.47084278062743
-4.063,-1.565101843306949,-1.926498232050169
-4.0625,-1.010252750707956,-1.937094870455327
-4.062,-0.3807124341052529,-1.481439419033542
-4.0615,0.003413860772030513,-0.7502713690759383
-4.061,0.1527963087794516,-0.05089323433552374
-4.0605,0.1741366584948169,0.4259554938970107
-4.06,0.131455959064067,0.6802748156211448
-4.0595,0.1101156093487211,0.8074344764830383
-4.059,0.2808384070716433,0.9345941373450475
-4.0585,0.334189281360008,0.8922075837244163
-4.058,0.2701682322139607,0.7332580076468663
-4.0575,0.1634664836371343,0.55311515475902
-4.057,0.08877525963342371,0.4259554938971264
-4.0565,-0.02859666380115328,0.4895353243280153
-4.056,-0.4660738329661415,0.7544512844572011
-4.0555,-1.04226327528048,0.1398462569580491
-4.055,-1.45840009473055,-0.7926579226975331
-4.0545,-1.373038695869166,-1.110557074852267
-4.054,-0.9569018764199216,-0.8032545611026909
-4.0535,-0.5407650569696484,-0.358195748085042
-4.053,-0.2420001609548061,0.01268659609548085
-4.0525,-0.08194753808956648,0.2564092794143318
-4.052,-0.007256314085778284,0.3729723018712218
-4.0515,0.00341386077189465,0.4259554938970107
-4.051,0.00341386077189465,0.4365521323021782
-4.0505,-0.01792648894345122,0.4365521323021782
-4.05,-0.03926683865883591,0.4259554938970107
-4.0495,-0.04993701351651855,0.4047622170866759
-4.049,-0.07127736323186443,0.3623756634660447
-4.0485,-0.1139580626629929,0.2670059178190944
-4.048,-0.5300948821122373,-0.1780528951975329
-4.0475,-1.19164572328796,-0.9622041371792096
-4.047,-1.682473766742322,-1.682775548731819
-4.0465,-2.07727023647622,-2.244397384205182
-4.046,-1.597112367880938,-2.382153683472234
-4.0455,-0.7541685541230101,-1.862918401618442
-4.045,-0.1352984123779797,-1.078767159636765
-4.0445,0.1741366584948169,-0.3158091944647096
-4.044,0.248827882498576,0.2352160026042957
-4.0435,0.2274875327832301,0.5637117931641874
-4.043,0.1634664836371343,0.701468092431364
-4.0425,0.216817357925499,0.7650479228623107
-4.042,0.2701682322139607,0.7544512844572011
-4.0415,0.2488278824985954,0.6590815388106942
-4.041,0.1848068333525578,0.5319218779488007
-4.0405,0.2274875327832107,0.59550170837968
-4.04,0.2061471830678648,0.5849050699745222
-4.0395,-0.01792648894326684,0.7332580076467314
-4.039,-0.7541685541242911,0.288199194628986
-4.0385,-1.543761493592088,-0.6443049850249
-4.038,-1.789175515318566,-1.280103289334368
-4.0375,-1.426389570157084,-1.110557074851814
-4.037,-0.8822106524157645,-0.6125150698093976
-4.0365,-0.4340633083930936,-0.1356663415768632
-4.036,-0.1459685872355362,0.1822328105783236
-4.0355,-0.007256314085787988,0.3623756634660061
-4.035,0.03542438534494258,0.4365521323021782
-4.0345,0.03542438534494258,0.4577454091124938
-4.034,0.01408403562957729,0.4471487707073456
-4.0335,-0.007256314085787988,0.4259554938970107
-4.033,-0.0392668386588068,0.4047622170866951
-4.0325,-0.0606071883742109,0.3729723018711543
-4.032,-0.07127736323188383,0.3517790250608387
-4.0315,-0.2633405106699967,0.08686306493189377
-4.031,-0.9035510021315084,-0.6337083466203589
-4.0305,-1.319687821580753,-1.322489842955616
-4.03,-1.650463242168614,-1.862918401618663
-4.0295,-1.437059745014621,-2.117237723342913
-4.029,-0.7328282044082075,-1.831128486403653
-4.0285,-0.1352984123779797,-1.163540266878104
-4.028,0.1741366584949043,-0.4535654937313658
-4.0275,0.2701682322139607,0.1186529801471552
-4.027,0.2381577076409128,0.5001319627331828
-4.0265,0.1634664836372022,0.6802748156208652
-4.026,0.1527963087794516,0.6696781772158616
-4.0255,0.2381577076409128,0.6696781772158616
-4.025,0.2381577076409128,0.6166949851900727
-4.0245,0.1954770082101337,0.5213252395434212
-4.024,0.142126133921769,0.4153588554918433
-4.0235,0.09944543449107725,0.3199891098454232
-4.023,-0.3166913849592736,-0.05089323433623692
-4.0225,-1.074273799854052,-0.8350444763179138
-4.022,-1.629122892453045,-1.587405803084117
-4.0215,-2.002579012472316,-2.0006747008861
-4.021,-1.863866739322568,-1.746355379162313
-4.0205,-1.277007122150022,-1.025783967610927
-4.02,-0.6901475049770985,-0.3581957480849649
-4.0195,-0.274010685527854,0.09745970333682032
-4.019,-0.04993701351651855,0.3411823866556712
-4.0185,0.04609456020253787,0.4259554938969336
-4.018,0.0674349099179905,0.4259554938970107
-4.0175,0.05676473506030786,0.3941655786815084
-4.017,0.03542438534496199,0.3517790250608772
-4.0165,0.003413860771836423,0.2881991946297281
-4.016,-0.06060718837420119,0.1716361721729923
-4.0155,-0.09261771294722002,0.0656697881214144
-4.015,-0.145968587236099,-0.05089323433600562
-4.0145,-0.6261264558313813,-0.5807251545938954
-4.014,-1.191645723288047,-1.290699927739468
-4.0135,-1.458400094730676,-1.894708316835101
-4.013,-1.51175096901904,-2.382153683472359
-4.0125,-0.9035510021311299,-2.297380576231019
-4.012,-0.231329986096745,-1.693372187135772
-4.0115,0.1848068333524996,-0.9198175835592532
-4.011,0.3128489316446912,-0.1886495336027004
-4.0105,0.3021787567870183,0.2987958330345583
-4.01,0.2274875327832301,0.5743084315693548
-4.0095,0.1741366584948169,0.6802748156210291
-4.009,0.323519106502238,0.6802748156210291
-4.0085,0.3661998059330462,0.6696781772158038
-4.008,0.3021787567870086,0.6060983467848571
-4.0075,0.2168173579256251,0.5213252395435948
-4.007,0.1527963087793837,0.4365521323022071
-4.0065,0.07810508477567314,0.4683420475176805
-4.006,-0.06060718837420119,0.5955017083796896
-4.0055,-0.4127229586779516,-0.05089323433626584
-4.005,-0.658136980404429,-0.8668343915334161
-4.0045,-0.658136980404429,-1.05757388282643
-4.004,-0.4660738329659571,-0.7396747306710311
-4.0035,-0.2633405106701714,-0.326405832869877
-4.003,-0.1032878878049318,0.01268659609548085
-4.0025,-0.01792648894354826,0.2352160026037945
-4.002,0.02475421048725994,0.3623756634660061
-4.0015,0.03542438534494258,0.4259554938970107
-4.001,0.02475421048726964,0.468342047517642
-4.0005,0.01408403562956759,0.489535324328025
-4,0.00341386077189465,0.5001319627331828
-3.9995,-0.01792648894347063,0.4895353243280153
-3.999,-0.02859666380115328,0.4683420475176805
-3.9985,-0.04993701351651855,0.4259554938970107
-3.998,-0.4660738329661415,-0.07208651114585861
-3.9975,-0.9889124009925911,-0.8774310299385835
-3.997,-1.501080794161358,-1.576809164679634
-3.9965,-1.991908837614759,-2.074851169722503
-3.996,-1.586442193022819,-2.011271339291499
-3.9955,-0.7861790786966207,-1.449649503817625
-3.995,-0.1779791118087102,-0.6760949002404023
-3.9945,0.1634664836371343,-0.02969995752518888
-3.994,0.2808384070716433,0.4259554938970107
-3.9935,0.2594980573562781,0.701468092431364
-3.993,0.2168173579255475,0.8180311148882058
-3.9925,0.3021787567870086,0.9557874141553824
-3.992,0.3875401556484697,0.9875773293708847
-3.9915,0.3341892813600565,0.8074344764830383
-3.991,0.2488278824985954,0.5743084315693548
-3.9905,0.1848068333524996,0.3729723018711736
-3.99,0.1314559590640864,0.2987958330350016
-3.9895,-0.3166913849585846,0.5849050699745222
-3.989,-1.052933450138687,0.2458126410091644
-3.9885,-1.543761493592088,-0.6231117082145651
-3.988,-1.746494815888059,-1.290699927740113
-3.9875,-1.437059745015262,-1.205926820498774
-3.987,-0.8928808272734472,-0.7078848154559045
-3.9865,-0.4340633083930936,-0.1992461720078678
-3.986,-0.124628237520297,0.1610395337678249
-3.9855,0.02475421048725994,0.3729723018711736
-3.985,0.07810508477567314,0.4683420475176805
-3.9845,0.08877525963335578,0.4895353243280153
-3.984,0.0674349099179905,0.4895353243280153
-3.9835,0.04609456020262521,0.4683420475176805
-3.983,0.02475421048725994,0.4471487707073456
-3.9825,0.00341386077189465,0.4259554938970107
-3.982,-0.007256314085787988,0.383568940276341
-3.9815,-0.2633405106701714,0.08686306493165288
-3.981,-0.9355615267041777,-0.6760949002404023
-3.9805,-1.373038695869166,-1.396666311791788
-3.98,-1.682473766741963,-1.958288147265661
-3.9795,-1.479740444445993,-2.117237723343173
-3.979,-0.807519428411986,-1.640388995110639
-3.9785,-0.1886492866663929,-0.9410108603695881
-3.978,0.1634664836371343,-0.2310360872233701
-3.9775,0.2808384070716433,0.309392471440169
-3.977,0.2701682322139607,0.6378882620003594
-3.9765,0.2061471830678648,0.7544512844572011
-3.976,0.2488278824985954,0.8392243916985406
-3.9755,0.4195506802215176,0.849821030103708
-3.975,0.408880505363835,0.7120647308365314
-3.9745,0.3341892813600565,0.55311515475902
-3.974,0.2701682322139607,0.4365521323021782
-3.9735,0.2168173579255475,0.3623756634660061
-3.973,-0.1032878878049318,0.2987958330350016
-3.9725,-0.807519428411986,-0.1250697031716958
-3.972,-1.373038695869166,-0.9092209451540858
-3.9715,-1.778505340461106,-1.587405803084801
-3.971,-1.607782542738184,-1.51322933424863
-3.9705,-1.074273799854052,-0.9198175835592532
-3.97,-0.5514352318276028,-0.3158091944647096
-3.9695,-0.1886492866663929,0.1292496185523226
-3.969,0.01408403562957729,0.3729723018711736
-3.9685,0.08877525963335578,0.4683420475176805
-3.968,0.1101156093487211,0.4895353243280153
-3.9675,0.08877525963335578,0.4683420475176805
-3.967,0.0674349099179905,0.4365521323021782
-3.9665,0.03542438534494258,0.383568940276341
-3.966,0.01408403562957729,0.3411823866556712
-3.9655,0.00341386077189465,0.2776025562246667
-3.965,-0.03926683865883591,0.1610395337678249
-3.9645,-0.5300948821122373,-0.3687923864905467
-3.964,-1.202315898146244,-1.131750351662602
-3.9635,-1.618452717595867,-1.735758740757146
-3.963,-1.415719395299897,-1.545019249464132
-3.9625,-0.7648387289812555,-1.01518732920576
-3.962,-0.1779791118087102,-0.5171453241628908
-3.9615,0.142126133921769,-0.04029659593035631
-3.961,0.2488278824985954,0.3199891098453364
-3.9605,0.2594980573562781,0.5213252395435176
-3.96,0.2274875327832301,0.6166949851900245
-3.9595,0.2061471830678648,0.6696781772158616
-3.959,0.3235191065023739,0.8074344764830383
-3.9585,0.3555296310754218,0.7968378380778709
-3.958,0.3128489316446912,0.6590815388106942
-3.9575,0.2381577076409128,0.5213252395435176
-3.957,0.1954770082101822,0.4471487707073456
-3.9565,-0.007256314085787988,0.3305857482505039
-3.956,-0.7648387289812555,-0.3475991096802118
-3.9555,-1.202315898146244,-1.131750351662602
-3.955,-1.383708870726849,-1.703968825541643
-3.9545,-1.341028171296118,-1.735758740757146
-3.954,-0.9355615267041777,-1.0999604364471
-3.9535,-0.4980843575391895,-0.4111789401112165
-3.953,-0.1779791118087102,0.1080563417419877
-3.9525,0.00341386077189465,0.4047622170866759
-3.952,0.08877525963335578,0.5425185163538525
-3.9515,0.1101156093487211,0.5743084315693548
-3.951,0.09944543449103843,0.5637117931641874
-3.9505,0.08877525963335578,0.5213252395435176
-3.95,0.0674349099179905,0.4895353243280153
-3.9495,0.04609456020262521,0.4471487707073456
-3.949,0.03542438534494258,0.3941655786815084
-3.9485,0.02475421048725994,0.3517790250608387
-3.948,-0.1459685872356623,0.06566978812131802
-3.9475,-0.6688071552621118,-0.6866915386455698
-3.947,-1.180975548430879,-1.42845622700729
-3.9465,-1.597112367880501,-2.000674700886331
-3.946,-1.319687821580753,-2.191414192179345
-3.9455,-0.6154562809736985,-1.820531847998485
-3.945,-0.04993701351651855,-1.131750351662602
-3.9445,0.2274875327832301,-0.4217755785163839
-3.944,0.291508581929326,0.1292496185523226
-3.9435,0.2701682322139607,0.4471487707073456
-3.943,0.2168173579255475,0.5849050699745222
-3.9425,0.2701682322139607,0.6484849004055269
-3.942,0.3448594562177392,0.6696781772158616
-3.9415,0.3128489316446912,0.5955017083796896
-3.941,0.2594980573562781,0.4895353243280153
-3.9405,0.2061471830678648,0.4047622170866759
-3.94,0.1314559590640864,0.3729723018711736
-3.9395,-0.2846808603855366,0.6378882620003594
-3.939,-0.9462317015618604,0.3411823866556712
-3.9385,-1.330357996438436,-0.5383386009732256
-3.938,-1.607782542738184,-1.163540266878104
-3.9375,-1.373038695869166,-1.036380606016095
-3.937,-0.8715404775580819,-0.5595318777835605
-3.9365,-0.4127229586777283,-0.08268314955102604
-3.936,-0.1032878878049318,0.2564092794143318
-3.9355,0.05676473506030786,0.457745409112513
-3.935,0.1314559590640864,0.55311515475902
-3.9345,0.1314559590640864,0.5849050699745222
-3.934,0.1207857842064037,0.5955017083796896
-3.9335,0.09944543449103843,0.5849050699745222
-3.933,0.07810508477567314,0.55311515475902
-3.9325,0.05676473506030786,0.5213252395435176
-3.932,0.04609456020262521,0.4683420475176805
-3.9315,-0.124628237520297,0.2564092794143318
-3.931,-0.7434983792658902,-0.4535654937318862
-3.9305,-1.159635198715513,-1.184733543688439
-3.93,-1.479740444445993,-1.767548655972648
-3.9295,-1.26633694729234,-2.17022091536901
-3.929,-0.5514352318276028,-2.149027638558676
-3.9285,0.0674349099179905,-1.693372187136476
-3.928,0.3661998059331045,-0.9622041371799229
-3.9275,0.4408910299368829,-0.2946159176543747
-3.927,0.3875401556484697,0.1716361721729923
-3.9265,0.291508581929326,0.4259554938970107
-3.926,0.2594980573562781,0.6166949851900245
-3.9255,0.3448594562177392,0.8074344764830383
-3.925,0.3448594562177392,0.7650479228623686
-3.9245,0.291508581929326,0.6166949851900245
-3.924,0.2701682322139607,0.5319218779486851
-3.9235,0.3021787567870086,0.4895353243280153
-3.923,-0.06060718837420119,0.6908714540261965
-3.9225,-0.8288597781273515,0.8286277532933731
-3.922,-1.437059745015262,0.06566978812131802
-3.9215,-1.629122892453549,-0.7608680074817418
-3.921,-1.26633694729234,-0.8244478379127463
-3.9205,-0.7328282044082075,-0.4535654937318862
-3.92,-0.3060212101009019,-0.01910331912002144
-3.9195,-0.02859666380115328,0.309392471440169
-3.919,0.09944543449103843,0.5213252395435176
-3.9185,0.142126133921769,0.6378882620003594
-3.918,0.142126133921769,0.6908714540261965
-3.9175,0.1314559590640864,0.7120647308365314
-3.917,0.1101156093487211,0.701468092431364
-3.9165,0.08877525963335578,0.6802748156210291
-3.916,0.0674349099179905,0.6378882620003594
-3.9155,0.05676473506030786,0.5849050699745222
-3.915,0.00341386077189465,0.4365521323021782
-3.9145,-0.5194247072545548,-0.1780528951975329
-3.914,-1.277007122150022,-1.025783967610927
-3.9135,-1.575772018165136,-1.682775548731308
-3.913,-1.298347471865388,-1.820531847998485
-3.9125,-0.6154562809736985,-1.714565463946811
-3.912,-0.007256314085787988,-1.42845622700729
-3.9115,0.291508581929326,-0.8562377531282487
-3.911,0.3875401556484697,-0.3581957480853793
-3.9105,0.3555296310754218,-0.01910331912002144
-3.91,0.2808384070716433,0.1822328105781598
-3.9095,0.2488278824985954,0.2564092794143318
-3.909,0.3768699807907871,0.2140227257936621
-3.9085,0.4195506802215176,0.2140227257936621
-3.908,0.3661998059331045,0.2458126410091644
-3.9075,0.3021787567870086,0.2881991946298341
-3.907,0.3235191065023739,0.4683420475176805
-3.9065,0.2168173579255475,0.6378882620003594
-3.906,-0.3593720843893152,0.9134008605347127
-3.9055,-0.7755089038389382,0.2987958330350016
-3.905,-0.9142211769888124,-0.6654982618352349
-3.9045,-0.8608703027003992,-1.0999604364471
-3.904,-0.572775581542968,-0.792657922697244
-3.9035,-0.274010685527854,-0.2840192792492073
-3.903,-0.04993701351651855,0.1822328105781598
-3.9025,0.0674349099179905,0.5001319627331828
-3.902,0.1207857842064037,0.6908714540261965
-3.9015,0.1314559590640864,0.7862411996727035
-3.901,0.1314559590640864,0.8392243916985406
-3.9005,0.1207857842064037,0.849821030103708
-3.9,0.09944543449103843,0.8286277532933731
-3.8995,0.07810508477567314,0.7544512844572011
-3.899,0.04609456020262521,0.6696781772158616
-3.8985,0.02475421048725994,0.5213252395435176
-3.898,-0.2953510352432193,0.03387987290581572
-3.8975,-0.8288597781273515,-0.718481453861072
-3.897,-1.170305373573196,-1.38606967338662
-3.8965,-1.415719395299897,-1.926498232050159
-3.896,-1.06360362499637,-1.88411167842949
-3.8955,-0.4447334832507763,-1.42845622700729
-3.895,0.01408403562957729,-0.7820612842920766
-3.8945,0.2488278824985954,-0.1780528951975329
-3.894,0.3341892813600565,0.2246193641988295
-3.8935,0.3128489316446912,0.4365521323021782
-3.893,0.2594980573562781,0.5319218779486851
-3.8925,0.3982103305061524,0.5849050699745222
-3.892,0.5689331282290746,0.5319218779486851
-3.8915,0.5369226036560266,0.457745409112513
-3.891,0.4302208550792003,0.3941655786815084
-3.8905,0.3341892813600565,0.3623756634660061
-3.89,0.3021787567870086,0.4153588554918433
-3.8895,0.1527963087794516,0.775644561267536
-3.889,-0.3487019095316325,0.92399749893988
-3.8885,-0.9355615267041777,0.1186529801471552
-3.888,-1.223656247861609,-0.7290780922662394
-3.8875,-0.9889124009925911,-0.8138511995075789
