Class_9_Think_Grab_one_hand_movement/Class_9_Think_Right_hand_Grab_Turki_11.csv

#Digilent WaveForms Oscilloscope Acquisition
#Device Name: EExplorer
#Serial Number: SN:210151A2B84A
#Date Time: 2021-02-03 11:26:57.986
#Sample rate: 2000Hz
#Samples: 16384
#Trigger: Source: Channel 1 Type: Edge Condition: Rising Level: 0 V Hyst.: Auto HoldOff: 0 s
#Channel 1: Range: 1 V/div Offset: 0 V Attenuation: 1 X
#Channel 2: Range: 1 V/div Offset: 0 V Attenuation: 1 X
#Power Supplies: ON
#Fixed Supply: ON
#Voltage: 3.3 V Readback: 3.331 V
#Positive Supply: ON
#Voltage: 3.7 V Readback: 3.717 V
#Current: 40 mA Readback: 23 mA
#Negative Supply: ON
#Voltage: -3.7 V Readback: -3.334 V
#Current: -40 mA Readback: -11 mA
#Reference 1: ON
#Voltage: 0 V
#Reference 2: ON
#Voltage: 0 V

Time (s),Channel 1 (V),Channel 2 (V)
-4.096,-0.6047861061160158,-1.280103289334946
-4.0955,-0.1779791118090984,-0.6972881770512672
-4.095,0.1314559590642611,-0.3793890248956274
-4.0945,0.3235191065023739,-0.2840192792492073
-4.094,0.4195506802214303,-0.294615917654365
-4.0935,0.4515612047946141,-0.3370024712750445
-4.093,0.5049120790829789,-0.3370024712750445
-4.0925,0.622284002517381,-0.4323722169214645
-4.092,0.600943652802045,-0.3899856633007563
-4.0915,0.5155822539406614,-0.252229364033705
-4.091,0.4408910299368829,-0.09327978795619347
-4.0905,0.3875401556485668,0.07626642652679386
-4.09,0.4942419042252961,0.4153588554918433
-4.0895,0.6436243522328531,0.6060983467848571
-4.089,0.1207857842068792,0.02328323450117831
-4.0885,-0.5087545323968721,-0.5913217929990628
-4.088,-1.116954499284783,-1.004590690800593
-4.0875,-1.65046324216843,-1.216523458903749
-4.087,-1.469070269587767,-0.8456411147223488
-4.0865,-0.8715404775580819,-0.04029659593035631
-4.086,-0.3166913849590892,0.7014680924306893
-4.0855,0.07810508477586724,1.220703374284838
-4.085,0.291508581929326,1.517409249629256
-4.0845,0.3768699807907094,1.623375633680834
-4.084,0.3768699807907677,1.602182356870519
-4.0835,0.3555296310754218,1.517409249629256
-4.083,0.3128489316446912,1.37965295036208
-4.0825,0.280838407071556,1.210106735879102
-4.082,0.1848068333524996,0.8816109453192104
-4.0815,-0.2526703358124887,0.3305857482505039
-4.081,-0.8288597781268274,-0.4217755785156997
-4.0805,-1.052933450138687,-1.142346990067769
-4.08,-1.255666772434657,-1.672178910326141
-4.0795,-1.020922925565853,-1.470842780628143
-4.079,-0.4980843575387528,-0.8986243067485329
-4.0785,-0.01792648894347063,-0.474758770542221
-4.078,0.2915085819290446,-0.2946159176545385
-4.0775,0.4408910299369218,-0.294615917654471
-4.077,0.4835717293676135,-0.400582301706049
-4.0765,0.5049120790829594,-0.4747587705421536
-4.076,0.5796033030867282,-0.4111789401112068
-4.0755,0.5475927785137094,-0.400582301706049
-4.075,0.4835717293676135,-0.3687923864905467
-4.0745,0.4088805053638059,-0.3052125560594265
-4.074,0.3768699807907871,-0.1780528951975329
-4.0735,0.3555296310754218,-0.1038764263613609
-4.073,0.2168173579256736,-0.411178940110937
-4.0725,-0.3166913849585846,-0.9304142219644207
-4.072,-0.8608703027003992,-1.290699927740113
-4.0715,-1.405049220441719,-1.386069673386533
-4.071,-1.895877263895354,-1.280103289334435
-4.0705,-1.607782542738184,-0.718481453861072
-4.07,-0.9142211769894433,0.1822328105773405
-4.0695,-0.3166913849582158,0.9875773293713859
-4.069,0.08877525963335578,1.538602526439591
-4.0685,0.3021787567870086,1.824711763379112
-4.068,0.3875401556484794,1.92008150902558
-4.0675,0.3982103305061524,1.877694955404949
-4.067,0.3661998059331045,1.761131932948107
-4.0665,0.3235191065023448,1.591585718465255
-4.066,0.291508581929326,1.400846227172415
-4.0655,0.2701682322139607,1.135930267043229
-4.065,-0.03926683865855446,0.5637117931647079
-4.0645,-0.6688071552621118,-0.326405832869877
-4.064,-0.9889124009925911,-1.110557074852267
-4.0635,-1.170305373573031,-1.746355379161735
-4.063,-1.052933450138221,-1.788741932782414
-4.0625,-0.5407650569699201,-1.163540266878104
-4.062,-0.049937013516965,-0.6443049850253723
-4.0615,0.259498057356443,-0.3687923864905178
-4.061,0.4408910299368829,-0.3370024712750445
-4.0605,0.4942419042252961,-0.4641621321370536
-4.06,0.5049120790830274,-0.5807251545938569
-4.0595,0.5582629533713921,-0.5383386009732256
-4.059,0.5582629533713921,-0.4959520473525559
-4.0585,0.5049120790830274,-0.5065486857577137
-4.058,0.4302208550792003,-0.474758770542221
-4.0575,0.3875401556484697,-0.400582301706049
-4.057,0.3875401556484697,-0.294615917654471
-4.0565,0.2808384070716433,-0.4959520473525559
-4.056,-0.124628237520297,-0.9728007755850904
-4.0555,-0.5407650569695416,-1.322489842955298
-4.055,-0.8181896032700375,-1.195330182093491
-4.0545,-1.223656247861609,-1.068170521231597
-4.054,-1.565101843307143,-0.9622041371800193
-4.0535,-1.234326422718768,-0.3687923864898143
-4.053,-0.658136980404429,0.4365521323021782
-4.0525,-0.1673089369510276,1.114736990232894
-4.052,0.1634664836372799,1.559795803250138
-4.0515,0.3235191065023739,1.79292184816361
-4.051,0.3875401556484697,1.856501678594614
-4.0505,0.3768699807907968,1.824711763379141
-4.05,0.3448594562177392,1.729342017732605
-4.0495,0.3128489316446912,1.570392441655093
-4.049,0.2701682322139995,1.25249328950036
-4.0485,0.1421261339213323,0.7332580076461243
-4.048,-0.3380317346739499,-0.08268314955102604
-4.0475,-0.6794773301194837,-0.8880276683430185
-4.047,-0.8715404775579364,-1.470842780627873
-4.0465,-0.7114878546928423,-1.375473034981453
-4.046,-0.2846808603859248,-0.9092209451545099
-4.0455,0.1101156093489443,-0.5277419625679041
-4.045,0.3555296310754218,-0.3581957480853793
-4.0445,0.4729015545099309,-0.326405832869877
-4.044,0.5155822539406614,-0.3793890248957623
-4.0435,0.5155822539406614,-0.4323722169215513
-4.043,0.5796033030867573,-0.5171453241628908
-4.0425,0.6436243522327949,-0.5807251545938376
-4.042,0.5796033030867573,-0.5277419625680583
-4.0415,0.4835717293676135,-0.4217755785163839
-4.041,0.4195506802215759,-0.2840192792493326
-4.0405,0.3768699807909133,-0.1144730647661621
-4.04,0.5155822539406614,0.2881991946298341
-4.0395,0.8463576745285224,0.7226613692413038
-4.039,0.4942419042246654,0.2670059178188149
-4.0385,-0.1993194615240755,-0.4853554089473885
-4.038,-1.031593100422565,-1.036380606015594
-4.0375,-1.565101843307201,-1.21652345890344
-4.037,-1.287677297007705,-0.6654982618352349
-4.0365,-0.7114878546928423,0.1928294489833272
-4.036,-0.2099896363814476,0.9345941373455101
-4.0355,0.1314559590640864,1.443232780793084
-4.035,0.3128489316446912,1.729342017732605
-4.0345,0.3768699807907289,1.835308401784183
-4.034,0.3768699807907871,1.824711763379112
-4.0335,0.3448594562177392,1.75053529454294
-4.033,0.3128489316447204,1.623375633681046
-4.0325,0.2915085819292678,1.453829419197972
-4.032,0.2274875327832301,1.146526905448396
-4.0315,-0.1673089369506686,0.8604176685091357
-4.031,-0.6688071552622477,0.6590815388100003
-4.0305,-0.8181896032696687,-0.1038764263613609
-4.03,-0.9142211769887251,-0.7820612842914598
-4.0295,-0.6047861061156179,-0.8986243067488509
-4.029,-0.1673089369510276,-0.8244478379127463
-4.0285,0.1634664836371343,-0.7078848154559045
-4.028,0.3661998059331821,-0.6549016234300578
-4.0275,0.4515612047945656,-0.6443049850249
-4.027,0.4729015545099309,-0.6866915386455698
-4.0265,0.5369226036559684,-0.7290780922662009
-4.026,0.7396559259519968,-0.7290780922662394
-4.0255,0.7503261008096795,-0.6760949002404023
-4.025,0.6329541773752774,-0.5595318777836665
-4.0245,0.5049120790828915,-0.4217755785162394
-4.024,0.408880505363835,-0.2628260024388724
-4.0235,0.3235191065024515,-0.17805289519761
-4.023,0.2061471830676901,-0.4853554089477933
-4.0225,0.01408403562957729,-0.9304142219644207
-4.022,-0.2953510352429379,-1.258910012524312
-4.0215,-0.7755089038391226,-1.396666311791518
-4.021,-0.9782422261349084,-1.0999604364471
-4.0205,-0.690147504977477,-0.2628260024388724
-4.02,-0.2953510352429282,0.6060983467854643
-4.0195,0.02475421048725994,1.273686566310405
-4.019,0.2274875327832301,1.686955464111935
-4.0185,0.3341892813599595,1.888291593809933
-4.018,0.3661998059331045,1.941274785835954
-4.0175,0.3555296310754218,1.898888232215284
-4.017,0.334189281360076,1.792921848163706
-4.0165,0.3021787567869892,1.644568910491102
-4.016,0.2808384070716433,1.464426057603419
-4.0155,0.2701682322139704,1.241896651095105
-4.015,0.1741366584943414,0.8604176685081044
-4.0145,-0.3487019095316325,0.01268659609548085
-4.014,-0.8395299529845875,-0.8456411147223006
-4.0135,-1.234326422719292,-1.53442261105909
-4.013,-1.234326422719292,-1.672178910326141
-4.0125,-0.722158029550525,-1.195330182093607
-4.012,-0.1886492866660435,-0.8138511995073765
-4.0115,0.1954770082101822,-0.5913217929990628
-4.011,0.3982103305061524,-0.570128516188728
-4.0105,0.4729015545098629,-0.6231117082145169
-4.01,0.5049120790829789,-0.6972881770507372
-4.0095,0.7183155762366316,-0.8562377531282487
-4.009,0.8143471499556879,-0.8350444763179331
-4.0085,0.7183155762364957,-0.6231117082143434
-4.008,0.5689331282290746,-0.3793890248957141
-4.0075,0.4515612047946723,-0.1674562567925583
-4.007,0.3875401556485862,0.02328323450085068
-4.0065,0.5155822539406614,0.2458126410091644
-4.006,0.3768699807907871,-0.06148987274069118
-4.0055,-0.2206598112401202,-0.6760949002408553
-4.005,-0.9675720512772257,-1.174136905283272
-4.0045,-1.682473766741963,-1.439052865412457
-4.004,-1.874536914179697,-1.29069992773941
-4.0035,-1.26633694729234,-0.5171453241628908
-4.003,-0.5941159312583333,0.3411823866556712
-4.0025,-0.0819475380900323,0.9981739677754545
-4.002,0.2168173579255475,1.400846227172415
-4.0015,0.3555296310754218,1.580989080060261
-4.001,0.3982103305061136,1.612778995275734
-4.0005,0.376869980790758,1.549199164844653
-4,0.3448594562177392,1.432636142387917
-3.9995,0.3128489316446912,1.284283204715573
-3.999,0.2808384070716433,1.104140351827727
-3.9985,0.1207857842064037,0.7226613692416989
-3.998,-0.4447334832507763,-0.08268314955102604
-3.9975,-0.9248913518464952,-0.9092209451540858
-3.997,-1.116954499284783,-1.555615887869299
-3.9965,-0.8822106524157645,-1.672178910326141
-3.996,-0.391382608962363,-1.163540266878104
-3.9955,0.04609456020262521,-0.7396747306714069
-3.995,0.3128489316446912,-0.474758770542221
-3.9945,0.4622313796522482,-0.3687923864905467
-3.994,0.5049120790829789,-0.3687923864905467
-3.9935,0.5049120790829789,-0.4111789401112165
-3.993,0.5369226036560266,-0.5065486857577234
-3.9925,0.6222840025174878,-0.5913217929990628
-3.992,0.5796033030867573,-0.5171453241628908
-3.9915,0.4942419042252961,-0.3687923864905467
-3.991,0.4302208550792003,-0.1780528951975329
-3.9905,0.3875401556484697,0.01268659609548085
-3.99,0.5262524287983441,0.3517790250608387
-3.9895,0.7609962756673623,0.5955017083796896
-3.989,0.2594980573562781,0.06566978812131802
-3.9885,-0.4767440078238243,-0.6337083466197325
-3.988,-1.26633694729234,-1.0999604364471
-3.9875,-1.639793067311232,-1.163540266878104
-3.987,-1.234326422719292,-0.5383386009732256
-3.9865,-0.6367966306890638,0.309392471440169
-3.986,-0.1459685872356623,1.00877060618122
-3.9855,0.1741366584948169,1.464426057603419
-3.985,0.3341892813600565,1.697552102517103
-3.9845,0.3875401556484697,1.771728571353275
-3.984,0.3768699807907871,1.739938656137773
-3.9835,0.3448594562177392,1.644568910491266
-3.983,0.3021787567870086,1.506812611224089
-3.9825,0.2808384070716433,1.33726639674141
-3.982,0.2594980573562781,1.093543713422559
-3.9815,0.03542438534494258,0.5425185163538525
-3.981,-0.4020527838200457,-0.3370024712750445
-3.9805,-0.7755089038389382,-1.121153713257435
-3.98,-1.074273799854052,-1.640388995110639
-3.9795,-0.8502001278427167,-1.364876396576285
-3.979,-0.3700422592469978,-0.8880276683437509
-3.9785,0.04609456020262521,-0.570128516188728
-3.978,0.3235191065023739,-0.4217755785163839
-3.9775,0.4729015545099309,-0.4217755785163839
-3.977,0.5262524287983441,-0.5383386009732256
-3.9765,0.5582629533713921,-0.6337083466197325
-3.976,0.7823366253827275,-0.8350444763179138
-3.9755,0.79300680024041,-0.7714646458869092
-3.975,0.6649647019482183,-0.5489352393783931
-3.9745,0.5262524287983441,-0.2840192792492073
-3.974,0.4302208550792003,-0.04029659593035631
-3.9735,0.3021787567870086,0.09745970333682032
-3.973,-0.1993194615240755,-0.2840192792492073
-3.9725,-0.690147504977477,-0.8456411147230812
-3.972,-0.9035510021311299,-1.184733543688439
-3.9715,-0.9569018764195432,-0.8880276683437509
-3.971,-1.277007122150022,-0.7820612842920766
-3.9705,-1.383708870726849,-0.718481453861072
-3.97,-0.9569018764195432,-0.1886495336027004
-3.9695,-0.4340633083930936,0.4365521323021782
-3.969,-0.01792648894347063,0.9345941373450475
-3.9685,0.2274875327832301,1.241896651094903
-3.968,0.3448594562177392,1.369056311956912
-3.9675,0.3768699807907871,1.390249588767247
-3.967,0.3661998059331045,1.326669758336243
-3.9665,0.3235191065023739,1.231300012689736
-3.966,0.291508581929326,1.104140351827727
-3.9655,0.2594980573562781,0.92399749893988
-3.965,-0.03926683865883591,0.3305857482505039
-3.9645,-0.572775581542968,-0.5171453241628908
-3.964,-0.8608703027003992,-1.237716735714276
-3.9635,-1.084943974711735,-1.831128486403653
-3.963,-1.095614149569417,-1.905304955239825
-3.9625,-0.6474668055467465,-1.269506650929778
-3.962,-0.1459685872356623,-0.6760949002404023
-3.9615,0.2168173579255475,-0.3370024712750445
-3.961,0.408880505363835,-0.1674562567923655
-3.9605,0.4835717293676135,-0.1568596183871981
-3.96,0.5049120790829789,-0.2310360872233701
-3.9595,0.6009436528021226,-0.2628260024388724
-3.959,0.6329541773751706,-0.3052125560595421
-3.9585,0.5689331282290746,-0.2840192792492073
-3.958,0.4835717293676135,-0.2310360872233701
-3.9575,0.408880505363835,-0.1250697031716958
-3.957,0.3768699807907871,-0.008506680714854012
-3.9565,0.2061471830678648,-0.1674562567923655
-3.956,-0.3273615598162672,-0.6760949002404023
-3.9555,-0.7328282044082075,-1.163540266878104
-3.955,-0.9569018764195432,-1.301296566145281
-3.9545,-1.330357996438436,-1.333086481360783
-3.954,-1.586442193022819,-1.248313374119443
-3.9535,-1.191645723288561,-0.6125150698093976
-3.953,-0.6047861061160158,0.2034260873884947
-3.9525,-0.124628237520297,0.8604176685088755
-3.952,0.1848068333524996,1.284283204715573
-3.9515,0.3341892813600565,1.496215972818921
-3.951,0.3875401556484697,1.549199164844759
-3.9505,0.3768699807907871,1.517409249629256
-3.95,0.3555296310754218,1.42203950398275
-3.9495,0.3128489316446912,1.284283204715573
-3.949,0.291508581929326,1.125333628638062
-3.9485,0.2381577076409128,0.8392243916985406
-3.948,-0.2313299860971235,0.1186529801471552
-3.9475,-0.8928808272734472,-0.7290780922662394
-3.947,-1.244996597576974,-1.364876396576285
-3.9465,-0.9889124009925911,-1.481439419033127
-3.946,-0.423393133535411,-1.0999604364471
-3.9455,0.05676473506030786,-0.6654982618352349
-3.945,0.3555296310754218,-0.3687923864905467
-3.9445,0.5049120790829789,-0.2416327256285375
-3.944,0.5369226036560266,-0.2946159176543747
-3.9435,0.5155822539406614,-0.3899856633008816
-3.943,0.6009436528021226,-0.5065486857577234
-3.9425,0.8143471499557753,-0.6443049850249
-3.942,0.7716664505250448,-0.5595318777835605
-3.9415,0.6329541773751706,-0.3581957480853793
-3.941,0.5049120790829789,-0.1356663415768632
-3.9405,0.408880505363835,0.06566978812131802
-3.94,0.4729015545099309,0.2776025562246667
-3.9395,0.825017324813458,0.13984625695749
-3.939,0.5902734779444399,-0.3793890248957141
-3.9385,-0.1459685872356623,-0.8880276683437509
-3.938,-0.9462317015618604,-1.195330182093607
-3.9375,-1.565101843307454,-1.248313374119443
-3.937,-1.383708870726849,-0.6972881770507372
-3.9365,-0.807519428411986,0.13984625695749
-3.936,-0.274010685527854,0.8604176685088755
-3.9355,0.08877525963335578,1.326669758336243
-3.935,0.291508581929326,1.559795803249926
-3.9345,0.3768699807907871,1.623375633680931
-3.934,0.3875401556484697,1.570392441655093
-3.9335,0.3555296310754218,1.453829419198252
-3.933,0.3235191065023739,1.305476481525908
-3.9325,0.3021787567870086,1.125333628638062
-3.932,0.2274875327832301,0.8604176685088755
-3.9315,-0.2420001609548061,0.1610395337678249
-3.931,-0.5514352318276028,-0.6443049850249
-3.9305,-0.5407650569699201,-1.301296566145281
-3.93,-0.7008176798351597,-1.735758740757146
-3.9295,-0.5407650569699201,-1.38606967338662
-3.929,-0.1993194615240755,-0.7714646458869092
-3.9285,0.1101156093487211,-0.4217755785163839
-3.928,0.3128489316446912,-0.2840192792492073
-3.9275,0.4195506802215176,-0.3581957480853793
-3.927,0.4622313796522482,-0.4535654937318862
-3.9265,0.4729015545099309,-0.5489352393783931
-3.926,0.5796033030867573,-0.6654982618352349
-3.9255,0.5902734779444399,-0.6125150698093976
-3.925,0.5262524287983441,-0.4429688553267188
-3.9245,0.4515612047945656,-0.2416327256285375
-3.924,0.3982103305061524,-0.01910331912002144
-3.9235,0.3768699807907871,0.13984625695749
-3.923,0.3128489316446912,-0.09327978795619347
-3.9225,0.2274875327832301,-0.5171453241628908
-3.922,-0.1459685872356623,-0.9198175835592532
-3.9215,-0.8288597781273515,-1.163540266878104
-3.921,-1.458400094730627,-1.195330182093607
-3.9205,-1.383708870726849,-0.7078848154559045
-3.92,-0.8502001278427167,0.1292496185523226
-3.9195,-0.3166913849585846,0.8816109453192104
-3.919,0.05676473506030786,1.390249588767247
-3.9185,0.2808384070716433,1.655165548896433
-3.918,0.3661998059331045,1.729342017732605
-3.9175,0.3875401556484697,1.676358825706768
-3.917,0.3555296310754218,1.559795803249926
-3.9165,0.3235191065023739,1.400846227172415
-3.916,0.291508581929326,1.210106735879401
-3.9155,0.2808384070716433,0.9769806909657173
-3.915,0.01408403562957729,0.4895353243280153
-3.9145,-0.5514352318276028,-0.2628260024388724
-3.914,-1.1062843244271,-1.01518732920576
-3.9135,-1.319687821580753,-1.417859588602123
-3.913,-0.7968492535543035,-1.004590690800593
-3.9125,-0.1993194615240755,-0.570128516188728
-3.912,0.1954770082101822,-0.326405832869877
-3.9115,0.408880505363835,-0.2416327256285375
-3.911,0.5155822539406614,-0.2734226408440398
-3.9105,0.5475927785137094,-0.400582301706049
-3.91,0.5369226036560266,-0.5171453241628908
-3.9095,0.6649647019482183,-0.6019184314042303
-3.909,0.7396559259519968,-0.6337083466197325
-3.9085,0.6649647019482183,-0.5383386009732256
-3.908,0.5369226036560266,-0.3793890248957141
-3.9075,0.4408910299368829,-0.1886495336027004
-3.907,0.3875401556484697,0.04447651131098315
-3.9065,0.6329541773751706,0.5743084315693548
-3.906,0.79300680024041,0.627291623595192
-3.9055,0.1634664836371343,-0.01910331912002144
-3.905,-0.5407650569699201,-0.5065486857577234
-3.9045,-1.212986073003927,-0.8562377531282487
-3.904,-1.693143941599645,-1.004590690800593
-3.9035,-1.362368521011484,-0.5277419625680583
-3.903,-0.754168554123573,0.2670059178194992
-3.9025,-0.2206598112394408,0.9769806909657173
-3.902,0.1314559590640864,1.453829419198252
-3.9015,0.3128489316446912,1.718745379327438
-3.901,0.3875401556484697,1.814115124973944
-3.9005,0.3768699807907871,1.79292184816361
-3.9,0.3555296310754218,1.697552102517103
-3.8995,0.3128489316446912,1.559795803249926
-3.899,0.2808384070716433,1.358459673551745
-3.8985,0.09944543449103843,0.9451907757502149
-3.898,-0.5087545323968721,0.08686306493165288
-3.8975,-0.8502001278427167,-0.7820612842920766
-3.897,-0.9035510021311299,-1.407262950196955
-3.8965,-0.5300948821122373,-1.396666311791788
-3.896,-0.06060718837420119,-1.004590690800593
-3.8955,0.2701682322139607,-0.718481453861072
-3.895,0.4729015545099309,-0.6231117082145651
-3.8945,0.5689331282290746,-0.6125150698093976
-3.894,0.5689331282290746,-0.6443049850249
-3.8935,0.5262524287983441,-0.6972881770507372
-3.893,0.5262524287983441,-0.7608680074817418
-3.8925,0.5796033030867573,-0.8032545611024114
-3.892,0.5262524287983441,-0.6972881770507372
-3.8915,0.4515612047945656,-0.5383386009732256
-3.891,0.3982103305061524,-0.3475991096802118
-3.8905,0.3661998059331045,-0.1568596183871981
-3.89,0.4729015545099309,0.2140227257936621
-3.8895,0.8997085488172365,0.7226613692416989
-3.889,0.7289857510943143,0.383568940276341
-3.8885,0.05676473506030786,-0.3370024712750445
-3.888,-0.807519428411986,-0.8986243067489184
-3.8875,-1.415719395299897,-1.0999604364471
-3.887,-1.244996597576974,-0.5807251545938954
-3.8865,-0.722158029550525,0.2670059178194992
