Class_9_Think_Grab_one_hand_movement/Class_9_Think_Right_hand_Grab_UZ_6.csv

#Digilent WaveForms Oscilloscope Acquisition
#Device Name: EExplorer
#Serial Number: SN:210151A2B84A
#Date Time: 2020-12-07 12:17:01.347
#Sample rate: 2000Hz
#Samples: 16384
#Trigger: Source: Channel 1 Type: Edge Condition: Rising Level: 0 V Hyst.: Auto HoldOff: 0 s
#Channel 1: Range: 1 V/div Offset: 0 V Attenuation: 1 X
#Channel 2: Range: 1 V/div Offset: 0 V Attenuation: 1 X
#Power Supplies: ON
#Fixed Supply: ON
#Voltage: 3.3 V Readback: 3.329 V
#Positive Supply: ON
#Voltage: 3.7 V Readback: 3.702 V
#Current: 40 mA Readback: 21 mA
#Negative Supply: ON
#Voltage: -3.7 V Readback: -3.882 V
#Current: -40 mA Readback: -7 mA
#Reference 1: ON
#Voltage: 0 V
#Reference 2: ON
#Voltage: 0 V

Time (s),Channel 1 (V),Channel 2 (V)
-4.096,1.294505018551494,-0.3899856633008816
-4.0955,1.774662887146776,-1.301296566144452
-4.095,1.945385684870057,-1.492036057437668
-4.0945,1.860024286008674,-0.8032545611024114
-4.094,1.507908515705467,-0.1568596183877859
-4.0935,1.049090996824444,0.2881991946300173
-4.093,0.6649647019482183,0.4895353243280153
-4.0925,0.3768699807910491,0.5743084315692777
-4.092,0.2061471830677969,0.6166949851900245
-4.0915,0.1314559590640864,0.6166949851900245
-4.091,0.04609456020262521,0.5743084315693548
-4.0905,0.014084035629587,0.5213252395434598
-4.09,0.02475421048725994,0.457745409112513
-4.0895,0.05676473506030786,0.4047622170866759
-4.089,0.0674349099179808,0.3517790250608869
-4.0885,0.04609456020262521,0.3199891098453364
-4.088,-0.3807124341046804,0.3517790250608387
-4.0875,-1.159635198714805,0.05507314971642041
-4.087,-1.789175515319255,-0.6443049850249385
-4.0865,-2.301343908487556,-0.6866915386455698
-4.086,-2.119950935907116,-0.1144730647670488
-4.0855,-1.330357996437814,0.1716361721730695
-4.085,-0.6474668055467465,0.2564092794143318
-4.0845,-0.1673089369514643,0.2670059178194896
-4.084,-0.07127736323233994,0.07626642652591684
-4.0835,-0.572775581542968,-0.5489352393783931
-4.083,-0.4554036581084589,-0.4429688553267188
-4.0825,-0.338031734673814,-0.2628260024386797
-4.082,-0.1886492866663929,-0.05089323433552374
-4.0815,0.04609456020262521,0.2564092794143318
-4.081,0.1848068333523734,0.4471487707071721
-4.0805,0.2061471830678648,0.5107286011383502
-4.08,0.4195506802215176,0.4259554938970107
-4.0795,1.070431346539567,-0.3052125560588771
-4.079,1.763992712289792,-1.301296566145955
-4.0785,2.052087433446962,-2.043061254507001
-4.078,2.062757608304635,-2.064254531317317
-4.0775,1.7106418380007,-1.280103289334117
-4.077,1.251824319120764,-0.3687923864905467
-4.0765,0.8036769750985003,0.3623756634653412
-4.076,0.4408910299366985,0.7332580076469724
-4.0755,0.2381577076409128,0.849821030103708
-4.075,0.142126133921769,0.8286277532933731
-4.0745,0.04609456020253788,0.7120647308363965
-4.074,-0.04993701351651855,0.5637117931641874
-4.0735,-0.03926683865883591,0.4471487707073456
-4.073,0.01408403562952877,0.3623756634660832
-4.0725,0.05676473506030786,0.2881991946298341
-4.072,0.07810508477567314,0.2352160026039969
-4.0715,-0.09261771294709385,0.2352160026039969
-4.071,-0.786179078697368,0.171636172172443
-4.0705,-1.607782542738184,-0.4323722169215513
-4.07,-2.269333383913906,-1.131750351661966
-4.0695,-2.354694782775261,-1.057573882826006
-4.069,-1.575772018165136,-0.5913217929990628
-4.0685,-0.8288597781273515,-0.1356663415768632
-4.068,-0.2740106855275532,0.182232810578314
-4.0675,0.05676473506030786,0.3517790250608387
-4.067,0.1954770082101822,0.4365521323021782
-4.0665,0.2381577076408254,0.4577454091124359
-4.066,0.142126133921769,0.3729723018711736
-4.0655,-0.5194247072545548,-0.2734226408440398
-4.065,-0.5514352318275737,-0.2946159176543554
-4.0645,-0.423393133535411,-0.1674562567923655
-4.064,-0.2633405106701714,-0.008506680714854012
-4.0635,0.08877525963303551,0.2034260873883019
-4.063,0.8250173248142538,-0.1886495336036352
-4.0625,1.699971663143435,-1.216523458903942
-4.062,2.158789182023371,-2.117237723342354
-4.0615,2.105438307735016,-1.915901593644298
-4.061,1.710641838001117,-1.152943628472937
-4.0605,1.219813794547716,-0.4641621321370536
-4.06,0.8036769750978113,0.04447651131125301
-4.0595,0.4942419042252961,0.3411823866556712
-4.059,0.291508581929326,0.4259554938970107
-4.0585,0.1741366584949237,0.415358855491853
-4.058,0.09944543449103843,0.383568940276341
-4.0575,-0.03926683865883591,0.3199891098453364
-4.057,-0.06060718837418178,0.3093924714401786
-4.0565,-0.01792648894347063,0.3411823866556712
-4.056,0.04609456020262521,0.383568940276341
-4.0555,0.07810508477564403,0.4259554938969722
-4.055,0.003413860771390018,0.5319218779489838
-4.0545,-0.5514352318276028,0.8604176685088755
-4.054,-1.458400094729802,0.7120647308366663
-4.0535,-2.215982509626531,0.03387987290596992
-4.053,-2.696140378221814,0.2034260873884947
-4.0525,-2.07727023647622,0.457745409112513
-4.052,-1.202315898145613,0.47893868592279
-4.0515,-0.5087545323968721,0.4153588554918433
-4.051,-0.07127736323188383,0.3623756634660061
-4.0505,0.1527963087792479,0.3411823866556905
-4.05,0.2274875327832301,0.3623756634660061
-4.0495,0.2381577076409128,0.4047622170866759
-4.049,0.2168173579255669,0.4577454091124649
-4.0485,0.1848068333524898,0.5213252395435658
-4.048,0.1741366584948169,0.5743084315693548
-4.0475,0.1741366584948169,0.6272916235951438
-4.047,-0.13529841237797,0.2987958330342595
-4.0465,-0.124628237520297,-0.5171453241628908
-4.046,0.9317190733893236,-1.280103289334252
-4.0455,1.561259389993696,-2.064254531317288
-4.045,1.710641838001117,-2.011271339291499
-4.0445,1.646620788855021,-0.9622041371799229
-4.044,1.347855892839529,-0.1038764263609369
-4.0435,0.9317190733902845,0.3623756634660061
-4.043,0.5902734779444399,0.5637117931641874
-4.0425,0.3341892813602895,0.5637117931641874
-4.042,0.1848068333524996,0.4895353243280153
-4.0415,0.1207857842064037,0.4047622170866759
-4.041,0.02475421048734729,0.3305857482505713
-4.0405,-0.007256314085768579,0.277602556224657
-4.04,0.01408403562957729,0.2670059178194992
-4.0395,0.0460945602025961,0.2564092794143414
-4.039,0.07810508477566344,0.2670059178195185
-4.0385,0.0674349099179905,0.2881991946298341
-4.038,-0.2846808603852164,0.4259554938968854
-4.0375,-1.138294849000827,0.3305857482498389
-4.037,-1.885207089037933,-0.400582301706049
-4.0365,-2.418715831922065,-0.5065486857577234
-4.036,-2.344024607917588,0.03387987290604702
-4.0355,-1.575772018165136,0.2881991946298341
-4.035,-0.807519428411986,0.3623756634660061
-4.0345,-0.2526703358129933,0.3623756634660061
-4.034,0.0674349099179905,0.3517790250608387
-4.0335,0.2061471830678648,0.3729723018711736
-4.033,0.2381577076408836,0.4153588554918047
-4.0325,0.2274875327832107,0.4683420475177383
-4.032,0.2061471830678648,0.5319218779486851
-4.0315,0.184806833352519,0.6060983467847896
-4.031,0.1741366584948266,0.6590815388107424
-4.0305,0.1848068333524996,0.7120647308365314
-4.03,0.4195506802213042,0.6166949851901112
-4.0295,1.123782220829048,0.00208995768963879
-4.029,1.646620788855021,-0.7396747306714069
-4.0285,1.753322537431848,-1.258910012524611
-4.028,1.155792745401358,-1.396666311791277
-4.0275,0.8676980242441885,-0.8350444763179138
-4.027,0.5582629533713921,-0.3581957480853793
-4.0265,0.3341892813602603,0.04447651131061692
-4.026,0.3021787567870086,0.4683420475176805
-4.0255,0.2168173579255475,0.627291623595192
-4.025,0.131455959064164,0.5955017083797185
-4.0245,0.03542438534482612,0.5107286011382345
-4.024,-0.09261771294724913,0.383568940276341
-4.0235,-0.08194753808957618,0.2881991946299208
-4.023,-0.01792648894340269,0.2246193641987813
-4.0225,0.05676473506030786,0.1716361721729923
-4.022,0.09944543449099962,0.1292496185523612
-4.0215,-0.09261771294798667,0.1080563417418143
-4.021,-0.9035510021311299,-0.08268314955102604
-4.0205,-1.757164990745741,-0.792657922697244
-4.02,-2.269333383914673,-1.163540266877497
-4.0195,-2.450726356495113,-0.4959520473525559
-4.019,-1.799845690176472,0.002089957690313421
-4.0185,-1.010252750708674,0.2034260873883116
-4.018,-0.3807124341046804,0.2670059178194992
-4.0175,0.00341386077189465,0.2670059178194992
-4.017,0.1848068333523346,0.277602556224657
-4.0165,0.2381577076409128,0.3093924714402171
-4.016,0.2381577076409128,0.3623756634660061
-4.0155,0.206147183067894,0.4259554938969529
-4.015,0.1848068333524898,0.5001319627332407
-4.0145,0.1741366584948169,0.5637117931641874
-4.014,0.1848068333524898,0.6378882620002919
-4.0135,0.3021787567875326,0.6484849004052088
-4.013,0.8783681991018712,0.2987958330350016
-4.0125,1.539919040278195,-0.4111789401112165
-4.012,2.009406734016357,-1.015187329205596
-4.0115,2.148119007166105,-0.8350444763179138
-4.011,1.828013761435626,-0.3475991096802118
-4.0105,0.9637295979641185,-0.2734226408441073
-4.01,0.01408403562957729,-0.4429688553267188
-4.0095,-0.1886492866663929,-0.1568596183871981
-4.009,-0.2740106855277764,0.04447651131080005
-4.0085,-0.177979111808555,0.2564092794145149
-4.008,-0.007256314085787988,0.457745409112513
-4.0075,-0.01792648894346092,0.457745409112513
-4.007,-0.02859666380112416,0.3835689402763025
-4.0065,0.00341386077189465,0.3411823866556712
-4.006,0.04609456020262521,0.2987958330350016
-4.0055,0.07810508477562463,0.25640927941438
-4.005,0.02475421048725994,0.309392471440169
-4.0045,-0.5300948821122373,0.6484849004055269
-4.004,-1.405049220442777,0.4895353243273214
-4.0035,-2.023919362187807,-0.2734226408440398
-4.003,-2.44005618163743,-0.1144730647665284
-4.0025,-2.098610586191896,0.2352160026036789
-4.002,-1.330357996438436,0.2987958330350016
-4.0015,-0.6154562809736985,0.2564092794143318
-4.001,-0.1352984123784164,0.2034260873885428
-4.0005,0.1207857842065008,0.1928294489833465
-4,0.2274875327832301,0.2140227257936621
-3.9995,0.2381577076409128,0.2670059178194992
-3.999,0.2168173579255475,0.3517790250608387
-3.9985,0.1954770082101822,0.4365521323021782
-3.998,0.1741366584948169,0.5213252395435176
-3.9975,0.1848068333524996,0.6060983467848571
-3.997,0.2168173579255475,0.6802748156210291
-3.9965,0.6542945270905358,0.4789386859228479
-3.996,1.347855892839907,-0.2204394488182027
-3.9955,1.646620788855021,-0.9410108603695881
-3.995,1.646620788855021,-1.110557074852267
-3.9945,1.475897991132099,-0.474758770542221
-3.994,1.187803269974668,0.1186529801471552
-3.9935,0.857027849386506,0.457745409112513
-3.993,0.5582629533713921,0.6378882620003594
-3.9925,0.1741366584948169,0.5107286011383502
-3.992,-0.5621054066852853,-0.1250697031716958
-3.9915,-0.5300948821122373,-0.09327978795619347
-3.991,-0.5300948821122373,-0.1038764263613609
-3.9905,-0.423393133535411,-0.04029659593035631
-3.99,-0.156638762093345,0.1716361721729923
-3.9895,0.00341386077189465,0.2670059178194992
-3.989,0.05676473506030786,0.2776025562246667
-3.9885,0.05676473506030786,0.2776025562246667
-3.988,-0.3487019095316325,0.383568940276341
-3.9875,-1.223656247861609,0.2564092794143318
-3.987,-2.087940411333903,-0.5489352393783931
-3.9865,-2.76016142736791,-0.6125150698093976
-3.986,-2.706810553079496,0.002089957690313421
-3.9855,-1.842526389607202,0.2670059178194992
-3.985,-0.9675720512772257,0.2987958330350016
-3.9845,-0.3273615598162672,0.2564092794143318
-3.984,0.04609456020262521,0.2140227257936621
-3.9835,0.2168173579255475,0.2140227257936621
-3.983,0.2594980573562781,0.2458126410091644
-3.9825,0.2488278824985954,0.309392471440169
-3.982,0.2168173579255475,0.3729723018711736
-3.9815,0.1848068333524996,0.457745409112513
-3.981,0.1741366584948169,0.5319218779486851
-3.9805,0.1848068333524996,0.5955017083796896
-3.98,0.3768699807907871,0.5743084315693548
-3.9795,1.059761171682476,0.07626642652648545
-3.979,1.603940089424291,-0.6972881770507372
-3.9785,1.817343586577944,-1.174136905283272
-3.978,1.625280439139656,-0.7820612842920766
-3.9775,1.273164668836129,-0.2734226408440398
-3.977,0.8997085488172365,0.1716361721729923
-3.9765,0.6009436528021226,0.4259554938970107
-3.976,0.3768699807907871,0.55311515475902
-3.9755,0.2274875327832301,0.6166949851900245
-3.975,0.142126133921769,0.6166949851900245
-3.9745,-0.3060212101009019,0.1822328105781598
-3.974,-0.7434983792658902,-0.2734226408440398
-3.9735,-0.5834457564006506,-0.1886495336027004
-3.973,-0.4340633083930936,-0.1038764263613609
-3.9725,-0.1993194615240755,0.05507314971615059
-3.972,0.03542438534494258,0.2246193641988295
-3.9715,-0.124628237520297,0.3305857482505039
-3.971,-1.020922925565639,0.3305857482505039
-3.9705,-2.03458953704549,-0.400582301706049
-3.97,-2.546757930214257,-0.9939940523954253
-3.9695,-2.685470203364131,-0.4429688553267188
-3.969,-2.013249187330125,0.002089957690313421
-3.9685,-1.127624674142465,0.1716361721729923
-3.968,-0.4340633083930936,0.1928294489833272
-3.9675,-0.007256314085787988,0.1610395337678249
-3.967,0.1848068333524996,0.1504428953626575
-3.9665,0.2488278824985954,0.1716361721729923
-3.966,0.2488278824985954,0.2246193641988295
-3.9655,0.2168173579255475,0.2987958330350016
-3.965,0.1954770082101822,0.3729723018711736
-3.9645,0.1848068333524996,0.457745409112513
-3.964,0.1848068333524996,0.5425185163538525
-3.9635,0.2488278824985954,0.5955017083796896
-3.963,0.8036769750980928,0.2352160026039969
-3.9625,1.593269914566608,-0.5595318777835605
-3.962,1.956055859727818,-1.237716735714276
-3.9615,2.020076908873914,-1.01518732920576
-3.961,1.774662887147213,-0.4323722169215513
-3.9605,1.337185717982225,0.08686306493165288
-3.96,0.9103787236749192,0.4153588554918433
-3.9595,0.5369226036560266,0.5637117931641874
-3.959,0.291508581929326,0.627291623595192
-3.9585,0.1527963087794516,0.627291623595192
-3.958,0.07810508477567314,0.5849050699745222
-3.9575,-0.03926683865883591,0.4683420475176805
-3.957,-0.06060718837420119,0.3941655786815084
-3.9565,-0.2420001609548061,0.13984625695749
-3.956,-0.7648387289812555,-0.4429688553267188
-3.9555,-0.6261264558313813,-0.3370024712750445
-3.955,-0.5300948821122373,-0.1886495336027004
-3.9545,-0.9248913518464952,0.05507314971615059
-3.954,-1.618452717595867,-0.1462629799820306
-3.9535,-2.322684258202921,-0.8774310299385835
-3.953,-2.898873700517784,-0.5913217929990628
-3.9525,-2.546757930214257,-0.008506680714854012
-3.952,-1.639793067311232,0.2140227257936621
-3.9515,-0.7861790786966207,0.2458126410091644
-3.951,-0.1993194615240755,0.2246193641988295
-3.9505,0.1207857842064037,0.2034260873884947
-3.95,0.2594980573562781,0.2034260873884947
-3.9495,0.2701682322139607,0.2246193641988295
-3.949,0.2381577076409128,0.2670059178194992
-3.9485,0.2061471830678648,0.3305857482505039
-3.948,0.1848068333524996,0.3941655786815084
-3.9475,0.1848068333524996,0.4683420475176805
-3.947,0.2061471830678648,0.5319218779486851
-3.9465,0.5689331282290746,0.3517790250608387
-3.946,1.283834843693812,-0.400582301706049
-3.9455,1.646620788855021,-1.227120097309109
-3.945,1.657290963712704,-1.407262950196955
-3.9445,1.475897991132099,-0.8032545611024114
-3.944,1.166462920259302,-0.1356663415768632
-3.9435,0.8356874996711408,0.309392471440169
-3.943,0.5582629533713921,0.5319218779486851
-3.9425,0.3448594562177392,0.6060983467848571
-3.942,0.2168173579255475,0.6166949851900245
-3.9415,0.142126133921769,0.5955017083796896
-3.941,0.03542438534494258,0.5107286011383502
-3.9405,-0.01792648894347063,0.4365521323021782
-3.94,0.00341386077189465,0.4153588554918433
-3.9395,0.04609456020262521,0.383568940276341
-3.939,0.07810508477567314,0.3623756634660061
-3.9385,0.07810508477567314,0.3517790250608387
-3.938,-0.6154562809736985,0.08686306493165288
-3.9375,-1.842526389607202,-0.3687923864905467
-3.937,-2.621449154218035,-0.9304142219644207
-3.9365,-3.16562807195985,-0.9622041371799229
-3.936,-3.00557544909461,-0.1568596183871981
-3.9355,-1.991908837614759,0.2776025562246667
-3.935,-1.042263275281004,0.3199891098453364
-3.9345,-0.3700422592469978,0.2140227257936621
-3.934,0.02475421048725994,0.13984625695749
-3.9335,0.2061471830678648,0.1080563417419877
-3.933,0.2594980573562781,0.13984625695749
-3.9325,0.2488278824985954,0.2034260873884947
-3.932,0.2274875327832301,0.2881991946298341
-3.9315,0.2168173579255475,0.383568940276341
-3.931,0.2061471830678648,0.4683420475176805
-3.9305,0.1954770082101822,0.5425185163538525
-3.93,0.3982103305061524,0.5213252395435176
-3.9295,1.102441871113207,-0.05089323433552374
-3.929,1.849354111150991,-0.9198175835592532
-3.9285,2.180129531739154,-1.492036057438295
-3.928,2.073427783162327,-1.0999604364471
-3.9275,1.625280439139656,-0.4535654937318862
-3.927,1.091771696255524,0.1716361721729923
-3.9265,0.6649647019482183,0.5743084315693548
-3.926,0.3661998059331045,0.7120647308365314
-3.9255,0.1848068333524996,0.7226613692416989
-3.925,0.1101156093487211,0.6802748156210291
-3.9245,0.05676473506030786,0.5849050699745222
-3.924,-0.01792648894347063,0.4683420475176805
-3.9235,-0.007256314085787988,0.3941655786815084
-3.923,0.02475421048725994,0.3517790250608387
-3.9225,0.0674349099179905,0.3199891098453364
-3.922,0.08877525963335578,0.2987958330350016
-3.9215,-0.08194753808956648,0.3411823866556712
-3.921,-0.7434983792658902,0.3729723018711736
-3.9205,-1.554431668449771,-0.2098428104130352
-3.92,-2.578768454787304,-1.354279758171118
-3.9195,-2.824182476514005,-1.831128486403653
-3.919,-2.322684258202921,-1.661582271920973
-3.9185,-1.447729919872945,-1.025783967610927
-3.918,-0.5834457564006506,-0.3158091944647096
-3.9175,-0.08194753808956648,0.1186529801471552
-3.917,0.142126133921769,0.3199891098453364
-3.9165,0.2168173579255475,0.4047622170866759
-3.916,0.2274875327832301,0.4365521323021782
-3.9155,0.2061471830678648,0.4259554938970107
-3.915,0.1954770082101822,0.4153588554918433
-3.9145,0.1848068333524996,0.4153588554918433
-3.914,0.1954770082101822,0.4047622170866759
-3.9135,0.2488278824985954,0.3729723018711736
-3.913,0.7396559259519968,-0.05089323433552374
-3.9125,1.390536592270638,-0.9092209451540858
-3.912,1.710641838001117,-1.714565463946811
-3.9115,1.742652362574165,-1.629792356705471
-3.911,1.529248865420512,-1.004590690800593
-3.9105,1.187803269974668,-0.4535654937318862
-3.91,0.8356874996711408,-0.02969995752518888
-3.9095,0.5155822539406614,0.2564092794143318
-3.909,0.291508581929326,0.383568940276341
-3.9085,0.1741366584948169,0.4153588554918433
-3.908,0.1101156093487211,0.4047622170866759
-3.9075,0.03542438534494258,0.3729723018711736
-3.907,0.02475421048725994,0.3623756634660061
-3.9065,0.04609456020262521,0.3623756634660061
-3.906,0.0674349099179905,0.383568940276341
-3.9055,0.08877525963335578,0.4047622170866759
-3.905,0.01408403562957729,0.4683420475176805
-3.9045,-0.5514352318276028,0.6378882620003594
-3.904,-1.543761493592088,0.1080563417419877
-3.9035,-2.6427895039334,-1.216523458903942
-3.903,-2.930884225090832,-0.9304142219644207
-3.9025,-2.674800028506448,-0.2310360872233701
-3.902,-1.799845690176472,0.1080563417419877
-3.9015,-0.8288597781273515,0.3199891098453364
-3.901,-0.2099896363817582,0.3411823866556712
-3.9005,0.07810508477567314,0.2776025562246667
-3.9,0.2061471830678648,0.2670059178194992
-3.8995,0.2381577076409128,0.2881991946298341
-3.899,0.2168173579255475,0.3305857482505039
-3.8985,0.2061471830678648,0.4047622170866759
-3.898,0.1954770082101822,0.4789386859228479
-3.8975,0.2061471830678648,0.5425185163538525
-3.897,0.2168173579255475,0.5955017083796896
-3.8965,0.5582629533713921,0.4365521323021782
-3.896,1.262494493978446,-0.2840192792492073
-3.8955,1.614610264281974,-1.174136905283272
-3.895,1.689301488285752,-1.545019249464132
-3.8945,1.529248865420512,-1.004590690800593
-3.894,1.230483969405398,-0.2840192792492073
-3.8935,0.8997085488172365,0.2987958330350016
-3.893,0.6009436528021226,0.5849050699745222
-3.8925,0.3661998059331045,0.6484849004055269
-3.892,0.2274875327832301,0.627291623595192
-3.8915,0.142126133921769,0.5637117931641874
-3.891,0.05676473506030786,0.4789386859228479
-3.8905,0.01408403562957729,0.4047622170866759
-3.89,0.02475421048725994,0.3517790250608387
-3.8895,0.05676473506030786,0.3199891098453364
-3.889,0.07810508477567314,0.2881991946298341
-3.8885,0.0674349099179905,0.2670059178194992
-3.888,-0.3273615598162672,0.2776025562246667
-3.8875,-1.074273799854052,0.04447651131098315
-3.887,-1.735824641030376,-0.6125150698093976
-3.8865,-2.269333383914508,-0.6760949002404023
-3.886,-1.991908837614759,-0.1886495336027004
