Class_9_Think_Grab_one_hand_movement/Class_9_Think_Right_hand_Grab_Turki_10.csv

#Digilent WaveForms Oscilloscope Acquisition
#Device Name: EExplorer
#Serial Number: SN:210151A2B84A
#Date Time: 2021-01-31 11:24:31.430
#Sample rate: 2000Hz
#Samples: 16384
#Trigger: Source: Channel 1 Type: Edge Condition: Rising Level: 0 V Hyst.: Auto HoldOff: 0 s
#Channel 1: Range: 1 V/div Offset: 0 V Attenuation: 1 X
#Channel 2: Range: 1 V/div Offset: 0 V Attenuation: 1 X
#Power Supplies: ON
#Fixed Supply: ON
#Voltage: 3.3 V Readback: 3.324 V
#Positive Supply: ON
#Voltage: 3.7 V Readback: 3.715 V
#Current: 40 mA Readback: 19 mA
#Negative Supply: ON
#Voltage: -3.7 V Readback: -3.346 V
#Current: -40 mA Readback: -8 mA
#Reference 1: ON
#Voltage: 0 V
#Reference 2: ON
#Voltage: 0 V

Time (s),Channel 1 (V),Channel 2 (V)
-4.096,0.5049120790829789,-0.02969995752518888
-4.0955,0.5689331282290164,-0.06148987274066226
-4.095,0.4835717293675165,0.02328323450073503
-4.0945,0.3768699807907871,0.1186529801471552
-4.094,0.2915085819294037,0.2140227257935753
-4.0935,0.2061471830674961,0.2458126410089909
-4.093,-0.1993194615240755,0.05507314971615059
-4.0925,-0.6154562809733201,-0.4747587705417393
-4.092,-0.9462317015621128,-1.099960436447398
-4.0915,-1.223656247861609,-1.42845622700729
-4.091,-0.9782422261349084,-1.025783967610927
-4.0905,-0.5514352318272632,-0.3899856633003997
-4.09,-0.1779791118087102,0.13984625695749
-4.0895,0.0674349099179905,0.5001319627331828
-4.089,0.1954770082100657,0.6802748156208652
-4.0885,0.2381577076409128,0.7544512844572011
-4.088,0.2381577076409128,0.7544512844572011
-4.0875,0.2274875327832398,0.7226613692417277
-4.087,0.2061471830678551,0.6696781772158231
-4.0865,0.1954770082101822,0.627291623595192
-4.086,0.1848068333525093,0.5849050699745607
-4.0855,0.1741366584947781,0.5425185163538043
-4.085,0.1314559590640864,0.4895353243280153
-4.0845,-0.2420001609544664,0.1928294489835971
-4.084,-0.8075194284124518,-0.5065486857582824
-4.0835,-1.319687821580753,-1.121153713257435
-4.083,-1.031593100423322,-1.089363798041932
-4.0825,-0.3700422592465126,-0.6654982618348494
-4.082,0.1634664836371343,-0.2416327256285375
-4.0815,0.4302208550792003,0.06566978812131802
-4.081,0.4942419042252379,0.2034260873883694
-4.0805,0.4515612047945656,0.1716361721729923
-4.08,0.3768699807907871,0.1080563417419877
-4.0795,0.3341892813600953,0.06566978812135657
-4.079,0.3235191065023544,0.06566978812134693
-4.0785,0.3021787567870086,0.09745970333682032
-4.078,0.2594980573563169,0.1398462569574515
-4.0775,0.2274875327832204,0.2034260873885139
-4.077,0.2168173579255475,0.2246193641988295
-4.0765,-0.08194753808929475,-0.1780528951971667
-4.076,-0.7434983792662202,-0.8562377531287787
-4.0755,-1.1062843244271,-1.439052865412457
-4.075,-1.287677297007705,-1.725162102351978
-4.0745,-1.074273799853644,-1.248313374118769
-4.074,-0.6261264558313813,-0.5065486857577234
-4.0735,-0.2206598112394408,0.1186529801471552
-4.073,0.04609456020238256,0.5425185163534669
-4.0725,0.1954770082101822,0.7544512844572011
-4.072,0.2381577076409128,0.8392243916985406
-4.0715,0.2488278824985857,0.8392243916985406
-4.071,0.2381577076408934,0.7968378380778227
-4.0705,0.2168173579255475,0.7438546460520338
-4.07,0.1848068333525287,0.7014680924314025
-4.0695,0.1527963087794419,0.6484849004054787
-4.069,0.142126133921769,0.5955017083796896
-4.0685,0.02475421048725994,0.5743084315693548
-4.068,-0.5300948821125867,0.1398462569567769
-4.0675,-0.9142211769888124,-0.6443049850249
-4.067,-1.223656247861609,-1.301296566145281
-4.0665,-1.031593100422749,-1.333086481360291
-4.066,-0.4020527838200457,-0.792657922697244
-4.0655,0.1741366584948169,-0.2946159176543747
-4.065,0.504912079082678,0.02328323450035918
-4.0645,0.5902734779444399,0.1822328105781598
-4.064,0.5475927785137094,0.2140227257936621
-4.0635,0.44089102993698,0.1610395337678731
-4.063,0.3982103305062786,0.07626642652638907
-4.0625,0.5369226036560266,-0.02969995752518888
-4.062,0.5369226036560266,-0.008506680714873288
-4.0615,0.4408910299367956,0.07626642652657219
-4.061,0.3448594562177392,0.1716361721729923
-4.0605,0.2701682322139607,0.2458126410091644
-4.06,0.02475421048682323,0.1822328105778899
-4.0595,-0.4554036581084589,-0.1144730647665284
-4.059,-0.7755089038389382,-0.7290780922662394
-4.0585,-1.116954499284472,-1.290699927739603
-4.058,-1.06360362499637,-1.216523458903942
-4.0575,-0.690147504977477,-0.6443049850249
-4.057,-0.2953510352435784,-0.05089323433606341
-4.0565,-0.007256314085787988,0.3941655786815084
-4.056,0.1634664836371343,0.6484849004055269
-4.0555,0.2274875327831719,0.7544512844571047
-4.055,0.2488278824985857,0.7862411996726841
-4.0545,0.2381577076409128,0.7650479228623686
-4.054,0.2168173579255669,0.7226613692417374
-4.0535,0.2061471830678551,0.6802748156209809
-4.053,0.1954770082101822,0.627291623595192
-4.0525,0.1848068333524996,0.5849050699745222
-4.052,0.1527963087792381,0.5425185163535249
-4.0515,-0.08194753808956648,0.1822328105781598
-4.051,-0.4127229586777283,-0.570128516188728
-4.0505,-0.7755089038386083,-1.248313374118827
-4.05,-0.9995825758502737,-1.492036057438295
-4.0495,-0.5621054066852853,-1.046977244421262
-4.049,-0.00725631408629257,-0.4853554089478993
-4.0485,0.3661998059332209,-0.07208651114565622
-4.048,0.4942419042252961,0.1504428953626575
-4.0475,0.4835717293676232,0.1716361721729731
-4.047,0.4195506802214497,0.1398462569574419
-4.0465,0.3448594562177392,0.08686306493165288
-4.046,0.4942419042251602,-0.07208651114571404
-4.0455,0.5582629533713241,-0.1144730647664609
-4.045,0.4835717293676135,-0.04029659593035631
-4.0445,0.3768699807907871,0.08686306493165288
-4.044,0.291508581929161,0.1928294489833079
-4.0435,0.1101156093487211,0.1716361721729923
-4.043,-0.4554036581084589,-0.3475991096802118
-4.0425,-1.170305373572546,-1.025783967610311
-4.042,-1.501080794161358,-1.566212526274467
-4.0415,-1.341028171296118,-1.523825972653797
-4.041,-0.8502001278431631,-0.8456411147236981
-4.0405,-0.3700422592466873,-0.1780528951970703
-4.04,-0.02859666380115328,0.3305857482505039
-4.0395,0.1634664836369596,0.6272916235949222
-4.039,0.2488278824986051,0.7650479228623974
-4.0385,0.2594980573562781,0.7968378380778709
-4.038,0.2488278824986051,0.7756445612675553
-4.0375,0.2274875327832204,0.7226613692416507
-4.037,0.2168173579255475,0.6696781772158616
-4.0365,0.1954770082101822,0.627291623595192
-4.036,0.1848068333524898,0.5743084315693163
-4.0355,0.1741366584948169,0.5319218779486851
-4.035,-0.01792648894347063,0.6378882620003594
-4.0345,-0.6154562809731551,0.7120647308364639
-4.034,-1.020922925565639,0.05507314971615059
-4.0335,-1.373038695869166,-0.7078848154559045
-4.033,-0.9782422261352675,-0.8350444763177981
-4.0325,-0.3060212101004264,-0.5383386009729172
-4.032,0.2168173579255475,-0.1992461720078678
-4.0315,0.472901554509698,0.0656697881210771
-4.031,0.50491207908294,0.2034260873885236
-4.0305,0.4622313796522482,0.2352160026039969
-4.03,0.3768699807908648,0.2034260873885236
-4.0295,0.4195506802216341,0.1610395337677286
-4.029,0.5475927785137094,0.05507314971615059
-4.0285,0.5049120790829789,0.04447651131098315
-4.028,0.4088805053637574,0.08686306493172034
-4.0275,0.3235191065023739,0.1610395337678249
-4.027,0.2488278824985954,0.2352160026039969
-4.0265,-0.0926177129469386,0.03387987290599884
-4.026,-0.7008176798351597,-0.5913217929990628
-4.0255,-1.020922925565639,-1.205926820498774
-4.025,-1.127624674142368,-1.492036057438034
-4.0245,-0.8502001278423479,-1.025783967610311
-4.024,-0.4447334832507763,-0.3475991096802118
-4.0235,-0.1032878878052423,0.224619364198309
-4.023,0.1101156093488181,0.5955017083798632
-4.0225,0.2168173579255475,0.7862411996727035
-4.022,0.2488278824985663,0.860417668508808
-4.0215,0.2488278824985857,0.8604176685088369
-4.021,0.2381577076409128,0.8180311148882058
-4.0205,0.2168173579255475,0.7650479228623686
-4.02,0.1741366584947975,0.7332580076468181
-4.0195,0.1527963087794516,0.6802748156210291
-4.019,0.142126133921769,0.6166949851900245
-4.0185,0.06743490991805844,0.4683420475178154
-4.018,-0.4660738329661415,-0.1356663415768632
-4.0175,-1.020922925565639,-0.8880276683437509
-4.017,-1.234326422719098,-1.460246142222272
-4.0165,-0.9355615267036246,-1.460246142222368
-4.016,-0.3273615598162672,-0.9939940523954253
-4.0155,0.1741366584943608,-0.4959520473530089
-4.015,0.419550680221605,-0.135666341576709
-4.0145,0.5155822539406614,0.03387987290581572
-4.014,0.4942419042253156,0.1080563417419203
-4.0135,0.4195506802214886,0.1186529801471745
-4.013,0.3875401556484697,0.13984625695749
-4.0125,0.4515612047945656,0.2458126410091644
-4.012,0.4302208550791421,0.2564092794143125
-4.0115,0.3661998059331045,0.2352160026039969
-4.011,0.3021787567870086,0.2140227257936621
-4.0105,0.2594980573563169,0.2246193641988199
-4.01,0.09944543449103843,0.3729723018711736
-4.0095,-0.4127229586777283,0.6696781772158616
-4.009,-1.010252750707413,0.1716361721734453
-4.0085,-1.565101843307357,-0.601918431404423
-4.008,-1.458400094730627,-0.8138511995075789
-4.0075,-0.9355615267046532,-0.4641621321373716
-4.007,-0.4127229586773887,0.002089957690670012
-4.0065,-0.03926683865883591,0.3941655786815084
-4.006,0.1634664836371343,0.6484849004055269
-4.0055,0.2594980573562878,0.7968378380779287
-4.005,0.2701682322139607,0.8604176685088755
-4.0045,0.2594980573562781,0.8710143069140429
-4.004,0.2381577076408934,0.8604176685088466
-4.0035,0.2168173579255475,0.8286277532933731
-4.003,0.2061471830678648,0.7968378380778709
-4.0025,0.1954770082101919,0.7544512844572396
-4.002,0.1527963087794516,0.6908714540261965
-4.0015,-0.274010685527854,0.3305857482505039
-4.001,-0.9035510021305574,-0.3793890248950685
-4.0005,-1.479740444445905,-1.099960436447157
-4,-1.383708870726849,-1.163540266878104
-3.9995,-0.690147504977477,-0.7608680074817418
-3.999,-0.04993701351651855,-0.3158091944647096
-3.9985,0.3661998059331045,-0.02969995752518888
-3.998,0.5369226036560266,0.13984625695749
-3.9975,0.5475927785137094,0.1716361721729923
-3.997,0.4729015545099309,0.1080563417419877
-3.9965,0.408880505363835,0.002089957690313421
-3.996,0.5475927785137094,-0.2098428104130352
-3.9955,0.5902734779444399,-0.2416327256285375
-3.995,0.5049120790829789,-0.1144730647665284
-3.9945,0.3875401556484697,0.03387987290581572
-3.994,0.3021787567870086,0.1716361721729923
-3.9935,0.07810508477567314,0.1292496185523226
-3.993,-0.572775581542968,-0.4111789401112165
-3.9925,-1.127624674142465,-1.046977244421262
-3.992,-1.618452717595867,-1.481439419033127
-3.9915,-1.83185621474952,-1.354279758171118
-3.991,-1.330357996438436,-0.7608680074817418
-3.9905,-0.7114878546928423,-0.1250697031716958
-3.99,-0.2099896363817582,0.3729723018711736
-3.9895,0.08877525963335578,0.6590815388106942
-3.989,0.2381577076409128,0.7968378380778709
-3.9885,0.2808384070716433,0.8286277532933731
-3.988,0.2808384070716433,0.8074344764830383
-3.9875,0.2594980573562781,0.7544512844572011
-3.987,0.2381577076409128,0.6908714540261965
-3.9865,0.2061471830678648,0.6378882620003594
-3.986,0.1954770082101822,0.5849050699745222
-3.9855,0.1848068333524996,0.5213252395435176
-3.985,0.08877525963335578,0.3729723018711736
-3.9845,-0.3060212101009019,-0.2204394488182027
-3.984,-0.754168554123573,-0.9516074987747555
-3.9835,-0.9462317015618604,-1.195330182093607
-3.983,-0.4980843575391895,-0.7820612842920766
-3.9825,0.0674349099179905,-0.326405832869877
-3.982,0.4408910299368829,-0.008506680714854012
-3.9815,0.5689331282290746,0.1504428953626575
-3.981,0.5475927785137094,0.1610395337678249
-3.9805,0.4622313796522482,0.09745970333682032
-3.98,0.3768699807907871,0.03387987290581572
-3.9795,0.4195506802215176,0.08686306493165288
-3.979,0.4942419042252961,0.1610395337678249
-3.9785,0.4515612047945656,0.1822328105781598
-3.978,0.3768699807907871,0.2034260873884947
-3.9775,0.3021787567870086,0.2458126410091644
-3.977,0.2274875327832301,0.2776025562246667
-3.9765,0.01408403562957729,0.3729723018711736
-3.976,-0.5407650569699201,0.07626642652648545
-3.9755,-0.9995825758502737,-0.6019184314042303
-3.975,-1.26633694729234,-1.05757388282643
-3.9745,-1.010252750707956,-0.792657922697244
-3.974,-0.572775581542968,-0.2310360872233701
-3.9735,-0.1779791118087102,0.2987958330350016
-3.973,0.07810508477567314,0.6590815388106942
-3.9725,0.2168173579255475,0.849821030103708
-3.972,0.2594980573562781,0.92399749893988
-3.9715,0.2701682322139607,0.92399749893988
-3.971,0.2488278824985954,0.8816109453192104
-3.9705,0.2381577076409128,0.8180311148882058
-3.97,0.2061471830678648,0.7544512844572011
-3.9695,0.1954770082101822,0.6802748156210291
-3.969,0.1741366584948169,0.6060983467848571
-3.9685,0.1207857842064037,0.5425185163538525
-3.968,-0.3273615598162672,0.4259554938970107
-3.9675,-0.9035510021311299,-0.2310360872233701
-3.967,-1.234326422719292,-0.8244478379127463
-3.9665,-0.9569018764195432,-0.7396747306714069
-3.966,-0.3700422592469978,-0.4429688553267188
-3.9655,0.1207857842064037,-0.1780528951975329
-3.965,0.408880505363835,-0.008506680714854012
-3.9645,0.4835717293676135,0.05507314971615059
-3.964,0.4622313796522482,0.04447651131098315
-3.9635,0.3982103305061524,0.02328323450064829
-3.963,0.408880505363835,-0.04029659593035631
-3.9625,0.5689331282290746,-0.1674562567923655
-3.962,0.5475927785137094,-0.09327978795619347
-3.9615,0.4408910299368829,0.07626642652648545
-3.961,0.3448594562177392,0.2458126410091644
-3.9605,0.2808384070716433,0.3729723018711736
-3.96,0.07810508477567314,0.3305857482505039
-3.9595,-0.5407650569699201,0.03387987290581572
-3.959,-1.148965023857831,-0.5913217929990628
-3.9585,-1.234326422719292,-0.9304142219644207
-3.958,-0.8608703027003992,-0.6125150698093976
-3.9575,-0.4127229586777283,-0.1144730647665284
-3.957,-0.07127736323188383,0.3199891098453364
-3.9565,0.142126133921769,0.5955017083796896
-3.956,0.2381577076409128,0.7332580076468663
-3.9555,0.2701682322139607,0.7650479228623686
-3.955,0.2594980573562781,0.7332580076468663
-3.9545,0.2488278824985954,0.6802748156210291
-3.954,0.2274875327832301,0.6166949851900245
-3.9535,0.2168173579255475,0.55311515475902
-3.953,0.2061471830678648,0.4895353243280153
-3.9525,0.1954770082101822,0.4365521323021782
-3.952,0.1527963087794516,0.3623756634660061
-3.9515,-0.2526703358124887,0.002089957690313421
-3.951,-0.722158029550525,-0.6443049850249
-3.9505,-0.754168554123573,-1.131750351662602
-3.95,-0.6261264558313813,-1.407262950196955
-3.9495,-0.124628237520297,-1.01518732920576
-3.949,0.3555296310754218,-0.474758770542221
-3.9485,0.6222840025174878,-0.1038764263613609
-3.948,0.6542945270905358,0.1080563417419877
-3.9475,0.5689331282290746,0.1928294489833272
-3.947,0.4622313796522482,0.1822328105781598
-3.9465,0.3768699807907871,0.1504428953626575
-3.946,0.5262524287983441,-0.04029659593035631
-3.9455,0.5796033030867573,-0.08268314955102604
-3.945,0.4942419042252961,-0.008506680714854012
-3.9445,0.3768699807907871,0.1080563417419877
-3.944,0.3021787567870086,0.2246193641988295
-3.9435,0.08877525963335578,0.1716361721729923
-3.943,-0.5300948821122373,-0.3899856633008816
-3.9425,-1.010252750707956,-1.078767159636765
-3.942,-1.351698346153801,-1.587405803084801
-3.9415,-1.394379045584531,-1.587405803084801
-3.941,-0.9675720512772257,-0.9304142219644207
-3.9405,-0.4767440078238243,-0.2416327256285375
-3.94,-0.09261771294724913,0.2776025562246667
-3.9395,0.142126133921769,0.5849050699745222
-3.939,0.2381577076409128,0.7120647308365314
-3.9385,0.2701682322139607,0.7438546460520338
-3.938,0.2701682322139607,0.7120647308365314
-3.9375,0.2488278824985954,0.6696781772158616
-3.937,0.2274875327832301,0.6060983467848571
-3.9365,0.2168173579255475,0.5425185163538525
-3.936,0.1954770082101822,0.5001319627331828
-3.9355,0.1741366584948169,0.4471487707073456
-3.935,-0.06060718837420119,0.4471487707073456
-3.9345,-0.5514352318276028,0.07626642652648545
-3.934,-0.658136980404429,-0.5277419625680583
-3.9335,-0.658136980404429,-0.9833974139902578
-3.933,-0.2846808603855366,-0.8562377531282487
-3.9325,0.1314559590640864,-0.5383386009732256
-3.932,0.3982103305061524,-0.2310360872233701
-3.9315,0.4942419042252961,-0.06148987274069118
-3.931,0.4942419042252961,0.01268659609548085
-3.9305,0.4515612047945656,0.04447651131098315
-3.93,0.3768699807907871,0.07626642652648545
-3.9295,0.4835717293676135,-0.07208651114585861
-3.929,0.6329541773751706,-0.1886495336027004
-3.9285,0.5689331282290746,-0.05089323433552374
-3.928,0.4515612047945656,0.1504428953626575
-3.9275,0.3448594562177392,0.3411823866556712
-3.927,0.291508581929326,0.4471487707073456
-3.9265,0.4622313796522482,0.13984625695749
-3.926,0.3021787567870086,-0.5065486857577234
-3.9255,-0.4340633083930936,-1.152943628472937
-3.925,-0.9355615267041777,-1.396666311791788
-3.9245,-0.8288597781273515,-0.9304142219644207
-3.924,-0.4874141826815069,-0.2946159176543747
-3.9235,-0.1673089369510276,0.2034260873884947
-3.923,0.0674349099179905,0.5107286011383502
-3.9225,0.1954770082101822,0.6484849004055269
-3.922,0.2381577076409128,0.6590815388106942
-3.9215,0.2488278824985954,0.6166949851900245
-3.921,0.2488278824985954,0.55311515475902
-3.9205,0.2274875327832301,0.4789386859228479
-3.92,0.1954770082101822,0.4153588554918433
-3.9195,0.1634664836371343,0.383568940276341
-3.919,0.1527963087794516,0.3305857482505039
-3.9185,0.1314559590640864,0.2881991946298341
-3.918,-0.1993194615240755,0.07626642652648545
-3.9175,-0.4554036581084589,-0.5065486857577234
-3.917,-0.4980843575391895,-0.9939940523954253
-3.9165,-0.1673089369510276,-0.8562377531282487
-3.916,0.2701682322139607,-0.4853554089473885
-3.9155,0.5262524287983441,-0.1250697031716958
-3.915,0.5796033030867573,0.09745970333682032
-3.9145,0.5369226036560266,0.2034260873884947
-3.914,0.4622313796522482,0.2352160026039969
-3.9135,0.3768699807907871,0.2034260873884947
-3.913,0.3661998059331045,0.2246193641988295
-3.9125,0.4622313796522482,0.2776025562246667
-3.912,0.4408910299368829,0.2987958330350016
-3.9115,0.3661998059331045,0.3199891098453364
-3.911,0.3021787567870086,0.3623756634660061
-3.9105,0.2381577076409128,0.3941655786815084
-3.91,-0.124628237520297,0.1186529801471552
-3.9095,-0.658136980404429,-0.5277419625680583
-3.909,-1.074273799854052,-1.121153713257435
-3.9085,-1.330357996438436,-1.205926820498774
-3.908,-1.234326422719292,-0.8774310299385835
-3.9075,-0.7861790786966207,-0.3581957480853793
-3.907,-0.3273615598162672,0.08686306493165288
-3.9065,-0.007256314085787988,0.383568940276341
-3.906,0.1741366584948169,0.55311515475902
-3.9055,0.2488278824985954,0.627291623595192
-3.905,0.2701682322139607,0.6484849004055269
-3.9045,0.2594980573562781,0.6484849004055269
-3.904,0.2381577076409128,0.627291623595192
-3.9035,0.2168173579255475,0.6060983467848571
-3.903,0.2061471830678648,0.5849050699745222
-3.9025,0.1954770082101822,0.5637117931641874
-3.902,0.142126133921769,0.5319218779486851
-3.9015,-0.2420001609548061,0.6802748156210291
-3.901,-0.6688071552621118,0.5107286011383502
-3.9005,-0.7755089038389382,-0.2310360872233701
-3.9,-0.658136980404429,-0.6443049850249
-3.8995,-0.1779791118087102,-0.5277419625680583
-3.899,0.2808384070716433,-0.2840192792492073
-3.8985,0.4942419042252961,-0.08268314955102604
-3.898,0.5155822539406614,0.04447651131098315
-3.8975,0.4729015545099309,0.1186529801471552
-3.897,0.408880505363835,0.1610395337678249
-3.8965,0.3661998059331045,0.1610395337678249
-3.896,0.4729015545099309,0.1292496185523226
-3.8955,0.4835717293676135,0.1716361721729923
-3.895,0.408880505363835,0.2246193641988295
-3.8945,0.3235191065023739,0.2776025562246667
-3.894,0.2701682322139607,0.3411823866556712
-3.8935,0.1527963087794516,0.3623756634660061
-3.893,-0.3166913849585846,0.2881991946298341
-3.8925,-0.754168554123573,-0.2098428104130352
-3.892,-0.8822106524157645,-0.718481453861072
-3.8915,-0.8928808272734472,-0.8986243067489184
-3.891,-0.5941159312583333,-0.5383386009732256
-3.8905,-0.2526703358124887,-0.06148987274069118
-3.89,0.00341386077189465,0.3199891098453364
-3.8895,0.1634664836371343,0.5637117931641874
-3.889,0.2274875327832301,0.6696781772158616
-3.8885,0.2488278824985954,0.701468092431364
-3.888,0.2488278824985954,0.6802748156210291
-3.8875,0.2274875327832301,0.6484849004055269
-3.887,0.2168173579255475,0.5955017083796896
