Class_9_Think_Grab_one_hand_movement/Class_9_Think_Right_hand_Grab_Suko_9.csv

#Digilent WaveForms Oscilloscope Acquisition
#Device Name: EExplorer
#Serial Number: SN:210151A2B84A
#Date Time: 2021-02-03 11:39:37.581
#Sample rate: 2000Hz
#Samples: 16384
#Trigger: Source: Channel 1 Type: Edge Condition: Rising Level: 0 V Hyst.: Auto HoldOff: 0 s
#Channel 1: Range: 1 V/div Offset: 0 V Attenuation: 1 X
#Channel 2: Range: 1 V/div Offset: 0 V Attenuation: 1 X
#Power Supplies: ON
#Fixed Supply: ON
#Voltage: 3.3 V Readback: 3.322 V
#Positive Supply: ON
#Voltage: 3.7 V Readback: 3.715 V
#Current: 40 mA Readback: 17 mA
#Negative Supply: ON
#Voltage: -3.7 V Readback: -3.352 V
#Current: -40 mA Readback: -10 mA
#Reference 1: ON
#Voltage: 0 V
#Reference 2: ON
#Voltage: 0 V

Time (s),Channel 1 (V),Channel 2 (V)
-4.096,0.8356874996711408,-0.6019184314042303
-4.0955,0.8997085488171783,-0.6549016234300192
-4.095,0.8250173248133804,-0.7820612842921536
-4.0945,0.7396559259519968,-0.8668343915334161
-4.094,0.8570278493863992,-0.8562377531282583
-4.0935,0.8570278493863799,-0.7608680074815587
-4.093,0.7183155762366316,-0.5595318777835605
-4.0925,0.5689331282292105,-0.3264058328700891
-4.092,0.4729015545098532,-0.1038764263611489
-4.0915,0.3875401556484697,0.1292496185523226
-4.091,0.142126133921769,0.05507314971615059
-4.0905,-0.3593720843898683,-0.4535654937323103
-4.09,-0.9675720512772257,-0.9198175835592532
-4.0895,-1.575772018165136,-1.163540266878104
-4.089,-2.17330181019482,-1.205926820498735
-4.0885,-2.354694782775969,-1.110557074852267
-4.088,-2.109280761049269,-0.7502713690765743
-4.0875,-1.212986073004742,0.03387987290510253
-4.087,-0.4874141826810507,0.8074344764835202
-4.0865,0.01408403562957729,1.33726639674141
-4.086,0.2915085819290737,1.602182356870355
-4.0855,0.38754015564846,1.644568910491188
-4.085,0.3768699807907871,1.559795803249926
-4.0845,0.3128489316447495,1.400846227172559
-4.084,0.2381577076408739,1.210106735879208
-4.0835,0.1954770082101822,0.9981739677760521
-4.083,0.04609456020262521,0.7226613692416989
-4.0825,-0.540765056970318,0.0338798729050929
-4.082,-0.9782422261349084,-0.7608680074817418
-4.0815,-1.052933450138687,-1.417859588602123
-4.081,-0.7328282044084986,-1.375473034981491
-4.0805,-0.07127736323188383,-0.7820612842920766
-4.08,0.4942419042252961,-0.4217755785163839
-4.0795,0.8036769750978113,-0.3052125560596481
-4.079,0.8890383739595052,-0.3264058328699445
-4.0785,0.8356874996711408,-0.400582301706049
-4.078,0.7289857510944113,-0.4853554089473114
-4.0775,0.8143471499558917,-0.3687923864903925
-4.077,0.942389248247967,-0.1992461720078678
-4.0765,0.8250173248135648,-0.1992461720078678
-4.076,0.6329541773750347,-0.2310360872233508
-4.0755,0.4835717293676135,-0.2098428104130352
-4.075,0.3875401556484697,-0.1038764263613609
-4.0745,0.568933128229356,0.06566978812128911
-4.074,0.8783681991018712,0.03387987290581572
-4.0735,0.3341892813600565,-0.4535654937318862
-4.073,-0.4874141826807596,-0.6337083466195687
-4.0725,-1.298347471865388,-0.08268314955102604
-4.072,-2.045259711903173,-0.1674562567923655
-4.0715,-2.333354433060342,-0.6125150698089928
-4.071,-1.821186039891041,-0.5701285161882461
-4.0705,-0.9462317015618604,-0.04029659593035631
-4.07,-0.2953510352438113,0.5637117931636381
-4.0695,0.1314559590642611,1.040560521397011
-4.069,0.3235191065023739,1.358459673551745
-4.0685,0.3661998059331045,1.528005888034424
-4.068,0.3235191065023156,1.591585718465448
-4.0675,0.2594980573562781,1.612778995275763
-4.067,0.1954770082101822,1.580989080060261
-4.0665,0.1421261339214196,1.517409249629304
-4.066,-0.2420001609548061,1.570392441655093
-4.0655,-0.7861790786966207,1.273686566310405
-4.065,-1.234326422718884,0.3517790250616771
-4.0645,-1.319687821580753,-0.1886495336027004
-4.064,-0.6474668055467465,0.03387987290581572
-4.0635,0.120785784205705,0.1928294489831827
-4.063,0.6649647019484415,0.1610395337676804
-4.0625,0.9103787236749192,0.002089957690313421
-4.062,0.8997085488172462,-0.1674562567922113
-4.0615,0.7823366253826887,-0.3370024712751987
-4.061,0.7396559259519968,-0.5065486857577234
-4.0605,0.857027849386506,-0.6972881770507372
-4.06,0.7716664505248992,-0.6549016234299132
-4.0595,0.6116138276598051,-0.4853554089473885
-4.059,0.5155822539406614,-0.3052125560595421
-4.0585,0.4835717293676426,-0.1462629799821752
-4.058,0.4942419042252961,0.02328323450064829
-4.0575,0.5902734779444399,-0.1780528951975329
-4.057,0.1848068333528683,-0.7078848154554227
-4.0565,-0.4767440078238243,-1.163540266878104
-4.056,-1.020922925565639,-1.311893204550448
-4.0555,-1.60778254273765,-1.396666311791711
-4.055,-2.1626316353374,-1.375473034981087
-4.0545,-1.853196564464885,-0.9728007755850904
-4.054,-1.052933450139415,-0.1674562567930979
-4.0535,-0.3913826089619555,0.5743084315698078
-4.053,0.05676473506030786,1.072350436612224
-4.0525,0.3021787567870086,1.326669758336243
-4.052,0.38754015564846,1.400846227172367
-4.0515,0.3768699807907871,1.347863035146577
-4.051,0.3235191065023739,1.231300012689736
-4.0505,0.2808384070716821,1.104140351827842
-4.05,0.2274875327832301,0.9663840525605498
-4.0495,-0.1352984123779797,0.701468092431364
-4.049,-0.7328282044076641,-0.07208651114515507
-4.0485,-1.116954499284598,-0.8456411147232933
-4.048,-0.9142211769888124,-1.078767159636765
-4.0475,-0.2420001609554175,-0.7502713690768731
-4.047,0.4302208550795788,-0.485355408947215
-4.0465,0.8463576745288233,-0.2946159176543747
-4.046,0.9957401225362443,-0.2310360872234279
-4.0455,0.9530594231055333,-0.2204394488182412
-4.045,0.825017324813458,-0.2628260024388724
-4.0445,0.6969752265212663,-0.4111789401112165
-4.044,0.7609962756673332,-0.6125150698093976
-4.0435,0.7289857510943143,-0.6125150698093976
-4.043,0.6009436528021226,-0.4429688553267188
-4.0425,0.4835717293677202,-0.220439448818405
-4.042,0.408880505363835,0.002089957690313421
-4.0415,0.3768699807907871,0.2458126410091644
-4.041,0.718315576236321,0.6908714540257918
-4.0405,0.8997085488166057,0.8604176685083068
-4.04,0.2061471830678648,0.2352160026039969
-4.0395,-0.7008176798343349,-0.4853554089467332
-4.039,-1.522421143877364,-0.9833974139904699
-4.0385,-2.226652684483777,-1.216523458903942
-4.038,-2.280003558772142,-1.142346990067837
-4.0375,-1.543761493591351,-0.4853554089466464
-4.037,-0.7328282044082075,0.3305857482505039
-4.0365,-0.1459685872356623,0.9663840525605498
-4.036,0.2061471830680007,1.337266396741535
-4.0355,0.3555296310754218,1.475022696008586
-4.035,0.3661998059331045,1.464426057603419
-4.0345,0.3235191065024127,1.358459673551841
-4.034,0.2701682322139607,1.210106735879401
-4.0335,0.2381577076409128,1.040560521396722
-4.033,0.06743490991814577,0.7862411996729348
-4.0325,-0.5407650569703665,0.1186529801464324
-4.032,-1.031593100423322,-0.6760949002404023
-4.0315,-1.319687821580491,-1.237716735713766
-4.031,-0.9569018764188444,-0.9198175835587618
-4.0305,-0.1886492866663929,-0.3793890248957141
-4.03,0.4515612047939832,-0.1250697031719271
-4.0295,0.7823366253828246,-0.061489872740749
-4.029,0.8890383739595538,-0.1250697031716958
-4.0285,0.8143471499557753,-0.2840192792492073
-4.028,0.707645401379017,-0.4429688553268633
-4.0275,0.7823366253827275,-0.6019184314042303
-4.027,0.9317190733902845,-0.7290780922662394
-4.0265,0.8250173248135551,-0.5807251545940303
-4.026,0.6436243522328531,-0.3158091944647096
-4.0255,0.5155822539406614,-0.05089323433552374
-4.025,0.430220855079278,0.1822328105779477
-4.0245,0.3875401556482757,0.214022725793238
-4.024,0.1741366584948169,-0.252229364033705
-4.0235,-0.4233931335348675,-0.8138511995070681
-4.023,-1.063603624996942,-1.099960436447157
-4.0225,-1.693143941599645,-1.163540266878104
-4.022,-2.258663209056311,-1.174136905283262
-4.0215,-2.312014083344647,-1.099960436446598
-4.021,-1.661133417026597,-0.5489352393783931
-4.0205,-0.8181896032696687,0.2140227257936621
-4.02,-0.1993194615237262,0.8392243916988779
-4.0195,0.1848068333524996,1.210106735879401
-4.019,0.3555296310754218,1.347863035146577
-4.0185,0.3982103305061136,1.326669758336262
-4.018,0.3768699807907871,1.220703374284568
-4.0175,0.3235191065023739,1.061753798207057
-4.017,0.2915085819293551,0.892207583724532
-4.0165,0.2594980573559287,0.7226613692413134
-4.016,-0.124628237520297,0.2987958330350016
-4.0155,-0.7434983792653274,-0.4641621321363597
-4.015,-1.010252750707918,-1.163540266878152
-4.0145,-0.9675720512772257,-1.216523458903942
-4.014,-0.3700422592475413,-0.665498261835736
-4.0135,0.2808384070720509,-0.2734226408439242
-4.013,0.7289857510943143,-0.1462629799820306
-4.0125,0.9103787236749192,-0.1674562567923655
-4.012,0.8783681991017839,-0.2946159176545867
-4.0115,0.7823366253827275,-0.5277419625680583
-4.011,0.7503261008096795,-0.6443049850249
-4.0105,0.8783681991017548,-0.4005823017062707
-4.01,0.8036769750980928,-0.2734226408440398
-4.0095,0.6649647019482183,-0.1992461720078678
-4.009,0.5475927785138162,-0.1144730647666055
-4.0085,0.4408910299368539,0.00208995769047726
-4.008,0.408880505363835,0.1822328105781598
-4.0075,0.7823366253823878,0.3729723018710001
-4.007,0.6969752265205967,0.05507314971567834
-4.0065,-0.03926683865883591,-0.4641621321370536
-4.006,-0.8715404775580819,-0.7820612842920766
-4.0055,-1.639793067311795,-0.9622041371799518
-4.005,-2.258663209056825,-0.9939940523954253
-4.0045,-2.173301810195364,-0.7608680074817418
-4.004,-1.341028171295429,-0.02969995752449497
-4.0035,-0.5834457564006506,0.7332580076468663
-4.003,-0.03926683865883591,1.284283204715573
-4.0025,0.2594980573560063,1.570392441654833
-4.002,0.3768699807907871,1.644568910491266
-4.0015,0.3555296310754218,1.570392441655093
-4.001,0.3021787567870571,1.422039503982885
-4.0005,0.2488278824985663,1.231300012689562
-4,0.2168173579255475,1.040560521396722
-3.9995,-0.03926683865883591,0.627291623595192
-3.999,-0.6367966306890638,-0.2098428104130352
-3.9985,-1.084943974711735,-1.004590690800593
-3.998,-1.490410619303675,-1.629792356705471
-3.9975,-1.277007122150022,-1.523825972653797
-3.997,-0.4874141826815069,-0.9516074987747555
-3.9965,0.2381577076409128,-0.5489352393783931
-3.996,0.6863050516635838,-0.326405832869877
-3.9955,0.825017324813458,-0.3158091944647096
-3.995,0.8036769750980928,-0.400582301706049
-3.9945,0.7289857510943143,-0.4853554089473885
-3.994,0.79300680024041,-0.6549016234300674
-3.9935,0.7609962756673623,-0.6866915386455698
-3.993,0.6436243522328531,-0.5913217929990628
-3.9925,0.5155822539406614,-0.4323722169215513
-3.992,0.4195506802215176,-0.252229364033705
-3.9915,0.3661998059331045,-0.07208651114585861
-3.991,0.4195506802215176,-0.1250697031716958
-3.9905,0.1848068333524996,-0.5489352393783931
-3.99,-0.4340633083930936,-1.046977244421262
-3.9895,-1.116954499284783,-1.375473034981453
-3.989,-1.799845690176472,-1.481439419033127
-3.9885,-2.301343908487556,-1.38606967338662
-3.988,-2.173301810195364,-1.036380606016095
-3.9875,-1.341028171296118,-0.2310360872233701
-3.987,-0.572775581542968,0.6060983467848571
-3.9865,-0.03926683865883591,1.220703374284568
-3.986,0.2701682322139607,1.549199164844759
-3.9855,0.3982103305061524,1.6657621873016
-3.985,0.4195506802215176,1.644568910491266
-3.9845,0.3982103305061524,1.528005888034424
-3.984,0.3555296310754218,1.37965295036208
-3.9835,0.2808384070716433,1.210106735879401
-3.983,0.05676473506030786,1.00877060618122
-3.9825,-0.5514352318276028,0.3199891098453364
-3.982,-1.020922925565639,-0.5595318777835605
-3.9815,-1.042263275281004,-1.290699927740113
-3.981,-0.7861790786966207,-1.481439419033127
-3.9805,-0.124628237520297,-0.8880276683437509
-3.98,0.4835717293676135,-0.3581957480853793
-3.9795,0.857027849386506,-0.1462629799820306
-3.979,0.974399772821015,-0.2098428104130352
-3.9785,0.9103787236749192,-0.3687923864905467
-3.978,0.7716664505250448,-0.4853554089473885
-3.9775,0.79300680024041,-0.5807251545938954
-3.977,0.8997085488172365,-0.6760949002404023
-3.9765,0.8463576745288233,-0.6231117082145651
-3.976,0.7396559259519968,-0.5065486857577234
-3.9755,0.6009436528021226,-0.326405832869877
-3.975,0.4835717293676135,-0.1144730647665284
-3.9745,0.3661998059331045,0.03387987290581572
-3.974,0.1848068333524996,-0.02969995752518888
-3.9735,-0.4340633083930936,-0.4853554089473885
-3.973,-1.020922925565639,-0.8032545611024114
-3.9725,-1.415719395299897,-0.8774310299385835
-3.972,-1.863866739322568,-0.9516074987747555
-3.9715,-2.258663209056825,-0.9516074987747555
-3.971,-1.917217613610981,-0.6443049850249
-3.9705,-1.074273799854052,0.1080563417419877
-3.97,-0.391382608962363,0.8392243916985406
-3.9695,0.0674349099179905,1.33726639674141
-3.969,0.3128489316446912,1.580989080060261
-3.9685,0.3768699807907871,1.623375633680931
-3.968,0.3448594562177392,1.549199164844759
-3.9675,0.2808384070716433,1.411442865577582
-3.967,0.2488278824985954,1.220703374284568
-3.9665,0.1848068333524996,1.019367244586387
-3.966,-0.2846808603855366,0.4471487707073456
-3.9655,-0.8822106524157645,-0.4217755785163839
-3.965,-1.26633694729234,-1.174136905283272
-3.9645,-1.351698346153801,-1.545019249464132
-3.964,-0.690147504977477,-1.025783967610927
-3.9635,0.07810508477567314,-0.5489352393783931
-3.963,0.6116138276598051,-0.3370024712750445
-3.9625,0.8676980242441885,-0.2946159176543747
-3.962,0.8997085488172365,-0.3370024712750445
-3.9615,0.8143471499557753,-0.474758770542221
-3.961,0.7503261008096795,-0.5489352393783931
-3.9605,0.825017324813458,-0.4641621321370536
-3.96,0.7609962756673623,-0.4535654937318862
-3.9595,0.6222840025174878,-0.4429688553267188
-3.959,0.5155822539406614,-0.400582301706049
-3.9585,0.4835717293676135,-0.3158091944647096
-3.958,0.5155822539406614,-0.2734226408440398
-3.9575,0.9210488985326017,-0.6549016234300674
-3.957,0.857027849386506,-1.131750351662602
-3.9565,0.142126133921769,-1.42845622700729
-3.956,-0.7434983792658902,-1.407262950196955
-3.9555,-1.543761493592088,-1.290699927740113
-3.955,-2.215982509626095,-1.121153713257435
-3.9545,-2.055929886760855,-0.7078848154559045
-3.954,-1.202315898146244,0.09745970333682032
-3.9535,-0.4874141826815069,0.8710143069140429
-3.953,0.01408403562957729,1.400846227172415
-3.9525,0.291508581929326,1.6657621873016
-3.952,0.3982103305061524,1.729342017732605
-3.9515,0.4195506802215176,1.6657621873016
-3.951,0.3448594562177392,1.528005888034424
-3.9505,0.2808384070716433,1.347863035146577
-3.95,0.2594980573562781,1.157123543853563
-3.9495,0.05676473506030786,0.8710143069140429
-3.949,-0.4767440078238243,0.1822328105781598
-3.9485,-0.9889124009925911,-0.6654982618352349
-3.948,-1.1062843244271,-1.311893204550448
-3.9475,-0.6154562809736985,-1.036380606016095
-3.947,0.07810508477567314,-0.3899856633008816
-3.9465,0.6009436528021226,-0.04029659593035631
-3.946,0.8783681991018712,-0.04029659593035631
-3.9455,0.9317190733902845,-0.2310360872233701
-3.945,0.8356874996711408,-0.4535654937318862
-3.9445,0.707645401378949,-0.5595318777835605
-3.944,0.825017324813458,-0.5807251545938954
-3.9435,0.8783681991018712,-0.6019184314042303
-3.943,0.79300680024041,-0.570128516188728
-3.9425,0.7396559259519968,-0.4853554089473885
-3.942,0.6222840025174878,-0.3581957480853793
-3.9415,0.5049120790829789,-0.1992461720078678
-3.941,0.6542945270905358,-0.04029659593035631
-3.9405,0.8890383739595538,-0.1250697031716958
-3.94,0.2594980573562781,-0.6337083466197325
-3.9395,-0.6261264558313813,-1.078767159636765
-3.939,-1.447729919872945,-1.322489842955616
-3.9385,-2.173301810195364,-1.34368311976595
-3.938,-2.322684258202921,-1.163540266878104
-3.9375,-1.735824641030376,-0.5065486857577234
-3.937,-0.8715404775580819,0.3623756634660061
-3.9365,-0.2206598112394408,1.082947075017392
-3.936,0.1741366584948169,1.517409249629256
-3.9355,0.3555296310754218,1.718745379327438
-3.935,0.3875401556484697,1.739938656137773
-3.9345,0.3341892813600565,1.644568910491266
-3.934,0.2594980573562781,1.506812611224089
-3.9335,0.2168173579255475,1.33726639674141
-3.933,0.03542438534494258,1.125333628638062
-3.9325,-0.5407650569699201,0.4047622170866759
-3.932,-0.9462317015618604,-0.4853554089473885
-3.9315,-1.148965023857831,-1.163540266878104
-3.931,-0.9355615267041777,-1.227120097309109
-3.9305,-0.2313299860971235,-0.8668343915334161
-3.93,0.4195506802215176,-0.4217755785163839
-3.9295,0.8143471499557753,-0.2416327256285375
-3.929,0.9530594231056497,-0.2946159176543747
-3.9285,0.8997085488172365,-0.4535654937318862
-3.928,0.7609962756673623,-0.5913217929990628
-3.9275,0.7183155762366316,-0.570128516188728
-3.927,0.8036769750980928,-0.4217755785163839
-3.9265,0.7609962756673623,-0.4111789401112165
-3.926,0.6436243522328531,-0.400582301706049
-3.9255,0.5262524287983441,-0.3475991096802118
-3.925,0.4622313796522482,-0.2204394488182027
-3.9245,0.4835717293676135,-0.1038764263613609
-3.924,0.4622313796522482,-0.3475991096802118
-3.9235,-0.07127736323188383,-0.8244478379127463
-3.923,-0.8608703027003992,-1.205926820498774
-3.9225,-1.607782542738184,-1.34368311976595
-3.922,-2.23732285934146,-1.269506650929778
-3.9215,-2.322684258202921,-1.05757388282643
-3.921,-1.767835165603424,-0.4323722169215513
-3.9205,-0.8928808272734472,0.457745409112513
-3.92,-0.2420001609548061,1.188913459069066
-3.9195,0.1634664836371343,1.655165548896433
-3.919,0.3661998059331045,1.856501678594614
-3.9185,0.408880505363835,1.877694955404949
-3.918,0.3875401556484697,1.771728571353275
-3.9175,0.3341892813600565,1.612778995275763
-3.917,0.2594980573562781,1.411442865577582
-3.9165,0.2061471830678648,1.210106735879401
-3.916,-0.1352984123779797,0.8180311148882058
-3.9155,-0.6688071552621118,-0.04029659593035631
-3.915,-1.031593100423322,-0.8774310299385835
-3.9145,-0.9462317015618604,-1.121153713257435
-3.914,-0.2633405106701714,-0.6019184314042303
-3.9135,0.408880505363835,-0.1356663415768632
-3.913,0.8463576745288233,-0.08268314955102604
-3.9125,1.038420821967111,-0.2628260024388724
-3.912,1.006410297394063,-0.5171453241628908
-3.9115,0.8783681991018712,-0.7502713690765743
-3.911,0.7609962756673623,-0.8774310299385835
-3.9105,0.942389248247967,-0.9198175835592532
-3.91,1.070431346540159,-0.6443049850249
-3.9095,1.006410297394063,-0.4853554089473885
-3.909,0.8783681991018712,-0.400582301706049
-3.9085,0.6969752265212663,-0.252229364033705
-3.908,0.5582629533713921,-0.08268314955102604
-3.9075,0.6222840025174878,-0.1674562567923655
-3.907,0.1954770082101822,-0.6125150698093976
-3.9065,-0.6154562809736985,-1.046977244421262
-3.906,-1.351698346153801,-1.248313374119443
-3.9055,-2.045259711903173,-1.258910012524611
-3.905,-2.333354433060604,-1.131750351662602
-3.9045,-2.23732285934146,-0.8350444763179138
-3.904,-1.415719395299897,-0.07208651114585861
-3.9035,-0.6154562809736985,0.7438546460520338
-3.903,-0.06060718837420119,1.347863035146577
-3.9025,0.2594980573562781,1.676358825706768
-3.902,0.3875401556484697,1.782325209758442
-3.9015,0.3661998059331045,1.729342017732605
-3.901,0.3235191065023739,1.591585718465428
-3.9005,0.2808384070716433,1.411442865577582
-3.9,0.2594980573562781,1.199510097474233
-3.8995,0.03542438534494258,0.9345941373450475
-3.899,-0.5514352318276028,0.4471487707073456
-3.8985,-0.9889124009925911,-0.3475991096802118
-3.898,-1.212986073003927,-1.068170521231597
-3.8975,-0.807519428411986,-1.121153713257435
-3.897,-0.03926683865883591,-0.7078848154559045
-3.8965,0.5689331282290746,-0.3158091944647096
-3.896,0.8783681991018712,-0.1568596183871981
-3.8955,0.9317190733902845,-0.2310360872233701
-3.895,0.857027849386506,-0.4111789401112165
-3.8945,0.707645401378949,-0.5595318777835605
-3.894,0.8143471499557753,-0.7608680074817418
-3.8935,0.9210488985326017,-0.8138511995075789
-3.893,0.8143471499557753,-0.6231117082145651
-3.8925,0.6436243522328531,-0.3793890248957141
-3.892,0.5049120790829789,-0.1356663415768632
-3.8915,0.408880505363835,0.06566978812131802
-3.891,0.2061471830678648,-0.09327978795619347
-3.8905,-0.4020527838200457,-0.6443049850249
-3.89,-1.010252750707956,-1.174136905283272
-3.8895,-1.51175096901904,-1.375473034981453
-3.889,-2.055929886760855,-1.375473034981453
-3.8885,-2.322684258202921,-1.322489842955616
-3.888,-2.258663209056825,-1.163540266878104
-3.8875,-1.490410619303675,-0.5277419625680583
-3.887,-0.690147504977477,0.2670059178194992
-3.8865,-0.1032878878049318,0.8922075837243778
