Class_9_Think_Grab_one_hand_movement/Class_9_Think_Right_hand_Grab_SH_8.csv

#Digilent WaveForms Oscilloscope Acquisition
#Device Name: EExplorer
#Serial Number: SN:210151A2B84A
#Date Time: 2020-12-22 11:51:36.091
#Sample rate: 2000Hz
#Samples: 16384
#Trigger: Source: Channel 1 Type: Edge Condition: Rising Level: 0 V Hyst.: Auto HoldOff: 0 s
#Channel 1: Range: 1 V/div Offset: 0 V Attenuation: 1 X
#Channel 2: Range: 1 V/div Offset: 0 V Attenuation: 1 X
#Power Supplies: ON
#Fixed Supply: ON
#Voltage: 3.3 V Readback: 3.33 V
#Positive Supply: ON
#Voltage: 3.7 V Readback: 3.698 V
#Current: 40 mA Readback: 17 mA
#Negative Supply: ON
#Voltage: -3.7 V Readback: -4.11 V
#Current: -40 mA Readback: -8 mA
#Reference 1: ON
#Voltage: 0 V
#Reference 2: ON
#Voltage: 0 V

Time (s),Channel 1 (V),Channel 2 (V)
-4.096,-0.839529952985034,-1.01518732920576
-4.0955,-0.7541685541236506,-0.5595318777839748
-4.095,-0.4554036581081677,-0.008506680714555247
-4.0945,-0.1352984123779797,0.3199891098453364
-4.094,0.1101156093484978,0.4153588554917566
-4.0935,0.2701682322140384,0.3729723018710965
-4.093,0.3555296310754218,0.2881991946298341
-4.0925,0.3982103305061136,0.1822328105782561
-4.092,0.3982103305061233,0.1928294489833561
-4.0915,0.3661998059331045,0.2246193641988295
-4.091,0.3555296310754218,0.2352160026039969
-4.0905,0.3555296310754315,0.2881991946299016
-4.09,0.3661998059331045,0.3623756634660061
-4.0895,0.3661998059331045,0.4153588554918433
-4.089,0.09944543449128107,0.02328323450100489
-4.0885,-0.754168554123573,-0.8986243067489184
-4.088,-1.597112367880501,-1.905304955239825
-4.0875,-1.821186039891633,-2.127834361748138
-4.087,-1.746494815887457,-1.873515040023407
-4.0865,-1.084943974711735,-0.8668343915334161
-4.086,-0.3807124341053209,0.1716361721720477
-4.0855,0.04609456020283871,0.8286277532937008
-4.085,0.2808384070716433,1.188913459069066
-4.0845,0.3982103305060457,1.326669758336117
-4.084,0.4302208550791906,1.337266396741343
-4.0835,0.4195506802215176,1.263089927905238
-4.083,0.408880505363835,1.157123543853563
-4.0825,0.3982103305061524,1.040560521396635
-4.082,0.3982103305061524,0.9451907757502149
-4.0815,0.3768699807907871,0.849821030103708
-4.081,0.2701682322140577,0.6166949851902366
-4.0805,-0.391382608962363,-0.2098428104130352
-4.08,-1.052933450138687,-1.163540266878104
-4.0795,-1.479740444445604,-1.788741932782414
-4.079,-1.298347471864902,-1.428456227006644
-4.0785,-0.7648387289812555,-0.718481453861072
-4.078,-0.2740106855283004,-0.1144730647670777
-4.0775,0.07810508477587694,0.2458126410092704
-4.077,0.3021787567870086,0.3623756634660061
-4.0765,0.4195506802214109,0.319989109845375
-4.076,0.4622313796521997,0.2140227257936043
-4.0755,0.408880505363835,0.1504428953626575
-4.075,0.291508581929326,0.13984625695749
-4.0745,0.2701682322139801,0.1080563417419781
-4.074,0.291508581929326,0.09745970333682032
-4.0735,0.3235191065023739,0.1292496185523226
-4.073,0.3555296310753927,0.1822328105781116
-4.0725,0.5796033030867573,0.4047622170866759
-4.072,1.059761171682476,0.6696781772158616
-4.0715,0.4942419042258105,-0.1250697031709729
-4.071,-0.8608703027008262,-1.460246142223062
-4.0705,-1.330357996438436,-1.75695201756748
-4.07,-1.116954499284977,-1.18473354368896
-4.0695,-0.583445756400175,-0.2840192792484555
-4.069,-0.06060718837420119,0.5425185163538525
-4.0685,0.2061471830678648,1.00877060618122
-4.068,0.3341892813601051,1.263089927905344
-4.0675,0.3875401556484697,1.37965295036208
-4.067,0.408880505363835,1.411442865577582
-4.0665,0.3982103305061427,1.390249588767199
-4.066,0.3875401556484697,1.33726639674141
-4.0655,0.3875401556484697,1.273686566310405
-4.065,0.3875401556484697,1.210106735879458
-4.0645,0.3875401556484697,1.188913459069066
-4.064,0.4835717293676135,1.029963882991555
-4.0635,0.6436243522327075,0.06566978812219493
-4.063,0.387540155648101,-1.015187329206309
-4.0625,-0.01792648894347063,-1.619195718300304
-4.062,-0.1246282375202,-1.280103289335254
-4.0615,-0.03926683865869035,-0.6231117082140928
-4.061,0.1207857842064037,-0.1038764263613609
-4.0605,0.2594980573562781,0.1610395337678249
-4.06,0.3341892813601051,0.2352160026040066
-4.0595,0.3875401556484697,0.2458126410091644
-4.059,0.3982103305061524,0.1928294489833272
-4.0585,0.3341892813601148,0.1610395337678538
-4.058,0.3128489316446912,0.1186529801471552
-4.0575,0.3128489316446912,0.09745970333682032
-4.057,0.3341892813600371,0.1080563417419781
-4.0565,0.3555296310754218,0.1504428953626575
-4.056,0.4195506802215176,0.05507314971615059
-4.0555,0.6116138276596303,-0.4747587705417393
-4.055,0.8997085488167512,-1.152943628473525
-4.0545,0.3661998059331045,-1.79933857118815
-4.054,-0.8502001278416105,-2.360960406661513
-4.0535,-0.967572051276954,-1.69337218713555
-4.053,-0.6688071552621118,-0.6760949002404023
-4.0525,-0.2099896363817582,0.2776025562246667
-4.052,0.1207857842065396,0.8710143069142838
-4.0515,0.2701682322139607,1.135930267043229
-4.051,0.3448594562177392,1.241896651094903
-4.0505,0.376869980790758,1.241896651094903
-4.05,0.3875401556484697,1.199510097474233
-4.0495,0.3768699807907871,1.135930267043229
-4.049,0.3768699807907871,1.072350436612282
-4.0485,0.3768699807907774,1.008770606181171
-4.048,0.3661998059331045,0.9557874141553824
-4.0475,0.1207857842066269,0.5955017083800174
-4.047,-0.5727755815435309,0.08686306493090115
-4.0465,-1.191645723288561,-0.7396747306714069
-4.046,-1.159635198715542,-1.036380606015825
-4.0455,-0.7434983792654923,-0.5489352393779786
-4.045,-0.3060212101009019,-0.09327978795619347
-4.0445,0.02475421048725994,0.1292496185523226
-4.044,0.2168173579256348,0.224619364198868
-4.0435,0.3128489316446912,0.2670059178194992
-4.043,0.3448594562177392,0.2352160026039969
-4.0425,0.3555296310754121,0.1928294489833658
-4.042,0.3875401556484697,0.05507314971615059
-4.0415,0.3875401556484697,-0.008506680714854012
-4.041,0.3875401556484697,0.05507314971609276
-4.0405,0.3768699807907774,0.161039533767931
-4.04,0.3661998059331045,0.2776025562246667
-4.0395,0.3555296310754315,0.3199891098452978
-4.039,0.00341386077126386,-0.135666341577692
-4.0385,-0.690147504977477,-1.046977244421262
-4.038,-1.277007122149489,-2.106641084937042
-4.0375,-1.501080794161435,-2.350363768256712
-4.037,-1.586442193022819,-2.191414192179345
-4.0365,-1.052933450138687,-1.216523458903942
-4.036,-0.3913826089619943,-0.1250697031710404
-4.0355,0.01408403562957729,0.5955017083796896
-4.035,0.2488278824985954,0.9981739677760521
-4.0345,0.3661998059329977,1.178316820663734
-4.034,0.408880505363835,1.210106735879401
-4.0335,0.408880505363835,1.157123543853563
-4.033,0.3982103305061621,1.061753798207144
-4.0325,0.3875401556484697,0.9769806909656498
-4.032,0.3875401556484697,0.9028042221295453
-4.0315,0.3768699807907968,0.8498210301037562
-4.031,0.4515612047950508,0.8710143069141778
-4.0305,0.9850699476786977,1.019367244586387
-4.03,1.262494493978194,0.3199891098459725
-4.0295,0.8676980242438682,-0.644304985025112
-4.029,0.5155822539406614,-0.8774310299385835
-4.0285,0.3555296310754218,-0.5171453241628908
-4.028,0.2915085819293357,-0.1038764263611103
-4.0275,0.3021787567870086,0.1716361721729923
-4.027,0.3128489316446912,0.2881991946298341
-4.0265,0.3341892813600371,0.2987958330349919
-4.026,0.3448594562177392,0.2352160026039969
-4.0255,0.3555296310754218,0.1822328105781598
-4.025,0.3768699807907677,0.171636172173002
-4.0245,0.3768699807907871,0.2034260873885428
-4.024,0.3768699807907871,0.2564092794143318
-4.0235,0.3661998059331142,0.3305857482504364
-4.023,0.366199805933153,0.4047622170865313
-4.0225,0.4195506802215176,0.2458126410091644
-4.022,0.8463576745284351,0.161039533767902
-4.0215,0.793006800239459,-0.5277419625689931
-4.021,-0.2526703358124887,-1.555615887869299
-4.0205,-0.9355615267041777,-2.000674700886331
-4.02,-0.7968492535539735,-1.449649503816777
-4.0195,-0.4340633083930936,-0.5171453241628908
-4.019,-0.007256314085787988,0.3623756634660061
-4.0185,0.2168173579253437,0.892207583723896
-4.018,0.3128489316446912,1.125333628638062
-4.0175,0.3555296310754218,1.210106735879401
-4.017,0.3661998059330948,1.199510097474243
-4.0165,0.3555296310754218,1.146526905448338
-4.016,0.3555296310754218,1.082947075017392
-4.0155,0.3555296310754218,1.029963882991603
-4.015,0.3661998059330754,0.9663840525604246
-4.0145,0.3341892813600565,0.8286277532933731
-4.014,-0.1139580626622069,0.1186529801478009
-4.0135,-0.8928808272739421,-0.9304142219651724
-4.013,-1.437059745015262,-1.75695201756748
-4.0125,-1.405049220442214,-1.788741932782983
-4.012,-0.8928808272729619,-1.110557074851621
-4.0115,-0.3593720843893152,-0.400582301706049
-4.011,0.0674349099179905,0.08686306493165288
-4.0105,0.3341892813598139,0.3517790250605978
-4.01,0.4408910299368829,0.4047622170866759
-4.0095,0.4622313796522482,0.3199891098453364
-4.009,0.4408910299369024,0.2140227257937585
-4.0085,0.3235191065023253,0.2776025562246667
-4.008,0.2701682322139607,0.2776025562246667
-4.0075,0.2701682322139607,0.2140227257937199
-4.007,0.302178756787028,0.1822328105781694
-4.0065,0.3235191065023739,0.1928294489833272
-4.006,0.4622313796522482,0.2881991946298341
-4.0055,1.070431346540489,0.5107286011380225
-4.005,1.433217291701369,0.1504428953626575
-4.0045,0.7396559259519968,-0.6972881770507372
-4.004,-0.03926683865954434,-1.174136905283455
-4.0035,-0.8181896032696687,-1.375473034981453
-4.003,-0.5941159312583333,-0.570128516188728
-4.0025,-0.2846808603858181,0.1504428953620022
-4.002,0.05676473506030786,0.7544512844572011
-4.0015,0.2701682322139607,1.114736990232894
-4.001,0.3341892813599983,1.23130001268963
-4.0005,0.3448594562177392,1.263089927905228
-4,0.3448594562177392,1.25249328950007
-3.9995,0.3448594562177392,1.220703374284568
-3.999,0.3448594562177392,1.167720182258731
-3.9985,0.3448594562177392,1.135930267043229
-3.998,0.3555296310754218,1.093543713422559
-3.9975,0.1314559590640864,0.6590815388106942
-3.997,-0.572775581542968,-0.3475991096802118
-3.9965,-1.052933450138687,-1.301296566145281
-3.996,-1.1062843244271,-1.672178910326141
-3.9955,-0.7755089038389382,-1.152943628472937
-3.995,-0.3593720843893152,-0.5171453241628908
-3.9945,-0.02859666380115328,-0.05089323433552374
-3.994,0.1741366584948169,0.2352160026039969
-3.9935,0.3128489316446912,0.309392471440169
-3.993,0.3875401556484697,0.2670059178194992
-3.9925,0.3875401556484697,0.1610395337678249
-3.992,0.3661998059331045,0.1822328105781598
-3.9915,0.3555296310754218,0.2034260873884947
-3.991,0.3448594562177392,0.1610395337678249
-3.9905,0.3448594562177392,0.13984625695749
-3.99,0.3448594562177392,0.1610395337678249
-3.9895,0.3128489316446912,0.1504428953626575
-3.989,0.2701682322139607,0.01268659609548085
-3.9885,0.8997085488172365,0.3199891098453364
-3.988,1.433217291701369,-0.04029659593035631
-3.9875,1.19847344483235,-0.4641621321370536
-3.987,0.8356874996711408,-0.2840192792492073
-3.9865,0.3235191065023739,-0.09327978795619347
-3.986,-0.391382608962363,-0.2310360872233701
-3.9855,-0.3380317346739499,0.2246193641988295
-3.985,-0.1993194615240755,0.5955017083796896
-3.9845,0.00341386077189465,0.9134008605347127
-3.984,0.2381577076409128,1.199510097474233
-3.9835,0.3021787567870086,1.273686566310405
-3.983,0.3128489316446912,1.263089927905238
-3.9825,0.3235191065023739,1.241896651094903
-3.982,0.3235191065023739,1.210106735879401
-3.9815,0.3235191065023739,1.178316820663898
-3.981,0.2168173579255475,0.9345941373450475
-3.9805,-0.423393133535411,0.1292496185523226
-3.98,-1.170305373573196,-0.9410108603695881
-3.9795,-1.490410619303675,-1.746355379162313
-3.979,-1.180975548430879,-1.51322933424863
-3.9785,-0.7008176798351597,-0.7820612842920766
-3.978,-0.2420001609548061,-0.1462629799820306
-3.9775,0.08877525963335578,0.1504428953626575
-3.977,0.2808384070716433,0.2458126410091644
-3.9765,0.3555296310754218,0.2246193641988295
-3.976,0.3768699807907871,0.13984625695749
-3.9755,0.3555296310754218,0.01268659609548085
-3.975,0.3128489316446912,-0.1038764263613609
-3.9745,0.3021787567870086,-0.09327978795619347
-3.974,0.3128489316446912,-0.008506680714854012
-3.9735,0.3235191065023739,0.09745970333682032
-3.973,0.3341892813600565,0.2140227257936621
-3.9725,0.6222840025174878,0.4789386859228479
-3.972,1.230483969405398,0.6378882620003594
-3.9715,1.347855892839907,-0.01910331912002144
-3.971,0.7289857510943143,-0.8350444763179138
-3.9705,0.04609456020262521,-1.237716735714276
-3.97,-0.1459685872356623,-0.8244478379127463
-3.9695,-0.08194753808956648,-0.1356663415768632
-3.969,0.05676473506030786,0.4789386859228479
-3.9685,0.1101156093487211,0.8180311148882058
-3.968,-0.08194753808956648,0.775644561267536
-3.9675,-0.4767440078238243,0.4365521323021782
-3.967,-0.2526703358124887,0.6696781772158616
-3.9665,-0.08194753808956648,0.8074344764830383
-3.966,0.1314559590640864,0.9875773293708847
-3.9655,0.3021787567870086,1.093543713422559
-3.965,0.3128489316446912,1.040560521396722
-3.9645,0.3021787567870086,0.9451907757502149
-3.964,0.3021787567870086,0.5955017083796896
-3.9635,0.1954770082101822,-0.1992461720078678
-3.963,-0.07127736323188383,-1.05757388282643
-3.9625,-0.7008176798351597,-1.778145294377815
-3.962,-1.244996597576974,-1.88411167842949
-3.9615,-1.1062843244271,-1.152943628472937
-3.961,-0.690147504977477,-0.400582301706049
-3.9605,-0.2526703358124887,0.06566978812131802
-3.96,0.08877525963335578,0.2881991946298341
-3.9595,0.291508581929326,0.2987958330350016
-3.959,0.3661998059331045,0.2034260873884947
-3.9585,0.291508581929326,0.04447651131098315
-3.958,0.2701682322139607,-0.01910331912002144
-3.9575,0.2808384070716433,-0.01910331912002144
-3.957,0.291508581929326,0.02328323450064829
-3.9565,0.3128489316446912,0.07626642652648545
-3.956,0.408880505363835,0.13984625695749
-3.9555,0.707645401378949,-0.2310360872233701
-3.955,0.6649647019482183,-0.9410108603695881
-3.9545,-0.01792648894347063,-1.566212526274467
-3.954,-0.7328282044082075,-1.767548655972648
-3.9535,-0.7861790786966207,-1.0999604364471
-3.953,-0.4874141826815069,-0.2628260024388724
-3.9525,-0.1352984123779797,0.4259554938970107
-3.952,0.1207857842064037,0.8604176685088755
-3.9515,0.2808384070716433,1.082947075017392
-3.951,0.3448594562177392,1.157123543853563
-3.9505,0.3661998059331045,1.146526905448396
-3.95,0.2701682322139607,1.00877060618122
-3.9495,-0.02859666380115328,0.6590815388106942
-3.949,-0.4874141826815069,0.13984625695749
-3.9485,-0.2846808603855366,0.2776025562246667
-3.948,-0.1352984123779797,0.3517790250608387
-3.9475,0.1207857842064037,0.4683420475176805
-3.947,0.3128489316446912,0.2987958330350016
-3.9465,-0.1032878878049318,-0.7078848154559045
-3.946,-0.839529952985034,-1.75695201756748
-3.9455,-1.501080794161358,-2.244397384205182
-3.945,-1.362368521011484,-1.693372187136476
-3.9445,-0.8502001278427167,-0.8350444763179138
-3.944,-0.3273615598162672,-0.1356663415768632
-3.9435,0.04609456020262521,0.2564092794143318
-3.943,0.2701682322139607,0.4365521323021782
-3.9425,0.3661998059331045,0.4259554938970107
-3.942,0.3661998059331045,0.1610395337678249
-3.9415,0.3341892813600565,0.002089957690313421
-3.941,0.3235191065023739,0.01268659609548085
-3.9405,0.3235191065023739,0.09745970333682032
-3.94,0.3341892813600565,0.1822328105781598
-3.9395,0.3448594562177392,0.1716361721729923
-3.939,0.4408910299368829,-0.1992461720078678
-3.9385,0.9317190733902845,-0.6231117082145651
-3.938,1.091771696255524,-1.184733543688439
-3.9375,0.4515612047945656,-1.587405803084801
-3.937,-0.01792648894347063,-1.290699927740113
-3.9365,-0.09261771294724913,-0.570128516188728
-3.936,0.00341386077189465,0.09745970333682032
-3.9355,0.1314559590640864,0.55311515475902
-3.935,0.2274875327832301,0.8180311148882058
-3.9345,0.291508581929326,0.9134008605347127
-3.934,0.3128489316446912,0.9345941373450475
-3.9335,0.3235191065023739,0.9028042221295453
-3.933,0.3235191065023739,0.8604176685088755
-3.9325,0.3235191065023739,0.8286277532933731
-3.932,0.3235191065023739,0.7862411996727035
-3.9315,0.3128489316446912,0.7650479228623686
-3.931,0.1848068333524996,0.5743084315693548
-3.9305,-0.5407650569699201,-0.3052125560595421
-3.93,-1.426389570157579,-1.523825972653797
-3.9295,-1.479740444445993,-1.894708316834657
-3.929,-1.789175515318789,-2.244397384205182
-3.9285,-1.586442193022819,-1.746355379162313
-3.928,-0.9142211769888124,-0.792657922697244
-3.9275,-0.3060212101009019,-0.07208651114585861
-3.927,0.04609456020262521,0.2670059178194992
-3.9265,0.2594980573562781,0.4047622170866759
-3.926,0.3661998059331045,0.3941655786815084
-3.9255,0.3128489316446912,0.3941655786815084
-3.925,0.1741366584948169,0.3305857482505039
-3.9245,0.1634664836371343,0.2564092794143318
-3.924,0.2168173579255475,0.2034260873884947
-3.9235,0.2701682322139607,0.1822328105781598
-3.923,0.3128489316446912,0.1822328105781598
-3.9225,0.1954770082101822,-0.1780528951975329
-3.922,-0.1032878878049318,-1.025783967610927
-3.9215,-0.5087545323968721,-1.767548655972648
-3.921,-0.8288597781273515,-2.17022091536901
-3.9205,-0.7755089038389382,-1.714565463946811
-3.92,-0.4340633083930936,-0.7820612842920766
-3.9195,-0.09261771294724913,0.05507314971615059
-3.919,0.1527963087794516,0.627291623595192
-3.9185,0.291508581929326,0.9451907757502149
-3.918,0.3555296310754218,1.072350436612224
-3.9175,0.3661998059331045,1.082947075017392
-3.917,0.3661998059331045,1.051157159801889
-3.9165,0.3448594562177392,0.9875773293708847
-3.916,0.3341892813600565,0.92399749893988
-3.9155,0.3235191065023739,0.8604176685088755
-3.915,0.3235191065023739,0.8074344764830383
-3.9145,0.2808384070716433,0.7120647308365314
-3.914,-0.1352984123779797,0.1292496185523226
-3.9135,-0.7008176798351597,-0.7078848154559045
-3.913,-0.9462317015618604,-1.354279758171118
-3.9125,-0.807519428411986,-1.216523458903942
-3.912,-0.4340633083930936,-0.6760949002404023
-3.9115,-0.3273615598162672,-0.3687923864905467
-3.911,-0.6154562809736985,-0.5489352393783931
-3.9105,-0.3273615598162672,-0.2840192792492073
-3.91,-0.124628237520297,-0.1780528951975329
-3.9095,0.08877525963335578,-0.05089323433552374
-3.909,0.2808384070716433,0.09745970333682032
-3.9085,0.3235191065023739,0.1822328105781598
-3.908,0.3235191065023739,0.1928294489833272
-3.9075,0.3235191065023739,0.2140227257936621
-3.907,0.3235191065023739,0.2564092794143318
-3.9065,0.3341892813600565,0.3305857482505039
-3.906,0.2808384070716433,0.1928294489833272
-3.9055,-0.2526703358124887,-0.6125150698093976
-3.905,-1.042263275281004,-1.47084278062796
-3.9045,-1.373038695869166,-1.831128486403653
-3.904,-1.330357996438436,-1.693372187136476
-3.9035,-0.8822106524157645,-0.9092209451540858
-3.903,-0.3593720843893152,-0.04029659593035631
-3.9025,0.03542438534494258,0.6166949851900245
-3.902,0.2594980573562781,1.00877060618122
-3.9015,0.3661998059331045,1.188913459069066
-3.901,0.3982103305061524,1.220703374284568
-3.9005,0.3875401556484697,1.178316820663898
-3.9,0.3661998059331045,1.093543713422559
-3.8995,0.3448594562177392,0.9981739677760521
-3.899,0.3341892813600565,0.92399749893988
-3.8985,0.3341892813600565,0.849821030103708
-3.898,0.3235191065023739,0.7650479228623686
-3.8975,0.2594980573562781,0.5107286011383502
-3.897,0.1527963087794516,0.002089957690313421
-3.8965,-0.1139580626626144,-0.7396747306714069
-3.896,-0.3060212101009019,-1.216523458903942
-3.8955,-0.2526703358124887,-0.9516074987747555
-3.895,-0.124628237520297,-0.4111789401112165
-3.8945,0.03542438534494258,-0.05089323433552374
-3.894,0.1954770082101822,0.1080563417419877
-3.8935,0.04609456020262521,-0.04029659593035631
-3.893,-0.391382608962363,-0.4853554089473885
-3.8925,-0.3166913849585846,-0.474758770542221
-3.892,-0.1673089369510276,-0.326405832869877
-3.8915,0.03542438534494258,-0.1568596183871981
-3.891,0.2488278824985954,0.04447651131098315
-3.8905,0.3235191065023739,0.1186529801471552
-3.89,0.3235191065023739,0.1822328105781598
-3.8895,0.3555296310754218,0.2987958330350016
-3.889,0.7716664505250448,0.6166949851900245
-3.8885,1.091771696255524,0.1928294489833272
-3.888,0.5369226036560266,-0.8350444763179138
-3.8875,-0.3166913849585846,-1.650985633515806
-3.887,-0.6261264558313813,-1.545019249464132
-3.8865,-0.4660738329661415,-0.7396747306714069
-3.886,-0.1779791118087102,0.08686306493165288
