Class_9_Think_Grab_one_hand_movement/Class_9_Think_Right_hand_Grab_Basim_4.csv

#Digilent WaveForms Oscilloscope Acquisition
#Device Name: EExplorer
#Serial Number: SN:210151A2B84A
#Date Time: 2020-12-13 12:27:27.584
#Sample rate: 2000Hz
#Samples: 16384
#Trigger: Source: Channel 1 Type: Edge Condition: Rising Level: 0 V Hyst.: Auto HoldOff: 0 s
#Channel 1: Range: 1 V/div Offset: 0 V Attenuation: 1 X
#Channel 2: Range: 1 V/div Offset: 0 V Attenuation: 1 X
#Power Supplies: ON
#Fixed Supply: ON
#Voltage: 3.3 V Readback: 3.325 V
#Positive Supply: ON
#Voltage: 3.7 V Readback: 3.707 V
#Current: 40 mA Readback: 21 mA
#Negative Supply: ON
#Voltage: -3.7 V Readback: -3.356 V
#Current: -40 mA Readback: -8 mA
#Reference 1: ON
#Voltage: 0 V
#Reference 2: ON
#Voltage: 0 V

Time (s),Channel 1 (V),Channel 2 (V)
-4.096,0.3768699807907871,-1.968884785670829
-4.0955,0.3661998059331142,-1.841725124808936
-4.095,0.3341892813600177,-1.089363798041286
-4.0945,0.291508581929326,-0.3793890248957141
-4.094,0.2274875327832883,0.1080563417415444
-4.0935,0.1634664836370761,0.2776025562246859
-4.093,0.09944543449103843,0.2987958330350016
-4.0925,0.06743490991801962,0.2564092794143703
-4.092,-0.01792648894348033,0.4471487707073359
-4.0915,-0.02859666380115328,0.4365521323021782
-4.091,-0.007256314085787988,0.3305857482505039
-4.0905,0.01408403562953848,0.2458126410092126
-4.09,-0.02859666380115328,0.2987958330350016
-4.0895,-0.1993194615240755,0.4365521323021782
-4.089,-0.7328282044077222,0.06566978812165536
-4.0885,-1.373038695869166,-0.6549016234300674
-4.088,-1.949228138184029,-1.290699927740113
-4.0875,-2.440056181636984,-1.682775548730952
-4.087,-2.013249187329377,-1.343683119765218
-4.0865,-1.191645723288561,-0.5383386009732256
-4.086,-0.540765056970512,0.2246193641981356
-4.0855,-0.103287887804728,0.7544512844574806
-4.085,0.1207857842064037,1.061753798207057
-4.0845,0.2061471830677872,1.199510097474108
-4.084,0.2061471830678454,1.220703374284529
-4.0835,0.1848068333524996,1.178316820663898
-4.083,0.1634664836371343,1.093543713422559
-4.0825,0.152796308779471,0.9239974989396873
-4.082,0.1741366584948169,0.7120647308365314
-4.0815,0.1954770082101822,0.5425185163538525
-4.081,0.579603303086408,0.02328323450112058
-4.0805,1.091771696255524,-0.7396747306714069
-4.08,0.6969752265212663,-1.396666311791788
-4.0795,0.01408403563019833,-1.926498232049677
-4.079,-0.07127736323177708,-2.021867977695992
-4.0785,0.04609456020262521,-1.280103289334946
-4.078,0.1741366584947004,-0.4959520473532691
-4.0775,0.2381577076409322,0.02328323450086031
-4.077,0.2594980573562781,0.2564092794143318
-4.0765,0.2381577076409322,0.2776025562246474
-4.076,0.1848068333526548,0.2140227257937874
-4.0755,0.3555296310754218,0.3517790250608387
-4.075,0.5049120790829789,0.457745409112513
-4.0745,0.4515612047944394,0.3411823866555556
-4.074,0.3128489316446912,0.2140227257936621
-4.0735,0.1207857842064037,0.2564092794143318
-4.073,-0.09261771294705504,0.4259554938968565
-4.0725,-0.5834457564006506,0.3517790250608387
-4.072,-1.180975548430879,-0.2946159176543747
-4.0715,-1.597112367880123,-1.025783967610262
-4.071,-1.949228138183825,-1.555615887869155
-4.0705,-1.725154466172693,-1.396666311791788
-4.07,-1.084943974712317,-0.6549016234307421
-4.0695,-0.5194247072541958,0.09745970333732147
-4.069,-0.124628237520297,0.6484849004055269
-4.0685,0.09944543449103843,0.9875773293708847
-4.068,0.184806833352519,1.157123543853621
-4.0675,0.2061471830678648,1.220703374284568
-4.067,0.1848068333524996,1.210106735879401
-4.0665,0.1634664836371246,1.125333628637965
-4.066,0.1527963087794516,1.019367244586387
-4.0655,0.142126133921769,0.8922075837243778
-4.065,0.2061471830678066,0.6378882620005908
-4.0645,0.5049120790829789,0.1610395337678249
-4.064,1.145122570543937,-0.5807251545938954
-4.0635,1.134452395686264,-1.269506650929152
-4.063,0.3021787567865428,-1.83112848640372
-4.0625,-0.2099896363817582,-1.905304955239825
-4.062,-0.2099896363817582,-1.322489842956146
-4.0615,-0.06060718837408473,-0.6231117082140543
-4.061,0.0674349099179905,-0.06148987274069118
-4.0605,0.142126133921769,0.1928294489833272
-4.06,0.1741366584948072,0.2352160026039391
-4.0595,0.1634664836371343,0.1716361721729923
-4.059,0.1314559590640864,0.2352160026039969
-4.0585,0.04609456020270285,0.4365521323019951
-4.058,0.02475421048725994,0.3941655786815084
-4.0575,0.04609456020262521,0.2670059178194992
-4.057,0.05676473506029815,0.1928294489833947
-4.0565,-0.03926683865883591,0.3623756634660061
-4.056,-0.2846808603855366,0.7438546460520338
-4.0555,-0.9142211769882399,1.178316820663503
-4.055,-1.46907026958865,0.6484849004046691
-4.0545,-1.842526389607202,-0.2946159176543747
-4.054,-2.109280761049026,-1.015187329205105
-4.0535,-1.607782542737563,-0.9410108603690581
-4.053,-0.9248913518464952,-0.3581957480853793
-4.0525,-0.3807124341046804,0.2458126410091644
-4.052,-0.02859666380099801,0.7226613692419688
-4.0515,0.142126133921769,1.019367244586387
-4.051,0.2061471830678648,1.167720182258731
-4.0505,0.2061471830678648,1.231300012689678
-4.05,0.1848068333524996,1.220703374284568
-4.0495,0.1634664836371343,1.146526905448396
-4.049,0.1848068333524802,0.9345941373452402
-4.0485,0.1954770082102889,0.8180311148879745
-4.048,0.3128489316446912,0.5637117931641874
-4.0475,0.9210488985320486,-0.1144730647659115
-4.047,1.273164668835683,-0.866834391534004
-4.0465,0.7823366253827275,-1.51322933424863
-4.046,0.2808384070720994,-2.032464616101361
-4.0455,0.2594980573562975,-2.021867977696001
-4.045,0.2808384070716433,-1.290699927740113
-4.0445,0.2701682322139607,-0.6972881770507372
-4.044,0.2381577076408739,-0.2416327256283062
-4.0435,0.1954770082101822,0.01268659609548085
-4.043,0.1634664836371343,0.1186529801471552
-4.0425,0.1314559590641155,0.1504428953626286
-4.042,-0.01792648894347063,0.4047622170866759
-4.0415,-0.06060718837420119,0.4259554938970107
-4.041,-0.02859666380118239,0.309392471440275
-4.0405,0.01408403562949966,0.2034260873886296
-4.04,-0.07127736323188383,0.3517790250608387
-4.0395,-0.2526703358123237,0.5743084315691525
-4.039,-0.796849253554711,0.2034260873878104
-4.0385,-1.244996597576974,-0.5489352393783931
-4.038,-1.522421143876471,-1.195330182093019
-4.0375,-1.767835165603288,-1.608599079894934
-4.037,-1.618452717595867,-1.38606967338662
-4.0365,-1.042263275281004,-0.6231117082145651
-4.036,-0.4980843575388401,0.1186529801476467
-4.0355,-0.1139580626626144,0.6590815388106942
-4.035,0.09944543449103843,0.9663840525605498
-4.0345,0.1848068333524219,1.104140351827601
-4.034,0.2061471830678648,1.135930267043229
-4.0335,0.1954770082101822,1.093543713422559
-4.033,0.1741366584948363,0.9875773293709811
-4.0325,0.1741366584948266,0.7968378380776782
-4.032,0.1848068333524996,0.5849050699745222
-4.0315,0.2488278824985372,0.3623756634662085
-4.031,0.600943652802734,-0.1674562567930112
-4.0305,1.273164668836129,-0.8774310299385835
-4.03,1.337185717982167,-1.502632695842893
-4.0295,0.6329541773748212,-1.979481424075939
-4.029,0.2488278824985954,-1.915901593644992
-4.0285,0.142126133921769,-1.269506650929778
-4.028,0.1101156093487114,-0.5913217929986002
-4.0275,0.09944543449103843,-0.08268314955102604
-4.027,0.09944543449103843,0.2246193641988295
-4.0265,0.09944543449103843,0.3093924714400919
-4.026,0.1101156093487211,0.2776025562246667
-4.0255,0.03542438534494258,0.4047622170866759
-4.025,-0.02859666380109505,0.4683420475176227
-4.0245,-0.0179264889434221,0.3729723018710676
-4.024,0.03542438534494258,0.2564092794143318
-4.0235,0.0140840356295967,0.2776025562246474
-4.023,-0.08194753809000319,0.4259554938974637
-4.0225,-0.5621054066852853,0.92399749893988
-4.022,-1.180975548430316,0.8180311148883022
-4.0215,-1.661133417026966,-0.01910331912078281
-4.021,-2.066600061618538,-0.8562377531282487
-4.0205,-2.109280761049269,-1.269506650929778
-4.02,-1.426389570156958,-0.8880276683431437
-4.0195,-0.7434983792658902,-0.2204394488182027
-4.019,-0.2420001609548061,0.3729723018711736
-4.0185,0.04609456020236319,0.7862411996723275
-4.018,0.1848068333524996,1.019367244586387
-4.0175,0.2168173579255475,1.114736990232894
-4.017,0.2061471830678746,1.146526905448367
-4.0165,0.1848068333524802,1.104140351827669
-4.016,0.1634664836371343,1.040560521396722
-4.0155,0.1527963087794613,0.9345941373451438
-4.015,0.1741366584948266,0.7756445612673818
-4.0145,0.1848068333524996,0.6060983467848571
-4.014,0.4622313796519959,0.002089957690862732
-4.0135,0.7716664505246857,-0.7820612842926741
-4.013,0.3768699807907871,-1.439052865412457
-4.0125,0.2168173579255475,-1.873515040024322
-4.012,0.3021787567870377,-1.650985633515228
-4.0115,0.3341892813600565,-1.01518732920576
-4.011,0.3341892813600565,-0.4217755785163839
-4.0105,0.2915085819293648,0.03387987290540134
-4.01,0.2488278824985954,0.2564092794143318
-4.0095,0.2061471830678648,0.309392471440169
-4.009,0.1101156093488084,0.3411823866556423
-4.0085,-0.0606071883742206,0.4895353243279479
-4.008,-0.08194753808956648,0.4153588554918433
-4.0075,-0.03926683865887473,0.2670059178196341
-4.007,0.003413860771846128,0.2140227257937874
-4.0065,-0.04993701351651855,0.3517790250608387
-4.006,-0.3166913849585846,0.6908714540261965
-4.0055,-0.9355615267047308,0.8286277532927371
-4.005,-1.543761493592088,0.1292496185523226
-4.0045,-2.19464215991073,-0.7290780922662394
-4.004,-2.418715831921385,-1.248313374119183
-4.0035,-1.67180359188428,-0.9622041371799229
-4.003,-0.9035510021311299,-0.3052125560595421
-4.0025,-0.3273615598167913,0.3199891098447677
-4.002,0.02475421048725994,0.7650479228623686
-4.0015,0.1848068333524996,1.019367244586387
-4.001,0.2381577076408642,1.14652690544828
-4.0005,0.227487532783201,1.178316820663869
-4,0.1954770082101822,1.146526905448396
-3.9995,0.1741366584948169,1.040560521396722
-3.999,0.1741366584948169,0.8604176685088755
-3.9985,0.2381577076409128,0.5849050699745222
-3.998,0.4195506802215176,0.2034260873884947
-3.9975,1.006410297394063,-0.4323722169215513
-3.997,1.507908515705147,-1.121153713257435
-3.9965,1.113112045970889,-1.703968825541643
-3.996,0.6329541773751706,-2.032464616101834
-3.9955,0.5582629533713921,-1.746355379162313
-3.995,0.4729015545099309,-1.046977244421262
-3.9945,0.3555296310754218,-0.4429688553267188
-3.994,0.2381577076409128,-0.01910331912002144
-3.9935,0.1634664836371343,0.1928294489833272
-3.993,0.142126133921769,0.2458126410091644
-3.9925,0.1101156093487211,0.2246193641988295
-3.992,0.00341386077189465,0.3941655786815084
-3.9915,-0.02859666380115328,0.383568940276341
-3.991,0.00341386077189465,0.2564092794143318
-3.9905,0.03542438534494258,0.1610395337678249
-3.99,0.05676473506030786,0.1504428953626575
-3.9895,-0.08194753808956648,0.2670059178194992
-3.989,-0.6367966306890638,-0.04029659593035631
-3.9885,-1.255666772434657,-0.7078848154559045
-3.988,-1.757164990745741,-1.311893204550448
-3.9875,-2.119950935906951,-1.629792356705471
-3.987,-1.639793067311232,-1.163540266878104
-3.9865,-0.9462317015618604,-0.3687923864905467
-3.986,-0.391382608962363,0.3305857482505039
-3.9855,-0.02859666380115328,0.8074344764830383
-3.985,0.1527963087794516,1.072350436612224
-3.9845,0.2168173579255475,1.188913459069066
-3.984,0.2274875327832301,1.199510097474233
-3.9835,0.2061471830678648,1.157123543853563
-3.983,0.1848068333524996,1.040560521396722
-3.9825,0.1741366584948169,0.8604176685088755
-3.982,0.1848068333524996,0.6908714540261965
-3.9815,0.2168173579255475,0.5001319627331828
-3.981,0.4942419042252961,0.09745970333682032
-3.9805,0.9210488985326017,-0.5913217929990628
-3.98,0.6222840025174878,-1.237716735714276
-3.9795,-0.02859666380115328,-1.75695201756748
-3.979,-0.1032878878049318,-1.968884785670829
-3.9785,0.04609456020262521,-1.396666311791788
-3.978,0.1634664836371343,-0.792657922697244
-3.9775,0.2274875327832301,-0.3158091944647096
-3.977,0.2168173579255475,0.03387987290581572
-3.9765,0.1848068333524996,0.2352160026039969
-3.976,0.1634664836371343,0.2564092794143318
-3.9755,0.2488278824985954,0.4047622170866759
-3.975,0.3128489316446912,0.5213252395435176
-3.9745,0.2808384070716433,0.4153588554918433
-3.974,0.2168173579255475,0.309392471440169
-3.9735,0.1314559590640864,0.2670059178194992
-3.973,0.01408403562957729,0.309392471440169
-3.9725,-0.4020527838200457,0.1716361721729923
-3.972,-1.074273799854052,-0.4641621321370536
-3.9715,-1.703814116457328,-1.142346990067769
-3.971,-2.23732285934146,-1.661582271920973
-3.9705,-2.205312334768412,-1.693372187136476
-3.97,-1.415719395299897,-0.9516074987747555
-3.9695,-0.7114878546928423,-0.1568596183871981
-3.969,-0.2099896363817582,0.457745409112513
-3.9685,0.07810508477567314,0.8392243916985406
-3.968,0.2061471830678648,1.029963882991555
-3.9675,0.2381577076409128,1.082947075017392
-3.967,0.2274875327832301,1.072350436612224
-3.9665,0.1954770082101822,0.9875773293708847
-3.966,0.1954770082101822,0.8180311148882058
-3.9655,0.2061471830678648,0.6060983467848571
-3.965,0.2488278824985954,0.3729723018711736
-3.9645,0.4195506802215176,0.03387987290581572
-3.964,0.9637295979633325,-0.570128516188728
-3.9635,1.123782220828572,-1.205926820498774
-3.963,0.5689331282290746,-1.714565463946811
-3.9625,0.3448594562177392,-1.88411167842949
-3.962,0.3555296310754218,-1.449649503817625
-3.9615,0.3341892813600565,-0.8244478379127463
-3.961,0.3021787567870086,-0.3158091944647096
-3.9605,0.2594980573562781,0.01268659609548085
-3.96,0.1954770082101822,0.1928294489833272
-3.9595,0.1527963087794516,0.2352160026039969
-3.959,0.1101156093487211,0.309392471440169
-3.9585,-0.01792648894347063,0.5319218779486851
-3.958,-0.02859666380115328,0.5001319627331828
-3.9575,0.00341386077189465,0.4047622170866759
-3.957,0.03542438534494258,0.3411823866556712
-3.9565,-0.007256314085787988,0.4047622170866759
-3.956,-0.3166913849585846,0.6908714540261965
-3.9555,-0.9889124009925911,0.5637117931641874
-3.955,-1.51175096901904,-0.1886495336027004
-3.9545,-1.83185621474952,-0.9728007755850904
-3.954,-2.055929886760855,-1.47084278062796
-3.9535,-1.575772018165136,-1.184733543688439
-3.953,-0.9035510021311299,-0.474758770542221
-3.9525,-0.3593720843893152,0.1928294489833272
-3.952,-0.007256314085787988,0.6696781772158616
-3.9515,0.1634664836371343,0.9451907757502149
-3.951,0.2274875327832301,1.072350436612224
-3.9505,0.2274875327832301,1.093543713422559
-3.95,0.2061471830678648,1.061753798207057
-3.9495,0.1954770082101822,0.9451907757502149
-3.949,0.1954770082101822,0.7650479228623686
-3.9485,0.4302208550792003,0.3623756634660061
-3.948,0.8356874996711408,-0.1250697031716958
-3.9475,1.283834843693812,-0.6443049850249
-3.947,1.315845368266859,-1.237716735714276
-3.9465,0.4835717293676135,-1.767548655972648
-3.946,-0.03926683865883591,-2.138431000153508
-3.9455,0.142126133921769,-2.021867977696666
-3.945,0.3448594562177392,-1.269506650929778
-3.9445,0.3982103305061524,-0.5383386009732256
-3.944,0.3661998059331045,0.04447651131098315
-3.9435,0.291508581929326,0.309392471440169
-3.943,0.2274875327832301,0.3623756634660061
-3.9425,0.1741366584948169,0.3305857482505039
-3.942,0.05676473506030786,0.5425185163538525
-3.9415,-0.007256314085787988,0.5637117931641874
-3.941,0.00341386077189465,0.4153588554918433
-3.9405,0.03542438534494258,0.2881991946298341
-3.94,0.01408403562957729,0.2987958330350016
-3.9395,-0.156638762093345,0.4789386859228479
-3.939,-0.722158029550525,0.2246193641988295
-3.9385,-1.298347471865388,-0.4959520473525559
-3.938,-1.703814116457328,-1.174136905283272
-3.9375,-2.07727023647622,-1.629792356705471
-3.937,-1.778505340461106,-1.38606967338662
-3.9365,-1.095614149569417,-0.6125150698093976
-3.936,-0.4874141826815069,0.1292496185523226
-3.9355,-0.08194753808956648,0.6590815388106942
-3.935,0.142126133921769,0.9769806909657173
-3.9345,0.2274875327832301,1.114736990232894
-3.934,0.2381577076409128,1.135930267043229
-3.9335,0.2168173579255475,1.104140351827727
-3.933,0.1954770082101822,1.00877060618122
-3.9325,0.1848068333524996,0.8816109453192104
-3.932,0.1848068333524996,0.7438546460520338
-3.9315,0.4835717293676135,0.2776025562246667
-3.931,1.187803269974668,-0.5065486857577234
-3.9305,1.945385684870135,-1.237716735714276
-3.93,2.244150580885249,-1.84172512480882
-3.9295,1.76399271228953,-2.191414192179345
-3.929,1.35852606769759,-2.138431000153508
-3.9285,0.9530594231056497,-1.481439419033127
-3.928,0.5902734779444399,-0.7502713690765743
-3.9275,0.3555296310754218,-0.1992461720078678
-3.927,0.2274875327832301,0.13984625695749
-3.9265,0.1634664836371343,0.2881991946298341
-3.926,0.1207857842064037,0.2987958330350016
-3.9255,0.02475421048725994,0.4259554938970107
-3.925,-0.08194753808956648,0.5213252395435176
-3.9245,-0.06060718837420119,0.4153588554918433
-3.924,-0.007256314085787988,0.2881991946298341
-3.9235,0.02475421048725994,0.2564092794143318
-3.923,-0.1673089369510276,0.5637117931641874
-3.9225,-0.7861790786966207,0.7650479228623686
-3.922,-1.490410619303675,0.1292496185523226
-3.9215,-1.970568487899394,-0.7078848154559045
-3.921,-2.269333383914508,-1.375473034981453
-3.9205,-2.183971985053047,-1.598002441489969
-3.92,-1.415719395299897,-1.004590690800593
-3.9195,-0.7114878546928423,-0.2310360872233701
-3.919,-0.2099896363817582,0.3941655786815084
-3.9185,0.07810508477567314,0.8180311148882058
-3.918,0.2061471830678648,1.029963882991555
-3.9175,0.2381577076409128,1.125333628638062
-3.917,0.2274875327832301,1.125333628638062
-3.9165,0.2061471830678648,1.061753798207057
-3.916,0.1848068333524996,0.9557874141553824
-3.9155,0.1848068333524996,0.8180311148882058
-3.915,0.1954770082101822,0.6696781772158616
-3.9145,0.4302208550792003,0.2564092794143318
-3.914,1.113112045970889,-0.5171453241628908
-3.9135,1.294505018551494,-1.237716735714276
-3.913,0.6222840025174878,-1.809935209593318
-3.9125,0.2808384070716433,-2.117237723343173
-3.912,0.2808384070716433,-1.555615887869299
-3.9115,0.2808384070716433,-0.7502713690765743
-3.911,0.2808384070716433,-0.1356663415768632
-3.9105,0.2381577076409128,0.2246193641988295
-3.91,0.1634664836371343,0.383568940276341
-3.9095,0.1207857842064037,0.3623756634660061
-3.909,0.08877525963335578,0.3729723018711736
-3.9085,-0.007256314085787988,0.5637117931641874
-3.908,-0.01792648894347063,0.5107286011383502
-3.9075,0.01408403562957729,0.383568940276341
-3.907,0.03542438534494258,0.2776025562246667
-3.9065,-0.07127736323188383,0.4365521323021782
-3.906,-0.5621054066852853,0.9875773293708847
-3.9055,-1.202315898146244,1.326669758336243
-3.905,-1.629122892453549,0.6590815388106942
-3.9045,-1.991908837614759,-0.3370024712750445
-3.904,-2.205312334768412,-1.068170521231597
-3.9035,-1.607782542738184,-0.9728007755850904
-3.903,-0.8928808272734472,-0.3899856633008816
-3.9025,-0.3380317346739499,0.2246193641988295
-3.902,0.01408403562957729,0.6908714540261965
-3.9015,0.1848068333524996,0.9769806909657173
-3.901,0.2381577076409128,1.114736990232894
-3.9005,0.2381577076409128,1.167720182258731
-3.9,0.2168173579255475,1.157123543853563
-3.8995,0.1848068333524996,1.104140351827727
-3.899,0.1741366584948169,1.029963882991555
-3.8985,0.1954770082101822,0.8816109453192104
-3.898,0.2488278824985954,0.6484849004055269
-3.8975,0.5369226036560266,0.13984625695749
-3.897,0.857027849386506,-0.6443049850249
-3.8965,0.707645401378949,-1.311893204550448
-3.896,0.4622313796522482,-1.820531847998485
-3.8955,0.6222840025174878,-2.106641084938006
-3.895,0.707645401378949,-1.566212526274467
-3.8945,0.6329541773751706,-0.8244478379127463
-3.894,0.4835717293676135,-0.3475991096802118
-3.8935,0.3448594562177392,-0.04029659593035631
-3.893,0.2381577076409128,0.1186529801471552
-3.8925,0.1634664836371343,0.1928294489833272
-3.892,0.05676473506030786,0.4471487707073456
-3.8915,0.00341386077189465,0.5107286011383502
-3.891,0.02475421048725994,0.383568940276341
-3.8905,0.04609456020262521,0.2670059178194992
-3.89,-0.1352984123779797,0.6060983467848571
-3.8895,-0.4767440078238243,1.188913459069066
-3.889,-0.9569018764195432,1.580989080060261
-3.8885,-1.458400094730627,1.00877060618122
-3.888,-1.799845690176472,-0.05089323433552374
-3.8875,-2.066600061618538,-0.9622041371799229
-3.887,-1.735824641030376,-1.184733543688439
-3.8865,-1.06360362499637,-0.6866915386455698
-3.886,-0.4660738329661415,-0.04029659593035631
