Class_9_Think_Grab_one_hand_movement/Class_9_Think_Right_hand_Grab_Zakour_11.csv

#Digilent WaveForms Oscilloscope Acquisition
#Device Name: EExplorer
#Serial Number: SN:210151A2B84A
#Date Time: 2021-02-03 11:18:54.955
#Sample rate: 2000Hz
#Samples: 16384
#Trigger: Source: Channel 1 Type: Edge Condition: Rising Level: 0 V Hyst.: Auto HoldOff: 0 s
#Channel 1: Range: 1 V/div Offset: 0 V Attenuation: 1 X
#Channel 2: Range: 1 V/div Offset: 0 V Attenuation: 1 X
#Power Supplies: ON
#Fixed Supply: ON
#Voltage: 3.3 V Readback: 3.324 V
#Positive Supply: ON
#Voltage: 3.7 V Readback: 3.71 V
#Current: 40 mA Readback: 18 mA
#Negative Supply: ON
#Voltage: -3.7 V Readback: -3.363 V
#Current: -40 mA Readback: 0 A
#Reference 1: ON
#Voltage: 0 V
#Reference 2: ON
#Voltage: 0 V

Time (s),Channel 1 (V),Channel 2 (V)
-4.096,0.7396559259519968,-0.8562377531282487
-4.0955,0.7076454013789781,-0.5383386009735147
-4.095,0.6009436528021032,-0.3264058328697999
-4.0945,0.5796033030867573,-0.2416327256285375
-4.094,0.6969752265211595,-0.2204394488182219
-4.0935,0.654294527090429,-0.1992461720078293
-4.093,0.5369226036560266,-0.1568596183871981
-4.0925,0.4195506802216244,-0.06148987274077791
-4.092,0.3235191065022477,0.05507314971637225
-4.0915,0.1848068333524996,0.2987958330350016
-4.091,-0.3807124341046804,0.4259554938970107
-4.0905,-0.9569018764198828,-0.1144730647671162
-4.09,-1.330357996438436,-0.7608680074817418
-4.0895,-1.746494815888059,-1.227120097309109
-4.089,-1.671803591884348,-1.142346990067846
-4.0885,-1.06360362499637,-0.4217755785163839
-4.088,-0.4767440078238243,0.3623756634660061
-4.0875,-0.0392668386592338,0.9663840525600005
-4.087,0.1954770082102792,1.347863035146761
-4.0865,0.3021787567870086,1.549199164844759
-4.086,0.3235191065023544,1.602182356870548
-4.0855,0.3021787567869698,1.55979580324982
-4.085,0.2594980573562781,1.443232780793084
-4.0845,0.2168173579255863,1.305476481526033
-4.084,0.1954770082101628,1.114736990232692
-4.0835,0.1741366584948169,0.8922075837243778
-4.083,-0.1993194615240755,0.3199891098453364
-4.0825,-0.7648387289814496,-0.4959520473531727
-4.082,-0.9782422261349084,-1.174136905283272
-4.0815,-0.8928808272734472,-1.619195718300304
-4.081,-0.3807124341051462,-1.58740580308483
-4.0805,0.1954770082101822,-1.184733543688439
-4.08,0.5796033030867573,-0.8880276683437509
-4.0795,0.7396559259518513,-0.5913217929993326
-4.079,0.7183155762365442,-0.3899856633007756
-4.0785,0.6222840025174878,-0.2734226408440398
-4.078,0.5369226036561042,-0.2098428104130931
-4.0775,0.7076454013789781,-0.3475991096802118
-4.077,0.7396559259519968,-0.3475991096802118
-4.0765,0.6116138276599216,-0.2098428104131605
-4.076,0.4729015545098241,-0.008506680714680536
-4.0755,0.3555296310754218,0.1822328105781598
-4.075,0.291508581929326,0.4047622170866759
-4.0745,0.01408403562903384,0.7544512844568735
-4.074,-0.5834457564006506,0.3941655786815084
-4.0735,-1.031593100423322,-0.3370024712750445
-4.073,-1.469070269587912,-0.9622041371793543
-4.0725,-1.767835165603424,-1.237716735714276
-4.072,-1.351698346153801,-0.7608680074817418
-4.0715,-0.7328282044087704,0.02328323449993508
-4.071,-0.2206598112391497,0.7014680924317784
-4.0705,0.09944543449103843,1.157123543853563
-4.07,0.2701682322138054,1.400846227172193
-4.0695,0.3235191065023739,1.485619334413735
-4.069,0.3235191065023739,1.464426057603419
-4.0685,0.291508581929326,1.37965295036208
-4.068,0.259498057356249,1.231300012689562
-4.0675,0.2274875327832301,1.040560521396722
-4.067,0.2061471830678648,0.8392243916985406
-4.0665,0.03542438534443795,0.4789386859221733
-4.066,-0.5194247072545548,-0.2628260024388724
-4.0655,-0.9035510021311299,-0.9939940523954253
-4.065,-0.9995825758501863,-1.598002441489419
-4.0645,-0.5834457564006506,-2.011271339291499
-4.064,0.04609456020262521,-2.064254531317336
-4.0635,0.5262524287979075,-1.682775548731655
-4.063,0.7609962756673719,-1.089363798041547
-4.0625,0.7716664505250448,-0.6654982618352349
-4.062,0.6649647019483154,-0.3793890248959744
-4.0615,0.5582629533714503,-0.1886495336027678
-4.061,0.6222840025174878,-0.2628260024388724
-4.0605,0.7396559259519968,-0.3793890248957141
-4.06,0.6542945270904194,-0.2628260024387182
-4.0595,0.5262524287983441,-0.09327978795619347
-4.059,0.408880505363835,0.09745970333682032
-4.0585,0.3235191065024515,0.267005917819345
-4.058,0.3875401556484697,0.6166949851900245
-4.0575,0.291508581929326,0.6908714540261965
-4.057,-0.2526703358119938,0.05507314971672883
-4.0565,-0.9035510021311299,-0.6654982618352349
-4.056,-1.501080794161358,-1.152943628472937
-4.0555,-1.43705974501532,-0.9622041371800965
-4.055,-0.9142211769883369,-0.2416327256278726
-4.0545,-0.391382608962363,0.4895353243280153
-4.054,-0.007256314086137361,1.029963882991063
-4.0535,0.2061471830679522,1.35845967355188
-4.053,0.3021787567870086,1.506812611224089
-4.0525,0.3128489316446912,1.528005888034424
-4.052,0.2915085819292872,1.453829419198127
-4.0515,0.2488278824985954,1.316073119931075
-4.051,0.2168173579255475,1.157123543853563
-4.0505,0.2061471830678746,0.9769806909658811
-4.05,0.142126133921769,0.7120647308365314
-4.0495,-0.3060212101009019,0.03387987290581572
-4.049,-0.7114878546924734,-0.7608680074810189
-4.0485,-0.8928808272732822,-1.34368311976596
-4.048,-0.7114878546928423,-1.354279758171118
-4.0475,-0.1673089369515226,-1.131750351662804
-4.047,0.334189281360338,-0.9516074987746013
-4.0465,0.6436243522328531,-0.7820612842920766
-4.046,0.7289857510942367,-0.6125150698095518
-4.0455,0.6863050516634868,-0.4323722169214453
-4.045,0.5796033030867573,-0.3158091944647096
-4.0445,0.5582629533713921,-0.3052125560595421
-4.044,0.7076454013789102,-0.4111789401111297
-4.0435,0.6649647019482183,-0.3158091944647096
-4.043,0.5369226036560266,-0.1038764263613609
-4.0425,0.4195506802216244,0.1292496185521106
-4.042,0.3235191065023739,0.3305857482505039
-4.0415,0.3661998059331045,0.6166949851900245
-4.041,0.5689331282288902,0.9239974989396005
-4.0405,0.07810508477506176,0.4047622170860109
-4.04,-0.5941159312583333,-0.326405832869877
-4.0395,-1.266336947291729,-0.8562377531277668
-4.039,-1.746494815887768,-1.110557074851853
-4.0385,-1.426389570157579,-0.6549016234300674
-4.038,-0.8181896032702218,0.09745970333613607
-4.0375,-0.2953510352428991,0.7650479228627733
-4.037,0.05676473506030786,1.210106735879401
-4.0365,0.2488278824985954,1.453829419198252
-4.036,0.3128489316446912,1.528005888034385
-4.0355,0.3128489316446912,1.485619334413754
-4.035,0.2701682322139607,1.358459673551745
-4.0345,0.2381577076409419,1.199510097474378
-4.034,0.2061471830678648,1.00877060618122
-4.0335,0.1954770082101822,0.7968378380778709
-4.033,-0.113958062662333,0.3199891098457701
-4.0325,-0.6794773301201533,-0.4641621321376993
-4.032,-1.074273799854052,-1.174136905283272
-4.0315,-1.052933450138706,-1.56621252627411
-4.031,-0.4233931335348093,-1.756952017567317
-4.0305,0.2381577076409128,-1.576809164679634
-4.03,0.6649647019478302,-1.174136905283638
-4.0295,0.8250173248134289,-0.7926579226969741
-4.029,0.79300680024041,-0.4959520473525559
-4.0285,0.6756348768059011,-0.3370024712750445
-4.028,0.5582629533715182,-0.2204394488180966
-4.0275,0.6969752265212663,-0.1038764263613609
-4.027,0.6969752265212663,-0.06148987274069118
-4.0265,0.5796033030868641,-0.04029659593037559
-4.026,0.4408910299368829,0.002089957690313421
-4.0255,0.3448594562177392,0.07626642652648545
-4.025,0.2915085819293745,0.2140227257935368
-4.0245,0.1848068333520823,0.563711793163908
-4.024,-0.274010685527854,0.2564092794143318
-4.0235,-0.6688071552617527,-0.4111789401106093
-4.023,-1.020922925566037,-0.6443049850251024
-4.0225,-1.458400094730627,-0.8668343915334161
-4.022,-1.341028171296225,-0.7290780922663647
-4.0215,-0.828859778126905,-0.1568596183866487
-4.021,-0.3380317346739499,0.4471487707073456
-4.0205,0.01408403562957729,0.9134008605347127
-4.02,0.2168173579256251,1.220703374284722
-4.0195,0.3021787567870086,1.390249588767247
-4.019,0.3021787567870086,1.453829419198252
-4.0185,0.2808384070716627,1.443232780793094
-4.018,0.2488278824985954,1.37965295036208
-4.0175,0.2274875327832301,1.263089927905238
-4.017,0.2061471830678842,1.114736990233029
-4.0165,0.04609456020211088,0.7756445612668518
-4.016,-0.5194247072545548,0.02328323450064829
-4.0155,-0.8822106524154345,-0.7290780922655552
-4.015,-0.9889124009921738,-1.290699927740383
-4.0145,-0.5300948821122373,-1.587405803084801
-4.014,0.08877525963279287,-1.682775548731221
-4.0135,0.5582629533715862,-1.280103289334473
-4.013,0.7716664505250448,-0.7608680074817418
-4.0125,0.7823366253827275,-0.4111789401112165
-4.012,0.6863050516634577,-0.2204394488181545
-4.0115,0.5475927785137094,-0.1674562567923655
-4.011,0.5796033030867573,-0.02969995752518888
-4.0105,0.6756348768058137,0.129249618552178
-4.01,0.6009436528021226,0.06566978812131802
-4.0095,0.4729015545099309,0.002089957690313421
-4.009,0.3661998059332015,0.002089957690313421
-4.0085,0.3021787567867951,0.06566978812155896
-4.008,0.0674349099179905,0.3305857482505039
-4.0075,-0.6154562809730775,0.2352160026040837
-4.007,-1.234326422719651,-0.3475991096806262
-4.0065,-1.629122892453549,-0.8032545611024114
-4.006,-2.066600061618538,-1.089363798041932
-4.0055,-1.949228138183359,-0.9939940523947989
-4.005,-1.212986073003927,-0.3052125560595421
-4.0045,-0.5407650569699201,0.4789386859228479
-4.004,-0.07127736323164122,1.093543713422906
-4.0035,0.1954770082101822,1.475022696008586
-4.003,0.3128489316446912,1.655165548896433
-4.0025,0.3341892813600371,1.686955464111906
-4.002,0.3128489316446912,1.623375633680931
-4.0015,0.2594980573562781,1.475022696008586
-4.001,0.2168173579255863,1.284283204715746
-4.0005,0.1954770082101434,1.072350436611955
-4,0.1527963087794516,0.775644561267536
-3.9995,-0.274010685527854,0.06566978812131802
-3.999,-0.722158029550525,-0.7290780922662394
-3.9985,-1.042263275281004,-1.364876396576285
-3.998,-0.8715404775580819,-1.333086481360783
-3.9975,-0.2099896363817582,-1.269506650929778
-3.997,0.3982103305061524,-1.301296566145281
-3.9965,0.7396559259519968,-1.152943628472937
-3.996,0.8356874996711408,-0.8562377531282487
-3.9955,0.7716664505250448,-0.6125150698093976
-3.995,0.6542945270905358,-0.4217755785163839
-3.9945,0.5902734779444399,-0.3687923864905467
-3.994,0.6329541773751706,-0.3899856633008816
-3.9935,0.5689331282290746,-0.3158091944647096
-3.993,0.4622313796522482,-0.2204394488182027
-3.9925,0.3661998059331045,-0.1038764263613609
-3.992,0.3021787567870086,0.04447651131098315
-3.9915,0.3341892813600565,0.2776025562246667
-3.991,0.4195506802215176,0.55311515475902
-3.9905,-0.07127736323188383,0.08686306493165288
-3.99,-0.6047861061160158,-0.5065486857577234
-3.9895,-1.084943974711735,-0.7396747306714069
-3.989,-1.533091318734406,-0.9728007755850904
-3.9885,-1.341028171296118,-0.6549016234300674
-3.988,-0.807519428411986,0.03387987290581572
-3.9875,-0.3060212101009019,0.6908714540261965
-3.987,0.04609456020262521,1.167720182258731
-3.9865,0.2274875327832301,1.453829419198252
-3.986,0.3021787567870086,1.591585718465428
-3.9855,0.3128489316446912,1.612778995275763
-3.985,0.2808384070716433,1.559795803249926
-3.9845,0.2488278824985954,1.453829419198252
-3.984,0.2168173579255475,1.284283204715573
-3.9835,0.1954770082101822,1.051157159801889
-3.983,-0.124628237520297,0.4895353243280153
-3.9825,-0.6688071552621118,-0.3687923864905467
-3.982,-0.9569018764195432,-1.121153713257435
-3.9815,-0.9142211769888124,-1.449649503817625
-3.981,-0.3487019095316325,-1.375473034981453
-3.9805,0.2701682322139607,-1.481439419033127
-3.98,0.6756348768059011,-1.280103289334946
-3.9795,0.825017324813458,-1.004590690800593
-3.979,0.8036769750980928,-0.7078848154559045
-3.9785,0.6863050516635838,-0.4853554089473885
-3.978,0.5582629533713921,-0.3581957480853793
-3.9775,0.6542945270905358,-0.4217755785163839
-3.977,0.6649647019482183,-0.4217755785163839
-3.9765,0.5582629533713921,-0.2946159176543747
-3.976,0.4408910299368829,-0.1250697031716958
-3.9755,0.3341892813600565,0.06566978812131802
-3.975,0.2808384070716433,0.2776025562246667
-3.9745,0.05676473506030786,0.6908714540261965
-3.974,-0.5407650569699201,0.5319218779486851
-3.9735,-1.042263275281004,-0.1568596183871981
-3.973,-1.447729919872945,-0.7078848154559045
-3.9725,-1.917217613610981,-1.05757388282643
-3.972,-1.821186039891837,-0.9304142219644207
-3.9715,-1.138294849000148,-0.2098428104130352
-3.971,-0.5087545323968721,0.55311515475902
-3.9705,-0.04993701351651855,1.135930267043229
-3.97,0.2061471830678648,1.485619334413754
-3.9695,0.3128489316446912,1.633972272086098
-3.969,0.3341892813600565,1.644568910491266
-3.9685,0.3128489316446912,1.559795803249926
-3.968,0.2701682322139607,1.400846227172415
-3.9675,0.2381577076409128,1.199510097474233
-3.967,0.2168173579255475,0.9663840525605498
-3.9665,0.05676473506030786,0.5743084315693548
-3.966,-0.5194247072545548,-0.2098428104130352
-3.9655,-0.9462317015618604,-0.9728007755850904
-3.965,-1.138294849000148,-1.555615887869299
-3.9645,-0.7328282044082075,-1.831128486403653
-3.964,-0.04993701351651855,-1.439052865412457
-3.9635,0.5049120790829789,-1.025783967610927
-3.963,0.7716664505250448,-0.6443049850249
-3.9625,0.825017324813458,-0.400582301706049
-3.962,0.7289857510943143,-0.2840192792492073
-3.9615,0.5902734779444399,-0.2628260024388724
-3.961,0.6329541773751706,-0.3581957480853793
-3.9605,0.8036769750980928,-0.5065486857577234
-3.96,0.7289857510943143,-0.3899856633008816
-3.9595,0.5689331282290746,-0.1780528951975329
-3.959,0.4195506802215176,0.04447651131098315
-3.9585,0.3235191065023739,0.2352160026039969
-3.958,0.4195506802215176,0.5743084315693548
-3.9575,0.4942419042252961,0.7120647308365314
-3.957,-0.06060718837420119,0.07626642652648545
-3.9565,-0.7861790786966207,-0.6337083466197325
-3.956,-1.501080794161358,-1.142346990067769
-3.9555,-1.778505340461106,-1.227120097309109
-3.955,-1.277007122150022,-0.6019184314042303
-3.9545,-0.658136980404429,0.1716361721729923
-3.954,-0.1673089369510276,0.7968378380778709
-3.9535,0.1314559590640864,1.188913459069066
-3.953,0.2808384070716433,1.390249588767247
-3.9525,0.3235191065023739,1.453829419198252
-3.952,0.3128489316446912,1.42203950398275
-3.9515,0.2808384070716433,1.326669758336243
-3.951,0.2488278824985954,1.178316820663898
-3.9505,0.2168173579255475,0.9981739677760521
-3.95,0.1741366584948169,0.7650479228623686
-3.9495,-0.2313299860971235,0.1504428953626575
-3.949,-0.722158029550525,-0.6549016234300674
-3.9485,-1.010252750707956,-1.311893204550448
-3.948,-0.8822106524157645,-1.629792356705471
-3.9475,-0.2953510352432193,-1.831128486403653
-3.947,0.2808384070716433,-1.735758740757146
-3.9465,0.6329541773751706,-1.227120097309109
-3.946,0.7609962756673623,-0.8138511995075789
-3.9455,0.7183155762366316,-0.4959520473525559
-3.945,0.5902734779444399,-0.3370024712750445
-3.9445,0.5369226036560266,-0.2734226408440398
-3.944,0.7289857510943143,-0.3475991096802118
-3.9435,0.7183155762366316,-0.2946159176543747
-3.943,0.6009436528021226,-0.1144730647665284
-3.9425,0.4622313796522482,0.07626642652648545
-3.942,0.3661998059331045,0.2670059178194992
-3.9415,0.2701682322139607,0.4895353243280153
-3.941,-0.1673089369510276,0.775644561267536
-3.9405,-0.7968492535543035,0.2987958330350016
-3.94,-1.191645723288561,-0.4323722169215513
-3.9395,-1.639793067311232,-1.01518732920576
-3.939,-1.799845690176472,-1.205926820498774
-3.9385,-1.255666772434657,-0.6443049850249
-3.938,-0.6261264558313813,0.1292496185523226
-3.9375,-0.1459685872356623,0.7650479228623686
-3.937,0.1527963087794516,1.178316820663898
-3.9365,0.291508581929326,1.400846227172415
-3.936,0.3341892813600565,1.464426057603419
-3.9355,0.3128489316446912,1.432636142387917
-3.935,0.2701682322139607,1.326669758336243
-3.9345,0.2274875327832301,1.167720182258731
-3.934,0.2061471830678648,0.9875773293708847
-3.9335,0.1954770082101822,0.7968378380778709
-3.933,-0.06060718837420119,0.3411823866556712
-3.9325,-0.6367966306890638,-0.4323722169215513
-3.932,-0.9782422261349084,-1.142346990067769
-3.9315,-0.9675720512772257,-1.566212526274467
-3.931,-0.3700422592469978,-1.682775548731308
-3.9305,0.2701682322139607,-1.640388995110639
-3.93,0.6863050516635838,-1.205926820498774
-3.9295,0.8463576745288233,-0.792657922697244
-3.929,0.825017324813458,-0.474758770542221
-3.9285,0.6969752265212663,-0.2840192792492073
-3.928,0.5582629533713921,-0.1992461720078678
-3.9275,0.6009436528021226,-0.2840192792492073
-3.927,0.6116138276598051,-0.3052125560595421
-3.9265,0.5155822539406614,-0.2098428104130352
-3.926,0.408880505363835,-0.05089323433552374
-3.9255,0.3341892813600565,0.1186529801471552
-3.925,0.291508581929326,0.2881991946298341
-3.9245,0.2808384070716433,0.6908714540261965
-3.924,-0.156638762093345,0.5637117931641874
-3.9235,-0.7434983792658902,-0.1356663415768632
-3.923,-1.30901764672307,-0.8032545611024114
-3.9225,-1.757164990745741,-1.184733543688439
-3.922,-1.437059745015262,-0.8244478379127463
-3.9215,-0.8288597781273515,-0.06148987274069118
-3.921,-0.2953510352432193,0.6590815388106942
-3.9205,0.05676473506030786,1.157123543853563
-3.92,0.2488278824985954,1.453829419198252
-3.9195,0.3235191065023739,1.580989080060261
-3.919,0.3235191065023739,1.591585718465428
-3.9185,0.291508581929326,1.506812611224089
-3.918,0.2488278824985954,1.347863035146577
-3.9175,0.2168173579255475,1.146526905448396
-3.917,0.2061471830678648,0.9345941373450475
-3.9165,0.08877525963335578,0.6060983467848571
-3.916,-0.4554036581084589,-0.1250697031716958
-3.9155,-0.8715404775580819,-0.8986243067489184
-3.915,-1.084943974711735,-1.534422611058964
-3.9145,-0.9675720512772257,-1.990078062481164
-3.914,-0.3807124341046804,-2.043061254507001
-3.9135,0.1954770082101822,-1.545019249464132
-3.913,0.5582629533713921,-0.9728007755850904
-3.9125,0.6863050516635838,-0.5489352393783931
-3.912,0.6542945270905358,-0.2946159176543747
-3.9115,0.5475927785137094,-0.2204394488182027
-3.911,0.5582629533713921,-0.2734226408440398
-3.9105,0.6969752265212663,-0.3793890248957141
-3.91,0.6436243522328531,-0.3052125560595421
-3.9095,0.5155822539406614,-0.1568596183871981
-3.909,0.408880505363835,0.002089957690313421
-3.9085,0.3235191065023739,0.1610395337678249
-3.908,0.4195506802215176,0.4789386859228479
-3.9075,0.4942419042252961,0.6484849004055269
-3.907,-0.1032878878049318,0.06566978812131802
-3.9065,-0.754168554123573,-0.6549016234300674
-3.906,-1.394379045584531,-1.184733543688439
-3.9055,-1.490410619303675,-1.121153713257435
-3.905,-1.020922925565639,-0.4217755785163839
-3.9045,-0.4767440078238243,0.3411823866556712
-3.904,-0.07127736323188383,0.9345941373450475
-3.9035,0.1741366584948169,1.29487984312074
-3.903,0.291508581929326,1.475022696008586
-3.9025,0.3235191065023739,1.528005888034424
-3.902,0.291508581929326,1.475022696008586
-3.9015,0.2488278824985954,1.347863035146577
-3.901,0.2168173579255475,1.199510097474233
-3.9005,0.1954770082101822,1.019367244586387
-3.9,0.1741366584948169,0.7968378380778709
-3.8995,-0.2206598112394408,0.2140227257936621
-3.899,-0.754168554123573,-0.6019184314042303
-3.8985,-1.042263275281004,-1.269506650929778
-3.898,-0.9142211769888124,-1.598002441489969
-3.8975,-0.3060212101009019,-1.788741932782983
-3.897,0.2808384070716433,-1.820531847998485
-3.8965,0.6542945270905358,-1.396666311791788
-3.896,0.79300680024041,-0.8774310299385835
-3.8955,0.7609962756673623,-0.5277419625680583
-3.895,0.6436243522328531,-0.3052125560595421
-3.8945,0.5796033030867573,-0.1462629799820306
-3.894,0.6969752265212663,-0.02969995752518888
-3.8935,0.6649647019482183,0.002089957690313421
-3.893,0.5369226036560266,-0.008506680714854012
-3.8925,0.4195506802215176,0.03387987290581572
-3.892,0.3341892813600565,0.1292496185523226
-3.8915,0.2381577076409128,0.2140227257936621
-3.891,-0.274010685527854,-0.1144730647665284
-3.8905,-0.8715404775580819,-0.6654982618352349
-3.89,-1.234326422719292,-1.046977244421262
-3.8895,-1.447729919872945,-1.004590690800593
-3.889,-1.757164990745741,-1.004590690800593
-3.8885,-1.51175096901904,-0.6549016234300674
-3.888,-0.9035510021311299,0.07626642652648545
-3.8875,-0.3487019095316325,0.7544512844572011
-3.887,0.02475421048725994,1.231300012689736
-3.8865,0.2381577076409128,1.496215972818921
