Class_9_Think_Grab_one_hand_movement/Class_9_Think_Right_hand_Grab_SH_2.csv

#Digilent WaveForms Oscilloscope Acquisition
#Device Name: EExplorer
#Serial Number: SN:210151A2B84A
#Date Time: 2020-11-25 11:42:50.909
#Sample rate: 2000Hz
#Samples: 16384
#Trigger: Source: Channel 1 Type: Edge Condition: Rising Level: 0 V Hyst.: Auto HoldOff: 0 s
#Channel 1: Range: 1 V/div Offset: 0 V Attenuation: 1 X
#Channel 2: Range: 1 V/div Offset: 0 V Attenuation: 1 X
#Power Supplies: ON
#Fixed Supply: ON
#Voltage: 3.3 V Readback: 3.321 V
#Positive Supply: ON
#Voltage: 3.7 V Readback: 3.722 V
#Current: 40 mA Readback: 19 mA
#Negative Supply: ON
#Voltage: -3.7 V Readback: -3.363 V
#Current: -40 mA Readback: -9 mA
#Reference 1: ON
#Voltage: 0 V
#Reference 2: ON
#Voltage: 0 V

Time (s),Channel 1 (V),Channel 2 (V)
-4.096,-1.629122892453549,-1.79933857118815
-4.0955,-1.714484291314933,-1.820531847998466
-4.095,-1.27700712214943,-1.237716735713852
-4.0945,-0.6261264558313813,-0.7714646458869092
-4.094,-0.1352984123784261,-0.5383386009734377
-4.0935,0.2274875327834145,-0.5171453241629583
-4.093,0.4302208550792003,-0.5913217929990628
-4.0925,0.5155822539405838,-0.7290780922661142
-4.092,0.7183155762366606,-0.9304142219644014
-4.0915,0.7503261008096795,-0.9092209451540858
-4.091,0.6329541773751706,-0.7714646458869092
-4.0905,0.4942419042252185,-0.5595318777833581
-4.09,0.408880505363835,-0.3370024712750445
-4.0895,0.4729015545099309,-0.1780528951975329
-4.089,1.006410297393578,-0.2734226408439531
-4.0885,0.7823366253827275,-0.7290780922662394
-4.088,-0.1459685872356623,-1.216523458903942
-4.0875,-0.9995825758494973,-1.449649503817413
-4.087,-1.14896502385751,-1.004590690799822
-4.0865,-0.7968492535543035,-0.1568596183871981
-4.086,-0.370042259247386,0.616694985189321
-4.0855,-0.03926683865864183,1.178316820664207
-4.085,0.1741366584948169,1.517409249629256
-4.0845,0.2701682322138733,1.676358825706623
-4.084,0.291508581929326,1.708148740922241
-4.0835,0.291508581929326,1.676358825706768
-4.083,0.2488278824985954,1.591585718465428
-4.0825,0.1954770082101531,1.47502269600848
-4.082,0.1634664836371343,1.358459673551745
-4.0815,0.1314559590640864,1.273686566310405
-4.081,-0.1246282375200641,0.9663840525608294
-4.0805,-0.4447334832507763,0.7650479228623686
-4.08,-0.8502001278427167,0.1504428953626575
-4.0795,-1.223656247861269,-0.7184814538602817
-4.079,-1.447729919872634,-1.142346990067625
-4.0785,-1.1062843244271,-0.9833974139902578
-4.078,-0.5514352318281074,-0.6866915386458396
-4.0775,-0.03926683865851566,-0.5171453241629101
-4.077,0.3128489316446912,-0.5383386009732256
-4.0765,0.4835717293674582,-0.5383386009732256
-4.076,0.5262524287984509,-0.5489352393785569
-4.0755,0.6436243522328531,-0.7290780922662394
-4.075,0.7609962756673623,-0.8032545611024114
-4.0745,0.6863050516634673,-0.654901623429865
-4.074,0.5582629533713921,-0.4323722169215513
-4.0735,0.4408910299368829,-0.252229364033705
-4.073,0.3875401556485182,-0.1144730647666536
-4.0725,0.6649647019482183,-0.2840192792492073
-4.072,1.017080472251745,-0.6337083466197325
-4.0715,0.5475927785141363,-1.110557074851833
-4.071,-0.1139580626628085,-1.343683119765497
-4.0705,-0.3273615598162672,-0.8456411147230812
-4.07,-0.2420001609548837,-0.09327978795687775
-4.0695,-0.07127736323173826,0.5849050699749655
-4.069,0.08877525963335578,1.072350436612224
-4.0685,0.1848068333524996,1.358459673551745
-4.068,0.2381577076409322,1.506812611224146
-4.0675,0.2594980573562781,1.570392441655093
-4.067,0.2594980573562781,1.549199164844759
-4.0665,0.2381577076408934,1.506812611224021
-4.066,0.2168173579255475,1.432636142387917
-4.0655,0.1848068333524996,1.33726639674141
-4.065,0.1421261339218078,1.263089927905305
-4.0645,-0.01792648894347063,1.135930267043229
-4.064,-0.6047861061160158,0.4259554938970107
-4.0635,-1.12762467414199,-0.5277419625671909
-4.063,-1.469070269588533,-1.333086481361246
-4.0625,-1.714484291315011,-1.84172512480882
-4.062,-1.38370887072715,-1.449649503817982
-4.0615,-0.7755089038384627,-0.8986243067486678
-4.061,-0.2526703358124887,-0.6231117082145651
-4.0605,0.1314559590640864,-0.4853554089473885
-4.06,0.3555296310754995,-0.4641621321371307
-4.0595,0.4408910299368829,-0.5489352393783931
-4.059,0.4942419042252961,-0.6125150698093976
-4.0585,0.5475927785136608,-0.5595318777836087
-4.058,0.4942419042252961,-0.5383386009732256
-4.0575,0.4408910299368829,-0.474758770542221
-4.057,0.3982103305061912,-0.3793890248958008
-4.0565,0.3982103305061524,-0.2628260024388724
-4.056,0.6436243522328531,-0.3687923864905467
-4.0555,1.219813794547192,-0.2946159176544421
-4.055,0.9103787236740264,-0.6337083466201662
-4.0545,-0.07127736323188383,-1.110557074852267
-4.054,-0.9462317015610646,-1.33308648136058
-4.0535,-1.074273799853751,-0.8774310299378221
-4.053,-0.7434983792658902,-0.04029659593035631
-4.0525,-0.3380317346739499,0.7332580076468663
-4.052,-0.01792648894329595,1.305476481526216
-4.0515,0.1741366584948169,1.644568910491266
-4.051,0.2594980573562781,1.814115124973944
-4.0505,0.2915085819292969,1.856501678594575
-4.05,0.2808384070716433,1.824711763379112
-4.0495,0.2488278824985954,1.729342017732605
-4.049,0.2061471830679036,1.612778995275869
-4.0485,0.1421261339216525,1.496215972818777
-4.048,0.01408403562957729,1.33726639674141
-4.0475,-0.4980843575387237,0.7120647308371001
-4.047,-1.106284324427517,-0.2734226408448397
-4.0465,-1.565101843307454,-1.152943628472937
-4.046,-1.938557963326006,-1.492036057437986
-4.0455,-1.618452717595207,-1.121153713257107
-4.045,-0.8928808272734472,-0.7608680074817418
-4.0445,-0.2633405106701714,-0.6125150698093976
-4.044,0.1741366584950595,-0.6231117082146229
-4.0435,0.4408910299368829,-0.6866915386455698
-4.043,0.5475927785137094,-0.7820612842920766
-4.0425,0.5475927785137094,-0.9092209451539701
-4.042,0.6756348768059011,-1.05757388282643
-4.0415,0.7183155762366316,-0.9939940523954253
-4.041,0.6222840025175752,-0.7290780922664803
-4.0405,0.5049120790829013,-0.4217755785161237
-4.04,0.4195506802215176,-0.1356663415768632
-4.0395,0.5049120790829013,0.2034260873881862
-4.039,1.049090996824745,0.8816109453192007
-4.0385,0.9957401225363802,0.8710143069140429
-4.038,0.2808384070722935,0.09745970333752385
-4.0375,-0.5087545323971147,-0.6760949002404408
-4.037,-0.7755089038389382,-0.718481453861072
-4.0365,-0.5834457564006506,-0.1674562567923655
-4.036,-0.2633405106699385,0.4895353243285068
-4.0355,-0.007256314085787988,1.029963882991555
-4.035,0.1634664836371343,1.400846227172415
-4.0345,0.2488278824985178,1.623375633680728
-4.034,0.2808384070716433,1.729342017732605
-4.0335,0.2701682322139607,1.739938656137773
-4.033,0.2381577076409419,1.697552102517141
-4.0325,0.1954770082101337,1.623375633680844
-4.032,0.142126133921769,1.528005888034424
-4.0315,0.09944543449107725,1.453829419198319
-4.031,-0.1566387620938981,1.093543713421759
-4.0305,-0.7648387289812555,0.2140227257936621
-4.03,-1.191645723288173,-0.7290780922653817
-4.0295,-1.437059745015437,-1.492036057438555
-4.029,-1.629122892453549,-1.778145294377815
-4.0285,-1.319687821580753,-1.237716735714276
-4.028,-0.7541685541230975,-0.7820612842918548
-4.0275,-0.2313299860971235,-0.5383386009732256
-4.027,0.1954770082101822,-0.4535654937318862
-4.0265,0.4408910299366597,-0.5807251545937797
-4.026,0.5155822539406614,-0.7502713690765743
-4.0255,0.6329541773751706,-0.9198175835592532
-4.025,0.8143471499556103,-1.004590690800516
-4.0245,0.7396559259518609,-0.8138511995073476
-4.024,0.5902734779444399,-0.5595318777835605
-4.0235,0.4622313796523647,-0.3052125560597734
-4.023,0.4195506802218476,-0.1038764263612742
-4.0225,0.7823366253827275,-0.008506680714854012
-4.022,1.198473444831972,0.2881991946295643
-4.0215,0.675634876805018,-0.1038764263619584
-4.021,-0.2953510352432193,-0.7608680074817418
-4.0205,-1.020922925565639,-1.174136905283272
-4.02,-0.999582575849934,-0.8032545611017561
-4.0195,-0.6261264558313813,-0.08268314955102604
-4.019,-0.2420001609548061,0.5849050699745222
-4.0185,0.04609456020236319,1.082947075016939
-4.018,0.2061471830678648,1.37965295036208
-4.0175,0.2701682322139607,1.528005888034424
-4.017,0.2915085819293066,1.580989080060213
-4.0165,0.2701682322139122,1.559795803249868
-4.016,0.2168173579255475,1.496215972818921
-4.0155,0.1634664836371828,1.432636142387975
-4.015,0.03542438534475819,1.263089927905055
-4.0145,-0.1673089369510276,1.061753798207057
-4.014,-0.6901475049770014,0.3941655786821155
-4.0135,-1.170305373573555,-0.5383386009739485
-4.013,-1.565101843307454,-1.333086481360783
-4.0125,-1.991908837614759,-1.905304955239825
-4.012,-1.650463242168265,-1.608599079894606
-4.0115,-0.9355615267041777,-1.025783967610927
-4.011,-0.3060212101009019,-0.5913217929990628
-4.0105,0.1207857842060155,-0.4111789401113803
-4.01,0.3875401556484697,-0.4429688553267188
-4.0095,0.5155822539406614,-0.570128516188728
-4.009,0.5689331282290261,-0.6760949002403059
-4.0085,0.7289857510942949,-0.8032545611023247
-4.008,0.707645401378949,-0.7078848154559045
-4.0075,0.5902734779445467,-0.5065486857579065
-4.007,0.46223137965219,-0.3052125560593976
-4.0065,0.3982103305061524,-0.1462629799820306
-4.006,0.3555296310754218,-0.2840192792492073
-4.0055,0.6756348768058235,-0.7290780922666827
-4.005,0.5902734779444399,-1.216523458903942
-4.0045,0.01408403562957729,-1.555615887869299
-4.004,-0.3273615598162284,-1.174136905282559
-4.0035,-0.2846808603855366,-0.3899856633008816
-4.003,-0.124628237520297,0.3729723018711736
-4.0025,0.04609456020246996,0.9345941373445367
-4.002,0.1634664836371343,1.273686566310405
-4.0015,0.2274875327832301,1.453829419198252
-4.001,0.259498057356249,1.528005888034356
-4.0005,0.2701682322139413,1.528005888034375
-4,0.2488278824985954,1.475022696008586
-3.9995,0.2168173579255475,1.400846227172415
-3.999,0.1741366584948169,1.316073119931075
-3.9985,0.1527963087794516,1.241896651094903
-3.998,0.01408403562957729,1.199510097474233
-3.9975,-0.3593720843893152,0.6908714540261965
-3.997,-0.9142211769888124,-0.252229364033705
-3.9965,-1.255666772434657,-1.121153713257435
-3.996,-1.597112367880501,-1.767548655972648
-3.9955,-1.618452717595867,-1.629792356705471
-3.995,-1.138294849000148,-1.01518732920576
-3.9945,-0.5300948821122373,-0.6125150698093976
-3.994,-0.01792648894347063,-0.474758770542221
-3.9935,0.3235191065023739,-0.5595318777835605
-3.993,0.4942419042252961,-0.6866915386455698
-3.9925,0.5369226036560266,-0.7290780922662394
-3.992,0.6969752265212663,-0.6231117082145651
-3.9915,0.7289857510943143,-0.5171453241628908
-3.991,0.6222840025174878,-0.4323722169215513
-3.9905,0.5049120790829789,-0.3158091944647096
-3.99,0.4195506802215176,-0.1992461720078678
-3.9895,0.4622313796522482,-0.2098428104130352
-3.989,1.017080472251745,-0.5171453241628908
-3.9885,1.497238340847464,-0.7396747306714069
-3.988,0.8036769750980928,-1.0999604364471
-3.9875,-0.2633405106701714,-1.333086481360783
-3.987,-0.7008176798351597,-0.9516074987747555
-3.9865,-0.5834457564006506,-0.1250697031716958
-3.986,-0.3060212101009019,0.6484849004055269
-3.9855,-0.04993701351651855,1.210106735879401
-3.985,0.142126133921769,1.559795803249926
-3.9845,0.2381577076409128,1.718745379327438
-3.984,0.2701682322139607,1.761131932948107
-3.9835,0.2701682322139607,1.718745379327438
-3.983,0.2488278824985954,1.612778995275763
-3.9825,0.1954770082101822,1.496215972818921
-3.982,0.1634664836371343,1.369056311956912
-3.9815,0.04609456020262521,1.305476481525908
-3.981,-0.274010685527854,0.9557874141553824
-3.9805,-0.8502001278427167,0.09745970333682032
-3.98,-1.287677297007705,-0.8138511995075789
-3.9795,-1.543761493592088,-1.555615887869299
-3.979,-1.725154466172693,-1.894708316834657
-3.9785,-1.341028171296118,-1.354279758171118
-3.978,-0.690147504977477,-0.8244478379127463
-3.9775,-0.09261771294724913,-0.5065486857577234
-3.977,0.291508581929326,-0.4323722169215513
-3.9765,0.4729015545099309,-0.5277419625680583
-3.976,0.5155822539406614,-0.7078848154559045
-3.9755,0.6436243522328531,-0.9092209451540858
-3.975,0.8036769750980928,-0.9939940523954253
-3.9745,0.7183155762366316,-0.8032545611024114
-3.974,0.5689331282290746,-0.5277419625680583
-3.9735,0.4622313796522482,-0.2628260024388724
-3.973,0.408880505363835,-0.08268314955102604
-3.9725,0.7716664505250448,0.01268659609548085
-3.972,1.006410297394063,-0.01910331912002144
-3.9715,0.3448594562177392,-0.570128516188728
-3.971,-0.5194247072545548,-1.078767159636765
-3.9705,-0.9355615267041777,-1.078767159636765
-3.97,-0.7648387289812555,-0.4429688553267188
-3.9695,-0.4127229586777283,0.309392471440169
-3.969,-0.09261771294724913,0.9134008605347127
-3.9685,0.1314559590640864,1.316073119931075
-3.968,0.2381577076409128,1.549199164844759
-3.9675,0.2808384070716433,1.633972272086098
-3.967,0.2808384070716433,1.644568910491266
-3.9665,0.2701682322139607,1.602182356870596
-3.966,0.2274875327832301,1.506812611224089
-3.9655,0.1741366584948169,1.411442865577582
-3.965,0.09944543449103843,1.316073119931075
-3.9645,-0.04993701351651855,1.199510097474233
-3.964,-0.5834457564006506,0.5213252395435176
-3.9635,-1.095614149569417,-0.4535654937318862
-3.963,-1.30901764672307,-1.269506650929778
-3.9625,-1.447729919872945,-1.608599079895136
-3.962,-1.26633694729234,-1.269506650929778
-3.9615,-0.754168554123573,-0.8986243067489184
-3.961,-0.2099896363817582,-0.6866915386455698
-3.9605,0.1634664836371343,-0.6019184314042303
-3.96,0.3875401556484697,-0.6972881770507372
-3.9595,0.4835717293676135,-0.7714646458869092
-3.959,0.5582629533713921,-0.8880276683437509
-3.9585,0.7396559259519968,-0.9939940523954253
-3.958,0.707645401378949,-0.9092209451540858
-3.9575,0.5902734779444399,-0.6760949002404023
-3.957,0.4835717293676135,-0.4323722169215513
-3.9565,0.408880505363835,-0.2416327256285375
-3.956,0.5796033030867573,-0.09327978795619347
-3.9555,1.166462920259302,-0.04029659593035631
-3.955,0.8676980242441885,-0.4429688553267188
-3.9545,-0.09261771294724913,-0.8986243067489184
-3.954,-0.5300948821122373,-0.6866915386455698
-3.9535,-0.4660738329661415,-0.04029659593035631
-3.953,-0.2420001609548061,0.627291623595192
-3.9525,-0.007256314085787988,1.157123543853563
-3.952,0.142126133921769,1.517409249629256
-3.9515,0.2274875327832301,1.70814874092227
-3.951,0.2701682322139607,1.814115124973944
-3.9505,0.2701682322139607,1.835308401784279
-3.95,0.2594980573562781,1.79292184816361
-3.9495,0.2274875327832301,1.718745379327438
-3.949,0.1848068333524996,1.612778995275763
-3.9485,0.1314559590640864,1.496215972818921
-3.948,0.04609456020262521,1.443232780793084
-3.9475,-0.3593720843893152,0.8922075837243778
-3.947,-1.010252750707956,-0.1038764263613609
-3.9465,-1.501080794161358,-1.025783967610927
-3.946,-1.895877263895616,-1.725162102351978
-3.9455,-1.853196564464885,-1.640388995110639
-3.945,-1.191645723288561,-1.046977244421262
-3.9445,-0.5087545323968721,-0.6125150698093976
-3.944,0.03542438534494258,-0.4959520473525559
-3.9435,0.3661998059331045,-0.5595318777835605
-3.943,0.5262524287983441,-0.7608680074817418
-3.9425,0.5582629533713921,-0.9516074987747555
-3.942,0.6009436528021226,-1.0999604364471
-3.9415,0.5902734779444399,-1.046977244421262
-3.941,0.5262524287983441,-0.8562377531282487
-3.9405,0.4622313796522482,-0.6337083466197325
-3.94,0.3982103305061524,-0.4323722169215513
-3.9395,0.4408910299368829,-0.3899856633008816
-3.939,0.942389248247967,-0.5489352393783931
-3.9385,0.8890383739595538,-0.8986243067489184
-3.938,0.05676473506030786,-1.290699927740113
-3.9375,-0.4980843575391895,-1.205926820498774
-3.937,-0.4980843575391895,-0.4853554089473885
-3.9365,-0.2846808603855366,0.3305857482505039
-3.936,-0.06060718837420119,0.9875773293708847
-3.9355,0.1207857842064037,1.432636142387917
-3.935,0.2168173579255475,1.697552102517103
-3.9345,0.2594980573562781,1.803518486568777
-3.934,0.2701682322139607,1.845905040189447
-3.9335,0.2701682322139607,1.803518486568777
-3.933,0.2488278824985954,1.718745379327438
-3.9325,0.2061471830678648,1.612778995275763
-3.932,0.1527963087794516,1.485619334413754
-3.9315,0.04609456020262521,1.33726639674141
-3.931,-0.1993194615240755,0.9981739677760521
-3.9305,-0.8288597781273515,0.08686306493165288
-3.93,-1.341028171296118,-0.8562377531282487
-3.9295,-1.863866739322568,-1.598002441489969
-3.929,-2.205312334768412,-1.947691508860494
-3.9285,-1.703814116457328,-1.439052865412457
-3.928,-0.9569018764195432,-0.8986243067489184
-3.9275,-0.2633405106701714,-0.6443049850249
-3.927,0.2381577076409128,-0.5913217929990628
-3.9265,0.4835717293676135,-0.6654982618352349
-3.926,0.5475927785137094,-0.7608680074817418
-3.9255,0.6329541773751706,-0.8668343915334161
-3.925,0.7396559259519968,-0.9516074987747555
-3.9245,0.6649647019482183,-0.8456411147230812
-3.924,0.5369226036560266,-0.6760949002404023
-3.9235,0.4302208550792003,-0.4641621321370536
-3.923,0.3768699807907871,-0.3052125560595421
-3.9225,0.6222840025174878,-0.474758770542221
-3.922,0.7716664505250448,-0.9622041371799229
-3.9215,0.04609456020262521,-1.439052865412457
-3.921,-0.8608703027003992,-1.714565463946811
-3.9205,-1.191645723288561,-1.333086481360783
-3.92,-0.8928808272734472,-0.4111789401112165
-3.9195,-0.4660738329661415,0.4683420475176805
-3.919,-0.09261771294724913,1.125333628638062
-3.9185,0.142126133921769,1.528005888034424
-3.918,0.2594980573562781,1.729342017732605
-3.9175,0.291508581929326,1.79292184816361
-3.917,0.3021787567870086,1.761131932948107
-3.9165,0.2701682322139607,1.676358825706768
-3.916,0.2168173579255475,1.559795803249926
-3.9155,0.1634664836371343,1.432636142387917
-3.915,0.142126133921769,1.273686566310405
-3.9145,0.07810508477567314,1.019367244586387
-3.914,-0.423393133535411,0.2458126410091644
-3.9135,-0.9675720512772257,-0.6866915386455698
-3.913,-1.223656247861609,-1.449649503817625
-3.9125,-1.51175096901904,-1.968884785670829
-3.912,-1.362368521011484,-1.640388995110639
-3.9115,-0.8288597781273515,-1.068170521231597
-3.911,-0.2420001609548061,-0.7396747306714069
-3.9105,0.1954770082101822,-0.6019184314042303
-3.91,0.4302208550792003,-0.5913217929990628
-3.9095,0.5049120790829789,-0.7078848154559045
-3.909,0.5155822539406614,-0.8138511995075789
-3.9085,0.6222840025174878,-0.9198175835592532
-3.908,0.6222840025174878,-0.8562377531282487
-3.9075,0.5369226036560266,-0.6972881770507372
-3.907,0.4515612047945656,-0.4959520473525559
-3.9065,0.3982103305061524,-0.3158091944647096
-3.906,0.5049120790829789,-0.2734226408440398
-3.9055,0.974399772821015,-0.6760949002404023
-3.905,0.6756348768059011,-1.184733543688439
-3.9045,-0.124628237520297,-1.481439419033127
-3.904,-0.5194247072545548,-1.025783967610927
-3.9035,-0.4447334832507763,-0.1780528951975329
-3.903,-0.2206598112394408,0.6060983467848571
-3.9025,0.00341386077189465,1.178316820663898
-3.902,0.1527963087794516,1.538602526439591
-3.9015,0.2381577076409128,1.70814874092227
-3.901,0.2701682322139607,1.771728571353275
-3.9005,0.2808384070716433,1.75053529454294
-3.9,0.2594980573562781,1.676358825706768
-3.8995,0.2274875327832301,1.559795803249926
-3.899,0.1954770082101822,1.432636142387917
-3.8985,0.1634664836371343,1.29487984312074
-3.898,0.09944543449103843,1.210106735879401
-3.8975,-0.3593720843893152,0.8074344764830383
-3.897,-1.010252750707956,0.05507314971615059
-3.8965,-1.351698346153801,-0.8032545611024114
-3.896,-1.597112367880501,-1.449649503817625
-3.8955,-1.415719395299897,-1.290699927740113
-3.895,-0.8928808272734472,-0.8138511995075789
-3.8945,-0.3487019095316325,-0.570128516188728
-3.894,0.09944543449103843,-0.474758770542221
-3.8935,0.3448594562177392,-0.474758770542221
-3.893,0.4942419042252961,-0.5489352393783931
-3.8925,0.5262524287983441,-0.6549016234300674
-3.892,0.6542945270905358,-0.7820612842920766
-3.8915,0.707645401378949,-0.7820612842920766
-3.891,0.6116138276598051,-0.6654982618352349
-3.8905,0.4835717293676135,-0.5065486857577234
-3.89,0.4195506802215176,-0.3370024712750445
-3.8895,0.4408910299368829,-0.2310360872233701
-3.889,0.974399772821015,-0.5383386009732256
-3.8885,1.294505018551494,-1.068170521231597
-3.888,0.5155822539406614,-1.481439419033127
-3.8875,-0.5407650569699201,-1.661582271920973
-3.887,-0.9782422261349084,-1.195330182093607
-3.8865,-0.7968492535543035,-0.2840192792492073
