Class_9_Think_Grab_one_hand_movement/Class_9_Think_Right_hand_Grab_SH_6.csv

#Digilent WaveForms Oscilloscope Acquisition
#Device Name: EExplorer
#Serial Number: SN:210151A2B84A
#Date Time: 2020-12-15 15:00:19.651
#Sample rate: 2000Hz
#Samples: 16384
#Trigger: Source: Channel 1 Type: Edge Condition: Rising Level: 0 V Hyst.: Auto HoldOff: 0 s
#Channel 1: Range: 1 V/div Offset: 0 V Attenuation: 1 X
#Channel 2: Range: 1 V/div Offset: 0 V Attenuation: 1 X
#Power Supplies: ON
#Fixed Supply: ON
#Voltage: 3.3 V Readback: 3.314 V
#Positive Supply: ON
#Voltage: 3.7 V Readback: 3.717 V
#Current: 40 mA Readback: 17 mA
#Negative Supply: ON
#Voltage: -3.7 V Readback: -3.355 V
#Current: -40 mA Readback: -7 mA
#Reference 1: ON
#Voltage: 0 V
#Reference 2: ON
#Voltage: 0 V

Time (s),Channel 1 (V),Channel 2 (V)
-4.096,0.02475421048725994,-1.068170521231597
-4.0955,-0.5407650569694057,-0.8244478379129681
-4.095,-0.5087545323966391,-0.2310360872228497
-4.0945,-0.2526703358124887,0.3411823866556712
-4.094,0.01408403562933463,0.7332580076465097
-4.0935,0.2061471830679619,0.9451907757502728
-4.093,0.3128489316446912,1.00877060618122
-4.0925,0.355529631075383,0.9769806909657461
-4.092,0.3661998059330948,0.9028042221294585
-4.0915,0.3555296310754218,0.8074344764830383
-4.091,0.3341892813600565,0.701468092431364
-4.0905,0.291508581929258,0.5955017083796414
-4.09,0.2168173579255475,0.5425185163538525
-4.0895,0.1207857842064037,0.5107286011383502
-4.089,-0.007256314085671539,0.362375663466141
-4.0885,-0.5407650569699201,-0.2946159176543747
-4.088,-1.095614149569417,-0.9304142219644207
-4.0875,-0.9889124009926882,-0.8244478379128427
-4.087,-0.5194247072541278,-0.4429688553264874
-4.0865,-0.04993701351651855,-0.1886495336027004
-4.086,0.2701682322136696,-0.05089323433564902
-4.0855,0.4408910299369218,0.02328323450066756
-4.085,0.4835717293676135,0.04447651131098315
-4.0845,0.4729015545099406,0.06566978812129874
-4.084,0.4729015545101153,0.1292496185525154
-4.0835,0.6756348768059011,0.3411823866556712
-4.083,0.6863050516635838,0.3729723018711736
-4.0825,0.5902734779443428,0.3411823866556423
-4.082,0.4835717293676135,0.309392471440169
-4.0815,0.408880505363835,0.2776025562246667
-4.081,0.6222840025172938,-0.05089323433522497
-4.0805,1.059761171682476,-0.718481453861072
-4.08,0.5902734779444399,-1.364876396576285
-4.0795,-0.2846808603847408,-1.831128486403228
-4.079,-0.7968492535541967,-1.629792356704739
-4.0785,-0.6794773301197943,-0.8244478379127463
-4.078,-0.3487019095319333,-0.07208651114654285
-4.0775,-0.02859666380094948,0.4789386859231274
-4.077,0.1954770082101822,0.7862411996727035
-4.0765,0.3128489316445845,0.9239974989397548
-4.076,0.3555296310754315,0.9557874141553535
-4.0755,0.3661998059331045,0.92399749893988
-4.075,0.3555296310754218,0.8604176685088755
-4.0745,0.3235191065023253,0.7862411996726359
-4.074,0.2701682322139607,0.7120647308365314
-4.0735,0.2061471830678648,0.6484849004055269
-4.073,0.08877525963346253,0.5425185163539489
-4.0725,-0.423393133535411,-0.04029659593035631
-4.072,-0.9782422261349084,-0.792657922697244
-4.0715,-1.330357996438115,-1.407262950196396
-4.071,-1.127624674141902,-1.322489842955114
-4.0705,-0.5087545323968721,-0.7714646458869092
-4.07,0.03542438534444758,-0.2628260024393351
-4.0695,0.3768699807909133,0.06566978812139512
-4.069,0.5155822539406614,0.1504428953626575
-4.0685,0.5262524287983441,0.13984625695749
-4.068,0.4942419042252476,0.08686306493161433
-4.0675,0.4408910299368829,0.04447651131098315
-4.067,0.6436243522328531,0.2776025562246667
-4.0665,0.8143471499557073,0.478938685922819
-4.066,0.7396559259519968,0.4471487707073456
-4.0655,0.6009436528021226,0.3517790250608387
-4.065,0.4729015545100473,0.2987958330350498
-4.0645,0.3982103305061524,0.2776025562246667
-4.064,0.7183155762366316,0.1292496185523226
-4.0635,0.7716664505249963,-0.4747587705416717
-4.063,-0.02859666380183259,-1.110557074852527
-4.0625,-0.7755089038389382,-1.396666311791788
-4.062,-0.8181896032696299,-0.9304142219648448
-4.0615,-0.4980843575388693,-0.2310360872228304
-4.061,-0.1459685872356623,0.3623756634660061
-4.0605,0.1207857842064037,0.7544512844572011
-4.06,0.2701682322140286,0.9557874141554499
-4.0595,0.3448594562177392,1.029963882991555
-4.059,0.3661998059331045,1.019367244586387
-4.0585,0.3555296310754315,0.966384052560598
-4.058,0.3341892813600565,0.8922075837243778
-4.0575,0.3021787567870086,0.8074344764830383
-4.057,0.2061471830679522,0.7650479228624071
-4.0565,0.03542438534494258,0.7544512844572011
-4.056,-0.06060718837420119,0.6484849004055269
-4.0555,0.4302208550787539,0.998173967775734
-4.055,0.9530594231052324,0.9981739677753485
-4.0545,0.4942419042252961,0.2246193641988295
-4.054,0.1954770082104539,-0.1886495336023245
-4.0535,0.1954770082102501,-0.2204394488181352
-4.053,0.2701682322139607,-0.1462629799820306
-4.0525,0.3661998059331045,0.002089957690313421
-4.052,0.4195506802215176,0.08686306493166251
-4.0515,0.4195506802215176,0.09745970333682032
-4.051,0.408880505363835,0.08686306493165288
-4.0505,0.4835717293675456,0.1504428953625996
-4.05,0.6436243522328531,0.2458126410091644
-4.0495,0.6116138276598051,0.2776025562246667
-4.049,0.5262524287984217,0.30939247144014
-4.0485,0.4408910299368539,0.3199891098453461
-4.048,0.408880505363835,0.3305857482505039
-4.0475,0.7609962756670421,0.04447651131124336
-4.047,0.9850699476782707,-0.591321792999564
-4.0465,0.5155822539406614,-1.142346990067769
-4.046,-0.2846808603848088,-1.460246142222503
-4.0455,-0.6901475049773509,-1.184733543687793
-4.045,-0.5514352318276028,-0.474758770542221
-4.0445,-0.2526703358124887,0.2034260873884947
-4.044,0.01408403562974227,0.6590815388109063
-4.0435,0.1954770082101822,0.8922075837243778
-4.043,0.291508581929326,0.9769806909657173
-4.0425,0.3341892813600177,0.9557874141554017
-4.042,0.3341892813600565,0.8816109453192104
-4.0415,0.3235191065023739,0.775644561267536
-4.041,0.2915085819293551,0.669678177215958
-4.0405,0.2594980573562198,0.5637117931641199
-4.04,0.1954770082101822,0.4895353243280153
-4.0395,0.06743490991810697,0.298795833035175
-4.039,-0.4554036581091091,-0.3370024712757094
-4.0385,-1.170305373573196,-1.068170521231597
-4.038,-1.767835165602881,-1.62979235670496
-4.0375,-1.543761493591438,-1.417859588601554
-4.037,-0.8288597781273515,-0.792657922697244
-4.0365,-0.1993194615240755,-0.2628260024388724
-4.036,0.1954770082103666,0.002089957690409797
-4.0355,0.3982103305061524,0.1080563417419877
-4.035,0.4622313796522482,0.1292496185523226
-4.0345,0.4408910299369024,0.1186529801471648
-4.034,0.4515612047945656,0.1080563417419877
-4.0335,0.6329541773751706,0.1186529801471552
-4.033,0.6542945270905164,0.09745970333683959
-4.0325,0.5689331282289776,0.08686306493167216
-4.032,0.4622313796522482,0.1080563417419877
-4.0315,0.3875401556485377,0.1504428953626189
-4.031,0.312848931644536,-0.02969995752564185
-4.0305,0.142126133921769,-0.5277419625680583
-4.03,-0.5087545323962801,-1.131750351662053
-4.0295,-1.18097554843115,-1.619195718300323
-4.029,-1.479740444445993,-1.640388995110639
-4.0285,-1.1062843244271,-0.9622041371799229
-4.028,-0.5727755815425507,-0.2098428104125052
-4.0275,-0.1139580626626144,0.3729723018711736
-4.027,0.1741366584948169,0.7332580076468663
-4.0265,0.3128489316445651,0.902804222129391
-4.026,0.3661998059331045,0.9557874141553824
-4.0255,0.3661998059331045,0.9345941373450475
-4.025,0.3448594562177586,0.8816109453192585
-4.0245,0.3128489316446718,0.8074344764829708
-4.024,0.291508581929326,0.7332580076468663
-4.0235,0.2594980573563072,0.6802748156210773
-4.023,0.1741366584943317,0.6060983467844234
-4.0225,-0.3593720843893152,0.1292496185523226
-4.022,-0.9355615267036537,-0.665498261834512
-4.0215,-1.319687821580539,-1.333086481360725
-4.021,-1.084943974711735,-1.269506650929778
-4.0205,-0.4767440078238243,-0.5913217929990628
-4.02,0.0354243853452046,-0.06148987274049843
-4.0195,0.3235191065023739,0.1504428953626575
-4.019,0.4408910299368829,0.1610395337678249
-4.0185,0.4622313796522288,0.1080563417420359
-4.018,0.4408910299368829,0.02328323450064829
-4.0175,0.408880505363835,-0.008506680714854012
-4.017,0.5475927785135832,0.2034260873883019
-4.0165,0.6756348768058525,0.4047622170866662
-4.016,0.6222840025174878,0.3941655786815084
-4.0155,0.5155822539407584,0.3305857482505617
-4.015,0.4302208550791324,0.2987958330349341
-4.0145,0.3555296310754218,0.2246193641988295
-4.014,0.3875401556484406,0.351779025060723
-4.0135,0.5902734779442458,0.4365521323017155
-4.013,0.3768699807907871,-0.07208651114585861
-4.0125,-0.2420001609548061,-0.6443049850249
-4.012,-0.4340633083929675,-0.5701285161883232
-4.0115,-0.2953510352432193,-0.1250697031716958
-4.011,-0.07127736323188383,0.3411823866556712
-4.0105,0.120785784206229,0.6802748156207207
-4.01,0.2381577076409128,0.8816109453192104
-4.0095,0.3021787567870086,0.9663840525605498
-4.009,0.3235191065023544,0.9769806909657076
-4.0085,0.3235191065023544,0.9451907757501571
-4.008,0.3021787567870086,0.8816109453192104
-4.0075,0.2594980573563169,0.8074344764831058
-4.007,0.2381577076408934,0.722661369241641
-4.0065,0.2168173579255475,0.6590815388106942
-4.006,0.3555296310754218,0.7332580076468663
-4.0055,0.8997085488170619,1.019367244585925
-4.005,0.707645401378949,0.5107286011383502
-4.0045,0.00341386077189465,-0.2840192792492073
-4.004,-0.1886492866662764,-0.3899856633006984
-4.0035,-0.06060718837420119,-0.1886495336027004
-4.003,0.142126133921769,-0.02969995752518888
-4.0025,0.3235191065022089,0.1186529801470203
-4.002,0.3982103305061524,0.1292496185523226
-4.0015,0.408880505363835,0.09745970333682032
-4.001,0.3982103305061621,0.05507314971618914
-4.0005,0.4835717293678464,0.03387987290574826
-4,0.7396559259519968,-0.04029659593035631
-3.9995,0.7396559259519968,-0.02969995752518888
-3.999,0.6222840025174878,0.05507314971615059
-3.9985,0.4835717293676135,0.1610395337678249
-3.998,0.3982103305061524,0.2352160026039969
-3.9975,0.3128489316446912,-0.1356663415768632
-3.997,-0.08194753808956648,-0.792657922697244
-3.9965,-0.8288597781273515,-1.34368311976595
-3.996,-1.447729919872945,-1.640388995110639
-3.9955,-1.586442193022819,-1.439052865412457
-3.995,-1.1062843244271,-0.7078848154559045
-3.9945,-0.5300948821122373,0.03387987290581572
-3.994,-0.07127736323188383,0.5743084315693548
-3.9935,0.1954770082101822,0.8710143069140429
-3.993,0.3235191065023739,0.9875773293708847
-3.9925,0.3555296310754218,0.9769806909657173
-3.992,0.3555296310754218,0.9134008605347127
-3.9915,0.3235191065023739,0.8074344764830383
-3.991,0.2808384070716433,0.6908714540261965
-3.9905,0.2381577076409128,0.5743084315693548
-3.99,0.2061471830678648,0.4895353243280153
-3.9895,0.05676473506030786,0.2987958330350016
-3.989,-0.4874141826815069,-0.3158091944647096
-3.9885,-0.8928808272734472,-0.9939940523954253
-3.988,-1.319687821580753,-1.523825972653797
-3.9875,-1.127624674142465,-1.195330182093607
-3.987,-0.5407650569699201,-0.474758770542221
-3.9865,0.00341386077189465,0.05507314971615059
-3.986,0.3555296310754218,0.309392471440169
-3.9855,0.5049120790829789,0.3517790250608387
-3.985,0.5155822539406614,0.2458126410091644
-3.9845,0.4622313796522482,0.09745970333682032
-3.984,0.4408910299368829,0.01268659609548085
-3.9835,0.6009436528021226,-0.008506680714854012
-3.983,0.6116138276598051,-0.008506680714854012
-3.9825,0.5262524287983441,0.03387987290581572
-3.982,0.4408910299368829,0.1186529801471552
-3.9815,0.3982103305061524,0.2034260873884947
-3.981,0.5155822539406614,0.4259554938970107
-3.9805,0.9317190733902845,0.627291623595192
-3.98,0.7609962756673623,0.04447651131098315
-3.9795,0.2168173579255475,-0.6549016234300674
-3.979,-0.3273615598162672,-0.9728007755850904
-3.9785,-0.3807124341046804,-0.6125150698093976
-3.978,-0.2099896363817582,-0.06148987274069118
-3.9775,0.00341386077189465,0.4153588554918433
-3.977,0.1634664836371343,0.7332580076468663
-3.9765,0.2488278824985954,0.9134008605347127
-3.976,0.291508581929326,0.9981739677760521
-3.9755,0.3128489316446912,1.00877060618122
-3.975,0.3021787567870086,0.9769806909657173
-3.9745,0.2808384070716433,0.92399749893988
-3.974,0.2381577076409128,0.8604176685088755
-3.9735,0.2061471830678648,0.7968378380778709
-3.973,0.1314559590640864,0.7120647308365314
-3.9725,-0.2633405106701714,0.2246193641988295
-3.972,-0.7008176798351597,-0.6019184314042303
-3.9715,-1.138294849000148,-1.34368311976595
-3.971,-1.244996597576974,-1.714565463946811
-3.9705,-0.8181896032696687,-1.195330182093607
-3.97,-0.2846808603855366,-0.5595318777835605
-3.9695,0.09944543449103843,-0.1992461720078678
-3.969,0.3341892813600565,-0.08268314955102604
-3.9685,0.4302208550792003,-0.07208651114585861
-3.968,0.4408910299368829,-0.06148987274069118
-3.9675,0.4195506802215176,-0.07208651114585861
-3.967,0.5689331282290746,0.1186529801471552
-3.9665,0.7289857510943143,0.309392471440169
-3.966,0.6649647019482183,0.2776025562246667
-3.9655,0.5369226036560266,0.1822328105781598
-3.965,0.4195506802215176,0.08686306493165288
-3.9645,0.3235191065023739,-0.04029659593035631
-3.964,-0.01792648894347063,-0.5383386009732256
-3.9635,-0.5087545323968721,-1.142346990067769
-3.963,-0.8928808272734472,-1.608599079895136
-3.9625,-1.26633694729234,-1.778145294377815
-3.962,-1.06360362499637,-1.174136905283272
-3.9615,-0.6047861061160158,-0.3793890248957141
-3.961,-0.1779791118087102,0.2670059178194992
-3.9605,0.1207857842064037,0.6908714540261965
-3.96,0.2701682322139607,0.92399749893988
-3.9595,0.3341892813600565,1.00877060618122
-3.959,0.3341892813600565,1.00877060618122
-3.9585,0.3235191065023739,0.9769806909657173
-3.958,0.3021787567870086,0.9134008605347127
-3.9575,0.2594980573562781,0.8392243916985406
-3.957,0.1954770082101822,0.775644561267536
-3.9565,0.142126133921769,0.7226613692416989
-3.956,-0.1139580626626144,0.4471487707073456
-3.9555,-0.7755089038389382,-0.3052125560595421
-3.955,-1.383708870726849,-1.089363798041932
-3.9545,-1.725154466172693,-1.682775548731308
-3.954,-1.533091318734406,-1.619195718300304
-3.9535,-0.8715404775580819,-1.004590690800593
-3.953,-0.2420001609548061,-0.4959520473525559
-3.9525,0.1848068333524996,-0.2310360872233701
-3.952,0.3982103305061524,-0.09327978795619347
-3.9515,0.4515612047945656,-0.04029659593035631
-3.951,0.4408910299368829,-0.01910331912002144
-3.9505,0.4729015545099309,0.01268659609548085
-3.95,0.6756348768059011,0.2564092794143318
-3.9495,0.6863050516635838,0.309392471440169
-3.949,0.5796033030867573,0.2352160026039969
-3.9485,0.4515612047945656,0.1716361721729923
-3.948,0.3555296310754218,0.1292496185523226
-3.9475,0.0674349099179905,-0.1886495336027004
-3.947,-0.658136980404429,-0.8350444763179138
-3.9465,-1.373038695869166,-1.42845622700729
-3.946,-1.735824641030376,-1.75695201756748
-3.9455,-1.629122892453549,-1.534422611058964
-3.945,-1.020922925565639,-0.7714646458869092
-3.9445,-0.4340633083930936,-0.02969995752518888
-3.944,-0.007256314085787988,0.5001319627331828
-3.9435,0.2381577076409128,0.8180311148882058
-3.943,0.3448594562177392,0.9557874141553824
-3.9425,0.3661998059331045,0.9769806909657173
-3.942,0.3555296310754218,0.9557874141553824
-3.9415,0.3235191065023739,0.8922075837243778
-3.941,0.291508581929326,0.8074344764830383
-3.9405,0.2381577076409128,0.7332580076468663
-3.94,0.1848068333524996,0.6696781772158616
-3.9395,0.00341386077189465,0.5107286011383502
-3.939,-0.5621054066852853,-0.1356663415768632
-3.9385,-1.26633694729234,-0.9198175835592532
-3.938,-1.87453691418025,-1.534422611058964
-3.9375,-1.67180359188428,-1.407262950196955
-3.937,-0.9675720512772257,-0.8244478379127463
-3.9365,-0.3060212101009019,-0.2946159176543747
-3.936,0.1634664836371343,0.03387987290581572
-3.9355,0.408880505363835,0.1822328105781598
-3.935,0.4835717293676135,0.1716361721729923
-3.9345,0.4729015545099309,0.07626642652648545
-3.934,0.4408910299368829,0.002089957690313421
-3.9335,0.6009436528021226,0.1716361721729923
-3.933,0.6542945270905358,0.2352160026039969
-3.9325,0.5689331282290746,0.1822328105781598
-3.932,0.4622313796522482,0.1292496185523226
-3.9315,0.3768699807907871,0.1186529801471552
-3.931,0.2808384070716433,-0.1250697031716958
-3.9305,-0.3060212101009019,-0.7396747306714069
-3.93,-1.052933450138687,-1.34368311976595
-3.9295,-1.458400094730627,-1.75695201756748
-3.929,-1.490410619303675,-1.672178910326141
-3.9285,-1.020922925565639,-0.9092209451540858
-3.928,-0.4767440078238243,-0.1144730647665284
-3.9275,-0.04993701351651855,0.4895353243280153
-3.927,0.2061471830678648,0.8604176685088755
-3.9265,0.3235191065023739,1.029963882991555
-3.926,0.3661998059331045,1.072350436612224
-3.9255,0.3555296310754218,1.040560521396722
-3.925,0.3341892813600565,0.9663840525605498
-3.9245,0.3021787567870086,0.8710143069140429
-3.924,0.2594980573562781,0.775644561267536
-3.9235,0.2061471830678648,0.6908714540261965
-3.923,0.1848068333524996,0.6060983467848571
-3.9225,-0.06060718837420119,0.4471487707073456
-3.922,-0.722158029550525,-0.2204394488182027
-3.9215,-1.26633694729234,-0.9833974139902578
-3.921,-1.234326422719292,-1.205926820498774
-3.9205,-0.6688071552621118,-0.6866915386455698
-3.92,-0.1032878878049318,-0.1144730647665284
-3.9195,0.2594980573562781,0.2352160026039969
-3.919,0.4302208550792003,0.2564092794143318
-3.9185,0.4729015545099309,0.13984625695749
-3.918,0.4515612047945656,0.03387987290581572
-3.9175,0.408880505363835,-0.04029659593035631
-3.917,0.4942419042252961,-0.1144730647665284
-3.9165,0.5902734779444399,-0.1568596183871981
-3.916,0.5475927785137094,-0.1038764263613609
-3.9155,0.4622313796522482,0.002089957690313421
-3.915,0.3875401556484697,0.1080563417419877
-3.9145,0.3235191065023739,0.1610395337678249
-3.914,0.0674349099179905,-0.2416327256285375
-3.9135,-0.4020527838200457,-0.8986243067489184
-3.913,-0.9142211769888124,-1.42845622700729
-3.9125,-1.244996597576974,-1.407262950196955
-3.912,-1.052933450138687,-0.8880276683437509
-3.9115,-0.5941159312583333,-0.1992461720078678
-3.911,-0.1673089369510276,0.3623756634660061
-3.9105,0.1314559590640864,0.7120647308365314
-3.91,0.2808384070716433,0.8922075837243778
-3.9095,0.3448594562177392,0.9557874141553824
-3.909,0.3448594562177392,0.9451907757502149
-3.9085,0.3341892813600565,0.8922075837243778
-3.908,0.3128489316446912,0.8286277532933731
-3.9075,0.2594980573562781,0.7438546460520338
-3.907,0.2274875327832301,0.6696781772158616
-3.9065,0.1634664836371343,0.627291623595192
-3.906,-0.2206598112394408,0.4365521323021782
-3.9055,-0.8502001278427167,-0.2628260024388724
-3.905,-1.298347471865388,-1.01518732920576
-3.9045,-1.458400094730627,-1.417859588602123
-3.904,-0.9462317015618604,-0.9198175835592532
-3.9035,-0.3166913849585846,-0.3052125560595421
-3.903,0.1741366584948169,0.1080563417419877
-3.9025,0.4302208550792003,0.1822328105781598
-3.902,0.5049120790829789,0.08686306493165288
-3.9015,0.4942419042252961,-0.008506680714854012
-3.901,0.4408910299368829,-0.07208651114585861
-3.9005,0.4515612047945656,-0.09327978795619347
-3.9,0.6542945270905358,-0.1250697031716958
-3.8995,0.6649647019482183,-0.08268314955102604
-3.899,0.5582629533713921,0.002089957690313421
-3.8985,0.4515612047945656,0.09745970333682032
-3.898,0.3661998059331045,0.1928294489833272
-3.8975,0.3341892813600565,-0.008506680714854012
-3.897,0.3875401556484697,-0.5277419625680583
-3.8965,0.1634664836371343,-1.121153713257435
-3.896,-0.4447334832507763,-1.534422611058964
-3.8955,-0.7434983792658902,-1.290699927740113
-3.895,-0.5621054066852853,-0.570128516188728
-3.8945,-0.2526703358124887,0.1080563417419877
-3.894,0.02475421048725994,0.6060983467848571
-3.8935,0.1954770082101822,0.8710143069140429
-3.893,0.291508581929326,0.9769806909657173
-3.8925,0.3235191065023739,0.9875773293708847
-3.892,0.3235191065023739,0.9451907757502149
-3.8915,0.3128489316446912,0.8604176685088755
-3.891,0.2808384070716433,0.775644561267536
-3.8905,0.2381577076409128,0.6802748156210291
-3.89,0.1634664836371343,0.6166949851900245
-3.8895,0.07810508477567314,0.4683420475176805
-3.889,-0.4127229586777283,-0.1356663415768632
-3.8885,-1.020922925565639,-0.8986243067489184
-3.888,-1.618452717595867,-1.534422611058964
-3.8875,-1.959898313041711,-1.831128486403653
-3.887,-1.405049220442214,-1.311893204550448
