Class_9_Think_Grab_one_hand_movement/Class_9_Think_Right_hand_Grab_UZ_8.csv

#Digilent WaveForms Oscilloscope Acquisition
#Device Name: EExplorer
#Serial Number: SN:210151A2B84A
#Date Time: 2020-12-20 12:44:50.220
#Sample rate: 2000Hz
#Samples: 16384
#Trigger: Source: Channel 1 Type: Edge Condition: Rising Level: 0 V Hyst.: Auto HoldOff: 0 s
#Channel 1: Range: 1 V/div Offset: 0 V
#Channel 2: Range: 1 V/div Offset: 0 V

Time (s),Channel 1 (V),Channel 2 (V)
-4.0960000000000001,0.45156120479456557,-0.51714532416289083
-4.0955000000000004,0.45156120479456557,-0.40058230170615505
-4.0949999999999998,0.60094365280220996,-0.48535540894749452
-4.0945,0.69697522652126631,-0.60191843140423029
-4.0940000000000003,0.088775259633908865,-0.15685961838760287
-4.0934999999999997,-0.46607383296613181,0.22461936419867529
-4.093,-0.4554036581084589,0.055073149716150585
-4.0925000000000002,-0.20998963638198137,-0.26282600243858328
-4.0919999999999996,0.046094560202799895,-0.49595204735262338
-4.0914999999999999,0.23815770764091276,-0.57012851618872795
-4.0910000000000002,0.34485945621773917,-0.51714532416289083
-4.0904999999999996,0.38754015564846972,-0.36879238649036361
-4.0899999999999999,0.38754015564846972,-0.1674562567923655
-4.0895000000000001,0.31284893164469124,0.023283234500648287
-4.0890000000000004,0.25949805735632658,0.20342608738833082
-4.0884999999999998,0.20614718306786484,0.29879583303500157
-4.0880000000000001,-0.08194753808956648,0.086863064931652884
-4.0875000000000004,-0.74349837926528861,-0.44296885532623698
-4.0869999999999997,-1.2449965975772461,-0.84564111472316794
-4.0865,-1.5437614935920885,-0.94101086036958814
-4.0860000000000003,-1.5010807941613966,-0.85623775312832584
-4.0854999999999997,-0.86087030269975873,-0.44296885532627545
-4.085,-0.15663876209334496,0.044476511310983152
-4.0845000000000002,0.40888050536332066,0.37297230187087482
-4.0839999999999996,0.7289857510944211,0.55311515475902961
-4.0834999999999999,0.84635767452882327,0.5637117931641874
-4.0830000000000002,0.857027849386506,0.48953532432801533
-4.0824999999999996,0.8143471499558238,0.40476221708636745
-4.0819999999999999,0.86769802424418851,0.065669788121318018
-4.0815000000000001,0.83568749967114075,-0.26282600243887239
-4.0810000000000004,0.69697522652139243,-0.4323722169213971
-4.0804999999999998,0.55826295337139209,-0.52774196256805828
-4.0800000000000001,0.4622313796522482,-0.62311170821456507
-4.0795000000000003,0.37686998079086476,-0.47475877054235593
-4.0789999999999997,0.21681735792582893,-0.26282600243892057
-4.0785,0.52625242879834411,-0.31580919446470956
-4.0780000000000003,1.0277506471089721,-0.4641621321369187
-4.0774999999999997,0.60094365280134621,-0.14626297998154875
-4.077,-0.25267033581248871,0.38356894027634103
-4.0765000000000002,-0.54076505696965804,0.34118238665570977
-4.0759999999999996,-0.38071243410442812,-0.040296595930683986
-4.0754999999999999,-0.10328788780493176,-0.40058230170604903
-4.0750000000000002,0.13145595906408636,-0.5807251545938954
-4.0744999999999996,0.28083840707172097,-0.60191843140412427
-4.0739999999999998,0.36619980593310447,-0.48535540894738849
-4.0735000000000001,0.3768699807907871,-0.30521255605954212
-4.0730000000000004,0.33418928136009535,-0.093279787956386223
-4.0724999999999998,0.25949805735627807,0.086863064931652884
-4.0720000000000001,0.13145595906408636,0.15044289536265748
-4.0715000000000003,-0.017926488943334762,0.086863064931710712
-4.0709999999999997,-0.42339313353600294,-0.1568596183876125
-4.0705,-1.0742737998540521,-0.61251506980939763
-4.0700000000000003,-1.6397930673107179,-1.004590690800236
-4.0694999999999997,-1.9385579633261909,-1.2271200973090031
-4.069,-1.7678351656034239,-1.1105570748522671
-4.0685000000000002,-1.0102527507079564,-0.59132179299906285
-4.0679999999999996,-0.16730893695047447,-0.15685961838693788
-4.0674999999999999,0.44089102993688295,0.12924961855232261
-4.0670000000000002,0.71831557623663156,0.34118238665567124
-4.0664999999999996,0.80367697509807334,0.42595549389701071
-4.0659999999999998,0.78233662538272752,0.42595549389701071
-4.0655000000000001,0.81434714995577528,0.29879583303500157
-4.0650000000000004,0.97439977282086943,-0.14626297998162585
-4.0644999999999998,0.8997085488172365,-0.38998566330088158
-4.0640000000000001,0.71831557623663156,-0.50654868575772338
-4.0635000000000003,0.56893312822921049,-0.60191843140414358
-4.0629999999999997,0.46223137965200556,-0.57012851618828464
-4.0625,0.19547700821018218,-0.082683149551026042
-4.0620000000000003,0.21681735792552809,0.584905069973915
-4.0614999999999997,0.36619980593282303,1.0935437134227519
-4.0609999999999999,0.05676473506030786,1.3054764815259077
-4.0605000000000002,-0.59411593125833329,1.3796529503620798
-4.0599999999999996,-0.73282820440796492,0.92399749893921501
-4.0594999999999999,-0.46607383296614152,0.19282944898332721
-4.0590000000000002,-0.12462823752029703,-0.37938902489571413
-4.0585000000000004,0.13145595906385346,-0.67609490024013241
-4.0579999999999998,0.29150858192932599,-0.73967473067140688
-4.0575000000000001,0.3768699807907871,-0.63370834661973252
-4.0570000000000004,0.39821033050613297,-0.42177557851657665
-4.0564999999999998,0.35552963107542179,-0.18864953360270037
-4.056,0.25949805735627807,0.0020899576903134209
-4.0555000000000003,0.19547700821024042,0.18223281057799592
-4.0549999999999997,0.12078578420608346,0.21402272579340187
-4.0545,-0.23132998609712346,-0.072086511145858609
-4.0540000000000003,-0.88221065241517249,-0.53833860097280151
-4.0534999999999997,-1.5224211438771111,-0.95160749877495787
-4.0529999999999999,-1.9492281381840288,-1.1741369052832717
-4.0525000000000002,-1.67180359188428,-0.97280077558509037
-4.0519999999999996,-0.85020012784199861,-0.36879238649004559
-4.0514999999999999,-0.06060718837420119,0.18223281057815977
-4.0510000000000002,0.51558225394066137,0.52132523954351762
-4.0505000000000004,0.79300680024015779,0.57430843156930667
-4.0499999999999998,0.857027849386506,0.5637117931641874
-4.0495000000000001,0.82501732481345802,0.47893868592284788
-4.0490000000000004,0.81434714995578494,0.31998910984548096
-4.0484999999999998,1.0277506471093893,0.42595549389686616
-4.048,0.98506994767869771,0.26700591781949923
-4.0475000000000003,0.82501732481360357,-0.019103319119761208
-4.0469999999999997,0.63295417737504445,-0.30521255605971559
-4.0465,0.49424190422529612,-0.49595204735255594
-4.0460000000000003,0.17413665849510807,-0.16745625679266429
-4.0454999999999997,-0.54076505697056054,0.48953532432852614
-4.0449999999999999,-1.2449965975769743,1.0511571598018894
-4.0445000000000002,-1.8211860398918371,1.241896651094903
-4.0439999999999996,-2.2266526844836707,1.2101067358792947
-4.0434999999999999,-2.1092807610492685,1.0935437134225592
-4.0430000000000001,-1.2876772970077051,0.54251851635385251
-4.0425000000000004,-0.53009488211292632,-0.029699957524668363
-4.0419999999999998,0.0034138607718946501,-0.38998566330088158
-4.0415000000000001,0.30217875678700862,-0.50654868575772338
-4.0410000000000004,0.43022085507908386,-0.4429688553267766
-4.0404999999999998,0.46223137965221911,-0.26282600243866999
-4.04,0.43022085507920033,-0.04029659593035631
-4.0395000000000003,0.38754015564850852,0.18223281057795737
-4.0389999999999997,0.27016823221386366,0.29879583303502083
-4.0385,0.16346648363713429,0.31998910984533641
-4.0380000000000003,-0.049937013516324458,0.20342608738860068
-4.0374999999999996,-0.53009488211274192,0.20342608738834045
-4.0369999999999999,-1.0849439747117349,0.033879872905815719
-4.0365000000000002,-1.6291228924535495,-0.25222936403370499
-4.0359999999999996,-1.6611334170259568,-0.50654868575758849
-4.0354999999999999,-0.95690187641954316,-0.3581957480853793
-4.0350000000000001,-0.19931946152407554,0.033879872905815719
-4.0345000000000004,0.3235191065018983,0.34118238665539175
-4.0339999999999998,0.6116138276598051,0.54251851635385251
-4.0335000000000001,0.69697522652126631,0.58490506997452218
-4.0330000000000004,0.70764540137893939,0.46834204751778652
-4.0324999999999998,0.70764540137912368,0.23521600260390058
-4.032,0.8997085488172365,0.12924961855232261
-4.0315000000000003,0.96372959796327429,0.044476511311060257
-4.0309999999999997,0.82501732481329304,-0.13566634157705595
-4.0305,0.64362435223285308,-0.34759910968021185
-4.0300000000000002,0.52625242879845091,-0.50654868575757883
-4.0294999999999996,0.28083840707109015,-0.36879238648998774
-4.0289999999999999,-0.32736155981626724,0.24581264100916439
-4.0285000000000002,-1.0529334501386869,0.88161094531921036
-4.0279999999999996,-1.6718035918846583,1.2207033742844622
-4.0274999999999999,-2.0879404113339031,1.1041403518277266
-4.0270000000000001,-2.23732285934146,1.146526905448396
-4.0265000000000004,-1.746494815888505,0.8604176685091357
-4.0259999999999998,-0.8928808272734472,0.27760255622466667
-4.0255000000000001,-0.24200016095480609,-0.19924617200786782
-4.0250000000000004,0.17413665849443843,-0.4429688553264971
-4.0244999999999997,0.38754015564853767,-0.48535540894729212
-4.024,0.4622313796522482,-0.37938902489571413
-4.0235000000000003,0.4622313796522482,-0.18864953360287384
-4.0229999999999997,0.40888050536372827,0.012686596095625417
-4.0225,0.29150858192932599,0.17163617217299235
-4.0220000000000002,0.22748753278328834,0.27760255622457031
-4.0214999999999996,0.11011560934826496,0.20342608738808987
-4.0209999999999999,-0.39138260896236304,-0.24163272562853755
-4.0205000000000002,-1.0849439747117349,-0.77146464588690922
-4.0199999999999996,-1.7358246410307059,-1.1529436284730525
-4.0194999999999999,-2.0986105861915858,-1.2801032893349458
-4.0190000000000001,-1.4263895701575793,-0.99399405239542526
-4.0185000000000004,-0.49808435754003388,-0.64430498502521805
-4.0179999999999998,0.16346648363713429,-0.18864953360270037
-4.0175000000000001,0.55826295337139209,0.24581264100916439
-4.0170000000000003,0.73965592595183183,0.47893868592263589
-4.0164999999999997,0.79300680024041004,0.53192187794860801
-4.016,0.79300680024041004,0.4471487707073456
-4.0155000000000003,0.88903837395946639,0.1716361721732429
-4.0149999999999997,1.0277506471093214,-0.24163272562871102
-4.0145,0.91037872367491923,-0.43237221692155131
-4.0140000000000002,0.72898575109447927,-0.51714532416281367
-4.0134999999999996,0.55826295337130472,-0.60191843140423029
-4.0129999999999999,0.4622313796522482,-0.60191843140423029
-4.0125000000000002,0.17413665849481691,-0.22043944881820265
-4.0119999999999996,0.1314559590645813,0.37297230187152053
-4.0114999999999998,0.67563487680590106,0.75445128445720111
-4.0110000000000001,0.51558225394066137,1.0405605213967219
-4.0105000000000004,-0.27401068552713592,1.2630899279050354
-4.0099999999999998,-0.64746680554674652,1.0087706061812196
-4.0095000000000001,-0.48741418268150688,0.34118238665567124
-4.0090000000000003,-0.18864928666666458,-0.24163272562800753
-4.0084999999999997,0.088775259633520759,-0.58072515459398211
-4.008,0.27016823221396069,-0.67609490024040231
-4.0075000000000003,0.36619980593301715,-0.59132179299913989
-4.0069999999999997,0.39821033050612331,-0.41117894011102374
-4.0065,0.36619980593310447,-0.19924617200786782
-4.0060000000000002,0.28083840707164331,0.0020899576903134209
-4.0054999999999996,0.14212613392168164,0.086863064931681791
-4.0049999999999999,0.046094560202625215,0.11865298014715518
-4.0045000000000002,-0.10328788780493176,0.097459703336820316
-4.0039999999999996,-0.65813698040496282,-0.22043944881864599
-4.0034999999999998,-1.2449965975769743,-0.70788481545590454
-4.0030000000000001,-1.6611334170265974,-1.0681705212315973
-4.0025000000000004,-1.6931439415996163,-1.0787671596367552
-4.0019999999999998,-1.1489650238578306,-0.60191843140423029
-4.0015000000000001,-0.44473348325077627,-0.093279787956193475
-4.0010000000000003,0.13145595906356228,0.31998910984496054
-4.0004999999999997,0.49424190422548053,0.64848490040559437
-4,0.69697522652126631,0.72266136924169888
-3.9994999999999998,0.77166645052504479,0.6590815388106942
-3.9990000000000001,0.80367697509809277,0.43655213230217815
-3.9984999999999999,1.1451225705439372,-0.10387642636136091
-3.9980000000000002,1.1984734448323504,-0.43237221692155131
-3.9975000000000001,0.98506994767869771,-0.53833860097322561
-3.9969999999999999,0.73965592595199681,-0.57012851618872795
-3.9965000000000002,0.5689331282290746,-0.55953187778356051
-3.996,0.25949805735627807,-0.1674562567923655
-3.9954999999999998,-0.26334051067017139,0.54251851635385251
-3.9950000000000001,-0.88221065241576446,1.1359302670432285
-3.9944999999999999,-1.46907026958831,1.3796529503620798
-3.9940000000000002,-2.0239193621878071,1.4114428655775821
-3.9935,-2.1946421599107295,1.3796529503620798
-3.9929999999999999,-1.522421143876723,0.82862775329337313
-3.9925000000000002,-0.72215802955052499,0.12924961855232261
-3.992,-0.12462823752029703,-0.37938902489571413
-3.9914999999999998,0.23815770764091276,-0.61251506980939763
-3.9910000000000001,0.40888050536383502,-0.63370834661973252
-3.9904999999999999,0.4622313796522482,-0.51714532416289083
-3.9900000000000002,0.43022085507920033,-0.32640583286987701
-3.9895,0.24882788249859539,-0.1674562567923655
-3.9889999999999999,-0.049937013516518552,-0.18864953360270037
-3.9885000000000002,-0.25267033581248871,-0.28401927924920728
-3.988,-0.43406330839309365,-0.49595204735255594
-3.9874999999999998,-0.91422117698881245,-0.86683439153341613
-3.9870000000000001,-1.4904106193036752,-1.1953301820936066
-3.9864999999999999,-2.0452597119031726,-1.3754730349814528
-3.9860000000000002,-2.0772702364762203,-1.227120097309109
-3.9855,-1.2876772970077051,-0.91981758355925325
-3.9849999999999999,-0.48741418268150688,-0.40058230170604903
-3.9845000000000002,0.19547700821018218,0.097459703336820316
-3.984,0.6116138276598051,0.46834204751768049
-3.9834999999999998,0.78233662538272752,0.68027481562102909
-3.9830000000000001,0.81434714995577528,0.71206473083653143
-3.9824999999999999,0.78233662538272752,0.58490506997452218
-3.9820000000000002,0.91037872367491923,0.24581264100916439
-3.9815,0.92104889853260175,-0.061489872740691176
-3.9809999999999999,0.78233662538272752,-0.25222936403370499
-3.9805000000000001,0.62228400251748783,-0.40058230170604903
-3.98,0.50491207908297886,-0.50654868575772338
-3.9794999999999998,0.3768699807907871,-0.38998566330088158
-3.9790000000000001,-0.14596858723566233,0.18223281057815977
-3.9784999999999999,-0.71148785469284226,0.81803111488820579
-3.9780000000000002,-1.2983474718653876,1.1889134590690658
-3.9775,-1.8211860398918371,1.1995100974742332
-3.9769999999999999,-2.2053123347684123,1.2630899279052379
-3.9765000000000001,-1.8105158650341544,0.93459413734504748
-3.976,-0.96757205127722568,0.26700591781949923
-3.9754999999999998,-0.29535103524321932,-0.30521255605954212
-3.9750000000000001,0.14212613392176898,-0.62311170821456507
-3.9744999999999999,0.3768699807907871,-0.70788481545590454
-3.9740000000000002,0.4622313796522482,-0.62311170821456507
-3.9735,0.4622313796522482,-0.43237221692155131
-3.9729999999999999,0.3982103305061524,-0.22043944881820265
-3.9725000000000001,0.31284893164469124,-0.019103319120021445
-3.972,0.16346648363713429,0.065669788121318018
-3.9714999999999998,0.0034138607718946501,-0.04029659593035631
-3.9710000000000001,-0.44473348325077627,-0.11447306476652835
-3.9704999999999999,-1.0956141495694174,-0.17805289519753292
-3.9700000000000002,-1.7358246410303759,-0.51714532416289083
-3.9695,-1.8211860398918371,-0.67609490024040231
-3.9689999999999999,-0.92489135184649518,-0.34759910968021185
-3.9685000000000001,-0.16730893695102761,-0.029699957525188878
-3.968,0.38754015564846972,0.15044289536265748
-3.9674999999999998,0.70764540137894905,0.25640927941433178
-3.9670000000000001,0.84635767452882327,0.29879583303500157
-3.9664999999999999,0.82501732481345802,0.26700591781949923
-3.9660000000000002,0.76099627566736228,0.19282944898332721
-3.9655,0.80367697509809277,0.055073149716150585
-3.9649999999999999,0.8997085488172365,-0.12506970317169577
-3.9645000000000001,0.80367697509809277,-0.22043944881820265
-3.964,0.65429452709053582,-0.26282600243887239
-3.9634999999999998,0.52625242879834411,-0.29461591765437467
-3.9630000000000001,0.47290155450993088,-0.30521255605954212
-3.9624999999999999,0.19547700821018218,0.0020899576903134209
-3.9620000000000002,-0.028596663801153277,0.66967817721586165
-3.9615,0.19547700821018218,1.2630899279052379
-3.9609999999999999,0.3982103305061524,1.6339722720860981
-3.9605000000000001,-0.17797911180871023,1.7399386561377725
-3.96,-0.4554036581084589,1.2630899279052379
-3.9594999999999998,-0.31669138495858457,0.48953532432801533
-3.9590000000000001,-0.071277363231883828,-0.12506970317169577
-3.9584999999999999,0.15279630877945163,-0.4641621321370536
-3.9580000000000002,0.30217875678700862,-0.55953187778356051
-3.9575,0.3768699807907871,-0.48535540894738849
-3.9569999999999999,0.3982103305061524,-0.32640583286987701
-3.9565000000000001,0.3768699807907871,-0.13566634157686319
-3.956,0.30217875678700862,0.033879872905815719
-3.9554999999999998,0.20614718306786484,0.13984625695749003
-3.9550000000000001,0.17413665849481691,0.2246193641988295
-3.9544999999999999,-0.10328788780493176,0.023283234500648287
-3.9540000000000002,-0.77550890383893822,-0.51714532416289083
-3.9535,-1.46907026958831,-1.01518732920576
-3.9529999999999998,-2.0132491873301248,-1.3118932045504481
-3.9525000000000001,-1.6504632421689147,-1.1211537132574345
-3.952,-0.82885977812735145,-0.62311170821456507
-3.9514999999999998,-0.071277363231883828,-0.17805289519753292
-3.9510000000000001,0.40888050536383502,0.25640927941433178
-3.9504999999999999,0.66496470194821833,0.52132523954351762
-3.9500000000000002,0.77166645052504479,0.59550170837968963
-3.9495,0.77166645052504479,0.50013196273318283
-3.9489999999999998,0.75032610080967954,0.33058574825050385
-3.9485000000000001,0.88903837395955376,0.25640927941433178
-3.948,0.84635767452882327,0.086863064931652884
-3.9474999999999998,0.70764540137894905,-0.12506970317169577
-3.9470000000000001,0.55826295337139209,-0.34759910968021185
-3.9464999999999999,0.4622313796522482,-0.55953187778356051
-3.9460000000000002,0.23815770764091276,-0.43237221692155131
-3.9455,0.099445434491038431,0.17163617217299235
-3.9449999999999998,0.41955068022151765,0.81803111488820579
-3.9445000000000001,0.47290155450993088,1.2630899279052379
-3.944,-0.19931946152407554,1.5068126112240887
-3.9434999999999998,-0.91422117698881245,1.5174092496292562
-3.9430000000000001,-0.94623170156186043,0.94519077575021493
-3.9424999999999999,-0.57277558154296804,0.20342608738849466
-3.9420000000000002,-0.15663876209334496,-0.34759910968021185
-3.9415,0.14212613392176898,-0.60191843140423029
-3.9409999999999998,0.32351910650237387,-0.63370834661973252
-3.9405000000000001,0.3982103305061524,-0.50654868575772338
-3.9399999999999999,0.40888050536383502,-0.30521255605954212
-3.9394999999999998,0.34485945621773917,-0.093279787956193475
-3.9390000000000001,0.22748753278323011,0.055073149716150585
-3.9384999999999999,0.067434909917990504,0.044476511310983152
-3.9380000000000002,-0.19931946152407554,-0.20984281041303524
-3.9375,-0.79684925355430347,-0.67609490024040231
-3.9369999999999998,-1.4157193952998968,-1.0787671596367647
-3.9365000000000001,-1.8638667393225676,-1.3118932045504481
-3.9359999999999999,-1.7571649907457412,-1.227120097309109
-3.9355000000000002,-1.0315931004233216,-0.75027136907657432
-3.9350000000000001,-0.31669138495858457,-0.25222936403370499
-3.9344999999999999,0.24882788249859539,0.086863064931652884
-3.9340000000000002,0.62228400251748783,0.30939247144016896
-3.9335,0.80367697509809277,0.40476221708667587
-3.9329999999999998,0.857027849386506,0.40476221708667587
-3.9325000000000001,0.83568749967114075,0.34118238665567124
-3.9319999999999999,1.0384208219671107,0.43655213230217815
-3.9315000000000002,1.1771330951169852,0.46834204751768049
-3.931,1.0170804722517455,0.20342608738849466
-3.9304999999999999,0.79300680024041004,-0.13566634157686319
-3.9300000000000002,0.6116138276598051,-0.42177557851638392
-3.9295,0.54759277851370936,-0.41117894011121647
-3.9289999999999998,0.36619980593310447,0.15044289536265748
