Class_9_Think_Grab_one_hand_movement/Class_9_Think_Right_hand_Grab_Basim_8.csv

#Digilent WaveForms Oscilloscope Acquisition
#Device Name: EExplorer
#Serial Number: SN:210151A2B84A
#Date Time: 2021-01-28 09:28:35.424
#Sample rate: 2000Hz
#Samples: 16384
#Trigger: Source: Channel 1 Type: Edge Condition: Rising Level: 0 V Hyst.: Auto HoldOff: 0 s
#Channel 1: Range: 1 V/div Offset: 0 V Attenuation: 1 X
#Channel 2: Range: 1 V/div Offset: 0 V Attenuation: 1 X
#Power Supplies: ON
#Fixed Supply: ON
#Voltage: 3.3 V Readback: 3.331 V
#Positive Supply: ON
#Voltage: 3.7 V Readback: 3.713 V
#Current: 40 mA Readback: 18 mA
#Negative Supply: ON
#Voltage: -3.7 V Readback: -3.352 V
#Current: -40 mA Readback: -7 mA
#Reference 1: ON
#Voltage: 0 V
#Reference 2: ON
#Voltage: 0 V

Time (s),Channel 1 (V),Channel 2 (V)
-4.096,-1.052933450138687,-1.820531847998485
-4.0955,-0.9569018764196305,-1.492036057438594
-4.095,-0.4447334832503493,-0.9833974139898048
-4.0945,0.02475421048725994,-0.4853554089473885
-4.094,0.3235191065021021,-0.1356663415771812
-4.0935,0.4515612047945947,0.06566978812139512
-4.093,0.4835717293676135,0.1504428953626575
-4.0925,0.4622313796522676,0.1610395337678153
-4.092,0.4195506802214206,0.1822328105783429
-4.0915,0.3128489316446912,0.383568940276341
-4.091,0.2701682322139607,0.383568940276341
-4.0905,0.2808384070716724,0.2670059178193932
-4.09,0.3128489316446912,0.1504428953626575
-4.0895,0.3235191065023739,0.08686306493165288
-4.089,0.1207857842065881,0.3517790250605978
-4.0885,-0.5407650569699201,0.5319218779486851
-4.088,-1.287677297007705,-0.1144730647665284
-4.0875,-1.789175515318333,-0.8350444763172584
-4.087,-1.874536914179677,-1.280103289334724
-4.0865,-1.244996597576974,-1.036380606016095
-4.086,-0.5727755815435794,-0.4959520473530474
-4.0855,-0.04993701351622742,0.01268659609580853
-4.085,0.2701682322139607,0.3729723018711736
-4.0845,0.4195506802213818,0.5743084315691718
-4.084,0.4622313796522385,0.680274815621058
-4.0835,0.4515612047945656,0.7120647308365314
-4.083,0.4302208550792003,0.701468092431364
-4.0825,0.4088805053638156,0.6802748156209906
-4.082,0.3875401556484697,0.6378882620003594
-4.0815,0.3768699807907871,0.5849050699745222
-4.081,0.5049120790828624,0.3623756634662085
-4.0805,0.5049120790829789,-0.3475991096802118
-4.08,-0.2313299860971235,-1.131750351662602
-4.0795,-1.063603624995613,-1.76754865597207
-4.079,-1.244996597576528,-1.841725124808377
-4.0785,-0.754168554123573,-1.354279758171118
-4.078,-0.2313299860975989,-0.7290780922668081
-4.0775,0.1527963087796457,-0.2522293640334448
-4.077,0.3661998059331045,0.03387987290581572
-4.0765,0.4515612047944879,0.1716361721728671
-4.076,0.4622313796522288,0.1822328105781405
-4.0755,0.4408910299368829,0.1610395337678249
-4.075,0.291508581929326,0.3517790250608387
-4.0745,0.1954770082101919,0.4259554938969047
-4.074,0.2061471830678648,0.309392471440169
-4.0735,0.2594980573562781,0.1716361721729923
-4.073,0.3128489316446427,0.07626642652657219
-4.0725,0.1848068333524996,0.2352160026039969
-4.072,-0.4447334832507763,0.6378882620003594
-4.0715,-1.212986073003228,0.1716361721734164
-4.071,-1.863866739322839,-0.6231117082150951
-4.0705,-2.162631635337682,-1.205926820498774
-4.07,-1.554431668450324,-1.131750351662669
-4.0695,-0.764838728980712,-0.6337083466192507
-4.069,-0.1673089369510276,-0.1038764263613609
-4.0685,0.2168173579255475,0.2881991946298341
-4.068,0.4088805053638933,0.5319218779487911
-4.0675,0.4729015545099309,0.6484849004055269
-4.067,0.4729015545099309,0.701468092431364
-4.0665,0.4408910299368635,0.7014680924313447
-4.066,0.4195506802215176,0.6802748156210291
-4.0655,0.3982103305061524,0.6378882620003594
-4.065,0.3875401556484794,0.5955017083797282
-4.0645,0.4302208550792003,0.4895353243280153
-4.064,0.8036769750980928,-0.06148987274069118
-4.0635,1.04909099682457,-0.8668343915326837
-4.063,0.3661998059324252,-1.56621252627465
-4.0625,-0.3807124341046804,-1.767548655972648
-4.062,-0.3807124341046804,-1.089363798042549
-4.0615,-0.1032878878046794,-0.4535654937315682
-4.061,0.1741366584948169,-0.1038764263613609
-4.0605,0.3555296310754218,0.06566978812131802
-4.06,0.4302208550792198,0.129249618552313
-4.0595,0.4515612047945656,0.1186529801471552
-4.059,0.4302208550792003,0.08686306493165288
-4.0585,0.3875401556485085,0.1716361721729152
-4.058,0.3128489316446912,0.3411823866556712
-4.0575,0.3021787567870086,0.2987958330350016
-4.057,0.3128489316446815,0.2034260873885814
-4.0565,0.3341892813600565,0.1186529801471552
-4.056,0.3235191065023739,0.1186529801471552
-4.0555,-0.02859666380083303,0.5107286011379936
-4.055,-0.7541685541242231,0.4365521323015035
-4.0545,-1.46907026958831,-0.3052125560595421
-4.054,-1.981238662756611,-0.5065486857575403
-4.0535,-1.778505340460427,-0.1144730647663356
-4.053,-1.031593100423322,0.09745970333682032
-4.0525,-0.3700422592469978,0.1928294489833272
-4.052,0.08877525963358869,0.2458126410092126
-4.0515,0.3448594562177392,0.2987958330350016
-4.051,0.4515612047945656,0.3623756634660061
-4.0505,0.4729015545099114,0.4365521323021107
-4.05,0.4515612047945656,0.5107286011383502
-4.0495,0.4195506802215176,0.5743084315693548
-4.049,0.3982103305061718,0.6484849004054594
-4.0485,0.3875401556484697,0.6908714540262254
-4.048,0.3875401556484697,0.7226613692416989
-4.0475,0.526252428798218,0.4365521323024384
-4.047,0.2061471830671176,-0.2416327256291447
-4.0465,-0.6154562809736985,-0.9092209451540858
-4.046,-1.277007122149421,-1.290699927739766
-4.0455,-1.084943974711211,-0.9516074987742543
-4.045,-0.5087545323968721,-0.400582301706049
-4.0445,-0.007256314085787988,0.09745970333682032
-4.044,0.3128489316448174,0.4471487707074998
-4.0435,0.4515612047945656,0.6166949851900245
-4.043,0.4942419042252961,0.627291623595192
-4.0425,0.4729015545099503,0.5637117931642452
-4.042,0.4835717293676135,0.5001319627331828
-4.0415,0.6222840025174878,0.5955017083796896
-4.041,0.6222840025174878,0.4789386859229539
-4.0405,0.5475927785136414,0.245812641008962
-4.04,0.4729015545099309,0.02328323450064829
-4.0395,0.4088805053638933,-0.1462629799818764
-4.039,0.1741366584942249,0.04447651131125301
-4.0385,-0.4767440078238243,0.3411823866556712
-4.038,-1.234326422718603,-0.1780528951970607
-4.0375,-1.789175515318915,-0.8562377531286341
-4.037,-1.927887788468663,-1.280103289334946
-4.0365,-1.287677297007705,-1.068170521231597
-4.036,-0.594115931257848,-0.5807251545934906
-4.0355,-0.06060718837420119,-0.1356663415768632
-4.035,0.2701682322139607,0.1822328105781598
-4.0345,0.4195506802213818,0.3623756634658423
-4.034,0.4729015545099309,0.4471487707073456
-4.0335,0.4622313796522482,0.4683420475176805
-4.033,0.4302208550792295,0.4683420475176805
-4.0325,0.4088805053638253,0.4577454091124938
-4.032,0.3982103305061524,0.4365521323021782
-4.0315,0.3875401556484794,0.4153588554918626
-4.031,0.515582253941098,0.2458126410085765
-4.0305,0.9957401225363802,-0.400582301706049
-4.03,1.038420821967072,-1.152943628472253
-4.0295,0.1954770082096872,-1.767548655972484
-4.029,-0.3487019095316325,-1.587405803084801
-4.0285,-0.2633405106701714,-0.8032545611024114
-4.028,-0.01792648894325713,-0.1462629799816548
-4.0275,0.2168173579255475,0.2670059178194992
-4.027,0.3555296310754218,0.4365521323021782
-4.0265,0.4195506802214594,0.4683420475176516
-4.026,0.4302208550792003,0.4153588554918433
-4.0255,0.4195506802215176,0.3517790250608387
-4.025,0.3341892813601341,0.48953532432789
-4.0245,0.2594980573562878,0.5319218779485694
-4.024,0.2701682322139607,0.4047622170866759
-4.0235,0.3021787567869795,0.2564092794144667
-4.023,0.3235191065022671,0.1398462569575961
-4.0225,0.2061471830678648,0.2564092794143318
-4.022,-0.4340633083925114,0.5743084315690657
-4.0215,-1.202315898146816,0.06566978812063375
-4.021,-1.83185621474952,-0.6866915386455698
-4.0205,-2.119950935906951,-1.078767159636765
-4.02,-1.650463242168206,-1.068170521231192
-4.0195,-0.8715404775580819,-0.6231117082145651
-4.019,-0.2420001609548061,-0.1462629799820306
-4.0185,0.1741366584944384,0.2246193641984922
-4.018,0.3875401556484697,0.4471487707073456
-4.0175,0.4622313796522482,0.5743084315693548
-4.017,0.4729015545099212,0.6060983467848282
-4.0165,0.4408910299368635,0.6060983467848474
-4.016,0.4195506802215176,0.5955017083796896
-4.0155,0.3982103305061718,0.5637117931642163
-4.015,0.3875401556484988,0.5213252395434406
-4.0145,0.4195506802215176,0.4365521323021782
-4.014,0.7396559259517057,-0.08268314955055378
-4.0135,0.4942419042245392,-0.8668343915340522
-4.013,-0.3380317346739499,-1.566212526274467
-4.0125,-0.9569018764195432,-1.831128486403653
-4.012,-0.754168554123146,-1.290699927739593
-4.0115,-0.2846808603855366,-0.718481453861072
-4.011,0.1527963087794516,-0.3158091944647096
-4.0105,0.3982103305059292,-0.04029659593060686
-4.01,0.4942419042252961,0.1080563417419877
-4.0095,0.4942419042252961,0.1610395337678249
-4.009,0.4729015545099503,0.1716361721729827
-4.0085,0.5262524287984702,0.2246193641989644
-4.008,0.6649647019482183,0.3729723018711736
-4.0075,0.6436243522328725,0.3305857482505424
-4.007,0.5582629533713145,0.2246193641987524
-4.0065,0.4729015545099309,0.13984625695749
-4.006,0.3875401556484697,0.1186529801471552
-4.0055,0.03542438534431179,0.5001319627332214
-4.005,-0.658136980404429,0.5425185163538525
-4.0045,-1.351698346153801,-0.1780528951975329
-4.004,-1.725154466172625,-0.9304142219647388
-4.0035,-1.650463242168915,-1.280103289334946
-4.003,-1.020922925565639,-0.9410108603695881
-4.0025,-0.4020527838206086,-0.4005823017065405
-4.002,0.05676473506030786,0.06566978812131802
-4.0015,0.3128489316446912,0.383568940276341
-4.001,0.4302208550790936,0.5637117931640235
-4.0005,0.4622313796522385,0.6378882620003787
-4,0.4515612047945656,0.6590815388106942
-3.9995,0.4195506802215176,0.6484849004055269
-3.999,0.3982103305061524,0.6166949851900245
-3.9985,0.3875401556484697,0.5849050699745222
-3.998,0.3875401556484697,0.5319218779486851
-3.9975,0.6222840025174878,0.1822328105781598
-3.997,1.070431346540159,-0.5807251545938954
-3.9965,0.6436243522328531,-1.333086481360783
-3.996,-0.2526703358124887,-1.88411167842949
-3.9955,-0.5087545323968721,-1.75695201756748
-3.995,-0.274010685527854,-1.068170521231597
-3.9945,0.03542438534494258,-0.4429688553267188
-3.994,0.2594980573562781,-0.01910331912002144
-3.9935,0.3875401556484697,0.2140227257936621
-3.993,0.4302208550792003,0.2881991946298341
-3.9925,0.4302208550792003,0.2776025562246667
-3.992,0.4195506802215176,0.2670059178194992
-3.9915,0.3661998059331045,0.4471487707073456
-3.991,0.3341892813600565,0.4153588554918433
-3.9905,0.3341892813600565,0.2776025562246667
-3.99,0.3448594562177392,0.1292496185523226
-3.9895,0.3448594562177392,0.04447651131098315
-3.989,0.1101156093487211,0.3199891098453364
-3.9885,-0.5087545323968721,0.6484849004055269
-3.988,-1.244996597576974,0.06566978812131802
-3.9875,-1.778505340461106,-0.7078848154559045
-3.987,-1.863866739322568,-1.184733543688439
-3.9865,-1.234326422719292,-0.9728007755850904
-3.986,-0.5514352318276028,-0.474758770542221
-3.9855,-0.03926683865883591,-0.008506680714854012
-3.985,0.2808384070716433,0.3199891098453364
-3.9845,0.4195506802215176,0.5213252395435176
-3.984,0.4622313796522482,0.6166949851900245
-3.9835,0.4515612047945656,0.6484849004055269
-3.983,0.4302208550792003,0.6378882620003594
-3.9825,0.408880505363835,0.6166949851900245
-3.982,0.3875401556484697,0.5849050699745222
-3.9815,0.3875401556484697,0.5425185163538525
-3.981,0.5049120790829789,0.3623756634660061
-3.9805,0.7503261008096795,-0.3158091944647096
-3.98,0.3555296310754218,-1.089363798041932
-3.9795,-0.5194247072545548,-1.746355379162313
-3.979,-0.8181896032696687,-1.576809164679634
-3.9785,-0.4447334832507763,-0.9728007755850904
-3.978,0.00341386077189465,-0.4323722169215513
-3.9775,0.291508581929326,-0.1356663415768632
-3.977,0.4408910299368829,0.01268659609548085
-3.9765,0.4835717293676135,0.07626642652648545
-3.976,0.4729015545099309,0.07626642652648545
-3.9755,0.4408910299368829,0.07626642652648545
-3.975,0.5049120790829789,0.2458126410091644
-3.9745,0.5262524287983441,0.3517790250608387
-3.974,0.4942419042252961,0.2987958330350016
-3.9735,0.4408910299368829,0.2140227257936621
-3.973,0.3982103305061524,0.1716361721729923
-3.9725,0.291508581929326,0.2670059178194992
-3.972,-0.2633405106701714,0.6166949851900245
-3.9715,-1.042263275281004,0.2034260873884947
-3.971,-1.714484291315011,-0.6019184314042303
-3.9705,-2.109280761049269,-1.205926820498774
-3.97,-1.618452717595867,-1.163540266878104
-3.9695,-0.8502001278427167,-0.6337083466197325
-3.969,-0.2206598112394408,-0.07208651114585861
-3.9685,0.1741366584948169,0.3517790250608387
-3.968,0.3875401556484697,0.6166949851900245
-3.9675,0.4622313796522482,0.7544512844572011
-3.967,0.4622313796522482,0.7968378380778709
-3.9665,0.4408910299368829,0.7968378380778709
-3.966,0.408880505363835,0.7650479228623686
-3.9655,0.3982103305061524,0.7226613692416989
-3.965,0.3875401556484697,0.6590815388106942
-3.9645,0.3982103305061524,0.5637117931641874
-3.964,0.6542945270905358,0.04447651131098315
-3.9635,0.3021787567870086,-0.7608680074817418
-3.963,-0.5514352318276028,-1.492036057438295
-3.9625,-1.116954499284783,-1.746355379162313
-3.962,-0.8181896032696687,-1.078767159636765
-3.9615,-0.274010685527854,-0.5171453241628908
-3.961,0.142126133921769,-0.2204394488182027
-3.9605,0.3875401556484697,-0.08268314955102604
-3.96,0.4729015545099309,-0.05089323433552374
-3.9595,0.4835717293676135,-0.05089323433552374
-3.959,0.4515612047945656,-0.07208651114585861
-3.9585,0.5155822539406614,0.02328323450064829
-3.958,0.6756348768059011,0.2564092794143318
-3.9575,0.6542945270905358,0.2458126410091644
-3.957,0.5582629533713921,0.1716361721729923
-3.9565,0.4729015545099309,0.1080563417419877
-3.956,0.3875401556484697,0.1186529801471552
-3.9555,0.01408403562957729,0.5107286011383502
-3.955,-0.7008176798351597,0.5319218779486851
-3.9545,-1.405049220442214,-0.1992461720078678
-3.954,-1.863866739322568,-0.8986243067489184
-3.9535,-1.778505340461106,-1.184733543688439
-3.953,-1.084943974711735,-0.8032545611024114
-3.9525,-0.423393133535411,-0.2310360872233701
-3.952,0.04609456020262521,0.2670059178194992
-3.9515,0.3128489316446912,0.5955017083796896
-3.951,0.4408910299368829,0.7862411996727035
-3.9505,0.4622313796522482,0.8710143069140429
-3.95,0.4515612047945656,0.8816109453192104
-3.9495,0.4195506802215176,0.8604176685088755
-3.949,0.3982103305061524,0.8180311148882058
-3.9485,0.3875401556484697,0.7650479228623686
-3.948,0.3875401556484697,0.6802748156210291
-3.9475,0.5796033030867573,0.3199891098453364
-3.947,0.3661998059331045,-0.4641621321370536
-3.9465,-0.4554036581084589,-1.248313374119443
-3.946,-1.223656247861609,-1.84172512480882
-3.9455,-1.223656247861609,-1.640388995110639
-3.945,-0.690147504977477,-1.089363798041932
-3.9445,-0.156638762093345,-0.6019184314042303
-3.944,0.2061471830678648,-0.2628260024388724
-3.9435,0.408880505363835,-0.07208651114585861
-3.943,0.4729015545099309,0.002089957690313421
-3.9425,0.4622313796522482,0.02328323450064829
-3.942,0.4515612047945656,0.04447651131098315
-3.9415,0.4729015545099309,0.2458126410091644
-3.941,0.4515612047945656,0.2670059178194992
-3.9405,0.4302208550792003,0.1822328105781598
-3.94,0.3982103305061524,0.08686306493165288
-3.9395,0.3768699807907871,0.04447651131098315
-3.939,0.1314559590640864,0.309392471440169
-3.9385,-0.5087545323968721,0.7332580076468663
-3.938,-1.244996597576974,0.2246193641988295
-3.9375,-1.735824641030376,-0.5595318777835605
-3.937,-1.853196564464885,-1.131750351662602
-3.9365,-1.298347471865388,-1.036380606016095
-3.936,-0.6261264558313813,-0.5489352393783931
-3.9355,-0.09261771294724913,-0.02969995752518888
-3.935,0.2488278824985954,0.3517790250608387
-3.9345,0.408880505363835,0.5849050699745222
-3.934,0.4622313796522482,0.7120647308365314
-3.9335,0.4622313796522482,0.7544512844572011
-3.933,0.4302208550792003,0.7650479228623686
-3.9325,0.408880505363835,0.7438546460520338
-3.932,0.3982103305061524,0.7120647308365314
-3.9315,0.3875401556484697,0.6590815388106942
-3.931,0.4835717293676135,0.5001319627331828
-3.9305,0.9850699476786977,-0.1568596183871981
-3.93,1.017080472251745,-0.9516074987747555
-3.9295,0.142126133921769,-1.619195718300304
-3.929,-0.4554036581084589,-1.88411167842949
-3.9285,-0.3487019095316325,-1.555615887869299
-3.928,-0.02859666380115328,-1.01518732920576
-3.9275,0.2274875327832301,-0.5065486857577234
-3.927,0.3768699807907871,-0.1568596183871981
-3.9265,0.4302208550792003,0.02328323450064829
-3.926,0.4408910299368829,0.08686306493165288
-3.9255,0.4302208550792003,0.08686306493165288
-3.925,0.4942419042252961,0.2352160026039969
-3.9245,0.5262524287983441,0.2987958330350016
-3.924,0.4942419042252961,0.2140227257936621
-3.9235,0.4302208550792003,0.1080563417419877
-3.923,0.3982103305061524,0.04447651131098315
-3.9225,0.2808384070716433,0.1292496185523226
-3.922,-0.2633405106701714,0.5743084315693548
-3.9215,-1.031593100423322,0.3517790250608387
-3.921,-1.703814116457328,-0.4217755785163839
-3.9205,-2.07727023647622,-1.046977244421262
-3.92,-1.554431668449771,-1.01518732920576
-3.9195,-0.7968492535543035,-0.5489352393783931
-3.919,-0.1886492866663929,-0.02969995752518888
-3.9185,0.1954770082101822,0.3729723018711736
-3.918,0.3875401556484697,0.6166949851900245
-3.9175,0.4622313796522482,0.7438546460520338
-3.917,0.4622313796522482,0.7968378380778709
-3.9165,0.4408910299368829,0.8074344764830383
-3.916,0.408880505363835,0.775644561267536
-3.9155,0.3875401556484697,0.7438546460520338
-3.915,0.3875401556484697,0.6908714540261965
-3.9145,0.3982103305061524,0.5955017083796896
-3.914,0.7289857510943143,0.1080563417419877
-3.9135,1.081101521397841,-0.7078848154559045
-3.913,0.4515612047945656,-1.439052865412457
-3.9125,-0.3487019095316325,-1.735758740757146
-3.912,-0.391382608962363,-1.089363798041932
-3.9115,-0.1032878878049318,-0.4535654937318862
-3.911,0.1634664836371343,-0.1038764263613609
-3.9105,0.3341892813600565,0.03387987290581572
-3.91,0.408880505363835,0.05507314971615059
-3.9095,0.4302208550792003,0.02328323450064829
-3.909,0.4195506802215176,-0.02969995752518888
-3.9085,0.4835717293676135,0.03387987290581572
-3.908,0.6436243522328531,0.2246193641988295
-3.9075,0.6329541773751706,0.2246193641988295
-3.907,0.5475927785137094,0.1610395337678249
-3.9065,0.4622313796522482,0.1186529801471552
-3.906,0.3768699807907871,0.1292496185523226
-3.9055,-0.06060718837420119,0.55311515475902
-3.905,-0.8181896032696687,0.6908714540261965
-3.9045,-1.533091318734406,-0.01910331912002144
-3.904,-1.959898313041711,-0.6972881770507372
-3.9035,-1.853196564464885,-1.01518732920576
-3.903,-1.138294849000148,-0.7290780922662394
-3.9025,-0.4554036581084589,-0.2310360872233701
-3.902,0.02475421048725994,0.2140227257936621
-3.9015,0.3128489316446912,0.5319218779486851
-3.901,0.4302208550792003,0.7226613692416989
-3.9005,0.4622313796522482,0.8180311148882058
-3.9,0.4515612047945656,0.8392243916985406
-3.8995,0.4195506802215176,0.8286277532933731
-3.899,0.3982103305061524,0.8074344764830383
-3.8985,0.3875401556484697,0.7544512844572011
-3.898,0.3768699807907871,0.6908714540261965
-3.8975,0.5796033030867573,0.3729723018711736
-3.897,0.4835717293676135,-0.400582301706049
-3.8965,-0.3060212101009019,-1.184733543688439
-3.896,-1.1062843244271,-1.75695201756748
-3.8955,-1.138294849000148,-1.566212526274467
-3.895,-0.6474668055467465,-0.9833974139902578
-3.8945,-0.1459685872356623,-0.4429688553267188
-3.894,0.2061471830678648,-0.07208651114585861
-3.8935,0.3875401556484697,0.1186529801471552
-3.893,0.4515612047945656,0.1716361721729923
-3.8925,0.4515612047945656,0.1504428953626575
-3.892,0.4515612047945656,0.1292496185523226
-3.8915,0.5902734779444399,0.3199891098453364
-3.891,0.6116138276598051,0.3199891098453364
-3.8905,0.5475927785137094,0.1928294489833272
-3.89,0.4729015545099309,0.07626642652648545
-3.8895,0.3982103305061524,0.002089957690313421
-3.889,0.07810508477567314,0.2881991946298341
-3.8885,-0.6154562809736985,0.701468092431364
-3.888,-1.362368521011484,0.2034260873884947
-3.8875,-1.906547438753298,-0.5807251545938954
-3.887,-2.002579012472442,-1.0999604364471
-3.8865,-1.341028171296118,-0.9622041371799229
