Class_9_Think_Grab_one_hand_movement/Class_9_Think_Right_hand_Grab_Basim_7.csv

#Digilent WaveForms Oscilloscope Acquisition
#Device Name: EExplorer
#Serial Number: SN:210151A2B84A
#Date Time: 2021-01-24 16:25:15.733
#Sample rate: 2000Hz
#Samples: 16384
#Trigger: Source: Channel 1 Type: Edge Condition: Rising Level: 0 V Hyst.: Auto HoldOff: 0 s
#Channel 1: Range: 1 V/div Offset: 0 V Attenuation: 1 X
#Channel 2: Range: 1 V/div Offset: 0 V Attenuation: 1 X
#Power Supplies: ON
#Fixed Supply: ON
#Voltage: 3.3 V Readback: 3.317 V
#Positive Supply: ON
#Voltage: 3.7 V Readback: 3.717 V
#Current: 40 mA Readback: 16 mA
#Negative Supply: ON
#Voltage: -3.7 V Readback: -3.334 V
#Current: -40 mA Readback: -15 mA
#Reference 1: ON
#Voltage: 0 V
#Reference 2: ON
#Voltage: 0 V

Time (s),Channel 1 (V),Channel 2 (V)
-4.096,0.3021787567870086,-0.3793890248957141
-4.0955,0.3875401556483921,-0.2098428104131894
-4.095,0.3341892813599692,-0.07208651114580078
-4.0945,0.2381577076409128,-0.008506680714854012
-4.094,0.1527963087795293,0.03387987290577717
-4.0935,0.1527963087794905,0.1292496185524479
-4.093,0.1954770082101822,0.2670059178194992
-4.0925,0.1634664836371634,0.3093924714401304
-4.092,0.1207857842063552,0.309392471440169
-4.0915,0.0674349099179905,0.309392471440169
-4.091,0.02475421048725994,0.3411823866556712
-4.0905,-0.2740106855284557,0.6696781772163821
-4.09,-0.9355615267041777,1.241896651094903
-4.0895,-1.501080794161358,1.29487984312074
-4.089,-2.023919362187331,0.4683420475184322
-4.0885,-2.098610586191586,-0.3158091944647096
-4.088,-1.426389570157579,-0.3899856633008816
-4.0875,-0.786179078697203,-0.1038764263616211
-4.087,-0.3166913849583323,0.2564092794146113
-4.0865,-0.03926683865883591,0.5637117931641874
-4.086,0.08877525963323933,0.7862411996725011
-4.0855,0.120785784206394,0.9345941373451245
-4.085,0.1101156093487211,1.019367244586387
-4.0845,0.08877525963337518,1.051157159801861
-4.084,0.0674349099179808,0.9875773293708077
-4.0835,0.05676473506030786,0.9028042221295453
-4.083,0.05676473506030786,0.8180311148882058
-4.0825,0.07810508477571196,0.6696781772153508
-4.082,0.1207857842064037,0.1080563417419877
-4.0815,-0.1673089369510276,-0.6231117082145651
-4.081,-0.7755089038383851,-1.248313374118875
-4.0805,-0.839529952985034,-1.735758740757146
-4.08,-0.3593720843893152,-1.84172512480882
-4.0795,0.07810508477527522,-1.354279758171561
-4.079,0.3128489316447495,-0.7290780922657671
-4.0785,0.3768699807907871,-0.2098428104130352
-4.078,0.3448594562177683,0.06566978812106747
-4.0775,0.2701682322139122,0.1292496185523419
-4.077,0.2168173579255475,0.1504428953626575
-4.0765,0.291508581929258,0.33058574825034
-4.076,0.2701682322138927,0.3093924714400822
-4.0755,0.1954770082101822,0.2140227257936621
-4.075,0.1207857842064037,0.1186529801471552
-4.0745,0.06743490991781582,0.07626642652663965
-4.074,-0.124628237520297,0.2458126410091644
-4.0735,-0.7114878546928423,0.8180311148882058
-4.073,-1.373038695868564,0.913400860534626
-4.0725,-1.87453691418025,0.1928294489833272
-4.072,-2.013249187330125,-0.5277419625680583
-4.0715,-1.426389570158113,-0.538338600973216
-4.071,-0.8075194284115493,-0.1886495336023341
-4.0705,-0.3273615598162672,0.2140227257936621
-4.07,-0.04993701351677088,0.5425185163535537
-4.0695,0.0887752596333946,0.7756445612676612
-4.069,0.1314559590640864,0.9134008605347127
-4.0685,0.1207857842064037,0.9875773293708847
-4.068,0.09944543449101902,1.00877060618121
-4.0675,0.07810508477567314,0.9981739677760521
-4.067,0.05676473506030786,0.9345941373450475
-4.0665,0.05676473506032727,0.8286277532932479
-4.066,0.07810508477567314,0.6908714540261965
-4.0655,0.3661998059331045,0.2352160026039969
-4.065,0.8250173248130408,-0.5065486857570487
-4.0645,0.5796033030867573,-1.184733543688439
-4.064,0.04609456020262521,-1.407262950196955
-4.0635,0.07810508477564403,-0.8880276683442232
-4.063,0.2488278824986633,-0.7396747306712238
-4.0625,0.3235191065023739,-0.5383386009732256
-4.062,0.302178756787028,-0.3264058328700697
-4.0615,0.2381577076408545,-0.1780528951974558
-4.061,0.1741366584948169,-0.09327978795619347
-4.0605,0.1207857842064037,-0.05089323433552374
-4.06,0.2488278824986536,0.1504428953627731
-4.0595,0.3128489316446912,0.2776025562246667
-4.059,0.2594980573562781,0.2670059178194992
-4.0585,0.1848068333525675,0.2564092794143414
-4.058,0.1101156093487211,0.2458126410091644
-4.0575,0.03542438534494258,0.2776025562246667
-4.057,-0.3060212101005914,0.2246193641988777
-4.0565,-0.9035510021311299,-0.2416327256285375
-4.056,-1.46907026958831,-0.8456411147230812
-4.0555,-1.927887788468246,-1.174136905282973
-4.055,-1.725154466172121,-0.8880276683431823
-4.0545,-1.095614149569417,-0.2628260024388724
-4.054,-0.5514352318280977,0.3199891098448064
-4.0535,-0.1779791118085259,0.7332580076470687
-4.053,0.02475421048725994,0.9557874141553824
-4.0525,0.1101156093487211,1.061753798207057
-4.052,0.131455959064067,1.072350436612186
-4.0515,0.1101156093487211,1.029963882991555
-4.051,0.08877525963335578,0.9451907757502149
-4.0505,0.06743490991800991,0.8180311148883215
-4.05,0.0674349099179905,0.6590815388106942
-4.0495,0.07810508477567314,0.457745409112513
-4.049,0.2168173579254213,0.1080563417423058
-4.0485,0.5369226036560363,-0.559531877784158
-4.048,0.5475927785137094,-1.216523458903942
-4.0475,0.06743490991842721,-1.767548655972147
-4.047,0.174136658495108,-2.064254531317336
-4.0465,0.4942419042252961,-2.064254531317336
-4.046,0.6436243522327172,-1.587405803085235
-4.0455,0.600943652801977,-0.8668343915329438
-4.045,0.4408910299368829,-0.3475991096802118
-4.0445,0.2808384070716433,-0.04029659593035631
-4.044,0.1634664836371343,0.09745970333690705
-4.0435,0.1634664836371343,0.1928294489833272
-4.043,0.2488278824985954,0.2987958330350016
-4.0425,0.2274875327832495,0.2881991946298438
-4.042,0.1741366584948169,0.2246193641988295
-4.0415,0.1101156093487211,0.1822328105781598
-4.041,0.05676473506035638,0.1822328105781598
-4.0405,-0.188649286666946,0.171636172172549
-4.04,-0.7968492535543035,-0.3158091944647096
-4.0395,-1.319687821580277,-0.9304142219638617
-4.039,-1.565101843307444,-1.322489842955616
-4.0385,-1.554431668449771,-1.322489842955616
-4.038,-1.095614149569835,-0.7502713690770948
-4.0375,-0.5941159312579937,-0.114473064766085
-4.037,-0.2206598112394408,0.3729723018711736
-4.0365,-0.007256314085787988,0.6802748156210291
-4.036,0.0887752596333849,0.8392243916985984
-4.0355,0.1207857842064037,0.9028042221295453
-4.035,0.1101156093487211,0.9028042221295453
-4.0345,0.08877525963337518,0.860417668508914
-4.034,0.0674349099179905,0.7862411996727035
-4.0335,0.05676473506030786,0.6802748156210291
-4.033,0.0674349099179808,0.5637117931642934
-4.0325,0.07810508477560521,0.3941655786810844
-4.032,0.00341386077189465,-0.07208651114585861
-4.0315,-0.402052783819677,-0.7608680074811154
-4.031,-1.010252750708015,-1.375473034981848
-4.0305,-1.074273799854052,-1.809935209593318
-4.03,-0.5194247072550594,-1.629792356705635
-4.0295,-0.007256314085525967,-1.078767159636369
-4.029,0.2808384070716433,-0.6443049850249
-4.0285,0.3875401556484697,-0.3475991096802118
-4.028,0.3555296310753441,-0.1038764263612163
-4.0275,0.2701682322139607,0.05507314971615059
-4.027,0.2168173579255475,0.1716361721729923
-4.0265,0.3875401556483145,0.4259554938967794
-4.026,0.408880505363835,0.457745409112513
-4.0255,0.3128489316446912,0.3623756634660061
-4.025,0.1954770082102889,0.2670059178195859
-4.0245,0.1101156093485464,0.2246193641988488
-4.024,-0.08194753808956648,0.2458126410091644
-4.0235,-0.7008176798345969,0.04447651131116626
-4.023,-1.362368521011872,-0.5595318777840328
-4.0225,-1.789175515318789,-1.078767159636765
-4.022,-2.023919362187593,-0.9198175835593978
-4.0215,-1.629122892452967,-0.5065486857572704
-4.021,-0.9889124009925911,-0.008506680714854012
-4.0205,-0.4554036581084589,0.383568940276341
-4.02,-0.1139580626624494,0.6484849004056521
-4.0195,0.0674349099179905,0.7862411996727035
-4.019,0.1314559590640864,0.849821030103708
-4.0185,0.1421261339217593,0.8604176685088658
-4.018,0.1207857842064037,0.849821030103708
-4.0175,0.08877525963335578,0.7862411996727035
-4.017,0.07810508477568284,0.7014680924314411
-4.0165,0.06743490991800992,0.6166949851899088
-4.016,0.08877525963335578,0.4895353243280153
-4.0155,0.4302208550788897,0.03387987290623012
-4.015,1.123782220828727,-0.6760949002409902
-4.0145,1.294505018551494,-1.322489842955616
-4.014,0.8783681991022497,-1.841725124808348
-4.0135,0.7396559259519579,-2.021867977696281
-4.013,0.6969752265212663,-1.598002441489969
-4.0125,0.6009436528021226,-0.8562377531282487
-4.012,0.472901554509795,-0.3687923864902576
-4.0115,0.3235191065023739,-0.05089323433552374
-4.011,0.2061471830678648,0.1186529801471552
-4.0105,0.1314559590641543,0.1822328105781019
-4.01,0.2808384070716433,0.383568940276341
-4.0095,0.3875401556484697,0.4895353243280153
-4.009,0.3235191065024321,0.4259554938970685
-4.0085,0.2274875327831331,0.3199891098452979
-4.008,0.1207857842064037,0.2776025562246667
-4.0075,-0.007256314085671539,0.2458126410091933
-4.007,-0.4233931335360029,-0.09327978795673318
-4.0065,-1.074273799854052,-0.6866915386455698
-4.006,-1.597112367880501,-1.280103289334946
-4.0055,-2.045259711902911,-1.756952017567162
-4.005,-1.757164990745741,-1.407262950196955
-4.0045,-1.095614149569417,-0.6231117082145651
-4.004,-0.5300948821118977,0.05507314971658428
-4.0035,-0.156638762093345,0.5319218779486851
-4.003,0.04609456020262521,0.8074344764830383
-4.0025,0.1314559590640087,0.923997498939774
-4.002,0.142126133921769,0.9557874141553824
-4.0015,0.1207857842064037,0.9345941373450475
-4.001,0.0887752596333849,0.8710143069141008
-4.0005,0.07810508477566344,0.7650479228622722
-4,0.0674349099179905,0.6590815388106942
-3.9995,0.05676473506030786,0.5849050699745222
-3.999,0.08877525963335578,0.383568940276341
-3.9985,0.2168173579255475,-0.252229364033705
-3.998,0.01408403562957729,-0.9622041371799229
-3.9975,-0.4340633083930936,-1.460246142222792
-3.997,-0.3487019095316325,-1.0999604364471
-3.9965,0.02475421048725994,-0.8032545611024114
-3.996,0.3235191065023739,-0.4959520473525559
-3.9955,0.4515612047945656,-0.326405832869877
-3.995,0.4408910299368829,-0.1886495336027004
-3.9945,0.3661998059331045,-0.1356663415768632
-3.994,0.2594980573562781,-0.09327978795619347
-3.9935,0.2488278824985954,0.04447651131098315
-3.993,0.3661998059331045,0.2776025562246667
-3.9925,0.3341892813600565,0.309392471440169
-3.992,0.2381577076409128,0.2776025562246667
-3.9915,0.1527963087794516,0.2670059178194992
-3.991,0.08877525963335578,0.2881991946298341
-3.9905,-0.01792648894347063,0.4683420475176805
-3.99,-0.4447334832507763,1.00877060618122
-3.9895,-1.095614149569417,1.284283204715573
-3.989,-1.725154466172693,0.6378882620003594
-3.9885,-1.767835165603424,0.09745970333682032
-3.988,-1.212986073003927,0.03387987290581572
-3.9875,-0.658136980404429,0.2246193641988295
-3.987,-0.2420001609548061,0.4789386859228479
-3.9865,0.00341386077189465,0.7120647308365314
-3.986,0.1101156093487211,0.8922075837243778
-3.9855,0.142126133921769,1.019367244586387
-3.985,0.1314559590640864,1.093543713422559
-3.9845,0.1101156093487211,1.135930267043229
-3.984,0.08877525963335578,1.114736990232894
-3.9835,0.0674349099179905,1.051157159801889
-3.983,0.07810508477567314,0.9345941373450475
-3.9825,0.1527963087794516,0.7226613692416989
-3.982,0.6863050516635838,0.08686306493165288
-3.9815,1.102441871113207,-0.6549016234300674
-3.981,0.6009436528021226,-1.269506650929778
-3.9805,0.1101156093487211,-1.184733543688439
-3.98,0.1954770082101822,-0.7290780922662394
-3.9795,0.3661998059331045,-0.5807251545938954
-3.979,0.4302208550792003,-0.400582301706049
-3.9785,0.3875401556484697,-0.2734226408440398
-3.978,0.291508581929326,-0.1674562567923655
-3.9775,0.2061471830678648,-0.1144730647665284
-3.977,0.1634664836371343,-0.06148987274069118
-3.9765,0.3128489316446912,0.1928294489833272
-3.976,0.3341892813600565,0.2776025562246667
-3.9755,0.2594980573562781,0.2458126410091644
-3.975,0.1741366584948169,0.2034260873884947
-3.9745,0.09944543449103843,0.1928294489833272
-3.974,-0.007256314085787988,0.2987958330350016
-3.9735,-0.4980843575391895,0.7862411996727035
-3.973,-1.223656247861609,0.8286277532933731
-3.9725,-1.863866739322568,0.1080563417419877
-3.972,-2.280003558772191,-0.6443049850249
-3.9715,-1.927887788468663,-0.8668343915334161
-3.971,-1.170305373573196,-0.4959520473525559
-3.9705,-0.5621054066852853,0.03387987290581572
-3.97,-0.156638762093345,0.4789386859228479
-3.9695,0.05676473506030786,0.7862411996727035
-3.969,0.142126133921769,0.9663840525605498
-3.9685,0.1527963087794516,1.061753798207057
-3.968,0.1314559590640864,1.093543713422559
-3.9675,0.1101156093487211,1.093543713422559
-3.967,0.08877525963335578,1.051157159801889
-3.9665,0.07810508477567314,0.9557874141553824
-3.966,0.1101156093487211,0.7544512844572011
-3.9655,0.2168173579255475,0.1716361721729923
-3.965,0.07810508477567314,-0.5913217929990628
-3.9645,-0.2313299860971235,-1.248313374119443
-3.964,-0.3166913849585846,-1.460246142222792
-3.9635,0.03542438534494258,-1.184733543688439
-3.963,0.3661998059331045,-0.9304142219644207
-3.9625,0.5262524287983441,-0.5807251545938954
-3.962,0.4942419042252961,-0.3158091944647096
-3.9615,0.3768699807907871,-0.1356663415768632
-3.961,0.2488278824985954,-0.04029659593035631
-3.9605,0.1634664836371343,-0.008506680714854012
-3.96,0.2701682322139607,0.1928294489833272
-3.9595,0.3875401556484697,0.3623756634660061
-3.959,0.3448594562177392,0.3199891098453364
-3.9585,0.2381577076409128,0.2246193641988295
-3.958,0.1527963087794516,0.1610395337678249
-3.9575,0.08877525963335578,0.1504428953626575
-3.957,-0.1993194615240755,0.3411823866556712
-3.9565,-0.7861790786966207,0.2140227257936621
-3.956,-1.362368521011484,-0.4111789401112165
-3.9555,-1.778505340461106,-1.01518732920576
-3.955,-1.618452717595867,-1.046977244421262
-3.9545,-1.052933450138687,-0.5171453241628908
-3.954,-0.5300948821122373,0.06566978812131802
-3.9535,-0.1673089369510276,0.5213252395435176
-3.953,0.03542438534494258,0.8074344764830383
-3.9525,0.1207857842064037,0.9451907757502149
-3.952,0.142126133921769,0.9875773293708847
-3.9515,0.1314559590640864,0.9769806909657173
-3.951,0.1101156093487211,0.92399749893988
-3.9505,0.08877525963335578,0.8286277532933731
-3.95,0.07810508477567314,0.6908714540261965
-3.9495,0.07810508477567314,0.5849050699745222
-3.949,0.2381577076409128,0.2987958330350016
-3.9485,0.7823366253827275,-0.3899856633008816
-3.948,0.7823366253827275,-1.089363798041932
-3.9475,0.0674349099179905,-1.598002441489969
-3.947,-0.06060718837420119,-1.078767159636765
-3.9465,0.2168173579255475,-0.6125150698093976
-3.946,0.4195506802215176,-0.4111789401112165
-3.9455,0.4729015545099309,-0.3158091944647096
-3.945,0.3982103305061524,-0.2310360872233701
-3.9445,0.291508581929326,-0.1462629799820306
-3.944,0.1954770082101822,-0.08268314955102604
-3.9435,0.1954770082101822,0.04447651131098315
-3.943,0.291508581929326,0.2458126410091644
-3.9425,0.2701682322139607,0.2881991946298341
-3.942,0.2061471830678648,0.2670059178194992
-3.9415,0.142126133921769,0.2458126410091644
-3.941,0.07810508477567314,0.2670059178194992
-3.9405,-0.156638762093345,0.5107286011383502
-3.94,-0.7861790786966207,1.072350436612224
-3.9395,-1.501080794161358,1.591585718465428
-3.939,-2.087940411333903,1.33726639674141
-3.9385,-2.119950935906951,0.5425185163538525
-3.938,-1.394379045584531,0.1716361721729923
-3.9375,-0.7434983792658902,0.1716361721729923
-3.937,-0.2633405106701714,0.3199891098453364
-3.9365,0.00341386077189465,0.5213252395435176
-3.936,0.1314559590640864,0.7226613692416989
-3.9355,0.1634664836371343,0.8710143069140429
-3.935,0.142126133921769,0.9875773293708847
-3.9345,0.1207857842064037,1.072350436612224
-3.934,0.09944543449103843,1.093543713422559
-3.9335,0.08877525963335578,1.072350436612224
-3.933,0.08877525963335578,0.9981739677760521
-3.9325,0.1314559590640864,0.8392243916985406
-3.932,0.5582629533713921,0.309392471440169
-3.9315,0.825017324813458,-0.3899856633008816
-3.931,0.2701682322139607,-0.9728007755850904
-3.9305,-0.03926683865883591,-0.9304142219644207
-3.93,0.1314559590640864,-0.6760949002404023
-3.9295,0.3661998059331045,-0.5807251545938954
-3.929,0.4942419042252961,-0.3370024712750445
-3.9285,0.4729015545099309,-0.1462629799820306
-3.928,0.3555296310754218,-0.06148987274069118
-3.9275,0.2488278824985954,-0.07208651114585861
-3.927,0.1741366584948169,-0.09327978795619347
-3.9265,0.2488278824985954,0.04447651131098315
-3.926,0.2488278824985954,0.08686306493165288
-3.9255,0.2061471830678648,0.05507314971615059
-3.925,0.142126133921769,0.02328323450064829
-3.9245,0.09944543449103843,0.04447651131098315
-3.924,0.1101156093487211,0.13984625695749
-3.9235,0.5369226036560266,0.6378882620003594
-3.923,0.8890383739595538,1.273686566310405
-3.9225,0.5369226036560266,1.443232780793084
-3.922,-0.2846808603855366,1.178316820663898
-3.9215,-0.7114878546928423,0.8922075837243778
-3.921,-0.6474668055467465,0.6378882620003594
-3.9205,-0.4127229586777283,0.5213252395435176
-3.92,-0.1886492866663929,0.5213252395435176
-3.9195,-0.02859666380115328,0.6060983467848571
-3.919,0.05676473506030786,0.7438546460520338
-3.9185,0.08877525963335578,0.8816109453192104
-3.918,0.09944543449103843,0.9981739677760521
-3.9175,0.08877525963335578,1.072350436612224
-3.917,0.07810508477567314,1.093543713422559
-3.9165,0.07810508477567314,1.061753798207057
-3.916,0.09944543449103843,0.9663840525605498
-3.9155,0.2061471830678648,0.6484849004055269
-3.915,0.5902734779444399,-0.008506680714854012
-3.9145,0.6649647019482183,-0.6549016234300674
-3.914,0.2488278824985954,-1.0999604364471
-3.9135,0.2274875327832301,-1.237716735714276
-3.913,0.3448594562177392,-0.9092209451540858
-3.9125,0.3982103305061524,-0.4111789401112165
-3.912,0.408880505363835,-0.008506680714854012
-3.9115,0.3448594562177392,0.2246193641988295
-3.911,0.2594980573562781,0.2776025562246667
-3.9105,0.1741366584948169,0.2034260873884947
-3.91,0.2594980573562781,0.2458126410091644
-3.9095,0.3555296310754218,0.2881991946298341
-3.909,0.3128489316446912,0.1716361721729923
-3.9085,0.2168173579255475,0.002089957690313421
-3.908,0.142126133921769,-0.1250697031716958
-3.9075,0.0674349099179905,-0.1780528951975329
-3.907,-0.2846808603855366,-0.2734226408440398
-3.9065,-0.9142211769888124,-0.7502713690765743
-3.906,-1.405049220442214,-1.280103289334946
-3.9055,-1.778505340461106,-1.555615887869299
-3.905,-1.650463242168915,-1.184733543688439
-3.9045,-1.084943974711735,-0.5383386009732256
-3.904,-0.5514352318276028,0.02328323450064829
-3.9035,-0.1779791118087102,0.4153588554918433
-3.903,0.03542438534494258,0.6484849004055269
-3.9025,0.1207857842064037,0.7544512844572011
-3.902,0.142126133921769,0.7862411996727035
-3.9015,0.1314559590640864,0.7862411996727035
-3.901,0.09944543449103843,0.7544512844572011
-3.9005,0.08877525963335578,0.6590815388106942
-3.9,0.07810508477567314,0.5637117931641874
-3.8995,0.07810508477567314,0.4683420475176805
-3.899,0.09944543449103843,0.309392471440169
-3.8985,-0.09261771294724913,-0.2310360872233701
-3.898,-0.423393133535411,-0.8668343915334161
-3.8975,-0.7648387289812555,-1.417859588602123
-3.897,-0.6261264558313813,-1.619195718300304
-3.8965,-0.156638762093345,-1.322489842955616
-3.896,0.2168173579255475,-0.8244478379127463
-3.8955,0.3661998059331045,-0.3899856633008816
-3.895,0.3555296310754218,-0.06148987274069118
-3.8945,0.291508581929326,0.1292496185523226
-3.894,0.2274875327832301,0.2246193641988295
-3.8935,0.2168173579255475,0.2881991946298341
-3.893,0.3341892813600565,0.4153588554918433
-3.8925,0.3128489316446912,0.383568940276341
-3.892,0.2381577076409128,0.2987958330350016
-3.8915,0.1527963087794516,0.2352160026039969
-3.891,0.07810508477567314,0.2140227257936621
-3.8905,-0.1459685872356623,0.3729723018711736
-3.89,-0.7755089038389382,0.4365521323021782
-3.8895,-1.437059745015262,-0.1674562567923655
-3.889,-2.013249187330125,-0.8986243067489184
-3.8885,-2.087940411333903,-1.237716735714276
-3.888,-1.383708870726849,-0.8562377531282487
-3.8875,-0.7434983792658902,-0.2840192792492073
-3.887,-0.274010685527854,0.2034260873884947
