Class_9_Think_Grab_one_hand_movement/Class_9_Think_Right_hand_Grab_AM_2.csv

#Digilent WaveForms Oscilloscope Acquisition
#Device Name: EExplorer
#Serial Number: SN:210151A2B84A
#Date Time: 2020-11-17 16:16:28.959
#Sample rate: 2000Hz
#Samples: 16384
#Trigger: Source: Channel 1 Type: Edge Condition: Rising Level: 0 V Hyst.: Auto HoldOff: 0 s
#Channel 1: Range: 1 V/div Offset: 0 V Attenuation: 1 X
#Channel 2: Range: 1 V/div Offset: 0 V Attenuation: 1 X
#Power Supplies: ON
#Fixed Supply: ON
#Voltage: 3.3 V Readback: 3.331 V
#Positive Supply: ON
#Voltage: 3.7 V Readback: 3.717 V
#Current: 500 mA Readback: 30 mA
#Negative Supply: ON
#Voltage: -3.7 V Readback: -3.697 V
#Current: -500 mA Readback: 0 A
#Reference 1: ON
#Voltage: 0 V
#Reference 2: ON
#Voltage: 0 V

Time (s),Channel 1 (V),Channel 2 (V)
-4.096,0.4835717293676135,0.3517790250608387
-4.0955,0.4408910299369218,0.5213252395433634
-4.095,0.3235191065018013,0.6696781772161604
-4.0945,-0.3060212101009019,0.9981739677760521
-4.094,-0.8608703026998947,1.326669758335944
-4.0935,-1.020922925565493,1.252493289499598
-4.093,-0.8608703027003992,0.7332580076468663
-4.0925,-0.2526703358130418,0.2776025562250811
-4.092,0.4302208550795691,0.1080563417419492
-4.0915,0.8356874996711408,0.06566978812131802
-4.091,0.974399772821015,0.05507314971615059
-4.0905,0.9317190733901777,0.03387987290578681
-4.09,0.8143471499557753,0.002089957690313421
-4.0895,0.707645401378949,-0.04029659593035631
-4.089,0.6649647019482572,-0.1250697031716187
-4.0885,0.8463576745288233,-0.400582301706049
-4.088,0.857027849386506,-0.570128516188728
-4.0875,0.7503261008097766,-0.6019184314042014
-4.087,0.6542945270904582,-0.591321792999005
-4.0865,0.5689331282290746,-0.5277419625680583
-4.086,0.5582629533714017,-0.3158091944649023
-4.0855,0.3341892813596393,-0.1780528951975233
-4.085,-0.124628237520297,-0.1674562567923655
-4.0845,-0.8395299529843838,0.0338798729056326
-4.084,-1.554431668449752,0.6378882620005618
-4.0835,-1.533091318734406,0.8604176685088755
-4.083,-0.9248913518464952,0.5319218779486851
-4.0825,-0.3060212101004847,0.1080563417417179
-4.082,0.1527963087794516,-0.1886495336027004
-4.0815,0.4195506802215176,-0.3158091944647096
-4.081,0.5369226036559198,-0.3158091944647096
-4.0805,0.5582629533713921,-0.2416327256285375
-4.08,0.5262524287983441,-0.1144730647665284
-4.0795,0.4622313796523064,0.03387987290568081
-4.079,0.4088805053638059,0.161039533767931
-4.0785,0.3768699807907871,0.2776025562246667
-4.078,0.05676473506059904,0.4259554938968758
-4.0775,-0.583445756401097,0.6272916235951631
-4.077,-1.074273799854052,0.5955017083796896
-4.0765,-1.383708870726567,0.3305857482507448
-4.076,-1.031593100422555,0.2034260873885139
-4.0755,-0.1886492866663929,0.2246193641988295
-4.075,0.4942419042252961,0.2352160026039969
-4.0745,0.8676980242442661,0.192829448983279
-4.074,0.9530594231056497,0.13984625695749
-4.0735,0.8890383739595538,0.09745970333682032
-4.073,0.7716664505251516,0.05507314971618914
-4.0725,0.6756348768059011,-0.01910331912002144
-4.072,0.8143471499557753,-0.1780528951975329
-4.0715,0.9103787236748319,-0.3370024712748999
-4.071,0.8356874996710437,-0.4111789401112454
-4.0705,0.7289857510943143,-0.4429688553267188
-4.07,0.6542945270906038,-0.4535654937318765
-4.0695,0.995740122536487,-0.09327978795557666
-4.069,1.113112045970889,0.5849050699745222
-4.0685,0.5582629533713921,1.125333628638062
-4.068,-0.3487019095325156,1.453829419198474
-4.0675,-1.319687821580753,1.697552102517103
-4.067,-1.799845690176472,1.697552102517103
-4.0665,-1.35169834615317,1.104140351827071
-4.066,-0.658136980404429,0.383568940276341
-4.0655,-0.07127736323188383,-0.1356663415768632
-4.065,0.3021787567866689,-0.3793890248954925
-4.0645,0.4942419042252961,-0.4111789401112165
-4.064,0.5582629533713921,-0.3158091944647096
-4.0635,0.5582629533713921,-0.1568596183873426
-4.063,0.5049120790829207,0.02328323450081212
-4.0625,0.4408910299368829,0.2034260873884947
-4.062,0.3768699807908453,0.3623756634658616
-4.0615,0.1954770082095902,0.5425185163542091
-4.061,-0.4554036581084589,0.9345941373450475
-4.0605,-0.9248913518464952,1.210106735879401
-4.06,-1.116954499284278,1.093543713421942
-4.0595,-0.5621054066852853,0.4153588554918433
-4.059,0.3875401556484697,-0.326405832869877
-4.0585,1.027750647108846,-0.4535654937317706
-4.058,1.262494493978446,-0.2840192792492073
-4.0575,1.187803269974668,-0.1038764263613609
-4.057,0.995740122536555,-0.008506680714940748
-4.0565,0.8036769750980928,0.02328323450064829
-4.056,0.6649647019482183,-0.01910331912002144
-4.0555,0.6863050516635644,-0.199246172007704
-4.055,0.9530594231057177,-0.7078848154560973
-4.0545,1.027750647109428,-0.9198175835592532
-4.054,0.910378723675026,-0.9092209451540955
-4.0535,0.7609962756673914,-0.8350444763176825
-4.053,0.79300680024041,-0.5807251545938954
-4.0525,1.230483969405398,-0.08268314955102604
-4.052,1.10244187111245,0.2352160026041512
-4.0515,0.2701682322139607,0.4047622170866759
-4.051,-0.8288597781273515,0.8286277532933731
-4.0505,-1.607782542737476,1.263089927904843
-4.05,-1.447729919872945,1.072350436612224
-4.0495,-0.8288597781273515,0.5319218779486851
-4.049,-0.220659811239994,0.05507314971658428
-4.0485,0.2061471830680783,-0.2204394488182894
-4.048,0.4408910299368829,-0.3158091944647096
-4.0475,0.5369226036559392,-0.2734226408440784
-4.047,0.5475927785136705,-0.1462629799818957
-4.0465,0.5049120790829789,0.002089957690313421
-4.046,0.4408910299369412,0.1504428953625226
-4.0455,0.3875401556483824,0.2776025562247823
-4.045,0.291508581929326,0.4047622170866759
-4.0445,-0.2313299860971235,0.5955017083796896
-4.044,-0.8608703027007486,0.7120647308363772
-4.0435,-1.244996597576974,0.5425185163538525
-4.043,-1.554431668449771,0.01268659609548085
-4.0425,-1.084943974712162,-0.358195748085042
-4.042,-0.274010685527854,-0.3581957480853793
-4.0415,0.3661998059331045,-0.2098428104130352
-4.041,0.7076454013786385,-0.0614898727408261
-4.0405,0.8143471499557559,0.03387987290582536
-4.04,0.79300680024041,0.04447651131098315
-4.0395,0.7289857510943725,-0.008506680714805821
-4.039,0.6969752265214216,-0.1250697031720138
-4.0385,0.8676980242441885,-0.474758770542221
-4.038,0.8783681991018616,-0.633708346619588
-4.0375,0.771666450524938,-0.6443049850248806
-4.037,0.6542945270905358,-0.6231117082145651
-4.0365,0.5902734779444399,-0.4641621321370536
-4.036,0.8890383739593984,0.1398462569581068
-4.0355,0.7183155762366316,0.8180311148882058
-4.035,-0.1459685872356623,1.305476481525908
-4.0345,-1.074273799853208,0.923997498940227
-4.034,-1.853196564464885,0.5849050699745222
-4.0335,-1.810515865034154,0.5425185163538525
-4.033,-1.106284324427741,0.2352160026042764
-4.0325,-0.4020527838195799,-0.07208651114603208
-4.032,0.1101156093487211,-0.2628260024388724
-4.0315,0.4088805053635633,-0.3158091944646614
-4.031,0.536922603656046,-0.2840192792491205
-4.0305,0.5582629533713921,-0.1886495336027004
-4.03,0.536922603656046,-0.07208651114596462
-4.0295,0.5155822539406129,0.04447651131108916
-4.029,0.4622313796522482,0.1610395337678249
-4.0285,0.408880505363835,0.2564092794143318
-4.028,0.02475421048661944,0.37297230187127
-4.0275,-0.6794773301197943,0.4789386859228479
-4.027,-1.1062843244271,0.3305857482505039
-4.0265,-1.490410619303326,-0.07208651114549242
-4.026,-1.06360362499637,-0.326405832869877
-4.0255,-0.156638762093345,-0.252229364033705
-4.025,0.5689331282284147,-0.1250697031718114
-4.0245,0.9210488985326503,-0.06148987274065262
-4.024,0.974399772821015,-0.01910331912002144
-4.0235,0.8890383739596314,-0.01910331912002144
-4.023,0.7609962756672749,-0.0508932343355912
-4.0225,0.6649647019482183,-0.1250697031716958
-4.022,0.8036769750979667,-0.4111789401109562
-4.0215,0.8890383739594664,-0.6125150698094169
-4.021,0.79300680024041,-0.6337083466197325
-4.0205,0.6863050516635838,-0.6019184314042303
-4.02,0.6329541773754326,-0.5489352393780654
-4.0195,0.9210488985326017,-0.1886495336027004
-4.019,1.134452395686255,0.4153588554918433
-4.0185,0.7289857510946831,0.7650479228620506
-4.018,-0.1032878878049318,0.7650479228623686
-4.0175,-1.1062843244271,0.9981739677760521
-4.017,-1.607782542737728,1.210106735879208
-4.0165,-1.223656247861036,0.8392243916980491
-4.016,-0.5941159312583333,0.2987958330350016
-4.0155,-0.06060718837468648,-0.1144730647661525
-4.015,0.291508581929491,-0.337002471275083
-4.0145,0.4729015545099309,-0.3793890248957141
-4.014,0.5369226036559684,-0.3052125560596096
-4.0135,0.5262524287982859,-0.1886495336025558
-4.013,0.4622313796522482,-0.02969995752518888
-4.0125,0.3982103305061524,0.1080563417419877
-4.012,0.3555296310752374,0.235216002604103
-4.0115,0.1527963087794516,0.3517790250608387
-4.011,-0.4874141826815069,0.4153588554918433
-4.0105,-0.8928808272730784,0.2352160026041608
-4.01,-1.031593100423322,-0.2204394488182027
-4.0095,-0.8288597781273515,-0.6019184314042303
-4.009,-0.1139580626632646,-0.4959520473526523
-4.0085,0.5155822539409428,-0.2098428104128328
-4.008,0.825017324813458,0.01268659609548085
-4.0075,0.9103787236748416,0.09745970333674321
-4.007,0.8783681991017839,0.118652980147107
-4.0065,0.7823366253827275,0.06566978812131802
-4.006,0.6863050516635838,-0.01910331912002144
-4.0055,0.7609962756675273,-0.294615917654712
-4.005,0.942389248247967,-0.6654982618352349
-4.0045,0.8890383739595538,-0.7502713690765743
-4.004,0.7716664505249866,-0.7184814538610431
-4.0035,0.707645401378949,-0.6866915386455698
-4.003,0.5582629533713921,-0.6019184314042303
-4.0025,-0.1886492866657136,-0.3899856633010743
-4.002,-0.8608703027003992,-0.1992461720078678
-4.0015,-1.479740444445993,-0.1038764263613609
-4.001,-2.098610586191023,0.3517790250604243
-4.0005,-2.333354433059895,0.8816109453191043
-4,-1.554431668449771,0.7650479228623686
-3.9995,-0.7114878546928423,0.3199891098453364
-3.999,-0.06060718837420119,-0.08268314955102604
-3.9985,0.3341892813600565,-0.3158091944647096
-3.998,0.5155822539406614,-0.3899856633008816
-3.9975,0.5689331282290746,-0.3475991096802118
-3.997,0.5582629533713921,-0.2416327256285375
-3.9965,0.4942419042252961,-0.09327978795619347
-3.996,0.4195506802215176,0.05507314971615059
-3.9955,0.3768699807907871,0.1822328105781598
-3.995,0.291508581929326,0.2987958330350016
-3.9945,-0.274010685527854,0.457745409112513
-3.994,-0.8288597781273515,0.5213252395435176
-3.9935,-0.9355615267041777,0.2458126410091644
-3.993,-0.7434983792658902,-0.3687923864905467
-3.9925,-0.08194753808956648,-0.5913217929990628
-3.992,0.5796033030867573,-0.4217755785163839
-3.9915,0.9637295979633325,-0.1780528951975329
-3.991,1.027750647109428,-0.008506680714854012
-3.9905,0.9317190733902845,0.05507314971615059
-3.99,0.8036769750980928,0.06566978812131802
-3.9895,0.6863050516635838,0.02328323450064829
-3.989,0.6756348768059011,-0.09327978795619347
-3.9885,0.9530594231056497,-0.4429688553267188
-3.988,1.017080472251745,-0.6231117082145651
-3.9875,0.8890383739595538,-0.6549016234300674
-3.987,0.7396559259519968,-0.6337083466197325
-3.9865,0.6116138276598051,-0.5171453241628908
-3.986,0.00341386077189465,-0.09327978795619347
-3.9855,-0.7328282044082075,0.3729723018711736
-3.985,-1.255666772434657,0.6484849004055269
-3.9845,-1.789175515318789,0.9451907757502149
-3.984,-2.290673733629873,1.316073119931075
-3.9835,-1.885207089037933,1.241896651094903
-3.983,-1.031593100423322,0.6590815388106942
-3.9825,-0.2953510352432193,0.09745970333682032
-3.982,0.1954770082101822,-0.2734226408440398
-3.9815,0.4622313796522482,-0.4217755785163839
-3.981,0.5582629533713921,-0.4217755785163839
-3.9805,0.5689331282290746,-0.3158091944647096
-3.98,0.5369226036560266,-0.1674562567923655
-3.9795,0.4835717293676135,-0.008506680714854012
-3.979,0.4195506802215176,0.13984625695749
-3.9785,0.3661998059331045,0.2670059178194992
-3.978,-0.08194753808956648,0.457745409112513
-3.9775,-0.839529952985034,0.7120647308365314
-3.977,-1.202315898146244,0.701468092431364
-3.9765,-1.277007122150022,0.3199891098453364
-3.976,-0.754168554123573,0.1610395337678249
-3.9755,0.0674349099179905,0.2034260873884947
-3.975,0.6756348768059011,0.2352160026039969
-3.9745,0.9210488985326017,0.2140227257936621
-3.974,0.9210488985326017,0.1292496185523226
-3.9735,0.825017324813458,0.03387987290581572
-3.973,0.7183155762366316,-0.04029659593035631
-3.9725,0.6542945270905358,-0.1356663415768632
-3.972,0.942389248247967,-0.5383386009732256
-3.9715,1.230483969405398,-0.9939940523954253
-3.971,1.134452395686255,-1.004590690800593
-3.9705,0.9317190733902845,-0.8668343915334161
-3.97,0.7609962756673623,-0.7078848154559045
-3.9695,0.5155822539406614,-0.4641621321370536
-3.969,-0.1352984123779797,-0.2310360872233701
-3.9685,-0.8822106524157645,-0.08268314955102604
-3.968,-1.405049220442214,0.1080563417419877
-3.9675,-1.970568487899394,0.6484849004055269
-3.967,-1.949228138184029,0.9769806909657173
-3.9665,-1.212986073003927,0.6590815388106942
-3.966,-0.4660738329661415,0.1716361721729923
-3.9655,0.07810508477567314,-0.1992461720078678
-3.965,0.3982103305061524,-0.400582301706049
-3.9645,0.5369226036560266,-0.4429688553267188
-3.964,0.5689331282290746,-0.3793890248957141
-3.9635,0.5475927785137094,-0.2628260024388724
-3.963,0.4729015545099309,-0.1144730647665284
-3.9625,0.3875401556484697,0.02328323450064829
-3.962,0.2701682322139607,0.1716361721729923
-3.9615,-0.01792648894347063,0.3305857482505039
-3.961,-0.754168554123573,0.5849050699745222
-3.9605,-1.234326422719292,0.627291623595192
-3.96,-1.554431668449771,0.3411823866556712
-3.9595,-1.127624674142465,-0.01910331912002144
-3.959,-0.2313299860971235,-0.1038764263613609
-3.9585,0.4942419042252961,0.002089957690313421
-3.958,0.857027849386506,0.1186529801471552
-3.9575,0.9530594231056497,0.1504428953626575
-3.957,0.8890383739595538,0.1292496185523226
-3.9565,0.7823366253827275,0.06566978812131802
-3.956,0.6756348768059011,-0.008506680714854012
-3.9555,0.707645401378949,-0.09327978795619347
-3.955,0.8143471499557753,-0.2098428104130352
-3.9545,0.825017324813458,-0.3052125560595421
-3.954,0.8997085488172365,-0.4429688553267188
-3.9535,1.027750647109428,-0.5913217929990628
-3.953,1.038420821967111,-0.4323722169215513
-3.9525,0.9317190733902845,0.1080563417419877
-3.952,0.3235191065023739,0.6908714540261965
-3.9515,-0.4340633083930936,1.072350436612224
-3.951,-1.287677297007705,1.400846227172415
-3.9505,-1.83185621474952,1.591585718465428
-3.95,-1.479740444445993,1.178316820663898
-3.9495,-0.7755089038389382,0.4789386859228479
-3.949,-0.156638762093345,-0.08268314955102604
-3.9485,0.2488278824985954,-0.400582301706049
-3.948,0.4729015545099309,-0.4959520473525559
-3.9475,0.5475927785137094,-0.4535654937318862
-3.947,0.5582629533713921,-0.326405832869877
-3.9465,0.5155822539406614,-0.1674562567923655
-3.946,0.4515612047945656,0.002089957690313421
-3.9455,0.3982103305061524,0.1504428953626575
-3.945,0.2701682322139607,0.2881991946298341
-3.9445,-0.3700422592469978,0.4789386859228479
-3.944,-0.9782422261349084,0.5425185163538525
-3.9435,-1.298347471865388,0.309392471440169
-3.943,-1.06360362499637,-0.2204394488182027
-3.9425,-0.1993194615240755,-0.3158091944647096
-3.942,0.5796033030867573,-0.1144730647665284
-3.9415,0.9957401225363802,0.05507314971615059
-3.941,1.081101521397841,0.1186529801471552
-3.9405,0.9957401225363802,0.1292496185523226
-3.94,0.857027849386506,0.1080563417419877
-3.9395,0.7289857510943143,0.03387987290581572
-3.939,0.707645401378949,-0.1250697031716958
-3.9385,0.9210488985326017,-0.5171453241628908
-3.938,0.9850699476786977,-0.6760949002404023
-3.9375,0.8890383739595538,-0.6760949002404023
-3.937,0.7716664505250448,-0.6549016234300674
-3.9365,0.5689331282290746,-0.570128516188728
-3.936,-0.007256314085787988,-0.252229364033705
-3.9355,-0.7328282044082075,0.1292496185523226
-3.935,-1.394379045584531,0.5425185163538525
-3.9345,-1.991908837614759,0.9663840525605498
-3.934,-2.482736881068161,1.358459673551745
-3.9335,-1.927887788468663,1.220703374284568
-3.933,-1.010252750707956,0.6060983467848571
-3.9325,-0.2633405106701714,0.01268659609548085
-3.932,0.2274875327832301,-0.3581957480853793
-3.9315,0.4835717293676135,-0.5065486857577234
-3.931,0.5689331282290746,-0.4959520473525559
-3.9305,0.5796033030867573,-0.3899856633008816
-3.93,0.5369226036560266,-0.2416327256285375
-3.9295,0.4622313796522482,-0.08268314955102604
-3.929,0.3982103305061524,0.07626642652648545
-3.9285,0.3555296310754218,0.2140227257936621
-3.928,-0.07127736323188383,0.4153588554918433
-3.9275,-0.7328282044082075,0.6590815388106942
-3.927,-1.202315898146244,0.6696781772158616
-3.9265,-1.522421143876723,0.4365521323021782
-3.926,-0.9248913518464952,0.1822328105781598
-3.9255,0.00341386077189465,0.03387987290581572
-3.925,0.6863050516635838,0.06566978812131802
-3.9245,0.9850699476786977,0.1186529801471552
-3.924,1.017080472251745,0.13984625695749
-3.9235,0.9103787236749192,0.09745970333682032
-3.923,0.7716664505250448,0.03387987290581572
-3.9225,0.6969752265212663,-0.05089323433552374
-3.922,0.825017324813458,-0.06148987274069118
-3.9215,0.8890383739595538,-0.1250697031716958
-3.921,0.857027849386506,-0.252229364033705
-3.9205,0.7396559259519968,-0.400582301706049
-3.92,0.6222840025174878,-0.474758770542221
-3.9195,0.3128489316446912,-0.1144730647665284
-3.919,-0.3380317346739499,0.5213252395435176
-3.9185,-1.116954499284783,1.093543713422559
-3.918,-1.821186039891837,1.443232780793084
-3.9175,-2.450726356495113,1.644568910491266
-3.917,-2.280003558772191,1.496215972818921
-3.9165,-1.330357996438436,0.7968378380778709
-3.916,-0.4874141826815069,0.07626642652648545
-3.9155,0.09944543449103843,-0.3793890248957141
-3.915,0.4302208550792003,-0.570128516188728
-3.9145,0.5582629533713921,-0.570128516188728
-3.914,0.5902734779444399,-0.4429688553267188
-3.9135,0.5582629533713921,-0.252229364033705
-3.913,0.4835717293676135,-0.05089323433552374
-3.9125,0.4195506802215176,0.1504428953626575
-3.912,0.3768699807907871,0.3199891098453364
-3.9115,0.08877525963335578,0.5425185163538525
-3.911,-0.6367966306890638,0.8922075837243778
-3.9105,-1.170305373573196,0.9981739677760521
-3.91,-1.127624674142465,0.7544512844572011
-3.9095,-0.5194247072545548,0.6060983467848571
-3.909,0.2701682322139607,0.5425185163538525
-3.9085,0.8143471499557753,0.4789386859228479
-3.908,1.038420821967111,0.4047622170866759
-3.9075,1.049090996824793,0.2987958330350016
-3.907,0.942389248247967,0.1928294489833272
-3.9065,0.8036769750980928,0.07626642652648545
-3.906,0.6863050516635838,-0.05089323433552374
-3.9055,0.79300680024041,-0.1356663415768632
-3.905,1.145122570543937,-0.252229364033705
-3.9045,1.187803269974668,-0.400582301706049
-3.904,1.091771696255524,-0.5383386009732256
-3.9035,0.9103787236749192,-0.6443049850249
-3.903,0.5262524287983441,-0.6019184314042303
-3.9025,-0.1352984123779797,-0.4217755785163839
-3.902,-0.8715404775580819,-0.252229364033705
-3.9015,-1.330357996438436,-0.02969995752518888
-3.901,-1.853196564464885,0.5001319627331828
-3.9005,-2.130621110764634,0.9981739677760521
-3.9,-1.51175096901904,0.8074344764830383
-3.8995,-0.7114878546928423,0.2987958330350016
-3.899,-0.07127736323188383,-0.1568596183871981
-3.8985,0.3235191065023739,-0.4111789401112165
-3.898,0.5155822539406614,-0.4853554089473885
-3.8975,0.5689331282290746,-0.4323722169215513
-3.897,0.5689331282290746,-0.3052125560595421
-3.8965,0.5049120790829789,-0.1356663415768632
-3.896,0.4302208550792003,0.02328323450064829
-3.8955,0.3661998059331045,0.1716361721729923
-3.895,0.2381577076409128,0.309392471440169
-3.8945,-0.3700422592469978,0.5637117931641874
-3.894,-0.9675720512772257,0.7120647308365314
-3.8935,-1.30901764672307,0.5849050699745222
-3.893,-0.9889124009925911,0.4471487707073456
-3.8925,-0.1886492866663929,0.4259554938970107
-3.892,0.5155822539406614,0.4683420475176805
-3.8915,0.8890383739595538,0.4471487707073456
-3.891,0.974399772821015,0.3623756634660061
-3.8905,0.9103787236749192,0.2458126410091644
-3.89,0.8036769750980928,0.1292496185523226
-3.8895,0.6969752265212663,0.02328323450064829
-3.889,0.6863050516635838,-0.04029659593035631
-3.8885,0.79300680024041,-0.05089323433552374
-3.888,0.8143471499557753,-0.1674562567923655
-3.8875,0.8356874996711408,-0.3052125560595421
-3.887,0.7716664505250448,-0.474758770542221
