Class_9_Think_Grab_one_hand_movement/Class_9_Think_Right_hand_Grab_Suko_4.csv

#Digilent WaveForms Oscilloscope Acquisition
#Device Name: EExplorer
#Serial Number: SN:210151A2B84A
#Date Time: 2020-12-21 15:37:15.883
#Sample rate: 2000Hz
#Samples: 16384
#Trigger: Source: Channel 1 Type: Edge Condition: Rising Level: 0 V Hyst.: Auto HoldOff: 0 s
#Channel 1: Range: 1 V/div Offset: 0 V
#Channel 2: Range: 1 V/div Offset: 0 V

Time (s),Channel 1 (V),Channel 2 (V)
-4.0960000000000001,-0.58344575640065055,0.11865298014715518
-4.0955000000000004,-1.1596351987149893,0.48953532432767799
-4.0949999999999998,-1.5971123678806955,0.89220758372460907
-4.0945,-1.8105158650341544,1.146526905448396
-4.0940000000000003,-1.522421143876985,0.84982103010397791
-4.0934999999999997,-0.85020012784215382,0.17163617217247193
-4.093,-0.23132998609712346,-0.40058230170604903
-4.0925000000000002,0.18480683335212106,-0.69728817705046731
-4.0919999999999996,0.4408910299369897,-0.78206128429201871
-4.0914999999999999,0.55826295337139209,-0.71848145386107198
-4.0910000000000002,0.57960330308675734,-0.52774196256805828
-4.0904999999999996,0.68630505166375844,-0.36879238649058527
-4.0899999999999999,0.87836819910187125,-0.41117894011121647
-4.0895000000000001,0.84635767452882327,-0.25222936403370499
-4.0890000000000004,0.6969752265214022,-0.040296595930549073
-4.0884999999999998,0.55826295337139209,0.15044289536265748
-4.0880000000000001,0.45156120479456557,0.25640927941433178
-4.0875000000000004,0.62228400251733262,0.11865298014728048
-4.0869999999999997,0.96372959796273083,0.012686596095798894
-4.0865,0.30217875678700862,0.36237566346600614
-4.0860000000000003,-0.74349837926493922,0.75445128445684451
-4.0854999999999997,-1.6931439415999754,1.029963882991487
-4.085,-2.0559298867608553,0.95578741415538238
-4.0845000000000002,-1.5117509690195354,0.25640927941496783
-4.0839999999999996,-0.77550890383840443,-0.5489352393789424
-4.0834999999999999,-0.18864928666639288,-1.1529436284729369
-4.0830000000000002,0.18480683335249956,-1.4814394190331273
-4.0824999999999996,0.35552963107548002,-1.5980024414899301
-4.0819999999999999,0.41955068022151765,-1.5556158878692994
-4.0815000000000001,0.3982103305061524,-1.4178595886021226
-4.0810000000000004,0.32351910650244181,-1.2059268204989668
-4.0804999999999998,0.21681735792554749,-0.97280077558509037
-4.0800000000000001,0.12078578420640371,-0.68669153864556975
-4.0795000000000003,0.014084035629674349,-0.38998566330115142
-4.0789999999999997,-0.40205278382054066,0.12924961855285269
-4.0785,-0.94623170156186043,0.71206473083653143
-4.0780000000000003,-1.4263895701571425,1.1465269054480007
-4.0774999999999997,-1.75716499074578,1.4114428655773508
-4.077,-1.7998456901764717,1.1571235438535634
-4.0765000000000002,-1.2770071221504979,0.52132523954409582
-4.0759999999999996,-0.56210540668476128,-0.040296595930683986
-4.0754999999999999,0.014084035629577295,-0.40058230170604903
-4.0750000000000002,0.3768699807907871,-0.50654868575772338
-4.0744999999999996,0.55826295337146004,-0.41117894011101408
-4.0739999999999998,0.63295417737517057,-0.18864953360270037
-4.0735000000000001,0.81434714995577528,0.10805634174198775
-4.0730000000000004,0.80367697509810243,0.17163617217293453
-4.0724999999999998,0.70764540137894905,0.15044289536265748
-4.0720000000000001,0.63295417737517057,0.17163617217299235
-4.0715000000000003,0.55826295337146004,0.17163617217299235
-4.0709999999999997,0.62228400251792448,0.26700591781981725
-4.0705,1.1024418711132067,0.61669498519002452
-4.0700000000000003,0.94238924824811254,0.98757732937054743
-4.0694999999999997,0.088775259632404749,1.2418966510949994
-4.069,-0.95690187641954316,1.3478630351465775
-4.0685000000000002,-1.7144842913150107,1.2948798431207402
-4.0679999999999996,-1.5544316684492179,0.71206473083579902
-4.0674999999999999,-0.94623170156186043,-0.093279787956193475
-4.0670000000000002,-0.34870190953163249,-0.70788481545590454
-4.0664999999999996,0.067434909918204,-1.0469772444213492
-4.0659999999999998,0.30217875678700862,-1.1423469900677694
-4.0655000000000001,0.3982103305061524,-1.0787671596367647
-4.0650000000000004,0.40888050536382531,-0.93041422196455559
-4.0644999999999998,0.33418928136005654,-0.68669153864556975
-4.0640000000000001,0.27016823221396069,-0.47475877054222104
-4.0635000000000003,0.17413665849490426,-0.24163272562874957
-4.0629999999999997,0.056764735059919684,0.012686596095827807
-4.0625,-0.3700422592469978,0.39416557868150842
-4.0620000000000003,-1.1276246741417764,0.83922439169813579
-4.0614999999999997,-1.7358246410305507,1.1995100974744259
-4.0609999999999999,-1.9278877884686634,1.4114428655775821
-4.0605000000000002,-1.8531965644648849,1.2313000126897355
-4.0599999999999996,-1.2663369472916701,0.56371179316364772
-4.0594999999999999,-0.53009488211223732,-0.029699957525188878
-4.0590000000000002,0.05676473506030786,-0.38998566330088158
-4.0585000000000004,0.41955068022118769,-0.61251506980919523
-4.0579999999999998,0.6116138276598051,-0.67609490024040231
-4.0575000000000001,0.67563487680590106,-0.66549826183523486
-4.0570000000000004,0.8356874996709952,-0.77146464588681285
-4.0564999999999998,0.87836819910187125,-0.73967473067140688
-4.056,0.75032610080967954,-0.51714532416289083
-4.0555000000000003,0.60094365280225848,-0.2628260024391037
-4.0549999999999997,0.49424190422530584,-0.072086511145762228
-4.0545,0.50491207908297886,0.033879872905815719
-4.0540000000000003,0.89970854881687745,0.31998910984507617
-4.0534999999999997,1.0917716962548059,0.76504792286267698
-4.0529999999999999,0.30217875678700862,1.1041403518277266
-4.0525000000000002,-0.75416855412357298,1.2736865663104053
-4.0519999999999996,-1.6931439415997911,1.3266697583359341
-4.0514999999999999,-1.8531965644648849,0.98757732937088472
-4.0510000000000002,-1.2770071221500223,0.19282944898332721
-4.0505000000000004,-0.59411593125895434,-0.52774196256740291
-4.0499999999999998,-0.071277363231883828,-0.98339741399025782
-4.0495000000000001,0.23815770764091276,-1.1847335436884392
-4.0490000000000004,0.38754015564833388,-1.1847335436884392
-4.0484999999999998,0.41955068022147884,-1.0681705212314239
-4.048,0.3768699807907871,-0.87743102993858346
-4.0475000000000003,0.29150858192940365,-0.64430498502511202
-4.0469999999999997,0.19547700821006572,-0.41117894011095624
-4.0465,0.067434909917990504,-0.12506970317169577
-4.0460000000000003,-0.34870190953125402,0.29879583303461599
-4.0454999999999997,-1.0529334501392498,0.7650479228627155
-4.0449999999999999,-1.67180359188428,1.146526905448396
-4.0445000000000002,-1.9812386627570766,1.3160731199310751
-4.0439999999999996,-1.682473766741293,0.89220758372377063
-4.0434999999999999,-0.94623170156186043,0.2246193641988295
-4.0430000000000001,-0.23132998609712346,-0.30521255605954212
-4.0425000000000004,0.25949805735583165,-0.60191843140396051
-4.0419999999999998,0.54759277851370936,-0.65490162343006741
-4.0415000000000001,0.66496470194821833,-0.60191843140423029
-4.0410000000000004,0.65429452709054547,-0.4959520473526523
-4.0404999999999998,0.66496470194826685,-0.28401927924899523
-4.04,0.71831557623663156,-0.050893234335523743
-4.0395000000000003,0.66496470194826685,0.033879872905738614
-4.0389999999999997,0.54759277851363175,0.055073149716169861
-4.0385,0.4622313796522482,0.076266426526485451
-4.0380000000000003,0.41955068022155645,0.076266426526485451
-4.0374999999999996,0.66496470194886848,0.18223281057845853
-4.0369999999999999,1.3798664174129553,0.51072860113835017
-4.0365000000000002,1.5185786905628296,0.88161094531921036
-4.0359999999999996,0.57960330308561225,1.1465269054485117
-4.0354999999999999,-0.67947733011979428,1.2736865663104053
-4.0350000000000001,-1.3196878215807528,1.0511571598018894
-4.0345000000000004,-1.1062843244272942,0.28819919463052801
-4.0339999999999998,-0.6047861061160158,-0.47475877054222104
-4.0335000000000001,-0.14596858723566233,-0.99399405239542526
-4.0330000000000004,0.16346648363685287,-1.2483133741192121
-4.0324999999999998,0.33418928136011478,-1.3012965661452036
-4.032,0.3982103305061524,-1.2165234589039415
-4.0315000000000003,0.38754015564847943,-1.0469772444214165
-4.0309999999999997,0.3341892813599886,-0.83504447631766321
-4.0305,0.25949805735627807,-0.55953187778356051
-4.0300000000000002,0.18480683335256748,-0.29461591765461559
-4.0294999999999996,0.088775259632967604,-0.029699957524803373
-4.0289999999999999,-0.33803173467394987,0.39416557868150842
-4.0285000000000002,-1.1276246741424654,0.87101430691404291
-4.0279999999999996,-1.821186039892138,1.2207033742846933
-4.0274999999999999,-2.151961460479999,1.3584596735517449
-4.0270000000000001,-1.8425263896072024,0.81803111488820579
-4.0265000000000004,-1.1169544992854425,0.055073149716844516
-4.0259999999999998,-0.35937208438931517,-0.51714532416289083
-4.0255000000000001,0.20614718306786484,-0.80325456110241145
-4.0250000000000004,0.54759277851339883,-0.84564111472304271
-4.0244999999999997,0.68630505166360323,-0.70788481545573101
-4.024,0.70764540137894905,-0.51714532416289083
-4.0235000000000003,0.76099627566731376,-0.45356549373194405
-4.0229999999999997,0.70764540137884224,-0.30521255605936864
-4.0225,0.59027347794443985,-0.11447306476652835
-4.0220000000000002,0.52625242879840228,0.065669788121154177
-4.0214999999999996,0.48357172936771053,0.20342608738860068
-4.0209999999999999,0.59027347794443985,0.31998910984533641
-4.0205000000000002,1.1344523956862547,0.64848490040552687
-4.0199999999999996,1.102441871112275,1.0087706061814317
-4.0194999999999999,0.078105084775673142,1.241896651094903
-4.0190000000000001,-1.0956141495694174,1.3266697583362426
-4.0185000000000004,-1.8531965644641959,1.2524932895001379
-4.0179999999999998,-1.6291228924535495,0.62729162359519197
-4.0175000000000001,-0.96757205127722568,-0.20984281041303524
-4.0170000000000003,-0.33803173467452241,-0.85623775312766082
-4.0164999999999997,0.088775259633569276,-1.2165234589040474
-4.016,0.32351910650237387,-1.333086481360783
-4.0155000000000003,0.41955068022143027,-1.2906999277401519
-4.0149999999999997,0.41955068022145942,-1.1423469900675862
-4.0145,0.35552963107542179,-0.94101086036958814
-4.0140000000000002,0.25949805735636544,-0.70788481545611659
-4.0134999999999996,0.14212613392165252,-0.44296885532646818
-4.0129999999999999,0.014084035629577295,-0.1674562567923655
-4.0125000000000002,-0.51942470725455481,0.29879583303500157
-4.0119999999999996,-1.1703053735736035,0.80743447648339495
-4.0114999999999998,-1.618452717595867,1.1995100974742332
-4.0110000000000001,-1.6824737667419627,1.1677201822587309
-4.0105000000000004,-1.2129860730043536,0.52132523954410548
-4.0099999999999998,-0.6047861061160158,-0.1674562567923655
-4.0095000000000001,-0.049937013516518552,-0.60191843140423029
-4.0090000000000003,0.34485945621738012,-0.75027136907643943
-4.0084999999999997,0.55826295337146969,-0.77146464588676467
-4.008,0.64362435223285308,-0.61251506980939763
-4.0075000000000003,0.65429452709052616,-0.37938902489592619
-4.0069999999999997,0.84635767452887178,-0.05089323433536954
-4.0065,0.8997085488172365,0.11865298014715518
-4.0060000000000002,0.78233662538272752,0.11865298014715518
-4.0054999999999996,0.63295417737506376,0.086863064931633607
-4.0049999999999999,0.51558225394066137,0.065669788121318018
-4.0045000000000002,0.47290155450993088,0.086863064931652884
-4.0039999999999996,0.89970854881777029,0.35177902506115671
-4.0034999999999998,1.4865681659897818,0.70146809243136399
-4.0030000000000001,1.1024418711132067,1.0193672445863871
-4.0025000000000004,0.0034138607728944059,1.1995100974740693
-4.0019999999999998,-1.1382948490001481,1.2736865663104053
-4.0015000000000001,-1.554431668449771,0.96638405256054982
-4.0010000000000003,-1.1703053735735454,0.19282944898403076
-4.0004999999999997,-0.5834457564002139,-0.53833860097364006
-4,-0.10328788780493176,-0.99399405239542526
-3.9994999999999998,0.20614718306786484,-1.1847335436884392
-3.9990000000000001,0.36619980593310447,-1.1953301820936066
-3.9984999999999999,0.40888050536383502,-1.0787671596367647
-3.9980000000000002,0.38754015564846972,-0.86683439153341613
-3.9975000000000001,0.31284893164469124,-0.63370834661973252
-3.9969999999999999,0.22748753278323011,-0.40058230170604903
-3.9965000000000002,0.22748753278323011,-0.2310360872233701
-3.996,0.16346648363713429,-0.0085066807148540119
-3.9954999999999998,-0.28468086038553664,0.45774540911251305
-3.9950000000000001,-0.57277558154296804,0.93459413734504748
-3.9944999999999999,-0.78617907869662074,1.2736865663104053
-3.9940000000000002,-1.1703053735731959,1.2948798431207402
-3.9935,-1.2023158981462438,0.70146809243136399
-3.9929999999999999,-0.79684925355430347,0.012686596095480854
-3.9925000000000002,-0.30602121010090194,-0.47475877054222104
-3.992,0.15279630877945163,-0.76086800748174177
-3.9914999999999998,0.44089102993688295,-0.82444783791274634
-3.9910000000000001,0.5689331282290746,-0.6972881770507372
-3.9904999999999999,0.73965592595199681,-0.59132179299906285
-3.9900000000000002,0.95305942310564973,-0.53833860097322561
-3.9895,0.8997085488172365,-0.36879238649054674
-3.9889999999999999,0.75032610080967954,-0.20984281041303524
-3.9885000000000002,0.59027347794443985,-0.029699957525188878
-3.988,0.49424190422529612,0.10805634174198775
-3.9874999999999998,0.77166645052504479,0.34118238665567124
-3.9870000000000001,1.2518243191207636,0.74385464605203377
-3.9864999999999999,0.82501732481345802,1.0935437134225592
-3.9860000000000002,-0.22065981123944084,1.2736865663104053
-3.9855,-1.2770071221500223,1.3266697583362426
-3.9849999999999999,-1.8318562147495197,1.1571235438535634
-3.9845000000000002,-1.4584000947306273,0.4471487707073456
-3.984,-0.79684925355430347,-0.33700247127504446
-3.9834999999999998,-0.22065981123944084,-0.86683439153341613
-3.9830000000000001,0.15279630877945163,-1.131750351662602
-3.9824999999999999,0.34485945621773917,-1.1741369052832717
-3.9820000000000002,0.41955068022151765,-1.0787671596367647
-3.9815,0.40888050536383502,-0.9092209451540858
-3.9809999999999999,0.33418928136005654,-0.67609490024040231
-3.9805000000000001,0.22748753278323011,-0.44296885532671876
-3.98,0.14212613392176898,-0.17805289519753292
-3.9794999999999998,0.099445434491038431,0.055073149716150585
-3.9790000000000001,-0.14596858723566233,0.36237566346600614
-3.9784999999999999,-0.79684925355430347,0.775644561267536
-3.9780000000000002,-1.4477299198729445,1.1359302670432285
-3.9775,-1.9812386627570766,1.3796529503620798
-3.9769999999999999,-2.1412912856223163,1.2736865663104053
-3.9765000000000001,-1.5117509690190405,0.53192187794868506
-3.976,-0.66880715526211176,-0.17805289519753292
-3.9754999999999998,-0.017926488943470625,-0.61251506980939763
-3.9750000000000001,0.38754015564846972,-0.81385119950757889
-3.9744999999999999,0.59027347794443985,-0.81385119950757889
-3.9740000000000002,0.69697522652126631,-0.70788481545590454
-3.9735,0.88903837395955376,-0.38998566330088158
-3.9729999999999999,0.86769802424418851,-0.19924617200786782
-3.9725000000000001,0.77166645052504479,-0.11447306476652835
-3.972,0.64362435223285308,-0.072086511145858609
-3.9714999999999998,0.54759277851370936,-0.029699957525188878
-3.9710000000000001,0.6116138276598051,0.10805634174198775
-3.9704999999999999,0.96372959796333246,0.51072860113835017
-3.9700000000000002,0.45156120479456557,0.92399749893988004
-3.9695,-0.50875453239687207,1.2101067358794007
-3.9689999999999999,-1.4904106193036752,1.33726639674141
-3.9685000000000001,-1.9812386627570766,1.2313000126897355
-3.968,-1.5437614935920885,0.5637117931641874
-3.9674999999999998,-0.82885977812735145,-0.20984281041303524
-3.9670000000000001,-0.22065981123944084,-0.76086800748174177
-3.9664999999999999,0.16346648363713429,-1.0363806060160949
-3.9660000000000002,0.36619980593310447,-1.0787671596367647
-3.9655,0.43022085507920033,-0.97280077558509037
-3.9649999999999999,0.43022085507920033,-0.80325456110241145
-3.9645000000000001,0.36619980593310447,-0.55953187778356051
-3.964,0.28083840707164331,-0.32640583286987701
-3.9634999999999998,0.14212613392176898,-0.082683149551026042
-3.9630000000000001,0.067434909917990504,0.12924961855232261
-3.9624999999999999,-0.24200016095480609,0.097459703336820316
-3.9620000000000002,-0.75416855412357298,0.10805634174198775
-3.9615,-1.2663369472923398,0.50013196273318283
-3.9609999999999999,-1.8425263896072024,0.92399749893988004
-3.9605000000000001,-2.1306211107646336,1.0723504366122243
-3.96,-1.7464948158880587,0.57430843156935485
-3.9594999999999998,-1.0636036249963696,-0.093279787956193475
-3.9590000000000001,-0.34870190953163249,-0.62311170821456507
-3.9584999999999999,0.17413665849481691,-0.84564111472308123
-3.9580000000000002,0.47290155450993088,-0.9092209451540858
-3.9575,0.60094365280212259,-0.86683439153341613
-3.9569999999999999,0.857027849386506,-0.99399405239542526
-3.9565000000000001,0.95305942310564973,-1.0257839676109275
-3.956,0.82501732481345802,-0.83504447631791379
-3.9554999999999998,0.69697522652126631,-0.5807251545938954
-3.9550000000000001,0.6116138276598051,-0.34759910968021185
-3.9544999999999999,0.55826295337139209,-0.14626297998203064
-3.9540000000000002,0.93171907339028448,0.23521600260399694
-3.9535,1.0277506471094282,0.72266136924169888
-3.9529999999999998,0.21681735792554749,1.0935437134225592
-3.9525000000000001,-0.78617907869662074,1.2736865663104053
-3.952,-1.6611334170265974,1.3054764815259077
-3.9514999999999998,-1.7678351656034239,0.92399749893988004
-3.9510000000000001,-1.1809755484308786,0.13984625695749003
-3.9504999999999999,-0.51942470725455481,-0.54893523937839306
-3.9500000000000002,-0.017926488943470625,-0.97280077558509037
-3.9495,0.27016823221396069,-1.131750351662602
-3.9489999999999998,0.40888050536383502,-1.0999604364470996
-3.9485000000000001,0.44089102993688295,-0.96220413717992292
-3.948,0.40888050536383502,-0.77146464588690922
-3.9474999999999998,0.32351910650237387,-0.53833860097322561
-3.9470000000000001,0.21681735792554749,-0.29461591765437467
-3.9464999999999999,-0.14596858723566233,0.086863064931652884
-3.9460000000000002,-0.75416855412357298,0.39416557868150842
-3.9455,-1.405049220442214,0.6590815388106942
-3.9449999999999998,-1.8211860398918371,0.99817396777605205
-3.9445000000000001,-2.0345895370454898,1.2630899279052379
-3.944,-2.0772702364762203,1.3160731199310751
-3.9434999999999998,-1.586442193022819,0.7968378380778709
-3.9430000000000001,-0.92489135184649518,0.10805634174198775
-3.9424999999999999,-0.27401068552785401,-0.34759910968021185
-3.9420000000000002,0.20614718306786484,-0.61251506980939763
-3.9415,0.50491207908297886,-0.67609490024040231
-3.9409999999999998,0.63295417737517057,-0.57012851618872795
-3.9405000000000001,0.78233662538272752,-0.25222936403370499
-3.9399999999999999,1.0704313465401587,0.15044289536265748
-3.9394999999999998,1.0704313465401587,0.27760255622466667
-3.9390000000000001,0.8997085488172365,0.25640927941433178
-3.9384999999999999,0.70764540137894905,0.21402272579366208
-3.9380000000000002,0.5689331282290746,0.18223281057815977
-3.9375,0.77166645052504479,0.30939247144016896
-3.9369999999999998,1.2198137945477157,0.59550170837968963
-3.9365000000000001,0.69697522652126631,0.92399749893988004
-3.9359999999999999,-0.26334051067017139,1.1677201822587309
-3.9355000000000002,-1.2663369472923398,1.2842832047155728
-3.9350000000000001,-1.6397930673112322,1.0511571598018894
-3.9344999999999999,-1.2129860730039266,0.28819919462983412
-3.9340000000000002,-0.59411593125833329,-0.48535540894738849
-3.9335,-0.092617712947249131,-1.01518732920576
-3.9329999999999998,0.22748753278323011,-1.2906999277401132
-3.9325000000000001,0.38754015564846972,-1.3436831197659505
-3.9319999999999999,0.44089102993688295,-1.2695066509297783
-3.9315000000000002,0.41955068022151765,-1.1211537132574345
-3.931,0.36619980593310447,-0.9304142219644207
-3.9304999999999999,0.30217875678700862,-0.70788481545590454
-3.9300000000000002,0.22748753278323011,-0.48535540894738849
-3.9295,-0.0072563140857879876,-0.15685961838719809
-3.9289999999999998,-0.63679663068906378,0.34118238665567124
-3.9285000000000001,-1.3090176467230703,0.84982103010370802
