Class_9_Think_Grab_one_hand_movement/Class_9_Think_Right_hand_Grab_Basim_11.csv

#Digilent WaveForms Oscilloscope Acquisition
#Device Name: EExplorer
#Serial Number: SN:210151A2B84A
#Date Time: 2021-02-07 15:58:52.319
#Sample rate: 2000Hz
#Samples: 16384
#Trigger: Source: Channel 1 Type: Edge Condition: Rising Level: 0 V Hyst.: Auto HoldOff: 0 s
#Channel 1: Range: 1 V/div Offset: 0 V Attenuation: 1 X
#Channel 2: Range: 1 V/div Offset: 0 V Attenuation: 1 X
#Power Supplies: ON
#Fixed Supply: ON
#Voltage: 3.3 V Readback: 3.302 V
#Positive Supply: ON
#Voltage: 3.7 V Readback: 3.703 V
#Current: 40 mA Readback: 16 mA
#Negative Supply: ON
#Voltage: -3.7 V Readback: -3.712 V
#Current: -40 mA Readback: -6 mA
#Reference 1: ON
#Voltage: 0 V
#Reference 2: ON
#Voltage: 0 V

Time (s),Channel 1 (V),Channel 2 (V)
-4.096,0.1314559590640864,0.9663840525605498
-4.0955,-0.2313299860967935,1.411442865577177
-4.095,-0.658136980404332,1.602182356869989
-4.0945,-0.5514352318276028,0.9345941373450475
-4.094,-0.2206598112397417,-0.09327978795525871
-4.0935,0.01408403562964523,-0.6654982618353409
-4.093,0.08877525963335578,-0.7820612842920766
-4.0925,0.07810508477568284,-0.6231117082147096
-4.092,0.03542438534489405,-0.3687923864903347
-4.0915,-0.01792648894347063,-0.1356663415768632
-4.091,0.04609456020262521,-0.1356663415768632
-4.0905,0.1848068333524802,-0.2840192792490723
-4.09,0.1634664836371343,-0.1356663415768632
-4.0895,0.07810508477567314,0.09745970333682032
-4.089,-0.007256314085710355,0.3305857482502919
-4.0885,-0.1032878878049318,0.5107286011383502
-4.088,-0.5300948821122373,0.8604176685088755
-4.0875,-1.052933450138211,1.305476481525503
-4.087,-1.405049220442515,1.644568910491371
-4.0865,-1.735824641030376,1.761131932948107
-4.086,-1.575772018165282,1.337266396741795
-4.0855,-1.084943974711318,0.6484849004050161
-4.085,-0.6261264558313813,0.08686306493165288
-4.0845,-0.2953510352435201,-0.2416327256282388
-4.084,-0.1246282375202291,-0.3793890248957238
-4.0835,-0.04993701351651855,-0.3899856633008816
-4.083,-0.03926683865883591,-0.3158091944647096
-4.0825,-0.04993701351653796,-0.2098428104129292
-4.082,-0.07127736323188383,-0.09327978795619347
-4.0815,-0.08194753808956648,0.02328323450064829
-4.081,-0.09261771294723943,0.1292496185522262
-4.0805,-0.09261771294724913,0.2140227257936621
-4.08,-0.03926683865883591,0.3729723018711736
-4.0795,0.02475421048720171,0.8286277532929587
-4.079,-0.3913826089629647,1.347863035146876
-4.0785,-1.052933450138687,1.676358825706768
-4.078,-1.106284324427051,1.220703374284982
-4.0775,-0.6688071552617429,0.3093924714396004
-4.077,-0.2633405106701714,-0.3158091944647096
-4.0765,-0.02859666380136677,-0.6019184314039701
-4.076,0.05676473506030786,-0.6443049850248133
-4.0755,0.05676473506030786,-0.5489352393783931
-4.075,0.02475421048725994,-0.3793890248957141
-4.0745,-0.007256314085778284,-0.2522293640336665
-4.074,0.00341386077189465,-0.2098428104130352
-4.0735,-0.007256314085787988,-0.05089323433552374
-4.073,-0.0392668386588068,0.1610395337676321
-4.0725,-0.07127736323188383,0.3517790250608387
-4.072,-0.09261771294724913,0.5001319627331828
-4.0715,-0.3913826089620913,0.7438546460518121
-4.071,-1.042263275281276,1.188913459069393
-4.0705,-1.341028171296118,1.549199164844759
-4.07,-1.661133417026306,1.78232520975823
-4.0695,-1.575772018164719,1.496215972818304
-4.069,-1.116954499284783,0.8180311148882058
-4.0685,-0.6474668055467465,0.2246193641988295
-4.068,-0.3166913849584099,-0.1568596183873523
-4.0675,-0.124628237520297,-0.326405832869877
-4.067,-0.03926683865883591,-0.3370024712750445
-4.0665,-0.01792648894348033,-0.2734226408439435
-4.066,-0.02859666380115328,-0.1674562567923655
-4.0655,-0.04993701351651855,-0.05089323433552374
-4.065,-0.07127736323186443,0.06566978812121201
-4.0645,-0.07127736323188383,0.1716361721729923
-4.064,-0.07127736323188383,0.2670059178194992
-4.0635,-0.06060718837421089,0.3411823866556038
-4.063,-0.1246282375205688,0.5637117931645343
-4.0625,-0.423393133535411,0.9451907757502149
-4.062,-0.6901475049772343,1.146526905448213
-4.0615,-0.9675720512769442,1.082947075016563
-4.061,-0.658136980404429,0.1716361721729923
-4.0605,-0.2313299860971235,-0.6231117082145651
-4.06,0.02475421048733757,-0.9092209451540376
-4.0595,0.1101156093487211,-0.8562377531282487
-4.059,0.09944543449103843,-0.6972881770507372
-4.0585,0.05676473506034668,-0.5065486857578969
-4.058,0.01408403562957729,-0.3370024712750445
-4.0575,0.07810508477567314,-0.3475991096802118
-4.057,0.08877525963334608,-0.2522293640337917
-4.0565,0.04609456020262521,-0.09327978795619347
-4.056,-0.007256314085787988,0.08686306493165288
-4.0555,-0.06060718837415267,0.2246193641987042
-4.055,-0.1779791118091955,0.3517790250611567
-4.0545,-0.7114878546928423,0.701468092431364
-4.054,-1.074273799853722,1.093543713422203
-4.0535,-1.426389570157715,1.475022696008625
-4.053,-1.575772018165136,1.517409249629256
-4.0525,-1.223656247861609,0.9981739677760521
-4.052,-0.754168554123243,0.4047622170862903
-4.0515,-0.391382608962363,-0.01910331912002144
-4.051,-0.156638762093345,-0.2416327256285375
-4.0505,-0.0499370135166156,-0.2946159176543265
-4.05,-0.01792648894347063,-0.252229364033705
-4.0495,-0.01792648894347063,-0.1674562567923655
-4.049,-0.02859666380114357,-0.05089323433562976
-4.0485,-0.04993701351652826,0.05507314971624696
-4.048,-0.06060718837420119,0.1610395337678249
-4.0475,-0.06060718837420119,0.2458126410090873
-4.047,-0.04993701351642151,0.3093924714403906
-4.0465,0.05676473506030786,0.55311515475902
-4.046,-0.1779791118084967,1.019367244585963
-4.0455,-0.7008176798355867,1.400846227172434
-4.045,-1.170305373573196,1.42203950398275
-4.0445,-0.8502001278427167,0.383568940276341
-4.044,-0.284680860385197,-0.77146464588742
-4.0435,0.08877525963335578,-1.333086481360783
-4.043,0.2274875327832301,-1.280103289334946
-4.0425,0.2061471830678842,-0.962204137180212
-4.042,0.1314559590640864,-0.6337083466197325
-4.0415,0.05676473506030786,-0.3370024712750445
-4.041,0.1101156093486725,-0.2734226408440977
-4.0405,0.1848068333524704,-0.2734226408439049
-4.04,0.1527963087794516,-0.1250697031716958
-4.0395,0.06743490991806814,0.04447651131082894
-4.039,0.003413860771836423,0.2034260873886007
-4.0385,-0.06060718837420119,0.3199891098453364
-4.038,-0.3807124341043893,0.6590815388103858
-4.0375,-1.052933450139153,1.157123543853881
-4.037,-1.565101843307454,1.506812611224089
-4.0365,-1.885207089037933,1.676358825706768
-4.036,-1.639793067310727,1.284283204714966
-4.0355,-1.084943974711735,0.6166949851900245
-4.035,-0.5834457564006506,0.06566978812131802
-4.0345,-0.2420001609551166,-0.2628260024385736
-4.034,-0.07127736323188383,-0.3899856633008816
-4.0335,0.00341386077189465,-0.3687923864905467
-4.033,0.01408403562956759,-0.2840192792492844
-4.0325,-0.007256314085797692,-0.1674562567922498
-4.032,-0.01792648894347063,-0.04029659593035631
-4.0315,-0.03926683865881651,0.08686306493153723
-4.031,-0.03926683865883591,0.2034260873885814
-4.0305,-0.03926683865883591,0.2987958330350016
-4.03,-0.03926683865883591,0.3835689402762639
-4.0295,0.1527963087795681,0.701468092431817
-4.029,0.2808384070716433,1.199510097474233
-4.0285,-0.1886492866663929,1.580989080060261
-4.028,-0.3380317346737461,1.210106735878398
-4.0275,-0.1139580626626144,0.1080563417419877
-4.027,0.07810508477567314,-0.6337083466197325
-4.0265,0.1421261339217108,-0.8986243067486774
-4.026,0.1207857842064037,-0.8774310299385835
-4.0255,0.07810508477567314,-0.7608680074817418
-4.025,0.03542438534498139,-0.5701285161889014
-4.0245,0.03542438534501051,-0.421775578516355
-4.024,0.1101156093487211,-0.3899856633008816
-4.0235,0.09944543449104813,-0.2310360872235147
-4.023,0.05676473506025934,-0.0296999575250154
-4.0225,0.00341386077189465,0.1610395337678249
-4.022,-0.04993701351647003,0.309392471440034
-4.0215,-0.2206598112399358,0.5107286011387453
-4.021,-0.7648387289812555,0.9451907757502149
-4.0205,-1.1062843244271,1.347863035146577
-4.02,-1.28767729700753,1.612778995275493
-4.0195,-1.095614149569417,1.316073119931075
-4.019,-0.722158029550525,0.701468092431364
-4.0185,-0.3913826089626639,0.1822328105786321
-4.018,-0.1673089369510276,-0.1356663415768632
-4.0175,-0.04993701351651855,-0.2628260024388724
-4.017,-0.007256314085826804,-0.2628260024388724
-4.0165,0.003413860771884946,-0.1886495336026136
-4.016,-0.007256314085787988,-0.09327978795619347
-4.0155,-0.02859666380113387,0.01268659609538447
-4.015,-0.03926683865883591,0.1186529801472419
-4.0145,-0.03926683865883591,0.2140227257936621
-4.014,-0.03926683865883591,0.2776025562246088
-4.0135,-0.02859666380118239,0.3305857482507448
-4.013,-0.06060718837420119,0.5955017083796896
-4.0125,-0.391382608962363,1.061753798207057
-4.012,-0.732828204408091,1.326669758335838
-4.0115,-0.6047861061160158,0.8816109453192104
-4.011,-0.1886492866663929,-0.1462629799820306
-4.0105,0.1314559590637952,-0.856237753127603
-4.01,0.2488278824985954,-1.036380606016095
-4.0095,0.2274875327832301,-0.8774310299385835
-4.009,0.1634664836371925,-0.6125150698096385
-4.0085,0.08877525963330726,-0.3687923864903829
-4.008,0.03542438534494258,-0.1886495336027004
-4.0075,0.1421261339216719,-0.2840192792491205
-4.007,0.1741366584947781,-0.2840192792490916
-4.0065,0.1314559590640864,-0.1568596183871981
-4.006,0.05676473506030786,-0.008506680714854012
-4.0055,-0.007256314085904441,0.108056341742113
-4.005,-0.1352984123779797,0.2458126410091644
-4.0045,-0.7434983792658902,0.6696781772158616
-4.004,-1.47974044444641,1.199510097474532
-4.0035,-1.938557963326346,1.528005888034424
-4.003,-2.07727023647622,1.559795803249926
-4.0025,-1.597112367880938,1.008770606181721
-4.002,-0.9675720512772257,0.3517790250608387
-4.0015,-0.4660738329661415,-0.1250697031716958
-4.001,-0.1566387620936264,-0.3793890248954829
-4.0005,-0.00725631408574917,-0.4429688553266609
-4,0.03542438534494258,-0.3793890248957141
-3.9995,0.03542438534494258,-0.2628260024388724
-3.999,0.01408403562957729,-0.1250697031716958
-3.9985,-0.007256314085787988,0.02328323450064829
-3.998,-0.01792648894347063,0.1610395337678249
-3.9975,-0.02859666380115328,0.2670059178194992
-3.997,-0.01792648894347063,0.3729723018711736
-3.9965,0.2381577076409128,0.627291623595192
-3.996,0.8143471499557753,1.104140351827727
-3.9955,0.707645401378949,1.506812611224089
-3.995,0.07810508477567314,1.6657621873016
-3.9945,-0.1352984123779797,0.8922075837243778
-3.994,-0.01792648894347063,-0.2416327256285375
-3.9935,0.1101156093487211,-0.8880276683437509
-3.993,0.142126133921769,-1.025783967610927
-3.9925,0.1207857842064037,-0.8668343915334161
-3.992,0.07810508477567314,-0.6337083466197325
-3.9915,0.04609456020262521,-0.400582301706049
-3.991,0.08877525963335578,-0.3370024712750445
-3.9905,0.1527963087794516,-0.3475991096802118
-3.99,0.1314559590640864,-0.1886495336027004
-3.9895,0.0674349099179905,0.01268659609548085
-3.989,0.01408403562957729,0.2034260873884947
-3.9885,-0.02859666380115328,0.3517790250608387
-3.988,-0.2953510352432193,0.627291623595192
-3.9875,-1.052933450138687,1.114736990232894
-3.987,-1.725154466172693,1.528005888034424
-3.9865,-2.045259711903173,1.676358825706768
-3.986,-1.746494815888059,1.284283204715573
-3.9855,-1.138294849000148,0.6166949851900245
-3.985,-0.5941159312583333,0.06566978812131802
-3.9845,-0.2313299860971235,-0.2628260024388724
-3.984,-0.03926683865883591,-0.3899856633008816
-3.9835,0.03542438534494258,-0.3687923864905467
-3.983,0.04609456020262521,-0.2840192792492073
-3.9825,0.03542438534494258,-0.1674562567923655
-3.982,0.00341386077189465,-0.04029659593035631
-3.9815,-0.007256314085787988,0.07626642652648545
-3.981,-0.01792648894347063,0.1928294489833272
-3.9805,-0.01792648894347063,0.2881991946298341
-3.98,0.00341386077189465,0.3941655786815084
-3.9795,0.3021787567870086,0.7862411996727035
-3.979,0.4408910299368829,1.220703374284568
-3.9785,-0.06060718837420119,1.443232780793084
-3.978,-0.2206598112394408,0.7332580076468663
-3.9775,-0.06060718837420119,-0.3158091944647096
-3.977,0.08877525963335578,-0.8986243067489184
-3.9765,0.1634664836371343,-0.9833974139902578
-3.976,0.1527963087794516,-0.8456411147230812
-3.9755,0.1101156093487211,-0.6337083466197325
-3.975,0.0674349099179905,-0.4217755785163839
-3.9745,0.05676473506030786,-0.252229364033705
-3.974,0.09944543449103843,-0.1674562567923655
-3.9735,0.08877525963335578,-0.06148987274069118
-3.973,0.04609456020262521,0.04447651131098315
-3.9725,0.00341386077189465,0.1504428953626575
-3.972,-0.01792648894347063,0.2564092794143318
-3.9715,-0.156638762093345,0.4259554938970107
-3.971,-0.690147504977477,0.8922075837243778
-3.9705,-1.373038695869166,1.369056311956912
-3.97,-1.703814116457328,1.538602526439591
-3.9695,-1.426389570157579,1.157123543853563
-3.969,-0.9142211769888124,0.5425185163538525
-3.9685,-0.4660738329661415,0.03387987290581572
-3.968,-0.1779791118087102,-0.2734226408440398
-3.9675,-0.01792648894347063,-0.3899856633008816
-3.967,0.03542438534494258,-0.3899856633008816
-3.9665,0.04609456020262521,-0.3052125560595421
-3.966,0.02475421048725994,-0.1992461720078678
-3.9655,0.01408403562957729,-0.09327978795619347
-3.965,-0.007256314085787988,0.02328323450064829
-3.9645,-0.007256314085787988,0.1186529801471552
-3.964,-0.007256314085787988,0.2034260873884947
-3.9635,0.01408403562957729,0.2881991946298341
-3.963,0.3768699807907871,0.5955017083796896
-3.9625,0.857027849386506,1.082947075017392
-3.962,0.4302208550792003,1.42203950398275
-3.9615,-0.1139580626626144,1.093543713422559
-3.961,-0.06060718837420119,-0.01910331912002144
-3.9605,0.1101156093487211,-0.8668343915334161
-3.96,0.1954770082101822,-1.121153713257435
-3.9595,0.1954770082101822,-1.01518732920576
-3.959,0.1634664836371343,-0.7820612842920766
-3.9585,0.1101156093487211,-0.570128516188728
-3.958,0.0674349099179905,-0.3899856633008816
-3.9575,0.04609456020262521,-0.2628260024388724
-3.957,0.02475421048725994,-0.1250697031716958
-3.9565,0.00341386077189465,0.002089957690313421
-3.956,-0.007256314085787988,0.1292496185523226
-3.9555,-0.01792648894347063,0.2352160026039969
-3.955,-0.156638762093345,0.3623756634660061
-3.9545,-0.7968492535543035,0.7438546460520338
-3.954,-1.575772018165136,1.241896651094903
-3.9535,-2.151961460479999,1.602182356870596
-3.953,-2.215982509626095,1.623375633680931
-3.9525,-1.639793067311232,1.072350436612224
-3.952,-0.9675720512772257,0.4259554938970107
-3.9515,-0.4447334832507763,-0.05089323433552374
-3.951,-0.124628237520297,-0.2840192792492073
-3.9505,0.02475421048725994,-0.3475991096802118
-3.95,0.07810508477567314,-0.2946159176543747
-3.9495,0.0674349099179905,-0.1780528951975329
-3.949,0.04609456020262521,-0.05089323433552374
-3.9485,0.02475421048725994,0.07626642652648545
-3.948,0.00341386077189465,0.1928294489833272
-3.9475,-0.007256314085787988,0.2987958330350016
-3.947,0.00341386077189465,0.3623756634660061
-3.9465,-0.02859666380115328,0.5107286011383502
-3.946,-0.391382608962363,0.92399749893988
-3.9455,-1.052933450138687,1.33726639674141
-3.945,-1.330357996438436,1.37965295036208
-3.9445,-0.9142211769888124,0.6166949851900245
-3.944,-0.3593720843893152,-0.2734226408440398
-3.9435,0.00341386077189465,-0.7078848154559045
-3.943,0.1527963087794516,-0.8032545611024114
-3.9425,0.1848068333524996,-0.7396747306714069
-3.942,0.1527963087794516,-0.6019184314042303
-3.9415,0.09944543449103843,-0.4323722169215513
-3.941,0.1101156093487211,-0.4217755785163839
-3.9405,0.1634664836371343,-0.4641621321370536
-3.94,0.1527963087794516,-0.3793890248957141
-3.9395,0.1101156093487211,-0.1886495336027004
-3.939,0.05676473506030786,-0.008506680714854012
-3.9385,0.01408403562957729,0.13984625695749
-3.938,-0.274010685527854,0.4789386859228479
-3.9375,-0.9462317015618604,0.9981739677760521
-3.937,-1.30901764672307,1.33726639674141
-3.9365,-1.319687821580753,1.29487984312074
-3.936,-0.9569018764195432,0.7862411996727035
-3.9355,-0.5407650569699201,0.2352160026039969
-3.935,-0.2313299860971235,-0.1356663415768632
-3.9345,-0.04993701351651855,-0.3052125560595421
-3.934,0.03542438534494258,-0.3370024712750445
-3.9335,0.05676473506030786,-0.2734226408440398
-3.933,0.04609456020262521,-0.1780528951975329
-3.9325,0.03542438534494258,-0.06148987274069118
-3.932,0.02475421048725994,0.04447651131098315
-3.9315,0.01408403562957729,0.13984625695749
-3.931,0.00341386077189465,0.2246193641988295
-3.9305,0.01408403562957729,0.2881991946298341
-3.93,0.04609456020262521,0.383568940276341
-3.9295,0.07810508477567314,0.7650479228623686
-3.929,-0.274010685527854,1.199510097474233
-3.9285,-0.6367966306890638,1.369056311956912
-3.928,-0.4554036581084589,0.6166949851900245
-3.9275,-0.04993701351651855,-0.5171453241628908
-3.927,0.2274875327832301,-1.174136905283272
-3.9265,0.3128489316446912,-1.280103289334946
-3.926,0.2701682322139607,-1.05757388282643
-3.9255,0.1954770082101822,-0.7714646458869092
-3.925,0.1207857842064037,-0.4853554089473885
-3.9245,0.1314559590640864,-0.3581957480853793
-3.924,0.3982103305061524,-0.5913217929990628
-3.9235,0.4408910299368829,-0.570128516188728
-3.923,0.3341892813600565,-0.3581957480853793
-3.9225,0.1954770082101822,-0.1250697031716958
-3.922,0.07810508477567314,0.05507314971615059
-3.9215,-0.2099896363817582,0.3305857482505039
-3.921,-0.8822106524157645,0.849821030103708
-3.9205,-1.341028171296118,1.316073119931075
-3.92,-1.597112367880501,1.591585718465428
-3.9195,-1.373038695869166,1.29487984312074
-3.919,-0.8928808272734472,0.6378882620003594
-3.9185,-0.4554036581084589,0.06566978812131802
-3.918,-0.156638762093345,-0.2840192792492073
-3.9175,0.00341386077189465,-0.4323722169215513
-3.917,0.0674349099179905,-0.4323722169215513
-3.9165,0.0674349099179905,-0.3475991096802118
-3.916,0.05676473506030786,-0.2310360872233701
-3.9155,0.03542438534494258,-0.1038764263613609
-3.915,0.02475421048725994,0.02328323450064829
-3.9145,0.01408403562957729,0.1292496185523226
-3.914,0.01408403562957729,0.2246193641988295
-3.9135,0.03542438534494258,0.309392471440169
-3.913,0.08877525963335578,0.5637117931641874
-3.9125,0.01408403562957729,0.9134008605347127
-3.912,-0.1032878878049318,0.9028042221295453
-3.9115,-0.1779791118087102,0.5637117931641874
-3.911,0.03542438534494258,-0.3370024712750445
-3.9105,0.2488278824985954,-0.9728007755850904
-3.91,0.3341892813600565,-1.046977244421262
-3.9095,0.291508581929326,-0.8562377531282487
-3.909,0.2061471830678648,-0.6019184314042303
-3.9085,0.1207857842064037,-0.3899856633008816
-3.908,0.07810508477567314,-0.2416327256285375
-3.9075,0.1527963087794516,-0.2840192792492073
-3.907,0.1741366584948169,-0.252229364033705
-3.9065,0.1314559590640864,-0.1462629799820306
-3.906,0.08877525963335578,-0.04029659593035631
-3.9055,0.03542438534494258,0.04447651131098315
-3.905,-0.08194753808956648,0.07626642652648545
-3.9045,-0.6261264558313813,0.3199891098453364
-3.904,-1.212986073003927,0.849821030103708
-3.9035,-1.597112367880501,1.326669758336243
-3.903,-1.543761493592088,1.33726639674141
-3.9025,-1.084943974711735,0.7862411996727035
-3.902,-0.5941159312583333,0.1822328105781598
-3.9015,-0.2420001609548061,-0.2416327256285375
-3.901,-0.02859666380115328,-0.4641621321370536
-3.9005,0.05676473506030786,-0.5171453241628908
-3.9,0.07810508477567314,-0.474758770542221
-3.8995,0.0674349099179905,-0.3793890248957141
-3.899,0.05676473506030786,-0.2628260024388724
-3.8985,0.03542438534494258,-0.1356663415768632
-3.898,0.02475421048725994,-0.01910331912002144
-3.8975,0.02475421048725994,0.08686306493165288
-3.897,0.03542438534494258,0.1822328105781598
-3.8965,0.1741366584948169,0.3729723018711736
-3.896,0.5796033030867573,0.849821030103708
-3.8955,0.3768699807907871,1.273686566310405
-3.895,-0.2526703358124887,1.464426057603419
-3.8945,-0.3593720843893152,0.7544512844572011
-3.894,-0.1459685872356623,-0.2098428104130352
-3.8935,0.05676473506030786,-0.7396747306714069
-3.893,0.142126133921769,-0.8456411147230812
-3.8925,0.1527963087794516,-0.7608680074817418
-3.892,0.1314559590640864,-0.6019184314042303
-3.8915,0.08877525963335578,-0.4217755785163839
-3.891,0.142126133921769,-0.3475991096802118
-3.8905,0.2061471830678648,-0.2946159176543747
-3.89,0.1848068333524996,-0.1568596183871981
