Class_9_Think_Grab_one_hand_movement/Class_9_Think_Right_hand_Grab_SH_11.csv

#Digilent WaveForms Oscilloscope Acquisition
#Device Name: EExplorer
#Serial Number: SN:210151A2B84A
#Date Time: 2021-01-27 12:06:10.259
#Sample rate: 2000Hz
#Samples: 16384
#Trigger: Source: Channel 1 Type: Edge Condition: Rising Level: 0 V Hyst.: Auto HoldOff: 0 s
#Channel 1: Range: 1 V/div Offset: 0 V Attenuation: 1 X
#Channel 2: Range: 1 V/div Offset: 0 V Attenuation: 1 X
#Channel 4: Range: 1 V/div Offset: 0 V Attenuation: 1 X
#Power Supplies: ON
#Fixed Supply: ON
#Voltage: 3.3 V Readback: 3.317 V
#Positive Supply: ON
#Voltage: 3.7 V Readback: 3.717 V
#Current: 40 mA Readback: 23 mA
#Negative Supply: ON
#Voltage: -3.7 V Readback: -3.392 V
#Current: -40 mA Readback: -2 mA
#Reference 1: ON
#Voltage: 0 V
#Reference 2: ON
#Voltage: 0 V

Time (s),Channel 1 (V),Channel 2 (V),Channel 4 (V)
-4.096,-0.7755089038389382,0.6908714540261965,-0.05320338206182537
-4.0955,-1.07427379985378,0.02328323450125547,-0.04262030465098588
-4.095,-1.309017646722925,-0.7926579226974464,-0.02145414982928762
-4.0945,-1.148965023857831,-1.01518732920576,-0.03203722724012713
-4.094,-0.6367966306895296,-0.8032545611026042,-0.02145414982928762
-4.0935,-0.1566387620930247,-0.5489352393782292,-0.021454149829278
-4.093,0.1954770082101822,-0.3687923864905467,-0.021454149829278
-4.0925,0.398210330505968,-0.2734226408441266,-0.0320372272401175
-4.092,0.4622313796522482,-0.2310360872233315,-0.03203722724012713
-4.0915,0.4622313796522482,-0.1886495336027004,-0.03203722724012713
-4.091,0.5796033030867573,-0.3052125560595421,0.01029508240326937
-4.0905,0.6329541773751124,-0.3687923864904215,0.0208781598141185
-4.09,0.5689331282290746,-0.2310360872233701,0.0208781598141185
-4.0895,0.4729015545099309,-0.05089323433552374,0.01029508240326937
-4.089,0.3982103305062203,0.1080563417418432,-0.000287995007570126
-4.0885,0.3661998059331045,0.2458126410091644,-0.03203722724012713
-4.088,0.3768699807907871,0.309392471440169,-0.0637864594726745
-4.0875,0.0247542104875802,-0.1356663415764584,-0.053203382061835
-4.087,-0.6047861061165011,-0.8562377531287017,-0.06378645947269375
-4.0865,-1.138294849000148,-1.354279758171118,-0.08495261429437276
-4.086,-1.031593100423419,-1.163540266878278,-0.04262030465101476
-4.0855,-0.6047861061156373,-0.6231117082141121,-0.03203722724012713
-4.085,-0.1886492866663929,-0.1250697031716958,-0.03203722724012713
-4.0845,0.1101156093484494,0.1928294489830381,-0.04262030465096663
-4.084,0.2701682322140286,0.3411823866557002,-0.04262030465098588
-4.0835,0.3448594562177392,0.3729723018711736,-0.05320338206182537
-4.083,0.3555296310754218,0.3199891098453364,-0.04262030465097626
-4.0825,0.3448594562177101,0.2458126410090873,-0.08495261429439201
-4.082,0.3128489316446912,0.1610395337678249,-0.106118769116071
-4.0815,0.2808384070716433,0.09745970333682032,-0.106118769116071
-4.081,0.2488278824986245,0.04447651131103134,-0.09553569170523152
-4.0805,0.2168173579255475,0.02328323450064829,-0.07436953688352363
-4.08,-0.007256314085787988,0.1928294489833272,-0.03203722724012713
-4.0795,-0.6367966306884912,0.722661369241217,-0.06378645947264563
-4.079,-1.106284324427411,0.9134008605341152,-0.04262030465095701
-4.0785,-1.447729919872945,0.2564092794143318,-0.021454149829278
-4.078,-1.490410619303636,-0.3158091944641891,-0.0320372272401175
-4.0775,-1.095614149568922,-0.4959520473525078,-0.0320372272401175
-4.077,-0.5514352318276028,-0.4429688553267188,-0.021454149829278
-4.0765,-0.1032878878053393,-0.3370024712751408,-0.021454149829278
-4.076,0.1634664836372701,-0.2734226408439916,-0.03203722724012713
-4.0755,0.3128489316446912,-0.2204394488182027,-0.03203722724012713
-4.075,0.3875401556484697,-0.1462629799820306,-0.03203722724012713
-4.0745,0.4942419042253932,-0.1144730647665284,-0.0002879950075508762
-4.074,0.6009436528021226,-0.1144730647665284,0.03146123722496762
-4.0735,0.5689331282290746,0.01268659609548085,0.0208781598141185
-4.073,0.4942419042253641,0.16103953376769,0.0208781598141185
-4.0725,0.4195506802215176,0.2987958330350016,-0.000287995007579752
-4.072,0.3875401556484697,0.3941655786815084,-0.03203722724012713
-4.0715,0.3128489316447592,0.09745970333709014,-0.04262030465096663
-4.071,0.01408403562913089,-0.5701285161892388,-0.07436953688349475
-4.0705,-0.4767440078238243,-1.131750351662602,-0.04262030465097626
-4.07,-0.999582575849798,-1.52382597265344,-0.07436953688349476
-4.0695,-1.330357996438164,-1.629792356705009,-0.06378645947264562
-4.069,-1.031593100423322,-1.121153713257435,-0.03203722724012713
-4.0685,-0.5407650569699201,-0.474758770542221,-0.03203722724012713
-4.068,-0.1139580626623621,0.01268659609571216,-0.03203722724013675
-4.0675,0.1634664836371343,0.2670059178194992,-0.04262030465097626
-4.067,0.3128489316446912,0.3517790250608387,-0.04262030465097626
-4.0665,0.3555296310754315,0.3093924714400726,-0.04262030465099551
-4.066,0.3661998059331045,0.2034260873884947,-0.0637864594726745
-4.0655,0.3448594562177392,0.08686306493165288,-0.106118769116071
-4.065,0.3128489316447204,-0.01910331911992506,-0.106118769116071
-4.0645,0.2701682322139607,-0.09327978795619347,-0.106118769116071
-4.064,0.2381577076409128,-0.1356663415768632,-0.08495261429437276
-4.0635,0.1207857842065105,-0.07208651114591644,-0.03203722724017526
-4.063,-0.4660738329666947,0.42595549389756,-0.05320338206182537
-4.0625,-1.074273799854052,1.029963882991555,-0.05320338206182537
-4.062,-1.39437904558424,1.188913459068921,-0.01087107241846738
-4.0615,-1.437059745014942,0.9028042221290923,-0.03203722724012713
-4.061,-1.084943974711735,0.4047622170866759,-0.03203722724012713
-4.0605,-0.5514352318276028,-0.04029659593035631,-0.03203722724012713
-4.06,-0.0926177129469871,-0.3264058328700216,-0.03203722724012713
-4.0595,0.1954770082101822,-0.4853554089473885,-0.03203722724012713
-4.059,0.3448594562177392,-0.5171453241628908,-0.021454149829278
-4.0585,0.3982103305061039,-0.4005823017061551,-0.021454149829278
-4.058,0.4302208550792003,-0.2310360872233701,-0.01087107241842888
-4.0575,0.5369226036560266,-0.2310360872233701,0.0208781598141185
-4.057,0.5796033030867185,-0.1038764263614766,0.031461237224958
-4.0565,0.5369226036560266,0.1292496185523226,0.0208781598141185
-4.056,0.4622313796522482,0.3729723018711736,0.01029508240326937
-4.0555,0.4088805053638835,0.5743084315691718,-0.01087107241840963
-4.055,0.5155822539410593,0.6060983467846354,-0.04262030465099551
-4.0545,0.9530594231056497,0.3623756634660061,-0.0637864594726745
-4.054,0.8036769750982287,-0.1250697031712524,-0.09553569170519302
-4.0535,0.1314559590633488,-0.6549016234304144,-0.1590341561703263
-4.053,-0.6794773301197943,-1.036380606016095,-0.1696172335811658
-4.0525,-0.8822106524157645,-0.8668343915334161,-0.1696172335811658
-4.052,-0.6154562809733589,-0.3370024712746107,-0.06378645947265525
-4.0515,-0.2420001609548061,0.13984625695749,-0.04262030465097626
-4.051,0.04609456020262521,0.4047622170866759,-0.04262030465097626
-4.0505,0.2274875327830651,0.4789386859227804,-0.04262030465097626
-4.05,0.3235191065023739,0.4153588554918433,-0.05320338206182537
-4.0495,0.3448594562177392,0.2776025562246667,-0.05320338206182537
-4.049,0.3448594562177392,0.108056341742142,-0.1061187691160229
-4.0485,0.3235191065023448,-0.06148987274081646,-0.106118769116071
-4.048,0.291508581929326,-0.1992461720078678,-0.106118769116071
-4.0475,0.2701682322139801,-0.294615917654288,-0.09553569170523152
-4.047,0.2061471830675058,-0.315809194464565,-0.06378645947265525
-4.0465,-0.1886492866663929,-0.1568596183871981,-0.04262030465097626
-4.046,-0.8502001278421151,-0.1144730647665669,-0.04262030465097626
-4.0455,-1.522421143877179,-0.4959520473528933,-0.0532033820617965
-4.045,-2.023919362187807,-0.8668343915334161,-0.021454149829278
-4.0445,-1.778505340461106,-0.8668343915334161,-0.021454149829278
-4.044,-1.106284324426537,-0.7396747306713394,-0.021454149829278
-4.0435,-0.4874141826815069,-0.6654982618352349,-0.021454149829278
-4.043,-0.01792648894347063,-0.5807251545938954,-0.021454149829278
-4.0425,0.2274875327830069,-0.4535654937320018,-0.021454149829278
-4.042,0.3661998059331045,-0.3581957480853793,-0.021454149829278
-4.0415,0.4195506802215176,-0.2310360872233701,-0.03203722724012713
-4.041,0.5902734779442846,-0.2734226408440013,0.02087815981407037
-4.0405,0.6863050516635353,-0.2204394488180099,0.0208781598141185
-4.04,0.6329541773751706,-0.008506680714854012,0.0208781598141185
-4.0395,0.536922603656114,0.2352160026037753,0.010295082403279
-4.039,0.4515612047945947,0.447148770707413,-0.000287995007618253
-4.0385,0.4835717293676135,0.5213252395435176,-0.04262030465097626
-4.038,0.9957401225359144,0.06566978812173241,-0.06378645947265525
-4.0375,1.134452395685818,-0.5277419625683764,-0.06378645947264562
-4.037,0.6542945270905358,-0.8774310299385835,-0.03203722724012713
-4.0365,0.01408403562957729,-0.8032545611024114,-0.07436953688352363
-4.036,-0.4660738329661124,-0.6231117082141603,-0.06378645947265525
-4.0355,-0.4340633083930936,-0.1780528951975329,-0.04262030465097626
-4.035,-0.2099896363817582,0.2352160026039969,-0.04262030465097626
-4.0345,0.02475421048704643,0.4789386859226262,-0.04262030465097626
-4.034,0.1848068333524996,0.55311515475902,-0.05320338206182537
-4.0335,0.2808384070716433,0.5001319627331828,-0.05320338206182537
-4.033,0.3235191065023351,0.3729723018712893,-0.05320338206182537
-4.0325,0.3341892813600371,0.2034260873883501,-0.08495261429439201
-4.032,0.3128489316446912,0.04447651131098315,-0.106118769116071
-4.0315,0.2808384070716724,-0.08268314955091038,-0.106118769116071
-4.031,0.2488278824985663,-0.1886495336027582,-0.09553569170520264
-4.0305,0.2168173579255475,-0.252229364033705,-0.07436953688352363
-4.03,0.003413860772088745,-0.1250697031718114,-0.03203722724016563
-4.0295,-0.5834457564011261,0.3941655786815566,-0.06378645947264562
-4.029,-1.1062843244271,0.4471487707073456,-0.03203722724012713
-4.0285,-1.479740444445993,-0.008506680714854012,-0.021454149829278
-4.028,-1.244996597576557,-0.3687923864907106,-0.03203722724012713
-4.0275,-0.7861790786966207,-0.5489352393783931,-0.03203722724012713
-4.027,-0.2953510352432193,-0.6125150698093976,-0.03203722724012713
-4.0265,0.07810508477533346,-0.5701285161887665,-0.03203722724012713
-4.026,0.3128489316446912,-0.474758770542221,-0.03203722724012713
-4.0255,0.4195506802215176,-0.3899856633008816,-0.03203722724012713
-4.025,0.4408910299368635,-0.2840192792493036,-0.03203722724012713
-4.0245,0.504912079083202,-0.2310360872235436,-0.01087107241839038
-4.024,0.7503261008096795,-0.4217755785163839,0.03146123722496762
-4.0235,0.7716664505250254,-0.3158091944648059,0.02087815981412813
-4.023,0.6542945270904097,-0.02969995752490939,0.02087815981409925
-4.0225,0.5155822539406614,0.2776025562246667,-0.000287995007579752
-4.022,0.4515612047946238,0.4895353243278225,-0.02145414982925875
-4.0215,0.7930068002410409,0.2352160026034572,-0.053203382061835
-4.021,1.486568165989782,-0.3581957480853793,-0.0637864594726745
-4.0205,1.433217291701369,-0.8668343915334161,-0.04262030465097626
-4.02,0.4195506802207607,-1.216523458903922,-0.08495261429435351
-4.0195,-0.4127229586777283,-1.195330182093607,-0.0637864594726745
-4.019,-0.5514352318276028,-0.6443049850249,-0.04262030465097626
-4.0185,-0.3593720843894899,-0.02969995752574783,-0.03203722724013675
-4.018,-0.09261771294724913,0.3941655786815084,-0.04262030465097626
-4.0175,0.1207857842064037,0.5849050699745222,-0.04262030465097626
-4.017,0.2488278824984789,0.5849050699745222,-0.05320338206181575
-4.0165,0.312848931644701,0.4789386859226937,-0.05320338206184462
-4.016,0.3235191065023739,0.309392471440169,-0.07436953688352363
-4.0155,0.3235191065023739,0.1292496185524865,-0.1061187691160421
-4.015,0.2915085819292969,-0.02969995752530453,-0.106118769116071
-4.0145,0.2594980573562781,-0.1568596183871981,-0.106118769116071
-4.014,0.2381577076409322,-0.262826002438776,-0.09553569170523152
-4.0135,0.1421261339212838,-0.2522293640333291,-0.04262030465098588
-4.013,-0.391382608962363,0.1610395337678249,-0.05320338206182537
-4.0125,-1.010252750707956,0.6696781772158616,-0.04262030465097626
-4.012,-1.44772991987308,0.6060983467846932,-0.021454149829278
-4.0115,-1.597112367880501,0.4259554938970107,-0.021454149829278
-4.011,-1.180975548430879,0.1716361721729923,-0.03203722724012713
-4.0105,-0.6367966306895587,-0.1780528951972149,-0.03203722724012713
-4.01,-0.156638762093345,-0.3793890248957141,-0.03203722724012713
-4.0095,0.1527963087794516,-0.4641621321370536,-0.03203722724012713
-4.009,0.3448594562175645,-0.4853554089473692,-0.03203722724012713
-4.0085,0.4302208550792488,-0.4323722169214742,-0.0320372272401175
-4.008,0.4835717293676135,-0.3475991096802118,-0.021454149829278
-4.0075,0.6649647019480533,-0.3687923864905275,0.0314612372249195
-4.007,0.6542945270904484,-0.1886495336024594,0.031461237224958
-4.0065,0.5582629533713921,0.07626642652648545,0.0208781598141185
-4.006,0.4515612047945656,0.3305857482505039,0.01029508240326937
-4.0055,0.3768699807909521,0.542518516353785,-0.01087107241845775
-4.005,0.5582629533713921,0.4683420475176805,-0.04262030465097626
-4.0045,1.081101521397841,-0.06148987274069118,-0.05320338206182537
-4.004,0.7930068002396142,-0.6231117082148927,-0.053203382061835
-4.0035,-0.08194753808956648,-0.9833974139902578,-0.0637864594726745
-4.003,-0.8822106524157645,-1.152943628472937,-0.08495261429437276
-4.0025,-0.9995825758501669,-0.8032545611027295,-0.04262030465101476
-4.002,-0.6688071552621118,-0.1886495336027004,-0.03203722724012713
-4.0015,-0.2633405106701714,0.2987958330350016,-0.04262030465097626
-4.001,0.04609456020234376,0.5637117931639465,-0.04262030465097626
-4.0005,0.2274875327833175,0.6166949851899475,-0.05320338206182537
-4,0.3235191065023739,0.5319218779486851,-0.05320338206182537
-3.9995,0.3448594562177392,0.3729723018711736,-0.05320338206182537
-3.999,0.3341892813600565,0.1716361721729923,-0.106118769116071
-3.9985,0.2808384070716433,0.002089957690313421,-0.1167018465269201
-3.998,0.2488278824985954,-0.1462629799820306,-0.106118769116071
-3.9975,0.2274875327832301,-0.2840192792492073,-0.09553569170522189
-3.997,0.1848068333524996,-0.3158091944647096,-0.05320338206182537
-3.9965,-0.1993194615240755,-0.02969995752518888,-0.05320338206182537
-3.996,-0.7861790786966207,0.4365521323021782,-0.04262030465097626
-3.9955,-1.202315898146244,0.2034260873884947,-0.03203722724012713
-3.995,-1.373038695869166,-0.2416327256285375,-0.021454149829278
-3.9945,-1.010252750707956,-0.4535654937318862,-0.03203722724012713
-3.994,-0.4660738329661415,-0.6125150698093976,-0.03203722724012713
-3.9935,-0.007256314085787988,-0.6231117082145651,-0.03203722724012713
-3.993,0.2701682322139607,-0.5489352393783931,-0.03203722724012713
-3.9925,0.408880505363835,-0.4641621321370536,-0.021454149829278
-3.992,0.4515612047945656,-0.3370024712750445,-0.03203722724012713
-3.9915,0.4408910299368829,-0.2098428104130352,-0.021454149829278
-3.991,0.4729015545099309,-0.1674562567923655,0.0208781598141185
-3.9905,0.4942419042252961,-0.08268314955102604,0.03146123722496762
-3.99,0.4515612047945656,0.05507314971615059,0.0208781598141185
-3.9895,0.408880505363835,0.2246193641988295,0.01029508240326937
-3.989,0.3661998059331045,0.3941655786815084,-0.000287995007579752
-3.9885,0.3768699807907871,0.5955017083796896,-0.03203722724012713
-3.988,0.7289857510943143,0.9451907757502149,-0.04262030465097626
-3.9875,0.8356874996711408,0.7544512844572011,-0.05320338206182537
-3.987,0.2061471830678648,-0.008506680714854012,-0.0637864594726745
-3.9865,-0.6261264558313813,-0.7502713690765743,-0.09553569170522189
-3.986,-0.9035510021311299,-0.8880276683437509,-0.05320338206182537
-3.9855,-0.658136980404429,-0.4853554089473885,-0.03203722724012713
-3.985,-0.2953510352432193,-0.008506680714854012,-0.03203722724012713
-3.9845,0.01408403562957729,0.3411823866556712,-0.04262030465097626
-3.984,0.2061471830678648,0.5319218779486851,-0.04262030465097626
-3.9835,0.3021787567870086,0.5637117931641874,-0.04262030465097626
-3.983,0.3341892813600565,0.5213252395435176,-0.04262030465097626
-3.9825,0.3341892813600565,0.4259554938970107,-0.08495261429437276
-3.982,0.3128489316446912,0.309392471440169,-0.106118769116071
-3.9815,0.2808384070716433,0.2034260873884947,-0.106118769116071
-3.981,0.2488278824985954,0.1080563417419877,-0.09553569170522189
-3.9805,0.2274875327832301,0.04447651131098315,-0.07436953688352363
-3.98,-0.06060718837420119,0.2458126410091644,-0.03203722724012713
-3.9795,-0.7434983792658902,0.8180311148882058,-0.05320338206182537
-3.979,-1.351698346153801,1.305476481525908,-0.03203722724012713
-3.9785,-1.703814116457328,1.199510097474233,-0.01087107241842888
-3.978,-1.373038695869166,0.6802748156210291,-0.03203722724012713
-3.9775,-0.807519428411986,0.1080563417419877,-0.03203722724012713
-3.977,-0.3060212101009019,-0.3370024712750445,-0.03203722724012713
-3.9765,0.0674349099179905,-0.570128516188728,-0.03203722724012713
-3.976,0.2808384070716433,-0.570128516188728,-0.03203722724012713
-3.9755,0.3875401556484697,-0.5383386009732256,-0.021454149829278
-3.975,0.4195506802215176,-0.4429688553267188,-0.03203722724012713
-3.9745,0.5262524287983441,-0.3581957480853793,-0.000287995007579752
-3.974,0.7503261008096795,-0.2098428104130352,-0.000287995007579752
-3.9735,0.7289857510943143,-0.008506680714854012,-0.0637864594726745
-3.973,0.6116138276598051,0.1822328105781598,-0.0637864594726745
-3.9725,0.4942419042252961,0.3411823866556712,-0.1272849239377692
-3.972,0.408880505363835,0.4683420475176805,-0.05320338206182537
-3.9715,0.6222840025174878,0.4259554938970107,-0.0637864594726745
-3.971,0.8356874996711408,0.03387987290581572,-0.05320338206182537
-3.9705,0.2274875327832301,-0.5595318777835605,-0.05320338206182537
-3.97,-0.6154562809736985,-1.046977244421262,-0.08495261429437276
-3.9695,-0.9782422261349084,-1.046977244421262,-0.05320338206182537
-3.969,-0.754168554123573,-0.5277419625680583,-0.03203722724012713
-3.9685,-0.3700422592469978,0.04447651131098315,-0.03203722724012713
-3.968,-0.02859666380115328,0.4365521323021782,-0.04262030465097626
-3.9675,0.1848068333524996,0.6166949851900245,-0.04262030465097626
-3.967,0.3021787567870086,0.6378882620003594,-0.05320338206182537
-3.9665,0.3341892813600565,0.55311515475902,-0.04262030465097626
-3.966,0.3341892813600565,0.4047622170866759,-0.07436953688352363
-3.9655,0.3128489316446912,0.2458126410091644,-0.106118769116071
-3.965,0.2701682322139607,0.1080563417419877,-0.106118769116071
-3.9645,0.2274875327832301,-0.01910331912002144,-0.106118769116071
-3.964,0.2061471830678648,-0.1144730647665284,-0.08495261429437276
-3.9635,0.04609456020262521,0.03387987290581572,-0.04262030465097626
-3.963,-0.4660738329661415,0.5001319627331828,-0.05320338206182537
-3.9625,-1.010252750707956,0.9663840525605498,-0.05320338206182537
-3.962,-1.244996597576974,0.7544512844572011,-0.01087107241842888
-3.9615,-1.148965023857831,0.2034260873884947,-0.03203722724012713
-3.961,-0.722158029550525,-0.2098428104130352,-0.03203722724012713
-3.9605,-0.2526703358124887,-0.4853554089473885,-0.03203722724012713
-3.96,0.08877525963335578,-0.6125150698093976,-0.03203722724012713
-3.9595,0.2808384070716433,-0.6443049850249,-0.03203722724012713
-3.959,0.3768699807907871,-0.5913217929990628,-0.03203722724012713
-3.9585,0.4195506802215176,-0.4853554089473885,-0.03203722724012713
-3.958,0.4408910299368829,-0.3687923864905467,-0.021454149829278
-3.9575,0.6969752265212663,-0.5171453241628908,0.03146123722496762
-3.957,0.8036769750980928,-0.474758770542221,0.03146123722496762
-3.9565,0.707645401378949,-0.1886495336027004,0.0208781598141185
-3.956,0.5582629533713921,0.1292496185523226,0.01029508240326937
-3.9555,0.4515612047945656,0.4047622170866759,-0.000287995007579752
-3.955,0.4835717293676135,0.4895353243280153,-0.04262030465097626
-3.9545,0.8997085488172365,0.04447651131098315,-0.0637864594726745
-3.954,0.6542945270905358,-0.5489352393783931,-0.05320338206182537
-3.9535,-0.1032878878049318,-1.01518732920576,-0.0637864594726745
-3.953,-0.7648387289812555,-1.184733543688439,-0.07436953688352363
-3.9525,-0.7755089038389382,-0.7502713690765743,-0.04262030465097626
