Class_9_Think_Grab_one_hand_movement/Class_9_Think_Right_hand_Grab_AM_6.csv

#Digilent WaveForms Oscilloscope Acquisition
#Device Name: EExplorer
#Serial Number: SN:210151A2B84A
#Date Time: 2020-12-06 11:01:06.531
#Sample rate: 2000Hz
#Samples: 16384
#Trigger: Source: Channel 1 Type: Edge Condition: Rising Level: 0 V Hyst.: Auto HoldOff: 0 s
#Channel 1: Range: 1 V/div Offset: 0 V Attenuation: 1 X
#Channel 2: Range: 1 V/div Offset: 0 V Attenuation: 1 X
#Power Supplies: ON
#Fixed Supply: ON
#Voltage: 3.3 V Readback: 3.317 V
#Positive Supply: ON
#Voltage: 3.7 V Readback: 3.717 V
#Current: 40 mA Readback: 141 mA
#Negative Supply: ON
#Voltage: -3.7 V Readback: -4.672 V
#Current: -40 mA Readback: 0 A
#Reference 1: ON
#Voltage: 0 V
#Reference 2: ON
#Voltage: 0 V

Time (s),Channel 1 (V),Channel 2 (V)
-4.096,0.3128489316446912,0.383568940276341
-4.0955,0.3021787567870183,0.5107286011382345
-4.095,0.2274875327827546,0.5319218779483478
-4.0945,-0.2953510352432193,0.1610395337678249
-4.094,-0.9782422261342874,-0.3370024712745915
-4.0935,-1.298347471864873,-0.6443049850250542
-4.093,-0.7328282044082075,-0.8138511995075789
-4.0925,0.2061471830670109,-0.8562377531282102
-4.092,0.2808384070718374,-1.449649503817615
-4.0915,0.4942419042252961,-1.439052865412457
-4.091,0.6649647019482183,-0.9304142219644207
-4.0905,0.63295417737519,-0.3052125560589253
-4.09,0.6542945270905358,0.3729723018711736
-4.0895,0.7289857510943143,0.9663840525605498
-4.089,1.006410297393811,1.496215972818439
-4.0885,1.049090996824793,1.517409249629256
-4.088,0.8783681991018712,1.093543713422559
-4.0875,0.6649647019484124,0.5637117931646692
-4.087,0.4942419042248109,0.1292496185523612
-4.0865,-0.03926683865883591,0.1716361721729923
-4.086,-1.095614149568457,0.6696781772154087
-4.0855,-2.023919362188263,1.167720182258991
-4.085,-2.525417580498891,1.453829419198252
-4.0845,-2.877533350802098,1.570392441654987
-4.084,-2.269333383913615,1.241896651094219
-4.0835,-1.287677297007705,0.4895353243280153
-4.083,-0.4554036581084589,-0.1568596183871981
-4.0825,0.08877525963360809,-0.5277419625681353
-4.082,0.3661998059331045,-0.6125150698093976
-4.0815,0.4729015545099309,-0.5065486857577234
-4.081,0.4729015545099309,-0.2734226408442518
-4.0805,0.4408910299368829,0.02328323450064829
-4.08,0.3875401556484697,0.2670059178194992
-4.0795,0.3341892813601051,0.4789386859226551
-4.079,0.2915085819292775,0.6590815388107809
-4.0785,0.2381577076409128,0.7544512844572011
-4.078,-0.2846808603850611,0.4365521323024673
-4.0775,-0.9462317015621904,0.01268659609522064
-4.077,-1.30901764672307,-0.2734226408440398
-4.0765,-0.9889124009928822,-0.4323722169214068
-4.076,-0.1032878878041748,-0.4959520473525752
-4.0755,0.7289857510943143,-0.5171453241628908
-4.075,1.006410297394063,-0.5277419625680583
-4.0745,0.3982103305061233,-0.7290780922655841
-4.074,0.3661998059331045,-0.008506680714854012
-4.0735,0.3448594562177392,0.5319218779486851
-4.073,0.366199805933085,0.8498210301034189
-4.0725,0.6542945270905358,1.157123543853563
-4.072,0.707645401378949,1.040560521396722
-4.0715,0.6009436528022196,0.6484849004058835
-4.071,0.4942419042252282,0.2458126410088463
-4.0705,0.4195506802215176,-0.1038764263613609
-4.07,0.3341892813601341,-0.1780528951974655
-4.0695,-0.3807124341054762,0.3093924714406219
-4.069,-1.255666772434657,0.8074344764830383
-4.0685,-1.693143941599645,0.3941655786815084
-4.068,-2.055929886760613,-0.1462629799819632
-4.0675,-1.789175515318789,-0.07208651114585861
-4.067,-1.074273799854052,-0.1038764263613609
-4.0665,-0.3913826089619361,-0.1674562567923944
-4.066,0.07810508477567314,-0.1992461720078678
-4.0655,0.3341892813600565,-0.1674562567923655
-4.065,0.4408910299367859,-0.08268314955110315
-4.0645,0.4622313796522482,0.03387987290581572
-4.064,0.4408910299368829,0.1610395337678249
-4.0635,0.3982103305061912,0.2881991946297184
-4.063,0.3661998059330754,0.4153588554918915
-4.0625,0.3341892813600565,0.4683420475176805
-4.062,0.2915085819293648,0.4683420475176805
-4.0615,-0.1139580626632743,0.07626642652593611
-4.061,-0.839529952985034,-0.5277419625680583
-4.0605,-1.319687821580753,-0.9728007755850904
-4.06,-1.586442193022324,-1.237716735714392
-4.0595,-1.042263275281004,-1.364876396576285
-4.059,-0.08194753808956648,-1.364876396576285
-4.0585,0.6542945270898662,-1.258910012524707
-4.058,0.9957401225363802,-0.9622041371799229
-4.0575,0.3875401556484697,-1.0999604364471
-4.057,0.2594980573563945,-0.559531877784052
-4.0565,0.2594980573562781,0.03387987290581572
-4.056,0.4302208550792003,0.55311515475902
-4.0555,0.7076454013786968,0.9875773293704896
-4.055,0.7396559259518707,0.9663840525602607
-4.0545,0.6009436528021226,0.6484849004055269
-4.054,0.4835717293677202,0.3199891098456352
-4.0535,0.3661998059326192,0.1610395337681526
-4.053,-0.1673089369510276,0.5213252395435176
-4.0525,-1.148965023857831,1.125333628638062
-4.052,-1.938557963326356,1.443232780792554
-4.0515,-1.949228138184029,0.8604176685088755
-4.051,-1.298347471865388,0.2246193641988295
-4.0505,-0.5834457564013007,-0.1992461720074823
-4.05,-0.03926683865883591,-0.400582301706049
-4.0495,0.2701682322139607,-0.4323722169215513
-4.049,0.4195506802213818,-0.347599109680289
-4.0485,0.4622313796522385,-0.209842810412881
-4.048,0.4515612047945656,-0.04029659593035631
-4.0475,0.4195506802215467,0.1292496185521684
-4.047,0.3875401556484406,0.2881991946299305
-4.0465,0.3555296310754218,0.3941655786815084
-4.046,0.334189281360076,0.4895353243279286
-4.0455,0.2808384070714686,0.4153588554915927
-4.045,0.08877525963335578,0.13984625695749
-4.0445,-0.572775581542968,-0.3687923864905467
-4.044,-1.202315898146448,-0.8350444763181355
-4.0435,-1.426389570157579,-1.078767159636765
-4.043,-0.7328282044082075,-1.195330182093607
-4.0425,0.2168173579246838,-1.22712009730908
-4.042,0.9103787236749192,-1.195330182093607
-4.0415,1.230483969405398,-1.05757388282643
-4.041,1.134452395686342,-0.5595318777840135
-4.0405,0.2488278824984498,-0.5383386009727533
-4.04,0.08877525963335578,-0.01910331912002144
-4.0395,0.1634664836370663,0.4047622170862903
-4.039,0.3768699807909229,0.6908714540262351
-4.0385,0.5262524287983441,0.7332580076468663
-4.038,0.5689331282290357,0.5849050699746571
-4.0375,0.4942419042252476,0.3093924714399473
-4.037,0.4408910299368829,0.06566978812131802
-4.0365,0.3235191065023739,0.2458126410091644
-4.036,0.1421261339213614,0.8498210301041321
-4.0355,-0.3060212101009019,1.316073119931075
-4.035,-0.9142211769888124,0.9134008605347127
-4.0345,-0.9142211769888124,0.3305857482510338
-4.034,-0.5407650569699201,-0.1250697031716958
-4.0335,-0.1459685872356623,-0.3793890248957141
-4.033,0.1421261339215069,-0.4535654937318188
-4.0325,0.3128489316447689,-0.3899856633007466
-4.032,0.3982103305061524,-0.2416327256285375
-4.0315,0.4195506802214982,-0.06148987274085502
-4.031,0.4088805053638156,0.1398462569576539
-4.0305,0.3875401556484697,0.3199891098453364
-4.03,0.3555296310754509,0.4365521323020721
-4.0295,0.3128489316446718,0.5107286011383984
-4.029,0.291508581929326,0.5637117931641874
-4.0285,0.2061471830678648,0.5107286011383502
-4.028,-0.3487019095322439,0.07626642652597466
-4.0275,-1.020922925565639,-0.4853554089473885
-4.027,-1.394379045584531,-0.9198175835592532
-4.0265,-1.031593100423652,-1.152943628472725
-4.026,-0.08194753808956648,-1.227120097309109
-4.0255,0.7183155762366316,-1.216523458903942
-4.025,1.155792745401222,-1.110557074852363
-4.0245,1.230483969405263,-0.80325456110192
-4.024,1.081101521397841,-0.2628260024388724
-4.0235,0.7716664505253262,0.1398462569571238
-4.023,-0.02859666380106594,-0.1038764263609176
-4.0225,0.0674349099179905,0.383568940276341
-4.022,0.1954770082100657,0.637888262000128
-4.0215,0.2488278824987118,0.5425185163537273
-4.021,0.3768699807907871,0.4047622170866759
-4.0205,0.4195506802215176,0.1716361721729923
-4.02,0.2594980573556667,0.1080563417423925
-4.0195,-0.4127229586777283,0.55311515475902
-4.019,-1.330357996438436,1.00877060618122
-4.0185,-1.661133417026297,0.5213252395439609
-4.018,-1.597112367880501,-0.2628260024388724
-4.0175,-1.042263275281004,-0.5489352393783931
-4.017,-0.4233931335359739,-0.5701285161887086
-4.0165,0.03542438534517548,-0.4747587705421054
-4.016,0.291508581929326,-0.3475991096802118
-4.0155,0.4088805053637283,-0.1992461720080027
-4.015,0.4408910299368732,-0.05089323433539845
-4.0145,0.4302208550792003,0.08686306493165288
-4.014,0.4088805053638545,0.2246193641987042
-4.0135,0.3661998059330657,0.3199891098453846
-4.013,0.3235191065023739,0.3729723018711736
-4.0125,0.291508581929326,0.4047622170866759
-4.012,0.2701682322137084,0.3941655786812193
-4.0115,-0.007256314085787988,0.07626642652648545
-4.011,-0.6367966306890638,-0.5489352393783931
-4.0105,-1.116954499284346,-1.068170521231125
-4.01,-1.020922925565639,-1.354279758171118
-4.0095,-0.1886492866663929,-1.502632695843462
-4.009,0.6329541773744233,-1.523825972653778
-4.0085,1.123782220828698,-1.460246142222465
-4.008,1.262494493978446,-1.0999604364471
-4.0075,1.145122570544044,-0.4323722169221585
-4.007,0.9530594231054751,0.2034260873888802
-4.0065,0.7609962756673623,0.627291623595192
-4.006,0.4729015545099309,0.6484849004055269
-4.0055,-0.06060718837412356,0.182232810578179
-4.005,0.02475421048725994,0.2034260873884947
-4.0045,0.04609456020262521,0.09745970333682032
-4.004,0.1421261339219146,0.04447651131106025
-4.0035,0.3021787567870086,0.1292496185523226
-4.003,-0.1352984123779797,0.5743084315693548
-4.0025,-1.1916457232876,1.199510097473665
-4.002,-1.821186039891837,1.273686566310405
-4.0015,-2.226652684483777,0.5107286011383502
-4.001,-2.205312334768432,0.4153588554919301
-4.0005,-1.511750969018303,0.3093924714400147
-4,-0.7008176798351597,0.13984625695749
-3.9995,-0.09261771294724913,0.01268659609548085
-3.999,0.2594980573562781,-0.02969995752518888
-3.9985,0.4195506802215176,0.002089957690313421
-3.998,0.4622313796522482,0.08686306493165288
-3.9975,0.4515612047945656,0.2140227257936621
-3.997,0.4195506802215176,0.3199891098453364
-3.9965,0.3661998059331045,0.3941655786815084
-3.996,0.3341892813600565,0.457745409112513
-3.9955,0.3128489316446912,0.4789386859228479
-3.995,0.1634664836371343,0.3199891098453364
-3.9945,-0.4660738329661415,-0.3052125560595421
-3.994,-1.074273799854052,-0.9410108603695881
-3.9935,-1.148965023857831,-1.152943628472937
-3.993,-0.5834457564006506,-1.258910012524611
-3.9925,0.2381577076409128,-1.375473034981453
-3.992,0.9317190733902845,-1.47084278062796
-3.9915,1.283834843693812,-1.439052865412457
-3.991,1.283834843693812,-1.0999604364471
-3.9905,1.102441871113207,-0.5065486857577234
-3.99,0.857027849386506,0.13984625695749
-3.9895,0.7609962756673623,0.4683420475176805
-3.989,0.7716664505250448,0.5213252395435176
-3.9885,0.6329541773751706,0.5213252395435176
-3.988,-0.1779791118087102,-0.1992461720078678
-3.9875,-0.2846808603855366,-0.2628260024388724
-3.987,-0.1886492866663929,-0.1992461720078678
-3.9865,-0.2420001609548061,0.04447651131098315
-3.986,-0.7114878546928423,0.775644561267536
-3.9855,-1.074273799854052,0.7650479228623686
-3.985,-1.778505340461106,-0.3475991096802118
-3.9845,-2.418715831922065,-1.576809164679634
-3.984,-2.183971985053047,-2.011271339291499
-3.9835,-1.362368521011484,-1.534422611058964
-3.983,-0.5621054066852853,-0.8350444763179138
-3.9825,0.01408403562957729,-0.2628260024388724
-3.982,0.3341892813600565,0.1080563417419877
-3.9815,0.4622313796522482,0.309392471440169
-3.981,0.4835717293676135,0.383568940276341
-3.9805,0.4515612047945656,0.3941655786815084
-3.98,0.3982103305061524,0.3517790250608387
-3.9795,0.3448594562177392,0.2776025562246667
-3.979,0.3128489316446912,0.2140227257936621
-3.9785,0.2701682322139607,0.08686306493165288
-3.978,-0.2206598112394408,-0.4641621321370536
-3.9775,-1.031593100423322,-1.258910012524611
-3.977,-1.447729919872945,-1.84172512480882
-3.9765,-1.06360362499637,-2.233800745800015
-3.976,-0.124628237520297,-2.509313344334368
-3.9755,0.6863050516635838,-2.58348981317054
-3.975,1.123782220828572,-2.350363768256857
-3.9745,1.19847344483235,-1.619195718300304
-3.974,1.070431346540159,-0.7820612842920766
-3.9735,0.8890383739595538,-0.05089323433552374
-3.973,0.7396559259519968,0.4259554938970107
-3.9725,0.8143471499557753,0.55311515475902
-3.972,0.7609962756673623,0.6166949851900245
-3.9715,0.6329541773751706,0.627291623595192
-3.971,0.5155822539406614,0.5955017083796896
-3.9705,0.3448594562177392,0.457745409112513
-3.97,-0.572775581542968,-0.02969995752518888
-3.9695,-1.244996597576974,0.6802748156210291
-3.969,-1.885207089037933,1.019367244586387
-3.9685,-2.109280761049269,0.1716361721729923
-3.968,-1.703814116457328,-0.400582301706049
-3.9675,-0.9355615267041777,-0.3899856633008816
-3.967,-0.3273615598162672,-0.2628260024388724
-3.9665,0.08877525963335578,-0.09327978795619347
-3.966,0.3128489316446912,0.05507314971615059
-3.9655,0.408880505363835,0.1716361721729923
-3.965,0.4408910299368829,0.2564092794143318
-3.9645,0.4302208550792003,0.309392471440169
-3.964,0.4195506802215176,0.3623756634660061
-3.9635,0.3875401556484697,0.3729723018711736
-3.963,0.3555296310754218,0.3517790250608387
-3.9625,0.3235191065023739,0.309392471440169
-3.962,0.2701682322139607,0.1716361721729923
-3.9615,-0.1459685872356623,-0.3793890248957141
-3.961,-0.8822106524157645,-1.142346990067769
-3.9605,-1.415719395299897,-1.735758740757146
-3.96,-1.618452717595867,-2.191414192179345
-3.9595,-0.9355615267041777,-2.466926790713698
-3.959,0.02475421048725994,-2.530506621144703
-3.9585,0.7396559259519968,-2.329170491446522
-3.958,1.059761171682476,-1.852321763213987
-3.9575,1.091771696255524,-1.163540266878104
-3.957,0.9530594231056497,-0.4323722169215513
-3.9565,0.79300680024041,0.2246193641988295
-3.956,0.7609962756673623,0.6908714540261965
-3.9555,0.707645401378949,0.8816109453192104
-3.955,0.5902734779444399,0.849821030103708
-3.9545,0.4835717293676135,0.7226613692416989
-3.954,0.4195506802215176,0.5849050699745222
-3.9535,0.3555296310754218,0.5425185163538525
-3.953,0.07810508477567314,0.9875773293708847
-3.9525,-0.2633405106701714,1.538602526439591
-3.952,-0.7648387289812555,1.082947075017392
-3.9515,-1.906547438753298,-0.2416327256285375
-3.951,-2.386705307349017,0.1186529801471552
-3.9505,-2.130621110764634,0.4047622170866759
-3.95,-1.373038695869166,0.2987958330350016
-3.9495,-0.5194247072545548,0.2246193641988295
-3.949,0.05676473506030786,0.1610395337678249
-3.9485,0.3128489316446912,0.07626642652648545
-3.948,0.4195506802215176,0.07626642652648545
-3.9475,0.4408910299368829,0.1504428953626575
-3.947,0.4195506802215176,0.2246193641988295
-3.9465,0.3768699807907871,0.2776025562246667
-3.946,0.3341892813600565,0.309392471440169
-3.9455,0.3235191065023739,0.2987958330350016
-3.945,0.04609456020262521,-0.008506680714854012
-3.9445,-0.7755089038389382,-0.7502713690765743
-3.944,-1.533091318734406,-1.42845622700729
-3.9435,-2.087940411333903,-1.905304955239825
-3.943,-1.586442193022819,-2.127834361748341
-3.9425,-0.4874141826815069,-2.127834361748341
-3.942,0.4302208550792003,-1.937094870455327
-3.9415,0.942389248247967,-1.502632695843462
-3.941,1.081101521397841,-0.6972881770507372
-3.9405,0.9957401225363802,0.05507314971615059
-3.94,0.8356874996711408,0.5849050699745222
-3.9395,0.7609962756673623,0.9345941373450475
-3.939,0.8143471499557753,1.104140351827727
-3.9385,0.7289857510943143,0.9769806909657173
-3.938,0.6009436528021226,0.7226613692416989
-3.9375,0.4942419042252961,0.4683420475176805
-3.937,0.4195506802215176,0.2670059178194992
-3.9365,0.142126133921769,0.4895353243280153
-3.936,-0.423393133535411,0.92399749893988
-3.9355,-0.8608703027003992,0.457745409112513
-3.935,-1.212986073003927,-0.2204394488182027
-3.9345,-1.074273799854052,-0.2734226408440398
-3.934,-0.6154562809736985,-0.1780528951975329
-3.9335,-0.754168554123573,-0.6549016234300674
-3.933,-0.6367966306890638,-0.7502713690765743
-3.9325,-0.2953510352432193,-0.5065486857577234
-3.932,-0.08194753808956648,-0.3158091944647096
-3.9315,0.1527963087794516,-0.06148987274069118
-3.931,0.3555296310754218,0.1928294489833272
-3.9305,0.3875401556484697,0.2881991946298341
-3.93,0.3661998059331045,0.3199891098453364
-3.9295,0.3448594562177392,0.3305857482505039
-3.929,0.3235191065023739,0.309392471440169
-3.9285,0.2701682322139607,0.1610395337678249
-3.928,-0.1673089369510276,-0.5065486857577234
-3.9275,-0.807519428411986,-1.375473034981453
-3.927,-1.170305373573196,-2.011271339291499
-3.9265,-0.9675720512772257,-2.413943598687861
-3.926,-0.1032878878049318,-2.62587636679121
-3.9255,0.6969752265212663,-2.594086451575707
-3.925,1.15579274540162,-2.286783937825852
-3.9245,1.262494493978446,-1.640388995110639
-3.924,1.15579274540162,-0.8032545611024114
-3.9235,0.9530594231056497,-0.06148987274069118
-3.923,0.79300680024041,0.5319218779486851
-3.9225,0.825017324813458,1.00877060618122
-3.922,0.7609962756673623,1.093543713422559
-3.9215,0.6329541773751706,0.9451907757502149
-3.921,0.5155822539406614,0.7226613692416989
-3.9205,0.4302208550792003,0.5213252395435176
-3.92,0.3235191065023739,0.5425185163538525
-3.9195,-0.2846808603855366,1.061753798207057
-3.919,-0.9782422261349084,1.528005888034424
-3.9185,-1.501080794161358,1.273686566310405
-3.918,-1.917217613610981,1.093543713422559
-3.9175,-1.586442193022819,0.9663840525605498
-3.917,-0.8822106524157645,0.55311515475902
-3.9165,-0.274010685527854,0.1716361721729923
-3.916,0.1207857842064037,-0.07208651114585861
-3.9155,-0.3487019095316325,-0.8350444763179138
-3.915,-0.3380317346739499,-0.8562377531282487
-3.9145,-0.1673089369510276,-0.5913217929990628
-3.914,-0.03926683865883591,-0.2946159176543747
-3.9135,0.142126133921769,0.05507314971615059
-3.913,0.2808384070716433,0.2987958330350016
-3.9125,0.291508581929326,0.4153588554918433
-3.912,0.2594980573562781,0.4471487707073456
-3.9115,-0.2846808603855366,-0.05089323433552374
-3.911,-1.127624674142465,-0.8668343915334161
-3.9105,-1.714484291315011,-1.481439419033127
-3.91,-1.991908837614759,-1.831128486403653
-3.9095,-1.30901764672307,-2.000674700886331
-3.909,-0.2099896363817582,-1.979481424075996
-3.9085,0.6436243522328531,-1.778145294377815
-3.908,1.059761171682476,-1.301296566145281
-3.9075,1.102441871113207,-0.4959520473525559
-3.907,0.974399772821015,0.2670059178194992
-3.9065,0.79300680024041,0.775644561267536
-3.906,0.8143471499557753,1.167720182258731
-3.9055,0.8676980242441885,1.263089927905238
-3.905,0.7609962756673623,1.00877060618122
-3.9045,0.6222840025174878,0.6696781772158616
-3.904,0.5049120790829789,0.3411823866556712
-3.9035,0.4195506802215176,0.2034260873884947
-3.903,0.01408403562957729,0.6060983467848571
-3.9025,-0.7328282044082075,1.199510097474233
-3.902,-1.405049220442214,1.29487984312074
-3.9015,-1.778505340461106,0.8392243916985406
-3.901,-1.394379045584531,0.4789386859228479
-3.9005,-0.7434983792658902,0.09745970333682032
-3.9,-0.1886492866663929,-0.1462629799820306
-3.8995,0.1848068333524996,-0.252229364033705
-3.899,0.3768699807907871,-0.2310360872233701
-3.8985,0.4408910299368829,-0.1462629799820306
-3.898,0.4515612047945656,-0.008506680714854012
-3.8975,0.4195506802215176,0.1504428953626575
-3.897,-0.2953510352432193,-0.3899856633008816
-3.8965,-0.4554036581084589,-0.4111789401112165
-3.896,-0.3060212101009019,-0.1250697031716958
-3.8955,-0.1779791118087102,0.07626642652648545
-3.895,-0.2206598112394408,0.01268659609548085
-3.8945,-0.7861790786966207,-0.5595318777835605
-3.894,-1.330357996438436,-1.195330182093607
-3.8935,-1.789175515318789,-1.703968825541643
-3.893,-1.661133417026597,-2.011271339291499
-3.8925,-0.7328282044082075,-2.032464616101834
-3.892,0.1954770082101822,-1.831128486403653
-3.8915,0.79300680024041,-1.38606967338662
-3.891,0.9957401225363802,-0.6231117082145651
-3.8905,0.974399772821015,0.2352160026039969
-3.89,0.8463576745288233,0.8286277532933731
-3.8895,0.7823366253827275,1.146526905448396
-3.889,0.8356874996711408,1.25249328950007
-3.8885,0.7503261008096795,1.029963882991555
-3.888,0.6222840025174878,0.7226613692416989
-3.8875,0.5155822539406614,0.4153588554918433
-3.887,0.4515612047945656,0.1822328105781598
-3.8865,0.2594980573562781,0.4365521323021782
-3.886,-0.3060212101009019,0.9134008605347127
