Class_9_Think_Grab_one_hand_movement/Class_9_Think_Right_hand_Grab_SH_9.csv

#Digilent WaveForms Oscilloscope Acquisition
#Device Name: EExplorer
#Serial Number: SN:210151A2B84A
#Date Time: 2021-01-20 10:41:40.411
#Sample rate: 2000Hz
#Samples: 16384
#Trigger: Source: Channel 1 Type: Edge Condition: Rising Level: 0 V Hyst.: Auto HoldOff: 0 s
#Channel 1: Range: 1 V/div Offset: 0 V Attenuation: 1 X
#Channel 2: Range: 1 V/div Offset: 0 V Attenuation: 1 X
#Power Supplies: ON
#Fixed Supply: ON
#Voltage: 3.3 V Readback: 3.321 V
#Positive Supply: ON
#Voltage: 3.7 V Readback: 3.716 V
#Current: 40 mA Readback: 18 mA
#Negative Supply: ON
#Voltage: -3.7 V Readback: -3.703 V
#Current: -40 mA Readback: -7 mA
#Reference 1: ON
#Voltage: 0 V
#Reference 2: ON
#Voltage: 0 V

Time (s),Channel 1 (V),Channel 2 (V)
-4.096,-0.3166913849585846,-0.7290780922662394
-4.0955,-0.3273615598162575,-0.4005823017063478
-4.095,-0.145968587235478,0.09745970333715763
-4.0945,0.05676473506030786,0.4683420475176805
-4.094,0.2168173579254019,0.6060983467847318
-4.0935,0.3021787567870377,0.5637117931640429
-4.093,0.3341892813600565,0.4047622170866759
-4.0925,0.3448594562177295,0.1716361721732044
-4.092,0.3341892813600371,-0.07208651114603208
-4.0915,0.3128489316446912,-0.2628260024388724
-4.091,0.291508581929326,-0.3899856633008816
-4.0905,0.2594980573562296,-0.453565493731838
-4.09,0.2061471830678648,-0.400582301706049
-4.0895,-0.1886492866663929,-0.1250697031716958
-4.089,-0.8288597781267691,0.4153588554913519
-4.0885,-1.159635198715513,0.5001319627331828
-4.088,-1.543761493592088,0.383568940276341
-4.0875,-1.522421143876742,0.1928294489835007
-4.087,-1.052933450138192,-0.1780528951978317
-4.0865,-0.5087545323968721,-0.5065486857577234
-4.086,-0.04993701351693586,-0.7078848154557215
-4.0855,0.2381577076410486,-0.7926579226971862
-4.085,0.3875401556484697,-0.7290780922662394
-4.0845,0.5155822539405449,-0.601918431404346
-4.084,0.8250173248134871,-0.6019184314039797
-4.0835,0.857027849386506,-0.326405832869877
-4.083,0.7289857510943143,0.07626642652648545
-4.0825,0.5796033030866409,0.46834204751796
-4.082,0.4515612047945656,0.775644561267536
-4.0815,0.5155822539406614,0.9451907757502149
-4.081,0.9743997728205978,1.199510097474002
-4.0805,0.6329541773751706,1.157123543853563
-4.08,-0.1459685872356623,0.2670059178194992
-4.0795,-0.7114878546923279,-0.654901623429229
-4.079,-0.7861790786963491,-1.036380606015912
-4.0785,-0.4874141826815069,-0.8350444763179138
-4.078,-0.1459685872359729,-0.4853554089477065
-4.0775,0.1101156093488666,-0.1674562567921727
-4.077,0.2701682322139607,0.04447651131098315
-4.0765,0.3341892813599983,0.1610395337677189
-4.076,0.3555296310754218,0.2140227257936717
-4.0755,0.3555296310754218,0.2246193641988295
-4.075,0.3341892813600565,0.2564092794143318
-4.0745,0.3021787567869795,0.3305857482506099
-4.074,0.2701682322139607,0.4471487707073456
-4.0735,0.2061471830678648,0.5637117931641874
-4.073,-0.316691384958109,0.8710143069137635
-4.0725,-1.042263275281004,1.29487984312074
-4.072,-1.661133417026597,1.633972272086098
-4.0715,-2.045259711902823,1.686955464111887
-4.071,-1.714484291314399,1.252493289499502
-4.0705,-1.042263275281004,0.627291623595192
-4.07,-0.402052783820628,0.08686306493214435
-4.0695,0.03542438534518519,-0.2204394488183183
-4.069,0.3021787567870086,-0.3475991096802118
-4.0685,0.4195506802215176,-0.400582301706049
-4.068,0.4729015545100861,-0.4111789401112647
-4.0675,0.6436243522328531,-0.4641621321370536
-4.067,0.6863050516635838,-0.4111789401112165
-4.0665,0.6009436528020352,-0.2204394488180003
-4.066,0.5049120790829789,0.002089957690313421
-4.0655,0.4302208550792003,0.2140227257936621
-4.065,0.4729015545098921,0.2564092794142933
-4.0645,0.9957401225363802,-0.252229364033705
-4.064,1.145122570543937,-0.9304142219644207
-4.0635,0.4729015545105423,-1.449649503817153
-4.063,-0.4127229586780777,-1.714565463946531
-4.0625,-0.7968492535543035,-1.407262950196955
-4.062,-0.6261264558315365,-0.6549016234307516
-4.0615,-0.2846808603852649,0.01268659609585672
-4.061,0.01408403562957729,0.4259554938970107
-4.0605,0.2061471830678648,0.5849050699745222
-4.06,0.31284893164473,0.5637117931640717
-4.0595,0.3555296310754218,0.4365521323021782
-4.059,0.3555296310754218,0.2458126410091644
-4.0585,0.334189281360076,0.06566978812148186
-4.058,0.3021787567870086,-0.06148987274069118
-4.0575,0.291508581929326,-0.1780528951975329
-4.057,0.280838407071653,-0.3264058328697421
-4.0565,0.142126133921769,-0.2098428104130352
-4.056,-0.391382608962363,0.2776025562246667
-4.0555,-0.8288597781269536,0.1504428953627731
-4.055,-1.042263275281062,-0.5595318777836472
-4.0545,-1.1062843244271,-0.6549016234300674
-4.054,-0.7861790786969118,-0.570128516188805
-4.0535,-0.3593720843890046,-0.4959520473524981
-4.053,-0.01792648894347063,-0.4323722169215513
-4.0525,0.1954770082101822,-0.400582301706049
-4.052,0.3235191065024321,-0.3581957480853311
-4.0515,0.3875401556484697,-0.3052125560595421
-4.051,0.4302208550792003,-0.2946159176543747
-4.0505,0.4408910299368732,-0.2628260024389013
-4.05,0.4195506802215176,-0.1886495336027004
-4.0495,0.3875401556484697,-0.07208651114585861
-4.049,0.3661998059331239,0.07626642652635053
-4.0485,0.366199805933318,0.2246193641990319
-4.048,0.6009436528021226,0.4471487707073456
-4.0475,0.9210488985323106,0.8498210301033418
-4.047,0.2701682322131261,0.4259554938962397
-4.0465,-0.6474668055467465,-0.4217755785163839
-4.046,-1.298347471864796,-1.16354026687743
-4.0455,-1.159635198715086,-1.195330182093231
-4.045,-0.690147504977477,-0.7820612842920766
-4.0445,-0.2206598112394408,-0.326405832869877
-4.044,0.110115609348886,0.02328323450085068
-4.0435,0.291508581929326,0.2458126410091644
-4.043,0.3555296310754218,0.3517790250608387
-4.0425,0.3768699807907677,0.3941655786814698
-4.042,0.3555296310754218,0.4047622170866759
-4.0415,0.3235191065023739,0.4365521323021782
-4.041,0.2915085819293551,0.500131962733125
-4.0405,0.2594980573561713,0.6060983467849823
-4.04,0.142126133921769,0.7438546460520338
-4.0395,-0.4874141826809343,1.061753798206768
-4.039,-1.298347471865737,1.432636142387869
-4.0385,-1.682473766741963,1.37965295036208
-4.038,-1.565101843307561,0.743854646052612
-4.0375,-1.031593100422807,0.1186529801468082
-4.037,-0.4660738329661415,-0.2628260024388724
-4.0365,-0.03926683865883591,-0.4217755785163839
-4.036,0.2274875327833563,-0.4747587705422018
-4.0355,0.3661998059331045,-0.4535654937318862
-4.035,0.4302208550792003,-0.4217755785163839
-4.0345,0.4942419042252379,-0.4217755785163839
-4.034,0.6969752265212663,-0.5595318777835605
-4.0335,0.707645401378949,-0.4641621321370536
-4.033,0.6116138276598925,-0.2310360872235821
-4.0325,0.4942419042252282,0.01268659609568324
-4.032,0.4195506802215176,0.2352160026039969
-4.0315,0.515582253940574,0.2140227257936814
-4.031,1.134452395686556,-0.3899856633015177
-4.0305,1.465227816274416,-1.089363798041932
-4.03,0.7823366253833486,-1.598002441489506
-4.0295,0.05676473506012347,-1.566212526273879
-4.029,-0.1459685872356623,-0.9198175835592532
-4.0285,-0.09261771294724913,-0.2310360872233701
-4.028,0.04609456020274167,0.2564092794145438
-4.0275,0.1741366584948169,0.4895353243280153
-4.027,0.2594980573562781,0.5319218779486851
-4.0265,0.3021787567869698,0.4471487707074227
-4.026,0.3235191065023739,0.2987958330350016
-4.0255,0.3235191065023739,0.13984625695749
-4.025,0.302178756787028,0.00208995769043871
-4.0245,0.2808384070716239,-0.09327978795621275
-4.024,0.2594980573562781,-0.1144730647665284
-4.0235,0.2168173579255863,-0.07208651114589716
-4.023,-0.1459685872363223,0.1928294489838187
-4.0225,-0.8715404775580819,0.7332580076468663
-4.022,-1.266336947291981,0.7226613692417085
-4.0215,-1.469070269588106,0.2140227257933922
-4.021,-1.244996597576974,-0.08268314955102604
-4.0205,-0.7648387289812555,-0.3687923864905467
-4.02,-0.3060212101005914,-0.4959520473525945
-4.0195,0.03542438534494258,-0.5383386009732256
-4.019,0.2488278824985954,-0.5383386009732256
-4.0185,0.3555296310753248,-0.5065486857577522
-4.018,0.3982103305061524,-0.4641621321370536
-4.0175,0.6649647019482183,-0.6337083466197325
-4.017,0.8463576745286583,-0.707884815455837
-4.0165,0.7609962756672264,-0.4429688553264007
-4.016,0.6116138276598051,-0.09327978795619347
-4.0155,0.4942419042254029,0.2246193641985404
-4.015,0.4729015545099114,0.341182386655305
-4.0145,0.4515612047945656,-0.06148987274069118
-4.014,-0.0606071883737353,-0.697288177050159
-4.0135,-0.7861790786971933,-1.23771673571444
-4.013,-1.415719395299897,-1.417859588602123
-4.0125,-1.415719395299897,-1.163540266878104
-4.012,-0.9142211769883272,-0.5383386009727245
-4.0115,-0.3807124341046804,0.01268659609548085
-4.011,0.02475421048725994,0.3517790250608387
-4.0105,0.2488278824983916,0.4577454091124167
-4.01,0.3555296310754218,0.4153588554918433
-4.0095,0.3768699807907871,0.2881991946298341
-4.009,0.3661998059331142,0.1186529801473094
-4.0085,0.3341892813600275,-0.04029659593044305
-4.008,0.3021787567870086,-0.1356663415768632
-4.0075,0.2701682322139898,-0.2098428104129678
-4.007,0.2381577076406702,-0.1992461720076654
-4.0065,-0.02859666380115328,0.02328323450064829
-4.006,-0.7114878546928423,0.5743084315693548
-4.0055,-1.191645723288697,1.029963882991468
-4.005,-1.341028171296118,0.9345941373450475
-4.0045,-1.351698346153801,0.6590815388106942
-4.004,-1.095614149569049,0.2564092794139656
-4.0035,-0.690147504977477,-0.1462629799820306
-4.003,-0.2526703358124887,-0.4217755785163839
-4.0025,0.08877525963304528,-0.5171453241628041
-4.002,0.2701682322139607,-0.4641621321370536
-4.0015,0.3555296310754218,-0.3687923864905467
-4.001,0.5582629533712077,-0.2946159176544421
-4.0005,0.9957401225364093,-0.4959520473524114
-4,1.027750647109428,-0.3370024712750445
-3.9995,0.8463576745288233,0.02328323450064829
-3.999,0.6329541773751706,0.3729723018711736
-3.9985,0.4729015545099309,0.6590815388106942
-3.998,0.6436243522328531,0.6590815388106942
-3.9975,0.8890383739595538,0.4683420475176805
-3.997,0.2061471830678648,-0.1886495336027004
-3.9965,-0.6794773301197943,-0.8562377531282487
-3.996,-1.202315898146244,-1.163540266878104
-3.9955,-0.9995825758502737,-0.792657922697244
-3.995,-0.5514352318276028,-0.252229364033705
-3.9945,-0.1352984123779797,0.1504428953626575
-3.994,0.142126133921769,0.3305857482505039
-3.9935,0.291508581929326,0.3411823866556712
-3.993,0.3555296310754218,0.2246193641988295
-3.9925,0.3661998059331045,0.05507314971615059
-3.992,0.3448594562177392,-0.1356663415768632
-3.9915,0.3128489316446912,-0.2628260024388724
-3.991,0.2808384070716433,-0.3370024712750445
-3.9905,0.2488278824985954,-0.3475991096802118
-3.99,0.1954770082101822,-0.1992461720078678
-3.9895,-0.2313299860971235,0.2246193641988295
-3.989,-1.031593100423322,0.7650479228623686
-3.9885,-1.607782542738184,0.7120647308365314
-3.988,-1.735824641030376,0.4259554938970107
-3.9875,-1.30901764672307,0.1080563417419877
-3.987,-0.7008176798351597,-0.1568596183871981
-3.9865,-0.1886492866663929,-0.3581957480853793
-3.986,0.1634664836371343,-0.4429688553267188
-3.9855,0.3875401556484697,-0.474758770542221
-3.985,0.4622313796522482,-0.4111789401112165
-3.9845,0.5155822539406614,-0.326405832869877
-3.984,0.7396559259519968,-0.4641621321370536
-3.9835,0.7609962756673623,-0.3370024712750445
-3.983,0.6436243522328531,-0.01910331912002144
-3.9825,0.5155822539406614,0.3199891098453364
-3.982,0.4302208550792003,0.5743084315693548
-3.9815,0.5049120790829789,0.5743084315693548
-3.981,1.059761171682476,-0.008506680714854012
-3.9805,1.166462920259302,-0.7078848154559045
-3.98,0.291508581929326,-1.248313374119443
-3.9795,-0.5941159312583333,-1.449649503817625
-3.979,-0.7434983792658902,-0.9622041371799229
-3.9785,-0.4980843575391895,-0.2734226408440398
-3.978,-0.1673089369510276,0.2246193641988295
-3.9775,0.08877525963335578,0.4789386859228479
-3.977,0.2381577076409128,0.5001319627331828
-3.9765,0.3128489316446912,0.383568940276341
-3.976,0.3448594562177392,0.1822328105781598
-3.9755,0.3341892813600565,-0.02969995752518888
-3.975,0.3235191065023739,-0.2204394488182027
-3.9745,0.291508581929326,-0.326405832869877
-3.974,0.2381577076409128,-0.326405832869877
-3.9735,0.1207857842064037,-0.1780528951975329
-3.973,-0.3487019095316325,0.1610395337678249
-3.9725,-1.031593100423322,0.6484849004055269
-3.972,-1.394379045584531,0.92399749893988
-3.9715,-1.362368521011484,0.7332580076468663
-3.971,-0.9569018764195432,0.2246193641988295
-3.9705,-0.5087545323968721,-0.2310360872233701
-3.97,-0.08194753808956648,-0.5489352393783931
-3.9695,0.2168173579255475,-0.6549016234300674
-3.969,0.3875401556484697,-0.6337083466197325
-3.9685,0.4302208550792003,-0.5171453241628908
-3.968,0.4408910299368829,-0.3475991096802118
-3.9675,0.6756348768059011,-0.400582301706049
-3.967,0.825017324813458,-0.3793890248957141
-3.9665,0.7289857510943143,-0.06148987274069118
-3.966,0.5902734779444399,0.3199891098453364
-3.9655,0.4622313796522482,0.6484849004055269
-3.965,0.3982103305061524,0.8710143069140429
-3.9645,0.7289857510943143,1.061753798207057
-3.964,0.974399772821015,1.220703374284568
-3.9635,0.2594980573562781,0.4259554938970107
-3.963,-0.7648387289812555,-0.7714646458869092
-3.9625,-1.116954499284783,-1.301296566145281
-3.962,-0.839529952985034,-1.078767159636765
-3.9615,-0.4020527838200457,-0.6443049850249
-3.961,-0.03926683865883591,-0.252229364033705
-3.9605,0.1848068333524996,-0.008506680714854012
-3.96,0.3021787567870086,0.1292496185523226
-3.9595,0.3448594562177392,0.1610395337678249
-3.959,0.3448594562177392,0.1504428953626575
-3.9585,0.3235191065023739,0.13984625695749
-3.958,0.3021787567870086,0.1610395337678249
-3.9575,0.2701682322139607,0.2352160026039969
-3.957,0.2381577076409128,0.3623756634660061
-3.9565,0.1101156093487211,0.5955017083796896
-3.956,-0.5194247072545548,1.019367244586387
-3.9555,-1.26633694729234,1.453829419198252
-3.955,-1.682473766741963,1.739938656137773
-3.9545,-1.906547438753298,1.835308401784279
-3.954,-1.607782542738184,1.411442865577582
-3.9535,-1.020922925565639,0.7332580076468663
-3.953,-0.4554036581084589,0.1716361721729923
-3.9525,-0.01792648894347063,-0.1356663415768632
-3.952,0.2701682322139607,-0.3052125560595421
-3.9515,0.408880505363835,-0.3370024712750445
-3.951,0.5582629533713921,-0.3581957480853793
-3.9505,0.8143471499557753,-0.5277419625680583
-3.95,0.79300680024041,-0.4217755785163839
-3.9495,0.6542945270905358,-0.1886495336027004
-3.949,0.5155822539406614,0.05507314971615059
-3.9485,0.4195506802215176,0.2670059178194992
-3.948,0.408880505363835,0.04447651131098315
-3.9475,-0.1886492866663929,-0.6231117082145651
-3.947,-0.7008176798351597,-1.142346990067769
-3.9465,-1.095614149569417,-1.47084278062796
-3.946,-1.351698346153801,-1.534422611058964
-3.9455,-1.020922925565639,-0.9939940523954253
-3.945,-0.5194247072545548,-0.3052125560595421
-3.9445,-0.09261771294724913,0.2140227257936621
-3.944,0.1741366584948169,0.4683420475176805
-3.9435,0.3128489316446912,0.5319218779486851
-3.943,0.3661998059331045,0.4471487707073456
-3.9425,0.3661998059331045,0.2987958330350016
-3.942,0.3448594562177392,0.1292496185523226
-3.9415,0.3128489316446912,-0.01910331912002144
-3.941,0.2808384070716433,-0.1144730647665284
-3.9405,0.2488278824985954,-0.1568596183871981
-3.94,0.2168173579255475,-0.1250697031716958
-3.9395,-0.007256314085787988,0.1928294489833272
-3.939,-0.5834457564006506,0.7544512844572011
-3.9385,-1.020922925565639,1.093543713422559
-3.938,-1.26633694729234,0.9981739677760521
-3.9375,-1.234326422719292,0.6696781772158616
-3.937,-0.7861790786966207,0.1716361721729923
-3.9365,-0.2846808603855366,-0.2628260024388724
-3.936,0.0674349099179905,-0.5277419625680583
-3.9355,0.2808384070716433,-0.6125150698093976
-3.935,0.3768699807907871,-0.5913217929990628
-3.9345,0.4195506802215176,-0.4959520473525559
-3.934,0.4729015545099309,-0.3793890248957141
-3.9335,0.4515612047945656,-0.1780528951975329
-3.933,0.4195506802215176,0.05507314971615059
-3.9325,0.3768699807907871,0.2776025562246667
-3.932,0.3555296310754218,0.4895353243280153
-3.9315,0.5049120790829789,0.4365521323021782
-3.931,1.113112045970889,-0.1674562567923655
-3.9305,1.401206767128321,-0.8456411147230812
-3.93,0.942389248247967,-1.258910012524611
-3.9295,0.2061471830678648,-1.375473034981453
-3.929,-0.1779791118087102,-0.9304142219644207
-3.9285,-0.1779791118087102,-0.2310360872233701
-3.928,-0.03926683865883591,0.2987958330350016
-3.9275,0.1101156093487211,0.5849050699745222
-3.927,0.2168173579255475,0.6378882620003594
-3.9265,0.2808384070716433,0.5425185163538525
-3.926,0.3128489316446912,0.3623756634660061
-3.9255,0.3128489316446912,0.13984625695749
-3.925,0.3021787567870086,-0.05089323433552374
-3.9245,0.2808384070716433,-0.1780528951975329
-3.924,0.2488278824985954,-0.252229364033705
-3.9235,0.1527963087794516,-0.1250697031716958
-3.923,-0.3593720843893152,0.3729723018711736
-3.9225,-0.690147504977477,0.9028042221295453
-3.922,-0.9889124009925911,1.114736990232894
-3.9215,-1.180975548430879,0.7332580076468663
-3.921,-1.277007122150022,0.4471487707073456
-3.9205,-0.9889124009925911,0.05507314971615059
-3.92,-0.4874141826815069,-0.3475991096802118
-3.9195,-0.07127736323188383,-0.6337083466197325
-3.919,0.2168173579255475,-0.7396747306714069
-3.9185,0.3555296310754218,-0.718481453861072
-3.918,0.408880505363835,-0.5913217929990628
-3.9175,0.6436243522328531,-0.5807251545938954
-3.917,0.825017324813458,-0.5065486857577234
-3.9165,0.7503261008096795,-0.1674562567923655
-3.916,0.6009436528021226,0.2352160026039969
-3.9155,0.4622313796522482,0.5743084315693548
-3.915,0.408880505363835,0.8392243916985406
-3.9145,0.7183155762366316,1.167720182258731
-3.914,0.8036769750980928,1.263089927905238
-3.9135,0.02475421048725994,0.3517790250608387
-3.913,-0.8181896032696687,-0.6443049850249
-3.9125,-1.180975548430879,-1.216523458903942
-3.912,-0.9035510021311299,-1.046977244421262
-3.9115,-0.4554036581084589,-0.6231117082145651
-3.911,-0.07127736323188383,-0.2204394488182027
-3.9105,0.1741366584948169,0.04447651131098315
-3.91,0.3021787567870086,0.1928294489833272
-3.9095,0.3448594562177392,0.2458126410091644
-3.909,0.3448594562177392,0.2458126410091644
-3.9085,0.3235191065023739,0.2352160026039969
-3.908,0.3021787567870086,0.2670059178194992
-3.9075,0.2701682322139607,0.3411823866556712
-3.907,0.2381577076409128,0.4683420475176805
-3.9065,0.0674349099179905,0.6696781772158616
-3.906,-0.6047861061160158,1.040560521396722
-3.9055,-1.373038695869166,1.464426057603419
-3.905,-1.853196564464885,1.718745379327438
-3.9045,-1.767835165603424,1.358459673551745
-3.904,-1.223656247861609,0.7438546460520338
-3.9035,-0.5941159312583333,0.1928294489833272
-3.903,-0.09261771294724913,-0.2734226408440398
-3.9025,0.2168173579255475,-0.5383386009732256
-3.902,0.3661998059331045,-0.6337083466197325
-3.9015,0.408880505363835,-0.5807251545938954
-3.901,0.5262524287983441,-0.570128516188728
-3.9005,0.79300680024041,-0.7078848154559045
-3.9,0.79300680024041,-0.5277419625680583
-3.8995,0.6542945270905358,-0.2098428104130352
-3.899,0.5155822539406614,0.09745970333682032
-3.8985,0.4195506802215176,0.3411823866556712
-3.898,0.5796033030867573,0.1610395337678249
-3.8975,1.006410297394063,-0.4959520473525559
-3.897,0.6116138276598051,-1.152943628472937
-3.8965,-0.4340633083930936,-1.608599079895136
-3.896,-1.020922925565639,-1.566212526274467
-3.8955,-0.8822106524157645,-0.9092209451540858
-3.895,-0.4874141826815069,-0.2204394488182027
-3.8945,-0.1139580626626144,0.2564092794143318
-3.894,0.142126133921769,0.4683420475176805
-3.8935,0.2808384070716433,0.4789386859228479
-3.893,0.3341892813600565,0.3729723018711736
-3.8925,0.3448594562177392,0.2034260873884947
-3.892,0.3341892813600565,0.02328323450064829
-3.8915,0.3021787567870086,-0.1250697031716958
-3.891,0.2701682322139607,-0.2098428104130352
-3.8905,0.2488278824985954,-0.2628260024388724
-3.89,0.1527963087794516,-0.2310360872233701
-3.8895,-0.4020527838200457,0.2246193641988295
-3.889,-0.9889124009925911,0.7438546460520338
-3.8885,-1.202315898146244,0.6378882620003594
-3.888,-1.426389570157579,0.2458126410091644
-3.8875,-1.30901764672307,-0.008506680714854012
-3.887,-0.8822106524157645,-0.3158091944647096
