Class_9_Think_Grab_one_hand_movement/Class_9_Think_Right_hand_Grab_Turki_12.csv

#Digilent WaveForms Oscilloscope Acquisition
#Device Name: EExplorer
#Serial Number: SN:210151A2B84A
#Date Time: 2021-02-04 11:26:25.228
#Sample rate: 2000Hz
#Samples: 16384
#Trigger: Source: Channel 1 Type: Edge Condition: Rising Level: 0 V Hyst.: Auto HoldOff: 0 s
#Channel 1: Range: 1 V/div Offset: 0 V Attenuation: 1 X
#Channel 2: Range: 1 V/div Offset: 0 V Attenuation: 1 X
#Power Supplies: ON
#Fixed Supply: ON
#Voltage: 3.3 V Readback: 3.325 V
#Positive Supply: ON
#Voltage: 3.7 V Readback: 3.717 V
#Current: 40 mA Readback: 15 mA
#Negative Supply: ON
#Voltage: -3.7 V Readback: -3.357 V
#Current: -40 mA Readback: -8 mA
#Reference 1: ON
#Voltage: 0 V
#Reference 2: ON
#Voltage: 0 V

Time (s),Channel 1 (V),Channel 2 (V)
-4.096,-0.8181896032696687,-1.534422611058964
-4.0955,-0.42339313353577,-1.205926820499073
-4.095,-0.02859666380092037,-0.8244478379125825
-4.0945,0.2274875327832301,-0.6443049850249
-4.094,0.3555296310753053,-0.6337083466197422
-4.0935,0.38754015564846,-0.6654982618352445
-4.093,0.3768699807907871,-0.6760949002404023
-4.0925,0.5049120790828624,-0.739674730671349
-4.092,0.7289857510942561,-0.8138511995074537
-4.0915,0.6649647019482183,-0.6760949002404023
-4.091,0.5049120790829789,-0.4641621321370536
-4.0905,0.3555296310753345,-0.2522293640335315
-4.09,0.2594980573562781,-0.06148987274069118
-4.0895,0.3448594562177392,0.2458126410091644
-4.089,0.6329541773749086,0.5001319627329515
-4.0885,0.2701682322139607,-0.01910331912002144
-4.088,-0.3380317346739499,-0.5913217929990628
-4.0875,-1.106284324426401,-1.03638060601569
-4.087,-1.501080794161096,-1.174136905282771
-4.0865,-1.212986073003927,-0.6231117082145651
-4.086,-0.7114878546932983,0.1186529801464805
-4.0855,-0.2846808603852746,0.7438546460524192
-4.085,0.00341386077189465,1.167720182258731
-4.0845,0.1421261339216428,1.411442865577361
-4.084,0.1954770082101822,1.517409249629266
-4.0835,0.1954770082101822,1.528005888034424
-4.083,0.1634664836371343,1.485619334413754
-4.0825,0.1207857842063746,1.400846227172309
-4.082,0.08877525963335578,1.284283204715573
-4.0815,0.02475421048725994,1.061753798207057
-4.081,-0.4447334832503493,0.3623756634666422
-4.0805,-1.074273799854052,-0.5277419625680583
-4.08,-1.479740444445993,-1.258910012524611
-4.0795,-1.298347471865553,-1.449649503817452
-4.079,-0.6794773301192508,-1.142346990067471
-4.0785,-0.08194753808956648,-0.8138511995075789
-4.078,0.2808384070713134,-0.6760949002405277
-4.0775,0.4088805053638447,-0.6337083466198289
-4.077,0.4195506802215176,-0.7396747306714069
-4.0765,0.3768699807908259,-0.8350444763178271
-4.076,0.3661998059332695,-0.8986243067490051
-4.0755,0.5475927785137094,-0.9939940523954253
-4.075,0.5475927785137094,-0.8456411147230812
-4.0745,0.4408910299367762,-0.5701285161884677
-4.074,0.3235191065023739,-0.2840192792492073
-4.0735,0.2701682322139607,-0.02969995752518888
-4.073,0.1848068333525772,0.0232832345006001
-4.0725,-0.3700422592469978,-0.4217755785163839
-4.072,-1.138294849000148,-0.9622041371799229
-4.0715,-1.895877263894927,-1.343683119765604
-4.071,-2.41871583192188,-1.492036057438034
-4.0705,-2.215982509626095,-1.205926820498774
-4.07,-1.341028171296914,-0.4005823017067814
-4.0695,-0.6367966306886174,0.4047622170872155
-4.069,-0.1459685872356623,0.9981739677760521
-4.0685,0.1101156093487211,1.33726639674141
-4.068,0.2274875327832398,1.46442605760341
-4.0675,0.2381577076409128,1.453829419198252
-4.067,0.2168173579255475,1.369056311956912
-4.0665,0.1741366584947684,1.231300012689591
-4.066,0.1207857842064037,1.072350436612224
-4.0655,0.09944543449103843,0.8922075837243778
-4.065,0.09944543449103843,0.7014680924315375
-4.0645,-0.07127736323188383,0.5743084315693548
-4.064,-0.4020527838200457,0.1504428953626575
-4.0635,-0.5621054066851398,-0.6019184314035462
-4.063,-0.8608703027002439,-1.258910012524727
-4.0625,-0.690147504977477,-1.38606967338662
-4.062,-0.2099896363821949,-0.9833974139906241
-4.0615,0.1741366584949722,-0.5913217929989858
-4.061,0.3448594562177392,-0.5065486857577234
-4.0605,0.3875401556484697,-0.5913217929990628
-4.06,0.366199805933085,-0.6337083466198096
-4.0595,0.3448594562177392,-0.718481453861072
-4.059,0.3875401556484697,-0.792657922697244
-4.0585,0.4408910299368344,-0.6760949002405083
-4.058,0.3982103305061524,-0.4959520473525559
-4.0575,0.3341892813600565,-0.2946159176543747
-4.057,0.2808384070716918,-0.0826831495512188
-4.0565,0.2488278824985954,0.07626642652648545
-4.056,-0.03926683865883591,-0.1568596183871981
-4.0555,-0.679477330119212,-0.7184814538605612
-4.055,-1.25566677243521,-1.184733543688651
-4.0545,-1.863866739322568,-1.417859588602123
-4.054,-2.269333383914139,-1.343683119766018
-4.0535,-1.682473766741283,-0.6866915386447698
-4.053,-0.9355615267041777,0.1928294489833272
-4.0525,-0.3593720843893152,0.92399749893988
-4.052,0.003413860772059626,1.411442865577794
-4.0515,0.1848068333524996,1.644568910491266
-4.051,0.2381577076409128,1.70814874092227
-4.0505,0.2381577076409128,1.655165548896481
-4.05,0.1954770082101822,1.538602526439591
-4.0495,0.1527963087794516,1.37965295036208
-4.049,0.1207857842064328,1.188913459069239
-4.0485,0.07810508477556639,0.9769806909653896
-4.048,-0.03926683865883591,0.6166949851900245
-4.0475,-0.5941159312578287,-0.1462629799813367
-4.047,-1.095614149569747,-0.9516074987752566
-4.0465,-1.458400094730627,-1.502632695843462
-4.046,-0.9889124009930181,-1.099960436447466
-4.0455,-0.1886492866658494,-0.6125150698091085
-4.045,0.408880505363835,-0.2946159176543747
-4.0445,0.6329541773751706,-0.252229364033705
-4.044,0.6222840025173908,-0.4005823017062611
-4.0435,0.5155822539406614,-0.6337083466197325
-4.043,0.3982103305061524,-0.8138511995075789
-4.0425,0.3661998059331336,-0.8456411147230524
-4.042,0.4195506802215176,-0.792657922697244
-4.0415,0.3768699807907871,-0.7078848154559045
-4.041,0.3021787567870766,-0.5807251545940111
-4.0405,0.2488278824985663,-0.411178940111043
-4.04,0.2168173579255475,-0.2204394488182027
-4.0395,0.1848068333525287,-0.1356663415769403
-4.039,-0.1779791118092052,-0.5277419625684631
-4.0385,-0.722158029550525,-0.9728007755850904
-4.038,-1.170305373572788,-1.184733543688246
-4.0375,-1.703814116457328,-1.216523458903604
-4.037,-1.703814116457328,-0.8456411147230812
-4.0365,-1.138294849000148,-0.008506680714854012
-4.036,-0.5621054066849068,0.8180311148887551
-4.0355,-0.1459685872356623,1.42203950398275
-4.035,0.09944543449103843,1.771728571353275
-4.0345,0.2168173579254407,1.909484870620326
-4.034,0.2381577076409128,1.909484870620451
-4.0335,0.2274875327832301,1.824711763379112
-4.033,0.1848068333525384,1.665762187301745
-4.0325,0.1421261339217302,1.49621597281869
-4.032,0.09944543449103843,1.241896651094903
-4.0315,0.07810508477569256,0.9557874141556426
-4.031,-0.1459685872360796,0.3835689402755604
-4.0305,-0.6047861061160158,-0.474758770542221
-4.03,-1.244996597576392,-1.227120097308425
-4.0295,-1.40504922044169,-1.629792356705259
-4.029,-0.8288597781273515,-1.396666311791788
-4.0285,-0.1779791118087102,-1.068170521231597
-4.028,0.2381577076410875,-0.8880276683437124
-4.0275,0.4302208550792003,-0.8456411147230812
-4.027,0.4622313796522482,-0.8668343915334161
-4.0265,0.4195506802215564,-0.8668343915334161
-4.026,0.408880505363835,-0.9304142219644207
-4.0255,0.5902734779444399,-1.046977244421262
-4.025,0.5902734779444399,-0.8880276683438955
-4.0245,0.4835717293675068,-0.6019184314039894
-4.024,0.3661998059331045,-0.3370024712750445
-4.0235,0.2808384070717209,-0.1144730647667307
-4.023,0.3341892813603186,-0.05089323433586106
-4.0225,0.6222840025174878,-0.4217755785163839
-4.022,0.3235191065026456,-0.9198175835588003
-4.0215,-0.09261771294776347,-1.09996043644708
-4.021,-0.658136980404429,-1.078767159636765
-4.0205,-1.30901764672307,-1.078767159636765
-4.02,-1.330357996438047,-0.6443049850242157
-4.0195,-0.9035510021311299,0.1080563417419877
-4.019,-0.4340633083930936,0.7862411996727035
-4.0185,-0.08194753808988675,1.252493289499646
-4.018,0.1207857842064037,1.496215972818921
-4.0175,0.2061471830678648,1.580989080060261
-4.017,0.2274875327832107,1.549199164844787
-4.0165,0.2061471830678357,1.453829419198127
-4.016,0.1741366584948169,1.316073119931075
-4.0155,0.152796308779471,1.157123543853708
-4.015,0.1314559590638826,0.966384052560174
-4.0145,-0.09261771294724913,0.55311515475902
-4.014,-0.7221580295499523,-0.2628260024381303
-4.0135,-1.309017646723361,-1.046977244421841
-4.013,-1.629122892453549,-1.682775548731308
-4.0125,-1.159635198715513,-1.576809164679634
-4.012,-0.3913826089618293,-0.983397413989882
-4.0115,0.1954770082101822,-0.570128516188728
-4.011,0.4622313796522482,-0.3581957480853793
-4.0105,0.5262524287982859,-0.3370024712750637
-4.01,0.4835717293676135,-0.4111789401112165
-4.0095,0.4302208550792003,-0.570128516188728
-4.009,0.4729015545098921,-0.5913217929990435
-4.0085,0.4942419042252282,-0.4747587705421632
-4.008,0.4195506802215176,-0.4111789401112165
-4.0075,0.3235191065024612,-0.3581957480854275
-4.007,0.2594980573562393,-0.2734226408439338
-4.0065,0.2168173579255475,-0.1568596183871981
-4.006,-0.1673089369510276,-0.3899856633008816
-4.0055,-0.7648387289816825,-0.8986243067492846
-4.005,-1.234326422719292,-1.301296566145281
-4.0045,-1.501080794161358,-1.333086481360783
-4.004,-1.895877263895577,-1.301296566145001
-4.0035,-1.853196564464885,-0.9939940523954253
-4.003,-1.202315898146244,-0.2204394488182027
-4.0025,-0.5834457564012134,0.5531151547583164
-4.002,-0.1352984123779797,1.125333628638062
-4.0015,0.1207857842064037,1.464426057603419
-4.001,0.238157707640806,1.602182356870471
-4.0005,0.2594980573562586,1.612778995275696
-4,0.2381577076409128,1.538602526439591
-3.9995,0.1954770082101822,1.42203950398275
-3.999,0.1634664836371343,1.25249328950007
-3.9985,0.1314559590640864,1.040560521396722
-3.998,0.05676473506030786,0.701468092431364
-3.9975,-0.3166913849585846,-0.008506680714854012
-3.997,-0.722158029550525,-0.8032545611024114
-3.9965,-1.084943974711735,-1.417859588602123
-3.996,-0.8288597781273515,-1.417859588602123
-3.9955,-0.2633405106701714,-1.046977244421262
-3.995,0.1848068333524996,-0.7078848154559045
-3.9945,0.4195506802215176,-0.5383386009732256
-3.994,0.4729015545099309,-0.5913217929990628
-3.9935,0.4515612047945656,-0.7396747306714069
-3.993,0.408880505363835,-0.8350444763179138
-3.9925,0.408880505363835,-0.792657922697244
-3.992,0.4408910299368829,-0.5595318777835605
-3.9915,0.3982103305061524,-0.4217755785163839
-3.991,0.3341892813600565,-0.3158091944647096
-3.9905,0.2808384070716433,-0.1992461720078678
-3.99,0.2381577076409128,-0.07208651114585861
-3.9895,0.1848068333524996,-0.1780528951975329
-3.989,-0.3273615598162672,-0.6760949002404023
-3.9885,-0.8608703027003992,-1.152943628472937
-3.988,-1.287677297007705,-1.42845622700729
-3.9875,-1.810515865034154,-1.460246142222792
-3.987,-1.842526389607202,-1.089363798041932
-3.9865,-1.223656247861609,-0.2416327256285375
-3.986,-0.6047861061160158,0.6166949851900245
-3.9855,-0.1459685872356623,1.25249328950007
-3.985,0.1207857842064037,1.623375633680931
-3.9845,0.2381577076409128,1.771728571353275
-3.984,0.2594980573562781,1.782325209758442
-3.9835,0.2381577076409128,1.697552102517103
-3.983,0.1954770082101822,1.559795803249926
-3.9825,0.1634664836371343,1.390249588767247
-3.982,0.142126133921769,1.188913459069066
-3.9815,0.08877525963335578,0.9451907757502149
-3.981,-0.3166913849585846,0.3517790250608387
-3.9805,-0.8288597781273515,-0.5171453241628908
-3.98,-1.095614149569417,-1.258910012524611
-3.9795,-0.8715404775580819,-1.862918401619155
-3.979,-0.09261771294724913,-1.672178910326141
-3.9785,0.5049120790829789,-1.068170521231597
-3.978,0.8036769750980928,-0.6654982618352349
-3.9775,0.825017324813458,-0.5065486857577234
-3.977,0.6863050516635838,-0.4853554089473885
-3.9765,0.5155822539406614,-0.4959520473525559
-3.976,0.408880505363835,-0.6125150698093976
-3.9755,0.6009436528021226,-0.8350444763179138
-3.975,0.6329541773751706,-0.8138511995075789
-3.9745,0.5262524287983441,-0.6231117082145651
-3.974,0.3982103305061524,-0.400582301706049
-3.9735,0.3021787567870086,-0.1886495336027004
-3.973,0.2594980573562781,0.02328323450064829
-3.9725,0.4515612047945656,0.383568940276341
-3.972,0.1314559590640864,0.1080563417419877
-3.9715,-0.3273615598162672,-0.400582301706049
-3.971,-0.9248913518464952,-0.9410108603695881
-3.9705,-1.415719395299897,-1.248313374119443
-3.97,-1.223656247861609,-0.8350444763179138
-3.9695,-0.7434983792658902,-0.1038764263613609
-3.969,-0.2953510352432193,0.5637117931641874
-3.9685,0.01408403562957729,1.040560521396722
-3.968,0.1741366584948169,1.305476481525908
-3.9675,0.2381577076409128,1.432636142387917
-3.967,0.2381577076409128,1.453829419198252
-3.9665,0.2061471830678648,1.411442865577582
-3.966,0.1741366584948169,1.326669758336243
-3.9655,0.1527963087794516,1.220703374284568
-3.965,0.1314559590640864,1.051157159801889
-3.9645,-0.1032878878049318,0.627291623595192
-3.964,-0.6261264558313813,-0.1992461720078678
-3.9635,-1.010252750707956,-0.9939940523954253
-3.963,-0.9889124009925911,-1.417859588602123
-3.9625,-0.4127229586777283,-1.0999604364471
-3.962,0.1848068333524996,-0.7502713690765743
-3.9615,0.5155822539406614,-0.4853554089473885
-3.961,0.6009436528021226,-0.4323722169215513
-3.9605,0.5475927785137094,-0.6125150698093976
-3.96,0.4622313796522482,-0.7290780922662394
-3.9595,0.3982103305061524,-0.792657922697244
-3.959,0.4622313796522482,-0.8244478379127463
-3.9585,0.4942419042252961,-0.7396747306714069
-3.958,0.4408910299368829,-0.5595318777835605
-3.9575,0.3768699807907871,-0.3475991096802118
-3.957,0.3128489316446912,-0.1144730647665284
-3.9565,0.2808384070716433,0.1080563417419877
-3.956,0.1207857842064037,0.07626642652648545
-3.9555,-0.4980843575391895,-0.4111789401112165
-3.955,-1.1062843244271,-0.8880276683437509
-3.9545,-1.437059745015262,-0.9728007755850904
-3.954,-1.821186039891837,-0.9304142219644207
-3.9535,-1.895877263895616,-0.718481453861072
-3.953,-1.277007122150022,-0.04029659593035631
-3.9525,-0.6474668055467465,0.6908714540261965
-3.952,-0.1673089369510276,1.241896651094903
-3.9515,0.1101156093487211,1.549199164844759
-3.951,0.2381577076409128,1.6657621873016
-3.9505,0.2701682322139607,1.633972272086098
-3.95,0.2594980573562781,1.528005888034424
-3.9495,0.2168173579255475,1.369056311956912
-3.949,0.1848068333524996,1.178316820663898
-3.9485,0.142126133921769,0.9663840525605498
-3.948,0.07810508477567314,0.7226613692416989
-3.9475,-0.3487019095316325,0.1716361721729923
-3.947,-0.7861790786966207,-0.6231117082145651
-3.9465,-1.052933450138687,-1.301296566145281
-3.946,-0.839529952985034,-1.407262950196955
-3.9455,-0.2420001609548061,-1.004590690800593
-3.945,0.2488278824985954,-0.6972881770507372
-3.9445,0.5262524287983441,-0.6019184314042303
-3.944,0.6009436528021226,-0.6337083466197325
-3.9435,0.5475927785137094,-0.7290780922662394
-3.943,0.4622313796522482,-0.7608680074817418
-3.9425,0.4942419042252961,-0.7820612842920766
-3.942,0.6436243522328531,-0.7608680074817418
-3.9415,0.5902734779444399,-0.6337083466197325
-3.941,0.4622313796522482,-0.4641621321370536
-3.9405,0.3448594562177392,-0.2840192792492073
-3.94,0.2808384070716433,-0.09327978795619347
-3.9395,0.1314559590640864,0.06566978812131802
-3.939,-0.4447334832507763,-0.2098428104130352
-3.9385,-1.180975548430879,-0.7608680074817418
-3.938,-1.906547438753298,-1.216523458903942
-3.9375,-2.3973754822067,-1.42845622700729
-3.937,-2.280003558772191,-1.227120097309109
-3.9365,-1.426389570157579,-0.4323722169215513
-3.936,-0.6688071552621118,0.4153588554918433
-3.9355,-0.1459685872356623,1.061753798207057
-3.935,0.1527963087794516,1.453829419198252
-3.9345,0.2808384070716433,1.623375633680931
-3.934,0.3021787567870086,1.644568910491266
-3.9335,0.2808384070716433,1.580989080060261
-3.933,0.2381577076409128,1.464426057603419
-3.9325,0.1954770082101822,1.305476481525908
-3.932,0.1848068333524996,1.125333628638062
-3.9315,0.1741366584948169,0.92399749893988
-3.931,-0.1139580626626144,0.8922075837243778
-3.9305,-0.690147504977477,0.5849050699745222
-3.93,-1.031593100423322,-0.2416327256285375
-3.9295,-0.9675720512772257,-0.9516074987747555
-3.929,-0.3380317346739499,-1.025783967610927
-3.9285,0.2594980573562781,-0.7502713690765743
-3.928,0.6009436528021226,-0.5807251545938954
-3.9275,0.6649647019482183,-0.5065486857577234
-3.927,0.5902734779444399,-0.5065486857577234
-3.9265,0.4729015545099309,-0.5277419625680583
-3.926,0.3982103305061524,-0.5595318777835605
-3.9255,0.4729015545099309,-0.3899856633008816
-3.925,0.4729015545099309,-0.2840192792492073
-3.9245,0.408880505363835,-0.2310360872233701
-3.924,0.3341892813600565,-0.1780528951975329
-3.9235,0.291508581929326,-0.1038764263613609
-3.923,0.291508581929326,-0.05089323433552374
-3.9225,0.6009436528021226,-0.3581957480853793
-3.922,0.5689331282290746,-0.8986243067489184
-3.9215,0.03542438534494258,-1.34368311976595
-3.921,-0.722158029550525,-1.587405803084801
-3.9205,-1.277007122150022,-1.449649503817625
-3.92,-1.138294849000148,-0.6866915386455698
-3.9195,-0.690147504977477,0.2246193641988295
-3.919,-0.2633405106701714,0.9557874141553824
-3.9185,0.02475421048725994,1.432636142387917
-3.918,0.1848068333524996,1.686955464111935
-3.9175,0.2488278824985954,1.771728571353275
-3.917,0.2594980573562781,1.739938656137773
-3.9165,0.2274875327832301,1.644568910491266
-3.916,0.1954770082101822,1.517409249629256
-3.9155,0.1741366584948169,1.358459673551745
-3.915,0.142126133921769,1.146526905448396
-3.9145,-0.124628237520297,0.6378882620003594
-3.914,-0.690147504977477,-0.2416327256285375
-3.9135,-1.095614149569417,-1.05757388282643
-3.913,-1.277007122150022,-1.619195718300304
-3.9125,-0.8822106524157645,-1.492036057438295
-3.912,-0.2953510352432193,-1.237716735714276
-3.9115,0.1741366584948169,-0.9516074987747555
-3.911,0.408880505363835,-0.7502713690765743
-3.9105,0.4729015545099309,-0.7290780922662394
-3.91,0.4622313796522482,-0.792657922697244
-3.9095,0.4302208550792003,-0.792657922697244
-3.909,0.6009436528021226,-0.792657922697244
-3.9085,0.7716664505250448,-0.7608680074817418
-3.908,0.6863050516635838,-0.5913217929990628
-3.9075,0.5262524287983441,-0.3581957480853793
-3.907,0.3982103305061524,-0.1462629799820306
-3.9065,0.3235191065023739,0.01268659609548085
-3.906,0.3021787567870086,-0.1780528951975329
-3.9055,0.1848068333524996,-0.6654982618352349
-3.905,-0.2099896363817582,-1.089363798041932
-3.9045,-0.7008176798351597,-1.322489842955616
-3.904,-1.341028171296118,-1.364876396576285
-3.9035,-1.522421143876723,-1.01518732920576
-3.903,-1.095614149569417,-0.1780528951975329
-3.9025,-0.5621054066852853,0.6484849004055269
-3.902,-0.1352984123779797,1.241896651094903
-3.9015,0.1207857842064037,1.591585718465428
-3.901,0.2381577076409128,1.729342017732605
-3.9005,0.2808384070716433,1.739938656137773
-3.9,0.2594980573562781,1.655165548896433
-3.8995,0.2274875327832301,1.517409249629256
-3.899,0.1954770082101822,1.347863035146577
-3.8985,0.1848068333524996,1.157123543853563
-3.898,0.1101156093487211,0.92399749893988
-3.8975,-0.3807124341046804,0.3623756634660061
-3.897,-0.9142211769888124,-0.4853554089473885
-3.8965,-1.30901764672307,-1.227120097309109
-3.896,-1.180975548430879,-1.396666311791788
-3.8955,-0.5621054066852853,-1.078767159636765
-3.895,0.02475421048725994,-0.8880276683437509
-3.8945,0.3875401556484697,-0.7820612842920766
-3.894,0.5262524287983441,-0.6972881770507372
-3.8935,0.5262524287983441,-0.7396747306714069
-3.893,0.4729015545099309,-0.7608680074817418
-3.8925,0.4942419042252961,-0.8138511995075789
-3.892,0.6009436528021226,-0.8244478379127463
-3.8915,0.5582629533713921,-0.6972881770507372
-3.891,0.4515612047945656,-0.5171453241628908
-3.8905,0.3555296310754218,-0.3158091944647096
-3.89,0.291508581929326,-0.1144730647665284
-3.8895,0.1954770082101822,0.1610395337678249
-3.889,-0.3593720843893152,0.2881991946298341
-3.8885,-0.9782422261349084,-0.2310360872233701
-3.888,-1.458400094730627,-0.8350444763179138
-3.8875,-2.002579012472442,-1.227120097309109
-3.887,-2.055929886760855,-1.195330182093607
-3.8865,-1.319687821580753,-0.4959520473525559
