Class_9_Think_Grab_one_hand_movement/Class_9_Think_Right_hand_Grab_Turki_8.csv

#Digilent WaveForms Oscilloscope Acquisition
#Device Name: EExplorer
#Serial Number: SN:210151A2B84A
#Date Time: 2020-12-21 15:28:53.686
#Sample rate: 2000Hz
#Samples: 16384
#Trigger: Source: Channel 1 Type: Edge Condition: Rising Level: 0 V Hyst.: Auto HoldOff: 0 s
#Channel 1: Range: 1 V/div Offset: 0 V
#Channel 2: Range: 1 V/div Offset: 0 V

Time (s),Channel 1 (V),Channel 2 (V)
-4.0960000000000001,0.50491207908297886,0.62729162359519197
-4.0955000000000004,0.4088805053639224,0.61669498519003418
-4.0949999999999998,-0.20998963638244716,0.03387987290510254
-4.0945,-0.96757205127722568,-0.75027136907657432
-4.0940000000000003,-1.5544316684492372,-1.3436831197654109
-4.0934999999999997,-2.077270236476259,-1.6827755487312697
-4.093,-2.1199509359069508,-1.6403889951106385
-4.0925000000000002,-1.3516983461544996,-0.89862430674959304
-4.0919999999999996,-0.56210540668474185,-0.05089323433494549
-4.0914999999999999,0.035424385344942577,0.58490506997452218
-4.0910000000000002,0.3768699807907871,0.93459413734504748
-4.0904999999999996,0.53692260365606548,1.0617537982070375
-4.0899999999999999,0.57960330308675734,1.0405605213967219
-4.0895000000000001,0.5689331282290746,0.94519077575021493
-4.0890000000000004,0.52625242879838297,0.81803111488832148
-4.0884999999999998,0.49424190422529612,0.69087145402619654
-4.0880000000000001,0.4622313796522482,0.57430843156935485
-4.0875000000000004,0.38754015564853767,0.5213252395435658
-4.0869999999999997,-0.028596663801754955,0.62729162359503776
-4.0865,-0.69014750497747701,0.45774540911251305
-4.0860000000000003,-1.202315898145778,-0.26282600243821708
-4.0854999999999997,-1.3837088707264218,-0.99399405239546379
-4.085,-0.91422117698881245,-1.0363806060160949
-4.0845000000000002,-0.28468086038610918,-0.62311170821494088
-4.0839999999999996,0.19547700821046363,-0.19924617200758832
-4.0834999999999999,0.50491207908297886,0.10805634174198775
-4.0830000000000002,0.65429452709053582,0.30939247144016896
-4.0824999999999996,0.71831557623663156,0.39416557868151808
-4.0819999999999999,0.71831557623663156,0.40476221708667587
-4.0815000000000001,0.81434714995577528,0.24581264100916439
-4.0810000000000004,0.89970854881715889,0.10805634174211304
-4.0804999999999998,0.81434714995577528,0.18223281057815977
-4.0800000000000001,0.6863050516635838,0.34118238665567124
-4.0795000000000003,0.59027347794452723,0.50013196273303828
-4.0789999999999997,0.51558225394062251,0.62729162359516311
-4.0785,0.47290155450993088,0.59550170837968963
-4.0780000000000003,0.33418928136018267,0.15044289536306227
-4.0774999999999997,-0.35937208439001389,-0.61251506980998549
-4.077,-1.1276246741424654,-1.2589100125246109
-4.0765000000000002,-1.6611334170261123,-1.6085990798948182
-4.0759999999999996,-1.3837088707262568,-1.2059268204980513
-4.0754999999999999,-0.73282820440820751,-0.41117894011121647
-4.0750000000000002,-0.14596858723566233,0.27760255622466667
-4.0744999999999996,0.24882788249878948,0.72266136924189162
-4.0739999999999998,0.4622313796522482,0.93459413734504748
-4.0735000000000001,0.54759277851370936,0.97698069096571727
-4.0730000000000004,0.55826295337138243,0.92399749893992822
-4.0724999999999998,0.52625242879834411,0.82862775329337313
-4.0720000000000001,0.49424190422529612,0.72266136924169888
-4.0715000000000003,0.47290155450995031,0.61669498519012089
-4.0709999999999997,0.41955068022128472,0.57430843156939337
-4.0705,0.16346648363713429,0.61669498519002452
-4.0700000000000003,-0.41272295867720427,0.19282944898371274
-4.0694999999999997,-1.0422632752813632,-0.60191843140485668
-4.069,-1.437059745015262,-1.2906999277401132
-4.0685000000000002,-1.4157193952998968,-1.3436831197659505
-4.0679999999999996,-0.83952995298442257,-0.88802766834326907
-4.0674999999999999,-0.16730893695102761,-0.3581957480853793
-4.0670000000000002,0.31284893164469124,0.033879872905815719
-4.0664999999999996,0.59027347794454665,0.25640927941439923
-4.0659999999999998,0.70764540137894905,0.33058574825050385
-4.0655000000000001,0.70764540137894905,0.36237566346600614
-4.0650000000000004,0.73965592595196772,0.28819919462990157
-4.0644999999999998,0.95305942310564973,0.13984625695749003
-4.0640000000000001,0.93171907339028448,0.12924961855232261
-4.0635000000000003,0.79300680024053616,0.22461936419874276
-4.0629999999999997,0.6649647019481213,0.33058574825059062
-4.0625,0.55826295337139209,0.42595549389701071
-4.0620000000000003,0.41955068022164377,0.37297230187122177
-4.0614999999999997,-0.1886492866670722,-0.16745625679305942
-4.0609999999999999,-0.93556152670417769,-0.9304142219644207
-4.0605000000000002,-1.3623685210114835,-1.5556158878692994
-4.0599999999999996,-1.7785053404609803,-1.9688847856706457
-4.0594999999999999,-1.6397930673112322,-1.7675486559726479
-4.0590000000000002,-0.97824222613490841,-0.91981758355925325
-4.0585000000000004,-0.31669138495918625,-0.093279787956945248
-4.0579999999999998,0.16346648363713429,0.50013196273318283
-4.0575000000000001,0.43022085507920033,0.82862775329337313
-4.0570000000000004,0.53692260365592959,0.95578741415526669
-4.0564999999999998,0.55826295337139209,0.95578741415538238
-4.056,0.54759277851370936,0.90280422212954525
-4.0555000000000003,0.50491207908301772,0.82862775329344063
-4.0549999999999997,0.47290155450991145,0.74385464605197593
-4.0545,0.45156120479456557,0.68027481562102909
-4.0540000000000003,0.38754015564852795,0.60609834678492458
-4.0534999999999997,-0.060607188374909617,0.40476221708618437
-4.0529999999999999,-0.83952995298503397,-0.13566634157686319
-4.0525000000000002,-1.554431668449771,-0.91981758355925325
-4.0519999999999996,-1.9278877884682462,-1.3648763965760444
-4.0514999999999999,-1.46907026958831,-1.0999604364470996
-4.0510000000000002,-0.66880715526211176,-0.51714532416289083
-4.0505000000000004,0.014084035628956215,-0.040296595930789991
-4.0499999999999998,0.44089102993688295,0.15044289536265748
-4.0495000000000001,0.64362435223285308,0.24581264100916439
-4.0490000000000004,0.70764540137889087,0.2881991946297956
-4.0484999999999998,0.69697522652125665,0.2352160026038331
-4.048,0.6863050516635838,0.055073149716150585
-4.0475000000000003,0.66496470194823776,-0.0085066807147961832
-4.0469999999999997,0.61161382765975658,0.065669788121414399
-4.0465,0.55826295337139209,0.17163617217299235
-4.0460000000000003,0.51558225394070023,0.28819919462972809
-4.0454999999999997,0.46223137965212202,0.29879583303468354
-4.0449999999999999,0.32351910650237387,-0.050893234335523743
-4.0445000000000002,-0.13529841237797968,-0.76086800748174177
-4.0439999999999996,-0.61545628097408667,-1.3966663117921732
-4.0434999999999999,-1.0422632752810042,-1.8205318479984851
-4.0430000000000001,-1.373038695869166,-1.8947083168346572
-4.0425000000000004,-1.042263275281305,-1.1847335436890849
-4.0419999999999998,-0.47674400782382426,-0.31580919446470956
-4.0415000000000001,0.014084035629577295,0.37297230187117358
-4.0410000000000004,0.32351910650209242,0.78624119967232753
-4.0404999999999998,0.48357172936766202,0.98757732937092324
-4.04,0.53692260365602662,1.0299638829915545
-4.0395000000000003,0.5475927785136997,0.99817396777608092
-4.0389999999999997,0.51558225394063228,0.93459413734498964
-4.0385,0.4835717293676135,0.87101430691404291
-4.0380000000000003,0.46223137965226763,0.7968378380779384
-4.0374999999999996,0.44089102993692175,0.72266136924176638
-4.0369999999999999,0.4835717293676135,0.7968378380778709
-4.0365000000000002,1.0917716962555239,1.2736865663104053
-4.0359999999999996,1.7746628871469121,1.8565016785949031
-4.0354999999999999,1.4438874665590511,2.1744008307496374
-4.0350000000000001,1.1237822208285719,1.6339722720860981
-4.0345000000000004,0.88903837395976726,0.95578741415599922
-4.0339999999999998,0.71831557623663156,0.46834204751768049
-4.0335000000000001,0.63295417737517057,0.10805634174198775
-4.0330000000000004,0.62228400251749749,-0.029699957525063603
-4.0324999999999998,0.63295417737516091,-0.02969995752514069
-4.032,0.62228400251748783,0.023283234500648287
-4.0315000000000003,0.68630505166352562,0.097459703336752856
-4.0309999999999997,0.7183155762365927,0.171636172173108
-4.0305,0.67563487680590106,0.29879583303500157
-4.0300000000000002,0.60094365280219053,0.46834204751752628
-4.0294999999999996,0.54759277851368993,0.62729162359533652
-4.0289999999999999,0.52625242879834411,0.78624119967270345
-4.0285000000000002,0.81434714995577528,0.88161094531921036
-4.0279999999999996,1.134452395685779,0.57430843156870914
-4.0274999999999999,0.6116138276598051,-0.13566634157686319
-4.0270000000000001,-0.28468086038553664,-0.77146464588690922
-4.0265000000000004,-1.1169544992840257,-1.1423469900674321
-4.0259999999999998,-1.1169544992847826,-0.80325456110241145
-4.0255000000000001,-0.65813698040442903,-0.061489872740691176
-4.0250000000000004,-0.16730893695147403,0.58490506997393432
-4.0244999999999997,0.19547700821036657,0.98757732937103893
-4.024,0.3982103305061524,1.1571235438535634
-4.0235000000000003,0.49424190422520875,1.1571235438535634
-4.0229999999999997,0.51558225394065171,1.0511571598017544
-4.0225,0.50491207908297886,0.90280422212954525
-4.0220000000000002,0.47290155450995996,0.74385464605217833
-4.0214999999999996,0.44089102993685386,0.59550170837955474
-4.0209999999999999,0.40888050536383502,0.4471487707073456
-4.0205000000000002,0.28083840707164331,0.29879583303500157
-4.0199999999999996,-0.31669138495928328,0.065669788120720482
-4.0194999999999999,-1.0849439747117349,-0.59132179299906285
-4.0190000000000001,-1.5437614935920885,-1.2483133741194434
-4.0185000000000004,-1.3303579964386296,-1.1953301820936548
-4.0179999999999998,-0.67947733011979428,-0.81385119950757889
-4.0175000000000001,-0.049937013516518552,-0.36879238649054674
-4.0170000000000003,0.36619980593272594,-0.040296595930655099
-4.0164999999999997,0.59027347794451746,0.10805634174205521
-4.016,0.67563487680590106,0.18223281057815977
-4.0155000000000003,0.68630505166357414,0.17163617217300198
-4.0149999999999997,0.69697522652134392,0.1716361721731369
-4.0145,0.78233662538272752,0.33058574825050385
-4.0140000000000002,0.73965592595203566,0.36237566346597722
-4.0134999999999996,0.64362435223277548,0.35177902506082903
-4.0129999999999999,0.55826295337139209,0.34118238665567124
-4.0125000000000002,0.49424190422529612,0.36237566346600614
-4.0119999999999996,0.64362435223330916,0.59550170838024863
-4.0114999999999998,1.1451225705439372,1.2101067358794007
-4.0110000000000001,0.79300680024041004,1.3266697583362426
-4.0105000000000004,-0.15663876209248129,0.46834204751846109
-4.0099999999999998,-1.1062843244271001,-0.60191843140423029
-4.0095000000000001,-1.3303579964384356,-1.0469772444212624
-4.0090000000000003,-0.90355100213151807,-0.6760949002407397
-4.0084999999999997,-0.34870190953123459,-0.061489872740190021
-4.008,0.08877525963335578,0.48953532432801533
-4.0075000000000003,0.34485945621750624,0.86041766850853807
-4.0069999999999997,0.47290155450996968,1.0829470750174977
-4.0065,0.51558225394066137,1.1995100974742332
-4.0060000000000002,0.50491207908297886,1.2313000126897355
-4.0054999999999996,0.47290155450991145,1.2207033742845392
-4.0049999999999999,0.45156120479456557,1.1889134590690658
-4.0045000000000002,0.41955068022151765,1.1359302670432285
-4.0039999999999996,0.36619980593271628,1.0617537982067196
-4.0034999999999998,-0.06060718837420119,0.69087145402619654
-4.0030000000000001,-0.75416855412357298,-0.10387642636136091
-4.0025000000000004,-1.4477299198723137,-0.9939940523946158
-4.0019999999999998,-1.7251544661726932,-1.3860696733866202
-4.0015000000000001,-1.2663369472923398,-1.1105570748522671
-4.0010000000000003,-0.55143523182825294,-0.64430498502532396
-4.0004999999999997,0.024754210487609295,-0.25222936403349294
-4,0.40888050536383502,-0.019103319120021445
-3.9994999999999998,0.59027347794443985,0.023283234500648287
-3.9990000000000001,0.62228400251748783,-0.0085066807148540119
-3.9984999999999999,0.60094365280212259,-0.061489872740691176
-3.9980000000000002,0.63295417737517057,-0.1674562567923655
-3.9975000000000001,0.62228400251748783,-0.15685961838719809
-3.9969999999999999,0.5689331282290746,-0.072086511145858609
-3.9965000000000002,0.51558225394066137,0.033879872905815719
-3.996,0.4835717293676135,0.12924961855232261
-3.9954999999999998,0.45156120479456557,0.2246193641988295
-3.9950000000000001,0.05676473506030786,0.29879583303500157
-3.9944999999999999,-0.65813698040442903,-0.18864953360270037
-3.9940000000000002,-1.1916457232885611,-0.9092209451540858
-3.9935,-1.554431668449771,-0.84564111472308123
-3.9929999999999999,-1.7785053404611064,-0.78206128429207655
-3.9925000000000002,-1.3090176467230703,-0.55953187778356051
-3.992,-0.62612645583138127,-0.13566634157686319
-3.9914999999999998,-0.071277363231883828,0.26700591781949923
-3.9910000000000001,0.29150858192932599,0.55311515475901996
-3.9904999999999999,0.4622313796522482,0.73325800764686633
-3.9900000000000002,0.52625242879834411,0.83922439169854057
-3.9895,0.52625242879834411,0.89220758372437781
-3.9889999999999999,0.49424190422529612,0.9134008605347127
-3.9885000000000002,0.4622313796522482,0.93459413734504748
-3.988,0.43022085507920033,0.93459413734504748
-3.9874999999999998,0.40888050536383502,0.92399749893988004
-3.9870000000000001,0.12078578420640371,0.98757732937088472
-3.9864999999999999,-0.62612645583138127,0.86041766850887547
-3.9860000000000002,-1.2770071221500223,0.044476511310983152
-3.9855,-1.2770071221500223,-0.67609490024040231
-3.9849999999999999,-0.81818960326966872,-0.65490162343006741
-3.9845000000000002,-0.22065981123944084,-0.27342264084403983
-3.984,0.25949805735627807,0.065669788121318018
-3.9834999999999998,0.52625242879834411,0.26700591781949923
-3.9830000000000001,0.63295417737517057,0.38356894027634103
-3.9824999999999999,0.66496470194821833,0.39416557868150842
-3.9820000000000002,0.64362435223285308,0.34118238665567124
-3.9815,0.75032610080967954,0.29879583303500157
-3.9809999999999999,0.82501732481345802,0.2246193641988295
-3.9805000000000001,0.75032610080967954,0.18223281057815977
-3.98,0.63295417737517057,0.15044289536265748
-3.9794999999999998,0.54759277851370936,0.12924961855232261
-3.9790000000000001,0.49424190422529612,0.11865298014715518
-3.9784999999999999,0.35552963107542179,-0.061489872740691176
-3.9780000000000002,-0.092617712947249131,-0.59132179299906285
-3.9775,-0.78617907869662074,-1.2695066509297783
-3.9769999999999999,-1.3623685210114835,-1.7357587407571455
-3.9765000000000001,-1.8425263896072024,-2.0324646161018336
-3.976,-1.6077825427381842,-1.6191957183003036
-3.9754999999999998,-0.91422117698881245,-0.76086800748174177
-3.9750000000000001,-0.26334051067017139,0.023283234500648287
-3.9744999999999999,0.17413665849481691,0.5637117931641874
-3.9740000000000002,0.41955068022151765,0.84982103010370802
-3.9735,0.51558225394066137,0.97698069096571727
-3.9729999999999999,0.53692260365602662,0.98757732937088472
-3.9725000000000001,0.51558225394066137,0.95578741415538238
-3.972,0.47290155450993088,0.90280422212954525
-3.9714999999999998,0.44089102993688295,0.83922439169854057
-3.9710000000000001,0.41955068022151765,0.78624119967270345
-3.9704999999999999,0.31284893164469124,0.74385464605203377
-3.9700000000000002,-0.26334051067017139,0.70146809243136399
-3.9695,-0.87154047755808195,0.012686596095480854
-3.9689999999999999,-1.1169544992847826,-0.86683439153341613
-3.9685000000000001,-0.93556152670417769,-1.0893637980419322
-3.968,-0.43406330839309365,-0.81385119950757889
-3.9674999999999998,0.067434909917990504,-0.44296885532671876
-3.9670000000000001,0.40888050536383502,-0.10387642636136091
-3.9664999999999999,0.60094365280212259,0.044476511310983152
-3.9660000000000002,0.67563487680590106,0.044476511310983152
-3.9655,0.65429452709053582,0.033879872905815719
-3.9649999999999999,0.69697522652126631,-0.04029659593035631
-3.9645000000000001,0.8997085488172365,-0.20984281041303524
-3.964,0.86769802424418851,-0.093279787956193475
-3.9634999999999998,0.73965592595199681,0.13984625695749003
-3.9630000000000001,0.6116138276598051,0.30939247144016896
-3.9624999999999999,0.52625242879834411,0.42595549389701071
-3.9620000000000002,0.36619980593310447,0.26700591781949923
-3.9615,-0.17797911180871023,-0.44296885532671876
-3.9609999999999999,-0.88221065241576446,-1.227120097309109
-3.9605000000000001,-1.6077825427381842,-1.8205318479984851
-3.96,-2.2266526844837773,-2.1914141921793449
-3.9594999999999998,-2.0772702364762203,-1.9582881472656615
-3.9590000000000001,-1.2556667724346571,-1.0575738828264298
-3.9584999999999999,-0.47674400782382426,-0.18864953360270037
-3.9580000000000002,0.078105084775673142,0.43655213230217815
-3.9575,0.38754015564846972,0.78624119967270345
-3.9569999999999999,0.52625242879834411,0.92399749893988004
-3.9565000000000001,0.54759277851370936,0.94519077575021493
-3.956,0.52625242879834411,0.89220758372437781
-3.9554999999999998,0.49424190422529612,0.81803111488820579
-3.9550000000000001,0.45156120479456557,0.74385464605203377
-3.9544999999999999,0.41955068022151765,0.66967817721586165
-3.9540000000000002,0.34485945621773917,0.68027481562102909
-3.9535,0.51558225394066137,0.95578741415538238
-3.9529999999999998,0.63295417737517057,0.93459413734504748
-3.9525000000000001,0.099445434491038431,0.076266426526485451
-3.952,-0.3700422592469978,-0.63370834661973252
-3.9514999999999998,-0.32736155981626724,-0.62311170821456507
-3.9510000000000001,-0.028596663801153277,-0.28401927924920728
-3.9504999999999999,0.28083840707164331,0.023283234500648287
-3.9500000000000002,0.49424190422529612,0.18223281057815977
-3.9495,0.59027347794443985,0.24581264100916439
-3.9489999999999998,0.6116138276598051,0.2246193641988295
-3.9485000000000001,0.6116138276598051,0.21402272579366208
-3.948,0.83568749967114075,0.18223281057815977
-3.9474999999999998,0.91037872367491923,0.16103953376782493
-3.9470000000000001,0.80367697509809277,0.21402272579366208
-3.9464999999999999,0.66496470194821833,0.29879583303500157
-3.9460000000000002,0.55826295337139209,0.40476221708667587
-3.9455,0.52625242879834411,0.52132523954351762
-3.9449999999999998,0.857027849386506,0.47893868592284788
-3.9445000000000001,1.2624944939784462,-0.13566634157686319
-3.944,0.67563487680590106,-0.89862430674891836
-3.9434999999999998,-0.44473348325077627,-1.4602461422227924
-3.9430000000000001,-1.1169544992847826,-1.5450192494641319
-3.9424999999999999,-0.95690187641954316,-0.89862430674891836
-3.9420000000000002,-0.48741418268150688,-0.093279787956193475
-3.9415,-0.049937013516518552,0.52132523954351762
-3.9409999999999998,0.24882788249859539,0.89220758372437781
-3.9405000000000001,0.40888050536383502,1.0405605213967219
-3.9399999999999999,0.4835717293676135,1.0511571598018894
-3.9394999999999998,0.4835717293676135,0.98757732937088472
-3.9390000000000001,0.47290155450993088,0.88161094531921036
-3.9384999999999999,0.44089102993688295,0.775644561267536
-3.9380000000000002,0.40888050536383502,0.66967817721586165
-3.9375,0.3768699807907871,0.57430843156935485
-3.9369999999999998,-0.0072563140857879876,0.28819919462983412
-3.9365000000000001,-0.74349837926589024,-0.48535540894738849
-3.9359999999999999,-1.1703053735731959,-1.3012965661452807
-3.9355000000000002,-1.1489650238578306,-1.8311284864036526
-3.9350000000000001,-1.1169544992847826,-1.7039688255416432
-3.9344999999999999,-0.67947733011979428,-1.0575738828264298
-3.9340000000000002,-0.13529841237797968,-0.47475877054222104
-3.9335,0.24882788249859539,-0.082683149551026042
-3.9329999999999998,0.47290155450993088,0.10805634174198775
-3.9325000000000001,0.59027347794443985,0.17163617217299235
-3.9319999999999999,0.63295417737517057,0.18223281057815977
-3.9315000000000002,0.66496470194821833,0.21402272579366208
-3.931,0.67563487680590106,0.29879583303500157
-3.9304999999999999,0.6116138276598051,0.27760255622466667
-3.9300000000000002,0.55826295337139209,0.23521600260399694
-3.9295,0.50491207908297886,0.21402272579366208
-3.9289999999999998,0.47290155450993088,0.2246193641988295
-3.9285000000000001,0.72898575109431429,0.41535885549184332
-3.9279999999999999,1.0811015213978414,0.30939247144016896
