Class_9_Think_Grab_one_hand_movement/Class_9_Think_Right_hand_Grab_Suko_7.csv

#Digilent WaveForms Oscilloscope Acquisition
#Device Name: EExplorer
#Serial Number: SN:210151A2B84A
#Date Time: 2021-01-27 15:09:00.762
#Sample rate: 2000Hz
#Samples: 16384
#Trigger: Source: Channel 1 Type: Edge Condition: Rising Level: 0 V Hyst.: Auto HoldOff: 0 s
#Channel 1: Range: 1 V/div Offset: 0 V Attenuation: 1 X
#Channel 2: Range: 1 V/div Offset: 0 V Attenuation: 1 X
#Channel 4: Range: 1 V/div Offset: 0 V Attenuation: 1 X
#Power Supplies: ON
#Fixed Supply: ON
#Voltage: 3.3 V Readback: 3.331 V
#Positive Supply: ON
#Voltage: 3.7 V Readback: 3.703 V
#Current: 40 mA Readback: 14 mA
#Negative Supply: ON
#Voltage: -3.7 V Readback: -3.377 V
#Current: -40 mA Readback: -6 mA
#Reference 1: ON
#Voltage: 0 V
#Reference 2: ON
#Voltage: 0 V

Time (s),Channel 1 (V),Channel 2 (V),Channel 4 (V)
-4.096,0.6222840025174878,-0.2628260024388724,-0.03203722724012713
-4.0955,0.3661998059333374,-0.1992461720079257,-0.03203722724012713
-4.095,0.1634664836370567,-0.2098428104130545,-0.03203722724010788
-4.0945,0.07810508477567314,-0.2310360872233701,-0.01087107241842888
-4.094,0.07810508477567314,-0.2310360872233701,0.02087815981408962
-4.0935,0.04609456020257669,-0.2098428104130352,0.0208781598141185
-4.093,-0.007256314085787988,-0.2098428104130352,0.0208781598141185
-4.0925,-0.06060718837415267,-0.1780528951975618,-0.0002879950075605001
-4.092,-0.1459685872359923,-0.1250697031714934,-0.02145414982928762
-4.0915,-0.5087545323968721,0.09745970333682032,-0.03203722724012713
-4.091,-1.159635198715513,0.5319218779486851,-0.04262030465097626
-4.0905,-1.821186039892342,0.8498210301036792,-0.04262030465099551
-4.09,-2.376035132491334,0.8180311148882058,-0.0637864594726745
-4.0895,-2.482736881068161,0.1822328105781598,-0.07436953688352363
-4.089,-1.874536914180803,-0.1674562567920475,-0.05320338206184462
-4.0885,-1.084943974711735,-0.1250697031716958,-0.04262030465097626
-4.088,-0.5194247072545548,0.07626642652648545,-0.04262030465097626
-4.0875,-0.1779791118090208,0.2776025562244835,-0.04262030465097626
-4.087,-0.0179264889434221,0.4471487707074612,-0.05320338206182537
-4.0865,0.03542438534494258,0.5743084315693548,-0.05320338206182537
-4.086,0.02475421048726964,0.6378882620003016,-0.06378645947266487
-4.0855,0.003413860771865537,0.6802748156210291,-0.1167018465269297
-4.085,-0.02859666380115328,0.6802748156210291,-0.1272849239377692
-4.0845,-0.04993701351649914,0.6484849004055557,-0.1167018465269297
-4.084,-0.03926683865871946,0.5849050699743583,-0.09553569170520264
-4.0835,0.08877525963335578,0.4047622170866759,-0.07436953688352363
-4.083,0.6756348768059011,-0.2204394488182027,-0.0637864594726745
-4.0825,1.187803269974813,-0.9622041371804529,-0.05320338206181575
-4.082,1.347855892839907,-1.545019249464132,-0.04262030465097626
-4.0815,1.369196242555273,-1.460246142222792,-0.03203722724012713
-4.081,1.262494493978543,-1.068170521231954,-0.03203722724012713
-4.0805,1.081101521397841,-0.6760949002404023,-0.03203722724012713
-4.08,0.8783681991018712,-0.3687923864905467,-0.03203722724012713
-4.0795,0.6542945270907397,-0.2416327256286532,-0.03203722724012713
-4.079,0.3982103305059486,-0.2204394488182219,-0.04262030465096663
-4.0785,0.1741366584948169,-0.2416327256285375,-0.03203722724012713
-4.078,0.04609456020274166,-0.2734226408440109,-0.03203722724012713
-4.0775,0.04609456020261551,-0.284019279249188,0.0208781598141185
-4.077,0.03542438534494258,-0.2628260024388724,0.0208781598141185
-4.0765,0.003413860771923766,-0.2098428104130834,0.0208781598141185
-4.076,-0.03926683865886503,-0.1568596183871595,0.01029508240325012
-4.0755,-0.07127736323188383,-0.1144730647665284,-0.01087107241842888
-4.075,-0.3380317346739499,0.06566978812131802,-0.03203722724012713
-4.0745,-0.9889124009932025,0.5743084315696825,-0.04262030465097626
-4.074,-1.661133417026597,0.9345941373450475,-0.04262030465097626
-4.0735,-2.280003558772191,0.8922075837243778,-0.0637864594726745
-4.073,-2.493407055925649,0.2670059178200679,-0.074369536883514
-4.0725,-1.991908837614759,-0.1356663415768632,-0.05320338206182537
-4.072,-1.180975548430879,-0.09327978795619347,-0.04262030465097626
-4.0715,-0.583445756401194,0.1080563417418046,-0.04262030465097626
-4.071,-0.2099896363815932,0.3199891098454906,-0.04262030465098588
-4.0705,-0.02859666380115328,0.4895353243280153,-0.05320338206182537
-4.07,0.03542438534488435,0.5955017083795933,-0.05320338206182537
-4.0695,0.03542438534491346,0.6590815388107135,-0.0532033820618735
-4.069,0.00341386077189465,0.6802748156210291,-0.106118769116071
-4.0685,-0.02859666380115328,0.6590815388106942,-0.1272849239377692
-4.068,-0.04993701351651855,0.616694985189957,-0.1167018465269105
-4.0675,-0.04993701351651855,0.5425185163538525,-0.106118769116071
-4.067,-0.01792648894347063,0.457745409112513,-0.08495261429437276
-4.0665,0.3661998059335897,0.04447651131029888,-0.074369536883514
-4.066,0.8997085488172365,-0.7078848154559045,-0.0637864594726745
-4.0655,1.027750647109428,-1.42845622700729,-0.05320338206182537
-4.065,1.038420821967101,-2.032464616101284,-0.03203722724014638
-4.0645,1.113112045970889,-1.75695201756748,-0.021454149829278
-4.064,1.081101521397841,-1.205926820498774,-0.021454149829278
-4.0635,0.974399772821112,-0.739674730671831,-0.0320372272401175
-4.063,0.7823366253824946,-0.4429688553266127,-0.03203722724012713
-4.0625,0.5262524287983441,-0.326405832869877,-0.03203722724012713
-4.062,0.2915085819295395,-0.2310360872234568,-0.03203722724012713
-4.0615,0.09944543449100932,-0.2204394488182412,-0.03203722724009826
-4.061,0.0674349099179905,-0.2628260024388724,-0.000287995007579752
-4.0605,0.07810508477567314,-0.2840192792492073,0.0208781598141185
-4.06,0.04609456020257669,-0.2734226408439916,0.02087815981410887
-4.0595,-0.007256314085787988,-0.2204394488182027,0.01029508240326937
-4.059,-0.04993701351651855,-0.1568596183871981,-0.01087107241842888
-4.0585,-0.1566387620932479,-0.02969995752530455,-0.02145414982926837
-4.058,-0.7008176798351597,0.4789386859228479,-0.03203722724012713
-4.0575,-1.415719395299897,1.104140351827727,-0.04262030465097626
-4.057,-2.066600061617946,1.559795803249512,-0.05320338206181575
-4.0565,-2.482736881068161,1.316073119931075,-0.07436953688352363
-4.056,-2.087940411333903,0.6590815388106942,-0.0637864594726745
-4.0555,-1.266336947293087,0.2881991946301715,-0.053203382061835
-4.055,-0.6474668055463777,0.1610395337678635,-0.05320338206181575
-4.0545,-0.2420001609548061,0.2034260873884947,-0.04262030465097626
-4.054,-0.03926683865902028,0.3305857482503882,-0.05320338206181575
-4.0535,0.03542438534494258,0.4895353243281599,-0.05320338206182537
-4.053,0.03542438534494258,0.6484849004055269,-0.05320338206182537
-4.0525,0.01408403562957729,0.775644561267536,-0.07436953688352363
-4.052,-0.007256314085807397,0.8710143069141008,-0.1167018465269201
-4.0515,-0.02859666380115328,0.9345941373450475,-0.1167018465269201
-4.051,-0.03926683865883591,0.9451907757502149,-0.106118769116071
-4.0505,-0.02859666380116298,0.9239974989398994,-0.09553569170523152
-4.05,0.1848068333524996,0.7226613692416989,-0.07436953688352363
-4.0495,0.8463576745288233,0.07626642652648545,-0.0637864594726745
-4.049,1.369196242554797,-0.6443049850242446,-0.053203382061835
-4.0485,1.571929564851243,-1.12115371325729,-0.0320372272401175
-4.048,1.571929564851243,-0.9622041371799229,-0.021454149829278
-4.0475,1.37986641741313,-0.5595318777839267,-0.0320372272401175
-4.047,1.113112045970647,-0.25222936403357,-0.03203722724012713
-4.0465,0.8463576745288233,-0.1038764263613609,-0.03203722724012713
-4.046,0.5582629533716541,-0.07208651114588752,-0.03203722724012713
-4.0455,0.3021787567868339,-0.1462629799821463,-0.04262030465096663
-4.045,0.1101156093487211,-0.2734226408440398,-0.03203722724012713
-4.0445,0.03542438534494258,-0.3793890248957141,-0.01087107241842888
-4.044,0.09944543449102873,-0.4217755785164128,0.0208781598141185
-4.0435,0.08877525963335578,-0.4535654937318862,0.0208781598141185
-4.043,0.03542438534494258,-0.4535654937318862,0.01029508240326937
-4.0425,-0.0179264889434221,-0.4535654937318862,-0.000287995007570126
-4.042,-0.06060718837420119,-0.4111789401112165,-0.01087107241842888
-4.0415,-0.3487019095316325,-0.1568596183871981,-0.03203722724012713
-4.041,-1.042263275280373,0.5001319627325853,-0.03203722724012713
-4.0405,-1.725154466173198,1.114736990232971,-0.04262030465100513
-4.04,-2.280003558772191,1.199510097474233,-0.07436953688352363
-4.0395,-2.344024607918228,0.54251851635445,-0.07436953688352363
-4.039,-1.607782542737563,0.1398462569574322,-0.05320338206181575
-4.0385,-0.9248913518464952,0.07626642652648545,-0.04262030465097626
-4.038,-0.4233931335358671,0.1716361721729056,-0.04262030465097626
-4.0375,-0.1352984123778535,0.3411823866558255,-0.04262030465098588
-4.037,0.00341386077189465,0.5107286011383502,-0.05320338206182537
-4.0365,0.03542438534494258,0.6590815388106942,-0.05320338206182537
-4.036,0.02475421048724053,0.7756445612676035,-0.063786459472713
-4.0355,0.00341386077189465,0.849821030103708,-0.106118769116071
-4.035,-0.02859666380115328,0.8922075837243778,-0.1167018465269201
-4.0345,-0.03926683865882621,0.8922075837243778,-0.1167018465269201
-4.034,-0.02859666380115328,0.8604176685088755,-0.09553569170522189
-4.0335,0.1101156093487211,0.6802748156210291,-0.08495261429437276
-4.033,0.5369226036556385,0.3093924714405063,-0.06378645947269375
-4.0325,0.9210488985327958,-0.2840192792497952,-0.05320338206181575
-4.032,1.134452395686255,-0.9304142219644207,-0.04262030465097626
-4.0315,1.219813794547638,-1.152943628472734,-0.03203722724013675
-4.031,1.198473444832234,-0.941010860369299,-0.03203722724012713
-4.0305,1.070431346540159,-0.6231117082145651,-0.03203722724012713
-4.03,0.8997085488173917,-0.2946159176546734,-0.03203722724012713
-4.0295,0.6436243522326105,-0.1038764263613416,-0.03203722724012713
-4.029,0.3768699807907871,-0.08268314955102604,-0.03203722724012713
-4.0285,0.1741366584948169,-0.1356663415768632,-0.03203722724012713
-4.028,0.04609456020261551,-0.2310360872234279,-0.032037227240079
-4.0275,0.03542438534494258,-0.2946159176543747,0.0208781598141185
-4.027,0.02475421048725994,-0.3687923864905467,0.0208781598141185
-4.0265,0.003413860771914058,-0.4111789401111779,0.0208781598141185
-4.026,-0.02859666380115328,-0.4111789401112165,0.01029508240326937
-4.0255,-0.07127736323188383,-0.400582301706049,-0.000287995007579752
-4.025,-0.209989636381632,-0.2734226408441555,-0.02145414982925875
-4.0245,-0.7434983792663657,0.2987958330353967,-0.03203722724013675
-4.024,-1.26633694729234,0.7332580076468663,-0.04262030465097626
-4.0235,-1.789175515318314,0.6590815388107617,-0.06378645947265525
-4.023,-2.173301810194947,0.05507314971585182,-0.07436953688350438
-4.0225,-1.714484291315011,-0.2734226408440398,-0.05320338206182537
-4.022,-1.063603624996962,-0.2310360872234087,-0.04262030465098588
-4.0215,-0.5407650569696192,-0.02969995752497685,-0.04262030465097626
-4.021,-0.2099896363817582,0.2034260873884947,-0.04262030465097626
-4.0205,-0.03926683865883591,0.4047622170866759,-0.04262030465097626
-4.02,0.02475421048725994,0.5637117931642934,-0.04262030465098588
-4.0195,0.02475421048725994,0.6802748156210291,-0.05320338206182537
-4.019,0.00341386077189465,0.7544512844572011,-0.09553569170522189
-4.0185,-0.01792648894345122,0.8074344764829902,-0.1167018465269009
-4.018,-0.03926683865883591,0.8074344764830383,-0.1167018465269201
-4.0175,-0.03926683865883591,0.7862411996727035,-0.106118769116071
-4.017,0.003413860771855834,0.7014680924314411,-0.08495261429439201
-4.0165,0.3235191065028494,0.3623756634653797,-0.074369536883514
-4.016,0.8463576745288233,-0.326405832869877,-0.0637864594726745
-4.0155,0.8783681991018422,-1.015187329205134,-0.053203382061835
-4.015,0.6756348768059107,-1.492036057438179,-0.0320372272401175
-4.0145,0.6863050516635838,-1.364876396576285,-0.021454149829278
-4.014,0.7503261008096214,-0.8986243067493425,-0.021454149829278
-4.0135,0.7396559259518707,-0.4959520473523535,-0.03203722724012713
-4.013,0.6009436528021226,-0.2734226408440398,-0.03203722724012713
-4.0125,0.408880505363835,-0.1462629799820306,-0.03203722724012713
-4.012,0.2488278824984692,-0.1038764263613995,-0.03203722724012713
-4.0115,0.1101156093487211,-0.1462629799820306,-0.03203722724012713
-4.011,0.1101156093487211,-0.2310360872233701,-0.000287995007579752
-4.0105,0.1741366584947587,-0.2840192792491591,0.03146123722493875
-4.01,0.1314559590640864,-0.3158091944647096,0.0208781598141185
-4.0095,0.05676473506030786,-0.326405832869877,0.01029508240326937
-4.009,-0.007256314085729763,-0.326405832869877,-0.000287995007570126
-4.0085,-0.103287887805349,-0.3052125560591566,-0.02145414982928762
-4.008,-0.5621054066852853,0.1186529801471552,-0.03203722724012713
-4.0075,-1.23432642271868,0.807434476482412,-0.03203722724012713
-4.007,-1.842526389607697,1.369056311956912,-0.04262030465100513
-4.0065,-2.386705307349017,1.369056311956912,-0.07436953688352363
-4.006,-2.418715831922065,0.5743084315693548,-0.07436953688352363
-4.0055,-1.693143941598976,0.07626642652637944,-0.05320338206181575
-4.005,-0.9569018764195432,-0.04029659593035631,-0.04262030465097626
-4.0045,-0.4340633083930936,0.04447651131098315,-0.04262030465097626
-4.004,-0.1246282375201709,0.2140227257938259,-0.04262030465098588
-4.0035,0.01408403562957729,0.3941655786815084,-0.05320338206182537
-4.003,0.04609456020262521,0.5425185163538525,-0.05320338206182537
-4.0025,0.03542438534495228,0.669678177215746,-0.07436953688350438
-4.002,0.00341386077189465,0.7650479228623686,-0.1167018465269201
-4.0015,-0.01792648894347063,0.8074344764830383,-0.1167018465269201
-4.001,-0.02859666380114357,0.8180311148881961,-0.1061187691160806
-4.0005,-0.007256314085574489,0.7756445612672951,-0.09553569170520264
-4,0.2274875327832301,0.5107286011383502,-0.07436953688352363
-3.9995,0.7823366253827275,-0.1356663415768632,-0.0637864594726745
-3.999,1.166462920259302,-0.7820612842920766,-0.05320338206182537
-3.9985,1.401206767128321,-1.280103289334946,-0.03203722724012713
-3.998,1.486568165989782,-1.333086481360783,-0.021454149829278
-3.9975,1.35852606769759,-0.9516074987747555,-0.021454149829278
-3.997,1.145122570543937,-0.5171453241628908,-0.03203722724012713
-3.9965,0.8890383739595538,-0.2204394488182027,-0.03203722724012713
-3.996,0.5582629533713921,-0.07208651114585861,-0.03203722724012713
-3.9955,0.291508581929326,-0.04029659593035631,-0.03203722724012713
-3.995,0.1101156093487211,-0.1038764263613609,-0.03203722724012713
-3.9945,0.01408403562957729,-0.1992461720078678,-0.021454149829278
-3.994,0.03542438534494258,-0.2628260024388724,0.0208781598141185
-3.9935,0.02475421048725994,-0.3052125560595421,0.0208781598141185
-3.993,-0.007256314085787988,-0.326405832869877,0.0208781598141185
-3.9925,-0.03926683865883591,-0.3475991096802118,-0.000287995007579752
-3.992,-0.07127736323188383,-0.3475991096802118,-0.01087107241842888
-3.9915,-0.3487019095316325,-0.1886495336027004,-0.03203722724012713
-3.991,-1.010252750707956,0.3305857482505039,-0.04262030465097626
-3.9905,-1.661133417026597,0.7120647308365314,-0.04262030465097626
-3.99,-2.183971985053047,0.627291623595192,-0.07436953688352363
-3.9895,-2.013249187330125,0.1716361721729923,-0.0637864594726745
-3.989,-1.330357996438436,-0.02969995752518888,-0.05320338206182537
-3.9885,-0.7328282044082075,-0.01910331912002144,-0.04262030465097626
-3.988,-0.3166913849585846,0.08686306493165288,-0.04262030465097626
-3.9875,-0.08194753808956648,0.2352160026039969,-0.05320338206182537
-3.987,0.01408403562957729,0.3729723018711736,-0.05320338206182537
-3.9865,0.03542438534494258,0.5107286011383502,-0.05320338206182537
-3.986,0.02475421048725994,0.6060983467848571,-0.0637864594726745
-3.9855,-0.007256314085787988,0.6908714540261965,-0.106118769116071
-3.985,-0.02859666380115328,0.7332580076468663,-0.1167018465269201
-3.9845,-0.03926683865883591,0.7438546460520338,-0.1167018465269201
-3.984,-0.03926683865883591,0.7226613692416989,-0.09553569170522189
-3.9835,0.02475421048725994,0.6590815388106942,-0.08495261429437276
-3.983,0.5155822539406614,0.1928294489833272,-0.0637864594726745
-3.9825,1.059761171682476,-0.5383386009732256,-0.05320338206182537
-3.982,1.219813794547716,-1.163540266878104,-0.04262030465097626
-3.9815,1.262494493978446,-1.364876396576285,-0.021454149829278
-3.981,1.230483969405398,-1.046977244421262,-0.021454149829278
-3.9805,1.102441871113207,-0.5171453241628908,-0.021454149829278
-3.98,0.9317190733902845,-0.1250697031716958,-0.03203722724012713
-3.9795,0.6863050516635838,0.03387987290581572,-0.03203722724012713
-3.979,0.4195506802215176,0.04447651131098315,-0.04262030465097626
-3.9785,0.1848068333524996,-0.01910331912002144,-0.03203722724012713
-3.978,0.04609456020262521,-0.1144730647665284,-0.03203722724012713
-3.9775,0.09944543449103843,-0.1674562567923655,0.01029508240326937
-3.977,0.1314559590640864,-0.1992461720078678,0.0208781598141185
-3.9765,0.08877525963335578,-0.2416327256285375,0.0208781598141185
-3.976,0.02475421048725994,-0.2734226408440398,0.01029508240326937
-3.9755,-0.03926683865883591,-0.2840192792492073,-0.01087107241842888
-3.975,-0.1779791118087102,-0.1886495336027004,-0.021454149829278
-3.9745,-0.7328282044082075,0.3517790250608387,-0.03203722724012713
-3.974,-1.479740444445993,1.019367244586387,-0.04262030465097626
-3.9735,-2.130621110764634,1.485619334413754,-0.05320338206182537
-3.973,-2.472066706210478,1.125333628638062,-0.07436953688352363
-3.9725,-2.258663209056825,0.3199891098453364,-0.0637864594726745
-3.972,-1.426389570157579,-0.05089323433552374,-0.04262030465097626
-3.9715,-0.754168554123573,-0.08268314955102604,-0.04262030465097626
-3.971,-0.3060212101009019,0.03387987290581572,-0.04262030465097626
-3.9705,-0.06060718837420119,0.2140227257936621,-0.04262030465097626
-3.97,0.03542438534494258,0.3941655786815084,-0.04262030465097626
-3.9695,0.04609456020262521,0.5425185163538525,-0.05320338206182537
-3.969,0.02475421048725994,0.6590815388106942,-0.08495261429437276
-3.9685,0.00341386077189465,0.7332580076468663,-0.1167018465269201
-3.968,-0.02859666380115328,0.775644561267536,-0.1167018465269201
-3.9675,-0.02859666380115328,0.775644561267536,-0.106118769116071
-3.967,-0.007256314085787988,0.7438546460520338,-0.08495261429437276
-3.9665,0.2381577076409128,0.4895353243280153,-0.07436953688352363
-3.966,0.6863050516635838,-0.07208651114585861,-0.05320338206182537
-3.9655,0.6649647019482183,-0.6231117082145651,-0.05320338206182537
-3.965,0.4408910299368829,-0.9728007755850904,-0.03203722724012713
-3.9645,0.5049120790829789,-0.8562377531282487,-0.03203722724012713
-3.964,0.6649647019482183,-0.8138511995075789,-0.03203722724012713
-3.9635,0.7503261008096795,-0.5489352393783931,-0.03203722724012713
-3.963,0.707645401378949,-0.3052125560595421,-0.03203722724012713
-3.9625,0.5262524287983441,-0.1674562567923655,-0.03203722724012713
-3.962,0.3128489316446912,-0.1144730647665284,-0.03203722724012713
-3.9615,0.142126133921769,-0.1356663415768632,-0.03203722724012713
-3.961,0.1207857842064037,-0.2098428104130352,-0.000287995007579752
-3.9605,0.2594980573562781,-0.2204394488182027,0.0208781598141185
-3.96,0.2274875327832301,-0.252229364033705,0.0208781598141185
-3.9595,0.1314559590640864,-0.3052125560595421,0.01029508240326937
-3.959,0.03542438534494258,-0.3370024712750445,-0.000287995007579752
-3.9585,-0.08194753808956648,-0.3158091944647096,-0.021454149829278
-3.958,-0.4447334832507763,0.06566978812131802,-0.03203722724012713
-3.9575,-1.084943974711735,0.6908714540261965,-0.04262030465097626
-3.957,-1.607782542738184,1.029963882991555,-0.05320338206182537
-3.9565,-1.970568487899394,0.7968378380778709,-0.07436953688352363
-3.956,-1.703814116457328,0.2776025562246667,-0.0637864594726745
-3.9555,-1.116954499284783,0.04447651131098315,-0.05320338206182537
-3.955,-0.5941159312583333,0.01268659609548085,-0.04262030465097626
-3.9545,-0.2420001609548061,0.09745970333682032,-0.04262030465097626
-3.954,-0.04993701351651855,0.2246193641988295,-0.05320338206182537
-3.9535,0.02475421048725994,0.3729723018711736,-0.05320338206182537
