Class_9_Think_Grab_one_hand_movement/Class_9_Think_Right_hand_Grab_UZ_9.csv

#Digilent WaveForms Oscilloscope Acquisition
#Device Name: EExplorer
#Serial Number: SN:210151A2B84A
#Date Time: 2020-12-21 13:41:08.494
#Sample rate: 2000Hz
#Samples: 16384
#Trigger: Source: Channel 1 Type: Edge Condition: Rising Level: 0 V Hyst.: Auto HoldOff: 0 s
#Channel 1: Range: 1 V/div Offset: 0 V
#Channel 2: Range: 1 V/div Offset: 0 V

Time (s),Channel 1 (V),Channel 2 (V)
-4.0960000000000001,0.067434909917990504,-1.2165234589039415
-4.0955000000000004,0.40888050536352449,-0.82444783791310294
-4.0949999999999998,0.70764540137907517,-0.17805289519703177
-4.0945,0.84635767452882327,0.37297230187117358
-4.0940000000000003,0.79300680024045855,0.68027481562074965
-4.0934999999999997,0.63295417737501525,0.74385464605197593
-4.093,0.4622313796522482,0.68027481562102909
-4.0925000000000002,0.35552963107551883,0.52132523954366217
-4.0919999999999996,0.4195506802214497,0.28819919462975702
-4.0914999999999999,0.34485945621773917,0.20342608738849466
-4.0910000000000002,0.23815770764091276,0.17163617217299235
-4.0904999999999996,0.14212613392171075,0.11865298014708772
-4.0899999999999999,0.078105084775673142,0.044476511310983152
-4.0895000000000001,-0.30602121010090194,-0.25222936403370499
-4.0890000000000004,-1.0422632752803347,-0.83504447631738377
-4.0884999999999998,-1.7358246410303759,-1.4072629501969551
-4.0880000000000001,-2.3120140833452387,-1.9053049552398247
-4.0875000000000004,-2.5360877553563701,-2.1278343617481381
-4.0869999999999997,-2.3333544330597884,-1.8523217632131874
-4.0865,-1.437059745015262,-0.97280077558509037
-4.0860000000000003,-0.71148785469350218,-0.23103608722404478
-4.0854999999999997,-0.22065981123919823,0.26700591781974015
-4.085,0.046094560202625215,0.53192187794868506
-4.0845000000000002,0.15279630877935457,0.62729162359510526
-4.0839999999999996,0.17413665849478779,0.63788826200032089
-4.0834999999999999,0.14212613392176898,0.59550170837968963
-4.0830000000000002,0.11011560934872107,0.54251851635385251
-4.0824999999999996,0.099445434491048132,0.51072860113834051
-4.0819999999999999,0.11011560934872107,0.50013196273318283
-4.0815000000000001,0.24882788249859539,0.61669498519002452
-4.0810000000000004,0.76099627566689643,1.0405605213963365
-4.0804999999999998,0.93171907339028448,1.1359302670432285
-4.0800000000000001,0.34485945621773917,0.39416557868150842
-4.0795000000000003,-0.14596858723521589,-0.5383386009723774
-4.0789999999999997,0.14212613392212806,-1.1105570748519682
-4.0785,0.53692260365602662,-0.78206128429207655
-4.0780000000000003,0.75032610080948547,-0.17805289519808232
-4.0774999999999997,0.77166645052493799,0.21402272579382592
-4.077,0.65429452709053582,0.39416557868150842
-4.0765000000000002,0.47290155451009586,0.44714877070729742
-4.0759999999999996,0.31284893164469124,0.4895353243279093
-4.0754999999999999,0.31284893164469124,0.37297230187117358
-4.0750000000000002,0.27016823221396069,0.38356894027634103
-4.0744999999999996,0.19547700821012395,0.50013196273329852
-4.0739999999999998,0.13145595906408636,0.62729162359519197
-4.0735000000000001,0.078105084775673142,0.72266136924169888
-4.0730000000000004,-0.02859666380105623,0.83922439169843455
-4.0724999999999998,-0.54076505696992005,1.1147369902328941
-4.0720000000000001,-1.1169544992847826,0.64848490040552687
-4.0715000000000003,-1.4797404444456626,-0.20984281041225461
-4.0709999999999997,-1.9065474387536183,-0.23103608722285932
-4.0705,-2.2586632090568255,0.33058574825050385
-4.0700000000000003,-1.7038141164578327,0.48953532432787078
-4.0694999999999997,-0.99958257584975929,0.40476221708656024
-4.069,-0.43406330839309365,0.27760255622466667
-4.0685000000000002,-0.08194753808956648,0.19282944898332721
-4.0679999999999996,0.099445434491086948,0.17163617217302127
-4.0674999999999999,0.15279630877945163,0.20342608738849466
-4.0670000000000002,0.15279630877945163,0.26700591781949923
-4.0664999999999996,0.13145595906406696,0.37297230187128921
-4.0659999999999998,0.11011560934872107,0.50013196273318283
-4.0655000000000001,0.11011560934872107,0.62729162359519197
-4.0650000000000004,0.16346648363708577,0.7862411996725589
-4.0644999999999998,0.4622313796522482,0.87101430691404291
-4.0640000000000001,1.0384208219671107,0.69087145402619654
-4.0635000000000003,0.69697522652157684,0.06566978812188673
-4.0629999999999997,-0.049937013516479736,-0.3793890248954539
-4.0625,-0.0072563140857879876,-0.093279787956193475
-4.0620000000000003,0.35552963107509183,0.29879583303464496
-4.0614999999999997,0.65429452709065228,0.5319218779488103
-4.0609999999999999,0.78233662538272752,0.66967817721586165
-4.0605000000000002,0.71831557623663156,0.73325800764686633
-4.0599999999999996,0.53692260365588107,0.68027481562099057
-4.0594999999999999,0.3768699807907871,0.63788826200035942
-4.0590000000000002,0.4622313796522482,0.38356894027634103
-4.0585000000000004,0.60094365280199646,0.2034260873886585
-4.0579999999999998,0.50491207908297886,0.27760255622466667
-4.0575000000000001,0.34485945621773917,0.42595549389701071
-4.0570000000000004,0.19547700821031805,0.53192187794858869
-4.0564999999999998,0.046094560202625215,0.57430843156935485
-4.056,-0.44473348325077627,0.17163617217299235
-4.0555000000000003,-1.1703053735725359,-0.57012851618805327
-4.0549999999999997,-1.6611334170270147,-1.2695066509302699
-4.0545,-2.1199509359069508,-1.8099352095933177
-4.0540000000000003,-2.418715831921793,-2.096044446532578
-4.0534999999999997,-1.7785053404604174,-1.5132293342478971
-4.0529999999999999,-1.0209229255656389,-0.70788481545590454
-4.0525000000000002,-0.44473348325077627,-0.10387642636136091
-4.0519999999999996,-0.071277363231718849,0.26700591781964378
-4.0514999999999999,0.11011560934872107,0.42595549389701071
-4.0510000000000002,0.16346648363713429,0.45774540911251305
-4.0505000000000004,0.16346648363713429,0.42595549389703963
-4.0499999999999998,0.13145595906408636,0.37297230187117358
-4.0495000000000001,0.11011560934872107,0.34118238665567124
-4.0490000000000004,0.099445434491048132,0.31998910984535567
-4.0484999999999998,0.13145595906410576,0.34118238665562306
-4.048,0.15279630877945163,0.28819919462983412
-4.0475000000000003,0.41955068022127506,-0.22043944881774002
-4.0469999999999997,0.6969752265210819,-0.89862430674941951
-4.0465,0.49424190422529612,-1.4496495038176249
-4.0460000000000003,0.61161382765969829,-1.7357587407568853
-4.0454999999999997,0.84635767452893973,-1.4178595886015057
-4.0449999999999999,0.97439977282101498,-0.73967473067140688
-4.0445000000000002,0.96372959796333246,-0.11447306476652835
-4.0439999999999996,0.82501732481326395,0.27760255622484981
-4.0434999999999999,0.6116138276598051,0.47893868592284788
-4.0430000000000001,0.41955068022151765,0.53192187794868506
-4.0425000000000004,0.35552963107548002,0.48953532432805391
-4.0419999999999998,0.54759277851370936,0.36237566346600614
-4.0415000000000001,0.50491207908297886,0.43655213230217815
-4.0410000000000004,0.36619980593323065,0.53192187794859835
-4.0404999999999998,0.22748753278312336,0.60609834678488594
-4.04,0.11011560934872107,0.63788826200035942
-4.0395000000000003,-0.24200016095448584,0.41535885549204571
-4.0389999999999997,-0.9142211769893559,-0.29461591765503964
-4.0385,-1.5117509690190405,-1.0257839676109275
-4.0380000000000003,-2.0772702364757061,-1.5662125262739752
-4.0374999999999996,-2.5040772307833516,-1.9476915088603013
-4.0369999999999999,-2.3120140833452387,-1.7357587407571455
-4.0365000000000002,-1.4263895701575793,-0.9304142219644207
-4.0359999999999996,-0.71148785469239584,-0.23103608722294605
-4.0354999999999999,-0.22065981123944084,0.23521600260399694
-4.0350000000000001,0.046094560202625215,0.46834204751768049
-4.0345000000000004,0.15279630877935457,0.54251851635378501
-4.0339999999999998,0.17413665849481691,0.52132523954351762
-4.0335000000000001,0.15279630877945163,0.45774540911251305
-4.0330000000000004,0.12078578420643282,0.39416557868156626
-4.0324999999999998,0.099445434491048132,0.34118238665565198
-4.032,0.11011560934872107,0.31998910984533641
-4.0315000000000003,0.17413665849475868,0.34118238665565198
-4.0309999999999997,0.51558225394099133,0.13984625695700814
-4.0305,0.87836819910187125,-0.38998566330088158
-4.0300000000000002,0.37686998079124323,-1.0151873292051914
-4.0294999999999996,0.014084035629810202,-1.3966663117914793
-4.0289999999999999,0.27016823221396069,-1.0575738828264298
-4.0285000000000002,0.59027347794443985,-0.47475877054222104
-4.0279999999999996,0.79300680024043912,-0.0085066807145552474
-4.0274999999999999,0.82501732481345802,0.31998910984533641
-4.0270000000000001,0.70764540137894905,0.43655213230217815
-4.0265000000000004,0.53692260365618183,0.42595549389702037
-4.0259999999999998,0.3768699807907871,0.37297230187117358
-4.0255000000000001,0.45156120479456557,0.16103953376782493
-4.0250000000000004,0.43022085507921976,0.12924961855235154
-4.0244999999999997,0.31284893164459421,0.23521600260412223
-4.024,0.20614718306786484,0.37297230187117358
-4.0235000000000003,0.11011560934880842,0.4895353243279093
-4.0229999999999997,-0.060607188374696121,0.5213252395432767
-4.0225,-0.6047861061160158,0.25640927941433178
-4.0220000000000002,-1.2983474718647567,-0.37938902489513593
-4.0214999999999996,-1.8638667393229753,-1.0045906908010069
-4.0209999999999999,-2.3120140833452387,-1.4602461422227924
-4.0205000000000002,-2.472066706210478,-1.6191957183003036
-4.0199999999999996,-1.7571649907450329,-1.0575738828257553
-4.0194999999999999,-0.97824222613490841,-0.31580919446470956
-4.0190000000000001,-0.39138260896236304,0.26700591781949923
-4.0185000000000004,-0.039266838659156145,0.61669498518970656
-4.0179999999999998,0.12078578420640371,0.76504792286236856
-4.0175000000000001,0.17413665849481691,0.775644561267536
-4.0170000000000003,0.163466483637144,0.72266136924174706
-4.0164999999999997,0.14212613392173987,0.64848490040545936
-4.016,0.11011560934872107,0.57430843156935485
-4.0155000000000003,0.11011560934872107,0.51072860113840801
-4.0149999999999997,0.13145595906431926,0.45774540911240702
-4.0145,0.38754015564846972,0.34118238665567124
-4.0140000000000002,0.97439977282048118,-0.072086511145482757
-4.0134999999999996,0.95305942310529068,-0.73967473067185985
-4.0129999999999999,0.55826295337139209,-1.2377167357142764
-4.0125000000000002,0.80367697509809277,-1.523825972653797
-4.0119999999999996,1.0811015213979094,-1.2059268204981959
-4.0114999999999998,1.1557927454016199,-0.57012851618872795
-4.0110000000000001,1.0704313465401587,-0.10387642636136091
-4.0105000000000004,0.8463576745290271,0.18223281057789953
-4.0099999999999998,0.60094365280212259,0.30939247144016896
-4.0095000000000001,0.38754015564846972,0.29879583303500157
-4.0090000000000003,0.38754015564846972,0.20342608738858139
-4.0084999999999997,0.43022085507912267,0.10805634174201666
-4.008,0.34485945621773917,0.13984625695749003
-4.0075000000000003,0.2381577076410098,0.20342608738843682
-4.0069999999999997,0.14212613392171075,0.26700591781955707
-4.0065,0.078105084775673142,0.33058574825050385
-4.0060000000000002,-0.15663876209334496,0.2246193641988295
-4.0054999999999996,-0.76483872898185712,-0.26282600243946991
-4.0049999999999999,-1.4263895701575793,-0.91981758355925325
-4.0045000000000002,-2.0772702364762203,-1.4602461422227924
-4.0039999999999996,-2.5147474056408208,-1.7993385711877647
-4.0034999999999998,-2.0879404113339031,-1.3754730349814528
-4.0030000000000001,-1.2236562478616091,-0.5807251545938954
-4.0025000000000004,-0.56210540668588693,0.097459703336203463
-4.0019999999999998,-0.13529841237797968,0.53192187794868506
-4.0015000000000001,0.08877525963335578,0.75445128445720111
-4.0010000000000003,0.16346648363706634,0.82862775329330562
-4.0004999999999997,0.17413665849478779,0.80743447648299016
-4,0.14212613392176898,0.75445128445720111
-3.9994999999999998,0.12078578420640371,0.69087145402619654
-3.9990000000000001,0.11011560934872107,0.63788826200035942
-3.9984999999999999,0.12078578420640371,0.59550170837968963
-3.9980000000000002,0.18480683335249956,0.55311515475901996
-3.9975000000000001,0.50491207908297886,0.12924961855232261
-3.9969999999999999,0.6116138276598051,-0.53833860097322561
-3.9965000000000002,0.024754210487259936,-1.1953301820936066
-3.996,0.046094560202625215,-1.6615822719209734
-3.9954999999999998,0.45156120479456557,-1.3012965661452807
-3.9950000000000001,0.76099627566736228,-0.60191843140423029
-3.9944999999999999,0.8997085488172365,-0.072086511145858609
-3.9940000000000002,0.857027849386506,0.2246193641988295
-3.9935,0.69697522652126631,0.29879583303500157
-3.9929999999999999,0.50491207908297886,0.2246193641988295
-3.9925000000000002,0.3982103305061524,0.20342608738849466
-3.992,0.49424190422529612,0.21402272579366208
-3.9914999999999998,0.43022085507920033,0.21402272579366208
-3.9910000000000001,0.30217875678700862,0.21402272579366208
-3.9904999999999999,0.18480683335249956,0.23521600260399694
-3.9900000000000002,0.099445434491038431,0.27760255622466667
-3.9895,-0.18864928666639288,0.34118238665567124
-3.9889999999999999,-0.87154047755808195,0.11865298014715518
-3.9885000000000002,-1.5117509690190405,-0.51714532416289083
-3.988,-1.9812386627570766,-1.131750351662602
-3.9874999999999998,-2.4293860067797475,-1.5450192494641319
-3.9870000000000001,-2.1092807610492685,-1.3542797581711179
-3.9864999999999999,-1.2876772970077051,-0.62311170821456507
-3.9860000000000002,-0.62612645583138127,0.097459703336820316
-3.9855,-0.17797911180871023,0.60609834678485708
-3.9849999999999999,0.067434909917990504,0.89220758372437781
-3.9845000000000002,0.16346648363713429,0.99817396777605205
-3.984,0.17413665849481691,1.0087706061812196
-3.9834999999999998,0.15279630877945163,0.95578741415538238
-3.9830000000000001,0.12078578420640371,0.89220758372437781
-3.9824999999999999,0.11011560934872107,0.81803111488820579
-3.9820000000000002,0.12078578420640371,0.775644561267536
-3.9815,0.17413665849481691,0.775644561267536
-3.9809999999999999,0.63295417737517057,1.0617537982070568
-3.9805000000000001,1.1878032699746677,1.0617537982070568
-3.98,1.0384208219671107,0.26700591781949923
-3.9794999999999998,0.67563487680590106,-0.48535540894738849
-3.9790000000000001,0.65429452709053582,-0.60191843140423029
-3.9784999999999999,0.75032610080967954,-0.37938902489571413
-3.9780000000000002,0.79300680024041004,-0.072086511145858609
-3.9775,0.75032610080967954,0.086863064931652884
-3.9769999999999999,0.6116138276598051,0.086863064931652884
-3.9765000000000001,0.44089102993688295,0.012686596095480854
-3.976,0.31284893164469124,-0.0085066807148540119
-3.9754999999999998,0.51558225394066137,-0.17805289519753292
-3.9750000000000001,0.59027347794443985,-0.17805289519753292
-3.9744999999999999,0.4622313796522482,0.023283234500648287
-3.9740000000000002,0.30217875678700862,0.24581264100916439
-3.9735,0.17413665849481691,0.43655213230217815
-3.9729999999999999,0.024754210487259936,0.5637117931641874
-3.9725000000000001,-0.48741418268150688,0.69087145402619654
-3.972,-1.0742737998540521,0.25640927941433178
-3.9714999999999998,-1.6291228924535495,-0.47475877054222104
-3.9710000000000001,-2.2479930341991428,-1.0787671596367647
-3.9704999999999999,-2.365364957633652,-1.3012965661452807
-3.9700000000000002,-1.5971123678805015,-0.81385119950757889
-3.9695,-0.86087030270039921,-0.14626297998203064
-3.9689999999999999,-0.31669138495858457,0.37297230187117358
-3.9685000000000001,-0.0072563140857879876,0.68027481562102909
-3.968,0.14212613392176898,0.80743447648303834
-3.9674999999999998,0.17413665849481691,0.80743447648303834
-3.9670000000000001,0.16346648363713429,0.75445128445720111
-3.9664999999999999,0.13145595906408636,0.66967817721586165
-3.9660000000000002,0.11011560934872107,0.58490506997452218
-3.9655,0.099445434491038431,0.52132523954351762
-3.9649999999999999,0.13145595906408636,0.46834204751768049
-3.9645000000000001,0.38754015564846972,0.51072860113835017
-3.964,0.80367697509809277,0.24581264100916439
-3.9634999999999998,0.36619980593310447,-0.4641621321370536
-3.9630000000000001,-0.27401068552785401,-1.1529436284729369
-3.9624999999999999,-0.14596858723566233,-1.333086481360783
-3.9620000000000002,0.32351910650237387,-0.77146464588690922
-3.9615,0.6863050516635838,-0.27342264084403983
-3.9609999999999999,0.84635767452882327,0.0020899576903134209
-3.9605000000000001,0.81434714995577528,0.13984625695749003
-3.96,0.65429452709053582,0.19282944898332721
-3.9594999999999998,0.44089102993688295,0.18223281057815977
-3.9590000000000001,0.45156120479456557,0.097459703336820316
-3.9584999999999999,0.53692260365602662,-0.0085066807148540119
-3.9580000000000002,0.44089102993688295,0.023283234500648287
-3.9575,0.29150858192932599,0.12924961855232261
-3.9569999999999999,0.17413665849481691,0.26700591781949923
-3.9565000000000001,0.08877525963335578,0.39416557868150842
-3.956,-0.26334051067017139,0.42595549389701071
-3.9554999999999998,-1.0102527507079564,0.16103953376782493
-3.9550000000000001,-1.7571649907457412,-0.22043944881820265
-3.9544999999999999,-2.4187158319220647,-0.75027136907657432
-3.9540000000000002,-2.5360877553565739,-1.1953301820936066
-3.9535,-2.2800035587721905,-1.1105570748522671
-3.9529999999999998,-1.3516983461538008,-0.50654868575772338
-3.9525000000000001,-0.62612645583138127,0.11865298014715518
-3.952,-0.15663876209334496,0.55311515475901996
-3.9514999999999998,0.08877525963335578,0.78624119967270345
-3.9510000000000001,0.17413665849481691,0.87101430691404291
-3.9504999999999999,0.18480683335249956,0.86041766850887547
-3.9500000000000002,0.16346648363713429,0.7968378380778709
-3.9495,0.13145595906408636,0.72266136924169888
-3.9489999999999998,0.12078578420640371,0.6590815388106942
-3.9485000000000001,0.13145595906408636,0.59550170837968963
-3.948,0.21681735792554749,0.54251851635385251
-3.9474999999999998,0.6863050516635838,0.19282944898332721
-3.9470000000000001,0.86769802424418851,-0.4641621321370536
-3.9464999999999999,0.3768699807907871,-1.0999604364470996
-3.9460000000000002,0.21681735792554749,-1.1529436284729369
-3.9455,0.47290155450993088,-0.64430498502489997
-3.9449999999999998,0.71831557623663156,-0.22043944881820265
-3.9445000000000001,0.83568749967114075,0.023283234500648287
-3.944,0.80367697509809277,0.13984625695749003
-3.9434999999999998,0.63295417737517057,0.16103953376782493
-3.9430000000000001,0.45156120479456557,0.13984625695749003
-3.9424999999999999,0.35552963107542179,0.055073149716150585
-3.9420000000000002,0.49424190422529612,-0.14626297998203064
-3.9415,0.4622313796522482,-0.093279787956193475
-3.9409999999999998,0.33418928136005654,0.065669788121318018
-3.9405000000000001,0.21681735792554749,0.23521600260399694
-3.9399999999999999,0.11011560934872107,0.38356894027634103
-3.9394999999999998,-0.20998963638175816,0.2246193641988295
-3.9390000000000001,-0.88221065241576446,-0.41117894011121647
-3.9384999999999999,-1.4797404444459925,-1.0893637980419322
-3.9380000000000002,-1.8425263896072024,-1.4602461422227924
-3.9375,-2.1092807610492685,-1.3648763965762853
-3.9369999999999998,-2.0025790124724421,-1.1635402668781043
-3.9365000000000001,-1.3196878215807528,-0.55953187778356051
-3.9359999999999999,-0.67947733011979428,0.044476511310983152
-3.9355000000000002,-0.22065981123944084,0.48953532432801533
-3.9350000000000001,0.035424385344942577,0.72266136924169888
-3.9344999999999999,0.15279630877945163,0.80743447648303834
-3.9340000000000002,0.17413665849481691,0.7968378380778709
-3.9335,0.16346648363713429,0.74385464605203377
-3.9329999999999998,0.13145595906408636,0.68027481562102909
-3.9325000000000001,0.12078578420640371,0.60609834678485708
-3.9319999999999999,0.14212613392176898,0.59550170837968963
-3.9315000000000002,0.27016823221396069,0.66967817721586165
-3.931,0.47290155450993088,0.59550170837968963
-3.9304999999999999,0.84635767452882327,0.097459703336820316
-3.9300000000000002,0.57960330308675734,-0.65490162343006741
-3.9295,0.17413665849481691,-1.0681705212315973
-3.9289999999999998,0.43022085507920033,-0.71848145386107198
-3.9285000000000001,0.73965592595199681,-0.12506970317169577
-3.9279999999999999,0.91037872367491923,0.24581264100916439
