Class_9_Think_Grab_one_hand_movement/Class_9_Think_Right_hand_Grab_Suko_10.csv

#Digilent WaveForms Oscilloscope Acquisition
#Device Name: EExplorer
#Serial Number: SN:210151A2B84A
#Date Time: 2021-02-04 11:10:04.247
#Sample rate: 2000Hz
#Samples: 16384
#Trigger: Source: Channel 1 Type: Edge Condition: Rising Level: 0 V Hyst.: Auto HoldOff: 0 s
#Channel 1: Range: 1 V/div Offset: 0 V Attenuation: 1 X
#Channel 2: Range: 1 V/div Offset: 0 V Attenuation: 1 X
#Power Supplies: ON
#Fixed Supply: ON
#Voltage: 3.3 V Readback: 3.328 V
#Positive Supply: ON
#Voltage: 3.7 V Readback: 3.72 V
#Current: 40 mA Readback: 19 mA
#Negative Supply: ON
#Voltage: -3.7 V Readback: -3.345 V
#Current: -40 mA Readback: -8 mA
#Reference 1: ON
#Voltage: 0 V
#Reference 2: ON
#Voltage: 0 V

Time (s),Channel 1 (V),Channel 2 (V)
-4.096,-0.3380317346739499,-0.2204394488182027
-4.0955,-0.5407650569697356,-0.6019184314038833
-4.095,-0.4874141826811866,-0.6443049850248711
-4.0945,-0.1352984123779797,-0.6125150698093976
-4.094,0.2061471830675543,-0.5277419625681354
-4.0935,0.3875401556484697,-0.2416327256281809
-4.093,0.3875401556484697,0.1504428953626575
-4.0925,0.3128489316447592,0.5107286011380225
-4.092,0.2381577076408642,0.7438546460521205
-4.0915,0.1848068333524996,0.8392243916985406
-4.091,0.3555296310754218,0.9769806909657173
-4.0905,0.4408910299368247,0.9769806909655437
-4.09,0.3768699807907871,0.7862411996727035
-4.0895,0.2701682322139607,0.55311515475902
-4.089,0.1741366584949043,0.3199891098455484
-4.0885,0.1634664836371343,0.2140227257936621
-4.088,0.408880505363835,0.6166949851900245
-4.0875,0.1421261339220116,0.8392243916983382
-4.087,-0.4340633083937633,0.1716361721726357
-4.0865,-1.170305373573196,-0.2204394488182027
-4.086,-1.575772018164767,0.1822328105777936
-4.0855,-1.298347471864931,0.2881991946297088
-4.085,-0.7968492535543035,0.1504428953626575
-4.0845,-0.370042259247386,-0.01910331911986723
-4.084,-0.08194753808944032,-0.1356663415769017
-4.0835,0.05676473506030786,-0.1780528951975329
-4.083,0.1101156093487211,-0.1674562567923655
-4.0825,0.1101156093487017,-0.1038764263612934
-4.082,0.08877525963335578,-0.02969995752518888
-4.0815,0.05676473506030786,0.06566978812131802
-4.081,0.04609456020263492,0.1610395337677382
-4.0805,0.03542438534494258,0.2458126410091644
-4.08,-0.07127736323188383,0.13984625695749
-4.0795,-0.3913826089620719,-0.4005823017055576
-4.079,-0.6261264558313037,-0.8562377531284029
-4.0785,-0.5407650569699201,-1.025783967610927
-4.078,0.08877525963278321,-1.237716735714084
-4.0775,0.5902734779446243,-1.269506650929576
-4.077,0.79300680024041,-1.046977244421262
-4.0765,0.7396559259520453,-0.5383386009736882
-4.076,0.5582629533712175,0.07626642652687095
-4.0755,0.3661998059331045,0.5001319627331828
-4.075,0.2274875327832301,0.701468092431364
-4.0745,0.2915085819293551,0.8604176685088561
-4.074,0.3235191065023739,0.8392243916985406
-4.0735,0.2701682322139607,0.6696781772158616
-4.073,0.2061471830679231,0.447148770707548
-4.0725,0.142126133921769,0.2352160026039969
-4.072,0.1314559590640864,0.08686306493165288
-4.0715,0.2168173579254699,0.4153588554915445
-4.071,-0.06060718837460878,0.7014680924308435
-4.0705,-0.5087545323968721,0.1292496185523226
-4.07,-0.8822106524154247,-0.1568596183869379
-4.0695,-1.44772991987309,0.3835689402767072
-4.069,-1.607782542738184,0.7862411996727035
-4.0685,-1.180975548430879,0.5955017083796896
-4.068,-0.6688071552617527,0.2246193641985693
-4.0675,-0.274010685527854,-0.06148987274069118
-4.067,-0.02859666380115328,-0.2204394488182027
-4.0665,0.0887752596333849,-0.2416327256284797
-4.066,0.1207857842064037,-0.1780528951975329
-4.0655,0.1101156093487211,-0.06148987274069118
-4.065,0.07810508477570226,0.07626642652636018
-4.0645,0.05676473506030786,0.2140227257936621
-4.064,0.03542438534494258,0.3517790250608387
-4.0635,0.003413860771923766,0.4259554938969433
-4.063,-0.209989636381894,0.2140227257934501
-4.0625,-0.3593720843893152,-0.01910331912002144
-4.062,-0.6581369804041572,-0.4323722169211754
-4.0615,-0.6261264558309834,-0.8350444763180102
-4.061,-0.1886492866663929,-0.9410108603695881
-4.0605,0.2061471830678648,-0.7502713690765743
-4.06,0.3875401556484697,-0.3158091944642373
-4.0595,0.3875401556484697,0.2034260873884947
-4.059,0.3235191065023739,0.5955017083796896
-4.0585,0.2381577076409904,0.7756445612673721
-4.058,0.2701682322139607,0.8922075837243778
-4.0575,0.5475927785137094,1.157123543853563
-4.057,0.6222840025174199,1.082947075017459
-4.0565,0.5049120790829789,0.7438546460520338
-4.056,0.3555296310754218,0.3729723018711736
-4.0555,0.2381577076410195,0.05507314971643967
-4.055,0.2061471830679522,-0.08268314955068873
-4.0545,0.3021787567870086,0.2881991946298341
-4.054,-0.1779791118082735,0.1928294489834139
-4.0535,-0.7328282044087219,-0.3264058328696072
-4.053,-1.298347471865388,-0.02969995752518888
-4.0525,-1.778505340461106,0.6590815388106942
-4.052,-1.543761493591574,0.7756445612672566
-4.0515,-0.9782422261349084,0.4683420475176805
-4.051,-0.4767440078238243,0.1186529801471552
-4.0505,-0.1352984123782902,-0.1144730647663163
-4.05,0.05676473506030786,-0.2098428104130352
-4.0495,0.1207857842064037,-0.1886495336027004
-4.049,0.1314559590640766,-0.09327978795628021
-4.0485,0.09944543449100932,0.02328323450077358
-4.048,0.0674349099179905,0.1610395337678249
-4.0475,0.05676473506031757,0.2987958330348763
-4.047,0.03542438534463203,0.4047622170864831
-4.0465,-0.3060212101009019,0.1928294489833272
-4.046,-0.6367966306887629,-0.2204394488178268
-4.0455,-0.8395299529848301,-0.6231117082149217
-4.045,-0.6154562809736985,-1.01518732920576
-4.0445,0.1207857842064037,-1.216523458903942
-4.044,0.6009436528022585,-1.099960436446733
-4.0435,0.7503261008096795,-0.6972881770507372
-4.043,0.6756348768059011,-0.1356663415768632
-4.0425,0.4942419042254611,0.4153588554913422
-4.042,0.3341892813600565,0.7332580076468663
-4.0415,0.2701682322139607,0.8604176685088755
-4.041,0.4088805053637089,0.9663840525604535
-4.0405,0.3982103305060747,0.7968378380776107
-4.04,0.3128489316446912,0.5107286011383502
-4.0395,0.2168173579256348,0.2352160026042475
-4.039,0.1421261339217884,0.002089957690207408
-4.0385,0.1634664836371343,-0.1144730647665284
-4.038,0.4729015545096494,0.3199891098449413
-4.0375,0.2594980573557928,0.7650479228619541
-4.037,-0.274010685527854,0.309392471440169
-4.0365,-0.8822106524157645,0.06566978812131802
-4.036,-1.074273799853819,0.1928294489832308
-4.0355,-0.8181896032696687,0.08686306493165288
-4.035,-0.4660738329661415,-0.08268314955102604
-4.0345,-0.1779791118089722,-0.2098428104129196
-4.034,-0.007256314085787988,-0.252229364033705
-4.0335,0.07810508477567314,-0.2204394488182027
-4.033,0.110115609348692,-0.1356663415769403
-4.0325,0.1101156093487017,-0.02969995752508287
-4.032,0.08877525963335578,0.08686306493165288
-4.0315,0.05676473506033698,0.2034260873883886
-4.031,0.04609456020262521,0.3199891098454232
-4.0305,0.04609456020262521,0.4153588554918433
-4.03,-0.1032878878047959,0.330585748250581
-4.0295,-0.6367966306893161,-0.1992461720083015
-4.029,-0.9142211769888124,-0.6760949002404023
-4.0285,-0.8715404775580819,-1.046977244421262
-4.028,-0.2313299860965994,-1.258910012524543
-4.0275,0.3448594562177392,-1.184733543688439
-4.027,0.6436243522328531,-0.8456411147230812
-4.0265,0.6649647019481989,-0.3581957480858226
-4.026,0.5262524287983441,0.1610395337678249
-4.0255,0.3555296310754218,0.5107286011383502
-4.025,0.2274875327833466,0.6696781772157171
-4.0245,0.3128489316447203,0.5213252395433731
-4.024,0.3448594562177392,0.3623756634660061
-4.0235,0.2808384070717015,0.2776025562247438
-4.023,0.2061471830678066,0.1822328105780537
-4.0225,0.142126133921769,0.06566978812131802
-4.022,0.1207857842064231,-0.05089323433541773
-4.0215,0.1741366584945064,0.06566978812124091
-4.021,-0.1673089369510276,-0.01910331912002144
-4.0205,-0.7114878546928423,-0.6443049850249
-4.02,-1.170305373573312,-1.025783967610561
-4.0195,-1.298347471865388,-0.6231117082145651
-4.019,-0.9675720512772257,-0.326405832869877
-4.0185,-0.5407650569703082,-0.1992461720079835
-4.018,-0.2099896363817582,-0.1780528951975329
-4.0175,-0.007256314085787988,-0.1780528951975329
-4.017,0.08877525963326843,-0.1780528951975329
-4.0165,0.1207857842064037,-0.1568596183871692
-4.016,0.1207857842064037,-0.1250697031716958
-4.0155,0.0887752596333849,-0.07208651114590681
-4.015,0.0674349099179808,-0.01910331911995398
-4.0145,0.05676473506030786,0.05507314971615059
-4.014,0.04609456020263492,0.1292496185522551
-4.0135,0.003413860771535585,0.1504428953622816
-4.013,-0.391382608962363,-0.2628260024388724
-4.0125,-0.7648387289812555,-0.6337083466197325
-4.012,-0.8395299529846458,-0.7502713690762081
-4.0115,-0.4127229586777283,-0.3475991096802118
-4.011,0.1634664836371343,-0.2628260024388724
-4.0105,0.5369226036556869,-0.538338600972975
-4.01,0.6329541773751706,-0.6125150698093976
-4.0095,0.5475927785137094,-0.3581957480853793
-4.009,0.4088805053639611,-0.008506680715172021
-4.0085,0.2701682322139413,0.2881991946300654
-4.008,0.2488278824985954,0.5425185163538525
-4.0075,0.2808384070716142,0.7438546460518507
-4.007,0.2381577076408642,0.7862411996726649
-4.0065,0.1848068333524996,0.7438546460520338
-4.006,0.1634664836371343,0.701468092431364
-4.0055,0.1314559590640961,0.6272916235952402
-4.005,0.142126133921769,0.6802748156210291
-4.0045,-0.274010685527854,0.4895353243280153
-4.004,-0.8502001278431826,-0.3158091944654324
-4.0035,-1.362368521011484,-1.110557074852267
-4.003,-1.917217613610981,-0.9728007755850904
-4.0025,-1.970568487899345,-0.2204394488188869
-4.002,-1.351698346153801,0.07626642652648545
-4.0015,-0.7328282044082075,0.06566978812131802
-4.001,-0.2633405106705984,-0.05089323433541773
-4.0005,0.003413860772001399,-0.1780528951976004
-4,0.1207857842064037,-0.252229364033705
-3.9995,0.1527963087794516,-0.2840192792492073
-3.999,0.142126133921769,-0.2628260024388724
-3.9985,0.09944543449103843,-0.2204394488182027
-3.998,0.0674349099179905,-0.1674562567923655
-3.9975,0.04609456020262521,-0.09327978795619347
-3.997,0.02475421048725994,-0.01910331912002144
-3.9965,-0.3166913849585846,-0.2946159176543747
-3.996,-0.754168554123573,-0.8032545611024114
-3.9955,-0.9675720512772257,-1.163540266878104
-3.995,-0.6688071552621118,-1.407262950196955
-3.9945,0.01408403562957729,-1.534422611058964
-3.994,0.4835717293676135,-1.290699927740113
-3.9935,0.6542945270905358,-0.7502713690765743
-3.993,0.6116138276598051,-0.08268314955102604
-3.9925,0.4729015545099309,0.4683420475176805
-3.992,0.3341892813600565,0.775644561267536
-3.9915,0.2808384070716433,0.9345941373450475
-3.991,0.3341892813600565,0.9981739677760521
-3.9905,0.3021787567870086,0.8816109453192104
-3.99,0.2488278824985954,0.6802748156210291
-3.9895,0.2168173579255475,0.4789386859228479
-3.989,0.1848068333524996,0.309392471440169
-3.9885,0.2061471830678648,0.2670059178194992
-3.988,0.4729015545099309,0.6590815388106942
-3.9875,0.1954770082101822,0.5319218779486851
-3.987,-0.391382608962363,-0.2204394488182027
-3.9865,-1.1062843244271,-0.4323722169215513
-3.986,-1.501080794161358,0.09745970333682032
-3.9855,-1.234326422719292,0.2670059178194992
-3.985,-0.754168554123573,0.1610395337678249
-3.9845,-0.3380317346739499,-0.008506680714854012
-3.984,-0.06060718837420119,-0.1356663415768632
-3.9835,0.07810508477567314,-0.1886495336027004
-3.983,0.1314559590640864,-0.1886495336027004
-3.9825,0.1314559590640864,-0.1462629799820306
-3.982,0.1101156093487211,-0.08268314955102604
-3.9815,0.07810508477567314,-0.008506680714854012
-3.981,0.05676473506030786,0.08686306493165288
-3.9805,0.05676473506030786,0.1716361721729923
-3.98,-0.06060718837420119,0.1292496185523226
-3.9795,-0.4767440078238243,-0.3581957480853793
-3.979,-0.7008176798351597,-0.8350444763179138
-3.9785,-0.690147504977477,-0.9939940523954253
-3.978,-0.2846808603855366,-0.8562377531282487
-3.9775,0.1954770082101822,-0.8350444763179138
-3.977,0.4622313796522482,-0.6231117082145651
-3.9765,0.5155822539406614,-0.1674562567923655
-3.976,0.4408910299368829,0.2458126410091644
-3.9755,0.3235191065023739,0.5425185163538525
-3.975,0.2381577076409128,0.6696781772158616
-3.9745,0.3128489316446912,0.8180311148882058
-3.974,0.3448594562177392,0.8074344764830383
-3.9735,0.291508581929326,0.6590815388106942
-3.973,0.2274875327832301,0.4789386859228479
-3.9725,0.1741366584948169,0.3199891098453364
-3.972,0.1527963087794516,0.2140227257936621
-3.9715,0.3661998059331045,0.4789386859228479
-3.971,0.4408910299368829,1.072350436612224
-3.9705,-0.09261771294724913,1.019367244586387
-3.97,-0.7114878546928423,0.5001319627331828
-3.9695,-1.30901764672307,0.6484849004055269
-3.969,-1.277007122150022,0.6484849004055269
-3.9685,-0.8608703027003992,0.3517790250608387
-3.968,-0.4447334832507763,0.05507314971615059
-3.9675,-0.1352984123779797,-0.1356663415768632
-3.967,0.04609456020262521,-0.1992461720078678
-3.9665,0.1207857842064037,-0.1674562567923655
-3.966,0.1314559590640864,-0.07208651114585861
-3.9655,0.1207857842064037,0.03387987290581572
-3.965,0.08877525963335578,0.1610395337678249
-3.9645,0.0674349099179905,0.2776025562246667
-3.964,0.05676473506030786,0.3941655786815084
-3.9635,-0.03926683865883591,0.4153588554918433
-3.963,-0.5407650569699201,-0.04029659593035631
-3.9625,-0.9675720512772257,-0.570128516188728
-3.962,-1.170305373573196,-0.9410108603695881
-3.9615,-1.020922925565639,-1.078767159636765
-3.961,-0.4554036581084589,-0.8986243067489184
-3.9605,0.0674349099179905,-0.4111789401112165
-3.96,0.3341892813600565,0.1928294489833272
-3.9595,0.3982103305061524,0.6166949851900245
-3.959,0.3555296310754218,0.849821030103708
-3.9585,0.291508581929326,0.8604176685088755
-3.958,0.2701682322139607,0.7438546460520338
-3.9575,0.2701682322139607,0.5955017083796896
-3.957,0.2274875327832301,0.4259554938970107
-3.9565,0.1741366584948169,0.2458126410091644
-3.956,0.142126133921769,0.07626642652648545
-3.9555,0.1314559590640864,-0.07208651114585861
-3.955,0.2808384070716433,-0.008506680714854012
-3.9545,0.9317190733902845,0.5743084315693548
-3.954,1.081101521397841,1.104140351827727
-3.9535,0.2488278824985954,0.8922075837243778
-3.953,-0.8288597781273515,0.8604176685088755
-3.9525,-1.405049220442214,1.019367244586387
-3.952,-1.212986073003927,0.6908714540261965
-3.9515,-0.7648387289812555,0.2352160026039969
-3.951,-0.3593720843893152,-0.09327978795619347
-3.9505,-0.07127736323188383,-0.2628260024388724
-3.95,0.07810508477567314,-0.2734226408440398
-3.9495,0.1314559590640864,-0.1780528951975329
-3.949,0.1314559590640864,-0.04029659593035631
-3.9485,0.1101156093487211,0.1080563417419877
-3.948,0.08877525963335578,0.2670059178194992
-3.9475,0.07810508477567314,0.4259554938970107
-3.947,0.0674349099179905,0.5637117931641874
-3.9465,-0.1139580626626144,0.3941655786815084
-3.946,-0.3807124341046804,-0.01910331912002144
-3.9455,-0.5300948821122373,-0.3687923864905467
-3.945,-0.391382608962363,-0.7396747306714069
-3.9445,0.1848068333524996,-0.9833974139902578
-3.944,0.5796033030867573,-0.9198175835592532
-3.9435,0.7183155762366316,-0.570128516188728
-3.943,0.6329541773751706,-0.02969995752518888
-3.9425,0.4835717293676135,0.4047622170866759
-3.942,0.3341892813600565,0.6378882620003594
-3.9415,0.2488278824985954,0.6696781772158616
-3.941,0.2594980573562781,0.5637117931641874
-3.9405,0.2274875327832301,0.4471487707073456
-3.94,0.1848068333524996,0.309392471440169
-3.9395,0.142126133921769,0.1504428953626575
-3.939,0.1314559590640864,-0.01910331912002144
-3.9385,0.1634664836371343,-0.1144730647665284
-3.938,0.5582629533713921,0.2776025562246667
-3.9375,0.4835717293676135,0.5849050699745222
-3.937,-0.1779791118087102,0.03387987290581572
-3.9365,-1.010252750707956,-0.3370024712750445
-3.936,-1.661133417026597,0.1504428953626575
-3.9355,-1.543761493592088,0.383568940276341
-3.935,-1.020922925565639,0.2246193641988295
-3.9345,-0.5087545323968721,0.002089957690313421
-3.934,-0.1459685872356623,-0.1780528951975329
-3.9335,0.05676473506030786,-0.252229364033705
-3.933,0.142126133921769,-0.2416327256285375
-3.9325,0.1527963087794516,-0.1674562567923655
-3.932,0.1207857842064037,-0.08268314955102604
-3.9315,0.08877525963335578,0.03387987290581572
-3.931,0.0674349099179905,0.13984625695749
-3.9305,0.05676473506030786,0.2352160026039969
-3.93,-0.1352984123779797,0.09745970333682032
-3.9295,-0.5407650569699201,-0.4111789401112165
-3.929,-0.6688071552621118,-0.7502713690765743
-3.9285,-0.6367966306890638,-0.9622041371799229
-3.928,-0.2526703358124887,-1.036380606016095
-3.9275,0.1848068333524996,-0.9092209451540858
-3.927,0.4408910299368829,-0.5383386009732256
-3.9265,0.4942419042252961,0.002089957690313421
-3.926,0.4195506802215176,0.4683420475176805
-3.9255,0.3128489316446912,0.7332580076468663
-3.925,0.2274875327832301,0.8286277532933731
-3.9245,0.291508581929326,0.9345941373450475
-3.924,0.3235191065023739,0.849821030103708
-3.9235,0.2808384070716433,0.6166949851900245
-3.923,0.2274875327832301,0.3623756634660061
-3.9225,0.1741366584948169,0.13984625695749
-3.922,0.142126133921769,-0.05089323433552374
-3.9215,-0.09261771294724913,-0.474758770542221
-3.921,-0.658136980404429,-1.142346990067769
-3.9205,-1.138294849000148,-1.746355379162313
-3.92,-1.607782542738184,-1.619195718300304
-3.9195,-2.109280761049269,-0.5065486857577234
-3.919,-1.87453691418025,0.2881991946298341
-3.9185,-1.180975548430879,0.3729723018711736
-3.918,-0.572775581542968,0.1928294489833272
-3.9175,-0.156638762093345,-0.04029659593035631
-3.917,0.0674349099179905,-0.1992461720078678
-3.9165,0.1634664836371343,-0.2734226408440398
-3.916,0.1741366584948169,-0.2734226408440398
-3.9155,0.1527963087794516,-0.2310360872233701
-3.915,0.1207857842064037,-0.1568596183871981
-3.9145,0.08877525963335578,-0.06148987274069118
-3.914,0.07810508477567314,0.04447651131098315
-3.9135,-0.02859666380115328,0.04447651131098315
-3.913,-0.5194247072545548,-0.3687923864905467
-3.9125,-0.8288597781273515,-0.8032545611024114
-3.912,-0.8822106524157645,-1.05757388282643
-3.9115,-0.4980843575391895,-0.8562377531282487
-3.911,0.05676473506030786,-0.7820612842920766
-3.9105,0.4302208550792003,-0.6337083466197325
-3.91,0.5582629533713921,-0.2310360872233701
-3.9095,0.4942419042252961,0.2034260873884947
-3.909,0.3875401556484697,0.5213252395435176
-3.9085,0.2808384070716433,0.7226613692416989
-3.908,0.2808384070716433,0.7120647308365314
-3.9075,0.3235191065023739,0.5849050699745222
-3.907,0.2808384070716433,0.5425185163538525
-3.9065,0.2594980573562781,0.5425185163538525
-3.906,0.3128489316446912,0.5637117931641874
-3.9055,0.2808384070716433,0.4789386859228479
-3.905,0.291508581929326,0.4683420475176805
-3.9045,0.291508581929326,0.849821030103708
-3.904,-0.2099896363817582,0.775644561267536
-3.9035,-0.7968492535543035,0.01268659609548085
-3.903,-1.479740444445993,-0.1356663415768632
-3.9025,-1.67180359188428,0.2458126410091644
-3.902,-1.234326422719292,0.2458126410091644
-3.9015,-0.690147504977477,0.06566978812131802
-3.901,-0.2526703358124887,-0.1250697031716958
-3.9005,0.00341386077189465,-0.2416327256285375
-3.9,0.1314559590640864,-0.2946159176543747
-3.8995,0.1741366584948169,-0.2734226408440398
-3.899,0.1634664836371343,-0.2204394488182027
-3.8985,0.1314559590640864,-0.1462629799820306
-3.898,0.09944543449103843,-0.06148987274069118
-3.8975,0.07810508477567314,0.03387987290581572
-3.897,0.0674349099179905,0.13984625695749
-3.8965,-0.124628237520297,-0.04029659593035631
-3.896,-0.4554036581084589,-0.4853554089473885
-3.8955,-0.5834457564006506,-0.8350444763179138
-3.895,-0.4874141826815069,-1.110557074852267
-3.8945,-0.08194753808956648,-1.0999604364471
-3.894,0.2808384070716433,-0.8244478379127463
-3.8935,0.4515612047945656,-0.3793890248957141
-3.893,0.4408910299368829,0.13984625695749
-3.8925,0.3661998059331045,0.5425185163538525
-3.892,0.2808384070716433,0.7650479228623686
-3.8915,0.2488278824985954,0.8286277532933731
-3.891,0.3235191065023739,0.8180311148882058
-3.8905,0.3128489316446912,0.7226613692416989
-3.89,0.2594980573562781,0.5955017083796896
-3.8895,0.2061471830678648,0.4365521323021782
-3.889,0.1634664836371343,0.2776025562246667
-3.8885,0.1527963087794516,0.13984625695749
