Class_9_Think_Grab_one_hand_movement/Class_9_Think_Right_hand_Grab_Turki_5.csv

#Digilent WaveForms Oscilloscope Acquisition
#Device Name: EExplorer
#Serial Number: SN:210151A2B84A
#Date Time: 2020-12-13 12:43:33.059
#Sample rate: 2000Hz
#Samples: 16384
#Trigger: Source: Channel 1 Type: Edge Condition: Rising Level: 0 V Hyst.: Auto HoldOff: 0 s
#Channel 1: Range: 1 V/div Offset: 0 V Attenuation: 1 X
#Channel 2: Range: 1 V/div Offset: 0 V Attenuation: 1 X
#Power Supplies: ON
#Fixed Supply: ON
#Voltage: 3.3 V Readback: 3.321 V
#Positive Supply: ON
#Voltage: 3.7 V Readback: 3.718 V
#Current: 40 mA Readback: 20 mA
#Negative Supply: ON
#Voltage: -3.7 V Readback: -3.354 V
#Current: -40 mA Readback: -9 mA
#Reference 1: ON
#Voltage: 0 V
#Reference 2: ON
#Voltage: 0 V

Time (s),Channel 1 (V),Channel 2 (V)
-4.096,-0.4980843575391895,-0.5807251545938954
-4.0955,-1.095614149568874,-0.9833974139898916
-4.095,-0.9995825758499146,-0.6337083466190578
-4.0945,-0.6047861061160158,0.1080563417419877
-4.094,-0.2206598112397902,0.7968378380772445
-4.0935,0.04609456020276108,1.316073119931355
-4.093,0.1954770082101822,1.623375633680931
-4.0925,0.2594980573562198,1.782325209758298
-4.092,0.270168232213951,1.824711763379092
-4.0915,0.2594980573562781,1.803518486568777
-4.091,0.2168173579255475,1.75053529454294
-4.0905,0.1848068333524898,1.676358825706643
-4.09,0.1741366584948169,1.538602526439591
-4.0895,0.1314559590640864,1.29487984312074
-4.089,-0.316691384958177,0.8710143069144285
-4.0885,-0.7434983792658902,0.1822328105781598
-4.088,-0.9569018764195432,-0.6231117082145651
-4.0875,-1.12762467414231,-1.089363798041508
-4.087,-0.8288597781268371,-1.068170521231337
-4.0865,-0.2633405106701714,-0.7820612842920766
-4.086,0.1634664836367461,-0.6019184314043942
-4.0855,0.4408910299369897,-0.5383386009732641
-4.085,0.5582629533713921,-0.5807251545938954
-4.0845,0.536922603656046,-0.7184814538609468
-4.084,0.5369226036562305,-0.888027668343934
-4.0835,0.7609962756673623,-1.089363798041932
-4.083,0.7396559259519968,-0.9516074987747555
-4.0825,0.5796033030866118,-0.6972881770505155
-4.082,0.4195506802215176,-0.4535654937318862
-4.0815,0.3128489316446912,-0.2098428104130352
-4.081,0.4515612047944394,0.2352160026035922
-4.0805,1.049090996824793,0.9134008605347127
-4.08,0.857027849386506,0.6590815388106942
-4.0795,-0.04993701351569368,-0.0720865111451936
-4.079,-0.9889124009929017,-0.6866915386457046
-4.0785,-1.330357996438436,-0.8350444763179138
-4.078,-1.010252750708247,-0.2840192792497084
-4.0775,-0.540765056969561,0.4471487707079046
-4.077,-0.1459685872356623,1.061753798207057
-4.0765,0.1101156093484882,1.485619334413368
-4.076,0.2274875327832689,1.708148740922367
-4.0755,0.2701682322139607,1.814115124973944
-4.075,0.2701682322139607,1.814115124973944
-4.0745,0.2381577076408739,1.761131932948059
-4.074,0.1954770082101822,1.70814874092227
-4.0735,0.1634664836371343,1.485619334413754
-4.073,0.1101156093487696,0.8498210301042862
-4.0725,-0.156638762093345,0.07626642652648545
-4.072,-0.722158029550525,-0.4641621321370536
-4.0715,-1.170305373572788,-1.078767159636206
-4.071,-1.469070269588368,-1.470842780628085
-4.0705,-1.533091318734406,-1.608599079895136
-4.07,-0.9248913518470483,-1.248313374119771
-4.0695,-0.2420001609543597,-0.8562377531280463
-4.069,0.2488278824985954,-0.6337083466197325
-4.0685,0.4942419042252961,-0.5807251545938954
-4.068,0.5796033030867573,-0.6231117082146421
-4.0675,0.5796033030867573,-0.7078848154559045
-4.067,0.6649647019482183,-0.8456411147230812
-4.0665,0.6436243522327463,-0.7502713690764201
-4.066,0.5262524287983441,-0.5807251545938954
-4.0655,0.4302208550792003,-0.4217755785163839
-4.065,0.3661998059331627,-0.2522293640338592
-4.0645,0.3661998059331045,-0.01910331912002144
-4.064,0.79300680024041,0.6378882620003594
-4.0635,1.070431346539906,0.9345941373447777
-4.063,0.6329541773744816,0.3729723018706339
-4.0625,-0.124628237520297,-0.2204394488182027
-4.062,-0.7861790786960191,-0.6443049850245144
-4.0615,-0.7861790786963587,-0.3370024712744759
-4.061,-0.4980843575391895,0.2881991946298341
-4.0605,-0.1779791118087102,0.8816109453192104
-4.06,0.04609456020275137,1.33726639674167
-4.0595,0.1848068333524996,1.623375633680931
-4.059,0.2381577076409128,1.771728571353275
-4.0585,0.2594980573562586,1.835308401784221
-4.058,0.2488278824985954,1.824711763379112
-4.0575,0.2274875327832301,1.79292184816361
-4.057,0.2061471830678842,1.708148740922347
-4.0565,0.1954770082101822,1.580989080060261
-4.056,0.05676473506030786,1.188913459069066
-4.0555,-0.4233931335349743,0.3093924714409689
-4.055,-0.722158029550884,-0.6125150698100627
-4.0545,-1.116954499284783,-1.34368311976595
-4.054,-1.437059745014971,-1.873515040023841
-4.0535,-1.095614149568835,-1.640388995110137
-4.053,-0.4554036581084589,-1.089363798041932
-4.0525,0.05676473506030786,-0.6549016234300674
-4.052,0.3555296310755576,-0.4641621321371114
-4.0515,0.5049120790829789,-0.5277419625680583
-4.051,0.5475927785137094,-0.6760949002404023
-4.0505,0.6009436528020741,-0.8244478379126114
-4.05,0.6756348768059011,-0.8880276683437509
-4.0495,0.5796033030867573,-0.8350444763179138
-4.049,0.451561204794682,-0.718481453861178
-4.0485,0.3448594562176907,-0.5383386009730425
-4.048,0.291508581929326,-0.3370024712750445
-4.0475,0.611613827659514,0.2670059178189499
-4.047,1.379866417413101,1.135930267043257
-4.0465,1.539919040278195,1.167720182258731
-4.046,0.6329541773759955,0.4577454091131588
-4.0455,-0.4874141826818951,-0.3264058328700408
-4.045,-0.9142211769888124,-0.5065486857577234
-4.0445,-0.7434983792658902,-0.01910331912002144
-4.044,-0.402052783819774,0.6272916235957124
-4.0435,-0.1032878878049318,1.199510097474233
-4.043,0.09944543449103843,1.602182356870596
-4.0425,0.2061471830677678,1.835308401784067
-4.042,0.2488278824985954,1.951871424241121
-4.0415,0.2488278824985954,1.973064701051456
-4.041,0.2274875327832495,1.930678147430825
-4.0405,0.2061471830678454,1.845905040189331
-4.04,0.1848068333524996,1.718745379327438
-4.0395,0.1207857842064619,1.485619334413966
-4.039,-0.2633405106705887,0.8074344764821709
-4.0385,-0.722158029550525,-0.1462629799820306
-4.038,-0.9782422261346755,-0.9728007755843386
-4.0375,-0.6901475049769045,-1.50263269584352
-4.037,-0.06060718837420119,-1.566212526274467
-4.0365,0.408880505363835,-1.163540266878104
-4.036,0.6436243522329113,-0.8032545611022572
-4.0355,0.707645401378949,-0.6337083466197325
-4.035,0.6649647019482183,-0.6549016234300674
-4.0345,0.568933128229162,-0.7714646458868032
-4.034,0.5262524287983441,-0.9092209451540858
-4.0335,0.6756348768059011,-1.078767159636765
-4.033,0.664964701948228,-1.00459069080066
-4.0325,0.5369226036559198,-0.771464645886678
-4.032,0.4195506802215176,-0.5171453241628908
-4.0315,0.3341892813601341,-0.2734226408442615
-4.031,0.3235191065023836,-0.1356663415766415
-4.0305,0.3341892813600565,0.1080563417419877
-4.03,0.0354243853452143,-0.1250697031714837
-4.0295,-0.5514352318281753,-0.6549016234304432
-4.029,-1.180975548430879,-1.068170521231597
-4.0285,-1.212986073003927,-0.9410108603695881
-4.028,-0.8181896032692612,-0.2310360872226955
-4.0275,-0.3700422592469978,0.5107286011383502
-4.027,-0.03926683865883591,1.093543713422559
-4.0265,0.152796308779277,1.464426057603082
-4.026,0.2381577076409128,1.655165548896433
-4.0255,0.2594980573562781,1.70814874092227
-4.025,0.2488278824986051,1.686955464111955
-4.0245,0.227487532783201,1.623375633680863
-4.024,0.1954770082101822,1.549199164844759
-4.0235,0.1741366584948363,1.422039503982865
-4.023,0.1634664836367946,1.241896651094498
-4.0225,-0.2099896363817582,0.7968378380778709
-4.022,-0.7755089038384239,0.09745970333745635
-4.0215,-1.063603624996515,-0.7290780922668466
-4.021,-1.223656247861609,-1.396666311791788
-4.0205,-1.234326422719292,-1.767548655972648
-4.02,-0.658136980403905,-1.354279758170655
-4.0195,-0.08194753808956648,-0.8456411147230812
-4.019,0.3128489316446912,-0.5807251545938954
-4.0185,0.515582253940477,-0.4853554089474752
-4.018,0.5796033030867573,-0.4853554089473885
-4.0175,0.5582629533713921,-0.6125150698093976
-4.017,0.6329541773751026,-0.8138511995073958
-4.0165,0.622284002517381,-0.8774310299384871
-4.016,0.5049120790829789,-0.7714646458869092
-4.0155,0.3875401556485765,-0.5913217929992267
-4.015,0.2915085819293454,-0.4005823017057888
-4.0145,0.3128489316446912,-0.1144730647665284
-4.014,0.7930068002399733,0.5849050699738862
-4.0135,1.091771696255039,0.7544512844565843
-4.013,0.5582629533713921,0.07626642652648545
-4.0125,-0.4020527838200457,-0.6866915386455698
-4.012,-0.8608703027002828,-0.9092209451535943
-4.0115,-0.7328282044082075,-0.3687923864905467
-4.011,-0.4127229586777283,0.383568940276341
-4.0105,-0.1139580626628862,1.040560521396124
-4.01,0.08877525963335578,1.506812611224089
-4.0095,0.1954770082101822,1.782325209758442
-4.009,0.238157707640874,1.920081509025493
-4.0085,0.2488278824985663,1.951871424241102
-4.008,0.2168173579255475,1.930678147430786
-4.0075,0.1848068333525287,1.877694955404997
-4.007,0.1634664836371149,1.782325209758269
-4.0065,0.142126133921769,1.591585718465428
-4.006,0.04609456020262521,1.231300012689736
-4.0055,-0.5194247072550401,1.082947075017267
-4.005,-1.052933450138687,0.9451907757502149
-4.0045,-1.255666772434657,0.1610395337678249
-4.004,-0.8608703026997976,-0.4323722169216959
-4.0035,-0.1993194615240755,-0.5913217929990628
-4.003,0.3021787567870086,-0.6972881770507372
-4.0025,0.5582629533711592,-0.7290780922662106
-4.002,0.6329541773751706,-0.7078848154559045
-4.0015,0.6009436528021226,-0.6972881770507372
-4.001,0.5369226036560848,-0.7926579226971573
-4.0005,0.5689331282291522,-0.9304142219644207
-4,0.6542945270905358,-0.9304142219644207
-3.9995,0.5689331282290746,-0.7290780922662394
-3.999,0.4408910299368829,-0.474758770542221
-3.9985,0.3235191065023739,-0.2310360872233701
-3.998,0.2594980573562781,-0.01910331912002144
-3.9975,0.1527963087794516,0.08686306493165288
-3.997,-0.02859666380115328,0.5213252395435176
-3.9965,-0.5941159312583333,0.2458126410091644
-3.996,-1.330357996438436,-0.4429688553267188
-3.9955,-1.778505340461106,-0.9410108603695881
-3.995,-1.426389570157579,-0.6760949002404023
-3.9945,-0.8181896032696687,0.03387987290581572
-3.994,-0.3060212101009019,0.7332580076468663
-3.9935,0.03542438534494258,1.263089927905238
-3.993,0.2061471830678648,1.591585718465428
-3.9925,0.2701682322139607,1.761131932948107
-3.992,0.2808384070716433,1.814115124973944
-3.9915,0.2488278824985954,1.782325209758442
-3.991,0.2274875327832301,1.718745379327438
-3.9905,0.1848068333524996,1.633972272086098
-3.99,0.09944543449103843,1.538602526439591
-3.9895,0.05676473506030786,1.263089927905238
-3.989,0.2168173579255475,1.019367244586387
-3.9885,0.3661998059331045,0.5955017083796896
-3.988,0.09944543449103843,-0.2840192792492073
-3.9875,-0.2633405106701714,-1.01518732920576
-3.987,-0.1352984123779797,-1.121153713257435
-3.9865,0.1634664836371343,-0.9092209451540858
-3.986,0.3982103305061524,-0.6972881770507372
-3.9855,0.5049120790829789,-0.6337083466197325
-3.985,0.5475927785137094,-0.6549016234300674
-3.9845,0.5262524287983441,-0.7608680074817418
-3.984,0.5155822539406614,-0.8986243067489184
-3.9835,0.6969752265212663,-1.068170521231597
-3.983,0.6863050516635838,-0.9304142219644207
-3.9825,0.5475927785137094,-0.6549016234300674
-3.982,0.3982103305061524,-0.3793890248957141
-3.9815,0.291508581929326,-0.1462629799820306
-3.981,0.4835717293676135,-0.08268314955102604
-3.9805,0.942389248247967,-0.3475991096802118
-3.98,0.4942419042252961,-0.792657922697244
-3.9795,-0.423393133535411,-1.110557074852267
-3.979,-1.26633694729234,-1.131750351662602
-3.9785,-1.51175096901904,-0.8880276683437509
-3.978,-1.1062843244271,-0.1568596183871981
-3.9775,-0.5834457564006506,0.6060983467848571
-3.977,-0.156638762093345,1.188913459069066
-3.9765,0.09944543449103843,1.528005888034424
-3.976,0.2168173579255475,1.686955464111935
-3.9755,0.2594980573562781,1.70814874092227
-3.975,0.2594980573562781,1.644568910491266
-3.9745,0.2274875327832301,1.538602526439591
-3.974,0.1848068333524996,1.432636142387917
-3.9735,0.1527963087794516,1.29487984312074
-3.973,0.1314559590640864,1.093543713422559
-3.9725,-0.01792648894347063,0.627291623595192
-3.972,-0.5087545323968721,-0.252229364033705
-3.9715,-1.1062843244271,-1.078767159636765
-3.971,-1.597112367880501,-1.725162102351978
-3.9705,-1.778505340461106,-2.043061254507001
-3.97,-1.191645723288561,-1.576809164679634
-3.9695,-0.4874141826815069,-1.068170521231597
-3.969,0.04609456020262521,-0.8350444763179138
-3.9685,0.3555296310754218,-0.7290780922662394
-3.968,0.4729015545099309,-0.6549016234300674
-3.9675,0.4835717293676135,-0.6972881770507372
-3.967,0.6756348768059011,-0.8562377531282487
-3.9665,0.79300680024041,-0.8244478379127463
-3.966,0.6756348768059011,-0.6337083466197325
-3.9655,0.5155822539406614,-0.4111789401112165
-3.965,0.3875401556484697,-0.1886495336027004
-3.9645,0.3235191065023739,0.04447651131098315
-3.964,0.6969752265212663,0.6060983467848571
-3.9635,0.8356874996711408,0.9557874141553824
-3.963,0.2488278824985954,0.383568940276341
-3.9625,-0.5300948821122373,-0.3475991096802118
-3.962,-1.212986073003927,-0.9092209451540858
-3.9615,-1.180975548430879,-0.7290780922662394
-3.961,-0.7648387289812555,-0.08268314955102604
-3.9605,-0.3273615598162672,0.5743084315693548
-3.96,-0.01792648894347063,1.072350436612224
-3.9595,0.1634664836371343,1.390249588767247
-3.959,0.2381577076409128,1.549199164844759
-3.9585,0.2594980573562781,1.612778995275763
-3.958,0.2381577076409128,1.591585718465428
-3.9575,0.2061471830678648,1.549199164844759
-3.957,0.1634664836371343,1.485619334413754
-3.9565,0.142126133921769,1.369056311956912
-3.956,-0.02859666380115328,1.146526905448396
-3.9555,-0.6367966306890638,1.231300012689736
-3.955,-1.159635198715513,1.284283204715573
-3.9545,-1.479740444445993,1.369056311956912
-3.954,-1.618452717595867,0.8074344764830383
-3.9535,-1.084943974711735,0.1610395337678249
-3.953,-0.4127229586777283,-0.2098428104130352
-3.9525,0.142126133921769,-0.3581957480853793
-3.952,0.4622313796522482,-0.5065486857577234
-3.9515,0.5796033030867573,-0.5595318777835605
-3.951,0.5689331282290746,-0.6125150698093976
-3.9505,0.6222840025174878,-0.6866915386455698
-3.95,0.8036769750980928,-0.7608680074817418
-3.9495,0.7289857510943143,-0.6125150698093976
-3.949,0.5582629533713921,-0.3793890248957141
-3.9485,0.3982103305061524,-0.1250697031716958
-3.948,0.291508581929326,0.09745970333682032
-3.9475,0.5155822539406614,0.5849050699745222
-3.947,0.7823366253827275,0.8922075837243778
-3.9465,0.1207857842064037,0.2776025562246667
-3.946,-0.7648387289812555,-0.400582301706049
-3.9455,-1.522421143876723,-0.8774310299385835
-3.945,-1.618452717595867,-0.8456411147230812
-3.9445,-1.1062843244271,-0.1886495336027004
-3.944,-0.5407650569699201,0.5637117931641874
-3.9435,-0.124628237520297,1.157123543853563
-3.943,0.1314559590640864,1.538602526439591
-3.9425,0.2488278824985954,1.729342017732605
-3.942,0.2701682322139607,1.79292184816361
-3.9415,0.2594980573562781,1.739938656137773
-3.941,0.2274875327832301,1.6657621873016
-3.9405,0.2061471830678648,1.549199164844759
-3.94,0.1954770082101822,1.37965295036208
-3.9395,0.1527963087794516,1.167720182258731
-3.939,-0.1459685872356623,0.5001319627331828
-3.9385,-0.5834457564006506,-0.4535654937318862
-3.938,-1.06360362499637,-1.258910012524611
-3.9375,-1.426389570157579,-1.693372187136476
-3.937,-1.191645723288561,-1.534422611058964
-3.9365,-0.5834457564006506,-1.0999604364471
-3.936,-0.04993701351651855,-0.8350444763179138
-3.9355,0.3235191065023739,-0.6760949002404023
-3.935,0.4835717293676135,-0.718481453861072
-3.9345,0.5262524287983441,-0.8350444763179138
-3.934,0.5262524287983441,-0.9622041371799229
-3.9335,0.7183155762366316,-1.184733543688439
-3.933,0.7183155762366316,-1.078767159636765
-3.9325,0.5796033030867573,-0.7714646458869092
-3.932,0.4195506802215176,-0.4641621321370536
-3.9315,0.3128489316446912,-0.1992461720078678
-3.931,0.3768699807907871,0.1504428953626575
-3.9305,0.8783681991018712,0.7438546460520338
-3.93,0.7289857510943143,0.4683420475176805
-3.9295,-0.03926683865883591,-0.2416327256285375
-3.929,-0.9248913518464952,-0.8138511995075789
-3.9285,-1.277007122150022,-0.9939940523954253
-3.928,-0.9995825758502737,-0.474758770542221
-3.9275,-0.5407650569699201,0.2246193641988295
-3.927,-0.156638762093345,0.8286277532933731
-3.9265,0.08877525963335578,1.231300012689736
-3.926,0.2168173579255475,1.475022696008586
-3.9255,0.2594980573562781,1.570392441655093
-3.925,0.2594980573562781,1.580989080060261
-3.9245,0.2274875327832301,1.549199164844759
-3.924,0.1954770082101822,1.485619334413754
-3.9235,0.1634664836371343,1.411442865577582
-3.923,0.1527963087794516,1.25249328950007
-3.9225,-0.09261771294724913,0.7862411996727035
-3.922,-0.6688071552621118,0.2034260873884947
-3.9215,-1.074273799854052,-0.6019184314042303
-3.921,-1.191645723288561,-1.258910012524611
-3.9205,-0.3807124341046804,-1.746355379162313
-3.92,0.5155822539406614,-1.502632695843462
-3.9195,0.857027849386506,-0.9092209451540858
-3.919,0.8783681991018712,-0.5489352393783931
-3.9185,0.7716664505250448,-0.4111789401112165
-3.918,0.6329541773751706,-0.4217755785163839
-3.9175,0.4942419042252961,-0.5489352393783931
-3.917,0.5796033030867573,-0.8032545611024114
-3.9165,0.6756348768059011,-0.8986243067489184
-3.916,0.5796033030867573,-0.7502713690765743
-3.9155,0.4408910299368829,-0.5277419625680583
-3.915,0.3341892813600565,-0.2946159176543747
-3.9145,0.3021787567870086,-0.1462629799820306
-3.914,0.1848068333524996,-0.2416327256285375
-3.9135,-0.124628237520297,-0.252229364033705
-3.913,-0.722158029550525,-0.6549016234300674
-3.9125,-1.26633694729234,-0.9410108603695881
-3.912,-1.67180359188428,-1.152943628472937
-3.9115,-1.383708870726849,-0.792657922697244
-3.911,-0.8181896032696687,-0.09327978795619347
-3.9105,-0.3166913849585846,0.55311515475902
-3.91,0.02475421048725994,1.019367244586387
-3.9095,0.1954770082101822,1.305476481525908
-3.909,0.2701682322139607,1.432636142387917
-3.9085,0.2701682322139607,1.475022696008586
-3.908,0.2488278824985954,1.443232780793084
-3.9075,0.2168173579255475,1.400846227172415
-3.907,0.1741366584948169,1.316073119931075
-3.9065,0.1527963087794516,1.082947075017392
-3.906,0.03542438534494258,0.6378882620003594
-3.9055,-0.5300948821122373,-0.1568596183871981
-3.905,-0.9462317015618604,-0.9516074987747555
-3.9045,-0.9675720512772257,-1.555615887869299
-3.904,-0.6474668055467465,-1.746355379162313
-3.9035,-0.124628237520297,-1.248313374119443
-3.903,0.3448594562177392,-0.6866915386455698
-3.9025,0.5902734779444399,-0.4217755785163839
-3.902,0.6542945270905358,-0.4323722169215513
-3.9015,0.6116138276598051,-0.6443049850249
-3.901,0.5369226036560266,-0.8032545611024114
-3.9005,0.5475927785137094,-0.9728007755850904
-3.9,0.7289857510943143,-1.131750351662602
-3.8995,0.6756348768059011,-0.9410108603695881
-3.899,0.5262524287983441,-0.6231117082145651
-3.8985,0.3768699807907871,-0.3370024712750445
-3.898,0.291508581929326,-0.09327978795619347
-3.8975,0.3021787567870086,-0.01910331912002144
-3.897,0.6436243522328531,0.1928294489833272
-3.8965,0.5049120790829789,-0.2098428104130352
-3.896,-0.07127736323188383,-0.8244478379127463
-3.8955,-0.5621054066852853,-1.05757388282643
-3.895,-0.5407650569699201,-0.570128516188728
-3.8945,-0.3166913849585846,0.13984625695749
-3.894,-0.09261771294724913,0.7544512844572011
-3.8935,0.07810508477567314,1.188913459069066
-3.893,0.1741366584948169,1.443232780793084
-3.8925,0.2168173579255475,1.559795803249926
-3.892,0.2274875327832301,1.580989080060261
-3.8915,0.2168173579255475,1.549199164844759
-3.891,0.1954770082101822,1.496215972818921
-3.8905,0.1741366584948169,1.42203950398275
-3.89,0.1527963087794516,1.29487984312074
-3.8895,0.07810508477567314,0.8922075837243778
-3.889,-0.2633405106701714,0.1080563417419877
-3.8885,-0.5941159312583333,-0.7820612842920766
-3.888,-0.8288597781273515,-1.492036057438295
-3.8875,-0.9142211769888124,-1.767548655972648
-3.887,-0.7648387289812555,-1.566212526274467
-3.8865,-0.2846808603855366,-1.036380606016095
-3.886,0.1207857842064037,-0.6231117082145651
