Class_9_Think_Grab_one_hand_movement/Class_9_Think_Right_hand_Grab_Turki_6.csv

#Digilent WaveForms Oscilloscope Acquisition
#Device Name: EExplorer
#Serial Number: SN:210151A2B84A
#Date Time: 2020-12-15 14:07:26.086
#Sample rate: 2000Hz
#Samples: 16384
#Trigger: Source: Channel 1 Type: Edge Condition: Rising Level: 0 V Hyst.: Auto HoldOff: 0 s
#Channel 1: Range: 1 V/div Offset: 0 V Attenuation: 1 X
#Channel 2: Range: 1 V/div Offset: 0 V Attenuation: 1 X
#Power Supplies: ON
#Fixed Supply: ON
#Voltage: 3.3 V Readback: 3.323 V
#Positive Supply: ON
#Voltage: 3.7 V Readback: 3.712 V
#Current: 40 mA Readback: 19 mA
#Negative Supply: ON
#Voltage: -3.7 V Readback: -3.354 V
#Current: -40 mA Readback: -8 mA
#Reference 1: ON
#Voltage: 0 V
#Reference 2: ON
#Voltage: 0 V

Time (s),Channel 1 (V),Channel 2 (V)
-4.096,-1.234326422719292,-1.375473034981453
-4.0955,-0.5621054066858967,-0.8456411147235631
-4.095,0.003413860772195488,-0.4217755785161333
-4.0945,0.3341892813600565,-0.1462629799820306
-4.094,0.4622313796521317,-0.02969995752529489
-4.0935,0.4835717293675941,0.01268659609540375
-4.093,0.4622313796522482,-0.07208651114585861
-4.0925,0.5262524287982859,-0.2840192792490145
-4.092,0.6009436528020741,-0.3899856633007948
-4.0915,0.5475927785137094,-0.2946159176543747
-4.091,0.4515612047945656,-0.1462629799820306
-4.0905,0.3768699807907774,-0.008506680714709449
-4.09,0.3661998059331045,0.1504428953626575
-4.0895,0.707645401378949,0.6484849004055269
-4.089,0.4622313796524714,0.7120647308364736
-4.0885,-0.4127229586777283,-0.02969995752518888
-4.088,-1.212986073003927,-0.7290780922662394
-4.0875,-1.458400094730404,-1.068170521231289
-4.087,-1.042263275280519,-0.7608680074812695
-4.0865,-0.5087545323968721,-0.2416327256285375
-4.086,-0.07127736323228173,0.2140227257932477
-4.0855,0.1954770082102986,0.5213252395436815
-4.085,0.3235191065023739,0.701468092431364
-4.0845,0.3661998059330657,0.7862411996726264
-4.084,0.3555296310754121,0.8180311148881961
-4.0835,0.3448594562177392,0.8074344764830383
-4.083,0.3128489316446912,0.7862411996727035
-4.0825,0.2915085819293163,0.7438546460519952
-4.082,0.2808384070716433,0.701468092431364
-4.0815,0.04609456020262521,0.4047622170866759
-4.081,-0.6154562809730969,-0.3158091944640543
-4.0805,-1.373038695869166,-1.0999604364471
-4.08,-1.959898313041711,-1.661582271920973
-4.0795,-1.671803591884542,-1.502632695843607
-4.079,-0.9248913518458547,-0.9410108603691352
-4.0785,-0.2206598112394408,-0.4429688553267188
-4.078,0.2274875327828226,-0.0826831495513537
-4.0775,0.4408910299369412,0.07626642652650473
-4.077,0.5049120790829789,0.09745970333682032
-4.0765,0.5049120790829789,0.05507314971618914
-4.076,0.5155822539407682,-0.0402965959304816
-4.0755,0.6329541773751706,-0.1780528951975329
-4.075,0.6009436528021226,-0.1674562567923655
-4.0745,0.5049120790829013,-0.08268314955092966
-4.074,0.4195506802215176,0.02328323450064829
-4.0735,0.3555296310754218,0.1186529801471552
-4.073,0.5475927785135346,0.4047622170864156
-4.0725,0.5582629533713921,0.701468092431364
-4.072,-0.2206598112394408,0.1080563417419877
-4.0715,-1.020922925564911,-0.6443049850242157
-4.071,-1.501080794161106,-1.16354026687796
-4.0705,-1.223656247861609,-1.004590690800593
-4.07,-0.6794773301202892,-0.4747587705427029
-4.0695,-0.1993194615237747,0.03387987290616267
-4.069,0.1314559590640864,0.4153588554918433
-4.0685,0.3021787567870086,0.6378882620003594
-4.068,0.3661998059331045,0.7438546460520626
-4.0675,0.3661998059331045,0.775644561267536
-4.067,0.3555296310754218,0.7650479228623686
-4.0665,0.3235191065023544,0.7332580076468278
-4.066,0.3021787567870086,0.6908714540261965
-4.0655,0.291508581929326,0.6484849004055269
-4.065,0.1848068333525966,0.4895353243281599
-4.0645,-0.4020527838200457,-0.1568596183871981
-4.064,-1.159635198715513,-0.9622041371799229
-4.0635,-1.821186039891236,-1.619195718299706
-4.063,-1.757164990745081,-1.714565463946387
-4.0625,-1.031593100423322,-1.248313374119443
-4.062,-0.3273615598169077,-0.6866915386460806
-4.0615,0.1634664836373575,-0.2204394488179424
-4.061,0.408880505363835,0.06566978812131802
-4.0605,0.5049120790829789,0.1504428953626575
-4.06,0.494241904225267,0.09745970333674321
-4.0595,0.4622313796522482,0.01268659609548085
-4.059,0.5689331282290746,-0.1250697031716958
-4.0585,0.5902734779444204,-0.1462629799820114
-4.058,0.5155822539406614,-0.06148987274069118
-4.0575,0.4302208550792003,0.04447651131098315
-4.057,0.3661998059331627,0.1292496185522455
-4.0565,0.4408910299368829,0.309392471440169
-4.056,0.7183155762366316,0.7862411996727035
-4.0555,0.142126133922293,0.5425185163540742
-4.055,-0.722158029551117,-0.2522293640343411
-4.0545,-1.373038695869166,-0.9516074987747555
-4.054,-1.415719395299858,-1.152943628472754
-4.0535,-0.9248913518460099,-0.7396747306709154
-4.053,-0.391382608962363,-0.1992461720078678
-4.0525,0.00341386077189465,0.2352160026039969
-4.052,0.2381577076410098,0.5213252395436525
-4.0515,0.3448594562177392,0.6696781772158616
-4.051,0.3661998059331045,0.7332580076468663
-4.0505,0.3661998059331045,0.7438546460520241
-4.05,0.3448594562177392,0.7226613692416989
-4.0495,0.3128489316446912,0.6908714540261965
-4.049,0.3021787567870183,0.6484849004055654
-4.0485,0.2594980573558608,0.5637117931637151
-4.048,-0.1993194615240755,0.04447651131098315
-4.0475,-0.9569018764188542,-0.7608680074810094
-4.047,-1.618452717596061,-1.470842780628249
-4.0465,-1.83185621474952,-1.788741932782983
-4.046,-1.2876772970082,-1.311893204550882
-4.0455,-0.6047861061155209,-0.7184814538606672
-4.045,-0.06060718837420119,-0.2734226408440398
-4.0445,0.2701682322139607,-0.01910331912002144
-4.044,0.4088805053638738,0.07626642652646617
-4.0435,0.4515612047945656,0.05507314971615059
-4.043,0.4408910299368829,0.02328323450064829
-4.0425,0.5049120790829207,0.1292496185522262
-4.042,0.5689331282290746,0.2458126410091644
-4.0415,0.5262524287983441,0.2034260873884947
-4.041,0.4515612047946335,0.1292496185523901
-4.0405,0.3768699807907774,0.08686306493167216
-4.04,0.3661998059331045,0.1080563417419877
-4.0395,0.6756348768056196,0.5213252395431418
-4.039,0.3875401556476837,0.5425185163531971
-4.0385,-0.4767440078238243,-0.1780528951975329
-4.038,-1.287677297006967,-0.7608680074812117
-4.0375,-1.639793067310844,-1.110557074852017
-4.037,-1.212986073003927,-0.8350444763179138
-4.0365,-0.6261264558313813,-0.3052125560595421
-4.036,-0.1352984123776982,0.1822328105784682
-4.0355,0.1741366584948169,0.5213252395435176
-4.035,0.3235191065023739,0.7226613692416989
-4.0345,0.3768699807907386,0.8286277532932768
-4.034,0.3768699807907871,0.8604176685088755
-4.0335,0.3555296310754218,0.8604176685088755
-4.033,0.323519106502403,0.8498210301037177
-4.0325,0.3021787567869989,0.8074344764829902
-4.032,0.291508581929326,0.7544512844572011
-4.0315,0.04609456020284841,0.4683420475179407
-4.031,-0.6367966306897043,-0.2840192792499205
-4.0305,-1.341028171296118,-1.068170521231597
-4.03,-1.831856214749073,-1.62979235670496
-4.0295,-1.533091318733736,-1.513229334248148
-4.029,-0.7968492535543035,-0.9833974139902578
-4.0285,-0.156638762093345,-0.4323722169215513
-4.028,0.2701682322141257,-0.04029659593021175
-4.0275,0.4515612047945656,0.1186529801471552
-4.027,0.5049120790829789,0.1292496185523226
-4.0265,0.4835717293676329,0.06566978812137585
-4.026,0.4729015545099309,-0.008506680714854012
-4.0255,0.5689331282290746,-0.04029659593035631
-4.025,0.5582629533714017,-0.1038764263613031
-4.0245,0.4729015545098629,-0.1356663415768632
-4.024,0.3982103305061524,-0.1356663415768632
-4.0235,0.3555296310754606,-0.1038764263613898
-4.023,0.5582629533715474,0.1822328105786224
-4.0225,0.7289857510943143,0.6908714540261965
-4.022,0.003413860772554567,0.2881991946302003
-4.0215,-0.8928808272740003,-0.4005823017065117
-4.021,-1.501080794161358,-0.9092209451540858
-4.0205,-1.298347471865388,-0.8562377531282487
-4.02,-0.7541685541231169,-0.4005823017056057
-4.0195,-0.2526703358124887,0.08686306493165288
-4.019,0.09944543449103843,0.4683420475176805
-4.0185,0.2915085819291513,0.7120647308363097
-4.018,0.3661998059331045,0.849821030103708
-4.0175,0.3768699807907871,0.9134008605347127
-4.017,0.3661998059331142,0.9345941373450282
-4.0165,0.3448594562177101,0.9239974989398512
-4.016,0.3128489316446912,0.8922075837243778
-4.0155,0.3021787567870183,0.8604176685089043
-4.015,0.1954770082096678,0.7120647308359628
-4.0145,-0.3700422592469978,0.08686306493165288
-4.014,-1.084943974711085,-0.7184814538603396
-4.0135,-1.714484291315117,-1.407262950197119
-4.013,-1.83185621474952,-1.587405803084801
-4.0125,-1.255666772434657,-1.121153713257435
-4.012,-0.5727755815424731,-0.5489352393780846
-4.0115,-0.02859666380115328,-0.2098428104130352
-4.011,0.3341892813600565,-0.08268314955102604
-4.0105,0.4835717293674776,-0.06148987274071045
-4.01,0.5155822539406614,-0.1038764263613609
-4.0095,0.4729015545099309,-0.1462629799820306
-4.009,0.5796033030866603,-0.3158091944645554
-4.0085,0.6222840025174199,-0.3475991096801251
-4.008,0.5475927785137094,-0.252229364033705
-4.0075,0.4515612047946529,-0.1144730647666536
-4.007,0.3875401556485182,0.01268659609565433
-4.0065,0.4408910299368829,0.2034260873884947
-4.006,0.79300680024041,0.7332580076468663
-4.0055,0.3341892813592899,0.574308431568632
-4.005,-0.5087545323968721,-0.2204394488182027
-4.0045,-1.202315898146244,-0.9622041371799229
-4.004,-1.383708870726461,-1.216523458903556
-4.0035,-0.9569018764195432,-0.792657922697244
-4.003,-0.4447334832507763,-0.2204394488182027
-4.0025,-0.02859666380153175,0.2564092794138981
-4.002,0.2274875327832301,0.5743084315693548
-4.0015,0.3448594562177392,0.7544512844572011
-4.001,0.376869980790758,0.8286277532933056
-4.0005,0.3768699807907677,0.8392243916985213
-4,0.3555296310754218,0.8180311148882058
-3.9995,0.3235191065023739,0.7862411996727035
-3.999,0.3128489316446912,0.7332580076468663
-3.9985,0.2808384070716433,0.6696781772158616
-3.998,-0.07127736323188383,0.2458126410091644
-3.9975,-0.7755089038389382,-0.5595318777835605
-3.997,-1.405049220442214,-1.322489842955616
-3.9965,-1.767835165603424,-1.788741932782983
-3.996,-1.437059745015262,-1.523825972653797
-3.9955,-0.7648387289812555,-0.9198175835592532
-3.995,-0.1459685872356623,-0.4217755785163839
-3.9945,0.2594980573562781,-0.08268314955102604
-3.994,0.4622313796522482,0.04447651131098315
-3.9935,0.5049120790829789,0.06566978812131802
-3.993,0.4942419042252961,0.01268659609548085
-3.9925,0.5369226036560266,0.05507314971615059
-3.992,0.6116138276598051,0.1928294489833272
-3.9915,0.5689331282290746,0.1504428953626575
-3.991,0.4835717293676135,0.08686306493165288
-3.9905,0.408880505363835,0.03387987290581572
-3.99,0.3768699807907871,0.04447651131098315
-3.9895,0.6436243522328531,0.4471487707073456
-3.989,0.3982103305061524,0.6166949851900245
-3.9885,-0.4340633083930936,-0.06148987274069118
-3.988,-1.116954499284783,-0.792657922697244
-3.9875,-1.46907026958831,-1.237716735714276
-3.987,-1.127624674142465,-0.9516074987747555
-3.9865,-0.5834457564006506,-0.3687923864905467
-3.986,-0.124628237520297,0.1822328105781598
-3.9855,0.1741366584948169,0.5637117931641874
-3.985,0.3235191065023739,0.7862411996727035
-3.9845,0.3768699807907871,0.9028042221295453
-3.984,0.3768699807907871,0.9345941373450475
-3.9835,0.3661998059331045,0.92399749893988
-3.983,0.3341892813600565,0.8922075837243778
-3.9825,0.3128489316446912,0.8392243916985406
-3.982,0.3021787567870086,0.775644561267536
-3.9815,0.1101156093487211,0.5849050699745222
-3.981,-0.5834457564006506,0.13984625695749
-3.9805,-1.330357996438436,-0.6231117082145651
-3.98,-1.853196564464885,-1.290699927740113
-3.9795,-1.586442193022819,-1.34368311976595
-3.979,-0.8715404775580819,-0.9728007755850904
-3.9785,-0.2206598112394408,-0.6019184314042303
-3.978,0.1848068333524996,-0.3370024712750445
-3.9775,0.408880505363835,-0.1992461720078678
-3.977,0.4942419042252961,-0.1674562567923655
-3.9765,0.4942419042252961,-0.1568596183871981
-3.976,0.4942419042252961,-0.1250697031716958
-3.9755,0.6222840025174878,0.02328323450064829
-3.975,0.6009436528021226,0.04447651131098315
-3.9745,0.5262524287983441,-0.01910331912002144
-3.974,0.4408910299368829,-0.05089323433552374
-3.9735,0.3768699807907871,-0.05089323433552374
-3.973,0.5475927785137094,0.2140227257936621
-3.9725,0.6116138276598051,0.6166949851900245
-3.972,-0.1352984123779797,0.1186529801471552
-3.9715,-0.9035510021311299,-0.6337083466197325
-3.971,-1.447729919872945,-1.205926820498774
-3.9705,-1.351698346153801,-1.131750351662602
-3.97,-0.8181896032696687,-0.5595318777835605
-3.9695,-0.2953510352432193,0.05507314971615059
-3.969,0.07810508477567314,0.5319218779486851
-3.9685,0.2808384070716433,0.8180311148882058
-3.968,0.3661998059331045,0.9663840525605498
-3.9675,0.3875401556484697,1.029963882991555
-3.967,0.3768699807907871,1.019367244586387
-3.9665,0.3448594562177392,0.9875773293708847
-3.966,0.3235191065023739,0.9345941373450475
-3.9655,0.3021787567870086,0.8604176685088755
-3.965,0.2381577076409128,0.7120647308365314
-3.9645,-0.2633405106701714,0.1080563417419877
-3.964,-0.9995825758502737,-0.7396747306714069
-3.9635,-1.607782542738184,-1.449649503817625
-3.963,-1.778505340461106,-1.460246142222792
-3.9625,-1.287677297007705,-0.9833974139902578
-3.962,-0.6154562809736985,-0.5489352393783931
-3.9615,-0.06060718837420119,-0.3158091944647096
-3.961,0.2701682322139607,-0.2204394488182027
-3.9605,0.4195506802215176,-0.2416327256285375
-3.96,0.4729015545099309,-0.2946159176543747
-3.9595,0.4729015545099309,-0.2734226408440398
-3.959,0.5796033030867573,-0.1144730647665284
-3.9585,0.6009436528021226,-0.04029659593035631
-3.958,0.5369226036560266,-0.02969995752518888
-3.9575,0.4515612047945656,-0.02969995752518888
-3.957,0.3875401556484697,0.002089957690313421
-3.9565,0.4195506802215176,0.13984625695749
-3.956,0.707645401378949,0.627291623595192
-3.9555,0.2168173579255475,0.457745409112513
-3.955,-0.6688071552621118,-0.2734226408440398
-3.9545,-1.415719395299897,-0.792657922697244
-3.954,-1.51175096901904,-0.9622041371799229
-3.9535,-0.9995825758502737,-0.570128516188728
-3.953,-0.4340633083930936,-0.02969995752518888
-3.9525,-0.007256314085787988,0.4259554938970107
-3.952,0.2488278824985954,0.7438546460520338
-3.9515,0.3661998059331045,0.92399749893988
-3.951,0.3982103305061524,1.019367244586387
-3.9505,0.3875401556484697,1.051157159801889
-3.95,0.3661998059331045,1.051157159801889
-3.9495,0.3341892813600565,1.019367244586387
-3.949,0.3128489316446912,0.9663840525605498
-3.9485,0.291508581929326,0.8710143069140429
-3.948,-0.1139580626626144,0.4047622170866759
-3.9475,-0.8608703027003992,-0.4111789401112165
-3.947,-1.565101843307454,-1.184733543688439
-3.9465,-1.991908837614759,-1.650985633515806
-3.946,-1.490410619303675,-1.396666311791788
-3.9455,-0.7328282044082075,-0.8350444763179138
-3.945,-0.1032878878049318,-0.3370024712750445
-3.9445,0.291508581929326,-0.04029659593035631
-3.944,0.4835717293676135,0.03387987290581572
-3.9435,0.5369226036560266,-0.05089323433552374
-3.943,0.5155822539406614,-0.1992461720078678
-3.9425,0.6009436528021226,-0.3475991096802118
-3.942,0.79300680024041,-0.4535654937318862
-3.9415,0.7396559259519968,-0.3370024712750445
-3.941,0.6009436528021226,-0.1462629799820306
-3.9405,0.4729015545099309,0.02328323450064829
-3.94,0.408880505363835,0.1610395337678249
-3.9395,0.6863050516635838,0.5425185163538525
-3.939,0.5689331282290746,0.7226613692416989
-3.9385,-0.274010685527854,0.03387987290581572
-3.938,-0.9889124009925911,-0.7078848154559045
-3.9375,-1.394379045584531,-1.195330182093607
-3.937,-1.095614149569417,-0.9622041371799229
-3.9365,-0.5834457564006506,-0.4323722169215513
-3.936,-0.124628237520297,0.07626642652648545
-3.9355,0.1741366584948169,0.4259554938970107
-3.935,0.3235191065023739,0.627291623595192
-3.9345,0.3875401556484697,0.7226613692416989
-3.934,0.3875401556484697,0.7438546460520338
-3.9335,0.3661998059331045,0.7332580076468663
-3.933,0.3448594562177392,0.701468092431364
-3.9325,0.3235191065023739,0.6696781772158616
-3.932,0.3128489316446912,0.6166949851900245
-3.9315,0.1207857842064037,0.4047622170866759
-3.931,-0.5514352318276028,-0.2946159176543747
-3.9305,-1.191645723288561,-1.089363798041932
-3.93,-1.586442193022819,-1.682775548731308
-3.9295,-1.351698346153801,-1.587405803084801
-3.929,-0.722158029550525,-1.046977244421262
-3.9285,-0.1779791118087102,-0.5807251545938954
-3.928,0.1954770082101822,-0.2204394488182027
-3.9275,0.3768699807907871,0.002089957690313421
-3.927,0.4515612047945656,0.09745970333682032
-3.9265,0.4622313796522482,0.08686306493165288
-3.926,0.4729015545099309,-0.008506680714854012
-3.9255,0.6542945270905358,-0.2204394488182027
-3.925,0.6756348768059011,-0.2098428104130352
-3.9245,0.5796033030867573,-0.07208651114585861
-3.924,0.4729015545099309,0.07626642652648545
-3.9235,0.3982103305061524,0.2034260873884947
-3.923,0.5262524287983441,0.457745409112513
-3.9225,0.6756348768059011,0.8604176685088755
-3.922,0.02475421048725994,0.3517790250608387
-3.9215,-0.7008176798351597,-0.4535654937318862
-3.921,-1.244996597576974,-1.110557074852267
-3.9205,-1.180975548430879,-1.142346990067769
-3.92,-0.722158029550525,-0.6654982618352349
-3.9195,-0.2526703358124887,-0.1356663415768632
-3.919,0.08877525963335578,0.2776025562246667
-3.9185,0.291508581929326,0.5213252395435176
-3.918,0.3661998059331045,0.6378882620003594
-3.9175,0.3875401556484697,0.6802748156210291
-3.917,0.3768699807907871,0.6802748156210291
-3.9165,0.3555296310754218,0.6590815388106942
-3.916,0.3341892813600565,0.6166949851900245
-3.9155,0.3128489316446912,0.5743084315693548
-3.915,0.2274875327832301,0.4471487707073456
-3.9145,-0.3487019095316325,-0.1674562567923655
-3.914,-1.138294849000148,-0.9622041371799229
-3.9135,-1.83185621474952,-1.629792356705471
-3.913,-1.959898313041711,-1.84172512480882
-3.9125,-1.255666772434657,-1.290699927740113
-3.912,-0.5300948821122373,-0.6549016234300674
-3.9115,0.03542438534494258,-0.1886495336027004
-3.911,0.3661998059331045,0.07626642652648545
-3.9105,0.4835717293676135,0.1504428953626575
-3.91,0.5049120790829789,0.13984625695749
-3.9095,0.4729015545099309,0.09745970333682032
-3.909,0.5475927785137094,-0.1038764263613609
-3.9085,0.5796033030867573,-0.1886495336027004
-3.908,0.5262524287983441,-0.1250697031716958
-3.9075,0.4515612047945656,-0.01910331912002144
-3.907,0.3875401556484697,0.08686306493165288
-3.9065,0.4195506802215176,0.2458126410091644
-3.906,0.7609962756673623,0.7862411996727035
-3.9055,0.3982103305061524,0.9134008605347127
-3.905,-0.4340633083930936,0.1610395337678249
-3.9045,-1.170305373573196,-0.6866915386455698
-3.904,-1.330357996438436,-1.068170521231597
-3.9035,-0.9142211769888124,-0.7608680074817418
-3.903,-0.4020527838200457,-0.252229364033705
-3.9025,0.00341386077189465,0.2034260873884947
-3.902,0.2488278824985954,0.5107286011383502
-3.9015,0.3555296310754218,0.6908714540261965
-3.901,0.3875401556484697,0.7650479228623686
-3.9005,0.3875401556484697,0.7862411996727035
-3.9,0.3661998059331045,0.775644561267536
-3.8995,0.3448594562177392,0.7544512844572011
-3.899,0.3235191065023739,0.7120647308365314
-3.8985,0.3021787567870086,0.6590815388106942
-3.898,-0.01792648894347063,0.2881991946298341
-3.8975,-0.7328282044082075,-0.4853554089473885
-3.897,-1.426389570157579,-1.248313374119443
-3.8965,-1.821186039891837,-1.672178910326141
-3.896,-1.341028171296118,-1.301296566145281
-3.8955,-0.658136980404429,-0.7714646458869092
-3.895,-0.08194753808956648,-0.326405832869877
-3.8945,0.2594980573562781,-0.06148987274069118
-3.894,0.4302208550792003,0.03387987290581572
-3.8935,0.4835717293676135,0.03387987290581572
-3.893,0.4835717293676135,-0.008506680714854012
-3.8925,0.4942419042252961,-0.06148987274069118
-3.892,0.5262524287983441,-0.1356663415768632
-3.8915,0.4835717293676135,-0.1144730647665284
-3.891,0.4302208550792003,-0.06148987274069118
-3.8905,0.3768699807907871,0.002089957690313421
-3.89,0.3661998059331045,0.08686306493165288
-3.8895,0.6329541773751706,0.4683420475176805
-3.889,0.5155822539406614,0.6802748156210291
-3.8885,-0.3273615598162672,0.02328323450064829
-3.888,-1.074273799854052,-0.7290780922662394
-3.8875,-1.597112367880501,-1.269506650929778
