Class_9_Think_Grab_one_hand_movement/Class_9_Think_Right_hand_Grab_Suko_5.csv

#Digilent WaveForms Oscilloscope Acquisition
#Device Name: EExplorer
#Serial Number: SN:210151A2B84A
#Date Time: 2020-12-22 14:27:18.936
#Sample rate: 2000Hz
#Samples: 16384
#Trigger: Source: Channel 1 Type: Edge Condition: Rising Level: 0 V Hyst.: Auto HoldOff: 0 s
#Channel 1: Range: 1 V/div Offset: 0 V Attenuation: 1 X
#Channel 2: Range: 1 V/div Offset: 0 V Attenuation: 1 X
#Power Supplies: ON
#Fixed Supply: ON
#Voltage: 3.3 V Readback: 3.328 V
#Positive Supply: ON
#Voltage: 3.7 V Readback: 3.714 V
#Current: 40 mA Readback: 19 mA
#Negative Supply: ON
#Voltage: -3.7 V Readback: -3.831 V
#Current: -40 mA Readback: 0 A
#Reference 1: ON
#Voltage: 0 V
#Reference 2: ON
#Voltage: 0 V

Time (s),Channel 1 (V),Channel 2 (V)
-4.096,-0.6688071552621118,-0.1886495336027004
-4.0955,-0.09261771294777321,-0.6231117082141699
-4.095,0.2594980573563848,-0.8350444763179716
-4.0945,0.3768699807907871,-0.8986243067489184
-4.094,-0.08194753808914923,-1.301296566144915
-4.0935,-0.3273615598161217,-1.333086481360388
-4.093,-0.1673089369510276,-0.8986243067489184
-4.0925,-0.0499370135166253,-0.4747587705426066
-4.092,0.1421261339219242,0.02328323450104343
-4.0915,0.3128489316446912,0.457745409112513
-4.091,0.3128489316446912,0.701468092431364
-4.0905,-0.1993194615249683,0.584905069974021
-4.09,-1.180975548430879,0.03387987290581572
-4.0895,-1.895877263895616,-0.6760949002404023
-4.089,-1.831856214749578,-0.8562377531280848
-4.0885,-0.9569018764195432,-0.4959520473525559
-4.088,-0.007256314085787988,-0.1250697031716958
-4.0875,0.6222840025169153,0.2881991946294582
-4.087,0.8890383739595538,0.6908714540264856
-4.0865,0.8890383739595538,1.00877060618122
-4.086,0.7609962756674787,1.125333628637956
-4.0855,0.6436243522328822,1.061753798206806
-4.085,0.6756348768059011,0.7862411996727035
-4.0845,0.6542945270905552,0.5319218779489163
-4.084,0.5902734779443622,0.3517790250606749
-4.0835,0.5049120790829789,0.1716361721729923
-4.083,0.4515612047945656,0.002089957690313421
-4.0825,0.366199805932629,-0.1144730647662392
-4.082,-0.156638762093345,0.2034260873884947
-4.0815,-0.9675720512772257,0.8074344764830383
-4.081,-1.703814116456658,1.337266396740928
-4.0805,-2.173301810195364,1.602182356870596
-4.08,-1.682473766741963,1.178316820663898
-4.0795,-0.8928808272741653,0.4153588554925371
-4.079,-0.2420001609544179,-0.231036087223717
-4.0785,0.1848068333524996,-0.6125150698093976
-4.078,0.3982103305059583,-0.7396747306712912
-4.0775,0.4835717293676135,-0.6760949002402578
-4.077,0.4835717293676135,-0.5171453241628908
-4.0765,0.4622313796522676,-0.2946159176545771
-4.076,0.4195506802212847,-0.05089323433550447
-4.0755,0.1634664836371343,-0.02969995752518888
-4.075,-0.4340633083930936,-0.3793890248957141
-4.0745,-0.3273615598163837,-0.05089323433535026
-4.074,-0.4554036581084589,0.13984625695749
-4.0735,-1.138294849000148,0.002089957690313421
-4.073,-1.597112367880084,-0.442968855326314
-4.0725,-1.83185621474952,-0.9092209451540858
-4.072,-1.244996597576974,-0.8244478379127463
-4.0715,-0.3166913849594289,-0.3158091944651722
-4.071,0.4088805053641844,0.1822328105785838
-4.0705,0.79300680024041,0.6484849004055269
-4.07,0.8890383739594664,0.9239974989396295
-4.0695,0.8250173248133512,1.029963882991535
-4.069,0.707645401378949,1.00877060618122
-4.0685,0.6649647019482183,0.849821030103708
-4.068,0.6436243522327851,0.6060983467846547
-4.0675,0.5689331282290746,0.383568940276341
-4.067,0.4942419042252961,0.1822328105781598
-4.0665,0.4515612047945365,-0.01910331912018528
-4.066,0.4195506802215176,-0.1992461720078678
-4.0655,0.07810508477567314,-0.07208651114585861
-4.065,-0.7648387289804889,0.468342047517189
-4.0645,-1.447729919872945,1.061753798207057
-4.064,-1.778505340461106,1.241896651094903
-4.0635,-1.778505340461106,0.9769806909659582
-4.063,-1.170305373572585,0.383568940275811
-4.0625,-0.4980843575391895,-0.1992461720078678
-4.062,0.01408403562911148,-0.5807251545935485
-4.0615,0.3128489316448174,-0.7184814538610431
-4.061,0.4515612047945656,-0.6866915386455698
-4.0605,0.4835717293676135,-0.5383386009732256
-4.06,0.4729015545099018,-0.326405832869665
-4.0595,0.4408910299368829,-0.09327978795619347
-4.059,0.408880505363835,0.1504428953626575
-4.0585,0.3768699807908162,0.383568940276129
-4.058,0.3661998059331045,0.5955017083796896
-4.0575,0.3128489316446912,0.7650479228623686
-4.057,-0.1673089369505909,0.7544512844572108
-4.0565,-1.010252750707956,0.1928294489833272
-4.056,-1.885207089037933,-0.6337083466197325
-4.0555,-1.287677297008249,-0.5807251545939436
-4.055,-0.3380317346732414,-0.7608680074816743
-4.0545,0.4408910299368829,-0.6866915386455698
-4.054,0.9530594231051839,-0.2416327256289423
-4.0535,1.070431346540033,0.2881991946301715
-4.053,0.9317190733902845,0.6590815388106942
-4.0525,0.7503261008096795,0.8922075837243778
-4.052,0.6116138276597857,0.9028042221293717
-4.0515,0.5902734779444399,0.7120647308365314
-4.051,0.5475927785137094,0.5107286011383502
-4.0505,0.5049120790830177,0.2987958330351943
-4.05,0.4729015545099309,0.08686306493165288
-4.0495,0.4408910299368829,-0.1356663415768632
-4.049,0.2168173579257513,-0.19924617200781
-4.0485,-0.5727755815438414,0.2776025562252257
-4.048,-1.533091318734406,0.8922075837243778
-4.0475,-2.077270236475726,1.347863035146163
-4.047,-2.247993034198589,1.390249588766688
-4.0465,-1.639793067311232,0.775644561267536
-4.046,-0.818189603270416,0.02328323450133252
-4.0455,-0.1673089369506491,-0.5277419625682992
-4.045,0.2488278824985954,-0.792657922697244
-4.0445,0.4408910299368829,-0.8350444763179138
-4.044,0.5049120790829692,-0.7184814538608792
-4.0435,0.4942419042252961,-0.5065486857577234
-4.043,0.4729015545099309,-0.252229364033705
-4.0425,0.4302208550792391,0.01268659609523992
-4.042,0.3875401556484697,0.2776025562246667
-4.0415,0.3661998059331045,0.5213252395435176
-4.041,0.3448594562177586,0.7438546460518314
-4.0405,-0.03926683865953463,0.8498210301035828
-4.04,-0.807519428411986,0.7120647308365314
-4.0395,-1.415719395299344,0.3411823866560086
-4.039,-1.362368521010649,0.1928294489832405
-4.0385,-0.4447334832507763,0.09745970333682032
-4.038,0.4088805053630586,-0.146262979981809
-4.0375,0.5902734779441099,-0.3370024712752661
-4.037,0.2274875327832301,-0.5807251545938954
-4.0365,0.3661998059331045,-0.09327978795619347
-4.036,0.3768699807908259,0.2670059178197113
-4.0355,0.4195506802215176,0.5001319627331828
-4.035,0.5689331282290746,0.55311515475902
-4.0345,0.5689331282290746,0.4259554938971264
-4.034,0.5049120790829789,0.2881991946298341
-4.0335,0.4515612047945656,0.1504428953626575
-4.033,0.4302208550792198,0.01268659609560613
-4.0325,0.3982103305059777,-0.08268314955076583
-4.032,0.2061471830678648,0.2034260873884947
-4.0315,-0.5087545323962219,0.7968378380773312
-4.031,-1.405049220442719,1.347863035146895
-4.0305,-1.959898313041711,1.697552102517103
-4.03,-2.269333383914226,1.76113193294805
-4.0295,-1.746494815887311,1.199510097473539
-4.029,-0.9248913518464952,0.4365521323021782
-4.0285,-0.2313299860971235,-0.1250697031716958
-4.028,0.2061471830680686,-0.4217755785164224
-4.0275,0.4302208550792003,-0.4641621321370536
-4.027,0.5049120790829789,-0.3581957480853793
-4.0265,0.5049120790829789,-0.167456256792539
-4.026,0.4729015545099309,0.05507314971615059
-4.0255,0.4302208550792003,0.2881991946298341
-4.025,0.3982103305061815,0.5107286011381478
-4.0245,0.3661998059329298,0.7014680924314122
-4.024,0.1741366584948169,0.7544512844572011
-4.0235,-0.4980843575385781,0.553115154759203
-4.023,-1.266336947292728,0.08686306493127702
-4.0225,-1.693143941599645,-0.326405832869877
-4.022,-0.9782422261355586,-0.1568596183873523
-4.0215,-0.01792648894283983,-0.2628260024389688
-4.021,0.6756348768059011,-0.3687923864905467
-4.0205,0.9957401225363802,-0.2098428104130352
-4.02,1.006410297393947,0.1080563417421901
-4.0195,0.8783681991018712,0.3305857482505039
-4.019,0.4302208550792003,0.13984625695749
-4.0185,-0.2526703358118677,-0.3899856633003998
-4.018,-0.124628237520297,-0.252229364033705
-4.0175,-0.007256314085787988,-0.1674562567923655
-4.017,0.1741366584946519,-0.04029659593047197
-4.0165,0.366199805933153,0.08686306493161433
-4.016,0.4195506802215176,0.04447651131098315
-4.0155,0.6329541773749765,0.05507314971614095
-4.015,1.049090996824289,0.5001319627337033
-4.0145,0.4942419042252961,1.072350436612224
-4.014,-0.5087545323959599,1.390249588766958
-4.0135,-1.415719395299848,1.538602526439234
-4.013,-1.362368521011484,1.146526905448396
-4.0125,-0.8181896032696687,0.5213252395435176
-4.012,-0.2633405106698123,0.02328323450039771
-4.0115,0.1314559590640864,-0.252229364033705
-4.011,0.3555296310754218,-0.326405832869877
-4.0105,0.4622313796521512,-0.2522293640337724
-4.01,0.4835717293676135,-0.1038764263613609
-4.0095,0.4729015545099309,0.06566978812131802
-4.009,0.4408910299369121,0.2458126410090005
-4.0085,0.4088805053638156,0.4153588554919783
-4.008,0.3875401556484697,0.5637117931641874
-4.0075,0.3341892813601051,0.6378882620002919
-4.007,-0.1779791118092828,0.3093924714396678
-4.0065,-0.807519428411986,-0.2416327256285375
-4.006,-1.170305373573196,-0.6337083466197325
-4.0055,-0.9675720512765172,-0.9728007755852542
-4.005,-0.1886492866663929,-1.152943628472937
-4.0045,0.5262524287983441,-1.025783967610927
-4.004,0.9317190733903621,-0.6125150698088483
-4.0035,1.017080472251745,-0.008506680714854012
-4.003,0.942389248247967,0.4259554938970107
-4.0025,0.7930068002405459,0.6590815388104821
-4.002,0.6756348768059011,0.6802748156210291
-4.0015,0.7609962756673623,0.4047622170866759
-4.001,0.7396559259520162,0.19282944898352
-4.0005,0.4408910299362425,-0.1462629799827053
-4,-0.2633405106701714,-0.8880276683437509
-3.9995,-0.2313299860971235,-0.9198175835592532
-3.999,-0.1779791118087102,-0.792657922697244
-3.9985,-0.5834457564006506,-0.1144730647665284
-3.998,-1.277007122150022,0.8392243916985406
-3.9975,-2.045259711903173,1.485619334413754
-3.997,-2.685470203364131,1.782325209758442
-3.9965,-2.354694782775969,1.443232780793084
-3.996,-1.426389570157579,0.6484849004055269
-3.9955,-0.5514352318276028,-0.05089323433552374
-3.995,0.05676473506030786,-0.4641621321370536
-3.9945,0.3875401556484697,-0.6019184314042303
-3.994,0.5262524287983441,-0.5383386009732256
-3.9935,0.5369226036560266,-0.3687923864905467
-3.993,0.5049120790829789,-0.1462629799820306
-3.9925,0.4622313796522482,0.09745970333682032
-3.992,0.4195506802215176,0.3411823866556712
-3.9915,0.3875401556484697,0.5637117931641874
-3.991,0.3555296310754218,0.7438546460520338
-3.9905,-0.156638762093345,0.4789386859228479
-3.99,-1.020922925565639,-0.2310360872233701
-3.9895,-1.533091318734406,-0.8880276683437509
-3.989,-1.501080794161358,-1.078767159636765
-3.9885,-0.7434983792658902,-0.792657922697244
-3.988,0.09944543449103843,-0.4217755785163839
-3.9875,0.6756348768059011,-0.06148987274069118
-3.987,0.8783681991018712,0.383568940276341
-3.9865,0.8676980242441885,0.775644561267536
-3.986,0.7823366253827275,0.9769806909657173
-3.9855,0.6649647019482183,0.9451907757502149
-3.985,0.6756348768059011,0.627291623595192
-3.9845,0.6649647019482183,0.2881991946298341
-3.984,0.6009436528021226,0.04447651131098315
-3.9835,0.5262524287983441,-0.1780528951975329
-3.983,0.4729015545099309,-0.3793890248957141
-3.9825,0.4195506802215176,-0.5489352393783931
-3.982,-0.09261771294724913,-0.6549016234300674
-3.9815,-1.084943974711735,-1.0999604364471
-3.981,-1.383708870726849,-1.333086481360783
-3.9805,-1.693143941599645,-1.05757388282643
-3.98,-2.013249187330125,-0.3370024712750445
-3.9795,-1.490410619303675,-0.07208651114585861
-3.979,-0.722158029550525,-0.2098428104130352
-3.9785,-0.156638762093345,-0.4535654937318862
-3.978,0.2061471830678648,-0.5807251545938954
-3.9775,0.3982103305061524,-0.5489352393783931
-3.977,0.4729015545099309,-0.4111789401112165
-3.9765,0.4942419042252961,-0.1992461720078678
-3.976,0.4729015545099309,0.04447651131098315
-3.9755,0.4302208550792003,0.309392471440169
-3.975,0.408880505363835,0.5425185163538525
-3.9745,0.3875401556484697,0.7650479228623686
-3.974,0.1954770082101822,0.8922075837243778
-3.9735,-0.5941159312583333,0.8286277532933731
-3.973,-1.298347471865388,0.4683420475176805
-3.9725,-1.554431668449771,-0.04029659593035631
-3.972,-0.9142211769888124,-0.05089323433552374
-3.9715,-0.02859666380115328,-0.05089323433552374
-3.971,0.6436243522328531,0.03387987290581572
-3.9705,0.9637295979633325,0.2140227257936621
-3.97,0.9957401225363802,0.4259554938970107
-3.9695,0.8890383739595538,0.5743084315693548
-3.969,0.7396559259519968,0.627291623595192
-3.9685,0.6542945270905358,0.5743084315693548
-3.968,0.6649647019482183,0.3729723018711736
-3.9675,0.6116138276598051,0.2458126410091644
-3.967,0.5369226036560266,0.1292496185523226
-3.9665,0.4729015545099309,0.002089957690313421
-3.966,0.4302208550792003,-0.1144730647665284
-3.9655,0.2168173579255475,0.02328323450064829
-3.965,-0.4767440078238243,0.5743084315693548
-3.9645,-1.170305373573196,1.146526905448396
-3.964,-1.799845690176472,1.538602526439591
-3.9635,-1.938557963326346,1.400846227172415
-3.963,-1.693143941599645,0.2670059178194992
-3.9625,-1.319687821580753,-0.7502713690765743
-3.962,-0.5941159312583333,-1.025783967610927
-3.9615,-0.1352984123779797,-1.078767159636765
-3.961,0.2274875327832301,-0.8456411147230812
-3.9605,0.4515612047945656,-0.5277419625680583
-3.96,0.4942419042252961,-0.2840192792492073
-3.9595,0.4622313796522482,-0.05089323433552374
-3.959,0.4302208550792003,0.1822328105781598
-3.9585,0.3982103305061524,0.3941655786815084
-3.958,0.3875401556484697,0.5955017083796896
-3.9575,0.3448594562177392,0.7544512844572011
-3.957,-0.2206598112394408,0.6378882620003594
-3.9565,-1.138294849000148,0.2140227257936621
-3.956,-1.639793067311232,-0.2204394488182027
-3.9555,-1.51175096901904,-0.4217755785163839
-3.955,-0.6794773301197943,-0.2840192792492073
-3.9545,0.1741366584948169,-0.008506680714854012
-3.954,0.7289857510943143,0.309392471440169
-3.9535,0.9210488985326017,0.5849050699745222
-3.953,0.8890383739595538,0.7862411996727035
-3.9525,0.7503261008096795,0.8710143069140429
-3.952,0.6329541773751706,0.7968378380778709
-3.9515,0.6329541773751706,0.5107286011383502
-3.951,0.6009436528021226,0.2776025562246667
-3.9505,0.5475927785137094,0.08686306493165288
-3.95,0.4942419042252961,-0.09327978795619347
-3.9495,0.4515612047945656,-0.2734226408440398
-3.949,0.3661998059331045,-0.3687923864905467
-3.9485,-0.1459685872356623,-0.1038764263613609
-3.948,-0.9035510021311299,0.4471487707073456
-3.9475,-1.362368521011484,0.8286277532933731
-3.947,-1.703814116457328,0.3517790250608387
-3.9465,-1.618452717595867,-0.3793890248957141
-3.946,-0.9889124009925911,-0.6019184314042303
-3.9455,-0.3487019095316325,-0.5489352393783931
-3.945,0.09944543449103843,-0.400582301706049
-3.9445,-0.09261771294724913,-0.6866915386455698
-3.944,-0.3487019095316325,-0.8986243067489184
-3.9435,-0.124628237520297,-0.5913217929990628
-3.943,0.01408403562957729,-0.3370024712750445
-3.9425,0.1954770082101822,-0.02969995752518888
-3.942,0.3661998059331045,0.2352160026039969
-3.9415,0.3875401556484697,0.3411823866556712
-3.941,0.3555296310754218,0.383568940276341
-3.9405,0.04609456020262521,0.309392471440169
-3.94,-0.8715404775580819,0.09745970333682032
-3.9395,-1.46907026958831,-0.3158091944647096
-3.939,-1.607782542738184,-0.9622041371799229
-3.9385,-1.095614149569417,-1.248313374119443
-3.938,-0.2206598112394408,-0.9833974139902578
-3.9375,0.4622313796522482,-0.5065486857577234
-3.937,0.7823366253827275,-0.008506680714854012
-3.9365,0.857027849386506,0.3517790250608387
-3.936,0.8036769750980928,0.5213252395435176
-3.9355,0.6969752265212663,0.5637117931641874
-3.935,0.7716664505250448,0.3411823866556712
-3.9345,0.8463576745288233,0.03387987290581572
-3.934,0.7609962756673623,-0.06148987274069118
-3.9335,0.6329541773751706,-0.08268314955102604
-3.933,0.5369226036560266,-0.1038764263613609
-3.9325,0.4622313796522482,-0.1144730647665284
-3.932,0.142126133921769,0.2458126410091644
-3.9315,-0.6261264558313813,0.8710143069140429
-3.931,-1.191645723288561,1.42203950398275
-3.9305,-1.650463242168915,1.739938656137773
-3.93,-1.735824641030376,1.686955464111935
-3.9295,-1.148965023857831,1.019367244586387
-3.929,-0.4874141826815069,0.309392471440169
-3.9285,0.02475421048725994,-0.1780528951975329
-3.928,0.3235191065023739,-0.400582301706049
-3.9275,0.4729015545099309,-0.4111789401112165
-3.927,0.5049120790829789,-0.2946159176543747
-3.9265,0.5049120790829789,-0.1038764263613609
-3.926,0.3661998059331045,0.002089957690313421
-3.9255,-0.156638762093345,-0.2946159176543747
-3.925,-0.3593720843893152,-0.2840192792492073
-3.9245,-0.1886492866663929,0.06566978812131802
-3.924,-0.09261771294724913,0.3411823866556712
-3.9235,-0.4874141826815069,0.5743084315693548
-3.923,-1.138294849000148,0.4895353243280153
-3.9225,-1.725154466172693,-0.01910331912002144
-3.922,-1.362368521011484,-0.1674562567923655
-3.9215,-0.423393133535411,-0.2946159176543747
-3.921,0.3768699807907871,-0.1038764263613609
-3.9205,0.8356874996711408,0.1186529801471552
-3.92,0.9850699476786977,0.4153588554918433
-3.9195,0.942389248247967,0.627291623595192
-3.919,0.825017324813458,0.7226613692416989
-3.9185,0.7289857510943143,0.6060983467848571
-3.918,0.7609962756673623,0.2670059178194992
-3.9175,0.6969752265212663,0.06566978812131802
-3.917,0.6009436528021226,-0.06148987274069118
-3.9165,0.5155822539406614,-0.1674562567923655
-3.916,0.4622313796522482,-0.2734226408440398
-3.9155,0.4302208550792003,-0.1780528951975329
-3.915,0.1741366584948169,0.4047622170866759
-3.9145,-0.5300948821122373,1.040560521396722
-3.914,-1.202315898146244,1.33726639674141
-3.9135,-1.778505340461106,0.92399749893988
-3.913,-1.661133417026597,0.5001319627331828
-3.9125,-1.010252750707956,0.002089957690313421
-3.912,-0.3487019095316325,-0.3581957480853793
-3.9115,0.1207857842064037,-0.5171453241628908
-3.911,0.3875401556484697,-0.5065486857577234
-3.9105,0.4942419042252961,-0.3793890248957141
-3.91,0.5155822539406614,-0.1992461720078678
-3.9095,0.4942419042252961,0.002089957690313421
-3.909,0.4622313796522482,0.2140227257936621
-3.9085,0.4195506802215176,0.4259554938970107
-3.908,0.408880505363835,0.6060983467848571
-3.9075,0.3982103305061524,0.7650479228623686
-3.907,-0.04993701351651855,0.5637117931641874
-3.9065,-1.362368521011484,-0.4641621321370536
-3.906,-1.83185621474952,-0.7820612842920766
-3.9055,-1.607782542738184,-0.9516074987747555
-3.905,-0.7008176798351597,-1.131750351662602
-3.9045,0.2808384070716433,-0.9833974139902578
-3.904,0.9210488985326017,-0.7396747306714069
-3.9035,1.113112045970889,-0.3158091944647096
-3.903,1.038420821967111,0.1186529801471552
-3.9025,0.8890383739595538,0.4471487707073456
-3.902,0.7183155762366316,0.627291623595192
-3.9015,0.6436243522328531,0.5849050699745222
-3.901,0.5902734779444399,0.457745409112513
-3.9005,0.5369226036560266,0.2776025562246667
-3.9,0.4942419042252961,0.04447651131098315
-3.8995,0.4515612047945656,-0.2098428104130352
-3.899,0.3448594562177392,-0.3581957480853793
-3.8985,-0.3273615598162672,-0.01910331912002144
-3.898,-1.277007122150022,0.5955017083796896
-3.8975,-1.959898313041711,1.051157159801889
-3.897,-2.333354433060604,0.6166949851900245
-3.8965,-1.810515865034154,-0.1462629799820306
-3.896,-0.9675720512772257,-0.5277419625680583
-3.8955,-0.2526703358124887,-0.6549016234300674
-3.895,0.2061471830678648,-0.6231117082145651
-3.8945,0.4408910299368829,-0.5065486857577234
-3.894,0.5262524287983441,-0.3687923864905467
-3.8935,0.5369226036560266,-0.2204394488182027
-3.893,0.5049120790829789,-0.06148987274069118
-3.8925,0.4729015545099309,0.07626642652648545
-3.892,0.4408910299368829,0.2140227257936621
-3.8915,0.408880505363835,0.3305857482505039
-3.891,0.3875401556484697,0.4365521323021782
-3.8905,0.1848068333524996,0.3411823866556712
-3.89,-0.4127229586777283,-0.1992461720078678
-3.8895,-1.159635198715513,-0.8350444763179138
-3.889,-1.554431668449771,-1.184733543688439
-3.8885,-1.244996597576974,-1.407262950196955
-3.888,-0.8822106524157645,-1.449649503817625
-3.8875,-0.03926683865883591,-0.7502713690765743
-3.887,0.4408910299368829,-0.2628260024388724
