Class_9_Think_Grab_one_hand_movement/Class_9_Think_Right_hand_Grab_Turki_4.csv

#Digilent WaveForms Oscilloscope Acquisition
#Device Name: EExplorer
#Serial Number: SN:210151A2B84A
#Date Time: 2020-12-10 14:10:32.239
#Sample rate: 2000Hz
#Samples: 16384
#Trigger: Source: Channel 1 Type: Edge Condition: Rising Level: 0 V Hyst.: Auto HoldOff: 0 s
#Channel 1: Range: 1 V/div Offset: 0 V Attenuation: 1 X
#Channel 2: Range: 1 V/div Offset: 0 V Attenuation: 1 X
#Power Supplies: ON
#Fixed Supply: ON
#Voltage: 3.3 V Readback: 3.321 V
#Positive Supply: ON
#Voltage: 3.7 V Readback: 3.715 V
#Current: 40 mA Readback: 20 mA
#Negative Supply: ON
#Voltage: -3.7 V Readback: -3.634 V
#Current: -40 mA Readback: 0 A
#Reference 1: ON
#Voltage: 0 V
#Reference 2: ON
#Voltage: 0 V

Time (s),Channel 1 (V),Channel 2 (V)
-4.096,0.5369226036560266,-0.5383386009732256
-4.0955,0.643624352232756,-0.8138511995073283
-4.095,0.6436243522327366,-0.813851199507415
-4.0945,0.5155822539406614,-0.6337083466197325
-4.094,0.3555296310755673,-0.3899856633011032
-4.0935,0.2381577076409613,-0.188649533602604
-4.093,0.291508581929326,-0.08268314955102604
-4.0925,0.8570278493859917,-0.06148987274071045
-4.092,1.603940089424572,0.6590815388112242
-4.0915,1.913375160297087,1.241896651094903
-4.091,1.219813794547716,1.029963882991555
-4.0905,0.01408403562902414,0.2564092794140234
-4.09,-0.5941159312583333,-0.08268314955102604
-4.0895,-0.6688071552621118,0.1610395337678249
-4.089,-0.604786106116074,0.5319218779483477
-4.0885,-0.8928808272734472,0.5001319627331828
-4.088,-0.5194247072545548,1.072350436612224
-4.0875,-0.2740106855280772,1.47502269600822
-4.087,-0.02859666380101741,1.824711763379314
-4.0865,0.1207857842064037,2.047241169887628
-4.086,0.1207857842064037,2.079031085103102
-4.0855,0.07810508477563433,2.068434446697905
-4.085,0.03542438534494258,2.004854616266958
-4.0845,-0.3166913849582643,1.506812611224542
-4.084,-1.138294849000536,0.3305857482494341
-4.0835,-1.565101843307454,-0.8456411147230812
-4.083,-1.703814116457328,-1.746355379162313
-4.0825,-1.479740444445313,-2.318573853041152
-4.082,-0.7328282044082075,-2.096044446532838
-4.0815,0.00341386077189465,-1.311893204550448
-4.081,0.4622313796518309,-0.6231117082151915
-4.0805,0.6756348768059011,-0.252229364033705
-4.08,0.6969752265212663,-0.2098428104130352
-4.0795,0.6222840025175558,-0.4217755785161912
-4.079,0.6116138276598148,-0.6972881770507757
-4.0785,0.6222840025174878,-0.7396747306714069
-4.078,0.5155822539407584,-0.6549016234301446
-4.0775,0.3768699807906803,-0.5701285161886605
-4.077,0.2594980573562781,-0.4959520473525559
-4.0765,0.1954770082102404,-0.3687923864906624
-4.076,0.5796033030874269,0.1186529801479165
-4.0755,1.315845368266859,0.9557874141553824
-4.075,1.454557641416734,1.146526905448396
-4.0745,0.6009436528010066,0.521325239542737
-4.074,-0.6261264558313813,-0.3370024712750445
-4.0735,-1.202315898146244,-0.718481453861072
-4.073,-1.052933450138823,-0.2734226408444446
-4.0725,-0.658136980404429,0.457745409112513
-4.072,-0.2846808603855366,1.125333628638062
-4.0715,-0.03926683865905911,1.623375633680478
-4.071,0.07810508477560521,1.90948487062049
-4.0705,0.00341386077189465,1.951871424241121
-4.07,-0.1459685872355265,1.888291593810174
-4.0695,-0.6047861061158605,1.517409249629401
-4.069,-0.4340633083930936,1.676358825706768
-4.0685,-0.274010685527854,1.718745379327438
-4.068,-0.2953510352439278,1.761131932947886
-4.0675,-1.074273799854052,1.517409249629256
-4.067,-1.650463242168915,0.6166949851900245
-4.0665,-1.863866739322665,-0.7608680074827634
-4.066,-1.970568487899394,-1.88411167842949
-4.0655,-1.479740444445993,-2.17022091536901
-4.065,-0.6047861061168116,-1.682775548731752
-4.0645,0.05676473506030786,-1.046977244421262
-4.064,0.4408910299368829,-0.6231117082145651
-4.0635,0.590273477944304,-0.4959520473526716
-4.063,0.6009436528020935,-0.5383386009733605
-4.0625,0.5689331282290746,-0.6866915386455698
-4.062,0.675634876805804,-0.9092209451538834
-4.0615,0.643624352232727,-0.8350444763177114
-4.061,0.5049120790829789,-0.6125150698093976
-4.0605,0.3448594562177392,-0.400582301706049
-4.06,0.2274875327834145,-0.1992461720076751
-4.0595,0.4302208550792003,0.01268659609548085
-4.059,1.081101521397841,0.3517790250608387
-4.0585,1.017080472251804,0.1080563417422094
-4.058,0.1207857842064037,-0.5171453241628908
-4.0575,-1.031593100423322,-1.004590690800593
-4.057,-1.746494815887409,-1.248313374119222
-4.0565,-1.543761493592088,-0.7078848154559045
-4.056,-0.9782422261349084,0.1822328105781598
-4.0555,-0.4554036581089344,0.9769806909649944
-4.055,-0.09261771294707445,1.528005888034713
-4.0545,0.09944543449103843,1.845905040189447
-4.054,0.174136658494749,1.983661339456498
-4.0535,0.1848068333524802,1.994257977861762
-4.053,0.1634664836371343,1.962468062646288
-4.0525,0.1314559590640864,1.888291593810116
-4.052,0.0567647350601914,1.739938656137464
-4.0515,-0.07127736323188383,1.400846227172415
-4.051,-0.7008176798351597,0.7544512844572011
-4.0505,-1.202315898145788,0.2246193641993113
-4.05,-1.87453691418025,-0.9728007755850904
-4.0495,-2.450726356495113,-2.127834361748341
-4.049,-2.269333383914673,-2.456330152308232
-4.0485,-1.362368521010552,-1.979481424075206
-4.048,-0.3380317346739499,-1.110557074852267
-4.0475,0.3341892813594451,-0.4641621321376415
-4.047,0.5902734779444689,-0.3052125560595518
-4.0465,0.6222840025174878,-0.3158091944647096
-4.046,0.5475927785137773,-0.4323722169214453
-4.0455,0.6863050516636129,-0.7396747306715032
-4.045,0.7183155762366316,-0.8456411147230812
-4.0445,0.5689331282290746,-0.6337083466197325
-4.044,0.4088805053637186,-0.3793890248955214
-4.0435,0.2808384070716433,-0.1674562567923655
-4.043,0.2594980573562781,0.08686306493165288
-4.0425,0.6863050516631957,0.6908714540256472
-4.042,0.6756348768059011,0.5849050699745222
-4.0415,-0.2313299860971235,-0.3052125560595421
-4.041,-1.255666772433725,-1.057573882825745
-4.0405,-2.151961460479999,-1.598002441489805
-4.04,-2.151961460479999,-1.417859588602123
-4.0395,-1.479740444446604,-0.5171453241637101
-4.039,-0.76483872898078,0.4365521323028431
-4.0385,-0.2420001609548061,1.167720182258731
-4.038,0.05676473506003615,1.623375633680516
-4.0375,0.1954770082102113,1.845905040189504
-4.037,0.2274875327832301,1.909484870620451
-4.0365,0.1848068333524996,1.909484870620451
-4.036,0.1207857842063455,1.909484870620432
-4.0355,0.05676473506030786,1.888291593810116
-4.035,0.00341386077189465,1.686955464111935
-4.0345,-0.2526703358122558,1.157123543854045
-4.034,-0.8608703027003992,0.9981739677760521
-4.0335,-1.116954499284783,0.2987958330350016
-4.033,-1.074273799854091,-0.4959520473518331
-4.0325,-0.3380317346731929,-1.099960436447639
-4.032,0.4942419042252961,-1.693372187136476
-4.0315,0.9957401225359241,-1.788741932782896
-4.031,0.9423892482474332,-1.481439419033156
-4.0305,0.3555296310754218,-1.51322933424863
-4.03,0.3555296310754218,-1.036380606016529
-4.0295,0.3341892813602215,-0.7290780922662106
-4.029,0.5155822539406614,-0.6972881770507372
-4.0285,0.6969752265212663,-0.7502713690765743
-4.028,0.579603303086602,-0.6231117082144109
-4.0275,0.408880505363835,-0.4535654937318862
-4.027,0.2701682322139607,-0.2946159176543747
-4.0265,0.216817357925596,-0.1568596183873234
-4.026,0.6329541773751706,0.2987958330350016
-4.0255,1.443887466559051,1.00877060618122
-4.025,1.945385684869679,1.347863035146269
-4.0245,1.18780326997329,0.7332580076458737
-4.024,-0.3273615598162672,-0.3581957480853793
-4.0235,-1.298347471864504,-1.089363798041267
-4.023,-1.277007122149644,-0.7820612842913827
-4.0225,-0.8608703027003992,-0.01910331912002144
-4.022,-0.4127229586781359,0.7226613692410242
-4.0215,-0.09261771294708415,1.294879843121087
-4.021,0.08877525963335578,1.676358825706768
-4.0205,0.1634664836371343,1.877694955404949
-4.02,0.1634664836370761,1.973064701051533
-4.0195,0.09944543449103843,2.057837808292796
-4.019,0.03542438534494258,2.100224361913465
-4.0185,-0.007256314085749171,2.068434446697992
-4.018,-0.1779791118087102,1.79292184816361
-4.0175,-0.4447334832507763,1.33726639674141
-4.017,-0.5621054066851785,0.765047922862889
-4.0165,-0.7008176798351888,-0.1674562567928859
-4.016,-0.7328282044082075,-0.7396747306714069
-4.0155,-0.327361559816636,-0.8562377531281427
-4.015,0.1634664836374545,-0.7820612842919705
-4.0145,0.5155822539406614,-0.6654982618352349
-4.014,0.5475927785136803,-0.7184814538610238
-4.0135,0.6649647019475778,-0.6337083466204072
-4.013,-0.03926683865883591,-1.375473034981453
-4.0125,0.03542438534494258,-1.42845622700729
-4.012,0.4302208550793168,-1.608599079894857
-4.0115,0.5582629533713921,-1.301296566145281
-4.011,0.6009436528021226,-0.6866915386455698
-4.0105,0.4835717293677202,-0.2098428104134689
-4.01,0.3341892813600565,0.09745970333682032
-4.0095,0.5369226036560266,0.3729723018711736
-4.009,1.198473444831749,0.7332580076465387
-4.0085,1.241154144262305,0.1716361721720479
-4.008,0.3875401556484697,-0.8668343915334161
-4.0075,-0.9675720512759931,-1.693372187135724
-4.007,-1.821186039891682,-1.958288147264987
-4.0065,-1.650463242168915,-1.216523458903942
-4.006,-1.074273799854052,-0.1250697031716958
-4.0055,-0.508754532396513,0.7968378380784299
-4.005,-0.1139580626626144,1.411442865577582
-4.0045,0.09944543449103843,1.75053529454294
-4.004,0.1954770082101822,1.877694955404949
-4.0035,0.1954770082101822,1.877694955404949
-4.003,0.1314559590640864,1.845905040189447
-4.0025,0.04609456020270285,1.814115124973973
-4.002,0.01408403562957729,1.75053529454294
-4.0015,-0.04993701351651855,1.506812611224089
-4.001,-0.5621054066848195,0.7226613692424121
-4.0005,-1.148965023857996,0.02328323449990619
-4,-1.330357996438436,-0.792657922697244
-3.9995,-1.084943974711735,-1.38606967338662
-3.999,-0.2099896363817582,-1.873515040024322
-3.9985,0.5475927785137094,-1.894708316834657
-3.998,0.8997085488172365,-1.142346990067769
-3.9975,0.9530594231056497,-0.5913217929990628
-3.997,0.857027849386506,-0.3475991096802118
-3.9965,0.6969752265212663,-0.400582301706049
-3.996,0.4942419042252961,-0.6549016234300674
-3.9955,0.5049120790829789,-0.792657922697244
-3.995,0.1741366584948169,-0.9833974139902578
-3.9945,-0.2420001609548061,-1.184733543688439
-3.994,-0.1673089369510276,-0.8774310299385835
-3.9935,-0.08194753808956648,-0.5807251545938954
-3.993,0.2274875327832301,-0.2840192792492073
-3.9925,1.038420821967111,-0.1250697031716958
-3.992,1.465227816274416,-0.1992461720078678
-3.9915,0.857027849386506,-0.8986243067489184
-3.991,-0.391382608962363,-1.38606967338662
-3.9905,-1.586442193022819,-1.735758740757146
-3.99,-1.725154466172693,-1.216523458903942
-3.9895,-1.223656247861609,-0.1780528951975329
-3.989,-0.6474668055467465,0.775644561267536
-3.9885,-0.2099896363817582,1.464426057603419
-3.988,0.05676473506030786,1.867098316999781
-3.9875,0.1634664836371343,2.036644531482461
-3.987,0.1954770082101822,2.068434446697963
-3.9865,0.1848068333524996,2.004854616266958
-3.986,0.1207857842064037,1.962468062646288
-3.9855,0.04609456020262521,1.867098316999781
-3.985,-0.02859666380115328,1.602182356870596
-3.9845,-0.3380317346739499,0.9769806909657173
-3.984,-1.1062843244271,0.7226613692416989
-3.9835,-1.661133417026597,0.4153588554918433
-3.983,-1.575772018165136,-0.3052125560595421
-3.9825,-0.8288597781273515,-0.7290780922662394
-3.982,0.01408403562957729,-0.8456411147230812
-3.9815,0.6009436528021226,-0.7078848154559045
-3.981,0.8463576745288233,-0.6654982618352349
-3.9805,0.8676980242441885,-0.6654982618352349
-3.98,0.7503261008096795,-0.7078848154559045
-3.9795,0.6116138276598051,-0.7608680074817418
-3.979,0.6329541773751706,-0.8986243067489184
-3.9785,0.6542945270905358,-0.8350444763179138
-3.978,0.5155822539406614,-0.6019184314042303
-3.9775,0.2701682322139607,-0.4429688553267188
-3.977,0.2061471830678648,-0.1568596183871981
-3.9765,-0.2313299860971235,-0.2946159176543747
-3.976,-0.02859666380115328,0.1610395337678249
-3.9755,0.8676980242441885,0.6590815388106942
-3.975,0.7396559259519968,-0.08268314955102604
-3.9745,-0.3487019095316325,-0.8668343915334161
-3.974,-1.693143941599645,-1.51322933424863
-3.9735,-2.290673733629873,-1.661582271920973
-3.973,-1.842526389607202,-0.8138511995075789
-3.9725,-1.1062843244271,0.2776025562246667
-3.972,-0.4767440078238243,1.167720182258731
-3.9715,-0.07127736323188383,1.75053529454294
-3.971,0.1527963087794516,2.057837808292796
-3.9705,0.2274875327832301,2.153207553939303
-3.97,0.2168173579255475,2.142610915534135
-3.9695,0.142126133921769,2.100224361913465
-3.969,0.0674349099179905,2.015451254672126
-3.9685,0.04609456020262521,1.835308401784279
-3.968,-0.07127736323188383,1.33726639674141
-3.9675,-0.754168554123573,0.775644561267536
-3.967,-1.533091318734406,0.7120647308365314
-3.9665,-1.87453691418025,0.002089957690313421
-3.966,-1.959898313041711,-0.7608680074817418
-3.9655,-1.234326422719292,-1.34368311976595
-3.965,-0.2633405106701714,-1.322489842955616
-3.9645,0.3661998059331045,-1.036380606016095
-3.964,0.6863050516635838,-0.792657922697244
-3.9635,0.7289857510943143,-0.7290780922662394
-3.963,0.6649647019482183,-0.7608680074817418
-3.9625,0.6329541773751706,-0.8350444763179138
-3.962,0.7396559259519968,-0.8774310299385835
-3.9615,0.6222840025174878,-0.6972881770507372
-3.961,0.4622313796522482,-0.4641621321370536
-3.9605,0.3128489316446912,-0.2840192792492073
-3.96,0.2168173579255475,-0.1038764263613609
-3.9595,0.3768699807907871,0.06566978812131802
-3.959,-0.03926683865883591,0.3305857482505039
-3.9585,-0.8502001278427167,0.3199891098453364
-3.958,-1.255666772434657,-0.05089323433552374
-3.9575,-2.472066706210478,-1.290699927740113
-3.957,-2.685470203364131,-1.661582271920973
-3.9565,-2.141291285622316,-1.216523458903942
-3.956,-1.255666772434657,-0.2204394488182027
-3.9555,-0.4660738329661415,0.7650479228623686
-3.955,-0.04993701351651855,1.400846227172415
-3.9545,0.142126133921769,1.782325209758442
-3.954,0.2168173579255475,1.962468062646288
-3.9535,0.2168173579255475,2.026047893077293
-3.953,0.1954770082101822,2.004854616266958
-3.9525,0.1741366584948169,1.962468062646288
-3.952,0.1634664836371343,1.877694955404949
-3.9515,0.04609456020262521,1.697552102517103
-3.951,-0.5941159312583333,1.157123543853563
-3.9505,-1.255666772434657,0.5637117931641874
-3.95,-1.501080794161358,-0.5277419625680583
-3.9495,-1.351698346153801,-1.523825972653797
-3.949,-0.4127229586777283,-2.276187299420684
-3.9485,0.5049120790829789,-2.604683089980875
-3.948,0.942389248247967,-1.947691508860494
-3.9475,0.9957401225363802,-1.280103289334946
-3.947,0.8783681991018712,-0.8456411147230812
-3.9465,0.7183155762366316,-0.6125150698093976
-3.946,0.5796033030867573,-0.5383386009732256
-3.9455,0.7289857510943143,-0.7396747306714069
-3.945,0.7503261008096795,-0.7078848154559045
-3.9445,0.5902734779444399,-0.4959520473525559
-3.944,0.4195506802215176,-0.2628260024388724
-3.9435,0.2808384070716433,-0.1250697031716958
-3.943,0.3768699807907871,0.1716361721729923
-3.9425,1.006410297394063,0.8922075837243778
-3.942,1.422547116843686,1.188913459069066
-3.9415,0.8356874996711408,0.5319218779486851
-3.941,-0.2420001609548061,-0.252229364033705
-3.9405,-1.202315898146244,-0.8774310299385835
-3.94,-1.426389570157579,-0.8562377531282487
-3.9395,-0.9995825758502737,-0.1462629799820306
-3.939,-1.06360362499637,0.05507314971615059
-3.9385,-0.754168554123573,0.5849050699745222
-3.938,-0.3807124341046804,1.125333628638062
-3.9375,-0.1032878878049318,1.506812611224089
-3.937,0.1314559590640864,1.79292184816361
-3.9365,0.1634664836371343,1.877694955404949
-3.936,0.1207857842064037,1.877694955404949
-3.9355,0.05676473506030786,1.75053529454294
-3.935,0.02475421048725994,1.570392441655093
-3.9345,-0.3166913849585846,0.9769806909657173
-3.934,-1.116954499284783,0.4789386859228479
-3.9335,-1.703814116457328,-0.4959520473525559
-3.933,-2.258663209056825,-1.417859588602123
-3.9325,-2.386705307349017,-2.011271339291499
-3.932,-1.479740444445993,-1.937094870455327
-3.9315,-0.4340633083930936,-1.42845622700729
-3.931,0.2594980573562781,-0.9939940523954253
-3.9305,0.6009436528021226,-0.6760949002404023
-3.93,0.7289857510943143,-0.5383386009732256
-3.9295,0.6969752265212663,-0.570128516188728
-3.929,0.7396559259519968,-0.7290780922662394
-3.9285,0.7289857510943143,-0.7820612842920766
-3.928,0.5689331282290746,-0.6443049850249
-3.9275,0.3982103305061524,-0.4429688553267188
-3.927,0.2808384070716433,-0.1992461720078678
-3.9265,0.2701682322139607,0.05507314971615059
-3.926,0.7609962756673623,0.701468092431364
-3.9255,1.401206767128321,1.210106735879401
-3.925,1.070431346540159,0.6060983467848571
-3.9245,-0.07127736323188383,-0.3475991096802118
-3.924,-1.223656247861609,-1.05757388282643
-3.9235,-1.67180359188428,-1.163540266878104
-3.923,-1.30901764672307,-0.474758770542221
-3.9225,-0.754168554123573,0.4047622170866759
-3.922,-0.2846808603855366,1.146526905448396
-3.9215,0.01408403562957729,1.644568910491266
-3.921,0.03542438534494258,1.782325209758442
-3.9205,0.1634664836371343,1.962468062646288
-3.92,-0.5194247072545548,1.358459673551745
-3.9195,-0.4767440078238243,1.517409249629256
-3.919,-0.3273615598162672,1.602182356870596
-3.9185,-0.1779791118087102,1.644568910491266
-3.918,-0.2313299860971235,1.316073119931075
-3.9175,-0.9248913518464952,0.5001319627331828
-3.917,-1.543761493592088,-0.5595318777835605
-3.9165,-1.959898313041711,-1.682775548731308
-3.916,-2.3973754822067,-2.498716705929201
-3.9155,-2.002579012472442,-2.689456197222214
-3.915,-0.9782422261349084,-2.085447808127671
-3.9145,-0.09261771294724913,-1.248313374119443
-3.914,0.4302208550792003,-0.7078848154559045
-3.9135,0.6649647019482183,-0.4429688553267188
-3.913,0.6969752265212663,-0.4853554089473885
-3.9125,0.7289857510943143,-0.7290780922662394
-3.912,0.825017324813458,-0.9833974139902578
-3.9115,0.6863050516635838,-0.8880276683437509
-3.911,0.5049120790829789,-0.6549016234300674
-3.9105,0.3448594562177392,-0.400582301706049
-3.91,0.2594980573562781,-0.1674562567923655
-3.9095,0.5475927785137094,0.1504428953626575
-3.909,1.19847344483235,0.6166949851900245
-3.9085,1.017080472251745,0.2352160026039969
-3.908,-0.007256314085787988,-0.4641621321370536
-3.9075,-1.159635198715513,-1.068170521231597
-3.907,-1.661133417026597,-1.216523458903942
-3.9065,-1.330357996438436,-0.5807251545938954
-3.906,-0.7861790786966207,0.2881991946298341
-3.9055,-0.3060212101009019,1.00877060618122
-3.905,0.00341386077189465,1.496215972818921
-3.9045,0.1634664836371343,1.761131932948107
-3.904,0.2274875327832301,1.877694955404949
-3.9035,0.2061471830678648,1.888291593810116
-3.903,0.142126133921769,1.909484870620451
-3.9025,0.05676473506030786,1.814115124973944
-3.902,-0.007256314085787988,1.602182356870596
-3.9015,-0.2633405106701714,1.061753798207057
-3.901,-0.4980843575391895,0.5955017083796896
-3.9005,-1.084943974711735,0.04447651131098315
-3.9,-1.789175515318789,-1.142346990067769
-3.8995,-1.447729919872945,-1.831128486403653
-3.899,-0.6474668055467465,-2.350363768256857
-3.8985,0.1848068333524996,-2.149027638558676
-3.898,0.7823366253827275,-1.767548655972648
-3.8975,0.942389248247967,-1.322489842955616
-3.897,0.8997085488172365,-0.9304142219644207
-3.8965,0.7716664505250448,-0.7078848154559045
-3.896,0.6436243522328531,-0.6654982618352349
-3.8955,0.6969752265212663,-0.7396747306714069
-3.895,0.6116138276598051,-0.6337083466197325
-3.8945,0.4622313796522482,-0.4853554089473885
-3.894,0.3341892813600565,-0.3370024712750445
-3.8935,0.2488278824985954,-0.2098428104130352
-3.893,0.408880505363835,-0.07208651114585861
-3.8925,1.113112045970889,0.383568940276341
-3.892,1.529248865420512,0.6166949851900245
-3.8915,0.8356874996711408,-0.02969995752518888
-3.891,-0.4340633083930936,-0.7502713690765743
-3.8905,-1.351698346153801,-1.216523458903942
-3.89,-1.330357996438436,-0.7820612842920766
-3.8895,-0.8822106524157645,0.07626642652648545
-3.889,-0.4127229586777283,0.8710143069140429
-3.8885,-0.07127736323188383,1.443232780793084
-3.888,0.1207857842064037,1.79292184816361
-3.8875,0.2061471830678648,1.962468062646288
-3.887,0.2168173579255475,2.004854616266958
-3.8865,0.1741366584948169,2.015451254672126
-3.886,0.1101156093487211,2.015451254672126
