Class_9_Think_Grab_one_hand_movement/Class_9_Think_Right_hand_Grab_UZ_4.csv

#Digilent WaveForms Oscilloscope Acquisition
#Device Name: EExplorer
#Serial Number: SN:210151A2B84A
#Date Time: 2020-12-03 12:23:53.555
#Sample rate: 2000Hz
#Samples: 16384
#Trigger: Source: Channel 1 Type: Edge Condition: Rising Level: 0 V Hyst.: Auto HoldOff: 0 s
#Channel 1: Range: 1 V/div Offset: 0 V Attenuation: 1 X
#Channel 2: Range: 1 V/div Offset: 0 V Attenuation: 1 X
#Power Supplies: ON
#Fixed Supply: ON
#Voltage: 3.3 V Readback: 3.317 V
#Positive Supply: ON
#Voltage: 3.7 V Readback: 3.747 V
#Current: 40 mA Readback: 16 mA
#Negative Supply: ON
#Voltage: -3.7 V Readback: -3.668 V
#Current: -40 mA Readback: 0 A
#Reference 1: ON
#Voltage: 0 V
#Reference 2: ON
#Voltage: 0 V

Time (s),Channel 1 (V),Channel 2 (V)
-4.096,0.07810508477567314,1.051157159801889
-4.0955,0.08877525963334608,1.008770606181258
-4.095,0.09944543449106755,0.9557874141553245
-4.0945,0.1314559590640864,0.8922075837243778
-4.094,0.2168173579254699,0.7544512844573263
-4.0935,0.7716664505256464,0.08686306493082405
-4.093,1.433217291701369,-0.8244478379127463
-4.0925,1.881364635723632,-1.513229334248003
-4.092,1.860024286008305,-1.248313374118817
-4.0915,1.454557641416734,-0.5595318777835605
-4.091,0.9637295979633325,-0.008506680714854012
-4.0905,0.5049120790827072,0.4047622170868879
-4.09,0.2061471830678648,0.6378882620003594
-4.0895,0.04609456020262521,0.6590815388106942
-4.089,-0.03926683865875828,0.5849050699745897
-4.0885,-0.09261771294724913,0.4895353243280153
-4.088,-0.1779791118087102,0.4047622170866759
-4.0875,-0.1779791118087102,0.3729723018712025
-4.087,-0.1459685872356138,0.3835689402763796
-4.0865,-0.09261771294724913,0.4259554938970107
-4.086,-0.2099896363816514,0.3199891098454328
-4.0855,-0.956901876420174,-0.3370024712752758
-4.085,-1.650463242168915,-0.5913217929990628
-4.0845,-2.344024607917656,-1.280103289334319
-4.084,-2.408045657064402,-1.894708316834879
-4.0835,-2.429386006779747,-2.138431000153508
-4.083,-2.109280761049269,-1.767548655972648
-4.0825,-1.415719395299295,-0.8562377531274488
-4.082,-0.754168554123573,0.02328323450064829
-4.0815,-0.274010685527854,0.6696781772158616
-4.081,-0.007256314086030613,1.040560521396385
-4.0805,0.1101156093487211,1.199510097474233
-4.08,0.142126133921769,1.241896651094903
-4.0795,0.142126133921769,1.21010673587943
-4.079,0.1314559590640766,1.146526905448319
-4.0785,0.1207857842064037,1.061753798207057
-4.078,0.1421261339217496,0.9663840525606365
-4.0775,0.2808384070721383,0.849821030103149
-4.077,0.825017324813458,0.2352160026039969
-4.0765,1.582599739708237,-0.7290780922653624
-4.076,2.094768132877916,-1.534422611059446
-4.0755,2.340182154604393,-2.064254531317336
-4.075,2.137448832308423,-1.75695201756748
-4.0745,1.52924886541992,-0.8562377531275451
-4.074,0.8783681991018712,-0.08268314955102604
-4.0735,0.408880505363835,0.4047622170866759
-4.073,0.1101156093489928,0.6272916235949896
-4.0725,-0.02859666380115328,0.6484849004055269
-4.072,-0.07127736323188383,0.5637117931641874
-4.0715,-0.1246282375202485,0.4047622170868204
-4.071,-0.1246282375202485,0.30939247144014
-4.0705,-0.07127736323188383,0.2776025562246667
-4.07,-0.03926683865886503,0.2881991946298245
-4.0695,-0.02859666380131825,0.3411823866556134
-4.069,-0.2099896363817582,0.2776025562246667
-4.0685,-0.9995825758502737,-0.3793890248957141
-4.068,-2.109280761049142,-1.57680916468003
-4.0675,-1.970568487899394,-2.011271339291499
-4.067,-1.959898313041711,-2.329170491446522
-4.0665,-1.949228138183466,-2.127834361747406
-4.066,-1.330357996438436,-1.0999604364471
-4.0655,-0.7114878546928423,-0.09327978795619347
-4.065,-0.3060212101012707,0.5955017083790632
-4.0645,-0.06060718837420119,0.9875773293708847
-4.064,0.05676473506030786,1.178316820663898
-4.0635,0.09944543449099962,1.220703374284529
-4.063,0.09944543449103843,1.199510097474185
-4.0625,0.09944543449103843,1.146526905448396
-4.062,0.09944543449103843,1.082947075017449
-4.0615,0.1101156093487405,0.998173967775975
-4.061,0.1314559590640864,0.9134008605347127
-4.0605,0.3768699807907871,0.627291623595192
-4.06,1.102441871113711,-0.2098428104138641
-4.0595,1.657290963712704,-1.121153713257435
-4.059,2.052087433446962,-1.788741932782983
-4.0585,2.318841804888785,-2.159624276963505
-4.058,1.966726034585501,-1.598002441489969
-4.0575,1.294505018551494,-0.6443049850249
-4.057,0.7183155762371556,0.1398462569567768
-4.0565,0.3235191065023739,0.55311515475902
-4.056,0.08877525963335578,0.6908714540261965
-4.0555,-0.02859666380104653,0.6590815388107231
-4.055,-0.1352984123780476,0.6590815388106749
-4.0545,-0.2099896363817582,0.6378882620003594
-4.054,-0.1673089369510664,0.5319218779487814
-4.0535,-0.1139580626625853,0.4365521323021203
-4.053,-0.08194753808956648,0.3729723018711736
-4.0525,-0.124628237520297,0.3305857482505039
-4.052,-0.4660738329672867,0.02328323449953996
-4.0515,-1.725154466172693,-1.195330182093607
-4.051,-2.07727023647622,-1.905304955239825
-4.0505,-2.00257901247251,-2.318573853040979
-4.05,-2.013249187330125,-2.318573853041354
-4.0495,-1.437059745015262,-1.396666311791788
-4.049,-0.754168554124194,-0.3052125560605348
-4.0485,-0.3166913849583614,0.4365521323025829
-4.048,-0.07127736323188383,0.8816109453192104
-4.0475,0.04609456020251847,1.114736990232682
-4.047,0.08877525963336548,1.188913459069066
-4.0465,0.09944543449103843,1.188913459069066
-4.046,0.08877525963336548,1.146526905448435
-4.0455,0.1101156093487405,1.093543713422511
-4.045,0.1314559590640864,1.040560521396722
-4.0445,0.1848068333524996,0.9663840525605498
-4.044,0.3341892813606097,0.7968378380771673
-4.0435,0.942389248247967,0.02328323450064829
-4.043,1.625280439139656,-0.9516074987747555
-4.0425,1.902704985439152,-1.661582271920328
-4.042,1.828013761435626,-1.672178910326141
-4.0415,1.35852606769759,-0.9939940523954253
-4.041,0.8143471499562702,-0.3158091944653264
-4.0405,0.4088805053636021,0.1822328105784007
-4.04,0.1527963087794516,0.4471487707073456
-4.0395,0.003413860772030514,0.5531151547589236
-4.039,-0.04993701351657678,0.5319218779486947
-4.0385,-0.1139580626626144,0.5425185163538525
-4.038,-0.2313299860970167,0.574308431569326
-4.0375,-0.2099896363816999,0.5213252395434598
-4.037,-0.1459685872356623,0.457745409112513
-4.0365,-0.07127736323188383,0.4365521323021782
-4.036,-0.03926683865903971,0.4471487707072588
-4.0355,-0.2633405106701714,0.3517790250608387
-4.035,-0.9675720512772257,-0.252229364033705
-4.0345,-2.023919362186846,-1.513229334247483
-4.034,-2.002579012472442,-2.000674700886331
-4.0335,-2.07727023647622,-2.180817553774178
-4.033,-1.725154466173013,-1.587405803085341
-4.0325,-1.020922925565105,-0.5065486857569041
-4.032,-0.4340633083930936,0.3941655786815084
-4.0315,-0.1352984123782514,0.9028042221290826
-4.031,0.02475421048731816,1.167720182258818
-4.0305,0.08877525963335578,1.263089927905238
-4.03,0.09944543449102873,1.263089927905238
-4.0295,0.08877525963336548,1.220703374284501
-4.029,0.09944543449103843,1.146526905448396
-4.0285,0.1207857842064037,1.072350436612224
-4.028,0.1634664836372216,0.9875773293707595
-4.0275,0.2594980573562781,0.849821030103708
-4.027,0.79300680024041,0.1928294489833272
-4.0265,1.550589215135189,-0.7820612842911899
-4.026,2.12677865745074,-1.566212526274467
-4.0255,2.28683128031598,-1.852321763213987
-4.025,1.860024286009062,-1.364876396576729
-4.0245,1.209143619689519,-0.6549016234295469
-4.024,0.6436243522328531,-0.08268314955102604
-4.0235,0.2594980573566275,0.277602556224339
-4.023,0.03542438534484553,0.4365521323021782
-4.0225,-0.07127736323188383,0.4365521323021782
-4.022,-0.1139580626625756,0.3835689402763892
-4.0215,-0.2526703358124984,0.2140227257936139
-4.021,-0.2633405106701714,0.1610395337678249
-4.0205,-0.1886492866663929,0.1928294489833272
-4.02,-0.1032878878048832,0.2670059178195763
-4.0195,-0.04993701351651855,0.3517790250608387
-4.019,-0.1352984123779797,0.3411823866556712
-4.0185,-0.9248913518457771,-0.3264058328692698
-4.018,-2.269333383914508,-1.587405803084801
-4.0175,-2.44005618163743,-2.064254531317336
-4.017,-2.514747405641141,-2.38215368347207
-4.0165,-2.258663209056088,-2.032464616100831
-4.016,-1.447729919872945,-0.9304142219644207
-4.0155,-0.7114878546935118,0.07626642652556992
-4.015,-0.2740106855276211,0.7226613692420265
-4.0145,-0.01792648894347063,1.082947075017392
-4.014,0.08877525963325873,1.241896651094758
-4.0135,0.120785784206394,1.263089927905209
-4.013,0.1101156093487211,1.231300012689736
-4.0125,0.1207857842064037,1.157123543853563
-4.012,0.1421261339217884,1.082947075017315
-4.0115,0.1634664836371343,0.9981739677760521
-4.011,0.2061471830678648,0.8922075837243778
-4.0105,0.5902734779440905,0.415358855492277
-4.01,1.390536592270638,-0.5383386009732256
-4.0095,2.073427783162327,-1.38606967338662
-4.009,2.169459356881383,-1.788741932782617
-4.0085,1.870694460865862,-1.513229334248003
-4.008,1.326515543124542,-0.8244478379127463
-4.0075,0.7930068002408953,-0.1462629799826475
-4.007,0.3875401556482368,0.2776025562248594
-4.0065,0.1314559590640864,0.4895353243280153
-4.006,0.00341386077189465,0.5425185163538525
-4.0055,-0.02859666380124062,0.5107286011382827
-4.005,-0.124628237520297,0.4365521323021782
-4.0045,-0.156638762093345,0.3623756634660061
-4.004,-0.1246282375202485,0.3305857482505039
-4.0035,-0.07127736323188383,0.3305857482505039
-4.003,-0.02859666380115328,0.3517790250608387
-4.0025,-0.1032878878048638,0.3623756634659965
-4.002,-0.6154562809736985,-0.06148987274069118
-4.0015,-1.895877263895616,-1.34368311976595
-4.001,-2.23732285934115,-1.958288147265102
-4.0005,-2.269333383914634,-2.223204107394837
-4,-2.408045657064382,-2.21260746898968
-3.9995,-1.853196564464885,-1.375473034981453
-3.999,-1.095614149569417,-0.326405832869877
-3.9985,-0.5300948821122373,0.4471487707073456
-3.998,-0.156638762093345,0.9451907757502149
-3.9975,0.03542438534494258,1.188913459069066
-3.997,0.1101156093487211,1.273686566310405
-3.9965,0.1314559590640864,1.263089927905238
-3.996,0.1207857842064037,1.210106735879401
-3.9955,0.1314559590640864,1.125333628638062
-3.995,0.142126133921769,1.040560521396722
-3.9945,0.1634664836371343,0.9451907757502149
-3.994,0.3982103305061524,0.6166949851900245
-3.9935,1.091771696255524,-0.252229364033705
-3.993,1.7213120128588,-1.142346990067769
-3.9925,2.12677865745074,-1.661582271920973
-3.992,2.030747083731597,-1.152943628472937
-3.9915,1.529248865420512,-0.4429688553267188
-3.991,0.942389248247967,0.1080563417419877
-3.9905,0.4729015545099309,0.383568940276341
-3.99,0.1848068333524996,0.5001319627331828
-3.9895,0.03542438534494258,0.4683420475176805
-3.989,-0.02859666380115328,0.383568940276341
-3.9885,-0.09261771294724913,0.3729723018711736
-3.988,-0.1673089369510276,0.4259554938970107
-3.9875,-0.1459685872356623,0.4153588554918433
-3.987,-0.09261771294724913,0.4047622170866759
-3.9865,-0.04993701351651855,0.4259554938970107
-3.986,-0.04993701351651855,0.457745409112513
-3.9855,-1.06360362499637,-0.3899856633008816
-3.985,-1.991908837614759,-1.280103289334946
-3.9845,-2.472066706210478,-1.905304955239825
-3.984,-2.450726356495113,-2.265590661015517
-3.9835,-2.247993034199143,-2.159624276963843
-3.983,-1.565101843307454,-1.227120097309109
-3.9825,-0.8715404775580819,-0.1992461720078678
-3.982,-0.3700422592469978,0.5849050699745222
-3.9815,-0.07127736323188383,1.072350436612224
-3.981,0.0674349099179905,1.305476481525908
-3.9805,0.1207857842064037,1.37965295036208
-3.98,0.1314559590640864,1.358459673551745
-3.9795,0.1207857842064037,1.29487984312074
-3.979,0.1207857842064037,1.199510097474233
-3.9785,0.1314559590640864,1.093543713422559
-3.978,0.142126133921769,0.9769806909657173
-3.9775,0.2808384070716433,0.9134008605347127
-3.977,0.8036769750980928,1.029963882991555
-3.9765,1.56125938999356,0.8074344764830383
-3.976,2.148119007166105,-0.1144730647665284
-3.9755,2.404203203750489,-1.025783967610927
-3.975,2.12677865745074,-1.142346990067769
-3.9745,1.486568165989782,-0.6654982618352349
-3.974,0.8676980242441885,-0.1356663415768632
-3.9735,0.3768699807907871,0.2352160026039969
-3.973,0.08877525963335578,0.4365521323021782
-3.9725,-0.03926683865883591,0.4789386859228479
-3.972,-0.1032878878049318,0.4789386859228479
-3.9715,-0.2633405106701714,0.5637117931641874
-3.971,-0.2633405106701714,0.5425185163538525
-3.9705,-0.1886492866663929,0.4895353243280153
-3.97,-0.1032878878049318,0.457745409112513
-3.9695,-0.04993701351651855,0.4471487707073456
-3.969,-0.1673089369510276,0.309392471440169
-3.9685,-0.754168554123573,-0.2946159176543747
-3.968,-1.83185621474952,-1.502632695843462
-3.9675,-1.789175515318789,-1.947691508860494
-3.967,-1.885207089037933,-2.21260746898968
-3.9665,-1.949228138184029,-2.011271339291499
-3.966,-1.362368521011484,-1.004590690800593
-3.9655,-0.722158029550525,0.002089957690313421
-3.965,-0.3166913849585846,0.6590815388106942
-3.9645,-0.06060718837420119,1.040560521396722
-3.964,0.05676473506030786,1.210106735879401
-3.9635,0.09944543449103843,1.25249328950007
-3.963,0.1101156093487211,1.220703374284568
-3.9625,0.1101156093487211,1.157123543853563
-3.962,0.1314559590640864,1.082947075017392
-3.9615,0.1527963087794516,0.9981739677760521
-3.961,0.2061471830678648,0.8816109453192104
-3.9605,0.6649647019482183,0.3411823866556712
-3.96,1.411876941986003,-0.6125150698093976
-3.9595,1.892034810581722,-1.439052865412457
-3.959,2.148119007166105,-1.958288147265661
-3.9585,1.934715510012453,-1.587405803084801
-3.958,1.390536592270638,-0.7820612842920766
-3.9575,0.8356874996711408,-0.07208651114585861
-3.957,0.408880505363835,0.3729723018711736
-3.9565,0.142126133921769,0.5319218779486851
-3.956,-0.007256314085787988,0.5001319627331828
-3.9555,-0.06060718837420119,0.4365521323021782
-3.955,-0.1673089369510276,0.3729723018711736
-3.9545,-0.1993194615240755,0.3199891098453364
-3.954,-0.156638762093345,0.309392471440169
-3.9535,-0.09261771294724913,0.3199891098453364
-3.953,-0.03926683865883591,0.3517790250608387
-3.9525,-0.09261771294724913,0.3623756634660061
-3.952,-0.6474668055467465,-0.1144730647665284
-3.9515,-1.799845690176472,-1.290699927740113
-3.951,-1.917217613610981,-1.767548655972648
-3.9505,-2.07727023647622,-2.191414192179345
-3.95,-1.981238662757077,-2.000674700886331
-3.9495,-1.30901764672307,-0.9939940523954253
-3.949,-0.658136980404429,-0.008506680714854012
-3.9485,-0.2633405106701714,0.6378882620003594
-3.948,-0.02859666380115328,1.00877060618122
-3.9475,0.07810508477567314,1.188913459069066
-3.947,0.1101156093487211,1.241896651094903
-3.9465,0.1101156093487211,1.220703374284568
-3.946,0.1101156093487211,1.178316820663898
-3.9455,0.1101156093487211,1.114736990232894
-3.945,0.142126133921769,1.051157159801889
-3.9445,0.1634664836371343,0.9663840525605498
-3.944,0.3555296310754218,0.6802748156210291
-3.9435,1.049090996824793,-0.2204394488182027
-3.943,1.689301488285752,-1.163540266878104
-3.9425,2.062757608304644,-1.703968825541643
-3.942,1.92404533515477,-1.237716735714276
-3.9415,1.411876941986003,-0.570128516188728
-3.941,0.8783681991018712,-0.1356663415768632
-3.9405,0.4622313796522482,0.13984625695749
-3.94,0.1741366584948169,0.309392471440169
-3.9395,0.02475421048725994,0.383568940276341
-3.939,-0.03926683865883591,0.383568940276341
-3.9385,-0.1352984123779797,0.4471487707073456
-3.938,-0.2420001609548061,0.5107286011383502
-3.9375,-0.2099896363817582,0.4895353243280153
-3.937,-0.1352984123779797,0.457745409112513
-3.9365,-0.07127736323188383,0.457745409112513
-3.936,-0.07127736323188383,0.4683420475176805
-3.9355,-0.4127229586777283,0.1610395337678249
-3.935,-1.223656247861609,-0.6337083466197325
-3.9345,-2.205312334768412,-1.831128486403653
-3.934,-2.119950935906951,-2.17022091536901
-3.9335,-2.258663209056825,-2.265590661015517
-3.933,-1.87453691418025,-1.598002441489969
-3.9325,-1.095614149569417,-0.4641621321370536
-3.932,-0.4980843575391895,0.4153588554918433
-3.9315,-0.156638762093345,0.9345941373450475
-3.931,0.02475421048725994,1.188913459069066
-3.9305,0.09944543449103843,1.284283204715573
-3.93,0.1101156093487211,1.273686566310405
-3.9295,0.1101156093487211,1.220703374284568
-3.929,0.1314559590640864,1.135930267043229
-3.9285,0.1527963087794516,1.051157159801889
-3.928,0.1741366584948169,0.9663840525605498
-3.9275,0.3021787567870086,0.7438546460520338
-3.927,0.974399772821015,-0.06148987274069118
-3.9265,1.753322537431848,-1.01518732920576
-3.926,2.222810231169884,-1.735758740757146
-3.9255,2.329511979746711,-1.915901593644992
-3.925,1.902704985439405,-1.205926820498774
-3.9245,1.273164668836129,-0.400582301706049
-3.924,0.6863050516635838,0.1504428953626575
-3.9235,0.3021787567870086,0.4471487707073456
-3.923,0.07810508477567314,0.5107286011383502
-3.9225,-0.01792648894347063,0.4471487707073456
-3.922,-0.06060718837420119,0.3941655786815084
-3.9215,-0.124628237520297,0.4047622170866759
-3.921,-0.1139580626626144,0.383568940276341
-3.9205,-0.08194753808956648,0.3517790250608387
-3.92,-0.02859666380115328,0.3305857482505039
-3.9195,-0.01792648894347063,0.3411823866556712
-3.919,-0.2420001609548061,0.1822328105781598
-3.9185,-0.9355615267041777,-0.4853554089473885
-3.918,-2.066600061618538,-1.75695201756748
-3.9175,-2.472066706210478,-2.244397384205182
-3.917,-2.738821077652544,-2.456330152308531
-3.9165,-2.301343908487556,-1.84172512480882
-3.916,-1.383708870726849,-0.6972881770507372
-3.9155,-0.6154562809736985,0.2670059178194992
-3.915,-0.1993194615240755,0.8392243916985406
-3.9145,0.02475421048725994,1.135930267043229
-3.914,0.1101156093487211,1.263089927905238
-3.9135,0.1314559590640864,1.284283204715573
-3.913,0.1207857842064037,1.241896651094903
-3.9125,0.1101156093487211,1.188913459069066
-3.912,0.1314559590640864,1.125333628638062
-3.9115,0.1527963087794516,1.051157159801889
-3.911,0.2168173579255475,0.9557874141553824
-3.9105,0.7289857510943143,0.4047622170866759
-3.91,1.337185717982225,-0.5171453241628908
-3.9095,1.56125938999356,-1.280103289334946
-3.909,1.689301488285752,-1.75695201756748
-3.9085,1.497238340847464,-1.407262950196955
-3.908,1.038420821967111,-0.6654982618352349
-3.9075,0.6009436528021226,-0.008506680714854012
-3.907,0.2594980573562781,0.3623756634660061
-3.9065,0.04609456020262521,0.5107286011383502
-3.906,-0.02859666380115328,0.5213252395435176
-3.9055,-0.04993701351651855,0.4365521323021782
-3.905,-0.3487019095316325,0.1822328105781598
-3.9045,-0.5407650569699201,0.02328323450064829
-3.904,-0.4554036581084589,0.07626642652648545
-3.9035,-0.3060212101009019,0.2140227257936621
-3.903,-0.1673089369510276,0.3623756634660061
-3.9025,-0.1459685872356623,0.4153588554918433
-3.902,-0.658136980404429,-0.02969995752518888
-3.9015,-1.789175515318789,-1.121153713257435
-3.901,-2.365364957633652,-1.958288147265661
-3.9005,-2.333354433060604,-2.244397384205182
-3.9,-2.290673733629873,-2.138431000153508
-3.8995,-1.607782542738184,-1.184733543688439
-3.899,-0.839529952985034,-0.1144730647665284
-3.8985,-0.3487019095316325,0.5955017083796896
-3.898,-0.06060718837420119,1.00877060618122
-3.8975,0.07810508477567314,1.199510097474233
-3.897,0.1207857842064037,1.241896651094903
-3.8965,0.1207857842064037,1.199510097474233
-3.896,0.1207857842064037,1.125333628638062
-3.8955,0.142126133921769,1.051157159801889
-3.895,0.1527963087794516,0.9557874141553824
-3.8945,0.1741366584948169,0.8604176685088755
-3.894,0.5155822539406614,0.4471487707073456
-3.8935,1.251824319120764,-0.4535654937318862
-3.893,1.860024286008674,-1.290699927740113
-3.8925,1.988066384300866,-1.788741932782983
-3.892,1.7213120128588,-1.51322933424863
-3.8915,1.219813794547716,-0.7502713690765743
-3.891,0.7396559259519968,-0.1250697031716958
-3.8905,0.3555296310754218,0.2670059178194992
-3.89,0.09944543449103843,0.457745409112513
-3.8895,-0.01792648894347063,0.5001319627331828
-3.889,-0.04993701351651855,0.457745409112513
-3.8885,-0.1993194615240755,0.4259554938970107
-3.888,-0.3487019095316325,0.383568940276341
-3.8875,-0.3060212101009019,0.3623756634660061
-3.887,-0.1993194615240755,0.383568940276341
-3.8865,-0.1032878878049318,0.4153588554918433
-3.886,-0.124628237520297,0.4047622170866759
-3.8855,-1.127624674142465,-0.5383386009732256
