Class_9_Think_Grab_one_hand_movement/Class_9_Think_Right_hand_Grab_SH_7.csv

#Digilent WaveForms Oscilloscope Acquisition
#Device Name: EExplorer
#Serial Number: SN:210151A2B84A
#Date Time: 2020-12-17 15:45:51.411
#Sample rate: 2000Hz
#Samples: 16384
#Trigger: Source: Channel 1 Type: Edge Condition: Rising Level: 0 V Hyst.: Auto HoldOff: 0 s
#Channel 1: Range: 1 V/div Offset: 0 V Attenuation: 1 X
#Channel 2: Range: 1 V/div Offset: 0 V Attenuation: 1 X
#Power Supplies: ON
#Fixed Supply: ON
#Voltage: 3.3 V Readback: 3.328 V
#Positive Supply: ON
#Voltage: 3.7 V Readback: 3.715 V
#Current: 40 mA Readback: 19 mA
#Negative Supply: ON
#Voltage: -3.7 V Readback: -3.355 V
#Current: -40 mA Readback: -7 mA
#Reference 1: ON
#Voltage: 0 V
#Reference 2: ON
#Voltage: 0 V

Time (s),Channel 1 (V),Channel 2 (V)
-4.096,-0.5194247072545548,-0.3158091944647096
-4.0955,-0.06060718837461848,0.1080563417416022
-4.095,0.2061471830679813,0.2987958330350208
-4.0945,0.3341892813600565,0.3199891098453364
-4.094,0.3661998059330753,0.235216002604074
-4.0935,0.3555296310754024,0.1080563417418625
-4.093,0.3341892813600565,-0.02969995752518888
-4.0925,0.3128489316447107,-0.1144730647664512
-4.092,0.3021787567870183,-0.1356663415768536
-4.0915,0.3128489316446912,-0.1250697031716958
-4.091,0.1634664836371343,0.1186529801471552
-4.0905,-0.4980843575398785,0.7544512844576252
-4.09,-1.255666772434657,1.220703374284568
-4.0895,-1.522421143876723,0.849821030103708
-4.089,-1.031593100423768,0.4789386859231852
-4.0885,-0.3380317346739499,0.2352160026039969
-4.088,0.1741366584948169,0.04447651131098315
-4.0875,0.4515612047943133,-0.06148987274059479
-4.087,0.536922603656017,-0.0402965959303274
-4.0865,0.5262524287983441,-0.008506680714854012
-4.086,0.4729015545099794,0.08686306493156615
-4.0855,0.4622313796523355,0.1822328105781212
-4.085,0.5582629533713921,0.13984625695749
-4.0845,0.536922603656046,0.2670059178193835
-4.084,0.4515612047944976,0.4577454091126865
-4.0835,0.3768699807907871,0.6484849004055269
-4.083,0.3021787567870086,0.7650479228623686
-4.0825,-0.1032878878054752,0.4259554938964228
-4.082,-0.7008176798351597,-0.2204394488182027
-4.0815,-1.202315898146244,-0.792657922697244
-4.081,-1.586442193022469,-1.142346990067451
-4.0805,-1.863866739322568,-1.290699927740113
-4.08,-1.415719395299897,-0.8880276683437509
-4.0795,-0.7541685541241746,-0.2734226408445989
-4.079,-0.2099896363814476,0.2034260873887163
-4.0785,0.1314559590640864,0.4471487707073456
-4.078,0.3128489316445263,0.4895353243279768
-4.0775,0.3661998059331045,0.4153588554916988
-4.077,0.3661998059331045,0.2564092794143318
-4.0765,0.3448594562177586,0.09745970333696485
-4.076,0.3235191065023642,-0.04029659593044305
-4.0755,0.3128489316446912,-0.1356663415768632
-4.075,0.3235191065023739,-0.1780528951975329
-4.0745,0.3128489316443613,-0.1144730647664705
-4.074,-0.04993701351651855,-0.05089323433552374
-4.0735,-0.6367966306890638,-0.5489352393783931
-4.073,-1.212986073003403,-1.205926820498177
-4.0725,-1.244996597576974,-1.311893204550448
-4.072,-0.7114878546928423,-0.8350444763179138
-4.0715,-0.1352984123785037,-0.3687923864909708
-4.071,0.270168232214116,-0.01910331911984797
-4.0705,0.4408910299368829,0.1716361721729923
-4.07,0.5049120790829207,0.2140227257936235
-4.0695,0.4942419042252573,0.2458126410092126
-4.069,0.4515612047945656,0.2987958330350016
-4.0685,0.5796033030867573,0.2034260873884947
-4.068,0.6116138276597372,0.2034260873885814
-4.0675,0.5369226036560266,0.2987958330350016
-4.067,0.4408910299368829,0.4153588554918433
-4.0665,0.3661998059329686,0.5001319627330671
-4.066,0.2168173579255475,0.3729723018711736
-4.0655,0.2274875327832301,-0.2098428104130352
-4.065,0.03542438534511727,-0.9410108603689231
-4.0645,-0.572775581542968,-1.417859588602123
-4.064,-1.159635198715513,-1.439052865412457
-4.0635,-1.394379045584318,-1.407262950196984
-4.063,-1.010252750707491,-0.9728007755846567
-4.0625,-0.4980843575391895,-0.4959520473525559
-4.062,-0.07127736323227202,-0.1568596183875065
-4.0615,0.1954770082102889,0.01268659609552904
-4.061,0.3128489316446912,0.06566978812131802
-4.0605,0.3555296310754218,0.05507314971615059
-4.06,0.3555296310754024,0.01268659609545194
-4.0595,0.3341892813600565,-0.01910331912002144
-4.059,0.3235191065023739,0.002089957690313421
-4.0585,0.3235191065023739,0.07626642652641799
-4.058,0.3448594562177392,0.2458126410091644
-4.0575,0.0674349099179905,0.7226613692416989
-4.057,-0.4233931335349645,1.072350436611906
-4.0565,-0.8928808272734472,0.4365521323021782
-4.056,-1.223656247861609,-0.4217755785163839
-4.0555,-0.9569018764197859,-0.6019184314040664
-4.055,-0.4127229586773014,-0.4323722169213393
-4.0545,0.05676473506030786,-0.1992461720078678
-4.054,0.3555296310751501,-0.01910331912018529
-4.0535,0.47290155450996,0.1610395337679406
-4.053,0.5049120790829789,0.2881991946298341
-4.0525,0.4729015545099309,0.3729723018711736
-4.052,0.4515612047945268,0.330585748250446
-4.0515,0.408880505363835,0.2670059178194992
-4.051,0.3661998059331045,0.3729723018711736
-4.0505,0.3341892813600856,0.5319218779485405
-4.05,0.3128489316446912,0.6378882620003594
-4.0495,0.2701682322139607,0.6696781772158616
-4.049,0.3555296310753442,0.5955017083797571
-4.0485,0.8570278493861857,0.235216002603303
-4.048,0.5049120790829789,-0.5277419625680583
-4.0475,-0.370042259246202,-1.258910012523946
-4.047,-0.9355615267040709,-1.598002441489631
-4.0465,-0.8181896032696687,-1.227120097309109
-4.046,-0.4554036581087889,-0.697288177051219
-4.0455,-0.1032878878047086,-0.2946159176541723
-4.045,0.142126133921769,-0.07208651114585861
-4.0445,0.2701682322139607,-0.008506680714854012
-4.044,0.3341892813600565,-0.0296999575252467
-4.0435,0.3341892813600565,-0.09327978795619347
-4.043,0.3235191065023739,-0.1568596183871981
-4.0425,0.312848931644701,-0.1780528951975137
-4.042,0.3021787567870086,-0.1674562567923655
-4.0415,0.3128489316446912,-0.09327978795619347
-4.041,0.2915085819293454,0.1080563417418046
-4.0405,0.3235191065021701,0.6590815388109736
-4.04,0.09944543449103843,0.9663840525605498
-4.0395,-0.5834457564000295,0.3623756634665555
-4.039,-0.7648387289809644,-0.09327978795624166
-4.0385,-0.4447334832507763,-0.1462629799820306
-4.038,-0.02859666380153175,-0.0191033191201371
-4.0375,0.3021787567871348,0.08686306493172999
-4.037,0.4408910299368829,0.1716361721729923
-4.0365,0.4622313796522482,0.3199891098453364
-4.036,0.4408910299368732,0.4577454091125709
-4.0355,0.4302208550792003,0.5213252395435176
-4.035,0.5796033030867573,0.3941655786815084
-4.0345,0.5902734779444302,0.4365521323021396
-4.034,0.5049120790829789,0.5637117931641874
-4.0335,0.4195506802215176,0.6908714540261965
-4.033,0.3448594562178071,0.775644561267459
-4.0325,0.2701682322140577,0.6166949851894848
-4.032,0.3768699807907871,0.02328323450064829
-4.0315,-0.1352984123775139,-0.686691538644924
-4.031,-0.8928808272738838,-1.248313374119694
-4.0305,-1.373038695869166,-1.523825972653797
-4.03,-1.148965023858034,-1.152943628473274
-4.0295,-0.647466805546339,-0.5595318777831461
-4.029,-0.1993194615240755,-0.1038764263613609
-4.0285,0.1101156093487211,0.13984625695749
-4.028,0.2808384070717015,0.2034260873884368
-4.0275,0.3448594562177392,0.13984625695749
-4.027,0.3448594562177392,0.02328323450064829
-4.0265,0.3341892813600663,-0.1038764263612452
-4.026,0.3128489316446912,-0.1886495336027004
-4.0255,0.3128489316446912,-0.2204394488182027
-4.025,0.3128489316446912,-0.2098428104130449
-4.0245,0.3235191065021992,-0.1144730647661621
-4.024,0.1314559590640864,0.2881991946298341
-4.0235,-0.007256314085661825,0.9451907757496174
-4.023,-0.6047861061162875,1.316073119930854
-4.0225,-0.9035510021311299,1.072350436612224
-4.022,-0.5941159312586147,0.6378882620007545
-4.0215,-0.1673089369507462,0.2140227257934211
-4.021,0.142126133921769,-0.05089323433552374
-4.0205,0.3448594562177392,-0.1780528951975329
-4.02,0.4515612047945753,-0.1568596183870632
-4.0195,0.4622313796522482,-0.008506680714854012
-4.019,0.4408910299368829,0.1822328105781598
-4.0185,0.4835717293675747,0.3411823866555267
-4.018,0.4835717293676135,0.4895353243280153
-4.0175,0.4302208550792003,0.6484849004055269
-4.017,0.3768699807908356,0.7862411996725782
-4.0165,0.3235191065022283,0.8816109453191237
-4.016,0.1634664836371343,0.7862411996727035
-4.0155,-0.2526703358121102,0.2140227257941826
-4.015,-0.8075194284125683,-0.4535654937323584
-4.0145,-1.447729919872945,-0.9728007755850904
-4.014,-1.970568487898918,-1.258910012524351
-4.0135,-1.629122892452919,-0.9939940523948759
-4.013,-0.9355615267041777,-0.3899856633008816
-4.0125,-0.3380317346739499,0.1292496185523226
-4.012,0.0674349099181846,0.4153588554919108
-4.0115,0.2808384070716433,0.4895353243280153
-4.011,0.3555296310754218,0.4153588554918433
-4.0105,0.3661998059330948,0.2670059178196341
-4.01,0.3448594562177392,0.08686306493165288
-4.0095,0.3235191065023739,-0.08268314955102604
-4.009,0.302178756787028,-0.188649533602604
-4.0085,0.3021787567870183,-0.2522293640337243
-4.008,0.3128489316446912,-0.2734226408440398
-4.0075,0.3768699807907289,0.03387987290553623
-4.007,0.8997085488172754,0.7120647308368109
-4.0065,0.942389248247967,1.019367244586387
-4.006,0.3341892813600565,0.5637117931641874
-4.0055,0.2168173579256348,0.4577454091124552
-4.005,0.3128489316446912,0.3941655786815084
-4.0045,0.408880505363835,0.2140227257936621
-4.004,0.4622313796522676,0.06566978812126983
-4.0035,0.4835717293676135,0.01268659609548085
-4.003,0.4835717293676135,-0.06148987274069118
-4.0025,0.4408910299369218,-0.008506680714902203
-4.002,0.4622313796522482,0.06566978812131802
-4.0015,0.5262524287983441,0.1504428953626575
-4.001,0.4835717293676523,0.3411823866554978
-4.0005,0.4088805053637768,0.5319218779488296
-4,0.3448594562177392,0.6908714540261965
-3.9995,0.2701682322139607,0.7544512844572011
-3.999,-0.03926683865883591,0.3411823866556712
-3.9985,-0.4767440078238243,-0.3475991096802118
-3.998,-1.042263275281004,-0.9198175835592532
-3.9975,-1.394379045584531,-1.269506650929778
-3.997,-1.447729919872945,-1.248313374119443
-3.9965,-0.9889124009925911,-0.6866915386455698
-3.996,-0.4554036581084589,-0.09327978795619347
-3.9955,-0.03926683865883591,0.3199891098453364
-3.995,0.2061471830678648,0.4895353243280153
-3.9945,0.3128489316446912,0.4895353243280153
-3.994,0.3448594562177392,0.383568940276341
-3.9935,0.3341892813600565,0.2246193641988295
-3.993,0.3128489316446912,0.06566978812131802
-3.9925,0.3021787567870086,-0.07208651114585861
-3.992,0.291508581929326,-0.1462629799820306
-3.9915,0.3128489316446912,-0.1674562567923655
-3.991,0.3128489316446912,-0.05089323433552374
-3.9905,0.2381577076409128,-0.02969995752518888
-3.99,-0.124628237520297,-0.4641621321370536
-3.9895,-0.7755089038389382,-1.004590690800593
-3.989,-1.042263275281004,-1.237716735714276
-3.9885,-0.690147504977477,-0.8668343915334161
-3.988,-0.1993194615240755,-0.474758770542221
-3.9875,0.1741366584948169,-0.1780528951975329
-3.987,0.3982103305061524,-0.09327978795619347
-3.9865,0.4729015545099309,-0.06148987274069118
-3.986,0.4729015545099309,-0.01910331912002144
-3.9855,0.4408910299368829,-0.01910331912002144
-3.985,0.4622313796522482,-0.1038764263613609
-3.9845,0.4622313796522482,0.002089957690313421
-3.984,0.408880505363835,0.1716361721729923
-3.9835,0.3555296310754218,0.3411823866556712
-3.983,0.3128489316446912,0.4683420475176805
-3.9825,0.1634664836371343,0.3199891098453364
-3.982,-0.1139580626626144,-0.2946159176543747
-3.9815,-0.5407650569699201,-0.9198175835592532
-3.981,-1.127624674142465,-1.364876396576285
-3.9805,-1.565101843307454,-1.555615887869299
-3.98,-1.330357996438436,-1.142346990067769
-3.9795,-0.7648387289812555,-0.474758770542221
-3.979,-0.2633405106701714,0.07626642652648545
-3.9785,0.07810508477567314,0.3941655786815084
-3.978,0.2701682322139607,0.5107286011383502
-3.9775,0.3341892813600565,0.4895353243280153
-3.977,0.3448594562177392,0.3941655786815084
-3.9765,0.3341892813600565,0.2776025562246667
-3.976,0.3128489316446912,0.1822328105781598
-3.9755,0.3021787567870086,0.1504428953626575
-3.975,0.3021787567870086,0.1186529801471552
-3.9745,0.3341892813600565,0.1504428953626575
-3.974,0.6649647019482183,0.4895353243280153
-3.9735,1.059761171682476,0.9769806909657173
-3.973,0.4195506802215176,0.6166949851900245
-3.9725,-0.1139580626626144,0.07626642652648545
-3.972,-0.07127736323188383,0.01268659609548085
-3.9715,0.1207857842064037,-0.02969995752518888
-3.971,0.2808384070716433,-0.07208651114585861
-3.9705,0.3768699807907871,-0.07208651114585861
-3.97,0.3875401556484697,-0.08268314955102604
-3.9695,0.3982103305061524,-0.08268314955102604
-3.969,0.3982103305061524,-0.05089323433552374
-3.9685,0.4195506802215176,-0.06148987274069118
-3.968,0.4302208550792003,-0.04029659593035631
-3.9675,0.3982103305061524,0.09745970333682032
-3.967,0.3448594562177392,0.2564092794143318
-3.9665,0.3128489316446912,0.4153588554918433
-3.966,0.3021787567870086,0.4895353243280153
-3.9655,0.6436243522328531,0.7544512844572011
-3.965,0.6542945270905358,0.9345941373450475
-3.9645,-0.156638762093345,0.2140227257936621
-3.964,-1.042263275281004,-0.7396747306714069
-3.9635,-1.319687821580753,-1.163540266878104
-3.963,-0.9675720512772257,-0.8668343915334161
-3.9625,-0.4767440078238243,-0.3687923864905467
-3.962,-0.08194753808956648,0.05507314971615059
-3.9615,0.1741366584948169,0.3305857482505039
-3.961,0.291508581929326,0.4789386859228479
-3.9605,0.3235191065023739,0.5319218779486851
-3.96,0.3235191065023739,0.5319218779486851
-3.9595,0.3128489316446912,0.5107286011383502
-3.959,0.291508581929326,0.5001319627331828
-3.9585,0.3021787567870086,0.5849050699745222
-3.958,0.3128489316446912,0.6590815388106942
-3.9575,0.1527963087794516,0.8180311148882058
-3.957,-0.4767440078238243,1.104140351827727
-3.9565,-1.084943974711735,0.5955017083796896
-3.956,-1.522421143876723,-0.3899856633008816
-3.9555,-1.405049220442214,-0.8138511995075789
-3.955,-0.807519428411986,-0.6337083466197325
-3.9545,-0.2206598112394408,-0.4323722169215513
-3.954,0.1848068333524996,-0.2628260024388724
-3.9535,0.3982103305061524,-0.1568596183871981
-3.953,0.4729015545099309,-0.1674562567923655
-3.9525,0.4729015545099309,-0.1886495336027004
-3.952,0.4408910299368829,-0.2310360872233701
-3.9515,0.3661998059331045,-0.3581957480853793
-3.951,0.3128489316446912,-0.252229364033705
-3.9505,0.2808384070716433,-0.06148987274069118
-3.95,0.2701682322139607,0.1186529801471552
-3.9495,0.2701682322139607,0.2564092794143318
-3.949,0.2808384070716433,0.08686306493165288
-3.9485,0.3021787567870086,-0.5807251545938954
-3.948,-0.2846808603855366,-1.258910012524611
-3.9475,-1.052933450138687,-1.778145294377815
-3.947,-1.351698346153801,-1.75695201756748
-3.9465,-1.010252750707956,-1.078767159636765
-3.946,-0.5087545323968721,-0.3793890248957141
-3.9455,-0.1032878878049318,0.1292496185523226
-3.945,0.1634664836371343,0.4047622170866759
-3.9445,0.291508581929326,0.5107286011383502
-3.944,0.3341892813600565,0.5001319627331828
-3.9435,0.3341892813600565,0.4365521323021782
-3.943,0.3128489316446912,0.3623756634660061
-3.9425,0.291508581929326,0.309392471440169
-3.942,0.2808384070716433,0.2458126410091644
-3.9415,0.3021787567870086,0.2987958330350016
-3.941,0.2808384070716433,0.3305857482505039
-3.9405,-0.1032878878049318,0.5319218779486851
-3.94,-0.7008176798351597,0.9134008605347127
-3.9395,-1.298347471865388,0.4471487707073456
-3.939,-1.629122892453549,-0.3581957480853793
-3.9385,-1.180975548430879,-0.5489352393783931
-3.938,-0.4767440078238243,-0.4217755785163839
-3.9375,0.03542438534494258,-0.252229364033705
-3.937,0.3128489316446912,-0.1250697031716958
-3.9365,0.4622313796522482,-0.07208651114585861
-3.936,0.4942419042252961,-0.01910331912002144
-3.9355,0.4729015545099309,0.03387987290581572
-3.935,0.6222840025174878,-0.01910331912002144
-3.9345,0.6436243522328531,0.002089957690313421
-3.934,0.5475927785137094,0.1186529801471552
-3.9335,0.4302208550792003,0.2352160026039969
-3.933,0.3448594562177392,0.3305857482505039
-3.9325,0.09944543449103843,0.13984625695749
-3.932,-0.5514352318276028,-0.5065486857577234
-3.9315,-1.277007122150022,-1.205926820498774
-3.931,-1.725154466172693,-1.714565463946811
-3.9305,-1.959898313041711,-1.979481424075996
-3.93,-1.554431668449771,-1.555615887869299
-3.9295,-0.8715404775580819,-0.8244478379127463
-3.929,-0.2953510352432193,-0.2098428104130352
-3.9285,0.08877525963335578,0.1822328105781598
-3.928,0.2808384070716433,0.3623756634660061
-3.9275,0.3555296310754218,0.383568940276341
-3.927,0.3555296310754218,0.3305857482505039
-3.9265,0.3341892813600565,0.2564092794143318
-3.926,0.3128489316446912,0.1822328105781598
-3.9255,0.291508581929326,0.13984625695749
-3.925,0.291508581929326,0.09745970333682032
-3.9245,0.291508581929326,0.1292496185523226
-3.924,-0.007256314085787988,0.4365521323021782
-3.9235,-0.6047861061160158,0.9557874141553824
-3.923,-1.127624674142465,0.6802748156210291
-3.9225,-1.223656247861609,0.03387987290581572
-3.922,-0.690147504977477,-0.07208651114585861
-3.9215,-0.09261771294724913,-0.05089323433552374
-3.921,0.3021787567870086,-0.008506680714854012
-3.9205,0.4835717293676135,-0.07208651114585861
-3.92,0.5582629533713921,-0.1462629799820306
-3.9195,0.5369226036560266,-0.1356663415768632
-3.919,0.4835717293676135,-0.06148987274069118
-3.9185,0.5369226036560266,-0.05089323433552374
-3.918,0.6222840025174878,-0.02969995752518888
-3.9175,0.5582629533713921,0.1292496185523226
-3.917,0.4515612047945656,0.3199891098453364
-3.9165,0.3661998059331045,0.4895353243280153
-3.916,0.2381577076409128,0.5107286011383502
-3.9155,-0.2953510352432193,-0.008506680714854012
-3.915,-1.020922925565639,-0.6760949002404023
-3.9145,-1.693143941599645,-1.195330182093607
-3.914,-2.269333383914508,-1.502632695843462
-3.9135,-2.162631635337682,-1.407262950196955
-3.913,-1.319687821580753,-0.7820612842920766
-3.9125,-0.5834457564006506,-0.1144730647665284
-3.912,-0.06060718837420119,0.3305857482505039
-3.9115,0.2274875327832301,0.5425185163538525
-3.911,0.3555296310754218,0.5743084315693548
-3.9105,0.3768699807907871,0.5001319627331828
-3.91,0.3661998059331045,0.3623756634660061
-3.9095,0.3341892813600565,0.2140227257936621
-3.909,0.3128489316446912,0.07626642652648545
-3.9085,0.3021787567870086,0.01268659609548085
-3.908,0.3235191065023739,0.04447651131098315
-3.9075,0.2274875327832301,0.383568940276341
-3.907,-0.2633405106701714,0.9769806909657173
-3.9065,-0.5621054066852853,1.051157159801889
-3.906,-0.754168554123573,0.383568940276341
-3.9055,-0.3593720843893152,0.1292496185523226
-3.905,0.1207857842064037,0.07626642652648545
-3.9045,0.4408910299368829,0.01268659609548085
-3.904,0.5689331282290746,-0.01910331912002144
-3.9035,0.5796033030867573,-0.07208651114585861
-3.903,0.5262524287983441,-0.1250697031716958
-3.9025,0.4729015545099309,-0.1038764263613609
-3.902,0.4195506802215176,-0.02969995752518888
-3.9015,0.3341892813600565,-0.05089323433552374
-3.901,0.2808384070716433,0.1080563417419877
-3.9005,0.2594980573562781,0.3517790250608387
-3.9,0.2701682322139607,0.5743084315693548
-3.8995,0.2594980573562781,0.7120647308365314
-3.899,-0.07127736323188383,0.4153588554918433
-3.8985,-0.6688071552621118,-0.2416327256285375
-3.898,-1.26633694729234,-0.8456411147230812
-3.8975,-1.661133417026597,-1.089363798041932
-3.897,-1.853196564464885,-1.131750351662602
-3.8965,-1.351698346153801,-0.7502713690765743
-3.896,-0.7114878546928423,-0.2204394488182027
-3.8955,-0.1779791118087102,0.1928294489833272
-3.895,0.1527963087794516,0.4047622170866759
-3.8945,0.3128489316446912,0.4365521323021782
-3.894,0.3661998059331045,0.3623756634660061
-3.8935,0.3555296310754218,0.2352160026039969
-3.893,0.3341892813600565,0.08686306493165288
-3.8925,0.3128489316446912,-0.01910331912002144
-3.892,0.3021787567870086,-0.1038764263613609
-3.8915,0.3128489316446912,-0.1038764263613609
-3.891,0.3341892813600565,0.04447651131098315
-3.8905,0.2701682322139607,0.4683420475176805
-3.89,0.291508581929326,0.9875773293708847
-3.8895,-0.2526703358124887,0.701468092431364
-3.889,-0.7648387289812555,-0.08268314955102604
-3.8885,-0.6261264558313813,-0.4535654937318862
-3.888,-0.2313299860971235,-0.4535654937318862
