Class_9_Think_Grab_one_hand_movement/Class_9_Think_Right_hand_Grab_Suko_2.csv

#Digilent WaveForms Oscilloscope Acquisition
#Device Name: EExplorer
#Serial Number: SN:210151A2B84A
#Date Time: 2020-11-04 11:20:10.134
#Sample rate: 2000Hz
#Samples: 16384
#Trigger: Source: Channel 1 Type: Edge Condition: Rising Level: 0 V Hyst.: Auto HoldOff: 0 s
#Channel 1: Range: 1 V/div Offset: 0 V Attenuation: 1 X
#Channel 2: Range: 1 V/div Offset: 0 V Attenuation: 1 X
#Power Supplies: ON
#Fixed Supply: ON
#Voltage: 3.3 V Readback: 3.319 V
#Positive Supply: ON
#Voltage: 3.7 V Readback: 3.714 V
#Current: 500 mA Readback: 22 mA
#Negative Supply: ON
#Voltage: -3.7 V Readback: -3.705 V
#Current: -500 mA Readback: -6 mA
#Reference 1: ON
#Voltage: 0 V
#Reference 2: ON
#Voltage: 0 V

Time (s),Channel 1 (V),Channel 2 (V)
-4.096,1.379866417412955,-0.2734226408440398
-4.0955,0.9103787236753462,-0.4429688553265645
-4.095,-0.1566387620943251,-0.05089323433492621
-4.0945,-1.234326422719292,0.6060983467848571
-4.094,-1.458400094730423,0.8922075837241176
-4.0935,-1.063603624995904,0.5955017083792752
-4.093,-0.5514352318276028,0.13984625695749
-4.0925,-0.156638762093704,-0.2628260024385062
-4.092,0.07810508477577019,-0.5383386009733798
-4.0915,0.1848068333524996,-0.7078848154559045
-4.091,0.2168173579255475,-0.7820612842920766
-4.0905,0.2168173579255572,-0.7820612842919995
-4.09,0.2274875327832301,-0.6972881770507372
-4.0895,0.2381577076409128,-0.5913217929990628
-4.089,0.2488278824985857,-0.4747587705423271
-4.0885,0.2594980573562781,-0.1992461720078678
-4.088,0.3555296310754218,0.457745409112513
-4.0875,-0.07127736323149564,1.135930267042612
-4.087,-0.7114878546928519,1.591585718465293
-4.0865,-0.722158029550525,1.443232780793084
-4.086,-0.3807124341049909,0.733258007647512
-4.0855,-0.03926683865864183,0.129249618551966
-4.085,0.1741366584948169,-0.2628260024388724
-4.0845,0.3021787567868922,-0.4429688553265549
-4.084,0.3448594562177295,-0.4323722169214453
-4.0835,0.3341892813600565,-0.3158091944647096
-4.083,0.3021787567870086,-0.1674562567923655
-4.0825,0.2594980573562296,-0.1144730647664223
-4.082,0.2061471830678648,0.002089957690313421
-4.0815,0.1741366584948169,0.2034260873884947
-4.081,0.163466483637144,0.4047622170864927
-4.0805,0.1527963087794516,0.5637117931641874
-4.08,0.4515612047945656,0.5955017083796896
-4.0795,0.7396559259517348,0.5213252395435851
-4.079,-0.00725631408657405,0.6378882620005811
-4.0785,-0.8715404775580819,0.8816109453192104
-4.078,-1.597112367879842,1.135930267042997
-4.0775,-1.618452717595391,1.18891345906868
-4.077,-1.095614149569417,0.7650479228623686
-4.0765,-0.5407650569704247,0.2140227257941633
-4.076,-0.1246282375200835,-0.2204394488184629
-4.0755,0.1101156093487211,-0.5065486857577234
-4.075,0.2061471830678648,-0.6549016234300674
-4.0745,0.2381577076408934,-0.7078848154559045
-4.074,0.2168173579255475,-0.7078848154559045
-4.0735,0.2168173579255475,-0.6337083466197325
-4.073,0.2061471830678746,-0.5383386009733123
-4.0725,0.2168173579255475,-0.4323722169215513
-4.072,0.2274875327832301,-0.2416327256285375
-4.0715,0.4622313796520347,0.3623756634654568
-4.071,0.7930068002398084,1.051157159802323
-4.0705,0.1314559590640864,1.528005888034424
-4.07,-0.4767440078232711,1.443232780793162
-4.0695,-0.4447334832505336,0.7968378380772541
-4.069,-0.1779791118087102,0.1186529801471552
-4.0685,0.05676473506030786,-0.3158091944647096
-4.068,0.2168173579256154,-0.5277419625680679
-4.0675,0.291508581929326,-0.5383386009732256
-4.067,0.3021787567870086,-0.4111789401112165
-4.0665,0.291508581929229,-0.2310360872232448
-4.066,0.1848068333524996,-0.09327978795619347
-4.0655,0.01408403562957729,-0.05089323433552374
-4.065,-0.00725631408576858,0.1398462569573166
-4.0645,0.03542438534494258,0.3623756634660061
-4.064,0.08877525963335578,0.55311515475902
-4.0635,0.2488278824984498,0.5637117931641777
-4.063,0.6969752265209267,0.03387987290512182
-4.0625,0.3235191065023739,-0.7290780922662394
-4.062,-0.5834457563998257,-1.322489842955076
-4.0615,-1.490410619304073,-1.036380606015295
-4.061,-1.927887788468663,-0.1568596183871981
-4.0605,-1.522421143876723,0.2458126410091644
-4.06,-0.8822106524152695,0.1398462569572395
-4.0595,-0.3380317346739499,-0.1356663415768632
-4.059,0.01408403562957729,-0.4111789401112165
-4.0585,0.1848068333523443,-0.6125150698092146
-4.058,0.2381577076409128,-0.7396747306714069
-4.0575,0.2381577076409128,-0.8032545611024114
-4.057,0.2274875327832398,-0.7820612842920959
-4.0565,0.2274875327832301,-0.6972881770507372
-4.056,0.2381577076409128,-0.6019184314042303
-4.0555,0.2701682322139316,-0.4429688553268633
-4.055,0.376869980790855,0.05507314971682522
-4.0545,0.4515612047945656,0.7968378380778709
-4.054,-0.274010685527194,1.390249588766708
-4.0535,-0.8502001278426293,1.665762187301273
-4.053,-0.754168554123573,1.305476481525908
-4.0525,-0.3593720843893152,0.5955017083796896
-4.052,0.003413860772108149,0.002089957689985743
-4.0515,0.2381577076409128,-0.3581957480853793
-4.051,0.3235191065023739,-0.4429688553267188
-4.0505,0.3341892813600468,-0.3370024712751408
-4.05,0.3021787567870086,-0.1568596183871981
-4.0495,0.2594980573562781,-0.01910331912002144
-4.049,0.1101156093488569,-0.06148987274065262
-4.0485,0.04609456020263492,0.0444765113111759
-4.048,0.05676473506030786,0.2564092794143318
-4.0475,0.09944543449099962,0.45774540911233
-4.047,0.1527963087798883,0.5955017083794776
-4.0465,0.6329541773751706,0.3623756634660061
-4.046,0.8783681991016481,-0.04029659592999008
-4.0455,0.06743490991705887,0.06566978812163606
-4.045,-0.9569018764195432,0.4153588554918433
-4.0445,-1.799845690176472,0.92399749893988
-4.044,-1.789175515318255,1.10414035182737
-4.0435,-1.202315898146244,0.7120647308365314
-4.043,-0.5834457564006506,0.1610395337678249
-4.0425,-0.1352984123783872,-0.2946159176539603
-4.042,0.1101156093487211,-0.5913217929990628
-4.0415,0.2274875327832301,-0.7502713690765743
-4.041,0.248827882498576,-0.8032545611023633
-4.0405,0.238157707640903,-0.7820612842919898
-4.04,0.2274875327832301,-0.6866915386455698
-4.0395,0.2274875327832301,-0.5595318777836762
-4.039,0.2381577076409613,-0.4323722169212333
-4.0385,0.291508581929326,-0.08268314955102604
-4.038,0.7289857510939164,0.6166949851893885
-4.0375,1.113112045970336,1.252493289500437
-4.037,0.5049120790829789,1.655165548896433
-4.0365,0.1101156093487211,1.496215972818921
-4.036,0.08877525963343341,0.8180311148875697
-4.0355,0.1741366584948169,0.1186529801471552
-4.035,0.2594980573562781,-0.2946159176543747
-4.0345,0.3128489316446427,-0.4747587705420572
-4.034,0.3235191065023739,-0.4429688553267188
-4.0335,0.3128489316446912,-0.3052125560595421
-4.033,0.2808384070716724,-0.1144730647667018
-4.0325,0.216817357925499,-0.008506680714757636
-4.032,0.1634664836371343,0.09745970333682032
-4.0315,0.1421261339217884,0.2987958330348185
-4.031,0.1421261339217787,0.4895353243281406
-4.0305,0.1527963087794516,0.627291623595192
-4.03,0.3982103305059292,0.4577454091126673
-4.0295,0.793006800239789,-0.2416327256292315
-4.029,0.1101156093487211,-1.004590690800593
-4.0285,-0.9142211769888124,-1.38606967338662
-4.028,-1.799845690176588,-0.7820612842913152
-4.0275,-1.927887788468663,0.05507314971615059
-4.027,-1.362368521011484,0.2776025562246667
-4.0265,-0.7008176798357614,0.08686306493182636
-4.026,-0.2099896363817582,-0.2204394488182027
-4.0255,0.07810508477567314,-0.4853554089473885
-4.025,0.2168173579254213,-0.6760949002402288
-4.0245,0.2488278824985857,-0.7926579226972825
-4.024,0.2381577076409128,-0.8350444763179138
-4.0235,0.2168173579255669,-0.8032545611024403
-4.023,0.2168173579255572,-0.7184814538609563
-4.0225,0.2274875327832301,-0.5913217929990628
-4.022,0.2061471830678842,-0.4005823017062225
-4.0215,0.2381577076410001,0.2034260873891597
-4.021,0.3341892813600565,0.9345941373450475
-4.0205,-0.3700422592469978,1.464426057603419
-4.02,-0.7968492535541288,1.432636142387368
-4.0195,-0.6047861061160158,0.8286277532933731
-4.019,-0.2313299860971235,0.1610395337678249
-4.0185,0.06743490991771878,-0.3158091944642759
-4.018,0.2381577076409128,-0.4959520473525559
-4.0175,0.3128489316446912,-0.4641621321370536
-4.017,0.3128489316446912,-0.3264058328700023
-4.0165,0.3128489316446718,-0.1568596183871403
-4.016,0.291508581929326,-0.09327978795619347
-4.0155,0.1954770082102695,-0.1144730647665091
-4.015,0.1527963087794419,0.0444765113111759
-4.0145,0.142126133921769,0.2564092794143318
-4.014,0.142126133921769,0.4471487707071721
-4.0135,0.2381577076413398,0.4577454091120022
-4.013,0.707645401378949,-0.1038764263613609
-4.0125,0.5049120790829789,-0.8774310299385835
-4.012,-0.2953510352440345,-1.396666311791392
-4.0115,-1.191645723288561,-0.9622041371799229
-4.011,-1.778505340461106,-0.02969995752518888
-4.0105,-1.511750969019283,0.3729723018708074
-4.01,-0.9248913518464952,0.2458126410091644
-4.0095,-0.3807124341046804,-0.07208651114585861
-4.009,-0.02859666380147352,-0.3687923864902769
-4.0085,0.1634664836372022,-0.5807251545940111
-4.008,0.2381577076409128,-0.7078848154559045
-4.0075,0.2381577076409128,-0.7714646458868514
-4.007,0.2274875327832301,-0.7502713690765068
-4.0065,0.2274875327832301,-0.6760949002404023
-4.006,0.2381577076409128,-0.5807251545938954
-4.0055,0.2594980573562781,-0.4429688553263429
-4.005,0.2594980573562781,-0.02969995752518888
-4.0045,0.2381577076409128,0.6802748156210291
-4.004,-0.4554036581089441,1.305476481526207
-4.0035,-0.9889124009925911,1.633972272086098
-4.003,-0.8715404775580819,1.241896651094903
-4.0025,-0.4340633083934916,0.4895353243286996
-4.002,-0.03926683865883591,-0.1886495336027004
-4.0015,0.2168173579255475,-0.5913217929990628
-4.001,0.3341892813599498,-0.7078848154557985
-4.0005,0.3448594562177295,-0.5913217929988701
-4,0.3341892813600565,-0.3793890248957141
-3.9995,0.3021787567870086,-0.1568596183871981
-3.999,0.2488278824985954,-0.02969995752518888
-3.9985,0.2061471830678648,0.13984625695749
-3.998,0.1848068333524996,0.3517790250608387
-3.9975,0.1741366584948169,0.5425185163538525
-3.997,0.2061471830678648,0.6590815388106942
-3.9965,0.6222840025174878,0.3199891098453364
-3.996,1.15579274540162,-0.4217755785163839
-3.9955,0.5369226036560266,-1.089363798041932
-3.995,-0.5514352318276028,-1.05757388282643
-3.9945,-1.501080794161358,-0.2310360872233701
-3.994,-1.575772018165136,0.3623756634660061
-3.9935,-1.084943974711735,0.3305857482505039
-3.993,-0.5407650569699201,0.05507314971615059
-3.9925,-0.124628237520297,-0.2628260024388724
-3.992,0.1101156093487211,-0.5065486857577234
-3.9915,0.2168173579255475,-0.6654982618352349
-3.991,0.2381577076409128,-0.7502713690765743
-3.9905,0.2274875327832301,-0.7608680074817418
-3.99,0.2274875327832301,-0.7078848154559045
-3.9895,0.2274875327832301,-0.6125150698093976
-3.989,0.2381577076409128,-0.5065486857577234
-3.9885,0.1848068333524996,-0.2204394488182027
-3.988,0.3555296310754218,0.457745409112513
-3.9875,0.2701682322139607,1.135930267043229
-3.987,-0.423393133535411,1.528005888034424
-3.9865,-0.6047861061160158,1.199510097474233
-3.986,-0.3487019095316325,0.5107286011383502
-3.9855,-0.03926683865883591,-0.08268314955102604
-3.985,0.1848068333524996,-0.4535654937318862
-3.9845,0.3128489316446912,-0.5595318777835605
-3.984,0.3555296310754218,-0.5277419625680583
-3.9835,0.3555296310754218,-0.3899856633008816
-3.983,0.3235191065023739,-0.1992461720078678
-3.9825,0.2274875327832301,-0.1780528951975329
-3.982,0.09944543449103843,-0.1674562567923655
-3.9815,0.07810508477567314,0.03387987290581572
-3.981,0.09944543449103843,0.2776025562246667
-3.9805,0.1314559590640864,0.4789386859228479
-3.98,0.4408910299368829,0.3517790250608387
-3.9795,0.9850699476786977,-0.3052125560595421
-3.979,1.006410297394063,-1.01518732920576
-3.9785,0.1954770082101822,-1.375473034981453
-3.978,-0.8715404775580819,-0.8350444763179138
-3.9775,-1.298347471865388,-0.06148987274069118
-3.977,-1.031593100423322,0.1610395337678249
-3.9765,-0.5834457564006506,0.04447651131098315
-3.976,-0.1993194615240755,-0.1780528951975329
-3.9755,0.05676473506030786,-0.3899856633008816
-3.975,0.1741366584948169,-0.5489352393783931
-3.9745,0.2168173579255475,-0.6549016234300674
-3.974,0.2168173579255475,-0.7078848154559045
-3.9735,0.2168173579255475,-0.6760949002404023
-3.973,0.2274875327832301,-0.6125150698093976
-3.9725,0.2381577076409128,-0.5277419625680583
-3.972,0.3021787567870086,-0.3687923864905467
-3.9715,0.79300680024041,0.1716361721729923
-3.971,1.625280439139656,0.8922075837243778
-3.9705,2.08409795802001,1.432636142387917
-3.97,1.849354111150991,1.559795803249926
-3.9695,1.369196242555273,0.9663840525605498
-3.969,0.9103787236749192,0.1610395337678249
-3.9685,0.5796033030867573,-0.4217755785163839
-3.968,0.3875401556484697,-0.6972881770507372
-3.9675,0.2808384070716433,-0.7396747306714069
-3.967,0.2488278824985954,-0.6125150698093976
-3.9665,0.2274875327832301,-0.4111789401112165
-3.966,0.1954770082101822,-0.2416327256285375
-3.9655,0.09944543449103843,-0.1568596183871981
-3.965,0.07810508477567314,0.06566978812131802
-3.9645,0.08877525963335578,0.3305857482505039
-3.964,0.1207857842064037,0.5637117931641874
-3.9635,0.1634664836371343,0.701468092431364
-3.963,0.3768699807907871,0.4683420475176805
-3.9625,0.07810508477567314,0.02328323450064829
-3.962,-0.690147504977477,0.05507314971615059
-3.9615,-1.46907026958831,0.6166949851900245
-3.961,-1.938557963326346,1.157123543853563
-3.9605,-1.575772018165136,1.093543713422559
-3.96,-0.9355615267041777,0.5955017083796896
-3.9595,-0.3807124341046804,0.07626642652648545
-3.959,-0.01792648894347063,-0.3052125560595421
-3.9585,0.1634664836371343,-0.5489352393783931
-3.958,0.2381577076409128,-0.6654982618352349
-3.9575,0.2381577076409128,-0.6972881770507372
-3.957,0.2168173579255475,-0.6654982618352349
-3.9565,0.2061471830678648,-0.5807251545938954
-3.956,0.2168173579255475,-0.4853554089473885
-3.9555,0.2381577076409128,-0.3687923864905467
-3.955,0.1527963087794516,0.01268659609548085
-3.9545,0.408880505363835,0.701468092431364
-3.954,0.1101156093487211,1.316073119931075
-3.9535,-0.5514352318276028,1.538602526439591
-3.953,-0.6261264558313813,1.093543713422559
-3.9525,-0.3273615598162672,0.383568940276341
-3.952,-0.007256314085787988,-0.1674562567923655
-3.9515,0.2168173579255475,-0.4853554089473885
-3.951,0.3235191065023739,-0.6231117082145651
-3.9505,0.3341892813600565,-0.5489352393783931
-3.95,0.3021787567870086,-0.3687923864905467
-3.9495,0.2701682322139607,-0.1780528951975329
-3.949,0.1207857842064037,-0.07208651114585861
-3.9485,0.04609456020262521,0.07626642652648545
-3.948,0.0674349099179905,0.2776025562246667
-3.9475,0.09944543449103843,0.4471487707073456
-3.947,0.1527963087794516,0.5743084315693548
-3.9465,0.6329541773751706,0.5107286011383502
-3.946,1.166462920259302,0.2670059178194992
-3.9455,0.79300680024041,-0.01910331912002144
-3.945,-0.1459685872356623,0.002089957690313421
-3.9445,-1.159635198715513,0.5107286011383502
-3.944,-1.373038695869166,0.775644561267536
-3.9435,-0.9995825758502737,0.5213252395435176
-3.943,-0.5300948821122373,0.1080563417419877
-3.9425,-0.1459685872356623,-0.252229364033705
-3.942,0.07810508477567314,-0.4959520473525559
-3.9415,0.1848068333524996,-0.6337083466197325
-3.941,0.2168173579255475,-0.6972881770507372
-3.9405,0.2168173579255475,-0.6866915386455698
-3.94,0.2168173579255475,-0.6231117082145651
-3.9395,0.2168173579255475,-0.5277419625680583
-3.939,0.2381577076409128,-0.4323722169215513
-3.9385,0.2274875327832301,-0.1780528951975329
-3.938,0.4942419042252961,0.4683420475176805
-3.9375,0.6116138276598051,1.135930267043229
-3.937,0.04609456020262521,1.570392441655093
-3.9365,-0.1886492866663929,1.496215972818921
-3.936,-0.09261771294724913,0.8180311148882058
-3.9355,0.07810508477567314,0.07626642652648545
-3.935,0.2168173579255475,-0.3687923864905467
-3.9345,0.2808384070716433,-0.5489352393783931
-3.934,0.291508581929326,-0.5489352393783931
-3.9335,0.2808384070716433,-0.4217755785163839
-3.933,0.2594980573562781,-0.2098428104130352
-3.9325,0.2061471830678648,-0.04029659593035631
-3.932,0.1527963087794516,0.1080563417419877
-3.9315,0.142126133921769,0.2987958330350016
-3.931,0.142126133921769,0.4895353243280153
-3.9305,0.142126133921769,0.627291623595192
-3.93,0.3661998059331045,0.627291623595192
-3.9295,0.7823366253827275,0.4789386859228479
-3.929,0.1527963087794516,0.6802748156210291
-3.9285,-0.754168554123573,1.051157159801889
-3.928,-1.565101843307454,1.358459673551745
-3.9275,-1.799845690176472,1.475022696008586
-3.927,-1.330357996438436,1.00877060618122
-3.9265,-0.722158029550525,0.3623756634660061
-3.926,-0.2420001609548061,-0.1674562567923655
-3.9255,0.04609456020262521,-0.5065486857577234
-3.925,0.1848068333524996,-0.6654982618352349
-3.9245,0.2274875327832301,-0.7078848154559045
-3.924,0.2274875327832301,-0.6760949002404023
-3.9235,0.2061471830678648,-0.5807251545938954
-3.923,0.2061471830678648,-0.4641621321370536
-3.9225,0.2168173579255475,-0.3581957480853793
-3.922,0.2061471830678648,-0.1992461720078678
-3.9215,0.1741366584948169,0.309392471440169
-3.921,0.2168173579255475,0.9663840525605498
-3.9205,-0.4020527838200457,1.475022696008586
-3.92,-0.7755089038389382,1.655165548896433
-3.9195,-0.6261264558313813,1.114736990232894
-3.919,-0.2633405106701714,0.3411823866556712
-3.9185,0.03542438534494258,-0.2098428104130352
-3.918,0.2274875327832301,-0.4641621321370536
-3.9175,0.3128489316446912,-0.4959520473525559
-3.917,0.3235191065023739,-0.3793890248957141
-3.9165,0.3021787567870086,-0.2204394488182027
-3.916,0.2381577076409128,-0.1356663415768632
-3.9155,0.08877525963335578,-0.1568596183871981
-3.915,0.04609456020262521,0.01268659609548085
-3.9145,0.0674349099179905,0.2458126410091644
-3.914,0.09944543449103843,0.4683420475176805
-3.9135,0.1634664836371343,0.5213252395435176
-3.913,0.4835717293676135,0.03387987290581572
-3.9125,0.142126133921769,-0.4323722169215513
-3.912,-0.7434983792658902,-0.2416327256285375
-3.9115,-1.565101843307454,0.1292496185523226
-3.911,-1.970568487899394,0.6590815388106942
-3.9105,-1.554431668449771,0.7332580076468663
-3.91,-0.8928808272734472,0.3941655786815084
-3.9095,-0.3487019095316325,-0.01910331912002144
-3.909,0.00341386077189465,-0.3687923864905467
-3.9085,0.1848068333524996,-0.6019184314042303
-3.908,0.2381577076409128,-0.7290780922662394
-3.9075,0.2381577076409128,-0.792657922697244
-3.907,0.2168173579255475,-0.792657922697244
-3.9065,0.2168173579255475,-0.7290780922662394
-3.906,0.2168173579255475,-0.6443049850249
-3.9055,0.2274875327832301,-0.5277419625680583
-3.905,0.291508581929326,-0.1038764263613609
-3.9045,0.5155822539406614,0.6378882620003594
-3.904,-0.1459685872356623,1.273686566310405
-3.9035,-0.8928808272734472,1.549199164844759
-3.903,-0.9248913518464952,1.157123543853563
-3.9025,-0.5194247072545548,0.4259554938970107
-3.902,-0.1139580626626144,-0.1674562567923655
-3.9015,0.1634664836371343,-0.4959520473525559
-3.901,0.3128489316446912,-0.6337083466197325
-3.9005,0.3555296310754218,-0.5807251545938954
-3.9,0.3341892813600565,-0.4323722169215513
-3.8995,0.2808384070716433,-0.252229364033705
-3.899,0.142126133921769,-0.1674562567923655
-3.8985,0.07810508477567314,0.01268659609548085
-3.898,0.07810508477567314,0.2564092794143318
-3.8975,0.1101156093487211,0.4789386859228479
-3.897,0.1207857842064037,0.6378882620003594
-3.8965,0.1314559590640864,0.4259554938970107
-3.896,0.2488278824985954,-0.2840192792492073
-3.8955,-0.1993194615240755,-0.9304142219644207
-3.895,-0.8181896032696687,-0.9622041371799229
-3.8945,-1.522421143876723,-0.2416327256285375
-3.894,-1.607782542738184,0.3623756634660061
-3.8935,-1.116954499284783,0.3517790250608387
-3.893,-0.5621054066852853,0.06566978812131802
-3.8925,-0.1459685872356623,-0.252229364033705
-3.892,0.09944543449103843,-0.5065486857577234
-3.8915,0.2061471830678648,-0.6760949002404023
-3.891,0.2381577076409128,-0.7820612842920766
-3.8905,0.2274875327832301,-0.8032545611024114
-3.89,0.2274875327832301,-0.7502713690765743
-3.8895,0.2274875327832301,-0.6760949002404023
-3.889,0.2381577076409128,-0.570128516188728
-3.8885,0.408880505363835,-0.326405832869877
-3.888,1.017080472251745,0.3411823866556712
-3.8875,0.8997085488172365,1.051157159801889
