Class_9_Think_Grab_one_hand_movement/Class_9_Think_Right_hand_Grab_Basim_6.csv

#Digilent WaveForms Oscilloscope Acquisition
#Device Name: EExplorer
#Serial Number: SN:210151A2B84A
#Date Time: 2020-12-16 09:19:49.799
#Sample rate: 2000Hz
#Samples: 16384
#Trigger: Source: Channel 1 Type: Edge Condition: Rising Level: 0 V Hyst.: Auto HoldOff: 0 s
#Channel 1: Range: 1 V/div Offset: 0 V Attenuation: 1 X
#Channel 2: Range: 1 V/div Offset: 0 V Attenuation: 1 X
#Power Supplies: ON
#Fixed Supply: ON
#Voltage: 3.3 V Readback: 3.313 V
#Positive Supply: ON
#Voltage: 3.7 V Readback: 3.711 V
#Current: 40 mA Readback: 21 mA
#Negative Supply: ON
#Voltage: -3.7 V Readback: -3.352 V
#Current: -40 mA Readback: -7 mA
#Reference 1: ON
#Voltage: 0 V
#Reference 2: ON
#Voltage: 0 V

Time (s),Channel 1 (V),Channel 2 (V)
-4.096,-0.3807124341046804,-0.3370024712750445
-4.0955,0.1954770082096581,-1.17413690528251
-4.095,0.4942419042253738,-1.48143941903304
-4.0945,0.5796033030867573,-1.38606967338662
-4.094,0.5582629533714115,-1.174136905283464
-4.0935,0.50491207908294,-0.930414221964228
-4.093,0.4622313796522482,-0.718481453861072
-4.0925,0.4729015545099212,-0.612515069809494
-4.092,0.4622313796522094,-0.5383386009731581
-4.0915,0.4195506802215176,-0.4641621321370536
-4.091,0.3875401556484697,-0.3793890248957141
-4.0905,0.3661998059328813,-0.3052125560592915
-4.09,0.1207857842064037,-0.02969995752518888
-4.0895,-0.6154562809736985,0.5743084315693548
-4.089,-1.362368521010804,1.146526905447875
-4.0885,-2.023919362187807,1.475022696008586
-4.088,-2.130621110764634,1.369056311956912
-4.0875,-1.351698346154509,0.7650479228629179
-4.087,-0.5941159312578287,0.1292496185519467
-4.0865,-0.03926683865883591,-0.2840192792492073
-4.086,0.2808384070713522,-0.4641621321368897
-4.0855,0.4195506802215564,-0.4535654937317802
-4.085,0.4622313796522482,-0.3370024712750445
-4.0845,0.4515612047945753,-0.1780528951976775
-4.084,0.4195506802214886,-0.008506680714719085
-4.0835,0.3875401556484697,0.13984625695749
-4.083,0.3768699807907871,0.2670059178194992
-4.0825,0.3661998059331142,0.3729723018712218
-4.082,0.3768699807907871,0.4259554938970107
-4.0815,0.5049120790829789,0.4153588554918433
-4.081,0.2381577076411554,0.7226613692414194
-4.0805,-0.3166913849585846,1.157123543853563
-4.08,-0.6154562809736985,1.093543713422559
-4.0795,-0.2953510352435105,0.1398462569583575
-4.079,0.131455959064329,-0.782061284292462
-4.0785,0.3982103305061524,-1.205926820498774
-4.078,0.4942419042252088,-1.216523458903932
-4.0775,0.5155822539406419,-1.078767159636601
-4.077,0.4942419042252961,-0.8986243067489184
-4.0765,0.4515612047946044,-0.7184814538612359
-4.076,0.4088805053638156,-0.6231117082145072
-4.0755,0.3875401556484697,-0.5595318777835605
-4.075,0.3661998059331045,-0.4959520473525559
-4.0745,0.3555296310754218,-0.4217755785163068
-4.074,0.3555296310754218,-0.3370024712750445
-4.0735,0.2808384070716433,-0.1992461720078678
-4.073,-0.2633405106696765,0.2987958330345486
-4.0725,-1.031593100423322,0.9134008605347127
-4.072,-1.682473766741963,1.37965295036208
-4.0715,-2.013249187329824,1.57039244165492
-4.071,-1.479740444445323,1.093543713421933
-4.0705,-0.7434983792658902,0.4047622170866759
-4.07,-0.1566387620938787,-0.125069703171214
-4.0695,0.2061471830680298,-0.4005823017060972
-4.069,0.3875401556484697,-0.4535654937318862
-4.0685,0.4515612047945656,-0.3581957480853793
-4.068,0.4515612047945365,-0.2098428104128714
-4.0675,0.4195506802215176,-0.02969995752518888
-4.067,0.3982103305061524,0.1292496185523226
-4.0665,0.3768699807907774,0.2670059178196053
-4.066,0.3661998059331045,0.383568940276341
-4.0655,0.3661998059331045,0.457745409112513
-4.065,0.5369226036558714,0.2776025562248305
-4.0645,0.4302208550792003,0.2564092794143318
-4.064,-0.2846808603855366,0.6908714540261965
-4.0635,-0.9675720512766046,1.040560521396404
-4.063,-0.8395299529845487,0.5001319627323444
-4.0625,-0.3060212101009019,-0.4217755785163839
-4.062,0.1421261339213614,-0.983397413989747
-4.0615,0.387540155648557,-1.163540266878066
-4.061,0.4835717293676135,-1.121153713257435
-4.0605,0.4942419042252961,-1.01518732920576
-4.06,0.4729015545099114,-0.845641114722956
-4.0595,0.4515612047945656,-0.7078848154559045
-4.059,0.4622313796522482,-0.5807251545938954
-4.0585,0.4408910299369024,-0.4747587705423174
-4.058,0.408880505363835,-0.3793890248957141
-4.0575,0.3768699807907871,-0.2734226408440398
-4.057,0.3448594562177683,-0.1568596183873041
-4.0565,-0.08194753808956648,0.2670059178194992
-4.056,-0.8608703027003992,0.8710143069140429
-4.0555,-1.607782542737505,1.347863035146144
-4.055,-2.183971985052843,1.316073119930391
-4.0545,-1.959898313041711,0.5637117931641874
-4.054,-1.127624674143222,-0.008506680714333581
-4.0535,-0.4233931335349645,-0.2946159176544325
-4.053,0.0674349099179905,-0.3581957480853793
-4.0525,0.3341892813600565,-0.2946159176543747
-4.052,0.4408910299369024,-0.1674562567922402
-4.0515,0.4622313796522482,-0.02969995752518888
-4.051,0.4408910299368829,0.08686306493165288
-4.0505,0.4088805053638641,0.1928294489832308
-4.05,0.3875401556484697,0.2670059178194992
-4.0495,0.3768699807907871,0.309392471440169
-4.049,0.3661998059331142,0.3305857482504846
-4.0485,0.4302208550791809,0.224619364198656
-4.048,0.408880505363835,0.03387987290581572
-4.0475,-0.2953510352425788,0.4047622170863385
-4.047,-1.084943974711745,0.9134008605344621
-4.0465,-1.095614149569417,0.6378882620003594
-4.046,-0.4554036581090412,-0.3687923864896312
-4.0455,0.1421261339220698,-1.174136905283542
-4.045,0.4729015545099309,-1.47084278062796
-4.0445,0.5689331282290746,-1.375473034981453
-4.044,0.5689331282290261,-1.163540266877912
-4.0435,0.5155822539406614,-0.9516074987747555
-4.043,0.4622313796522482,-0.7502713690765743
-4.0425,0.4622313796522482,-0.6443049850249963
-4.042,0.4515612047945656,-0.570128516188728
-4.0415,0.4195506802215176,-0.4853554089473885
-4.041,0.3875401556484989,-0.4005823017061261
-4.0405,0.3661998059329298,-0.3158091944644782
-4.04,0.1741366584948169,-0.06148987274069118
-4.0395,-0.519424707253924,0.5213252395429876
-4.039,-1.298347471866009,1.104140351828006
-4.0385,-1.981238662757077,1.411442865577582
-4.038,-2.151961460479844,1.199510097474426
-4.0375,-1.394379045583833,0.6378882619998486
-4.037,-0.6261264558313813,0.07626642652648545
-4.0365,-0.06060718837420119,-0.2734226408440398
-4.036,0.2701682322140965,-0.4005823017060298
-4.0355,0.4195506802215176,-0.3793890248957141
-4.035,0.4622313796522482,-0.2628260024388724
-4.0345,0.4515612047945753,-0.1144730647666633
-4.034,0.4195506802215176,0.03387987290581572
-4.0335,0.3982103305061524,0.1610395337678249
-4.033,0.3768699807908065,0.2776025562245606
-4.0325,0.3661998059331142,0.3517790250608676
-4.032,0.3768699807907871,0.383568940276341
-4.0315,0.5582629533712271,0.2881991946299208
-4.031,0.3875401556477613,0.4789386859232623
-4.0305,-0.391382608962363,0.9345941373450475
-4.03,-0.8395299529846264,0.9769806909656787
-4.0295,-0.4447334832502813,0.04447651131007722
-4.029,0.09944543449103843,-0.9516074987747555
-4.0285,0.4515612047945656,-1.481439419033127
-4.028,0.5796033030867573,-1.50263269584326
-4.0275,0.5796033030867573,-1.280103289334946
-4.027,0.5155822539406614,-1.05757388282643
-4.0265,0.4729015545099697,-0.8350444763181162
-4.026,0.4622313796522482,-0.6972881770507372
-4.0255,0.4515612047945656,-0.6019184314042303
-4.025,0.4302208550792198,-0.5065486857578101
-4.0245,0.3982103305061233,-0.4323722169214645
-4.024,0.3661998059331045,-0.3370024712750445
-4.0235,0.3021787567870668,-0.1992461720079931
-4.023,-0.2420001609555145,0.3093924714407376
-4.0225,-1.020922925565639,0.9345941373450475
-4.022,-1.586442193022305,1.390249588766833
-4.0215,-1.895877263895227,1.60218235687022
-4.021,-1.46907026958831,1.188913459069066
-4.0205,-0.7755089038389382,0.4789386859228479
-4.02,-0.1993194615237262,-0.09327978795647296
-4.0195,0.1848068333524996,-0.400582301706049
-4.019,0.3768699807907871,-0.474758770542221
-4.0185,0.4408910299368247,-0.4005823017061165
-4.018,0.4515612047945656,-0.252229364033705
-4.0175,0.4195506802215176,-0.07208651114585861
-4.017,0.3982103305061718,0.09745970333666611
-4.0165,0.3768699807907774,0.2458126410092704
-4.016,0.3661998059331045,0.3623756634660061
-4.0155,0.3661998059331045,0.4471487707072685
-4.015,0.5582629533718385,0.3199891098452786
-4.0145,1.049090996824793,0.2564092794143318
-4.014,0.5689331282295114,0.6696781772154858
-4.0135,-0.2740106855280287,1.051157159801523
-4.013,-0.4660738329661415,0.6484849004055269
-4.0125,-0.1886492866663929,-0.1356663415768632
-4.012,0.1314559590642707,-0.6654982618354276
-4.0115,0.3341892813600565,-0.8774310299385835
-4.011,0.4302208550792003,-0.9304142219644207
-4.0105,0.4622313796522191,-0.866834391533474
-4.01,0.4515612047945656,-0.7290780922662394
-4.0095,0.4302208550792003,-0.6443049850249
-4.009,0.4302208550792003,-0.6125150698094265
-4.0085,0.4088805053638156,-0.5701285161886509
-4.008,0.3875401556484697,-0.4853554089473885
-4.0075,0.3768699807907968,-0.3899856633009683
-4.007,0.3448594562173995,-0.2840192792488507
-4.0065,-0.02859666380115328,0.1080563417419877
-4.006,-0.7648387289812555,0.7226613692416989
-4.0055,-1.479740444446449,1.263089927905267
-4.005,-1.981238662757077,1.29487984312074
-4.0045,-1.83185621474952,0.55311515475902
-4.004,-1.084943974711133,-0.008506680715114227
-4.0035,-0.423393133535411,-0.2946159176543747
-4.003,0.05676473506030786,-0.3475991096802118
-4.0025,0.3235191065021312,-0.2734226408441073
-4.002,0.4302208550792003,-0.1462629799820306
-4.0015,0.4515612047945656,0.002089957690313421
-4.001,0.4302208550792198,0.129249618552207
-4.0005,0.4088805053638156,0.2352160026040644
-4,0.3875401556484697,0.309392471440169
-3.9995,0.3661998059331045,0.3517790250608387
-3.999,0.3661998059331045,0.3729723018711736
-3.9985,0.3875401556484697,0.2987958330350016
-3.998,0.2061471830678648,0.2670059178194992
-3.9975,-0.4767440078238243,0.6590815388106942
-3.997,-1.138294849000148,1.114736990232894
-3.9965,-1.138294849000148,0.849821030103708
-3.996,-0.5621054066852853,-0.1144730647665284
-3.9955,-0.01792648894347063,-0.9304142219644207
-3.995,0.3235191065023739,-1.301296566145281
-3.9945,0.4729015545099309,-1.34368311976595
-3.994,0.5049120790829789,-1.258910012524611
-3.9935,0.4835717293676135,-1.0999604364471
-3.993,0.4515612047945656,-0.9092209451540858
-3.9925,0.4729015545099309,-0.7608680074817418
-3.992,0.4729015545099309,-0.6337083466197325
-3.9915,0.4302208550792003,-0.5171453241628908
-3.991,0.3982103305061524,-0.3899856633008816
-3.9905,0.3768699807907871,-0.2628260024388724
-3.99,0.2061471830678648,-0.008506680714854012
-3.9895,-0.4447334832507763,0.55311515475902
-3.989,-1.180975548430879,1.125333628638062
-3.9885,-1.83185621474952,1.528005888034424
-3.988,-2.087940411333903,1.591585718465428
-3.9875,-1.394379045584531,1.040560521396722
-3.987,-0.6474668055467465,0.3623756634660061
-3.9865,-0.09261771294724913,-0.1038764263613609
-3.986,0.2488278824985954,-0.326405832869877
-3.9855,0.408880505363835,-0.3370024712750445
-3.985,0.4515612047945656,-0.2204394488182027
-3.9845,0.4515612047945656,-0.06148987274069118
-3.984,0.4195506802215176,0.1080563417419877
-3.9835,0.3982103305061524,0.2670059178194992
-3.983,0.3768699807907871,0.4047622170866759
-3.9825,0.3661998059331045,0.4895353243280153
-3.982,0.3661998059331045,0.5425185163538525
-3.9815,0.5902734779444399,0.457745409112513
-3.981,0.9957401225363802,0.4471487707073456
-3.9805,0.5902734779444399,0.8180311148882058
-3.98,0.00341386077189465,1.082947075017392
-3.9795,-0.02859666380115328,0.5319218779486851
-3.979,0.1741366584948169,-0.2946159176543747
-3.9785,0.3341892813600565,-0.8244478379127463
-3.978,0.4195506802215176,-1.036380606016095
-3.9775,0.4515612047945656,-1.068170521231597
-3.977,0.4515612047945656,-0.9939940523954253
-3.9765,0.4408910299368829,-0.8774310299385835
-3.976,0.4729015545099309,-0.7820612842920766
-3.9755,0.4942419042252961,-0.718481453861072
-3.975,0.4622313796522482,-0.6231117082145651
-3.9745,0.4195506802215176,-0.5171453241628908
-3.974,0.3875401556484697,-0.4323722169215513
-3.9735,0.3235191065023739,-0.2840192792492073
-3.973,-0.124628237520297,0.2140227257936621
-3.9725,-0.8928808272734472,0.849821030103708
-3.972,-1.629122892453549,1.33726639674141
-3.9715,-2.215982509626095,1.326669758336243
-3.971,-1.83185621474952,0.8816109453192104
-3.9705,-0.9995825758502737,0.2987958330350016
-3.97,-0.3273615598162672,-0.1250697031716958
-3.9695,0.1207857842064037,-0.3370024712750445
-3.969,0.3555296310754218,-0.3581957480853793
-3.9685,0.4408910299368829,-0.2734226408440398
-3.968,0.4515612047945656,-0.1250697031716958
-3.9675,0.4302208550792003,0.02328323450064829
-3.967,0.3982103305061524,0.1610395337678249
-3.9665,0.3768699807907871,0.2776025562246667
-3.966,0.3661998059331045,0.3623756634660061
-3.9655,0.3661998059331045,0.4153588554918433
-3.965,0.4195506802215176,0.3941655786815084
-3.9645,0.5369226036560266,0.457745409112513
-3.964,0.1207857842064037,0.8286277532933731
-3.9635,-0.5087545323968721,1.146526905448396
-3.963,-0.4660738329661415,0.5319218779486851
-3.9625,-0.04993701351651855,-0.5065486857577234
-3.962,0.291508581929326,-1.195330182093607
-3.9615,0.4729015545099309,-1.375473034981453
-3.961,0.5155822539406614,-1.322489842955616
-3.9605,0.4942419042252961,-1.152943628472937
-3.96,0.4515612047945656,-0.9728007755850904
-3.9595,0.4408910299368829,-0.8032545611024114
-3.959,0.4408910299368829,-0.718481453861072
-3.9585,0.4195506802215176,-0.6231117082145651
-3.958,0.3982103305061524,-0.5171453241628908
-3.9575,0.3661998059331045,-0.4111789401112165
-3.957,0.3555296310754218,-0.3052125560595421
-3.9565,0.04609456020262521,0.04447651131098315
-3.956,-0.7008176798351597,0.6696781772158616
-3.9555,-1.437059745015262,1.220703374284568
-3.955,-1.991908837614759,1.528005888034424
-3.9545,-1.885207089037933,1.347863035146577
-3.954,-1.127624674142465,0.701468092431364
-3.9535,-0.4447334832507763,0.09745970333682032
-3.953,0.03542438534494258,-0.2734226408440398
-3.9525,0.3128489316446912,-0.4111789401112165
-3.952,0.4302208550792003,-0.3687923864905467
-3.9515,0.4515612047945656,-0.2310360872233701
-3.951,0.4302208550792003,-0.07208651114585861
-3.9505,0.408880505363835,0.09745970333682032
-3.95,0.3875401556484697,0.2458126410091644
-3.9495,0.3661998059331045,0.3729723018711736
-3.949,0.3555296310754218,0.457745409112513
-3.9485,0.3982103305061524,0.4789386859228479
-3.948,0.6969752265212663,0.3623756634660061
-3.9475,0.3021787567870086,0.6590815388106942
-3.947,-0.4660738329661415,1.093543713422559
-3.9465,-0.7861790786966207,1.019367244586387
-3.946,-0.4767440078238243,0.2246193641988295
-3.9455,-0.04993701351651855,-0.570128516188728
-3.945,0.2488278824985954,-0.9516074987747555
-3.9445,0.3982103305061524,-1.046977244421262
-3.944,0.4622313796522482,-0.9728007755850904
-3.9435,0.4622313796522482,-0.8668343915334161
-3.943,0.4408910299368829,-0.7502713690765743
-3.9425,0.4729015545099309,-0.6654982618352349
-3.942,0.4835717293676135,-0.6019184314042303
-3.9415,0.4408910299368829,-0.5171453241628908
-3.941,0.3982103305061524,-0.4217755785163839
-3.9405,0.3768699807907871,-0.326405832869877
-3.94,0.2168173579255475,-0.1038764263613609
-3.9395,-0.4447334832507763,0.4683420475176805
-3.939,-1.223656247861609,1.061753798207057
-3.9385,-1.83185621474952,1.400846227172415
-3.938,-2.07727023647622,0.8922075837243778
-3.9375,-1.415719395299897,0.2140227257936621
-3.937,-0.6794773301197943,-0.1780528951975329
-3.9365,-0.1139580626626144,-0.326405832869877
-3.936,0.2274875327832301,-0.2946159176543747
-3.9355,0.3982103305061524,-0.1886495336027004
-3.935,0.4515612047945656,-0.04029659593035631
-3.9345,0.4408910299368829,0.08686306493165288
-3.934,0.4195506802215176,0.2034260873884947
-3.9335,0.3875401556484697,0.2881991946298341
-3.933,0.3661998059331045,0.3411823866556712
-3.9325,0.3661998059331045,0.3729723018711736
-3.932,0.3661998059331045,0.3623756634660061
-3.9315,0.5582629533713921,0.1716361721729923
-3.931,0.3128489316446912,0.3517790250608387
-3.9305,-0.391382608962363,0.8286277532933731
-3.93,-0.8502001278427167,1.00877060618122
-3.9295,-0.5300948821122373,0.1610395337678249
-3.929,0.00341386077189465,-0.8880276683437509
-3.9285,0.3555296310754218,-1.47084278062796
-3.928,0.5155822539406614,-1.555615887869299
-3.9275,0.5475927785137094,-1.407262950196955
-3.927,0.5155822539406614,-1.195330182093607
-3.9265,0.4622313796522482,-0.9728007755850904
-3.926,0.4835717293676135,-0.7820612842920766
-3.9255,0.5049120790829789,-0.6231117082145651
-3.925,0.4729015545099309,-0.5065486857577234
-3.9245,0.4195506802215176,-0.3899856633008816
-3.924,0.3875401556484697,-0.2946159176543747
-3.9235,0.3235191065023739,-0.1462629799820306
-3.923,-0.156638762093345,0.309392471440169
-3.9225,-0.9462317015618604,0.9134008605347127
-3.922,-1.67180359188428,1.390249588767247
-3.9215,-2.162631635337682,1.633972272086098
-3.921,-1.703814116457328,1.263089927905238
-3.9205,-0.9142211769888124,0.5743084315693548
-3.92,-0.274010685527854,0.002089957690313421
-3.9195,0.1527963087794516,-0.3052125560595421
-3.919,0.3661998059331045,-0.3899856633008816
-3.9185,0.4408910299368829,-0.3158091944647096
-3.918,0.4515612047945656,-0.1674562567923655
-3.9175,0.4195506802215176,0.002089957690313421
-3.917,0.3982103305061524,0.1716361721729923
-3.9165,0.3768699807907871,0.309392471440169
-3.916,0.3661998059331045,0.4153588554918433
-3.9155,0.3555296310754218,0.4895353243280153
-3.915,0.408880505363835,0.4683420475176805
-3.9145,0.291508581929326,0.5955017083796896
-3.914,-0.3593720843893152,0.9875773293708847
-3.9135,-0.9675720512772257,1.29487984312074
-3.913,-0.8288597781273515,0.7120647308365314
-3.9125,-0.2633405106701714,-0.3581957480853793
-3.912,0.2168173579255475,-1.131750351662602
-3.9115,0.4622313796522482,-1.38606967338662
-3.911,0.5369226036560266,-1.301296566145281
-3.9105,0.5369226036560266,-1.121153713257435
-3.91,0.4835717293676135,-0.9516074987747555
-3.9095,0.4408910299368829,-0.7820612842920766
-3.909,0.4195506802215176,-0.6549016234300674
-3.9085,0.3982103305061524,-0.5595318777835605
-3.908,0.3768699807907871,-0.4641621321370536
-3.9075,0.3555296310754218,-0.3687923864905467
-3.907,0.3448594562177392,-0.2734226408440398
-3.9065,0.05676473506030786,0.05507314971615059
-3.906,-0.690147504977477,0.6590815388106942
-3.9055,-1.437059745015262,1.210106735879401
-3.905,-1.991908837614759,1.475022696008586
-3.9045,-1.959898313041711,1.263089927905238
-3.904,-1.202315898146244,0.6484849004055269
-3.9035,-0.4980843575391895,0.07626642652648545
-3.903,0.01408403562957729,-0.2734226408440398
-3.9025,0.3021787567870086,-0.400582301706049
-3.902,0.4195506802215176,-0.3687923864905467
-3.9015,0.4515612047945656,-0.2416327256285375
-3.901,0.4408910299368829,-0.07208651114585861
-3.9005,0.408880505363835,0.08686306493165288
-3.9,0.3875401556484697,0.2352160026039969
-3.8995,0.3661998059331045,0.3517790250608387
-3.899,0.3661998059331045,0.4365521323021782
-3.8985,0.3875401556484697,0.4365521323021782
-3.898,0.2594980573562781,0.4259554938970107
-3.8975,-0.4340633083930936,0.7862411996727035
-3.897,-1.223656247861609,1.210106735879401
-3.8965,-1.437059745015262,1.114736990232894
-3.896,-0.8822106524157645,0.2881991946298341
-3.8955,-0.2313299860971235,-0.5171453241628908
-3.895,0.2061471830678648,-0.9304142219644207
-3.8945,0.4302208550792003,-1.036380606016095
-3.894,0.5049120790829789,-0.9833974139902578
-3.8935,0.5049120790829789,-0.8350444763179138
-3.893,0.4729015545099309,-0.6654982618352349
-3.8925,0.5796033030867573,-0.400582301706049
-3.892,0.6329541773751706,-0.2204394488182027
-3.8915,0.5689331282290746,-0.1992461720078678
-3.891,0.4942419042252961,-0.2204394488182027
-3.8905,0.4195506802215176,-0.2098428104130352
-3.89,0.291508581929326,-0.07208651114585861
-3.8895,-0.2420001609548061,0.4471487707073456
-3.889,-0.9995825758502737,1.029963882991555
-3.8885,-1.661133417026597,1.453829419198252
-3.888,-1.938557963326346,1.549199164844759
-3.8875,-1.351698346153801,1.00877060618122
-3.887,-0.658136980404429,0.3305857482505039
-3.8865,-0.1032878878049318,-0.1568596183871981
