Class_9_Think_Grab_one_hand_movement/Class_9_Think_Right_hand_Grab_Basim_1.csv

#Digilent WaveForms Oscilloscope Acquisition
#Device Name: EExplorer
#Serial Number: SN:210151A2B84A
#Date Time: 2020-11-04 11:12:20.851
#Sample rate: 2000Hz
#Samples: 16384
#Trigger: Source: Channel 1 Type: Edge Condition: Rising Level: 0 V Hyst.: Auto HoldOff: 0 s
#Channel 1: Range: 1 V/div Offset: 0 V Attenuation: 1 X
#Channel 2: Range: 1 V/div Offset: 0 V Attenuation: 1 X
#Power Supplies: ON
#Fixed Supply: ON
#Voltage: 3.3 V Readback: 3.326 V
#Positive Supply: ON
#Voltage: 3.7 V Readback: 3.712 V
#Current: 500 mA Readback: 20 mA
#Negative Supply: ON
#Voltage: -3.7 V Readback: -3.702 V
#Current: -500 mA Readback: -9 mA
#Reference 1: ON
#Voltage: 0 V
#Reference 2: ON
#Voltage: 0 V

Time (s),Channel 1 (V),Channel 2 (V)
-4.096,-1.479740444445993,0.1186529801471552
-4.0955,-1.970568487898948,-0.8244478379118886
-4.095,-2.408045657064004,-1.513229334248553
-4.0945,-1.991908837614759,-1.42845622700729
-4.094,-1.15963519871627,-0.6866915386462444
-4.0935,-0.4447334832503493,0.07626642652700588
-4.093,0.02475421048725994,0.6484849004055269
-4.0925,0.2808384070714104,0.9875773293705763
-4.092,0.3661998059331142,1.146526905448435
-4.0915,0.3768699807907871,1.188913459069066
-4.091,0.3448594562177392,1.135930267043229
-4.0905,0.3128489316446622,0.987577329370692
-4.09,0.2808384070716433,0.775644561267536
-4.0895,0.2701682322139607,0.5743084315693548
-4.089,0.2701682322139607,0.2564092794146209
-4.0885,-0.07127736323188383,-0.4641621321370536
-4.088,-0.7434983792658902,-1.237716735714276
-4.0875,-1.405049220441613,-1.841725124808271
-4.087,-1.22365624786092,-2.23380074579987
-4.0865,-0.4660738329661415,-2.074851169722503
-4.086,0.1207857842058699,-1.301296566145984
-4.0855,0.4195506802215953,-0.5489352393779016
-4.085,0.5049120790829789,-0.008506680714854012
-4.0845,0.4835717293676329,0.3093924714398799
-4.084,0.4302208550791421,0.4365521323021974
-4.0835,0.3661998059331045,0.457745409112513
-4.083,0.3982103305061524,0.5213252395435176
-4.0825,0.5049120790829692,0.6908714540261677
-4.082,0.4942419042252961,0.6590815388106942
-4.0815,0.4302208550792003,0.5637117931641874
-4.081,0.3555296310754897,0.478938685922925
-4.0805,0.2168173579255475,0.5637117931641874
-4.08,-0.4447334832507763,0.9134008605347127
-4.0795,-1.341028171295303,0.3729723018716651
-4.079,-2.109280761049822,-0.5701285161894604
-4.0785,-2.717480727937179,-1.375473034981453
-4.078,-2.557428105072085,-1.650985633515555
-4.0775,-1.586442193022033,-1.036380606015362
-4.077,-0.722158029550525,-0.2310360872233701
-4.0765,-0.1139580626631675,0.4259554938964132
-4.076,0.227487532783366,0.8392243916987333
-4.0755,0.3768699807907871,1.051157159801889
-4.075,0.408880505363835,1.125333628638062
-4.0745,0.3768699807907483,1.114736990232769
-4.074,0.3341892813600565,0.9769806909657173
-4.0735,0.3021787567870086,0.7438546460520338
-4.073,0.2808384070716627,0.5425185163540356
-4.0725,0.2808384070716433,0.2776025562246667
-4.072,0.1207857842064037,-0.252229364033705
-4.0715,-0.2313299860968032,-1.004590690799908
-4.071,-0.5941159312583042,-1.650985633516134
-4.0705,-0.5621054066852853,-2.011271339291499
-4.07,-0.01792648894396554,-1.990078062481183
-4.0695,0.3768699807909424,-1.375473034980807
-4.069,0.5475927785137094,-0.6654982618352349
-4.0685,0.5475927785137094,-0.1250697031716958
-4.068,0.4942419042252282,0.2140227257938163
-4.0675,0.4195506802215176,0.383568940276341
-4.067,0.3661998059331045,0.4365521323021782
-4.0665,0.3448594562178653,0.4683420475178443
-4.066,0.4835717293676135,0.6484849004055269
-4.0655,0.5155822539406614,0.6696781772158616
-4.065,0.4622313796522967,0.6166949851900727
-4.0645,0.3875401556484697,0.55311515475902
-4.064,0.291508581929326,0.5637117931641874
-4.0635,-0.2420001609543208,0.9028042221292368
-4.063,-1.138294849000837,0.6378882619995306
-4.0625,-1.895877263895616,-0.2734226408440398
-4.062,-2.4934070559253,-1.121153713256663
-4.0615,-2.706810553078798,-1.629792356705143
-4.061,-1.938557963326346,-1.269506650929778
-4.0605,-1.010252750707956,-0.4641621321370536
-4.06,-0.2953510352428214,0.2670059178199619
-4.0595,0.142126133921769,0.775644561267536
-4.059,0.3448594562177392,1.061753798207057
-4.0585,0.4088805053637768,1.178316820663792
-4.058,0.3982103305061524,1.199510097474233
-4.0575,0.3661998059331045,1.114736990232894
-4.057,0.3235191065024127,0.9239974989400535
-4.0565,0.3021787567870086,0.6802748156210291
-4.056,0.291508581929326,0.4365521323021782
-4.0555,0.3768699807907094,-0.01910331911960705
-4.055,0.6649647019481504,-0.7926579226978897
-4.0545,0.5902734779444399,-1.502632695843462
-4.054,0.07810508477613898,-2.043061254506509
-4.0535,0.2381577076412039,-2.350363768256606
-4.053,0.5582629533713921,-2.074851169722503
-4.0525,0.6969752265212663,-1.195330182093607
-4.052,0.6863050516634964,-0.4111789401107828
-4.0515,0.5902734779444399,0.06566978812131802
-4.051,0.4835717293676135,0.2881991946298341
-4.0505,0.39821033050623,0.3517790250607808
-4.05,0.3448594562177392,0.3623756634660061
-4.0495,0.4408910299368829,0.5107286011383502
-4.049,0.5369226036559392,0.6484849004054016
-4.0485,0.4942419042252379,0.5955017083796221
-4.048,0.4302208550792003,0.5213252395435176
-4.0475,0.3555296310754897,0.4683420475177287
-4.047,0.1101156093480126,0.6908714540263218
-4.0465,-0.6688071552621118,0.8286277532933731
-4.046,-1.511750969018274,0.07626642652716964
-4.0455,-2.109280761049734,-0.6654982618357649
-4.045,-2.621449154218035,-1.248313374119443
-4.0445,-2.23732285934146,-1.290699927740113
-4.044,-1.309017646722362,-0.654901623429412
-4.0435,-0.5300948821122373,0.06566978812131802
-4.043,0.00341386077189465,0.6378882620003594
-4.0425,0.280838407071391,0.9981739677757244
-4.042,0.3982103305061524,1.178316820663898
-4.0415,0.408880505363835,1.241896651094903
-4.041,0.3768699807908162,1.199510097474272
-4.0405,0.3341892813600275,1.061753798206855
-4.04,0.3021787567870086,0.8392243916985406
-4.0395,0.2915085819293357,0.6272916235953847
-4.039,0.31284893164473,0.2881991946291884
-4.0385,0.3555296310754218,-0.4217755785163839
-4.038,0.2168173579256736,-1.195330182092903
-4.0375,-0.4020527838200748,-1.809935209593694
-4.037,-0.4340633083930936,-2.223204107394847
-4.0365,0.04609456020262521,-2.085447808127671
-4.036,0.3875401556485959,-1.396666311791132
-4.0355,0.5262524287983441,-0.6760949002404023
-4.035,0.5155822539406614,-0.1250697031716958
-4.0345,0.4622313796522967,0.1822328105778802
-4.034,0.408880505363835,0.309392471440169
-4.0335,0.3555296310754218,0.3517790250608387
-4.033,0.3875401556484406,0.4153588554917855
-4.0325,0.4942419042252961,0.5955017083796896
-4.032,0.4942419042252961,0.5955017083796896
-4.0315,0.4302208550792586,0.5319218779487429
-4.031,0.366199805932988,0.4789386859229443
-4.0305,0.2381577076409128,0.5849050699745222
-4.03,-0.4127229586771363,0.9345941373447295
-4.0295,-1.30901764672372,0.4153588554909856
-4.029,-2.023919362187807,-0.5277419625680583
-4.0285,-2.632119329075718,-1.322489842955616
-4.028,-2.642789503932595,-1.682775548730807
-4.0275,-1.757164990745741,-1.131750351662602
-4.027,-0.8502001278427167,-0.2946159176543747
-4.0265,-0.1886492866669945,0.4153588554911977
-4.026,0.1954770082101822,0.8816109453192104
-4.0255,0.3768699807907871,1.135930267043229
-4.025,0.4195506802214788,1.220703374284491
-4.0245,0.3982103305061136,1.220703374284462
-4.024,0.3555296310754218,1.104140351827727
-4.0235,0.323519106502403,0.9134008605348862
-4.023,0.3021787567870086,0.7226613692414676
-4.0225,0.3021787567870086,0.4683420475176805
-4.022,0.2488278824986439,-0.1462629799814716
-4.0215,0.02475421048676501,-0.9622041371805493
-4.021,-0.5194247072545548,-1.650985633515806
-4.0205,-0.7434983792658902,-2.032464616101834
-4.02,-0.1566387620928791,-2.05365789291159
-4.0195,0.3555296310754218,-1.417859588602123
-4.019,0.5902734779444399,-0.792657922697244
-4.0185,0.6222840025174587,-0.2628260024393542
-4.018,0.5582629533713921,0.09745970333682032
-4.0175,0.4622313796522482,0.2670059178194992
-4.017,0.3875401556485377,0.330585748250446
-4.0165,0.3555296310755091,0.372972301871376
-4.016,0.4515612047945656,0.5955017083796896
-4.0155,0.4835717293675844,0.6696781772157941
-4.015,0.4408910299368344,0.6060983467847896
-4.0145,0.3875401556484697,0.5319218779486851
-4.014,0.3021787567870863,0.5319218779486851
-4.0135,-0.1779791118094478,0.9134008605346163
-4.013,-0.9889124009925911,0.8074344764830383
-4.0125,-1.629122892453549,-0.07208651114585861
-4.012,-2.09861058619178,-0.9622041371804048
-4.0115,-2.312014083345239,-1.492036057438295
-4.011,-1.639793067311232,-1.131750351662602
-4.0105,-0.8395299529857618,-0.3793890248963984
-4.01,-0.2099896363817582,0.309392471440169
-4.0095,0.1741366584948169,0.7862411996727035
-4.009,0.3555296310752568,1.061753798206806
-4.0085,0.4088805053638253,1.16772018225875
-4.008,0.3982103305061524,1.188913459069066
-4.0075,0.3661998059331336,1.104140351827804
-4.007,0.3235191065023544,0.9345941373448547
-4.0065,0.3021787567870086,0.7226613692416989
-4.006,0.3021787567870086,0.5001319627331828
-4.0055,0.291508581929064,0.03387987290511218
-4.005,0.00341386077189465,-0.7396747306714069
-4.0045,-0.5407650569699201,-1.460246142222792
-4.004,-0.8928808272729328,-1.937094870455432
-4.0035,-0.3273615598162672,-2.053657892912168
-4.003,0.2808384070716433,-1.587405803084801
-4.0025,0.5796033030864856,-0.8668343915340715
-4.002,0.6542945270905358,-0.3052125560595421
-4.0015,0.6009436528021226,0.08686306493165288
-4.001,0.5049120790830662,0.3093924714399666
-4.0005,0.4195506802214691,0.4047622170867048
-4,0.3661998059331045,0.4365521323021782
-3.9995,0.4515612047945656,0.6060983467848571
-3.999,0.5475927785137094,0.7650479228623686
-3.9985,0.5155822539406614,0.7226613692416989
-3.998,0.4408910299368829,0.6166949851900245
-3.9975,0.3768699807907871,0.5319218779486851
-3.997,0.1207857842064037,0.7438546460520338
-3.9965,-0.690147504977477,0.9345941373450475
-3.996,-1.533091318734406,0.1928294489833272
-3.9955,-2.130621110764634,-0.7396747306714069
-3.995,-2.621449154218035,-1.47084278062796
-3.9945,-2.162631635337682,-1.492036057438295
-3.994,-1.244996597576974,-0.7820612842920766
-3.9935,-0.4660738329661415,-0.008506680714854012
-3.993,0.04609456020262521,0.5743084315693548
-3.9925,0.3128489316446912,0.92399749893988
-3.992,0.408880505363835,1.093543713422559
-3.9915,0.4195506802215176,1.157123543853563
-3.991,0.3875401556484697,1.125333628638062
-3.9905,0.3448594562177392,0.9875773293708847
-3.99,0.3235191065023739,0.7862411996727035
-3.9895,0.3021787567870086,0.6060983467848571
-3.989,0.3555296310754218,0.2670059178194992
-3.9885,0.6329541773751706,-0.4641621321370536
-3.988,0.8783681991018712,-1.237716735714276
-3.9875,0.5902734779444399,-1.79933857118815
-3.987,0.5689331282290746,-2.149027638558676
-3.9865,0.7503261008096795,-2.043061254507001
-3.986,0.7716664505250448,-1.269506650929778
-3.9855,0.6863050516635838,-0.5277419625680583
-3.985,0.5689331282290746,-0.04029659593035631
-3.9845,0.4622313796522482,0.2034260873884947
-3.984,0.3768699807907871,0.2881991946298341
-3.9835,0.3341892813600565,0.309392471440169
-3.983,0.3661998059331045,0.3729723018711736
-3.9825,0.4835717293676135,0.5319218779486851
-3.982,0.4835717293676135,0.5425185163538525
-3.9815,0.4302208550792003,0.5001319627331828
-3.981,0.3661998059331045,0.4789386859228479
-3.9805,0.2168173579255475,0.6166949851900245
-3.98,-0.4767440078238243,0.9981739677760521
-3.9795,-1.330357996438436,0.4789386859228479
-3.979,-2.023919362187807,-0.4853554089473885
-3.9785,-2.632119329075718,-1.301296566145281
-3.978,-2.493407055925843,-1.566212526274467
-3.9775,-1.554431668449771,-0.9516074987747555
-3.977,-0.7008176798351597,-0.1356663415768632
-3.9765,-0.09261771294724913,0.5319218779486851
-3.976,0.2488278824985954,0.9557874141553824
-3.9755,0.3982103305061524,1.188913459069066
-3.975,0.4195506802215176,1.263089927905238
-3.9745,0.3982103305061524,1.25249328950007
-3.974,0.3555296310754218,1.146526905448396
-3.9735,0.3235191065023739,0.9451907757502149
-3.973,0.3021787567870086,0.7120647308365314
-3.9725,0.3128489316446912,0.4259554938970107
-3.972,0.2061471830678648,-0.1674562567923655
-3.9715,-0.3487019095316325,-0.9622041371799229
-3.971,-0.9142211769888124,-1.640388995110639
-3.9705,-1.06360362499637,-2.159624276963843
-3.97,-0.4340633083930936,-2.318573853041354
-3.9695,0.1848068333524996,-1.672178910326141
-3.969,0.5155822539406614,-0.8774310299385835
-3.9685,0.6009436528021226,-0.2628260024388724
-3.968,0.5689331282290746,0.1186529801471552
-3.9675,0.4942419042252961,0.2987958330350016
-3.967,0.4195506802215176,0.3623756634660061
-3.9665,0.3768699807907871,0.3941655786815084
-3.966,0.5475927785137094,0.6060983467848571
-3.9655,0.6009436528021226,0.6590815388106942
-3.965,0.5369226036560266,0.5743084315693548
-3.9645,0.4408910299368829,0.4789386859228479
-3.964,0.3448594562177392,0.457745409112513
-3.9635,-0.08194753808956648,0.7968378380778709
-3.963,-0.9569018764195432,0.6908714540261965
-3.9625,-1.789175515318789,-0.1568596183871981
-3.962,-2.493407055925843,-1.046977244421262
-3.9615,-2.706810553079496,-1.598002441489969
-3.961,-1.949228138184029,-1.269506650929778
-3.9605,-1.010252750707956,-0.474758770542221
-3.96,-0.2846808603855366,0.2670059178194992
-3.9595,0.1527963087794516,0.775644561267536
-3.959,0.3661998059331045,1.072350436612224
-3.9585,0.4302208550792003,1.199510097474233
-3.958,0.4195506802215176,1.220703374284568
-3.9575,0.3768699807907871,1.135930267043229
-3.957,0.3341892813600565,0.9345941373450475
-3.9565,0.3128489316446912,0.7438546460520338
-3.956,0.3128489316446912,0.5319218779486851
-3.9555,0.3021787567870086,0.06566978812131802
-3.955,0.291508581929326,-0.718481453861072
-3.9545,0.2061471830678648,-1.449649503817625
-3.954,-0.2099896363817582,-2.021867977696666
-3.9535,0.0674349099179905,-2.350363768256857
-3.953,0.4942419042252961,-2.106641084938006
-3.9525,0.6756348768059011,-1.248313374119443
-3.952,0.6863050516635838,-0.4853554089473885
-3.9515,0.6116138276598051,0.01268659609548085
-3.951,0.5049120790829789,0.2564092794143318
-3.9505,0.4195506802215176,0.3517790250608387
-3.95,0.3661998059331045,0.3729723018711736
-3.9495,0.4195506802215176,0.4789386859228479
-3.949,0.5049120790829789,0.5955017083796896
-3.9485,0.4835717293676135,0.5743084315693548
-3.948,0.4195506802215176,0.5107286011383502
-3.9475,0.3661998059331045,0.4789386859228479
-3.947,0.1314559590640864,0.701468092431364
-3.9465,-0.6154562809736985,1.040560521396722
-3.946,-1.479740444445993,0.4047622170866759
-3.9455,-2.119950935906951,-0.400582301706049
-3.945,-2.632119329075718,-1.078767159636765
-3.9445,-2.205312334768412,-1.205926820498774
-3.944,-1.26633694729234,-0.6443049850249
-3.9435,-0.4874141826815069,0.05507314971615059
-3.943,0.03542438534494258,0.5955017083796896
-3.9425,0.3128489316446912,0.9451907757502149
-3.942,0.4195506802215176,1.125333628638062
-3.9415,0.4302208550792003,1.199510097474233
-3.941,0.3982103305061524,1.167720182258731
-3.9405,0.3555296310754218,1.029963882991555
-3.94,0.3235191065023739,0.8286277532933731
-3.9395,0.3128489316446912,0.6484849004055269
-3.939,0.3128489316446912,0.3411823866556712
-3.9385,0.1634664836371343,-0.3475991096802118
-3.938,-0.156638762093345,-1.131750351662602
-3.9375,-0.7114878546928423,-1.778145294377815
-3.937,-0.572775581542968,-2.233800745800015
-3.9365,0.03542438534494258,-2.202010830584512
-3.936,0.4515612047945656,-1.439052865412457
-3.9355,0.6222840025174878,-0.6866915386455698
-3.935,0.6222840025174878,-0.1356663415768632
-3.9345,0.5369226036560266,0.1716361721729923
-3.934,0.4622313796522482,0.3305857482505039
-3.9335,0.3982103305061524,0.3729723018711736
-3.933,0.3982103305061524,0.4471487707073456
-3.9325,0.5582629533713921,0.6802748156210291
-3.932,0.5689331282290746,0.6908714540261965
-3.9315,0.4942419042252961,0.5955017083796896
-3.931,0.408880505363835,0.5001319627331828
-3.9305,0.2808384070716433,0.5637117931641874
-3.93,-0.3273615598162672,0.9875773293708847
-3.9295,-1.234326422719292,0.627291623595192
-3.929,-1.895877263895616,-0.3158091944647096
-3.9285,-2.44005618163743,-1.163540266878104
-3.928,-2.418715831922065,-1.534422611058964
-3.9275,-1.543761493592088,-1.01518732920576
-3.927,-0.7114878546928423,-0.2204394488182027
-3.9265,-0.1032878878049318,0.457745409112513
-3.926,0.2488278824985954,0.9028042221295453
-3.9255,0.3982103305061524,1.146526905448396
-3.925,0.4302208550792003,1.241896651094903
-3.9245,0.408880505363835,1.241896651094903
-3.924,0.3768699807907871,1.135930267043229
-3.9235,0.3341892813600565,0.9557874141553824
-3.923,0.3235191065023739,0.7438546460520338
-3.9225,0.3235191065023739,0.457745409112513
-3.922,0.1634664836371343,0.03387987290581572
-3.9215,-0.5407650569699201,-0.718481453861072
-3.921,-1.138294849000148,-1.439052865412457
-3.9205,-1.383708870726849,-2.000674700886331
-3.92,-0.7861790786966207,-2.202010830584512
-3.9195,-0.1032878878049318,-1.555615887869299
-3.919,0.3448594562177392,-0.8032545611024114
-3.9185,0.5369226036560266,-0.252229364033705
-3.918,0.5689331282290746,0.07626642652648545
-3.9175,0.5155822539406614,0.2352160026039969
-3.917,0.4515612047945656,0.2987958330350016
-3.9165,0.408880505363835,0.3199891098453364
-3.916,0.5262524287983441,0.5107286011383502
-3.9155,0.5796033030867573,0.6060983467848571
-3.915,0.5155822539406614,0.5637117931641874
-3.9145,0.4408910299368829,0.5213252395435176
-3.914,0.3555296310754218,0.5213252395435176
-3.9135,-0.04993701351651855,0.92399749893988
-3.913,-0.754168554123573,1.178316820663898
-3.9125,-1.138294849000148,0.4153588554918433
-3.912,-1.597112367880501,-0.6019184314042303
-3.9115,-1.927887788468663,-1.322489842955616
-3.911,-1.522421143876723,-1.152943628472937
-3.9105,-0.8288597781273515,-0.4535654937318862
-3.91,-0.2313299860971235,0.2458126410091644
-3.9095,0.1527963087794516,0.7650479228623686
-3.909,0.3448594562177392,1.072350436612224
-3.9085,0.408880505363835,1.231300012689736
-3.908,0.408880505363835,1.273686566310405
-3.9075,0.3875401556484697,1.220703374284568
-3.907,0.3448594562177392,1.061753798207057
-3.9065,0.3235191065023739,0.8604176685088755
-3.906,0.3341892813600565,0.6060983467848571
-3.9055,0.3555296310754218,0.1928294489833272
-3.905,0.2701682322139607,-0.570128516188728
-3.9045,-0.1032878878049318,-1.333086481360783
-3.904,-0.4554036581084589,-1.926498232050159
-3.9035,-0.09261771294724913,-2.329170491446522
-3.903,0.4408910299368829,-2.191414192179345
-3.9025,0.6863050516635838,-1.364876396576285
-3.902,0.6969752265212663,-0.5807251545938954
-3.9015,0.6116138276598051,-0.05089323433552374
-3.901,0.5049120790829789,0.2352160026039969
-3.9005,0.4302208550792003,0.3517790250608387
-3.9,0.3768699807907871,0.383568940276341
-3.8995,0.4515612047945656,0.5001319627331828
-3.899,0.5796033030867573,0.6378882620003594
-3.8985,0.5582629533713921,0.5743084315693548
-3.898,0.4835717293676135,0.4789386859228479
-3.8975,0.3982103305061524,0.4259554938970107
-3.897,0.1634664836371343,0.6060983467848571
-3.8965,-0.6154562809736985,0.9028042221295453
-3.896,-1.490410619303675,0.2564092794143318
-3.8955,-2.098610586191586,-0.5277419625680583
-3.895,-2.60010880450267,-1.174136905283272
-3.8945,-2.301343908487556,-1.333086481360783
-3.894,-1.362368521011484,-0.7502713690765743
-3.8935,-0.5514352318276028,-0.02969995752518888
-3.893,0.00341386077189465,0.55311515475902
-3.8925,0.3021787567870086,0.92399749893988
-3.892,0.4195506802215176,1.114736990232894
-3.8915,0.4408910299368829,1.188913459069066
-3.891,0.408880505363835,1.167720182258731
-3.8905,0.3768699807907871,1.051157159801889
-3.89,0.3448594562177392,0.8710143069140429
-3.8895,0.3235191065023739,0.6696781772158616
-3.889,0.3555296310754218,0.3517790250608387
-3.8885,0.5475927785137094,-0.3475991096802118
-3.888,0.7183155762366316,-1.142346990067769
-3.8875,0.1741366584948169,-1.778145294377815
-3.887,-0.02859666380115328,-2.202010830584512
-3.8865,0.3768699807907871,-2.318573853041354
-3.886,0.6542945270905358,-1.735758740757146
-3.8855,0.7183155762366316,-0.9516074987747555
-3.885,0.6542945270905358,-0.3370024712750445
