Class_9_Think_Grab_one_hand_movement/Class_9_Think_Right_hand_Grab_UZ_3.csv

#Digilent WaveForms Oscilloscope Acquisition
#Device Name: EExplorer
#Serial Number: SN:210151A2B84A
#Date Time: 2020-11-30 10:43:24.888
#Sample rate: 2000Hz
#Samples: 16384
#Trigger: Source: Channel 1 Type: Edge Condition: Rising Level: 0 V Hyst.: Auto HoldOff: 0 s
#Channel 1: Range: 1 V/div Offset: 0 V Attenuation: 1 X
#Channel 2: Range: 1 V/div Offset: 0 V Attenuation: 1 X
#Power Supplies: ON
#Fixed Supply: ON
#Voltage: 3.3 V Readback: 3.323 V
#Positive Supply: ON
#Voltage: 3.7 V Readback: 3.712 V
#Current: 500 mA Readback: 18 mA
#Negative Supply: ON
#Voltage: -3.7 V Readback: -3.696 V
#Current: -500 mA Readback: -9 mA
#Reference 1: ON
#Voltage: 0 V
#Reference 2: ON
#Voltage: 0 V

Time (s),Channel 1 (V),Channel 2 (V)
-4.096,2.809669848342429,-1.396666311791788
-4.0955,2.927041771776832,-1.926498232049677
-4.095,2.44688390318055,-1.735758740756509
-4.0945,1.710641838001117,-1.036380606016095
-4.094,1.049090996825395,-0.4429688553272585
-4.0935,0.558262953371101,-0.0508932343353599
-4.093,0.2381577076409128,0.1292496185523226
-4.0925,0.1101156093488375,0.1292496185523226
-4.092,-0.04993701351659618,-0.1674562567925197
-4.0915,-0.1352984123779797,-0.3370024712750445
-4.091,-0.124628237520297,-0.252229364033705
-4.0905,-0.08194753808950825,-0.09327978795601036
-4.09,-0.01792648894347063,0.1080563417419877
-4.0895,0.02475421048725994,0.2352160026039969
-4.089,-0.2099896363815447,-0.01910331911979013
-4.0885,-0.9355615267041777,-0.6337083466197325
-4.088,-1.330357996438436,-1.205926820498774
-4.0875,-0.7968492535547888,-1.576809164679297
-4.087,0.09944543449084434,-1.619195718300111
-4.0865,-0.1139580626626144,-1.407262950196955
-4.086,-0.9782422261341224,-1.110557074852537
-4.0855,-1.618452717595741,-0.8244478379123512
-4.085,-1.479740444445993,-0.3899856633008816
-4.0845,-0.9355615267046726,0.4683420475168999
-4.084,-0.4127229586773887,1.33726639674195
-4.0835,-0.03926683865883591,1.930678147430786
-4.083,0.1848068333524996,2.290963853206479
-4.0825,0.2915085819293454,2.439316790878765
-4.082,0.3128489316446912,2.375736960447818
-4.0815,0.3235191065023739,2.195594107559972
-4.081,0.5902734779441972,1.920081509025869
-4.0805,1.337185717982225,0.9451907757502149
-4.08,2.12677865745074,-0.2098428104130352
-4.0795,2.692297924907406,-1.121153713256606
-4.079,2.959052296349802,-1.799338571188295
-4.0785,2.756318974054016,-1.958288147265661
-4.078,2.062757608305275,-1.237716735714932
-4.0775,1.326515543124037,-0.4429688553262658
-4.077,0.7716664505250448,0.05507314971615059
-4.0765,0.4195506802218379,0.2564092794141487
-4.076,0.2061471830676707,0.2246193641985597
-4.0755,-0.007256314085787988,-0.07208651114585861
-4.075,-0.3166913849585846,-0.3581957480853793
-4.0745,-0.3166913849584681,-0.1886495336024787
-4.074,-0.1886492866663929,0.05507314971615059
-4.0735,-0.04993701351651855,0.2140227257936621
-4.073,0.03542438534486494,0.2776025562246088
-4.0725,-0.156638762093345,0.08686306493165288
-4.072,-0.9035510021311299,-0.5065486857577234
-4.0715,-1.565101843306852,-1.110557074851718
-4.071,-1.341028171294993,-1.50263269584353
-4.0705,-0.1032878878049318,-1.576809164679634
-4.07,1.262494493977204,-1.396666311791952
-4.0695,2.297501455174177,-1.110557074852017
-4.069,2.863020722630842,-0.8350444763179138
-4.0685,2.734978624338651,-0.5807251545938954
-4.068,2.009406734015494,-0.01910331911922153
-4.0675,1.19847344483235,0.8604176685088755
-4.067,0.6009436528021226,1.602182356870596
-4.0665,0.2701682322138345,2.089627723508529
-4.066,0.1314559590640864,2.343947045232316
-4.0655,0.1101156093487211,2.386333598852986
-4.065,0.1421261339217399,2.280367214801408
-4.0645,0.2274875327832301,2.004854616266958
-4.064,0.707645401378949,1.104140351827727
-4.0635,1.550589215135111,-0.07208651114478881
-4.063,2.286831280316212,-1.025783967611506
-4.0625,2.542915476900363,-1.661582271920973
-4.062,2.265490930600867,-1.841725124808656
-4.0615,1.689301488285199,-1.364876396575765
-4.061,1.081101521397841,-0.792657922697244
-4.0605,0.6116138276598051,-0.4217755785163839
-4.06,0.2808384070714686,-0.2734226408440591
-4.0595,0.08877525963335578,-0.2946159176543747
-4.059,0.00341386077189465,-0.3793890248957141
-4.0585,0.00341386077189465,-0.5489352393782388
-4.058,0.02475421048725994,-0.3370024712750445
-4.0575,0.05676473506030786,-0.1038764263613609
-4.057,0.05676473506030786,0.0974597033366372
-4.0565,0.04609456020262521,0.2352160026039969
-4.056,-0.07127736323188383,0.2140227257936621
-4.0555,-0.7114878546922599,-0.3052125560590698
-4.055,-1.543761493592428,-0.9304142219648351
-4.0545,-1.917217613610981,-1.38606967338662
-4.054,-1.981238662757018,-1.545019249463987
-4.0535,-2.290673733630281,-1.428456227007049
-4.053,-2.738821077652544,-1.163540266878104
-4.0525,-2.898873700517784,-0.8774310299385835
-4.052,-2.536087755355672,-0.6125150698088579
-4.0515,-1.543761493592088,-0.01910331912002144
-4.051,-0.7328282044082075,0.8816109453192104
-4.0505,-0.1779791118092148,1.644568910490572
-4.05,0.1207857842064037,2.100224361913465
-4.0495,0.2594980573562781,2.301560491611646
-4.049,0.3021787567869698,2.343947045232277
-4.0485,0.3021787567870183,2.237980661180459
-4.048,0.3128489316446912,2.036644531482461
-4.0475,0.5369226036558228,1.485619334414255
-4.047,1.262494493979154,0.3941655786805543
-4.0465,2.041417258589279,-0.6549016234300674
-4.046,2.617606700903618,-1.428456227006587
-4.0455,2.852350547772791,-1.958288147265498
-4.045,2.446883903181219,-1.778145294377815
-4.0445,1.667961138570387,-1.046977244421262
-4.044,0.9850699476782804,-0.4429688553263718
-4.0435,0.5262524287983441,-0.06148987274069118
-4.043,0.2168173579255475,-0.02969995752518888
-4.0425,0.05676473506045343,-0.1674562567922402
-4.042,0.01408403562957729,-0.4429688553267188
-4.0415,0.00341386077189465,-0.2628260024388724
-4.041,0.02475421048724053,0.288199194629333
-4.0405,0.05676473506032727,0.574308431569403
-4.04,0.07810508477567314,0.627291623595192
-4.0395,0.05676473506032727,0.6166949851900342
-4.039,-0.3700422592477838,0.2352160026033223
-4.0385,-1.234326422719292,-0.5065486857577234
-4.038,-1.81051586503363,-1.152943628472349
-4.0375,-1.511750969018885,-1.555615887869386
-4.037,-1.341028171296118,-1.650985633515806
-4.0365,-1.703814116457328,-1.502632695843462
-4.036,-2.237322859341838,-1.258910012524389
-4.0355,-2.653459678791083,-1.01518732920576
-4.035,-2.162631635337682,-0.7396747306714069
-4.0345,-1.309017646723847,-0.05089323433615012
-4.034,-0.5834457564006506,0.8286277532933731
-4.0335,-0.1032878878049318,1.517409249629256
-4.033,0.1634664836368916,1.962468062645884
-4.0325,0.2915085819293551,2.174400830749637
-4.032,0.3235191065023739,2.174400830749637
-4.0315,0.3341892813600468,2.047241169887744
-4.031,0.440891029937407,1.633972272085192
-4.0305,1.017080472251745,0.6378882620003594
-4.03,1.828013761434889,-0.4429688553257358
-4.0295,2.457554078039096,-1.269506650930308
-4.029,2.670957575192555,-1.852321763213987
-4.0285,2.297501455173662,-1.703968825541643
-4.028,1.625280439139093,-0.9833974139896988
-4.0275,1.006410297394063,-0.3687923864905467
-4.027,0.5582629533713921,0.04447651131098315
-4.0265,0.2488278824988768,0.1928294489831923
-4.026,0.0674349099179905,0.1716361721729923
-4.0255,-0.03926683865883591,-0.008506680714854012
-4.025,-0.1352984123778923,-0.2522293640334833
-4.0245,-0.1032878878048638,-0.1780528951974173
-4.024,-0.02859666380115328,-0.05089323433552374
-4.0235,0.02475421048721142,0.03387987290573861
-4.023,0.04609456020241172,0.1186529801470395
-4.0225,-0.1886492866663929,-0.008506680714854012
-4.022,-0.9462317015611714,-0.5595318777830594
-4.0215,-1.650463242169012,-1.121153713257762
-4.021,-1.757164990745741,-1.481439419033127
-4.0205,-1.821186039891837,-1.534422611058964
-4.02,-2.17330181019582,-1.3436831197657
-4.0195,-2.674800028506448,-1.068170521231597
-4.019,-2.888203525660101,-0.792657922697244
-4.0185,-2.386705307349473,-0.5171453241631414
-4.018,-1.437059745015262,0.1080563417419877
-4.0175,-0.658136980404429,0.9875773293708847
-4.017,-0.1352984123784552,1.665762187300984
-4.0165,0.1527963087795584,2.047241169887802
-4.016,0.2701682322139607,2.237980661180642
-4.0155,0.3021787567869795,2.269770576396115
-4.015,0.3128489316447107,2.174400830749406
-4.0145,0.3341892813600565,1.920081509025619
-4.014,0.7289857510939552,1.114736990233626
-4.0135,1.529248865421182,-0.01910331912088883
-4.013,2.265490930600615,-0.9728007755850904
-4.0125,2.756318974054016,-1.672178910326141
-4.012,2.820340023199636,-2.011271339291046
-4.0115,2.297501455173662,-1.51322933424863
-4.011,1.539919040278195,-0.7714646458869092
-4.0105,0.8997085488178188,-0.2734226408444928
-4.01,0.4622313796522482,0.002089957690313421
-4.0095,0.1954770082101822,0.06566978812131802
-4.009,0.04609456020276109,-0.05089323433541773
-4.0085,-0.2206598112395185,-0.2734226408439338
-4.008,-0.3060212101009019,-0.1568596183871981
-4.0075,-0.2313299860971914,0.06566978812111562
-4.007,-0.1139580626625271,0.214022725793691
-4.0065,-0.01792648894347063,0.2458126410091644
-4.006,-0.1139580626626144,0.09745970333682032
-4.0055,-0.7648387289819639,-0.4323722169221006
-4.005,-1.543761493592088,-1.036380606016095
-4.0045,-1.597112367880501,-1.502632695843462
-4.004,-1.095614149569602,-1.661582271920848
-4.0035,-1.298347471865388,-1.523825972653797
-4.003,-1.842526389607202,-1.227120097309109
-4.0025,-2.440056181636887,-0.9304142219646905
-4.002,-2.557428105071939,-0.6654982618352349
-4.0015,-1.789175515318789,-0.2204394488182027
-4.001,-0.9782422261356459,0.6378882619995788
-4.0005,-0.3487019095312831,1.443232780793576
-4,0.03542438534494258,1.983661339456623
-3.9995,0.2274875327832301,2.259173937990977
-3.999,0.3021787567870086,2.312157130016814
-3.9985,0.3235191065023739,2.227384022775475
-3.998,0.3341892813600565,2.068434446697963
-3.9975,0.5369226036560266,1.496215972818921
-3.997,1.273164668836129,0.3729723018711736
-3.9965,2.062757608304644,-0.6760949002404023
-3.996,2.596266351188776,-1.449649503817625
-3.9955,2.734978624338651,-1.958288147265661
-3.995,2.254820755742932,-1.682775548731308
-3.9945,1.497238340847464,-0.9728007755850904
-3.994,0.825017324813458,-0.4111789401112165
-3.9935,0.3768699807907871,-0.09327978795619347
-3.993,0.1314559590640864,-0.04029659593035631
-3.9925,0.02475421048725994,-0.07208651114585861
-3.992,-0.04993701351651855,-0.2310360872233701
-3.9915,-0.1459685872356623,-0.2204394488182027
-3.991,-0.1352984123779797,-0.07208651114585861
-3.9905,-0.07127736323188383,0.04447651131098315
-3.99,-0.007256314085787988,0.07626642652648545
-3.9895,0.01408403562957729,0.06566978812131802
-3.989,-0.3166913849585846,-0.2204394488182027
-3.9885,-1.127624674142465,-0.792657922697244
-3.988,-1.703814116457328,-1.301296566145281
-3.9875,-1.607782542738184,-1.555615887869299
-3.987,-1.629122892453549,-1.502632695843462
-3.9865,-2.013249187330125,-1.237716735714276
-3.986,-2.536087755356574,-0.9304142219644207
-3.9855,-2.80284212679864,-0.6443049850249
-3.985,-2.098610586191586,-0.2840192792492073
-3.9845,-1.212986073003927,0.4789386859228479
-3.984,-0.4980843575391895,1.358459673551745
-3.9835,-0.03926683865883591,1.962468062646288
-3.983,0.1954770082101822,2.322753768421981
-3.9825,0.291508581929326,2.449913429283991
-3.982,0.291508581929326,2.365140322042651
-3.9815,0.2808384070716433,2.174400830749637
-3.981,0.3875401556484697,1.824711763379112
-3.9805,1.017080472251745,0.8180311148882058
-3.98,1.838683936293309,-0.3158091944647096
-3.9795,2.48956460261195,-1.195330182093607
-3.979,2.831010198057795,-1.84172512480882
-3.9785,2.585596176331094,-1.958288147265661
-3.978,1.902704985439405,-1.322489842955616
-3.9775,1.19847344483235,-0.6125150698093976
-3.977,0.6649647019482183,-0.1992461720078678
-3.9765,0.3128489316446912,-0.05089323433552374
-3.976,0.1101156093487211,-0.1144730647665284
-3.9755,-0.01792648894347063,-0.3052125560595421
-3.975,-0.1779791118087102,-0.3793890248957141
-3.9745,-0.1779791118087102,-0.1356663415768632
-3.974,-0.1139580626626144,0.08686306493165288
-3.9735,-0.04993701351651855,0.2564092794143318
-3.973,-0.01792648894347063,0.3941655786815084
-3.9725,-0.1886492866663929,0.2140227257936621
-3.972,-0.8502001278427167,-0.4111789401112165
-3.9715,-1.458400094730627,-1.05757388282643
-3.971,-1.255666772434657,-1.523825972653797
-3.9705,-1.159635198715513,-1.693372187136476
-3.97,-1.607782542738184,-1.587405803084801
-3.9695,-2.183971985053047,-1.333086481360783
-3.969,-2.674800028506448,-1.05757388282643
-3.9685,-2.226652684483777,-0.7608680074817418
-3.968,-1.362368521011484,-0.07208651114585861
-3.9675,-0.6261264558313813,0.8286277532933731
-3.967,-0.124628237520297,1.549199164844759
-3.9665,0.1527963087794516,1.962468062646288
-3.966,0.2701682322139607,2.174400830749637
-3.9655,0.3021787567870086,2.227384022775475
-3.965,0.3235191065023739,2.153207553939303
-3.9645,0.3982103305061524,1.888291593810116
-3.964,0.8783681991018712,1.019367244586387
-3.9635,1.678631313428069,-0.1038764263613609
-3.963,2.372192679177441,-1.025783967610927
-3.9625,2.820340023200112,-1.714565463946811
-3.962,2.820340023200112,-2.011271339291499
-3.9615,2.222810231169884,-1.51322933424863
-3.961,1.475897991132099,-0.6549016234300674
-3.9605,0.825017324813458,-0.07208651114585861
-3.96,0.3768699807907871,0.2034260873884947
-3.9595,0.1527963087794516,0.2458126410091644
-3.959,0.0674349099179905,0.06566978812131802
-3.9585,-0.124628237520297,-0.2946159176543747
-3.958,-0.1886492866663929,-0.2734226408440398
-3.9575,-0.1352984123779797,-0.02969995752518888
-3.957,-0.03926683865883591,0.2034260873884947
-3.9565,0.02475421048725994,0.3199891098453364
-3.956,-0.03926683865883591,0.2881991946298341
-3.9555,-0.6474668055467465,-0.2416327256285375
-3.955,-1.490410619303675,-0.9092209451540858
-3.9545,-1.885207089037933,-1.42845622700729
-3.954,-1.554431668449771,-1.650985633515806
-3.9535,-1.426389570157579,-1.598002441489969
-3.953,-1.778505340461106,-1.38606967338662
-3.9525,-2.280003558772191,-1.142346990067769
-3.952,-2.3973754822067,-0.9198175835592532
-3.9515,-1.735824641030376,-0.4959520473525559
-3.951,-0.9569018764195432,0.3517790250608387
-3.9505,-0.3487019095316325,1.157123543853563
-3.95,0.02475421048725994,1.697552102517103
-3.9495,0.2168173579255475,1.994257977861791
-3.949,0.3021787567870086,2.1214176387238
-3.9485,0.3128489316446912,2.07903108510313
-3.948,0.3128489316446912,1.951871424241121
-3.9475,0.6116138276598051,1.42203950398275
-3.947,1.379866417412955,0.3305857482505039
-3.9465,2.148119007166105,-0.6866915386455698
-3.946,2.69229792490792,-1.460246142222792
-3.9455,2.863020722630842,-1.947691508860494
-3.945,2.404203203750489,-1.682775548731308
-3.9445,1.678631313428069,-0.8668343915334161
-3.944,0.9957401225363802,-0.252229364033705
-3.9435,0.4622313796522482,0.06566978812131802
-3.943,0.1634664836371343,0.1610395337678249
-3.9425,0.05676473506030786,0.07626642652648545
-3.942,-0.08194753808956648,-0.2098428104130352
-3.9415,-0.1779791118087102,-0.252229364033705
-3.941,-0.124628237520297,-0.1038764263613609
-3.9405,-0.03926683865883591,0.1504428953626575
-3.94,0.02475421048725994,0.3411823866556712
-3.9395,0.04609456020262521,0.3941655786815084
-3.939,-0.3380317346739499,0.01268659609548085
-3.9385,-1.138294849000148,-0.6654982618352349
-3.938,-1.479740444445993,-1.258910012524611
-3.9375,-0.9675720512772257,-1.598002441489969
-3.937,-0.9248913518464952,-1.619195718300304
-3.9365,-1.46907026958831,-1.417859588602123
-3.936,-2.109280761049269,-1.131750351662602
-3.9355,-2.525417580498891,-0.8774310299385835
-3.935,-2.013249187330125,-0.5489352393783931
-3.9345,-1.212986073003927,0.2246193641988295
-3.934,-0.5300948821122373,1.082947075017392
-3.9335,-0.07127736323188383,1.697552102517103
-3.933,0.1741366584948169,2.07903108510313
-3.9325,0.2701682322139607,2.259173937990977
-3.932,0.3021787567870086,2.269770576396144
-3.9315,0.3128489316446912,2.16380419234447
-3.931,0.4835717293676135,1.75053529454294
-3.9305,1.177133095116985,0.701468092431364
-3.93,1.977396209443183,-0.4111789401112165
-3.9295,2.564255826615728,-1.258910012524611
-3.929,2.777659323769381,-1.862918401619155
-3.9285,2.468224252896585,-1.894708316834657
-3.928,1.774662887147213,-1.195330182093607
-3.9275,1.102441871113207,-0.570128516188728
-3.927,0.6116138276598051,-0.1568596183871981
-3.9265,0.2701682322139607,-0.01910331912002144
-3.926,0.09944543449103843,-0.02969995752518888
-3.9255,0.04609456020262521,-0.2310360872233701
-3.925,0.00341386077189465,-0.4429688553267188
-3.9245,0.01408403562957729,-0.3899856633008816
-3.924,0.05676473506030786,-0.2416327256285375
-3.9235,0.07810508477567314,0.002089957690313421
-3.923,0.07810508477567314,0.2140227257936621
-3.9225,-0.1459685872356623,0.1610395337678249
-3.922,-0.9035510021311299,-0.3899856633008816
-3.9215,-1.565101843307454,-1.004590690800593
-3.921,-1.533091318734406,-1.396666311791788
-3.9205,-1.543761493592088,-1.502632695843462
-3.92,-1.927887788468663,-1.354279758171118
-3.9195,-2.461396531352796,-1.0999604364471
-3.919,-2.813512301656323,-0.8350444763179138
-3.9185,-2.183971985053047,-0.5065486857577234
-3.918,-1.287677297007705,0.2352160026039969
-3.9175,-0.5514352318276028,1.135930267043229
-3.917,-0.08194753808956648,1.782325209758442
-3.9165,0.1634664836371343,2.142610915534135
-3.916,0.2594980573562781,2.280367214801311
-3.9155,0.291508581929326,2.301560491611646
-3.915,0.291508581929326,2.20619074596514
-3.9145,0.3235191065023739,1.983661339456623
-3.914,0.8036769750980928,1.178316820663898
-3.9135,1.614610264281974,0.02328323450064829
-3.913,2.329511979746711,-0.9410108603695881
-3.9125,2.649617225477189,-1.640388995110639
-3.912,2.510904952327315,-1.926498232050159
-3.9115,1.870694460866357,-1.407262950196955
-3.911,1.15579274540162,-0.7820612842920766
-3.9105,0.6116138276598051,-0.3370024712750445
-3.91,0.2701682322139607,-0.1250697031716958
-3.9095,0.09944543449103843,-0.1356663415768632
-3.909,0.01408403562957729,-0.2310360872233701
-3.9085,-0.1993194615240755,-0.4535654937318862
-3.908,-0.2526703358124887,-0.326405832869877
-3.9075,-0.1673089369510276,-0.07208651114585861
-3.907,-0.06060718837420119,0.1504428953626575
-3.9065,0.01408403562957729,0.2881991946298341
-3.906,-0.08194753808956648,0.2352160026039969
-3.9055,-0.7755089038389382,-0.2946159176543747
-3.905,-1.618452717595867,-0.9410108603695881
-3.9045,-2.045259711903173,-1.407262950196955
-3.904,-2.173301810195364,-1.587405803084801
-3.9035,-2.504077230783526,-1.492036057438295
-3.903,-2.856193001087053,-1.248313374119443
-3.9025,-2.898873700517784,-0.9833974139902578
-3.902,-2.653459678791083,-0.7502713690765743
-3.9015,-1.682473766741963,-0.2628260024388724
-3.901,-0.839529952985034,0.5955017083796896
-3.9005,-0.2420001609548061,1.347863035146577
-3.9,0.09944543449103843,1.814115124973944
-3.8995,0.2488278824985954,2.036644531482461
-3.899,0.291508581929326,2.07903108510313
-3.8985,0.291508581929326,2.026047893077293
-3.898,0.3021787567870086,1.877694955404949
-3.8975,0.5369226036560266,1.273686566310405
-3.897,1.283834843693812,0.1928294489833272
-3.8965,2.073427783162327,-0.792657922697244
-3.896,2.649617225477189,-1.523825972653797
-3.8955,2.884361072346208,-1.979481424075996
-3.895,2.48956460261195,-1.84172512480882
-3.8945,1.710641838001117,-1.0999604364471
-3.894,0.9850699476786977,-0.474758770542221
-3.8935,0.4622313796522482,-0.06148987274069118
-3.893,0.142126133921769,0.1716361721729923
-3.8925,0.02475421048725994,0.2034260873884947
-3.892,-0.124628237520297,-0.09327978795619347
-3.8915,-0.2633405106701714,-0.2204394488182027
-3.891,-0.2313299860971235,-0.07208651114585861
-3.8905,-0.1459685872356623,0.09745970333682032
-3.89,-0.06060718837420119,0.2670059178194992
-3.8895,-0.01792648894347063,0.3305857482505039
-3.889,-0.3700422592469978,-0.01910331912002144
-3.8885,-1.138294849000148,-0.6443049850249
-3.888,-1.543761493592088,-1.227120097309109
-3.8875,-1.330357996438436,-1.534422611058964
-3.887,-1.51175096901904,-1.555615887869299
-3.8865,-1.991908837614759,-1.375473034981453
-3.886,-2.578768454787304,-1.121153713257435
