Class_9_Think_Grab_one_hand_movement/Class_9_Think_Right_hand_Grab_AM_8.csv

#Digilent WaveForms Oscilloscope Acquisition
#Device Name: EExplorer
#Serial Number: SN:210151A2B84A
#Date Time: 2021-01-19 10:08:10.643
#Sample rate: 2000Hz
#Samples: 16384
#Trigger: Source: Channel 1 Type: Edge Condition: Rising Level: 0 V Hyst.: Auto HoldOff: 0 s
#Channel 1: Range: 1 V/div Offset: 0 V Attenuation: 1 X
#Channel 2: Range: 1 V/div Offset: 0 V Attenuation: 1 X
#Power Supplies: ON
#Fixed Supply: ON
#Voltage: 3.3 V Readback: 3.331 V
#Positive Supply: ON
#Voltage: 3.7 V Readback: 3.688 V
#Current: 40 mA Readback: 16 mA
#Negative Supply: ON
#Voltage: -3.7 V Readback: -3.334 V
#Current: -40 mA Readback: -15 mA
#Reference 1: ON
#Voltage: 0 V
#Reference 2: ON
#Voltage: 0 V

Time (s),Channel 1 (V),Channel 2 (V)
-4.096,0.2274875327832301,0.2458126410091644
-4.0955,-0.1139580626623039,-0.2204394488177786
-4.095,-0.3273615598166845,-0.9198175835598026
-4.0945,-0.7861790786966207,-1.523825972653797
-4.094,-1.159635198715174,-1.7993385711879
-4.0935,-0.7968492535537697,-1.619195718299957
-4.093,-0.2099896363817582,-1.237716735714276
-4.0925,0.2594980573558511,-0.7396747306718598
-4.092,0.5155822539407487,-0.1568596183868126
-4.0915,0.6116138276598051,0.2670059178194992
-4.091,0.6116138276598051,0.4683420475176805
-4.0905,0.5475927785137288,0.574308431569326
-4.09,0.5689331282290746,0.5425185163538525
-4.0895,0.7289857510943143,0.3729723018711736
-4.089,0.6756348768059496,0.24581264100928
-4.0885,0.5369226036560266,0.1292496185523226
-4.088,0.4195506802215176,0.01268659609548085
-4.0875,0.3341892813601341,-0.0720865111457815
-4.087,0.4195506802216244,0.2564092794148908
-4.0865,0.5369226036560266,0.8710143069140429
-4.086,-0.1139580626620225,1.390249588766775
-4.0855,-0.9142211769893948,1.210106735878504
-4.085,-1.554431668449771,0.2246193641988295
-4.0845,-1.437059745015369,-0.4323722169209538
-4.084,-0.8822106524152792,-0.5701285161886316
-4.0835,-0.3487019095316325,-0.4641621321370536
-4.083,0.03542438534494258,-0.2946159176543747
-4.0825,0.248827882498673,-0.1462629799819246
-4.082,0.3341892813600565,-0.02969995752518888
-4.0815,0.3555296310754218,0.04447651131098315
-4.081,0.3448594562177489,0.1080563417419299
-4.0805,0.3128489316446912,0.13984625695749
-4.08,0.2808384070716433,0.1504428953626575
-4.0795,0.2594980573562975,0.1398462569574997
-4.079,0.01408403562931527,-0.156859618387786
-4.0785,-0.274010685527854,-0.8032545611024114
-4.078,-0.4980843575389857,-1.417859588601563
-4.0775,-0.9995825758503027,-1.841725124808637
-4.077,-1.031593100423322,-1.640388995110639
-4.0765,-0.5514352318280396,-1.046977244421802
-4.076,-0.007256314085448331,-0.4959520473521126
-4.0755,0.3661998059331045,-0.008506680714854012
-4.075,0.5475927785137094,0.3623756634660061
-4.0745,0.5902734779444204,0.7226613692418724
-4.074,0.5689331282290746,0.9134008605347127
-4.0735,0.5475927785137094,0.92399749893988
-4.073,0.771666450524841,0.9875773293708269
-4.0725,0.79300680024041,0.775644561267536
-4.072,0.6542945270905358,0.4365521323021782
-4.0715,0.4942419042254417,0.1080563417422865
-4.071,0.3768699807905542,-0.1250697031715705
-4.0705,0.1207857842064037,0.01268659609548085
-4.07,-0.4767440078232807,0.6060983467843174
-4.0695,-1.223656247862172,0.9451907757496945
-4.069,-1.842526389607202,0.3729723018711736
-4.0685,-2.280003558772191,-0.5277419625680583
-4.068,-1.991908837613983,-0.9833974139901326
-4.0675,-1.138294849000148,-0.8456411147230812
-4.067,-0.4554036581084589,-0.4959520473525559
-4.0665,0.003413860772127557,-0.1674562567921438
-4.066,0.2594980573562781,0.07626642652648545
-4.0655,0.3661998059331045,0.2352160026039969
-4.065,0.3768699807907774,0.3199891098452593
-4.0645,0.3555296310754218,0.3729723018711736
-4.064,0.3235191065023739,0.3941655786815084
-4.0635,0.2915085819293551,0.3623756634660351
-4.063,0.2701682322138345,0.3093924714399955
-4.0625,0.1314559590640864,0.1186529801471552
-4.062,-0.1993194615237747,-0.5171453241623126
-4.0615,-0.01792648894381028,-1.205926820499285
-4.061,-0.391382608962363,-1.767548655972648
-4.0605,-0.722158029550525,-1.905304955239825
-4.06,-0.455403658108061,-1.629792356705028
-4.0595,-0.01792648894347063,-1.142346990067769
-4.059,0.3235191065023739,-0.5171453241628908
-4.0585,0.5049120790828139,0.02328323450015679
-4.058,0.5475927785137094,0.3729723018711736
-4.0575,0.5262524287983441,0.5637117931641874
-4.057,0.4835717293676523,0.6166949851899763
-4.0565,0.6542945270905358,0.7226613692416989
-4.056,0.7503261008096795,0.701468092431364
-4.0555,0.6649647019482959,0.4789386859230503
-4.055,0.5155822539405546,0.2246193641986271
-4.0545,0.3982103305061524,0.002089957690313421
-4.054,0.2488278824987313,-0.01910331912000217
-4.0535,0.174136658494584,0.4789386859234165
-4.053,-0.08194753808956648,1.104140351827727
-4.0525,-0.7648387289812555,1.496215972818921
-4.052,-1.426389570157919,1.029963882990658
-4.0515,-1.799845690176472,0.04447651131098315
-4.051,-1.330357996438436,-0.4217755785163839
-4.0505,-0.7008176798357323,-0.4535654937318573
-4.05,-0.1886492866663929,-0.3052125560595421
-4.0495,0.142126133921769,-0.1144730647665284
-4.049,0.302178756786863,0.05507314971599636
-4.0485,0.3661998059331045,0.1822328105782561
-4.048,0.3661998059331045,0.2881991946298341
-4.0475,0.3341892813600856,0.3517790250607808
-4.047,0.3021787567869795,0.3623756634659772
-4.0465,0.2701682322139607,0.3305857482505039
-4.046,0.216817357925596,0.2140227257937681
-4.0455,-0.1779791118092731,-0.2840192792498145
-4.045,-0.7968492535543035,-0.9516074987747555
-4.0445,-1.458400094730627,-1.502632695843462
-4.044,-1.746494815887467,-1.767548655972465
-4.0435,-1.095614149569417,-1.566212526274467
-4.043,-0.3380317346739499,-1.121153713257435
-4.0425,0.2168173579250429,-0.5489352393789135
-4.042,0.5049120790829789,-0.01910331912002144
-4.0415,0.5902734779444399,0.3517790250608387
-4.041,0.579603303086767,0.5531151547588369
-4.0405,0.5475927785137675,0.6484849004056232
-4.04,0.6116138276598051,0.7544512844572011
-4.0395,0.8143471499555909,0.8498210301036213
-4.039,0.7609962756672167,0.6166949851897161
-4.0385,0.6009436528021226,0.2776025562246667
-4.038,0.4515612047947014,-0.04029659593006718
-4.0375,0.3341892813599401,-0.241632725628258
-4.037,0.2061471830678648,0.06566978812131802
-4.0365,0.1207857842064037,0.7332580076468663
-4.036,-0.5300948821128584,1.30547648152584
-4.0355,-1.212986073003927,1.231300012689736
-4.035,-1.746494815888059,0.3199891098453364
-4.0345,-1.490410619303908,-0.3158091944641313
-4.034,-0.8608703027003992,-0.4535654937318862
-4.0335,-0.3060212101009019,-0.3475991096802118
-4.033,0.06743490991765083,-0.1780528951976871
-4.0325,0.2701682322140384,0.00208995769043871
-4.032,0.3555296310754218,0.13984625695749
-4.0315,0.3661998059330948,0.245812641009068
-4.031,0.3448594562177101,0.3199891098453749
-4.0305,0.3128489316446912,0.3623756634660061
-4.03,0.2915085819293454,0.3517790250608483
-4.0295,0.2488278824983625,0.2881991946295354
-4.029,-0.007256314085787988,-0.04029659593035631
-4.0285,-0.08194753808956648,-0.6866915386455698
-4.028,0.00341386077143854,-1.301296566145647
-4.0275,-0.4980843575391895,-1.703968825541643
-4.027,-0.690147504977477,-1.566212526274467
-4.0265,-0.359372084389616,-1.142346990068155
-4.026,0.0674349099179905,-0.6549016234300674
-4.0255,0.3768699807907871,-0.1144730647665284
-4.025,0.5262524287982082,0.3623756634655724
-4.0245,0.5582629533713532,0.6590815388107713
-4.024,0.5155822539406614,0.7438546460520338
-4.0235,0.5049120790829885,0.7226613692417182
-4.023,0.7503261008097086,0.8180311148880612
-4.0225,0.7823366253827275,0.6590815388106942
-4.022,0.6542945270906523,0.3305857482508026
-4.0215,0.4942419042251894,0.01268659609526883
-4.021,0.3768699807907871,-0.2204394488182027
-4.0205,0.1314559590640864,-0.05089323433552374
-4.02,-0.156638762093869,0.5743084315699042
-4.0195,-0.7328282044082075,1.178316820663898
-4.019,-1.351698346153801,1.135930267043229
-4.0185,-1.906547438752793,0.2140227257945005
-4.018,-1.821186039891837,-0.5489352393783931
-4.0175,-1.116954499284783,-0.6654982618352349
-4.017,-0.4767440078244066,-0.4747587705423945
-4.0165,-0.01792648894323772,-0.2098428104128232
-4.016,0.2381577076409128,0.02328323450064829
-4.0155,0.355529631075315,0.2034260873883308
-4.015,0.3768699807907677,0.3199891098454135
-4.0145,0.3555296310754218,0.4047622170866759
-4.014,0.323519106502403,0.4365521323021492
-4.0135,0.2915085819292969,0.4153588554917855
-4.013,0.2594980573562781,0.3517790250608387
-4.0125,0.142126133921769,0.13984625695749
-4.012,-0.08194753808934328,-0.4641621321376704
-4.0115,0.1634664836371343,-1.142346990067769
-4.011,-0.2420001609548061,-1.672178910326141
-4.0105,-0.5621054066849942,-1.693372187136456
-4.01,-0.3380317346739499,-1.237716735714276
-4.0095,0.04609456020262521,-0.8138511995075789
-4.009,0.3555296310751404,-0.3475991096806359
-4.0085,0.526252428798383,0.1080563417423154
-4.008,0.5689331282290746,0.4683420475176805
-4.0075,0.5582629533714017,0.6802748156208364
-4.007,0.5155822539408264,0.6590815388103858
-4.0065,0.6969752265212663,0.3199891098453364
-4.006,0.79300680024041,0.01268659609548085
-4.0055,0.6863050516634382,-0.1038764263613995
-4.005,0.5262524287983441,-0.1462629799820306
-4.0045,0.3982103305061524,-0.1992461720078678
-4.004,0.3875401556488094,-0.1144730647660176
-4.0035,0.7609962756673623,0.4471487707073456
-4.003,0.5796033030867573,1.104140351827727
-4.0025,-0.2526703358117317,1.485619334413407
-4.002,-1.042263275281004,0.9134008605347127
-4.0015,-1.501080794161358,-0.07208651114585861
-4.001,-1.202315898146516,-0.5065486857573283
-4.0005,-0.6688071552616751,-0.5065486857575885
-4,-0.1886492866663929,-0.3581957480853793
-3.9995,0.1207857842064037,-0.1886495336027004
-3.999,0.2808384070716433,-0.04029659593035631
-3.9985,0.3448594562177392,0.06566978812131802
-3.998,0.3448594562177392,0.13984625695749
-3.9975,0.3341892813600565,0.1928294489833272
-3.997,0.3021787567870086,0.2140227257936621
-3.9965,0.2701682322139607,0.2034260873884947
-3.996,0.1954770082101822,0.07626642652648545
-3.9955,-0.1459685872356623,-0.4323722169215513
-3.995,-0.04993701351651855,-1.0999604364471
-3.9945,-0.3380317346739499,-1.650985633515806
-3.994,-0.7434983792658902,-1.905304955239825
-3.9935,-0.5087545323968721,-1.703968825541643
-3.993,-0.04993701351651855,-1.184733543688439
-3.9925,0.3235191065023739,-0.5595318777835605
-3.992,0.5262524287983441,0.01268659609548085
-3.9915,0.5689331282290746,0.4365521323021782
-3.991,0.5369226036560266,0.6696781772158616
-3.9905,0.4835717293676135,0.7438546460520338
-3.99,0.5582629533713921,0.5425185163538525
-3.9895,0.7503261008096795,0.1504428953626575
-3.989,0.6969752265212663,-0.008506680714854012
-3.9885,0.5582629533713921,-0.06148987274069118
-3.988,0.4302208550792003,-0.09327978795619347
-3.9875,0.3021787567870086,-0.08268314955102604
-3.987,0.2488278824985954,0.3517790250608387
-3.9865,0.2488278824985954,0.9981739677760521
-3.986,-0.4020527838200457,1.29487984312074
-3.9855,-1.1062843244271,0.627291623595192
-3.985,-1.661133417026597,-0.3899856633008816
-3.9845,-1.458400094730627,-0.8562377531282487
-3.984,-0.8608703027003992,-0.7714646458869092
-3.9835,-0.3166913849585846,-0.5065486857577234
-3.983,0.05676473506030786,-0.2416327256285375
-3.9825,0.2594980573562781,-0.05089323433552374
-3.982,0.3448594562177392,0.07626642652648545
-3.9815,0.3555296310754218,0.1504428953626575
-3.981,0.3341892813600565,0.1928294489833272
-3.9805,0.3021787567870086,0.2034260873884947
-3.98,0.2808384070716433,0.1928294489833272
-3.9795,0.2488278824985954,0.13984625695749
-3.979,0.04609456020262521,-0.1780528951975329
-3.9785,-0.1139580626626144,-0.8350444763179138
-3.978,-0.3166913849585846,-1.449649503817625
-3.9775,-0.839529952985034,-1.894708316834657
-3.977,-0.7434983792658902,-1.746355379162313
-3.9765,-0.2633405106701714,-1.121153713257435
-3.976,0.1848068333524996,-0.5383386009732256
-3.9755,0.4729015545099309,0.01268659609548085
-3.975,0.5902734779444399,0.3305857482505039
-3.9745,0.6116138276598051,0.5319218779486851
-3.974,0.5689331282290746,0.6590815388106942
-3.9735,0.5369226036560266,0.6802748156210291
-3.973,0.7183155762366316,0.7332580076468663
-3.9725,0.707645401378949,0.6378882620003594
-3.972,0.5902734779444399,0.4365521323021782
-3.9715,0.4515612047945656,0.2140227257936621
-3.971,0.3555296310754218,0.03387987290581572
-3.9705,0.2594980573562781,0.1822328105781598
-3.97,0.3982103305061524,0.7438546460520338
-3.9695,-0.04993701351651855,1.284283204715573
-3.969,-0.807519428411986,1.241896651094903
-3.9685,-1.479740444445993,0.3623756634660061
-3.968,-1.565101843307454,-0.4323722169215513
-3.9675,-1.042263275281004,-0.6231117082145651
-3.967,-0.4767440078238243,-0.5277419625680583
-3.9665,-0.04993701351651855,-0.326405832869877
-3.966,0.2061471830678648,-0.1462629799820306
-3.9655,0.3235191065023739,-0.008506680714854012
-3.965,0.3555296310754218,0.08686306493165288
-3.9645,0.3448594562177392,0.1610395337678249
-3.964,0.3128489316446912,0.2034260873884947
-3.9635,0.2808384070716433,0.2140227257936621
-3.963,0.2594980573562781,0.2034260873884947
-3.9625,0.08877525963335578,-0.01910331912002144
-3.962,-0.4660738329661415,-0.6337083466197325
-3.9615,-1.138294849000148,-1.280103289334946
-3.961,-1.778505340461106,-1.767548655972648
-3.9605,-1.693143941599645,-1.767548655972648
-3.96,-0.9142211769888124,-1.258910012524611
-3.9595,-0.1779791118087102,-0.6549016234300674
-3.959,0.3235191065023739,-0.1038764263613609
-3.9585,0.5582629533713921,0.3411823866556712
-3.958,0.6009436528021226,0.5849050699745222
-3.9575,0.5475927785137094,0.6802748156210291
-3.957,0.4729015545099309,0.6696781772158616
-3.9565,0.6436243522328531,0.7650479228623686
-3.956,0.7609962756673623,0.7226613692416989
-3.9555,0.6649647019482183,0.457745409112513
-3.955,0.5155822539406614,0.1716361721729923
-3.9545,0.3982103305061524,-0.07208651114585861
-3.954,0.3128489316446912,-0.08268314955102604
-3.9535,0.5369226036560266,0.4365521323021782
-3.953,0.3555296310754218,1.072350436612224
-3.9525,-0.4340633083930936,1.390249588767247
-3.952,-1.202315898146244,0.775644561267536
-3.9515,-1.607782542738184,-0.1674562567923655
-3.951,-1.234326422719292,-0.5277419625680583
-3.9505,-0.658136980404429,-0.474758770542221
-3.95,-0.1779791118087102,-0.2734226408440398
-3.9495,0.1314559590640864,-0.05089323433552374
-3.949,0.291508581929326,0.1292496185523226
-3.9485,0.3555296310754218,0.2776025562246667
-3.948,0.3555296310754218,0.3729723018711736
-3.9475,0.3235191065023739,0.4365521323021782
-3.947,0.3021787567870086,0.457745409112513
-3.9465,0.2701682322139607,0.4259554938970107
-3.946,0.2274875327832301,0.2881991946298341
-3.9455,0.03542438534494258,-0.2204394488182027
-3.945,0.2488278824985954,-0.8986243067489184
-3.9445,-0.06060718837420119,-1.47084278062796
-3.944,-0.5194247072545548,-1.714565463946811
-3.9435,-0.3487019095316325,-1.534422611058964
-3.943,0.03542438534494258,-1.078767159636765
-3.9425,0.3555296310754218,-0.5807251545938954
-3.942,0.5155822539406614,-0.07208651114585861
-3.9415,0.5475927785137094,0.3411823866556712
-3.941,0.5155822539406614,0.55311515475902
-3.9405,0.4515612047945656,0.5955017083796896
-3.94,0.5262524287983441,0.6166949851900245
-3.9395,0.707645401378949,0.6378882620003594
-3.939,0.6542945270905358,0.457745409112513
-3.9385,0.5262524287983441,0.2140227257936621
-3.938,0.408880505363835,-0.01910331912002144
-3.9375,0.3128489316446912,-0.1462629799820306
-3.937,0.2168173579255475,0.2246193641988295
-3.9365,-0.1139580626626144,0.8816109453192104
-3.936,-0.8288597781273515,1.157123543853563
-3.9355,-1.479740444445993,0.5107286011383502
-3.935,-2.045259711903173,-0.4853554089473885
-3.9345,-1.746494815888059,-0.9728007755850904
-3.934,-0.9995825758502737,-0.8456411147230812
-3.9335,-0.3807124341046804,-0.5171453241628908
-3.933,0.03542438534494258,-0.1886495336027004
-3.9325,0.2594980573562781,0.04447651131098315
-3.932,0.3555296310754218,0.2034260873884947
-3.9315,0.3661998059331045,0.2881991946298341
-3.931,0.3448594562177392,0.3411823866556712
-3.9305,0.3128489316446912,0.3411823866556712
-3.93,0.2808384070716433,0.309392471440169
-3.9295,0.2488278824985954,0.2458126410091644
-3.929,-0.01792648894347063,-0.1038764263613609
-3.9285,-0.1352984123779797,-0.792657922697244
-3.928,-0.2846808603855366,-1.42845622700729
-3.9275,-0.7648387289812555,-1.852321763213987
-3.927,-0.5834457564006506,-1.820531847998485
-3.9265,-0.124628237520297,-1.311893204550448
-3.926,0.2701682322139607,-0.7078848154559045
-3.9255,0.4942419042252961,-0.08268314955102604
-3.925,0.5689331282290746,0.3517790250608387
-3.9245,0.5582629533713921,0.55311515475902
-3.924,0.5049120790829789,0.5849050699745222
-3.9235,0.4942419042252961,0.4789386859228479
-3.923,0.707645401378949,0.1186529801471552
-3.9225,0.707645401378949,-0.02969995752518888
-3.922,0.5796033030867573,-0.05089323433552374
-3.9215,0.4515612047945656,-0.05089323433552374
-3.921,0.3555296310754218,-0.07208651114585861
-3.9205,0.2061471830678648,0.1822328105781598
-3.92,0.2701682322139607,0.7968378380778709
-3.9195,-0.1993194615240755,1.369056311956912
-3.919,-0.9355615267041777,1.432636142387917
-3.9185,-1.586442193022819,0.5213252395435176
-3.918,-1.618452717595867,-0.2946159176543747
-3.9175,-1.052933450138687,-0.5171453241628908
-3.917,-0.4660738329661415,-0.4323722169215513
-3.9165,-0.03926683865883591,-0.2628260024388724
-3.916,0.2168173579255475,-0.09327978795619347
-3.9155,0.3235191065023739,0.04447651131098315
-3.915,0.3555296310754218,0.1292496185523226
-3.9145,0.3448594562177392,0.1928294489833272
-3.914,0.3128489316446912,0.2246193641988295
-3.9135,0.2808384070716433,0.2246193641988295
-3.913,0.2594980573562781,0.1928294489833272
-3.9125,0.09944543449103843,-0.01910331912002144
-3.912,-0.3593720843893152,-0.6549016234300674
-3.9115,-0.7755089038389382,-1.311893204550448
-3.911,-1.30901764672307,-1.820531847998485
-3.9105,-1.30901764672307,-1.767548655972648
-3.91,-0.7008176798351597,-1.396666311791788
-3.9095,-0.07127736323188383,-0.9198175835592532
-3.909,0.3448594562177392,-0.3899856633008816
-3.9085,0.5475927785137094,0.03387987290581572
-3.908,0.5902734779444399,0.3517790250608387
-3.9075,0.5475927785137094,0.55311515475902
-3.907,0.4835717293676135,0.627291623595192
-3.9065,0.6542945270905358,0.7332580076468663
-3.906,0.7289857510943143,0.7120647308365314
-3.9055,0.6329541773751706,0.5425185163538525
-3.905,0.4942419042252961,0.3411823866556712
-3.9045,0.3875401556484697,0.13984625695749
-3.904,0.2274875327832301,0.1504428953626575
-3.9035,0.1634664836371343,0.6378882620003594
-3.903,-0.1779791118087102,1.220703374284568
-3.9025,-0.8715404775580819,1.528005888034424
-3.902,-1.490410619303675,0.8922075837243778
-3.9015,-1.767835165603424,-0.1038764263613609
-3.901,-1.26633694729234,-0.5065486857577234
-3.9005,-0.6474668055467465,-0.5171453241628908
-3.9,-0.1459685872356623,-0.3581957480853793
-3.8995,0.1634664836371343,-0.1780528951975329
-3.899,0.3128489316446912,-0.02969995752518888
-3.8985,0.3555296310754218,0.07626642652648545
-3.898,0.3555296310754218,0.1504428953626575
-3.8975,0.3341892813600565,0.1928294489833272
-3.897,0.3021787567870086,0.2034260873884947
-3.8965,0.2701682322139607,0.2034260873884947
-3.896,0.2061471830678648,0.09745970333682032
-3.8955,-0.124628237520297,-0.4217755785163839
-3.895,0.04609456020262521,-1.089363798041932
-3.8945,-0.2099896363817582,-1.640388995110639
-3.894,-0.6261264558313813,-1.79933857118815
-3.8935,-0.4660738329661415,-1.38606967338662
-3.893,-0.06060718837420119,-0.8244478379127463
-3.8925,0.291508581929326,-0.2416327256285375
-3.892,0.4942419042252961,0.2140227257936621
-3.8915,0.5582629533713921,0.5425185163538525
-3.891,0.5689331282290746,0.7544512844572011
-3.8905,0.5262524287983441,0.8180311148882058
-3.89,0.6329541773751706,0.5743084315693548
-3.8895,0.8143471499557753,0.1610395337678249
-3.889,0.7396559259519968,0.002089957690313421
-3.8885,0.5796033030867573,-0.05089323433552374
-3.888,0.4302208550792003,-0.09327978795619347
-3.8875,0.3555296310754218,-0.1038764263613609
-3.887,0.6436243522328531,0.309392471440169
