Class_9_Think_Grab_one_hand_movement/Class_9_Think_Right_hand_Grab_Zakour_5.csv

#Digilent WaveForms Oscilloscope Acquisition
#Device Name: EExplorer
#Serial Number: SN:210151A2B84A
#Date Time: 2020-12-21 15:20:37.630
#Sample rate: 2000Hz
#Samples: 16384
#Trigger: Source: Channel 1 Type: Edge Condition: Rising Level: 0 V Hyst.: Auto HoldOff: 0 s
#Channel 1: Range: 1 V/div Offset: 0 V
#Channel 2: Range: 1 V/div Offset: 0 V

Time (s),Channel 1 (V),Channel 2 (V)
-4.0960000000000001,-1.3623685210114835,0.73325800764686633
-4.0955000000000004,-0.71148785469343423,-0.01910331911933727
-4.0949999999999998,-0.156638762093015,-0.61251506980966752
-4.0945,0.20614718306786484,-0.9092209451540858
-4.0940000000000003,0.38754015564830474,-0.98339741399019032
-4.0934999999999997,0.4622313796522482,-0.88802766834358704
-4.093,0.4622313796522482,-0.70788481545590454
-4.0925000000000002,0.43022085507922947,-0.49595204735274867
-4.0919999999999996,0.36619980593306567,-0.27342264084386636
-4.0914999999999999,0.32351910650237387,-0.082683149551026042
-4.0910000000000002,0.28083840707164331,0.086863064931652884
-4.0904999999999996,0.17413665849437052,0.31998910984564483
-4.0899999999999999,-0.31669138495858457,0.6590815388106942
-4.0895000000000001,-1.1276246741424654,0.99817396777605205
-4.0890000000000004,-1.7358246410298228,1.2736865663101549
-4.0884999999999998,-2.0559298867608553,1.3902495887672472
-4.0880000000000001,-1.3837088707268488,0.93459413734504748
-4.0875000000000004,-0.3913826089632656,0.20342608738915968
-4.0869999999999997,0.35552963107579055,-0.37938902489598397
-4.0865,0.76099627566736228,-0.67609490024040231
-4.0860000000000003,0.8890383739594373,-0.69728817705071788
-4.0854999999999997,0.85702784938646714,-0.60191843140411461
-4.085,0.81434714995577528,-0.47475877054222104
-4.0845000000000002,0.99574012253621524,-0.16745625679264503
-4.0839999999999996,0.98506994767858125,-0.08268314955108387
-4.0834999999999999,0.857027849386506,-0.14626297998203064
-4.0830000000000002,0.6863050516635838,-0.22043944881820265
-4.0824999999999996,0.54759277851368993,-0.26282600243885312
-4.0819999999999999,0.52625242879834411,-0.24163272562853755
-4.0815000000000001,0.83568749967114075,-0.50654868575772338
-4.0810000000000004,0.33418928136051262,-0.4429688553267766
-4.0804999999999998,-0.58344575640065055,0.11865298014715518
-4.0800000000000001,-1.4584000947306273,0.66967817721586165
-4.0795000000000003,-1.7144842913147778,0.84982103010354415
-4.0789999999999997,-1.2129860730033444,0.37297230187061459
-4.0785,-0.57277558154296804,-0.24163272562853755
-4.0780000000000003,-0.060607188374667054,-0.68669153864516497
-4.0774999999999997,0.2594980573564139,-0.90922094515411467
-4.077,0.40888050536383502,-0.94101086036958814
-4.0765000000000002,0.46223137965219968,-0.84564111472316794
-4.0759999999999996,0.45156120479451706,-0.68669153864540589
-4.0754999999999999,0.3982103305061524,-0.50654868575772338
-4.0750000000000002,0.34485945621773917,-0.32640583286987701
-4.0744999999999996,0.31284893164445832,-0.15685961838695714
-4.0739999999999998,0.05676473506030786,0.10805634174198775
-4.0735000000000001,-0.47674400782382426,0.4471487707073456
-4.0730000000000004,-1.0636036249958358,0.87101430691365733
-4.0724999999999998,-1.6397930673112322,1.2313000126897355
-4.0720000000000001,-1.9598983130417114,1.33726639674141
-4.0715000000000003,-1.2556667724352977,0.77564456126804682
-4.0709999999999997,-0.26334051066951147,0.033879872905314565
-4.0705,0.4622313796522482,-0.51714532416289083
-4.0700000000000003,0.85702784938614696,-0.79265792269699342
-4.0694999999999997,0.97439977282097612,-0.84564111472300418
-4.069,0.93171907339028448,-0.76086800748174177
-4.0685000000000002,0.84635767452882327,-0.59132179299906285
-4.0679999999999996,0.9210488985326114,-0.24163272562831589
-4.0674999999999999,0.93171907339028448,0.0020899576903134209
-4.0670000000000002,0.81434714995577528,0.044476511310983152
-4.0664999999999996,0.6756348768057846,0.023283234500638648
-4.0659999999999998,0.54759277851370936,0.012686596095480854
-4.0655000000000001,0.4835717293676135,0.044476511310983152
-4.0650000000000004,0.78233662538245574,0.37297230187087482
-4.0644999999999998,0.63295417737517057,0.82862775329337313
-4.0640000000000001,-0.10328788780493176,1.1677201822587309
-4.0635000000000003,-0.88221065241505614,1.3372663967412559
-4.0629999999999997,-1.3623685210112313,1.2313000126891285
-4.0625,-1.0849439747117349,0.5637117931641874
-4.0620000000000003,-0.55143523182808807,-0.1780528951968583
-4.0614999999999997,-0.092617712946967704,-0.69728817705095891
-4.0609999999999999,0.21681735792554749,-0.94101086036958814
-4.0605000000000002,0.3768699807907871,-0.96220413717992292
-4.0599999999999996,0.44089102993688295,-0.85623775312809447
-4.0594999999999999,0.44089102993688295,-0.68669153864556975
-4.0590000000000002,0.40888050536383502,-0.48535540894738849
-4.0585000000000004,0.33418928136012449,-0.28401927924939041
-4.0579999999999998,0.25949805735627807,-0.093279787956193475
-4.0575000000000001,0.099445434491038431,0.12924961855232261
-4.0570000000000004,-0.10328788780474737,0.37297230187095193
-4.0564999999999998,-0.74349837926589024,0.76504792286236856
-4.056,-1.46907026958831,1.146526905448396
-4.0555000000000003,-1.6718035918840957,1.3584596735515522
-4.0549999999999997,-1.202315898145448,1.1253336286374447
-4.0545,-0.32736155981626724,0.4471487707073456
-4.0540000000000003,0.3661998059324737,-0.24163272562791116
-4.0534999999999997,0.81434714995592083,-0.65490162343019265
-4.0529999999999999,0.97439977282101498,-0.792657922697244
-4.0525000000000002,0.97439977282101498,-0.80325456110241145
-4.0519999999999996,0.88903837395953433,-0.67609490024027707
-4.0514999999999999,0.86769802424418851,-0.53833860097322561
-4.0510000000000002,0.98506994767869771,-0.3581957480853793
-4.0505000000000004,0.94238924824800585,-0.19924617200801237
-4.0499999999999998,0.80367697509809277,-0.061489872740691176
-4.0495000000000001,0.64362435223285308,0.044476511310983152
-4.0490000000000004,0.51558225394077783,0.097459703336772119
-4.0484999999999998,0.6756348768061825,0.28819919463010396
-4.048,0.98506994767869771,0.58490506997452218
-4.0475000000000003,0.34485945621832148,0.93459413734472951
-4.0469999999999997,-0.53009488211303313,1.1041403518277748
-4.0465,-1.405049220442214,1.1571235438535634
-4.0460000000000003,-1.586442193022654,0.86041766850914536
-4.0454999999999997,-1.0956141495688643,0.11865298014653837
-4.0449999999999999,-0.48741418268150688,-0.55953187778356051
-4.0445000000000002,-0.017926488943470625,-1.0045906908005926
-4.0439999999999996,0.27016823221408687,-1.1847335436884392
-4.0434999999999999,0.40888050536383502,-1.1847335436884392
-4.0430000000000001,0.45156120479456557,-1.0787671596367647
-4.0425000000000004,0.43022085507921976,-0.89862430674908222
-4.0419999999999998,0.33418928136005654,-0.6972881770507372
-4.0415000000000001,0.28083840707164331,-0.50654868575772338
-4.0410000000000004,0.27016823221397041,-0.32640583287004088
-4.0404999999999998,0.11011560934818733,-0.061489872740267119
-4.04,-0.47674400782382426,0.40476221708667587
-4.0395000000000003,-1.2236562478609296,0.90280422212909228
-4.0389999999999997,-1.5117509690188657,1.2736865663102994
-4.0385,-1.3196878215807528,1.1571235438535634
-4.0380000000000003,-0.56210540668597431,0.59550170838020045
-4.0374999999999996,0.19547700821065769,-0.0085066807152491524
-4.0369999999999999,0.71831557623663156,-0.44296885532671876
-4.0365000000000002,0.93171907339028448,-0.60191843140423029
-4.0359999999999996,0.93171907339019711,-0.60191843140408574
-4.0354999999999999,0.83568749967114075,-0.44296885532671876
-4.0350000000000001,0.77166645052504479,-0.31580919446470956
-4.0345000000000004,0.96372959796315771,-0.26282600243892057
-4.0339999999999998,0.95305942310564973,-0.14626297998203064
-4.0335000000000001,0.80367697509809277,-0.029699957525188878
-4.0330000000000004,0.72898575109438224,0.086863064931546871
-4.0324999999999998,0.66496470194813095,0.17163617217309837
-4.032,0.5689331282290746,0.28819919462983412
-4.0315000000000003,0.48357172936769111,0.55311515475877904
-4.0309999999999997,0.54759277851323385,0.47893868592297317
-4.0305,0.024754210487259936,0.61669498519002452
-4.0300000000000002,-0.80751942841122903,0.83922439169833818
-4.0294999999999996,-1.3196878215805199,0.84982103010320686
-4.0289999999999999,-1.0636036249963696,0.29879583303500157
-4.0285000000000002,-0.5621054066852853,-0.37938902489571413
-4.0279999999999996,-0.10328788780465033,-0.87743102993881472
-4.0274999999999999,0.20614718306786484,-1.131750351662602
-4.0270000000000001,0.36619980593310447,-1.1953301820936066
-4.0265000000000004,0.41955068022146913,-1.1317503516626597
-4.0259999999999998,0.41955068022151765,-0.98339741399025782
-4.0255000000000001,0.3768699807907871,-0.80325456110241145
-4.0250000000000004,0.32351910650242238,-0.62311170821472894
-4.0244999999999997,0.28083840707161423,-0.44296885532652602
-4.024,0.24882788249859539,-0.2310360872233701
-4.0235000000000003,-0.060607188373919763,0.076266426526205966
-4.0229999999999997,-0.73282820440867336,0.59550170838011374
-4.0225,-1.2449965975769743,1.0617537982070568
-4.0220000000000002,-1.3837088707267227,1.3266697583360016
-4.0214999999999996,-1.0102527507072481,0.98757732937025833
-4.0209999999999999,-0.23132998609712346,0.29879583303500157
-4.0205000000000002,0.41955068022151765,-0.27342264084403983
-4.0199999999999996,0.76099627566747874,-0.54893523937843158
-4.0194999999999999,0.88903837395955376,-0.59132179299906285
-4.0190000000000001,0.86769802424418851,-0.4641621321370536
-4.0185000000000004,0.78233662538280513,-0.35819574808547566
-4.0179999999999998,0.82501732481345802,-0.3581957480853793
-4.0175000000000001,0.84635767452882327,-0.25222936403370499
-4.0170000000000003,0.75032610080976692,-0.093279787956338012
-4.0164999999999997,0.6222840025173908,0.055073149716246959
-4.016,0.51558225394066137,0.16103953376782493
-4.0155000000000003,0.4408910299369509,0.22461936419877165
-4.0149999999999997,0.68630505166370026,0.26700591781960525
-4.0145,0.81434714995577528,0.38356894027634103
-4.0140000000000002,0.046094560203324031,0.72266136924139046
-4.0134999999999996,-0.87154047755861574,1.0299638829916316
-4.0129999999999999,-1.4584000947306273,1.1147369902328941
-4.0125000000000002,-1.2343264227192918,0.59550170837968963
-4.0119999999999996,-0.69014750497701116,-0.16745625679292447
-4.0114999999999998,-0.17797911180871023,-0.78206128429207655
-4.0110000000000001,0.16346648363713429,-1.1529436284729369
-4.0105000000000004,0.34485945621757419,-1.290699927739988
-4.0099999999999998,0.41955068022151765,-1.2695066509297783
-4.0095000000000001,0.43022085507920033,-1.1635402668781043
-4.0090000000000003,0.40888050536385445,-1.0045906908007372
-4.0084999999999997,0.36619980593303653,-0.82444783791258247
-4.008,0.29150858192932599,-0.64430498502489997
-4.0075000000000003,0.24882788249863419,-0.44296885532690189
-4.0069999999999997,0.12078578420587967,-0.15685961838675475
-4.0065,-0.4554036581084589,0.33058574825050385
-4.0060000000000002,-1.2023158981462438,0.86041766850887547
-4.0054999999999996,-1.6291228924530643,1.241896651094903
-4.0049999999999999,-1.0956141495694174,1.241896651094903
-4.0045000000000002,-0.19931946152407554,0.66967817721586165
-4.0039999999999996,0.49424190422564551,0.044476511310665115
-4.0034999999999998,0.87836819910187125,-0.30521255605954212
-4.0030000000000001,0.97439977282101498,-0.4641621321370536
-4.0025000000000004,0.93171907339032334,-0.48535540894736923
-4.0019999999999998,0.82501732481345802,-0.43237221692155131
-4.0015000000000001,0.75032610080967954,-0.2310360872233701
-4.0010000000000003,0.78233662538269844,-0.072086511146003174
-4.0004999999999997,0.72898575109421726,-0.019103319119973258
-4,0.62228400251748783,0.033879872905815719
-3.9994999999999998,0.55826295337139209,0.10805634174198775
-3.9990000000000001,0.49424190422529612,0.15044289536265748
-3.9984999999999999,0.5689331282290746,0.20342608738849466
-3.9980000000000002,0.84635767452882327,0.31998910984533641
-3.9975000000000001,0.41955068022151765,0.66967817721586165
-3.9969999999999999,-0.47674400782382426,1.0087706061812196
-3.9965000000000002,-1.3196878215807528,1.1783168206638983
-3.996,-1.3516983461538008,0.81803111488820579
-3.9954999999999998,-0.87154047755808195,0.065669788121318018
-3.9950000000000001,-0.33803173467394987,-0.61251506980939763
-3.9944999999999999,0.05676473506030786,-1.0363806060160949
-3.9940000000000002,0.29150858192932599,-1.2165234589039415
-3.9935,0.3982103305061524,-1.227120097309109
-3.9929999999999999,0.41955068022151765,-1.1211537132574345
-3.9925000000000002,0.3982103305061524,-0.97280077558509037
-3.992,0.35552963107542179,-0.792657922697244
-3.9914999999999998,0.31284893164469124,-0.60191843140423029
-3.9910000000000001,0.20614718306786484,-0.38998566330088158
-3.9904999999999999,0.11011560934872107,-0.1674562567923655
-3.9900000000000002,-0.16730893695102761,0.076266426526485451
-3.9895,-0.74349837926589024,-0.1674562567923655
-3.9889999999999999,-1.0315931004233216,-0.082683149551026042
-3.9885000000000002,-0.96757205127722568,0.34118238665567124
-3.988,-0.3700422592469978,0.26700591781949923
-3.9874999999999998,0.30217875678700862,-0.14626297998203064
-3.9870000000000001,0.75032610080967954,-0.49595204735255594
-3.9864999999999999,0.93171907339028448,-0.67609490024040231
-3.9860000000000002,0.92104889853260175,-0.67609490024040231
-3.9855,0.81434714995577528,-0.51714532416289083
-3.9849999999999999,0.71831557623663156,-0.38998566330088158
-3.9845000000000002,0.84635767452882327,-0.17805289519753292
-3.984,0.857027849386506,-0.093279787956193475
-3.9834999999999998,0.72898575109431429,-0.11447306476652835
-3.9830000000000001,0.59027347794443985,-0.1674562567923655
-3.9824999999999999,0.4835717293676135,-0.19924617200786782
-3.9820000000000002,0.4622313796522482,-0.1674562567923655
-3.9815,0.84635767452882327,-0.10387642636136091
-3.9809999999999999,0.59027347794443985,0.17163617217299235
-3.9805000000000001,-0.25267033581248871,0.64848490040552687
-3.98,-1.1276246741424654,1.0193672445863871
-3.9794999999999998,-1.6291228924535495,1.1147369902328941
-3.9790000000000001,-1.3090176467230703,0.57430843156935485
-3.9784999999999999,-0.71148785469284226,-0.14626297998203064
-3.9780000000000002,-0.18864928666639288,-0.70788481545590454
-3.9775,0.16346648363713429,-1.0045906908005926
-3.9769999999999999,0.34485945621773917,-1.0787671596367647
-3.9765000000000001,0.40888050536383502,-1.01518732920576
-3.976,0.41955068022151765,-0.87743102993858346
-3.9754999999999998,0.38754015564846972,-0.6972881770507372
-3.9750000000000001,0.35552963107542179,-0.51714532416289083
-3.9744999999999999,0.31284893164469124,-0.32640583286987701
-3.9740000000000002,0.25949805735627807,-0.14626297998203064
-3.9735,-0.13529841237797968,0.16103953376782493
-3.9729999999999999,-0.86087030270039921,0.5637117931641874
-3.9725000000000001,-1.4263895701575793,0.96638405256054982
-3.972,-1.7571649907457412,1.2101067358794007
-3.9714999999999998,-1.1489650238578306,0.92399749893988004
-3.9710000000000001,-0.25267033581248871,0.27760255622466667
-3.9704999999999999,0.41955068022151765,-0.26282600243887239
-3.9700000000000002,0.78233662538272752,-0.57012851618872795
-3.9695,0.86769802424418851,-0.65490162343006741
-3.9689999999999999,0.82501732481345802,-0.59132179299906285
-3.9685000000000001,0.72898575109431429,-0.4535654937318862
-3.968,0.81434714995577528,-0.2310360872233701
-3.9674999999999998,1.1131120459708892,0.19282944898332721
-3.9670000000000001,1.2411541442630809,0.41535885549184332
-3.9664999999999999,1.0704313465401587,0.31998910984533641
-3.9660000000000002,0.80367697509809277,0.15044289536265748
-3.9655,0.57960330308675734,0.033879872905815719
-3.9649999999999999,0.16346648363713429,0.2246193641988295
-3.9645000000000001,-0.54076505696992005,0.66967817721586165
-3.964,-1.2023158981462438,1.0511571598018894
-3.9634999999999998,-1.6611334170265974,1.2524932895000704
-3.9630000000000001,-1.586442193022819,1.0299638829915545
-3.9624999999999999,-0.99958257585027366,0.31998910984533641
-3.9620000000000002,-0.40205278382004572,-0.34759910968021185
-3.9615,0.035424385344942577,-0.76086800748174177
-3.9609999999999999,0.29150858192932599,-0.9304142219644207
-3.9605000000000001,0.3982103305061524,-0.89862430674891836
-3.96,0.41955068022151765,-0.77146464588690922
-3.9594999999999998,0.40888050536383502,-0.59132179299906285
-3.9590000000000001,0.36619980593310447,-0.40058230170604903
-3.9584999999999999,0.32351910650237387,-0.20984281041303524
-3.9580000000000002,0.23815770764091276,-0.04029659593035631
-3.9575,0.12078578420640371,0.16103953376782493
-3.9569999999999999,-0.028596663801153277,0.36237566346600614
-3.9565000000000001,-0.64746680554674652,0.61669498519002452
-3.956,-1.2343264227192918,0.89220758372437781
-3.9554999999999998,-1.6397930673112322,1.1783168206638983
-3.9550000000000001,-1.6504632421689147,1.1677201822587309
-3.9544999999999999,-0.88221065241576446,0.57430843156935485
-3.9540000000000002,-0.071277363231883828,-0.093279787956193475
-3.9535,0.53692260365602662,-0.59132179299906285
-3.9529999999999998,0.84635767452882327,-0.87743102993858346
-3.9525000000000001,0.91037872367491923,-0.9304142219644207
-3.952,0.857027849386506,-0.792657922697244
-3.9514999999999998,0.80367697509809277,-0.62311170821456507
-3.9510000000000001,0.94238924824796699,-0.3581957480853793
-3.9504999999999999,0.86769802424418851,-0.2310360872233701
-3.9500000000000002,0.71831557623663156,-0.18864953360270037
-3.9495,0.5689331282290746,-0.1674562567923655
-3.9489999999999998,0.4622313796522482,-0.13566634157686319
-3.9485000000000001,0.55826295337139209,0.023283234500648287
-3.948,0.94238924824796699,0.40476221708667587
-3.9474999999999998,0.40888050536383502,0.84982103010370802
-3.9470000000000001,-0.53009488211223732,1.1253336286380615
-3.9464999999999999,-1.3943790455845313,1.1889134590690658
-3.9460000000000002,-1.7464948158880587,1.0299638829915545
-3.9455,-1.2983474718653876,0.37297230187117358
-3.9449999999999998,-0.65813698040442903,-0.30521255605954212
-3.9445000000000001,-0.13529841237797968,-0.76086800748174177
-3.944,0.19547700821018218,-0.97280077558509037
-3.9434999999999998,0.35552963107542179,-0.98339741399025782
-3.9430000000000001,0.41955068022151765,-0.86683439153341613
-3.9424999999999999,0.40888050536383502,-0.70788481545590454
-3.9420000000000002,0.35552963107542179,-0.50654868575772338
-3.9415,0.30217875678700862,-0.32640583286987701
-3.9409999999999998,0.28083840707164331,-0.14626297998203064
-3.9405000000000001,0.20614718306786484,0.044476511310983152
-3.9399999999999999,-0.22065981123944084,0.40476221708667587
-3.9394999999999998,-0.8502001278427167,0.84982103010370802
-3.9390000000000001,-1.3196878215807528,1.2207033742845681
-3.9384999999999999,-1.46907026958831,1.1677201822587309
-3.9380000000000002,-0.75416855412357298,0.46834204751768049
-3.9375,0.099445434491038431,-0.13566634157686319
-3.9369999999999998,0.66496470194821833,-0.57012851618872795
-3.9365000000000001,0.93171907339028448,-0.75027136907657432
-3.9359999999999999,0.96372959796333246,-0.70788481545590454
-3.9355000000000002,0.87836819910187125,-0.61251506980939763
-3.9350000000000001,0.75032610080967954,-0.48535540894738849
-3.9344999999999999,0.79300680024041004,-0.18864953360270037
-3.9340000000000002,0.75032610080967954,-0.061489872740691176
-3.9335,0.64362435223285308,-0.061489872740691176
-3.9329999999999998,0.6116138276598051,-0.050893234335523743
-3.9325000000000001,0.57960330308675734,-0.019103319120021445
-3.9319999999999999,0.55826295337139209,0.023283234500648287
-3.9315000000000002,0.72898575109431429,0.37297230187117358
-3.931,0.67563487680590106,0.775644561267536
-3.9304999999999999,0.14212613392176898,1.0723504366122243
-3.9300000000000002,-0.74349837926589024,1.2313000126897355
-3.9295,-1.3303579964384356,1.1359302670432285
-3.9289999999999998,-1.1276246741424654,0.50013196273318283
-3.9285000000000001,-0.62612645583138127,-0.2310360872233701
