Class_12_Wrist_move/Class_12_Wrist_move_Souku_4.csv

#Digilent WaveForms Oscilloscope Acquisition
#Device Name: EExplorer
#Serial Number: SN:210151A2B84A
#Date Time: 2021-02-04 11:11:57.158
#Sample rate: 2000Hz
#Samples: 16384
#Trigger: Source: Channel 1 Type: Edge Condition: Rising Level: 0 V Hyst.: Auto HoldOff: 0 s
#Channel 1: Range: 1 V/div Offset: 0 V Attenuation: 1 X
#Channel 2: Range: 1 V/div Offset: 0 V Attenuation: 1 X
#Power Supplies: ON
#Fixed Supply: ON
#Voltage: 3.3 V Readback: 3.319 V
#Positive Supply: ON
#Voltage: 3.7 V Readback: 3.717 V
#Current: 40 mA Readback: 19 mA
#Negative Supply: ON
#Voltage: -3.7 V Readback: -3.346 V
#Current: -40 mA Readback: -8 mA
#Reference 1: ON
#Voltage: 0 V
#Reference 2: ON
#Voltage: 0 V

Time (s),Channel 1 (V),Channel 2 (V)
-4.096,-0.1352984123779797,0.07626642652648545
-4.0955,-0.4980843575388595,-0.5171453241623511
-4.095,-0.7008176798349462,-1.015187329206117
-4.0945,-0.4660738329661415,-1.407262950196955
-4.094,0.3555296310746744,-1.322489842955693
-4.0935,0.8890383739597284,-0.3793890248948564
-4.093,1.081101521397841,0.5637117931641874
-4.0925,1.03842082196715,1.082947075016919
-4.092,0.8356874996709078,1.040560521396327
-4.0915,0.5796033030867573,0.6060983467848571
-4.091,0.3768699807907871,0.1610395337678249
-4.0905,0.4302208550791809,-0.02969995752526598
-4.09,0.408880505363835,-0.1144730647665284
-4.0895,0.3128489316446912,-0.1674562567923655
-4.089,0.2168173579256348,-0.1568596183872077
-4.0885,0.1314559590640864,-0.1038764263613609
-4.088,0.0674349099179905,0.002089957690313421
-4.0875,-0.2633405106698706,0.4683420475172565
-4.087,-0.7968492535546819,0.722661369241111
-4.0865,-1.212986073003927,0.07626642652648545
-4.086,-1.682473766741536,-0.782061284291296
-4.0855,-2.162631635337381,-1.460246142222763
-4.085,-1.83185621474952,-1.42845622700729
-4.0845,-1.138294849000779,-0.8244478379132957
-4.084,-0.5514352318272437,-0.17805289519708
-4.0835,-0.156638762093345,0.3199891098453364
-4.083,0.05676473506030786,0.6378882620003594
-4.0825,0.1421261339217787,0.7968378380779287
-4.082,0.1527963087794516,0.8604176685088755
-4.0815,0.1314559590640864,0.8604176685088755
-4.081,0.09944543449106755,0.8180311148882443
-4.0805,0.07810508477567314,0.7544512844572011
-4.08,0.05676473506030786,0.6802748156210291
-4.0795,-0.06060718837409445,0.4895353243281888
-4.079,-0.5514352318279618,-0.1568596183878631
-4.0785,-0.9462317015618604,-0.8880276683437509
-4.078,-1.074273799853936,-1.534422611058377
-4.0775,-0.6581369804038371,-1.968884785670231
-4.077,-0.007256314085787988,-1.311893204550448
-4.0765,0.4835717293671671,-0.3158091944656155
-4.076,0.7183155762366316,0.3305857482505713
-4.0755,0.7183155762366316,0.4047622170866759
-4.075,0.5582629533713921,0.1610395337678249
-4.0745,0.3768699807907968,-0.125069703171744
-4.074,0.3875401556484697,-0.1780528951975329
-4.0735,0.4515612047945656,-0.1144730647665284
-4.073,0.3661998059331821,-0.1674562567923173
-4.0725,0.2594980573562781,-0.2310360872233701
-4.072,0.1741366584948169,-0.2416327256285375
-4.0715,0.1207857842064522,-0.1780528951975908
-4.071,-0.06060718837471553,0.02328323450047481
-4.0705,-0.6261264558313813,-0.1674562567923655
-4.07,-1.138294848999682,-0.813851199506991
-4.0695,-1.47974044444642,-1.004590690799879
-4.069,-1.949228138184029,-0.2204394488182027
-4.0685,-2.013249187330125,0.5319218779486851
-4.068,-1.383708870726276,0.669678177215746
-4.0675,-0.754168554123573,0.5425185163538525
-4.067,-0.274010685527854,0.4047622170866759
-4.0665,0.003413860772011104,0.3411823866556905
-4.066,0.1314559590640864,0.3623756634660061
-4.0655,0.1634664836371343,0.4365521323021782
-4.065,0.1421261339217884,0.5425185163537561
-4.0645,0.1207857842064037,0.6590815388106942
-4.064,0.08877525963335578,0.7544512844572011
-4.0635,0.07810508477568284,0.8392243916984634
-4.063,0.05676473505999732,0.8710143069137153
-4.0625,-0.2846808603855366,0.5107286011383502
-4.062,-0.7755089038384918,-0.1250697031711175
-4.0615,-1.106284324426954,-0.6549016234299614
-4.061,-0.9462317015618604,-0.5383386009732256
-4.0605,-0.3166913849585846,0.2881991946298341
-4.06,0.2915085819296657,1.093543713422906
-4.0595,0.6649647019482183,1.475022696008586
-4.059,0.7716664505250448,1.326669758336243
-4.0585,0.6863050516636614,0.8074344764835106
-4.058,0.5049120790829789,0.2670059178194992
-4.0575,0.3875401556484697,-0.1144730647665284
-4.057,0.3982103305061427,-0.2522293640335797
-4.0565,0.3448594562177392,-0.3158091944647096
-4.056,0.2488278824985954,-0.326405832869877
-4.0555,0.1741366584948849,-0.3158091944647192
-4.055,0.120785784206297,-0.273422640843876
-4.0545,0.00341386077189465,-0.09327978795619347
-4.054,-0.4874141826810605,0.139846256957278
-4.0535,-0.9675720512775556,-0.3052125560600915
-4.053,-1.330357996438436,-0.9092209451540858
-4.0525,-1.810515865034154,-1.004590690800593
-4.052,-1.938557963325832,-0.9516074987744085
-4.0515,-1.373038695869166,-0.570128516188728
-4.051,-0.7648387289812555,-0.07208651114585861
-4.0505,-0.2846808603859733,0.3411823866552954
-4.05,-0.007256314085787988,0.6166949851900245
-4.0495,0.1314559590640864,0.7544512844572011
-4.049,0.1634664836371052,0.8074344764829902
-4.0485,0.1527963087794225,0.8074344764829902
-4.048,0.1207857842064037,0.7544512844572011
-4.0475,0.0887752596333849,0.6908714540262544
-4.047,0.0674349099179905,0.6166949851899475
-4.0465,0.0674349099179905,0.5319218779486851
-4.046,-0.18864928666616,0.1928294489836356
-4.0455,-0.6261264558315172,-0.5065486857582342
-4.045,-0.7755089038389382,-1.068170521231597
-4.0445,-0.5941159312583333,-1.046977244421262
-4.044,-0.04993701351604304,-0.1780528951967041
-4.0435,0.4729015545099309,0.7332580076468663
-4.043,0.7716664505250448,1.210106735879401
-4.0425,0.8463576745287553,1.199510097474243
-4.042,0.7289857510943143,0.7650479228623686
-4.0415,0.5262524287983441,0.2140227257936621
-4.041,0.3661998059332501,-0.1886495336023341
-4.0405,0.4302208550791809,-0.379389024895772
-4.04,0.408880505363835,-0.4429688553267188
-4.0395,0.3235191065024515,-0.4111789401112454
-4.039,0.2381577076408448,-0.326405832869771
-4.0385,0.1634664836371343,-0.2098428104130352
-4.038,0.09944543449109666,-0.05089323433566831
-4.0375,-0.2846808603860509,0.4047622170866084
-4.037,-0.8502001278427167,0.3305857482505039
-4.0365,-1.148965023857831,-0.3687923864905467
-4.036,-1.565101843307823,-1.099960436447533
-4.0355,-1.970568487899394,-1.576809164679634
-4.035,-1.629122892453549,-1.333086481360783
-4.0345,-0.9995825758508462,-0.6231117082152108
-4.034,-0.4554036581084589,0.06566978812131802
-4.0335,-0.09261771294724913,0.5637117931641874
-4.033,0.0887752596331908,0.8604176685086056
-4.0325,0.1634664836371343,0.9875773293709136
-4.032,0.1634664836371343,1.019367244586387
-4.0315,0.1101156093487696,0.966384052560598
-4.031,0.0674349099179808,0.8922075837242814
-4.0305,0.05676473506030786,0.7862411996727035
-4.03,0.05676473506030786,0.6908714540262832
-4.0295,0.003413860771593812,0.5001319627326913
-4.029,-0.3273615598162672,-0.04029659593035631
-4.0285,-0.5300948821122373,-0.6125150698093976
-4.028,-0.647466805546436,-1.195330182094088
-4.0275,-0.3060212101009019,-1.725162102351978
-4.027,0.2168173579255475,-2.17022091536901
-4.0265,0.6116138276594461,-2.371557045067008
-4.026,0.7823366253827275,-2.233800745800015
-4.0255,0.7503261008096795,-1.714565463946811
-4.025,0.5902734779445854,-1.089363798042501
-4.0245,0.4195506802214982,-0.6231117082141893
-4.024,0.3982103305061524,-0.2098428104130352
-4.0235,0.4088805053638253,0.03387987290559405
-4.023,0.3555296310753636,0.03387987290573862
-4.0225,0.291508581929326,-0.05089323433552374
-4.022,0.2061471830679425,-0.1356663415767861
-4.0215,0.1527963087793158,-0.1780528951975426
-4.021,0.00341386077189465,-0.1886495336027004
-4.0205,-0.5194247072545548,-0.6337083466197325
-4.02,-0.9569018764198537,-1.152943628473351
-4.0195,-1.298347471865388,-1.608599079895136
-4.019,-1.789175515318789,-2.032464616101834
-4.0185,-1.8638667393225,-1.947691508860571
-4.018,-1.298347471865388,-1.163540266878104
-4.0175,-0.7008176798351597,-0.400582301706049
-4.017,-0.2420001609552234,0.1822328105776297
-4.0165,0.02475421048736668,0.5213252395436718
-4.016,0.142126133921769,0.6908714540261965
-4.0155,0.1741366584947878,0.7332580076468278
-4.015,0.1634664836371052,0.7120647308364736
-4.0145,0.1314559590640864,0.6484849004055269
-4.014,0.09944543449106755,0.5743084315694224
-4.0135,0.08877525963330726,0.5001319627330768
-4.013,0.03542438534494258,0.383568940276341
-4.0125,-0.423393133535411,-0.1674562567923655
-4.012,-0.8075194284120539,-0.8668343915338498
-4.0115,-0.8822106524157645,-1.34368311976595
-4.011,-0.4980843575391895,-1.725162102351978
-4.0105,0.1634664836365327,-2.064254531317028
-4.01,0.6542945270905358,-1.778145294377815
-4.0095,0.8890383739595538,-0.8032545611024114
-4.009,0.8783681991018809,-0.08268314955168143
-4.0085,0.7183155762364375,0.1080563417419299
-4.008,0.5049120790829789,0.04447651131098315
-4.0075,0.3875401556485765,-0.02969995752512142
-4.007,0.3875401556484115,-0.01910331912006963
-4.0065,0.3235191065023739,-0.07208651114585861
-4.006,0.2488278824985954,-0.1250697031716958
-4.0055,0.1848068333524607,-0.1250697031716669
-4.005,0.142126133921769,-0.09327978795619347
-4.0045,0.04609456020262521,0.04447651131098315
-4.004,-0.4767440078242318,0.1928294489828646
-4.0035,-0.9248913518464952,-0.3158091944647096
-4.003,-1.180975548430879,-0.9622041371799229
-4.0025,-1.575772018164777,-1.534422611058444
-4.002,-1.661133417026597,-1.682775548731308
-4.0015,-1.191645723288561,-1.0999604364471
-4.001,-0.6367966306895684,-0.3899856633015273
-4.0005,-0.2206598112392176,0.1822328105784874
-4,0.02475421048725994,0.5425185163538525
-3.9995,0.142126133921769,0.7332580076468663
-3.999,0.1741366584948169,0.7968378380778709
-3.9985,0.1634664836371343,0.7968378380778709
-3.998,0.1207857842064037,0.7438546460520338
-3.9975,0.09944543449103843,0.6802748156210291
-3.997,0.07810508477567314,0.6060983467848571
-3.9965,0.07810508477567314,0.5213252395435176
-3.996,-0.2099896363817582,0.13984625695749
-3.9955,-0.690147504977477,-0.5383386009732256
-3.995,-0.9995825758502737,-1.216523458903942
-3.9945,-0.7328282044082075,-1.714565463946811
-3.994,0.05676473506030786,-1.703968825541643
-3.9935,0.6649647019482183,-0.7078848154559045
-3.993,0.9530594231056497,0.2776025562246667
-3.9925,0.974399772821015,0.7650479228623686
-3.992,0.8036769750980928,0.6590815388106942
-3.9915,0.5796033030867573,0.3305857482505039
-3.991,0.3982103305061524,-0.008506680714854012
-3.9905,0.4408910299368829,-0.326405832869877
-3.99,0.408880505363835,-0.4111789401112165
-3.9895,0.3128489316446912,-0.3475991096802118
-3.989,0.2274875327832301,-0.2310360872233701
-3.9885,0.1634664836371343,-0.1144730647665284
-3.988,0.1207857842064037,0.002089957690313421
-3.9875,-0.2099896363817582,0.06566978812131802
-3.987,-0.754168554123573,-0.4111789401112165
-3.9865,-1.148965023857831,-1.05757388282643
-3.986,-1.202315898146244,-1.42845622700729
-3.9855,-0.8928808272734472,-1.121153713257435
-3.985,-0.4874141826815069,-0.5277419625680583
-3.9845,-0.156638762093345,0.01268659609548085
-3.984,0.03542438534494258,0.383568940276341
-3.9835,0.1314559590640864,0.5849050699745222
-3.983,0.1634664836371343,0.6696781772158616
-3.9825,0.1634664836371343,0.6802748156210291
-3.982,0.142126133921769,0.6590815388106942
-3.9815,0.1207857842064037,0.6060983467848571
-3.981,0.09944543449103843,0.5425185163538525
-3.9805,0.08877525963335578,0.4683420475176805
-3.98,0.08877525963335578,0.4047622170866759
-3.9795,-0.007256314085787988,0.2564092794143318
-3.979,-0.391382608962363,-0.2628260024388724
-3.9785,-0.7114878546928423,-0.8562377531282487
-3.978,-0.7114878546928423,-1.227120097309109
-3.9775,-0.156638762093345,-1.354279758171118
-3.977,0.4302208550792003,-0.6443049850249
-3.9765,0.7823366253827275,0.2564092794143318
-3.976,0.8783681991018712,0.7544512844572011
-3.9755,0.7823366253827275,0.7438546460520338
-3.975,0.5902734779444399,0.4153588554918433
-3.9745,0.408880505363835,0.05507314971615059
-3.974,0.3875401556484697,-0.06148987274069118
-3.9735,0.3768699807907871,-0.07208651114585861
-3.973,0.3128489316446912,-0.09327978795619347
-3.9725,0.2381577076409128,-0.08268314955102604
-3.972,0.1848068333524996,-0.05089323433552374
-3.9715,0.142126133921769,0.02328323450064829
-3.971,-0.06060718837420119,0.05507314971615059
-3.9705,-0.7008176798351597,-0.3581957480853793
-3.97,-1.244996597576974,-1.004590690800593
-3.9695,-1.597112367880501,-1.51322933424863
-3.969,-1.981238662757077,-1.831128486403653
-3.9685,-1.703814116457328,-1.523825972653797
-3.968,-1.06360362499637,-0.7502713690765743
-3.9675,-0.4980843575391895,-0.01910331912002144
-3.967,-0.1139580626626144,0.4789386859228479
-3.9665,0.09944543449103843,0.7544512844572011
-3.966,0.1848068333524996,0.849821030103708
-3.9655,0.1954770082101822,0.8392243916985406
-3.965,0.1634664836371343,0.7650479228623686
-3.9645,0.1207857842064037,0.6590815388106942
-3.964,0.08877525963335578,0.5425185163538525
-3.9635,0.07810508477567314,0.4259554938970107
-3.963,0.04609456020262521,0.2776025562246667
-3.9625,-0.3380317346739499,-0.2310360872233701
-3.962,-0.722158029550525,-0.8880276683437509
-3.9615,-0.9355615267041777,-1.51322933424863
-3.961,-0.5194247072545548,-2.011271339291499
-3.9605,0.2594980573562781,-1.481439419033127
-3.96,0.79300680024041,-0.2840192792492073
-3.9595,1.006410297394063,0.6378882620003594
-3.959,0.9637295979633325,0.9769806909657173
-3.9585,0.7609962756673623,0.7438546460520338
-3.958,0.5369226036560266,0.3305857482505039
-3.9575,0.4195506802215176,-0.04029659593035631
-3.957,0.4942419042252961,-0.4111789401112165
-3.9565,0.4515612047945656,-0.5489352393783931
-3.956,0.3448594562177392,-0.5277419625680583
-3.9555,0.2488278824985954,-0.4217755785163839
-3.955,0.1741366584948169,-0.2946159176543747
-3.9545,0.05676473506030786,-0.1780528951975329
-3.954,-0.5407650569699201,-0.4641621321370536
-3.9535,-1.202315898146244,-1.05757388282643
-3.953,-1.607782542738184,-1.42845622700729
-3.9525,-2.07727023647622,-0.7608680074817418
-3.952,-2.386705307349017,0.07626642652648545
-3.9515,-1.735824641030376,0.2987958330350016
-3.951,-0.9675720512772257,0.3305857482505039
-3.9505,-0.391382608962363,0.309392471440169
-3.95,-0.01792648894347063,0.3199891098453364
-3.9495,0.1527963087794516,0.3623756634660061
-3.949,0.2061471830678648,0.4471487707073456
-3.9485,0.1954770082101822,0.5425185163538525
-3.948,0.1527963087794516,0.627291623595192
-3.9475,0.1314559590640864,0.7120647308365314
-3.947,0.1101156093487211,0.7862411996727035
-3.9465,0.09944543449103843,0.8286277532933731
-3.946,-0.1779791118087102,0.55311515475902
-3.9455,-0.5407650569699201,0.04447651131098315
-3.945,-0.7114878546928423,-0.3370024712750445
-3.9445,-0.423393133535411,-0.6654982618352349
-3.944,0.2808384070716433,-0.4959520473525559
-3.9435,0.7823366253827275,0.3305857482505039
-3.943,1.006410297394063,1.082947075017392
-3.9425,0.9957401225363802,1.400846227172415
-3.942,0.8143471499557753,1.167720182258731
-3.9415,0.5902734779444399,0.7120647308365314
-3.941,0.3982103305061524,0.2670059178194992
-3.9405,0.3448594562177392,-0.1780528951975329
-3.94,0.291508581929326,-0.400582301706049
-3.9395,0.2381577076409128,-0.4217755785163839
-3.939,0.1954770082101822,-0.3581957480853793
-3.9385,0.1527963087794516,-0.2734226408440398
-3.938,0.1314559590640864,-0.1780528951975329
-3.9375,-0.04993701351651855,0.002089957690313421
-3.937,-0.4127229586777283,-0.252229364033705
-3.9365,-0.7861790786966207,-0.7820612842920766
-3.936,-1.202315898146244,-0.5807251545938954
-3.9355,-1.746494815888059,0.1928294489833272
-3.935,-1.767835165603424,0.3623756634660061
-3.9345,-1.202315898146244,0.309392471440169
-3.934,-0.6154562809736985,0.2352160026039969
-3.9335,-0.1886492866663929,0.2140227257936621
-3.933,0.0674349099179905,0.2458126410091644
-3.9325,0.1741366584948169,0.3199891098453364
-3.932,0.1954770082101822,0.4047622170866759
-3.9315,0.1741366584948169,0.4895353243280153
-3.931,0.1314559590640864,0.5637117931641874
-3.9305,0.1101156093487211,0.627291623595192
-3.93,0.09944543449103843,0.6802748156210291
-3.9295,-0.007256314085787988,0.5849050699745222
-3.929,-0.4980843575391895,0.02328323450064829
-3.9285,-0.9035510021311299,-0.6019184314042303
-3.928,-1.116954499284783,-0.9728007755850904
-3.9275,-0.6367966306890638,-0.400582301706049
-3.927,0.07810508477567314,0.5743084315693548
-3.9265,0.5902734779444399,1.241896651094903
-3.926,0.825017324813458,1.42203950398275
-3.9255,0.8036769750980928,1.125333628638062
-3.925,0.6436243522328531,0.6166949851900245
-3.9245,0.4622313796522482,0.1610395337678249
-3.924,0.4835717293676135,-0.1356663415768632
-3.9235,0.5049120790829789,-0.2734226408440398
-3.923,0.408880505363835,-0.2946159176543747
-3.9225,0.3021787567870086,-0.252229364033705
-3.922,0.2168173579255475,-0.1568596183871981
-3.9215,0.1634664836371343,-0.05089323433552374
-3.921,-0.1032878878049318,0.1292496185523226
-3.9205,-0.7328282044082075,-0.08268314955102604
-3.92,-1.405049220442214,-0.718481453861072
-3.9195,-1.895877263895616,-1.280103289334946
-3.919,-2.386705307349017,-1.672178910326141
-3.9185,-2.07727023647622,-1.523825972653797
-3.918,-1.255666772434657,-0.8138511995075789
-3.9175,-0.5834457564006506,-0.09327978795619347
-3.917,-0.124628237520297,0.4365521323021782
-3.9165,0.1207857842064037,0.7332580076468663
-3.916,0.2168173579255475,0.849821030103708
-3.9155,0.2274875327832301,0.849821030103708
-3.915,0.2061471830678648,0.7862411996727035
-3.9145,0.1634664836371343,0.6908714540261965
-3.914,0.1207857842064037,0.5743084315693548
-3.9135,0.1101156093487211,0.457745409112513
-3.913,0.07810508477567314,0.3305857482505039
-3.9125,-0.274010685527854,-0.1144730647665284
-3.912,-0.5087545323968721,-0.5489352393783931
-3.9115,-0.8608703027003992,-1.089363798041932
-3.911,-0.7755089038389382,-1.650985633515806
-3.9105,-0.1779791118087102,-2.106641084938006
-3.91,0.3768699807907871,-2.307977214636187
-3.9095,0.707645401378949,-2.17022091536901
-3.909,0.79300680024041,-1.714565463946811
-3.9085,0.6969752265212663,-1.131750351662602
-3.908,0.5262524287983441,-0.6443049850249
-3.9075,0.4195506802215176,-0.252229364033705
-3.907,0.3982103305061524,0.02328323450064829
-3.9065,0.3235191065023739,0.08686306493165288
-3.906,0.2488278824985954,0.05507314971615059
-3.9055,0.1954770082101822,0.002089957690313421
-3.905,0.1634664836371343,-0.04029659593035631
-3.9045,0.07810508477567314,-0.01910331912002144
-3.904,-0.4447334832507763,-0.1886495336027004
-3.9035,-1.074273799854052,-0.7820612842920766
-3.903,-1.501080794161358,-1.417859588602123
-3.9025,-1.959898313041711,-1.968884785670829
-3.902,-1.799845690176472,-1.894708316834657
-3.9015,-1.148965023857831,-1.131750351662602
-3.901,-0.5514352318276028,-0.3899856633008816
-3.9005,-0.124628237520297,0.1504428953626575
-3.9,0.1101156093487211,0.4683420475176805
-3.8995,0.2061471830678648,0.6166949851900245
-3.899,0.2274875327832301,0.6590815388106942
-3.8985,0.2061471830678648,0.627291623595192
-3.898,0.1634664836371343,0.5743084315693548
-3.8975,0.1314559590640864,0.5107286011383502
-3.897,0.1207857842064037,0.457745409112513
-3.8965,0.1101156093487211,0.383568940276341
-3.896,-0.1886492866663929,0.02328323450064829
-3.8955,-0.6794773301197943,-0.6866915386455698
-3.895,-0.9995825758502737,-1.269506650929778
-3.8945,-0.8181896032696687,-1.75695201756748
-3.894,-0.03926683865883591,-2.180817553774178
-3.8935,0.5902734779444399,-2.032464616101834
-3.893,0.9210488985326017,-0.9728007755850904
-3.8925,0.974399772821015,-0.1038764263613609
-3.892,0.8356874996711408,0.1610395337678249
-3.8915,0.6009436528021226,0.1504428953626575
-3.891,0.4302208550792003,0.02328323450064829
-3.8905,0.4729015545099309,-0.2098428104130352
-3.89,0.4408910299368829,-0.2840192792492073
-3.8895,0.3555296310754218,-0.2310360872233701
-3.889,0.2701682322139607,-0.1356663415768632
-3.8885,0.2061471830678648,-0.04029659593035631
-3.888,0.1527963087794516,0.04447651131098315
-3.8875,-0.1886492866663929,-0.06148987274069118
