Class_12_Wrist_move/Class_12_Wrist_move_Turki_1.csv

#Digilent WaveForms Oscilloscope Acquisition
#Device Name: EExplorer
#Serial Number: SN:210151A2B84A
#Date Time: 2021-01-28 10:01:43.491
#Sample rate: 2000Hz
#Samples: 16384
#Trigger: Source: Channel 1 Type: Edge Condition: Rising Level: 0 V Hyst.: Auto HoldOff: 0 s
#Channel 1: Range: 1 V/div Offset: 0 V Attenuation: 1 X
#Channel 2: Range: 1 V/div Offset: 0 V Attenuation: 1 X
#Power Supplies: ON
#Fixed Supply: ON
#Voltage: 3.3 V Readback: 3.329 V
#Positive Supply: ON
#Voltage: 3.7 V Readback: 3.716 V
#Current: 40 mA Readback: 21 mA
#Negative Supply: ON
#Voltage: -3.7 V Readback: -3.352 V
#Current: -40 mA Readback: -9 mA
#Reference 1: ON
#Voltage: 0 V
#Reference 2: ON
#Voltage: 0 V

Time (s),Channel 1 (V),Channel 2 (V)
-4.096,0.6329541773751706,-0.7396747306714069
-4.0955,0.2915085819296365,-1.131750351662245
-4.095,0.09944543449094138,-1.386069673386736
-4.0945,-0.007256314085787988,-1.51322933424863
-4.094,-0.0392668386588068,-1.523825972653787
-4.0935,0.02475421048737639,-1.449649503817557
-4.093,0.1527963087794516,-1.375473034981453
-4.0925,0.1101156093487599,-1.089363798042192
-4.092,0.01408403562949966,-0.7502713690762659
-4.0915,-0.07127736323188383,-0.4111789401112165
-4.091,-0.09261771294724913,-0.06148987274069118
-4.0905,0.3235191065031017,0.5213252395441248
-4.09,1.123782220828572,1.188913459069066
-4.0895,1.849354111150991,1.686955464111935
-4.089,1.62528043913986,1.422039503982991
-4.0885,0.3341892813600565,0.2881991946298341
-4.088,-1.042263275281004,-0.8244478379127463
-4.0875,-2.130621110763644,-1.545019249463476
-4.087,-2.344024607917685,-1.513229334247984
-4.0865,-1.682473766741963,-0.8032545611024114
-4.086,-1.031593100423914,-0.00850668071557692
-4.0855,-0.5514352318273504,0.6166949851903811
-4.085,-0.274010685527854,1.00877060618122
-4.0845,-0.1459685872357788,1.188913459068902
-4.084,-0.231329986097337,0.9451907757496559
-4.0835,-0.4660738329661415,0.3305857482505039
-4.083,-0.9995825758502737,-0.3370024712750445
-4.0825,-1.330357996437747,-0.3475991096795951
-4.082,-0.572775581542968,0.3305857482505039
-4.0815,0.6542945270905358,1.082947075017392
-4.081,1.582599739708081,1.528005888034019
-4.0805,1.582599739708926,1.157123543853563
-4.08,1.123782220828572,0.2881991946298341
-4.0795,0.7076454013793275,-0.5701285161879474
-4.079,0.3555296310752277,-1.036380606016336
-4.0785,0.142126133921769,-1.301296566145281
-4.078,0.02475421048736669,-1.417859588602017
-4.0775,-0.01792648894347063,-1.417859588602074
-4.077,-0.01792648894347063,-1.364876396576285
-4.0765,0.1314559590639505,-1.34368311976597
-4.076,0.1314559590640087,-1.195330182093375
-4.0755,0.04609456020262521,-0.9410108603695881
-4.075,-0.04993701351651855,-0.6549016234300674
-4.0745,-0.0926177129469774,-0.3158091944641891
-4.074,0.2061471830678648,0.2564092794143318
-4.0735,0.974399772821015,0.9769806909657173
-4.073,1.753322537431139,1.580989080059712
-4.0725,1.92404533515477,1.6657621873016
-4.072,0.825017324813458,0.7120647308365314
-4.0715,-0.6154562809723885,-0.4641621321359838
-4.071,-1.799845690176899,-1.28010328933511
-4.0705,-2.269333383914508,-1.460246142222792
-4.07,-1.746494815888534,-0.8350444763184824
-4.0695,-1.116954499284336,-0.00850668071421793
-4.069,-0.6261264558313813,0.6908714540261965
-4.0685,-0.3166913849585846,1.157123543853563
-4.068,-0.1673089369510373,1.400846227172328
-4.0675,-0.1779791118087102,1.305476481525908
-4.067,-0.391382608962363,0.7650479228623686
-4.0665,-0.8608703027008845,0.05507314971587109
-4.066,-1.394379045584531,-0.252229364033705
-4.0655,-0.9889124009925911,0.2246193641988295
-4.065,0.1848068333514319,0.9345941373444018
-4.0645,1.315845368266859,1.496215972818921
-4.064,1.710641838001117,1.347863035146577
-4.0635,1.369196242555583,0.5637117931649006
-4.063,0.8783681991014733,-0.2628260024394506
-4.0625,0.4408910299368829,-0.8986243067489184
-4.062,0.1954770082104054,-1.248313374119125
-4.0615,0.07810508477561491,-1.407262950196994
-4.061,0.01408403562957729,-1.449649503817625
-4.0605,-0.007256314085787988,-1.417859588602123
-4.06,0.07810508477572166,-1.439052865412361
-4.0595,0.1314559590640864,-1.333086481360783
-4.059,0.05676473506030786,-1.068170521231597
-4.0585,-0.03926683865874857,-0.7502713690768634
-4.058,-0.1139580626626144,-0.4323722169215513
-4.0575,0.04609456020262521,0.05507314971615059
-4.057,0.6969752265206743,0.7650479228617229
-4.0565,1.51857869056283,1.42203950398275
-4.056,2.020076908873914,1.771728571353275
-4.0555,1.283834843694481,1.114736990233492
-4.055,-0.1459685872368463,-0.09327978795708013
-4.0545,-1.447729919872945,-1.068170521231597
-4.054,-2.322684258202125,-1.53442261105854
-4.0535,-2.055929886760234,-1.163540266877362
-4.053,-1.373038695869166,-0.3475991096802118
-4.0525,-0.807519428411986,0.4259554938970107
-4.052,-0.4127229586775343,0.976980690966016
-4.0515,-0.1993194615240755,1.305476481525908
-4.051,-0.1352984123779797,1.390249588767247
-4.0505,-0.252670335812382,1.051157159802198
-4.05,-0.6688071552621118,0.3623756634660061
-4.0495,-1.255666772434657,-0.1250697031716958
-4.049,-1.01025275070818,0.2352160026036693
-4.0485,0.08877525963440386,0.9028042221300753
-4.048,1.241154144263081,1.485619334413754
-4.0475,1.753322537431382,1.528005888034385
-4.047,1.369196242554797,0.7862411996718939
-4.0465,0.8463576745288233,-0.1038764263613609
-4.046,0.4302208550795788,-0.7926579226966177
-4.0455,0.1527963087793255,-1.195330182093809
-4.045,0.01408403562957729,-1.417859588602123
-4.0445,-0.03926683865883591,-1.481439419033127
-4.044,-0.01792648894337358,-1.407262950196946
-4.0435,0.08877525963335578,-1.396666311791788
-4.043,0.2488278824985954,-1.396666311791788
-4.0425,0.1954770082102307,-1.163540266878316
-4.042,0.0674349099179905,-0.8350444763179138
-4.0415,-0.04993701351651855,-0.4959520473525559
-4.041,-0.07127736323186443,-0.1250697031720331
-4.0405,0.3661998059338517,0.4895353243286418
-4.04,1.187803269974668,1.178316820663898
-4.0395,1.892034810581082,1.686955464111473
-4.039,1.603940089423097,1.369056311955871
-4.0385,0.291508581929326,0.2246193641988295
-4.038,-1.084943974710483,-0.8668343915324235
-4.0375,-2.151961460480106,-1.545019249464045
-4.037,-2.269333383914508,-1.449649503817625
-4.0365,-1.607782542738184,-0.718481453861072
-4.036,-0.9782422261344911,0.07626642652704443
-4.0355,-0.5194247072545548,0.6908714540261965
-4.035,-0.2526703358124887,1.082947075017392
-4.0345,-0.1459685872357594,1.231300012689601
-4.034,-0.2420001609548061,0.9663840525605498
-4.0335,-0.4980843575391895,0.3517790250608387
-4.033,-1.031593100422836,-0.2946159176537868
-4.0325,-1.309017646722333,-0.2098428104123992
-4.032,-0.4980843575391895,0.4895353243280153
-4.0315,0.7289857510931983,1.18891345906843
-4.031,1.614610264281993,1.53860252643909
-4.0305,1.635950613997339,0.9875773293708847
-4.03,1.177133095117402,0.1610395337685767
-4.0295,0.6756348768055808,-0.5595318777840038
-4.029,0.3235191065023739,-1.046977244421262
-4.0285,0.08877525963335578,-1.322489842955616
-4.028,-0.01792648894350944,-1.449649503817625
-4.0275,-0.06060718837420119,-1.449649503817625
-4.027,-0.03926683865883591,-1.42845622700729
-4.0265,0.1634664836369499,-1.417859588602132
-4.026,0.1848068333524996,-1.174136905283272
-4.0255,0.08877525963335578,-0.8032545611024114
-4.025,-0.01792648894337358,-0.4217755785167309
-4.0245,-0.08194753808933357,-0.04029659592986479
-4.024,0.1741366584948169,0.5001319627331828
-4.0235,0.9317190733895955,1.146526905447808
-4.023,1.721312012858926,1.6657621873016
-4.0225,1.860024286008674,1.6657621873016
-4.022,0.728985751095343,0.6484849004064521
-4.0215,-0.6901475049784086,-0.5383386009739292
-4.021,-1.714484291315011,-1.311893204550448
-4.0205,-1.789175515318789,-1.205926820498774
-4.02,-1.330357996437989,-0.5383386009725799
-4.0195,-0.839529952985034,0.1716361721729923
-4.019,-0.4660738329661415,0.7120647308365314
-4.0185,-0.2526703358126828,1.061753798206739
-4.018,-0.156638762093345,1.231300012689736
-4.0175,-0.1993194615240755,1.093543713422559
-4.017,-0.3807124341045154,0.5637117931646692
-4.0165,-0.8608703027008068,-0.12506970317185
-4.016,-1.30901764672307,-0.2946159176543747
-4.0155,-0.7755089038394235,0.2670059178189884
-4.015,0.4088805053648055,1.008770606181701
-4.0145,1.475897991132099,1.538602526439591
-4.014,1.475897991132099,1.199510097474542
-4.0135,0.323519106501219,0.06566978812029643
-4.013,-0.9462317015618604,-1.05757388282643
-4.0125,-1.426389570157579,-1.555615887869299
-4.012,-1.148965023857423,-1.460246142222619
-4.0115,-0.7008176798351597,-1.269506650929778
-4.011,-0.3380317346739499,-1.121153713257435
-4.0105,-0.1032878878051453,-1.04697724442133
-4.01,0.1954770082101822,-1.163540266878104
-4.0095,0.3021787567870086,-1.174136905283272
-4.009,0.2061471830679522,-1.004590690800747
-4.0085,0.05676473506021081,-0.7926579226970609
-4.008,-0.04993701351651855,-0.5913217929990628
-4.0075,0.07810508477555669,-0.2098428104133822
-4.007,0.7396559259527343,0.489535324328661
-4.0065,1.550589215135878,1.199510097474233
-4.006,1.988066384300866,1.570392441655093
-4.0055,1.15579274540032,0.8710143069129731
-4.005,-0.274010685527854,-0.3052125560595421
-4.0045,-1.533091318734406,-1.269506650929778
-4.004,-2.183971985052697,-1.693372187136052
-4.0035,-1.799845690176472,-1.227120097309109
-4.003,-1.191645723288561,-0.4429688553267188
-4.0025,-0.6794773301202601,0.245812641008538
-4.002,-0.3487019095316325,0.7332580076468663
-4.0015,-0.1779791118087102,1.00877060618122
-4.001,-0.1459685872356914,1.061753798207009
-4.0005,-0.2740106855281548,0.7226613692411207
-4,-0.6047861061160158,0.08686306493165288
-3.9995,-1.202315898146244,-0.4111789401112165
-3.999,-1.26633694729234,-0.02969995752518888
-3.9985,-0.274010685527854,0.7438546460520338
-3.998,0.9530594231056497,1.400846227172415
-3.9975,1.593269914566608,1.485619334413754
-3.997,1.390536592270638,0.8180311148882058
-3.9965,0.8783681991018712,-0.008506680714854012
-3.996,0.4622313796522482,-0.6549016234300674
-3.9955,0.1954770082101822,-1.131750351662602
-3.995,0.03542438534494258,-1.34368311976595
-3.9945,-0.02859666380115328,-1.375473034981453
-3.994,-0.02859666380115328,-1.333086481360783
-3.9935,0.04609456020262521,-1.311893204550448
-3.993,0.1527963087794516,-1.258910012524611
-3.9925,0.1101156093487211,-1.01518732920576
-3.992,0.00341386077189465,-0.6866915386455698
-3.9915,-0.08194753808956648,-0.3370024712750445
-3.991,-0.08194753808956648,0.03387987290581572
-3.9905,0.4195506802215176,0.6484849004055269
-3.99,1.251824319120764,1.305476481525908
-3.9895,1.92404533515477,1.761131932948107
-3.989,1.550589215135878,1.37965295036208
-3.9885,0.2061471830678648,0.2246193641988295
-3.988,-1.052933450138687,-0.8138511995075789
-3.9875,-1.437059745015262,-1.01518732920576
-3.987,-1.212986073003927,-0.5383386009732256
-3.9865,-0.8288597781273515,0.09745970333682032
-3.986,-0.4980843575391895,0.6484849004055269
-3.9855,-0.2846808603855366,1.019367244586387
-3.985,-0.1779791118087102,1.241896651094903
-3.9845,-0.1459685872356623,1.316073119931075
-3.984,-0.2633405106701714,1.029963882991555
-3.9835,-0.6047861061160158,0.3305857482505039
-3.983,-1.159635198715513,-0.2840192792492073
-3.9825,-1.074273799854052,-0.08268314955102604
-3.982,-0.03926683865883591,0.627291623595192
-3.9815,1.123782220828572,1.305476481525908
-3.981,1.849354111150991,1.602182356870596
-3.9805,1.347855892839907,0.8816109453192104
-3.98,0.5689331282290746,0.01268659609548085
-3.9795,0.1741366584948169,-0.6019184314042303
-3.979,0.04609456020262521,-1.004590690800593
-3.9785,-0.01792648894347063,-1.216523458903942
-3.978,-0.02859666380115328,-1.301296566145281
-3.9775,-0.007256314085787988,-1.322489842955616
-3.977,0.01408403562957729,-1.364876396576285
-3.9765,0.03542438534494258,-1.439052865412457
-3.976,-0.007256314085787988,-1.258910012524611
-3.9755,-0.07127736323188383,-0.9516074987747555
-3.975,-0.124628237520297,-0.6231117082145651
-3.9745,-0.1352984123779797,-0.2840192792492073
-3.974,0.1954770082101822,0.2564092794143318
-3.9735,0.9850699476786977,0.9875773293708847
-3.973,1.76399271228953,1.580989080060261
-3.9725,1.817343586577944,1.570392441655093
-3.972,0.6436243522328531,0.55311515475902
-3.9715,-0.7648387289812555,-0.6125150698093976
-3.971,-1.906547438753298,-1.42845622700729
-3.9705,-2.23732285934146,-1.566212526274467
-3.97,-1.67180359188428,-0.9304142219644207
-3.9695,-1.052933450138687,-0.1250697031716958
-3.969,-0.5834457564006506,0.5319218779486851
-3.9685,-0.2846808603855366,0.9663840525605498
-3.968,-0.156638762093345,1.188913459069066
-3.9675,-0.1886492866663929,1.082947075017392
-3.967,-0.391382608962363,0.5637117931641874
-3.9665,-0.8181896032696687,-0.1144730647665284
-3.966,-1.26633694729234,-0.2204394488182027
-3.9655,-0.7648387289812555,0.383568940276341
-3.965,0.408880505363835,1.104140351827727
-3.9645,1.454557641416734,1.591585718465428
-3.964,1.603940089424291,1.25249328950007
-3.9635,1.166462920259302,0.383568940276341
-3.963,0.7289857510943143,-0.3899856633008816
-3.9625,0.4302208550792003,-0.9198175835592532
-3.962,0.2274875327832301,-1.258910012524611
-3.9615,0.09944543449103843,-1.375473034981453
-3.961,0.02475421048725994,-1.407262950196955
-3.9605,-0.01792648894347063,-1.417859588602123
-3.96,0.1101156093487211,-1.42845622700729
-3.9595,0.142126133921769,-1.280103289334946
-3.959,0.0674349099179905,-0.9728007755850904
-3.9585,-0.03926683865883591,-0.6231117082145651
-3.958,-0.1032878878049318,-0.2628260024388724
-3.9575,0.07810508477567314,0.2670059178194992
-3.957,0.7823366253827275,0.9663840525605498
-3.9565,1.582599739708926,1.570392441655093
-3.956,1.988066384300866,1.79292184816361
-3.9555,1.102441871113207,0.9769806909657173
-3.955,-0.3380317346739499,-0.2416327256285375
-3.9545,-1.319687821580753,-1.078767159636765
-3.954,-1.415719395299897,-0.9939940523954253
-3.9535,-1.084943974711735,-0.3899856633008816
-3.953,-0.7114878546928423,0.2670059178194992
-3.9525,-0.4127229586777283,0.7862411996727035
-3.952,-0.2420001609548061,1.125333628638062
-3.9515,-0.156638762093345,1.305476481525908
-3.951,-0.1673089369510276,1.29487984312074
-3.9505,-0.3380317346739499,0.8816109453192104
-3.95,-0.7434983792658902,0.2034260873884947
-3.9495,-1.298347471865388,-0.2098428104130352
-3.949,-1.020922925565639,0.2034260873884947
-3.9485,0.09944543449103843,0.9028042221295453
-3.948,1.262494493978446,1.485619334413754
-3.9475,1.7213120128588,1.432636142387917
-3.947,1.305175193409177,0.6378882620003594
-3.9465,0.8036769750980928,-0.1886495336027004
-3.946,0.3982103305061524,-0.7608680074817418
-3.9455,0.1101156093487211,-1.110557074852267
-3.945,-0.007256314085787988,-1.290699927740113
-3.9445,-0.007256314085787988,-1.407262950196955
-3.944,-0.007256314085787988,-1.439052865412457
-3.9435,0.08877525963335578,-1.439052865412457
-3.943,0.2168173579255475,-1.364876396576285
-3.9425,0.1527963087794516,-1.089363798041932
-3.942,0.03542438534494258,-0.7396747306714069
-3.9415,-0.07127736323188383,-0.400582301706049
-3.941,-0.04993701351651855,0.002089957690313421
-3.9405,0.4729015545099309,0.6378882620003594
-3.94,1.305175193409177,1.29487984312074
-3.9395,1.956055859727818,1.75053529454294
-3.939,1.51857869056283,1.305476481525908
-3.9385,0.142126133921769,0.1292496185523226
-3.938,-1.202315898146244,-0.9410108603695881
-3.9375,-2.002579012472442,-1.523825972653797
-3.937,-1.821186039891837,-1.237716735714276
-3.9365,-1.26633694729234,-0.474758770542221
-3.936,-0.754168554123573,0.2670059178194992
-3.9355,-0.4020527838200457,0.8074344764830383
-3.935,-0.2099896363817582,1.135930267043229
-3.9345,-0.1459685872356623,1.25249328950007
-3.934,-0.2420001609548061,0.9769806909657173
-3.9335,-0.5407650569699201,0.3517790250608387
-3.933,-1.127624674142465,-0.2098428104130352
-3.9325,-1.052933450138687,0.02328323450064829
-3.932,-0.02859666380115328,0.7120647308365314
-3.9315,1.134452395686255,1.358459673551745
-3.931,1.828013761435626,1.623375633680931
-3.9305,1.582599739708926,0.9875773293708847
-3.93,1.059761171682476,0.04447651131098315
-3.9295,0.5475927785137094,-0.6972881770507372
-3.929,0.2274875327832301,-1.110557074852267
-3.9285,0.05676473506030786,-1.301296566145281
-3.928,-0.03926683865883591,-1.375473034981453
-3.9275,-0.01792648894347063,-1.354279758171118
-3.927,0.04609456020262521,-1.333086481360783
-3.9265,0.2488278824985954,-1.34368311976595
-3.926,0.2274875327832301,-1.174136905283272
-3.9255,0.09944543449103843,-0.8774310299385835
-3.925,-0.02859666380115328,-0.5595318777835605
-3.9245,-0.06060718837420119,-0.1780528951975329
-3.924,0.3982103305061524,0.4895353243280153
-3.9235,1.19847344483235,1.199510097474233
-3.923,1.913375160297087,1.729342017732605
-3.9225,1.828013761435626,1.612778995275763
-3.922,0.5796033030867573,0.5425185163538525
-3.9215,-0.8502001278427167,-0.6125150698093976
-3.921,-1.970568487899394,-1.364876396576285
-3.9205,-2.215982509626095,-1.364876396576285
-3.92,-1.629122892453549,-0.6654982618352349
-3.9195,-1.020922925565639,0.1292496185523226
-3.919,-0.5514352318276028,0.7650479228623686
-3.9185,-0.2846808603855366,1.167720182258731
-3.918,-0.156638762093345,1.37965295036208
-3.9175,-0.1886492866663929,1.241896651094903
-3.917,-0.4340633083930936,0.6802748156210291
-3.9165,-1.010252750707956,-0.05089323433552374
-3.916,-1.341028171296118,-0.1568596183871981
-3.9155,-0.572775581542968,0.4365521323021782
-3.915,0.6436243522328531,1.125333628638062
-3.9145,1.625280439139656,1.580989080060261
-3.914,1.796003236862578,1.199510097474233
-3.9135,1.337185717982225,0.3517790250608387
-3.913,0.7716664505250448,-0.3899856633008816
-3.9125,0.3555296310754218,-0.9092209451540858
-3.912,0.1634664836371343,-1.216523458903942
-3.9115,0.09944543449103843,-1.375473034981453
-3.911,0.05676473506030786,-1.417859588602123
-3.9105,0.03542438534494258,-1.375473034981453
-3.91,0.1314559590640864,-1.280103289334946
-3.9095,0.1207857842064037,-1.131750351662602
-3.909,0.02475421048725994,-0.8986243067489184
-3.9085,-0.07127736323188383,-0.6443049850249
-3.908,-0.124628237520297,-0.3475991096802118
-3.9075,0.02475421048725994,0.1186529801471552
-3.907,0.7183155762366316,0.8180311148882058
-3.9065,1.539919040278195,1.453829419198252
-3.906,1.913375160297087,1.686955464111935
-3.9055,0.9957401225363802,0.8710143069140429
-3.905,-0.4340633083930936,-0.3052125560595421
-3.9045,-1.639793067311232,-1.184733543688439
-3.904,-2.098610586191586,-1.364876396576285
-3.9035,-1.661133417026597,-0.7502713690765743
-3.903,-1.084943974711735,0.04447651131098315
-3.9025,-0.6154562809736985,0.7120647308365314
-3.902,-0.3273615598162672,1.157123543853563
-3.9015,-0.1779791118087102,1.400846227172415
-3.901,-0.1779791118087102,1.369056311956912
-3.9005,-0.4020527838200457,0.8392243916985406
-3.9,-0.839529952985034,0.08686306493165288
-3.8995,-1.405049220442214,-0.2840192792492073
-3.899,-1.351698346153801,0.1822328105781598
-3.8985,-0.2633405106701714,0.9028042221295453
-3.898,0.974399772821015,1.496215972818921
-3.8975,1.433217291701369,1.37965295036208
-3.897,0.5689331282290746,0.3199891098453364
-3.8965,-0.3060212101009019,-0.6125150698093976
-3.896,-0.5407650569699201,-0.9833974139902578
-3.8955,-0.3807124341046804,-1.0999604364471
-3.895,-0.1352984123779797,-1.152943628472937
-3.8945,0.01408403562957729,-1.237716735714276
-3.894,0.09944543449103843,-1.301296566145281
-3.8935,0.2488278824985954,-1.396666311791788
-3.893,0.3661998059331045,-1.407262950196955
-3.8925,0.2594980573562781,-1.195330182093607
-3.892,0.08877525963335578,-0.9198175835592532
-3.8915,-0.04993701351651855,-0.6443049850249
-3.891,-0.06060718837420119,-0.3158091944647096
-3.8905,0.4622313796522482,0.3305857482505039
-3.89,1.283834843693812,1.093543713422559
-3.8895,1.913375160297087,1.612778995275763
-3.889,1.411876941986003,1.178316820663898
-3.8885,0.03542438534494258,0.03387987290581572
-3.888,-1.287677297007705,-1.004590690800593
-3.8875,-2.247993034199143,-1.619195718300304
-3.887,-2.130621110764634,-1.396666311791788
-3.8865,-1.458400094730627,-0.6337083466197325
-3.886,-0.8715404775580819,0.1292496185523226
