Class_12_Wrist_move/Class_12_Wrist_move_Turki_5.csv

#Digilent WaveForms Oscilloscope Acquisition
#Device Name: EExplorer
#Serial Number: SN:210151A2B84A
#Date Time: 2021-02-07 11:03:20.676
#Sample rate: 2000Hz
#Samples: 16384
#Trigger: Source: Channel 1 Type: Edge Condition: Rising Level: 0 V Hyst.: Auto HoldOff: 0 s
#Channel 1: Range: 1 V/div Offset: 0 V Attenuation: 1 X
#Channel 2: Range: 1 V/div Offset: 0 V Attenuation: 1 X
#Power Supplies: ON
#Fixed Supply: ON
#Voltage: 3.3 V Readback: 3.331 V
#Positive Supply: ON
#Voltage: 3.7 V Readback: 3.717 V
#Current: 40 mA Readback: 18 mA
#Negative Supply: ON
#Voltage: -3.7 V Readback: -3.377 V
#Current: -40 mA Readback: -11 mA
#Reference 1: ON
#Voltage: 0 V
#Reference 2: ON
#Voltage: 0 V

Time (s),Channel 1 (V),Channel 2 (V)
-4.096,0.5582629533713921,-0.1462629799820306
-4.0955,0.4622313796523355,-0.0191033191201371
-4.095,0.3555296310753538,0.09745970333690705
-4.0945,0.2808384070716433,0.1928294489833272
-4.094,0.07810508477585751,-0.008506680714670894
-4.0935,-0.5194247072549429,-0.6125150698098891
-4.093,-0.9462317015618604,-1.152943628472937
-4.0925,-1.042263275280917,-1.42845622700704
-4.092,-0.8822106524154345,-1.184733543687919
-4.0915,-0.5194247072545548,-0.6125150698093976
-4.091,-0.1886492866663929,-0.09327978795619347
-4.0905,0.03542438534504933,0.2670059178196727
-4.09,0.1527963087794516,0.457745409112513
-4.0895,0.1954770082101822,0.5319218779486851
-4.089,0.2061471830678551,0.5531151547590006
-4.0885,0.1954770082101822,0.5319218779486851
-4.088,0.1848068333524996,0.5001319627331828
-4.0875,0.1634664836371537,0.4683420475177094
-4.087,0.1527963087794419,0.4365521323021492
-4.0865,0.142126133921769,0.4047622170866759
-4.086,0.1101156093487502,0.3623756634660447
-4.0855,-0.327361559816733,-0.07208651114650433
-4.085,-0.839529952985034,-0.7820612842920766
-4.0845,-1.095614149569184,-1.354279758170597
-4.084,-0.8608703026999528,-1.269506650929287
-4.0835,-0.3700422592469978,-0.7290780922662394
-4.083,0.03542438534494258,-0.2204394488182027
-4.0825,0.2701682322140286,0.118652980147319
-4.082,0.3448594562177392,0.2987958330350016
-4.0815,0.3341892813600565,0.3411823866556712
-4.081,0.3021787567870378,0.3199891098453557
-4.0805,0.291508581929326,0.2776025562246667
-4.08,0.4195506802215176,0.13984625695749
-4.0795,0.4515612047945364,0.07626642652654328
-4.079,0.483571729367565,0.0974597033368685
-4.0785,0.4302208550792003,0.1504428953626575
-4.078,0.3448594562178168,0.2034260873884465
-4.0775,0.2594980573557928,0.150442895362166
-4.077,-0.274010685527854,-0.3899856633008816
-4.0765,-0.7861790786961549,-0.9939940523948759
-4.076,-0.7968492535540705,-1.258910012524341
-4.0755,-0.5407650569699201,-0.9622041371799229
-4.075,-0.2420001609548061,-0.4535654937318862
-4.0745,-0.01792648894334447,0.002089957690583273
-4.074,0.1207857842064037,0.2987958330350016
-4.0735,0.1848068333524996,0.4683420475176805
-4.073,0.1954770082101725,0.5531151547589428
-4.0725,0.1954770082101822,0.5743084315693548
-4.072,0.1848068333524996,0.5637117931641874
-4.0715,0.1741366584948266,0.5531151547590296
-4.071,0.1634664836371246,0.5425185163538332
-4.0705,0.1527963087794516,0.5213252395435176
-4.07,0.1421261339217787,0.5107286011383598
-4.0695,0.1421261339215749,0.4895353243277551
-4.069,-0.07127736323188383,0.2034260873884947
-4.0685,-0.5834457564006506,-0.4853554089473885
-4.068,-0.8608703027005253,-1.163540266878538
-4.0675,-0.9995825758502737,-1.640388995110639
-4.067,-0.6047861061160158,-1.375473034981453
-4.0665,-0.1139580626623233,-0.7396747306708961
-4.066,0.2061471830678648,-0.1780528951975329
-4.0655,0.3555296310754218,0.1822328105781598
-4.065,0.3768699807907677,0.3623756634658423
-4.0645,0.3448594562177392,0.4153588554918433
-4.064,0.291508581929326,0.383568940276341
-4.0635,0.4302208550790741,0.1716361721731851
-4.063,0.5475927785136803,0.002089957690332696
-4.0625,0.5155822539406614,0.02328323450064829
-4.062,0.419550680221605,0.1080563417419106
-4.0615,0.3128489316446233,0.1716361721730405
-4.061,0.2381577076409128,0.2246193641988295
-4.0605,-0.07127736323188383,0.1822328105781598
-4.06,-0.6901475049777681,-0.3793890248962924
-4.0595,-1.010252750707956,-1.01518732920576
-4.059,-0.8502001278427167,-1.121153713257435
-4.0585,-0.5087545323971826,-0.729078092266596
-4.058,-0.1779791118087102,-0.2840192792492073
-4.0575,0.03542438534494258,0.06566978812131802
-4.057,0.1527963087793449,0.2776025562244739
-4.0565,0.1954770082101822,0.383568940276341
-4.056,0.2061471830678648,0.4153588554918433
-4.0555,0.1954770082101919,0.425955493897001
-4.055,0.1848068333524898,0.4153588554918337
-4.0545,0.1741366584948169,0.4047622170866759
-4.054,0.152796308779471,0.3941655786815181
-4.0535,0.142126133921769,0.3941655786815181
-4.053,0.142126133921769,0.4047622170866759
-4.0525,-0.007256314085787988,0.2776025562246667
-4.052,-0.6154562809740964,-0.3264058328704842
-4.0515,-1.052933450138687,-0.9939940523954253
-4.051,-0.9462317015618604,-1.216523458903942
-4.0505,-0.4447334832512324,-0.7608680074821561
-4.05,0.00341386077189465,-0.2840192792492073
-4.0495,0.2701682322139607,0.03387987290581572
-4.049,0.3661998059330172,0.2140227257934982
-4.0485,0.3661998059330657,0.2881991946298149
-4.048,0.3235191065023739,0.2670059178194992
-4.0475,0.2701682322140092,0.2034260873885525
-4.047,0.3128489316448077,0.07626642652636016
-4.0465,0.4408910299368829,-0.06148987274069118
-4.046,0.43022085507921,0.01268659609541339
-4.0455,0.3661998059330462,0.1610395337679406
-4.045,0.3021787567870086,0.2881991946298341
-4.0445,0.2594980573562781,0.383568940276341
-4.044,0.07810508477519762,0.1292496185517636
-4.0435,-0.4447334832507763,-0.4853554089473885
-4.043,-0.9355615267041777,-1.089363798041932
-4.0425,-1.116954499284618,-1.407262950196666
-4.042,-0.8715404775580819,-1.036380606016095
-4.0415,-0.4874141826815069,-0.4323722169215513
-4.041,-0.1566387620936458,0.07626642652602283
-4.0405,0.05676473506041461,0.394165578681653
-4.04,0.1741366584948169,0.55311515475902
-4.0395,0.2061471830678357,0.5955017083796511
-4.039,0.2061471830678551,0.5743084315693067
-4.0385,0.1954770082101822,0.5213252395435176
-4.038,0.1848068333525093,0.4683420475177287
-4.0375,0.1634664836371246,0.4153588554917951
-4.037,0.1527963087794516,0.3623756634660061
-4.0365,0.1527963087794516,0.3199891098453364
-4.036,0.1207857842060446,0.2564092794139559
-4.0355,-0.274010685527854,-0.1568596183871981
-4.035,-0.9035510021311299,-0.8456411147230812
-4.0345,-1.191645723288299,-1.42845622700676
-4.034,-1.095614149569417,-1.693372187136476
-4.0335,-0.572775581542968,-1.216523458903942
-4.033,-0.07127736323233991,-0.5701285161893158
-4.0325,0.2274875327833369,-0.07208651114560803
-4.032,0.3448594562177392,0.2034260873884947
-4.0315,0.3555296310754121,0.3305857482503882
-4.031,0.3128489316446815,0.3517790250608483
-4.0305,0.3021787567870086,0.3623756634660061
-4.03,0.3768699807907192,0.3305857482505328
-4.0295,0.3768699807907483,0.2987958330349726
-4.029,0.3341892813600565,0.2670059178194992
-4.0285,0.2808384070716433,0.2458126410091644
-4.028,0.2381577076408836,0.2246193641988584
-4.0275,0.2061471830678648,0.2564092794143318
-4.027,-0.09261771294724913,0.02328323450064829
-4.0265,-0.6261264558308959,-0.6125150698088194
-4.026,-0.9889124009925911,-1.195330182093607
-4.0255,-1.052933450138687,-1.290699927740113
-4.025,-0.7328282044084986,-0.8244478379131703
-4.0245,-0.3593720843890434,-0.2734226408436543
-4.024,-0.06060718837420119,0.1504428953626575
-4.0235,0.1101156093485658,0.4047622170864446
-4.023,0.1954770082102016,0.5425185163538814
-4.0225,0.2168173579255475,0.5743084315693548
-4.022,0.2061471830678746,0.5743084315693548
-4.0215,0.1954770082101628,0.5531151547590006
-4.021,0.1741366584948169,0.5319218779486851
-4.0205,0.1634664836371343,0.5001319627331828
-4.02,0.1527963087794419,0.4683420475176612
-4.0195,0.142126133921769,0.4471487707073456
-4.019,-0.02859666380115328,0.1716361721729923
-4.0185,-0.5087545323964353,-0.485355408946791
-4.018,-0.8288597781273515,-1.05757388282643
-4.0175,-0.9355615267041777,-1.152943628472937
-4.017,-0.5194247072549333,-0.7608680074820984
-4.0165,-0.08194753808931417,-0.3370024712747746
-4.016,0.1954770082101822,-0.04029659593035631
-4.0155,0.3128489316445845,0.1186529801470106
-4.015,0.3341892813600371,0.1504428953626286
-4.0145,0.3128489316446912,0.1186529801471552
-4.014,0.2701682322139995,0.09745970333683959
-4.0135,0.280838407071653,0.1822328105782465
-4.013,0.291508581929326,0.2776025562246667
-4.0125,0.2808384070716433,0.309392471440169
-4.012,0.2594980573562684,0.3199891098453461
-4.0115,0.2488278824985954,0.3305857482505039
-4.011,0.2061471830678648,0.3729723018711736
-4.0105,-0.1993194615237068,0.1928294489834911
-4.01,-0.8502001278427167,-0.474758770542221
-4.0095,-1.341028171296118,-1.121153713257435
-4.009,-1.212986073004043,-1.227120097309013
-4.0085,-0.7648387289808576,-0.7502713690760635
-4.008,-0.3273615598162672,-0.1886495336027004
-4.0075,-0.028596663801425,0.2458126410087693
-4.007,0.1421261339218369,0.5213252395436333
-4.0065,0.2168173579255475,0.6484849004055269
-4.006,0.2274875327832301,0.6908714540261965
-4.0055,0.2168173579255281,0.6802748156210002
-4.005,0.1954770082101822,0.6484849004055269
-4.0045,0.1848068333524996,0.6060983467848571
-4.004,0.1634664836371246,0.5637117931641489
-4.0035,0.1527963087794516,0.5213252395435176
-4.003,0.1527963087794516,0.4789386859228479
-4.0025,0.07810508477574107,0.3623756634661122
-4.002,-0.391382608962363,-0.1992461720078678
-4.0015,-0.7328282044082075,-0.8880276683437509
-4.001,-0.9248913518463204,-1.428456227006798
-4.0005,-0.7221580295501369,-1.460246142222301
-4,-0.2953510352432193,-0.9198175835592532
-3.9995,0.05676473506030786,-0.3581957480853793
-3.999,0.2488278824985954,0.02328323450064829
-3.9985,0.3235191065023739,0.2034260873884947
-3.998,0.3128489316446912,0.2458126410091644
-3.9975,0.2808384070716433,0.1822328105781598
-3.997,0.3448594562177392,0.1186529801471552
-3.9965,0.4515612047945656,0.05507314971615059
-3.996,0.4195506802215176,0.05507314971615059
-3.9955,0.3661998059331045,0.07626642652648545
-3.995,0.3448594562177392,0.1080563417419877
-3.9945,0.3021787567870086,0.1504428953626575
-3.994,0.1207857842064037,0.01268659609548085
-3.9935,-0.4874141826815069,-0.5171453241628908
-3.993,-0.9675720512772257,-1.078767159636765
-3.9925,-1.010252750707956,-1.227120097309109
-3.992,-0.7008176798351597,-0.8032545611024114
-3.9915,-0.3380317346739499,-0.2734226408440398
-3.991,-0.04993701351651855,0.1610395337678249
-3.9905,0.1207857842064037,0.4365521323021782
-3.99,0.1954770082101822,0.5955017083796896
-3.9895,0.2168173579255475,0.6590815388106942
-3.989,0.2168173579255475,0.6696781772158616
-3.9885,0.2061471830678648,0.6696781772158616
-3.988,0.1848068333524996,0.6484849004055269
-3.9875,0.1741366584948169,0.627291623595192
-3.987,0.1634664836371343,0.5955017083796896
-3.9865,0.1527963087794516,0.5637117931641874
-3.986,0.1527963087794516,0.5213252395435176
-3.9855,-0.1139580626626144,0.1504428953626575
-3.985,-0.5087545323968721,-0.4959520473525559
-3.9845,-0.9569018764195432,-1.078767159636765
-3.984,-0.9142211769888124,-1.01518732920576
-3.9835,-0.4874141826815069,-0.5913217929990628
-3.983,-0.08194753808956648,-0.2204394488182027
-3.9825,0.1848068333524996,0.002089957690313421
-3.982,0.3021787567870086,0.09745970333682032
-3.9815,0.3128489316446912,0.1186529801471552
-3.981,0.3021787567870086,0.08686306493165288
-3.9805,0.3021787567870086,0.1080563417419877
-3.98,0.4729015545099309,0.2881991946298341
-3.9795,0.5262524287983441,0.3199891098453364
-3.979,0.4622313796522482,0.2670059178194992
-3.9785,0.3661998059331045,0.2246193641988295
-3.978,0.3021787567870086,0.2140227257936621
-3.9775,0.2594980573562781,0.2246193641988295
-3.977,0.02475421048725994,0.03387987290581572
-3.9765,-0.5941159312583333,-0.570128516188728
-3.976,-0.9142211769888124,-1.0999604364471
-3.9755,-0.807519428411986,-1.01518732920576
-3.975,-0.4767440078238243,-0.5065486857577234
-3.9745,-0.1673089369510276,0.002089957690313421
-3.974,0.04609456020262521,0.383568940276341
-3.9735,0.1634664836371343,0.6166949851900245
-3.973,0.2061471830678648,0.7226613692416989
-3.9725,0.2168173579255475,0.7650479228623686
-3.972,0.2061471830678648,0.7650479228623686
-3.9715,0.1954770082101822,0.7438546460520338
-3.971,0.1848068333524996,0.7120647308365314
-3.9705,0.1741366584948169,0.6696781772158616
-3.97,0.1634664836371343,0.627291623595192
-3.9695,0.1634664836371343,0.5743084315693548
-3.969,-0.124628237520297,0.2458126410091644
-3.9685,-0.5941159312583333,-0.4641621321370536
-3.968,-0.7434983792658902,-1.068170521231597
-3.9675,-0.5621054066852853,-1.0999604364471
-3.967,-0.1352984123779797,-0.7502713690765743
-3.9665,0.2061471830678648,-0.3687923864905467
-3.966,0.3661998059331045,-0.1144730647665284
-3.9655,0.3982103305061524,-0.008506680714854012
-3.965,0.3661998059331045,-0.008506680714854012
-3.9645,0.3021787567870086,-0.06148987274069118
-3.964,0.2701682322139607,-0.1144730647665284
-3.9635,0.3875401556484697,0.04447651131098315
-3.963,0.4515612047945656,0.1928294489833272
-3.9625,0.408880505363835,0.2246193641988295
-3.962,0.3341892813600565,0.2352160026039969
-3.9615,0.2808384070716433,0.2458126410091644
-3.961,0.2594980573562781,0.2352160026039969
-3.9605,-0.01792648894347063,-0.1144730647665284
-3.96,-0.572775581542968,-0.7714646458869092
-3.9595,-0.9355615267041777,-1.333086481360783
-3.959,-1.031593100423322,-1.449649503817625
-3.9585,-0.754168554123573,-0.8880276683437509
-3.958,-0.3807124341046804,-0.2310360872233701
-3.9575,-0.08194753808956648,0.2881991946298341
-3.957,0.09944543449103843,0.6060983467848571
-3.9565,0.1848068333524996,0.7650479228623686
-3.956,0.2168173579255475,0.8180311148882058
-3.9555,0.2168173579255475,0.8074344764830383
-3.955,0.2061471830678648,0.775644561267536
-3.9545,0.1848068333524996,0.7226613692416989
-3.954,0.1741366584948169,0.6590815388106942
-3.9535,0.1634664836371343,0.5955017083796896
-3.953,0.1527963087794516,0.5319218779486851
-3.9525,0.04609456020262521,0.3305857482505039
-3.952,-0.4127229586777283,-0.3052125560595421
-3.9515,-0.7008176798351597,-1.004590690800593
-3.951,-0.7434983792658902,-1.354279758171118
-3.9505,-0.4447334832507763,-1.036380606016095
-3.95,-0.09261771294724913,-0.570128516188728
-3.9495,0.1634664836371343,-0.1992461720078678
-3.949,0.2808384070716433,-0.008506680714854012
-3.9485,0.3128489316446912,0.05507314971615059
-3.948,0.3021787567870086,0.04447651131098315
-3.9475,0.2808384070716433,0.002089957690313421
-3.947,0.3555296310754218,-0.1144730647665284
-3.9465,0.5262524287983441,-0.2734226408440398
-3.946,0.5155822539406614,-0.2098428104130352
-3.9455,0.4408910299368829,-0.06148987274069118
-3.945,0.3448594562177392,0.08686306493165288
-3.9445,0.2594980573562781,0.2140227257936621
-3.944,-0.007256314085787988,0.06566978812131802
-3.9435,-0.6047861061160158,-0.5171453241628908
-3.943,-1.06360362499637,-1.152943628472937
-3.9425,-1.084943974711735,-1.407262950196955
-3.942,-0.754168554123573,-0.9622041371799229
-3.9415,-0.3593720843893152,-0.3475991096802118
-3.941,-0.06060718837420119,0.1610395337678249
-3.9405,0.1207857842064037,0.4789386859228479
-3.94,0.1954770082101822,0.6484849004055269
-3.9395,0.2274875327832301,0.7120647308365314
-3.939,0.2168173579255475,0.7120647308365314
-3.9385,0.2061471830678648,0.6802748156210291
-3.938,0.1848068333524996,0.6378882620003594
-3.9375,0.1741366584948169,0.5955017083796896
-3.937,0.1527963087794516,0.5425185163538525
-3.9365,0.1527963087794516,0.5001319627331828
-3.936,0.09944543449103843,0.4471487707073456
-3.9355,-0.2846808603855366,0.4683420475176805
-3.935,-0.6261264558313813,0.04447651131098315
-3.9345,-0.9889124009925911,-0.6760949002404023
-3.934,-0.9995825758502737,-1.195330182093607
-3.9335,-0.5300948821122373,-1.025783967610927
-3.933,-0.06060718837420119,-0.5913217929990628
-3.9325,0.2381577076409128,-0.1674562567923655
-3.932,0.3555296310754218,0.08686306493165288
-3.9315,0.3555296310754218,0.1822328105781598
-3.931,0.3235191065023739,0.2246193641988295
-3.9305,0.3235191065023739,0.2670059178194992
-3.93,0.4729015545099309,0.4471487707073456
-3.9295,0.4942419042252961,0.457745409112513
-3.929,0.4302208550792003,0.3729723018711736
-3.9285,0.3448594562177392,0.2987958330350016
-3.928,0.2701682322139607,0.2564092794143318
-3.9275,0.1741366584948169,0.1504428953626575
-3.927,-0.3593720843893152,-0.3793890248957141
-3.9265,-1.074273799854052,-1.025783967610927
-3.926,-1.244996597576974,-1.237716735714276
-3.9255,-0.9035510021311299,-0.8456411147230812
-3.925,-0.4660738329661415,-0.2946159176543747
-3.9245,-0.124628237520297,0.1610395337678249
-3.924,0.08877525963335578,0.457745409112513
-3.9235,0.1954770082101822,0.6166949851900245
-3.923,0.2274875327832301,0.6802748156210291
-3.9225,0.2274875327832301,0.6908714540261965
-3.922,0.2061471830678648,0.6696781772158616
-3.9215,0.1954770082101822,0.6378882620003594
-3.921,0.1848068333524996,0.5955017083796896
-3.9205,0.1741366584948169,0.5637117931641874
-3.92,0.1634664836371343,0.5213252395435176
-3.9195,0.1634664836371343,0.4789386859228479
-3.919,-0.04993701351651855,0.2246193641988295
-3.9185,-0.5941159312583333,-0.4641621321370536
-3.918,-0.8502001278427167,-1.110557074852267
-3.9175,-0.690147504977477,-1.237716735714276
-3.917,-0.2633405106701714,-0.8562377531282487
-3.9165,0.1101156093487211,-0.400582301706049
-3.916,0.3128489316446912,-0.07208651114585861
-3.9155,0.3768699807907871,0.08686306493165288
-3.915,0.3555296310754218,0.1186529801471552
-3.9145,0.3128489316446912,0.1080563417419877
-3.914,0.2808384070716433,0.07626642652648545
-3.9135,0.3661998059331045,-0.01910331912002144
-3.913,0.408880505363835,-0.008506680714854012
-3.9125,0.4195506802215176,0.07626642652648545
-3.912,0.4302208550792003,0.1928294489833272
-3.9115,0.3768699807907871,0.2564092794143318
-3.911,0.3128489316446912,0.3305857482505039
-3.9105,0.00341386077189465,0.3199891098453364
-3.91,-0.6154562809736985,-0.2840192792492073
-3.9095,-1.202315898146244,-0.9939940523954253
-3.909,-1.458400094730627,-1.364876396576285
-3.9085,-1.116954499284783,-0.9833974139902578
-3.908,-0.6154562809736985,-0.3793890248957141
-3.9075,-0.1993194615240755,0.1186529801471552
-3.907,0.05676473506030786,0.457745409112513
-3.9065,0.1954770082101822,0.627291623595192
-3.906,0.2381577076409128,0.701468092431364
-3.9055,0.2381577076409128,0.701468092431364
-3.905,0.2168173579255475,0.6696781772158616
-3.9045,0.1954770082101822,0.627291623595192
-3.904,0.1741366584948169,0.5743084315693548
-3.9035,0.1634664836371343,0.5319218779486851
-3.903,0.1634664836371343,0.4895353243280153
-3.9025,0.1101156093487211,0.383568940276341
-3.902,-0.156638762093345,-0.09327978795619347
-3.9015,-0.391382608962363,-0.7078848154559045
-3.901,-0.4127229586777283,-1.163540266878104
-3.9005,-0.1886492866663929,-1.068170521231597
-3.9,0.05676473506030786,-0.6760949002404023
-3.8995,0.2168173579255475,-0.3052125560595421
-3.899,0.2808384070716433,-0.04029659593035631
-3.8985,0.291508581929326,0.09745970333682032
-3.898,0.2808384070716433,0.1716361721729923
-3.8975,0.2594980573562781,0.1504428953626575
-3.897,0.3448594562177392,0.1186529801471552
-3.8965,0.4729015545099309,0.08686306493165288
-3.896,0.4515612047945656,0.1186529801471552
-3.8955,0.3768699807907871,0.1610395337678249
-3.895,0.3128489316446912,0.2034260873884947
-3.8945,0.2808384070716433,0.2564092794143318
-3.894,0.1207857842064037,0.1080563417419877
-3.8935,-0.5087545323968721,-0.5065486857577234
-3.893,-1.06360362499637,-1.152943628472937
-3.8925,-1.383708870726849,-1.545019249464132
-3.892,-1.138294849000148,-1.142346990067769
-3.8915,-0.658136980404429,-0.474758770542221
-3.891,-0.2420001609548061,0.09745970333682032
-3.8905,0.03542438534494258,0.4789386859228479
-3.89,0.1741366584948169,0.6802748156210291
-3.8895,0.2274875327832301,0.7544512844572011
-3.889,0.2381577076409128,0.7544512844572011
-3.8885,0.2168173579255475,0.7226613692416989
-3.888,0.2061471830678648,0.6696781772158616
-3.8875,0.1848068333524996,0.6166949851900245
