Class_12_Wrist_move/Class_12_Wrist_move_Zakour_1.csv

#Digilent WaveForms Oscilloscope Acquisition
#Device Name: EExplorer
#Serial Number: SN:210151A2B84A
#Date Time: 2021-01-28 09:54:52.133
#Sample rate: 2000Hz
#Samples: 16384
#Trigger: Source: Channel 1 Type: Edge Condition: Rising Level: 0 V Hyst.: Auto HoldOff: 0 s
#Channel 1: Range: 1 V/div Offset: 0 V Attenuation: 1 X
#Channel 2: Range: 1 V/div Offset: 0 V Attenuation: 1 X
#Power Supplies: ON
#Fixed Supply: ON
#Voltage: 3.3 V Readback: 3.328 V
#Positive Supply: ON
#Voltage: 3.7 V Readback: 3.716 V
#Current: 40 mA Readback: 17 mA
#Negative Supply: ON
#Voltage: -3.7 V Readback: -3.349 V
#Current: -40 mA Readback: -9 mA
#Reference 1: ON
#Voltage: 0 V
#Reference 2: ON
#Voltage: 0 V

Time (s),Channel 1 (V),Channel 2 (V)
-4.096,1.038420821967111,0.8816109453192104
-4.0955,-0.4447334832494274,-0.2840192792481472
-4.095,-1.586442193023003,-1.099960436447032
-4.0945,-1.789175515318789,-1.025783967610927
-4.094,-1.362368521011872,-0.3475991096808286
-4.0935,-0.8502001278423577,0.4047622170872155
-4.093,-0.4554036581084589,0.9981739677760521
-4.0925,-0.2099896363819814,1.390249588766891
-4.092,-0.1032878878049997,1.591585718465245
-4.0915,-0.1779791118087102,1.390249588767247
-4.091,-0.5087545323968721,0.7438546460520338
-4.0905,-1.08494397471223,0.01268659609518209
-4.09,-1.629122892453549,-0.3158091944647096
-4.0895,-1.202315898146244,0.1716361721729923
-4.089,0.06743490991683565,0.9239974989391958
-4.0885,1.294505018551494,1.528005888034424
-4.088,1.550589215135878,1.369056311956912
-4.0875,0.4835717293685839,0.2881991946308171
-4.087,-0.7328282044084889,-0.8668343915340425
-4.0865,-1.042263275281004,-1.555615887869299
-4.086,-0.7114878546931431,-1.661582271920877
-4.0855,-0.274010685527495,-1.555615887869164
-4.085,0.1207857842064037,-1.407262950196955
-4.0845,0.3448594562175354,-1.290699927740219
-4.084,0.5689331282291037,-1.343683119765922
-4.0835,0.6009436528021226,-1.311893204550448
-4.083,0.408880505363835,-1.110557074852267
-4.0825,0.184806833352354,-0.8774310299383907
-4.082,0.02475421048725994,-0.6654982618352349
-4.0815,0.2274875327832301,-0.2310360872233701
-4.081,0.9743997728203356,0.542518516353149
-4.0805,1.76399271228953,1.263089927905238
-4.08,2.233480406027567,1.697552102517103
-4.0795,1.529248865421153,1.146526905448897
-4.079,0.05676473505940535,-0.0508932343363333
-4.0785,-0.9355615267041777,-0.9410108603695881
-4.078,-1.095614149569272,-0.9092209451541147
-4.0775,-0.8715404775578103,-0.4111789401106864
-4.077,-0.572775581542968,0.1716361721729923
-4.0765,-0.3380317346741634,0.6378882619999354
-4.076,-0.188649286666325,0.9663840525607329
-4.0755,-0.1139580626626144,1.167720182258731
-4.075,-0.1352984123779797,1.135930267043229
-4.0745,-0.3380317346743671,0.6908714540256087
-4.074,-0.7968492535543035,0.04447651131098315
-4.0735,-1.426389570157579,-0.4535654937318862
-4.073,-1.447729919872925,-0.2522293640338881
-4.0725,-0.3700422592469978,0.4895353243280153
-4.072,0.9317190733902845,1.241896651094903
-4.0715,1.657290963712044,1.517409249629006
-4.071,0.9423892482467636,0.6802748156199593
-4.0705,-0.3807124341046804,-0.4959520473525559
-4.07,-1.437059745014301,-1.470842780627073
-4.0695,-1.543761493591613,-1.91590159364479
-4.069,-1.020922925565639,-1.693372187136476
-4.0685,-0.423393133535411,-1.460246142222792
-4.068,0.01408403562982961,-1.301296566145204
-4.0675,0.291508581929326,-1.216523458903942
-4.067,0.3875401556484697,-1.174136905283272
-4.0665,0.2808384070715075,-1.036380606015941
-4.066,0.1314559590640864,-0.8668343915334161
-4.0655,0.00341386077189465,-0.6866915386455698
-4.065,-0.007256314085778284,-0.464162132137256
-4.0645,0.4942419042252961,0.1080563417419877
-4.064,1.315845368266859,0.8710143069140429
-4.0635,2.020076908873274,1.496215972818353
-4.063,1.870694460865163,1.411442865576628
-4.0625,0.5582629533713921,0.3623756634660061
-4.062,-0.8822106524144544,-0.7502713690755626
-4.0615,-1.981238662757271,-1.502632695843424
-4.061,-2.19464215991073,-1.460246142222792
-4.0605,-1.586442193022819,-0.7396747306714069
-4.06,-0.9569018764191162,0.06566978812189628
-4.0595,-0.4874141826815069,0.701468092431364
-4.059,-0.2099896363817582,1.114736990232894
-4.0585,-0.1032878878050288,1.273686566310261
-4.058,-0.2420001609548061,0.9451907757502149
-4.0575,-0.5834457564006506,0.2881991946298341
-4.057,-1.170305373572662,-0.3475991096796336
-4.0565,-1.565101843307454,-0.474758770542221
-4.056,-0.839529952985034,0.1080563417419877
-4.0555,0.4515612047933915,0.9134008605339803
-4.055,1.518578690562636,1.485619334413339
-4.0545,1.305175193409177,1.029963882991555
-4.054,0.08877525963446198,-0.1038764263603298
-4.0535,-0.9035510021312173,-1.11055707485271
-4.053,-0.9995825758502737,-1.598002441489969
-4.0525,-0.7114878546928423,-1.598002441489969
-4.052,-0.3060212101005914,-1.37547303498126
-4.0515,0.03542438534494258,-1.163540266878104
-4.051,0.2701682322139607,-1.046977244421262
-4.0505,0.4088805053637089,-0.9410108603696845
-4.05,0.3341892813600565,-0.8880276683437509
-4.0495,0.1848068333524996,-0.8350444763179138
-4.049,0.04609456020275138,-0.7608680074818093
-4.0485,-0.01792648894313097,-0.6125150698088965
-4.048,0.3555296310754218,-0.06148987274069118
-4.0475,1.166462920258565,0.7332580076461435
-4.047,1.913375160297359,1.411442865577842
-4.0465,2.212140056312201,1.697552102517103
-4.046,1.230483969406291,0.8922075837251102
-4.0455,-0.1993194615246869,-0.2522293640341001
-4.045,-0.8715404775580819,-0.6866915386455698
-4.0445,-0.9035510021311299,-0.4111789401112165
-4.044,-0.6901475049772539,0.09745970333727329
-4.0435,-0.4447334832507763,0.5955017083796896
-4.043,-0.2633405106701714,0.9875773293708847
-4.0425,-0.1459685872357691,1.25249328949983
-4.042,-0.1032878878049318,1.400846227172415
-4.0415,-0.1993194615240755,1.210106735879401
-4.041,-0.4980843575389178,0.627291623595722
-4.0405,-0.9995825758507395,-0.04029659593061653
-4.04,-1.51175096901904,-0.326405832869877
-4.0395,-1.052933450139104,0.1610395337673816
-4.039,0.1954770082112594,0.9239974989404487
-4.0385,1.379866417412955,1.549199164844759
-4.038,1.657290963712452,1.432636142388023
-4.0375,0.5902734779432171,0.3623756634649364
-4.037,-0.754168554123573,-0.8138511995075789
-4.0365,-1.618452717595867,-1.608599079895136
-4.036,-1.469070269587786,-1.619195718300043
-4.0355,-0.8928808272734472,-1.333086481360783
-4.035,-0.3060212101009019,-1.0999604364471
-4.0345,0.1101156093483426,-0.9092209451542592
-4.034,0.2488278824985954,-0.9516074987747555
-4.0335,0.1314559590640864,-0.9622041371799229
-4.033,0.02475421048735699,-0.8350444763180295
-4.0325,-0.04993701351655737,-0.6866915386454349
-4.032,-0.09261771294724913,-0.5383386009732256
-4.0315,0.09944543449086374,-0.156859618387545
-4.031,0.8463576745295802,0.5637117931648138
-4.0305,1.678631313428069,1.25249328950007
-4.03,2.201469881454043,1.665762187301224
-4.0295,1.561259389992532,1.114736990231949
-4.029,0.4302208550792003,0.07626642652648545
-4.0285,-0.1673089369510276,-0.326405832869877
-4.028,-0.3807124341046804,-0.241632725628287
-4.0275,-0.3807124341046804,0.03387987290581572
-4.027,-0.3060212101009019,0.3517790250608387
-4.0265,-0.2206598112395185,0.6272916235949414
-4.026,-0.156638762093345,0.8392243916985406
-4.0255,-0.124628237520297,0.9769806909657173
-4.025,-0.1673089369509888,0.9557874141554017
-4.0245,-0.3913826089627706,0.5001319627325853
-4.024,-0.839529952985034,-0.1568596183871981
-4.0235,-1.469070269587737,-0.6549016234296144
-4.023,-1.46907026958731,-0.4959520473518331
-4.0225,-0.3700422592469978,0.2987958330350016
-4.022,0.9317190733891005,1.12533362863731
-4.0215,1.721312012858392,1.528005888033807
-4.021,1.273164668836129,0.849821030103708
-4.0205,0.6649647019482183,0.02328323450064829
-4.02,0.248827882498411,-0.5489352393787111
-4.0195,0.04609456020262521,-0.8986243067489184
-4.019,0.02475421048725994,-1.078767159636765
-4.0185,0.07810508477562461,-1.163540266878027
-4.018,0.1527963087794516,-1.163540266878104
-4.0175,0.2168173579255475,-1.195330182093607
-4.017,0.2061471830678746,-1.195330182093607
-4.0165,0.1101156093486337,-1.004590690800352
-4.016,0.01408403562957729,-0.7396747306714069
-4.0155,-0.06060718837413325,-0.4641621321373042
-4.015,-0.007256314085244538,-0.1144730647659212
-4.0145,0.5902734779444399,0.55311515475902
-4.014,1.433217291700602,1.27368656630975
-4.0135,2.105438307735239,1.803518486568642
-4.013,1.956055859727818,1.655165548896433
-4.0125,0.6222840025174878,0.55311515475902
-4.012,-0.7861790786972418,-0.6125150698099084
-4.0115,-1.46907026958831,-1.174136905283272
-4.011,-1.351698346153801,-0.8244478379127463
-4.0105,-0.9569018764199022,-0.1250697031723318
-4.01,-0.572775581542968,0.5213252395435176
-4.0095,-0.2953510352432193,1.00877060618122
-4.009,-0.1459685872357982,1.305476481525638
-4.0085,-0.0926177129473947,1.411442865577264
-4.008,-0.2526703358124887,1.061753798207057
-4.0075,-0.6047861061156956,0.3941655786821155
-4.007,-1.202315898146642,-0.2522293640338785
-4.0065,-1.639793067311232,-0.4429688553267188
-4.006,-0.9995825758502737,0.04447651131098315
-4.0055,0.3128489316457199,0.8286277532939225
-4.005,1.443887466559051,1.432636142387917
-4.0045,1.337185717982225,1.051157159801889
-4.004,0.1741366584940406,-0.05089323433626584
-4.0035,-0.6794773301197943,-0.8668343915334161
-4.003,-0.7434983792658902,-1.142346990067769
-4.0025,-0.4554036581087209,-1.227120097309032
-4.002,-0.1673089369510276,-1.195330182093607
-4.0015,0.0674349099179905,-1.152943628472937
-4.001,0.2381577076407575,-1.08936379804199
-4.0005,0.4408910299368441,-1.025783967610879
-4,0.3982103305061524,-0.9728007755850904
-3.9995,0.2381577076409128,-0.8880276683437509
-3.999,0.07810508477567314,-0.7714646458869092
-3.9985,-0.007256314085787988,-0.6125150698093976
-3.998,0.3555296310754218,-0.08268314955102604
-3.9975,1.15579274540162,0.7226613692416989
-3.997,1.913375160297087,1.42203950398275
-3.9965,2.169459356881471,1.697552102517103
-3.996,1.134452395686255,0.8816109453192104
-3.9955,-0.3273615598162672,-0.3052125560595421
-3.995,-1.1062843244271,-1.004590690800593
-3.9945,-1.127624674142465,-0.8032545611024114
-3.994,-0.839529952985034,-0.1992461720078678
-3.9935,-0.5300948821122373,0.4153588554918433
-3.993,-0.2953510352432193,0.9028042221295453
-3.9925,-0.156638762093345,1.220703374284568
-3.992,-0.1032878878049318,1.390249588767247
-3.9915,-0.1886492866663929,1.210106735879401
-3.991,-0.4554036581084589,0.627291623595192
-3.9905,-0.9462317015618604,-0.04029659593035631
-3.99,-1.533091318734406,-0.5065486857577234
-3.9895,-1.287677297007705,-0.3793890248957141
-3.989,-0.07127736323188383,0.3729723018711736
-3.9885,1.177133095116985,1.146526905448396
-3.988,1.497238340847464,1.210106735879401
-3.9875,0.4729015545099309,0.2670059178194992
-3.987,-0.807519428411986,-0.8350444763179138
-3.9865,-1.373038695869166,-1.523825972653797
-3.986,-1.052933450138687,-1.682775548731308
-3.9855,-0.4980843575391895,-1.481439419033127
-3.985,-0.01792648894347063,-1.301296566145281
-3.9845,0.2701682322139607,-1.195330182093607
-3.984,0.4408910299368829,-1.068170521231597
-3.9835,0.4515612047945656,-1.01518732920576
-3.983,0.291508581929326,-0.9728007755850904
-3.9825,0.1207857842064037,-0.8986243067489184
-3.982,-0.007256314085787988,-0.792657922697244
-3.9815,0.1741366584948169,-0.4429688553267188
-3.981,0.9210488985326017,0.3411823866556712
-3.9805,1.7213120128588,1.104140351827727
-3.98,2.233480406027567,1.602182356870596
-3.9795,1.614610264281974,1.157123543853563
-3.979,0.2274875327832301,0.03387987290581572
-3.9785,-0.5834457564006506,-0.5807251545938954
-3.978,-0.754168554123573,-0.4429688553267188
-3.9775,-0.6367966306890638,-0.008506680714854012
-3.977,-0.4447334832507763,0.4683420475176805
-3.9765,-0.274010685527854,0.8604176685088755
-3.976,-0.1779791118087102,1.146526905448396
-3.9755,-0.124628237520297,1.33726639674141
-3.975,-0.1352984123779797,1.33726639674141
-3.9745,-0.3380317346739499,0.9028042221295453
-3.974,-0.754168554123573,0.2458126410091644
-3.9735,-1.373038695869166,-0.326405832869877
-3.973,-1.565101843307454,-0.4535654937318862
-3.9725,-0.5514352318276028,0.1292496185523226
-3.972,0.7609962756673623,0.9345941373450475
-3.9715,1.625280439139656,1.37965295036208
-3.971,1.443887466559051,0.8710143069140429
-3.9705,0.942389248247967,0.07626642652648545
-3.97,0.4835717293676135,-0.5913217929990628
-3.9695,0.2061471830678648,-1.025783967610927
-3.969,0.1314559590640864,-1.216523458903942
-3.9685,0.142126133921769,-1.311893204550448
-3.968,0.2061471830678648,-1.311893204550448
-3.9675,0.2381577076409128,-1.301296566145281
-3.967,0.2061471830678648,-1.290699927740113
-3.9665,0.09944543449103843,-1.0999604364471
-3.966,0.00341386077189465,-0.8244478379127463
-3.9655,-0.07127736323188383,-0.5383386009732256
-3.965,-0.02859666380115328,-0.1780528951975329
-3.9645,0.5689331282290746,0.5213252395435176
-3.964,1.411876941986003,1.263089927905238
-3.9635,2.094768132877692,1.79292184816361
-3.963,1.956055859727818,1.644568910491266
-3.9625,0.6436243522328531,0.5425185163538525
-3.962,-0.8181896032696687,-0.6019184314042303
-3.9615,-1.991908837614759,-1.34368311976595
-3.961,-2.472066706210478,-1.439052865412457
-3.9605,-1.842526389607202,-0.7608680074817418
-3.96,-1.138294849000148,0.1080563417419877
-3.9595,-0.5941159312583333,0.8286277532933731
-3.959,-0.2633405106701714,1.29487984312074
-3.9585,-0.1139580626626144,1.496215972818921
-3.958,-0.2420001609548061,1.178316820663898
-3.9575,-0.6154562809736985,0.5107286011383502
-3.957,-1.223656247861609,-0.1568596183871981
-3.9565,-1.586442193022819,-0.252229364033705
-3.956,-0.7861790786966207,0.3517790250608387
-3.9555,0.5262524287983441,1.093543713422559
-3.955,1.593269914566608,1.580989080060261
-3.9545,1.411876941986003,1.093543713422559
-3.954,0.1741366584948169,-0.07208651114585861
-3.9535,-1.052933450138687,-1.131750351662602
-3.953,-1.458400094730627,-1.555615887869299
-3.9525,-1.170305373573196,-1.502632695843462
-3.952,-0.658136980404429,-1.333086481360783
-3.9515,-0.1993194615240755,-1.152943628472937
-3.951,0.09944543449103843,-1.05757388282643
-3.9505,0.07810508477567314,-0.8774310299385835
-3.95,-0.007256314085787988,-0.8456411147230812
-3.9495,-0.07127736323188383,-0.8668343915334161
-3.949,-0.1032878878049318,-0.8562377531282487
-3.9485,-0.08194753808956648,-0.7608680074817418
-3.948,0.3768699807907871,-0.2204394488182027
-3.9475,1.219813794547716,0.6166949851900245
-3.947,1.966726034585501,1.33726639674141
-3.9465,2.222810231169884,1.644568910491266
-3.946,1.187803269974668,0.8604176685088755
-3.9455,-0.3380317346739499,-0.3158091944647096
-3.945,-1.554431668449771,-1.205926820498774
-3.9445,-1.895877263895616,-1.375473034981453
-3.944,-1.479740444445993,-0.7608680074817418
-3.9435,-0.9355615267041777,0.05507314971615059
-3.943,-0.5087545323968721,0.7226613692416989
-3.9425,-0.2313299860971235,1.188913459069066
-3.942,-0.1032878878049318,1.443232780793084
-3.9415,-0.1673089369510276,1.316073119931075
-3.941,-0.4980843575391895,0.7120647308365314
-3.9405,-1.020922925565639,0.02328323450064829
-3.94,-1.575772018165136,-0.3687923864905467
-3.9395,-1.298347471865388,-0.1250697031716958
-3.939,-0.07127736323188383,0.6060983467848571
-3.9385,1.187803269974668,1.316073119931075
-3.938,1.56125938999356,1.326669758336243
-3.9375,0.5582629533713921,0.3411823866556712
-3.937,-0.754168554123573,-0.8032545611024114
-3.9365,-1.565101843307454,-1.576809164679634
-3.936,-1.458400094730627,-1.619195718300304
-3.9355,-0.8928808272734472,-1.439052865412457
-3.935,-0.3060212101009019,-1.237716735714276
-3.9345,0.05676473506030786,-1.078767159636765
-3.934,0.2701682322139607,-1.152943628472937
-3.9335,0.3235191065023739,-1.184733543688439
-3.933,0.2274875327832301,-1.05757388282643
-3.9325,0.09944543449103843,-0.8880276683437509
-3.932,-0.007256314085787988,-0.718481453861072
-3.9315,0.1848068333524996,-0.3370024712750445
-3.931,0.9210488985326017,0.4365521323021782
-3.9305,1.7213120128588,1.178316820663898
-3.93,2.254820755742932,1.6657621873016
-3.9295,1.678631313428069,1.220703374284568
-3.929,0.2168173579255475,0.05507314971615059
-3.9285,-1.095614149569417,-1.01518732920576
-3.928,-1.682473766741963,-1.481439419033127
-3.9275,-1.46907026958831,-1.046977244421262
-3.927,-0.9889124009925911,-0.3052125560595421
-3.9265,-0.5621054066852853,0.3729723018711736
-3.926,-0.274010685527854,0.8604176685088755
-3.9255,-0.124628237520297,1.157123543853563
-3.925,-0.1032878878049318,1.199510097474233
-3.9245,-0.2953510352432193,0.7650479228623686
-3.924,-0.6794773301197943,0.09745970333682032
-3.9235,-1.287677297007705,-0.4429688553267188
-3.923,-1.437059745015262,-0.3370024712750445
-3.9225,-0.4554036581084589,0.3623756634660061
-3.922,0.8356874996711408,1.146526905448396
-3.9215,1.678631313428069,1.517409249629256
-3.921,1.337185717982225,0.8286277532933731
-3.9205,0.7823366253827275,-0.08268314955102604
-3.92,0.3875401556484697,-0.6760949002404023
-3.9195,0.1741366584948169,-0.9939940523954253
-3.919,0.0674349099179905,-1.121153713257435
-3.9185,0.09944543449103843,-1.163540266878104
-3.918,0.1954770082101822,-1.142346990067769
-3.9175,0.2594980573562781,-1.195330182093607
-3.917,0.1527963087794516,-1.269506650929778
-3.9165,0.02475421048725994,-1.068170521231597
-3.916,-0.06060718837420119,-0.7714646458869092
-3.9155,-0.1032878878049318,-0.4641621321370536
-3.915,-0.02859666380115328,-0.09327978795619347
-3.9145,0.5796033030867573,0.5849050699745222
-3.914,1.433217291701369,1.29487984312074
-3.9135,2.116108482593058,1.824711763379112
-3.913,2.041417258589279,1.729342017732605
-3.9125,0.7716664505250448,0.6484849004055269
-3.912,-0.3807124341046804,-0.3899856633008816
-3.9115,-0.7648387289812555,-0.5595318777835605
-3.911,-0.722158029550525,-0.2204394488182027
-3.9105,-0.5300948821122373,0.2564092794143318
-3.91,-0.3380317346739499,0.6802748156210291
-3.9095,-0.1993194615240755,0.9981739677760521
-3.909,-0.124628237520297,1.199510097474233
-3.9085,-0.1139580626626144,1.273686566310405
-3.908,-0.2526703358124887,0.9557874141553824
-3.9075,-0.5941159312583333,0.3199891098453364
-3.907,-1.180975548430879,-0.3158091944647096
-3.9065,-1.586442193022819,-0.4853554089473885
-3.906,-0.8715404775580819,0.06566978812131802
-3.9055,0.4302208550792003,0.8710143069140429
-3.905,1.529248865420512,1.464426057603419
-3.9045,1.411876941986003,1.082947075017392
-3.904,0.291508581929326,-0.02969995752518888
-3.9035,-0.423393133535411,-0.8244478379127463
-3.903,-0.4980843575391895,-1.152943628472937
-3.9025,-0.2846808603855366,-1.216523458903942
-3.902,-0.03926683865883591,-1.163540266878104
-3.9015,0.1634664836371343,-1.174136905283272
-3.901,0.291508581929326,-1.195330182093607
-3.9005,0.2701682322139607,-1.322489842955616
-3.9,0.142126133921769,-1.237716735714276
-3.8995,0.02475421048725994,-1.004590690800593
-3.899,-0.06060718837420119,-0.7608680074817418
-3.8985,-0.08194753808956648,-0.5065486857577234
-3.898,0.2808384070716433,0.02328323450064829
-3.8975,1.102441871113207,0.7968378380778709
-3.897,1.881364635724039,1.475022696008586
-3.8965,2.222810231169884,1.75053529454294
-3.896,1.294505018551494,0.9451907757502149
-3.8955,-0.1886492866663929,-0.2628260024388724
-3.895,-1.244996597576974,-1.195330182093607
-3.8945,-1.501080794161358,-1.38606967338662
-3.894,-1.191645723288561,-0.792657922697244
-3.8935,-0.7755089038389382,-0.02969995752518888
-3.893,-0.4340633083930936,0.6060983467848571
-3.8925,-0.2099896363817582,1.040560521396722
-3.892,-0.1032878878049318,1.273686566310405
-3.8915,-0.1459685872356623,1.167720182258731
-3.891,-0.4020527838200457,0.6166949851900245
-3.8905,-0.9248913518464952,-0.07208651114585861
-3.89,-1.501080794161358,-0.4323722169215513
-3.8895,-1.255666772434657,0.002089957690313421
-3.889,-0.06060718837420119,0.7862411996727035
-3.8885,1.187803269974668,1.453829419198252
-3.888,1.667961138570387,1.432636142387917
-3.8875,0.7289857510943143,0.4047622170866759
-3.887,-0.6154562809736985,-0.7608680074817418
-3.8865,-1.458400094730627,-1.619195718300304
-3.886,-1.30901764672307,-1.852321763213987
