Class_12_Wrist_move/Class_12_Wrist_move_Souku_1.csv

#Digilent WaveForms Oscilloscope Acquisition
#Device Name: EExplorer
#Serial Number: SN:210151A2B84A
#Date Time: 2021-01-27 15:20:28.034
#Sample rate: 2000Hz
#Samples: 16384
#Trigger: Source: Channel 1 Type: Edge Condition: Rising Level: 0 V Hyst.: Auto HoldOff: 0 s
#Channel 1: Range: 1 V/div Offset: 0 V Attenuation: 1 X
#Channel 2: Range: 1 V/div Offset: 0 V Attenuation: 1 X
#Channel 4: Range: 1 V/div Offset: 0 V Attenuation: 1 X
#Power Supplies: ON
#Fixed Supply: ON
#Voltage: 3.3 V Readback: 3.317 V
#Positive Supply: ON
#Voltage: 3.7 V Readback: 3.703 V
#Current: 40 mA Readback: 18 mA
#Negative Supply: ON
#Voltage: -3.7 V Readback: -3.334 V
#Current: -40 mA Readback: -9 mA
#Reference 1: ON
#Voltage: 0 V
#Reference 2: ON
#Voltage: 0 V

Time (s),Channel 1 (V),Channel 2 (V),Channel 4 (V)
-4.096,0.1741366584948169,0.4365521323021782,-0.08495261429437276
-4.0955,0.7930068002398472,-0.2204394488176051,-0.06378645947269375
-4.095,1.305175193409225,-0.9410108603700315,-0.05320338206180612
-4.0945,1.35852606769759,-1.42845622700729,-0.03203722724012713
-4.094,1.315845368266898,-1.481439419033079,-0.02145414982928762
-4.0935,1.21981379454757,-0.9410108603691448,-0.02145414982928762
-4.093,1.059761171682476,-0.4535654937318862,-0.03203722724012713
-4.0925,0.8356874996713446,-0.1992461720080991,-0.03203722724012713
-4.092,0.5689331282288611,-0.17805289519761,-0.03203722724012713
-4.0915,0.3341892813600565,-0.2628260024388724,-0.03203722724012713
-4.091,0.1634664836371343,-0.326405832869877,-0.03203722724012713
-4.0905,0.09944543449108695,-0.3264058328698481,-0.0002879950075508762
-4.09,0.1527963087794516,-0.2946159176543747,0.03146123722496762
-4.0895,0.1314559590640864,-0.2628260024388724,0.03146123722496762
-4.089,0.07810508477572167,-0.2204394488182412,0.03146123722496762
-4.0885,0.01408403562957729,-0.1992461720078678,0.01029508240326937
-4.088,-0.06060718837420119,-0.1674562567923655,-0.01087107241842888
-4.0875,-0.4447334832504269,0.09745970333657941,-0.02145414982926837
-4.087,-1.170305373573807,0.6166949851902558,-0.03203722724013675
-4.0865,-1.842526389607202,0.8710143069140429,-0.04262030465097626
-4.086,-2.322684258202484,0.606098346785098,-0.06378645947265525
-4.0855,-2.504077230783245,-0.1886495336031726,-0.07436953688350438
-4.085,-2.19464215991073,-0.7078848154559045,-0.05320338206182537
-4.0845,-1.341028171296895,-0.5807251545940111,-0.03203722724014638
-4.084,-0.6794773301194061,-0.2310360872230521,-0.03203722724013675
-4.0835,-0.2526703358124887,0.1186529801471552,-0.04262030465097626
-4.083,-0.02859666380115328,0.383568940276341,-0.04262030465097626
-4.0825,0.05676473506031757,0.5531151547591067,-0.04262030465099551
-4.082,0.0674349099179905,0.6484849004055269,-0.0637864594726745
-4.0815,0.04609456020262521,0.6802748156210291,-0.1272849239377692
-4.081,0.01408403562960641,0.6696781772158713,-0.1378680013486087
-4.0805,-0.007256314085787988,0.6378882620003594,-0.1378680013486184
-4.08,0.00341386077189465,0.55311515475902,-0.1167018465269201
-4.0795,0.07810508477560521,0.394165578681653,-0.09553569170524114
-4.079,0.5155822539409428,-0.1250697031723608,-0.0637864594726745
-4.0785,0.825017324813458,-0.8562377531282487,-0.0637864594726745
-4.078,0.7183155762367286,-1.460246142222243,-0.04262030465099551
-4.0775,0.6436243522329501,-1.343683119765536,-0.021454149829278
-4.077,0.7503261008096795,-0.8880276683437509,-0.021454149829278
-4.0765,0.8143471499557171,-0.5065486857580703,-0.0320372272401175
-4.076,0.7609962756672167,-0.2840192792491302,-0.03203722724012713
-4.0755,0.6009436528021226,-0.1992461720078678,-0.03203722724012713
-4.075,0.408880505363835,-0.252229364033705,-0.03203722724012713
-4.0745,0.2274875327831234,-0.3052125560595614,-0.0320372272401175
-4.074,0.1101156093487211,-0.326405832869877,-0.021454149829278
-4.0735,0.1314559590640864,-0.2946159176543747,0.03146123722496762
-4.073,0.1314559590640864,-0.2416327256285857,0.04204431463580712
-4.0725,0.07810508477567314,-0.1992461720078678,0.03146123722496762
-4.072,0.02475421048725994,-0.1356663415768632,0.0208781598141185
-4.0715,-0.01792648894343181,-0.07208651114591644,-0.0002879950075605001
-4.071,-0.3060212101015521,0.2140227257941922,-0.01087107241844813
-4.0705,-1.020922925565639,0.7968378380778709,-0.03203722724012713
-4.07,-1.778505340460417,1.188913459068709,-0.04262030465096663
-4.0695,-2.408045657064023,1.146526905448088,-0.06378645947266487
-4.069,-2.013249187330125,0.8074344764830383,-0.05320338206182537
-4.0685,-1.244996597576974,0.5001319627331828,-0.04262030465097626
-4.068,-0.636796630688695,0.3411823866556423,-0.04262030465097626
-4.0675,-0.2313299860971235,0.309392471440169,-0.04262030465097626
-4.067,-0.02859666380115328,0.3623756634660061,-0.04262030465097626
-4.0665,0.05676473506031757,0.4577454091126094,-0.04262030465097626
-4.066,0.0674349099179905,0.5637117931641874,-0.04262030465097626
-4.0655,0.04609456020262521,0.6590815388106942,-0.05320338206182537
-4.065,0.01408403562960641,0.7438546460519566,-0.1167018465268624
-4.0645,-0.007256314085787988,0.7862411996727035,-0.1378680013486184
-4.064,-0.02859666380115328,0.7968378380778709,-0.1378680013486184
-4.0635,-0.02859666380115328,0.7862411996727131,-0.1167018465269394
-4.063,0.04609456020306191,0.6802748156205568,-0.09553569170520264
-4.0625,0.5262524287983441,0.1610395337678249,-0.07436953688352363
-4.062,1.219813794547085,-0.5913217929983787,-0.06378645947268413
-4.0615,1.60394008942432,-1.237716735714392,-0.04262030465095701
-4.061,1.635950613997339,-1.364876396576285,-0.021454149829278
-4.0605,1.507908515705147,-1.036380606016095,-0.021454149829278
-4.06,1.283834843693569,-0.686691538645348,-0.03203722724012713
-4.0595,1.017080472251745,-0.4429688553267188,-0.03203722724012713
-4.059,0.7289857510943143,-0.2840192792492073,-0.03203722724012713
-4.0585,0.440891029937145,-0.1250697031718403,-0.03203722724012713
-4.058,0.2168173579255475,-0.06148987274069118,-0.03203722724012713
-4.0575,0.07810508477567314,-0.1250697031716958,-0.03203722724012713
-4.057,0.110115609348692,-0.2204394488181159,0.01029508240323087
-4.0565,0.1634664836371343,-0.2946159176543747,0.03146123722496762
-4.056,0.1314559590640864,-0.3370024712750445,0.03146123722496762
-4.0555,0.06743490991804874,-0.3158091944647288,0.03146123722496762
-4.055,0.01408403562949966,-0.2522293640336182,0.01029508240325012
-4.0545,-0.07127736323188383,-0.1568596183871981,-0.01087107241842888
-4.054,-0.5087545323964742,0.1292496185520624,-0.03203722724010788
-4.0535,-1.138294849000672,0.3623756634659965,-0.04262030465098588
-4.053,-1.714484291315011,0.3517790250608387,-0.05320338206182537
-4.0525,-2.301343908487556,-0.06148987274069118,-0.07436953688352363
-4.052,-2.39737548220603,-0.6337083466197132,-0.06378645947265525
-4.0515,-1.661133417026597,-0.6125150698093976,-0.04262030465097626
-4.051,-0.9355615267041777,-0.2628260024388724,-0.03203722724012713
-4.0505,-0.4233931335358768,0.1186529801468083,-0.04262030465096663
-4.05,-0.1139580626626144,0.4259554938970107,-0.04262030465097626
-4.0495,0.02475421048725994,0.6378882620003594,-0.04262030465097626
-4.049,0.06743490991795169,0.7544512844570951,-0.05320338206181575
-4.0485,0.05676473506027874,0.8074344764830383,-0.08495261429442089
-4.048,0.02475421048725994,0.8074344764830383,-0.1378680013486184
-4.0475,-0.007256314085758876,0.7756445612675649,-0.1378680013486184
-4.047,-0.01792648894347063,0.7120647308364639,-0.12728492393775
-4.0465,-0.01792648894347063,0.6378882620003594,-0.106118769116071
-4.046,0.1848068333523152,0.3941655786817301,-0.08495261429439201
-4.0455,0.7076454013791625,-0.2734226408447337,-0.0637864594726745
-4.045,0.942389248247967,-1.036380606016095,-0.0637864594726745
-4.0445,1.049090996824793,-1.51322933424863,-0.03203722724012713
-4.044,1.134452395686245,-1.301296566144905,-0.021454149829278
-4.0435,1.123782220828572,-0.8880276683437509,-0.021454149829278
-4.043,1.006410297394063,-0.5277419625680583,-0.03203722724012713
-4.0425,0.81434714995595,-0.3475991096803757,-0.03203722724012713
-4.042,0.5796033030867573,-0.3370024712750445,-0.03203722724012713
-4.0415,0.3661998059331045,-0.2946159176543747,-0.03203722724012713
-4.041,0.1954770082103374,-0.2734226408440591,-0.03203722724012713
-4.0405,0.1101156093487114,-0.3052125560595421,-0.01087107241839038
-4.04,0.09944543449103843,-0.3052125560595421,0.03146123722496762
-4.0395,0.06743490991801962,-0.3052125560595421,0.03146123722496762
-4.039,0.02475421048723082,-0.2734226408439916,0.031461237224958
-4.0385,-0.007256314085787988,-0.2204394488182027,0.0208781598141185
-4.038,-0.06060718837415267,-0.1250697031717825,-0.0002879950075605001
-4.0375,-0.4127229586783688,0.2776025562252546,-0.02145414982928762
-4.037,-1.116954499284783,0.92399749893988,-0.03203722724012713
-4.0365,-1.746494815888059,1.443232780793084,-0.04262030465097626
-4.036,-2.269333383914712,1.347863035145691,-0.07436953688352363
-4.0355,-2.493407055925843,0.3729723018711736,-0.07436953688352363
-4.035,-2.151961460479999,-0.3158091944647096,-0.05320338206182537
-4.0345,-1.298347471866164,-0.3475991096801829,-0.03203722724014638
-4.034,-0.658136980404429,-0.09327978795619347,-0.03203722724012713
-4.0335,-0.2313299860971235,0.2352160026039969,-0.04262030465097626
-4.033,-0.01792648894366472,0.5319218779484152,-0.04262030465097626
-4.0325,0.0674349099179905,0.7438546460521687,-0.04262030465099551
-4.032,0.0674349099179905,0.8922075837243778,-0.0637864594726745
-4.0315,0.04609456020264462,0.9769806909656402,-0.116701846526872
-4.031,0.01408403562955789,1.008770606181191,-0.1378680013486087
-4.0305,-0.007256314085787988,0.9769806909657173,-0.1272849239377692
-4.03,0.02475421048723082,0.8604176685089815,-0.1167018465269297
-4.0295,0.110115609349119,0.7014680924308822,-0.08495261429435351
-4.029,0.5475927785137094,0.1716361721729923,-0.0637864594726745
-4.0285,0.974399772821015,-0.5595318777835605,-0.0637864594726745
-4.028,1.145122570544034,-1.110557074852498,-0.04262030465095701
-4.0275,1.251824319120764,-1.364876396576285,-0.021454149829278
-4.027,1.294505018551494,-0.9304142219644207,-0.021454149829278
-4.0265,1.209143619690111,-0.7290780922664225,-0.0320372272401175
-4.026,1.027750647109428,-0.5913217929990628,-0.03203722724012713
-4.0255,0.7396559259519968,-0.5489352393783931,-0.03203722724012713
-4.025,0.4302208550794818,-0.5277419625680776,-0.03203722724012713
-4.0245,0.1848068333523831,-0.5489352393784027,-0.0320372272401175
-4.024,0.05676473506030786,-0.5595318777835605,-0.021454149829278
-4.0235,0.206147183067729,-0.6549016234299807,0.0314612372249195
-4.023,0.2701682322139025,-0.6866915386455119,0.04204431463580712
-4.0225,0.2061471830678648,-0.6231117082145651,0.03146123722496762
-4.022,0.1101156093488084,-0.5383386009733027,0.02087815981412813
-4.0215,0.01408403562929587,-0.464162132136909,-0.0002879950075990025
-4.021,-0.2953510352432193,-0.3052125560595421,-0.021454149829278
-4.0205,-0.9995825758502737,0.1822328105781598,-0.03203722724012713
-4.02,-1.597112367880861,0.5425185163538043,-0.04262030465099551
-4.0195,-1.991908837614759,0.4895353243280153,-0.0637864594726745
-4.019,-1.842526389607202,0.1504428953626575,-0.05320338206182537
-4.0185,-1.234326422719845,0.04447651131107953,-0.04262030465098588
-4.018,-0.6794773301197943,0.1186529801471552,-0.04262030465097626
-4.0175,-0.2846808603855366,0.2670059178194992,-0.04262030465097626
-4.017,-0.06060718837440499,0.4259554938968662,-0.04262030465097626
-4.0165,0.03542438534496199,0.5637117931642934,-0.04262030465097626
-4.016,0.05676473506030786,0.6802748156210291,-0.04262030465097626
-4.0155,0.04609456020263492,0.7650479228622915,-0.05320338206181575
-4.015,0.01408403562955789,0.8180311148882154,-0.1167018465269394
-4.0145,-0.007256314085787988,0.8286277532933731,-0.1378680013486184
-4.014,-0.02859666380113387,0.8180311148882154,-0.1378680013486184
-4.0135,-0.01792648894343181,0.7756445612674396,-0.1167018465269009
-4.013,0.02475421048725994,0.6696781772158616,-0.09553569170522189
-4.0125,0.3982103305061524,0.2776025562246667,-0.07436953688352363
-4.012,0.9530594231059021,-0.4641621321376704,-0.06378645947265525
-4.0115,1.230483969405398,-1.142346990067769,-0.04262030465097626
-4.011,1.134452395686255,-1.322489842955616,-0.021454149829278
-4.0105,1.070431346540217,-0.9728007755854085,-0.021454149829278
-4.01,1.027750647109428,-0.570128516188728,-0.021454149829278
-4.0095,0.9317190733902845,-0.3475991096802118,-0.03203722724012713
-4.009,0.7503261008098445,-0.2734226408441073,-0.03203722724012713
-4.0085,0.4835717293674097,-0.3052125560596481,-0.03203722724012713
-4.008,0.2594980573562781,-0.4217755785163839,-0.03203722724012713
-4.0075,0.09944543449118401,-0.4747587705421729,-0.03203722724012713
-4.007,0.0674349099179808,-0.4853554089473885,0.02087815981412812
-4.0065,0.05676473506030786,-0.4853554089473885,0.03146123722496762
-4.006,0.02475421048725994,-0.4429688553267188,0.03146123722496762
-4.0055,-0.007256314085807397,-0.3899856633008237,0.03146123722494838
-4.005,-0.02859666380115328,-0.326405832869877,0.01029508240326937
-4.0045,-0.1459685872356623,-0.2204394488182027,-0.01087107241842888
-4.004,-0.7434983792664919,0.07626642652668784,-0.03203722724013675
-4.0035,-1.405049220442214,0.2987958330350016,-0.04262030465097626
-4.003,-1.938557963326346,0.1716361721729923,-0.05320338206182537
-4.0025,-2.322684258202572,-0.379389024895213,-0.07436953688350438
-4.002,-2.215982509626095,-0.8774310299385835,-0.05320338206182537
-4.0015,-1.458400094730627,-0.7396747306714069,-0.04262030465097626
-4.001,-0.807519428412578,-0.3264058328702529,-0.03203722724013675
-4.0005,-0.3380317346737072,0.08686306493194201,-0.03203722724013675
-4,-0.07127736323188383,0.4047622170866759,-0.04262030465097626
-3.9995,0.04609456020262521,0.6060983467848571,-0.04262030465097626
-3.999,0.0674349099179905,0.7120647308365314,-0.04262030465097626
-3.9985,0.05676473506030786,0.7650479228623686,-0.08495261429437276
-3.998,0.02475421048725994,0.7650479228623686,-0.1272849239377692
-3.9975,-0.007256314085787988,0.7226613692416989,-0.1378680013486184
-3.997,-0.007256314085787988,0.627291623595192,-0.1272849239377692
-3.9965,0.03542438534494258,0.457745409112513,-0.106118769116071
-3.996,0.2701682322139607,0.1716361721729923,-0.08495261429437276
-3.9955,0.9103787236749192,-0.4853554089473885,-0.0637864594726745
-3.995,1.337185717982225,-1.195330182093607,-0.05320338206182537
-3.9945,1.326515543124542,-1.809935209593318,-0.03203722724012713
-3.994,1.401206767128321,-2.297380576231019,-0.03203722724012713
-3.9935,1.35852606769759,-1.809935209593318,-0.021454149829278
-3.993,1.19847344483235,-1.311893204550448,-0.021454149829278
-3.9925,0.9530594231056497,-0.8456411147230812,-0.03203722724012713
-3.992,0.6649647019482183,-0.5807251545938954,-0.03203722724012713
-3.9915,0.3768699807907871,-0.4217755785163839,-0.03203722724012713
-3.991,0.1634664836371343,-0.3370024712750445,-0.03203722724012713
-3.9905,0.07810508477567314,-0.2840192792492073,-0.000287995007579752
-3.99,0.08877525963335578,-0.2204394488182027,0.03146123722496762
-3.9895,0.0674349099179905,-0.2098428104130352,0.03146123722496762
-3.989,0.03542438534494258,-0.1992461720078678,0.03146123722496762
-3.9885,-0.007256314085787988,-0.1886495336027004,0.01029508240326937
-3.988,-0.06060718837420119,-0.1674562567923655,-0.000287995007579752
-3.9875,-0.3380317346739499,0.05507314971615059,-0.03203722724012713
-3.987,-0.9142211769888124,0.6166949851900245,-0.03203722724012713
-3.9865,-1.586442193022819,1.00877060618122,-0.04262030465097626
-3.986,-2.247993034199143,0.849821030103708,-0.07436953688352363
-3.9855,-2.162631635337682,0.2564092794143318,-0.0637864594726745
-3.985,-1.415719395299897,0.01268659609548085,-0.04262030465097626
-3.9845,-0.7755089038389382,0.01268659609548085,-0.04262030465097626
-3.984,-0.3273615598162672,0.13984625695749,-0.04262030465097626
-3.9835,-0.07127736323188383,0.2987958330350016,-0.04262030465097626
-3.983,0.04609456020262521,0.4471487707073456,-0.04262030465097626
-3.9825,0.0674349099179905,0.5637117931641874,-0.04262030465097626
-3.982,0.04609456020262521,0.6590815388106942,-0.0637864594726745
-3.9815,0.02475421048725994,0.7120647308365314,-0.1272849239377692
-3.981,-0.007256314085787988,0.7332580076468663,-0.1378680013486184
-3.9805,-0.02859666380115328,0.7120647308365314,-0.1272849239377692
-3.98,-0.01792648894347063,0.6802748156210291,-0.106118769116071
-3.9795,0.07810508477567314,0.5637117931641874,-0.08495261429437276
-3.979,0.5902734779444399,0.04447651131098315,-0.07436953688352363
-3.9785,1.123782220828572,-0.6866915386455698,-0.0637864594726745
-3.978,1.326515543124542,-1.290699927740113,-0.04262030465097626
-3.9775,1.390536592270638,-1.629792356705471,-0.03203722724012713
-3.977,1.347855892839907,-1.598002441489969,-0.03203722724012713
-3.9765,1.209143619690033,-1.280103289334946,-0.021454149829278
-3.976,0.9850699476786977,-0.8244478379127463,-0.021454149829278
-3.9755,0.7183155762366316,-0.4853554089473885,-0.021454149829278
-3.975,0.4515612047945656,-0.3370024712750445,-0.03203722724012713
-3.9745,0.2594980573562781,-0.3370024712750445,-0.03203722724012713
-3.974,0.142126133921769,-0.3475991096802118,-0.021454149829278
-3.9735,0.2168173579255475,-0.4217755785163839,0.03146123722496762
-3.973,0.2168173579255475,-0.4323722169215513,0.03146123722496762
-3.9725,0.1527963087794516,-0.4111789401112165,0.03146123722496762
-3.972,0.0674349099179905,-0.3793890248957141,0.0208781598141185
-3.9715,-0.007256314085787988,-0.3052125560595421,-0.000287995007579752
-3.971,-0.2420001609548061,-0.1250697031716958,-0.021454149829278
-3.9705,-0.8822106524157645,0.3305857482505039,-0.03203722724012713
-3.97,-1.51175096901904,0.6166949851900245,-0.04262030465097626
-3.9695,-1.949228138184029,0.5213252395435176,-0.0637864594726745
-3.969,-1.778505340461106,0.1504428953626575,-0.05320338206182537
-3.9685,-1.202315898146244,0.002089957690313421,-0.04262030465097626
-3.968,-0.658136980404429,0.02328323450064829,-0.04262030465097626
-3.9675,-0.274010685527854,0.1186529801471552,-0.04262030465097626
-3.967,-0.06060718837420119,0.2458126410091644,-0.04262030465097626
-3.9665,0.03542438534494258,0.3729723018711736,-0.04262030465097626
-3.966,0.04609456020262521,0.4789386859228479,-0.04262030465097626
-3.9655,0.03542438534494258,0.5637117931641874,-0.05320338206182537
-3.965,0.01408403562957729,0.627291623595192,-0.1167018465269201
-3.9645,-0.007256314085787988,0.6590815388106942,-0.1378680013486184
-3.964,-0.02859666380115328,0.6590815388106942,-0.1378680013486184
-3.9635,-0.02859666380115328,0.627291623595192,-0.1167018465269201
-3.963,0.1954770082101822,0.3305857482505039,-0.106118769116071
-3.9625,0.8463576745288233,-0.3370024712750445,-0.07436953688352363
-3.962,1.379866417412955,-1.01518732920576,-0.0637864594726745
-3.9615,1.379866417412955,-1.534422611058964,-0.04262030465097626
-3.961,1.251824319120764,-1.534422611058964,-0.021454149829278
-3.9605,1.209143619690033,-1.068170521231597,-0.021454149829278
-3.96,1.102441871113207,-0.5595318777835605,-0.03203722724012713
-3.9595,0.8997085488172365,-0.2098428104130352,-0.03203722724012713
-3.959,0.6542945270905358,-0.06148987274069118,-0.03203722724012713
-3.9585,0.3875401556484697,-0.05089323433552374,-0.03203722724012713
-3.958,0.1954770082101822,-0.1038764263613609,-0.03203722724012713
-3.9575,0.0674349099179905,-0.1780528951975329,-0.03203722724012713
-3.957,0.05676473506030786,-0.2310360872233701,0.0208781598141185
-3.9565,0.08877525963335578,-0.2310360872233701,0.03146123722496762
-3.956,0.05676473506030786,-0.2204394488182027,0.03146123722496762
-3.9555,0.02475421048725994,-0.1886495336027004,0.03146123722496762
-3.955,-0.01792648894347063,-0.1568596183871981,0.01029508240326937
-3.9545,-0.1459685872356623,-0.06148987274069118,-0.01087107241842888
-3.954,-0.690147504977477,0.3729723018711736,-0.03203722724012713
-3.9535,-1.351698346153801,0.8286277532933731,-0.04262030465097626
-3.953,-1.703814116457328,0.8922075837243778,-0.05320338206182537
