Class_12_Wrist_move/Class_12_Wrist_move_SH_1.csv

#Digilent WaveForms Oscilloscope Acquisition
#Device Name: EExplorer
#Serial Number: SN:210151A2B84A
#Date Time: 2021-01-28 12:59:15.752
#Sample rate: 2000Hz
#Samples: 16384
#Trigger: Source: Channel 1 Type: Edge Condition: Rising Level: 0 V Hyst.: Auto HoldOff: 0 s
#Channel 1: Range: 1 V/div Offset: 0 V Attenuation: 1 X
#Channel 2: Range: 1 V/div Offset: 0 V Attenuation: 1 X
#Power Supplies: ON
#Fixed Supply: ON
#Voltage: 3.3 V Readback: 3.325 V
#Positive Supply: ON
#Voltage: 3.7 V Readback: 3.71 V
#Current: 40 mA Readback: 18 mA
#Negative Supply: ON
#Voltage: -3.7 V Readback: -3.711 V
#Current: -40 mA Readback: -9 mA
#Reference 1: ON
#Voltage: 0 V
#Reference 2: ON
#Voltage: 0 V

Time (s),Channel 1 (V),Channel 2 (V)
-4.096,-0.9248913518464952,-0.8880276683437509
-4.0955,-0.1779791118093895,-0.3264058328703878
-4.095,0.3235191065026359,0.04447651131118554
-4.0945,0.6116138276598051,0.2670059178194992
-4.094,0.7183155762365345,0.3199891098452882
-4.0935,0.7183155762366704,0.277602556224792
-4.093,0.7609962756673623,0.4153588554918433
-4.0925,0.7289857510943434,0.4577454091124745
-4.092,0.6542945270904679,0.3729723018710868
-4.0915,0.5796033030867573,0.2776025562246667
-4.091,0.5155822539406614,0.2246193641988295
-4.0905,0.5689331282295792,0.2670059178197691
-4.09,1.123782220828572,0.5637117931641874
-4.0895,1.411876941986003,0.3729723018711736
-4.089,0.5796033030875143,-0.3687923864898721
-4.0885,-0.4340633083930936,-0.7608680074817418
-4.088,-1.319687821580753,-1.131750351662602
-4.0875,-1.383708870726791,-0.9622041371800771
-4.087,-0.8715404775575579,-0.315809194464112
-4.0865,-0.2953510352432193,0.3411823866556712
-4.086,0.1314559590636982,0.8180311148877721
-4.0855,0.3875401556485765,1.104140351827842
-4.085,0.5049120790829789,1.231300012689736
-4.0845,0.5369226036559975,1.263089927905209
-4.084,0.5155822539405934,1.220703374284472
-4.0835,0.4408910299368829,1.114736990232894
-4.083,0.3982103305061524,1.00877060618122
-4.0825,0.3555296310751015,0.8922075837239345
-4.082,0.00341386077189465,0.4047622170866759
-4.0815,-0.6794773301197943,-0.4641621321370536
-4.081,-1.255666772434133,-1.227120097308415
-4.0805,-1.543761493592088,-1.746355379162313
-4.08,-1.020922925565639,-1.449649503817625
-4.0795,-0.3273615598168981,-0.6972881770514214
-4.079,0.2168173579258289,-0.1356663415766608
-4.0785,0.5262524287983441,0.08686306493165288
-4.078,0.6863050516634382,0.1716361721729152
-4.0775,0.7183155762366025,0.203426087388485
-4.077,0.6863050516635838,0.1928294489833272
-4.0765,0.7716664505249672,0.203426087388485
-4.076,0.9637295979632839,0.2140227257936717
-4.0755,0.9103787236749192,0.2246193641988295
-4.075,0.7609962756673623,0.2352160026039969
-4.0745,0.6222840025174102,0.2670059178195378
-4.074,0.5369226036560266,0.309392471440169
-4.0735,0.1848068333524996,-0.02969995752518888
-4.073,-0.5941159312576249,-0.750271369075919
-4.0725,-1.330357996438436,-1.396666311791788
-4.072,-1.735824641030376,-1.809935209593318
-4.0715,-2.013249187329873,-1.915901593644896
-4.071,-1.543761493591399,-1.26950665092893
-4.0705,-0.7861790786966207,-0.3370024712750445
-4.07,-0.1459685872362446,0.4365521323014746
-4.0695,0.2594980573564721,0.9239974989401113
-4.069,0.4729015545099309,1.178316820663898
-4.0685,0.5475927785137094,1.241896651094903
-4.068,0.5475927785136899,1.220703374284491
-4.0675,0.5262524287983441,1.135930267043229
-4.067,0.4835717293676135,1.029963882991555
-4.0665,0.440891029936815,0.8922075837242236
-4.066,0.3661998059331045,0.7226613692416989
-4.0655,0.08877525963335578,0.3517790250608387
-4.065,-0.6474668055460769,-0.4641621321363115
-4.0645,-1.26633694729234,-1.258910012524611
-4.064,-1.67180359188428,-1.820531847998485
-4.0635,-1.394379045584784,-1.439052865412804
-4.063,-0.6688071552615198,-0.6125150698088772
-4.0625,-0.01792648894347063,-0.04029659593035631
-4.062,0.4088805053634468,0.2246193641985886
-4.0615,0.643624352232921,0.3305857482505328
-4.061,0.7183155762366316,0.3623756634660061
-4.0605,0.707645401378949,0.3411823866556712
-4.06,0.6542945270905358,0.3411823866558255
-4.0595,0.6542945270905358,0.5107286011383502
-4.059,0.6222840025174878,0.5107286011383502
-4.0585,0.5689331282291231,0.4365521323022456
-4.058,0.5262524287983441,0.3729723018711736
-4.0575,0.4942419042252961,0.3623756634660061
-4.057,0.6756348768057361,0.6060983467846355
-4.0565,1.294505018551494,1.231300012689736
-4.056,1.209143619690033,1.305476481525908
-4.0555,0.2061471830687771,0.4471487707081262
-4.055,-0.8928808272739712,-0.5277419625685594
-4.0545,-1.46907026958831,-1.078767159636765
-4.054,-1.159635198715795,-0.7608680074820309
-4.0535,-0.583445756400175,-0.1250697031711561
-4.053,-0.06060718837420119,0.4683420475176805
-4.0525,0.2808384070716433,0.8922075837243778
-4.052,0.4515612047946335,1.157123543853679
-4.0515,0.5262524287983441,1.284283204715573
-4.051,0.5262524287983441,1.316073119931075
-4.0505,0.4942419042253252,1.29487984312076
-4.05,0.4408910299368829,1.231300012689736
-4.0495,0.3982103305061524,1.146526905448396
-4.049,0.291508581929423,0.9663840525607137
-4.0485,-0.3060212101016201,0.2881991946290149
-4.048,-1.095614149569417,-0.6125150698093976
-4.0475,-1.703814116456775,-1.375473034980759
-4.047,-1.6824737667414,-1.534422611058473
-4.0465,-1.06360362499637,-0.9939940523954253
-4.046,-0.3273615598169368,-0.4641621321375354
-4.0455,0.2381577076412136,-0.04029659593013465
-4.045,0.5689331282290746,0.2034260873884947
-4.0445,0.7183155762366316,0.2564092794143318
-4.044,0.7396559259519677,0.1822328105780827
-4.0435,0.707645401378949,0.09745970333682032
-4.043,0.8036769750980928,0.1822328105781598
-4.0425,0.8143471499557656,0.2246193641987909
-4.042,0.7183155762366316,0.1716361721729923
-4.0415,0.6116138276598051,0.1292496185523226
-4.041,0.5369226036560946,0.1292496185523226
-4.0405,0.536922603656444,0.1610395337679406
-4.04,0.9957401225363802,0.2881991946298341
-4.0395,1.219813794547512,-0.07208651114553094
-4.039,0.3555296310744416,-0.8032545611029801
-4.0385,-0.722158029550525,-1.42845622700729
-4.038,-1.351698346153228,-1.640388995110446
-4.0375,-1.138294848999653,-1.015187329204979
-4.037,-0.5941159312583333,-0.1568596183871981
-4.0365,-0.09261771294724913,0.5637117931641874
-4.036,0.2488278824987701,1.019367244586609
-4.0355,0.4408910299368829,1.263089927905238
-4.035,0.5049120790829789,1.358459673551745
-4.0345,0.5155822539406517,1.347863035146587
-4.034,0.4942419042252961,1.284283204715573
-4.0335,0.4729015545099309,1.199510097474233
-4.033,0.451561204794585,1.104140351827813
-4.0325,0.3982103305058516,0.9451907757497331
-4.032,0.0674349099179905,0.4153588554918433
-4.0315,-0.6794773301191149,-0.4959520473517272
-4.031,-1.426389570158055,-1.333086481361236
-4.0305,-1.949228138184029,-1.831128486403653
-4.03,-1.543761493592457,-1.407262950197341
-4.0295,-0.764838728980615,-0.8244478379123512
-4.029,-0.06060718837420119,-0.3899856633008816
-4.0285,0.4195506802215176,-0.06148987274069118
-4.028,0.654294527090594,0.0550731497161795
-4.0275,0.7183155762366316,0.08686306493165288
-4.027,0.6969752265212663,0.08686306493165288
-4.0265,0.6756348768059205,0.1610395337677575
-4.026,0.6863050516635838,0.2776025562246667
-4.0255,0.6329541773751706,0.2776025562246667
-4.025,0.5689331282291328,0.2458126410091933
-4.0245,0.526252428798315,0.2352160026040162
-4.024,0.4942419042252961,0.2564092794143318
-4.0235,0.3448594562178751,0.002089957690544708
-4.023,0.05676473505972559,-0.6972881770513444
-4.0225,-0.5834457564006506,-1.364876396576285
-4.022,-1.095614149568952,-1.714565463946493
-4.0215,-1.618452717595838,-1.852321763213602
-4.021,-1.586442193022819,-1.42845622700729
-4.0205,-0.9782422261349084,-0.5489352393783931
-4.02,-0.3487019095312055,0.26700591782001
-4.0195,0.1207857842064037,0.8286277532933731
-4.019,0.3875401556484697,1.125333628638062
-4.0185,0.5049120790828721,1.252493289499955
-4.018,0.5369226036560266,1.25249328950007
-4.0175,0.5155822539406614,1.188913459069066
-4.017,0.4622313796522967,1.061753798207173
-4.0165,0.3875401556484212,0.9134008605345681
-4.016,0.3341892813600565,0.7544512844572011
-4.0155,0.1314559590642707,0.4259554938973095
-4.015,-0.5514352318282433,-0.3370024712757865
-4.0145,-1.255666772434657,-1.152943628472937
-4.014,-1.789175515318304,-1.767548655972089
-4.0135,-1.629122892452899,-1.640388995110118
-4.013,-0.9142211769888124,-1.068170521231597
-4.0125,-0.1886492866663929,-0.4535654937318862
-4.012,0.3341892813603088,0.06566978812158787
-4.0115,0.6116138276598051,0.3623756634660061
-4.011,0.707645401378949,0.4259554938970107
-4.0105,0.707645401378949,0.3835689402763796
-4.01,0.6863050516635838,0.3411823866556712
-4.0095,0.8036769750980928,0.5001319627331828
-4.009,0.782336625382747,0.5001319627331828
-4.0085,0.6863050516634964,0.4153588554917759
-4.008,0.5902734779444399,0.3411823866556712
-4.0075,0.5262524287984023,0.3093924714401979
-4.007,0.6329541773757335,0.4789386859233972
-4.0065,1.251824319120764,1.082947075017392
-4.006,1.699971663143435,1.633972272086098
-4.0055,1.091771696254466,1.199510097473221
-4.005,-0.07127736323188383,0.08686306493165288
-4.0045,-0.658136980404429,-0.5595318777835605
-4.004,-0.5727755815426672,-0.4005823017056346
-4.0035,-0.2420001609548061,0.05507314971615059
-4.003,0.07810508477567314,0.5213252395435176
-4.0025,0.3021787567868048,0.8710143069137248
-4.002,0.4302208550792003,1.104140351827727
-4.0015,0.4729015545099309,1.231300012689736
-4.001,0.4835717293676038,1.294879843120682
-4.0005,0.4515612047945365,1.294879843120711
-4,0.4195506802215176,1.263089927905238
-3.9995,0.3875401556484697,1.210106735879401
-3.999,0.3448594562177392,1.114736990232894
-3.9985,-0.1032878878049318,0.5107286011383502
-3.998,-0.8715404775580819,-0.3793890248957141
-3.9975,-1.458400094730627,-1.131750351662602
-3.997,-1.618452717595867,-1.311893204550448
-3.9965,-1.159635198715513,-0.6760949002404023
-3.996,-0.5087545323968721,-0.06148987274069118
-3.9955,0.04609456020262521,0.1822328105781598
-3.995,0.408880505363835,0.2246193641988295
-3.9945,0.6116138276598051,0.2246193641988295
-3.994,0.6649647019482183,0.2140227257936621
-3.9935,0.6542945270905358,0.1610395337678249
-3.993,0.7396559259519968,0.2352160026039969
-3.9925,0.7716664505250448,0.2564092794143318
-3.992,0.6969752265212663,0.1716361721729923
-3.9915,0.6116138276598051,0.08686306493165288
-3.991,0.5369226036560266,0.05507314971615059
-3.9905,0.5155822539406614,0.04447651131098315
-3.99,0.79300680024041,-0.1674562567923655
-3.9895,1.465227816274416,-0.6760949002404023
-3.989,1.347855892839907,-1.290699927740113
-3.9885,0.3875401556484697,-1.778145294377815
-3.988,-0.6367966306890638,-1.947691508860494
-3.9875,-0.839529952985034,-1.280103289334946
-3.987,-0.5407650569699201,-0.3475991096802118
-3.9865,-0.1459685872356623,0.4365521323021782
-3.986,0.1634664836371343,0.9557874141553824
-3.9855,0.3555296310754218,1.231300012689736
-3.985,0.4515612047945656,1.347863035146577
-3.9845,0.4835717293676135,1.358459673551745
-3.984,0.4515612047945656,1.284283204715573
-3.9835,0.408880505363835,1.178316820663898
-3.983,0.3768699807907871,1.072350436612224
-3.9825,0.3555296310754218,0.9557874141553824
-3.982,0.00341386077189465,0.5001319627331828
-3.9815,-0.7434983792658902,-0.400582301706049
-3.981,-1.383708870726849,-1.248313374119443
-3.9805,-1.863866739322568,-1.788741932782983
-3.98,-1.501080794161358,-1.42845622700729
-3.9795,-0.7648387289812555,-0.8562377531282487
-3.979,-0.1139580626626144,-0.4535654937318862
-3.9785,0.3555296310754218,-0.2098428104130352
-3.978,0.6116138276598051,-0.08268314955102604
-3.9775,0.707645401378949,-0.08268314955102604
-3.977,0.6969752265212663,-0.05089323433552374
-3.9765,0.7183155762366316,-0.07208651114585861
-3.976,0.7716664505250448,-0.1568596183871981
-3.9755,0.707645401378949,-0.1038764263613609
-3.975,0.6116138276598051,0.01268659609548085
-3.9745,0.5369226036560266,0.13984625695749
-3.974,0.4835717293676135,0.2564092794143318
-3.9735,0.6969752265212663,0.4153588554918433
-3.973,1.251824319120764,0.383568940276341
-3.9725,0.9103787236749192,-0.3158091944647096
-3.972,0.02475421048725994,-1.078767159636765
-3.9715,-0.5194247072545548,-1.34368311976595
-3.971,-0.4767440078238243,-0.8244478379127463
-3.9705,-0.1993194615240755,-0.09327978795619347
-3.97,0.08877525963335578,0.5001319627331828
-3.9695,0.291508581929326,0.8922075837243778
-3.969,0.408880505363835,1.093543713422559
-3.9685,0.4515612047945656,1.167720182258731
-3.968,0.4622313796522482,1.167720182258731
-3.9675,0.4515612047945656,1.125333628638062
-3.967,0.408880505363835,1.029963882991555
-3.9665,0.3768699807907871,0.9134008605347127
-3.966,0.3448594562177392,0.8074344764830383
-3.9655,0.2168173579255475,0.55311515475902
-3.965,-0.3273615598162672,-0.1356663415768632
-3.9645,-1.031593100423322,-0.9622041371799229
-3.964,-1.597112367880501,-1.629792356705471
-3.9635,-1.426389570157579,-1.449649503817625
-3.963,-0.754168554123573,-0.7714646458869092
-3.9625,-0.124628237520297,-0.2416327256285375
-3.962,0.3448594562177392,0.1292496185523226
-3.9615,0.6009436528021226,0.3411823866556712
-3.961,0.6756348768059011,0.3623756634660061
-3.9605,0.6649647019482183,0.2458126410091644
-3.96,0.6329541773751706,0.1716361721729923
-3.9595,0.7503261008096795,0.2987958330350016
-3.959,0.7609962756673623,0.3623756634660061
-3.9585,0.6863050516635838,0.3411823866556712
-3.958,0.5902734779444399,0.3305857482505039
-3.9575,0.5155822539406614,0.3411823866556712
-3.957,0.3448594562177392,0.2140227257936621
-3.9565,-0.2846808603855366,-0.4217755785163839
-3.956,-1.084943974711735,-1.152943628472937
-3.9555,-1.767835165603424,-1.682775548731308
-3.955,-2.173301810195364,-1.905304955239825
-3.9545,-1.682473766741963,-1.354279758171118
-3.954,-0.8928808272734472,-0.4323722169215513
-3.9535,-0.2206598112394408,0.3623756634660061
-3.953,0.2061471830678648,0.8710143069140429
-3.9525,0.4302208550792003,1.146526905448396
-3.952,0.5155822539406614,1.231300012689736
-3.9515,0.5155822539406614,1.210106735879401
-3.951,0.4942419042252961,1.135930267043229
-3.9505,0.4515612047945656,1.019367244586387
-3.95,0.3982103305061524,0.8710143069140429
-3.9495,0.3235191065023739,0.6908714540261965
-3.949,0.1634664836371343,0.3729723018711736
-3.9485,-0.1886492866663929,-0.07208651114585861
-3.948,-0.8608703027003992,-0.8350444763179138
-3.9475,-1.554431668449771,-1.523825972653797
-3.947,-2.087940411333903,-2.011271339291499
-3.9465,-1.821186039891837,-1.725162102351978
-3.946,-1.010252750707956,-0.9728007755850904
-3.9455,-0.2313299860971235,-0.3793890248957141
-3.945,0.3021787567870086,0.03387987290581572
-3.9445,0.6009436528021226,0.1928294489833272
-3.944,0.707645401378949,0.1716361721729923
-3.9435,0.707645401378949,0.1080563417419877
-3.943,0.79300680024041,0.1292496185523226
-3.9425,0.8036769750980928,0.13984625695749
-3.942,0.707645401378949,0.1292496185523226
-3.9415,0.5902734779444399,0.1292496185523226
-3.941,0.5155822539406614,0.13984625695749
-3.9405,0.4408910299368829,0.08686306493165288
-3.94,0.08877525963335578,-0.4429688553267188
-3.9395,-0.6154562809736985,-1.152943628472937
-3.939,-1.415719395299897,-1.725162102351978
-3.9385,-1.991908837614759,-1.990078062481164
-3.938,-2.333354433060604,-1.958288147265661
-3.9375,-1.714484291315011,-1.227120097309109
-3.937,-0.8715404775580819,-0.3052125560595421
-3.9365,-0.1886492866663929,0.4259554938970107
-3.936,0.2381577076409128,0.8816109453192104
-3.9355,0.4515612047945656,1.104140351827727
-3.935,0.5262524287983441,1.167720182258731
-3.9345,0.5262524287983441,1.135930267043229
-3.934,0.4942419042252961,1.061753798207057
-3.9335,0.4408910299368829,0.9451907757502149
-3.933,0.3661998059331045,0.7862411996727035
-3.9325,0.2701682322139607,0.6060983467848571
-3.932,-0.03926683865883591,0.2140227257936621
-3.9315,-0.8181896032696687,-0.5913217929990628
-3.931,-1.490410619303675,-1.364876396576285
-3.9305,-1.714484291315011,-1.831128486403653
-3.93,-1.170305373573196,-1.290699927740113
-3.9295,-0.4020527838200457,-0.5171453241628908
-3.929,0.1848068333524996,-0.02969995752518888
-3.9285,0.5155822539406614,0.1610395337678249
-3.928,0.6649647019482183,0.1716361721729923
-3.9275,0.6863050516635838,0.13984625695749
-3.927,0.6649647019482183,0.1504428953626575
-3.9265,0.6756348768059011,0.1080563417419877
-3.926,0.7289857510943143,-0.01910331912002144
-3.9255,0.6863050516635838,0.02328323450064829
-3.925,0.6009436528021226,0.1292496185523226
-3.9245,0.5262524287983441,0.2458126410091644
-3.924,0.4729015545099309,0.3517790250608387
-3.9235,0.3448594562177392,0.2987958330350016
-3.923,0.2594980573562781,0.06566978812131802
-3.9225,-0.1673089369510276,-0.6019184314042303
-3.922,-0.9248913518464952,-1.269506650929778
-3.9215,-1.287677297007705,-1.629792356705471
-3.921,-1.010252750707956,-1.174136905283272
-3.9205,-0.4874141826815069,-0.3793890248957141
-3.92,-0.02859666380115328,0.3199891098453364
-3.9195,0.2701682322139607,0.7862411996727035
-3.919,0.4302208550792003,1.019367244586387
-3.9185,0.4942419042252961,1.114736990232894
-3.918,0.4942419042252961,1.104140351827727
-3.9175,0.4729015545099309,1.040560521396722
-3.917,0.408880505363835,0.92399749893988
-3.9165,0.3661998059331045,0.8074344764830383
-3.916,0.3661998059331045,0.7332580076468663
-3.9155,0.291508581929326,0.55311515475902
-3.915,-0.274010685527854,-0.1462629799820306
-3.9145,-1.031593100423322,-0.9939940523954253
-3.914,-1.639793067311232,-1.672178910326141
-3.9135,-1.853196564464885,-1.894708316834657
-3.913,-1.277007122150022,-1.227120097309109
-3.9125,-0.5087545323968721,-0.4853554089473885
-3.912,0.1101156093487211,0.04447651131098315
-3.9115,0.5049120790829789,0.3517790250608387
-3.911,0.6756348768059011,0.4153588554918433
-3.9105,0.6969752265212663,0.3305857482505039
-3.91,0.6756348768059011,0.2352160026039969
-3.9095,0.7503261008096795,0.06566978812131802
-3.909,0.7183155762366316,0.06566978812131802
-3.9085,0.6329541773751706,0.13984625695749
-3.908,0.5582629533713921,0.2246193641988295
-3.9075,0.5049120790829789,0.3199891098453364
-3.907,0.3982103305061524,0.2564092794143318
-3.9065,-0.1779791118087102,-0.3475991096802118
-3.906,-0.9355615267041777,-1.121153713257435
-3.9055,-1.586442193022819,-1.714565463946811
-3.905,-2.023919362187807,-2.074851169722503
-3.9045,-1.87453691418025,-1.809935209593318
-3.904,-1.138294849000148,-0.9198175835592532
-3.9035,-0.423393133535411,-0.07208651114585861
-3.903,0.08877525963335578,0.5319218779486851
-3.9025,0.3768699807907871,0.8604176685088755
-3.902,0.5049120790829789,0.9981739677760521
-3.9015,0.5262524287983441,1.019367244586387
-3.901,0.5155822539406614,0.9663840525605498
-3.9005,0.4729015545099309,0.8816109453192104
-3.9,0.4195506802215176,0.775644561267536
-3.8995,0.3768699807907871,0.6696781772158616
-3.899,0.3128489316446912,0.5319218779486851
-3.8985,-0.2420001609548061,-0.04029659593035631
-3.898,-0.9675720512772257,-0.8456411147230812
-3.8975,-1.565101843307454,-1.502632695843462
-3.897,-2.023919362187807,-1.894708316834657
-3.8965,-1.607782542738184,-1.460246142222792
-3.896,-0.7648387289812555,-0.8138511995075789
-3.8955,-0.04993701351651855,-0.2204394488182027
-3.895,0.3875401556484697,0.1504428953626575
-3.8945,0.6009436528021226,0.3199891098453364
-3.894,0.6756348768059011,0.3305857482505039
-3.8935,0.6542945270905358,0.2987958330350016
-3.893,0.7289857510943143,0.4471487707073456
-3.8925,0.7716664505250448,0.5743084315693548
-3.892,0.6969752265212663,0.5213252395435176
-3.8915,0.6222840025174878,0.4365521323021782
-3.891,0.5582629533713921,0.3729723018711736
-3.8905,0.5475927785137094,0.3517790250608387
-3.89,0.974399772821015,0.3729723018711736
-3.8895,1.646620788855021,0.13984625695749
-3.889,1.443887466559051,-0.5595318777835605
-3.8885,0.4302208550792003,-1.269506650929778
-3.888,-0.690147504977477,-1.735758740757146
-3.8875,-0.9995825758502737,-1.396666311791788
-3.887,-0.7008176798351597,-0.6019184314042303
-3.8865,-0.2526703358124887,0.13984625695749
-3.886,0.09944543449103843,0.6484849004055269
-3.8855,0.3341892813600565,0.9345941373450475
