Class_12_Wrist_move/Class_12_Wrist_move_Souku_3.csv

#Digilent WaveForms Oscilloscope Acquisition
#Device Name: EExplorer
#Serial Number: SN:210151A2B84A
#Date Time: 2021-02-03 11:40:16.352
#Sample rate: 2000Hz
#Samples: 16384
#Trigger: Source: Channel 1 Type: Edge Condition: Rising Level: 0 V Hyst.: Auto HoldOff: 0 s
#Channel 1: Range: 1 V/div Offset: 0 V Attenuation: 1 X
#Channel 2: Range: 1 V/div Offset: 0 V Attenuation: 1 X
#Power Supplies: ON
#Fixed Supply: ON
#Voltage: 3.3 V Readback: 3.325 V
#Positive Supply: ON
#Voltage: 3.7 V Readback: 3.715 V
#Current: 40 mA Readback: 19 mA
#Negative Supply: ON
#Voltage: -3.7 V Readback: -3.352 V
#Current: -40 mA Readback: -9 mA
#Reference 1: ON
#Voltage: 0 V
#Reference 2: ON
#Voltage: 0 V

Time (s),Channel 1 (V),Channel 2 (V)
-4.096,-0.07127736323188383,0.8710143069140429
-4.0955,-0.7755089038382977,0.03387987290657712
-4.095,-1.14896502385784,-0.8244478379130933
-4.0945,-1.159635198715513,-1.205926820498774
-4.094,-0.5514352318281559,-0.8350444763182512
-4.0935,0.1848068333529751,-0.5171453241627848
-4.093,0.707645401378949,-0.400582301706049
-4.0925,0.9423892482477535,-0.4111789401112068
-4.092,0.9530594231055624,-0.5489352393785183
-4.0915,0.857027849386506,-0.6866915386455698
-4.091,0.7716664505250448,-0.8138511995075789
-4.0905,0.8783681991018422,-0.9622041371798266
-4.09,0.8463576745288233,-0.8562377531282487
-4.0895,0.707645401378949,-0.6125150698093976
-4.089,0.5796033030868738,-0.337002471275295
-4.0885,0.5582629533713921,-0.1886495336027004
-4.088,0.6222840025174878,-0.2098428104130352
-4.0875,0.3661998059333374,-0.5171453241626114
-4.087,-0.3166913849591668,-0.9939940523957626
-4.0865,-0.9569018764195432,-1.364876396576285
-4.086,-1.501080794160863,-1.513229334248495
-4.0855,-2.045259711903376,-1.439052865412303
-4.085,-2.269333383914508,-1.269506650929778
-4.0845,-2.151961460480106,-0.9410108603698869
-4.084,-1.319687821580044,-0.1780528951967908
-4.0835,-0.5407650569699201,0.6378882620003594
-4.083,0.00341386077189465,1.220703374284568
-4.0825,0.312848931644798,1.538602526439678
-4.082,0.4302208550792003,1.633972272086098
-4.0815,0.4515612047945656,1.580989080060261
-4.081,0.4088805053638738,1.453829419198368
-4.0805,0.3555296310754218,1.273686566310405
-4.08,0.3128489316446912,1.082947075017392
-4.0795,0.1101156093489054,0.7968378380781311
-4.079,-0.5194247072551177,0.06566978812055665
-4.0785,-1.138294849000148,-0.7714646458869092
-4.078,-1.511750969018701,-1.311893204549957
-4.0775,-0.9462317015610646,-0.8032545611018814
-4.077,-0.07127736323188383,-0.2204394488182027
-4.0765,0.6009436528015112,0.05507314971589999
-4.076,0.9317190733903524,0.05507314971595784
-4.0755,1.006410297394063,-0.1568596183871981
-4.075,0.9210488985326017,-0.4323722169215513
-4.0745,0.7823366253828051,-0.6654982618351096
-4.074,0.8676980242441885,-0.5277419625680583
-4.0735,0.9317190733902845,-0.3158091944647096
-4.073,0.8143471499558821,-0.2946159176543939
-4.0725,0.6542945270905358,-0.2840192792492073
-4.072,0.5262524287983441,-0.2416327256285375
-4.0715,0.4515612047946335,-0.114473064766644
-4.071,0.5475927785140005,-0.1356663415772005
-4.0705,0.8676980242441885,-0.5065486857577234
-4.07,0.4195506802219252,-0.9622041371795085
-4.0695,-0.4127229586784853,-1.248313374119492
-4.069,-1.244996597576974,-1.301296566145281
-4.0685,-1.991908837614759,-1.174136905283272
-4.068,-2.215982509625503,-0.9092209451534498
-4.0675,-1.565101843307454,-0.2098428104130352
-4.067,-0.7434983792658902,0.6590815388106942
-4.0665,-0.13529841237764,1.347863035146944
-4.066,0.2381577076409128,1.75053529454294
-4.0655,0.408880505363835,1.898888232215284
-4.065,0.4195506802215079,1.877694955404968
-4.0645,0.3875401556484697,1.75053529454294
-4.064,0.3555296310754218,1.580989080060261
-4.0635,0.31284893164473,1.369056311957105
-4.063,0.2274875327827643,1.135930267042708
-4.0625,-0.2846808603855366,0.5637117931641874
-4.062,-0.9248913518459129,-0.3370024712742252
-4.0615,-1.458400094730559,-1.099960436447148
-4.061,-1.383708870726849,-1.152943628472937
-4.0605,-0.5834457564006506,-0.7714646458869092
-4.06,0.1954770082106577,-0.4323722169214357
-4.0595,0.7183155762366316,-0.3052125560595421
-4.059,0.942389248247967,-0.3793890248957141
-4.0585,0.9530594231056401,-0.5807251545937123
-4.058,0.8676980242441885,-0.718481453861072
-4.0575,0.8463576745288233,-0.8986243067489184
-4.057,0.9530594231055527,-1.03638060601597
-4.0565,0.857027849386506,-0.8668343915334161
-4.056,0.6969752265212663,-0.5807251545938954
-4.0555,0.5582629533715182,-0.2946159176546349
-4.055,0.4622313796522482,-0.01910331911980942
-4.0545,0.4622313796522482,0.2140227257936621
-4.054,0.5475927785136318,0.267005917819451
-4.0535,0.04609456020191679,-0.1780528951979859
-4.053,-0.7328282044082075,-0.6760949002404023
-4.0525,-1.415719395299897,-0.9622041371799229
-4.052,-2.055929886761049,-1.078767159636736
-4.0515,-2.269333383914508,-1.046977244421262
-4.051,-1.927887788468663,-0.6549016234300674
-4.0505,-1.031593100424137,0.1398462569567671
-4.05,-0.3273615598162672,0.8710143069140429
-4.0495,0.1314559590640864,1.358459673551745
-4.049,0.3768699807905639,1.580989080060058
-4.0485,0.4408910299368635,1.602182356870509
-4.048,0.4195506802215176,1.506812611224089
-4.0475,0.3448594562178071,1.347863035146722
-4.047,0.2594980573561907,1.167720182258577
-4.0465,0.1634664836371343,0.9981739677760521
-4.046,-0.1032878878046891,0.6060983467852137
-4.0455,-0.7008176798354994,-0.199246172008581
-4.045,-1.074273799854052,-0.9833974139902578
-4.0445,-1.06360362499637,-1.311893204550448
-4.044,-0.3913826089617226,-0.856237753127786
-4.0435,0.3128489316446912,-0.3475991096802118
-4.043,0.79300680024041,-0.1250697031716958
-4.0425,0.9957401225361958,-0.1462629799820114
-4.042,0.9637295979633325,-0.326405832869877
-4.0415,0.8356874996711408,-0.5171453241628908
-4.041,0.7396559259520842,-0.6019184314041532
-4.0405,0.8250173248134386,-0.3793890248956178
-4.04,0.8036769750980928,-0.2734226408440398
-4.0395,0.6969752265213633,-0.262826002438882
-4.039,0.6009436528020352,-0.231036087223293
-4.0385,0.5049120790829789,-0.1462629799820306
-4.038,0.4515612047946141,0.01268659609533629
-4.0375,0.7396559259520162,0.2352160026038331
-4.037,0.7609962756673623,0.05507314971615059
-4.0365,0.1207857842064037,-0.4535654937318862
-4.036,-0.7328282044089256,-0.8350444763180777
-4.0355,-1.522421143876723,-1.01518732920576
-4.035,-2.173301810195364,-1.004590690800593
-4.0345,-2.141291285622346,-0.7502713690768057
-4.034,-1.351698346153801,-0.008506680714854012
-4.0335,-0.572775581542968,0.8180311148882058
-4.033,-0.01792648894397519,1.4220395039822
-4.0325,0.3021787567871348,1.750535294543027
-4.032,0.4408910299368829,1.845905040189447
-4.0315,0.4515612047945559,1.792921848163658
-4.031,0.4088805053638156,1.644568910491082
-4.0305,0.3875401556484697,1.443232780793084
-4.03,0.344859456217778,1.231300012689928
-4.0295,0.07810508477511999,0.9557874141546885
-4.029,-0.5300948821122373,0.1928294489833272
-4.0285,-1.084943974711735,-0.6866915386455698
-4.028,-1.405049220441855,-1.290699927740007
-4.0275,-1.010252750707956,-1.174136905283272
-4.027,-0.2206598112394408,-0.8562377531282487
-4.0265,0.4408910299362813,-0.6231117082147771
-4.026,0.8356874996711408,-0.5277419625680583
-4.0255,0.9317190733902845,-0.5595318777835605
-4.025,0.8676980242442467,-0.6972881770506119
-4.0245,0.7396559259520453,-0.8350444763180198
-4.024,0.79300680024041,-0.9516074987747555
-4.0235,0.8356874996711019,-0.93041422196444
-4.023,0.7396559259518803,-0.7184814538608311
-4.0225,0.6116138276598051,-0.4535654937318862
-4.022,0.5582629533714406,-0.1992461720080991
-4.0215,0.5262524287985091,0.03387987290618195
-4.021,0.707645401378949,0.4365521323021782
-4.0205,0.9210488985326017,1.104140351827727
-4.02,0.2701682322132232,1.029963882990822
-4.0195,-0.5407650569699201,0.2246193641988295
-4.019,-1.30901764672307,-0.6019184314042303
-4.0185,-2.013249187329484,-1.13175035166212
-4.018,-2.258663209056825,-1.333086481360783
-4.0175,-1.799845690176472,-0.8668343915334161
-4.017,-0.924891351847291,-0.008506680715634651
-4.0165,-0.2526703358121005,0.7862411996731949
-4.016,0.1741366584948169,1.326669758336243
-4.0155,0.3875401556482756,1.612778995275503
-4.015,0.4408910299368732,1.718745379327418
-4.0145,0.4302208550792003,1.697552102517103
-4.014,0.4088805053638545,1.61277899527584
-4.0135,0.3768699807907192,1.475022696008403
-4.013,0.3021787567870086,1.273686566310405
-4.0125,-0.156638762093345,0.6166949851900245
-4.012,-0.4980843575393351,-0.2734226408446663
-4.0115,-0.658136980404429,-0.9622041371799229
-4.011,-0.5514352318276028,-1.152943628472937
-4.0105,-0.007256314086282911,-0.6231117082150469
-4.01,0.5262524287983441,-0.2098428104130352
-4.0095,0.8676980242441885,-0.05089323433552374
-4.009,0.9850699476785909,-0.1356663415767861
-4.0085,0.9423892482478796,-0.3687923864907588
-4.008,0.8463576745288233,-0.6019184314042303
-4.0075,0.8143471499558044,-0.7078848154558082
-4.007,0.9103787236748319,-0.7608680074817032
-4.0065,0.8143471499557753,-0.718481453861072
-4.006,0.6756348768059011,-0.6019184314042303
-4.0055,0.5689331282290164,-0.4535654937317224
-4.005,0.5049120790829789,-0.2734226408440398
-4.0045,0.5475927785137094,-0.01910331912002144
-4.004,1.006410297394034,0.3517790250606266
-4.0035,0.974399772821015,0.1186529801471552
-4.003,0.2274875327832301,-0.4535654937318862
-4.0025,-0.7328282044073341,-0.930414221963987
-4.002,-1.575772018165136,-1.152943628472937
-4.0015,-2.205312334768412,-1.142346990067769
-4.001,-1.938557963326589,-0.7184814538614575
-4.0005,-1.084943974711094,0.1292496185530454
-4,-0.3807124341046804,0.92399749893988
-3.9995,0.09944543449103843,1.464426057603419
-3.999,0.3555296310754218,1.739938656137773
-3.9985,0.4408910299368829,1.814115124973944
-3.998,0.4195506802215176,1.761131932948107
-3.9975,0.3555296310754218,1.623375633680931
-3.997,0.2808384070716433,1.453829419198252
-3.9965,0.2488278824985954,1.25249328950007
-3.996,0.01408403562957729,0.9557874141553824
-3.9955,-0.5514352318276028,0.2881991946298341
-3.995,-1.074273799854052,-0.570128516188728
-3.9945,-1.127624674142465,-1.036380606016095
-3.994,-0.4554036581084589,-0.6019184314042303
-3.9935,0.2701682322139607,-0.2628260024388724
-3.993,0.7609962756673623,-0.1886495336027004
-3.9925,0.9850699476786977,-0.2734226408440398
-3.992,0.9850699476786977,-0.4429688553267188
-3.9915,0.8783681991018712,-0.6125150698093976
-3.991,0.7609962756673623,-0.6972881770507372
-3.9905,0.825017324813458,-0.8244478379127463
-3.99,0.7716664505250448,-0.7608680074817418
-3.9895,0.6436243522328531,-0.570128516188728
-3.989,0.5369226036560266,-0.326405832869877
-3.9885,0.4729015545099309,-0.09327978795619347
-3.988,0.4942419042252961,0.1186529801471552
-3.9875,0.9317190733902845,0.2776025562246667
-3.987,0.9637295979633325,0.04447651131098315
-3.9865,0.2488278824985954,-0.4959520473525559
-3.986,-0.6367966306890638,-0.9092209451540858
-3.9855,-1.437059745015262,-1.121153713257435
-3.985,-2.119950935906951,-1.142346990067769
-3.9845,-2.098610586191586,-0.8880276683437509
-3.984,-1.287677297007705,-0.1462629799820306
-3.9835,-0.5407650569699201,0.6484849004055269
-3.983,0.00341386077189465,1.210106735879401
-3.9825,0.3021787567870086,1.506812611224089
-3.982,0.4195506802215176,1.591585718465428
-3.9815,0.408880505363835,1.538602526439591
-3.981,0.3768699807907871,1.390249588767247
-3.9805,0.3341892813600565,1.220703374284568
-3.98,0.3021787567870086,1.029963882991555
-3.9795,0.1207857842064037,0.7544512844572011
-3.979,-0.4660738329661415,0.08686306493165288
-3.9785,-1.010252750707956,-0.7078848154559045
-3.978,-1.330357996438436,-1.301296566145281
-3.9775,-1.031593100423322,-1.184733543688439
-3.977,-0.274010685527854,-0.7290780922662394
-3.9765,0.3768699807907871,-0.3581957480853793
-3.976,0.7716664505250448,-0.2310360872233701
-3.9755,0.9210488985326017,-0.2946159176543747
-3.975,0.8890383739595538,-0.4323722169215513
-3.9745,0.7609962756673623,-0.5595318777835605
-3.974,0.8463576745288233,-0.7502713690765743
-3.9735,0.9103787236749192,-0.792657922697244
-3.973,0.79300680024041,-0.6019184314042303
-3.9725,0.6329541773751706,-0.3370024712750445
-3.972,0.5262524287983441,-0.08268314955102604
-3.9715,0.4835717293676135,0.13984625695749
-3.971,0.8036769750980928,0.13984625695749
-3.9705,1.091771696255524,-0.2628260024388724
-3.97,0.4729015545099309,-0.7820612842920766
-3.9695,-0.423393133535411,-1.121153713257435
-3.969,-1.287677297007705,-1.280103289334946
-3.9685,-2.023919362187807,-1.258910012524611
-3.968,-2.045259711903173,-0.9833974139902578
-3.9675,-1.255666772434657,-0.2310360872233701
-3.967,-0.5300948821122373,0.55311515475902
-3.9665,0.00341386077189465,1.114736990232894
-3.966,0.3021787567870086,1.411442865577582
-3.9655,0.4195506802215176,1.496215972818921
-3.965,0.4195506802215176,1.443232780793084
-3.9645,0.3661998059331045,1.305476481525908
-3.964,0.3235191065023739,1.146526905448396
-3.9635,0.3021787567870086,0.9663840525605498
-3.963,0.2488278824985954,0.775644561267536
-3.9625,-0.03926683865883591,0.3199891098453364
-3.962,-0.5407650569699201,-0.400582301706049
-3.9615,-0.7648387289812555,-1.078767159636765
-3.961,-0.4447334832507763,-0.9410108603695881
-3.9605,0.2274875327832301,-0.2840192792492073
-3.96,0.7396559259519968,0.13984625695749
-3.9595,0.9957401225363802,0.1610395337678249
-3.959,1.017080472251745,-0.01910331912002144
-3.9585,0.9103787236749192,-0.2204394488182027
-3.958,0.7503261008096795,-0.3687923864905467
-3.9575,0.707645401378949,-0.5065486857577234
-3.957,0.825017324813458,-0.6337083466197325
-3.9565,0.7503261008096795,-0.4959520473525559
-3.956,0.6329541773751706,-0.2734226408440398
-3.9555,0.5262524287983441,-0.02969995752518888
-3.955,0.4408910299368829,0.2034260873884947
-3.9545,0.3875401556484697,0.309392471440169
-3.954,0.3661998059331045,0.04447651131098315
-3.9535,0.1741366584948169,-0.3687923864905467
-3.953,-0.3593720843893152,-0.6337083466197325
-3.9525,-0.8502001278427167,-0.4641621321370536
-3.952,-1.30901764672307,-0.4853554089473885
-3.9515,-1.821186039891837,-0.6019184314042303
-3.951,-1.927887788468663,-0.5595318777835605
-3.9505,-1.244996597576974,-0.01910331912002144
-3.95,-0.5407650569699201,0.6378882620003594
-3.9495,-0.02859666380115328,1.114736990232894
-3.949,0.2701682322139607,1.358459673551745
-3.9485,0.3982103305061524,1.400846227172415
-3.948,0.408880505363835,1.305476481525908
-3.9475,0.3768699807907871,1.146526905448396
-3.947,0.3661998059331045,0.9663840525605498
-3.9465,0.3128489316446912,0.775644561267536
-3.946,0.05676473506030786,0.4365521323021782
-3.9455,-0.5194247072545548,-0.1992461720078678
-3.945,-1.010252750707956,-0.9198175835592532
-3.9445,-1.223656247861609,-1.269506650929778
-3.944,-0.7008176798351597,-0.9198175835592532
-3.9435,0.03542438534494258,-0.570128516188728
-3.943,0.6009436528021226,-0.4111789401112165
-3.9425,0.8890383739595538,-0.4111789401112165
-3.942,0.9317190733902845,-0.4323722169215513
-3.9415,0.8676980242441885,-0.5171453241628908
-3.941,0.8143471499557753,-0.6231117082145651
-3.9405,0.9637295979633325,-0.7820612842920766
-3.94,0.9210488985326017,-0.7078848154559045
-3.9395,0.7503261008096795,-0.474758770542221
-3.939,0.5902734779444399,-0.2098428104130352
-3.9385,0.4729015545099309,0.03387987290581572
-3.938,0.4622313796522482,0.2670059178194992
-3.9375,0.8890383739595538,0.5425185163538525
-3.937,0.8783681991018712,0.383568940276341
-3.9365,0.08877525963335578,-0.2098428104130352
-3.936,-0.807519428411986,-0.718481453861072
-3.9355,-1.607782542738184,-1.01518732920576
-3.935,-2.226652684483777,-1.110557074852267
-3.9345,-2.205312334768412,-0.9516074987747555
-3.934,-1.437059745015262,-0.2734226408440398
-3.9335,-0.6367966306890638,0.5107286011383502
-3.933,-0.06060718837420119,1.082947075017392
-3.9325,0.2701682322139607,1.390249588767247
-3.932,0.408880505363835,1.475022696008586
-3.9315,0.408880505363835,1.42203950398275
-3.931,0.3555296310754218,1.273686566310405
-3.9305,0.3128489316446912,1.104140351827727
-3.93,0.291508581929326,0.9134008605347127
-3.9295,0.0674349099179905,0.6696781772158616
-3.929,-0.5407650569699201,0.04447651131098315
-3.9285,-1.159635198715513,-0.7502713690765743
-3.928,-1.586442193022819,-1.396666311791788
-3.9275,-1.298347471865388,-1.492036057438295
-3.927,-0.4554036581084589,-0.9410108603695881
-3.9265,0.291508581929326,-0.4217755785163839
-3.926,0.7609962756673623,-0.1886495336027004
-3.9255,0.9317190733902845,-0.2098428104130352
-3.925,0.8997085488172365,-0.3687923864905467
-3.9245,0.79300680024041,-0.4535654937318862
-3.924,0.8143471499557753,-0.400582301706049
-3.9235,0.8143471499557753,-0.2946159176543747
-3.923,0.6969752265212663,-0.2734226408440398
-3.9225,0.5796033030867573,-0.252229364033705
-3.922,0.4835717293676135,-0.1780528951975329
-3.9215,0.4302208550792003,-0.06148987274069118
-3.921,0.6969752265212663,0.1186529801471552
-3.9205,1.070431346540159,0.09745970333682032
-3.92,0.6116138276598051,-0.400582301706049
-3.9195,-0.2526703358124887,-0.8986243067489184
-3.919,-1.138294849000148,-1.205926820498774
-3.9185,-1.927887788468663,-1.280103289334946
-3.918,-2.173301810195364,-1.0999604364471
-3.9175,-1.46907026958831,-0.3793890248957141
-3.917,-0.690147504977477,0.4683420475176805
-3.9165,-0.1032878878049318,1.135930267043229
-3.916,0.2488278824985954,1.538602526439591
-3.9155,0.408880505363835,1.697552102517103
-3.915,0.4302208550792003,1.686955464111935
-3.9145,0.3875401556484697,1.591585718465428
-3.914,0.3235191065023739,1.443232780793084
-3.9135,0.2808384070716433,1.263089927905238
-3.913,0.142126133921769,1.061753798207057
-3.9125,-0.4020527838200457,0.4365521323021782
-3.912,-0.9782422261349084,-0.4641621321370536
-3.9115,-1.437059745015262,-1.205926820498774
-3.911,-1.212986073003927,-1.195330182093607
-3.9105,-0.4127229586777283,-0.7502713690765743
-3.91,0.3128489316446912,-0.474758770542221
-3.9095,0.7503261008096795,-0.3158091944647096
-3.909,0.9103787236749192,-0.3052125560595421
-3.9085,0.8890383739595538,-0.4217755785163839
-3.908,0.79300680024041,-0.6019184314042303
-3.9075,0.79300680024041,-0.570128516188728
-3.907,0.8890383739595538,-0.3793890248957141
-3.9065,0.79300680024041,-0.3370024712750445
-3.906,0.6436243522328531,-0.3370024712750445
-3.9055,0.5155822539406614,-0.2840192792492073
-3.905,0.4622313796522482,-0.1780528951975329
-3.9045,0.3875401556484697,-0.1356663415768632
-3.904,-0.1673089369510276,-0.5277419625680583
-3.9035,-0.7968492535543035,-1.004590690800593
-3.903,-1.180975548430879,-1.269506650929778
-3.9025,-1.575772018165136,-1.301296566145281
-3.902,-2.066600061618538,-1.184733543688439
-3.9015,-2.258663209056825,-0.9833974139902578
-3.901,-1.799845690176472,-0.4429688553267188
-3.9005,-0.9355615267041777,0.4047622170866759
-3.9,-0.274010685527854,1.146526905448396
-3.8995,0.1634664836371343,1.612778995275763
-3.899,0.3768699807907871,1.824711763379112
-3.8985,0.4515612047945656,1.835308401784279
-3.898,0.4515612047945656,1.729342017732605
-3.8975,0.4195506802215176,1.559795803249926
-3.897,0.3448594562177392,1.358459673551745
-3.8965,0.2274875327832301,1.178316820663898
-3.896,-0.2206598112394408,0.9028042221295453
-3.8955,-0.8502001278427167,0.2034260873884947
-3.895,-1.341028171296118,-0.6549016234300674
-3.8945,-1.351698346153801,-1.046977244421262
-3.894,-0.6474668055467465,-0.8350444763179138
-3.8935,0.1314559590640864,-0.4853554089473885
-3.893,0.6542945270905358,-0.2840192792492073
-3.8925,0.8997085488172365,-0.2628260024388724
-3.892,0.9103787236749192,-0.3899856633008816
-3.8915,0.825017324813458,-0.570128516188728
-3.891,0.7716664505250448,-0.6125150698093976
-3.8905,0.8997085488172365,-0.718481453861072
-3.89,0.8463576745288233,-0.6760949002404023
-3.8895,0.6969752265212663,-0.5171453241628908
-3.889,0.5582629533713921,-0.3158091944647096
-3.8885,0.4622313796522482,-0.1144730647665284
-3.888,0.4515612047945656,0.08686306493165288
-3.8875,0.7823366253827275,0.03387987290581572
-3.887,1.475897991132099,-0.400582301706049
-3.8865,1.294505018551494,-0.8774310299385835
-3.886,0.291508581929326,-1.163540266878104
