Class_12_Wrist_move/Class_12_Wrist_move_Basim_1.csv

#Digilent WaveForms Oscilloscope Acquisition
#Device Name: EExplorer
#Serial Number: SN:210151A2B84A
#Date Time: 2021-01-28 09:30:51.345
#Sample rate: 2000Hz
#Samples: 16384
#Trigger: Source: Channel 1 Type: Edge Condition: Rising Level: 0 V Hyst.: Auto HoldOff: 0 s
#Channel 1: Range: 1 V/div Offset: 0 V Attenuation: 1 X
#Channel 2: Range: 1 V/div Offset: 0 V Attenuation: 1 X
#Power Supplies: ON
#Fixed Supply: ON
#Voltage: 3.3 V Readback: 3.323 V
#Positive Supply: ON
#Voltage: 3.7 V Readback: 3.713 V
#Current: 40 mA Readback: 19 mA
#Negative Supply: ON
#Voltage: -3.7 V Readback: -3.344 V
#Current: -40 mA Readback: -7 mA
#Reference 1: ON
#Voltage: 0 V
#Reference 2: ON
#Voltage: 0 V

Time (s),Channel 1 (V),Channel 2 (V)
-4.096,-0.2099896363817582,0.7544512844572011
-4.0955,-0.9675720512765367,0.3835689402766784
-4.095,-1.575772018165408,-0.4005823017065791
-4.0945,-1.87453691418025,-0.9833974139902578
-4.094,-1.415719395300314,-0.9410108603696267
-4.0935,-0.7114878546923182,-0.4323722169210502
-4.093,-0.1352984123779797,0.1186529801471552
-4.0925,0.248827882498246,0.5531151547586248
-4.092,0.4408910299369412,0.8180311148883407
-4.0915,0.5049120790829789,0.9663840525605498
-4.091,0.5049120790829789,1.019367244586387
-4.0905,0.4835717293675941,1.019367244586358
-4.09,0.4622313796522482,0.9875773293708847
-4.0895,0.4408910299368829,0.9028042221295453
-4.089,0.43022085507921,0.7650479228624938
-4.0885,0.4195506802215176,0.5319218779486851
-4.088,0.1954770082101822,-0.1144730647665284
-4.0875,-0.01792648894327653,-0.8986243067482051
-4.087,-0.6688071552624514,-1.576809164679866
-4.0865,-1.042263275281004,-1.831128486403653
-4.086,-0.6367966306894326,-1.492036057438603
-4.0855,-0.04993701351614978,-1.131750351662197
-4.085,0.3555296310754218,-0.6866915386455698
-4.0845,0.5582629533712077,-0.3370024712753625
-4.084,0.6222840025174782,-0.1250697031715801
-4.0835,0.6116138276598051,0.002089957690313421
-4.083,0.5689331282290746,0.02328323450064829
-4.0825,0.5049120790829013,0.1822328105783236
-4.082,0.4195506802215176,0.3623756634660061
-4.0815,0.3875401556484697,0.2776025562246667
-4.081,0.3875401556484697,0.1398462569576153
-4.0805,0.3982103305061524,0.05507314971615059
-4.08,0.4408910299368829,0.1186529801471552
-4.0795,0.3661998059331724,0.6272916235947293
-4.079,-0.3060212101016104,0.5743084315686706
-4.0785,-1.084943974711735,-0.1780528951975329
-4.078,-1.6504632421684,-0.8244478379121585
-4.0775,-1.63979306731066,-1.068170521231231
-4.077,-1.010252750707956,-0.6654982618352349
-4.0765,-0.3807124341052529,-0.1038764263618717
-4.076,0.08877525963359839,0.3729723018714723
-4.0755,0.3555296310754218,0.701468092431364
-4.075,0.4729015545099309,0.8922075837243778
-4.0745,0.5049120790829692,0.9663840525605691
-4.074,0.4942419042252961,0.9875773293708847
-4.0735,0.4729015545099309,0.9663840525605498
-4.073,0.4408910299369121,0.8922075837244453
-4.0725,0.4302208550792003,0.775644561267536
-4.072,0.4195506802215176,0.627291623595192
-4.0715,0.2594980573564236,0.1716361721734067
-4.071,-0.2526703358131389,-0.601918431404905
-4.0705,-0.9675720512772257,-1.34368311976595
-4.07,-1.533091318733891,-1.841725124808367
-4.0695,-1.234326422718632,-1.523825972653498
-4.069,-0.5087545323968721,-1.195330182093607
-4.0685,0.09944543449103843,-0.8562377531282487
-4.068,0.4622313796523744,-0.4853554089471476
-4.0675,0.6009436528021226,-0.2204394488182027
-4.067,0.6222840025174878,-0.06148987274069118
-4.0665,0.5902734779444593,0.002089957690400159
-4.066,0.6116138276598051,0.09745970333682032
-4.0655,0.857027849386506,0.4047622170866759
-4.065,0.8783681991018518,0.4153588554918337
-4.0645,0.7396559259519968,0.2776025562246667
-4.064,0.6009436528021226,0.1504428953626575
-4.0635,0.5049120790830662,0.1292496185523419
-4.063,0.5155822539402053,0.4789386859229924
-4.0625,0.01408403562957729,0.6378882620003594
-4.062,-0.8181896032689118,-0.04029659592973944
-4.0615,-1.405049220442476,-0.7820612842925007
-4.061,-1.693143941599645,-1.248313374119443
-4.0605,-1.255666772434657,-1.004590690800593
-4.06,-0.6047861061155305,-0.400582301705519
-4.0595,-0.07127736323188383,0.1822328105781598
-4.059,0.2701682322139607,0.6060983467848571
-4.0585,0.4408910299367277,0.8604176685086442
-4.058,0.5049120790829789,0.9875773293708847
-4.0575,0.5049120790829789,1.029963882991555
-4.057,0.47290155450996,1.008770606181239
-4.0565,0.4515612047945656,0.9557874141553824
-4.056,0.4302208550792003,0.849821030103708
-4.0555,0.4195506802215274,0.7226613692418146
-4.055,0.3341892813595228,0.4047622170860012
-4.0545,-0.2526703358124887,-0.3370024712750445
-4.054,-1.02092292556494,-1.110557074851564
-4.0535,-1.693143941599587,-1.725162102352046
-4.053,-1.629122892453549,-1.79933857118815
-4.0525,-0.8608703027003992,-1.47084278062796
-4.052,-0.1032878878044756,-1.163540266877661
-4.0515,0.3982103305061524,-0.6760949002404023
-4.051,0.6329541773751706,-0.2416327256285375
-4.0505,0.6969752265212081,0.04447651131072294
-4.05,0.6756348768059011,0.1292496185523226
-4.0495,0.6116138276598051,0.09745970333682032
-4.049,0.472901554510057,0.2881991946296606
-4.0485,0.3555296310754024,0.3411823866555749
-4.048,0.3341892813600565,0.2352160026039969
-4.0475,0.3555296310754024,0.1186529801472612
-4.047,0.3768699807908648,0.06566978812151077
-4.0465,0.4622313796522482,0.2776025562246667
-4.046,0.2381577076411165,0.7650479228619252
-4.0455,-0.4980843575398397,0.3941655786807663
-4.045,-1.212986073003927,-0.4217755785163839
-4.0445,-1.639793067311232,-1.046977244421262
-4.044,-1.362368521010911,-1.025783967610446
-4.0435,-0.7328282044082075,-0.4959520473525559
-4.043,-0.1673089369510276,0.08686306493165288
-4.0425,0.2061471830675252,0.5425185163534382
-4.042,0.408880505363835,0.8286277532933731
-4.0415,0.4942419042252961,0.9769806909657173
-4.041,0.5049120790829692,1.040560521396664
-4.0405,0.4835717293675941,1.029963882991526
-4.04,0.4622313796522482,0.9981739677760521
-4.0395,0.4408910299369024,0.902804222129632
-4.039,0.43022085507921,0.7544512844569794
-4.0385,0.4408910299368829,0.5107286011383502
-4.038,0.1741366584950595,-0.1144730647659596
-4.0375,-0.5621054066859841,-0.8986243067495352
-4.037,-1.330357996438436,-1.576809164679634
-4.0365,-1.639793067311232,-1.820531847998485
-4.036,-1.031593100422652,-1.417859588601853
-4.0355,-0.2953510352432193,-1.121153713257435
-4.035,0.2488278824985954,-0.7396747306714069
-4.0345,0.5262524287980919,-0.421775578516673
-4.034,0.6222840025174878,-0.2098428104130352
-4.0335,0.6222840025174878,-0.09327978795619347
-4.033,0.5902734779444689,-0.0191033191200889
-4.0325,0.6969752265214409,0.161039533768037
-4.032,0.8890383739595538,0.3941655786815084
-4.0315,0.8250173248135162,0.3305857482505617
-4.031,0.6863050516634673,0.2034260873884176
-4.0305,0.5582629533713921,0.1186529801471552
-4.03,0.4942419042253544,0.1610395337677864
-4.0295,0.2915085819286855,0.6272916235951727
-4.029,-0.4127229586777283,0.6060983467848571
-4.0285,-1.180975548430879,-0.1356663415768632
-4.028,-1.714484291314943,-0.7714646458870827
-4.0275,-1.639793067311232,-0.9622041371799229
-4.027,-0.9782422261349084,-0.5595318777835605
-4.0265,-0.348701909532205,-0.008506680715355208
-4.026,0.1101156093487211,0.457745409112513
-4.0255,0.3661998059331045,0.7650479228623686
-4.025,0.4835717293675068,0.955787414155209
-4.0245,0.5049120790829692,1.029963882991574
-4.024,0.4942419042252961,1.051157159801889
-4.0235,0.4729015545099503,1.029963882991574
-4.023,0.4408910299368732,0.9663840525604438
-4.0225,0.4302208550792003,0.849821030103708
-4.022,0.4302208550792003,0.6908714540263411
-4.0215,0.174136658494157,0.2140227257929489
-4.021,-0.5514352318276028,-0.570128516188728
-4.0205,-1.319687821580753,-1.311893204550448
-4.02,-1.853196564464429,-1.820531847998331
-4.0195,-1.351698346153801,-1.650985633515806
-4.019,-0.5194247072545548,-1.025783967610927
-4.0185,0.1421261339211674,-0.4111789401117755
-4.018,0.5155822539406614,-0.008506680714854012
-4.0175,0.6542945270905358,0.1716361721729923
-4.017,0.6649647019482087,0.1822328105781501
-4.0165,0.6116138276598148,0.09745970333680104
-4.016,0.6222840025174878,0.07626642652648545
-4.0155,0.8783681991016383,0.3199891098451147
-4.015,0.8997085488171104,0.3305857482503882
-4.0145,0.7609962756673623,0.2034260873884947
-4.014,0.622284002517614,0.0868630649317589
-4.0135,0.5049120790827654,0.06566978812161678
-4.013,0.2701682322139607,0.3941655786815084
-4.0125,-0.3593720843893152,0.7120647308365314
-4.012,-1.116954499285287,0.1186529801464902
-4.0115,-1.67180359188428,-0.6125150698093976
-4.011,-1.842526389607202,-1.05757388282643
-4.0105,-1.244996597577518,-0.8244478379129584
-4.01,-0.5621054066852853,-0.2734226408440398
-4.0095,-0.02859666380115328,0.2564092794143318
-4.009,0.3021787567867078,0.6484849004051703
-4.0085,0.462231379652287,0.8816109453193067
-4.008,0.5049120790829789,0.9875773293708847
-4.0075,0.5049120790829789,1.019367244586358
-4.007,0.4835717293675844,1.008770606181171
-4.0065,0.4515612047945656,0.9557874141553824
-4.006,0.4302208550792003,0.849821030103708
-4.0055,0.4302208550791809,0.712064730836252
-4.005,0.408880505363835,0.4047622170866759
-4.0045,-0.07127736323188383,-0.326405832869877
-4.004,-0.8502001278433572,-1.110557074852845
-4.0035,-1.554431668449771,-1.746355379162313
-4.003,-1.522421143876723,-1.714565463946811
-4.0025,-0.7861790786972903,-1.152943628473448
-4.002,-0.08194753808956648,-0.5807251545938954
-4.0015,0.3661998059331045,-0.1674562567923655
-4.001,0.5796033030865633,0.0338798729056326
-4.0005,0.6436243522328434,0.1292496185523226
-4,0.6329541773751706,0.1292496185523226
-3.9995,0.6009436528021226,0.1080563417419877
-3.999,0.8143471499557753,0.3517790250608387
-3.9985,0.9210488985326017,0.457745409112513
-3.998,0.8143471499557753,0.3199891098453364
-3.9975,0.6649647019482183,0.1716361721729923
-3.997,0.5369226036560266,0.08686306493165288
-3.9965,0.4408910299368829,0.2564092794143318
-3.996,-0.03926683865883591,0.7226613692416989
-3.9955,-0.8181896032696687,0.3729723018711736
-3.995,-1.479740444445993,-0.4217755785163839
-3.9945,-1.895877263895616,-1.01518732920576
-3.994,-1.565101843307454,-1.046977244421262
-3.9935,-0.839529952985034,-0.5489352393783931
-3.993,-0.2206598112394408,0.03387987290581572
-3.9925,0.1954770082101822,0.4895353243280153
-3.992,0.4195506802215176,0.7862411996727035
-3.9915,0.5049120790829789,0.9345941373450475
-3.991,0.5155822539406614,0.9981739677760521
-3.9905,0.4942419042252961,0.9981739677760521
-3.99,0.4622313796522482,0.9663840525605498
-3.9895,0.4408910299368829,0.8816109453192104
-3.989,0.4302208550792003,0.7650479228623686
-3.9885,0.408880505363835,0.5637117931641874
-3.988,0.04609456020262521,-0.04029659593035631
-3.9875,-0.7008176798351597,-0.8456411147230812
-3.987,-1.437059745015262,-1.523825972653797
-3.9865,-1.714484291315011,-1.915901593644992
-3.986,-1.031593100423322,-1.778145294377815
-3.9855,-0.2633405106701714,-1.375473034981453
-3.985,0.2701682322139607,-0.792657922697244
-3.9845,0.5689331282290746,-0.2734226408440398
-3.984,0.6756348768059011,0.01268659609548085
-3.9835,0.6756348768059011,0.1186529801471552
-3.983,0.6116138276598051,0.1080563417419877
-3.9825,0.6863050516635838,0.2246193641988295
-3.982,0.8463576745288233,0.4047622170866759
-3.9815,0.7823366253827275,0.3199891098453364
-3.981,0.6649647019482183,0.1822328105781598
-3.9805,0.5475927785137094,0.09745970333682032
-3.98,0.4942419042252961,0.13984625695749
-3.9795,0.3128489316446912,0.6166949851900245
-3.979,-0.391382608962363,0.5743084315693548
-3.9785,-1.170305373573196,-0.1886495336027004
-3.978,-1.693143941599645,-0.8880276683437509
-3.9775,-1.693143941599645,-1.163540266878104
-3.977,-1.052933450138687,-0.7502713690765743
-3.9765,-0.4020527838200457,-0.1462629799820306
-3.976,0.07810508477567314,0.3729723018711736
-3.9755,0.3555296310754218,0.7332580076468663
-3.975,0.4835717293676135,0.9345941373450475
-3.9745,0.5049120790829789,1.019367244586387
-3.974,0.4942419042252961,1.040560521396722
-3.9735,0.4729015545099309,1.00877060618122
-3.973,0.4515612047945656,0.9345941373450475
-3.9725,0.4302208550792003,0.8074344764830383
-3.972,0.4195506802215176,0.6696781772158616
-3.9715,0.2168173579255475,0.2246193641988295
-3.971,-0.3807124341046804,-0.5595318777835605
-3.9705,-1.095614149569417,-1.301296566145281
-3.97,-1.639793067311232,-1.820531847998485
-3.9695,-1.26633694729234,-1.640388995110639
-3.969,-0.4874141826815069,-1.322489842955616
-3.9685,0.1634664836371343,-0.792657922697244
-3.968,0.5369226036560266,-0.3158091944647096
-3.9675,0.6649647019482183,-0.07208651114585861
-3.967,0.6542945270905358,0.002089957690313421
-3.9665,0.6009436528021226,0.002089957690313421
-3.966,0.5902734779444399,0.02328323450064829
-3.9655,0.8143471499557753,0.2987958330350016
-3.965,0.8356874996711408,0.3199891098453364
-3.9645,0.7289857510943143,0.2140227257936621
-3.964,0.6009436528021226,0.1186529801471552
-3.9635,0.4942419042252961,0.09745970333682032
-3.963,0.2488278824985954,0.4365521323021782
-3.9625,-0.4340633083930936,0.6696781772158616
-3.962,-1.202315898146244,0.02328323450064829
-3.9615,-1.693143941599645,-0.6654982618352349
-3.961,-1.821186039891837,-1.068170521231597
-3.9605,-1.277007122150022,-0.8668343915334161
-3.96,-0.5941159312583333,-0.3052125560595421
-3.9595,-0.04993701351651855,0.2458126410091644
-3.959,0.291508581929326,0.6590815388106942
-3.9585,0.4622313796522482,0.9028042221295453
-3.958,0.5049120790829789,1.029963882991555
-3.9575,0.5049120790829789,1.061753798207057
-3.957,0.4835717293676135,1.051157159801889
-3.9565,0.4515612047945656,0.9981739677760521
-3.956,0.4408910299368829,0.8816109453192104
-3.9555,0.4302208550792003,0.7226613692416989
-3.955,0.3875401556484697,0.3941655786815084
-3.9545,-0.124628237520297,-0.3370024712750445
-3.954,-0.8715404775580819,-1.110557074852267
-3.9535,-1.575772018165136,-1.735758740757146
-3.953,-1.618452717595867,-1.990078062481164
-3.9525,-0.8715404775580819,-1.915901593644992
-3.952,-0.1459685872356623,-1.439052865412457
-3.9515,0.3341892813600565,-0.8562377531282487
-3.951,0.5689331282290746,-0.3581957480853793
-3.9505,0.6436243522328531,-0.07208651114585861
-3.95,0.6222840025174878,0.03387987290581572
-3.9495,0.5796033030867573,0.05507314971615059
-3.949,0.8036769750980928,0.3199891098453364
-3.9485,0.942389248247967,0.4683420475176805
-3.948,0.8463576745288233,0.3411823866556712
-3.9475,0.6863050516635838,0.1716361721729923
-3.947,0.5582629533713921,0.06566978812131802
-3.9465,0.3768699807907871,0.2140227257936621
-3.946,-0.1673089369510276,0.701468092431364
-3.9455,-0.9355615267041777,0.3729723018711736
-3.945,-1.597112367880501,-0.4217755785163839
-3.9445,-1.970568487899394,-1.046977244421262
-3.944,-1.51175096901904,-1.025783967610927
-3.9435,-0.7755089038389382,-0.4959520473525559
-3.943,-0.1673089369510276,0.08686306493165288
-3.9425,0.2274875327832301,0.5319218779486851
-3.942,0.4302208550792003,0.8286277532933731
-3.9415,0.5049120790829789,0.9769806909657173
-3.941,0.5155822539406614,1.029963882991555
-3.9405,0.4942419042252961,1.029963882991555
-3.94,0.4622313796522482,0.9981739677760521
-3.9395,0.4408910299368829,0.9134008605347127
-3.939,0.4302208550792003,0.8074344764830383
-3.9385,0.4195506802215176,0.627291623595192
-3.938,0.2381577076409128,0.04447651131098315
-3.9375,0.0674349099179905,-0.7608680074817418
-3.937,-0.572775581542968,-1.460246142222792
-3.9365,-1.052933450138687,-1.809935209593318
-3.936,-0.7434983792658902,-1.555615887869299
-3.9355,-0.1779791118087102,-1.110557074852267
-3.935,0.2701682322139607,-0.5595318777835605
-3.9345,0.5369226036560266,-0.1144730647665284
-3.934,0.6542945270905358,0.1504428953626575
-3.9335,0.6756348768059011,0.2246193641988295
-3.933,0.6436243522328531,0.1716361721729923
-3.9325,0.7396559259519968,0.2564092794143318
-3.932,0.9637295979633325,0.4471487707073456
-3.9315,0.8997085488172365,0.3623756634660061
-3.931,0.7396559259519968,0.2034260873884947
-3.9305,0.5902734779444399,0.09745970333682032
-3.93,0.4515612047945656,0.1292496185523226
-3.9295,0.02475421048725994,0.6060983467848571
-3.929,-0.722158029550525,0.6696781772158616
-3.9285,-1.437059745015262,-0.07208651114585861
-3.928,-1.917217613610981,-0.792657922697244
-3.9275,-1.767835165603424,-1.078767159636765
-3.927,-1.031593100423322,-0.6760949002404023
-3.9265,-0.3593720843893152,-0.09327978795619347
-3.926,0.1101156093487211,0.4047622170866759
-3.9255,0.3768699807907871,0.7544512844572011
-3.925,0.4942419042252961,0.9557874141553824
-3.9245,0.5155822539406614,1.051157159801889
-3.924,0.4942419042252961,1.072350436612224
-3.9235,0.4729015545099309,1.051157159801889
-3.923,0.4515612047945656,0.9875773293708847
-3.9225,0.4302208550792003,0.8816109453192104
-3.922,0.4302208550792003,0.7332580076468663
-3.9215,0.2488278824985954,0.2987958330350016
-3.921,-0.4340633083930936,-0.4959520473525559
-3.9205,-1.202315898146244,-1.258910012524611
-3.92,-1.821186039891837,-1.84172512480882
-3.9195,-1.543761493592088,-1.79933857118815
-3.919,-0.7434983792658902,-1.184733543688439
-3.9185,-0.04993701351651855,-0.5913217929990628
-3.918,0.3982103305061524,-0.2098428104130352
-3.9175,0.6116138276598051,0.002089957690313421
-3.917,0.6649647019482183,0.05507314971615059
-3.9165,0.6329541773751706,0.02328323450064829
-3.916,0.6116138276598051,0.06566978812131802
-3.9155,0.6222840025174878,0.3411823866556712
-3.915,0.5689331282290746,0.3517790250608387
-3.9145,0.5155822539406614,0.2246193641988295
-3.914,0.4622313796522482,0.09745970333682032
-3.9135,0.4302208550792003,0.06566978812131802
-3.913,0.1954770082101822,0.3729723018711736
-3.9125,-0.4447334832507763,0.7120647308365314
-3.912,-1.180975548430879,0.13984625695749
-3.9115,-1.767835165603424,-0.570128516188728
-3.911,-1.970568487899394,-0.9833974139902578
-3.9105,-1.330357996438436,-0.7714646458869092
-3.91,-0.5941159312583333,-0.2310360872233701
-3.9095,-0.03926683865883591,0.2776025562246667
-3.909,0.3021787567870086,0.6590815388106942
-3.9085,0.4622313796522482,0.8922075837243778
-3.908,0.5155822539406614,1.00877060618122
-3.9075,0.5155822539406614,1.040560521396722
-3.907,0.4835717293676135,1.029963882991555
-3.9065,0.4622313796522482,0.9875773293708847
-3.906,0.4408910299368829,0.8816109453192104
-3.9055,0.4302208550792003,0.7438546460520338
-3.905,0.4195506802215176,0.4471487707073456
-3.9045,-0.01792648894347063,-0.2628260024388724
-3.904,-0.7968492535543035,-1.036380606016095
-3.9035,-1.522421143876723,-1.682775548731308
-3.903,-1.565101843307454,-1.831128486403653
-3.9025,-0.839529952985034,-1.502632695843462
-3.902,-0.1139580626626144,-1.121153713257435
-3.9015,0.3555296310754218,-0.7078848154559045
-3.901,0.6009436528021226,-0.3687923864905467
-3.9005,0.6649647019482183,-0.1462629799820306
-3.9,0.6436243522328531,-0.04029659593035631
-3.8995,0.5902734779444399,0.02328323450064829
-3.899,0.3341892813600565,0.2987958330350016
-3.8985,0.1314559590640864,0.4471487707073456
-3.898,0.142126133921769,0.3411823866556712
-3.8975,0.2274875327832301,0.1928294489833272
-3.897,0.3235191065023739,0.09745970333682032
-3.8965,0.3448594562177392,0.2140227257936621
-3.896,-0.07127736323188383,0.6696781772158616
-3.8955,-0.8181896032696687,0.3517790250608387
-3.895,-1.479740444445993,-0.3899856633008816
-3.8945,-1.863866739322568,-0.8138511995075789
-3.894,-1.586442193022819,-0.8774310299385835
-3.8935,-0.8715404775580819,-0.4641621321370536
-3.893,-0.2420001609548061,0.03387987290581572
-3.8925,0.1848068333524996,0.4471487707073456
-3.892,0.4195506802215176,0.7226613692416989
-3.8915,0.5049120790829789,0.8816109453192104
-3.891,0.5155822539406614,0.9663840525605498
-3.8905,0.4942419042252961,0.9875773293708847
-3.89,0.4729015545099309,0.9663840525605498
-3.8895,0.4515612047945656,0.9134008605347127
-3.889,0.4408910299368829,0.7968378380778709
-3.8885,0.4302208550792003,0.6060983467848571
-3.888,0.05676473506030786,0.02328323450064829
-3.8875,-0.7114878546928423,-0.7502713690765743
-3.887,-1.458400094730627,-1.42845622700729
-3.8865,-1.83185621474952,-1.809935209593318
