Class_12_Wrist_move/Class_12_Wrist_move_Zakour_3.csv

#Digilent WaveForms Oscilloscope Acquisition
#Device Name: EExplorer
#Serial Number: SN:210151A2B84A
#Date Time: 2021-02-07 16:12:28.902
#Sample rate: 2000Hz
#Samples: 16384
#Trigger: Source: Channel 1 Type: Edge Condition: Rising Level: 0 V Hyst.: Auto HoldOff: 0 s
#Channel 1: Range: 1 V/div Offset: 0 V Attenuation: 1 X
#Channel 2: Range: 1 V/div Offset: 0 V Attenuation: 1 X
#Power Supplies: ON
#Fixed Supply: ON
#Voltage: 3.3 V Readback: 3.331 V
#Positive Supply: ON
#Voltage: 3.7 V Readback: 3.717 V
#Current: 40 mA Readback: 18 mA
#Negative Supply: ON
#Voltage: -3.7 V Readback: -3.712 V
#Current: -40 mA Readback: -9 mA
#Reference 1: ON
#Voltage: 0 V
#Reference 2: ON
#Voltage: 0 V

Time (s),Channel 1 (V),Channel 2 (V)
-4.096,-1.490410619303675,1.040560521396722
-4.0955,-0.9355615267046823,0.309392471440834
-4.095,-0.4660738329658698,-0.2628260024391808
-4.0945,-0.1673089369510276,-0.6019184314042303
-4.094,-0.007256314085933552,-0.7396747306712816
-4.0935,0.04609456020262521,-0.7396747306713298
-4.093,0.04609456020262521,-0.6549016234300674
-4.0925,0.03542438534495228,-0.5383386009733316
-4.092,0.003413860771875241,-0.4111789401110912
-4.0915,-0.01792648894347063,-0.2734226408440398
-4.091,-0.03926683865883591,-0.1356663415768632
-4.0905,-0.06060718837428853,-0.008506680714690172
-4.09,-0.156638762093345,0.1716361721729923
-4.0895,-0.6261264558313813,0.6802748156210291
-4.089,-1.223656247861066,1.25249328949955
-4.0885,-1.842526389607202,1.623375633680931
-4.088,-1.67180359188428,1.273686566310405
-4.0875,-0.9462317015625203,0.6060983467854643
-4.087,-0.3060212101005429,0.09745970333658902
-4.0865,0.08877525963335578,-0.1568596183871981
-4.086,0.2381577076407769,-0.1886495336026714
-4.0855,0.2488278824985469,-0.08268314955088148
-4.085,0.1954770082101822,0.07626642652648545
-4.0845,0.2061471830678551,0.2564092794141679
-4.084,0.3555296310754024,0.3517790250609061
-4.0835,0.3341892813600565,0.4259554938970107
-4.083,0.2381577076409128,0.4895353243280153
-4.0825,0.1421261339217108,0.5425185163538718
-4.082,0.07810508477567314,0.5637117931641874
-4.0815,-0.2633405106701714,0.7332580076468663
-4.081,-0.9995825758496041,1.14652690544802
-4.0805,-1.607782542738184,1.528005888034424
-4.08,-2.045259711903173,1.761131932948107
-4.0795,-1.938557963326443,1.453829419198531
-4.079,-1.330357996437882,0.6908714540255702
-4.0785,-0.722158029550525,0.002089957690313421
-4.078,-0.2953510352436075,-0.4535654937314718
-4.0775,-0.04993701351642151,-0.6654982618352637
-4.077,0.05676473506030786,-0.6972881770507372
-4.0765,0.07810508477565373,-0.6231117082146326
-4.076,0.06743490991796139,-0.4959520473524114
-4.0755,0.03542438534494258,-0.3370024712750445
-4.075,0.00341386077189465,-0.1780528951975329
-4.0745,-0.01792648894349003,-0.02969995752506359
-4.074,-0.03926683865883591,0.1080563417419877
-4.0735,-0.07127736323188383,0.2352160026039969
-4.073,-0.5621054066848389,0.5955017083793619
-4.0725,-1.26633694729234,1.135930267043229
-4.072,-1.639793067311232,1.580989080060261
-4.0715,-1.554431668449849,1.422039503982894
-4.071,-0.8608703026997976,0.7332580076463363
-4.0705,-0.1993194615240755,0.1504428953626575
-4.07,0.1954770082098232,-0.1992461720075498
-4.0695,0.3448594562177197,-0.315809194464671
-4.069,0.3235191065023739,-0.2734226408440398
-4.0685,0.2381577076409128,-0.1568596183871981
-4.068,0.1741366584949528,-0.0402965959304816
-4.0675,0.3235191065023739,-0.1780528951975329
-4.067,0.3555296310754218,-0.1356663415768632
-4.0665,0.280838407071556,0.05507314971634333
-4.066,0.1848068333524996,0.2670059178194992
-4.0655,0.1101156093487211,0.4259554938970107
-4.065,0.003413860771991697,0.5531151547589043
-4.0645,-0.5621054066852853,0.9028042221295453
-4.064,-1.180975548430879,1.33726639674141
-4.0635,-1.597112367880123,1.676358825706459
-4.063,-1.70381411645694,1.602182356869989
-4.0625,-1.277007122150022,0.9345941373450475
-4.062,-0.7434983792663755,0.2140227257943175
-4.0615,-0.3273615598160343,-0.305212556059783
-4.061,-0.07127736323188383,-0.570128516188728
-4.0605,0.04609456020262521,-0.6443049850249
-4.06,0.07810508477567314,-0.6019184314041339
-4.0595,0.07810508477567314,-0.4959520473525559
-4.059,0.05676473506030786,-0.3581957480853793
-4.0585,0.03542438534496199,-0.2098428104131702
-4.058,0.01408403562957729,-0.07208651114585861
-4.0575,-0.007256314085787988,0.05507314971615059
-4.057,-0.01792648894346092,0.1610395337677286
-4.0565,-0.3060212101009019,0.4047622170866759
-4.056,-1.042263275281004,0.92399749893988
-4.0555,-1.60778254273767,1.411442865577139
-4.055,-1.917217613610525,1.612778995275243
-4.0545,-1.415719395299897,1.040560521396722
-4.054,-0.6047861061167533,0.3305857482511496
-4.0535,0.02475421048756078,-0.1674562567925583
-4.053,0.3555296310754218,-0.3793890248957141
-4.0525,0.4195506802215176,-0.3687923864905467
-4.052,0.3448594562176421,-0.25222936403357
-4.0515,0.2381577076409128,-0.1038764263613609
-4.051,0.2594980573562781,-0.1356663415768632
-4.0505,0.2915085819292969,-0.146262979982021
-4.05,0.2274875327832301,0.01268659609548085
-4.0495,0.1634664836371343,0.1928294489833272
-4.049,0.09944543449109666,0.3517790250606941
-4.0485,0.04609456020213999,0.5107286011386778
-4.048,-0.4874141826815069,0.8710143069140429
-4.0475,-1.287677297006977,1.326669758335828
-4.047,-1.746494815888146,1.644568910491323
-4.0465,-1.842526389607202,1.70814874092227
-4.046,-1.458400094730977,1.188913459069538
-4.0455,-0.8822106524153375,0.4471487707068155
-4.045,-0.4127229586777283,-0.1356663415768632
-4.0445,-0.1032878878049318,-0.474758770542221
-4.044,0.04609456020267374,-0.601918431404211
-4.0435,0.09944543449103843,-0.5807251545938954
-4.043,0.09944543449103843,-0.474758770542221
-4.0425,0.07810508477569256,-0.3370024712751697
-4.042,0.05676473506030786,-0.1992461720078678
-4.0415,0.02475421048725994,-0.05089323433552374
-4.041,0.003413860771914058,0.07626642652636979
-4.0405,-0.007256314085875328,0.1928294489834525
-4.04,-0.1032878878049318,0.3305857482505039
-4.0395,-0.7008176798346164,0.7544512844568156
-4.039,-1.244996597577197,1.273686566310733
-4.0385,-1.490410619303675,1.633972272086098
-4.038,-1.25566677243487,1.369056311957153
-4.0375,-0.5834457564001265,0.6802748156204991
-4.037,-0.007256314085787988,0.09745970333682032
-4.0365,0.3128489316446912,-0.2628260024388724
-4.036,0.3982103305061136,-0.4217755785163936
-4.0355,0.3555296310754218,-0.4323722169215513
-4.035,0.2594980573562781,-0.3370024712750445
-4.0345,0.2381577076409322,-0.2416327256286243
-4.034,0.3021787567870086,-0.2204394488182027
-4.0335,0.2701682322139607,-0.05089323433552374
-4.033,0.2061471830679231,0.1398462569573166
-4.0325,0.1527963087794031,0.309392471440275
-4.032,0.09944543449103843,0.4259554938970107
-4.0315,0.1848068333524219,0.5319218779485887
-4.031,0.4088805053634177,0.9345941373454426
-4.0305,-0.04993701351651855,1.369056311956912
-4.03,-0.8395299529843159,1.665762187301331
-4.0295,-1.20231589814605,1.453829419197616
-4.029,-0.9889124009925911,0.7544512844572011
-4.0285,-0.6047861061160158,0.07626642652648545
-4.028,-0.2846808603853426,-0.3687923864907395
-4.0275,-0.07127736323188383,-0.5807251545938954
-4.027,0.03542438534494258,-0.6125150698093976
-4.0265,0.07810508477563433,-0.5383386009732931
-4.026,0.07810508477567314,-0.4217755785163839
-4.0255,0.0674349099179905,-0.2840192792492073
-4.025,0.04609456020264462,-0.1356663415769981
-4.0245,0.02475421048725023,0.002089957690419434
-4.024,0.01408403562957729,0.1186529801471552
-4.0235,-0.04993701351646033,0.2352160026038909
-4.023,-0.5407650569702112,0.6060983467852425
-4.0225,-0.8608703027003992,1.029963882991555
-4.022,-0.8715404775580723,1.369056311956604
-4.0215,-0.8075194284115881,1.284283204715149
-4.021,-0.3700422592469978,0.8180311148882058
-4.0205,0.07810508477567314,0.3941655786815084
-4.02,0.3448594562178071,0.1398462569574033
-4.0195,0.4195506802215176,0.04447651131098315
-4.019,0.3661998059331045,0.04447651131098315
-4.0185,0.2701682322140481,0.07626642652645654
-4.018,0.1954770082101822,0.1292496185523226
-4.0175,0.2168173579255475,0.06566978812131802
-4.017,0.2061471830678746,0.06566978812131802
-4.0165,0.1634664836371052,0.09745970333683959
-4.016,0.1314559590640864,0.1186529801471552
-4.0155,0.09944543449106755,0.1186529801471552
-4.015,0.06743490991774789,0.1398462569578177
-4.0145,-0.1993194615240755,0.5001319627331828
-4.014,-0.7221580295500495,1.04056052139623
-4.0135,-1.351698346153927,1.464426057603313
-4.013,-1.490410619303675,1.347863035146577
-4.0125,-1.095614149569417,0.6696781772158616
-4.012,-0.6261264558310417,-0.01910331912046477
-4.0115,-0.2526703358124887,-0.5065486857577234
-4.011,-0.02859666380115328,-0.7608680074817418
-4.0105,0.07810508477557609,-0.8244478379126885
-4.01,0.09944543449103843,-0.7820612842920766
-4.0095,0.09944543449103843,-0.6654982618352349
-4.009,0.07810508477569256,-0.5277419625681836
-4.0085,0.05676473506028845,-0.3793890248955792
-4.008,0.03542438534494258,-0.2310360872233701
-4.0075,0.02475421048726964,-0.09327978795631875
-4.007,0.02475421048705614,0.03387987290602774
-4.0065,-0.1993194615240755,0.2670059178194992
-4.006,-0.8928808272734472,0.7862411996727035
-4.0055,-1.458400094730734,1.305476481526014
-4.005,-1.575772018165136,1.42203950398275
-4.0045,-1.031593100423322,0.8604176685088755
-4.004,-0.3487019095311861,0.2458126410087885
-4.0035,0.142126133921769,-0.1674562567923655
-4.003,0.3555296310754218,-0.3581957480853793
-4.0025,0.3661998059330948,-0.3581957480853793
-4.002,0.3021787567870086,-0.252229364033705
-4.0015,0.2274875327832301,-0.1038764263613609
-4.001,0.248827882498576,-0.04029659593041414
-4.0005,0.2915085819292775,0.00208995769043871
-4,0.2381577076409128,0.13984625695749
-3.9995,0.1848068333524996,0.2987958330350016
-3.999,0.1314559590640864,0.4153588554918433
-3.9985,0.05676473506030786,0.5001319627331828
-3.998,-0.4340633083930936,0.7862411996727035
-3.9975,-1.095614149569417,1.167720182258731
-3.997,-1.586442193022819,1.485619334413754
-3.9965,-1.927887788468663,1.6657621873016
-3.996,-1.714484291315011,1.284283204715573
-3.9955,-1.127624674142465,0.5425185163538525
-3.995,-0.5621054066852853,-0.1144730647665284
-3.9945,-0.1779791118087102,-0.5171453241628908
-3.994,0.03542438534494258,-0.6972881770507372
-3.9935,0.1207857842064037,-0.7078848154559045
-3.993,0.1314559590640864,-0.6337083466197325
-3.9925,0.1207857842064037,-0.4959520473525559
-3.992,0.08877525963335578,-0.3475991096802118
-3.9915,0.0674349099179905,-0.1992461720078678
-3.991,0.04609456020262521,-0.06148987274069118
-3.9905,0.02475421048725994,0.06566978812131802
-3.99,-0.08194753808956648,0.2246193641988295
-3.9895,-0.722158029550525,0.6696781772158616
-3.989,-1.479740444445993,1.199510097474233
-3.9885,-2.03458953704549,1.485619334413754
-3.988,-1.725154466172693,0.8286277532933731
-3.9875,-0.9142211769888124,0.03387987290581572
-3.987,-0.1886492866663929,-0.3475991096802118
-3.9865,0.2381577076409128,-0.4429688553267188
-3.986,0.3768699807907871,-0.3475991096802118
-3.9855,0.3661998059331045,-0.1674562567923655
-3.985,0.2808384070716433,-0.008506680714854012
-3.9845,0.2701682322139607,0.07626642652648545
-3.984,0.408880505363835,-0.008506680714854012
-3.9835,0.408880505363835,0.03387987290581572
-3.983,0.3235191065023739,0.1292496185523226
-3.9825,0.2274875327832301,0.2246193641988295
-3.982,0.1527963087794516,0.2881991946298341
-3.9815,-0.1459685872356623,0.457745409112513
-3.981,-0.8928808272734472,0.8922075837243778
-3.9805,-1.30901764672307,1.29487984312074
-3.98,-1.703814116457328,1.42203950398275
-3.9795,-1.778505340461106,0.7226613692416989
-3.979,-1.298347471865388,0.002089957690313421
-3.9785,-0.722158029550525,-0.4535654937318862
-3.978,-0.2846808603855366,-0.6866915386455698
-3.9775,-0.01792648894347063,-0.7290780922662394
-3.977,0.1101156093487211,-0.6866915386455698
-3.9765,0.142126133921769,-0.5807251545938954
-3.976,0.142126133921769,-0.4641621321370536
-3.9755,0.1207857842064037,-0.3475991096802118
-3.975,0.08877525963335578,-0.2204394488182027
-3.9745,0.0674349099179905,-0.1144730647665284
-3.974,0.05676473506030786,-0.008506680714854012
-3.9735,0.02475421048725994,0.09745970333682032
-3.973,-0.391382608962363,0.4365521323021782
-3.9725,-1.116954499284783,0.9875773293708847
-3.972,-1.735824641030376,1.453829419198252
-3.9715,-1.863866739322568,1.400846227172415
-3.971,-1.202315898146244,0.775644561267536
-3.9705,-0.4127229586777283,0.1504428953626575
-3.97,0.1314559590640864,-0.2734226408440398
-3.9695,0.3875401556484697,-0.4853554089473885
-3.969,0.4195506802215176,-0.5171453241628908
-3.9685,0.3555296310754218,-0.4217755785163839
-3.968,0.2701682322139607,-0.2628260024388724
-3.9675,0.291508581929326,-0.1674562567923655
-3.967,0.2808384070716433,-0.02969995752518888
-3.9665,0.2381577076409128,0.1186529801471552
-3.966,0.2061471830678648,0.2458126410091644
-3.9655,0.1634664836371343,0.3517790250608387
-3.965,0.05676473506030786,0.4683420475176805
-3.9645,-0.5407650569699201,0.8286277532933731
-3.964,-1.202315898146244,1.25249328950007
-3.9635,-1.394379045584531,1.517409249629256
-3.963,-1.447729919872945,1.506812611224089
-3.9625,-1.095614149569417,0.9557874141553824
-3.962,-0.6261264558313813,0.2776025562246667
-3.9615,-0.2420001609548061,-0.2310360872233701
-3.961,-0.007256314085787988,-0.5171453241628908
-3.9605,0.1101156093487211,-0.6019184314042303
-3.96,0.142126133921769,-0.570128516188728
-3.9595,0.142126133921769,-0.474758770542221
-3.959,0.1314559590640864,-0.3475991096802118
-3.9585,0.1101156093487211,-0.2204394488182027
-3.958,0.08877525963335578,-0.1038764263613609
-3.9575,0.0674349099179905,0.01268659609548085
-3.957,0.05676473506030786,0.1080563417419877
-3.9565,-0.1352984123779797,0.309392471440169
-3.956,-0.7114878546928423,0.7862411996727035
-3.9555,-1.212986073003927,1.284283204715573
-3.955,-1.490410619303675,1.559795803249926
-3.9545,-1.116954499284783,1.157123543853563
-3.954,-0.423393133535411,0.4789386859228479
-3.9535,0.1314559590640864,-0.06148987274069118
-3.953,0.4408910299368829,-0.3793890248957141
-3.9525,0.4942419042252961,-0.4853554089473885
-3.952,0.4195506802215176,-0.4323722169215513
-3.9515,0.3128489316446912,-0.3158091944647096
-3.951,0.3341892813600565,-0.2946159176543747
-3.9505,0.5049120790829789,-0.4323722169215513
-3.95,0.4942419042252961,-0.326405832869877
-3.9495,0.3982103305061524,-0.1144730647665284
-3.949,0.291508581929326,0.08686306493165288
-3.9485,0.2061471830678648,0.2352160026039969
-3.948,0.3128489316446912,0.457745409112513
-3.9475,0.07810508477567314,0.9028042221295453
-3.947,-0.3807124341046804,1.347863035146577
-3.9465,-0.7755089038389382,1.549199164844759
-3.946,-0.7861790786966207,1.104140351827727
-3.9455,-0.5300948821122373,0.3941655786815084
-3.945,-0.2633405106701714,-0.1886495336027004
-3.9445,-0.04993701351651855,-0.5277419625680583
-3.944,0.0674349099179905,-0.6654982618352349
-3.9435,0.1207857842064037,-0.6549016234300674
-3.943,0.1314559590640864,-0.5595318777835605
-3.9425,0.1207857842064037,-0.4323722169215513
-3.942,0.1101156093487211,-0.2946159176543747
-3.9415,0.08877525963335578,-0.1462629799820306
-3.941,0.0674349099179905,-0.01910331912002144
-3.9405,0.04609456020262521,0.08686306493165288
-3.94,-0.08194753808956648,0.2458126410091644
-3.9395,-0.7861790786966207,0.7120647308365314
-3.939,-1.597112367880501,1.210106735879401
-3.9385,-1.810515865034154,1.42203950398275
-3.938,-1.458400094730627,0.9345941373450475
-3.9375,-0.6794773301197943,0.2564092794143318
-3.937,-0.01792648894347063,-0.1886495336027004
-3.9365,0.3448594562177392,-0.3793890248957141
-3.936,0.4622313796522482,-0.3899856633008816
-3.9355,0.4195506802215176,-0.2840192792492073
-3.935,0.3235191065023739,-0.1674562567923655
-3.9345,0.2808384070716433,-0.1250697031716958
-3.934,0.4408910299368829,-0.2734226408440398
-3.9335,0.4515612047945656,-0.2310360872233701
-3.933,0.3661998059331045,-0.07208651114585861
-3.9325,0.2594980573562781,0.08686306493165288
-3.932,0.1848068333524996,0.2034260873884947
-3.9315,-0.01792648894347063,0.3941655786815084
-3.931,-0.6688071552621118,0.8392243916985406
-3.9305,-1.234326422719292,1.263089927905238
-3.93,-1.682473766741963,1.390249588767247
-3.9295,-1.853196564464885,0.6484849004055269
-3.929,-1.383708870726849,-0.04029659593035631
-3.9285,-0.7861790786966207,-0.4323722169215513
-3.928,-0.3060212101009019,-0.5913217929990628
-3.9275,-0.007256314085787988,-0.6125150698093976
-3.927,0.1314559590640864,-0.5489352393783931
-3.9265,0.1741366584948169,-0.4641621321370536
-3.926,0.1741366584948169,-0.3687923864905467
-3.9255,0.1527963087794516,-0.2734226408440398
-3.925,0.1207857842064037,-0.1886495336027004
-3.9245,0.08877525963335578,-0.1038764263613609
-3.924,0.07810508477567314,-0.04029659593035631
-3.9235,0.0674349099179905,0.02328323450064829
-3.923,-0.1886492866663929,0.2352160026039969
-3.9225,-0.8608703027003992,0.7544512844572011
-3.922,-1.244996597576974,1.199510097474233
-3.9215,-1.116954499284783,1.178316820663898
-3.921,-0.572775581542968,0.5955017083796896
-3.9205,-0.01792648894347063,-0.008506680714854012
-3.92,0.3448594562177392,-0.3581957480853793
-3.9195,0.4622313796522482,-0.4959520473525559
-3.919,0.4302208550792003,-0.4853554089473885
-3.9185,0.3448594562177392,-0.4217755785163839
-3.918,0.2594980573562781,-0.3158091944647096
-3.9175,0.2488278824985954,-0.2098428104130352
-3.917,0.2594980573562781,-0.1038764263613609
-3.9165,0.2274875327832301,0.002089957690313421
-3.916,0.1954770082101822,0.08686306493165288
-3.9155,0.1848068333524996,0.1610395337678249
-3.915,0.1101156093487211,0.2246193641988295
-3.9145,-0.3593720843893152,0.5743084315693548
-3.914,-0.9462317015618604,1.061753798207057
-3.9135,-1.127624674142465,1.432636142387917
-3.913,-1.170305373573196,1.453829419198252
-3.9125,-0.8715404775580819,0.8816109453192104
-3.912,-0.4660738329661415,0.2034260873884947
-3.9115,-0.156638762093345,-0.2946159176543747
-3.911,0.03542438534494258,-0.570128516188728
-3.9105,0.1314559590640864,-0.6443049850249
-3.91,0.1634664836371343,-0.6019184314042303
-3.9095,0.1634664836371343,-0.5065486857577234
-3.909,0.142126133921769,-0.3687923864905467
-3.9085,0.1314559590640864,-0.2310360872233701
-3.908,0.1101156093487211,-0.1038764263613609
-3.9075,0.08877525963335578,0.02328323450064829
-3.907,0.07810508477567314,0.1186529801471552
-3.9065,-0.07127736323188383,0.2776025562246667
-3.906,-0.6367966306890638,0.7332580076468663
-3.9055,-0.9995825758502737,1.199510097474233
-3.905,-1.020922925565639,1.33726639674141
-3.9045,-0.5514352318276028,0.7862411996727035
-3.904,-0.02859666380115328,0.1822328105781598
-3.9035,0.3235191065023739,-0.2098428104130352
-3.903,0.4515612047945656,-0.4323722169215513
-3.9025,0.4302208550792003,-0.5065486857577234
-3.902,0.3448594562177392,-0.4535654937318862
-3.9015,0.2594980573562781,-0.326405832869877
-3.901,0.2701682322139607,-0.2204394488182027
-3.9005,0.3448594562177392,-0.1356663415768632
-3.9,0.3128489316446912,-0.02969995752518888
-3.8995,0.2701682322139607,0.07626642652648545
-3.899,0.2168173579255475,0.1504428953626575
-3.8985,0.1634664836371343,0.2140227257936621
-3.898,-0.2206598112394408,0.4895353243280153
-3.8975,-0.9782422261349084,0.9663840525605498
-3.897,-1.639793067311232,1.37965295036208
-3.8965,-2.098610586191586,1.559795803249926
-3.896,-1.746494815888059,1.114736990232894
-3.8955,-1.074273799854052,0.383568940276341
-3.895,-0.4874141826815069,-0.2098428104130352
-3.8945,-0.09261771294724913,-0.5595318777835605
-3.894,0.1207857842064037,-0.6972881770507372
-3.8935,0.1954770082101822,-0.6654982618352349
-3.893,0.2061471830678648,-0.5595318777835605
-3.8925,0.1848068333524996,-0.4111789401112165
-3.892,0.1634664836371343,-0.252229364033705
-3.8915,0.1314559590640864,-0.1038764263613609
-3.891,0.09944543449103843,0.04447651131098315
-3.8905,0.08877525963335578,0.1610395337678249
-3.89,0.04609456020262521,0.2776025562246667
-3.8895,-0.4127229586777283,0.627291623595192
-3.889,-1.031593100423322,1.114736990232894
-3.8885,-1.46907026958831,1.432636142387917
