Class_12_Wrist_move/Class_12_Wrist_move_Zakour_2.csv

#Digilent WaveForms Oscilloscope Acquisition
#Device Name: EExplorer
#Serial Number: SN:210151A2B84A
#Date Time: 2021-02-03 11:20:41.154
#Sample rate: 2000Hz
#Samples: 16384
#Trigger: Source: Channel 1 Type: Edge Condition: Rising Level: 0 V Hyst.: Auto HoldOff: 0 s
#Channel 1: Range: 1 V/div Offset: 0 V Attenuation: 1 X
#Channel 2: Range: 1 V/div Offset: 0 V Attenuation: 1 X
#Power Supplies: ON
#Fixed Supply: ON
#Voltage: 3.3 V Readback: 3.375 V
#Positive Supply: ON
#Voltage: 3.7 V Readback: 3.659 V
#Current: 40 mA Readback: 18 mA
#Negative Supply: ON
#Voltage: -3.7 V Readback: -3.363 V
#Current: -40 mA Readback: -2 mA
#Reference 1: ON
#Voltage: 0 V
#Reference 2: ON
#Voltage: 0 V

Time (s),Channel 1 (V),Channel 2 (V)
-4.096,0.7609962756673623,-1.184733543688439
-4.0955,0.8890383739594373,-0.8032545611027584
-4.095,0.8570278493863799,-0.5171453241627173
-4.0945,0.7183155762366316,-0.326405832869877
-4.094,0.6649647019482668,-0.220439448818299
-4.0935,0.8143471499557171,-0.2310360872233123
-4.093,0.7503261008096795,-0.1674562567923655
-4.0925,0.5902734779445854,-0.05089323433562976
-4.092,0.4515612047944783,0.1186529801472997
-4.0915,0.3555296310754218,0.2776025562246667
-4.091,0.2488278824985954,0.5213252395435176
-4.0905,-0.2313299860976669,0.7756445612670927
-4.09,-0.8288597781273515,0.2881991946298341
-4.0895,-1.191645723288561,-0.3370024712750445
-4.089,-1.511750969018749,-0.7078848154555673
-4.0885,-1.821186039891837,-0.9410108603695881
-4.088,-1.447729919872945,-0.5913217929990628
-4.0875,-0.8075194284125683,0.1398462569568251
-4.087,-0.2633405106698414,0.8180311148886299
-4.0865,0.09944543449103843,1.284283204715573
-4.086,0.2808384070714783,1.53860252643936
-4.0855,0.3448594562177392,1.623375633680892
-4.085,0.3448594562177392,1.580989080060261
-4.0845,0.2915085819293745,1.44323278079321
-4.084,0.259498057356249,1.252493289499868
-4.0835,0.2274875327832301,1.029963882991555
-4.083,0.2168173579255475,0.7862411996727035
-4.0825,-0.113958062663187,0.2564092794136186
-4.082,-0.7434983792658902,-0.5277419625680583
-4.0815,-1.223656247861609,-1.216523458903942
-4.081,-1.234326422719282,-1.619195718299937
-4.0805,-0.5087545323968721,-1.714565463946811
-4.08,0.2381577076409128,-1.205926820498774
-4.0795,0.7503261008092137,-0.6549016234305686
-4.079,0.9637295979633325,-0.4005823017059623
-4.0785,0.9637295979633325,-0.3052125560595421
-4.078,0.8356874996712572,-0.2522293640337532
-4.0775,0.6863050516635838,-0.2522293640337147
-4.077,0.6863050516635838,-0.2628260024388724
-4.0765,0.6329541773752191,-0.2522293640337147
-4.076,0.5155822539405643,-0.1886495336026136
-4.0755,0.408880505363835,-0.09327978795619347
-4.075,0.3448594562177392,0.04447651131098315
-4.0745,0.2915085819291513,0.2246193641991764
-4.074,0.09944543449103843,0.6060983467848571
-4.0735,-0.4554036581084589,0.3729723018711736
-4.073,-0.9355615267037409,-0.2628260024382941
-4.0725,-1.351698346153801,-0.7502713690765743
-4.072,-1.821186039891837,-1.036380606016095
-4.0715,-1.661133417026743,-0.7820612842923078
-4.071,-1.010252750707413,-0.008506680714150469
-4.0705,-0.4127229586777283,0.7650479228623686
-4.07,0.01408403562918908,1.33726639674089
-4.0695,0.2381577076410098,1.676358825706903
-4.069,0.3448594562177392,1.824711763379112
-4.0685,0.3555296310754218,1.824711763379112
-4.068,0.3235191065023253,1.718745379327284
-4.0675,0.2701682322139607,1.549199164844759
-4.067,0.2381577076409128,1.326669758336243
-4.0665,0.2274875327831428,1.093543713422231
-4.066,0.1314559590640864,0.7332580076468663
-4.0655,-0.3807124341046804,-0.01910331912002144
-4.065,-0.6901475049771956,-0.7502713690759093
-4.0645,-0.839529952985034,-1.322489842955616
-4.064,-0.4980843575391895,-1.820531847998485
-4.0635,0.1527963087788597,-2.011271339291325
-4.063,0.6756348768061436,-1.873515040023918
-4.0625,0.942389248247967,-1.42845622700729
-4.062,0.9850699476786589,-0.9304142219648737
-4.0615,0.8676980242440235,-0.5913217929988893
-4.061,0.6863050516635838,-0.400582301706049
-4.0605,0.6649647019482183,-0.1674562567923655
-4.06,0.707645401378852,0.04447651131098315
-4.0595,0.6009436528021226,0.04447651131098315
-4.059,0.4835717293676135,-0.02969995752518888
-4.0585,0.387540155648557,-0.07208651114582006
-4.058,0.3235191065023739,-0.02969995752518888
-4.0575,0.1101156093487211,0.2881991946298341
-4.057,-0.4554036581079445,0.447148770707201
-4.0565,-0.9995825758502737,-0.1038764263613609
-4.056,-1.437059745015262,-0.5277419625680583
-4.0555,-1.906547438752871,-0.6019184314041628
-4.055,-2.045259711902551,-0.7502713690762177
-4.0545,-1.362368521011484,-0.3581957480853793
-4.054,-0.6581369804050695,0.2776025562240884
-4.0535,-0.1352984123776886,0.8392243916989164
-4.053,0.1848068333524996,1.25249328950007
-4.0525,0.3235191065023739,1.517409249629256
-4.052,0.3661998059330754,1.644568910491285
-4.0515,0.3341892813600565,1.6657621873016
-4.051,0.291508581929326,1.612778995275763
-4.0505,0.2488278824986342,1.506812611224185
-4.05,0.2274875327832301,1.33726639674141
-4.0495,0.1848068333524996,1.072350436612224
-4.049,-0.2953510352427826,0.404762217087283
-4.0485,-0.9035510021314793,-0.4323722169221778
-4.048,-1.287677297007705,-1.121153713257435
-4.0475,-1.074273799854246,-1.33308648136059
-4.047,-0.3807124341040884,-1.417859588601853
-4.0465,0.2701682322139607,-1.121153713257435
-4.046,0.6969752265208782,-0.7608680074820695
-4.0455,0.8783681991018422,-0.5595318777834641
-4.045,0.8463576745288233,-0.4535654937318862
-4.0445,0.7183155762366316,-0.4111789401112165
-4.044,0.6436243522329501,-0.3899856633007852
-4.0435,0.7503261008096795,-0.2840192792492073
-4.043,0.6969752265212663,-0.252229364033705
-4.0425,0.5582629533715182,-0.2204394488182316
-4.042,0.4408910299368829,-0.1144730647665284
-4.0415,0.3555296310754218,0.04447651131098315
-4.041,0.3875401556484406,0.3093924714399281
-4.0405,0.6863050516633024,0.7650479228620698
-4.04,0.3768699807907871,0.4365521323021782
-4.0395,-0.08194753808914923,-0.1568596183866584
-4.039,-0.7221580295508355,-0.6972881770508336
-4.0385,-1.06360362499637,-0.8032545611024114
-4.038,-0.828859778127565,-0.2098428104135749
-4.0375,-0.4233931335350907,0.5531151547595982
-4.037,-0.07127736323188383,1.188913459069066
-4.0365,0.1634664836371343,1.623375633680931
-4.036,0.2808384070716821,1.856501678594691
-4.0355,0.3235191065023739,1.941274785835954
-4.035,0.3235191065023739,1.920081509025619
-4.0345,0.2915085819293551,1.792921848163725
-4.034,0.2594980573562781,1.591585718465428
-4.0335,0.2274875327832301,1.358459673551745
-4.033,0.2168173579255572,1.072350436612485
-4.0325,-0.06060718837466701,0.5107286011375696
-4.032,-0.572775581542968,-0.3475991096802118
-4.0315,-0.9142211769885019,-1.110557074851573
-4.031,-0.9035510021305574,-1.407262950196608
-4.0305,-0.274010685527854,-1.025783967610927
-4.03,0.3875401556478681,-1.099960436447032
-4.0295,0.825017324813623,-1.269506650929605
-4.029,1.006410297394063,-1.078767159636765
-4.0285,0.9637295979633325,-0.8244478379127463
-4.028,0.8143471499556394,-0.5913217929989568
-4.0275,0.6649647019482183,-0.474758770542221
-4.027,0.6649647019482183,-0.5277419625680583
-4.0265,0.6116138276598536,-0.485355408947427
-4.026,0.5049120790829789,-0.3793890248957141
-4.0255,0.408880505363835,-0.2628260024388724
-4.025,0.3341892813601245,-0.1250697031718211
-4.0245,0.3021787567868339,0.06566978812174207
-4.024,0.1101156093487211,0.5319218779486851
-4.0235,-0.4660738329656175,0.4259554938971071
-4.023,-0.9889124009929017,-0.2204394488186556
-4.0225,-1.330357996438436,-0.718481453861072
-4.022,-1.767835165603026,-1.036380606015806
-4.0215,-1.725154466172121,-0.898624306748263
-4.021,-1.095614149569417,-0.1780528951975329
-4.0205,-0.4874141826815069,0.6166949851900245
-4.02,-0.03926683865860301,1.220703374284915
-4.0195,0.2168173579255475,1.602182356870596
-4.019,0.3235191065023739,1.782325209758442
-4.0185,0.3555296310753927,1.803518486568758
-4.018,0.3235191065023739,1.718745379327438
-4.0175,0.2808384070716433,1.559795803249926
-4.017,0.2488278824986245,1.358459673551928
-4.0165,0.227487532783104,1.114736990232537
-4.016,0.08877525963335578,0.7226613692416989
-4.0155,-0.4874141826809829,-0.06148987273997797
-4.015,-0.9569018764197372,-0.8774310299391231
-4.0145,-1.170305373573196,-1.47084278062796
-4.014,-0.7008176798355867,-1.703968825541431
-4.0135,0.03542438534547632,-1.767548655972388
-4.013,0.6222840025174878,-1.481439419033127
-4.0125,0.9317190733902845,-1.121153713257435
-4.012,0.9850699476786103,-0.8244478379125151
-4.0115,0.8890383739595538,-0.570128516188728
-4.011,0.7183155762366316,-0.4323722169215513
-4.0105,0.6756348768059399,-0.2840192792493422
-4.01,0.7289857510943143,-0.1144730647665284
-4.0095,0.6329541773751706,-0.1250697031716958
-4.009,0.5049120790830953,-0.1568596183871692
-4.0085,0.3875401556484115,-0.125069703171609
-4.008,0.3235191065023739,-0.02969995752518888
-4.0075,0.2381577076409904,0.3093924714398605
-4.007,-0.2313299860976766,0.4895353243275142
-4.0065,-0.839529952985034,-0.06148987274069118
-4.006,-1.26633694729234,-0.474758770542221
-4.0055,-1.725154466172936,-0.4005823017062032
-4.005,-1.991908837614759,-0.570128516188728
-4.0045,-1.426389570157579,-0.2946159176543747
-4.004,-0.7328282044077222,0.2670059178200004
-4.0035,-0.1993194615240755,0.8180311148882058
-4.003,0.142126133921769,1.231300012689736
-4.0025,0.302178756786863,1.506812611223838
-4.002,0.3555296310754218,1.655165548896433
-4.0015,0.3448594562177392,1.70814874092227
-4.001,0.3021787567870474,1.676358825706797
-4.0005,0.2594980573562586,1.580989080060126
-4,0.2381577076409128,1.432636142387917
-3.9995,0.2061471830678648,1.188913459069066
-3.999,-0.2099896363817582,0.5743084315693548
-3.9985,-0.7008176798351597,-0.2416327256285375
-3.998,-0.9889124009925911,-0.9410108603695881
-3.9975,-0.8288597781273515,-1.269506650929778
-3.997,-0.2206598112394408,-1.364876396576285
-3.9965,0.3875401556484697,-1.195330182093607
-3.996,0.7716664505250448,-0.8880276683437509
-3.9955,0.9210488985326017,-0.6019184314042303
-3.995,0.8783681991018712,-0.4217755785163839
-3.9945,0.7289857510943143,-0.3687923864905467
-3.994,0.6222840025174878,-0.3370024712750445
-3.9935,0.7289857510943143,-0.1674562567923655
-3.993,0.6969752265212663,-0.1144730647665284
-3.9925,0.5902734779444399,-0.1038764263613609
-3.992,0.4622313796522482,-0.08268314955102604
-3.9915,0.3661998059331045,-0.008506680714854012
-3.991,0.2701682322139607,0.2034260873884947
-3.9905,-0.1673089369510276,0.6590815388106942
-3.99,-0.8288597781273515,0.3729723018711736
-3.9895,-1.255666772434657,-0.3052125560595421
-3.989,-1.661133417026597,-0.8986243067489184
-3.9885,-1.938557963326346,-1.184733543688439
-3.988,-1.447729919872945,-0.7396747306714069
-3.9875,-0.7648387289812555,0.06566978812131802
-3.987,-0.2206598112394408,0.7862411996727035
-3.9865,0.1207857842064037,1.29487984312074
-3.986,0.3021787567870086,1.580989080060261
-3.9855,0.3555296310754218,1.697552102517103
-3.985,0.3448594562177392,1.676358825706768
-3.9845,0.3021787567870086,1.559795803249926
-3.984,0.2594980573562781,1.400846227172415
-3.9835,0.2381577076409128,1.199510097474233
-3.983,0.2274875327832301,0.9663840525605498
-3.9825,-0.02859666380115328,0.4789386859228479
-3.982,-0.6367966306890638,-0.3475991096802118
-3.9815,-0.9995825758502737,-1.089363798041932
-3.981,-1.020922925565639,-1.587405803084801
-3.9805,-0.4020527838200457,-1.576809164679634
-3.98,0.291508581929326,-1.248313374119443
-3.9795,0.7609962756673623,-0.8986243067489184
-3.979,0.9637295979633325,-0.6866915386455698
-3.9785,0.9530594231056497,-0.5595318777835605
-3.978,0.8143471499557753,-0.474758770542221
-3.9775,0.6436243522328531,-0.4323722169215513
-3.977,0.6863050516635838,-0.5595318777835605
-3.9765,0.7289857510943143,-0.5595318777835605
-3.976,0.6116138276598051,-0.3687923864905467
-3.9755,0.4835717293676135,-0.1250697031716958
-3.975,0.3768699807907871,0.1080563417419877
-3.9745,0.3128489316446912,0.3199891098453364
-3.974,0.05676473506030786,0.7438546460520338
-3.9735,-0.5621054066852853,0.5849050699745222
-3.973,-1.074273799854052,-0.1250697031716958
-3.9725,-1.479740444445993,-0.8138511995075789
-3.972,-1.895877263895616,-1.258910012524611
-3.9715,-1.607782542738184,-1.036380606016095
-3.971,-0.9355615267041777,-0.2946159176543747
-3.9705,-0.3487019095316325,0.457745409112513
-3.97,0.05676473506030786,1.00877060618122
-3.9695,0.2701682322139607,1.33726639674141
-3.969,0.3448594562177392,1.475022696008586
-3.9685,0.3555296310754218,1.496215972818921
-3.968,0.3235191065023739,1.400846227172415
-3.9675,0.2594980573562781,1.241896651094903
-3.967,0.2381577076409128,1.051157159801889
-3.9665,0.2274875327832301,0.8604176685088755
-3.966,0.1314559590640864,0.55311515475902
-3.9655,-0.391382608962363,-0.1568596183871981
-3.965,-0.7968492535543035,-0.8986243067489184
-3.9645,-1.031593100423322,-1.523825972653797
-3.964,-1.020922925565639,-1.990078062481164
-3.9635,-0.4447334832507763,-2.064254531317336
-3.963,0.2061471830678648,-1.725162102351978
-3.9625,0.6542945270905358,-1.184733543688439
-3.962,0.8356874996711408,-0.8456411147230812
-3.9615,0.8036769750980928,-0.570128516188728
-3.961,0.6756348768059011,-0.4217755785163839
-3.9605,0.6542945270905358,-0.4111789401112165
-3.96,0.7823366253827275,-0.4959520473525559
-3.9595,0.7183155762366316,-0.3581957480853793
-3.959,0.5796033030867573,-0.1250697031716958
-3.9585,0.4408910299368829,0.1186529801471552
-3.958,0.3555296310754218,0.3199891098453364
-3.9575,0.1527963087794516,0.6908714540261965
-3.957,-0.4447334832507763,0.92399749893988
-3.9565,-1.06360362499637,0.3199891098453364
-3.956,-1.373038695869166,-0.3158091944647096
-3.9555,-1.607782542738184,-0.6125150698093976
-3.955,-1.87453691418025,-0.9622041371799229
-3.9545,-1.46907026958831,-0.7396747306714069
-3.954,-0.807519428411986,-0.1038764263613609
-3.9535,-0.2526703358124887,0.5107286011383502
-3.953,0.1101156093487211,0.9557874141553824
-3.9525,0.291508581929326,1.220703374284568
-3.952,0.3555296310754218,1.33726639674141
-3.9515,0.3448594562177392,1.326669758336243
-3.951,0.3128489316446912,1.231300012689736
-3.9505,0.2701682322139607,1.082947075017392
-3.95,0.2488278824985954,0.92399749893988
-3.9495,0.2168173579255475,0.7226613692416989
-3.949,-0.1993194615240755,0.1504428953626575
-3.9485,-0.8502001278427167,-0.6443049850249
-3.948,-1.351698346153801,-1.311893204550448
-3.9475,-1.30901764672307,-1.809935209593318
-3.947,-0.5941159312583333,-1.873515040024322
-3.9465,0.142126133921769,-1.322489842955616
-3.946,0.6436243522328531,-0.8032545611024114
-3.9455,0.8676980242441885,-0.4217755785163839
-3.945,0.8890383739595538,-0.1780528951975329
-3.9445,0.7716664505250448,-0.08268314955102604
-3.944,0.6649647019482183,-0.01910331912002144
-3.9435,0.7503261008096795,0.2246193641988295
-3.943,0.7396559259519968,0.2670059178194992
-3.9425,0.6542945270905358,0.1928294489833272
-3.942,0.5262524287983441,0.13984625695749
-3.9415,0.4195506802215176,0.1504428953626575
-3.941,0.3341892813600565,0.2987958330350016
-3.9405,0.00341386077189465,0.7332580076468663
-3.94,-0.658136980404429,0.4683420475176805
-3.9395,-1.159635198715513,-0.252229364033705
-3.939,-1.618452717595867,-0.8986243067489184
-3.9385,-1.981238662757077,-1.227120097309109
-3.938,-1.51175096901904,-0.8350444763179138
-3.9375,-0.8181896032696687,-0.04029659593035631
-3.937,-0.2526703358124887,0.6908714540261965
-3.9365,0.1101156093487211,1.199510097474233
-3.936,0.3021787567870086,1.496215972818921
-3.9355,0.3661998059331045,1.612778995275763
-3.935,0.3555296310754218,1.591585718465428
-3.9345,0.3128489316446912,1.485619334413754
-3.934,0.2808384070716433,1.316073119931075
-3.9335,0.2488278824985954,1.114736990232894
-3.933,0.2381577076409128,0.8816109453192104
-3.9325,-0.007256314085787988,0.4365521323021782
-3.932,-0.6047861061160158,-0.3581957480853793
-3.9315,-1.010252750707956,-1.068170521231597
-3.931,-1.06360362499637,-1.555615887869299
-3.9305,-0.423393133535411,-1.693372187136476
-3.93,0.2808384070716433,-1.619195718300304
-3.9295,0.7716664505250448,-1.301296566145281
-3.929,0.9957401225363802,-0.9833974139902578
-3.9285,0.9957401225363802,-0.6760949002404023
-3.928,0.8676980242441885,-0.4429688553267188
-3.9275,0.6863050516635838,-0.326405832869877
-3.927,0.707645401378949,-0.252229364033705
-3.9265,0.7396559259519968,-0.2416327256285375
-3.926,0.6329541773751706,-0.2310360872233701
-3.9255,0.4942419042252961,-0.1674562567923655
-3.925,0.3875401556484697,-0.06148987274069118
-3.9245,0.3235191065023739,0.07626642652648545
-3.924,0.2061471830678648,0.4683420475176805
-3.9235,-0.2846808603855366,0.4683420475176805
-3.923,-0.7434983792658902,-0.1462629799820306
-3.9225,-1.170305373573196,-0.6760949002404023
-3.922,-1.682473766741963,-1.025783967610927
-3.9215,-1.789175515318789,-0.9939940523954253
-3.921,-1.202315898146244,-0.326405832869877
-3.9205,-0.572775581542968,0.4789386859228479
-3.92,-0.09261771294724913,1.125333628638062
-3.9195,0.1954770082101822,1.528005888034424
-3.919,0.3341892813600565,1.739938656137773
-3.9185,0.3661998059331045,1.79292184816361
-3.918,0.3555296310754218,1.718745379327438
-3.9175,0.3021787567870086,1.559795803249926
-3.917,0.2594980573562781,1.358459673551745
-3.9165,0.2381577076409128,1.135930267043229
-3.916,0.1741366584948169,0.8180311148882058
-3.9155,-0.3380317346739499,0.06566978812131802
-3.915,-0.7968492535543035,-0.7608680074817418
-3.9145,-0.9675720512772257,-1.375473034981453
-3.914,-0.6261264558313813,-1.237716735714276
-3.9135,0.05676473506030786,-0.9939940523954253
-3.913,0.6222840025174878,-0.792657922697244
-3.9125,0.942389248247967,-0.570128516188728
-3.912,1.006410297394063,-0.4641621321370536
-3.9115,0.9103787236749192,-0.400582301706049
-3.911,0.7289857510943143,-0.3793890248957141
-3.9105,0.6436243522328531,-0.400582301706049
-3.91,0.6969752265212663,-0.4323722169215513
-3.9095,0.6329541773751706,-0.3687923864905467
-3.909,0.5155822539406614,-0.252229364033705
-3.9085,0.4302208550792003,-0.1038764263613609
-3.908,0.3555296310754218,0.05507314971615059
-3.9075,0.2168173579255475,0.2352160026039969
-3.907,-0.2313299860971235,0.3729723018711736
-3.9065,-0.690147504977477,-0.08268314955102604
-3.906,-1.031593100423322,-0.6760949002404023
-3.9055,-1.46907026958831,-1.121153713257435
-3.905,-1.661133417026597,-1.184733543688439
-3.9045,-1.191645723288561,-0.5489352393783931
-3.904,-0.5941159312583333,0.2881991946298341
-3.9035,-0.1139580626626144,0.9769806909657173
-3.903,0.1741366584948169,1.432636142387917
-3.9025,0.3128489316446912,1.676358825706768
-3.902,0.3661998059331045,1.75053529454294
-3.9015,0.3448594562177392,1.718745379327438
-3.901,0.3021787567870086,1.580989080060261
-3.9005,0.2594980573562781,1.37965295036208
-3.9,0.2381577076409128,1.157123543853563
-3.8995,0.2168173579255475,0.8922075837243778
-3.899,-0.1886492866663929,0.2670059178194992
-3.8985,-0.8288597781273515,-0.570128516188728
-3.898,-1.244996597576974,-1.280103289334946
-3.8975,-1.180975548430879,-1.555615887869299
-3.897,-0.4767440078238243,-1.576809164679634
-3.8965,0.2594980573562781,-1.364876396576285
-3.896,0.7396559259519968,-1.025783967610927
-3.8955,0.9530594231056497,-0.7396747306714069
-3.895,0.9317190733902845,-0.570128516188728
-3.8945,0.79300680024041,-0.474758770542221
-3.894,0.6542945270905358,-0.4959520473525559
-3.8935,0.7503261008096795,-0.6231117082145651
-3.893,0.7289857510943143,-0.570128516188728
-3.8925,0.6116138276598051,-0.3793890248957141
-3.892,0.4835717293676135,-0.1674562567923655
-3.8915,0.3875401556484697,0.03387987290581572
-3.891,0.3021787567870086,0.2564092794143318
-3.8905,-0.007256314085787988,0.6908714540261965
-3.89,-0.658136980404429,0.4471487707073456
-3.8895,-1.202315898146244,-0.2628260024388724
-3.889,-1.661133417026597,-0.8774310299385835
-3.8885,-2.045259711903173,-1.195330182093607
-3.888,-1.586442193022819,-0.8244478379127463
-3.8875,-0.8715404775580819,-0.008506680714854012
-3.887,-0.2846808603855366,0.7438546460520338
-3.8865,0.09944543449103843,1.284283204715573
-3.886,0.291508581929326,1.602182356870596
