Class_12_Wrist_move/Class_12_Wrist_move_SH_2.csv

#Digilent WaveForms Oscilloscope Acquisition
#Device Name: EExplorer
#Serial Number: SN:210151A2B84A
#Date Time: 2021-02-03 14:03:21.589
#Sample rate: 2000Hz
#Samples: 16384
#Trigger: Source: Channel 1 Type: Edge Condition: Rising Level: 0 V Hyst.: Auto HoldOff: 0 s
#Channel 1: Range: 1 V/div Offset: 0 V Attenuation: 1 X
#Channel 2: Range: 1 V/div Offset: 0 V Attenuation: 1 X
#Power Supplies: ON
#Fixed Supply: ON
#Voltage: 3.3 V Readback: 3.353 V
#Positive Supply: ON
#Voltage: 3.7 V Readback: 3.695 V
#Current: 40 mA Readback: 22 mA
#Negative Supply: ON
#Voltage: -3.7 V Readback: -3.334 V
#Current: -40 mA Readback: -5 mA
#Reference 1: ON
#Voltage: 0 V
#Reference 2: ON
#Voltage: 0 V

Time (s),Channel 1 (V),Channel 2 (V)
-4.096,-1.202315898146244,1.771728571353275
-4.0955,-1.490410619303413,1.422039503983068
-4.095,-1.458400094730453,0.3411823866550159
-4.0945,-1.26633694729234,-0.3793890248957141
-4.094,-0.9675720512774975,-0.7184814538607636
-4.0935,-0.6261264558310417,-0.8350444763179813
-4.093,-0.2526703358124887,-0.9092209451540858
-4.0925,0.131455959063737,-0.9622041371798747
-4.092,0.451561204794682,-0.9516074987747073
-4.0915,0.5796033030867573,-0.8986243067489184
-4.091,0.6649647019482183,-0.8562377531282487
-4.0905,0.6969752265212469,-0.8244478379126307
-4.09,0.6756348768059011,-0.6972881770507372
-4.0895,0.6649647019482183,-0.5171453241628908
-4.089,0.6649647019482183,-0.3264058328700505
-4.0885,0.6542945270905358,-0.1250697031716958
-4.088,0.6222840025174878,-0.1780528951975329
-4.0875,0.8997085488169843,-0.6231117082141603
-4.087,0.6649647019476167,-1.004590690800756
-4.0865,0.00341386077189465,-1.184733543688439
-4.086,-0.8288597781265945,-1.237716735714228
-4.0855,-1.479740444445886,-1.163540266877671
-4.085,-1.362368521011484,-0.6866915386455698
-4.0845,-0.775508903839472,0.0974597033361071
-4.084,-0.2099896363813991,0.7650479228627348
-4.0835,0.1848068333524996,1.167720182258731
-4.083,0.408880505363835,1.33726639674141
-4.0825,0.4942419042252961,1.326669758336156
-4.082,0.4942419042252961,1.231300012689736
-4.0815,0.4622313796522482,1.125333628638062
-4.081,0.3982103305062106,1.019367244586483
-4.0805,0.3341892813600565,0.9557874141553824
-4.08,0.2168173579255475,1.00877060618122
-4.0795,-0.2420001609543888,1.19951009747406
-4.079,-0.8822106524161429,1.453829419197741
-4.0785,-1.298347471865388,0.8922075837243778
-4.078,-1.639793067310922,-0.06148987273982376
-4.0775,-1.607782542737767,-0.4641621321371596
-4.077,-1.148965023857831,-0.5807251545938954
-4.0765,-0.5194247072551273,-0.6549016234299999
-4.076,0.03542438534528224,-0.8032545611025078
-4.0755,0.408880505363835,-0.9092209451540858
-4.075,0.5796033030867573,-0.9939940523954253
-4.0745,0.6863050516637682,-0.9939940523954734
-4.074,0.8890383739595538,-1.046977244421262
-4.0735,0.8997085488172365,-0.9198175835592532
-4.073,0.7930068002405071,-0.6972881770509396
-4.0725,0.6756348768059011,-0.4641621321370536
-4.072,0.6009436528021226,-0.252229364033705
-4.0715,0.6436243522328142,-0.04029659593054907
-4.071,1.049090996824599,0.3941655786813831
-4.0705,0.8356874996711408,0.2564092794143318
-4.07,0.1741366584954186,-0.432372216920925
-4.0695,-0.3166913849587495,-1.046977244421484
-4.069,-0.4980843575391895,-1.290699927740113
-4.0685,-0.3166913849585846,-0.8350444763179138
-4.068,-0.02859666380093978,-0.1144730647659694
-4.0675,0.2061471830678648,0.5001319627331828
-4.067,0.3661998059331045,0.9134008605347127
-4.0665,0.451561204794585,1.146526905448473
-4.066,0.4729015545099309,1.231300012689736
-4.0655,0.4515612047945656,1.25249328950007
-4.065,0.3982103305062009,1.263089927905228
-4.0645,0.3661998059331045,1.263089927905238
-4.064,0.3235191065023739,1.284283204715573
-4.0635,0.2701682322140092,1.390249588767151
-4.063,-0.02859666380152205,1.55979580324982
-4.0625,-0.4340633083930936,1.443232780793084
-4.062,-0.551435231827496,0.4471487707082515
-4.0615,-0.7008176798352665,-0.6019184314046447
-4.061,-0.8181896032696687,-1.05757388282643
-4.0605,-0.6688071552621118,-1.046977244421262
-4.06,-0.3060212101005235,-0.972800775584994
-4.0595,0.1101156093487211,-0.8668343915334161
-4.059,0.4195506802215176,-0.8668343915334161
-4.0585,0.5796033030866118,-0.9410108603695206
-4.058,0.6649647019482183,-1.004590690800593
-4.0575,0.8890383739595538,-1.142346990067769
-4.057,0.9743997728209374,-1.121153713257454
-4.0565,0.8783681991018712,-0.8986243067489184
-4.056,0.7289857510943143,-0.6231117082145651
-4.0555,0.6222840025175849,-0.3687923864907781
-4.055,0.632954177375549,-0.2522293640335508
-4.0545,1.049090996824793,-0.08268314955102604
-4.054,1.379866417412654,0.5425185163532839
-4.0535,0.6969752265203347,0.5107286011376659
-4.053,-0.3273615598162672,-0.2416327256285375
-4.0525,-1.255666772434657,-0.9728007755850904
-4.052,-1.938557963326094,-0.7820612842914597
-4.0515,-1.661133417026597,-0.1038764263613609
-4.051,-0.9035510021311299,0.3305857482505039
-4.0505,-0.2633405106707537,0.5955017083794487
-4.05,0.1741366584948169,0.7544512844572011
-4.0495,0.4195506802215176,0.8604176685088755
-4.049,0.4942419042252282,0.9451907757501379
-4.0485,0.4942419042252573,1.051157159801986
-4.048,0.4515612047945656,1.157123543853563
-4.0475,0.3982103305062009,1.294879843120615
-4.047,0.3235191065021701,1.50681261122432
-4.0465,0.09944543449103843,1.761131932948107
-4.046,-0.508754532396319,2.015451254671894
-4.0455,-0.8928808272737092,1.729342017731564
-4.045,-1.180975548430879,0.5849050699745222
-4.0445,-1.405049220442214,-0.2310360872233701
-4.044,-1.234326422718768,-0.4535654937319537
-4.0435,-0.658136980404429,-0.5277419625680583
-4.043,-0.124628237520297,-0.6231117082145651
-4.0425,0.2915085819289475,-0.7078848154558275
-4.042,0.5582629533713921,-0.792657922697244
-4.0415,0.6863050516635838,-0.8774310299385835
-4.041,0.8356874996710049,-0.9833974139901615
-4.0405,1.02775064710938,-1.025783967610735
-4.04,0.974399772821015,-0.8138511995075789
-4.0395,0.8356874996712669,-0.495952047352845
-4.039,0.7076454013788714,-0.1992461720076558
-4.0385,0.6222840025174878,0.03387987290581572
-4.038,0.8143471499556005,0.4047622170863385
-4.0375,1.230483969405088,0.99817396777584
-4.037,0.8890383739595538,0.7650479228623686
-4.0365,0.0674349099179905,-0.1462629799820306
-4.036,-0.8395299529857133,-0.6231117082140157
-4.0355,-1.586442193022819,-0.01910331912002144
-4.035,-1.618452717595867,0.627291623595192
-4.0345,-0.9889124009931637,0.73325800764677
-4.034,-0.3593720843893152,0.627291623595192
-4.0335,0.09944543449103843,0.5213252395435176
-4.033,0.3661998059328618,0.4789386859228865
-4.0325,0.4729015545099309,0.53192187794882
-4.032,0.4729015545099309,0.6802748156210291
-4.0315,0.4088805053638933,0.9028042221293429
-4.031,0.3555296310753927,1.125333628638254
-4.0305,0.3235191065023739,1.33726639674141
-4.03,0.2168173579256445,1.591585718465197
-4.0295,-0.3060212101014454,1.867098316999781
-4.029,-0.9035510021311299,1.867098316999781
-4.0285,-1.277007122150022,0.9875773293708847
-4.028,-1.266336947291991,0.1186529801468468
-4.0275,-0.8822106524157645,-0.2204394488182027
-4.027,-0.4127229586777283,-0.400582301706049
-4.0265,0.07810508477522671,-0.4323722169215224
-4.026,0.4408910299368829,-0.3899856633008816
-4.0255,0.6863050516635838,-0.3687923864905467
-4.025,0.7823366253826401,-0.3793890248957045
-4.0245,0.8250173248135841,-0.3899856633009298
-4.024,0.9637295979633325,-0.4429688553267188
-4.0235,0.9210488985326406,-0.326405832869983
-4.023,0.8036769750979763,-0.1250697031715223
-4.0225,0.6756348768059011,0.06566978812131802
-4.022,0.6009436528021905,0.2140227257935272
-4.0215,0.6756348768062601,0.3305857482508123
-4.021,1.070431346540159,0.6696781772158616
-4.0205,0.6649647019482183,0.4365521323021782
-4.02,-0.0606071883748708,-0.3158091944652396
-4.0195,-0.7968492535543035,-0.8986243067489184
-4.019,-1.51175096901904,-1.407262950196955
-4.0185,-1.821186039891556,-1.661582271920742
-4.018,-1.255666772434657,-1.205926820498774
-4.0175,-0.572775581542968,-0.5171453241628908
-4.017,-0.02859666380164816,0.06566978812078805
-4.0165,0.3021787567871445,0.4259554938971842
-4.016,0.4515612047945656,0.6166949851900245
-4.0155,0.4835717293675844,0.6802748156209713
-4.015,0.4515612047945171,0.7120647308365603
-4.0145,0.3982103305061524,0.7438546460520338
-4.014,0.3341892813601148,0.8074344764829805
-4.0135,0.2488278824983237,0.9769806909659293
-4.013,-0.04993701351651855,1.210106735879401
-4.0125,-0.6261264558313813,1.528005888034424
-4.012,-1.191645723288842,1.485619334413253
-4.0115,-1.501080794161358,0.9345941373450475
-4.011,-1.373038695869166,0.1822328105781598
-4.0105,-0.8075194284125004,-0.2734226408436254
-4.01,-0.3166913849585846,-0.4853554089473885
-4.0095,0.07810508477567314,-0.6337083466197325
-4.009,0.3768699807905154,-0.6549016234300481
-4.0085,0.5582629533714697,-0.6549016234300867
-4.008,0.6436243522328531,-0.6760949002404023
-4.0075,0.8783681991016578,-0.8138511995074535
-4.007,0.9530594231055721,-0.7926579226970513
-4.0065,0.8676980242441885,-0.5807251545938954
-4.006,0.7396559259519968,-0.326405832869877
-4.0055,0.6329541773751415,-0.05089323433531172
-4.005,0.6009436528021226,0.1822328105781598
-4.0045,0.9957401225363802,0.5425185163538525
-4.004,1.198473444831749,0.9345941373445656
-4.0035,0.5369226036560266,0.4047622170866759
-4.003,-0.274010685527854,-0.3052125560595421
-4.0025,-1.084943974710997,-0.983397413989641
-4.002,-1.618452717595867,-1.396666311791788
-4.0015,-1.319687821580753,-1.110557074852267
-4.001,-0.7008176798357226,-0.3793890248963792
-4.0005,-0.1459685872353227,0.2987958330354353
-4,0.2274875327832301,0.775644561267536
-3.9995,0.4195506802215176,1.040560521396722
-3.999,0.4835717293676135,1.135930267043229
-3.9985,0.4729015545099309,1.178316820663898
-3.998,0.408880505363835,1.188913459069066
-3.9975,0.3661998059331045,1.188913459069066
-3.997,0.3021787567870086,1.284283204715573
-3.9965,0.1314559590640864,1.453829419198252
-3.996,-0.3807124341046804,1.655165548896433
-3.9955,-0.7755089038389382,1.188913459069066
-3.995,-0.9995825758502737,0.1186529801471552
-3.9945,-1.010252750707956,-0.400582301706049
-3.994,-0.8181896032696687,-0.6654982618352349
-3.9935,-0.4554036581084589,-0.8138511995075789
-3.993,-0.03926683865883591,-0.9622041371799229
-3.9925,0.3341892813600565,-1.05757388282643
-3.992,0.5475927785137094,-1.110557074852267
-3.9915,0.6542945270905358,-1.0999604364471
-3.991,0.7289857510943143,-1.110557074852267
-3.9905,0.7716664505250448,-1.0999604364471
-3.99,0.7183155762366316,-0.9092209451540858
-3.9895,0.6329541773751706,-0.6549016234300674
-3.989,0.5689331282290746,-0.3899856633008816
-3.9885,0.5369226036560266,-0.1462629799820306
-3.988,0.7823366253827275,0.002089957690313421
-3.9875,1.091771696255524,0.1610395337678249
-3.987,0.5155822539406614,-0.2416327256285375
-3.9865,-0.3380317346739499,-0.7396747306714069
-3.986,-1.159635198715513,-0.8774310299385835
-3.9855,-1.87453691418025,-0.1568596183871981
-3.985,-1.949228138184029,0.6484849004055269
-3.9845,-1.191645723288561,0.849821030103708
-3.984,-0.4660738329661415,0.7332580076468663
-3.9835,0.04609456020262521,0.5637117931641874
-3.983,0.3448594562177392,0.457745409112513
-3.9825,0.4729015545099309,0.4259554938970107
-3.982,0.4729015545099309,0.4895353243280153
-3.9815,0.4195506802215176,0.627291623595192
-3.981,0.3555296310754218,0.8180311148882058
-3.9805,0.3021787567870086,1.029963882991555
-3.98,0.2274875327832301,1.305476481525908
-3.9795,-0.2313299860971235,1.623375633680931
-3.979,-0.8608703027003992,1.803518486568777
-3.9785,-1.30901764672307,1.644568910491266
-3.978,-1.26633694729234,0.9557874141553824
-3.9775,-0.8502001278427167,0.2564092794143318
-3.977,-0.391382608962363,-0.2628260024388724
-3.9765,-0.02859666380115328,-0.5913217929990628
-3.976,0.2701682322139607,-0.7820612842920766
-3.9755,0.4729015545099309,-0.8350444763179138
-3.975,0.5902734779444399,-0.8668343915334161
-3.9745,0.6542945270905358,-0.8880276683437509
-3.974,0.79300680024041,-0.9410108603695881
-3.9735,0.8143471499557753,-0.7502713690765743
-3.973,0.7503261008096795,-0.4429688553267188
-3.9725,0.6649647019482183,-0.1250697031716958
-3.972,0.5902734779444399,0.1610395337678249
-3.9715,0.6542945270905358,0.4789386859228479
-3.971,1.038420821967111,0.9663840525605498
-3.9705,0.7183155762366316,0.6802748156210291
-3.97,-0.1139580626626144,-0.1462629799820306
-3.9695,-0.2313299860971235,-0.6866915386455698
-3.969,0.09944543449103843,-1.142346990067769
-3.9685,-0.2206598112394408,-1.375473034981453
-3.968,-0.2846808603855366,-0.9833974139902578
-3.9675,-0.1032878878049318,-0.2416327256285375
-3.967,0.1101156093487211,0.4047622170866759
-3.9665,0.2808384070716433,0.8180311148882058
-3.966,0.3768699807907871,1.029963882991555
-3.9655,0.3982103305061524,1.093543713422559
-3.965,0.3555296310754218,1.104140351827727
-3.9645,0.3235191065023739,1.072350436612224
-3.964,0.3021787567870086,1.019367244586387
-3.9635,0.2701682322139607,1.040560521396722
-3.963,-0.007256314085787988,1.210106735879401
-3.9625,-0.4874141826815069,1.390249588767247
-3.962,-0.8288597781273515,0.6802748156210291
-3.9615,-0.7968492535543035,-0.2840192792492073
-3.961,-0.5407650569699201,-0.7078848154559045
-3.9605,-0.2313299860971235,-0.8562377531282487
-3.96,0.04609456020262521,-0.8986243067489184
-3.9595,0.3235191065023739,-0.9833974139902578
-3.959,0.5155822539406614,-1.068170521231597
-3.9585,0.6329541773751706,-1.068170521231597
-3.958,0.6969752265212663,-1.068170521231597
-3.9575,0.8676980242441885,-1.174136905283272
-3.957,1.017080472251745,-1.174136905283272
-3.9565,0.9957401225363802,-0.9728007755850904
-3.956,0.857027849386506,-0.6654982618352349
-3.9555,0.6969752265212663,-0.3581957480853793
-3.955,0.6116138276598051,-0.06148987274069118
-3.9545,0.8783681991018712,0.4471487707073456
-3.954,0.6649647019482183,0.8922075837243778
-3.9535,-0.156638762093345,0.3305857482505039
-3.953,-0.8608703027003992,-0.5277419625680583
-3.9525,-1.533091318734406,-1.237716735714276
-3.952,-1.991908837614759,-1.598002441489969
-3.9515,-1.490410619303675,-1.227120097309109
-3.951,-0.7434983792658902,-0.4323722169215513
-3.9505,-0.1459685872356623,0.309392471440169
-3.95,0.2381577076409128,0.8286277532933731
-3.9495,0.4302208550792003,1.114736990232894
-3.949,0.4835717293676135,1.241896651094903
-3.9485,0.4622313796522482,1.29487984312074
-3.948,0.3982103305061524,1.29487984312074
-3.9475,0.3448594562177392,1.29487984312074
-3.947,0.291508581929326,1.347863035146577
-3.9465,0.1101156093487211,1.453829419198252
-3.946,-0.391382608962363,1.591585718465428
-3.9455,-0.7861790786966207,0.9451907757502149
-3.945,-1.127624674142465,-0.1568596183871981
-3.9445,-1.415719395299897,-0.7396747306714069
-3.944,-1.30901764672307,-0.7820612842920766
-3.9435,-0.8928808272734472,-0.7714646458869092
-3.943,-0.4660738329661415,-0.7608680074817418
-3.9425,-0.007256314085787988,-0.7714646458869092
-3.942,0.3341892813600565,-0.8032545611024114
-3.9415,0.5155822539406614,-0.8774310299385835
-3.941,0.79300680024041,-0.9833974139902578
-3.9405,1.059761171682476,-1.046977244421262
-3.94,1.017080472251745,-0.9092209451540858
-3.9395,0.8676980242441885,-0.6760949002404023
-3.939,0.7289857510943143,-0.4429688553267188
-3.9385,0.6329541773751706,-0.2204394488182027
-3.938,0.825017324813458,0.1186529801471552
-3.9375,1.113112045970889,0.5743084315693548
-3.937,0.4729015545099309,0.2564092794143318
-3.9365,-0.423393133535411,-0.4111789401112165
-3.936,-1.255666772434657,-0.9939940523954253
-3.9355,-1.949228138184029,-1.354279758171118
-3.935,-1.810515865034154,-1.205926820498774
-3.9345,-1.042263275281004,-0.5171453241628908
-3.934,-0.3593720843893152,0.2034260873884947
-3.9335,0.1101156093487211,0.7332580076468663
-3.933,0.3768699807907871,1.019367244586387
-3.9325,0.4729015545099309,1.114736990232894
-3.932,0.4622313796522482,1.125333628638062
-3.9315,0.408880505363835,1.093543713422559
-3.931,0.3555296310754218,1.040560521396722
-3.9305,0.3128489316446912,1.051157159801889
-3.93,0.2168173579255475,1.167720182258731
-3.9295,-0.2526703358124887,1.464426057603419
-3.929,-0.807519428411986,1.42203950398275
-3.9285,-1.26633694729234,0.4895353243280153
-3.928,-1.67180359188428,-0.3370024712750445
-3.9275,-1.67180359188428,-0.5065486857577234
-3.927,-1.234326422719292,-0.4853554089473885
-3.9265,-0.7861790786966207,-0.5489352393783931
-3.926,-0.274010685527854,-0.7396747306714069
-3.9255,0.1954770082101822,-0.9092209451540858
-3.925,0.5155822539406614,-1.01518732920576
-3.9245,0.6329541773751706,-1.0999604364471
-3.924,0.6542945270905358,-1.121153713257435
-3.9235,0.6649647019482183,-0.9728007755850904
-3.923,0.6329541773751706,-0.7714646458869092
-3.9225,0.5796033030867573,-0.5383386009732256
-3.922,0.5582629533713921,-0.3158091944647096
-3.9215,0.6436243522328531,-0.02969995752518888
-3.921,0.9103787236749192,0.4471487707073456
-3.9205,0.408880505363835,0.1822328105781598
-3.92,-0.3593720843893152,-0.5595318777835605
-3.9195,-1.116954499284783,-1.205926820498774
-3.919,-1.799845690176472,-1.364876396576285
-3.9185,-1.895877263895616,-0.6443049850249
-3.918,-1.180975548430879,0.03387987290581572
-3.9175,-0.4767440078238243,0.4683420475176805
-3.917,0.03542438534494258,0.701468092431364
-3.9165,0.3448594562177392,0.8392243916985406
-3.916,0.4729015545099309,0.9028042221295453
-3.9155,0.4835717293676135,0.9557874141553824
-3.915,0.4302208550792003,1.061753798207057
-3.9145,0.3661998059331045,1.178316820663898
-3.914,0.3021787567870086,1.284283204715573
-3.9135,0.2594980573562781,1.432636142387917
-3.913,0.02475421048725994,1.633972272086098
-3.9125,-0.4660738329661415,1.867098316999781
-3.912,-0.9569018764195432,1.655165548896433
-3.9115,-1.362368521011484,0.6908714540261965
-3.911,-1.543761493592088,0.04447651131098315
-3.9105,-1.30901764672307,-0.2840192792492073
-3.91,-0.8822106524157645,-0.5383386009732256
-3.9095,-0.3273615598162672,-0.6866915386455698
-3.909,0.1314559590640864,-0.7502713690765743
-3.9085,0.4835717293676135,-0.7820612842920766
-3.908,0.6649647019482183,-0.8774310299385835
-3.9075,0.8997085488172365,-1.036380606016095
-3.907,0.9637295979633325,-0.9939940523954253
-3.9065,0.8783681991018712,-0.7714646458869092
-3.906,0.7503261008096795,-0.4853554089473885
-3.9055,0.6649647019482183,-0.2310360872233701
-3.905,0.6329541773751706,-0.02969995752518888
-3.9045,0.9530594231056497,-0.02969995752518888
-3.904,0.6969752265212663,-0.3687923864905467
-3.9035,-0.1459685872356623,-0.8562377531282487
-3.903,-0.9248913518464952,-1.205926820498774
-3.9025,-1.618452717595867,-1.174136905283272
-3.902,-2.055929886760855,-0.3370024712750445
-3.9015,-1.501080794161358,0.3305857482505039
-3.901,-0.7328282044082075,0.55311515475902
-3.9005,-0.1352984123779797,0.55311515475902
-3.9,0.2488278824985954,0.4789386859228479
-3.8995,0.4408910299368829,0.4153588554918433
-3.899,0.4942419042252961,0.3941655786815084
-3.8985,0.4515612047945656,0.4259554938970107
-3.898,0.3982103305061524,0.4895353243280153
-3.8975,0.3555296310754218,0.5955017083796896
-3.897,0.3128489316446912,0.8074344764830383
-3.8965,0.1101156093487211,1.146526905448396
-3.896,-0.4980843575391895,1.570392441655093
-3.8955,-1.031593100423322,1.432636142387917
-3.895,-1.341028171296118,0.5001319627331828
-3.8945,-1.51175096901904,-0.02969995752518888
-3.894,-1.244996597576974,-0.2310360872233701
-3.8935,-0.754168554123573,-0.4111789401112165
-3.893,-0.3487019095316325,-0.5065486857577234
-3.8925,0.01408403562957729,-0.5489352393783931
-3.892,0.3448594562177392,-0.6019184314042303
-3.8915,0.6009436528021226,-0.5913217929990628
-3.891,0.8997085488172365,-0.6443049850249
-3.8905,1.134452395686255,-0.7396747306714069
-3.89,1.049090996824793,-0.5489352393783931
-3.8895,0.8783681991018712,-0.2734226408440398
-3.889,0.707645401378949,0.002089957690313421
-3.8885,0.6009436528021226,0.2352160026039969
-3.888,0.8143471499557753,0.5743084315693548
-3.8875,1.059761171682476,1.104140351827727
-3.887,0.3982103305061524,1.00877060618122
-3.8865,-0.5407650569699201,0.13984625695749
-3.886,-1.383708870726849,-0.6231117082145651
