Class_12_Wrist_move/Class_12_Wrist_move_Turki_4.csv

#Digilent WaveForms Oscilloscope Acquisition
#Device Name: EExplorer
#Serial Number: SN:210151A2B84A
#Date Time: 2021-02-04 11:28:30.973
#Sample rate: 2000Hz
#Samples: 16384
#Trigger: Source: Channel 1 Type: Edge Condition: Rising Level: 0 V Hyst.: Auto HoldOff: 0 s
#Channel 1: Range: 1 V/div Offset: 0 V Attenuation: 1 X
#Channel 2: Range: 1 V/div Offset: 0 V Attenuation: 1 X
#Power Supplies: ON
#Fixed Supply: ON
#Voltage: 3.3 V Readback: 3.327 V
#Positive Supply: ON
#Voltage: 3.7 V Readback: 3.717 V
#Current: 40 mA Readback: 16 mA
#Negative Supply: ON
#Voltage: -3.7 V Readback: -3.35 V
#Current: -40 mA Readback: -8 mA
#Reference 1: ON
#Voltage: 0 V
#Reference 2: ON
#Voltage: 0 V

Time (s),Channel 1 (V),Channel 2 (V)
-4.096,0.2168173579255475,0.002089957690313421
-4.0955,0.1634664836371828,0.02328323450062901
-4.095,0.07810508477528497,-0.2734226408445506
-4.0945,-0.3487019095316325,-0.8350444763179138
-4.094,-0.6367966306888018,-1.216523458903595
-4.0935,-0.9569018764200187,-1.078767159636514
-4.093,-1.479740444445993,-0.8032545611024114
-4.0925,-1.639793067311087,-0.7926579226972537
-4.092,-1.212986073003441,-0.4217755785159695
-4.0915,-0.6794773301197943,0.03387987290581572
-4.091,-0.2633405106701714,0.4153588554918433
-4.0905,-0.007256314085681239,0.6802748156211736
-4.09,0.1101156093487211,0.8392243916985406
-4.0895,0.142126133921769,0.9134008605347127
-4.089,0.1207857842064231,0.9345941373450282
-4.0885,0.07810508477567314,0.92399749893988
-4.088,0.05676473506030786,0.9028042221295453
-4.0875,0.03542438534496199,0.860417668508914
-4.087,-0.02859666380160939,0.712064730836011
-4.0865,-0.5300948821122373,0.13984625695749
-4.086,-1.031593100422866,-0.6231117082138711
-4.0855,-1.298347471865077,-1.269506650929971
-4.085,-0.9569018764195432,-1.481439419033127
-4.0845,-0.2633405106708022,-1.004590690801026
-4.084,0.3341892813603768,-0.4005823017056732
-4.0835,0.6863050516635838,0.01268659609548085
-4.083,0.79300680024041,0.2140227257936621
-4.0825,0.7289857510941687,0.277602556224657
-4.082,0.5689331282290746,0.2670059178194992
-4.0815,0.5049120790829789,0.2034260873884947
-4.081,0.622284002517381,0.1080563417420745
-4.0805,0.5902734779444399,0.06566978812131802
-4.08,0.4408910299368829,0.05507314971615059
-4.0795,0.2915085819294618,0.08686306493162396
-4.079,0.1848068333524898,0.1292496185523901
-4.0785,0.1741366584948169,0.2034260873884947
-4.078,0.01408403562972288,0.1610395337678635
-4.0775,-0.615456280974339,-0.4323722169221585
-4.077,-1.319687821580753,-1.0999604364471
-4.0765,-1.917217613610438,-1.650985633515305
-4.076,-1.821186039891264,-1.566212526273812
-4.0755,-1.191645723288561,-0.8456411147230812
-4.075,-0.6154562809736985,-0.1250697031716958
-4.0745,-0.1993194615238523,0.404762217086965
-4.074,0.04609456020262521,0.7226613692416989
-4.0735,0.142126133921769,0.8710143069140429
-4.073,0.1634664836371149,0.9134008605346742
-4.0725,0.142126133921769,0.8816109453192104
-4.072,0.09944543449103843,0.8286277532933731
-4.0715,0.07810508477569256,0.7650479228624264
-4.071,0.06743490991796139,0.6908714540261002
-4.0705,0.03542438534494258,0.5849050699745222
-4.07,-0.3166913849582643,0.1186529801475792
-4.0695,-0.8502001278431437,-0.6443049850255168
-4.069,-1.319687821580753,-1.322489842955616
-4.0685,-1.26633694729234,-1.608599079895136
-4.068,-0.5941159312577025,-1.237716735713929
-4.0675,0.09944543449103843,-0.8562377531282487
-4.067,0.5582629533713921,-0.4959520473525559
-4.0665,0.7503261008096699,-0.1780528951973402
-4.066,0.7396559259519968,0.03387987290581572
-4.0655,0.6222840025174878,0.1292496185523226
-4.065,0.4835717293677396,0.1822328105781116
-4.0645,0.5475927785137094,0.3199891098453364
-4.064,0.4835717293676135,0.3623756634660061
-4.0635,0.4515612047945947,0.319989109845375
-4.063,0.3661998059330268,0.2564092794143029
-4.0625,0.2808384070716433,0.2246193641988295
-4.062,0.1741366584949139,0.1822328105781983
-4.0615,-0.2526703358130419,-0.2310360872239291
-4.061,-0.8608703027003992,-0.8456411147230812
-4.0605,-1.223656247861609,-1.280103289334946
-4.06,-1.586442193023197,-1.492036057438372
-4.0595,-2.002579012472442,-1.576809164679634
-4.059,-1.703814116457328,-1.121153713257435
-4.0585,-1.063603624996952,-0.3475991096809153
-4.058,-0.4980843575391895,0.3305857482505039
-4.0575,-0.124628237520297,0.775644561267536
-4.057,0.07810508477548878,1.019367244586165
-4.0565,0.1634664836371343,1.093543713422559
-4.056,0.1634664836371343,1.072350436612224
-4.0555,0.1421261339217884,1.008770606181277
-4.055,0.09944543449101902,0.9028042221294296
-4.0545,0.07810508477567314,0.775644561267536
-4.054,0.05676473506032727,0.6484849004056426
-4.0535,-0.06060718837457967,0.2987958330343366
-4.053,-0.4767440078238243,-0.4323722169215513
-4.0525,-0.8181896032696687,-1.142346990067769
-4.052,-1.084943974711521,-1.682775548731087
-4.0515,-0.8502001278427167,-1.439052865412457
-4.051,-0.2420001609548061,-1.01518732920576
-4.0505,0.2808384070711678,-0.6125150698097639
-4.05,0.5796033030867573,-0.2628260024388724
-4.0495,0.6649647019482183,-0.02969995752518888
-4.049,0.5902734779445078,0.05507314971607348
-4.0485,0.4622313796522967,0.06566978812125056
-4.048,0.5155822539406614,-0.008506680714854012
-4.0475,0.5475927785136803,-0.07208651114580078
-4.047,0.462231379652122,-0.02969995752511178
-4.0465,0.3235191065023739,0.05507314971615059
-4.046,0.2381577076409904,0.1398462569574129
-4.0455,0.1741366584945743,0.2140227257933922
-4.045,-0.09261771294724913,-0.08268314955102604
-4.0445,-0.7328282044082075,-0.718481453861072
-4.044,-1.277007122150449,-1.301296566145666
-4.0435,-1.746494815888059,-1.725162102351978
-4.043,-2.258663209056825,-1.915901593644992
-4.0425,-1.959898313041983,-1.470842780628365
-4.042,-1.202315898146244,-0.6231117082145651
-4.0415,-0.572775581542968,0.1186529801471552
-4.041,-0.1459685872360505,0.6272916235947293
-4.0405,0.08877525963343341,0.902804222129632
-4.04,0.1741366584948169,0.9981739677760521
-4.0395,0.1848068333524898,0.9981739677760521
-4.039,0.1527963087794128,0.9239974989397933
-4.0385,0.1101156093487211,0.8286277532933731
-4.038,0.08877525963337518,0.7120647308366375
-4.0375,0.06743490991793227,0.5743084315692392
-4.037,0.00341386077189465,0.4471487707073456
-4.0365,-0.4660738329661415,-0.008506680714854012
-4.036,-0.9142211769889871,-0.7290780922667213
-4.0355,-1.1062843244271,-1.258910012524611
-4.035,-0.7328282044082075,-0.9728007755850904
-4.0345,-0.1352984123785231,-0.5065486857581474
-4.034,0.3555296310754218,-0.1568596183871981
-4.0335,0.6329541773751706,-0.008506680714854012
-4.033,0.6969752265212081,0.02328323450061937
-4.0325,0.6222840025173714,0.03387987290579644
-4.032,0.4942419042252961,0.01268659609548085
-4.0315,0.4942419042252961,-0.1568596183870439
-4.031,0.6969752265212275,-0.4111789401111297
-4.0305,0.6542945270905358,-0.3158091944647096
-4.03,0.5155822539407875,-0.05089323433576465
-4.0295,0.3661998059329977,0.2034260873886778
-4.029,0.2488278824985954,0.4047622170866759
-4.0285,0.2488278824985954,0.4471487707073456
-4.028,0.110115609348265,-0.05089323433606345
-4.0275,-0.391382608962363,-0.6443049850249
-4.027,-0.7755089038389382,-0.9728007755850904
-4.0265,-1.25566677243422,-1.184733543688246
-4.026,-1.735824641030376,-1.322489842955616
-4.0255,-1.533091318734406,-0.9410108603695881
-4.025,-0.978242226135413,-0.2734226408446471
-4.0245,-0.4660738329658116,0.2987958330353293
-4.024,-0.1032878878049318,0.6590815388106942
-4.0235,0.08877525963318109,0.8180311148880612
-4.023,0.163466483637144,0.8392243916984924
-4.0225,0.1741366584948169,0.7862411996727035
-4.022,0.1421261339217981,0.6802748156211255
-4.0215,0.1101156093486823,0.5743084315692488
-4.021,0.0674349099179905,0.457745409112513
-4.0205,0.03542438534494258,0.3305857482505039
-4.02,-0.3060212101013969,0.04447651131041454
-4.0195,-0.8502001278427167,-0.5807251545938954
-4.019,-1.458400094730627,-1.205926820498774
-4.0185,-1.447729919872954,-1.661582271920559
-4.018,-0.7328282044082075,-1.449649503817625
-4.0175,0.00341386077189465,-0.792657922697244
-4.017,0.4942419042248497,-0.2628260024393542
-4.0165,0.7076454013789587,0.04447651131114699
-4.016,0.7183155762366316,0.2246193641988295
-4.0155,0.5902734779445563,0.2776025562246185
-4.015,0.4729015545100376,0.256409279414245
-4.0145,0.5902734779444399,0.1610395337678249
-4.014,0.579603303086767,0.08686306493172034
-4.0135,0.4515612047944394,0.08686306493170107
-4.013,0.3128489316446912,0.13984625695749
-4.0125,0.2061471830678648,0.1928294489833272
-4.012,0.2061471830679716,0.2670059178193065
-4.0115,0.3235191065023739,0.05507314971615059
-4.011,-0.1459685872356623,-0.5807251545938954
-4.0105,-0.6688071552616363,-1.131750351662101
-4.01,-1.074273799854052,-1.364876396576285
-4.0095,-1.586442193022819,-1.576809164679634
-4.009,-1.66113341702653,-1.364876396576478
-4.0085,-1.159635198715018,-0.6549016234294506
-4.008,-0.6154562809736985,0.02328323450064829
-4.0075,-0.199319461524454,0.5107286011379069
-4.007,0.04609456020272226,0.7862411996727998
-4.0065,0.1527963087794516,0.8922075837243778
-4.006,0.1741366584948169,0.9028042221295453
-4.0055,0.1634664836371149,0.8392243916984731
-4.005,0.142126133921769,0.7650479228623686
-4.0045,0.1207857842064037,0.6802748156210291
-4.004,0.08877525963312287,0.5743084315690657
-4.0035,-0.1673089369510276,0.2564092794143318
-4.003,-0.7861790786966207,-0.4535654937318862
-4.0025,-1.330357996437941,-1.142346990067143
-4.002,-1.554431668449771,-1.523825972653797
-4.0015,-1.074273799854052,-1.152943628472937
-4.001,-0.3060212101016007,-0.6549016234305204
-4.0005,0.3128489316450212,-0.2310360872231195
-4,0.6756348768059011,0.04447651131098315
-3.9995,0.7823366253827275,0.1928294489833272
-3.999,0.7183155762366316,0.2034260873884947
-3.9985,0.5689331282290746,0.1504428953626575
-3.998,0.6009436528021226,0.002089957690313421
-3.9975,0.5902734779444399,-0.06148987274069118
-3.997,0.4622313796522482,0.02328323450064829
-3.9965,0.3235191065023739,0.1186529801471552
-3.996,0.2274875327832301,0.2140227257936621
-3.9955,0.1527963087794516,0.2564092794143318
-3.995,-0.1993194615240755,-0.1250697031716958
-3.9945,-0.6794773301197943,-0.7608680074817418
-3.994,-0.9782422261349084,-1.322489842955616
-3.9935,-1.405049220442214,-1.735758740757146
-3.993,-1.863866739322568,-1.894708316834657
-3.9925,-1.618452717595867,-1.333086481360783
-3.992,-1.010252750707956,-0.4853554089473885
-3.9915,-0.4660738329661415,0.2246193641988295
-3.991,-0.09261771294724913,0.6908714540261965
-3.9905,0.1101156093487211,0.92399749893988
-3.99,0.1848068333524996,1.00877060618122
-3.9895,0.1954770082101822,0.9875773293708847
-3.989,0.1634664836371343,0.92399749893988
-3.9885,0.1314559590640864,0.8180311148882058
-3.988,0.1101156093487211,0.7226613692416989
-3.9875,0.08877525963335578,0.6060983467848571
-3.987,-0.02859666380115328,0.3623756634660061
-3.9865,-0.5621054066852853,-0.2840192792492073
-3.986,-1.074273799854052,-1.004590690800593
-3.9855,-1.426389570157579,-1.566212526274467
-3.985,-1.287677297007705,-1.608599079895136
-3.9845,-0.5834457564006506,-1.036380606016095
-3.984,0.09944543449103843,-0.4853554089473885
-3.9835,0.5582629533713921,-0.02969995752518888
-3.983,0.7609962756673623,0.1822328105781598
-3.9825,0.7609962756673623,0.2352160026039969
-3.982,0.6329541773751706,0.1822328105781598
-3.9815,0.6116138276598051,-0.008506680714854012
-3.981,0.6863050516635838,-0.1992461720078678
-3.9805,0.5902734779444399,-0.1356663415768632
-3.98,0.4408910299368829,0.002089957690313421
-3.9795,0.3128489316446912,0.1292496185523226
-3.979,0.2274875327832301,0.2458126410091644
-3.9785,-0.01792648894347063,0.05507314971615059
-3.978,-0.658136980404429,-0.5489352393783931
-3.9775,-1.031593100423322,-1.078767159636765
-3.977,-1.319687821580753,-1.502632695843462
-3.9765,-1.757164990745741,-1.788741932782983
-3.976,-2.002579012472442,-1.75695201756748
-3.9755,-1.458400094730627,-1.036380606016095
-3.975,-0.8181896032696687,-0.252229364033705
-3.9745,-0.3060212101009019,0.3623756634660061
-3.974,0.00341386077189465,0.7226613692416989
-3.9735,0.1634664836371343,0.8922075837243778
-3.973,0.2061471830678648,0.92399749893988
-3.9725,0.2061471830678648,0.8816109453192104
-3.972,0.1741366584948169,0.8074344764830383
-3.9715,0.142126133921769,0.6908714540261965
-3.971,0.1101156093487211,0.5849050699745222
-3.9705,0.0674349099179905,0.4683420475176805
-3.97,-0.3700422592469978,-0.01910331912002144
-3.9695,-0.9462317015618604,-0.7396747306714069
-3.969,-1.554431668449771,-1.364876396576285
-3.9685,-1.821186039891837,-1.566212526274467
-3.968,-1.127624674142465,-0.9410108603695881
-3.9675,-0.274010685527854,-0.3052125560595421
-3.967,0.3555296310754218,0.05507314971615059
-3.9665,0.6756348768059011,0.2352160026039969
-3.966,0.7396559259519968,0.2564092794143318
-3.9655,0.6542945270905358,0.2458126410091644
-3.965,0.5475927785137094,0.13984625695749
-3.9645,0.6969752265212663,-0.1356663415768632
-3.964,0.6649647019482183,-0.1780528951975329
-3.9635,0.5262524287983441,-0.05089323433552374
-3.963,0.3661998059331045,0.1080563417419877
-3.9625,0.2488278824985954,0.2458126410091644
-3.962,0.2274875327832301,0.2670059178194992
-3.9615,0.3661998059331045,-0.1886495336027004
-3.961,-0.07127736323188383,-0.8668343915334161
-3.9605,-0.7755089038389382,-1.407262950196955
-3.96,-1.394379045584531,-1.714565463946811
-3.9595,-1.981238662757077,-1.862918401619155
-3.959,-1.842526389607202,-1.407262950196955
-3.9585,-1.170305373573196,-0.5913217929990628
-3.958,-0.5621054066852853,0.1080563417419877
-3.9575,-0.1352984123779797,0.5743084315693548
-3.957,0.1101156093487211,0.8074344764830383
-3.9565,0.2061471830678648,0.8922075837243778
-3.956,0.2168173579255475,0.8816109453192104
-3.9555,0.1848068333524996,0.8074344764830383
-3.955,0.1527963087794516,0.7120647308365314
-3.9545,0.1207857842064037,0.6166949851900245
-3.954,0.09944543449103843,0.5107286011383502
-3.9535,-0.1459685872356623,0.1610395337678249
-3.953,-0.658136980404429,-0.5277419625680583
-3.9525,-0.839529952985034,-1.163540266878104
-3.952,-0.7755089038389382,-1.661582271920973
-3.9515,-0.3380317346739499,-1.492036057438295
-3.951,0.1848068333524996,-0.8774310299385835
-3.9505,0.5582629533713921,-0.3899856633008816
-3.95,0.7396559259519968,-0.06148987274069118
-3.9495,0.7503261008096795,0.13984625695749
-3.949,0.6542945270905358,0.2034260873884947
-3.9485,0.5369226036560266,0.1928294489833272
-3.948,0.6222840025174878,0.03387987290581572
-3.9475,0.6863050516635838,-0.02969995752518888
-3.947,0.5689331282290746,0.08686306493165288
-3.9465,0.4195506802215176,0.2034260873884947
-3.946,0.3021787567870086,0.309392471440169
-3.9455,0.2168173579255475,0.3623756634660061
-3.945,-0.07127736323188383,0.01268659609548085
-3.9445,-0.5941159312583333,-0.6549016234300674
-3.944,-1.212986073003927,-1.258910012524611
-3.9435,-1.885207089037933,-1.693372187136476
-3.943,-2.386705307349017,-1.873515040024322
-3.9425,-1.87453691418025,-1.34368311976595
-3.942,-1.074273799854052,-0.5065486857577234
-3.9415,-0.4554036581084589,0.1928294489833272
-3.941,-0.04993701351651855,0.6484849004055269
-3.9405,0.1634664836371343,0.8816109453192104
-3.94,0.2381577076409128,0.9451907757502149
-3.9395,0.2274875327832301,0.92399749893988
-3.939,0.1848068333524996,0.8392243916985406
-3.9385,0.1314559590640864,0.7226613692416989
-3.938,0.09944543449103843,0.5955017083796896
-3.9375,0.08877525963335578,0.4895353243280153
-3.937,0.00341386077189465,0.3305857482505039
-3.9365,-0.4874141826815069,-0.2310360872233701
-3.936,-1.148965023857831,-0.9198175835592532
-3.9355,-1.799845690176472,-1.502632695843462
-3.935,-1.650463242168915,-1.894708316834657
-3.9345,-0.7861790786966207,-1.767548655972648
-3.934,0.01408403562957729,-1.025783967610927
-3.9335,0.5155822539406614,-0.4111789401112165
-3.933,0.7289857510943143,-0.01910331912002144
-3.9325,0.7183155762366316,0.1504428953626575
-3.932,0.5796033030867573,0.1822328105781598
-3.9315,0.5582629533713921,0.1504428953626575
-3.931,0.6542945270905358,0.1292496185523226
-3.9305,0.6009436528021226,0.1186529801471552
-3.93,0.4942419042252961,0.1292496185523226
-3.9295,0.3661998059331045,0.1716361721729923
-3.929,0.2701682322139607,0.2140227257936621
-3.9285,0.1207857842064037,0.06566978812131802
-3.928,-0.4020527838200457,-0.5171453241628908
-3.9275,-0.9889124009925911,-1.131750351662602
-3.927,-1.351698346153801,-1.576809164679634
-3.9265,-1.778505340461106,-1.852321763213987
-3.926,-2.03458953704549,-1.809935209593318
-3.9255,-1.490410619303675,-1.068170521231597
-3.925,-0.8181896032696687,-0.2628260024388724
-3.9245,-0.2953510352432193,0.3729723018711736
-3.924,0.03542438534494258,0.7544512844572011
-3.9235,0.1954770082101822,0.9345941373450475
-3.923,0.2381577076409128,0.9875773293708847
-3.9225,0.2381577076409128,0.9557874141553824
-3.922,0.1954770082101822,0.8816109453192104
-3.9215,0.1634664836371343,0.7968378380778709
-3.921,0.142126133921769,0.701468092431364
-3.9205,0.08877525963335578,0.55311515475902
-3.92,-0.3487019095316325,0.05507314971615059
-3.9195,-0.807519428411986,-0.6972881770507372
-3.919,-1.010252750707956,-1.311893204550448
-3.9185,-0.6794773301197943,-1.227120097309109
-3.918,-0.07127736323188383,-0.7714646458869092
-3.9175,0.4408910299368829,-0.3793890248957141
-3.917,0.7396559259519968,-0.1356663415768632
-3.9165,0.825017324813458,-0.008506680714854012
-3.916,0.7609962756673623,0.04447651131098315
-3.9155,0.6116138276598051,0.05507314971615059
-3.915,0.5049120790829789,0.04447651131098315
-3.9145,0.6009436528021226,-0.1144730647665284
-3.914,0.5902734779444399,-0.07208651114585861
-3.9135,0.5049120790829789,0.07626642652648545
-3.913,0.408880505363835,0.2564092794143318
-3.9125,0.3128489316446912,0.4153588554918433
-3.912,0.2274875327832301,0.5319218779486851
-3.9115,-0.156638762093345,0.1928294489833272
-3.911,-0.9142211769888124,-0.474758770542221
-3.9105,-1.650463242168915,-1.025783967610927
-3.91,-2.301343908487556,-1.375473034981453
-3.9095,-2.408045657064382,-1.449649503817625
-3.909,-1.725154466172693,-0.8880276683437509
-3.9085,-0.9035510021311299,-0.1356663415768632
-3.908,-0.3166913849585846,0.4683420475176805
-3.9075,0.04609456020262521,0.8286277532933731
-3.907,0.2168173579255475,0.9769806909657173
-3.9065,0.2594980573562781,0.9875773293708847
-3.906,0.2488278824985954,0.9134008605347127
-3.9055,0.2061471830678648,0.8074344764830383
-3.905,0.1741366584948169,0.6802748156210291
-3.9045,0.1527963087794516,0.55311515475902
-3.904,0.1207857842064037,0.4153588554918433
-3.9035,-0.156638762093345,0.06566978812131802
-3.903,-0.7328282044082075,-0.6019184314042303
-3.9025,-1.255666772434657,-1.237716735714276
-3.902,-1.437059745015262,-1.492036057438295
-3.9015,-0.9142211769888124,-1.004590690800593
-3.901,-0.1886492866663929,-0.4217755785163839
-3.9005,0.3448594562177392,-0.02969995752518888
-3.9,0.6542945270905358,0.1716361721729923
-3.8995,0.7396559259519968,0.2352160026039969
-3.899,0.6542945270905358,0.2034260873884947
-3.8985,0.5369226036560266,0.1292496185523226
-3.898,0.5369226036560266,0.1080563417419877
-3.8975,0.5262524287983441,0.1080563417419877
-3.897,0.4622313796522482,0.1292496185523226
-3.8965,0.3768699807907871,0.1928294489833272
-3.896,0.3021787567870086,0.2564092794143318
-3.8955,0.2594980573562781,0.3305857482505039
-3.895,0.4408910299368829,0.3305857482505039
-3.8945,0.2594980573562781,-0.1674562567923655
-3.894,-0.3700422592469978,-0.8032545611024114
-3.8935,-1.095614149569417,-1.290699927740113
-3.893,-1.746494815888059,-1.576809164679634
-3.8925,-1.703814116457328,-1.258910012524611
-3.892,-1.1062843244271,-0.4853554089473885
-3.8915,-0.5300948821122373,0.2352160026039969
-3.891,-0.1139580626626144,0.7332580076468663
-3.8905,0.1207857842064037,1.00877060618122
-3.89,0.2274875327832301,1.104140351827727
-3.8895,0.2488278824985954,1.093543713422559
-3.889,0.2274875327832301,1.029963882991555
-3.8885,0.1954770082101822,0.92399749893988
-3.888,0.1741366584948169,0.8180311148882058
-3.8875,0.1634664836371343,0.701468092431364
-3.887,0.04609456020262521,0.4789386859228479
