Class_12_Wrist_move/Class_12_Wrist_move_Souku_2.csv

#Digilent WaveForms Oscilloscope Acquisition
#Device Name: EExplorer
#Serial Number: SN:210151A2B84A
#Date Time: 2021-01-28 10:12:22.005
#Sample rate: 2000Hz
#Samples: 16384
#Trigger: Source: Channel 1 Type: Edge Condition: Rising Level: 0 V Hyst.: Auto HoldOff: 0 s
#Channel 1: Range: 1 V/div Offset: 0 V Attenuation: 1 X
#Channel 2: Range: 1 V/div Offset: 0 V Attenuation: 1 X
#Power Supplies: ON
#Fixed Supply: ON
#Voltage: 3.3 V Readback: 3.324 V
#Positive Supply: ON
#Voltage: 3.7 V Readback: 3.719 V
#Current: 40 mA Readback: 19 mA
#Negative Supply: ON
#Voltage: -3.7 V Readback: -3.353 V
#Current: -40 mA Readback: -9 mA
#Reference 1: ON
#Voltage: 0 V
#Reference 2: ON
#Voltage: 0 V

Time (s),Channel 1 (V),Channel 2 (V)
-4.096,-0.02859666380115328,-0.5277419625680583
-4.0955,-0.0926177129471909,-0.2310360872236399
-4.095,0.2061471830685733,0.2564092794149871
-4.0945,0.9850699476786977,0.9769806909657173
-4.094,1.763992712288822,1.623375633680343
-4.0935,1.838683936292241,1.697552102516226
-4.093,0.6649647019482183,0.7332580076468663
-4.0925,-0.7648387289799552,-0.4323722169204912
-4.092,-1.91721761361134,-1.248313374119578
-4.0915,-2.312014083345239,-1.396666311791788
-4.091,-1.746494815888059,-0.7608680074817418
-4.0905,-1.095614149568961,0.04447651131159032
-4.09,-0.5941159312583333,0.7120647308365314
-4.0895,-0.2846808603855366,1.157123543853563
-4.089,-0.1566387620934614,1.379652950361877
-4.0885,-0.2206598112394408,1.167720182258731
-4.088,-0.423393133535411,0.6060983467848571
-4.0875,-0.7968492535539637,-0.08268314955039968
-4.087,-1.39437904558457,-0.5913217929992846
-4.0865,-1.437059745015262,-0.8350444763179138
-4.086,-0.3593720843902952,-0.2734226408445506
-4.0855,0.8783681991022594,0.6166949851902558
-4.085,1.305175193409177,0.8710143069140429
-4.0845,1.251824319120812,0.6590815388108869
-4.084,0.9530594231054362,0.1292496185518889
-4.0835,0.7183155762366316,-0.3475991096802118
-4.083,0.5689331282290746,-0.6654982618352349
-4.0825,0.4942419042252476,-0.9304142219645749
-4.082,0.4408910299368829,-1.0999604364471
-4.0815,0.3768699807907871,-1.163540266878104
-4.081,0.4088805053638059,-0.9410108603697905
-4.0805,0.3128489316446912,-0.8032545611024114
-4.08,0.142126133921769,-0.7396747306714069
-4.0795,-0.01792648894332505,-0.6443049850249867
-4.079,-0.1032878878048153,-0.4959520473522572
-4.0785,0.02475421048725994,-0.1674562567923655
-4.078,0.6863050516629822,0.5001319627325757
-4.0775,1.507908515705564,1.252493289500485
-4.077,1.966726034585501,1.70814874092227
-4.0765,1.16646292026003,1.114736990233434
-4.076,-0.2633405106713165,-0.01910331912085028
-4.0755,-1.522421143876723,-0.9304142219644207
-4.075,-2.162631635337682,-1.216523458903942
-4.0745,-1.789175515318236,-0.6760949002396699
-4.074,-1.180975548430879,0.1292496185523226
-4.0735,-0.6794773301197943,0.8286277532933731
-4.073,-0.3380317346742604,1.32666975833579
-4.0725,-0.1673089369510276,1.591585718465428
-4.072,-0.1886492866663929,1.506812611224089
-4.0715,-0.3913826089621787,0.9557874141558835
-4.071,-0.7755089038395108,0.2564092794138114
-4.0705,-1.405049220442214,-0.3158091944647096
-4.07,-1.714484291314729,-0.5913217929988123
-4.0695,-0.8288597781261287,-0.1886495336019294
-4.069,0.5155822539406614,0.6590815388106942
-4.0685,1.337185717982225,1.082947075017392
-4.068,1.390536592270386,0.6590815388101255
-4.0675,1.113112045970889,0.03387987290581572
-4.067,0.8036769750980928,-0.4959520473525559
-4.0665,0.5689331282289387,-0.888027668343963
-4.066,0.4195506802215176,-1.121153713257435
-4.0655,0.3555296310754218,-1.195330182093607
-4.065,0.334189281360076,-1.216523458903922
-4.0645,0.4515612047945656,-1.290699927740113
-4.064,0.4942419042252961,-1.290699927740113
-4.0635,0.3235191065025291,-1.0681705212318
-4.063,0.1207857842062581,-0.7714646458866298
-4.0625,-0.03926683865883591,-0.4641621321370536
-4.062,-0.06060718837418178,-0.1144730647668464
-4.0615,0.4408910299376302,0.5425185163545175
-4.061,1.262494493978446,1.273686566310405
-4.0605,1.934715510012453,1.814115124973944
-4.06,1.57192956485001,1.506812611223048
-4.0595,0.2168173579255475,0.3623756634660061
-4.059,-1.138294849000148,-0.7396747306714069
-4.0585,-1.821186039891216,-1.280103289334454
-4.058,-1.629122892453549,-0.9092209451540858
-4.0575,-1.127624674142465,-0.1780528951975329
-4.057,-0.668807155262529,0.5107286011377239
-4.0565,-0.3593720843893152,1.00877060618122
-4.056,-0.1886492866663929,1.316073119931075
-4.0555,-0.167308936951047,1.337266396741391
-4.055,-0.3487019095318945,0.8816109453186128
-4.0545,-0.6367966306890638,0.2246193641988295
-4.054,-1.127624674142019,-0.3793890248951647
-4.0535,-1.661133417026258,-0.6443049850245627
-4.053,-1.287677297007705,-0.2734226408440398
-4.0525,-0.03926683865883591,0.5743084315693548
-4.052,1.04909099682458,1.220703374284154
-4.0515,0.8143471499557753,0.7650479228623686
-4.051,0.142126133921769,-0.04029659593035631
-4.0505,-0.07127736323168973,-0.5383386009727726
-4.05,-0.02859666380115328,-0.8350444763179138
-4.0495,0.09944543449103843,-1.01518732920576
-4.049,0.2061471830677678,-1.121153713257338
-4.0485,0.2594980573563072,-1.195330182093587
-4.048,0.291508581929326,-1.174136905283272
-4.0475,0.3448594562176907,-1.18473354368843
-4.047,0.2381577076407672,-1.089363798041778
-4.0465,0.07810508477567314,-0.9198175835592532
-4.046,-0.03926683865872917,-0.7078848154560973
-4.0455,-0.1032878878046794,-0.4747587705418452
-4.045,0.1741366584948169,-0.06148987274069118
-4.0445,0.9317190733902845,0.701468092431364
-4.044,1.731982187716609,1.4326361423881
-4.0435,1.870694460866357,1.633972272086098
-4.043,0.7396559259519968,0.7650479228623686
-4.0425,-0.6901475049761767,-0.3581957480843576
-4.042,-1.778505340461106,-1.142346990067769
-4.0415,-1.949228138184029,-1.110557074852267
-4.041,-1.458400094731074,-0.4323722169221682
-4.0405,-0.914221176988434,0.3411823866562206
-4.04,-0.4980843575391895,0.9451907757502149
-4.0395,-0.2526703358127119,1.347863035146211
-4.039,-0.14596858723574,1.53860252643936
-4.0385,-0.2313299860971235,1.284283204715573
-4.038,-0.476744007823601,0.6590815388112629
-4.0375,-0.9035510021316734,-0.02969995752562257
-4.037,-1.501080794161358,-0.5065486857577234
-4.0365,-1.447729919872945,-0.6443049850249
-4.036,-0.3166913849574491,-0.01910331911925044
-4.0355,0.9317190733902845,0.8286277532933731
-4.035,1.56125938999356,0.8604176685088755
-4.0345,1.539919040278214,0.1186529801478299
-4.034,1.134452395686255,-0.5277419625680583
-4.0335,0.8356874996711408,-1.004590690800593
-4.033,0.590273477944663,-1.205926820498591
-4.0325,0.4515612047944976,-1.25891001252462
-4.032,0.3768699807907871,-1.269506650929778
-4.0315,0.3235191065024224,-1.248313374119463
-4.031,0.3982103305061039,-1.322489842955567
-4.0305,0.3448594562177392,-1.269506650929778
-4.03,0.1741366584949722,-1.06817052123178
-4.0295,0.01408403562948025,-0.8244478379125343
-4.029,-0.09261771294724913,-0.5913217929990628
-4.0285,0.00341386077189465,-0.2628260024388724
-4.028,0.6329541773759179,0.3729723018718675
-4.0275,1.454557641416734,1.135930267043229
-4.027,1.945385684870135,1.612778995275763
-4.0265,1.187803269975357,1.0511571598024
-4.026,-0.2420001609548061,-0.09327978795619347
-4.0255,-1.51175096901904,-1.046977244421262
-4.025,-2.141291285621744,-1.407262950196627
-4.0245,-1.778505340460563,-0.9092209451533629
-4.024,-1.180975548430879,-0.1144730647665284
-4.0235,-0.6794773301202504,0.5849050699738862
-4.023,-0.3380317346738043,1.082947075017652
-4.0225,-0.1779791118087102,1.369056311956912
-4.022,-0.1886492866663832,1.28428320471565
-4.0215,-0.4020527838203757,0.7438546460514074
-4.021,-0.7648387289812555,0.05507314971615059
-4.0205,-1.330357996438436,-0.4641621321370536
-4.02,-1.650463242168177,-0.5065486857571452
-4.0195,-0.839529952985034,0.1292496185523226
-4.019,0.4622313796522482,0.9663840525605498
-4.0185,1.337185717981429,1.284283204715284
-4.018,1.593269914566608,0.5213252395435176
-4.0175,1.411876941986003,-0.3475991096802118
-4.017,1.059761171682796,-0.7820612842916814
-4.0165,0.6863050516633412,-1.025783967611024
-4.016,0.4195506802215176,-1.131750351662602
-4.0155,0.3128489316447883,-1.152943628472918
-4.015,0.2701682322140286,-1.163540266878152
-4.0145,0.3448594562177392,-1.216523458903942
-4.014,0.3875401556484309,-1.227120097309099
-4.0135,0.2488278824984401,-1.068170521231385
-4.013,0.07810508477567314,-0.8350444763179138
-4.0125,-0.04993701351651855,-0.5807251545938954
-4.012,-0.06060718837375478,-0.2522293640331075
-4.0115,0.4302208550792003,0.4047622170866759
-4.011,1.241154144263081,1.167720182258731
-4.0105,1.924045335154149,1.75053529454241
-4.01,1.582599739708926,1.506812611224089
-4.0095,0.2381577076409128,0.3941655786815084
-4.009,-1.138294848998896,-0.6972881770497446
-4.0085,-2.013249187329999,-1.280103289334666
-4.008,-1.87453691418025,-0.9728007755850904
-4.0075,-1.309017646723585,-0.2204394488188869
-4.007,-0.7861790786962811,0.5213252395440091
-4.0065,-0.4127229586777283,1.061753798207057
-4.006,-0.2099896363817582,1.411442865577582
-4.0055,-0.1566387620934905,1.485619334413378
-4.005,-0.3166913849585846,1.072350436612224
-4.0045,-0.5941159312583333,0.4047622170866759
-4.004,-1.106284324427624,-0.2310360872237267
-4.0035,-1.682473766741963,-0.6231117082145651
-4.003,-1.30901764672307,-0.4429688553267188
-4.0025,-0.04993701351766355,0.3729723018704315
-4.002,1.070431346540159,1.093543713422559
-4.0015,1.251824319120764,0.9769806909657173
-4.001,1.177133095117053,0.3517790250614073
-4.0005,0.8676980242439556,-0.3052125560600047
-4,0.6116138276598051,-0.8138511995075789
-3.9995,0.5049120790829789,-1.110557074852267
-3.999,0.4835717293676135,-1.195330182093607
-3.9985,0.4515612047945656,-1.152943628472937
-3.998,0.4515612047945656,-1.174136905283272
-3.9975,0.5475927785137094,-1.237716735714276
-3.997,0.408880505363835,-1.152943628472937
-3.9965,0.1954770082101822,-0.9622041371799229
-3.996,0.01408403562957729,-0.7290780922662394
-3.9955,-0.09261771294724913,-0.4853554089473885
-3.995,0.1314559590640864,-0.08268314955102604
-3.9945,0.8783681991018712,0.6696781772158616
-3.994,1.667961138570387,1.390249588767247
-3.9935,1.860024286008674,1.602182356870596
-3.993,0.7716664505250448,0.7332580076468663
-3.9925,-0.658136980404429,-0.4111789401112165
-3.992,-1.735824641030376,-1.216523458903942
-3.9915,-1.885207089037933,-1.205926820498774
-3.991,-1.426389570157579,-0.5277419625680583
-3.9905,-0.9035510021311299,0.2352160026039969
-3.99,-0.4980843575391895,0.8604176685088755
-3.9895,-0.2526703358124887,1.263089927905238
-3.989,-0.156638762093345,1.475022696008586
-3.9885,-0.2206598112394408,1.273686566310405
-3.988,-0.4020527838200457,0.7650479228623686
-3.9875,-0.754168554123573,0.1186529801471552
-3.987,-1.341028171296118,-0.3899856633008816
-3.9865,-1.319687821580753,-0.4429688553267188
-3.986,-0.2313299860971235,0.2140227257936621
-3.9855,0.9850699476786977,1.019367244586387
-3.985,1.35852606769759,1.072350436612224
-3.9845,1.177133095116985,0.3199891098453364
-3.984,0.8890383739595538,-0.4111789401112165
-3.9835,0.6222840025174878,-0.8880276683437509
-3.983,0.4302208550792003,-1.142346990067769
-3.9825,0.3341892813600565,-1.258910012524611
-3.982,0.3448594562177392,-1.280103289334946
-3.9815,0.3768699807907871,-1.227120097309109
-3.981,0.5155822539406614,-1.068170521231597
-3.9805,0.4622313796522482,-0.9622041371799229
-3.98,0.2594980573562781,-0.8562377531282487
-3.9795,0.05676473506030786,-0.7290780922662394
-3.979,-0.07127736323188383,-0.5595318777835605
-3.9785,0.1101156093487211,-0.08268314955102604
-3.978,0.8036769750980928,0.7226613692416989
-3.9775,1.603940089424291,1.464426057603419
-3.977,2.062757608304644,1.877694955404949
-3.9765,1.305175193409177,1.29487984312074
-3.976,-0.156638762093345,0.1080563417419877
-3.9755,-1.458400094730627,-0.8774310299385835
-3.975,-2.290673733629873,-1.322489842955616
-3.9745,-2.002579012472442,-0.8986243067489184
-3.974,-1.341028171296118,-0.08268314955102604
-3.9735,-0.7755089038389382,0.6802748156210291
-3.973,-0.4020527838200457,1.231300012689736
-3.9725,-0.1993194615240755,1.559795803249926
-3.972,-0.1886492866663929,1.517409249629256
-3.9715,-0.3380317346739499,1.019367244586387
-3.971,-0.572775581542968,0.3941655786815084
-3.9705,-1.1062843244271,-0.1568596183871981
-3.97,-1.479740444445993,-0.1992461720078678
-3.9695,-0.7434983792658902,0.4259554938970107
-3.969,0.5155822539406614,1.178316820663898
-3.9685,1.273164668836129,1.432636142387917
-3.968,1.145122570543937,0.8922075837243778
-3.9675,0.8676980242441885,0.2670059178194992
-3.967,0.6436243522328531,-0.3158091944647096
-3.9665,0.4622313796522482,-0.7290780922662394
-3.966,0.3661998059331045,-0.9728007755850904
-3.9655,0.3128489316446912,-1.152943628472937
-3.965,0.2701682322139607,-1.216523458903942
-3.9645,0.3341892813600565,-1.301296566145281
-3.964,0.3982103305061524,-1.269506650929778
-3.9635,0.2594980573562781,-1.025783967610927
-3.963,0.07810508477567314,-0.718481453861072
-3.9625,-0.04993701351651855,-0.400582301706049
-3.962,-0.07127736323188383,-0.04029659593035631
-3.9615,0.3982103305061524,0.6166949851900245
-3.961,1.209143619690033,1.33726639674141
-3.9605,1.902704985439405,1.856501678594614
-3.96,1.635950613997339,1.623375633680931
-3.9595,0.3021787567870086,0.4789386859228479
-3.959,-1.084943974711735,-0.6654982618352349
-3.9585,-1.906547438753298,-1.311893204550448
-3.958,-1.767835165603424,-1.05757388282643
-3.9575,-1.244996597576974,-0.3370024712750445
-3.957,-0.754168554123573,0.383568940276341
-3.9565,-0.4020527838200457,0.92399749893988
-3.956,-0.2099896363817582,1.263089927905238
-3.9555,-0.1673089369510276,1.358459673551745
-3.955,-0.3166913849585846,0.9769806909657173
-3.9545,-0.572775581542968,0.3305857482505039
-3.954,-1.06360362499637,-0.2946159176543747
-3.9535,-1.629122892453549,-0.6866915386455698
-3.953,-1.319687821580753,-0.6760949002404023
-3.9525,-0.08194753808956648,0.08686306493165288
-3.952,1.059761171682476,0.8816109453192104
-3.9515,1.305175193409177,0.8074344764830383
-3.951,1.262494493978446,-0.008506680714854012
-3.9505,1.166462920259302,-0.9410108603695881
-3.95,0.9317190733902845,-1.364876396576285
-3.9495,0.6969752265212663,-1.354279758171118
-3.949,0.5262524287983441,-1.237716735714276
-3.9485,0.3982103305061524,-1.142346990067769
-3.948,0.3661998059331045,-1.068170521231597
-3.9475,0.4195506802215176,-1.078767159636765
-3.947,0.3021787567870086,-1.068170521231597
-3.9465,0.1207857842064037,-0.9833974139902578
-3.946,-0.02859666380115328,-0.8350444763179138
-3.9455,-0.1139580626626144,-0.6337083466197325
-3.945,0.09944543449103843,-0.2734226408440398
-3.9445,0.8356874996711408,0.4683420475176805
-3.944,1.625280439139656,1.263089927905238
-3.9435,1.860024286008674,1.591585718465428
-3.943,0.8143471499557753,0.8180311148882058
-3.9425,-0.6047861061160158,-0.2840192792492073
-3.942,-1.789175515318789,-1.089363798041932
-3.9415,-2.215982509626095,-1.216523458903942
-3.941,-1.714484291315011,-0.5807251545938954
-3.9405,-1.095614149569417,0.2458126410091644
-3.94,-0.6154562809736985,0.9345941373450475
-3.9395,-0.3166913849585846,1.400846227172415
-3.939,-0.1779791118087102,1.633972272086098
-3.9385,-0.2313299860971235,1.453829419198252
-3.938,-0.4447334832507763,0.8604176685088755
-3.9375,-0.8502001278427167,0.1610395337678249
-3.937,-1.46907026958831,-0.3581957480853793
-3.9365,-1.575772018165136,-0.3899856633008816
-3.936,-0.5407650569699201,0.2564092794143318
-3.9355,0.7503261008096795,1.051157159801889
-3.935,1.294505018551494,1.188913459069066
-3.9345,1.486568165989782,0.3623756634660061
-3.934,1.881364635724039,-0.6972881770507372
-3.9335,2.105438307735375,-1.566212526274467
-3.933,1.934715510012453,-2.000674700886331
-3.9325,1.433217291701369,-1.576809164679634
-3.932,0.9850699476786977,-1.152943628472937
-3.9315,0.6222840025174878,-0.8244478379127463
-3.931,0.5369226036560266,-0.8138511995075789
-3.9305,0.3982103305061524,-0.8456411147230812
-3.93,0.1741366584948169,-0.792657922697244
-3.9295,-0.007256314085787988,-0.718481453861072
-3.929,-0.124628237520297,-0.6337083466197325
-3.9285,-0.007256314085787988,-0.3793890248957141
-3.928,0.6009436528021226,0.2246193641988295
-3.9275,1.422547116843686,0.9663840525605498
-3.927,1.966726034585501,1.485619334413754
-3.9265,1.305175193409177,1.029963882991555
-3.926,-0.1139580626626144,-0.08268314955102604
-3.9255,-1.426389570157579,-1.089363798041932
-3.925,-2.247993034199143,-1.650985633515806
-3.9245,-1.981238662757077,-1.290699927740113
-3.924,-1.341028171296118,-0.5277419625680583
-3.9235,-0.7861790786966207,0.1928294489833272
-3.923,-0.4127229586777283,0.7120647308365314
-3.9225,-0.2206598112394408,1.029963882991555
-3.922,-0.2099896363817582,1.029963882991555
-3.9215,-0.3593720843893152,0.6060983467848571
-3.921,-0.6154562809736985,0.01268659609548085
-3.9205,-1.180975548430879,-0.4959520473525559
-3.92,-1.618452717595867,-0.4323722169215513
-3.9195,-1.042263275281004,0.2564092794143318
-3.919,0.2274875327832301,1.093543713422559
-3.9185,1.081101521397841,1.464426057603419
-3.918,0.6969752265212663,0.7226613692416989
-3.9175,0.2594980573562781,-0.1038764263613609
-3.917,0.1207857842064037,-0.6443049850249
-3.9165,0.1527963087794516,-0.9198175835592532
-3.916,0.2274875327832301,-1.046977244421262
-3.9155,0.2701682322139607,-1.078767159636765
-3.915,0.291508581929326,-1.089363798041932
-3.9145,0.3768699807907871,-1.05757388282643
-3.914,0.4622313796522482,-1.025783967610927
-3.9135,0.3128489316446912,-0.9516074987747555
-3.913,0.1207857842064037,-0.8138511995075789
-3.9125,-0.03926683865883591,-0.6231117082145651
-3.912,-0.09261771294724913,-0.3581957480853793
-3.9115,0.3235191065023739,0.2458126410091644
-3.911,1.134452395686255,1.029963882991555
-3.9105,1.849354111150991,1.6657621873016
-3.91,1.678631313428069,1.591585718465428
-3.9095,0.3875401556484697,0.5637117931641874
-3.909,-0.9889124009925911,-0.5171453241628908
-3.9085,-1.67180359188428,-1.004590690800593
-3.908,-1.51175096901904,-0.6125150698093976
-3.9075,-1.06360362499637,0.09745970333682032
-3.907,-0.6474668055467465,0.7650479228623686
-3.9065,-0.3593720843893152,1.25249328950007
-3.906,-0.2099896363817582,1.559795803249926
-3.9055,-0.1673089369510276,1.655165548896433
-3.905,-0.3060212101009019,1.305476481525908
-3.9045,-0.5621054066852853,0.6378882620003594
-3.904,-0.9995825758502737,-0.01910331912002144
-3.9035,-1.586442193022819,-0.4535654937318862
-3.903,-1.373038695869166,-0.5277419625680583
-3.9025,-0.1673089369510276,0.1610395337678249
-3.902,0.9957401225363802,0.92399749893988
-3.9015,1.049090996824793,0.7968378380778709
-3.901,0.9637295979633325,0.2246193641988295
-3.9005,1.187803269974668,-0.6443049850249
-3.9,1.337185717982225,-1.375473034981453
-3.8995,1.15579274540162,-1.481439419033127
-3.899,0.8676980242441885,-1.375473034981453
-3.8985,0.6436243522328531,-1.322489842955616
-3.898,0.4835717293676135,-1.174136905283272
-3.8975,0.4515612047945656,-1.078767159636765
-3.897,0.291508581929326,-1.025783967610927
-3.8965,0.08877525963335578,-0.9728007755850904
-3.896,-0.06060718837420119,-0.9092209451540858
-3.8955,-0.1352984123779797,-0.8032545611024114
-3.895,0.08877525963335578,-0.4853554089473885
-3.8945,0.825017324813458,0.2776025562246667
-3.894,1.635950613997339,1.061753798207057
-3.8935,1.902704985439405,1.411442865577582
-3.893,0.857027849386506,0.6802748156210291
-3.8925,-0.5834457564006506,-0.4217755785163839
-3.892,-1.799845690176472,-1.269506650929778
-3.8915,-2.493407055925843,-1.566212526274467
-3.891,-2.013249187330125,-1.004590690800593
-3.8905,-1.298347471865388,-0.1462629799820306
-3.89,-0.7434983792658902,0.6060983467848571
-3.8895,-0.3700422592469978,1.135930267043229
-3.889,-0.1993194615240755,1.432636142387917
-3.8885,-0.2313299860971235,1.316073119931075
-3.888,-0.4020527838200457,0.7968378380778709
-3.8875,-0.7755089038389382,0.1610395337678249
-3.887,-1.405049220442214,-0.2946159176543747
-3.8865,-1.586442193022819,-0.4217755785163839
-3.886,-0.6154562809736985,0.1292496185523226
-3.8855,0.6756348768059011,0.9345941373450475
