Class_12_Wrist_move/Class_12_Wrist_move_Turki_3.csv

#Digilent WaveForms Oscilloscope Acquisition
#Device Name: EExplorer
#Serial Number: SN:210151A2B84A
#Date Time: 2021-02-03 11:29:09.411
#Sample rate: 2000Hz
#Samples: 16384
#Trigger: Source: Channel 1 Type: Edge Condition: Rising Level: 0 V Hyst.: Auto HoldOff: 0 s
#Channel 1: Range: 1 V/div Offset: 0 V Attenuation: 1 X
#Channel 2: Range: 1 V/div Offset: 0 V Attenuation: 1 X
#Power Supplies: ON
#Fixed Supply: ON
#Voltage: 3.3 V Readback: 3.331 V
#Positive Supply: ON
#Voltage: 3.7 V Readback: 3.717 V
#Current: 40 mA Readback: 14 mA
#Negative Supply: ON
#Voltage: -3.7 V Readback: -3.392 V
#Current: -40 mA Readback: -6 mA
#Reference 1: ON
#Voltage: 0 V
#Reference 2: ON
#Voltage: 0 V

Time (s),Channel 1 (V),Channel 2 (V)
-4.096,-0.6367966306890638,-1.216523458903942
-4.0955,-0.7434983792657932,-1.375473034981308
-4.095,-0.3807124341042825,-0.9198175835589545
-4.0945,0.05676473506030786,-0.5913217929990628
-4.094,0.3768699807904959,-0.4641621321371693
-4.0935,0.5262524287983926,-0.4429688553267573
-4.093,0.5796033030867573,-0.4853554089473885
-4.0925,0.5689331282290843,-0.5701285161886509
-4.092,0.5902734779445563,-0.633708346619771
-4.0915,0.7183155762366316,-0.6760949002404023
-4.091,0.6969752265212663,-0.5913217929990628
-4.0905,0.5902734779443525,-0.4429688553265453
-4.09,0.4942419042252961,-0.252229364033705
-4.0895,0.4195506802215176,-0.05089323433552374
-4.089,0.3982103305061718,0.08686306493152761
-4.0885,0.5155822539406614,-0.2416327256285375
-4.088,0.3235191065023739,-0.7820612842920766
-4.0875,-0.3380317346733483,-1.121153713257126
-4.087,-0.9248913518470095,-0.9198175835592147
-4.0865,-1.490410619303675,-0.8774310299385835
-4.086,-1.639793067311096,-0.7396747306715321
-4.0855,-1.106284324426547,-0.1038764263606959
-4.085,-0.4980843575391895,0.627291623595192
-4.0845,-0.02859666380158027,1.188913459068555
-4.084,0.2594980573563945,1.538602526439745
-4.0835,0.3875401556484697,1.70814874092227
-4.083,0.4195506802215176,1.729342017732605
-4.0825,0.4088805053637962,1.665762187301485
-4.082,0.3661998059331045,1.538602526439591
-4.0815,0.3341892813600565,1.37965295036208
-4.081,0.3128489316447107,1.157123543853766
-4.0805,0.05676473506030786,0.6696781772158616
-4.08,-0.5087545323968721,-0.1992461720078678
-4.0795,-0.9782422261344814,-1.00459069079986
-4.079,-1.084943974711415,-1.555615887869136
-4.0785,-0.7328282044082075,-1.375473034981453
-4.078,-0.1993194615245608,-0.8350444763184053
-4.0775,0.2168173579257416,-0.453565493731732
-4.077,0.4302208550792003,-0.2840192792492073
-4.0765,0.5262524287982567,-0.3158091944646806
-4.076,0.536922603656017,-0.4217755785165092
-4.0755,0.5262524287983441,-0.5595318777835605
-4.075,0.5796033030867573,-0.5913217929990628
-4.0745,0.5902734779443817,-0.5807251545938183
-4.074,0.5262524287983441,-0.4959520473525559
-4.0735,0.4622313796522482,-0.3581957480853793
-4.073,0.4088805053638835,-0.1780528951976968
-4.0725,0.3982103305061524,0.02328323450064829
-4.072,0.4195506802215176,0.2670059178194992
-4.0715,0.07810508477598366,-0.008506680714603421
-4.071,-0.5087545323974835,-0.5913217929994773
-4.0705,-1.180975548430879,-1.046977244421262
-4.07,-1.831856214748928,-1.24831337411926
-4.0695,-1.91721761361035,-1.057573882825726
-4.069,-1.223656247861609,-0.2840192792492073
-4.0685,-0.5300948821122373,0.5849050699745222
-4.068,-0.02859666380088155,1.241896651095269
-4.0675,0.2701682322139607,1.644568910491266
-4.067,0.408880505363835,1.824711763379112
-4.0665,0.4408910299368635,1.856501678594527
-4.066,0.4195506802215176,1.761131932948107
-4.0655,0.3768699807907871,1.612778995275763
-4.065,0.3341892813600953,1.432636142388081
-4.0645,0.3128489316446912,1.199510097474233
-4.064,0.2061471830678648,0.7862411996727035
-4.0635,-0.3060212101004361,0.0020899576910266
-4.063,-0.6688071552622671,-0.8138511995081475
-4.0625,-0.839529952985034,-1.439052865412457
-4.062,-0.3807124341050977,-1.640388995110455
-4.0615,0.1421261339220601,-1.280103289334512
-4.061,0.4622313796522482,-0.8032545611024114
-4.0605,0.6009436528021226,-0.4429688553267188
-4.06,0.6116138276597662,-0.3370024712750637
-4.0595,0.5689331282290746,-0.3581957480853793
-4.059,0.5155822539406614,-0.4111789401112165
-4.0585,0.600943652802045,-0.5701285161885834
-4.058,0.7396559259519968,-0.6654982618352349
-4.0575,0.7183155762366316,-0.5277419625680583
-4.057,0.6222840025175752,-0.3264058328700601
-4.0565,0.5262524287983441,-0.1250697031716958
-4.056,0.4515612047945656,0.06566978812131802
-4.0555,0.6542945270903514,0.1398462569574226
-4.055,0.9637295979629443,-0.3158091944652396
-4.0545,0.5369226036560266,-0.8986243067489184
-4.054,-0.1352984123773683,-1.301296566144915
-4.0535,-0.9569018764199896,-1.513229334248504
-4.053,-1.447729919872945,-1.375473034981453
-4.0525,-1.159635198715513,-0.6337083466197325
-4.052,-0.6154562809732619,0.2352160026046234
-4.0515,-0.1352984123779797,0.92399749893988
-4.051,0.1741366584948169,1.347863035146577
-4.0505,0.3448594562175839,1.559795803249733
-4.05,0.408880505363835,1.612778995275763
-4.0495,0.3982103305061524,1.559795803249926
-4.049,0.3661998059331336,1.453829419198348
-4.0485,0.3341892813600371,1.305476481525754
-4.048,0.3128489316446912,1.135930267043229
-4.0475,0.2488278824986536,0.8816109453194416
-4.047,-0.2313299860976669,0.2246193641980681
-4.0465,-0.8288597781273515,-0.6125150698093976
-4.046,-1.170305373572885,-1.290699927739496
-4.0455,-1.287677297007317,-1.513229334248321
-4.045,-0.8608703027003992,-1.174136905283272
-4.0445,-0.2953510352432193,-0.7078848154559045
-4.044,0.1527963087796748,-0.4111789401110719
-4.0435,0.3982103305061524,-0.252229364033705
-4.043,0.5155822539406614,-0.252229364033705
-4.0425,0.5475927785136803,-0.3052125560594939
-4.042,0.6116138276598051,-0.2840192792492073
-4.0415,0.8143471499557753,-0.1886495336027004
-4.041,0.8143471499557753,-0.1886495336027004
-4.0405,0.7183155762365151,-0.1992461720078582
-4.04,0.5902734779444399,-0.1886495336027004
-4.0395,0.4942419042253835,-0.103876426361438
-4.039,0.4622313796521026,-0.04029659593069362
-4.0385,0.3021787567870086,-0.4111789401112165
-4.038,-0.1993194615236194,-0.9198175835587906
-4.0375,-0.5834457564010194,-1.18473354368843
-4.037,-0.9889124009925911,-1.174136905283272
-4.0365,-1.51175096901904,-1.110557074852267
-4.036,-1.490410619303171,-0.6972881770499951
-4.0355,-0.9355615267041777,0.1186529801471552
-4.035,-0.3700422592469978,0.8922075837243778
-4.0345,0.04609456020224673,1.443232780792583
-4.034,0.291508581929326,1.739938656137773
-4.0335,0.3982103305061524,1.845905040189447
-4.033,0.4088805053638253,1.814115124973973
-4.0325,0.3875401556484309,1.697552102516949
-4.032,0.3448594562177392,1.528005888034424
-4.0315,0.3128489316447204,1.326669758336426
-4.031,0.2915085819290931,1.061753798206604
-4.0305,0.03542438534494258,0.5637117931641874
-4.03,-0.6367966306884523,-0.2628260024381206
-4.0295,-1.298347471865601,-1.025783967611496
-4.029,-1.533091318734406,-1.650985633515806
-4.0285,-1.30901764672307,-1.714565463946811
-4.028,-0.6688071552615974,-1.131750351662188
-4.0275,-0.1032878878049318,-0.6760949002404023
-4.027,0.2488278824985954,-0.3581957480853793
-4.0265,0.4515612047943812,-0.2522293640338014
-4.026,0.5369226036560266,-0.3052125560595421
-4.0255,0.5582629533713921,-0.4853554089473885
-4.025,0.7609962756671779,-0.7396747306711755
-4.0245,0.8676980242441011,-0.7926579226970801
-4.024,0.7716664505250448,-0.6125150698093976
-4.0235,0.6116138276599506,-0.3581957480856106
-4.023,0.4835717293675456,-0.1038764263611682
-4.0225,0.408880505363835,0.1080563417419877
-4.022,0.6329541773749667,0.04447651131104098
-4.0215,0.6649647019477137,-0.4641621321375355
-4.021,0.1101156093487211,-0.9939940523954253
-4.0205,-0.391382608962363,-0.9198175835592532
-4.02,-0.9248913518469707,-0.6654982618353216
-4.0195,-1.447729919872945,-0.7608680074817418
-4.019,-1.330357996438436,-0.5277419625680583
-4.0185,-0.7861790786971157,0.08686306493109386
-4.018,-0.2633405106701714,0.6696781772158616
-4.0175,0.1101156093487211,1.093543713422559
-4.017,0.3128489316445069,1.337266396741188
-4.0165,0.3982103305061524,1.443232780793075
-4.016,0.3982103305061524,1.432636142387917
-4.0155,0.3661998059331336,1.358459673551812
-4.015,0.3341892813600275,1.252493289499945
-4.0145,0.3021787567870086,1.114736990232894
-4.014,0.1527963087795875,0.7332580076472133
-4.0135,-0.3380317346742216,-0.09327978795692593
-4.013,-0.6367966306890638,-0.8986243067489184
-4.0125,-0.7434983792658902,-1.555615887869299
-4.012,-0.850200127842445,-1.873515040023889
-4.0115,-0.5514352318276028,-1.396666311791788
-4.011,-0.1352984123779797,-0.7714646458869092
-4.0105,0.1954770082098814,-0.3687923864909129
-4.01,0.3768699807907871,-0.1462629799820306
-4.0095,0.4729015545099309,-0.1144730647665284
-4.009,0.5049120790829498,-0.1886495336026329
-4.0085,0.5902734779445272,-0.3370024712751408
-4.008,0.6863050516635838,-0.4429688553267188
-4.0075,0.6329541773752191,-0.3899856633009298
-4.007,0.536922603655949,-0.2522293640335508
-4.0065,0.4515612047945656,-0.08268314955102604
-4.006,0.408880505363835,0.08686306493165288
-4.0055,0.2594980573557152,0.04447651131052055
-4.005,-0.3593720843893152,-0.4641621321370536
-4.0045,-0.8608703027003992,-0.9198175835592532
-4.004,-0.9782422261352384,-1.099960436447206
-4.0035,-1.341028171296118,-1.216523458903942
-4.003,-1.618452717595867,-1.142346990067769
-4.0025,-1.223656247861968,-0.5277419625686173
-4.002,-0.6154562809736985,0.2881991946298341
-4.0015,-0.124628237520297,0.9663840525605498
-4.001,0.195477008209891,1.390249588766862
-4.0005,0.366199805933153,1.591585718465457
-4,0.4195506802215176,1.623375633680931
-3.9995,0.408880505363835,1.549199164844759
-3.999,0.3768699807907871,1.42203950398275
-3.9985,0.3341892813600565,1.25249328950007
-3.998,0.3128489316446912,1.051157159801889
-3.9975,0.2168173579255475,0.7332580076468663
-3.997,-0.3060212101009019,0.01268659609548085
-3.9965,-0.6688071552621118,-0.792657922697244
-3.996,-0.9248913518464952,-1.449649503817625
-3.9955,-1.138294849000148,-1.926498232050159
-3.995,-0.8822106524157645,-1.576809164679634
-3.9945,-0.3807124341046804,-0.8986243067489184
-3.994,0.07810508477567314,-0.4217755785163839
-3.9935,0.3555296310754218,-0.1568596183871981
-3.993,0.4942419042252961,-0.02969995752518888
-3.9925,0.5475927785137094,-0.01910331912002144
-3.992,0.5902734779444399,-0.1568596183871981
-3.9915,0.7609962756673623,-0.3899856633008816
-3.991,0.7396559259519968,-0.4217755785163839
-3.9905,0.6329541773751706,-0.3158091944647096
-3.99,0.5155822539406614,-0.1674562567923655
-3.9895,0.4302208550792003,-0.01910331912002144
-3.989,0.4195506802215176,0.03387987290581572
-3.9885,0.6542945270905358,-0.3581957480853793
-3.988,0.3768699807907871,-0.9410108603695881
-3.9875,-0.2846808603855366,-1.34368311976595
-3.987,-0.8181896032696687,-1.34368311976595
-3.9865,-1.405049220442214,-1.333086481360783
-3.986,-1.661133417026597,-1.152943628472937
-3.9855,-1.191645723288561,-0.4535654937318862
-3.985,-0.572775581542968,0.3411823866556712
-3.9845,-0.08194753808956648,0.9345941373450475
-3.984,0.2274875327832301,1.305476481525908
-3.9835,0.3768699807907871,1.464426057603419
-3.983,0.4195506802215176,1.485619334413754
-3.9825,0.3982103305061524,1.400846227172415
-3.982,0.3661998059331045,1.273686566310405
-3.9815,0.3448594562177392,1.125333628638062
-3.981,0.3128489316446912,0.9345941373450475
-3.9805,0.03542438534494258,0.4895353243280153
-3.98,-0.6047861061160158,-0.3158091944647096
-3.9795,-1.138294849000148,-1.068170521231597
-3.979,-1.629122892453549,-1.650985633515806
-3.9785,-1.490410619303675,-1.502632695843462
-3.978,-0.839529952985034,-0.8562377531282487
-3.9775,-0.1779791118087102,-0.3370024712750445
-3.977,0.291508581929326,-0.04029659593035631
-3.9765,0.5262524287983441,-0.01910331912002144
-3.976,0.5796033030867573,-0.1568596183871981
-3.9755,0.5902734779444399,-0.326405832869877
-3.975,0.7503261008096795,-0.5913217929990628
-3.9745,0.8143471499557753,-0.6443049850249
-3.974,0.707645401378949,-0.4641621321370536
-3.9735,0.5689331282290746,-0.2098428104130352
-3.973,0.4729015545099309,0.03387987290581572
-3.9725,0.408880505363835,0.2352160026039969
-3.972,0.1741366584948169,0.03387987290581572
-3.9715,-0.3273615598162672,-0.5383386009732256
-3.971,-0.6261264558313813,-0.9516074987747555
-3.9705,-0.9569018764195432,-1.184733543688439
-3.97,-1.458400094730627,-1.280103289334946
-3.9695,-1.522421143876723,-1.01518732920576
-3.969,-0.9889124009925911,-0.252229364033705
-3.9685,-0.4127229586777283,0.5319218779486851
-3.968,0.02475421048725994,1.104140351827727
-3.9675,0.2808384070716433,1.42203950398275
-3.967,0.3982103305061524,1.538602526439591
-3.9665,0.4195506802215176,1.517409249629256
-3.966,0.408880505363835,1.411442865577582
-3.9655,0.3661998059331045,1.263089927905238
-3.965,0.3341892813600565,1.093543713422559
-3.9645,0.3021787567870086,0.8710143069140429
-3.964,0.2274875327832301,0.5849050699745222
-3.9635,-0.2526703358124887,-0.06148987274069118
-3.963,-0.7328282044082075,-0.8138511995075789
-3.9625,-0.9569018764195432,-1.354279758171118
-3.962,-0.7328282044082075,-1.121153713257435
-3.9615,-0.2526703358124887,-0.6337083466197325
-3.961,0.1634664836371343,-0.2416327256285375
-3.9605,0.408880505363835,-0.07208651114585861
-3.96,0.5262524287983441,-0.06148987274069118
-3.9595,0.5369226036560266,-0.1674562567923655
-3.959,0.5262524287983441,-0.2734226408440398
-3.9585,0.6863050516635838,-0.3581957480853793
-3.958,0.9103787236749192,-0.4323722169215513
-3.9575,0.8463576745288233,-0.3687923864905467
-3.957,0.6863050516635838,-0.2098428104130352
-3.9565,0.5369226036560266,-0.02969995752518888
-3.956,0.4408910299368829,0.1504428953626575
-3.9555,0.291508581929326,0.07626642652648545
-3.955,-0.2313299860971235,-0.4641621321370536
-3.9545,-0.754168554123573,-0.9833974139902578
-3.954,-1.042263275281004,-1.280103289334946
-3.9535,-1.46907026958831,-1.354279758171118
-3.953,-1.810515865034154,-1.227120097309109
-3.9525,-1.394379045584531,-0.6125150698093976
-3.952,-0.7328282044082075,0.2458126410091644
-3.9515,-0.1779791118087102,0.9663840525605498
-3.951,0.1848068333524996,1.42203950398275
-3.9505,0.3661998059331045,1.633972272086098
-3.95,0.4302208550792003,1.676358825706768
-3.9495,0.4195506802215176,1.602182356870596
-3.949,0.3768699807907871,1.453829419198252
-3.9485,0.3448594562177392,1.263089927905238
-3.948,0.3128489316446912,1.040560521396722
-3.9475,0.2594980573562781,0.7120647308365314
-3.947,-0.1139580626626144,0.1080563417419877
-3.9465,-0.5621054066852853,-0.6549016234300674
-3.946,-0.8502001278427167,-1.301296566145281
-3.9455,-0.8502001278427167,-1.269506650929778
-3.945,-0.4767440078238243,-0.8350444763179138
-3.9445,-0.02859666380115328,-0.4853554089473885
-3.944,0.3021787567870086,-0.3370024712750445
-3.9435,0.4729015545099309,-0.3370024712750445
-3.943,0.5262524287983441,-0.4429688553267188
-3.9425,0.5369226036560266,-0.570128516188728
-3.942,0.5902734779444399,-0.6866915386455698
-3.9415,0.8676980242441885,-0.8138511995075789
-3.941,0.8890383739595538,-0.6760949002404023
-3.9405,0.7503261008096795,-0.4111789401112165
-3.94,0.6009436528021226,-0.1250697031716958
-3.9395,0.4835717293676135,0.1186529801471552
-3.939,0.4729015545099309,0.2881991946298341
-3.9385,0.142126133921769,-0.07208651114585861
-3.938,-0.2420001609548061,-0.570128516188728
-3.9375,-0.6688071552621118,-0.9304142219644207
-3.937,-1.202315898146244,-1.078767159636765
-3.9365,-1.746494815888059,-1.0999604364471
-3.936,-1.607782542738184,-0.718481453861072
-3.9355,-0.9569018764195432,0.07626642652648545
-3.935,-0.3487019095316325,0.8286277532933731
-3.9345,0.07810508477567314,1.33726639674141
-3.934,0.3128489316446912,1.591585718465428
-3.9335,0.4195506802215176,1.6657621873016
-3.933,0.4302208550792003,1.612778995275763
-3.9325,0.3982103305061524,1.464426057603419
-3.932,0.3555296310754218,1.273686566310405
-3.9315,0.3235191065023739,1.061753798207057
-3.931,0.3021787567870086,0.8180311148882058
-3.9305,0.2061471830678648,0.457745409112513
-3.93,-0.3380317346739499,-0.2628260024388724
-3.9295,-0.9889124009925911,-0.9939940523954253
-3.929,-1.052933450138687,-1.492036057438295
-3.9285,-0.4020527838200457,-1.290699927740113
-3.928,0.1314559590640864,-0.718481453861072
-3.9275,0.4302208550792003,-0.2628260024388724
-3.927,0.5475927785137094,-0.07208651114585861
-3.9265,0.5582629533713921,-0.1144730647665284
-3.926,0.5475927785137094,-0.252229364033705
-3.9255,0.5369226036560266,-0.3370024712750445
-3.925,0.7289857510943143,-0.5277419625680583
-3.9245,0.825017324813458,-0.6019184314042303
-3.924,0.7289857510943143,-0.4323722169215513
-3.9235,0.5902734779444399,-0.1780528951975329
-3.923,0.4729015545099309,0.06566978812131802
-3.9225,0.4195506802215176,0.2881991946298341
-3.922,0.4302208550792003,0.55311515475902
-3.9215,0.1207857842064037,0.309392471440169
-3.921,-0.4767440078238243,-0.3052125560595421
-3.9205,-0.9569018764195432,-0.5383386009732256
-3.92,-1.394379045584531,-0.7608680074817418
-3.9195,-1.789175515318789,-0.9728007755850904
-3.919,-1.437059745015262,-0.6760949002404023
-3.9185,-0.7861790786966207,0.01268659609548085
-3.918,-0.2206598112394408,0.6484849004055269
-3.9175,0.1527963087794516,1.082947075017392
-3.917,0.3448594562177392,1.326669758336243
-3.9165,0.4195506802215176,1.411442865577582
-3.916,0.4195506802215176,1.390249588767247
-3.9155,0.3875401556484697,1.29487984312074
-3.915,0.3555296310754218,1.167720182258731
-3.9145,0.3128489316446912,0.9875773293708847
-3.914,0.1848068333524996,0.6378882620003594
-3.9135,-0.3700422592469978,-0.05089323433552374
-3.913,-0.9248913518464952,-0.8244478379127463
-3.9125,-1.212986073003927,-1.460246142222792
-3.912,-0.807519428411986,-1.672178910326141
-3.9115,-0.2099896363817582,-1.184733543688439
-3.911,0.2274875327832301,-0.6654982618352349
-3.9105,0.4729015545099309,-0.3158091944647096
-3.91,0.5582629533713921,-0.1886495336027004
-3.9095,0.5689331282290746,-0.1568596183871981
-3.909,0.5475927785137094,-0.1886495336027004
-3.9085,0.6116138276598051,-0.2734226408440398
-3.908,0.6649647019482183,-0.3370024712750445
-3.9075,0.6009436528021226,-0.3052125560595421
-3.907,0.5155822539406614,-0.2098428104130352
-3.9065,0.4408910299368829,-0.08268314955102604
-3.906,0.408880505363835,0.05507314971615059
-3.9055,0.2701682322139607,0.07626642652648545
-3.905,-0.3273615598162672,-0.400582301706049
-3.9045,-0.9675720512772257,-0.9728007755850904
-3.904,-1.277007122150022,-1.216523458903942
-3.9035,-1.618452717595867,-1.237716735714276
-3.903,-1.949228138184029,-1.237716735714276
-3.9025,-1.51175096901904,-0.7820612842920766
-3.902,-0.807519428411986,0.01268659609548085
-3.9015,-0.2206598112394408,0.7226613692416989
-3.901,0.1634664836371343,1.199510097474233
-3.9005,0.3661998059331045,1.464426057603419
-3.9,0.4302208550792003,1.549199164844759
-3.8995,0.4302208550792003,1.517409249629256
-3.899,0.3982103305061524,1.42203950398275
-3.8985,0.3555296310754218,1.29487984312074
-3.898,0.3235191065023739,1.125333628638062
-3.8975,0.2381577076409128,0.8604176685088755
-3.897,-0.274010685527854,0.1716361721729923
-3.8965,-0.807519428411986,-0.6654982618352349
-3.896,-1.074273799854052,-1.354279758171118
-3.8955,-1.319687821580753,-1.852321763213987
-3.895,-1.020922925565639,-1.555615887869299
-3.8945,-0.4554036581084589,-0.9092209451540858
-3.894,0.04609456020262521,-0.4217755785163839
-3.8935,0.3875401556484697,-0.1568596183871981
-3.893,0.5369226036560266,-0.1144730647665284
-3.8925,0.5689331282290746,-0.2416327256285375
-3.892,0.5902734779444399,-0.3793890248957141
-3.8915,0.8143471499557753,-0.570128516188728
-3.891,0.8143471499557753,-0.5489352393783931
-3.8905,0.6863050516635838,-0.3687923864905467
-3.89,0.5582629533713921,-0.1674562567923655
-3.8895,0.4515612047945656,0.03387987290581572
-3.889,0.408880505363835,0.2352160026039969
-3.8885,0.5796033030867573,0.5849050699745222
-3.888,0.3768699807907871,0.3623756634660061
-3.8875,-0.1993194615240755,-0.3370024712750445
-3.887,-0.9142211769888124,-0.9728007755850904
