Class_8_Think_right_hand_movement/Class_8_Think_Right_hand_mouvement_turki_2.csv

#Digilent WaveForms Oscilloscope Acquisition
#Device Name: EExplorer
#Serial Number: SN:210151A2B84A
#Date Time: 2020-11-18 11:34:23.647
#Sample rate: 2000Hz
#Samples: 16384
#Trigger: Source: Channel 1 Type: Edge Condition: Rising Level: 0 V Hyst.: Auto HoldOff: 0 s
#Channel 1: Range: 1 V/div Offset: 0 V Attenuation: 1 X
#Channel 2: Range: 1 V/div Offset: 0 V Attenuation: 1 X
#Power Supplies: ON
#Fixed Supply: ON
#Voltage: 3.3 V Readback: 3.316 V
#Positive Supply: ON
#Voltage: 3.7 V Readback: 3.713 V
#Current: 500 mA Readback: 21 mA
#Negative Supply: ON
#Voltage: -3.7 V Readback: -3.697 V
#Current: -500 mA Readback: -8 mA
#Reference 1: ON
#Voltage: 0 V
#Reference 2: ON
#Voltage: 0 V

Time (s),Channel 1 (V),Channel 2 (V)
-4.096,0.3768699807907871,0.06566978812131802
-4.0955,0.38754015564846,0.00208995769037125
-4.095,0.3875401556484503,-0.0191033191199829
-4.0945,0.3661998059331045,0.02328323450064829
-4.094,0.3448594562177586,0.08686306493159505
-4.0935,0.3021787567870086,0.1610395337679117
-4.093,0.3021787567870086,0.2564092794143318
-4.0925,0.7076454013785802,0.6696781772154858
-4.092,0.9850699476781639,0.955787414154756
-4.0915,0.3982103305061524,0.2670059178194992
-4.091,-0.6367966306890638,-0.6125150698093976
-4.0905,-1.415719395299819,-1.216523458903739
-4.09,-1.330357996438436,-0.9939940523954253
-4.0895,-0.8502001278427167,-0.3793890248957141
-4.089,-0.3807124341051074,0.2246193641982801
-4.0885,-0.03926683865883591,0.6590815388106942
-4.088,0.142126133921769,0.9134008605347127
-4.0875,0.2274875327831525,1.051157159801764
-4.087,0.2381577076408934,1.104140351827717
-4.0865,0.2168173579255475,1.093543713422559
-4.086,0.1848068333525287,1.072350436612244
-4.0855,0.1527963087794322,1.019367244586339
-4.085,0.1314559590640864,0.9663840525605498
-4.0845,-0.04993701351635357,0.7120647308367627
-4.084,-0.722158029551117,-0.09327978795701267
-4.0835,-1.373038695869166,-0.9939940523954253
-4.083,-1.661133417026597,-1.576809164679634
-4.0825,-1.277007122149401,-1.22712009730854
-4.082,-0.5941159312583333,-0.6019184314042303
-4.0815,-0.007256314085787988,-0.1250697031716958
-4.081,0.3448594562174189,0.08686306493146012
-4.0805,0.4622313796522482,0.1716361721729923
-4.08,0.4729015545099309,0.1080563417419877
-4.0795,0.4195506802215662,0.03387987290588318
-4.079,0.4088805053638835,-0.0296999575252467
-4.0785,0.4622313796522482,-0.09327978795619347
-4.078,0.4195506802215564,-0.06148987274072009
-4.0775,0.3555296310753733,0.02328323450074466
-4.077,0.3021787567870086,0.1292496185523226
-4.0765,0.2701682322139898,0.214022725793585
-4.076,0.4729015545103967,0.4577454091127829
-4.0755,0.9850699476786977,0.7544512844572011
-4.075,0.5902734779444399,0.1716361721729923
-4.0745,-0.2420001609554951,-0.6337083466202144
-4.074,-0.9995825758502737,-1.163540266878104
-4.0735,-1.042263275281004,-0.9622041371799229
-4.073,-0.7008176798354703,-0.3581957480859287
-4.0725,-0.3166913849585846,0.2458126410091644
-4.072,-0.02859666380115328,0.6802748156210291
-4.0715,0.1314559590639408,0.945190775749974
-4.071,0.2061471830678842,1.072350436612253
-4.0705,0.2274875327832301,1.104140351827727
-4.07,0.2168173579255572,1.093543713422569
-4.0695,0.1848068333524704,1.051157159801841
-4.069,0.1527963087794516,0.9981739677760521
-4.0685,0.1314559590640864,0.92399749893988
-4.068,0.03542438534439913,0.7862411996720963
-4.0675,-0.5621054066852853,0.1186529801471552
-4.067,-1.287677297007705,-0.8244478379127463
-4.0665,-1.61845271759578,-1.576809164679586
-4.066,-1.522421143876723,-1.523825972653797
-4.0655,-0.9569018764195432,-0.9198175835592532
-4.065,-0.3060212101014939,-0.3687923864910478
-4.0645,0.1634664836371343,-0.01910331912002144
-4.064,0.3875401556484697,0.1186529801471552
-4.0635,0.4515612047945073,0.1080563417419974
-4.063,0.4195506802214886,0.06566978812128911
-4.0625,0.3875401556484697,0.03387987290581572
-4.062,0.4729015545098533,0.0762664265264469
-4.0615,0.4515612047945073,0.08686306493166251
-4.061,0.3875401556484697,0.09745970333682032
-4.0605,0.3448594562177392,0.1292496185523226
-4.06,0.3235191065024418,0.1822328105782947
-4.0595,0.3982103305061524,0.3305857482505039
-4.059,0.857027849386506,0.5637117931641874
-4.0585,0.6009436528023555,0.1292496185527178
-4.058,-0.3060212101009019,-0.6760949002404023
-4.0575,-1.191645723288561,-1.280103289334946
-4.057,-1.362368521011328,-1.237716735714315
-4.0565,-0.9675720512772257,-0.5913217929990628
-4.056,-0.4874141826815069,0.09745970333682032
-4.0555,-0.1139580626629541,0.6166949851895522
-4.055,0.1101156093488181,0.9345941373451824
-4.0545,0.2168173579255475,1.082947075017392
-4.054,0.2381577076408934,1.125333628638023
-4.0535,0.227487532783201,1.104140351827669
-4.053,0.1954770082101822,1.040560521396722
-4.0525,0.1634664836371343,0.9663840525605498
-4.052,0.1314559590640475,0.881610945319114
-4.0515,0.08877525963335578,0.775644561267536
-4.051,-0.3380317346739499,0.2987958330350016
-4.0505,-1.031593100422691,-0.6019184314034111
-4.05,-1.394379045584531,-1.42845622700729
-4.0495,-1.46907026958831,-1.672178910326141
-4.049,-0.9782422261353548,-1.110557074852778
-4.0485,-0.3166913849581381,-0.5171453241625439
-4.048,0.1741366584948169,-0.1356663415768632
-4.0475,0.3982103305059486,0.04447651131081931
-4.047,0.4515612047945365,0.08686306493164325
-4.0465,0.4195506802215176,0.07626642652648545
-4.046,0.35552963107548,0.03387987290585427
-4.0455,0.4088805053638641,0.0444765113110217
-4.045,0.4408910299368829,0.08686306493165288
-4.0445,0.3982103305061524,0.1186529801471552
-4.044,0.334189281360008,0.150442895362696
-4.0435,0.2808384070716433,0.1928294489833272
-4.043,0.291508581929326,0.2670059178194992
-4.0425,0.7503261008092623,0.4365521323020239
-4.042,1.017080472251745,0.07626642652648545
-4.0415,0.2061471830678648,-0.718481453861072
-4.041,-0.8288597781264103,-1.343683119765382
-4.0405,-1.234326422719059,-1.396666311791219
-4.04,-0.9782422261349084,-0.7714646458869092
-4.0395,-0.540765056970318,-0.05089323433617909
-4.039,-0.1673089369508141,0.5107286011386586
-4.0385,0.0674349099179905,0.849821030103708
-4.038,0.1848068333523928,1.008770606181075
-4.0375,0.2381577076409128,1.05115715980187
-4.037,0.2381577076409128,1.029963882991555
-4.0365,0.2061471830678648,0.9769806909657173
-4.036,0.1741366584947975,0.9028042221294778
-4.0355,0.1527963087794516,0.8286277532933731
-4.035,0.1207857842064037,0.7332580076468663
-4.0345,-0.1352984123777468,0.4153588554921324
-4.034,-0.807519428411986,-0.4323722169215513
-4.0335,-1.287677297007705,-1.280103289334946
-4.033,-1.607782542737893,-1.767548655972205
-4.0325,-1.415719395299353,-1.354279758170597
-4.032,-0.8181896032696687,-0.7820612842920766
-4.0315,-0.2313299860976572,-0.3370024712754492
-4.031,0.1848068333526839,-0.05089323433536954
-4.0305,0.3875401556484697,0.1186529801471552
-4.03,0.4622313796521803,0.1610395337677864
-4.0295,0.4408910299368635,0.1186529801471359
-4.029,0.4195506802215176,0.09745970333682032
-4.0285,0.4302208550792003,0.1186529801471552
-4.028,0.3875401556484212,0.1292496185523419
-4.0275,0.3341892813600565,0.1504428953626575
-4.027,0.3235191065023739,0.1928294489833272
-4.0265,0.312848931644701,0.2564092794142739
-4.026,0.5902734779444399,0.6484849004055269
-4.0255,1.102441871113207,1.326669758336243
-4.025,0.6756348768062892,1.294879843120769
-4.0245,-0.2740106855285042,0.2987958330341727
-4.024,-0.9889124009925911,-0.6125150698093976
-4.0235,-0.9462317015618993,-0.6443049850248711
-4.023,-0.6047861061156858,-0.2416327256281039
-4.0225,-0.2420001609548061,0.2352160026039969
-4.022,0.01408403562934435,0.6166949851896776
-4.0215,0.1527963087795099,0.8816109453193549
-4.021,0.2168173579255475,1.040560521396722
-4.0205,0.2274875327832301,1.125333628638062
-4.02,0.2061471830678357,1.146526905448396
-4.0195,0.1741366584948169,1.146526905448396
-4.019,0.142126133921769,1.114736990232894
-4.0185,0.0887752596334043,1.072350436612263
-4.018,0.04609456020262521,0.9663840525605498
-4.0175,-0.3700422592469978,0.5743084315693548
-4.017,-0.9142211769883175,-0.2204394488174798
-4.0165,-1.298347471865601,-1.06817052123205
-4.016,-1.533091318734406,-1.566212526274467
-4.0155,-0.9995825758507589,-1.227120097309417
-4.015,-0.3273615598158015,-0.6231117082141603
-4.0145,0.1848068333524996,-0.1780528951975329
-4.014,0.4302208550789771,0.02328323450046518
-4.0135,0.4942419042252573,0.0444765113109446
-4.013,0.4515612047945656,0.002089957690313421
-4.0125,0.408880505363835,-0.05089323433552374
-4.012,0.5049120790829594,-0.1780528951975329
-4.0115,0.4835717293676135,-0.1780528951975329
-4.011,0.3982103305061524,-0.1038764263613609
-4.0105,0.3235191065024418,-0.02969995752525634
-4.01,0.2701682322139607,0.04447651131098315
-4.0095,0.3661998059331045,0.1822328105781598
-4.009,0.8250173248130408,0.4683420475174203
-4.0085,0.4515612047936728,0.05507314971541813
-4.008,-0.5300948821122373,-0.7502713690765743
-4.0075,-1.426389570156764,-1.417859588601516
-4.007,-1.543761493591671,-1.417859588601544
-4.0065,-1.084943974711735,-0.7820612842920766
-4.006,-0.5407650569699201,-0.08268314955102604
-4.0055,-0.1352984123777565,0.4577454091128021
-4.005,0.1101156093487211,0.775644561267536
-4.0045,0.2274875327832301,0.9345941373450475
-4.004,0.2594980573562684,0.9875773293708751
-4.0035,0.2488278824985954,0.9769806909657173
-4.003,0.2168173579255475,0.9345941373450475
-4.0025,0.1848068333525287,0.8816109453192585
-4.002,0.1634664836371343,0.8180311148882058
-4.0015,0.1207857842064037,0.7226613692416989
-4.001,-0.263340510669822,0.192829448983809
-4.0005,-0.8928808272737772,-0.7184814538618044
-4,-1.255666772434657,-1.523825972653797
-3.9995,-1.180975548430879,-1.661582271920973
-3.999,-0.5834457564006506,-1.046977244421262
-3.9985,-0.02859666380115328,-0.4535654937318862
-3.998,0.3128489316446912,-0.05089323433552374
-3.9975,0.4622313796522482,0.1610395337678249
-3.997,0.4729015545099309,0.1928294489833272
-3.9965,0.4195506802215176,0.13984625695749
-3.996,0.3768699807907871,0.1080563417419877
-3.9955,0.4302208550792003,0.13984625695749
-3.995,0.4408910299368829,0.1822328105781598
-3.9945,0.3875401556484697,0.2034260873884947
-3.994,0.3341892813600565,0.2140227257936621
-3.9935,0.2808384070716433,0.2458126410091644
-3.993,0.291508581929326,0.2458126410091644
-3.9925,0.7396559259519968,0.03387987290581572
-3.992,0.7183155762366316,-0.5807251545938954
-3.9915,-0.08194753808956648,-1.269506650929778
-3.991,-0.8928808272734472,-1.682775548731308
-3.9905,-1.191645723288561,-1.534422611058964
-3.99,-0.9035510021311299,-0.7820612842920766
-3.9895,-0.4767440078238243,-0.008506680714854012
-3.989,-0.124628237520297,0.55311515475902
-3.9885,0.08877525963335578,0.8816109453192104
-3.988,0.2061471830678648,1.029963882991555
-3.9875,0.2381577076409128,1.061753798207057
-3.987,0.2381577076409128,1.029963882991555
-3.9865,0.2168173579255475,0.9663840525605498
-3.986,0.1848068333524996,0.8816109453192104
-3.9855,0.1527963087794516,0.7968378380778709
-3.985,0.1314559590640864,0.701468092431364
-3.9845,-0.1032878878049318,0.3623756634660061
-3.984,-0.7328282044082075,-0.4853554089473885
-3.9835,-1.341028171296118,-1.322489842955616
-3.983,-1.714484291315011,-1.703968825541643
-3.9825,-1.46907026958831,-1.163540266878104
-3.982,-0.7861790786966207,-0.5489352393783931
-3.9815,-0.156638762093345,-0.1992461720078678
-3.981,0.2381577076409128,-0.06148987274069118
-3.9805,0.4408910299368829,-0.02969995752518888
-3.98,0.4835717293676135,-0.01910331912002144
-3.9795,0.4302208550792003,-0.008506680714854012
-3.979,0.4515612047945656,0.1186529801471552
-3.9785,0.5155822539406614,0.3411823866556712
-3.978,0.4622313796522482,0.3729723018711736
-3.9775,0.3875401556484697,0.3305857482505039
-3.977,0.3128489316446912,0.2881991946298341
-3.9765,0.291508581929326,0.2987958330350016
-3.976,0.6542945270905358,0.5849050699745222
-3.9755,1.049090996824793,0.9769806909657173
-3.975,0.3555296310754218,0.4365521323021782
-3.9745,-0.7648387289812555,-0.5489352393783931
-3.974,-1.479740444445993,-1.227120097309109
-3.9735,-1.319687821580753,-1.004590690800593
-3.973,-0.8181896032696687,-0.3793890248957141
-3.9725,-0.3380317346739499,0.2352160026039969
-3.972,-0.007256314085787988,0.6696781772158616
-3.9715,0.1741366584948169,0.92399749893988
-3.971,0.2488278824985954,1.029963882991555
-3.9705,0.2594980573562781,1.061753798207057
-3.97,0.2381577076409128,1.029963882991555
-3.9695,0.2061471830678648,0.9769806909657173
-3.969,0.1741366584948169,0.9028042221295453
-3.9685,0.142126133921769,0.8286277532933731
-3.968,0.02475421048725994,0.6696781772158616
-3.9675,-0.6261264558313813,-0.02969995752518888
-3.967,-1.287677297007705,-0.9516074987747555
-3.9665,-1.757164990745741,-1.703968825541643
-3.966,-2.013249187330125,-2.053657892912168
-3.9655,-1.490410619303675,-1.481439419033127
-3.965,-0.690147504977477,-0.7396747306714069
-3.9645,-0.07127736323188383,-0.1886495336027004
-3.964,0.2808384070716433,0.1080563417419877
-3.9635,0.4195506802215176,0.1928294489833272
-3.963,0.4408910299368829,0.13984625695749
-3.9625,0.4195506802215176,0.1080563417419877
-3.962,0.5049120790829789,0.2246193641988295
-3.9615,0.4729015545099309,0.2246193641988295
-3.961,0.3982103305061524,0.1716361721729923
-3.9605,0.3235191065023739,0.1292496185523226
-3.96,0.2701682322139607,0.1186529801471552
-3.9595,0.408880505363835,0.2776025562246667
-3.959,0.9317190733902845,0.8286277532933731
-3.9585,0.6542945270905358,0.7226613692416989
-3.958,-0.2099896363817582,-0.1356663415768632
-3.9575,-1.084943974711735,-1.004590690800593
-3.957,-1.244996597576974,-1.152943628472937
-3.9565,-0.8822106524157645,-0.6549016234300674
-3.956,-0.4340633083930936,-0.04029659593035631
-3.9555,-0.08194753808956648,0.4471487707073456
-3.955,0.1314559590640864,0.775644561267536
-3.9545,0.2274875327832301,0.9557874141553824
-3.954,0.2594980573562781,1.040560521396722
-3.9535,0.2488278824985954,1.061753798207057
-3.953,0.2168173579255475,1.040560521396722
-3.9525,0.1848068333524996,1.00877060618122
-3.952,0.1527963087794516,0.9557874141553824
-3.9515,0.1207857842064037,0.8816109453192104
-3.951,-0.2526703358124887,0.4789386859228479
-3.9505,-1.031593100423322,-0.400582301706049
-3.95,-1.490410619303675,-1.237716735714276
-3.9495,-1.661133417026597,-1.629792356705471
-3.949,-1.26633694729234,-1.216523458903942
-3.9485,-0.6047861061160158,-0.6231117082145651
-3.948,-0.04993701351651855,-0.1250697031716958
-3.9475,0.3021787567870086,0.1292496185523226
-3.947,0.4408910299368829,0.2458126410091644
-3.9465,0.4515612047945656,0.2246193641988295
-3.946,0.408880505363835,0.1186529801471552
-3.9455,0.5049120790829789,-0.1144730647665284
-3.945,0.5262524287983441,-0.1780528951975329
-3.9445,0.4515612047945656,-0.08268314955102604
-3.944,0.3661998059331045,0.05507314971615059
-3.9435,0.3021787567870086,0.1610395337678249
-3.943,0.3021787567870086,0.2140227257936621
-3.9425,0.3875401556484697,-0.07208651114585861
-3.942,-0.02859666380115328,-0.7396747306714069
-3.9415,-0.8928808272734472,-1.439052865412457
-3.941,-1.554431668449771,-1.862918401619155
-3.9405,-1.447729919872945,-1.492036057438295
-3.94,-0.9248913518464952,-0.6972881770507372
-3.9395,-0.4020527838200457,0.02328323450064829
-3.939,-0.02859666380115328,0.5107286011383502
-3.9385,0.1741366584948169,0.7862411996727035
-3.938,0.2594980573562781,0.8922075837243778
-3.9375,0.2808384070716433,0.9028042221295453
-3.937,0.2594980573562781,0.8710143069140429
-3.9365,0.2274875327832301,0.8074344764830383
-3.936,0.1848068333524996,0.7438546460520338
-3.9355,0.1634664836371343,0.6802748156210291
-3.935,0.1314559590640864,0.6060983467848571
-3.9345,-0.2313299860971235,0.1928294489833272
-3.934,-0.9782422261349084,-0.6654982618352349
-3.9335,-1.575772018165136,-1.47084278062796
-3.933,-1.906547438753298,-2.043061254507001
-3.9325,-1.586442193022819,-1.905304955239825
-3.932,-0.8288597781273515,-1.121153713257435
-3.9315,-0.1779791118087102,-0.4217755785163839
-3.931,0.2701682322139607,0.03387987290581572
-3.9305,0.4729015545099309,0.2352160026039969
-3.93,0.5049120790829789,0.2458126410091644
-3.9295,0.4515612047945656,0.2352160026039969
-3.929,0.4942419042252961,0.309392471440169
-3.9285,0.5796033030867573,0.4365521323021782
-3.928,0.5155822539406614,0.4047622170866759
-3.9275,0.4408910299368829,0.3411823866556712
-3.927,0.3555296310754218,0.2987958330350016
-3.9265,0.3235191065023739,0.2352160026039969
-3.926,0.6116138276598051,0.02328323450064829
-3.9255,0.8356874996711408,-0.4641621321370536
-3.925,0.03542438534494258,-1.152943628472937
-3.9245,-0.9889124009925911,-1.311893204550448
-3.924,-1.682473766741963,-1.205926820498774
-3.9235,-1.490410619303675,-0.8350444763179138
-3.923,-0.9142211769888124,-0.2840192792492073
-3.9225,-0.3807124341046804,0.1928294489833272
-3.922,-0.007256314085787988,0.5319218779486851
-3.9215,0.1954770082101822,0.7332580076468663
-3.921,0.2701682322139607,0.8286277532933731
-3.9205,0.2808384070716433,0.8816109453192104
-3.92,0.2701682322139607,0.8922075837243778
-3.9195,0.2274875327832301,0.8922075837243778
-3.919,0.1848068333524996,0.8710143069140429
-3.9185,0.142126133921769,0.849821030103708
-3.918,0.02475421048725994,0.7226613692416989
-3.9175,-0.572775581542968,0.06566978812131802
-3.917,-1.180975548430879,-0.8138511995075789
-3.9165,-1.522421143876723,-1.47084278062796
-3.916,-1.351698346153801,-1.248313374119443
-3.9155,-0.754168554123573,-0.6231117082145651
-3.915,-0.1459685872356623,-0.1250697031716958
-3.9145,0.2701682322139607,0.1716361721729923
-3.914,0.4729015545099309,0.2776025562246667
-3.9135,0.5155822539406614,0.2564092794143318
-3.913,0.4835717293676135,0.2034260873884947
-3.9125,0.4408910299368829,0.1504428953626575
-3.912,0.4729015545099309,0.09745970333682032
-3.9115,0.4302208550792003,0.08686306493165288
-3.911,0.3661998059331045,0.08686306493165288
-3.9105,0.3021787567870086,0.1292496185523226
-3.91,0.2701682322139607,0.1716361721729923
-3.9095,0.4515612047945656,0.4047622170866759
-3.909,1.038420821967111,0.6802748156210291
-3.9085,0.8036769750980928,0.1080563417419877
-3.908,-0.07127736323188383,-0.7820612842920766
-3.9075,-0.9569018764195432,-1.439052865412457
-3.907,-1.095614149569417,-1.280103289334946
-3.9065,-0.7648387289812555,-0.6231117082145651
-3.906,-0.3593720843893152,0.02328323450064829
-3.9055,-0.03926683865883591,0.4895353243280153
-3.905,0.1527963087794516,0.7650479228623686
-3.9045,0.2381577076409128,0.8922075837243778
-3.904,0.2701682322139607,0.9345941373450475
-3.9035,0.2594980573562781,0.9134008605347127
-3.903,0.2381577076409128,0.8710143069140429
-3.9025,0.1954770082101822,0.8180311148882058
-3.902,0.1741366584948169,0.7650479228623686
-3.9015,0.0674349099179905,0.6378882620003594
-3.901,-0.4767440078238243,0.01268659609548085
-3.9005,-1.116954499284783,-0.8562377531282487
-3.9,-1.597112367880501,-1.608599079895136
-3.8995,-1.83185621474952,-2.032464616101834
-3.899,-1.298347471865388,-1.587405803084801
-3.8985,-0.572775581542968,-0.8986243067489184
-3.898,0.00341386077189465,-0.3475991096802118
-3.8975,0.3341892813600565,0.002089957690313421
-3.897,0.4729015545099309,0.2246193641988295
-3.8965,0.4729015545099309,0.2670059178194992
-3.896,0.4302208550792003,0.2140227257936621
-3.8955,0.5262524287983441,0.05507314971615059
-3.895,0.5262524287983441,-0.02969995752518888
-3.8945,0.4515612047945656,-0.01910331912002144
-3.894,0.3661998059331045,0.04447651131098315
-3.8935,0.3128489316446912,0.1080563417419877
-3.893,0.3875401556484697,0.1928294489833272
-3.8925,0.9103787236749192,0.1822328105781598
-3.892,0.7609962756673623,-0.3581957480853793
-3.8915,-0.1139580626626144,-1.078767159636765
-3.891,-0.8288597781273515,-1.439052865412457
-3.8905,-0.8715404775580819,-1.078767159636765
-3.89,-0.572775581542968,-0.400582301706049
-3.8895,-0.2313299860971235,0.2140227257936621
-3.889,0.02475421048725994,0.627291623595192
-3.8885,0.1741366584948169,0.8604176685088755
-3.888,0.2488278824985954,0.9557874141553824
-3.8875,0.2594980573562781,0.9769806909657173
-3.887,0.2594980573562781,0.9451907757502149
-3.8865,0.2274875327832301,0.8922075837243778
