Class_8_Think_right_hand_movement/Class_8_Think_Right_hand_mouvement_Suko_3.csv

#Digilent WaveForms Oscilloscope Acquisition
#Device Name: EExplorer
#Serial Number: SN:210151A2B84A
#Date Time: 2020-12-21 15:36:37.509
#Sample rate: 2000Hz
#Samples: 16384
#Trigger: Source: Channel 1 Type: Edge Condition: Rising Level: 0 V Hyst.: Auto HoldOff: 0 s
#Channel 1: Range: 1 V/div Offset: 0 V
#Channel 2: Range: 1 V/div Offset: 0 V

Time (s),Channel 1 (V),Channel 2 (V)
-4.0960000000000001,0.5689331282290746,-0.17805289519753292
-4.0955000000000004,0.47290155451001825,0.023283234500465183
-4.0949999999999998,0.70764540137948284,0.30939247144056409
-4.0945,1.2945050185514941,0.74385464605203377
-4.0940000000000003,1.0490909968250166,1.0935437134222412
-4.0934999999999997,0.13145595906305768,1.2630899279052668
-4.093,-0.99958257585027366,1.2948798431207402
-4.0925000000000002,-1.629122892452977,1.0723504366124268
-4.0919999999999996,-1.351698346153267,0.3305857482498003
-4.0914999999999999,-0.76483872898125549,-0.44296885532671876
-4.0910000000000002,-0.24200016095480609,-0.97280077558509037
-4.0904999999999996,0.11011560934889575,-1.2165234589039609
-4.0899999999999999,0.30217875678700862,-1.2377167357142764
-4.0895000000000001,0.36619980593310447,-1.1211537132574345
-4.0890000000000004,0.35552963107543151,-0.91981758355943632
-4.0884999999999998,0.32351910650237387,-0.6972881770507372
-4.0880000000000001,0.25949805735627807,-0.4641621321370536
-4.0875000000000004,0.1527963087795487,-0.18864953360295095
-4.0869999999999997,-0.017926488943713237,0.12924961855259245
-4.0865,-0.28468086038553664,0.42595549389701071
-4.0860000000000003,-0.78617907869616466,0.78624119967237571
-4.0854999999999997,-1.3730386958694862,1.1253336286382447
-4.085,-1.7251544661726932,1.3266697583362426
-4.0845000000000002,-1.6504632421689827,1.0511571598021399
-4.0839999999999996,-1.0636036249957583,0.35177902506023151
-4.0834999999999999,-0.39138260896236304,-0.31580919446470956
-4.0830000000000002,0.14212613392176898,-0.65490162343006741
-4.0824999999999996,0.47290155451006671,-0.81385119950753071
-4.0819999999999999,0.62228400251748783,-0.76086800748174177
-4.0815000000000001,0.66496470194821833,-0.59132179299906285
-4.0810000000000004,0.77166645052494776,-0.46416213213716928
-4.0804999999999998,0.72898575109431429,-0.36879238649054674
-4.0800000000000001,0.65429452709053582,-0.24163272562853755
-4.0795000000000003,0.55826295337147946,-0.11447306476664401
-4.0789999999999997,0.46223137965233552,-0.0085066807147383613
-4.0785,0.55826295337139209,0.11865298014715518
-4.0780000000000003,1.0704313465396929,0.48953532432767799
-4.0774999999999997,0.73965592595103602,0.90280422212979583
-4.077,-0.31669138495858457,1.1783168206638983
-4.0765000000000002,-1.3730386958682053,1.2842832047154764
-4.0759999999999996,-2.0132491873298335,1.1995100974736645
-4.0754999999999999,-1.6931439415996454,0.57430843156935485
-4.0750000000000002,-0.97824222613490841,-0.24163272562853755
-4.0744999999999996,-0.3487019095312443,-0.85623775312853778
-4.0739999999999998,0.078105084775673142,-1.1741369052832717
-4.0735000000000001,0.30217875678700862,-1.2589100125246109
-4.0730000000000004,0.38754015564839206,-1.1847335436885067
-4.0724999999999998,0.38754015564846972,-1.01518732920576
-4.0720000000000001,0.32351910650237387,-0.78206128429207655
-4.0715000000000003,0.22748753278331746,-0.53833860097344721
-4.0709999999999997,0.12078578420636489,-0.26282600243866033
-4.0705,0.078105084775673142,-0.029699957525188878
-4.0700000000000003,-0.27401068552753377,-0.0085066807148732881
-4.0694999999999997,-0.95690187642005753,-0.061489872740344224
-4.069,-1.522421143876723,0.31998910984533641
-4.0685000000000002,-1.9385579633263461,0.80743447648303834
-4.0679999999999996,-2.0239193621874385,0.92399749893938854
-4.0674999999999999,-1.618452717595867,0.38356894027634103
-4.0670000000000002,-0.97824222613490841,-0.18864953360270037
-4.0664999999999996,-0.27401068552739788,-0.6125150698095807
-4.0659999999999998,0.22748753278323011,-0.81385119950757889
-4.0655000000000001,0.49424190422529612,-0.80325456110241145
-4.0650000000000004,0.59027347794435248,-0.69728817705083357
-4.0644999999999998,0.75032610080967954,-0.67609490024040231
-4.0640000000000001,0.80367697509809277,-0.65490162343006741
-4.0635000000000003,0.70764540137903642,-0.50654868575785827
-4.0629999999999997,0.66496470194821833,-0.2734226408438471
-4.0625,0.66496470194821833,-0.061489872740691176
-4.0620000000000003,0.61161382765985361,0.033879872905728983
-4.0614999999999997,0.97439977282111201,0.35177902506124348
-4.0609999999999999,1.0811015213978414,0.7968378380778709
-4.0605000000000002,0.32351910650237387,1.1041403518277266
-4.0599999999999996,-0.57277558154379293,1.1889134590690562
-4.0594999999999999,-1.4797404444459925,1.1783168206638983
-4.0590000000000002,-1.6931439415996454,0.82862775329337313
-4.0585000000000004,-1.1916457232890172,0.07626642652716964
-4.0579999999999998,-0.57277558154296804,-0.57012851618872795
-4.0575000000000001,-0.08194753808956648,-0.96220413717992292
-4.0570000000000004,0.2061471830676028,-1.0893637980418165
-4.0564999999999998,0.35552963107542179,-1.0257839676109275
-4.056,0.38754015564846972,-0.86683439153341613
-4.0555000000000003,0.3661998059331239,-0.64430498502510236
-4.0549999999999997,0.28083840707149776,-0.38998566330060208
-4.0545,0.12078578420640371,-0.082683149551026042
-4.0540000000000003,0.056764735060366084,0.19282944898307666
-4.0534999999999997,-0.25267033581306125,0.56371179316454401
-4.0529999999999999,-0.88221065241576446,0.95578741415538238
-4.0525000000000002,-1.4904106193036752,1.2630899279052379
-4.0519999999999996,-1.6718035918841829,1.2842832047148403
-4.0514999999999999,-1.5651018433074537,0.47893868592284788
-4.0510000000000002,-1.1703053735731959,-0.25222936403370499
-4.0505000000000004,-0.60478610611653016,-0.65490162342970115
-4.0499999999999998,-0.12462823752029703,-0.77146464588690922
-4.0495000000000001,0.24882788249859539,-0.70788481545590454
-4.0490000000000004,0.49424190422507291,-0.58072515459401108
-4.0484999999999998,0.60094365280222939,-0.45356549373171273
-4.048,0.71831557623663156,-0.26282600243887239
-4.0475000000000003,0.88903837395939855,-0.06148987274087428
-4.0469999999999997,0.82501732481336099,-0.072086511145916438
-4.0465,0.71831557623663156,-0.13566634157686319
-4.0460000000000003,0.60094365280222939,-0.19924617200780997
-4.0454999999999997,0.49424190422550962,-0.24163272562841226
-4.0449999999999999,0.72898575109431429,-0.10387642636136091
-4.0445000000000002,1.2838348436938116,0.36237566346600614
-4.0439999999999996,0.96372959796244939,0.82862775329363336
-4.0434999999999999,-0.0072563140857879876,1.1147369902328941
-4.0430000000000001,-1.0956141495694174,1.241896651094903
-4.0425000000000004,-1.6718035918837559,1.0829470750175363
-4.0419999999999998,-1.3623685210114835,0.39416557868150842
-4.0415000000000001,-0.75416855412357298,-0.33700247127504446
-4.0410000000000004,-0.22065981123992617,-0.83504447631746082
-4.0404999999999998,0.13145595906426105,-1.0575738828264298
-4.04,0.32351910650237387,-1.0575738828264298
-4.0395000000000003,0.38754015564841149,-0.94101086036969417
-4.0389999999999997,0.36619980593305596,-0.72907809226601772
-4.0385,0.31284893164469124,-0.48535540894738849
-4.0380000000000003,0.19547700821028893,-0.20984281041328579
-4.0374999999999996,0.16346648363707605,-0.0085066807146901725
-4.0369999999999999,0.099445434491038431,0.17163617217299235
-4.0365000000000002,-0.39138260896236304,0.044476511310983152
-4.0359999999999996,-1.1382948490006721,0.11865298014752142
-4.0354999999999999,-1.7144842913150107,0.52132523954351762
-4.0350000000000001,-1.5330913187344057,0.46834204751768049
-4.0345000000000004,-0.90355100213170247,0.044476511311368705
-4.0339999999999998,-0.28468086038553664,-0.33700247127504446
-4.0335000000000001,0.16346648363713429,-0.61251506980939763
-4.0330000000000004,0.45156120479430356,-0.7290780922661334
-4.0324999999999998,0.57960330308678643,-0.75027136907657432
-4.032,0.6116138276598051,-0.75027136907657432
-4.0315000000000003,0.64362435223282399,-0.73967473067141654
-4.0309999999999997,0.86769802424432441,-0.99399405239537708
-4.0305,1.0170804722517455,-0.94101086036958814
-4.0300000000000002,1.0170804722517455,-0.70788481545611659
-4.0294999999999996,0.94238924824780201,-0.4853554089472632
-4.0289999999999999,0.76099627566736228,-0.34759910968021185
-4.0285000000000002,0.72898575109431429,-0.26282600243887239
-4.0279999999999996,1.0064102973934808,0.06566978812178062
-4.0274999999999999,0.36619980593310447,0.57430843156935485
-4.0270000000000001,-0.72215802955052499,0.99817396777605205
-4.0265000000000004,-1.7038141164564351,1.2207033742843656
-4.0259999999999998,-2.3440246079182865,1.2207033742845681
-4.0255000000000001,-1.9065474387532981,0.66967817721586165
-4.0250000000000004,-1.0956141495701548,-0.13566634157613078
-4.0244999999999997,-0.39138260896193605,-0.76086800748205985
-4.024,0.078105084775673142,-1.1105570748522671
-4.0235000000000003,0.31284893164447775,-1.2059268204986873
-4.0229999999999997,0.40888050536383502,-1.1423469900676055
-4.0225,0.40888050536383502,-0.96220413717992292
-4.0220000000000002,0.33418928136012449,-0.71848145386129358
-4.0214999999999996,0.24882788249853716,-0.48535540894717644
-4.0209999999999999,0.18480683335249956,-0.25222936403370499
-4.0205000000000002,0.067434909917990504,0.044476511310983152
-4.0199999999999996,-0.35937208438996537,0.404762217087071
-4.0194999999999999,-1.0742737998540521,0.83922439169854057
-4.0190000000000001,-1.46907026958831,1.1889134590690658
-4.0185000000000004,-1.6291228924534038,1.4114428655773796
-4.0179999999999998,-1.5651018433074537,1.1889134590690658
-4.0175000000000001,-1.0529334501386869,0.54251851635385251
-4.0170000000000003,-0.42339313353598351,-0.040296595929826262
-4.0164999999999997,0.067434909918271932,-0.48535540894758122
-4.016,0.3768699807907871,-0.6972881770507372
-4.0155000000000003,0.53692260365588107,-0.76086800748168393
-4.0149999999999997,0.60094365280232642,-0.6866915386456468
-4.0145,0.82501732481345802,-0.77146464588690922
-4.0140000000000002,0.95305942310553327,-0.80325456110238258
-4.0134999999999996,0.83568749967101463,-0.54893523937811362
-4.0129999999999999,0.69697522652126631,-0.24163272562853755
-4.0125000000000002,0.5689331282290746,-0.019103319120021445
-4.0119999999999996,0.53692260365633715,0.15044289536296587
-4.0114999999999998,0.87836819910187125,0.48953532432801533
-4.0110000000000001,0.96372959796333246,0.90280422212954525
-4.0105000000000004,0.27016823221459152,1.1677201822584899
-4.0099999999999998,-0.6047861061160158,1.2630899279052379
-4.0095000000000001,-1.4263895701575793,1.2207033742845681
-4.0090000000000003,-1.4477299198729252,0.71206473083699406
-4.0084999999999997,-0.9355615267036731,-0.10387642636196807
-4.008,-0.38071243410468042,-0.77146464588690922
-4.0075000000000003,0.024754210486891193,-1.15294362847259
-4.0069999999999997,0.2594980573563751,-1.2801032893349071
-4.0065,0.36619980593310447,-1.2377167357142764
-4.0060000000000002,0.38754015564846972,-1.0893637980419322
-4.0054999999999996,0.34485945621767122,-0.8774310299383522
-4.0049999999999999,0.27016823221396069,-0.62311170821456507
-4.0045000000000002,0.16346648363713429,-0.36879238649054674
-4.0039999999999996,-0.37004225924761885,0.065669788121722791
-4.0034999999999998,-1.0529334501386869,0.51072860113835017
-4.0030000000000001,-1.6077825427381842,0.94519077575021493
-4.0025000000000004,-1.6184527175958572,1.2630899279049488
-4.0019999999999998,-1.5971123678805015,1.4644260576034194
-4.0015000000000001,-1.7678351656034239,1.4962159728189213
-4.0010000000000003,-1.5971123678806567,0.97698069096618956
-4.0004999999999997,-1.0742737998534699,0.22461936419831871
-4,-0.43406330839309365,-0.33700247127504446
-3.9994999999999998,0.099445434491038431,-0.57012851618872795
-3.9990000000000001,0.44089102993688295,-0.53833860097322561
-3.9984999999999999,0.60094365280212259,-0.44296885532671876
-3.9980000000000002,0.75032610080967954,-0.41117894011121647
-3.9975000000000001,0.92104889853260175,-0.42177557851638392
-3.9969999999999999,0.8997085488172365,-0.15685961838719809
-3.9965000000000002,0.84635767452882327,0.18223281057815977
-3.996,0.71831557623663156,0.40476221708667587
-3.9954999999999998,0.59027347794443985,0.52132523954351762
-3.9950000000000001,0.80367697509809277,0.64848490040552687
-3.9944999999999999,1.2304839694053984,0.92399749893988004
-3.9940000000000002,0.69697522652126631,1.1783168206638983
-3.9935,-0.35937208438931517,1.3054764815259077
-3.9929999999999999,-1.4157193952998968,1.3266697583362426
-3.9925000000000002,-1.8852070890379329,1.0935437134225592
-3.992,-1.4584000947306273,0.31998910984533641
-3.9914999999999998,-0.77550890383893822,-0.50654868575772338
-3.9910000000000001,-0.20998963638175816,-1.0999604364470996
-3.9904999999999999,0.16346648363713429,-1.3966663117917877
-3.9900000000000002,0.34485945621773917,-1.4814394190331273
-3.9895,0.40888050536383502,-1.4072629501969551
-3.9889999999999999,0.38754015564846972,-1.2377167357142764
-3.9885000000000002,0.32351910650237387,-1.0257839676109275
-3.988,0.25949805735627807,-0.80325456110241145
-3.9874999999999998,0.13145595906408636,-0.44296885532671876
-3.9870000000000001,-0.092617712947249131,0.0020899576903134209
-3.9864999999999999,-0.71148785469284226,0.50013196273318283
-3.9860000000000002,-1.2876772970077051,0.96638405256054982
-3.9855,-1.6077825427381842,1.2842832047155728
-3.9849999999999999,-1.8105158650341544,1.2736865663104053
-3.9845000000000002,-1.4157193952998968,0.72266136924169888
-3.984,-0.76483872898125549,0.065669788121318018
-3.9834999999999998,-0.15663876209334496,-0.43237221692155131
-3.9830000000000001,0.29150858192932599,-0.66549826183523486
-3.9824999999999999,0.53692260365602662,-0.59132179299906285
-3.9820000000000002,0.63295417737517057,-0.38998566330088158
-3.9815,0.6863050516635838,-0.22043944881820265
-3.9809999999999999,1.0597611716824762,-0.4641621321370536
-3.9805000000000001,1.1451225705439372,-0.43237221692155131
-3.98,0.95305942310564973,-0.13566634157686319
-3.9794999999999998,0.71831557623663156,0.11865298014715518
-3.9790000000000001,0.53692260365602662,0.27760255622466667
-3.9784999999999999,0.55826295337139209,0.31998910984533641
-3.9780000000000002,0.98506994767869771,0.55311515475901996
-3.9775,1.4332172917013686,0.89220758372437781
-3.9769999999999999,0.78233662538272752,1.146526905448396
-3.9765000000000001,-0.41272295867772835,1.2630899279052379
-3.976,-1.1062843244271001,1.0617537982070568
-3.9754999999999998,-0.97824222613490841,0.26700591781949923
-3.9750000000000001,-0.55143523182760279,-0.59132179299906285
-3.9744999999999999,-0.13529841237797968,-1.2165234589039415
-3.9740000000000002,0.15279630877945163,-1.5662125262744668
-3.9735,0.30217875678700862,-1.6827755487313083
-3.9729999999999999,0.36619980593310447,-1.650985633515806
-3.9725000000000001,0.3768699807907871,-1.523825972653797
-3.972,0.33418928136005654,-1.333086481360783
-3.9714999999999998,0.27016823221396069,-1.0999604364470996
-3.9710000000000001,0.23815770764091276,-0.88802766834375091
-3.9704999999999999,0.08877525963335578,-0.53833860097322561
-3.9700000000000002,-0.29535103524321932,0.033879872905815719
-3.9695,-0.95690187641954316,0.6590815388106942
-3.9689999999999999,-1.5117509690190405,1.1253336286380615
-3.9685000000000001,-1.7785053404611064,1.4008462271724147
-3.968,-1.7358246410303759,1.1889134590690658
-3.9674999999999998,-1.2663369472923398,0.52132523954351762
-3.9670000000000001,-0.6047861061160158,-0.093279787956193475
-3.9664999999999999,-0.049937013516518552,-0.43237221692155131
-3.9660000000000002,0.32351910650237387,-0.4641621321370536
-3.9655,0.52625242879834411,-0.31580919446470956
-3.9649999999999999,0.6116138276598051,-0.061489872740691176
-3.9645000000000001,0.86769802424418851,-0.11447306476652835
-3.964,1.1024418711132067,-0.14626297998203064
-3.9634999999999998,1.0917716962555239,0.055073149716150585
-3.9630000000000001,0.8997085488172365,0.26700591781949923
-3.9624999999999999,0.6863050516635838,0.39416557868150842
-3.9620000000000002,0.5689331282290746,0.46834204751768049
-3.9615,0.94238924824796699,0.70146809243136399
-3.9609999999999999,1.1344523956862547,1.0193672445863871
-3.9605000000000001,0.25949805735627807,1.2313000126897355
-3.96,-0.83952995298503397,1.3266697583362426
-3.9594999999999998,-1.7464948158880587,1.3160731199310751
-3.9590000000000001,-1.8531965644648849,0.88161094531921036
-3.9584999999999999,-1.2449965975769743,0.033879872905815719
-3.9580000000000002,-0.5621054066852853,-0.72907809226623943
-3.9575,-0.06060718837420119,-1.227120097309109
-3.9569999999999999,0.23815770764091276,-1.4496495038176249
-3.9565000000000001,0.3768699807907871,-1.4708427806279598
-3.956,0.40888050536383502,-1.3754730349814528
-3.9554999999999998,0.3768699807907871,-1.2059268204987741
-3.9550000000000001,0.33418928136005654,-1.0045906908005926
-3.9544999999999999,0.29150858192932599,-0.792657922697244
-3.9540000000000002,0.21681735792554749,-0.51714532416289083
-3.9535,0.13145595906408636,-0.24163272562853755
-3.9529999999999998,-0.42339313353541097,0.26700591781949923
-3.9525000000000001,-1.1382948490001481,0.80743447648303834
-3.952,-1.6397930673112322,1.0935437134225592
-3.9514999999999998,-1.3303579964384356,0.48953532432801533
-3.9510000000000001,-0.74349837926589024,-0.1674562567923655
-3.9504999999999999,-0.14596858723566233,-0.47475877054222104
-3.9500000000000002,0.28083840707164331,-0.52774196256805828
-3.9495,0.53692260365602662,-0.44296885532671876
-3.9489999999999998,0.63295417737517057,-0.30521255605954212
-3.9485000000000001,0.63295417737517057,-0.13566634157686319
-3.948,0.67563487680590106,-0.050893234335523743
-3.9474999999999998,0.72898575109431429,-0.061489872740691176
-3.9470000000000001,0.65429452709053582,0.044476511310983152
-3.9464999999999999,0.6116138276598051,0.18223281057815977
-3.9460000000000002,0.5689331282290746,0.25640927941433178
-3.9455,0.52625242879834411,0.27760255622466667
-3.9449999999999998,0.857027849386506,0.45774540911251305
-3.9445000000000001,1.3798664174129553,0.80743447648303834
-3.944,0.92104889853260175,1.1147369902328941
-3.9434999999999998,0.0034138607718946501,1.2524932895000704
-3.9430000000000001,-1.0529334501386869,1.3054764815259077
-3.9424999999999999,-1.586442193022819,1.0829470750173917
-3.9420000000000002,-1.2770071221500223,0.30939247144016896
-3.9415,-0.69014750497747701,-0.50654868575772338
-3.9409999999999998,-0.17797911180871023,-1.0787671596367647
-3.9405000000000001,0.15279630877945163,-1.3648763965762853
-3.9399999999999999,0.32351910650237387,-1.4496495038176249
-3.9394999999999998,0.38754015564846972,-1.3754730349814528
-3.9390000000000001,0.38754015564846972,-1.227120097309109
-3.9384999999999999,0.31284893164469124,-1.01518732920576
-3.9380000000000002,0.21681735792554749,-0.75027136907657432
-3.9375,0.18480683335249956,-0.48535540894738849
-3.9369999999999998,0.16346648363713429,-0.2310360872233701
-3.9365000000000001,-0.31669138495858457,0.2246193641988295
-3.9359999999999999,-1.0422632752810042,0.76504792286236856
-3.9355000000000002,-1.5010807941613578,1.1783168206638983
-3.9350000000000001,-1.6611334170265974,1.4008462271724147
-3.9344999999999999,-1.5437614935920885,1.1677201822587309
-3.9340000000000002,-0.98891240099259115,0.46834204751768049
-3.9335,-0.34870190953163249,-0.15685961838719809
-3.9329999999999998,0.14212613392176898,-0.50654868575772338
-3.9325000000000001,0.44089102993688295,-0.54893523937839306
-3.9319999999999999,0.5689331282290746,-0.36879238649054674
-3.9315000000000002,0.65429452709053582,-0.22043944881820265
-3.931,0.97439977282101498,-0.40058230170604903
-3.9304999999999999,1.0384208219671107,-0.34759910968021185
-3.9300000000000002,0.87836819910187125,-0.13566634157686319
-3.9295,0.67563487680590106,0.086863064931652884
-3.9289999999999998,0.52625242879834411,0.24581264100916439
-3.9285000000000001,0.55826295337139209,0.39416557868150842
