Class_8_Think_right_hand_movement/Class_8_Think_Right_hand_mouvement_SH_8.csv

#Digilent WaveForms Oscilloscope Acquisition
#Device Name: EExplorer
#Serial Number: SN:210151A2B84A
#Date Time: 2020-12-22 11:51:08.370
#Sample rate: 2000Hz
#Samples: 16384
#Trigger: Source: Channel 1 Type: Edge Condition: Rising Level: 0 V Hyst.: Auto HoldOff: 0 s
#Channel 1: Range: 1 V/div Offset: 0 V Attenuation: 1 X
#Channel 2: Range: 1 V/div Offset: 0 V Attenuation: 1 X
#Power Supplies: ON
#Fixed Supply: ON
#Voltage: 3.3 V Readback: 3.322 V
#Positive Supply: ON
#Voltage: 3.7 V Readback: 3.697 V
#Current: 40 mA Readback: 21 mA
#Negative Supply: ON
#Voltage: -3.7 V Readback: -4.02 V
#Current: -40 mA Readback: -14 mA
#Reference 1: ON
#Voltage: 0 V
#Reference 2: ON
#Voltage: 0 V

Time (s),Channel 1 (V),Channel 2 (V)
-4.096,0.5049120790829789,-1.396666311791788
-4.0955,0.1741366584951177,-1.91590159364452
-4.095,-0.4554036581083619,-2.27618729942054
-4.0945,-0.3487019095316325,-2.117237723343173
-4.094,-0.02859666380144443,-1.195330182094445
-4.0935,0.1527963087795487,-0.2098428104123606
-4.093,0.2594980573562781,0.5319218779486851
-4.0925,0.3235191065023156,0.9769806909653125
-4.092,0.3448594562177489,1.157123543853583
-4.0915,0.3555296310754218,1.178316820663898
-4.091,0.3661998059331045,1.114736990232894
-4.0905,0.3661998059331045,1.008770606181114
-4.09,0.3661998059331045,0.8922075837243778
-4.0895,0.3555296310754218,0.775644561267536
-4.089,0.3448594562177489,0.6484849004056426
-4.0885,0.3661998059331045,0.6484849004055269
-4.088,0.5155822539406614,0.8180311148882058
-4.0875,0.3555296310755673,0.1716361721735802
-4.087,-0.2313299860977154,-0.8138511995080415
-4.0865,-0.8822106524157645,-1.322489842955616
-4.086,-0.9995825758501669,-0.7926579226977258
-4.0855,-0.6688071552617042,-0.1886495336023438
-4.085,-0.2206598112394408,0.2034260873884947
-4.0845,0.08877525963307437,0.3835689402761772
-4.084,0.2915085819293939,0.4259554938969529
-4.0835,0.3661998059331045,0.3623756634660061
-4.083,0.408880505363835,0.2246193641988295
-4.0825,0.4515612047945559,0.108056341742007
-4.082,0.4408910299368829,0.1292496185523226
-4.0815,0.408880505363835,0.2140227257936621
-4.081,0.3768699807908162,0.31998910984524
-4.0805,0.3661998059331045,0.4153588554918433
-4.08,0.5155822539406614,0.4047622170866759
-4.0795,1.134452395685692,0.5213252395434116
-4.079,1.262494493977806,-0.1144730647673668
-4.0785,0.5582629533713921,-1.036380606016095
-4.078,-0.06060718837363832,-2.085447808126717
-4.0775,0.1848068333525578,-1.767548655971896
-4.077,0.2488278824985954,-0.9410108603695881
-4.0765,0.3448594562176518,-0.04029659593117552
-4.076,0.3875401556484309,0.5955017083799595
-4.0755,0.3448594562177392,0.8922075837243778
-4.075,0.3128489316446912,1.029963882991555
-4.0745,0.3021787567870086,1.05115715980187
-4.074,0.3021787567870086,1.029963882991555
-4.0735,0.3128489316446912,0.9875773293708847
-4.073,0.3341892813600371,0.9557874141554112
-4.0725,0.3448594562177392,0.92399749893988
-4.072,0.3448594562177392,0.849821030103708
-4.0715,0.2274875327833369,0.4577454091128697
-4.071,0.03542438534461263,-0.2310360872241315
-4.0705,-0.3273615598162672,-1.068170521231597
-4.07,-0.7541685541231848,-1.566212526274014
-4.0695,-1.010252750707714,-1.174136905282636
-4.069,-0.7434983792658902,-0.474758770542221
-4.0685,-0.3380317346739499,0.07626642652648545
-4.068,0.00341386077208874,0.4153588554919204
-4.0675,0.2168173579255475,0.5001319627331828
-4.067,0.3235191065023739,0.4365521323021782
-4.0665,0.3768699807907774,0.3305857482506002
-4.066,0.3661998059331045,0.4365521323021782
-4.0655,0.3448594562177392,0.4471487707073456
-4.065,0.3341892813600663,0.3835689402763989
-4.0645,0.3341892813600565,0.3305857482505039
-4.064,0.3235191065023739,0.3199891098453364
-4.0635,0.3982103305060845,0.2140227257937585
-4.063,0.9103787236754433,0.1292496185519757
-4.0625,1.486568165989782,-0.252229364033705
-4.062,1.177133095117266,-0.8032545611019103
-4.0615,0.8997085488169648,-1.216523458904202
-4.061,0.6009436528021226,-1.502632695843462
-4.0605,0.291508581929326,-1.068170521231597
-4.06,0.2168173579255475,-0.2840192792486194
-4.0595,0.2168173579255475,0.3623756634660061
-4.059,0.3021787567870086,0.849821030103708
-4.0585,0.2915085819293357,1.040560521396549
-4.058,0.2808384070716433,1.082947075017392
-4.0575,0.2808384070716433,1.072350436612224
-4.057,0.2915085819293163,1.029963882991593
-4.0565,0.3021787567870086,0.9981739677760521
-4.056,0.3128489316446912,0.9557874141553824
-4.0555,0.3235191065023642,0.9239974989399089
-4.055,0.01408403562883975,0.4789386859219323
-4.0545,-0.7968492535543035,-0.5277419625680583
-4.054,-1.266336947291913,-1.407262950196155
-4.0535,-1.309017646722828,-1.703968825540978
-4.053,-1.042263275281004,-0.9728007755850904
-4.0525,-0.5834457564006506,-0.2310360872233701
-4.052,-0.1779791118084676,0.2458126410093282
-4.0515,0.08877525963335578,0.4259554938970107
-4.051,0.2488278824985954,0.4047622170866759
-4.0505,0.3448594562176518,0.3093924714402557
-4.05,0.3768699807907871,0.2140227257936621
-4.0495,0.3982103305061524,0.2564092794143318
-4.049,0.3875401556484794,0.3093924714401208
-4.0485,0.366199805933085,0.2987958330350016
-4.048,0.3448594562177392,0.2987958330350016
-4.0475,0.3341892813600663,0.3305857482504749
-4.047,0.3555296310758391,0.3199891098449027
-4.0465,0.8143471499557753,-0.1568596183871981
-4.046,1.305175193408731,-0.8244478379121392
-4.0455,0.9957401225359921,-1.290699927740441
-4.045,0.5689331282290746,-1.650985633515806
-4.0445,0.5689331282290746,-1.809935209593318
-4.044,0.3555296310754024,-1.290699927739217
-4.0435,0.3341892813600565,-0.3052125560595421
-4.043,0.3021787567870086,0.4895353243280153
-4.0425,0.3555296310753733,1.051157159801378
-4.042,0.3235191065023739,1.25249328950007
-4.0415,0.2808384070716433,1.263089927905238
-4.041,0.2701682322139704,1.199510097474291
-4.0405,0.2701682322139704,1.093543713422453
-4.04,0.2808384070716433,0.9769806909657173
-4.0395,0.2915085819293163,0.8604176685089815
-4.039,0.3128489316446524,0.7650479228621662
-4.0385,0.2701682322139607,0.5425185163538525
-4.038,0.1741366584949043,-0.1356663415762464
-4.0375,-0.0179264889438588,-0.9622041371805204
-4.037,-0.4447334832507763,-1.619195718300304
-4.0365,-0.6154562809736985,-1.407262950196955
-4.036,-0.3913826089620816,-0.6866915386450783
-4.0355,-0.08194753808956648,-0.1462629799820306
-4.035,0.142126133921769,0.1292496185523226
-4.0345,0.2701682322138442,0.2246193641987428
-4.034,0.3128489316446912,0.2458126410091644
-4.0335,0.3128489316446912,0.2140227257936621
-4.033,0.3875401556484018,0.1822328105781887
-4.0325,0.5155822539406517,0.1928294489833079
-4.032,0.5049120790829789,0.1716361721729923
-4.0315,0.4408910299369412,0.1716361721729923
-4.031,0.3768699807907483,0.2034260873885428
-4.0305,0.3341892813600565,0.2564092794143318
-4.03,0.2915085819293648,0.1928294489833851
-4.0295,0.6009436528020061,0.267005917819027
-4.029,0.4729015545099309,-0.252229364033705
-4.0285,-0.2526703358124887,-1.004590690800593
-4.028,-0.8822106524159489,-1.629792356705413
-4.0275,-1.084943974711735,-1.566212526274467
-4.027,-0.6474668055467465,-0.6760949002404023
-4.0265,-0.2526703358128478,0.1398462569567479
-4.026,0.1207857842064037,0.7862411996727035
-4.0255,0.291508581929326,1.125333628638062
-4.025,0.3235191065023447,1.241896651094797
-4.0245,0.3235191065023642,1.263089927905199
-4.024,0.3128489316446912,1.220703374284568
-4.0235,0.3021787567870183,1.167720182258779
-4.023,0.3021787567870183,1.104140351827688
-4.0225,0.3128489316446912,1.061753798207057
-4.022,0.2701682322139995,0.945190775750321
-4.0215,-0.2526703358130613,0.1928294489823442
-4.021,-0.8822106524157645,-0.8880276683437509
-4.0205,-1.287677297007705,-1.788741932782983
-4.02,-1.746494815888068,-2.286783937825235
-4.0195,-1.757164990745741,-1.608599079895136
-4.019,-1.212986073003927,-0.6866915386455698
-4.0185,-0.5727755815435503,-0.04029659593094415
-4.018,-0.09261771294724913,0.2458126410091644
-4.0175,0.1954770082101822,0.2881991946298341
-4.017,0.3341892813599304,0.2246193641988873
-4.0165,0.3768699807908259,0.1292496185522262
-4.016,0.4195506802215176,0.02328323450064829
-4.0155,0.4195506802215176,-0.02969995752514069
-4.015,0.3875401556484406,-0.0191033191199829
-4.0145,0.3555296310754218,0.02328323450064829
-4.014,0.323519106502403,0.09745970333675286
-4.0135,0.4088805053643493,0.1504428953626478
-4.013,0.974399772821015,0.13984625695749
-4.0125,1.305175193409177,-0.3475991096802118
-4.012,0.8783681991013181,-0.9516074987753241
-4.0115,0.2701682322139607,-1.576809164679634
-4.011,-0.2099896363817582,-1.75695201756748
-4.0105,-0.1993194615240853,-0.9939940523961192
-4.01,-0.06060718837420119,-0.1356663415768632
-4.0095,0.1207857842064037,0.5743084315693548
-4.009,0.2701682322138248,1.019367244585982
-4.0085,0.291508581929326,1.178316820663927
-4.008,0.291508581929326,1.210106735879401
-4.0075,0.291508581929326,1.199510097474243
-4.007,0.2915085819293357,1.146526905448348
-4.0065,0.3021787567870086,1.093543713422559
-4.006,0.3021787567870086,1.040560521396722
-4.0055,0.3128489316446622,0.9981739677757918
-4.005,0.2808384070716433,0.7120647308365314
-4.0045,0.1954770082101822,-0.01910331912002144
-4.004,-0.1246282375207434,-0.8668343915340908
-4.0035,-0.6154562809736985,-1.608599079895136
-4.003,-0.8715404775580819,-1.576809164679634
-4.0025,-0.679477330119969,-0.8986243067495352
-4.002,-0.3593720843893152,-0.2098428104130352
-4.0015,-0.04993701351651855,0.2458126410091644
-4.001,0.1741366584946131,0.3729723018710579
-4.0005,0.2808384070716821,0.3199891098452304
-4,0.3235191065023739,0.2034260873884947
-3.9995,0.3982103305061524,-0.008506680714854012
-3.999,0.4302208550792003,-0.1038764263613609
-3.9985,0.3982103305061524,-0.05089323433552374
-3.998,0.3555296310754218,0.05507314971615059
-3.9975,0.3235191065023739,0.1716361721729923
-3.997,0.3448594562177392,0.2564092794143318
-3.9965,0.7823366253827275,-0.04029659593035631
-3.996,1.273164668836129,-0.6760949002404023
-3.9955,0.8463576745288233,-1.333086481360783
-3.995,-0.03926683865883591,-1.926498232050159
-3.9945,-0.391382608962363,-2.074851169722503
-3.994,-0.2206598112394408,-1.205926820498774
-3.9935,-0.02859666380115328,-0.2416327256285375
-3.993,0.1954770082101822,0.55311515475902
-3.9925,0.2701682322139607,0.9663840525605498
-3.992,0.2808384070716433,1.125333628638062
-3.9915,0.2808384070716433,1.157123543853563
-3.991,0.2808384070716433,1.114736990232894
-3.9905,0.2808384070716433,1.040560521396722
-3.99,0.291508581929326,0.9557874141553824
-3.9895,0.3021787567870086,0.8816109453192104
-3.989,0.3021787567870086,0.8074344764830383
-3.9885,0.1634664836371343,0.5637117931641874
-3.988,-0.4980843575391895,-0.326405832869877
-3.9875,-1.084943974711735,-1.290699927740113
-3.987,-1.51175096901904,-1.862918401619155
-3.9865,-1.30901764672307,-1.375473034981453
-3.986,-0.7755089038389382,-0.474758770542221
-3.9855,-0.274010685527854,0.1504428953626575
-3.985,0.04609456020262521,0.457745409112513
-3.9845,0.2488278824985954,0.5001319627331828
-3.984,0.3555296310754218,0.3941655786815084
-3.9835,0.3768699807907871,0.2352160026039969
-3.983,0.3128489316446912,0.09745970333682032
-3.9825,0.2168173579255475,0.01268659609548085
-3.982,0.2061471830678648,0.03387987290581572
-3.9815,0.2274875327832301,0.09745970333682032
-3.981,0.2488278824985954,0.1822328105781598
-3.9805,0.2808384070716433,0.2670059178194992
-3.98,0.4729015545099309,0.03387987290581572
-3.9795,0.8890383739595538,-0.6337083466197325
-3.979,0.7823366253827275,-1.449649503817625
-3.9785,0.1314559590640864,-2.043061254507001
-3.978,0.6222840025174878,-2.064254531317336
-3.9775,1.027750647109428,-1.703968825541643
-3.977,1.017080472251745,-0.7396747306714069
-3.9765,0.825017324813458,0.1610395337678249
-3.976,0.5475927785137094,0.701468092431364
-3.9755,0.3555296310754218,0.9981739677760521
-3.975,0.2594980573562781,1.114736990232894
-3.9745,0.2274875327832301,1.125333628638062
-3.974,0.2381577076409128,1.061753798207057
-3.9735,0.2488278824985954,0.9981739677760521
-3.973,0.2808384070716433,0.92399749893988
-3.9725,0.291508581929326,0.8604176685088755
-3.972,0.2701682322139607,0.7438546460520338
-3.9715,0.1314559590640864,0.1186529801471552
-3.971,-0.1032878878049318,-0.792657922697244
-3.9705,-0.4767440078238243,-1.555615887869299
-3.97,-0.6474668055467465,-1.481439419033127
-3.9695,-0.5300948821122373,-0.7608680074817418
-3.969,-0.2846808603855366,-0.1250697031716958
-3.9685,-0.04993701351651855,0.2458126410091644
-3.968,0.142126133921769,0.4047622170866759
-3.9675,0.2488278824985954,0.4047622170866759
-3.967,0.291508581929326,0.3305857482505039
-3.9665,0.3235191065023739,0.1928294489833272
-3.966,0.3982103305061524,0.002089957690313421
-3.9655,0.3982103305061524,-0.01910331912002144
-3.965,0.3555296310754218,0.06566978812131802
-3.9645,0.3235191065023739,0.1716361721729923
-3.964,0.3021787567870086,0.2670059178194992
-3.9635,0.4408910299368829,0.1504428953626575
-3.963,1.027750647109428,-0.3370024712750445
-3.9625,1.326515543124542,-1.046977244421262
-3.962,0.79300680024041,-1.650985633515806
-3.9615,0.2808384070716433,-2.297380576231019
-3.961,0.6222840025174878,-1.937094870455327
-3.9605,0.6116138276598051,-1.036380606016095
-3.96,0.5582629533713921,-0.05089323433552374
-3.9595,0.4515612047945656,0.6166949851900245
-3.959,0.3235191065023739,0.9345941373450475
-3.9585,0.2488278824985954,1.061753798207057
-3.958,0.2274875327832301,1.072350436612224
-3.9575,0.2274875327832301,1.029963882991555
-3.957,0.2381577076409128,0.9557874141553824
-3.9565,0.2594980573562781,0.8816109453192104
-3.956,0.2701682322139607,0.8180311148882058
-3.9555,0.2701682322139607,0.7862411996727035
-3.955,-0.08194753808956648,0.4789386859228479
-3.9545,-0.7328282044082075,-0.4535654937318862
-3.954,-1.223656247861609,-1.375473034981453
-3.9535,-1.597112367880501,-1.947691508860494
-3.953,-1.703814116457328,-1.51322933424863
-3.9525,-1.234326422719292,-0.6231117082145651
-3.952,-0.6261264558313813,-0.02969995752518888
-3.9515,-0.1459685872356623,0.2881991946298341
-3.951,0.1634664836371343,0.4259554938970107
-3.9505,0.3235191065023739,0.4153588554918433
-3.95,0.3768699807907871,0.309392471440169
-3.9495,0.3661998059331045,0.2564092794143318
-3.949,0.3448594562177392,0.1928294489833272
-3.9485,0.3128489316446912,0.1610395337678249
-3.948,0.291508581929326,0.1610395337678249
-3.9475,0.2808384070716433,0.1928294489833272
-3.947,0.3021787567870086,0.1928294489833272
-3.9465,0.6542945270905358,-0.252229364033705
-3.946,0.8783681991018712,-1.025783967610927
-3.9455,0.3661998059331045,-1.714565463946811
-3.945,-0.1886492866663929,-2.360960406662024
-3.9445,0.4942419042252961,-2.21260746898968
-3.944,0.7396559259519968,-1.396666311791788
-3.9435,0.7503261008096795,-0.3158091944647096
-3.943,0.5902734779444399,0.4789386859228479
-3.9425,0.408880505363835,0.9134008605347127
-3.942,0.291508581929326,1.125333628638062
-3.9415,0.2381577076409128,1.188913459069066
-3.941,0.2274875327832301,1.157123543853563
-3.9405,0.2274875327832301,1.093543713422559
-3.94,0.2488278824985954,1.019367244586387
-3.9395,0.2701682322139607,0.9345941373450475
-3.939,0.2701682322139607,0.8392243916985406
-3.9385,0.1634664836371343,0.6802748156210291
-3.938,-0.391382608962363,-0.09327978795619347
-3.9375,-0.8928808272734472,-1.004590690800593
-3.937,-1.223656247861609,-1.725162102351978
-3.9365,-1.415719395299897,-1.682775548731308
-3.936,-1.127624674142465,-0.8350444763179138
-3.9355,-0.6154562809736985,-0.1250697031716958
-3.935,-0.156638762093345,0.2458126410091644
-3.9345,0.1207857842064037,0.4047622170866759
-3.934,0.2808384070716433,0.4153588554918433
-3.9335,0.3341892813600565,0.3305857482505039
-3.933,0.291508581929326,0.1292496185523226
-3.9325,0.1954770082101822,-0.04029659593035631
-3.932,0.1848068333524996,-0.008506680714854012
-3.9315,0.2061471830678648,0.09745970333682032
-3.931,0.2274875327832301,0.2140227257936621
-3.9305,0.2594980573562781,0.309392471440169
-3.93,0.5262524287983441,0.3411823866556712
-3.9295,1.038420821967111,0.2670059178194992
-3.929,0.7503261008096795,-0.7078848154559045
-3.9285,0.2488278824985954,-1.523825972653797
-3.928,0.7503261008096795,-1.915901593644992
-3.9275,1.006410297394063,-1.640388995110639
-3.927,0.942389248247967,-0.7502713690765743
-3.9265,0.7183155762366316,0.04447651131098315
-3.926,0.4515612047945656,0.55311515475902
-3.9255,0.291508581929326,0.849821030103708
-3.925,0.2168173579255475,0.9981739677760521
-3.9245,0.1954770082101822,1.040560521396722
-3.924,0.2061471830678648,1.040560521396722
-3.9235,0.2274875327832301,1.019367244586387
-3.923,0.2594980573562781,0.9981739677760521
-3.9225,0.2701682322139607,0.9769806909657173
-3.922,0.2168173579255475,0.8710143069140429
-3.9215,-0.2420001609548061,0.1610395337678249
-3.921,-0.7861790786966207,-0.8456411147230812
-3.9205,-1.031593100423322,-1.629792356705471
-3.92,-0.9355615267041777,-1.481439419033127
-3.9195,-0.5834457564006506,-0.7290780922662394
-3.919,-0.1993194615240755,-0.1038764263613609
-3.9185,0.07810508477567314,0.2140227257936621
-3.918,0.2274875327832301,0.3623756634660061
-3.9175,0.3021787567870086,0.3729723018711736
-3.917,0.3235191065023739,0.2881991946298341
-3.9165,0.3235191065023739,0.2352160026039969
-3.916,0.3341892813600565,0.2140227257936621
-3.9155,0.3235191065023739,0.1928294489833272
-3.915,0.3021787567870086,0.2034260873884947
-3.9145,0.2808384070716433,0.2352160026039969
-3.914,0.2594980573562781,0.2987958330350016
-3.9135,0.3768699807907871,0.3517790250608387
-3.913,0.9850699476786977,0.627291623595192
-3.9125,1.539919040278195,0.309392471440169
-3.912,1.049090996824793,-0.6549016234300674
-3.9115,0.5902734779444399,-1.682775548731308
-3.911,0.942389248247967,-1.714565463946811
-3.9105,0.8143471499557753,-1.089363798041932
-3.91,0.6329541773751706,-0.2310360872233701
-3.9095,0.4942419042252961,0.4789386859228479
-3.909,0.3128489316446912,0.8604176685088755
-3.9085,0.2168173579255475,1.051157159801889
-3.908,0.1848068333524996,1.125333628638062
-3.9075,0.1848068333524996,1.135930267043229
-3.907,0.1954770082101822,1.104140351827727
-3.9065,0.2274875327832301,1.072350436612224
-3.906,0.2488278824985954,1.051157159801889
-3.9055,0.2488278824985954,0.9981739677760521
-3.905,-0.1352984123779797,0.4471487707073456
-3.9045,-0.8502001278427167,-0.6019184314042303
-3.904,-1.223656247861609,-1.523825972653797
-3.9035,-1.383708870726849,-2.043061254507001
-3.903,-1.191645723288561,-1.598002441489969
-3.9025,-0.7114878546928423,-0.7820612842920766
-3.902,-0.2953510352432193,-0.1462629799820306
-3.9015,0.00341386077189465,0.1822328105781598
-3.901,0.1741366584948169,0.2881991946298341
-3.9005,0.2701682322139607,0.2670059178194992
-3.9,0.3021787567870086,0.2246193641988295
-3.8995,0.3021787567870086,0.2776025562246667
-3.899,0.291508581929326,0.2881991946298341
-3.8985,0.2701682322139607,0.2564092794143318
-3.898,0.2594980573562781,0.2352160026039969
-3.8975,0.2488278824985954,0.2458126410091644
-3.897,0.2488278824985954,0.2140227257936621
-3.8965,-0.08194753808956648,-0.252229364033705
-3.896,-0.5834457564006506,-0.8774310299385835
-3.8955,-0.7755089038389382,-1.227120097309109
-3.895,-0.9569018764195432,-1.619195718300304
-3.8945,-1.042263275281004,-1.767548655972648
-3.894,-0.5514352318276028,-0.8880276683437509
-3.8935,-0.2099896363817582,-0.08268314955102604
-3.893,0.09944543449103843,0.5849050699745222
-3.8925,0.2701682322139607,0.9769806909657173
-3.892,0.2701682322139607,1.082947075017392
-3.8915,0.2594980573562781,1.082947075017392
-3.891,0.2488278824985954,1.040560521396722
-3.8905,0.2381577076409128,0.9769806909657173
-3.89,0.2381577076409128,0.9028042221295453
-3.8895,0.2488278824985954,0.849821030103708
-3.889,0.2594980573562781,0.7968378380778709
-3.8885,0.1314559590640864,0.6802748156210291
-3.888,-0.5834457564006506,-0.1144730647665284
-3.8875,-1.084943974711735,-1.0999604364471
-3.887,-1.30901764672307,-1.735758740757146
-3.8865,-1.1062843244271,-1.439052865412457
-3.886,-0.7008176798351597,-0.718481453861072
-3.8855,-0.2953510352432193,-0.09327978795619347
