Class_8_Think_right_hand_movement/Class_8_Think_Right_hand_mouvement_Suko_4.csv

#Digilent WaveForms Oscilloscope Acquisition
#Device Name: EExplorer
#Serial Number: SN:210151A2B84A
#Date Time: 2020-12-22 14:26:35.130
#Sample rate: 2000Hz
#Samples: 16384
#Trigger: Source: Channel 1 Type: Edge Condition: Rising Level: 0 V Hyst.: Auto HoldOff: 0 s
#Channel 1: Range: 1 V/div Offset: 0 V Attenuation: 1 X
#Channel 2: Range: 1 V/div Offset: 0 V Attenuation: 1 X
#Power Supplies: ON
#Fixed Supply: ON
#Voltage: 3.3 V Readback: 3.326 V
#Positive Supply: ON
#Voltage: 3.7 V Readback: 3.675 V
#Current: 40 mA Readback: 16 mA
#Negative Supply: ON
#Voltage: -3.7 V Readback: -4.023 V
#Current: -40 mA Readback: -16 mA
#Reference 1: ON
#Voltage: 0 V
#Reference 2: ON
#Voltage: 0 V

Time (s),Channel 1 (V),Channel 2 (V)
-4.096,-0.156638762093345,-0.4641621321370536
-4.0955,0.6116138276591063,0.2140227257930453
-4.095,0.9637295979633034,0.7756445612677962
-4.0945,0.9317190733902845,1.061753798207057
-4.094,0.7823366253828634,1.135930267043161
-4.0935,0.6222840025174587,1.061753798206835
-4.093,0.5902734779444399,0.8180311148882058
-4.0925,0.5475927785137482,0.5637117931644187
-4.092,0.4942419042252573,0.3199891098451147
-4.0915,0.4515612047945656,0.07626642652648545
-4.091,0.408880505363835,-0.1780528951975329
-4.0905,0.3235191065018886,-0.3370024712747168
-4.09,-0.2099896363817582,0.02328323450064829
-4.0895,-1.138294849000148,0.6484849004055269
-4.089,-1.927887788467945,1.146526905447943
-4.0885,-2.610778979360353,1.453829419198252
-4.088,-2.610778979360353,1.369056311956912
-4.0875,-1.661133417027461,0.6908714540268134
-4.087,-0.7541685541229713,-0.04029659593079964
-4.0865,-0.09261771294724913,-0.5277419625680583
-4.086,0.2808384070713036,-0.7184814538608986
-4.0855,0.4515612047946044,-0.6866915386453962
-4.085,0.4942419042252961,-0.4959520473525559
-4.0845,0.4729015545099503,-0.231036087223611
-4.084,0.4195506802214788,0.06566978812157823
-4.0835,0.3768699807907871,0.3517790250608387
-4.083,0.3448594562177392,0.627291623595192
-4.0825,0.3235191065023642,0.8604176685090585
-4.082,0.3128489316446912,1.061753798207057
-4.0815,0.2061471830678648,0.9663840525605498
-4.081,-0.3060212101004361,0.489535324328449
-4.0805,-0.7328282044082075,-0.008506680714854012
-4.08,-0.3700422592469978,-0.3052125560595421
-4.0795,0.08877525963293853,-0.6019184314039605
-4.079,-0.06060718837393917,-0.8668343915327993
-4.0785,0.2274875327832301,-0.1886495336027004
-4.078,0.3555296310753053,0.3729723018706628
-4.0775,0.4088805053639223,0.6908714540263796
-4.077,0.5049120790829789,0.8922075837243778
-4.0765,0.6009436528020352,0.7650479228624842
-4.076,0.6329541773751221,0.4259554938967987
-4.0755,0.5796033030867573,0.1928294489833272
-4.075,0.4942419042252961,-0.01910331912002144
-4.0745,0.4302208550791615,-0.2098428104132087
-4.074,0.3875401556484697,-0.400582301706049
-4.0735,0.4195506802215176,-0.474758770542221
-4.073,0.3021787567871154,-0.2946159176545385
-4.0725,-0.572775581542968,0.1716361721729923
-4.072,-1.554431668449771,0.5425185163538525
-4.0715,-2.226652684483166,0.775644561267324
-4.071,-1.938557963325628,0.5531151547585573
-4.0705,-1.148965023857831,0.04447651131098315
-4.07,-0.4233931335360709,-0.3899856633004865
-4.0695,0.07810508477591575,-0.6125150698094073
-4.069,0.3448594562177392,-0.6231117082145651
-4.0685,0.4622313796522482,-0.4853554089473885
-4.068,0.4729015545099114,-0.2628260024386218
-4.0675,0.4515612047945656,0.01268659609548085
-4.067,0.408880505363835,0.2881991946298341
-4.0665,0.3768699807907677,0.5531151547592417
-4.066,0.3555296310754218,0.7968378380778709
-4.0655,0.3448594562177392,1.019367244586387
-4.065,0.2381577076410098,1.029963882991545
-4.0645,-0.1459685872356623,0.6378882620003594
-4.064,-0.6047861061160158,0.08686306493165288
-4.0635,-0.5407650569699782,-0.3370024712746589
-4.063,0.03542438534545692,-0.5701285161886701
-4.0625,0.6009436528021226,-0.5065486857577234
-4.062,0.9103787236746378,-0.07208651114625375
-4.0615,0.9530594231054459,0.3517790250610314
-4.061,0.7289857510943143,0.5637117931641874
-4.0605,0.09944543449103843,0.2246193641988295
-4.06,-0.09261771294691917,0.02328323450042662
-4.0595,0.2701682322139607,-0.2204394488182027
-4.059,0.4302208550792003,-0.326405832869877
-4.0585,0.5369226036559296,-0.2416327256286147
-4.058,0.5369226036560266,-0.2416327256285375
-4.0575,0.4408910299368829,-0.3899856633008816
-4.057,0.3661998059331724,-0.4641621321369861
-4.0565,0.1207857842064037,-0.05089323433552374
-4.056,-0.7434983792658902,0.6166949851900245
-4.0555,-1.458400094729977,1.135930267042756
-4.055,-2.077270236476162,1.422039503982576
-4.0545,-2.013249187330125,1.231300012689736
-4.054,-1.309017646723711,0.5425185163544789
-4.0535,-0.5621054066847904,-0.1144730647668849
-4.053,-0.01792648894347063,-0.5065486857577234
-4.0525,0.291508581929326,-0.6337083466197325
-4.052,0.440891029936912,-0.54893523937821
-4.0515,0.4729015545099309,-0.3475991096802118
-4.051,0.4515612047945656,-0.08268314955102604
-4.0505,0.4195506802215467,0.1928294489830767
-4.05,0.3982103305061524,0.4683420475176805
-4.0495,0.3661998059331045,0.7226613692416989
-4.049,0.3448594562177586,0.9345941373448547
-4.0485,0.09944543449034941,1.029963882991333
-4.048,-0.658136980404429,0.7862411996727035
-4.0475,-1.255666772434114,0.2670059178199715
-4.047,-1.266336947291641,-0.01910331911996362
-4.0465,-0.4980843575391895,0.04447651131098315
-4.046,0.2915085819286079,0.03387987290582536
-4.0455,0.7823366253829022,0.2564092794144571
-4.045,0.974399772821015,0.3941655786815084
-4.0445,0.9317190733902845,0.5425185163538525
-4.044,0.8036769750979569,0.6908714540262062
-4.0435,0.6542945270905358,0.701468092431364
-4.043,0.4942419042252961,0.383568940276341
-4.0425,-0.09261771294671539,-0.3581957480847047
-4.042,-0.1779791118087102,-0.5065486857577234
-4.0415,-0.09261771294724913,-0.4429688553267188
-4.041,0.03542438534482611,-0.379389024895772
-4.0405,0.2061471830678066,-0.3370024712755745
-4.04,0.142126133921769,-0.9198175835592532
-4.0395,-0.5621054066846448,-1.555615887868721
-4.039,-1.479740444446546,-1.672178910325601
-4.0385,-2.087940411333903,-1.078767159636765
-4.038,-2.429386006779437,-0.07208651114677411
-4.0375,-1.863866739321782,0.2987958330349245
-4.037,-0.9995825758502737,0.2140227257936621
-4.0365,-0.274010685527854,0.01268659609548085
-4.036,0.1848068333527033,-0.1356663415769114
-4.0355,0.408880505363835,-0.1886495336027004
-4.035,0.4835717293676135,-0.1568596183871981
-4.0345,0.4835717293676135,-0.05089323433562012
-4.034,0.4408910299368829,0.09745970333682032
-4.0335,0.408880505363835,0.2458126410091644
-4.033,0.3768699807908162,0.4047622170865313
-4.0325,0.3555296310752956,0.5213252395435465
-4.032,0.2168173579255475,0.55311515475902
-4.0315,-0.39138260896181,0.288199194630075
-4.031,-0.882210652415745,-0.1144730647667982
-4.0305,-0.8608703027003992,-0.4111789401112165
-4.03,-0.2953510352437337,-0.7078848154556348
-4.0295,0.3982103305065891,-0.7926579226970319
-4.029,0.8783681991018712,-0.5595318777835605
-4.0285,1.059761171682476,-0.1144730647665284
-4.028,0.9957401225362347,0.415358855492171
-4.0275,0.8356874996711408,0.775644561267536
-4.027,0.6649647019482183,0.8922075837243778
-4.0265,0.6009436528021808,0.7862411996727998
-4.026,0.6222840025174878,0.5425185163538525
-4.0255,0.5582629533713921,0.3623756634660061
-4.025,0.4942419042253544,0.1928294489834814
-4.0245,0.2061471830672729,-0.1886495336033846
-4.024,-0.4447334832507763,-0.9410108603695881
-4.0235,-0.5727755815428516,-0.8350444763180102
-4.023,-1.234326422719913,-0.4323722169210694
-4.0225,-1.917217613610981,0.09745970333682032
-4.022,-2.429386006779282,0.5425185163534477
-4.0215,-2.696140378221251,0.8392243916983575
-4.021,-2.07727023647622,0.6378882620003594
-4.0205,-1.138294849000148,0.1822328105781598
-4.02,-0.3487019095311764,-0.209842810413228
-4.0195,0.1527963087794516,-0.4217755785163839
-4.019,0.408880505363835,-0.4641621321370536
-4.0185,0.5049120790828915,-0.3793890248957912
-4.018,0.5049120790829789,-0.2204394488182027
-4.0175,0.4729015545099309,-0.04029659593035631
-4.017,0.4302208550792391,0.150442895362484
-4.0165,0.398210330506133,0.3411823866558351
-4.016,0.3768699807907871,0.5213252395435176
-4.0155,0.3128489316447495,0.6272916235950956
-4.015,-0.1993194615247063,0.3623756634654279
-4.0145,-0.8928808272734472,-0.2734226408440398
-4.014,-1.405049220441748,-0.8986243067483497
-4.0135,-1.29834747186464,-1.280103289334994
-4.013,-0.4767440078238243,-1.333086481360783
-4.0125,0.3341892813600565,-1.004590690800593
-4.012,0.8250173248136036,-0.4111789401105708
-4.0115,0.9850699476786977,0.2987958330350016
-4.011,0.9317190733902845,0.775644561267536
-4.0105,0.7823366253828634,0.987577329370692
-4.01,0.6542945270905358,0.9557874141553824
-4.0095,0.7396559259519968,0.6484849004055269
-4.009,0.7076454013789781,0.3835689402765819
-4.0085,0.600943652802045,0.1928294489831634
-4.008,0.5155822539406614,0.01268659609548085
-4.0075,0.4408910299369509,-0.1568596183870439
-4.007,0.2594980573557249,-0.3158091944645458
-4.0065,-0.3487019095316325,-0.1356663415768632
-4.006,-1.138294849000148,0.2776025562246667
-4.0055,-2.087940411334388,0.1504428953627731
-4.005,-2.621449154218035,0.2776025562246667
-4.0045,-2.418715831922065,0.5213252395435176
-4.004,-1.618452717595023,0.171636172172684
-4.0035,-0.690147504977477,-0.1674562567923655
-4.003,-0.01792648894347063,-0.4111789401112165
-4.0025,0.3021787567867175,-0.5595318777834256
-4.002,0.4408910299368829,-0.5383386009732256
-4.0015,0.4729015545099309,-0.3899856633008816
-4.001,0.4622313796522579,-0.1674562567925679
-4.0005,0.4302208550791712,0.07626642652670712
-4,0.3982103305061524,0.3199891098453364
-3.9995,0.3875401556484697,0.5637117931641874
-3.999,0.3875401556484697,0.7650479228623686
-3.9985,0.1848068333524996,0.7862411996727035
-3.998,-0.4127229586777283,0.5637117931641874
-3.9975,-1.06360362499637,-0.008506680714854012
-3.997,-1.287677297007705,-0.4535654937318862
-3.9965,-0.7008176798351597,-0.5171453241628908
-3.996,0.07810508477567314,-0.1992461720078678
-3.9955,0.6542945270905358,0.13984625695749
-3.995,0.9103787236749192,0.5107286011383502
-3.9945,0.9103787236749192,0.7862411996727035
-3.994,0.79300680024041,0.9028042221295453
-3.9935,0.6542945270905358,0.9028042221295453
-3.993,0.7183155762366316,0.5955017083796896
-3.9925,0.7823366253827275,0.2458126410091644
-3.992,0.6969752265212663,0.07626642652648545
-3.9915,0.5796033030867573,-0.05089323433552374
-3.991,0.4942419042252961,-0.1780528951975329
-3.9905,0.3982103305061524,-0.3052125560595421
-3.99,0.08877525963335578,-0.3158091944647096
-3.9895,-0.5300948821122373,-0.1780528951975329
-3.989,-1.074273799854052,0.05507314971615059
-3.9885,-1.554431668449771,0.3517790250608387
-3.988,-1.586442193022819,0.5637117931641874
-3.9875,-1.084943974711735,0.1928294489833272
-3.987,-0.9248913518464952,-0.6654982618352349
-3.9865,-0.722158029550525,-1.216523458903942
-3.986,-0.274010685527854,-1.163540266878104
-3.9855,-0.007256314085787988,-0.9728007755850904
-3.985,0.2594980573562781,-0.6125150698093976
-3.9845,0.4195506802215176,-0.2416327256285375
-3.984,0.4195506802215176,0.002089957690313421
-3.9835,0.3875401556484697,0.2246193641988295
-3.983,0.3661998059331045,0.4471487707073456
-3.9825,0.3555296310754218,0.6378882620003594
-3.982,0.2594980573562781,0.7544512844572011
-3.9815,-0.2846808603855366,0.4153588554918433
-3.981,-0.8608703027003992,-0.3158091944647096
-3.9805,-1.223656247861609,-0.9516074987747555
-3.98,-0.722158029550525,-1.195330182093607
-3.9795,0.07810508477567314,-1.078767159636765
-3.979,0.6542945270905358,-0.4535654937318862
-3.9785,0.9530594231056497,0.2776025562246667
-3.978,0.9850699476786977,0.7332580076468663
-3.9775,0.8890383739595538,0.9981739677760521
-3.977,0.7503261008096795,1.029963882991555
-3.9765,0.6969752265212663,0.8604176685088755
-3.976,0.7289857510943143,0.5743084315693548
-3.9755,0.6542945270905358,0.3517790250608387
-3.975,0.5475927785137094,0.1610395337678249
-3.9745,0.4729015545099309,-0.04029659593035631
-3.974,0.408880505363835,-0.2204394488182027
-3.9735,0.1741366584948169,-0.1250697031716958
-3.973,-0.4874141826815069,0.457745409112513
-3.9725,-1.116954499284783,1.051157159801889
-3.972,-1.629122892453549,1.443232780793084
-3.9715,-1.853196564464885,1.496215972818921
-3.971,-1.30901764672307,0.9134008605347127
-3.9705,-0.6261264558313813,0.1716361721729923
-3.97,-0.08194753808956648,-0.3687923864905467
-3.9695,0.2488278824985954,-0.6337083466197325
-3.969,0.4195506802215176,-0.6654982618352349
-3.9685,0.3661998059331045,-0.6443049850249
-3.968,-0.1139580626626144,-0.9092209451540858
-3.9675,-0.3487019095316325,-0.8668343915334161
-3.967,-0.1993194615240755,-0.4323722169215513
-3.9665,-0.06060718837420119,-0.01910331912002144
-3.966,0.1634664836371343,0.457745409112513
-3.9655,0.3021787567870086,0.8180311148882058
-3.965,-0.2206598112394408,0.7650479228623686
-3.9645,-0.9782422261349084,0.2670059178194992
-3.964,-1.351698346153801,-0.4959520473525559
-3.9635,-1.298347471865388,-1.142346990067769
-3.963,-0.5407650569699201,-1.311893204550448
-3.9625,0.2808384070716433,-0.8562377531282487
-3.962,0.8036769750980928,-0.1568596183871981
-3.9615,0.9957401225363802,0.383568940276341
-3.961,0.9530594231056497,0.7120647308365314
-3.9605,0.825017324813458,0.9134008605347127
-3.96,0.6969752265212663,0.8816109453192104
-3.9595,0.8036769750980928,0.4153588554918433
-3.959,0.8143471499557753,0.06566978812131802
-3.9585,0.707645401378949,-0.1038764263613609
-3.958,0.5796033030867573,-0.2310360872233701
-3.9575,0.4835717293676135,-0.3687923864905467
-3.957,0.3235191065023739,-0.3687923864905467
-3.9565,-0.3593720843893152,0.1504428953626575
-3.956,-1.223656247861609,0.8180311148882058
-3.9555,-1.757164990745741,1.305476481525908
-3.955,-1.917217613610981,1.496215972818921
-3.9545,-1.383708870726849,0.9981739677760521
-3.954,-0.6688071552621118,0.2564092794143318
-3.9535,-0.1032878878049318,-0.326405832869877
-3.953,0.2488278824985954,-0.6231117082145651
-3.9525,0.4195506802215176,-0.6866915386455698
-3.952,0.4729015545099309,-0.570128516188728
-3.9515,0.4729015545099309,-0.3581957480853793
-3.951,0.4408910299368829,-0.1038764263613609
-3.9505,0.408880505363835,0.1610395337678249
-3.95,0.3768699807907871,0.4259554938970107
-3.9495,0.3661998059331045,0.6590815388106942
-3.949,0.1634664836371343,0.6802748156210291
-3.9485,-0.6474668055467465,0.1292496185523226
-3.948,-1.212986073003927,-0.1886495336027004
-3.9475,-1.842526389607202,-0.792657922697244
-3.947,-1.970568487899394,-1.142346990067769
-3.9465,-1.020922925565639,-1.01518732920576
-3.946,0.04609456020262521,-0.6231117082145651
-3.9455,0.707645401378949,-0.04029659593035631
-3.945,0.9530594231056497,0.4789386859228479
-3.9445,0.942389248247967,0.849821030103708
-3.944,0.825017324813458,0.9981739677760521
-3.9435,0.6863050516635838,0.9345941373450475
-3.943,0.7823366253827275,0.5637117931641874
-3.9425,0.9210488985326017,0.06566978812131802
-3.942,0.825017324813458,-0.1780528951975329
-3.9415,0.6649647019482183,-0.326405832869877
-3.941,0.5262524287983441,-0.4641621321370536
-3.9405,0.3875401556484697,-0.5171453241628908
-3.94,-0.1886492866663929,-0.07208651114585861
-3.9395,-0.9675720512772257,0.5001319627331828
-3.939,-1.383708870726849,0.6378882620003594
-3.9385,-1.725154466172693,0.6166949851900245
-3.938,-1.586442193022819,0.4895353243280153
-3.9375,-0.9675720512772257,0.02328323450064829
-3.937,-0.3487019095316325,-0.3899856633008816
-3.9365,0.09944543449103843,-0.6231117082145651
-3.936,0.3448594562177392,-0.6549016234300674
-3.9355,0.4515612047945656,-0.5383386009732256
-3.935,0.4729015545099309,-0.3370024712750445
-3.9345,0.4622313796522482,-0.07208651114585861
-3.934,0.4302208550792003,0.1928294489833272
-3.9335,0.3875401556484697,0.457745409112513
-3.933,0.3555296310754218,0.701468092431364
-3.9325,0.3448594562177392,0.9028042221295453
-3.932,0.1634664836371343,0.8710143069140429
-3.9315,-0.4127229586777283,0.4047622170866759
-3.931,-0.807519428411986,0.07626642652648545
-3.9305,-1.031593100423322,-0.2840192792492073
-3.93,-0.9889124009925911,-1.01518732920576
-3.9295,-0.3273615598162672,-1.205926820498774
-3.929,0.3661998059331045,-0.7820612842920766
-3.9285,0.7396559259519968,-0.1144730647665284
-3.928,0.8997085488172365,0.5213252395435176
-3.9275,0.8676980242441885,0.8816109453192104
-3.927,0.7183155762366316,0.9451907757502149
-3.9265,0.6542945270905358,0.7332580076468663
-3.926,0.6969752265212663,0.309392471440169
-3.9255,0.6436243522328531,0.03387987290581572
-3.925,0.5475927785137094,-0.1780528951975329
-3.9245,0.4835717293676135,-0.3687923864905467
-3.924,0.4302208550792003,-0.5595318777835605
-3.9235,0.1848068333524996,-0.8668343915334161
-3.923,-0.658136980404429,-1.025783967610927
-3.9225,-1.458400094730627,-0.8668343915334161
-3.922,-1.725154466172693,-0.7502713690765743
-3.9215,-2.03458953704549,-0.5489352393783931
-3.921,-1.778505340461106,-0.252229364033705
-3.9205,-1.052933450138687,-0.2946159176543747
-3.92,-0.3700422592469978,-0.4217755785163839
-3.9195,0.1101156093487211,-0.474758770542221
-3.919,0.3661998059331045,-0.4429688553267188
-3.9185,0.4729015545099309,-0.3052125560595421
-3.918,0.4835717293676135,-0.1250697031716958
-3.9175,0.4729015545099309,0.09745970333682032
-3.917,0.4302208550792003,0.3305857482505039
-3.9165,0.3982103305061524,0.55311515475902
-3.916,0.3768699807907871,0.7544512844572011
-3.9155,0.3021787567870086,0.8392243916985406
-3.915,-0.2206598112394408,0.4259554938970107
-3.9145,-0.7008176798351597,-0.06148987274069118
-3.914,-0.9462317015618604,-0.3581957480853793
-3.9135,-0.9035510021311299,-0.4853554089473885
-3.913,-0.391382608962363,-0.5065486857577234
-3.9125,-0.1779791118087102,-0.6760949002404023
-3.912,0.09944543449103843,-0.4323722169215513
-3.9115,0.408880505363835,-0.02969995752518888
-3.911,0.5155822539406614,0.2987958330350016
-3.9105,0.6329541773751706,0.5955017083796896
-3.91,0.6222840025174878,0.6696781772158616
-3.9095,0.6649647019482183,0.4259554938970107
-3.909,0.6329541773751706,0.2246193641988295
-3.9085,0.5582629533713921,0.06566978812131802
-3.908,0.5049120790829789,-0.08268314955102604
-3.9075,0.4515612047945656,-0.2204394488182027
-3.907,0.3768699807907871,-0.3370024712750445
-3.9065,-0.1993194615240755,-0.252229364033705
-3.906,-0.9355615267041777,0.1080563417419877
-3.9055,-1.586442193022819,0.4153588554918433
-3.905,-2.183971985053047,0.7120647308365314
-3.9045,-2.226652684483777,0.8604176685088755
-3.904,-1.479740444445993,0.4683420475176805
-3.9035,-0.658136980404429,-0.01910331912002144
-3.903,-0.04993701351651855,-0.3581957480853793
-3.9025,0.3021787567870086,-0.4959520473525559
-3.902,0.4622313796522482,-0.4535654937318862
-3.9015,0.5049120790829789,-0.3052125560595421
-3.901,0.4942419042252961,-0.09327978795619347
-3.9005,0.4515612047945656,0.1504428953626575
-3.9,0.408880505363835,0.383568940276341
-3.8995,0.3875401556484697,0.5955017083796896
-3.899,0.3661998059331045,0.7862411996727035
-3.8985,0.07810508477567314,0.775644561267536
-3.898,-0.5514352318276028,0.3941655786815084
-3.8975,-0.8715404775580819,-0.08268314955102604
-3.897,-0.7861790786966207,-0.3899856633008816
-3.8965,-0.1352984123779797,-0.6019184314042303
-3.896,0.5369226036560266,-0.4853554089473885
-3.8955,0.942389248247967,-0.1144730647665284
-3.895,0.5475927785137094,-0.1674562567923655
-3.8945,0.2061471830678648,-0.1144730647665284
-3.894,0.2488278824985954,0.1928294489833272
-3.8935,0.2594980573562781,0.3729723018711736
-3.893,0.4408910299368829,0.457745409112513
-3.8925,0.5902734779444399,0.4153588554918433
-3.892,0.5582629533713921,0.2564092794143318
-3.8915,0.4942419042252961,0.07626642652648545
-3.891,0.4408910299368829,-0.1250697031716958
-3.8905,0.408880505363835,-0.326405832869877
-3.89,0.4302208550792003,-0.3581957480853793
-3.8895,0.2701682322139607,-0.08268314955102604
-3.889,-0.5300948821122373,0.4153588554918433
-3.8885,-1.415719395299897,0.5849050699745222
-3.888,-1.789175515318789,0.4895353243280153
-3.8875,-1.341028171296118,0.07626642652648545
