Class_8_Think_right_hand_movement/Class_8_Think_Right_hand_mouvement_turki_13.csv

#Digilent WaveForms Oscilloscope Acquisition
#Device Name: EExplorer
#Serial Number: SN:210151A2B84A
#Date Time: 2021-02-07 11:00:13.617
#Sample rate: 2000Hz
#Samples: 16384
#Trigger: Source: Channel 1 Type: Edge Condition: Rising Level: 0 V Hyst.: Auto HoldOff: 0 s
#Channel 1: Range: 1 V/div Offset: 0 V Attenuation: 1 X
#Channel 2: Range: 1 V/div Offset: 0 V Attenuation: 1 X
#Power Supplies: ON
#Fixed Supply: ON
#Voltage: 3.3 V Readback: 3.302 V
#Positive Supply: ON
#Voltage: 3.7 V Readback: 3.717 V
#Current: 40 mA Readback: 18 mA
#Negative Supply: ON
#Voltage: -3.7 V Readback: -3.334 V
#Current: -40 mA Readback: -2 mA
#Reference 1: ON
#Voltage: 0 V
#Reference 2: ON
#Voltage: 0 V

Time (s),Channel 1 (V),Channel 2 (V)
-4.096,0.4835717293676135,-0.1144730647665284
-4.0955,0.408880505363903,-0.07208651114589716
-4.095,0.3128489316446233,-0.04029659593030812
-4.0945,0.2381577076409128,0.01268659609548085
-4.094,0.1848068333525481,0.03387987290579644
-4.0935,-0.09261771294750144,-0.2946159176548084
-4.093,-0.3700422592469978,-0.7714646458869092
-4.0925,-0.7861790786962423,-1.258910012524168
-4.092,-0.9355615267039545,-1.258910012524129
-4.0915,-0.690147504977477,-0.7290780922662394
-4.091,-0.3593720843893152,-0.1568596183871981
-4.0905,-0.1032878878047765,0.2881991946300847
-4.09,0.0674349099179905,0.5637117931641874
-4.0895,0.142126133921769,0.7120647308365314
-4.089,0.1741366584947878,0.7756445612674782
-4.0885,0.1741366584948169,0.7862411996727035
-4.088,0.1634664836371343,0.7650479228623686
-4.0875,0.1421261339217884,0.7438546460520531
-4.087,0.1314559590640766,0.7014680924313255
-4.0865,0.1207857842064037,0.6590815388106942
-4.086,0.1207857842064037,0.616694985190063
-4.0855,-0.09261771294779259,0.3835689402756953
-4.085,-0.690147504977477,-0.326405832869877
-4.0845,-1.010252750707665,-1.07876715963608
-4.084,-0.9462317015614723,-1.396666311791479
-4.0835,-0.5194247072545548,-1.05757388282643
-4.083,-0.08194753808956648,-0.6019184314042303
-4.0825,0.1954770082102695,-0.2628260024387182
-4.082,0.291508581929326,-0.09327978795619347
-4.0815,0.3021787567870086,-0.01910331912002144
-4.081,0.2701682322139898,-0.06148987274065262
-4.0805,0.2381577076409128,-0.1462629799820306
-4.08,0.3661998059331045,-0.04029659593035631
-4.0795,0.4622313796521609,0.1080563417418528
-4.079,0.4088805053637574,0.1186529801471456
-4.0785,0.3235191065023739,0.1080563417419877
-4.078,0.2488278824986633,0.1080563417419877
-4.0775,0.238157707640903,0.08686306493130592
-4.077,0.2274875327832301,-0.2946159176543747
-4.0765,-0.3700422592464544,-0.9410108603690003
-4.076,-1.1382948490004,-1.523825972653845
-4.0755,-1.415719395299897,-1.576809164679634
-4.075,-1.074273799854052,-0.9304142219644207
-4.0745,-0.5941159312579839,-0.2416327256280557
-4.074,-0.2099896363817582,0.2881991946298341
-4.0735,0.03542438534494258,0.6166949851900245
-4.073,0.1527963087793449,0.7756445612673915
-4.0725,0.1954770082101822,0.8286277532933731
-4.072,0.1954770082101822,0.8286277532933731
-4.0715,0.1741366584948363,0.786241199672742
-4.071,0.1527963087794419,0.7332580076468085
-4.0705,0.142126133921769,0.6696781772158616
-4.07,0.1207857842064231,0.6166949851900727
-4.0695,0.1207857842063552,0.5425185163537368
-4.069,0.0674349099179905,0.4153588554918433
-4.0685,-0.3273615598162672,-0.1674562567923655
-4.068,-0.6581369804045649,-0.9198175835597351
-4.0675,-0.807519428411986,-1.449649503817625
-4.067,-0.5941159312583333,-1.280103289334946
-4.0665,-0.2206598112391788,-0.8032545611020742
-4.066,0.0674349099179905,-0.4323722169215513
-4.0655,0.2168173579255475,-0.2098428104130352
-4.065,0.2594980573562393,-0.1250697031717729
-4.0645,0.2488278824985954,-0.1144730647665284
-4.064,0.2274875327832301,-0.1462629799820306
-4.0635,0.3021787567869407,-0.2098428104129774
-4.063,0.5262524287983926,-0.305212556059465
-4.0625,0.5796033030867573,-0.2204394488182027
-4.062,0.4942419042253737,-0.07208651114599354
-4.0615,0.3768699807906901,0.0656697881214144
-4.061,0.2701682322139607,0.1716361721729923
-4.0605,0.05676473506030786,0.1928294489833272
-4.06,-0.5834457564010387,-0.2946159176549433
-4.0595,-1.010252750707956,-0.9198175835592532
-4.059,-1.074273799854052,-1.290699927740113
-4.0585,-0.8075194284122287,-1.015187329206011
-4.058,-0.4340633083930936,-0.4535654937318862
-4.0575,-0.1352984123779797,0.04447651131098315
-4.057,0.05676473506013316,0.3941655786811904
-4.0565,0.1527963087794516,0.5849050699745222
-4.056,0.1848068333524996,0.6696781772158616
-4.0555,0.1848068333524996,0.6908714540261772
-4.055,0.1741366584947975,0.6696781772158328
-4.0545,0.1527963087794516,0.6378882620003594
-4.054,0.1421261339217787,0.5955017083797282
-4.0535,0.1314559590640864,0.5531151547589911
-4.053,0.1314559590640864,0.5213252395435176
-4.0525,0.09944543449103843,0.4471487707073456
-4.052,-0.3060212101012707,-0.04029659593101167
-4.0515,-0.7114878546928423,-0.7608680074817418
-4.051,-0.8288597781273515,-1.269506650929778
-4.0505,-0.7008176798352762,-1.152943628473043
-4.05,-0.3273615598162672,-0.6866915386455698
-4.0495,0.00341386077189465,-0.2946159176543747
-4.049,0.1954770082100075,-0.0614898727409032
-4.0485,0.2701682322139607,0.033879872905835
-4.048,0.2701682322139607,0.05507314971615059
-4.0475,0.2488278824986148,0.0232832345006772
-4.047,0.259498057356443,0.002089957690294146
-4.0465,0.4408910299368829,-0.01910331912002144
-4.046,0.4835717293675747,0.01268659609545194
-4.0455,0.4088805053637477,0.08686306493172034
-4.045,0.3128489316446912,0.1610395337678249
-4.0445,0.2381577076409128,0.2034260873884947
-4.044,0.1527963087789761,0.1504428953621949
-4.0435,-0.3700422592469978,-0.3581957480853793
-4.043,-1.052933450138687,-1.01518732920576
-4.0425,-1.31968782158051,-1.502632695843019
-4.042,-1.180975548430879,-1.375473034981453
-4.0415,-0.754168554123573,-0.7608680074817418
-4.041,-0.3380317346743283,-0.1462629799825896
-4.0405,-0.03926683865869035,0.2881991946300654
-4.04,0.1207857842064037,0.5425185163538525
-4.0395,0.1848068333524413,0.6590815388105882
-4.039,0.1954770082101725,0.6908714540261772
-4.0385,0.1848068333524996,0.6696781772158616
-4.038,0.1634664836371537,0.6272916235952305
-4.0375,0.1527963087794419,0.584905069974474
-4.037,0.142126133921769,0.5319218779486851
-4.0365,0.1314559590640864,0.4895353243280153
-4.036,0.1314559590638729,0.4365521323019565
-4.0355,-0.1032878878049318,0.1928294489833272
-4.035,-0.6047861061160158,-0.4853554089473885
-4.0345,-0.9889124009922418,-1.163540266877487
-4.034,-1.191645723288561,-1.682775548731308
-4.0335,-0.7861790786966207,-1.449649503817625
-4.033,-0.2633405106706469,-0.8350444763184728
-4.0325,0.120785784206559,-0.3052125560592626
-4.032,0.291508581929326,0.002089957690313421
-4.0315,0.3235191065023447,0.129249618552207
-4.031,0.3021787567869698,0.15044289536259
-4.0305,0.2594980573562781,0.07626642652648545
-4.03,0.3875401556483533,-0.1144730647663549
-4.0295,0.4729015545098824,-0.1992461720078003
-4.029,0.4195506802215176,-0.1250697031716958
-4.0285,0.3235191065023739,-0.008506680714854012
-4.028,0.2594980573562393,0.08686306493170107
-4.0275,0.2168173579255475,0.13984625695749
-4.027,-0.04993701351651855,-0.07208651114585861
-4.0265,-0.5941159312578383,-0.6972881770501685
-4.026,-1.042263275281004,-1.311893204550448
-4.0255,-1.052933450138687,-1.407262950196955
-4.025,-0.7221580295508259,-0.898624306749381
-4.0245,-0.3487019095313705,-0.3264058328694819
-4.024,-0.06060718837420119,0.1080563417419877
-4.0235,0.09944543449089287,0.3835689402760905
-4.023,0.1741366584948363,0.5107286011383984
-4.0225,0.1954770082101822,0.5637117931641874
-4.022,0.1848068333525093,0.5637117931641874
-4.0215,0.1741366584947975,0.5531151547589911
-4.021,0.1527963087794516,0.5213252395435176
-4.0205,0.1527963087794516,0.5001319627331828
-4.02,0.1421261339217593,0.4789386859228286
-4.0195,0.1314559590640864,0.457745409112513
-4.019,0.04609456020262521,0.3729723018711736
-4.0185,-0.4447334832503299,-0.1886495336021896
-4.018,-0.9035510021311299,-0.9198175835592532
-4.0175,-1.084943974711735,-1.534422611058964
-4.017,-0.7968492535545655,-1.6509856335157
-4.0165,-0.274010685527495,-1.078767159636206
-4.016,0.1207857842064037,-0.4641621321370536
-4.0155,0.3128489316445165,-0.008506680715268389
-4.015,0.3555296310754024,0.2246193641988873
-4.0145,0.3341892813600565,0.2881991946298341
-4.014,0.2808384070716918,0.2564092794143607
-4.0135,0.2915085819293939,0.1398462569573647
-4.013,0.3661998059331045,0.002089957690313421
-4.0125,0.3555296310754218,0.01268659609548085
-4.012,0.3021787567869698,0.05507314971620841
-4.0115,0.2594980573562781,0.1186529801471552
-4.011,0.2168173579255475,0.1504428953626575
-4.0105,0.03542438534510756,-0.07208651114565623
-4.01,-0.5407650569699201,-0.6760949002404023
-4.0095,-0.9035510021311299,-1.258910012524611
-4.009,-1.116954499284589,-1.587405803084502
-4.0085,-0.8928808272730882,-1.152943628472378
-4.008,-0.4980843575391895,-0.5383386009732256
-4.0075,-0.1673089369513284,-0.02969995752565147
-4.007,0.04609456020272226,0.2987958330351558
-4.0065,0.1527963087794516,0.4683420475176805
-4.006,0.1954770082101822,0.5425185163538525
-4.0055,0.1954770082101725,0.5531151547590006
-4.005,0.1848068333524996,0.5319218779486851
-4.0045,0.1634664836371343,0.5107286011383502
-4.004,0.1527963087794322,0.4895353243279961
-4.0035,0.1314559590640864,0.4683420475176805
-4.003,0.1314559590640864,0.4471487707073456
-4.0025,0.1207857842064134,0.4153588554918722
-4.002,-0.1779791118087102,0.05507314971615059
-4.0015,-0.6261264558313813,-0.6549016234300674
-4.001,-0.9248913518462234,-1.322489842955008
-4.0005,-0.6901475049770112,-1.725162102351593
-4,-0.1779791118087102,-1.301296566145281
-3.9995,0.1954770082101822,-0.6443049850249
-3.999,0.3661998059331045,-0.1038764263613609
-3.9985,0.3982103305061524,0.2352160026039969
-3.998,0.3448594562177392,0.3411823866556712
-3.9975,0.291508581929326,0.3199891098453364
-3.997,0.2701682322139607,0.2352160026039969
-3.9965,0.3982103305061524,0.1504428953626575
-3.996,0.4195506802215176,0.1080563417419877
-3.9955,0.3555296310754218,0.1080563417419877
-3.995,0.3021787567870086,0.1186529801471552
-3.9945,0.2594980573562781,0.13984625695749
-3.994,0.2274875327832301,0.1292496185523226
-3.9935,0.2808384070716433,0.2140227257936621
-3.993,-0.2206598112394408,-0.252229364033705
-3.9925,-0.6794773301197943,-0.9092209451540858
-3.992,-0.7328282044082075,-1.025783967610927
-3.9915,-0.4980843575391895,-0.6549016234300674
-3.991,-0.2206598112394408,-0.1992461720078678
-3.9905,-0.01792648894347063,0.1610395337678249
-3.99,0.1101156093487211,0.3941655786815084
-3.9895,0.1634664836371343,0.5213252395435176
-3.989,0.1848068333524996,0.5743084315693548
-3.9885,0.1741366584948169,0.5955017083796896
-3.988,0.1634664836371343,0.5955017083796896
-3.9875,0.1527963087794516,0.5955017083796896
-3.987,0.142126133921769,0.5849050699745222
-3.9865,0.142126133921769,0.5743084315693548
-3.986,0.142126133921769,0.55311515475902
-3.9855,-0.01792648894347063,0.3199891098453364
-3.985,-0.3380317346739499,-0.3475991096802118
-3.9845,-0.690147504977477,-1.068170521231597
-3.984,-0.8608703027003992,-1.619195718300304
-3.9835,-0.5194247072545548,-1.439052865412457
-3.983,-0.09261771294724913,-0.8244478379127463
-3.9825,0.1954770082101822,-0.2628260024388724
-3.982,0.3235191065023739,0.08686306493165288
-3.9815,0.3341892813600565,0.2776025562246667
-3.981,0.291508581929326,0.3305857482505039
-3.9805,0.2594980573562781,0.2881991946298341
-3.98,0.3341892813600565,0.2564092794143318
-3.9795,0.3768699807907871,0.2246193641988295
-3.979,0.3341892813600565,0.1822328105781598
-3.9785,0.2701682322139607,0.13984625695749
-3.978,0.2274875327832301,0.1292496185523226
-3.9775,0.1848068333524996,0.1080563417419877
-3.977,-0.1993194615240755,-0.1886495336027004
-3.9765,-0.8288597781273515,-0.8032545611024114
-3.976,-1.159635198715513,-1.375473034981453
-3.9755,-1.148965023857831,-1.534422611058964
-3.975,-0.7968492535543035,-1.004590690800593
-3.9745,-0.391382608962363,-0.400582301706049
-3.974,-0.08194753808956648,0.08686306493165288
-3.9735,0.09944543449103843,0.3941655786815084
-3.973,0.1741366584948169,0.55311515475902
-3.9725,0.2061471830678648,0.6060983467848571
-3.972,0.1954770082101822,0.6166949851900245
-3.9715,0.1848068333524996,0.5955017083796896
-3.971,0.1634664836371343,0.5743084315693548
-3.9705,0.1527963087794516,0.5425185163538525
-3.97,0.142126133921769,0.5213252395435176
-3.9695,0.1314559590640864,0.4895353243280153
-3.969,0.0674349099179905,0.3729723018711736
-3.9685,-0.3487019095316325,-0.2310360872233701
-3.968,-0.690147504977477,-0.9410108603695881
-3.9675,-0.7861790786966207,-1.34368311976595
-3.967,-0.5300948821122373,-1.0999604364471
-3.9665,-0.1352984123779797,-0.6443049850249
-3.966,0.142126133921769,-0.2310360872233701
-3.9655,0.2808384070716433,0.02328323450064829
-3.965,0.3128489316446912,0.1080563417419877
-3.9645,0.291508581929326,0.06566978812131802
-3.964,0.2488278824985954,-0.008506680714854012
-3.9635,0.291508581929326,-0.04029659593035631
-3.963,0.4622313796522482,-0.1144730647665284
-3.9625,0.4515612047945656,-0.06148987274069118
-3.962,0.3661998059331045,0.03387987290581572
-3.9615,0.2808384070716433,0.1186529801471552
-3.961,0.2274875327832301,0.1822328105781598
-3.9605,0.4302208550792003,-0.06148987274069118
-3.96,0.408880505363835,-0.6760949002404023
-3.9595,-0.2846808603855366,-1.301296566145281
-3.959,-0.7114878546928423,-1.47084278062796
-3.9585,-0.6367966306890638,-0.9622041371799229
-3.958,-0.3807124341046804,-0.3581957480853793
-3.9575,-0.1352984123779797,0.1292496185523226
-3.957,0.04609456020262521,0.4365521323021782
-3.9565,0.1314559590640864,0.5955017083796896
-3.956,0.1741366584948169,0.6590815388106942
-3.9555,0.1848068333524996,0.6590815388106942
-3.955,0.1741366584948169,0.6484849004055269
-3.9545,0.1634664836371343,0.6166949851900245
-3.954,0.1527963087794516,0.5849050699745222
-3.9535,0.142126133921769,0.55311515475902
-3.953,0.142126133921769,0.5213252395435176
-3.9525,0.1314559590640864,0.4683420475176805
-3.952,-0.02859666380115328,0.1292496185523226
-3.9515,-0.3593720843893152,-0.570128516188728
-3.951,-0.8288597781273515,-1.248313374119443
-3.9505,-0.7648387289812555,-1.661582271920973
-3.95,-0.2633405106701714,-1.280103289334946
-3.9495,0.1527963087794516,-0.6654982618352349
-3.949,0.3555296310754218,-0.1674562567923655
-3.9485,0.3982103305061524,0.1292496185523226
-3.948,0.3661998059331045,0.2458126410091644
-3.9475,0.3021787567870086,0.2564092794143318
-3.947,0.2808384070716433,0.1928294489833272
-3.9465,0.5902734779444399,-0.1568596183871981
-3.946,0.6863050516635838,-0.2734226408440398
-3.9455,0.5796033030867573,-0.1568596183871981
-3.945,0.4195506802215176,0.002089957690313421
-3.9445,0.3128489316446912,0.1292496185523226
-3.944,0.2701682322139607,0.1186529801471552
-3.9435,-0.1139580626626144,-0.3687923864905467
-3.943,-0.658136980404429,-1.004590690800593
-3.9425,-0.9675720512772257,-1.449649503817625
-3.942,-0.839529952985034,-1.184733543688439
-3.9415,-0.4980843575391895,-0.6125150698093976
-3.941,-0.1886492866663929,-0.1144730647665284
-3.9405,0.01408403562957729,0.2352160026039969
-3.94,0.1314559590640864,0.4365521323021782
-3.9395,0.1848068333524996,0.5213252395435176
-3.939,0.1848068333524996,0.5425185163538525
-3.9385,0.1741366584948169,0.5319218779486851
-3.938,0.1634664836371343,0.5213252395435176
-3.9375,0.1527963087794516,0.5001319627331828
-3.937,0.142126133921769,0.4895353243280153
-3.9365,0.142126133921769,0.4683420475176805
-3.936,0.1314559590640864,0.457745409112513
-3.9355,-0.09261771294724913,0.2140227257936621
-3.935,-0.572775581542968,-0.4535654937318862
-3.9345,-0.807519428411986,-1.142346990067769
-3.934,-0.8288597781273515,-1.545019249464132
-3.9335,-0.4447334832507763,-1.205926820498774
-3.933,-0.03926683865883591,-0.6125150698093976
-3.9325,0.2168173579255475,-0.09327978795619347
-3.932,0.3235191065023739,0.2140227257936621
-3.9315,0.3235191065023739,0.3199891098453364
-3.931,0.2808384070716433,0.309392471440169
-3.9305,0.2488278824985954,0.309392471440169
-3.93,0.2701682322139607,0.2670059178194992
-3.9295,0.291508581929326,0.2140227257936621
-3.929,0.2808384070716433,0.1928294489833272
-3.9285,0.2488278824985954,0.1928294489833272
-3.928,0.2168173579255475,0.1928294489833272
-3.9275,0.1954770082101822,0.1610395337678249
-3.927,-0.124628237520297,-0.2628260024388724
-3.9265,-0.7328282044082075,-0.9198175835592532
-3.926,-1.180975548430879,-1.492036057438295
-3.9255,-1.159635198715513,-1.407262950196955
-3.925,-0.7755089038389382,-0.8244478379127463
-3.9245,-0.3700422592469978,-0.2416327256285375
-3.924,-0.06060718837420119,0.1716361721729923
-3.9235,0.1101156093487211,0.4047622170866759
-3.923,0.1848068333524996,0.5107286011383502
-3.9225,0.2061471830678648,0.5425185163538525
-3.922,0.1954770082101822,0.5319218779486851
-3.9215,0.1741366584948169,0.5107286011383502
-3.921,0.1634664836371343,0.4789386859228479
-3.9205,0.1527963087794516,0.457745409112513
-3.92,0.142126133921769,0.4259554938970107
-3.9195,0.142126133921769,0.4153588554918433
-3.919,0.07810508477567314,0.3305857482505039
-3.9185,-0.3593720843893152,-0.1992461720078678
-3.918,-0.8502001278427167,-0.8986243067489184
-3.9175,-0.9995825758502737,-1.481439419033127
-3.917,-0.6794773301197943,-1.51322933424863
-3.9165,-0.1993194615240755,-0.9410108603695881
-3.916,0.1527963087794516,-0.3475991096802118
-3.9155,0.3128489316446912,0.09745970333682032
-3.915,0.3448594562177392,0.3199891098453364
-3.9145,0.3128489316446912,0.3517790250608387
-3.914,0.2701682322139607,0.2881991946298341
-3.9135,0.2808384070716433,0.2881991946298341
-3.913,0.3021787567870086,0.3305857482505039
-3.9125,0.2808384070716433,0.3623756634660061
-3.912,0.2594980573562781,0.3517790250608387
-3.9115,0.2381577076409128,0.3305857482505039
-3.911,0.2168173579255475,0.2987958330350016
-3.9105,0.02475421048725994,-0.05089323433552374
-3.91,-0.6367966306890638,-0.7290780922662394
-3.9095,-1.255666772434657,-1.375473034981453
-3.909,-1.575772018165136,-1.79933857118815
-3.9085,-1.277007122150022,-1.34368311976595
-3.908,-0.754168554123573,-0.6549016234300674
-3.9075,-0.2953510352432193,-0.09327978795619347
-3.907,0.00341386077189465,0.2776025562246667
-3.9065,0.1527963087794516,0.457745409112513
-3.906,0.2061471830678648,0.5107286011383502
-3.9055,0.2168173579255475,0.5001319627331828
-3.905,0.1954770082101822,0.4683420475176805
-3.9045,0.1848068333524996,0.4259554938970107
-3.904,0.1634664836371343,0.383568940276341
-3.9035,0.142126133921769,0.3517790250608387
-3.903,0.142126133921769,0.3305857482505039
-3.9025,0.1101156093487211,0.2881991946298341
-3.902,-0.2953510352432193,-0.1038764263613609
-3.9015,-0.7008176798351597,-0.7820612842920766
-3.901,-0.8715404775580819,-1.375473034981453
-3.9005,-0.7861790786966207,-1.492036057438295
-3.9,-0.3700422592469978,-0.9516074987747555
-3.8995,0.00341386077189465,-0.3581957480853793
-3.899,0.2274875327832301,0.07626642652648545
-3.8985,0.3128489316446912,0.3517790250608387
-3.898,0.3128489316446912,0.4365521323021782
-3.8975,0.2808384070716433,0.383568940276341
-3.897,0.2808384070716433,0.3729723018711736
-3.8965,0.3982103305061524,0.4683420475176805
-3.896,0.4302208550792003,0.5001319627331828
-3.8955,0.3768699807907871,0.4789386859228479
-3.895,0.3021787567870086,0.4365521323021782
-3.8945,0.2488278824985954,0.3941655786815084
-3.894,0.1634664836371343,0.2140227257936621
-3.8935,-0.3700422592469978,-0.4111789401112165
-3.893,-1.010252750707956,-1.0999604364471
-3.8925,-1.405049220442214,-1.693372187136476
-3.892,-1.383708870726849,-1.619195718300304
-3.8915,-0.9248913518464952,-0.9410108603695881
-3.891,-0.4447334832507763,-0.3052125560595421
-3.8905,-0.09261771294724913,0.13984625695749
-3.89,0.1101156093487211,0.383568940276341
-3.8895,0.1954770082101822,0.4895353243280153
-3.889,0.2168173579255475,0.5001319627331828
-3.8885,0.2168173579255475,0.4683420475176805
-3.888,0.1954770082101822,0.4259554938970107
-3.8875,0.1741366584948169,0.383568940276341
-3.887,0.1634664836371343,0.3411823866556712
