Class_8_Think_right_hand_movement/Class_8_Think_Right_hand_mouvement_SH_4.csv

#Digilent WaveForms Oscilloscope Acquisition
#Device Name: EExplorer
#Serial Number: SN:210151A2B84A
#Date Time: 2020-12-07 14:15:17.149
#Sample rate: 2000Hz
#Samples: 16384
#Trigger: Source: Channel 1 Type: Edge Condition: Rising Level: 0 V Hyst.: Auto HoldOff: 0 s
#Channel 1: Range: 1 V/div Offset: 0 V Attenuation: 1 X
#Channel 2: Range: 1 V/div Offset: 0 V Attenuation: 1 X
#Power Supplies: ON
#Fixed Supply: ON
#Voltage: 3.3 V Readback: 3.325 V
#Positive Supply: ON
#Voltage: 3.7 V Readback: 3.716 V
#Current: 50 mA Readback: 21 mA
#Negative Supply: ON
#Voltage: -3.7 V Readback: -3.707 V
#Current: -50 mA Readback: -6 mA
#Reference 1: ON
#Voltage: 0 V
#Reference 2: ON
#Voltage: 0 V

Time (s),Channel 1 (V),Channel 2 (V)
-4.096,-0.3593720843893152,0.1610395337678249
-4.0955,0.1101156093482941,0.2776025562245606
-4.095,0.4302208550793362,0.2670059178194125
-4.0945,0.5796033030867573,0.1716361721729923
-4.094,0.6863050516634868,0.08686306493172999
-4.0935,0.9637295979633421,0.05507314971614095
-4.093,0.974399772821015,0.04447651131098315
-4.0925,0.8463576745289397,0.08686306493161433
-4.092,0.6969752265211789,0.150442895362725
-4.0915,0.6009436528021226,0.2246193641988295
-4.091,0.4622313796522482,0.09745970333682032
-4.0905,0.408880505364359,-0.2628260024386315
-4.09,0.9850699476786977,0.002089957690313421
-4.0895,0.6863050516635838,-0.2416327256285375
-4.089,-0.03926683865817604,-0.7184814538606383
-4.0885,-0.2206598112394408,-0.5595318777835605
-4.088,-0.09261771294724913,-0.1038764263613609
-4.0875,0.1101156093485367,0.3517790250604243
-4.087,0.2808384070717501,0.6802748156212122
-4.0865,0.3982103305061524,0.8816109453192104
-4.086,0.4515612047945171,0.9875773293707883
-4.0855,0.4729015545099212,1.019367244586387
-4.085,0.4622313796522482,1.019367244586387
-4.0845,0.4408910299369024,1.008770606181229
-4.084,0.3982103305061233,0.9875773293708847
-4.0835,0.3661998059331045,0.9875773293708847
-4.083,0.2808384070716433,1.019367244586387
-4.0825,-0.09261771294787992,1.072350436611579
-4.082,-0.7861790786966207,0.3623756634660061
-4.0815,-1.298347471865388,-0.6760949002404023
-4.081,-1.586442193022557,-1.460246142222079
-4.0805,-1.650463242168915,-1.280103289334946
-4.08,-1.148965023857831,-0.6231117082145651
-4.0795,-0.4874141826821085,-0.008506680715413051
-4.079,0.02475421048756078,0.2881991946298726
-4.0785,0.3555296310754218,0.3305857482505039
-4.078,0.5369226036558616,0.2140227257937681
-4.0775,0.6222840025177208,0.08686306493140231
-4.077,0.8783681991018712,-0.1886495336027004
-4.0765,1.006410297393947,-0.2734226408439627
-4.076,0.9103787236747737,-0.1250697031715127
-4.0755,0.7503261008096795,0.07626642652648545
-4.075,0.6222840025174878,0.2564092794143318
-4.0745,0.6116138276598245,0.3093924714397063
-4.074,0.6329541773751706,-0.1992461720078678
-4.0735,0.142126133921769,-0.9622041371799229
-4.073,-0.6581369804037012,-1.576809164679075
-4.0725,-1.319687821580753,-1.862918401619155
-4.072,-1.533091318734406,-1.693372187136476
-4.0715,-1.063603624996797,-0.9304142219651146
-4.071,-0.4554036581080222,-0.1250697031711754
-4.0705,0.02475421048725994,0.4471487707073456
-4.07,0.3235191065021021,0.7650479228620795
-4.0695,0.4729015545099697,0.8922075837243875
-4.069,0.5155822539406614,0.9028042221295453
-4.0685,0.5049120790829789,0.8392243916985406
-4.068,0.483571729367565,0.7650479228623107
-4.0675,0.4302208550792003,0.701468092431364
-4.067,0.3768699807907871,0.6484849004055269
-4.0665,0.3555296310753053,0.606098346784645
-4.066,0.2274875327832301,0.3729723018711736
-4.0655,-0.3273615598162672,-0.3581957480853793
-4.065,-0.8822106524152599,-1.131750351661899
-4.0645,-1.223656247861609,-1.735758740757146
-4.064,-1.479740444445993,-1.661582271920973
-4.0635,-1.18097554843115,-0.866834391534139
-4.063,-0.551435231827069,-0.1780528951971474
-4.0625,0.03542438534494258,0.2458126410091644
-4.062,0.4302208550788413,0.3835689402762157
-4.0615,0.611613827659844,0.3623756634659772
-4.061,0.6542945270905358,0.3305857482505039
-4.0605,0.7823366253827275,0.1716361721729923
-4.06,1.017080472251697,-0.0614898727406719
-4.0595,0.9637295979633325,-0.04029659593035631
-4.059,0.8036769750980928,0.09745970333682032
-4.0585,0.6542945270906717,0.2564092794141872
-4.058,0.5689331282290746,0.3729723018711736
-4.0575,0.408880505363835,0.09745970333682032
-4.057,0.3982103305061621,-0.665498261834541
-4.0565,0.0674349099179905,-1.375473034981453
-4.056,-0.6154562809736985,-1.767548655972648
-4.0555,-1.212986073003383,-1.862918401619068
-4.055,-1.106284324426663,-1.290699927739371
-4.0545,-0.6261264558313813,-0.474758770542221
-4.054,-0.1352984123784261,0.2034260873878778
-4.0535,0.2061471830680492,0.6166949851901981
-4.053,0.408880505363835,0.8074344764830383
-4.0525,0.4835717293676135,0.8604176685088755
-4.052,0.5049120790829594,0.8180311148881383
-4.0515,0.4835717293676135,0.7438546460520338
-4.051,0.4408910299368829,0.6696781772158616
-4.0505,0.3982103305061912,0.6060983467849149
-4.05,0.3021787567870086,0.6590815388106942
-4.0495,0.1527963087794516,0.7650479228623686
-4.049,-0.2953510352428118,0.9451907757500511
-4.0485,-0.9889124009930085,0.7544512844563627
-4.048,-1.447729919872945,-0.1674562567923655
-4.0475,-1.746494815887787,-0.919817583558569
-4.047,-1.543761493591458,-0.6972881770502746
-4.0465,-0.8502001278427167,-0.1886495336027004
-4.046,-0.1779791118093216,0.1504428953623491
-4.0455,0.3021787567872513,0.2881991946298823
-4.045,0.5689331282290746,0.3411823866556712
-4.0445,0.6542945270905358,0.3623756634660061
-4.044,0.6863050516638167,0.2670059178191715
-4.0435,0.942389248247967,-0.09327978795619347
-4.043,0.9850699476786977,-0.1462629799820306
-4.0425,0.8676980242442953,0.02328323450049408
-4.042,0.7289857510943143,0.2458126410091644
-4.0415,0.6649647019482183,0.4365521323021782
-4.041,0.568933128229162,0.4153588554918626
-4.0405,0.003413860771118293,-0.2204394488188869
-4.04,-0.8502001278427167,-0.9728007755850904
-4.0395,-1.618452717595168,-1.545019249463611
-4.039,-1.789175515318255,-1.555615887868673
-4.0385,-1.202315898146244,-0.8668343915334161
-4.038,-0.5194247072551759,-0.1038764263620547
-4.0375,0.01408403562985872,0.4577454091127925
-4.037,0.3235191065023739,0.7650479228623686
-4.0365,0.4835717293676135,0.8816109453192104
-4.036,0.5262524287983344,0.860417668508808
-4.0355,0.5155822539406614,0.7862411996727035
-4.035,0.4835717293676135,0.6802748156210291
-4.0345,0.4408910299369218,0.5849050699746089
-4.034,0.3875401556484697,0.5107286011383502
-4.0335,0.3341892813600565,0.4683420475176805
-4.033,0.2381577076410001,0.5213252395434694
-4.0325,-0.04993701351716875,0.4047622170859916
-4.032,-0.7648387289812555,-0.3475991096802118
-4.0315,-1.469070269587669,-1.195330182092836
-4.031,-1.799845690176346,-1.725162102351583
-4.0305,-1.661133417026597,-1.290699927740113
-4.03,-0.9995825758508753,-0.5171453241635944
-4.0295,-0.3273615598158015,0.05507314971643008
-4.029,0.1848068333524996,0.3623756634660061
-4.0285,0.4622313796522482,0.4365521323021782
-4.028,0.600943652802142,0.3729723018710772
-4.0275,0.6222840025174878,0.2670059178194992
-4.027,0.7716664505250448,0.05507314971615059
-4.0265,0.8463576745287553,-0.04029659593026957
-4.026,0.7716664505250448,0.05507314971615059
-4.0255,0.6649647019482183,0.1928294489833272
-4.025,0.5902734779445078,0.3305857482503786
-4.0245,0.5582629533716832,0.4365521323022649
-4.024,0.8783681991018712,0.5319218779486851
-4.0235,1.443887466558537,0.6060983467847896
-4.023,1.134452395685575,-0.02969995752589242
-4.0225,0.3875401556484697,-0.8032545611024114
-4.022,-0.1459685872351771,-1.025783967610725
-4.0215,-0.1886492866662376,-0.6231117082140736
-4.021,-0.01792648894347063,-0.08268314955102604
-4.0205,0.1741366584948169,0.3623756634660061
-4.02,0.3128489316447689,0.6378882620004847
-4.0195,0.3982103305061524,0.775644561267536
-4.019,0.4408910299368829,0.8286277532933731
-4.0185,0.4515612047945559,0.8180311148882154
-4.018,0.4408910299368829,0.7968378380778709
-4.0175,0.3982103305061524,0.7862411996727035
-4.017,0.3448594562177877,0.7968378380778612
-4.0165,0.2915085819291319,0.8392243916985599
-4.016,0.07810508477567314,0.8604176685088755
-4.0155,-0.06060718837407504,0.680274815621193
-4.015,-0.1673089369514449,0.48953532432736
-4.0145,-0.6261264558313813,-0.2310360872233701
-4.014,-0.9462317015615693,-0.2416327256285279
-4.0135,-0.7434983792655214,0.06566978812152041
-4.013,-0.3380317346739499,0.2881991946298341
-4.0125,0.03542438534494258,0.3623756634660061
-4.012,0.2915085819294715,0.2776025562245606
-4.0115,0.4515612047945656,0.1610395337678249
-4.011,0.5262524287983441,0.1292496185523226
-4.0105,0.6222840025174005,0.08686306493169144
-4.01,0.8036769750980928,-0.05089323433552374
-4.0095,0.7823366253827275,-0.008506680714854012
-4.009,0.6863050516636712,0.1292496185521974
-4.0085,0.5902734779443817,0.2776025562248016
-4.008,0.5262524287983441,0.4259554938970107
-4.0075,0.4729015545099794,0.2246193641990126
-4.007,0.2061471830672729,-0.4747587705428475
-4.0065,-0.4447334832507763,-1.163540266878104
-4.006,-1.06360362499637,-1.47084278062796
-4.0055,-1.501080794161125,-1.492036057437822
-4.005,-1.244996597576974,-0.9728007755850904
-4.0045,-0.6688071552621118,-0.1992461720078678
-4.004,-0.1352984123776594,0.4365521323025348
-4.0035,0.2168173579255475,0.8286277532933731
-4.003,0.408880505363835,1.00877060618122
-4.0025,0.4835717293675456,1.029963882991535
-4.002,0.4942419042252961,0.9769806909657173
-4.0015,0.4729015545099309,0.8710143069140429
-4.001,0.4408910299369121,0.7756445612676227
-4.0005,0.3982103305061039,0.6908714540261387
-4,0.3448594562177392,0.627291623595192
-3.9995,0.291508581929326,0.5743084315693548
-3.999,-0.2526703358124887,0.4047622170866759
-3.9985,-0.9889124009925911,-0.3793890248957141
-3.998,-1.479740444445993,-1.216523458903942
-3.9975,-1.607782542738184,-1.216523458903942
-3.997,-1.244996597576974,-0.5277419625680583
-3.9965,-0.5621054066852853,0.04447651131098315
-3.996,-0.007256314085787988,0.2881991946298341
-3.9955,0.3555296310754218,0.2564092794143318
-3.995,0.5369226036560266,0.13984625695749
-3.9945,0.5902734779444399,0.03387987290581572
-3.994,0.6222840025174878,-0.04029659593035631
-3.9935,0.8463576745288233,-0.2310360872233701
-3.993,0.8783681991018712,-0.2204394488182027
-3.9925,0.7823366253827275,-0.04029659593035631
-3.992,0.6649647019482183,0.1504428953626575
-3.9915,0.5689331282290746,0.3199891098453364
-3.991,0.5902734779444399,0.3199891098453364
-3.9905,1.017080472251745,-0.1674562567923655
-3.99,1.19847344483235,-0.8244478379127463
-3.9895,0.4408910299368829,-1.364876396576285
-3.989,-0.3273615598162672,-1.492036057438295
-3.9885,-0.4447334832507763,-0.8986243067489184
-3.988,-0.2420001609548061,-0.1250697031716958
-3.9875,0.02475421048725994,0.4789386859228479
-3.987,0.2381577076409128,0.8392243916985406
-3.9865,0.3661998059331045,0.9981739677760521
-3.986,0.4302208550792003,1.019367244586387
-3.9855,0.4408910299368829,0.9557874141553824
-3.985,0.4408910299368829,0.8604176685088755
-3.9845,0.4195506802215176,0.7650479228623686
-3.984,0.3768699807907871,0.6802748156210291
-3.9835,0.3341892813600565,0.6060983467848571
-3.983,0.2274875327832301,0.627291623595192
-3.9825,-0.04993701351651855,0.5319218779486851
-3.982,-0.6154562809736985,0.6378882620003594
-3.9815,-1.298347471865388,0.2246193641988295
-3.981,-1.959898313041711,-0.6443049850249
-3.9805,-2.258663209056825,-0.8986243067489184
-3.98,-1.650463242168915,-0.4429688553267188
-3.9795,-0.8181896032696687,-0.01910331912002144
-3.979,-0.124628237520297,0.2564092794143318
-3.9785,0.3341892813600565,0.3199891098453364
-3.978,0.5689331282290746,0.3305857482505039
-3.9775,0.6436243522328531,0.2776025562246667
-3.977,0.6863050516635838,0.1292496185523226
-3.9765,0.6756348768059011,0.04447651131098315
-3.976,0.6116138276598051,0.08686306493165288
-3.9755,0.5475927785137094,0.1822328105781598
-3.975,0.5049120790829789,0.2776025562246667
-3.9745,0.4942419042252961,0.3305857482505039
-3.974,0.1527963087794516,-0.1250697031716958
-3.9735,-0.6688071552621118,-0.8880276683437509
-3.973,-1.341028171296118,-1.534422611058964
-3.9725,-1.87453691418025,-1.947691508860494
-3.972,-1.863866739322568,-1.788741932782983
-3.9715,-1.202315898146244,-0.9622041371799229
-3.971,-0.4874141826815069,-0.1144730647665284
-3.9705,0.03542438534494258,0.5001319627331828
-3.97,0.3341892813600565,0.8392243916985406
-3.9695,0.4729015545099309,0.9663840525605498
-3.969,0.5049120790829789,0.9663840525605498
-3.9685,0.4942419042252961,0.8922075837243778
-3.968,0.4622313796522482,0.7968378380778709
-3.9675,0.3982103305061524,0.7120647308365314
-3.967,0.3341892813600565,0.6590815388106942
-3.9665,0.3021787567870086,0.5849050699745222
-3.966,0.1954770082101822,0.5001319627331828
-3.9655,-0.4340633083930936,-0.06148987274069118
-3.965,-1.202315898146244,-0.9198175835592532
-3.9645,-1.501080794161358,-1.576809164679634
-3.964,-1.46907026958831,-1.205926820498774
-3.9635,-1.042263275281004,-0.5065486857577234
-3.963,-0.4874141826815069,-0.02969995752518888
-3.9625,-0.007256314085787988,0.2140227257936621
-3.962,0.3341892813600565,0.3199891098453364
-3.9615,0.5049120790829789,0.2987958330350016
-3.961,0.5796033030867573,0.07626642652648545
-3.9605,0.6756348768059011,-0.07208651114585861
-3.96,0.8676980242441885,-0.2416327256285375
-3.9595,0.8463576745288233,-0.1780528951975329
-3.959,0.7289857510943143,-0.008506680714854012
-3.9585,0.6116138276598051,0.1822328105781598
-3.958,0.5262524287983441,0.3411823866556712
-3.9575,0.5902734779444399,0.3411823866556712
-3.957,0.974399772821015,0.1080563417419877
-3.9565,0.5902734779444399,-0.4853554089473885
-3.956,-0.3380317346739499,-1.110557074852267
-3.9555,-1.052933450138687,-1.396666311791788
-3.955,-0.9675720512772257,-0.9410108603695881
-3.9545,-0.5407650569699201,-0.1992461720078678
-3.954,-0.1032878878049318,0.4153588554918433
-3.9535,0.2061471830678648,0.8074344764830383
-3.953,0.3875401556484697,0.9875773293708847
-3.9525,0.4515612047945656,1.019367244586387
-3.952,0.4729015545099309,0.9769806909657173
-3.9515,0.4622313796522482,0.8922075837243778
-3.951,0.4302208550792003,0.7862411996727035
-3.9505,0.3875401556484697,0.7120647308365314
-3.95,0.3341892813600565,0.6484849004055269
-3.9495,0.3128489316446912,0.5637117931641874
-3.949,0.1527963087794516,0.2352160026039969
-3.9485,-0.5194247072545548,-0.570128516188728
-3.948,-1.212986073003927,-1.375473034981453
-3.9475,-1.735824641030376,-1.873515040024322
-3.947,-1.767835165603424,-1.322489842955616
-3.9465,-1.148965023857831,-0.5489352393783931
-3.946,-0.4447334832507763,0.002089957690313421
-3.9455,0.0674349099179905,0.2987958330350016
-3.945,0.3555296310754218,0.3729723018711736
-3.9445,0.5155822539406614,0.2670059178194992
-3.944,0.6009436528021226,0.09745970333682032
-3.9435,0.8676980242441885,-0.1780528951975329
-3.943,0.9530594231056497,-0.252229364033705
-3.9425,0.8463576745288233,-0.1356663415768632
-3.942,0.6969752265212663,0.03387987290581572
-3.9415,0.5796033030867573,0.1822328105781598
-3.941,0.5475927785137094,0.1716361721729923
-3.9405,0.3128489316446912,-0.4429688553267188
-3.94,-0.3273615598162672,-1.205926820498774
-3.9395,-1.031593100423322,-1.75695201756748
-3.939,-1.618452717595867,-1.862918401619155
-3.9385,-1.650463242168915,-1.608599079895136
-3.938,-1.074273799854052,-0.8562377531282487
-3.9375,-0.423393133535411,-0.1144730647665284
-3.937,0.05676473506030786,0.4153588554918433
-3.9365,0.3341892813600565,0.7120647308365314
-3.936,0.4622313796522482,0.8392243916985406
-3.9355,0.4942419042252961,0.8604176685088755
-3.935,0.4835717293676135,0.8286277532933731
-3.9345,0.4515612047945656,0.775644561267536
-3.934,0.3982103305061524,0.7332580076468663
-3.9335,0.3448594562177392,0.7332580076468663
-3.933,0.2488278824985954,0.7650479228623686
-3.9325,0.00341386077189465,0.5107286011383502
-3.932,-0.7434983792658902,-0.326405832869877
-3.9315,-1.351698346153801,-1.205926820498774
-3.931,-1.693143941599645,-1.703968825541643
-3.9305,-1.437059745015262,-1.248313374119443
-3.93,-0.807519428411986,-0.4853554089473885
-3.9295,-0.1673089369510276,0.03387987290581572
-3.929,0.2594980573562781,0.2670059178194992
-3.9285,0.4729015545099309,0.309392471440169
-3.928,0.5582629533713921,0.2034260873884947
-3.9275,0.5689331282290746,0.08686306493165288
-3.927,0.6329541773751706,-0.07208651114585861
-3.9265,0.7716664505250448,-0.1462629799820306
-3.926,0.7823366253827275,-0.06148987274069118
-3.9255,0.6969752265212663,0.04447651131098315
-3.925,0.6222840025174878,0.1610395337678249
-3.9245,0.5689331282290746,0.2458126410091644
-3.924,0.4622313796522482,-0.05089323433552374
-3.9235,0.1527963087794516,-0.718481453861072
-3.923,-0.5087545323968721,-1.396666311791788
-3.9225,-1.244996597576974,-1.831128486403653
-3.922,-1.415719395299897,-1.672178910326141
-3.9215,-0.9569018764195432,-0.8668343915334161
-3.921,-0.391382608962363,-0.05089323433552374
-3.9205,0.04609456020262521,0.5425185163538525
-3.92,0.3235191065023739,0.8816109453192104
-3.9195,0.4408910299368829,1.029963882991555
-3.919,0.4835717293676135,1.051157159801889
-3.9185,0.4835717293676135,1.00877060618122
-3.918,0.4515612047945656,0.92399749893988
-3.9175,0.408880505363835,0.849821030103708
-3.917,0.3555296310754218,0.7968378380778709
-3.9165,0.291508581929326,0.7862411996727035
-3.916,0.08877525963335578,0.8922075837243778
-3.9155,-0.5407650569699201,0.7120647308365314
-3.915,-0.9995825758502737,-0.1780528951975329
-3.9145,-1.26633694729234,-1.0999604364471
-3.914,-1.362368521011484,-1.34368311976595
-3.9135,-1.084943974711735,-0.792657922697244
-3.913,-0.5514352318276028,-0.2310360872233701
-3.9125,-0.03926683865883591,0.1504428953626575
-3.912,0.3021787567870086,0.3199891098453364
-3.9115,0.5049120790829789,0.2670059178194992
-3.911,0.5902734779444399,0.2034260873884947
-3.9105,0.6436243522328531,0.1292496185523226
-3.91,0.8036769750980928,-0.008506680714854012
-3.9095,0.7823366253827275,-0.02969995752518888
-3.909,0.6863050516635838,0.02328323450064829
-3.9085,0.5902734779444399,0.1186529801471552
-3.908,0.5155822539406614,0.2140227257936621
-3.9075,0.5262524287983441,0.2246193641988295
-3.907,0.7396559259519968,-0.3052125560595421
-3.9065,0.7609962756673623,-1.046977244421262
-3.906,0.1101156093487211,-1.545019249464132
-3.9055,-0.6474668055467465,-1.693372187136476
-3.905,-0.7968492535543035,-1.237716735714276
-3.9045,-0.4980843575391895,-0.4535654937318862
-3.904,-0.124628237520297,0.2246193641988295
-3.9035,0.1634664836371343,0.6802748156210291
-3.903,0.3448594562177392,0.9134008605347127
-3.9025,0.4302208550792003,1.00877060618122
-3.902,0.4515612047945656,0.9981739677760521
-3.9015,0.4515612047945656,0.9451907757502149
-3.901,0.408880505363835,0.8922075837243778
-3.9005,0.3661998059331045,0.8392243916985406
-3.9,0.3235191065023739,0.8074344764830383
-3.8995,0.2168173579255475,0.8286277532933731
-3.899,-0.01792648894347063,0.701468092431364
-3.8985,-0.4127229586777283,0.06566978812131802
-3.898,-0.8928808272734472,-0.8350444763179138
-3.8975,-1.148965023857831,-1.248313374119443
-3.897,-0.9889124009925911,-0.8350444763179138
-3.8965,-0.5407650569699201,-0.3581957480853793
-3.896,-0.08194753808956648,-0.02969995752518888
-3.8955,0.3021787567870086,0.13984625695749
-3.895,0.4942419042252961,0.1928294489833272
-3.8945,0.6009436528021226,0.1186529801471552
-3.894,0.6222840025174878,0.03387987290581572
-3.8935,0.7183155762366316,-0.1568596183871981
-3.893,0.7396559259519968,-0.1886495336027004
-3.8925,0.6756348768059011,-0.1038764263613609
-3.892,0.5902734779444399,0.02328323450064829
-3.8915,0.5155822539406614,0.1504428953626575
-3.891,0.4942419042252961,0.1928294489833272
-3.8905,0.8783681991018712,-0.2946159176543747
-3.89,0.9850699476786977,-1.046977244421262
-3.8895,0.1634664836371343,-1.672178910326141
-3.889,-0.7328282044082075,-1.947691508860494
-3.8885,-0.8608703027003992,-1.364876396576285
-3.888,-0.5407650569699201,-0.4853554089473885
-3.8875,-0.1459685872356623,0.2458126410091644
-3.887,0.1527963087794516,0.7120647308365314
