Class_8_Think_right_hand_movement/Class_8_Think_Right_hand_mouvement_Basim_9.csv

#Digilent WaveForms Oscilloscope Acquisition
#Device Name: EExplorer
#Serial Number: SN:210151A2B84A
#Date Time: 2021-01-24 16:24:42.136
#Sample rate: 2000Hz
#Samples: 16384
#Trigger: Source: Channel 1 Type: Edge Condition: Rising Level: 0 V Hyst.: Auto HoldOff: 0 s
#Channel 1: Range: 1 V/div Offset: 0 V Attenuation: 1 X
#Channel 2: Range: 1 V/div Offset: 0 V Attenuation: 1 X
#Power Supplies: ON
#Fixed Supply: ON
#Voltage: 3.3 V Readback: 3.317 V
#Positive Supply: ON
#Voltage: 3.7 V Readback: 3.717 V
#Current: 40 mA Readback: 25 mA
#Negative Supply: ON
#Voltage: -3.7 V Readback: -3.348 V
#Current: -40 mA Readback: -4 mA
#Reference 1: ON
#Voltage: 0 V
#Reference 2: ON
#Voltage: 0 V

Time (s),Channel 1 (V),Channel 2 (V)
-4.096,0.2594980573562781,0.4365521323021782
-4.0955,0.1527963087795487,0.341182386655758
-4.095,-0.06060718837473494,0.4471487707078082
-4.0945,-0.6474668055467465,0.9557874141553824
-4.094,-1.191645723288066,0.9981739677760135
-4.0935,-1.533091318734561,0.2352160026033223
-4.093,-1.703814116457328,-0.5065486857577234
-4.0925,-1.287677297008083,-0.5383386009731967
-4.092,-0.7541685541231751,-0.1886495336023341
-4.0915,-0.3166913849585846,0.2140227257936621
-4.091,-0.03926683865883591,0.55311515475902
-4.0905,0.0887752596333946,0.7756445612676612
-4.09,0.1314559590640864,0.9134008605347127
-4.0895,0.1314559590640864,0.9769806909657173
-4.089,0.1101156093487405,1.008770606181191
-4.0885,0.08877525963335578,0.9769806909657173
-4.088,0.07810508477567314,0.9134008605347127
-4.0875,0.0674349099180002,0.8392243916986081
-4.087,0.08877525963352076,0.680274815620634
-4.0865,0.2701682322139607,0.2458126410091644
-4.086,0.5262524287981112,-0.4747587705415657
-4.0855,0.1421261339212935,-1.142346990067962
-4.085,-0.3807124341046804,-1.354279758171118
-4.0845,-0.2526703358126052,-0.8562377531287017
-4.084,0.03542438534511726,-0.4323722169212333
-4.0835,0.2274875327832301,-0.08268314955102604
-4.083,0.3021787567870086,0.1822328105781598
-4.0825,0.2915085819292678,0.2458126410091258
-4.082,0.2274875327832301,0.2034260873884947
-4.0815,0.1741366584948169,0.13984625695749
-4.081,0.2488278824985274,0.2564092794142258
-4.0805,0.2808384070716433,0.3199891098453364
-4.08,0.2274875327832301,0.2987958330350016
-4.0795,0.1634664836371925,0.2564092794143703
-4.079,0.1101156093486434,0.2564092794144089
-4.0785,0.02475421048725994,0.3411823866556712
-4.078,-0.4127229586773304,0.6696781772155629
-4.0775,-0.9995825758505357,0.4153588554911976
-4.077,-1.287677297007705,-0.2946159176543747
-4.0765,-1.458400094730472,-0.8032545611019488
-4.076,-1.309017646722663,-0.7820612842916429
-4.0755,-0.8608703027003992,-0.3052125560595421
-4.075,-0.423393133535411,0.2140227257936621
-4.0745,-0.1246282375201418,0.6166949851902558
-4.074,0.04609456020262521,0.8710143069140429
-4.0735,0.1207857842064037,0.9981739677760521
-4.073,0.1314559590640766,1.040560521396683
-4.0725,0.1207857842064037,1.040560521396722
-4.072,0.09944543449103843,0.9981739677760521
-4.0715,0.08877525963336548,0.9345941373451053
-4.071,0.08877525963335578,0.8180311148880709
-4.0705,0.08877525963335578,0.6696781772158616
-4.07,0.09944543449102873,0.4365521323023902
-4.0695,0.1527963087795778,-0.1462629799826763
-4.069,0.291508581929326,-0.8562377531282487
-4.0685,0.2594980573562781,-1.375473034981453
-4.068,0.494241904225529,-1.767548655972802
-4.0675,0.7503261008096795,-1.937094870455327
-4.067,0.79300680024041,-1.481439419033127
-4.0665,0.6756348768057361,-0.8032545611019392
-4.066,0.4942419042252961,-0.2840192792492073
-4.0655,0.3128489316446912,0.03387987290581572
-4.065,0.184806833352616,0.1716361721728671
-4.0645,0.1848068333524996,0.2776025562246667
-4.064,0.2274875327832301,0.3517790250608387
-4.0635,0.2061471830678842,0.3093924714402075
-4.063,0.1527963087794128,0.2458126410091355
-4.0625,0.1101156093487211,0.2140227257936621
-4.062,0.07810508477570226,0.2034260873885043
-4.0615,-0.07127736323237875,0.3941655786818554
-4.061,-0.6154562809736985,0.775644561267536
-4.0605,-1.255666772434657,0.3941655786815084
-4.06,-1.842526389607387,-0.2734226408443964
-4.0595,-2.045259711903173,-0.6654982618352349
-4.059,-1.426389570157579,-0.4959520473525559
-4.0585,-0.786179078697203,-0.08268314955140194
-4.058,-0.3166913849585846,0.3199891098453364
-4.0575,-0.02859666380115328,0.6060983467848571
-4.057,0.1101156093485949,0.7968378380776975
-4.0565,0.1527963087794516,0.8922075837243778
-4.056,0.142126133921769,0.9345941373450475
-4.0555,0.1207857842064231,0.9345941373450475
-4.055,0.09944543449101902,0.8922075837243393
-4.0545,0.07810508477567314,0.849821030103708
-4.054,0.07810508477567314,0.7862411996727613
-4.0535,0.1101156093486628,0.5637117931637151
-4.053,0.04609456020262521,0.04447651131098315
-4.0525,-0.156638762093345,-0.6866915386455698
-4.052,-0.572775581542968,-1.33308648136113
-4.0515,-0.572775581542968,-1.714565463946811
-4.051,-0.1139580626626144,-1.788741932782983
-4.0505,0.2594980573559384,-1.375473034981829
-4.05,0.4302208550792003,-0.8880276683437509
-4.0495,0.4195506802215176,-0.4641621321370536
-4.049,0.3341892813601341,-0.0932797879565308
-4.0485,0.2381577076408836,0.1292496185524575
-4.048,0.2061471830678648,0.2776025562246667
-4.0475,0.3768699807906318,0.5107286011381381
-4.047,0.3875401556483921,0.5213252395434309
-4.0465,0.3021787567870086,0.4259554938970107
-4.046,0.2061471830679522,0.3199891098454328
-4.0455,0.1314559590638923,0.2352160026041126
-4.045,-0.08194753808956648,0.3623756634660061
-4.0445,-0.7008176798351597,0.4153588554918433
-4.044,-1.394379045585162,-0.1462629799826667
-4.0435,-2.087940411333903,-0.8456411147230812
-4.043,-2.365364957633652,-1.354279758171118
-4.0425,-1.821186039892332,-1.089363798042173
-4.042,-1.020922925565639,-0.4641621321370536
-4.0415,-0.4340633083930936,0.1292496185523226
-4.041,-0.07127736323221379,0.5425185163534766
-4.0405,0.1101156093487696,0.7862411996727998
-4.04,0.1634664836371343,0.8922075837243778
-4.0395,0.1634664836371343,0.934594137345009
-4.039,0.1421261339217399,0.9134008605346549
-4.0385,0.1101156093487211,0.849821030103708
-4.038,0.08877525963337518,0.7544512844572878
-4.0375,0.08877525963335578,0.669678177215746
-4.037,0.08877525963335578,0.5425185163538525
-4.0365,0.1314559590640864,0.1504428953626575
-4.036,0.03542438534447676,-0.559531877784158
-4.0355,-0.4767440078238243,-1.216523458903942
-4.035,-0.7861790786966207,-1.38606967338662
-4.0345,-0.4020527838203951,-0.8244478379132572
-4.034,0.0674349099179905,-0.474758770542221
-4.0335,0.3341892813600565,-0.1356663415768632
-4.033,0.4088805053637671,0.06566978812113491
-4.0325,0.3555296310753441,0.1292496185523226
-4.032,0.2701682322139607,0.1292496185523226
-4.0315,0.2061471830679231,0.1292496185523226
-4.031,0.31284893164473,0.2987958330350787
-4.0305,0.3555296310754218,0.383568940276341
-4.03,0.3021787567870571,0.3729723018711832
-4.0295,0.2168173579254796,0.3411823866556712
-4.029,0.142126133921769,0.3411823866556712
-4.0285,0.03542438534494258,0.4259554938970107
-4.028,-0.4767440078243871,0.6802748156207015
-4.0275,-1.095614149569417,0.3199891098453364
-4.027,-1.575772018165136,-0.4323722169215513
-4.0265,-1.970568487899035,-1.046977244420703
-4.026,-1.629122892453549,-0.9728007755850904
-4.0255,-0.9889124009925911,-0.4111789401112165
-4.025,-0.4554036581089441,0.1716361721724623
-4.0245,-0.1032878878047571,0.606098346785098
-4.024,0.08877525963335578,0.8710143069140429
-4.0235,0.1527963087793934,0.9981739677759364
-4.023,0.1634664836371149,1.029963882991545
-4.0225,0.142126133921769,1.019367244586387
-4.022,0.1207857842064231,0.9557874141554402
-4.0215,0.09944543449103843,0.8604176685087502
-4.021,0.09944543449103843,0.7226613692416989
-4.0205,0.1101156093487211,0.5743084315693548
-4.02,0.1848068333528004,0.3093924714396389
-4.0195,0.5155822539406614,-0.2734226408440398
-4.019,0.4729015545099309,-0.8032545611024114
-4.0185,0.110115609349051,-1.301296566144828
-4.018,0.09944543449103843,-1.619195718300304
-4.0175,0.3021787567870086,-1.227120097309109
-4.017,0.4515612047944297,-0.6866915386460613
-4.0165,0.4729015545098726,-0.3793890248955407
-4.016,0.408880505363835,-0.1886495336027004
-4.0155,0.3128489316447786,-0.04029659593049123
-4.015,0.2274875327832495,0.04447651131111808
-4.0145,0.2488278824985954,0.1928294489833272
-4.014,0.3555296310753248,0.3623756634658519
-4.0135,0.3128489316446136,0.3517790250608002
-4.013,0.2274875327832301,0.309392471440169
-4.0125,0.1527963087794516,0.2776025562246667
-4.012,0.0994454344907764,0.2776025562249462
-4.0115,-0.1886492866663929,0.5849050699745222
-4.011,-0.807519428411986,1.019367244586387
-4.0105,-1.373038695868652,0.6696781772161797
-4.01,-1.650463242168915,-0.1674562567923655
-4.0095,-1.586442193022819,-0.6760949002404023
-4.009,-1.074273799854518,-0.5065486857578776
-4.0085,-0.5514352318272632,-0.07208651114547311
-4.008,-0.1779791118087102,0.3517790250608387
-4.0075,0.03542438534474848,0.6696781772155725
-4.007,0.1314559590641155,0.8816109453193164
-4.0065,0.1634664836371343,0.9981739677760521
-4.006,0.1527963087794516,1.061753798207057
-4.0055,0.131455959064067,1.072350436612195
-4.005,0.1101156093487211,1.040560521396722
-4.0045,0.09944543449103843,0.9557874141553824
-4.004,0.09944543449106755,0.8392243916983575
-4.0035,0.1314559590640864,0.6378882620003594
-4.003,0.4195506802215176,0.05507314971615059
-4.0025,0.8570278493861081,-0.6866915386448951
-4.002,0.8890383739595538,-1.34368311976595
-4.0015,0.9530594231056497,-1.88411167842949
-4.001,1.02775064710936,-2.053657892912014
-4.0005,0.9637295979631578,-1.778145294377227
-4,0.7716664505250448,-1.131750351662602
-3.9995,0.5262524287983441,-0.6019184314042303
-3.999,0.3235191065023739,-0.2310360872233701
-3.9985,0.1848068333524996,-0.02969995752518888
-3.998,0.1527963087794516,0.1080563417419877
-3.9975,0.3021787567870086,0.3623756634660061
-3.997,0.3341892813600565,0.3941655786815084
-3.9965,0.2701682322139607,0.309392471440169
-3.996,0.1848068333524996,0.2246193641988295
-3.9955,0.1207857842064037,0.1822328105781598
-3.995,-0.09261771294724913,0.309392471440169
-3.9945,-0.7114878546928423,0.13984625695749
-3.994,-1.330357996438436,-0.4641621321370536
-3.9935,-1.682473766741963,-1.036380606016095
-3.993,-1.778505340461106,-1.322489842955616
-3.9925,-1.298347471865388,-0.8986243067489184
-3.992,-0.722158029550525,-0.252229364033705
-3.9915,-0.2846808603855366,0.2987958330350016
-3.991,-0.007256314085787988,0.6802748156210291
-3.9905,0.1207857842064037,0.8816109453192104
-3.99,0.1527963087794516,0.9663840525605498
-3.9895,0.1527963087794516,0.9769806909657173
-3.989,0.1314559590640864,0.9557874141553824
-3.9885,0.1101156093487211,0.8816109453192104
-3.988,0.09944543449103843,0.775644561267536
-3.9875,0.09944543449103843,0.6484849004055269
-3.987,0.1101156093487211,0.4895353243280153
-3.9865,0.3128489316446912,0.04447651131098315
-3.986,0.5475927785137094,-0.6654982618352349
-3.9855,0.05676473506030786,-1.301296566145281
-3.985,-0.4660738329661415,-1.439052865412457
-3.9845,-0.2633405106701714,-0.8244478379127463
-3.984,0.09944543449103843,-0.5807251545938954
-3.9835,0.3341892813600565,-0.4217755785163839
-3.983,0.3982103305061524,-0.2204394488182027
-3.9825,0.3555296310754218,-0.09327978795619347
-3.982,0.2701682322139607,-0.008506680714854012
-3.9815,0.2061471830678648,0.05507314971615059
-3.981,0.4302208550792003,0.3517790250608387
-3.9805,0.5902734779444399,0.55311515475902
-3.98,0.5049120790829789,0.5107286011383502
-3.9795,0.3555296310754218,0.4047622170866759
-3.979,0.2168173579255475,0.3305857482505039
-3.9785,0.07810508477567314,0.3623756634660061
-3.978,-0.4340633083930936,0.7862411996727035
-3.9775,-1.127624674142465,0.9769806909657173
-3.977,-1.714484291315011,0.309392471440169
-3.9765,-2.066600061618538,-0.5171453241628908
-3.976,-1.661133417026597,-0.7290780922662394
-3.9755,-0.9995825758502737,-0.3793890248957141
-3.975,-0.4554036581084589,0.09745970333682032
-3.9745,-0.09261771294724913,0.5107286011383502
-3.974,0.08877525963335578,0.7862411996727035
-3.9735,0.1634664836371343,0.9557874141553824
-3.973,0.1741366584948169,1.040560521396722
-3.9725,0.1527963087794516,1.082947075017392
-3.972,0.1207857842064037,1.072350436612224
-3.9715,0.1101156093487211,1.019367244586387
-3.971,0.09944543449103843,0.9028042221295453
-3.9705,0.1101156093487211,0.7650479228623686
-3.97,0.2061471830678648,0.4471487707073456
-3.9695,0.6329541773751706,-0.2628260024388724
-3.969,0.8997085488172365,-0.9728007755850904
-3.9685,1.070431346540159,-1.576809164679634
-3.968,1.35852606769759,-2.011271339291499
-3.9675,1.401206767128321,-2.032464616101834
-3.967,1.15579274540162,-1.47084278062796
-3.9665,0.825017324813458,-0.8138511995075789
-3.966,0.5155822539406614,-0.3158091944647096
-3.9655,0.291508581929326,-0.008506680714854012
-3.965,0.1741366584948169,0.13984625695749
-3.9645,0.1954770082101822,0.2670059178194992
-3.964,0.2808384070716433,0.3623756634660061
-3.9635,0.2594980573562781,0.2987958330350016
-3.963,0.1954770082101822,0.1928294489833272
-3.9625,0.142126133921769,0.1186529801471552
-3.962,0.08877525963335578,0.1080563417419877
-3.9615,-0.274010685527854,0.3729723018711736
-3.961,-0.9462317015618604,0.309392471440169
-3.9605,-1.618452717595867,-0.3158091944647096
-3.96,-1.991908837614759,-0.9516074987747555
-3.9595,-1.821186039891837,-1.142346990067769
-3.959,-1.170305373573196,-0.6972881770507372
-3.9585,-0.5834457564006506,-0.1038764263613609
-3.958,-0.1779791118087102,0.3729723018711736
-3.9575,0.04609456020262521,0.6908714540261965
-3.957,0.1527963087794516,0.8710143069140429
-3.9565,0.1634664836371343,0.9451907757502149
-3.956,0.1527963087794516,0.9663840525605498
-3.9555,0.1314559590640864,0.9451907757502149
-3.955,0.1101156093487211,0.8710143069140429
-3.9545,0.09944543449103843,0.7650479228623686
-3.954,0.09944543449103843,0.6696781772158616
-3.9535,0.1207857842064037,0.4683420475176805
-3.953,0.08877525963335578,-0.09327978795619347
-3.9525,-0.1886492866663929,-0.7820612842920766
-3.952,-0.658136980404429,-1.38606967338662
-3.9515,-0.7114878546928423,-1.88411167842949
-3.951,-0.2526703358124887,-1.862918401619155
-3.9505,0.1741366584948169,-1.174136905283272
-3.95,0.3982103305061524,-0.5383386009732256
-3.9495,0.4408910299368829,-0.05089323433552374
-3.949,0.3768699807907871,0.1716361721729923
-3.9485,0.2808384070716433,0.2140227257936621
-3.948,0.2381577076409128,0.2246193641988295
-3.9475,0.3982103305061524,0.4153588554918433
-3.947,0.408880505363835,0.4259554938970107
-3.9465,0.3128489316446912,0.3411823866556712
-3.946,0.2168173579255475,0.2670059178194992
-3.9455,0.142126133921769,0.2246193641988295
-3.945,-0.02859666380115328,0.383568940276341
-3.9445,-0.6047861061160158,0.6802748156210291
-3.944,-1.319687821580753,0.2140227257936621
-3.9435,-1.927887788468663,-0.5277419625680583
-3.943,-2.162631635337682,-0.9516074987747555
-3.9425,-1.501080794161358,-0.6866915386455698
-3.942,-0.8181896032696687,-0.1568596183871981
-3.9415,-0.3166913849585846,0.3411823866556712
-3.941,-0.007256314085787988,0.6802748156210291
-3.9405,0.1314559590640864,0.8816109453192104
-3.94,0.1741366584948169,0.9769806909657173
-3.9395,0.1741366584948169,0.9981739677760521
-3.939,0.142126133921769,0.9769806909657173
-3.9385,0.1207857842064037,0.9134008605347127
-3.938,0.1101156093487211,0.8074344764830383
-3.9375,0.09944543449103843,0.6802748156210291
-3.937,0.1207857842064037,0.5213252395435176
-3.9365,0.3128489316446912,0.05507314971615059
-3.936,0.4408910299368829,-0.6549016234300674
-3.9355,0.03542438534494258,-1.280103289334946
-3.935,-0.3700422592469978,-1.417859588602123
-3.9345,-0.1139580626626144,-0.7396747306714069
-3.934,0.2488278824985954,-0.5171453241628908
-3.9335,0.4622313796522482,-0.3370024712750445
-3.933,0.4942419042252961,-0.2098428104130352
-3.9325,0.4302208550792003,-0.1250697031716958
-3.932,0.3128489316446912,-0.05089323433552374
-3.9315,0.2274875327832301,0.002089957690313421
-3.931,0.291508581929326,0.1928294489833272
-3.9305,0.3128489316446912,0.2987958330350016
-3.93,0.2594980573562781,0.2987958330350016
-3.9295,0.1954770082101822,0.2881991946298341
-3.929,0.142126133921769,0.2776025562246667
-3.9285,0.07810508477567314,0.2881991946298341
-3.928,-0.2953510352432193,0.2987958330350016
-3.9275,-0.9889124009925911,-0.1674562567923655
-3.927,-1.554431668449771,-0.8138511995075789
-3.9265,-2.03458953704549,-1.280103289334946
-3.926,-1.650463242168915,-1.01518732920576
-3.9255,-0.9889124009925911,-0.3793890248957141
-3.925,-0.4447334832507763,0.2246193641988295
-3.9245,-0.08194753808956648,0.6378882620003594
-3.924,0.09944543449103843,0.8816109453192104
-3.9235,0.1741366584948169,0.9875773293708847
-3.923,0.1741366584948169,1.00877060618122
-3.9225,0.1634664836371343,0.9769806909657173
-3.922,0.1314559590640864,0.9028042221295453
-3.9215,0.1101156093487211,0.7968378380778709
-3.921,0.09944543449103843,0.7120647308365314
-3.9205,0.09944543449103843,0.627291623595192
-3.92,0.2168173579255475,0.2564092794143318
-3.9195,0.6222840025174878,-0.4429688553267188
-3.919,0.6436243522328531,-1.01518732920576
-3.9185,0.2701682322139607,-1.449649503817625
-3.918,0.2381577076409128,-1.51322933424863
-3.9175,0.3768699807907871,-1.089363798041932
-3.917,0.4835717293676135,-0.5913217929990628
-3.9165,0.4835717293676135,-0.252229364033705
-3.916,0.3982103305061524,-0.06148987274069118
-3.9155,0.291508581929326,0.02328323450064829
-3.915,0.2061471830678648,0.04447651131098315
-3.9145,0.2274875327832301,0.1716361721729923
-3.914,0.3128489316446912,0.3517790250608387
-3.9135,0.2808384070716433,0.3517790250608387
-3.913,0.2168173579255475,0.2987958330350016
-3.9125,0.1634664836371343,0.2670059178194992
-3.912,0.1101156093487211,0.2670059178194992
-3.9115,-0.1673089369510276,0.457745409112513
-3.911,-0.807519428411986,0.3729723018711736
-3.9105,-1.30901764672307,-0.2628260024388724
-3.91,-1.789175515318789,-0.6019184314042303
-3.9095,-1.863866739322568,-0.1780528951975329
-3.909,-1.277007122150022,0.1504428953626575
-3.9085,-0.6794773301197943,0.3517790250608387
-3.908,-0.2420001609548061,0.457745409112513
-3.9075,0.02475421048725994,0.5425185163538525
-3.907,0.142126133921769,0.6060983467848571
-3.9065,0.1741366584948169,0.6696781772158616
-3.906,0.1741366584948169,0.7332580076468663
-3.9055,0.142126133921769,0.775644561267536
-3.905,0.1207857842064037,0.7862411996727035
-3.9045,0.1101156093487211,0.7968378380778709
-3.904,0.1207857842064037,0.7120647308365314
-3.9035,0.1527963087794516,0.5319218779486851
-3.903,0.1848068333524996,0.03387987290581572
-3.9025,0.04609456020262521,-0.6125150698093976
-3.902,-0.391382608962363,-1.121153713257435
-3.9015,-0.4020527838200457,-0.9198175835592532
-3.901,-0.007256314085787988,-0.5383386009732256
-3.9005,0.3235191065023739,-0.252229364033705
-3.9,0.4622313796522482,-0.01910331912002144
-3.8995,0.4302208550792003,0.1080563417419877
-3.899,0.3448594562177392,0.1716361721729923
-3.8985,0.2488278824985954,0.1928294489833272
-3.898,0.2168173579255475,0.2246193641988295
-3.8975,0.2808384070716433,0.3729723018711736
-3.897,0.2701682322139607,0.3729723018711736
-3.8965,0.2168173579255475,0.3199891098453364
-3.896,0.1634664836371343,0.2776025562246667
-3.8955,0.1207857842064037,0.2670059178194992
-3.895,-0.02859666380115328,0.4153588554918433
-3.8945,-0.5621054066852853,0.8180311148882058
-3.894,-1.159635198715513,0.4895353243280153
-3.8935,-1.757164990745741,-0.3052125560595421
-3.893,-1.959898313041711,-0.8456411147230812
-3.8925,-1.373038695869166,-0.6549016234300674
-3.892,-0.7434983792658902,-0.1886495336027004
-3.8915,-0.274010685527854,0.2670059178194992
-3.891,0.01408403562957729,0.5849050699745222
-3.8905,0.142126133921769,0.7862411996727035
-3.89,0.1848068333524996,0.8816109453192104
-3.8895,0.1741366584948169,0.9134008605347127
-3.889,0.1527963087794516,0.9028042221295453
-3.8885,0.1314559590640864,0.8604176685088755
-3.888,0.1207857842064037,0.775644561267536
-3.8875,0.1101156093487211,0.6696781772158616
-3.887,0.142126133921769,0.5213252395435176
-3.8865,0.4942419042252961,0.02328323450064829
