Class_8_Think_right_hand_movement/Class_8_Think_Right_hand_mouvement_Suko_9.csv

#Digilent WaveForms Oscilloscope Acquisition
#Device Name: EExplorer
#Serial Number: SN:210151A2B84A
#Date Time: 2021-02-04 11:09:34.181
#Sample rate: 2000Hz
#Samples: 16384
#Trigger: Source: Channel 1 Type: Edge Condition: Rising Level: 0 V Hyst.: Auto HoldOff: 0 s
#Channel 1: Range: 1 V/div Offset: 0 V Attenuation: 1 X
#Channel 2: Range: 1 V/div Offset: 0 V Attenuation: 1 X
#Power Supplies: ON
#Fixed Supply: ON
#Voltage: 3.3 V Readback: 3.317 V
#Positive Supply: ON
#Voltage: 3.7 V Readback: 3.712 V
#Current: 40 mA Readback: 18 mA
#Negative Supply: ON
#Voltage: -3.7 V Readback: -3.343 V
#Current: -40 mA Readback: -5 mA
#Reference 1: ON
#Voltage: 0 V
#Reference 2: ON
#Voltage: 0 V

Time (s),Channel 1 (V),Channel 2 (V)
-4.096,-0.8288597781273515,-1.0999604364471
-4.0955,-0.4660738329664715,-0.7926579226975234
-4.095,0.01408403562985872,-0.6337083466195205
-4.0945,0.3235191065023739,-0.400582301706049
-4.094,0.4088805053637574,-0.01910331912036839
-4.0935,0.3555296310753538,0.3305857482507255
-4.093,0.2808384070716433,0.5743084315693548
-4.0925,0.2061471830679328,0.7014680924312483
-4.092,0.2701682322140092,0.8074344764830095
-4.0915,0.3235191065023739,0.775644561267536
-4.091,0.291508581929326,0.5955017083796896
-4.0905,0.216817357925499,0.3835689402761579
-4.09,0.1634664836371343,0.1822328105781598
-4.0895,0.1314559590640864,0.02328323450064829
-4.089,0.2594980573561616,0.2246193641986464
-4.0885,0.1101156093487211,0.8074344764830383
-4.088,-0.4767440078238243,0.9557874141553824
-4.0875,-1.020922925565144,0.351779025061388
-4.087,-1.437059745015087,0.3411823866556327
-4.0865,-1.244996597576974,0.2987958330350016
-4.086,-0.786179078697038,0.08686306493184565
-4.0855,-0.3700422592467455,-0.1144730647666247
-4.085,-0.09261771294724913,-0.2204394488182027
-4.0845,0.06743490991784493,-0.2416327256285183
-4.084,0.1207857842064134,-0.1992461720077907
-4.0835,0.1314559590640864,-0.1144730647665284
-4.083,0.1101156093487211,-0.008506680714854012
-4.0825,0.08877525963333636,0.08686306493173962
-4.082,0.0674349099179905,0.1822328105781598
-4.0815,0.05676473506030786,0.2670059178194992
-4.081,0.03542438534496199,0.3093924714401304
-4.0805,-0.2526703358124887,0.01268659609548085
-4.08,-0.658136980404429,-0.5383386009732256
-4.0795,-0.7648387289811585,-0.8350444763176439
-4.079,-0.4874141826810896,-0.9622041371798844
-4.0785,-0.02859666380115328,-0.9198175835592532
-4.078,0.3021787567867078,-0.6549016234303083
-4.0775,0.4088805053638059,-0.2204394488177979
-4.077,0.3768699807907871,0.2246193641988295
-4.0765,0.2915085819294037,0.5001319627329323
-4.076,0.2061471830678842,0.6166949851900824
-4.0755,0.2274875327832301,0.6802748156210291
-4.075,0.3875401556484697,0.7332580076468663
-4.0745,0.3768699807907094,0.553115154758779
-4.074,0.291508581929326,0.2881991946298341
-4.0735,0.2061471830678648,0.04447651131098315
-4.073,0.1421261339218272,-0.156859618387015
-4.0725,0.1954770082101822,-0.1780528951975329
-4.072,0.6222840025174878,0.3411823866556712
-4.0715,0.5582629533714503,0.6272916235949317
-4.071,-0.03926683865959286,0.1398462569575671
-4.0705,-0.8715404775580819,0.2246193641988295
-4.07,-1.586442193022169,0.7438546460515614
-4.0695,-1.543761493591642,0.7968378380775528
-4.069,-1.052933450138687,0.4471487707073456
-4.0685,-0.5407650569699201,0.07626642652648545
-4.068,-0.1779791118085161,-0.1568596183872656
-4.0675,0.03542438534494258,-0.2310360872233701
-4.067,0.1207857842064037,-0.1886495336027004
-4.0665,0.1421261339217496,-0.07208651114572369
-4.066,0.1207857842064037,0.07626642652648545
-4.0655,0.1101156093487211,0.2246193641988295
-4.065,0.08877525963337518,0.3835689402761965
-4.0645,0.07810508477567314,0.5107286011383502
-4.064,-0.124628237520297,0.3941655786815084
-4.0635,-0.4447334832504851,0.03387987290614342
-4.063,-0.4767440078237855,-0.07208651114593571
-4.0625,-0.4340633083930936,-0.1568596183871981
-4.062,-0.08194753808988675,-0.262826002438776
-4.0615,0.2701682322141062,-0.3370024712748999
-4.061,0.4302208550792003,-0.1780528951975329
-4.0605,0.4195506802215176,0.13984625695749
-4.06,0.3341892813599789,0.4153588554919783
-4.0595,0.2488278824985954,0.5637117931641874
-4.059,0.1954770082101822,0.6060983467848571
-4.0585,0.2915085819292387,0.6802748156209616
-4.058,0.3235191065023739,0.6060983467848571
-4.0575,0.2701682322139607,0.4153588554918433
-4.057,0.2061471830679231,0.1928294489835296
-4.0565,0.1527963087794516,-0.01910331912002144
-4.056,0.1314559590640864,-0.1674562567923655
-4.0555,0.4195506802212556,0.1292496185520528
-4.055,0.2808384070710513,0.6590815388104051
-4.0545,-0.3700422592469978,0.3411823866556712
-4.054,-1.063603624995739,-0.1250697031712717
-4.0535,-1.511750969018837,0.1716361721730695
-4.053,-1.287677297007705,0.2564092794143318
-4.0525,-0.807519428411986,0.08686306493165288
-4.052,-0.3700422592467358,-0.114473064766644
-4.0515,-0.08194753808956648,-0.2416327256285375
-4.051,0.0674349099179905,-0.2840192792492073
-4.0505,0.1314559590640281,-0.2522293640337339
-4.05,0.142126133921769,-0.1780528951975329
-4.0495,0.1207857842064037,-0.08268314955102604
-4.049,0.09944543449105783,0.03387987290570971
-4.0485,0.08877525963333636,0.1398462569575768
-4.048,0.0674349099179905,0.2352160026039969
-4.0475,-0.01792648894339299,0.2352160026039969
-4.047,-0.412722958677971,-0.2098428104134207
-4.0465,-0.6794773301197943,-0.6337083466197325
-4.046,-0.9142211769885989,-0.8880276683435195
-4.0455,-0.6581369804039729,-0.7078848154558467
-4.045,-0.156638762093345,-0.6443049850249
-4.0445,0.2061471830678648,-0.474758770542221
-4.044,0.3448594562177392,-0.1462629799817222
-4.0435,0.3448594562177392,0.1928294489833272
-4.043,0.291508581929326,0.4471487707073456
-4.0425,0.2274875327832883,0.5531151547589236
-4.042,0.291508581929326,0.6590815388106942
-4.0415,0.3875401556484697,0.7332580076468663
-4.041,0.3555296310754509,0.6272916235952883
-4.0405,0.2701682322138927,0.4471487707071721
-4.04,0.1954770082101822,0.2564092794143318
-4.0395,0.1421261339218175,0.08686306493180709
-4.039,0.1954770082100366,0.1716361721734935
-4.0385,0.03542438534494258,0.7226613692416989
-4.038,-0.5621054066847417,0.9451907757500125
-4.0375,-1.010252750708383,0.4259554938970492
-4.037,-1.479740444445993,0.4683420475176805
-4.0365,-1.394379045584531,0.5107286011383502
-4.036,-0.9355615267037507,0.2246193641985404
-4.0355,-0.4660738329661415,-0.09327978795619347
-4.035,-0.1352984123779797,-0.3052125560595421
-4.0345,0.04609456020246022,-0.3899856633008045
-4.034,0.1314559590640864,-0.3687923864905467
-4.0335,0.142126133921769,-0.2946159176543747
-4.033,0.1314559590640961,-0.1780528951976389
-4.0325,0.09944543449101902,-0.05089323433540809
-4.032,0.07810508477567314,0.07626642652648545
-4.0315,0.0674349099180002,0.1928294489832212
-4.031,0.02475421048692998,0.2564092794140041
-4.0305,-0.3380317346739499,-0.1038764263613609
-4.03,-0.6474668055464651,-0.6019184314037773
-4.0295,-0.6688071552617429,-0.8138511995072608
-4.029,-0.2633405106701714,-0.4641621321370536
-4.0285,0.2381577076409128,-0.3158091944647096
-4.028,0.5475927785137579,-0.4323722169214645
-4.0275,0.6009436528021226,-0.3370024712750445
-4.027,0.5049120790829789,-0.05089323433552374
-4.0265,0.3661998059332306,0.2458126410088946
-4.026,0.2488278824985954,0.457745409112513
-4.0255,0.2381577076409128,0.4683420475176805
-4.025,0.3982103305060068,0.2246193641990512
-4.0245,0.3875401556484018,0.1610395337678442
-4.024,0.3128489316446912,0.1822328105781598
-4.0235,0.2274875327833077,0.2034260873884754
-4.023,0.1527963087794613,0.1822328105781501
-4.0225,0.1634664836371343,0.1716361721729923
-4.022,0.3448594562175742,0.553115154758673
-4.0215,0.003413860771457949,0.6484849004048715
-4.021,-0.4767440078238243,-0.07208651114585861
-4.0205,-1.1062843244271,-0.2310360872233701
-4.02,-1.298347471865087,0.07626642652646617
-4.0195,-0.9675720512772257,0.05507314971615059
-4.019,-0.5407650569699201,-0.09327978795619347
-4.0185,-0.209989636382059,-0.2416327256284027
-4.018,0.00341386077189465,-0.3158091944647096
-4.0175,0.1101156093487211,-0.3370024712750445
-4.017,0.1421261339217399,-0.2946159176544132
-4.0165,0.1207857842063746,-0.231036087223293
-4.016,0.08877525963335578,-0.1462629799820306
-4.0155,0.05676473506033698,-0.05089323433561048
-4.015,0.05676473506030786,0.05507314971622768
-4.0145,0.05676473506030786,0.13984625695749
-4.014,-0.1139580626624591,0.04447651131106989
-4.0135,-0.6688071552624126,-0.4853554089477933
-4.013,-0.9995825758502737,-0.9304142219644207
-4.0125,-0.807519428411986,-0.8350444763179138
-4.012,-0.263340510669725,-0.6125150698093591
-4.0115,0.2274875327832301,-0.570128516188728
-4.011,0.4408910299368829,-0.3581957480853793
-4.0105,0.4515612047945559,-0.008506680715172021
-4.01,0.3768699807907871,0.309392471440169
-4.0095,0.2701682322139607,0.5107286011383502
-4.009,0.2061471830679231,0.6060983467847704
-4.0085,0.3235191065023933,0.7544512844571818
-4.008,0.3448594562177392,0.7332580076468663
-4.0075,0.2915085819293745,0.5955017083798149
-4.007,0.2274875327831816,0.4047622170865121
-4.0065,0.1741366584948169,0.2246193641988295
-4.006,0.1527963087794516,0.08686306493165288
-4.0055,0.1741366584945452,0.2140227257940861
-4.005,-0.124628237520297,0.6802748156210291
-4.0045,-0.7008176798351597,0.3941655786815084
-4.004,-1.330357996438872,-0.1144730647662392
-4.0035,-1.810515865034154,0.2034260873884947
-4.003,-1.565101843307454,0.3623756634660061
-4.0025,-0.9782422261354422,0.161039533768008
-4.002,-0.4660738329661415,-0.08268314955102604
-4.0015,-0.1139580626626144,-0.2734226408440398
-4.001,0.07810508477549846,-0.3475991096801444
-4.0005,0.1527963087794613,-0.347599109680154
-4,0.1634664836371343,-0.2840192792492073
-3.9995,0.142126133921769,-0.1886495336027004
-3.999,0.1101156093487211,-0.08268314955102604
-3.9985,0.08877525963335578,0.02328323450064829
-3.998,0.07810508477567314,0.1186529801471552
-3.9975,0.01408403562957729,0.1504428953626575
-3.997,-0.391382608962363,-0.2098428104130352
-3.9965,-0.7434983792658902,-0.6654982618352349
-3.996,-1.084943974711735,-0.9833974139902578
-3.9955,-0.722158029550525,-0.7820612842920766
-3.995,-0.1139580626626144,-0.8244478379127463
-3.9945,0.3128489316446912,-0.8032545611024114
-3.994,0.4729015545099309,-0.4959520473525559
-3.9935,0.4408910299368829,-0.07208651114585861
-3.993,0.3448594562177392,0.2881991946298341
-3.9925,0.2488278824985954,0.4789386859228479
-3.992,0.3021787567870086,0.627291623595192
-3.9915,0.3875401556484697,0.7226613692416989
-3.991,0.3448594562177392,0.6590815388106942
-3.9905,0.2701682322139607,0.5319218779486851
-3.99,0.1954770082101822,0.3941655786815084
-3.9895,0.1527963087794516,0.2564092794143318
-3.989,0.1527963087794516,0.309392471440169
-3.9885,-0.1673089369510276,0.5001319627331828
-3.988,-0.7861790786966207,-0.07208651114585861
-3.9875,-1.351698346153801,-0.5595318777835605
-3.987,-1.906547438753298,-0.07208651114585861
-3.9865,-2.07727023647622,0.5213252395435176
-3.986,-1.458400094730627,0.4895353243280153
-3.9855,-0.7968492535543035,0.1610395337678249
-3.985,-0.2953510352432193,-0.1674562567923655
-3.9845,0.00341386077189465,-0.3793890248957141
-3.984,0.142126133921769,-0.4641621321370536
-3.9835,0.1848068333524996,-0.4429688553267188
-3.983,0.1634664836371343,-0.3793890248957141
-3.9825,0.1207857842064037,-0.2628260024388724
-3.982,0.09944543449103843,-0.1356663415768632
-3.9815,0.08877525963335578,-0.008506680714854012
-3.981,0.07810508477567314,0.1080563417419877
-3.9805,-0.2313299860971235,-0.09327978795619347
-3.98,-0.754168554123573,-0.5913217929990628
-3.9795,-0.9355615267041777,-0.8668343915334161
-3.979,-0.6047861061160158,-0.5913217929990628
-3.9785,-0.03926683865883591,-0.4853554089473885
-3.978,0.3661998059331045,-0.5065486857577234
-3.9775,0.5049120790829789,-0.326405832869877
-3.977,0.4729015545099309,-0.04029659593035631
-3.9765,0.3768699807907871,0.2564092794143318
-3.976,0.2808384070716433,0.4683420475176805
-3.9755,0.2381577076409128,0.5425185163538525
-3.975,0.2701682322139607,0.5743084315693548
-3.9745,0.2488278824985954,0.55311515475902
-3.974,0.2701682322139607,0.5213252395435176
-3.9735,0.291508581929326,0.457745409112513
-3.973,0.2488278824985954,0.3623756634660061
-3.9725,0.2381577076409128,0.309392471440169
-3.972,0.5049120790829789,0.6908714540261965
-3.9715,0.2594980573562781,1.00877060618122
-3.971,-0.3060212101009019,0.4789386859228479
-3.9705,-1.010252750707956,0.3305857482505039
-3.97,-1.586442193022819,0.7120647308365314
-3.9695,-1.426389570157579,0.6696781772158616
-3.969,-0.9248913518464952,0.2881991946298341
-3.9685,-0.4447334832507763,-0.1038764263613609
-3.968,-0.1032878878049318,-0.3475991096802118
-3.9675,0.07810508477567314,-0.4429688553267188
-3.967,0.1527963087794516,-0.4323722169215513
-3.9665,0.1741366584948169,-0.3370024712750445
-3.966,0.1527963087794516,-0.2204394488182027
-3.9655,0.1314559590640864,-0.07208651114585861
-3.965,0.1101156093487211,0.05507314971615059
-3.9645,0.08877525963335578,0.1822328105781598
-3.964,-0.1139580626626144,0.09745970333682032
-3.9635,-0.5087545323968721,-0.3158091944647096
-3.963,-0.7328282044082075,-0.6972881770507372
-3.9625,-0.6474668055467465,-0.8456411147230812
-3.962,-0.1993194615240755,-0.8032545611024114
-3.9615,0.2061471830678648,-0.6125150698093976
-3.961,0.408880505363835,-0.2098428104130352
-3.9605,0.4302208550792003,0.2246193641988295
-3.96,0.3661998059331045,0.5319218779486851
-3.9595,0.2808384070716433,0.7120647308365314
-3.959,0.2381577076409128,0.7332580076468663
-3.9585,0.408880505363835,0.4895353243280153
-3.958,0.4515612047945656,0.3517790250608387
-3.9575,0.3875401556484697,0.2776025562246667
-3.957,0.2808384070716433,0.2034260873884947
-3.9565,0.2061471830678648,0.09745970333682032
-3.956,0.1634664836371343,0.01268659609548085
-3.9555,0.2168173579255475,0.2670059178194992
-3.955,-0.1886492866663929,0.7332580076468663
-3.9545,-0.8715404775580819,0.3517790250608387
-3.954,-1.341028171296118,0.02328323450064829
-3.9535,-1.842526389607202,0.4259554938970107
-3.953,-1.949228138184029,0.7968378380778709
-3.9525,-1.351698346153801,0.5425185163538525
-3.952,-0.7328282044082075,0.08686306493165288
-3.9515,-0.2526703358124887,-0.2840192792492073
-3.951,0.02475421048725994,-0.4959520473525559
-3.9505,0.1527963087794516,-0.5595318777835605
-3.95,0.1954770082101822,-0.5065486857577234
-3.9495,0.1741366584948169,-0.400582301706049
-3.949,0.142126133921769,-0.252229364033705
-3.9485,0.1207857842064037,-0.1038764263613609
-3.948,0.09944543449103843,0.05507314971615059
-3.9475,-0.03926683865883591,0.06566978812131802
-3.947,-0.4980843575391895,-0.3687923864905467
-3.9465,-0.7328282044082075,-0.718481453861072
-3.946,-0.7328282044082075,-0.9092209451540858
-3.9455,-0.3060212101009019,-1.078767159636765
-3.945,0.2274875327832301,-1.110557074852267
-3.9445,0.5369226036560266,-0.8562377531282487
-3.944,0.5902734779444399,-0.3370024712750445
-3.9435,0.5049120790829789,0.2140227257936621
-3.943,0.3768699807907871,0.5743084315693548
-3.9425,0.2701682322139607,0.7226613692416989
-3.942,0.2701682322139607,0.7968378380778709
-3.9415,0.3128489316446912,0.7968378380778709
-3.941,0.2808384070716433,0.6802748156210291
-3.9405,0.2274875327832301,0.5213252395435176
-3.94,0.2061471830678648,0.3199891098453364
-3.9395,0.1848068333524996,0.13984625695749
-3.939,0.3555296310754218,0.2670059178194992
-3.9385,0.3982103305061524,0.5955017083796896
-3.938,-0.1139580626626144,0.07626642652648545
-3.9375,-0.7968492535543035,-0.6654982618352349
-3.937,-1.533091318734406,-0.4429688553267188
-3.9365,-1.810515865034154,0.1716361721729923
-3.936,-1.351698346153801,0.2458126410091644
-3.9355,-0.754168554123573,0.02328323450064829
-3.935,-0.2846808603855366,-0.2204394488182027
-3.9345,0.00341386077189465,-0.400582301706049
-3.934,0.142126133921769,-0.4853554089473885
-3.9335,0.1848068333524996,-0.4853554089473885
-3.933,0.1848068333524996,-0.4323722169215513
-3.9325,0.1527963087794516,-0.3581957480853793
-3.932,0.1207857842064037,-0.252229364033705
-3.9315,0.09944543449103843,-0.1462629799820306
-3.931,0.08877525963335578,-0.02969995752518888
-3.9305,-0.1673089369510276,-0.2310360872233701
-3.93,-0.5621054066852853,-0.7396747306714069
-3.9295,-0.8608703027003992,-1.184733543688439
-3.929,-0.8822106524157645,-1.460246142222792
-3.9285,-0.423393133535411,-1.407262950196955
-3.928,0.03542438534494258,-1.046977244421262
-3.9275,0.3021787567870086,-0.474758770542221
-3.927,0.3768699807907871,0.1080563417419877
-3.9265,0.3448594562177392,0.5319218779486851
-3.926,0.291508581929326,0.7438546460520338
-3.9255,0.2808384070716433,0.849821030103708
-3.925,0.4302208550792003,0.9557874141553824
-3.9245,0.4408910299368829,0.7968378380778709
-3.924,0.3768699807907871,0.5425185163538525
-3.9235,0.2808384070716433,0.2776025562246667
-3.923,0.2168173579255475,0.05507314971615059
-3.9225,0.2168173579255475,-0.04029659593035631
-3.922,0.4622313796522482,0.3517790250608387
-3.9215,0.1741366584948169,0.3305857482505039
-3.921,-0.5300948821122373,-0.3158091944647096
-3.9205,-1.202315898146244,-0.2098428104130352
-3.92,-1.714484291315011,0.4047622170866759
-3.9195,-1.46907026958831,0.5319218779486851
-3.919,-0.9142211769888124,0.2564092794143318
-3.9185,-0.4127229586777283,-0.06148987274069118
-3.918,-0.07127736323188383,-0.2840192792492073
-3.9175,0.1101156093487211,-0.3687923864905467
-3.917,0.1848068333524996,-0.3475991096802118
-3.9165,0.1848068333524996,-0.2628260024388724
-3.916,0.1634664836371343,-0.1462629799820306
-3.9155,0.1314559590640864,-0.01910331912002144
-3.915,0.1101156093487211,0.1080563417419877
-3.9145,0.09944543449103843,0.2246193641988295
-3.914,-0.1139580626626144,0.1080563417419877
-3.9135,-0.4127229586777283,-0.2416327256285375
-3.913,-0.6047861061160158,-0.6019184314042303
-3.9125,-0.7648387289812555,-0.9304142219644207
-3.912,-0.4660738329661415,-1.089363798041932
-3.9115,0.01408403562957729,-1.004590690800593
-3.911,0.3128489316446912,-0.6337083466197325
-3.9105,0.3875401556484697,-0.1250697031716958
-3.91,0.3661998059331045,0.309392471440169
-3.9095,0.3128489316446912,0.5955017083796896
-3.909,0.2701682322139607,0.6908714540261965
-3.9085,0.3341892813600565,0.7332580076468663
-3.908,0.3448594562177392,0.6802748156210291
-3.9075,0.291508581929326,0.5107286011383502
-3.907,0.2381577076409128,0.2987958330350016
-3.9065,0.2061471830678648,0.09745970333682032
-3.906,0.1954770082101822,-0.01910331912002144
-3.9055,0.4835717293676135,0.3411823866556712
-3.905,0.5155822539406614,0.8710143069140429
-3.9045,-0.1993194615240755,0.5637117931641874
-3.904,-1.020922925565639,-0.008506680714854012
-3.9035,-1.757164990745741,0.2881991946298341
-3.903,-1.789175515318789,0.5425185163538525
-3.9025,-1.212986073003927,0.3411823866556712
-3.902,-0.6154562809736985,0.02328323450064829
-3.9015,-0.1886492866663929,-0.2310360872233701
-3.901,0.0674349099179905,-0.3581957480853793
-3.9005,0.1741366584948169,-0.3793890248957141
-3.9,0.2061471830678648,-0.3158091944647096
-3.8995,0.1848068333524996,-0.2310360872233701
-3.899,0.142126133921769,-0.1250697031716958
-3.8985,0.1101156093487211,-0.01910331912002144
-3.898,0.09944543449103843,0.08686306493165288
-3.8975,0.01408403562957729,0.09745970333682032
-3.897,-0.4447334832507763,-0.3475991096802118
-3.8965,-0.7114878546928423,-0.8138511995075789
-3.896,-0.7434983792658902,-1.089363798041932
-3.8955,-0.423393133535411,-1.05757388282643
-3.895,0.03542438534494258,-0.8456411147230812
-3.8945,0.3448594562177392,-0.3793890248957141
-3.894,0.4302208550792003,0.1504428953626575
-3.8935,0.3875401556484697,0.5319218779486851
-3.893,0.3128489316446912,0.7226613692416989
-3.8925,0.2488278824985954,0.775644561267536
-3.892,0.3021787567870086,0.7862411996727035
-3.8915,0.3661998059331045,0.7438546460520338
-3.891,0.3341892813600565,0.5743084315693548
-3.8905,0.2701682322139607,0.3729723018711736
-3.89,0.2168173579255475,0.1610395337678249
-3.8895,0.1848068333524996,-0.01910331912002144
-3.889,0.3448594562177392,0.1080563417419877
-3.8885,0.4835717293676135,0.6378882620003594
-3.888,0.02475421048725994,0.5001319627331828
