Class_8_Think_right_hand_movement/Class_8_Think_Right_hand_mouvement_UZ_9.csv

#Digilent WaveForms Oscilloscope Acquisition
#Device Name: EExplorer
#Serial Number: SN:210151A2B84A
#Date Time: 2020-12-21 13:40:39.917
#Sample rate: 2000Hz
#Samples: 16384
#Trigger: Source: Channel 1 Type: Edge Condition: Rising Level: 0 V Hyst.: Auto HoldOff: 0 s
#Channel 1: Range: 1 V/div Offset: 0 V
#Channel 2: Range: 1 V/div Offset: 0 V

Time (s),Channel 1 (V),Channel 2 (V)
-4.0960000000000001,0.51558225394066137,0.41535885549184332
-4.0955000000000004,0.50491207908298852,0.86041766850847068
-4.0949999999999998,0.11011560934885693,0.97698069096530282
-4.0945,0.25949805735627807,0.52132523954351762
-4.0940000000000003,0.59027347794413898,-0.040296595929845469
-4.0934999999999997,0.80367697509813163,-0.61251506980967707
-4.093,0.84635767452882327,-0.91981758355925325
-4.0925000000000002,0.75032610080976692,-1.0787671596366202
-4.0919999999999996,0.56893312822889996,-1.0363806060160274
-4.0914999999999999,0.3768699807907871,-0.96220413717992292
-4.0910000000000002,0.33418928136005654,-1.0575738828264298
-4.0904999999999996,0.32351910650230592,-1.0681705212314334
-4.0899999999999999,0.24882788249859539,-0.88802766834375091
-4.0895000000000001,0.16346648363713429,-0.66549826183523486
-4.0890000000000004,0.099445434491096663,-0.46416213213723667
-4.0884999999999998,0.024754210487259936,-0.29461591765437467
-4.0880000000000001,-0.39138260896236304,-0.12506970317169577
-4.0875000000000004,-1.0956141495687768,0.31998910984493167
-4.0869999999999997,-1.8105158650346977,0.83922439169836704
-4.0865,-2.4080456570643824,0.64848490040552687
-4.0860000000000003,-2.5254175804987846,-0.3052125560586747
-4.0854999999999997,-1.8638667393218107,-0.80325456110243076
-4.085,-1.0315931004233216,-0.82444783791274634
-4.0845000000000002,-0.43406330839363705,-0.65490162343022162
-4.0839999999999996,-0.060607188374045919,-0.46416213213690904
-4.0834999999999999,0.11011560934872107,-0.30521255605954212
-4.0830000000000002,0.17413665849481691,-0.18864953360270037
-4.0824999999999996,0.16346648363710517,-0.13566634157683427
-4.0819999999999999,0.13145595906408636,-0.10387642636136091
-4.0815000000000001,0.12078578420640371,-0.082683149551026042
-4.0810000000000004,0.11011560934873077,-0.093279787956183829
-4.0804999999999998,0.11011560934872107,-0.12506970317169577
-4.0800000000000001,0.23815770764091276,-0.04029659593035631
-4.0795000000000003,0.75032610080921369,0.39416557868111335
-4.0789999999999997,0.83568749967076228,0.88161094531940309
-4.0785,0.41955068022151765,1.0935437134225592
-4.0780000000000003,0.3768699807908259,1.0193672445864546
-4.0774999999999997,0.62228400251766247,0.64848490040490048
-4.077,0.81434714995577528,-0.04029659593035631
-4.0765000000000002,0.84635767452879418,-0.64430498502435063
-4.0759999999999996,0.72898575109414931,-1.057573882826613
-4.0754999999999999,0.54759277851370936,-1.2589100125246109
-4.0750000000000002,0.35552963107542179,-1.2906999277401132
-4.0744999999999996,0.24882788249855656,-1.2589100125245627
-4.0739999999999998,0.20614718306786484,-1.2059268204987741
-4.0735000000000001,0.16346648363713429,-1.01518732920576
-4.0730000000000004,0.1101156093487696,-0.76086800748197314
-4.0724999999999998,0.078105084775673142,-0.51714532416289083
-4.0720000000000001,0.046094560202625215,-0.30521255605954212
-4.0715000000000003,-0.23132998609687117,-0.072086511146070648
-4.0709999999999997,-0.9035510021316443,0.35177902506131092
-4.0705,-1.46907026958831,0.87101430691404291
-4.0700000000000003,-2.0025790124719567,1.2736865663100392
-4.0694999999999997,-2.4934070559256396,1.5174092496290827
-4.069,-2.2693333839145078,1.3266697583362426
-4.0685000000000002,-1.3943790455845313,0.66967817721586165
-4.0679999999999996,-0.69014750497704036,0.03387987290545913
-4.0674999999999999,-0.20998963638175816,-0.3581957480853793
-4.0670000000000002,0.046094560202625215,-0.50654868575772338
-4.0664999999999996,0.15279630877947104,-0.48535540894729212
-4.0659999999999998,0.17413665849481691,-0.37938902489571413
-4.0655000000000001,0.15279630877945163,-0.22043944881820265
-4.0650000000000004,0.13145595906410576,-0.050893234335677939
-4.0644999999999998,0.11011560934872107,0.097459703336820316
-4.0640000000000001,0.11011560934872107,0.21402272579366208
-4.0635000000000003,0.21681735792545043,0.39416557868134461
-4.0629999999999997,0.79300680024116699,0.75445128445754805
-4.0625,1.625280439139656,1.1359302670432285
-4.0620000000000003,2.0414172585889006,1.2736865663102801
-4.0614999999999997,1.9347155100122975,1.0087706061809016
-4.0609999999999999,1.7639927122895305,0.6590815388106942
-4.0605000000000002,1.4865681659897818,0.097459703336820316
-4.0599999999999996,1.1664629202589918,-0.51714532416332448
-4.0594999999999999,0.82501732481345802,-0.99399405239542526
-4.0590000000000002,0.55826295337139209,-1.2059268204987741
-4.0585000000000004,0.33418928136026033,-1.2483133741194048
-4.0579999999999998,0.20614718306786484,-1.1635402668781043
-4.0575000000000001,0.28083840707164331,-1.131750351662602
-4.0570000000000004,0.27016823221397041,-0.97280077558523492
-4.0564999999999998,0.20614718306786484,-0.73967473067140688
-4.056,0.14212613392176898,-0.48535540894738849
-4.0555000000000003,0.078105084775731373,-0.27342264084423262
-4.0549999999999997,-0.13529841237857165,-0.17805289519754255
-4.0545,-0.78617907869662074,-0.18864953360270037
-4.0540000000000003,-1.5330913187337263,0.20342608738813805
-4.0534999999999997,-2.2373228593417513,0.74385464605243856
-4.0529999999999999,-2.5574281050719394,1.1889134590690658
-4.0525000000000002,-2.5147474056412089,1.3160731199310751
-4.0519999999999996,-1.725154466171946,0.80743447648244082
-4.0514999999999999,-0.90355100213112993,0.15044289536265748
-4.0510000000000002,-0.33803173467394987,-0.34759910968021185
-4.0505000000000004,-0.0072563140860887887,-0.61251506980915671
-4.0499999999999998,0.14212613392176898,-0.68669153864556975
-4.0495000000000001,0.17413665849481691,-0.64430498502489997
-4.0490000000000004,0.15279630877947104,-0.53833860097332198
-4.0484999999999998,0.13145595906406696,-0.41117894011109118
-4.048,0.11011560934872107,-0.27342264084403983
-4.0475000000000003,0.099445434491048132,-0.15685961838730411
-4.0469999999999997,0.12078578420658809,-0.040296595930057542
-4.0465,0.32351910650237387,0.28819919462983412
-4.0460000000000003,0.91037872367438544,0.78624119967225048
-4.0454999999999997,1.5185786905626744,1.1677201822588947
-4.0449999999999999,1.3478558928399074,1.3478630351465775
-4.0445000000000002,1.1878032699746677,1.2630899279052379
-4.0439999999999996,1.0811015213977444,0.66967817721516776
-4.0434999999999999,0.97439977282101498,-0.093279787956193475
-4.0430000000000001,0.80367697509809277,-0.62311170821456507
-4.0425000000000004,0.57960330308696117,-0.85623775312803663
-4.0419999999999998,0.3768699807907871,-0.94101086036958814
-4.0415000000000001,0.23815770764091276,-0.9092209451540858
-4.0410000000000004,0.23815770764091276,-0.9939940523953481
-4.0404999999999998,0.25949805735622955,-0.95160749877455308
-4.04,0.20614718306786484,-0.72907809226623943
-4.0395000000000003,0.15279630877950015,-0.47475877054245236
-4.0389999999999997,0.0994454344909705,-0.25222936403356044
-4.0385,0.024754210487259936,-0.093279787956193475
-4.0380000000000003,-0.35937208438896578,-0.25222936403356044
-4.0374999999999996,-1.0529334501392207,-0.22043944881773042
-4.0369999999999999,-1.6397930673112322,0.29879583303500157
-4.0365000000000002,-2.1839719850530468,0.86041766850887547
-4.0359999999999996,-2.482736881067559,1.1995100974739343
-4.0354999999999999,-1.8211860398918371,0.87101430691404291
-4.0350000000000001,-1.0209229255656389,0.23521600260399694
-4.0345000000000004,-0.43406330839362739,-0.30521255605905068
-4.0339999999999998,-0.071277363231883828,-0.62311170821456507
-4.0335000000000001,0.11011560934872107,-0.75027136907657432
-4.0330000000000004,0.16346648363708577,-0.73967473067141654
-4.0324999999999998,0.15279630877943223,-0.64430498502479394
-4.032,0.13145595906408636,-0.52774196256805828
-4.0315000000000003,0.11011560934874048,-0.38998566330100687
-4.0309999999999997,0.099445434491048132,-0.26282600243875676
-4.0305,0.11011560934872107,-0.13566634157686319
-4.0300000000000002,0.21681735792545043,0.076266426526292702
-4.0294999999999996,0.6542945270904873,0.52132523954395127
-4.0289999999999999,0.60094365280212259,0.99817396777605205
-4.0285000000000002,0.05676473506030786,1.3160731199310751
-4.0279999999999996,-0.03926683865854478,1.3160731199305644
-4.0274999999999999,0.28083840707164331,0.75445128445720111
-4.0270000000000001,0.60094365280212259,-0.072086511145858609
-4.0265000000000004,0.77166645052488958,-0.71848145386048412
-4.0259999999999998,0.72898575109431429,-1.0469772444212624
-4.0255000000000001,0.59027347794443985,-1.1741369052832717
-4.0250000000000004,0.43022085507934593,-1.1105570748523248
-4.0244999999999997,0.34485945621772945,-0.98339741399016145
-4.024,0.33418928136005654,-0.87743102993858346
-4.0235000000000003,0.25949805735634601,-0.6654982618354276
-4.0229999999999997,0.17413665849475868,-0.41117894011102374
-4.0225,0.11011560934872107,-0.19924617200786782
-4.0220000000000002,0.06743490991802932,-0.029699957525343101
-4.0214999999999996,-0.1459685872362543,0.13984625695781772
-4.0209999999999999,-0.79684925355430347,0.50013196273318283
-4.0205000000000002,-1.5651018433074537,0.94519077575021493
-4.0199999999999996,-2.2586632090570875,1.2842832047157655
-4.0194999999999999,-2.5467579302142567,1.4962159728189213
-4.0190000000000001,-2.3973754822066997,1.33726639674141
-4.0185000000000004,-1.5117509690198458,0.66967817721646883
-4.0179999999999998,-0.75416855412357298,-0.019103319120021445
-4.0175000000000001,-0.24200016095480609,-0.48535540894738849
-4.0170000000000003,0.046094560202363188,-0.70788481545570214
-4.0164999999999997,0.15279630877947104,-0.75027136907651648
-4.016,0.17413665849481691,-0.68669153864556975
-4.0155000000000003,0.15279630877947104,-0.57012851618883398
-4.0149999999999997,0.13145595906408636,-0.43237221692140676
-4.0145,0.13145595906408636,-0.27342264084403983
-4.0140000000000002,0.14212613392175927,-0.13566634157698848
-4.0134999999999996,0.23815770764118449,0.076266426526880593
-4.0129999999999999,0.53692260365602662,0.51072860113835017
-4.0125000000000002,0.76099627566736228,0.90280422212954525
-4.0119999999999996,0.40888050536358272,1.1359302670433056
-4.0114999999999998,0.13145595906408636,1.2207033742845681
-4.0110000000000001,0.32351910650237387,0.80743447648303834
-4.0105000000000004,0.59027347794419716,0.1080563417426238
-4.0099999999999998,0.76099627566736228,-0.47475877054222104
-4.0095000000000001,0.76099627566736228,-0.77146464588690922
-4.0090000000000003,0.62228400251761395,-0.88802766834364488
-4.0084999999999997,0.43022085507908386,-0.86683439153334862
-4.008,0.30217875678700862,-0.792657922697244
-4.0075000000000003,0.38754015564839206,-0.84564111472303305
-4.0069999999999997,0.35552963107533447,-0.7290780922660659
-4.0065,0.25949805735627807,-0.53833860097322561
-4.0060000000000002,0.17413665849481691,-0.33700247127504446
-4.0054999999999996,0.099445434490912268,-0.17805289519741727
-4.0049999999999999,-0.039266838658835915,-0.050893234335523743
-4.0045000000000002,-0.59411593125833329,0.20342608738849466
-4.0039999999999996,-1.2236562478621138,0.66967817721625678
-4.0034999999999998,-1.7785053404611064,1.1041403518277266
-4.0030000000000001,-2.365364957633652,1.4114428655775821
-4.0025000000000004,-2.3333544330606331,1.3478630351466352
-4.0019999999999998,-1.5117509690190405,0.69087145402619654
-4.0015000000000001,-0.78617907869662074,-0.019103319120021445
-4.0010000000000003,-0.27401068552831986,-0.51714532416243786
-4.0004999999999997,0.024754210487366684,-0.77146464588696706
-4,0.14212613392176898,-0.83504447631791379
-3.9994999999999998,0.17413665849481691,-0.77146464588690922
-3.9990000000000001,0.15279630877945163,-0.65490162343006741
-3.9984999999999999,0.13145595906408636,-0.50654868575772338
-3.9980000000000002,0.11011560934872107,-0.36879238649054674
-3.9975000000000001,0.11011560934872107,-0.2310360872233701
-3.9969999999999999,0.15279630877945163,-0.072086511145858609
-3.9965000000000002,0.55826295337139209,0.26700591781949923
-3.996,1.1131120459708892,0.76504792286236856
-3.9954999999999998,0.79300680024041004,1.1783168206638983
-3.9950000000000001,0.28083840707164331,1.2736865663104053
-3.9944999999999999,0.32351910650237387,0.93459413734504748
-3.9940000000000002,0.54759277851370936,0.12924961855232261
-3.9935,0.72898575109431429,-0.53833860097322561
-3.9929999999999999,0.71831557623663156,-0.89862430674891836
-3.9925000000000002,0.59027347794443985,-1.01518732920576
-3.992,0.43022085507920033,-0.9304142219644207
-3.9914999999999998,0.29150858192932599,-0.77146464588690922
-3.9910000000000001,0.3768699807907871,-0.792657922697244
-3.9904999999999999,0.4622313796522482,-0.75027136907657432
-3.9900000000000002,0.36619980593310447,-0.52774196256805828
-3.9895,0.24882788249859539,-0.27342264084403983
-3.9889999999999999,0.15279630877945163,-0.072086511145858609
-3.9885000000000002,0.046094560202625215,0.044476511310983152
-3.988,-0.3700422592469978,0.086863064931652884
-3.9874999999999998,-1.0742737998540521,0.42595549389701071
-3.9870000000000001,-1.6504632421689147,0.90280422212954525
-3.9864999999999999,-2.1199509359069508,1.2736865663104053
-3.9860000000000002,-2.4934070559258434,1.4750226960085864
-3.9855,-1.9705684878993939,1.0935437134225592
-3.9849999999999999,-1.1596351987155133,0.35177902506083869
-3.9845000000000002,-0.51942470725455481,-0.30521255605954212
-3.984,-0.11395806266261441,-0.70788481545590454
-3.9834999999999998,0.099445434491038431,-0.88802766834375091
-3.9830000000000001,0.16346648363713429,-0.9092209451540858
-3.9824999999999999,0.17413665849481691,-0.82444783791274634
-3.9820000000000002,0.14212613392176898,-0.6972881770507372
-3.9815,0.12078578420640371,-0.55953187778356051
-3.9809999999999999,0.11011560934872107,-0.42177557851638392
-3.9805000000000001,0.13145595906408636,-0.27342264084403983
-3.98,0.32351910650237387,-0.0085066807148540119
-3.9794999999999998,0.98506994767869771,0.50013196273318283
-3.9790000000000001,1.2198137945477157,0.7968378380778709
-3.9784999999999999,0.79300680024041004,0.94519077575021493
-3.9780000000000002,0.62228400251748783,1.0617537982070568
-3.9775,0.76099627566736228,0.775644561267536
-3.9769999999999999,0.87836819910187125,0.41535885549184332
-3.9765000000000001,0.88903837395955376,-0.019103319120021445
-3.976,0.73965592595199681,-0.38998566330088158
-3.9754999999999998,0.52625242879834411,-0.5807251545938954
-3.9750000000000001,0.34485945621773917,-0.60191843140423029
-3.9744999999999999,0.34485945621773917,-0.66549826183523486
-3.9740000000000002,0.50491207908297886,-0.78206128429207655
-3.9735,0.45156120479456557,-0.63370834661973252
-3.9729999999999999,0.32351910650237387,-0.40058230170604903
-3.9725000000000001,0.19547700821018218,-0.17805289519753292
-3.972,0.11011560934872107,-0.019103319120021445
-3.9714999999999998,-0.17797911180871023,0.11865298014715518
-3.9710000000000001,-0.86087030270039921,0.46834204751768049
-3.9704999999999999,-1.522421143876723,0.92399749893988004
-3.9700000000000002,-2.1092807610492685,1.0087706061812196
-3.9695,-2.5254175804988912,0.20342608738849466
-3.9689999999999999,-2.1733018101953641,-0.32640583286987701
-3.9685000000000001,-1.2983474718653876,-0.5807251545938954
-3.968,-0.61545628097369853,-0.68669153864556975
-3.9674999999999998,-0.16730893695102761,-0.6972881770507372
-3.9670000000000001,0.078105084775673142,-0.66549826183523486
-3.9664999999999999,0.16346648363713429,-0.62311170821456507
-3.9660000000000002,0.17413665849481691,-0.59132179299906285
-3.9655,0.15279630877945163,-0.54893523937839306
-3.9649999999999999,0.13145595906408636,-0.49595204735255594
-3.9645000000000001,0.11011560934872107,-0.4535654937318862
-3.964,0.12078578420640371,-0.38998566330088158
-3.9634999999999998,0.16346648363713429,-0.29461591765437467
-3.9630000000000001,0.27016823221396069,0.097459703336820316
-3.9624999999999999,0.53692260365602662,0.66967817721586165
-3.9620000000000002,0.79300680024041004,1.0299638829915545
-3.9615,0.82501732481345802,1.0723504366122243
-3.9609999999999999,0.95305942310564973,0.81803111488820579
-3.9605000000000001,0.98506994767869771,0.15044289536265748
-3.96,0.93171907339028448,-0.47475877054222104
-3.9594999999999998,0.79300680024041004,-0.85623775312824868
-3.9590000000000001,0.60094365280212259,-1.01518732920576
-3.9584999999999999,0.41955068022151765,-0.99399405239542526
-3.9580000000000002,0.29150858192932599,-0.94101086036958814
-3.9575,0.3768699807907871,-1.0257839676109275
-3.9569999999999999,0.36619980593310447,-0.89862430674891836
-3.9565000000000001,0.27016823221396069,-0.65490162343006741
-3.956,0.17413665849481691,-0.40058230170604903
-3.9554999999999998,0.11011560934872107,-0.17805289519753292
-3.9550000000000001,-0.028596663801153277,-0.029699957525188878
-3.9544999999999999,-0.58344575640065055,0.25640927941433178
-3.9540000000000002,-1.3516983461538008,0.74385464605203377
-3.9535,-1.9385579633263461,1.1677201822587309
-3.9529999999999998,-2.4400561816374302,1.4538294191982519
-3.9525000000000001,-2.4613965313527957,1.4644260576034194
-3.952,-1.67180359188428,0.87101430691404291
-3.9514999999999998,-0.8928808272734472,0.15044289536265748
-3.9510000000000001,-0.32736155981626724,-0.36879238649054674
-3.9504999999999999,-0.0072563140857879876,-0.63370834661973252
-3.9500000000000002,0.14212613392176898,-0.6972881770507372
-3.9495,0.17413665849481691,-0.63370834661973252
-3.9489999999999998,0.16346648363713429,-0.49595204735255594
-3.9485000000000001,0.14212613392176898,-0.32640583286987701
-3.948,0.12078578420640371,-0.17805289519753292
-3.9474999999999998,0.12078578420640371,-0.029699957525188878
-3.9470000000000001,0.16346648363713429,0.10805634174198775
-3.9464999999999999,0.47290155450993088,0.42595549389701071
-3.9460000000000002,1.0811015213978414,0.88161094531921036
-3.9455,1.0170804722517455,1.2524932895000704
-3.9449999999999998,0.45156120479456557,1.1783168206638983
-3.9445000000000001,0.55826295337139209,0.36237566346600614
-3.944,0.81434714995577528,-0.14626297998203064
-3.9434999999999998,0.97439977282101498,-0.54893523937839306
-3.9430000000000001,0.97439977282101498,-0.76086800748174177
-3.9424999999999999,0.82501732481345802,-0.81385119950757889
-3.9420000000000002,0.6116138276598051,-0.81385119950757889
-3.9415,0.3982103305061524,-0.72907809226623943
-3.9409999999999998,0.17413665849481691,-0.50654868575772338
-3.9405000000000001,0.035424385344942577,-0.34759910968021185
-3.9399999999999999,-0.0072563140857879876,-0.26282600243887239
-3.9394999999999998,0.0034138607718946501,-0.2310360872233701
-3.9390000000000001,0.024754210487259936,-0.20984281041303524
-3.9384999999999999,-0.017926488943470625,-0.17805289519753292
-3.9380000000000002,-0.46607383296614152,-0.019103319120021445
-3.9375,-1.1276246741424654,0.42595549389701071
-3.9369999999999998,-1.586442193022819,0.9134008605347127
-3.9365000000000001,-1.9492281381840288,1.241896651094903
-3.9359999999999999,-2.2693333839145078,1.3902495887672472
-3.9355000000000002,-1.7571649907457412,0.96638405256054982
-3.9350000000000001,-1.0315931004233216,0.26700591781949923
-3.9344999999999999,-0.4554036581084589,-0.30521255605954212
-3.9340000000000002,-0.08194753808956648,-0.64430498502489997
-3.9335,0.099445434491038431,-0.76086800748174177
-3.9329999999999998,0.16346648363713429,-0.75027136907657432
-3.9325000000000001,0.16346648363713429,-0.65490162343006741
-3.9319999999999999,0.14212613392176898,-0.52774196256805828
-3.9315000000000002,0.13145595906408636,-0.37938902489571413
-3.931,0.13145595906408636,-0.24163272562853755
-3.9304999999999999,0.14212613392176898,-0.10387642636136091
-3.9300000000000002,0.22748753278323011,0.076266426526485451
-3.9295,0.6863050516635838,0.50013196273318283
-3.9289999999999998,1.0811015213978414,0.97698069096571727
