Class_8_Think_right_hand_movement/Class_8_Think_Right_hand_mouvement_Basim_13.csv

#Digilent WaveForms Oscilloscope Acquisition
#Device Name: EExplorer
#Serial Number: SN:210151A2B84A
#Date Time: 2021-02-07 15:58:23.710
#Sample rate: 2000Hz
#Samples: 16384
#Trigger: Source: Channel 1 Type: Edge Condition: Rising Level: 0 V Hyst.: Auto HoldOff: 0 s
#Channel 1: Range: 1 V/div Offset: 0 V Attenuation: 1 X
#Channel 2: Range: 1 V/div Offset: 0 V Attenuation: 1 X
#Power Supplies: ON
#Fixed Supply: ON
#Voltage: 3.3 V Readback: 3.324 V
#Positive Supply: ON
#Voltage: 3.7 V Readback: 3.717 V
#Current: 40 mA Readback: 20 mA
#Negative Supply: ON
#Voltage: -3.7 V Readback: -3.712 V
#Current: -40 mA Readback: -10 mA
#Reference 1: ON
#Voltage: 0 V
#Reference 2: ON
#Voltage: 0 V

Time (s),Channel 1 (V),Channel 2 (V)
-4.096,-1.074273799854052,1.453829419198252
-4.0955,-0.6154562809741158,0.4789386859237346
-4.095,-0.14596858723541,-0.4429688553271139
-4.0945,0.1314559590640864,-0.8774310299385835
-4.094,0.2274875327831428,-0.951607498774688
-4.0935,0.2274875327831913,-0.8350444763177211
-4.093,0.1848068333524996,-0.6231117082145651
-4.0925,0.1421261339218078,-0.4429688553268826
-4.092,0.1314559590640572,-0.294615917654259
-4.0915,0.09944543449103843,-0.1674562567923655
-4.091,0.0674349099179905,-0.04029659593035631
-4.0905,0.05676473506028845,0.07626642652658183
-4.09,0.03542438534494258,0.1822328105781598
-4.0895,-0.09261771294724913,0.3411823866556712
-4.089,-0.6581369804039146,0.7650479228619831
-4.0885,-1.212986073003927,1.231300012689736
-4.088,-1.767835165603424,1.591585718465428
-4.0875,-1.853196564464807,1.496215972819008
-4.087,-1.341028171295584,0.8710143069134839
-4.0865,-0.754168554123573,0.2564092794143318
-4.086,-0.3060212101013095,-0.1462629799816644
-4.0855,-0.03926683865871946,-0.3370024712750637
-4.085,0.08877525963335578,-0.3581957480853793
-4.0845,0.1207857842063746,-0.2840192792492747
-4.084,0.1101156093487017,-0.1674562567922498
-4.0835,0.08877525963335578,-0.04029659593035631
-4.083,0.0674349099179905,0.08686306493165288
-4.0825,0.05676473506030786,0.1928294489834139
-4.082,0.05676473506030786,0.2881991946298341
-4.0815,0.0674349099179905,0.3517790250608387
-4.081,0.05676473506031757,0.542518516353679
-4.0805,-0.2953510352432193,0.9875773293708847
-4.08,-0.9035510021311299,1.411442865577582
-4.0795,-1.15963519871528,1.411442865577582
-4.079,-0.7328282044077222,0.4047622170857217
-4.0785,-0.1993194615240755,-0.6443049850249
-4.078,0.1101156093484396,-1.099960436446685
-4.0775,0.2274875327832398,-1.142346990067634
-4.077,0.2381577076409128,-0.9939940523954253
-4.0765,0.195477008210221,-0.7820612842922693
-4.076,0.1421261339218272,-0.5701285161884967
-4.0755,0.2061471830678648,-0.3158091944647096
-4.075,0.2488278824985954,-0.1780528951975329
-4.0745,0.2061471830678066,-0.1038764263613031
-4.074,0.142126133921769,-0.04029659593035631
-4.0735,0.08877525963335578,0.03387987290581572
-4.073,-0.03926683865871947,0.1610395337677092
-4.0725,-0.6474668055467465,0.55311515475902
-4.072,-1.180975548430879,0.9663840525605498
-4.0715,-1.501080794161067,1.326669758335915
-4.071,-1.67180359188396,1.475022696008182
-4.0705,-1.319687821580753,1.029963882991555
-4.07,-0.786179078697106,0.4471487707078756
-4.0695,-0.3487019095313802,0.01268659609527847
-4.069,-0.07127736323188383,-0.2098428104130352
-4.0685,0.0674349099179905,-0.2628260024388724
-4.068,0.1207857842064037,-0.1992461720077618
-4.0675,0.1207857842064037,-0.08268314955102604
-4.067,0.09944543449103843,0.04447651131098315
-4.0665,0.07810508477566344,0.1610395337679213
-4.066,0.0674349099179905,0.2670059178194992
-4.0655,0.0674349099179905,0.3517790250608387
-4.065,0.07810508477566344,0.4153588554917855
-4.0645,0.3021787567870086,0.5849050699745222
-4.064,1.049090996824793,0.9981739677760521
-4.0635,1.32651554312429,1.400846227172049
-4.063,0.7289857510941493,1.453829419197307
-4.0625,0.5475927785137094,0.4153588554918433
-4.062,0.5796033030867282,-0.8774310299374077
-4.0615,0.5689331282289776,-1.576809164679654
-4.061,0.4622313796522482,-1.598002441489969
-4.0605,0.3235191065023739,-1.301296566145281
-4.06,0.2168173579254699,-0.9410108603693182
-4.0595,0.1314559590640864,-0.6443049850249
-4.059,0.08877525963335578,-0.4429688553267188
-4.0585,0.07810508477568284,-0.2946159176545096
-4.058,0.0674349099179905,-0.1886495336027004
-4.0575,0.05676473506030786,-0.09327978795619347
-4.057,0.05676473506030786,-0.008506680714931117
-4.0565,0.03542438534494258,0.06566978812131802
-4.056,-0.3273615598162672,0.3623756634660061
-4.0555,-1.010252750707335,0.892207583723896
-4.055,-1.490410619303918,1.326669758336483
-4.0545,-1.757164990745741,1.591585718465428
-4.054,-1.543761493592283,1.284283204715852
-4.0535,-0.9995825758498078,0.6272916235946715
-4.053,-0.4874141826815069,0.05507314971615059
-4.0525,-0.1459685872356623,-0.2734226408440398
-4.052,0.04609456020269315,-0.3899856633008623
-4.0515,0.1207857842064037,-0.3687923864905467
-4.051,0.1314559590640864,-0.2628260024388724
-4.0505,0.1207857842064134,-0.1356663415769788
-4.05,0.08877525963335578,0.002089957690313421
-4.0495,0.07810508477567314,0.13984625695749
-4.049,0.0674349099180002,0.245812641009068
-4.0485,0.0674349099180002,0.3305857482505713
-4.048,0.07810508477567314,0.4047622170866759
-4.0475,-0.1352984123777856,0.6590815388104629
-4.047,-0.6901475049777875,1.093543713422752
-4.0465,-1.031593100423322,1.305476481525908
-4.046,-0.7755089038391711,0.6802748156215978
-4.0455,-0.2206598112390721,-0.453565493732503
-4.045,0.1848068333524996,-1.131750351662602
-4.0445,0.3448594562177392,-1.248313374119443
-4.044,0.3341892813599886,-1.099960436446888
-4.0435,0.2594980573562781,-0.8668343915334161
-4.043,0.1848068333524996,-0.6337083466197325
-4.0425,0.1527963087794807,-0.5065486857578391
-4.042,0.2808384070716433,-0.6760949002404023
-4.0415,0.3021787567870086,-0.6549016234300674
-4.041,0.238157707640971,-0.4853554089475427
-4.0405,0.1634664836370858,-0.2734226408438856
-4.04,0.1101156093487211,-0.1038764263613609
-4.0395,0.003413860771991697,0.08686306493147941
-4.039,-0.5621054066858482,0.5637117931646789
-4.0385,-1.180975548430879,1.104140351827727
-4.038,-1.469070269588048,1.443232780792776
-4.0375,-1.383708870726441,1.284283204715023
-4.037,-0.9355615267041777,0.6802748156210291
-4.0365,-0.4767440078238243,0.1186529801471552
-4.036,-0.1566387620931703,-0.2416327256286821
-4.0355,0.03542438534494258,-0.400582301706049
-4.035,0.1101156093487211,-0.400582301706049
-4.0345,0.131455959064067,-0.3052125560596288
-4.034,0.1207857842064037,-0.1886495336027004
-4.0335,0.09944543449103843,-0.06148987274069118
-4.033,0.08877525963336548,0.06566978812120236
-4.0325,0.07810508477567314,0.1822328105782465
-4.032,0.07810508477567314,0.2776025562246667
-4.0315,0.07810508477567314,0.3411823866556134
-4.031,0.2594980573562586,0.5743084315697018
-4.0305,0.2381577076409128,0.9557874141553824
-4.03,-0.13529841237764,1.241896651094643
-4.0295,-0.2846808603852552,1.135930267042351
-4.029,0.02475421048725994,0.1716361721729923
-4.0285,0.3341892813600565,-0.8244478379127463
-4.028,0.4408910299368344,-1.237716735714248
-4.0275,0.3875401556484697,-1.205926820498774
-4.027,0.291508581929326,-0.9728007755850904
-4.0265,0.2061471830679425,-0.6972881770509878
-4.026,0.1527963087794516,-0.474758770542221
-4.0255,0.1954770082101822,-0.4535654937318862
-4.025,0.227487532783201,-0.411178940111255
-4.0245,0.1954770082101434,-0.2840192792490627
-4.024,0.1527963087794516,-0.1250697031716958
-4.0235,0.09944543449108695,-0.008506680714960024
-4.023,0.03542438534457381,0.1186529801474925
-4.0225,-0.3700422592469978,0.4895353243280153
-4.022,-1.159635198714795,1.019367244585905
-4.0215,-1.767835165603696,1.453829419198377
-4.021,-2.066600061618538,1.591585718465428
-4.0205,-1.629122892453549,1.072350436612224
-4.02,-0.9782422261344135,0.3941655786810362
-4.0195,-0.4340633083930936,-0.1250697031716958
-4.019,-0.08194753808956648,-0.4111789401112165
-4.0185,0.08877525963320052,-0.4959520473524788
-4.018,0.1527963087794516,-0.4535654937318862
-4.0175,0.1527963087794516,-0.3370024712750445
-4.017,0.1314559590641058,-0.2098428104131509
-4.0165,0.1101156093487017,-0.07208651114574295
-4.016,0.08877525963335578,0.05507314971615059
-4.0155,0.08877525963335578,0.1716361721728863
-4.015,0.0887752596333849,0.2564092794144571
-4.0145,0.1207857842064037,0.3941655786815084
-4.014,0.1848068333524413,0.7968378380775047
-4.0135,-0.08194753808986732,1.125333628638225
-4.013,-0.4127229586777283,1.305476481525908
-4.0125,-0.2206598112394408,0.6590815388106942
-4.012,0.1421261339219728,-0.4535654937324741
-4.0115,0.3661998059331045,-1.0999604364471
-4.011,0.3982103305061524,-1.216523458903942
-4.0105,0.3341892813601148,-1.036380606016259
-4.01,0.2488278824985954,-0.7502713690765743
-4.0095,0.1741366584948169,-0.4959520473525559
-4.009,0.163466483637144,-0.4111789401112936
-4.0085,0.2168173579255281,-0.4747587705421054
-4.008,0.1954770082101822,-0.3475991096802118
-4.0075,0.1634664836371634,-0.1568596183873716
-4.007,0.1207857842063552,0.0126865960955965
-4.0065,0.0674349099179905,0.13984625695749
-4.006,-0.2953510352432193,0.4259554938970107
-4.0055,-1.031593100423836,0.9345941373454426
-4.005,-1.597112367880501,1.369056311956912
-4.0045,-1.799845690176472,1.591585718465428
-4.004,-1.522421143876209,1.241896651094286
-4.0035,-0.9569018764195432,0.5637117931641874
-4.003,-0.4447334832507763,-0.01910331912002144
-4.0025,-0.1032878878052423,-0.3793890248953865
-4.002,0.07810508477567314,-0.5171453241628908
-4.0015,0.142126133921769,-0.5171453241628908
-4.001,0.1527963087794419,-0.4323722169216284
-4.0005,0.1421261339217496,-0.3158091944645939
-4,0.1207857842064037,-0.1886495336027004
-3.9995,0.09944543449103843,-0.06148987274069118
-3.999,0.08877525963335578,0.05507314971615059
-3.9985,0.09944543449103843,0.1504428953626575
-3.998,0.1101156093487211,0.2352160026039969
-3.9975,-0.007256314085787988,0.5213252395435176
-3.997,-0.5621054066852853,0.9981739677760521
-3.9965,-1.074273799854052,1.326669758336243
-3.996,-0.9782422261349084,0.8816109453192104
-3.9955,-0.4554036581084589,-0.1886495336027004
-3.995,0.01408403562957729,-0.9833974139902578
-3.9945,0.2488278824985954,-1.195330182093607
-3.994,0.3128489316446912,-1.068170521231597
-3.9935,0.291508581929326,-0.8138511995075789
-3.993,0.2274875327832301,-0.5489352393783931
-3.9925,0.1848068333524996,-0.3370024712750445
-3.992,0.1634664836371343,-0.2098428104130352
-3.9915,0.1314559590640864,-0.09327978795619347
-3.991,0.1101156093487211,0.01268659609548085
-3.9905,0.09944543449103843,0.09745970333682032
-3.99,0.07810508477567314,0.1610395337678249
-3.9895,-0.07127736323188383,0.309392471440169
-3.989,-0.6261264558313813,0.7544512844572011
-3.9885,-0.9569018764195432,1.157123543853563
-3.988,-1.180975548430879,1.443232780793084
-3.9875,-1.383708870726849,1.42203950398275
-3.987,-1.074273799854052,0.849821030103708
-3.9865,-0.6154562809736985,0.2034260873884947
-3.986,-0.2420001609548061,-0.2734226408440398
-3.9855,-0.007256314085787988,-0.5171453241628908
-3.985,0.1101156093487211,-0.5807251545938954
-3.9845,0.1527963087794516,-0.5383386009732256
-3.984,0.1527963087794516,-0.4429688553267188
-3.9835,0.1314559590640864,-0.3158091944647096
-3.983,0.1207857842064037,-0.1886495336027004
-3.9825,0.1101156093487211,-0.06148987274069118
-3.982,0.09944543449103843,0.04447651131098315
-3.9815,0.1101156093487211,0.1292496185523226
-3.981,0.1314559590640864,0.3623756634660061
-3.9805,-0.07127736323188383,0.8392243916985406
-3.98,-0.423393133535411,1.157123543853563
-3.9795,-0.6474668055467465,1.157123543853563
-3.979,-0.3700422592469978,0.2564092794143318
-3.9785,0.01408403562957729,-0.6337083466197325
-3.978,0.2274875327832301,-1.004590690800593
-3.9775,0.291508581929326,-1.01518732920576
-3.977,0.2808384070716433,-0.8350444763179138
-3.9765,0.2381577076409128,-0.6125150698093976
-3.976,0.1954770082101822,-0.400582301706049
-3.9755,0.3235191065023739,-0.4323722169215513
-3.975,0.4302208550792003,-0.4535654937318862
-3.9745,0.3768699807907871,-0.2734226408440398
-3.974,0.2701682322139607,-0.06148987274069118
-3.9735,0.1741366584948169,0.1186529801471552
-3.973,0.09944543449103843,0.2458126410091644
-3.9725,-0.2633405106701714,0.5107286011383502
-3.972,-0.9569018764195432,0.9875773293708847
-3.9715,-1.607782542738184,1.42203950398275
-3.971,-2.055929886760855,1.591585718465428
-3.9705,-1.746494815888059,1.146526905448396
-3.97,-1.095614149569417,0.4471487707073456
-3.9695,-0.5087545323968721,-0.1250697031716958
-3.969,-0.1139580626626144,-0.4641621321370536
-3.9685,0.08877525963335578,-0.6019184314042303
-3.968,0.1741366584948169,-0.5807251545938954
-3.9675,0.1848068333524996,-0.4959520473525559
-3.967,0.1634664836371343,-0.3793890248957141
-3.9665,0.142126133921769,-0.252229364033705
-3.966,0.1207857842064037,-0.1144730647665284
-3.9655,0.1207857842064037,0.002089957690313421
-3.965,0.1207857842064037,0.09745970333682032
-3.9645,0.2808384070716433,0.2776025562246667
-3.964,0.8997085488172365,0.7544512844572011
-3.9635,1.070431346540159,1.157123543853563
-3.963,0.6969752265212663,1.284283204715573
-3.9625,0.4515612047945656,0.849821030103708
-3.962,0.3982103305061524,0.02328323450064829
-3.9615,0.3661998059331045,-0.5277419625680583
-3.961,0.3021787567870086,-0.6972881770507372
-3.9605,0.2488278824985954,-0.6337083466197325
-3.96,0.1954770082101822,-0.4641621321370536
-3.9595,0.1634664836371343,-0.2840192792492073
-3.959,0.1954770082101822,-0.2204394488182027
-3.9585,0.2594980573562781,-0.2310360872233701
-3.958,0.2488278824985954,-0.1250697031716958
-3.9575,0.1954770082101822,0.002089957690313421
-3.957,0.1527963087794516,0.09745970333682032
-3.9565,0.09944543449103843,0.1716361721729923
-3.956,-0.1779791118087102,0.4047622170866759
-3.9555,-0.9569018764195432,0.8816109453192104
-3.955,-1.586442193022819,1.29487984312074
-3.9545,-1.789175515318789,1.485619334413754
-3.954,-1.575772018165136,1.178316820663898
-3.9535,-0.9995825758502737,0.5107286011383502
-3.953,-0.4767440078238243,-0.08268314955102604
-3.9525,-0.1139580626626144,-0.4535654937318862
-3.952,0.08877525963335578,-0.6231117082145651
-3.9515,0.1634664836371343,-0.6337083466197325
-3.951,0.1741366584948169,-0.5595318777835605
-3.9505,0.1634664836371343,-0.4429688553267188
-3.95,0.142126133921769,-0.3052125560595421
-3.9495,0.1207857842064037,-0.1780528951975329
-3.949,0.1101156093487211,-0.05089323433552374
-3.9485,0.1207857842064037,0.05507314971615059
-3.948,0.1741366584948169,0.1822328105781598
-3.9475,0.6863050516635838,0.5955017083796896
-3.947,0.8676980242441885,1.072350436612224
-3.9465,0.6009436528021226,1.029963882991555
-3.946,0.5155822539406614,0.2881991946298341
-3.9455,0.6009436528021226,-0.7608680074817418
-3.945,0.6329541773751706,-1.322489842955616
-3.9445,0.5475927785137094,-1.280103289334946
-3.944,0.408880505363835,-0.9833974139902578
-3.9435,0.2808384070716433,-0.6443049850249
-3.943,0.1954770082101822,-0.3793890248957141
-3.9425,0.1741366584948169,-0.2204394488182027
-3.942,0.4195506802215176,-0.400582301706049
-3.9415,0.5049120790829789,-0.400582301706049
-3.941,0.4195506802215176,-0.2310360872233701
-3.9405,0.291508581929326,-0.05089323433552374
-3.94,0.1848068333524996,0.09745970333682032
-3.9395,0.00341386077189465,0.2564092794143318
-3.939,-0.5834457564006506,0.6802748156210291
-3.9385,-1.277007122150022,1.178316820663898
-3.938,-1.682473766741963,1.496215972818921
-3.9375,-1.885207089037933,1.570392441655093
-3.937,-1.51175096901904,1.061753798207057
-3.9365,-0.9035510021311299,0.3517790250608387
-3.936,-0.391382608962363,-0.2098428104130352
-3.9355,-0.04993701351651855,-0.5383386009732256
-3.935,0.1207857842064037,-0.6654982618352349
-3.9345,0.1741366584948169,-0.6443049850249
-3.934,0.1848068333524996,-0.5595318777835605
-3.9335,0.1634664836371343,-0.4429688553267188
-3.933,0.142126133921769,-0.3052125560595421
-3.9325,0.1207857842064037,-0.1674562567923655
-3.932,0.1207857842064037,-0.05089323433552374
-3.9315,0.1207857842064037,0.05507314971615059
-3.931,0.291508581929326,0.3199891098453364
-3.9305,0.5796033030867573,0.8286277532933731
-3.93,0.3768699807907871,1.220703374284568
-3.9295,0.2168173579255475,0.9557874141553824
-3.929,0.4195506802215176,-0.1568596183871981
-3.9285,0.5902734779444399,-1.142346990067769
-3.928,0.5796033030867573,-1.407262950196955
-3.9275,0.4622313796522482,-1.174136905283272
-3.927,0.3341892813600565,-0.8244478379127463
-3.9265,0.2274875327832301,-0.4853554089473885
-3.926,0.1527963087794516,-0.2310360872233701
-3.9255,0.2594980573562781,-0.3052125560595421
-3.925,0.4515612047945656,-0.5171453241628908
-3.9245,0.4302208550792003,-0.4111789401112165
-3.924,0.3235191065023739,-0.1886495336027004
-3.9235,0.2168173579255475,0.01268659609548085
-3.923,0.08877525963335578,0.1716361721729923
-3.9225,-0.3273615598162672,0.5001319627331828
-3.922,-0.9462317015618604,0.9345941373450475
-3.9215,-1.212986073003927,1.157123543853563
-3.921,-1.244996597576974,1.188913459069066
-3.9205,-0.8928808272734472,0.701468092431364
-3.92,-0.4767440078238243,0.1080563417419877
-3.9195,-0.156638762093345,-0.3370024712750445
-3.919,0.04609456020262521,-0.5807251545938954
-3.9185,0.1314559590640864,-0.6654982618352349
-3.918,0.1634664836371343,-0.6549016234300674
-3.9175,0.1527963087794516,-0.570128516188728
-3.917,0.142126133921769,-0.474758770542221
-3.9165,0.1207857842064037,-0.3687923864905467
-3.916,0.1101156093487211,-0.252229364033705
-3.9155,0.1101156093487211,-0.1462629799820306
-3.915,0.1101156093487211,-0.05089323433552374
-3.9145,0.1314559590640864,0.08686306493165288
-3.914,-0.02859666380115328,0.5319218779486851
-3.9135,-0.4447334832507763,1.00877060618122
-3.913,-0.8502001278427167,1.29487984312074
-3.9125,-0.7114878546928423,0.8816109453192104
-3.912,-0.274010685527854,0.02328323450064829
-3.9115,0.07810508477567314,-0.570128516188728
-3.911,0.2488278824985954,-0.7608680074817418
-3.9105,0.291508581929326,-0.6654982618352349
-3.91,0.2701682322139607,-0.4641621321370536
-3.9095,0.2168173579255475,-0.252229364033705
-3.909,0.2274875327832301,-0.1780528951975329
-3.9085,0.3448594562177392,-0.3052125560595421
-3.908,0.3341892813600565,-0.2098428104130352
-3.9075,0.2701682322139607,-0.04029659593035631
-3.907,0.1954770082101822,0.1080563417419877
-3.9065,0.1314559590640864,0.2140227257936621
-3.906,-0.1139580626626144,0.4471487707073456
-3.9055,-0.7861790786966207,0.9028042221295453
-3.905,-1.479740444445993,1.326669758336243
-3.9045,-1.959898313041711,1.602182356870596
-3.904,-1.853196564464885,1.326669758336243
-3.9035,-1.244996597576974,0.6060983467848571
-3.903,-0.6261264558313813,-0.07208651114585861
-3.9025,-0.1886492866663929,-0.5065486857577234
-3.902,0.0674349099179905,-0.7078848154559045
-3.9015,0.1741366584948169,-0.7290780922662394
-3.901,0.1954770082101822,-0.6549016234300674
-3.9005,0.1848068333524996,-0.5277419625680583
-3.9,0.1634664836371343,-0.3793890248957141
-3.8995,0.142126133921769,-0.2310360872233701
-3.899,0.1314559590640864,-0.08268314955102604
-3.8985,0.1207857842064037,0.04447651131098315
-3.898,0.142126133921769,0.1610395337678249
-3.8975,0.1527963087794516,0.4789386859228479
-3.897,-0.2633405106701714,0.9769806909657173
-3.8965,-0.6688071552621118,1.326669758336243
-3.896,-0.5834457564006506,1.167720182258731
-3.8955,-0.1139580626626144,0.13984625695749
-3.895,0.291508581929326,-0.8138511995075789
-3.8945,0.4408910299368829,-1.121153713257435
-3.894,0.4302208550792003,-1.036380606016095
-3.8935,0.3448594562177392,-0.8032545611024114
-3.893,0.2488278824985954,-0.570128516188728
-3.8925,0.1954770082101822,-0.3793890248957141
-3.892,0.3128489316446912,-0.4429688553267188
-3.8915,0.3448594562177392,-0.3899856633008816
-3.891,0.291508581929326,-0.2098428104130352
-3.8905,0.2168173579255475,-0.01910331912002144
-3.89,0.1527963087794516,0.1292496185523226
-3.8895,0.05676473506030786,0.2881991946298341
-3.889,-0.4874141826815069,0.701468092431364
-3.8885,-1.244996597576974,1.167720182258731
-3.888,-1.714484291315011,1.506812611224089
-3.8875,-1.746494815888059,1.42203950398275
