Class_8_Think_right_hand_movement/Class_8_Think_Right_hand_mouvement_Suko_7.csv

#Digilent WaveForms Oscilloscope Acquisition
#Device Name: EExplorer
#Serial Number: SN:210151A2B84A
#Date Time: 2021-01-28 10:09:45.961
#Sample rate: 2000Hz
#Samples: 16384
#Trigger: Source: Channel 1 Type: Edge Condition: Rising Level: 0 V Hyst.: Auto HoldOff: 0 s
#Channel 1: Range: 1 V/div Offset: 0 V Attenuation: 1 X
#Channel 2: Range: 1 V/div Offset: 0 V Attenuation: 1 X
#Power Supplies: ON
#Fixed Supply: ON
#Voltage: 3.3 V Readback: 3.324 V
#Positive Supply: ON
#Voltage: 3.7 V Readback: 3.716 V
#Current: 40 mA Readback: 21 mA
#Negative Supply: ON
#Voltage: -3.7 V Readback: -3.347 V
#Current: -40 mA Readback: -7 mA
#Reference 1: ON
#Voltage: 0 V
#Reference 2: ON
#Voltage: 0 V

Time (s),Channel 1 (V),Channel 2 (V)
-4.096,0.3235191065023739,0.2246193641988295
-4.0955,1.123782220827844,1.008770606180506
-4.095,1.860024286008548,1.676358825706749
-4.0945,1.7213120128588,1.655165548896433
-4.094,0.4515612047957205,0.6484849004064424
-4.0935,-0.9569018764205039,-0.4535654937325319
-4.093,-2.013249187330125,-1.163540266878104
-4.0925,-2.1412912856222,-1.078767159636842
-4.092,-1.543761493591535,-0.3475991096794794
-4.0915,-0.9355615267041777,0.457745409112513
-4.091,-0.4980843575391895,1.082947075017392
-4.0905,-0.2313299860970458,1.48561933441387
-4.09,-0.1459685872356623,1.612778995275763
-4.0895,-0.2846808603855366,1.241896651094903
-4.089,-0.5621054066850331,0.574308431569962
-4.0885,-1.06360362499637,-0.07208651114585861
-4.088,-1.597112367880501,-0.4323722169215513
-4.0875,-1.19164572328893,-0.2628260024390266
-4.087,0.06743490991902888,0.5001319627338285
-4.0865,1.209143619690033,1.210106735879401
-4.086,1.433217291701165,1.061753798207192
-4.0855,1.443887466559323,0.3199891098444401
-4.085,1.742652362574165,-0.6654982618352349
-4.0845,1.860024286008567,-1.460246142222069
-4.084,1.50790851570472,-1.545019249463862
-4.0835,1.038420821967111,-1.248313374119443
-4.083,0.707645401378949,-1.036380606016095
-4.0825,0.5155822539406808,-0.9410108603695496
-4.082,0.5369226036560266,-0.8986243067489184
-4.0815,0.3768699807907871,-0.8986243067489184
-4.081,0.1634664836373284,-0.8880276683437606
-4.0805,-0.007256314085787988,-0.8456411147230812
-4.08,-0.09261771294724913,-0.718481453861072
-4.0795,0.2168173579252661,-0.1992461720083401
-4.079,0.9957401225370887,0.6166949851906992
-4.0785,1.774662887147213,1.358459673551745
-4.078,2.020076908873691,1.665762187301321
-4.0775,0.9530594231043105,0.8816109453181599
-4.077,-0.5194247072545548,-0.2734226408440398
-4.0765,-1.671803591883232,-1.142346990066979
-4.076,-1.885207089037525,-1.184733543687851
-4.0755,-1.437059745015262,-0.5383386009732256
-4.075,-0.9142211769888124,0.2246193641988295
-4.0745,-0.5087545323966391,0.8604176685092609
-4.074,-0.2526703358124887,1.284283204715573
-4.0735,-0.1459685872356623,1.528005888034424
-4.073,-0.2206598112393729,1.358459673551899
-4.0725,-0.4554036581084589,0.775644561267536
-4.072,-0.8928808272734472,0.1186529801471552
-4.0715,-1.522421143876151,-0.3370024712746301
-4.071,-1.543761493591089,-0.389985663300313
-4.0705,-0.4447334832507763,0.2352160026039969
-4.07,0.8570278493853221,1.061753798206305
-4.0695,1.315845368266102,1.231300012688955
-4.069,0.4835717293676135,0.3729723018711736
-4.0685,-0.1032878878049318,-0.5171453241628908
-4.068,-0.188649286666325,-1.004590690800679
-4.0675,-0.1139580626626144,-1.0999604364471
-4.067,0.05676473506030786,-1.025783967610927
-4.0665,0.2594980573563848,-0.9622041371799229
-4.066,0.3768699807907871,-0.9622041371799229
-4.0655,0.5155822539406614,-0.8244478379127463
-4.065,0.4835717293676426,-0.7608680074817996
-4.0645,0.2808384070716433,-0.792657922697244
-4.064,0.07810508477567314,-0.8032545611024114
-4.0635,-0.06060718837407504,-0.7396747306714647
-4.063,0.04609456020322689,-0.3687923864898239
-4.0625,0.707645401378949,0.4259554938970107
-4.062,1.539919040277438,1.231300012689003
-4.0615,2.084097958019457,1.782325209758143
-4.061,1.475897991132099,1.453829419198252
-4.0605,0.03542438534494258,0.3411823866556712
-4.06,-1.309017646723788,-0.7078848154563672
-4.0595,-2.098610586191586,-1.216523458903942
-4.059,-1.853196564464885,-0.8350444763179138
-4.0585,-1.266336947292874,-0.04029659593107915
-4.058,-0.7328282044082075,0.7120647308365314
-4.0575,-0.3807124341046804,1.273686566310405
-4.057,-0.1886492866665676,1.623375633680613
-4.0565,-0.1673089369510276,1.644568910491266
-4.056,-0.3593720843893152,1.146526905448396
-4.0555,-0.7008176798348492,0.4683420475182973
-4.055,-1.330357996438775,-0.1144730647667982
-4.0545,-1.703814116457328,-0.4111789401112165
-4.054,-0.9142211769895305,-0.1462629799822716
-4.0535,0.4302208550800543,0.6378882620008606
-4.053,1.369196242555273,1.188913459069066
-4.0525,1.369196242555273,0.8604176685088755
-4.052,1.027750647109098,0.15044289536206
-4.0515,0.6649647019482183,-0.5065486857577234
-4.051,0.4302208550792003,-0.9092209451540858
-4.0505,0.3021787567871251,-1.110557074852084
-4.05,0.2594980573562781,-1.152943628472937
-4.0495,0.2808384070716433,-1.174136905283272
-4.049,0.3768699807906998,-1.057573882826536
-4.0485,0.4729015545098047,-0.8032545611023439
-4.048,0.3341892813600565,-0.7290780922662394
-4.0475,0.1421261339219437,-0.6866915386456083
-4.047,-0.01792648894349003,-0.6019184314040182
-4.0465,-0.03926683865883591,-0.3687923864905467
-4.046,0.4088805053634275,0.2987958330343943
-4.0455,1.198473444833001,1.104140351828315
-4.045,1.913375160297087,1.75053529454294
-4.0445,1.817343586577944,1.718745379327438
-4.044,0.547592778512409,0.7014680924303424
-4.0435,-0.8822106524157645,-0.4217755785163839
-4.043,-1.959898313041711,-1.131750351662602
-4.0425,-2.077270236476114,-1.004590690800708
-4.042,-1.51175096901904,-0.2628260024388724
-4.0415,-0.9355615267041777,0.5319218779486851
-4.041,-0.4980843575395874,1.167720182258153
-4.0405,-0.2420001609547285,1.570392441655238
-4.04,-0.156638762093345,1.729342017732605
-4.0395,-0.2953510352430931,1.36905631195724
-4.039,-0.5407650569703761,0.7332580076462785
-4.0385,-1.042263275281004,0.08686306493165288
-4.038,-1.586442193022324,-0.2522293640333966
-4.0375,-1.180975548429753,0.1186529801478491
-4.037,0.05676473506030786,0.8816109453192104
-4.0365,1.209143619690033,1.496215972818921
-4.036,1.155792745400611,1.114736990231901
-4.0355,0.04609456020262521,0.02328323450064829
-4.035,-0.7328282044082075,-0.7502713690765743
-4.0345,-0.6901475049775159,-0.9833974139900458
-4.034,-0.3273615598162672,-1.025783967610927
-4.0335,0.0674349099179905,-1.025783967610927
-4.033,0.312848931644468,-1.068170521231559
-4.0325,0.4302208550793459,-1.142346990067875
-4.032,0.5902734779444399,-1.258910012524611
-4.0315,0.4835717293677105,-1.174136905283349
-4.031,0.2594980573560937,-0.972800775584888
-4.0305,0.05676473506030786,-0.7502713690765743
-4.03,-0.06060718837409445,-0.5171453241631029
-4.0295,0.2274875327839385,0.04447651131174452
-4.029,1.006410297394063,0.8816109453192104
-4.0285,1.785333062004896,1.602182356870596
-4.028,2.073427783161405,1.89888823221458
-4.0275,1.059761171682476,1.125333628638062
-4.027,-0.423393133535411,-0.09327978795619347
-4.0265,-1.671803591883144,-1.068170521230711
-4.026,-2.482736881068161,-1.523825972653797
-4.0255,-2.130621110764634,-1.110557074852267
-4.025,-1.383708870727528,-0.2946159176551167
-4.0245,-0.7755089038385792,0.4577454091129949
-4.024,-0.3807124341046804,0.9875773293708847
-4.0235,-0.1779791118088946,1.284283204715303
-4.023,-0.1886492866665481,1.157123543853101
-4.0225,-0.3593720843893152,0.6484849004055269
-4.022,-0.722158029550195,0.04447651131153252
-4.0215,-1.362368521011678,-0.4535654937321464
-4.021,-1.575772018165136,-0.7396747306714069
-4.0205,-0.5941159312583333,-0.3158091944647096
-4.02,0.7183155762371944,0.5849050699748691
-4.0195,1.337185717982225,0.9663840525605498
-4.019,0.5689331282290746,0.2670059178194992
-4.0185,-0.5514352318265838,-0.6760949002395445
-4.018,-0.8502001278427167,-1.131750351662602
-4.0175,-0.5087545323968721,-1.163540266878104
-4.017,-0.04993701351693586,-1.078767159636842
-4.0165,0.291508581929491,-1.015187329205731
-4.016,0.4729015545099309,-0.9833974139902578
-4.0155,0.590273477944333,-0.7926579226974175
-4.015,0.5369226036558228,-0.6443049850249193
-4.0145,0.3128489316446912,-0.6654982618352349
-4.014,0.09944543449123253,-0.707884815455866
-4.0135,-0.04993701351646033,-0.6972881770505059
-4.013,0.01408403562957729,-0.4429688553267188
-4.0125,0.6329541773751706,0.309392471440169
-4.012,1.454557641417287,1.114736990233424
-4.0115,2.062757608304644,1.697552102517103
-4.011,1.56125938999356,1.369056311956912
-4.0105,0.1421261339230597,0.245812641010186
-4.01,-1.223656247861609,-0.8032545611024114
-4.0095,-2.162631635337682,-1.407262950196955
-4.009,-2.045259711903279,-1.152943628473168
-4.0085,-1.40504922044169,-0.3581957480846565
-4.008,-0.8288597781273515,0.4365521323021782
-4.0075,-0.4233931335357797,1.040560521396173
-4.007,-0.1993194615240367,1.422039503982807
-4.0065,-0.156638762093345,1.485619334413754
-4.006,-0.3166913849585846,1.040560521396722
-4.0055,-0.6367966306896072,0.3941655786809783
-4.005,-1.234326422719292,-0.1886495336027004
-4.0045,-1.693143941599645,-0.4641621321370536
-4.004,-1.04226327527981,-0.1568596183864656
-4.0035,0.2701682322139607,0.6484849004055269
-4.003,1.283834843693812,1.241896651094903
-4.0025,1.326515543124503,0.8922075837246959
-4.002,1.027750647109428,0.1928294489833272
-4.0015,0.79300680024041,-0.4535654937318862
-4.001,0.6116138276599701,-0.9622041371794603
-4.0005,0.4729015545098241,-1.174136905283329
-4,0.3555296310754218,-1.237716735714276
-3.9995,0.291508581929326,-1.280103289334946
-3.999,0.3021787567870086,-1.34368311976595
-3.9985,0.3661998059331045,-1.333086481360783
-3.998,0.2594980573562781,-1.0999604364471
-3.9975,0.09944543449103843,-0.792657922697244
-3.997,-0.02859666380115328,-0.5065486857577234
-3.9965,-0.08194753808956648,-0.2204394488182027
-3.996,0.2594980573562781,0.2776025562246667
-3.9955,1.059761171682476,0.9981739677760521
-3.995,1.828013761435626,1.623375633680931
-3.9945,1.860024286008674,1.655165548896433
-3.994,0.6542945270905358,0.6696781772158616
-3.9935,-0.7755089038389382,-0.4959520473525559
-3.993,-1.917217613610981,-1.311893204550448
-3.9925,-2.258663209056825,-1.38606967338662
-3.992,-1.682473766741963,-0.718481453861072
-3.9915,-1.042263275281004,0.08686306493165288
-3.991,-0.5621054066852853,0.7332580076468663
-3.9905,-0.2633405106701714,1.167720182258731
-3.99,-0.1459685872356623,1.358459673551745
-3.9895,-0.2420001609548061,1.061753798207057
-3.989,-0.5300948821122373,0.4471487707073456
-3.9885,-1.074273799854052,-0.1780528951975329
-3.988,-1.682473766741963,-0.474758770542221
-3.9875,-1.501080794161358,-0.5065486857577234
-3.987,-0.274010685527854,0.1504428953626575
-3.9865,0.9957401225363802,0.9769806909657173
-3.986,1.145122570543937,0.9557874141553824
-3.9855,0.1207857842064037,0.04447651131098315
-3.985,-0.9035510021311299,-0.9304142219644207
-3.9845,-1.020922925565639,-1.51322933424863
-3.984,-0.6047861061160158,-1.502632695843462
-3.9835,-0.1352984123779797,-1.301296566145281
-3.983,0.2168173579255475,-1.0999604364471
-3.9825,0.408880505363835,-1.025783967610927
-3.982,0.5689331282290746,-1.046977244421262
-3.9815,0.4729015545099309,-1.036380606016095
-3.981,0.2594980573562781,-0.9622041371799229
-3.9805,0.05676473506030786,-0.8456411147230812
-3.98,-0.06060718837420119,-0.6866915386455698
-3.9795,0.1207857842064037,-0.2840192792492073
-3.979,0.8463576745288233,0.4789386859228479
-3.9785,1.657290963712704,1.263089927905238
-3.978,2.052087433446962,1.70814874092227
-3.9775,1.145122570543937,1.093543713422559
-3.977,-0.3166913849585846,-0.06148987274069118
-3.9765,-1.575772018165136,-1.01518732920576
-3.976,-2.365364957633652,-1.449649503817625
-3.9755,-1.991908837614759,-1.004590690800593
-3.975,-1.298347471865388,-0.1886495336027004
-3.9745,-0.7328282044082075,0.5743084315693548
-3.974,-0.3593720843893152,1.114736990232894
-3.9735,-0.156638762093345,1.443232780793084
-3.973,-0.156638762093345,1.358459673551745
-3.9725,-0.3380317346739499,0.849821030103708
-3.972,-0.7328282044082075,0.2140227257936621
-3.9715,-1.351698346153801,-0.326405832869877
-3.971,-1.543761493592088,-0.570128516188728
-3.9705,-0.5621054066852853,-0.1144730647665284
-3.97,0.7396559259519968,0.7438546460520338
-3.9695,1.486568165989782,1.167720182258731
-3.969,1.529248865420512,0.775644561267536
-3.9685,1.774662887147213,-0.1144730647665284
-3.968,2.12677865745074,-1.046977244421262
-3.9675,2.244150580885249,-1.809935209593318
-3.967,1.92404533515477,-2.17022091536901
-3.9665,1.411876941986003,-1.725162102351978
-3.966,0.9317190733902845,-1.301296566145281
-3.9655,0.6756348768059011,-0.8562377531282487
-3.965,0.4729015545099309,-0.5171453241628908
-3.9645,0.2274875327832301,-0.5065486857577234
-3.964,0.02475421048725994,-0.5913217929990628
-3.9635,-0.1032878878049318,-0.6549016234300674
-3.963,-0.02859666380115328,-0.4853554089473885
-3.9625,0.5582629533713921,0.1504428953626575
-3.962,1.379866417412955,0.92399749893988
-3.9615,2.020076908873914,1.517409249629256
-3.961,1.603940089424291,1.305476481525908
-3.9605,0.2168173579255475,0.2458126410091644
-3.96,-1.159635198715513,-0.8138511995075789
-3.9595,-2.151961460479999,-1.47084278062796
-3.959,-2.087940411333903,-1.258910012524611
-3.9585,-1.458400094730627,-0.4959520473525559
-3.958,-0.8715404775580819,0.2881991946298341
-3.9575,-0.4447334832507763,0.9028042221295453
-3.957,-0.2099896363817582,1.29487984312074
-3.9565,-0.156638762093345,1.390249588767247
-3.956,-0.2846808603855366,0.9875773293708847
-3.9555,-0.5621054066852853,0.3623756634660061
-3.955,-1.1062843244271,-0.2098428104130352
-3.9545,-1.586442193022819,-0.4429688553267188
-3.954,-1.010252750707956,-0.05089323433552374
-3.9535,0.2701682322139607,0.7650479228623686
-3.953,1.326515543124542,1.390249588767247
-3.9525,1.529248865420512,1.104140351827727
-3.952,1.326515543124542,0.2776025562246667
-3.9515,0.9850699476786977,-0.4323722169215513
-3.951,0.6329541773751706,-0.8774310299385835
-3.9505,0.3555296310754218,-1.131750351662602
-3.95,0.2381577076409128,-1.216523458903942
-3.9495,0.2168173579255475,-1.237716735714276
-3.949,0.2594980573562781,-1.258910012524611
-3.9485,0.3555296310754218,-1.258910012524611
-3.948,0.2594980573562781,-1.046977244421262
-3.9475,0.1101156093487211,-0.7608680074817418
-3.947,-0.02859666380115328,-0.474758770542221
-3.9465,-0.09261771294724913,-0.1780528951975329
-3.946,0.2274875327832301,0.309392471440169
-3.9455,1.017080472251745,1.029963882991555
-3.945,1.796003236862578,1.676358825706768
-3.9445,1.92404533515477,1.79292184816361
-3.944,0.7823366253827275,0.8604176685088755
-3.9435,-0.6688071552621118,-0.3052125560595421
-3.943,-1.863866739322568,-1.152943628472937
-3.9425,-2.493407055925843,-1.407262950196955
-3.942,-1.959898313041711,-0.8350444763179138
-3.9415,-1.244996597576974,0.002089957690313421
-3.941,-0.690147504977477,0.7226613692416989
-3.9405,-0.3273615598162672,1.210106735879401
-3.94,-0.1673089369510276,1.443232780793084
-3.9395,-0.2313299860971235,1.188913459069066
-3.939,-0.4660738329661415,0.5743084315693548
-3.9385,-0.9142211769888124,-0.08268314955102604
-3.938,-1.51175096901904,-0.474758770542221
-3.9375,-1.447729919872945,-0.5383386009732256
-3.937,-0.3166913849585846,0.1186529801471552
-3.9365,0.9530594231056497,0.9557874141553824
-3.936,1.19847344483235,0.9663840525605498
-3.9355,0.5796033030867573,0.1186529801471552
-3.935,0.3555296310754218,-0.570128516188728
-3.9345,0.2381577076409128,-0.7820612842920766
-3.934,0.1954770082101822,-0.8562377531282487
-3.9335,0.2168173579255475,-0.9516074987747555
-3.933,0.2701682322139607,-1.036380606016095
-3.9325,0.3128489316446912,-1.0999604364471
-3.932,0.4302208550792003,-1.068170521231597
-3.9315,0.3661998059331045,-1.025783967610927
-3.931,0.1954770082101822,-0.9622041371799229
-3.9305,0.02475421048725994,-0.8350444763179138
-3.93,-0.08194753808956648,-0.6654982618352349
-3.9295,0.09944543449103843,-0.1992461720078678
-3.929,0.8036769750980928,0.6166949851900245
-3.9285,1.614610264281974,1.411442865577582
-3.928,2.062757608304644,1.877694955404949
-3.9275,1.241154144263081,1.358459673551745
-3.927,-0.2206598112394408,0.2034260873884947
-3.9265,-1.490410619303675,-0.7820612842920766
-3.926,-2.098610586191586,-1.184733543688439
-3.9255,-1.735824641030376,-0.7078848154559045
-3.925,-1.148965023857831,0.09745970333682032
-3.9245,-0.658136980404429,0.8180311148882058
-3.924,-0.3273615598162672,1.33726639674141
-3.9235,-0.1673089369510276,1.623375633680931
-3.923,-0.1779791118087102,1.528005888034424
-3.9225,-0.3700422592469978,0.9769806909657173
-3.922,-0.722158029550525,0.309392471440169
-3.9215,-1.341028171296118,-0.2416327256285375
-3.921,-1.629122892453549,-0.5171453241628908
-3.9205,-0.722158029550525,-0.1144730647665284
-3.92,0.6116138276598051,0.7332580076468663
-3.9195,1.337185717982225,1.157123543853563
-3.919,0.6009436528021226,0.4789386859228479
-3.9185,-0.6367966306890638,-0.5595318777835605
-3.918,-1.415719395299897,-1.34368311976595
-3.9175,-1.170305373573196,-1.629792356705471
-3.917,-0.5941159312583333,-1.481439419033127
-3.9165,-0.09261771294724913,-1.258910012524611
-3.916,0.2168173579255475,-1.110557074852267
-3.9155,0.4302208550792003,-1.089363798041932
-3.915,0.4835717293676135,-1.131750351662602
-3.9145,0.3341892813600565,-1.110557074852267
-3.914,0.1314559590640864,-1.05757388282643
-3.9135,-0.01792648894347063,-0.9728007755850904
-3.913,-0.02859666380115328,-0.7502713690765743
-3.9125,0.4729015545099309,-0.1356663415768632
-3.912,1.294505018551494,0.7226613692416989
-3.9115,1.977396209443183,1.432636142387917
-3.911,1.678631313428069,1.358459673551745
-3.9105,0.3235191065023739,0.3623756634660061
-3.91,-1.06360362499637,-0.6972881770507372
-3.9095,-2.055929886760855,-1.364876396576285
-3.909,-2.055929886760855,-1.184733543688439
-3.9085,-1.447729919872945,-0.4217755785163839
-3.908,-0.8715404775580819,0.3941655786815084
-3.9075,-0.4447334832507763,1.019367244586387
-3.907,-0.2099896363817582,1.432636142387917
-3.9065,-0.1459685872356623,1.538602526439591
-3.906,-0.3060212101009019,1.125333628638062
-3.9055,-0.6154562809736985,0.457745409112513
-3.905,-1.148965023857831,-0.1462629799820306
-3.9045,-1.682473766741963,-0.5065486857577234
-3.904,-1.191645723288561,-0.3475991096802118
-3.9035,0.1101156093487211,0.4471487707073456
-3.903,1.219813794547716,1.167720182258731
-3.9025,1.51857869056283,0.9875773293708847
-3.902,1.699971663143435,0.08686306493165288
-3.9015,1.571929564851243,-0.6549016234300674
-3.901,1.177133095116985,-0.9728007755850904
-3.9005,0.7716664505250448,-1.089363798041932
-3.9,0.5049120790829789,-1.131750351662602
-3.8995,0.3768699807907871,-1.0999604364471
-3.899,0.3875401556484697,-1.110557074852267
-3.8985,0.5155822539406614,-1.131750351662602
-3.898,0.3982103305061524,-1.025783967610927
-3.8975,0.1954770082101822,-0.8562377531282487
-3.897,0.02475421048725994,-0.6549016234300674
-3.8965,-0.06060718837420119,-0.4323722169215513
-3.896,0.2594980573562781,0.09745970333682032
-3.8955,1.049090996824793,0.8922075837243778
-3.895,1.817343586577944,1.580989080060261
-3.8945,1.966726034585501,1.782325209758442
-3.894,0.8463576745288233,0.9134008605347127
-3.8935,-0.572775581542968,-0.252229364033705
-3.893,-1.255666772434657,-0.8032545611024114
-3.8925,-1.191645723288561,-0.5171453241628908
-3.892,-0.8715404775580819,0.06566978812131802
-3.8915,-0.5514352318276028,0.6378882620003594
-3.891,-0.3166913849585846,1.072350436612224
-3.8905,-0.1886492866663929,1.358459673551745
-3.89,-0.1459685872356623,1.496215972818921
-3.8895,-0.2526703358124887,1.231300012689736
-3.889,-0.5194247072545548,0.6166949851900245
-3.8885,-0.9569018764195432,-0.04029659593035631
-3.888,-1.533091318734406,-0.474758770542221
-3.8875,-1.51175096901904,-0.5807251545938954
-3.887,-0.391382608962363,-0.04029659593035631
-3.8865,0.8890383739595538,0.8074344764830383
-3.886,1.209143619690033,0.9769806909657173
-3.8855,0.7503261008096795,0.4047622170866759
