Class_8_Think_right_hand_movement/Class_8_Think_Right_hand_mouvement_SH_3.csv

#Digilent WaveForms Oscilloscope Acquisition
#Device Name: EExplorer
#Serial Number: SN:210151A2B84A
#Date Time: 2020-12-03 11:54:06.072
#Sample rate: 2000Hz
#Samples: 16384
#Trigger: Source: Channel 1 Type: Edge Condition: Rising Level: 0 V Hyst.: Auto HoldOff: 0 s
#Channel 1: Range: 1 V/div Offset: 0 V Attenuation: 1 X
#Channel 2: Range: 1 V/div Offset: 0 V Attenuation: 1 X
#Power Supplies: ON
#Fixed Supply: ON
#Voltage: 3.3 V Readback: 3.331 V
#Positive Supply: ON
#Voltage: 3.7 V Readback: 3.453 V
#Current: 40 mA Readback: 21 mA
#Negative Supply: ON
#Voltage: -3.7 V Readback: -4.279 V
#Current: -40 mA Readback: -2 mA
#Reference 1: ON
#Voltage: 0 V
#Reference 2: ON
#Voltage: 0 V

Time (s),Channel 1 (V),Channel 2 (V)
-4.096,0.7289857510943143,0.02328323450064829
-4.0955,0.8250173248133706,-0.02969995752514069
-4.095,1.305175193408469,0.1504428953620021
-4.0945,0.5262524287983441,-0.570128516188728
-4.094,-0.5941159312573143,-1.354279758170405
-4.0935,-1.565101843307551,-1.926498232050005
-4.093,-1.67180359188428,-1.75695201756748
-4.0925,-1.05293345013925,-0.8774310299393834
-4.092,-0.3700422592466193,-0.008506680714362495
-4.0915,0.04609456020262521,0.5319218779486851
-4.091,0.291508581929326,0.8392243916985406
-4.0905,0.4088805053638641,0.9875773293709329
-4.09,0.4408910299368829,1.040560521396722
-4.0895,0.4408910299368829,1.040560521396722
-4.089,0.3982103305061912,1.061753798207038
-4.0885,0.3661998059331045,1.082947075017392
-4.088,0.2701682322139607,1.241896651094903
-4.0875,0.08877525963352076,1.347863035146481
-4.087,-0.5300948821129748,0.6802748156199593
-4.0865,-1.341028171296118,-0.4959520473525559
-4.086,-1.842526389606746,-1.481439419032231
-4.0855,-2.20531233476816,-1.958288147265401
-4.085,-1.927887788468663,-1.672178910326141
-4.0845,-1.106284324427847,-0.9198175835599375
-4.084,-0.2953510352427147,-0.2946159176539506
-4.0835,0.2594980573562781,0.1716361721729923
-4.083,0.5582629533713921,0.3729723018711736
-4.0825,0.6756348768059107,0.404762217086618
-4.082,0.6863050516635838,0.3411823866556712
-4.0815,0.8676980242441885,0.07626642652648545
-4.081,0.8783681991018616,0.01268659609553868
-4.0805,0.7609962756673623,0.06566978812131802
-4.08,0.6436243522328531,0.13984625695749
-4.0795,0.5582629533714697,0.2034260873884368
-4.079,0.6116138276603291,0.1716361721731369
-4.0785,1.187803269974668,0.3305857482505039
-4.078,1.518578690562529,0.5637117931639753
-4.0775,0.2808384070704011,-0.4217755785173188
-4.077,-1.084943974711735,-1.449649503817625
-4.0765,-1.725154466172111,-1.852321763213621
-4.076,-1.479740444445381,-1.407262950196174
-4.0755,-0.807519428411986,-0.5489352393783931
-4.075,-0.1673089369510276,0.2246193641988295
-4.0745,0.1848068333526548,0.6590815388109063
-4.074,0.3555296310754218,0.8922075837243778
-4.0735,0.4302208550792003,0.9981739677760521
-4.073,0.4408910299368732,1.029963882991526
-4.0725,0.4195506802215176,1.040560521396722
-4.072,0.3768699807907871,1.072350436612224
-4.0715,0.3341892813600953,1.157123543853486
-4.071,0.2594980573558316,1.337266396741227
-4.0705,-0.2313299860971235,1.135930267043229
-4.07,-1.063603624995613,0.8498210301039683
-4.0695,-1.863866739322975,0.1716361721722406
-4.069,-2.312014083345239,-0.6549016234300674
-4.0685,-2.109280761049269,-0.8986243067489184
-4.068,-1.298347471864621,-0.5807251545935388
-4.0675,-0.4554036581084589,-0.1886495336027004
-4.067,0.1741366584948169,0.09745970333682032
-4.0665,0.5262524287984702,0.2987958330350594
-4.066,0.6649647019482183,0.3623756634660061
-4.0655,0.6756348768059011,0.2987958330350016
-4.065,0.8356874996709952,0.01268659609574108
-4.0645,0.974399772821015,-0.1886495336027004
-4.064,0.8783681991018712,-0.09327978795619347
-4.0635,0.7289857510944502,0.07626642652633124
-4.063,0.6116138276597469,0.2564092794144667
-4.0625,0.5475927785137094,0.4047622170866759
-4.062,0.8463576745285515,0.3093924714402557
-4.0615,1.475897991131798,0.4153588554914385
-4.061,1.145122570543937,-0.02969995752518888
-4.0605,-0.2846808603855366,-1.089363798041932
-4.06,-1.437059745015194,-1.873515040023946
-4.0595,-1.362368521011484,-1.460246142222792
-4.059,-0.9142211769888124,-0.7078848154559045
-4.0585,-0.327361559816801,0.08686306493092999
-4.058,0.1527963087794516,0.6696781772158616
-4.0575,0.3448594562177392,0.9134008605347127
-4.057,0.4195506802214497,0.9981739677759749
-4.0565,0.4302208550792003,0.9981739677760521
-4.056,0.4195506802215176,0.9769806909657173
-4.0555,0.366199805933153,0.9663840525605595
-4.055,0.3128489316446427,1.008770606181345
-4.0545,0.2594980573562781,1.146526905448396
-4.054,-0.03926683865856417,1.167720182258712
-4.0535,-0.8608703027012143,0.7438546460515905
-4.053,-1.757164990745741,0.2564092794143318
-4.0525,-2.365364957633652,-0.6443049850249
-4.052,-2.013249187329339,-0.9516074987745049
-4.0515,-1.148965023857831,-0.6760949002404023
-4.051,-0.3487019095316325,-0.1992461720078678
-4.0505,0.2061471830673602,0.1504428953623395
-4.05,0.5369226036560266,0.3305857482505039
-4.0495,0.6756348768059011,0.3199891098453364
-4.049,0.6969752265212469,0.235216002604074
-4.0485,0.7503261008098639,0.06566978812106744
-4.048,0.9530594231056497,-0.2098428104130352
-4.0475,0.899708548817285,-0.1356663415769306
-4.047,0.7503261008095534,0.07626642652668784
-4.0465,0.6116138276598051,0.2987958330350016
-4.046,0.5262524287984217,0.4789386859226841
-4.0455,0.7289857510949548,0.3941655786817012
-4.045,1.433217291701369,0.6060983467848571
-4.0445,1.657290963712704,0.5743084315693548
-4.044,0.8143471499545623,-0.07208651114677418
-4.0435,-0.5194247072545548,-1.078767159636765
-4.043,-0.9248913518464952,-1.131750351662602
-4.0425,-0.6901475049776905,-0.5913217929995543
-4.042,-0.3593720843893152,-0.06148987274069118
-4.0415,0.02475421048725994,0.4471487707073456
-4.041,0.3128489316444292,0.7968378380775529
-4.0405,0.3875401556484891,0.8922075837243971
-4.04,0.408880505363835,0.9134008605347127
-4.0395,0.3982103305061621,0.9134008605347127
-4.039,0.3768699807907386,0.9239974989399186
-4.0385,0.3235191065023739,0.9663840525605498
-4.038,0.2594980573563363,1.082947075017286
-4.0375,0.1421261339211479,1.199510097473693
-4.037,-0.5407650569699201,0.6060983467848571
-4.0365,-1.394379045584531,-0.3581957480853793
-4.036,-1.938557963326608,-1.333086481361207
-4.0355,-2.226652684483777,-1.79933857118815
-4.035,-1.789175515318789,-1.449649503817625
-4.0345,-0.9569018764203001,-0.7396747306720526
-4.034,-0.2420001609548061,-0.1462629799820306
-4.0335,0.2488278824985954,0.1504428953626575
-4.033,0.5369226036557646,0.2246193641987621
-4.0325,0.6436243522328725,0.26700591781948
-4.032,0.6649647019482183,0.2458126410091644
-4.0315,0.8890383739593499,-0.06148987274041168
-4.031,0.9210488985324853,-0.1462629799819246
-4.0305,0.79300680024041,-0.02969995752518888
-4.03,0.643624352232989,0.129249618552178
-4.0295,0.5369226036560751,0.2458126410091355
-4.029,0.5902734779444399,0.2140227257936621
-4.0285,1.187803269974668,0.2564092794143318
-4.028,1.37986641741216,0.2987958330344812
-4.0275,0.5049120790829789,-0.2734226408440398
-4.027,-0.3487019095316325,-0.7820612842920766
-4.0265,-0.6688071552618207,-0.8032545611023921
-4.026,-1.052933450138687,-0.9304142219644207
-4.0255,-0.7328282044082075,-0.4323722169215513
-4.025,-0.3593720843896548,0.05507314971570726
-4.0245,-0.03926683865854478,0.4365521323024962
-4.024,0.2808384070716433,0.7862411996727035
-4.0235,0.4195506802213915,0.9451907757500704
-4.023,0.4195506802214886,0.955787414155392
-4.0225,0.3875401556484697,0.9663840525605498
-4.022,0.344859456217778,0.9875773293708654
-4.0215,0.3021787567869407,1.051157159802034
-4.021,0.2274875327832301,1.210106735879401
-4.0205,-0.3700422592469978,1.061753798207057
-4.02,-1.309017646723633,0.5849050699737319
-4.0195,-1.927887788468663,-0.2840192792492073
-4.019,-2.215982509626095,-1.110557074852267
-4.0185,-1.735824641030813,-1.142346990067741
-4.018,-0.9142211769888124,-0.5913217929990628
-4.0175,-0.1673089369510276,-0.09327978795619347
-4.017,0.3128489316442545,0.192829448983067
-4.0165,0.5689331282291522,0.2246193641988006
-4.016,0.6542945270905358,0.1928294489833272
-4.0155,0.6436243522328627,0.1610395337678538
-4.015,0.7823366253828343,0.07626642652637944
-4.0145,0.8997085488172365,-0.04029659593035631
-4.014,0.8143471499558529,0.01268659609543266
-4.0135,0.6649647019481213,0.1398462569576057
-4.013,0.5582629533713921,0.2670059178194992
-4.0125,0.5369226036560266,0.383568940276341
-4.012,0.9210488985330967,0.5637117931644862
-4.0115,1.465227816274416,0.8922075837243778
-4.011,0.8783681991018712,0.3623756634660061
-4.0105,-0.1566387620924037,-0.3793890248950395
-4.01,-0.8822106524157645,-0.9092209451540858
-4.0095,-0.839529952985034,-0.7078848154559045
-4.009,-0.4980843575395,-0.220439448818646
-4.0085,-0.7114878546926869,-0.3158091944644686
-4.008,-0.5407650569699201,-0.05089323433552374
-4.0075,-0.2420001609550778,0.2987958330346835
-4.007,-0.01792648894323772,0.5637117931644573
-4.0065,0.2381577076409128,0.8604176685088755
-4.006,0.3982103305061524,1.040560521396722
-4.0055,0.3768699807907386,1.072350436612263
-4.005,0.3235191065023739,1.114736990232894
-4.0045,0.2488278824985954,1.241896651094903
-4.004,-0.07127736323237875,1.178316820663465
-4.0035,-0.6154562809736985,0.701468092431364
-4.003,-1.180975548430879,0.08686306493165288
-4.0025,-1.895877263894965,-0.8880276683428643
-4.002,-2.055929886760855,-1.216523458903942
-4.0015,-1.46907026958831,-0.9198175835592532
-4.001,-0.6474668055474938,-0.5171453241632571
-4.0005,0.03542438534533075,-0.125069703171503
-4,0.4622313796522482,0.08686306493165288
-3.9995,0.6756348768059011,0.1610395337678249
-3.999,0.7183155762366316,0.1504428953626575
-3.9985,0.7716664505250448,0.05507314971615059
-3.998,0.942389248247967,-0.1674562567923655
-3.9975,0.8783681991018712,-0.1780528951975329
-3.997,0.7289857510943143,-0.05089323433552374
-3.9965,0.5902734779444399,0.1186529801471552
-3.996,0.4942419042252961,0.2776025562246667
-3.9955,0.7289857510943143,0.3941655786815084
-3.995,1.401206767128321,0.7438546460520338
-3.9945,1.166462920259302,0.4683420475176805
-3.994,0.1314559590640864,-0.2734226408440398
-3.9935,-0.7328282044082075,-0.8668343915334161
-3.993,-0.839529952985034,-0.7714646458869092
-3.9925,-0.5300948821122373,-0.2416327256285375
-3.992,-0.1459685872356623,0.2987958330350016
-3.9915,0.1527963087794516,0.701468092431364
-3.991,0.3235191065023739,0.9557874141553824
-3.9905,-0.07127736323188383,0.6060983467848571
-3.99,-0.3593720843893152,0.3517790250608387
-3.9895,-0.2206598112394408,0.4895353243280153
-3.989,-0.1032878878049318,0.627291623595192
-3.9885,0.07810508477567314,0.8710143069140429
-3.988,0.2274875327832301,1.167720182258731
-3.9875,0.05676473506030786,1.390249588767247
-3.987,-0.807519428411986,0.9875773293708847
-3.9865,-1.810515865034154,0.3305857482505039
-3.986,-2.44005618163743,-0.7820612842920766
-3.9855,-2.653459678791083,-1.502632695843462
-3.985,-2.151961460479999,-1.38606967338662
-3.9845,-1.212986073003927,-0.792657922697244
-3.984,-0.4127229586777283,-0.2310360872233701
-3.9835,0.142126133921769,0.1080563417419877
-3.983,0.4622313796522482,0.1822328105781598
-3.9825,0.6116138276598051,0.1186529801471552
-3.982,0.6649647019482183,0.06566978812131802
-3.9815,0.8676980242441885,-0.06148987274069118
-3.981,0.8890383739595538,-0.09327978795619347
-3.9805,0.7609962756673623,-0.008506680714854012
-3.98,0.6329541773751706,0.08686306493165288
-3.9795,0.5262524287983441,0.1822328105781598
-3.979,0.6116138276598051,0.1292496185523226
-3.9785,1.241154144263081,0.04447651131098315
-3.978,1.497238340847464,0.1080563417419877
-3.9775,0.5796033030867573,-0.4535654937318862
-3.977,-0.5087545323968721,-1.025783967610927
-3.9765,-0.9995825758502737,-1.152943628472937
-3.976,-0.7861790786966207,-0.6443049850249
-3.9755,-0.3700422592469978,0.002089957690313421
-3.975,0.01408403562957729,0.5213252395435176
-3.9745,0.2594980573562781,0.8604176685088755
-3.974,0.3982103305061524,1.040560521396722
-3.9735,0.4408910299368829,1.114736990232894
-3.973,0.4408910299368829,1.114736990232894
-3.9725,0.1848068333524996,0.8710143069140429
-3.972,-0.4340633083930936,0.3305857482505039
-3.9715,-0.3487019095316325,0.457745409112513
-3.971,-0.2633405106701714,0.6908714540261965
-3.9705,-0.5941159312583333,0.5637117931641874
-3.97,-1.26633694729234,0.309392471440169
-3.9695,-2.045259711903173,-0.474758770542221
-3.969,-2.546757930214257,-1.34368311976595
-3.9685,-2.215982509626095,-1.396666311791788
-3.968,-1.341028171296118,-0.9198175835592532
-3.9675,-0.4874141826815069,-0.3687923864905467
-3.967,0.142126133921769,0.01268659609548085
-3.9665,0.5262524287983441,0.2246193641988295
-3.966,0.707645401378949,0.2670059178194992
-3.9655,0.7183155762366316,0.1822328105781598
-3.965,0.8356874996711408,-0.1038764263613609
-3.9645,0.9103787236749192,-0.3158091944647096
-3.964,0.8036769750980928,-0.2310360872233701
-3.9635,0.6649647019482183,-0.07208651114585861
-3.963,0.5689331282290746,0.06566978812131802
-3.9625,0.5689331282290746,0.13984625695749
-3.962,0.6222840025174878,-0.2416327256285375
-3.9615,0.6863050516635838,-0.3475991096802118
-3.961,0.03542438534494258,-0.8032545611024114
-3.9605,-0.839529952985034,-1.269506650929778
-3.96,-1.426389570157579,-1.555615887869299
-3.9595,-1.212986073003927,-1.0999604364471
-3.959,-0.6688071552621118,-0.3581957480853793
-3.9585,-0.1459685872356623,0.2987958330350016
-3.958,0.1954770082101822,0.7332580076468663
-3.9575,0.3875401556484697,0.9663840525605498
-3.957,0.4515612047945656,1.051157159801889
-3.9565,0.4729015545099309,1.072350436612224
-3.956,0.4408910299368829,1.040560521396722
-3.9555,0.3982103305061524,1.019367244586387
-3.955,0.3448594562177392,1.029963882991555
-3.9545,0.1954770082101822,1.061753798207057
-3.954,-0.7328282044082075,0.4471487707073456
-3.9535,-1.586442193022819,-0.1462629799820306
-3.953,-2.386705307349017,-0.6866915386455698
-3.9525,-2.941554399948514,-1.492036057438295
-3.952,-2.514747405641209,-1.51322933424863
-3.9515,-1.51175096901904,-0.9198175835592532
-3.951,-0.5514352318276028,-0.4111789401112165
-3.9505,0.1527963087794516,-0.08268314955102604
-3.95,0.5582629533713921,0.13984625695749
-3.9495,0.707645401378949,0.2246193641988295
-3.949,0.7289857510943143,0.1822328105781598
-3.9485,0.7823366253827275,0.02328323450064829
-3.948,0.942389248247967,-0.2628260024388724
-3.9475,0.8783681991018712,-0.2204394488182027
-3.947,0.7289857510943143,-0.04029659593035631
-3.9465,0.5902734779444399,0.1292496185523226
-3.946,0.5155822539406614,0.2458126410091644
-3.9455,0.7823366253827275,0.1080563417419877
-3.945,1.454557641416734,0.3517790250608387
-3.9445,1.19847344483235,0.07626642652648545
-3.944,0.1207857842064037,-0.6866915386455698
-3.9435,-0.8715404775580819,-1.301296566145281
-3.943,-1.042263275281004,-1.195330182093607
-3.9425,-0.690147504977477,-0.570128516188728
-3.942,-0.2313299860971235,0.08686306493165288
-3.9415,0.1207857842064037,0.5743084315693548
-3.941,0.3341892813600565,0.8710143069140429
-3.9405,0.4302208550792003,1.019367244586387
-3.94,0.4622313796522482,1.072350436612224
-3.9395,0.4515612047945656,1.072350436612224
-3.939,0.408880505363835,1.072350436612224
-3.9385,0.3448594562177392,1.093543713422559
-3.938,0.291508581929326,1.178316820663898
-3.9375,0.1527963087794516,1.29487984312074
-3.937,-0.1886492866663929,1.061753798207057
-3.9365,-0.2953510352432193,0.9875773293708847
-3.936,-1.148965023857831,-0.04029659593035631
-3.9355,-2.258663209056825,-1.449649503817625
-3.935,-2.215982509626095,-1.672178910326141
-3.9345,-1.501080794161358,-1.216523458903942
-3.934,-0.6047861061160158,-0.5489352393783931
-3.9335,0.1741366584948169,-0.07208651114585861
-3.933,0.5796033030867573,0.1080563417419877
-3.9325,0.6969752265212663,0.1610395337678249
-3.932,0.707645401378949,0.13984625695749
-3.9315,0.9210488985326017,-0.1886495336027004
-3.931,0.942389248247967,-0.3052125560595421
-3.9305,0.8143471499557753,-0.1674562567923655
-3.93,0.6756348768059011,-0.02969995752518888
-3.9295,0.5689331282290746,0.09745970333682032
-3.929,0.6436243522328531,0.002089957690313421
-3.9285,1.251824319120764,-0.1568596183871981
-3.928,1.411876941986003,-0.2098428104130352
-3.9275,0.3661998059331045,-0.8456411147230812
-3.927,-0.7968492535543035,-1.439052865412457
-3.9265,-1.30901764672307,-1.587405803084801
-3.926,-1.031593100423322,-0.9833974139902578
-3.9255,-0.5087545323968721,-0.2310360872233701
-3.925,-0.04993701351651855,0.3729723018711736
-3.9245,0.2488278824985954,0.7544512844572011
-3.924,0.408880505363835,0.9557874141553824
-3.9235,0.4622313796522482,1.040560521396722
-3.923,0.4729015545099309,1.051157159801889
-3.9225,0.4302208550792003,1.040560521396722
-3.922,0.3768699807907871,1.040560521396722
-3.9215,0.3128489316446912,1.093543713422559
-3.921,0.2168173579255475,1.241896651094903
-3.9205,-0.2206598112394408,1.051157159801889
-3.92,-0.9569018764195432,0.7544512844572011
-3.9195,-1.650463242168915,0.1822328105781598
-3.919,-2.002579012472442,-0.5595318777835605
-3.9185,-1.415719395299897,-0.7714646458869092
-3.918,-0.7861790786966207,-0.6549016234300674
-3.9175,-0.7328282044082075,-0.9198175835592532
-3.917,-0.2846808603855366,-0.6231117082145651
-3.9165,0.05676473506030786,-0.3475991096802118
-3.916,0.2808384070716433,-0.1568596183871981
-3.9155,0.5049120790829789,0.06566978812131802
-3.915,0.7823366253827275,-0.05089323433552374
-3.9145,0.8997085488172365,-0.252229364033705
-3.914,0.8036769750980928,-0.1674562567923655
-3.9135,0.6649647019482183,-0.008506680714854012
-3.913,0.5475927785137094,0.1292496185523226
-3.9125,0.5049120790829789,0.2140227257936621
-3.912,0.9210488985326017,0.1822328105781598
-3.9115,1.369196242555273,0.3517790250608387
-3.911,0.5582629533713921,-0.326405832869877
-3.9105,-0.5941159312583333,-1.121153713257435
-3.91,-1.405049220442214,-1.672178910326141
-3.9095,-1.298347471865388,-1.322489842955616
-3.909,-0.754168554123573,-0.5595318777835605
-3.9085,-0.2206598112394408,0.13984625695749
-3.908,0.1634664836371343,0.6378882620003594
-3.9075,0.3768699807907871,0.92399749893988
-3.907,0.4622313796522482,1.040560521396722
-3.9065,0.4835717293676135,1.072350436612224
-3.906,0.4515612047945656,1.061753798207057
-3.9055,0.408880505363835,1.051157159801889
-3.905,0.3661998059331045,1.082947075017392
-3.9045,0.3128489316446912,1.188913459069066
-3.904,0.04609456020262521,1.188913459069066
-3.9035,-0.3060212101009019,0.8816109453192104
-3.903,-0.6154562809736985,0.5637117931641874
-3.9025,-1.138294849000148,-0.2204394488182027
-3.902,-1.084943974711735,-0.5807251545938954
-3.9015,-0.6154562809736985,-0.4853554089473885
-3.901,-0.08194753808956648,-0.2628260024388724
-3.9005,0.2701682322139607,-0.1674562567923655
-3.9,-0.08194753808956648,-0.6443049850249
-3.8995,-0.03926683865883591,-0.6019184314042303
-3.899,0.08877525963335578,-0.4535654937318862
-3.8985,0.3128489316446912,-0.4323722169215513
-3.898,0.7716664505250448,-0.4853554089473885
-3.8975,0.8676980242441885,-0.2946159176543747
-3.897,0.7396559259519968,-0.08268314955102604
-3.8965,0.6009436528021226,0.1080563417419877
-3.896,0.5049120790829789,0.2564092794143318
-3.8955,0.6969752265212663,0.1292496185523226
-3.895,1.283834843693812,0.309392471440169
-3.8945,0.9850699476786977,-0.02969995752518888
-3.894,-0.06060718837420119,-0.8880276683437509
-3.8935,-0.7755089038389382,-1.38606967338662
-3.893,-0.7328282044082075,-1.025783967610927
-3.8925,-0.391382608962363,-0.3687923864905467
-3.892,-0.03926683865883591,0.2352160026039969
-3.8915,0.2274875327832301,0.6484849004055269
-3.891,0.3768699807907871,0.8816109453192104
-3.8905,0.4408910299368829,0.9981739677760521
-3.89,0.4515612047945656,1.019367244586387
-3.8895,0.4408910299368829,1.00877060618122
-3.889,0.3982103305061524,0.9981739677760521
-3.8885,0.3448594562177392,1.029963882991555
-3.888,0.3128489316446912,1.114736990232894
-3.8875,0.1954770082101822,1.241896651094903
-3.887,-0.2313299860971235,1.00877060618122
-3.8865,-0.5834457564006506,0.9663840525605498
-3.886,-1.138294849000148,0.2776025562246667
