Class_8_Think_right_hand_movement/Class_8_Think_Right_hand_mouvement_AM_6.csv

#Digilent WaveForms Oscilloscope Acquisition
#Device Name: EExplorer
#Serial Number: SN:210151A2B84A
#Date Time: 2020-12-06 11:00:26.801
#Sample rate: 2000Hz
#Samples: 16384
#Trigger: Source: Channel 1 Type: Edge Condition: Rising Level: 0 V Hyst.: Auto HoldOff: 0 s
#Channel 1: Range: 1 V/div Offset: 0 V Attenuation: 1 X
#Channel 2: Range: 1 V/div Offset: 0 V Attenuation: 1 X
#Power Supplies: ON
#Fixed Supply: ON
#Voltage: 3.3 V Readback: 3.317 V
#Positive Supply: ON
#Voltage: 3.7 V Readback: 3.747 V
#Current: 40 mA Readback: 21 mA
#Negative Supply: ON
#Voltage: -3.7 V Readback: -3.581 V
#Current: -40 mA Readback: 0 A
#Reference 1: ON
#Voltage: 0 V
#Reference 2: ON
#Voltage: 0 V

Time (s),Channel 1 (V),Channel 2 (V)
-4.096,0.7716664505250448,0.6908714540261965
-4.0955,0.3235191065027814,0.1080563417425178
-4.095,-0.3487019095315355,-0.7396747306714551
-4.0945,-0.2420001609548061,-0.792657922697244
-4.094,-0.5621054066849942,-0.4959520473528258
-4.0935,-1.330357996438746,0.2246193641990897
-4.093,-1.67180359188428,0.5107286011383502
-4.0925,-2.002579012472141,-0.0614898727401707
-4.092,-2.578768454787246,0.03387987290603738
-4.0915,-2.514747405641209,0.2776025562246667
-4.091,-1.67180359188428,0.06566978812131802
-4.0905,-0.7648387289806441,-0.241632725628711
-4.09,-0.09261771294724913,-0.4323722169215513
-4.0895,0.3021787567870086,-0.4641621321370536
-4.089,0.4835717293674485,-0.3475991096803179
-4.0885,0.5155822539406614,-0.1568596183871981
-4.088,0.4835717293676135,0.07626642652648545
-4.0875,0.4302208550792488,0.2987958330347992
-4.087,0.3875401556484406,0.5001319627333852
-4.0865,0.3555296310754218,0.7226613692416989
-4.086,0.2168173579256736,0.7968378380778034
-4.0855,-0.4340633083936953,0.3093924714396967
-4.085,-1.095614149569417,-0.2098428104130352
-4.0845,-1.255666772434511,-0.4217755785161912
-4.084,-0.7968492535532845,-0.6654982618354084
-4.0835,0.3235191065023739,-0.8562377531282487
-4.083,1.177133095116985,-0.9410108603695881
-4.0825,1.561259389993551,-0.919817583558993
-4.082,1.550589215135878,-0.6337083466197325
-4.0815,1.305175193409177,-0.01910331912002144
-4.081,1.006410297394335,0.5531151547584996
-4.0805,0.7823366253827275,0.9134008605347127
-4.08,0.7823366253827275,1.167720182258731
-4.0795,0.7183155762366897,1.02996388299168
-4.079,0.6009436528020352,0.6484849004051317
-4.0785,0.5049120790829789,0.2140227257936621
-4.078,0.4408910299369412,-0.146262979981703
-4.0775,0.16346648363629,-0.09327978795593327
-4.077,-0.7648387289812555,0.1928294489833272
-4.0765,-1.991908837613643,0.002089957690486893
-4.076,-2.173301810195626,-0.1144730647662971
-4.0755,-2.461396531352796,0.13984625695749
-4.075,-2.290673733629873,0.457745409112513
-4.0745,-1.41571939529913,0.2881991946294872
-4.074,-0.572775581542968,-0.09327978795619347
-4.0735,-0.02859666380115328,-0.4111789401112165
-4.073,0.2915085819290348,-0.5171453241627945
-4.0725,0.4302208550792003,-0.4217755785163839
-4.072,0.4729015545099309,-0.2098428104130352
-4.0715,0.4729015545099309,0.08686306493138304
-4.071,0.4408910299368539,0.3623756634662278
-4.0705,0.408880505363835,0.6060983467848571
-4.07,0.3768699807908162,0.8180311148880131
-4.0695,0.344859456217351,0.9451907757499355
-4.069,-0.08194753808956648,0.6378882620003594
-4.0685,-0.7861790786966207,0.02328323450064829
-4.068,-1.063603624996098,-0.2522293640339459
-4.0675,-0.7648387289812555,-0.5171453241628908
-4.067,0.2488278824985954,-0.7714646458869092
-4.0665,1.081101521398239,-0.9198175835592918
-4.066,1.51857869056283,-0.9622041371799229
-4.0655,1.571929564851243,-0.8032545611024114
-4.065,1.369196242555457,-0.3052125560599951
-4.0645,1.091771696255524,0.383568940276341
-4.064,0.8356874996711408,0.7968378380778709
-4.0635,0.771666450525103,0.9663840525603956
-4.063,0.7183155762365345,0.902804222129314
-4.0625,0.6116138276598051,0.6484849004055269
-4.062,0.5049120790830759,0.3199891098456352
-4.0615,0.4302208550791227,-0.02969995752535272
-4.061,0.3448594562177392,-0.2098428104130352
-4.0605,-0.02859666380115328,0.13984625695749
-4.06,-0.6688071552626552,0.5425185163536212
-4.0595,-1.26633694729234,0.2881991946298341
-4.059,-1.607782542738184,0.2140227257936621
-4.0585,-1.618452717595857,0.267005917819451
-4.058,-1.693143941599645,-0.5595318777835605
-4.0575,-0.9995825758502737,-0.7714646458869092
-4.057,-0.4554036581089538,-0.8880276683436449
-4.0565,-0.07127736323188383,-0.8350444763179138
-4.056,0.2594980573562781,-0.570128516188728
-4.0555,0.4302208550790451,-0.2946159176546252
-4.055,0.4408910299368539,-0.1038764263611874
-4.0545,0.408880505363835,0.08686306493165288
-4.054,0.3661998059331433,0.2564092794141776
-4.0535,0.3448594562177197,0.4365521323022842
-4.053,0.3235191065023739,0.55311515475902
-4.0525,0.01408403562957729,0.2881991946298341
-4.052,-0.7755089038394913,-0.4111789401116984
-4.0515,-1.383708870726849,-0.9410108603695881
-4.051,-1.629122892453549,-1.311893204550448
-4.0505,-0.7541685541243688,-1.502632695843289
-4.05,0.2808384070716433,-1.534422611058964
-4.0495,0.9957401225363802,-1.417859588602123
-4.049,1.294505018551222,-1.131750351662862
-4.0485,1.262494493978262,-0.5913217929984268
-4.048,1.059761171682476,0.1080563417419877
-4.0475,0.8570278493866904,0.6484849004050354
-4.047,0.7716664505250933,0.8392243916984539
-4.0465,0.825017324813458,0.7438546460520338
-4.046,0.7289857510944017,0.627291623595298
-4.0455,0.6009436528020256,0.4577454091123299
-4.045,0.4942419042252961,0.2564092794143318
-4.0445,0.408880505363835,0.07626642652648545
-4.044,-0.0285966638018423,0.3623756634664976
-4.0435,-0.7861790786966207,0.9028042221295453
-4.043,-1.405049220442214,0.8604176685088755
-4.0425,-1.885207089037496,0.5531151547592994
-4.042,-2.333354433060604,0.8392243916985406
-4.0415,-2.03458953704549,0.9451907757502149
-4.041,-1.138294849000963,0.5425185163542188
-4.0405,-0.4127229586778157,0.05507314971530248
-4.04,-0.5087545323968721,-0.8774310299385835
-4.0395,-0.4554036581085074,-1.248313374119106
-4.039,-0.1779791118085744,-1.068170521231356
-4.0385,-0.02859666380115328,-0.8032545611024114
-4.038,0.1527963087792867,-0.4323722169218887
-4.0375,0.3235191065023933,-0.06148987274048879
-4.037,0.3448594562177392,0.1610395337678249
-4.0365,0.3235191065023739,0.3411823866556712
-4.036,0.1954770082095417,0.3623756634654568
-4.0355,-0.5087545323968721,-0.2416327256285375
-4.035,-1.26633694729234,-0.9092209451540858
-4.0345,-1.746494815887622,-1.407262950196502
-4.034,-1.565101843307454,-1.629792356705471
-4.0335,-0.658136980404429,-1.640388995110639
-4.033,0.3128489316438081,-1.534422611059061
-4.0325,0.9423892482481611,-1.301296566144789
-4.032,1.15579274540162,-0.7608680074817418
-4.0315,1.102441871113255,-0.08268314955164291
-4.031,0.9637295979632257,0.5107286011387164
-4.0305,0.8463576745288233,0.9134008605347127
-4.03,0.9850699476785716,1.220703374284289
-4.0295,0.9317190733901292,1.104140351827409
-4.029,0.7609962756673623,0.7544512844572011
-4.0285,0.6009436528021226,0.3517790250608387
-4.028,0.4835717293673515,0.01268659609548085
-4.0275,0.1954770082101822,0.01268659609548085
-4.027,-0.3273615598162672,0.5319218779486851
-4.0265,-0.9569018764189706,0.7862411996724721
-4.026,-1.415719395299897,0.4047622170866759
-4.0255,-1.714484291315011,0.6060983467848571
-4.025,-1.490410619303879,0.7756445612673818
-4.0245,-0.8715404775575385,0.4895353243276876
-4.024,-0.274010685527854,0.1292496185523226
-4.0235,0.1314559590637176,-0.1144730647663067
-4.023,0.3555296310755091,-0.1992461720078293
-4.0225,0.4515612047945656,-0.1568596183871981
-4.022,0.4622313796522385,-0.02969995752530455
-4.0215,-0.1779791118089334,-0.485355408947427
-4.021,-0.423393133535411,-0.5277419625680583
-4.0205,-0.274010685527854,-0.1780528951975329
-4.02,-0.1566387620931994,0.09745970333705162
-4.0195,0.00341386077189465,0.3517790250608387
-4.019,-0.3380317346739499,0.03387987290581572
-4.0185,-1.106284324426401,-0.6972881770500722
-4.018,-1.650463242168915,-1.269506650929778
-4.0175,-1.362368521011484,-1.640388995110639
-4.017,-0.2420001609558251,-1.87351504002411
-4.0165,0.7183155762371362,-1.905304955239699
-4.016,1.273164668836129,-1.767548655972648
-4.0155,1.42254711684355,-1.354279758171494
-4.015,1.262494493978233,-0.5489352393776702
-4.0145,1.027750647109428,0.2458126410091644
-4.014,0.8143471499559694,0.7544512844567386
-4.0135,0.8143471499557462,0.8922075837243585
-4.013,0.7823366253827275,0.8710143069140429
-4.0125,0.6756348768059011,0.7120647308365314
-4.012,0.5582629533713145,0.4789386859226262
-4.0115,0.4729015545099309,0.2352160026039969
-4.011,0.3021787567870086,0.1504428953626575
-4.0105,-0.4020527838194052,0.5955017083792848
-4.01,-1.234326422719292,1.125333628638062
-4.0095,-1.735824641030376,1.019367244586387
-4.009,-1.906547438753143,0.9028042221296513
-4.0085,-1.799845690175899,1.01936724458605
-4.008,-1.170305373573196,0.6484849004055269
-4.0075,-0.498084357539801,0.118652980147637
-4.007,0.01408403562984902,-0.2734226408442133
-4.0065,0.3128489316446912,-0.4641621321370536
-4.006,0.4408910299368829,-0.474758770542221
-4.0055,0.4729015545099212,-0.3475991096800384
-4.005,0.4622313796522482,-0.1568596183871981
-4.0045,0.4302208550792003,0.06566978812131802
-4.004,0.3875401556484309,0.2564092794144763
-4.0035,0.3448594562177392,0.4153588554918433
-4.003,-0.08194753808956648,0.1186529801471552
-4.0025,-0.8502001278420179,-0.5807251545932594
-4.002,-1.330357996438436,-0.9939940523954253
-4.0015,-1.714484291315011,-1.258910012524611
-4.001,-1.789175515318721,-1.386069673386505
-4.0005,-0.9142211769876576,-1.460246142222879
-4,0.3555296310754218,-1.555615887869299
-3.9995,1.15579274540162,-1.587405803084801
-3.999,1.475897991132099,-1.38606967338662
-3.9985,1.422547116843686,-0.8562377531282487
-3.998,1.177133095116985,-0.07208651114585861
-3.9975,0.9317190733902845,0.55311515475902
-3.997,0.8143471499557753,0.9663840525605498
-3.9965,0.825017324813458,1.188913459069066
-3.996,0.7289857510943143,1.040560521396722
-3.9955,0.6009436528021226,0.6908714540261965
-3.995,0.4942419042252961,0.309392471440169
-3.9945,0.3982103305061524,0.002089957690313421
-3.994,-0.04993701351651855,0.2034260873884947
-3.9935,-0.8608703027003992,0.7226613692416989
-3.993,-1.565101843307454,0.5955017083796896
-3.9925,-2.19464215991073,-0.1356663415768632
-3.992,-2.738821077652544,0.03387987290581572
-3.9915,-2.429386006779747,0.4259554938970107
-3.991,-1.415719395299897,0.3517790250608387
-3.9905,-0.5514352318276028,0.1186529801471552
-3.99,0.03542438534494258,-0.07208651114585861
-3.9895,0.3555296310754218,-0.1674562567923655
-3.989,0.4942419042252961,-0.1674562567923655
-3.9885,0.5049120790829789,-0.09327978795619347
-3.988,0.4835717293676135,0.03387987290581572
-3.9875,0.4195506802215176,0.1080563417419877
-3.987,0.3661998059331045,0.13984625695749
-3.9865,0.3341892813600565,0.1928294489833272
-3.986,0.1954770082101822,0.1080563417419877
-3.9855,-0.391382608962363,-0.3475991096802118
-3.985,-1.543761493592088,-1.354279758171118
-3.9845,-2.07727023647622,-1.937094870455327
-3.984,-1.735824641030376,-2.096044446532838
-3.9835,-0.7434983792658902,-2.159624276963843
-3.983,0.2701682322139607,-1.937094870455327
-3.9825,0.9850699476786977,-1.566212526274467
-3.982,1.19847344483235,-0.9939940523954253
-3.9815,1.091771696255524,-0.1886495336027004
-3.981,0.9103787236749192,0.5425185163538525
-3.9805,0.7716664505250448,1.029963882991555
-3.98,0.7716664505250448,1.305476481525908
-3.9795,0.7183155762366316,1.273686566310405
-3.979,0.6222840025174878,1.040560521396722
-3.9785,0.5262524287983441,0.7226613692416989
-3.978,0.4622313796522482,0.4259554938970107
-3.9775,0.2168173579255475,0.5107286011383502
-3.977,-0.5087545323968721,1.019367244586387
-3.9765,-1.26633694729234,1.135930267043229
-3.976,-1.746494815888059,0.5849050699745222
-3.9755,-2.23732285934146,0.701468092431364
-3.975,-2.354694782775969,1.00877060618122
-3.9745,-1.575772018165136,0.7544512844572011
-3.974,-0.7434983792658902,0.2881991946298341
-3.9735,-0.1032878878049318,-0.08268314955102604
-3.973,0.2808384070716433,-0.2946159176543747
-3.9725,0.4515612047945656,-0.326405832869877
-3.972,0.5049120790829789,-0.252229364033705
-3.9715,0.4942419042252961,-0.1250697031716958
-3.971,0.4302208550792003,0.01268659609548085
-3.9705,0.3875401556484697,0.13984625695749
-3.97,0.3555296310754218,0.2564092794143318
-3.9695,0.3235191065023739,0.3199891098453364
-3.969,-0.08194753808956648,0.06566978812131802
-3.9685,-0.722158029550525,-0.4111789401112165
-3.968,-1.148965023857831,-0.8032545611024114
-3.9675,-1.970568487899394,-1.650985633515806
-3.967,-1.383708870726849,-1.746355379162313
-3.9665,-0.4767440078238243,-1.608599079895136
-3.966,0.2381577076409128,-1.311893204550448
-3.9655,0.7609962756673623,-0.7396747306714069
-3.965,0.9850699476786977,-0.01910331912002144
-3.9645,0.9103787236749192,0.5743084315693548
-3.964,0.7716664505250448,0.9451907757502149
-3.9635,0.825017324813458,1.241896651094903
-3.963,0.8356874996711408,1.273686566310405
-3.9625,0.7289857510943143,1.029963882991555
-3.962,0.6116138276598051,0.6696781772158616
-3.9615,0.5262524287983441,0.3199891098453364
-3.961,0.3555296310754218,0.2034260873884947
-3.9605,-0.3273615598162672,0.6378882620003594
-3.96,-1.255666772434657,1.135930267043229
-3.9595,-1.83185621474952,0.9134008605347127
-3.959,-2.280003558772191,0.7438546460520338
-3.9585,-2.653459678791083,0.9769806909657173
-3.958,-2.023919362187807,0.8074344764830383
-3.9575,-1.095614149569417,0.2987958330350016
-3.957,-0.3273615598162672,-0.1674562567923655
-3.9565,0.1741366584948169,-0.4217755785163839
-3.956,0.4302208550792003,-0.474758770542221
-3.9555,0.5155822539406614,-0.3899856633008816
-3.955,0.5155822539406614,-0.1992461720078678
-3.9545,0.4729015545099309,-0.02969995752518888
-3.954,0.3875401556484697,0.06566978812131802
-3.9535,0.3341892813600565,0.2140227257936621
-3.953,0.3128489316446912,0.4047622170866759
-3.9525,0.08877525963335578,0.3199891098453364
-3.952,-0.5514352318276028,-0.08268314955102604
-3.9515,-1.084943974711735,-0.4323722169215513
-3.951,-1.319687821580753,-0.6443049850249
-3.9505,-0.8502001278427167,-0.7502713690765743
-3.95,-0.4020527838200457,-1.184733543688439
-3.9495,-0.04993701351651855,-1.545019249464132
-3.949,0.4835717293676135,-1.216523458903942
-3.9485,0.6436243522328531,-0.5913217929990628
-3.948,0.707645401378949,0.1610395337678249
-3.9475,0.7609962756673623,0.7650479228623686
-3.947,0.7396559259519968,1.061753798207057
-3.9465,0.7609962756673623,1.135930267043229
-3.946,0.6863050516635838,0.9769806909657173
-3.9455,0.5902734779444399,0.6696781772158616
-3.945,0.5049120790829789,0.3305857482505039
-3.9445,0.4195506802215176,0.07626642652648545
-3.944,-0.1673089369510276,0.3199891098453364
-3.9435,-1.148965023857831,0.8604176685088755
-3.943,-1.810515865034154,0.9345941373450475
-3.9425,-2.247993034199143,0.6484849004055269
-3.942,-2.738821077652544,0.849821030103708
-3.9415,-2.408045657064382,0.8710143069140429
-3.941,-1.426389570157579,0.4047622170866759
-3.9405,-0.5514352318276028,-0.09327978795619347
-3.94,0.04609456020262521,-0.4111789401112165
-3.9395,0.3768699807907871,-0.5277419625680583
-3.939,0.5155822539406614,-0.4535654937318862
-3.9385,0.5369226036560266,-0.2840192792492073
-3.938,0.5049120790829789,-0.05089323433552374
-3.9375,0.4408910299368829,0.13984625695749
-3.937,0.3661998059331045,0.2670059178194992
-3.9365,0.3341892813600565,0.4153588554918433
-3.936,0.2701682322139607,0.5425185163538525
-3.9355,-0.1886492866663929,0.2246193641988295
-3.935,-0.7434983792658902,-0.2416327256285375
-3.9345,-1.020922925565639,-0.570128516188728
-3.934,-0.4874141826815069,-0.6972881770507372
-3.9335,0.4302208550792003,-0.7396747306714069
-3.933,0.7396559259519968,-1.131750351662602
-3.9325,0.8036769750980928,-1.460246142222792
-3.932,0.9957401225363802,-1.068170521231597
-3.9315,0.9103787236749192,-0.4111789401112165
-3.931,0.8356874996711408,0.2670059178194992
-3.9305,0.8463576745288233,0.849821030103708
-3.93,0.8676980242441885,1.199510097474233
-3.9295,0.7716664505250448,1.104140351827727
-3.929,0.6329541773751706,0.7650479228623686
-3.9285,0.5262524287983441,0.3941655786815084
-3.928,0.4622313796522482,0.05507314971615059
-3.9275,0.08877525963335578,0.09745970333682032
-3.927,-0.8181896032696687,0.6166949851900245
-3.9265,-1.629122892453549,0.9028042221295453
-3.926,-2.151961460479999,0.1822328105781598
-3.9255,-2.696140378221814,-0.1886495336027004
-3.925,-2.557428105071939,0.13984625695749
-3.9245,-1.575772018165136,0.1716361721729923
-3.924,-0.6688071552621118,0.04447651131098315
-3.9235,-0.01792648894347063,-0.08268314955102604
-3.923,0.3448594562177392,-0.1356663415768632
-3.9225,0.5049120790829789,-0.1144730647665284
-3.922,0.5369226036560266,-0.02969995752518888
-3.9215,0.5155822539406614,0.08686306493165288
-3.921,0.4622313796522482,0.1822328105781598
-3.9205,0.4302208550792003,0.309392471440169
-3.92,0.408880505363835,0.4471487707073456
-3.9195,0.3235191065023739,0.3941655786815084
-3.919,-0.1993194615240755,-0.06148987274069118
-3.9185,-0.8502001278427167,-0.5913217929990628
-3.918,-1.277007122150022,-0.9410108603695881
-3.9175,-1.426389570157579,-1.142346990067769
-3.917,-1.26633694729234,-1.79933857118815
-3.9165,-0.423393133535411,-1.979481424075996
-3.916,0.408880505363835,-1.88411167842949
-3.9155,0.8356874996711408,-1.481439419033127
-3.915,1.017080472251745,-0.5807251545938954
-3.9145,1.006410297394063,0.2246193641988295
-3.914,0.8356874996711408,0.7226613692416989
-3.9135,0.857027849386506,1.104140351827727
-3.913,0.8463576745288233,1.167720182258731
-3.9125,0.7289857510943143,0.9134008605347127
-3.912,0.6009436528021226,0.5743084315693548
-3.9115,0.5155822539406614,0.2670059178194992
-3.911,0.3555296310754218,0.2458126410091644
-3.9105,-0.391382608962363,0.7544512844572011
-3.91,-1.287677297007705,1.263089927905238
-3.9095,-1.853196564464885,0.8710143069140429
-3.909,-2.322684258202921,0.2881991946298341
-3.9085,-2.482736881068161,0.5001319627331828
-3.908,-1.682473766741963,0.5107286011383502
-3.9075,-0.7968492535543035,0.2987958330350016
-3.907,-0.124628237520297,0.09745970333682032
-3.9065,0.2808384070716433,-0.008506680714854012
-3.906,0.4835717293676135,-0.008506680714854012
-3.9055,0.5369226036560266,0.06566978812131802
-3.905,0.5262524287983441,0.1716361721729923
-3.9045,0.4729015545099309,0.2670059178194992
-3.904,0.4195506802215176,0.3411823866556712
-3.9035,0.3768699807907871,0.4047622170866759
-3.903,0.3768699807907871,0.5213252395435176
-3.9025,0.2488278824985954,0.4895353243280153
-3.902,-0.2846808603855366,0.01268659609548085
-3.9015,-0.7968492535543035,-0.5171453241628908
-3.901,-1.565101843307454,-1.481439419033127
-3.9005,-0.8928808272734472,-1.746355379162313
-3.9,0.00341386077189465,-1.937094870455327
-3.8995,0.6863050516635838,-2.021867977696666
-3.899,1.166462920259302,-1.767548655972648
-3.8985,1.273164668836129,-1.110557074852267
-3.898,1.091771696255524,-0.3475991096802118
-3.8975,0.8890383739595538,0.2987958330350016
-3.897,0.8036769750980928,0.7968378380778709
-3.8965,0.7823366253827275,1.040560521396722
-3.896,0.6863050516635838,0.92399749893988
-3.8955,0.5902734779444399,0.6802748156210291
-3.895,0.5262524287983441,0.4153588554918433
-3.8945,0.408880505363835,0.2881991946298341
-3.894,-0.1673089369510276,0.701468092431364
-3.8935,-1.052933450138687,1.29487984312074
-3.893,-1.757164990745741,1.591585718465428
-3.8925,-2.205312334768412,1.231300012689736
-3.892,-2.60010880450267,1.241896651094903
-3.8915,-2.045259711903173,1.051157159801889
-3.891,-1.127624674142465,0.5319218779486851
-3.8905,-0.3487019095316325,0.06566978812131802
-3.89,0.1634664836371343,-0.1992461720078678
-3.8895,0.4302208550792003,-0.2734226408440398
-3.889,0.5262524287983441,-0.1886495336027004
-3.8885,0.5369226036560266,-0.02969995752518888
-3.888,0.5049120790829789,0.1610395337678249
-3.8875,0.4622313796522482,0.309392471440169
-3.887,0.408880505363835,0.4259554938970107
-3.8865,0.3768699807907871,0.5425185163538525
-3.886,0.3661998059331045,0.6802748156210291
