Class_8_Think_right_hand_movement/Class_8_Think_Right_hand_mouvement_Basim_8.csv

#Digilent WaveForms Oscilloscope Acquisition
#Device Name: EExplorer
#Serial Number: SN:210151A2B84A
#Date Time: 2020-12-16 09:19:21.160
#Sample rate: 2000Hz
#Samples: 16384
#Trigger: Source: Channel 1 Type: Edge Condition: Rising Level: 0 V Hyst.: Auto HoldOff: 0 s
#Channel 1: Range: 1 V/div Offset: 0 V Attenuation: 1 X
#Channel 2: Range: 1 V/div Offset: 0 V Attenuation: 1 X
#Power Supplies: ON
#Fixed Supply: ON
#Voltage: 3.3 V Readback: 3.33 V
#Positive Supply: ON
#Voltage: 3.7 V Readback: 3.719 V
#Current: 40 mA Readback: 20 mA
#Negative Supply: ON
#Voltage: -3.7 V Readback: -3.353 V
#Current: -40 mA Readback: -9 mA
#Reference 1: ON
#Voltage: 0 V
#Reference 2: ON
#Voltage: 0 V

Time (s),Channel 1 (V),Channel 2 (V)
-4.096,-1.853196564464885,1.496215972818921
-4.0955,-1.938557963326268,1.453829419198291
-4.095,-1.255666772434026,0.8392243916979237
-4.0945,-0.5621054066852853,0.1610395337678249
-4.094,-0.03926683865931146,-0.2946159176539603
-4.0935,0.2701682322140869,-0.4853554089473981
-4.093,0.408880505363835,-0.4959520473525559
-4.0925,0.4408910299368538,-0.3793890248958202
-4.092,0.4302208550791809,-0.2204394488180388
-4.0915,0.408880505363835,-0.04029659593035631
-4.091,0.3875401556484697,0.1080563417419877
-4.0905,0.3661998059330948,0.2352160026040933
-4.09,0.3555296310754218,0.3411823866556712
-4.0895,0.3768699807907871,0.383568940276341
-4.089,0.6222840025172647,0.3411823866557098
-4.0885,0.5582629533713921,0.6590815388106942
-4.088,-0.1352984123779797,1.093543713422559
-4.0875,-0.6474668055462807,1.114736990232875
-4.087,-0.4874141826811575,0.3941655786807856
-4.0865,-0.1032878878049318,-0.400582301706049
-4.086,0.1954770082099104,-0.8456411147226764
-4.0855,0.3661998059331821,-0.9939940523954253
-4.085,0.4515612047945656,-0.9939940523954253
-4.0845,0.4622313796522385,-0.8880276683438473
-4.084,0.4408910299368927,-0.7502713690764491
-4.0835,0.4515612047945656,-0.6125150698093976
-4.083,0.4622313796522482,-0.474758770542221
-4.0825,0.4302208550791712,-0.4111789401111586
-4.082,0.3982103305061524,-0.3475991096802118
-4.0815,0.3661998059331045,-0.2840192792492073
-4.081,0.2701682322140481,-0.1462629799821559
-4.0805,-0.3273615598162672,0.3517790250608387
-4.08,-1.127624674142465,0.9345941373450475
-4.0795,-1.767835165602841,1.358459673551359
-4.079,-2.045259711902619,1.496215972818449
-4.0785,-1.437059745015262,0.9769806909657173
-4.078,-0.7008176798358293,0.2776025562253027
-4.0775,-0.1352984123776594,-0.2310360872236014
-4.077,0.2168173579255475,-0.4853554089473885
-4.0765,0.3875401556483145,-0.5383386009731774
-4.076,0.4408910299368829,-0.4429688553265742
-4.0755,0.4408910299368829,-0.2840192792492073
-4.075,0.408880505363835,-0.1144730647665284
-4.0745,0.3875401556484503,0.05507314971627587
-4.074,0.3661998059331045,0.1928294489833272
-4.0735,0.3555296310754218,0.309392471440169
-4.073,0.3555296310754218,0.3835689402762736
-4.0725,0.4408910299368829,0.4259554938970107
-4.072,0.142126133921769,0.7120647308365314
-4.0715,-0.6367966306883553,1.125333628637686
-4.071,-1.191645723288357,1.337266396740764
-4.0705,-0.9675720512772257,0.627291623595192
-4.07,-0.3913826089628871,-0.4641621321360609
-4.0695,0.08877525963359839,-1.184733543688632
-4.069,0.3555296310754218,-1.396666311791788
-4.0685,0.4729015545099309,-1.333086481360783
-4.068,0.4942419042252864,-1.142346990067577
-4.0675,0.4835717293676135,-0.9304142219644207
-4.067,0.4622313796522482,-0.7714646458869092
-4.0665,0.4515612047945461,-0.6760949002402771
-4.066,0.4302208550792003,-0.5383386009732256
-4.0655,0.3982103305061524,-0.3793890248957141
-4.065,0.3661998059331336,-0.2204394488183472
-4.0645,0.3341892813600565,-0.06148987274069118
-4.064,-0.08194753808956648,0.3199891098453364
-4.0635,-0.8502001278420179,0.8816109453186995
-4.063,-1.575772018165631,1.337266396741612
-4.0625,-2.119950935906951,1.559795803249926
-4.062,-1.853196564465128,1.284283204715823
-4.0615,-1.052933450138066,0.6060983467843174
-4.061,-0.3700422592469978,0.01268659609548085
-4.0605,0.08877525963335578,-0.3370024712750445
-4.06,0.3341892813601536,-0.4641621321370054
-4.0595,0.4408910299368829,-0.4111789401112165
-4.059,0.4515612047945656,-0.2840192792492073
-4.0585,0.4302208550792198,-0.1250697031718403
-4.058,0.3982103305061524,0.03387987290581572
-4.0575,0.3768699807907871,0.1716361721729923
-4.057,0.3661998059331142,0.2776025562245703
-4.0565,0.3555296310754218,0.3623756634660061
-4.056,0.4195506802215176,0.3517790250608387
-4.0555,0.3341892813601341,0.4577454091124167
-4.055,-0.3913826089630715,0.849821030104055
-4.0545,-1.170305373573196,1.231300012689736
-4.054,-1.191645723288542,0.796837838078266
-4.0535,-0.5727755815424342,-0.2946159176551264
-4.053,0.01408403562957729,-1.121153713257435
-4.0525,0.3555296310754218,-1.42845622700729
-4.052,0.5049120790829983,-1.396666311791614
-4.0515,0.5262524287983441,-1.205926820498774
-4.051,0.4942419042252961,-0.9939940523954253
-4.0505,0.4622313796522773,-0.7926579226974271
-4.05,0.5262524287983441,-0.6019184314042303
-4.0495,0.5155822539406614,-0.5065486857577234
-4.049,0.4729015545099697,-0.4323722169216188
-4.0485,0.4195506802214788,-0.3581957480852925
-4.048,0.3768699807907871,-0.2628260024388724
-4.0475,0.1954770082103472,0.00208995769007253
-4.047,-0.4020527838207347,0.5849050699750233
-4.0465,-1.159635198715513,1.135930267043229
-4.046,-1.810515865033562,1.485619334413436
-4.0455,-2.023919362187186,1.453829419197722
-4.045,-1.341028171296118,0.8710143069140429
-4.0445,-0.6154562809736985,0.2246193641988295
-4.044,-0.0712773632315927,-0.2098428104132087
-4.0435,0.2488278824985954,-0.400582301706049
-4.043,0.408880505363835,-0.400582301706049
-4.0425,0.4515612047945268,-0.2840192792493133
-4.042,0.4408910299368829,-0.1250697031716958
-4.0415,0.4195506802215176,0.03387987290581572
-4.041,0.3875401556484989,0.1716361721728671
-4.0405,0.3661998059331045,0.2881991946299112
-4.04,0.3661998059331045,0.3729723018711736
-4.0395,0.3661998059331045,0.4153588554918047
-4.039,0.2915085819288213,0.4789386859231659
-4.0385,-0.2633405106701714,0.8286277532933731
-4.038,-0.7861790786961452,1.231300012689369
-4.0375,-0.9995825758499048,1.199510097473462
-4.037,-0.5941159312583333,0.3517790250608387
-4.0365,-0.08194753808956648,-0.5595318777835605
-4.036,0.270168232214116,-1.046977244421388
-4.0355,0.4408910299368829,-1.184733543688439
-4.035,0.5049120790829789,-1.089363798041932
-4.0345,0.4942419042253058,-0.9622041371800386
-4.034,0.4622313796522482,-0.8138511995075789
-4.0335,0.5262524287983441,-0.6866915386455698
-4.033,0.558262953371363,-0.5489352393785183
-4.0325,0.5155822539406032,-0.4323722169214645
-4.032,0.4515612047945656,-0.3370024712750445
-4.0315,0.3982103305062009,-0.2416327256286243
-4.031,0.3021787567864943,-0.1038764263609465
-4.0305,-0.2633405106701714,0.3517790250608387
-4.03,-1.063603624995642,0.9239974989393596
-4.0295,-1.693143941599878,1.347863035146712
-4.029,-1.949228138184029,1.496215972818921
-4.0285,-1.394379045584531,0.9981739677760521
-4.028,-0.6901475049769626,0.3093924714396871
-4.0275,-0.124628237520297,-0.2204394488182027
-4.027,0.2168173579255475,-0.4853554089473885
-4.0265,0.3875401556483145,-0.5383386009731774
-4.026,0.4408910299368829,-0.4535654937318862
-4.0255,0.4408910299368829,-0.3052125560595421
-4.025,0.4195506802215371,-0.1356663415770174
-4.0245,0.398210330506133,0.02328323450077358
-4.024,0.3768699807907871,0.1610395337678249
-4.0235,0.3661998059331142,0.2776025562245606
-4.023,0.3555296310755673,0.3517790250608002
-4.0225,0.5155822539406614,0.309392471440169
-4.022,0.3021787567872027,0.5001319627330094
-4.0215,-0.4554036581090703,0.9345941373452787
-4.021,-1.127624674142465,1.188913459069066
-4.0205,-0.9248913518464952,0.5001319627331828
-4.02,-0.3166913849581479,-0.5065486857582534
-4.0195,0.1634664836371343,-1.089363798041932
-4.019,0.4302208550792003,-1.216523458903942
-4.0185,0.5262524287982567,-1.152943628472995
-4.018,0.5155822539406614,-1.025783967610927
-4.0175,0.4835717293676135,-0.8562377531282487
-4.017,0.4942419042252864,-0.7714646458869863
-4.0165,0.6116138276597857,-0.8668343915333198
-4.016,0.5902734779444399,-0.7608680074817418
-4.0155,0.5049120790830565,-0.5807251545940593
-4.015,0.4408910299368247,-0.3899856633007274
-4.0145,0.3768699807907871,-0.2204394488182027
-4.014,-0.02859666380078452,0.161039533767478
-4.0135,-0.807519428412675,0.7544512844576444
-4.013,-1.565101843307454,1.241896651094903
-4.0125,-2.173301810195364,1.528005888034424
-4.012,-1.86386673932182,1.241896651094257
-4.0115,-1.042263275281004,0.5319218779486851
-4.011,-0.3593720843893152,-0.08268314955102604
-4.0105,0.09944543449062115,-0.4535654937315489
-4.01,0.3448594562177392,-0.5807251545938954
-4.0095,0.4408910299368829,-0.5383386009732256
-4.009,0.4515612047945559,-0.4111789401113322
-4.0085,0.4302208550791809,-0.2416327256283833
-4.008,0.408880505363835,-0.07208651114585861
-4.0075,0.3875401556484891,0.07626642652635053
-4.007,0.3661998059331045,0.2034260873885814
-4.0065,0.3661998059331045,0.2987958330350016
-4.006,0.4195506802215176,0.2987958330350016
-4.0055,0.5475927785133309,0.3517790250612049
-4.005,0.1314559590640864,0.7544512844572011
-4.0045,-0.6688071552621118,1.167720182258731
-4.004,-0.9142211769884534,0.9239974989390608
-4.0035,-0.5194247072545548,0.02328323450064829
-4.003,-0.04993701351651855,-0.7608680074817418
-4.0025,0.2701682322136696,-1.121153713257107
-4.002,0.4302208550792003,-1.121153713257435
-4.0015,0.4835717293676135,-0.9833974139902578
-4.001,0.4942419042252864,-0.8456411147232066
-4.0005,0.4622313796522094,-0.6760949002403734
-4,0.4195506802215176,-0.6443049850249
-3.9995,0.3768699807907871,-0.5913217929990628
-3.999,0.3555296310754218,-0.4853554089473885
-3.9985,0.3448594562177392,-0.3581957480853793
-3.998,0.3448594562177392,-0.2416327256285375
-3.9975,0.1527963087794516,0.01268659609548085
-3.997,-0.5300948821122373,0.5743084315693548
-3.9965,-1.287677297007705,1.114736990232894
-3.996,-1.991908837614759,1.485619334413754
-3.9955,-2.119950935906951,1.432636142387917
-3.995,-1.330357996438436,0.8074344764830383
-3.9945,-0.5834457564006506,0.1292496185523226
-3.994,-0.03926683865883591,-0.326405832869877
-3.9935,0.2808384070716433,-0.5277419625680583
-3.993,0.4195506802215176,-0.5277419625680583
-3.9925,0.4622313796522482,-0.4217755785163839
-3.992,0.4515612047945656,-0.2628260024388724
-3.9915,0.4195506802215176,-0.09327978795619347
-3.991,0.3982103305061524,0.06566978812131802
-3.9905,0.3768699807907871,0.1928294489833272
-3.99,0.3661998059331045,0.2987958330350016
-3.9895,0.3661998059331045,0.3623756634660061
-3.989,0.3448594562177392,0.5001319627331828
-3.9885,-0.2526703358124887,0.8816109453192104
-3.988,-1.010252750707956,1.273686566310405
-3.9875,-1.298347471865388,1.210106735879401
-3.987,-0.7755089038389382,0.2246193641988295
-3.9865,-0.124628237520297,-0.7608680074817418
-3.986,0.3128489316446912,-1.195330182093607
-3.9855,0.5155822539406614,-1.237716735714276
-3.985,0.5582629533713921,-1.110557074852267
-3.9845,0.5369226036560266,-0.9198175835592532
-3.984,0.4835717293676135,-0.7290780922662394
-3.9835,0.4835717293676135,-0.5065486857577234
-3.983,0.4622313796522482,-0.326405832869877
-3.9825,0.4302208550792003,-0.2416327256285375
-3.982,0.3982103305061524,-0.1886495336027004
-3.9815,0.3768699807907871,-0.1462629799820306
-3.981,0.291508581929326,-0.02969995752518888
-3.9805,-0.274010685527854,0.4047622170866759
-3.98,-1.031593100423322,0.9557874141553824
-3.9795,-1.543761493592088,1.358459673551745
-3.979,-1.778505340461106,1.464426057603419
-3.9785,-1.373038695869166,1.00877060618122
-3.978,-0.7114878546928423,0.309392471440169
-3.9775,-0.156638762093345,-0.2310360872233701
-3.977,0.1954770082101822,-0.5277419625680583
-3.9765,0.3768699807907871,-0.6019184314042303
-3.976,0.4408910299368829,-0.5383386009732256
-3.9755,0.4408910299368829,-0.3899856633008816
-3.975,0.4195506802215176,-0.2204394488182027
-3.9745,0.3982103305061524,-0.06148987274069118
-3.974,0.3768699807907871,0.07626642652648545
-3.9735,0.3661998059331045,0.1928294489833272
-3.973,0.3661998059331045,0.2881991946298341
-3.9725,0.4835717293676135,0.3199891098453364
-3.972,0.5902734779444399,0.5743084315693548
-3.9715,0.09944543449103843,1.00877060618122
-3.971,-0.572775581542968,1.284283204715573
-3.9705,-0.5941159312583333,0.7544512844572011
-3.97,-0.2313299860971235,-0.1250697031716958
-3.9695,0.1314559590640864,-0.7078848154559045
-3.969,0.3448594562177392,-0.9410108603695881
-3.9685,0.4515612047945656,-0.9516074987747555
-3.968,0.4835717293676135,-0.8774310299385835
-3.9675,0.4729015545099309,-0.7290780922662394
-3.967,0.4515612047945656,-0.570128516188728
-3.9665,0.4302208550792003,-0.4429688553267188
-3.966,0.408880505363835,-0.3581957480853793
-3.9655,0.3875401556484697,-0.2840192792492073
-3.965,0.3661998059331045,-0.2098428104130352
-3.9645,0.3555296310754218,-0.1356663415768632
-3.964,0.01408403562957729,0.1822328105781598
-3.9635,-0.7434983792658902,0.7438546460520338
-3.963,-1.479740444445993,1.220703374284568
-3.9625,-2.098610586191586,1.506812611224089
-3.962,-1.917217613610981,1.284283204715573
-3.9615,-1.1062843244271,0.5849050699745222
-3.961,-0.4127229586777283,-0.06148987274069118
-3.9605,0.0674349099179905,-0.4641621321370536
-3.96,0.3341892813600565,-0.6125150698093976
-3.9595,0.4408910299368829,-0.5913217929990628
-3.959,0.4622313796522482,-0.4641621321370536
-3.9585,0.4408910299368829,-0.2840192792492073
-3.958,0.408880505363835,-0.1144730647665284
-3.9575,0.3875401556484697,0.04447651131098315
-3.957,0.3768699807907871,0.1716361721729923
-3.9565,0.3661998059331045,0.2776025562246667
-3.956,0.3768699807907871,0.3623756634660061
-3.9555,0.1207857842064037,0.6166949851900245
-3.955,-0.5941159312583333,1.029963882991555
-3.9545,-1.234326422719292,1.37965295036208
-3.954,-1.212986073003927,0.9981739677760521
-3.9535,-0.5621054066852853,-0.06148987274069118
-3.953,0.04609456020262521,-0.8880276683437509
-3.9525,0.3982103305061524,-1.227120097309109
-3.952,0.5369226036560266,-1.195330182093607
-3.9515,0.5582629533713921,-1.01518732920576
-3.951,0.5155822539406614,-0.7502713690765743
-3.9505,0.4835717293676135,-0.5171453241628908
-3.95,0.4835717293676135,-0.4217755785163839
-3.9495,0.4622313796522482,-0.3793890248957141
-3.949,0.4302208550792003,-0.3158091944647096
-3.9485,0.3982103305061524,-0.2416327256285375
-3.948,0.3661998059331045,-0.1674562567923655
-3.9475,0.1848068333524996,0.01268659609548085
-3.947,-0.4980843575391895,0.5213252395435176
-3.9465,-1.277007122150022,1.051157159801889
-3.946,-1.885207089037933,1.42203950398275
-3.9455,-2.066600061618538,1.443232780793084
-3.945,-1.362368521011484,0.8392243916985406
-3.9445,-0.6154562809736985,0.1292496185523226
-3.944,-0.07127736323188383,-0.3899856633008816
-3.9435,0.2594980573562781,-0.6337083466197325
-3.943,0.4195506802215176,-0.6760949002404023
-3.9425,0.4622313796522482,-0.5807251545938954
-3.942,0.4515612047945656,-0.4323722169215513
-3.9415,0.4195506802215176,-0.252229364033705
-3.941,0.3982103305061524,-0.08268314955102604
-3.9405,0.3768699807907871,0.06566978812131802
-3.94,0.3661998059331045,0.1822328105781598
-3.9395,0.3768699807907871,0.2670059178194992
-3.939,0.6116138276598051,0.1928294489833272
-3.9385,0.5689331282290746,0.4259554938970107
-3.938,-0.06060718837420119,0.9028042221295453
-3.9375,-0.6154562809736985,1.146526905448396
-3.937,-0.4660738329661415,0.4789386859228479
-3.9365,-0.04993701351651855,-0.4641621321370536
-3.936,0.2701682322139607,-0.9833974139902578
-3.9355,0.4302208550792003,-1.121153713257435
-3.935,0.4835717293676135,-1.05757388282643
-3.9345,0.4835717293676135,-0.8880276683437509
-3.934,0.4622313796522482,-0.6972881770507372
-3.9335,0.4515612047945656,-0.570128516188728
-3.933,0.4515612047945656,-0.5277419625680583
-3.9325,0.4302208550792003,-0.4429688553267188
-3.932,0.408880505363835,-0.3475991096802118
-3.9315,0.3768699807907871,-0.252229364033705
-3.931,0.3235191065023739,-0.1144730647665284
-3.9305,-0.1993194615240755,0.3305857482505039
-3.93,-0.9782422261349084,0.9028042221295453
-3.9295,-1.682473766741963,1.326669758336243
-3.929,-2.130621110764634,1.411442865577582
-3.9285,-1.735824641030376,1.029963882991555
-3.928,-0.9355615267041777,0.3517790250608387
-3.9275,-0.2953510352432193,-0.1886495336027004
-3.927,0.142126133921769,-0.4959520473525559
-3.9265,0.3661998059331045,-0.5807251545938954
-3.926,0.4515612047945656,-0.5171453241628908
-3.9255,0.4622313796522482,-0.3793890248957141
-3.925,0.4408910299368829,-0.2098428104130352
-3.9245,0.408880505363835,-0.04029659593035631
-3.924,0.3875401556484697,0.09745970333682032
-3.9235,0.3768699807907871,0.2246193641988295
-3.923,0.3661998059331045,0.309392471440169
-3.9225,0.5262524287983441,0.3305857482505039
-3.922,0.6756348768059011,0.5319218779486851
-3.9215,0.05676473506030786,0.9557874141553824
-3.921,-0.6047861061160158,1.305476481525908
-3.9205,-0.5941159312583333,0.9451907757502149
-3.92,-0.1779791118087102,-0.02969995752518888
-3.9195,0.2061471830678648,-0.7820612842920766
-3.919,0.4195506802215176,-1.078767159636765
-3.9185,0.4942419042252961,-1.068170521231597
-3.918,0.4942419042252961,-0.9516074987747555
-3.9175,0.4729015545099309,-0.792657922697244
-3.917,0.4515612047945656,-0.6231117082145651
-3.9165,0.4729015545099309,-0.5171453241628908
-3.916,0.4515612047945656,-0.4217755785163839
-3.9155,0.4195506802215176,-0.3158091944647096
-3.915,0.3875401556484697,-0.2310360872233701
-3.9145,0.3661998059331045,-0.1356663415768632
-3.914,0.05676473506030786,0.1716361721729923
-3.9135,-0.658136980404429,0.7332580076468663
-3.913,-1.394379045584531,1.210106735879401
-3.9125,-1.970568487899394,1.496215972818921
-3.912,-1.799845690176472,1.263089927905238
-3.9115,-1.06360362499637,0.55311515475902
-3.911,-0.391382608962363,-0.09327978795619347
-3.9105,0.0674349099179905,-0.4959520473525559
-3.91,0.3341892813600565,-0.6443049850249
-3.9095,0.4408910299368829,-0.6231117082145651
-3.909,0.4515612047945656,-0.4959520473525559
-3.9085,0.4408910299368829,-0.326405832869877
-3.908,0.408880505363835,-0.1462629799820306
-3.9075,0.3875401556484697,0.01268659609548085
-3.907,0.3768699807907871,0.1504428953626575
-3.9065,0.3661998059331045,0.2564092794143318
-3.906,0.3768699807907871,0.3305857482505039
-3.9055,0.1741366584948169,0.5425185163538525
-3.905,-0.5087545323968721,0.9557874141553824
-3.9045,-1.095614149569417,1.33726639674141
-3.904,-1.1062843244271,1.072350436612224
-3.9035,-0.5300948821122373,0.06566978812131802
-3.903,0.03542438534494258,-0.7714646458869092
-3.9025,0.3768699807907871,-1.089363798041932
-3.902,0.5155822539406614,-1.089363798041932
-3.9015,0.5369226036560266,-0.9410108603695881
-3.901,0.5049120790829789,-0.7608680074817418
-3.9005,0.4729015545099309,-0.5807251545938954
-3.9,0.4729015545099309,-0.4641621321370536
-3.8995,0.4729015545099309,-0.3581957480853793
-3.899,0.4302208550792003,-0.2628260024388724
-3.8985,0.3982103305061524,-0.1780528951975329
-3.898,0.3768699807907871,-0.1038764263613609
-3.8975,0.1954770082101822,0.06566978812131802
-3.897,-0.4767440078238243,0.55311515475902
-3.8965,-1.26633694729234,1.061753798207057
-3.896,-1.83185621474952,1.358459673551745
-3.8955,-2.045259711903173,1.135930267043229
-3.895,-1.415719395299897,0.5637117931641874
-3.8945,-0.6794773301197943,-0.04029659593035631
-3.894,-0.1139580626626144,-0.4641621321370536
-3.8935,0.2381577076409128,-0.6443049850249
-3.893,0.408880505363835,-0.6654982618352349
-3.8925,0.4622313796522482,-0.570128516188728
-3.892,0.4515612047945656,-0.4323722169215513
-3.8915,0.4302208550792003,-0.2734226408440398
-3.891,0.3982103305061524,-0.1250697031716958
-3.8905,0.3875401556484697,0.002089957690313421
-3.89,0.3768699807907871,0.1186529801471552
-3.8895,0.3768699807907871,0.1928294489833272
-3.889,0.3982103305061524,0.2670059178194992
-3.8885,-0.04993701351651855,0.627291623595192
-3.888,-0.722158029550525,1.082947075017392
-3.8875,-1.191645723288561,1.326669758336243
-3.887,-0.8608703027003992,0.7226613692416989
