Class_8_Think_right_hand_movement/Class_8_Think_Right_hand_mouvement_SH_5.csv

#Digilent WaveForms Oscilloscope Acquisition
#Device Name: EExplorer
#Serial Number: SN:210151A2B84A
#Date Time: 2020-12-13 13:33:53.653
#Sample rate: 2000Hz
#Samples: 16384
#Trigger: Source: Channel 1 Type: Edge Condition: Rising Level: 0 V Hyst.: Auto HoldOff: 0 s
#Channel 1: Range: 1 V/div Offset: 0 V Attenuation: 1 X
#Channel 2: Range: 1 V/div Offset: 0 V Attenuation: 1 X
#Power Supplies: ON
#Fixed Supply: ON
#Voltage: 3.3 V Readback: 3.326 V
#Positive Supply: ON
#Voltage: 3.7 V Readback: 3.715 V
#Current: 40 mA Readback: 19 mA
#Negative Supply: ON
#Voltage: -3.7 V Readback: -3.355 V
#Current: -40 mA Readback: -8 mA
#Reference 1: ON
#Voltage: 0 V
#Reference 2: ON
#Voltage: 0 V

Time (s),Channel 1 (V),Channel 2 (V)
-4.096,1.15579274540162,-0.2628260024388724
-4.0955,1.070431346540236,-0.1250697031718211
-4.095,0.8463576745286389,0.1822328105784296
-4.0945,0.6436243522328531,0.4789386859228479
-4.094,0.504912079083105,0.6060983467847414
-4.0935,0.05676473505959943,0.2034260873879068
-4.093,-0.722158029550525,-0.4429688553267188
-4.0925,-1.490410619302976,-0.9728007755846086
-4.092,-2.130621110764459,-1.32248984295549
-4.0915,-1.938557963326346,-1.184733543688439
-4.091,-1.1062843244271,-0.5807251545938954
-4.0905,-0.402052783819609,0.002089957690650737
-4.09,0.07810508477567314,0.3729723018711736
-4.0895,0.3448594562177392,0.5107286011383502
-4.089,0.4515612047944685,0.4895353243280346
-4.0885,0.4729015545099309,0.3729723018711736
-4.088,0.4515612047945656,0.2034260873884947
-4.0875,0.4195506802215467,0.06566978812144331
-4.087,0.3661998059330657,-0.02969995752523706
-4.0865,0.3235191065023739,-0.08268314955102604
-4.086,0.2915085819293551,-0.1038764263613416
-4.0855,0.1741366584943511,0.02328323450111089
-4.085,-0.3380317346739499,0.5319218779486851
-4.0845,-0.807519428411559,0.5531151547590006
-4.084,-1.148965023857957,-0.02969995752506359
-4.0835,-1.287677297007705,0.1080563417419877
-4.083,-0.8502001278427167,0.3729723018711736
-4.0825,-0.2526703358120423,0.2987958330348763
-4.082,0.2381577076409128,0.1610395337678249
-4.0815,0.5262524287983441,-0.05089323433552374
-4.081,0.6649647019480922,-0.1462629799819439
-4.0805,0.6863050516635838,-0.1462629799820306
-4.08,0.7396559259519968,-0.07208651114585861
-4.0795,0.8783681991017451,-0.04029659593038522
-4.079,0.8463576745287553,0.09745970333695524
-4.0785,0.7716664505250448,0.2458126410091644
-4.078,0.6542945270906426,0.4471487707071625
-4.0775,0.5475927785139034,0.606098346784674
-4.077,0.7609962756673623,0.4047622170866759
-4.0765,0.8250173248133998,-0.1886495336021607
-4.076,0.06743490991717532,-0.782061284292462
-4.0755,-0.8288597781273515,-1.205926820498774
-4.075,-1.373038695869166,-1.333086481360783
-4.0745,-1.138294848999672,-0.8668343915328475
-4.074,-0.6154562809736985,-0.2416327256285375
-4.0735,-0.1352984123779797,0.2246193641988295
-4.073,0.1954770082098814,0.4471487707071432
-4.0725,0.3661998059331045,0.4895353243280153
-4.072,0.4302208550792003,0.3941655786815084
-4.0715,0.4408910299368732,0.2564092794144571
-4.071,0.4195506802214788,0.0974597033367143
-4.0705,0.3768699807907871,-0.01910331912002144
-4.07,0.3341892813600953,-0.1038764263612838
-4.0695,0.2488278824984886,-0.008506680714757636
-4.069,0.1314559590640864,0.09745970333682032
-4.0685,-0.3380317346739499,0.457745409112513
-4.068,-0.9889124009929793,0.9663840525604341
-4.0675,-1.415719395299897,0.8392243916985406
-4.067,-1.639793067311232,0.7544512844572011
-4.0665,-1.330357996437824,0.8180311148880131
-4.066,-0.658136980404429,0.6060983467848571
-4.0655,-0.03926683865883591,0.2246193641988295
-4.065,0.4195506802211004,-0.1144730647662199
-4.0645,0.6542945270905358,-0.2734226408440398
-4.064,0.7503261008096795,-0.3052125560595421
-4.0635,0.7716664505250254,-0.1992461720079642
-4.063,1.038420821967218,-0.3899856633008912
-4.0625,1.15579274540162,-0.400582301706049
-4.062,1.006410297394199,-0.07208651114615738
-4.0615,0.7823366253825625,0.3093924714404774
-4.061,0.6009436528021226,0.6484849004055269
-4.0605,0.5049120790829789,0.6590815388106942
-4.06,0.163466483636552,0.1504428953621274
-4.0595,-0.4767440078238243,-0.4323722169215513
-4.059,-1.06360362499637,-0.8138511995075789
-4.0585,-1.533091318733979,-0.9833974139901036
-4.058,-1.319687821580753,-0.6654982618352349
-4.0575,-0.7434983792658902,-0.08268314955102604
-4.057,-0.2099896363822434,0.383568940275917
-4.0565,0.1527963087794516,0.627291623595192
-4.056,0.3555296310754218,0.6696781772158616
-4.0555,0.4302208550791324,0.5743084315694416
-4.055,0.4408910299368732,0.3941655786813253
-4.0545,0.4302208550792003,0.1928294489833272
-4.054,0.3875401556485085,0.01268659609564468
-4.0535,0.334189281360008,-0.0932797879562513
-4.053,0.2808384070716433,-0.1568596183871981
-4.0525,0.2594980573562781,-0.252229364033705
-4.052,-0.1139580626632452,0.05507314971644935
-4.0515,-0.807519428411986,0.383568940276341
-4.051,-1.287677297007705,-0.1038764263613609
-4.0505,-1.575772018164874,-0.5277419625676727
-4.05,-1.351698346153801,-0.252229364033705
-4.0495,-0.7008176798351597,0.03387987290581572
-4.049,-0.1139580626631482,0.09745970333676249
-4.0485,0.2915085819295395,0.03387987290570971
-4.048,0.5262524287983441,-0.08268314955102604
-4.0475,0.6222840025174005,-0.1674562567922884
-4.047,0.6222840025176917,-0.1250697031718114
-4.0465,0.8463576745288233,-0.252229364033705
-4.046,0.9850699476785716,-0.2416327256285472
-4.0455,0.8997085488171006,0.01268659609575071
-4.045,0.7503261008096795,0.309392471440169
-4.0445,0.6116138276598051,0.55311515475902
-4.044,0.5475927785138743,0.637888261999945
-4.0435,0.7289857510943143,0.1822328105781598
-4.043,0.4408910299368829,-0.4429688553267188
-4.0425,-0.4127229586769519,-0.9622041371794507
-4.042,-1.212986073003927,-1.280103289334946
-4.0415,-1.330357996438436,-1.089363798041932
-4.041,-0.8715404775584992,-0.4853554089479378
-4.0405,-0.3487019095312637,0.07626642652678421
-4.04,0.05676473506030786,0.4047622170866759
-4.0395,0.2915085819291125,0.5213252395434116
-4.039,0.4088805053638641,0.4683420475175649
-4.0385,0.4408910299368829,0.3411823866556712
-4.038,0.43022085507921,0.1716361721731466
-4.0375,0.3982103305061233,0.0126865960953652
-4.037,0.3661998059331045,-0.1144730647665284
-4.0365,0.3341892813600565,-0.1992461720078678
-4.036,0.2808384070714492,-0.1780528951973691
-4.0355,0.0674349099179905,0.002089957690313421
-4.035,-0.5514352318276028,0.3941655786815084
-4.0345,-1.127624674141941,-0.008506680714487791
-4.034,-1.437059745015262,-0.6972881770507372
-4.0335,-1.565101843307454,-0.5383386009732256
-4.033,-1.074273799854498,-0.08268314955144046
-4.0325,-0.3807124341041758,0.0444765113110217
-4.032,0.1741366584948169,0.08686306493165288
-4.0315,0.4835717293673321,0.0444765113110217
-4.031,0.6222840025174975,-0.06148987274071045
-4.0305,0.6329541773751706,-0.08268314955102604
-4.03,0.7289857510942269,-0.1038764263613416
-4.0295,0.9210488985325436,-0.167456256792221
-4.029,0.857027849386506,-0.008506680714854012
-4.0285,0.707645401378949,0.2140227257936621
-4.028,0.5902734779443719,0.4047622170868012
-4.0275,0.5155822539406614,0.5425185163538525
-4.027,0.7503261008096795,0.4047622170866759
-4.0265,0.9317190733901195,-0.0826831495505827
-4.026,0.2274875327832301,-0.6654982618352349
-4.0255,-0.6474668055467465,-0.9198175835592532
-4.025,-1.287677297007123,-1.025783967610831
-4.0245,-1.17030537357275,-0.6972881770502649
-4.024,-0.6794773301197943,-0.1780528951975329
-4.0235,-0.1993194615245122,0.2352160026036211
-4.023,0.1421261339219437,0.4471487707073938
-4.0225,0.3341892813600565,0.5001319627331828
-4.022,0.41955068022144,0.4259554938970782
-4.0215,0.4302208550791906,0.2881991946297088
-4.021,0.4195506802215176,0.1504428953626575
-4.0205,0.3768699807907871,0.03387987290581572
-4.02,0.3341892813599886,-0.02969995752513105
-4.0195,0.2594980573562781,0.03387987290581572
-4.019,0.1314559590640864,0.1080563417419877
-4.0185,-0.3807124341042146,0.4683420475173528
-4.018,-0.9889124009925911,0.4259554938970107
-4.0175,-1.191645723288561,-0.252229364033705
-4.017,-1.180975548430888,-0.3899856633007563
-4.0165,-0.7861790786961161,-0.1250697031716187
-4.016,-0.2313299860971235,-0.04029659593035631
-4.0155,0.2274875327828129,-0.02969995752519852
-4.015,0.5155822539407682,-0.06148987274077791
-4.0145,0.6329541773751706,-0.1568596183871981
-4.014,0.6542945270905164,-0.1886495336026714
-4.0135,0.6542945270907299,-0.1462629799821559
-4.013,0.8676980242441885,-0.2840192792492073
-4.0125,0.8783681991018712,-0.1780528951975329
-4.012,0.8143471499557268,0.0126865960955965
-4.0115,0.7609962756673623,0.13984625695749
-4.011,0.6436243522328531,0.3729723018711736
-4.0105,0.6436243522328531,0.3729723018711736
-4.01,0.8356874996711408,-0.1250697031716958
-4.0095,0.291508581929326,-0.6866915386455698
-4.009,-0.4874141826807984,-1.110557074851882
-4.0085,-1.127624674142388,-1.28010328933457
-4.008,-1.042263275281004,-0.8668343915334161
-4.0075,-0.6047861061164137,-0.2310360872239483
-4.007,-0.1673089369507365,0.2670059178197305
-4.0065,0.1527963087794516,0.5213252395435176
-4.006,0.3341892813600565,0.5849050699745222
-4.0055,0.4088805053638447,0.5107286011382249
-4.005,0.4195506802215176,0.3729723018711736
-4.0045,0.408880505363835,0.2034260873884947
-4.004,0.376869980790758,0.05507314971605421
-4.0035,0.3448594562177392,-0.05089323433552374
-4.003,0.2701682322139607,-0.05089323433552374
-4.0025,0.1527963087795584,0.02328323450058083
-4.002,-0.2526703358124887,0.3411823866556712
-4.0015,-0.839529952985034,0.383568940276341
-4.001,-1.447729919872391,-0.3158091944640735
-4.0005,-1.906547438753143,-0.6972881770502746
-4,-1.735824641030376,-0.1886495336027004
-3.9995,-0.9462317015618604,0.1716361721729923
-3.999,-0.2206598112394408,0.2564092794143318
-3.9985,0.2701682322139607,0.2246193641988295
-3.998,0.5262524287983441,0.03387987290581572
-3.9975,0.6436243522328531,-0.06148987274069118
-3.997,0.6436243522328531,-0.07208651114585861
-3.9965,0.825017324813458,-0.2310360872233701
-3.996,0.9103787236749192,-0.2416327256285375
-3.9955,0.79300680024041,-0.05089323433552374
-3.995,0.6436243522328531,0.1928294489833272
-3.9945,0.5155822539406614,0.4047622170866759
-3.994,0.4195506802215176,0.4153588554918433
-3.9935,-0.07127736323188383,-0.1038764263613609
-3.993,-0.8715404775580819,-0.7396747306714069
-3.9925,-1.607782542738184,-1.227120097309109
-3.992,-2.119950935906951,-1.492036057438295
-3.9915,-1.629122892453549,-1.142346990067769
-3.991,-0.8608703027003992,-0.474758770542221
-3.9905,-0.2420001609548061,0.08686306493165288
-3.99,0.1634664836371343,0.4259554938970107
-3.9895,0.3768699807907871,0.5425185163538525
-3.989,0.4515612047945656,0.5213252395435176
-3.9885,0.4515612047945656,0.4047622170866759
-3.988,0.4302208550792003,0.2670059178194992
-3.9875,0.3982103305061524,0.1292496185523226
-3.987,0.3661998059331045,0.02328323450064829
-3.9865,0.3448594562177392,-0.07208651114585861
-3.986,0.3341892813600565,-0.1674562567923655
-3.9855,0.08877525963335578,0.01268659609548085
-3.985,-0.5514352318276028,0.4683420475176805
-3.9845,-1.06360362499637,0.09745970333682032
-3.984,-1.244996597576974,-0.474758770542221
-3.9835,-1.159635198715513,-0.1992461720078678
-3.983,-0.6794773301197943,0.01268659609548085
-3.9825,-0.124628237520297,-0.008506680714854012
-3.982,0.3128489316446912,-0.1356663415768632
-3.9815,0.5796033030867573,-0.2628260024388724
-3.981,0.6863050516635838,-0.3687923864905467
-3.9805,0.6756348768059011,-0.3052125560595421
-3.98,0.7503261008096795,-0.2204394488182027
-3.9795,0.857027849386506,-0.1674562567923655
-3.979,0.7823366253827275,0.03387987290581572
-3.9785,0.6649647019482183,0.2564092794143318
-3.978,0.5475927785137094,0.457745409112513
-3.9775,0.4729015545099309,0.5743084315693548
-3.977,0.142126133921769,0.2034260873884947
-3.9765,-0.4767440078238243,-0.4429688553267188
-3.976,-1.06360362499637,-0.9833974139902578
-3.9755,-1.618452717595867,-1.34368311976595
-3.975,-1.554431668449771,-1.205926820498774
-3.9745,-0.9462317015618604,-0.5913217929990628
-3.974,-0.3593720843893152,0.002089957690313421
-3.9735,0.0674349099179905,0.3729723018711736
-3.973,0.3128489316446912,0.5319218779486851
-3.9725,0.4195506802215176,0.5319218779486851
-3.972,0.4408910299368829,0.4259554938970107
-3.9715,0.4302208550792003,0.2881991946298341
-3.971,0.3982103305061524,0.1504428953626575
-3.9705,0.3555296310754218,0.05507314971615059
-3.97,0.3021787567870086,0.01268659609548085
-3.9695,0.2594980573562781,-0.008506680714854012
-3.969,0.1527963087794516,0.05507314971615059
-3.9685,-0.3807124341046804,0.55311515475902
-3.968,-0.8288597781273515,0.6908714540261965
-3.9675,-1.042263275281004,0.002089957690313421
-3.967,-1.244996597576974,-0.1038764263613609
-3.9665,-0.9782422261349084,0.1610395337678249
-3.966,-0.423393133535411,0.309392471440169
-3.9655,0.08877525963335578,0.309392471440169
-3.965,0.4302208550792003,0.08686306493165288
-3.9645,0.5902734779444399,-0.1356663415768632
-3.964,0.6329541773751706,-0.1674562567923655
-3.9635,0.6649647019482183,-0.1144730647665284
-3.963,0.8783681991018712,-0.1992461720078678
-3.9625,0.857027849386506,-0.02969995752518888
-3.962,0.7396559259519968,0.2246193641988295
-3.9615,0.6329541773751706,0.4365521323021782
-3.961,0.5369226036560266,0.6378882620003594
-3.9605,0.6222840025174878,0.5637117931641874
-3.96,0.8356874996711408,0.002089957690313421
-3.9595,0.2701682322139607,-0.6231117082145651
-3.959,-0.4660738329661415,-1.068170521231597
-3.9585,-1.06360362499637,-1.269506650929778
-3.958,-0.9889124009925911,-0.8774310299385835
-3.9575,-0.5621054066852853,-0.2734226408440398
-3.957,-0.1352984123779797,0.1928294489833272
-3.9565,0.1634664836371343,0.4365521323021782
-3.956,0.3341892813600565,0.4789386859228479
-3.9555,0.408880505363835,0.4047622170866759
-3.955,0.4195506802215176,0.2564092794143318
-3.9545,0.3982103305061524,0.08686306493165288
-3.954,0.3768699807907871,-0.04029659593035631
-3.9535,0.3341892813600565,-0.1250697031716958
-3.953,0.291508581929326,-0.1674562567923655
-3.9525,0.2488278824985954,-0.1886495336027004
-3.952,-0.1459685872356623,0.13984625695749
-3.9515,-0.8608703027003992,0.7120647308365314
-3.951,-1.437059745015262,0.5213252395435176
-3.9505,-1.821186039891837,0.1822328105781598
-3.95,-1.650463242168915,0.4683420475176805
-3.9495,-0.9248913518464952,0.5001319627331828
-3.949,-0.2099896363817582,0.4259554938970107
-3.9485,0.2701682322139607,0.2670059178194992
-3.948,0.5369226036560266,0.03387987290581572
-3.9475,0.6329541773751706,-0.1250697031716958
-3.947,0.6436243522328531,-0.1250697031716958
-3.9465,0.7823366253827275,-0.1674562567923655
-3.946,0.8143471499557753,-0.05089323433552374
-3.9455,0.707645401378949,0.2034260873884947
-3.945,0.5902734779444399,0.4471487707073456
-3.9445,0.5475927785137094,0.5743084315693548
-3.944,0.5689331282290746,0.5849050699745222
-3.9435,0.8463576745288233,0.1292496185523226
-3.943,0.408880505363835,-0.4641621321370536
-3.9425,-0.4020527838200457,-0.9304142219644207
-3.942,-1.095614149569417,-1.184733543688439
-3.9415,-1.180975548430879,-0.9516074987747555
-3.941,-0.7648387289812555,-0.3370024712750445
-3.9405,-0.2846808603855366,0.1928294489833272
-3.94,0.07810508477567314,0.5001319627331828
-3.9395,0.291508581929326,0.5849050699745222
-3.939,0.3982103305061524,0.5319218779486851
-3.9385,0.4195506802215176,0.3729723018711736
-3.938,0.408880505363835,0.1928294489833272
-3.9375,0.3661998059331045,0.04447651131098315
-3.937,0.3128489316446912,-0.06148987274069118
-3.9365,0.2594980573562781,-0.08268314955102604
-3.936,0.1634664836371343,-0.01910331912002144
-3.9355,-0.1352984123779797,0.2034260873884947
-3.935,-0.7648387289812555,0.6696781772158616
-3.9345,-1.362368521011484,0.5319218779486851
-3.934,-1.746494815888059,0.03387987290581572
-3.9335,-1.885207089037933,0.3305857482505039
-3.933,-1.319687821580753,0.5743084315693548
-3.9325,-0.572775581542968,0.3623756634660061
-3.932,0.03542438534494258,0.1292496185523226
-3.9315,0.4408910299368829,-0.1674562567923655
-3.931,0.6329541773751706,-0.326405832869877
-3.9305,0.6756348768059011,-0.2628260024388724
-3.93,0.79300680024041,-0.2628260024388724
-3.9295,0.9317190733902845,-0.2204394488182027
-3.929,0.8356874996711408,0.06566978812131802
-3.9285,0.6756348768059011,0.383568940276341
-3.928,0.5475927785137094,0.6378882620003594
-3.9275,0.4835717293676135,0.7968378380778709
-3.927,0.7716664505250448,0.4895353243280153
-3.9265,0.6649647019482183,-0.1356663415768632
-3.926,-0.06060718837420119,-0.6866915386455698
-3.9255,-0.8502001278427167,-1.05757388282643
-3.925,-1.255666772434657,-0.9833974139902578
-3.9245,-0.9782422261349084,-0.400582301706049
-3.924,-0.4874141826815069,0.1716361721729923
-3.9235,-0.06060718837420119,0.5319218779486851
-3.923,0.2168173579255475,0.6696781772158616
-3.9225,0.3661998059331045,0.627291623595192
-3.922,0.4195506802215176,0.4895353243280153
-3.9215,0.4195506802215176,0.2987958330350016
-3.921,0.3982103305061524,0.09745970333682032
-3.9205,0.3555296310754218,-0.02969995752518888
-3.92,0.3128489316446912,-0.1356663415768632
-3.9195,0.2274875327832301,-0.1250697031716958
-3.919,-0.007256314085787988,0.08686306493165288
-3.9185,-0.5621054066852853,0.5213252395435176
-3.918,-1.159635198715513,0.6590815388106942
-3.9175,-1.629122892453549,-0.01910331912002144
-3.917,-1.885207089037933,-0.3158091944647096
-3.9165,-1.373038695869166,-0.05089323433552374
-3.916,-0.6047861061160158,0.07626642652648545
-3.9155,0.04609456020262521,-0.02969995752518888
-3.915,0.4729015545099309,-0.2098428104130352
-3.9145,0.6649647019482183,-0.2416327256285375
-3.914,0.6969752265212663,-0.1886495336027004
-3.9135,0.7183155762366316,-0.05089323433552374
-3.913,0.9103787236749192,0.002089957690313421
-3.9125,0.8890383739595538,0.1292496185523226
-3.912,0.8463576745288233,0.1504428953626575
-3.9115,0.7503261008096795,0.2140227257936621
-3.911,0.6116138276598051,0.3623756634660061
-3.9105,0.6969752265212663,0.2776025562246667
-3.91,0.8143471499557753,-0.2840192792492073
-3.9095,0.07810508477567314,-0.8880276683437509
-3.909,-0.7755089038389382,-1.184733543688439
-3.9085,-1.447729919872945,-1.269506650929778
-3.908,-1.458400094730627,-1.036380606016095
-3.9075,-0.9142211769888124,-0.474758770542221
-3.907,-0.3593720843893152,0.02328323450064829
-3.9065,0.05676473506030786,0.3305857482505039
-3.906,0.3021787567870086,0.4365521323021782
-3.9055,0.408880505363835,0.4153588554918433
-3.905,0.4302208550792003,0.309392471440169
-3.9045,0.4195506802215176,0.1928294489833272
-3.904,0.3768699807907871,0.08686306493165288
-3.9035,0.3341892813600565,0.02328323450064829
-3.903,0.2274875327832301,0.13984625695749
-3.9025,0.1314559590640864,0.2140227257936621
-3.902,-0.1673089369510276,0.5107286011383502
-3.9015,-0.7755089038389382,0.775644561267536
-3.901,-1.180975548430879,0.2034260873884947
-3.9005,-1.373038695869166,-0.326405832869877
-3.9,-1.084943974711735,-0.09327978795619347
-3.8995,-0.4874141826815069,0.1610395337678249
-3.899,0.05676473506030786,0.2458126410091644
-3.8985,0.4302208550792003,0.1504428953626575
-3.898,0.6222840025174878,0.002089957690313421
-3.8975,0.6756348768059011,-0.1462629799820306
-3.897,0.6542945270905358,-0.1356663415768632
-3.8965,0.8783681991018712,-0.2416327256285375
-3.896,0.9637295979633325,-0.1886495336027004
-3.8955,0.8356874996711408,0.08686306493165288
-3.895,0.6756348768059011,0.3729723018711736
-3.8945,0.5902734779444399,0.5213252395435176
-3.894,0.5049120790829789,0.4471487707073456
-3.8935,-0.007256314085787988,-0.02969995752518888
-3.893,-0.7434983792658902,-0.5913217929990628
-3.8925,-1.46907026958831,-1.025783967610927
-3.892,-2.03458953704549,-1.258910012524611
-3.8915,-1.661133417026597,-0.9516074987747555
-3.891,-0.9035510021311299,-0.326405832869877
-3.8905,-0.2846808603855366,0.1928294489833272
-3.89,0.1314559590640864,0.4683420475176805
-3.8895,0.3555296310754218,0.5425185163538525
-3.889,0.4408910299368829,0.4683420475176805
-3.8885,0.4408910299368829,0.3199891098453364
-3.888,0.4195506802215176,0.1292496185523226
-3.8875,0.3875401556484697,-0.02969995752518888
