Class_8_Think_right_hand_movement/Class_8_Think_Right_hand_mouvement_Basim_2.csv

#Digilent WaveForms Oscilloscope Acquisition
#Device Name: EExplorer
#Serial Number: SN:210151A2B84A
#Date Time: 2020-11-18 11:25:02.839
#Sample rate: 2000Hz
#Samples: 16384
#Trigger: Source: Channel 1 Type: Edge Condition: Rising Level: 0 V Hyst.: Auto HoldOff: 0 s
#Channel 1: Range: 1 V/div Offset: 0 V Attenuation: 1 X
#Channel 2: Range: 1 V/div Offset: 0 V Attenuation: 1 X
#Power Supplies: ON
#Fixed Supply: ON
#Voltage: 3.3 V Readback: 3.302 V
#Positive Supply: ON
#Voltage: 3.7 V Readback: 3.717 V
#Current: 500 mA Readback: 20 mA
#Negative Supply: ON
#Voltage: -3.7 V Readback: -3.683 V
#Current: -500 mA Readback: -4 mA
#Reference 1: ON
#Voltage: 0 V
#Reference 2: ON
#Voltage: 0 V

Time (s),Channel 1 (V),Channel 2 (V)
-4.096,0.3128489316446912,0.4895353243280153
-4.0955,0.2915085819293454,0.5107286011383309
-4.095,0.2915085819293066,0.5213252395434694
-4.0945,0.2701682322139607,0.4683420475176805
-4.094,-0.113958062662265,-0.04029659592989365
-4.0935,-0.7648387289816049,-0.8138511995081475
-4.093,-1.148965023857831,-1.439052865412457
-4.0925,-0.9889124009927367,-1.756952017567191
-4.092,-0.3487019095311085,-1.62979235670496
-4.0915,0.2274875327832301,-1.068170521231597
-4.091,0.5582629533713921,-0.3793890248957141
-4.0905,0.6649647019481795,0.2034260873888127
-4.09,0.6222840025174878,0.55311515475902
-4.0895,0.5369226036560266,0.6908714540261965
-4.089,0.4729015545099891,0.72266136924167
-4.0885,0.5369226036560266,0.8074344764830383
-4.088,0.5262524287983441,0.7544512844572011
-4.0875,0.4515612047946335,0.606098346784992
-4.087,0.3875401556484212,0.4365521323020529
-4.0865,0.3341892813600565,0.2987958330350016
-4.086,0.2915085819293648,0.2776025562246859
-4.0855,0.1207857842057826,0.7438546460522073
-4.085,-0.5621054066852853,0.9345941373450475
-4.0845,-1.287677297007045,0.1504428953633707
-4.084,-1.575772018164777,-0.6654982618352927
-4.0835,-1.180975548430879,-0.7290780922662394
-4.083,-0.6047861061160158,-0.4217755785163839
-4.0825,-0.1246282375200253,-0.07208651114561766
-4.082,0.1741366584948169,0.1928294489833272
-4.0815,0.3235191065023739,0.3517790250608387
-4.081,0.3768699807907386,0.436552132302101
-4.0805,0.3661998059331045,0.4683420475176805
-4.08,0.3448594562177392,0.4789386859228479
-4.0795,0.3235191065023933,0.4683420475176902
-4.079,0.3021787567869892,0.4471487707073167
-4.0785,0.2808384070716433,0.4153588554918433
-4.078,0.2808384070716433,0.3411823866557387
-4.0775,0.2381577076406799,0.1080563417413517
-4.077,-0.01792648894347063,-0.5913217929990628
-4.0765,-0.604786106115482,-1.354279758170424
-4.076,-1.031593100423128,-1.862918401619068
-4.0755,-0.8181896032696687,-1.767548655972648
-4.075,-0.2846808603855366,-1.110557074852267
-4.0745,0.1741366584950498,-0.4641621321366103
-4.074,0.4302208550792003,0.02328323450064829
-4.0735,0.5155822539406614,0.3623756634660061
-4.073,0.4942419042253156,0.5637117931640043
-4.0725,0.4408910299368829,0.6590815388106942
-4.072,0.5475927785137094,0.6166949851900245
-4.0715,0.6222840025174199,0.54251851635392
-4.071,0.5689331282289872,0.5001319627331443
-4.0705,0.4729015545099309,0.457745409112513
-4.07,0.3875401556485474,0.3941655786815663
-4.0695,0.3235191065022089,0.3623756634662952
-4.069,0.142126133921769,0.6802748156210291
-4.0685,-0.5087545323968721,1.167720182258731
-4.068,-1.244996597577362,0.6908714540255027
-4.0675,-1.67180359188428,-0.07208651114585861
-4.067,-1.405049220442214,-0.2734226408440398
-4.0665,-0.807519428411491,-0.2098428104129196
-4.066,-0.2633405106701714,-0.08268314955102604
-4.0655,0.09944543449103843,0.05507314971615059
-4.065,0.2915085819291513,0.1504428953625707
-4.0645,0.3661998059331045,0.2246193641988295
-4.064,0.3768699807907871,0.2881991946298341
-4.0635,0.3555296310754412,0.3305857482504653
-4.063,0.3341892813600371,0.3729723018711928
-4.0625,0.3128489316446912,0.3941655786815084
-4.062,0.2915085819293454,0.4153588554918241
-4.0615,0.2808384070715269,0.3941655786813157
-4.061,0.1527963087794516,0.1822328105781598
-4.0605,-0.391382608962363,-0.5065486857577234
-4.06,-1.106284324427488,-1.237716735714701
-4.0595,-1.533091318734406,-1.703968825541643
-4.059,-1.202315898146244,-1.51322933424863
-4.0585,-0.4767440078244842,-0.9198175835597929
-4.058,0.1101156093487211,-0.2416327256285375
-4.0575,0.4408910299368829,0.3411823866556712
-4.057,0.5582629533712853,0.7014680924310364
-4.0565,0.5475927785137094,0.8604176685088755
-4.056,0.5049120790829789,0.8710143069140429
-4.0555,0.5049120790829789,0.8604176685088851
-4.055,0.6009436528020837,0.8922075837242429
-4.0545,0.5582629533713921,0.7438546460520338
-4.054,0.4729015545100085,0.52132523954372
-4.0535,0.3982103305061039,0.3305857482503689
-4.053,0.3448594562177392,0.1822328105781598
-4.0525,0.142126133921769,0.3411823866556712
-4.052,-0.5834457564014464,0.9769806909660739
-4.0515,-1.458400094730627,1.369056311956912
-4.051,-1.938557963326346,0.7438546460520338
-4.0505,-1.565101843307793,0.1398462569580393
-4.05,-0.8715404775580819,-0.08268314955102604
-4.0495,-0.2846808603855366,-0.09327978795619347
-4.049,0.110115609348362,0.002089957690226685
-4.0485,0.3128489316447592,0.1186529801472612
-4.048,0.3875401556484697,0.2352160026039969
-4.0475,0.3875401556484697,0.3411823866555749
-4.047,0.3661998059330754,0.4259554938970782
-4.0465,0.3341892813600565,0.5001319627331828
-4.046,0.3128489316447107,0.542518516353814
-4.0455,0.2915085819293163,0.5531151547590006
-4.045,0.2808384070716433,0.5319218779486851
-4.0445,0.2594980573562781,0.4365521323021782
-4.044,-0.188649286667014,-0.1568596183878823
-4.0435,-0.8715404775580819,-0.9092209451540858
-4.043,-1.351698346153801,-1.481439419033127
-4.0425,-1.287677297007763,-1.799338571187861
-4.042,-0.6047861061160158,-1.545019249464132
-4.0415,0.04609456020262521,-0.8668343915334161
-4.041,0.4302208550788509,-0.1992461720084751
-4.0405,0.5796033030867477,0.34118238665597
-4.04,0.5689331282290746,0.6696781772158616
-4.0395,0.504912079083037,0.8180311148880709
-4.039,0.4515612047946626,0.8392243916986273
-4.0385,0.5582629533713921,0.9345941373450475
-4.038,0.5689331282290649,0.8498210301037852
-4.0375,0.5049120790829013,0.6272916235949799
-4.037,0.4195506802215176,0.3941655786815084
-4.0365,0.3555296310754218,0.2034260873884947
-4.036,0.3555296310756353,0.1186529801475407
-4.0355,0.5902734779444399,0.5425185163538525
-4.035,0.2381577076409128,0.6378882620003594
-4.0345,-0.4554036581078281,-0.1356663415761596
-4.034,-0.9675720512772257,-0.6972881770507372
-4.0335,-0.839529952985034,-0.6231117082145651
-4.033,-0.4554036581088083,-0.3370024712753047
-4.0325,-0.09261771294702593,-0.05089323433533099
-4.032,0.1527963087794516,0.1610395337678249
-4.0315,0.2915085819291998,0.2881991946297184
-4.031,0.3448594562177489,0.3623756634660447
-4.0305,0.3555296310754218,0.4047622170866759
-4.03,0.3448594562177489,0.4259554938969914
-4.0295,0.3235191065023544,0.425955493897001
-4.029,0.3021787567870086,0.4153588554918433
-4.0285,0.291508581929326,0.3941655786815084
-4.028,0.2808384070714007,0.3305857482500895
-4.0275,0.01408403562957729,-0.1250697031716958
-4.027,-0.4554036581084589,-0.9092209451540858
-4.0265,-1.031593100422798,-1.566212526273869
-4.026,-1.148965023857831,-1.852321763213987
-4.0255,-0.5621054066852853,-1.703968825541643
-4.025,0.056764735059745,-1.152943628473438
-4.0245,0.4515612047946918,-0.4641621321364657
-4.024,0.5902734779444399,0.1822328105781598
-4.0235,0.5902734779444399,0.6060983467844716
-4.023,0.5262524287982859,0.7650479228623782
-4.0225,0.4622313796522482,0.775644561267536
-4.022,0.4729015545099212,0.8286277532933249
-4.0215,0.4835717293675747,0.8286277532932479
-4.021,0.4408910299368829,0.6908714540261965
-4.0205,0.3875401556484697,0.5213252395435176
-4.02,0.3448594562176324,0.3729723018711543
-4.0195,0.2274875327832301,0.3517790250608387
-4.019,-0.2420001609548061,0.8286277532933731
-4.0185,-0.8395299529844904,1.294879843120316
-4.018,-1.394379045584531,0.6908714540261965
-4.0175,-1.607782542738184,-0.1780528951975329
-4.017,-1.212986073004286,-0.4429688553264778
-4.0165,-0.6154562809732619,-0.3581957480852058
-4.016,-0.1352984123779797,-0.1674562567923655
-4.0155,0.1741366584945355,0.01268659609531703
-4.015,0.3235191065024224,0.1504428953627538
-4.0145,0.3768699807907871,0.2564092794143318
-4.014,0.3768699807907871,0.3305857482504364
-4.0135,0.3555296310753927,0.3835689402763796
-4.013,0.3235191065023739,0.4259554938970107
-4.0125,0.3021787567870086,0.4471487707073456
-4.012,0.2915085819293163,0.4471487707073167
-4.0115,0.2808384070716433,0.4153588554918433
-4.011,0.2168173579255475,0.06566978812131802
-4.0105,-0.3593720843887912,-0.7078848154552009
-4.01,-0.9889124009925911,-1.407262950196955
-4.0095,-1.394379045584531,-1.820531847998485
-4.009,-0.9995825758506327,-1.640388995110802
-4.0085,-0.2953510352427341,-1.078767159636119
-4.008,0.2381577076409128,-0.3687923864905467
-4.0075,0.5155822539404091,0.2246193641982898
-4.007,0.5796033030867185,0.6166949851902173
-4.0065,0.5369226036560266,0.8286277532933731
-4.006,0.4729015545099309,0.8710143069140429
-4.0055,0.4729015545100182,0.7862411996725878
-4.005,0.5689331282290746,0.6590815388106942
-4.0045,0.5369226036560266,0.5425185163538525
-4.004,0.4622313796521803,0.4365521323020721
-4.0035,0.3875401556484697,0.3199891098453364
-4.003,0.3341892813600565,0.2246193641988295
-4.0025,0.06743490991823314,0.457745409112301
-4.002,-0.7114878546928423,0.8604176685088755
-4.0015,-1.447729919872945,0.2987958330350016
-4.001,-1.9385579633259,-0.400582301705413
-4.0005,-1.959898313041119,-0.2310360872232256
-4,-1.30901764672307,-0.07208651114585861
-3.9995,-0.6154562809736985,-0.02969995752518888
-3.999,-0.08194753808956648,-0.01910331912002144
-3.9985,0.2274875327832301,-0.008506680714854012
-3.998,0.3661998059331045,0.01268659609548085
-3.9975,0.3982103305061524,0.06566978812131802
-3.997,0.3875401556484697,0.1292496185523226
-3.9965,0.3555296310754218,0.2034260873884947
-3.996,0.3235191065023739,0.2670059178194992
-3.9955,0.3021787567870086,0.3199891098453364
-3.995,0.291508581929326,0.3517790250608387
-3.9945,0.2701682322139607,0.3623756634660061
-3.994,-0.1779791118087102,-0.05089323433552374
-3.9935,-0.7861790786966207,-0.7290780922662394
-3.993,-1.223656247861609,-1.269506650929778
-3.9925,-1.084943974711735,-1.417859588602123
-3.992,-0.4127229586777283,-1.078767159636765
-3.9915,0.1527963087794516,-0.4111789401112165
-3.991,0.4835717293676135,0.2458126410091644
-3.9905,0.5796033030867573,0.6802748156210291
-3.99,0.5689331282290746,0.8816109453192104
-3.9895,0.5155822539406614,0.9557874141553824
-3.989,0.4835717293676135,0.9875773293708847
-3.9885,0.6009436528021226,1.082947075017392
-3.988,0.5902734779444399,0.9769806909657173
-3.9875,0.5155822539406614,0.7544512844572011
-3.987,0.4302208550792003,0.5213252395435176
-3.9865,0.3555296310754218,0.3199891098453364
-3.986,0.2381577076409128,0.3199891098453364
-3.9855,-0.3487019095316325,0.8392243916985406
-3.985,-1.148965023857831,0.9345941373450475
-3.9845,-1.703814116457328,0.1928294489833272
-3.984,-1.927887788468663,0.06566978812131802
-3.9835,-1.458400094730627,0.1080563417419877
-3.983,-0.7755089038389382,0.04447651131098315
-3.9825,-0.2099896363817582,-0.04029659593035631
-3.982,0.1527963087794516,-0.07208651114585861
-3.9815,0.3341892813600565,-0.07208651114585861
-3.981,0.3982103305061524,-0.02969995752518888
-3.9805,0.3875401556484697,0.04447651131098315
-3.98,0.3661998059331045,0.1292496185523226
-3.9795,0.3341892813600565,0.2140227257936621
-3.979,0.3128489316446912,0.2881991946298341
-3.9785,0.291508581929326,0.3305857482505039
-3.978,0.291508581929326,0.3199891098453364
-3.9775,0.03542438534494258,-0.1462629799820306
-3.977,-0.5834457564006506,-0.8138511995075789
-3.9765,-1.138294849000148,-1.322489842955616
-3.976,-1.330357996438436,-1.42845622700729
-3.9755,-0.722158029550525,-1.131750351662602
-3.975,-0.04993701351651855,-0.6549016234300674
-3.9745,0.3875401556484697,-0.07208651114585861
-3.974,0.5689331282290746,0.4365521323021782
-3.9735,0.5902734779444399,0.8074344764830383
-3.973,0.5262524287983441,0.9769806909657173
-3.9725,0.4622313796522482,1.019367244586387
-3.972,0.5689331282290746,1.093543713422559
-3.9715,0.6222840025174878,1.040560521396722
-3.971,0.5582629533713921,0.8392243916985406
-3.9705,0.4622313796522482,0.6060983467848571
-3.97,0.3875401556484697,0.3941655786815084
-3.9695,0.291508581929326,0.2776025562246667
-3.969,-0.1779791118087102,0.6590815388106942
-3.9685,-0.8715404775580819,0.8816109453192104
-3.968,-1.501080794161358,0.1292496185523226
-3.9675,-1.906547438753298,-0.2840192792492073
-3.967,-1.714484291315011,-0.07208651114585861
-3.9665,-1.042263275281004,0.002089957690313421
-3.966,-0.4127229586777283,-0.008506680714854012
-3.9655,0.03542438534494258,-0.02969995752518888
-3.965,0.2808384070716433,-0.04029659593035631
-3.9645,0.3875401556484697,-0.02969995752518888
-3.964,0.3982103305061524,0.01268659609548085
-3.9635,0.3875401556484697,0.07626642652648545
-3.963,0.3555296310754218,0.13984625695749
-3.9625,0.3235191065023739,0.2034260873884947
-3.962,0.3021787567870086,0.2564092794143318
-3.9615,0.3021787567870086,0.2881991946298341
-3.961,0.1954770082101822,0.1716361721729923
-3.9605,-0.3807124341046804,-0.400582301706049
-3.96,-0.7861790786966207,-1.004590690800593
-3.9595,-0.8822106524157645,-1.364876396576285
-3.959,-0.4554036581084589,-1.216523458903942
-3.9585,0.09944543449103843,-0.7078848154559045
-3.958,0.4515612047945656,-0.01910331912002144
-3.9575,0.6009436528021226,0.5001319627331828
-3.957,0.6222840025174878,0.8710143069140429
-3.9565,0.5689331282290746,1.051157159801889
-3.956,0.5049120790829789,1.051157159801889
-3.9555,0.5262524287983441,1.040560521396722
-3.955,0.6436243522328531,1.029963882991555
-3.9545,0.6009436528021226,0.8286277532933731
-3.954,0.5049120790829789,0.5743084315693548
-3.9535,0.4195506802215176,0.3623756634660061
-3.953,0.3555296310754218,0.2034260873884947
-3.9525,0.1527963087794516,0.3941655786815084
-3.952,-0.4020527838200457,0.7544512844572011
-3.9515,-0.7434983792658902,0.1716361721729923
-3.951,-1.042263275281004,-0.5383386009732256
-3.9505,-1.1062843244271,-0.4959520473525559
-3.95,-0.7328282044082075,-0.3158091944647096
-3.9495,-0.2846808603855366,-0.1568596183871981
-3.949,0.05676473506030786,-0.04029659593035631
-3.9485,0.2488278824985954,0.04447651131098315
-3.948,0.3448594562177392,0.1080563417419877
-3.9475,0.3661998059331045,0.1716361721729923
-3.947,0.3661998059331045,0.2246193641988295
-3.9465,0.3448594562177392,0.2881991946298341
-3.946,0.3128489316446912,0.3305857482505039
-3.9455,0.3021787567870086,0.3517790250608387
-3.945,0.291508581929326,0.3517790250608387
-3.9445,0.2701682322139607,0.2564092794143318
-3.944,-0.1459685872356623,-0.252229364033705
-3.9435,-0.754168554123573,-0.9833974139902578
-3.943,-1.244996597576974,-1.534422611058964
-3.9425,-1.1062843244271,-1.566212526274467
-3.942,-0.4554036581084589,-1.05757388282643
-3.9415,0.1314559590640864,-0.3899856633008816
-3.941,0.4622313796522482,0.1928294489833272
-3.9405,0.5902734779444399,0.5955017083796896
-3.94,0.5796033030867573,0.8180311148882058
-3.9395,0.5155822539406614,0.92399749893988
-3.939,0.4835717293676135,0.9345941373450475
-3.9385,0.5902734779444399,0.9981739677760521
-3.938,0.5796033030867573,0.8604176685088755
-3.9375,0.5049120790829789,0.627291623595192
-3.937,0.4195506802215176,0.4047622170866759
-3.9365,0.3555296310754218,0.2034260873884947
-3.936,0.3021787567870086,0.1928294489833272
-3.9355,-0.07127736323188383,0.6378882620003594
-3.935,-0.7648387289812555,0.5107286011383502
-3.9345,-1.351698346153801,-0.2310360872233701
-3.934,-1.682473766741963,-0.1674562567923655
-3.9335,-1.373038695869166,0.04447651131098315
-3.933,-0.754168554123573,0.05507314971615059
-3.9325,-0.2206598112394408,0.02328323450064829
-3.932,0.1314559590640864,-0.008506680714854012
-3.9315,0.3128489316446912,0.002089957690313421
-3.931,0.3768699807907871,0.04447651131098315
-3.9305,0.3875401556484697,0.1186529801471552
-3.93,0.3661998059331045,0.2034260873884947
-3.9295,0.3341892813600565,0.2881991946298341
-3.929,0.3128489316446912,0.3411823866556712
-3.9285,0.3021787567870086,0.383568940276341
-3.928,0.3021787567870086,0.3941655786815084
-3.9275,0.2274875327832301,0.1504428953626575
-3.927,-0.1139580626626144,-0.5383386009732256
-3.9265,-0.7968492535543035,-1.195330182093607
-3.926,-1.020922925565639,-1.396666311791788
-3.9255,-0.4980843575391895,-1.110557074852267
-3.925,0.0674349099179905,-0.5383386009732256
-3.9245,0.4302208550792003,0.08686306493165288
-3.924,0.5689331282290746,0.5425185163538525
-3.9235,0.5796033030867573,0.8286277532933731
-3.923,0.5475927785137094,0.9557874141553824
-3.9225,0.4942419042252961,0.9451907757502149
-3.922,0.5582629533713921,0.9663840525605498
-3.9215,0.5689331282290746,0.8604176685088755
-3.921,0.5049120790829789,0.6484849004055269
-3.9205,0.4302208550792003,0.4153588554918433
-3.92,0.3661998059331045,0.2352160026039969
-3.9195,0.2381577076409128,0.2034260873884947
-3.919,-0.3060212101009019,0.701468092431364
-3.9185,-1.074273799854052,1.347863035146577
-3.918,-1.458400094730627,1.167720182258731
-3.9175,-1.661133417026597,0.6802748156210291
-3.917,-1.405049220442214,0.5001319627331828
-3.9165,-0.807519428411986,0.2564092794143318
-3.916,-0.2633405106701714,0.06566978812131802
-3.9155,0.1101156093487211,-0.01910331912002144
-3.915,0.3021787567870086,-0.01910331912002144
-3.9145,0.3768699807907871,0.04447651131098315
-3.914,0.3875401556484697,0.13984625695749
-3.9135,0.3661998059331045,0.2564092794143318
-3.913,0.3448594562177392,0.3517790250608387
-3.9125,0.3128489316446912,0.4259554938970107
-3.912,0.3021787567870086,0.457745409112513
-3.9115,0.291508581929326,0.457745409112513
-3.911,0.2061471830678648,0.2352160026039969
-3.9105,-0.08194753808956648,-0.400582301706049
-3.91,-0.6154562809736985,-1.046977244421262
-3.9095,-1.010252750707956,-1.47084278062796
-3.909,-0.6474668055467465,-1.555615887869299
-3.9085,-0.07127736323188383,-1.0999604364471
-3.908,0.3448594562177392,-0.3475991096802118
-3.9075,0.5475927785137094,0.3199891098453364
-3.907,0.5902734779444399,0.7544512844572011
-3.9065,0.5475927785137094,0.92399749893988
-3.906,0.4729015545099309,0.92399749893988
-3.9055,0.4729015545099309,0.7544512844572011
-3.905,0.4942419042252961,0.5319218779486851
-3.9045,0.4622313796522482,0.3729723018711736
-3.904,0.408880505363835,0.2670059178194992
-3.9035,0.3555296310754218,0.1716361721729923
-3.903,0.3235191065023739,0.09745970333682032
-3.9025,0.07810508477567314,0.3411823866556712
-3.902,-0.5300948821122373,0.8286277532933731
-3.9015,-1.255666772434657,0.4259554938970107
-3.901,-1.799845690176472,-0.2416327256285375
-3.9005,-1.799845690176472,-0.1568596183871981
-3.9,-1.180975548430879,-0.07208651114585861
-3.8995,-0.5300948821122373,-0.05089323433552374
-3.899,-0.03926683865883591,-0.02969995752518888
-3.8985,0.2488278824985954,-0.008506680714854012
-3.898,0.3661998059331045,0.02328323450064829
-3.8975,0.3982103305061524,0.07626642652648545
-3.897,0.3875401556484697,0.13984625695749
-3.8965,0.3555296310754218,0.2140227257936621
-3.896,0.3341892813600565,0.2670059178194992
-3.8955,0.3128489316446912,0.309392471440169
-3.895,0.3021787567870086,0.3411823866556712
-3.8945,0.2488278824985954,0.1928294489833272
-3.894,0.00341386077189465,-0.4217755785163839
-3.8935,-0.4660738329661415,-1.142346990067769
-3.893,-1.031593100423322,-1.629792356705471
-3.8925,-1.074273799854052,-1.778145294377815
-3.892,-0.5514352318276028,-1.407262950196955
-3.8915,0.00341386077189465,-0.6866915386455698
-3.891,0.3661998059331045,0.002089957690313421
-3.8905,0.5155822539406614,0.5107286011383502
-3.89,0.5369226036560266,0.8074344764830383
-3.8895,0.4942419042252961,0.92399749893988
-3.889,0.4729015545099309,0.9451907757502149
-3.8885,0.5902734779444399,0.9981739677760521
-3.888,0.5796033030867573,0.8604176685088755
-3.8875,0.5049120790829789,0.627291623595192
-3.887,0.4195506802215176,0.3941655786815084
-3.8865,0.3661998059331045,0.2034260873884947
