Class_8_Think_right_hand_movement/Class_8_Think_Right_hand_mouvement_turki_4.csv

#Digilent WaveForms Oscilloscope Acquisition
#Device Name: EExplorer
#Serial Number: SN:210151A2B84A
#Date Time: 2020-12-10 14:10:06.234
#Sample rate: 2000Hz
#Samples: 16384
#Trigger: Source: Channel 1 Type: Edge Condition: Rising Level: 0 V Hyst.: Auto HoldOff: 0 s
#Channel 1: Range: 1 V/div Offset: 0 V Attenuation: 1 X
#Channel 2: Range: 1 V/div Offset: 0 V Attenuation: 1 X
#Power Supplies: ON
#Fixed Supply: ON
#Voltage: 3.3 V Readback: 3.328 V
#Positive Supply: ON
#Voltage: 3.7 V Readback: 3.705 V
#Current: 40 mA Readback: 20 mA
#Negative Supply: ON
#Voltage: -3.7 V Readback: -3.924 V
#Current: -40 mA Readback: -4 mA
#Reference 1: ON
#Voltage: 0 V
#Reference 2: ON
#Voltage: 0 V

Time (s),Channel 1 (V),Channel 2 (V)
-4.096,-0.6688071552621118,1.199510097474233
-4.0955,-0.7328282044081493,0.7120647308369747
-4.095,-1.373038695869603,-0.3899856633018839
-4.0945,-1.853196564464885,-1.492036057438295
-4.094,-2.066600061618344,-2.276187299419971
-4.0935,-2.472066706210158,-2.890792326920742
-4.093,-2.119950935906951,-3.272271309506423
-4.0925,-1.074273799855003,-2.583489813171166
-4.092,-0.1779791118082153,-1.619195718299725
-4.0915,0.3661998059331045,-0.9833974139902578
-4.091,0.6222840025174878,-0.7078848154559045
-4.0905,0.6863050516636129,-0.7184814538612455
-4.09,0.7183155762366316,-0.9092209451540858
-4.0895,0.8676980242441885,-1.0999604364471
-4.089,0.7716664505251322,-0.9833974139903638
-4.0885,0.5902734779444399,-0.7502713690765743
-4.088,0.4515612047945656,-0.4853554089473885
-4.0875,0.3448594562178362,-0.2628260024390748
-4.087,0.5582629533719355,0.05507314971655537
-4.0865,1.15579274540162,0.5001319627331828
-4.086,0.9957401225365258,0.01268659609592415
-4.0855,0.09944543449003887,-0.7820612842926356
-4.085,-0.9995825758502737,-1.396666311791788
-4.0845,-1.319687821580462,-1.29069992774021
-4.084,-0.9995825758498467,-0.4747587705414019
-4.0835,-0.5300948821122373,0.4259554938970107
-4.083,-0.1459685872356623,1.135930267043229
-4.0825,0.09944543449114518,1.59158571846565
-4.082,0.2168173579255475,1.835308401784279
-4.0815,0.2488278824985954,1.941274785835954
-4.081,0.2381577076409225,1.951871424241111
-4.0805,0.1634664836371343,1.962468062646288
-4.08,0.09944543449103843,1.962468062646288
-4.0795,0.05676473506034668,1.877694955405026
-4.079,-0.04993701351700378,1.750535294542824
-4.0785,-0.5834457564006506,1.623375633680931
-4.078,-1.170305373572662,1.252493289500408
-4.0775,-1.575772018165194,0.2140227257929103
-4.077,-1.639793067311232,-0.6125150698093976
-4.0765,-2.045259711902804,-1.756952017566439
-4.076,-1.202315898145487,-1.68277554873099
-4.0755,-0.3700422592469978,-1.333086481360783
-4.075,0.2488278824985954,-0.8668343915334161
-4.0745,0.6222840025175363,-0.5489352393783834
-4.074,0.6756348768059011,-0.5383386009732256
-4.0735,0.6116138276598051,-0.6125150698093976
-4.073,0.7289857510942075,-0.7078848154558178
-4.0725,0.6756348768059011,-0.4853554089473885
-4.072,0.5369226036560266,-0.2628260024388724
-4.0715,0.3982103305062785,-0.1038764263615055
-4.071,0.3235191065025291,0.03387987290569043
-4.0705,0.4942419042252961,-0.1038764263613609
-4.07,1.19847344483171,-0.05089323433557193
-4.0695,1.539919040277525,0.0126865960949026
-4.069,0.8036769750980928,-0.6231117082145651
-4.0685,-0.5407650569699201,-1.237716735714276
-4.068,-1.565101843307434,-1.576809164679152
-4.0675,-1.543761493592088,-1.046977244421262
-4.067,-1.020922925565639,-0.06148987274069118
-4.0665,-0.4767440078234652,0.8392243916991188
-4.066,-0.08194753808956648,1.475022696008586
-4.0655,0.1527963087794516,1.856501678594614
-4.065,0.248827882498508,2.026047893077139
-4.0645,0.2701682322139607,2.068434446697963
-4.064,0.2274875327832301,2.047241169887628
-4.0635,0.1741366584948654,1.973064701051523
-4.063,0.1314559590640184,1.814115124973645
-4.0625,0.05676473506030786,1.485619334413754
-4.062,-0.3273615598159179,0.9663840525610221
-4.0615,-0.9782422261353257,0.6166949851893017
-4.061,-1.437059745015262,-0.1780528951975329
-4.0605,-1.426389570157579,-0.8456411147230812
-4.06,-0.6367966306882777,-1.333086481360812
-4.0595,0.2274875327832301,-1.364876396576285
-4.059,0.5689331282290746,-1.131750351662602
-4.0585,0.8250173248132251,-0.7502713690769213
-4.058,0.2061471830678648,-1.269506650929778
-4.0575,0.2168173579255475,-1.258910012524611
-4.057,0.2594980573562393,-1.237716735714296
-4.0565,0.3235191065023739,-1.184733543688439
-4.056,0.3982103305061524,-0.8986243067489184
-4.0555,0.3661998059331336,-0.707884815456078
-4.055,0.3128489316446524,-0.5701285161886027
-4.0545,0.2701682322139607,-0.4323722169215513
-4.054,0.3341892813599983,-0.2204394488183954
-4.0535,0.8997085488176635,-0.04029659593022138
-4.053,1.369196242555273,0.1080563417419877
-4.0525,0.9850699476786977,-0.5277419625680583
-4.052,0.04609456020163536,-1.131750351662978
-4.0515,-1.042263275281004,-1.545019249464132
-4.051,-1.437059745015262,-1.364876396576285
-4.0505,-1.116954499285074,-0.3793890248966104
-4.05,-0.6261264558313813,0.7120647308365314
-4.0495,-0.1886492866663929,1.570392441655093
-4.049,0.07810508477543052,2.110821000318141
-4.0485,0.2168173579255863,2.375736960447876
-4.048,0.2594980573562781,2.439316790878823
-4.0475,0.2274875327832592,2.386333598853034
-4.047,0.1527963087793837,2.312157130016698
-4.0465,0.07810508477567314,2.184997469154805
-4.046,0.05676473506032727,1.973064701051649
-4.0455,-0.1459685872362543,1.379652950361617
-4.045,-0.7968492535543035,0.8710143069140429
-4.0445,-1.458400094730627,0.8816109453192104
-4.044,-1.778505340460524,0.5319218779480297
-4.0435,-1.138294849000148,-0.1886495336027004
-4.043,0.00341386077189465,-0.9304142219644207
-4.0425,0.7609962756666733,-1.089363798041788
-4.042,1.059761171682476,-0.8456411147230812
-4.0415,1.049090996824793,-0.7078848154559045
-4.041,0.7823366253829702,-0.8456411147229559
-4.0405,0.6542945270898177,-0.8456411147236884
-4.04,-0.1352984123779797,-1.51322933424863
-4.0395,0.03542438534478731,-1.025783967611371
-4.039,0.1207857842064911,-0.7184814538609178
-4.0385,0.2168173579255475,-0.5489352393783931
-4.038,0.302178756786931,-0.3687923864907106
-4.0375,0.2915085819296365,-0.2628260024390073
-4.037,0.6329541773751706,-0.4111789401112165
-4.0365,1.347855892839907,-0.2628260024388724
-4.036,1.326515543123581,-0.538338600973881
-4.0355,0.2701682322139607,-1.258910012524611
-4.035,-0.9569018764195432,-1.75695201756748
-4.0345,-1.266336947292058,-1.386069673386958
-4.034,-0.9462317015618604,-0.3370024712750445
-4.0335,-0.4980843575391895,0.7120647308365314
-4.033,-0.1246282375206367,1.506812611223366
-4.0325,0.09944543449114518,1.994257977862022
-4.032,0.2168173579255475,2.248577299585809
-4.0315,0.2594980573562393,2.322753768421914
-4.031,0.2381577076408157,2.30156049161155
-4.0305,0.1314559590640864,2.195594107559972
-4.03,0.03542438534502992,1.845905040189765
-4.0295,-0.01792648894359678,1.612778995275416
-4.029,-0.156638762093345,1.231300012689736
-4.0285,-0.6261264558313813,0.5637117931641874
-4.028,-1.084943974712046,0.129249618551648
-4.0275,-1.426389570157579,-0.6125150698093976
-4.027,-1.074273799854052,-1.089363798041932
-4.0265,-0.1246282375211607,-1.502632695843086
-4.026,0.5689331282290746,-1.407262950196955
-4.0255,0.8997085488172365,-1.036380606016095
-4.025,0.9423892482479281,-0.8032545611026235
-4.0245,0.8676980242440721,-0.6972881770507275
-4.024,0.7396559259519968,-0.6866915386455698
-4.0235,0.6436243522329405,-0.7926579226971476
-4.023,0.7183155762365054,-0.9410108603695593
-4.0225,0.5796033030867573,-0.9092209451540858
-4.022,0.4195506802216632,-0.7078848154560876
-4.0215,-0.2846808603854202,-1.078767159636408
-4.021,-0.156638762093345,-0.6866915386455698
-4.0205,0.2061471830678648,-0.3581957480853793
-4.02,1.091771696255592,0.01268659609530738
-4.0195,1.166462920259302,-0.1780528951975329
-4.019,0.2488278824985954,-1.089363798041932
-4.0185,-1.095614149568195,-1.852321763213294
-4.018,-1.885207089037933,-2.021867977696666
-4.0175,-1.639793067311232,-1.163540266878104
-4.017,-1.010252750708529,0.002089957689253463
-4.0165,-0.4233931335350422,0.9663840525611377
-4.016,-0.01792648894347063,1.612778995275763
-4.0155,0.1954770082099881,1.951871424240813
-4.015,0.2808384070716433,2.07903108510313
-4.0145,0.2808384070716433,2.07903108510313
-4.014,0.2488278824986245,2.015451254672183
-4.0135,0.2061471830678066,1.94127478583577
-4.013,0.142126133921769,1.739938656137773
-4.0125,0.08877525963335578,1.231300012689736
-4.012,-0.1886492866669169,0.6378882620000413
-4.0115,-0.7648387289812555,0.2881991946298341
-4.011,-1.234326422719292,-0.4853554089473885
-4.0105,-1.180975548430927,-1.311893204549696
-4.01,-0.1352984123779797,-1.990078062481164
-4.0095,1.006410297394063,-2.382153683472359
-4.009,1.507908515704691,-1.852321763214469
-4.0085,1.422547116843434,-1.036380606015594
-4.008,1.145122570543937,-0.4853554089473885
-4.0075,0.8676980242444408,-0.2310360872236014
-4.007,0.6649647019481989,-0.2946159176545481
-4.0065,0.6436243522328531,-0.4853554089473885
-4.006,0.6009436528021226,-0.4853554089473885
-4.0055,0.5262524287983052,-0.4323722169214742
-4.005,0.4835717293676135,-0.3475991096802118
-4.0045,0.3448594562177392,-0.2840192792492073
-4.004,0.3448594562181371,-0.4217755785165285
-4.0035,0.7823366253827275,-0.5807251545938954
-4.003,0.5049120790829789,-1.025783967610927
-4.0025,0.1101156093490801,-1.333086481360503
-4.002,-0.9035510021311299,-1.735758740757146
-4.0015,-1.607782542738184,-1.873515040024322
-4.001,-1.37303869586938,-1.131750351663277
-4.0005,-0.8822106524153278,-0.1462629799812404
-4,-0.4020527838200457,0.7226613692416989
-3.9995,-0.04993701351651855,1.326669758336243
-3.999,0.142126133921769,1.676358825706768
-3.9985,0.2274875327832301,1.835308401784279
-3.998,0.2594980573562781,1.877694955404949
-3.9975,0.2488278824985954,1.835308401784279
-3.997,0.2061471830678648,1.79292184816361
-3.9965,0.1527963087794516,1.729342017732605
-3.996,0.07810508477567314,1.591585718465428
-3.9955,-0.1032878878049318,1.082947075017392
-3.995,-0.5514352318276028,0.5319218779486851
-3.9945,-0.9782422261349084,-0.2840192792492073
-3.994,-1.277007122150022,-1.216523458903942
-3.9935,-1.138294849000148,-1.767548655972648
-3.993,-0.391382608962363,-1.449649503817625
-3.9925,0.3235191065023739,-0.8986243067489184
-3.992,0.6863050516635838,-0.4429688553267188
-3.9915,0.7716664505250448,-0.3158091944647096
-3.991,0.7503261008096795,-0.400582301706049
-3.9905,0.6863050516635838,-0.5277419625680583
-3.99,0.6222840025174878,-0.6125150698093976
-3.9895,0.5582629533713921,-0.5065486857577234
-3.989,0.4515612047945656,-0.400582301706049
-3.9885,0.3448594562177392,-0.3370024712750445
-3.988,0.2808384070716433,-0.2416327256285375
-3.9875,0.2594980573562781,-0.1250697031716958
-3.987,0.6222840025174878,0.2140227257936621
-3.9865,1.347855892839907,0.8074344764830383
-3.986,1.411876941986003,0.627291623595192
-3.9855,0.4515612047945656,-0.2946159176543747
-3.985,-0.3700422592469978,-0.8350444763179138
-3.9845,-1.244996597576974,-1.248313374119443
-3.984,-0.9355615267041777,-0.3581957480853793
-3.9835,-0.5621054066852853,0.5425185163538525
-3.983,-0.156638762093345,1.33726639674141
-3.9825,0.1101156093487211,1.877694955404949
-3.982,0.1848068333524996,2.110821000318633
-3.9815,0.2061471830678648,2.216787384370307
-3.981,0.1954770082101822,2.248577299585809
-3.9805,0.142126133921769,2.269770576396144
-3.98,0.0674349099179905,2.227384022775475
-3.9795,0.02475421048725994,2.089627723508298
-3.979,-0.1139580626626144,1.633972272086098
-3.9785,-0.8288597781273515,0.9769806909657173
-3.978,-1.426389570157579,0.309392471440169
-3.9775,-1.533091318734406,-0.718481453861072
-3.977,-1.180975548430879,-1.38606967338662
-3.9765,-0.3593720843893152,-1.84172512480882
-3.976,0.4942419042252961,-2.117237723343173
-3.9755,0.8997085488172365,-1.79933857118815
-3.975,0.9530594231056497,-1.216523458903942
-3.9745,0.8463576745288233,-0.792657922697244
-3.974,0.707645401378949,-0.6125150698093976
-3.9735,0.6222840025174878,-0.6337083466197325
-3.973,0.7823366253827275,-0.8138511995075789
-3.9725,0.7503261008096795,-0.7714646458869092
-3.972,0.5796033030867573,-0.5913217929990628
-3.9715,0.4302208550792003,-0.3475991096802118
-3.971,0.3235191065023739,-0.1674562567923655
-3.9705,0.5262524287983441,0.002089957690313421
-3.97,1.166462920259302,0.1186529801471552
-3.9695,1.123782220828572,-0.1356663415768632
-3.969,0.3982103305061524,-0.6654982618352349
-3.9685,-0.5941159312583333,-1.05757388282643
-3.968,-1.116954499284783,-1.004590690800593
-3.9675,-1.06360362499637,-0.4111789401112165
-3.967,-0.6261264558313813,0.4259554938970107
-3.9665,-0.7648387289812555,0.5637117931641874
-3.966,-0.5514352318276028,0.9451907757502149
-3.9655,-0.2526703358124887,1.326669758336243
-3.965,-0.01792648894347063,1.591585718465428
-3.9645,0.1848068333524996,1.782325209758442
-3.964,0.2168173579255475,1.79292184816361
-3.9635,0.1741366584948169,1.739938656137773
-3.963,0.1101156093487211,1.633972272086098
-3.9625,0.04609456020262521,1.432636142387917
-3.962,-0.156638762093345,0.8922075837243778
-3.9615,-0.4660738329661415,0.5319218779486851
-3.961,-0.807519428411986,-0.4323722169215513
-3.9605,-1.010252750707956,-1.47084278062796
-3.96,-0.2633405106701714,-2.276187299420684
-3.9595,0.8036769750980928,-2.795422581273889
-3.959,1.305175193409177,-2.21260746898968
-3.9585,1.326515543124542,-1.34368311976595
-3.958,1.134452395686255,-0.7714646458869092
-3.9575,0.8783681991018712,-0.4959520473525559
-3.957,0.6542945270905358,-0.3899856633008816
-3.9565,0.6863050516635838,-0.5065486857577234
-3.956,0.6649647019482183,-0.4959520473525559
-3.9555,0.5262524287983441,-0.3793890248957141
-3.955,0.3875401556484697,-0.2628260024388724
-3.9545,0.2808384070716433,-0.1462629799820306
-3.954,0.3341892813600565,-0.01910331912002144
-3.9535,0.9530594231056497,0.2034260873884947
-3.953,1.390536592270638,0.3729723018711736
-3.9525,0.857027849386506,-0.1462629799820306
-3.952,-0.1886492866663929,-0.6443049850249
-3.9515,-1.031593100423322,-1.036380606016095
-3.951,-1.084943974711735,-0.7290780922662394
-3.9505,-0.7328282044082075,-0.01910331912002144
-3.95,-0.3380317346739499,0.6696781772158616
-3.9495,-0.04993701351651855,1.178316820663898
-3.949,0.09944543449103843,1.475022696008586
-3.9485,0.08877525963335578,1.549199164844759
-3.948,0.04609456020262521,1.528005888034424
-3.9475,-0.572775581542968,0.9557874141553824
-3.947,-0.4020527838200457,1.104140351827727
-3.9465,-0.2526703358124887,1.188913459069066
-3.946,-0.1139580626626144,1.29487984312074
-3.9455,-0.3593720843893152,0.9769806909657173
-3.945,-1.255666772434657,0.5319218779486851
-3.9445,-1.789175515318789,-0.4429688553267188
-3.944,-1.799845690176472,-1.417859588602123
-3.9435,-0.9035510021311299,-2.043061254507001
-3.943,0.1741366584948169,-2.339767129851689
-3.9425,0.7823366253827275,-1.926498232050159
-3.942,1.017080472251745,-1.375473034981453
-3.9415,0.9957401225363802,-0.8880276683437509
-3.941,0.8463576745288233,-0.6019184314042303
-3.9405,0.6863050516635838,-0.5383386009732256
-3.94,0.6649647019482183,-0.6337083466197325
-3.9395,0.6969752265212663,-0.6760949002404023
-3.939,0.5902734779444399,-0.5383386009732256
-3.9385,0.4408910299368829,-0.3581957480853793
-3.938,0.3341892813600565,-0.1886495336027004
-3.9375,0.3341892813600565,-0.1038764263613609
-3.937,0.8783681991018712,-0.2840192792492073
-3.9365,1.529248865420512,0.06566978812131802
-3.936,1.134452395686255,-0.1992461720078678
-3.9355,0.04609456020262521,-0.6972881770507372
-3.935,-1.138294849000148,-1.152943628472937
-3.9345,-1.586442193022819,-1.110557074852267
-3.934,-1.244996597576974,-0.3687923864905467
-3.9335,-0.7114878546928423,0.4895353243280153
-3.933,-0.2526703358124887,1.167720182258731
-3.9325,0.03542438534494258,1.602182356870596
-3.932,0.1848068333524996,1.835308401784279
-3.9315,0.2274875327832301,1.909484870620451
-3.931,0.2168173579255475,1.888291593810116
-3.9305,0.1527963087794516,1.898888232215284
-3.93,0.07810508477567314,1.888291593810116
-3.9295,0.02475421048725994,1.803518486568777
-3.929,-0.274010685527854,1.29487984312074
-3.9285,-0.3700422592469978,1.093543713422559
-3.928,-1.127624674142465,-0.02969995752518888
-3.9275,-1.543761493592088,-1.078767159636765
-3.927,-1.618452717595867,-1.75695201756748
-3.9265,-1.138294849000148,-1.915901593644992
-3.926,-0.3380317346739499,-1.375473034981453
-3.9255,0.3021787567870086,-0.8350444763179138
-3.925,0.5902734779444399,-0.570128516188728
-3.9245,0.707645401378949,-0.4853554089473885
-3.924,0.6863050516635838,-0.570128516188728
-3.9235,0.6649647019482183,-0.7502713690765743
-3.923,0.7716664505250448,-0.9939940523954253
-3.9225,0.6756348768059011,-0.8244478379127463
-3.922,0.5155822539406614,-0.5383386009732256
-3.9215,0.3768699807907871,-0.2734226408440398
-3.921,0.2808384070716433,-0.05089323433552374
-3.9205,0.4835717293676135,-0.008506680714854012
-3.92,0.5369226036560266,-0.6760949002404023
-3.9195,-0.06060718837420119,-1.449649503817625
-3.919,-0.8928808272734472,-1.937094870455327
-3.9185,-1.778505340461106,-2.106641084938006
-3.918,-1.991908837614759,-1.682775548731308
-3.9175,-1.458400094730627,-0.6019184314042303
-3.917,-0.7861790786966207,0.4789386859228479
-3.9165,-0.2526703358124887,1.284283204715573
-3.916,0.0674349099179905,1.75053529454294
-3.9155,0.2168173579255475,1.941274785835954
-3.915,0.2701682322139607,1.973064701051456
-3.9145,0.2488278824985954,1.888291593810116
-3.914,0.1954770082101822,1.814115124973944
-3.9135,0.1314559590640864,1.771728571353275
-3.913,0.05676473506030786,1.697552102517103
-3.9125,-0.03926683865883591,1.453829419198252
-3.912,-0.4767440078238243,0.6696781772158616
-3.9115,-1.127624674142465,-0.3687923864905467
-3.911,-1.490410619303675,-1.205926820498774
-3.9105,-1.405049220442214,-1.407262950196955
-3.91,-0.6047861061160158,-1.608599079895136
-3.9095,0.1848068333524996,-1.301296566145281
-3.909,0.1741366584948169,-1.42845622700729
-3.9085,0.2274875327832301,-1.301296566145281
-3.908,0.3982103305061524,-1.046977244421262
-3.9075,0.4835717293676135,-0.9092209451540858
-3.907,0.5796033030867573,-0.7820612842920766
-3.9065,0.7183155762366316,-0.8880276683437509
-3.906,0.6863050516635838,-0.8032545611024114
-3.9055,0.5369226036560266,-0.6019184314042303
-3.905,0.3768699807907871,-0.3687923864905467
-3.9045,0.2701682322139607,-0.1674562567923655
-3.904,0.3235191065023739,0.1292496185523226
-3.9035,0.8890383739595538,0.7968378380778709
-3.903,1.219813794547716,0.6166949851900245
-3.9025,0.5262524287983441,-0.326405832869877
-3.902,-0.5941159312583333,-1.05757388282643
-3.9015,-1.682473766741963,-1.523825972653797
-3.901,-1.799845690176472,-1.174136905283272
-3.9005,-1.26633694729234,-0.1992461720078678
-3.9,-0.6474668055467465,0.7650479228623686
-3.8995,-0.1779791118087102,1.485619334413754
-3.899,0.09944543449103843,1.920081509025619
-3.8985,0.2274875327832301,2.1214176387238
-3.898,0.2594980573562781,2.16380419234447
-3.8975,0.2168173579255475,2.132014277128968
-3.897,0.1314559590640864,2.068434446697963
-3.8965,0.05676473506030786,1.962468062646288
-3.896,0.01408403562957729,1.782325209758442
-3.8955,-0.3807124341046804,1.220703374284568
-3.895,-1.095614149569417,0.8180311148882058
-3.8945,-1.490410619303675,0.1504428953626575
-3.894,-1.437059745015262,-0.6549016234300674
-3.8935,-0.4127229586777283,-1.269506650929778
-3.893,0.8783681991018712,-1.831128486403653
-3.8925,1.582599739708926,-2.064254531317336
-3.892,1.56125938999356,-1.650985633515806
-3.8915,1.251824319120764,-1.142346990067769
-3.891,0.6329541773751706,-1.0999604364471
-3.8905,0.05676473506030786,-1.280103289334946
-3.89,0.1954770082101822,-1.205926820498774
-3.8895,0.4408910299368829,-1.05757388282643
-3.889,0.5262524287983441,-0.7078848154559045
-3.8885,0.4942419042252961,-0.4217755785163839
-3.888,0.3982103305061524,-0.2734226408440398
-3.8875,0.3768699807907871,-0.2310360872233701
-3.887,0.5369226036560266,-0.5277419625680583
-3.8865,0.5796033030867573,-0.5065486857577234
-3.886,0.02475421048725994,-1.036380606016095
