Class_8_Think_right_hand_movement/Class_8_Think_Right_hand_mouvement_Suko_1.csv

#Digilent WaveForms Oscilloscope Acquisition
#Device Name: EExplorer
#Serial Number: SN:210151A2B84A
#Date Time: 2020-11-04 11:20:52.718
#Sample rate: 2000Hz
#Samples: 16384
#Trigger: Source: Channel 1 Type: Edge Condition: Rising Level: 0 V Hyst.: Auto HoldOff: 0 s
#Channel 1: Range: 1 V/div Offset: 0 V Attenuation: 1 X
#Channel 2: Range: 1 V/div Offset: 0 V Attenuation: 1 X
#Power Supplies: ON
#Fixed Supply: ON
#Voltage: 3.3 V Readback: 3.33 V
#Positive Supply: ON
#Voltage: 3.7 V Readback: 3.712 V
#Current: 500 mA Readback: 20 mA
#Negative Supply: ON
#Voltage: -3.7 V Readback: -3.705 V
#Current: -500 mA Readback: -7 mA
#Reference 1: ON
#Voltage: 0 V
#Reference 2: ON
#Voltage: 0 V

Time (s),Channel 1 (V),Channel 2 (V)
-4.096,-1.287677297007705,1.199510097474233
-4.0955,-0.6474668055473288,0.3623756634667675
-4.095,-0.007256314085448331,-0.3052125560598505
-4.0945,0.3661998059331045,-0.6443049850249
-4.094,0.5155822539405255,-0.6760949002403734
-4.0935,0.5155822539406129,-0.5383386009730425
-4.093,0.4622313796522482,-0.3370024712750445
-4.0925,0.3982103305062106,-0.1568596183873619
-4.092,0.4302208550793168,-0.08268314955106459
-4.0915,0.5582629533713921,-0.1250697031716958
-4.091,0.5369226036560266,-0.04029659593035631
-4.0905,0.4515612047944879,0.07626642652656256
-4.09,0.3661998059331045,0.1610395337678249
-4.0895,0.4195506802215176,0.2776025562246667
-4.089,0.8890383739591268,0.6484849004051896
-4.0885,0.5902734779444399,1.029963882991555
-4.088,-0.2846808603855366,1.241896651094903
-4.0875,-1.27700712214912,1.294879843120692
-4.087,-1.810515865033844,1.14652690544775
-4.0865,-1.46907026958831,0.4365521323021782
-4.086,-0.8288597781279338,-0.3899856633001298
-4.0855,-0.2740106855275338,-0.9939940523957047
-4.085,0.07810508477567314,-1.301296566145281
-4.0845,0.270168232213786,-1.364876396576228
-4.084,0.3341892813600565,-1.269506650929605
-4.0835,0.3341892813600565,-1.078767159636765
-4.083,0.3021787567870086,-0.8456411147230812
-4.0825,0.2808384070716336,-0.5807251545936641
-4.082,0.2701682322139607,-0.326405832869877
-4.0815,0.2594980573562781,-0.08268314955102604
-4.081,-0.1246282375199477,0.3199891098449702
-4.0805,-0.9142211769888124,0.8286277532933731
-4.08,-1.565101843307454,1.231300012689736
-4.0795,-1.970568487899025,1.390249588767103
-4.079,-1.469070269587563,0.8074344764823445
-4.0785,-0.6474668055467465,0.04447651131098315
-4.078,-0.007256314086370286,-0.4535654937314332
-4.0775,0.3661998059332403,-0.6019184314041821
-4.077,0.5155822539406614,-0.5489352393783931
-4.0765,0.5155822539406614,-0.4111789401113418
-4.076,0.4622313796522094,-0.2416327256284123
-4.0755,0.4195506802215176,-0.1038764263613609
-4.075,0.5369226036560266,-0.1568596183871981
-4.0745,0.5475927785136414,-0.09327978795604891
-4.074,0.4729015545099309,0.06566978812131802
-4.0735,0.3875401556484697,0.2034260873884947
-4.073,0.3555296310754509,0.3093924714400726
-4.0725,0.8036769750980928,0.6166949851900245
-4.072,1.059761171682476,1.00877060618122
-4.0715,0.398210330506754,1.273686566310164
-4.071,-0.5194247072550594,1.3584596735516
-4.0705,-1.074273799854052,1.199510097474233
-4.07,-0.9248913518466311,0.4895353243286611
-4.0695,-0.5194247072542152,-0.3264058328704167
-4.069,-0.1459685872356623,-0.9198175835592532
-4.0685,0.1207857842064037,-1.237716735714276
-4.068,0.2488278824986439,-1.311893204550381
-4.0675,0.3021787567870086,-1.237716735714276
-4.067,0.3128489316446912,-1.078767159636765
-4.0665,0.3021787567869892,-0.8774310299383714
-4.066,0.2808384070716433,-0.6443049850249
-4.0655,0.2701682322139607,-0.4111789401112165
-4.065,0.2915085819293066,-0.1674562567925872
-4.0645,0.07810508477567314,0.1504428953626575
-4.064,-0.6688071552621118,0.6484849004055269
-4.0635,-1.277007122149469,1.11473699023247
-4.063,-1.405049220441593,1.390249588766785
-4.0625,-0.722158029550525,0.8816109453192104
-4.062,-0.00725631408643812,0.02328323450142888
-4.0615,0.4195506802216729,-0.4959520473527101
-4.061,0.5902734779444399,-0.6654982618352349
-4.0605,0.6116138276598051,-0.6019184314042303
-4.06,0.536922603655949,-0.4323722169213682
-4.0595,0.4515612047945656,-0.2310360872233701
-4.059,0.3875401556484697,-0.06148987274069118
-4.0585,0.4408910299368344,-0.01910331912006
-4.058,0.4942419042252961,0.002089957690313421
-4.0575,0.4515612047945656,0.07626642652648545
-4.057,0.387540155648528,0.1398462569574322
-4.0565,0.3235191065023739,0.1716361721729923
-4.056,0.2808384070716433,0.3199891098453364
-4.0555,0.5475927785134667,0.7226613692413326
-4.055,0.2488278824979064,1.072350436612388
-4.0545,-0.5087545323968721,1.25249328950007
-4.054,-1.255666772433978,1.273686566310386
-4.0535,-1.309017646722663,0.807434476482277
-4.053,-0.8608703027003992,-0.02969995752518888
-4.0525,-0.3700422592469978,-0.7608680074817418
-4.052,-0.007256314085593898,-1.205926820498928
-4.0515,0.2061471830678648,-1.375473034981453
-4.051,0.3021787567870086,-1.354279758171118
-4.0505,0.3235191065023544,-1.216523458904067
-4.05,0.3128489316446912,-1.025783967610927
-4.0495,0.291508581929326,-0.792657922697244
-4.049,0.2701682322139801,-0.5489352393786147
-4.0485,0.2701682322139316,-0.3264058328696264
-4.048,0.2381577076409128,-0.05089323433552374
-4.0475,-0.04993701351625651,0.4577454091120504
-4.047,-0.2313299860972108,0.902804222129767
-4.0465,-0.3273615598162672,1.146526905448396
-4.046,-0.3807124341046319,0.8286277532936622
-4.0455,-0.1032878878046212,0.11865298014676
-4.045,0.2381577076409128,-0.3158091944647096
-4.0445,0.4515612047945656,-0.5171453241628908
-4.044,0.5262524287983344,-0.5171453241627656
-4.0435,0.5155822539406614,-0.3793890248957141
-4.043,0.4622313796522482,-0.1780528951975329
-4.0425,0.4088805053638835,-0.02969995752532381
-4.042,0.4622313796522482,0.02328323450064829
-4.0415,0.6756348768059011,-0.1356663415768632
-4.041,0.664964701948228,-0.146262979982021
-4.0405,0.5475927785135929,-0.06148987274063335
-4.04,0.4195506802215176,0.002089957690313421
-4.0395,0.3875401556484989,0.1504428953625226
-4.039,0.7930068002404876,0.5743084315697403
-4.0385,0.8783681991018712,0.9981739677760521
-4.038,0.05676473506105517,1.220703374284366
-4.0375,-0.9569018764201933,1.252493289499965
-4.037,-1.67180359188428,1.135930267043229
-4.0365,-1.479740444445993,0.4789386859228479
-4.036,-0.8928808272729426,-0.3264058328704263
-4.0355,-0.3380317346739499,-0.9304142219644207
-4.035,0.03542438534494258,-1.248313374119443
-4.0345,0.2381577076407284,-1.322489842955548
-4.034,0.3235191065023739,-1.237716735714276
-4.0335,0.3235191065023739,-1.068170521231597
-4.033,0.302178756787028,-0.8562377531284414
-4.0325,0.2808384070716336,-0.6337083466195301
-4.032,0.2701682322139607,-0.4111789401112165
-4.0315,0.2701682322139607,-0.1674562567925872
-4.031,-0.04993701351713964,0.2776025562251678
-4.0305,-0.7328282044082075,0.8286277532933731
-4.03,-1.469070269587641,1.252493289499685
-4.0295,-1.533091318733746,1.252493289499309
-4.029,-0.807519428411986,0.4153588554918433
-4.0285,-0.09261771294724913,-0.2098428104130352
-4.028,0.3555296310756062,-0.5277419625680871
-4.0275,0.5582629533713921,-0.5595318777835605
-4.027,0.5796033030867573,-0.4429688553267188
-4.0265,0.5155822539407195,-0.2946159176545096
-4.026,0.4515612047945656,-0.1674562567923655
-4.0255,0.4195506802215176,-0.1038764263613609
-4.025,0.5262524287982471,-0.2098428104129388
-4.0245,0.5262524287982762,-0.1462629799818861
-4.024,0.4515612047945656,0.01268659609548085
-4.0235,0.376869980790855,0.1398462569573744
-4.023,0.2701682322138442,0.2670059178198076
-4.0225,0.142126133921769,0.6060983467848571
-4.022,0.2488278824984984,1.008770606180853
-4.0215,-0.2420001609555533,1.273686566310492
-4.021,-1.06360362499637,1.369056311956912
-4.0205,-1.639793067311232,1.284283204715573
-4.02,-1.415719395299373,0.6590815388099328
-4.0195,-0.839529952985034,-0.1780528951975329
-4.019,-0.3060212101009019,-0.8244478379127463
-4.0185,0.05676473505997792,-1.184733543688111
-4.018,0.2488278824985954,-1.301296566145281
-4.0175,0.3235191065023739,-1.237716735714276
-4.017,0.3341892813600468,-1.078767159636909
-4.0165,0.3128489316446622,-0.8774310299383811
-4.016,0.2808384070716433,-0.6549016234300674
-4.0155,0.2701682322139704,-0.4323722169217537
-4.015,0.270168232213883,-0.2098428104127847
-4.0145,0.1848068333524996,0.06566978812131802
-4.014,-0.1779791118083802,0.5637117931637344
-4.0135,-0.8181896032700375,1.051157159802159
-4.013,-1.223656247861609,1.347863035146577
-4.0125,-0.807519428411986,0.9028042221295453
-4.012,-0.16730893695062,0.1080563417414962
-4.0115,0.2808384070716433,-0.4323722169215513
-4.011,0.4835717293676135,-0.6337083466197325
-4.0105,0.5369226036559781,-0.6231117082145747
-4.01,0.5049120790829789,-0.5383386009732256
-4.0095,0.4515612047945656,-0.3899856633008816
-4.009,0.3982103305062009,-0.2204394488183569
-4.0085,0.5049120790830662,-0.2310360872233797
-4.008,0.6009436528021226,-0.2416327256285375
-4.0075,0.5369226036560848,-0.1038764263614862
-4.007,0.4408910299368053,0.06566978812142403
-4.0065,0.3555296310754218,0.1822328105781598
-4.006,0.5049120790829789,0.4047622170866759
-4.0055,1.102441871112945,0.8180311148885239
-4.005,0.8143471499557753,1.167720182258731
-4.0045,-0.1779791118087102,1.326669758336243
-4.004,-1.244996597577304,1.337266396741082
-4.0035,-1.607782542738184,0.9769806909657173
-4.003,-1.202315898146244,0.1504428953626575
-4.0025,-0.6261264558319053,-0.6125150698087036
-4.002,-0.156638762093345,-1.0999604364471
-4.0015,0.1314559590640864,-1.301296566145281
-4.001,0.2808384070715074,-1.301296566145281
-4.0005,0.3235191065023642,-1.184733543688256
-4,0.3128489316446912,-0.9833974139902578
-3.9995,0.291508581929326,-0.7608680074817418
-3.999,0.2808384070716433,-0.5277419625680583
-3.9985,0.2701682322139607,-0.2946159176543747
-3.998,0.2274875327832301,-0.05089323433552374
-3.9975,-0.3487019095316325,0.4047622170866759
-3.997,-1.159635198715513,0.92399749893988
-3.9965,-1.67180359188428,1.305476481525908
-3.996,-1.426389570157579,1.114736990232894
-3.9955,-0.690147504977477,0.383568940276341
-3.995,-0.02859666380115328,-0.1992461720078678
-3.9945,0.3555296310754218,-0.4959520473525559
-3.994,0.5049120790829789,-0.570128516188728
-3.9935,0.5155822539406614,-0.4853554089473885
-3.993,0.4622313796522482,-0.3158091944647096
-3.9925,0.408880505363835,-0.1568596183871981
-3.992,0.4195506802215176,-0.08268314955102604
-3.9915,0.5262524287983441,-0.1250697031716958
-3.991,0.5155822539406614,-0.05089323433552374
-3.9905,0.4408910299368829,0.06566978812131802
-3.99,0.3555296310754218,0.1610395337678249
-3.9895,0.1634664836371343,0.3199891098453364
-3.989,0.02475421048725994,0.7120647308365314
-3.9885,-0.2953510352432193,1.082947075017392
-3.988,-0.9782422261349084,1.284283204715573
-3.9875,-1.661133417026597,1.326669758336243
-3.987,-1.821186039891837,1.082947075017392
-3.9865,-1.298347471865388,0.309392471440169
-3.986,-0.6474668055467465,-0.4853554089473885
-3.9855,-0.1352984123779797,-1.025783967610927
-3.985,0.1634664836371343,-1.269506650929778
-3.9845,0.3021787567870086,-1.301296566145281
-3.984,0.3448594562177392,-1.184733543688439
-3.9835,0.3341892813600565,-1.004590690800593
-3.983,0.3021787567870086,-0.7820612842920766
-3.9825,0.2808384070716433,-0.5489352393783931
-3.982,0.2701682322139607,-0.326405832869877
-3.9815,0.291508581929326,-0.07208651114585861
-3.981,0.6329541773751706,0.3305857482505039
-3.9805,1.166462920259302,0.8392243916985406
-3.98,0.8463576745288233,1.220703374284568
-3.9795,0.2488278824985954,1.33726639674141
-3.979,0.2594980573562781,0.7332580076468663
-3.9785,0.408880505363835,0.02328323450064829
-3.978,0.4942419042252961,-0.4217755785163839
-3.9775,0.5049120790829789,-0.6337083466197325
-3.977,0.4622313796522482,-0.6443049850249
-3.9765,0.408880505363835,-0.5171453241628908
-3.976,0.3661998059331045,-0.3581957480853793
-3.9755,0.3555296310754218,-0.2416327256285375
-3.975,0.5155822539406614,-0.3687923864905467
-3.9745,0.5582629533713921,-0.3899856633008816
-3.974,0.4942419042252961,-0.252229364033705
-3.9735,0.3982103305061524,-0.1144730647665284
-3.973,0.3555296310754218,0.02328323450064829
-3.9725,0.7609962756673623,0.3729723018711736
-3.972,0.9530594231056497,0.8392243916985406
-3.9715,0.08877525963335578,1.178316820663898
-3.971,-0.9782422261349084,1.33726639674141
-3.9705,-1.746494815888059,1.29487984312074
-3.97,-1.607782542738184,0.7226613692416989
-3.9695,-1.010252750707956,-0.1038764263613609
-3.969,-0.423393133535411,-0.7502713690765743
-3.9685,-0.007256314085787988,-1.110557074852267
-3.968,0.2274875327832301,-1.205926820498774
-3.9675,0.3128489316446912,-1.131750351662602
-3.967,0.3341892813600565,-0.9622041371799229
-3.9665,0.3128489316446912,-0.7396747306714069
-3.966,0.2808384070716433,-0.5065486857577234
-3.9655,0.2701682322139607,-0.2628260024388724
-3.965,0.2701682322139607,-0.02969995752518888
-3.9645,0.1954770082101822,0.2140227257936621
-3.964,-0.4447334832507763,0.6378882620003594
-3.9635,-1.148965023857831,1.082947075017392
-3.963,-1.373038695869166,1.347863035146577
-3.9625,-0.8608703027003992,0.9134008605347127
-3.962,-0.1779791118087102,0.02328323450064829
-3.9615,0.3021787567870086,-0.5383386009732256
-3.961,0.5262524287983441,-0.7078848154559045
-3.9605,0.5582629533713921,-0.6654982618352349
-3.96,0.5049120790829789,-0.5277419625680583
-3.9595,0.4302208550792003,-0.3581957480853793
-3.959,0.3768699807907871,-0.2098428104130352
-3.9585,0.4835717293676135,-0.326405832869877
-3.958,0.7183155762366316,-0.5807251545938954
-3.9575,0.6969752265212663,-0.5065486857577234
-3.957,0.5582629533713921,-0.2946159176543747
-3.9565,0.4195506802215176,-0.1144730647665284
-3.956,0.1527963087794516,0.2140227257936621
-3.9555,0.02475421048725994,0.7120647308365314
-3.955,0.01408403562957729,1.114736990232894
-3.9545,-0.3060212101009019,1.29487984312074
-3.954,-1.06360362499637,1.316073119931075
-3.9535,-1.362368521011484,0.9557874141553824
-3.953,-1.010252750707956,0.13984625695749
-3.9525,-0.5194247072545548,-0.6231117082145651
-3.952,-0.1032878878049318,-1.089363798041932
-3.9515,0.1527963087794516,-1.269506650929778
-3.951,0.2701682322139607,-1.248313374119443
-3.9505,0.3128489316446912,-1.0999604364471
-3.95,0.3128489316446912,-0.8880276683437509
-3.9495,0.2808384070716433,-0.6337083466197325
-3.949,0.2701682322139607,-0.3581957480853793
-3.9485,0.2594980573562781,-0.1356663415768632
-3.948,0.2381577076409128,0.06566978812131802
-3.9475,-0.2420001609548061,0.4471487707073456
-3.947,-1.020922925565639,0.92399749893988
-3.9465,-1.746494815888059,1.305476481525908
-3.946,-2.141291285622316,1.199510097474233
-3.9455,-1.501080794161358,0.383568940276341
-3.945,-0.6367966306890638,-0.3158091944647096
-3.9445,-0.007256314085787988,-0.6760949002404023
-3.944,0.3448594562177392,-0.7290780922662394
-3.9435,0.4729015545099309,-0.6019184314042303
-3.943,0.4835717293676135,-0.4429688553267188
-3.9425,0.4408910299368829,-0.2840192792492073
-3.942,0.4408910299368829,-0.1780528951975329
-3.9415,0.5369226036560266,-0.1886495336027004
-3.941,0.5049120790829789,-0.09327978795619347
-3.9405,0.4302208550792003,0.03387987290581572
-3.94,0.3555296310754218,0.13984625695749
-3.9395,0.408880505363835,0.2776025562246667
-3.939,0.974399772821015,0.6484849004055269
-3.9385,1.017080472251745,1.051157159801889
-3.938,0.1527963087794516,1.305476481525908
-3.9375,-0.9675720512772257,1.369056311956912
-3.937,-1.714484291315011,1.25249328950007
-3.9365,-1.522421143876723,0.5849050699745222
-3.936,-0.9248913518464952,-0.2416327256285375
-3.9355,-0.3593720843893152,-0.8456411147230812
-3.935,0.02475421048725994,-1.163540266878104
-3.9345,0.2381577076409128,-1.227120097309109
-3.934,0.3235191065023739,-1.142346990067769
-3.9335,0.3341892813600565,-0.9622041371799229
-3.933,0.3128489316446912,-0.7502713690765743
-3.9325,0.291508581929326,-0.5065486857577234
-3.932,0.2701682322139607,-0.2840192792492073
-3.9315,0.2701682322139607,-0.06148987274069118
-3.931,0.0674349099179905,0.3199891098453364
-3.9305,-0.1139580626626144,0.8180311148882058
-3.93,-0.5407650569699201,1.241896651094903
-3.9295,-0.7968492535543035,1.369056311956912
-3.929,-0.4127229586777283,0.849821030103708
-3.9285,0.0674349099179905,0.1292496185523226
-3.928,0.3768699807907871,-0.4111789401112165
-3.9275,0.5049120790829789,-0.6337083466197325
-3.927,0.5155822539406614,-0.5913217929990628
-3.9265,0.4729015545099309,-0.4217755785163839
-3.926,0.4302208550792003,-0.2734226408440398
-3.9255,0.408880505363835,-0.1568596183871981
-3.925,0.5262524287983441,-0.2098428104130352
-3.9245,0.5369226036560266,-0.1780528951975329
-3.924,0.4622313796522482,-0.07208651114585861
-3.9235,0.3875401556484697,0.02328323450064829
-3.923,0.291508581929326,0.1292496185523226
-3.9225,0.1954770082101822,0.4683420475176805
-3.922,0.1954770082101822,0.9028042221295453
-3.9215,-0.423393133535411,1.210106735879401
-3.921,-1.234326422719292,1.326669758336243
-3.9205,-1.693143941599645,1.231300012689736
-3.92,-1.373038695869166,0.6060983467848571
-3.9195,-0.7755089038389382,-0.2098428104130352
-3.919,-0.2526703358124887,-0.8350444763179138
-3.9185,0.08877525963335578,-1.163540266878104
-3.918,0.2594980573562781,-1.237716735714276
-3.9175,0.3235191065023739,-1.152943628472937
-3.917,0.3235191065023739,-0.9728007755850904
-3.9165,0.3021787567870086,-0.7608680074817418
-3.916,0.2808384070716433,-0.5065486857577234
-3.9155,0.2701682322139607,-0.2840192792492073
-3.915,0.2594980573562781,-0.06148987274069118
-3.9145,0.1848068333524996,0.1928294489833272
-3.914,-0.423393133535411,0.6378882620003594
-3.9135,-1.234326422719292,1.082947075017392
-3.913,-1.693143941599645,1.369056311956912
-3.9125,-1.180975548430879,1.019367244586387
-3.912,-0.4020527838200457,0.2881991946298341
-3.9115,0.1634664836371343,-0.2416327256285375
-3.911,0.4622313796522482,-0.4853554089473885
-3.9105,0.5689331282290746,-0.5171453241628908
-3.91,0.5582629533713921,-0.4429688553267188
-3.9095,0.4942419042252961,-0.3052125560595421
-3.909,0.4195506802215176,-0.1886495336027004
-3.9085,0.4515612047945656,-0.2098428104130352
-3.908,0.5049120790829789,-0.252229364033705
-3.9075,0.4622313796522482,-0.1674562567923655
-3.907,0.3875401556484697,-0.07208651114585861
-3.9065,0.3341892813600565,-0.008506680714854012
-3.906,0.5689331282290746,0.1928294489833272
-3.9055,1.262494493978446,0.6484849004055269
-3.905,1.15579274540162,1.029963882991555
-3.9045,0.03542438534494258,1.220703374284568
-3.904,-1.170305373573196,1.25249328950007
-3.9035,-1.693143941599645,0.9663840525605498
-3.903,-1.341028171296118,0.1716361721729923
-3.9025,-0.7434983792658902,-0.6125150698093976
-3.902,-0.2313299860971235,-1.131750351662602
-3.9015,0.09944543449103843,-1.34368311976595
-3.901,0.2701682322139607,-1.333086481360783
-3.9005,0.3235191065023739,-1.184733543688439
-3.9,0.3235191065023739,-0.9516074987747555
-3.8995,0.291508581929326,-0.6972881770507372
-3.899,0.2701682322139607,-0.4429688553267188
-3.8985,0.2701682322139607,-0.1568596183871981
-3.898,0.2808384070716433,0.1080563417419877
-3.8975,0.6436243522328531,0.5425185163538525
-3.897,1.123782220828572,1.00877060618122
-3.8965,0.8036769750980928,1.358459673551745
-3.896,0.5262524287983441,1.305476481525908
-3.8955,0.5582629533713921,0.6908714540261965
-3.895,0.6009436528021226,0.02328323450064829
-3.8945,0.5902734779444399,-0.4111789401112165
-3.894,0.5475927785137094,-0.6019184314042303
-3.8935,0.4835717293676135,-0.570128516188728
-3.893,0.408880505363835,-0.4641621321370536
-3.8925,0.3555296310754218,-0.326405832869877
-3.892,0.3661998059331045,-0.2204394488182027
-3.8915,0.4622313796522482,-0.1886495336027004
-3.891,0.4408910299368829,-0.08268314955102604
-3.8905,0.3768699807907871,0.04447651131098315
-3.89,0.3235191065023739,0.1504428953626575
-3.8895,0.3875401556484697,0.2670059178194992
-3.889,0.9850699476786977,0.6166949851900245
-3.8885,0.9957401225363802,1.019367244586387
-3.888,0.03542438534494258,1.231300012689736
-3.8875,-1.042263275281004,1.231300012689736
-3.887,-1.703814116457328,1.072350436612224
-3.8865,-1.46907026958831,0.3941655786815084
