Class_8_Think_right_hand_movement/Class_8_Think_Right_hand_mouvement_turki_8.csv

#Digilent WaveForms Oscilloscope Acquisition
#Device Name: EExplorer
#Serial Number: SN:210151A2B84A
#Date Time: 2020-12-21 15:28:01.648
#Sample rate: 2000Hz
#Samples: 16384
#Trigger: Source: Channel 1 Type: Edge Condition: Rising Level: 0 V Hyst.: Auto HoldOff: 0 s
#Channel 1: Range: 1 V/div Offset: 0 V
#Channel 2: Range: 1 V/div Offset: 0 V

Time (s),Channel 1 (V),Channel 2 (V)
-4.0960000000000001,-1.2023158981462438,-1.5132293342486296
-4.0955000000000004,-0.63679663068957815,-1.1529436284732646
-4.0949999999999998,-0.049937013516120669,-0.54893523937791122
-4.0945,0.38754015564846972,-0.019103319120021445
-4.0940000000000003,0.61161382765960126,0.24581264100892347
-4.0934999999999997,0.6863050516635838,0.33058574825050385
-4.093,0.6863050516635838,0.33058574825050385
-4.0925000000000002,0.64362435223289194,0.29879583303503049
-4.0919999999999996,0.61161382765977601,0.41535885549191076
-4.0914999999999999,0.57960330308675734,0.48953532432801533
-4.0910000000000002,0.54759277851370936,0.43655213230217815
-4.0904999999999996,0.51558225394064194,0.36237566346596761
-4.0899999999999999,0.49424190422529612,0.31998910984533641
-4.0895000000000001,0.53692260365602662,0.28819919462983412
-4.0890000000000004,1.0170804722513087,0.023283234500889205
-4.0884999999999998,1.1664629202593024,-0.64430498502489997
-4.0880000000000001,0.34485945621773917,-1.3118932045504481
-4.0875000000000004,-0.60478610611515216,-1.5450192494639199
-4.0869999999999997,-1.4157193952999161,-1.7039688255413059
-4.0865,-1.437059745015262,-1.333086481360783
-4.0860000000000003,-0.89288082727394213,-0.53833860097394848
-4.0854999999999997,-0.29535103524282141,0.20342608738895726
-4.085,0.14212613392176898,0.71206473083653143
-4.0845000000000002,0.39821033050591947,0.98757732937063414
-4.0839999999999996,0.5155822539406808,1.0935437134225687
-4.0834999999999999,0.53692260365602662,1.1041403518277266
-4.0830000000000002,0.52625242879834411,1.0617537982070568
-4.0824999999999996,0.49424190422526704,0.99817396777598455
-4.0819999999999999,0.4622313796522482,0.92399749893988004
-4.0815000000000001,0.43022085507920033,0.86041766850887547
-4.0810000000000004,0.19547700821039568,0.53192187794898382
-4.0804999999999998,-0.4980843575391895,-0.31580919446470956
-4.0800000000000001,-1.0529334501386869,-1.131750351662602
-4.0795000000000003,-1.4263895701572396,-1.7569520175669118
-4.0789999999999997,-1.4050492204416998,-1.8629184016186056
-4.0785,-0.83952995298503397,-1.2589100125246109
-4.0780000000000003,-0.23132998609767652,-0.58072515459451224
-4.0774999999999997,0.2168173579257901,-0.07208651114566586
-4.077,0.4835717293676135,0.13984625695749003
-4.0765000000000002,0.61161382765968864,0.18223281057812121
-4.0759999999999996,0.65429452709053582,0.11865298014713591
-4.0754999999999999,0.65429452709053582,0.097459703336820316
-4.0750000000000002,0.66496470194821833,0.10805634174198775
-4.0744999999999996,0.62228400251742966,0.1504428953626864
-4.0739999999999998,0.55826295337139209,0.18223281057815977
-4.0735000000000001,0.51558225394066137,0.21402272579366208
-4.0730000000000004,0.49424190422531555,0.23521600260397768
-4.0724999999999998,0.64362435223285308,0.26700591781949923
-4.0720000000000001,0.98506994767869771,-0.029699957525188878
-4.0715000000000003,0.47290155451039673,-0.75027136907591896
-4.0709999999999997,-0.29535103524396655,-1.3330864813611492
-4.0705,-1.1169544992847826,-1.7357587407571455
-4.0700000000000003,-1.3730386958689331,-1.650985633515883
-4.0694999999999997,-0.94623170156134606,-0.89862430674820515
-4.069,-0.38071243410468042,-0.11447306476652835
-4.0685000000000002,0.067434909917990504,0.46834204751768049
-4.0679999999999996,0.35552963107553825,0.80743447648317324
-4.0674999999999999,0.4835717293676135,0.95578741415538238
-4.0670000000000002,0.52625242879834411,0.99817396777605205
-4.0664999999999996,0.51558225394063228,0.96638405256050164
-4.0659999999999998,0.4835717293676135,0.9134008605347127
-4.0655000000000001,0.45156120479456557,0.87101430691404291
-4.0650000000000004,0.41955068022154673,0.83922439169856944
-4.0644999999999998,0.24882788249859539,0.78624119967270345
-4.0640000000000001,-0.31669138495858457,0.62729162359519197
-4.0635000000000003,-1.1169544992840548,0.023283234501197625
-4.0629999999999997,-1.8211860398919342,-0.82444783791322818
-4.0625,-1.9278877884686634,-1.3542797581711179
-4.0620000000000003,-1.2556667724352684,-1.1847335436885933
-4.0614999999999997,-0.45540365810790573,-0.6760949002399782
-4.0609999999999999,0.15279630877945163,-0.20984281041303524
-4.0605000000000002,0.50491207908297886,0.16103953376782493
-4.0599999999999996,0.65429452709055524,0.34118238665565198
-4.0594999999999999,0.67563487680590106,0.31998910984533641
-4.0590000000000002,0.67563487680590106,0.23521600260399694
-4.0585000000000004,0.72898575109426578,0.18223281057820795
-4.0579999999999998,0.69697522652126631,0.17163617217299235
-4.0575000000000001,0.62228400251748783,0.20342608738849466
-4.0570000000000004,0.5475927785137773,0.24581264100912584
-4.0564999999999998,0.50491207908297886,0.31998910984533641
-4.056,0.52625242879834411,0.43655213230217815
-4.0555000000000003,0.9210488985322427,0.70146809243112307
-4.0549999999999997,0.83568749967044198,0.25640927941357039
-4.0545,0.067434909917990504,-0.5807251545938954
-4.0540000000000003,-0.92489135184559268,-1.3012965661446252
-4.0534999999999997,-1.4904106193034132,-1.6085990798946543
-4.0529999999999999,-1.2023158981462438,-1.0787671596367647
-4.0525000000000002,-0.61545628097369853,-0.28401927924920728
-4.0519999999999996,-0.081947538089246236,0.38356894027672656
-4.0514999999999999,0.27016823221396069,0.80743447648303834
-4.0510000000000002,0.45156120479456557,1.0193672445863871
-4.0505000000000004,0.52625242879827616,1.0935437134224917
-4.0499999999999998,0.52625242879834411,1.0723504366122243
-4.0495000000000001,0.50491207908297886,1.0193672445863871
-4.0490000000000004,0.47290155450995996,0.94519077575028243
-4.0484999999999998,0.43022085507915181,0.88161094531918149
-4.048,0.3768699807907871,0.84982103010370802
-4.0475000000000003,-0.0072563140854385866,0.89220758372433928
-4.0469999999999997,-0.82885977812802103,0.62729162359439206
-4.0465,-1.5651018433074537,-0.25222936403370499
-4.0460000000000003,-1.8958772638953147,-1.0999604364463287
-4.0454999999999997,-1.533091318733707,-1.3012965661448759
-4.0449999999999999,-0.76483872898125549,-0.85623775312824868
-4.0445000000000002,-0.092617712947249131,-0.31580919446470956
-4.0439999999999996,0.35552963107563529,0.044476511311175901
-4.0434999999999999,0.59027347794443985,0.25640927941433178
-4.0430000000000001,0.66496470194821833,0.35177902506083869
-4.0425000000000004,0.65429452709054547,0.27760255622473412
-4.0419999999999998,0.87836819910187125,0.076266426526485451
-4.0415000000000001,1.0277506471094282,-0.061489872740691176
-4.0410000000000004,0.93171907339037185,-0.0085066807149022025
-4.0404999999999998,0.76099627566722639,0.10805634174209376
-4.04,0.6116138276598051,0.2246193641988295
-4.0395000000000003,0.50491207908307589,0.29879583303493412
-4.0389999999999997,0.088775259632579429,-0.072086511146552512
-4.0385,-0.76483872898125549,-0.83504447631791379
-4.0380000000000003,-1.5544316684490529,-1.5026326958428551
-4.0374999999999996,-1.9919088376150893,-1.8735150400244862
-4.0369999999999999,-2.3546947827759692,-2.0536578929121685
-4.0365000000000002,-1.9385579633263461,-1.6191957183003036
-4.0359999999999996,-1.0636036249956904,-0.71848145386034912
-4.0354999999999999,-0.31669138495858457,0.076266426526485451
-4.0350000000000001,0.18480683335249956,0.61669498519002452
-4.0345000000000004,0.45156120479432293,0.90280422212928502
-4.0339999999999998,0.54759277851370936,1.0087706061812196
-4.0335000000000001,0.5689331282290746,0.99817396777605205
-4.0330000000000004,0.53692260365605571,0.93459413734510532
-4.0324999999999998,0.4835717293675747,0.87101430691397541
-4.032,0.44089102993688295,0.7968378380778709
-4.0315000000000003,0.36619980593317242,0.63788826200050397
-4.0309999999999997,0.12078578420584085,0.35177902506041464
-4.0305,-0.4980843575391895,-0.11447306476652835
-4.0300000000000002,-1.0956141495688738,-0.856237753127574
-4.0294999999999996,-1.3730386958689524,-1.4708427806279405
-4.0289999999999999,-1.1382948490001481,-1.4496495038176249
-4.0285000000000002,-0.54076505696992005,-0.89862430674891836
-4.0279999999999996,0.014084035629907246,-0.33700247127468785
-4.0274999999999999,0.3768699807907871,0.055073149716150585
-4.0270000000000001,0.55826295337139209,0.21402272579366208
-4.0265000000000004,0.62228400251742966,0.25640927941429326
-4.0259999999999998,0.63295417737517057,0.25640927941433178
-4.0255000000000001,0.6863050516635838,0.24581264100916439
-4.0250000000000004,0.8250173248133319,0.15044289536274422
-4.0244999999999997,0.78233662538264015,0.10805634174199738
-4.024,0.6863050516635838,0.11865298014715518
-4.0235000000000003,0.57960330308685437,0.17163617217294416
-4.0229999999999997,0.51558225394083601,0.24581264100944389
-4.0225,0.70764540137894905,0.55311515475901996
-4.0220000000000002,1.1451225705435393,1.2313000126891187
-4.0214999999999996,0.79300680023957548,1.4432327807924001
-4.0209999999999999,-0.12462823752029703,0.69087145402619654
-4.0205000000000002,-1.0956141495694174,-0.30521255605954212
-4.0199999999999996,-1.5330913187340565,-0.97280077558489764
-4.0194999999999999,-1.1489650238578306,-0.76086800748174177
-4.0190000000000001,-0.54076505696992005,-0.17805289519753292
-4.0185000000000004,-0.028596663801619071,0.39416557868098795
-4.0179999999999998,0.30217875678700862,0.81803111488820579
-4.0175000000000001,0.47290155450993088,1.0723504366122243
-4.0170000000000003,0.52625242879829559,1.2207033742844331
-4.0164999999999997,0.52625242879831502,1.2736865663104149
-4.016,0.49424190422529612,1.2842832047155728
-4.0155000000000003,0.46223137965227734,1.2630899279052572
-4.0149999999999997,0.44089102993682472,1.2313000126896487
-4.0145,0.3768699807907871,1.1359302670432285
-4.0140000000000002,-0.039266838658457426,0.71206473083691701
-4.0134999999999996,-0.78617907869707682,-0.11447306476727045
-4.0129999999999999,-1.2876772970077051,-0.9304142219644207
-4.0125000000000002,-1.522421143876723,-1.523825972653797
-4.0119999999999996,-1.1703053735725748,-1.3860696733861286
-4.0114999999999998,-0.48741418268150688,-0.84564111472308123
-4.0110000000000001,0.078105084775673142,-0.31580919446470956
-4.0105000000000004,0.4515612047942259,0.023283234500339867
-4.0099999999999998,0.6116138276598051,0.13984625695749003
-4.0095000000000001,0.64362435223285308,0.11865298014715518
-4.0090000000000003,0.6649647019481989,0.086863064931681805
-4.0084999999999997,0.82501732481347745,0.33058574825055204
-4.008,0.84635767452882327,0.38356894027634103
-4.0075000000000003,0.73965592595209384,0.26700591781960525
-4.0069999999999997,0.62228400251741023,0.13984625695742256
-4.0065,0.53692260365602662,0.065669788121318018
-4.0060000000000002,0.59027347794443985,-0.050893234335523743
-4.0054999999999996,1.1024418711138375,-0.41117894011171763
-4.0049999999999999,1.7960032368625782,-0.96220413717992292
-4.0045000000000002,1.6679611385703865,-1.5344226110589645
-4.0039999999999996,0.47290155450906718,-2.0112713392915085
-4.0034999999999998,-0.47674400782382426,-2.0218679776966662
-4.0030000000000001,-0.6047861061160158,-1.1953301820936066
-4.0025000000000004,-0.33803173467419251,-0.28401927925003612
-4.0019999999999998,-0.017926488943470625,0.43655213230217815
-4.0015000000000001,0.23815770764091276,0.89220758372437781
-4.0010000000000003,0.38754015564833388,1.1359302670430069
-4.0004999999999997,0.46223137965226763,1.2207033742845681
-4,0.4835717293676135,1.2207033742845681
-3.9994999999999998,0.47290155450993088,1.1889134590690658
-3.9990000000000001,0.44089102993688295,1.1359302670432285
-3.9984999999999999,0.43022085507920033,1.0617537982070568
-3.9980000000000002,0.38754015564846972,0.97698069096571727
-3.9975000000000001,0.0034138607718946501,0.64848490040552687
-3.9969999999999999,-0.74349837926589024,-0.13566634157686319
-3.9965000000000002,-1.3516983461538008,-1.0363806060160949
-3.996,-1.405049220442214,-1.42845622700729
-3.9954999999999998,-0.86087030270039921,-1.0257839676109275
-3.9950000000000001,-0.19931946152407554,-0.49595204735255594
-3.9944999999999999,0.29150858192932599,-0.061489872740691176
-3.9940000000000002,0.53692260365602662,0.065669788121318018
-3.9935,0.62228400251748783,0.055073149716150585
-3.9929999999999999,0.63295417737517057,0.0020899576903134209
-3.9925000000000002,0.6116138276598051,-0.072086511145858609
-3.992,0.78233662538272752,-0.1674562567923655
-3.9914999999999998,1.006410297394063,-0.24163272562853755
-3.9910000000000001,0.94238924824796699,-0.12506970317169577
-3.9904999999999999,0.78233662538272752,0.055073149716150585
-3.9900000000000002,0.63295417737517057,0.25640927941433178
-3.9895,0.54759277851370936,0.37297230187117358
-3.9889999999999999,0.82501732481345802,-0.072086511145858609
-3.9885000000000002,0.84635767452882327,-0.82444783791274634
-3.988,0.046094560202625215,-1.42845622700729
-3.9874999999999998,-0.57277558154296804,-1.42845622700729
-3.9870000000000001,-1.1809755484308786,-1.3542797581711179
-3.9864999999999999,-1.3090176467230703,-1.0363806060160949
-3.9860000000000002,-0.8502001278427167,-0.31580919446470956
-3.9855,-0.30602121010090194,0.35177902506083869
-3.9849999999999999,0.11011560934872107,0.78624119967270345
-3.9845000000000002,0.35552963107542179,1.0087706061812196
-3.984,0.47290155450993088,1.0617537982070568
-3.9834999999999998,0.50491207908297886,1.0193672445863871
-3.9830000000000001,0.49424190422529612,0.93459413734504748
-3.9824999999999999,0.4622313796522482,0.82862775329337313
-3.9820000000000002,0.43022085507920033,0.72266136924169888
-3.9815,0.40888050536383502,0.61669498519002452
-3.9809999999999999,0.24882788249859539,0.40476221708667587
-3.9805000000000001,-0.43406330839309365,-0.30521255605954212
-3.98,-1.1169544992847826,-1.131750351662602
-3.9794999999999998,-1.7571649907457412,-1.7781452943778153
-3.9790000000000001,-2.0986105861915858,-1.9900780624811638
-3.9784999999999999,-1.4797404444459925,-1.3436831197659505
-3.9780000000000002,-0.65813698040442903,-0.54893523937839306
-3.9775,0.0034138607718946501,-0.019103319120021445
-3.9769999999999999,0.3768699807907871,0.25640927941433178
-3.9765000000000001,0.55826295337139209,0.29879583303500157
-3.976,0.63295417737517057,0.20342608738849466
-3.9754999999999998,0.73965592595199681,0.097459703336820316
-3.9750000000000001,0.91037872367491923,-0.04029659593035631
-3.9744999999999999,0.84635767452882327,-0.050893234335523743
-3.9740000000000002,0.71831557623663156,0.012686596095480854
-3.9735,0.57960330308675734,0.097459703336820316
-3.9729999999999999,0.50491207908297886,0.18223281057815977
-3.9725000000000001,0.23815770764091276,0.012686596095480854
-3.972,-0.51942470725455481,-0.65490162343006741
-3.9714999999999998,-1.2663369472923398,-1.3648763965762853
-3.9710000000000001,-1.586442193022819,-1.746355379162313
-3.9704999999999999,-1.8638667393225676,-1.8841116784294898
-3.9700000000000002,-1.7891755153187892,-1.6615822719209734
-3.9695,-1.1169544992847826,-0.85623775312824868
-3.9689999999999999,-0.42339313353541097,-0.04029659593035631
-3.9685000000000001,0.078105084775673142,0.5637117931641874
-3.968,0.3768699807907871,0.90280422212954525
-3.9674999999999998,0.50491207908297886,1.0511571598018894
-3.9670000000000001,0.53692260365602662,1.0723504366122243
-3.9664999999999999,0.51558225394066137,1.0299638829915545
-3.9660000000000002,0.47290155450993088,0.97698069096571727
-3.9655,0.44089102993688295,0.90280422212954525
-3.9649999999999999,0.40888050536383502,0.82862775329337313
-3.9645000000000001,0.3768699807907871,0.775644561267536
-3.964,0.3982103305061524,1.0299638829915545
-3.9634999999999998,0.08877525963335578,1.1783168206638983
-3.9630000000000001,-0.61545628097369853,0.39416557868150842
-3.9624999999999999,-1.1703053735731959,-0.54893523937839306
-3.9620000000000002,-1.0422632752810042,-0.84564111472308123
-3.9615,-0.4980843575391895,-0.66549826183523486
-3.9609999999999999,0.014084035629577295,-0.3581957480853793
-3.9605000000000001,0.35552963107542179,-0.029699957525188878
-3.96,0.53692260365602662,0.21402272579366208
-3.9594999999999998,0.60094365280212259,0.28819919462983412
-3.9590000000000001,0.62228400251748783,0.28819919462983412
-3.9584999999999999,0.77166645052504479,0.17163617217299235
-3.9580000000000002,0.76099627566736228,0.12924961855232261
-3.9575,0.67563487680590106,0.16103953376782493
-3.9569999999999999,0.5689331282290746,0.23521600260399694
-3.9565000000000001,0.49424190422529612,0.31998910984533641
-3.956,0.3768699807907871,0.24581264100916439
-3.9554999999999998,-0.20998963638175816,-0.37938902489571413
-3.9550000000000001,-1.0849439747117349,-1.1423469900677694
-3.9544999999999999,-1.7891755153187892,-1.5874058030848013
-3.9540000000000002,-2.1839719850530468,-1.3012965661452807
-3.9535,-2.365364957633652,-1.2906999277401132
-3.9529999999999998,-1.6504632421689147,-0.9304142219644207
-3.9525000000000001,-0.79684925355430347,-0.32640583286987701
-3.952,-0.12462823752029703,0.21402272579366208
-3.9514999999999998,0.28083840707164331,0.58490506997452218
-3.9510000000000001,0.4835717293676135,0.775644561267536
-3.9504999999999999,0.54759277851370936,0.87101430691404291
-3.9500000000000002,0.53692260365602662,0.89220758372437781
-3.9495,0.50491207908297886,0.88161094531921036
-3.9489999999999998,0.4622313796522482,0.87101430691404291
-3.9485000000000001,0.41955068022151765,0.84982103010370802
-3.948,0.3768699807907871,0.7968378380778709
-3.9474999999999998,0.024754210487259936,0.39416557868150842
-3.9470000000000001,-0.75416855412357298,-0.40058230170604903
-3.9464999999999999,-1.3623685210114835,-1.227120097309109
-3.9460000000000002,-1.618452717595867,-1.7781452943778153
-3.9455,-1.2556667724346571,-1.5132293342486296
-3.9449999999999998,-0.57277558154296804,-0.84564111472308123
-3.9445000000000001,0.046094560202625215,-0.28401927924920728
-3.944,0.43022085507920033,0.044476511310983152
-3.9434999999999998,0.6116138276598051,0.2246193641988295
-3.9430000000000001,0.67563487680590106,0.27760255622466667
-3.9424999999999999,0.65429452709053582,0.27760255622466667
-3.9420000000000002,0.79300680024041004,0.086863064931652884
-3.9415,0.91037872367491923,-0.04029659593035631
-3.9409999999999998,0.82501732481345802,0.044476511310983152
-3.9405000000000001,0.6863050516635838,0.19282944898332721
-3.9399999999999999,0.5689331282290746,0.31998910984533641
-3.9394999999999998,0.49424190422529612,0.40476221708667587
-3.9390000000000001,0.20614718306786484,0.11865298014715518
-3.9384999999999999,-0.54076505696992005,-0.64430498502489997
-3.9380000000000002,-1.2343264227192918,-1.3648763965762853
-3.9375,-1.7358246410303759,-1.8841116784294898
-3.9369999999999998,-2.0986105861915858,-2.1278343617483406
-3.9365000000000001,-1.6397930673112322,-1.5556158878692994
-3.9359999999999999,-0.86087030270039921,-0.65490162343006741
-3.9355000000000002,-0.19931946152407554,0.097459703336820316
-3.9350000000000001,0.22748753278323011,0.58490506997452218
-3.9344999999999999,0.45156120479456557,0.82862775329337313
-3.9340000000000002,0.53692260365602662,0.90280422212954525
-3.9335,0.53692260365602662,0.87101430691404291
-3.9329999999999998,0.51558225394066137,0.81803111488820579
-3.9325000000000001,0.4835717293676135,0.74385464605203377
-3.9319999999999999,0.45156120479456557,0.66967817721586165
-3.9315000000000002,0.43022085507920033,0.60609834678485708
-3.931,0.32351910650237387,0.42595549389701071
-3.9304999999999999,0.0034138607718946501,-0.28401927924920728
-3.9300000000000002,-0.62612645583138127,-1.0999604364470996
-3.9295,-1.0209229255656389,-1.650985633515806
-3.9289999999999998,-0.82885977812735145,-1.42845622700729
-3.9285000000000001,-0.30602121010090194,-0.73967473067140688
-3.9279999999999999,0.17413665849481691,-0.14626297998203064
