Class_8_Think_right_hand_movement/Class_8_Think_Right_hand_mouvement_turki_14.csv

#Digilent WaveForms Oscilloscope Acquisition
#Device Name: EExplorer
#Serial Number: SN:210151A2B84A
#Date Time: 2021-02-10 11:40:00.370
#Sample rate: 2000Hz
#Samples: 16384
#Trigger: Source: Channel 1 Type: Edge Condition: Rising Level: 0 V Hyst.: Auto HoldOff: 0 s
#Channel 1: Range: 1 V/div Offset: 0 V Attenuation: 1 X
#Channel 2: Range: 1 V/div Offset: 0 V Attenuation: 1 X
#Power Supplies: ON
#Fixed Supply: ON
#Voltage: 3.3 V Readback: 3.331 V
#Positive Supply: ON
#Voltage: 3.7 V Readback: 3.717 V
#Current: 40 mA Readback: 16 mA
#Negative Supply: ON
#Voltage: -3.7 V Readback: -3.683 V
#Current: -40 mA Readback: -11 mA
#Reference 1: ON
#Voltage: 0 V
#Reference 2: ON
#Voltage: 0 V

Time (s),Channel 1 (V),Channel 2 (V)
-4.096,-1.159635198715513,-1.333086481360783
-4.0955,-1.863866739321927,-1.714565463946464
-4.095,-2.333354433060167,-1.894708316834214
-4.0945,-1.853196564464885,-1.407262950196955
-4.094,-1.031593100424069,-0.5171453241637004
-4.0935,-0.3487019095312152,0.2670059178199811
-4.093,0.1101156093487211,0.7968378380778709
-4.0925,0.3448594562175257,1.082947075017131
-4.092,0.4195506802215176,1.178316820663908
-4.0915,0.4195506802215176,1.188913459069066
-4.091,0.3661998059331045,1.157123543853563
-4.0905,0.3128489316446622,1.093543713422482
-4.09,0.2808384070716433,1.00877060618122
-4.0895,0.1634664836371343,0.8392243916985406
-4.089,-0.4340633083925502,0.1504428953632838
-4.0885,-1.052933450138687,-0.7820612842920766
-4.088,-1.383708870726849,-1.439052865412457
-4.0875,-0.9889124009929502,-1.258910012524775
-4.087,-0.3166913849581091,-0.6972881770502746
-4.0865,0.2061471830678648,-0.1886495336027004
-4.086,0.5155822539403799,0.1080563417417179
-4.0855,0.6436243522328531,0.1822328105781501
-4.085,0.6436243522328531,0.1716361721729923
-4.0845,0.5902734779444884,0.1080563417420456
-4.084,0.5902734779444689,-0.09327978795635732
-4.0835,0.6222840025174878,-0.2734226408440398
-4.083,0.5689331282290746,-0.1568596183871981
-4.0825,0.4942419042252476,0.06566978812151077
-4.082,0.4408910299368829,0.2776025562246667
-4.0815,0.408880505363835,0.4471487707073456
-4.081,0.6009436528019478,0.7014680924311327
-4.0805,1.027750647109428,1.104140351827727
-4.08,0.6009436528021226,0.5849050699745222
-4.0795,-0.1886492866656748,-0.3581957480845215
-4.079,-1.106284324427838,-1.174136905283782
-4.0785,-1.917217613610981,-1.735758740757146
-4.078,-2.055929886760729,-1.788741932782935
-4.0775,-1.405049220441544,-1.046977244420462
-4.077,-0.6688071552621118,-0.1674562567923655
-4.0765,-0.1032878878054461,0.5001319627325757
-4.076,0.2274875327833757,0.9134008605348862
-4.0755,0.3875401556484697,1.104140351827727
-4.075,0.4195506802215176,1.157123543853563
-4.0745,0.3982103305061233,1.146526905448348
-4.074,0.3661998059331045,1.093543713422559
-4.0735,0.3341892813600565,1.019367244586387
-4.073,0.2915085819293648,0.9028042221296513
-4.0725,-0.07127736323188383,0.2987958330350016
-4.072,-0.6154562809736985,-0.6337083466197325
-4.0715,-0.9248913518462137,-1.417859588601409
-4.071,-1.180975548430714,-1.92649823204988
-4.0705,-0.9995825758502737,-1.619195718300304
-4.07,-0.434063308393608,-0.8986243067495737
-4.0695,0.07810508477596427,-0.2522293640332617
-4.069,0.3982103305061524,0.2352160026039969
-4.0685,0.5369226036560266,0.457745409112513
-4.068,0.579603303086767,0.4895353243279286
-4.0675,0.5902734779444399,0.3941655786815084
-4.067,0.5796033030867573,0.07626642652648545
-4.0665,0.5155822539405934,-0.01910331911993471
-4.066,0.4408910299368829,0.07626642652648545
-4.0655,0.3982103305061524,0.2034260873884947
-4.065,0.3768699807908065,0.3093924714400726
-4.0645,0.4408910299368829,0.3305857482505039
-4.064,0.6969752265212663,0.06566978812131802
-4.0635,0.2061471830683113,-0.6231117082139388
-4.063,-0.5194247072550788,-1.258910012524852
-4.0625,-1.095614149569417,-1.523825972653797
-4.062,-1.746494815887467,-1.788741932782742
-4.0615,-2.151961460479572,-1.905304955239304
-4.061,-1.682473766741963,-1.333086481360783
-4.0605,-0.9142211769888124,-0.474758770542221
-4.06,-0.2740106855274755,0.2458126410095788
-4.0595,0.142126133921769,0.701468092431364
-4.059,0.3555296310754218,0.9345941373450475
-4.0585,0.4195506802214594,1.008770606181152
-4.058,0.4195506802215176,0.9981739677760521
-4.0575,0.3768699807907871,0.9557874141553824
-4.057,0.3448594562177683,0.8922075837244356
-4.0565,0.3128489316446912,0.8180311148882058
-4.056,0.00341386077189465,0.457745409112513
-4.0555,-0.7648387289805567,-0.3793890248949527
-4.055,-1.223656247861599,-1.20592682049915
-4.0545,-1.212986073003927,-1.619195718300304
-4.054,-0.7114878546932983,-1.248313374119781
-4.0535,-0.1459685872352741,-0.5701285161882268
-4.053,0.2808384070716433,-0.01910331912002144
-4.0525,0.5049120790829789,0.3199891098453364
-4.052,0.5689331282290746,0.4153588554918144
-4.0515,0.5689331282290746,0.383568940276341
-4.051,0.5369226036560266,0.3305857482505039
-4.0505,0.4942419042253349,0.3093924714401882
-4.05,0.4515612047945656,0.2246193641988295
-4.0495,0.408880505363835,0.1822328105781598
-4.049,0.3875401556484891,0.171636172173002
-4.0485,0.3661998059331142,0.2034260873885718
-4.048,0.3768699807907871,0.2881991946298341
-4.0475,0.6436243522326104,0.6590815388103568
-4.047,0.4942419042246944,0.6166949851892921
-4.0465,-0.1673089369510276,-0.1886495336027004
-4.046,-0.9675720512764978,-1.046977244420482
-4.0455,-1.7678351656039,-1.640388995110899
-4.045,-2.290673733629873,-1.926498232050159
-4.0445,-1.83185621474952,-1.460246142222792
-4.044,-1.031593100422691,-0.5383386009724642
-4.0435,-0.3380317346739499,0.2987958330350016
-4.043,0.1101156093487211,0.8816109453192104
-4.0425,0.3448594562175257,1.188913459068786
-4.042,0.4302208550792003,1.305476481525908
-4.0415,0.4408910299368829,1.316073119931075
-4.041,0.4088805053638641,1.263089927905286
-4.0405,0.366199805933085,1.188913459068969
-4.04,0.3448594562177392,1.082947075017392
-4.0395,0.3128489316447204,0.9451907757503402
-4.039,-0.03926683865939878,0.3517790250599906
-4.0385,-0.658136980404429,-0.5807251545938954
-4.038,-0.9248913518462525,-1.311893204549783
-4.0375,-0.647466805546271,-1.205926820498282
-4.037,-0.124628237520297,-0.6654982618352349
-4.0365,0.3128489316446912,-0.2734226408440398
-4.036,0.568933128229162,-0.01910331911988652
-4.0355,0.6649647019482183,0.1292496185523226
-4.035,0.6649647019482183,0.1822328105781598
-4.0345,0.6329541773751997,0.07626642652658183
-4.034,0.6756348768059011,-0.09327978795619347
-4.0335,0.8143471499557753,-0.252229364033705
-4.033,0.8356874996711213,-0.1674562567924426
-4.0325,0.73965592595189,0.0232832345008314
-4.032,0.6222840025174878,0.2246193641988295
-4.0315,0.5155822539407584,0.4047622170865121
-4.031,0.4942419042252573,0.5849050699745992
-4.0305,0.4515612047945656,0.6696781772158616
-4.03,-0.1139580626621,-0.02969995752455279
-4.0295,-0.6474668055473191,-0.7926579226977355
-4.029,-1.277007122150022,-1.333086481360783
-4.0285,-1.949228138184029,-1.714565463946811
-4.028,-2.312014083344685,-1.809935209592739
-4.0275,-1.703814116457328,-1.174136905283272
-4.027,-0.8928808272734472,-0.2840192792492073
-4.0265,-0.2420001609553981,0.4471487707066806
-4.026,0.1634664836371343,0.9028042221295453
-4.0255,0.3768699807907871,1.125333628638062
-4.025,0.4408910299368247,1.188913459069008
-4.0245,0.4195506802214886,1.167720182258663
-4.024,0.3875401556484697,1.093543713422559
-4.0235,0.344859456217778,1.008770606181297
-4.023,0.2808384070711775,0.8604176685083165
-4.0225,-0.2313299860971235,0.2458126410091644
-4.022,-1.042263275280267,-0.676094900239564
-4.0215,-1.639793067311077,-1.449649503817798
-4.021,-1.46907026958831,-1.640388995110639
-4.0205,-0.7861790786966207,-1.142346990067769
-4.02,-0.09261771294682214,-0.5595318777832039
-4.0195,0.3768699807907871,-0.1674562567923655
-4.019,0.6009436528021226,0.1080563417419877
-4.0185,0.6542945270904873,0.2564092794141969
-4.018,0.6436243522328531,0.2776025562246667
-4.0175,0.6116138276598051,0.2352160026039969
-4.017,0.7609962756672264,0.05507314971631441
-4.0165,0.7716664505249478,-0.008506680714805825
-4.016,0.6649647019482183,0.04447651131098315
-4.0155,0.5475927785138162,0.1398462569574033
-4.015,0.4515612047944394,0.2564092794143318
-4.0145,0.3128489316446912,0.2564092794143318
-4.014,-0.316691384958012,-0.2840192792487158
-4.0135,-0.8502001278429981,-1.015187329206281
-4.013,-1.159635198715513,-1.587405803084801
-4.0125,-1.597112367880501,-1.947691508860494
-4.012,-2.130621110764721,-2.096044446532674
-4.0115,-2.226652684483777,-1.915901593644992
-4.011,-1.51175096901904,-1.089363798041932
-4.0105,-0.7221580295512431,-0.167456256793204
-4.01,-0.124628237520297,0.5319218779486851
-4.0095,0.2381577076409128,0.9451907757502149
-4.009,0.4088805053636798,1.125333628637898
-4.0085,0.4515612047945365,1.157123543853525
-4.008,0.4195506802215176,1.114736990232894
-4.0075,0.3768699807908259,1.040560521396789
-4.007,0.3448594562177101,0.9451907757501282
-4.0065,0.3128489316446912,0.849821030103708
-4.006,0.01408403562957729,0.5107286011383502
-4.0055,-0.7114878546932789,-0.3370024712757962
-4.005,-1.191645723288561,-1.163540266878104
-4.0045,-1.447729919872945,-1.619195718300304
-4.004,-1.138294848999624,-1.258910012524004
-4.0035,-0.5621054066852853,-0.5913217929990628
-4.003,-0.04993701351651855,-0.02969995752518888
-4.0025,0.3448594562173801,0.2246193641985982
-4.002,0.5689331282290746,0.2564092794143318
-4.0015,0.6542945270905358,0.2564092794143318
-4.001,0.6649647019482087,0.1928294489833851
-4.0005,0.6436243522328142,0.02328323450049408
-4,0.6009436528021226,-0.1462629799820306
-3.9995,0.5155822539406614,-0.08268314955102604
-3.999,0.4515612047945656,0.05507314971615059
-3.9985,0.4195506802215176,0.2034260873884947
-3.998,0.3982103305061524,0.3411823866556712
-3.9975,0.6222840025174878,0.6802748156210291
-3.997,0.4835717293676135,0.6802748156210291
-3.9965,-0.2420001609548061,-0.1250697031716958
-3.996,-0.9782422261349084,-0.9939940523954253
-3.9955,-1.746494815888059,-1.619195718300304
-3.995,-2.280003558772191,-1.947691508860494
-3.9945,-1.842526389607202,-1.523825972653797
-3.994,-1.042263275281004,-0.6019184314042303
-3.9935,-0.3487019095316325,0.2352160026039969
-3.993,0.1207857842064037,0.8074344764830383
-3.9925,0.3555296310754218,1.125333628638062
-3.992,0.4515612047945656,1.241896651094903
-3.9915,0.4515612047945656,1.263089927905238
-3.991,0.3982103305061524,1.241896651094903
-3.9905,0.3448594562177392,1.188913459069066
-3.99,0.3235191065023739,1.093543713422559
-3.9895,0.2168173579255475,0.8922075837243778
-3.989,-0.4127229586777283,0.1504428953626575
-3.9885,-0.9035510021311299,-0.792657922697244
-3.988,-1.170305373573196,-1.51322933424863
-3.9875,-0.9675720512772257,-1.449649503817625
-3.987,-0.4127229586777283,-0.8562377531282487
-3.9865,0.08877525963335578,-0.2628260024388724
-3.986,0.3982103305061524,0.05507314971615059
-3.9855,0.5369226036560266,0.1822328105781598
-3.985,0.5796033030867573,0.2458126410091644
-3.9845,0.5689331282290746,0.2564092794143318
-3.984,0.5475927785137094,0.13984625695749
-3.9835,0.5049120790829789,-0.07208651114585861
-3.983,0.4622313796522482,-0.04029659593035631
-3.9825,0.4408910299368829,0.05507314971615059
-3.982,0.5049120790829789,0.1186529801471552
-3.9815,0.5262524287983441,0.2352160026039969
-3.981,0.4408910299368829,0.1292496185523226
-3.9805,-0.02859666380115328,-0.4535654937318862
-3.98,-0.690147504977477,-1.163540266878104
-3.9795,-1.244996597576974,-1.598002441489969
-3.979,-1.799845690176472,-1.788741932782983
-3.9785,-2.376035132491334,-1.937094870455327
-3.978,-2.365364957633652,-1.831128486403653
-3.9775,-1.522421143876723,-1.068170521231597
-3.977,-0.690147504977477,-0.1886495336027004
-3.9765,-0.08194753808956648,0.4789386859228479
-3.976,0.2808384070716433,0.8816109453192104
-3.9755,0.4302208550792003,1.061753798207057
-3.975,0.4729015545099309,1.093543713422559
-3.9745,0.4515612047945656,1.072350436612224
-3.974,0.408880505363835,1.00877060618122
-3.9735,0.3661998059331045,0.9451907757502149
-3.973,0.3128489316446912,0.8392243916985406
-3.9725,-0.08194753808956648,0.3199891098453364
-3.972,-0.6367966306890638,-0.570128516188728
-3.9715,-0.8288597781273515,-1.333086481360783
-3.971,-0.6688071552621118,-1.661582271920973
-3.9705,-0.2099896363817582,-1.34368311976595
-3.97,0.2061471830678648,-0.7820612842920766
-3.9695,0.4729015545099309,-0.2946159176543747
-3.969,0.6116138276598051,-0.1144730647665284
-3.9685,0.6649647019482183,-0.04029659593035631
-3.968,0.6649647019482183,0.05507314971615059
-3.9675,0.6222840025174878,0.1292496185523226
-3.967,0.5902734779444399,0.05507314971615059
-3.9665,0.5475927785137094,0.05507314971615059
-3.966,0.5155822539406614,0.1292496185523226
-3.9655,0.4835717293676135,0.2352160026039969
-3.965,0.4515612047945656,0.3411823866556712
-3.9645,0.4408910299368829,0.4471487707073456
-3.964,0.6222840025174878,0.7544512844572011
-3.9635,0.2488278824985954,0.4471487707073456
-3.963,-0.4980843575391895,-0.3899856633008816
-3.9625,-1.191645723288561,-1.036380606016095
-3.962,-1.885207089037933,-1.555615887869299
-3.9615,-2.23732285934146,-1.809935209593318
-3.961,-1.650463242168915,-1.290699927740113
-3.9605,-0.8608703027003992,-0.4323722169215513
-3.96,-0.2099896363817582,0.309392471440169
-3.9595,0.1954770082101822,0.7968378380778709
-3.959,0.3982103305061524,1.040560521396722
-3.9585,0.4622313796522482,1.135930267043229
-3.958,0.4515612047945656,1.125333628638062
-3.9575,0.4195506802215176,1.072350436612224
-3.957,0.3875401556484697,0.9981739677760521
-3.9565,0.3555296310754218,0.9451907757502149
-3.956,0.2168173579255475,0.6908714540261965
-3.9555,-0.4340633083930936,-0.1356663415768632
-3.955,-0.9889124009925911,-1.025783967610927
-3.9545,-1.138294849000148,-1.682775548731308
-3.954,-1.095614149569417,-1.714565463946811
-3.9535,-0.5514352318276028,-1.046977244421262
-3.953,0.01408403562957729,-0.3899856633008816
-3.9525,0.408880505363835,0.07626642652648545
-3.952,0.5902734779444399,0.3199891098453364
-3.9515,0.6436243522328531,0.3729723018711736
-3.951,0.6542945270905358,0.3623756634660061
-3.9505,0.707645401378949,0.309392471440169
-3.95,0.79300680024041,0.1822328105781598
-3.9495,0.7289857510943143,0.1716361721729923
-3.949,0.6329541773751706,0.2034260873884947
-3.9485,0.5369226036560266,0.2670059178194992
-3.948,0.4835717293676135,0.309392471440169
-3.9475,0.6756348768059011,0.08686306493165288
-3.947,0.5796033030867573,-0.5065486857577234
-3.9465,-0.1139580626626144,-1.195330182093607
-3.946,-0.807519428411986,-1.598002441489969
-3.9455,-1.565101843307454,-1.831128486403653
-3.945,-2.205312334768412,-1.947691508860494
-3.9445,-2.03458953704549,-1.598002441489969
-3.944,-1.244996597576974,-0.718481453861072
-3.9435,-0.4980843575391895,0.1186529801471552
-3.943,0.02475421048725994,0.7120647308365314
-3.9425,0.3235191065023739,1.029963882991555
-3.942,0.4515612047945656,1.157123543853563
-3.9415,0.4729015545099309,1.157123543853563
-3.941,0.4408910299368829,1.114736990232894
-3.9405,0.3875401556484697,1.051157159801889
-3.94,0.3661998059331045,0.9557874141553824
-3.9395,0.2701682322139607,0.7862411996727035
-3.939,-0.3273615598162672,0.09745970333682032
-3.9385,-0.9248913518464952,-0.8032545611024114
-3.938,-1.159635198715513,-1.502632695843462
-3.9375,-0.8608703027003992,-1.566212526274467
-3.937,-0.3060212101009019,-0.9833974139902578
-3.9365,0.142126133921769,-0.3475991096802118
-3.936,0.4408910299368829,0.05507314971615059
-3.9355,0.6009436528021226,0.1504428953626575
-3.935,0.6329541773751706,0.09745970333682032
-3.9345,0.6222840025174878,0.07626642652648545
-3.934,0.6436243522328531,-0.008506680714854012
-3.9335,0.9210488985326017,-0.2840192792492073
-3.933,0.9530594231056497,-0.2310360872233701
-3.9325,0.8143471499557753,0.01268659609548085
-3.932,0.6436243522328531,0.2458126410091644
-3.9315,0.5155822539406614,0.4153588554918433
-3.931,0.5262524287983441,0.3517790250608387
-3.9305,0.6116138276598051,-0.2098428104130352
-3.93,-0.07127736323188383,-0.9622041371799229
-3.9295,-0.839529952985034,-1.587405803084801
-3.929,-1.554431668449771,-2.000674700886331
-3.9285,-2.215982509626095,-2.223204107394847
-3.928,-2.226652684483777,-2.000674700886331
-3.9275,-1.426389570157579,-1.0999604364471
-3.927,-0.6367966306890638,-0.1992461720078678
-3.9265,-0.04993701351651855,0.4471487707073456
-3.926,0.291508581929326,0.8180311148882058
-3.9255,0.4408910299368829,0.9663840525605498
-3.925,0.4729015545099309,0.9875773293708847
-3.9245,0.4622313796522482,0.9345941373450475
-3.924,0.4195506802215176,0.8816109453192104
-3.9235,0.3875401556484697,0.8074344764830383
-3.923,0.3661998059331045,0.7332580076468663
-3.9225,-0.01792648894347063,0.3517790250608387
-3.922,-0.7328282044082075,-0.4853554089473885
-3.9215,-1.202315898146244,-1.258910012524611
-3.921,-1.234326422719292,-1.460246142222792
-3.9205,-0.7008176798351597,-0.9939940523954253
-3.92,-0.08194753808956648,-0.400582301706049
-3.9195,0.3448594562177392,0.01268659609548085
-3.919,0.5689331282290746,0.2564092794143318
-3.9185,0.6436243522328531,0.3729723018711736
-3.918,0.6436243522328531,0.3305857482505039
-3.9175,0.6222840025174878,0.2881991946298341
-3.917,0.7823366253827275,0.1080563417419877
-3.9165,0.8356874996711408,0.03387987290581572
-3.916,0.7289857510943143,0.13984625695749
-3.9155,0.6222840025174878,0.2776025562246667
-3.915,0.5262524287983441,0.4047622170866759
-3.9145,0.4729015545099309,0.5425185163538525
-3.914,0.6863050516635838,0.9345941373450475
-3.9135,0.3768699807907871,0.6484849004055269
-3.913,-0.2846808603855366,-0.2416327256285375
-3.9125,-0.9142211769888124,-0.9198175835592532
-3.912,-1.565101843307454,-1.439052865412457
-3.9115,-2.141291285622316,-1.820531847998485
-3.911,-1.927887788468663,-1.598002441489969
-3.9105,-1.159635198715513,-0.7608680074817418
-3.91,-0.4447334832507763,0.04447651131098315
-3.9095,0.05676473506030786,0.6378882620003594
-3.909,0.3341892813600565,0.9663840525605498
-3.9085,0.4515612047945656,1.104140351827727
-3.908,0.4622313796522482,1.135930267043229
-3.9075,0.4302208550792003,1.104140351827727
-3.907,0.3982103305061524,1.051157159801889
-3.9065,0.3661998059331045,0.9663840525605498
-3.906,0.2274875327832301,0.7120647308365314
-3.9055,-0.3700422592469978,-0.09327978795619347
-3.905,-0.8715404775580819,-0.9833974139902578
-3.9045,-1.287677297007705,-1.672178910326141
-3.904,-1.490410619303675,-1.905304955239825
-3.9035,-0.9782422261349084,-1.311893204550448
-3.903,-0.2953510352432193,-0.570128516188728
-3.9025,0.2168173579255475,0.002089957690313421
-3.902,0.5155822539406614,0.2458126410091644
-3.9015,0.6329541773751706,0.383568940276341
-3.901,0.6436243522328531,0.4153588554918433
-3.9005,0.7289857510943143,0.3411823866556712
-3.9,0.8676980242441885,0.2034260873884947
-3.8995,0.8036769750980928,0.1822328105781598
-3.899,0.6756348768059011,0.2246193641988295
-3.8985,0.5475927785137094,0.2881991946298341
-3.898,0.4622313796522482,0.3517790250608387
-3.8975,0.3448594562177392,0.3517790250608387
-3.897,-0.1459685872356623,-0.1144730647665284
-3.8965,-0.8502001278427167,-0.8668343915334161
-3.896,-1.26633694729234,-1.364876396576285
-3.8955,-1.735824641030376,-1.672178910326141
-3.895,-2.226652684483777,-1.873515040024322
-3.8945,-2.023919362187807,-1.629792356705471
-3.894,-1.223656247861609,-0.7820612842920766
-3.8935,-0.4767440078238243,0.05507314971615059
-3.893,0.04609456020262521,0.6484849004055269
-3.8925,0.3448594562177392,0.9875773293708847
-3.892,0.4622313796522482,1.125333628638062
-3.8915,0.4729015545099309,1.146526905448396
-3.891,0.4408910299368829,1.104140351827727
-3.8905,0.408880505363835,1.040560521396722
-3.89,0.3768699807907871,0.9557874141553824
-3.8895,0.3448594562177392,0.8074344764830383
-3.889,-0.01792648894347063,0.1504428953626575
-3.8885,-0.4980843575391895,-0.718481453861072
-3.888,-0.9035510021311299,-1.449649503817625
-3.8875,-1.244996597576974,-1.915901593644992
-3.887,-0.9035510021311299,-1.534422611058964
-3.8865,-0.2633405106701714,-0.7820612842920766
-3.886,0.2488278824985954,-0.1144730647665284
