Class_8_Think_right_hand_movement/Class_8_Think_Right_hand_mouvement_ZAkour_5.csv

#Digilent WaveForms Oscilloscope Acquisition
#Device Name: EExplorer
#Serial Number: SN:210151A2B84A
#Date Time: 2020-12-21 15:20:02.510
#Sample rate: 2000Hz
#Samples: 16384
#Trigger: Source: Channel 1 Type: Edge Condition: Rising Level: 0 V Hyst.: Auto HoldOff: 0 s
#Channel 1: Range: 1 V/div Offset: 0 V
#Channel 2: Range: 1 V/div Offset: 0 V

Time (s),Channel 1 (V),Channel 2 (V)
-4.0960000000000001,0.83568749967114075,-0.91981758355925325
-4.0955000000000004,0.76099627566743022,-0.89862430674893767
-4.0949999999999998,0.79300680024040038,-0.82444783791261145
-4.0945,0.78233662538272752,-0.67609490024040231
-4.0940000000000003,0.72898575109436281,-0.46416213213724633
-4.0934999999999997,0.67563487680581369,-0.27342264084395307
-4.093,0.57960330308675734,-0.17805289519753292
-4.0925000000000002,0.50491207908304681,-0.11447306476658618
-4.0919999999999996,0.82501732481347745,0.17163617217339713
-4.0914999999999999,0.84635767452882327,0.61669498519002452
-4.0910000000000002,0.08877525963335578,1.0087706061812196
-4.0904999999999996,-0.81818960327026069,1.2313000126897355
-4.0899999999999999,-1.46907026958831,1.2313000126897355
-4.0895000000000001,-1.2876772970077051,0.68027481562102909
-4.0890000000000004,-0.74349837926638518,-0.093279787955489968
-4.0884999999999998,-0.22065981123944084,-0.67609490024040231
-4.0880000000000001,0.14212613392176898,-0.97280077558509037
-4.0875000000000004,0.33418928135988185,-1.0469772444211949
-4.0869999999999997,0.41955068022152736,-0.95160749877459161
-4.0865,0.43022085507920033,-0.77146464588690922
-4.0860000000000003,0.38754015564850852,-0.55953187778375324
-4.0854999999999997,0.32351910650232535,-0.34759910968003838
-4.085,0.27016823221396069,-0.15685961838719809
-4.0845000000000002,0.23815770764094188,0.033879872905642261
-4.0839999999999996,0.07810508477519762,0.16103953376745869
-4.0834999999999999,-0.44473348325077627,-0.24163272562853755
-4.0830000000000002,-1.0956141495694174,-0.96220413717992292
-4.0824999999999996,-1.5971123678804529,-0.98339741398981451
-4.0819999999999999,-1.5437614935920885,-0.49595204735255594
-4.0815000000000001,-0.86087030270039921,-0.2310360872233701
-4.0810000000000004,-0.14596858723631245,-0.072086511146003174
-4.0804999999999998,0.41955068022151765,-0.13566634157686319
-4.0800000000000001,0.71831557623663156,-0.31580919446470956
-4.0795000000000003,0.83568749967103395,-0.47475877054207649
-4.0789999999999997,0.83568749967109224,-0.5277419625680968
-4.0785,0.78233662538272752,-0.57012851618872795
-4.0780000000000003,0.82501732481341916,-0.59132179299904353
-4.0774999999999997,0.77166645052492833,-0.59132179299908216
-4.077,0.64362435223285308,-0.61251506980939763
-4.0765000000000002,0.52625242879845091,-0.6337083466197132
-4.0759999999999996,0.44089102993697027,-0.67609490024047936
-4.0754999999999999,0.53692260365602662,-0.76086800748174177
-4.0750000000000002,0.69697522652126631,-0.78206128429207655
-4.0744999999999996,-0.0072563140865740498,-0.22043944881762439
-4.0739999999999998,-0.87154047755808195,0.41535885549184332
-4.0735000000000001,-1.5651018433074537,0.82862775329337313
-4.0730000000000004,-1.4584000947307243,0.59550170837990168
-4.0724999999999998,-0.8928808272734472,-0.061489872740691176
-4.0720000000000001,-0.31669138495858457,-0.65490162343006741
-4.0715000000000003,0.088775259632987047,-1.0151873292054323
-4.0709999999999997,0.31284893164477856,-1.1423469900677308
-4.0705,0.40888050536383502,-1.0999604364470996
-4.0700000000000003,0.4302208550791809,-0.96220413718004827
-4.0694999999999997,0.40888050536380594,-0.77146464588671648
-4.069,0.3768699807907871,-0.55953187778356051
-4.0685000000000002,0.30217875678700862,-0.3581957480853793
-4.0679999999999996,0.25949805735614223,-0.14626297998179932
-4.0674999999999999,0.11011560934872107,0.10805634174198775
-4.0670000000000002,-0.5621054066852853,0.53192187794868506
-4.0664999999999996,-1.4157193953004596,0.97698069096602569
-4.0659999999999998,-2.0345895370454898,1.3160731199310751
-4.0655000000000001,-2.0559298867608553,1.4432327807930845
-4.0650000000000004,-1.1062843244279637,0.8498210301042477
-4.0644999999999998,-0.14596858723566233,0.0020899576903134209
-4.0640000000000001,0.4622313796522482,-0.51714532416289083
-4.0635000000000003,0.78233662538243642,-0.70788481545573112
-4.0629999999999997,0.85702784938646714,-0.69728817705059265
-4.0625,0.81434714995577528,-0.53833860097322561
-4.0620000000000003,0.75032610080973772,-0.32640583287006975
-4.0614999999999997,0.8997085488172365,-0.18864953360257508
-4.0609999999999999,0.8997085488172365,-0.050893234335523743
-4.0605000000000002,0.76099627566736228,0.055073149716150585
-4.0599999999999996,0.60094365280201578,0.13984625695752859
-4.0594999999999999,0.4835717293676135,0.18223281057815977
-4.0590000000000002,0.44089102993688295,0.16103953376782493
-4.0585000000000004,0.79300680024008985,-0.33700247127459149
-4.0579999999999998,0.67563487680590106,-0.792657922697244
-4.0575000000000001,-0.13529841237797968,-0.41117894011121647
-4.0570000000000004,-1.0422632752801793,0.20342608738793566
-4.0564999999999998,-1.4477299198729445,0.53192187794868506
-4.056,-1.1169544992847826,0.18223281057815977
-4.0555000000000003,-0.5621054066857899,-0.41117894011067679
-4.0549999999999997,-0.092617712946977404,-0.9092209451543749
-4.0545,0.20614718306786484,-1.227120097309109
-4.0540000000000003,0.36619980593295887,-1.3648763965761601
-4.0534999999999997,0.41955068022151765,-1.3754730349813853
-4.0529999999999999,0.41955068022151765,-1.3012965661452807
-4.0525000000000002,0.38754015564846972,-1.1741369052832717
-4.0519999999999996,0.34485945621771008,-1.0257839676107734
-4.0514999999999999,0.31284893164469124,-0.85623775312824868
-4.0510000000000002,0.19547700821018218,-0.60191843140423029
-4.0505000000000004,-0.081947538089314181,-0.36879238649075874
-4.0499999999999998,-0.77550890383893822,-0.5807251545938954
-4.0495000000000001,-1.405049220442214,-0.82444783791274634
-4.0490000000000004,-1.7891755153184397,-0.33700247127548777
-4.0484999999999998,-1.5544316684489947,0.086863064931652884
-4.048,-0.70081767983515975,0.086863064931652884
-4.0475000000000003,0.046094560201945911,-0.040296595930240653
-4.0469999999999997,0.54759277851390342,-0.15685961838727519
-4.0465,0.76099627566736228,-0.24163272562853755
-4.0460000000000003,0.81434714995572677,-0.27342264084401091
-4.0454999999999997,0.77166645052507388,-0.25222936403369534
-4.0449999999999999,0.80367697509809277,-0.24163272562853755
-4.0445000000000002,0.87836819910187125,-0.29461591765437467
-4.0439999999999996,0.7823366253826014,-0.220439448818087
-4.0434999999999999,0.64362435223285308,-0.093279787956193475
-4.0430000000000001,0.52625242879834411,0.012686596095480854
-4.0425000000000004,0.45156120479463352,0.065669788121269834
-4.0419999999999998,0.65429452709053582,0.033879872905815719
-4.0415000000000001,0.65429452709053582,0.15044289536265748
-4.0410000000000004,0.02475421048783244,0.57430843156896927
-4.0404999999999998,-0.70081767983577115,0.94519077575035948
-4.04,-1.373038695869166,1.1041403518277266
-4.0395000000000003,-1.2770071221501096,0.66967817721625678
-4.0389999999999997,-0.77550890383846272,-0.11447306476714517
-4.0385,-0.25267033581248871,-0.792657922697244
-4.0380000000000003,0.1101156093483911,-1.2059268204983982
-4.0374999999999996,0.3128489316447689,-1.3754730349814528
-4.0369999999999999,0.3982103305061524,-1.3754730349814528
-4.0365000000000002,0.41955068022151765,-1.2589100125246109
-4.0359999999999996,0.38754015564843092,-1.0787671596365815
-4.0354999999999999,0.34485945621773917,-0.87743102993858346
-4.0350000000000001,0.28083840707164331,-0.66549826183523486
-4.0345000000000004,0.22748753278327863,-0.46416213213723667
-4.0339999999999998,0.078105084775673142,-0.1674562567923655
-4.0335000000000001,-0.41272295867772835,0.13984625695749003
-4.0330000000000004,-1.010252750707413,0.2140227257935946
-4.0324999999999998,-1.3837088707270526,0.57430843156964395
-4.032,-1.6077825427381842,0.89220758372437781
-4.0315000000000003,-1.0849439747122105,0.54251851635417059
-4.0309999999999997,-0.24200016095423352,0.023283234500291697
-4.0305,0.38754015564846972,-0.36879238649054674
-4.0300000000000002,0.73965592595167662,-0.50654868575759804
-4.0294999999999996,0.85702784938646714,-0.46416213213695723
-4.0289999999999999,0.81434714995577528,-0.3581957480853793
-4.0285000000000002,0.77166645052504479,-0.1674562567923655
-4.0279999999999996,0.84635767452876509,0.086863064931701067
-4.0274999999999999,0.78233662538272752,0.13984625695749003
-4.0270000000000001,0.64362435223285308,0.097459703336820316
-4.0265000000000004,0.51558225394077783,0.055073149716189138
-4.0259999999999998,0.43022085507920033,0.033879872905815719
-4.0255000000000001,0.30217875678700862,0.18223281057815977
-4.0250000000000004,-0.092617712946890085,0.6166949851896294
-4.0244999999999997,-0.86087030270103004,1.0299638829917859
-4.024,-1.554431668449771,1.2842832047155728
-4.0235000000000003,-2.1733018101948014,1.3690563119568353
-4.0229999999999997,-2.1733018101946655,1.1465269054477214
-4.0225,-1.405049220442214,0.40476221708667587
-4.0220000000000002,-0.6261264558320897,-0.34759910967952762
-4.0214999999999996,-0.060607188373900354,-0.84564111472327397
-4.0209999999999999,0.27016823221396069,-1.0575738828264298
-4.0205000000000002,0.41955068022151765,-1.0575738828264298
-4.0199999999999996,0.45156120479454614,-0.93041422196423762
-4.0194999999999999,0.43022085507920033,-0.72907809226623943
-4.0190000000000001,0.35552963107542179,-0.50654868575772338
-4.0185000000000004,0.28083840707171126,-0.29461591765456741
-4.0179999999999998,0.23815770764091276,-0.082683149551026042
-4.0175000000000001,0.20614718306786484,0.11865298014715518
-4.0170000000000003,-0.039266838658612691,0.40476221708641563
-4.0164999999999997,-0.67947733012005629,0.83922439169888752
-4.016,-0.96757205127722568,1.2207033742845681
-4.0155000000000003,-1.1276246741423197,1.4538294191980399
-4.0149999999999997,-1.0636036249958845,1.1465269054477407
-4.0145,-0.53009488211223732,0.42595549389701071
-4.0140000000000002,0.099445434490465945,-0.15685961838666806
-4.0134999999999996,0.53692260365622069,-0.54893523937851829
-4.0129999999999999,0.75032610080967954,-0.68669153864556975
-4.0125000000000002,0.79300680024041004,-0.62311170821456507
-4.0119999999999996,0.76099627566743022,-0.42177557851611408
-4.0114999999999998,0.83568749967114075,-0.12506970317169577
-4.0110000000000001,0.81434714995577528,0.044476511310983152
-4.0105000000000004,0.69697522652137311,0.044476511310983152
-4.0099999999999998,0.5689331282290746,0.012686596095480854
-4.0095000000000001,0.47290155450993088,-0.0085066807148540119
-4.0090000000000003,0.46223137965225791,0.044476511310934962
-4.0084999999999997,0.83568749967095635,0.26700591781979799
-4.008,0.63295417737517057,0.59550170837968963
-4.0075000000000003,-0.14596858723495387,0.94519077574989696
-4.0069999999999997,-0.9889124009930278,1.1359302670431899
-4.0065,-1.46907026958831,1.0935437134225592
-4.0060000000000002,-1.1703053735731959,0.51072860113835017
-4.0054999999999996,-0.61545628097325211,-0.19924617200834005
-4.0049999999999999,-0.12462823752029703,-0.71848145386107198
-4.0045000000000002,0.18480683335249956,-0.98339741399025782
-4.0039999999999996,0.35552963107547031,-1.0363806060160274
-4.0034999999999998,0.40888050536383502,-0.96220413717992292
-4.0030000000000001,0.41955068022151765,-0.81385119950757889
-4.0025000000000004,0.3768699807908259,-0.63370834661989639
-4.0019999999999998,0.32351910650237387,-0.44296885532671876
-4.0015000000000001,0.29150858192932599,-0.27342264084403983
-4.0010000000000003,0.24882788249863419,-0.10387642636151512
-4.0004999999999997,0.035424385344389422,0.18223281057858381
-4,-0.57277558154296804,0.64848490040552687
-3.9994999999999998,-1.0849439747117349,1.0935437134225592
-3.9990000000000001,-1.5330913187344057,1.33726639674141
-3.9984999999999999,-1.1703053735731959,1.0617537982070568
-3.9980000000000002,-0.38071243410468042,0.38356894027634103
-3.9975000000000001,0.24882788249859539,-0.25222936403370499
-3.9969999999999999,0.66496470194821833,-0.62311170821456507
-3.9965000000000002,0.83568749967114075,-0.73967473067140688
-3.996,0.84635767452882327,-0.66549826183523486
-3.9954999999999998,0.79300680024041004,-0.52774196256805828
-3.9950000000000001,0.84635767452882327,-0.48535540894738849
-3.9944999999999999,0.95305942310564973,-0.5807251545938954
-3.9940000000000002,0.83568749967114075,-0.42177557851638392
-3.9935,0.66496470194821833,-0.19924617200786782
-3.9929999999999999,0.51558225394066137,-0.0085066807148540119
-3.9925000000000002,0.43022085507920033,0.10805634174198775
-3.992,0.66496470194821833,0.36237566346600614
-3.9914999999999998,0.78233662538272752,0.74385464605203377
-3.9910000000000001,0.11011560934872107,1.0935437134225592
-3.9904999999999999,-0.87154047755808195,1.2842832047155728
-3.9900000000000002,-1.7251544661726932,1.3266697583362426
-3.9895,-1.8638667393225676,0.99817396777605205
-3.9889999999999999,-1.2663369472923398,0.20342608738849466
-3.9885000000000002,-0.58344575640065055,-0.54893523937839306
-3.988,-0.06060718837420119,-1.0363806060160949
-3.9874999999999998,0.24882788249859539,-1.2377167357142764
-3.9870000000000001,0.3982103305061524,-1.2377167357142764
-3.9864999999999999,0.43022085507920033,-1.1105570748522671
-3.9860000000000002,0.40888050536383502,-0.91981758355925325
-3.9855,0.34485945621773917,-0.70788481545590454
-3.9849999999999999,0.28083840707164331,-0.49595204735255594
-3.9845000000000002,0.20614718306786484,-0.25222936403370499
-3.984,0.067434909917990504,0.0020899576903134209
-3.9834999999999998,-0.3700422592469978,-0.29461591765437467
-3.9830000000000001,-0.95690187641954316,-0.77146464588690922
-3.9824999999999999,-1.4477299198729445,-0.40058230170604903
-3.9820000000000002,-1.8318562147495197,0.25640927941433178
-3.9815,-1.3410281712961183,0.34118238665567124
-3.9809999999999999,-0.44473348325077627,0.044476511310983152
-3.9805000000000001,0.23815770764091276,-0.30521255605954212
-3.98,0.63295417737517057,-0.52774196256805828
-3.9794999999999998,0.78233662538272752,-0.57012851618872795
-3.9790000000000001,0.79300680024041004,-0.4641621321370536
-3.9784999999999999,0.77166645052504479,-0.36879238649054674
-3.9780000000000002,0.93171907339028448,-0.57012851618872795
-3.9775,0.92104889853260175,-0.63370834661973252
-3.9769999999999999,0.75032610080967954,-0.48535540894738849
-3.9765000000000001,0.59027347794443985,-0.29461591765437467
-3.976,0.4835717293676135,-0.15685961838719809
-3.9754999999999998,0.38754015564846972,0.033879872905815719
-3.9750000000000001,-0.18864928666639288,0.42595549389701071
-3.9744999999999999,-0.86087030270039921,0.87101430691404291
-3.9740000000000002,-1.2663369472923398,1.1889134590690658
-3.9735,-1.6931439415996454,1.3160731199310751
-3.9729999999999999,-1.5971123678805015,1.0087706061812196
-3.9725000000000001,-0.98891240099259115,0.2246193641988295
-3.972,-0.38071243410468042,-0.50654868575772338
-3.9714999999999998,0.05676473506030786,-0.98339741399025782
-3.9710000000000001,0.30217875678700862,-1.1847335436884392
-3.9704999999999999,0.40888050536383502,-1.1953301820936066
-3.9700000000000002,0.43022085507920033,-1.0893637980419322
-3.9695,0.40888050536383502,-0.9092209451540858
-3.9689999999999999,0.34485945621773917,-0.70788481545590454
-3.9685000000000001,0.31284893164469124,-0.50654868575772338
-3.968,0.29150858192932599,-0.31580919446470956
-3.9674999999999998,0.19547700821018218,-0.082683149551026042
-3.9670000000000001,-0.24200016095480609,0.27760255622466667
-3.9664999999999999,-0.99958257585027366,0.775644561267536
-3.9660000000000002,-1.1916457232885611,1.1995100974742332
-3.9655,-1.1596351987155133,1.4008462271724147
-3.9649999999999999,-0.80751942841198598,1.0829470750173917
-3.9645000000000001,-0.14596858723566233,0.43655213230217815
-3.964,0.41955068022151765,-0.10387642636136091
-3.9634999999999998,0.73965592595199681,-0.41117894011121647
-3.9630000000000001,0.84635767452882327,-0.49595204735255594
-3.9624999999999999,0.81434714995577528,-0.41117894011121647
-3.9620000000000002,0.72898575109431429,-0.26282600243887239
-3.9615,0.857027849386506,-0.11447306476652835
-3.9609999999999999,0.92104889853260175,0.044476511310983152
-3.9605000000000001,0.79300680024041004,0.10805634174198775
-3.96,0.63295417737517057,0.13984625695749003
-3.9594999999999998,0.49424190422529612,0.17163617217299235
-3.9590000000000001,0.43022085507920033,0.18223281057815977
-3.9584999999999999,0.6863050516635838,-0.072086511145858609
-3.9580000000000002,0.52625242879834411,-0.18864953360270037
-3.9575,-0.20998963638175816,0.24581264100916439
-3.9569999999999999,-0.97824222613490841,0.73325800764686633
-3.9565000000000001,-1.3196878215807528,0.90280422212954525
-3.956,-0.98891240099259115,0.41535885549184332
-3.9554999999999998,-0.47674400782382426,-0.25222936403370499
-3.9550000000000001,-0.049937013516518552,-0.78206128429207655
-3.9544999999999999,0.21681735792554749,-1.0787671596367647
-3.9540000000000002,0.35552963107542179,-1.1741369052832717
-3.9535,0.40888050536383502,-1.131750351662602
-3.9529999999999998,0.40888050536383502,-1.01518732920576
-3.9525000000000001,0.35552963107542179,-0.84564111472308123
-3.952,0.30217875678700862,-0.67609490024040231
-3.9514999999999998,0.24882788249859539,-0.50654868575772338
-3.9510000000000001,0.20614718306786484,-0.31580919446470956
-3.9504999999999999,0.035424385344942577,-0.19924617200786782
-3.9500000000000002,-0.55143523182760279,-0.50654868575772338
-3.9495,-1.1703053735731959,-0.29461591765437467
-3.9489999999999998,-1.522421143876723,0.33058574825050385
-3.9485000000000001,-1.2876772970077051,0.62729162359519197
-3.948,-0.44473348325077627,0.36237566346600614
-3.9474999999999998,0.32351910650237387,-0.019103319120021445
-3.9470000000000001,0.81434714995577528,-0.33700247127504446
-3.9464999999999999,0.95305942310564973,-0.4535654937318862
-3.9460000000000002,0.91037872367491923,-0.43237221692155131
-3.9455,0.81434714995577528,-0.36879238649054674
-3.9449999999999998,0.82501732481345802,-0.19924617200786782
-3.9445000000000001,0.92104889853260175,0.012686596095480854
-3.944,0.81434714995577528,-0.029699957525188878
-3.9434999999999998,0.64362435223285308,-0.13566634157686319
-3.9430000000000001,0.49424190422529612,-0.2310360872233701
-3.9424999999999999,0.40888050536383502,-0.27342264084403983
-3.9420000000000002,0.54759277851370936,-0.44296885532671876
-3.9415,0.78233662538272752,-0.82444783791274634
-3.9409999999999998,0.099445434491038431,-0.42177557851638392
-3.9405000000000001,-0.79684925355430347,0.2246193641988295
-3.9399999999999999,-1.6077825427381842,0.75445128445720111
-3.9394999999999998,-1.7251544661726932,0.7968378380778709
-3.9390000000000001,-1.1703053735731959,0.25640927941433178
-3.9384999999999999,-0.53009488211223732,-0.34759910968021185
-3.9380000000000002,-0.039266838658835915,-0.76086800748174177
-3.9375,0.24882788249859539,-0.94101086036958814
-3.9369999999999998,0.38754015564846972,-0.95160749877475548
-3.9365000000000001,0.41955068022151765,-0.85623775312824868
-3.9359999999999999,0.3982103305061524,-0.70788481545590454
-3.9355000000000002,0.33418928136005654,-0.52774196256805828
-3.9350000000000001,0.24882788249859539,-0.34759910968021185
-3.9344999999999999,0.16346648363713429,-0.15685961838719809
-3.9340000000000002,0.08877525963335578,0.076266426526485451
-3.9335,-0.34870190953163249,0.4471487707073456
-3.9329999999999998,-0.98891240099259115,0.89220758372437781
-3.9325000000000001,-1.3303579964384356,1.2524932895000704
-3.9319999999999999,-1.3516983461538008,1.1995100974742332
-3.9315000000000002,-0.82885977812735145,0.61669498519002452
-3.931,-0.15663876209334496,-0.0085066807148540119
-3.9304999999999999,0.3982103305061524,-0.41117894011121647
-3.9300000000000002,0.70764540137894905,-0.61251506980939763
-3.9295,0.82501732481345802,-0.60191843140423029
-3.9289999999999998,0.79300680024041004,-0.4641621321370536
