Class_8_Think_right_hand_movement/Class_8_Think_Right_hand_mouvement_turki_7.csv

#Digilent WaveForms Oscilloscope Acquisition
#Device Name: EExplorer
#Serial Number: SN:210151A2B84A
#Date Time: 2020-12-16 09:45:09.482
#Sample rate: 2000Hz
#Samples: 16384
#Trigger: Source: Channel 1 Type: Edge Condition: Rising Level: 0 V Hyst.: Auto HoldOff: 0 s
#Channel 1: Range: 1 V/div Offset: 0 V Attenuation: 1 X
#Channel 2: Range: 1 V/div Offset: 0 V Attenuation: 1 X
#Power Supplies: ON
#Fixed Supply: ON
#Voltage: 3.3 V Readback: 3.331 V
#Positive Supply: ON
#Voltage: 3.7 V Readback: 3.713 V
#Current: 40 mA Readback: 23 mA
#Negative Supply: ON
#Voltage: -3.7 V Readback: -3.353 V
#Current: -40 mA Readback: -8 mA
#Reference 1: ON
#Voltage: 0 V
#Reference 2: ON
#Voltage: 0 V

Time (s),Channel 1 (V),Channel 2 (V)
-4.096,-0.572775581542968,0.5743084315693548
-4.0955,-0.7114878546927161,0.6484849004054594
-4.095,0.09944543449197976,1.051157159802236
-4.0945,1.134452395686255,1.432636142387917
-4.094,1.571929564850845,1.27368656631055
-4.0935,0.9210488985319613,0.4153588554910723
-4.093,0.2168173579255475,-0.4323722169215513
-4.0925,-0.1459685872353324,-1.057573882825861
-4.092,-0.263340510670152,-1.439052865412621
-4.0915,-0.2420001609548061,-1.619195718300304
-4.091,-0.1673089369510276,-1.703968825541643
-4.0905,-0.1032878878048347,-1.725162102351785
-4.09,0.00341386077189465,-1.51322933424863
-4.0895,0.02475421048725994,-1.280103289334946
-4.089,-0.04993701351645062,-1.057573882826632
-4.0885,-0.1352984123779797,-0.8350444763179138
-4.088,-0.2099896363817582,-0.5807251545938954
-4.0875,-0.1246282375203747,-0.1992461720082148
-4.087,0.5155822539414378,0.4895353243286418
-4.0865,1.369196242555273,1.178316820663898
-4.086,2.020076908873322,1.644568910490841
-4.0855,1.73198218771526,1.602182356869805
-4.085,0.3875401556484697,0.7332580076468663
-4.0845,-1.020922925564358,-0.4535654937308068
-4.084,-1.661133417026452,-1.046977244421012
-4.0835,-1.501080794161358,-0.7714646458869092
-4.083,-1.074273799854052,-0.1568596183871981
-4.0825,-0.6901475049772344,0.4365521323026022
-4.082,-0.423393133535411,0.9028042221295453
-4.0815,-0.274010685527854,1.188913459069066
-4.081,-0.2313299860971623,1.337266396741275
-4.0805,-0.2420001609548061,1.369056311956912
-4.08,-0.3060212101009019,1.284283204715573
-4.0795,-0.4554036581083231,0.9663840525608389
-4.079,-0.8181896032692126,0.8392243916987912
-4.0785,-0.3166913849585846,1.114736990232894
-4.078,0.7289857510933633,1.443232780792786
-4.0775,1.529248865420173,1.506812611223453
-4.077,1.15579274540162,0.8074344764830383
-4.0765,0.3661998059338225,-0.07208651114505871
-4.076,-0.1352984123781641,-0.7926579226977066
-4.0755,-0.3380317346739499,-1.301296566145281
-4.075,-0.3593720843893152,-1.598002441489969
-4.0745,-0.2846808603854784,-1.703968825541672
-4.074,-0.2206598112394408,-1.735758740757146
-4.0735,-0.1032878878049318,-1.75695201756748
-4.073,0.04609456020248934,-1.682775548731376
-4.0725,0.01408403562957729,-1.364876396576285
-4.072,-0.08194753808956648,-0.9833974139902578
-4.0715,-0.156638762093277,-0.612515069809735
-4.071,-0.1886492866660144,-0.2628260024383423
-4.0705,0.2274875327832301,0.3199891098453364
-4.07,1.059761171681719,1.008770606180593
-4.0695,1.817343586578109,1.549199164844826
-4.069,1.998736559158548,1.623375633680931
-4.0685,0.857027849386506,0.6484849004055269
-4.068,-0.5407650569704539,-0.5701285161891809
-4.0675,-1.127624674142465,-1.068170521231597
-4.067,-1.095614149569417,-0.792657922697244
-4.0665,-0.839529952984801,-0.2416327256280653
-4.066,-0.5834457564006506,0.2776025562246667
-4.0655,-0.391382608962363,0.6802748156210291
-4.065,-0.2846808603856337,0.9345941373448161
-4.0645,-0.2420001609548061,1.072350436612224
-4.064,-0.2633405106701714,1.114736990232894
-4.0635,-0.2953510352431902,1.072350436612263
-4.063,-0.3700422592473278,0.8922075837241561
-4.0625,-0.7328282044082075,0.6484849004055269
-4.062,-0.6367966306891512,0.8286277532932093
-4.0615,0.3021787567879208,1.220703374284848
-4.061,1.305175193409177,1.528005888034424
-4.0605,1.35852606769759,1.093543713422559
-4.06,0.4835717293669342,0.1928294489825851
-4.0595,-0.2633405106701714,-0.6231117082145651
-4.059,-0.5407650569699201,-1.184733543688439
-4.0585,-0.530094882112247,-1.502632695843173
-4.058,-0.4127229586777283,-1.629792356705471
-4.0575,-0.2953510352432193,-1.682775548731308
-4.057,-0.1673089369511441,-1.703968825541624
-4.0565,0.05676473506030786,-1.640388995110639
-4.056,0.08877525963335578,-1.502632695843462
-4.0555,0.003413860771972282,-1.290699927740306
-4.055,-0.1032878878049997,-1.025783967610658
-4.0545,-0.1779791118087102,-0.7290780922662394
-4.054,0.05676473506009436,-0.1886495336031918
-4.0535,0.8250173248141955,0.6166949851906509
-4.053,1.635950613997339,1.305476481525908
-4.0525,2.073427783162327,1.644568910491266
-4.052,1.251824319119405,0.9663840525594511
-4.0515,-0.2420001609548061,-0.2416327256285375
-4.051,-1.46907026958831,-1.184733543688439
-4.0505,-1.735824641030133,-1.269506650929701
-4.05,-1.394379045584531,-0.6654982618352349
-4.0495,-0.9462317015618604,0.08686306493165288
-4.049,-0.5834457564009805,0.7226613692411207
-4.0485,-0.3487019095315355,1.146526905448618
-4.048,-0.2420001609548061,1.390249588767247
-4.0475,-0.2313299860971332,1.485619334413667
-4.047,-0.2633405106702296,1.453829419198107
-4.0465,-0.3273615598162672,1.29487984312074
-4.046,-0.5621054066850718,0.9028042221299019
-4.0455,-0.7434983792651915,0.8498210301039779
-4.045,0.02475421048725994,1.146526905448396
-4.0445,1.059761171682476,1.453829419198252
-4.044,1.582599739708392,1.326669758335472
-4.0435,0.9957401225363802,0.4789386859228479
-4.043,0.2594980573562781,-0.4111789401112165
-4.0425,-0.1352984123776206,-1.099960436446473
-4.042,-0.274010685527854,-1.534422611058964
-4.0415,-0.2633405106701714,-1.746355379162313
-4.041,-0.2099896363818067,-1.767548655972629
-4.0405,-0.1459685872355265,-1.714565463946685
-4.04,0.00341386077189465,-1.576809164679634
-4.0395,0.06743490991793227,-1.417859588602267
-4.039,-0.007256314085875328,-1.258910012524428
-4.0385,-0.1032878878049318,-1.05757388282643
-4.038,-0.1779791118086423,-0.8138511995078006
-4.0375,-0.1139580626620418,-0.4535654937312212
-4.037,0.5155822539406614,0.2776025562246667
-4.0365,1.35852606769759,1.040560521396722
-4.036,2.030747083731393,1.580989080060184
-4.0355,1.806673411720261,1.496215972818921
-4.035,0.4302208550792003,0.4259554938970107
-4.0345,-0.9569018764182815,-0.7290780922651889
-4.034,-1.458400094730627,-1.110557074852267
-4.0335,-1.287677297007705,-0.718481453861072
-4.033,-0.9355615267044979,-0.0614898727412887
-4.0325,-0.604786106115812,0.5531151547594344
-4.032,-0.3807124341046804,1.00877060618122
-4.0315,-0.274010685527951,1.284283204715322
-4.031,-0.2313299860971429,1.432636142387936
-4.0305,-0.2526703358124887,1.453829419198252
-4.03,-0.3060212101008534,1.369056311956989
-4.0295,-0.4233931335357506,1.082947075017238
-4.029,-0.7968492535543035,0.9134008605347127
-4.0285,-0.4127229586777283,1.135930267043229
-4.028,0.6116138276606009,1.453829419198358
-4.0275,1.486568165989782,1.570392441655093
-4.027,1.315845368266859,0.9345941373450475
-4.0265,0.6116138276604456,-0.01910331911915397
-4.026,0.07810508477567314,-0.8456411147230812
-4.0255,-0.1779791118087102,-1.38606967338662
-4.025,-0.2526703358124208,-1.703968825541354
-4.0245,-0.2313299860970846,-1.831128486403681
-4.024,-0.1886492866663929,-1.862918401619155
-4.0235,-0.08194753808966353,-1.894708316834628
-4.023,0.09944543449100932,-1.831128486403373
-4.0225,0.0674349099179905,-1.523825972653797
-4.022,-0.03926683865873887,-1.121153713257801
-4.0215,-0.1352984123780282,-0.7184814538607154
-4.021,-0.1886492866663929,-0.326405832869877
-4.0205,0.1741366584948169,0.2776025562246667
-4.02,0.9850699476794061,0.9981739677765435
-4.0195,1.76399271228953,1.538602526439591
-4.019,2.041417258589279,1.761131932948107
-4.0185,0.9957401225373312,0.9875773293715883
-4.018,-0.4127229586777283,-0.252229364033705
-4.0175,-1.052933450138687,-0.8986243067489184
-4.017,-1.06360362499636,-0.7290780922663936
-4.0165,-0.839529952984801,-0.2204394488177208
-4.016,-0.5834457564006506,0.309392471440169
-4.0155,-0.4020527838202107,0.7226613692413231
-4.015,-0.2953510352431805,1.008770606181364
-4.0145,-0.2526703358124887,1.167720182258731
-4.014,-0.2740106855278346,1.22070337428452
-4.0135,-0.3060212101009699,1.188913459068902
-4.013,-0.3807124341046804,1.00877060618122
-4.0125,-0.722158029550525,0.7226613692416989
-4.012,-0.7221580295497001,0.8922075837247151
-4.0115,0.1848068333524996,1.263089927905238
-4.011,1.219813794547716,1.559795803249926
-4.0105,1.45455764141652,1.199510097474561
-4.01,0.8036769750980928,0.2881991946298341
-4.0095,0.1848068333524996,-0.5913217929990628
-4.009,-0.1779791118083802,-1.237716735713688
-4.0085,-0.3060212101008922,-1.629792356705664
-4.008,-0.2953510352432193,-1.84172512480882
-4.0075,-0.2420001609548546,-1.873515040024293
-4.007,-0.1779791118085453,-1.788741932782935
-4.0065,0.00341386077189465,-1.735758740757146
-4.006,0.04609456020262521,-1.502632695843462
-4.0055,-0.02859666380124062,-1.174136905282944
-4.005,-0.124628237520297,-0.8138511995075789
-4.0045,-0.1993194615240755,-0.474758770542221
-4.004,-0.04993701351589747,-0.01910331911937573
-4.0035,0.6329541773751706,0.6908714540261965
-4.003,1.454557641416734,1.316073119931075
-4.0025,2.009406734015727,1.655165548896125
-4.002,1.369196242555273,0.9769806909657173
-4.0015,-0.1032878878049318,-0.2628260024388724
-4.001,-1.287677297006628,-1.23771673571339
-4.0005,-1.543761493591826,-1.290699927739593
-4,-1.255666772434657,-0.718481453861072
-3.9995,-0.8715404775580819,-0.04029659593035631
-3.999,-0.5514352318276028,0.5213252395435176
-3.9985,-0.3487019095316325,0.9028042221295453
-3.998,-0.2526703358124887,1.114736990232894
-3.9975,-0.2420001609548061,1.199510097474233
-3.997,-0.274010685527854,1.178316820663898
-3.9965,-0.3166913849585846,1.061753798207057
-3.996,-0.4767440078238243,0.775644561267536
-3.9955,-0.807519428411986,0.775644561267536
-3.995,-0.2420001609548061,1.114736990232894
-3.9945,0.8036769750980928,1.464426057603419
-3.994,1.486568165989782,1.464426057603419
-3.9935,1.059761171682476,0.701468092431364
-3.993,0.3661998059331045,-0.1992461720078678
-3.9925,-0.04993701351651855,-0.9092209451540858
-3.992,-0.2420001609548061,-1.38606967338662
-3.9915,-0.2953510352432193,-1.661582271920973
-3.991,-0.2633405106701714,-1.79933857118815
-3.9905,-0.2099896363817582,-1.809935209593318
-3.99,-0.1032878878049318,-1.767548655972648
-3.9895,-0.03926683865883591,-1.650985633515806
-3.989,-0.08194753808956648,-1.38606967338662
-3.9885,-0.1459685872356623,-1.05757388282643
-3.988,-0.2099896363817582,-0.718481453861072
-3.9875,-0.1886492866663929,-0.3370024712750445
-3.987,0.3235191065023739,0.3199891098453364
-3.9865,1.166462920259302,1.040560521396722
-3.986,1.902704985439405,1.570392441655093
-3.9855,1.817343586577944,1.400846227172415
-3.985,0.5262524287983441,0.2881991946298341
-3.9845,-0.7968492535543035,-0.8138511995075789
-3.984,-1.234326422719292,-1.0999604364471
-3.9835,-1.127624674142465,-0.6760949002404023
-3.983,-0.8288597781273515,-0.04029659593035631
-3.9825,-0.5621054066852853,0.5213252395435176
-3.982,-0.3700422592469978,0.92399749893988
-3.9815,-0.274010685527854,1.178316820663898
-3.981,-0.2420001609548061,1.29487984312074
-3.9805,-0.274010685527854,1.305476481525908
-3.98,-0.3380317346739499,1.220703374284568
-3.9795,-0.4340633083930936,0.9557874141553824
-3.979,-0.7968492535543035,0.6166949851900245
-3.9785,-0.4554036581084589,0.7438546460520338
-3.978,0.5582629533713921,1.125333628638062
-3.9775,1.454557641416734,1.400846227172415
-3.977,1.315845368266859,0.92399749893988
-3.9765,0.6329541773751706,0.03387987290581572
-3.976,0.1527963087794516,-0.7608680074817418
-3.9755,-0.1032878878049318,-1.322489842955616
-3.975,-0.1993194615240755,-1.640388995110639
-3.9745,-0.2099896363817582,-1.767548655972648
-3.974,-0.1673089369510276,-1.767548655972648
-3.9735,-0.07127736323188383,-1.778145294377815
-3.973,0.1314559590640864,-1.778145294377815
-3.9725,0.1101156093487211,-1.51322933424863
-3.972,-0.007256314085787988,-1.131750351662602
-3.9715,-0.124628237520297,-0.7502713690765743
-3.971,-0.1886492866663929,-0.3899856633008816
-3.9705,0.1207857842064037,0.1928294489833272
-3.97,0.9103787236749192,0.9134008605347127
-3.9695,1.699971663143435,1.485619334413754
-3.969,2.052087433446962,1.623375633680931
-3.9685,1.102441871113207,0.701468092431364
-3.968,-0.4127229586777283,-0.5595318777835605
-3.9675,-1.447729919872945,-1.375473034981453
-3.967,-1.543761493592088,-1.227120097309109
-3.9665,-1.212986073003927,-0.6019184314042303
-3.966,-0.807519428411986,0.07626642652648545
-3.9655,-0.5087545323968721,0.5955017083796896
-3.965,-0.3273615598162672,0.9345941373450475
-3.9645,-0.2420001609548061,1.125333628638062
-3.964,-0.2526703358124887,1.167720182258731
-3.9635,-0.2953510352432193,1.125333628638062
-3.963,-0.3593720843893152,0.92399749893988
-3.9625,-0.6367966306890638,0.5425185163538525
-3.962,-0.722158029550525,0.6484849004055269
-3.9615,0.1314559590640864,1.051157159801889
-3.961,1.166462920259302,1.411442865577582
-3.9605,1.486568165989782,1.146526905448396
-3.96,0.8143471499557753,0.2670059178194992
-3.9595,0.1741366584948169,-0.6019184314042303
-3.959,-0.1993194615240755,-1.205926820498774
-3.9585,-0.3273615598162672,-1.576809164679634
-3.958,-0.3273615598162672,-1.788741932782983
-3.9575,-0.274010685527854,-1.852321763213987
-3.957,-0.1993194615240755,-1.820531847998485
-3.9565,0.05676473506030786,-1.79933857118815
-3.956,0.142126133921769,-1.555615887869299
-3.9555,0.05676473506030786,-1.174136905283272
-3.955,-0.07127736323188383,-0.7608680074817418
-3.9545,-0.1673089369510276,-0.400582301706049
-3.954,-0.07127736323188383,0.04447651131098315
-3.9535,0.5902734779444399,0.7226613692416989
-3.953,1.422547116843686,1.326669758336243
-3.9525,2.030747083731597,1.718745379327438
-3.952,1.571929564851243,1.29487984312074
-3.9515,0.142126133921769,0.08686306493165288
-3.951,-1.191645723288561,-1.046977244421262
-3.9505,-1.618452717595867,-1.375473034981453
-3.95,-1.383708870726849,-0.9410108603695881
-3.9495,-0.9675720512772257,-0.2840192792492073
-3.949,-0.6154562809736985,0.2987958330350016
-3.9485,-0.391382608962363,0.7226613692416989
-3.948,-0.274010685527854,0.9663840525605498
-3.9475,-0.2420001609548061,1.093543713422559
-3.947,-0.2633405106701714,1.104140351827727
-3.9465,-0.3273615598162672,0.9981739677760521
-3.946,-0.5194247072545548,0.6590815388106942
-3.9455,-0.8288597781273515,0.2776025562246667
-3.945,-0.2099896363817582,0.457745409112513
-3.9445,0.857027849386506,0.9451907757502149
-3.944,1.550589215135878,1.188913459069066
-3.9435,1.059761171682476,0.5743084315693548
-3.943,0.2808384070716433,-0.1886495336027004
-3.9425,-0.1459685872356623,-0.8244478379127463
-3.942,-0.3060212101009019,-1.301296566145281
-3.9415,-0.3166913849585846,-1.587405803084801
-3.941,-0.2633405106701714,-1.725162102351978
-3.9405,-0.1993194615240755,-1.79933857118815
-3.94,-0.07127736323188383,-1.831128486403653
-3.9395,0.0674349099179905,-1.725162102351978
-3.939,0.03542438534494258,-1.439052865412457
-3.9385,-0.07127736323188383,-1.0999604364471
-3.938,-0.1673089369510276,-0.7608680074817418
-3.9375,-0.1886492866663929,-0.4217755785163839
-3.937,0.2594980573562781,0.2034260873884947
-3.9365,1.081101521397841,0.9451907757502149
-3.936,1.828013761435626,1.506812611224089
-3.9355,1.817343586577944,1.453829419198252
-3.935,0.6116138276598051,0.4047622170866759
-3.9345,-0.839529952985034,-0.8032545611024114
-3.934,-1.67180359188428,-1.492036057438295
-3.9335,-1.607782542738184,-1.258910012524611
-3.933,-1.180975548430879,-0.5807251545938954
-3.9325,-0.7648387289812555,0.09745970333682032
-3.932,-0.4660738329661415,0.6166949851900245
-3.9315,-0.3060212101009019,0.9451907757502149
-3.931,-0.2420001609548061,1.125333628638062
-3.9305,-0.2526703358124887,1.178316820663898
-3.93,-0.3060212101009019,1.114736990232894
-3.9295,-0.4020527838200457,0.8604176685088755
-3.929,-0.7755089038389382,0.5849050699745222
-3.9285,-0.5834457564006506,0.8180311148882058
-3.928,0.3875401556484697,1.220703374284568
-3.9275,1.369196242555273,1.496215972818921
-3.927,1.422547116843686,1.061753798207057
-3.9265,0.79300680024041,0.1716361721729923
-3.926,0.2808384070716433,-0.6549016234300674
-3.9255,-0.02859666380115328,-1.216523458903942
-3.925,-0.1779791118087102,-1.545019249464132
-3.9245,-0.2206598112394408,-1.661582271920973
-3.924,-0.2099896363817582,-1.661582271920973
-3.9235,-0.1459685872356623,-1.661582271920973
-3.923,0.03542438534494258,-1.682775548731308
-3.9225,0.04609456020262521,-1.439052865412457
-3.922,-0.03926683865883591,-1.068170521231597
-3.9215,-0.1352984123779797,-0.6760949002404023
-3.921,-0.1993194615240755,-0.2946159176543747
-3.9205,0.05676473506030786,0.2352160026039969
-3.92,0.8356874996711408,0.92399749893988
-3.9195,1.646620788855021,1.485619334413754
-3.919,2.062757608304644,1.729342017732605
-3.9185,1.19847344483235,0.9875773293708847
-3.918,-0.2846808603855366,-0.2734226408440398
-3.9175,-1.202315898146244,-1.110557074852267
-3.917,-1.287677297007705,-1.036380606016095
-3.9165,-1.031593100423322,-0.4853554089473885
-3.916,-0.7114878546928423,0.13984625695749
-3.9155,-0.4660738329661415,0.6378882620003594
-3.915,-0.3166913849585846,0.9769806909657173
-3.9145,-0.2526703358124887,1.157123543853563
-3.914,-0.2526703358124887,1.231300012689736
-3.9135,-0.2953510352432193,1.199510097474233
-3.913,-0.3593720843893152,1.061753798207057
-3.9125,-0.6474668055467465,0.7544512844572011
-3.912,-0.7648387289812555,0.8604176685088755
-3.9115,0.0674349099179905,1.210106735879401
-3.911,1.113112045970889,1.517409249629256
-3.9105,1.539919040278195,1.326669758336243
-3.91,0.9530594231056497,0.4471487707073456
-3.9095,0.3341892813600565,-0.4217755785163839
-3.909,-0.07127736323188383,-1.046977244421262
-3.9085,-0.2420001609548061,-1.460246142222792
-3.908,-0.2633405106701714,-1.672178910326141
-3.9075,-0.2206598112394408,-1.746355379162313
-3.907,-0.1886492866663929,-1.746355379162313
-3.9065,-0.03926683865883591,-1.735758740757146
-3.906,0.02475421048725994,-1.566212526274467
-3.9055,-0.03926683865883591,-1.258910012524611
-3.905,-0.1352984123779797,-0.9092209451540858
-3.9045,-0.1993194615240755,-0.570128516188728
-3.904,-0.124628237520297,-0.1568596183871981
-3.9035,0.4729015545099309,0.5319218779486851
-3.903,1.305175193409177,1.199510097474233
-3.9025,1.966726034585501,1.655165548896433
-3.902,1.593269914566608,1.263089927905238
-3.9015,0.1954770082101822,0.06566978812131802
-3.901,-1.191645723288561,-1.046977244421262
-3.9005,-1.757164990745741,-1.439052865412457
-3.9,-1.533091318734406,-0.9728007755850904
-3.8995,-1.084943974711735,-0.2734226408440398
-3.899,-0.6794773301197943,0.3623756634660061
-3.8985,-0.423393133535411,0.8074344764830383
-3.898,-0.274010685527854,1.072350436612224
-3.8975,-0.2420001609548061,1.188913459069066
-3.897,-0.2633405106701714,1.188913459069066
-3.8965,-0.3060212101009019,1.104140351827727
-3.896,-0.4340633083930936,0.8180311148882058
-3.8955,-0.8288597781273515,0.6696781772158616
-3.895,-0.4340633083930936,0.9557874141553824
-3.8945,0.6009436528021226,1.33726639674141
-3.894,1.433217291701369,1.464426057603419
-3.8935,1.219813794547716,0.8180311148882058
-3.893,0.6436243522328531,-0.09327978795619347
-3.8925,0.1741366584948169,-0.8456411147230812
-3.892,-0.1032878878049318,-1.322489842955616
-3.8915,-0.2099896363817582,-1.587405803084801
-3.891,-0.2099896363817582,-1.725162102351978
-3.8905,-0.1673089369510276,-1.746355379162313
-3.89,-0.09261771294724913,-1.778145294377815
-3.8895,0.00341386077189465,-1.693372187136476
-3.889,-0.03926683865883591,-1.396666311791788
-3.8885,-0.124628237520297,-1.036380606016095
-3.888,-0.1993194615240755,-0.6760949002404023
-3.8875,-0.1993194615240755,-0.3052125560595421
-3.887,0.2594980573562781,0.3305857482505039
-3.8865,1.081101521397841,1.029963882991555
-3.886,1.838683936293309,1.570392441655093
