Class_8_Think_right_hand_movement/Class_8_Think_Right_hand_mouvement_Suko_2.csv

#Digilent WaveForms Oscilloscope Acquisition
#Device Name: EExplorer
#Serial Number: SN:210151A2B84A
#Date Time: 2020-12-15 14:16:16.919
#Sample rate: 2000Hz
#Samples: 16384
#Trigger: Source: Channel 1 Type: Edge Condition: Rising Level: 0 V Hyst.: Auto HoldOff: 0 s
#Channel 1: Range: 1 V/div Offset: 0 V Attenuation: 1 X
#Channel 2: Range: 1 V/div Offset: 0 V Attenuation: 1 X
#Power Supplies: ON
#Fixed Supply: ON
#Voltage: 3.3 V Readback: 3.321 V
#Positive Supply: ON
#Voltage: 3.7 V Readback: 3.715 V
#Current: 40 mA Readback: 19 mA
#Negative Supply: ON
#Voltage: -3.7 V Readback: -3.344 V
#Current: -40 mA Readback: -7 mA
#Reference 1: ON
#Voltage: 0 V
#Reference 2: ON
#Voltage: 0 V

Time (s),Channel 1 (V),Channel 2 (V)
-4.096,0.142126133921769,-0.5807251545938954
-4.0955,0.483571729367303,-0.9728007755847338
-4.095,0.6009436528021226,-1.184733543688526
-4.0945,0.6009436528021226,-1.280103289334946
-4.094,0.5262524287984121,-1.174136905283368
-4.0935,0.4942419042255096,-1.078767159636938
-4.093,0.7289857510943143,-1.269506650929778
-4.0925,0.7289857510943143,-1.152943628473043
-4.092,0.5796033030866118,-0.8350444763176054
-4.0915,0.4195506802215176,-0.4959520473525559
-4.091,0.3021787567870086,-0.1992461720078678
-4.0905,0.387540155648887,0.1398462569579526
-4.09,0.8463576745288233,0.6484849004055269
-4.0895,0.4835717293676135,1.104140351827727
-4.089,-0.3913826089615672,1.146526905448357
-4.0885,-1.202315898146244,0.55311515475902
-4.088,-1.597112367880501,0.3517790250608387
-4.0875,-1.244996597577295,0.03387987290610484
-4.087,-0.7008176798347424,-0.2628260024390169
-4.0865,-0.2420001609548061,-0.4217755785163839
-4.086,0.05676473506003615,-0.4535654937318573
-4.0855,0.2061471830679134,-0.3899856633007852
-4.085,0.2594980573562781,-0.2840192792492073
-4.0845,0.2594980573562781,-0.1674562567924715
-4.084,0.216817357925499,-0.02969995752506359
-4.0835,0.1634664836371343,0.1080563417419877
-4.083,0.1314559590640864,0.2458126410091644
-4.0825,0.02475421048677471,0.4153588554921613
-4.082,-0.5087545323968721,0.7650479228623686
-4.0815,-1.234326422719292,1.135930267043229
-4.081,-1.91721761361036,1.379652950361858
-4.0805,-1.83185621474952,1.25249328950007
-4.08,-0.9142211769888124,0.6060983467848571
-4.0795,-0.09261771294799648,-0.1992461720071353
-4.079,0.408880505364,-0.8562377531286053
-4.0785,0.5902734779444399,-1.248313374119443
-4.078,0.579603303086767,-1.375473034981337
-4.0775,0.5155822539405838,-1.354279758170993
-4.077,0.4302208550792003,-1.216523458903942
-4.0765,0.6116138276596401,-1.280103289334888
-4.076,0.7183155762365345,-1.195330182093327
-4.0755,0.6116138276598051,-0.8880276683437509
-4.075,0.4515612047945656,-0.5383386009732256
-4.0745,0.3235191065023544,-0.2310360872231003
-4.074,0.3021787567870086,0.06566978812131802
-4.0735,0.7289857510943143,0.5425185163538525
-4.073,0.8143471499556977,1.019367244585953
-4.0725,-0.007256314085787988,1.273686566310405
-4.072,-0.9569018764195432,0.5955017083796896
-4.0715,-1.511750969018536,-0.02969995752462018
-4.071,-1.277007122149556,-0.3264058328699926
-4.0705,-0.7648387289812555,-0.4535654937318862
-4.07,-0.2953510352436463,-0.4641621321370439
-4.0695,0.02475421048741521,-0.3899856633007948
-4.069,0.1954770082101822,-0.2946159176543747
-4.0685,0.2594980573562781,-0.1780528951975329
-4.068,0.2594980573562586,-0.08268314955093931
-4.0675,0.2381577076409128,0.01268659609548085
-4.067,0.1848068333524996,0.1186529801471552
-4.0665,0.1421261339217302,0.2140227257937584
-4.066,0.09944543449103843,0.3199891098453364
-4.0655,-0.2846808603855366,0.5743084315693548
-4.065,-1.020922925564969,0.9557874141550354
-4.0645,-1.767835165603424,1.273686566310405
-4.064,-2.03458953704549,1.188913459069066
-4.0635,-1.063603624997253,0.3941655786822312
-4.063,-0.1459685872351868,-0.3581957480858708
-4.0625,0.3768699807907871,-0.8986243067489184
-4.062,0.6116138276595916,-1.184733543688179
-4.0615,0.6329541773751026,-1.301296566145271
-4.061,0.5582629533713921,-1.290699927740113
-4.0605,0.4515612047945656,-1.174136905283272
-4.06,0.4835717293677688,-1.174136905283349
-4.0595,0.6542945270905358,-1.258910012524611
-4.059,0.6116138276598051,-1.078767159636765
-4.0585,0.472901554510057,-0.803254561102662
-4.058,0.3555296310754218,-0.5383386009732256
-4.0575,0.2808384070716433,-0.2946159176543747
-4.057,0.5796033030864856,0.08686306493130591
-4.0565,1.15579274540162,0.6484849004055269
-4.056,0.7609962756673623,1.125333628638062
-4.0555,-0.2633405106692397,1.400846227172164
-4.055,-1.148965023857918,1.496215972818516
-4.0545,-1.244996597576974,1.051157159801889
-4.054,-0.8608703027007486,0.3729723018717904
-4.0535,-0.4020527838197352,-0.1568596183874583
-4.053,-0.06060718837420119,-0.4429688553267188
-4.0525,0.142126133921769,-0.5065486857577234
-4.052,0.2274875327832592,-0.4323722169214357
-4.0515,0.2594980573562781,-0.3052125560595421
-4.051,0.2488278824985954,-0.1356663415768632
-4.0505,0.2061471830679036,0.04447651131081931
-4.05,0.1527963087794516,0.2140227257936621
-4.0495,0.1314559590640864,0.3729723018711736
-4.049,-0.04993701351635357,0.606098346784645
-4.0485,-0.7008176798358391,0.9557874141556618
-4.048,-1.447729919872945,1.263089927905238
-4.0475,-2.055929886760302,1.400846227172289
-4.047,-1.501080794160484,0.7862411996720771
-4.0465,-0.5407650569699201,0.09745970333682032
-4.046,0.131455959063475,-0.4535654937313851
-4.0455,0.5155822539407682,-0.8032545611026235
-4.045,0.6329541773751706,-1.036380606016095
-4.0445,0.6009436528021226,-1.142346990067769
-4.044,0.5049120790829109,-1.121153713257386
-4.0435,0.4302208550792003,-1.068170521231597
-4.043,0.5582629533713921,-1.163540266878104
-4.0425,0.547592778513719,-1.036380606016211
-4.042,0.4515612047945656,-0.792657922697244
-4.0415,0.3448594562177392,-0.5277419625680583
-4.041,0.2701682322140286,-0.2946159176545867
-4.0405,0.3341892813606,-0.1144730647662778
-4.04,0.9317190733902845,0.1610395337678249
-4.0395,1.411876941985567,0.6590815388102412
-4.039,0.7823366253817765,0.8816109453185935
-4.0385,-0.2633405106701714,0.2034260873884947
-4.038,-1.063603624995642,-0.08268314955076583
-4.0375,-1.06360362499604,-0.2628260024390073
-4.037,-0.7008176798351597,-0.4111789401112165
-4.0365,-0.3060212101009019,-0.474758770542221
-4.036,-0.007256314085632716,-0.453565493731838
-4.0355,0.1634664836371343,-0.400582301706049
-4.035,0.2274875327832301,-0.3158091944647096
-4.0345,0.248827882498576,-0.2310360872234472
-4.034,0.2274875327832301,-0.1250697031716958
-4.0335,0.1741366584948169,0.002089957690313421
-4.033,0.1314559590641252,0.1398462569573647
-4.0325,0.04609456020213999,0.3199891098456737
-4.032,-0.4874141826815069,0.6908714540261965
-4.0315,-1.234326422718613,1.093543713422193
-4.031,-1.938557963326317,1.369056311956912
-4.0305,-1.906547438753298,1.369056311956912
-4.03,-0.9782422261357527,0.8710143069144959
-4.0295,-0.1566387620928791,0.08686306493104572
-4.029,0.3555296310754218,-0.5807251545938954
-4.0285,0.5796033030867573,-1.025783967610927
-4.028,0.6222840025174393,-1.248313374119453
-4.0275,0.5689331282290746,-1.258910012524611
-4.027,0.4622313796522482,-1.152943628472937
-4.0265,0.5796033030866505,-1.227120097309041
-4.026,0.6649647019482183,-1.195330182093607
-4.0255,0.5689331282290746,-0.8986243067489184
-4.025,0.4302208550793265,-0.548935239378711
-4.0245,0.3235191065023351,-0.2416327256282966
-4.024,0.2808384070716433,0.02328323450064829
-4.0235,0.6436243522325231,0.3729723018708556
-4.023,0.8997085488166349,0.8392243916988297
-4.0225,0.2381577076409128,1.157123543853563
-4.022,-0.6794773301189596,0.7332580076472519
-4.0215,-1.351698346153704,0.4895353243277262
-4.021,-1.244996597576974,0.1716361721729923
-4.0205,-0.7861790786966207,-0.1780528951975329
-4.02,-0.3273615598159761,-0.4111789401112936
-4.0195,-0.007256314085787988,-0.4959520473525559
-4.019,0.1741366584948169,-0.474758770542221
-4.0185,0.2488278824985274,-0.4005823017061165
-4.018,0.2594980573562781,-0.2946159176543747
-4.0175,0.2381577076409128,-0.1780528951975329
-4.017,0.1848068333525481,-0.0402965959304816
-4.0165,0.1421261339217302,0.0868630649317878
-4.016,0.09944543449103843,0.2352160026039969
-4.0155,-0.1993194615238038,0.5001319627329419
-4.015,-0.8608703027009912,0.9134008605350211
-4.0145,-1.51175096901904,1.25249328950007
-4.014,-1.810515865033883,1.25249328950007
-4.0135,-1.052933450137911,0.5531151547584224
-4.013,-0.1993194615240755,-0.1038764263613609
-4.0125,0.3448594562177392,-0.6125150698093976
-4.012,0.5796033030867962,-0.8668343915335703
-4.0115,0.6222840025174878,-1.036380606016095
-4.011,0.5582629533713921,-1.078767159636765
-4.0105,0.4622313796523355,-1.015187329205818
-4.01,0.4515612047945656,-0.9516074987747555
-4.0095,0.5475927785137094,-0.8986243067489184
-4.009,0.4942419042253446,-0.7396747306715514
-4.0085,0.3982103305060747,-0.5595318777833966
-4.008,0.3128489316446912,-0.3793890248957141
-4.0075,0.2594980573563266,-0.2098428104131894
-4.007,0.4942419042258008,0.1398462569579816
-4.0065,1.049090996824793,0.6802748156210291
-4.006,0.6863050516635838,1.135930267043229
-4.0055,-0.2846808603863809,1.347863035146674
-4.005,-1.212986073003927,1.453829419198252
-4.0045,-1.479740444445993,1.178316820663898
-4.004,-1.084943974711269,0.5213252395429971
-4.0035,-0.572775581542968,-0.05089323433552374
-4.003,-0.156638762093345,-0.3899856633008816
-4.0025,0.09944543449080553,-0.5065486857576174
-4.002,0.2274875327832301,-0.4641621321370536
-4.0015,0.2594980573562781,-0.3370024712750445
-4.001,0.2594980573562781,-0.1780528951976775
-4.0005,0.216817357925499,0.002089957690496535
-4,0.1634664836371343,0.2034260873884947
-3.9995,0.1314559590640864,0.4153588554918433
-3.999,-0.03926683865883591,0.6590815388106942
-3.9985,-0.658136980404429,0.9875773293708847
-3.998,-1.394379045584531,1.284283204715573
-3.9975,-2.03458953704549,1.432636142387917
-3.997,-1.565101843307454,0.8392243916985406
-3.9965,-0.5941159312583333,0.01268659609548085
-3.996,0.1314559590640864,-0.6125150698093976
-3.9955,0.5049120790829789,-0.9304142219644207
-3.995,0.6222840025174878,-1.05757388282643
-3.9945,0.6116138276598051,-1.110557074852267
-3.994,0.5155822539406614,-1.089363798041932
-3.9935,0.4408910299368829,-1.036380606016095
-3.993,0.5902734779444399,-1.142346990067769
-3.9925,0.6009436528021226,-1.025783967610927
-3.992,0.4942419042252961,-0.7714646458869092
-3.9915,0.3768699807907871,-0.4853554089473885
-3.991,0.291508581929326,-0.252229364033705
-3.9905,0.3661998059331045,0.03387987290581572
-3.99,0.9530594231056497,0.5425185163538525
-3.9895,1.038420821967111,1.029963882991555
-3.989,0.1848068333524996,1.210106735879401
-3.9885,-0.8288597781273515,0.4153588554918433
-3.988,-1.383708870726849,-0.1886495336027004
-3.9875,-1.159635198715513,-0.4429688553267188
-3.987,-0.690147504977477,-0.5171453241628908
-3.9865,-0.2526703358124887,-0.4853554089473885
-3.986,0.03542438534494258,-0.3899856633008816
-3.9855,0.1954770082101822,-0.2734226408440398
-3.985,0.2488278824985954,-0.1674562567923655
-3.9845,0.2594980573562781,-0.08268314955102604
-3.984,0.2274875327832301,0.01268659609548085
-3.9835,0.1741366584948169,0.1080563417419877
-3.983,0.1314559590640864,0.2034260873884947
-3.9825,0.05676473506030786,0.3411823866556712
-3.982,-0.4554036581084589,0.6696781772158616
-3.9815,-1.202315898146244,1.061753798207057
-3.981,-1.799845690176472,1.33726639674141
-3.9805,-1.778505340461106,1.263089927905238
-3.98,-0.9248913518464952,0.6696781772158616
-3.9795,-0.1459685872356623,-0.1250697031716958
-3.979,0.3341892813600565,-0.8032545611024114
-3.9785,0.5796033030867573,-1.280103289334946
-3.978,0.6222840025174878,-1.481439419033127
-3.9775,0.5582629533713921,-1.439052865412457
-3.977,0.4622313796522482,-1.290699927740113
-3.9765,0.5902734779444399,-1.333086481360783
-3.976,0.707645401378949,-1.333086481360783
-3.9755,0.6116138276598051,-1.046977244421262
-3.975,0.4622313796522482,-0.6760949002404023
-3.9745,0.3448594562177392,-0.3475991096802118
-3.974,0.291508581929326,-0.06148987274069118
-3.9735,0.6649647019482183,0.3305857482505039
-3.973,1.049090996824793,0.8392243916985406
-3.9725,0.3875401556484697,1.25249328950007
-3.972,-0.658136980404429,1.496215972818921
-3.9715,-1.447729919872945,1.549199164844759
-3.971,-1.383708870726849,1.051157159801889
-3.9705,-0.8928808272734472,0.3517790250608387
-3.97,-0.4020527838200457,-0.1780528951975329
-3.9695,-0.03926683865883591,-0.4429688553267188
-3.969,0.1634664836371343,-0.5065486857577234
-3.9685,0.2488278824985954,-0.4323722169215513
-3.968,0.2701682322139607,-0.2840192792492073
-3.9675,0.2488278824985954,-0.1144730647665284
-3.967,0.1954770082101822,0.06566978812131802
-3.9665,0.1527963087794516,0.2564092794143318
-3.966,0.1314559590640864,0.457745409112513
-3.9655,-0.1673089369510276,0.7226613692416989
-3.965,-0.8822106524157645,1.072350436612224
-3.9645,-1.629122892453549,1.347863035146577
-3.964,-2.087940411333903,1.432636142387917
-3.9635,-1.373038695869166,1.029963882991555
-3.963,-0.4554036581084589,0.2140227257936621
-3.9625,0.1954770082101822,-0.570128516188728
-3.962,0.5155822539406614,-1.110557074852267
-3.9615,0.6116138276598051,-1.301296566145281
-3.961,0.5689331282290746,-1.311893204550448
-3.9605,0.4729015545099309,-1.227120097309109
-3.96,0.4729015545099309,-1.184733543688439
-3.9595,0.6436243522328531,-1.258910012524611
-3.959,0.6009436528021226,-1.025783967610927
-3.9585,0.4729015545099309,-0.6760949002404023
-3.958,0.3555296310754218,-0.3370024712750445
-3.9575,0.2808384070716433,-0.05089323433552374
-3.957,0.4835717293676135,0.3411823866556712
-3.9565,0.8783681991018712,0.8392243916985406
-3.956,0.3128489316446912,1.241896651094903
-3.9555,-0.5941159312583333,1.114736990232894
-3.955,-1.362368521011484,0.09745970333682032
-3.9545,-1.437059745015262,-0.5171453241628908
-3.954,-0.9782422261349084,-0.6337083466197325
-3.9535,-0.4767440078238243,-0.5277419625680583
-3.953,-0.09261771294724913,-0.326405832869877
-3.9525,0.142126133921769,-0.1356663415768632
-3.952,0.2488278824985954,0.002089957690313421
-3.9515,0.2701682322139607,0.1080563417419877
-3.951,0.2594980573562781,0.1716361721729923
-3.9505,0.2168173579255475,0.2352160026039969
-3.95,0.1634664836371343,0.2881991946298341
-3.9495,0.1314559590640864,0.3305857482505039
-3.949,-0.03926683865883591,0.457745409112513
-3.9485,-0.6688071552621118,0.8074344764830383
-3.948,-1.426389570157579,1.146526905448396
-3.9475,-2.07727023647622,1.33726639674141
-3.947,-1.629122892453549,0.8604176685088755
-3.9465,-0.658136980404429,0.2140227257936621
-3.946,0.08877525963335578,-0.4535654937318862
-3.9455,0.5155822539406614,-1.01518732920576
-3.945,0.6649647019482183,-1.396666311791788
-3.9445,0.6329541773751706,-1.449649503817625
-3.944,0.5369226036560266,-1.38606967338662
-3.9435,0.4408910299368829,-1.322489842955616
-3.943,0.5689331282290746,-1.417859588602123
-3.9425,0.5796033030867573,-1.311893204550448
-3.942,0.4835717293676135,-1.046977244421262
-3.9415,0.3661998059331045,-0.7396747306714069
-3.941,0.291508581929326,-0.4535654937318862
-3.9405,0.3341892813600565,-0.1144730647665284
-3.94,0.8676980242441885,0.457745409112513
-3.9395,1.070431346540159,0.9981739677760521
-3.939,0.2701682322139607,1.231300012689736
-3.9385,-0.722158029550525,0.4471487707073456
-3.938,-1.341028171296118,-0.3052125560595421
-3.9375,-1.180975548430879,-0.5277419625680583
-3.937,-0.7114878546928423,-0.5065486857577234
-3.9365,-0.274010685527854,-0.3581957480853793
-3.936,0.02475421048725994,-0.1780528951975329
-3.9355,0.1954770082101822,-0.008506680714854012
-3.935,0.2594980573562781,0.1292496185523226
-3.9345,0.2701682322139607,0.2246193641988295
-3.934,0.2381577076409128,0.3199891098453364
-3.9335,0.1848068333524996,0.3941655786815084
-3.933,0.1527963087794516,0.4683420475176805
-3.9325,0.07810508477567314,0.5637117931641874
-3.932,-0.391382608962363,0.8074344764830383
-3.9315,-1.1062843244271,1.125333628638062
-3.931,-1.661133417026597,1.369056311956912
-3.9305,-1.67180359188428,1.072350436612224
-3.93,-0.8608703027003992,0.2564092794143318
-3.9295,-0.07127736323188383,-0.4853554089473885
-3.929,0.4408910299368829,-1.036380606016095
-3.9285,0.6542945270905358,-1.333086481360783
-3.928,0.6649647019482183,-1.449649503817625
-3.9275,0.6009436528021226,-1.449649503817625
-3.927,0.4942419042252961,-1.375473034981453
-3.9265,0.5689331282290746,-1.205926820498774
-3.926,0.6329541773751706,-1.01518732920576
-3.9255,0.5369226036560266,-0.8774310299385835
-3.925,0.4195506802215176,-0.7502713690765743
-3.9245,0.3128489316446912,-0.6019184314042303
-3.924,0.2701682322139607,-0.4535654937318862
-3.9235,0.6542945270905358,-0.2204394488182027
-3.923,1.049090996824793,0.3305857482505039
-3.9225,0.3875401556484697,0.8922075837243778
-3.922,-0.6261264558313813,1.305476481525908
-3.9215,-1.415719395299897,1.485619334413754
-3.921,-1.394379045584531,1.082947075017392
-3.9205,-0.9142211769888124,0.4471487707073456
-3.92,-0.4127229586777283,-0.04029659593035631
-3.9195,-0.04993701351651855,-0.2734226408440398
-3.919,0.1634664836371343,-0.3052125560595421
-3.9185,0.2488278824985954,-0.2098428104130352
-3.918,0.2808384070716433,-0.05089323433552374
-3.9175,0.2594980573562781,0.1186529801471552
-3.917,0.2061471830678648,0.309392471440169
-3.9165,0.1634664836371343,0.4789386859228479
-3.916,0.1314559590640864,0.6378882620003594
-3.9155,-0.1352984123779797,0.8710143069140429
-3.915,-0.8502001278427167,1.167720182258731
-3.9145,-1.597112367880501,1.400846227172415
-3.914,-2.045259711903173,1.347863035146577
-3.9135,-1.255666772434657,0.6060983467848571
-3.913,-0.3380317346739499,-0.1038764263613609
-3.9125,0.3021787567870086,-0.7290780922662394
-3.912,0.6009436528021226,-1.131750351662602
-3.9115,0.6649647019482183,-1.333086481360783
-3.911,0.6329541773751706,-1.396666311791788
-3.9105,0.5262524287983441,-1.301296566145281
-3.91,0.5155822539406614,-1.248313374119443
-3.9095,0.707645401378949,-1.354279758171118
-3.909,0.6756348768059011,-1.163540266878104
-3.9085,0.5262524287983441,-0.8456411147230812
-3.908,0.3875401556484697,-0.5383386009732256
-3.9075,0.291508581929326,-0.2734226408440398
-3.907,0.408880505363835,-0.02969995752518888
-3.9065,0.9957401225363802,0.4259554938970107
-3.906,0.825017324813458,0.9345941373450475
-3.9055,-0.124628237520297,1.273686566310405
-3.905,-1.095614149569417,1.453829419198252
-3.9045,-1.373038695869166,1.199510097474233
-3.904,-1.020922925565639,0.5319218779486851
-3.9035,-0.5300948821122373,-0.05089323433552374
-3.903,-0.1352984123779797,-0.4111789401112165
-3.9025,0.1101156093487211,-0.5383386009732256
-3.902,0.2274875327832301,-0.5171453241628908
-3.9015,0.2701682322139607,-0.400582301706049
-3.901,0.2594980573562781,-0.252229364033705
-3.9005,0.2168173579255475,-0.08268314955102604
-3.9,0.1741366584948169,0.09745970333682032
-3.8995,0.142126133921769,0.2776025562246667
-3.899,0.01408403562957729,0.5107286011383502
-3.8985,-0.6047861061160158,0.8816109453192104
-3.898,-1.330357996438436,1.231300012689736
-3.8975,-1.863866739322568,1.443232780793084
-3.897,-1.501080794161358,0.9981739677760521
-3.8965,-0.5941159312583333,0.2564092794143318
-3.896,0.09944543449103843,-0.4641621321370536
-3.8955,0.5049120790829789,-0.9410108603695881
-3.895,0.6542945270905358,-1.195330182093607
-3.8945,0.6329541773751706,-1.227120097309109
-3.894,0.5369226036560266,-1.131750351662602
-3.8935,0.4408910299368829,-0.9939940523954253
-3.893,0.6436243522328531,-1.131750351662602
-3.8925,0.6969752265212663,-1.068170521231597
-3.892,0.5796033030867573,-0.792657922697244
-3.8915,0.4302208550792003,-0.474758770542221
-3.891,0.3235191065023739,-0.2204394488182027
-3.8905,0.3555296310754218,0.05507314971615059
-3.89,0.8463576745288233,0.55311515475902
-3.8895,0.8997085488172365,1.040560521396722
-3.889,0.02475421048725994,1.37965295036208
-3.8885,-0.9782422261349084,1.570392441655093
-3.888,-1.490410619303675,1.453829419198252
-3.8875,-1.212986073003927,0.7968378380778709
-3.887,-0.7008176798351597,0.1186529801471552
-3.8865,-0.2526703358124887,-0.3370024712750445
