Class_8_Think_right_hand_movement/Class_8_Think_Right_hand_mouvement_UZ_11.csv

#Digilent WaveForms Oscilloscope Acquisition
#Device Name: EExplorer
#Serial Number: SN:210151A2B84A
#Date Time: 2021-01-18 13:52:37.878
#Sample rate: 2000Hz
#Samples: 16384
#Trigger: Source: Channel 1 Type: Edge Condition: Rising Level: 0 V Hyst.: Auto HoldOff: 0 s
#Channel 1: Range: 1 V/div Offset: 0 V Attenuation: 1 X
#Channel 2: Range: 1 V/div Offset: 0 V Attenuation: 1 X
#Power Supplies: ON
#Fixed Supply: ON
#Voltage: 3.3 V Readback: 3.325 V
#Positive Supply: ON
#Voltage: 3.7 V Readback: 3.711 V
#Current: 40 mA Readback: 18 mA
#Negative Supply: ON
#Voltage: -3.7 V Readback: -3.962 V
#Current: -40 mA Readback: -13 mA
#Reference 1: ON
#Voltage: 0 V
#Reference 2: ON
#Voltage: 0 V

Time (s),Channel 1 (V),Channel 2 (V)
-4.096,1.51857869056283,-2.032464616101834
-4.0955,1.358526067697736,-1.163540266878895
-4.095,1.049090996824473,-0.2628260024383134
-4.0945,0.6969752265212663,0.3517790250608387
-4.094,0.3982103305064241,0.6272916235949414
-4.0935,0.1848068333523928,0.659081538810569
-4.093,0.0674349099179905,0.5213252395435176
-4.0925,0.01408403562962582,0.4577454091125709
-4.092,0.003413860771884946,0.468342047517719
-4.0915,-0.007256314085787988,0.5107286011383502
-4.091,-0.007256314085787988,0.5319218779486851
-4.0905,-0.1139580626631287,0.5107286011380707
-4.09,-0.6794773301197943,0.2034260873884947
-4.0895,-1.394379045584531,-0.2734226408440398
-4.089,-1.959898313041197,-0.9516074987741387
-4.0885,-2.066600061618538,-1.290699927740113
-4.088,-2.023919362187807,-1.375473034981453
-4.0875,-1.575772018165544,-0.8774310299390364
-4.087,-0.8928808272729911,-0.1038764263608212
-4.0865,-0.391382608962363,0.4895353243280153
-4.086,-0.01792648894381033,0.9239974989394849
-4.0855,0.1101156093487308,1.093543713422579
-4.085,0.1207857842064037,1.114736990232894
-4.0845,0.09944543449105783,1.093543713422579
-4.084,0.07810508477566344,1.040560521396674
-4.0835,0.0674349099179905,0.9875773293708847
-4.083,0.05676473506030786,0.9451907757502149
-4.0825,0.0674349099181846,0.9028042221292368
-4.082,0.2808384070716433,0.5637117931641874
-4.0815,0.9103787236749192,-0.3793890248957141
-4.081,1.198473444832088,-1.322489842954758
-4.0805,1.251824319120764,-1.979481424075996
-4.08,1.443887466559051,-2.286783937825852
-4.0795,1.47589799113207,-2.064254531317538
-4.079,1.32651554312429,-1.248313374118615
-4.0785,1.049090996824793,-0.3370024712750445
-4.078,0.7289857510946054,0.3305857482498966
-4.0775,0.4515612047943715,0.616694985190063
-4.077,0.2381577076409128,0.6590815388106942
-4.0765,0.1314559590641834,0.669678177215852
-4.076,0.07810508477564403,0.6696781772158038
-4.0755,0.04609456020262521,0.6060983467848571
-4.075,0.03542438534494258,0.5425185163538525
-4.0745,0.02475421048723082,0.5001319627331635
-4.074,-0.007256314085787988,0.4789386859228479
-4.0735,-0.3807124341046804,0.2458126410091644
-4.073,-1.084943974711094,-0.4005823017054611
-4.0725,-1.586442193022819,-1.046977244421262
-4.072,-1.885207089037933,-1.51322933424863
-4.0715,-1.61845271759611,-1.184733543688738
-4.071,-1.031593100422875,-0.3793890248950973
-4.0705,-0.5407650569699201,0.2987958330350016
-4.07,-0.220659811239732,0.7756445612671024
-4.0695,0.01408403562906296,1.093543713422087
-4.069,-0.5514352318276028,0.5743084315693548
-4.0685,-0.4874141826815069,0.6484849004055269
-4.068,-0.338031734673814,0.775644561267642
-4.0675,-0.1886492866663929,0.8922075837243778
-4.067,0.00341386077189465,1.029963882991555
-4.0665,0.05676473506030786,1.008770606181143
-4.066,0.05676473506030786,0.92399749893988
-4.0655,0.2168173579255475,0.627291623595192
-4.065,0.8250173248129049,-0.3475991096793252
-4.0645,1.081101521397841,-1.333086481360783
-4.064,1.027750647109428,-1.968884785670829
-4.0635,1.219813794547541,-2.435136875497772
-4.063,1.369196242555224,-2.625876366790747
-4.0625,1.315845368266859,-2.117237723343173
-4.062,1.091771696255728,-1.131750351663498
-4.0615,0.7823366253824559,-0.2628260024383809
-4.061,0.4835717293676135,0.2776025562246667
-4.0605,0.2488278824985954,0.5319218779486851
-4.06,0.1101156093486143,0.5849050699744837
-4.0595,-0.007256314085787988,0.5425185163538525
-4.059,-0.03926683865883591,0.5001319627331828
-4.0585,-0.02859666380116298,0.489535324328025
-4.058,-0.007256314085787988,0.5001319627331828
-4.0575,-0.007256314085787988,0.5213252395435176
-4.057,-0.2846808603852843,0.298795833035204
-4.0565,-1.031593100423322,-0.400582301706049
-4.056,-1.639793067311232,-1.110557074852267
-4.0555,-1.810515865033999,-1.619195718299841
-4.055,-1.863866739322141,-1.714565463946117
-4.0545,-1.394379045584531,-0.9516074987747555
-4.054,-0.8075194284125198,-0.08268314955181633
-4.0535,-0.3487019095313705,0.5955017083800751
-4.053,-0.06060718837420119,1.019367244586387
-4.0525,0.07810508477567314,1.231300012689736
-4.052,0.1207857842064037,1.294879843120731
-4.0515,0.1207857842064037,1.284283204715573
-4.051,0.09944543449103843,1.231300012689736
-4.0505,0.02475421048732787,1.104140351827842
-4.05,0.00341386077189465,1.019367244586387
-4.0495,-0.1352984123779797,0.8074344764830383
-4.049,-0.6474668055462807,0.1504428953632551
-4.0485,-0.07127736323130156,-0.2840192792499494
-4.048,0.5689331282290746,-1.0999604364471
-4.0475,0.8250173248132251,-1.778145294377198
-4.047,1.219813794548065,-2.233800745800323
-4.0465,1.603940089424291,-2.572893174765372
-4.046,1.646620788854982,-2.318573853041586
-4.0455,1.433217291701048,-1.311893204549571
-4.045,1.081101521397841,-0.3475991096802118
-4.0445,0.6863050516635838,0.2881991946298341
-4.044,0.3661998059329201,0.5637117931642259
-4.0435,0.1634664836371343,0.6060983467848571
-4.043,0.1314559590640864,0.4895353243280153
-4.0425,0.1421261339217593,0.3623756634661218
-4.042,0.1101156093487211,0.3305857482505039
-4.0415,0.0674349099179905,0.3623756634660061
-4.041,0.03542438534497169,0.4153588554917951
-4.0405,-0.04993701351703289,0.4153588554914964
-4.04,-0.6154562809736985,0.03387987290581572
-4.0395,-1.415719395299169,-0.6337083466191253
-4.039,-1.87453691418057,-1.322489842956059
-4.0385,-2.226652684483777,-1.809935209593318
-4.038,-2.045259711903338,-1.587405803085004
-4.0375,-1.383708870726247,-0.7078848154551239
-4.037,-0.722158029550525,0.1504428953626575
-4.0365,-0.2526703358124887,0.775644561267536
-4.036,0.003413860772001399,1.14652690544855
-4.0355,0.1207857842064037,1.316073119931075
-4.035,0.142126133921769,1.358459673551745
-4.0345,0.1207857842064231,1.326669758336271
-4.034,0.09944543449103843,1.263089927905238
-4.0335,0.0674349099179905,1.188913459069066
-4.033,0.0674349099179905,1.104140351827804
-4.0325,0.0674349099181846,1.008770606180931
-4.032,0.2808384070716433,0.6908714540261965
-4.0315,0.8997085488166736,-0.06148987274000695
-4.031,1.049090996824823,-0.8562377531287113
-4.0305,1.081101521397841,-1.364876396576285
-4.03,1.2945050185513,-1.682775548731019
-4.0295,1.305175193408507,-1.513229334248533
-4.029,0.5689331282290746,-1.407262950196955
-4.0285,0.3982103305061524,-0.7290780922662394
-4.028,0.259498057356181,-0.1568596183868897
-4.0275,0.1527963087794516,0.1822328105781598
-4.027,0.1527963087794516,0.4047622170866759
-4.0265,0.09944543449108695,0.5001319627330961
-4.026,0.04609456020262521,0.5849050699745222
-4.0255,0.02475421048725994,0.5743084315693548
-4.025,0.014084035629587,0.5425185163538814
-4.0245,0.01408403562956759,0.5213252395435369
-4.024,0.00341386077189465,0.5425185163538525
-4.0235,-0.3166913849582934,0.775644561267324
-4.023,-1.170305373573904,0.6166949851891571
-4.0225,-1.949228138184029,-0.3370024712750445
-4.022,-2.53608775535604,-1.290699927739246
-4.0215,-2.55742810507127,-1.629792356704912
-4.021,-1.821186039891837,-1.01518732920576
-4.0205,-1.020922925565639,-0.1356663415768632
-4.02,-0.4020527838197255,0.5955017083801233
-4.0195,-0.04993701351651855,1.072350436612224
-4.019,0.1207857842064037,1.326669758336243
-4.0185,0.1634664836370955,1.422039503982663
-4.018,0.1527963087794516,1.42203950398275
-4.0175,0.1207857842064037,1.37965295036208
-4.017,0.0887752596333849,1.305476481525975
-4.0165,0.07810508477566344,1.220703374284481
-4.016,0.0674349099179905,1.125333628638062
-4.0155,0.1954770082100657,0.8604176685091164
-4.015,0.8143471499561538,0.07626642652570481
-4.0145,1.230483969405398,-0.7820612842920766
-4.014,1.326515543124455,-1.470842780627333
-4.0135,1.561259389993628,-1.937094870455278
-4.013,1.635950613997339,-1.88411167842949
-4.0125,1.465227816274416,-1.142346990067769
-4.012,1.187803269974338,-0.4217755785159406
-4.0115,0.825017324813458,0.06566978812131802
-4.011,0.3768699807907871,0.2246193641988295
-4.0105,0.2061471830680201,0.3623756634658808
-4.01,0.03542438534494258,0.309392471440169
-4.0095,-0.572775581542968,-0.326405832869877
-4.009,-0.5300948821122762,-0.2840192792492459
-4.0085,-0.3807124341045154,-0.1038764263611585
-4.008,-0.1993194615240755,0.1186529801471552
-4.0075,-0.02859666380130854,0.3411823866554689
-4.007,-0.2313299860977834,0.1610395337671117
-4.0065,-0.9569018764195432,-0.6231117082145651
-4.006,-1.661133417026597,-1.492036057438295
-4.0055,-2.130621110764789,-2.053657892912246
-4.005,-2.301343908487556,-2.138431000153508
-4.0045,-1.767835165603424,-1.301296566145281
-4.004,-1.031593100422788,-0.2310360872225894
-4.0035,-0.4447334832507763,0.627291623595192
-4.003,-0.08194753808956648,1.157123543853563
-4.0025,0.08877525963320052,1.432636142387667
-4.002,0.1527963087794516,1.528005888034424
-4.0015,0.142126133921769,1.517409249629256
-4.001,0.1207857842064231,1.464426057603468
-4.0005,0.09944543449101902,1.369056311956816
-4,0.07810508477567314,1.263089927905238
-3.9995,0.07810508477567314,1.146526905448396
-3.999,0.07810508477567314,1.019367244586387
-3.9985,0.1848068333524996,0.5955017083796896
-3.998,0.5689331282290746,-0.2416327256285375
-3.9975,0.707645401378949,-0.9622041371799229
-3.997,0.8463576745288233,-1.375473034981453
-3.9965,0.9637295979633325,-1.205926820498774
-3.996,0.9850699476786977,-0.5595318777835605
-3.9955,0.8997085488172365,0.03387987290581572
-3.995,0.707645401378949,0.3517790250608387
-3.9945,0.4729015545099309,0.457745409112513
-3.994,0.291508581929326,0.4047622170866759
-3.9935,0.1741366584948169,0.3199891098453364
-3.993,0.1634664836371343,0.2034260873884947
-3.9925,0.1741366584948169,0.2034260873884947
-3.992,0.1207857842064037,0.2881991946298341
-3.9915,-0.007256314085787988,0.309392471440169
-3.991,0.01408403562957729,0.4683420475176805
-3.9905,-0.4554036581084589,0.1292496185523226
-3.99,-1.095614149569417,0.04447651131098315
-3.9895,-1.767835165603424,-0.3687923864905467
-3.989,-2.205312334768412,-1.205926820498774
-3.9885,-2.429386006779747,-1.767548655972648
-3.988,-2.450726356495113,-1.926498232050159
-3.9875,-1.842526389607202,-1.237716735714276
-3.987,-1.074273799854052,-0.2628260024388724
-3.9865,-0.4660738329661415,0.55311515475902
-3.986,-0.08194753808956648,1.082947075017392
-3.9855,0.09944543449103843,1.358459673551745
-3.985,0.1634664836371343,1.464426057603419
-3.9845,0.1634664836371343,1.464426057603419
-3.984,0.142126133921769,1.400846227172415
-3.9835,0.1101156093487211,1.29487984312074
-3.983,0.08877525963335578,1.199510097474233
-3.9825,0.09944543449103843,1.029963882991555
-3.982,0.291508581929326,0.5213252395435176
-3.9815,0.8783681991018712,-0.4429688553267188
-3.981,1.19847344483235,-1.34368311976595
-3.9805,1.209143619690033,-1.778145294377815
-3.98,1.123782220828572,-1.311893204550448
-3.9795,1.059761171682476,-0.792657922697244
-3.979,0.974399772821015,-0.2204394488182027
-3.9785,0.8356874996711408,0.2458126410091644
-3.978,0.6222840025174878,0.457745409112513
-3.9775,0.3982103305061524,0.457745409112513
-3.977,0.2168173579255475,0.4047622170866759
-3.9765,0.1101156093487211,0.3623756634660061
-3.976,0.0674349099179905,0.3941655786815084
-3.9755,0.04609456020262521,0.3729723018711736
-3.975,0.03542438534494258,0.3517790250608387
-3.9745,0.03542438534494258,0.3623756634660061
-3.974,0.00341386077189465,0.383568940276341
-3.9735,-0.3166913849585846,0.1928294489833272
-3.973,-0.9675720512772257,-0.1886495336027004
-3.9725,-1.597112367880501,-0.8244478379127463
-3.972,-1.917217613610981,-1.195330182093607
-3.9715,-2.066600061618538,-1.311893204550448
-3.971,-1.991908837614759,-1.152943628472937
-3.9705,-1.533091318734406,-0.5277419625680583
-3.97,-0.839529952985034,0.3199891098453364
-3.9695,-0.3380317346739499,0.9345941373450475
-3.969,0.02475421048725994,1.37965295036208
-3.9685,0.142126133921769,1.517409249629256
-3.968,0.142126133921769,1.517409249629256
-3.9675,0.1207857842064037,1.453829419198252
-3.967,0.09944543449103843,1.358459673551745
-3.9665,0.08877525963335578,1.25249328950007
-3.966,0.08877525963335578,1.135930267043229
-3.9655,0.1527963087794516,0.9557874141553824
-3.965,0.6969752265212663,0.1716361721729923
-3.9645,1.027750647109428,-0.8456411147230812
-3.964,1.134452395686255,-1.650985633515806
-3.9635,1.273164668836129,-2.127834361748341
-3.963,1.379866417412955,-2.318573853041354
-3.9625,1.347855892839907,-1.767548655972648
-3.962,1.177133095116985,-0.8774310299385835
-3.9615,0.8997085488172365,-0.1674562567923655
-3.961,0.6009436528021226,0.2458126410091644
-3.9605,0.3448594562177392,0.383568940276341
-3.96,0.1848068333524996,0.383568940276341
-3.9595,0.1634664836371343,0.2564092794143318
-3.959,0.1314559590640864,0.2140227257936621
-3.9585,0.09944543449103843,0.2246193641988295
-3.958,0.0674349099179905,0.2564092794143318
-3.9575,0.04609456020262521,0.3199891098453364
-3.957,-0.07127736323188383,0.4471487707073456
-3.9565,-0.6474668055467465,0.6696781772158616
-3.956,-1.319687821580753,0.2140227257936621
-3.9555,-1.767835165603424,-0.5277419625680583
-3.955,-2.109280761049269,-1.068170521231597
-3.9545,-1.67180359188428,-0.8138511995075789
-3.954,-1.010252750707956,-0.1250697031716958
-3.9535,-0.4660738329661415,0.5319218779486851
-3.953,-0.1993194615240755,0.92399749893988
-3.9525,0.04609456020262521,1.273686566310405
-3.952,-0.2633405106701714,1.029963882991555
-3.9515,-0.4980843575391895,0.8286277532933731
-3.951,-0.3487019095316325,0.9875773293708847
-3.9505,-0.2099896363817582,1.104140351827727
-3.95,-0.007256314085787988,1.241896651094903
-3.9495,0.07810508477567314,1.241896651094903
-3.949,0.09944543449103843,1.104140351827727
-3.9485,0.408880505363835,0.5425185163538525
-3.948,0.9637295979633325,-0.5489352393783931
-3.9475,1.134452395686255,-1.566212526274467
-3.947,1.273164668836129,-2.180817553774178
-3.9465,1.401206767128321,-2.127834361748341
-3.946,1.369196242555273,-1.51322933424863
-3.9455,1.209143619690033,-0.7078848154559045
-3.945,0.9530594231056497,-0.05089323433552374
-3.9445,0.6649647019482183,0.3623756634660061
-3.944,0.3982103305061524,0.5213252395435176
-3.9435,0.2168173579255475,0.4789386859228479
-3.943,0.1314559590640864,0.3941655786815084
-3.9425,0.08877525963335578,0.3199891098453364
-3.942,0.0674349099179905,0.2881991946298341
-3.9415,0.04609456020262521,0.2881991946298341
-3.941,0.03542438534494258,0.309392471440169
-3.9405,-0.01792648894347063,0.3305857482505039
-3.94,-0.3807124341046804,0.4471487707073456
-3.9395,-1.095614149569417,0.2881991946298341
-3.939,-1.714484291315011,-0.4217755785163839
-3.9385,-2.098610586191586,-1.068170521231597
-3.938,-1.810515865034154,-0.9622041371799229
-3.9375,-1.159635198715513,-0.3052125560595421
-3.937,-0.5621054066852853,0.383568940276341
-3.9365,-0.1673089369510276,0.9028042221295453
-3.936,0.04609456020262521,1.231300012689736
-3.9355,0.142126133921769,1.400846227172415
-3.935,0.1527963087794516,1.464426057603419
-3.9345,0.1314559590640864,1.464426057603419
-3.934,0.1101156093487211,1.42203950398275
-3.9335,0.03542438534494258,1.305476481525908
-3.933,0.03542438534494258,1.231300012689736
-3.9325,0.03542438534494258,1.135930267043229
-3.932,-0.391382608962363,0.2034260873884947
-3.9315,0.3448594562177392,-0.6443049850249
-3.931,0.9957401225363802,-1.51322933424863
-3.9305,1.123782220828572,-2.043061254507001
-3.93,1.251824319120764,-1.852321763213987
-3.9295,1.219813794547716,-1.0999604364471
-3.929,1.081101521397841,-0.4323722169215513
-3.9285,0.8783681991018712,0.02328323450064829
-3.928,0.6436243522328531,0.309392471440169
-3.9275,0.3982103305061524,0.3941655786815084
-3.927,0.2274875327832301,0.3517790250608387
-3.9265,0.08877525963335578,0.3305857482505039
-3.926,-0.04993701351651855,0.5001319627331828
-3.9255,-0.08194753808956648,0.5107286011383502
-3.925,-0.06060718837420119,0.457745409112513
-3.9245,-0.01792648894347063,0.4259554938970107
-3.924,0.00341386077189465,0.4365521323021782
-3.9235,-0.2420001609548061,0.2881991946298341
-3.923,-0.9782422261349084,-0.008506680714854012
-3.9225,-1.629122892453549,-0.718481453861072
-3.922,-1.959898313041711,-1.301296566145281
-3.9215,-2.183971985053047,-1.587405803084801
-3.921,-1.757164990745741,-1.089363798041932
-3.9205,-1.074273799854052,-0.2098428104130352
-3.92,-0.4874141826815069,0.5743084315693548
-3.9195,-0.1139580626626144,1.114736990232894
-3.919,0.08877525963335578,1.400846227172415
-3.9185,0.1527963087794516,1.517409249629256
-3.918,0.1634664836371343,1.528005888034424
-3.9175,0.1314559590640864,1.475022696008586
-3.917,0.1101156093487211,1.37965295036208
-3.9165,0.08877525963335578,1.263089927905238
-3.916,0.08877525963335578,1.114736990232894
-3.9155,0.09944543449103843,0.9663840525605498
-3.915,0.3021787567870086,0.4895353243280153
-3.9145,0.6222840025174878,-0.326405832869877
-3.914,0.6756348768059011,-1.025783967610927
-3.9135,0.707645401378949,-1.523825972653797
-3.913,0.9317190733902845,-1.248313374119443
-3.9125,0.8997085488172365,-0.8244478379127463
-3.912,0.2381577076409128,-0.8986243067489184
-3.9115,0.1954770082101822,-0.4217755785163839
-3.911,0.1207857842064037,-0.09327978795619347
-3.9105,0.1207857842064037,0.1292496185523226
-3.91,0.142126133921769,0.2458126410091644
-3.9095,-0.1032878878049318,0.01268659609548085
-3.909,-0.2099896363817582,-0.02969995752518888
-3.9085,-0.1779791118087102,0.09745970333682032
-3.908,-0.09261771294724913,0.2776025562246667
-3.9075,-0.02859666380115328,0.4365521323021782
-3.907,-0.09261771294724913,0.5637117931641874
-3.9065,-0.722158029550525,0.2246193641988295
-3.906,-1.479740444445993,-0.6654982618352349
-3.9055,-1.863866739322568,-1.51322933424863
-3.905,-2.119950935906951,-1.958288147265661
-3.9045,-1.725154466172693,-1.42845622700729
-3.904,-1.052933450138687,-0.4853554089473885
-3.9035,-0.4767440078238243,0.3517790250608387
-3.903,-0.1032878878049318,0.9028042221295453
-3.9025,0.08877525963335578,1.210106735879401
-3.902,0.1634664836371343,1.326669758336243
-3.9015,0.1634664836371343,1.33726639674141
-3.901,0.142126133921769,1.29487984312074
-3.9005,0.1207857842064037,1.220703374284568
-3.9,0.09944543449103843,1.135930267043229
-3.8995,0.08877525963335578,1.040560521396722
-3.899,0.09944543449103843,0.9345941373450475
-3.8985,0.3448594562177392,0.5637117931641874
-3.898,0.9530594231056497,-0.252229364033705
-3.8975,1.145122570543937,-1.025783967610927
-3.897,1.166462920259302,-1.51322933424863
-3.8965,1.230483969405398,-1.672178910326141
-3.896,1.209143619690033,-1.205926820498774
-3.8955,1.091771696255524,-0.5383386009732256
-3.895,0.8890383739595538,-0.01910331912002144
-3.8945,0.6009436528021226,0.2140227257936621
-3.894,0.3661998059331045,0.2987958330350016
-3.8935,0.2488278824985954,0.3305857482505039
-3.893,-0.2526703358124887,0.02328323450064829
-3.8925,-0.5941159312583333,-0.1462629799820306
-3.892,-0.4554036581084589,0.08686306493165288
-3.8915,-0.2953510352432193,0.2352160026039969
-3.891,-0.08194753808956648,0.4047622170866759
-3.8905,-0.06060718837420119,0.4047622170866759
-3.89,-0.722158029550525,-0.2840192792492073
-3.8895,-1.458400094730627,-1.216523458903942
-3.889,-1.607782542738184,-1.703968825541643
-3.8885,-1.543761493592088,-1.778145294377815
-3.888,-1.148965023857831,-1.142346990067769
-3.8875,-0.6474668055467465,-0.2098428104130352
-3.887,-0.2420001609548061,0.5743084315693548
-3.8865,0.00341386077189465,1.082947075017392
-3.886,0.1101156093487211,1.347863035146577
-3.8855,0.142126133921769,1.453829419198252
-3.885,0.142126133921769,1.453829419198252
