Class_8_Think_right_hand_movement/Class_8_Think_Right_hand_mouvement_UZ_6.csv

#Digilent WaveForms Oscilloscope Acquisition
#Device Name: EExplorer
#Serial Number: SN:210151A2B84A
#Date Time: 2020-12-07 12:16:19.783
#Sample rate: 2000Hz
#Samples: 16384
#Trigger: Source: Channel 1 Type: Edge Condition: Rising Level: 0 V Hyst.: Auto HoldOff: 0 s
#Channel 1: Range: 1 V/div Offset: 0 V Attenuation: 1 X
#Channel 2: Range: 1 V/div Offset: 0 V Attenuation: 1 X
#Power Supplies: ON
#Fixed Supply: ON
#Voltage: 3.3 V Readback: 3.324 V
#Positive Supply: ON
#Voltage: 3.7 V Readback: 3.699 V
#Current: 40 mA Readback: 23 mA
#Negative Supply: ON
#Voltage: -3.7 V Readback: -4.013 V
#Current: -40 mA Readback: -5 mA
#Reference 1: ON
#Voltage: 0 V
#Reference 2: ON
#Voltage: 0 V

Time (s),Channel 1 (V),Channel 2 (V)
-4.096,0.2594980573562781,0.383568940276341
-4.0955,0.270168232213951,0.383568940276341
-4.095,0.2488278824985663,0.3411823866556134
-4.0945,0.2168173579255475,0.2776025562246667
-4.094,0.2061471830678746,0.2352160026040355
-4.0935,0.1954770082102113,0.2034260873884754
-4.093,0.2274875327832301,0.1822328105781598
-4.0925,0.6222840025171288,-0.1356663415765741
-4.092,1.369196242555787,-0.8350444763185306
-4.0915,1.934715510012453,-1.51322933424863
-4.091,2.116108482593058,-1.449649503817625
-4.0905,1.99873655915816,-0.6443049850244567
-4.09,1.571929564851243,-0.1568596183871981
-4.0895,1.038420821967111,0.1186529801471552
-4.089,0.6116138276601932,0.2670059178193643
-4.0885,0.3235191065023739,0.3199891098453364
-4.088,0.1741366584948169,0.3623756634660061
-4.0875,0.08877525963343341,0.3941655786814795
-4.087,-0.5621054066854018,-0.08268314955103567
-4.0865,-0.690147504977477,-0.09327978795619347
-4.086,-0.5300948821123829,0.08686306493148906
-4.0855,-0.3593720843890822,0.2564092794145727
-4.085,-0.1032878878049318,0.5213252395435176
-4.0845,0.04609456020248934,0.7438546460518314
-4.084,-0.4447334832517079,0.8604176685085092
-4.0835,-1.46907026958831,0.457745409112513
-4.083,-2.258663209056825,-0.5065486857577234
-4.0825,-2.760161427367948,-0.6760949002397663
-4.082,-2.80284212679864,0.02328323450064829
-4.0815,-1.981238662757077,0.4153588554918433
-4.081,-1.052933450139531,0.5001319627331058
-4.0805,-0.3593720843893152,0.4683420475176805
-4.08,0.04609456020262521,0.3941655786815084
-4.0795,0.2274875327830651,0.3305857482505617
-4.079,0.2808384070716336,0.3093924714401786
-4.0785,0.2701682322139607,0.3199891098453364
-4.078,0.2381577076409419,0.3517790250608098
-4.0775,0.2168173579255475,0.3941655786815469
-4.077,0.2168173579255475,0.4365521323021782
-4.0765,0.2274875327832204,0.4789386859228093
-4.076,0.4408910299375332,0.3729723018705761
-4.0755,1.15579274540162,-0.2840192792492073
-4.075,1.785333062004896,-1.0999604364471
-4.0745,1.99873655915849,-1.513229334248128
-4.074,1.934715510012453,-0.9622041371799229
-4.0735,1.603940089424291,-0.1992461720078678
-4.073,1.209143619690392,0.2670059178190752
-4.0725,0.857027849386506,0.4683420475176805
-4.072,0.5582629533713921,0.6484849004055269
-4.0715,0.3341892813602603,0.8074344764828938
-4.071,0.1954770082101046,0.9028042221296031
-4.0705,0.1101156093487211,0.9663840525605498
-4.07,0.03542438534501051,1.040560521396654
-4.0695,0.02475421048691058,0.9663840525600583
-4.069,-0.3593720843893152,0.4259554938970107
-4.0685,-0.7434983792658902,-0.1144730647665284
-4.068,-0.5834457564008252,-0.1144730647669042
-4.0675,-0.7755089038389382,-0.5277419625680583
-4.067,-1.415719395299897,-1.34368311976595
-4.0665,-2.183971985053571,-2.074851169722542
-4.066,-2.76016142736791,-2.117237723343173
-4.0655,-3.272329820536676,-0.9410108603695881
-4.065,-2.717480727937684,0.01268659609461342
-4.0645,-1.682473766741963,0.309392471440169
-4.064,-0.7755089038389382,0.2776025562246667
-4.0635,-0.1566387620939078,0.1398462569576153
-4.063,0.1741366584949237,0.02328323450059046
-4.0625,0.291508581929326,-0.04029659593035631
-4.062,0.3021787567869989,-0.0614898727406719
-4.0615,0.2701682322139219,-0.02969995752512141
-4.061,0.2274875327832301,0.04447651131098315
-4.0605,0.2168173579255475,0.13984625695749
-4.06,0.2168173579256445,0.2458126410092029
-4.0595,0.3235191065023739,0.2881991946298341
-4.059,0.9103787236749192,-0.2310360872233701
-4.0585,1.60394008942366,-1.015187329205047
-4.058,1.988066384300866,-1.576809164679634
-4.0575,2.148119007166105,-1.184733543688439
-4.057,1.934715510012647,-0.3264058328706576
-4.0565,1.443887466559051,0.3517790250608387
-4.056,0.9957401225363802,0.8074344764830383
-4.0555,0.6542945270908463,1.082947075017141
-4.055,0.4195506802213721,1.241896651094932
-4.0545,0.2594980573562781,1.273686566310405
-4.054,0.1634664836372216,1.220703374284616
-4.0535,0.003413860771846128,1.26308992790518
-4.053,-0.04993701351651855,1.199510097474233
-4.0525,-0.01792648894347063,1.051157159801889
-4.052,0.03542438534497169,0.8922075837242333
-4.0515,0.0674349099179905,0.7332580076468663
-4.051,-0.07127736323188383,0.6484849004055269
-4.0505,-1.212986073002889,0.01268659609605904
-4.05,-2.19464215991073,-0.8668343915334161
-4.0495,-2.482736881068161,-1.682775548731308
-4.049,-2.802842126798349,-2.276187299420145
-4.0485,-2.514747405640384,-2.202010830583828
-4.048,-1.607782542738184,-1.449649503817625
-4.0475,-0.7755089038396952,-0.7396747306720526
-4.047,-0.231329986096842,-0.2628260024386315
-4.0465,0.07810508477567314,0.002089957690313421
-4.046,0.2168173579254213,0.129249618552207
-4.0455,0.2594980573562684,0.1610395337678249
-4.045,0.2488278824985954,0.1610395337678249
-4.0445,0.2381577076409128,0.1610395337678249
-4.044,0.2274875327832301,0.171636172173002
-4.0435,0.2274875327832301,0.1822328105781598
-4.043,0.2488278824985954,0.2034260873884947
-4.0425,0.5796033030864565,-0.06148987274045026
-4.042,1.241154144263081,-0.8456411147230812
-4.0415,1.625280439139656,-1.661582271920973
-4.041,1.774662887147077,-1.820531847998341
-4.0405,1.635950613997028,-1.089363798041238
-4.04,1.294505018551494,-0.326405832869877
-4.0395,0.9210488985329415,0.2987958330344329
-4.039,0.6009436528019187,0.7332580076470784
-4.0385,0.3768699807907871,0.9663840525605498
-4.038,0.2594980573563848,1.040560521396654
-4.0375,0.1954770082100754,1.051157159801918
-4.037,0.07810508477567314,1.082947075017392
-4.0365,0.00341386077189465,1.082947075017392
-4.036,0.003413860771933468,1.008770606181133
-4.0355,0.04609456020262521,0.9134008605347127
-4.035,0.07810508477567314,0.7968378380778709
-4.0345,0.07810508477567314,0.7014680924314507
-4.034,-0.2953510352432193,0.5955017083796896
-4.0335,-1.031593100423322,0.13984625695749
-4.033,-1.735824641029736,-0.6760949002396601
-4.0325,-2.674800028506623,-1.18473354368763
-4.032,-2.866863175944736,-0.2946159176543747
-4.0315,-2.258663209057379,0.1716361721725683
-4.031,-1.351698346153025,0.2034260873884561
-4.0305,-0.4980843575391895,0.1610395337678249
-4.03,-0.01792648894390736,0.02328323450077358
-4.0295,0.1848068333525578,-0.1144730647665765
-4.029,0.2488278824985954,-0.1674562567923655
-4.0285,0.2488278824985954,-0.1356663415768632
-4.028,0.2274875327832204,-0.0614898727405948
-4.0275,0.2168173579255475,0.04447651131098315
-4.027,0.2168173579255475,0.1610395337678249
-4.0265,0.2274875327832204,0.2987958330348763
-4.026,0.3768699807907871,0.2881991946298341
-4.0255,0.974399772821015,-0.326405832869877
-4.025,1.46522781627397,-1.121153713256712
-4.0245,1.742652362574262,-1.555615887868808
-4.024,1.849354111150991,-1.01518732920576
-4.0235,1.62528043913986,-0.2204394488189255
-4.023,1.219813794547366,0.4047622170870517
-4.0225,0.8356874996711408,0.8180311148882058
-4.022,0.5155822539409525,1.051157159801677
-4.0215,0.3021787567869019,1.157123543853573
-4.021,0.1848068333524996,1.167720182258731
-4.0205,0.08877525963335578,1.167720182258731
-4.02,-0.02859666380115328,1.188913459068989
-4.0195,-0.02859666380115328,1.104140351827727
-4.019,0.01408403562957729,0.9769806909657173
-4.0185,0.05676473506026904,0.8392243916986659
-4.018,0.07810508477567314,0.7120647308365314
-4.0175,-0.124628237520297,0.7544512844572011
-4.017,-0.7861790786960191,0.71206473083657
-4.0165,-1.703814116458269,-0.1250697031726595
-4.016,-2.738821077652544,-1.184733543688439
-4.0155,-2.94155439994833,-0.5701285161892869
-4.015,-2.408045657063538,-0.04029659593020211
-4.0145,-1.479740444445993,0.1292496185523226
-4.014,-0.5834457564014657,0.2034260873884272
-4.0135,-0.06060718837399739,0.129249618552207
-4.013,0.1634664836371343,0.002089957690313421
-4.0125,0.2488278824985954,-0.06148987274069118
-4.012,0.248827882498576,-0.08268314955099713
-4.0115,0.2274875327832301,-0.05089323433552374
-4.011,0.2168173579255475,0.01268659609548085
-4.0105,0.2168173579255475,0.09745970333674321
-4.01,0.2168173579255475,0.1822328105781598
-4.0095,0.3128489316446912,0.2140227257936621
-4.009,0.7823366253823005,-0.252229364033281
-4.0085,1.390536592270871,-1.089363798042549
-4.008,1.646620788855021,-1.767548655972648
-4.0075,1.774662887147096,-1.841725124808753
-4.007,1.646620788854711,-1.195330182092778
-4.0065,1.305175193409177,-0.2840192792492073
-4.006,0.942389248247967,0.4683420475176805
-4.0055,0.6329541773749667,0.9239974989401113
-4.005,0.408880505363835,1.178316820663898
-4.0045,0.2701682322139607,1.273686566310405
-4.004,0.1741366584946908,1.263089927905296
-4.0035,0.03542438534494258,1.326669758336243
-4.003,-0.007256314085787988,1.241896651094903
-4.0025,0.01408403562955789,1.061753798207221
-4.002,0.05676473506030786,0.849821030103708
-4.0015,0.08877525963335578,0.6696781772158616
-4.001,0.003413860771972282,0.5637117931642838
-4.0005,-0.5514352318283112,0.5743084315689404
-4,-1.330357996438436,0.1186529801471552
-3.9995,-2.119950935906951,-0.7608680074817418
-3.999,-2.877533350802418,-0.792657922697244
-3.9985,-2.717480727937179,0.06566978812131802
-3.998,-1.938557963326346,0.2670059178194992
-3.9975,-1.010252750707956,0.2246193641988295
-3.997,-0.274010685527854,0.1292496185523226
-3.9965,0.0674349099179905,-0.04029659593035631
-3.996,0.2168173579255475,-0.1462629799820306
-3.9955,0.2488278824985954,-0.1674562567923655
-3.995,0.2381577076409128,-0.1144730647665284
-3.9945,0.2168173579255475,-0.01910331912002144
-3.994,0.2061471830678648,0.08686306493165288
-3.9935,0.2061471830678648,0.2140227257936621
-3.993,0.2488278824985954,0.3305857482505039
-3.9925,0.6329541773751706,0.002089957690313421
-3.992,1.262494493978446,-0.792657922697244
-3.9915,1.753322537431848,-1.492036057438295
-3.991,2.052087433446962,-1.873515040024322
-3.9905,1.966726034585501,-1.481439419033127
-3.99,1.550589215135878,-0.5383386009732256
-3.9895,1.113112045970889,0.2564092794143318
-3.989,0.707645401378949,0.7968378380778709
-3.9885,0.3982103305061524,1.114736990232894
-3.988,0.2168173579255475,1.210106735879401
-3.9875,0.1314559590640864,1.188913459069066
-3.987,0.02475421048725994,1.104140351827727
-3.9865,-0.02859666380115328,0.9769806909657173
-3.986,-0.007256314085787988,0.8604176685088755
-3.9855,0.03542438534494258,0.7438546460520338
-3.985,0.07810508477567314,0.6166949851900245
-3.9845,0.05676473506030786,0.4789386859228479
-3.984,-0.3273615598162672,0.3199891098453364
-3.9835,-1.191645723288561,-0.3581957480853793
-3.983,-2.312014083345239,-1.661582271920973
-3.9825,-2.226652684483777,-1.905304955239825
-3.982,-1.639793067311232,-1.545019249464132
-3.9815,-0.9248913518464952,-0.9516074987747555
-3.981,-0.274010685527854,-0.3899856633008816
-3.9805,0.0674349099179905,-0.09327978795619347
-3.98,0.1848068333524996,-0.008506680714854012
-3.9795,0.2168173579255475,0.01268659609548085
-3.979,0.2168173579255475,-0.008506680714854012
-3.9785,0.1954770082101822,-0.008506680714854012
-3.978,0.1848068333524996,-0.008506680714854012
-3.9775,0.1848068333524996,0.02328323450064829
-3.977,0.2061471830678648,0.06566978812131802
-3.9765,0.2168173579255475,0.1186529801471552
-3.976,0.3875401556484697,0.05507314971615059
-3.9755,0.9850699476786977,-0.5913217929990628
-3.975,1.646620788855021,-1.439052865412457
-3.9745,1.988066384300866,-1.905304955239825
-3.974,1.988066384300866,-1.280103289334946
-3.9735,1.657290963712704,-0.5277419625680583
-3.973,1.273164668836129,0.1186529801471552
-3.9725,0.9210488985326017,0.7120647308365314
-3.972,0.6116138276598051,1.051157159801889
-3.9715,0.3875401556484697,1.135930267043229
-3.971,0.2381577076409128,1.104140351827727
-3.9705,0.1314559590640864,1.072350436612224
-3.97,0.04609456020262521,1.104140351827727
-3.9695,0.03542438534494258,1.061753798207057
-3.969,0.05676473506030786,0.9769806909657173
-3.9685,0.07810508477567314,0.8710143069140429
-3.968,0.09944543449103843,0.7862411996727035
-3.9675,-0.1139580626626144,0.7438546460520338
-3.967,-0.7861790786966207,0.6166949851900245
-3.9665,-1.490410619303675,-0.06148987274069118
-3.966,-1.991908837614759,-0.4641621321370536
-3.9655,-2.674800028506448,-0.326405832869877
-3.965,-2.557428105071939,-0.2734226408440398
-3.9645,-1.714484291315011,-0.1780528951975329
-3.964,-0.9569018764195432,-0.2628260024388724
-3.9635,-0.3487019095316325,-0.252229364033705
-3.963,0.08877525963335578,-0.1674562567923655
-3.9625,0.2274875327832301,-0.1568596183871981
-3.962,0.2381577076409128,-0.1462629799820306
-3.9615,0.2168173579255475,-0.09327978795619347
-3.961,0.1954770082101822,0.002089957690313421
-3.9605,0.1848068333524996,0.1080563417419877
-3.96,0.1954770082101822,0.2246193641988295
-3.9595,0.2594980573562781,0.3305857482505039
-3.959,0.7396559259519968,0.01268659609548085
-3.9585,1.529248865420512,-0.8350444763179138
-3.958,1.881364635724039,-1.523825972653797
-3.9575,1.881364635724039,-1.227120097309109
-3.957,1.689301488285752,-0.474758770542221
-3.9565,1.326515543124542,0.07626642652648545
-3.956,0.9530594231056497,0.5001319627331828
-3.9555,0.6116138276598051,0.8286277532933731
-3.955,0.3661998059331045,1.029963882991555
-3.9545,0.2168173579255475,1.114736990232894
-3.954,0.142126133921769,1.104140351827727
-3.9535,0.04609456020262521,1.061753798207057
-3.953,0.02475421048725994,0.9981739677760521
-3.9525,0.03542438534494258,0.92399749893988
-3.952,0.0674349099179905,0.8392243916985406
-3.9515,0.08877525963335578,0.7544512844572011
-3.951,-0.1032878878049318,0.6590815388106942
-3.9505,-0.754168554123573,0.3623756634660061
-3.95,-1.533091318734406,-0.3475991096802118
-3.9495,-2.258663209056825,-1.089363798041932
-3.949,-2.568098279929622,-1.322489842955616
-3.9485,-2.07727023647622,-0.9728007755850904
-3.948,-1.159635198715513,-0.4959520473525559
-3.9475,-0.8822106524157645,-0.5277419625680583
-3.947,-0.807519428411986,-0.6654982618352349
-3.9465,-0.4340633083930936,-0.4323722169215513
-3.946,-0.2206598112394408,-0.2946159176543747
-3.9455,-0.007256314085787988,-0.1250697031716958
-3.945,0.1741366584948169,0.04447651131098315
-3.9445,0.1954770082101822,0.06566978812131802
-3.944,0.1741366584948169,0.05507314971615059
-3.9435,0.1741366584948169,0.06566978812131802
-3.943,0.1954770082101822,0.07626642652648545
-3.9425,0.6009436528021226,-0.2310360872233701
-3.942,1.422547116843686,-1.068170521231597
-3.9415,2.116108482593058,-1.905304955239825
-3.941,2.350852329462076,-2.043061254507001
-3.9405,2.020076908873914,-1.216523458903942
-3.94,1.51857869056283,-0.3687923864905467
-3.9395,0.9637295979633325,0.2670059178194992
-3.939,0.5369226036560266,0.701468092431364
-3.9385,0.291508581929326,0.92399749893988
-3.938,0.1634664836371343,0.9981739677760521
-3.9375,0.1207857842064037,0.9875773293708847
-3.937,0.05676473506030786,0.9769806909657173
-3.9365,-0.007256314085787988,0.9557874141553824
-3.936,0.00341386077189465,0.9028042221295453
-3.9355,0.04609456020262521,0.8286277532933731
-3.935,0.07810508477567314,0.7544512844572011
-3.9345,0.08877525963335578,0.6802748156210291
-3.934,-0.2420001609548061,0.7226613692416989
-3.9335,-1.020922925565639,0.6484849004055269
-3.933,-1.778505340461106,-0.06148987274069118
-3.9325,-2.312014083345239,-0.2204394488182027
-3.932,-2.215982509626095,0.2352160026039969
-3.9315,-1.415719395299897,0.3411823866556712
-3.931,-0.7008176798351597,0.2352160026039969
-3.9305,-0.1993194615240755,0.08686306493165288
-3.93,-0.3807124341046804,-0.4959520473525559
-3.9295,-0.5834457564006506,-0.8774310299385835
-3.929,-0.4020527838200457,-0.7396747306714069
-3.9285,-0.2846808603855366,-0.5595318777835605
-3.928,-0.09261771294724913,-0.2734226408440398
-3.9275,0.1207857842064037,0.03387987290581572
-3.927,0.1848068333524996,0.1928294489833272
-3.9265,0.1848068333524996,0.2987958330350016
-3.926,0.3555296310754218,0.2458126410091644
-3.9255,0.9103787236749192,-0.4641621321370536
-3.925,1.294505018551494,-1.248313374119443
-3.9245,1.305175193409177,-1.566212526274467
-3.924,1.19847344483235,-0.9622041371799229
-3.9235,1.102441871113207,-0.2946159176543747
-3.923,0.9637295979633325,0.1928294489833272
-3.9225,0.7609962756673623,0.5319218779486851
-3.922,0.5369226036560266,0.7862411996727035
-3.9215,0.3661998059331045,0.9769806909657173
-3.921,0.2488278824985954,1.051157159801889
-3.9205,0.142126133921769,1.051157159801889
-3.92,-0.007256314085787988,1.019367244586387
-3.9195,-0.02859666380115328,0.9451907757502149
-3.919,0.00341386077189465,0.849821030103708
-3.9185,0.04609456020262521,0.7438546460520338
-3.918,0.07810508477567314,0.6484849004055269
-3.9175,-0.09261771294724913,0.5001319627331828
-3.917,-0.7328282044082075,0.08686306493165288
-3.9165,-1.234326422719292,-0.6337083466197325
-3.916,-1.522421143876723,-0.9728007755850904
-3.9155,-1.863866739322568,-0.3052125560595421
-3.915,-1.618452717595867,0.2140227257936621
-3.9145,-1.010252750707956,0.2564092794143318
-3.914,-0.4554036581084589,0.1186529801471552
-3.9135,-0.07127736323188383,-0.02969995752518888
-3.913,0.1314559590640864,-0.1250697031716958
-3.9125,0.2061471830678648,-0.1568596183871981
-3.912,0.00341386077189465,-0.3581957480853793
-3.9115,-0.6047861061160158,-0.8774310299385835
-3.911,-0.4980843575391895,-0.6443049850249
-3.9105,-0.3700422592469978,-0.400582301706049
-3.91,-0.1886492866663929,-0.08268314955102604
-3.9095,0.142126133921769,0.2140227257936621
-3.909,0.7503261008096795,-0.1992461720078678
-3.9085,1.529248865420512,-1.142346990067769
-3.908,1.998736559158548,-1.915901593644992
-3.9075,2.094768132877692,-2.149027638558676
-3.907,1.838683936293309,-1.417859588602123
-3.9065,1.369196242555273,-0.3370024712750445
-3.906,0.9637295979633325,0.5107286011383502
-3.9055,0.6116138276598051,0.9981739677760521
-3.905,0.3448594562177392,1.241896651094903
-3.9045,0.1954770082101822,1.316073119931075
-3.904,0.1101156093487211,1.273686566310405
-3.9035,-0.02859666380115328,1.188913459069066
-3.903,-0.06060718837420119,1.051157159801889
-3.9025,-0.01792648894347063,0.8816109453192104
-3.902,0.03542438534494258,0.7120647308365314
-3.9015,0.0674349099179905,0.5319218779486851
-3.901,0.00341386077189465,0.4047622170866759
-3.9005,-0.5514352318276028,0.309392471440169
-3.9,-1.341028171296118,-0.2628260024388724
-3.8995,-1.853196564464885,-1.089363798041932
-3.899,-2.151961460479999,-1.714565463946811
-3.8985,-1.703814116457328,-1.534422611058964
-3.898,-0.9995825758502737,-0.9410108603695881
-3.8975,-0.4127229586777283,-0.4111789401112165
-3.897,-0.03926683865883591,-0.06148987274069118
-3.8965,0.1527963087794516,0.1080563417419877
-3.896,0.2274875327832301,0.1504428953626575
-3.8955,0.2274875327832301,0.1292496185523226
-3.895,0.2061471830678648,0.09745970333682032
-3.8945,0.1848068333524996,0.06566978812131802
-3.894,0.0674349099179905,-0.06148987274069118
-3.8935,-0.5621054066852853,-0.6866915386455698
-3.893,-0.5300948821122373,-0.6549016234300674
-3.8925,-0.06060718837420119,-0.7608680074817418
-3.892,0.9103787236749192,-1.407262950196955
-3.8915,1.860024286008674,-2.043061254507001
-3.891,2.276161105458297,-2.021867977696666
-3.8905,2.12677865745074,-1.258910012524611
-3.89,1.603940089424291,-0.474758770542221
-3.8895,1.081101521397841,0.1716361721729923
-3.889,0.6969752265212663,0.5319218779486851
-3.8885,0.4302208550792003,0.7862411996727035
-3.888,0.2701682322139607,0.9345941373450475
-3.8875,0.1848068333524996,0.9875773293708847
-3.887,0.1101156093487211,1.00877060618122
-3.8865,0.04609456020262521,0.9769806909657173
-3.886,0.04609456020262521,0.92399749893988
