Class_8_Think_right_hand_movement/Class_8_Think_Right_hand_mouvement_SH_13.csv

#Digilent WaveForms Oscilloscope Acquisition
#Device Name: EExplorer
#Serial Number: SN:210151A2B84A
#Date Time: 2021-02-03 14:02:14.778
#Sample rate: 2000Hz
#Samples: 16384
#Trigger: Source: Channel 1 Type: Edge Condition: Rising Level: 0 V Hyst.: Auto HoldOff: 0 s
#Channel 1: Range: 1 V/div Offset: 0 V Attenuation: 1 X
#Channel 2: Range: 1 V/div Offset: 0 V Attenuation: 1 X
#Power Supplies: ON
#Fixed Supply: ON
#Voltage: 3.3 V Readback: 3.331 V
#Positive Supply: ON
#Voltage: 3.7 V Readback: 3.703 V
#Current: 40 mA Readback: 18 mA
#Negative Supply: ON
#Voltage: -3.7 V Readback: -3.348 V
#Current: -40 mA Readback: -6 mA
#Reference 1: ON
#Voltage: 0 V
#Reference 2: ON
#Voltage: 0 V

Time (s),Channel 1 (V),Channel 2 (V)
-4.096,-1.565101843307454,0.6696781772158616
-4.0955,-1.074273799854498,-0.09327978795549963
-4.095,-0.5194247072540695,-0.6654982618356107
-4.0945,0.01408403562957729,-1.078767159636765
-4.094,0.3555296310751113,-1.269506650929605
-4.0935,0.5475927785138647,-1.333086481360841
-4.093,0.7183155762366316,-1.396666311791788
-4.0925,0.9103787236747445,-1.375473034981472
-4.092,0.89970854881712,-1.078767159636399
-4.0915,0.7716664505250448,-0.6760949002404023
-4.091,0.6436243522328531,-0.2946159176543747
-4.0905,0.5796033030868253,0.03387987290608557
-4.09,0.6542945270905358,0.3305857482505039
-4.0895,0.9530594231056497,0.8286277532933731
-4.089,0.4302208550796759,1.040560521396529
-4.0885,-0.3807124341046804,0.3623756634660061
-4.088,-1.116954499284783,0.03387987290581572
-4.0875,-1.789175515318178,0.5001319627327587
-4.087,-2.194642159910254,1.167720182258885
-4.0865,-1.67180359188428,1.33726639674141
-4.086,-0.8395299529857909,1.061753798207307
-4.0855,-0.1993194615236971,0.7650479228622143
-4.085,0.2168173579255475,0.5955017083796896
-4.0845,0.4195506802213332,0.5743084315693742
-4.084,0.4729015545099018,0.6590815388108484
-4.0835,0.4408910299368829,0.8286277532933731
-4.083,0.3768699807907871,1.040560521396722
-4.0825,0.2808384070715463,1.305476481526139
-4.082,0.1741366584948169,1.559795803249926
-4.0815,-0.124628237520297,1.739938656137773
-4.081,-0.5300948821118685,1.792921848163562
-4.0805,-0.8502001278427167,0.9663840525605498
-4.08,-1.095614149569417,-0.09327978795619347
-4.0795,-1.223656247861493,-0.3370024712748228
-4.079,-1.020922925565299,-0.273422640843982
-4.0785,-0.6474668055467465,-0.2098428104130352
-4.078,-0.1566387620937914,-0.1992461720078774
-4.0775,0.2594980573564625,-0.1992461720079256
-4.077,0.4622313796522482,-0.2628260024388724
-4.0765,0.5689331282289776,-0.3264058328698192
-4.076,0.8143471499559208,-0.5489352393784412
-4.0755,0.974399772821015,-0.6019184314042303
-4.075,0.9957401225363802,-0.474758770542221
-4.0745,0.9423892482478602,-0.3158091944645361
-4.074,0.825017324813458,-0.1250697031716958
-4.0735,0.7503261008096795,-0.05089323433552374
-4.073,0.504912079083202,-0.4111789401108888
-4.0725,-0.07127736323188383,-0.9728007755850904
-4.072,-0.7968492535543035,-1.38606967338662
-4.0715,-1.341028171295623,-1.237716735714411
-4.071,-1.810515865034475,-1.131750351662718
-4.0705,-2.162631635337682,-1.258910012524611
-4.07,-1.746494815888437,-1.078767159636929
-4.0695,-0.9142211769882108,-0.4853554089468681
-4.069,-0.2526703358124887,0.08686306493165288
-4.0685,0.1848068333524996,0.4789386859228479
-4.068,0.408880505363903,0.6696781772159002
-4.0675,0.4835717293676135,0.7120647308365314
-4.067,0.4729015545099309,0.701468092431364
-4.0665,0.4088805053637768,0.6908714540261869
-4.066,0.3448594562177392,0.6802748156210291
-4.0655,0.3128489316446912,0.6060983467848571
-4.065,0.184806833352616,0.659081538810646
-4.0645,-0.3807124341046804,1.072350436612224
-4.064,-0.9462317015618604,1.475022696008586
-4.0635,-1.319687821580413,1.294879843120904
-4.063,-1.319687821580452,0.818031114887695
-4.0625,-0.9889124009925911,0.2564092794143318
-4.062,-0.5727755815433465,-0.2098428104126112
-4.0615,-0.1673089369507171,-0.5277419625682318
-4.061,0.1741366584948169,-0.718481453861072
-4.0605,0.408880505363835,-0.8350444763179138
-4.06,0.5689331282292396,-0.8986243067489569
-4.0595,0.7503261008096795,-0.9410108603695881
-4.059,0.942389248247967,-0.9092209451540858
-4.0585,0.9530594231056401,-0.6231117082148253
-4.058,0.825017324813458,-0.2840192792492073
-4.0575,0.6969752265212663,0.002089957690313421
-4.057,0.6116138276598827,0.2352160026037849
-4.0565,0.7183155762366316,0.55311515475902
-4.056,0.8463576745288233,0.8816109453192104
-4.0555,0.2808384070721577,0.5001319627335298
-4.055,-0.4660738329668305,-0.2522293640342929
-4.0545,-1.223656247861609,-0.8986243067489184
-4.054,-1.874536914179658,-1.280103289334599
-4.0535,-1.725154466172033,-1.15294362847231
-4.053,-0.9995825758502737,-0.4641621321370536
-4.0525,-0.3380317346739499,0.2564092794143318
-4.052,0.1207857842066366,0.7756445612677866
-4.0515,0.3768699807907871,1.051157159801889
-4.051,0.4729015545099309,1.135930267043229
-4.0505,0.4729015545099309,1.157123543853544
-4.05,0.4302208550792003,1.146526905448396
-4.0495,0.3982103305061524,1.040560521396722
-4.049,0.3341892813601148,0.9981739677760906
-4.0485,0.2701682322136307,1.019367244586628
-4.048,-0.09261771294724913,1.284283204715573
-4.0475,-0.6901475049769334,1.591585718465149
-4.047,-1.159635198715756,1.62337563368067
-4.0465,-1.426389570157579,1.33726639674141
-4.046,-1.39437904558456,0.7544512844577311
-4.0455,-0.9675720512767017,0.06566978812081686
-4.045,-0.391382608962363,-0.4853554089473885
-4.0445,0.1101156093487211,-0.8774310299385835
-4.044,0.4302208550793556,-1.089363798042038
-4.0435,0.6009436528021226,-1.205926820498774
-4.043,0.7183155762366316,-1.248313374119443
-4.0425,0.985069947678455,-1.301296566145232
-4.042,0.9957401225363802,-1.05757388282643
-4.0415,0.857027849386506,-0.6972881770507372
-4.041,0.7289857510944308,-0.3475991096805299
-4.0405,0.6969752265212954,-0.1144730647662778
-4.04,0.7289857510943143,0.1610395337678249
-4.0395,0.9743997728207918,0.574308431568979
-4.039,0.46223137965153,0.3623756634654857
-4.0385,-0.3273615598162672,-0.2098428104130352
-4.038,-1.0636036249957,-0.6019184314038737
-4.0375,-1.735824641030492,-0.9092209451540955
-4.037,-1.863866739322568,-0.9198175835592532
-4.0365,-1.170305373573196,-0.3370024712750445
-4.036,-0.4874141826810411,0.3729723018716651
-4.0355,0.02475421048725994,0.9134008605347127
-4.035,0.3235191065023739,1.210106735879401
-4.0345,0.462231379652122,1.305476481525821
-4.034,0.4835717293676135,1.273686566310405
-4.0335,0.4408910299368829,1.199510097474233
-4.033,0.3768699807908453,1.104140351827813
-4.0325,0.3021787567868436,1.040560521396789
-4.032,0.1207857842064037,1.114736990232894
-4.0315,-0.252670335812149,1.305476481525734
-4.031,-0.8288597781277203,1.602182356870451
-4.0305,-1.234326422719292,1.443232780793084
-4.03,-1.44772991987275,0.6484849004062497
-4.0295,-1.383708870726432,0.08686306493124811
-4.029,-0.9248913518464952,-0.3581957480853793
-4.0285,-0.3273615598162672,-0.6972881770507372
-4.028,0.1421261339220504,-0.8880276683438761
-4.0275,0.4515612047945656,-1.025783967610927
-4.027,0.5902734779444399,-1.089363798041932
-4.0265,0.6329541773751317,-1.09996043644709
-4.026,0.8143471499557753,-1.152943628472937
-4.0255,0.942389248247967,-1.036380606016095
-4.025,1.113112045970734,-0.7502713690768346
-4.0245,1.283834843693802,-0.6654982618351096
-4.024,1.273164668836129,-0.5277419625680583
-4.0235,1.145122570544054,-0.2946159176545867
-4.023,1.230483969405059,0.1504428953632068
-4.0225,0.857027849386506,0.7544512844572011
-4.022,-0.007256314085001936,0.4365521323024673
-4.0215,-0.8822106524164632,-0.2840192792491013
-4.021,-1.650463242168915,-0.1674562567923655
-4.0205,-2.130621110764634,0.5637117931641874
-4.02,-1.597112367879774,0.913400860534626
-4.0195,-0.7968492535543035,0.8180311148882058
-4.019,-0.1779791118087102,0.6378882620003594
-4.0185,0.2274875327828614,0.5213252395436236
-4.018,0.4302208550792003,0.5107286011383502
-4.0175,0.4942419042252961,0.5849050699745222
-4.017,0.4622313796522773,0.7438546460518892
-4.0165,0.3982103305060942,0.9557874141555655
-4.016,0.3341892813600565,1.157123543853563
-4.0155,0.3021787567870378,1.305476481525773
-4.015,0.142126133921274,1.528005888034684
-4.0145,-0.4020527838200457,1.814115124973944
-4.014,-0.8395299529846361,1.686955464112051
-4.0135,-1.11695449928488,0.7226613692411302
-4.013,-1.223656247861609,0.09745970333682032
-4.0125,-1.010252750707956,-0.1356663415768632
-4.012,-0.5194247072541278,-0.2522293640337724
-4.0115,-0.04993701351651855,-0.326405832869877
-4.011,0.291508581929326,-0.3581957480853793
-4.0105,0.4835717293674388,-0.3687923864905371
-4.01,0.5582629533713921,-0.3899856633008816
-4.0095,0.6969752265212663,-0.5277419625680583
-4.009,0.8997085488170521,-0.6760949002402674
-4.0085,0.8890383739595926,-0.5489352393783545
-4.008,0.9317190733902845,-0.5065486857577234
-4.0075,0.9530594231056303,-0.4853554089474078
-4.007,0.9210488985326599,-0.4217755785165863
-4.0065,0.9850699476786977,-0.6443049850249
-4.006,0.707645401378949,-1.068170521231597
-4.0055,0.01408403562891739,-1.375473034981655
-4.005,-0.7114878546928423,-1.598002441489969
-4.0045,-1.405049220442214,-1.703968825541643
-4.004,-1.917217613610612,-1.661582271920492
-4.0035,-1.51175096901904,-1.131750351662602
-4.003,-0.7861790786966207,-0.3581957480853793
-4.0025,-0.1886492866669364,0.2881991946292462
-4.002,0.2061471830678648,0.6696781772158616
-4.0015,0.408880505363835,0.8392243916985406
-4.001,0.4835717293675456,0.8392243916985406
-4.0005,0.4729015545098726,0.7862411996726841
-4,0.408880505363835,0.7650479228623686
-3.9995,0.3555296310754218,0.7226613692416989
-3.999,0.3128489316446912,0.7438546460520338
-3.9985,0.291508581929326,0.6908714540261965
-3.998,0.03542438534494258,0.8710143069140429
-3.9975,-0.4127229586777283,1.199510097474233
-3.997,-0.7861790786966207,0.7438546460520338
-3.9965,-1.095614149569417,-0.008506680714854012
-3.996,-1.1062843244271,-0.3052125560595421
-3.9955,-0.8181896032696687,-0.4429688553267188
-3.995,-0.3273615598162672,-0.4959520473525559
-3.9945,0.03542438534494258,-0.5277419625680583
-3.994,0.3021787567870086,-0.570128516188728
-3.9935,0.4622313796522482,-0.6019184314042303
-3.993,0.6009436528021226,-0.7290780922662394
-3.9925,0.857027849386506,-0.9939940523954253
-3.992,0.9530594231056497,-1.004590690800593
-3.9915,1.006410297394063,-0.8986243067489184
-3.991,0.8997085488172365,-0.6125150698093976
-3.9905,0.7823366253827275,-0.2628260024388724
-3.99,0.707645401378949,-0.05089323433552374
-3.9895,1.006410297394063,-0.09327978795619347
-3.989,1.006410297394063,-0.3793890248957141
-3.9885,0.2488278824985954,-0.7502713690765743
-3.988,-0.5621054066852853,-0.9092209451540858
-3.9875,-1.341028171296118,-1.046977244421262
-3.987,-1.778505340461106,-1.05757388282643
-3.9865,-1.330357996438436,-0.570128516188728
-3.986,-0.658136980404429,0.1186529801471552
-3.9855,-0.1032878878049318,0.6484849004055269
-3.985,0.2381577076409128,0.9451907757502149
-3.9845,0.4195506802215176,1.029963882991555
-3.984,0.4729015545099309,0.9769806909657173
-3.9835,0.4622313796522482,0.8710143069140429
-3.983,0.408880505363835,0.7438546460520338
-3.9825,0.3021787567870086,0.7650479228623686
-3.982,0.2274875327832301,0.7332580076468663
-3.9815,0.01408403562957729,0.7332580076468663
-3.981,-0.5300948821122373,1.019367244586387
-3.9805,-0.9355615267041777,0.6696781772158616
-3.98,-1.26633694729234,-0.1144730647665284
-3.9795,-1.287677297007705,-0.326405832869877
-3.979,-0.8502001278427167,-0.4111789401112165
-3.9785,-0.3380317346739499,-0.5277419625680583
-3.978,0.1207857842064037,-0.6443049850249
-3.9775,0.408880505363835,-0.7502713690765743
-3.977,0.5582629533713921,-0.7502713690765743
-3.9765,0.6116138276598051,-0.792657922697244
-3.976,0.79300680024041,-0.8986243067489184
-3.9755,0.8783681991018712,-0.8880276683437509
-3.975,0.8783681991018712,-0.8032545611024114
-3.9745,1.113112045970889,-0.9092209451540858
-3.974,1.145122570543937,-0.8138511995075789
-3.9735,1.017080472251745,-0.5383386009732256
-3.973,1.166462920259302,-0.02969995752518888
-3.9725,0.9103787236749192,0.6166949851900245
-3.972,0.05676473506030786,0.309392471440169
-3.9715,-0.839529952985034,-0.4323722169215513
-3.971,-1.618452717595867,-0.4217755785163839
-3.9705,-2.173301810195364,0.3411823866556712
-3.97,-1.799845690176472,0.8392243916985406
-3.9695,-0.9569018764195432,0.8286277532933731
-3.969,-0.2846808603855366,0.6590815388106942
-3.9685,0.1634664836371343,0.5425185163538525
-3.968,0.3982103305061524,0.5213252395435176
-3.9675,0.4835717293676135,0.5849050699745222
-3.967,0.4622313796522482,0.7438546460520338
-3.9665,0.3982103305061524,0.9557874141553824
-3.966,0.3341892813600565,1.178316820663898
-3.9655,0.2488278824985954,1.411442865577582
-3.965,0.07810508477567314,1.633972272086098
-3.9645,-0.4660738329661415,1.867098316999781
-3.964,-0.9782422261349084,1.856501678594614
-3.9635,-1.319687821580753,1.040560521396722
-3.963,-1.586442193022819,0.2034260873884947
-3.9625,-1.479740444445993,-0.04029659593035631
-3.962,-1.084943974711735,-0.1674562567923655
-3.9615,-0.5194247072545548,-0.2734226408440398
-3.961,-0.02859666380115328,-0.326405832869877
-3.9605,0.3235191065023739,-0.3793890248957141
-3.96,0.5155822539406614,-0.400582301706049
-3.9595,0.7289857510943143,-0.4111789401112165
-3.959,1.006410297394063,-0.4959520473525559
-3.9585,0.9850699476786977,-0.4323722169215513
-3.958,0.8676980242441885,-0.2840192792492073
-3.9575,0.7503261008096795,-0.1144730647665284
-3.957,0.707645401378949,0.002089957690313421
-3.9565,0.8783681991018712,-0.09327978795619347
-3.956,1.038420821967111,-0.5595318777835605
-3.9555,0.3661998059331045,-1.036380606016095
-3.955,-0.4554036581084589,-1.237716735714276
-3.9545,-1.234326422719292,-0.6760949002404023
-3.954,-1.938557963326346,0.3623756634660061
-3.9535,-2.045259711903173,1.157123543853563
-3.953,-1.287677297007705,1.157123543853563
-3.9525,-0.5407650569699201,0.7968378380778709
-3.952,0.00341386077189465,0.4259554938970107
-3.9515,0.3235191065023739,0.1928294489833272
-3.951,0.4622313796522482,0.09745970333682032
-3.9505,0.4835717293676135,0.1292496185523226
-3.95,0.4408910299368829,0.2670059178194992
-3.9495,0.3661998059331045,0.4683420475176805
-3.949,0.291508581929326,0.7438546460520338
-3.9485,0.2381577076409128,0.9875773293708847
-3.948,-0.124628237520297,1.284283204715573
-3.9475,-0.722158029550525,1.644568910491266
-3.947,-1.127624674142465,1.369056311956912
-3.9465,-1.46907026958831,0.4789386859228479
-3.946,-1.554431668449771,0.08686306493165288
-3.9455,-1.277007122150022,-0.06148987274069118
-3.945,-0.807519428411986,-0.1144730647665284
-3.9445,-0.274010685527854,-0.1250697031716958
-3.944,0.1848068333524996,-0.1250697031716958
-3.9435,0.4729015545099309,-0.1250697031716958
-3.943,0.6116138276598051,-0.1674562567923655
-3.9425,0.825017324813458,-0.4217755785163839
-3.942,0.8783681991018712,-0.4429688553267188
-3.9415,0.825017324813458,-0.2628260024388724
-3.941,1.027750647109428,-0.326405832869877
-3.9405,1.145122570543937,-0.3158091944647096
-3.94,1.15579274540162,-0.2946159176543747
-3.9395,1.443887466559051,-0.6231117082145651
-3.939,1.091771696255524,-1.025783967610927
-3.9385,0.2168173579255475,-1.290699927740113
-3.938,-0.7114878546928423,-1.333086481360783
-3.9375,-1.522421143876723,-1.396666311791788
-3.937,-1.842526389607202,-1.34368311976595
-3.9365,-1.26633694729234,-0.792657922697244
-3.936,-0.572775581542968,-0.1356663415768632
-3.9355,-0.03926683865883591,0.3305857482505039
-3.935,0.2808384070716433,0.55311515475902
-3.9345,0.4408910299368829,0.5955017083796896
-3.934,0.4835717293676135,0.5107286011383502
-3.9335,0.4515612047945656,0.4153588554918433
-3.933,0.3768699807907871,0.3411823866556712
-3.9325,0.3128489316446912,0.2776025562246667
-3.932,0.2594980573562781,0.2564092794143318
-3.9315,0.09944543449103843,0.309392471440169
-3.931,-0.3487019095316325,0.5849050699745222
-3.9305,-0.7328282044082075,0.2140227257936621
-3.93,-1.095614149569417,-0.5383386009732256
-3.9295,-1.26633694729234,-0.7820612842920766
-3.929,-1.031593100423322,-0.718481453861072
-3.9285,-0.5300948821122373,-0.5913217929990628
-3.928,-0.02859666380115328,-0.5489352393783931
-3.9275,0.3555296310754218,-0.5595318777835605
-3.927,0.5796033030867573,-0.5383386009732256
-3.9265,0.6649647019482183,-0.4641621321370536
-3.926,0.8783681991018712,-0.6019184314042303
-3.9255,1.006410297394063,-0.7078848154559045
-3.925,0.942389248247967,-0.570128516188728
-3.9245,0.8890383739595538,-0.4217755785163839
-3.924,0.7716664505250448,-0.1886495336027004
-3.9235,0.6436243522328531,0.04447651131098315
-3.923,0.825017324813458,0.4365521323021782
-3.9225,0.7183155762366316,0.9875773293708847
-3.922,-0.02859666380115328,0.7226613692416989
-3.9215,-0.7755089038389382,-0.1144730647665284
-3.921,-1.490410619303675,-0.9728007755850904
-3.9205,-2.013249187330125,-1.598002441489969
-3.92,-1.575772018165136,-1.460246142222792
-3.9195,-0.8181896032696687,-0.7820612842920766
-3.919,-0.1993194615240755,-0.08268314955102604
-3.9185,0.2061471830678648,0.4365521323021782
-3.918,0.4195506802215176,0.7438546460520338
-3.9175,0.4835717293676135,0.8922075837243778
-3.917,0.4729015545099309,0.9663840525605498
-3.9165,0.408880505363835,1.019367244586387
-3.916,0.3448594562177392,1.082947075017392
-3.9155,0.2808384070716433,1.199510097474233
-3.915,0.1207857842064037,1.390249588767247
-3.9145,-0.4447334832507763,1.697552102517103
-3.914,-0.9889124009925911,1.856501678594614
-3.9135,-1.341028171296118,1.25249328950007
-3.913,-1.661133417026597,0.4683420475176805
-3.9125,-1.629122892453549,0.13984625695749
-3.912,-1.26633694729234,-0.1462629799820306
-3.9115,-0.7968492535543035,-0.3793890248957141
-3.911,-0.274010685527854,-0.5595318777835605
-3.9105,0.1314559590640864,-0.6866915386455698
-3.91,0.408880505363835,-0.7608680074817418
-3.9095,0.6649647019482183,-0.9304142219644207
-3.909,0.9637295979633325,-1.089363798041932
-3.9085,1.091771696255524,-0.9622041371799229
-3.908,0.9957401225363802,-0.6549016234300674
-3.9075,0.8463576745288233,-0.2840192792492073
-3.907,0.7396559259519968,0.08686306493165288
-3.9065,0.79300680024041,0.3941655786815084
-3.906,0.9850699476786977,0.6590815388106942
-3.9055,0.4408910299368829,0.13984625695749
-3.905,-0.423393133535411,-0.6019184314042303
-3.9045,-1.212986073003927,-1.05757388282643
-3.904,-1.917217613610981,-0.6443049850249
-3.9035,-1.959898313041711,0.1928294489833272
-3.903,-1.180975548430879,0.6378882620003594
-3.9025,-0.4660738329661415,0.7650479228623686
-3.902,0.04609456020262521,0.775644561267536
-3.9015,0.3448594562177392,0.7226613692416989
-3.901,0.4729015545099309,0.6802748156210291
-3.9005,0.4942419042252961,0.6484849004055269
-3.9,0.4835717293676135,0.6166949851900245
-3.8995,0.4515612047945656,0.5955017083796896
-3.899,0.3875401556484697,0.6802748156210291
-3.8985,0.3555296310754218,0.7226613692416989
-3.898,0.1848068333524996,0.9345941373450475
-3.8975,-0.2313299860971235,1.273686566310405
-3.897,-0.7434983792658902,0.8180311148882058
-3.8965,-1.234326422719292,-0.02969995752518888
-3.896,-1.522421143876723,-0.1886495336027004
-3.8955,-1.351698346153801,-0.1674562567923655
-3.895,-0.8608703027003992,-0.2416327256285375
-3.8945,-0.2953510352432193,-0.3581957480853793
-3.894,0.2061471830678648,-0.474758770542221
-3.8935,0.5049120790829789,-0.5171453241628908
-3.893,0.6222840025174878,-0.5065486857577234
-3.8925,0.6542945270905358,-0.5277419625680583
-3.892,0.6329541773751706,-0.4959520473525559
-3.8915,0.6863050516635838,-0.4217755785163839
-3.891,0.7503261008096795,-0.3581957480853793
-3.8905,0.7289857510943143,-0.2310360872233701
-3.89,0.6649647019482183,-0.1568596183871981
-3.8895,0.3235191065023739,-0.5065486857577234
-3.889,-0.3700422592469978,-1.004590690800593
-3.8885,-1.052933450138687,-1.333086481360783
-3.888,-1.650463242168915,-1.375473034981453
-3.8875,-2.151961460479999,-0.8032545611024114
-3.887,-2.130621110764634,0.2034260873884947
-3.8865,-1.394379045584531,0.6802748156210291
-3.886,-0.6047861061160158,0.6908714540261965
