Class_8_Think_right_hand_movement/Class_8_Think_Right_hand_mouvement_ZAkour_6.csv

#Digilent WaveForms Oscilloscope Acquisition
#Device Name: EExplorer
#Serial Number: SN:210151A2B84A
#Date Time: 2021-01-24 16:33:32.093
#Sample rate: 2000Hz
#Samples: 16384
#Trigger: Source: Channel 1 Type: Edge Condition: Rising Level: 0 V Hyst.: Auto HoldOff: 0 s
#Channel 1: Range: 1 V/div Offset: 0 V Attenuation: 1 X
#Channel 2: Range: 1 V/div Offset: 0 V Attenuation: 1 X
#Power Supplies: ON
#Fixed Supply: ON
#Voltage: 3.3 V Readback: 3.331 V
#Positive Supply: ON
#Voltage: 3.7 V Readback: 3.717 V
#Current: 40 mA Readback: 18 mA
#Negative Supply: ON
#Voltage: -3.7 V Readback: -3.348 V
#Current: -40 mA Readback: -6 mA
#Reference 1: ON
#Voltage: 0 V
#Reference 2: ON
#Voltage: 0 V

Time (s),Channel 1 (V),Channel 2 (V)
-4.096,0.3448594562177392,1.061753798207057
-4.0955,0.3128489316447204,0.7756445612677962
-4.095,0.5902734779446824,0.6166949851898221
-4.0945,0.857027849386506,0.3941655786815084
-4.094,0.9957401225362541,0.02328323450098563
-4.0935,0.9743997728209082,-0.4641621321374584
-4.093,0.857027849386506,-0.9092209451540858
-4.0925,0.675634876806066,-1.152943628472715
-4.092,0.6222840025174684,-1.237716735714286
-4.0915,0.6009436528021226,-1.248313374119443
-4.091,0.4622313796522482,-1.152943628472937
-4.0905,0.3235191065022768,-0.9728007755849168
-4.09,0.2168173579255475,-0.7820612842920766
-4.0895,0.1314559590640864,-0.6019184314042303
-4.089,-0.1779791118084288,-0.6866915386454926
-4.0885,-0.6474668055467465,-0.7396747306714069
-4.088,-1.255666772434657,-0.2204394488182027
-4.0875,-1.799845690175977,0.3623756634654761
-4.087,-1.863866739322024,0.6166949851898028
-4.0865,-1.26633694729234,0.3729723018711736
-4.086,-0.6581369804049821,0.02328323450096631
-4.0855,-0.1993194615238329,-0.2310360872234665
-4.085,0.0674349099179905,-0.3370024712750445
-4.0845,0.1954770082100657,-0.3264058328698867
-4.084,0.2274875327832204,-0.2522293640336182
-4.0835,0.2168173579255475,-0.1568596183871981
-4.083,0.1848068333524996,-0.04029659593035631
-4.0825,0.1421261339217399,0.0656697881214144
-4.082,0.1101156093487211,0.1716361721729923
-4.0815,0.1101156093487211,0.2352160026039969
-4.081,0.05676473506035638,0.3835689402762061
-4.0805,-0.3807124341046804,0.701468092431364
-4.08,-0.9035510021311299,1.00877060618122
-4.0795,-1.351698346153393,1.178316820663744
-4.079,-1.074273799853324,0.6484849004050932
-4.0785,-0.274010685527854,0.1716361721729923
-4.078,0.4622313796515787,0.1186529801472034
-4.0775,0.9210488985327571,-0.1038764263616211
-4.077,1.091771696255524,-0.3899856633008816
-4.0765,1.049090996824832,-0.7608680074814045
-4.076,0.8890383739593984,-1.046977244421455
-4.0755,0.7183155762366316,-1.258910012524611
-4.075,0.7183155762366316,-1.492036057438295
-4.0745,0.5796033030866118,-1.386069673386379
-4.074,0.4195506802215176,-1.121153713257435
-4.0735,0.2808384070716433,-0.8244478379127463
-4.073,0.1848068333525869,-0.5595318777838014
-4.0725,-0.04993701351651855,-0.5595318777835605
-4.072,-0.5834457564006506,-0.9410108603695881
-4.0715,-1.138294848999644,-0.6972881770509589
-4.071,-1.639793067311494,-0.008506680714352857
-4.0705,-1.927887788468663,0.5425185163538525
-4.07,-1.447729919873381,0.4683420475177479
-4.0695,-0.8181896032692029,0.09745970333652156
-4.069,-0.3060212101009019,-0.2310360872233701
-4.0685,0.01408403562957729,-0.4217755785163839
-4.068,0.1741366584948654,-0.4641621321370054
-4.0675,0.2274875327832301,-0.4111789401112165
-4.067,0.2274875327832301,-0.3052125560595421
-4.0665,0.1954770082101531,-0.1780528951974173
-4.066,0.1634664836371343,-0.05089323433552374
-4.0655,0.142126133921769,0.06566978812131802
-4.065,0.1314559590640961,0.1398462569574226
-4.0645,0.1314559590640864,0.2564092794143318
-4.064,-0.1352984123779797,0.5107286011383502
-4.0635,-0.7861790786960288,0.8498210301033996
-4.063,-1.415719395299955,1.114736990232875
-4.0625,-1.479740444445993,1.093543713422559
-4.062,-0.7328282044088869,0.7544512844575095
-4.0615,0.06743490991851454,0.1928294489828453
-4.061,0.6436243522328531,-0.3370024712750445
-4.0605,0.9210488985326017,-0.8138511995075789
-4.06,0.9530594231055527,-1.152943628473081
-4.0595,0.8463576745288233,-1.311893204550448
-4.059,0.6756348768059011,-1.322489842955616
-4.0585,0.6756348768059011,-1.39666631179172
-4.058,0.6009436528021226,-1.280103289334946
-4.0575,0.4515612047945656,-0.9939940523954253
-4.057,0.3235191065024903,-0.6866915386458492
-4.0565,0.2168173579255475,-0.4111789401112165
-4.056,0.0674349099179905,-0.2628260024388724
-4.0555,-0.4233931335349645,-0.4005823017059237
-4.055,-0.9248913518469805,-0.1992461720073956
-4.0545,-1.458400094730627,0.3199891098453364
-4.054,-1.767835165603143,0.7120647308361748
-4.0535,-1.36236852101096,0.5213252395431225
-4.053,-0.7861790786966207,0.08686306493165288
-4.0525,-0.2953510352432193,-0.2734226408440398
-4.052,0.01408403562971316,-0.4853554089474367
-4.0515,0.1634664836371343,-0.5383386009732256
-4.051,0.2168173579255475,-0.5065486857577234
-4.0505,0.2274875327832204,-0.4111789401113032
-4.05,0.2061471830678648,-0.3052125560595421
-4.0495,0.1848068333524996,-0.1992461720078678
-4.049,0.1421261339218078,-0.08268314955113205
-4.0485,0.120785784206394,0.03387987290597956
-4.048,0.1101156093487211,0.2140227257936621
-4.0475,-0.04993701351637299,0.478938685922607
-4.047,-0.4447334832510189,0.8180311148884178
-4.0465,-0.7114878546928423,1.051157159801889
-4.046,-0.9035510021309552,1.061753798207047
-4.0455,-0.3700422592463379,0.4365521323019854
-4.045,0.3555296310754218,0.2246193641988295
-4.0445,0.8783681991018712,-0.01910331912002144
-4.044,1.145122570543956,-0.1886495336028642
-4.0435,1.166462920259302,-0.3687923864905467
-4.043,1.027750647109428,-0.6549016234300674
-4.0425,0.8143471499559694,-0.8774310299383811
-4.042,0.707645401378949,-1.121153713257435
-4.0415,0.6863050516635838,-1.301296566145281
-4.041,0.5369226036561625,-1.184733543688545
-4.0405,0.3661998059329977,-0.9410108603693569
-4.04,0.2488278824985954,-0.6866915386455698
-4.0395,0.142126133921866,-0.4747587705424138
-4.039,-0.1993194615244443,-0.4429688553268633
-4.0385,-0.6047861061160158,-0.6019184314042303
-4.038,-0.9248913518462041,-0.2734226408443386
-4.0375,-1.373038695869312,0.1822328105783622
-4.037,-1.533091318734406,0.4047622170866759
-4.0365,-1.116954499284783,0.2034260873884947
-4.036,-0.6047861061156373,-0.1038764263615729
-4.0355,-0.1886492866663929,-0.3370024712750445
-4.035,0.05676473506030786,-0.4429688553267188
-4.0345,0.1741366584947102,-0.4535654937318765
-4.034,0.2168173579255475,-0.4111789401112165
-4.0335,0.2061471830678648,-0.326405832869877
-4.033,0.1954770082101919,-0.2310360872234568
-4.0325,0.1527963087794419,-0.1250697031716187
-4.032,0.142126133921769,-0.04029659593035631
-4.0315,0.1314559590640961,0.05507314971606385
-4.031,0.08877525963290937,0.2246193641991475
-4.0305,-0.4020527838200457,0.5743084315693548
-4.03,-1.138294848999478,0.9451907757498776
-4.0295,-1.778505340460815,1.178316820663802
-4.029,-1.458400094730627,1.072350436612224
-4.0285,-0.4980843575391895,0.8180311148882058
-4.028,0.3661998059335897,0.3093924714398509
-4.0275,0.8997085488172365,-0.04029659593035631
-4.027,1.113112045970889,-0.5065486857577234
-4.0265,1.070431346540198,-0.8456411147227728
-4.026,0.8783681991018712,-1.036380606016095
-4.0255,0.6969752265212663,-1.131750351662602
-4.025,0.6649647019482474,-1.248313374119338
-4.0245,0.5902734779443817,-1.16354026687796
-4.024,0.5262524287983441,-1.004590690800593
-4.0235,0.4088805053639418,-0.72907809226649
-4.023,0.2594980573560258,-0.4747587705419415
-4.0225,-0.01792648894347063,-0.1674562567923655
-4.022,-0.6367966306885009,0.3305857482500508
-4.0215,-1.106284324427411,0.8074344764833371
-4.021,-1.447729919872945,1.135930267043229
-4.0205,-1.607782542738184,1.157123543853563
-4.02,-1.212986073003432,0.6908714540256954
-4.0195,-0.6688071552621118,0.13984625695749
-4.019,-0.2313299860971235,-0.2416327256285375
-4.0185,0.0460945602023729,-0.4217755785162201
-4.018,0.1741366584948169,-0.4429688553267188
-4.0175,0.2274875327832301,-0.3581957480853793
-4.017,0.2168173579255572,-0.2310360872234858
-4.0165,0.1954770082101531,-0.1038764263612356
-4.016,0.1634664836371343,0.03387987290581572
-4.0155,0.1421261339217884,0.1398462569573937
-4.015,0.1314559590640766,0.2564092794144089
-4.0145,0.1207857842064037,0.3411823866556712
-4.014,-0.103287887804728,0.5001319627330383
-4.0135,-0.6261264558318859,0.8074344764832889
-4.013,-1.180975548430879,1.082947075017392
-4.0125,-1.479740444445993,1.178316820663898
-4.012,-0.9355615267034596,0.733258007646317
-4.0115,-0.1459685872356623,0.1292496185523226
-4.011,0.4835717293676135,-0.5489352393783931
-4.0105,0.8356874996708206,-1.015187329205336
-4.01,0.9317190733902845,-1.258910012524611
-4.0095,0.8463576745288233,-1.34368311976595
-4.009,0.6863050516637293,-1.375473034981424
-4.0085,0.6969752265212178,-1.502632695843414
-4.008,0.6436243522328531,-1.449649503817625
-4.0075,0.504912079083105,-1.163540266878365
-4.007,0.3661998059329977,-0.8244478379124572
-4.0065,0.2488278824985954,-0.5065486857577234
-4.006,0.09944543449103843,-0.2628260024388724
-4.0055,-0.2633405106703364,0.03387987290610485
-4.005,-0.4447334832507763,0.3517790250608387
-4.0045,-0.8822106524157645,0.6696781772158616
-4.004,-1.383708870726849,0.7120647308363965
-4.0035,-1.383708870726849,0.5637117931641874
-4.003,-0.9355615267041777,0.1928294489833272
-4.0025,-0.4447334832512227,-0.1250697031714066
-4.002,-0.09261771294724913,-0.2946159176543747
-4.0015,0.1101156093487211,-0.3158091944647096
-4.001,0.1954770082101046,-0.2628260024389206
-4.0005,0.2168173579255475,-0.1568596183870921
-4,0.2168173579255475,-0.04029659593035631
-3.9995,0.1848068333524996,0.07626642652648545
-3.999,0.142126133921769,0.1928294489833272
-3.9985,0.1207857842064037,0.2776025562246667
-3.998,0.1207857842064037,0.3517790250608387
-3.9975,0.02475421048725994,0.5213252395435176
-3.997,-0.3380317346739499,0.8180311148882058
-3.9965,-0.9142211769888124,1.093543713422559
-3.996,-1.458400094730627,1.25249328950007
-3.9955,-1.170305373573196,1.188913459069066
-3.995,-0.3487019095316325,0.7862411996727035
-3.9945,0.3875401556484697,0.1080563417419877
-3.994,0.8356874996711408,-0.5171453241628908
-3.9935,0.9957401225363802,-0.9622041371799229
-3.993,0.9637295979633325,-1.195330182093607
-3.9925,0.7823366253827275,-1.258910012524611
-3.992,0.6863050516635838,-1.0999604364471
-3.9915,0.6436243522328531,-0.8774310299385835
-3.991,0.4942419042252961,-0.7396747306714069
-3.9905,0.3448594562177392,-0.6231117082145651
-3.99,0.2381577076409128,-0.4959520473525559
-3.9895,0.1634664836371343,-0.3687923864905467
-3.989,-0.1886492866663929,-0.2204394488182027
-3.9885,-0.8822106524157645,0.2034260873884947
-3.988,-1.501080794161358,0.701468092431364
-3.9875,-1.981238662757077,1.082947075017392
-3.987,-1.842526389607202,1.029963882991555
-3.9865,-1.159635198715513,0.5107286011383502
-3.986,-0.5514352318276028,0.002089957690313421
-3.9855,-0.1139580626626144,-0.3052125560595421
-3.985,0.1207857842064037,-0.4217755785163839
-3.9845,0.2274875327832301,-0.3899856633008816
-3.984,0.2488278824985954,-0.2734226408440398
-3.9835,0.2274875327832301,-0.1250697031716958
-3.983,0.1954770082101822,0.02328323450064829
-3.9825,0.1527963087794516,0.1928294489833272
-3.982,0.1207857842064037,0.3305857482505039
-3.9815,0.1101156093487211,0.4895353243280153
-3.981,0.1207857842064037,0.5955017083796896
-3.9805,0.0674349099179905,0.7332580076468663
-3.98,-0.2313299860971235,0.9663840525605498
-3.9795,-0.7968492535543035,1.146526905448396
-3.979,-0.7114878546928423,0.92399749893988
-3.9785,-0.02859666380115328,0.7862411996727035
-3.978,0.6222840025174878,0.7650479228623686
-3.9775,1.006410297394063,0.3305857482505039
-3.977,1.113112045970889,-0.4217755785163839
-3.9765,1.038420821967111,-0.9833974139902578
-3.976,0.857027849386506,-1.269506650929778
-3.9755,0.6863050516635838,-1.407262950196955
-3.975,0.7503261008096795,-1.587405803084801
-3.9745,0.6649647019482183,-1.460246142222792
-3.974,0.5049120790829789,-1.174136905283272
-3.9735,0.3555296310754218,-0.8562377531282487
-3.973,0.2381577076409128,-0.5913217929990628
-3.9725,0.03542438534494258,-0.3475991096802118
-3.972,-0.2846808603855366,-0.4217755785163839
-3.9715,-0.807519428411986,-0.2734226408440398
-3.971,-1.373038695869166,0.2564092794143318
-3.9705,-1.725154466172693,0.6908714540261965
-3.97,-1.373038695869166,0.5425185163538525
-3.9695,-0.7968492535543035,0.13984625695749
-3.969,-0.3060212101009019,-0.1886495336027004
-3.9685,0.00341386077189465,-0.3793890248957141
-3.968,0.1741366584948169,-0.4217755785163839
-3.9675,0.2274875327832301,-0.3793890248957141
-3.967,0.2274875327832301,-0.2840192792492073
-3.9665,0.2061471830678648,-0.1674562567923655
-3.966,0.1741366584948169,-0.05089323433552374
-3.9655,0.142126133921769,0.06566978812131802
-3.965,0.1207857842064037,0.1610395337678249
-3.9645,0.1207857842064037,0.2670059178194992
-3.964,-0.1886492866663929,0.5213252395435176
-3.9635,-0.807519428411986,0.8604176685088755
-3.963,-1.373038695869166,1.135930267043229
-3.9625,-1.490410619303675,0.9875773293708847
-3.962,-0.722158029550525,0.3941655786815084
-3.9615,0.1314559590640864,0.09745970333682032
-3.961,0.7396559259519968,-0.01910331912002144
-3.9605,1.027750647109428,-0.2946159176543747
-3.96,1.070431346540159,-0.6972881770507372
-3.9595,0.9317190733902845,-0.9833974139902578
-3.959,0.7183155762366316,-1.0999604364471
-3.9585,0.7183155762366316,-1.311893204550448
-3.958,0.6649647019482183,-1.311893204550448
-3.9575,0.5049120790829789,-1.078767159636765
-3.957,0.3555296310754218,-0.792657922697244
-3.9565,0.2381577076409128,-0.5171453241628908
-3.956,0.09944543449103843,-0.3052125560595421
-3.9555,-0.3807124341046804,0.01268659609548085
-3.955,-1.06360362499637,0.5213252395435176
-3.9545,-1.650463242168915,0.9557874141553824
-3.954,-2.07727023647622,1.178316820663898
-3.9535,-1.629122892453549,0.849821030103708
-3.953,-0.9355615267041777,0.2670059178194992
-3.9525,-0.3807124341046804,-0.1886495336027004
-3.952,-0.007256314085787988,-0.4217755785163839
-3.9515,0.1741366584948169,-0.474758770542221
-3.951,0.2381577076409128,-0.400582301706049
-3.9505,0.2488278824985954,-0.2734226408440398
-3.95,0.2274875327832301,-0.1250697031716958
-3.9495,0.1954770082101822,0.02328323450064829
-3.949,0.1634664836371343,0.1504428953626575
-3.9485,0.142126133921769,0.2670059178194992
-3.948,0.1314559590640864,0.383568940276341
-3.9475,0.01408403562957729,0.5213252395435176
-3.947,-0.5834457564006506,0.8074344764830383
-3.9465,-1.223656247861609,1.072350436612224
-3.946,-1.490410619303675,1.210106735879401
-3.9455,-0.9248913518464952,1.273686566310405
-3.945,-0.06060718837420119,1.146526905448396
-3.9445,0.6222840025174878,0.6802748156210291
-3.944,1.006410297394063,0.1186529801471552
-3.9435,1.102441871113207,-0.5277419625680583
-3.943,1.027750647109428,-0.9833974139902578
-3.9425,0.8356874996711408,-1.174136905283272
-3.942,0.6969752265212663,-1.322489842955616
-3.9415,0.6542945270905358,-1.407262950196955
-3.941,0.5049120790829789,-1.227120097309109
-3.9405,0.3661998059331045,-0.9410108603695881
-3.94,0.2701682322139607,-0.6549016234300674
-3.9395,0.1954770082101822,-0.3899856633008816
-3.939,-0.03926683865883591,-0.06148987274069118
-3.9385,-0.6794773301197943,0.4471487707073456
-3.938,-1.212986073003927,0.9028042221295453
-3.9375,-1.735824641030376,1.210106735879401
-3.937,-1.863866739322568,1.210106735879401
-3.9365,-1.298347471865388,0.701468092431364
-3.936,-0.6794773301197943,0.1504428953626575
-3.9355,-0.2099896363817582,-0.2098428104130352
-3.935,0.07810508477567314,-0.3475991096802118
-3.9345,0.2061471830678648,-0.326405832869877
-3.934,0.2488278824985954,-0.1992461720078678
-3.9335,0.2381577076409128,-0.05089323433552374
-3.933,0.2168173579255475,0.1080563417419877
-3.9325,0.1741366584948169,0.2670059178194992
-3.932,0.142126133921769,0.3941655786815084
-3.9315,0.1314559590640864,0.5001319627331828
-3.931,0.09944543449103843,0.6060983467848571
-3.9305,-0.2633405106701714,0.8286277532933731
-3.93,-0.8608703027003992,1.072350436612224
-3.9295,-1.415719395299897,1.210106735879401
-3.929,-1.212986073003927,0.8922075837243778
-3.9285,-0.391382608962363,0.4895353243280153
-3.928,0.3982103305061524,-0.05089323433552374
-3.9275,0.8997085488172365,-0.3475991096802118
-3.927,1.081101521397841,-0.5807251545938954
-3.9265,1.049090996824793,-0.8986243067489184
-3.926,0.8890383739595538,-1.142346990067769
-3.9255,0.7183155762366316,-1.290699927740113
-3.925,0.7716664505250448,-1.492036057438295
-3.9245,0.6649647019482183,-1.364876396576285
-3.924,0.4835717293676135,-1.078767159636765
-3.9235,0.3235191065023739,-0.7714646458869092
-3.923,0.2274875327832301,-0.4959520473525559
-3.9225,0.0674349099179905,-0.1780528951975329
-3.922,-0.2313299860971235,0.3411823866556712
-3.9215,-0.807519428411986,0.8392243916985406
-3.921,-1.405049220442214,1.178316820663898
-3.9205,-1.757164990745741,1.263089927905238
-3.92,-1.373038695869166,0.8074344764830383
-3.9195,-0.7861790786966207,0.2246193641988295
-3.919,-0.2953510352432193,-0.1886495336027004
-3.9185,0.01408403562957729,-0.3687923864905467
-3.918,0.1848068333524996,-0.3687923864905467
-3.9175,0.2381577076409128,-0.2628260024388724
-3.917,0.2381577076409128,-0.1038764263613609
-3.9165,0.2168173579255475,0.05507314971615059
-3.916,0.1848068333524996,0.2140227257936621
-3.9155,0.1634664836371343,0.3517790250608387
-3.915,0.142126133921769,0.4683420475176805
-3.9145,0.1527963087794516,0.5743084315693548
-3.914,0.09944543449103843,0.7650479228623686
-3.9135,0.02475421048725994,1.019367244586387
-3.913,-0.4660738329661415,1.199510097474233
-3.9125,-0.9675720512772257,1.29487984312074
-3.912,-0.6261264558313813,1.241896651094903
-3.9115,0.07810508477567314,1.029963882991555
-3.911,0.6649647019482183,0.849821030103708
-3.9105,0.9850699476786977,0.4789386859228479
-3.91,1.059761171682476,-0.1144730647665284
-3.9095,0.9530594231056497,-0.718481453861072
-3.909,0.7609962756673623,-1.142346990067769
-3.9085,0.7396559259519968,-1.42845622700729
-3.908,0.6649647019482183,-1.42845622700729
-3.9075,0.5155822539406614,-1.195330182093607
-3.907,0.3555296310754218,-0.8880276683437509
-3.9065,0.2381577076409128,-0.5807251545938954
-3.906,0.08877525963335578,-0.3687923864905467
-3.9055,-0.4020527838200457,-0.2840192792492073
-3.905,-1.06360362499637,0.09745970333682032
-3.9045,-1.629122892453549,0.6166949851900245
-3.904,-2.087940411333903,0.9981739677760521
-3.9035,-1.757164990745741,0.8710143069140429
-3.903,-1.042263275281004,0.3729723018711736
-3.9025,-0.4554036581084589,-0.07208651114585861
-3.902,-0.04993701351651855,-0.3370024712750445
-3.9015,0.1634664836371343,-0.4111789401112165
-3.901,0.2488278824985954,-0.3581957480853793
-3.9005,0.2594980573562781,-0.2416327256285375
-3.9,0.2381577076409128,-0.1038764263613609
-3.8995,0.1954770082101822,0.03387987290581572
-3.899,0.142126133921769,0.1822328105781598
-3.8985,0.1207857842064037,0.3199891098453364
-3.898,0.1207857842064037,0.4047622170866759
-3.8975,0.03542438534494258,0.5107286011383502
-3.897,-0.5087545323968721,0.7650479228623686
-3.8965,-1.138294849000148,1.040560521396722
-3.896,-1.565101843307454,1.146526905448396
-3.8955,-1.042263275281004,0.8710143069140429
-3.895,-0.1779791118087102,0.6696781772158616
-3.8945,0.5369226036560266,0.4789386859228479
-3.894,0.974399772821015,0.1928294489833272
-3.8935,1.102441871113207,-0.2204394488182027
-3.893,1.038420821967111,-0.6972881770507372
-3.8925,0.8463576745288233,-1.046977244421262
-3.892,0.7183155762366316,-1.34368311976595
-3.8915,0.6863050516635838,-1.545019249464132
-3.891,0.5475927785137094,-1.396666311791788
-3.8905,0.3982103305061524,-1.0999604364471
-3.89,0.2808384070716433,-0.7608680074817418
-3.8895,0.1848068333524996,-0.4535654937318862
-3.889,-0.124628237520297,-0.1992461720078678
-3.8885,-0.4980843575391895,0.2352160026039969
-3.888,-1.042263275281004,0.701468092431364
-3.8875,-1.586442193022819,1.061753798207057
-3.887,-1.597112367880501,0.9981739677760521
