Class_8_Think_right_hand_movement/Class_8_Think_Right_hand_mouvement_SH_10.csv

#Digilent WaveForms Oscilloscope Acquisition
#Device Name: EExplorer
#Serial Number: SN:210151A2B84A
#Date Time: 2021-01-21 12:05:23.361
#Sample rate: 2000Hz
#Samples: 16384
#Trigger: Source: Channel 1 Type: Edge Condition: Rising Level: 0 V Hyst.: Auto HoldOff: 0 s
#Channel 1: Range: 1 V/div Offset: 0 V Attenuation: 1 X
#Channel 2: Range: 1 V/div Offset: 0 V Attenuation: 1 X
#Power Supplies: ON
#Fixed Supply: ON
#Voltage: 3.3 V Readback: 3.317 V
#Positive Supply: ON
#Voltage: 3.7 V Readback: 3.791 V
#Current: 40 mA Readback: 14 mA
#Negative Supply: ON
#Voltage: -3.7 V Readback: -4.308 V
#Current: -40 mA Readback: -79 mA
#Reference 1: ON
#Voltage: 0 V
#Reference 2: ON
#Voltage: 0 V

Time (s),Channel 1 (V),Channel 2 (V)
-4.096,-0.1032878878049318,-0.1356663415768632
-4.0955,0.3555296310750045,-0.5701285161883328
-4.095,0.6329541773752676,-0.8032545611024114
-4.0945,0.7396559259519968,-0.8032545611024114
-4.094,0.7823366253826887,-0.6866915386456758
-4.0935,0.4408910299364268,-0.888027668343934
-4.093,-0.06060718837420119,-1.089363798041932
-4.0925,0.0887752596332199,-0.6125150698098314
-4.092,0.2274875327834436,-0.1568596183867644
-4.0915,0.4622313796522482,0.3199891098453364
-4.091,0.5689331282290746,0.5319218779486851
-4.0905,-0.1459685872366134,0.08686306493092043
-4.09,-1.191645723288561,-0.718481453861072
-4.0895,-1.981238662757077,-1.439052865412457
-4.089,-2.183971985052862,-1.725162102351718
-4.0885,-1.522421143876723,-1.110557074852267
-4.088,-0.6474668055467465,-0.2204394488182027
-4.0875,0.05676473505966739,0.4683420475170541
-4.087,0.4942419042254805,0.8392243916986081
-4.0865,0.6969752265212663,0.9134008605347127
-4.086,0.7609962756673041,0.7968378380779769
-4.0855,0.7396559259519677,0.5849050699742813
-4.085,0.707645401378949,0.3199891098453364
-4.0845,0.6756348768059302,0.05507314971639149
-4.084,0.6542945270905262,-0.1992461720080317
-4.0835,0.6436243522328531,-0.3793890248957141
-4.083,0.6329541773751706,-0.5171453241628908
-4.0825,0.4088805053634856,-0.3370024712745144
-4.082,0.02475421048725994,0.2458126410091644
-4.0815,-0.6474668055467465,0.8180311148882058
-4.081,-1.212986073003412,1.008770606181046
-4.0805,-1.052933450138687,0.55311515475902
-4.08,-0.4554036581084589,-0.02969995752518888
-4.0795,0.1314559590635526,-0.538338600972763
-4.079,0.536922603656211,-0.835044476317962
-4.0785,0.7396559259519968,-0.8880276683437509
-4.078,0.8036769750980346,-0.7820612842921729
-4.0775,0.8036769750981122,-0.6231117082144784
-4.077,0.825017324813458,-0.5277419625680583
-4.0765,0.8036769750981122,-0.3581957480855335
-4.076,0.6542945270900312,-0.1886495336028931
-4.0755,0.09944543449103843,-0.400582301706049
-4.075,0.02475421048725994,-0.2098428104130352
-4.0745,0.1741366584949334,0.09745970333660829
-4.074,0.3021787567870086,-0.1356663415768632
-4.0735,0.3768699807907871,-0.718481453861072
-4.073,-0.2846808603849351,-1.290699927739593
-4.0725,-1.1062843244271,-1.598002441489969
-4.072,-1.212986073003927,-1.248313374119443
-4.0715,-0.7221580295509714,-0.4217755785171357
-4.071,-0.1566387620929374,0.3093924714405641
-4.0705,0.291508581929326,0.7438546460520338
-4.07,0.5582629533711494,0.8922075837242429
-4.0695,0.6969752265212954,0.8286277532931996
-4.069,0.7289857510943143,0.6378882620003594
-4.0685,0.707645401378949,0.3623756634660061
-4.068,0.6756348768058816,0.08686306493142158
-4.0675,0.6542945270905358,-0.1674562567923655
-4.067,0.6329541773751706,-0.3687923864905467
-4.0665,0.6329541773750152,-0.5277419625679426
-4.066,0.4622313796522482,-0.400582301706049
-4.0655,0.2381577076409128,0.1504428953626575
-4.065,-0.2206598112390236,0.7438546460514941
-4.0645,-0.9355615267041777,1.125333628638062
-4.064,-1.277007122150022,1.072350436612224
-4.0635,-0.8715404775584508,0.5743084315698078
-4.063,-0.2099896363812632,-0.02969995752566112
-4.0625,0.3341892813600565,-0.5489352393783931
-4.062,0.6542945270902447,-0.8350444763176536
-4.0615,0.8143471499557947,-0.9092209451539798
-4.061,0.8356874996711408,-0.792657922697244
-4.0605,0.7823366253827275,-0.6019184314042303
-4.06,0.6329541773751317,-0.4323722169212911
-4.0595,0.5902734779444399,-0.1462629799820306
-4.059,0.5902734779444399,0.1822328105781598
-4.0585,0.6222840025174587,0.478938685922578
-4.058,0.5369226036560266,0.6166949851900245
-4.0575,0.2274875327832301,0.1186529801471552
-4.057,0.5689331282287641,-0.5383386009726281
-4.0565,0.1527963087794516,-1.184733543688439
-4.056,-0.7008176798351597,-1.598002441489969
-4.0555,-1.180975548430442,-1.513229334248707
-4.055,-0.8715404775576259,-0.771464645886196
-4.0545,-0.3700422592469978,0.01268659609548085
-4.054,0.08877525963293853,0.5531151547585285
-4.0535,0.408880505364,0.8074344764830577
-4.053,0.5902734779444399,0.8286277532933731
-4.0525,0.6649647019482183,0.6802748156210291
-4.052,0.6863050516635838,0.4577454091122817
-4.0515,0.6863050516635838,0.2034260873884947
-4.051,0.6649647019482183,-0.05089323433552374
-4.0505,0.6436243522328725,-0.2628260024386797
-4.05,0.6222840025174878,-0.4429688553267188
-4.0495,0.5689331282290746,-0.5595318777835605
-4.049,0.2168173579258677,-0.2204394488185111
-4.0485,-0.01792648894393644,0.3411823866559797
-4.048,-0.5300948821122373,0.6802748156210291
-4.0475,-0.8822106524154443,0.8498210301035538
-4.047,-0.6154562809732133,0.500131962732672
-4.0465,-0.08194753808956648,-0.06148987274069118
-4.046,0.3982103305057156,-0.5277419625676343
-4.0455,0.7076454013790655,-0.7926579226973115
-4.045,0.8356874996711408,-0.8668343915334161
-4.0445,0.8356874996711408,-0.8032545611024114
-4.044,0.8036769750980152,-0.6443049850248614
-4.0435,0.7183155762366316,-0.6019184314042303
-4.043,0.6649647019482183,-0.3475991096802118
-4.0425,0.6436243522328725,0.01268659609515316
-4.042,0.6329541773751706,0.3729723018711736
-4.0415,0.6436243522328531,0.6696781772158616
-4.041,0.5582629533714697,0.7650479228622818
-4.0405,0.1954770082097746,0.3941655786809783
-4.04,-0.2526703358124887,-0.1886495336027004
-4.0395,-1.010252750707267,-0.8138511995070101
-4.039,-1.885207089037632,-1.555615887868885
-4.0385,-1.554431668449771,-1.0999604364471
-4.038,-0.86087030270103,-0.347599109680896
-4.0375,-0.2099896363812535,0.2881991946302389
-4.037,0.3448594562177392,0.7332580076468663
-4.0365,0.5902734779444399,0.8180311148882058
-4.036,0.6542945270905455,0.6802748156208267
-4.0355,0.6649647019482183,0.457745409112513
-4.035,0.6436243522328531,0.1928294489833272
-4.0345,0.6222840025175073,-0.06148987274045986
-4.034,0.6222840025174878,-0.2734226408440398
-4.0335,0.6222840025174878,-0.4641621321370536
-4.033,0.6116138276598148,-0.6019184314041051
-4.0325,0.2808384070712551,-0.4111789401106479
-4.032,-0.1459685872356623,0.2140227257936621
-4.0315,-0.359372084389121,0.7968378380773409
-4.031,-1.010252750708277,1.188913459069104
-4.0305,-1.362368521011484,1.231300012689736
-4.03,-1.020922925565949,0.6696781772163725
-4.0295,-0.4233931335348967,-0.008506680715278065
-4.029,0.142126133921769,-0.474758770542221
-4.0285,0.5049120790829789,-0.7396747306714069
-4.028,0.686305051663642,-0.82444783791265
-4.0275,0.7503261008096795,-0.718481453861072
-4.027,0.6542945270905358,-0.6654982618352349
-4.0265,0.5475927785138064,-0.5277419625681836
-4.026,0.5475927785137094,-0.1780528951975329
-4.0255,0.5796033030867573,0.2246193641988295
-4.025,0.622284002517449,0.563711793163879
-4.0245,0.6649647019483348,0.7756445612672758
-4.024,0.79300680024041,0.4895353243280153
-4.0235,0.8356874996711019,0.02328323450107234
-4.023,0.4195506802209742,-0.1992461720080798
-4.0225,-0.1779791118087102,-0.4323722169215513
-4.022,-0.3913826089621689,-0.2946159176545
-4.0215,-0.1779791118087199,0.161039533767902
-4.021,-0.1886492866663929,0.2458126410091644
-4.0205,-0.423393133535411,-0.02969995752518888
-4.02,-0.103287887804728,0.1504428953626864
-4.0195,0.1207857842064037,0.1822328105781598
-4.019,0.3661998059331045,0.2034260873884947
-4.0185,0.5689331282288902,0.1716361721730213
-4.018,0.6116138276598051,-0.01910331912002144
-4.0175,0.6009436528021226,-0.252229364033705
-4.017,0.5902734779444495,-0.4323722169213875
-4.0165,0.5902734779442943,-0.5807251545938665
-4.016,0.4302208550792003,-0.5489352393783931
-4.0155,-0.4020527838192887,-0.01910331912050323
-4.015,-1.298347471866018,0.6272916235956449
-4.0145,-1.991908837614759,1.125333628638062
-4.014,-2.333354433060293,1.347863035146375
-4.0135,-1.778505340460262,0.9663840525599523
-4.013,-0.8502001278427167,0.309392471440169
-4.0125,-0.04993701351651855,-0.2310360872233701
-4.012,0.4622313796524811,-0.5701285161888436
-4.0115,0.7183155762366316,-0.6972881770507372
-4.011,0.825017324813458,-0.6231117082145651
-4.0105,0.8036769750981122,-0.4747587705423559
-4.01,0.7396559259519968,-0.400582301706049
-4.0095,0.6969752265212663,-0.1462629799820306
-4.009,0.6649647019482474,0.182232810577861
-4.0085,0.6542945270905262,0.4895353243282466
-4.008,0.6436243522328531,0.7438546460520338
-4.0075,0.835687499670966,0.6590815388107714
-4.007,1.379866417412587,0.07626642652590719
-4.0065,0.974399772821015,-0.5595318777835605
-4.006,0.01408403562957729,-0.8350444763179138
-4.0055,-0.7008176798351501,-0.7926579226968682
-4.005,-0.690147504977477,-0.3793890248957141
-4.0045,-0.3060212101009019,0.1292496185523226
-4.004,0.08877525963362751,0.4895353243281406
-4.0035,0.3875401556484697,0.627291623595192
-4.003,0.4729015545099309,0.5213252395435176
-4.0025,0.01408403562999455,-0.1462629799814235
-4.002,-0.1139580626626144,-0.4853554089473885
-4.0015,0.03542438534494258,-0.5595318777835605
-4.001,0.1741366584946908,-0.6125150698093494
-4.0005,0.4195506802216632,-0.5171453241628426
-4,0.5796033030867573,-0.4641621321370536
-3.9995,0.5689331282290746,-0.5171453241628908
-3.999,0.3768699807907871,-0.2310360872233701
-3.9985,0.3021787567870086,0.4047622170866759
-3.998,-0.3060212101009019,1.00877060618122
-3.9975,-1.127624674142465,1.42203950398275
-3.997,-1.789175515318789,1.580989080060261
-3.9965,-1.67180359188428,1.178316820663898
-3.996,-1.031593100423322,0.5213252395435176
-3.9955,-0.2846808603855366,-0.04029659593035631
-3.995,0.2701682322139607,-0.3793890248957141
-3.9945,0.6009436528021226,-0.4959520473525559
-3.994,0.7503261008096795,-0.4217755785163839
-3.9935,0.8890383739595538,-0.1886495336027004
-3.993,0.9103787236749192,0.01268659609548085
-3.9925,0.8463576745288233,0.2140227257936621
-3.992,0.7823366253827275,0.3941655786815084
-3.9915,0.7183155762366316,0.5637117931641874
-3.991,0.6222840025174878,0.627291623595192
-3.9905,0.2488278824985954,0.3411823866556712
-3.99,-0.3166913849585846,-0.2628260024388724
-3.9895,-1.052933450138687,-0.8774310299385835
-3.989,-1.565101843307454,-1.216523458903942
-3.9885,-1.255666772434657,-0.8456411147230812
-3.988,-0.6047861061160158,-0.1568596183871981
-3.9875,-0.01792648894347063,0.3941655786815084
-3.987,0.3661998059331045,0.701468092431364
-3.9865,0.5689331282290746,0.775644561267536
-3.986,0.6542945270905358,0.6908714540261965
-3.9855,0.6649647019482183,0.5107286011383502
-3.985,0.6436243522328531,0.2881991946298341
-3.9845,0.6222840025174878,0.05507314971615059
-3.984,0.6009436528021226,-0.1568596183871981
-3.9835,0.4835717293676135,-0.4217755785163839
-3.983,-0.06060718837420119,-1.068170521231597
-3.9825,-0.4980843575391895,-1.004590690800593
-3.982,-1.277007122150022,-0.1250697031716958
-3.9815,-1.981238662757077,0.7332580076468663
-3.981,-2.23732285934146,1.305476481525908
-3.9805,-1.810515865034154,1.135930267043229
-3.98,-0.9462317015618604,0.5213252395435176
-3.9795,-0.124628237520297,-0.08268314955102604
-3.979,0.4195506802215176,-0.5277419625680583
-3.9785,0.6969752265212663,-0.7502713690765743
-3.978,0.7823366253827275,-0.7502713690765743
-3.9775,0.79300680024041,-0.6125150698093976
-3.977,0.7609962756673623,-0.5489352393783931
-3.9765,0.6969752265212663,-0.5065486857577234
-3.976,0.6649647019482183,-0.2204394488182027
-3.9755,0.6436243522328531,0.1292496185523226
-3.975,0.6329541773751706,0.457745409112513
-3.9745,0.6436243522328531,0.6802748156210291
-3.974,1.006410297394063,0.3411823866556712
-3.9735,1.305175193409177,-0.4323722169215513
-3.973,0.6542945270905358,-1.0999604364471
-3.9725,-0.1032878878049318,-1.417859588602123
-3.972,-0.6047861061160158,-1.301296566145281
-3.9715,-0.4660738329661415,-0.6019184314042303
-3.971,-0.1139580626626144,0.09745970333682032
-3.9705,0.2168173579255475,0.5425185163538525
-3.97,0.4515612047945656,0.7120647308365314
-3.9695,0.5689331282290746,0.6696781772158616
-3.969,0.6222840025174878,0.5001319627331828
-3.9685,0.6222840025174878,0.2670059178194992
-3.968,0.6116138276598051,0.02328323450064829
-3.9675,0.5902734779444399,-0.1886495336027004
-3.967,0.5689331282290746,-0.3899856633008816
-3.9665,0.5582629533713921,-0.5277419625680583
-3.966,0.5369226036560266,-0.6443049850249
-3.9655,0.09944543449103843,-0.3687923864905467
-3.965,-0.572775581542968,0.2352160026039969
-3.9645,-1.159635198715513,0.7968378380778709
-3.964,-1.586442193022819,1.029963882991555
-3.9635,-1.703814116457328,0.2352160026039969
-3.963,-1.148965023857831,-0.4429688553267188
-3.9625,-0.4340633083930936,-0.8138511995075789
-3.962,0.09944543449103843,-1.004590690800593
-3.9615,0.5155822539406614,-0.8986243067489184
-3.961,0.7183155762366316,-0.6760949002404023
-3.9605,0.6969752265212663,-0.5383386009732256
-3.96,0.4942419042252961,-0.5913217929990628
-3.9595,0.4515612047945656,-0.3370024712750445
-3.959,0.4942419042252961,0.03387987290581572
-3.9585,0.5475927785137094,0.3941655786815084
-3.958,0.6009436528021226,0.6908714540261965
-3.9575,0.6969752265212663,0.6590815388106942
-3.957,0.9850699476786977,-0.08268314955102604
-3.9565,0.4835717293676135,-0.9092209451540858
-3.956,-0.423393133535411,-1.216523458903942
-3.9555,-1.031593100423322,-1.0999604364471
-3.955,-0.8288597781273515,-0.5171453241628908
-3.9545,-0.3380317346739499,0.1186529801471552
-3.954,0.1101156093487211,0.5319218779486851
-3.9535,0.408880505363835,0.6908714540261965
-3.953,0.5689331282290746,0.6590815388106942
-3.9525,0.6329541773751706,0.5001319627331828
-3.952,0.6329541773751706,0.2881991946298341
-3.9515,0.6222840025174878,0.04447651131098315
-3.951,0.6009436528021226,-0.1674562567923655
-3.9505,0.5902734779444399,-0.3475991096802118
-3.95,0.5796033030867573,-0.474758770542221
-3.9495,0.5582629533713921,-0.5383386009732256
-3.949,0.142126133921769,-0.1886495336027004
-3.9485,-0.6154562809736985,0.4259554938970107
-3.948,-1.170305373573196,0.92399749893988
-3.9475,-1.415719395299897,1.157123543853563
-3.947,-1.084943974711735,0.849821030103708
-3.9465,-0.4554036581084589,0.3199891098453364
-3.946,0.1101156093487211,-0.1674562567923655
-3.9455,0.4729015545099309,-0.474758770542221
-3.945,0.2274875327832301,-1.046977244421262
-3.9445,-0.02859666380115328,-1.34368311976595
-3.944,0.1314559590640864,-1.046977244421262
-3.9435,0.2274875327832301,-0.9622041371799229
-3.943,0.3875401556484697,-0.6231117082145651
-3.9425,0.5475927785137094,-0.09327978795619347
-3.942,0.5902734779444399,0.309392471440169
-3.9415,0.5902734779444399,0.6378882620003594
-3.941,0.5155822539406614,0.7650479228623686
-3.9405,0.3021787567870086,0.1716361721729923
-3.94,0.4942419042252961,-0.7290780922662394
-3.9395,-0.124628237520297,-1.42845622700729
-3.939,-0.9569018764195432,-1.79933857118815
-3.9385,-1.127624674142465,-1.449649503817625
-3.938,-0.7008176798351597,-0.6337083466197325
-3.9375,-0.1779791118087102,0.07626642652648545
-3.937,0.2381577076409128,0.4895353243280153
-3.9365,0.4835717293676135,0.6166949851900245
-3.936,0.6009436528021226,0.5319218779486851
-3.9355,0.6329541773751706,0.3411823866556712
-3.935,0.6329541773751706,0.09745970333682032
-3.9345,0.6116138276598051,-0.1568596183871981
-3.934,0.5902734779444399,-0.3793890248957141
-3.9335,0.5689331282290746,-0.5595318777835605
-3.933,0.5582629533713921,-0.6760949002404023
-3.9325,0.3448594562177392,-0.5383386009732256
-3.932,-0.09261771294724913,0.07626642652648545
-3.9315,-0.690147504977477,0.7332580076468663
-3.931,-1.244996597576974,1.040560521396722
-3.9305,-1.180975548430879,0.7120647308365314
-3.93,-0.6154562809736985,0.2776025562246667
-3.9295,-0.06060718837420119,-0.05089323433552374
-3.929,0.3448594562177392,-0.2628260024388724
-3.9285,0.6009436528021226,-0.4111789401112165
-3.928,0.707645401378949,-0.400582301706049
-3.9275,0.707645401378949,-0.326405832869877
-3.927,0.2168173579255475,-0.7820612842920766
-3.9265,0.08877525963335578,-0.9622041371799229
-3.926,0.2168173579255475,-0.6019184314042303
-3.9255,0.3021787567870086,-0.1886495336027004
-3.925,0.4942419042252961,0.2881991946298341
-3.9245,0.6329541773751706,0.627291623595192
-3.924,0.8997085488172365,0.2881991946298341
-3.9235,1.283834843693812,-0.5913217929990628
-3.923,0.6009436528021226,-1.280103289334946
-3.9225,-0.3273615598162672,-1.650985633515806
-3.922,-0.9462317015618604,-1.672178910326141
-3.9215,-0.7861790786966207,-0.9939940523954253
-3.921,-0.3166913849585846,-0.2098428104130352
-3.9205,0.1101156093487211,0.3199891098453364
-3.92,0.3982103305061524,0.5425185163538525
-3.9195,0.5475927785137094,0.5425185163538525
-3.919,0.6009436528021226,0.3941655786815084
-3.9185,0.6116138276598051,0.1716361721729923
-3.918,0.6009436528021226,-0.05089323433552374
-3.9175,0.5796033030867573,-0.2734226408440398
-3.917,0.5689331282290746,-0.4323722169215513
-3.9165,0.5475927785137094,-0.5065486857577234
-3.916,0.4942419042252961,-0.4323722169215513
-3.9155,0.08877525963335578,-0.008506680714854012
-3.915,-0.7008176798351597,0.6378882620003594
-3.9145,-1.341028171296118,1.167720182258731
-3.914,-1.757164990745741,1.475022696008586
-3.9135,-1.565101843307454,1.167720182258731
-3.913,-0.9355615267041777,0.5001319627331828
-3.9125,-0.2633405106701714,-0.1144730647665284
-3.912,0.2701682322139607,-0.4641621321370536
-3.9115,0.6009436528021226,-0.5277419625680583
-3.911,0.7289857510943143,-0.474758770542221
-3.9105,0.7503261008096795,-0.3899856633008816
-3.91,0.7183155762366316,-0.3899856633008816
-3.9095,0.6649647019482183,-0.1568596183871981
-3.909,0.2061471830678648,-0.252229364033705
-3.9085,-0.1459685872356623,-0.3158091944647096
-3.908,0.04609456020262521,0.01268659609548085
-3.9075,0.09944543449103843,0.09745970333682032
-3.907,0.1634664836371343,-0.3899856633008816
-3.9065,-0.2846808603855366,-1.046977244421262
-3.906,-1.202315898146244,-1.682775548731308
-3.9055,-1.853196564464885,-1.990078062481164
-3.905,-1.522421143876723,-1.417859588602123
-3.9045,-0.807519428411986,-0.5277419625680583
-3.904,-0.1459685872356623,0.1716361721729923
-3.9035,0.3128489316446912,0.5425185163538525
-3.903,0.5582629533713921,0.627291623595192
-3.9025,0.6542945270905358,0.5107286011383502
-3.902,0.6649647019482183,0.2881991946298341
-3.9015,0.6329541773751706,0.01268659609548085
-3.901,0.6009436528021226,-0.2416327256285375
-3.9005,0.5689331282290746,-0.4641621321370536
-3.9,0.5582629533713921,-0.6125150698093976
-3.8995,0.5262524287983441,-0.6654982618352349
-3.899,0.1634664836371343,-0.3158091944647096
-3.8985,-0.01792648894347063,0.3517790250608387
-3.898,-0.5621054066852853,0.92399749893988
-3.8975,-1.084943974711735,1.040560521396722
-3.897,-0.9995825758502737,0.6060983467848571
-3.8965,-0.4447334832507763,0.13984625695749
-3.896,0.1101156093487211,-0.2310360872233701
-3.8955,0.4729015545099309,-0.4323722169215513
-3.895,0.6542945270905358,-0.474758770542221
-3.8945,0.7183155762366316,-0.4323722169215513
-3.894,0.7289857510943143,-0.3052125560595421
-3.8935,0.6436243522328531,-0.2946159176543747
-3.893,0.5689331282290746,-0.1356663415768632
-3.8925,0.5475927785137094,0.1822328105781598
-3.892,0.5582629533713921,0.5107286011383502
-3.8915,0.5689331282290746,0.7862411996727035
-3.891,0.1741366584948169,0.5425185163538525
-3.8905,-0.8608703027003992,-0.3793890248957141
-3.89,-1.458400094730627,-0.5383386009732256
-3.8895,-2.045259711903173,-0.5807251545938954
-3.889,-2.344024607918286,-0.7078848154559045
-3.8885,-2.183971985053047,-0.8880276683437509
-3.888,-1.426389570157579,-0.5489352393783931
-3.8875,-0.6047861061160158,-0.07208651114585861
-3.887,0.03542438534494258,0.2776025562246667
