Class_8_Think_right_hand_movement/Class_8_Think_Right_hand_mouvement_SH_1.csv

#Digilent WaveForms Oscilloscope Acquisition
#Device Name: EExplorer
#Serial Number: SN:210151A2B84A
#Date Time: 2020-11-17 10:28:11.534
#Sample rate: 2000Hz
#Samples: 16384
#Trigger: Source: Channel 1 Type: Edge Condition: Rising Level: 0 V Hyst.: Auto HoldOff: 0 s
#Channel 1: Range: 1 V/div Offset: 0 V Attenuation: 1 X
#Channel 2: Range: 1 V/div Offset: 0 V Attenuation: 1 X
#Power Supplies: ON
#Fixed Supply: ON
#Voltage: 3.3 V Readback: 3.321 V
#Positive Supply: ON
#Voltage: 3.7 V Readback: 3.715 V
#Current: 40 mA Readback: 19 mA
#Negative Supply: ON
#Voltage: -3.7 V Readback: -3.343 V
#Current: -40 mA Readback: -9 mA
#Reference 1: ON
#Voltage: 0 V
#Reference 2: ON
#Voltage: 0 V

Time (s),Channel 1 (V),Channel 2 (V)
-4.096,0.3021787567870086,0.6166949851900245
-4.0955,0.3021787567870086,0.54251851635392
-4.095,0.174136658494322,0.341182386655093
-4.0945,-0.3700422592469978,-0.2946159176543747
-4.094,-0.8608703026999528,-0.9198175835586846
-4.0935,-1.095614149569398,-1.396666311791749
-4.093,-1.074273799854052,-1.354279758171118
-4.0925,-0.6688071552624806,-0.7608680074822814
-4.092,-0.22065981123914,-0.2310360872230617
-4.0915,0.1101156093487211,0.1080563417419877
-4.091,0.291508581929326,0.2564092794143318
-4.0905,0.3661998059331239,0.2987958330349823
-4.09,0.3875401556484697,0.2776025562246667
-4.0895,0.3768699807907871,0.2458126410091644
-4.089,0.4515612047944976,0.319989109845269
-4.0885,0.6542945270905358,0.55311515475902
-4.088,0.6436243522328531,0.5319218779486851
-4.0875,0.5475927785137967,0.4259554938971071
-4.087,0.4408910299369994,0.3411823866555363
-4.0865,0.5689331282290746,0.1928294489833272
-4.086,1.081101521397376,-0.4005823017055093
-4.0855,0.7396559259511137,-1.089363798042462
-4.085,-0.2313299860971235,-1.672178910326141
-4.0845,-1.042263275280267,-1.915901593644771
-4.084,-1.052933450138338,-1.269506650929036
-4.0835,-0.6688071552621118,-0.4535654937318862
-4.083,-0.2420001609548061,0.2140227257936621
-4.0825,0.07810508477583812,0.6378882620005618
-4.082,0.2594980573562781,0.8604176685088755
-4.0815,0.3341892813600565,0.92399749893988
-4.081,0.3555296310754024,0.9134008605347224
-4.0805,0.3448594562177392,0.8604176685088755
-4.08,0.3341892813600565,0.775644561267536
-4.0795,0.3128489316447107,0.6802748156211158
-4.079,0.2915085819292969,0.5955017083795836
-4.0785,0.2594980573562781,0.4789386859228479
-4.078,-0.1993194615236583,-0.06148987274019974
-4.0775,-0.828859778127827,-0.7714646458874489
-4.077,-1.351698346153801,-1.364876396576285
-4.0765,-1.266336947292418,-1.290699927740181
-4.076,-0.6901475049770015,-0.6760949002399782
-4.0755,-0.1673089369510276,-0.2098428104130352
-4.075,0.1741366584948169,0.03387987290581572
-4.0745,0.3448594562177877,0.1080563417419781
-4.074,0.3982103305061524,0.09745970333682032
-4.0735,0.3875401556484697,0.06566978812131802
-4.073,0.3661998059331239,0.05507314971616022
-4.0725,0.3661998059331045,0.09745970333682032
-4.072,0.4515612047945656,0.2881991946298341
-4.0715,0.4622313796522385,0.3517790250607808
-4.071,0.4195506802214788,0.3517790250608483
-4.0705,0.3768699807907871,0.3623756634660061
-4.07,0.38754015564846,0.3305857482505328
-4.0695,0.4515612047941094,-0.1568596183878245
-4.069,-0.04993701351651855,-0.8456411147230812
-4.0685,-0.7008176798351597,-1.322489842955616
-4.068,-1.138294849000235,-1.492036057438073
-4.0675,-1.234326422719292,-1.248313374119443
-4.067,-0.8288597781273515,-0.5277419625680583
-4.0665,-0.3593720843889755,0.1610395337682683
-4.066,0.01408403562957729,0.6484849004055269
-4.0655,0.2381577076409128,0.92399749893988
-4.065,0.3341892813599692,1.0193672445863
-4.0645,0.3661998059331045,1.00877060618122
-4.064,0.3555296310754218,0.9451907757502149
-4.0635,0.334189281360076,0.8498210301037947
-4.063,0.3235191065023544,0.7438546460519277
-4.0625,0.3021787567870086,0.627291623595192
-4.062,0.2915085819293357,0.5107286011384562
-4.0615,0.04609456020206235,0.1504428953620214
-4.061,-0.572775581542968,-0.5489352393783931
-4.0605,-1.170305373573196,-1.205926820498774
-4.06,-1.394379045584124,-1.50263269584299
-4.0595,-0.9462317015618604,-0.9833974139902578
-4.059,-0.391382608962363,-0.4217755785163839
-4.0585,0.02475421048688148,-0.08268314955133449
-4.058,0.2594980573562781,0.07626642652648545
-4.0575,0.3661998059331045,0.09745970333682032
-4.057,0.3875401556484503,0.07626642652650473
-4.0565,0.3768699807907871,0.04447651131098315
-4.056,0.3661998059331045,0.03387987290581572
-4.0555,0.5475927785135444,0.3411823866553917
-4.055,0.7609962756673234,0.7332580076468567
-4.0545,0.7183155762366316,0.7226613692416989
-4.054,0.5902734779445563,0.5849050699746474
-4.0535,0.4729015545101444,0.4365521323018023
-4.053,0.707645401378949,0.02328323450064829
-4.0525,0.9637295979633325,-0.6654982618352349
-4.052,0.2808384070708087,-1.280103289335322
-4.0515,-0.6367966306890638,-1.693372187136476
-4.051,-1.074273799854052,-1.492036057438295
-4.0505,-0.8502001278429205,-0.7184814538617755
-4.05,-0.4340633083930936,0.03387987290581572
-4.0495,-0.07127736323188383,0.5849050699745222
-4.049,0.1741366584945937,0.9028042221292562
-4.0485,0.3021787567870474,1.029963882991574
-4.048,0.3448594562177392,1.051157159801889
-4.0475,0.3555296310754121,0.9981739677761002
-4.047,0.3341892813600371,0.9134008605346067
-4.0465,0.3128489316446912,0.7968378380778709
-4.046,0.3021787567870183,0.6802748156211351
-4.0455,0.291508581929258,0.5955017083794969
-4.045,0.2168173579255475,0.383568940276341
-4.0445,-0.2953510352432193,-0.2734226408440398
-4.044,-0.7434983792659776,-0.8986243067492268
-4.0435,-0.839529952985034,-1.237716735714276
-4.043,-0.7008176798351597,-0.8986243067489184
-4.0425,-0.3487019095319527,-0.3687923864910285
-4.042,-0.01792648894347063,-0.01910331912002144
-4.0415,0.2061471830678648,0.1504428953626575
-4.041,0.3128489316445942,0.1716361721729731
-4.0405,0.3555296310754315,0.1292496185522841
-4.04,0.3661998059331045,0.08686306493165288
-4.0395,0.3448594562177586,0.0550731497161795
-4.039,0.3661998059331627,0.161039533768008
-4.0385,0.4302208550792003,0.3623756634660061
-4.038,0.4195506802215274,0.4047622170866373
-4.0375,0.3982103305061136,0.3941655786814892
-4.037,0.3555296310754218,0.3729723018711736
-4.0365,0.4408910299368829,0.13984625695749
-4.036,0.8570278493862149,-0.4959520473531535
-4.0355,0.5369226036560266,-1.152943628472937
-4.035,-0.2846808603855366,-1.640388995110639
-4.0345,-0.9782422261342776,-1.767548655972532
-4.034,-0.9569018764195432,-1.110557074852267
-4.0335,-0.5834457564006506,-0.3158091944647096
-4.033,-0.1993194615244249,0.3199891098447581
-4.0325,0.099445434491184,0.7226613692418627
-4.032,0.2594980573562781,0.9028042221295453
-4.0315,0.3341892813599886,0.9557874141553342
-4.031,0.3448594562177295,0.9239974989398222
-4.0305,0.3341892813600565,0.8604176685088755
-4.03,0.3235191065023836,0.7650479228624553
-4.0295,0.3021787567869989,0.6696781772157846
-4.029,0.291508581929326,0.5849050699745222
-4.0285,0.2488278824985954,0.457745409112513
-4.028,-0.2099896363822822,-0.09327978795683919
-4.0275,-0.7861790786966207,-0.8032545611024114
-4.027,-1.180975548430879,-1.417859588602123
-4.0265,-1.159635198715533,-1.407262950196965
-4.026,-0.722158029550525,-0.8032545611024114
-4.0255,-0.2420001609548061,-0.2416327256285375
-4.025,0.0994454344907279,0.08686306493135409
-4.0245,0.2915085819293939,0.2140227257936717
-4.024,0.3661998059331045,0.2246193641988295
-4.0235,0.3768699807907774,0.1928294489833561
-4.023,0.3555296310754218,0.1504428953626575
-4.0225,0.3555296310754218,0.1504428953626575
-4.022,0.4515612047944783,0.3199891098451822
-4.0215,0.4622313796522094,0.3729723018711447
-4.021,0.4195506802215176,0.3411823866556712
-4.0205,0.3768699807907871,0.309392471440169
-4.02,0.4195506802219446,0.2458126410087211
-4.0195,0.8890383739595538,-0.2416327256285375
-4.019,0.8890383739595538,-0.9092209451540858
-4.0185,0.2808384070721964,-1.386069673386187
-4.018,-0.3593720843893152,-1.576809164679634
-4.0175,-0.5514352318276028,-1.110557074852267
-4.017,-0.3807124341048357,-0.4005823017066947
-4.0165,-0.1139580626624203,0.2140227257940379
-4.016,0.09944543449103843,0.627291623595192
-4.0155,0.2381577076407866,0.8392243916983478
-4.015,0.302178756787028,0.9134008605347127
-4.0145,0.3235191065023739,0.9134008605347127
-4.014,0.3235191065023739,0.8710143069140814
-4.0135,0.3128489316446815,0.7968378380778131
-4.013,0.3021787567870086,0.7332580076468663
-4.0125,0.291508581929326,0.6484849004055269
-4.012,0.2701682322136792,0.5637117931638116
-4.0115,-0.03926683865883591,0.1504428953626575
-4.011,-0.7114878546928423,-0.6125150698093976
-4.0105,-1.159635198715106,-1.301296566144654
-4.01,-1.394379045584531,-1.598002441489969
-4.0095,-1.042263275281004,-1.046977244421262
-4.009,-0.5087545323973574,-0.4217755785169526
-4.0085,-0.07127736323163152,0.002089957690506173
-4.008,0.2061471830678648,0.2140227257936621
-4.0075,0.3341892813599401,0.2776025562246088
-4.007,0.3768699807907774,0.2564092794142933
-4.0065,0.3661998059331045,0.2140227257936621
-4.006,0.3555296310754218,0.1822328105781598
-4.0055,0.3341892813600565,0.3517790250609543
-4.005,0.3341892813600565,0.4789386859228479
-4.0045,0.3235191065023739,0.4365521323021782
-4.004,0.3128489316446912,0.3729723018710772
-4.0035,0.3128489316446912,0.2670059178194992
-4.003,0.4835717293676135,-0.2310360872233701
-4.0025,0.568933128228997,-0.9304142219637846
-4.002,-0.08194753808956648,-1.534422611058964
-4.0015,-0.6047861061160158,-1.84172512480882
-4.001,-0.956901876419223,-1.799338571188189
-4.0005,-0.8288597781270118,-1.078767159636052
-4,-0.4554036581084589,-0.2946159176543747
-3.9995,-0.1032878878049318,0.309392471440169
-3.999,0.142126133921769,0.6802748156210291
-3.9985,0.2808384070716433,0.849821030103708
-3.998,0.3341892813600565,0.8922075837243778
-3.9975,0.3448594562177392,0.8604176685088755
-3.997,0.3235191065023739,0.7968378380778709
-3.9965,0.3128489316446912,0.7120647308365314
-3.996,0.291508581929326,0.627291623595192
-3.9955,0.2808384070716433,0.55311515475902
-3.995,0.2168173579255475,0.3941655786815084
-3.9945,-0.2206598112394408,-0.1462629799820306
-3.994,-0.7114878546928423,-0.792657922697244
-3.9935,-1.127624674142465,-1.38606967338662
-3.993,-1.074273799854052,-1.333086481360783
-3.9925,-0.6154562809736985,-0.7608680074817418
-3.992,-0.1673089369510276,-0.252229364033705
-3.9915,0.142126133921769,0.07626642652648545
-3.991,0.291508581929326,0.2352160026039969
-3.9905,0.3555296310754218,0.2776025562246667
-3.99,0.3661998059331045,0.2458126410091644
-3.9895,0.3555296310754218,0.2246193641988295
-3.989,0.3982103305061524,0.3199891098453364
-3.9885,0.5049120790829789,0.55311515475902
-3.988,0.5049120790829789,0.5637117931641874
-3.9875,0.4408910299368829,0.4683420475176805
-3.987,0.3768699807907871,0.3729723018711736
-3.9865,0.1634664836371343,0.002089957690313421
-3.986,-0.1032878878049318,-0.7078848154559045
-3.9855,-0.6047861061160158,-1.34368311976595
-3.985,-1.020922925565639,-1.75695201756748
-3.9845,-1.223656247861609,-1.767548655972648
-3.984,-0.9142211769888124,-1.046977244421262
-3.9835,-0.4554036581084589,-0.2734226408440398
-3.983,-0.07127736323188383,0.3199891098453364
-3.9825,0.1848068333524996,0.6802748156210291
-3.982,0.3021787567870086,0.849821030103708
-3.9815,0.3448594562177392,0.8922075837243778
-3.981,0.3448594562177392,0.8710143069140429
-3.9805,0.3341892813600565,0.8180311148882058
-3.98,0.3128489316446912,0.7332580076468663
-3.9795,0.291508581929326,0.6590815388106942
-3.979,0.2808384070716433,0.5743084315693548
-3.9785,0.2808384070716433,0.4683420475176805
-3.978,0.2381577076409128,0.03387987290581572
-3.9775,-0.08194753808956648,-0.6654982618352349
-3.977,-0.6261264558313813,-1.248313374119443
-3.9765,-1.1062843244271,-1.502632695843462
-3.976,-0.9355615267041777,-0.9939940523954253
-3.9755,-0.4980843575391895,-0.3899856633008816
-3.975,-0.09261771294724913,0.01268659609548085
-3.9745,0.1634664836371343,0.2246193641988295
-3.974,0.3021787567870086,0.2881991946298341
-3.9735,0.3555296310754218,0.2776025562246667
-3.973,0.3555296310754218,0.2458126410091644
-3.9725,0.3555296310754218,0.2564092794143318
-3.972,0.408880505363835,0.3729723018711736
-3.9715,0.408880505363835,0.3623756634660061
-3.971,0.3768699807907871,0.3199891098453364
-3.9705,0.3448594562177392,0.2776025562246667
-3.97,0.3875401556484697,0.2987958330350016
-3.9695,0.857027849386506,-0.02969995752518888
-3.969,0.8997085488172365,-0.7078848154559045
-3.9685,0.3341892813600565,-1.237716735714276
-3.968,0.3021787567870086,-1.322489842955616
-3.9675,0.1954770082101822,-1.163540266878104
-3.967,0.1741366584948169,-0.6125150698093976
-3.9665,0.1954770082101822,-0.05089323433552374
-3.966,0.2274875327832301,0.3623756634660061
-3.9655,0.2594980573562781,0.6166949851900245
-3.965,0.2701682322139607,0.7438546460520338
-3.9645,0.2808384070716433,0.7862411996727035
-3.964,0.2808384070716433,0.7862411996727035
-3.9635,0.2808384070716433,0.7650479228623686
-3.963,0.2808384070716433,0.7120647308365314
-3.9625,0.2701682322139607,0.6696781772158616
-3.962,0.2701682322139607,0.6166949851900245
-3.9615,0.0674349099179905,0.3305857482505039
-3.961,-0.5300948821122373,-0.3899856633008816
-3.9605,-1.1062843244271,-1.078767159636765
-3.96,-1.575772018165136,-1.534422611058964
-3.9595,-1.341028171296118,-1.131750351662602
-3.959,-0.7861790786966207,-0.5383386009732256
-3.9585,-0.2633405106701714,-0.07208651114585861
-3.958,0.09944543449103843,0.1928294489833272
-3.9575,0.2808384070716433,0.309392471440169
-3.957,0.3555296310754218,0.3199891098453364
-3.9565,0.3661998059331045,0.2881991946298341
-3.956,0.3555296310754218,0.2564092794143318
-3.9555,0.4729015545099309,0.4789386859228479
-3.955,0.5689331282290746,0.6484849004055269
-3.9545,0.5262524287983441,0.5849050699745222
-3.954,0.4515612047945656,0.4789386859228479
-3.9535,0.3875401556484697,0.3411823866556712
-3.953,0.3235191065023739,-0.1886495336027004
-3.9525,-0.08194753808956648,-0.9092209451540858
-3.952,-0.7328282044082075,-1.502632695843462
-3.9515,-1.277007122150022,-1.862918401619155
-3.951,-1.234326422719292,-1.42845622700729
-3.9505,-0.7755089038389382,-0.6443049850249
-3.95,-0.2953510352432193,0.02328323450064829
-3.9495,0.04609456020262521,0.4789386859228479
-3.949,0.2488278824985954,0.7226613692416989
-3.9485,0.3235191065023739,0.8074344764830383
-3.948,0.3448594562177392,0.8074344764830383
-3.9475,0.3341892813600565,0.7650479228623686
-3.947,0.3128489316446912,0.701468092431364
-3.9465,0.291508581929326,0.6166949851900245
-3.946,0.2808384070716433,0.5425185163538525
-3.9455,0.2701682322139607,0.4789386859228479
-3.945,0.1848068333524996,0.309392471440169
-3.9445,-0.3487019095316325,-0.2840192792492073
-3.944,-0.8288597781273515,-0.9516074987747555
-3.9435,-1.084943974711735,-1.439052865412457
-3.943,-1.052933450138687,-1.152943628472937
-3.9425,-0.658136980404429,-0.5065486857577234
-3.942,-0.2313299860971235,-0.05089323433552374
-3.9415,0.08877525963335578,0.2034260873884947
-3.941,0.2701682322139607,0.2987958330350016
-3.9405,0.3448594562177392,0.309392471440169
-3.94,0.3555296310754218,0.2776025562246667
-3.9395,0.3448594562177392,0.2564092794143318
-3.939,0.408880505363835,0.4047622170866759
-3.9385,0.5262524287983441,0.6484849004055269
-3.938,0.5155822539406614,0.627291623595192
-3.9375,0.4515612047945656,0.5107286011383502
-3.937,0.3768699807907871,0.4047622170866759
-3.9365,0.1954770082101822,0.02328323450064829
-3.936,-0.3593720843893152,-0.6866915386455698
-3.9355,-1.042263275281004,-1.34368311976595
-3.935,-1.490410619303675,-1.820531847998485
-3.9345,-1.789175515318789,-1.968884785670829
-3.934,-1.394379045584531,-1.290699927740113
-3.9335,-0.7648387289812555,-0.4429688553267188
-3.933,-0.2313299860971235,0.2352160026039969
-3.9325,0.1207857842064037,0.6590815388106942
-3.932,0.291508581929326,0.8604176685088755
-3.9315,0.3661998059331045,0.92399749893988
-3.931,0.3661998059331045,0.8922075837243778
-3.9305,0.3448594562177392,0.8286277532933731
-3.93,0.3128489316446912,0.7332580076468663
-3.9295,0.291508581929326,0.627291623595192
-3.929,0.2808384070716433,0.5425185163538525
-3.9285,0.2274875327832301,0.4047622170866759
-3.928,-0.2420001609548061,-0.1356663415768632
-3.9275,-0.690147504977477,-0.7290780922662394
-3.927,-1.06360362499637,-1.280103289334946
-3.9265,-1.223656247861609,-1.375473034981453
-3.926,-0.8715404775580819,-0.8032545611024114
-3.9255,-0.391382608962363,-0.2628260024388724
-3.925,-0.007256314085787988,0.07626642652648545
-3.9245,0.2274875327832301,0.2352160026039969
-3.924,0.3448594562177392,0.2670059178194992
-3.9235,0.3768699807907871,0.2458126410091644
-3.923,0.3661998059331045,0.2140227257936621
-3.9225,0.3768699807907871,0.2246193641988295
-3.922,0.4835717293676135,0.4047622170866759
-3.9215,0.4835717293676135,0.4259554938970107
-3.921,0.4408910299368829,0.3623756634660061
-3.9205,0.3875401556484697,0.3199891098453364
-3.92,0.4195506802215176,0.1292496185523226
-3.9195,0.5475927785137094,-0.4959520473525559
-3.919,0.09944543449103843,-1.174136905283272
-3.9185,-0.6047861061160158,-1.703968825541643
-3.918,-1.223656247861609,-1.990078062481164
-3.9175,-1.244996597576974,-1.460246142222792
-3.917,-0.807519428411986,-0.6125150698093976
-3.9165,-0.3273615598162672,0.09745970333682032
-3.916,0.02475421048725994,0.5743084315693548
-3.9155,0.2381577076409128,0.8180311148882058
-3.915,0.3341892813600565,0.9028042221295453
-3.9145,0.3555296310754218,0.9028042221295453
-3.914,0.3448594562177392,0.849821030103708
-3.9135,0.3235191065023739,0.7650479228623686
-3.913,0.3021787567870086,0.6696781772158616
-3.9125,0.2808384070716433,0.5849050699745222
-3.912,0.2701682322139607,0.5001319627331828
-3.9115,0.03542438534494258,0.1716361721729923
-3.911,-0.4980843575391895,-0.4853554089473885
-3.9105,-0.8181896032696687,-1.036380606016095
-3.91,-1.244996597576974,-1.460246142222792
-3.9095,-1.138294849000148,-1.152943628472937
-3.909,-0.6688071552621118,-0.5807251545938954
-3.9085,-0.2099896363817582,-0.1038764263613609
-3.908,0.1207857842064037,0.1716361721729923
-3.9075,0.291508581929326,0.2881991946298341
-3.907,0.3555296310754218,0.309392471440169
-3.9065,0.3768699807907871,0.2881991946298341
-3.906,0.3661998059331045,0.2670059178194992
-3.9055,0.4195506802215176,0.4259554938970107
-3.905,0.4408910299368829,0.4789386859228479
-3.9045,0.408880505363835,0.4153588554918433
-3.904,0.3661998059331045,0.3411823866556712
-3.9035,0.3661998059331045,0.2987958330350016
-3.903,0.7289857510943143,0.01268659609548085
-3.9025,0.9637295979633325,-0.6654982618352349
-3.902,0.3021787567870086,-1.311893204550448
-3.9015,-0.3593720843893152,-1.682775548731308
-3.901,-0.8822106524157645,-1.725162102351978
-3.9005,-0.807519428411986,-1.068170521231597
-3.9,-0.4660738329661415,-0.3158091944647096
-3.8995,-0.1139580626626144,0.2776025562246667
-3.899,0.1314559590640864,0.6378882620003594
-3.8985,0.2701682322139607,0.8180311148882058
-3.898,0.3235191065023739,0.8710143069140429
-3.8975,0.3341892813600565,0.849821030103708
-3.897,0.3235191065023739,0.7968378380778709
-3.8965,0.3128489316446912,0.7226613692416989
-3.896,0.291508581929326,0.6484849004055269
-3.8955,0.291508581929326,0.5849050699745222
-3.895,0.2594980573562781,0.3729723018711736
-3.8945,0.08877525963335578,-0.2840192792492073
-3.894,-0.4554036581084589,-1.004590690800593
-3.8935,-1.042263275281004,-1.439052865412457
-3.893,-0.9782422261349084,-0.9622041371799229
-3.8925,-0.5621054066852853,-0.3793890248957141
-3.892,-0.1459685872356623,0.002089957690313421
-3.8915,0.142126133921769,0.2034260873884947
-3.891,0.291508581929326,0.2564092794143318
-3.8905,0.3448594562177392,0.2458126410091644
-3.89,0.3448594562177392,0.2034260873884947
-3.8895,0.3448594562177392,0.1822328105781598
-3.889,0.408880505363835,0.3199891098453364
-3.8885,0.4942419042252961,0.5001319627331828
-3.888,0.4729015545099309,0.4895353243280153
-3.8875,0.4195506802215176,0.4153588554918433
-3.887,0.3555296310754218,0.3517790250608387
-3.8865,0.1101156093487211,-0.04029659593035631
-3.886,-0.2526703358124887,-0.7396747306714069
