Class_8_Think_right_hand_movement/Class_8_Think_Right_hand_mouvement_Suko_6.csv

#Digilent WaveForms Oscilloscope Acquisition
#Device Name: EExplorer
#Serial Number: SN:210151A2B84A
#Date Time: 2021-01-27 15:08:09.278
#Sample rate: 2000Hz
#Samples: 16384
#Trigger: Source: Channel 1 Type: Edge Condition: Rising Level: 0 V Hyst.: Auto HoldOff: 0 s
#Channel 1: Range: 1 V/div Offset: 0 V Attenuation: 1 X
#Channel 2: Range: 1 V/div Offset: 0 V Attenuation: 1 X
#Channel 4: Range: 1 V/div Offset: 0 V Attenuation: 1 X
#Power Supplies: ON
#Fixed Supply: ON
#Voltage: 3.3 V Readback: 3.302 V
#Positive Supply: ON
#Voltage: 3.7 V Readback: 3.717 V
#Current: 40 mA Readback: 14 mA
#Negative Supply: ON
#Voltage: -3.7 V Readback: -3.363 V
#Current: -40 mA Readback: -4 mA
#Reference 1: ON
#Voltage: 0 V
#Reference 2: ON
#Voltage: 0 V

Time (s),Channel 1 (V),Channel 2 (V),Channel 4 (V)
-4.096,0.7823366253827275,-0.2098428104130352,-0.03203722724012713
-4.0955,0.5796033030869417,-0.09327978795629949,-0.03203722724012713
-4.095,0.3341892813598819,-0.06148987274073937,-0.03203722724012713
-4.0945,0.142126133921769,-0.1144730647665284,-0.03203722724012713
-4.094,0.02475421048736669,-0.1780528951974751,-0.03203722724012713
-4.0935,0.05676473506034668,-0.1886495336027004,0.02087815981412812
-4.093,0.09944543449103843,-0.1886495336027004,0.03146123722496762
-4.0925,0.07810508477569256,-0.2310360872233315,0.02087815981412813
-4.092,0.02475421048722112,-0.252229364033705,0.01029508240325975
-4.0915,-0.01792648894347063,-0.252229364033705,-0.000287995007579752
-4.091,-0.1673089369510276,-0.1356663415768632,-0.021454149829278
-4.0905,-0.7328282044087413,0.415358855492383,-0.03203722724012713
-4.09,-1.319687821580753,1.00877060618122,-0.03203722724012713
-4.0895,-1.767835165603424,1.358459673551745,-0.05320338206182537
-4.089,-2.119950935906631,0.9557874141557485,-0.07436953688350438
-4.0885,-1.746494815888059,0.3517790250608387,-0.0637864594726745
-4.088,-1.116954499284783,0.1080563417419877,-0.04262030465097626
-4.0875,-0.572775581543463,0.08686306493167216,-0.04262030465097626
-4.087,-0.2206598112392759,0.1928294489834621,-0.04262030465097626
-4.0865,-0.03926683865883591,0.3411823866556712,-0.04262030465097626
-4.086,0.03542438534487465,0.4895353243278804,-0.04262030465097626
-4.0855,0.03542438534493287,0.6166949851901112,-0.04262030465102438
-4.085,0.02475421048725994,0.7120647308365314,-0.09553569170522189
-4.0845,-0.007256314085758876,0.7650479228623204,-0.1272849239377404
-4.084,-0.02859666380115328,0.7862411996727035,-0.12728492393775
-4.0835,-0.02859666380115328,0.7862411996727035,-0.106118769116071
-4.083,0.00341386077189465,0.7120647308365314,-0.09553569170522189
-4.0825,0.2915085819297724,0.425955493896471,-0.074369536883514
-4.082,0.7823366253827275,-0.1674562567923655,-0.0637864594726745
-4.0815,0.8356874996711408,-0.8032545611024114,-0.05320338206182537
-4.081,0.7396559259520842,-1.311893204549985,-0.03203722724014638
-4.0805,0.8356874996711408,-1.375473034981453,-0.03203722724012713
-4.08,0.9103787236749192,-0.9939940523954253,-0.021454149829278
-4.0795,0.8997085488172462,-0.6125150698097446,-0.021454149829278
-4.079,0.7823366253825237,-0.3687923864904696,-0.03203722724012713
-4.0785,0.5582629533713921,-0.2840192792492073,-0.03203722724012713
-4.078,0.3341892813602603,-0.3052125560595229,-0.03203722724012713
-4.0775,0.1527963087793643,-0.3158091944647385,-0.03203722724009826
-4.077,0.05676473506030786,-0.3475991096802118,-0.000287995007579752
-4.0765,0.01408403562961611,-0.4111789401111586,0.02087815981409925
-4.076,-0.007256314085817101,-0.4005823017060105,0.0208781598141185
-4.0755,-0.03926683865883591,-0.3581957480853793,0.0208781598141185
-4.075,-0.04993701351651855,-0.326405832869877,-0.000287995007579752
-4.0745,-0.09261771294767612,-0.2628260024384483,-0.01087107241844813
-4.074,-0.5621054066852853,0.2034260873884947,-0.03203722724012713
-4.0735,-1.30901764672307,0.8922075837243778,-0.03203722724012713
-4.073,-1.906547438752755,1.390249588766794,-0.04262030465096663
-4.0725,-2.301343908487556,1.220703374284568,-0.07436953688352363
-4.072,-2.429386006779747,0.3305857482505039,-0.07436953688352363
-4.0715,-1.789175515319371,-0.1886495336022281,-0.05320338206184462
-4.071,-1.042263275280509,-0.2310360872231966,-0.04262030465097626
-4.0705,-0.4980843575391895,-0.04029659593035631,-0.04262030465097626
-4.07,-0.1566387620936555,0.1928294489831152,-0.04262030465097626
-4.0695,0.003413860771943172,0.4259554938971649,-0.04262030465097626
-4.069,0.05676473506030786,0.5955017083796896,-0.04262030465097626
-4.0685,0.04609456020262521,0.7332580076468663,-0.07436953688352363
-4.068,0.02475421048723082,0.8074344764830769,-0.1167018465269297
-4.0675,-0.007256314085787988,0.849821030103708,-0.1272849239377692
-4.067,-0.01792648894347063,0.849821030103708,-0.1167018465269201
-4.0665,-0.00725631408566183,0.8074344764828938,-0.09553569170521226
-4.066,0.1314559590640864,0.6484849004055269,-0.08495261429437276
-4.0655,0.6969752265212663,0.07626642652648545,-0.0637864594726745
-4.065,1.006410297393781,-0.6549016234294024,-0.053203382061835
-4.0645,0.8783681991018712,-1.205926820498774,-0.04262030465097626
-4.064,0.8356874996711408,-1.152943628472937,-0.021454149829278
-4.0635,0.8676980242441594,-0.7184814538614671,-0.021454149829278
-4.063,0.8676980242441109,-0.2734226408438085,-0.03203722724012713
-4.0625,0.7823366253827275,-0.01910331912002144,-0.03203722724012713
-4.062,0.5689331282292687,0.03387987290576753,-0.03203722724012713
-4.0615,0.3341892813598819,0.002089957690245958,-0.03203722724012713
-4.061,0.142126133921769,-0.07208651114585861,-0.03203722724012713
-4.0605,0.0674349099179905,-0.1674562567923655,-0.021454149829278
-4.06,0.2488278824986245,-0.2098428104130642,0.03146123722496762
-4.0595,0.2808384070716433,-0.2416327256285375,0.03146123722496762
-4.059,0.2061471830678648,-0.3052125560595421,0.0208781598141185
-4.0585,0.09944543449113548,-0.3475991096801733,0.010295082403279
-4.058,0.00341386077189465,-0.3793890248957141,-0.01087107241842888
-4.0575,-0.2633405106701714,-0.1356663415768632,-0.021454149829278
-4.057,-0.9248913518458936,0.5319218779480779,-0.0320372272401175
-4.0565,-1.533091318734406,1.167720182258731,-0.03203722724012713
-4.056,-2.045259711903173,1.411442865577582,-0.0637864594726745
-4.0555,-2.376035132491034,0.839224391699061,-0.074369536883514
-4.055,-1.767835165602783,0.2670059178193065,-0.05320338206181575
-4.0545,-1.06360362499637,0.05507314971615059,-0.04262030465097626
-4.054,-0.5087545323973767,0.06566978812130839,-0.04262030465097626
-4.0535,-0.167308936950882,0.182232810578314,-0.04262030465097626
-4.053,-0.007256314085787988,0.3517790250608387,-0.04262030465097626
-4.0525,0.05676473506030786,0.5001319627331828,-0.04262030465097626
-4.052,0.05676473506027874,0.6378882620004461,-0.0532033820618735
-4.0515,0.02475421048725994,0.7332580076468663,-0.106118769116071
-4.051,-0.007256314085787988,0.7968378380778709,-0.1272849239377692
-4.0505,-0.02859666380113387,0.8180311148881865,-0.1272849239377692
-4.05,-0.01792648894347063,0.7968378380778709,-0.106118769116071
-4.0495,0.03542438534494258,0.6802748156210291,-0.08495261429437276
-4.049,0.4835717293672059,0.2034260873889284,-0.07436953688353326
-4.0485,1.070431346540217,-0.4747587705427607,-0.05320338206181575
-4.048,1.134452395686255,-1.068170521231597,-0.04262030465097626
-4.0475,1.006410297394179,-1.3436831197657,-0.03203722724013675
-4.047,0.9637295979632839,-1.131750351662101,-0.021454149829278
-4.0465,0.9103787236749192,-0.5807251545938954,-0.021454149829278
-4.046,0.8143471499558627,-0.1568596183875836,-0.0320372272401175
-4.0455,0.6329541773749474,0.06566978812130839,-0.03203722724012713
-4.045,0.3875401556484697,0.05507314971615059,-0.03203722724012713
-4.0445,0.1848068333524996,-0.04029659593035631,-0.03203722724012713
-4.044,0.05676473506027874,-0.1250697031717729,-0.032037227240079
-4.0435,0.02475421048725994,-0.2098428104130352,0.0208781598141185
-4.043,0.02475421048725994,-0.2628260024388724,0.03146123722496762
-4.0425,0.003413860771914058,-0.3158091944646614,0.02087815981412813
-4.042,-0.01792648894347063,-0.3581957480853793,0.0208781598141185
-4.0415,-0.03926683865883591,-0.3793890248957141,-0.000287995007579752
-4.041,-0.1566387620932382,-0.3158091944647674,-0.02145414982925875
-4.0405,-0.6688071552627426,0.1716361721736381,-0.03203722724012713
-4.04,-1.362368521011484,0.8816109453192104,-0.03203722724012713
-4.0395,-1.917217613610476,1.4114428655771,-0.04262030465096663
-4.039,-2.397375482206408,1.157123543852918,-0.074369536883514
-4.0385,-2.07727023647622,0.4471487707073456,-0.0637864594726745
-4.038,-1.298347471866096,0.07626642652682281,-0.053203382061835
-4.0375,-0.6794773301194158,-0.008506680714786548,-0.04262030465097626
-4.037,-0.2633405106701714,0.06566978812131802,-0.04262030465097626
-4.0365,-0.03926683865883591,0.2140227257936621,-0.04262030465097626
-4.036,0.04609456020263492,0.3729723018712989,-0.04262030465097626
-4.0355,0.05676473506030786,0.5107286011383502,-0.04262030465097626
-4.035,0.04609456020262521,0.627291623595192,-0.08495261429437276
-4.0345,0.01408403562960641,0.7120647308364543,-0.1167018465268913
-4.034,-0.01792648894347063,0.7544512844572011,-0.1272849239377692
-4.0335,-0.01792648894347063,0.7544512844572011,-0.106118769116071
-4.033,-0.007256314085797692,0.71206473083657,-0.09553569170523152
-4.0325,0.1421261339222251,0.627291623594845,-0.0637864594726745
-4.032,0.6436243522328531,0.2458126410091644,-0.0637864594726745
-4.0315,0.9317190733900225,-0.4217755785157767,-0.053203382061835
-4.031,0.9743997728210538,-0.8668343915333391,-0.03203722724012713
-4.0305,1.017080472251745,-0.7820612842920766,-0.03203722724012713
-4.03,1.006410297394073,-0.7290780922662876,-0.03203722724012713
-4.0295,0.9317190733901195,-0.5277419625679234,-0.03203722724012713
-4.029,0.7503261008096795,-0.3793890248957141,-0.03203722724012713
-4.0285,0.5049120790829789,-0.252229364033705,-0.03203722724012713
-4.028,0.2701682322138151,-0.2204394488182123,-0.03203722724012713
-4.0275,0.1101156093487211,-0.2310360872233701,-0.03203722724012713
-4.027,0.04609456020262521,-0.2840192792492073,-0.000287995007579752
-4.0265,0.05676473506029815,-0.3370024712749963,0.03146123722493875
-4.026,0.03542438534494258,-0.3581957480853793,0.03146123722496762
-4.0255,0.00341386077189465,-0.3475991096802118,0.0208781598141185
-4.025,-0.01792648894345122,-0.3052125560595806,0.010295082403279
-4.0245,-0.07127736323214585,-0.2628260024385736,-0.0108710724184385
-4.024,-0.3593720843893152,0.06566978812131802,-0.021454149829278
-4.0235,-1.020922925565037,0.7226613692411012,-0.0320372272401175
-4.023,-1.703814116457755,1.231300012689687,-0.04262030465099551
-4.0225,-2.173301810195364,1.178316820663898,-0.0637864594726745
-4.022,-1.778505340461465,0.6802748156214821,-0.0637864594726745
-4.0215,-1.116954499284288,0.3305857482503689,-0.05320338206181575
-4.021,-0.572775581542968,0.1822328105781598,-0.04262030465097626
-4.0205,-0.2099896363817582,0.1928294489833272,-0.04262030465097626
-4.02,-0.02859666380108535,0.2776025562247727,-0.04262030465097626
-4.0195,0.04609456020262521,0.3941655786815084,-0.04262030465097626
-4.019,0.05676473506030786,0.5107286011383502,-0.04262030465097626
-4.0185,0.03542438534496199,0.6272916235950859,-0.06378645947265525
-4.018,0.01408403562957729,0.7120647308365314,-0.1167018465269201
-4.0175,-0.007256314085787988,0.7544512844572011,-0.1272849239377692
-4.017,-0.01792648894346092,0.7650479228623589,-0.1167018465269297
-4.0165,-0.007256314085690943,0.7438546460519374,-0.09553569170520264
-4.016,0.09944543449103843,0.6378882620003594,-0.07436953688352363
-4.0155,0.6222840025170122,0.139846256957943,-0.06378645947268413
-4.015,0.9850699476786007,-0.5807251545944641,-0.05320338206181575
-4.0145,0.8783681991018712,-1.205926820498774,-0.04262030465097626
-4.014,0.8250173248135065,-1.364876396576141,-0.03203722724013675
-4.0135,0.8783681991018809,-1.015187329205336,-0.02145414982928762
-4.013,0.8890383739595538,-0.5489352393783931,-0.03203722724012713
-4.0125,0.8036769750980928,-0.2628260024388724,-0.03203722724012713
-4.012,0.590273477944236,-0.1356663415768536,-0.03203722724012713
-4.0115,0.3661998059331045,-0.1250697031716958,-0.03203722724012713
-4.011,0.1741366584948169,-0.1886495336027004,-0.03203722724012713
-4.0105,0.06743490991808755,-0.2840192792491205,-0.02145414982928762
-4.01,0.1741366584948169,-0.474758770542221,0.0208781598141185
-4.0095,0.2168173579255475,-0.5489352393783931,0.03146123722496762
-4.009,0.1527963087795099,-0.5171453241629197,0.02087815981412813
-4.0085,0.07810508477560521,-0.4429688553266609,0.01029508240325012
-4.008,0.00341386077189465,-0.3793890248957141,-0.01087107241842888
-4.0075,-0.3060212101006205,-0.07208651114613812,-0.02145414982926837
-4.007,-0.9995825758508268,0.5955017083802678,-0.03203722724012713
-4.0065,-1.607782542738184,1.231300012689736,-0.03203722724012713
-4.006,-2.07727023647622,1.580989080060261,-0.05320338206182537
-4.0055,-2.429386006779437,1.019367244585645,-0.074369536883514
-4.005,-2.087940411333903,0.2034260873884947,-0.0637864594726745
-4.0045,-1.298347471865388,-0.08268314955102604,-0.04262030465097626
-4.004,-0.6688071552617333,-0.05089323433536954,-0.04262030465097626
-4.0035,-0.2526703358124887,0.1186529801471552,-0.04262030465097626
-4.003,-0.02859666380115328,0.3305857482505039,-0.04262030465097626
-4.0025,0.05676473506023022,0.5213252395433441,-0.04262030465097626
-4.002,0.0674349099179905,0.6696781772158616,-0.05320338206182537
-4.0015,0.04609456020262521,0.775644561267536,-0.106118769116071
-4.001,0.02475421048727934,0.8498210301036405,-0.12728492393775
-4.0005,0.00341386077189465,0.8710143069140236,-0.12728492393775
-4,0.00341386077189465,0.849821030103708,-0.106118769116071
-3.9995,0.04609456020262521,0.7438546460520338,-0.09553569170522189
-3.999,0.2381577076409128,0.5107286011383502,-0.0637864594726745
-3.9985,0.6969752265212663,-0.08268314955102604,-0.0637864594726745
-3.998,0.9317190733902845,-0.7820612842920766,-0.05320338206182537
-3.9975,1.059761171682476,-1.269506650929778,-0.03203722724012713
-3.997,1.134452395686255,-1.025783967610927,-0.021454149829278
-3.9965,1.102441871113207,-0.5383386009732256,-0.021454149829278
-3.996,0.974399772821015,-0.1886495336027004,-0.03203722724012713
-3.9955,0.7396559259519968,-0.05089323433552374,-0.03203722724012713
-3.995,0.4942419042252961,-0.07208651114585861,-0.03203722724012713
-3.9945,0.2808384070716433,-0.1780528951975329,-0.03203722724012713
-3.994,0.1207857842064037,-0.2840192792492073,-0.03203722724012713
-3.9935,0.1207857842064037,-0.3687923864905467,0.01029508240326937
-3.993,0.1314559590640864,-0.4111789401112165,0.03146123722496762
-3.9925,0.08877525963335578,-0.4641621321370536,0.0208781598141185
-3.992,0.03542438534494258,-0.4853554089473885,0.0208781598141185
-3.9915,-0.01792648894347063,-0.4535654937318862,-0.000287995007579752
-3.991,-0.1032878878049318,-0.3793890248957141,-0.021454149829278
-3.9905,-0.5834457564006506,0.1186529801471552,-0.03203722724012713
-3.99,-1.223656247861609,0.7968378380778709,-0.03203722724012713
-3.9895,-1.661133417026597,1.125333628638062,-0.05320338206182537
-3.989,-2.151961460479999,0.7862411996727035,-0.07436953688352363
-3.9885,-2.045259711903173,0.1080563417419877,-0.0637864594726745
-3.988,-1.362368521011484,-0.1356663415768632,-0.04262030465097626
-3.9875,-0.754168554123573,-0.07208651114585861,-0.04262030465097626
-3.987,-0.3166913849585846,0.1186529801471552,-0.04262030465097626
-3.9865,-0.07127736323188383,0.3305857482505039,-0.04262030465097626
-3.986,0.03542438534494258,0.5213252395435176,-0.04262030465097626
-3.9855,0.0674349099179905,0.6696781772158616,-0.05320338206182537
-3.985,0.04609456020262521,0.775644561267536,-0.08495261429437276
-3.9845,0.02475421048725994,0.8392243916985406,-0.1272849239377692
-3.984,-0.007256314085787988,0.8604176685088755,-0.1272849239377692
-3.9835,-0.007256314085787988,0.8604176685088755,-0.1167018465269201
-3.983,0.00341386077189465,0.8074344764830383,-0.09553569170522189
-3.9825,0.1741366584948169,0.6378882620003594,-0.07436953688352363
-3.982,0.7183155762366316,0.04447651131098315,-0.0637864594726745
-3.9815,0.9957401225363802,-0.6866915386455698,-0.0637864594726745
-3.981,1.113112045970889,-1.110557074852267,-0.03203722724012713
-3.9805,1.241154144263081,-0.8668343915334161,-0.021454149829278
-3.98,1.219813794547716,-0.5595318777835605,-0.03203722724012713
-3.9795,1.081101521397841,-0.3581957480853793,-0.03203722724012713
-3.979,0.8356874996711408,-0.2946159176543747,-0.03203722724012713
-3.9785,0.5689331282290746,-0.252229364033705,-0.03203722724012713
-3.978,0.3128489316446912,-0.2628260024388724,-0.03203722724012713
-3.9775,0.1314559590640864,-0.326405832869877,-0.03203722724012713
-3.977,0.05676473506030786,-0.4429688553267188,-0.01087107241842888
-3.9765,0.07810508477567314,-0.5807251545938954,0.0208781598141185
-3.976,0.05676473506030786,-0.570128516188728,0.03146123722496762
-3.9755,0.02475421048725994,-0.4959520473525559,0.0208781598141185
-3.975,-0.01792648894347063,-0.4323722169215513,0.01029508240326937
-3.9745,-0.06060718837420119,-0.3581957480853793,-0.01087107241842888
-3.974,-0.4447334832507763,0.01268659609548085,-0.03203722724012713
-3.9735,-1.148965023857831,0.701468092431364,-0.03203722724012713
-3.973,-1.725154466172693,1.29487984312074,-0.04262030465097626
-3.9725,-1.949228138184029,1.411442865577582,-0.0637864594726745
-3.972,-1.479740444445993,1.019367244586387,-0.05320338206182537
-3.9715,-0.8928808272734472,0.5849050699745222,-0.05320338206182537
-3.971,-0.4340633083930936,0.3199891098453364,-0.04262030465097626
-3.9705,-0.1352984123779797,0.2246193641988295,-0.04262030465097626
-3.97,0.00341386077189465,0.2670059178194992,-0.04262030465097626
-3.9695,0.04609456020262521,0.383568940276341,-0.04262030465097626
-3.969,0.04609456020262521,0.5319218779486851,-0.04262030465097626
-3.9685,0.03542438534494258,0.6802748156210291,-0.0637864594726745
-3.968,0.00341386077189465,0.7968378380778709,-0.1167018465269201
-3.9675,-0.007256314085787988,0.8710143069140429,-0.1272849239377692
-3.967,-0.01792648894347063,0.9134008605347127,-0.1167018465269201
-3.9665,-0.007256314085787988,0.9134008605347127,-0.106118769116071
-3.966,0.1101156093487211,0.7650479228623686,-0.08495261429437276
-3.9655,0.6436243522328531,0.2140227257936621,-0.0637864594726745
-3.965,1.059761171682476,-0.4641621321370536,-0.0637864594726745
-3.9645,0.942389248247967,-0.8562377531282487,-0.04262030465097626
-3.964,0.8356874996711408,-0.9833974139902578,-0.03203722724012713
-3.9635,0.8783681991018712,-0.7396747306714069,-0.03203722724012713
-3.963,0.8997085488172365,-0.3793890248957141,-0.03203722724012713
-3.9625,0.8356874996711408,-0.1356663415768632,-0.03203722724012713
-3.962,0.6542945270905358,-0.06148987274069118,-0.03203722724012713
-3.9615,0.4515612047945656,-0.1462629799820306,-0.04262030465097626
-3.961,0.2701682322139607,-0.2946159176543747,-0.03203722724012713
-3.9605,0.1314559590640864,-0.400582301706049,-0.03203722724012713
-3.96,0.1207857842064037,-0.4217755785163839,0.0208781598141185
-3.9595,0.1101156093487211,-0.4429688553267188,0.03146123722496762
-3.959,0.05676473506030786,-0.4959520473525559,0.0208781598141185
-3.9585,0.01408403562957729,-0.5171453241628908,0.01029508240326937
-3.958,-0.01792648894347063,-0.5171453241628908,-0.000287995007579752
-3.9575,-0.2099896363817582,-0.3475991096802118,-0.021454149829278
-3.957,-0.8181896032696687,0.2881991946298341,-0.03203722724012713
-3.9565,-1.415719395299897,0.9451907757502149,-0.03203722724012713
-3.956,-1.917217613610981,1.263089927905238,-0.05320338206182537
-3.9555,-2.23732285934146,0.7862411996727035,-0.07436953688352363
-3.955,-1.693143941599645,0.2670059178194992,-0.05320338206182537
-3.9545,-1.020922925565639,0.05507314971615059,-0.04262030465097626
-3.954,-0.4980843575391895,0.06566978812131802,-0.04262030465097626
-3.9535,-0.156638762093345,0.1822328105781598,-0.04262030465097626
-3.953,0.00341386077189465,0.3411823866556712,-0.05320338206182537
