Class_8_Think_right_hand_movement/Class_8_Think_Right_hand_mouvement_Suko_8.csv

#Digilent WaveForms Oscilloscope Acquisition
#Device Name: EExplorer
#Serial Number: SN:210151A2B84A
#Date Time: 2021-02-03 11:39:00.803
#Sample rate: 2000Hz
#Samples: 16384
#Trigger: Source: Channel 1 Type: Edge Condition: Rising Level: 0 V Hyst.: Auto HoldOff: 0 s
#Channel 1: Range: 1 V/div Offset: 0 V Attenuation: 1 X
#Channel 2: Range: 1 V/div Offset: 0 V Attenuation: 1 X
#Power Supplies: ON
#Fixed Supply: ON
#Voltage: 3.3 V Readback: 3.324 V
#Positive Supply: ON
#Voltage: 3.7 V Readback: 3.716 V
#Current: 40 mA Readback: 19 mA
#Negative Supply: ON
#Voltage: -3.7 V Readback: -3.349 V
#Current: -40 mA Readback: -9 mA
#Reference 1: ON
#Voltage: 0 V
#Reference 2: ON
#Voltage: 0 V

Time (s),Channel 1 (V),Channel 2 (V)
-4.096,0.6969752265212663,0.3517790250608387
-4.0955,1.017080472251454,0.2458126410092608
-4.095,1.038420821966994,-0.029699957525478
-4.0945,0.9103787236749192,-0.3475991096802118
-4.094,0.7503261008098251,-0.5701285161885256
-4.0935,0.750326100809796,-0.5383386009730039
-4.093,0.8783681991018712,-0.2946159176543747
-4.0925,0.8036769750981607,-0.2310360872234279
-4.092,0.6756348768057749,-0.2098428104129871
-4.0915,0.5369226036560266,-0.1568596183871981
-4.091,0.4408910299368829,-0.02969995752518888
-4.0905,0.4088805053636215,0.1080563417418432
-4.09,0.1741366584948169,-0.05089323433552374
-4.0895,-0.4874141826815069,-0.5171453241628908
-4.089,-1.159635198714902,-0.813851199507309
-4.0885,-1.618452717595867,-0.7396747306714069
-4.088,-2.066600061618538,-0.7078848154559045
-4.0875,-2.290673733629669,-0.6866915386455891
-4.087,-2.077270236475434,-0.4535654937312501
-4.0865,-1.212986073003927,0.2458126410091644
-4.086,-0.4767440078244939,0.9769806909650522
-4.0855,0.0354243853451949,1.485619334413975
-4.085,0.3128489316446912,1.729342017732605
-4.0845,0.3982103305060748,1.761131932948079
-4.084,0.3768699807907289,1.665762187301437
-4.0835,0.3128489316446912,1.485619334413754
-4.083,0.2701682322139607,1.263089927905238
-4.0825,0.2168173579251787,1.040560521396471
-4.082,-0.1886492866663929,0.7650479228623686
-4.0815,-0.807519428411986,0.2881991946298341
-4.081,-1.180975548430539,-0.4853554089466849
-4.0805,-1.116954499284783,-0.9198175835592532
-4.08,-0.3487019095316325,-0.4323722169215513
-4.0795,0.4302208550784918,-0.09327978795650188
-4.079,0.899708548817382,-0.008506680714960026
-4.0785,1.059761171682476,-0.1250697031716958
-4.078,0.9850699476787657,-0.2734226408439049
-4.0775,0.8570278493863992,-0.5065486857579161
-4.077,0.7396559259519968,-0.718481453861072
-4.0765,0.7609962756673428,-0.8774310299384389
-4.076,0.7183155762366121,-0.8880276683436739
-4.0755,0.6969752265212663,-0.8032545611024114
-4.075,0.6222840025174878,-0.6231117082145651
-4.0745,0.5262524287982956,-0.4005823017058274
-4.074,0.4729015545099309,-0.1568596183871981
-4.0735,0.7289857510943143,0.1080563417419877
-4.073,0.7930068002403519,0.002089957690409802
-4.0725,0.05676473506030786,-0.474758770542221
-4.072,-0.7434983792658902,-0.718481453861072
-4.0715,-1.415719395299285,-0.8562377531281233
-4.071,-2.066600061618683,-0.8880276683436257
-4.0705,-2.226652684483777,-0.7502713690765743
-4.07,-1.533091318735037,-0.1144730647671066
-4.0695,-0.7328282044076641,0.7014680924319519
-4.069,-0.1352984123779797,1.347863035146577
-4.0685,0.2274875327832301,1.718745379327438
-4.068,0.3875401556484794,1.856501678594585
-4.0675,0.3982103305061524,1.824711763379112
-4.067,0.3448594562177392,1.697552102517103
-4.0665,0.2915085819292969,1.506812611223886
-4.066,0.2594980573562781,1.284283204715573
-4.0655,0.04609456020262521,0.92399749893988
-4.065,-0.5300948821117133,0.08686306493241425
-4.0645,-0.8928808272734472,-0.792657922697244
-4.064,-1.031593100423322,-1.481439419033127
-4.0635,-0.7541685541238252,-1.386069673386707
-4.063,-0.08194753808903274,-0.8350444763176632
-4.0625,0.5049120790829789,-0.5595318777835605
-4.062,0.8356874996708399,-0.4959520473526138
-4.0615,0.931719073390236,-0.5595318777837051
-4.061,0.8783681991018712,-0.718481453861072
-4.0605,0.7609962756673623,-0.8244478379127463
-4.06,0.825017324813526,-0.9304142219644592
-4.0595,0.8997085488172365,-0.9728007755850904
-4.059,0.8036769750980928,-0.8350444763179138
-4.0585,0.6542945270906717,-0.6337083466199156
-4.058,0.5369226036560266,-0.4217755785163839
-4.0575,0.4515612047945656,-0.2204394488182027
-4.057,0.2701682322141257,-0.2628260024388338
-4.0565,-0.3593720843893152,-0.7290780922662394
-4.056,-1.020922925565639,-1.205926820498774
-4.0555,-1.575772018164632,-1.492036057438034
-4.055,-2.130621110764789,-1.545019249464007
-4.0545,-2.301343908487556,-1.407262950196955
-4.054,-2.215982509626172,-1.099960436447379
-4.0535,-1.426389570156851,-0.3475991096794312
-4.053,-0.6261264558313813,0.5107286011383502
-4.0525,-0.04993701351651855,1.146526905448396
-4.052,0.2808384070717695,1.517409249629381
-4.0515,0.4195506802215176,1.655165548896433
-4.051,0.4515612047945656,1.644568910491266
-4.0505,0.4302208550792198,1.52800588803453
-4.05,0.3875401556484697,1.369056311956912
-4.0495,0.3448594562177392,1.188913459069066
-4.049,0.2488278824986827,0.9875773293710678
-4.0485,-0.2846808603860219,0.4365521323014072
-4.048,-0.8181896032696687,-0.4111789401112165
-4.0475,-1.202315898145895,-1.152943628472262
-4.047,-1.116954499284132,-1.163540266877565
-4.0465,-0.4020527838200457,-0.570128516188728
-4.046,0.3235191065017139,-0.1674562567927317
-4.0455,0.7930068002405654,-0.1462629799821559
-4.045,0.9637295979633325,-0.2840192792492073
-4.0445,0.9317190733902845,-0.5065486857577234
-4.044,0.8143471499557462,-0.7184814538611972
-4.0435,0.7823366253827275,-0.8562377531282487
-4.043,0.8997085488172365,-0.9833974139902578
-4.0425,0.8356874996711989,-0.8986243067489954
-4.042,0.707645401378949,-0.6972881770507372
-4.0415,0.5796033030867573,-0.4641621321370536
-4.041,0.5049120790830468,-0.2204394488184243
-4.0405,0.4942419042254223,0.08686306493212513
-4.04,0.6329541773751706,0.6060983467848571
-4.0395,0.3128489316449824,0.4365521323023324
-4.039,-0.4554036581089926,-0.1144730647666344
-4.0385,-1.042263275281004,-0.2310360872233701
-4.038,-1.575772018164651,-0.5065486857574728
-4.0375,-2.109280761049171,-0.7714646458868707
-4.037,-2.002579012472442,-0.7290780922662394
-4.0365,-1.202315898146244,-0.1038764263613609
-4.036,-0.4874141826810411,0.6272916235957124
-4.0355,0.02475421048725994,1.199510097474233
-4.035,0.3021787567870086,1.528005888034424
-4.0345,0.398210330506065,1.665762187301475
-4.034,0.3768699807907871,1.655165548896433
-4.0335,0.3128489316446912,1.570392441655093
-4.033,0.2701682322139995,1.432636142388042
-4.0325,0.2381577076405925,1.263089927904804
-4.032,-0.1139580626626144,0.7862411996727035
-4.0315,-0.7221580295499719,-0.125069703170867
-4.031,-1.266336947292447,-0.9833974139905373
-4.0305,-1.383708870726849,-1.290699927740113
-4.03,-0.6581369804050889,-0.898624306749275
-4.0295,0.1421261339222736,-0.5171453241627078
-4.029,0.6969752265212663,-0.3158091944647096
-4.0285,0.9637295979633325,-0.252229364033705
-4.028,0.9743997728208985,-0.3581957480855335
-4.0275,0.8463576745288233,-0.5277419625680583
-4.027,0.7396559259519968,-0.6549016234300674
-4.0265,0.8463576745287262,-0.5595318777836472
-4.026,0.825017324813458,-0.5277419625680583
-4.0255,0.8676980242441885,-0.6443049850249
-4.025,0.8463576745288427,-0.6654982618352155
-4.0245,0.7076454013788229,-0.4853554089471476
-4.024,0.5689331282290746,-0.2204394488182027
-4.0235,0.7823366253825335,0.1504428953623201
-4.023,1.00641029739352,0.2034260873881188
-4.0225,0.408880505363835,-0.2098428104130352
-4.022,-0.5087545323960375,-0.4747587705419801
-4.0215,-1.373038695869826,-0.6549016234301541
-4.021,-2.098610586191586,-0.7502713690765743
-4.0205,-2.07727023647622,-0.5383386009732256
-4.02,-1.26633694729167,0.1716361721736959
-4.0195,-0.5300948821122373,0.9451907757502149
-4.019,-0.007256314085787988,1.496215972818921
-4.0185,0.2915085819290543,1.79292184816334
-4.018,0.408880505363835,1.877694955404949
-4.0175,0.3982103305061524,1.803518486568777
-4.017,0.3555296310754606,1.655165548896568
-4.0165,0.3021787567869795,1.45382941919805
-4.016,0.2701682322139607,1.231300012689736
-4.0155,0.216817357925596,0.9451907757504752
-4.015,-0.01792648894375206,0.3093924714394172
-4.0145,-0.3273615598162672,-0.5171453241628908
-4.014,-0.6261264558311095,-1.152943628472359
-4.0135,-0.4233931335348967,-1.068170521231241
-4.013,0.142126133921769,-0.6760949002404023
-4.0125,0.6329541773751706,-0.4641621321370536
-4.012,0.8890383739596119,-0.453565493731944
-4.0115,0.9530594231056497,-0.5171453241628908
-4.011,0.857027849386506,-0.6231117082145651
-4.0105,0.7396559259521036,-0.7714646458867743
-4.01,0.79300680024041,-0.9198175835592532
-4.0095,0.9103787236749192,-0.9092209451540858
-4.009,0.8356874996712087,-0.7396747306715611
-4.0085,0.6863050516634673,-0.5171453241626788
-4.008,0.5582629533713921,-0.2840192792492073
-4.0075,0.4622313796523355,-0.05089323433573575
-4.007,0.451561204794682,0.1610395337677478
-4.0065,0.5796033030867573,0.07626642652648545
-4.006,0.04609456020262521,-0.4323722169215513
-4.0055,-0.7648387289819445,-0.8986243067491401
-4.005,-1.522421143876723,-1.142346990067769
-4.0045,-2.183971985053047,-1.184733543688439
-4.004,-2.301343908487129,-1.057573882825958
-4.0035,-1.83185621474952,-0.5383386009732256
-4.003,-0.9462317015618604,0.2987958330350016
-4.0025,-0.2740106855284654,1.008770606180574
-4.002,0.1527963087794516,1.443232780793084
-4.0015,0.3661998059331045,1.633972272086098
-4.001,0.4088805053637962,1.633972272086098
-4.0005,0.3768699807907289,1.52800588803427
-4,0.3128489316446912,1.358459673551745
-3.9995,0.2594980573562781,1.157123543853563
-3.999,0.1741366584948169,0.92399749893988
-3.9985,-0.3700422592469978,0.2987958330350016
-3.998,-1.031593100423322,-0.570128516188728
-3.9975,-1.501080794161358,-1.280103289334946
-3.997,-1.447729919872945,-1.290699927740113
-3.9965,-0.6794773301197943,-0.8456411147230812
-3.996,0.1207857842064037,-0.4535654937318862
-3.9955,0.6649647019482183,-0.2840192792492073
-3.995,0.8783681991018712,-0.3158091944647096
-3.9945,0.8890383739595538,-0.4111789401112165
-3.994,0.7823366253827275,-0.5595318777835605
-3.9935,0.7183155762366316,-0.6972881770507372
-3.993,0.8143471499557753,-0.8562377531282487
-3.9925,0.7396559259519968,-0.792657922697244
-3.992,0.6116138276598051,-0.6019184314042303
-3.9915,0.4942419042252961,-0.3687923864905467
-3.991,0.4195506802215176,-0.1250697031716958
-3.9905,0.4515612047945656,0.08686306493165288
-3.99,0.6969752265212663,0.01268659609548085
-3.9895,0.3875401556484697,-0.4323722169215513
-3.989,-0.2099896363817582,-0.8244478379127463
-3.9885,-0.8608703027003992,-1.004590690800593
-3.988,-1.543761493592088,-1.025783967610927
-3.9875,-2.098610586191586,-0.9304142219644207
-3.987,-1.703814116457328,-0.4429688553267188
-3.9865,-0.9355615267041777,0.3729723018711736
-3.986,-0.2953510352432193,1.082947075017392
-3.9855,0.1314559590640864,1.528005888034424
-3.985,0.3448594562177392,1.70814874092227
-3.9845,0.4195506802215176,1.70814874092227
-3.984,0.3875401556484697,1.591585718465428
-3.9835,0.3448594562177392,1.400846227172415
-3.983,0.3235191065023739,1.178316820663898
-3.9825,0.3021787567870086,0.9663840525605498
-3.982,0.142126133921769,0.6696781772158616
-3.9815,-0.3700422592469978,0.06566978812131802
-3.981,-0.7755089038389382,-0.7078848154559045
-3.9805,-0.8608703027003992,-1.110557074852267
-3.98,-0.2420001609548061,-0.4853554089473885
-3.9795,0.4408910299368829,0.002089957690313421
-3.979,0.8890383739595538,0.002089957690313421
-3.9785,1.070431346540159,-0.1886495336027004
-3.978,1.038420821967111,-0.4429688553267188
-3.9775,0.8997085488172365,-0.6760949002404023
-3.977,0.7609962756673623,-0.8032545611024114
-3.9765,0.8036769750980928,-0.8880276683437509
-3.976,0.7609962756673623,-0.792657922697244
-3.9755,0.6542945270905358,-0.5807251545938954
-3.975,0.5582629533713921,-0.326405832869877
-3.9745,0.4835717293676135,-0.08268314955102604
-3.974,0.4408910299368829,0.1610395337678249
-3.9735,0.6436243522328531,0.5425185163538525
-3.973,0.6436243522328531,0.5213252395435176
-3.9725,-0.1139580626626144,-0.05089323433552374
-3.972,-0.9035510021311299,-0.5171453241628908
-3.9715,-1.554431668449771,-0.8138511995075789
-3.971,-2.151961460479999,-0.9410108603695881
-3.9705,-2.269333383914508,-0.8986243067489184
-3.97,-1.639793067311232,-0.3581957480853793
-3.9695,-0.7968492535543035,0.4153588554918433
-3.969,-0.1779791118087102,1.051157159801889
-3.9685,0.2061471830678648,1.42203950398275
-3.968,0.3768699807907871,1.559795803249926
-3.9675,0.3875401556484697,1.517409249629256
-3.967,0.3448594562177392,1.390249588767247
-3.9665,0.2808384070716433,1.210106735879401
-3.966,0.2381577076409128,1.00877060618122
-3.9655,0.05676473506030786,0.7120647308365314
-3.965,-0.5514352318276028,-0.02969995752518888
-3.9645,-1.074273799854052,-0.8456411147230812
-3.964,-1.277007122150022,-1.439052865412457
-3.9635,-0.7328282044082075,-1.068170521231597
-3.963,0.03542438534494258,-0.4641621321370536
-3.9625,0.6329541773751706,-0.1144730647665284
-3.962,0.9530594231056497,-0.05089323433552374
-3.9615,1.006410297394063,-0.1886495336027004
-3.961,0.8997085488172365,-0.326405832869877
-3.9605,0.7503261008096795,-0.5065486857577234
-3.96,0.7503261008096795,-0.6549016234300674
-3.9595,0.7716664505250448,-0.7714646458869092
-3.959,0.6756348768059011,-0.7396747306714069
-3.9585,0.5475927785137094,-0.6231117082145651
-3.958,0.4515612047945656,-0.4323722169215513
-3.9575,0.3875401556484697,-0.1992461720078678
-3.957,0.5475927785137094,0.03387987290581572
-3.9565,0.9530594231056497,-0.008506680714854012
-3.956,0.5049120790829789,-0.4429688553267188
-3.9555,-0.2633405106701714,-0.8138511995075789
-3.955,-1.095614149569417,-1.004590690800593
-3.9545,-1.842526389607202,-1.004590690800593
-3.954,-2.23732285934146,-0.8562377531282487
-3.9535,-1.629122892453549,-0.2204394488182027
-3.953,-0.8181896032696687,0.627291623595192
-3.9525,-0.1993194615240755,1.305476481525908
-3.952,0.1848068333524996,1.718745379327438
-3.9515,0.3768699807907871,1.877694955404949
-3.951,0.3982103305061524,1.856501678594614
-3.9505,0.3555296310754218,1.718745379327438
-3.95,0.3235191065023739,1.528005888034424
-3.9495,0.3128489316446912,1.305476481525908
-3.949,0.2594980573562781,1.072350436612224
-3.9485,-0.2633405106701714,0.5743084315693548
-3.948,-0.8181896032696687,-0.3052125560595421
-3.9475,-1.159635198715513,-1.0999604364471
-3.947,-1.180975548430879,-1.449649503817625
-3.9465,-0.4980843575391895,-1.05757388282643
-3.946,0.2168173579255475,-0.6866915386455698
-3.9455,0.7289857510943143,-0.4641621321370536
-3.945,0.9530594231056497,-0.3687923864905467
-3.9445,0.9317190733902845,-0.4111789401112165
-3.944,0.825017324813458,-0.4641621321370536
-3.9435,0.7609962756673623,-0.570128516188728
-3.943,0.8356874996711408,-0.7502713690765743
-3.9425,0.7396559259519968,-0.8244478379127463
-3.942,0.6222840025174878,-0.792657922697244
-3.9415,0.5262524287983441,-0.6760949002404023
-3.941,0.4622313796522482,-0.5171453241628908
-3.9405,0.4195506802215176,-0.3899856633008816
-3.94,0.142126133921769,-0.6654982618352349
-3.9395,-0.4554036581084589,-1.078767159636765
-3.939,-1.042263275281004,-1.396666311791788
-3.9385,-1.607782542738184,-1.502632695843462
-3.938,-2.162631635337682,-1.38606967338662
-3.9375,-2.312014083345239,-1.163540266878104
-3.937,-2.045259711903173,-0.7290780922662394
-3.9365,-1.159635198715513,0.1292496185523226
-3.936,-0.423393133535411,0.9451907757502149
-3.9355,0.0674349099179905,1.506812611224089
-3.935,0.3341892813600565,1.79292184816361
-3.9345,0.408880505363835,1.867098316999781
-3.934,0.3768699807907871,1.814115124973944
-3.9335,0.3235191065023739,1.6657621873016
-3.933,0.2808384070716433,1.475022696008586
-3.9325,0.2274875327832301,1.273686566310405
-3.932,-0.124628237520297,0.8392243916985406
-3.9315,-0.7434983792658902,-0.05089323433552374
-3.931,-1.191645723288561,-0.9198175835592532
-3.9305,-1.234326422719292,-1.322489842955616
-3.93,-0.6047861061160158,-0.8668343915334161
-3.9295,0.1314559590640864,-0.3158091944647096
-3.929,0.6649647019482183,-0.06148987274069118
-3.9285,0.9103787236749192,-0.1674562567923655
-3.928,0.9317190733902845,-0.4217755785163839
-3.9275,0.8143471499557753,-0.6549016234300674
-3.927,0.6863050516635838,-0.8668343915334161
-3.9265,0.7716664505250448,-1.036380606016095
-3.926,0.7716664505250448,-0.9939940523954253
-3.9255,0.6542945270905358,-0.792657922697244
-3.925,0.5262524287983441,-0.5383386009732256
-3.9245,0.4515612047945656,-0.2840192792492073
-3.924,0.4195506802215176,-0.05089323433552374
-3.9235,0.2808384070716433,-0.1462629799820306
-3.923,-0.3487019095316325,-0.6443049850249
-3.9225,-1.020922925565639,-1.089363798041932
-3.922,-1.618452717595867,-1.311893204550448
-3.9215,-2.173301810195364,-1.322489842955616
-3.921,-2.301343908487556,-1.174136905283272
-3.9205,-2.19464215991073,-0.8668343915334161
-3.92,-1.373038695869166,-0.1144730647665284
-3.9195,-0.5834457564006506,0.701468092431364
-3.919,-0.02859666380115328,1.305476481525908
-3.9185,0.291508581929326,1.623375633680931
-3.918,0.408880505363835,1.718745379327438
-3.9175,0.3875401556484697,1.6657621873016
-3.917,0.3341892813600565,1.517409249629256
-3.9165,0.2701682322139607,1.33726639674141
-3.916,0.2488278824985954,1.135930267043229
-3.9155,0.142126133921769,0.8922075837243778
-3.915,-0.3700422592469978,0.2140227257936621
-3.9145,-0.839529952985034,-0.6443049850249
-3.914,-1.031593100423322,-1.322489842955616
-3.9135,-0.807519428411986,-1.481439419033127
-3.913,-0.1032878878049318,-1.046977244421262
-3.9125,0.5049120790829789,-0.5489352393783931
-3.912,0.8463576745288233,-0.3370024712750445
-3.9115,0.942389248247967,-0.3052125560595421
-3.911,0.8783681991018712,-0.3475991096802118
-3.9105,0.7503261008096795,-0.4429688553267188
-3.91,0.79300680024041,-0.3687923864905467
-3.9095,0.8997085488172365,-0.1780528951975329
-3.909,0.79300680024041,-0.1992461720078678
-3.9085,0.6436243522328531,-0.2628260024388724
-3.908,0.5582629533713921,-0.2946159176543747
-3.9075,0.5155822539406614,-0.2416327256285375
-3.907,0.6329541773751706,0.05507314971615059
-3.9065,0.974399772821015,0.4365521323021782
-3.906,0.4515612047945656,0.05507314971615059
-3.9055,-0.4340633083930936,-0.5171453241628908
-3.905,-1.212986073003927,-0.8986243067489184
-3.9045,-1.906547438753298,-1.0999604364471
-3.904,-2.280003558772191,-1.110557074852267
-3.9035,-2.013249187330125,-0.7290780922662394
-3.903,-1.127624674142465,0.09745970333682032
-3.9025,-0.4127229586777283,0.8922075837243778
-3.902,0.07810508477567314,1.443232780793084
-3.9015,0.3341892813600565,1.739938656137773
-3.901,0.408880505363835,1.824711763379112
-3.9005,0.3875401556484697,1.771728571353275
-3.9,0.3235191065023739,1.644568910491266
-3.8995,0.291508581929326,1.475022696008586
-3.899,0.2168173579255475,1.263089927905238
-3.8985,-0.2633405106701714,0.6484849004055269
-3.898,-0.8288597781273515,-0.3052125560595421
-3.8975,-1.180975548430879,-1.121153713257435
-3.897,-1.223656247861609,-1.650985633515806
-3.8965,-0.658136980404429,-1.322489842955616
-3.896,0.04609456020262521,-0.7396747306714069
-3.8955,0.5902734779444399,-0.400582301706049
-3.895,0.857027849386506,-0.3158091944647096
-3.8945,0.857027849386506,-0.3793890248957141
-3.894,0.7716664505250448,-0.5489352393783931
-3.8935,0.707645401378949,-0.7290780922662394
-3.893,0.8036769750980928,-0.9198175835592532
-3.8925,0.7396559259519968,-0.8774310299385835
-3.892,0.6329541773751706,-0.718481453861072
-3.8915,0.5262524287983441,-0.5171453241628908
-3.891,0.4408910299368829,-0.3158091944647096
-3.8905,0.4622313796522482,-0.2310360872233701
-3.89,0.6009436528021226,-0.4641621321370536
-3.8895,0.2808384070716433,-0.8562377531282487
-3.889,-0.4020527838200457,-1.227120097309109
-3.8885,-1.138294849000148,-1.42845622700729
-3.888,-1.83185621474952,-1.439052865412457
-3.8875,-2.269333383914508,-1.290699927740113
-3.887,-1.981238662757077,-0.8350444763179138
-3.8865,-1.116954499284783,0.01268659609548085
