Class_8_Think_right_hand_movement/Class_8_Think_Right_hand_mouvement_turki_11.csv

#Digilent WaveForms Oscilloscope Acquisition
#Device Name: EExplorer
#Serial Number: SN:210151A2B84A
#Date Time: 2021-02-03 11:26:27.885
#Sample rate: 2000Hz
#Samples: 16384
#Trigger: Source: Channel 1 Type: Edge Condition: Rising Level: 0 V Hyst.: Auto HoldOff: 0 s
#Channel 1: Range: 1 V/div Offset: 0 V Attenuation: 1 X
#Channel 2: Range: 1 V/div Offset: 0 V Attenuation: 1 X
#Power Supplies: ON
#Fixed Supply: ON
#Voltage: 3.3 V Readback: 3.317 V
#Positive Supply: ON
#Voltage: 3.7 V Readback: 3.703 V
#Current: 40 mA Readback: 18 mA
#Negative Supply: ON
#Voltage: -3.7 V Readback: -3.29 V
#Current: -40 mA Readback: -6 mA
#Reference 1: ON
#Voltage: 0 V
#Reference 2: ON
#Voltage: 0 V

Time (s),Channel 1 (V),Channel 2 (V)
-4.096,-0.2420001609548061,-1.004590690800593
-4.0955,0.1421261339214196,-0.6760949002407011
-4.095,0.3555296310754995,-0.442968855326632
-4.0945,0.4408910299368829,-0.3475991096802118
-4.094,0.4729015545099018,-0.3264058328698963
-4.0935,0.5155822539409719,-0.3264058328698674
-4.093,0.857027849386506,-0.3158091944647096
-4.0925,0.9637295979632354,-0.1992461720079738
-4.092,0.8250173248132834,-0.08268314955092003
-4.0915,0.6329541773751706,0.03387987290581572
-4.091,0.4835717293676135,0.1504428953626575
-4.0905,0.3661998059327163,0.1822328105777646
-4.09,-0.06060718837420119,-0.252229364033705
-4.0895,-0.5407650569699201,-0.8456411147230812
-4.089,-0.72215802955036,-1.248313374119077
-4.0885,-1.116954499284783,-1.481439419033127
-4.088,-1.586442193022819,-1.492036057438295
-4.0875,-1.415719395300052,-0.9728007755855627
-4.087,-0.8395299529845487,-0.1038764263606766
-4.0865,-0.3060212101009019,0.6484849004055269
-4.086,0.07810508477532374,1.157123543853101
-4.0855,0.2915085819294037,1.422039503982827
-4.085,0.3768699807907871,1.506812611224089
-4.0845,0.38754015564846,1.475022696008615
-4.084,0.3555296310753927,1.379652950361964
-4.0835,0.3235191065023739,1.25249328950007
-4.083,0.3021787567870086,1.104140351827727
-4.0825,0.2808384070714978,0.9345941373447005
-4.082,0.1207857842064037,0.55311515475902
-4.0815,-0.3807124341046804,-0.2204394488182027
-4.081,-0.8075194284115979,-0.9939940523947217
-4.0805,-1.042263275281004,-1.619195718300304
-4.08,-1.042263275281004,-1.735758740757146
-4.0795,-0.5834457564010678,-1.110557074852836
-4.079,-0.1246282375199865,-0.5277419625677788
-4.0785,0.2168173579255475,-0.2204394488182027
-4.078,0.4088805053636603,-0.1250697031717825
-4.0775,0.4942419042252961,-0.1780528951976486
-4.077,0.4942419042252961,-0.3052125560595421
-4.0765,0.4835717293676232,-0.5489352393781715
-4.076,0.4835717293675747,-0.6337083466195783
-4.0755,0.4408910299368829,-0.4641621321370536
-4.075,0.3982103305061524,-0.2098428104130352
-4.0745,0.366199805933085,0.02328323450082176
-4.074,0.3448594562177392,0.2140227257936621
-4.0735,0.5155822539406614,0.5213252395435176
-4.073,0.7823366253824848,0.5319218779486754
-4.0725,0.3555296310754218,-0.1144730647665284
-4.072,-0.156638762093345,-0.6231117082145651
-4.0715,-0.7221580295500106,-0.9939940523950879
-4.071,-1.287677297007608,-1.258910012524283
-4.0705,-1.180975548430879,-0.8986243067489184
-4.07,-0.7114878546932693,-0.1568596183878728
-4.0695,-0.2420001609544956,0.5213252395439513
-4.069,0.09944543449103843,0.9981739677760521
-4.0685,0.2808384070716433,1.263089927905238
-4.068,0.3661998059331045,1.379652950362089
-4.0675,0.3661998059331045,1.390249588767247
-4.067,0.3448594562177392,1.326669758336243
-4.0665,0.3128489316446718,1.241896651094787
-4.066,0.291508581929326,1.114736990232894
-4.0655,0.2594980573562781,0.8604176685088755
-4.065,-0.07127736323158301,0.1928294489839344
-4.0645,-0.5621054066852853,-0.6549016234300674
-4.064,-0.7648387289812555,-1.333086481360783
-4.0635,-0.5941159312584885,-1.428456227007203
-4.063,-0.2099896363814573,-1.01518732920548
-4.0625,0.1207857842064037,-0.7078848154559045
-4.062,0.3448594562175354,-0.4853554089475909
-4.0615,0.4515612047945947,-0.3264058328699155
-4.061,0.4835717293676135,-0.3687923864905467
-4.0605,0.4835717293676135,-0.4111789401112165
-4.06,0.5796033030869903,-0.5065486857578679
-4.0595,0.8356874996711408,-0.6654982618352349
-4.059,0.8143471499557753,-0.5277419625680583
-4.0585,0.6649647019483542,-0.2734226408442711
-4.058,0.5155822539406614,-0.01910331912002144
-4.0575,0.408880505363835,0.1928294489833272
-4.057,0.3128489316447786,0.4895353243277455
-4.0565,0.1207857842064037,0.8922075837243778
-4.056,-0.274010685527854,0.4365521323021782
-4.0555,-0.6901475049770985,-0.284019279248552
-4.055,-1.052933450139114,-0.7608680074820984
-4.0545,-1.522421143876723,-1.152943628472937
-4.054,-1.522421143876723,-1.08936379804199
-4.0535,-0.9889124009920671,-0.432372216920867
-4.053,-0.4127229586777283,0.3199891098453364
-4.0525,0.00341386077189465,0.8816109453192104
-4.052,0.2488278824986924,1.23130001268989
-4.0515,0.3555296310754218,1.400846227172415
-4.051,0.3768699807907871,1.443232780793084
-4.0505,0.3555296310754412,1.400846227172453
-4.05,0.3235191065023739,1.316073119931075
-4.0495,0.3021787567870086,1.199510097474233
-4.049,0.2701682322139898,1.040560521396867
-4.0485,-0.08194753809019727,0.5001319627323829
-4.048,-0.7755089038389382,-0.3793890248957141
-4.0475,-1.095614149569126,-1.142346990067076
-4.047,-1.148965023857666,-1.746355379162294
-4.0465,-0.9675720512772257,-1.725162102351978
-4.046,-0.4233931335359059,-1.078767159637353
-4.0455,0.05676473506059899,-0.5171453241626209
-4.045,0.3768699807907871,-0.2204394488182027
-4.0445,0.5155822539406614,-0.1462629799820306
-4.044,0.5582629533713727,-0.1992461720079931
-4.0435,0.5369226036560266,-0.3370024712750445
-4.043,0.7396559259519968,-0.5913217929990628
-4.0425,0.8143471499557073,-0.6443049850248518
-4.042,0.707645401378949,-0.474758770542221
-4.0415,0.5689331282290746,-0.2310360872233701
-4.041,0.4515612047946723,0.002089957690101396
-4.0405,0.4302208550790548,0.1716361721727128
-4.04,0.2701682322139607,-0.1356663415768632
-4.0395,-0.4127229586771073,-0.7078848154553841
-4.039,-1.052933450139192,-1.184733543688671
-4.0385,-1.607782542738184,-1.439052865412457
-4.038,-2.087940411333467,-1.449649503817615
-4.0375,-1.693143941598956,-0.919817583558463
-4.037,-0.9355615267041777,-0.05089323433552374
-4.0365,-0.3166913849585846,0.7226613692416989
-4.036,0.09944543449123253,1.241896651095144
-4.0355,0.3128489316446912,1.506812611224089
-4.035,0.3982103305061524,1.580989080060261
-4.0345,0.3982103305061524,1.528005888034472
-4.034,0.3555296310754218,1.411442865577582
-4.0335,0.3235191065023739,1.263089927905238
-4.033,0.2808384070716821,1.104140351827871
-4.0325,0.2274875327830942,0.8498210301033514
-4.032,0.07810508477567314,0.457745409112513
-4.0315,-0.4980843575386655,-0.2840192792485327
-4.031,-0.8181896032696493,-1.015187329206223
-4.0305,-0.7968492535543035,-1.523825972653797
-4.03,-0.4874141826817883,-1.311893204550641
-4.0295,-0.0712773632316024,-0.8350444763175862
-4.029,0.2381577076409128,-0.474758770542221
-4.0285,0.4195506802215176,-0.2840192792492073
-4.028,0.4942419042252864,-0.2734226408441073
-4.0275,0.4835717293676135,-0.3475991096802118
-4.027,0.4515612047945656,-0.4535654937318862
-4.0265,0.547592778513622,-0.4747587705422018
-4.026,0.6436243522328531,-0.4641621321370536
-4.0255,0.5902734779444399,-0.4323722169215513
-4.025,0.5049120790830565,-0.347599109680289
-4.0245,0.4195506802214691,-0.199246172007704
-4.024,0.3661998059331045,-0.01910331912002144
-4.0235,0.5582629533712173,0.3941655786811326
-4.023,0.7076454013784056,0.5319218779481454
-4.0225,0.1101156093487211,-0.06148987274069118
-4.022,-0.4767440078232905,-0.6019184314037388
-4.0215,-1.106284324427546,-0.9622041371800482
-4.021,-1.597112367880501,-1.0999604364471
-4.0205,-1.351698346153801,-0.6019184314042303
-4.02,-0.76483872898078,0.2246193641994945
-4.0195,-0.2420001609548061,0.9557874141553824
-4.019,0.1101156093487211,1.475022696008586
-4.0185,0.3021787567868339,1.75053529454269
-4.018,0.3768699807907871,1.856501678594614
-4.0175,0.3875401556484697,1.845905040189447
-4.017,0.3661998059331239,1.750535294543027
-4.0165,0.3341892813600275,1.612778995275609
-4.016,0.3021787567870086,1.443232780793084
-4.0155,0.2594980573563169,1.178316820664139
-4.015,-0.09261771294757909,0.5001319627323347
-4.0145,-0.4554036581084589,-0.4323722169215513
-4.014,-0.8181896032693388,-1.184733543687755
-4.0135,-0.6901475049770694,-1.428456227006972
-4.013,-0.2420001609548061,-1.078767159636765
-4.0125,0.1207857842064037,-0.7608680074817418
-4.012,0.3448594562178459,-0.5701285161886991
-4.0115,0.4622313796522482,-0.5383386009732256
-4.011,0.4942419042252961,-0.6231117082145651
-4.0105,0.4729015545099503,-0.7078848154558275
-4.01,0.5155822539406614,-0.718481453861072
-4.0095,0.6222840025174878,-0.6972881770507372
-4.009,0.5902734779444689,-0.601918431404317
-4.0085,0.5049120790829109,-0.453565493731732
-4.008,0.4302208550792003,-0.2840192792492073
-4.0075,0.3661998059331627,-0.1038764263615247
-4.007,0.3128489316445845,0.04447651131120482
-4.0065,0.1954770082101822,0.2881991946298341
-4.006,-0.2953510352432193,-0.02969995752518888
-4.0055,-0.8288597781279143,-0.5913217929994483
-4.005,-1.447729919872945,-1.01518732920576
-4.0045,-1.863866739322568,-1.142346990067769
-4.004,-1.437059745014651,-0.612515069808617
-4.0035,-0.7648387289812555,0.2458126410091644
-4.003,-0.2099896363817582,1.00877060618122
-4.0025,0.1421261339214487,1.528005888033951
-4.002,0.3235191065023739,1.814115124973944
-4.0015,0.3982103305061524,1.920081509025619
-4.001,0.3875401556484794,1.898888232215303
-4.0005,0.3661998059330657,1.814115124973819
-4,0.3235191065023739,1.676358825706768
-3.9995,0.3021787567870086,1.485619334413754
-3.999,0.2701682322139607,1.231300012689736
-3.9985,0.05676473506030786,0.6166949851900245
-3.998,-0.4660738329661415,-0.3052125560595421
-3.9975,-0.839529952985034,-1.110557074852267
-3.997,-0.9248913518464952,-1.682775548731308
-3.9965,-0.6688071552621118,-1.449649503817625
-3.996,-0.2526703358124887,-0.9622041371799229
-3.9955,0.1207857842064037,-0.6019184314042303
-3.995,0.3661998059331045,-0.4429688553267188
-3.9945,0.4835717293676135,-0.4959520473525559
-3.994,0.5155822539406614,-0.6125150698093976
-3.9935,0.5155822539406614,-0.7290780922662394
-3.993,0.7183155762366316,-0.8774310299385835
-3.9925,0.79300680024041,-0.8350444763179138
-3.992,0.6863050516635838,-0.6231117082145651
-3.9915,0.5369226036560266,-0.3687923864905467
-3.991,0.4302208550792003,-0.1356663415768632
-3.9905,0.3661998059331045,0.04447651131098315
-3.99,0.5582629533713921,0.2246193641988295
-3.9895,0.4515612047945656,0.01268659609548085
-3.989,-0.07127736323188383,-0.570128516188728
-3.9885,-0.7114878546928423,-1.01518732920576
-3.988,-1.394379045584531,-1.280103289334946
-3.9875,-1.746494815888059,-1.227120097309109
-3.987,-1.298347471865388,-0.5383386009732256
-3.9865,-0.6688071552621118,0.309392471440169
-3.986,-0.156638762093345,0.9875773293708847
-3.9855,0.1741366584948169,1.42203950398275
-3.985,0.3341892813600565,1.623375633680931
-3.9845,0.3875401556484697,1.676358825706768
-3.984,0.3768699807907871,1.623375633680931
-3.9835,0.3448594562177392,1.517409249629256
-3.983,0.3128489316446912,1.369056311956912
-3.9825,0.3021787567870086,1.210106735879401
-3.982,0.1848068333524996,0.9134008605347127
-3.9815,-0.2633405106701714,0.1292496185523226
-3.981,-0.4874141826815069,-0.6972881770507372
-3.9805,-0.6047861061160158,-1.333086481360783
-3.98,-0.6047861061160158,-1.502632695843462
-3.9795,-0.3166913849585846,-1.078767159636765
-3.979,0.03542438534494258,-0.6231117082145651
-3.9785,0.2808384070716433,-0.3581957480853793
-3.978,0.4195506802215176,-0.2416327256285375
-3.9775,0.4622313796522482,-0.2416327256285375
-3.977,0.4515612047945656,-0.3475991096802118
-3.9765,0.4302208550792003,-0.4323722169215513
-3.976,0.4195506802215176,-0.4959520473525559
-3.9755,0.3982103305061524,-0.4853554089473885
-3.975,0.3768699807907871,-0.400582301706049
-3.9745,0.3555296310754218,-0.2628260024388724
-3.974,0.3555296310754218,-0.09327978795619347
-3.9735,0.2488278824985954,-0.1038764263613609
-3.973,-0.1779791118087102,-0.5277419625680583
-3.9725,-0.5941159312583333,-1.01518732920576
-3.972,-1.042263275281004,-1.34368311976595
-3.9715,-1.586442193022819,-1.449649503817625
-3.971,-1.885207089037933,-1.248313374119443
-3.9705,-1.362368521011484,-0.5065486857577234
-3.97,-0.690147504977477,0.3941655786815084
-3.9695,-0.156638762093345,1.104140351827727
-3.969,0.1848068333524996,1.549199164844759
-3.9685,0.3448594562177392,1.761131932948107
-3.968,0.3982103305061524,1.814115124973944
-3.9675,0.3875401556484697,1.75053529454294
-3.967,0.3555296310754218,1.633972272086098
-3.9665,0.3128489316446912,1.464426057603419
-3.966,0.2808384070716433,1.25249328950007
-3.9655,0.2381577076409128,0.9345941373450475
-3.965,0.01408403562957729,0.3623756634660061
-3.9645,-0.2846808603855366,-0.4641621321370536
-3.964,-0.4554036581084589,-1.174136905283272
-3.9635,-0.3593720843893152,-1.205926820498774
-3.963,-0.09261771294724913,-0.8986243067489184
-3.9625,0.1848068333524996,-0.6760949002404023
-3.962,0.3555296310754218,-0.5489352393783931
-3.9615,0.4302208550792003,-0.5489352393783931
-3.961,0.4729015545099309,-0.6231117082145651
-3.9605,0.4729015545099309,-0.718481453861072
-3.96,0.5155822539406614,-0.8138511995075789
-3.9595,0.7503261008096795,-0.9410108603695881
-3.959,0.7609962756673623,-0.7502713690765743
-3.9585,0.6436243522328531,-0.4323722169215513
-3.958,0.5049120790829789,-0.1144730647665284
-3.9575,0.408880505363835,0.1716361721729923
-3.957,0.408880505363835,0.4789386859228479
-3.9565,0.5262524287983441,0.5319218779486851
-3.956,0.142126133921769,-0.008506680714854012
-3.9555,-0.4980843575391895,-0.6019184314042303
-3.955,-1.223656247861609,-0.9833974139902578
-3.9545,-1.810515865034154,-1.121153713257435
-3.954,-1.586442193022819,-0.7078848154559045
-3.9535,-0.9355615267041777,0.09745970333682032
-3.953,-0.3380317346739499,0.8286277532933731
-3.9525,0.0674349099179905,1.316073119931075
-3.952,0.291508581929326,1.549199164844759
-3.9515,0.3768699807907871,1.612778995275763
-3.951,0.3875401556484697,1.538602526439591
-3.9505,0.3661998059331045,1.411442865577582
-3.95,0.3341892813600565,1.241896651094903
-3.9495,0.3021787567870086,1.051157159801889
-3.949,0.2808384070716433,0.849821030103708
-3.9485,0.1314559590640864,0.4683420475176805
-3.948,-0.3593720843893152,-0.1674562567923655
-3.9475,-0.8181896032696687,-0.8986243067489184
-3.947,-1.287677297007705,-1.502632695843462
-3.9465,-1.298347471865388,-1.576809164679634
-3.946,-0.722158029550525,-1.05757388282643
-3.9455,-0.1673089369510276,-0.5595318777835605
-3.945,0.2061471830678648,-0.3158091944647096
-3.9445,0.4195506802215176,-0.2840192792492073
-3.944,0.4835717293676135,-0.3370024712750445
-3.9435,0.4835717293676135,-0.400582301706049
-3.943,0.4622313796522482,-0.4323722169215513
-3.9425,0.4302208550792003,-0.3793890248957141
-3.942,0.3875401556484697,-0.2946159176543747
-3.9415,0.3555296310754218,-0.1886495336027004
-3.941,0.3341892813600565,-0.07208651114585861
-3.9405,0.3448594562177392,0.09745970333682032
-3.94,0.6329541773751706,0.5425185163538525
-3.9395,0.707645401378949,0.4789386859228479
-3.939,0.2594980573562781,-0.1674562567923655
-3.9385,-0.2526703358124887,-0.5913217929990628
-3.938,-0.9142211769888124,-0.8880276683437509
-3.9375,-1.383708870726849,-1.046977244421262
-3.937,-1.148965023857831,-0.5913217929990628
-3.9365,-0.6367966306890638,0.1504428953626575
-3.936,-0.1779791118087102,0.7968378380778709
-3.9355,0.142126133921769,1.241896651094903
-3.935,0.3021787567870086,1.485619334413754
-3.9345,0.3661998059331045,1.570392441655093
-3.934,0.3661998059331045,1.570392441655093
-3.9335,0.3341892813600565,1.496215972818921
-3.933,0.3128489316446912,1.390249588767247
-3.9325,0.291508581929326,1.231300012689736
-3.932,0.1634664836371343,0.8074344764830383
-3.9315,-0.2633405106701714,-0.02969995752518888
-3.931,-0.4127229586777283,-0.8456411147230812
-3.9305,-0.391382608962363,-1.460246142222792
-3.93,-0.274010685527854,-1.555615887869299
-3.9295,-0.01792648894347063,-1.163540266878104
-3.929,0.2274875327832301,-0.792657922697244
-3.9285,0.3768699807907871,-0.5383386009732256
-3.928,0.4408910299368829,-0.474758770542221
-3.9275,0.4622313796522482,-0.5065486857577234
-3.927,0.4515612047945656,-0.5489352393783931
-3.9265,0.6009436528021226,-0.6443049850249
-3.926,0.8143471499557753,-0.6972881770507372
-3.9255,0.7716664505250448,-0.5065486857577234
-3.925,0.6222840025174878,-0.252229364033705
-3.9245,0.4835717293676135,-0.008506680714854012
-3.924,0.3875401556484697,0.1928294489833272
-3.9235,0.4729015545099309,0.5319218779486851
-3.923,0.8676980242441885,0.775644561267536
-3.9225,0.5369226036560266,0.2034260873884947
-3.922,-0.04993701351651855,-0.3581957480853793
-3.9215,-0.6474668055467465,-0.474758770542221
-3.921,-1.26633694729234,-0.718481453861072
-3.9205,-1.234326422719292,-0.5489352393783931
-3.92,-0.7755089038389382,0.05507314971615059
-3.9195,-0.2953510352432193,0.6484849004055269
-3.919,0.05676473506030786,1.093543713422559
-3.9185,0.2594980573562781,1.347863035146577
-3.918,0.3448594562177392,1.453829419198252
-3.9175,0.3661998059331045,1.453829419198252
-3.917,0.3448594562177392,1.390249588767247
-3.9165,0.3128489316446912,1.29487984312074
-3.916,0.291508581929326,1.167720182258731
-3.9155,0.2381577076409128,0.9769806909657173
-3.915,-0.1459685872356623,0.5001319627331828
-3.9145,-0.6367966306890638,-0.3475991096802118
-3.914,-1.042263275281004,-1.0999604364471
-3.9135,-0.9782422261349084,-1.364876396576285
-3.913,-0.4660738329661415,-1.025783967610927
-3.9125,0.00341386077189465,-0.5807251545938954
-3.912,0.3128489316446912,-0.3475991096802118
-3.9115,0.4622313796522482,-0.326405832869877
-3.911,0.5155822539406614,-0.3475991096802118
-3.9105,0.5155822539406614,-0.3899856633008816
-3.91,0.5582629533713921,-0.474758770542221
-3.9095,0.7716664505250448,-0.6019184314042303
-3.909,0.7716664505250448,-0.5489352393783931
-3.9085,0.6436243522328531,-0.3687923864905467
-3.908,0.5049120790829789,-0.1568596183871981
-3.9075,0.3982103305061524,0.04447651131098315
-3.907,0.4302208550792003,0.2987958330350016
-3.9065,0.825017324813458,0.6908714540261965
-3.906,0.6756348768059011,0.3199891098453364
-3.9055,0.0674349099179905,-0.3475991096802118
-3.905,-0.4767440078238243,-0.6866915386455698
-3.9045,-1.127624674142465,-1.025783967610927
-3.904,-1.415719395299897,-1.068170521231597
-3.9035,-1.042263275281004,-0.4641621321370536
-3.903,-0.5194247072545548,0.2776025562246667
-3.9025,-0.08194753808956648,0.8816109453192104
-3.902,0.1848068333524996,1.263089927905238
-3.9015,0.3235191065023739,1.453829419198252
-3.901,0.3555296310754218,1.506812611224089
-3.9005,0.3448594562177392,1.475022696008586
-3.9,0.3235191065023739,1.400846227172415
-3.8995,0.2808384070716433,1.273686566310405
-3.899,0.2594980573562781,1.072350436612224
-3.8985,0.08877525963335578,0.701468092431364
-3.898,-0.4127229586777283,-0.1144730647665284
-3.8975,-0.7008176798351597,-0.9304142219644207
-3.897,-1.031593100423322,-1.576809164679634
-3.8965,-0.9782422261349084,-1.619195718300304
-3.896,-0.4980843575391895,-1.068170521231597
-3.8955,-0.04993701351651855,-0.6549016234300674
-3.895,0.2488278824985954,-0.4217755785163839
-3.8945,0.3875401556484697,-0.3052125560595421
-3.894,0.4515612047945656,-0.3158091944647096
-3.8935,0.4729015545099309,-0.4111789401112165
-3.893,0.6542945270905358,-0.6125150698093976
-3.8925,0.79300680024041,-0.6654982618352349
-3.892,0.7396559259519968,-0.4959520473525559
-3.8915,0.6009436528021226,-0.2734226408440398
-3.891,0.4729015545099309,-0.07208651114585861
-3.8905,0.3982103305061524,0.06566978812131802
-3.89,0.6649647019482183,-0.1780528951975329
-3.8895,0.8036769750980928,-0.7502713690765743
-3.889,0.291508581929326,-1.258910012524611
-3.8885,-0.3593720843893152,-1.481439419033127
-3.888,-1.074273799854052,-1.523825972653797
-3.8875,-1.490410619303675,-1.34368311976595
-3.887,-1.180975548430879,-0.6019184314042303
-3.8865,-0.6367966306890638,0.2246193641988295
