Class_8_Think_right_hand_movement/Class_8_Think_Right_hand_mouvement_SH_7.csv

#Digilent WaveForms Oscilloscope Acquisition
#Device Name: EExplorer
#Serial Number: SN:210151A2B84A
#Date Time: 2020-12-17 15:45:20.864
#Sample rate: 2000Hz
#Samples: 16384
#Trigger: Source: Channel 1 Type: Edge Condition: Rising Level: 0 V Hyst.: Auto HoldOff: 0 s
#Channel 1: Range: 1 V/div Offset: 0 V Attenuation: 1 X
#Channel 2: Range: 1 V/div Offset: 0 V Attenuation: 1 X
#Power Supplies: ON
#Fixed Supply: ON
#Voltage: 3.3 V Readback: 3.323 V
#Positive Supply: ON
#Voltage: 3.7 V Readback: 3.716 V
#Current: 40 mA Readback: 19 mA
#Negative Supply: ON
#Voltage: -3.7 V Readback: -3.348 V
#Current: -40 mA Readback: -10 mA
#Reference 1: ON
#Voltage: 0 V
#Reference 2: ON
#Voltage: 0 V

Time (s),Channel 1 (V),Channel 2 (V)
-4.096,-0.04993701351651855,-0.09327978795619347
-4.0955,-0.5407650569694736,-0.6972881770501879
-4.095,-1.212986073004441,-1.121153713257598
-4.0945,-1.778505340461106,-1.301296566145281
-4.094,-1.75716499074576,-1.089363798042125
-4.0935,-1.138294848999585,-0.4429688553261694
-4.093,-0.5194247072545548,0.1610395337678249
-4.0925,-0.07127736323229139,0.5425185163535056
-4.092,0.1848068333526063,0.7014680924313543
-4.0915,0.3021787567870086,0.6908714540261965
-4.091,0.3235191065023739,0.5743084315693548
-4.0905,0.3128489316446718,0.4047622170865217
-4.09,0.291508581929326,0.2352160026039969
-4.0895,0.2808384070716433,0.1292496185523226
-4.089,0.2701682322139704,0.002089957690429078
-4.0885,0.2594980573562781,-0.1462629799820306
-4.088,0.1207857842064037,-0.1674562567923655
-4.0875,-0.02859666380101741,0.1610395337675261
-4.087,-0.3166913849589242,-0.1992461720084461
-4.0865,-0.690147504977477,-0.8350444763179138
-4.086,-0.6474668055467854,-0.9410108603694918
-4.0855,-0.2953510352429088,-0.7820612842918838
-4.085,0.04609456020262521,-0.570128516188728
-4.0845,0.2915085819291028,-0.411178940111361
-4.084,0.3982103305061912,-0.3370024712750541
-4.0835,0.4408910299368829,-0.3475991096802118
-4.083,0.4408910299368829,-0.326405832869877
-4.0825,0.4515612047946044,-0.3158091944646903
-4.082,0.4942419042252961,-0.2946159176543747
-4.0815,0.4408910299368829,-0.1462629799820306
-4.081,0.3661998059331724,0.04447651131080968
-4.0805,0.3021787567870086,0.2034260873884947
-4.08,0.2594980573562781,0.3199891098453364
-4.0795,0.4942419042250826,0.08686306493186491
-4.079,0.6756348768052606,-0.4641621321375933
-4.0785,-0.02859666380115328,-1.05757388282643
-4.078,-0.9248913518456801,-1.470842780627584
-4.0775,-1.319687821580491,-1.439052865411918
-4.077,-1.031593100423322,-0.8456411147230812
-4.0765,-0.5621054066857123,-0.1886495336032979
-4.076,-0.1459685872354197,0.2776025562248787
-4.0755,0.1207857842064037,0.5107286011383502
-4.075,0.2488278824985954,0.5743084315693548
-4.0745,0.2915085819293357,0.5213252395434212
-4.074,0.3021787567870086,0.4153588554918433
-4.0735,0.2808384070716433,0.2881991946298341
-4.073,0.2701682322139704,0.1822328105782561
-4.0725,0.2594980573562781,0.1186529801471552
-4.072,0.2808384070716433,0.1080563417419877
-4.0715,0.2381577076409516,0.2881991946296703
-4.071,-0.3593720843899945,0.5637117931637633
-4.0705,-1.1062843244271,0.09745970333682032
-4.07,-1.586442193022382,-0.7608680074809612
-4.0695,-1.479740444445391,-1.195330182093501
-4.069,-0.8181896032696687,-1.078767159636765
-4.0685,-0.1886492866663929,-0.8138511995075789
-4.068,0.1954770082103472,-0.5277419625678847
-4.0675,0.3768699807907871,-0.3370024712750445
-4.067,0.4408910299368829,-0.2098428104130352
-4.0665,0.4195506802214788,-0.1356663415768632
-4.066,0.3768699807907871,-0.1356663415768632
-4.0655,0.3128489316446912,-0.2310360872233701
-4.065,0.2701682322139995,-0.1568596183872655
-4.0645,0.2488278824985954,-0.01910331912002144
-4.064,0.2488278824985954,0.1292496185523226
-4.0635,0.2381577076409225,0.2352160026039006
-4.063,-0.07127736323237875,-0.01910331912062861
-4.0625,-0.6154562809736985,-0.6866915386455698
-4.062,-1.287677297007094,-1.311893204549879
-4.0615,-1.767835165603705,-1.661582271921079
-4.061,-2.07727023647622,-1.778145294377815
-4.0605,-1.597112367880501,-1.322489842955616
-4.06,-0.8822106524152404,-0.6125150698088676
-4.0595,-0.3060212101009019,-0.02969995752518888
-4.059,0.07810508477567314,0.3199891098453364
-4.0585,0.270168232213786,0.4577454091123878
-4.058,0.3341892813600565,0.457745409112513
-4.0575,0.3341892813600565,0.383568940276341
-4.057,0.3128489316447107,0.277602556224763
-4.0565,0.291508581929326,0.1928294489833272
-4.056,0.2808384070716433,0.13984625695749
-4.0555,0.3235191065023351,0.2776025562245414
-4.055,0.3661998059330948,0.4471487707076636
-4.0545,0.3555296310754218,0.7968378380778709
-4.054,0.02475421048756077,1.0405605213965
-4.0535,-0.6794773301199689,0.4153588554911301
-4.053,-0.8715404775580819,-0.3687923864905467
-4.0525,-0.5300948821122373,-0.6125150698093976
-4.052,-0.1032878878046503,-0.5595318777835027
-4.0515,0.2061471830678648,-0.4959520473525559
-4.051,0.3768699807907871,-0.4111789401112165
-4.0505,0.4515612047944976,-0.3793890248957431
-4.05,0.4408910299368829,-0.3475991096802118
-4.0495,0.3982103305061524,-0.252229364033705
-4.049,0.2488278824987313,-0.2098428104130738
-4.0485,0.1527963087794419,-0.1250697031715512
-4.048,0.142126133921769,0.03387987290581572
-4.0475,0.1741366584947878,0.2034260873883404
-4.047,0.2061471830677775,0.3517790250608098
-4.0465,0.1101156093487211,0.3199891098453364
-4.046,-0.4340633083925987,-0.2204394488177112
-4.0455,-1.148965023858335,-0.8350444763182704
-4.045,-1.703814116457328,-1.227120097309109
-4.0445,-2.098610586191586,-1.269506650929778
-4.044,-2.002579012471763,-1.152943628472426
-4.0435,-1.255666772434657,-0.5913217929990628
-4.043,-0.572775581542968,-0.008506680714854012
-4.0425,-0.08194753809001287,0.3835689402759844
-4.042,0.2061471830678648,0.5637117931641874
-4.0415,0.3235191065023739,0.5849050699745222
-4.041,0.3448594562177197,0.5001319627332599
-4.0405,0.3341892813600275,0.3623756634658808
-4.04,0.3021787567870086,0.2246193641988295
-4.0395,0.2915085819293357,0.1398462569575671
-4.039,0.2915085819293357,0.07626642652645654
-4.0385,0.3021787567870086,0.04447651131098315
-4.038,0.3768699807907192,0.3199891098450859
-4.0375,-0.167308936951736,0.8922075837247151
-4.037,-0.9462317015618604,1.263089927905238
-4.0365,-1.479740444445993,0.7438546460520338
-4.036,-1.266336947291758,0.139846256957172
-4.0355,-0.6261264558313813,-0.2098428104130352
-4.035,-0.04993701351651855,-0.3793890248957141
-4.0345,0.3021787567866884,-0.4747587705421343
-4.034,0.4622313796522482,-0.4535654937318862
-4.0335,0.5155822539406614,-0.4429688553267188
-4.033,0.5049120790829885,-0.379389024895772
-4.0325,0.4302208550791324,-0.252229364033599
-4.032,0.3555296310754218,-0.1356663415768632
-4.0315,0.31284893164473,0.04447651131081931
-4.031,0.2808384070716239,0.2458126410093282
-4.0305,0.2594980573562781,0.4259554938970107
-4.03,0.2168173579255863,0.510728601138273
-4.0295,-0.02859666380124062,0.1610395337672756
-4.029,-0.124628237520297,-0.4429688553267188
-4.0285,-0.6154562809736985,-0.9410108603695881
-4.028,-1.116954499284724,-1.184733543688102
-4.0275,-1.052933450138687,-0.8138511995075789
-4.027,-0.6474668055467465,-0.1568596183871981
-4.0265,-0.2313299860975019,0.3941655786810073
-4.026,0.0674349099179905,0.7120647308365314
-4.0255,0.2274875327832301,0.8180311148882058
-4.025,0.3021787567869407,0.7756445612675745
-4.0245,0.3128489316446815,0.65908153881054
-4.024,0.3021787567870086,0.4895353243280153
-4.0235,0.2808384070716627,0.3093924714403328
-4.023,0.2701682322139704,0.171636172172896
-4.0225,0.2808384070716433,0.06566978812131802
-4.022,0.2915085819293163,-0.01910331911994434
-4.0215,0.2594980573560743,-0.1038764263616019
-4.021,0.03542438534494258,-0.3687923864905467
-4.0205,-0.3060212101009019,-0.8668343915334161
-4.02,-0.8822106524157548,-1.386069673386428
-4.0195,-0.8715404775580819,-1.174136905283272
-4.019,-0.4127229586777283,-0.7396747306714069
-4.0185,0.02475421048686205,-0.5065486857579354
-4.018,0.3235191065023739,-0.3899856633008816
-4.0175,0.4622313796522482,-0.3687923864905467
-4.017,0.494241904225267,-0.3687923864905467
-4.0165,0.4622313796521997,-0.3475991096802215
-4.016,0.408880505363835,-0.3581957480853793
-4.0155,0.3021787567871057,-0.4641621321369572
-4.015,0.238157707640903,-0.3475991096800191
-4.0145,0.2274875327832301,-0.1356663415768632
-4.014,0.238157707640903,0.06566978812113491
-4.0135,0.2168173579252855,0.1928294489830381
-4.013,-0.07127736323188383,-0.1250697031716958
-4.0125,-0.1673089369510276,-0.7714646458869092
-4.012,-0.6047861061165689,-1.35427975817132
-4.0115,-1.212986073003927,-1.576809164679634
-4.011,-1.714484291315011,-1.608599079895136
-4.0105,-1.543761493592244,-1.248313374119771
-4.01,-0.9462317015618604,-0.5913217929990628
-4.0095,-0.3807124341046804,-0.02969995752518888
-4.009,0.01408403562921823,0.3199891098450184
-4.0085,0.2381577076409904,0.4683420475176902
-4.008,0.3235191065023739,0.4789386859228479
-4.0075,0.3341892813600468,0.4153588554919012
-4.007,0.3235191065023544,0.3199891098452786
-4.0065,0.3021787567870086,0.2564092794143318
-4.006,0.291508581929326,0.1928294489833272
-4.0055,0.3021787567870183,0.1716361721730213
-4.005,0.3128489316446912,0.2034260873884947
-4.0045,0.1848068333524996,0.3199891098453364
-4.004,0.6863050516640787,0.7862411996732143
-4.0035,1.230483969405398,1.347863035146577
-4.003,0.7823366253827275,1.506812611224089
-4.0025,0.4515612047948664,1.040560521397146
-4.002,0.3661998059331045,0.3729723018711736
-4.0015,0.3661998059331045,-0.2204394488182027
-4.001,0.3661998059331045,-0.5383386009729365
-4.0005,0.3768699807907871,-0.6443049850248614
-4,0.3768699807907871,-0.6019184314042303
-3.9995,0.3661998059331045,-0.4429688553267188
-3.999,0.3875401556484697,-0.3793890248957141
-3.9985,0.3768699807907871,-0.2098428104130352
-3.998,0.3448594562177392,0.06566978812131802
-3.9975,0.3021787567870086,0.3517790250608387
-3.997,0.2808384070716433,0.5849050699745222
-3.9965,0.1527963087794516,0.627291623595192
-3.996,-0.4447334832507763,0.13984625695749
-3.9955,-1.042263275281004,-0.4641621321370536
-3.995,-1.330357996438436,-0.8986243067489184
-3.9945,-1.490410619303675,-1.078767159636765
-3.994,-1.127624674142465,-0.6443049850249
-3.9935,-0.5834457564006506,-0.008506680714854012
-3.993,-0.1459685872356623,0.4789386859228479
-3.9925,0.1314559590640864,0.7332580076468663
-3.992,0.2701682322139607,0.775644561267536
-3.9915,0.3235191065023739,0.6908714540261965
-3.991,0.3128489316446912,0.5319218779486851
-3.9905,0.3021787567870086,0.3411823866556712
-3.99,0.2808384070716433,0.1610395337678249
-3.9895,0.2701682322139607,0.03387987290581572
-3.989,0.3021787567870086,0.02328323450064829
-3.9885,0.3448594562177392,0.09745970333682032
-3.988,0.0674349099179905,0.2140227257936621
-3.9875,-0.5834457564006506,0.5849050699745222
-3.987,-1.138294849000148,0.3411823866556712
-3.9865,-1.597112367880501,-0.3581957480853793
-3.986,-1.543761493592088,-0.4959520473525559
-3.9855,-0.9248913518464952,-0.400582301706049
-3.985,-0.2633405106701714,-0.326405832869877
-3.9845,0.1848068333524996,-0.2628260024388724
-3.984,0.3982103305061524,-0.2416327256285375
-3.9835,0.4729015545099309,-0.2310360872233701
-3.983,0.4729015545099309,-0.2204394488182027
-3.9825,0.4729015545099309,-0.252229364033705
-3.982,0.4942419042252961,-0.252229364033705
-3.9815,0.4408910299368829,-0.1144730647665284
-3.981,0.3661998059331045,0.07626642652648545
-3.9805,0.3235191065023739,0.2564092794143318
-3.98,0.2594980573562781,0.383568940276341
-3.9795,-0.08194753808956648,0.08686306493165288
-3.979,-0.7114878546928423,-0.5595318777835605
-3.9785,-1.415719395299897,-1.110557074852267
-3.978,-1.991908837614759,-1.417859588602123
-3.9775,-2.151961460479999,-1.42845622700729
-3.977,-1.426389570157579,-0.8456411147230812
-3.9765,-0.7008176798351597,-0.1568596183871981
-3.976,-0.156638762093345,0.3517790250608387
-3.9755,0.1634664836371343,0.6166949851900245
-3.975,0.3128489316446912,0.6908714540261965
-3.9745,0.3555296310754218,0.6378882620003594
-3.974,0.3448594562177392,0.5107286011383502
-3.9735,0.3128489316446912,0.3623756634660061
-3.973,0.291508581929326,0.2140227257936621
-3.9725,0.2808384070716433,0.1186529801471552
-3.972,0.291508581929326,0.08686306493165288
-3.9715,0.3448594562177392,0.1610395337678249
-3.971,-0.01792648894347063,0.6484849004055269
-3.9705,-0.6261264558313813,0.6908714540261965
-3.97,-1.234326422719292,-0.1144730647665284
-3.9695,-1.490410619303675,-0.8244478379127463
-3.969,-1.010252750707956,-0.8562377531282487
-3.9685,-0.3700422592469978,-0.6549016234300674
-3.968,0.1207857842064037,-0.4323722169215513
-3.9675,0.408880505363835,-0.3052125560595421
-3.967,0.4942419042252961,-0.1992461720078678
-3.9665,0.4729015545099309,-0.1144730647665284
-3.966,0.4515612047945656,-0.1144730647665284
-3.9655,0.4515612047945656,-0.2628260024388724
-3.965,0.408880505363835,-0.2204394488182027
-3.9645,0.3555296310754218,-0.07208651114585861
-3.964,0.3128489316446912,0.09745970333682032
-3.9635,0.2808384070716433,0.2246193641988295
-3.963,0.4515612047945656,0.07626642652648545
-3.9625,0.8997085488172365,-0.5489352393783931
-3.962,0.4835717293676135,-1.216523458903942
-3.9615,-0.3700422592469978,-1.693372187136476
-3.961,-1.116954499284783,-1.905304955239825
-3.9605,-1.138294849000148,-1.396666311791788
-3.96,-0.7328282044082075,-0.6549016234300674
-3.9595,-0.2953510352432193,-0.06148987274069118
-3.959,0.02475421048725994,0.309392471440169
-3.9585,0.2168173579255475,0.4683420475176805
-3.958,0.3021787567870086,0.4789386859228479
-3.9575,0.3235191065023739,0.4153588554918433
-3.957,0.3128489316446912,0.3199891098453364
-3.9565,0.291508581929326,0.2352160026039969
-3.956,0.291508581929326,0.1716361721729923
-3.9555,0.291508581929326,0.1292496185523226
-3.955,0.2808384070716433,0.1610395337678249
-3.9545,-0.1459685872356623,0.309392471440169
-3.954,-0.754168554123573,0.4683420475176805
-3.9535,-1.074273799854052,-0.1144730647665284
-3.953,-1.010252750707956,-0.4853554089473885
-3.9525,-0.5514352318276028,-0.4959520473525559
-3.952,-0.06060718837420119,-0.4217755785163839
-3.9515,0.2808384070716433,-0.3370024712750445
-3.951,0.4729015545099309,-0.3899856633008816
-3.9505,0.5369226036560266,-0.4429688553267188
-3.95,0.5155822539406614,-0.4535654937318862
-3.9495,0.4622313796522482,-0.3581957480853793
-3.949,0.408880505363835,-0.2416327256285375
-3.9485,0.3555296310754218,-0.1250697031716958
-3.948,0.3128489316446912,0.03387987290581572
-3.9475,0.2808384070716433,0.1822328105781598
-3.947,0.2701682322139607,0.2987958330350016
-3.9465,0.3341892813600565,0.3305857482505039
-3.946,0.7503261008096795,-0.1356663415768632
-3.9455,0.4835717293676135,-0.8032545611024114
-3.945,-0.4127229586777283,-1.311893204550448
-3.9445,-1.244996597576974,-1.555615887869299
-3.944,-1.501080794161358,-1.364876396576285
-3.9435,-1.084943974711735,-0.718481453861072
-3.943,-0.5407650569699201,-0.07208651114585861
-3.9425,-0.1032878878049318,0.3623756634660061
-3.942,0.1634664836371343,0.5637117931641874
-3.9415,0.291508581929326,0.6060983467848571
-3.941,0.3341892813600565,0.55311515475902
-3.9405,0.3235191065023739,0.4365521323021782
-3.94,0.3021787567870086,0.3199891098453364
-3.9395,0.291508581929326,0.2246193641988295
-3.939,0.2808384070716433,0.13984625695749
-3.9385,0.291508581929326,0.07626642652648545
-3.938,0.3982103305061524,0.1080563417419877
-3.9375,0.9850699476786977,0.5637117931641874
-3.937,0.9103787236749192,0.5213252395435176
-3.9365,0.291508581929326,-0.1250697031716958
-3.936,0.09944543449103843,-0.3793890248957141
-3.9355,0.1848068333524996,-0.4429688553267188
-3.935,0.291508581929326,-0.3899856633008816
-3.9345,0.3235191065023739,-0.3052125560595421
-3.934,0.3768699807907871,-0.1992461720078678
-3.9335,0.408880505363835,-0.1462629799820306
-3.933,0.4195506802215176,-0.1674562567923655
-3.9325,0.4622313796522482,-0.2098428104130352
-3.932,0.5582629533713921,-0.1992461720078678
-3.9315,0.5155822539406614,-0.08268314955102604
-3.931,0.4302208550792003,0.07626642652648545
-3.9305,0.3448594562177392,0.2352160026039969
-3.93,0.2488278824985954,0.3199891098453364
-3.9295,-0.156638762093345,-0.008506680714854012
-3.929,-0.754168554123573,-0.6125150698093976
-3.9285,-1.351698346153801,-1.142346990067769
-3.928,-1.906547438753298,-1.460246142222792
-3.9275,-1.917217613610981,-1.375473034981453
-3.927,-1.234326422719292,-0.7396747306714069
-3.9265,-0.572775581542968,-0.06148987274069118
-3.926,-0.09261771294724913,0.4259554938970107
-3.9255,0.1954770082101822,0.6590815388106942
-3.925,0.3128489316446912,0.7120647308365314
-3.9245,0.3448594562177392,0.6484849004055269
-3.924,0.3341892813600565,0.5213252395435176
-3.9235,0.3021787567870086,0.3729723018711736
-3.923,0.2808384070716433,0.2458126410091644
-3.9225,0.291508581929326,0.1822328105781598
-3.922,0.4195506802215176,0.4471487707073456
-3.9215,0.4302208550792003,0.6060983467848571
-3.921,-0.124628237520297,0.9769806909657173
-3.9205,-0.658136980404429,0.9134008605347127
-3.92,-0.4980843575391895,0.5319218779486851
-3.9195,-0.4980843575391895,-0.1886495336027004
-3.919,-0.2953510352432193,-0.4959520473525559
-3.9185,0.01408403562957729,-0.5171453241628908
-3.918,0.2594980573562781,-0.4217755785163839
-3.9175,0.4195506802215176,-0.3475991096802118
-3.917,0.4835717293676135,-0.3475991096802118
-3.9165,0.4729015545099309,-0.3052125560595421
-3.916,0.4408910299368829,-0.2204394488182027
-3.9155,0.4408910299368829,-0.2310360872233701
-3.915,0.408880505363835,-0.1038764263613609
-3.9145,0.3448594562177392,0.08686306493165288
-3.914,0.3021787567870086,0.2881991946298341
-3.9135,0.2701682322139607,0.4365521323021782
-3.913,0.07810508477567314,0.2352160026039969
-3.9125,0.04609456020262521,-0.2840192792492073
-3.912,-0.4340633083930936,-0.8562377531282487
-3.9115,-1.138294849000148,-1.258910012524611
-3.911,-1.650463242168915,-1.417859588602123
-3.9105,-1.426389570157579,-1.01518732920576
-3.91,-0.8502001278427167,-0.3370024712750445
-3.9095,-0.3166913849585846,0.2140227257936621
-3.909,0.04609456020262521,0.5425185163538525
-3.9085,0.2488278824985954,0.6484849004055269
-3.908,0.3235191065023739,0.6166949851900245
-3.9075,0.3341892813600565,0.5001319627331828
-3.907,0.3128489316446912,0.3411823866556712
-3.9065,0.291508581929326,0.2034260873884947
-3.906,0.2808384070716433,0.09745970333682032
-3.9055,0.2808384070716433,-0.02969995752518888
-3.905,0.3235191065023739,-0.08268314955102604
-3.9045,0.7823366253827275,0.3411823866556712
-3.904,0.9637295979633325,0.55311515475902
-3.9035,0.5262524287983441,-0.1038764263613609
-3.903,-0.1032878878049318,-0.8032545611024114
-3.9025,-0.2846808603855366,-0.9198175835592532
-3.902,-0.1352984123779797,-0.7396747306714069
-3.9015,0.0674349099179905,-0.5383386009732256
-3.901,0.2488278824985954,-0.3793890248957141
-3.9005,0.3661998059331045,-0.326405832869877
-3.9,0.408880505363835,-0.252229364033705
-3.8995,0.408880505363835,-0.1462629799820306
-3.899,0.3341892813600565,-0.008506680714854012
-3.8985,0.2808384070716433,0.08686306493165288
-3.898,0.2488278824985954,0.13984625695749
-3.8975,0.2488278824985954,0.1716361721729923
-3.897,0.2488278824985954,0.2246193641988295
-3.8965,0.142126133921769,0.1292496185523226
-3.896,-0.1032878878049318,-0.4217755785163839
-3.8955,-0.4660738329661415,-1.078767159636765
-3.895,-1.020922925565639,-1.545019249464132
-3.8945,-1.501080794161358,-1.714565463946811
-3.894,-1.575772018165136,-1.492036057438295
-3.8935,-1.06360362499637,-0.8032545611024114
-3.893,-0.5087545323968721,-0.1356663415768632
-3.8925,-0.07127736323188383,0.3305857482505039
-3.892,0.1848068333524996,0.5743084315693548
-3.8915,0.291508581929326,0.6378882620003594
-3.891,0.3235191065023739,0.5955017083796896
-3.8905,0.3235191065023739,0.5001319627331828
-3.89,0.3021787567870086,0.4047622170866759
-3.8895,0.2808384070716433,0.3199891098453364
-3.889,0.2701682322139607,0.2246193641988295
-3.8885,0.2701682322139607,0.1292496185523226
-3.888,0.408880505363835,0.2881991946298341
-3.8875,0.9530594231056497,0.7544512844572011
