Class_8_Think_right_hand_movement/Class_8_Think_Right_hand_mouvement_SH_9.csv

#Digilent WaveForms Oscilloscope Acquisition
#Device Name: EExplorer
#Serial Number: SN:210151A2B84A
#Date Time: 2021-01-20 10:40:20.335
#Sample rate: 2000Hz
#Samples: 16384
#Trigger: Source: Channel 1 Type: Edge Condition: Rising Level: 0 V Hyst.: Auto HoldOff: 0 s
#Channel 1: Range: 1 V/div Offset: 0 V Attenuation: 1 X
#Channel 2: Range: 1 V/div Offset: 0 V Attenuation: 1 X
#Power Supplies: ON
#Fixed Supply: ON
#Voltage: 3.3 V Readback: 3.323 V
#Positive Supply: ON
#Voltage: 3.7 V Readback: 3.715 V
#Current: 40 mA Readback: 20 mA
#Negative Supply: ON
#Voltage: -3.7 V Readback: -3.7 V
#Current: -40 mA Readback: -8 mA
#Reference 1: ON
#Voltage: 0 V
#Reference 2: ON
#Voltage: 0 V

Time (s),Channel 1 (V),Channel 2 (V)
-4.096,-0.3273615598162672,-1.417859588602123
-4.0955,0.07810508477530437,-1.608599079894963
-4.095,0.3235191065024806,-1.587405803084637
-4.0945,0.4408910299368829,-1.407262950196955
-4.094,0.6649647019480145,-1.280103289335061
-4.0935,0.9850699476786783,-1.20592682049836
-4.093,0.9637295979633325,-0.7502713690765743
-4.0925,0.8036769750982383,-0.1674562567928956
-4.092,0.6542945270904388,0.3729723018715687
-4.0915,0.5475927785137094,0.8074344764830383
-4.091,0.7396559259519968,1.104140351827727
-4.0905,1.049090996824269,1.400846227172068
-4.09,0.4729015545099309,1.019367244586387
-4.0895,-0.3700422592469978,0.1504428953626575
-4.089,-1.063603624995739,-0.6125150698087036
-4.0885,-1.010252750707956,-0.718481453861072
-4.088,-0.5834457564006506,-0.3687923864905467
-4.0875,-0.1459685872360602,0.05507314971576505
-4.087,0.1741366584949819,0.3941655786817012
-4.0865,0.3555296310754218,0.6060983467848571
-4.086,0.4302208550791324,0.6908714540261194
-4.0855,0.4515612047945559,0.7014680924313255
-4.085,0.4408910299368829,0.6590815388106942
-4.0845,0.4088805053638641,0.6484849004055365
-4.084,0.3768699807907192,0.680274815621193
-4.0835,0.3021787567870086,0.8604176685088755
-4.083,0.1634664836371343,1.019367244586387
-4.0825,-0.4020527838205407,1.273686566310598
-4.082,-0.9462317015618604,1.485619334413754
-4.0815,-1.46907026958831,1.602182356870596
-4.081,-1.991908837614284,1.655165548896385
-4.0805,-1.959898313041711,1.263089927905238
-4.08,-1.394379045584531,0.4789386859228479
-4.0795,-0.7114878546934633,-0.2734226408433556
-4.079,-0.1459685872352936,-0.8032545611025657
-4.0785,0.2594980573562781,-0.9728007755850904
-4.078,0.4835717293674097,-0.9198175835593014
-4.0775,0.6116138276600477,-0.8456411147231776
-4.077,0.8783681991018712,-0.9516074987747555
-4.0765,0.9103787236748901,-0.7820612842922308
-4.076,0.7823366253826014,-0.4323722169212333
-4.0755,0.6436243522328531,-0.08268314955102604
-4.075,0.5369226036560266,0.1928294489833272
-4.0745,0.6222840025179439,0.341182386655652
-4.074,1.123782220828572,0.3199891098453364
-4.0735,1.017080472251745,0.03387987290581572
-4.073,0.110115609349546,-0.3899856633004961
-4.0725,-0.722158029550525,-0.6549016234300674
-4.072,-0.7968492535543035,-0.4323722169215513
-4.0715,-0.4767440078241154,0.03387987290539168
-4.071,-0.1032878878046794,0.4047622170868686
-4.0705,0.1741366584948169,0.6166949851900245
-4.07,0.3448594562175839,0.648484900405498
-4.0695,0.4195506802215371,0.5637117931640525
-4.069,0.4408910299368829,0.4153588554918433
-4.0685,0.4302208550792003,0.2246193641988295
-4.068,0.4088805053638059,0.05507314971610239
-4.0675,0.3768699807907871,0.002089957690313421
-4.067,0.3555296310754218,-0.09327978795619347
-4.0665,0.3128489316443613,-0.1250697031714837
-4.066,-0.04993701351651855,0.1080563417419877
-4.0655,-0.7008176798351597,0.5213252395435176
-4.065,-1.298347471864844,0.8922075837240404
-4.0645,-1.415719395299897,1.040560521396722
-4.064,-1.255666772434657,0.7862411996727035
-4.0635,-0.8075194284123935,0.1716361721735513
-4.063,-0.3273615598159373,-0.37938902489609
-4.0625,0.03542438534494258,-0.792657922697244
-4.062,0.2808384070714201,-0.9516074987746109
-4.0615,0.4195506802215856,-0.9516074987746591
-4.061,0.4942419042252961,-0.8456411147230812
-4.0605,0.6969752265212663,-0.8668343915334161
-4.06,0.7823366253826693,-0.7396747306711178
-4.0595,0.7183155762366316,-0.4217755785163839
-4.059,0.6116138276598051,-0.05089323433552374
-4.0585,0.5262524287984217,0.2776025562243679
-4.058,0.5049120790829789,0.5001319627331828
-4.0575,0.8890383739595538,0.383568940276341
-4.057,0.8676980242442079,0.05507314971644933
-4.0565,0.07810508477567314,-0.5171453241628908
-4.056,-0.839529952985034,-0.9304142219644207
-4.0555,-1.138294848999876,-0.866834391533474
-4.055,-0.807519428411559,-0.2840192792486676
-4.0545,-0.3380317346739499,0.309392471440169
-4.054,0.04609456020227581,0.6908714540258496
-4.0535,0.2808384070717598,0.8286277532933249
-4.053,0.408880505363835,0.775644561267536
-4.0525,0.4515612047945656,0.6166949851900245
-4.052,0.4408910299368635,0.3835689402761194
-4.0515,0.4195506802215176,0.13984625695749
-4.051,0.3875401556484697,-0.02969995752518888
-4.0505,0.3555296310754509,-0.1462629799819246
-4.05,0.3448594562177392,-0.3475991096802118
-4.0495,0.2168173579255475,-0.4111789401112165
-4.049,-0.4233931335348287,0.002089957689937527
-4.0485,-0.978242226135248,0.3305857482504846
-4.048,-1.351698346153801,0.309392471440169
-4.0475,-1.287677297007763,-0.008506680714564896
-4.047,-0.7861790786961355,-0.4323722169219175
-4.0465,-0.2526703358124887,-0.8350444763179138
-4.046,0.09944543449071819,-1.025783967610754
-4.0455,0.3448594562178653,-1.057573882826391
-4.045,0.4835717293676135,-1.01518732920576
-4.0445,0.5262524287983441,-0.8562377531282487
-4.044,0.5582629533714309,-0.7184814538609853
-4.0435,0.6009436528021226,-0.6231117082145651
-4.043,0.5796033030867573,-0.400582301706049
-4.0425,0.5369226036560655,-0.1038764263616307
-4.042,0.4942419042252961,0.1716361721729923
-4.0415,0.4729015545099309,0.4047622170866759
-4.041,0.6436243522326979,0.2564092794144667
-4.0405,1.006410297393655,-0.3475991096807419
-4.04,0.5582629533713921,-0.9304142219644207
-4.0395,-0.1032878878043301,-1.163540266877892
-4.039,-0.6794773301198331,-1.163540266877719
-4.0385,-0.722158029550525,-0.7396747306714069
-4.038,-0.4127229586780098,-0.08268314955162359
-4.0375,-0.07127736323165092,0.4259554938972516
-4.037,0.1848068333524996,0.6908714540261965
-4.0365,0.3448594562177392,0.7332580076468663
-4.036,0.4088805053638545,0.6272916235950089
-4.0355,0.4302208550792003,0.4259554938970107
-4.035,0.4195506802215176,0.1928294489833272
-4.0345,0.3982103305061718,0.0232832345008025
-4.034,0.3768699807907871,-0.1356663415768632
-4.0335,0.3448594562177392,-0.2204394488182027
-4.033,0.216817357925664,-0.06148987274083573
-4.0325,-0.1779791118092343,0.351779025061282
-4.032,-0.754168554123573,0.8392243916985406
-4.0315,-1.095614149569107,1.040560521396539
-4.031,-1.255666772434443,0.7544512844566518
-4.0305,-1.020922925565639,0.1504428953626575
-4.03,-0.6261264558317403,-0.4853554089468102
-4.0295,-0.22065981123914,-0.877431029938728
-4.029,0.1101156093487211,-1.036380606016095
-4.0285,0.3341892813600565,-1.068170521231597
-4.028,0.4622313796523355,-0.9728007755849747
-4.0275,0.5582629533713921,-0.8456411147230812
-4.027,0.825017324813458,-0.8774310299385835
-4.0265,0.8570278493864769,-0.6231117082147963
-4.026,0.7503261008096795,-0.1992461720078678
-4.0255,0.6116138276598051,0.2140227257936621
-4.025,0.5369226036560946,0.531921877948396
-4.0245,0.6436243522332121,0.510728601137849
-4.024,1.038420821967111,-0.04029659593035631
-4.0235,1.358526067697299,-0.6549016234295084
-4.023,0.8143471499551833,-1.09996043644709
-4.0225,0.1634664836371343,-1.089363798041932
-4.022,-0.02859666380097858,-0.4641621321376223
-4.0215,0.01408403562968404,0.2140227257940765
-4.021,0.1314559590640864,0.6696781772158616
-4.0205,0.2488278824985954,0.849821030103708
-4.02,0.3235191065024127,0.8180311148880516
-4.0195,0.3661998059331045,0.6484849004055269
-4.019,0.3875401556484697,0.4047622170866759
-4.0185,0.3875401556484697,0.1292496185525732
-4.018,0.3768699807907871,-0.1250697031716958
-4.0175,0.3555296310754218,-0.2946159176543747
-4.017,0.2915085819293842,-0.2840192792492169
-4.0165,0.2274875327829875,-0.25222936403357
-4.016,-0.03926683865883591,-0.1038764263613609
-4.0155,-0.7541685541229228,0.3411823866552665
-4.015,-1.341028171296429,0.7544512844573938
-4.0145,-1.682473766741963,0.9663840525605498
-4.014,-1.767835165603346,0.8816109453192875
-4.0135,-1.351698346153248,0.3093924714396196
-4.013,-0.7434983792658902,-0.2946159176543747
-4.0125,-0.2099896363817582,-0.6760949002404023
-4.012,0.1741366584950401,-0.8456411147230427
-4.0115,0.4195506802215176,-0.8032545611024114
-4.011,0.5262524287983441,-0.6866915386455698
-4.0105,0.7823366253824946,-0.7290780922662009
-4.01,0.9637295979633325,-0.6760949002404023
-4.0095,0.8783681991018712,-0.3052125560595421
-4.009,0.7183155762367771,0.1398462569570852
-4.0085,0.6116138276597469,0.5213252395437971
-4.008,0.5475927785137094,0.8286277532933731
-4.0075,0.8250173248132058,1.17831682066358
-4.007,0.9637295979626144,1.496215972818459
-4.0065,0.1741366584948169,0.9875773293708847
-4.006,-0.5834457564006506,-0.04029659593035631
-4.0055,-0.8822106524155801,-0.9304142219645074
-4.005,-0.6794773301197943,-1.025783967610927
-4.0045,-0.2953510352432193,-0.7078848154559045
-4.004,0.03542438534514637,-0.3264058328696072
-4.0035,0.2594980573562781,-0.02969995752518888
-4.003,0.3661998059331045,0.1610395337678249
-4.0025,0.4195506802214691,0.2564092794142451
-4.002,0.4195506802215176,0.2776025562246667
-4.0015,0.3982103305061524,0.2881991946298341
-4.001,0.3661998059331336,0.3517790250607808
-4.0005,0.3341892813600468,0.4471487707073841
-4,0.3235191065023739,0.4895353243280153
-3.9995,0.2381577076409128,0.5319218779486851
-3.999,-0.3380317346739499,0.8710143069140429
-3.9985,-1.010252750707956,1.284283204715573
-3.998,-1.351698346153801,1.485619334413754
-3.9975,-1.533091318734406,1.464426057603419
-3.997,-1.319687821580753,0.9557874141553824
-3.9965,-0.8502001278427167,0.3199891098453364
-3.996,-0.3487019095316325,-0.1356663415768632
-3.9955,0.07810508477567314,-0.4217755785163839
-3.995,0.3341892813600565,-0.5913217929990628
-3.9945,0.4729015545099309,-0.6019184314042303
-3.994,0.6009436528021226,-0.6231117082145651
-3.9935,0.7823366253827275,-0.7502713690765743
-3.993,0.7609962756673623,-0.570128516188728
-3.9925,0.6542945270905358,-0.2628260024388724
-3.992,0.5475927785137094,0.03387987290581572
-3.9915,0.4835717293676135,0.2458126410091644
-3.991,0.3982103305061524,0.03387987290581572
-3.9905,0.142126133921769,-0.6019184314042303
-3.99,-0.391382608962363,-1.205926820498774
-3.9895,-1.010252750707956,-1.640388995110639
-3.989,-1.116954499284783,-1.502632695843462
-3.9885,-0.7328282044082075,-0.8562377531282487
-3.988,-0.274010685527854,-0.2098428104130352
-3.9875,0.08877525963335578,0.2034260873884947
-3.987,0.3021787567870086,0.383568940276341
-3.9865,0.3982103305061524,0.3941655786815084
-3.986,0.4302208550792003,0.2987958330350016
-3.9855,0.4302208550792003,0.13984625695749
-3.985,0.408880505363835,-0.01910331912002144
-3.9845,0.3768699807907871,-0.1462629799820306
-3.984,0.3555296310754218,-0.2310360872233701
-3.9835,0.3448594562177392,-0.2946159176543747
-3.983,0.2061471830678648,-0.1144730647665284
-3.9825,-0.4554036581084589,0.4047622170866759
-3.982,-1.170305373573196,0.8816109453192104
-3.9815,-1.383708870726849,0.8180311148882058
-3.981,-1.426389570157579,0.3941655786815084
-3.9805,-1.330357996438436,0.13984625695749
-3.98,-0.9035510021311299,-0.1356663415768632
-3.9795,-0.4127229586777283,-0.3687923864905467
-3.979,0.01408403562957729,-0.5277419625680583
-3.9785,0.2808384070716433,-0.5277419625680583
-3.978,0.4302208550792003,-0.4853554089473885
-3.9775,0.5155822539406614,-0.4641621321370536
-3.977,0.8036769750980928,-0.6231117082145651
-3.9765,0.8783681991018712,-0.4959520473525559
-3.976,0.7716664505250448,-0.1780528951975329
-3.9755,0.6329541773751706,0.1716361721729923
-3.975,0.5262524287983441,0.457745409112513
-3.9745,0.5475927785137094,0.5107286011383502
-3.974,0.942389248247967,0.05507314971615059
-3.9735,0.9103787236749192,-0.5489352393783931
-3.973,0.291508581929326,-1.025783967610927
-3.9725,-0.4874141826815069,-1.280103289334946
-3.972,-0.8715404775580819,-1.174136905283272
-3.9715,-0.6688071552621118,-0.5913217929990628
-3.971,-0.2953510352432193,-0.02969995752518888
-3.9705,0.03542438534494258,0.309392471440169
-3.97,0.2594980573562781,0.4259554938970107
-3.9695,0.3661998059331045,0.3623756634660061
-3.969,0.408880505363835,0.1928294489833272
-3.9685,0.4195506802215176,-0.01910331912002144
-3.968,0.3982103305061524,-0.2204394488182027
-3.9675,0.3661998059331045,-0.3687923864905467
-3.967,0.3448594562177392,-0.4853554089473885
-3.9665,0.3341892813600565,-0.5913217929990628
-3.966,0.07810508477567314,-0.4217755785163839
-3.9655,-0.4767440078238243,0.1186529801471552
-3.965,-1.1062843244271,0.6802748156210291
-3.9645,-1.351698346153801,0.9451907757502149
-3.964,-1.426389570157579,0.8710143069140429
-3.9635,-1.074273799854052,0.3729723018711736
-3.963,-0.5194247072545548,-0.1674562567923655
-3.9625,-0.03926683865883591,-0.4853554089473885
-3.962,0.291508581929326,-0.5913217929990628
-3.9615,0.4515612047945656,-0.5807251545938954
-3.961,0.5049120790829789,-0.4853554089473885
-3.9605,0.6756348768059011,-0.474758770542221
-3.96,0.8463576745288233,-0.4217755785163839
-3.9595,0.7823366253827275,-0.1038764263613609
-3.959,0.6436243522328531,0.2670059178194992
-3.9585,0.5155822539406614,0.6166949851900245
-3.958,0.4515612047945656,0.8816109453192104
-3.9575,0.7609962756673623,1.188913459069066
-3.957,0.9103787236749192,1.475022696008586
-3.9565,0.2168173579255475,0.8816109453192104
-3.956,-0.6794773301197943,-0.1674562567923655
-3.9555,-1.116954499284783,-0.9622041371799229
-3.955,-0.8715404775580819,-1.025783967610927
-3.9545,-0.423393133535411,-0.7396747306714069
-3.954,-0.02859666380115328,-0.4111789401112165
-3.9535,0.2274875327832301,-0.1674562567923655
-3.953,0.3661998059331045,-0.008506680714854012
-3.9525,0.4195506802215176,0.06566978812131802
-3.952,0.4195506802215176,0.08686306493165288
-3.9515,0.408880505363835,0.09745970333682032
-3.951,0.3768699807907871,0.1610395337678249
-3.9505,0.3448594562177392,0.2670059178194992
-3.95,0.3128489316446912,0.383568940276341
-3.9495,0.1634664836371343,0.5001319627331828
-3.949,-0.4127229586777283,0.8180311148882058
-3.9485,-0.9462317015618604,0.9557874141553824
-3.948,-1.287677297007705,1.00877060618122
-3.9475,-1.180975548430879,0.7544512844572011
-3.947,-0.754168554123573,0.3199891098453364
-3.9465,-0.2953510352432193,-0.02969995752518888
-3.946,0.01408403562957729,-0.2098428104130352
-3.9455,0.2594980573562781,-0.2734226408440398
-3.945,0.3875401556484697,-0.3052125560595421
-3.9445,0.4515612047945656,-0.3052125560595421
-3.944,0.5582629533713921,-0.2840192792492073
-3.9435,0.8036769750980928,-0.3475991096802118
-3.943,0.8036769750980928,-0.2310360872233701
-3.9425,0.6863050516635838,-0.06148987274069118
-3.942,0.5689331282290746,0.1080563417419877
-3.9415,0.4835717293676135,0.2352160026039969
-3.941,0.5689331282290746,0.02328323450064829
-3.9405,0.6649647019482183,-0.6866915386455698
-3.94,0.142126133921769,-1.333086481360783
-3.9395,-0.5834457564006506,-1.778145294377815
-3.939,-1.06360362499637,-1.873515040024322
-3.9385,-0.8715404775580819,-1.301296566145281
-3.938,-0.4447334832507763,-0.6019184314042303
-3.9375,-0.04993701351651855,-0.09327978795619347
-3.937,0.2168173579255475,0.1716361721729923
-3.9365,0.3555296310754218,0.2458126410091644
-3.936,0.408880505363835,0.1822328105781598
-3.9355,0.4195506802215176,0.06566978812131802
-3.935,0.3982103305061524,-0.07208651114585861
-3.9345,0.3768699807907871,-0.1780528951975329
-3.934,0.3448594562177392,-0.1780528951975329
-3.9335,0.2701682322139607,-0.02969995752518888
-3.933,0.142126133921769,0.1928294489833272
-3.9325,-0.2420001609548061,0.5213252395435176
-3.932,-0.754168554123573,0.9345941373450475
-3.9315,-1.052933450138687,1.220703374284568
-3.931,-1.330357996438436,1.369056311956912
-3.9305,-1.373038695869166,1.104140351827727
-3.93,-0.9995825758502737,0.5319218779486851
-3.9295,-0.4554036581084589,-0.02969995752518888
-3.929,-0.007256314085787988,-0.3793890248957141
-3.9285,0.2701682322139607,-0.4641621321370536
-3.928,0.4302208550792003,-0.4535654937318862
-3.9275,0.5155822539406614,-0.3581957480853793
-3.927,0.7716664505250448,-0.4641621321370536
-3.9265,0.857027849386506,-0.4217755785163839
-3.926,0.7503261008096795,-0.1462629799820306
-3.9255,0.6116138276598051,0.1716361721729923
-3.925,0.5049120790829789,0.4471487707073456
-3.9245,0.4942419042252961,0.6590815388106942
-3.924,0.942389248247967,0.9981739677760521
-3.9235,0.9103787236749192,1.25249328950007
-3.923,0.0674349099179905,0.55311515475902
-3.9225,-0.7968492535543035,-0.4853554089473885
-3.922,-1.180975548430879,-1.216523458903942
-3.9215,-0.8928808272734472,-1.163540266878104
-3.921,-0.423393133535411,-0.792657922697244
-3.9205,-0.01792648894347063,-0.4217755785163839
-3.92,0.2381577076409128,-0.1462629799820306
-3.9195,0.3661998059331045,0.01268659609548085
-3.919,0.4195506802215176,0.09745970333682032
-3.9185,0.4195506802215176,0.1186529801471552
-3.918,0.3982103305061524,0.13984625695749
-3.9175,0.3661998059331045,0.2140227257936621
-3.917,0.3341892813600565,0.3305857482505039
-3.9165,0.2808384070716433,0.5001319627331828
-3.916,0.04609456020262521,0.7544512844572011
-3.9155,-0.572775581542968,1.114736990232894
-3.915,-1.1062843244271,1.25249328950007
-3.9145,-1.437059745015262,1.199510097474233
-3.914,-1.330357996438436,0.7544512844572011
-3.9135,-0.8928808272734472,0.2564092794143318
-3.913,-0.3700422592469978,-0.1356663415768632
-3.9125,0.01408403562957729,-0.3158091944647096
-3.912,0.2594980573562781,-0.3899856633008816
-3.9115,0.3875401556484697,-0.4217755785163839
-3.911,0.4515612047945656,-0.3899856633008816
-3.9105,0.6222840025174878,-0.5171453241628908
-3.91,0.79300680024041,-0.6125150698093976
-3.9095,0.7503261008096795,-0.4111789401112165
-3.909,0.6329541773751706,-0.1250697031716958
-3.9085,0.5262524287983441,0.1292496185523226
-3.908,0.4835717293676135,0.2881991946298341
-3.9075,0.5049120790829789,-0.02969995752518888
-3.907,0.7396559259519968,-0.5065486857577234
-3.9065,0.3341892813600565,-1.025783967610927
-3.906,-0.5514352318276028,-1.51322933424863
-3.9055,-0.9675720512772257,-1.523825972653797
-3.905,-0.754168554123573,-0.9410108603695881
-3.9045,-0.3487019095316325,-0.3370024712750445
-3.904,0.00341386077189465,0.07626642652648545
-3.9035,0.2381577076409128,0.2670059178194992
-3.903,0.3661998059331045,0.2776025562246667
-3.9025,0.408880505363835,0.1716361721729923
-3.902,0.408880505363835,0.02328323450064829
-3.9015,0.3982103305061524,-0.1356663415768632
-3.901,0.3661998059331045,-0.2416327256285375
-3.9005,0.3341892813600565,-0.2840192792492073
-3.9,0.3021787567870086,-0.2416327256285375
-3.8995,0.2168173579255475,-0.1356663415768632
-3.899,-0.2313299860971235,0.2881991946298341
-3.8985,-0.722158029550525,0.6378882620003594
-3.898,-0.9035510021311299,0.3305857482505039
-3.8975,-0.8608703027003992,-0.02969995752518888
-3.897,-0.6047861061160158,-0.2946159176543747
-3.8965,-0.2526703358124887,-0.4535654937318862
-3.896,0.01408403562957729,-0.5277419625680583
-3.8955,0.2168173579255475,-0.4959520473525559
-3.895,0.3555296310754218,-0.4323722169215513
-3.8945,0.4302208550792003,-0.4111789401112165
-3.894,0.4942419042252961,-0.3899856633008816
-3.8935,0.6756348768059011,-0.4323722169215513
-3.893,0.6863050516635838,-0.2416327256285375
-3.8925,0.6009436528021226,0.03387987290581572
-3.892,0.5155822539406614,0.2881991946298341
-3.8915,0.4515612047945656,0.5001319627331828
-3.891,0.5369226036560266,0.4895353243280153
-3.8905,0.8890383739595538,0.3305857482505039
-3.89,0.4729015545099309,-0.1356663415768632
-3.8895,-0.3273615598162672,-0.7714646458869092
-3.889,-1.052933450138687,-1.142346990067769
-3.8885,-1.191645723288561,-1.195330182093607
-3.888,-0.7968492535543035,-0.8032545611024114
-3.8875,-0.3166913849585846,-0.3687923864905467
