Class_8_Think_right_hand_movement/Class_8_Think_Right_hand_mouvement_ZAkour_3.csv

#Digilent WaveForms Oscilloscope Acquisition
#Device Name: EExplorer
#Serial Number: SN:210151A2B84A
#Date Time: 2020-11-26 10:49:21.009
#Sample rate: 2000Hz
#Samples: 16384
#Trigger: Source: Channel 1 Type: Edge Condition: Rising Level: 0 V Hyst.: Auto HoldOff: 0 s
#Channel 1: Range: 1 V/div Offset: 0 V Attenuation: 1 X
#Channel 2: Range: 1 V/div Offset: 0 V Attenuation: 1 X
#Power Supplies: ON
#Fixed Supply: ON
#Voltage: 3.3 V Readback: 3.323 V
#Positive Supply: ON
#Voltage: 3.7 V Readback: 3.715 V
#Current: 500 mA Readback: 19 mA
#Negative Supply: ON
#Voltage: -3.7 V Readback: -3.707 V
#Current: -500 mA Readback: -8 mA
#Reference 1: ON
#Voltage: 0 V
#Reference 2: ON
#Voltage: 0 V

Time (s),Channel 1 (V),Channel 2 (V)
-4.096,0.5796033030867573,1.093543713422559
-4.0955,0.5475927785137384,0.9875773293709811
-4.095,0.4088805053631945,0.6484849004047945
-4.0945,-0.2953510352432193,-0.1568596183871981
-4.094,-1.148965023857054,-1.025783967610137
-4.0935,-1.853196564464604,-1.693372187136688
-4.093,-1.543761493592088,-1.926498232050159
-4.0925,-0.5407650569708322,-1.428456227007743
-4.092,0.302178756787455,-0.7290780922657768
-4.0915,0.79300680024041,-0.2204394488182027
-4.091,0.974399772821015,0.04447651131098315
-4.0905,0.9637295979632549,0.1080563417419781
-4.09,0.8783681991018712,0.09745970333682032
-4.0895,0.8356874996711408,0.05507314971615059
-4.089,0.9957401225362347,-0.1250697031715319
-4.0885,0.974399772821015,-0.09327978795619347
-4.088,0.8463576745288233,0.04447651131098315
-4.0875,0.7076454013790752,0.1928294489831923
-4.087,0.6116138276598148,0.2987958330351943
-4.0865,0.6222840025174878,0.5107286011383502
-4.086,0.9637295979630219,1.13593026704266
-4.0855,0.5475927785127971,1.633972272085597
-4.085,-0.4554036581084589,1.082947075017392
-4.0845,-1.373038695868332,0.0868630649325588
-4.084,-2.15196146048029,-0.941010860370282
-4.0835,-2.472066706210478,-1.703968825541643
-4.083,-2.109280761049269,-1.778145294377815
-4.0825,-1.138294848999401,-1.036380606015343
-4.082,-0.3166913849585846,-0.2098428104130352
-4.0815,0.2274875327832301,0.4259554938970107
-4.081,0.5262524287980724,0.8180311148878492
-4.0805,0.6222840025174878,1.00877060618122
-4.08,0.6329541773751706,1.072350436612224
-4.0795,0.5902734779444787,1.051157159801909
-4.079,0.5582629533713436,0.9769806909655534
-4.0785,0.5049120790829789,0.7968378380778709
-4.078,0.00341386077235073,0.1610395337684032
-4.0775,-0.8502001278433572,-0.7290780922669333
-4.077,-1.554431668449771,-1.492036057438295
-4.0765,-1.629122892453482,-1.831128486403344
-4.076,-0.7648387289804597,-1.396666311791123
-4.0755,0.1101156093487211,-0.6654982618352349
-4.075,0.6969752265212663,-0.1144730647665284
-4.0745,0.9530594231056886,0.1504428953627346
-4.074,0.9957401225363802,0.2352160026039969
-4.0735,0.9210488985326017,0.2881991946298341
-4.073,0.8250173248135454,0.2987958330349919
-4.0725,0.942389248247967,0.1186529801471552
-4.072,0.9637295979633325,0.02328323450064829
-4.0715,0.857027849386603,0.09745970333675286
-4.071,0.7289857510942173,0.2140227257937488
-4.0705,0.6222840025174878,0.309392471440169
-4.07,0.5369226036561042,0.4153588554917469
-4.0695,0.5262524287980821,0.9239974989403427
-4.069,0.2381577076409128,1.432636142387917
-4.0685,-0.6154562809736985,0.8710143069140429
-4.068,-1.437059745015912,-0.05089323433637185
-4.0675,-2.151961460479999,-0.9833974139902578
-4.067,-2.472066706210478,-1.714565463946811
-4.0665,-2.344024607917471,-2.021867977696078
-4.066,-1.447729919872945,-1.375473034981453
-4.0655,-0.5514352318276028,-0.4959520473525559
-4.065,0.08877525963277344,0.2246193641981742
-4.0645,0.4515612047945656,0.6908714540261965
-4.064,0.6116138276598051,0.92399749893988
-4.0635,0.6329541773751511,0.9981739677759845
-4.063,0.6009436528020837,0.9875773293708365
-4.0625,0.5582629533713921,0.9345941373450475
-4.062,0.536922603656046,0.7968378380779961
-4.0615,0.2168173579248099,0.298795833034192
-4.061,-0.5941159312583333,-0.5913217929990628
-4.0605,-1.287677297007705,-1.396666311791788
-4.06,-1.618452717595294,-1.894708316834368
-4.0595,-0.9889124009925911,-1.576809164679634
-4.059,-0.09261771294724913,-0.8774310299385835
-4.0585,0.5582629533708001,-0.3052125560600626
-4.058,0.8890383739595538,0.05507314971615059
-4.0575,0.942389248247967,0.2246193641988295
-4.057,0.8783681991019294,0.2670059178194607
-4.0565,0.7823366253827275,0.2670059178194992
-4.056,0.8143471499557753,0.1504428953626575
-4.0555,0.9210488985325047,-0.01910331911986723
-4.055,0.8570278493863992,0.04447651131110844
-4.0545,0.7396559259519968,0.1822328105781598
-4.054,0.6436243522329405,0.3199891098452111
-4.0535,0.5796033030868641,0.4365521323024866
-4.053,0.6969752265212663,0.775644561267536
-4.0525,0.8890383739595538,1.432636142387917
-4.052,0.1634664836362803,1.485619334413069
-4.0515,-0.7755089038389382,0.7332580076468663
-4.051,-1.554431668449771,-0.2204394488182027
-4.0505,-2.237322859340839,-1.152943628472089
-4.05,-2.472066706210478,-1.820531847998485
-4.0495,-2.013249187330125,-1.725162102351978
-4.049,-1.042263275281887,-0.9198175835599857
-4.0485,-0.2420001609543403,-0.09327978795563449
-4.048,0.2701682322139607,0.5213252395435176
-4.0475,0.5369226036557839,0.8816109453188827
-4.047,0.6329541773751609,1.051157159801928
-4.0465,0.6222840025174878,1.093543713422559
-4.046,0.5902734779444689,1.061753798207086
-4.0455,0.547592778513554,0.955787414155074
-4.045,0.3768699807907871,0.6166949851900245
-4.0445,-0.3380317346739499,-0.2098428104130352
-4.044,-1.202315898146836,-1.068170521232185
-4.0435,-1.853196564464885,-1.714565463946811
-4.043,-1.447729919872945,-1.79933857118815
-4.0425,-0.4447334832516885,-1.17413690528384
-4.042,0.3768699807907871,-0.4853554089473885
-4.0415,0.825017324813458,-0.01910331912002144
-4.041,0.9530594231055333,0.1928294489831344
-4.0405,0.9210488985325144,0.2246193641987813
-4.04,0.825017324813458,0.1716361721729923
-4.0395,0.7930068002404391,0.09745970333688778
-4.039,0.963729597963313,-0.114473064766538
-4.0385,0.942389248247967,-0.1250697031716958
-4.038,0.8250173248135648,-0.02969995752527561
-4.0375,0.6969752265211789,0.0974597033369167
-4.037,0.6009436528021226,0.2034260873884947
-4.0365,0.6329541773751706,0.4153588554918433
-4.036,0.9103787236743952,1.008770606181171
-4.0355,0.3341892813600565,0.9557874141553824
-4.035,-0.5834457564006506,0.1186529801471552
-4.0345,-1.330357996437756,-0.7396747306706263
-4.034,-2.013249187330125,-1.481439419033127
-4.0335,-2.450726356495113,-1.979481424075996
-4.033,-2.098610586191906,-1.831128486403788
-4.0325,-1.13829484899941,-0.9516074987739362
-4.032,-0.3273615598162672,-0.05089323433552374
-4.0315,0.2168173579250525,0.5955017083791018
-4.031,0.5155822539407584,0.9769806909658715
-4.0305,0.6222840025174878,1.146526905448396
-4.03,0.6222840025174878,1.188913459069027
-4.0295,0.590273477944401,1.135930267043132
-4.029,0.5475927785137094,1.029963882991555
-4.0285,0.4835717293676135,0.7862411996727035
-4.028,-0.06060718837499696,0.05507314971531212
-4.0275,-0.9355615267041777,-0.8668343915334161
-4.027,-1.693143941599645,-1.629792356705471
-4.0265,-1.778505340461029,-2.053657892911783
-4.026,-0.8715404775580819,-1.672178910326141
-4.0255,0.04609456020262521,-0.9622041371799229
-4.025,0.6649647019476554,-0.4217755785168754
-4.0245,0.9423892482479961,-0.1462629799819439
-4.024,0.974399772821015,-0.05089323433552374
-4.0235,0.8890383739596314,-0.008506680714892564
-4.023,0.8036769750982092,0.002089957690226683
-4.0225,0.9317190733902845,-0.09327978795619347
-4.022,0.9530594231056303,-0.1144730647665091
-4.0215,0.8463576745287068,-0.01910331911989616
-4.021,0.7183155762366316,0.1186529801471552
-4.0205,0.6222840025174878,0.2458126410091644
-4.02,0.6009436528025205,0.4047622170871674
-4.0195,1.038420821967111,0.9451907757502149
-4.019,0.974399772821015,1.612778995275763
-4.0185,0.01408403563045069,1.411442865577765
-4.018,-0.8928808272734472,0.4365521323021782
-4.0175,-1.650463242168915,-0.6760949002404023
-4.017,-2.301343908486964,-1.523825972653026
-4.0165,-2.418715831921395,-1.958288147265209
-4.016,-1.682473766741963,-1.460246142222792
-4.0155,-0.76483872898209,-0.5277419625689064
-4.015,-0.04993701351613038,0.298795833035522
-4.0145,0.3768699807907871,0.8710143069140429
-4.014,0.5796033030865729,1.188913459068777
-4.0135,0.6329541773751511,1.316073119931094
-4.013,0.6116138276598051,1.33726639674141
-4.0125,0.5796033030867573,1.273686566310405
-4.012,0.5369226036556772,1.104140351827206
-4.0115,0.1527963087794516,0.5319218779486851
-4.011,-0.6794773301197943,-0.1886495336027004
-4.0105,-1.501080794160611,-0.9622041371792194
-4.01,-1.906547438753298,-1.534422611058964
-4.0095,-1.116954499284783,-1.492036057438295
-4.009,-0.1459685872365454,-0.951607498775247
-4.0085,0.5582629533717124,-0.4111789401109177
-4.008,0.9103787236749192,-0.08268314955102604
-4.0075,1.006410297393976,0.02328323450055191
-4.007,0.9423892482478796,-0.01910331912010818
-4.0065,0.8463576745288233,-0.1144730647665284
-4.006,0.9210488985326017,-0.2416327256285375
-4.0055,1.038420821967023,-0.3793890248957045
-4.005,0.942389248247967,-0.3687923864905467
-4.0045,0.79300680024041,-0.2840192792492073
-4.004,0.6649647019481504,-0.1568596183870535
-4.0035,0.5902734779444399,0.002089957690313421
-4.003,0.857027849386506,0.4895353243280153
-4.0025,0.9637295979632354,1.18891345906843
-4.002,0.1314559590640864,0.8816109453192104
-4.0015,-0.7648387289812555,0.1504428953626575
-4.001,-1.458400094729996,0.2140227257936043
-4.0005,-2.10928076104955,0.4789386859223371
-4,-2.418715831922065,-0.08268314955102604
-3.9995,-1.767835165603424,-0.3899856633008816
-3.999,-0.8502001278427167,-0.1038764263613609
-3.9985,-0.124628237520297,0.3623756634660061
-3.998,0.3448594562177392,0.7862411996727035
-3.9975,0.5689331282290746,1.114736990232894
-3.997,0.6329541773751706,1.316073119931075
-3.9965,0.6222840025174878,1.443232780793084
-3.996,0.5796033030867573,1.485619334413754
-3.9955,0.5475927785137094,1.443232780793084
-3.995,0.3661998059331045,1.135930267043229
-3.9945,-0.3700422592469978,0.3411823866556712
-3.994,-1.223656247861609,-0.5065486857577234
-3.9935,-1.895877263895616,-1.121153713257435
-3.993,-1.426389570157579,-1.205926820498774
-3.9925,-0.4447334832507763,-0.7078848154559045
-3.992,0.3661998059331045,-0.1250697031716958
-3.9915,0.8356874996711408,0.2564092794143318
-3.991,0.9850699476786977,0.3729723018711736
-3.9905,0.9530594231056497,0.2881991946298341
-3.99,0.857027849386506,0.1292496185523226
-3.9895,0.8356874996711408,-0.1462629799820306
-3.989,0.9957401225363802,-0.4959520473525559
-3.9885,0.9530594231056497,-0.5383386009732256
-3.988,0.8143471499557753,-0.4323722169215513
-3.9875,0.6863050516635838,-0.3052125560595421
-3.987,0.6009436528021226,-0.1886495336027004
-3.9865,0.5049120790829789,0.1080563417419877
-3.986,0.6436243522328531,0.9134008605347127
-3.9855,0.1741366584948169,1.528005888034424
-3.985,-0.7008176798351597,1.00877060618122
-3.9845,-1.522421143876723,-0.08268314955102604
-3.984,-2.226652684483777,-1.078767159636765
-3.9835,-2.472066706210478,-1.75695201756748
-3.983,-2.141291285622316,-1.778145294377815
-3.9825,-1.170305373573196,-0.9728007755850904
-3.982,-0.3380317346739499,-0.06148987274069118
-3.9815,0.2274875327832301,0.6484849004055269
-3.981,0.5155822539406614,1.082947075017392
-3.9805,0.6222840025174878,1.284283204715573
-3.98,0.6329541773751706,1.347863035146577
-3.9795,0.5902734779444399,1.316073119931075
-3.979,0.5582629533713921,1.210106735879401
-3.9785,0.4729015545099309,0.9345941373450475
-3.978,-0.1032878878049318,0.1716361721729923
-3.9775,-0.9675720512772257,-0.7714646458869092
-3.977,-1.714484291315011,-1.545019249464132
-3.9765,-1.693143941599645,-1.947691508860494
-3.976,-0.7648387289812555,-1.587405803084801
-3.9755,0.1101156093487211,-0.9092209451540858
-3.975,0.6756348768059011,-0.326405832869877
-3.9745,0.9210488985326017,0.02328323450064829
-3.974,0.942389248247967,0.1292496185523226
-3.9735,0.8676980242441885,0.1186529801471552
-3.973,0.8036769750980928,0.01268659609548085
-3.9725,0.9637295979633325,-0.3158091944647096
-3.972,0.9850699476786977,-0.4429688553267188
-3.9715,0.8676980242441885,-0.3581957480853793
-3.971,0.7289857510943143,-0.2098428104130352
-3.9705,0.6329541773751706,-0.06148987274069118
-3.97,0.5582629533713921,0.1610395337678249
-3.9695,0.4302208550792003,0.8286277532933731
-3.969,-0.2633405106701714,1.199510097474233
-3.9685,-1.116954499284783,0.5107286011383502
-3.968,-1.682473766741963,-0.3581957480853793
-3.9675,-2.205312334768412,-1.163540266878104
-3.967,-2.461396531352796,-1.735758740757146
-3.9665,-2.344024607918286,-1.894708316834657
-3.966,-1.479740444445993,-1.184733543688439
-3.9655,-0.5834457564006506,-0.2310360872233701
-3.965,0.0674349099179905,0.5425185163538525
-3.9645,0.4515612047945656,1.040560521396722
-3.964,0.6116138276598051,1.284283204715573
-3.9635,0.6436243522328531,1.369056311956912
-3.963,0.6116138276598051,1.33726639674141
-3.9625,0.5796033030867573,1.231300012689736
-3.962,0.5369226036560266,1.019367244586387
-3.9615,0.1848068333524996,0.4259554938970107
-3.961,-0.6367966306890638,-0.4959520473525559
-3.9605,-1.46907026958831,-1.333086481360783
-3.96,-1.83185621474952,-1.79933857118815
-3.9595,-1.06360362499637,-1.502632695843462
-3.959,-0.124628237520297,-0.9198175835592532
-3.9585,0.5582629533713921,-0.4535654937318862
-3.958,0.8997085488172365,-0.2098428104130352
-3.9575,0.9850699476786977,-0.1356663415768632
-3.957,0.9317190733902845,-0.1992461720078678
-3.9565,0.857027849386506,-0.2946159176543747
-3.956,0.974399772821015,-0.5171453241628908
-3.9555,1.091771696255524,-0.6443049850249
-3.955,0.9850699476786977,-0.4959520473525559
-3.9545,0.8143471499557753,-0.2628260024388724
-3.954,0.6756348768059011,-0.01910331912002144
-3.9535,0.5902734779444399,0.2140227257936621
-3.953,0.5475927785137094,0.7438546460520338
-3.9525,0.1527963087794516,1.506812611224089
-3.952,-0.722158029550525,1.633972272086098
-3.9515,-1.46907026958831,0.7862411996727035
-3.951,-2.098610586191586,-0.3475991096802118
-3.9505,-2.450726356495113,-1.258910012524611
-3.95,-2.418715831922065,-1.746355379162313
-3.9495,-1.650463242168915,-1.333086481360783
-3.949,-0.722158029550525,-0.4217755785163839
-3.9485,-0.01792648894347063,0.4365521323021782
-3.948,0.408880505363835,1.051157159801889
-3.9475,0.6009436528021226,1.400846227172415
-3.947,0.6542945270905358,1.549199164844759
-3.9465,0.6329541773751706,1.570392441655093
-3.946,0.5902734779444399,1.506812611224089
-3.9455,0.5582629533713921,1.347863035146577
-3.945,0.3555296310754218,0.9875773293708847
-3.9445,-0.391382608962363,0.849821030103708
-3.944,-1.277007122150022,0.4153588554918433
-3.9435,-1.895877263895616,-0.474758770542221
-3.943,-1.287677297007705,-1.046977244421262
-3.9425,-0.2526703358124887,-1.078767159636765
-3.942,0.5262524287983441,-0.8456411147230812
-3.9415,0.9317190733902845,-0.5913217929990628
-3.941,1.027750647109428,-0.4217755785163839
-3.9405,0.9637295979633325,-0.3581957480853793
-3.94,0.857027849386506,-0.3158091944647096
-3.9395,0.8356874996711408,-0.3475991096802118
-3.939,0.974399772821015,-0.5065486857577234
-3.9385,0.9317190733902845,-0.4323722169215513
-3.938,0.8036769750980928,-0.2310360872233701
-3.9375,0.6863050516635838,-0.01910331912002144
-3.937,0.6116138276598051,0.1822328105781598
-3.9365,0.6756348768059011,0.5637117931641874
-3.936,0.8997085488172365,1.263089927905238
-3.9355,0.2274875327832301,1.326669758336243
-3.935,-0.7328282044082075,0.5319218779486851
-3.9345,-1.447729919872945,0.457745409112513
-3.934,-2.098610586191586,1.061753798207057
-3.9335,-2.44005618163743,1.188913459069066
-3.933,-1.87453691418025,0.7226613692416989
-3.9325,-0.9355615267041777,0.5213252395435176
-3.932,-0.1673089369510276,0.55311515475902
-3.9315,0.3128489316446912,0.6908714540261965
-3.931,0.5689331282290746,0.8816109453192104
-3.9305,0.6436243522328531,1.051157159801889
-3.93,0.6329541773751706,1.199510097474233
-3.9295,0.6009436528021226,1.316073119931075
-3.929,0.5582629533713921,1.358459673551745
-3.9285,0.4729015545099309,1.210106735879401
-3.928,-0.09261771294724913,0.5743084315693548
-3.9275,-0.9142211769888124,-0.2204394488182027
-3.927,-1.597112367880501,-0.8668343915334161
-3.9265,-1.479740444445993,-1.068170521231597
-3.926,-0.5834457564006506,-0.6231117082145651
-3.9255,0.2381577076409128,0.07626642652648545
-3.925,0.7716664505250448,0.6060983467848571
-3.9245,0.9850699476786977,0.8816109453192104
-3.924,0.9850699476786977,0.9769806909657173
-3.9235,0.8783681991018712,0.92399749893988
-3.923,0.8143471499557753,0.7438546460520338
-3.9225,0.9957401225363802,0.2776025562246667
-3.922,1.006410297394063,-0.008506680714854012
-3.9215,0.8783681991018712,-0.1144730647665284
-3.921,0.7396559259519968,-0.1674562567923655
-3.9205,0.6329541773751706,-0.2204394488182027
-3.92,0.5262524287983441,-0.1674562567923655
-3.9195,0.3021787567870086,0.4047622170866759
-3.919,-0.3273615598162672,0.6378882620003594
-3.9185,-1.138294849000148,-0.01910331912002144
-3.918,-1.629122892453549,-0.2734226408440398
-3.9175,-2.066600061618538,0.3941655786815084
-3.917,-2.429386006779747,0.8710143069140429
-3.9165,-2.354694782775969,0.3305857482505039
-3.916,-1.533091318734406,-0.01910331912002144
-3.9155,-0.6261264558313813,0.01268659609548085
-3.915,0.04609456020262521,0.2034260873884947
-3.9145,0.4302208550792003,0.4259554938970107
-3.914,0.6116138276598051,0.627291623595192
-3.9135,0.6542945270905358,0.775644561267536
-3.913,0.6329541773751706,0.8816109453192104
-3.9125,0.5902734779444399,0.92399749893988
-3.912,0.5475927785137094,0.8604176685088755
-3.9115,0.1101156093487211,0.3517790250608387
-3.911,-0.7434983792658902,-0.4429688553267188
-3.9105,-1.575772018165136,-1.131750351662602
-3.91,-1.842526389607202,-1.417859588602123
-3.9095,-0.9675720512772257,-1.110557074852267
-3.909,-0.02859666380115328,-0.4429688553267188
-3.9085,0.6222840025174878,0.1716361721729923
-3.908,0.9210488985326017,0.5637117931641874
-3.9075,0.9850699476786977,0.7120647308365314
-3.907,0.9210488985326017,0.6802748156210291
-3.9065,0.825017324813458,0.55311515475902
-3.906,0.942389248247967,0.1716361721729923
-3.9055,1.027750647109428,-0.1356663415768632
-3.905,0.9210488985326017,-0.1674562567923655
-3.9045,0.7823366253827275,-0.1038764263613609
-3.904,0.6649647019482183,-0.01910331912002144
-3.9035,0.6009436528021226,0.06566978812131802
-3.903,0.79300680024041,0.55311515475902
-3.9025,0.7823366253827275,1.25249328950007
-3.902,-0.07127736323188383,0.9981739677760521
-3.9015,-0.9355615267041777,0.1504428953626575
-3.901,-1.661133417026597,-0.8032545611024114
-3.9005,-2.290673733629873,-1.566212526274467
-3.9,-2.386705307349017,-2.021867977696666
-3.8995,-1.618452717595867,-1.534422611058964
-3.899,-0.7114878546928423,-0.6443049850249
-3.8985,-0.01792648894347063,0.13984625695749
-3.898,0.408880505363835,0.6590815388106942
-3.8975,0.6009436528021226,0.9451907757502149
-3.897,0.6542945270905358,1.061753798207057
-3.8965,0.6329541773751706,1.072350436612224
-3.896,0.5902734779444399,1.019367244586387
-3.8955,0.5582629533713921,0.8710143069140429
-3.895,0.3128489316446912,0.383568940276341
-3.8945,-0.4874141826815069,-0.5171453241628908
-3.894,-1.330357996438436,-1.364876396576285
-3.8935,-1.938557963326346,-1.968884785670829
-3.893,-1.458400094730627,-1.894708316834657
-3.8925,-0.5300948821122373,-1.195330182093607
-3.892,0.2488278824985954,-0.5489352393783931
-3.8915,0.7289857510943143,-0.08268314955102604
-3.891,0.9317190733902845,0.1610395337678249
-3.8905,0.9317190733902845,0.2458126410091644
-3.89,0.8463576745288233,0.2034260873884947
-3.8895,0.8463576745288233,0.1292496185523226
-3.889,0.942389248247967,-0.01910331912002144
-3.8885,0.8783681991018712,-0.1250697031716958
-3.888,0.7609962756673623,-0.1568596183871981
-3.8875,0.6649647019482183,-0.1356663415768632
-3.887,0.6009436528021226,-0.06148987274069118
-3.8865,0.7289857510943143,0.2670059178194992
-3.886,0.9957401225363802,1.019367244586387
-3.8855,0.291508581929326,1.25249328950007
