Class_8_Think_right_hand_movement/Class_8_Think_Right_hand_mouvement_AM_4.csv

#Digilent WaveForms Oscilloscope Acquisition
#Device Name: EExplorer
#Serial Number: SN:210151A2B84A
#Date Time: 2020-11-30 11:31:33.258
#Sample rate: 2000Hz
#Samples: 16384
#Trigger: Source: Channel 1 Type: Edge Condition: Rising Level: 0 V Hyst.: Auto HoldOff: 0 s
#Channel 1: Range: 1 V/div Offset: 0 V Attenuation: 1 X
#Channel 2: Range: 1 V/div Offset: 0 V Attenuation: 1 X
#Power Supplies: ON
#Fixed Supply: ON
#Voltage: 3.3 V Readback: 3.361 V
#Positive Supply: ON
#Voltage: 3.7 V Readback: 3.732 V
#Current: 500 mA Readback: 18 mA
#Negative Supply: ON
#Voltage: -3.7 V Readback: -3.683 V
#Current: -500 mA Readback: -11 mA
#Reference 1: ON
#Voltage: 0 V
#Reference 2: ON
#Voltage: 0 V

Time (s),Channel 1 (V),Channel 2 (V)
-4.096,-0.03926683865883591,-0.02969995752518888
-4.0955,-0.5941159312578287,-0.6125150698088676
-4.095,-0.7434983792657447,-1.078767159637054
-4.0945,-0.5834457564006506,-1.396666311791788
-4.094,0.323519106501549,-1.57680916467947
-4.0935,1.241154144263547,-1.534422611058733
-4.093,1.753322537431848,-1.280103289334946
-4.0925,1.881364635723923,-0.7926579226976873
-4.092,1.796003236862413,-0.0826831495502454
-4.0915,1.614610264281974,0.775644561267536
-4.091,1.401206767128321,1.400846227172415
-4.0905,1.369196242555108,1.655165548896539
-4.09,1.187803269974668,1.771728571353275
-4.0895,0.8783681991018712,1.729342017732605
-4.089,0.6222840025177208,1.602182356870711
-4.0885,0.4408910299368829,1.443232780793084
-4.088,0.3875401556484697,1.316073119931075
-4.0875,0.7396559259516766,1.570392441654862
-4.087,0.632954177374433,1.400846227171528
-4.0865,-0.1779791118087102,0.4259554938970107
-4.086,-1.159635198714621,-0.5807251545929799
-4.0855,-2.013249187330727,-1.364876396576786
-4.085,-2.674800028506448,-1.915901593644992
-4.0845,-2.760161427367832,-2.053657892912043
-4.084,-2.653459678790249,-1.979481424075302
-4.0835,-1.735824641030376,-1.216523458903942
-4.083,-0.807519428411986,-0.3370024712750445
-4.0825,-0.1459685872353227,0.2881991946301425
-4.082,0.2274875327832301,0.627291623595192
-4.0815,0.3768699807907871,0.7332580076468663
-4.081,0.3661998059331142,0.6908714540262351
-4.0805,0.3235191065023739,0.6060983467848571
-4.08,0.2808384070716433,0.4895353243280153
-4.0795,0.2061471830679328,0.2352160026042283
-4.079,-0.188649286666752,-0.3899856633014888
-4.0785,-0.5834457564006506,-1.05757388282643
-4.078,-0.7861790786964363,-1.608599079894635
-4.0775,-0.1352984123771645,-1.968884785670858
-4.077,0.7609962756673623,-2.000674700886331
-4.0765,1.401206767127738,-1.831128486403807
-4.076,1.721312012858829,-1.205926820498196
-4.0755,1.753322537431848,-0.570128516188728
-4.075,1.625280439139656,0.1186529801471552
-4.0745,1.411876941985897,0.7014680924316242
-4.074,1.294505018551494,0.9875773293708847
-4.0735,1.123782220828572,1.104140351827727
-4.073,1.059761171682534,1.453829419197934
-4.0725,0.942389248247967,1.591585718465428
-4.072,0.7289857510943143,1.464426057603419
-4.0715,0.5475927785138743,1.263089927905421
-4.071,0.6969752265216351,1.379652950362292
-4.0705,1.102441871113207,1.612778995275763
-4.07,0.6329541773755976,0.902804222130191
-4.0695,-0.2633405106710933,-0.1462629799828306
-4.069,-1.277007122150022,-1.025783967610927
-4.0685,-2.141291285622316,-1.693372187136476
-4.068,-2.717480727937082,-2.021867977696589
-4.0675,-2.610778979360353,-1.937094870455327
-4.067,-1.682473766741963,-1.068170521231597
-4.0665,-0.7861790786960288,-0.1250697031710597
-4.066,-0.1352984123779797,0.5743084315693548
-4.0655,0.2274875327832301,0.9663840525605498
-4.065,0.3768699807906513,1.125333628637917
-4.0645,0.3982103305061524,1.135930267043229
-4.064,0.3768699807907871,1.072350436612224
-4.0635,0.3341892813600953,0.9875773293709618
-4.063,0.2274875327827158,0.8180311148876468
-4.0625,-0.3380317346739499,0.2034260873884947
-4.062,-0.8822106524152695,-0.6231117082138133
-4.0615,-1.07427379985347,-1.290699927740586
-4.061,-0.4340633083930936,-1.809935209593318
-4.0605,0.7396559259519968,-2.032464616101834
-4.06,1.561259389993919,-2.043061254506991
-4.0595,1.956055859727818,-2.032464616101834
-4.059,2.009406734016231,-1.693372187136476
-4.0585,1.838683936293464,-0.8880276683444833
-4.058,1.582599739708926,-0.252229364033705
-4.0575,1.369196242555273,0.1716361721729923
-4.057,1.230483969405525,0.4365521323019372
-4.0565,0.9637295979633325,0.5319218779486851
-4.056,0.7183155762366316,0.5637117931641874
-4.0555,0.5155822539408458,0.5743084315693452
-4.055,0.3982103305060651,0.6060983467850306
-4.0545,0.3021787567870086,0.7968378380778709
-4.054,0.07810508477587691,1.178316820663551
-4.0535,-0.4980843575397912,0.7226613692409086
-4.053,-1.159635198715513,-0.1462629799820306
-4.0525,-1.842526389607202,-0.8880276683437509
-4.052,-2.504077230783759,-1.396666311792009
-4.0515,-2.76016142736791,-1.640388995110639
-4.051,-2.749491252510227,-1.587405803084801
-4.0505,-2.173301810195888,-0.941010860370176
-4.05,-1.159635198715513,0.05507314971615059
-4.0495,-0.391382608962363,0.9134008605347127
-4.049,0.09944543449059201,1.45382941919776
-4.0485,0.3128489316447398,1.697552102517141
-4.048,0.3661998059331045,1.739938656137773
-4.0475,0.3448594562177586,1.665762187301668
-4.047,0.3021787567869698,1.506812611223896
-4.0465,0.2594980573562781,1.29487984312074
-4.046,-0.1459685872352935,0.6802748156215881
-4.0455,-0.828859778127565,-0.2522293640343989
-4.045,-1.06360362499637,-1.01518732920576
-4.0445,-0.6794773301197943,-1.534422611058964
-4.044,0.4622313796531119,-1.915901593645098
-4.0435,1.411876941986003,-2.032464616101834
-4.043,1.881364635724039,-2.032464616101834
-4.0425,1.977396209443096,-2.021867977696676
-4.042,1.849354111150991,-1.735758740757146
-4.0415,1.603940089424291,-1.089363798041932
-4.041,1.358526067697813,-0.5595318777840423
-4.0405,1.33718571798205,-0.3475991096800866
-4.04,1.145122570543937,-0.2098428104130352
-4.0395,0.8676980242444408,-0.05089323433566831
-4.039,0.6329541773750152,0.108056341742113
-4.0385,0.4622313796522482,0.2458126410091644
-4.038,0.3875401556485377,0.4259554938968468
-4.0375,0.4302208550790353,0.7756445612676902
-4.037,0.2488278824985954,0.9451907757502149
-4.0365,-0.5514352318276028,0.2670059178194992
-4.036,-1.469070269589038,-0.5701285161892773
-4.0355,-2.269333383914508,-1.174136905283272
-4.035,-2.749491252510227,-1.492036057438295
-4.0345,-2.770831602225573,-1.502632695843453
-4.034,-2.482736881068161,-1.046977244421262
-4.0335,-1.458400094730627,-0.07208651114585861
-4.033,-0.6047861061167922,0.8816109453183429
-4.0325,-0.01792648894320861,1.549199164845076
-4.032,0.2701682322139607,1.898888232215284
-4.0315,0.3661998059330172,2.004854616266862
-4.031,0.366199805933085,1.941274785835809
-4.0305,0.3448594562177392,1.782325209758442
-4.03,0.3021787567870474,1.570392441655286
-4.0295,0.1101156093481388,1.157123543852744
-4.029,-0.5300948821122373,0.2564092794143318
-4.0285,-0.9355615267041777,-0.6549016234300674
-4.028,-1.010252750707248,-1.364876396576767
-4.0275,-0.2313299860971235,-1.894708316834657
-4.027,0.8890383739595538,-2.032464616101834
-4.0265,1.625280439138987,-2.043061254506991
-4.026,1.92404533515477,-2.000674700886331
-4.0255,1.881364635724039,-1.576809164679634
-4.025,1.678631313428254,-0.9516074987753241
-4.0245,1.411876941985964,-0.474758770542115
-4.024,1.369196242555273,-0.3581957480853793
-4.0235,1.294505018551562,-0.2946159176544325
-4.023,1.00641029739384,-0.06148987274048879
-4.0225,0.7609962756673623,0.1610395337678249
-4.022,0.7076454013789976,0.3199891098451919
-4.0215,0.611613827659873,0.4471487707077118
-4.021,0.6863050516635838,0.849821030103708
-4.0205,0.857027849386506,1.284283204715573
-4.02,0.312848931643847,0.7120647308356833
-4.0195,-0.6154562809736985,-0.2204394488182027
-4.019,-1.565101843307454,-1.025783967610927
-4.0185,-2.376035132490597,-1.566212526273975
-4.018,-2.770831602225592,-1.34368311976595
-4.0175,-2.738821077652544,-0.1250697031716958
-4.017,-1.95989831304242,0.7332580076460857
-4.0165,-0.9889124009919312,1.11473699023301
-4.016,-0.2633405106701714,1.241896651094903
-4.0155,0.1634664836367461,1.273686566310376
-4.015,0.3341892813600663,1.252493289500051
-4.0145,0.3448594562177392,1.231300012689736
-4.014,0.3128489316447204,1.220703374284578
-4.0135,0.2915085819292387,1.210106735879275
-4.013,0.1954770082101822,1.072350436612224
-4.0125,-0.2633405106701714,0.4365521323021782
-4.012,-0.6474668055467174,-0.2734226408443772
-4.0115,-0.6154562809736985,-0.6443049850249
-4.011,0.142126133921769,-0.8668343915334161
-4.0105,1.2731646688351,-1.121153713257203
-4.01,1.988066384300866,-1.290699927740113
-4.0095,2.201469881454519,-1.290699927740113
-4.009,2.073427783162443,-0.9939940523956952
-4.0085,1.817343586577672,-0.4429688553260634
-4.008,1.51857869056283,0.2776025562246667
-4.0075,1.33718571798239,0.9557874141547655
-4.007,1.305175193408944,1.665762187301774
-4.0065,1.049090996824793,1.856501678594614
-4.006,0.7716664505250448,1.602182356870596
-4.0055,0.5369226036559005,1.220703374284269
-4.005,0.3982103305061524,0.8922075837243778
-4.0045,0.291508581929326,0.627291623595192
-4.004,0.5262524287984411,0.5955017083793716
-4.0035,0.6329541773751706,0.2458126410091644
-4.003,0.0674349099179905,-0.4535654937318862
-4.0025,-0.8928808272725738,-1.11055707485167
-4.002,-1.789175515318789,-1.354279758171118
-4.0015,-2.557428105071939,-0.5383386009732256
-4.001,-2.770831602225398,0.7332580076457098
-4.0005,-2.119950935906058,1.390249588767247
-4,-1.138294849000148,1.390249588767247
-3.9995,-0.3807124341046804,1.167720182258731
-3.999,0.08877525963335578,0.9451907757502149
-3.9985,0.3235191065023739,0.8074344764830383
-3.998,0.3875401556484697,0.7438546460520338
-3.9975,0.3661998059331045,0.7438546460520338
-3.997,0.3235191065023739,0.7968378380778709
-3.9965,0.2808384070716433,0.7862411996727035
-3.996,-0.1032878878049318,0.4471487707073456
-3.9955,-0.7328282044082075,-0.252229364033705
-3.995,-1.127624674142465,-0.8774310299385835
-3.9945,-1.042263275281004,-1.290699927740113
-3.994,0.03542438534494258,-1.492036057438295
-3.9935,1.113112045970889,-1.42845622700729
-3.993,1.699971663143435,-1.110557074852267
-3.9925,1.892034810581722,-0.6760949002404023
-3.992,1.817343586577944,0.09745970333682032
-3.9915,1.614610264281974,0.8392243916985406
-3.991,1.411876941986003,1.369056311956912
-3.9905,1.454557641416734,1.814115124973944
-3.99,1.262494493978446,1.824711763379112
-3.9895,0.9530594231056497,1.528005888034424
-3.989,0.6756348768059011,1.188913459069066
-3.9885,0.4729015545099309,0.9028042221295453
-3.988,0.3448594562177392,0.6802748156210291
-3.9875,-0.09261771294724913,0.309392471440169
-3.987,-0.807519428411986,-0.3581957480853793
-3.9865,-1.383708870726849,-0.9410108603695881
-3.986,-1.661133417026597,-0.8880276683437509
-3.9855,-1.885207089037933,-1.068170521231597
-3.985,-2.23732285934146,-1.407262950196955
-3.9845,-2.6427895039334,-1.75695201756748
-3.984,-2.461396531352796,-1.778145294377815
-3.9835,-1.543761493592088,-0.9622041371799229
-3.983,-0.7008176798351597,-0.1144730647665284
-3.9825,-0.1032878878049318,0.5319218779486851
-3.982,0.2274875327832301,0.9028042221295453
-3.9815,0.3768699807907871,1.061753798207057
-3.981,0.408880505363835,1.072350436612224
-3.9805,0.3768699807907871,1.019367244586387
-3.98,0.3235191065023739,0.9345941373450475
-3.9795,0.01408403562957729,0.55311515475902
-3.979,-0.5941159312583333,-0.2310360872233701
-3.9785,-0.8715404775580819,-0.8986243067489184
-3.978,-0.7755089038389382,-1.38606967338662
-3.9775,-0.007256314085787988,-1.79933857118815
-3.977,0.8356874996711408,-2.011271339291499
-3.9765,1.433217291701369,-2.032464616101834
-3.976,1.7213120128588,-1.894708316834657
-3.9755,1.731982187716482,-1.227120097309109
-3.975,1.571929564851243,-0.3370024712750445
-3.9745,1.369196242555273,0.309392471440169
-3.974,1.305175193409177,0.849821030103708
-3.9735,1.241154144263081,1.167720182258731
-3.973,1.070431346540159,1.157123543853563
-3.9725,0.8143471499557753,1.019367244586387
-3.972,0.6222840025174878,0.8710143069140429
-3.9715,0.5049120790829789,0.8074344764830383
-3.971,0.1954770082101822,0.5425185163538525
-3.9705,-0.6474668055467465,-0.1568596183871981
-3.97,-1.46907026958831,-0.8668343915334161
-3.9695,-2.098610586191586,-1.396666311791788
-3.969,-2.674800028506448,-1.725162102351978
-3.9685,-2.781501777083275,-1.820531847998485
-3.968,-2.792171951940957,-1.672178910326141
-3.9675,-2.696140378221814,-1.237716735714276
-3.967,-1.810515865034154,-0.4323722169215513
-3.9665,-0.8822106524157645,0.4365521323021782
-3.966,-0.1993194615240755,1.072350436612224
-3.9655,0.1954770082101822,1.411442865577582
-3.965,0.3661998059331045,1.517409249629256
-3.9645,0.3982103305061524,1.464426057603419
-3.964,0.3661998059331045,1.305476481525908
-3.9635,0.3341892813600565,1.146526905448396
-3.963,0.1848068333524996,0.849821030103708
-3.9625,-0.274010685527854,0.05507314971615059
-3.962,-0.5621054066852853,-0.7714646458869092
-3.9615,-0.722158029550525,-1.417859588602123
-3.961,-0.156638762093345,-1.905304955239825
-3.9605,0.974399772821015,-2.043061254507001
-3.96,1.76399271228953,-2.043061254507001
-3.9595,2.052087433446962,-2.043061254507001
-3.959,2.020076908873914,-1.915901593644992
-3.9585,1.817343586577944,-1.42845622700729
-3.958,1.539919040278195,-0.8456411147230812
-3.9575,1.326515543124542,-0.252229364033705
-3.957,1.219813794547716,0.3941655786815084
-3.9565,0.942389248247967,0.6060983467848571
-3.956,0.6756348768059011,0.5955017083796896
-3.9555,0.4835717293676135,0.5425185163538525
-3.955,0.3661998059331045,0.5107286011383502
-3.9545,0.3021787567870086,0.7120647308365314
-3.954,0.1207857842064037,1.019367244586387
-3.9535,-0.4660738329661415,0.4789386859228479
-3.953,-1.031593100423322,-0.2840192792492073
-3.9525,-1.661133417026597,-0.9198175835592532
-3.952,-2.301343908487556,-1.354279758171118
-3.9515,-2.749491252510227,-1.523825972653797
-3.951,-2.76016142736791,-1.439052865412457
-3.9505,-2.141291285622316,-0.7714646458869092
-3.95,-1.148965023857831,0.2246193641988295
-3.9495,-0.3807124341046804,1.072350436612224
-3.949,0.09944543449103843,1.623375633680931
-3.9485,0.3235191065023739,1.877694955404949
-3.948,0.3875401556484697,1.888291593810116
-3.9475,0.3661998059331045,1.782325209758442
-3.947,0.3235191065023739,1.623375633680931
-3.9465,0.2488278824985954,1.37965295036208
-3.946,-0.2526703358124887,0.6590815388106942
-3.9455,-0.9035510021311299,-0.3158091944647096
-3.945,-1.020922925565639,-1.068170521231597
-3.9445,-0.4554036581084589,-1.640388995110639
-3.944,0.7289857510943143,-1.990078062481164
-3.9435,1.603940089424291,-2.043061254507001
-3.943,1.977396209443183,-2.043061254507001
-3.9425,1.998736559158548,-1.894708316834657
-3.942,1.828013761435626,-1.205926820498774
-3.9415,1.56125938999356,-0.5807251545938954
-3.941,1.326515543124542,-0.2310360872233701
-3.9405,1.337185717982225,0.01268659609548085
-3.94,1.166462920259302,0.2458126410091644
-3.9395,0.8676980242441885,0.3411823866556712
-3.939,0.6116138276598051,0.383568940276341
-3.9385,0.4302208550792003,0.4047622170866759
-3.938,0.3875401556484697,0.5425185163538525
-3.9375,0.7609962756673623,1.125333628638062
-3.937,0.6009436528021226,1.199510097474233
-3.9365,-0.1673089369510276,0.4153588554918433
-3.936,-1.052933450138687,-0.4535654937318862
-3.9355,-1.885207089037933,-0.9092209451540858
-3.935,-2.610778979360353,-0.1674562567923655
-3.9345,-2.792171951940957,1.051157159801889
-3.934,-2.472066706210478,1.803518486568777
-3.9335,-1.458400094730627,1.803518486568777
-3.933,-0.6047861061160158,1.559795803249926
-3.9325,-0.02859666380115328,1.347863035146577
-3.932,0.2701682322139607,1.241896651094903
-3.9315,0.3661998059331045,1.220703374284568
-3.931,0.3555296310754218,1.263089927905238
-3.9305,0.3128489316446912,1.33726639674141
-3.93,0.2701682322139607,1.400846227172415
-3.9295,-0.02859666380115328,1.146526905448396
-3.929,-0.6794773301197943,0.4683420475176805
-3.9285,-0.8822106524157645,-0.1356663415768632
-3.928,-0.7755089038389382,-0.5383386009732256
-3.9275,0.1741366584948169,-0.8138511995075789
-3.927,1.326515543124542,-0.9622041371799229
-3.9265,1.966726034585501,-0.9833974139902578
-3.926,2.148119007166105,-0.8986243067489184
-3.9255,2.030747083731597,-0.400582301706049
-3.925,1.774662887147213,0.3623756634660061
-3.9245,1.454557641416734,0.849821030103708
-3.924,1.337185717982225,0.92399749893988
-3.9235,1.166462920259302,0.8710143069140429
-3.923,0.8783681991018712,0.8180311148882058
-3.9225,0.6116138276598051,0.7226613692416989
-3.922,0.4302208550792003,0.5955017083796896
-3.9215,0.3661998059331045,0.4895353243280153
-3.921,0.142126133921769,0.3517790250608387
-3.9205,-0.6367966306890638,0.1610395337678249
-3.92,-1.447729919872945,-0.4111789401112165
-3.9195,-1.959898313041711,-1.046977244421262
-3.919,-2.504077230783526,-1.598002441489969
-3.9185,-2.770831602225592,-1.894708316834657
-3.918,-2.792171951940957,-0.9728007755850904
-3.9175,-2.493407055925843,0.1080563417419877
-3.917,-1.490410619303675,0.6166949851900245
-3.9165,-0.6367966306890638,0.7968378380778709
-3.916,-0.04993701351651855,0.8074344764830383
-3.9155,0.2594980573562781,0.7438546460520338
-3.915,0.3768699807907871,0.6908714540261965
-3.9145,0.3875401556484697,0.6484849004055269
-3.914,0.3555296310754218,0.627291623595192
-3.9135,0.3021787567870086,0.5955017083796896
-3.913,0.1954770082101822,0.4471487707073456
-3.9125,-0.3273615598162672,-0.1462629799820306
-3.912,-0.6794773301197943,-0.8138511995075789
-3.9115,-0.6367966306890638,-1.258910012524611
-3.911,0.1314559590640864,-1.502632695843462
-3.9105,1.123782220828572,-1.619195718300304
-3.91,1.7213120128588,-1.523825972653797
-3.9095,1.945385684870135,-1.269506650929778
-3.909,1.902704985439405,-0.8138511995075789
-3.9085,1.710641838001117,-0.008506680714854012
-3.908,1.454557641416734,0.7438546460520338
-3.9075,1.273164668836129,1.263089927905238
-3.907,1.123782220828572,1.538602526439591
-3.9065,0.8783681991018712,1.538602526439591
-3.906,0.6329541773751706,1.390249588767247
-3.9055,0.4515612047945656,1.199510097474233
-3.905,0.3555296310754218,1.051157159801889
-3.9045,0.4302208550792003,1.157123543853563
-3.904,0.7503261008096795,1.506812611224089
-3.9035,0.291508581929326,0.9875773293708847
-3.903,-0.5087545323968721,-0.01910331912002144
-3.9025,-1.405049220442214,-0.9198175835592532
-3.902,-2.205312334768412,-1.598002441489969
-3.9015,-2.76016142736791,-2.011271339291499
-3.901,-2.738821077652544,-2.032464616101834
-3.9005,-1.959898313041711,-1.396666311791788
-3.9,-0.9995825758502737,-0.4217755785163839
-3.8995,-0.2846808603855366,0.3305857482505039
-3.899,0.142126133921769,0.7862411996727035
-3.8985,0.3235191065023739,0.9875773293708847
-3.898,0.3768699807907871,1.040560521396722
-3.8975,0.3448594562177392,0.9981739677760521
-3.897,0.291508581929326,0.9028042221295453
-3.8965,0.2061471830678648,0.7438546460520338
-3.896,-0.2846808603855366,0.13984625695749
-3.8955,-0.8608703027003992,-0.6549016234300674
-3.895,-1.362368521011484,-1.322489842955616
-3.8945,-1.084943974711735,-1.809935209593318
-3.894,0.07810508477567314,-2.032464616101834
-3.8935,1.070431346540159,-2.043061254507001
-3.893,1.635950613997339,-1.968884785670829
-3.8925,1.838683936293309,-1.576809164679634
-3.892,1.76399271228953,-0.8774310299385835
-3.8915,1.539919040278195,-0.1674562567923655
-3.891,1.326515543124542,0.4153588554918433
-3.8905,1.294505018551494,0.5849050699745222
-3.89,1.059761171682476,0.6908714540261965
-3.8895,0.7609962756673623,0.7862411996727035
-3.889,0.5262524287983441,0.8180311148882058
-3.8885,0.3768699807907871,0.8286277532933731
-3.888,0.291508581929326,0.8392243916985406
-3.8875,0.05676473506030786,1.061753798207057
-3.887,-0.5514352318276028,0.775644561267536
-3.8865,-1.180975548430879,0.02328323450064829
-3.886,-1.586442193022819,-0.5383386009732256
-3.8855,-1.885207089037933,-0.5595318777835605
-3.885,-2.280003558772191,0.4153588554918433
-3.8845,-2.685470203364131,1.538602526439591
-3.884,-2.344024607918286,2.036644531482461
-3.8835,-1.394379045584531,1.79292184816361
