Class_8_Think_right_hand_movement/Class_8_Think_Right_hand_mouvement_turki_5.csv

#Digilent WaveForms Oscilloscope Acquisition
#Device Name: EExplorer
#Serial Number: SN:210151A2B84A
#Date Time: 2020-12-13 12:42:55.000
#Sample rate: 2000Hz
#Samples: 16384
#Trigger: Source: Channel 1 Type: Edge Condition: Rising Level: 0 V Hyst.: Auto HoldOff: 0 s
#Channel 1: Range: 1 V/div Offset: 0 V Attenuation: 1 X
#Channel 2: Range: 1 V/div Offset: 0 V Attenuation: 1 X
#Power Supplies: ON
#Fixed Supply: ON
#Voltage: 3.3 V Readback: 3.326 V
#Positive Supply: ON
#Voltage: 3.7 V Readback: 3.713 V
#Current: 40 mA Readback: 21 mA
#Negative Supply: ON
#Voltage: -3.7 V Readback: -3.351 V
#Current: -40 mA Readback: -8 mA
#Reference 1: ON
#Voltage: 0 V
#Reference 2: ON
#Voltage: 0 V

Time (s),Channel 1 (V),Channel 2 (V)
-4.096,-0.9889124009925911,-0.7396747306714069
-4.0955,-1.298347471865106,-1.354279758170559
-4.095,-1.543761493591759,-1.598002441489747
-4.0945,-1.180975548430879,-1.354279758171118
-4.094,-0.4767440078244648,-0.8138511995080704
-4.0935,0.09944543449134897,-0.4429688553265356
-4.093,0.4408910299368829,-0.2416327256285375
-4.0925,0.5582629533712853,-0.3370024712749577
-4.092,0.5475927785137384,-0.5489352393785761
-4.0915,0.5796033030867573,-0.7502713690765743
-4.091,0.707645401378949,-0.8562377531282487
-4.0905,0.622284002517381,-0.7608680074815972
-4.09,0.5049120790829789,-0.6019184314042303
-4.0895,0.3875401556484697,-0.4217755785163839
-4.089,0.3235191065024321,-0.2310360872235436
-4.0885,0.4835717293676135,-0.05089323433552374
-4.088,0.8463576745288233,0.1822328105781598
-4.0875,0.3448594562181952,-0.241632725628152
-4.087,-0.5834457564013493,-0.8456411147234475
-4.0865,-1.351698346153801,-1.248313374119443
-4.086,-1.362368521011474,-0.9939940523956565
-4.0855,-0.9035510021306739,-0.2098428104123124
-4.085,-0.4020527838200457,0.5849050699745222
-4.0845,-0.03926683865916586,1.188913459068516
-4.084,0.1634664836372216,1.570392441655257
-4.0835,0.2594980573562781,1.75053529454294
-4.083,0.2808384070716433,1.803518486568777
-4.0825,0.2701682322139413,1.771728571353198
-4.082,0.2488278824985954,1.686955464111935
-4.0815,0.2168173579255475,1.580989080060261
-4.081,0.1954770082102016,1.400846227172579
-4.0805,0.09944543449103843,1.188913459069066
-4.08,-0.4554036581084589,1.00877060618122
-4.0795,-0.9995825758497787,0.362375663466594
-4.079,-1.309017646723361,-0.5595318777842834
-4.0785,-1.629122892453549,-1.354279758171118
-4.078,-1.682473766741914,-1.77814529437743
-4.0775,-1.010252750707316,-1.439052865412062
-4.077,-0.3060212101009019,-1.004590690800593
-4.0765,0.206147183067399,-0.7396747306716478
-4.076,0.4729015545100182,-0.6125150698093976
-4.0755,0.5689331282290746,-0.6125150698093976
-4.075,0.5796033030867573,-0.7608680074817418
-4.0745,0.79300680024041,-0.9939940523953867
-4.074,0.79300680024041,-0.9516074987747555
-4.0735,0.6329541773751706,-0.7290780922662394
-4.073,0.4622313796524035,-0.4747587705424524
-4.0725,0.3448594562177392,-0.2310360872233701
-4.072,0.3235191065023739,-0.1038764263613609
-4.0715,0.4408910299367762,0.1504428953624262
-4.071,0.2061471830671952,0.01268659609492187
-4.0705,-0.5300948821122373,-0.6019184314042303
-4.07,-1.244996597576324,-1.163540266877594
-4.0695,-1.266336947291952,-1.078767159636158
-4.069,-0.839529952985034,-0.4111789401112165
-4.0685,-0.3807124341046804,0.2987958330350016
-4.068,-0.02859666380096889,0.8604176685092031
-4.0675,0.1741366584948169,1.220703374284568
-4.067,0.2594980573562781,1.411442865577582
-4.0665,0.2808384070716336,1.485619334413744
-4.066,0.2701682322139607,1.475022696008586
-4.0655,0.2381577076409128,1.432636142387917
-4.065,0.2168173579255669,1.36905631195697
-4.0645,0.1848068333524996,1.284283204715573
-4.064,0.1634664836371343,1.114736990232894
-4.0635,-0.135298412377708,0.7226613692420555
-4.063,-0.8395299529855095,0.531921877948155
-4.0625,-1.362368521011484,-0.05089323433552374
-4.062,-1.447729919872867,-0.8350444763172006
-4.0615,-1.533091318733969,-1.43905286541238
-4.061,-1.052933450138687,-1.354279758171118
-4.0605,-0.391382608962363,-0.9833974139902578
-4.06,0.1527963087797234,-0.6654982618351096
-4.0595,0.4515612047945656,-0.5277419625680583
-4.059,0.5475927785137094,-0.5913217929990628
-4.0585,0.5262524287983635,-0.6972881770506408
-4.058,0.6436243522328531,-0.8986243067489184
-4.0575,0.7183155762366316,-0.9198175835592532
-4.057,0.6116138276599021,-0.7396747306715707
-4.0565,0.4729015545099309,-0.4959520473525559
-4.056,0.3661998059331045,-0.2628260024388724
-4.0555,0.3235191065024127,-0.008506680715085313
-4.055,0.7396559259522492,0.6166949851901787
-4.0545,1.017080472251745,0.7862411996727035
-4.054,0.3555296310760234,0.0868630649322889
-4.0535,-0.647466805547387,-0.7290780922666635
-4.053,-1.351698346153801,-1.195330182093607
-4.0525,-1.234326422719292,-0.8562377531282487
-4.052,-0.7755089038385112,-0.1038764263607152
-4.0515,-0.3060212101009019,0.6060983467848571
-4.051,0.01408403562957729,1.125333628638062
-4.0505,0.1954770082100172,1.443232780792795
-4.05,0.2701682322139607,1.591585718465428
-4.0495,0.291508581929326,1.623375633680931
-4.049,0.2701682322139801,1.602182356870615
-4.0485,0.2274875327831913,1.570392441655036
-4.048,0.1848068333524996,1.506812611224089
-4.0475,0.1741366584948266,1.379652950362195
-4.047,0.003413860771370609,1.146526905447683
-4.0465,-0.572775581542968,0.3623756634660061
-4.046,-0.9995825758498855,-0.6231117082136688
-4.0455,-1.180975548431112,-1.428456227007859
-4.045,-1.437059745015262,-2.053657892912168
-4.0445,-1.287677297007705,-1.958288147265661
-4.044,-0.6688071552615587,-1.237716735713872
-4.0435,-0.06060718837420119,-0.792657922697244
-4.043,0.3341892813600565,-0.570128516188728
-4.0425,0.5155822539404964,-0.5383386009732545
-4.042,0.5582629533713921,-0.6549016234300674
-4.0415,0.6116138276598051,-0.8138511995075789
-4.041,0.7076454013788617,-0.9198175835591569
-4.0405,0.6222840025173617,-0.8562377531281138
-4.04,0.4835717293676135,-0.7078848154559045
-4.0395,0.3661998059332112,-0.5171453241630644
-4.039,0.2915085819292095,-0.3264058328697325
-4.0385,0.1634664836371343,-0.1674562567923655
-4.038,-0.3273615598158208,-0.5171453241625728
-4.0375,-0.839529952985296,-1.057573882826796
-4.037,-1.127624674142465,-1.460246142222792
-4.0365,-1.30901764672307,-1.47084278062796
-4.036,-0.9889124009921642,-0.7714646458861093
-4.0355,-0.5194247072545548,0.1080563417419877
-4.035,-0.124628237520297,0.8286277532933731
-4.0345,0.1207857842061805,1.305476481525474
-4.034,0.2488278824985954,1.570392441655093
-4.0335,0.2808384070716433,1.676358825706768
-4.033,0.2915085819293163,1.676358825706768
-4.0325,0.2594980573562586,1.612778995275696
-4.032,0.2381577076409128,1.538602526439591
-4.0315,0.206147183067894,1.443232780793171
-4.031,0.1848068333524316,1.31607311993095
-4.0305,0.1101156093487211,1.178316820663898
-4.03,-0.4020527838195799,0.7544512844575866
-4.0295,-0.8928808272737675,-0.1780528951983425
-4.029,-1.244996597576974,-1.068170521231597
-4.0285,-1.51175096901904,-1.767548655972648
-4.028,-1.43705974501466,-1.990078062480672
-4.0275,-0.7755089038389382,-1.449649503817625
-4.027,-0.156638762093345,-1.004590690800593
-4.0265,0.2808384070712454,-0.7396747306716478
-4.026,0.5155822539406614,-0.6972881770507372
-4.0255,0.5902734779444399,-0.7820612842920766
-4.025,0.579603303086767,-0.8562377531281812
-4.0245,0.7183155762366121,-0.9304142219643532
-4.024,0.6969752265212663,-0.8562377531282487
-4.0235,0.5689331282291911,-0.686691538645724
-4.023,0.430220855079113,-0.4853554089471958
-4.0225,0.3341892813600565,-0.2734226408440398
-4.022,0.3128489316447107,-0.07208651114604173
-4.0215,-0.08194753809008082,-0.2416327256290194
-4.021,-0.6474668055467465,-0.7714646458869092
-4.0205,-1.010252750707956,-1.237716735714276
-4.02,-1.298347471865261,-1.428456227006933
-4.0195,-1.159635198715513,-1.036380606016095
-4.019,-0.7008176798351597,-0.2098428104130352
-4.0185,-0.2633405106705693,0.5743084315686416
-4.018,0.03542438534494258,1.135930267043229
-4.0175,0.2168173579255475,1.475022696008586
-4.017,0.2808384070715851,1.633972272085954
-4.0165,0.2915085819293163,1.665762187301552
-4.016,0.2808384070716433,1.612778995275763
-4.0155,0.2488278824986245,1.528005888034501
-4.015,0.2168173579255184,1.422039503982605
-4.0145,0.1848068333524996,1.263089927905238
-4.014,0.1634664836371537,1.093543713422713
-4.0135,-0.1139580626630608,0.9451907757496752
-4.013,-0.6047861061160158,0.3517790250608387
-4.0125,-0.9035510021311299,-0.5489352393783931
-4.012,-0.9889124009926687,-1.322489842956069
-4.0115,-1.074273799854052,-1.820531847998485
-4.011,-0.5941159312583333,-1.492036057438295
-4.0105,0.003413860771351196,-1.004590690801036
-4.01,0.3982103305061524,-0.7078848154559045
-4.0095,0.5796033030867573,-0.6443049850249
-4.009,0.6009436528021032,-0.7396747306713202
-4.0085,0.547592778513787,-0.8668343915335414
-4.008,0.6329541773751706,-1.004590690800593
-4.0075,0.6969752265212081,-0.9728007755851192
-4.007,0.6116138276596886,-0.7926579226970609
-4.0065,0.4835717293676135,-0.5913217929990628
-4.006,0.3768699807907871,-0.3793890248957141
-4.0055,0.3341892813604059,-0.1356663415763235
-4.005,0.7183155762366316,0.457745409112513
-4.0045,0.9317190733902845,0.5955017083796896
-4.004,0.3555296310747425,-0.05089323433604417
-4.0035,-0.391382608962363,-0.6231117082145651
-4.003,-1.020922925565639,-0.9622041371799229
-4.0025,-0.9675720512772742,-0.6125150698097157
-4.002,-0.5941159312583333,0.1080563417419877
-4.0015,-0.2206598112394408,0.7968378380778709
-4.001,0.05676473506005558,1.294879843120287
-4.0005,0.2061471830679231,1.591585718465573
-4,0.2701682322139607,1.75053529454294
-3.9995,0.2808384070716433,1.782325209758442
-3.999,0.2594980573562781,1.761131932948107
-3.9985,0.1954770082101822,1.686955464111935
-3.998,0.142126133921769,1.570392441655093
-3.9975,0.1314559590640864,1.42203950398275
-3.997,0.04609456020262521,1.114736990232894
-3.9965,-0.4767440078238243,0.2881991946298341
-3.996,-0.9675720512772257,-0.6760949002404023
-3.9955,-1.26633694729234,-1.417859588602123
-3.995,-0.9889124009925911,-1.714565463946811
-3.9945,-0.4127229586777283,-1.449649503817625
-3.994,0.142126133921769,-1.01518732920576
-3.9935,0.4835717293676135,-0.7714646458869092
-3.993,0.6222840025174878,-0.7078848154559045
-3.9925,0.6436243522328531,-0.792657922697244
-3.992,0.5902734779444399,-0.8668343915334161
-3.9915,0.5902734779444399,-1.004590690800593
-3.991,0.6863050516635838,-1.068170521231597
-3.9905,0.6116138276598051,-0.9092209451540858
-3.99,0.4729015545099309,-0.6866915386455698
-3.9895,0.3661998059331045,-0.474758770542221
-3.989,0.291508581929326,-0.2840192792492073
-3.9885,0.4835717293676135,0.1716361721729923
-3.988,0.8356874996711408,0.775644561267536
-3.9875,0.3875401556484697,0.4683420475176805
-3.987,-0.1673089369510276,-0.1992461720078678
-3.9865,-0.7755089038389382,-0.7502713690765743
-3.986,-0.8502001278427167,-0.6549016234300674
-3.9855,-0.5621054066852853,-0.04029659593035631
-3.985,-0.2313299860971235,0.6166949851900245
-3.9845,0.02475421048725994,1.146526905448396
-3.984,0.1848068333524996,1.506812611224089
-3.9835,0.2488278824985954,1.697552102517103
-3.983,0.2701682322139607,1.771728571353275
-3.9825,0.2594980573562781,1.771728571353275
-3.982,0.2381577076409128,1.718745379327438
-3.9815,0.2061471830678648,1.655165548896433
-3.981,0.1741366584948169,1.549199164844759
-3.9805,0.142126133921769,1.263089927905238
-3.98,-0.09261771294724913,0.6060983467848571
-3.9795,-0.4660738329661415,-0.1992461720078678
-3.979,-0.8928808272734472,-1.01518732920576
-3.9785,-0.7648387289812555,-1.396666311791788
-3.978,-0.02859666380115328,-1.439052865412457
-3.9775,0.4729015545099309,-1.152943628472937
-3.977,0.6969752265212663,-0.9198175835592532
-3.9765,0.7503261008096795,-0.792657922697244
-3.976,0.6756348768059011,-0.7396747306714069
-3.9755,0.5902734779444399,-0.8032545611024114
-3.975,0.5262524287983441,-0.8986243067489184
-3.9745,0.6649647019482183,-1.046977244421262
-3.974,0.6542945270905358,-0.9516074987747555
-3.9735,0.5369226036560266,-0.718481453861072
-3.973,0.4195506802215176,-0.474758770542221
-3.9725,0.3341892813600565,-0.252229364033705
-3.972,0.408880505363835,0.09745970333682032
-3.9715,0.8356874996711408,0.7226613692416989
-3.971,0.5049120790829789,0.5213252395435176
-3.9705,-0.3593720843893152,-0.2098428104130352
-3.97,-1.223656247861609,-0.8350444763179138
-3.9695,-1.575772018165136,-1.089363798041932
-3.969,-1.191645723288561,-0.5913217929990628
-3.9685,-0.6474668055467465,0.1504428953626575
-3.968,-0.1993194615240755,0.7968378380778709
-3.9675,0.09944543449103843,1.25249328950007
-3.967,0.2381577076409128,1.506812611224089
-3.9665,0.291508581929326,1.623375633680931
-3.966,0.2808384070716433,1.633972272086098
-3.9655,0.2488278824985954,1.602182356870596
-3.965,0.1848068333524996,1.580989080060261
-3.9645,0.142126133921769,1.496215972818921
-3.964,0.1207857842064037,1.347863035146577
-3.9635,-0.1352984123779797,0.8816109453192104
-3.963,-0.6261264558313813,0.08686306493165288
-3.9625,-1.06360362499637,-0.8032545611024114
-3.962,-1.46907026958831,-1.502632695843462
-3.9615,-1.714484291315011,-1.937094870455327
-3.961,-1.159635198715513,-1.629792356705471
-3.9605,-0.4127229586777283,-1.152943628472937
-3.96,0.142126133921769,-0.8138511995075789
-3.9595,0.4302208550792003,-0.6654982618352349
-3.959,0.5582629533713921,-0.718481453861072
-3.9585,0.5475927785137094,-0.8456411147230812
-3.958,0.6863050516635838,-1.068170521231597
-3.9575,0.79300680024041,-1.089363798041932
-3.957,0.6863050516635838,-0.8668343915334161
-3.9565,0.5155822539406614,-0.5913217929990628
-3.956,0.3875401556484697,-0.3052125560595421
-3.9555,0.3235191065023739,-0.01910331912002144
-3.955,0.7289857510943143,0.6060983467848571
-3.9545,0.9317190733902845,0.8286277532933731
-3.954,0.4835717293676135,0.1504428953626575
-3.9535,-0.3166913849585846,-0.6760949002404023
-3.953,-0.8715404775580819,-1.036380606016095
-3.9525,-0.7861790786966207,-0.5913217929990628
-3.952,-0.4660738329661415,0.1080563417419877
-3.9515,-0.1459685872356623,0.7332580076468663
-3.951,0.07810508477567314,1.178316820663898
-3.9505,0.2061471830678648,1.443232780793084
-3.95,0.2594980573562781,1.570392441655093
-3.9495,0.2594980573562781,1.602182356870596
-3.949,0.2488278824985954,1.559795803249926
-3.9485,0.2274875327832301,1.485619334413754
-3.948,0.2061471830678648,1.390249588767247
-3.9475,0.1741366584948169,1.263089927905238
-3.947,0.07810508477567314,0.9028042221295453
-3.9465,-0.2526703358124887,0.1928294489833272
-3.946,-0.6688071552621118,-0.6549016234300674
-3.9455,-1.1062843244271,-1.322489842955616
-3.945,-0.9889124009925911,-1.439052865412457
-3.9445,-0.4980843575391895,-1.163540266878104
-3.944,-0.01792648894347063,-0.8986243067489184
-3.9435,0.3448594562177392,-0.6549016234300674
-3.943,0.5262524287983441,-0.5595318777835605
-3.9425,0.6009436528021226,-0.6125150698093976
-3.942,0.5689331282290746,-0.7290780922662394
-3.9415,0.5902734779444399,-0.8774310299385835
-3.941,0.7183155762366316,-0.9833974139902578
-3.9405,0.6436243522328531,-0.8668343915334161
-3.94,0.5049120790829789,-0.6549016234300674
-3.9395,0.3768699807907871,-0.4111789401112165
-3.939,0.3021787567870086,-0.1780528951975329
-3.9385,0.5049120790829789,0.309392471440169
-3.938,0.857027849386506,0.775644561267536
-3.9375,0.2808384070716433,0.2881991946298341
-3.937,-0.572775581542968,-0.3899856633008816
-3.9365,-1.351698346153801,-0.9092209451540858
-3.936,-1.447729919872945,-0.8774310299385835
-3.9355,-0.9995825758502737,-0.2628260024388724
-3.935,-0.4767440078238243,0.4365521323021782
-3.9345,-0.08194753808956648,0.9981739677760521
-3.934,0.1527963087794516,1.369056311956912
-3.9335,0.2594980573562781,1.570392441655093
-3.933,0.2808384070716433,1.644568910491266
-3.9325,0.2701682322139607,1.633972272086098
-3.932,0.2381577076409128,1.602182356870596
-3.9315,0.1954770082101822,1.528005888034424
-3.931,0.1634664836371343,1.347863035146577
-3.9305,0.09944543449103843,1.104140351827727
-3.93,-0.3380317346739499,0.7332580076468663
-3.9295,-0.839529952985034,-0.1144730647665284
-3.929,-1.244996597576974,-0.9939940523954253
-3.9285,-1.607782542738184,-1.693372187136476
-3.928,-1.682473766741963,-1.968884785670829
-3.9275,-1.074273799854052,-1.407262950196955
-3.927,-0.391382608962363,-0.9304142219644207
-3.9265,0.142126133921769,-0.718481453861072
-3.926,0.4622313796522482,-0.6972881770507372
-3.9255,0.5689331282290746,-0.7290780922662394
-3.925,0.5475927785137094,-0.792657922697244
-3.9245,0.7183155762366316,-0.8774310299385835
-3.924,0.7289857510943143,-0.792657922697244
-3.9235,0.5796033030867573,-0.6019184314042303
-3.923,0.4408910299368829,-0.400582301706049
-3.9225,0.3341892813600565,-0.2098428104130352
-3.922,0.3875401556484697,0.08686306493165288
-3.9215,0.942389248247967,0.7544512844572011
-3.921,1.049090996824793,0.7226613692416989
-3.9205,0.2168173579255475,0.002089957690313421
-3.92,-0.722158029550525,-0.6443049850249
-3.9195,-1.180975548430879,-0.9516074987747555
-3.919,-0.9675720512772257,-0.5383386009732256
-3.9185,-0.5407650569699201,0.1080563417419877
-3.918,-0.1673089369510276,0.6908714540261965
-3.9175,0.08877525963335578,1.104140351827727
-3.917,0.2168173579255475,1.358459673551745
-3.9165,0.2701682322139607,1.485619334413754
-3.916,0.2701682322139607,1.517409249629256
-3.9155,0.2381577076409128,1.496215972818921
-3.915,0.2061471830678648,1.464426057603419
-3.9145,0.1848068333524996,1.390249588767247
-3.914,0.142126133921769,1.263089927905238
-3.9135,-0.1886492866663929,0.8604176685088755
-3.913,-0.754168554123573,0.2670059178194992
-3.9125,-1.127624674142465,-0.5383386009732256
-3.912,-1.373038695869166,-1.280103289334946
-3.9115,-1.629122892453549,-1.79933857118815
-3.911,-1.116954499284783,-1.460246142222792
-3.9105,-0.391382608962363,-0.8986243067489184
-3.91,0.1101156093487211,-0.5277419625680583
-3.9095,0.3875401556484697,-0.4323722169215513
-3.909,0.5155822539406614,-0.4959520473525559
-3.9085,0.5475927785137094,-0.6019184314042303
-3.908,0.6542945270905358,-0.7502713690765743
-3.9075,0.7183155762366316,-0.8350444763179138
-3.907,0.6222840025174878,-0.7608680074817418
-3.9065,0.4835717293676135,-0.6231117082145651
-3.906,0.3555296310754218,-0.4429688553267188
-3.9055,0.291508581929326,-0.2734226408440398
-3.905,0.3982103305061524,-0.1038764263613609
-3.9045,0.4195506802215176,0.002089957690313421
-3.904,-0.07127736323188383,-0.4853554089473885
-3.9035,-0.7008176798351597,-0.8880276683437509
-3.903,-1.255666772434657,-1.131750351662602
-3.9025,-1.148965023857831,-0.7608680074817418
-3.902,-0.7114878546928423,-0.02969995752518888
-3.9015,-0.274010685527854,0.6696781772158616
-3.901,0.02475421048725994,1.188913459069066
-3.9005,0.1954770082101822,1.496215972818921
-3.9,0.2701682322139607,1.655165548896433
-3.8995,0.2808384070716433,1.697552102517103
-3.899,0.2594980573562781,1.6657621873016
-3.8985,0.2488278824985954,1.591585718465428
-3.898,0.2168173579255475,1.506812611224089
-3.8975,0.1848068333524996,1.369056311956912
-3.897,0.0674349099179905,1.093543713422559
-3.8965,-0.4767440078238243,0.7544512844572011
-3.896,-0.9355615267041777,0.07626642652648545
-3.8955,-1.202315898146244,-0.792657922697244
-3.895,-1.607782542738184,-1.51322933424863
-3.8945,-1.490410619303675,-1.640388995110639
-3.894,-0.807519428411986,-1.205926820498774
-3.8935,-0.1673089369510276,-0.8456411147230812
-3.893,0.2488278824985954,-0.6972881770507372
-3.8925,0.4835717293676135,-0.6866915386455698
-3.892,0.5689331282290746,-0.718481453861072
-3.8915,0.6329541773751706,-0.8562377531282487
-3.891,0.8143471499557753,-0.9939940523954253
-3.8905,0.7396559259519968,-0.8774310299385835
-3.89,0.5689331282290746,-0.6549016234300674
-3.8895,0.4195506802215176,-0.4111789401112165
-3.889,0.3235191065023739,-0.1780528951975329
-3.8885,0.5475927785137094,0.2987958330350016
-3.888,1.006410297394063,0.775644561267536
-3.8875,0.5689331282290746,0.2881991946298341
-3.887,-0.3700422592469978,-0.4111789401112165
-3.8865,-1.234326422719292,-0.9410108603695881
-3.886,-1.447729919872945,-0.9833974139902578
