Class_8_Think_right_hand_movement/Class_8_Think_Right_hand_mouvement_turki_12.csv

#Digilent WaveForms Oscilloscope Acquisition
#Device Name: EExplorer
#Serial Number: SN:210151A2B84A
#Date Time: 2021-02-04 11:25:58.168
#Sample rate: 2000Hz
#Samples: 16384
#Trigger: Source: Channel 1 Type: Edge Condition: Rising Level: 0 V Hyst.: Auto HoldOff: 0 s
#Channel 1: Range: 1 V/div Offset: 0 V Attenuation: 1 X
#Channel 2: Range: 1 V/div Offset: 0 V Attenuation: 1 X
#Power Supplies: ON
#Fixed Supply: ON
#Voltage: 3.3 V Readback: 3.329 V
#Positive Supply: ON
#Voltage: 3.7 V Readback: 3.715 V
#Current: 40 mA Readback: 18 mA
#Negative Supply: ON
#Voltage: -3.7 V Readback: -3.357 V
#Current: -40 mA Readback: -8 mA
#Reference 1: ON
#Voltage: 0 V
#Reference 2: ON
#Voltage: 0 V

Time (s),Channel 1 (V),Channel 2 (V)
-4.096,-1.298347471865388,-1.481439419033127
-4.0955,-1.148965023857967,-1.428456227007338
-4.095,-0.6047861061155694,-0.8774310299381594
-4.0945,-0.1139580626626144,-0.4111789401112165
-4.094,0.2061471830675737,-0.1462629799822716
-4.0935,0.3555296310754509,0.002089957690332696
-4.093,0.3875401556484697,0.02328323450064829
-4.0925,0.3555296310754509,-0.04029659593029848
-4.092,0.5049120790830953,-0.2628260024389688
-4.0915,0.6329541773751706,-0.3687923864905467
-4.091,0.5902734779444399,-0.2204394488182027
-4.0905,0.4729015545098241,-0.008506680714709449
-4.09,0.3555296310754218,0.1504428953626575
-4.0895,0.2701682322139607,0.2670059178194992
-4.089,0.4835717293674194,0.04447651131118555
-4.0885,0.8356874996711408,-0.5277419625680583
-4.088,0.3555296310754218,-1.142346990067769
-4.0875,-0.3593720843886651,-1.587405803084396
-4.087,-1.138294849000323,-1.85232176321364
-4.0865,-1.330357996438436,-1.47084278062796
-4.086,-0.9782422261352286,-0.6549016234308095
-4.0855,-0.5194247072542248,0.06566978812176134
-4.085,-0.156638762093345,0.55311515475902
-4.0845,0.06743490991778672,0.8180311148879649
-4.084,0.174136658494846,0.9239974989398897
-4.0835,0.2061471830678648,0.9345941373450475
-4.083,0.1848068333524996,0.8922075837243778
-4.0825,0.1527963087794322,0.8286277532932961
-4.082,0.1314559590640864,0.7438546460520338
-4.0815,0.1207857842064037,0.6696781772158616
-4.081,0.06743490991803902,0.5319218779488104
-4.0805,-0.391382608962363,-0.05089323433552374
-4.08,-0.9569018764195432,-0.8032545611024114
-4.0795,-1.266336947292058,-1.396666311791248
-4.079,-1.223656247861124,-1.523825972653296
-4.0785,-0.690147504977477,-0.9728007755850904
-4.078,-0.1566387620938302,-0.4005823017065695
-4.0775,0.195477008210318,-0.04029659593022138
-4.077,0.3448594562177392,0.1080563417419877
-4.0765,0.366199805933085,0.1504428953626189
-4.076,0.3555296310754412,0.1398462569575286
-4.0755,0.3768699807907871,0.1822328105781598
-4.075,0.4302208550792003,0.3411823866556712
-4.0745,0.3875401556484018,0.3199891098452786
-4.074,0.3128489316446912,0.2564092794143318
-4.0735,0.2594980573562781,0.2140227257936621
-4.073,0.2274875327832592,0.2140227257936621
-4.0725,0.3021787567870086,0.1928294489833272
-4.072,0.408880505363835,0.2352160026039969
-4.0715,0.05676473506062812,-0.2522293640332617
-4.071,-0.5300948821128972,-0.9092209451545773
-4.0705,-1.255666772434657,-1.449649503817625
-4.07,-1.511750969018808,-1.492036057438256
-4.0695,-1.138294848999682,-0.8244478379120717
-4.069,-0.6261264558313813,-0.08268314955102604
-4.0685,-0.2099896363817582,0.5001319627331828
-4.068,0.04609456020274167,0.8710143069142068
-4.0675,0.1741366584948169,1.051157159801889
-4.067,0.2168173579255475,1.125333628638062
-4.0665,0.1954770082101434,1.114736990232855
-4.066,0.1527963087794516,1.072350436612224
-4.0655,0.1207857842064037,0.9981739677760521
-4.065,0.09944543449105783,0.9239974989399475
-4.0645,0.07810508477567314,0.8074344764830383
-4.064,-0.2633405106701714,0.3199891098453364
-4.0635,-0.7221580295501078,-0.4959520473518138
-4.063,-0.7755089038387151,-1.184733543688574
-4.0625,-0.5300948821122373,-1.333086481360783
-4.062,-0.1246282375206658,-0.972800775585418
-4.0615,0.1954770082103666,-0.6231117082142567
-4.061,0.3982103305061524,-0.2840192792492073
-4.0605,0.4622313796522482,-0.06148987274069118
-4.06,0.4408910299368441,0.05507314971619878
-4.0595,0.3982103305061524,0.1080563417419877
-4.059,0.3661998059331045,0.07626642652648545
-4.0585,0.5689331282288902,-0.1674562567921438
-4.058,0.6009436528021226,-0.1992461720078678
-4.0575,0.4942419042252961,-0.07208651114585861
-4.057,0.3661998059332209,0.09745970333666611
-4.0565,0.2701682322139607,0.2458126410091644
-4.056,0.1954770082101822,0.309392471440169
-4.0555,0.1101156093487987,-0.04029659593003831
-4.055,-0.3380317346744739,-0.6760949002409228
-4.0545,-0.9142211769888124,-1.248313374119443
-4.054,-1.479740444445478,-1.661582271920597
-4.0535,-1.789175515318391,-1.714565463946184
-4.053,-1.351698346153801,-1.025783967610927
-4.0525,-0.7648387289812555,-0.2310360872233701
-4.052,-0.2846808603852552,0.3941655786818554
-4.0515,0.02475421048725994,0.775644561267536
-4.051,0.1741366584948169,0.9451907757502149
-4.0505,0.2274875327831816,0.9875773293708462
-4.05,0.2274875327832301,0.9451907757502149
-4.0495,0.1848068333524996,0.8710143069140429
-4.049,0.1421261339218078,0.7862411996727805
-4.0485,0.1207857842063843,0.6908714540261002
-4.048,0.09944543449103843,0.5849050699745222
-4.0475,-0.1139580626624203,0.2670059178197883
-4.047,-0.7008176798356256,-0.4429688553273452
-4.0465,-1.212986073003927,-1.131750351662602
-4.046,-1.341028171296002,-1.52382597265344
-4.0455,-0.7328282044075961,-1.258910012524119
-4.045,-0.06060718837420119,-0.718481453861072
-4.0445,0.3235191065023739,-0.2310360872233701
-4.044,0.4729015545099503,0.09745970333688778
-4.0435,0.4942419042252961,0.1716361721729923
-4.043,0.4622313796522482,0.1292496185523226
-4.0425,0.3875401556485377,0.03387987290590246
-4.042,0.4942419042252961,0.13984625695749
-4.0415,0.6116138276598051,0.3199891098453364
-4.041,0.5369226036560946,0.3199891098453364
-4.0405,0.408880505363738,0.277602556224657
-4.04,0.3021787567870086,0.2670059178194992
-4.0395,0.238157707640971,0.2564092794143414
-4.039,0.4622313796523744,0.2881991946297281
-4.0385,0.6009436528021226,0.1716361721729923
-4.038,0.09944543449149457,-0.4535654937313176
-4.0375,-0.7328282044088674,-1.068170521231963
-4.037,-1.458400094730627,-1.47084278062796
-4.0365,-1.46907026958831,-1.195330182093607
-4.036,-0.9889124009921351,-0.4429688553260731
-4.0355,-0.4874141826815069,0.2670059178194992
-4.035,-0.1139580626626144,0.7862411996727035
-4.0345,0.1101156093485173,1.082947075017122
-4.034,0.2061471830678648,1.220703374284568
-4.0335,0.2274875327832301,1.241896651094903
-4.033,0.2061471830678842,1.199510097474272
-4.0325,0.1634664836371052,1.125333628637975
-4.032,0.1314559590640864,1.029963882991555
-4.0315,0.1101156093487405,0.9239974989399764
-4.031,0.03542438534453499,0.7862411996722987
-4.0305,-0.4127229586777283,0.3411823866556712
-4.03,-0.8822106524153375,-0.4535654937311633
-4.0295,-1.042263275280713,-1.14234699006801
-4.029,-0.722158029550525,-1.407262950196955
-4.0285,-0.124628237520297,-1.004590690800593
-4.028,0.2915085819295104,-0.4853554089470511
-4.0275,0.4942419042252961,-0.1144730647665284
-4.027,0.5049120790829789,0.07626642652648545
-4.0265,0.4302208550792683,0.1080563417419588
-4.026,0.3661998059331045,0.03387987290581572
-4.0255,0.4302208550792003,-0.1250697031716958
-4.025,0.6222840025173131,-0.2946159176542205
-4.0245,0.6009436528020061,-0.209842810412881
-4.024,0.4729015545099309,-0.04029659593035631
-4.0235,0.3448594562178556,0.1186529801470106
-4.023,0.248827882498673,0.2458126410092126
-4.0225,0.3341892813600565,0.2987958330350016
-4.022,0.4835717293674776,0.07626642652668786
-4.0215,0.0140840356291503,-0.5171453241632763
-4.021,-0.4554036581084589,-0.9410108603695881
-4.0205,-0.9782422261349084,-1.174136905283272
-4.02,-1.490410619303549,-1.375473034981116
-4.0195,-1.351698346153801,-1.004590690800593
-4.019,-0.8502001278427167,-0.3370024712750445
-4.0185,-0.3807124341051074,0.2564092794137921
-4.018,-0.04993701351651855,0.6590815388106942
-4.0175,0.142126133921769,0.8710143069140429
-4.017,0.2168173579254796,0.9345941373449896
-4.0165,0.2168173579255184,0.9345941373449993
-4.016,0.1848068333524996,0.8816109453192104
-4.0155,0.1527963087794807,0.8180311148882636
-4.015,0.1314559590640572,0.73325800764677
-4.0145,0.09944543449103843,0.627291623595192
-4.014,-0.2420001609544956,0.1928294489837223
-4.0135,-0.7755089038393556,-0.5595318777841773
-4.013,-1.234326422719292,-1.237716735714276
-4.0125,-1.51175096901904,-1.672178910326141
-4.012,-1.138294848999566,-1.205926820498138
-4.0115,-0.4980843575391895,-0.5065486857577234
-4.011,-0.01792648894347063,-0.02969995752518888
-4.0105,0.2701682322136987,0.2140227257934404
-4.01,0.3768699807907871,0.2670059178194992
-4.0095,0.3875401556484697,0.1928294489833272
-4.009,0.3875401556484697,0.07626642652659146
-4.0085,0.6329541773752191,-0.1568596183872077
-4.008,0.6863050516635838,-0.1674562567923655
-4.0075,0.5689331282291814,-0.02969995752531415
-4.007,0.4195506802214109,0.1292496185524286
-4.0065,0.3021787567870086,0.2458126410091644
-4.006,0.2381577076409128,0.309392471440169
-4.0055,0.1101156093481485,-0.07208651114647542
-4.005,-0.5194247072545548,-0.7502713690765743
-4.0045,-1.244996597576974,-1.301296566145281
-4.004,-1.735824641030832,-1.566212526274621
-4.0035,-2.23732285934146,-1.735758740757146
-4.003,-1.895877263895616,-1.364876396576285
-4.0025,-1.127624674143164,-0.6019184314049242
-4.002,-0.4980843575391895,0.06566978812131802
-4.0015,-0.07127736323188383,0.5319218779486851
-4.001,0.1634664836369208,0.7756445612673144
-4.0005,0.2488278824986051,0.8604176685088755
-4,0.2594980573562781,0.8604176685088755
-3.9995,0.2274875327832301,0.7968378380778709
-3.999,0.1954770082101822,0.7226613692416989
-3.9985,0.1634664836371343,0.6484849004055269
-3.998,0.1314559590640864,0.5743084315693548
-3.9975,-0.09261771294724913,0.3199891098453364
-3.997,-0.6154562809736985,-0.3581957480853793
-3.9965,-0.7968492535543035,-1.046977244421262
-3.996,-0.7434983792658902,-1.481439419033127
-3.9955,-0.2953510352432193,-1.205926820498774
-3.995,0.1207857842064037,-0.6337083466197325
-3.9945,0.3768699807907871,-0.1780528951975329
-3.994,0.4729015545099309,0.09745970333682032
-3.9935,0.4622313796522482,0.1928294489833272
-3.993,0.3982103305061524,0.1504428953626575
-3.9925,0.3448594562177392,0.06566978812131802
-3.992,0.5369226036560266,-0.1144730647665284
-3.9915,0.8356874996711408,-0.08268314955102604
-3.991,0.7716664505250448,0.1080563417419877
-3.9905,0.5902734779444399,0.2987958330350016
-3.99,0.408880505363835,0.4471487707073456
-3.9895,0.3021787567870086,0.5743084315693548
-3.989,0.4729015545099309,0.775644561267536
-3.9885,0.7289857510943143,0.8392243916985406
-3.988,0.291508581929326,0.1610395337678249
-3.9875,-0.4020527838200457,-0.6654982618352349
-3.987,-1.148965023857831,-1.301296566145281
-3.9865,-1.244996597576974,-1.248313374119443
-3.986,-0.8715404775580819,-0.6337083466197325
-3.9855,-0.4340633083930936,0.002089957690313421
-3.985,-0.09261771294724913,0.4789386859228479
-3.9845,0.1101156093487211,0.7544512844572011
-3.984,0.2061471830678648,0.8816109453192104
-3.9835,0.2274875327832301,0.92399749893988
-3.983,0.2061471830678648,0.9028042221295453
-3.9825,0.1634664836371343,0.8604176685088755
-3.982,0.1314559590640864,0.8074344764830383
-3.9815,0.1101156093487211,0.7332580076468663
-3.981,0.01408403562957729,0.5425185163538525
-3.9805,-0.4660738329661415,-0.1144730647665284
-3.98,-0.9569018764195432,-0.8880276683437509
-3.9795,-1.244996597576974,-1.502632695843462
-3.979,-1.170305373573196,-1.619195718300304
-3.9785,-0.6688071552621118,-1.025783967610927
-3.978,-0.1459685872356623,-0.4641621321370536
-3.9775,0.2274875327832301,-0.06148987274069118
-3.977,0.3982103305061524,0.1504428953626575
-3.9765,0.4302208550792003,0.1716361721729923
-3.976,0.3982103305061524,0.1292496185523226
-3.9755,0.4408910299368829,0.1186529801471552
-3.975,0.6542945270905358,0.03387987290581572
-3.9745,0.6436243522328531,0.04447651131098315
-3.974,0.5155822539406614,0.1186529801471552
-3.9735,0.3768699807907871,0.2034260873884947
-3.973,0.2808384070716433,0.2881991946298341
-3.9725,0.3235191065023739,0.4895353243280153
-3.972,0.7396559259519968,0.8816109453192104
-3.9715,0.6116138276598051,0.457745409112513
-3.971,-0.06060718837420119,-0.3158091944647096
-3.9705,-0.9142211769888124,-0.9728007755850904
-3.97,-1.405049220442214,-1.311893204550448
-3.9695,-1.180975548430879,-0.8986243067489184
-3.969,-0.7008176798351597,-0.2204394488182027
-3.9685,-0.274010685527854,0.3623756634660061
-3.968,0.01408403562957729,0.7544512844572011
-3.9675,0.1741366584948169,0.9769806909657173
-3.967,0.2274875327832301,1.061753798207057
-3.9665,0.2274875327832301,1.072350436612224
-3.966,0.2061471830678648,1.040560521396722
-3.9655,0.1741366584948169,0.9769806909657173
-3.965,0.1527963087794516,0.9028042221295453
-3.9645,0.09944543449103843,0.7968378380778709
-3.964,-0.3166913849585846,0.3199891098453364
-3.9635,-0.7968492535543035,-0.474758770542221
-3.963,-1.180975548430879,-1.195330182093607
-3.9625,-1.351698346153801,-1.746355379162313
-3.962,-0.9355615267041777,-1.481439419033127
-3.9615,-0.2953510352432193,-0.8244478379127463
-3.961,0.1848068333524996,-0.3052125560595421
-3.9605,0.4195506802215176,0.02328323450064829
-3.96,0.4835717293676135,0.1504428953626575
-3.9595,0.4515612047945656,0.1292496185523226
-3.959,0.408880505363835,0.002089957690313421
-3.9585,0.5582629533713921,-0.252229364033705
-3.958,0.6116138276598051,-0.2946159176543747
-3.9575,0.5049120790829789,-0.1356663415768632
-3.957,0.3875401556484697,0.04447651131098315
-3.9565,0.3021787567870086,0.2034260873884947
-3.956,0.2488278824985954,0.3199891098453364
-3.9555,0.3555296310754218,0.4895353243280153
-3.955,0.07810508477567314,0.09745970333682032
-3.9545,-0.4980843575391895,-0.6125150698093976
-3.954,-1.1062843244271,-1.237716735714276
-3.9535,-1.46907026958831,-1.555615887869299
-3.953,-1.170305373573196,-1.078767159636765
-3.9525,-0.6688071552621118,-0.3581957480853793
-3.952,-0.2420001609548061,0.2564092794143318
-3.9515,0.04609456020262521,0.6590815388106942
-3.951,0.1848068333524996,0.8816109453192104
-3.9505,0.2381577076409128,0.9557874141553824
-3.95,0.2381577076409128,0.9663840525605498
-3.9495,0.2061471830678648,0.92399749893988
-3.949,0.1634664836371343,0.8710143069140429
-3.9485,0.142126133921769,0.8074344764830383
-3.948,0.1207857842064037,0.7226613692416989
-3.9475,-0.007256314085787988,0.5107286011383502
-3.947,-0.4980843575391895,-0.1462629799820306
-3.9465,-0.8181896032696687,-0.8986243067489184
-3.946,-1.180975548430879,-1.534422611058964
-3.9455,-1.084943974711735,-1.629792356705471
-3.945,-0.5087545323968721,-1.046977244421262
-3.9445,0.03542438534494258,-0.4641621321370536
-3.944,0.3448594562177392,-0.05089323433552374
-3.9435,0.4622313796522482,0.1610395337678249
-3.943,0.4622313796522482,0.1928294489833272
-3.9425,0.3982103305061524,0.1610395337678249
-3.942,0.5475927785137094,-0.008506680714854012
-3.9415,0.7289857510943143,-0.1886495336027004
-3.941,0.6542945270905358,-0.1144730647665284
-3.9405,0.5155822539406614,0.01268659609548085
-3.94,0.3875401556484697,0.1504428953626575
-3.9395,0.3128489316446912,0.2352160026039969
-3.939,0.5155822539406614,-0.06148987274069118
-3.9385,0.3875401556484697,-0.6972881770507372
-3.938,-0.124628237520297,-1.269506650929778
-3.9375,-0.6794773301197943,-1.682775548731308
-3.937,-1.330357996438436,-1.926498232050159
-3.9365,-1.51175096901904,-1.587405803084801
-3.936,-1.084943974711735,-0.7502713690765743
-3.9355,-0.5621054066852853,-0.008506680714854012
-3.935,-0.156638762093345,0.5213252395435176
-3.9345,0.09944543449103843,0.8074344764830383
-3.934,0.2168173579255475,0.92399749893988
-3.9335,0.2488278824985954,0.9345941373450475
-3.933,0.2274875327832301,0.8922075837243778
-3.9325,0.1954770082101822,0.8286277532933731
-3.932,0.1634664836371343,0.7544512844572011
-3.9315,0.142126133921769,0.6696781772158616
-3.931,0.07810508477567314,0.5319218779486851
-3.9305,-0.391382608962363,-0.01910331912002144
-3.93,-0.8822106524157645,-0.7714646458869092
-3.9295,-1.074273799854052,-1.38606967338662
-3.929,-1.095614149569417,-1.682775548731308
-3.9285,-0.6154562809736985,-1.152943628472937
-3.928,-0.06060718837420119,-0.474758770542221
-3.9275,0.3021787567870086,0.002089957690313421
-3.927,0.4515612047945656,0.2352160026039969
-3.9265,0.4729015545099309,0.2458126410091644
-3.926,0.4408910299368829,0.1186529801471552
-3.9255,0.4835717293676135,-0.05089323433552374
-3.925,0.8463576745288233,-0.3581957480853793
-3.9245,0.8783681991018712,-0.3052125560595421
-3.924,0.6969752265212663,-0.08268314955102604
-3.9235,0.4942419042252961,0.13984625695749
-3.923,0.3341892813600565,0.309392471440169
-3.9225,0.2808384070716433,0.3199891098453364
-3.922,-0.02859666380115328,-0.2310360872233701
-3.9215,-0.572775581542968,-0.8880276683437509
-3.921,-0.9035510021311299,-1.290699927740113
-3.9205,-1.373038695869166,-1.598002441489969
-3.92,-1.479740444445993,-1.492036057438295
-3.9195,-1.042263275281004,-0.792657922697244
-3.919,-0.5300948821122373,-0.09327978795619347
-3.9185,-0.124628237520297,0.4259554938970107
-3.918,0.1101156093487211,0.7120647308365314
-3.9175,0.2274875327832301,0.8392243916985406
-3.917,0.2488278824985954,0.849821030103708
-3.9165,0.2381577076409128,0.8074344764830383
-3.916,0.1954770082101822,0.7332580076468663
-3.9155,0.1634664836371343,0.6590815388106942
-3.915,0.142126133921769,0.5849050699745222
-3.9145,0.1207857842064037,0.4895353243280153
-3.914,-0.2099896363817582,0.04447651131098315
-3.9135,-0.7755089038389382,-0.6654982618352349
-3.913,-1.116954499284783,-1.280103289334946
-3.9125,-1.010252750707956,-1.396666311791788
-3.912,-0.4447334832507763,-0.8880276683437509
-3.9115,0.0674349099179905,-0.3793890248957141
-3.911,0.408880505363835,0.01268659609548085
-3.9105,0.5155822539406614,0.2458126410091644
-3.91,0.5155822539406614,0.3199891098453364
-3.9095,0.4622313796522482,0.2670059178194992
-3.909,0.4195506802215176,0.1716361721729923
-3.9085,0.5475927785137094,0.1504428953626575
-3.908,0.5582629533713921,0.1610395337678249
-3.9075,0.4729015545099309,0.1928294489833272
-3.907,0.3661998059331045,0.2352160026039969
-3.9065,0.291508581929326,0.2987958330350016
-3.906,0.2701682322139607,0.3941655786815084
-3.9055,0.5796033030867573,0.7650479228623686
-3.905,0.5262524287983441,0.5637117931641874
-3.9045,-0.02859666380115328,-0.1674562567923655
-3.904,-0.5834457564006506,-0.5277419625680583
-3.9035,-1.255666772434657,-0.9410108603695881
-3.903,-1.394379045584531,-0.9833974139902578
-3.9025,-0.9889124009925911,-0.5065486857577234
-3.902,-0.4980843575391895,0.06566978812131802
-3.9015,-0.1139580626626144,0.5319218779486851
-3.901,0.1101156093487211,0.8286277532933731
-3.9005,0.2168173579255475,0.9875773293708847
-3.9,0.2488278824985954,1.061753798207057
-3.8995,0.2274875327832301,1.072350436612224
-3.899,0.1848068333524996,1.051157159801889
-3.8985,0.1527963087794516,1.00877060618122
-3.898,0.1314559590640864,0.9451907757502149
-3.8975,-0.1139580626626144,0.6378882620003594
-3.897,-0.722158029550525,-0.1144730647665284
-3.8965,-1.223656247861609,-0.8668343915334161
-3.896,-1.437059745015262,-1.354279758171118
-3.8955,-0.8608703027003992,-1.280103289334946
-3.895,-0.2099896363817582,-0.8244478379127463
-3.8945,0.2061471830678648,-0.3475991096802118
-3.894,0.3768699807907871,-0.05089323433552374
-3.8935,0.4302208550792003,0.07626642652648545
-3.893,0.408880505363835,0.06566978812131802
-3.8925,0.3875401556484697,0.04447651131098315
-3.892,0.5582629533713921,-0.1144730647665284
-3.8915,0.7289857510943143,-0.2734226408440398
-3.891,0.6542945270905358,-0.1674562567923655
-3.8905,0.5049120790829789,0.01268659609548085
-3.89,0.3661998059331045,0.1716361721729923
-3.8895,0.2808384070716433,0.2881991946298341
-3.889,0.4302208550792003,0.1928294489833272
-3.8885,0.5582629533713921,-0.3475991096802118
-3.888,0.2061471830678648,-0.9410108603695881
-3.8875,-0.4340633083930936,-1.460246142222792
-3.887,-1.159635198715513,-1.852321763213987
