Class_8_Think_right_hand_movement/Class_8_Think_Right_hand_mouvement_SH_6.csv

#Digilent WaveForms Oscilloscope Acquisition
#Device Name: EExplorer
#Serial Number: SN:210151A2B84A
#Date Time: 2020-12-15 14:59:18.114
#Sample rate: 2000Hz
#Samples: 16384
#Trigger: Source: Channel 1 Type: Edge Condition: Rising Level: 0 V Hyst.: Auto HoldOff: 0 s
#Channel 1: Range: 1 V/div Offset: 0 V Attenuation: 1 X
#Channel 2: Range: 1 V/div Offset: 0 V Attenuation: 1 X
#Power Supplies: ON
#Fixed Supply: ON
#Voltage: 3.3 V Readback: 3.322 V
#Positive Supply: ON
#Voltage: 3.7 V Readback: 3.714 V
#Current: 40 mA Readback: 19 mA
#Negative Supply: ON
#Voltage: -3.7 V Readback: -3.351 V
#Current: -40 mA Readback: -7 mA
#Reference 1: ON
#Voltage: 0 V
#Reference 2: ON
#Voltage: 0 V

Time (s),Channel 1 (V),Channel 2 (V)
-4.096,0.1954770082101822,-0.008506680714854012
-4.0955,0.3235191065022574,0.05507314971609276
-4.095,0.3875401556484794,0.05507314971611203
-4.0945,0.3982103305061524,0.01268659609548085
-4.094,0.3982103305061524,-0.008506680714834736
-4.0935,0.4195506802217117,0.01268659609550977
-4.093,0.6329541773751706,0.04447651131098315
-4.0925,0.6969752265212081,0.08686306493161433
-4.092,0.643624352232756,0.1610395337679117
-4.0915,0.5369226036560266,0.2564092794143318
-4.091,0.4408910299368829,0.3623756634660061
-4.0905,0.3768699807908453,0.2670059178189595
-4.09,0.4408910299368829,-0.326405832869877
-4.0895,0.3235191065023739,-0.9198175835592532
-4.089,-0.2206598112389459,-1.280103289334618
-4.0885,-0.7008176798351597,-1.269506650929778
-4.088,-0.6154562809736985,-0.6654982618352349
-4.0875,-0.3166913849588563,0.002089957689706212
-4.087,-0.01792648894328624,0.5107286011386007
-4.0865,0.1848068333524996,0.7862411996727035
-4.086,0.3021787567869019,0.8922075837242814
-4.0855,0.3448594562177489,0.8816109453191429
-4.085,0.3555296310754218,0.8074344764830383
-4.0845,0.3448594562177489,0.7120647308366181
-4.084,0.3235191065023448,0.6060983467847607
-4.0835,0.291508581929326,0.5001319627331828
-4.083,0.2488278824985954,0.4365521323021782
-4.0825,0.1741366584944578,0.3729723018707495
-4.082,-0.2206598112394408,-0.09327978795619347
-4.0815,-0.8822106524157645,-0.8244478379127463
-4.081,-1.511750969018468,-1.470842780627372
-4.0805,-1.586442193022819,-1.439052865412457
-4.08,-0.8822106524157645,-0.6443049850249
-4.0795,-0.2099896363823696,-0.008506680715432258
-4.079,0.2168173579257416,0.2670059178195378
-4.0785,0.4302208550792003,0.309392471440169
-4.078,0.483571729367565,0.2246193641989066
-4.0775,0.4729015545098921,0.1398462569574226
-4.077,0.4302208550792003,0.06566978812131802
-4.0765,0.4408910299368732,0.07626642652647581
-4.076,0.4622313796522191,0.09745970333683959
-4.0755,0.4302208550792003,0.1186529801471552
-4.075,0.3875401556484697,0.1504428953626575
-4.0745,0.3661998059331045,0.1928294489833176
-4.074,0.3661998059331045,0.1822328105781598
-4.0735,0.7503261008096795,-0.252229364033705
-4.073,0.8676980242440817,-0.9198175835586461
-4.0725,0.2488278824985954,-1.439052865412457
-4.072,-0.5194247072545548,-1.682775548731308
-4.0715,-0.7008176798349948,-1.174136905283734
-4.071,-0.4767440078235428,-0.4323722169209731
-4.0705,-0.1673089369510276,0.2034260873884947
-4.07,0.08877525963312288,0.6060983467844909
-4.0695,0.2488278824986633,0.8074344764830962
-4.069,0.3235191065023739,0.8710143069140429
-4.0685,0.3448594562177392,0.849821030103708
-4.068,0.3448594562177295,0.7968378380777938
-4.0675,0.3341892813600565,0.7120647308365314
-4.067,0.3128489316446912,0.6378882620003594
-4.0665,0.2808384070715948,0.5637117931641681
-4.066,0.2274875327832301,0.5425185163538525
-4.0655,0.05676473506030786,0.6060983467848571
-4.065,-0.4980843575386849,0.5637117931642259
-4.0645,-1.074273799854052,-0.07208651114585861
-4.064,-1.362368521011484,-0.7078848154559045
-4.0635,-0.8928808272738742,-0.4747587705424331
-4.063,-0.2526703358120714,-0.04029659593018283
-4.0625,0.2061471830678648,0.1504428953626575
-4.062,0.4302208550789965,0.1504428953626575
-4.0615,0.4942419042252767,0.05507314971607349
-4.061,0.4729015545099309,-0.02969995752518888
-4.0605,0.4302208550792003,-0.07208651114585861
-4.06,0.462231379652452,-0.05089323433555266
-4.0595,0.6863050516635838,-0.08268314955102604
-4.059,0.707645401378949,-0.05089323433552374
-4.0585,0.5902734779445467,0.04447651131089642
-4.058,0.4835717293676135,0.1610395337678249
-4.0575,0.3875401556484697,0.2564092794143318
-4.057,-0.03926683865844771,-0.09327978795587544
-4.0565,-0.690147504977477,-0.7396747306714069
-4.056,-1.042263275281004,-1.258910012524611
-4.0555,-1.394379045584211,-1.566212526274187
-4.055,-1.330357996437979,-1.280103289334261
-4.0545,-0.8288597781273515,-0.5277419625680583
-4.054,-0.3166913849590505,0.1716361721723563
-4.0535,0.0460945602028193,0.6590815388109255
-4.053,0.2594980573562781,0.9134008605347127
-4.0525,0.3555296310754218,0.9875773293708847
-4.052,0.3768699807907774,0.9663840525604728
-4.0515,0.3661998059331045,0.8816109453192104
-4.051,0.3448594562177392,0.775644561267536
-4.0505,0.3128489316447204,0.669678177215958
-4.05,0.2701682322139607,0.5637117931641874
-4.0495,0.2381577076409128,0.4895353243280153
-4.049,0.09944543449116458,0.4471487707073841
-4.0485,-0.4340633083936759,0.1822328105775526
-4.048,-1.074273799854052,-0.4853554089473885
-4.0475,-1.543761493591661,-1.15294362847233
-4.047,-1.405049220441641,-1.089363798041604
-4.0465,-0.7755089038389382,-0.7290780922662394
-4.046,-0.1673089369515808,-0.3052125560599276
-4.0455,0.2274875327834048,-0.008506680714786548
-4.045,0.4195506802215176,0.06566978812131802
-4.0445,0.4622313796522482,0.04447651131098315
-4.044,0.4515612047945461,0.002089957690303783
-4.0435,0.4302208550792003,-0.008506680714854012
-4.043,0.5902734779444399,-0.01910331912002144
-4.0425,0.6329541773751317,-0.00850668071486365
-4.042,0.5689331282290746,0.03387987290581572
-4.0415,0.4835717293676135,0.09745970333682032
-4.041,0.39821033050623,0.1610395337677671
-4.0405,0.227487532782677,0.03387987290527601
-4.04,-0.3807124341046804,-0.5595318777835605
-4.0395,-1.052933450138076,-1.195330182093028
-4.039,-1.469070269588368,-1.598002441489901
-4.0385,-1.533091318734406,-1.523825972653797
-4.038,-1.074273799854469,-0.8774310299391713
-4.0375,-0.5087545323964645,-0.1568596183866873
-4.037,-0.06060718837420119,0.4047622170866759
-4.0365,0.2168173579255475,0.7438546460520338
-4.036,0.344859456217778,0.8922075837244067
-4.0355,0.3875401556484697,0.92399749893988
-4.035,0.3768699807907871,0.8816109453192104
-4.0345,0.3555296310754412,0.8180311148882636
-4.034,0.3341892813600565,0.7332580076468663
-4.0335,0.291508581929326,0.6484849004055269
-4.033,0.2488278824986342,0.58490506997458
-4.0325,0.1954770082099105,0.5425185163536019
-4.032,-0.1032878878049318,0.2670059178194992
-4.0315,-0.6901475049769432,-0.4323722169209153
-4.031,-1.30901764672309,-1.163540266878191
-4.0305,-1.330357996438436,-1.258910012524611
-4.03,-0.7221580295510781,-0.6760949002409323
-4.0295,-0.1352984123776206,-0.1780528951972823
-4.029,0.2594980573562781,0.09745970333682032
-4.0285,0.4622313796522482,0.13984625695749
-4.028,0.5155822539406419,0.06566978812126019
-4.0275,0.4942419042252961,0.002089957690313421
-4.027,0.4408910299368829,-0.04029659593035631
-4.0265,0.5155822539405934,0.06566978812122164
-4.026,0.6009436528021226,0.1928294489833272
-4.0255,0.5689331282290746,0.1928294489833272
-4.025,0.4942419042253641,0.1716361721730116
-4.0245,0.4088805053637671,0.1716361721729442
-4.024,0.3341892813600565,0.1186529801471552
-4.0235,-0.06060718837384216,-0.3899856633004189
-4.023,-0.5727755815433562,-1.015187329206223
-4.0225,-0.9995825758502737,-1.523825972653797
-4.022,-1.383708870726499,-1.756952017567268
-4.0215,-1.191645723288105,-1.24831337411873
-4.021,-0.690147504977477,-0.4641621321370536
-4.0205,-0.2099896363817582,0.2034260873884947
-4.02,0.120785784206559,0.6484849004057389
-4.0195,0.291508581929326,0.8816109453192104
-4.019,0.3661998059331045,0.9557874141553824
-4.0185,0.3768699807907774,0.9557874141553824
-4.018,0.3661998059331045,0.9028042221295453
-4.0175,0.3341892813600565,0.8286277532933731
-4.017,0.3128489316447107,0.7438546460521109
-4.0165,0.2701682322139316,0.6696781772158135
-4.016,0.2381577076409128,0.6166949851900245
-4.0155,-0.02859666380091064,0.3623756634662375
-4.015,-0.7114878546934731,-0.3687923864912406
-4.0145,-1.405049220442214,-1.131750351662602
-4.014,-1.799845690176113,-1.513229334248283
-4.0135,-1.106284324426362,-0.792657922696608
-4.013,-0.2953510352432193,-0.09327978795619347
-4.0125,0.2381577076409128,0.2458126410091644
-4.012,0.4835717293676717,0.2881991946297378
-4.0115,0.5475927785137094,0.1822328105781598
-4.011,0.5049120790829789,0.04447651131098315
-4.0105,0.4515612047946141,-0.0720865111457526
-4.01,0.4515612047945656,-0.07208651114585861
-4.0095,0.5902734779444399,0.08686306493165288
-4.009,0.5902734779444399,0.1398462569574419
-4.0085,0.5155822539405838,0.1398462569575093
-4.008,0.4302208550792003,0.1610395337678249
-4.0075,0.3768699807908356,0.1928294489832983
-4.007,0.08877525963274439,-0.1250697031722837
-4.0065,-0.5834457564006506,-0.7714646458869092
-4.006,-1.170305373573196,-1.333086481360783
-4.0055,-1.405049220442136,-1.598002441489728
-4.005,-1.319687821580753,-1.333086481360783
-4.0045,-0.8288597781273515,-0.6019184314042303
-4.004,-0.3166913849582449,0.10805634174246
-4.0035,0.05676473506030786,0.627291623595192
-4.003,0.2701682322139607,0.9028042221295453
-4.0025,0.3555296310753442,1.019367244586281
-4.002,0.3875401556484697,1.019367244586387
-4.0015,0.3661998059331045,0.9663840525605498
-4.001,0.3448594562177586,0.8710143069141296
-4.0005,0.3235191065023351,0.7756445612674493
-4,0.2808384070716433,0.6802748156210291
-3.9995,0.2381577076409128,0.6060983467848571
-3.999,0.1101156093487211,0.4895353243280153
-3.9985,-0.4340633083930936,-0.06148987274069118
-3.998,-0.9889124009925911,-0.8562377531282487
-3.9975,-1.351698346153801,-1.492036057438295
-3.997,-1.159635198715513,-1.269506650929778
-3.9965,-0.5514352318276028,-0.6972881770507372
-3.996,-0.01792648894347063,-0.3687923864905467
-3.9955,0.3128489316446912,-0.2416327256285375
-3.995,0.4622313796522482,-0.1568596183871981
-3.9945,0.4942419042252961,-0.1144730647665284
-3.994,0.4622313796522482,-0.09327978795619347
-3.9935,0.4302208550792003,-0.09327978795619347
-3.993,0.5689331282290746,-0.1886495336027004
-3.9925,0.6222840025174878,-0.1992461720078678
-3.992,0.5582629533713921,-0.1356663415768632
-3.9915,0.4622313796522482,-0.02969995752518888
-3.991,0.3982103305061524,0.06566978812131802
-3.9905,0.2381577076409128,-0.05089323433552374
-3.99,-0.3487019095316325,-0.6337083466197325
-3.9895,-1.031593100423322,-1.258910012524611
-3.989,-1.586442193022819,-1.619195718300304
-3.9885,-1.778505340461106,-1.417859588602123
-3.988,-1.298347471865388,-0.8138511995075789
-3.9875,-0.658136980404429,-0.1250697031716958
-3.987,-0.1459685872356623,0.4153588554918433
-3.9865,0.1848068333524996,0.7438546460520338
-3.986,0.3448594562177392,0.8922075837243778
-3.9855,0.3982103305061524,0.9345941373450475
-3.985,0.3875401556484697,0.9028042221295453
-3.9845,0.3661998059331045,0.849821030103708
-3.984,0.3341892813600565,0.775644561267536
-3.9835,0.291508581929326,0.701468092431364
-3.983,0.2594980573562781,0.6378882620003594
-3.9825,0.2061471830678648,0.5955017083796896
-3.982,-0.1032878878049318,0.3411823866556712
-3.9815,-0.7755089038389382,-0.3793890248957141
-3.981,-1.447729919872945,-1.121153713257435
-3.9805,-1.501080794161358,-1.301296566145281
-3.98,-0.7434983792658902,-0.6125150698093976
-3.9795,-0.07127736323188383,-0.02969995752518888
-3.979,0.3555296310754218,0.1716361721729923
-3.9785,0.5369226036560266,0.07626642652648545
-3.978,0.5689331282290746,-0.05089323433552374
-3.9775,0.5262524287983441,-0.1250697031716958
-3.977,0.4622313796522482,-0.1462629799820306
-3.9765,0.5155822539406614,-0.008506680714854012
-3.976,0.6329541773751706,0.2034260873884947
-3.9755,0.5902734779444399,0.1928294489833272
-3.975,0.4942419042252961,0.1610395337678249
-3.9745,0.4195506802215176,0.1716361721729923
-3.974,0.3555296310754218,0.1292496185523226
-3.9735,-0.02859666380115328,-0.3687923864905467
-3.973,-0.5514352318276028,-0.9622041371799229
-3.9725,-0.9995825758502737,-1.42845622700729
-3.972,-1.383708870726849,-1.640388995110639
-3.9715,-1.234326422719292,-1.195330182093607
-3.971,-0.7328282044082075,-0.400582301706049
-3.9705,-0.2420001609548061,0.2881991946298341
-3.97,0.09944543449103843,0.7544512844572011
-3.9695,0.291508581929326,0.9981739677760521
-3.969,0.3661998059331045,1.072350436612224
-3.9685,0.3875401556484697,1.051157159801889
-3.968,0.3661998059331045,0.9769806909657173
-3.9675,0.3448594562177392,0.8816109453192104
-3.967,0.3235191065023739,0.775644561267536
-3.9665,0.3128489316446912,0.6590815388106942
-3.966,0.2808384070716433,0.5743084315693548
-3.9655,0.05676473506030786,0.4471487707073456
-3.965,-0.5941159312583333,-0.1462629799820306
-3.9645,-1.277007122150022,-0.9198175835592532
-3.964,-1.575772018165136,-1.417859588602123
-3.9635,-1.06360362499637,-0.9728007755850904
-3.963,-0.3807124341046804,-0.4111789401112165
-3.9625,0.1314559590640864,-0.2204394488182027
-3.962,0.3982103305061524,-0.1568596183871981
-3.9615,0.4835717293676135,-0.1356663415768632
-3.961,0.4729015545099309,-0.1568596183871981
-3.9605,0.4408910299368829,-0.1674562567923655
-3.96,0.4622313796522482,-0.1356663415768632
-3.9595,0.857027849386506,0.04447651131098315
-3.959,0.9637295979633325,0.1504428953626575
-3.9585,0.825017324813458,0.1610395337678249
-3.958,0.6329541773751706,0.1716361721729923
-3.9575,0.4622313796522482,0.1822328105781598
-3.957,0.1527963087794516,-0.1356663415768632
-3.9565,-0.4020527838200457,-0.7608680074817418
-3.956,-0.8822106524157645,-1.301296566145281
-3.9555,-1.287677297007705,-1.650985633515806
-3.955,-1.287677297007705,-1.407262950196955
-3.9545,-0.839529952985034,-0.6443049850249
-3.954,-0.3380317346739499,0.08686306493165288
-3.9535,0.03542438534494258,0.627291623595192
-3.953,0.2594980573562781,0.92399749893988
-3.9525,0.3555296310754218,1.051157159801889
-3.952,0.3768699807907871,1.061753798207057
-3.9515,0.3768699807907871,1.00877060618122
-3.951,0.3555296310754218,0.92399749893988
-3.9505,0.3128489316446912,0.8286277532933731
-3.95,0.2701682322139607,0.7226613692416989
-3.9495,0.2274875327832301,0.6590815388106942
-3.949,0.1207857842064037,0.5425185163538525
-3.9485,-0.391382608962363,-0.05089323433552374
-3.948,-1.052933450138687,-0.8350444763179138
-3.9475,-1.565101843307454,-1.481439419033127
-3.947,-1.383708870726849,-1.34368311976595
-3.9465,-0.722158029550525,-0.7396747306714069
-3.946,-0.1139580626626144,-0.1992461720078678
-3.9455,0.2808384070716433,0.08686306493165288
-3.945,0.4515612047945656,0.1610395337678249
-3.9445,0.4835717293676135,0.09745970333682032
-3.944,0.4622313796522482,0.01268659609548085
-3.9435,0.4302208550792003,-0.05089323433552374
-3.943,0.707645401378949,0.02328323450064829
-3.9425,0.9530594231056497,-0.04029659593035631
-3.942,0.8676980242441885,-0.07208651114585861
-3.9415,0.6756348768059011,-0.05089323433552374
-3.941,0.5049120790829789,0.002089957690313421
-3.9405,0.3875401556484697,-0.1038764263613609
-3.94,0.3555296310754218,-0.6443049850249
-3.9395,0.05676473506030786,-1.258910012524611
-3.939,-0.5300948821122373,-1.629792356705471
-3.9385,-1.010252750707956,-1.407262950196955
-3.938,-0.9782422261349084,-0.8880276683437509
-3.9375,-0.5834457564006506,-0.2310360872233701
-3.937,-0.1779791118087102,0.309392471440169
-3.9365,0.1101156093487211,0.6696781772158616
-3.936,0.2808384070716433,0.8604176685088755
-3.9355,0.3448594562177392,0.9451907757502149
-3.935,0.3661998059331045,0.9663840525605498
-3.9345,0.3555296310754218,0.9451907757502149
-3.934,0.3341892813600565,0.9028042221295453
-3.9335,0.3021787567870086,0.849821030103708
-3.933,0.2488278824985954,0.8180311148882058
-3.9325,0.1848068333524996,0.8074344764830383
-3.932,-0.07127736323188383,0.4895353243280153
-3.9315,-0.6154562809736985,-0.3052125560595421
-3.931,-1.095614149569417,-1.110557074852267
-3.9305,-1.383708870726849,-1.629792356705471
-3.93,-1.06360362499637,-1.248313374119443
-3.9295,-0.4980843575391895,-0.6337083466197325
-3.929,0.00341386077189465,-0.3370024712750445
-3.9285,0.3128489316446912,-0.2310360872233701
-3.928,0.4408910299368829,-0.1462629799820306
-3.9275,0.4622313796522482,-0.1038764263613609
-3.927,0.4408910299368829,-0.08268314955102604
-3.9265,0.5369226036560266,-0.05089323433552374
-3.926,0.7716664505250448,-0.05089323433552374
-3.9255,0.7503261008096795,-0.04029659593035631
-3.925,0.6116138276598051,-0.01910331912002144
-3.9245,0.4835717293676135,0.03387987290581572
-3.924,0.3875401556484697,0.02328323450064829
-3.9235,0.08877525963335578,-0.400582301706049
-3.923,-0.5300948821122373,-1.046977244421262
-3.9225,-1.06360362499637,-1.587405803084801
-3.922,-1.383708870726849,-1.905304955239825
-3.9215,-1.277007122150022,-1.492036057438295
-3.921,-0.7861790786966207,-0.6760949002404023
-3.9205,-0.274010685527854,0.05507314971615059
-3.92,0.07810508477567314,0.55311515475902
-3.9195,0.2808384070716433,0.8286277532933731
-3.919,0.3661998059331045,0.9451907757502149
-3.9185,0.3768699807907871,0.9663840525605498
-3.918,0.3661998059331045,0.92399749893988
-3.9175,0.3448594562177392,0.8604176685088755
-3.917,0.3021787567870086,0.7862411996727035
-3.9165,0.2594980573562781,0.7226613692416989
-3.916,0.2274875327832301,0.6696781772158616
-3.9155,0.03542438534494258,0.4683420475176805
-3.915,-0.5514352318276028,-0.252229364033705
-3.9145,-1.255666772434657,-1.046977244421262
-3.914,-1.842526389607202,-1.587405803084801
-3.9135,-1.51175096901904,-1.184733543688439
-3.913,-0.754168554123573,-0.4323722169215513
-3.9125,-0.09261771294724913,0.05507314971615059
-3.912,0.3235191065023739,0.2670059178194992
-3.9115,0.4942419042252961,0.2352160026039969
-3.911,0.5155822539406614,0.1080563417419877
-3.9105,0.4729015545099309,-0.008506680714854012
-3.91,0.4835717293676135,-0.08268314955102604
-3.9095,0.8036769750980928,-0.252229364033705
-3.909,0.8890383739595538,-0.252229364033705
-3.9085,0.7503261008096795,-0.1038764263613609
-3.908,0.5796033030867573,0.06566978812131802
-3.9075,0.4408910299368829,0.2140227257936621
-3.907,0.2488278824985954,0.002089957690313421
-3.9065,-0.1993194615240755,-0.6337083466197325
-3.906,-0.9035510021311299,-1.269506650929778
-3.9055,-1.447729919872945,-1.629792356705471
-3.905,-1.629122892453549,-1.534422611058964
-3.9045,-1.159635198715513,-0.8880276683437509
-3.904,-0.572775581542968,-0.1886495336027004
-3.9035,-0.09261771294724913,0.3517790250608387
-3.903,0.2061471830678648,0.6590815388106942
-3.9025,0.3448594562177392,0.7968378380778709
-3.902,0.3875401556484697,0.8180311148882058
-3.9015,0.3875401556484697,0.775644561267536
-3.901,0.3661998059331045,0.7120647308365314
-3.9005,0.3235191065023739,0.6378882620003594
-3.9,0.291508581929326,0.55311515475902
-3.8995,0.2381577076409128,0.55311515475902
-3.899,0.05676473506030786,0.6378882620003594
-3.8985,-0.4767440078238243,0.1822328105781598
-3.898,-1.116954499284783,-0.6231117082145651
-3.8975,-1.533091318734406,-1.333086481360783
-3.897,-1.661133417026597,-1.682775548731308
-3.8965,-1.138294849000148,-1.142346990067769
-3.896,-0.4660738329661415,-0.4641621321370536
-3.8955,0.07810508477567314,0.02328323450064829
-3.895,0.3875401556484697,0.2670059178194992
-3.8945,0.5049120790829789,0.2670059178194992
-3.894,0.5155822539406614,0.1822328105781598
-3.8935,0.4729015545099309,0.08686306493165288
-3.893,0.6756348768059011,0.002089957690313421
-3.8925,0.8997085488172365,-0.09327978795619347
-3.892,0.825017324813458,-0.09327978795619347
-3.8915,0.6542945270905358,-0.02969995752518888
-3.891,0.5049120790829789,0.05507314971615059
-3.8905,0.3661998059331045,0.01268659609548085
-3.89,0.1314559590640864,-0.252229364033705
-3.8895,-0.4447334832507763,-0.7714646458869092
-3.889,-1.042263275281004,-1.301296566145281
-3.8885,-1.426389570157579,-1.534422611058964
-3.888,-1.127624674142465,-1.025783967610927
-3.8875,-0.6047861061160158,-0.3052125560595421
