Class_8_Think_right_hand_movement/Class_8_Think_Right_hand_mouvement_UZ_5.csv

#Digilent WaveForms Oscilloscope Acquisition
#Device Name: EExplorer
#Serial Number: SN:210151A2B84A
#Date Time: 2020-12-06 09:34:37.738
#Sample rate: 2000Hz
#Samples: 16384
#Trigger: Source: Channel 1 Type: Edge Condition: Rising Level: 0 V Hyst.: Auto HoldOff: 0 s
#Channel 1: Range: 1 V/div Offset: 0 V Attenuation: 1 X
#Channel 2: Range: 1 V/div Offset: 0 V Attenuation: 1 X
#Power Supplies: ON
#Fixed Supply: ON
#Voltage: 3.3 V Readback: 3.375 V
#Positive Supply: ON
#Voltage: 3.7 V Readback: 3.592 V
#Current: 40 mA Readback: 20 mA
#Negative Supply: ON
#Voltage: -3.7 V Readback: -4.163 V
#Current: -40 mA Readback: -20 mA
#Reference 1: ON
#Voltage: 0 V
#Reference 2: ON
#Voltage: 0 V

Time (s),Channel 1 (V),Channel 2 (V)
-4.096,0.3661998059331045,0.4259554938970107
-4.0955,0.1848068333526645,0.1928294489835392
-4.095,-0.5834457564013007,-0.5383386009739485
-4.0945,-1.298347471865388,-1.333086481360783
-4.094,-1.885207089037399,-1.894708316834147
-4.0935,-1.831856214748734,-1.852321763213245
-4.093,-0.9675720512772257,-1.036380606016095
-4.0925,-0.07127736323269895,-0.1780528951983135
-4.092,0.504912079083202,0.415358855492171
-4.0915,0.7503261008096795,0.775644561267536
-4.091,0.7716664505250448,0.9028042221295453
-4.0905,0.707645401378949,0.9239974989397933
-4.09,0.707645401378949,0.8286277532933731
-4.0895,0.7503261008096795,0.7226613692416989
-4.089,0.6649647019482959,0.7226613692416989
-4.0885,0.5689331282290746,0.7544512844572011
-4.088,0.4942419042252961,0.7544512844572011
-4.0875,0.4195506802215856,0.71206473083657
-4.087,0.07810508477447949,0.341182386654428
-4.0865,-1.234326422719292,-1.025783967610927
-4.086,-2.130621110763818,-1.92649823204934
-4.0855,-2.674800028506623,-2.488120067524294
-4.085,-2.866863175944736,-2.774229304463554
-4.0845,-2.066600061619265,-2.02186797769735
-4.084,-1.010252750707277,-0.9516074987740712
-4.0835,-0.2633405106701714,-0.1992461720078678
-4.083,0.1848068333524996,0.2564092794143318
-4.0825,0.4088805053639127,0.4577454091125612
-4.082,0.4942419042252961,0.5107286011383502
-4.0815,0.4942419042252961,0.4789386859228479
-4.081,0.4729015545099503,0.4259554938970589
-4.0805,0.4515612047945656,0.3729723018711736
-4.08,0.4195506802215176,0.3411823866556712
-4.0795,0.3982103305061718,0.3093924714401979
-4.079,0.2808384070710513,0.15044289536206
-4.0785,-0.3700422592469978,-0.5065486857577234
-4.078,-0.9889124009920283,-1.237716735713611
-4.0775,-1.351698346153481,-1.756952017567307
-4.077,-0.9995825758502737,-1.566212526274467
-4.0765,-0.252670335813168,-0.9304142219649989
-4.076,0.3661998059334344,-0.2840192792487158
-4.0755,0.7289857510943143,0.2564092794143318
-4.075,0.8463576745288233,0.6696781772158616
-4.0745,0.8036769750979957,0.945190775750292
-4.074,0.6969752265212663,1.029963882991555
-4.0735,0.6542945270905358,0.9663840525605498
-4.073,0.7609962756672652,0.7756445612677094
-4.0725,0.707645401378949,0.775644561267536
-4.072,0.6116138276598051,0.8604176685088755
-4.0715,0.5155822539407487,0.93459413734498
-4.071,0.4515612047942841,0.9557874141552571
-4.0705,0.142126133921769,0.8180311148882058
-4.07,-0.6261264558306825,0.06566978812200219
-4.0695,-1.853196564464972,-1.258910012524813
-4.069,-1.949228138184029,-1.481439419033127
-4.0685,-2.087940411333903,-1.735758740757146
-4.068,-1.725154466171956,-1.523825972653132
-4.0675,-0.9142211769888124,-0.792657922697244
-4.067,-0.1993194615240755,-0.1250697031716958
-4.0665,0.1848068333526743,0.224619364198974
-4.066,0.3768699807907871,0.383568940276341
-4.0655,0.4622313796522482,0.4259554938970107
-4.065,0.4729015545099212,0.4047622170866951
-4.0645,0.4622313796522482,0.3729723018711736
-4.064,0.4408910299368829,0.3411823866556712
-4.0635,0.43022085507921,0.3305857482505135
-4.063,0.4195506802214788,0.3199891098452882
-4.0625,0.3768699807907871,0.2670059178194992
-4.062,-0.07127736323147627,-0.2098428104126015
-4.0615,-0.7755089038390935,-1.004590690801142
-4.061,-0.9462317015618604,-1.608599079895136
-4.0605,-0.690147504977477,-1.75695201756748
-4.06,-0.1032878878044271,-1.16354026687741
-4.0595,0.4515612047945656,-0.400582301706049
-4.059,0.79300680024041,0.2246193641988295
-4.0585,0.8783681991017936,0.6908714540257725
-4.058,0.8356874996711408,0.9134008605347127
-4.0575,0.7396559259519968,0.9875773293708847
-4.057,0.6542945270906134,0.9981739677760424
-4.0565,0.7396559259519968,0.775644561267536
-4.056,0.7503261008096795,0.701468092431364
-4.0555,0.6542945270906232,0.7862411996726264
-4.055,0.5475927785136414,0.8710143069140911
-4.0545,0.4729015545099309,0.92399749893988
-4.054,0.3555296310755285,0.8710143069140911
-4.0535,-0.2099896363825636,0.2987958330341535
-4.053,-1.095614149569417,-0.6337083466197325
-4.0525,-2.130621110764634,-1.894708316834657
-4.052,-2.376035132491412,-1.619195718299301
-4.0515,-2.461396531352796,-0.5171453241628908
-4.051,-1.799845690176472,0.08686306493165288
-4.0505,-0.8395299529859074,0.2776025562244932
-4.05,-0.156638762093345,0.1716361721729923
-4.0495,0.2274875327832301,0.01268659609548085
-4.049,0.419550680221343,-0.08268314955093931
-4.0485,0.4835717293676135,-0.08268314955096821
-4.048,0.4835717293676135,-0.01910331912002144
-4.0475,0.4622313796522676,0.0868630649315565
-4.047,0.4408910299368635,0.2352160026041415
-4.0465,0.4195506802215176,0.3941655786815084
-4.046,0.3982103305061718,0.5425185163537176
-4.0455,0.07810508477494531,0.3517790250602026
-4.045,-0.722158029550525,-0.3475991096802118
-4.0445,-1.319687821580753,-1.01518732920576
-4.044,-1.469070269587737,-1.227120097308598
-4.0435,-0.839529952985034,-0.6654982618352349
-4.043,-0.03926683865883591,0.2034260873884947
-4.0425,0.5582629533708486,0.9028042221289092
-4.042,0.8356874996711408,1.326669758336243
-4.0415,0.8783681991018712,1.538602526439591
-4.041,0.8143471499558335,1.549199164844749
-4.0405,0.7076454013789587,1.496215972818921
-4.04,0.7183155762366316,1.496215972818921
-4.0395,0.7609962756673234,1.464426057603448
-4.039,0.6863050516634868,1.273686566310184
-4.0385,0.5796033030867573,1.029963882991555
-4.038,0.4942419042253737,0.8180311148883985
-4.0375,0.4088805053630198,0.637888261999598
-4.037,-0.4874141826815069,-0.1992461720078678
-4.0365,-1.330357996438436,-1.237716735714276
-4.036,-1.607782542738456,-1.831128486404106
-4.0355,-1.906547438753298,-2.329170491446522
-4.035,-1.959898313041711,-2.392750321877526
-4.0345,-1.309017646723662,-1.587405803085534
-4.034,-0.6047861061160158,-0.718481453861072
-4.0335,-0.07127736323188383,-0.09327978795619347
-4.033,0.2594980573559773,0.2881991946294872
-4.0325,0.4195506802215759,0.457745409112542
-4.032,0.4835717293676135,0.4895353243280153
-4.0315,0.4942419042252864,0.4683420475176998
-4.031,0.4622313796522191,0.4259554938969818
-4.0305,0.4302208550792003,0.3941655786815084
-4.03,0.4088805053638545,0.3623756634660351
-4.0295,0.3982103305060068,0.3411823866555363
-4.029,0.2381577076409128,0.1928294489833272
-4.0285,-0.5407650569699201,-0.4959520473525559
-4.028,-1.383708870727295,-1.280103289335447
-4.0275,-1.87453691418025,-1.831128486403653
-4.027,-1.607782542738184,-1.703968825541643
-4.0265,-0.7328282044090033,-0.888027668344493
-4.026,0.08877525963335578,-0.01910331912002144
-4.0255,0.6116138276598051,0.5849050699745222
-4.025,0.825017324813264,0.9345941373447295
-4.0245,0.8250173248133804,1.082947075017411
-4.024,0.7396559259519968,1.104140351827727
-4.0235,0.6756348768059592,1.072350436612253
-4.023,0.6542945270904679,0.9875773293708269
-4.0225,0.5796033030867573,0.92399749893988
-4.022,0.5049120790830468,0.8498210301037755
-4.0215,0.4622313796522288,0.7756445612674782
-4.021,0.4408910299368829,0.7120647308365314
-4.0205,0.3235191065023739,0.5743084315693548
-4.02,-0.2846808603867206,-0.1144730647677812
-4.0195,-1.586442193022819,-1.492036057438295
-4.019,-2.290673733629873,-2.17022091536901
-4.0185,-2.760161427367483,-2.636473005195953
-4.018,-2.344024607918286,-2.276187299420684
-4.0175,-1.330357996438436,-1.227120097309109
-4.017,-0.4340633083939087,-0.3052125560603806
-4.0165,0.08877525963361781,0.245812641009415
-4.016,0.3768699807907871,0.5213252395435176
-4.0155,0.4942419042251894,0.6272916235950956
-4.015,0.5155822539406419,0.616694985189986
-4.0145,0.4942419042252961,0.5743084315693548
-4.014,0.4622313796522773,0.5213252395435658
-4.0135,0.4408910299368635,0.4683420475176516
-4.013,0.4195506802215176,0.4365521323021782
-4.0125,0.3448594562177392,0.3305857482505039
-4.012,-0.2846808603862742,-0.2840192792499783
-4.0115,-1.095614149569417,-1.131750351662602
-4.011,-1.490410619303675,-1.809935209593318
-4.0105,-1.309017646723235,-1.831128486403633
-4.01,-0.5087545323968721,-1.195330182093607
-4.0095,0.2808384070716433,-0.4959520473525559
-4.009,0.7609962756669255,0.0338798729053339
-4.0085,0.9423892482479476,0.4365521323024191
-4.008,0.9210488985326017,0.701468092431364
-4.0075,0.8143471499558723,0.807434476482942
-4.007,0.6969752265213439,0.8286277532931707
-4.0065,0.7823366253827275,0.6060983467848571
-4.006,0.7609962756673623,0.5107286011383502
-4.0055,0.6649647019481213,0.5637117931642549
-4.005,0.5582629533713921,0.6378882620003594
-4.0045,0.4835717293676135,0.701468092431364
-4.004,0.3235191065018498,0.7332580076464615
-4.0035,-0.2526703358124887,0.2881991946298341
-4.003,-1.191645723288561,-0.7502713690765743
-4.0025,-2.258663209055855,-1.937094870454247
-4.002,-2.664129853648766,-2.392750321877526
-4.0015,-2.44005618163743,-2.318573853041354
-4.001,-1.533091318735231,-1.417859588602942
-4.0005,-0.5621054066847418,-0.4111789401106382
-4,0.03542438534494258,0.2246193641988295
-3.9995,0.3448594562177392,0.55311515475902
-3.999,0.4835717293676135,0.6908714540261965
-3.9985,0.5155822539406614,0.7120647308365314
-3.998,0.5049120790829789,0.6696781772158616
-3.9975,0.4622313796522482,0.6166949851900245
-3.997,0.4302208550792003,0.5637117931641874
-3.9965,0.408880505363835,0.5107286011383502
-3.996,0.3875401556484697,0.4683420475176805
-3.9955,0.05676473506030786,0.1292496185523226
-3.995,-0.722158029550525,-0.6760949002404023
-3.9945,-1.244996597576974,-1.417859588602123
-3.994,-1.394379045584531,-1.831128486403653
-3.9935,-0.9035510021311299,-1.375473034981453
-3.993,-0.1459685872356623,-0.6337083466197325
-3.9925,0.4622313796522482,-0.02969995752518888
-3.992,0.7823366253827275,0.457745409112513
-3.9915,0.8463576745288233,0.701468092431364
-3.991,0.79300680024041,0.8074344764830383
-3.9905,0.6863050516635838,0.8392243916985406
-3.99,0.7289857510943143,0.7968378380778709
-3.9895,0.8143471499557753,0.6908714540261965
-3.989,0.7396559259519968,0.6696781772158616
-3.9885,0.6436243522328531,0.6802748156210291
-3.988,0.5475927785137094,0.6802748156210291
-3.9875,0.4622313796522482,0.6484849004055269
-3.987,-0.5514352318276028,-0.2840192792492073
-3.9865,-1.373038695869166,-1.237716735714276
-3.986,-1.927887788468663,-1.990078062481164
-3.9855,-2.365364957633652,-2.17022091536901
-3.985,-2.408045657064382,-1.788741932782983
-3.9845,-1.67180359188428,-1.025783967610927
-3.984,-0.8288597781273515,-0.2946159176543747
-3.9835,-0.1779791118087102,0.2246193641988295
-3.983,0.2381577076409128,0.5425185163538525
-3.9825,0.4515612047945656,0.6696781772158616
-3.982,0.5262524287983441,0.701468092431364
-3.9815,0.5262524287983441,0.6908714540261965
-3.981,0.5155822539406614,0.6590815388106942
-3.9805,0.4835717293676135,0.6166949851900245
-3.98,0.4515612047945656,0.5743084315693548
-3.9795,0.4195506802215176,0.5319218779486851
-3.979,0.2594980573562781,0.3411823866556712
-3.9785,-0.4874141826815069,-0.400582301706049
-3.978,-1.180975548430879,-1.237716735714276
-3.9775,-1.618452717595867,-1.862918401619155
-3.977,-1.703814116457328,-1.990078062481164
-3.9765,-0.9782422261349084,-1.205926820498774
-3.976,-0.124628237520297,-0.3581957480853793
-3.9755,0.5049120790829789,0.2034260873884947
-3.975,0.79300680024041,0.5425185163538525
-3.9745,0.8463576745288233,0.7332580076468663
-3.974,0.79300680024041,0.8074344764830383
-3.9735,0.7396559259519968,0.8286277532933731
-3.973,0.8356874996711408,0.7544512844572011
-3.9725,0.7823366253827275,0.701468092431364
-3.972,0.6756348768059011,0.6696781772158616
-3.9715,0.5796033030867573,0.6484849004055269
-3.971,0.5155822539406614,0.6166949851900245
-3.9705,0.2274875327832301,0.4365521323021782
-3.97,-0.4874141826815069,-0.2204394488182027
-3.9695,-1.607782542738184,-1.417859588602123
-3.969,-1.735824641030376,-1.587405803084801
-3.9685,-1.522421143876723,-1.460246142222792
-3.968,-0.9675720512772257,-0.9092209451540858
-3.9675,-0.3060212101009019,-0.2204394488182027
-3.967,0.1848068333524996,0.309392471440169
-3.9665,0.3875401556484697,0.5319218779486851
-3.966,0.4622313796522482,0.6060983467848571
-3.9655,0.4835717293676135,0.627291623595192
-3.965,0.4729015545099309,0.6060983467848571
-3.9645,0.4622313796522482,0.5849050699745222
-3.964,0.4515612047945656,0.5743084315693548
-3.9635,0.4408910299368829,0.5637117931641874
-3.963,0.4302208550792003,0.5637117931641874
-3.9625,0.3875401556484697,0.5107286011383502
-3.962,0.01408403562957729,0.02328323450064829
-3.9615,-0.7434983792658902,-0.8668343915334161
-3.961,-1.30901764672307,-1.619195718300304
-3.9605,-1.223656247861609,-1.608599079895136
-3.96,-0.4554036581084589,-1.068170521231597
-3.9595,0.2808384070716433,-0.4959520473525559
-3.959,0.7503261008096795,0.02328323450064829
-3.9585,0.942389248247967,0.4153588554918433
-3.958,0.9210488985326017,0.7120647308365314
-3.9575,0.8143471499557753,0.8922075837243778
-3.957,0.7183155762366316,0.9451907757502149
-3.9565,0.6969752265212663,1.104140351827727
-3.956,0.6436243522328531,1.093543713422559
-3.9555,0.5582629533713921,0.9769806909657173
-3.955,0.5049120790829789,0.8392243916985406
-3.9545,0.4622313796522482,0.7332580076468663
-3.954,0.3448594562177392,0.6166949851900245
-3.9535,-0.2633405106701714,0.04447651131098315
-3.953,-0.9462317015618604,-0.718481453861072
-3.9525,-1.341028171296118,-1.34368311976595
-3.952,-2.162631635337682,-2.244397384205182
-3.9515,-2.098610586191586,-2.180817553774178
-3.951,-1.394379045584531,-1.375473034981453
-3.9505,-0.6794773301197943,-0.5383386009732256
-3.95,-0.03926683865883591,0.2034260873884947
-3.9495,0.3661998059331045,0.6590815388106942
-3.949,0.4835717293676135,0.7968378380778709
-3.9485,0.5049120790829789,0.7968378380778709
-3.948,0.4835717293676135,0.7544512844572011
-3.9475,0.4622313796522482,0.701468092431364
-3.947,0.4408910299368829,0.6378882620003594
-3.9465,0.4302208550792003,0.5955017083796896
-3.946,0.4302208550792003,0.5637117931641874
-3.9455,0.1207857842064037,0.2458126410091644
-3.945,-0.6688071552621118,-0.6231117082145651
-3.9445,-1.1062843244271,-1.38606967338662
-3.944,-1.159635198715513,-1.703968825541643
-3.9435,-0.572775581542968,-1.205926820498774
-3.943,0.142126133921769,-0.5277419625680583
-3.9425,0.6542945270905358,0.07626642652648545
-3.942,0.8783681991018712,0.4683420475176805
-3.9415,0.8997085488172365,0.7226613692416989
-3.941,0.8463576745288233,0.8074344764830383
-3.9405,0.7396559259519968,0.8180311148882058
-3.94,0.7289857510943143,0.7226613692416989
-3.9395,0.7396559259519968,0.6060983467848571
-3.939,0.6649647019482183,0.5743084315693548
-3.9385,0.5796033030867573,0.5743084315693548
-3.938,0.5155822539406614,0.5849050699745222
-3.9375,0.4515612047945656,0.5743084315693548
-3.937,0.1207857842064037,0.2458126410091644
-3.9365,-0.6047861061160158,-0.474758770542221
-3.936,-1.223656247861609,-1.163540266878104
-3.9355,-1.757164990745741,-1.788741932782983
-3.935,-2.130621110764634,-2.096044446532838
-3.9345,-1.426389570157579,-1.290699927740113
-3.934,-0.690147504977477,-0.4641621321370536
-3.9335,-0.1032878878049318,0.1716361721729923
-3.933,0.3448594562177392,0.6484849004055269
-3.9325,0.5049120790829789,0.8074344764830383
-3.932,0.5155822539406614,0.8074344764830383
-3.9315,0.4942419042252961,0.775644561267536
-3.931,0.4622313796522482,0.7226613692416989
-3.9305,0.4408910299368829,0.6802748156210291
-3.93,0.4195506802215176,0.6484849004055269
-3.9295,0.408880505363835,0.6166949851900245
-3.929,0.2808384070716433,0.457745409112513
-3.9285,-0.4767440078238243,-0.2946159176543747
-3.928,-1.255666772434657,-1.174136905283272
-3.9275,-1.607782542738184,-1.831128486403653
-3.927,-1.447729919872945,-1.905304955239825
-3.9265,-0.6474668055467465,-1.131750351662602
-3.926,0.1527963087794516,-0.2734226408440398
-3.9255,0.6863050516635838,0.3411823866556712
-3.925,0.8890383739595538,0.6802748156210291
-3.9245,0.8890383739595538,0.8180311148882058
-3.924,0.79300680024041,0.849821030103708
-3.9235,0.7289857510943143,0.9028042221295453
-3.923,0.8143471499557753,1.040560521396722
-3.9225,0.7503261008096795,0.9663840525605498
-3.922,0.6436243522328531,0.8180311148882058
-3.9215,0.5582629533713921,0.6696781772158616
-3.921,0.4942419042252961,0.5743084315693548
-3.9205,0.2808384070716433,0.4259554938970107
-3.92,-0.5834457564006506,-0.3793890248957141
-3.9195,-1.895877263895616,-1.661582271920973
-3.919,-2.280003558772191,-2.180817553774178
-3.9185,-2.514747405641209,-2.519909982739535
-3.918,-1.970568487899394,-1.990078062481164
-3.9175,-0.9995825758502737,-0.9198175835592532
-3.917,-0.2420001609548061,-0.06148987274069118
-3.9165,0.1954770082101822,0.457745409112513
-3.916,0.4302208550792003,0.7332580076468663
-3.9155,0.5155822539406614,0.8286277532933731
-3.915,0.5262524287983441,0.8392243916985406
-3.9145,0.5155822539406614,0.8074344764830383
-3.914,0.4835717293676135,0.7544512844572011
-3.9135,0.4729015545099309,0.7120647308365314
-3.913,0.4515612047945656,0.6696781772158616
-3.9125,0.4195506802215176,0.5849050699745222
-3.912,-0.04993701351651855,0.03387987290581572
-3.9115,-0.6688071552621118,-0.7714646458869092
-3.911,-1.06360362499637,-1.407262950196955
-3.9105,-1.26633694729234,-1.84172512480882
-3.91,-0.6474668055467465,-1.831128486403653
-3.9095,0.1314559590640864,-1.248313374119443
-3.909,0.6756348768059011,-0.4323722169215513
-3.9085,0.9210488985326017,0.2564092794143318
-3.908,0.9317190733902845,0.6696781772158616
-3.9075,0.8143471499557753,0.8604176685088755
-3.907,0.6969752265212663,0.9028042221295453
-3.9065,0.7823366253827275,0.7650479228623686
-3.906,0.7823366253827275,0.6484849004055269
-3.9055,0.6863050516635838,0.5849050699745222
-3.905,0.5902734779444399,0.5425185163538525
-3.9045,0.5155822539406614,0.5107286011383502
-3.904,0.3875401556484697,0.4789386859228479
-3.9035,-0.4554036581084589,-0.252229364033705
-3.903,-1.629122892453549,-1.492036057438295
-3.9025,-2.066600061618538,-2.064254531317336
-3.902,-2.504077230783526,-2.297380576231019
-3.9015,-2.546757930214257,-2.265590661015517
-3.901,-1.714484291315011,-1.47084278062796
-3.9005,-0.807519428411986,-0.570128516188728
-3.9,-0.1459685872356623,0.08686306493165288
-3.8995,0.2594980573562781,0.4895353243280153
-3.899,0.4729015545099309,0.6802748156210291
-3.8985,0.5369226036560266,0.7438546460520338
-3.898,0.5475927785137094,0.7332580076468663
-3.8975,0.5262524287983441,0.6908714540261965
-3.897,0.4942419042252961,0.6484849004055269
-3.8965,0.4622313796522482,0.6060983467848571
-3.896,0.4302208550792003,0.5319218779486851
-3.8955,0.02475421048725994,0.1080563417419877
-3.895,-0.8288597781273515,-0.7608680074817418
-3.8945,-1.533091318734406,-1.534422611058964
-3.894,-1.735824641030376,-1.79933857118815
-3.8935,-1.020922925565639,-1.205926820498774
-3.893,-0.1032878878049318,-0.5277419625680583
-3.8925,0.5582629533713921,0.002089957690313421
-3.892,0.857027849386506,0.3517790250608387
-3.8915,0.9103787236749192,0.5743084315693548
-3.891,0.8356874996711408,0.6908714540261965
-3.8905,0.7183155762366316,0.775644561267536
-3.89,0.7289857510943143,0.7332580076468663
-3.8895,0.7503261008096795,0.6696781772158616
-3.889,0.6756348768059011,0.6908714540261965
-3.8885,0.5902734779444399,0.7332580076468663
-3.888,0.5262524287983441,0.7544512844572011
-3.8875,0.4622313796522482,0.7332580076468663
-3.887,-0.007256314085787988,0.2352160026039969
-3.8865,-1.052933450138687,-1.036380606016095
-3.886,-1.661133417026597,-1.725162102351978
-3.8855,-2.130621110764634,-2.096044446532838
-3.885,-2.312014083345239,-2.17022091536901
