Class_8_Think_right_hand_movement/Class_8_Think_Right_hand_mouvement_AM_7.csv

#Digilent WaveForms Oscilloscope Acquisition
#Device Name: EExplorer
#Serial Number: SN:210151A2B84A
#Date Time: 2020-12-14 14:14:45.793
#Sample rate: 2000Hz
#Samples: 16384
#Trigger: Source: Channel 1 Type: Edge Condition: Rising Level: 0 V Hyst.: Auto HoldOff: 0 s
#Channel 1: Range: 1 V/div Offset: 0 V Attenuation: 1 X
#Channel 2: Range: 1 V/div Offset: 0 V Attenuation: 1 X
#Power Supplies: ON
#Fixed Supply: ON
#Voltage: 3.3 V Readback: 3.321 V
#Positive Supply: ON
#Voltage: 3.7 V Readback: 3.717 V
#Current: 40 mA Readback: 18 mA
#Negative Supply: ON
#Voltage: -3.7 V Readback: -3.346 V
#Current: -40 mA Readback: -8 mA
#Reference 1: ON
#Voltage: 0 V
#Reference 2: ON
#Voltage: 0 V

Time (s),Channel 1 (V),Channel 2 (V)
-4.096,-1.30901764672307,0.457745409112513
-4.0955,-1.789175515318352,0.9875773293704029
-4.095,-1.084943974710784,0.7014680924304966
-4.0945,-0.03926683865883591,-0.252229364033705
-4.094,0.7183155762359426,-1.025783967610224
-4.0935,1.08110152139788,-1.269506650929576
-4.093,1.123782220828572,-1.046977244421262
-4.0925,0.9530594231058049,-0.654901623430424
-4.092,0.6863050516634577,-0.2840192792489278
-4.0915,0.5475927785137094,0.02328323450064829
-4.091,0.5049120790829789,0.2140227257936621
-4.0905,0.3982103305060651,0.2458126410091451
-4.09,0.3021787567870086,0.2246193641988295
-4.0895,0.2274875327832301,0.1716361721729923
-4.089,0.1954770082102113,0.139846256957519
-4.0885,-0.06060718837420119,0.4153588554918433
-4.088,-0.7648387289812555,0.9557874141553824
-4.0875,-1.437059745014651,1.411442865577168
-4.087,-1.735824641030308,1.612778995275619
-4.0865,-1.661133417026597,1.453829419198252
-4.086,-1.106284324427605,0.7862411996733106
-4.0855,-0.5407650569695416,0.1186529801467504
-4.085,-0.124628237520297,-0.326405832869877
-4.0845,0.1101156093485076,-0.5171453241627173
-4.084,0.206147183067894,-0.5277419625679619
-4.0835,0.2381577076409128,-0.4217755785163839
-4.083,0.2274875327832301,-0.252229364033705
-4.0825,0.206147183067826,-0.08268314955090075
-4.082,0.1634664836371343,0.05507314971615059
-4.0815,0.1314559590640864,0.1504428953626575
-4.081,0.1101156093487405,0.2140227257936043
-4.0805,0.09944543449103843,0.2881991946298341
-4.08,-0.08194753808956648,0.2776025562246667
-4.0795,-0.4660738329657921,0.3199891098452978
-4.079,-0.914221176988861,0.7756445612677384
-4.0785,-0.9675720512772257,0.9981739677760521
-4.078,-0.2953510352438308,0.330585748251111
-4.0775,0.3982103305065406,-0.5807251545944062
-4.077,0.825017324813458,-1.142346990067769
-4.0765,0.9637295979632063,-1.152943628472927
-4.076,0.8783681991016966,-0.8244478379124187
-4.0755,0.6863050516635838,-0.4641621321370536
-4.075,0.5155822539406614,-0.1568596183871981
-4.0745,0.5689331282290164,0.1398462569576057
-4.074,0.5049120790829789,0.2670059178194992
-4.0735,0.3982103305061524,0.2564092794143318
-4.073,0.291508581929423,0.1928294489833851
-4.0725,0.2274875327832301,0.13984625695749
-4.072,0.08877525963335578,0.2564092794143318
-4.0715,-0.4447334832502911,0.7544512844567481
-4.071,-0.9782422261352675,1.252493289500369
-4.0705,-1.373038695869166,1.580989080060261
-4.07,-1.618452717595644,1.644568910491208
-4.0695,-1.28767729700721,1.104140351827052
-4.069,-0.7434983792658902,0.3623756634660061
-4.0685,-0.2846808603855366,-0.2098428104130352
-4.068,0.01408403562972286,-0.5171453241629583
-4.0675,0.1741366584948169,-0.5913217929990628
-4.067,0.2274875327832301,-0.5277419625680583
-4.0665,0.2274875327832204,-0.3687923864903829
-4.066,0.2168173579255475,-0.1886495336027004
-4.0655,0.1848068333524996,-0.02969995752518888
-4.065,0.1421261339218078,0.07626642652638907
-4.0645,0.1207857842064037,0.1504428953626575
-4.064,0.1207857842064037,0.1928294489833272
-4.0635,-0.1139580626624009,0.3093924714400629
-4.063,-0.8075194284124906,0.1504428953626189
-4.0625,-1.362368521011484,0.1080563417419877
-4.062,-1.20231589814639,0.3623756634657748
-4.0615,-0.2846808603847894,-0.008506680715441904
-4.061,0.5369226036560266,-0.6549016234300674
-4.0605,1.027750647109428,-0.9939940523954253
-4.06,1.166462920259196,-0.866834391533098
-4.0595,1.049090996824793,-0.5171453241628908
-4.059,0.7823366253827275,-0.1992461720078678
-4.0585,0.5582629533715959,0.002089957690130317
-4.058,0.5796033030867573,0.2881991946298341
-4.0575,0.6009436528021226,0.4153588554918433
-4.057,0.4835717293677202,0.2564092794144763
-4.0565,0.3661998059331045,0.02328323450064829
-4.056,0.2701682322139607,-0.1780528951975329
-4.0555,0.2061471830679231,-0.2098428104130063
-4.055,-0.2099896363822919,0.2987958330355798
-4.0545,-0.7968492535543035,0.9345941373450475
-4.054,-1.244996597576567,1.411442865577148
-4.0535,-1.671803591884212,1.665762187301369
-4.053,-1.597112367880501,1.411442865577582
-4.0525,-1.052933450138687,0.6802748156210291
-4.052,-0.5087545323965033,0.02328323450027242
-4.0515,-0.1032878878049318,-0.3899856633008816
-4.051,0.1207857842064037,-0.5489352393783931
-4.0505,0.2168173579254601,-0.5277419625680776
-4.05,0.2381577076409128,-0.3899856633008816
-4.0495,0.2274875327832301,-0.2098428104130352
-4.049,0.1954770082102113,-0.0296999575253527
-4.0485,0.1741366584947975,0.1292496185524286
-4.048,0.1527963087794516,0.2458126410091644
-4.0475,0.1314559590641058,0.2987958330349534
-4.047,-0.0819475380900517,0.01268659609499897
-4.0465,-0.6154562809736985,-0.5171453241628908
-4.046,-0.9248913518462137,-0.3370024712752083
-4.0455,-0.9035510021305865,0.214022725793479
-4.045,-0.3060212101009019,0.01268659609548085
-4.0445,0.3875401556484697,-0.5595318777835605
-4.044,0.8570278493866806,-1.01518732920577
-4.0435,1.049090996824793,-1.025783967610927
-4.043,1.006410297394063,-0.8032545611024114
-4.0425,0.835687499671296,-0.5277419625683089
-4.042,0.6222840025174878,-0.2628260024388724
-4.0415,0.5689331282290746,0.02328323450064829
-4.041,0.6436243522327851,0.2776025562244354
-4.0405,0.5475927785135832,0.2458126410090584
-4.04,0.408880505363835,0.1292496185523226
-4.0395,0.3021787567871057,0.002089957690429078
-4.039,0.2168173579252855,-0.07208651114558876
-4.0385,-0.07127736323188383,0.2246193641988295
-4.038,-0.7434983792652788,0.8286277532928237
-4.0375,-1.287677297008016,1.326669758336512
-4.037,-1.629122892453549,1.623375633680931
-4.0365,-1.693143941599645,1.570392441655093
-4.036,-1.191645723288047,0.9345941373444114
-4.0355,-0.6261264558313813,0.2352160026039969
-4.035,-0.1779791118087102,-0.2310360872233701
-4.0345,0.0781050847754402,-0.4323722169213682
-4.034,0.2061471830678648,-0.4323722169215513
-4.0335,0.2381577076409128,-0.3158091944647096
-4.033,0.2381577076409128,-0.1250697031718692
-4.0325,0.2168173579255184,0.06566978812146258
-4.032,0.1848068333524996,0.2246193641988295
-4.0315,0.1527963087794807,0.3411823866555652
-4.031,0.1314559590640475,0.4047622170866951
-4.0305,0.08877525963335578,0.4259554938970107
-4.03,-0.2526703358121782,0.415358855491853
-4.0295,-0.5727755815431719,0.6272916235955968
-4.029,-0.7968492535543035,1.072350436612224
-4.0285,-0.5194247072545548,0.9134008605347127
-4.028,0.2274875327838027,-0.0296999575260659
-4.0275,0.857027849386506,-0.9939940523954253
-4.027,1.177133095116985,-1.566212526274467
-4.0265,1.209143619690004,-1.513229334248678
-4.026,1.038420821967111,-1.078767159636765
-4.0255,0.7823366253827275,-0.570128516188728
-4.025,0.5902734779446146,-0.1674562567927317
-4.0245,0.5689331282289872,0.1716361721730405
-4.024,0.4729015545099309,0.2246193641988295
-4.0235,0.3555296310755285,0.1504428953627249
-4.023,0.2701682322139025,0.03387987290572898
-4.0225,0.2061471830678648,-0.06148987274069118
-4.022,0.014084035629752,0.07626642652636018
-4.0215,-0.6794773301204931,0.6378882620008702
-4.021,-1.447729919872945,1.199510097474233
-4.0205,-2.07727023647622,1.549199164844759
-4.02,-2.482736881067801,1.697552102516833
-4.0195,-2.087940411333903,1.400846227172415
-4.019,-1.223656247861609,0.6590815388106942
-4.0185,-0.5407650569705411,0.002089957690910915
-4.018,-0.08194753808956648,-0.3899856633008816
-4.0175,0.1634664836371343,-0.5277419625680583
-4.017,0.2488278824985178,-0.4747587705422692
-4.0165,0.2594980573562586,-0.3158091944645264
-4.016,0.2381577076409128,-0.1144730647665284
-4.0155,0.206147183067894,0.08686306493146978
-4.015,0.1741366584947878,0.2458126410092415
-4.0145,0.142126133921769,0.3305857482505039
-4.014,0.1314559590640961,0.425955493896924
-4.0135,-0.07127736323242728,0.5001319627332117
-4.013,-0.6688071552621118,0.5319218779486851
-4.0125,-1.116954499284783,0.8604176685088755
-4.012,-0.9995825758495556,0.8922075837236646
-4.0115,-0.2099896363817582,0.1080563417419877
-4.011,0.5475927785137094,-0.7396747306714069
-4.0105,0.9850699476782998,-1.152943628472561
-4.01,1.113112045970889,-1.184733543688439
-4.0095,1.006410297394063,-0.8986243067489184
-4.009,0.7823366253829314,-0.548935239378711
-4.0085,0.5582629533713921,-0.2522293640335604
-4.008,0.5582629533713921,-0.09327978795619347
-4.0075,0.5582629533713921,0.03387987290570006
-4.007,0.4515612047944588,0.08686306493166251
-4.0065,0.3341892813600565,0.09745970333682032
-4.006,0.2488278824985954,0.05507314971615059
-4.0055,0.1527963087789664,0.1080563417424118
-4.005,-0.3807124341046804,0.5743084315693548
-4.0045,-0.9782422261349084,1.114736990232894
-4.004,-1.394379045584842,1.485619334413879
-4.0035,-1.735824641030376,1.623375633680931
-4.003,-1.46907026958831,1.199510097474233
-4.0025,-0.8928808272739712,0.4259554938977143
-4.002,-0.3700422592469978,-0.2098428104130352
-4.0015,-0.02859666380115328,-0.5807251545938954
-4.001,0.1634664836369596,-0.7078848154557889
-4.0005,0.2381577076409225,-0.6549016234299422
-4,0.2488278824985954,-0.5171453241628908
-3.9995,0.2274875327832301,-0.326405832869877
-3.999,0.2061471830678648,-0.1356663415768632
-3.9985,0.1634664836371343,0.02328323450064829
-3.998,0.142126133921769,0.13984625695749
-3.9975,0.1207857842064037,0.2140227257936621
-3.997,-0.03926683865883591,0.2776025562246667
-3.9965,-0.6367966306890638,0.05507314971615059
-3.996,-1.06360362499637,0.2140227257936621
-3.9955,-1.180975548430879,0.701468092431364
-3.995,-0.6367966306890638,0.849821030103708
-3.9945,0.1314559590640864,0.383568940276341
-3.994,0.707645401378949,-0.1568596183871981
-3.9935,0.974399772821015,-0.474758770542221
-3.993,0.974399772821015,-0.570128516188728
-3.9925,0.8356874996711408,-0.5383386009732256
-3.992,0.6222840025174878,-0.3899856633008816
-3.9915,0.5369226036560266,-0.1992461720078678
-3.991,0.5689331282290746,0.01268659609548085
-3.9905,0.4835717293676135,0.08686306493165288
-3.99,0.3661998059331045,0.1186529801471552
-3.9895,0.2701682322139607,0.1080563417419877
-3.989,0.2168173579255475,0.1080563417419877
-3.9885,-0.01792648894347063,0.4259554938970107
-3.988,-0.6047861061160158,0.9557874141553824
-3.9875,-0.9782422261349084,1.369056311956912
-3.987,-1.244996597576974,1.591585718465428
-3.9865,-1.159635198715513,1.326669758336243
-3.986,-0.754168554123573,0.6378882620003594
-3.9855,-0.3273615598162672,0.01268659609548085
-3.985,-0.02859666380115328,-0.3687923864905467
-3.9845,0.142126133921769,-0.5171453241628908
-3.984,0.2168173579255475,-0.4853554089473885
-3.9835,0.2274875327832301,-0.3581957480853793
-3.983,0.2168173579255475,-0.1886495336027004
-3.9825,0.1954770082101822,-0.01910331912002144
-3.982,0.1634664836371343,0.1186529801471552
-3.9815,0.142126133921769,0.2034260873884947
-3.981,0.1207857842064037,0.2034260873884947
-3.9805,0.08877525963335578,0.1716361721729923
-3.98,-0.274010685527854,0.383568940276341
-3.9795,-0.7434983792658902,0.7968378380778709
-3.979,-1.020922925565639,1.25249328950007
-3.9785,-0.8288597781273515,1.135930267043229
-3.978,-0.2313299860971235,0.4153588554918433
-3.9775,0.3661998059331045,-0.3052125560595421
-3.977,0.7609962756673623,-0.8244478379127463
-3.9765,0.8783681991018712,-0.9092209451540858
-3.976,0.7823366253827275,-0.7078848154559045
-3.9755,0.6116138276598051,-0.4111789401112165
-3.975,0.5049120790829789,-0.1780528951975329
-3.9745,0.6436243522328531,0.1292496185523226
-3.974,0.6116138276598051,0.1716361721729923
-3.9735,0.4729015545099309,0.07626642652648545
-3.973,0.3448594562177392,-0.04029659593035631
-3.9725,0.2594980573562781,-0.1250697031716958
-3.972,0.1101156093487211,0.01268659609548085
-3.9715,-0.4127229586777283,0.5743084315693548
-3.971,-1.031593100423322,1.135930267043229
-3.9705,-1.618452717595867,1.506812611224089
-3.97,-2.002579012472442,1.612778995275763
-3.9695,-1.586442193022819,1.157123543853563
-3.969,-0.9248913518464952,0.4365521323021782
-3.9685,-0.3700422592469978,-0.1144730647665284
-3.968,-0.007256314085787988,-0.4111789401112165
-3.9675,0.1848068333524996,-0.4853554089473885
-3.967,0.2488278824985954,-0.3899856633008816
-3.9665,0.2594980573562781,-0.2204394488182027
-3.966,0.2274875327832301,-0.04029659593035631
-3.9655,0.2061471830678648,0.13984625695749
-3.965,0.1741366584948169,0.2670059178194992
-3.9645,0.1527963087794516,0.3411823866556712
-3.964,0.1527963087794516,0.3941655786815084
-3.9635,0.03542438534494258,0.4259554938970107
-3.963,-0.2526703358124887,0.2458126410091644
-3.9625,-0.690147504977477,0.55311515475902
-3.962,-0.9889124009925911,0.9663840525605498
-3.9615,-0.5087545323968721,0.6060983467848571
-3.961,0.2061471830678648,-0.2416327256285375
-3.9605,0.7183155762366316,-0.9516074987747555
-3.96,0.942389248247967,-1.163540266878104
-3.9595,0.9210488985326017,-1.01518732920576
-3.959,0.7609962756673623,-0.792657922697244
-3.9585,0.5689331282290746,-0.6125150698093976
-3.958,0.5902734779444399,-0.4853554089473885
-3.9575,0.6649647019482183,-0.2204394488182027
-3.957,0.5689331282290746,-0.07208651114585861
-3.9565,0.4408910299368829,0.002089957690313421
-3.956,0.3555296310754218,0.04447651131098315
-3.9555,0.2701682322139607,0.09745970333682032
-3.955,-0.1139580626626144,0.4259554938970107
-3.9545,-0.8181896032696687,0.8392243916985406
-3.954,-1.330357996438436,1.273686566310405
-3.9535,-1.799845690176472,1.559795803249926
-3.953,-1.639793067311232,1.347863035146577
-3.9525,-1.042263275281004,0.6908714540261965
-3.952,-0.4767440078238243,0.08686306493165288
-3.9515,-0.07127736323188383,-0.2946159176543747
-3.951,0.142126133921769,-0.4429688553267188
-3.9505,0.2381577076409128,-0.4323722169215513
-3.95,0.2488278824985954,-0.326405832869877
-3.9495,0.2381577076409128,-0.1780528951975329
-3.949,0.2168173579255475,-0.02969995752518888
-3.9485,0.1741366584948169,0.06566978812131802
-3.948,0.1527963087794516,0.1504428953626575
-3.9475,0.142126133921769,0.13984625695749
-3.947,0.04609456020262521,0.1504428953626575
-3.9465,-0.4447334832507763,0.03387987290581572
-3.946,-0.839529952985034,0.1822328105781598
-3.9455,-1.159635198715513,0.7120647308365314
-3.945,-0.6367966306890638,0.627291623595192
-3.9445,0.3661998059331045,-0.2734226408440398
-3.944,1.006410297394063,-1.046977244421262
-3.9435,1.230483969405398,-1.311893204550448
-3.943,1.177133095116985,-1.089363798041932
-3.9425,0.9637295979633325,-0.7396747306714069
-3.942,0.6969752265212663,-0.4217755785163839
-3.9415,0.5582629533713921,-0.1144730647665284
-3.941,0.5582629533713921,0.1292496185523226
-3.9405,0.4622313796522482,0.13984625695749
-3.94,0.3661998059331045,0.05507314971615059
-3.9395,0.2701682322139607,-0.02969995752518888
-3.939,0.1954770082101822,-0.1250697031716958
-3.9385,-0.01792648894347063,-0.07208651114585861
-3.938,-0.03926683865883591,0.3199891098453364
-3.9375,-0.3700422592469978,0.849821030103708
-3.937,-0.807519428411986,1.220703374284568
-3.9365,-1.138294849000148,1.305476481525908
-3.936,-0.9248913518464952,0.7968378380778709
-3.9355,-0.5300948821122373,0.1610395337678249
-3.935,-0.1779791118087102,-0.3052125560595421
-3.9345,0.05676473506030786,-0.5489352393783931
-3.934,0.1741366584948169,-0.6019184314042303
-3.9335,0.2168173579255475,-0.5277419625680583
-3.933,0.2274875327832301,-0.3899856633008816
-3.9325,0.2061471830678648,-0.2310360872233701
-3.932,0.1848068333524996,-0.1038764263613609
-3.9315,0.1527963087794516,-0.01910331912002144
-3.931,0.1314559590640864,0.03387987290581572
-3.9305,0.09944543449103843,0.08686306493165288
-3.93,-0.2846808603855366,-0.1250697031716958
-3.9295,-0.9248913518464952,-0.7078848154559045
-3.929,-1.383708870726849,-1.036380606016095
-3.9285,-1.383708870726849,-0.8032545611024114
-3.928,-0.6474668055467465,-0.6972881770507372
-3.9275,0.1634664836371343,-0.5595318777835605
-3.927,0.707645401378949,-0.326405832869877
-3.9265,0.9317190733902845,-0.06148987274069118
-3.926,0.8783681991018712,0.1504428953626575
-3.9255,0.6863050516635838,0.2458126410091644
-3.925,0.5369226036560266,0.2776025562246667
-3.9245,0.6436243522328531,0.3729723018711736
-3.924,0.6009436528021226,0.2352160026039969
-3.9235,0.4729015545099309,-0.01910331912002144
-3.923,0.3555296310754218,-0.2840192792492073
-3.9225,0.2701682322139607,-0.5171453241628908
-3.922,0.2594980573562781,-0.5065486857577234
-3.9215,0.6756348768059011,0.07626642652648545
-3.921,0.5475927785137094,0.7650479228623686
-3.9205,-0.1673089369510276,1.273686566310405
-3.92,-0.8822106524157645,1.475022696008586
-3.9195,-0.9462317015618604,1.00877060618122
-3.919,-0.6474668055467465,0.2881991946298341
-3.9185,-0.2953510352432193,-0.2840192792492073
-3.918,-0.02859666380115328,-0.6019184314042303
-3.9175,0.1207857842064037,-0.6866915386455698
-3.917,0.1954770082101822,-0.6125150698093976
-3.9165,0.2168173579255475,-0.4641621321370536
-3.916,0.2061471830678648,-0.2734226408440398
-3.9155,0.1848068333524996,-0.1038764263613609
-3.915,0.142126133921769,0.02328323450064829
-3.9145,0.1314559590640864,0.1292496185523226
-3.914,0.1207857842064037,0.1716361721729923
-3.9135,-0.1139580626626144,0.2140227257936621
-3.913,-0.6261264558313813,-0.02969995752518888
-3.9125,-0.8288597781273515,0.1610395337678249
-3.912,-0.7008176798351597,0.6484849004055269
-3.9115,-0.08194753808956648,0.4365521323021782
-3.911,0.5796033030867573,-0.3158091944647096
-3.9105,1.006410297394063,-0.9728007755850904
-3.91,1.145122570543937,-1.089363798041932
-3.9095,1.027750647109428,-0.8138511995075789
-3.909,0.7716664505250448,-0.4641621321370536
-3.9085,0.5262524287983441,-0.1992461720078678
-3.908,0.5475927785137094,-0.04029659593035631
-3.9075,0.6009436528021226,0.09745970333682032
-3.907,0.4942419042252961,0.07626642652648545
-3.9065,0.3661998059331045,0.002089957690313421
-3.906,0.2701682322139607,-0.09327978795619347
-3.9055,0.2061471830678648,-0.1780528951975329
-3.905,0.4622313796522482,-0.1674562567923655
-3.9045,0.6542945270905358,0.2140227257936621
-3.904,0.1848068333524996,0.8286277532933731
-3.9035,-0.4020527838200457,1.25249328950007
-3.903,-0.5300948821122373,0.9769806909657173
-3.9025,-0.3700422592469978,0.383568940276341
-3.902,-0.156638762093345,-0.1250697031716958
-3.9015,0.01408403562957729,-0.4323722169215513
-3.901,0.1207857842064037,-0.5489352393783931
-3.9005,0.1741366584948169,-0.5277419625680583
-3.9,0.1848068333524996,-0.4217755785163839
-3.8995,0.1848068333524996,-0.2840192792492073
-3.899,0.1741366584948169,-0.1356663415768632
-3.8985,0.1527963087794516,-0.01910331912002144
-3.898,0.1314559590640864,0.01268659609548085
-3.8975,0.1207857842064037,-0.05089323433552374
-3.897,-0.06060718837420119,-0.2946159176543747
-3.8965,-0.5300948821122373,-0.7078848154559045
-3.896,-0.807519428411986,-0.3475991096802118
-3.8955,-1.074273799854052,0.4259554938970107
-3.895,-0.8608703027003992,0.6484849004055269
-3.8945,-0.156638762093345,-0.07208651114585861
-3.894,0.4835717293676135,-0.8562377531282487
-3.8935,0.8356874996711408,-1.216523458903942
-3.893,0.9103787236749192,-1.142346990067769
-3.8925,0.7823366253827275,-0.8668343915334161
-3.892,0.5902734779444399,-0.570128516188728
-3.8915,0.5049120790829789,-0.2840192792492073
-3.891,0.5689331282290746,0.002089957690313421
-3.8905,0.4942419042252961,0.1186529801471552
-3.89,0.3661998059331045,0.1504428953626575
-3.8895,0.2701682322139607,0.13984625695749
-3.889,0.1954770082101822,0.13984625695749
-3.8885,0.00341386077189465,0.3729723018711736
-3.888,-0.5407650569699201,0.8922075837243778
-3.8875,-1.020922925565639,1.358459673551745
-3.887,-1.351698346153801,1.602182356870596
