Class_8_Think_right_hand_movement/Class_8_Think_Right_hand_mouvement_ZAkour_2.csv

#Digilent WaveForms Oscilloscope Acquisition
#Device Name: EExplorer
#Serial Number: SN:210151A2B84A
#Date Time: 2020-11-18 11:40:45.271
#Sample rate: 2000Hz
#Samples: 16384
#Trigger: Source: Channel 1 Type: Edge Condition: Rising Level: 0 V Hyst.: Auto HoldOff: 0 s
#Channel 1: Range: 1 V/div Offset: 0 V Attenuation: 1 X
#Channel 2: Range: 1 V/div Offset: 0 V Attenuation: 1 X
#Power Supplies: ON
#Fixed Supply: ON
#Voltage: 3.3 V Readback: 3.318 V
#Positive Supply: ON
#Voltage: 3.7 V Readback: 3.714 V
#Current: 500 mA Readback: 20 mA
#Negative Supply: ON
#Voltage: -3.7 V Readback: -3.7 V
#Current: -500 mA Readback: -8 mA
#Reference 1: ON
#Voltage: 0 V
#Reference 2: ON
#Voltage: 0 V

Time (s),Channel 1 (V),Channel 2 (V)
-4.096,0.3448594562177392,0.3517790250608387
-4.0955,-0.07127736323150535,-0.09327978795578867
-4.095,-0.348701909532108,-0.5701285161892966
-4.0945,-0.8715404775580819,-1.195330182093607
-4.094,-1.362368521011037,-1.661582271920549
-4.0935,-1.180975548430403,-1.343683119765305
-4.093,-0.658136980404429,-0.6337083466197325
-4.0925,-0.156638762093801,0.02328323450005076
-4.092,0.1848068333526645,0.4683420475179118
-4.0915,0.3661998059331045,0.7226613692416989
-4.091,0.4408910299368829,0.8286277532933731
-4.0905,0.4515612047945461,0.8498210301036887
-4.09,0.4302208550792003,0.8286277532933731
-4.0895,0.408880505363835,0.7862411996727035
-4.089,0.3768699807908162,0.6908714540262832
-4.0885,0.3448594562177392,0.55311515475902
-4.088,0.3235191065023739,0.383568940276341
-4.0875,-0.01792648894316012,-0.0508932343351286
-4.087,-0.7861790786971351,-0.8032545611029897
-4.0865,-1.351698346153801,-1.439052865412457
-4.086,-1.597112367880278,-1.852321763213612
-4.0855,-1.341028171295487,-1.746355379161744
-4.085,-0.6474668055467465,-1.121153713257435
-4.0845,-0.01792648894404314,-0.42177557851702
-4.084,0.3875401556486444,0.03387987290608557
-4.0835,0.5796033030867573,0.3305857482505039
-4.083,0.6329541773751706,0.4895353243280153
-4.0825,0.590273477944498,0.5213252395434501
-4.082,0.6542945270905358,0.4471487707073456
-4.0815,0.7503261008096795,0.3411823866556712
-4.081,0.686305051663642,0.3093924714401979
-4.0805,0.5902734779444399,0.3199891098453364
-4.08,0.5049120790829789,0.3411823866556712
-4.0795,0.4515612047946141,0.3941655786814602
-4.079,0.6649647019482572,0.7756445612676999
-4.0785,0.707645401378949,0.9557874141553824
-4.078,-0.08194753808884836,0.1822328105788633
-4.0775,-0.8395299529854706,-0.6125150698098795
-4.077,-1.319687821580753,-1.142346990067769
-4.0765,-1.063603624996603,-0.89862430674914
-4.076,-0.5514352318271855,-0.3264058328693855
-4.0755,-0.09261771294724913,0.2140227257936621
-4.075,0.2168173579255475,0.5955017083796896
-4.0745,0.3768699807908453,0.8180311148883022
-4.074,0.4408910299368829,0.92399749893988
-4.0735,0.4408910299368829,0.9451907757502149
-4.073,0.4195506802215371,0.9134008605347416
-4.0725,0.3768699807907871,0.8074344764830383
-4.072,0.3448594562177392,0.6484849004055269
-4.0715,0.3021787567870474,0.4365521323023709
-4.071,0.2381577076406119,0.1610395337672949
-4.0705,-0.09261771294724913,-0.4217755785163839
-4.07,-0.4874141826811478,-1.004590690800063
-4.0695,-0.9355615267042942,-1.534422611059292
-4.069,-1.06360362499637,-1.894708316834657
-4.0685,-0.5941159312583333,-1.682775548731308
-4.068,-0.02859666380078451,-1.131750351662139
-4.0675,0.3768699807907871,-0.6231117082145651
-4.067,0.5796033030867573,-0.1992461720078678
-4.0665,0.6436243522328337,0.1928294489835489
-4.066,0.6222840025174878,0.4365521323021782
-4.0655,0.6116138276598051,0.5637117931641874
-4.065,0.6863050516635159,0.7438546460518699
-4.0645,0.6649647019482183,0.7226613692416989
-4.064,0.5902734779444399,0.5955017083796896
-4.0635,0.5049120790830565,0.4789386859229539
-4.063,0.4515612047942938,0.4153588554921036
-4.0625,0.1527963087794516,0.701468092431364
-4.062,-0.4340633083925599,1.188913459068623
-4.0615,-1.095614149569951,0.6802748156201617
-4.061,-1.682473766741963,-0.2734226408440398
-4.0605,-1.853196564464885,-0.8880276683437509
-4.06,-1.309017646722439,-0.7502713690761214
-4.0595,-0.6154562809736985,-0.252229364033705
-4.059,-0.07127736323188383,0.2352160026039969
-4.0585,0.2594980573559773,0.5849050699742042
-4.058,0.4195506802215176,0.8074344764830383
-4.0575,0.4622313796522482,0.9134008605347127
-4.057,0.4622313796522482,0.9663840525605016
-4.0565,0.4302208550792003,0.9663840525605498
-4.056,0.3982103305061524,0.92399749893988
-4.0555,0.3555296310754606,0.7968378380779866
-4.055,0.3341892813599789,0.6272916235949511
-4.0545,0.2488278824985954,0.3623756634660061
-4.054,-0.348701909531089,-0.3264058328692506
-4.0535,-1.052933450139298,-1.099960436447688
-4.053,-1.725154466172693,-1.746355379162313
-4.0525,-1.821186039891837,-2.011271339291499
-4.052,-1.127624674141718,-1.566212526273946
-4.0515,-0.3060212101009019,-0.9939940523954253
-4.051,0.2701682322139607,-0.3475991096802118
-4.0505,0.5689331282288028,0.03387987290546879
-4.05,0.6542945270905358,0.2034260873884947
-4.0495,0.6329541773751706,0.2670059178194992
-4.049,0.5796033030868059,0.3199891098452882
-4.0485,0.7076454013789879,0.553115154759097
-4.048,0.7503261008096795,0.6378882620003594
-4.0475,0.675634876805969,0.5743084315694127
-4.047,0.568933128228997,0.4789386859227804
-4.0465,0.4835717293676135,0.4047622170866759
-4.046,0.39821033050623,0.5001319627330961
-4.0455,0.2061471830672826,1.040560521396654
-4.045,-0.4340633083930936,0.9663840525605498
-4.0445,-1.138294849000148,0.06566978812131802
-4.044,-1.671803591884134,-0.7714646458870923
-4.0435,-1.51175096901904,-0.9728007755850904
-4.043,-0.9035510021311299,-0.5383386009732256
-4.0425,-0.3060212101014453,0.01268659609497969
-4.042,0.1207857842064037,0.457745409112513
-4.0415,0.3555296310754218,0.7544512844572011
-4.041,0.4515612047944783,0.9134008605345681
-4.0405,0.4622313796522385,0.9981739677760617
-4.04,0.4515612047945656,1.00877060618122
-4.0395,0.4088805053638738,0.9557874141554306
-4.039,0.376869980790758,0.8392243916984345
-4.0385,0.3448594562177392,0.7226613692416989
-4.038,0.3341892813600663,0.563711793164332
-4.0375,0.01408403562897562,0.1292496185515901
-4.037,-0.6474668055467465,-0.6760949002404023
-4.0365,-0.9782422261349084,-1.364876396576285
-4.036,-1.298347471865184,-1.91590159364506
-4.0355,-1.074273799854052,-1.990078062481164
-4.035,-0.423393133535411,-1.47084278062796
-4.0345,0.1527963087789276,-0.7608680074823875
-4.034,0.5369226036560266,-0.2840192792492073
-4.0335,0.6863050516635838,0.02328323450064829
-4.033,0.6863050516635838,0.2034260873883308
-4.0325,0.6222840025175654,0.2987958330351943
-4.032,0.707645401378949,0.5107286011383502
-4.0315,0.9103787236747348,0.8180311148879262
-4.031,0.8676980242440526,0.7862411996725589
-4.0305,0.7183155762366316,0.627291623595192
-4.03,0.5689331282292105,0.4789386859229828
-4.0295,0.4729015545101056,0.4153588554920842
-4.029,0.6649647019482183,0.6802748156210291
-4.0285,1.059761171682476,1.029963882991555
-4.028,0.6222840025168668,0.4047622170860879
-4.0275,-0.06060718837420119,-0.2416327256285375
-4.027,-0.690147504977477,-0.7078848154559045
-4.0265,-0.6581369804044581,-0.5701285161888532
-4.026,-0.3487019095316325,-0.1462629799820306
-4.0255,-0.01792648894347063,0.2670059178194992
-4.025,0.216817357925334,0.5849050699742331
-4.0245,0.3448594562177974,0.7968378380779769
-4.024,0.408880505363835,0.9134008605347127
-4.0235,0.4195506802215079,0.9769806909656594
-4.023,0.4088805053638059,0.9875773293708172
-4.0225,0.3768699807907871,0.9134008605347127
-4.022,0.3448594562177683,0.8074344764831347
-4.0215,0.3235191065021798,0.6590815388103666
-4.021,0.1101156093487211,0.2987958330350016
-4.0205,-0.6367966306890638,-0.474758770542221
-4.02,-1.469070269588795,-1.237716735714758
-4.0195,-2.002579012472442,-1.767548655972648
-4.019,-1.543761493592088,-1.650985633515806
-4.0185,-0.6581369804052345,-1.089363798042443
-4.018,0.05676473506030786,-0.4959520473525559
-4.0175,0.4942419042252961,0.04447651131098315
-4.017,0.6756348768057361,0.4047622170863482
-4.0165,0.6756348768058429,0.5425185163538622
-4.016,0.6116138276598051,0.55311515475902
-4.0155,0.6009436528021322,0.4895353243280732
-4.015,0.7716664505250448,0.2670059178193836
-4.0145,0.7716664505250448,0.13984625695749
-4.014,0.6649647019483154,0.1292496185523322
-4.0135,0.5475927785136318,0.1398462569575286
-4.013,0.4622313796522482,0.1822328105781598
-4.0125,0.4195506802215176,0.457745409112513
-4.012,0.01408403562885916,1.10414035182817
-4.0115,-0.7755089038389382,1.591585718465428
-4.011,-1.330357996438436,1.00877060618122
-4.0105,-1.405049220442146,0.2458126410098582
-4.01,-0.9355615267041777,-0.008506680714854012
-4.0095,-0.3807124341046804,0.06566978812131802
-4.009,0.04609456020223701,0.2458126410090005
-4.0085,0.3021787567871154,0.4365521323023227
-4.008,0.4195506802215176,0.5955017083796896
-4.0075,0.4515612047945364,0.7226613692415832
-4.007,0.4408910299368539,0.818031114888254
-4.0065,0.408880505363835,0.8710143069140429
-4.006,0.3768699807907871,0.8604176685088755
-4.0055,0.3448594562177197,0.7968378380777649
-4.005,0.3235191065023739,0.6802748156210291
-4.0045,0.2701682322139607,0.5001319627331828
-4.004,-0.1246282375207823,-0.08268314955170067
-4.0035,-0.658136980404429,-0.8244478379127463
-4.003,-1.138294849000148,-1.407262950196955
-4.0025,-1.063603624996438,-1.682775548731058
-4.002,-0.423393133535411,-1.38606967338662
-4.0015,0.142126133921769,-0.6866915386455698
-4.001,0.5049120790826489,-0.1144730647670488
-4.0005,0.6756348768059205,0.2776025562249654
-4,0.6969752265212663,0.6060983467848571
-3.9995,0.6542945270905358,0.7544512844572011
-3.999,0.6009436528021226,0.7544512844572011
-3.9985,0.8783681991018712,0.7862411996727035
-3.998,1.19847344483235,0.9981739677760521
-3.9975,1.113112045970889,0.9028042221295453
-3.997,0.8676980242441885,0.6590815388106942
-3.9965,0.6436243522328531,0.4259554938970107
-3.996,0.5155822539406614,0.3411823866556712
-3.9955,0.825017324813458,0.7650479228623686
-3.995,0.5689331282290746,0.7120647308365314
-3.9945,-0.2633405106701714,-0.1462629799820306
-3.994,-0.7434983792658902,-0.6972881770507372
-3.9935,-0.6047861061160158,-0.5595318777835605
-3.993,-0.274010685527854,-0.1780528951975329
-3.9925,0.03542438534494258,0.2034260873884947
-3.992,0.2488278824985954,0.4683420475176805
-3.9915,0.3555296310754218,0.6378882620003594
-3.991,0.3982103305061524,0.7226613692416989
-3.9905,0.408880505363835,0.7650479228623686
-3.99,0.3982103305061524,0.775644561267536
-3.9895,0.3661998059331045,0.7332580076468663
-3.989,0.3341892813600565,0.6378882620003594
-3.9885,0.3235191065023739,0.5849050699745222
-3.988,0.3021787567870086,0.4365521323021782
-3.9875,-0.04993701351651855,-0.04029659593035631
-3.987,-0.7434983792658902,-0.792657922697244
-3.9865,-1.191645723288561,-1.47084278062796
-3.986,-1.341028171296118,-1.937094870455327
-3.9855,-0.8822106524157645,-1.714565463946811
-3.985,-0.2206598112394408,-1.025783967610927
-3.9845,0.291508581929326,-0.3475991096802118
-3.984,0.5796033030867573,0.1610395337678249
-3.9835,0.6542945270905358,0.4895353243280153
-3.983,0.6222840025174878,0.627291623595192
-3.9825,0.5582629533713921,0.6590815388106942
-3.982,0.6116138276598051,0.7544512844572011
-3.9815,0.7183155762366316,0.8074344764830383
-3.981,0.6649647019482183,0.6802748156210291
-3.9805,0.5689331282290746,0.5213252395435176
-3.98,0.4835717293676135,0.4259554938970107
-3.9795,0.4195506802215176,0.4047622170866759
-3.979,0.2808384070716433,0.3199891098453364
-3.9785,-0.08194753808956648,-0.1568596183871981
-3.978,-0.423393133535411,-0.9304142219644207
-3.9775,-0.754168554123573,-1.555615887869299
-3.977,-0.7968492535543035,-1.502632695843462
-3.9765,-0.4767440078238243,-0.8774310299385835
-3.976,-0.1139580626626144,-0.2204394488182027
-3.9755,0.1527963087794516,0.2670059178194992
-3.975,0.3128489316446912,0.5637117931641874
-3.9745,0.3875401556484697,0.701468092431364
-3.974,0.408880505363835,0.7544512844572011
-3.9735,0.3982103305061524,0.7544512844572011
-3.973,0.3768699807907871,0.7120647308365314
-3.9725,0.3448594562177392,0.6166949851900245
-3.972,0.3128489316446912,0.5001319627331828
-3.9715,0.3021787567870086,0.383568940276341
-3.971,0.1101156093487211,0.08686306493165288
-3.9705,-0.6261264558313813,-0.6549016234300674
-3.97,-1.415719395299897,-1.407262950196955
-3.9695,-1.87453691418025,-1.894708316834657
-3.969,-1.447729919872945,-1.640388995110639
-3.9685,-0.658136980404429,-1.068170521231597
-3.968,0.00341386077189465,-0.4641621321370536
-3.9675,0.4195506802215176,0.002089957690313421
-3.967,0.6009436528021226,0.2881991946298341
-3.9665,0.6329541773751706,0.4153588554918433
-3.966,0.5902734779444399,0.457745409112513
-3.9655,0.5582629533713921,0.4789386859228479
-3.965,0.5902734779444399,0.5849050699745222
-3.9645,0.5582629533713921,0.5743084315693548
-3.964,0.5049120790829789,0.5001319627331828
-3.9635,0.4515612047945656,0.4365521323021782
-3.963,0.408880505363835,0.3941655786815084
-3.9625,0.2381577076409128,0.627291623595192
-3.962,-0.2953510352432193,1.241896651094903
-3.9615,-0.9995825758502737,1.188913459069066
-3.961,-1.373038695869166,0.2881991946298341
-3.9605,-1.127624674142465,-0.1568596183871981
-3.96,-0.6047861061160158,-0.1038764263613609
-3.9595,-0.124628237520297,0.1292496185523226
-3.959,0.1848068333524996,0.383568940276341
-3.9585,0.3555296310754218,0.5955017083796896
-3.958,0.4195506802215176,0.7332580076468663
-3.9575,0.4302208550792003,0.8286277532933731
-3.957,0.408880505363835,0.8816109453192104
-3.9565,0.3875401556484697,0.9134008605347127
-3.956,0.3555296310754218,0.8816109453192104
-3.9555,0.3341892813600565,0.7968378380778709
-3.955,0.3128489316446912,0.6378882620003594
-3.9545,0.3021787567870086,0.4259554938970107
-3.954,0.07810508477567314,0.03387987290581572
-3.9535,-0.5087545323968721,-0.6972881770507372
-3.953,-1.06360362499637,-1.364876396576285
-3.9525,-1.127624674142465,-1.672178910326141
-3.952,-0.6367966306890638,-1.280103289334946
-3.9515,-0.07127736323188383,-0.7290780922662394
-3.951,0.3448594562177392,-0.2628260024388724
-3.9505,0.5689331282290746,0.08686306493165288
-3.95,0.6222840025174878,0.3411823866556712
-3.9495,0.6009436528021226,0.4365521323021782
-3.949,0.5475927785137094,0.4471487707073456
-3.9485,0.7289857510943143,0.701468092431364
-3.948,0.857027849386506,0.8816109453192104
-3.9475,0.7716664505250448,0.7650479228623686
-3.947,0.6329541773751706,0.5637117931641874
-3.9465,0.5049120790829789,0.3941655786815084
-3.946,0.4729015545099309,0.3941655786815084
-3.9455,0.8356874996711408,0.9028042221295453
-3.945,0.707645401378949,0.9134008605347127
-3.9445,-0.156638762093345,0.08686306493165288
-3.944,-0.9889124009925911,-0.2734226408440398
-3.9435,-1.244996597576974,-0.4217755785163839
-3.943,-0.8822106524157645,-0.2628260024388724
-3.9425,-0.391382608962363,0.002089957690313421
-3.942,0.01408403562957729,0.2564092794143318
-3.9415,0.2594980573562781,0.457745409112513
-3.941,0.3768699807907871,0.5955017083796896
-3.9405,0.408880505363835,0.701468092431364
-3.94,0.408880505363835,0.7650479228623686
-3.9395,0.3768699807907871,0.775644561267536
-3.939,0.3448594562177392,0.7544512844572011
-3.9385,0.3128489316446912,0.6378882620003594
-3.938,0.2701682322139607,0.4895353243280153
-3.9375,-0.1459685872356623,-0.008506680714854012
-3.937,-0.9248913518464952,-0.7714646458869092
-3.9365,-1.373038695869166,-1.38606967338662
-3.936,-1.458400094730627,-1.746355379162313
-3.9355,-0.9782422261349084,-1.449649503817625
-3.935,-0.2953510352432193,-0.8350444763179138
-3.9345,0.2594980573562781,-0.2416327256285375
-3.934,0.5582629533713921,0.2352160026039969
-3.9335,0.6756348768059011,0.5213252395435176
-3.933,0.6542945270905358,0.6484849004055269
-3.9325,0.5796033030867573,0.6802748156210291
-3.932,0.6329541773751706,0.7862411996727035
-3.9315,0.7503261008096795,0.8922075837243778
-3.931,0.707645401378949,0.7332580076468663
-3.9305,0.6009436528021226,0.5107286011383502
-3.93,0.4942419042252961,0.3199891098453364
-3.9295,0.4195506802215176,0.2034260873884947
-3.929,0.05676473506030786,0.02328323450064829
-3.9285,-0.7008176798351597,-0.5913217929990628
-3.928,-1.426389570157579,-1.311893204550448
-3.9275,-1.799845690176472,-1.84172512480882
-3.927,-1.650463242168915,-1.778145294377815
-3.9265,-1.010252750707956,-1.078767159636765
-3.926,-0.3807124341046804,-0.3581957480853793
-3.9255,0.0674349099179905,0.1716361721729923
-3.925,0.3128489316446912,0.4895353243280153
-3.9245,0.4195506802215176,0.627291623595192
-3.924,0.4408910299368829,0.6696781772158616
-3.9235,0.4195506802215176,0.6696781772158616
-3.923,0.3875401556484697,0.627291623595192
-3.9225,0.3555296310754218,0.5425185163538525
-3.922,0.3341892813600565,0.4789386859228479
-3.9215,0.3235191065023739,0.383568940276341
-3.921,0.1848068333524996,0.08686306493165288
-3.9205,-0.2633405106701714,-0.6337083466197325
-3.92,-0.5514352318276028,-1.237716735714276
-3.9195,-0.754168554123573,-1.682775548731308
-3.919,-0.4554036581084589,-1.75695201756748
-3.9185,0.05676473506030786,-1.460246142222792
-3.918,0.4302208550792003,-0.9728007755850904
-3.9175,0.6222840025174878,-0.5065486857577234
-3.917,0.6649647019482183,-0.09327978795619347
-3.9165,0.6116138276598051,0.2670059178194992
-3.916,0.5369226036560266,0.5001319627331828
-3.9155,0.5262524287983441,0.6696781772158616
-3.915,0.8036769750980928,0.9769806909657173
-3.9145,0.8890383739595538,1.040560521396722
-3.914,0.7716664505250448,0.8604176685088755
-3.9135,0.6116138276598051,0.6484849004055269
-3.913,0.4835717293676135,0.4789386859228479
-3.9125,0.3875401556484697,0.6060983467848571
-3.912,-0.03926683865883591,0.9981739677760521
-3.9115,-0.8608703027003992,0.4895353243280153
-3.911,-1.586442193022819,-0.4111789401112165
-3.9105,-1.607782542738184,-0.8244478379127463
-3.91,-1.052933450138687,-0.5807251545938954
-3.9095,-0.4447334832507763,-0.1568596183871981
-3.909,0.01408403562957729,0.2352160026039969
-3.9085,0.2808384070716433,0.5001319627331828
-3.908,0.3982103305061524,0.6590815388106942
-3.9075,0.4302208550792003,0.7332580076468663
-3.907,0.4195506802215176,0.7650479228623686
-3.9065,0.3875401556484697,0.775644561267536
-3.906,0.3555296310754218,0.7226613692416989
-3.9055,0.3341892813600565,0.6484849004055269
-3.905,0.3128489316446912,0.5213252395435176
-3.9045,0.2274875327832301,0.2352160026039969
-3.904,-0.3060212101009019,-0.4217755785163839
-3.9035,-1.031593100423322,-1.205926820498774
-3.903,-1.479740444445993,-1.84172512480882
-3.9025,-1.565101843307454,-2.149027638558676
-3.902,-1.020922925565639,-1.672178910326141
-3.9015,-0.3060212101009019,-1.046977244421262
-3.901,0.2488278824985954,-0.4959520473525559
-3.9005,0.5475927785137094,-0.01910331912002144
-3.9,0.6436243522328531,0.2458126410091644
-3.8995,0.6222840025174878,0.3517790250608387
-3.899,0.5582629533713921,0.383568940276341
-3.8985,0.7609962756673623,0.6378882620003594
-3.898,0.8997085488172365,0.7862411996727035
-3.8975,0.857027849386506,0.7332580076468663
-3.897,0.6969752265212663,0.5637117931641874
-3.8965,0.5475927785137094,0.4365521323021782
-3.896,0.3448594562177392,0.5107286011383502
-3.8955,-0.1886492866663929,1.019367244586387
-3.895,-0.9035510021311299,0.8922075837243778
-3.8945,-1.490410619303675,-0.008506680714854012
-3.894,-1.895877263895616,-0.3475991096802118
-3.8935,-1.757164990745741,-0.4535654937318862
-3.893,-1.095614149569417,-0.252229364033705
-3.8925,-0.4340633083930936,0.05507314971615059
-3.892,0.03542438534494258,0.3411823866556712
-3.8915,0.3021787567870086,0.55311515475902
-3.891,0.4195506802215176,0.7120647308365314
-3.8905,0.4408910299368829,0.8074344764830383
-3.89,0.4195506802215176,0.8710143069140429
-3.8895,0.3768699807907871,0.8816109453192104
-3.889,0.3448594562177392,0.8286277532933731
-3.8885,0.3235191065023739,0.775644561267536
-3.888,0.291508581929326,0.6060983467848571
-3.8875,0.03542438534494258,0.13984625695749
-3.887,-0.7328282044082075,-0.6231117082145651
-3.8865,-1.30901764672307,-1.290699927740113
-3.886,-1.458400094730627,-1.725162102351978
