Class_8_Think_right_hand_movement/Class_8_Think_Right_hand_mouvement_ZAkour_4.csv

#Digilent WaveForms Oscilloscope Acquisition
#Device Name: EExplorer
#Serial Number: SN:210151A2B84A
#Date Time: 2020-12-10 13:48:20.508
#Sample rate: 2000Hz
#Samples: 16384
#Trigger: Source: Channel 1 Type: Edge Condition: Rising Level: 0 V Hyst.: Auto HoldOff: 0 s
#Channel 1: Range: 1 V/div Offset: 0 V Attenuation: 1 X
#Channel 2: Range: 1 V/div Offset: 0 V Attenuation: 1 X
#Power Supplies: ON
#Fixed Supply: ON
#Voltage: 3.3 V Readback: 3.329 V
#Positive Supply: ON
#Voltage: 3.7 V Readback: 3.696 V
#Current: 40 mA Readback: 19 mA
#Negative Supply: ON
#Voltage: -3.7 V Readback: -3.981 V
#Current: -40 mA Readback: -8 mA
#Reference 1: ON
#Voltage: 0 V
#Reference 2: ON
#Voltage: 0 V

Time (s),Channel 1 (V),Channel 2 (V)
-4.096,0.7716664505250448,-0.1462629799820306
-4.0955,0.5475927785139132,0.3199891098449124
-4.095,0.3768699807906706,0.5001319627331925
-4.0945,0.2488278824985954,0.5107286011383502
-4.094,0.152796308779539,0.4471487707074034
-4.0935,0.003413860771778196,0.5637117931642934
-4.093,-0.124628237520297,0.6802748156210291
-4.0925,-0.1032878878049512,0.6166949851900824
-4.092,-0.03926683865877769,0.5213252395434694
-4.0915,0.02475421048725994,0.4683420475176805
-4.091,0.02475421048725994,0.5001319627331828
-4.0905,-0.3593720843899169,0.9134008605347802
-4.09,-1.020922925565639,0.9875773293708847
-4.0895,-2.055929886760855,-0.1780528951975329
-4.089,-2.877533350801671,-1.449649503816469
-4.0885,-3.069596498240706,-2.000674700886331
-4.088,-2.60010880450267,-1.820531847998485
-4.0875,-1.61845271759676,-0.8986243067497568
-4.087,-0.6901475049769917,0.08686306493223114
-4.0865,-0.156638762093345,0.7226613692416989
-4.086,0.1101156093484784,1.082947075017064
-4.0855,0.2168173579255572,1.263089927905286
-4.085,0.2274875327832301,1.316073119931075
-4.0845,0.2168173579255572,1.284283204715602
-4.084,0.2168173579255669,1.167720182258577
-4.0835,0.2381577076409128,0.9981739677760521
-4.083,0.2808384070716433,0.7968378380778709
-4.0825,0.4942419042259172,0.3411823866548327
-4.082,1.177133095116985,-0.5807251545938954
-4.0815,1.667961138570387,-1.481439419033127
-4.081,1.721312012858751,-2.159624276963226
-4.0805,1.753322537431848,-2.498716705929201
-4.08,1.582599739708926,-1.852321763213987
-4.0795,1.1984734448327,-0.9622041371807325
-4.079,0.7930068002401092,-0.2310360872229557
-4.0785,0.4622313796522482,0.2246193641988295
-4.078,0.2274875327834436,0.4365521323019854
-4.0775,0.08877525963326843,0.5107286011383984
-4.077,-0.007256314085787988,0.5637117931641874
-4.0765,-0.2313299860969197,0.7968378380776588
-4.076,-0.2420001609547187,0.7756445612674108
-4.0755,-0.1459685872356623,0.6378882620003594
-4.075,-0.03926683865883591,0.5001319627331828
-4.0745,-0.01792648894380058,0.4683420475180274
-4.074,-0.3807124341046804,0.849821030103708
-4.0735,-1.074273799854052,1.273686566310405
-4.073,-1.68247376674141,0.7014680924318845
-4.0725,-2.3973754822067,-0.400582301706049
-4.072,-3.133617547386802,-1.650985633515806
-4.0715,-2.749491252510576,-1.809935209593173
-4.071,-1.842526389606387,-1.068170521230768
-4.0705,-0.9462317015618604,-0.1568596183871981
-4.07,-0.2313299860977736,0.6590815388099521
-4.0695,0.09944543449114518,1.093543713422742
-4.069,0.2168173579255475,1.29487984312074
-4.0685,0.2274875327832301,1.37965295036208
-4.068,0.2168173579255378,1.358459673551649
-4.0675,0.2061471830678648,1.25249328950007
-4.067,0.2168173579255475,1.093543713422559
-4.0665,0.2488278824987118,0.9028042221292368
-4.066,0.3768699807907871,0.5637117931641874
-4.0655,0.9103787236749192,-0.07208651114585861
-4.065,1.699971663142716,-0.9728007755842711
-4.0645,2.340182154604393,-1.75695201756748
-4.064,2.660287400334872,-2.339767129851689
-4.0635,2.489564602612105,-2.403346960282636
-4.063,1.902704985438784,-1.598002441489198
-4.0625,1.219813794547716,-0.7502713690765743
-4.062,0.6649647019487229,-0.1144730647671066
-4.0615,0.3235191065021992,0.2670059178196438
-4.061,0.1314559590640864,0.4259554938970107
-4.0605,0.04609456020262521,0.457745409112513
-4.06,-0.0819475380896053,0.6908714540262544
-4.0595,-0.124628237520297,0.7544512844572011
-4.059,-0.08194753808956648,0.6378882620003594
-4.0585,-0.01792648894352886,0.5107286011384659
-4.058,0.01408403562957729,0.4259554938970107
-4.0575,-0.04993701351651855,0.4895353243280153
-4.057,-0.5727755815424925,0.9875773293704317
-4.0565,-1.351698346153801,0.9875773293708847
-4.056,-2.247993034199143,-0.02969995752518888
-4.0555,-3.208308771389707,-1.470842780626649
-4.055,-3.112277197670699,-1.905304955239391
-4.0545,-2.301343908487556,-1.42845622700729
-4.054,-1.2983474718663,-0.495952047353404
-4.0535,-0.4554036581080513,0.3941655786819903
-4.053,-0.007256314085787988,0.92399749893988
-4.0525,0.1741366584948169,1.199510097474233
-4.052,0.2274875327832301,1.326669758336262
-4.0515,0.2274875327832301,1.347863035146577
-4.051,0.2061471830678648,1.284283204715573
-4.0505,0.2061471830678648,1.146526905448521
-4.05,0.2168173579255475,1.00877060618122
-4.0495,0.2594980573562781,0.8392243916985406
-4.049,0.7076454013785415,0.1504428953632838
-4.0485,1.401206767128573,-0.8562377531290197
-4.048,1.678631313428069,-1.703968825541643
-4.0475,1.721312012858761,-2.360960406661427
-4.047,1.828013761435451,-2.594086451575389
-4.0465,1.635950613997339,-2.244397384205182
-4.046,1.219813794548094,-1.258910012525507
-4.0455,0.782336625382417,-0.411178940110725
-4.045,0.4408910299368829,0.1292496185523226
-4.0445,0.2168173579255475,0.3517790250608387
-4.044,0.09944543449099962,0.3835689402764085
-4.0435,0.05676473506030786,0.457745409112513
-4.043,0.04609456020262521,0.5213252395435176
-4.0425,0.05676473506029815,0.4895353243280443
-4.042,0.07810508477567314,0.4895353243280153
-4.0415,0.07810508477567314,0.4683420475176805
-4.041,0.003413860771962582,0.542518516353785
-4.0405,-0.3273615598169272,0.9028042221296898
-4.04,-1.052933450138687,1.061753798207057
-4.0395,-1.895877263894849,0.2352160026047486
-4.039,-2.781501777083624,-1.099960436447842
-4.0385,-3.16562807195985,-1.915901593644992
-4.038,-2.770831602225951,-1.873515040024361
-4.0375,-1.821186039890944,-1.036380606015179
-4.037,-0.839529952985034,-0.02969995752518888
-4.0365,-0.2206598112394408,0.6908714540261965
-4.036,0.08877525963346253,1.093543713422752
-4.0355,0.2061471830678648,1.305476481525908
-4.035,0.2381577076409128,1.37965295036208
-4.0345,0.2168173579255669,1.358459673551764
-4.034,0.2061471830678648,1.25249328950007
-4.0335,0.2168173579255475,1.093543713422559
-4.033,0.2594980573562393,0.8710143069142453
-4.0325,0.4729015545105131,0.4153588554910241
-4.032,1.113112045970889,-0.4853554089473885
-4.0315,1.582599739708499,-1.386069673385801
-4.031,1.710641838001243,-2.074851169722889
-4.0305,1.849354111150991,-2.498716705929201
-4.03,1.753322537431935,-2.265590661015729
-4.0295,1.39053659227024,-1.301296566144442
-4.029,0.9530594231056497,-0.3793890248957141
-4.0285,0.5902734779444399,0.2246193641988295
-4.028,0.3128489316445457,0.4895353243280346
-4.0275,0.1527963087794516,0.5107286011383502
-4.027,0.07810508477567314,0.4471487707073456
-4.0265,0.0674349099180002,0.4153588554918722
-4.026,0.07810508477567314,0.3517790250608387
-4.0255,0.08877525963335578,0.309392471440169
-4.025,0.08877525963335578,0.2987958330350112
-4.0245,0.07810508477549846,0.3199891098454424
-4.024,-0.1139580626626144,0.4365521323021782
-4.0235,-0.8075194284113552,0.2564092794144956
-4.023,-1.853196564465448,-0.8138511995083788
-4.0225,-2.472066706210478,-1.693372187136476
-4.022,-2.610778979360227,-1.958288147265421
-4.0215,-2.642789503932721,-2.021867977695934
-4.021,-1.895877263895616,-1.216523458903942
-4.0205,-0.9995825758502737,-0.2098428104130352
-4.02,-0.3913826089620234,0.5107286011387646
-4.0195,-0.01792648894347063,0.9663840525605498
-4.019,0.1634664836371343,1.210106735879401
-4.0185,0.216817357925499,1.294879843120663
-4.018,0.2274875327832301,1.284283204715573
-4.0175,0.2274875327832301,1.167720182258731
-4.017,0.238157707640903,1.008770606181364
-4.0165,0.2594980573564042,0.8180311148878782
-4.016,0.3982103305061524,0.457745409112513
-4.0155,0.9957401225358368,-0.421775578515584
-4.015,1.358526067697648,-1.29069992774073
-4.0145,1.422547116843686,-1.968884785670829
-4.014,1.646620788854817,-2.44573351390293
-4.0135,1.860024286008451,-2.47752342911821
-4.013,1.614610264281974,-1.75695201756748
-4.0125,1.145122570543937,-0.718481453861072
-4.012,0.7183155762363501,0.05507314971650717
-4.0115,0.408880505363835,0.4471487707073456
-4.011,0.2168173579255475,0.55311515475902
-4.0105,0.1207857842064911,0.5319218779487044
-4.01,-0.03926683865883591,0.6802748156210291
-4.0095,-0.1032878878049318,0.6908714540261965
-4.009,-0.06060718837424001,0.5743084315694609
-4.0085,-0.00725631408574917,0.4683420475175937
-4.008,0.03542438534494258,0.3729723018711736
-4.0075,-0.09261771294713267,0.4789386859227515
-4.007,-0.7221580295515051,0.2987958330340474
-4.0065,-1.799845690176472,-0.7502713690765743
-4.006,-2.610778979360353,-1.84172512480882
-4.0055,-2.856193001087218,-2.223204107394982
-4.005,-3.037585973667658,-2.371557045067191
-4.0045,-2.312014083345239,-1.619195718300304
-4.004,-1.298347471864718,-0.5065486857569428
-4.0035,-0.5621054066852853,0.3517790250608387
-4.003,-0.09261771294724913,0.9028042221295453
-4.0025,0.1421261339215555,1.188913459068806
-4.002,0.2274875327832301,1.305476481525908
-4.0015,0.2381577076409128,1.29487984312074
-4.001,0.2381577076409128,1.178316820664004
-4.0005,0.2488278824986148,0.9769806909655342
-4,0.2701682322139607,0.775644561267536
-3.9995,0.3341892813600565,0.4895353243280153
-3.999,0.7609962756673623,-0.1568596183871981
-3.9985,1.539919040278195,-1.036380606016095
-3.998,2.094768132877692,-1.767548655972648
-3.9975,2.052087433446962,-2.032464616101834
-3.997,1.657290963712704,-1.333086481360783
-3.9965,1.251824319120764,-0.5171453241628908
-3.996,0.857027849386506,0.03387987290581572
-3.9955,0.5155822539406614,0.2776025562246667
-3.995,0.2701682322139607,0.3623756634660061
-3.9945,0.1314559590640864,0.3729723018711736
-3.994,0.07810508477567314,0.3305857482505039
-3.9935,-0.06060718837420119,0.4683420475176805
-3.993,-0.2633405106701714,0.7226613692416989
-3.9925,-0.2420001609548061,0.701468092431364
-3.992,-0.1352984123779797,0.6166949851900245
-3.9915,-0.04993701351651855,0.5425185163538525
-3.991,-0.007256314085787988,0.5319218779486851
-3.9905,-0.3807124341046804,0.5319218779486851
-3.99,-1.319687821580753,-0.2628260024388724
-3.9895,-2.151961460479999,-1.375473034981453
-3.989,-2.087940411333903,-1.449649503817625
-3.9885,-2.418715831922065,-1.75695201756748
-3.988,-2.130621110764634,-1.449649503817625
-3.9875,-1.30901764672307,-0.5171453241628908
-3.987,-0.6261264558313813,0.2987958330350016
-3.9865,-0.1673089369510276,0.8392243916985406
-3.986,0.07810508477567314,1.167720182258731
-3.9855,0.1954770082101822,1.305476481525908
-3.985,0.2168173579255475,1.326669758336243
-3.9845,0.2168173579255475,1.273686566310405
-3.984,0.2168173579255475,1.135930267043229
-3.9835,0.2381577076409128,0.9769806909657173
-3.983,0.2701682322139607,0.7650479228623686
-3.9825,0.3875401556484697,0.4153588554918433
-3.982,0.9957401225363802,-0.4111789401112165
-3.9815,1.465227816274416,-1.301296566145281
-3.981,1.529248865420512,-1.968884785670829
-3.9805,1.657290963712704,-2.382153683472359
-3.98,1.614610264281974,-2.085447808127671
-3.9795,1.315845368266859,-1.089363798041932
-3.979,0.9530594231056497,-0.2840192792492073
-3.9785,0.6222840025174878,0.2670059178194992
-3.978,0.3768699807907871,0.5425185163538525
-3.9775,0.2381577076409128,0.5637117931641874
-3.977,0.1314559590640864,0.5001319627331828
-3.9765,-0.02859666380115328,0.5425185163538525
-3.976,-0.06060718837420119,0.4789386859228479
-3.9755,-0.03926683865883591,0.3941655786815084
-3.975,-0.007256314085787988,0.3411823866556712
-3.9745,0.00341386077189465,0.3411823866556712
-3.974,-0.1673089369510276,0.6166949851900245
-3.9735,-0.8181896032696687,1.167720182258731
-3.973,-1.586442193022819,0.8392243916985406
-3.9725,-2.578768454787304,-0.4429688553267188
-3.972,-3.315010519967407,-1.725162102351978
-3.9715,-3.090936847956071,-2.000674700886331
-3.971,-2.23732285934146,-1.42845622700729
-3.9705,-1.202315898146244,-0.4323722169215513
-3.97,-0.3807124341046804,0.4471487707073456
-3.9695,0.01408403562957729,0.9451907757502149
-3.969,0.1954770082101822,1.220703374284568
-3.9685,0.2381577076409128,1.33726639674141
-3.968,0.2274875327832301,1.347863035146577
-3.9675,0.2061471830678648,1.284283204715573
-3.967,0.2168173579255475,1.146526905448396
-3.9665,0.2488278824985954,0.9557874141553824
-3.966,0.3555296310754218,0.6378882620003594
-3.9655,0.9210488985326017,-0.1568596183871981
-3.965,1.625280439139656,-1.142346990067769
-3.9645,1.892034810581722,-1.926498232050159
-3.964,2.041417258589279,-2.488120067524033
-3.9635,2.052087433446962,-2.519909982739535
-3.963,1.699971663143435,-1.767548655972648
-3.9625,1.209143619690033,-0.8456411147230812
-3.962,0.7396559259519968,-0.09327978795619347
-3.9615,0.3875401556484697,0.3411823866556712
-3.961,0.1848068333524996,0.5001319627331828
-3.9605,0.08877525963335578,0.5107286011383502
-3.96,-0.09261771294724913,0.6908714540261965
-3.9595,-0.1779791118087102,0.7438546460520338
-3.959,-0.124628237520297,0.6166949851900245
-3.9585,-0.04993701351651855,0.4683420475176805
-3.958,0.01408403562957729,0.3941655786815084
-3.9575,-0.1032878878049318,0.5001319627331828
-3.957,-0.7648387289812555,0.383568940276341
-3.9565,-1.565101843307454,-0.2946159176543747
-3.956,-2.322684258202921,-0.9728007755850904
-3.9555,-2.920214050233149,-1.629792356705471
-3.955,-3.315010519967407,-2.276187299420684
-3.9545,-2.418715831922065,-1.629792356705471
-3.954,-1.458400094730627,-0.6654982618352349
-3.9535,-0.6154562809736985,0.2564092794143318
-3.953,-0.03926683865883591,0.9134008605347127
-3.9525,0.1741366584948169,1.199510097474233
-3.952,0.2381577076409128,1.29487984312074
-3.9515,0.2274875327832301,1.284283204715573
-3.951,0.2061471830678648,1.220703374284568
-3.9505,0.1954770082101822,1.104140351827727
-3.95,0.2061471830678648,0.9345941373450475
-3.9495,0.2701682322139607,0.701468092431364
-3.949,0.5155822539406614,0.1186529801471552
-3.9485,1.059761171682476,-0.8032545611024114
-3.948,1.369196242555273,-1.650985633515806
-3.9475,1.454557641416734,-2.149027638558676
-3.947,1.454557641416734,-1.894708316834657
-3.9465,1.251824319120764,-1.078767159636765
-3.946,0.974399772821015,-0.3475991096802118
-3.9455,0.6756348768059011,0.1610395337678249
-3.945,0.4408910299368829,0.4153588554918433
-3.9445,0.2701682322139607,0.5319218779486851
-3.944,0.1634664836371343,0.5107286011383502
-3.9435,0.0674349099179905,0.5637117931641874
-3.943,-0.01792648894347063,0.6378882620003594
-3.9425,-0.007256314085787988,0.5849050699745222
-3.942,0.02475421048725994,0.4789386859228479
-3.9415,0.05676473506030786,0.4153588554918433
-3.941,0.04609456020262521,0.4365521323021782
-3.9405,-0.3166913849585846,0.8074344764830383
-3.94,-1.074273799854052,0.7226613692416989
-3.9395,-1.799845690176472,-0.02969995752518888
-3.939,-2.333354433060604,-0.7078848154559045
-3.9385,-2.696140378221814,-1.311893204550448
-3.938,-2.6427895039334,-1.672178910326141
-3.9375,-1.767835165603424,-0.8880276683437509
-3.937,-0.9569018764195432,-0.05089323433552374
-3.9365,-0.3380317346739499,0.6484849004055269
-3.936,0.08877525963335578,1.167720182258731
-3.9355,0.2274875327832301,1.369056311956912
-3.935,0.2274875327832301,1.400846227172415
-3.9345,0.2168173579255475,1.326669758336243
-3.934,0.2168173579255475,1.157123543853563
-3.9335,0.2274875327832301,0.9981739677760521
-3.933,0.2594980573562781,0.7968378380778709
-3.9325,0.4408910299368829,0.3941655786815084
-3.932,1.081101521397841,-0.5277419625680583
-3.9315,1.475897991132099,-1.481439419033127
-3.931,1.379866417412955,-2.180817553774178
-3.9305,1.305175193409177,-2.551699897955038
-3.93,1.209143619690033,-1.937094870455327
-3.9295,1.017080472251745,-0.9304142219644207
-3.929,0.7716664505250448,-0.1038764263613609
-3.9285,0.5369226036560266,0.3411823866556712
-3.928,0.3341892813600565,0.4789386859228479
-3.9275,0.1954770082101822,0.4471487707073456
-3.927,0.08877525963335578,0.4259554938970107
-3.9265,-0.09261771294724913,0.6060983467848571
-3.926,-0.1139580626626144,0.6060983467848571
-3.9255,-0.06060718837420119,0.5107286011383502
-3.925,0.00341386077189465,0.4259554938970107
-3.9245,0.04609456020262521,0.3941655786815084
-3.924,-0.2099896363817582,0.5849050699745222
-3.9235,-0.9462317015618604,0.309392471440169
-3.923,-1.501080794161358,-0.4323722169215513
-3.9225,-1.949228138184029,-1.121153713257435
-3.922,-2.429386006779747,-1.587405803084801
-3.9215,-2.141291285622316,-1.417859588602123
-3.921,-1.693143941599645,-0.9939940523954253
-3.9205,-1.373038695869166,-0.5489352393783931
-3.92,-0.690147504977477,0.2352160026039969
-3.9195,-0.274010685527854,0.7438546460520338
-3.919,0.04609456020262521,1.125333628638062
-3.9185,0.2274875327832301,1.326669758336243
-3.918,0.2168173579255475,1.305476481525908
-3.9175,0.2061471830678648,1.167720182258731
-3.917,0.2168173579255475,0.9769806909657173
-3.9165,0.2274875327832301,0.8392243916985406
-3.916,0.291508581929326,0.6590815388106942
-3.9155,0.707645401378949,0.1716361721729923
-3.915,1.422547116843686,-0.7290780922662394
-3.9145,1.689301488285752,-1.608599079895136
-3.914,1.667961138570387,-2.233800745800015
-3.9135,1.603940089424291,-2.233800745800015
-3.913,1.326515543124542,-1.375473034981453
-3.9125,0.974399772821015,-0.474758770542221
-3.912,0.6116138276598051,0.1504428953626575
-3.9115,0.3448594562177392,0.4789386859228479
-3.911,0.1954770082101822,0.55311515475902
-3.9105,0.1101156093487211,0.4789386859228479
-3.91,0.01408403562957729,0.5955017083796896
-3.9095,-0.03926683865883591,0.6590815388106942
-3.909,-0.01792648894347063,0.5849050699745222
-3.9085,0.03542438534494258,0.5001319627331828
-3.908,0.05676473506030786,0.457745409112513
-3.9075,-0.007256314085787988,0.5637117931641874
-3.907,-0.5087545323968721,1.125333628638062
-3.9065,-1.255666772434657,1.25249328950007
-3.906,-1.87453691418025,0.4259554938970107
-3.9055,-2.461396531352796,-0.5065486857577234
-3.905,-2.141291285622316,-0.8350444763179138
-3.9045,-1.277007122150022,-0.4217755785163839
-3.904,-0.807519428411986,-0.04029659593035631
-3.9035,-0.9355615267041777,-0.1144730647665284
-3.903,-0.5194247072545548,0.4047622170866759
-3.9025,-0.2633405106701714,0.7544512844572011
-3.902,-0.04993701351651855,1.051157159801889
-3.9015,0.1527963087794516,1.29487984312074
-3.901,0.1954770082101822,1.305476481525908
-3.9005,0.1954770082101822,1.188913459069066
-3.9,0.1954770082101822,1.082947075017392
-3.8995,0.2274875327832301,0.9134008605347127
-3.899,0.4622313796522482,0.4683420475176805
-3.8985,1.15579274540162,-0.5171453241628908
-3.898,1.56125938999356,-1.492036057438295
-3.8975,1.828013761435626,-2.233800745800015
-3.897,2.12677865745074,-2.721246112437717
-3.8965,1.988066384300866,-2.488120067524033
-3.896,1.486568165989782,-1.587405803084801
-3.8955,0.9850699476786977,-0.6972881770507372
-3.895,0.5796033030867573,-0.02969995752518888
-3.8945,0.291508581929326,0.3199891098453364
-3.894,0.142126133921769,0.4259554938970107
-3.8935,-0.007256314085787988,0.5425185163538525
-3.893,-0.1886492866663929,0.7862411996727035
-3.8925,-0.1779791118087102,0.7332580076468663
-3.892,-0.09261771294724913,0.5743084315693548
-3.8915,-0.007256314085787988,0.4365521323021782
-3.891,0.04609456020262521,0.3623756634660061
-3.8905,-0.1673089369510276,0.6166949851900245
-3.89,-0.8822106524157645,0.9875773293708847
-3.8895,-1.703814116457328,0.4259554938970107
-3.889,-2.418715831922065,-0.4641621321370536
-3.8885,-2.610778979360353,-1.184733543688439
-3.888,-2.312014083345239,-1.216523458903942
-3.8875,-1.351698346153801,-0.570128516188728
-3.887,-0.6047861061160158,0.1610395337678249
-3.8865,-0.274010685527854,0.5637117931641874
-3.886,-0.5514352318276028,0.3941655786815084
-3.8855,-0.4660738329661415,0.5637117931641874
-3.885,-0.2846808603855366,0.7968378380778709
