Class_8_Think_right_hand_movement/Class_8_Think_Right_hand_mouvement_turki_6.csv

#Digilent WaveForms Oscilloscope Acquisition
#Device Name: EExplorer
#Serial Number: SN:210151A2B84A
#Date Time: 2020-12-15 14:06:59.959
#Sample rate: 2000Hz
#Samples: 16384
#Trigger: Source: Channel 1 Type: Edge Condition: Rising Level: 0 V Hyst.: Auto HoldOff: 0 s
#Channel 1: Range: 1 V/div Offset: 0 V Attenuation: 1 X
#Channel 2: Range: 1 V/div Offset: 0 V Attenuation: 1 X
#Power Supplies: ON
#Fixed Supply: ON
#Voltage: 3.3 V Readback: 3.323 V
#Positive Supply: ON
#Voltage: 3.7 V Readback: 3.711 V
#Current: 40 mA Readback: 18 mA
#Negative Supply: ON
#Voltage: -3.7 V Readback: -3.353 V
#Current: -40 mA Readback: -7 mA
#Reference 1: ON
#Voltage: 0 V
#Reference 2: ON
#Voltage: 0 V

Time (s),Channel 1 (V),Channel 2 (V)
-4.096,-0.7648387289812555,-0.5065486857577234
-4.0955,-1.341028171295594,-1.269506650929084
-4.095,-1.543761493591652,-1.672178910325784
-4.0945,-1.06360362499637,-1.280103289334946
-4.094,-0.4340633083936661,-0.6549016234306361
-4.0935,0.07810508477593517,-0.1356663415766126
-4.093,0.3661998059331045,0.13984625695749
-4.0925,0.4835717293675068,0.2246193641987524
-4.092,0.5049120790829594,0.224619364198762
-4.0915,0.4835717293676135,0.1504428953626575
-4.091,0.5369226036560266,0.02328323450064829
-4.0905,0.6329541773751221,-0.1144730647665284
-4.09,0.5796033030867573,-0.1144730647665284
-4.0895,0.4835717293676135,-0.05089323433552374
-4.089,0.408880505363903,0.02328323450058083
-4.0885,0.3768699807907871,0.1186529801471552
-4.088,0.7289857510943143,0.5637117931641874
-4.0875,0.7183155762366412,0.8710143069137635
-4.087,-0.1246282375210346,0.2352160026032645
-4.0865,-0.9355615267041777,-0.570128516188728
-4.086,-1.554431668449208,-1.227120097308511
-4.0855,-1.437059745014748,-1.205926820498273
-4.085,-0.8715404775580819,-0.6549016234300674
-4.0845,-0.3166913849590892,-0.05089323433607307
-4.084,0.0674349099181846,0.4047622170869361
-4.0835,0.2808384070716433,0.6908714540261965
-4.083,0.3768699807907871,0.8286277532933731
-4.0825,0.398210330506133,0.8816109453192007
-4.082,0.3768699807907871,0.8710143069140429
-4.0815,0.3555296310754218,0.849821030103708
-4.081,0.334189281360076,0.8074344764830769
-4.0805,0.3128489316446912,0.7544512844572011
-4.08,0.1101156093487211,0.5107286011383502
-4.0795,-0.5407650569693281,-0.2310360872226954
-4.079,-1.095614149569699,-1.025783967611496
-4.0785,-1.405049220442214,-1.650985633515806
-4.078,-1.42638957015756,-1.714565463946753
-4.0775,-1.010252750707423,-1.131750351662072
-4.077,-0.423393133535411,-0.5489352393783931
-4.0765,0.06743490991754408,-0.1250697031720813
-4.076,0.3448594562178459,0.02328323450068684
-4.0755,0.4622313796522482,0.06566978812131802
-4.075,0.4942419042252961,0.04447651131098315
-4.0745,0.504912079083105,-0.07208651114602245
-4.074,0.6436243522328531,-0.252229364033705
-4.0735,0.6329541773751706,-0.2416327256285375
-4.073,0.536922603656114,-0.114473064766644
-4.0725,0.4408910299368829,0.02328323450064829
-4.072,0.3768699807907871,0.1504428953626575
-4.0715,0.5475927785135541,0.4471487707070758
-4.071,0.8036769750974911,0.9239974989394849
-4.0705,0.142126133921769,0.4895353243280153
-4.07,-0.7648387289804306,-0.2946159176536614
-4.0695,-1.501080794161416,-0.941010860369752
-4.069,-1.565101843307454,-1.121153713257435
-4.0685,-1.010252750707956,-0.6866915386455698
-4.068,-0.4340633083926957,-0.1356663415764488
-4.0675,0.00341386077189465,0.3199891098453364
-4.067,0.2594980573562781,0.6166949851900245
-4.0665,0.3661998059331336,0.7756445612675938
-4.066,0.3982103305061524,0.8392243916985406
-4.0655,0.3875401556484697,0.849821030103708
-4.065,0.3661998059331239,0.8392243916985502
-4.0645,0.3341892813600565,0.7968378380778709
-4.064,0.3128489316446912,0.7544512844572011
-4.0635,0.2381577076409807,0.6378882620004654
-4.063,-0.2953510352438404,0.06566978812057592
-4.0625,-0.9782422261349084,-0.7502713690765743
-4.062,-1.543761493591574,-1.460246142222147
-4.0615,-1.725154466172237,-1.778145294377478
-4.061,-1.223656247861609,-1.407262950196955
-4.0605,-0.5300948821122373,-0.7820612842920766
-4.06,-0.007256314085487149,-0.2840192792489856
-4.0595,0.3235191065023739,-0.04029659593035631
-4.059,0.4622313796522482,0.002089957690313421
-4.0585,0.494241904225267,0.002089957690313421
-4.058,0.4729015545099309,-0.02969995752518888
-4.0575,0.5155822539406614,-0.09327978795619347
-4.057,0.5155822539406614,-0.1144730647665091
-4.0565,0.4622313796522482,-0.09327978795619347
-4.056,0.408880505363835,-0.05089323433552374
-4.0555,0.3661998059331433,0.01268659609542303
-4.055,0.4088805053641747,0.1610395337683357
-4.0545,0.7823366253827275,0.7226613692416989
-4.054,0.4302208550795206,0.76504792286233
-4.0535,-0.4660738329668597,0.002089957689580964
-4.053,-1.255666772434657,-0.8032545611024114
-4.0525,-1.575772018165136,-1.227120097309109
-4.052,-1.148965023857307,-0.8986243067483787
-4.0515,-0.572775581542968,-0.3052125560595421
-4.051,-0.09261771294724913,0.2352160026039969
-4.0505,0.2061471830675931,0.6060983467845198
-4.05,0.3555296310754218,0.8180311148882058
-4.0495,0.3982103305061524,0.9134008605347127
-4.049,0.3982103305061524,0.9451907757501861
-4.0485,0.376869980790758,0.934594137345009
-4.048,0.3448594562177392,0.8922075837243778
-4.0475,0.3235191065023933,0.8498210301037465
-4.047,0.3021787567866689,0.7756445612671505
-4.0465,-0.07127736323188383,0.3517790250608387
-4.046,-0.7541685541229519,-0.4535654937311537
-4.0455,-1.330357996438814,-1.227120097309572
-4.045,-1.746494815888059,-1.735758740757146
-4.0445,-1.458400094730627,-1.566212526274467
-4.044,-0.7755089038383948,-0.9622041371794025
-4.0435,-0.1779791118087102,-0.3899856633008816
-4.043,0.2594980573562781,-0.008506680714854012
-4.0425,0.4729015545097368,0.1398462569573551
-4.042,0.5262524287983441,0.1186529801471552
-4.0415,0.5155822539406614,0.002089957690313421
-4.041,0.5796033030866992,-0.1886495336025269
-4.0405,0.7076454013788909,-0.3158091944646325
-4.04,0.6436243522328531,-0.2310360872233701
-4.0395,0.5369226036561237,-0.08268314955116096
-4.039,0.4408910299368441,0.06566978812144331
-4.0385,0.3982103305061524,0.2034260873884947
-4.038,0.7076454013786676,0.6590815388102798
-4.0375,0.696975226520519,0.966384052559962
-4.037,-0.124628237520297,0.3199891098453364
-4.0365,-0.9142211769888124,-0.4959520473525559
-4.036,-1.501080794161212,-1.174136905283243
-4.0355,-1.341028171296118,-1.142346990067769
-4.035,-0.7968492535543035,-0.6019184314042303
-4.0345,-0.2740106855283295,-0.02969995752570931
-4.034,0.09944543449103843,0.4047622170866759
-4.0335,0.3021787567870086,0.6696781772158616
-4.033,0.3875401556483921,0.8074344764829131
-4.0325,0.3982103305061427,0.8498210301036984
-4.032,0.3875401556484697,0.8392243916985406
-4.0315,0.3555296310754509,0.8074344764830672
-4.031,0.3341892813600468,0.7756445612674878
-4.0305,0.3235191065023739,0.7226613692416989
-4.03,0.142126133921934,0.4683420475179118
-4.0295,-0.5087545323975126,-0.2734226408447626
-4.029,-1.212986073003927,-1.068170521231597
-4.0285,-1.682473766741963,-1.682775548731308
-4.028,-1.533091318733785,-1.693372187135965
-4.0275,-0.8502001278427167,-1.131750351662602
-4.027,-0.2099896363817582,-0.5595318777835605
-4.0265,0.2381577076405052,-0.1780528951978799
-4.026,0.4729015545099309,0.03387987290581572
-4.0255,0.5369226036560266,0.1186529801471552
-4.025,0.5262524287983538,0.1186529801471552
-4.0245,0.5049120790830468,0.08686306493152759
-4.024,0.5796033030867573,-0.05089323433552374
-4.0235,0.5475927785137384,-0.07208651114583933
-4.023,0.4835717293675553,-0.02969995752513105
-4.0225,0.4195506802215176,0.03387987290581572
-4.022,0.3768699807908259,0.09745970333676249
-4.0215,0.5475927785138743,0.330585748250899
-4.021,0.7289857510943143,0.7650479228623686
-4.0205,0.03542438534494258,0.3411823866556712
-4.02,-0.8288597781279725,-0.4535654937324934
-4.0195,-1.51175096901904,-1.121153713257435
-4.019,-1.522421143876723,-1.248313374119443
-4.0185,-0.9675720512777303,-0.7608680074821851
-4.018,-0.391382608962363,-0.1780528951975329
-4.0175,0.02475421048725994,0.2881991946298341
-4.017,0.2701682322137375,0.5849050699742524
-4.0165,0.3875401556484891,0.7332580076469242
-4.016,0.408880505363835,0.7968378380778709
-4.0155,0.3982103305061621,0.7968378380778709
-4.015,0.366199805933085,0.7756445612674975
-4.0145,0.3448594562177392,0.7332580076468663
-4.014,0.3235191065023933,0.6908714540262351
-4.0135,0.2488278824980908,0.5637117931636381
-4.013,-0.3060212101009019,-0.04029659593035631
-4.0125,-1.020922925565639,-0.8456411147230812
-4.012,-1.479740444446051,-1.534422611059196
-4.0115,-1.543761493592088,-1.788741932782983
-4.011,-1.116954499284783,-1.290699927740113
-4.0105,-0.5087545323974252,-0.6866915386461191
-4.01,0.01408403562957729,-0.2416327256285375
-4.0095,0.3448594562177392,-0.04029659593035631
-4.009,0.4942419042251602,-0.008506680714882926
-4.0085,0.5475927785136899,-0.02969995752521779
-4.008,0.5262524287983441,-0.06148987274069118
-4.0075,0.6009436528020546,-0.1992461720077425
-4.007,0.6009436528020644,-0.188649533602604
-4.0065,0.5369226036560266,-0.08268314955102604
-4.006,0.4515612047945656,0.05507314971615059
-4.0055,0.3875401556485085,0.1716361721731369
-4.005,0.4302208550792003,0.3305857482505039
-4.0045,0.6863050516635838,0.7862411996727035
-4.004,0.1527963087786462,0.5319218779479333
-4.0035,-0.7328282044082075,-0.2946159176543747
-4.003,-1.51175096901904,-1.036380606016095
-4.0025,-1.735824641030172,-1.364876396575986
-4.002,-1.191645723288561,-0.9516074987747555
-4.0015,-0.5621054066852853,-0.3475991096802118
-4.001,-0.06060718837465728,0.182232810577678
-4.0005,0.2381577076410389,0.5213252395436815
-4,0.3768699807907871,0.701468092431364
-3.9995,0.4195506802215176,0.775644561267536
-3.999,0.408880505363835,0.7862411996727035
-3.9985,0.3875401556484697,0.7650479228623686
-3.998,0.3555296310754218,0.7226613692416989
-3.9975,0.3341892813600565,0.6802748156210291
-3.997,0.3128489316446912,0.627291623595192
-3.9965,0.01408403562957729,0.309392471440169
-3.996,-0.690147504977477,-0.4535654937318862
-3.9955,-1.319687821580753,-1.216523458903942
-3.995,-1.725154466172693,-1.703968825541643
-3.9945,-1.533091318734406,-1.555615887869299
-3.994,-0.8928808272734472,-0.9939940523954253
-3.9935,-0.2633405106701714,-0.4853554089473885
-3.993,0.1848068333524996,-0.1250697031716958
-3.9925,0.4408910299368829,0.04447651131098315
-3.992,0.5262524287983441,0.09745970333682032
-3.9915,0.5155822539406614,0.06566978812131802
-3.991,0.5582629533713921,0.1186529801471552
-3.9905,0.6222840025174878,0.2352160026039969
-3.99,0.5689331282290746,0.2034260873884947
-3.9895,0.4942419042252961,0.1504428953626575
-3.989,0.4195506802215176,0.1292496185523226
-3.9885,0.3875401556484697,0.1504428953626575
-3.988,0.6863050516635838,0.5213252395435176
-3.9875,0.4835717293676135,0.701468092431364
-3.987,-0.3700422592469978,0.02328323450064829
-3.9865,-1.191645723288561,-0.6549016234300674
-3.986,-1.789175515318789,-1.184733543688439
-3.9855,-1.522421143876723,-1.078767159636765
-3.985,-0.8715404775580819,-0.5277419625680583
-3.9845,-0.2846808603855366,0.05507314971615059
-3.984,0.1101156093487211,0.4895353243280153
-3.9835,0.3235191065023739,0.7650479228623686
-3.983,0.408880505363835,0.9028042221295453
-3.9825,0.4195506802215176,0.9451907757502149
-3.982,0.408880505363835,0.9557874141553824
-3.9815,0.3768699807907871,0.9134008605347127
-3.981,0.3448594562177392,0.8816109453192104
-3.9805,0.3341892813600565,0.8180311148882058
-3.98,0.1527963087794516,0.6060983467848571
-3.9795,-0.4767440078238243,-0.1038764263613609
-3.979,-1.06360362499637,-0.9198175835592532
-3.9785,-1.426389570157579,-1.545019249464132
-3.978,-1.287677297007705,-1.587405803084801
-3.9775,-0.722158029550525,-1.121153713257435
-3.977,-0.1352984123779797,-0.6125150698093976
-3.9765,0.2594980573562781,-0.2840192792492073
-3.976,0.4729015545099309,-0.09327978795619347
-3.9755,0.5262524287983441,-0.02969995752518888
-3.975,0.5262524287983441,-0.01910331912002144
-3.9745,0.5049120790829789,0.002089957690313421
-3.974,0.5582629533713921,0.01268659609548085
-3.9735,0.5262524287983441,-0.008506680714854012
-3.973,0.4622313796522482,-0.02969995752518888
-3.9725,0.408880505363835,-0.04029659593035631
-3.972,0.3768699807907871,-0.008506680714854012
-3.9715,0.5475927785137094,0.2458126410091644
-3.971,0.8356874996711408,0.849821030103708
-3.9705,0.2061471830678648,0.6590815388106942
-3.97,-0.6261264558313813,-0.09327978795619347
-3.9695,-1.244996597576974,-0.8244478379127463
-3.969,-1.351698346153801,-1.078767159636765
-3.9685,-0.8928808272734472,-0.6760949002404023
-3.968,-0.3700422592469978,-0.1144730647665284
-3.9675,0.02475421048725994,0.3623756634660061
-3.967,0.2701682322139607,0.6908714540261965
-3.9665,0.3768699807907871,0.8710143069140429
-3.966,0.408880505363835,0.9557874141553824
-3.9655,0.3982103305061524,0.9875773293708847
-3.965,0.3768699807907871,0.9663840525605498
-3.9645,0.3555296310754218,0.9345941373450475
-3.964,0.3341892813600565,0.8922075837243778
-3.9635,0.2594980573562781,0.7544512844572011
-3.963,-0.2846808603855366,0.13984625695749
-3.9625,-0.9889124009925911,-0.6760949002404023
-3.962,-1.575772018165136,-1.375473034981453
-3.9615,-1.799845690176472,-1.534422611058964
-3.961,-1.373038695869166,-1.121153713257435
-3.9605,-0.7114878546928423,-0.6443049850249
-3.96,-0.09261771294724913,-0.2628260024388724
-3.9595,0.3128489316446912,-0.07208651114585861
-3.959,0.5049120790829789,-0.05089323433552374
-3.9585,0.5475927785137094,-0.09327978795619347
-3.958,0.5369226036560266,-0.1356663415768632
-3.9575,0.6116138276598051,-0.008506680714854012
-3.957,0.6222840025174878,0.06566978812131802
-3.9565,0.5475927785137094,0.04447651131098315
-3.956,0.4622313796522482,0.01268659609548085
-3.9555,0.408880505363835,0.01268659609548085
-3.955,0.4408910299368829,0.1292496185523226
-3.9545,0.79300680024041,0.6484849004055269
-3.954,0.3875401556484697,0.6060983467848571
-3.9535,-0.4767440078238243,-0.1568596183871981
-3.953,-1.212986073003927,-0.8986243067489184
-3.9525,-1.501080794161358,-1.237716735714276
-3.952,-1.074273799854052,-0.8350444763179138
-3.9515,-0.5194247072545548,-0.2098428104130352
-3.951,-0.06060718837420119,0.3305857482505039
-3.9505,0.2274875327832301,0.7120647308365314
-3.95,0.3768699807907871,0.9134008605347127
-3.9495,0.4195506802215176,1.00877060618122
-3.949,0.408880505363835,1.029963882991555
-3.9485,0.3875401556484697,1.00877060618122
-3.948,0.3661998059331045,0.9663840525605498
-3.9475,0.3448594562177392,0.9134008605347127
-3.947,0.3235191065023739,0.8180311148882058
-3.9465,-0.04993701351651855,0.3729723018711736
-3.946,-0.7968492535543035,-0.4429688553267188
-3.9455,-1.501080794161358,-1.227120097309109
-3.945,-1.917217613610981,-1.714565463946811
-3.9445,-1.501080794161358,-1.502632695843462
-3.944,-0.7755089038389382,-0.9410108603695881
-3.9435,-0.1352984123779797,-0.4535654937318862
-3.943,0.2701682322139607,-0.1462629799820306
-3.9425,0.4835717293676135,-0.04029659593035631
-3.942,0.5369226036560266,-0.06148987274069118
-3.9415,0.5369226036560266,-0.1250697031716958
-3.941,0.5582629533713921,-0.1462629799820306
-3.9405,0.6009436528021226,-0.1780528951975329
-3.94,0.5475927785137094,-0.1886495336027004
-3.9395,0.4729015545099309,-0.1886495336027004
-3.939,0.408880505363835,-0.1462629799820306
-3.9385,0.3982103305061524,-0.06148987274069118
-3.938,0.707645401378949,0.3941655786815084
-3.9375,0.4942419042252961,0.5425185163538525
-3.937,-0.3593720843893152,-0.1144730647665284
-3.9365,-1.170305373573196,-0.792657922697244
-3.936,-1.725154466172693,-1.258910012524611
-3.9355,-1.415719395299897,-1.01518732920576
-3.935,-0.7861790786966207,-0.3899856633008816
-3.9345,-0.2313299860971235,0.2140227257936621
-3.934,0.142126133921769,0.6590815388106942
-3.9335,0.3448594562177392,0.92399749893988
-3.933,0.4195506802215176,1.051157159801889
-3.9325,0.4302208550792003,1.093543713422559
-3.932,0.408880505363835,1.072350436612224
-3.9315,0.3768699807907871,1.029963882991555
-3.931,0.3555296310754218,0.9663840525605498
-3.9305,0.3341892813600565,0.8922075837243778
-3.93,0.1527963087794516,0.6378882620003594
-3.9295,-0.5194247072545548,-0.1144730647665284
-3.929,-1.180975548430879,-0.9516074987747555
-3.9285,-1.607782542738184,-1.598002441489969
-3.928,-1.415719395299897,-1.608599079895136
-3.9275,-0.8181896032696687,-1.0999604364471
-3.927,-0.1993194615240755,-0.6019184314042303
-3.9265,0.2488278824985954,-0.3158091944647096
-3.926,0.4729015545099309,-0.2098428104130352
-3.9255,0.5369226036560266,-0.1780528951975329
-3.925,0.5155822539406614,-0.1568596183871981
-3.9245,0.5049120790829789,-0.1886495336027004
-3.924,0.6222840025174878,-0.2946159176543747
-3.9235,0.6116138276598051,-0.2628260024388724
-3.923,0.5369226036560266,-0.1674562567923655
-3.9225,0.4622313796522482,-0.05089323433552374
-3.922,0.408880505363835,0.05507314971615059
-3.9215,0.5475927785137094,0.3199891098453364
-3.921,0.7823366253827275,0.8816109453192104
-3.9205,0.1314559590640864,0.6166949851900245
-3.92,-0.754168554123573,-0.1780528951975329
-3.9195,-1.46907026958831,-0.9092209451540858
-3.919,-1.565101843307454,-1.131750351662602
-3.9185,-1.020922925565639,-0.7078848154559045
-3.918,-0.4340633083930936,-0.1356663415768632
-3.9175,0.01408403562957729,0.3411823866556712
-3.917,0.2808384070716433,0.6590815388106942
-3.9165,0.3982103305061524,0.8392243916985406
-3.916,0.4302208550792003,0.9134008605347127
-3.9155,0.4195506802215176,0.92399749893988
-3.915,0.3982103305061524,0.9134008605347127
-3.9145,0.3661998059331045,0.8710143069140429
-3.914,0.3448594562177392,0.8286277532933731
-3.9135,0.2701682322139607,0.7120647308365314
-3.913,-0.2526703358124887,0.1080563417419877
-3.9125,-0.8715404775580819,-0.7078848154559045
-3.912,-1.351698346153801,-1.417859588602123
-3.9115,-1.533091318734406,-1.725162102351978
-3.911,-1.148965023857831,-1.311893204550448
-3.9105,-0.5194247072545548,-0.718481453861072
-3.91,-0.007256314085787988,-0.2628260024388724
-3.9095,0.3128489316446912,0.03387987290581572
-3.909,0.4515612047945656,0.08686306493165288
-3.9085,0.4942419042252961,0.02328323450064829
-3.908,0.4942419042252961,-0.08268314955102604
-3.9075,0.5689331282290746,-0.2098428104130352
-3.907,0.5902734779444399,-0.2204394488182027
-3.9065,0.5369226036560266,-0.1356663415768632
-3.906,0.4622313796522482,-0.04029659593035631
-3.9055,0.408880505363835,0.06566978812131802
-3.905,0.4515612047945656,0.2246193641988295
-3.9045,0.825017324813458,0.7332580076468663
-3.904,0.4408910299368829,0.6378882620003594
-3.9035,-0.4447334832507763,-0.1462629799820306
-3.903,-1.212986073003927,-0.9198175835592532
-3.9025,-1.554431668449771,-1.322489842955616
-3.902,-1.148965023857831,-0.9622041371799229
-3.9015,-0.572775581542968,-0.3370024712750445
-3.901,-0.08194753808956648,0.2246193641988295
-3.9005,0.2168173579255475,0.6060983467848571
-3.9,0.3768699807907871,0.8180311148882058
-3.8995,0.4302208550792003,0.9134008605347127
-3.899,0.4302208550792003,0.9345941373450475
-3.8985,0.3982103305061524,0.92399749893988
-3.898,0.3768699807907871,0.8816109453192104
-3.8975,0.3555296310754218,0.8286277532933731
-3.897,0.3341892813600565,0.7544512844572011
-3.8965,-0.04993701351651855,0.3199891098453364
-3.896,-0.7968492535543035,-0.4853554089473885
-3.8955,-1.415719395299897,-1.258910012524611
-3.895,-1.714484291315011,-1.682775548731308
-3.8945,-1.287677297007705,-1.364876396576285
-3.894,-0.5514352318276028,-0.792657922697244
-3.8935,0.05676473506030786,-0.3475991096802118
-3.893,0.408880505363835,-0.1038764263613609
-3.8925,0.5475927785137094,-0.02969995752518888
-3.892,0.5796033030867573,-0.06148987274069118
-3.8915,0.5689331282290746,-0.08268314955102604
-3.891,0.5582629533713921,-0.1780528951975329
-3.8905,0.5689331282290746,-0.252229364033705
-3.89,0.5155822539406614,-0.1992461720078678
-3.8895,0.4515612047945656,-0.1038764263613609
-3.889,0.3982103305061524,0.002089957690313421
-3.8885,0.3875401556484697,0.1186529801471552
-3.888,0.6969752265212663,0.5637117931641874
-3.8875,0.7183155762366316,0.9557874141553824
