Class_8_Think_right_hand_movement/Class_8_Think_Right_hand_mouvement_UZ_1.csv

#Digilent WaveForms Oscilloscope Acquisition
#Device Name: EExplorer
#Serial Number: SN:210151A2B84A
#Date Time: 2020-11-17 10:38:03.109
#Sample rate: 2000Hz
#Samples: 16384
#Trigger: Source: Channel 1 Type: Edge Condition: Rising Level: 0 V Hyst.: Auto HoldOff: 0 s
#Channel 1: Range: 1 V/div Offset: 0 V Attenuation: 1 X
#Channel 2: Range: 1 V/div Offset: 0 V Attenuation: 1 X
#Power Supplies: ON
#Fixed Supply: ON
#Voltage: 3.3 V Readback: 3.322 V
#Positive Supply: ON
#Voltage: 3.7 V Readback: 3.721 V
#Current: 40 mA Readback: 21 mA
#Negative Supply: ON
#Voltage: -3.7 V Readback: -3.353 V
#Current: -40 mA Readback: -8 mA
#Reference 1: ON
#Voltage: 0 V
#Reference 2: ON
#Voltage: 0 V

Time (s),Channel 1 (V),Channel 2 (V)
-4.096,-0.07127736323188383,0.627291623595192
-4.0955,-0.1779791118086132,0.574308431569403
-4.095,-0.6794773301203572,0.0656697881207494
-4.0945,-1.298347471865388,-0.5595318777835605
-4.094,-1.501080794161173,-1.025783967610503
-4.0935,-1.565101843307318,-1.280103289334724
-4.093,-1.415719395299897,-1.036380606016095
-4.0925,-0.9675720512776332,-0.4005823017066272
-4.092,-0.5407650569696386,0.17163617217332
-4.0915,-0.2313299860971235,0.5319218779486851
-4.091,-0.07127736323188383,0.6484849004055269
-4.0905,-0.007256314085768579,0.6060983467847318
-4.09,0.01408403562957729,0.4683420475176805
-4.0895,-0.007256314085787988,0.2881991946298341
-4.089,-0.01792648894346092,0.09745970333699377
-4.0885,-0.02859666380115328,-0.05089323433552374
-4.088,-0.02859666380115328,-0.1886495336027004
-4.0875,-0.01792648894348033,-0.2840192792491205
-4.087,0.1741366584953701,-0.1250697031713585
-4.0865,0.7823366253827275,0.2458126410091644
-4.086,1.401206767127758,0.05507314971632404
-4.0855,1.753322537431654,-0.5701285161888822
-4.085,1.539919040278195,-0.7396747306714069
-4.0845,1.006410297394548,-0.6443049850249867
-4.084,0.483571729367303,-0.5277419625679234
-4.0835,0.142126133921769,-0.3793890248957141
-4.083,-0.04993701351651855,-0.2416327256285375
-4.0825,-0.1246282375203067,-0.1250697031715994
-4.082,-0.1352984123779797,-0.01910331912002144
-4.0815,-0.124628237520297,0.06566978812131802
-4.081,-0.2420001609546993,-0.01910331911994434
-4.0805,-0.3166913849585846,-0.02969995752518888
-4.08,-0.274010685527854,0.1080563417419877
-4.0795,-0.1993194615241435,0.2670059178193547
-4.079,-0.1673089369512217,0.3517790250604532
-4.0785,-0.3807124341046804,-0.07208651114585861
-4.078,-0.615456280973485,-0.7078848154553263
-4.0775,-0.6047861061159576,-1.227120097309408
-4.077,-0.5407650569699201,-1.555615887869299
-4.0765,-0.5834457564006117,-1.396666311791932
-4.076,-0.466073832965996,-0.7502713690760057
-4.0755,-0.3060212101009019,-0.1250697031716958
-4.075,-0.1673089369510276,0.2881991946298341
-4.0745,-0.08194753808952766,0.4789386859228671
-4.074,-0.03926683865883591,0.5001319627331828
-4.0735,-0.02859666380115328,0.4259554938970107
-4.073,-0.02859666380115328,0.2987958330351173
-4.0725,-0.03926683865883591,0.1610395337678249
-4.072,-0.03926683865883591,0.04447651131098315
-4.0715,-0.02859666380116298,-0.04029659593027921
-4.071,-0.02859666380114357,-0.1038764263614284
-4.0705,-0.01792648894347063,-0.1780528951975329
-4.07,0.1527963087792964,-0.008506680715008208
-4.0695,0.536922603656279,0.04447651131047236
-4.069,0.8143471499557753,-0.5171453241628908
-4.0685,0.8143471499557753,-0.7502713690765743
-4.068,0.5902734779441875,-0.6019184314040472
-4.0675,0.3128489316446912,-0.400582301706049
-4.067,0.1101156093487211,-0.2204394488182027
-4.0665,-0.01792648894351915,-0.09327978795611637
-4.066,-0.07127736323188383,-0.008506680714854012
-4.0655,-0.09261771294724913,0.06566978812131802
-4.065,-0.09261771294724913,0.1292496185522648
-4.0645,-0.1459685872356623,0.1186529801471552
-4.064,-0.2526703358124887,0.01268659609548085
-4.0635,-0.2420001609548158,0.06566978812126983
-4.063,-0.1886492866663541,0.1822328105782658
-4.0625,-0.1459685872356623,0.2987958330350016
-4.062,-0.1673089369510082,0.1292496185524768
-4.0615,-0.1673089369508626,-0.4641621321375644
-4.061,0.01408403562957729,-1.025783967610927
-4.0605,0.3021787567870086,-1.47084278062796
-4.06,0.2594980573560063,-1.746355379162033
-4.0595,-0.03926683865883591,-1.439052865412457
-4.059,-0.156638762093345,-0.7608680074817418
-4.0585,-0.1673089369510179,-0.1568596183877474
-4.058,-0.1352984123779797,0.2246193641988295
-4.0575,-0.1032878878049318,0.383568940276341
-4.057,-0.07127736323191294,0.4047622170866566
-4.0565,-0.06060718837420119,0.3411823866556712
-4.056,-0.04993701351651855,0.2352160026039969
-4.0555,-0.04993701351651855,0.129249618552419
-4.055,-0.03926683865882621,0.04447651131093496
-4.0545,-0.02859666380115328,-0.008506680714854012
-4.054,0.03542438534488435,0.05507314971609276
-4.0535,0.5155822539412145,0.4789386859232045
-4.053,1.123782220828572,0.8710143069140429
-4.0525,1.475897991132099,0.309392471440169
-4.052,1.550589215135499,-0.3793890248958394
-4.0515,1.134452395686255,-0.5171453241628908
-4.051,0.6222840025174878,-0.4429688553267188
-4.0505,0.2381577076412622,-0.2946159176545096
-4.05,0.01408403562957729,-0.1462629799820306
-4.0495,-0.1032878878049318,-0.04029659593035631
-4.049,-0.1246282375202776,0.06566978812122164
-4.0485,-0.124628237520297,0.1610395337678731
-4.048,-0.124628237520297,0.2140227257936621
-4.0475,-0.2099896363816805,0.1398462569575575
-4.047,-0.220659811239402,0.161039533767902
-4.0465,-0.1779791118087102,0.2458126410091644
-4.046,-0.1352984123780185,0.3517790250607423
-4.0455,-0.1352984123782805,0.3199891098448449
-4.045,-0.4660738329661415,-0.2204394488182027
-4.0445,-0.8608703027003992,-0.8986243067489184
-4.044,-0.8928808272733211,-1.407262950197032
-4.0435,-0.754168554123573,-1.492036057438295
-4.043,-0.9782422261349084,-1.460246142222792
-4.0425,-0.9035510021311979,-0.9833974139906916
-4.042,-0.6261264558313813,-0.3687923864905467
-4.0415,-0.3593720843893152,0.07626642652648545
-4.041,-0.1673089369512023,0.3199891098451147
-4.0405,-0.06060718837417207,0.3835689402762928
-4.04,-0.02859666380115328,0.3305857482505039
-4.0395,-0.01792648894348033,0.2352160026040837
-4.039,-0.02859666380115328,0.1186529801470684
-4.0385,-0.02859666380115328,0.02328323450064829
-4.038,-0.01792648894348033,-0.01910331911998289
-4.0375,-0.01792648894335417,-0.07208651114581043
-4.037,0.1101156093487211,-0.01910331912002144
-4.0365,0.7396559259519968,0.1292496185523226
-4.036,1.20914361969012,-0.2522293640342543
-4.0355,1.305175193409177,-0.8562377531282487
-4.035,1.081101521397841,-0.8668343915334161
-4.0345,0.6649647019485968,-0.5807251545941556
-4.034,0.3021787567870086,-0.3052125560595421
-4.0335,0.0674349099179905,-0.09327978795619347
-4.033,-0.06060718837408474,0.03387987290570006
-4.0325,-0.1032878878049415,0.1080563417420456
-4.032,-0.1139580626626144,0.1716361721729923
-4.0315,-0.1032878878049415,0.2140227257936235
-4.031,-0.1779791118087685,0.1398462569574226
-4.0305,-0.2420001609548061,0.06566978812131802
-4.03,-0.2099896363817873,0.1292496185522648
-4.0295,-0.1673089369509985,0.2140227257937392
-4.029,-0.1352984123779797,0.2987958330350016
-4.0285,-0.4447334832507763,-0.02969995752518888
-4.028,-1.15963519871596,-0.7078848154564539
-4.0275,-1.650463242168915,-1.311893204550448
-4.027,-1.565101843307454,-1.703968825541643
-4.0265,-1.522421143876762,-1.799338571188063
-4.026,-1.170305373573196,-1.237716735714276
-4.0255,-0.7114878546928423,-0.5383386009732256
-4.025,-0.3593720843896354,-0.01910331912049368
-4.0245,-0.1246282375202097,0.2881991946299209
-4.024,-0.02859666380115328,0.383568940276341
-4.0235,0.003413860771865534,0.3623756634660254
-4.023,0.003413860771875241,0.2881991946297378
-4.0225,-0.01792648894347063,0.1822328105781598
-4.022,-0.02859666380114357,0.09745970333689742
-4.0215,-0.02859666380114357,0.03387987290579644
-4.021,-0.01792648894347063,0.01268659609548085
-4.0205,0.04609456020262521,0.03387987290581572
-4.02,0.5582629533719259,0.4895353243284105
-4.0195,1.145122570543937,0.92399749893988
-4.019,1.422547116843686,0.4153588554918433
-4.0185,1.422547116843686,-0.1250697031712043
-4.018,1.038420821967111,-0.2310360872233701
-4.0175,0.5796033030867573,-0.1992461720078678
-4.017,0.2274875327835503,-0.1250697031717632
-4.0165,0.01408403562948025,-0.01910331911993471
-4.016,-0.09261771294724913,0.07626642652648545
-4.0155,-0.113958062662595,0.1716361721729056
-4.015,-0.1139580626626532,0.2564092794143318
-4.0145,-0.156638762093345,0.2564092794143318
-4.014,-0.2953510352430931,0.1398462569575961
-4.0135,-0.2953510352431611,0.1928294489834332
-4.013,-0.2313299860971235,0.309392471440169
-4.0125,-0.156638762093345,0.4365521323021782
-4.012,-0.2633405106707051,0.351779025060299
-4.0115,-0.8502001278427167,-0.2416327256285375
-4.011,-1.26633694729234,-0.9304142219644207
-4.0105,-1.180975548430956,-1.439052865411995
-4.01,-1.095614149569417,-1.714565463946811
-4.0095,-1.1062843244271,-1.534422611058964
-4.009,-0.8181896032699307,-0.8880276683443388
-4.0085,-0.4980843575389566,-0.2734226408436736
-4.008,-0.2420001609548061,0.1292496185523226
-4.0075,-0.09261771294738499,0.3093924714400051
-4.007,-0.02859666380113387,0.3199891098452786
-4.0065,-0.007256314085787988,0.2564092794143318
-4.006,-0.007256314085787988,0.13984625695749
-4.0055,-0.01792648894348033,0.03387987290572898
-4.005,-0.02859666380115328,-0.06148987274069118
-4.0045,-0.02859666380115328,-0.1250697031716958
-4.004,-0.007256314085516262,-0.1568596183869282
-4.0035,0.291508581929326,0.13984625695749
-4.003,0.9530594231056497,0.7650479228623686
-4.0025,1.507908515704643,0.6590815388107906
-4.002,1.806673411720261,-0.07208651114585861
-4.0015,1.51857869056283,-0.4111789401112165
-4.001,0.9637295979638371,-0.4217755785163743
-4.0005,0.4622313796519474,-0.3052125560593976
-4,0.1314559590640864,-0.1462629799820306
-3.9995,-0.03926683865883591,-0.008506680714854012
-3.999,-0.1139580626626144,0.1186529801471552
-3.9985,-0.124628237520297,0.2246193641988295
-3.998,-0.124628237520297,0.309392471440169
-3.9975,-0.1993194615240755,0.2352160026039969
-3.997,-0.2099896363817582,0.2564092794143318
-3.9965,-0.1673089369510276,0.3517790250608387
-3.996,-0.124628237520297,0.457745409112513
-3.9955,-0.1459685872356623,0.4683420475176805
-3.995,-0.5941159312583333,-0.02969995752518888
-3.9945,-1.095614149569417,-0.7078848154559045
-3.994,-0.9889124009925911,-1.269506650929778
-3.9935,-0.7328282044082075,-1.566212526274467
-3.993,-0.5941159312583333,-1.301296566145281
-3.9925,-0.3807124341046804,-0.6549016234300674
-3.992,-0.2099896363817582,-0.1038764263613609
-3.9915,-0.1032878878049318,0.2458126410091644
-3.991,-0.03926683865883591,0.383568940276341
-3.9905,-0.02859666380115328,0.3729723018711736
-3.99,-0.01792648894347063,0.2881991946298341
-3.9895,-0.02859666380115328,0.1610395337678249
-3.989,-0.03926683865883591,0.04447651131098315
-3.9885,-0.03926683865883591,-0.05089323433552374
-3.988,-0.02859666380115328,-0.1144730647665284
-3.9875,-0.01792648894347063,-0.1356663415768632
-3.987,0.2061471830678648,0.09745970333682032
-3.9865,0.9210488985326017,0.7438546460520338
-3.986,1.369196242555273,1.061753798207057
-3.9855,1.305175193409177,0.4471487707073456
-3.985,1.038420821967111,0.02328323450064829
-3.9845,0.6436243522328531,-0.1356663415768632
-3.984,0.291508581929326,-0.1992461720078678
-3.9835,0.0674349099179905,-0.1674562567923655
-3.983,-0.04993701351651855,-0.08268314955102604
-3.9825,-0.1032878878049318,0.02328323450064829
-3.982,-0.1032878878049318,0.1504428953626575
-3.9815,-0.09261771294724913,0.2670059178194992
-3.981,-0.1032878878049318,0.3517790250608387
-3.9805,-0.1032878878049318,0.4259554938970107
-3.98,-0.1032878878049318,0.5107286011383502
-3.9795,-0.08194753808956648,0.6060983467848571
-3.979,-0.08194753808956648,0.6484849004055269
-3.9785,-0.3273615598162672,0.3411823866556712
-3.978,-0.7755089038389382,-0.2946159176543747
-3.9775,-0.8608703027003992,-0.9198175835592532
-3.977,-0.6367966306890638,-1.354279758171118
-3.9765,-0.5941159312583333,-1.42845622700729
-3.976,-0.4660738329661415,-0.8986243067489184
-3.9755,-0.3060212101009019,-0.2840192792492073
-3.975,-0.1673089369510276,0.1716361721729923
-3.9745,-0.08194753808956648,0.383568940276341
-3.974,-0.03926683865883591,0.4153588554918433
-3.9735,-0.02859666380115328,0.3305857482505039
-3.973,-0.02859666380115328,0.1928294489833272
-3.9725,-0.03926683865883591,0.04447651131098315
-3.972,-0.03926683865883591,-0.08268314955102604
-3.9715,-0.02859666380115328,-0.1674562567923655
-3.971,-0.01792648894347063,-0.2310360872233701
-3.9705,0.03542438534494258,-0.2098428104130352
-3.97,0.5262524287983441,0.2458126410091644
-3.9695,1.123782220828572,0.701468092431364
-3.969,1.593269914566608,0.2352160026039969
-3.9685,1.76399271228953,-0.4217755785163839
-3.968,1.347855892839907,-0.570128516188728
-3.9675,0.7716664505250448,-0.4853554089473885
-3.967,0.3235191065023739,-0.3052125560595421
-3.9665,0.04609456020262521,-0.1250697031716958
-3.966,-0.08194753808956648,0.03387987290581572
-3.9655,-0.124628237520297,0.1610395337678249
-3.965,-0.124628237520297,0.2776025562246667
-3.9645,-0.156638762093345,0.2987958330350016
-3.964,-0.2953510352432193,0.13984625695749
-3.9635,-0.2953510352432193,0.1716361721729923
-3.963,-0.2313299860971235,0.2881991946298341
-3.9625,-0.1673089369510276,0.4153588554918433
-3.962,-0.2313299860971235,0.3305857482505039
-3.9615,-0.6688071552621118,-0.252229364033705
-3.961,-0.8608703027003992,-0.8880276683437509
-3.9605,-0.6367966306890638,-1.396666311791788
-3.96,-0.4340633083930936,-1.640388995110639
-3.9595,-0.3487019095316325,-1.227120097309109
-3.959,-0.2313299860971235,-0.570128516188728
-3.9585,-0.1352984123779797,-0.01910331912002144
-3.958,-0.07127736323188383,0.2881991946298341
-3.9575,-0.04993701351651855,0.3941655786815084
-3.957,-0.03926683865883591,0.3729723018711736
-3.9565,-0.03926683865883591,0.2776025562246667
-3.956,-0.04993701351651855,0.1504428953626575
-3.9555,-0.04993701351651855,0.03387987290581572
-3.955,-0.03926683865883591,-0.05089323433552374
-3.9545,-0.02859666380115328,-0.1144730647665284
-3.954,0.00341386077189465,-0.1250697031716958
-3.9535,0.4195506802215176,0.2458126410091644
-3.953,1.177133095116985,0.9134008605347127
-3.9525,1.710641838001117,0.9663840525605498
-3.952,2.009406734016231,0.2034260873884947
-3.9515,1.7213120128588,-0.2734226408440398
-3.951,1.102441871113207,-0.3687923864905467
-3.9505,0.5262524287983441,-0.2840192792492073
-3.95,0.1527963087794516,-0.1356663415768632
-3.9495,-0.04993701351651855,0.02328323450064829
-3.949,-0.1352984123779797,0.1610395337678249
-3.9485,-0.1459685872356623,0.2776025562246667
-3.948,-0.1352984123779797,0.3623756634660061
-3.9475,-0.2420001609548061,0.2670059178194992
-3.947,-0.274010685527854,0.2564092794143318
-3.9465,-0.2206598112394408,0.3517790250608387
-3.946,-0.1673089369510276,0.457745409112513
-3.9455,-0.1459685872356623,0.4683420475176805
-3.945,-0.3380317346739499,-0.04029659593035631
-3.9445,-0.5407650569699201,-0.7290780922662394
-3.944,-0.4874141826815069,-1.301296566145281
-3.9435,-0.3060212101009019,-1.608599079895136
-3.943,-0.5087545323968721,-1.640388995110639
-3.9425,-0.5407650569699201,-1.089363798041932
-3.942,-0.4127229586777283,-0.4535654937318862
-3.9415,-0.2526703358124887,0.01268659609548085
-3.941,-0.1459685872356623,0.2564092794143318
-3.9405,-0.08194753808956648,0.309392471440169
-3.94,-0.04993701351651855,0.2564092794143318
-3.9395,-0.03926683865883591,0.1504428953626575
-3.939,-0.03926683865883591,0.03387987290581572
-3.9385,-0.04993701351651855,-0.07208651114585861
-3.938,-0.03926683865883591,-0.1462629799820306
-3.9375,-0.02859666380115328,-0.1886495336027004
-3.937,0.1848068333524996,0.02328323450064829
-3.9365,0.8036769750980928,0.6484849004055269
-3.936,1.283834843693812,0.7226613692416989
-3.9355,1.625280439139656,-0.008506680714854012
-3.935,1.539919040278195,-0.400582301706049
-3.9345,1.059761171682476,-0.400582301706049
-3.934,0.5475927785137094,-0.2840192792492073
-3.9335,0.1848068333524996,-0.1250697031716958
-3.933,-0.01792648894347063,0.03387987290581572
-3.9325,-0.1139580626626144,0.1610395337678249
-3.932,-0.1352984123779797,0.2670059178194992
-3.9315,-0.124628237520297,0.3517790250608387
-3.931,-0.1673089369510276,0.3411823866556712
-3.9305,-0.2313299860971235,0.2776025562246667
-3.93,-0.2099896363817582,0.3411823866556712
-3.9295,-0.1779791118087102,0.4259554938970107
-3.929,-0.1352984123779797,0.4895353243280153
-3.9285,-0.1352984123779797,0.1610395337678249
-3.928,-0.07127736323188383,-0.5277419625680583
-3.9275,0.1848068333524996,-1.174136905283272
-3.927,0.4835717293676135,-1.650985633515806
-3.9265,0.3021787567870086,-1.831128486403653
-3.926,0.04609456020262521,-1.301296566145281
-3.9255,-0.08194753808956648,-0.6125150698093976
-3.925,-0.124628237520297,-0.09327978795619347
-3.9245,-0.124628237520297,0.2034260873884947
-3.924,-0.1032878878049318,0.2881991946298341
-3.9235,-0.09261771294724913,0.2670059178194992
-3.923,-0.07127736323188383,0.1716361721729923
-3.9225,-0.07127736323188383,0.05507314971615059
-3.922,-0.06060718837420119,-0.04029659593035631
-3.9215,-0.06060718837420119,-0.1038764263613609
-3.921,-0.03926683865883591,-0.1356663415768632
-3.9205,0.00341386077189465,-0.1144730647665284
-3.92,0.3875401556484697,0.309392471440169
-3.9195,0.8356874996711408,0.5955017083796896
-3.919,1.049090996824793,0.002089957690313421
-3.9185,1.113112045970889,-0.6443049850249
-3.918,0.857027849386506,-0.7078848154559045
-3.9175,0.4835717293676135,-0.474758770542221
-3.917,0.1741366584948169,-0.1886495336027004
-3.9165,0.00341386077189465,0.06566978812131802
-3.916,-0.09261771294724913,0.2352160026039969
-3.9155,-0.124628237520297,0.3411823866556712
-3.915,-0.1139580626626144,0.4153588554918433
-3.9145,-0.1459685872356623,0.4259554938970107
-3.914,-0.2953510352432193,0.2458126410091644
-3.9135,-0.3060212101009019,0.2352160026039969
-3.913,-0.2420001609548061,0.3199891098453364
-3.9125,-0.1779791118087102,0.4047622170866759
-3.912,-0.1779791118087102,0.3199891098453364
-3.9115,-0.2313299860971235,-0.2310360872233701
-3.911,-0.156638762093345,-0.9304142219644207
-3.9105,0.04609456020262521,-1.439052865412457
-3.91,0.07810508477567314,-1.852321763213987
-3.9095,-0.2846808603855366,-1.852321763213987
-3.909,-0.391382608962363,-1.195330182093607
-3.9085,-0.3380317346739499,-0.5595318777835605
-3.908,-0.2420001609548061,-0.1038764263613609
-3.9075,-0.1459685872356623,0.1292496185523226
-3.907,-0.09261771294724913,0.1928294489833272
-3.9065,-0.07127736323188383,0.1610395337678249
-3.906,-0.06060718837420119,0.08686306493165288
-3.9055,-0.06060718837420119,0.01268659609548085
-3.905,-0.04993701351651855,-0.04029659593035631
-3.9045,-0.02859666380115328,-0.02969995752518888
-3.904,0.01408403562957729,0.05507314971615059
-3.9035,0.2274875327832301,0.2881991946298341
-3.903,0.8997085488172365,0.9028042221295453
-3.9025,1.571929564851243,1.135930267043229
-3.902,1.881364635724039,0.5319218779486851
-3.9015,1.550589215135878,0.09745970333682032
-3.901,0.9530594231056497,-0.1144730647665284
-3.9005,0.4195506802215176,-0.1568596183871981
-3.9,0.08877525963335578,-0.1038764263613609
-3.8995,-0.08194753808956648,0.002089957690313421
-3.899,-0.156638762093345,0.1186529801471552
-3.8985,-0.156638762093345,0.2458126410091644
-3.898,-0.1352984123779797,0.3623756634660061
-3.8975,-0.2420001609548061,0.3729723018711736
-3.897,-0.2953510352432193,0.3941655786815084
-3.8965,-0.2526703358124887,0.4895353243280153
-3.896,-0.1886492866663929,0.5955017083796896
-3.8955,-0.156638762093345,0.6484849004055269
-3.895,-0.4020527838200457,0.2564092794143318
-3.8945,-0.7755089038389382,-0.3475991096802118
-3.894,-0.7114878546928423,-0.8774310299385835
-3.8935,-0.5300948821122373,-1.248313374119443
-3.893,-0.690147504977477,-1.333086481360783
-3.8925,-0.6154562809736985,-0.8668343915334161
-3.892,-0.4447334832507763,-0.2946159176543747
-3.8915,-0.2633405106701714,0.1080563417419877
-3.891,-0.1459685872356623,0.309392471440169
-3.8905,-0.08194753808956648,0.3305857482505039
