Class_4_Move_right_hand_Horiszontal/Class_4_Move_right_hand_horizontal_Basim_11.csv

#Digilent WaveForms Oscilloscope Acquisition
#Device Name: EExplorer
#Serial Number: SN:210151A2B84A
#Date Time: 2021-02-03 11:04:21.068
#Sample rate: 2000Hz
#Samples: 16384
#Trigger: Source: Channel 1 Type: Edge Condition: Rising Level: 0 V Hyst.: Auto HoldOff: 0 s
#Channel 1: Range: 1 V/div Offset: 0 V Attenuation: 1 X
#Channel 2: Range: 1 V/div Offset: 0 V Attenuation: 1 X
#Power Supplies: ON
#Fixed Supply: ON
#Voltage: 3.3 V Readback: 3.323 V
#Positive Supply: ON
#Voltage: 3.7 V Readback: 3.708 V
#Current: 40 mA Readback: 18 mA
#Negative Supply: ON
#Voltage: -3.7 V Readback: -3.353 V
#Current: -40 mA Readback: -7 mA
#Reference 1: ON
#Voltage: 0 V
#Reference 2: ON
#Voltage: 0 V

Time (s),Channel 1 (V),Channel 2 (V)
-4.096,0.3021787567870086,0.01268659609548085
-4.0955,0.4302208550790839,0.3729723018708459
-4.095,0.4729015545099114,0.6166949851901402
-4.0945,0.4515612047945656,0.7438546460520338
-4.094,0.4088805053638738,0.733258007646876
-4.0935,0.5582629533714989,0.8180311148882154
-4.093,0.6756348768059011,0.8286277532933731
-4.0925,0.6116138276598633,0.6060983467850595
-4.092,0.4942419042251894,0.3517790250606363
-4.0915,0.3768699807907871,0.1292496185523226
-4.091,0.3021787567870086,-0.01910331912002144
-4.0905,0.04609456020203324,0.1504428953627346
-4.09,-0.6047861061160158,0.2352160026039969
-4.0895,-0.9355615267041777,-0.3687923864905467
-4.089,-1.05293345013858,-0.7078848154555961
-4.0885,-1.298347471865388,-0.1250697031716958
-4.088,-1.074273799854052,0.2670059178194992
-4.0875,-0.6047861061164428,0.2670059178194992
-4.087,-0.1779791118084482,0.1504428953625707
-4.0865,0.1101156093487211,0.05507314971615059
-4.086,0.2594980573561422,0.0232832345006772
-4.0855,0.3235191065023739,0.04447651131104098
-4.085,0.3235191065023739,0.1080563417419877
-4.0845,0.312848931644701,0.2034260873884079
-4.084,0.2915085819293163,0.2987958330350979
-4.0835,0.2808384070716433,0.4047622170866759
-4.083,0.2701682322139607,0.5001319627331828
-4.0825,0.2274875327828614,0.5213252395431225
-4.082,-0.1779791118087102,0.08686306493165288
-4.0815,-0.5834457564006506,-0.5171453241628908
-4.081,-0.7648387289810905,-0.9939940523949915
-4.0805,-0.4340633083930936,-1.163540266878104
-4.08,0.05676473506030786,-0.8774310299385835
-4.0795,0.3875401556481689,-0.3475991096806936
-4.079,0.5155822539406808,0.1822328105785067
-4.0785,0.5369226036560266,0.5637117931641874
-4.078,0.4942419042253349,0.7756445612673433
-4.0775,0.4302208550792003,0.807434476483019
-4.077,0.4302208550792003,0.7862411996727035
-4.0765,0.5049120790829109,0.7650479228623879
-4.076,0.4835717293675553,0.606098346784674
-4.0755,0.4195506802215176,0.4047622170866759
-4.075,0.3448594562177392,0.2246193641988295
-4.0745,0.302178756786931,0.08686306493162398
-4.074,0.2168173579255475,0.05507314971615059
-4.0735,-0.274010685527854,0.1822328105781598
-4.073,-0.8075194284115007,-0.3158091944642566
-4.0725,-1.148965023857831,-1.036380606016095
-4.072,-1.447729919872945,-1.629792356705471
-4.0715,-1.223656247861813,-1.523825972653893
-4.071,-0.7114878546924056,-0.941010860369087
-4.0705,-0.2313299860971235,-0.3899856633008816
-4.07,0.08877525963306465,-0.008506680715200943
-4.0695,0.2594980573563363,0.1928294489834043
-4.069,0.3235191065023739,0.2776025562246667
-4.0685,0.3341892813600565,0.2881991946298341
-4.068,0.3128489316446718,0.2670059178194703
-4.0675,0.291508581929326,0.2352160026039969
-4.067,0.2808384070716433,0.2034260873884947
-4.0665,0.2701682322139607,0.1822328105781405
-4.066,0.2701682322139607,0.1610395337678249
-4.0655,0.02475421048725994,-0.2098428104130352
-4.065,-0.3807124341043117,-0.8774310299379763
-4.0645,-0.5941159312583333,-1.47084278062796
-4.064,-0.6474668055467465,-1.873515040024322
-4.0635,-0.3166913849588854,-1.513229334248957
-4.063,0.06743490991823312,-0.8350444763173356
-4.0625,0.3341892813600565,-0.1992461720078678
-4.062,0.4622313796521317,0.2458126410087596
-4.0615,0.4835717293675844,0.4789386859229346
-4.061,0.4515612047945656,0.5743084315693548
-4.0605,0.4302208550792003,0.6484849004055269
-4.06,0.5475927785137288,0.7862411996726649
-4.0595,0.5689331282290746,0.7438546460520338
-4.059,0.4942419042252961,0.5637117931641874
-4.0585,0.3982103305062398,0.3835689402765049
-4.058,0.3235191065023739,0.2458126410091644
-4.0575,0.2701682322139607,0.1716361721729923
-4.057,-0.124628237519938,0.3835689402761483
-4.0565,-0.8928808272734472,0.07626642652648545
-4.056,-1.501080794161358,-0.6443049850249
-4.0555,-1.863866739322238,-0.6443049850249
-4.055,-1.746494815887467,-0.04029659593014429
-4.0545,-1.095614149569417,0.1928294489833272
-4.054,-0.4767440078243872,0.2140227257936428
-4.0535,-0.02859666380093007,0.1610395337677864
-4.053,0.2168173579255475,0.1186529801471552
-4.0525,0.3341892813600565,0.1186529801471552
-4.052,0.3555296310754121,0.1610395337678827
-4.0515,0.3448594562177392,0.2246193641988295
-4.051,0.3128489316446912,0.2987958330350016
-4.0505,0.2915085819293454,0.3729723018711061
-4.05,0.2808384070716433,0.4471487707073456
-4.0495,0.2701682322139607,0.5107286011383502
-4.049,0.1848068333525772,0.4259554938970878
-4.0485,-0.2846808603857987,-0.1250697031721777
-4.048,-0.572775581542968,-0.6549016234300674
-4.0475,-0.7008176798350433,-0.9728007755848013
-4.047,-0.4767440078234555,-0.7820612842917007
-4.0465,-0.07127736323188383,-0.3687923864905467
-4.046,0.2274875327829584,0.1186529801467119
-4.0455,0.3982103305061912,0.457745409112648
-4.045,0.4408910299368829,0.6060983467848571
-4.0445,0.4408910299368829,0.6484849004055269
-4.044,0.4195506802216244,0.6590815388104821
-4.0435,0.5369226036560266,0.4259554938970107
-4.043,0.6863050516635838,0.07626642652648545
-4.0425,0.622284002517546,-0.01910331911993471
-4.042,0.5049120790829789,-0.008506680714854012
-4.0415,0.3982103305061524,0.02328323450064829
-4.041,0.3128489316447689,0.03387987290580608
-4.0405,0.09944543449057262,0.1610395337676996
-4.04,-0.4127229586777283,0.02328323450064829
-4.0395,-0.6581369804042059,-0.6443049850242928
-4.039,-0.8395299529853056,-1.004590690800043
-4.0385,-1.138294849000148,-0.400582301706049
-4.038,-0.9569018764197081,0.02328323450026276
-4.0375,-0.5300948821118879,0.09745970333675286
-4.037,-0.1459685872356623,0.02328323450064829
-4.0365,0.1207857842064037,-0.05089323433552374
-4.036,0.2594980573563266,-0.0932797879561742
-4.0355,0.3128489316446912,-0.07208651114585861
-4.035,0.3235191065023739,-0.01910331912002144
-4.0345,0.312848931644701,0.06566978812124091
-4.034,0.291508581929326,0.1610395337678249
-4.0335,0.2808384070716433,0.2670059178194992
-4.033,0.2701682322139704,0.3623756634659194
-4.0325,0.2488278824982072,0.4047622170863
-4.032,-0.1779791118087102,-0.008506680714854012
-4.0315,-0.7755089038383949,-0.6443049850243218
-4.031,-1.010252750707772,-1.131750351662766
-4.0305,-0.807519428411986,-1.311893204550448
-4.03,-0.2953510352436852,-0.9728007755853988
-4.0295,0.1207857842066269,-0.3687923864899877
-4.029,0.3661998059331045,0.2458126410091644
-4.0285,0.4622313796522482,0.6484849004055269
-4.028,0.4729015545099018,0.8816109453192489
-4.0275,0.4408910299368829,0.92399749893988
-4.027,0.4622313796522482,0.9345941373450475
-4.0265,0.675634876805707,1.029963882991468
-4.026,0.6756348768059011,0.849821030103708
-4.0255,0.5582629533713921,0.5637117931641874
-4.025,0.4302208550793168,0.2987958330352425
-4.0245,0.3448594562176421,0.09745970333676249
-4.024,0.2381577076409128,0.03387987290581572
-4.0235,-0.2633405106697153,0.2987958330347606
-4.023,-0.8715404775582469,-0.06148987274127907
-4.0225,-1.052933450138687,-0.7078848154559045
-4.022,-0.8181896032698822,-0.8668343915332716
-4.0215,-0.4233931335350907,-0.6337083466194434
-4.021,-0.07127736323188383,-0.3158091944647096
-4.0205,0.1527963087794516,-0.05089323433552374
-4.02,0.2701682322139995,0.1080563417420745
-4.0195,0.3128489316446912,0.2034260873884947
-4.019,0.3235191065023739,0.2458126410091644
-4.0185,0.302178756787028,0.26700591781948
-4.018,0.291508581929326,0.2776025562246667
-4.0175,0.2808384070716433,0.2881991946298341
-4.017,0.2701682322139704,0.2987958330349919
-4.0165,0.2594980573562878,0.3093924714401786
-4.016,0.2701682322139607,0.3199891098453364
-4.0155,0.1314559590642125,0.08686306493186491
-4.015,-0.2740106855280093,-0.5595318777840328
-4.0145,-0.4447334832507763,-1.078767159636765
-4.014,-0.327361559816374,-1.513229334248234
-4.0135,0.1954770082105024,-1.640388995110224
-4.013,0.5475927785137094,-1.184733543688439
-4.0125,0.6542945270905358,-0.5171453241628908
-4.012,0.6222840025174199,0.04447651131132047
-4.0115,0.5475927785137094,0.4153588554918433
-4.011,0.4622313796522482,0.5743084315693548
-4.0105,0.4088805053638835,0.6484849004054594
-4.01,0.4622313796522482,0.7332580076468663
-4.0095,0.4729015545099309,0.6696781772158616
-4.009,0.4195506802215662,0.5107286011384947
-4.0085,0.355529631075383,0.341182386655546
-4.008,0.3128489316446912,0.2034260873884947
-4.0075,0.2701682322139995,0.1398462569575479
-4.007,-0.06060718837468641,0.3729723018710386
-4.0065,-0.5941159312583333,0.2246193641988295
-4.006,-0.7434983792658902,-0.474758770542221
-4.0055,-0.9675720512773421,-1.142346990067789
-4.005,-1.095614149569417,-1.163540266878104
-4.0045,-0.7755089038389382,-0.7290780922662394
-4.004,-0.3593720843890046,-0.2946159176540856
-4.0035,-0.01792648894347063,0.02328323450064829
-4.003,0.1848068333524996,0.2352160026039969
-4.0025,0.2808384070715559,0.3411823866555749
-4.002,0.3128489316446912,0.3941655786815084
-4.0015,0.3128489316446912,0.4259554938970107
-4.001,0.3021787567870183,0.4365521323021685
-4.0005,0.2808384070716336,0.4365521323021878
-4,0.2701682322139607,0.4471487707073456
-3.9995,0.2701682322139607,0.4471487707073456
-3.999,0.1848068333524996,0.2987958330350016
-3.9985,-0.2526703358124887,-0.326405832869877
-3.998,-0.4980843575391895,-0.9092209451540858
-3.9975,-0.6474668055467465,-1.407262950196955
-3.997,-0.4980843575391895,-1.523825972653797
-3.9965,-0.124628237520297,-1.078767159636765
-3.996,0.1848068333524996,-0.4535654937318862
-3.9955,0.3661998059331045,0.03387987290581572
-3.995,0.4302208550792003,0.309392471440169
-3.9945,0.4302208550792003,0.4365521323021782
-3.994,0.408880505363835,0.5001319627331828
-3.9935,0.4942419042252961,0.627291623595192
-3.993,0.6649647019482183,0.7968378380778709
-3.9925,0.6222840025174878,0.6696781772158616
-3.992,0.5049120790829789,0.4683420475176805
-3.9915,0.3875401556484697,0.2776025562246667
-3.991,0.3128489316446912,0.1504428953626575
-3.9905,0.1527963087794516,0.2246193641988295
-3.99,-0.4660738329661415,0.4047622170866759
-3.9895,-0.9675720512772257,-0.1568596183871981
-3.989,-1.095614149569417,-0.8668343915334161
-3.9885,-1.084943974711735,-1.174136905283272
-3.988,-0.7114878546928423,-0.8774310299385835
-3.9875,-0.2846808603855366,-0.4217755785163839
-3.987,0.02475421048725994,-0.01910331912002144
-3.9865,0.2168173579255475,0.2458126410091644
-3.986,0.3021787567870086,0.3941655786815084
-3.9855,0.3235191065023739,0.457745409112513
-3.985,0.3128489316446912,0.4789386859228479
-3.9845,0.291508581929326,0.4789386859228479
-3.984,0.2808384070716433,0.457745409112513
-3.9835,0.2701682322139607,0.4365521323021782
-3.983,0.2594980573562781,0.4153588554918433
-3.9825,0.2488278824985954,0.383568940276341
-3.982,-0.03926683865883591,-0.02969995752518888
-3.9815,-0.3700422592469978,-0.6760949002404023
-3.981,-0.5087545323968721,-1.174136905283272
-3.9805,-0.3487019095316325,-1.152943628472937
-3.98,0.05676473506030786,-0.8986243067489184
-3.9795,0.3555296310754218,-0.6125150698093976
-3.979,0.5049120790829789,-0.2840192792492073
-3.9785,0.5155822539406614,-0.02969995752518888
-3.978,0.4835717293676135,0.09745970333682032
-3.9775,0.4302208550792003,0.1504428953626575
-3.977,0.4195506802215176,0.2140227257936621
-3.9765,0.5475927785137094,0.4153588554918433
-3.976,0.5582629533713921,0.4259554938970107
-3.9755,0.4835717293676135,0.3411823866556712
-3.975,0.3875401556484697,0.2564092794143318
-3.9745,0.3235191065023739,0.2034260873884947
-3.974,0.2274875327832301,0.1822328105781598
-3.9735,-0.274010685527854,-0.07208651114585861
-3.973,-0.690147504977477,-0.7078848154559045
-3.9725,-0.7755089038389382,-1.174136905283272
-3.972,-1.052933450138687,-0.6972881770507372
-3.9715,-1.116954499284783,0.07626642652648545
-3.971,-0.754168554123573,0.3623756634660061
-3.9705,-0.3273615598162672,0.3941655786815084
-3.97,0.00341386077189465,0.3411823866556712
-3.9695,0.1954770082101822,0.2987958330350016
-3.969,0.291508581929326,0.2987958330350016
-3.9685,0.3128489316446912,0.3305857482505039
-3.968,0.3128489316446912,0.3941655786815084
-3.9675,0.291508581929326,0.457745409112513
-3.967,0.2808384070716433,0.5213252395435176
-3.9665,0.2701682322139607,0.5849050699745222
-3.966,0.2594980573562781,0.627291623595192
-3.9655,0.0674349099179905,0.383568940276341
-3.965,-0.3380317346739499,-0.2204394488182027
-3.9645,-0.4767440078238243,-0.6866915386455698
-3.964,-0.4020527838200457,-0.8350444763179138
-3.9635,-0.04993701351651855,-0.5807251545938954
-3.963,0.2701682322139607,-0.2840192792492073
-3.9625,0.4515612047945656,0.02328323450064829
-3.962,0.5049120790829789,0.2776025562246667
-3.9615,0.4729015545099309,0.457745409112513
-3.961,0.4302208550792003,0.55311515475902
-3.9605,0.3875401556484697,0.5743084315693548
-3.96,0.4408910299368829,0.6378882620003594
-3.9595,0.4835717293676135,0.5955017083796896
-3.959,0.4408910299368829,0.4259554938970107
-3.9585,0.3768699807907871,0.2564092794143318
-3.958,0.3235191065023739,0.1292496185523226
-3.9575,0.2701682322139607,0.05507314971615059
-3.957,-0.09261771294724913,-0.1144730647665284
-3.9565,-0.7968492535543035,-0.6972881770507372
-3.956,-1.1062843244271,-1.322489842955616
-3.9555,-1.212986073003927,-1.258910012524611
-3.955,-1.330357996438436,-0.3899856633008816
-3.9545,-0.9675720512772257,0.07626642652648545
-3.954,-0.4767440078238243,0.1822328105781598
-3.9535,-0.08194753808956648,0.13984625695749
-3.953,0.1634664836371343,0.08686306493165288
-3.9525,0.2808384070716433,0.06566978812131802
-3.952,0.3235191065023739,0.08686306493165288
-3.9515,0.3235191065023739,0.1504428953626575
-3.951,0.3021787567870086,0.2246193641988295
-3.9505,0.2808384070716433,0.309392471440169
-3.95,0.2701682322139607,0.3941655786815084
-3.9495,0.2594980573562781,0.4895353243280153
-3.949,0.2061471830678648,0.4471487707073456
-3.9485,-0.2633405106701714,-0.07208651114585861
-3.948,-0.8181896032696687,-0.7078848154559045
-3.9475,-1.042263275281004,-1.110557074852267
-3.947,-0.7648387289812555,-0.9092209451540858
-3.9465,-0.2526703358124887,-0.474758770542221
-3.946,0.1527963087794516,-0.04029659593035631
-3.9455,0.3768699807907871,0.3199891098453364
-3.945,0.4622313796522482,0.55311515475902
-3.9445,0.4622313796522482,0.6696781772158616
-3.944,0.4302208550792003,0.6378882620003594
-3.9435,0.5049120790829789,0.6590815388106942
-3.943,0.6756348768059011,0.7650479228623686
-3.9425,0.6436243522328531,0.6484849004055269
-3.942,0.5155822539406614,0.4365521323021782
-3.9415,0.3982103305061524,0.2458126410091644
-3.941,0.3235191065023739,0.1186529801471552
-3.9405,0.1634664836371343,0.1610395337678249
-3.94,-0.4554036581084589,0.2987958330350016
-3.9395,-1.052933450138687,-0.2628260024388724
-3.939,-1.30901764672307,-0.792657922697244
-3.9385,-1.575772018165136,-0.3158091944647096
-3.938,-1.362368521011484,0.2034260873884947
-3.9375,-0.807519428411986,0.2881991946298341
-3.937,-0.2953510352432193,0.1928294489833272
-3.9365,0.05676473506030786,0.08686306493165288
-3.936,0.2488278824985954,0.03387987290581572
-3.9355,0.3235191065023739,0.03387987290581572
-3.935,0.3341892813600565,0.07626642652648545
-3.9345,0.3128489316446912,0.1504428953626575
-3.934,0.291508581929326,0.2352160026039969
-3.9335,0.2808384070716433,0.3199891098453364
-3.933,0.2701682322139607,0.4047622170866759
-3.9325,0.2594980573562781,0.457745409112513
-3.932,0.01408403562957729,0.1504428953626575
-3.9315,-0.4127229586777283,-0.4535654937318862
-3.931,-0.6474668055467465,-0.9516074987747555
-3.9305,-0.6794773301197943,-1.184733543688439
-3.93,-0.3273615598162672,-0.9304142219644207
-3.9295,0.0674349099179905,-0.3687923864905467
-3.929,0.3128489316446912,0.1822328105781598
-3.9285,0.4302208550792003,0.5319218779486851
-3.928,0.4515612047945656,0.701468092431364
-3.9275,0.4302208550792003,0.7862411996727035
-3.927,0.4302208550792003,0.7332580076468663
-3.9265,0.5582629533713921,0.5743084315693548
-3.926,0.5689331282290746,0.457745409112513
-3.9255,0.4835717293676135,0.3411823866556712
-3.925,0.3875401556484697,0.2352160026039969
-3.9245,0.3235191065023739,0.13984625695749
-3.924,0.2488278824985954,0.08686306493165288
-3.9235,-0.1993194615240755,0.01268659609548085
-3.923,-0.658136980404429,-0.5383386009732256
-3.9225,-0.807519428411986,-1.131750351662602
-3.922,-1.095614149569417,-0.8456411147230812
-3.9215,-1.095614149569417,-0.1886495336027004
-3.921,-0.7114878546928423,0.04447651131098315
-3.9205,-0.2846808603855366,0.04447651131098315
-3.92,0.03542438534494258,-0.02969995752518888
-3.9195,0.2168173579255475,-0.09327978795619347
-3.919,0.3021787567870086,-0.1038764263613609
-3.9185,0.3235191065023739,-0.08268314955102604
-3.918,0.3128489316446912,-0.01910331912002144
-3.9175,0.291508581929326,0.05507314971615059
-3.917,0.2808384070716433,0.1504428953626575
-3.9165,0.2701682322139607,0.2458126410091644
-3.916,0.2594980573562781,0.3411823866556712
-3.9155,0.1101156093487211,0.2034260873884947
-3.915,-0.4767440078238243,-0.3793890248957141
-3.9145,-0.807519428411986,-0.8880276683437509
-3.914,-0.7434983792658902,-1.068170521231597
-3.9135,-0.3593720843893152,-0.7608680074817418
-3.913,0.05676473506030786,-0.3052125560595421
-3.9125,0.3128489316446912,0.1928294489833272
-3.912,0.4408910299368829,0.55311515475902
-3.9115,0.4622313796522482,0.775644561267536
-3.911,0.4408910299368829,0.8710143069140429
-3.9105,0.408880505363835,0.8922075837243778
-3.91,0.5155822539406614,0.6484849004055269
-3.9095,0.6009436528021226,0.4047622170866759
-3.909,0.5369226036560266,0.2987958330350016
-3.9085,0.4408910299368829,0.2458126410091644
-3.908,0.3555296310754218,0.1928294489833272
-3.9075,0.291508581929326,0.13984625695749
-3.907,0.0674349099179905,0.2670059178194992
-3.9065,-0.5941159312583333,0.1716361721729923
-3.906,-0.9675720512772257,-0.5065486857577234
-3.9055,-1.180975548430879,-0.7608680074817418
-3.905,-1.415719395299897,-0.1568596183871981
-3.9045,-1.095614149569417,0.1822328105781598
-3.904,-0.5834457564006506,0.1504428953626575
-3.9035,-0.1459685872356623,0.02328323450064829
-3.903,0.1314559590640864,-0.09327978795619347
-3.9025,0.2701682322139607,-0.1568596183871981
-3.902,0.3235191065023739,-0.1462629799820306
-3.9015,0.3235191065023739,-0.1038764263613609
-3.901,0.3128489316446912,-0.01910331912002144
-3.9005,0.291508581929326,0.07626642652648545
-3.9,0.2701682322139607,0.1822328105781598
-3.8995,0.2701682322139607,0.2776025562246667
-3.899,0.2274875327832301,0.2987958330350016
-3.8985,-0.2206598112394408,-0.1568596183871981
-3.898,-0.6688071552621118,-0.7608680074817418
-3.8975,-0.7755089038389382,-1.121153713257435
-3.897,-0.5300948821122373,-0.9198175835592532
-3.8965,-0.1139580626626144,-0.4535654937318862
-3.896,0.2168173579255475,0.07626642652648545
-3.8955,0.3875401556484697,0.4895353243280153
-3.895,0.4515612047945656,0.7332580076468663
-3.8945,0.4515612047945656,0.849821030103708
-3.894,0.408880505363835,0.9134008605347127
-3.8935,0.408880505363835,0.9663840525605498
-3.893,0.5049120790829789,1.072350436612224
-3.8925,0.4942419042252961,0.9134008605347127
-3.892,0.4302208550792003,0.6378882620003594
-3.8915,0.3555296310754218,0.383568940276341
-3.891,0.3128489316446912,0.2034260873884947
-3.8905,0.2274875327832301,0.13984625695749
-3.89,-0.2846808603855366,0.2564092794143318
-3.8895,-0.9675720512772257,-0.2628260024388724
-3.889,-1.234326422719292,-0.792657922697244
-3.8885,-1.501080794161358,-0.3475991096802118
-3.888,-1.383708870726849,0.2140227257936621
-3.8875,-0.8608703027003992,0.2987958330350016
-3.887,-0.3487019095316325,0.1716361721729923
