Class_4_Move_right_hand_Horiszontal/Class_4_Move_right_hand_Horiszontal_SH_6.csv

#Digilent WaveForms Oscilloscope Acquisition
#Device Name: EExplorer
#Serial Number: SN:210151A2B84A
#Date Time: 2020-12-15 14:54:08.593
#Sample rate: 2000Hz
#Samples: 16384
#Trigger: Source: Channel 1 Type: Edge Condition: Rising Level: 0 V Hyst.: Auto HoldOff: 0 s
#Channel 1: Range: 1 V/div Offset: 0 V Attenuation: 1 X
#Channel 2: Range: 1 V/div Offset: 0 V Attenuation: 1 X
#Power Supplies: ON
#Fixed Supply: ON
#Voltage: 3.3 V Readback: 3.323 V
#Positive Supply: ON
#Voltage: 3.7 V Readback: 3.717 V
#Current: 40 mA Readback: 19 mA
#Negative Supply: ON
#Voltage: -3.7 V Readback: -3.349 V
#Current: -40 mA Readback: -10 mA
#Reference 1: ON
#Voltage: 0 V
#Reference 2: ON
#Voltage: 0 V

Time (s),Channel 1 (V),Channel 2 (V)
-4.096,0.3448594562177392,0.6060983467848571
-4.0955,-0.01792648894314064,0.3729723018713856
-4.095,-0.7221580295510684,-0.2628260024394121
-4.0945,-1.319687821580753,-0.8562377531282487
-4.094,-1.703814116456979,-1.195330182093298
-4.0935,-1.501080794160814,-0.9410108603689713
-4.093,-0.9035510021311299,-0.2628260024388724
-4.0925,-0.3487019095321371,0.3729723018705953
-4.092,0.03542438534513666,0.7862411996728865
-4.0915,0.2488278824985954,0.9875773293708847
-4.091,0.3448594562177392,1.019367244586387
-4.0905,0.3555296310754121,0.9557874141552667
-4.09,0.3448594562177392,0.8286277532933731
-4.0895,0.3128489316446912,0.6908714540261965
-4.089,0.2915085819293454,0.5319218779488296
-4.0885,0.2808384070716433,0.3941655786815084
-4.088,0.2594980573562781,0.2564092794143318
-4.0875,0.1848068333525675,0.1292496185524383
-4.087,-0.2953510352438404,-0.3581957480860057
-4.0865,-0.9782422261349084,-1.046977244421262
-4.086,-1.447729919872518,-1.598002441489468
-4.0855,-1.084943974711133,-1.23771673571364
-4.085,-0.423393133535411,-0.5383386009732256
-4.0845,0.09944543449056287,-0.1992461720081762
-4.084,0.3768699807908648,-0.08268314955099713
-4.0835,0.4622313796522482,-0.05089323433552374
-4.083,0.4515612047945656,-0.05089323433552374
-4.0825,0.4088805053638059,-0.05089323433550447
-4.082,0.3768699807907871,-0.02969995752518888
-4.0815,0.4942419042252961,0.1292496185523226
-4.081,0.5369226036559878,0.2034260873884272
-4.0805,0.4835717293676135,0.2140227257936621
-4.08,0.408880505363835,0.2140227257936621
-4.0795,0.3448594562177974,0.2352160026039777
-4.079,0.3982103305065309,0.1928294489831537
-4.0785,0.8143471499557753,0.002089957690313421
-4.078,0.5796033030869708,-0.6125150698088386
-4.0775,-0.2953510352438404,-1.174136905283474
-4.077,-0.9782422261349084,-1.396666311791788
-4.0765,-0.9462317015618895,-0.9198175835596869
-4.076,-0.5727755815426187,-0.2310360872228497
-4.0755,-0.1886492866663929,0.3411823866556712
-4.075,0.08877525963335578,0.7120647308365314
-4.0745,0.2488278824986536,0.892207583724426
-4.074,0.3128489316446912,0.9451907757502149
-4.0735,0.3235191065023739,0.92399749893988
-4.073,0.312848931644701,0.8604176685089333
-4.0725,0.3021787567870086,0.775644561267536
-4.072,0.2701682322139607,0.6802748156210291
-4.0715,0.2488278824986148,0.5849050699746089
-4.071,0.1954770082098522,0.510728601137955
-4.0705,-0.1673089369510276,0.07626642652648545
-4.07,-0.7968492535537308,-0.6972881770500337
-4.0695,-1.266336947292466,-1.396666311791952
-4.069,-1.405049220442214,-1.576809164679634
-4.0685,-0.9889124009925911,-0.9728007755850904
-4.068,-0.4127229586773014,-0.3370024712746879
-4.0675,0.05676473506030786,0.05507314971615059
-4.067,0.3128489316446912,0.1928294489833272
-4.0665,0.3982103305061621,0.1716361721729249
-4.066,0.408880505363835,0.09745970333682032
-4.0655,0.3768699807907871,0.01268659609548085
-4.065,0.4835717293675165,0.108056341741901
-4.0645,0.6116138276598051,0.2776025562246667
-4.064,0.5689331282290746,0.2564092794143318
-4.0635,0.4729015545100183,0.1822328105782272
-4.063,0.3982103305060747,0.1292496185522648
-4.0625,0.3128489316446912,0.06566978812131802
-4.062,0.2488278824986536,-0.1886495336024691
-4.0615,-0.08194753809010993,-0.750271369077114
-4.061,-0.6794773301197943,-1.34368311976595
-4.0605,-1.191645723288561,-1.703968825541643
-4.06,-1.148965023857442,-1.343683119765285
-4.0595,-0.722158029550525,-0.6125150698093976
-4.059,-0.274010685527854,0.04447651131098315
-4.0585,0.05676473506000707,0.5001319627327684
-4.058,0.2381577076409128,0.7544512844572011
-4.0575,0.3128489316446912,0.8604176685088755
-4.057,0.3341892813600371,0.881610945319191
-4.0565,0.3235191065023739,0.849821030103708
-4.056,0.3021787567870086,0.7968378380778709
-4.0555,0.2808384070716627,0.7226613692417664
-4.055,0.2594980573562586,0.6590815388106364
-4.0545,0.2381577076409128,0.5955017083796896
-4.054,0.1527963087795293,0.5001319627332695
-4.0535,-0.3700422592475121,-0.09327978795689702
-4.053,-0.9355615267041777,-0.8668343915334161
-4.0525,-1.341028171296118,-1.460246142222792
-4.052,-1.255666772434181,-1.364876396575755
-4.0515,-0.7328282044082075,-0.7820612842920766
-4.051,-0.2099896363817582,-0.2628260024388724
-4.0505,0.1314559590637758,0.02328323450038805
-4.05,0.3128489316446912,0.1292496185523226
-4.0495,0.3768699807907871,0.1292496185523226
-4.049,0.3768699807907871,0.09745970333684922
-4.0485,0.4195506802216535,0.1186529801473094
-4.048,0.5689331282290746,0.2881991946298341
-4.0475,0.5582629533714017,0.2776025562246763
-4.047,0.4835717293675456,0.2034260873884368
-4.0465,0.408880505363835,0.13984625695749
-4.046,0.3448594562177974,0.1292496185523322
-4.0455,0.6116138276602321,0.4259554938974058
-4.045,1.081101521397841,0.8604176685088755
-4.0445,0.707645401378949,0.4153588554918433
-4.044,-0.06060718837462819,-0.3793890248960322
-4.0435,-0.5300948821122373,-0.7290780922662394
-4.043,-0.4767440078238243,-0.5065486857577234
-4.0425,-0.2420001609550196,-0.09327978795656933
-4.042,-0.007256314085787988,0.2881991946298341
-4.0415,0.1634664836371343,0.55311515475902
-4.041,0.2594980573561907,0.7332580076467025
-4.0405,0.2915085819293357,0.8286277532934117
-4.04,0.3021787567870086,0.8710143069140429
-4.0395,0.2915085819293357,0.8816109453192007
-4.039,0.2808384070716142,0.871014306914014
-4.0385,0.2488278824985954,0.8392243916985406
-4.038,0.2381577076409225,0.8074344764830672
-4.0375,0.2488278824989933,0.7756445612672372
-4.037,0.6863050516635838,0.4471487707073456
-4.0365,0.825017324813458,-0.326405832869877
-4.036,0.0994454344903203,-1.121153713257801
-4.0355,-0.690147504977477,-1.523825972653797
-4.035,-0.722158029550525,-1.036380606016095
-4.0345,-0.4233931335356827,-0.4747587705427319
-4.034,-0.08194753808956648,-0.09327978795619347
-4.0335,0.1634664836371343,0.08686306493165288
-4.033,0.2915085819292095,0.1398462569574419
-4.0325,0.334189281360076,0.1186529801471166
-4.032,0.3555296310754218,0.07626642652648545
-4.0315,0.654294527090264,0.3729723018709037
-4.031,0.8356874996710631,0.6060983467847607
-4.0305,0.7503261008096795,0.5001319627331828
-4.03,0.5796033030869125,0.3093924714403424
-4.0295,0.4408910299369509,0.139846256957384
-4.029,0.5155822539406614,0.02328323450064829
-4.0285,0.9103787236749192,-0.2628260024388724
-4.028,0.4942419042245101,-0.8774310299390171
-4.0275,-0.3700422592469978,-1.354279758171118
-4.027,-1.020922925565639,-1.38606967338662
-4.0265,-1.042263275280985,-0.9939940523957819
-4.026,-0.6688071552621118,-0.3687923864905467
-4.0255,-0.2633405106701714,0.1610395337678249
-4.025,0.04609456020234376,0.52132523954319
-4.0245,0.2168173579256154,0.7226613692417664
-4.024,0.291508581929326,0.7968378380778709
-4.0235,0.3128489316446718,0.8074344764830287
-4.023,0.3128489316446622,0.7862411996726649
-4.0225,0.2808384070716433,0.7438546460520338
-4.022,0.2594980573562975,0.6802748156210869
-4.0215,0.238157707640903,0.6378882620003306
-4.021,0.2274875327832301,0.6060983467848571
-4.0205,0.3555296310754218,0.7438546460520338
-4.02,0.6222840025170123,0.6272916235944691
-4.0195,0.09944543449103843,-0.1674562567923655
-4.019,-0.3273615598162672,-0.6549016234300674
-4.0185,-0.1673089369511732,-0.421775578516596
-4.018,0.0674349099179905,-0.1674562567923655
-4.0175,0.2701682322139607,-0.008506680714854012
-4.017,0.3661998059330172,0.03387987290577717
-4.0165,0.3768699807907677,0.02328323450063865
-4.016,0.3555296310754218,0.01268659609548085
-4.0155,0.323519106502403,0.002089957690323059
-4.015,0.4729015545101153,0.1928294489835489
-4.0145,0.6756348768059011,0.4365521323021782
-4.014,0.6436243522328822,0.4153588554918626
-4.0135,0.5262524287982471,0.3305857482504557
-4.013,0.4195506802215176,0.2776025562246667
-4.0125,0.3128489316446912,0.2140227257936621
-4.012,-0.1352984123786687,-0.241632725629164
-4.0115,-0.8928808272734472,-0.9304142219644207
-4.011,-1.522421143876723,-1.449649503817625
-4.0105,-1.927887788468295,-1.407262950196994
-4.01,-1.607782542738184,-0.9410108603695881
-4.0095,-0.9355615267041777,-0.2734226408440398
-4.009,-0.3487019095321663,0.2881991946293234
-4.0085,0.03542438534513666,0.6484849004056907
-4.008,0.2488278824985954,0.8286277532933731
-4.0075,0.3341892813599789,0.8816109453191622
-4.007,0.3341892813600468,0.8604176685088176
-4.0065,0.3235191065023739,0.7968378380778709
-4.006,0.291508581929326,0.7226613692416989
-4.0055,0.2701682322139316,0.6378882620002824
-4.005,0.2381577076409128,0.55311515475902
-4.0045,0.2168173579255475,0.4789386859228479
-4.004,-0.01792648894403348,0.2246193641981934
-4.0035,-0.6367966306890638,-0.474758770542221
-4.003,-1.148965023857831,-1.163540266878104
-4.0025,-1.394379045584308,-1.66158227192052
-4.002,-1.255666772434657,-1.460246142222792
-4.0015,-0.722158029550525,-0.7502713690765743
-4.001,-0.209989636382224,-0.1886495336032111
-4.0005,0.1634664836372896,0.1398462569575575
-4,0.3341892813600565,0.2140227257936621
-3.9995,0.3982103305061524,0.1716361721729923
-3.999,0.3875401556484697,0.05507314971615059
-3.9985,0.408880505363835,0.02328323450064829
-3.998,0.5796033030867573,0.1928294489833272
-3.9975,0.5689331282290746,0.2034260873884947
-3.997,0.4942419042252961,0.1504428953626575
-3.9965,0.3982103305061524,0.1080563417419877
-3.996,0.3235191065023739,0.09745970333682032
-3.9955,0.03542438534494258,-0.1462629799820306
-3.995,-0.572775581542968,-0.7608680074817418
-3.9945,-1.074273799854052,-1.34368311976595
-3.994,-1.394379045584531,-1.725162102351978
-3.9935,-1.244996597576974,-1.38606967338662
-3.993,-0.754168554123573,-0.6549016234300674
-3.9925,-0.2846808603855366,0.02328323450064829
-3.992,0.05676473506030786,0.4895353243280153
-3.9915,0.2381577076409128,0.7544512844572011
-3.991,0.3128489316446912,0.8604176685088755
-3.9905,0.3235191065023739,0.8816109453192104
-3.99,0.3128489316446912,0.849821030103708
-3.9895,0.291508581929326,0.7968378380778709
-3.989,0.2701682322139607,0.7226613692416989
-3.9885,0.2381577076409128,0.6484849004055269
-3.988,0.2168173579255475,0.5849050699745222
-3.9875,0.1634664836371343,0.5001319627331828
-3.987,-0.2420001609548061,0.01268659609548085
-3.9865,-0.7434983792658902,-0.6760949002404023
-3.986,-1.26633694729234,-1.301296566145281
-3.9855,-1.202315898146244,-1.280103289334946
-3.985,-0.7008176798351597,-0.8456411147230812
-3.9845,-0.1673089369510276,-0.3475991096802118
-3.984,0.2061471830678648,-0.02969995752518888
-3.9835,0.3768699807907871,0.07626642652648545
-3.983,0.4195506802215176,0.05507314971615059
-3.9825,0.3982103305061524,0.002089957690313421
-3.982,0.3661998059331045,-0.04029659593035631
-3.9815,0.4942419042252961,0.1504428953626575
-3.981,0.5369226036560266,0.2246193641988295
-3.9805,0.4729015545099309,0.1928294489833272
-3.98,0.3982103305061524,0.1504428953626575
-3.9795,0.3341892813600565,0.1292496185523226
-3.979,0.3341892813600565,0.1504428953626575
-3.9785,0.5155822539406614,-0.1674562567923655
-3.978,0.3235191065023739,-0.8138511995075789
-3.9775,-0.2313299860971235,-1.364876396576285
-3.977,-0.7648387289812555,-1.587405803084801
-3.9765,-0.7434983792658902,-1.068170521231597
-3.976,-0.4447334832507763,-0.3475991096802118
-3.9755,-0.1352984123779797,0.2458126410091644
-3.975,0.09944543449103843,0.6378882620003594
-3.9745,0.2274875327832301,0.8392243916985406
-3.974,0.291508581929326,0.92399749893988
-3.9735,0.3021787567870086,0.92399749893988
-3.973,0.291508581929326,0.8816109453192104
-3.9725,0.2701682322139607,0.8180311148882058
-3.972,0.2488278824985954,0.7438546460520338
-3.9715,0.2274875327832301,0.6696781772158616
-3.971,0.2168173579255475,0.6060983467848571
-3.9705,0.2381577076409128,0.5955017083796896
-3.97,-0.1139580626626144,0.1292496185523226
-3.9695,-0.7114878546928423,-0.6549016234300674
-3.969,-1.010252750707956,-0.9939940523954253
-3.9685,-0.6367966306890638,-0.5489352393783931
-3.968,-0.156638762093345,-0.1568596183871981
-3.9675,0.1848068333524996,0.03387987290581572
-3.967,0.3555296310754218,0.06566978812131802
-3.9665,0.3982103305061524,0.03387987290581572
-3.966,0.3875401556484697,-0.04029659593035631
-3.9655,0.3555296310754218,-0.1038764263613609
-3.965,0.408880505363835,0.01268659609548085
-3.9645,0.4942419042252961,0.2034260873884947
-3.964,0.4729015545099309,0.2140227257936621
-3.9635,0.408880505363835,0.1822328105781598
-3.963,0.3448594562177392,0.1610395337678249
-3.9625,0.2808384070716433,0.1080563417419877
-3.962,-0.1352984123779797,-0.3581957480853793
-3.9615,-0.807519428411986,-1.01518732920576
-3.961,-1.298347471865388,-1.502632695843462
-3.9605,-1.501080794161358,-1.650985633515806
-3.96,-1.159635198715513,-1.078767159636765
-3.9595,-0.6261264558313813,-0.3158091944647096
-3.959,-0.1779791118087102,0.3199891098453364
-3.9585,0.1207857842064037,0.7226613692416989
-3.958,0.2701682322139607,0.92399749893988
-3.9575,0.3235191065023739,0.9875773293708847
-3.957,0.3235191065023739,0.9663840525605498
-3.9565,0.3021787567870086,0.9028042221295453
-3.956,0.2808384070716433,0.8180311148882058
-3.9555,0.2594980573562781,0.7120647308365314
-3.955,0.2381577076409128,0.6166949851900245
-3.9545,0.2274875327832301,0.5319218779486851
-3.954,0.291508581929326,0.5425185163538525
-3.9535,0.6969752265212663,0.8392243916985406
-3.953,0.4515612047945656,0.3941655786815084
-3.9525,-0.3273615598162672,-0.3793890248957141
-3.952,-0.5407650569699201,-0.4323722169215513
-3.9515,-0.3380317346739499,-0.2204394488182027
-3.951,-0.07127736323188383,-0.02969995752518888
-3.9505,0.1527963087794516,0.03387987290581572
-3.95,0.2701682322139607,0.01268659609548085
-3.9495,0.3235191065023739,-0.01910331912002144
-3.949,0.3235191065023739,-0.04029659593035631
-3.9485,0.3661998059331045,0.01268659609548085
-3.948,0.5475927785137094,0.2246193641988295
-3.9475,0.5582629533713921,0.2670059178194992
-3.947,0.4729015545099309,0.2564092794143318
-3.9465,0.3875401556484697,0.2458126410091644
-3.946,0.3341892813600565,0.2564092794143318
-3.9455,0.0674349099179905,-0.04029659593035631
-3.945,-0.5407650569699201,-0.7078848154559045
-3.9445,-1.127624674142465,-1.322489842955616
-3.944,-1.629122892453549,-1.746355379162313
-3.9435,-1.639793067311232,-1.555615887869299
-3.943,-1.084943974711735,-0.792657922697244
-3.9425,-0.4980843575391895,-0.05089323433552374
-3.942,-0.06060718837420119,0.4789386859228479
-3.9415,0.1954770082101822,0.775644561267536
-3.941,0.3021787567870086,0.8922075837243778
-3.9405,0.3341892813600565,0.8922075837243778
-3.94,0.3235191065023739,0.8392243916985406
-3.9395,0.3021787567870086,0.7544512844572011
-3.939,0.2594980573562781,0.6484849004055269
-3.9385,0.2274875327832301,0.5425185163538525
-3.938,0.2061471830678648,0.457745409112513
-3.9375,0.1741366584948169,0.3411823866556712
-3.937,-0.1886492866663929,-0.1780528951975329
-3.9365,-0.807519428411986,-0.9198175835592532
-3.936,-1.405049220442214,-1.545019249464132
-3.9355,-1.373038695869166,-1.449649503817625
-3.935,-0.8288597781273515,-0.8244478379127463
-3.9345,-0.2420001609548061,-0.2946159176543747
-3.934,0.1741366584948169,-0.06148987274069118
-3.9335,0.3875401556484697,-0.02969995752518888
-3.933,0.4408910299368829,-0.05089323433552374
-3.9325,0.4195506802215176,-0.08268314955102604
-3.932,0.3875401556484697,-0.09327978795619347
-3.9315,0.5369226036560266,-0.07208651114585861
-3.931,0.5796033030867573,-0.04029659593035631
-3.9305,0.5155822539406614,0.002089957690313421
-3.93,0.4302208550792003,0.05507314971615059
-3.9295,0.3661998059331045,0.1186529801471552
-3.929,0.3448594562177392,0.03387987290581572
-3.9285,0.05676473506030786,-0.5383386009732256
-3.928,-0.6474668055467465,-1.174136905283272
-3.9275,-1.223656247861609,-1.629792356705471
-3.927,-1.554431668449771,-1.725162102351978
-3.9265,-1.234326422719292,-1.0999604364471
-3.926,-0.6794773301197943,-0.326405832869877
-3.9255,-0.2099896363817582,0.2881991946298341
-3.925,0.09944543449103843,0.6696781772158616
-3.9245,0.2594980573562781,0.8604176685088755
-3.924,0.3235191065023739,0.9028042221295453
-3.9235,0.3235191065023739,0.8816109453192104
-3.923,0.3021787567870086,0.8074344764830383
-3.9225,0.2808384070716433,0.7226613692416989
-3.922,0.2488278824985954,0.627291623595192
-3.9215,0.2274875327832301,0.5425185163538525
-3.921,0.2061471830678648,0.4471487707073456
-3.9205,0.1527963087794516,0.1928294489833272
-3.92,-0.1459685872356623,-0.3793890248957141
-3.9195,-0.7328282044082075,-1.089363798041932
-3.919,-1.020922925565639,-1.333086481360783
-3.9185,-0.6688071552621118,-0.7714646458869092
-3.918,-0.1779791118087102,-0.252229364033705
-3.9175,0.1741366584948169,0.09745970333682032
-3.917,0.3661998059331045,0.2140227257936621
-3.9165,0.408880505363835,0.1822328105781598
-3.916,0.3875401556484697,0.1080563417419877
-3.9155,0.3555296310754218,0.04447651131098315
-3.915,0.4622313796522482,0.13984625695749
-3.9145,0.5902734779444399,0.2881991946298341
-3.914,0.5475927785137094,0.2670059178194992
-3.9135,0.4515612047945656,0.2034260873884947
-3.913,0.3661998059331045,0.1716361721729923
-3.9125,0.3341892813600565,0.13984625695749
-3.912,0.6649647019482183,-0.1886495336027004
-3.9115,0.6969752265212663,-0.8350444763179138
-3.911,-0.1139580626626144,-1.449649503817625
-3.9105,-0.9569018764195432,-1.852321763213987
-3.91,-1.138294849000148,-1.460246142222792
-3.9095,-0.807519428411986,-0.6760949002404023
-3.909,-0.3700422592469978,0.02328323450064829
-3.9085,-0.02859666380115328,0.5001319627331828
-3.908,0.1741366584948169,0.7544512844572011
-3.9075,0.2808384070716433,0.8710143069140429
-3.907,0.3128489316446912,0.8816109453192104
-3.9065,0.3021787567870086,0.8392243916985406
-3.906,0.2808384070716433,0.775644561267536
-3.9055,0.2488278824985954,0.701468092431364
-3.905,0.2168173579255475,0.627291623595192
-3.9045,0.1634664836371343,0.5955017083796896
-3.904,0.2168173579255475,0.6166949851900245
-3.9035,0.6863050516635838,0.9028042221295453
-3.903,0.5262524287983441,0.5001319627331828
-3.9025,-0.156638762093345,-0.3158091944647096
-3.902,-0.4767440078238243,-0.570128516188728
-3.9015,-0.3700422592469978,-0.3899856633008816
-3.901,-0.124628237520297,-0.1674562567923655
-3.9005,0.09944543449103843,-0.04029659593035631
-3.9,0.2381577076409128,0.02328323450064829
-3.8995,0.3021787567870086,0.04447651131098315
-3.899,0.3128489316446912,0.05507314971615059
-3.8985,0.3555296310754218,0.1080563417419877
-3.898,0.5262524287983441,0.3199891098453364
-3.8975,0.5475927785137094,0.383568940276341
-3.897,0.4729015545099309,0.3729723018711736
-3.8965,0.3982103305061524,0.3411823866556712
-3.896,0.3235191065023739,0.3411823866556712
-3.8955,0.408880505363835,0.2458126410091644
-3.895,0.6756348768059011,-0.2734226408440398
-3.8945,0.1527963087794516,-0.9622041371799229
-3.894,-0.6794773301197943,-1.502632695843462
-3.8935,-1.074273799854052,-1.449649503817625
-3.893,-0.8502001278427167,-0.8032545611024114
-3.8925,-0.4554036581084589,-0.1250697031716958
-3.892,-0.1032878878049318,0.3623756634660061
-3.8915,0.1314559590640864,0.6484849004055269
-3.891,0.2488278824985954,0.7650479228623686
-3.8905,0.291508581929326,0.7650479228623686
-3.89,0.3021787567870086,0.7226613692416989
-3.8895,0.2808384070716433,0.6484849004055269
-3.889,0.2594980573562781,0.5637117931641874
-3.8885,0.2274875327832301,0.4789386859228479
-3.888,0.1954770082101822,0.4153588554918433
-3.8875,0.1314559590640864,0.2881991946298341
-3.887,-0.3380317346739499,-0.2628260024388724
