Class_4_Move_right_hand_Horiszontal/Class_4_Move_Right_Hand_Horizontal_Zakour_4.csv

#Digilent WaveForms Oscilloscope Acquisition
#Device Name: EExplorer
#Serial Number: SN:210151A2B84A
#Date Time: 2020-11-18 11:38:41.421
#Sample rate: 2000Hz
#Samples: 16384
#Trigger: Source: Channel 1 Type: Edge Condition: Rising Level: 0 V Hyst.: Auto HoldOff: 0 s
#Channel 1: Range: 1 V/div Offset: 0 V Attenuation: 1 X
#Channel 2: Range: 1 V/div Offset: 0 V Attenuation: 1 X
#Power Supplies: ON
#Fixed Supply: ON
#Voltage: 3.3 V Readback: 3.322 V
#Positive Supply: ON
#Voltage: 3.7 V Readback: 3.717 V
#Current: 500 mA Readback: 20 mA
#Negative Supply: ON
#Voltage: -3.7 V Readback: -3.706 V
#Current: -500 mA Readback: -9 mA
#Reference 1: ON
#Voltage: 0 V
#Reference 2: ON
#Voltage: 0 V

Time (s),Channel 1 (V),Channel 2 (V)
-4.096,-1.394379045584531,-1.629792356705471
-4.0955,-1.661133417026355,-2.043061254506625
-4.095,-1.223656247860978,-1.831128486403103
-4.0945,-0.5300948821122373,-1.227120097309109
-4.094,0.06743490991744705,-0.6549016234305879
-4.0935,0.4195506802216632,-0.2204394488179424
-4.093,0.5796033030867573,0.06566978812131802
-4.0925,0.622284002517449,0.1822328105780537
-4.092,0.600943652802239,0.2352160026041897
-4.0915,0.7289857510943143,0.4471487707073456
-4.091,0.7503261008096795,0.5213252395435176
-4.0905,0.6649647019481115,0.4577454091124263
-4.09,0.5475927785137094,0.3623756634660061
-4.0895,0.4729015545099309,0.3199891098453364
-4.089,0.3021787567871639,0.4895353243278611
-4.0885,-0.04993701351651855,1.029963882991555
-4.088,-0.690147504977477,0.7226613692416989
-4.0875,-1.394379045583891,-0.2310360872225027
-4.087,-1.74649481588769,-0.9833974139901421
-4.0865,-1.341028171296118,-0.8562377531282487
-4.086,-0.690147504978069,-0.2946159176548855
-4.0855,-0.1352984123776594,0.2881991946302292
-4.085,0.2168173579255475,0.7226613692416989
-4.0845,0.3875401556483145,0.9875773293706438
-4.084,0.4515612047945656,1.12533362863811
-4.0835,0.4515612047945656,1.178316820663898
-4.083,0.4195506802215176,1.178316820663898
-4.0825,0.3982103305061233,1.125333628637965
-4.082,0.3661998059331045,1.019367244586387
-4.0815,0.3448594562177392,0.8604176685088755
-4.081,0.3128489316447204,0.6590815388108773
-4.0805,0.03542438534494258,0.13984625695749
-4.08,-0.4554036581084589,-0.6866915386455698
-4.0795,-0.988912400992106,-1.439052865411773
-4.079,-1.170305373572623,-1.88411167842949
-4.0785,-0.5407650569699201,-1.88411167842949
-4.078,0.07810508477511025,-1.343683119766442
-4.0775,0.4729015545100959,-0.8562377531278342
-4.077,0.6542945270905358,-0.400582301706049
-4.0765,0.6969752265212275,-0.04029659593068396
-4.076,0.6542945270904873,0.1398462569575478
-4.0755,0.6009436528021226,0.2034260873884947
-4.075,0.6649647019482183,0.3729723018711736
-4.0745,0.7609962756672943,0.5531151547590006
-4.074,0.6863050516635838,0.5319218779486851
-4.0735,0.5796033030867573,0.457745409112513
-4.073,0.4942419042253737,0.4047622170867241
-4.0725,0.3982103305061524,0.4153588554918433
-4.072,0.2594980573562781,0.5743084315693548
-4.0715,0.1527963087795487,0.9239974989395621
-4.071,-0.370042259247289,0.3729723018705375
-4.0705,-0.690147504977477,-0.326405832869877
-4.07,-0.5407650569700559,-0.3158091944647192
-4.0695,-0.2206598112391788,0.04447651131133974
-4.069,0.0674349099179905,0.4365521323021782
-4.0685,0.2594980573562781,0.7544512844572011
-4.068,0.3661998059331336,0.976980690965833
-4.0675,0.3982103305061524,1.104140351827727
-4.067,0.408880505363835,1.167720182258731
-4.0665,0.398210330506133,1.188913459069046
-4.066,0.3768699807907871,1.167720182258731
-4.0655,0.3448594562177392,1.051157159801889
-4.065,0.3341892813600663,0.913400860534838
-4.0645,0.3128489316446912,0.7438546460520338
-4.064,0.2168173579255475,0.5001319627331828
-4.0635,-0.4447334832501747,-0.2098428104123895
-4.063,-1.095614149569641,-1.036380606016702
-4.0625,-1.341028171296118,-1.703968825541643
-4.062,-0.9995825758505842,-1.746355379162274
-4.0615,-0.3807124341041952,-1.290699927739737
-4.061,0.1527963087794516,-0.8774310299385835
-4.0605,0.4835717293676135,-0.5065486857577234
-4.06,0.6222840025174975,-0.1568596183870535
-4.0595,0.6329541773751706,0.002089957690313421
-4.059,0.6116138276598051,0.05507314971615059
-4.0585,0.6222840025174782,0.1716361721728863
-4.058,0.7609962756673623,0.5213252395435176
-4.0575,0.7289857510943143,0.6060983467848571
-4.057,0.6222840025175849,0.5319218779487526
-4.0565,0.5262524287983441,0.4471487707073456
-4.056,0.4515612047945656,0.4259554938970107
-4.0555,0.2274875327834339,0.5425185163537465
-4.055,0.3235191065026941,0.8074344764831732
-4.0545,0.6756348768059011,0.9557874141553824
-4.054,0.2701682322143295,0.3411823866562302
-4.0535,-0.1246282375203067,-0.09327978795613565
-4.053,-0.1352984123779797,-0.02969995752518888
-4.0525,0.00341386077189465,0.2458126410091644
-4.052,0.163466483637241,0.5531151547592417
-4.0515,0.2808384070716433,0.7968378380778709
-4.051,0.3448594562177392,0.9769806909657173
-4.0505,0.366199805933085,1.093543713422453
-4.05,0.3768699807907871,1.167720182258731
-4.0495,0.3661998059331045,1.199510097474233
-4.049,0.3448594562177586,1.146526905448444
-4.0485,0.3235191065023642,1.019367244586243
-4.048,0.3128489316446912,0.8604176685088755
-4.0475,0.2274875327833077,0.5955017083799305
-4.047,-0.3807124341053986,-0.08268314955176814
-4.0465,-1.170305373573196,-0.8986243067489184
-4.046,-1.501080794161057,-1.545019249463544
-4.0455,-1.170305373572546,-1.714565463946425
-4.045,-0.4554036581084589,-1.290699927740113
-4.0445,0.1314559590640864,-0.6972881770507372
-4.044,0.4835717293677688,-0.2310360872231195
-4.0435,0.6542945270905358,0.04447651131098315
-4.043,0.6756348768059011,0.1186529801471552
-4.0425,0.6222840025175363,0.1928294489832598
-4.042,0.5582629533713921,0.2352160026039969
-4.0415,0.6329541773751706,0.4153588554918433
-4.041,0.6329541773751706,0.4683420475176323
-4.0405,0.5582629533713241,0.4153588554917662
-4.04,0.4835717293676135,0.3305857482505039
-4.0395,0.4195506802215759,0.2776025562247149
-4.039,0.2381577076407478,0.3093924714401111
-4.0385,0.05676473506030786,0.2458126410091644
-4.038,-0.03926683865874857,0.08686306493179743
-4.0375,-0.5727755815434241,-0.5913217929995737
-4.037,-1.074273799854052,-1.152943628472937
-4.0365,-1.010252750707956,-1.036380606016095
-4.036,-0.5834457564002624,-0.474758770541691
-4.0355,-0.156638762093345,0.1080563417419877
-4.035,0.1527963087794516,0.5425185163538525
-4.0345,0.3235191065022186,0.8074344764827974
-4.034,0.3982103305061524,0.9345941373450475
-4.0335,0.408880505363835,0.9875773293708847
-4.033,0.3982103305061621,0.9981739677760424
-4.0325,0.3661998059330754,0.9345941373449511
-4.032,0.3341892813600565,0.8286277532933731
-4.0315,0.3128489316447107,0.7014680924314797
-4.031,0.3021787567866981,0.5531151547585959
-4.0305,-0.03926683865883591,0.08686306493165288
-4.03,-0.6474668055461934,-0.7290780922654974
-4.0295,-1.138294849000468,-1.470842780628422
-4.029,-1.490410619303675,-1.979481424075996
-4.0285,-1.212986073003927,-1.75695201756748
-4.028,-0.5621054066847515,-1.152943628472378
-4.0275,0.02475421048725994,-0.5383386009732256
-4.027,0.408880505363835,-0.06148987274069118
-4.0265,0.5689331282289291,0.2352160026037271
-4.026,0.6009436528021226,0.3411823866556712
-4.0255,0.5796033030867573,0.383568940276341
-4.025,0.6542945270904679,0.5107286011382345
-4.0245,0.7609962756673041,0.6802748156209906
-4.024,0.6969752265212663,0.6378882620003594
-4.0235,0.5796033030868641,0.5213252395436236
-4.023,0.4729015545098629,0.425955493897001
-4.0225,0.3982103305061524,0.4153588554918433
-4.022,0.622284002517284,0.8286277532929973
-4.0215,0.8676980242436936,0.9663840525598077
-4.021,0.3235191065023739,0.1504428953626575
-4.0205,-0.3593720843893152,-0.7502713690765743
-4.02,-0.690147504977312,-1.025783967610552
-4.0195,-0.5087545323968721,-0.6125150698093976
-4.019,-0.1993194615240755,-0.02969995752518888
-4.0185,0.07810508477542083,0.4471487707069119
-4.018,0.2594980573562781,0.775644561267536
-4.0175,0.3555296310754218,0.9663840525605498
-4.017,0.3875401556484406,1.051157159801812
-4.0165,0.3875401556484503,1.072350436612205
-4.016,0.3661998059331045,1.051157159801889
-4.0155,0.3448594562177586,0.9663840525606269
-4.015,0.3235191065023351,0.8180311148879552
-4.0145,0.2808384070716433,0.5425185163538525
-4.014,0.07810508477585751,0.1292496185526985
-4.0135,-0.4767440078242512,-0.6019184314048663
-4.013,-0.9462317015618604,-1.301296566145281
-4.0125,-1.298347471865388,-1.852321763213987
-4.012,-1.15963519871498,-1.93709487045498
-4.0115,-0.572775581542968,-1.555615887869299
-4.011,0.00341386077189465,-1.036380606016095
-4.0105,0.4088805053634663,-0.5383386009736786
-4.01,0.6222840025174878,-0.1674562567923655
-4.0095,0.6649647019482183,0.04447651131098315
-4.009,0.6329541773751997,0.1822328105780345
-4.0085,0.6222840025175946,0.3199891098455291
-4.008,0.7396559259519968,0.5319218779486851
-4.0075,0.6863050516636323,0.5213252395435273
-4.007,0.5796033030866603,0.4259554938969239
-4.0065,0.4729015545099309,0.3305857482505039
-4.006,0.408880505363835,0.309392471440169
-4.0055,0.2488278824979743,0.2987958330345101
-4.005,-0.4340633083930936,-0.2416327256285375
-4.0045,-1.116954499284783,-1.025783967610927
-4.004,-1.511750969018982,-1.650985633515816
-4.0035,-1.447729919872945,-1.661582271920973
-4.003,-0.9248913518464952,-0.9410108603695881
-4.0025,-0.3593720843898295,-0.1356663415775956
-4.002,0.05676473506030786,0.4789386859228479
-4.0015,0.291508581929326,0.849821030103708
-4.001,0.3982103305060554,1.029963882991391
-4.0005,0.4195506802215079,1.082947075017372
-4,0.408880505363835,1.061753798207057
-3.9995,0.3768699807907871,0.9981739677760521
-3.999,0.3448594562177392,0.8816109453192104
-3.9985,0.3235191065023739,0.7332580076468663
-3.998,0.3021787567870086,0.5637117931641874
-3.9975,0.2274875327832301,0.3199891098453364
-3.997,-0.03926683865883591,-0.3370024712750445
-3.9965,-0.2526703358124887,-1.0999604364471
-3.996,-0.8502001278427167,-1.735758740757146
-3.9955,-1.415719395299897,-2.127834361748341
-3.995,-1.330357996438436,-1.79933857118815
-3.9945,-0.7328282044082075,-0.9728007755850904
-3.994,-0.124628237520297,-0.2416327256285375
-3.9935,0.2808384070716433,0.2246193641988295
-3.993,0.4942419042252961,0.383568940276341
-3.9925,0.5689331282290746,0.3623756634660061
-3.992,0.5689331282290746,0.2881991946298341
-3.9915,0.7183155762366316,0.3305857482505039
-3.991,0.7503261008096795,0.3199891098453364
-3.9905,0.6542945270905358,0.2881991946298341
-3.99,0.5369226036560266,0.2670059178194992
-3.9895,0.4408910299368829,0.2670059178194992
-3.989,0.291508581929326,0.4047622170866759
-3.9885,0.02475421048725994,0.849821030103708
-3.988,-0.4660738329661415,0.6166949851900245
-3.9875,-1.020922925565639,-0.2734226408440398
-3.987,-1.490410619303675,-1.121153713257435
-3.9865,-1.383708870726849,-1.227120097309109
-3.986,-0.8502001278427167,-0.6654982618352349
-3.9855,-0.2953510352432193,0.002089957690313421
-3.985,0.08877525963335578,0.5213252395435176
-3.9845,0.3021787567870086,0.849821030103708
-3.984,0.3982103305061524,1.029963882991555
-3.9835,0.4195506802215176,1.093543713422559
-3.983,0.408880505363835,1.104140351827727
-3.9825,0.3768699807907871,1.061753798207057
-3.982,0.3448594562177392,0.9451907757502149
-3.9815,0.3235191065023739,0.7862411996727035
-3.981,0.291508581929326,0.5849050699745222
-3.9805,-0.04993701351651855,0.07626642652648545
-3.98,-0.8502001278427167,-0.7608680074817418
-3.9795,-1.533091318734406,-1.502632695843462
-3.979,-1.703814116457328,-1.905304955239825
-3.9785,-1.042263275281004,-1.714565463946811
-3.978,-0.3060212101009019,-1.142346990067769
-3.9775,0.2168173579255475,-0.5277419625680583
-3.977,0.5049120790829789,-0.06148987274069118
-3.9765,0.6116138276598051,0.1292496185523226
-3.976,0.6222840025174878,0.1186529801471552
-3.9755,0.5689331282290746,0.1080563417419877
-3.975,0.6542945270905358,0.2670059178194992
-3.9745,0.7823366253827275,0.5213252395435176
-3.974,0.7183155762366316,0.5213252395435176
-3.9735,0.6009436528021226,0.4365521323021782
-3.973,0.4835717293676135,0.3729723018711736
-3.9725,0.408880505363835,0.383568940276341
-3.972,0.1954770082101822,0.2246193641988295
-3.9715,0.3661998059331045,0.2352160026039969
-3.971,0.07810508477567314,-0.2628260024388724
-3.9705,-0.5834457564006506,-0.8986243067489184
-3.97,-0.807519428411986,-0.9622041371799229
-3.9695,-0.5621054066852853,-0.4641621321370536
-3.969,-0.1993194615240755,0.1186529801471552
-3.9685,0.08877525963335578,0.5849050699745222
-3.968,0.2701682322139607,0.8816109453192104
-3.9675,0.3661998059331045,1.051157159801889
-3.967,0.3875401556484697,1.125333628638062
-3.9665,0.3875401556484697,1.135930267043229
-3.966,0.3661998059331045,1.114736990232894
-3.9655,0.3341892813600565,0.9981739677760521
-3.965,0.3128489316446912,0.849821030103708
-3.9645,0.3021787567870086,0.6908714540261965
-3.964,0.142126133921769,0.3623756634660061
-3.9635,-0.1139580626626144,-0.4111789401112165
-3.963,-0.3273615598162672,-1.227120097309109
-3.9625,-0.7648387289812555,-1.820531847998485
-3.962,-0.6688071552621118,-1.714565463946811
-3.9615,-0.2420001609548061,-1.142346990067769
-3.961,0.142126133921769,-0.5489352393783931
-3.9605,0.4195506802215176,-0.1780528951975329
-3.96,0.5475927785137094,0.04447651131098315
-3.9595,0.5796033030867573,0.2140227257936621
-3.959,0.5582629533713921,0.2670059178194992
-3.9585,0.5582629533713921,0.309392471440169
-3.958,0.6863050516635838,0.5107286011383502
-3.9575,0.6649647019482183,0.5213252395435176
-3.957,0.5689331282290746,0.4365521323021782
-3.9565,0.4835717293676135,0.3729723018711736
-3.956,0.408880505363835,0.3517790250608387
-3.9555,0.1954770082101822,0.6696781772158616
-3.955,-0.1673089369510276,1.146526905448396
-3.9545,-0.722158029550525,0.6060983467848571
-3.954,-1.212986073003927,-0.3581957480853793
-3.9535,-1.479740444445993,-1.004590690800593
-3.953,-1.1062843244271,-0.8244478379127463
-3.9525,-0.5514352318276028,-0.2628260024388724
-3.952,-0.08194753808956648,0.2881991946298341
-3.9515,0.2168173579255475,0.6908714540261965
-3.951,0.3555296310754218,0.9451907757502149
-3.9505,0.408880505363835,1.082947075017392
-3.95,0.408880505363835,1.135930267043229
-3.9495,0.3875401556484697,1.125333628638062
-3.949,0.3555296310754218,1.072350436612224
-3.9485,0.3341892813600565,0.9769806909657173
-3.948,0.3128489316446912,0.8286277532933731
-3.9475,0.291508581929326,0.6378882620003594
-3.947,-0.1459685872356623,0.1186529801471552
-3.9465,-0.8715404775580819,-0.7396747306714069
-3.946,-1.458400094730627,-1.492036057438295
-3.9455,-1.479740444445993,-1.746355379162313
-3.945,-0.8502001278427167,-1.42845622700729
-3.9445,-0.1886492866663929,-1.004590690800593
-3.944,0.291508581929326,-0.5807251545938954
-3.9435,0.5582629533713921,-0.2840192792492073
-3.943,0.6542945270905358,-0.01910331912002144
-3.9425,0.6436243522328531,0.1292496185523226
-3.942,0.5902734779444399,0.1822328105781598
-3.9415,0.7396559259519968,0.457745409112513
-3.941,0.8676980242441885,0.701468092431364
-3.9405,0.7716664505250448,0.6484849004055269
-3.94,0.6222840025174878,0.5213252395435176
-3.9395,0.4942419042252961,0.4471487707073456
-3.939,0.3341892813600565,0.4259554938970107
-3.9385,0.1314559590640864,0.627291623595192
-3.938,-0.2526703358124887,0.7650479228623686
-3.9375,-0.7648387289812555,0.02328323450064829
-3.937,-1.06360362499637,-0.718481453861072
-3.9365,-0.8288597781273515,-0.6549016234300674
-3.936,-0.4020527838200457,-0.1992461720078678
-3.9355,-0.02859666380115328,0.2881991946298341
-3.935,0.2168173579255475,0.6696781772158616
-3.9345,0.3448594562177392,0.9134008605347127
-3.934,0.3875401556484697,1.051157159801889
-3.9335,0.3875401556484697,1.114736990232894
-3.933,0.3768699807907871,1.135930267043229
-3.9325,0.3555296310754218,1.082947075017392
-3.932,0.3235191065023739,0.9769806909657173
-3.9315,0.3021787567870086,0.8286277532933731
-3.931,0.2701682322139607,0.6166949851900245
-3.9305,-0.03926683865883591,0.1186529801471552
-3.93,-0.5407650569699201,-0.6866915386455698
-3.9295,-1.010252750707956,-1.417859588602123
-3.929,-1.234326422719292,-1.831128486403653
-3.9285,-0.807519428411986,-1.502632695843462
-3.928,-0.2420001609548061,-0.8138511995075789
-3.9275,0.2274875327832301,-0.326405832869877
-3.927,0.5155822539406614,-0.2416327256285375
-3.9265,0.6329541773751706,-0.2204394488182027
-3.926,0.6222840025174878,-0.1780528951975329
-3.9255,0.5582629533713921,-0.1144730647665284
-3.925,0.5902734779444399,0.1186529801471552
-3.9245,0.6649647019482183,0.3729723018711736
-3.924,0.6116138276598051,0.4259554938970107
-3.9235,0.5262524287983441,0.4047622170866759
-3.923,0.4408910299368829,0.3941655786815084
-3.9225,0.3555296310754218,0.4471487707073456
-3.922,-0.2206598112394408,0.2352160026039969
-3.9215,-1.138294849000148,-0.5171453241628908
-3.921,-1.927887788468663,-1.269506650929778
-3.9205,-2.312014083345239,-1.693372187136476
-3.92,-1.757164990745741,-1.290699927740113
-3.9195,-0.9462317015618604,-0.474758770542221
-3.919,-0.2846808603855366,0.2670059178194992
-3.9185,0.142126133921769,0.775644561267536
-3.918,0.3555296310754218,1.051157159801889
-3.9175,0.4408910299368829,1.157123543853563
-3.917,0.4408910299368829,1.167720182258731
-3.9165,0.408880505363835,1.125333628638062
-3.916,0.3768699807907871,1.029963882991555
-3.9155,0.3341892813600565,0.8816109453192104
-3.915,0.3128489316446912,0.701468092431364
-3.9145,0.291508581929326,0.5319218779486851
-3.914,0.1207857842064037,0.1822328105781598
-3.9135,-0.5514352318276028,-0.5807251545938954
-3.913,-1.191645723288561,-1.34368311976595
-3.9125,-1.501080794161358,-1.862918401619155
-3.912,-1.010252750707956,-1.852321763213987
-3.9115,-0.3060212101009019,-1.258910012524611
-3.911,0.2274875327832301,-0.5913217929990628
-3.9105,0.5262524287983441,-0.2416327256285375
-3.91,0.6436243522328531,-0.1038764263613609
-3.9095,0.6542945270905358,0.03387987290581572
-3.909,0.6009436528021226,0.1080563417419877
-3.9085,0.5582629533713921,0.1716361721729923
-3.908,0.6542945270905358,0.4365521323021782
-3.9075,0.6329541773751706,0.5001319627331828
-3.907,0.5475927785137094,0.4471487707073456
-3.9065,0.4622313796522482,0.3729723018711736
-3.906,0.408880505363835,0.3517790250608387
-3.9055,0.3448594562177392,0.5107286011383502
-3.905,0.142126133921769,0.849821030103708
-3.9045,-0.3273615598162672,0.4471487707073456
-3.904,-0.807519428411986,-0.474758770542221
-3.9035,-0.9569018764195432,-0.9516074987747555
-3.903,-0.6474668055467465,-0.6337083466197325
-3.9025,-0.2420001609548061,-0.08268314955102604
-3.902,0.07810508477567314,0.4153588554918433
-3.9015,0.2701682322139607,0.7650479228623686
-3.901,0.3661998059331045,0.9769806909657173
-3.9005,0.3875401556484697,1.082947075017392
-3.9,0.3875401556484697,1.125333628638062
-3.8995,0.3661998059331045,1.114736990232894
-3.899,0.3341892813600565,1.019367244586387
-3.8985,0.3128489316446912,0.8710143069140429
-3.898,0.291508581929326,0.7120647308365314
-3.8975,0.2274875327832301,0.4683420475176805
-3.897,-0.3060212101009019,-0.1992461720078678
-3.8965,-1.095614149569417,-1.036380606016095
-3.896,-1.661133417026597,-1.735758740757146
-3.8955,-1.799845690176472,-2.138431000153508
-3.895,-1.212986073003927,-1.725162102351978
-3.8945,-0.4340633083930936,-1.036380606016095
-3.894,0.1634664836371343,-0.4641621321370536
-3.8935,0.4729015545099309,0.002089957690313421
-3.893,0.6116138276598051,0.2246193641988295
-3.8925,0.6329541773751706,0.309392471440169
-3.892,0.5902734779444399,0.2987958330350016
-3.8915,0.6863050516635838,0.3941655786815084
-3.891,0.707645401378949,0.4153588554918433
-3.8905,0.6116138276598051,0.309392471440169
-3.89,0.5049120790829789,0.2246193641988295
-3.8895,0.4302208550792003,0.1928294489833272
-3.889,0.2594980573562781,0.2458126410091644
-3.8885,-0.1886492866663929,-0.1144730647665284
-3.888,-0.7114878546928423,-0.8456411147230812
-3.8875,-1.06360362499637,-1.47084278062796
-3.887,-1.298347471865388,-1.79933857118815
-3.8865,-1.148965023857831,-1.449649503817625
-3.886,-0.658136980404429,-0.6337083466197325
-3.8855,-0.1886492866663929,0.1186529801471552
