Class_4_Move_right_hand_Horiszontal/Class_4_Move_right_hand_Horiszontal_SH_5.csv

#Digilent WaveForms Oscilloscope Acquisition
#Device Name: EExplorer
#Serial Number: SN:210151A2B84A
#Date Time: 2020-12-13 13:29:34.096
#Sample rate: 2000Hz
#Samples: 16384
#Trigger: Source: Channel 1 Type: Edge Condition: Rising Level: 0 V Hyst.: Auto HoldOff: 0 s
#Channel 1: Range: 1 V/div Offset: 0 V Attenuation: 1 X
#Channel 2: Range: 1 V/div Offset: 0 V Attenuation: 1 X
#Power Supplies: ON
#Fixed Supply: ON
#Voltage: 3.3 V Readback: 3.329 V
#Positive Supply: ON
#Voltage: 3.7 V Readback: 3.714 V
#Current: 40 mA Readback: 19 mA
#Negative Supply: ON
#Voltage: -3.7 V Readback: -3.35 V
#Current: -40 mA Readback: -7 mA
#Reference 1: ON
#Voltage: 0 V
#Reference 2: ON
#Voltage: 0 V

Time (s),Channel 1 (V),Channel 2 (V)
-4.096,0.3341892813600565,-0.326405832869877
-4.0955,0.1634664836372896,-0.1674562567925101
-4.095,-0.242000160955136,0.2670059178198848
-4.0945,-0.6047861061160158,0.6908714540261965
-4.094,-0.9355615267038768,0.4365521323024095
-4.0935,-1.287677297007773,-0.3793890248958394
-4.093,-1.362368521011484,-0.5171453241628908
-4.0925,-0.8822106524162012,-0.3158091944648926
-4.092,-0.2846808603851194,-0.1886495336025847
-4.0915,0.1741366584948169,-0.06148987274069118
-4.091,0.4729015545099309,0.06566978812131802
-4.0905,0.600943652802142,0.08686306493164325
-4.09,0.6222840025174878,0.07626642652648545
-4.0895,0.6329541773751706,0.08686306493165288
-4.089,0.6542945270905164,0.02328323450070612
-4.0885,0.5902734779444399,0.1716361721729923
-4.088,0.5155822539406614,0.3941655786815084
-4.0875,0.4515612047946238,0.6166949851898221
-4.087,0.4088805053639806,0.7756445612674011
-4.0865,0.5689331282290746,0.627291623595192
-4.086,0.857027849386244,0.02328323450119762
-4.0855,0.2594980573555308,-0.6337083466201566
-4.085,-0.5621054066852853,-1.0999604364471
-4.0845,-1.223656247861007,-1.110557074852258
-4.084,-1.191645723288144,-0.5595318777830979
-4.0835,-0.7328282044082075,-0.05089323433552374
-4.083,-0.2420001609548061,0.2564092794143318
-4.0825,0.1101156093489054,0.3623756634659772
-4.082,0.3128489316446912,0.3305857482505039
-4.0815,0.3982103305061524,0.2140227257936621
-4.081,0.4195506802214982,0.06566978812145294
-4.0805,0.408880505363835,-0.07208651114585861
-4.08,0.3768699807907871,-0.1462629799820306
-4.0795,0.3448594562177683,-0.1462629799820306
-4.079,0.3235191065022962,-0.1250697031715897
-4.0785,0.2381577076409128,-0.008506680714854012
-4.078,-0.2206598112390236,0.4365521323017734
-4.0775,-0.9355615267047115,0.9981739677762063
-4.077,-1.522421143876723,1.167720182258731
-4.0765,-1.853196564464584,0.9028042221297862
-4.076,-1.522421143876034,0.5849050699742427
-4.0755,-0.7648387289812555,0.2776025562246667
-4.075,-0.1032878878049318,0.07626642652648545
-4.0745,0.3341892813602603,-0.1250697031717825
-4.074,0.5582629533713921,-0.2204394488182027
-4.0735,0.6436243522328531,-0.2098428104130352
-4.073,0.6222840025175073,-0.0614898727408261
-4.0725,0.6863050516635838,-0.08268314955102604
-4.072,0.7183155762366316,0.04447651131098315
-4.0715,0.6863050516636129,0.2987958330347702
-4.071,0.6329541773751124,0.5425185163540452
-4.0705,0.5689331282290746,0.7544512844572011
-4.07,0.4729015545100183,0.8074344764829902
-4.0695,-0.01792648894413053,0.3411823866551122
-4.069,-0.7434983792658902,-0.2734226408440398
-4.0685,-1.373038695869166,-0.7502713690765743
-4.068,-1.831856214749403,-0.9833974139901615
-4.0675,-1.703814116457328,-0.8774310299385835
-4.067,-1.020922925565639,-0.3475991096802118
-4.0665,-0.3807124341042729,0.1504428953629081
-4.066,0.0674349099179905,0.4259554938970107
-4.0655,0.3128489316446912,0.5001319627331828
-4.065,0.4302208550790936,0.4047622170867626
-4.0645,0.4515612047945656,0.2246193641988295
-4.064,0.4302208550792003,0.01268659609548085
-4.0635,0.3982103305061815,-0.1780528951973595
-4.063,0.366199805933085,-0.3052125560596385
-4.0625,0.3448594562177392,-0.4111789401112165
-4.062,0.3128489316447204,-0.4959520473524788
-4.0615,0.04609456020199443,-0.2946159176538253
-4.061,-0.6474668055467465,0.309392471440169
-4.0605,-1.287677297007705,0.4789386859228479
-4.06,-1.885207089037962,0.330585748250552
-4.0595,-1.917217613610981,0.383568940276341
-4.059,-1.138294849000148,0.2670059178194992
-4.0585,-0.3807124341053694,0.002089957690554312
-4.058,0.1741366584948169,-0.252229364033705
-4.0575,0.4942419042252961,-0.3475991096802118
-4.057,0.6116138276596983,-0.2416327256286339
-4.0565,0.6116138276598051,-0.09327978795619347
-4.056,0.6222840025174878,-0.07208651114585861
-4.0555,0.5796033030867962,-0.04029659593038522
-4.055,0.5155822539406129,0.2458126410094728
-4.0545,0.4622313796522482,0.5849050699745222
-4.054,0.4195506802215564,0.8922075837240984
-4.0535,0.3768699807906998,1.072350436611935
-4.053,0.2808384070716433,0.7544512844572011
-4.0525,0.1848068333524996,0.13984625695749
-4.052,-0.4874141826821474,-0.389985663301084
-4.0515,-1.191645723288561,-0.6125150698093976
-4.051,-1.554431668449771,-0.6337083466197325
-4.0505,-1.159635198715872,-0.2204394488185785
-4.05,-0.572775581542968,0.2564092794143318
-4.0495,-0.08194753808956648,0.5637117931641874
-4.049,0.2274875327829487,0.6590815388106075
-4.0485,0.3875401556485182,0.574308431569191
-4.048,0.4408910299368829,0.3941655786815084
-4.0475,0.4408910299368829,0.161039533768037
-4.047,0.4088805053638059,-0.06148987274084538
-4.0465,0.3768699807907871,-0.2310360872233701
-4.046,0.3448594562177683,-0.3264058328697903
-4.0455,0.2808384070715366,-0.2946159176543072
-4.045,0.1634664836371343,-0.2204394488182027
-4.0445,-0.3380317346739499,0.2670059178194992
-4.044,-1.020922925566153,0.818031114888466
-4.0435,-1.586442193022819,1.104140351827727
-4.043,-1.970568487899394,1.25249328950007
-4.0425,-1.543761493592477,1.072350436612388
-4.042,-0.7648387289812555,0.5319218779486851
-4.0415,-0.124628237520297,-0.01910331912002144
-4.041,0.3235191065019662,-0.3687923864902287
-4.0405,0.5689331282291425,-0.4959520473524692
-4.04,0.6436243522328531,-0.400582301706049
-4.0395,0.6863050516635449,-0.2840192792493133
-4.039,0.7396559259519483,-0.2840192792489567
-4.0385,0.6863050516635838,-0.008506680714854012
-4.038,0.611613827659873,0.351779025060511
-4.0375,0.5475927785136705,0.7120647308367627
-4.037,0.5049120790829789,0.9663840525605498
-4.0365,0.4195506802215176,0.9028042221295453
-4.036,0.387540155648033,0.3835689402758399
-4.0355,-0.09261771294724913,-0.1674562567923655
-4.035,-0.6047861061160158,-0.5171453241628908
-4.0345,-0.9462317015615499,-0.5913217929989953
-4.034,-0.7328282044082075,-0.1568596183871981
-4.0335,-0.3380317346739499,0.3411823866556712
-4.033,0.01408403562925703,0.6696781772155629
-4.0325,0.2488278824987021,0.7650479228622915
-4.032,0.3661998059331045,0.6802748156210291
-4.0315,0.4195506802214691,0.4895353243281888
-4.031,0.4195506802214982,0.235216002603756
-4.0305,0.3982103305061524,-0.02969995752518888
-4.03,0.3875401556484794,-0.2522293640335026
-4.0295,0.3448594562177197,-0.4217755785165092
-4.029,0.3235191065023739,-0.5595318777835605
-4.0285,0.291508581929326,-0.6231117082145651
-4.028,-0.02859666380176466,-0.4111789401106575
-4.0275,-0.7008176798351597,0.2034260873884947
-4.027,-1.170305373573196,0.2670059178194992
-4.0265,-1.351698346153636,-0.06148987274039242
-4.026,-0.9248913518464952,-0.1356663415768632
-4.0255,-0.3487019095316325,-0.2310360872233701
-4.025,0.1314559590636497,-0.3793890248955792
-4.0245,0.4302208550793556,-0.4747587705422692
-4.024,0.6009436528021226,-0.5277419625680583
-4.0235,0.6329541773751415,-0.4323722169216381
-4.023,0.6222840025176432,-0.2416327256285279
-4.0225,0.79300680024041,-0.2310360872233701
-4.022,0.8250173248134289,-0.02969995752537199
-4.0215,0.7076454013788326,0.2987958330352811
-4.021,0.5796033030867573,0.6060983467848571
-4.0205,0.4729015545099309,0.8286277532933731
-4.02,0.5049120790832992,0.9028042221291598
-4.0195,0.857027849386506,0.4789386859228479
-4.019,0.4195506802215176,-0.1780528951975329
-4.0185,-0.4767440078230092,-0.7290780922657383
-4.018,-1.287677297007705,-1.078767159636765
-4.0175,-1.501080794161358,-0.9728007755850904
-4.017,-1.031593100423749,-0.4111789401117273
-4.0165,-0.4554036581080513,0.1398462569577888
-4.016,-0.007256314085787988,0.4683420475176805
-4.0155,0.2701682322137084,0.5637117931641007
-4.015,0.3982103305061815,0.5001319627330286
-4.0145,0.4302208550792003,0.3305857482505039
-4.014,0.4302208550792003,0.1292496185525057
-4.0135,0.3982103305061233,-0.06148987274080683
-4.013,0.3661998059331045,-0.1886495336027004
-4.0125,0.3448594562177392,-0.2840192792492073
-4.012,0.3128489316445165,-0.3158091944646228
-4.0115,0.1207857842064037,-0.2204394488182027
-4.011,-0.5407650569699201,0.2776025562246667
-4.0105,-1.234326422718661,0.2987958330349823
-4.01,-1.714484291315011,-0.3052125560595421
-4.0095,-1.639793067311232,-0.400582301706049
-4.009,-0.9142211769894724,-0.2522293640338399
-4.0085,-0.1566387620928986,-0.1356663415768343
-4.008,0.3341892813600565,-0.1038764263613609
-4.0075,0.5582629533711883,-0.05089323433557193
-4.007,0.6329541773751706,-0.02969995752515996
-4.0065,0.6329541773751706,0.002089957690313421
-4.006,0.7289857510943143,-0.06148987274069118
-4.0055,0.8250173248133998,-0.09327978795601036
-4.005,0.7609962756673623,0.1080563417419877
-4.0045,0.6329541773751706,0.3517790250608387
-4.004,0.5582629533713339,0.5319218779487526
-4.0035,0.4942419042252961,0.6060983467848571
-4.003,0.1954770082101822,0.2458126410091644
-4.0025,-0.2420001609544082,-0.3687923864899877
-4.002,-0.8822106524157645,-0.8880276683437509
-4.0015,-1.437059745015262,-1.216523458903942
-4.001,-1.415719395299916,-1.036380606016259
-4.0005,-0.871540477557587,-0.4429688553262273
-4,-0.3273615598162672,0.09745970333682032
-3.9995,0.07810508477567314,0.4153588554918433
-3.999,0.3128489316446912,0.5107286011383502
-3.9985,0.4195506802215176,0.457745409112513
-3.998,0.4408910299368829,0.2987958330350016
-3.9975,0.4302208550792003,0.1186529801471552
-3.997,0.3982103305061524,-0.06148987274069118
-3.9965,0.3661998059331045,-0.1568596183871981
-3.996,0.3235191065023739,-0.1674562567923655
-3.9955,0.3021787567870086,-0.2310360872233701
-3.995,0.1527963087794516,-0.1038764263613609
-3.9945,-0.4127229586777283,0.4047622170866759
-3.994,-0.8608703027003992,0.4789386859228479
-3.9935,-1.084943974711735,-0.1250697031716958
-3.993,-1.170305373573196,-0.2946159176543747
-3.9925,-0.7968492535543035,-0.2310360872233701
-3.992,-0.274010685527854,-0.2098428104130352
-3.9915,0.142126133921769,-0.1886495336027004
-3.991,0.408880505363835,-0.1780528951975329
-3.9905,0.5582629533713921,-0.1674562567923655
-3.99,0.6116138276598051,-0.06148987274069118
-3.9895,0.6436243522328531,-0.008506680714854012
-3.989,0.6222840025174878,-0.1038764263613609
-3.9885,0.5582629533713921,0.05507314971615059
-3.988,0.5155822539406614,0.309392471440169
-3.9875,0.5049120790829789,0.5001319627331828
-3.987,0.4835717293676135,0.6590815388106942
-3.9865,0.6542945270905358,0.5743084315693548
-3.986,0.79300680024041,0.2140227257936621
-3.9855,0.07810508477567314,-0.400582301706049
-3.985,-0.7648387289812555,-0.8668343915334161
-3.9845,-1.415719395299897,-1.121153713257435
-3.984,-1.373038695869166,-0.9304142219644207
-3.9835,-0.839529952985034,-0.4217755785163839
-3.983,-0.2953510352432193,0.01268659609548085
-3.9825,0.08877525963335578,0.2564092794143318
-3.982,0.3128489316446912,0.309392471440169
-3.9815,0.408880505363835,0.2246193641988295
-3.981,0.4408910299368829,0.07626642652648545
-3.9805,0.4195506802215176,-0.08268314955102604
-3.98,0.3875401556484697,-0.1992461720078678
-3.9795,0.3555296310754218,-0.252229364033705
-3.979,0.3341892813600565,-0.2734226408440398
-3.9785,0.1101156093487211,-0.02969995752518888
-3.978,-0.4874141826815069,0.5107286011383502
-3.9775,-1.06360362499637,0.7862411996727035
-3.977,-1.522421143876723,0.5425185163538525
-3.9765,-1.426389570157579,0.3199891098453364
-3.976,-0.8608703027003992,0.04447651131098315
-3.9755,-0.2206598112394408,-0.2204394488182027
-3.975,0.2381577076409128,-0.4111789401112165
-3.9745,0.5049120790829789,-0.5065486857577234
-3.974,0.6116138276598051,-0.4853554089473885
-3.9735,0.6542945270905358,-0.3581957480853793
-3.973,0.6329541773751706,-0.1462629799820306
-3.9725,0.7609962756673623,-0.08268314955102604
-3.972,0.7823366253827275,0.08686306493165288
-3.9715,0.6863050516635838,0.3941655786815084
-3.971,0.5689331282290746,0.6908714540261965
-3.9705,0.4835717293676135,0.9134008605347127
-3.97,0.3128489316446912,0.8922075837243778
-3.9695,-0.2099896363817582,0.3623756634660061
-3.969,-0.807519428411986,-0.2310360872233701
-3.9685,-1.1062843244271,-0.6443049850249
-3.968,-1.447729919872945,-0.6337083466197325
-3.9675,-1.287677297007705,-0.1462629799820306
-3.967,-0.7434983792658902,0.1928294489833272
-3.9665,-0.2206598112394408,0.3411823866556712
-3.966,0.142126133921769,0.3305857482505039
-3.9655,0.3341892813600565,0.2246193641988295
-3.965,0.4195506802215176,0.08686306493165288
-3.9645,0.4302208550792003,-0.07208651114585861
-3.964,0.4195506802215176,-0.1992461720078678
-3.9635,0.3875401556484697,-0.2840192792492073
-3.963,0.3555296310754218,-0.3158091944647096
-3.9625,0.3341892813600565,-0.3158091944647096
-3.962,0.3021787567870086,-0.2840192792492073
-3.9615,0.01408403562957729,0.06566978812131802
-3.961,-0.3380317346739499,0.701468092431364
-3.9605,-0.9142211769888124,1.284283204715573
-3.96,-1.341028171296118,1.453829419198252
-3.9595,-1.031593100423322,1.082947075017392
-3.959,-0.4340633083930936,0.5637117931641874
-3.9585,0.09944543449103843,0.1186529801471552
-3.958,0.4515612047945656,-0.1462629799820306
-3.9575,0.6329541773751706,-0.252229364033705
-3.957,0.6649647019482183,-0.1780528951975329
-3.9565,0.6436243522328531,0.002089957690313421
-3.956,0.7503261008096795,0.01268659609548085
-3.9555,0.8676980242441885,0.03387987290581572
-3.955,0.79300680024041,0.2881991946298341
-3.9545,0.6649647019482183,0.6060983467848571
-3.954,0.5475927785137094,0.8816109453192104
-3.9535,0.4835717293676135,1.072350436612224
-3.953,0.8036769750980928,1.167720182258731
-3.9525,0.7396559259519968,0.9875773293708847
-3.952,-0.06060718837420119,0.2246193641988295
-3.9515,-0.8822106524157645,-0.4959520473525559
-3.951,-1.298347471865388,-0.8668343915334161
-3.9505,-1.010252750707956,-0.5913217929990628
-3.95,-0.5087545323968721,-0.1356663415768632
-3.9495,-0.07127736323188383,0.2140227257936621
-3.949,0.2168173579255475,0.383568940276341
-3.9485,0.3661998059331045,0.383568940276341
-3.948,0.4195506802215176,0.2881991946298341
-3.9475,0.4195506802215176,0.13984625695749
-3.947,0.3982103305061524,0.002089957690313421
-3.9465,0.3661998059331045,-0.09327978795619347
-3.946,0.3341892813600565,-0.1144730647665284
-3.9455,0.3128489316446912,-0.1356663415768632
-3.945,0.1954770082101822,-0.09327978795619347
-3.9445,-0.4020527838200457,0.3941655786815084
-3.944,-1.095614149569417,0.9134008605347127
-3.9435,-1.533091318734406,0.6696781772158616
-3.943,-1.661133417026597,0.2458126410091644
-3.9425,-1.127624674142465,0.1610395337678249
-3.942,-0.423393133535411,0.06566978812131802
-3.9415,0.1101156093487211,-0.1250697031716958
-3.941,0.4729015545099309,-0.400582301706049
-3.9405,0.6649647019482183,-0.4535654937318862
-3.94,0.6863050516635838,-0.3370024712750445
-3.9395,0.6756348768059011,-0.1886495336027004
-3.939,0.707645401378949,-0.1356663415768632
-3.9385,0.6436243522328531,0.08686306493165288
-3.938,0.5582629533713921,0.3623756634660061
-3.9375,0.4942419042252961,0.5955017083796896
-3.937,0.4622313796522482,0.7544512844572011
-3.9365,0.5582629533713921,0.6166949851900245
-3.936,0.7716664505250448,0.02328323450064829
-3.9355,0.1848068333524996,-0.5913217929990628
-3.935,-0.658136980404429,-0.9516074987747555
-3.9345,-1.202315898146244,-1.01518732920576
-3.934,-1.031593100423322,-0.5807251545938954
-3.9335,-0.5621054066852853,-0.02969995752518888
-3.933,-0.124628237520297,0.3623756634660061
-3.9325,0.1848068333524996,0.5213252395435176
-3.932,0.3448594562177392,0.5107286011383502
-3.9315,0.408880505363835,0.383568940276341
-3.931,0.4195506802215176,0.1928294489833272
-3.9305,0.3982103305061524,0.002089957690313421
-3.93,0.3555296310754218,-0.1144730647665284
-3.9295,0.3341892813600565,-0.1992461720078678
-3.929,0.3128489316446912,-0.2416327256285375
-3.9285,0.2701682322139607,-0.2734226408440398
-3.928,-0.1459685872356623,0.04447651131098315
-3.9275,-0.8288597781273515,0.309392471440169
-3.927,-1.351698346153801,-0.1780528951975329
-3.9265,-1.735824641030376,-0.5595318777835605
-3.926,-1.735824641030376,-0.1250697031716958
-3.9255,-1.074273799854052,0.13984625695749
-3.925,-0.3593720843893152,0.13984625695749
-3.9245,0.1634664836371343,-0.04029659593035631
-3.924,0.4622313796522482,-0.1886495336027004
-3.9235,0.5796033030867573,-0.1674562567923655
-3.923,0.6009436528021226,-0.1038764263613609
-3.9225,0.707645401378949,-0.1886495336027004
-3.922,0.6969752265212663,-0.05089323433552374
-3.9215,0.6116138276598051,0.2034260873884947
-3.921,0.5369226036560266,0.4471487707073456
-3.9205,0.4942419042252961,0.5849050699745222
-3.92,0.4515612047945656,0.55311515475902
-3.9195,0.2168173579255475,0.05507314971615059
-3.919,-0.07127736323188383,-0.5277419625680583
-3.9185,-0.5621054066852853,-0.9622041371799229
-3.918,-0.9995825758502737,-1.152943628472937
-3.9175,-0.9142211769888124,-0.8774310299385835
-3.917,-0.5194247072545548,-0.3475991096802118
-3.9165,-0.1139580626626144,0.07626642652648545
-3.916,0.1741366584948169,0.2881991946298341
-3.9155,0.3341892813600565,0.3199891098453364
-3.915,0.3982103305061524,0.2352160026039969
-3.9145,0.408880505363835,0.08686306493165288
-3.914,0.3982103305061524,-0.07208651114585861
-3.9135,0.3768699807907871,-0.2098428104130352
-3.913,0.3555296310754218,-0.2840192792492073
-3.9125,0.3341892813600565,-0.3475991096802118
-3.912,0.3235191065023739,-0.3687923864905467
-3.9115,0.07810508477567314,-0.1674562567923655
-3.911,-0.6154562809736985,0.4365521323021782
-3.9105,-1.180975548430879,0.5213252395435176
-3.91,-1.490410619303675,0.02328323450064829
-3.9095,-1.426389570157579,0.002089957690313421
-3.909,-0.8288597781273515,0.03387987290581572
-3.9085,-0.1993194615240755,-0.05089323433552374
-3.908,0.2488278824985954,-0.1144730647665284
-3.9075,0.5369226036560266,-0.2098428104130352
-3.907,0.6329541773751706,-0.1356663415768632
-3.9065,0.6116138276598051,0.04447651131098315
-3.906,0.6649647019482183,0.06566978812131802
-3.9055,0.6969752265212663,0.07626642652648545
-3.905,0.6222840025174878,0.2776025562246667
-3.9045,0.5582629533713921,0.4789386859228479
-3.904,0.5049120790829789,0.6590815388106942
-3.9035,0.4835717293676135,0.7438546460520338
-3.903,0.79300680024041,0.6590815388106942
-3.9025,0.6542945270905358,0.3305857482505039
-3.902,-0.1352984123779797,-0.3475991096802118
-3.9015,-0.9569018764195432,-0.9410108603695881
-3.901,-1.127624674142465,-0.9622041371799229
-3.9005,-0.7648387289812555,-0.5277419625680583
-3.9,-0.3060212101009019,-0.09327978795619347
-3.8995,0.05676473506030786,0.1822328105781598
-3.899,0.2701682322139607,0.2670059178194992
-3.8985,0.3768699807907871,0.2246193641988295
-3.898,0.408880505363835,0.09745970333682032
-3.8975,0.408880505363835,-0.06148987274069118
-3.897,0.3875401556484697,-0.1886495336027004
-3.8965,0.3555296310754218,-0.2734226408440398
-3.896,0.3341892813600565,-0.3158091944647096
-3.8955,0.3021787567870086,-0.3052125560595421
-3.895,0.1741366584948169,-0.2098428104130352
-3.8945,-0.4127229586777283,0.309392471440169
-3.894,-1.052933450138687,0.5319218779486851
-3.8935,-1.618452717595867,-0.06148987274069118
-3.893,-1.789175515318789,-0.326405832869877
-3.8925,-1.180975548430879,-0.1992461720078678
-3.892,-0.4767440078238243,-0.08268314955102604
-3.8915,0.08877525963335578,0.02328323450064829
-3.891,0.4408910299368829,0.1292496185523226
-3.8905,0.6116138276598051,0.1610395337678249
-3.89,0.6436243522328531,0.1716361721729923
-3.8895,0.5689331282290746,0.13984625695749
-3.889,0.3875401556484697,0.002089957690313421
-3.8885,0.3235191065023739,0.1292496185523226
-3.888,0.3555296310754218,0.3305857482505039
