Class_4_Move_right_hand_Horiszontal/Class_4_Move_right_hand_Horiszontal_SH_11.csv

#Digilent WaveForms Oscilloscope Acquisition
#Device Name: EExplorer
#Serial Number: SN:210151A2B84A
#Date Time: 2021-01-27 12:00:07.770
#Sample rate: 2000Hz
#Samples: 16384
#Trigger: Source: Channel 1 Type: Edge Condition: Rising Level: 0 V Hyst.: Auto HoldOff: 0 s
#Channel 1: Range: 1 V/div Offset: 0 V Attenuation: 1 X
#Channel 2: Range: 1 V/div Offset: 0 V Attenuation: 1 X
#Channel 4: Range: 1 V/div Offset: 0 V Attenuation: 1 X
#Power Supplies: ON
#Fixed Supply: ON
#Voltage: 3.3 V Readback: 3.331 V
#Positive Supply: ON
#Voltage: 3.7 V Readback: 3.74 V
#Current: 40 mA Readback: 16 mA
#Negative Supply: ON
#Voltage: -3.7 V Readback: -3.392 V
#Current: -40 mA Readback: -6 mA
#Reference 1: ON
#Voltage: 0 V
#Reference 2: ON
#Voltage: 0 V

Time (s),Channel 1 (V),Channel 2 (V),Channel 4 (V)
-4.096,0.3235191065023739,0.2140227257936621,-0.05320338206182537
-4.0955,0.3661998059330657,0.1398462569575575,-0.05320338206182537
-4.095,0.366199805933085,0.02328323450053264,-0.09553569170524114
-4.0945,0.3448594562177392,-0.1038764263613609,-0.1167018465269201
-4.094,0.3235191065023933,-0.1886495336026233,-0.1167018465269201
-4.0935,0.2808384070716045,-0.220439448818193,-0.1061187691160421
-4.093,0.2381577076409128,-0.2098428104130352,-0.07436953688352363
-4.0925,-0.1673089369506588,0.2140227257932766,-0.05320338206184462
-4.092,-0.8181896032700375,0.8074344764829323,-0.05320338206182537
-4.0915,-1.223656247861609,0.6908714540261965,-0.05320338206182537
-4.091,-1.405049220442214,-0.1038764263613609,-0.021454149829278
-4.0905,-1.351698346153393,-0.5383386009731389,-0.021454149829278
-4.09,-0.9035510021311299,-0.4429688553267188,-0.021454149829278
-4.0895,-0.4340633083930936,-0.1780528951975329,-0.021454149829278
-4.089,-0.01792648894384913,0.01268659609530737,-0.021454149829278
-4.0885,0.2488278824985954,0.09745970333682032,-0.021454149829278
-4.088,0.3661998059331045,0.1928294489833272,-0.021454149829278
-4.0875,0.4088805053637962,0.3305857482503786,-0.021454149829278
-4.087,0.5049120790830468,0.3729723018711639,0.01029508240328862
-4.0865,0.5796033030867573,0.3623756634660061,0.03146123722496762
-4.086,0.5369226036560655,0.4683420475175841,0.03146123722496762
-4.0855,0.4729015545098726,0.5955017083797571,0.03146123722494838
-4.085,0.408880505363835,0.6696781772158616,0.01029508240326937
-4.0845,0.3768699807908162,0.6802748156210194,-0.02145414982924913
-4.084,0.09944543449038823,0.2564092794136668,-0.053203382061835
-4.0835,-0.6154562809736985,-0.474758770542221,-0.0637864594726745
-4.083,-1.298347471865388,-1.110557074852267,-0.04262030465097626
-4.0825,-1.778505340461058,-1.545019249464161,-0.07436953688350438
-4.082,-1.725154466172693,-1.576809164679634,-0.05320338206182537
-4.0815,-1.095614149569417,-1.025783967610927,-0.03203722724012713
-4.081,-0.4660738329667141,-0.4429688553272488,-0.03203722724012713
-4.0805,-0.007256314085787988,-0.05089323433552374,-0.04262030465097626
-4.08,0.2488278824985954,0.1292496185523226,-0.04262030465097626
-4.0795,0.3661998059329977,0.1398462569574804,-0.05320338206181575
-4.079,0.398210330506133,0.06566978812120236,-0.05320338206184462
-4.0785,0.3768699807907871,-0.06148987274069118,-0.07436953688352363
-4.078,0.3555296310754412,-0.1674562567922691,-0.1167018465268816
-4.0775,0.312848931644633,-0.2416327256285472,-0.1167018465269105
-4.077,0.2488278824985954,-0.252229364033705,-0.106118769116071
-4.0765,0.2061471830679036,-0.2416327256285472,-0.09553569170523152
-4.076,0.06743490991745676,-0.1038764263608501,-0.04262030465099551
-4.0755,-0.5194247072545548,0.457745409112513,-0.0637864594726745
-4.075,-0.8822106524157645,0.627291623595192,-0.05320338206182537
-4.0745,-0.9782422261349375,-0.02969995752569967,-0.021454149829278
-4.074,-1.010252750707956,-0.5913217929990628,-0.021454149829278
-4.0735,-0.7861790786966207,-0.6019184314042303,-0.021454149829278
-4.073,-0.3700422592473763,-0.4217755785165478,-0.021454149829278
-4.0725,-0.007256314085787988,-0.1674562567923655,-0.021454149829278
-4.072,0.2061471830678648,0.07626642652648545,-0.021454149829278
-4.0715,0.3021787567869213,0.2670059178193258,-0.021454149829278
-4.071,0.3555296310754897,0.404762217086753,-0.02145414982926837
-4.0705,0.4302208550792003,0.4895353243280153,-0.01087107241842888
-4.07,0.643624352232659,0.4365521323022263,0.03146123722492912
-4.0695,0.963729597963478,0.08686306493144086,0.03146123722496762
-4.069,1.123782220828572,-0.1462629799820306,0.03146123722496762
-4.0685,0.9637295979633325,0.002089957690313421,0.0208781598141185
-4.068,0.7396559259519968,0.2564092794143125,-0.000287995007618253
-4.0675,0.7396559259519968,0.2352160026039969,-0.04262030465097626
-4.067,1.038420821967111,-0.3158091944647096,-0.0637864594726745
-4.0665,0.4942419042245004,-0.941010860369964,-0.053203382061835
-4.066,-0.3807124341046804,-1.354279758171118,-0.0637864594726745
-4.0655,-1.074273799854052,-1.523825972653797,-0.07436953688352363
-4.065,-1.052933450138706,-1.142346990068116,-0.04262030465100513
-4.0645,-0.6474668055467465,-0.5595318777835605,-0.03203722724012713
-4.064,-0.2206598112394408,-0.1038764263613609,-0.04262030465097626
-4.0635,0.08877525963307437,0.1504428953624262,-0.04262030465097626
-4.063,0.2701682322140286,0.2246193641987909,-0.05320338206182537
-4.0625,0.3448594562177392,0.1822328105781598,-0.05320338206182537
-4.062,0.366199805933085,0.07626642652658183,-0.06378645947266487
-4.0615,0.3555296310753927,-0.04029659593043341,-0.1061187691160806
-4.061,0.3235191065023739,-0.1250697031716958,-0.1167018465269201
-4.0605,0.291508581929326,-0.1780528951975329,-0.1167018465269201
-4.06,0.2488278824985275,-0.1886495336026233,-0.09553569170518339
-4.0595,0.1741366584948169,-0.1038764263613609,-0.05320338206182537
-4.059,-0.3060212101009019,0.383568940276341,-0.05320338206182537
-4.0585,-0.9248913518459323,0.9451907757497041,-0.05320338206182537
-4.058,-1.351698346153801,0.7226613692416989,-0.03203722724012713
-4.0575,-1.447729919872945,0.09745970333682032,-0.021454149829278
-4.057,-0.9995825758506812,-0.1886495336024401,-0.0320372272401175
-4.0565,-0.4340633083930936,-0.2098428104130352,-0.021454149829278
-4.056,0.01408403562957729,-0.1462629799820306,-0.021454149829278
-4.0555,0.2915085819290737,-0.04029659593045269,-0.021454149829278
-4.055,0.4088805053638641,0.06566978812145294,-0.021454149829278
-4.0545,0.4408910299368829,0.2140227257936621,-0.021454149829278
-4.054,0.4408910299368829,0.3411823866555556,-0.021454149829278
-4.0535,0.6969752265213828,0.2034260873884657,0.03146123722497725
-4.053,0.825017324813458,0.1716361721729923,0.04204431463581675
-4.0525,0.7289857510943143,0.3517790250608387,0.03146123722496762
-4.052,0.590273477944333,0.563711793164332,0.02087815981410887
-4.0515,0.4729015545099309,0.7226613692416989,0.01029508240326937
-4.051,0.3982103305061524,0.7120647308365314,-0.03203722724012713
-4.0505,0.1848068333526937,0.1504428953631682,-0.06378645947264563
-4.05,-0.3487019095316325,-0.5595318777835605,-0.05320338206182537
-4.0495,-0.8928808272734472,-1.068170521231597,-0.03203722724012713
-4.049,-1.330357996438038,-1.258910012524437,-0.08495261429432463
-4.0485,-1.383708870726422,-1.174136905282838,-0.05320338206180612
-4.048,-0.9142211769888124,-0.6972881770507372,-0.03203722724012713
-4.0475,-0.3913826089628386,-0.2204394488186364,-0.03203722724012713
-4.047,0.003413860772108149,0.07626642652658183,-0.04262030465098588
-4.0465,0.2381577076409128,0.1822328105781598,-0.05320338206182537
-4.046,0.3448594562176421,0.1504428953626864,-0.05320338206182537
-4.0455,0.3768699807907774,0.04447651131085786,-0.05320338206186388
-4.045,0.3661998059331045,-0.09327978795619347,-0.09553569170522189
-4.0445,0.3448594562177392,-0.2098428104130352,-0.1167018465269201
-4.044,0.3021787567869698,-0.2840192792492169,-0.1167018465269009
-4.0435,0.2594980573562781,-0.2946159176543747,-0.09553569170522189
-4.043,0.2381577076409128,-0.2946159176543747,-0.08495261429437276
-4.0425,0.1421261339218563,-0.2628260024389013,-0.04262030465101476
-4.042,-0.274010685527854,-0.07208651114585861,-0.05320338206182537
-4.0415,-0.7328282044082075,-0.3793890248957141,-0.04262030465097626
-4.041,-1.127624674142106,-0.8562377531278149,-0.01087107241845775
-4.0405,-1.074273799853664,-0.8244478379124764,-0.021454149829278
-4.04,-0.6474668055467465,-0.5277419625680583,-0.021454149829278
-4.0395,-0.220659811239829,-0.1886495336030088,-0.021454149829278
-4.039,0.04609456020279989,0.02328323450079285,-0.021454149829278
-4.0385,0.2381577076409128,0.1822328105781598,-0.021454149829278
-4.038,0.3448594562176421,0.3199891098452111,-0.021454149829278
-4.0375,0.3982103305062689,0.4259554938969625,-0.02145414982924912
-4.037,0.5262524287983441,0.3729723018711736,0.01029508240326937
-4.0365,0.6436243522328531,0.2670059178194992,0.04204431463581675
-4.036,0.600943652802045,0.3517790250609543,0.03146123722496762
-4.0355,0.5155822539406614,0.4789386859228479,0.03146123722496762
-4.035,0.4408910299368829,0.5743084315693548,0.01029508240326937
-4.0345,0.4195506802215371,0.6060983467848282,-0.02145414982924913
-4.034,0.7503261008096795,0.1822328105781598,-0.05320338206182537
-4.0335,0.7396559259519968,-0.5489352393783931,-0.05320338206182537
-4.033,-0.06060718837347334,-1.163540266877545,-0.04262030465098588
-4.0325,-0.9355615267045367,-1.576809164679663,-0.08495261429435351
-4.032,-1.330357996438436,-1.608599079895136,-0.0637864594726745
-4.0315,-1.031593100423593,-1.046977244421773,-0.032037227240156
-4.031,-0.5300948821118492,-0.4429688553263429,-0.03203722724013675
-4.0305,-0.1032878878049318,-0.02969995752518888,-0.04262030465097626
-4.03,0.1741366584945646,0.1716361721728092,-0.04262030465097626
-4.0295,0.3235191065024127,0.2034260873884368,-0.05320338206182537
-4.029,0.3661998059331045,0.13984625695749,-0.05320338206182537
-4.0285,0.3768699807907871,0.03387987290581572,-0.08495261429437276
-4.028,0.355529631075383,-0.07208651114592607,-0.1167018465269201
-4.0275,0.3128489316446912,-0.1462629799820306,-0.1167018465269201
-4.027,0.2808384070716433,-0.1886495336027004,-0.106118769116071
-4.0265,0.2701682322139704,-0.2098428104130159,-0.08495261429439201
-4.026,0.09944543449103843,-0.01910331912002144,-0.04262030465097626
-4.0255,-0.4980843575391895,0.5849050699745222,-0.05320338206182537
-4.025,-0.9889124009921447,0.8392243916983093,-0.05320338206182537
-4.0245,-1.341028171296244,0.203426087387926,-0.02145414982928762
-4.024,-1.479740444445993,-0.4217755785163839,-0.03203722724012713
-4.0235,-1.138294849000459,-0.4853554089473306,-0.02145414982928762
-4.023,-0.5941159312578869,-0.3052125560593108,-0.021454149829278
-4.0225,-0.1032878878049318,-0.05089323433552374,-0.021454149829278
-4.022,0.2168173579252564,0.2140227257934212,-0.021454149829278
-4.0215,0.3982103305062009,0.4047622170867915,-0.021454149829278
-4.021,0.4515612047945656,0.5319218779486851,-0.021454149829278
-4.0205,0.5155822539406614,0.5425185163538525,-0.01087107241842888
-4.02,0.6756348768059011,0.3941655786815084,0.03146123722496762
-4.0195,0.6756348768059011,0.3941655786815084,0.03146123722496762
-4.019,0.6222840025174878,0.4471487707073456,0.03146123722496762
-4.0185,0.5155822539407584,0.5213252395434501,0.01029508240328863
-4.018,0.4408910299368829,0.5743084315693548,-0.000287995007579752
-4.0175,0.6542945270905358,0.3411823866556712,-0.03203722724012713
-4.017,1.326515543123931,-0.09327978795579833,-0.05320338206180612
-4.0165,1.411876941985208,-0.5913217929995929,-0.04262030465100513
-4.016,0.5369226036560266,-1.174136905283272,-0.07436953688352363
-4.0155,-0.2633405106694435,-1.417859588601901,-0.06378645947268413
-4.015,-0.4233931335352751,-1.046977244420809,-0.04262030465097626
-4.0145,-0.274010685527854,-0.5489352393783931,-0.04262030465097626
-4.014,-0.04993701351672233,-0.1674562567927125,-0.04262030465097626
-4.0135,0.1421261339218757,0.03387987290585427,-0.04262030465098588
-4.013,0.2594980573562781,0.07626642652648545,-0.05320338206182537
-4.0125,0.3128489316446912,0.04447651131098315,-0.05320338206182537
-4.012,0.3341892813600565,-0.02969995752525634,-0.063786459472713
-4.0115,0.3341892813600565,-0.1038764263613609,-0.106118769116071
-4.011,0.3128489316446912,-0.1462629799820306,-0.1167018465269201
-4.0105,0.2915085819293454,-0.1674562567923462,-0.1167018465269201
-4.01,0.2701682322139607,-0.1780528951975329,-0.09553569170522189
-4.0095,0.1848068333524996,-0.07208651114585861,-0.05320338206182537
-4.009,-0.3380317346734744,0.4471487707068733,-0.05320338206182537
-4.0085,-0.8822106524160265,0.9875773293706341,-0.04262030465096663
-4.008,-1.170305373573196,0.7120647308365314,-0.03203722724012713
-4.0075,-1.298347471865271,0.161039533768326,-0.02145414982928762
-4.007,-1.01025275070752,-0.06148987274070081,-0.0320372272401175
-4.0065,-0.5300948821122373,-0.07208651114585861,-0.021454149829278
-4.006,-0.08194753808956648,-0.01910331912002144,-0.021454149829278
-4.0055,0.2274875327833951,0.07626642652660111,-0.021454149829278
-4.005,0.408880505363835,0.2034260873884947,-0.021454149829278
-4.0045,0.4942419042252961,0.3305857482505039,-0.021454149829278
-4.004,0.504912079083105,0.4471487707073167,-0.02145414982922987
-4.0035,0.6436243522328531,0.4153588554918433,0.03146123722496762
-4.003,0.6542945270905358,0.4471487707073456,0.03146123722496762
-4.0025,0.5796033030868253,0.5637117931640814,0.03146123722496762
-4.002,0.4835717293676135,0.6802748156210291,0.0208781598141185
-4.0015,0.4302208550792003,0.7438546460520338,0.01029508240326937
-4.001,0.4515612047945461,0.7862411996726649,-0.02145414982924913
-4.0005,0.7716664505247633,1.040560521396568,-0.032037227240156
-4,0.4622313796522482,0.8710143069140429,-0.0637864594726745
-3.9995,-0.2953510352432193,0.08686306493165288,-0.05320338206182537
-3.999,-0.9782422261349084,-0.07208651114585861,-0.08495261429437276
-3.9985,-1.180975548430879,-0.1250697031716958,-0.0637864594726745
-3.998,-0.839529952985034,-0.1886495336027004,-0.04262030465097626
-3.9975,-0.3807124341046804,-0.2416327256285375,-0.04262030465097626
-3.997,-0.007256314085787988,-0.2628260024388724,-0.04262030465097626
-3.9965,0.2168173579255475,-0.2628260024388724,-0.05320338206182537
-3.996,0.3235191065023739,-0.2416327256285375,-0.04262030465097626
-3.9955,0.3661998059331045,-0.2098428104130352,-0.05320338206182537
-3.995,0.3555296310754218,-0.1568596183871981,-0.09553569170522189
-3.9945,0.3341892813600565,-0.08268314955102604,-0.1167018465269201
-3.994,0.3021787567870086,0.002089957690313421,-0.1167018465269201
-3.9935,0.2808384070716433,0.09745970333682032,-0.09553569170522189
-3.993,0.2488278824985954,0.2352160026039969,-0.0637864594726745
-3.9925,-0.09261771294724913,0.6166949851900245,-0.05320338206182537
-3.992,-0.7008176798351597,1.157123543853563,-0.05320338206182537
-3.9915,-1.170305373573196,1.135930267043229,-0.04262030465097626
-3.991,-1.319687821580753,0.5107286011383502,-0.021454149829278
-3.9905,-0.9675720512772257,0.1928294489833272,-0.03203722724012713
-3.99,-0.4874141826815069,0.09745970333682032,-0.03203722724012713
-3.9895,-0.08194753808956648,0.1610395337678249,-0.021454149829278
-3.989,0.1954770082101822,0.2776025562246667,-0.021454149829278
-3.9885,0.3341892813600565,0.383568940276341,-0.021454149829278
-3.988,0.408880505363835,0.4789386859228479,-0.021454149829278
-3.9875,0.4195506802215176,0.55311515475902,-0.03203722724012713
-3.987,0.5369226036560266,0.457745409112513,0.0208781598141185
-3.9865,0.6436243522328531,0.3517790250608387,0.03146123722496762
-3.986,0.6756348768059011,0.3729723018711736,0.03146123722496762
-3.9855,0.6116138276598051,0.4789386859228479,0.0208781598141185
-3.985,0.5049120790829789,0.5849050699745222,0.01029508240326937
-3.9845,0.4622313796522482,0.6696781772158616,-0.021454149829278
-3.984,0.7609962756673623,0.7968378380778709,-0.04262030465097626
-3.9835,0.825017324813458,0.627291623595192,-0.05320338206182537
-3.983,0.1101156093487211,-0.09327978795619347,-0.04262030465097626
-3.9825,-0.6794773301197943,-0.3052125560595421,-0.07436953688352363
-3.982,-1.191645723288561,0.01268659609548085,-0.0637864594726745
-3.9815,-1.010252750707956,0.04447651131098315,-0.05320338206182537
-3.981,-0.5621054066852853,-0.08268314955102604,-0.05320338206182537
-3.9805,-0.1459685872356623,-0.2416327256285375,-0.05320338206182537
-3.98,0.142126133921769,-0.3793890248957141,-0.05320338206182537
-3.9795,0.291508581929326,-0.4535654937318862,-0.05320338206182537
-3.979,0.3555296310754218,-0.474758770542221,-0.04262030465097626
-3.9785,0.3555296310754218,-0.4641621321370536,-0.08495261429437276
-3.978,0.3341892813600565,-0.400582301706049,-0.1167018465269201
-3.9775,0.3021787567870086,-0.2946159176543747,-0.1167018465269201
-3.977,0.2594980573562781,-0.1674562567923655,-0.106118769116071
-3.9765,0.2274875327832301,0.002089957690313421,-0.07436953688352363
-3.976,-0.03926683865883591,0.3729723018711736,-0.04262030465097626
-3.9755,-0.690147504977477,0.9769806909657173,-0.05320338206182537
-3.975,-1.287677297007705,1.485619334413754,-0.04262030465097626
-3.9745,-1.607782542738184,1.263089927905238,-0.01087107241842888
-3.974,-1.351698346153801,0.701468092431364,-0.03203722724012713
-3.9735,-0.8288597781273515,0.309392471440169,-0.03203722724012713
-3.973,-0.2953510352432193,0.1504428953626575,-0.03203722724012713
-3.9725,0.1314559590640864,0.1716361721729923,-0.021454149829278
-3.972,0.3768699807907871,0.2881991946298341,-0.021454149829278
-3.9715,0.4729015545099309,0.4047622170866759,-0.021454149829278
-3.971,0.4942419042252961,0.5425185163538525,-0.021454149829278
-3.9705,0.5369226036560266,0.6166949851900245,-0.000287995007579752
-3.97,0.6649647019482183,0.5955017083796896,0.04204431463581675
-3.9695,0.6329541773751706,0.7120647308365314,0.03146123722496762
-3.969,0.5262524287983441,0.849821030103708,0.03146123722496762
-3.9685,0.4515612047945656,0.9451907757502149,0.01029508240326937
-3.968,0.4195506802215176,0.9451907757502149,-0.021454149829278
-3.9675,0.4195506802215176,0.6378882620003594,-0.03203722724012713
-3.967,0.08877525963335578,-0.01910331912002144,-0.0637864594726745
-3.9665,-0.5194247072545548,-0.6866915386455698,-0.04262030465097626
-3.966,-1.010252750707956,-1.068170521231597,-0.0637864594726745
-3.9655,-1.394379045584531,-1.258910012524611,-0.08495261429437276
-3.965,-1.202315898146244,-1.01518732920576,-0.04262030465097626
-3.9645,-0.690147504977477,-0.5383386009732256,-0.03203722724012713
-3.964,-0.2099896363817582,-0.1674562567923655,-0.04262030465097626
-3.9635,0.1101156093487211,0.01268659609548085,-0.04262030465097626
-3.963,0.291508581929326,0.01268659609548085,-0.05320338206182537
-3.9625,0.3661998059331045,-0.08268314955102604,-0.05320338206182537
-3.962,0.3768699807907871,-0.2204394488182027,-0.07436953688352363
-3.9615,0.3555296310754218,-0.3687923864905467,-0.1167018465269201
-3.961,0.3235191065023739,-0.474758770542221,-0.1167018465269201
-3.9605,0.291508581929326,-0.5595318777835605,-0.1167018465269201
-3.96,0.2701682322139607,-0.6019184314042303,-0.106118769116071
-3.9595,0.2594980573562781,-0.6231117082145651,-0.05320338206182537
-3.959,-0.007256314085787988,-0.5171453241628908,-0.05320338206182537
-3.9585,-0.5194247072545548,-0.4641621321370536,-0.05320338206182537
-3.958,-1.010252750707956,-0.8562377531282487,-0.03203722724012713
-3.9575,-1.405049220442214,-1.163540266878104,-0.021454149829278
-3.957,-1.255666772434657,-0.8668343915334161,-0.021454149829278
-3.9565,-0.7434983792658902,-0.4111789401112165,-0.021454149829278
-3.956,-0.2313299860971235,-0.008506680714854012,-0.021454149829278
-3.9555,0.142126133921769,0.2987958330350016,-0.021454149829278
-3.955,0.3661998059331045,0.4471487707073456,-0.021454149829278
-3.9545,0.4408910299368829,0.5319218779486851,-0.021454149829278
-3.954,0.4729015545099309,0.5637117931641874,-0.021454149829278
-3.9535,0.6649647019482183,0.3517790250608387,0.03146123722496762
-3.953,0.6863050516635838,0.2987958330350016,0.03146123722496762
-3.9525,0.5902734779444399,0.4047622170866759,0.03146123722496762
-3.952,0.5049120790829789,0.5213252395435176,0.0208781598141185
