Class_4_Move_right_hand_Horiszontal/Class_4_Move_right_hand_Horiszontal_UZ_6.csv

#Digilent WaveForms Oscilloscope Acquisition
#Device Name: EExplorer
#Serial Number: SN:210151A2B84A
#Date Time: 2020-12-07 12:10:04.652
#Sample rate: 2000Hz
#Samples: 16384
#Trigger: Source: Channel 1 Type: Edge Condition: Rising Level: 0 V Hyst.: Auto HoldOff: 0 s
#Channel 1: Range: 1 V/div Offset: 0 V Attenuation: 1 X
#Channel 2: Range: 1 V/div Offset: 0 V Attenuation: 1 X
#Power Supplies: ON
#Fixed Supply: ON
#Voltage: 3.3 V Readback: 3.328 V
#Positive Supply: ON
#Voltage: 3.7 V Readback: 3.709 V
#Current: 40 mA Readback: 20 mA
#Negative Supply: ON
#Voltage: -3.7 V Readback: -3.797 V
#Current: -40 mA Readback: 0 A
#Reference 1: ON
#Voltage: 0 V
#Reference 2: ON
#Voltage: 0 V

Time (s),Channel 1 (V),Channel 2 (V)
-4.096,0.9637295979633325,0.1928294489833272
-4.0955,0.526252428798742,-0.2204394488178268
-4.095,0.2488278824984498,-0.4005823017060394
-4.0945,0.08877525963335578,-0.3899856633008816
-4.094,0.003413860771972282,-0.315809194464777
-4.0935,-0.04993701351666412,-0.2522293640338399
-4.093,-0.2099896363817582,-0.400582301706049
-4.0925,-0.242000160954777,-0.3370024712751023
-4.092,-0.1886492866663541,-0.1568596183870246
-4.0915,-0.1459685872356623,0.03387987290581572
-4.091,-0.1032878878049318,0.1822328105781598
-4.0905,-0.156638762093869,0.309392471440487
-4.09,-0.7328282044082075,0.6590815388106942
-4.0895,-1.223656247861609,1.157123543853563
-4.089,-0.924891351846767,1.443232780792824
-4.0885,-0.8822106524157645,0.7226613692416989
-4.088,-0.722158029550525,0.04447651131098315
-4.0875,-0.4447334832510286,-0.2840192792489085
-4.087,-0.19931946152393,-0.3793890248956949
-4.0865,-0.03926683865883591,-0.3581957480853793
-4.086,0.03542438534487465,-0.2946159176544325
-4.0855,0.0674349099179905,-0.2204394488181545
-4.085,0.0674349099179905,-0.1674562567923655
-4.0845,0.05676473506031757,-0.1144730647665765
-4.084,0.05676473506030786,-0.0720865111458297
-4.0835,0.05676473506030786,-0.04029659593035631
-4.083,0.0674349099179905,-0.01910331912002144
-4.0825,0.09944543449085405,0.002089957690072481
-4.082,-0.1032878878049318,-0.2628260024388724
-4.0815,0.4195506802215176,0.1292496185523226
-4.081,1.08110152139724,0.9345941373443151
-4.0805,1.443887466559051,0.9557874141553824
-4.08,1.51857869056283,0.2458126410091644
-4.0795,1.251824319121006,-0.2204394488177786
-4.079,0.7503261008093107,-0.5383386009733413
-4.0785,0.3448594562177392,-0.6654982618352349
-4.078,0.08877525963358868,-0.6549016234300771
-4.0775,-0.02859666380118239,-0.5701285161886123
-4.077,-0.06060718837420119,-0.4429688553267188
-4.0765,-0.2206598112392952,-0.5701285161886123
-4.076,-0.3060212101008437,-0.6019184314040568
-4.0755,-0.2420001609548061,-0.4111789401112165
-4.075,-0.156638762093345,-0.1674562567923655
-4.0745,-0.09261771294722002,0.04447651131112772
-4.074,-0.06060718837420119,0.2034260873884947
-4.0735,-0.423393133535411,0.4047622170866759
-4.073,-1.191645723287862,0.860417668508461
-4.0725,-1.223656247861609,1.326669758336243
-4.072,-1.031593100423322,0.8922075837243778
-4.0715,-0.9248913518465922,0.09745970333754317
-4.071,-0.6154562809734171,-0.2628260024389591
-4.0705,-0.3060212101009019,-0.3581957480853793
-4.07,-0.09261771294744323,-0.3052125560595903
-4.0695,0.02475421048729875,-0.2098428104129485
-4.069,0.0674349099179905,-0.1144730647665284
-4.0685,0.07810508477567314,-0.04029659593035631
-4.068,0.0674349099179808,0.01268659609550977
-4.0675,0.05676473506030786,0.04447651131098315
-4.067,0.05676473506030786,0.06566978812131802
-4.0665,0.05676473506031757,0.06566978812131802
-4.066,0.0674349099179905,0.06566978812131802
-4.0655,0.2808384070716433,0.2034260873884947
-4.065,0.9957401225357301,0.7120647308360688
-4.0645,1.593269914566608,1.25249328950007
-4.064,1.753322537431848,1.464426057603419
-4.0635,1.241154144263547,0.5637117931650066
-4.063,0.2488278824983237,-0.6972881770510938
-4.0625,-0.04993701351651855,-1.089363798041932
-4.062,-0.2206598112392856,-1.237716735714141
-4.0615,-0.2206598112393147,-1.089363798041643
-4.061,-0.08194753808956648,-0.7714646458869092
-4.0605,-0.02859666380115328,-0.5489352393783931
-4.06,-0.1459685872358176,-0.5807251545940206
-4.0595,-0.3166913849585846,-0.718481453861072
-4.059,-0.2953510352432193,-0.570128516188728
-4.0585,-0.1993194615241629,-0.3158091944649409
-4.058,-0.1032878878049318,-0.07208651114585861
-4.0575,-0.03926683865883591,0.1292496185523226
-4.057,-0.2206598112392759,0.3411823866554785
-4.0565,-0.9569018764195432,0.775644561267536
-4.056,-1.116954499284783,1.29487984312074
-4.0555,-0.5194247072550983,1.686955464111579
-4.055,-0.3593720843891987,1.655165548895884
-4.0545,-0.2313299860971235,1.051157159801889
-4.054,-0.1032878878050482,0.3835689402769482
-4.0535,-0.0179264889434221,-0.0932797879564055
-4.053,0.03542438534494258,-0.326405832869877
-4.0525,0.05676473506030786,-0.3793890248957141
-4.052,0.05676473506030786,-0.3158091944646035
-4.0515,0.05676473506030786,-0.1992461720078678
-4.051,0.04609456020262521,-0.06148987274069118
-4.0505,0.04609456020262521,0.06566978812120236
-4.05,0.04609456020262521,0.1716361721729923
-4.0495,0.05676473506030786,0.2670059178194992
-4.049,0.1527963087793643,0.383568940276235
-4.0485,0.7183155762372915,0.7862411996731468
-4.048,1.443887466559051,1.273686566310405
-4.0475,1.892034810581315,1.580989080059981
-4.047,2.020076908873603,1.008770606180478
-4.0465,1.678631313428069,0.1928294489833272
-4.046,1.102441871113731,-0.3581957480848782
-4.0455,0.5796033030863498,-0.5807251545940303
-4.045,0.1314559590640864,-0.7290780922662394
-4.0445,-0.6688071552621118,-1.311893204550448
-4.044,-0.754168554123505,-1.216523458903739
-4.0435,-0.6794773301197943,-0.9939940523954253
-4.043,-0.7328282044082075,-0.9728007755850904
-4.0425,-0.5087545323970759,-0.6443049850251987
-4.042,-0.274010685527854,-0.2734226408440398
-4.0415,-0.1673089369510276,-0.04029659593035631
-4.041,-0.10328788780499,0.150442895362484
-4.0405,-0.1566387620939563,0.2987958330352618
-4.04,-0.8288597781273515,0.5849050699745222
-4.0395,-1.682473766741186,1.082947075016939
-4.039,-1.58644219302279,1.305476481525089
-4.0385,-1.554431668449771,0.4047622170866759
-4.038,-1.255666772434929,-0.3158091944640543
-4.0375,-0.7755089038385694,-0.5171453241628523
-4.037,-0.3700422592469978,-0.474758770542221
-4.0365,-0.1032878878049318,-0.3475991096802118
-4.036,0.0354243853449911,-0.2098428104129389
-4.0355,0.08877525963335578,-0.1038764263613609
-4.035,0.09944543449103843,-0.02969995752518888
-4.0345,0.08877525963336548,0.002089957690284507
-4.034,0.0674349099179905,0.02328323450064829
-4.0335,0.05676473506030786,0.03387987290581572
-4.033,0.05676473506030786,0.03387987290581572
-4.0325,0.08877525963368574,0.04447651131122409
-4.032,0.4515612047945656,0.309392471440169
-4.0315,1.187803269973998,0.88161094531869
-4.031,1.828013761435878,1.379652950361935
-4.0305,2.105438307735375,1.220703374284568
-4.03,1.838683936293552,0.4153588554925757
-4.0295,1.283834843693307,-0.1886495336030377
-4.029,0.7289857510943143,-0.5595318777835605
-4.0285,0.3235191065023739,-0.718481453861072
-4.028,0.08877525963324903,-0.7184814538609949
-4.0275,-0.02859666380115328,-0.6337083466197325
-4.027,-0.06060718837420119,-0.5171453241628908
-4.0265,-0.252670335812314,-0.6231117082144687
-4.026,-0.9355615267041777,-1.227120097309109
-4.0255,-1.020922925565639,-1.174136905283272
-4.025,-0.7755089038391614,-0.7926579226975909
-4.0245,-0.5514352318273602,-0.4323722169211851
-4.024,-0.2846808603855366,-0.02969995752518888
-4.0235,-0.5300948821120142,0.4259554938965963
-4.023,-1.341028171295924,0.9663840525609931
-4.0225,-1.127624674142465,1.453829419198252
-4.022,-0.7861790786969313,1.369056311956989
-4.0215,-0.7221580295503115,0.8710143069135611
-4.021,-0.4874141826815069,0.3411823866556712
-4.0205,-0.2420001609548061,-0.02969995752518888
-4.02,-0.06060718837411385,-0.2204394488182412
-4.0195,0.03542438534494258,-0.2628260024388724
-4.019,0.0674349099179905,-0.2310360872233701
-4.0185,0.0674349099179905,-0.1462629799821077
-4.018,0.05676473506030786,-0.05089323433552374
-4.0175,0.05676473506030786,0.04447651131098315
-4.017,0.05676473506030786,0.1292496185522455
-4.0165,0.0674349099179905,0.1928294489833658
-4.016,0.0674349099179905,0.2352160026039969
-4.0155,0.2701682322137763,0.4047622170865217
-4.015,0.8890383739600876,0.8710143069144862
-4.0145,1.475897991132099,1.358459673551745
-4.014,1.860024286008325,1.464426057603323
-4.0135,1.806673411719834,0.6696781772151678
-4.013,1.337185717982225,-0.09327978795619347
-4.0125,0.7823366253827275,-0.5171453241628908
-4.012,0.3661998059328813,-0.6972881770507565
-4.0115,0.1207857842064037,-0.718481453861072
-4.011,0.00341386077189465,-0.6549016234300674
-4.0105,-0.0392668386587971,-0.5489352393784894
-4.01,-0.156638762093345,-0.5595318777835605
-4.0095,-0.3273615598162672,-0.6443049850249
-4.009,-0.3060212101009214,-0.4959520473526908
-4.0085,-0.2099896363817873,-0.2734226408439531
-4.008,-0.2420001609548061,-0.1780528951975329
-4.0075,-0.7968492535537988,-0.6019184314038448
-4.007,-0.9782422261354519,-0.36879238648993
-4.0065,-1.575772018165136,0.309392471440169
-4.006,-1.586442193022819,1.082947075017392
-4.0055,-1.020922925565688,1.284283204714715
-4.005,-1.074273799854052,0.3411823866556712
-4.0045,-0.8822106524157645,-0.2946159176543747
-4.004,-0.5514352318273408,-0.48535540894735
-4.0035,-0.2633405106701714,-0.4429688553267188
-4.003,-0.07127736323188383,-0.3052125560595421
-4.0025,0.03542438534484553,-0.1674562567924908
-4.002,0.07810508477567314,-0.04029659593035631
-4.0015,0.08877525963335578,0.05507314971615059
-4.001,0.07810508477568284,0.1080563417419396
-4.0005,0.0674349099179808,0.1398462569575093
-4,0.05676473506030786,0.1610395337678249
-3.9995,0.05676473506030786,0.1610395337678249
-3.999,0.1634664836371343,0.2140227257936621
-3.9985,0.7503261008096795,0.6060983467848571
-3.998,1.379866417412955,1.146526905448396
-3.9975,1.678631313428069,1.475022696008586
-3.997,1.678631313428069,0.849821030103708
-3.9965,1.369196242555273,0.01268659609548085
-3.996,0.8997085488172365,-0.5383386009732256
-3.9955,0.4729015545099309,-0.7608680074817418
-3.995,0.1954770082101822,-0.8032545611024114
-3.9945,0.05676473506030786,-0.7396747306714069
-3.994,-0.007256314085787988,-0.6231117082145651
-3.9935,-0.08194753808956648,-0.5489352393783931
-3.993,-0.2953510352432193,-0.6654982618352349
-3.9925,-0.3273615598162672,-0.5807251545938954
-3.992,-0.2420001609548061,-0.3687923864905467
-3.9915,-0.156638762093345,-0.1462629799820306
-3.991,-0.08194753808956648,0.03387987290581572
-3.9905,-0.1352984123779797,0.1928294489833272
-3.99,-0.6688071552621118,0.5319218779486851
-3.9895,-1.159635198715513,0.8180311148882058
-3.989,-1.244996597576974,0.5743084315693548
-3.9885,-1.287677297007705,-0.1144730647665284
-3.988,-1.244996597576974,-0.7396747306714069
-3.9875,-0.8822106524157645,-0.8138511995075789
-3.987,-0.4127229586777283,-0.5383386009732256
-3.9865,-0.124628237520297,-0.3052125560595421
-3.986,-0.01792648894347063,-0.1568596183871981
-3.9855,0.03542438534494258,-0.04029659593035631
-3.985,0.05676473506030786,0.05507314971615059
-3.9845,0.05676473506030786,0.1186529801471552
-3.984,0.05676473506030786,0.1610395337678249
-3.9835,0.0674349099179905,0.1822328105781598
-3.983,0.08877525963335578,0.2034260873884947
-3.9825,0.1314559590640864,0.2034260873884947
-3.982,0.5689331282290746,0.4683420475176805
-3.9815,1.305175193409177,0.9875773293708847
-3.981,1.774662887147213,1.453829419198252
-3.9805,1.945385684870135,1.33726639674141
-3.98,1.635950613997339,0.5743084315693548
-3.9795,1.091771696255524,-0.1674562567923655
-3.979,0.6222840025174878,-0.6549016234300674
-3.9785,0.3021787567870086,-0.8562377531282487
-3.978,0.09944543449103843,-0.8668343915334161
-3.9775,0.00341386077189465,-0.7502713690765743
-3.977,-0.03926683865883591,-0.6125150698093976
-3.9765,-0.2420001609548061,-0.6760949002404023
-3.976,-0.3273615598162672,-0.6337083466197325
-3.9755,-0.2633405106701714,-0.4217755785163839
-3.975,-0.1779791118087102,-0.1886495336027004
-3.9745,-0.1032878878049318,0.02328323450064829
-3.974,-0.09261771294724913,0.1928294489833272
-3.9735,-0.5194247072545548,0.383568940276341
-3.973,-1.052933450138687,0.8392243916985406
-3.9725,-0.690147504977477,1.33726639674141
-3.972,-0.3807124341046804,1.559795803249926
-3.9715,-0.3380317346739499,1.263089927905238
-3.971,-0.2099896363817582,0.6590815388106942
-3.9705,-0.4020527838200457,-0.1568596183871981
-3.97,-0.8608703027003992,-0.9939940523954253
-3.9695,-0.6688071552621118,-0.9728007755850904
-3.969,-0.5087545323968721,-0.8244478379127463
-3.9685,-0.3166913849585846,-0.5489352393783931
-3.968,-0.07127736323188383,-0.2098428104130352
-3.9675,0.02475421048725994,0.002089957690313421
-3.967,0.03542438534494258,0.09745970333682032
-3.9665,0.04609456020262521,0.1716361721729923
-3.966,0.05676473506030786,0.2352160026039969
-3.9655,0.3235191065023739,0.4365521323021782
-3.965,1.017080472251745,0.92399749893988
-3.9645,1.582599739708926,1.400846227172415
-3.964,1.860024286008674,1.453829419198252
-3.9635,1.710641838001117,0.6378882620003594
-3.963,1.241154144263081,-0.08268314955102604
-3.9625,0.7396559259519968,-0.4959520473525559
-3.962,0.3448594562177392,-0.6549016234300674
-3.9615,0.09944543449103843,-0.6866915386455698
-3.961,-0.007256314085787988,-0.6019184314042303
-3.9605,-0.04993701351651855,-0.4853554089473885
-3.96,-0.156638762093345,-0.4535654937318862
-3.9595,-0.274010685527854,-0.474758770542221
-3.959,-0.2313299860971235,-0.3370024712750445
-3.9585,-0.156638762093345,-0.1568596183871981
-3.958,-0.09261771294724913,0.02328323450064829
-3.9575,-0.04993701351651855,0.1610395337678249
-3.957,-0.3060212101009019,0.3517790250608387
-3.9565,-0.9889124009925911,0.8074344764830383
-3.956,-0.9782422261349084,1.305476481525908
-3.9555,-0.5194247072545548,1.146526905448396
-3.955,-0.5621054066852853,0.2670059178194992
-3.9545,-0.4447334832507763,-0.2204394488182027
-3.954,-0.2633405106701714,-0.3793890248957141
-3.9535,-0.1139580626626144,-0.3581957480853793
-3.953,-0.01792648894347063,-0.2734226408440398
-3.9525,0.02475421048725994,-0.1674562567923655
-3.952,0.04609456020262521,-0.08268314955102604
-3.9515,-0.08194753808956648,-0.1356663415768632
-3.951,-0.722158029550525,-0.718481453861072
-3.9505,-0.7008176798351597,-0.6760949002404023
-3.95,-0.5621054066852853,-0.5065486857577234
-3.9495,-0.3807124341046804,-0.3370024712750445
-3.949,0.00341386077189465,-0.01910331912002144
-3.9485,0.8143471499557753,0.5849050699745222
-3.948,1.550589215135878,1.188913459069066
-3.9475,2.009406734016231,1.538602526439591
-3.947,1.988066384300866,0.9028042221295453
-3.9465,1.529248865420512,0.06566978812131802
-3.946,0.9850699476786977,-0.5065486857577234
-3.9455,0.5369226036560266,-0.7608680074817418
-3.945,0.2381577076409128,-0.8032545611024114
-3.9445,0.0674349099179905,-0.7290780922662394
-3.944,-0.02859666380115328,-0.6019184314042303
-3.9435,-0.124628237520297,-0.5595318777835605
-3.943,-0.3380317346739499,-0.7290780922662394
-3.9425,-0.3487019095316325,-0.6337083466197325
-3.942,-0.2526703358124887,-0.400582301706049
-3.9415,-0.156638762093345,-0.1568596183871981
-3.941,-0.08194753808956648,0.03387987290581572
-3.9405,-0.1673089369510276,0.2034260873884947
-3.94,-0.8181896032696687,0.5743084315693548
-3.9395,-1.394379045584531,1.104140351827727
-3.939,-1.084943974711735,1.517409249629256
-3.9385,-0.9142211769888124,1.538602526439591
-3.938,-0.6367966306890638,1.00877060618122
-3.9375,-0.3380317346739499,0.3941655786815084
-3.937,-0.124628237520297,-0.05089323433552374
-3.9365,-0.007256314085787988,-0.2734226408440398
-3.936,0.04609456020262521,-0.326405832869877
-3.9355,0.05676473506030786,-0.2734226408440398
-3.935,0.04609456020262521,-0.1780528951975329
-3.9345,0.03542438534494258,-0.05089323433552374
-3.934,0.03542438534494258,0.05507314971615059
-3.9335,0.03542438534494258,0.1610395337678249
-3.933,0.04609456020262521,0.2352160026039969
-3.9325,0.08877525963335578,0.309392471440169
-3.932,0.09944543449103843,0.2246193641988295
-3.9315,0.3768699807907871,0.383568940276341
-3.931,0.9637295979633325,1.061753798207057
-3.9305,1.262494493978446,0.8604176685088755
-3.93,1.230483969405398,0.13984625695749
-3.9295,0.9530594231056497,-0.2840192792492073
-3.929,0.5475927785137094,-0.5595318777835605
-3.9285,0.2168173579255475,-0.6760949002404023
-3.928,0.02475421048725994,-0.6443049850249
-3.9275,-0.04993701351651855,-0.5595318777835605
-3.927,-0.08194753808956648,-0.4535654937318862
-3.9265,-0.274010685527854,-0.6125150698093976
-3.926,-0.3380317346739499,-0.6231117082145651
-3.9255,-0.2526703358124887,-0.4217755785163839
-3.925,-0.156638762093345,-0.1992461720078678
-3.9245,-0.09261771294724913,-0.008506680714854012
-3.924,-0.08194753808956648,0.13984625695749
-3.9235,-0.4767440078238243,0.383568940276341
-3.923,-1.330357996438436,0.8816109453192104
-3.9225,-1.607782542738184,1.29487984312074
-3.922,-1.597112367880501,0.7120647308365314
-3.9215,-1.351698346153801,-0.02969995752518888
-3.921,-0.8608703027003992,-0.3475991096802118
-3.9205,-0.423393133535411,-0.400582301706049
-3.92,-0.1352984123779797,-0.3370024712750445
-3.9195,0.02475421048725994,-0.2310360872233701
-3.919,0.07810508477567314,-0.1356663415768632
-3.9185,0.08877525963335578,-0.06148987274069118
-3.918,0.0674349099179905,-0.008506680714854012
-3.9175,0.05676473506030786,0.03387987290581572
-3.917,0.04609456020262521,0.05507314971615059
-3.9165,0.04609456020262521,0.06566978812131802
-3.916,0.0674349099179905,0.07626642652648545
-3.9155,0.3448594562177392,0.2987958330350016
-3.915,1.006410297394063,0.8392243916985406
-3.9145,1.539919040278195,1.347863035146577
-3.914,1.838683936293309,1.411442865577582
-3.9135,1.625280439139656,0.6802748156210291
-3.913,0.707645401378949,-0.4217755785163839
-3.9125,-0.1886492866663929,-1.301296566145281
-3.912,-0.391382608962363,-1.375473034981453
-3.9115,-0.4554036581084589,-1.301296566145281
-3.911,-0.3273615598162672,-1.036380606016095
-3.9105,-0.124628237520297,-0.6972881770507372
-3.91,-0.2099896363817582,-0.7078848154559045
-3.9095,-0.3487019095316325,-0.8244478379127463
-3.909,-0.3166913849585846,-0.6443049850249
-3.9085,-0.2206598112394408,-0.3687923864905467
-3.908,-0.124628237520297,-0.1038764263613609
-3.9075,-0.06060718837420119,0.1080563417419877
-3.907,-0.3166913849585846,0.3729723018711736
-3.9065,-1.1062843244271,0.8710143069140429
-3.906,-1.159635198715513,1.369056311956912
-3.9055,-0.8502001278427167,1.040560521396722
-3.905,-0.9462317015618604,0.04447651131098315
-3.9045,-0.7328282044082075,-0.4111789401112165
-3.904,-0.423393133535411,-0.474758770542221
-3.9035,-0.1779791118087102,-0.3687923864905467
-3.903,-0.02859666380115328,-0.2098428104130352
-3.9025,0.04609456020262521,-0.06148987274069118
-3.902,0.0674349099179905,0.04447651131098315
-3.9015,0.0674349099179905,0.1186529801471552
-3.901,0.05676473506030786,0.1610395337678249
-3.9005,0.04609456020262521,0.1822328105781598
-3.9,0.04609456020262521,0.1928294489833272
-3.8995,0.05676473506030786,0.1822328105781598
-3.899,0.2168173579255475,0.2776025562246667
-3.8985,0.8783681991018712,0.7226613692416989
-3.898,1.475897991132099,1.241896651094903
-3.8975,1.806673411720261,1.506812611224089
-3.897,1.614610264281974,0.9769806909657173
-3.8965,1.209143619690033,0.1716361721729923
-3.896,0.7609962756673623,-0.4429688553267188
-3.8955,0.3982103305061524,-0.7396747306714069
-3.895,0.1527963087794516,-0.8456411147230812
-3.8945,-0.2420001609548061,-1.121153713257435
-3.894,-0.839529952985034,-1.587405803084801
-3.8935,-0.7861790786966207,-1.417859588602123
-3.893,-0.8715404775580819,-1.42845622700729
-3.8925,-0.6794773301197943,-1.089363798041932
-3.892,-0.3380317346739499,-0.570128516188728
-3.8915,-0.156638762093345,-0.1992461720078678
-3.891,-0.09261771294724913,0.04447651131098315
-3.8905,-0.1993194615240755,0.2670059178194992
-3.89,-0.9462317015618604,0.6908714540261965
-3.8895,-1.543761493592088,1.210106735879401
-3.889,-1.30901764672307,1.273686566310405
