Class_4_Move_right_hand_Horiszontal/Class_4_Move_Right_hand_Horizontal_Turki_11.csv

#Digilent WaveForms Oscilloscope Acquisition
#Device Name: EExplorer
#Serial Number: SN:210151A2B84A
#Date Time: 2020-12-21 15:25:17.401
#Sample rate: 2000Hz
#Samples: 16384
#Trigger: Source: Channel 1 Type: Edge Condition: Rising Level: 0 V Hyst.: Auto HoldOff: 0 s
#Channel 1: Range: 1 V/div Offset: 0 V
#Channel 2: Range: 1 V/div Offset: 0 V

Time (s),Channel 1 (V),Channel 2 (V)
-4.0960000000000001,0.21681735792554749,0.0020899576903134209
-4.0955000000000004,0.52625242879806267,0.26700591781925831
-4.0949999999999998,0.67563487680592049,0.30939247144010151
-4.0945,0.69697522652126631,0.23521600260399694
-4.0940000000000003,0.75032610080963102,0.097459703336945591
-4.0934999999999997,1.0384208219671009,-0.17805289519748474
-4.093,1.0277506471094282,-0.12506970317169577
-4.0925000000000002,0.84635767452898825,0.097459703336617937
-4.0919999999999996,0.6756348768057846,0.29879583303514612
-4.0914999999999999,0.54759277851370936,0.45774540911251305
-4.0910000000000002,0.53692260365602662,0.74385464605203377
-4.0904999999999996,1.1024418711132939,1.3478630351467509
-4.0899999999999999,1.1984734448323504,1.5386025264395911
-4.0895000000000001,0.4622313796522482,0.83922439169854057
-4.0890000000000004,-0.5407650569690079,-0.15685961838629214
-4.0884999999999998,-1.2343264227192918,-0.96220413717992292
-4.0880000000000001,-1.0742737998540521,-0.9092209451540858
-4.0875000000000004,-0.58344575640109697,-0.43237221692198502
-4.0869999999999997,-0.10328788780463091,0.076266426526832409
-4.0865,0.22748753278323011,0.45774540911251305
-4.0860000000000003,0.40888050536367004,0.69087145402598449
-4.0854999999999997,0.48357172936762322,0.81803111488825397
-4.085,0.49424190422529612,0.87101430691404291
-4.0845000000000002,0.48357172936762322,0.91340086053467417
-4.0839999999999996,0.46223137965222877,0.94519077575020527
-4.0834999999999999,0.44089102993688295,0.93459413734504748
-4.0830000000000002,0.3982103305061524,0.83922439169854057
-4.0824999999999996,0.1634664836365132,0.89220758372417541
-4.0819999999999999,-0.51942470725455481,0.66967817721586165
-4.0815000000000001,-1.2129860730039266,-0.22043944881820265
-4.0810000000000004,-1.4263895701573852,-0.94101086036893278
-4.0804999999999998,-1.0209229255656389,-0.9304142219644207
-4.0800000000000001,-0.39138260896236304,-0.54893523937839306
-4.0795000000000003,0.15279630877895672,-0.17805289519787026
-4.0789999999999997,0.46223137965238403,0.076266426526620371
-4.0785,0.6116138276598051,0.2246193641988295
-4.0780000000000003,0.65429452709049696,0.28819919462977628
-4.0774999999999997,0.64362435223299863,0.2987958330349148
-4.077,0.80367697509809277,0.20342608738849466
-4.0765000000000002,0.84635767452878441,0.16103953376786348
-4.0759999999999996,0.73965592595189,0.21402272579372955
-4.0754999999999999,0.62228400251748783,0.28819919462983412
-4.0750000000000002,0.53692260365602662,0.37297230187117358
-4.0744999999999996,0.54759277851416543,0.5319218779491669
-4.0739999999999998,1.0490909968247935,1.0617537982070568
-4.0735000000000001,1.3478558928399074,1.241896651094903
-4.0730000000000004,0.80367697509858771,0.4047622170874372
-4.0724999999999998,-0.16730893695102761,-0.65490162343006741
-4.0720000000000001,-0.81818960326966872,-1.2906999277401132
-4.0715000000000003,-0.73282820440828511,-1.0151873292060105
-4.0709999999999997,-0.37004225924665812,-0.37938902489517445
-4.0705,0.0034138607718946501,0.21402272579366208
-4.0700000000000003,0.25949805735604514,0.63788826199997384
-4.0694999999999997,0.39821033050621063,0.88161094531930673
-4.069,0.4622313796522482,0.98757732937088472
-4.0685000000000002,0.47290155450993088,1.0193672445863871
-4.0679999999999996,0.46223137965222877,1.0193672445863677
-4.0674999999999999,0.44089102993688295,0.99817396777605205
-4.0670000000000002,0.43022085507920033,0.95578741415538238
-4.0664999999999996,0.36619980593284246,0.89220758372397302
-4.0659999999999998,0.078105084775673142,0.4471487707073456
-4.0655000000000001,-0.63679663068906378,-0.44296885532671876
-4.0650000000000004,-1.3196878215801318,-1.3118932045496579
-4.0644999999999998,-1.5971123678805015,-1.7675486559726479
-4.0640000000000001,-1.1382948490001481,-1.3118932045504481
-4.0635000000000003,-0.46607383296675298,-0.61251506981003367
-4.0629999999999997,0.067434909918320463,-0.061489872740373139
-4.0625,0.43022085507920033,0.28819919462983412
-4.0620000000000003,0.57960330308662145,0.38356894027625432
-4.0614999999999997,0.61161382765978567,0.2670059178193932
-4.0609999999999999,0.59027347794443985,0.15044289536265748
-4.0605000000000002,0.63295417737517057,0.012686596095480854
-4.0599999999999996,0.67563487680587198,-0.10387642636134163
-4.0594999999999999,0.64362435223285308,-0.082683149551026042
-4.0590000000000002,0.57960330308675734,0.012686596095480854
-4.0585000000000004,0.51558225394071955,0.12924961855221662
-4.0579999999999998,0.43022085507920033,0.19282944898332721
-4.0575000000000001,-0.11395806266261441,-0.2310360872233701
-4.0570000000000004,-0.79684925355368241,-0.9622041371792579
-4.0564999999999998,-1.3303579964384356,-1.5768091646796343
-4.056,-1.8105158650341544,-1.947691508860494
-4.0555000000000003,-1.8958772638955379,-1.947691508860494
-4.0549999999999997,-1.2770071221493722,-1.1741369052824429
-4.0545,-0.5621054066852853,-0.26282600243887239
-4.0540000000000003,-0.017926488943965535,0.44714877070669995
-4.0534999999999997,0.31284893164483679,0.87101430691421644
-4.0529999999999999,0.47290155450993088,1.0617537982070568
-4.0525000000000002,0.51558225394066137,1.1041403518277266
-4.0519999999999996,0.50491207908294977,1.0511571598018026
-4.0514999999999999,0.47290155450993088,0.95578741415538238
-4.0510000000000002,0.45156120479456557,0.87101430691404291
-4.0505000000000004,0.41955068022154673,0.7862411996727805
-4.0499999999999998,0.3982103305061524,0.71206473083653143
-4.0495000000000001,0.41955068022151765,0.70146809243136399
-4.0490000000000004,0.49424190422522818,0.97698069096546669
-4.0484999999999998,-0.028596663801968451,0.71206473083567368
-4.048,-0.92489135184649518,-0.2310360872233701
-4.0475000000000003,-1.3623685210110856,-0.8774310299379956
-4.0469999999999997,-1.0102527507074324,-0.82444783791243792
-4.0465,-0.43406330839309365,-0.48535540894738849
-4.0460000000000003,0.067434909917534369,-0.14626297998233906
-4.0454999999999997,0.39821033050630766,0.033879872905854272
-4.0449999999999999,0.5689331282290746,0.076266426526485451
-4.0445000000000002,0.65429452709053582,0.055073149716150585
-4.0439999999999996,0.71831557623687414,0.0020899576901399443
-4.0434999999999999,0.98506994767869771,-0.18864953360270037
-4.0430000000000001,0.96372959796333246,-0.093279787956193475
-4.0425000000000004,0.80367697509823832,0.13984625695727798
-4.0419999999999998,0.64362435223285308,0.36237566346600614
-4.0415000000000001,0.52625242879834411,0.53192187794868506
-4.0410000000000004,0.29150858192953949,0.37297230187131813
-4.0404999999999998,-0.060607188374667005,-0.34759910968090574
-4.04,-0.57277558154296804,-1.1105570748522671
-4.0395000000000003,-0.8608703027001372,-1.6403889951101567
-4.0389999999999997,-1.2876772970078214,-1.937094870455182
-4.0385,-1.4157193952998968,-1.7781452943778153
-4.0380000000000003,-0.95690187641996038,-0.97280077558582279
-4.0374999999999996,-0.39138260896195548,-0.14626297998149093
-4.0369999999999999,0.05676473506030786,0.4471487707073456
-4.0365000000000002,0.32351910650237387,0.75445128445720111
-4.0359999999999996,0.45156120479460438,0.86041766850885615
-4.0354999999999999,0.49424190422529612,0.83922439169854057
-4.0350000000000001,0.4835717293676135,0.75445128445720111
-4.0345000000000004,0.46223137965226763,0.64848490040562323
-4.0339999999999998,0.43022085507920033,0.55311515475901996
-4.0335000000000001,0.41955068022151765,0.45774540911251305
-4.0330000000000004,0.41955068022151765,0.36237566346609285
-4.0324999999999998,0.6756348768061049,0.53192187794882961
-4.032,0.8997085488172365,0.69087145402619654
-4.0315000000000003,0.23815770764151434,-0.019103319119375795
-4.0309999999999997,-0.50875453239703705,-0.76086800748174177
-4.0305,-0.69014750497747701,-0.76086800748174177
-4.0300000000000002,-0.38071243410496186,-0.42177557851669234
-4.0294999999999996,0.014084035629839316,-0.093279787956010357
-4.0289999999999999,0.30217875678700862,0.10805634174198775
-4.0285000000000002,0.47290155450993088,0.17163617217299235
-4.0279999999999996,0.56893312822909403,0.21402272579366208
-4.0274999999999999,0.59027347794443985,0.21402272579366208
-4.0270000000000001,0.63295417737517057,0.16103953376782493
-4.0265000000000004,0.63295417737517057,0.1398462569575093
-4.0259999999999998,0.57960330308675734,0.21402272579366208
-4.0255000000000001,0.52625242879834411,0.33058574825050385
-4.0250000000000004,0.4835717293676523,0.45774540911239736
-4.0244999999999997,0.43022085507889951,0.5107286011379647
-4.024,0.099445434491038431,0.086863064931652884
-4.0235000000000003,-0.39138260896191662,-0.65490162342939273
-4.0229999999999997,-0.95690187642006719,-1.2801032893352928
-4.0225,-1.5330913187344057,-1.6615822719209734
-4.0220000000000002,-1.7678351656032105,-1.6933721871364469
-4.0214999999999996,-1.277007122149411,-1.0151873292049891
-4.0209999999999999,-0.6047861061160158,-0.1674562567923655
-4.0205000000000002,-0.06060718837420119,0.50013196273318283
-4.0199999999999996,0.28083840707178886,0.88161094531935491
-4.0194999999999999,0.44089102993688295,1.0405605213967219
-4.0190000000000001,0.49424190422529612,1.0405605213967219
-4.0185000000000004,0.49424190422529612,0.95578741415545942
-4.0179999999999998,0.4622313796522482,0.83922439169854057
-4.0175000000000001,0.44089102993688295,0.72266136924169888
-4.0170000000000003,0.40888050536386411,0.6060983467849631
-4.0164999999999997,0.37686998079066092,0.48953532432800567
-4.016,0.23815770764091276,0.47893868592284788
-4.0155000000000003,-0.19931946152367763,0.48953532432800567
-4.0149999999999997,-0.91422117698923944,-0.15685961838785345
-4.0145,-1.3837088707268488,-0.87743102993858346
-4.0140000000000002,-1.1703053735733899,-0.99399405239531924
-4.0134999999999996,-0.59411593125781892,-0.71848145386077322
-4.0129999999999999,-0.028596663801153277,-0.38998566330088158
-4.0125000000000002,0.38754015564846972,-0.15685961838719809
-4.0119999999999996,0.57960330308678643,0.0020899576904001593
-4.0114999999999998,0.6116138276598051,0.097459703336820316
-4.0110000000000001,0.59027347794443985,0.10805634174198775
-4.0105000000000004,0.70764540137884224,0.08686306493167216
-4.0099999999999998,0.88903837395955376,0.033879872905815719
-4.0095000000000001,0.82501732481345802,0.055073149716150585
-4.0090000000000003,0.68630505166370992,0.12924961855225514
-4.0084999999999997,0.55826295337133391,0.20342608738858139
-4.008,0.49424190422529612,0.29879583303500157
-4.0075000000000003,0.76099627566711958,0.68027481562068215
-4.0069999999999997,1.0277506471087781,1.1465269054478853
-4.0065,0.31284893164469124,0.58490506997452218
-4.0060000000000002,-0.6047861061160158,-0.4535654937318862
-4.0054999999999996,-1.2663369472922137,-1.2589100125245531
-4.0049999999999999,-1.1276246741424654,-1.1953301820936066
-4.0045000000000002,-0.62612645583138127,-0.55953187778356051
-4.0039999999999996,-0.1459685872353518,0.12924961855278522
-4.0034999999999998,0.19547700821018218,0.63788826200035942
-4.0030000000000001,0.38754015564846972,0.95578741415538238
-4.0025000000000004,0.46223137965218025,1.1147369902327495
-4.0019999999999998,0.47290155450993088,1.1677201822587309
-4.0015000000000001,0.4622313796522482,1.1571235438535634
-4.0010000000000003,0.43022085507922947,1.1147369902329327
-4.0004999999999997,0.40888050536382531,1.0723504366121568
-4,0.3982103305061524,0.99817396777605205
-3.9994999999999998,0.33418928136005654,0.87101430691404291
-3.9990000000000001,-0.16730893695102761,0.27760255622466667
-3.9984999999999999,-0.77550890383893822,-0.67609490024040231
-3.9980000000000002,-1.0849439747117349,-1.5026326958434622
-3.9975000000000001,-1.0956141495694174,-1.7569520175674804
-3.9969999999999999,-0.83952995298503397,-1.2483133741194434
-3.9965000000000002,-0.3700422592469978,-0.60191843140423029
-3.996,0.08877525963335578,-0.18864953360270037
-3.9954999999999998,0.38754015564846972,-0.0085066807148540119
-3.9950000000000001,0.55826295337139209,0.0020899576903134209
-3.9944999999999999,0.62228400251748783,-0.061489872740691176
-3.9940000000000002,0.65429452709053582,-0.1674562567923655
-3.9935,0.81434714995577528,-0.31580919446470956
-3.9929999999999999,0.78233662538272752,-0.24163272562853755
-3.9925000000000002,0.66496470194821833,-0.093279787956193475
-3.992,0.54759277851370936,0.076266426526485451
-3.9914999999999998,0.4835717293676135,0.20342608738849466
-3.9910000000000001,0.54759277851370936,0.45774540911251305
-3.9904999999999999,0.93171907339028448,1.0087706061812196
-3.9900000000000002,0.6863050516635838,0.775644561267536
-3.9895,0.024754210487259936,-0.093279787956193475
-3.9889999999999999,-0.76483872898125549,-0.84564111472308123
-3.9885000000000002,-1.3623685210114835,-1.3648763965762853
-3.988,-1.1596351987155133,-1.0681705212315973
-3.9874999999999998,-0.62612645583138127,-0.38998566330088158
-3.9870000000000001,-0.13529841237797968,0.23521600260399694
-3.9864999999999999,0.20614718306786484,0.69087145402619654
-3.9860000000000002,0.38754015564846972,0.95578741415538238
-3.9855,0.4622313796522482,1.0829470750173917
-3.9849999999999999,0.4622313796522482,1.1253336286380615
-3.9845000000000002,0.45156120479456557,1.1253336286380615
-3.984,0.41955068022151765,1.1041403518277266
-3.9834999999999998,0.3982103305061524,1.0723504366122243
-3.9830000000000001,0.32351910650237387,0.94519077575021493
-3.9824999999999999,-0.10328788780493176,0.55311515475901996
-3.9820000000000002,-0.8928808272734472,-0.2310360872233701
-3.9815,-1.554431668449771,-1.1105570748522671
-3.9809999999999999,-1.5757720181651362,-1.5450192494641319
-3.9805000000000001,-1.0529334501386869,-1.2589100125246109
-3.98,-0.38071243410468042,-0.75027136907657432
-3.9794999999999998,0.14212613392176898,-0.32640583286987701
-3.9790000000000001,0.45156120479456557,-0.093279787956193475
-3.9784999999999999,0.57960330308675734,0.023283234500648287
-3.9780000000000002,0.6116138276598051,0.0020899576903134209
-3.9775,0.62228400251748783,-0.072086511145858609
-3.9769999999999999,0.63295417737517057,0.086863064931652884
-3.9765000000000001,0.6116138276598051,0.2246193641988295
-3.976,0.55826295337139209,0.21402272579366208
-3.9754999999999998,0.49424190422529612,0.18223281057815977
-3.9750000000000001,0.4622313796522482,0.16103953376782493
-3.9744999999999999,0.38754015564846972,0.10805634174198775
-3.9740000000000002,-0.14596858723566233,-0.38998566330088158
-3.9735,-0.97824222613490841,-1.131750351662602
-3.9729999999999999,-1.7144842913150107,-1.7357587407571455
-3.9725000000000001,-2.301343908487556,-2.0854478081276708
-3.972,-1.9812386627570766,-1.7993385711881502
-3.9714999999999998,-1.1489650238578306,-0.89862430674891836
-3.9710000000000001,-0.40205278382004572,-0.0085066807148540119
-3.9704999999999999,0.099445434491038431,0.62729162359519197
-3.9700000000000002,0.3768699807907871,0.99817396777605205
-3.9695,0.49424190422529612,1.1571235438535634
-3.9689999999999999,0.50491207908297886,1.1783168206638983
-3.9685000000000001,0.4835717293676135,1.1359302670432285
-3.968,0.45156120479456557,1.0511571598018894
-3.9674999999999998,0.41955068022151765,0.96638405256054982
-3.9670000000000001,0.3982103305061524,0.88161094531921036
-3.9664999999999999,0.36619980593310447,0.7968378380778709
-3.9660000000000002,0.31284893164469124,0.84982103010370802
-3.9655,0.21681735792554749,0.98757732937088472
-3.9649999999999999,-0.22065981123944084,0.29879583303500157
-3.9645000000000001,-0.72215802955052499,-0.66549826183523486
-3.964,-0.92489135184649518,-1.1423469900677694
-3.9634999999999998,-0.62612645583138127,-0.98339741399025782
-3.9630000000000001,-0.17797911180871023,-0.59132179299906285
-3.9624999999999999,0.17413665849481691,-0.27342264084403983
-3.9620000000000002,0.43022085507920033,-0.072086511145858609
-3.9615,0.54759277851370936,0.033879872905815719
-3.9609999999999999,0.57960330308675734,0.076266426526485451
-3.9605000000000001,0.63295417737517057,0.033879872905815719
-3.96,0.76099627566736228,-0.050893234335523743
-3.9594999999999998,0.71831557623663156,-0.04029659593035631
-3.9590000000000001,0.6116138276598051,0.023283234500648287
-3.9584999999999999,0.51558225394066137,0.10805634174198775
-3.9580000000000002,0.4622313796522482,0.19282944898332721
-3.9575,0.25949805735627807,0.15044289536265748
-3.9569999999999999,-0.31669138495858457,-0.3581957480853793
-3.9565000000000001,-1.0315931004233216,-1.0893637980419322
-3.956,-1.67180359188428,-1.6297923567054711
-3.9554999999999998,-2.1839719850530468,-1.9159015936449921
-3.9550000000000001,-1.8425263896072024,-1.5450192494641319
-3.9544999999999999,-1.0529334501386869,-0.65490162343006741
-3.9540000000000002,-0.34870190953163249,0.17163617217299235
-3.9535,0.13145595906408636,0.75445128445720111
-3.9529999999999998,0.38754015564846972,1.0617537982070568
-3.9525000000000001,0.4835717293676135,1.1889134590690658
-3.952,0.50491207908297886,1.1783168206638983
-3.9514999999999998,0.47290155450993088,1.1147369902328941
-3.9510000000000001,0.44089102993688295,1.0299638829915545
-3.9504999999999999,0.41955068022151765,0.94519077575021493
-3.9500000000000002,0.38754015564846972,0.82862775329337313
-3.9495,0.32351910650237387,0.60609834678485708
-3.9489999999999998,0.046094560202625215,0.37297230187117358
-3.9485000000000001,-0.58344575640065055,-0.26282600243887239
-3.948,-1.1809755484308786,-1.0575738828264298
-3.9474999999999998,-1.2770071221500223,-1.3966663117917877
-3.9470000000000001,-0.86087030270039921,-1.0893637980419322
-3.9464999999999999,-0.30602121010090194,-0.61251506980939763
-3.9460000000000002,0.15279630877945163,-0.25222936403370499
-3.9455,0.44089102993688295,-0.10387642636136091
-3.9449999999999998,0.57960330308675734,-0.0085066807148540119
-3.9445000000000001,0.6116138276598051,0.012686596095480854
-3.944,0.6116138276598051,-0.029699957525188878
-3.9434999999999998,0.70764540137894905,-0.061489872740691176
-3.9430000000000001,0.69697522652126631,-0.061489872740691176
-3.9424999999999999,0.6116138276598051,-0.019103319120021445
-3.9420000000000002,0.52625242879834411,0.055073149716150585
-3.9415,0.47290155450993088,0.11865298014715518
-3.9409999999999998,0.35552963107542179,0.18223281057815977
-3.9405000000000001,-0.32736155981626724,-0.17805289519753292
-3.9399999999999999,-1.0102527507079564,-0.78206128429207655
-3.9394999999999998,-1.4263895701575793,-1.4072629501969551
-3.9390000000000001,-1.8638667393225676,-1.8629184016191549
-3.9384999999999999,-1.8318562147495197,-1.8205318479984851
-3.9380000000000002,-1.1703053735731959,-1.0363806060160949
-3.9375,-0.47674400782382426,-0.1674562567923655
-3.9369999999999998,0.035424385344942577,0.51072860113835017
-3.9365000000000001,0.33418928136005654,0.9134008605347127
-3.9359999999999999,0.4622313796522482,1.1041403518277266
-3.9355000000000002,0.49424190422529612,1.1571235438535634
-3.9350000000000001,0.4835717293676135,1.1253336286380615
-3.9344999999999999,0.45156120479456557,1.0723504366122243
-3.9340000000000002,0.41955068022151765,0.98757732937088472
-3.9335,0.40888050536383502,0.90280422212954525
-3.9329999999999998,0.3982103305061524,0.81803111488820579
-3.9325000000000001,0.47290155450993088,0.90280422212954525
-3.9319999999999999,0.67563487680590106,1.0935437134225592
-3.9315000000000002,0.34485945621773917,0.42595549389701071
-3.931,-0.08194753808956648,-0.57012851618872795
-3.9304999999999999,-0.44473348325077627,-0.98339741399025782
-3.9300000000000002,-0.32736155981626724,-0.76086800748174177
-3.9295,-0.0072563140857879876,-0.40058230170604903
-3.9289999999999998,0.27016823221396069,-0.072086511145858609
-3.9285000000000001,0.45156120479456557,0.097459703336820316
-3.9279999999999999,0.55826295337139209,0.076266426526485451
