Class_4_Move_right_hand_Horiszontal/Class_4_Move_right_hand_Horiszontal_SH_9.csv

#Digilent WaveForms Oscilloscope Acquisition
#Device Name: EExplorer
#Serial Number: SN:210151A2B84A
#Date Time: 2021-01-20 10:36:39.508
#Sample rate: 2000Hz
#Samples: 16384
#Trigger: Source: Channel 1 Type: Edge Condition: Rising Level: 0 V Hyst.: Auto HoldOff: 0 s
#Channel 1: Range: 1 V/div Offset: 0 V Attenuation: 1 X
#Channel 2: Range: 1 V/div Offset: 0 V Attenuation: 1 X
#Power Supplies: ON
#Fixed Supply: ON
#Voltage: 3.3 V Readback: 3.324 V
#Positive Supply: ON
#Voltage: 3.7 V Readback: 3.717 V
#Current: 40 mA Readback: 20 mA
#Negative Supply: ON
#Voltage: -3.7 V Readback: -3.7 V
#Current: -40 mA Readback: -9 mA
#Reference 1: ON
#Voltage: 0 V
#Reference 2: ON
#Voltage: 0 V

Time (s),Channel 1 (V),Channel 2 (V)
-4.096,-0.1673089369510276,0.4047622170866759
-4.0955,-0.2953510352431029,-0.04029659592995155
-4.095,-0.1352984123777759,-0.2628260024389013
-4.0945,0.08877525963335578,-0.2946159176543747
-4.094,0.2594980573561228,-0.2098428104131123
-4.0935,0.3768699807908356,-0.09327978795607782
-4.093,0.4302208550792003,0.03387987290581572
-4.0925,0.4408910299368732,0.1398462569573937
-4.092,0.4408910299368732,0.224619364198897
-4.0915,0.4302208550792003,0.2987958330350016
-4.091,0.4195506802215176,0.4683420475176805
-4.0905,0.4088805053638059,0.6484849004057004
-4.09,0.3768699807907871,0.8392243916985406
-4.0895,0.2594980573562781,0.9875773293708847
-4.089,-0.1459685872352935,1.210106735879198
-4.0885,-0.6261264558313813,1.400846227172415
-4.088,-1.159635198715513,1.432636142387917
-4.0875,-1.501080794161047,1.019367244586763
-4.087,-1.319687821580297,0.2564092794136572
-4.0865,-0.8181896032696687,-0.4853554089473885
-4.086,-0.2846808603860219,-1.015187329205278
-4.0855,0.1634664836373866,-1.290699927740219
-4.085,0.4408910299368829,-1.407262950196955
-4.0845,0.5796033030866312,-1.38606967338664
-4.084,0.6329541773751317,-1.439052865412477
-4.0835,0.5902734779444399,-1.460246142222792
-4.083,0.5582629533713921,-1.258910012524611
-4.0825,0.547592778513719,-0.9939940523951843
-4.082,0.5582629533713921,-0.7290780922662394
-4.0815,0.5582629533713921,-0.5383386009732256
-4.081,0.1527963087798204,-0.4853554089474367
-4.0805,-0.7434983792658902,0.05507314971615059
-4.08,-1.447729919872945,0.6908714540261965
-4.0795,-1.65046324216873,0.7014680924313543
-4.079,-1.373038695868603,0.06566978812099034
-4.0785,-0.754168554123573,-0.2946159176543747
-4.078,-0.1886492866669073,-0.3899856633007949
-4.0775,0.1954770082103763,-0.3264058328697421
-4.077,0.408880505363835,-0.1780528951975329
-4.0765,0.4835717293675456,-0.019103319120166
-4.076,0.4942419042252864,0.1292496185524286
-4.0755,0.4835717293676135,0.2458126410091644
-4.075,0.4515612047945656,0.3517790250608387
-4.0745,0.4302208550791906,0.5107286011384562
-4.074,0.4195506802215176,0.627291623595192
-4.0735,0.3768699807907871,0.7438546460520338
-4.073,0.2915085819294037,0.9345941373448741
-4.0725,0.3235191065023739,1.188913459069066
-4.072,0.3235191065023739,1.411442865577582
-4.0715,-0.188649286665927,1.528005888034318
-4.071,-0.8928808272735927,1.443232780792468
-4.0705,-1.052933450138687,0.7650479228623686
-4.07,-0.7541685541238448,-0.08268314955025502
-4.0695,-0.2740106855274853,-0.7184814538614671
-4.069,0.1314559590640864,-1.152943628472937
-4.0685,0.3875401556484697,-1.407262950196955
-4.068,0.5262524287983926,-1.51322933424863
-4.0675,0.5796033030867573,-1.51322933424863
-4.067,0.5049120790829789,-1.545019249464132
-4.0665,0.4515612047945461,-1.343683119765661
-4.066,0.4302208550792003,-1.025783967610927
-4.0655,0.4408910299368829,-0.7290780922662394
-4.065,0.4729015545099018,-0.4535654937321368
-4.0645,0.7716664505250448,-0.01910331912002144
-4.064,1.15579274540162,0.5849050699745222
-4.0635,0.6009436528026272,1.104140351827254
-4.063,-0.2420001609553981,1.157123543852735
-4.0625,-0.8928808272734472,0.2458126410091644
-4.062,-0.8181896032697367,-0.3899856633003033
-4.0615,-0.4340633083927443,-0.5489352393783063
-4.061,-0.04993701351651855,-0.4535654937318862
-4.0605,0.2274875327832301,-0.252229364033705
-4.06,0.387540155648528,-0.0296999575250154
-4.0595,0.4515612047945656,0.1610395337678249
-4.059,0.4622313796522482,0.309392471440169
-4.0585,0.4515612047945753,0.4153588554917469
-4.058,0.4408910299368829,0.5001319627331828
-4.0575,0.4195506802215176,0.701468092431364
-4.057,0.3235191065024612,0.8922075837242043
-4.0565,0.2274875327832301,0.9134008605347127
-4.056,-0.1886492866663929,1.019367244586387
-4.0555,-0.839529952984442,1.231300012689543
-4.055,-1.287677297007637,1.400846227172241
-4.0545,-1.212986073003927,1.210106735879401
-4.054,-0.7968492535546819,0.4895353243286708
-4.0535,-0.3807124341043796,-0.2628260024393832
-4.053,-0.04993701351651855,-0.8244478379127463
-4.0525,0.2061471830678648,-1.174136905283272
-4.052,0.3875401556485862,-1.322489842955683
-4.0515,0.5155822539406614,-1.396666311791788
-4.051,0.5689331282290746,-1.396666311791788
-4.0505,0.5369226036560557,-1.523825972653681
-4.05,0.5049120790829789,-1.396666311791788
-4.0495,0.5049120790829789,-1.078767159636765
-4.049,0.5049120790829789,-0.7608680074820309
-4.0485,0.4835717293676814,-0.4853554089473403
-4.048,0.5582629533713921,-0.4323722169215513
-4.0475,0.8570278493862342,-0.1992461720080798
-4.047,0.6649647019474808,0.4047622170871385
-4.0465,-0.1459685872356623,0.9134008605347127
-4.046,-0.9462317015611326,0.5637117931645055
-4.0455,-0.978242226134559,-0.0508932343357936
-4.045,-0.5941159312583333,-0.3475991096802118
-4.0445,-0.156638762093345,-0.4111789401112165
-4.044,0.163466483637309,-0.3370024712749095
-4.0435,0.3555296310754218,-0.1886495336027004
-4.043,0.4408910299368829,-0.04029659593035631
-4.0425,0.4622313796522288,0.09745970333669504
-4.042,0.4515612047945656,0.2034260873884947
-4.0415,0.4408910299368829,0.3199891098453364
-4.041,0.4195506802215371,0.4895353243278611
-4.0405,0.3982103305061136,0.6802748156212026
-4.04,0.3555296310754218,0.8710143069140429
-4.0395,0.03542438534523373,1.061753798206883
-4.039,-0.530094882112674,1.273686566310569
-4.0385,-1.010252750707956,1.453829419198252
-4.038,-1.362368521011163,1.284283204715727
-4.0375,-1.277007122149663,0.5107286011376755
-4.037,-0.8822106524157645,-0.2310360872233701
-4.0365,-0.4020527838200457,-0.7714646458869092
-4.036,0.02475421048751225,-1.163540266878326
-4.0355,0.3021787567870086,-1.407262950196955
-4.035,0.4729015545099309,-1.534422611058964
-4.0345,0.5582629533713145,-1.513229334248649
-4.034,0.6542945270905358,-1.608599079895136
-4.0335,0.6756348768059011,-1.619195718300304
-4.033,0.6116138276598633,-1.343683119766201
-4.0325,0.5475927785136608,-0.9939940523951362
-4.032,0.4942419042252961,-0.6760949002404023
-4.0315,0.5049120790829692,-0.379389024895984
-4.031,0.5689331282290843,0.139846256958049
-4.0305,0.5796033030867573,0.7544512844572011
-4.03,0.2594980573565692,1.125333628637724
-4.0295,-0.2206598112397029,0.8286277532926792
-4.029,-0.5087545323968721,0.06566978812131802
-4.0285,-0.3593720843893152,-0.3158091944647096
-4.028,-0.08194753808934328,-0.3899856633007852
-4.0275,0.1634664836371343,-0.2840192792492073
-4.027,0.3235191065023739,-0.1038764263613609
-4.0265,0.3982103305060845,0.07626642652632162
-4.026,0.4408910299368829,0.2246193641988295
-4.0255,0.4408910299368829,0.3411823866556712
-4.025,0.43022085507921,0.4365521323020914
-4.0245,0.4195506802214982,0.5743084315694512
-4.024,0.3982103305061524,0.6802748156210291
-4.0235,0.3768699807908065,0.7968378380777649
-4.023,0.2488278824981199,0.9451907757504077
-4.0225,-0.274010685527854,1.157123543853563
-4.022,-0.7114878546924444,1.36905631195672
-4.0215,-1.106284324427081,1.464426057602986
-4.021,-1.084943974711735,0.9875773293708847
-4.0205,-0.7861790786966207,0.1292496185523226
-4.02,-0.3807124341043407,-0.6231117082150662
-4.0195,-0.007256314085787988,-1.174136905283272
-4.019,0.291508581929326,-1.449649503817625
-4.0185,0.4942419042251117,-1.576809164679519
-4.018,0.5796033030867573,-1.566212526274467
-4.0175,0.5796033030867573,-1.523825972653797
-4.017,0.5475927785137384,-1.534422611058955
-4.0165,0.5155822539406614,-1.364876396576054
-4.016,0.5155822539406614,-1.110557074852267
-4.0155,0.5049120790829885,-0.8350444763181644
-4.015,0.5049120790831827,-0.5807251545935485
-4.0145,0.7289857510943143,-0.1992461720078678
-4.014,1.209143619689596,0.4365521323015999
-4.0135,0.7716664505240355,1.008770606181547
-4.013,-0.3380317346739499,1.369056311956912
-4.0125,-0.9995825758502737,1.104140351827727
-4.012,-0.8608703027000304,0.5107286011379454
-4.0115,-0.4554036581084589,0.06566978812131802
-4.011,-0.04993701351651855,-0.1462629799820306
-4.0105,0.2274875327829778,-0.1568596183871885
-4.01,0.3768699807907871,-0.04029659593035631
-4.0095,0.4408910299368829,0.1292496185523226
-4.009,0.4515612047945559,0.2987958330348474
-4.0085,0.4408910299368635,0.4577454091126865
-4.008,0.4195506802215176,0.6484849004055269
-4.0075,0.3982103305061718,0.839224391698367
-4.007,0.3768699807907094,0.9981739677761773
-4.0065,0.291508581929326,1.135930267043229
-4.006,-0.2846808603855366,1.284283204715573
-4.0055,-0.9889124009929502,1.432636142388013
-4.005,-1.383708870726849,1.538602526439591
-4.0045,-1.607782542738184,1.475022696008586
-4.004,-1.575772018164845,0.8816109453184298
-4.0035,-1.255666772434657,0.02328323450064829
-4.003,-0.7434983792658902,-0.7078848154559045
-4.0025,-0.1993194615245705,-1.121153713257059
-4.002,0.1848068333524996,-1.311893204550448
-4.0015,0.4408910299368829,-1.449649503817625
-4.001,0.5689331282289581,-1.460246142222783
-4.0005,0.5689331282290261,-1.545019249464026
-4,0.5155822539406614,-1.42845622700729
-3.9995,0.4729015545099309,-1.152943628472937
-3.999,0.4622313796522482,-0.8456411147230812
-3.9985,0.4622313796522482,-0.570128516188728
-3.998,0.5796033030867573,-0.2416327256285375
-3.9975,1.15579274540162,0.3517790250608387
-3.997,1.049090996824793,0.92399749893988
-3.9965,0.2061471830678648,1.284283204715573
-3.996,-0.690147504977477,0.701468092431364
-3.9955,-0.9035510021311299,-0.09327978795619347
-3.995,-0.6047861061160158,-0.4217755785163839
-3.9945,-0.1993194615240755,-0.4429688553267188
-3.994,0.1207857842064037,-0.2946159176543747
-3.9935,0.3128489316446912,-0.08268314955102604
-3.993,0.408880505363835,0.1186529801471552
-3.9925,0.4408910299368829,0.2776025562246667
-3.992,0.4408910299368829,0.4047622170866759
-3.9915,0.4302208550792003,0.5107286011383502
-3.991,0.408880505363835,0.6378882620003594
-3.9905,0.3768699807907871,0.775644561267536
-3.99,0.3448594562177392,0.8604176685088755
-3.9895,-0.007256314085787988,0.9981739677760521
-3.989,-0.807519428411986,1.220703374284568
-3.9885,-1.394379045584531,1.411442865577582
-3.988,-1.757164990745741,1.37965295036208
-3.9875,-1.863866739322568,0.849821030103708
-3.987,-1.51175096901904,0.08686306493165288
-3.9865,-0.9569018764195432,-0.6337083466197325
-3.986,-0.3593720843893152,-1.152943628472937
-3.9855,0.09944543449103843,-1.417859588602123
-3.985,0.3982103305061524,-1.523825972653797
-3.9845,0.5582629533713921,-1.534422611058964
-3.984,0.707645401378949,-1.534422611058964
-3.9835,0.79300680024041,-1.375473034981453
-3.983,0.7716664505250448,-1.131750351662602
-3.9825,0.707645401378949,-0.8668343915334161
-3.982,0.6222840025174878,-0.6019184314042303
-3.9815,0.6116138276598051,-0.474758770542221
-3.981,0.7183155762366316,-0.5277419625680583
-3.9805,0.79300680024041,-0.08268314955102604
-3.98,0.1634664836371343,0.5637117931641874
-3.9795,-0.3807124341046804,0.8604176685088755
-3.979,-0.391382608962363,0.5743084315693548
-3.9785,-0.1673089369510276,0.1610395337678249
-3.978,0.07810508477567314,-0.1144730647665284
-3.9775,0.2594980573562781,-0.2098428104130352
-3.977,0.3661998059331045,-0.1780528951975329
-3.9765,0.408880505363835,-0.07208651114585861
-3.976,0.4195506802215176,0.07626642652648545
-3.9755,0.4195506802215176,0.2034260873884947
-3.975,0.408880505363835,0.3411823866556712
-3.9745,0.3982103305061524,0.5213252395435176
-3.974,0.3875401556484697,0.7226613692416989
-3.9735,0.3661998059331045,0.8922075837243778
-3.973,0.2061471830678648,1.029963882991555
-3.9725,-0.4340633083930936,1.220703374284568
-3.972,-1.148965023857831,1.400846227172415
-3.9715,-1.565101843307454,1.443232780793084
-3.971,-1.618452717595867,0.8180311148882058
-3.9705,-1.26633694729234,0.002089957690313421
-3.97,-0.754168554123573,-0.6443049850249
-3.9695,-0.2846808603855366,-1.05757388282643
-3.969,0.1101156093487211,-1.258910012524611
-3.9685,0.3661998059331045,-1.354279758171118
-3.968,0.5155822539406614,-1.407262950196955
-3.9675,0.5796033030867573,-1.417859588602123
-3.967,0.5796033030867573,-1.566212526274467
-3.9665,0.5262524287983441,-1.417859588602123
-3.966,0.4942419042252961,-1.0999604364471
-3.9655,0.4729015545099309,-0.7714646458869092
-3.965,0.4622313796522482,-0.5065486857577234
-3.9645,0.3448594562177392,-0.4959520473525559
-3.964,-0.3166913849585846,-0.1992461720078678
-3.9635,-0.9035510021311299,0.4365521323021782
-3.963,-1.26633694729234,0.849821030103708
-3.9625,-1.501080794161358,0.2246193641988295
-3.962,-1.180975548430879,-0.4111789401112165
-3.9615,-0.6047861061160158,-0.5913217929990628
-3.961,-0.1032878878049318,-0.5171453241628908
-3.9605,0.2274875327832301,-0.3370024712750445
-3.96,0.3982103305061524,-0.1462629799820306
-3.9595,0.4622313796522482,0.03387987290581572
-3.959,0.4729015545099309,0.1610395337678249
-3.9585,0.4515612047945656,0.2564092794143318
-3.958,0.4302208550792003,0.383568940276341
-3.9575,0.408880505363835,0.5637117931641874
-3.957,0.3768699807907871,0.7226613692416989
-3.9565,0.3555296310754218,0.7226613692416989
-3.956,-0.07127736323188383,0.7862411996727035
-3.9555,-0.7008176798351597,1.040560521396722
-3.955,-1.212986073003927,1.284283204715573
-3.9545,-1.479740444445993,1.135930267043229
-3.954,-1.180975548430879,0.4683420475176805
-3.9535,-0.658136980404429,-0.252229364033705
-3.953,-0.1993194615240755,-0.8350444763179138
-3.9525,0.1634664836371343,-1.216523458903942
-3.952,0.408880505363835,-1.396666311791788
-3.9515,0.5369226036560266,-1.481439419033127
-3.951,0.5582629533713921,-1.47084278062796
-3.9505,0.408880505363835,-1.587405803084801
-3.95,0.3341892813600565,-1.449649503817625
-3.9495,0.3661998059331045,-1.131750351662602
-3.949,0.408880505363835,-0.792657922697244
-3.9485,0.4408910299368829,-0.5065486857577234
-3.948,0.4835717293676135,-0.2734226408440398
-3.9475,0.5475927785137094,0.1610395337678249
-3.947,0.4835717293676135,0.7332580076468663
-3.9465,0.1848068333524996,1.157123543853563
-3.946,-0.2846808603855366,0.8710143069140429
-3.9455,-0.3487019095316325,0.2881991946298341
-3.945,-0.156638762093345,-0.08268314955102604
-3.9445,0.07810508477567314,-0.2310360872233701
-3.944,0.2488278824985954,-0.2204394488182027
-3.9435,0.3555296310754218,-0.1250697031716958
-3.943,0.408880505363835,0.002089957690313421
-3.9425,0.4195506802215176,0.1292496185523226
-3.942,0.4195506802215176,0.2352160026039969
-3.9415,0.408880505363835,0.3517790250608387
-3.941,0.3982103305061524,0.5213252395435176
-3.9405,0.3875401556484697,0.701468092431364
-3.94,0.3448594562177392,0.8710143069140429
-3.9395,-0.007256314085787988,1.072350436612224
-3.939,-0.7434983792658902,1.305476481525908
-3.9385,-1.287677297007705,1.475022696008586
-3.938,-1.629122892453549,1.517409249629256
-3.9375,-1.629122892453549,1.040560521396722
-3.937,-1.277007122150022,0.1928294489833272
-3.9365,-0.7434983792658902,-0.5595318777835605
-3.936,-0.1779791118087102,-1.046977244421262
-3.9355,0.2274875327832301,-1.333086481360783
-3.935,0.4729015545099309,-1.460246142222792
-3.9345,0.5796033030867573,-1.38606967338662
-3.934,0.6756348768059011,-1.407262950196955
-3.9335,0.7396559259519968,-1.396666311791788
-3.933,0.6863050516635838,-1.174136905283272
-3.9325,0.6009436528021226,-0.8774310299385835
-3.932,0.5475927785137094,-0.5913217929990628
-3.9315,0.5582629533713921,-0.3581957480853793
-3.931,0.9317190733902845,0.08686306493165288
-3.9305,1.15579274540162,0.6802748156210291
-3.93,0.5902734779444399,1.167720182258731
-3.9295,-0.1993194615240755,1.104140351827727
-3.929,-0.7328282044082075,0.2458126410091644
-3.9285,-0.6261264558313813,-0.2840192792492073
-3.928,-0.2953510352432193,-0.4323722169215513
-3.9275,0.02475421048725994,-0.3581957480853793
-3.927,0.2488278824985954,-0.1886495336027004
-3.9265,0.3768699807907871,0.002089957690313421
-3.926,0.4302208550792003,0.1822328105781598
-3.9255,0.4302208550792003,0.3199891098453364
-3.925,0.4195506802215176,0.4471487707073456
-3.9245,0.408880505363835,0.5849050699745222
-3.924,0.3875401556484697,0.7544512844572011
-3.9235,0.3555296310754218,0.8922075837243778
-3.923,0.2061471830678648,0.9875773293708847
-3.9225,-0.4020527838200457,1.157123543853563
-3.922,-0.8822106524157645,1.33726639674141
-3.9215,-1.116954499284783,1.432636142387917
-3.921,-1.170305373573196,0.9557874141553824
-3.9205,-0.9355615267041777,0.1822328105781598
-3.92,-0.5300948821122373,-0.5171453241628908
-3.9195,-0.124628237520297,-0.9833974139902578
-3.919,0.1741366584948169,-1.290699927740113
-3.9185,0.3661998059331045,-1.42845622700729
-3.918,0.4729015545099309,-1.47084278062796
-3.9175,0.5582629533713921,-1.492036057438295
-3.917,0.6542945270905358,-1.439052865412457
-3.9165,0.6436243522328531,-1.258910012524611
-3.916,0.6116138276598051,-1.068170521231597
-3.9155,0.5475927785137094,-0.8456411147230812
-3.915,0.4942419042252961,-0.6019184314042303
-3.9145,0.4195506802215176,-0.5277419625680583
-3.914,0.5796033030867573,-0.1992461720078678
-3.9135,0.4302208550792003,0.4365521323021782
-3.913,0.01408403562957729,0.8816109453192104
-3.9125,-0.3273615598162672,0.5743084315693548
-3.912,-0.2526703358124887,0.1504428953626575
-3.9115,-0.04993701351651855,-0.1038764263613609
-3.911,0.1634664836371343,-0.1886495336027004
-3.9105,0.291508581929326,-0.1356663415768632
-3.91,0.3768699807907871,-0.008506680714854012
-3.9095,0.408880505363835,0.1292496185523226
-3.909,0.408880505363835,0.2564092794143318
-3.9085,0.408880505363835,0.3729723018711736
-3.908,0.3982103305061524,0.5213252395435176
-3.9075,0.3768699807907871,0.701468092431364
-3.907,0.3661998059331045,0.8816109453192104
-3.9065,0.291508581929326,1.00877060618122
-3.906,-0.1459685872356623,1.178316820663898
-3.9055,-0.7008176798351597,1.369056311956912
-3.905,-1.1062843244271,1.496215972818921
-3.9045,-1.362368521011484,1.146526905448396
-3.904,-1.330357996438436,0.3199891098453364
-3.9035,-0.9782422261349084,-0.4641621321370536
-3.903,-0.5087545323968721,-1.01518732920576
-3.9025,-0.09261771294724913,-1.311893204550448
-3.902,0.2274875327832301,-1.407262950196955
-3.9015,0.4195506802215176,-1.38606967338662
-3.901,0.5049120790829789,-1.322489842955616
-3.9005,0.6116138276598051,-1.460246142222792
-3.9,0.6329541773751706,-1.42845622700729
-3.8995,0.5902734779444399,-1.227120097309109
-3.899,0.5582629533713921,-0.9622041371799229
-3.8985,0.5475927785137094,-0.718481453861072
-3.898,0.4729015545099309,-0.7078848154559045
-3.8975,0.3021787567870086,-0.8562377531282487
-3.897,0.2594980573562781,-0.3370024712750445
-3.8965,-0.1459685872356623,0.3305857482505039
-3.896,-0.7114878546928423,0.457745409112513
-3.8955,-0.690147504977477,0.1504428953626575
-3.895,-0.3700422592469978,-0.09327978795619347
-3.8945,-0.03926683865883591,-0.1886495336027004
-3.894,0.2061471830678648,-0.1780528951975329
-3.8935,0.3448594562177392,-0.09327978795619347
-3.893,0.408880505363835,0.02328323450064829
-3.8925,0.4302208550792003,0.13984625695749
-3.892,0.4195506802215176,0.2352160026039969
-3.8915,0.3982103305061524,0.3517790250608387
-3.891,0.3875401556484697,0.5107286011383502
-3.8905,0.3768699807907871,0.5743084315693548
-3.89,0.3448594562177392,0.6802748156210291
-3.8895,0.1207857842064037,0.8392243916985406
-3.889,-0.5514352318276028,1.104140351827727
-3.8885,-0.9782422261349084,1.347863035146577
-3.888,-1.031593100423322,1.390249588767247
-3.8875,-0.9889124009925911,0.775644561267536
-3.887,-0.7861790786966207,-0.008506680714854012
-3.8865,-0.4767440078238243,-0.6760949002404023
-3.886,-0.1032878878049318,-1.0999604364471
