Class_4_Move_right_hand_Horiszontal/Class_4_Move_Right_Hand_Horizontal_Zakour_1.csv

#Digilent WaveForms Oscilloscope Acquisition
#Device Name: EExplorer
#Serial Number: SN:210151A2B84A
#Date Time: 2020-10-20 13:12:38.176
#Sample rate: 2000Hz
#Samples: 16384
#Trigger: Source: Channel 1 Type: Edge Condition: Rising Level: 0 V Hyst.: Auto HoldOff: 0 s
#Channel 1: Range: 1 V/div Offset: 0 V
#Channel 2: Range: 1 V/div Offset: 0 V

Time (s),Channel 1 (V),Channel 2 (V)
-4.0960000000000001,0.28083840707164331,-0.63370834661973252
-4.0955000000000004,0.046094560202838697,-0.10387642636184269
-4.0949999999999998,-0.092617712947326764,0.02328323450062901
-4.0945,-0.17797911180871023,0.0020899576903134209
-4.0940000000000003,-0.18864928666638317,-0.072086511145791149
-4.0934999999999997,-0.17797911180892373,-0.093279787955971805
-4.093,-0.41272295867772835,0.15044289536265748
-4.0925000000000002,-0.47674400782376603,0.22461936419876205
-4.0919999999999996,-0.34870190953149666,0.13984625695742256
-4.0914999999999999,-0.19931946152407554,0.065669788121318018
-4.0910000000000002,-0.10328788780493176,0.055073149716150585
-4.0904999999999996,-0.45540365810927408,0.51072860113902485
-4.0899999999999999,-1.3516983461538008,1.2524932895000704
-4.0895000000000001,-2.2053123347684123,1.4644260576034194
-4.0890000000000004,-2.4934070559255814,0.66967817721658451
-4.0884999999999998,-2.5040772307835262,-0.4535654937318862
-4.0880000000000001,-2.2693333839145078,-1.1847335436884392
-4.0875000000000004,-1.5224211438774025,-0.96220413718012532
-4.0869999999999997,-0.79684925355383762,-0.36879238649000706
-4.0865,-0.28468086038553664,0.2246193641988295
-4.0860000000000003,0.0034138607716326375,0.65908153881029907
-4.0854999999999997,0.12078578420642312,0.94519077575034982
-4.085,0.14212613392176898,1.0935437134225592
-4.0845000000000002,0.15279630877944192,1.0829470750174013
-4.0839999999999996,0.1634664836371828,0.92399749893967764
-4.0834999999999999,0.21681735792554749,0.70146809243136399
-4.0830000000000002,0.34485945621773917,0.38356894027634103
-4.0824999999999996,0.6329541773757722,-0.029699957525757496
-4.0819999999999999,1.2945050185514941,-0.65490162343006741
-4.0815000000000001,1.742652362574165,-1.4814394190331273
-4.0810000000000004,1.6893014882858006,-2.4987167059282758
-4.0804999999999998,1.5719295648512428,-2.2232041073948472
-4.0800000000000001,0.95305942310564973,-1.4602461422227924
-4.0795000000000003,0.398210330506657,-0.69728817705143109
-4.0789999999999997,0.13145595906393109,-0.12506970317151267
-4.0785,-0.039266838658835915,0.076266426526485451
-4.0780000000000003,-0.13529841237789234,0.033879872905854272
-4.0774999999999997,-0.14596858723564293,-0.040296595930394863
-4.077,-0.12462823752029703,-0.082683149551026042
-4.0765000000000002,-0.23132998609702643,0.033879872905709707
-4.0759999999999996,-0.33803173467388192,0.16103953376777674
-4.0754999999999999,-0.26334051067017139,0.10805634174198775
-4.0750000000000002,-0.15663876209334496,0.033879872905815719
-4.0744999999999996,-0.060607188374298238,-0.019103319119857607
-4.0739999999999998,-0.16730893695102761,0.16103953376782493
-4.0735000000000001,-0.90355100213112993,0.81803111488820579
-4.0730000000000004,-1.88520708903704,1.0193672445862039
-4.0724999999999998,-2.5574281050719394,0.086863064931652884
-4.0720000000000001,-2.7494912525102269,-1.0681705212315973
-4.0715000000000003,-2.6427895039334977,-1.756952017566854
-4.0709999999999997,-1.8318562147487725,-1.4284562270065768
-4.0705,-1.0102527507079564,-0.64430498502489997
-4.0700000000000003,-0.40205278382059884,0.086863064930987832
-4.0694999999999997,-0.039266838658690351,0.60609834678514618
-4.069,0.12078578420640371,0.92399749893988004
-4.0685000000000002,0.16346648363713429,1.0617537982070568
-4.0679999999999996,0.15279630877945163,1.0829470750172665
-4.0674999999999999,0.15279630877945163,0.94519077575021493
-4.0670000000000002,0.21681735792554749,0.62729162359519197
-4.0664999999999996,0.41955068022173114,0.1928294489829899
-4.0659999999999998,0.65429452709053582,-0.17805289519753292
-4.0655000000000001,0.88903837395955376,-0.53833860097322561
-4.0650000000000004,1.4652278162738923,-1.1317503516620624
-4.0644999999999998,1.4118769419860033,-2.0960444465328383
-4.0640000000000001,1.3691962425552726,-2.5940864515757074
-4.0635000000000003,1.0811015213981034,-2.1702209153693959
-4.0629999999999997,0.60094365280184114,-1.3966663117910938
-4.0625,0.29150858192932599,-0.63370834661973252
-4.0620000000000003,0.078105084775867223,-0.22043944881857852
-4.0614999999999997,-0.071277363231932345,-0.093279787956174198
-4.0609999999999999,-0.12462823752029703,-0.072086511145858609
-4.0605000000000002,-0.12462823752029703,-0.072086511145858609
-4.0599999999999996,-0.15663876209350022,0.02328323450086995
-4.0594999999999999,-0.32736155981626724,0.26700591781949923
-4.0590000000000002,-0.29535103524321932,0.28819919462983412
-4.0585000000000004,-0.18864928666648995,0.22461936419888734
-4.0579999999999998,-0.092617712947249131,0.18223281057815977
-4.0575000000000001,-0.08194753808956648,0.23521600260399694
-4.0570000000000004,-0.56210540668484865,0.75445128445672882
-4.0564999999999998,-1.46907026958831,1.1889134590690658
-4.056,-2.23732285934146,0.55311515475901996
-4.0555000000000003,-1.7891755153191968,0.22461936419912826
-4.0549999999999997,-0.53009488211167444,-0.16745625679271245
-4.0545,0.08877525963335578,-0.54893523937839306
-4.0540000000000003,0.3021787567868145,-0.37938902489586834
-4.0534999999999997,0.30217875678694067,-0.019103319119693766
-4.0529999999999999,0.22748753278323011,0.34118238665567124
-4.0525000000000002,0.14212613392176898,0.62729162359519197
-4.0519999999999996,0.088775259633326664,0.8392243916986466
-4.0514999999999999,0.05676473506030786,0.95578741415538238
-4.0510000000000002,0.067434909917990504,0.94519077575021493
-4.0505000000000004,0.152796308779374,0.74385464605221685
-4.0499999999999998,0.099445434491038431,0.41535885549184332
-4.0495000000000001,-0.39138260896236304,-0.4641621321370536
-4.0490000000000004,0.20614718306732133,-1.0681705212310479
-4.0484999999999998,1.2198137945484726,-1.8205318479990249
-4.048,2.0520874334469617,-2.4139435986878612
-4.0475000000000003,2.5962663511882811,-2.6364730051961747
-4.0469999999999997,2.3188418048882711,-2.1596242769629561
-4.0465,1.4865681659897818,-1.1847335436884392
-4.0460000000000003,0.68630505166431166,-0.30521255606034203
-4.0454999999999997,0.17413665849458401,0.20342608738864887
-4.0449999999999999,-0.08194753808956648,0.37297230187117358
-4.0445000000000002,-0.15663876209334496,0.36237566346600614
-4.0439999999999996,-0.14596858723564293,0.28819919462977628
-4.0434999999999999,-0.12462823752029703,0.2246193641988295
-4.0430000000000001,-0.28468086038553664,0.36237566346600614
-4.0425000000000004,-0.34870190953157426,0.37297230187116392
-4.0419999999999998,-0.29535103524321932,0.24581264100916439
-4.0415000000000001,-0.18864928666639288,0.097459703336820316
-4.0410000000000004,-0.10328788780500939,-0.0085066807147576307
-4.0404999999999998,-0.37004225924766743,0.35177902506150366
-4.04,-1.1062843244271001,1.0829470750173917
-4.0395000000000003,-1.5757720181647092,1.4432327807927567
-4.0389999999999997,-1.4797404444450317,0.76504792286126988
-4.0385,-0.42339313353541097,-0.44296885532671876
-4.0380000000000003,0.5689331282281721,-1.1847335436877644
-4.0374999999999996,0.81434714995564916,-0.98339741398975666
-4.0369999999999999,0.67563487680590106,-0.43237221692155131
-4.0365000000000002,0.44089102993688295,0.10805634174198775
-4.0359999999999996,0.23815770764078661,0.51072860113858143
-4.0354999999999999,0.099445434491038431,0.76504792286236856
-4.0350000000000001,0.035424385344942577,0.89220758372437781
-4.0345000000000004,0.014084035629596703,0.91340086053469338
-4.0339999999999998,0.05676473506030786,0.7968378380778709
-4.0335000000000001,0.17413665849481691,0.52132523954351762
-4.0330000000000004,0.52625242879802392,0.01268659609594347
-4.0324999999999998,0.91037872367549177,-0.41117894011170797
-4.032,1.539919040278195,-0.95160749877475548
-4.0315000000000003,1.379866417413101,-1.9476915088595881
-4.0309999999999997,1.1131120459707631,-2.5093133443343008
-4.0305,0.97439977282101498,-2.4351368754981961
-4.0300000000000002,0.56893312822944342,-1.6615822719216768
-4.0294999999999996,0.25949805735610337,-0.7078848154552877
-4.0289999999999999,0.067434909917990504,-0.029699957525188878
-4.0285000000000002,-0.08194753808956648,0.20342608738849466
-4.0279999999999996,-0.15663876209334496,0.22461936419878131
-4.0274999999999999,-0.15663876209334496,0.17163617217299235
-4.0270000000000001,-0.13529841237797968,0.11865298014715518
-4.0265000000000004,-0.22065981123936321,0.22461936419873313
-4.0259999999999998,-0.3700422592469978,0.40476221708667587
-4.0255000000000001,-0.31669138495858457,0.35177902506083869
-4.0250000000000004,-0.22065981123952819,0.25640927941441849
-4.0244999999999997,-0.25267033581259546,0.38356894027649524
-4.024,-0.3700422592469978,0.55311515475901996
-4.0235000000000003,-1.0315931004227199,1.1041403518272255
-4.0229999999999997,-1.7251544661726155,1.5703924416545247
-4.0225,-1.6397930673112322,0.94519077575021493
-4.0220000000000002,-0.6261264558323032,-0.33700247127387817
-4.0214999999999996,0.61161382766018357,-1.3542797581710986
-4.0209999999999999,1.0277506471094282,-1.333086481360783
-4.0205000000000002,0.87836819910187125,-0.71848145386107198
-4.0199999999999996,0.57960330308651475,-0.061489872740218936
-4.0194999999999999,0.31284893164469124,0.45774540911251305
-4.0190000000000001,0.13145595906408636,0.78624119967270345
-4.0185000000000004,0.035424385345029924,0.95578741415522817
-4.0179999999999998,0.0034138607718946501,1.0193672445863871
-4.0175000000000001,0.024754210487259936,0.94519077575021493
-4.0170000000000003,0.078105084775624611,0.77564456126769021
-4.0164999999999997,0.14212613392209894,0.56371179316377296
-4.016,0.50491207908297886,0.10805634174198775
-4.0155000000000003,1.2304839694047385,-0.62311170821390005
-4.0149999999999997,1.7853330620047696,-1.280103289335736
-4.0145,1.6466207888550213,-2.1490276385586755
-4.0140000000000002,1.2731646688364686,-2.3821536834721471
-4.0134999999999996,0.82501732481300194,-1.6721789103253699
-4.0129999999999999,0.32351910650237387,-0.82444783791274634
-4.0125000000000002,0.067434909917990504,-0.11447306476652835
-4.0119999999999996,-0.06060718837428853,0.24581264100919331
-4.0114999999999998,-0.15663876209334496,0.27760255622466667
-4.0110000000000001,-0.16730893695102761,0.20342608738849466
-4.0105000000000004,-0.15663876209335467,0.12924961855239009
-4.0099999999999998,-0.18864928666639288,0.15044289536265748
-4.0095000000000001,-0.40205278382004572,0.37297230187117358
-4.0090000000000003,-0.39138260896237276,0.35177902506085795
-4.0084999999999997,-0.27401068552773755,0.20342608738838863
-4.008,-0.14596858723566233,0.086863064931652884
-4.0075000000000003,-0.11395806266264352,0.097459703336810671
-4.0069999999999997,-0.58344575640147545,0.6060983467853871
-4.0065,-1.4904106193036752,1.1889134590690658
-4.0060000000000002,-2.301343908487556,0.71206473083653143
-4.0054999999999996,-2.2159825096252503,-0.16745625679323289
-4.0049999999999999,-1.2876772970077051,-1.1211537132574345
-4.0045000000000002,-0.25267033581248871,-1.5450192494641319
-4.0039999999999996,0.23815770764101951,-1.0999604364464635
-4.0034999999999998,0.35552963107542179,-0.40058230170604903
-4.0030000000000001,0.30217875678700862,0.21402272579366208
-4.0025000000000004,0.20614718306795218,0.63788826199997384
-4.0019999999999998,0.11011560934872107,0.88161094531921036
-4.0015000000000001,0.05676473506030786,0.98757732937088472
-4.0010000000000003,0.046094560202634915,0.96638405256056914
-4.0004999999999997,0.088775259633433412,0.79683783807762998
-4,0.17413665849481691,0.53192187794868506
-3.9994999999999998,0.6116138276598051,-0.029699957525188878
-3.9990000000000001,0.83568749967114075,-0.88802766834375091
-3.9984999999999999,0.77166645052504479,-1.9264982320501591
-3.9980000000000002,1.0597611716824762,-2.2761872994206844
-3.9975000000000001,1.4545576414167338,-2.6152797283860423
-3.9969999999999999,1.3691962425552726,-2.1384310001535081
-3.9965000000000002,1.006410297394063,-1.2165234589039415
-3.996,0.52625242879834411,-0.4535654937318862
-3.9954999999999998,0.11011560934872107,-0.050893234335523743
-3.9950000000000001,-0.10328788780493176,0.076266426526485451
-3.9944999999999999,-0.16730893695102761,0.065669788121318018
-3.9940000000000002,-0.15663876209334496,0.012686596095480854
-3.9935,-0.13529841237797968,-0.0085066807148540119
-3.9929999999999999,-0.25267033581248871,0.17163617217299235
-3.9925000000000002,-0.28468086038553664,0.25640927941433178
-3.992,-0.23132998609712346,0.23521600260399694
-3.9914999999999998,-0.17797911180871023,0.20342608738849466
-3.9910000000000001,-0.14596858723566233,0.20342608738849466
-3.9904999999999999,-0.3700422592469978,0.50013196273318283
-3.9900000000000002,-1.1276246741424654,1.1571235438535634
-3.9895,-1.6611334170265974,1.5386025264395911
-3.9889999999999999,-1.586442193022819,0.99817396777605205
-3.9885000000000002,-0.54076505696992005,-0.15685961838719809
-3.988,0.6116138276598051,-1.0787671596367647
-3.9874999999999998,0.93171907339028448,-1.01518732920576
-3.9870000000000001,0.78233662538272752,-0.47475877054222104
-3.9864999999999999,0.50491207908297886,0.10805634174198775
-3.9860000000000002,0.25949805735627807,0.5637117931641874
-3.9855,0.11011560934872107,0.86041766850887547
-3.9849999999999999,0.024754210487259936,1.0299638829915545
-3.9845000000000002,0.0034138607718946501,1.0829470750173917
-3.984,0.035424385344942577,0.97698069096571727
-3.9834999999999998,0.08877525963335578,0.76504792286236856
-3.9830000000000001,0.20614718306786484,0.48953532432801533
-3.9824999999999999,0.29150858192932599,0.28819919462983412
-3.9820000000000002,0.60094365280212259,-0.15685961838719809
-3.9815,1.1664629202593024,-0.84564111472308123
-3.9809999999999999,1.2731646688361289,-1.7145654639468106
-3.9805000000000001,0.72898575109431429,-2.0748511697225034
-3.98,0.38754015564846972,-1.4072629501969551
-3.9794999999999998,0.024754210487259936,-0.77146464588690922
-3.9790000000000001,-0.14596858723566233,-0.27342264084403983
-3.9784999999999999,-0.10328788780493176,0.055073149716150585
-3.9780000000000002,-0.12462823752029703,0.097459703336820316
-3.9775,-0.13529841237797968,0.044476511310983152
-3.9769999999999999,-0.15663876209334496,0.023283234500648287
-3.9765000000000001,-0.23132998609712346,0.11865298014715518
-3.976,-0.34870190953163249,0.28819919462983412
-3.9754999999999998,-0.29535103524321932,0.25640927941433178
-3.9750000000000001,-0.18864928666639288,0.18223281057815977
-3.9744999999999999,-0.11395806266261441,0.15044289536265748
-3.9740000000000002,-0.19931946152407554,0.30939247144016896
-3.9735,-0.91422117698881245,0.93459413734504748
-3.9729999999999999,-1.8852070890379329,1.6021823568705957
-3.9725000000000001,-2.6854702033641309,1.9200815090256187
-3.972,-3.1122771976714367,1.0617537982070568
-3.9714999999999998,-3.0589263233830235,-0.20984281041303524
-3.9710000000000001,-2.2266526844837773,-0.61251506980939763
-3.9704999999999999,-1.2236562478616091,-0.37938902489571413
-3.9700000000000002,-0.50875453239687207,0.044476511310983152
-3.9695,-0.08194753808956648,0.45774540911251305
-3.9689999999999999,0.11011560934872107,0.76504792286236856
-3.9685000000000001,0.16346648363713429,0.96638405256054982
-3.968,0.14212613392176898,1.0829470750173917
-3.9674999999999998,0.13145595906408636,1.0299638829915545
-3.9670000000000001,0.16346648363713429,0.83922439169854057
-3.9664999999999999,0.21681735792554749,0.60609834678485708
-3.9660000000000002,0.41955068022151765,0.24581264100916439
-3.9655,1.1131120459708892,-0.41117894011121647
-3.9649999999999999,1.9027049854394047,-1.0681705212315973
-3.9645000000000001,2.2441505808852491,-1.7675486559726479
-3.964,1.7960032368625782,-2.1914141921793449
-3.9634999999999998,1.1771330951169852,-1.5344226110589645
-3.9630000000000001,0.53692260365602662,-0.82444783791274634
-3.9624999999999999,0.17413665849481691,-0.22043944881820265
-3.9620000000000002,0.0034138607718946501,0.18223281057815977
-3.9615,-0.13529841237797968,0.26700591781949923
-3.9609999999999999,-0.16730893695102761,0.20342608738849466
-3.9605000000000001,-0.16730893695102761,0.12924961855232261
-3.96,-0.17797911180871023,0.10805634174198775
-3.9594999999999998,-0.38071243410468042,0.31998910984533641
-3.9590000000000001,-0.39138260896236304,0.30939247144016896
-3.9584999999999999,-0.27401068552785401,0.16103953376782493
-3.9580000000000002,-0.14596858723566233,0.012686596095480854
-3.9575,-0.08194753808956648,-0.04029659593035631
-3.9569999999999999,-0.4554036581084589,0.37297230187117358
-3.9565000000000001,-1.3516983461538008,1.0405605213967219
-3.956,-2.1412912856223163,0.78624119967270345
-3.9554999999999998,-1.7358246410303759,0.53192187794868506
-3.9550000000000001,-0.28468086038553664,0.78624119967270345
-3.9544999999999999,0.73965592595199681,0.55311515475901996
-3.9540000000000002,0.92104889853260175,0.29879583303500157
-3.9535,0.72898575109431429,0.19282944898332721
-3.9529999999999998,0.45156120479456557,0.2246193641988295
-3.9525000000000001,0.22748753278323011,0.34118238665567124
-3.952,0.078105084775673142,0.50013196273318283
-3.9514999999999998,0.014084035629577295,0.66967817721586165
-3.9510000000000001,0.014084035629577295,0.76504792286236856
-3.9504999999999999,0.067434909917990504,0.75445128445720111
-3.9500000000000002,0.12078578420640371,0.69087145402619654
-3.9495,0.11011560934872107,0.39416557868150842
-3.9489999999999998,-0.15663876209334496,-0.65490162343006741
-3.9485000000000001,0.62228400251748783,-1.3966663117917877
-3.948,1.5612593899935603,-1.9794814240759964
-3.9474999999999998,2.0200769088739139,-2.3291704914465217
-3.9470000000000001,1.9347155100124527,-1.8629184016191549
-3.9464999999999999,1.3371857179822249,-0.78206128429207655
-3.9460000000000002,0.65429452709053582,0.097459703336820316
-3.9455,0.18480683335249956,0.59550170837968963
-3.9449999999999998,-0.06060718837420119,0.78624119967270345
-3.9445000000000001,-0.14596858723566233,0.775644561267536
-3.944,-0.15663876209334496,0.6590815388106942
-3.9434999999999998,-0.15663876209334496,0.53192187794868506
-3.9430000000000001,-0.30602121010090194,0.57430843156935485
-3.9424999999999999,-0.44473348325077627,0.60609834678485708
-3.9420000000000002,-0.46607383296614152,0.47893868592284788
-3.9415,-0.35937208438931517,0.19282944898332721
-3.9409999999999998,-0.24200016095480609,-0.019103319120021445
-3.9405000000000001,-0.46607383296614152,0.21402272579366208
-3.9399999999999999,-1.2663369472923398,0.89220758372437781
-3.9394999999999998,-2.0025790124724421,1.3690563119569124
-3.9390000000000001,-1.7785053404611064,0.68027481562102909
-3.9384999999999999,-0.46607383296614152,-0.55953187778356051
-3.9380000000000002,0.73965592595199681,-1.4072629501969551
-3.9375,1.0384208219671107,-1.2483133741194434
-3.9369999999999998,0.84635767452882327,-0.65490162343006741
-3.9365000000000001,0.53692260365602662,-0.050893234335523743
-3.9359999999999999,0.27016823221396069,0.39416557868150842
-3.9355000000000002,0.099445434491038431,0.66967817721586165
-3.9350000000000001,0.014084035629577295,0.81803111488820579
-3.9344999999999999,-0.0072563140857879876,0.84982103010370802
-3.9340000000000002,0.024754210487259936,0.72266136924169888
-3.9335,0.099445434491038431,0.54251851635385251
-3.9329999999999998,0.18480683335249956,0.30939247144016896
-3.9325000000000001,0.33418928136005654,0.023283234500648287
-3.9319999999999999,0.70764540137894905,-0.44296885532671876
-3.9315000000000002,0.88903837395955376,-1.3118932045504481
-3.931,0.67563487680590106,-2.1490276385586755
-3.9304999999999999,0.70764540137894905,-2.2126074689896797
-3.9300000000000002,0.47290155450993088,-1.650985633515806
-3.9295,0.22748753278323011,-0.78206128429207655
-3.9289999999999998,0.08877525963335578,-0.082683149551026042
