Class_4_Move_right_hand_Horiszontal/Class_4_Move_Right_hand_Horizontal_Turki_3.csv

#Digilent WaveForms Oscilloscope Acquisition
#Device Name: EExplorer
#Serial Number: SN:210151A2B84A
#Date Time: 2020-11-04 11:26:52.998
#Sample rate: 2000Hz
#Samples: 16384
#Trigger: Source: Channel 1 Type: Edge Condition: Rising Level: 0 V Hyst.: Auto HoldOff: 0 s
#Channel 1: Range: 1 V/div Offset: 0 V Attenuation: 1 X
#Channel 2: Range: 1 V/div Offset: 0 V Attenuation: 1 X
#Power Supplies: ON
#Fixed Supply: ON
#Voltage: 3.3 V Readback: 3.326 V
#Positive Supply: ON
#Voltage: 3.7 V Readback: 3.709 V
#Current: 500 mA Readback: 21 mA
#Negative Supply: ON
#Voltage: -3.7 V Readback: -3.707 V
#Current: -500 mA Readback: -9 mA
#Reference 1: ON
#Voltage: 0 V
#Reference 2: ON
#Voltage: 0 V

Time (s),Channel 1 (V),Channel 2 (V)
-4.096,0.1314559590640864,-0.6337083466197325
-4.0955,0.5262524287979851,-0.2840192792495253
-4.095,0.6542945270905552,-0.04029659593029848
-4.0945,0.6756348768059011,0.02328323450064829
-4.094,0.6329541773752094,0.05507314971612167
-4.0935,0.6116138276599216,0.002089957690217045
-4.093,0.7396559259519968,-0.1038764263613609
-4.0925,0.7396559259519968,-0.01910331912009855
-4.092,0.6436243522327755,0.1186529801472516
-4.0915,0.5582629533713921,0.2246193641988295
-4.091,0.5155822539406614,0.2458126410091644
-4.0905,0.9317190733907406,-0.1462629799826089
-4.09,1.433217291701369,-0.7820612842920766
-4.0895,1.209143619690033,-1.290699927740113
-4.089,0.1527963087804125,-1.534422611058743
-4.0885,-0.7648387289812555,-1.449649503817625
-4.088,-0.8822106524157645,-0.9728007755850904
-4.0875,-0.5621054066855764,-0.1886495336034136
-4.087,-0.1779791118084482,0.7756445612682589
-4.0865,0.1101156093487211,1.570392441655093
-4.086,0.280838407071488,2.079031085102668
-4.0855,0.3661998059331142,2.322753768422
-4.085,0.3768699807907871,2.343947045232316
-4.0845,0.3448594562177683,1.994257977862109
-4.084,0.3021787567869601,1.655165548896173
-4.0835,0.2488278824985954,1.369056311956912
-4.083,0.2168173579255475,0.9875773293708847
-4.0825,0.05676473505965766,0.2352160026032259
-4.082,-0.658136980404429,-0.6125150698093976
-4.0815,-1.447729919872945,-1.311893204550448
-4.081,-2.023919362187283,-1.820531847998022
-4.0805,-1.970568487899394,-1.862918401619155
-4.08,-1.170305373573196,-1.205926820498774
-4.0795,-0.316691384959361,-0.5383386009738328
-4.079,0.2701682322142324,-0.1780528951973787
-4.0785,0.5689331282290746,-0.008506680714854012
-4.078,0.6542945270904582,-0.05089323433548519
-4.0775,0.6329541773751317,-0.1568596183872752
-4.077,0.5902734779444399,-0.2416327256285375
-4.0765,0.6969752265211693,-0.4429688553265356
-4.076,0.7930068002403519,-0.368792386490248
-4.0755,0.7289857510943143,-0.04029659593035631
-4.075,0.6329541773751706,0.2352160026039969
-4.0745,0.5369226036562498,0.3729723018709615
-4.074,0.7823366253827275,0.13984625695749
-4.0735,1.273164668836129,-0.4959520473525559
-4.073,0.6436243522334256,-1.131750351662024
-4.0725,-0.5300948821122373,-1.576809164679634
-4.072,-1.447729919872945,-1.725162102351978
-4.0715,-1.533091318734328,-1.555615887869453
-4.071,-1.020922925565105,-1.216523458903537
-4.0705,-0.4340633083930936,-0.7714646458869092
-4.07,0.01408403562916971,-0.08268314955165246
-4.0695,0.2594980573563848,0.8180311148888997
-4.069,0.3768699807907871,1.580989080060261
-4.0685,0.408880505363835,2.036644531482461
-4.068,0.3875401556484406,2.142610915534058
-4.0675,0.3555296310754218,2.057837808292796
-4.067,0.3341892813600565,1.877694955404949
-4.0665,0.3021787567869116,1.49621597281868
-4.066,0.1954770082101822,1.231300012689736
-4.0655,-0.4447334832507763,0.6060983467848571
-4.065,-1.319687821579957,-0.3052125560587133
-4.0645,-2.023919362187807,-1.110557074852267
-4.064,-2.408045657064382,-1.650985633515806
-4.0635,-1.661133417027277,-1.396666311792019
-4.063,-0.6794773301191149,-0.8244478379123222
-4.0625,0.0674349099179905,-0.3581957480853793
-4.062,0.4729015545095621,-0.06148987274096102
-4.0615,0.63295417737519,0.03387987290586391
-4.061,0.6542945270905358,0.08686306493165288
-4.0605,0.6116138276598051,0.09745970333682032
-4.06,0.6222840025175946,-0.04029659593026957
-4.0595,0.7396559259519968,0.05507314971615059
-4.059,0.7503261008096795,0.3199891098453364
-4.0585,0.675634876805969,0.5637117931639657
-4.058,0.5689331282290746,0.7332580076468663
-4.0575,0.6329541773751706,0.5213252395435176
-4.057,1.230483969404855,-0.1992461720072125
-4.0565,1.753322537431848,-0.9304142219644207
-4.056,1.15579274540162,-1.449649503817625
-4.0555,-0.1459685872344785,-1.672178910325938
-4.055,-1.277007122150178,-1.587405803084522
-4.0545,-1.447729919872945,-1.280103289334946
-4.054,-0.9782422261353354,-0.7608680074822141
-4.0535,-0.4233931335350228,0.033879872906606
-4.053,0.00341386077189465,0.9028042221295453
-4.0525,0.2594980573562781,1.559795803249926
-4.052,0.3661998059331239,1.920081509025628
-4.0515,0.3875401556484697,1.930678147430786
-4.051,0.3661998059331045,1.602182356870596
-4.0505,0.3021787567870668,1.411442865577756
-4.05,0.2594980573562781,1.210106735879401
-4.0495,0.2061471830678648,0.6166949851900245
-4.049,-0.2633405106697444,-0.1674562567916523
-4.0485,-1.116954499285501,-0.8880276683442906
-4.048,-1.906547438753298,-1.481439419033127
-4.0475,-2.429386006779272,-1.915901593644597
-4.047,-2.055929886759943,-1.862918401618567
-4.0465,-1.052933450138687,-1.216523458903942
-4.046,-0.188649286667179,-0.6337083466202625
-4.0455,0.3661998059333277,-0.3264058328697614
-4.045,0.6116138276598051,-0.1992461720078678
-4.0445,0.6863050516635838,-0.2416327256285375
-4.044,0.654294527090497,-0.2628260024388435
-4.0435,0.6116138276598051,-0.2310360872233701
-4.043,0.7823366253827275,-0.4111789401112165
-4.0425,0.8676980242441109,-0.3052125560596385
-4.042,0.8036769750980928,0.2352160026039969
-4.0415,0.6756348768059011,0.627291623595192
-4.041,0.5902734779445175,0.6696781772158231
-4.0405,0.8036769750984227,0.1716361721722984
-4.04,1.166462920259302,-0.5913217929990628
-4.0395,0.5369226036565992,-1.1847335436879
-4.039,-0.6154562809744555,-1.481439419033118
-4.0385,-1.447729919872945,-1.47084278062796
-4.038,-1.39437904558458,-1.237716735714488
-4.0375,-0.8608703026999043,-0.8668343915328379
-4.037,-0.3166913849585846,-0.2310360872233701
-4.0365,0.07810508477567314,0.6696781772158616
-4.036,0.2915085819294133,1.475022696009049
-4.0355,0.3875401556484697,1.983661339456623
-4.035,0.408880505363835,2.184997469154805
-4.0345,0.3768699807908162,1.792921848163966
-4.034,0.3128489316446912,0.8922075837243778
-4.0335,0.2594980573562781,-0.008506680714854012
-4.033,0.2168173579255863,-0.7184814538604263
-4.0325,-0.04993701351721727,-1.131750351662852
-4.032,-0.8181896032696687,-1.407262950196955
-4.0315,-1.58644219302212,-1.725162102351689
-4.031,-2.258663209057136,-1.968884785670684
-4.0305,-2.60010880450267,-1.809935209593318
-4.03,-1.789175515319527,-1.004590690801325
-4.0295,-0.7434983792651818,-0.4217755785161141
-4.029,0.03542438534494258,-0.1250697031716958
-4.0285,0.4729015545099309,-0.01910331912002144
-4.028,0.6542945270905455,0.02328323450057119
-4.0275,0.6649647019482183,-0.06148987274069118
-4.027,0.6116138276598051,-0.1250697031716958
-4.0265,0.654294527090497,-0.2204394488181159
-4.026,0.6863050516635838,-0.07208651114585861
-4.0255,0.6329541773751706,0.1716361721729923
-4.025,0.6542945270905164,0.3199891098452015
-4.0245,0.7609962756675273,0.4365521323019758
-4.024,0.942389248247967,0.2140227257936621
-4.0235,1.465227816273941,-0.4323722169209634
-4.023,1.230483969404457,-1.068170521231848
-4.0225,0.1954770082101822,-1.34368311976595
-4.022,-0.935561526703149,-1.301296566145319
-4.0215,-1.405049220441923,-1.089363798041614
-4.021,-1.084943974711735,-0.7396747306714069
-4.0205,-0.5514352318276028,-0.1462629799820306
-4.02,-0.0926177129469871,0.754451284458001
-4.0195,0.1954770082101822,1.633972272086098
-4.019,0.3448594562177392,2.216787384370307
-4.0185,0.3982103305061039,2.513493259714725
-4.018,0.3875401556484697,2.49229998290466
-4.0175,0.3448594562177392,2.259173937990977
-4.017,0.2915085819293745,1.867098317000138
-4.0165,0.2488278824985566,1.188913459068285
-4.016,0.2061471830678648,0.3305857482505039
-4.0155,-0.2740106855274173,-0.4959520473518041
-4.015,-1.084943974712356,-1.216523458904452
-4.0145,-1.767835165603424,-1.778145294377815
-4.014,-2.280003558771725,-1.990078062480971
-4.0135,-1.842526389606348,-1.396666311791123
-4.013,-0.9035510021311299,-0.6654982618352349
-4.0125,-0.124628237520297,-0.1992461720078678
-4.012,0.3555296310756256,-0.02969995752515033
-4.0115,0.5796033030867573,0.01268659609548085
-4.011,0.6329541773751706,-0.08268314955102604
-4.0105,0.6116138276598245,-0.1780528951974462
-4.01,0.6436243522328531,-0.3158091944647096
-4.0095,0.8783681991018712,-0.5383386009732256
-4.009,0.8570278493865254,-0.209842810413334
-4.0085,0.7183155762364957,0.2670059178196534
-4.008,0.5689331282290746,0.4365521323021782
-4.0075,0.5155822539407099,0.3305857482506002
-4.007,0.5369226036560363,-0.2734226408446374
-4.0065,0.5475927785137094,-0.9304142219644207
-4.006,-0.156638762093345,-1.396666311791788
-4.0055,-1.127624674143009,-1.545019249464016
-4.005,-1.725154466172693,-1.417859588602123
-4.0045,-1.426389570157579,-1.142346990067769
-4.004,-0.7968492535537891,-0.7396747306707805
-4.0035,-0.2313299860971235,-0.05089323433552374
-4.003,0.142126133921769,0.8286277532933731
-4.0025,0.3341892813598819,1.559795803249261
-4.002,0.408880505363835,1.994257977861791
-4.0015,0.408880505363835,2.07903108510313
-4.001,0.3875401556484891,1.824711763379343
-4.0005,0.355529631075383,1.761131932948165
-4,0.3128489316446912,1.824711763379112
-3.9995,0.291508581929326,1.37965295036208
-3.999,-0.007256314085787988,0.3517790250608387
-3.9985,-0.8181896032696687,-0.6654982618352349
-3.998,-1.586442193022819,-1.42845622700729
-3.9975,-1.959898313041711,-1.905304955239825
-3.997,-1.735824641030376,-1.778145294377815
-3.9965,-0.9142211769888124,-0.9833974139902578
-3.996,-0.124628237520297,-0.3370024712750445
-3.9955,0.3768699807907871,-0.06148987274069118
-3.995,0.6009436528021226,0.09745970333682032
-3.9945,0.6649647019482183,0.2034260873884947
-3.994,0.6329541773751706,0.13984625695749
-3.9935,0.6009436528021226,0.05507314971615059
-3.993,0.7396559259519968,-0.09327978795619347
-3.9925,0.79300680024041,-0.008506680714854012
-3.992,0.7609962756673623,0.1504428953626575
-3.9915,0.6436243522328531,0.3305857482505039
-3.991,0.5369226036560266,0.3623756634660061
-3.9905,0.8783681991018712,-0.04029659593035631
-3.99,1.15579274540162,-0.7078848154559045
-3.9895,0.3555296310754218,-1.258910012524611
-3.989,-0.8181896032696687,-1.576809164679634
-3.9885,-1.735824641030376,-1.576809164679634
-3.988,-1.735824641030376,-1.311893204550448
-3.9875,-1.116954499284783,-0.8562377531282487
-3.987,-0.4660738329661415,-0.08268314955102604
-3.9865,0.01408403562957729,0.849821030103708
-3.986,0.2808384070716433,1.591585718465428
-3.9855,0.3982103305061524,2.036644531482461
-3.985,0.4195506802215176,2.195594107559972
-3.9845,0.3875401556484697,1.983661339456623
-3.984,0.3235191065023739,1.761131932948107
-3.9835,0.2701682322139607,1.570392441655093
-3.983,0.2381577076409128,1.072350436612224
-3.9825,0.1101156093487211,0.2140227257936621
-3.982,-0.572775581542968,-0.6549016234300674
-3.9815,-1.426389570157579,-1.354279758171118
-3.981,-2.183971985053047,-1.88411167842949
-3.9805,-2.514747405641209,-2.011271339291499
-3.98,-1.607782542738184,-1.51322933424863
-3.9795,-0.6047861061160158,-0.7714646458869092
-3.979,0.1207857842064037,-0.3370024712750445
-3.9785,0.5155822539406614,-0.1356663415768632
-3.978,0.6756348768059011,-0.07208651114585861
-3.9775,0.6756348768059011,-0.1144730647665284
-3.977,0.6329541773751706,-0.1356663415768632
-3.9765,0.6863050516635838,-0.2734226408440398
-3.976,0.7716664505250448,-0.3052125560595421
-3.9755,0.707645401378949,-0.1250697031716958
-3.975,0.6009436528021226,0.1292496185523226
-3.9745,0.5049120790829789,0.309392471440169
-3.974,0.6756348768059011,0.1610395337678249
-3.9735,1.102441871113207,-0.4111789401112165
-3.973,0.5155822539406614,-1.046977244421262
-3.9725,-0.5407650569699201,-1.47084278062796
-3.972,-1.490410619303675,-1.598002441489969
-3.9715,-1.725154466172693,-1.460246142222792
-3.971,-1.202315898146244,-1.152943628472937
-3.9705,-0.5621054066852853,-0.6654982618352349
-3.97,-0.06060718837420119,0.09745970333682032
-3.9695,0.2381577076409128,1.00877060618122
-3.969,0.3875401556484697,1.70814874092227
-3.9685,0.4195506802215176,2.1214176387238
-3.968,0.408880505363835,2.153207553939303
-3.9675,0.3448594562177392,1.941274785835954
-3.967,0.291508581929326,1.6657621873016
-3.9665,0.2488278824985954,1.347863035146577
-3.966,0.1741366584948169,0.7650479228623686
-3.9655,-0.391382608962363,-0.06148987274069118
-3.965,-1.234326422719292,-0.8350444763179138
-3.9645,-1.927887788468663,-1.460246142222792
-3.964,-2.023919362187807,-1.661582271920973
-3.9635,-1.244996597576974,-1.184733543688439
-3.963,-0.3273615598162672,-0.6654982618352349
-3.9625,0.3021787567870086,-0.2734226408440398
-3.962,0.6116138276598051,-0.05089323433552374
-3.9615,0.6969752265212663,0.01268659609548085
-3.961,0.6756348768059011,0.002089957690313421
-3.9605,0.6116138276598051,-0.09327978795619347
-3.96,0.5902734779444399,-0.2204394488182027
-3.9595,0.707645401378949,-0.3475991096802118
-3.959,0.6969752265212663,-0.1250697031716958
-3.9585,0.6116138276598051,0.1610395337678249
-3.958,0.5262524287983441,0.3517790250608387
-3.9575,0.5582629533713921,0.3305857482505039
-3.957,1.123782220828572,-0.1886495336027004
-3.9565,1.411876941986003,-0.8562377531282487
-3.956,0.5796033030867573,-1.333086481360783
-3.9555,-0.4447334832507763,-1.492036057438295
-3.955,-1.351698346153801,-1.364876396576285
-3.9545,-1.437059745015262,-1.089363798041932
-3.954,-0.9462317015618604,-0.6972881770507372
-3.9535,-0.3807124341046804,-0.06148987274069118
-3.953,0.03542438534494258,0.8286277532933731
-3.9525,0.2808384070716433,1.633972272086098
-3.952,0.3875401556484697,2.16380419234447
-3.9515,0.408880505363835,2.354543683637484
-3.951,0.3768699807907871,2.248577299585809
-3.9505,0.3235191065023739,2.047241169887628
-3.95,0.2808384070716433,1.75053529454294
-3.9495,0.2594980573562781,1.241896651094903
-3.949,0.04609456020262521,0.701468092431364
-3.9485,-0.6794773301197943,-0.2098428104130352
-3.948,-1.341028171296118,-1.025783967610927
-3.9475,-1.83185621474952,-1.555615887869299
-3.947,-1.67180359188428,-1.534422611058964
-3.9465,-0.8715404775580819,-0.9622041371799229
-3.946,-0.1032878878049318,-0.4853554089473885
-3.9455,0.3875401556484697,-0.252229364033705
-3.945,0.6329541773751706,-0.2204394488182027
-3.9445,0.6863050516635838,-0.252229364033705
-3.944,0.6436243522328531,-0.3052125560595421
-3.9435,0.5796033030867573,-0.4111789401112165
-3.943,0.6009436528021226,-0.4959520473525559
-3.9425,0.5902734779444399,-0.3158091944647096
-3.942,0.5369226036560266,-0.07208651114585861
-3.9415,0.5049120790829789,0.08686306493165288
-3.941,0.4835717293676135,0.1822328105781598
-3.9405,0.8997085488172365,-0.02969995752518888
-3.94,1.401206767128321,-0.6231117082145651
-3.9395,0.7289857510943143,-1.142346990067769
-3.939,-0.4447334832507763,-1.364876396576285
-3.9385,-1.383708870726849,-1.290699927740113
-3.938,-1.426389570157579,-0.9833974139902578
-3.9375,-0.9248913518464952,-0.4853554089473885
-3.937,-0.3700422592469978,0.2670059178194992
-3.9365,0.04609456020262521,1.167720182258731
-3.936,0.2808384070716433,1.909484870620451
-3.9355,0.3875401556484697,2.354543683637484
-3.935,0.408880505363835,2.513493259714995
-3.9345,0.3875401556484697,2.174400830749637
-3.934,0.3235191065023739,1.602182356870596
-3.9335,0.2808384070716433,1.146526905448396
-3.933,0.2488278824985954,0.6908714540261965
-3.9325,0.08877525963335578,0.07626642652648545
-3.932,-0.6154562809736985,-0.570128516188728
-3.9315,-1.46907026958831,-1.163540266878104
-3.931,-2.130621110764634,-1.640388995110639
-3.9305,-2.119950935906951,-1.788741932782983
-3.93,-1.277007122150022,-1.375473034981453
-3.9295,-0.3807124341046804,-0.8562377531282487
-3.929,0.2488278824985954,-0.5807251545938954
-3.9285,0.5796033030867573,-0.5171453241628908
-3.928,0.6863050516635838,-0.5171453241628908
-3.9275,0.6756348768059011,-0.4217755785163839
-3.927,0.6222840025174878,-0.3793890248957141
-3.9265,0.6756348768059011,-0.474758770542221
-3.926,0.79300680024041,-0.4111789401112165
-3.9255,0.7396559259519968,-0.1356663415768632
-3.925,0.6329541773751706,0.1292496185523226
-3.9245,0.5369226036560266,0.3199891098453364
-3.924,0.6756348768059011,0.2246193641988295
-3.9235,1.369196242555273,-0.3581957480853793
-3.923,2.020076908873914,-0.9939940523954253
-3.9225,1.614610264281974,-1.364876396576285
-3.922,0.3341892813600565,-1.38606967338662
-3.9215,-0.839529952985034,-1.216523458903942
-3.921,-1.074273799854052,-0.9304142219644207
-3.9205,-0.7434983792658902,-0.4853554089473885
-3.92,-0.3060212101009019,0.2776025562246667
-3.9195,0.04609456020262521,1.188913459069066
-3.919,0.2594980573562781,1.888291593810116
-3.9185,0.3555296310754218,2.290963853206479
-3.918,0.3768699807907871,2.269770576396144
-3.9175,0.3341892813600565,1.941274785835954
-3.917,0.2808384070716433,1.6657621873016
-3.9165,0.2488278824985954,1.37965295036208
-3.916,0.2061471830678648,0.6696781772158616
-3.9155,-0.1886492866663929,-0.2416327256285375
-3.915,-0.9782422261349084,-1.025783967610927
-3.9145,-1.67180359188428,-1.650985633515806
-3.914,-1.810515865034154,-1.968884785670829
-3.9135,-1.180975548430879,-1.682775548731308
-3.913,-0.3593720843893152,-1.089363798041932
-3.9125,0.2594980573562781,-0.6654982618352349
-3.912,0.5796033030867573,-0.3793890248957141
-3.9115,0.6969752265212663,-0.252229364033705
-3.911,0.6863050516635838,-0.1780528951975329
-3.9105,0.6222840025174878,-0.1674562567923655
-3.91,0.5902734779444399,-0.2416327256285375
-3.9095,0.7609962756673623,-0.3581957480853793
-3.909,0.7823366253827275,-0.09327978795619347
-3.9085,0.6863050516635838,0.13984625695749
-3.908,0.5689331282290746,0.2776025562246667
-3.9075,0.5369226036560266,0.3305857482505039
-3.907,0.5049120790829789,-0.1144730647665284
-3.9065,0.02475421048725994,-0.7714646458869092
-3.906,-0.8715404775580819,-1.237716735714276
-3.9055,-1.661133417026597,-1.290699927740113
-3.905,-2.269333383914508,-1.163540266878104
-3.9045,-1.970568487899394,-0.9410108603695881
-3.904,-1.159635198715513,-0.6760949002404023
-3.9035,-0.4340633083930936,-0.2734226408440398
-3.903,0.05676473506030786,0.383568940276341
-3.9025,0.3235191065023739,1.199510097474233
-3.902,0.4302208550792003,1.856501678594614
-3.9015,0.4302208550792003,2.142610915534135
-3.901,0.3875401556484697,1.782325209758442
-3.9005,0.3235191065023739,1.157123543853563
-3.9,0.2701682322139607,0.5425185163538525
-3.8995,0.2381577076409128,-0.05089323433552374
-3.899,-0.04993701351651855,-0.6654982618352349
-3.8985,-0.839529952985034,-1.227120097309109
-3.898,-1.639793067311232,-1.714565463946811
-3.8975,-2.151961460479999,-1.979481424075996
-3.897,-1.895877263895616,-1.75695201756748
-3.8965,-0.9889124009925911,-1.036380606016095
-3.896,-0.1459685872356623,-0.5807251545938954
-3.8955,0.408880505363835,-0.3475991096802118
-3.895,0.6649647019482183,-0.252229364033705
-3.8945,0.7289857510943143,-0.1250697031716958
-3.894,0.6756348768059011,-0.04029659593035631
-3.8935,0.6009436528021226,-0.05089323433552374
-3.893,0.6649647019482183,-0.1356663415768632
-3.8925,0.6969752265212663,-0.01910331912002144
-3.892,0.6436243522328531,0.09745970333682032
-3.8915,0.5582629533713921,0.1822328105781598
-3.891,0.5155822539406614,0.2458126410091644
-3.8905,0.3661998059331045,-0.09327978795619347
-3.89,-0.4660738329661415,-0.7290780922662394
-3.8895,-1.405049220442214,-1.248313374119443
-3.889,-2.023919362187807,-1.354279758171118
-3.8885,-2.525417580498891,-1.205926820498774
-3.888,-2.365364957633652,-0.9833974139902578
-3.8875,-1.46907026958831,-0.7078848154559045
-3.887,-0.6367966306890638,-0.2946159176543747
-3.8865,-0.03926683865883591,0.3729723018711736
-3.886,0.291508581929326,1.210106735879401
