Class_4_Move_right_hand_Horiszontal/Class_4_Move_right_hand_horizontal_Basim_6.csv

#Digilent WaveForms Oscilloscope Acquisition
#Device Name: EExplorer
#Serial Number: SN:210151A2B84A
#Date Time: 2020-12-13 12:23:22.337
#Sample rate: 2000Hz
#Samples: 16384
#Trigger: Source: Channel 1 Type: Edge Condition: Rising Level: 0 V Hyst.: Auto HoldOff: 0 s
#Channel 1: Range: 1 V/div Offset: 0 V Attenuation: 1 X
#Channel 2: Range: 1 V/div Offset: 0 V Attenuation: 1 X
#Power Supplies: ON
#Fixed Supply: ON
#Voltage: 3.3 V Readback: 3.325 V
#Positive Supply: ON
#Voltage: 3.7 V Readback: 3.716 V
#Current: 40 mA Readback: 20 mA
#Negative Supply: ON
#Voltage: -3.7 V Readback: -3.358 V
#Current: -40 mA Readback: -8 mA
#Reference 1: ON
#Voltage: 0 V
#Reference 2: ON
#Voltage: 0 V

Time (s),Channel 1 (V),Channel 2 (V)
-4.096,0.142126133921769,0.9451907757502149
-4.0955,0.1314559590640961,0.892207583724426
-4.095,0.1421261339219242,0.8074344764827781
-4.0945,0.3128489316446912,0.5213252395435176
-4.094,0.6116138276595333,0.03387987290625905
-4.0935,1.145122570544131,-0.6760949002409902
-4.093,1.35852606769759,-1.322489842955616
-4.0925,1.017080472252056,-1.852321763213506
-4.092,0.8250173248132834,-2.000674700885676
-4.0915,0.6329541773751706,-1.280103289334946
-4.091,0.3982103305061524,-0.5807251545938954
-4.0905,0.2168173579254505,-0.1038764263611103
-4.09,0.1101156093487211,0.1716361721729923
-4.0895,0.05676473506030786,0.2776025562246667
-4.089,0.03542438534496199,0.3199891098452978
-4.0885,-0.08194753808956648,0.4683420475176805
-4.088,-0.274010685527854,0.6802748156210291
-4.0875,-0.2633405106701811,0.6272916235952402
-4.087,-0.1673089369509403,0.489535324327919
-4.0865,-0.07127736323188383,0.383568940276341
-4.086,-0.02859666380119209,0.3623756634660254
-4.0855,-0.3060212101015521,0.5319218779484056
-4.085,-1.020922925565639,0.2246193641988295
-4.0845,-1.511750969018594,-0.4959520473519006
-4.084,-1.69314394159981,-1.174136905283686
-4.0835,-1.87453691418025,-1.629792356705471
-4.083,-1.479740444445993,-1.258910012524611
-4.0825,-0.8715404775576161,-0.5065486857571065
-4.082,-0.3593720843893152,0.1716361721729923
-4.0815,-0.03926683865883591,0.6378882620003594
-4.081,0.1314559590639311,0.8922075837241465
-4.0805,0.1848068333524996,0.9981739677760521
-4.08,0.1954770082101822,1.019367244586387
-4.0795,0.1741366584948363,0.9875773293709136
-4.079,0.1634664836371246,0.9134008605346452
-4.0785,0.1527963087794516,0.8392243916985406
-4.078,0.2701682322138539,0.6272916235953847
-4.0775,0.8997085488179061,-0.05089323433622728
-4.077,1.635950613997339,-0.8244478379127463
-4.0765,2.201469881454004,-1.48143941903253
-4.076,2.094768132877197,-2.011271339291634
-4.0755,1.550589215135878,-2.159624276963843
-4.075,1.038420821967111,-1.809935209593318
-4.0745,0.6329541773748697,-1.015187329205105
-4.074,0.3021787567870086,-0.2946159176543747
-4.0735,0.09944543449103843,0.1716361721729923
-4.073,0.003413860771981997,0.3305857482503593
-4.0725,-0.02859666380115328,0.3517790250608387
-4.072,-0.03926683865883591,0.3517790250608387
-4.0715,-0.2633405106699676,0.6060983467846257
-4.071,-0.3166913849585069,0.6484849004054208
-4.0705,-0.2313299860971235,0.5319218779486851
-4.07,-0.1139580626627212,0.4153588554919493
-4.0695,-0.06060718837433705,0.3835689402763314
-4.069,-0.2099896363817582,0.3729723018711736
-4.0685,-0.7328282044082075,-0.1992461720078678
-4.068,-1.180975548431277,-0.9092209451546255
-4.0675,-1.618452717595867,-1.502632695843462
-4.067,-1.703814116457328,-1.894708316834657
-4.0665,-1.074273799853528,-1.513229334247839
-4.066,-0.4980843575391895,-0.6443049850249
-4.0655,-0.1139580626626144,0.1186529801471552
-4.065,0.09944543449084434,0.6378882619998871
-4.0645,0.1848068333524996,0.9345941373450475
-4.064,0.1954770082101822,1.051157159801889
-4.0635,0.1741366584948363,1.072350436612205
-4.063,0.1527963087794419,1.029963882991477
-4.0625,0.142126133921769,0.9451907757502149
-4.062,0.142126133921769,0.8498210301037947
-4.0615,0.1421261339218078,0.7544512844570759
-4.061,0.1848068333524996,0.6166949851900245
-4.0605,0.5049120790829789,0.1928294489833272
-4.06,1.262494493978757,-0.5595318777841773
-4.0595,1.603940089424291,-1.237716735714276
-4.059,1.433217291701369,-1.767548655972648
-4.0585,1.251824319120929,-1.937094870455172
-4.058,0.942389248247967,-1.396666311791788
-4.0575,0.5796033030867573,-0.6760949002404023
-4.057,0.3021787567872609,-0.06148987274125017
-4.0565,0.09944543449103843,0.3305857482505039
-4.056,0.00341386077189465,0.4471487707073456
-4.0555,-0.01792648894345122,0.4153588554918722
-4.055,-0.1779791118088364,0.5743084315694609
-4.0545,-0.3166913849585846,0.6908714540261965
-4.054,-0.2526703358125469,0.5425185163539874
-4.0535,-0.1459685872355847,0.3835689402762543
-4.053,-0.06060718837420119,0.2881991946298341
-4.0525,-0.08194753808956648,0.3729723018711736
-4.052,-0.5514352318281559,0.4895353243275334
-4.0515,-1.159635198715513,-0.04029659593035631
-4.051,-1.51175096901904,-0.7820612842920766
-4.0505,-1.757164990745518,-1.407262950196386
-4.05,-1.639793067311232,-1.439052865412457
-4.0495,-1.084943974711735,-0.7820612842920766
-4.049,-0.540765056970415,-0.06148987274134654
-4.0485,-0.1459685872354682,0.4895353243283334
-4.048,0.0674349099179905,0.8392243916985406
-4.0475,0.1634664836370469,1.008770606181066
-4.047,0.1848068333524898,1.072350436612224
-4.0465,0.1741366584948169,1.072350436612224
-4.046,0.152796308779471,1.029963882991593
-4.0455,0.1421261339218078,0.9663840525604246
-4.045,0.1848068333524996,0.8286277532933731
-4.0445,0.2701682322139607,0.6590815388106942
-4.044,0.6116138276604359,0.2140227257930067
-4.0435,1.305175193409177,-0.5065486857577234
-4.043,1.817343586577944,-1.195330182093607
-4.0425,1.65729096371285,-1.75695201756697
-4.042,1.070431346540159,-2.000674700886331
-4.0415,0.5796033030867573,-1.608599079895136
-4.041,0.2594980573565692,-0.8774310299392485
-4.0405,0.0781050847755858,-0.2840192792488314
-4.04,-0.01792648894347063,0.1292496185523226
-4.0395,-0.06060718837416237,0.3093924714400051
-4.039,-0.04993701351656708,0.3411823866557291
-4.0385,-0.1032878878049318,0.4047622170866759
-4.038,-0.2846808603853717,0.606098346784674
-4.0375,-0.2633405106700744,0.5743084315692392
-4.037,-0.156638762093345,0.4471487707073456
-4.0365,-0.07127736323188383,0.3411823866556712
-4.036,-0.01792648894369383,0.3093924714401304
-4.0355,-0.2633405106701714,0.2670059178194992
-4.035,-0.807519428411986,-0.3052125560595421
-4.0345,-1.212986073003558,-0.983397413989641
-4.034,-1.554431668449771,-1.545019249464132
-4.0335,-1.767835165603424,-1.75695201756748
-4.033,-1.362368521011852,-1.131750351663171
-4.0325,-0.7861790786961937,-0.315809194464112
-4.032,-0.3166913849585846,0.3411823866556712
-4.0315,-0.01792648894374238,0.7650479228619831
-4.031,0.1314559590641349,0.9875773293709522
-4.0305,0.1848068333524996,1.061753798207057
-4.03,0.1848068333524996,1.061753798207057
-4.0295,0.1634664836371246,1.008770606181152
-4.029,0.1527963087794516,0.9345941373450475
-4.0285,0.1527963087794516,0.8286277532933731
-4.028,0.2061471830679328,0.6590815388105015
-4.0275,0.2808384070716433,0.4471487707073456
-4.027,0.4835717293676135,0.04447651131098315
-4.0265,0.7289857510940911,-0.6443049850242736
-4.026,0.4835717293676135,-1.280103289334946
-4.0255,0.09944543449103843,-1.598002441489969
-4.025,-0.02859666380103681,-1.237716735714604
-4.0245,-0.02859666380112416,-0.686691538645165
-4.024,0.00341386077189465,-0.2416327256285375
-4.0235,0.02475421048724053,0.04447651131072294
-4.023,0.01408403562956759,0.1928294489833465
-4.0225,0.00341386077189465,0.2140227257936621
-4.022,-0.007256314085778284,0.2140227257936621
-4.0215,-0.1779791118087393,0.3305857482505424
-4.021,-0.2099896363817582,0.3729723018711736
-4.0205,-0.1352984123779797,0.3517790250608387
-4.02,-0.04993701351654767,0.3411823866558158
-4.0195,-0.08194753808956648,0.5001319627331828
-4.019,-0.1886492866663929,0.7120647308365314
-4.0185,-0.7328282044077126,0.9028042221293717
-4.018,-1.287677297007705,0.2670059178194992
-4.0175,-1.629122892453549,-0.5807251545938954
-4.017,-1.8852070890377,-1.237716735713679
-4.0165,-1.693143941599092,-1.269506650929219
-4.016,-1.084943974711735,-0.6549016234300674
-4.0155,-0.5194247072550692,0.04447651131034713
-4.015,-0.1246282375201029,0.5743084315696536
-4.0145,0.08877525963335578,0.9028042221295453
-4.014,0.1848068333524122,1.061753798206912
-4.0135,0.1954770082101725,1.114736990232875
-4.013,0.1848068333524996,1.093543713422559
-4.0125,0.1741366584948169,1.029963882991555
-4.012,0.163466483637144,0.9451907757500992
-4.0115,0.1741366584948169,0.8180311148882058
-4.011,0.3128489316446912,0.5213252395435176
-4.0105,0.7503261008092816,-0.04029659592984547
-4.01,1.35852606769759,-0.7820612842920766
-4.0095,1.390536592270638,-1.42845622700729
-4.009,0.8570278493869913,-1.915901593644549
-4.0085,0.4515612047943715,-1.915901593644481
-4.008,0.2381577076409128,-1.354279758171118
-4.0075,0.1207857842065105,-0.7184814538616502
-4.007,0.05676473506024964,-0.1992461720075883
-4.0065,-0.007256314085787988,0.1080563417419877
-4.006,-0.02859666380115328,0.2246193641988295
-4.0055,-0.007256314085914145,0.2564092794144956
-4.005,-0.1459685872356623,0.4365521323021782
-4.0045,-0.2633405106701714,0.5743084315693548
-4.004,-0.2099896363816902,0.5107286011382635
-4.0035,-0.1352984123779797,0.4153588554918433
-4.003,-0.07127736323188383,0.3729723018711736
-4.0025,-0.1246282375202485,0.4895353243279093
-4.002,-0.4554036581084589,0.3305857482505039
-4.0015,-1.042263275281004,-0.3581957480853793
-4.001,-1.511750969018613,-1.068170521230952
-4.0005,-1.938557963326239,-1.598002441489863
-4,-1.821186039891837,-1.481439419033127
-3.9995,-1.191645723288561,-0.7290780922662394
-3.999,-0.5941159312583333,0.01268659609548085
-3.9985,-0.156638762093345,0.5637117931641874
-3.998,0.07810508477567314,0.8922075837243778
-3.9975,0.1848068333524996,1.051157159801889
-3.997,0.2061471830678648,1.082947075017392
-3.9965,0.1848068333524996,1.061753798207057
-3.996,0.1741366584948169,0.9981739677760521
-3.9955,0.1634664836371343,0.8922075837243778
-3.995,0.1848068333524996,0.7650479228623686
-3.9945,0.2381577076409128,0.5955017083796896
-3.994,0.3875401556484697,0.3305857482505039
-3.9935,0.9103787236749192,-0.3052125560595421
-3.993,1.251824319120764,-1.01518732920576
-3.9925,1.411876941986003,-1.587405803084801
-3.992,1.603940089424291,-1.979481424075996
-3.9915,1.486568165989782,-1.746355379162313
-3.991,1.059761171682476,-1.05757388282643
-3.9905,0.6222840025174878,-0.5489352393783931
-3.99,0.3021787567870086,-0.1144730647665284
-3.9895,0.07810508477567314,0.2246193641988295
-3.989,-0.02859666380115328,0.3729723018711736
-3.9885,-0.1352984123779797,0.4895353243280153
-3.988,-0.4340633083930936,0.8074344764830383
-3.9875,-0.4447334832507763,0.775644561267536
-3.987,-0.2846808603855366,0.5637117931641874
-3.9865,-0.1352984123779797,0.3941655786815084
-3.986,-0.04993701351651855,0.309392471440169
-3.9855,-0.3166913849585846,0.3941655786815084
-3.985,-0.9889124009925911,-0.06148987274069118
-3.9845,-1.458400094730627,-0.7714646458869092
-3.984,-1.725154466172693,-1.375473034981453
-3.9835,-1.959898313041711,-1.767548655972648
-3.983,-1.607782542738184,-1.354279758171118
-3.9825,-0.9782422261349084,-0.5489352393783931
-3.982,-0.4340633083930936,0.1610395337678249
-3.9815,-0.07127736323188383,0.6484849004055269
-3.981,0.1207857842064037,0.9134008605347127
-3.9805,0.1954770082101822,1.019367244586387
-3.98,0.2061471830678648,1.029963882991555
-3.9795,0.1848068333524996,0.9875773293708847
-3.979,0.1848068333524996,0.8710143069140429
-3.9785,0.2061471830678648,0.7120647308365314
-3.978,0.2701682322139607,0.5319218779486851
-3.9775,0.4515612047945656,0.2352160026039969
-3.977,0.9957401225363802,-0.3370024712750445
-3.9765,1.390536592270638,-1.01518732920576
-3.976,0.9317190733902845,-1.576809164679634
-3.9755,0.3875401556484697,-1.915901593644992
-3.975,0.2168173579255475,-1.735758740757146
-3.9745,0.1314559590640864,-1.046977244421262
-3.974,0.07810508477567314,-0.4429688553267188
-3.9735,0.03542438534494258,-0.008506680714854012
-3.973,0.01408403562957729,0.2352160026039969
-3.9725,-0.007256314085787988,0.3411823866556712
-3.972,-0.007256314085787988,0.3941655786815084
-3.9715,-0.2313299860971235,0.6802748156210291
-3.971,-0.2953510352432193,0.7332580076468663
-3.9705,-0.2099896363817582,0.5955017083796896
-3.97,-0.1032878878049318,0.4471487707073456
-3.9695,-0.007256314085787988,0.3517790250608387
-3.969,-0.04993701351651855,0.2776025562246667
-3.9685,-0.5621054066852853,-0.1780528951975329
-3.968,-1.234326422719292,-0.8668343915334161
-3.9675,-1.607782542738184,-1.460246142222792
-3.967,-1.650463242168915,-1.894708316834657
-3.9665,-1.212986073003927,-1.672178910326141
-3.966,-0.658136980404429,-0.8244478379127463
-3.9655,-0.2313299860971235,-0.04029659593035631
-3.965,0.03542438534494258,0.5213252395435176
-3.9645,0.1527963087794516,0.8392243916985406
-3.964,0.1954770082101822,0.9875773293708847
-3.9635,0.1954770082101822,1.019367244586387
-3.963,0.1741366584948169,0.9875773293708847
-3.9625,0.1634664836371343,0.9134008605347127
-3.962,0.1741366584948169,0.7968378380778709
-3.9615,0.1848068333524996,0.6908714540261965
-3.961,0.1954770082101822,0.6166949851900245
-3.9605,0.4622313796522482,0.2246193641988295
-3.96,1.006410297394063,-0.5171453241628908
-3.9595,1.070431346540159,-1.184733543688439
-3.959,0.7609962756673623,-1.714565463946811
-3.9585,0.6649647019482183,-1.937094870455327
-3.958,0.5689331282290746,-1.523825972653797
-3.9575,0.3982103305061524,-0.8774310299385835
-3.957,0.2381577076409128,-0.2734226408440398
-3.9565,0.1314559590640864,0.1716361721729923
-3.956,0.0674349099179905,0.383568940276341
-3.9555,0.03542438534494258,0.4365521323021782
-3.955,-0.1459685872356623,0.6060983467848571
-3.9545,-0.3380317346739499,0.775644561267536
-3.954,-0.2953510352432193,0.6696781772158616
-3.9535,-0.1673089369510276,0.5107286011383502
-3.953,-0.06060718837420119,0.3623756634660061
-3.9525,-0.01792648894347063,0.3305857482505039
-3.952,-0.4447334832507763,0.1610395337678249
-3.9515,-1.1062843244271,-0.474758770542221
-3.951,-1.565101843307454,-1.131750351662602
-3.9505,-2.013249187330125,-1.672178910326141
-3.95,-2.03458953704549,-1.703968825541643
-3.9495,-1.362368521011484,-0.9516074987747555
-3.949,-0.7114878546928423,-0.1674562567923655
-3.9485,-0.2206598112394408,0.4259554938970107
-3.948,0.05676473506030786,0.775644561267536
-3.9475,0.1848068333524996,0.9451907757502149
-3.947,0.2168173579255475,0.9981739677760521
-3.9465,0.2061471830678648,0.9769806909657173
-3.946,0.1848068333524996,0.9134008605347127
-3.9455,0.2168173579255475,0.7650479228623686
-3.945,0.2274875327832301,0.6484849004055269
-3.9445,0.2168173579255475,0.5955017083796896
-3.944,0.291508581929326,0.4683420475176805
-3.9435,0.825017324813458,-0.1356663415768632
-3.943,1.017080472251745,-0.8774310299385835
-3.9425,0.5796033030867573,-1.481439419033127
-3.942,0.2381577076409128,-1.788741932782983
-3.9415,0.09944543449103843,-1.460246142222792
-3.941,0.04609456020262521,-0.8244478379127463
-3.9405,0.04609456020262521,-0.252229364033705
-3.94,0.04609456020262521,0.1292496185523226
-3.9395,0.05676473506030786,0.3199891098453364
-3.939,0.05676473506030786,0.3941655786815084
-3.9385,-0.01792648894347063,0.5001319627331828
-3.938,-0.2526703358124887,0.7226613692416989
-3.9375,-0.274010685527854,0.6908714540261965
-3.937,-0.1673089369510276,0.5319218779486851
-3.9365,-0.07127736323188383,0.4047622170866759
-3.936,-0.01792648894347063,0.3729723018711736
-3.9355,-0.1352984123779797,0.4471487707073456
-3.935,-0.7008176798351597,0.2352160026039969
-3.9345,-1.298347471865388,-0.4429688553267188
-3.934,-1.629122892453549,-1.121153713257435
-3.9335,-1.67180359188428,-1.47084278062796
-3.933,-1.212986073003927,-1.01518732920576
-3.9325,-0.658136980404429,-0.3052125560595421
-3.932,-0.2206598112394408,0.2987958330350016
-3.9315,0.04609456020262521,0.7120647308365314
-3.931,0.1634664836371343,0.9345941373450475
-3.9305,0.2061471830678648,1.029963882991555
-3.93,0.1954770082101822,1.040560521396722
-3.9295,0.1848068333524996,1.00877060618122
-3.929,0.1848068333524996,0.8922075837243778
-3.9285,0.2168173579255475,0.7650479228623686
-3.928,0.2488278824985954,0.6378882620003594
-3.9275,0.6116138276598051,0.1928294489833272
-3.927,1.262494493978446,-0.5171453241628908
-3.9265,1.678631313428069,-1.205926820498774
-3.926,1.443887466559051,-1.767548655972648
-3.9255,0.7289857510943143,-2.074851169722503
-3.925,0.2808384070716433,-1.629792356705471
-3.9245,0.08877525963335578,-0.9092209451540858
-3.924,0.02475421048725994,-0.326405832869877
-3.9235,0.01408403562957729,0.08686306493165288
-3.923,0.01408403562957729,0.2776025562246667
-3.9225,0.03542438534494258,0.309392471440169
-3.922,0.03542438534494258,0.309392471440169
-3.9215,-0.2099896363817582,0.5849050699745222
-3.921,-0.3166913849585846,0.6802748156210291
-3.9205,-0.2526703358124887,0.5743084315693548
-3.92,-0.124628237520297,0.4365521323021782
-3.9195,-0.04993701351651855,0.383568940276341
-3.919,-0.1352984123779797,0.457745409112513
-3.9185,-0.6154562809736985,0.1186529801471552
-3.918,-1.202315898146244,-0.5913217929990628
-3.9175,-1.607782542738184,-1.248313374119443
-3.917,-1.863866739322568,-1.703968825541643
-3.9165,-1.735824641030376,-1.555615887869299
-3.916,-1.127624674142465,-0.7608680074817418
-3.9155,-0.5514352318276028,0.01268659609548085
-3.915,-0.1352984123779797,0.5849050699745222
-3.9145,0.08877525963335578,0.9134008605347127
-3.914,0.1954770082101822,1.061753798207057
-3.9135,0.2168173579255475,1.093543713422559
-3.913,0.2061471830678648,1.061753798207057
-3.9125,0.1848068333524996,0.9875773293708847
-3.912,0.1741366584948169,0.9028042221295453
-3.9115,0.1954770082101822,0.7650479228623686
-3.911,0.2594980573562781,0.5849050699745222
-3.9105,0.5582629533713921,0.1610395337678249
-3.91,1.134452395686255,-0.5489352393783931
-3.9095,1.187803269974668,-1.195330182093607
-3.909,0.7823366253827275,-1.714565463946811
-3.9085,0.4515612047945656,-1.79933857118815
-3.908,0.291508581929326,-1.269506650929778
-3.9075,0.1741366584948169,-0.6443049850249
-3.907,0.1101156093487211,-0.1568596183871981
-3.9065,0.0674349099179905,0.1504428953626575
-3.906,0.02475421048725994,0.309392471440169
-3.9055,0.02475421048725994,0.3305857482505039
-3.905,-0.09261771294724913,0.4789386859228479
-3.9045,-0.2526703358124887,0.6590815388106942
-3.904,-0.2206598112394408,0.5849050699745222
-3.9035,-0.124628237520297,0.457745409112513
-3.903,-0.03926683865883591,0.3729723018711736
-3.9025,0.00341386077189465,0.3729723018711736
-3.902,-0.3273615598162672,0.4683420475176805
-3.9015,-1.020922925565639,0.01268659609548085
-3.901,-1.543761493592088,-0.7078848154559045
-3.9005,-1.853196564464885,-1.322489842955616
-3.9,-1.938557963326346,-1.587405803084801
-3.8995,-1.362368521011484,-1.01518732920576
-3.899,-0.7328282044082075,-0.252229364033705
-3.8985,-0.2526703358124887,0.383568940276341
-3.898,0.04609456020262521,0.7968378380778709
-3.8975,0.1848068333524996,1.00877060618122
-3.897,0.2168173579255475,1.093543713422559
-3.8965,0.2168173579255475,1.093543713422559
-3.896,0.2061471830678648,1.019367244586387
-3.8955,0.2061471830678648,0.8816109453192104
-3.895,0.2168173579255475,0.7544512844572011
-3.8945,0.2701682322139607,0.5955017083796896
-3.894,0.4195506802215176,0.2881991946298341
-3.8935,0.9850699476786977,-0.3687923864905467
-3.893,1.369196242555273,-1.05757388282643
-3.8925,1.081101521397841,-1.640388995110639
-3.892,0.6542945270905358,-1.968884785670829
-3.8915,0.4408910299368829,-1.640388995110639
-3.891,0.3128489316446912,-0.9410108603695881
-3.8905,0.2168173579255475,-0.2628260024388724
-3.89,0.1527963087794516,0.13984625695749
-3.8895,0.08877525963335578,0.3305857482505039
-3.889,0.05676473506030786,0.4153588554918433
-3.8885,-0.007256314085787988,0.5001319627331828
-3.888,-0.2526703358124887,0.7544512844572011
-3.8875,-0.2846808603855366,0.7332580076468663
-3.887,-0.1993194615240755,0.5743084315693548
-3.8865,-0.08194753808956648,0.3941655786815084
