Class_4_Move_right_hand_Horiszontal/Class_4_Move_Right_hand_Horizontal_Turki_16.csv

#Digilent WaveForms Oscilloscope Acquisition
#Device Name: EExplorer
#Serial Number: SN:210151A2B84A
#Date Time: 2021-02-10 11:38:00.010
#Sample rate: 2000Hz
#Samples: 16384
#Trigger: Source: Channel 1 Type: Edge Condition: Rising Level: 0 V Hyst.: Auto HoldOff: 0 s
#Channel 1: Range: 1 V/div Offset: 0 V Attenuation: 1 X
#Channel 2: Range: 1 V/div Offset: 0 V Attenuation: 1 X
#Power Supplies: ON
#Fixed Supply: ON
#Voltage: 3.3 V Readback: 3.302 V
#Positive Supply: ON
#Voltage: 3.7 V Readback: 3.717 V
#Current: 40 mA Readback: 14 mA
#Negative Supply: ON
#Voltage: -3.7 V Readback: -3.697 V
#Current: -40 mA Readback: -2 mA
#Reference 1: ON
#Voltage: 0 V
#Reference 2: ON
#Voltage: 0 V

Time (s),Channel 1 (V),Channel 2 (V)
-4.096,-0.3380317346739499,0.09745970333682032
-4.0955,-0.8822106524152695,-0.7820612842912766
-4.095,-1.202315898146331,-1.492036057438391
-4.0945,-1.298347471865388,-1.598002441489969
-4.094,-0.8608703027007971,-1.025783967611448
-4.0935,-0.2526703358120617,-0.3687923864901324
-4.093,0.2168173579255475,0.08686306493165288
-4.0925,0.472901554509698,0.3093924714399666
-4.092,0.5689331282290746,0.2987958330349148
-4.0915,0.5689331282290746,0.2034260873884947
-4.091,0.6436243522328531,0.002089957690313421
-4.0905,0.8356874996710826,-0.2946159176543168
-4.09,0.7716664505250448,-0.2310360872233701
-4.0895,0.6222840025174878,-0.01910331912002144
-4.089,0.4835717293677396,0.1822328105779767
-4.0885,0.3768699807907871,0.309392471440169
-4.088,0.1101156093487211,0.08686306493165288
-4.0875,-0.4127229586772529,-0.6019184314036039
-4.087,-0.7221580295507481,-1.301296566145743
-4.0865,-0.9675720512772257,-1.809935209593318
-4.086,-1.522421143876219,-2.117237723342894
-4.0855,-1.874536914179881,-2.127834361747695
-4.085,-1.46907026958831,-1.417859588602123
-4.0845,-0.8075194284125876,-0.4747587705430788
-4.084,-0.2420001609544761,0.2881991946302774
-4.0835,0.1207857842064037,0.775644561267536
-4.083,0.3128489316446912,0.9981739677760521
-4.0825,0.3768699807907871,1.072350436612215
-4.082,0.3768699807907871,1.061753798207057
-4.0815,0.3448594562177392,1.019367244586387
-4.081,0.3235191065023933,0.9451907757502824
-4.0805,0.3021787567870086,0.8710143069140429
-4.08,0.2701682322139607,0.775644561267536
-4.0795,-0.113958062662265,0.2776025562251196
-4.079,-0.6367966306894908,-0.5913217929997567
-4.0785,-1.1062843244271,-1.354279758171118
-4.078,-1.159635198715465,-1.640388995110378
-4.0775,-0.6901475049769917,-1.099960436446531
-4.077,-0.156638762093345,-0.474758770542221
-4.0765,0.2594980573558996,-0.08268314955138267
-4.076,0.5049120790830565,0.09745970333692633
-4.0755,0.5902734779444399,0.2140227257936621
-4.075,0.5796033030867573,0.1822328105781598
-4.0745,0.5475927785135638,-0.02969995752542018
-4.074,0.3875401556484697,-0.2840192792492073
-4.0735,0.291508581929326,-0.2204394488182027
-4.073,0.2701682322139801,-0.02969995752536236
-4.0725,0.2808384070716433,0.1610395337678249
-4.072,0.291508581929326,0.3199891098453364
-4.0715,0.4088805053637283,0.5107286011381766
-4.071,0.5369226036553958,0.7226613692411302
-4.0705,-0.156638762093345,0.09745970333682032
-4.07,-0.9142211769881234,-0.7078848154551721
-4.0695,-1.597112367881055,-1.290699927740508
-4.069,-2.205312334768412,-1.725162102351978
-4.0685,-2.066600061618538,-1.682775548731308
-4.068,-1.309017646722401,-0.930414221963669
-4.0675,-0.572775581542968,-0.1038764263613609
-4.067,-0.04993701351651855,0.5319218779486851
-4.0665,0.2488278824987118,0.9028042221296995
-4.066,0.3768699807907871,1.072350436612224
-4.0655,0.3982103305061524,1.114736990232894
-4.065,0.3768699807908065,1.104140351827736
-4.0645,0.3448594562177392,1.061753798207057
-4.064,0.3235191065023739,0.9981739677760521
-4.0635,0.302178756787028,0.902804222129632
-4.063,0.04609456020209147,0.4153588554910145
-4.0625,-0.5407650569699201,-0.4959520473525559
-4.062,-0.7434983792657058,-1.311893204549706
-4.0615,-0.7968492535541579,-1.852321763213795
-4.061,-0.6367966306890638,-1.640388995110639
-4.0605,-0.1993194615240755,-0.9304142219644207
-4.06,0.2168173579257804,-0.4005823017058274
-4.0595,0.4729015545099309,-0.1568596183871981
-4.059,0.5796033030867573,0.01268659609548085
-4.0585,0.6009436528021032,0.05507314971611203
-4.058,0.5796033030867573,0.06566978812131802
-4.0575,0.5049120790829789,-0.1462629799820306
-4.057,0.4195506802215953,-0.178052895197504
-4.0565,0.3661998059331045,-0.008506680714854012
-4.056,0.3448594562177392,0.1822328105781598
-4.0555,0.3235191065023933,0.3305857482503689
-4.055,0.270168232213456,0.3411823866551894
-4.0545,-0.2846808603855366,-0.1886495336027004
-4.054,-0.9248913518459129,-0.9516074987740615
-4.0535,-1.180975548431112,-1.57680916468002
-4.053,-1.437059745015262,-2.000674700886331
-4.0525,-1.895877263895616,-2.21260746898968
-4.052,-1.874536914179687,-1.968884785670019
-4.0515,-1.255666772434657,-1.078767159636765
-4.051,-0.572775581542968,-0.1780528951975329
-4.0505,-0.06060718837466705,0.4895353243274082
-4.05,0.2381577076409128,0.8816109453192104
-4.0495,0.3661998059331045,1.040560521396722
-4.049,0.3982103305061233,1.072350436612195
-4.0485,0.3768699807907677,1.029963882991506
-4.048,0.3555296310754218,0.9769806909657173
-4.0475,0.323519106502403,0.9028042221296128
-4.047,0.3128489316445165,0.8180311148879745
-4.0465,0.1207857842064037,0.5637117931641874
-4.046,-0.423393133534916,-0.2098428104123317
-4.0455,-0.8075194284122869,-1.057573882827008
-4.045,-1.138294849000148,-1.693372187136476
-4.0445,-1.330357996438436,-1.767548655972648
-4.044,-0.8715404775575191,-1.099960436446483
-4.0435,-0.2526703358124887,-0.4217755785163839
-4.043,0.1954770082101822,0.01268659609548085
-4.0425,0.4408910299366597,0.1716361721728478
-4.042,0.5582629533713921,0.2034260873884947
-4.0415,0.5902734779444399,0.2987958330350016
-4.041,0.6116138276597857,0.1610395337679502
-4.0405,0.6116138276597372,-0.008506680714815461
-4.04,0.5369226036560266,0.03387987290581572
-4.0395,0.4515612047946432,0.1504428953625515
-4.039,0.3875401556484309,0.2670059178195763
-4.0385,0.3448594562177392,0.3517790250608387
-4.038,0.5155822539405062,0.6060983467846257
-4.0375,0.2594980573556764,0.5107286011376273
-4.037,-0.4020527838200457,-0.2840192792492073
-4.0365,-0.9782422261349084,-0.9410108603695881
-4.036,-1.586442193023353,-1.428456227007618
-4.0355,-2.173301810195364,-1.788741932782983
-4.035,-2.03458953704549,-1.661582271920973
-4.0345,-1.277007122150711,-0.866834391534139
-4.034,-0.5514352318276028,-0.02969995752518888
-4.0335,-0.02859666380115328,0.5849050699745222
-4.033,0.270168232213689,0.9451907757498872
-4.0325,0.3875401556484891,1.104140351827765
-4.032,0.408880505363835,1.146526905448396
-4.0315,0.3875401556484891,1.135930267043238
-4.031,0.3555296310754024,1.072350436612157
-4.0305,0.3341892813600565,0.9981739677760521
-4.03,0.2274875327833272,0.8498210301038429
-4.0295,-0.3807124341050007,0.1716361721721442
-4.029,-0.7328282044082075,-0.7608680074817418
-4.0285,-0.8502001278427167,-1.502632695843462
-4.028,-0.7861790786961841,-1.47084278062741
-4.0275,-0.3060212101009019,-0.8668343915334161
-4.027,0.1527963087794516,-0.3158091944647096
-4.0265,0.430220855078948,0.01268659609518208
-4.026,0.5475927785137094,0.1080563417419877
-4.0255,0.5902734779444399,0.01268659609548085
-4.025,0.5902734779444399,-0.08268314955093931
-4.0245,0.6116138276598827,-0.04029659593025994
-4.024,0.6969752265212663,0.06566978812131802
-4.0235,0.6542945270905747,0.1504428953625804
-4.023,0.547592778513622,0.2140227257937006
-4.0225,0.4515612047945656,0.2564092794143318
-4.022,0.387540155648528,0.298795833034963
-4.0215,0.4408910299370285,0.478938685923031
-4.021,0.6009436528021226,0.6802748156210291
-4.0205,0.09944543449103843,0.04447651131098315
-4.02,-0.8075194284127333,-0.8032545611029801
-4.0195,-1.629122892453549,-1.42845622700729
-4.019,-2.333354433060604,-1.767548655972648
-4.0185,-2.280003558772239,-1.672178910326228
-4.018,-1.437059745015262,-0.8774310299385835
-4.0175,-0.6474668055467465,0.03387987290581572
-4.017,-0.07127736323240785,0.7544512844565457
-4.0165,0.2488278824987313,1.178316820664081
-4.016,0.3982103305061524,1.37965295036208
-4.0155,0.4302208550791712,1.432636142387869
-4.015,0.4088805053638059,1.400846227172347
-4.0145,0.3768699807907871,1.326669758336243
-4.014,0.3448594562177683,1.231300012689822
-4.0135,0.3235191065020827,1.104140351827351
-4.013,0.00341386077189465,0.6908714540261965
-4.0125,-0.658136980404429,-0.2416327256285375
-4.012,-0.8928808272734181,-1.142346990068049
-4.0115,-0.8608703027003992,-1.449649503817625
-4.011,-0.4447334832507763,-1.05757388282643
-4.0105,0.05676473505985175,-0.6125150698098024
-4.01,0.3982103305061524,-0.2946159176543747
-4.0095,0.5796033030867573,-0.09327978795619347
-4.009,0.622284002517449,0.002089957690226685
-4.0085,0.6116138276597662,-0.008506680714911837
-4.008,0.5689331282290746,-0.07208651114585861
-4.0075,0.6222840025174393,-0.1356663415768053
-4.007,0.6222840025174102,-0.09327978795606819
-4.0065,0.5369226036560266,0.04447651131098315
-4.006,0.4515612047945656,0.1928294489833272
-4.0055,0.3875401556484697,0.3093924714402846
-4.005,0.3875401556484697,0.4365521323021782
-4.0045,0.6542945270905358,0.7862411996727035
-4.004,0.4195506802210809,0.404762217085876
-4.0035,-0.06060718837420119,-0.474758770542221
-4.003,-0.8181896032696687,-1.248313374119443
-4.0025,-1.629122892452812,-1.767548655972176
-4.002,-2.002579012472442,-1.937094870455327
-4.0015,-1.501080794161358,-1.311893204550448
-4.001,-0.796849253554944,-0.4111789401120357
-4.0005,-0.2099896363814185,0.3411823866561242
-4,0.1634664836371343,0.8392243916985406
-3.9995,0.3448594562177392,1.093543713422559
-3.999,0.408880505363835,1.178316820663898
-3.9985,0.408880505363835,1.178316820663898
-3.998,0.3768699807907871,1.135930267043229
-3.9975,0.3448594562177392,1.072350436612224
-3.997,0.3235191065023739,0.9981739677760521
-3.9965,0.0674349099179905,0.6590815388106942
-3.996,-0.572775581542968,-0.2204394488182027
-3.9955,-1.138294849000148,-1.110557074852267
-3.995,-1.682473766741963,-1.75695201756748
-3.9945,-1.490410619303675,-1.629792356705471
-3.994,-0.7328282044082075,-0.9939940523954253
-3.9935,-0.02859666380115328,-0.4217755785163839
-3.993,0.4302208550792003,-0.07208651114585861
-3.9925,0.6329541773751706,0.1504428953626575
-3.992,0.6756348768059011,0.1716361721729923
-3.9915,0.6329541773751706,0.13984625695749
-3.991,0.7396559259519968,-0.02969995752518888
-3.9905,0.9530594231056497,-0.2204394488182027
-3.99,0.8783681991018712,-0.09327978795619347
-3.9895,0.707645401378949,0.1080563417419877
-3.989,0.5369226036560266,0.2776025562246667
-3.9885,0.4302208550792003,0.3941655786815084
-3.988,0.5369226036560266,0.6696781772158616
-3.9875,0.5582629533713921,0.5425185163538525
-3.987,0.1207857842064037,-0.2734226408440398
-3.9865,-0.4447334832507763,-1.121153713257435
-3.986,-1.191645723288561,-1.778145294377815
-3.9855,-1.447729919872945,-1.947691508860494
-3.985,-1.052933450138687,-1.237716735714276
-3.9845,-0.5087545323968721,-0.3793890248957141
-3.984,-0.06060718837420119,0.309392471440169
-3.9835,0.2168173579255475,0.7332580076468663
-3.983,0.3555296310754218,0.9451907757502149
-3.9825,0.3875401556484697,1.019367244586387
-3.982,0.3875401556484697,1.029963882991555
-3.9815,0.3661998059331045,1.029963882991555
-3.981,0.3448594562177392,0.9981739677760521
-3.9805,0.3341892813600565,0.9663840525605498
-3.98,0.2701682322139607,0.8816109453192104
-3.9795,-0.2633405106701714,0.3199891098453364
-3.979,-0.8288597781273515,-0.5913217929990628
-3.9785,-1.330357996438436,-1.364876396576285
-3.978,-1.51175096901904,-1.545019249464132
-3.9775,-0.9995825758502737,-1.004590690800593
-3.977,-0.3060212101009019,-0.400582301706049
-3.9765,0.2168173579255475,0.03387987290581572
-3.976,0.4942419042252961,0.2458126410091644
-3.9755,0.5902734779444399,0.2246193641988295
-3.975,0.6009436528021226,0.2034260873884947
-3.9745,0.6436243522328531,0.06566978812131802
-3.974,0.7503261008096795,-0.1886495336027004
-3.9735,0.6969752265212663,-0.1462629799820306
-3.973,0.5689331282290746,0.05507314971615059
-3.9725,0.4622313796522482,0.2670059178194992
-3.972,0.3875401556484697,0.4259554938970107
-3.9715,0.4622313796522482,0.6696781772158616
-3.971,0.5582629533713921,0.849821030103708
-3.9705,0.1207857842064037,0.1610395337678249
-3.97,-0.391382608962363,-0.6654982618352349
-3.9695,-1.1062843244271,-1.258910012524611
-3.969,-1.810515865034154,-1.725162102351978
-3.9685,-1.906547438753298,-1.735758740757146
-3.968,-1.298347471865388,-1.004590690800593
-3.9675,-0.6047861061160158,-0.1568596183871981
-3.967,-0.08194753808956648,0.4895353243280153
-3.9665,0.2381577076409128,0.8816109453192104
-3.966,0.3768699807907871,1.061753798207057
-3.9655,0.4195506802215176,1.125333628638062
-3.965,0.3982103305061524,1.125333628638062
-3.9645,0.3768699807907871,1.082947075017392
-3.964,0.3448594562177392,1.029963882991555
-3.9635,0.3128489316446912,0.9451907757502149
-3.963,-0.1032878878049318,0.4471487707073456
-3.9625,-0.690147504977477,-0.4853554089473885
-3.962,-1.084943974711735,-1.311893204550448
-3.9615,-1.202315898146244,-1.587405803084801
-3.961,-0.6688071552621118,-1.110557074852267
-3.9605,-0.06060718837420119,-0.5383386009732256
-3.96,0.3768699807907871,-0.09327978795619347
-3.9595,0.5902734779444399,0.1292496185523226
-3.959,0.6649647019482183,0.1716361721729923
-3.9585,0.6756348768059011,0.1928294489833272
-3.958,0.6436243522328531,0.1292496185523226
-3.9575,0.6863050516635838,0.002089957690313421
-3.957,0.6542945270905358,0.01268659609548085
-3.9565,0.5582629533713921,0.1080563417419877
-3.956,0.4622313796522482,0.2246193641988295
-3.9555,0.3982103305061524,0.3305857482505039
-3.955,0.408880505363835,0.4789386859228479
-3.9545,0.6542945270905358,0.8392243916985406
-3.954,0.4729015545099309,0.4047622170866759
-3.9535,0.04609456020262521,-0.4959520473525559
-3.953,-0.6261264558313813,-1.280103289334946
-3.9525,-1.447729919872945,-1.84172512480882
-3.952,-1.757164990745741,-1.926498232050159
-3.9515,-1.298347471865388,-1.152943628472937
-3.951,-0.658136980404429,-0.2416327256285375
-3.9505,-0.1352984123779797,0.4895353243280153
-3.95,0.1954770082101822,0.9451907757502149
-3.9495,0.3555296310754218,1.167720182258731
-3.949,0.408880505363835,1.25249328950007
-3.9485,0.408880505363835,1.263089927905238
-3.948,0.3768699807907871,1.231300012689736
-3.9475,0.3555296310754218,1.178316820663898
-3.947,0.3341892813600565,1.104140351827727
-3.9465,0.08877525963335578,0.8286277532933731
-3.946,-0.5407650569699201,-0.02969995752518888
-3.9455,-0.9142211769888124,-0.9622041371799229
-3.945,-1.084943974711735,-1.693372187136476
-3.9445,-1.1062843244271,-1.862918401619155
-3.944,-0.6154562809736985,-1.205926820498774
-3.9435,-0.08194753808956648,-0.5383386009732256
-3.943,0.2808384070716433,-0.05089323433552374
-3.9425,0.4622313796522482,0.2034260873884947
-3.942,0.5582629533713921,0.3199891098453364
-3.9415,0.5689331282290746,0.2987958330350016
-3.941,0.6542945270905358,0.09745970333682032
-3.9405,0.79300680024041,-0.08268314955102604
-3.94,0.7289857510943143,-0.008506680714854012
-3.9395,0.6009436528021226,0.1292496185523226
-3.939,0.4835717293676135,0.2670059178194992
-3.9385,0.408880505363835,0.3411823866556712
-3.938,0.3128489316446912,0.2034260873884947
-3.9375,0.3661998059331045,-0.2204394488182027
-3.937,-0.03926683865883591,-0.9198175835592532
-3.9365,-0.4340633083930936,-1.396666311791788
-3.936,-1.095614149569417,-1.75695201756748
-3.9355,-1.725154466172693,-1.979481424075996
-3.935,-1.618452717595867,-1.598002441489969
-3.9345,-1.010252750707956,-0.7290780922662394
-3.934,-0.4020527838200457,0.05507314971615059
-3.9335,0.03542438534494258,0.5955017083796896
-3.933,0.291508581929326,0.8816109453192104
-3.9325,0.3982103305061524,0.9981739677760521
-3.932,0.4195506802215176,1.00877060618122
-3.9315,0.3982103305061524,0.9981739677760521
-3.931,0.3661998059331045,0.9557874141553824
-3.9305,0.3448594562177392,0.8922075837243778
-3.93,0.2488278824985954,0.7650479228623686
-3.9295,-0.3807124341046804,0.08686306493165288
-3.929,-0.9782422261349084,-0.8138511995075789
-3.9285,-1.255666772434657,-1.492036057438295
-3.928,-0.8822106524157645,-1.449649503817625
-3.9275,-0.1779791118087102,-0.8668343915334161
-3.927,0.3661998059331045,-0.3158091944647096
-3.9265,0.6222840025174878,0.06566978812131802
-3.926,0.6863050516635838,0.1504428953626575
-3.9255,0.6756348768059011,0.1292496185523226
-3.925,0.6329541773751706,0.03387987290581572
-3.9245,0.6329541773751706,-0.07208651114585861
-3.924,0.79300680024041,-0.1992461720078678
-3.9235,0.7503261008096795,-0.07208651114585861
-3.923,0.6222840025174878,0.1610395337678249
-3.9225,0.5049120790829789,0.3729723018711736
-3.922,0.4195506802215176,0.5425185163538525
-3.9215,0.4515612047945656,0.7544512844572011
-3.921,0.5689331282290746,0.9345941373450475
-3.9205,0.0674349099179905,0.2564092794143318
-3.92,-0.5834457564006506,-0.6125150698093976
-3.9195,-1.319687821580753,-1.258910012524611
-3.919,-2.002579012472442,-1.714565463946811
-3.9185,-2.002579012472442,-1.714565463946811
-3.918,-1.30901764672307,-0.9728007755850904
-3.9175,-0.5941159312583333,-0.1356663415768632
-3.917,-0.04993701351651855,0.5001319627331828
-3.9165,0.2594980573562781,0.8816109453192104
-3.916,0.3982103305061524,1.051157159801889
-3.9155,0.4302208550792003,1.082947075017392
-3.915,0.408880505363835,1.072350436612224
-3.9145,0.3768699807907871,1.019367244586387
-3.914,0.3555296310754218,0.9451907757502149
-3.9135,0.3235191065023739,0.8604176685088755
-3.913,-0.08194753808956648,0.383568940276341
-3.9125,-0.6794773301197943,-0.5065486857577234
-3.912,-1.084943974711735,-1.311893204550448
-3.9115,-1.501080794161358,-1.873515040024322
-3.911,-1.351698346153801,-1.693372187136476
-3.9105,-0.6154562809736985,-0.9198175835592532
-3.91,0.04609456020262521,-0.252229364033705
-3.9095,0.4408910299368829,0.2352160026039969
-3.909,0.6009436528021226,0.383568940276341
-3.9085,0.6329541773751706,0.2881991946298341
-3.908,0.6222840025174878,0.2034260873884947
-3.9075,0.7609962756673623,0.01268659609548085
-3.907,0.7716664505250448,-0.02969995752518888
-3.9065,0.6542945270905358,0.06566978812131802
-3.906,0.5369226036560266,0.1928294489833272
-3.9055,0.4408910299368829,0.2987958330350016
-3.905,0.408880505363835,0.4259554938970107
-3.9045,0.6969752265212663,0.7438546460520338
-3.904,0.6009436528021226,0.4259554938970107
-3.9035,0.2061471830678648,-0.4429688553267188
-3.903,-0.4767440078238243,-1.269506650929778
-3.9025,-1.341028171296118,-1.862918401619155
-3.902,-1.703814116457328,-2.000674700886331
-3.9015,-1.287677297007705,-1.237716735714276
-3.901,-0.6688071552621118,-0.3158091944647096
-3.9005,-0.1459685872356623,0.4153588554918433
-3.9,0.1848068333524996,0.8922075837243778
-3.8995,0.3555296310754218,1.125333628638062
-3.899,0.408880505363835,1.220703374284568
-3.8985,0.408880505363835,1.25249328950007
-3.898,0.3768699807907871,1.220703374284568
-3.8975,0.3555296310754218,1.178316820663898
-3.897,0.3448594562177392,1.125333628638062
-3.8965,0.1634664836371343,0.9134008605347127
-3.896,-0.4660738329661415,0.1080563417419877
-3.8955,-1.031593100423322,-0.8350444763179138
-3.895,-1.543761493592088,-1.502632695843462
-3.8945,-1.437059745015262,-1.34368311976595
-3.894,-0.7434983792658902,-0.7714646458869092
-3.8935,-0.06060718837420119,-0.2416327256285375
-3.893,0.3768699807907871,0.05507314971615059
-3.8925,0.5902734779444399,0.1610395337678249
-3.892,0.6436243522328531,0.1928294489833272
-3.8915,0.6116138276598051,0.1928294489833272
-3.891,0.6329541773751706,0.002089957690313421
-3.8905,0.6329541773751706,-0.1886495336027004
-3.89,0.5689331282290746,-0.07208651114585861
-3.8895,0.4835717293676135,0.13984625695749
-3.889,0.4195506802215176,0.3305857482505039
-3.8885,0.3875401556484697,0.4683420475176805
-3.888,0.5796033030867573,0.7650479228623686
-3.8875,0.3661998059331045,0.6378882620003594
-3.887,-0.3807124341046804,-0.1886495336027004
-3.8865,-0.9248913518464952,-0.9092209451540858
