Class_4_Move_right_hand_Horiszontal/Class_4_Move_right_hand_Horiszontal_UZ_3.csv

#Digilent WaveForms Oscilloscope Acquisition
#Device Name: EExplorer
#Serial Number: SN:210151A2B84A
#Date Time: 2020-11-30 10:37:52.761
#Sample rate: 2000Hz
#Samples: 16384
#Trigger: Source: Channel 1 Type: Edge Condition: Rising Level: 0 V Hyst.: Auto HoldOff: 0 s
#Channel 1: Range: 1 V/div Offset: 0 V Attenuation: 1 X
#Channel 2: Range: 1 V/div Offset: 0 V Attenuation: 1 X
#Power Supplies: ON
#Fixed Supply: ON
#Voltage: 3.3 V Readback: 3.324 V
#Positive Supply: ON
#Voltage: 3.7 V Readback: 3.713 V
#Current: 500 mA Readback: 20 mA
#Negative Supply: ON
#Voltage: -3.7 V Readback: -3.701 V
#Current: -500 mA Readback: -8 mA
#Reference 1: ON
#Voltage: 0 V
#Reference 2: ON
#Voltage: 0 V

Time (s),Channel 1 (V),Channel 2 (V)
-4.096,-0.9355615267041777,0.4365521323021782
-4.0955,-1.437059745014806,0.02328323450102415
-4.095,-2.151961460479717,-0.6654982618357457
-4.0945,-1.842526389607202,-1.227120097309109
-4.094,-0.5941159312594686,-1.555615887869001
-4.0935,0.6863050516644281,-1.566212526274293
-4.093,1.614610264281974,-1.375473034981453
-4.0925,2.137448832307947,-1.110557074852508
-4.092,2.254820755742466,-0.8774310299383618
-4.0915,1.742652362574165,-0.6337083466197325
-4.091,0.8676980242441885,-0.008506680714854012
-4.0905,0.1207857842059476,0.8498210301043249
-4.09,-0.3807124341046804,1.528005888034424
-4.0895,-0.6367966306890638,1.920081509025619
-4.089,-0.7221580295504474,2.068434446697828
-4.0885,-0.7114878546928423,2.036644531482461
-4.088,-0.6474668055467465,1.888291593810116
-4.0875,-0.4767440078239795,1.48561933441412
-4.087,0.1954770082109488,0.5107286011374057
-4.0865,1.038420821967111,-0.5277419625680583
-4.086,1.657290963712141,-1.301296566144577
-4.0855,1.785333062004469,-1.693372187136081
-4.085,1.315845368266859,-1.258910012524611
-4.0845,0.6009436528027727,-0.6549016234306168
-4.084,-0.03926683865921439,-0.1992461720076269
-4.0835,-0.4554036581084589,0.06566978812131802
-4.083,-0.658136980404429,0.1186529801471552
-4.0825,-0.7755089038391226,0.0126865960952881
-4.082,-0.9782422261349084,-0.1992461720078678
-4.0815,-1.191645723288561,-0.2416327256285375
-4.081,-1.148965023857869,-0.1250697031718018
-4.0805,-1.010252750707956,0.03387987290581572
-4.08,-0.8928808272734472,0.2776025562246667
-4.0795,-0.8502001278427556,0.4365521323020336
-4.079,-1.191645723289172,0.1610395337672274
-4.0785,-1.863866739322568,-0.4959520473525559
-4.078,-1.61845271759609,-1.078767159636235
-4.0775,-0.4554036581073623,-1.396666311791797
-4.077,0.7503261008096795,-1.407262950196955
-4.0765,1.635950613996533,-1.195330182093799
-4.076,2.137448832308442,-0.919817583559022
-4.0755,2.158789182023788,-0.6654982618352349
-4.075,1.614610264281974,-0.3793890248957141
-4.0745,0.7823366253820676,0.3093924714409496
-4.074,0.05676473506030786,1.167720182258731
-4.0735,-0.4020527838200457,1.79292184816361
-4.073,-0.6367966306888503,2.153207553938975
-4.0725,-0.7008176798351597,2.290963853206479
-4.072,-0.690147504977477,2.248577299585809
-4.0715,-0.6367966306891123,2.089627723508443
-4.071,-0.4980843575385975,1.739938656136915
-4.0705,0.1527963087794516,0.7968378380778709
-4.07,0.9957401225356136,-0.3052125560585399
-4.0695,1.667961138570726,-1.163540266878683
-4.069,2.041417258589279,-1.79933857118815
-4.0685,1.838683936293309,-1.809935209593318
-4.068,1.102441871112489,-1.131750351662178
-4.0675,0.3128489316446912,-0.6654982618352349
-4.067,-0.2953510352432193,-0.3581957480853793
-4.0665,-0.6474668055468921,-0.2098428104130063
-4.066,-0.807519428411986,-0.1780528951975329
-4.0655,-0.9142211769888124,-0.2098428104130352
-4.065,-1.138294848999944,-0.326405832869771
-4.0645,-1.116954499284783,-0.1886495336027004
-4.064,-1.010252750707956,0.03387987290581572
-4.0635,-0.892880827273554,0.2140227257934982
-4.063,-0.8395299529851213,0.3093924714401111
-4.0625,-0.9355615267041777,0.2458126410091644
-4.062,-1.501080794160843,-0.2946159176538832
-4.0615,-1.341028171295158,-0.9410108603700122
-4.061,-0.2846808603855366,-1.407262950196955
-4.0605,0.8356874996711408,-1.576809164679634
-4.06,1.635950613997678,-1.439052865412188
-4.0595,2.009406734016231,-1.142346990067769
-4.059,2.137448832308423,-0.8350444763179138
-4.0585,1.785333062005216,-0.5595318777838111
-4.058,0.9957401225363802,-0.06148987274069118
-4.0575,0.2274875327832301,0.8180311148882058
-4.057,-0.3060212101004167,1.623375633680198
-4.0565,-0.5941159312583333,2.142610915534135
-4.056,-0.7008176798351597,2.396930237258153
-4.0555,-0.7114878546928326,2.418123514068469
-4.055,-0.6688071552620342,2.290963853206286
-4.0545,-0.5834457564006506,2.07903108510313
-4.054,-0.1459685872360602,1.379652950362716
-4.0535,0.6863050516642728,0.2352160026030717
-4.053,1.443887466559051,-0.7820612842920766
-4.0525,1.956055859727818,-1.523825972653797
-4.052,2.094768132877178,-1.958288147265295
-4.0515,1.529248865420512,-1.555615887869299
-4.051,0.707645401378949,-0.8562377531282487
-4.0505,0.0140840356302081,-0.3581957480858323
-4.05,-0.4340633083930936,-0.05089323433552374
-4.0495,-0.6688071552621118,0.002089957690313421
-4.049,-0.7755089038388412,-0.1356663415767379
-4.0485,-0.9675720512772936,-0.421775578516355
-4.048,-1.042263275281004,-0.3899856633008816
-4.0475,-0.9675720512772936,-0.01910331912035879
-4.047,-0.8502001278426391,0.2564092794144185
-4.0465,-0.7648387289812555,0.3517790250608387
-4.046,-0.7755089038389286,0.3623756634659965
-4.0455,-1.255666772435307,-0.06148987274129834
-4.045,-1.970568487899394,-0.7290780922662394
-4.0445,-1.650463242168915,-1.269506650929778
-4.044,-0.4447334832496603,-1.534422611058916
-4.0435,0.7823366253827275,-1.481439419033127
-4.043,1.657290963712704,-1.216523458903942
-4.0425,2.148119007165659,-0.919817583559523
-4.042,2.233480406027567,-0.6443049850249
-4.0415,1.753322537431848,-0.3899856633008816
-4.041,0.8997085488180129,0.1610395337673238
-4.0405,0.1421261339213129,1.008770606181827
-4.04,-0.3593720843893152,1.676358825706768
-4.0395,-0.6154562809734656,2.10022436191308
-4.039,-0.7008176798351501,2.290963853206479
-4.0385,-0.690147504977477,2.290963853206479
-4.038,-0.6474668055467854,2.14261091553427
-4.0375,-0.466073832965501,1.686955464110972
-4.037,0.2381577076409128,0.627291623595192
-4.0365,1.081101521397841,-0.4641621321370536
-4.036,1.731982187716793,-1.290699927740643
-4.0355,2.073427783162327,-1.873515040024322
-4.035,1.742652362574165,-1.79933857118815
-4.0345,0.9423892482486949,-1.131750351663209
-4.034,0.1634664836371343,-0.5277419625680583
-4.0335,-0.3700422592469978,-0.252229364033705
-4.033,-0.6474668055464943,-0.1250697031718114
-4.0325,-0.7648387289813525,-0.09327978795635732
-4.032,-0.8715404775580819,-0.2734226408440398
-4.0315,-1.042263275280849,-0.4535654937317224
-4.031,-1.042263275280926,-0.3158091944644301
-4.0305,-0.9569018764195432,-0.008506680714854012
-4.03,-0.8822106524158324,0.2246193641986174
-4.0295,-0.8395299529852863,0.3305857482503015
-4.029,-1.116954499284783,0.1080563417419877
-4.0285,-1.863866739322568,-0.5171453241628908
-4.028,-1.970568487898453,-1.099960436447408
-4.0275,-0.9355615267041777,-1.439052865412457
-4.027,0.3235191065023739,-1.47084278062796
-4.0265,1.347855892838976,-1.280103289335119
-4.026,1.988066384300866,-0.9939940523954253
-4.0255,2.233480406027567,-0.7396747306714069
-4.025,1.924045335155051,-0.5065486857579354
-4.0245,1.123782220827844,0.00208995769107479
-4.024,0.3235191065023739,0.8392243916985406
-4.0235,-0.2526703358119647,1.591585718464744
-4.023,-0.583445756400767,2.057837808292969
-4.0225,-0.7114878546928423,2.248577299585809
-4.022,-0.7221580295505153,2.248577299585809
-4.0215,-0.6581369804043126,2.089627723508019
-4.021,-0.5300948821122373,1.782325209758442
-4.0205,0.03542438534494258,0.92399749893988
-4.02,0.8783681991025117,-0.1780528951983425
-4.0195,1.582599739708926,-1.068170521231597
-4.019,2.020076908873914,-1.725162102351978
-4.0185,1.93471551001253,-1.86291840161903
-4.018,1.262494493978446,-1.152943628472937
-4.0175,0.4942419042252961,-0.474758770542221
-4.017,-0.1032878878043882,-0.09327978795654041
-4.0165,-0.4660738329663259,0.07626642652651436
-4.016,-0.6688071552621118,0.1080563417419877
-4.0155,-0.8075194284118599,-0.04029659593022139
-4.015,-1.116954499284821,-0.3370024712749963
-4.0145,-1.159635198715513,-0.2840192792492073
-4.014,-1.052933450138784,-0.1250697031718403
-4.0135,-0.9142211769887445,0.1398462569576539
-4.013,-0.839529952985034,0.3199891098453364
-4.0125,-0.9035510021311299,0.2776025562246667
-4.012,-1.330357996438348,-0.2734226408446181
-4.0115,-1.234326422719292,-0.9092209451540858
-4.011,-0.274010685527854,-1.364876396576285
-4.0105,0.8143471499547853,-1.523825972653652
-4.01,1.625280439139656,-1.375473034981453
-4.0095,2.105438307735375,-1.089363798041932
-4.009,2.308171630031161,-0.8032545611026717
-4.0085,2.126778657450119,-0.5489352393780943
-4.008,1.443887466559051,-0.2204394488182027
-4.0075,0.5902734779452162,0.5107286011376851
-4.007,-0.08194753808993525,1.337266396741921
-4.0065,-0.4874141826815069,1.898888232215284
-4.006,-0.6688071552621118,2.20619074596514
-4.0055,-0.7114878546928132,2.312157130016756
-4.005,-0.6794773301197943,2.248577299585809
-4.0045,-0.5941159312583333,2.036644531482461
-4.004,-0.2633405106694532,1.411442865576561
-4.0035,0.5262524287983441,0.2881991946298341
-4.003,1.315845368266859,-0.718481453861072
-4.0025,1.860024286008179,-1.481439419032433
-4.002,1.977396209443183,-1.873515040024322
-4.0015,1.454557641416734,-1.417859588602123
-4.001,0.6863050516642826,-0.8032545611029704
-4.0005,0.04609456020221762,-0.4005823017057984
-4,-0.4020527838200457,-0.1250697031716958
-3.9995,-0.690147504977477,-0.05089323433552374
-3.999,-0.807519428411986,-0.1674562567923655
-3.9985,-1.031593100423322,-0.4323722169215513
-3.998,-1.148965023857831,-0.400582301706049
-3.9975,-1.084943974711735,-0.1780528951975329
-3.997,-0.9675720512772257,0.05507314971615059
-3.9965,-0.8608703027003992,0.2246193641988295
-3.996,-0.807519428411986,0.3411823866556712
-3.9955,-1.244996597576974,0.01268659609548085
-3.995,-1.991908837614759,-0.6337083466197325
-3.9945,-1.810515865034154,-1.152943628472937
-3.994,-0.658136980404429,-1.396666311791788
-3.9935,0.5902734779444399,-1.322489842955616
-3.993,1.529248865420512,-1.078767159636765
-3.9925,2.08409795802001,-0.7820612842920766
-3.992,2.254820755742932,-0.5171453241628908
-3.9915,1.870694460866357,-0.2840192792492073
-3.991,1.049090996824793,0.2034260873884947
-3.9905,0.2488278824985954,1.040560521396722
-3.99,-0.2953510352432193,1.79292184816361
-3.9895,-0.5834457564006506,2.259173937990977
-3.989,-0.690147504977477,2.428720152473656
-3.9885,-0.7008176798351597,2.365140322042651
-3.988,-0.658136980404429,2.16380419234447
-3.9875,-0.5194247072545548,1.75053529454294
-3.987,0.1634664836371343,0.7226613692416989
-3.9865,1.017080472251745,-0.3793890248957141
-3.986,1.657290963712704,-1.216523458903942
-3.9855,1.806673411720261,-1.693372187136476
-3.985,1.401206767128321,-1.417859588602123
-3.9845,0.7396559259519968,-0.7820612842920766
-3.984,0.142126133921769,-0.3052125560595421
-3.9835,-0.2846808603855366,-0.008506680714854012
-3.983,-0.5514352318276028,0.1080563417419877
-3.9825,-0.7328282044082075,0.04447651131098315
-3.982,-0.9675720512772257,-0.2310360872233701
-3.9815,-1.234326422719292,-0.400582301706049
-3.981,-1.202315898146244,-0.2628260024388724
-3.9805,-1.031593100423322,-0.09327978795619347
-3.98,-0.8822106524157645,0.2034260873884947
-3.9795,-0.8181896032696687,0.3517790250608387
-3.979,-1.052933450138687,0.1716361721729923
-3.9785,-1.799845690176472,-0.4429688553267188
-3.978,-2.055929886760855,-1.046977244421262
-3.9775,-1.074273799854052,-1.396666311791788
-3.977,0.2488278824985954,-1.42845622700729
-3.9765,1.315845368266859,-1.216523458903942
-3.976,1.977396209443183,-0.9304142219644207
-3.9755,2.265490930600615,-0.6443049850249
-3.975,2.052087433446962,-0.4111789401112165
-3.9745,1.294505018551494,-0.008506680714854012
-3.974,0.4622313796522482,0.7862411996727035
-3.9735,-0.1673089369510276,1.506812611224089
-3.973,-0.5407650569699201,1.983661339456623
-3.9725,-0.7008176798351597,2.227384022775475
-3.972,-0.7328282044082075,2.248577299585809
-3.9715,-0.690147504977477,2.132014277128968
-3.971,-0.5941159312583333,1.867098316999781
-3.9705,-0.124628237520297,1.029963882991555
-3.97,0.7183155762366316,-0.09327978795619347
-3.9695,1.465227816274416,-1.004590690800593
-3.969,1.838683936293309,-1.661582271920973
-3.9685,1.625280439139656,-1.725162102351978
-3.968,0.942389248247967,-1.152943628472937
-3.9675,0.2701682322139607,-0.6654982618352349
-3.967,-0.2526703358124887,-0.3581957480853793
-3.9665,-0.572775581542968,-0.2840192792492073
-3.966,-0.7328282044082075,-0.326405832869877
-3.9655,-0.807519428411986,-0.3793890248957141
-3.965,-0.9995825758502737,-0.4959520473525559
-3.9645,-1.020922925565639,-0.2310360872233701
-3.964,-1.06360362499637,-0.04029659593035631
-3.9635,-1.180975548430879,0.02328323450064829
-3.963,-1.116954499284783,0.1504428953626575
-3.9625,-1.116954499284783,0.1504428953626575
-3.962,-1.661133417026597,-0.326405832869877
-3.9615,-1.87453691418025,-0.9198175835592532
-3.961,-0.9355615267041777,-1.354279758171118
-3.9605,0.3341892813600565,-1.492036057438295
-3.96,1.35852606769759,-1.34368311976595
-3.9595,1.988066384300866,-1.05757388282643
-3.959,2.28683128031598,-0.7714646458869092
-3.9585,2.180129531739154,-0.5171453241628908
-3.958,1.507908515705147,-0.2098428104130352
-3.9575,0.6436243522328531,0.5107286011383502
-3.957,-0.04993701351651855,1.347863035146577
-3.9565,-0.4767440078238243,1.973064701051456
-3.956,-0.6688071552621118,2.312157130016814
-3.9555,-0.7114878546928423,2.407526875663321
-3.955,-0.7114878546928423,2.269770576396144
-3.9545,-0.6474668055467465,2.057837808292796
-3.954,-0.3166913849585846,1.464426057603419
-3.9535,0.4622313796522482,0.3623756634660061
-3.953,1.262494493978446,-0.6654982618352349
-3.9525,1.817343586577944,-1.439052865412457
-3.952,2.020076908873914,-1.926498232050159
-3.9515,1.593269914566608,-1.661582271920973
-3.951,0.8356874996711408,-0.8880276683437509
-3.9505,0.09944543449103843,-0.3052125560595421
-3.95,-0.4447334832507763,-0.04029659593035631
-3.9495,-0.7114878546928423,0.002089957690313421
-3.949,-0.7968492535543035,-0.05089323433552374
-3.9485,-0.8608703027003992,-0.3052125560595421
-3.948,-0.9142211769888124,-0.400582301706049
-3.9475,-0.8928808272734472,-0.2734226408440398
-3.947,-0.8715404775580819,-0.09327978795619347
-3.9465,-0.839529952985034,0.09745970333682032
-3.946,-0.8288597781273515,0.2564092794143318
-3.9455,-1.234326422719292,0.002089957690313421
-3.945,-2.013249187330125,-0.6125150698093976
-3.9445,-2.023919362187807,-1.163540266878104
-3.944,-0.9142211769888124,-1.481439419033127
-3.9435,0.408880505363835,-1.481439419033127
-3.943,1.422547116843686,-1.258910012524611
-3.9425,2.030747083731597,-0.9728007755850904
-3.942,2.180129531739154,-0.7078848154559045
-3.9415,1.699971663143435,-0.4323722169215513
-3.941,0.857027849386506,0.2034260873884947
-3.9405,0.1101156093487211,1.072350436612224
-3.94,-0.3807124341046804,1.771728571353275
-3.9395,-0.6367966306890638,2.174400830749637
-3.939,-0.7114878546928423,2.333350406827149
-3.9385,-0.7008176798351597,2.301560491611646
-3.938,-0.658136980404429,2.153207553939303
-3.9375,-0.5407650569699201,1.814115124973944
-3.937,0.05676473506030786,0.8710143069140429
-3.9365,0.9103787236749192,-0.252229364033705
-3.936,1.593269914566608,-1.121153713257435
-3.9355,1.92404533515477,-1.75695201756748
-3.935,1.657290963712704,-1.735758740757146
-3.9345,0.942389248247967,-1.110557074852267
-3.934,0.2488278824985954,-0.6125150698093976
-3.9335,-0.2953510352432193,-0.2628260024388724
-3.933,-0.6474668055467465,-0.07208651114585861
-3.9325,-0.8288597781273515,-0.06148987274069118
-3.932,-1.020922925565639,-0.2204394488182027
-3.9315,-1.405049220442214,-0.5595318777835605
-3.931,-1.415719395299897,-0.474758770542221
-3.9305,-1.202315898146244,-0.1780528951975329
-3.93,-1.042263275281004,0.1292496185523226
-3.9295,-0.9782422261349084,0.3729723018711736
-3.929,-1.159635198715513,0.2670059178194992
-3.9285,-1.821186039891837,-0.3475991096802118
-3.928,-1.735824641030376,-0.9833974139902578
-3.9275,-0.6367966306890638,-1.407262950196955
-3.927,0.5582629533713921,-1.534422611058964
-3.9265,1.454557641416734,-1.38606967338662
-3.926,2.009406734016231,-1.131750351662602
-3.9255,2.254820755742932,-0.8668343915334161
-3.925,2.041417258589279,-0.6443049850249
-3.9245,1.294505018551494,-0.326405832869877
-3.924,0.4515612047945656,0.4153588554918433
-3.9235,-0.1779791118087102,1.210106735879401
-3.923,-0.5300948821122373,1.79292184816361
-3.9225,-0.690147504977477,2.068434446697963
-3.922,-0.722158029550525,2.1214176387238
-3.9215,-0.690147504977477,2.057837808292796
-3.921,-0.6047861061160158,1.845905040189447
-3.9205,-0.1886492866663929,1.125333628638062
-3.92,0.6436243522328531,0.03387987290581572
-3.9195,1.411876941986003,-0.8986243067489184
-3.919,1.934715510012453,-1.598002441489969
-3.9185,2.062757608304644,-1.958288147265661
-3.918,1.51857869056283,-1.534422611058964
-3.9175,0.7183155762366316,-0.792657922697244
-3.917,0.03542438534494258,-0.252229364033705
-3.9165,-0.4127229586777283,0.02328323450064829
-3.916,-0.658136980404429,0.04447651131098315
-3.9155,-0.7861790786966207,-0.1038764263613609
-3.915,-1.1062843244271,-0.4111789401112165
-3.9145,-1.223656247861609,-0.3475991096802118
-3.914,-1.148965023857831,-0.1144730647665284
-3.9135,-0.9995825758502737,0.05507314971615059
-3.913,-0.9355615267041777,0.2034260873884947
-3.9125,-0.9462317015618604,0.2670059178194992
-3.912,-1.426389570157579,-0.1674562567923655
-3.9115,-2.109280761049269,-0.8032545611024114
-3.911,-1.83185621474952,-1.311893204550448
-3.9105,-0.6367966306890638,-1.555615887869299
-3.91,0.0674349099179905,-1.502632695843462
-3.9095,0.2381577076409128,-1.258910012524611
-3.909,0.79300680024041,-0.9833974139902578
-3.9085,1.35852606769759,-0.7396747306714069
-3.908,1.390536592270638,-0.5489352393783931
-3.9075,0.8676980242441885,-0.1250697031716958
-3.907,0.2381577076409128,0.6696781772158616
-3.9065,-0.2526703358124887,1.411442865577582
-3.906,-0.5300948821122373,1.909484870620451
-3.9055,-0.658136980404429,2.1214176387238
-3.905,-0.6794773301197943,2.132014277128968
-3.9045,-0.6367966306890638,2.004854616266958
-3.904,-0.4020527838200457,1.464426057603419
-3.9035,0.3341892813600565,0.383568940276341
-3.903,1.166462920259302,-0.6443049850249
-3.9025,1.76399271228953,-1.407262950196955
-3.902,1.796003236862578,-1.672178910326141
-3.9015,1.219813794547716,-1.152943628472937
-3.901,0.5049120790829789,-0.570128516188728
-3.9005,-0.1032878878049318,-0.1356663415768632
-3.9,-0.5087545323968721,-0.008506680714854012
-3.8995,-0.7328282044082075,-0.008506680714854012
-3.899,-0.7968492535543035,0.002089957690313421
-3.8985,-0.9889124009925911,-0.1886495336027004
-3.898,-1.180975548430879,-0.3793890248957141
-3.8975,-1.1062843244271,-0.1144730647665284
-3.897,-0.9462317015618604,0.1716361721729923
-3.8965,-0.8181896032696687,0.4683420475176805
-3.896,-0.754168554123573,0.6166949851900245
-3.8955,-1.1062843244271,0.3199891098453364
-3.895,-1.863866739322568,-0.3899856633008816
-3.8945,-1.799845690176472,-1.025783967610927
-3.894,-0.7755089038389382,-1.333086481360783
-3.8935,-0.2099896363817582,-1.34368311976595
-3.893,-0.8715404775580819,-1.152943628472937
-3.8925,-1.927887788468663,-0.8986243067489184
-3.892,-2.664129853648766,-0.6549016234300674
-3.8915,-2.312014083345239,-0.400582301706049
-3.891,-1.67180359188428,0.1610395337678249
-3.8905,-1.138294849000148,0.9981739677760521
-3.89,-0.7861790786966207,1.697552102517103
-3.8895,-0.6047861061160158,2.142610915534135
-3.889,-0.5300948821122373,2.312157130016814
-3.8885,-0.5300948821122373,2.248577299585809
-3.888,-0.5194247072545548,2.07903108510313
-3.8875,-0.4554036581084589,1.761131932948107
-3.887,0.02475421048725994,0.8710143069140429
-3.8865,0.8463576745288233,-0.2204394488182027
-3.886,1.56125938999356,-1.089363798041932
