Class_4_Move_right_hand_Horiszontal/Class_4_Move_Right_hand_Horizontal_Turki_15.csv

#Digilent WaveForms Oscilloscope Acquisition
#Device Name: EExplorer
#Serial Number: SN:210151A2B84A
#Date Time: 2021-02-07 10:56:04.703
#Sample rate: 2000Hz
#Samples: 16384
#Trigger: Source: Channel 1 Type: Edge Condition: Rising Level: 0 V Hyst.: Auto HoldOff: 0 s
#Channel 1: Range: 1 V/div Offset: 0 V Attenuation: 1 X
#Channel 2: Range: 1 V/div Offset: 0 V Attenuation: 1 X
#Power Supplies: ON
#Fixed Supply: ON
#Voltage: 3.3 V Readback: 3.317 V
#Positive Supply: ON
#Voltage: 3.7 V Readback: 3.717 V
#Current: 40 mA Readback: 18 mA
#Negative Supply: ON
#Voltage: -3.7 V Readback: -3.377 V
#Current: -40 mA Readback: 0 A
#Reference 1: ON
#Voltage: 0 V
#Reference 2: ON
#Voltage: 0 V

Time (s),Channel 1 (V),Channel 2 (V)
-4.096,0.142126133921769,0.8074344764830383
-4.0955,0.1314559590640961,0.7332580076469338
-4.095,0.1314559590640766,0.6696781772157846
-4.0945,0.1207857842064037,0.5849050699745222
-4.094,0.0887752596333849,0.4153588554919975
-4.0935,-0.2099896363820202,-0.2204394488189158
-4.093,-0.4980843575391895,-1.004590690800593
-4.0925,-0.6581369804042835,-1.587405803084271
-4.092,-0.423393133535081,-1.396666311791364
-4.0915,-0.06060718837420119,-0.9304142219644207
-4.091,0.1741366584948169,-0.5171453241628908
-4.0905,0.2594980573562878,-0.2628260024388049
-4.09,0.2701682322139607,-0.1886495336027004
-4.0895,0.2381577076409128,-0.2310360872233701
-4.089,0.206147183067894,-0.2416327256285279
-4.0885,0.2488278824985954,-0.2628260024388724
-4.088,0.3982103305061524,-0.2628260024388724
-4.0875,0.4088805053638253,-0.1992461720079257
-4.087,0.3448594562176809,-0.1250697031716187
-4.0865,0.2808384070716433,-0.04029659593035631
-4.086,0.2488278824986245,0.02328323450059046
-4.0855,0.1207857842059767,-0.2840192792497759
-4.085,-0.3487019095316325,-0.9092209451540858
-4.0845,-0.6688071552618207,-1.470842780627449
-4.084,-0.7008176798349657,-1.650985633515324
-4.0835,-0.4874141826815069,-1.121153713257435
-4.083,-0.2313299860971235,-0.4641621321370536
-4.0825,-0.03926683865871946,0.07626642652681313
-4.082,0.08877525963335578,0.4365521323021782
-4.0815,0.142126133921769,0.6378882620003594
-4.081,0.1634664836371149,0.7332580076467796
-4.0805,0.1527963087794516,0.7650479228623686
-4.08,0.1527963087794516,0.7650479228623686
-4.0795,0.1421261339217787,0.7438546460520531
-4.079,0.1314559590640766,0.7120647308365026
-4.0785,0.1207857842064037,0.6802748156210291
-4.078,0.1207857842064037,0.6378882620003979
-4.0775,0.06743490991768966,0.5425185163533514
-4.077,-0.2633405106701714,-0.008506680714854012
-4.0765,-0.5621054066850135,-0.8032545611016886
-4.076,-0.7755089038388218,-1.481439419033127
-4.0755,-0.6474668055467465,-1.481439419033127
-4.075,-0.2526703358124887,-0.9516074987747555
-4.0745,0.05676473506045342,-0.4641621321367741
-4.074,0.2168173579255475,-0.1568596183871981
-4.0735,0.2701682322139607,-0.04029659593035631
-4.073,0.2488278824986148,-0.04029659593035631
-4.0725,0.2168173579255475,-0.07208651114585861
-4.072,0.2168173579255475,-0.1356663415768632
-4.0715,0.3661998059329686,-0.1568596183871788
-4.071,0.3982103305061039,-0.1038764263613127
-4.0705,0.3448594562177392,-0.05089323433552374
-4.07,0.2701682322140286,0.00208995769026523
-4.0695,0.2168173579254796,0.03387987290590246
-4.069,0.142126133921769,0.1292496185523226
-4.0685,-0.2526703358124887,0.002089957690313421
-4.068,-0.807519428412413,-0.6337083466202915
-4.0675,-1.277007122150022,-1.248313374119443
-4.067,-1.394379045584531,-1.439052865412457
-4.0665,-1.010252750707529,-0.9622041371793543
-4.066,-0.5407650569699201,-0.3370024712750445
-4.0655,-0.1779791118087102,0.1822328105781598
-4.065,0.04609456020242142,0.5107286011380514
-4.0645,0.1527963087794516,0.6802748156210291
-4.064,0.1848068333524996,0.7544512844572011
-4.0635,0.1848068333524996,0.7650479228623589
-4.063,0.1634664836371246,0.7332580076468278
-4.0625,0.1527963087794516,0.6908714540261965
-4.062,0.1421261339217787,0.6484849004055654
-4.0615,0.1314559590640864,0.5955017083796318
-4.061,0.1314559590640864,0.5319218779486851
-4.0605,-0.04993701351651855,0.2458126410091644
-4.06,-0.4660738329662871,-0.4747587705428667
-4.0595,-0.6261264558313813,-1.184733543688439
-4.059,-0.5194247072545548,-1.38606967338662
-4.0585,-0.2420001609550584,-1.036380606016413
-4.058,-0.007256314085787988,-0.6654982618352349
-4.0575,0.1314559590640864,-0.3793890248957141
-4.057,0.195477008210124,-0.2204394488183472
-4.0565,0.2168173579255475,-0.1780528951975329
-4.056,0.2061471830678648,-0.1674562567923655
-4.0555,0.1954770082101919,-0.1356663415768921
-4.055,0.3341892813601051,-0.1144730647664609
-4.0545,0.3875401556484697,-0.04029659593035631
-4.054,0.3555296310754509,0.03387987290574826
-4.0535,0.3021787567869504,0.08686306493169144
-4.053,0.2381577076409128,0.1292496185523226
-4.0525,0.142126133921769,0.08686306493165288
-4.052,-0.295351035243656,-0.3899856633014695
-4.0515,-0.7755089038389382,-1.036380606016095
-4.051,-1.095614149569417,-1.598002441489969
-4.0505,-1.159635198715455,-1.714565463946705
-4.05,-0.8502001278427167,-1.078767159636765
-4.0495,-0.4554036581084589,-0.3581957480853793
-4.049,-0.1352984123782708,0.2034260873879839
-4.0485,0.06743490991806814,0.5531151547591838
-4.048,0.1527963087794516,0.7332580076468663
-4.0475,0.1848068333524704,0.7862411996726553
-4.047,0.1848068333524802,0.7756445612674975
-4.0465,0.1634664836371343,0.7332580076468663
-4.046,0.1527963087794613,0.6802748156210773
-4.0455,0.1421261339217593,0.6166949851899667
-4.045,0.1314559590640864,0.55311515475902
-4.0445,0.1314559590640864,0.4789386859228479
-4.044,0.04609456020219822,0.2987958330344233
-4.0435,-0.423393133535411,-0.3370024712750445
-4.043,-0.754168554123573,-1.089363798041932
-4.0425,-0.8502001278426293,-1.608599079894664
-4.042,-0.4980843575391895,-1.354279758171118
-4.0415,-0.08194753808956648,-0.8350444763179138
-4.041,0.1848068333522569,-0.3899856633012864
-4.0405,0.2915085819293357,-0.1250697031715994
-4.04,0.3021787567870086,-0.01910331912002144
-4.0395,0.2701682322139898,-0.00850668071486365
-4.039,0.2274875327833369,-0.06148987274070081
-4.0385,0.3448594562177392,-0.07208651114585861
-4.038,0.5689331282288708,-0.1250697031716476
-4.0375,0.5689331282289678,-0.1144730647664802
-4.037,0.4515612047945656,-0.06148987274069118
-4.0365,0.3448594562177392,0.002089957690313421
-4.036,0.2915085819290252,0.1080563417417854
-4.0355,-0.03926683865883591,-0.1144730647665284
-4.035,-0.7861790786966207,-0.7608680074817418
-4.0345,-1.298347471864922,-1.34368311976542
-4.034,-1.415719395299897,-1.608599079895136
-4.0335,-1.074273799854052,-1.152943628472937
-4.033,-0.6047861061164428,-0.4959520473531535
-4.0325,-0.2099896363815349,0.06566978812165533
-4.032,0.03542438534494258,0.4365521323021782
-4.0315,0.1527963087793449,0.6378882620001763
-4.031,0.1954770082101822,0.7120647308365411
-4.0305,0.1954770082101822,0.7226613692416989
-4.03,0.1741366584948363,0.7014680924313833
-4.0295,0.1634664836371149,0.659081538810646
-4.029,0.142126133921769,0.6060983467848571
-4.0285,0.1314559590640864,0.5637117931641874
-4.028,0.1314559590640766,0.5107286011382635
-4.0275,0.1207857842064037,0.4153588554918433
-4.027,-0.007256314085787988,-0.09327978795619347
-4.0265,-0.1993194615239008,-0.845641114722397
-4.026,-0.4980843575391895,-1.492036057438295
-4.0255,-0.5514352318276028,-1.51322933424863
-4.025,-0.2633405106704334,-1.004590690801055
-4.0245,0.003413860772030513,-0.4959520473522475
-4.024,0.1527963087794516,-0.1568596183871981
-4.0235,0.2274875327831622,0.02328323450048445
-4.023,0.2274875327832204,-0.008506680714921475
-4.0225,0.2168173579255475,-0.08268314955102604
-4.022,0.2701682322139122,-0.07208651114586825
-4.0215,0.451561204794585,0.09745970333685887
-4.021,0.4729015545099309,0.13984625695749
-4.0205,0.3982103305061524,0.1080563417419877
-4.02,0.3128489316446233,0.07626642652650473
-4.0195,0.2381577076409128,0.09745970333682032
-4.019,0.09944543449103843,0.03387987290581572
-4.0185,-0.5621054066846838,-0.5277419625675475
-4.018,-1.1062843244271,-1.163540266878104
-4.0175,-1.330357996438436,-1.640388995110639
-4.017,-1.148965023857996,-1.386069673386852
-4.0165,-0.7008176798347909,-0.7078848154553263
-4.016,-0.2953510352432193,-0.07208651114585861
-4.0155,-0.01792648894372295,0.3729723018707688
-4.015,0.1314559590641349,0.6378882620004751
-4.0145,0.1848068333524996,0.7650479228623686
-4.014,0.1954770082101725,0.796837838077842
-4.0135,0.1848068333524802,0.7756445612674975
-4.013,0.1634664836371343,0.7332580076468663
-4.0125,0.1527963087794516,0.6908714540261965
-4.012,0.142126133921769,0.6378882620003016
-4.0115,0.142126133921769,0.5743084315693548
-4.011,0.1314559590640864,0.5001319627331828
-4.0105,-0.0285966638010077,0.2140227257939223
-4.01,-0.3807124341046804,-0.4641621321370536
-4.0095,-0.5300948821122373,-1.089363798041932
-4.009,-0.5727755815429292,-1.343683119765719
-4.0085,-0.3060212101006593,-1.025783967610542
-4.008,-0.03926683865883591,-0.6019184314042303
-4.0075,0.1314559590639311,-0.2734226408443386
-4.007,0.2168173579255572,-0.1144730647665187
-4.0065,0.2274875327832301,-0.1038764263613609
-4.006,0.2168173579255475,-0.1356663415768632
-4.0055,0.2168173579256834,-0.1674562567923077
-4.005,0.3661998059331045,-0.1038764263613609
-4.0045,0.4195506802215176,-0.04029659593035631
-4.004,0.3661998059330365,0.02328323450069647
-4.0035,0.291508581929326,0.07626642652648545
-4.003,0.2381577076409128,0.03387987290581572
-4.0025,0.1741366584948751,-0.07208651114576223
-4.002,-0.2420001609548061,-0.5383386009732256
-4.0015,-0.658136980404429,-1.068170521231597
-4.001,-0.7968492535541774,-1.449649503817278
-4.0005,-0.6261264558311289,-1.216523458903412
-4,-0.3487019095316325,-0.6337083466197325
-3.9995,-0.1032878878049318,-0.08268314955102604
-3.999,0.05676473506030786,0.3305857482505039
-3.9985,0.142126133921769,0.5743084315693548
-3.998,0.1741366584948169,0.701468092431364
-3.9975,0.1741366584948169,0.7544512844572011
-3.997,0.1634664836371343,0.775644561267536
-3.9965,0.1527963087794516,0.7650479228623686
-3.996,0.142126133921769,0.7438546460520338
-3.9955,0.142126133921769,0.7120647308365314
-3.995,0.142126133921769,0.6802748156210291
-3.9945,0.142126133921769,0.627291623595192
-3.994,0.03542438534494258,0.3941655786815084
-3.9935,-0.3807124341046804,-0.326405832869877
-3.993,-0.6047861061160158,-1.078767159636765
-3.9925,-0.6367966306890638,-1.576809164679634
-3.992,-0.3166913849585846,-1.280103289334946
-3.9915,0.02475421048725994,-0.7714646458869092
-3.991,0.2274875327832301,-0.3475991096802118
-3.9905,0.291508581929326,-0.09327978795619347
-3.99,0.291508581929326,0.01268659609548085
-3.9895,0.2594980573562781,0.03387987290581572
-3.989,0.2168173579255475,-0.02969995752518888
-3.9885,0.3128489316446912,-0.1568596183871981
-3.988,0.408880505363835,-0.1992461720078678
-3.9875,0.3875401556484697,-0.1250697031716958
-3.987,0.3235191065023739,-0.02969995752518888
-3.9865,0.2594980573562781,0.04447651131098315
-3.986,0.2168173579255475,0.08686306493165288
-3.9855,0.1527963087794516,0.2352160026039969
-3.985,-0.1673089369510276,-0.07208651114585861
-3.9845,-0.391382608962363,-0.7502713690765743
-3.984,-0.5514352318276028,-1.174136905283272
-3.9835,-0.4340633083930936,-0.9304142219644207
-3.983,-0.2313299860971235,-0.4429688553267188
-3.9825,-0.04993701351651855,0.002089957690313421
-3.982,0.07810508477567314,0.3305857482505039
-3.9815,0.142126133921769,0.5319218779486851
-3.981,0.1634664836371343,0.6484849004055269
-3.9805,0.1634664836371343,0.701468092431364
-3.98,0.1634664836371343,0.7332580076468663
-3.9795,0.1527963087794516,0.7332580076468663
-3.979,0.142126133921769,0.7226613692416989
-3.9785,0.142126133921769,0.7120647308365314
-3.978,0.142126133921769,0.6908714540261965
-3.9775,0.07810508477567314,0.5743084315693548
-3.977,-0.3487019095316325,-0.01910331912002144
-3.9765,-0.7328282044082075,-0.8032545611024114
-3.976,-0.9675720512772257,-1.417859588602123
-3.9755,-0.7861790786966207,-1.333086481360783
-3.975,-0.3166913849585846,-0.8138511995075789
-3.9745,0.05676473506030786,-0.3581957480853793
-3.974,0.2488278824985954,-0.06148987274069118
-3.9735,0.3128489316446912,0.04447651131098315
-3.973,0.291508581929326,0.06566978812131802
-3.9725,0.2594980573562781,0.02328323450064829
-3.972,0.2701682322139607,-0.008506680714854012
-3.9715,0.408880505363835,-0.02969995752518888
-3.971,0.4622313796522482,-0.04029659593035631
-3.9705,0.408880505363835,-0.04029659593035631
-3.97,0.3448594562177392,-0.04029659593035631
-3.9695,0.2701682322139607,-0.04029659593035631
-3.969,0.3128489316446912,-0.1144730647665284
-3.9685,0.07810508477567314,-0.6125150698093976
-3.968,-0.572775581542968,-1.195330182093607
-3.9675,-0.8502001278427167,-1.534422611058964
-3.967,-0.7114878546928423,-1.142346990067769
-3.9665,-0.4127229586777283,-0.4959520473525559
-3.966,-0.1352984123779797,0.06566978812131802
-3.9655,0.04609456020262521,0.4471487707073456
-3.965,0.142126133921769,0.6590815388106942
-3.9645,0.1741366584948169,0.7544512844572011
-3.964,0.1741366584948169,0.775644561267536
-3.9635,0.1634664836371343,0.7544512844572011
-3.963,0.1527963087794516,0.7120647308365314
-3.9625,0.142126133921769,0.6696781772158616
-3.962,0.142126133921769,0.6166949851900245
-3.9615,0.142126133921769,0.5637117931641874
-3.961,0.1207857842064037,0.5213252395435176
-3.9605,-0.2099896363817582,0.3729723018711736
-3.96,-0.6474668055467465,-0.326405832869877
-3.9595,-0.8822106524157645,-1.078767159636765
-3.959,-0.7861790786966207,-1.322489842955616
-3.9585,-0.3487019095316325,-0.9516074987747555
-3.958,0.01408403562957729,-0.5171453241628908
-3.9575,0.2168173579255475,-0.1992461720078678
-3.957,0.291508581929326,-0.01910331912002144
-3.9565,0.291508581929326,0.04447651131098315
-3.956,0.2594980573562781,0.01268659609548085
-3.9555,0.2381577076409128,-0.04029659593035631
-3.955,0.3982103305061524,-0.1674562567923655
-3.9545,0.4835717293676135,-0.09327978795619347
-3.954,0.4302208550792003,0.01268659609548085
-3.9535,0.3448594562177392,0.1080563417419877
-3.953,0.2808384070716433,0.1504428953626575
-3.9525,0.1527963087794516,0.06566978812131802
-3.952,-0.4127229586777283,-0.4641621321370536
-3.9515,-0.9569018764195432,-1.121153713257435
-3.951,-1.095614149569417,-1.608599079895136
-3.9505,-1.052933450138687,-1.608599079895136
-3.95,-0.7114878546928423,-0.9728007755850904
-3.9495,-0.3380317346739499,-0.3158091944647096
-3.949,-0.06060718837420119,0.1822328105781598
-3.9485,0.09944543449103843,0.4895353243280153
-3.948,0.1741366584948169,0.6378882620003594
-3.9475,0.1954770082101822,0.6908714540261965
-3.947,0.1848068333524996,0.6908714540261965
-3.9465,0.1741366584948169,0.6590815388106942
-3.946,0.1527963087794516,0.627291623595192
-3.9455,0.142126133921769,0.5849050699745222
-3.945,0.142126133921769,0.5425185163538525
-3.9445,0.1314559590640864,0.5001319627331828
-3.944,0.08877525963335578,0.309392471440169
-3.9435,-0.04993701351651855,-0.326405832869877
-3.943,-0.2526703358124887,-1.046977244421262
-3.9425,-0.4767440078238243,-1.502632695843462
-3.942,-0.3380317346739499,-1.248313374119443
-3.9415,-0.07127736323188383,-0.7608680074817418
-3.941,0.1207857842064037,-0.3370024712750445
-3.9405,0.2168173579255475,-0.09327978795619347
-3.94,0.2488278824985954,0.02328323450064829
-3.9395,0.2381577076409128,0.09745970333682032
-3.939,0.2168173579255475,0.09745970333682032
-3.9385,0.291508581929326,0.13984625695749
-3.938,0.3768699807907871,0.1716361721729923
-3.9375,0.3661998059331045,0.1822328105781598
-3.937,0.3128489316446912,0.1716361721729923
-3.9365,0.2488278824985954,0.1716361721729923
-3.936,0.2168173579255475,0.1716361721729923
-3.9355,-0.01792648894347063,0.1822328105781598
-3.935,-0.6688071552621118,-0.2734226408440398
-3.9345,-1.010252750707956,-0.9410108603695881
-3.934,-0.9462317015618604,-1.237716735714276
-3.9335,-0.6154562809736985,-0.8774310299385835
-3.933,-0.274010685527854,-0.3370024712750445
-3.9325,-0.02859666380115328,0.1292496185523226
-3.932,0.1101156093487211,0.4471487707073456
-3.9315,0.1741366584948169,0.627291623595192
-3.931,0.1848068333524996,0.701468092431364
-3.9305,0.1848068333524996,0.7332580076468663
-3.93,0.1634664836371343,0.7226613692416989
-3.9295,0.1527963087794516,0.701468092431364
-3.929,0.142126133921769,0.6696781772158616
-3.9285,0.142126133921769,0.627291623595192
-3.928,0.142126133921769,0.5849050699745222
-3.9275,0.1314559590640864,0.5001319627331828
-3.927,0.01408403562957729,-0.008506680714854012
-3.9265,-0.2313299860971235,-0.7714646458869092
-3.926,-0.5514352318276028,-1.396666311791788
-3.9255,-0.5087545323968721,-1.322489842955616
-3.925,-0.2099896363817582,-0.8562377531282487
-3.9245,0.05676473506030786,-0.4429688553267188
-3.924,0.1954770082101822,-0.1886495336027004
-3.9235,0.2488278824985954,-0.08268314955102604
-3.923,0.2488278824985954,-0.08268314955102604
-3.9225,0.2274875327832301,-0.09327978795619347
-3.922,0.2808384070716433,-0.1250697031716958
-3.9215,0.4835717293676135,-0.1462629799820306
-3.921,0.5049120790829789,-0.05089323433552374
-3.9205,0.4302208550792003,0.04447651131098315
-3.92,0.3448594562177392,0.1080563417419877
-3.9195,0.2808384070716433,0.1504428953626575
-3.919,0.2381577076409128,0.2564092794143318
-3.9185,0.02475421048725994,0.309392471440169
-3.918,-0.3380317346739499,-0.252229364033705
-3.9175,-0.6047861061160158,-0.8456411147230812
-3.917,-0.5300948821122373,-0.792657922697244
-3.9165,-0.3166913849585846,-0.400582301706049
-3.916,-0.1032878878049318,0.02328323450064829
-3.9155,0.04609456020262521,0.3517790250608387
-3.915,0.1314559590640864,0.5637117931641874
-3.9145,0.1634664836371343,0.6802748156210291
-3.914,0.1741366584948169,0.7332580076468663
-3.9135,0.1634664836371343,0.7544512844572011
-3.913,0.1527963087794516,0.7438546460520338
-3.9125,0.142126133921769,0.7226613692416989
-3.912,0.142126133921769,0.701468092431364
-3.9115,0.1314559590640864,0.6802748156210291
-3.911,0.1314559590640864,0.6166949851900245
-3.9105,-0.1352984123779797,0.2564092794143318
-3.91,-0.5941159312583333,-0.5065486857577234
-3.9095,-0.7755089038389382,-1.216523458903942
-3.909,-0.7648387289812555,-1.449649503817625
-3.9085,-0.4127229586777283,-1.046977244421262
-3.908,-0.06060718837420119,-0.5913217929990628
-3.9075,0.1527963087794516,-0.2840192792492073
-3.907,0.2488278824985954,-0.1568596183871981
-3.9065,0.2594980573562781,-0.1356663415768632
-3.906,0.2381577076409128,-0.1674562567923655
-3.9055,0.2274875327832301,-0.2098428104130352
-3.905,0.3021787567870086,-0.1462629799820306
-3.9045,0.3235191065023739,-0.04029659593035631
-3.904,0.3555296310754218,0.05507314971615059
-3.9035,0.4515612047945656,0.1186529801471552
-3.903,0.4408910299368829,0.1504428953626575
-3.9025,0.3448594562177392,0.07626642652648545
-3.902,-0.1886492866663929,-0.4429688553267188
-3.9015,-0.9782422261349084,-1.068170521231597
-3.901,-1.298347471865388,-1.460246142222792
-3.9005,-1.031593100423322,-1.110557074852267
-3.9,-0.5941159312583333,-0.474758770542221
-3.8995,-0.2206598112394408,0.09745970333682032
-3.899,0.02475421048725994,0.4895353243280153
-3.8985,0.1527963087794516,0.701468092431364
-3.898,0.1954770082101822,0.7862411996727035
-3.8975,0.1954770082101822,0.7968378380778709
-3.897,0.1848068333524996,0.775644561267536
-3.8965,0.1634664836371343,0.7226613692416989
-3.896,0.1527963087794516,0.6590815388106942
-3.8955,0.142126133921769,0.5955017083796896
-3.895,0.1314559590640864,0.5319218779486851
-3.8945,0.1314559590640864,0.457745409112513
-3.894,0.03542438534494258,0.2670059178194992
-3.8935,-0.3380317346739499,-0.326405832869877
-3.893,-0.5407650569699201,-0.9833974139902578
-3.8925,-0.6688071552621118,-1.407262950196955
-3.892,-0.3807124341046804,-1.131750351662602
-3.8915,-0.04993701351651855,-0.6760949002404023
-3.891,0.1527963087794516,-0.2946159176543747
-3.8905,0.2381577076409128,-0.07208651114585861
-3.89,0.2594980573562781,0.02328323450064829
-3.8895,0.2381577076409128,0.002089957690313421
-3.889,0.2168173579255475,-0.07208651114585861
-3.8885,0.3341892813600565,-0.06148987274069118
