Class_4_Move_right_hand_Horiszontal/Class_4_Move_Right_hand_Horizontal_Turki_1.csv

#Digilent WaveForms Oscilloscope Acquisition
#Device Name: EExplorer
#Serial Number: SN:210151A2B84A
#Date Time: 2020-10-20 13:16:57.117
#Sample rate: 2000Hz
#Samples: 16384
#Trigger: Source: Channel 1 Type: Edge Condition: Rising Level: 0 V Hyst.: Auto HoldOff: 0 s
#Channel 1: Range: 1 V/div Offset: 0 V
#Channel 2: Range: 1 V/div Offset: 0 V

Time (s),Channel 1 (V),Channel 2 (V)
-4.0960000000000001,-0.39138260896236304,-0.18864953360270037
-4.0955000000000004,-0.51942470725443834,-0.14626297998206919
-4.0949999999999998,-0.55143523182760279,-0.06148987274060444
-4.0945,-0.55143523182760279,0.033879872905815719
-4.0940000000000003,-0.58344575640062146,0.20342608738834045
-4.0934999999999997,-0.58344575640062146,0.29879583303499191
-4.093,-0.55143523182760279,0.28819919462983412
-4.0925000000000002,-0.5194247072545839,0.24581264100920294
-4.0919999999999996,-0.48741418268140985,0.21402272579390302
-4.0914999999999999,-0.38071243410468042,0.47893868592284788
-4.0910000000000002,0.035424385344942577,0.96638405256054982
-4.0904999999999996,0.67563487680646395,1.3796529503622725
-4.0899999999999999,1.2945050185514941,1.5915857184654283
-4.0895000000000001,1.7960032368625782,1.6445689104912655
-4.0890000000000004,1.6786313134281761,1.2948798431210582
-4.0884999999999998,1.0170804722517455,0.47893868592284788
-4.0880000000000001,0.33418928136005654,-0.25222936403370499
-4.0875000000000004,-0.15663876209289851,-0.71848145386064788
-4.0869999999999997,-0.4340633083932004,-0.8986243067489087
-4.0865,-0.55143523182760279,-0.88802766834375091
-4.0860000000000003,-0.57277558154294861,-0.75027136907669956
-4.0854999999999997,-0.56210540668524644,-0.57012851618855442
-4.085,-0.51942470725455481,-0.37938902489571413
-4.0845000000000002,-0.48741418268153602,-0.20984281041318945
-4.0839999999999996,-0.46607383296607358,-0.093279787956289856
-4.0834999999999999,-0.39138260896236304,-0.19924617200786782
-4.0830000000000002,-0.38071243410468042,-1.1635402668781043
-4.0824999999999996,0.48357172936841897,-1.1847335436876296
-4.0819999999999999,1.3691962425552726,-0.29461591765437467
-4.0815000000000001,1.4438874665590511,0.31998910984533641
-4.0810000000000004,1.0064102973944609,0.41535885549175655
-4.0804999999999998,0.43022085507920033,0.29879583303500157
-4.0800000000000001,-0.092617712947249131,0.11865298014715518
-4.0795000000000003,-0.41272295867743719,0.023283234500735023
-4.0789999999999997,-0.55143523182763188,0.0020899576903423336
-4.0785,-0.58344575640065055,0.033879872905815719
-4.0780000000000003,-0.5727755815429777,0.065669788121289097
-4.0774999999999997,-0.5941159312583818,0.17163617217306945
-4.077,-0.64746680554674652,0.25640927941433178
-4.0765000000000002,-0.60478610611605466,0.20342608738854284
-4.0759999999999996,-0.56210540668524644,0.076266426526360162
-4.0754999999999999,-0.51942470725455481,-0.061489872740691176
-4.0750000000000002,-0.35937208438931517,0.0020899576903134209
-4.0744999999999996,0.34485945621850583,0.4471487707078371
-4.0739999999999998,1.1878032699746677,0.98757732937088472
-4.0735000000000001,1.7213120128587998,1.3584596735517449
-4.0730000000000004,1.9027049854392397,1.5280058880342695
-4.0724999999999998,1.838683936293309,1.432636142387917
-4.0720000000000001,1.2304839694053984,0.75445128445720111
-4.0715000000000003,0.50491207908363878,-0.050893234334791315
-4.0709999999999997,-0.049937013516819388,-0.64430498502515055
-4.0705,-0.38071243410468042,-0.91981758355925325
-4.0700000000000003,-0.5407650569697745,-0.9622041371798844
-4.0694999999999997,-0.58344575640064089,-0.8562377531280656
-4.069,-0.57277558154296804,-0.65490162343006741
-4.0685000000000002,-0.53009488211223732,-0.4641621321370536
-4.0679999999999996,-0.48741418268148745,-0.28401927924906273
-4.0674999999999999,-0.46607383296614152,-0.12506970317169577
-4.0670000000000002,-0.43406330839309365,-0.04029659593035631
-4.0664999999999996,-0.060607188373492764,-0.26282600243937354
-4.0659999999999998,0.71831557623663156,-0.81385119950757889
-4.0655000000000001,1.3478558928399074,-1.2589100125246109
-4.0650000000000004,1.3798664174129263,-1.1847335436885067
-4.0644999999999998,0.31284893164469124,-1.2801032893349458
-4.0640000000000001,-0.46607383296614152,-0.98339741399025782
-4.0635000000000003,-0.77550890383865678,-0.42177557851689473
-4.0629999999999997,-0.89288082727334039,-0.019103319119713042
-4.0625,-0.77550890383893822,0.31998910984533641
-4.0620000000000003,-0.60478610611617101,0.50013196273301896
-4.0614999999999997,-0.5621054066852853,0.43655213230204321
-4.0609999999999999,-0.5621054066852853,0.28819919462983412
-4.0605000000000002,-0.62612645583138127,0.18223281057815977
-4.0599999999999996,-0.61545628097365968,-0.029699957525400906
-4.0594999999999999,-0.57277558154296804,-0.26282600243887239
-4.0590000000000002,-0.53009488211223732,-0.49595204735255594
-4.0585000000000004,-0.423393133535508,-0.59132179299897614
-4.0579999999999998,0.15279630877945163,-0.11447306476652835
-4.0575000000000001,0.97439977282101498,0.54251851635385251
-4.0570000000000004,1.6359506139967372,1.040560521396269
-4.0564999999999998,2.1054383077353749,1.3160731199310751
-4.056,2.2868312803159796,1.3902495887672472
-4.0555000000000003,1.7533225374323331,0.89220758372483078
-4.0549999999999997,0.89970854881658635,0.076266426525887915
-4.0545,0.18480683335249956,-0.5807251545938954
-4.0540000000000003,-0.28468086038510965,-0.95160749877441808
-4.0534999999999997,-0.50875453239694968,-1.0469772444211853
-4.0529999999999999,-0.59411593125833329,-0.96220413717992292
-4.0525000000000002,-0.59411593125833329,-0.77146464588690922
-4.0519999999999996,-0.56210540668524644,-0.53833860097302322
-4.0514999999999999,-0.51942470725455481,-0.31580919446470956
-4.0510000000000002,-0.48741418268150688,-0.12506970317169577
-4.0505000000000004,-0.45540365810848804,-0.0085066807149600243
-4.0499999999999998,-0.16730893695102761,-0.0085066807148540119
-4.0495000000000001,0.62228400251748783,-0.38998566330088158
-4.0490000000000004,1.4545576414159769,-0.58072515459372198
-4.0484999999999998,1.8920348105814311,-0.072086511145482743
-4.048,1.5719295648512428,0.34118238665567124
-4.0475000000000003,0.87836819910250208,0.43655213230209144
-4.0469999999999997,0.22748753278262843,0.44714877070715287
-4.0465,-0.43406330839309365,0.23521600260399694
-4.0460000000000003,-1.2556667724339099,-0.32640583286936625
-4.0454999999999997,-1.2663369472922235,-0.25222936403362789
-4.0449999999999999,-1.1382948490001481,-0.1674562567923655
-4.0445000000000002,-0.94623170156186043,-0.061489872740691176
-4.0439999999999996,-0.65813698040430291,0.20342608738849466
-4.0434999999999999,-0.51942470725455481,0.20342608738849466
-4.0430000000000001,-0.4980843575391895,0.0020899576903134209
-4.0425000000000004,-0.4980843575391895,-0.20984281041284247
-4.0419999999999998,-0.48741418268150688,-0.36879238649054674
-4.0415000000000001,-0.11395806266261441,-0.12506970317169577
-4.0410000000000004,0.6649647019475099,0.52132523954292975
-4.0404999999999998,1.2945050185519502,1.1253336286384086
-4.04,1.7960032368625782,1.5068126112240887
-4.0395000000000003,2.1374488323081122,1.655165548896298
-4.0389999999999997,1.8600242860079561,1.316073119930333
-4.0385,1.0704313465401587,0.50013196273318283
-4.0380000000000003,0.32351910650305327,-0.26282600243817855
-4.0374999999999996,-0.18864928666664521,-0.73967473067157075
-4.0369999999999999,-0.46607383296614152,-0.91981758355925325
-4.0365000000000002,-0.57277558154296804,-0.9092209451540858
-4.0359999999999996,-0.59411593125831386,-0.78206128429190302
-4.0354999999999999,-0.57277558154296804,-0.59132179299906285
-4.0350000000000001,-0.54076505696992005,-0.38998566330088158
-4.0345000000000004,-0.50875453239690116,-0.19924617200804129
-4.0339999999999998,-0.48741418268150688,-0.072086511145858609
-4.0335000000000001,-0.42339313353541097,0.033879872905815719
-4.0330000000000004,-0.028596663801512323,-0.22043944881797134
-4.0324999999999998,0.48357172936789494,-0.61251506980933978
-4.032,0.79300680024041004,-0.54893523937839306
-4.0315000000000003,0.80367697509808311,-0.4641621321371307
-4.0309999999999997,0.41955068022114889,-0.20984281041274611
-4.0305,0.014084035629577295,0.10805634174198775
-4.0300000000000002,-0.28468086038526491,0.36237566346577482
-4.0294999999999996,-0.4447334832508345,0.52132523954355614
-4.0289999999999999,-0.50875453239687207,0.5637117931641874
-4.0285000000000002,-0.54076505696992005,0.50013196273318283
-4.0279999999999996,-1.052933450138978,-0.11447306476681748
-4.0274999999999999,-1.373038695869166,-0.43237221692155131
-4.0270000000000001,-1.3090176467230703,-0.33700247127504446
-4.0265000000000004,-1.1596351987156492,-0.42177557851630681
-4.0259999999999998,-0.88221065241576446,-0.47475877054222104
-4.0255000000000001,-0.61545628097369853,-0.50654868575772338
-4.0250000000000004,-0.50875453239696911,-0.36879238649067203
-4.0244999999999997,-0.27401068552734936,0.13984625695802974
-4.024,0.28083840707164331,0.73325800764686633
-4.0235000000000003,0.88903837395900065,1.1359302670428624
-4.0229999999999997,1.4438874665593033,1.3478630351465293
-4.0225,1.7213120128587998,1.2948798431207402
-4.0220000000000002,1.2731646688365363,0.63788826200095694
-4.0214999999999996,0.60094365280159856,-0.1568596183877185
-4.0209999999999999,0.024754210487259936,-0.72907809226623943
-4.0205000000000002,-0.33803173467394987,-1.01518732920576
-4.0199999999999996,-0.51942470725460332,-1.0575738828263141
-4.0194999999999999,-0.57277558154296804,-0.9304142219644207
-4.0190000000000001,-0.57277558154296804,-0.71848145386107198
-4.0185000000000004,-0.54076505696994914,-0.48535540894760054
-4.0179999999999998,-0.50875453239687207,-0.27342264084403983
-4.0175000000000001,-0.47674400782382426,-0.10387642636136091
-4.0170000000000003,-0.42339313353545949,-0.050893234335571934
-4.0164999999999997,-0.07127736323119481,-0.050893234335899609
-4.016,0.6863050516635838,-0.4641621321370536
-4.0155000000000003,1.4545576414160351,-0.31580919446484446
-4.0149999999999997,1.529248865419998,-0.12506970317176325
-4.0145,0.96372959796333246,-0.19924617200786782
-4.0140000000000002,0.32351910650295623,-0.16745625679239443
-4.0134999999999996,-0.16730893695127994,-0.029699957525053951
-4.0129999999999999,-0.44473348325077627,0.11865298014715518
-4.0125000000000002,-0.5621054066852853,0.24581264100916439
-4.0119999999999996,-0.58344575640063112,0.33058574825054238
-4.0114999999999998,-0.5621054066852853,0.37297230187117358
-4.0110000000000001,-0.5621054066852853,0.33058574825050385
-4.0105000000000004,-0.62612645583132309,0.18223281057829468
-4.0099999999999998,-0.61545628097369853,0.10805634174198775
-4.0095000000000001,-1.0849439747117349,-0.44296885532671876
-4.0090000000000003,-1.3516983461535581,-0.75027136907629477
-4.0084999999999997,-1.14896502385719,-0.57012851618836169
-4.008,-0.44473348325077627,-0.1674562567923655
-4.0075000000000003,0.71831557623557374,0.58490506997383795
-4.0069999999999997,1.6999716631439101,1.3054764815262256
-4.0065,2.2228102311698841,1.655165548896433
-4.0060000000000002,2.4042032037504888,1.7293420177326051
-4.0054999999999996,1.8813646357232339,1.2207033742837585
-4.0049999999999999,0.99574012253638022,0.33058574825050385
-4.0045000000000002,0.22748753278323011,-0.42177557851638392
-4.0039999999999996,-0.25267033581271192,-0.88802766834391478
-4.0034999999999998,-0.4980843575391895,-1.0681705212315973
-4.0030000000000001,-0.59411593125833329,-1.0681705212315973
-4.0025000000000004,-0.59411593125833329,-0.9516074987748615
-4.0019999999999998,-0.57277558154296804,-0.792657922697244
-4.0015000000000001,-0.54076505696992005,-0.61251506980939763
-4.0010000000000003,-0.49808435753922831,-0.44296885532687297
-4.0004999999999997,-0.44473348325046574,-0.36879238649075879
-4,-0.10328788780493176,-0.60191843140423029
-3.9994999999999998,0.64362435223285308,-1.1635402668781043
-3.9990000000000001,1.2731646688361289,-1.3966663117917877
-3.9984999999999999,1.5719295648512428,-0.87743102993858346
-3.9980000000000002,1.1771330951169852,-0.34759910968021185
-3.9975000000000001,0.55826295337139209,0.023283234500648287
-3.9969999999999999,0.035424385344942577,0.29879583303500157
-3.9965000000000002,-0.30602121010090194,0.50013196273318283
-3.996,-0.4980843575391895,0.60609834678485708
-3.9954999999999998,-0.5621054066852853,0.62729162359519197
-3.9950000000000001,-0.57277558154296804,0.58490506997452218
-3.9944999999999999,-0.5621054066852853,0.47893868592284788
-3.9940000000000002,-0.59411593125833329,0.39416557868150842
-3.9935,-0.6047861061160158,0.24581264100916439
-3.9929999999999999,-0.57277558154296804,0.044476511310983152
-3.9925000000000002,-0.54076505696992005,-0.17805289519753292
-3.992,-0.50875453239687207,-0.37938902489571413
-3.9914999999999998,-0.14596858723566233,-0.30521255605954212
-3.9910000000000001,0.35552963107542179,-0.26282600243887239
-3.9904999999999999,0.3982103305061524,-0.18864953360270037
-3.9900000000000002,0.5689331282290746,0.28819919462983412
-3.9895,1.0277506471094282,0.78624119967270345
-3.9889999999999999,1.2624944939784462,0.93459413734504748
-3.9885000000000002,0.93171907339028448,0.4471487707073456
-3.988,0.34485945621773917,-0.28401927924920728
-3.9874999999999998,-0.14596858723566233,-0.83504447631791379
-3.9870000000000001,-0.43406330839309365,-1.0999604364470996
-3.9864999999999999,-0.5621054066852853,-1.131750351662602
-3.9860000000000002,-0.59411593125833329,-1.0257839676109275
-3.9855,-0.57277558154296804,-0.82444783791274634
-3.9849999999999999,-0.53009488211223732,-0.61251506980939763
-3.9845000000000002,-0.48741418268150688,-0.40058230170604903
-3.984,-0.46607383296614152,-0.25222936403370499
-3.9834999999999998,-0.35937208438931517,-0.1674562567923655
-3.9830000000000001,0.23815770764091276,-0.18864953360270037
-3.9824999999999999,1.0490909968247935,0.055073149716150585
-3.9820000000000002,1.6359506139973388,0.55311515475901996
-3.9815,1.4225471168436858,0.43655213230217815
-3.9809999999999999,0.77166645052504479,0.15044289536265748
-3.9805000000000001,0.16346648363713429,-0.019103319120021445
-3.98,-0.26334051067017139,-0.019103319120021445
-3.9794999999999998,-0.48741418268150688,0.097459703336820316
-3.9790000000000001,-0.57277558154296804,0.2246193641988295
-3.9784999999999999,-0.58344575640065055,0.33058574825050385
-3.9780000000000002,-0.57277558154296804,0.39416557868150842
-3.9775,-0.62612645583138127,0.35177902506083869
-3.9769999999999999,-0.65813698040442903,0.29879583303500157
-3.9765000000000001,-0.62612645583138127,0.27760255622466667
-3.976,-0.58344575640065055,0.26700591781949923
-3.9754999999999998,-0.54076505696992005,0.21402272579366208
-3.9750000000000001,-0.34870190953163249,0.23521600260399694
-3.9744999999999999,0.34485945621773917,0.55311515475901996
-3.9740000000000002,1.006410297394063,1.0087706061812196
-3.9735,1.3798664174129553,1.3478630351465775
-3.9729999999999999,1.3478558928399074,1.4750226960085864
-3.9725000000000001,0.49424190422529612,0.83922439169854057
-3.972,-0.11395806266261441,0.097459703336820316
-3.9714999999999998,-0.50875453239687207,-0.62311170821456507
-3.9710000000000001,-0.73282820440820751,-1.1211537132574345
-3.9704999999999999,-0.69014750497747701,-1.2377167357142764
-3.9700000000000002,-0.59411593125833329,-1.1741369052832717
-3.9695,-0.58344575640065055,-1.0999604364470996
-3.9689999999999999,-0.57277558154296804,-0.97280077558509037
-3.9685000000000001,-0.54076505696992005,-0.80325456110241145
-3.968,-0.51942470725455481,-0.62311170821456507
-3.9674999999999998,-0.48741418268150688,-0.4535654937318862
-3.9670000000000001,-0.43406330839309365,-0.32640583286987701
-3.9664999999999999,-0.0072563140857879876,-0.50654868575772338
-3.9660000000000002,0.81434714995577528,-1.0893637980419322
-3.9655,1.5612593899935603,-0.83504447631791379
-3.9649999999999999,1.689301488285752,-0.18864953360270037
-3.9645000000000001,1.1557927454016199,0.044476511310983152
-3.964,0.49424190422529612,0.16103953376782493
-3.9634999999999998,-0.028596663801153277,0.23521600260399694
-3.9630000000000001,-0.34870190953163249,0.31998910984533641
-3.9624999999999999,-0.50875453239687207,0.37297230187117358
-3.9620000000000002,-0.57277558154296804,0.39416557868150842
-3.9615,-0.57277558154296804,0.39416557868150842
-3.9609999999999999,-0.57277558154296804,0.38356894027634103
-3.9605000000000001,-0.6047861061160158,0.39416557868150842
-3.96,-0.59411593125833329,0.33058574825050385
-3.9594999999999998,-0.5621054066852853,0.21402272579366208
-3.9590000000000001,-0.53009488211223732,0.076266426526485451
-3.9584999999999999,-0.4554036581084589,-0.04029659593035631
-3.9580000000000002,0.067434909917990504,-0.53833860097322561
-3.9575,0.857027849386506,-1.3224898429556156
-3.9569999999999999,1.4545576414167338,-1.1529436284729369
-3.9565000000000001,1.7960032368625782,-0.24163272562853755
-3.956,1.9240453351547699,0.58490506997452218
-3.9554999999999998,1.3905365922706379,0.60609834678485708
-3.9550000000000001,0.63295417737517057,0.10805634174198775
-3.9544999999999999,-0.33803173467394987,-0.78206128429207655
-3.9540000000000002,-1.1703053735731959,-1.6085990798951362
-3.9535,-1.2023158981462438,-1.6615822719209734
-3.9529999999999998,-1.1276246741424654,-1.5768091646796343
-3.9525000000000001,-0.93556152670417769,-1.3224898429556156
-3.952,-0.65813698040442903,-0.98339741399025782
-3.9514999999999998,-0.54076505696992005,-0.78206128429207655
-3.9510000000000001,-0.50875453239687207,-0.65490162343006741
-3.9504999999999999,-0.48741418268150688,-0.55953187778356051
-3.9500000000000002,-0.17797911180871023,-0.72907809226623943
-3.9495,0.60094365280212259,-1.42845622700729
-3.9489999999999998,1.4012067671283206,-1.5450192494641319
-3.9485000000000001,1.7533225374318477,-0.67609490024040231
-3.948,1.4118769419860033,-0.15685961838719809
-3.9474999999999998,0.75032610080967954,-0.019103319120021445
-3.9470000000000001,0.14212613392176898,0.065669788121318018
-3.9464999999999999,-0.27401068552785401,0.15044289536265748
-3.9460000000000002,-0.48741418268150688,0.24581264100916439
-3.9455,-0.5621054066852853,0.34118238665567124
-3.9449999999999998,-0.5621054066852853,0.38356894027634103
-3.9445000000000001,-0.53009488211223732,0.38356894027634103
-3.944,-0.43406330839309365,0.35177902506083869
-3.9434999999999998,-0.40205278382004572,0.33058574825050385
-3.9430000000000001,-0.42339313353541097,0.30939247144016896
-3.9424999999999999,-0.4554036581084589,0.25640927941433178
-3.9420000000000002,-0.47674400782382426,0.18223281057815977
-3.9415,-0.18864928666639288,-0.082683149551026042
-3.9409999999999998,0.43022085507920033,-0.061489872740691176
-3.9405000000000001,0.95305942310564973,0.46834204751768049
-3.9399999999999999,1.3265155431245421,1.0193672445863871
-3.9394999999999998,1.5719295648512428,1.4008462271724147
-3.9390000000000001,1.3265155431245421,1.1889134590690658
-3.9384999999999999,0.70764540137894905,0.4471487707073456
-3.9380000000000002,0.12078578420640371,-0.28401927924920728
-3.9375,-0.28468086038553664,-0.78206128429207655
-3.9369999999999998,-0.4980843575391895,-1.0257839676109275
-3.9365000000000001,-0.58344575640065055,-1.0787671596367647
-3.9359999999999999,-0.81818960326966872,-1.2377167357142764
-3.9355000000000002,-1.405049220442214,-1.6933721871364757
-3.9350000000000001,-1.2876772970077051,-1.4390528654124575
-3.9344999999999999,-1.1169544992847826,-1.1423469900677694
-3.9340000000000002,-0.92489135184649518,-0.83504447631791379
-3.9335,-0.5621054066852853,-0.47475877054222104
-3.9329999999999998,0.21681735792554749,-0.44296885532671876
-3.9325000000000001,1.1024418711132067,-0.64430498502489997
-3.9319999999999999,1.806673411720261,-0.98339741399025782
-3.9315000000000002,1.9027049854394047,-1.0045906908005926
-3.931,1.3158453682668594,-0.60191843140423029
-3.9304999999999999,0.59027347794443985,-0.10387642636136091
-3.9300000000000002,0.024754210487259936,0.31998910984533641
-3.9295,-0.32736155981626724,0.5637117931641874
