Class_4_Move_right_hand_Horiszontal/Class_4_Move_right_hand_Horiszontal_Suko_4.csv

#Digilent WaveForms Oscilloscope Acquisition
#Device Name: EExplorer
#Serial Number: SN:210151A2B84A
#Date Time: 2020-12-15 14:12:43.492
#Sample rate: 2000Hz
#Samples: 16384
#Trigger: Source: Channel 1 Type: Edge Condition: Rising Level: 0 V Hyst.: Auto HoldOff: 0 s
#Channel 1: Range: 1 V/div Offset: 0 V Attenuation: 1 X
#Channel 2: Range: 1 V/div Offset: 0 V Attenuation: 1 X
#Power Supplies: ON
#Fixed Supply: ON
#Voltage: 3.3 V Readback: 3.325 V
#Positive Supply: ON
#Voltage: 3.7 V Readback: 3.715 V
#Current: 40 mA Readback: 19 mA
#Negative Supply: ON
#Voltage: -3.7 V Readback: -3.341 V
#Current: -40 mA Readback: -7 mA
#Reference 1: ON
#Voltage: 0 V
#Reference 2: ON
#Voltage: 0 V

Time (s),Channel 1 (V),Channel 2 (V)
-4.096,-1.26633694729234,0.6378882620003594
-4.0955,-0.3380317346747942,0.002089957690891597
-4.095,0.3021787567872803,-0.4429688553269693
-4.0945,0.6009436528021226,-0.718481453861072
-4.094,0.6542945270904873,-0.8350444763178078
-4.0935,0.5902734779443525,-0.8032545611023247
-4.093,0.4942419042252961,-0.7078848154559045
-4.0925,0.5369226036559878,-0.6866915386455891
-4.092,0.6969752265212081,-0.7926579226970994
-4.0915,0.6329541773751706,-0.6337083466197325
-4.091,0.4942419042252961,-0.3687923864905467
-4.0905,0.3661998059330365,-0.1250697031715319
-4.09,0.291508581929326,0.05507314971615059
-4.0895,0.5369226036560266,0.2670059178194992
-4.089,0.835687499670869,0.7014680924309689
-4.0885,0.1527963087794516,1.135930267043229
-4.088,-0.7968492535543035,1.42203950398275
-4.0875,-1.533091318733736,1.538602526439485
-4.087,-1.447729919872479,1.093543713421875
-4.0865,-0.9355615267041777,0.3411823866556712
-4.086,-0.4127229586782039,-0.262826002438323
-4.0855,-0.03926683865864183,-0.6231117082146808
-4.085,0.1741366584948169,-0.7502713690765743
-4.0845,0.2701682322138733,-0.7396747306714165
-4.084,0.2808384070716336,-0.6443049850247747
-4.0835,0.2701682322139607,-0.5065486857577234
-4.083,0.2274875327832301,-0.3370024712750445
-4.0825,0.1741366584947878,-0.1462629799818475
-4.082,0.142126133921769,0.05507314971615059
-4.0815,-0.007256314085787988,0.3623756634660061
-4.081,-0.6154562809731454,0.8180311148877915
-4.0805,-1.362368521011484,1.210106735879401
-4.08,-2.013249187330125,1.432636142387917
-4.0795,-1.586442193023207,1.210106735879603
-4.079,-0.6367966306883942,0.775644561266977
-4.0785,0.09944543449103843,0.1610395337678249
-4.078,0.50491207908261,-0.3687923864900649
-4.0775,0.6329541773751609,-0.6972881770508721
-4.077,0.6222840025174878,-0.8456411147230812
-4.0765,0.5262524287984315,-0.8138511995076078
-4.076,0.451561204794682,-0.7078848154559142
-4.0755,0.5796033030867573,-0.718481453861072
-4.075,0.5796033030867573,-0.5807251545938954
-4.0745,0.4729015545098436,-0.3370024712748035
-4.074,0.3768699807907871,-0.07208651114585861
-4.0735,0.3021787567870086,0.13984625695749
-4.073,0.4195506802214109,0.2140227257935946
-4.0725,1.027750647109428,0.08686306493165288
-4.072,0.9530594231056497,0.383568940276341
-4.0715,0.01408403563043126,0.8180311148878107
-4.071,-0.9995825758506425,1.13593026704318
-4.0705,-1.405049220442214,1.082947075017392
-4.07,-1.084943974712026,0.5213252395440284
-4.0695,-0.5941159312579548,-0.08268314955142118
-4.069,-0.1779791118087102,-0.5171453241628908
-4.0685,0.08877525963335578,-0.718481453861072
-4.068,0.2274875327832689,-0.7714646458868707
-4.0675,0.2701682322139607,-0.7290780922662394
-4.067,0.2701682322139607,-0.6231117082145651
-4.0665,0.2381577076408642,-0.4853554089472439
-4.066,0.1848068333524996,-0.326405832869877
-4.0655,0.142126133921769,-0.1356663415768632
-4.065,0.09944543449107725,0.08686306493145049
-4.0645,-0.3593720843893152,0.4895353243280153
-4.064,-1.1062843244271,0.9663840525605498
-4.0635,-1.83185621474886,1.316073119930757
-4.063,-1.853196564464031,1.21010673587888
-4.0625,-0.9142211769888124,0.6378882620003594
-4.062,-0.09261771294799648,0.0126865960960495
-4.0615,0.4195506802217021,-0.4959520473527873
-4.061,0.6222840025174878,-0.7502713690765743
-4.0605,0.6116138276598051,-0.8138511995075789
-4.06,0.5262524287982762,-0.7502713690764201
-4.0595,0.4515612047945656,-0.5807251545938954
-4.059,0.5369226036560266,-0.6019184314042303
-4.0585,0.6009436528020644,-0.559531877783599
-4.058,0.5155822539406614,-0.3475991096802118
-4.0575,0.408880505363835,-0.1144730647665284
-4.057,0.3128489316447786,0.09745970333662754
-4.0565,0.3128489316446912,0.1716361721729923
-4.056,0.7823366253827275,-0.252229364033705
-4.0555,1.091771696255242,-0.5489352393781233
-4.055,0.3555296310745096,-0.1356663415766319
-4.0545,-0.6474668055467465,0.1186529801471552
-4.054,-1.309017646722469,0.3835689402761001
-4.0535,-1.180975548430461,0.2140227257933344
-4.053,-0.722158029550525,-0.1462629799820306
-4.0525,-0.2846808603855366,-0.4853554089473885
-4.052,0.02475421048741521,-0.7078848154560009
-4.0515,0.1954770082101822,-0.8138511995075789
-4.051,0.2701682322139607,-0.8350444763179138
-4.0505,0.2701682322139607,-0.8138511995075982
-4.05,0.2488278824985954,-0.7502713690765743
-4.0495,0.2168173579255475,-0.6337083466197325
-4.049,0.1741366584948557,-0.5171453241629969
-4.0485,0.1421261339214973,-0.358195748085042
-4.048,-0.156638762093345,0.01268659609548085
-4.0475,-0.8395299529844129,0.6060983467843174
-4.047,-1.575772018165544,1.104140351827881
-4.0465,-2.023919362187807,1.273686566310405
-4.046,-1.277007122150702,0.8498210301040936
-4.0455,-0.3807124341040982,0.1928294489828453
-4.045,0.2594980573562781,-0.3370024712750445
-4.0445,0.5902734779444399,-0.6019184314042303
-4.044,0.6649647019481602,-0.6443049850248421
-4.0435,0.6009436528021226,-0.5807251545938954
-4.043,0.4835717293676135,-0.4429688553267188
-4.0425,0.4942419042252864,-0.4005823017060876
-4.042,0.6542945270905358,-0.5065486857577234
-4.0415,0.6116138276598051,-0.3475991096802118
-4.041,0.4942419042254029,-0.1038764263615826
-4.0405,0.3768699807907192,0.1080563417421227
-4.04,0.3021787567870086,0.2564092794143318
-4.0395,0.5902734779441778,0.4153588554916988
-4.039,1.059761171681962,0.7544512844575481
-4.0385,0.4942419042252961,1.135930267043229
-4.038,-0.4980843575382871,1.135930267043229
-4.0375,-1.298347471865436,0.8710143069137153
-4.037,-1.351698346153801,0.5107286011383502
-4.0365,-0.9142211769888124,-0.02969995752518888
-4.036,-0.4233931335350713,-0.4535654937321175
-4.0355,-0.04993701351651855,-0.7078848154559045
-4.035,0.1634664836371343,-0.8138511995075789
-4.0345,0.2594980573561907,-0.8138511995075789
-4.034,0.2808384070716433,-0.7502713690765743
-4.0335,0.2701682322139607,-0.6549016234300674
-4.033,0.2274875327832689,-0.5171453241630162
-4.0325,0.1741366584947878,-0.3687923864903829
-4.032,0.142126133921769,-0.1886495336027004
-4.0315,0.003413860772020799,0.09745970333656007
-4.031,-0.6261264558320703,0.6060983467852907
-4.0305,-1.383708870726849,1.082947075017392
-4.03,-2.055929886760244,1.37965295036181
-4.0295,-1.757164990744887,1.273686566309904
-4.029,-0.8181896032696687,0.7226613692416989
-4.0285,-0.01792648894347063,0.01268659609548085
-4.028,0.4622313796524132,-0.4959520473528162
-4.0275,0.6436243522328531,-0.7820612842920766
-4.027,0.6436243522328531,-0.8032545611024114
-4.0265,0.5475927785137967,-0.6549016234302023
-4.026,0.4729015545099309,-0.5171453241628908
-4.0255,0.6863050516635838,-0.6443049850249
-4.025,0.7076454013789296,-0.591321792999111
-4.0245,0.590273477944304,-0.3475991096799709
-4.024,0.4408910299368829,-0.08268314955102604
-4.0235,0.3341892813601536,0.1398462569572876
-4.023,0.3768699807912626,0.3623756634663723
-4.0225,0.8997085488172365,0.7650479228623686
-4.022,0.7396559259521424,1.167720182258365
-4.0215,-0.1886492866672372,1.41144286557765
-4.021,-1.116954499284783,1.485619334413754
-4.0205,-1.362368521011484,1.157123543853563
-4.02,-0.9889124009921447,0.447148770706777
-4.0195,-0.4980843575391895,-0.1780528951975329
-4.019,-0.1139580626626144,-0.570128516188728
-4.0185,0.1314559590638631,-0.7396747306712527
-4.018,0.2381577076409128,-0.7396747306714069
-4.0175,0.2808384070716433,-0.6549016234300674
-4.017,0.2701682322139704,-0.5383386009733316
-4.0165,0.2381577076408739,-0.3793890248955407
-4.016,0.1954770082101822,-0.1886495336027004
-4.0155,0.1634664836371634,0.01268659609529774
-4.015,0.09944543449058232,0.2881991946302196
-4.0145,-0.4020527838200457,0.7120647308365314
-4.014,-1.170305373572497,1.125333628637686
-4.0135,-1.906547438753405,1.411442865577457
-4.013,-2.023919362187807,1.273686566310405
-4.0125,-1.074273799854052,0.5849050699745222
-4.012,-0.2099896363812341,-0.1462629799825125
-4.0115,0.3661998059331045,-0.6760949002404023
-4.011,0.6222840025174878,-0.9304142219644207
-4.0105,0.6542945270905067,-0.9516074987747362
-4.01,0.5902734779444399,-0.8668343915334161
-4.0095,0.4942419042252961,-0.7290780922662394
-4.009,0.6116138276596983,-0.8138511995075017
-4.0085,0.7076454013788617,-0.8350444763177114
-4.008,0.6116138276598051,-0.6125150698093976
-4.0075,0.462231379652384,-0.3158091944649794
-4.007,0.3448594562177101,-0.05089323433533099
-4.0065,0.3128489316446912,0.1610395337678249
-4.006,0.7503261008096795,0.4047622170866759
-4.0055,1.145122570543316,0.7756445612678636
-4.005,0.4622313796522482,1.135930267043229
-4.0045,-0.5194247072545548,1.125333628638062
-4.004,-1.223656247861541,1.07235043661181
-4.0035,-1.148965023857831,0.6166949851900245
-4.003,-0.722158029550525,0.04447651131098315
-4.0025,-0.2953510352436075,-0.3899856633004865
-4.002,0.01408403562957729,-0.6125150698093976
-4.0015,0.1954770082101822,-0.6760949002404023
-4.001,0.2594980573562198,-0.633708346619771
-4.0005,0.2808384070716239,-0.5383386009731004
-4,0.2594980573562781,-0.400582301706049
-3.9995,0.2168173579255475,-0.252229364033705
-3.999,0.1741366584948169,-0.09327978795619347
-3.9985,0.142126133921769,0.1186529801471552
-3.998,-0.156638762093345,0.4471487707073456
-3.9975,-0.8502001278427167,0.9028042221295453
-3.997,-1.597112367880501,1.263089927905238
-3.9965,-2.141291285622316,1.453829419198252
-3.996,-1.533091318734406,1.188913459069066
-3.9955,-0.5834457564006506,0.4259554938970107
-3.995,0.142126133921769,-0.2946159176543747
-3.9945,0.5369226036560266,-0.7714646458869092
-3.994,0.6542945270905358,-1.004590690800593
-3.9935,0.6222840025174878,-1.036380606016095
-3.993,0.5369226036560266,-0.8774310299385835
-3.9925,0.5262524287983441,-0.7714646458869092
-3.992,0.6436243522328531,-0.7820612842920766
-3.9915,0.5902734779444399,-0.6019184314042303
-3.991,0.4835717293676135,-0.326405832869877
-3.9905,0.3768699807907871,-0.06148987274069118
-3.99,0.3021787567870086,0.1504428953626575
-3.9895,0.4942419042252961,0.2987958330350016
-3.989,0.9850699476786977,0.5743084315693548
-3.9885,0.5262524287983441,0.9663840525605498
-3.988,-0.423393133535411,1.040560521396722
-3.9875,-1.255666772434657,0.9345941373450475
-3.987,-1.373038695869166,0.6802748156210291
-3.9865,-0.9462317015618604,0.1610395337678249
-3.986,-0.4554036581084589,-0.2734226408440398
-3.9855,-0.07127736323188383,-0.5383386009732256
-3.985,0.1527963087794516,-0.6443049850249
-3.9845,0.2594980573562781,-0.6231117082145651
-3.984,0.2808384070716433,-0.5489352393783931
-3.9835,0.2808384070716433,-0.4429688553267188
-3.983,0.2381577076409128,-0.3158091944647096
-3.9825,0.1954770082101822,-0.1674562567923655
-3.982,0.1634664836371343,0.02328323450064829
-3.9815,0.02475421048725994,0.309392471440169
-3.981,-0.6047861061160158,0.7650479228623686
-3.9805,-1.362368521011484,1.178316820663898
-3.98,-2.055929886760855,1.400846227172415
-3.9795,-1.682473766741963,1.040560521396722
-3.979,-0.7648387289812555,0.3623756634660061
-3.9785,-0.007256314085787988,-0.3370024712750445
-3.978,0.4622313796522482,-0.792657922697244
-3.9775,0.6436243522328531,-0.9833974139902578
-3.977,0.6542945270905358,-0.9833974139902578
-3.9765,0.5689331282290746,-0.9198175835592532
-3.976,0.4835717293676135,-0.8456411147230812
-3.9755,0.5796033030867573,-0.8774310299385835
-3.975,0.5689331282290746,-0.7290780922662394
-3.9745,0.4729015545099309,-0.4853554089473885
-3.974,0.3768699807907871,-0.2204394488182027
-3.9735,0.3021787567870086,0.002089957690313421
-3.973,0.3661998059331045,0.05507314971615059
-3.9725,0.8783681991018712,-0.400582301706049
-3.972,0.7609962756673623,-0.6443049850249
-3.9715,-0.1459685872356623,-0.2098428104130352
-3.971,-1.074273799854052,0.2246193641988295
-3.9705,-1.426389570157579,0.5213252395435176
-3.97,-1.095614149569417,0.2881991946298341
-3.9695,-0.5834457564006506,-0.1038764263613609
-3.969,-0.1673089369510276,-0.4111789401112165
-3.9685,0.1101156093487211,-0.5913217929990628
-3.968,0.2381577076409128,-0.6654982618352349
-3.9675,0.2808384070716433,-0.6549016234300674
-3.967,0.2808384070716433,-0.5913217929990628
-3.9665,0.2488278824985954,-0.4959520473525559
-3.966,0.1954770082101822,-0.3581957480853793
-3.9655,0.1634664836371343,-0.2204394488182027
-3.965,0.1207857842064037,-0.05089323433552374
-3.9645,-0.2846808603855366,0.3729723018711736
-3.964,-1.020922925565639,0.8816109453192104
-3.9635,-1.714484291315011,1.263089927905238
-3.963,-1.821186039891837,1.188913459069066
-3.9625,-0.9355615267041777,0.5637117931641874
-3.962,-0.07127736323188383,-0.04029659593035631
-3.9615,0.4729015545099309,-0.4641621321370536
-3.961,0.707645401378949,-0.7502713690765743
-3.9605,0.7183155762366316,-0.8562377531282487
-3.96,0.6116138276598051,-0.8138511995075789
-3.9595,0.4835717293676135,-0.6549016234300674
-3.959,0.5582629533713921,-0.6760949002404023
-3.9585,0.6542945270905358,-0.6549016234300674
-3.958,0.5689331282290746,-0.4217755785163839
-3.9575,0.4515612047945656,-0.1674562567923655
-3.957,0.3448594562177392,0.05507314971615059
-3.9565,0.3021787567870086,0.2246193641988295
-3.956,0.6649647019482183,0.5001319627331828
-3.9555,0.8783681991018712,0.9028042221295453
-3.955,0.1207857842064037,1.241896651094903
-3.9545,-0.8181896032696687,0.9345941373450475
-3.954,-1.373038695869166,0.5425185163538525
-3.9535,-1.170305373573196,0.1292496185523226
-3.953,-0.7008176798351597,-0.2734226408440398
-3.9525,-0.2526703358124887,-0.5383386009732256
-3.952,0.04609456020262521,-0.6654982618352349
-3.9515,0.2168173579255475,-0.6866915386455698
-3.951,0.2808384070716433,-0.6443049850249
-3.9505,0.291508581929326,-0.5807251545938954
-3.95,0.2594980573562781,-0.4959520473525559
-3.9495,0.2168173579255475,-0.3793890248957141
-3.949,0.1741366584948169,-0.2416327256285375
-3.9485,0.142126133921769,-0.06148987274069118
-3.948,-0.1032878878049318,0.2881991946298341
-3.9475,-0.807519428411986,0.7862411996727035
-3.947,-1.554431668449771,1.199510097474233
-3.9465,-2.07727023647622,1.390249588767247
-3.946,-1.373038695869166,1.135930267043229
-3.9455,-0.423393133535411,0.4259554938970107
-3.945,0.2594980573562781,-0.3052125560595421
-3.9445,0.6222840025174878,-0.792657922697244
-3.944,0.707645401378949,-0.9833974139902578
-3.9435,0.6329541773751706,-1.004590690800593
-3.943,0.5155822539406614,-0.8986243067489184
-3.9425,0.4942419042252961,-0.8138511995075789
-3.942,0.6649647019482183,-0.8668343915334161
-3.9415,0.6329541773751706,-0.6549016234300674
-3.941,0.5049120790829789,-0.3475991096802118
-3.9405,0.3875401556484697,-0.06148987274069118
-3.94,0.3021787567870086,0.1822328105781598
-3.9395,0.4622313796522482,0.4471487707073456
-3.939,0.9103787236749192,0.8392243916985406
-3.9385,0.4408910299368829,1.210106735879401
-3.938,-0.4660738329661415,1.188913459069066
-3.9375,-1.212986073003927,0.8604176685088755
-3.937,-1.298347471865388,0.5107286011383502
-3.9365,-0.8822106524157645,0.03387987290581572
-3.936,-0.4020527838200457,-0.326405832869877
-3.9355,-0.04993701351651855,-0.5171453241628908
-3.935,0.1634664836371343,-0.5807251545938954
-3.9345,0.2594980573562781,-0.5489352393783931
-3.934,0.2808384070716433,-0.4641621321370536
-3.9335,0.2701682322139607,-0.3581957480853793
-3.933,0.2274875327832301,-0.2310360872233701
-3.9325,0.1848068333524996,-0.09327978795619347
-3.932,0.142126133921769,0.06566978812131802
-3.9315,0.03542438534494258,0.309392471440169
-3.931,-0.5407650569699201,0.7226613692416989
-3.9305,-1.298347471865388,1.125333628638062
-3.93,-1.970568487899394,1.400846227172415
-3.9295,-1.725154466172693,1.390249588767247
-3.929,-0.7648387289812555,0.7968378380778709
-3.9285,0.03542438534494258,0.01268659609548085
-3.928,0.5049120790829789,-0.6125150698093976
-3.9275,0.6863050516635838,-0.9622041371799229
-3.927,0.6649647019482183,-1.05757388282643
-3.9265,0.5475927785137094,-1.004590690800593
-3.926,0.4622313796522482,-0.8774310299385835
-3.9255,0.6222840025174878,-0.9728007755850904
-3.925,0.6649647019482183,-0.8562377531282487
-3.9245,0.5582629533713921,-0.5807251545938954
-3.924,0.4408910299368829,-0.2734226408440398
-3.9235,0.3448594562177392,-0.008506680714854012
-3.923,0.3448594562177392,0.1928294489833272
-3.9225,0.8356874996711408,0.4153588554918433
-3.922,0.942389248247967,0.8074344764830383
-3.9215,0.1314559590640864,1.093543713422559
-3.921,-0.807519428411986,0.4683420475176805
-3.9205,-1.255666772434657,-0.1992461720078678
-3.92,-1.020922925565639,-0.4853554089473885
-3.9195,-0.572775581542968,-0.5489352393783931
-3.919,-0.1779791118087102,-0.5065486857577234
-3.9185,0.08877525963335578,-0.4323722169215513
-3.918,0.2274875327832301,-0.3581957480853793
-3.9175,0.2808384070716433,-0.2946159176543747
-3.917,0.2808384070716433,-0.252229364033705
-3.9165,0.2488278824985954,-0.2098428104130352
-3.916,0.2061471830678648,-0.1462629799820306
-3.9155,0.1634664836371343,-0.08268314955102604
-3.915,0.1207857842064037,0.002089957690313421
-3.9145,-0.3060212101009019,0.3411823866556712
-3.914,-1.052933450138687,0.8286277532933731
-3.9135,-1.789175515318789,1.210106735879401
-3.913,-1.927887788468663,1.157123543853563
-3.9125,-0.9889124009925911,0.6484849004055269
-3.912,-0.1459685872356623,-0.04029659593035631
-3.9115,0.3875401556484697,-0.6443049850249
-3.911,0.6222840025174878,-1.01518732920576
-3.9105,0.6436243522328531,-1.131750351662602
-3.91,0.5475927785137094,-1.0999604364471
-3.9095,0.4515612047945656,-0.9939940523954253
-3.909,0.5155822539406614,-1.01518732920576
-3.9085,0.6329541773751706,-1.01518732920576
-3.908,0.5796033030867573,-0.7714646458869092
-3.9075,0.4622313796522482,-0.474758770542221
-3.907,0.3661998059331045,-0.1886495336027004
-3.9065,0.3128489316446912,0.05507314971615059
-3.906,0.6756348768059011,0.3941655786815084
-3.9055,0.974399772821015,0.8604176685088755
-3.905,0.2488278824985954,1.241896651094903
-3.9045,-0.7648387289812555,1.400846227172415
-3.904,-1.383708870726849,1.358459673551745
-3.9035,-1.202315898146244,0.7968378380778709
-3.903,-0.7114878546928423,0.1504428953626575
-3.9025,-0.2633405106701714,-0.3052125560595421
-3.902,0.04609456020262521,-0.5383386009732256
-3.9015,0.2168173579255475,-0.5807251545938954
-3.901,0.2808384070716433,-0.5065486857577234
-3.9005,0.291508581929326,-0.3899856633008816
-3.9,0.2701682322139607,-0.252229364033705
-3.8995,0.2274875327832301,-0.08268314955102604
-3.899,0.1848068333524996,0.07626642652648545
-3.8985,0.1527963087794516,0.2564092794143318
-3.898,-0.08194753808956648,0.5319218779486851
-3.8975,-0.7434983792658902,0.9345941373450475
-3.897,-1.490410619303675,1.273686566310405
-3.8965,-2.055929886760855,1.37965295036208
-3.896,-1.341028171296118,0.7226613692416989
-3.8955,-0.3487019095316325,0.06566978812131802
-3.895,0.3448594562177392,-0.4429688553267188
-3.8945,0.6649647019482183,-0.7502713690765743
-3.894,0.7396559259519968,-0.8774310299385835
-3.8935,0.6863050516635838,-0.8880276683437509
-3.893,0.5582629533713921,-0.8032545611024114
-3.8925,0.5049120790829789,-0.7396747306714069
-3.892,0.6542945270905358,-0.8350444763179138
-3.8915,0.6116138276598051,-0.6972881770507372
-3.891,0.4835717293676135,-0.474758770542221
-3.8905,0.3768699807907871,-0.252229364033705
-3.89,0.291508581929326,-0.08268314955102604
-3.8895,0.4835717293676135,0.08686306493165288
-3.889,0.9530594231056497,0.4153588554918433
-3.8885,0.4515612047945656,0.8710143069140429
-3.888,-0.4767440078238243,1.061753798207057
-3.8875,-1.277007122150022,0.9981739677760521
-3.887,-1.426389570157579,0.7650479228623686
