Class_4_Move_right_hand_Horiszontal/Class_4_Move_right_hand_horizontal_Basim_8.csv

#Digilent WaveForms Oscilloscope Acquisition
#Device Name: EExplorer
#Serial Number: SN:210151A2B84A
#Date Time: 2020-12-16 09:16:17.989
#Sample rate: 2000Hz
#Samples: 16384
#Trigger: Source: Channel 1 Type: Edge Condition: Rising Level: 0 V Hyst.: Auto HoldOff: 0 s
#Channel 1: Range: 1 V/div Offset: 0 V Attenuation: 1 X
#Channel 2: Range: 1 V/div Offset: 0 V Attenuation: 1 X
#Power Supplies: ON
#Fixed Supply: ON
#Voltage: 3.3 V Readback: 3.319 V
#Positive Supply: ON
#Voltage: 3.7 V Readback: 3.719 V
#Current: 40 mA Readback: 20 mA
#Negative Supply: ON
#Voltage: -3.7 V Readback: -3.361 V
#Current: -40 mA Readback: -7 mA
#Reference 1: ON
#Voltage: 0 V
#Reference 2: ON
#Voltage: 0 V

Time (s),Channel 1 (V),Channel 2 (V)
-4.096,0.1848068333524996,-0.2098428104130352
-4.0955,0.4515612047943229,-0.5383386009729269
-4.095,0.5582629533714017,-0.6549016234300771
-4.0945,0.5689331282290746,-0.6654982618352349
-4.094,0.5475927785137288,-0.6231117082146036
-4.0935,0.5369226036561334,-0.5595318777835894
-4.093,0.6542945270905358,-0.5913217929990628
-4.0925,0.6649647019482087,-0.4217755785165381
-4.092,0.5902734779443622,-0.1992461720076943
-4.0915,0.5049120790829789,-0.008506680714854012
-4.091,0.4515612047945656,0.1292496185523226
-4.0905,0.2274875327825799,0.3093924714405641
-4.09,-0.4874141826815069,0.7438546460520338
-4.0895,-1.255666772434657,1.146526905448396
-4.089,-1.746494815887612,1.400846227172183
-4.0885,-1.67180359188428,1.241896651094903
-4.088,-1.010252750707956,0.5107286011383502
-4.0875,-0.3807124341052529,-0.2416327256278533
-4.087,0.08877525963358869,-0.760868007481973
-4.0865,0.3448594562177392,-1.01518732920576
-4.086,0.4622313796521414,-1.068170521231549
-4.0855,0.4835717293676038,-1.004590690800467
-4.085,0.4729015545099309,-0.8668343915334161
-4.0845,0.4408910299369121,-0.7078848154560491
-4.084,0.4195506802215079,-0.5383386009730811
-4.0835,0.408880505363835,-0.3793890248957141
-4.083,0.3982103305061524,-0.2310360872233701
-4.0825,0.387540155648198,-0.10387642636112
-4.082,0.08877525963335578,0.1610395337678249
-4.0815,-0.4980843575391895,0.6802748156210291
-4.081,-0.9035510021307611,1.146526905447972
-4.0805,-1.116954499284783,1.188913459069066
-4.08,-0.7008176798351597,0.6166949851900245
-4.0795,-0.1566387620938399,0.00208995769087239
-4.079,0.2488278824988089,-0.3899856633010358
-4.0785,0.4835717293676135,-0.5595318777835605
-4.078,0.568933128228997,-0.5489352393784027
-4.0775,0.5689331282290552,-0.4747587705421632
-4.077,0.5475927785137094,-0.4111789401112165
-4.0765,0.5262524287983635,-0.3370024712751119
-4.076,0.50491207908294,-0.2098428104128907
-4.0755,0.4622313796522482,-0.05089323433552374
-4.075,0.4302208550792003,0.06566978812131802
-4.0745,0.41955068022144,0.1504428953627346
-4.074,0.3341892813600565,0.2352160026039969
-4.0735,-0.2206598112394408,0.5955017083796896
-4.073,-1.020922925564911,1.029963882991159
-4.0725,-1.714484291315011,1.33726639674141
-4.072,-2.023919362187807,1.390249588767247
-4.0715,-1.41571939530045,0.8074344764835684
-4.071,-0.6688071552615877,0.01268659609492187
-4.0705,-0.09261771294724913,-0.6019184314042303
-4.07,0.2594980573559578,-0.9622041371795953
-4.0695,0.4408910299369315,-1.078767159636745
-4.069,0.4942419042252961,-1.05757388282643
-4.0685,0.4835717293676135,-0.9410108603695881
-4.068,0.4622313796522288,-0.782061284291932
-4.0675,0.4408910299368829,-0.6231117082145651
-4.067,0.4195506802215176,-0.4535654937318862
-4.0665,0.4088805053638253,-0.3052125560594072
-4.066,0.3982103305061524,-0.1568596183871981
-4.0655,0.3128489316446912,0.02328323450064829
-4.065,-0.1032878878045533,0.4789386859224335
-4.0645,-0.6688071552621118,0.9875773293708847
-4.064,-1.074273799854052,1.273686566310405
-4.0635,-0.9035510021312851,0.8604176685092513
-4.063,-0.3593720843888688,0.2352160026035536
-4.0625,0.1314559590640864,-0.252229364033705
-4.062,0.4302208550789286,-0.5065486857574921
-4.0615,0.5582629533714115,-0.5701285161886894
-4.061,0.5796033030867573,-0.5277419625680583
-4.0605,0.5582629533713921,-0.4535654937318862
-4.06,0.5369226036560363,-0.3370024712748999
-4.0595,0.5475927785137094,-0.1780528951975329
-4.059,0.5155822539406614,-0.04029659593035631
-4.0585,0.4729015545099697,0.07626642652637944
-4.058,0.4408910299368829,0.1504428953626575
-4.0575,0.408880505363835,0.1928294489833272
-4.057,0.06743490991830103,0.4153588554916409
-4.0565,-0.6794773301197943,0.8392243916985406
-4.056,-1.191645723288561,1.210106735879401
-4.0555,-1.458400094730385,1.411442865577399
-4.055,-1.2876772970072,1.093543713421856
-4.0545,-0.7328282044082075,0.3199891098453364
-4.054,-0.1993194615245608,-0.3899856633002359
-4.0535,0.1741366584950013,-0.8456411147232643
-4.053,0.3768699807907871,-1.046977244421262
-4.0525,0.4622313796522482,-1.068170521231597
-4.052,0.4729015545099212,-0.9833974139901229
-4.0515,0.4622313796522482,-0.8350444763179138
-4.051,0.4302208550792003,-0.6760949002404023
-4.0505,0.4195506802215274,-0.5065486857578776
-4.05,0.408880505363835,-0.3475991096802118
-4.0495,0.3982103305061524,-0.1992461720078678
-4.049,0.3555296310754606,-0.05089323433565865
-4.0485,-0.1139580626632258,0.3623756634664784
-4.048,-0.7861790786966207,0.8816109453192104
-4.0475,-1.458400094730016,1.284283204715207
-4.047,-1.522421143876121,1.082947075016814
-4.0465,-0.8608703027003992,0.4471487707073456
-4.046,-0.1779791118093312,-0.1250697031711753
-4.0455,0.2808384070718568,-0.4535654937319826
-4.045,0.5155822539406614,-0.5595318777835605
-4.0445,0.5796033030867573,-0.5489352393783931
-4.044,0.5689331282290552,-0.4747587705421825
-4.0435,0.5475927785137094,-0.4323722169215513
-4.043,0.6436243522328531,-0.5171453241628908
-4.0425,0.6542945270905262,-0.4111789401113128
-4.042,0.5796033030867573,-0.1992461720078678
-4.0415,0.5049120790829789,-0.008506680714854012
-4.041,0.4515612047946141,0.1292496185521974
-4.0405,0.2808384070710319,0.28819919463021
-4.04,-0.391382608962363,0.701468092431364
-4.0395,-1.138294848999469,1.114736990232518
-4.039,-1.490410619303607,1.390249588767132
-4.0385,-1.415719395299897,1.263089927905238
-4.038,-0.8715404775585769,0.5531151547596657
-4.0375,-0.3060212101005235,-0.1992461720083401
-4.037,0.1101156093487211,-0.718481453861072
-4.0365,0.3448594562177392,-0.9939940523954253
-4.036,0.451561204794585,-1.057573882826372
-4.0355,0.4729015545099309,-0.9939940523954253
-4.035,0.4622313796522482,-0.8774310299385835
-4.0345,0.4408910299369024,-0.7184814538612165
-4.034,0.4195506802215176,-0.5595318777835605
-4.0335,0.408880505363835,-0.400582301706049
-4.033,0.3982103305061621,-0.2628260024389977
-4.0325,0.3982103305058904,-0.1356663415766415
-4.032,0.1101156093487211,0.1080563417419877
-4.0315,-0.6261264558307117,0.6272916235947197
-4.031,-1.25566677243489,1.114736990232981
-4.0305,-1.51175096901904,1.210106735879401
-4.03,-1.010252750708412,0.6378882620008799
-4.0295,-0.3166913849580993,0.01268659609512426
-4.029,0.2168173579255475,-0.3793890248957141
-4.0285,0.5155822539406614,-0.5277419625680583
-4.028,0.6222840025174782,-0.5065486857576655
-4.0275,0.6116138276598051,-0.4429688553267188
-4.027,0.5796033030867573,-0.3581957480853793
-4.0265,0.5475927785137384,-0.2628260024389591
-4.026,0.5155822539406614,-0.1568596183871981
-4.0255,0.4729015545099309,-0.01910331912002144
-4.025,0.4408910299369121,0.0868630649315565
-4.0245,0.4195506802214594,0.161039533767902
-4.024,0.3555296310754218,0.2458126410091644
-4.0235,-0.1993194615235709,0.5849050699742138
-4.023,-0.9675720512776332,1.008770606181509
-4.0225,-1.415719395299897,1.326669758336243
-4.022,-1.575772018164991,1.443232780792979
-4.0215,-1.212986073003383,0.95578741415465
-4.021,-0.6154562809736985,0.1504428953626575
-4.0205,-0.09261771294724913,-0.5171453241628908
-4.02,0.238157707641068,-0.9092209451542304
-4.0195,0.408880505363835,-1.068170521231597
-4.019,0.4729015545099309,-1.05757388282643
-4.0185,0.4729015545099309,-0.9516074987748518
-4.018,0.4622313796522482,-0.8032545611024114
-4.0175,0.4408910299368829,-0.6337083466197325
-4.017,0.4195506802215371,-0.4641621321372078
-4.0165,0.408880505363835,-0.3052125560594072
-4.016,0.408880505363835,-0.1568596183871981
-4.0155,0.3448594562177974,0.02328323450048445
-4.015,-0.007256314086147053,0.4789386859233105
-4.0145,-0.4020527838200457,0.9875773293708847
-4.014,-0.690147504977215,1.284283204715303
-4.0135,-0.4767440078234167,0.7862411996720384
-4.013,-0.02859666380115328,0.05507314971615059
-4.0125,0.3021787567870086,-0.4217755785163839
-4.012,0.4942419042253544,-0.6125150698094458
-4.0115,0.5582629533713921,-0.6654982618352349
-4.011,0.5582629533713921,-0.5807251545938954
-4.0105,0.5262524287983732,-0.4217755785165285
-4.01,0.5262524287983441,-0.2310360872233701
-4.0095,0.5689331282290746,-0.1356663415768632
-4.009,0.5475927785137288,-0.04029659593044305
-4.0085,0.5049120790829303,0.06566978812138548
-4.008,0.4515612047945656,0.13984625695749
-4.0075,0.4195506802215467,0.1822328105781212
-4.007,0.1101156093480515,0.3199891098457123
-4.0065,-0.6261264558313813,0.7332580076468663
-4.006,-1.212986073003927,1.135930267043229
-4.0055,-1.469070269588116,1.3796529503618
-4.005,-1.255666772434657,1.072350436612224
-4.0045,-0.7008176798351597,0.309392471440169
-4.004,-0.1779791118083803,-0.3793890248961285
-4.0035,0.1848068333524996,-0.8350444763179138
-4.003,0.3768699807907871,-1.036380606016095
-4.0025,0.4622313796521705,-1.068170521231568
-4.002,0.4729015545099309,-0.9833974139902578
-4.0015,0.4622313796522482,-0.8456411147230812
-4.001,0.4408910299369024,-0.6972881770508721
-4.0005,0.4195506802215079,-0.5383386009730811
-4,0.408880505363835,-0.3793890248957141
-3.9995,0.3982103305061524,-0.2416327256285375
-3.999,0.3661998059331045,-0.09327978795619347
-3.9985,-0.1032878878049318,0.2670059178194992
-3.998,-0.8181896032696687,0.8074344764830383
-3.9975,-1.159635198715513,1.241896651094903
-3.997,-1.042263275281004,1.104140351827727
-3.9965,-0.4980843575391895,0.4471487707073456
-3.996,0.03542438534494258,-0.1356663415768632
-3.9955,0.3768699807907871,-0.4535654937318862
-3.995,0.5369226036560266,-0.5807251545938954
-3.9945,0.5796033030867573,-0.5277419625680583
-3.994,0.5689331282290746,-0.3899856633008816
-3.9935,0.5369226036560266,-0.3158091944647096
-3.993,0.6329541773751706,-0.3581957480853793
-3.9925,0.6436243522328531,-0.2734226408440398
-3.992,0.5796033030867573,-0.1038764263613609
-3.9915,0.5049120790829789,0.05507314971615059
-3.991,0.4408910299368829,0.1610395337678249
-3.9905,0.3128489316446912,0.2881991946298341
-3.99,-0.3060212101009019,0.6696781772158616
-3.9895,-1.06360362499637,1.072350436612224
-3.989,-1.629122892453549,1.358459673551745
-3.9885,-1.746494815888059,1.29487984312074
-3.988,-1.138294849000148,0.6060983467848571
-3.9875,-0.4874141826815069,-0.1674562567923655
-3.987,0.01408403562957729,-0.7396747306714069
-3.9865,0.3128489316446912,-1.036380606016095
-3.986,0.4408910299368829,-1.131750351662602
-3.9855,0.4835717293676135,-1.089363798041932
-3.985,0.4729015545099309,-0.9622041371799229
-3.9845,0.4515612047945656,-0.8032545611024114
-3.984,0.4302208550792003,-0.6337083466197325
-3.9835,0.408880505363835,-0.474758770542221
-3.983,0.3982103305061524,-0.3158091944647096
-3.9825,0.3982103305061524,-0.1780528951975329
-3.982,0.1634664836371343,0.06566978812131802
-3.9815,-0.4980843575391895,0.5849050699745222
-3.981,-0.9995825758502737,1.082947075017392
-3.9805,-1.095614149569417,1.284283204715573
-3.98,-0.6367966306890638,0.7862411996727035
-3.9795,-0.08194753808956648,0.13984625695749
-3.979,0.3128489316446912,-0.2840192792492073
-3.9785,0.5155822539406614,-0.474758770542221
-3.978,0.5796033030867573,-0.5065486857577234
-3.9775,0.5796033030867573,-0.4641621321370536
-3.977,0.5369226036560266,-0.3899856633008816
-3.9765,0.5582629533713921,-0.3052125560595421
-3.976,0.5689331282290746,-0.1250697031716958
-3.9755,0.5262524287983441,0.03387987290581572
-3.975,0.4835717293676135,0.1504428953626575
-3.9745,0.4408910299368829,0.2140227257936621
-3.974,0.3768699807907871,0.2670059178194992
-3.9735,-0.1032878878049318,0.55311515475902
-3.973,-0.8928808272734472,0.9663840525605498
-3.9725,-1.565101843307454,1.284283204715573
-3.972,-1.87453691418025,1.390249588767247
-3.9715,-1.405049220442214,0.8816109453192104
-3.971,-0.7114878546928423,0.08686306493165288
-3.9705,-0.1352984123779797,-0.570128516188728
-3.97,0.2274875327832301,-0.9622041371799229
-3.9695,0.4195506802215176,-1.121153713257435
-3.969,0.4835717293676135,-1.110557074852267
-3.9685,0.4835717293676135,-1.004590690800593
-3.968,0.4622313796522482,-0.8562377531282487
-3.9675,0.4302208550792003,-0.6972881770507372
-3.967,0.4195506802215176,-0.5171453241628908
-3.9665,0.3982103305061524,-0.3581957480853793
-3.966,0.3982103305061524,-0.2098428104130352
-3.9655,0.3021787567870086,-0.04029659593035631
-3.965,-0.2313299860971235,0.4047622170866759
-3.9645,-0.7648387289812555,0.9345941373450475
-3.964,-1.052933450138687,1.284283204715573
-3.9635,-0.9142211769888124,0.9663840525605498
-3.963,-0.3700422592469978,0.3517790250608387
-3.9625,0.1314559590640864,-0.1674562567923655
-3.962,0.4408910299368829,-0.4429688553267188
-3.9615,0.5796033030867573,-0.5489352393783931
-3.961,0.5902734779444399,-0.5277419625680583
-3.9605,0.5689331282290746,-0.4535654937318862
-3.96,0.5155822539406614,-0.3370024712750445
-3.9595,0.4729015545099309,-0.1780528951975329
-3.959,0.4302208550792003,-0.008506680714854012
-3.9585,0.408880505363835,0.1186529801471552
-3.958,0.3982103305061524,0.1928294489833272
-3.9575,0.3982103305061524,0.2352160026039969
-3.957,0.1207857842064037,0.4153588554918433
-3.9565,-0.6154562809736985,0.8286277532933731
-3.956,-1.287677297007705,1.199510097474233
-3.9555,-1.597112367880501,1.411442865577582
-3.955,-1.415719395299897,1.146526905448396
-3.9545,-0.807519428411986,0.3729723018711736
-3.954,-0.2420001609548061,-0.3475991096802118
-3.9535,0.1527963087794516,-0.8350444763179138
-3.953,0.3661998059331045,-1.068170521231597
-3.9525,0.4622313796522482,-1.110557074852267
-3.952,0.4729015545099309,-1.025783967610927
-3.9515,0.4622313796522482,-0.8986243067489184
-3.951,0.4408910299368829,-0.7396747306714069
-3.9505,0.4195506802215176,-0.570128516188728
-3.95,0.408880505363835,-0.4111789401112165
-3.9495,0.3982103305061524,-0.2628260024388724
-3.949,0.3768699807907871,-0.1250697031716958
-3.9485,-0.02859666380115328,0.2140227257936621
-3.948,-0.7434983792658902,0.7438546460520338
-3.9475,-1.148965023857831,1.210106735879401
-3.947,-1.127624674142465,1.188913459069066
-3.9465,-0.572775581542968,0.5849050699745222
-3.946,-0.007256314085787988,-0.02969995752518888
-3.9455,0.3661998059331045,-0.4217755785163839
-3.945,0.5475927785137094,-0.5807251545938954
-3.9445,0.6009436528021226,-0.570128516188728
-3.944,0.5796033030867573,-0.4853554089473885
-3.9435,0.5369226036560266,-0.3899856633008816
-3.943,0.5796033030867573,-0.3370024712750445
-3.9425,0.5689331282290746,-0.2204394488182027
-3.942,0.5155822539406614,-0.04029659593035631
-3.9415,0.4622313796522482,0.1080563417419877
-3.941,0.4302208550792003,0.2034260873884947
-3.9405,0.3128489316446912,0.309392471440169
-3.94,-0.2953510352432193,0.6590815388106942
-3.9395,-1.084943974711735,1.072350436612224
-3.939,-1.607782542738184,1.347863035146577
-3.9385,-1.639793067311232,1.29487984312074
-3.938,-1.06360362499637,0.6166949851900245
-3.9375,-0.4340633083930936,-0.1568596183871981
-3.937,0.03542438534494258,-0.7290780922662394
-3.9365,0.3128489316446912,-1.036380606016095
-3.936,0.4515612047945656,-1.131750351662602
-3.9355,0.4835717293676135,-1.089363798041932
-3.935,0.4729015545099309,-0.9622041371799229
-3.9345,0.4515612047945656,-0.8138511995075789
-3.934,0.4302208550792003,-0.6443049850249
-3.9335,0.408880505363835,-0.4853554089473885
-3.933,0.3982103305061524,-0.326405832869877
-3.9325,0.3982103305061524,-0.1886495336027004
-3.932,0.2061471830678648,0.05507314971615059
-3.9315,-0.4980843575391895,0.5743084315693548
-3.931,-1.255666772434657,1.082947075017392
-3.9305,-1.597112367880501,1.273686566310405
-3.93,-1.127624674142465,0.7544512844572011
-3.9295,-0.4127229586777283,0.1186529801471552
-3.929,0.142126133921769,-0.3158091944647096
-3.9285,0.4622313796522482,-0.5171453241628908
-3.928,0.5796033030867573,-0.5383386009732256
-3.9275,0.6009436528021226,-0.4535654937318862
-3.927,0.5689331282290746,-0.326405832869877
-3.9265,0.5582629533713921,-0.2098428104130352
-3.926,0.5689331282290746,-0.09327978795619347
-3.9255,0.5262524287983441,0.04447651131098315
-3.925,0.4729015545099309,0.1716361721729923
-3.9245,0.4408910299368829,0.2458126410091644
-3.924,0.3875401556484697,0.309392471440169
-3.9235,-0.08194753808956648,0.5955017083796896
-3.923,-0.8715404775580819,0.9981739677760521
-3.9225,-1.51175096901904,1.316073119931075
-3.922,-1.735824641030376,1.42203950398275
-3.9215,-1.298347471865388,0.9134008605347127
-3.921,-0.6474668055467465,0.1080563417419877
-3.9205,-0.1032878878049318,-0.5489352393783931
-3.92,0.2381577076409128,-0.9516074987747555
-3.9195,0.4195506802215176,-1.110557074852267
-3.919,0.4729015545099309,-1.0999604364471
-3.9185,0.4835717293676135,-1.004590690800593
-3.918,0.4515612047945656,-0.8562377531282487
-3.9175,0.4302208550792003,-0.6866915386455698
-3.917,0.4195506802215176,-0.5277419625680583
-3.9165,0.408880505363835,-0.3687923864905467
-3.916,0.3982103305061524,-0.2204394488182027
-3.9155,0.3448594562177392,-0.05089323433552374
-3.915,0.02475421048725994,0.3729723018711736
-3.9145,-0.4767440078238243,0.9134008605347127
-3.914,-0.9889124009925911,1.284283204715573
-3.9135,-0.9355615267041777,1.061753798207057
-3.913,-0.4127229586777283,0.4047622170866759
-3.9125,0.07810508477567314,-0.1674562567923655
-3.912,0.3982103305061524,-0.5065486857577234
-3.9115,0.5475927785137094,-0.6337083466197325
-3.911,0.5902734779444399,-0.6125150698093976
-3.9105,0.5582629533713921,-0.4853554089473885
-3.91,0.5369226036560266,-0.3581957480853793
-3.9095,0.5475927785137094,-0.2204394488182027
-3.909,0.5155822539406614,-0.07208651114585861
-3.9085,0.4729015545099309,0.04447651131098315
-3.908,0.4408910299368829,0.1292496185523226
-3.9075,0.408880505363835,0.1928294489833272
-3.907,0.1527963087794516,0.383568940276341
-3.9065,-0.572775581542968,0.7968378380778709
-3.906,-1.330357996438436,1.188913459069066
-3.9055,-1.789175515318789,1.432636142387917
-3.905,-1.639793067311232,1.220703374284568
-3.9045,-0.9569018764195432,0.4789386859228479
-3.904,-0.3273615598162672,-0.252229364033705
-3.9035,0.1101156093487211,-0.7396747306714069
-3.903,0.3555296310754218,-0.9728007755850904
-3.9025,0.4622313796522482,-1.01518732920576
-3.902,0.4835717293676135,-0.9304142219644207
-3.9015,0.4729015545099309,-0.792657922697244
-3.901,0.4408910299368829,-0.6337083466197325
-3.9005,0.4195506802215176,-0.474758770542221
-3.9,0.408880505363835,-0.3158091944647096
-3.8995,0.3982103305061524,-0.1780528951975329
-3.899,0.3875401556484697,-0.05089323433552374
-3.8985,0.0674349099179905,0.2564092794143318
-3.898,-0.4020527838200457,0.7650479228623686
-3.8975,-0.690147504977477,1.210106735879401
-3.897,-0.7328282044082075,1.188913459069066
-3.8965,-0.3487019095316325,0.55311515475902
-3.896,0.08877525963335578,-0.09327978795619347
-3.8955,0.3875401556484697,-0.5171453241628908
-3.895,0.5155822539406614,-0.6866915386455698
-3.8945,0.5582629533713921,-0.6972881770507372
-3.894,0.5369226036560266,-0.6125150698093976
-3.8935,0.5155822539406614,-0.4959520473525559
-3.893,0.5369226036560266,-0.4853554089473885
-3.8925,0.5475927785137094,-0.3899856633008816
-3.892,0.5049120790829789,-0.2098428104130352
-3.8915,0.4622313796522482,-0.02969995752518888
-3.891,0.4302208550792003,0.09745970333682032
-3.8905,0.3235191065023739,0.2458126410091644
-3.89,-0.2633405106701714,0.6378882620003594
-3.8895,-1.052933450138687,1.072350436612224
-3.889,-1.575772018165136,1.37965295036208
-3.8885,-1.618452717595867,1.347863035146577
-3.888,-1.074273799854052,0.701468092431364
-3.8875,-0.4447334832507763,-0.06148987274069118
-3.887,0.02475421048725994,-0.6231117082145651
