Class_4_Move_right_hand_Horiszontal/Class_4_Move_right_hand_Horiszontal_UZ_9.csv

#Digilent WaveForms Oscilloscope Acquisition
#Device Name: EExplorer
#Serial Number: SN:210151A2B84A
#Date Time: 2020-12-21 13:36:57.993
#Sample rate: 2000Hz
#Samples: 16384
#Trigger: Source: Channel 1 Type: Edge Condition: Rising Level: 0 V Hyst.: Auto HoldOff: 0 s
#Channel 1: Range: 1 V/div Offset: 0 V
#Channel 2: Range: 1 V/div Offset: 0 V

Time (s),Channel 1 (V),Channel 2 (V)
-4.0960000000000001,0.88903837395955376,-0.28401927924920728
-4.0955000000000004,0.72898575109445984,-0.59132179299878329
-4.0949999999999998,0.50491207908280422,-0.75027136907659364
-4.0945,0.31284893164469124,-0.77146464588690922
-4.0940000000000003,0.21681735792563483,-0.66549826183533123
-4.0934999999999997,0.20614718306782601,-0.50654868575762702
-4.093,0.16346648363713429,-0.40058230170604903
-4.0925000000000002,0.12078578420644252,-0.29461591765447104
-4.0919999999999996,0.088775259633326664,-0.2098428104129485
-4.0914999999999999,0.05676473506030786,-0.11447306476652835
-4.0910000000000002,-0.08194753808956648,0.0020899576903134209
-4.0904999999999996,-0.65813698040505009,0.23521600260442099
-4.0899999999999999,-1.3410281712961183,0.70146809243136399
-4.0895000000000001,-1.9385579633263461,1.1359302670432285
-4.0890000000000004,-2.4613965313523201,1.4326361423876472
-4.0884999999999998,-2.1946421599107295,1.2313000126897355
-4.0880000000000001,-1.3303579964384356,0.54251851635385251
-4.0875000000000004,-0.64746680554736757,-0.12506970317108856
-4.0869999999999997,-0.18864928666616967,-0.54893523937857613
-4.0865,0.05676473506030786,-0.75027136907657432
-4.0860000000000003,0.16346648363703725,-0.78206128429204769
-4.0854999999999997,0.17413665849479751,-0.70788481545579851
-4.085,0.15279630877945163,-0.59132179299906285
-4.0845000000000002,0.13145595906410576,-0.44296885532685371
-4.0839999999999996,0.1421261339217787,-0.29461591765425904
-4.0834999999999999,0.15279630877945163,-0.1674562567923655
-4.0830000000000002,0.18480683335249956,-0.061489872740691176
-4.0824999999999996,0.48357172936811815,0.21402272579411505
-4.0819999999999999,1.0384208219671107,0.71206473083653143
-4.0815000000000001,0.95305942310564973,1.1571235438535634
-4.0810000000000004,0.48357172936804049,1.4220395039825087
-4.0804999999999998,0.51558225394066137,1.3478630351465775
-4.0800000000000001,0.67563487680590106,0.59550170837968963
-4.0795000000000003,0.7503261008096116,-0.22043944881746058
-4.0789999999999997,0.69697522652112076,-0.77146464588714048
-4.0785,0.53692260365602662,-1.0257839676109275
-4.0780000000000003,0.36619980593325974,-1.0469772444212431
-4.0774999999999997,0.2381577076410098,-0.97280077558507105
-4.077,0.34485945621773917,-0.95160749877475548
-4.0765000000000002,0.38754015564843092,-0.85623775312833539
-4.0759999999999996,0.31284893164459421,-0.64430498502468792
-4.0754999999999999,0.20614718306786484,-0.41117894011121647
-4.0750000000000002,0.12078578420640371,-0.19924617200786782
-4.0744999999999996,0.024754210486871757,0.0020899576906603739
-4.0739999999999998,-0.40205278382004572,0.38356894027634103
-4.0735000000000001,-1.0956141495694174,0.87101430691404291
-4.0730000000000004,-1.6291228924530641,1.2630899279048813
-4.0724999999999998,-1.9812386627570766,1.0193672445863871
-4.0720000000000001,-2.2159825096260946,0.29879583303500157
-4.0715000000000003,-1.6291228924540833,-0.12506970317131022
-4.0709999999999997,-0.93556152670368276,-0.36879238649063351
-4.0705,-0.39138260896236304,-0.4641621321370536
-4.0700000000000003,-0.049937013516829054,-0.45356549373189586
-4.0694999999999997,0.11011560934876959,-0.40058230170599118
-4.069,0.16346648363713429,-0.33700247127504446
-4.0685000000000002,0.16346648363713429,-0.26282600243887239
-4.0679999999999996,0.14212613392174958,-0.20984281041299668
-4.0674999999999999,0.12078578420640371,-0.1674562567923655
-4.0670000000000002,0.13145595906408636,-0.13566634157686319
-4.0664999999999996,0.15279630877950015,-0.11447306476647053
-4.0659999999999998,0.20614718306786484,-0.050893234335523743
-4.0655000000000001,0.47290155450993088,0.29879583303500157
-4.0650000000000004,0.36619980593320151,0.79683783807741793
-4.0644999999999998,-0.049937013516518552,1.0511571598018894
-4.0640000000000001,0.29150858192932599,1.0935437134225592
-4.0635000000000003,0.75032610080926232,0.96638405256066551
-4.0629999999999997,0.94238924824792814,0.27760255622402097
-4.0625,0.8997085488172365,-0.43237221692155131
-4.0620000000000003,0.7076454013791238,-0.93041422196396772
-4.0614999999999997,0.4729015545097659,-1.142346990067779
-4.0609999999999999,0.29150858192932599,-1.1529436284729369
-4.0605000000000002,0.27016823221396069,-1.1741369052832717
-4.0599999999999996,0.31284893164464272,-1.142346990067596
-4.0594999999999999,0.25949805735627807,-0.95160749877475548
-4.0590000000000002,0.18480683335249956,-0.71848145386107198
-4.0585000000000004,0.12078578420646194,-0.49595204735275833
-4.0579999999999998,0.067434909917990504,-0.30521255605954212
-4.0575000000000001,-0.29535103524321932,-0.15685961838719809
-4.0570000000000004,-1.020922925564979,0.19282944898300919
-4.0564999999999998,-1.67180359188428,0.73325800764686633
-4.056,-2.2053123347684123,1.1889134590690658
-4.0555000000000003,-2.3867053073488522,1.3690563119567485
-4.0549999999999997,-1.6504632421682355,0.92399749893929217
-4.0545,-0.90355100213112993,0.27760255622466667
-4.0540000000000003,-0.34870190953213709,-0.2098428104125919
-4.0534999999999997,-0.017926488943334762,-0.47475877054227889
-4.0529999999999999,0.13145595906408636,-0.53833860097322561
-4.0525000000000002,0.17413665849481691,-0.48535540894738849
-4.0519999999999996,0.16346648363711488,-0.37938902489558884
-4.0514999999999999,0.14212613392176898,-0.24163272562853755
-4.0510000000000002,0.13145595906408636,-0.10387642636136091
-4.0505000000000004,0.13145595906408636,0.0020899576902170397
-4.0499999999999998,0.15279630877945163,0.097459703336820316
-4.0495000000000001,0.3768699807907871,0.31998910984533641
-4.0490000000000004,0.99574012253581734,0.74385464605164819
-4.0484999999999998,1.1451225705433064,1.1571235438537755
-4.048,0.45156120479456557,1.3902495887672472
-4.0475000000000003,0.18480683335274217,0.80743447648356836
-4.0469999999999997,0.45156120479476936,-0.072086511146398316
-4.0465,0.67563487680590106,-0.66549826183523486
-4.0460000000000003,0.7503261008096116,-0.95160749877449524
-4.0454999999999997,0.67563487680576517,-0.99399405239536742
-4.0449999999999999,0.52625242879834411,-0.9304142219644207
-4.0445000000000002,0.36619980593310447,-0.85623775312824868
-4.0439999999999996,0.25949805735627807,-0.83504447631803902
-4.0434999999999999,0.25949805735627807,-0.97280077558509037
-4.0430000000000001,0.21681735792554749,-0.91981758355925325
-4.0425000000000004,0.15279630877950987,-0.76086800748188632
-4.0419999999999998,0.099445434491038431,-0.59132179299906285
-4.0415000000000001,0.05676473506030786,-0.43237221692155131
-4.0410000000000004,-0.11395806266245914,-0.29461591765449996
-4.0404999999999998,-0.72215802955120434,-0.029699957524706999
-4.04,-1.46907026958831,0.50013196273318283
-4.0395000000000003,-2.1306211107640318,0.96638405256012572
-4.0389999999999997,-2.514747405641073,1.188913459069008
-4.0385,-2.365364957633652,1.1253336286380615
-4.0380000000000003,-1.5010807941621438,0.574308431569856
-4.0374999999999996,-0.75416855412310713,-0.0085066807152106034
-4.0369999999999999,-0.24200016095480609,-0.40058230170604903
-4.0365000000000002,0.046094560202625215,-0.59132179299906285
-4.0359999999999996,0.16346648363715369,-0.61251506980933013
-4.0354999999999999,0.18480683335249956,-0.53833860097322561
-4.0350000000000001,0.16346648363713429,-0.42177557851638392
-4.0345000000000004,0.14212613392178838,-0.29461591765449036
-4.0339999999999998,0.13145595906408636,-0.17805289519753292
-4.0335000000000001,0.14212613392176898,-0.061489872740691176
-4.0330000000000004,0.18480683335246073,0.033879872905728983
-4.0324999999999998,0.54759277851411692,0.2987958330353967
-4.032,0.99574012253638022,0.73325800764686633
-4.0315000000000003,0.65429452709084635,1.1465269054480201
-4.0309999999999997,0.067434909918058436,1.400846227172357
-4.0305,0.14212613392176898,1.33726639674141
-4.0300000000000002,0.3768699807905736,0.7862411996732046
-4.0294999999999996,0.52625242879839262,0.044476511310395261
-4.0289999999999999,0.57960330308675734,-0.60191843140423029
-4.0285000000000002,0.51558225394066137,-0.91981758355925325
-4.0279999999999996,0.43022085507909358,-1.0045906908006021
-4.0274999999999999,0.31284893164469124,-1.01518732920576
-4.0270000000000001,0.34485945621773917,-1.1105570748522671
-4.0265000000000004,0.33418928136006626,-1.0893637980419515
-4.0259999999999998,0.25949805735627807,-0.89862430674891836
-4.0255000000000001,0.17413665849481691,-0.63370834661973252
-4.0250000000000004,0.1101156093487793,-0.37938902489594545
-4.0244999999999997,0.046094560202256447,-0.12506970317129099
-4.024,-0.35937208438931517,0.31998910984533641
-4.0235000000000003,-0.97824222613434553,0.86041766850838397
-4.0229999999999997,-1.554431668450198,1.2630899279048908
-4.0225,-2.0239193621878071,0.88161094531921036
-4.0220000000000002,-2.2906737336296308,-0.19924617200688488
-4.0214999999999996,-1.6611334170259375,-0.75027136907659364
-4.0209999999999999,-0.93556152670417769,-0.77146464588690922
-4.0205000000000002,-0.39138260896236304,-0.55953187778356051
-4.0199999999999996,-0.039266838658690351,-0.29461591765418194
-4.0194999999999999,0.12078578420640371,-0.082683149551026042
-4.0190000000000001,0.17413665849481691,0.076266426526485451
-4.0185000000000004,0.17413665849481691,0.1822328105780634
-4.0179999999999998,0.15279630877945163,0.23521600260399694
-4.0175000000000001,0.14212613392176898,0.26700591781949923
-4.0170000000000003,0.16346648363711488,0.26700591781949923
-4.0164999999999997,0.20614718306804922,0.25640927941440889
-4.016,0.40888050536383502,0.34118238665567124
-4.0155000000000003,1.0597611716818842,0.69087145402587846
-4.0149999999999997,1.1131120459701711,1.0511571598020146
-4.0145,0.32351910650237387,1.1889134590690658
-4.0140000000000002,0.099445434491242213,0.75445128445759624
-4.0134999999999996,0.28083840707183738,0.076266426525820455
-4.0129999999999999,0.49424190422529612,-0.65490162343006741
-4.0125000000000002,0.59027347794443985,-1.131750351662602
-4.0119999999999996,0.56893312822898723,-1.3224898429557312
-4.0114999999999998,0.47290155450993088,-1.4496495038176249
-4.0110000000000001,0.35552963107542179,-1.5132293342486296
-4.0105000000000004,0.23815770764101951,-1.5450192494641031
-4.0099999999999998,0.16346648363713429,-1.4920360574382947
-4.0095000000000001,0.11011560934872107,-1.2589100125246109
-4.0090000000000003,0.078105084775702258,-0.9833974139905084
-4.0084999999999997,0.067434909917971089,-0.69728817705049628
-4.008,0.046094560202625215,-0.43237221692155131
-4.0075000000000003,-0.34870190953127345,-0.008506680715239523
-4.0069999999999997,-1.0742737998546539,0.59550170838017147
-4.0065,-1.7358246410303759,1.1253336286380615
-4.0060000000000002,-2.3760351324913342,1.4644260576034194
-4.0054999999999996,-2.5254175804984738,1.6021823568702487
-4.0049999999999999,-2.0666000616185376,1.2207033742845681
-4.0045000000000002,-1.1596351987155133,0.54251851635385251
-4.0039999999999996,-0.5087545323964936,0.023283234500416986
-4.0034999999999998,-0.092617712947249131,-0.2310360872233701
-4.0030000000000001,0.12078578420640371,-0.26282600243887239
-4.0025000000000004,0.18480683335244133,-0.15685961838729445
-4.0019999999999998,0.18480683335249956,0.012686596095480854
-4.0015000000000001,0.16346648363713429,0.19282944898332721
-4.0010000000000003,0.14212613392178838,0.36237566346585193
-4.0004999999999997,0.13145595906410576,0.50013196273325988
-4,0.15279630877945163,0.58490506997452218
-3.9994999999999998,0.21681735792554749,0.68027481562102909
-3.9990000000000001,0.49424190422529612,0.87101430691404291
-3.9984999999999999,0.73965592595199681,1.146526905448396
-3.9980000000000002,0.21681735792554749,1.3796529503620798
-3.9975000000000001,-0.06060718837420119,1.0299638829915545
-3.9969999999999999,0.18480683335249956,0.38356894027634103
-3.9965000000000002,0.47290155450993088,-0.30521255605954212
-3.996,0.60094365280212259,-0.82444783791274634
-3.9954999999999998,0.57960330308675734,-1.2165234589039415
-3.9950000000000001,0.4622313796522482,-1.4178595886021226
-3.9944999999999999,0.34485945621773917,-1.4390528654124575
-3.9940000000000002,0.27016823221396069,-1.42845622700729
-3.9935,0.33418928136005654,-1.523825972653797
-3.9929999999999999,0.31284893164469124,-1.4178595886021226
-3.9925000000000002,0.22748753278323011,-1.1953301820936066
-3.992,0.15279630877945163,-0.95160749877475548
-3.9914999999999998,0.099445434491038431,-0.71848145386107198
-3.9910000000000001,-0.049937013516518552,-0.44296885532671876
-3.9904999999999999,-0.6047861061160158,0.12924961855232261
-3.9900000000000002,-1.2876772970077051,0.775644561267536
-3.9895,-1.8745369141802501,1.1783168206638983
-3.9889999999999999,-2.386705307349017,0.98757732937088472
-3.9885000000000002,-2.3120140833452387,0.80743447648303834
-3.988,-1.4797404444459925,0.38356894027634103
-3.9874999999999998,-0.75416855412357298,-0.0085066807148540119
-3.9870000000000001,-0.25267033581248871,-0.24163272562853755
-3.9864999999999999,0.046094560202625215,-0.28401927924920728
-3.9860000000000002,0.16346648363713429,-0.22043944881820265
-3.9855,0.19547700821018218,-0.093279787956193475
-3.9849999999999999,0.17413665849481691,0.044476511310983152
-3.9845000000000002,0.15279630877945163,0.17163617217299235
-3.984,0.14212613392176898,0.28819919462983412
-3.9834999999999998,0.15279630877945163,0.37297230187117358
-3.9830000000000001,0.17413665849481691,0.41535885549184332
-3.9824999999999999,0.47290155450993088,0.58490506997452218
-3.9820000000000002,0.96372959796333246,0.94519077575021493
-3.9815,0.69697522652126631,1.2630899279052379
-3.9809999999999999,0.024754210487259936,1.4750226960085864
-3.9805000000000001,0.11011560934872107,1.5280058880344236
-3.98,0.47290155450993088,1.0299638829915545
-3.9794999999999998,0.72898575109431429,0.2246193641988295
-3.9790000000000001,0.77166645052504479,-0.54893523937839306
-3.9784999999999999,0.65429452709053582,-1.0999604364470996
-3.9780000000000002,0.50491207908297886,-1.333086481360783
-3.9775,0.34485945621773917,-1.3542797581711179
-3.9769999999999999,0.38754015564846972,-1.4178595886021226
-3.9765000000000001,0.40888050536383502,-1.3436831197659505
-3.976,0.32351910650237387,-1.1105570748522671
-3.9754999999999998,0.21681735792554749,-0.81385119950757889
-3.9750000000000001,0.14212613392176898,-0.52774196256805828
-3.9744999999999999,0.024754210487259936,-0.3581957480853793
-3.9740000000000002,-0.50875453239687207,-0.53833860097322561
-3.9735,-1.1916457232885611,-0.59132179299906285
-3.9729999999999999,-1.8852070890379329,-0.29461591765437467
-3.9725000000000001,-2.4613965313527957,0.23521600260399694
-3.972,-2.5147474056412089,0.775644561267536
-3.9714999999999998,-1.9598983130417114,0.73325800764686633
-3.9710000000000001,-1.0742737998540521,0.31998910984533641
-3.9704999999999999,-0.43406330839309365,-0.093279787956193475
-3.9700000000000002,-0.049937013516518552,-0.37938902489571413
-3.9695,0.14212613392176898,-0.51714532416289083
-3.9689999999999999,0.19547700821018218,-0.54893523937839306
-3.9685000000000001,0.19547700821018218,-0.51714532416289083
-3.968,0.16346648363713429,-0.4535654937318862
-3.9674999999999998,0.14212613392176898,-0.37938902489571413
-3.9670000000000001,0.15279630877945163,-0.29461591765437467
-3.9664999999999999,0.22748753278323011,-0.1674562567923655
-3.9660000000000002,0.4622313796522482,0.065669788121318018
-3.9655,0.99574012253638022,0.54251851635385251
-3.9649999999999999,0.76099627566736228,1.0299638829915545
-3.9645000000000001,-0.0072563140857879876,1.3478630351465775
-3.964,-0.10328788780493176,1.4008462271724147
-3.9634999999999998,0.25949805735627807,1.146526905448396
-3.9630000000000001,0.57960330308675734,0.36237566346600614
-3.9624999999999999,0.72898575109431429,-0.42177557851638392
-3.9620000000000002,0.69697522652126631,-0.9092209451540858
-3.9615,0.55826295337139209,-1.1423469900677694
-3.9609999999999999,0.3982103305061524,-1.1847335436884392
-3.9605000000000001,0.28083840707164331,-1.1423469900677694
-3.96,0.22748753278323011,-1.0787671596367647
-3.9594999999999998,0.17413665849481691,-0.84564111472308123
-3.9590000000000001,0.13145595906408636,-0.55953187778356051
-3.9584999999999999,0.099445434491038431,-0.28401927924920728
-3.9580000000000002,0.05676473506030786,-0.061489872740691176
-3.9575,-0.20998963638175816,0.11865298014715518
-3.9569999999999999,-0.86087030270039921,0.45774540911251305
-3.9565000000000001,-1.554431668449771,0.9134008605347127
-3.956,-2.0772702364762203,1.0405605213967219
-3.9554999999999998,-2.4613965313527957,0.64848490040552687
-3.9550000000000001,-2.2800035587721905,0.50013196273318283
-3.9544999999999999,-1.4157193952998968,0.13984625695749003
-3.9540000000000002,-0.70081767983515975,-0.22043944881820265
-3.9535,-0.20998963638175816,-0.4535654937318862
-3.9529999999999998,0.067434909917990504,-0.53833860097322561
-3.9525000000000001,0.18480683335249956,-0.52774196256805828
-3.952,0.20614718306786484,-0.4641621321370536
-3.9514999999999998,0.18480683335249956,-0.36879238649054674
-3.9510000000000001,0.16346648363713429,-0.26282600243887239
-3.9504999999999999,0.15279630877945163,-0.1674562567923655
-3.9500000000000002,0.16346648363713429,-0.082683149551026042
-3.9495,0.22748753278323011,0.012686596095480854
-3.9489999999999998,0.76099627566736228,0.38356894027634103
-3.9485000000000001,1.1024418711132067,0.87101430691404291
-3.948,0.50491207908297886,1.2524932895000704
-3.9474999999999998,0.067434909917990504,1.3160731199310751
-3.9470000000000001,0.20614718306786484,0.82862775329337313
-3.9464999999999999,0.44089102993688295,0.065669788121318018
-3.9460000000000002,0.59027347794443985,-0.55953187778356051
-3.9455,0.6116138276598051,-0.94101086036958814
-3.9449999999999998,0.50491207908297886,-1.1105570748522671
-3.9445000000000001,0.36619980593310447,-1.1105570748522671
-3.944,0.27016823221396069,-1.0257839676109275
-3.9434999999999998,0.40888050536383502,-1.0999604364470996
-3.9430000000000001,0.41955068022151765,-0.99399405239542526
-3.9424999999999999,0.33418928136005654,-0.73967473067140688
-3.9420000000000002,0.22748753278323011,-0.4641621321370536
-3.9415,0.14212613392176898,-0.2310360872233701
-3.9409999999999998,0.014084035629577295,0.023283234500648287
-3.9405000000000001,-0.48741418268150688,0.51072860113835017
-3.9399999999999999,-1.1916457232885611,1.0087706061812196
-3.9394999999999998,-1.8318562147495197,1.3796529503620798
-3.9390000000000001,-2.4080456570643824,1.5915857184654283
-3.9384999999999999,-2.2800035587721905,1.4220395039827496
-3.9380000000000002,-1.4157193952998968,0.74385464605203377
-3.9375,-0.70081767983515975,0.065669788121318018
-3.9369999999999998,-0.20998963638175816,-0.36879238649054674
-3.9365000000000001,0.067434909917990504,-0.54893523937839306
-3.9359999999999999,0.18480683335249956,-0.53833860097322561
-3.9355000000000002,0.20614718306786484,-0.43237221692155131
-3.9350000000000001,0.18480683335249956,-0.27342264084403983
-3.9344999999999999,0.15279630877945163,-0.11447306476652835
-3.9340000000000002,0.14212613392176898,0.023283234500648287
-3.9335,0.15279630877945163,0.15044289536265748
-3.9329999999999998,0.18480683335249956,0.25640927941433178
-3.9325000000000001,0.53692260365602662,0.50013196273318283
-3.9319999999999999,0.97439977282101498,0.88161094531921036
-3.9315000000000002,0.54759277851370936,1.2207033742845681
-3.931,-0.19931946152407554,1.432636142387917
-3.9304999999999999,-0.14596858723566233,1.432636142387917
-3.9300000000000002,0.21681735792554749,0.95578741415538238
-3.9295,0.50491207908297886,0.18223281057815977
-3.9289999999999998,0.6116138276598051,-0.49595204735255594
-3.9285000000000001,0.57960330308675734,-0.91981758355925325
