Class_4_Move_right_hand_Horiszontal/Class_4_Move_Right_hand_Horizontal_Turki_4.csv

#Digilent WaveForms Oscilloscope Acquisition
#Device Name: EExplorer
#Serial Number: SN:210151A2B84A
#Date Time: 2020-11-18 11:30:49.766
#Sample rate: 2000Hz
#Samples: 16384
#Trigger: Source: Channel 1 Type: Edge Condition: Rising Level: 0 V Hyst.: Auto HoldOff: 0 s
#Channel 1: Range: 1 V/div Offset: 0 V Attenuation: 1 X
#Channel 2: Range: 1 V/div Offset: 0 V Attenuation: 1 X
#Power Supplies: ON
#Fixed Supply: ON
#Voltage: 3.3 V Readback: 3.333 V
#Positive Supply: ON
#Voltage: 3.7 V Readback: 3.719 V
#Current: 500 mA Readback: 20 mA
#Negative Supply: ON
#Voltage: -3.7 V Readback: -3.709 V
#Current: -500 mA Readback: -5 mA
#Reference 1: ON
#Voltage: 0 V
#Reference 2: ON
#Voltage: 0 V

Time (s),Channel 1 (V),Channel 2 (V)
-4.096,0.3341892813600565,0.2987958330350016
-4.0955,0.3128489316447107,0.2564092794143703
-4.095,0.2915085819293163,0.2458126410091644
-4.0945,0.2808384070716433,0.2458126410091644
-4.094,0.2701682322139704,0.2776025562246378
-4.0935,0.1954770082096678,0.2246193641983283
-4.093,-0.3700422592469978,-0.326405832869877
-4.0925,-1.084943974711085,-1.057573882825765
-4.092,-1.575772018165146,-1.598002441489892
-4.0915,-1.586442193022819,-1.51322933424863
-4.091,-1.052933450138687,-0.8032545611024114
-4.0905,-0.3593720843888688,-0.0402965959298166
-4.09,0.1314559590640864,0.55311515475902
-4.0895,0.3982103305061524,0.9028042221295453
-4.089,0.5155822539405546,1.019367244586281
-4.0885,0.5262524287983441,1.040560521396722
-4.088,0.4942419042252961,1.00877060618122
-4.0875,0.4835717293676232,0.9769806909657461
-4.087,0.4729015545099018,0.9239974989398319
-4.0865,0.4408910299368829,0.8710143069140429
-4.086,0.3982103305061912,0.818031114888254
-4.0855,0.3661998059332597,0.7650479228625613
-4.085,0.5369226036560266,0.9769806909657173
-4.0845,0.9637295979629443,1.379652950361714
-4.084,0.6542945270897692,0.8286277532924383
-4.0835,-0.1886492866663929,-0.1992461720078678
-4.083,-0.5194247072545548,-0.6231117082145651
-4.0825,-0.3913826089621398,-0.4323722169212429
-4.082,-0.1459685872356623,-0.09327978795619347
-4.0815,0.0674349099179905,0.1928294489833272
-4.081,0.2168173579254116,0.3835689402761676
-4.0805,0.291508581929326,0.4789386859228479
-4.08,0.3235191065023739,0.5107286011383502
-4.0795,0.3235191065023739,0.5107286011383502
-4.079,0.3128489316446718,0.5107286011383405
-4.0785,0.291508581929326,0.5001319627331828
-4.078,0.280838407071653,0.5107286011383405
-4.0775,0.2701682322139219,0.5213252395435176
-4.077,0.2274875327832301,0.5213252395435176
-4.0765,-0.263340510669725,0.08686306493204798
-4.076,-0.8928808272736607,-0.7290780922668851
-4.0755,-1.127624674142465,-1.439052865412457
-4.075,-1.116954499284783,-1.545019249464132
-4.0745,-0.6901475049769724,-0.9516074987741194
-4.074,-0.1352984123779797,-0.252229364033705
-4.0735,0.291508581929326,0.2776025562246667
-4.073,0.5049120790827848,0.5955017083794005
-4.0725,0.5796033030867573,0.775644561267536
-4.072,0.5796033030867573,0.775644561267536
-4.0715,0.5369226036560655,0.7438546460520626
-4.071,0.6542945270905358,0.6060983467848667
-4.0705,0.6542945270905358,0.6166949851900245
-4.07,0.5582629533714795,0.7120647308364447
-4.0695,0.4515612047944976,0.7968378380779191
-4.069,0.3768699807907871,0.849821030103708
-4.0685,0.4835717293676135,0.9028042221295453
-4.068,0.9637295979631771,1.252493289499858
-4.0675,0.79300680024041,1.019367244586387
-4.067,0.142126133921769,0.01268659609548085
-4.0665,-0.5621054066854018,-0.9092209451541629
-4.066,-0.690147504977477,-0.9939940523954253
-4.0655,-0.4554036581084589,-0.5913217929990628
-4.065,-0.1459685872359438,-0.1356663415772776
-4.0645,0.08877525963335578,0.1928294489833272
-4.064,0.2381577076409128,0.3729723018711736
-4.0635,0.3021787567869504,0.4471487707072782
-4.063,0.3235191065023739,0.4577454091124841
-4.0625,0.3235191065023739,0.4259554938970107
-4.062,0.312848931644701,0.4047622170866951
-4.0615,0.2915085819293163,0.3941655786815084
-4.061,0.2808384070716433,0.3941655786815084
-4.0605,0.2701682322139607,0.4047622170866759
-4.06,0.02475421048677471,0.1928294489826815
-4.0595,-0.5087545323968721,-0.5171453241628908
-4.059,-0.7968492535543035,-1.269506650929778
-4.0585,-0.8822106524156869,-1.672178910325775
-4.058,-0.5941159312583333,-1.227120097309109
-4.0575,-0.1032878878049318,-0.5171453241628908
-4.057,0.3021787567866399,0.07626642652594573
-4.0565,0.5049120790829789,0.4365521323021782
-4.056,0.5582629533713921,0.627291623595192
-4.0555,0.536922603656046,0.73325800764677
-4.055,0.4729015545100085,0.8074344764829516
-4.0545,0.5582629533713921,0.7120647308365314
-4.054,0.6436243522327755,0.6166949851901112
-4.0535,0.5902734779443622,0.6908714540262929
-4.053,0.5049120790829789,0.7968378380778709
-4.0525,0.4195506802215176,0.8604176685088755
-4.052,0.3768699807910976,0.892207583724638
-4.0515,0.7183155762366316,1.178316820663898
-4.051,0.9317190733902845,1.29487984312074
-4.0505,0.2274875327838706,0.4365521323029588
-4.05,-0.722158029550525,-0.6443049850249
-4.0495,-1.127624674142465,-1.163540266878104
-4.049,-0.8715404775583149,-0.8986243067491593
-4.0485,-0.4447334832504366,-0.4005823017056635
-4.048,-0.07127736323188383,0.02328323450064829
-4.0475,0.1634664836369208,0.2881991946295932
-4.047,0.2915085819293648,0.4047622170867048
-4.0465,0.3341892813600565,0.4365521323021782
-4.046,0.3341892813600565,0.4153588554918626
-4.0455,0.3128489316446718,0.3835689402763218
-4.045,0.291508581929326,0.3623756634660061
-4.0445,0.2808384070716433,0.3517790250608387
-4.044,0.2594980573561034,0.3623756634659001
-4.0435,0.0674349099179905,0.2458126410091644
-4.043,-0.6261264558313813,-0.400582301706049
-4.0425,-1.106284324426663,-1.174136905282568
-4.042,-1.234326422719292,-1.640388995110639
-4.0415,-0.807519428411986,-1.237716735714276
-4.041,-0.2740106855283393,-0.4959520473532306
-4.0405,0.1741366584950595,0.08686306493192274
-4.04,0.4408910299368829,0.383568940276341
-4.0395,0.5369226036559392,0.6166949851898125
-4.039,0.5475927785136608,0.7650479228624361
-4.0385,0.4942419042252961,0.8392243916985406
-4.038,0.4835717293676232,0.8392243916985406
-4.0375,0.5369226036559975,0.7544512844571818
-4.037,0.5049120790829789,0.7332580076468663
-4.0365,0.4408910299368829,0.7226613692416989
-4.036,0.3768699807907483,0.7120647308365218
-4.0355,0.3341892813600565,0.701468092431364
-4.035,0.5902734779444399,0.8816109453192104
-4.0345,1.038420821966703,1.263089927904891
-4.034,0.4408910299368829,0.6908714540261965
-4.0335,-0.5621054066852853,-0.3581957480853793
-4.033,-0.9782422261345299,-0.9092209451535846
-4.0325,-0.7648387289809061,-0.6972881770503324
-4.032,-0.3807124341046804,-0.252229364033705
-4.0315,-0.04993701351681934,0.1292496185519757
-4.031,0.163466483637241,0.3835689402764567
-4.0305,0.2808384070716433,0.5107286011383502
-4.03,0.3235191065023351,0.5637117931641392
-4.0295,0.3235191065023544,0.5531151547590006
-4.029,0.3021787567870086,0.5319218779486851
-4.0285,0.2808384070716433,0.5107286011383502
-4.028,0.2594980573562684,0.5107286011383502
-4.0275,0.2488278824985954,0.5107286011383502
-4.027,0.2061471830678648,0.4683420475176805
-4.0265,-0.2740106855274173,-0.05089323433505144
-4.026,-0.9035510021311299,-0.8668343915334161
-4.0255,-1.148965023857831,-1.566212526274467
-4.025,-1.244996597576887,-1.852321763213727
-4.0245,-0.9035510021305768,-1.280103289334242
-4.024,-0.2953510352432193,-0.5065486857577234
-4.0235,0.1848068333520628,0.1292496185517444
-4.023,0.4408910299369703,0.5213252395437104
-4.0225,0.5369226036560266,0.7332580076468663
-4.022,0.5262524287983538,0.8074344764829708
-4.0215,0.5049120790832312,0.7968378380776974
-4.021,0.7823366253827275,0.6060983467848571
-4.0205,0.8783681991018712,0.4895353243280153
-4.02,0.7716664505248992,0.5849050699746474
-4.0195,0.6116138276598051,0.7226613692416989
-4.019,0.4622313796522482,0.7968378380778709
-4.0185,0.3875401556485377,0.743854646052082
-4.018,0.5475927785137094,0.2352160026039969
-4.0175,0.5689331282290746,-0.6019184314042303
-4.017,-0.0179264889429368,-1.364876396575591
-4.0165,-0.6474668055467854,-1.778145294377459
-4.016,-0.690147504977477,-1.38606967338662
-4.0155,-0.4233931335356536,-0.7078848154565214
-4.015,-0.1246282375200932,-0.1568596183868993
-4.0145,0.09944543449103843,0.1716361721729923
-4.014,0.2381577076407866,0.3199891098452015
-4.0135,0.3021787567870183,0.3411823866556423
-4.013,0.3128489316446912,0.309392471440169
-4.0125,0.3021787567870086,0.2564092794143318
-4.012,0.2915085819293163,0.2140227257936428
-4.0115,0.2808384070716433,0.1928294489833272
-4.011,0.2594980573562781,0.1928294489833272
-4.0105,0.2381577076409322,0.203426087388485
-4.01,-0.1032878878049318,-0.1144730647665284
-4.0095,-0.7434983792658902,-0.8350444763179138
-4.009,-1.298347471864883,-1.492036057437697
-4.0085,-1.543761493591691,-1.725162102351467
-4.008,-1.1062843244271,-1.163540266878104
-4.0075,-0.4127229586783592,-0.4429688553273742
-4.007,0.1207857842066463,0.1610395337682297
-4.0065,0.3875401556484697,0.6060983467848571
-4.006,0.4835717293676135,0.8286277532933731
-4.0055,0.494241904225267,0.9134008605347224
-4.005,0.4622313796522482,0.92399749893988
-4.0045,0.5689331282290746,0.7862411996727035
-4.004,0.6329541773751124,0.7226613692417664
-4.0035,0.5689331282290746,0.7968378380778709
-4.003,0.4622313796522482,0.8604176685088755
-4.0025,0.3768699807908648,0.8922075837243489
-4.002,0.3661998059331045,0.8604176685088755
-4.0015,0.7823366253827275,1.061753798207057
-4.001,0.9637295979631675,1.231300012689581
-4.0005,0.3235191065015781,0.4365521323012144
-4,-0.5514352318276028,-0.6231117082145651
-3.9995,-1.084943974711735,-1.258910012524611
-3.999,-0.9142211769888124,-1.046977244421262
-3.9985,-0.5087545323968721,-0.5277419625680583
-3.998,-0.124628237520297,-0.07208651114585861
-3.9975,0.1207857842064037,0.2246193641988295
-3.997,0.2594980573562781,0.3623756634660061
-3.9965,0.3128489316446912,0.3941655786815084
-3.996,0.3235191065023739,0.3729723018711736
-3.9955,0.3021787567870086,0.3411823866556712
-3.995,0.2701682322139607,0.309392471440169
-3.9945,0.2488278824985954,0.2987958330350016
-3.994,0.2381577076409128,0.2987958330350016
-3.9935,0.05676473506030786,0.1822328105781598
-3.993,-0.6047861061160158,-0.4641621321370536
-3.9925,-1.052933450138687,-1.195330182093607
-3.992,-1.255666772434657,-1.693372187136476
-3.9915,-1.287677297007705,-1.672178910326141
-3.991,-0.658136980404429,-0.9833974139902578
-3.9905,0.01408403562957729,-0.2204394488182027
-3.99,0.4302208550792003,0.3517790250608387
-3.9895,0.5796033030867573,0.6590815388106942
-3.989,0.5796033030867573,0.8074344764830383
-3.9885,0.5155822539406614,0.8604176685088755
-3.988,0.5262524287983441,0.9451907757502149
-3.9875,0.6863050516635838,1.146526905448396
-3.987,0.6649647019482183,1.093543713422559
-3.9865,0.5475927785137094,0.9134008605347127
-3.986,0.4302208550792003,0.7226613692416989
-3.9855,0.3661998059331045,0.55311515475902
-3.985,0.6863050516635838,0.5425185163538525
-3.9845,1.102441871113207,0.7120647308365314
-3.984,0.5796033030867573,0.07626642652648545
-3.9835,-0.3380317346739499,-0.8244478379127463
-3.983,-0.807519428411986,-1.195330182093607
-3.9825,-0.6794773301197943,-0.8244478379127463
-3.982,-0.3487019095316325,-0.252229364033705
-3.9815,-0.04993701351651855,0.2140227257936621
-3.981,0.1527963087794516,0.5107286011383502
-3.9805,0.2594980573562781,0.6696781772158616
-3.98,0.3021787567870086,0.7120647308365314
-3.9795,0.3128489316446912,0.7120647308365314
-3.979,0.291508581929326,0.6908714540261965
-3.9785,0.2701682322139607,0.6590815388106942
-3.978,0.2488278824985954,0.6378882620003594
-3.9775,0.2381577076409128,0.6166949851900245
-3.977,0.142126133921769,0.5319218779486851
-3.9765,-0.4554036581084589,-0.04029659593035631
-3.976,-1.052933450138687,-0.8880276683437509
-3.9755,-1.330357996438436,-1.598002441489969
-3.975,-1.639793067311232,-2.096044446532838
-3.9745,-1.597112367880501,-1.767548655972648
-3.974,-1.020922925565639,-0.8880276683437509
-3.9735,-0.3380317346739499,-0.1250697031716958
-3.973,0.1314559590640864,0.3623756634660061
-3.9725,0.3661998059331045,0.627291623595192
-3.972,0.4408910299368829,0.701468092431364
-3.9715,0.4622313796522482,0.6590815388106942
-3.971,0.5582629533713921,0.5213252395435176
-3.9705,0.5369226036560266,0.4895353243280153
-3.97,0.4622313796522482,0.5001319627331828
-3.9695,0.3875401556484697,0.5213252395435176
-3.969,0.3341892813600565,0.5319218779486851
-3.9685,0.4622313796522482,0.5849050699745222
-3.968,0.8463576745288233,0.9981739677760521
-3.9675,0.3235191065023739,0.7862411996727035
-3.967,-0.4020527838200457,-0.1462629799820306
-3.9665,-0.9035510021311299,-0.9304142219644207
-3.966,-0.807519428411986,-0.9092209451540858
-3.9655,-0.4660738329661415,-0.474758770542221
-3.965,-0.1139580626626144,-0.02969995752518888
-3.9645,0.1207857842064037,0.2987958330350016
-3.964,0.2488278824985954,0.4895353243280153
-3.9635,0.3021787567870086,0.5743084315693548
-3.963,0.3128489316446912,0.6060983467848571
-3.9625,0.3021787567870086,0.6060983467848571
-3.962,0.2808384070716433,0.5955017083796896
-3.9615,0.2594980573562781,0.5849050699745222
-3.961,0.2594980573562781,0.5849050699745222
-3.9605,0.2274875327832301,0.5743084315693548
-3.96,-0.124628237520297,0.2034260873884947
-3.9595,-0.807519428411986,-0.6125150698093976
-3.959,-1.298347471865388,-1.38606967338662
-3.9585,-1.351698346153801,-1.555615887869299
-3.958,-0.839529952985034,-0.9516074987747555
-3.9575,-0.2313299860971235,-0.2628260024388724
-3.957,0.2381577076409128,0.2140227257936621
-3.9565,0.4729015545099309,0.5107286011383502
-3.956,0.5262524287983441,0.6378882620003594
-3.9555,0.5049120790829789,0.6696781772158616
-3.955,0.4622313796522482,0.701468092431364
-3.9545,0.5689331282290746,0.7862411996727035
-3.954,0.6009436528021226,0.8816109453192104
-3.9535,0.5262524287983441,1.00877060618122
-3.953,0.4302208550792003,0.92399749893988
-3.9525,0.3448594562177392,0.7438546460520338
-3.952,0.3448594562177392,0.627291623595192
-3.9515,0.7503261008096795,0.9663840525605498
-3.951,0.6969752265212663,1.072350436612224
-3.9505,-0.06060718837420119,0.2776025562246667
-3.95,-0.8822106524157645,-0.570128516188728
-3.9495,-1.277007122150022,-1.078767159636765
-3.949,-0.9995825758502737,-0.8244478379127463
-3.9485,-0.5300948821122373,-0.3052125560595421
-3.948,-0.124628237520297,0.1716361721729923
-3.9475,0.142126133921769,0.4895353243280153
-3.947,0.2701682322139607,0.6696781772158616
-3.9465,0.3235191065023739,0.7438546460520338
-3.946,0.3235191065023739,0.7650479228623686
-3.9455,0.3021787567870086,0.7544512844572011
-3.945,0.2701682322139607,0.7332580076468663
-3.9445,0.2488278824985954,0.7226613692416989
-3.944,0.2381577076409128,0.701468092431364
-3.9435,-0.03926683865883591,0.4471487707073456
-3.943,-0.7328282044082075,-0.3475991096802118
-3.9425,-1.298347471865388,-1.195330182093607
-3.942,-1.565101843307454,-1.820531847998485
-3.9415,-1.341028171296118,-1.725162102351978
-3.941,-0.6367966306890638,-0.9939940523954253
-3.9405,-0.02859666380115328,-0.2840192792492073
-3.94,0.3661998059331045,0.2140227257936621
-3.9395,0.5369226036560266,0.4789386859228479
-3.939,0.5689331282290746,0.5425185163538525
-3.9385,0.5262524287983441,0.4895353243280153
-3.938,0.5262524287983441,0.3411823866556712
-3.9375,0.5902734779444399,0.1822328105781598
-3.937,0.5369226036560266,0.1504428953626575
-3.9365,0.4515612047945656,0.1716361721729923
-3.936,0.3768699807907871,0.2246193641988295
-3.9355,0.3341892813600565,0.2881991946298341
-3.935,0.6222840025174878,0.627291623595192
-3.9345,1.315845368266859,1.273686566310405
-3.934,1.230483969405398,1.114736990232894
-3.9335,0.3875401556484697,0.09745970333682032
-3.933,-0.4447334832507763,-0.7608680074817418
-3.9325,-0.5941159312583333,-0.7502713690765743
-3.932,-0.391382608962363,-0.3052125560595421
-3.9315,-0.124628237520297,0.1928294489833272
-3.931,0.07810508477567314,0.5743084315693548
-3.9305,0.2168173579255475,0.8180311148882058
-3.93,0.2808384070716433,0.9557874141553824
-3.9295,0.291508581929326,1.019367244586387
-3.929,0.2701682322139607,1.029963882991555
-3.9285,0.2381577076409128,1.019367244586387
-3.928,0.2274875327832301,0.9981739677760521
-3.9275,0.2274875327832301,0.9663840525605498
-3.927,0.1314559590640864,0.8604176685088755
-3.9265,-0.4874141826815069,0.2140227257936621
-3.926,-1.084943974711735,-0.6866915386455698
-3.9255,-1.426389570157579,-1.38606967338662
-3.925,-1.202315898146244,-1.280103289334946
-3.9245,-0.6261264558313813,-0.6866915386455698
-3.924,-0.06060718837420119,-0.1144730647665284
-3.9235,0.3235191065023739,0.2352160026039969
-3.923,0.4942419042252961,0.3305857482505039
-3.9225,0.5262524287983441,0.2881991946298341
-3.922,0.4942419042252961,0.2352160026039969
-3.9215,0.4515612047945656,0.1928294489833272
-3.921,0.4622313796522482,0.1928294489833272
-3.9205,0.4302208550792003,0.1610395337678249
-3.92,0.3875401556484697,0.1292496185523226
-3.9195,0.3448594562177392,0.13984625695749
-3.919,0.3235191065023739,0.1504428953626575
-3.9185,0.4835717293676135,0.383568940276341
-3.918,1.017080472251745,1.040560521396722
-3.9175,0.6863050516635838,1.114736990232894
-3.917,-0.1032878878049318,0.2140227257936621
-3.9165,-0.7114878546928423,-0.6337083466197325
-3.916,-0.6794773301197943,-0.6337083466197325
-3.9155,-0.4020527838200457,-0.2204394488182027
-3.915,-0.1032878878049318,0.2458126410091644
-3.9145,0.1207857842064037,0.6166949851900245
-3.914,0.2381577076409128,0.849821030103708
-3.9135,0.291508581929326,0.9875773293708847
-3.913,0.3021787567870086,1.051157159801889
-3.9125,0.291508581929326,1.072350436612224
-3.912,0.2701682322139607,1.072350436612224
-3.9115,0.2594980573562781,1.040560521396722
-3.911,0.2488278824985954,1.00877060618122
-3.9105,0.2061471830678648,0.9345941373450475
-3.91,-0.1993194615240755,0.3941655786815084
-3.9095,-0.690147504977477,-0.4959520473525559
-3.909,-0.8608703027003992,-1.280103289334946
-3.9085,-1.170305373573196,-1.714565463946811
-3.908,-0.9675720512772257,-1.34368311976595
-3.9075,-0.4020527838200457,-0.7502713690765743
-3.907,0.08877525963335578,-0.2416327256285375
-3.9065,0.3661998059331045,0.06566978812131802
-3.906,0.4942419042252961,0.13984625695749
-3.9055,0.5049120790829789,0.1292496185523226
-3.905,0.4729015545099309,0.05507314971615059
-3.9045,0.5262524287983441,-0.04029659593035631
-3.904,0.5262524287983441,-0.04029659593035631
-3.9035,0.4622313796522482,0.002089957690313421
-3.903,0.3875401556484697,0.07626642652648545
-3.9025,0.3341892813600565,0.13984625695749
-3.902,0.2594980573562781,0.13984625695749
-3.9015,0.2274875327832301,-0.252229364033705
-3.901,-0.02859666380115328,-0.9092209451540858
-3.9005,-0.6367966306890638,-1.545019249464132
-3.9,-1.127624674142465,-1.905304955239825
-3.8995,-1.010252750707956,-1.417859588602123
-3.899,-0.5941159312583333,-0.5913217929990628
-3.8985,-0.1993194615240755,0.1292496185523226
-3.898,0.08877525963335578,0.6166949851900245
-3.8975,0.2381577076409128,0.8816109453192104
-3.897,0.3021787567870086,0.9769806909657173
-3.8965,0.3128489316446912,0.9875773293708847
-3.896,0.3021787567870086,0.9557874141553824
-3.8955,0.2808384070716433,0.9028042221295453
-3.895,0.2594980573562781,0.8392243916985406
-3.8945,0.2381577076409128,0.7862411996727035
-3.894,0.2274875327832301,0.7226613692416989
-3.8935,-0.06060718837420119,0.4365521323021782
-3.893,-0.807519428411986,-0.400582301706049
-3.8925,-1.373038695869166,-1.248313374119443
-3.892,-1.618452717595867,-1.629792356705471
-3.8915,-1.244996597576974,-1.152943628472937
-3.891,-0.5941159312583333,-0.474758770542221
-3.8905,-0.03926683865883591,0.03387987290581572
-3.89,0.291508581929326,0.2987958330350016
-3.8895,0.4515612047945656,0.3411823866556712
-3.889,0.4942419042252961,0.2246193641988295
-3.8885,0.4729015545099309,0.1186529801471552
-3.888,0.5155822539406614,0.002089957690313421
-3.8875,0.5796033030867573,-0.05089323433552374
-3.887,0.5262524287983441,0.02328323450064829
-3.8865,0.4408910299368829,0.1080563417419877
-3.886,0.3661998059331045,0.1928294489833272
-3.8855,0.3341892813600565,0.2881991946298341
