Class_4_Move_right_hand_Horiszontal/Class_4_Move_right_hand_Horiszontal_SH_12.csv

#Digilent WaveForms Oscilloscope Acquisition
#Device Name: EExplorer
#Serial Number: SN:210151A2B84A
#Date Time: 2021-01-28 12:46:56.038
#Sample rate: 2000Hz
#Samples: 16384
#Trigger: Source: Channel 1 Type: Edge Condition: Rising Level: 0 V Hyst.: Auto HoldOff: 0 s
#Channel 1: Range: 1 V/div Offset: 0 V Attenuation: 1 X
#Channel 2: Range: 1 V/div Offset: 0 V Attenuation: 1 X
#Power Supplies: ON
#Fixed Supply: ON
#Voltage: 3.3 V Readback: 3.331 V
#Positive Supply: ON
#Voltage: 3.7 V Readback: 3.718 V
#Current: 40 mA Readback: 18 mA
#Negative Supply: ON
#Voltage: -3.7 V Readback: -3.707 V
#Current: -40 mA Readback: -9 mA
#Reference 1: ON
#Voltage: 0 V
#Reference 2: ON
#Voltage: 0 V

Time (s),Channel 1 (V),Channel 2 (V)
-4.096,0.6009436528021226,0.383568940276341
-4.0955,0.6649647019481602,0.3729723018711832
-4.095,0.7823366253827955,0.5001319627332985
-4.0945,0.857027849386506,0.627291623595192
-4.094,0.7930068002404682,0.574308431569403
-4.0935,0.6863050516635062,0.468342047517613
-4.093,0.6009436528021226,0.3941655786815084
-4.0925,0.5902734779444495,0.3411823866557194
-4.092,0.4515612047941871,-0.1038764263620452
-4.0915,0.03542438534494258,-0.8562377531282487
-4.091,-0.7968492535543035,-1.534422611058964
-4.0905,-1.330357996438222,-1.809935209592778
-4.09,-1.095614149569417,-1.216523458903942
-4.0895,-0.5514352318276028,-0.3793890248957141
-4.089,-0.04993701351697466,0.3093924714395426
-4.0885,0.2808384070716433,0.7544512844572011
-4.088,0.4622313796522482,0.9769806909657173
-4.0875,0.5262524287982859,1.06175379820698
-4.087,0.5369226036560072,1.061753798207009
-4.0865,0.5155822539406614,1.00877060618122
-4.086,0.4835717293676426,0.934594137345115
-4.0855,0.4302208550791615,0.8392243916984635
-4.085,0.3875401556484697,0.7544512844572011
-4.0845,0.3661998059331239,0.6802748156210966
-4.084,0.2168173579250137,0.4577454091118288
-4.0835,-0.3700422592469978,-0.2946159176543747
-4.083,-1.148965023857831,-1.110557074852267
-4.0825,-1.757164990745625,-1.661582271920819
-4.082,-1.629122892453549,-1.492036057438295
-4.0815,-0.9462317015618604,-0.8562377531282487
-4.081,-0.2420001609554466,-0.2734226408445698
-4.0805,0.291508581929326,0.09745970333682032
-4.08,0.6009436528021226,0.3411823866556712
-4.0795,0.707645401378852,0.404762217086618
-4.079,0.7076454013789394,0.3623756634659965
-4.0785,0.6969752265212663,0.3517790250608387
-4.078,0.7076454013789394,0.436552132302101
-4.0775,0.6542945270904776,0.4365521323021396
-4.077,0.5902734779444399,0.3941655786815084
-4.0765,0.5369226036560751,0.3835689402763507
-4.076,0.5155822539409428,0.3941655786817687
-4.0755,0.825017324813458,0.6802748156210291
-4.075,1.507908515705147,1.114736990232894
-4.0745,1.753322537431945,0.7862411996721252
-4.074,1.860024286008674,0.1504428953626575
-4.0735,1.049090996824793,-0.6231117082145651
-4.073,0.3768699807913986,-0.7714646458867743
-4.0725,0.1527963087794516,-0.3475991096802118
-4.072,0.1634664836371343,0.1928294489833272
-4.0715,0.2488278824985178,0.6166949851896391
-4.071,0.3341892813601245,0.9028042221296898
-4.0705,0.408880505363835,1.061753798207057
-4.07,0.4408910299368538,1.125333628638004
-4.0695,0.4515612047945365,1.13593026704318
-4.069,0.4195506802215176,1.082947075017392
-4.0685,0.3768699807907871,1.00877060618122
-4.068,0.3448594562176712,0.9451907757500897
-4.0675,0.2701682322139607,0.8074344764830383
-4.067,-0.2846808603855366,0.1504428953626575
-4.0665,-0.8822106524160265,-0.6443049850254782
-4.066,-1.170305373573196,-1.280103289334946
-4.0655,-1.244996597576974,-1.354279758171118
-4.065,-0.8075194284123839,-0.8562377531287017
-4.0645,-0.2633405106701714,-0.2946159176543747
-4.064,0.1954770082101822,0.1080563417419877
-4.0635,0.4942419042250243,0.2246193641987235
-4.063,0.6649647019482765,0.1610395337677286
-4.0625,0.7289857510943143,0.05507314971615059
-4.062,0.7183155762366412,0.01268659609551941
-4.0615,0.7716664505250254,-0.0402965959303274
-4.061,0.7503261008096795,-0.008506680714854012
-4.0605,0.6649647019482183,0.06566978812131802
-4.06,0.5796033030866894,0.1504428953627346
-4.0595,0.5049120790829789,0.2352160026039969
-4.059,0.6116138276598051,0.08686306493165288
-4.0585,1.219813794547163,-0.5489352393778149
-4.058,1.860024286008674,-1.258910012524611
-4.0575,1.379866417412955,-1.75695201756748
-4.057,0.2274875327842782,-1.788741932782954
-4.0565,-0.839529952985034,-1.703968825541643
-4.056,-1.020922925565639,-1.05757388282643
-4.0555,-0.668807155262432,-0.220439448818964
-4.055,-0.2099896363814379,0.4577454091128889
-4.0545,0.142126133921769,0.8710143069140429
-4.054,0.3555296310752277,1.072350436612041
-4.0535,0.4622313796522773,1.125333628638033
-4.053,0.4942419042252961,1.093543713422559
-4.0525,0.4729015545099309,1.019367244586387
-4.052,0.4408910299368635,0.913400860534626
-4.0515,0.4195506802215176,0.8180311148882058
-4.051,0.3875401556484697,0.7226613692416989
-4.0505,0.02475421048758991,0.3199891098457026
-4.05,-0.1673089369510276,-0.5277419625680583
-4.0495,0.408880505363835,-1.301296566145281
-4.049,0.5155822539405643,-1.714565463946435
-4.0485,0.6649647019482572,-1.449649503817085
-4.048,0.707645401378949,-0.8562377531282487
-4.0475,0.7183155762366219,-0.2946159176548855
-4.047,0.70764540137892,0.09745970333698416
-4.0465,0.6756348768059011,0.2776025562246667
-4.046,0.6329541773752094,0.30939247144014
-4.0455,0.5796033030868349,0.26700591781948
-4.045,0.6649647019482183,0.2458126410091644
-4.0445,0.7503261008096795,0.1822328105781598
-4.044,0.6969752265211789,0.1398462569574997
-4.0435,0.6009436528021226,0.1504428953626575
-4.043,0.5262524287983441,0.1928294489833272
-4.0425,0.5262524287983441,0.2881991946297474
-4.042,0.9530594231056497,0.7120647308365314
-4.0415,1.657290963712704,1.37965295036208
-4.041,1.486568165989937,1.28428320471566
-4.0405,0.4622313796511807,0.4683420475168324
-4.04,-0.7114878546928423,-0.4641621321370536
-4.0395,-1.180975548430452,-0.8562377531278921
-4.039,-0.9035510021306933,-0.4853554089468584
-4.0385,-0.423393133535411,0.09745970333682032
-4.038,0.003413860771506461,0.6060983467843944
-4.0375,0.2808384070717695,0.9769806909659197
-4.037,0.4195506802215176,1.199510097474233
-4.0365,0.4729015545099309,1.305476481525908
-4.036,0.4515612047945268,1.337266396741371
-4.0355,0.408880505363835,1.29487984312074
-4.035,0.3555296310754218,1.25249328950007
-4.0345,0.334189281360076,1.188913459069123
-4.034,0.2274875327832301,0.9769806909657173
-4.0335,0.4195506802215176,0.6696781772158616
-4.033,1.219813794546988,0.9981739677757533
-4.0325,1.369196242554457,1.146526905447712
-4.032,0.4729015545099309,0.3941655786815084
-4.0315,-0.1993194615234641,-0.3052125560589061
-4.031,-0.242000160954612,-0.3687923864904407
-4.0305,-0.02859666380115328,-0.252229364033705
-4.03,0.2168173579253243,-0.1568596183872848
-4.0295,0.4088805053639321,-0.1144730647664802
-4.029,0.5155822539406614,-0.06148987274069118
-4.0285,0.5582629533713921,0.07626642652648545
-4.028,0.5689331282290552,0.404762217086753
-4.0275,0.5475927785137094,0.4895353243280153
-4.027,0.5049120790829789,0.4471487707073456
-4.0265,0.4835717293676329,0.3941655786815566
-4.026,0.4622313796522482,0.383568940276341
-4.0255,0.408880505363835,0.1186529801471552
-4.025,0.5262524287982373,-0.3899856633004189
-4.0245,0.3661998059324252,-0.9833974139907204
-4.024,-0.3807124341046804,-1.492036057438295
-4.0235,-1.052933450138076,-1.735758740756924
-4.023,-1.052933450138299,-1.237716735713486
-4.0225,-0.6261264558313813,-0.3687923864905467
-4.022,-0.1779791118091178,0.3941655786808145
-4.0215,0.163466483637309,0.8922075837246187
-4.021,0.3555296310754218,1.157123543853563
-4.0205,0.4408910299368829,1.241896651094903
-4.02,0.4515612047945656,1.231300012689668
-4.0195,0.4515612047945656,1.157123543853563
-4.019,0.408880505363835,1.040560521396722
-4.0185,0.3341892813601245,0.8816109453193549
-4.018,0.2594980573562781,0.7226613692416989
-4.0175,0.1954770082101822,0.5637117931641874
-4.017,-0.3273615598157917,-0.008506680714333581
-4.0165,-1.138294849000798,-0.856237753128904
-4.016,-1.853196564464885,-1.576809164679634
-4.0155,-2.429386006779223,-2.07485116972205
-4.015,-2.034589537044636,-1.78874193278225
-4.0145,-1.095614149569417,-0.9833974139902578
-4.014,-0.2633405106709283,-0.2840192792498433
-4.0135,0.3021787567872609,0.118652980147319
-4.013,0.5796033030867573,0.2987958330350016
-4.0125,0.6649647019482183,0.3517790250608387
-4.012,0.6649647019483251,0.2987958330348088
-4.0115,0.7823366253827275,0.08686306493165288
-4.011,0.8036769750980928,-0.04029659593035631
-4.0105,0.6969752265213633,-0.02969995752519852
-4.01,0.5796033030867573,0.02328323450064829
-4.0095,0.4942419042252961,0.1080563417419877
-4.009,0.5049120790829692,0.1928294489832501
-4.0085,0.942389248248229,0.08686306493115173
-4.008,1.230483969405398,-0.4641621321370536
-4.0075,0.4729015545106199,-1.142346990067153
-4.007,-0.5194247072552729,-1.375473034981559
-4.0065,-1.30901764672307,-1.492036057438295
-4.006,-1.223656247861609,-1.004590690800593
-4.0055,-0.7328282044077417,-0.2522293640331267
-4.005,-0.2206598112394408,0.383568940276341
-4.0045,0.1527963087794516,0.8074344764830383
-4.004,0.3555296310755091,1.040560521396799
-4.0035,0.4515612047945656,1.125333628638062
-4.003,0.4622313796522482,1.135930267043229
-4.0025,0.4408910299369024,1.093543713422598
-4.002,0.3982103305061524,1.00877060618122
-4.0015,0.3661998059331045,0.92399749893988
-4.001,0.3021787567870668,0.8180311148883022
-4.0005,0.02475421048666797,0.3623756634652447
-4,-0.6261264558313813,-0.474758770542221
-3.9995,-1.341028171296118,-1.280103289334946
-3.999,-1.586442193022819,-1.693372187136476
-3.9985,-1.212986073003927,-1.152943628472937
-3.998,-0.5407650569699201,-0.4641621321370536
-3.9975,0.05676473506030786,-0.04029659593035631
-3.997,0.4302208550792003,0.2140227257936621
-3.9965,0.6329541773751706,0.2564092794143318
-3.996,0.707645401378949,0.2458126410091644
-3.9955,0.6863050516635838,0.1822328105781598
-3.995,0.6329541773751706,0.1610395337678249
-3.9945,0.6116138276598051,0.1928294489833272
-3.994,0.5582629533713921,0.1928294489833272
-3.9935,0.4942419042252961,0.1928294489833272
-3.993,0.4408910299368829,0.2246193641988295
-3.9925,0.4195506802215176,0.2881991946298341
-3.992,0.6222840025174878,0.3305857482505039
-3.9915,1.102441871113207,0.1186529801471552
-3.991,0.825017324813458,-0.5913217929990628
-3.9905,-0.1139580626626144,-1.258910012524611
-3.99,-0.572775581542968,-1.248313374119443
-3.9895,-0.4660738329661415,-0.5913217929990628
-3.989,-0.1779791118087102,0.1292496185523226
-3.9885,0.08877525963335578,0.6802748156210291
-3.988,0.2808384070716433,1.019367244586387
-3.9875,0.3768699807907871,1.178316820663898
-3.987,0.4195506802215176,1.231300012689736
-3.9865,0.4195506802215176,1.210106735879401
-3.986,0.408880505363835,1.146526905448396
-3.9855,0.3768699807907871,1.061753798207057
-3.985,0.3448594562177392,0.9557874141553824
-3.9845,0.291508581929326,0.8286277532933731
-3.984,-0.02859666380115328,0.4471487707073456
-3.9835,-0.807519428411986,-0.3793890248957141
-3.983,-1.586442193022819,-1.227120097309109
-3.9825,-2.130621110764634,-1.84172512480882
-3.982,-1.885207089037933,-1.640388995110639
-3.9815,-1.074273799854052,-0.9410108603695881
-3.981,-0.3060212101009019,-0.3899856633008816
-3.9805,0.2381577076409128,-0.1250697031716958
-3.98,0.5369226036560266,0.05507314971615059
-3.9795,0.6436243522328531,0.1610395337678249
-3.979,0.6436243522328531,0.2034260873884947
-3.9785,0.6116138276598051,0.2140227257936621
-3.978,0.6649647019482183,0.383568940276341
-3.9775,0.6329541773751706,0.4047622170866759
-3.977,0.5582629533713921,0.3517790250608387
-3.9765,0.4942419042252961,0.2987958330350016
-3.976,0.4515612047945656,0.2881991946298341
-3.9755,0.3661998059331045,0.1822328105781598
-3.975,-0.02859666380115328,-0.4323722169215513
-3.9745,-0.6154562809736985,-1.163540266878104
-3.974,-1.330357996438436,-1.703968825541643
-3.9735,-1.949228138184029,-2.000674700886331
-3.973,-1.991908837614759,-1.693372187136476
-3.9725,-1.30901764672307,-0.792657922697244
-3.972,-0.572775581542968,0.08686306493165288
-3.9715,-0.01792648894347063,0.7120647308365314
-3.971,0.3021787567870086,1.072350436612224
-3.9705,0.4515612047945656,1.220703374284568
-3.97,0.4835717293676135,1.231300012689736
-3.9695,0.4729015545099309,1.167720182258731
-3.969,0.4195506802215176,1.061753798207057
-3.9685,0.3555296310754218,0.92399749893988
-3.968,0.2488278824985954,0.7650479228623686
-3.9675,0.1101156093487211,0.5637117931641874
-3.967,-0.1779791118087102,0.03387987290581572
-3.9665,-0.3807124341046804,-0.7502713690765743
-3.966,-0.8181896032696687,-1.42845622700729
-3.9655,-1.234326422719292,-1.915901593644992
-3.965,-1.159635198715513,-1.725162102351978
-3.9645,-0.6047861061160158,-1.046977244421262
-3.964,-0.06060718837420119,-0.3581957480853793
-3.9635,0.3341892813600565,0.07626642652648545
-3.963,0.5369226036560266,0.2034260873884947
-3.9625,0.6116138276598051,0.2034260873884947
-3.962,0.6116138276598051,0.2140227257936621
-3.9615,0.707645401378949,0.04447651131098315
-3.961,0.7396559259519968,-0.06148987274069118
-3.9605,0.6542945270905358,-0.02969995752518888
-3.96,0.5582629533713921,0.05507314971615059
-3.9595,0.4835717293676135,0.1504428953626575
-3.959,0.5262524287983441,0.2881991946298341
-3.9585,1.038420821967111,0.5637117931641874
-3.958,1.785333062004896,0.6908714540261965
-3.9575,1.667961138570387,0.02328323450064829
-3.957,0.5796033030867573,-0.8456411147230812
-3.9565,-0.6367966306890638,-1.481439419033127
-3.956,-0.9889124009925911,-1.290699927740113
-3.9555,-0.722158029550525,-0.5807251545938954
-3.955,-0.3060212101009019,0.1186529801471552
-3.9545,0.04609456020262521,0.627291623595192
-3.954,0.2701682322139607,0.92399749893988
-3.9535,0.3875401556484697,1.061753798207057
-3.953,0.4302208550792003,1.104140351827727
-3.9525,0.4195506802215176,1.072350436612224
-3.952,0.3768699807907871,1.00877060618122
-3.9515,0.3555296310754218,0.9451907757502149
-3.951,0.3128489316446912,0.8710143069140429
-3.9505,0.0674349099179905,0.5319218779486851
-3.95,-0.09261771294724913,-0.3158091944647096
-3.9495,-0.1032878878049318,-1.174136905283272
-3.949,-0.4874141826815069,-1.735758740757146
-3.9485,-0.5621054066852853,-1.650985633515806
-3.948,-0.2953510352432193,-1.036380606016095
-3.9475,0.0674349099179905,-0.474758770542221
-3.947,0.3341892813600565,-0.07208651114585861
-3.9465,0.4942419042252961,0.2140227257936621
-3.946,0.6009436528021226,0.3305857482505039
-3.9455,0.6222840025174878,0.3411823866556712
-3.945,0.6542945270905358,0.2776025562246667
-3.9445,0.707645401378949,0.1504428953626575
-3.944,0.6542945270905358,0.08686306493165288
-3.9435,0.5582629533713921,0.09745970333682032
-3.943,0.4835717293676135,0.13984625695749
-3.9425,0.4302208550792003,0.2034260873884947
-3.942,0.142126133921769,-0.01910331912002144
-3.9415,-0.5941159312583333,-0.7078848154559045
-3.941,-1.341028171296118,-1.396666311791788
-3.9405,-1.970568487899394,-1.873515040024322
-3.94,-2.472066706210478,-2.085447808127671
-3.9395,-2.07727023647622,-1.576809164679634
-3.939,-1.191645723288561,-0.6337083466197325
-3.9385,-0.423393133535411,0.2034260873884947
-3.938,0.08877525963335578,0.775644561267536
-3.9375,0.3661998059331045,1.072350436612224
-3.937,0.4729015545099309,1.188913459069066
-3.9365,0.4835717293676135,1.178316820663898
-3.936,0.4515612047945656,1.104140351827727
-3.9355,0.3875401556484697,0.9875773293708847
-3.935,0.3128489316446912,0.8392243916985406
-3.9345,0.2488278824985954,0.701468092431364
-3.934,0.03542438534494258,0.3623756634660061
-3.9335,-0.06060718837420119,-0.2628260024388724
-3.933,0.1634664836371343,-0.9622041371799229
-3.9325,-0.2206598112394408,-1.587405803084801
-3.932,-0.5300948821122373,-1.555615887869299
-3.9315,-0.3166913849585846,-0.9198175835592532
-3.931,0.04609456020262521,-0.2946159176543747
-3.9305,0.3448594562177392,0.09745970333682032
-3.93,0.5049120790829789,0.2776025562246667
-3.9295,0.5689331282290746,0.2776025562246667
-3.929,0.5796033030867573,0.2458126410091644
-3.9285,0.5582629533713921,0.2246193641988295
-3.928,0.5796033030867573,0.3941655786815084
-3.9275,0.5582629533713921,0.4259554938970107
-3.927,0.5049120790829789,0.383568940276341
-3.9265,0.4515612047945656,0.3411823866556712
-3.926,0.4195506802215176,0.3305857482505039
-3.9255,0.5475927785137094,0.2987958330350016
-3.925,1.209143619690033,0.3411823866556712
-3.9245,1.902704985439405,0.5001319627331828
-3.924,1.678631313428069,-0.01910331912002144
-3.9235,0.9637295979633325,-0.3158091944647096
-3.923,0.5262524287983441,-0.08268314955102604
-3.9225,0.3128489316446912,0.2987958330350016
-3.922,0.2488278824985954,0.6484849004055269
-3.9215,0.2594980573562781,0.8816109453192104
-3.921,0.291508581929326,1.029963882991555
-3.9205,0.3235191065023739,1.104140351827727
-3.92,0.3448594562177392,1.125333628638062
-3.9195,0.3555296310754218,1.114736990232894
-3.919,0.3448594562177392,1.072350436612224
-3.9185,0.3341892813600565,1.019367244586387
-3.918,0.3235191065023739,0.9557874141553824
-3.9175,0.3021787567870086,0.8816109453192104
-3.917,0.00341386077189465,0.4895353243280153
-3.9165,-0.7648387289812555,-0.400582301706049
-3.916,-1.458400094730627,-1.248313374119443
-3.9155,-1.725154466172693,-1.852321763213987
-3.915,-1.46907026958831,-1.682775548731308
-3.9145,-0.807519428411986,-0.9728007755850904
-3.914,-0.2099896363817582,-0.326405832869877
-3.9135,0.2274875327832301,0.01268659609548085
-3.913,0.4515612047945656,0.13984625695749
-3.9125,0.5475927785137094,0.1080563417419877
-3.912,0.5582629533713921,0.07626642652648545
-3.9115,0.6436243522328531,0.1822328105781598
-3.911,0.6863050516635838,0.2881991946298341
-3.9105,0.6116138276598051,0.2881991946298341
-3.91,0.5262524287983441,0.2564092794143318
-3.9095,0.4515612047945656,0.2458126410091644
-3.909,0.4729015545099309,0.3411823866556712
-3.9085,0.942389248247967,0.775644561267536
-3.908,1.507908515705147,1.37965295036208
-3.9075,0.942389248247967,1.104140351827727
-3.907,-0.2526703358124887,0.05507314971615059
-3.9065,-1.319687821580753,-0.9516074987747555
-3.906,-1.522421143876723,-1.174136905283272
-3.9055,-1.06360362499637,-0.6443049850249
-3.905,-0.4767440078238243,0.03387987290581572
-3.9045,-0.02859666380115328,0.5955017083796896
-3.904,0.2488278824985954,0.9663840525605498
-3.9035,0.3875401556484697,1.178316820663898
-3.903,0.4195506802215176,1.263089927905238
-3.9025,0.408880505363835,1.273686566310405
-3.902,0.3661998059331045,1.241896651094903
-3.9015,0.3448594562177392,1.188913459069066
-3.901,0.3128489316446912,1.114736990232894
-3.9005,0.2274875327832301,0.8392243916985406
-3.9,0.5262524287983441,0.02328323450064829
-3.8995,1.219813794547716,-0.8668343915334161
-3.899,1.15579274540162,-1.587405803084801
-3.8985,0.4515612047945656,-2.043061254507001
-3.898,0.04609456020262521,-1.619195718300304
-3.8975,0.03542438534494258,-0.9092209451540858
-3.897,0.1954770082101822,-0.2840192792492073
-3.8965,0.3555296310754218,0.09745970333682032
-3.896,0.4835717293676135,0.3199891098453364
-3.8955,0.5369226036560266,0.3941655786815084
-3.895,0.5689331282290746,0.2670059178194992
-3.8945,0.6542945270905358,0.04447651131098315
-3.894,0.6116138276598051,-0.05089323433552374
-3.8935,0.5369226036560266,-0.07208651114585861
-3.893,0.4515612047945656,-0.04029659593035631
-3.8925,0.3982103305061524,0.002089957690313421
-3.892,0.04609456020262521,-0.2204394488182027
-3.8915,-0.7648387289812555,-0.8350444763179138
-3.891,-1.586442193022819,-1.460246142222792
-3.8905,-2.098610586191586,-1.905304955239825
-3.89,-2.472066706210478,-2.117237723343173
-3.8895,-2.045259711903173,-1.650985633515806
-3.889,-1.180975548430879,-0.718481453861072
-3.8885,-0.4340633083930936,0.1292496185523226
-3.888,0.0674349099179905,0.701468092431364
-3.8875,0.3341892813600565,1.00877060618122
-3.887,0.4302208550792003,1.125333628638062
-3.8865,0.4515612047945656,1.125333628638062
-3.886,0.4195506802215176,1.051157159801889
-3.8855,0.3875401556484697,0.9663840525605498
-3.885,0.3555296310754218,0.8604176685088755
