Class_4_Move_right_hand_Horiszontal/Class_4_Move_right_hand_Horiszontal_UZ_5.csv

#Digilent WaveForms Oscilloscope Acquisition
#Device Name: EExplorer
#Serial Number: SN:210151A2B84A
#Date Time: 2020-12-06 09:29:27.879
#Sample rate: 2000Hz
#Samples: 16384
#Trigger: Source: Channel 1 Type: Edge Condition: Rising Level: 0 V Hyst.: Auto HoldOff: 0 s
#Channel 1: Range: 1 V/div Offset: 0 V Attenuation: 1 X
#Channel 2: Range: 1 V/div Offset: 0 V Attenuation: 1 X
#Power Supplies: ON
#Fixed Supply: ON
#Voltage: 3.3 V Readback: 3.331 V
#Positive Supply: ON
#Voltage: 3.7 V Readback: 3.673 V
#Current: 40 mA Readback: 18 mA
#Negative Supply: ON
#Voltage: -3.7 V Readback: -3.726 V
#Current: -40 mA Readback: 0 A
#Reference 1: ON
#Voltage: 0 V
#Reference 2: ON
#Voltage: 0 V

Time (s),Channel 1 (V),Channel 2 (V)
-4.096,0.4408910299368829,0.5849050699745222
-4.0955,0.43022085507921,0.5637117931642067
-4.095,0.4195506802215176,0.55311515475902
-4.0945,0.4195506802215176,0.55311515475902
-4.094,0.3982103305061718,0.500131962733231
-4.0935,0.1741366584941764,0.1186529801464035
-4.093,-0.5300948821122373,-0.7078848154559045
-4.0925,-1.106284324426576,-1.44964950381695
-4.092,-1.36236852101128,-1.905304955239603
-4.0915,-1.138294849000148,-1.661582271920973
-4.091,-0.4554036581084589,-0.8668343915334161
-4.0905,0.1421261339221086,-0.09327978795572123
-4.09,0.5155822539406614,0.4259554938970107
-4.0895,0.6756348768059011,0.7438546460520338
-4.089,0.6863050516635741,0.9134008605345585
-4.0885,0.6436243522328531,0.9769806909657173
-4.088,0.6863050516635838,0.9345941373450475
-4.0875,0.7503261008096214,0.8498210301037852
-4.087,0.6863050516635062,0.8286277532933731
-4.0865,0.6009436528021226,0.8286277532933731
-4.086,0.515582253940739,0.8286277532933731
-4.0855,0.4622313796519182,0.7968378380776203
-4.085,0.09944543449103843,0.5213252395435176
-4.0845,-0.8822106524148716,-0.4429688553258417
-4.084,-1.970568487899792,-1.661582271921436
-4.0835,-2.408045657064382,-2.17022091536901
-4.083,-2.280003558772191,-2.17022091536901
-4.0825,-1.458400094729793,-1.364876396575428
-4.082,-0.5407650569699201,-0.4217755785163839
-4.0815,0.02475421048725994,0.1716361721729923
-4.081,0.3235191065021021,0.4789386859225684
-4.0805,0.4622313796522482,0.6060983467848571
-4.08,0.4942419042252961,0.6166949851900245
-4.0795,0.4942419042252961,0.5849050699745511
-4.079,0.4729015545099114,0.5425185163538236
-4.0785,0.4515612047945656,0.5107286011383502
-4.078,0.4302208550792198,0.4789386859228768
-4.0775,0.4195506802213624,0.4577454091123299
-4.077,0.2488278824985954,0.2564092794143318
-4.0765,-0.519424707253856,-0.474758770541556
-4.076,-1.127624674142601,-1.205926820499198
-4.0755,-1.277007122150022,-1.672178910326141
-4.075,-1.277007122150022,-1.873515040024322
-4.0745,-0.7114878546922503,-1.375473034980663
-4.074,-0.06060718837420119,-0.5065486857577234
-4.0735,0.3982103305061524,0.2564092794143318
-4.073,0.6329541773749571,0.7544512844567481
-4.0725,0.707645401378949,0.9451907757502149
-4.072,0.6863050516635838,0.9981739677760521
-4.0715,0.6649647019482378,0.9981739677760521
-4.071,0.7289857510942852,0.9028042221294778
-4.0705,0.6969752265212663,0.8286277532933731
-4.07,0.6116138276598827,0.7756445612675842
-4.0695,0.5369226036559684,0.7332580076468181
-4.069,0.4729015545099309,0.6802748156210291
-4.0685,-0.04993701351651855,0.09745970333682032
-4.068,-1.084943974712327,-1.057573882827085
-4.0675,-1.735824641030376,-1.778145294377815
-4.067,-2.173301810195364,-2.371557045067191
-4.0665,-2.258663209056204,-2.594086451575052
-4.066,-1.575772018165136,-1.873515040024322
-4.0655,-0.7648387289812555,-0.8880276683437509
-4.065,-0.156638762093898,-0.1250697031723896
-4.0645,0.2274875327832301,0.3729723018711736
-4.064,0.4302208550792003,0.6166949851900245
-4.0635,0.5049120790829109,0.690871454026129
-4.063,0.5049120790829692,0.6908714540261677
-4.0625,0.4942419042252961,0.6590815388106942
-4.062,0.4729015545099503,0.6060983467849053
-4.0615,0.4408910299368539,0.5637117931641392
-4.061,0.408880505363835,0.5107286011383502
-4.0605,0.3768699807907871,0.4259554938970107
-4.06,-0.1139580626632743,-0.08268314955176814
-4.0595,-0.839529952985034,-0.8986243067489184
-4.059,-1.234326422719292,-1.576809164679634
-4.0585,-1.37303869586904,-1.947691508860157
-4.058,-0.9462317015618604,-1.534422611058964
-4.0575,-0.2099896363817582,-0.7290780922662394
-4.057,0.3661998059325804,0.02328323449996406
-4.0565,0.6863050516635838,0.5425185163538525
-4.056,0.7609962756673623,0.8710143069140429
-4.0555,0.7289857510943434,1.040560521396568
-4.055,0.6863050516637197,1.093543713422665
-4.0545,0.8356874996711408,1.210106735879401
-4.054,0.8356874996711408,1.135930267043296
-4.0535,0.7183155762365248,0.9239974989397065
-4.053,0.6009436528021226,0.7332580076468663
-4.0525,0.5155822539406614,0.6060983467848571
-4.052,0.3661998059321728,0.4789386859219998
-4.0515,-0.658136980404429,-0.4535654937318862
-4.051,-1.597112367880501,-1.47084278062796
-4.0505,-1.767835165603269,-2.000674700885849
-4.05,-1.991908837614759,-2.382153683472359
-4.0495,-1.703814116457328,-2.043061254507001
-4.049,-0.9248913518472036,-1.057573882827326
-4.0485,-0.3060212101005138,-0.2098428104125052
-4.048,0.1207857842064037,0.3729723018711736
-4.0475,0.3661998059328813,0.712064730836223
-4.047,0.47290155450996,0.8604176685089043
-4.0465,0.5049120790829789,0.8922075837243778
-4.046,0.4942419042253058,0.88161094531922
-4.0455,0.4835717293675941,0.839224391698502
-4.045,0.4622313796522482,0.7968378380778709
-4.0445,0.4408910299368829,0.7438546460520338
-4.044,0.4195506802212459,0.680274815620605
-4.0435,0.1207857842064037,0.2140227257936621
-4.043,-0.5834457564006506,-0.6019184314042303
-4.0425,-0.9035510021308388,-1.174136905282751
-4.042,-0.9142211769888124,-1.545019249464132
-4.0415,-0.4340633083930936,-1.301296566145281
-4.041,0.1634664836365908,-0.612515069810024
-4.0405,0.600943652802307,0.02328323450104343
-4.04,0.8036769750980928,0.457745409112513
-4.0395,0.8356874996711117,0.6908714540259845
-4.039,0.7716664505249672,0.7862411996727323
-4.0385,0.6863050516635838,0.8180311148882058
-4.038,0.6863050516635838,0.9028042221294681
-4.0375,0.6969752265212081,0.9345941373449704
-4.037,0.6329541773751706,0.849821030103708
-4.0365,0.5582629533713921,0.7438546460520338
-4.036,0.504912079082843,0.6590815388105593
-4.0355,0.3555296310754218,0.5107286011383502
-4.035,-0.722158029550525,-0.5065486857577234
-4.0345,-1.469070269587631,-1.333086481360031
-4.034,-1.970568487899394,-2.064254531317336
-4.0335,-2.301343908487556,-2.25499402261035
-4.033,-2.504077230783342,-2.276187299420665
-4.0325,-2.013249187329358,-1.79933857118737
-4.032,-1.170305373573196,-0.9410108603695881
-4.0315,-0.4127229586784174,-0.1568596183879113
-4.031,0.1101156093489831,0.3835689402766205
-4.0305,0.3982103305061524,0.6908714540261965
-4.03,0.5155822539405546,0.8180311148880901
-4.0295,0.536922603656017,0.8498210301036984
-4.029,0.5262524287983441,0.8392243916985406
-4.0285,0.4942419042252961,0.8074344764830383
-4.028,0.4622313796522191,0.7544512844571433
-4.0275,0.4302208550792003,0.6908714540261965
-4.027,0.2594980573562781,0.4683420475176805
-4.0265,-0.4980843575385004,-0.3052125560588386
-4.026,-1.095614149569417,-1.0999604364471
-4.0255,-1.287677297007705,-1.629792356705471
-4.025,-0.8502001278431146,-1.725162102351891
-4.0245,-0.09261771294676391,-1.099960436446329
-4.024,0.4408910299368829,-0.252229364033705
-4.0235,0.6863050516633606,0.3729723018706049
-4.023,0.7609962756673428,0.7226613692418916
-4.0225,0.7396559259519968,0.9345941373450475
-4.022,0.6756348768059592,0.966384052560521
-4.0215,0.6756348768059981,0.8922075837242911
-4.021,0.7823366253827275,0.7968378380778709
-4.0205,0.7289857510943143,0.6908714540261965
-4.02,0.632954177375093,0.6060983467847992
-4.0195,0.5475927785137094,0.5425185163538525
-4.019,0.4835717293676135,0.5213252395435176
-4.0185,0.3128489316448465,0.3835689402764663
-4.018,-0.7755089038389382,-0.6866915386455698
-4.0175,-1.447729919872945,-1.460246142222792
-4.017,-1.746494815887787,-1.968884785670366
-4.0165,-1.917217613610447,-2.170220915368355
-4.016,-1.330357996438436,-1.449649503817625
-4.0155,-0.5834457564013299,-0.5065486857585811
-4.015,-0.06060718837390035,0.1822328105785549
-4.0145,0.2701682322139607,0.6166949851900245
-4.014,0.4408910299367277,0.8392243916983382
-4.0135,0.4942419042253058,0.92399749893988
-4.013,0.5049120790829789,0.92399749893988
-4.0125,0.4942419042252961,0.8922075837243778
-4.012,0.4729015545099114,0.8498210301036695
-4.0115,0.4515612047945656,0.8074344764830383
-4.011,0.4302208550792003,0.7544512844572011
-4.0105,0.4088805053638545,0.7014680924314122
-4.01,0.3128489316446912,0.627291623595192
-4.0095,0.1101156093487211,0.09745970333682032
-4.009,-0.3380317346735423,-0.7184814538603299
-4.0085,-0.4980843575388595,-1.046977244421002
-4.008,-0.1352984123779797,-0.7608680074817418
-4.0075,0.3235191065019566,-0.2522293640341676
-4.007,0.6542945270906523,0.2140227257939512
-4.0065,0.7823366253827275,0.5319218779486851
-4.006,0.7823366253827275,0.6908714540261965
-4.0055,0.7289857510942754,0.7120647308365026
-4.005,0.6863050516635838,0.6802748156210291
-4.0045,0.7823366253827275,0.55311515475902
-4.004,0.7609962756672749,0.4789386859228479
-4.0035,0.6649647019482183,0.4789386859228479
-4.003,0.5689331282290746,0.5107286011383502
-4.0025,0.2701682322142324,0.3199891098455099
-4.002,-0.4020527838200457,-0.2734226408440398
-4.0015,-0.6474668055467465,-0.7608680074817418
-4.001,-1.223656247861085,-1.587405803084049
-4.0005,-1.703814116457668,-2.191414192179538
-4,-2.07727023647622,-2.403346960282694
-3.9995,-2.066600061618538,-2.244397384205182
-3.999,-1.437059745015262,-1.375473034981453
-3.9985,-0.6688071552621118,-0.3687923864905467
-3.998,-0.07127736323188383,0.3941655786815084
-3.9975,0.291508581929326,0.849821030103708
-3.997,0.4729015545099309,1.061753798207057
-3.9965,0.5369226036560266,1.125333628638062
-3.996,0.5369226036560266,1.093543713422559
-3.9955,0.5155822539406614,1.019367244586387
-3.995,0.4729015545099309,0.9134008605347127
-3.9945,0.4408910299368829,0.8074344764830383
-3.994,0.408880505363835,0.6802748156210291
-3.9935,0.2061471830678648,0.2987958330350016
-3.993,-0.391382608962363,-0.5065486857577234
-3.9925,-0.8608703027003992,-1.301296566145281
-3.992,-1.095614149569417,-1.75695201756748
-3.9915,-0.6794773301197943,-1.449649503817625
-3.991,-0.01792648894347063,-0.7714646458869092
-3.9905,0.5049120790829789,-0.1674562567923655
-3.99,0.7823366253827275,0.2140227257936621
-3.9895,0.857027849386506,0.4153588554918433
-3.989,0.8143471499557753,0.4153588554918433
-3.9885,0.7289857510943143,0.3729723018711736
-3.988,0.825017324813458,0.4683420475176805
-3.9875,0.8890383739595538,0.55311515475902
-3.987,0.8036769750980928,0.55311515475902
-3.9865,0.6649647019482183,0.5213252395435176
-3.986,0.5582629533713921,0.5107286011383502
-3.9855,0.4515612047945656,0.4789386859228479
-3.985,-0.3060212101009019,-0.2840192792492073
-3.9845,-1.351698346153801,-1.375473034981453
-3.984,-1.597112367880501,-1.852321763213987
-3.9835,-1.735824641030376,-2.21260746898968
-3.983,-1.351698346153801,-1.746355379162313
-3.9825,-0.6261264558313813,-0.7078848154559045
-3.982,-0.1032878878049318,0.1292496185523226
-3.9815,0.2274875327832301,0.6908714540261965
-3.981,0.408880505363835,1.00877060618122
-3.9805,0.4729015545099309,1.146526905448396
-3.98,0.4942419042252961,1.167720182258731
-3.9795,0.4835717293676135,1.146526905448396
-3.979,0.4729015545099309,1.093543713422559
-3.9785,0.4729015545099309,1.040560521396722
-3.978,0.4408910299368829,0.9557874141553824
-3.9775,0.4195506802215176,0.849821030103708
-3.977,0.2168173579255475,0.5319218779486851
-3.9765,-0.5834457564006506,-0.3158091944647096
-3.976,-1.277007122150022,-1.195330182093607
-3.9755,-1.586442193022819,-1.788741932782983
-3.975,-1.426389570157579,-1.714565463946811
-3.9745,-0.6794773301197943,-1.036380606016095
-3.974,0.03542438534494258,-0.2946159176543747
-3.9735,0.5262524287983441,0.2246193641988295
-3.973,0.7503261008096795,0.4895353243280153
-3.9725,0.8036769750980928,0.5425185163538525
-3.972,0.7396559259519968,0.5001319627331828
-3.9715,0.7289857510943143,0.3517790250608387
-3.971,0.7823366253827275,0.1822328105781598
-3.9705,0.7183155762366316,0.1928294489833272
-3.97,0.6222840025174878,0.2776025562246667
-3.9695,0.5369226036560266,0.383568940276341
-3.969,0.4729015545099309,0.4471487707073456
-3.9685,-0.1673089369510276,-0.1144730647665284
-3.968,-1.159635198715513,-1.131750351662602
-3.9675,-1.46907026958831,-1.672178910326141
-3.967,-1.949228138184029,-2.191414192179345
-3.9665,-2.301343908487556,-2.424540237093029
-3.966,-1.810515865034154,-1.820531847998485
-3.9655,-0.9995825758502737,-0.8244478379127463
-3.965,-0.3166913849585846,0.02328323450064829
-3.9645,0.142126133921769,0.5955017083796896
-3.964,0.3982103305061524,0.9134008605347127
-3.9635,0.5049120790829789,1.040560521396722
-3.963,0.5262524287983441,1.061753798207057
-3.9625,0.5155822539406614,1.029963882991555
-3.962,0.4942419042252961,0.9663840525605498
-3.9615,0.4622313796522482,0.8922075837243778
-3.961,0.4408910299368829,0.8180311148882058
-3.9605,0.408880505363835,0.7120647308365314
-3.96,-0.03926683865883591,0.1186529801471552
-3.9595,-0.5941159312583333,-0.6760949002404023
-3.959,-1.052933450138687,-1.34368311976595
-3.9585,-1.095614149569417,-1.258910012524611
-3.958,-0.5194247072545548,-0.6443049850249
-3.9575,0.142126133921769,-0.08268314955102604
-3.957,0.5689331282290746,0.2881991946298341
-3.9565,0.7503261008096795,0.4683420475176805
-3.956,0.7823366253827275,0.4789386859228479
-3.9555,0.7289857510943143,0.4365521323021782
-3.955,0.6756348768059011,0.3729723018711736
-3.9545,0.7396559259519968,0.2564092794143318
-3.954,0.6969752265212663,0.2776025562246667
-3.9535,0.6222840025174878,0.383568940276341
-3.953,0.5582629533713921,0.4895353243280153
-3.9525,0.5049120790829789,0.5849050699745222
-3.952,0.3768699807907871,0.5107286011383502
-3.9515,-0.3700422592469978,-0.6443049850249
-3.951,-0.7008176798351597,-1.449649503817625
-3.9505,-1.159635198715513,-1.990078062481164
-3.95,-1.543761493592088,-2.180817553774178
-3.9495,-1.138294849000148,-1.396666311791788
-3.949,-0.4874141826815069,-0.3687923864905467
-3.9485,-0.03926683865883591,0.3729723018711736
-3.948,0.2594980573562781,0.8286277532933731
-3.9475,0.408880505363835,1.051157159801889
-3.947,0.4729015545099309,1.125333628638062
-3.9465,0.4942419042252961,1.125333628638062
-3.946,0.4835717293676135,1.072350436612224
-3.9455,0.4835717293676135,1.019367244586387
-3.945,0.4729015545099309,0.9451907757502149
-3.9445,0.4515612047945656,0.8604176685088755
-3.944,0.4195506802215176,0.7544512844572011
-3.9435,0.04609456020262521,0.2881991946298341
-3.943,-0.6474668055467465,-0.5913217929990628
-3.9425,-1.042263275281004,-1.354279758171118
-3.942,-1.159635198715513,-1.640388995110639
-3.9415,-0.690147504977477,-1.131750351662602
-3.941,-0.02859666380115328,-0.4429688553267188
-3.9405,0.4515612047945656,0.06566978812131802
-3.94,0.6863050516635838,0.3517790250608387
-3.9395,0.7396559259519968,0.3941655786815084
-3.939,0.7289857510943143,0.309392471440169
-3.9385,0.6649647019482183,0.2776025562246667
-3.938,0.7823366253827275,0.2140227257936621
-3.9375,0.8356874996711408,0.2140227257936621
-3.937,0.7396559259519968,0.3305857482505039
-3.9365,0.6222840025174878,0.4471487707073456
-3.936,0.5262524287983441,0.5319218779486851
-3.9355,0.4622313796522482,0.5955017083796896
-3.935,-0.3060212101009019,-0.1674562567923655
-3.9345,-1.26633694729234,-1.195330182093607
-3.934,-1.767835165603424,-1.809935209593318
-3.9335,-2.258663209056825,-2.244397384205182
-3.933,-2.312014083345239,-2.244397384205182
-3.9325,-1.565101843307454,-1.396666311791788
-3.932,-0.754168554123573,-0.4323722169215513
-3.9315,-0.124628237520297,0.309392471440169
-3.931,0.2594980573562781,0.775644561267536
-3.9305,0.4515612047945656,1.00877060618122
-3.93,0.5262524287983441,1.082947075017392
-3.9295,0.5262524287983441,1.072350436612224
-3.929,0.5049120790829789,1.00877060618122
-3.9285,0.4729015545099309,0.9345941373450475
-3.928,0.4515612047945656,0.849821030103708
-3.9275,0.4195506802215176,0.7544512844572011
-3.927,0.2701682322139607,0.5107286011383502
-3.9265,-0.4340633083930936,-0.2628260024388724
-3.926,-0.9889124009925911,-1.0999604364471
-3.9255,-1.330357996438436,-1.672178910326141
-3.925,-1.095614149569417,-1.47084278062796
-3.9245,-0.391382608962363,-0.792657922697244
-3.924,0.2594980573562781,-0.1356663415768632
-3.9235,0.6542945270905358,0.3305857482505039
-3.923,0.79300680024041,0.5213252395435176
-3.9225,0.7716664505250448,0.55311515475902
-3.922,0.7183155762366316,0.4683420475176805
-3.9215,0.7503261008096795,0.309392471440169
-3.921,0.8356874996711408,0.1504428953626575
-3.9205,0.7609962756673623,0.2034260873884947
-3.92,0.6436243522328531,0.3411823866556712
-3.9195,0.5475927785137094,0.457745409112513
-3.919,0.4729015545099309,0.5425185163538525
-3.9185,-0.156638762093345,-0.01910331912002144
-3.918,-1.052933450138687,-1.216523458903942
-3.9175,-1.661133417026597,-1.894708316834657
-3.917,-2.258663209056825,-2.382153683472359
-3.9165,-2.536087755356574,-2.498716705929201
-3.916,-1.906547438753298,-1.75695201756748
-3.9155,-1.020922925565639,-0.7078848154559045
-3.915,-0.3060212101009019,0.13984625695749
-3.9145,0.1741366584948169,0.701468092431364
-3.914,0.4195506802215176,0.9875773293708847
-3.9135,0.5262524287983441,1.093543713422559
-3.913,0.5475927785137094,1.093543713422559
-3.9125,0.5262524287983441,1.029963882991555
-3.912,0.5049120790829789,0.9557874141553824
-3.9115,0.4729015545099309,0.8710143069140429
-3.911,0.4408910299368829,0.775644561267536
-3.9105,0.3555296310754218,0.5637117931641874
-3.91,-0.2526703358124887,-0.1674562567923655
-3.9095,-0.9355615267041777,-1.05757388282643
-3.909,-1.362368521011484,-1.735758740757146
-3.9085,-1.639793067311232,-2.074851169722503
-3.908,-1.138294849000148,-1.51322933424863
-3.9075,-0.3380317346739499,-0.6866915386455698
-3.907,0.2808384070716433,0.02328323450064829
-3.9065,0.6329541773751706,0.457745409112513
-3.906,0.7609962756673623,0.627291623595192
-3.9055,0.7823366253827275,0.5955017083796896
-3.905,0.7503261008096795,0.5425185163538525
-3.9045,0.8143471499557753,0.5637117931641874
-3.904,0.7609962756673623,0.5319218779486851
-3.9035,0.6542945270905358,0.4683420475176805
-3.903,0.5582629533713921,0.4365521323021782
-3.9025,0.5049120790829789,0.4153588554918433
-3.902,0.291508581929326,0.3199891098453364
-3.9015,-0.9995825758502737,-0.792657922697244
-3.901,-2.013249187330125,-1.693372187136476
-3.9005,-2.504077230783526,-2.223204107394847
-3.9,-2.621449154218035,-2.413943598687861
-3.8995,-1.821186039891837,-1.619195718300304
-3.899,-0.8288597781273515,-0.5383386009732256
-3.8985,-0.1459685872356623,0.2564092794143318
-3.898,0.2594980573562781,0.7544512844572011
-3.8975,0.4729015545099309,1.00877060618122
-3.897,0.5369226036560266,1.093543713422559
-3.8965,0.5369226036560266,1.093543713422559
-3.896,0.5262524287983441,1.051157159801889
-3.8955,0.5049120790829789,0.9981739677760521
-3.895,0.4835717293676135,0.9345941373450475
-3.8945,0.4622313796522482,0.8604176685088755
-3.894,0.4302208550792003,0.7544512844572011
-3.8935,0.01408403562957729,0.2670059178194992
-3.893,-0.7755089038389382,-0.6337083466197325
-3.8925,-1.26633694729234,-1.407262950196955
-3.892,-1.51175096901904,-1.862918401619155
-3.8915,-1.06360362499637,-1.449649503817625
-3.891,-0.2953510352432193,-0.6972881770507372
-3.8905,0.3341892813600565,-0.05089323433552374
-3.89,0.6649647019482183,0.383568940276341
-3.8895,0.7609962756673623,0.5743084315693548
-3.889,0.7503261008096795,0.6166949851900245
-3.8885,0.707645401378949,0.5425185163538525
-3.888,0.7503261008096795,0.5955017083796896
-3.8875,0.7396559259519968,0.5955017083796896
-3.887,0.6649647019482183,0.5425185163538525
-3.8865,0.5796033030867573,0.4789386859228479
-3.886,0.5155822539406614,0.457745409112513
-3.8855,0.4515612047945656,0.4259554938970107
-3.885,-0.09261771294724913,-0.3687923864905467
