Class_4_Move_right_hand_Horiszontal/Class_4_Move_right_hand_horizontal_Basim_7.csv

#Digilent WaveForms Oscilloscope Acquisition
#Device Name: EExplorer
#Serial Number: SN:210151A2B84A
#Date Time: 2020-12-15 13:56:50.895
#Sample rate: 2000Hz
#Samples: 16384
#Trigger: Source: Channel 1 Type: Edge Condition: Rising Level: 0 V Hyst.: Auto HoldOff: 0 s
#Channel 1: Range: 1 V/div Offset: 0 V Attenuation: 1 X
#Channel 2: Range: 1 V/div Offset: 0 V Attenuation: 1 X
#Power Supplies: ON
#Fixed Supply: ON
#Voltage: 3.3 V Readback: 3.325 V
#Positive Supply: ON
#Voltage: 3.7 V Readback: 3.709 V
#Current: 40 mA Readback: 20 mA
#Negative Supply: ON
#Voltage: -3.7 V Readback: -3.349 V
#Current: -40 mA Readback: -8 mA
#Reference 1: ON
#Voltage: 0 V
#Reference 2: ON
#Voltage: 0 V

Time (s),Channel 1 (V),Channel 2 (V)
-4.096,0.4302208550792003,0.457745409112513
-4.0955,0.4942419042252379,0.2352160026041993
-4.095,0.5475927785136705,0.06566978812127947
-4.0945,0.5049120790829789,0.02328323450064829
-4.094,0.4408910299369412,0.03387987290580608
-4.0935,0.3875401556483921,0.06566978812135657
-4.093,0.3021787567870086,0.1080563417419877
-4.0925,-0.1886492866659464,0.4153588554915638
-4.092,-0.9782422261355295,0.1716361721723466
-4.0915,-1.661133417026597,-0.5383386009732256
-4.091,-2.023919362187807,-0.5807251545938954
-4.0905,-1.46907026958765,-0.2840192792490241
-4.09,-0.7434983792658902,-0.08268314955102604
-4.0895,-0.1673089369510276,0.05507314971615059
-4.089,0.1848068333521793,0.1292496185522551
-4.0885,0.3661998059331045,0.1822328105781598
-4.088,0.4195506802215176,0.2140227257936621
-4.0875,0.4195506802215176,0.2564092794142933
-4.087,0.3982103305061233,0.2987958330350305
-4.0865,0.3661998059331045,0.3305857482505039
-4.086,0.3555296310754315,0.3835689402762928
-4.0855,0.3448594562177295,0.4153588554918722
-4.085,0.3341892813600565,0.4471487707073456
-4.0845,0.1954770082103083,0.3411823866557676
-4.084,-0.412722958678398,-0.2628260024395374
-4.0835,-1.148965023857831,-0.9939940523954253
-4.083,-1.618452717595867,-1.42845622700729
-4.0825,-1.159635198714892,-1.184733543687928
-4.082,-0.4767440078238243,-0.6231117082145651
-4.0815,0.05676473506030786,-0.09327978795619347
-4.081,0.3448594562174772,0.2564092794140138
-4.0805,0.4622313796522482,0.4365521323021782
-4.08,0.4835717293676135,0.5001319627331828
-4.0795,0.4515612047945947,0.489535324328025
-4.079,0.4515612047946044,0.4153588554917469
-4.0785,0.4942419042252961,0.309392471440169
-4.078,0.4729015545099503,0.2352160026040644
-4.0775,0.4195506802214788,0.1822328105781308
-4.077,0.3768699807907871,0.1504428953626575
-4.0765,0.3448594562177683,0.1080563417420263
-4.076,0.05676473505964796,0.3411823866560182
-4.0755,-0.6688071552621118,0.7226613692416989
-4.075,-1.415719395299897,0.2246193641988295
-4.0745,-1.981238662756931,-0.199246172007704
-4.074,-1.821186039891837,-0.01910331912002144
-4.0735,-1.074273799854052,0.06566978812131802
-4.073,-0.41272295867833,0.08686306493163361
-4.0725,0.04609456020262521,0.09745970333682032
-4.072,0.3021787567870086,0.1080563417419877
-4.0715,0.408880505363738,0.1398462569574611
-4.071,0.4302208550791906,0.192829448983385
-4.0705,0.4195506802215176,0.2564092794143318
-4.07,0.3875401556484989,0.3199891098452786
-4.0695,0.366199805933085,0.3835689402763892
-4.069,0.3448594562177392,0.4365521323021782
-4.0685,0.3448594562177392,0.4895353243280153
-4.068,0.3021787567865719,0.4471487707068734
-4.0675,-0.1779791118087102,-0.07208651114585861
-4.067,-0.9355615267041777,-0.8032545611024114
-4.0665,-1.543761493591923,-1.333086481360619
-4.066,-1.362368521011484,-1.152943628472937
-4.0655,-0.690147504977477,-0.6125150698093976
-4.065,-0.1139580626631385,-0.1038764263618235
-4.0645,0.2488278824985954,0.2564092794143318
-4.064,0.4195506802215176,0.4683420475176805
-4.0635,0.4729015545098824,0.542518516353785
-4.063,0.4622313796522385,0.5213252395434501
-4.0625,0.4515612047945656,0.4471487707073456
-4.062,0.5049120790829303,0.319989109845452
-4.0615,0.4942419042252573,0.214022725793585
-4.061,0.4515612047945656,0.1292496185523226
-4.0605,0.3982103305061524,0.06566978812131802
-4.06,0.3661998059329395,0.02328323450073503
-4.0595,0.1848068333524996,0.1186529801471552
-4.059,-0.4340633083930936,0.6060983467848571
-4.0585,-1.095614149568816,0.4365521323023324
-4.058,-1.543761493592088,-0.1674562567923655
-4.0575,-1.597112367880501,-0.1038764263613609
-4.057,-1.052933450139182,0.00208995769021704
-4.0565,-0.4554036581084589,0.04447651131098315
-4.056,-0.007256314085787988,0.08686306493165288
-4.0555,0.2701682322137084,0.1292496185522841
-4.055,0.3875401556484988,0.1822328105782079
-4.0545,0.4195506802215176,0.2352160026039969
-4.054,0.4088805053638447,0.3093924714401015
-4.0535,0.3875401556484503,0.3729723018712314
-4.053,0.3661998059331045,0.4365521323021782
-4.0525,0.3555296310754218,0.5001319627331828
-4.052,0.3448594562177295,0.5425185163538718
-4.0515,0.3341892813600565,0.5637117931641874
-4.051,-0.007256314085787988,0.1928294489833272
-4.0505,-0.7541685541228936,-0.5383386009725606
-4.05,-1.458400094730627,-1.184733543688439
-4.0495,-1.533091318734406,-1.38606967338662
-4.049,-0.8715404775586836,-0.9410108603699929
-4.0485,-0.2313299860967256,-0.3158091944642663
-4.048,0.2061471830678648,0.1716361721729923
-4.0475,0.4195506802213236,0.4259554938967794
-4.047,0.4835717293676135,0.4895353243279961
-4.0465,0.4835717293676135,0.4683420475176805
-4.046,0.4515612047945947,0.4047622170867337
-4.0455,0.4515612047945656,0.2881991946297378
-4.045,0.4515612047945656,0.1822328105781598
-4.0445,0.4195506802215176,0.1080563417419877
-4.044,0.3875401556484503,0.0444765113109446
-4.0435,0.3661998059331045,0.002089957690313421
-4.043,0.291508581929326,0.01268659609548085
-4.0425,-0.1886492866659562,0.4047622170863193
-4.042,-0.9569018764195432,0.5319218779486851
-4.0415,-1.575772018165136,-0.1038764263613609
-4.041,-1.895877263895325,-0.1780528951974655
-4.0405,-1.415719395299276,-0.008506680714796187
-4.04,-0.7328282044082075,0.05507314971615059
-4.0395,-0.167308936951542,0.08686306493162396
-4.039,0.1848068333526645,0.1186529801471841
-4.0385,0.3661998059331045,0.1504428953626575
-4.038,0.4302208550791421,0.2034260873884465
-4.0375,0.4302208550791809,0.2670059178195667
-4.037,0.408880505363835,0.3411823866556712
-4.0365,0.3875401556484697,0.4047622170866759
-4.036,0.3661998059330948,0.4683420475177287
-4.0355,0.3555296310754218,0.5213252395435176
-4.035,0.3555296310754218,0.5637117931641874
-4.0345,0.3875401556484406,0.3729723018713471
-4.034,0.09944543449103843,-0.2840192792492073
-4.0335,-0.6688071552621118,-0.9833974139902578
-4.033,-1.212986073003432,-1.343683119765623
-4.0325,-0.8928808272729232,-0.9939940523948759
-4.032,-0.3166913849585846,-0.3899856633008816
-4.0315,0.1207857842060058,0.08686306493121915
-4.031,0.3555296310755091,0.3729723018712892
-4.0305,0.4515612047945656,0.5001319627331828
-4.03,0.4622313796522385,0.5001319627331828
-4.0295,0.440891029936912,0.4471487707072396
-4.029,0.4729015545099309,0.3305857482505039
-4.0285,0.5369226036560266,0.1716361721729923
-4.028,0.5155822539406032,0.07626642652643727
-4.0275,0.4515612047945656,0.02328323450064829
-4.027,0.408880505363835,-0.01910331912002144
-4.0265,0.3555296310754703,-0.05089323433549483
-4.026,0.02475421048725994,0.08686306493165288
-4.0255,-0.6474668055467465,-0.04029659593035631
-4.025,-1.127624674142029,-0.6866915386449819
-4.0245,-1.426389570157395,-0.8456411147227343
-4.024,-1.223656247861609,-0.4641621321370536
-4.0235,-0.7008176798356353,-0.1674562567926354
-4.023,-0.1886492866660824,0.01268659609557723
-4.0225,0.1527963087794516,0.1186529801471552
-4.022,0.3341892813598916,0.1822328105781019
-4.0215,0.4088805053638447,0.224619364198868
-4.021,0.4195506802215176,0.2670059178194992
-4.0205,0.408880505363835,0.2987958330350016
-4.02,0.3768699807907774,0.3517790250608772
-4.0195,0.3661998059331045,0.3941655786815084
-4.019,0.3555296310754218,0.4365521323021782
-4.0185,0.3555296310754218,0.4683420475176516
-4.018,0.3341892813600565,0.383568940276341
-4.0175,-0.01792648894347063,-0.1886495336027004
-4.017,-0.7114878546922114,-0.9198175835585882
-4.0165,-1.255666772434473,-1.439052865412207
-4.016,-1.052933450138687,-1.163540266878104
-4.0155,-0.4554036581090023,-0.6019184314047411
-4.015,0.035424385345224,-0.1250697031714066
-4.0145,0.3448594562177392,0.1928294489833272
-4.014,0.4729015545098144,0.3411823866555364
-4.0135,0.494241904225267,0.3835689402763314
-4.013,0.4622313796522482,0.3729723018711736
-4.0125,0.4408910299368829,0.3411823866556712
-4.012,0.5155822539406614,0.2776025562246185
-4.0115,0.5155822539406614,0.2246193641988295
-4.011,0.4622313796522482,0.1716361721729923
-4.0105,0.4195506802215564,0.139846256957519
-4.01,0.3768699807907871,0.1186529801471552
-4.0095,0.1954770082101822,0.2140227257936621
-4.009,-0.4554036581078669,0.6060983467845005
-4.0085,-1.191645723288988,0.2987958330344426
-4.008,-1.661133417026597,-0.3158091944647096
-4.0075,-1.757164990745654,-0.1462629799821848
-4.007,-1.180975548430296,0.02328323450071575
-4.0065,-0.5407650569699201,0.09745970333682032
-4.006,-0.03926683865883591,0.1186529801471552
-4.0055,0.2594980573564042,0.1504428953626864
-4.005,0.3982103305061524,0.1822328105781598
-4.0045,0.4302208550792003,0.2352160026039969
-4.004,0.4302208550791712,0.288199194629892
-4.0035,0.3982103305061524,0.3517790250608387
-4.003,0.3768699807907871,0.4153588554918433
-4.0025,0.3661998059331142,0.4683420475176323
-4.002,0.3555296310754218,0.5213252395435176
-4.0015,0.3341892813600565,0.5425185163538525
-4.001,0.05676473506056018,0.2246193641991186
-4.0005,-0.6367966306896752,-0.4853554089479764
-4,-1.30901764672307,-1.131750351662602
-3.9995,-1.415719395299897,-1.174136905283272
-3.999,-0.8288597781273515,-0.7608680074817418
-3.9985,-0.2206598112394408,-0.326405832869877
-3.998,0.1954770082101822,0.04447651131098315
-3.9975,0.4195506802215176,0.2987958330350016
-3.997,0.4942419042252961,0.4047622170866759
-3.9965,0.4942419042252961,0.4259554938970107
-3.996,0.4622313796522482,0.3729723018711736
-3.9955,0.5262524287983441,0.1716361721729923
-3.995,0.5689331282290746,0.01268659609548085
-3.9945,0.5262524287983441,-0.02969995752518888
-3.994,0.4515612047945656,-0.02969995752518888
-3.9935,0.3982103305061524,-0.02969995752518888
-3.993,0.291508581929326,0.002089957690313421
-3.9925,-0.2633405106701714,0.1716361721729923
-3.992,-0.9142211769888124,-0.2416327256285375
-3.9915,-1.383708870726849,-0.8880276683437509
-3.991,-1.629122892453549,-0.718481453861072
-3.9905,-1.212986073003927,-0.326405832869877
-3.99,-0.6047861061160158,-0.07208651114585861
-3.9895,-0.1032878878049318,0.06566978812131802
-3.989,0.2168173579255475,0.1292496185523226
-3.9885,0.3768699807907871,0.1716361721729923
-3.988,0.4302208550792003,0.2034260873884947
-3.9875,0.4302208550792003,0.2458126410091644
-3.987,0.408880505363835,0.2881991946298341
-3.9865,0.3875401556484697,0.3305857482505039
-3.986,0.3661998059331045,0.3729723018711736
-3.9855,0.3555296310754218,0.4153588554918433
-3.985,0.3555296310754218,0.457745409112513
-3.9845,0.1314559590640864,0.309392471440169
-3.984,-0.4980843575391895,-0.326405832869877
-3.9835,-1.042263275281004,-1.036380606016095
-3.983,-1.277007122150022,-1.364876396576285
-3.9825,-0.8181896032696687,-0.9198175835592532
-3.982,-0.1993194615240755,-0.3370024712750445
-3.9815,0.2274875327832301,0.1186529801471552
-3.981,0.4408910299368829,0.3411823866556712
-3.9805,0.5049120790829789,0.4365521323021782
-3.98,0.4942419042252961,0.457745409112513
-3.9795,0.4622313796522482,0.4259554938970107
-3.979,0.4515612047945656,0.383568940276341
-3.9785,0.4729015545099309,0.2987958330350016
-3.978,0.4408910299368829,0.2352160026039969
-3.9775,0.408880505363835,0.1716361721729923
-3.977,0.3875401556484697,0.1186529801471552
-3.9765,0.3555296310754218,0.09745970333682032
-3.976,0.08877525963335578,0.4047622170866759
-3.9755,-0.6367966306890638,0.7120647308365314
-3.975,-1.383708870726849,0.1186529801471552
-3.9745,-1.938557963326346,-0.2416327256285375
-3.974,-1.725154466172693,-0.05089323433552374
-3.9735,-0.9995825758502737,0.05507314971615059
-3.973,-0.3487019095316325,0.08686306493165288
-3.9725,0.08877525963335578,0.1186529801471552
-3.972,0.3341892813600565,0.1504428953626575
-3.9715,0.4302208550792003,0.1822328105781598
-3.971,0.4515612047945656,0.2352160026039969
-3.9705,0.4302208550792003,0.2987958330350016
-3.97,0.3982103305061524,0.3517790250608387
-3.9695,0.3768699807907871,0.4153588554918433
-3.969,0.3661998059331045,0.457745409112513
-3.9685,0.3555296310754218,0.5001319627331828
-3.968,0.291508581929326,0.457745409112513
-3.9675,-0.2420001609548061,-0.05089323433552374
-3.967,-0.8928808272734472,-0.7820612842920766
-3.9665,-1.287677297007705,-1.280103289334946
-3.966,-1.06360362499637,-1.01518732920576
-3.9655,-0.4767440078238243,-0.474758770542221
-3.965,0.01408403562957729,-0.02969995752518888
-3.9645,0.3235191065023739,0.2564092794143318
-3.964,0.4729015545099309,0.3517790250608387
-3.9635,0.5049120790829789,0.3729723018711736
-3.963,0.4835717293676135,0.3517790250608387
-3.9625,0.4729015545099309,0.2564092794143318
-3.962,0.5902734779444399,-0.01910331912002144
-3.9615,0.5902734779444399,-0.1038764263613609
-3.961,0.5262524287983441,-0.07208651114585861
-3.9605,0.4515612047945656,-0.008506680714854012
-3.96,0.3982103305061524,0.03387987290581572
-3.9595,0.1954770082101822,0.2140227257936621
-3.959,-0.4767440078238243,0.6484849004055269
-3.9585,-1.26633694729234,0.2987958330350016
-3.958,-1.885207089037933,-0.326405832869877
-3.9575,-1.970568487899394,-0.3370024712750445
-3.957,-1.255666772434657,-0.1886495336027004
-3.9565,-0.5514352318276028,-0.008506680714854012
-3.956,-0.02859666380115328,0.1504428953626575
-3.9555,0.2808384070716433,0.2564092794143318
-3.955,0.4195506802215176,0.3305857482505039
-3.9545,0.4515612047945656,0.3729723018711736
-3.954,0.4408910299368829,0.4047622170866759
-3.9535,0.408880505363835,0.4259554938970107
-3.953,0.3875401556484697,0.4471487707073456
-3.9525,0.3768699807907871,0.457745409112513
-3.952,0.3661998059331045,0.4683420475176805
-3.9515,0.3555296310754218,0.4259554938970107
-3.951,0.04609456020262521,-0.05089323433552374
-3.9505,-0.6794773301197943,-0.8244478379127463
-3.95,-1.244996597576974,-1.492036057438295
-3.9495,-1.255666772434657,-1.439052865412457
-3.949,-0.6688071552621118,-0.8880276683437509
-3.9485,-0.1032878878049318,-0.3687923864905467
-3.948,0.2594980573562781,-0.008506680714854012
-3.9475,0.4302208550792003,0.1928294489833272
-3.947,0.4942419042252961,0.2776025562246667
-3.9465,0.4835717293676135,0.2776025562246667
-3.946,0.4515612047945656,0.2458126410091644
-3.9455,0.5049120790829789,0.1080563417419877
-3.945,0.5155822539406614,0.01268659609548085
-3.9445,0.4835717293676135,-0.01910331912002144
-3.944,0.4302208550792003,-0.01910331912002144
-3.9435,0.3982103305061524,0.002089957690313421
-3.943,0.3341892813600565,0.09745970333682032
-3.9425,-0.1352984123779797,0.5849050699745222
-3.942,-0.9248913518464952,0.7120647308365314
-3.9415,-1.629122892453549,0.03387987290581572
-3.941,-2.023919362187807,-0.1568596183871981
-3.9405,-1.522421143876723,-0.01910331912002144
-3.94,-0.7968492535543035,0.1080563417419877
-3.9395,-0.1993194615240755,0.2140227257936621
-3.939,0.1848068333524996,0.309392471440169
-3.9385,0.3768699807907871,0.3729723018711736
-3.938,0.4515612047945656,0.4365521323021782
-3.9375,0.4515612047945656,0.4895353243280153
-3.937,0.4302208550792003,0.5319218779486851
-3.9365,0.3982103305061524,0.5637117931641874
-3.936,0.3768699807907871,0.5849050699745222
-3.9355,0.3661998059331045,0.6060983467848571
-3.935,0.3661998059331045,0.5955017083796896
-3.9345,0.1527963087794516,0.3199891098453364
-3.934,-0.4767440078238243,-0.400582301706049
-3.9335,-1.127624674142465,-1.152943628472937
-3.933,-1.373038695869166,-1.407262950196955
-3.9325,-0.8502001278427167,-0.9092209451540858
-3.932,-0.2526703358124887,-0.3475991096802118
-3.9315,0.1741366584948169,0.05507314971615059
-3.931,0.408880505363835,0.2564092794143318
-3.9305,0.4942419042252961,0.2987958330350016
-3.93,0.4942419042252961,0.2670059178194992
-3.9295,0.4729015545099309,0.1928294489833272
-3.929,0.4942419042252961,0.03387987290581572
-3.9285,0.5369226036560266,-0.1568596183871981
-3.928,0.5049120790829789,-0.2204394488182027
-3.9275,0.4515612047945656,-0.2098428104130352
-3.927,0.408880505363835,-0.1780528951975329
-3.9265,0.3555296310754218,-0.1250697031716958
-3.926,-0.02859666380115328,0.2881991946298341
-3.9255,-0.807519428411986,0.7438546460520338
-3.925,-1.554431668449771,0.2776025562246667
-3.9245,-2.087940411333903,-0.04029659593035631
-3.924,-1.661133417026597,0.03387987290581572
-3.9235,-0.8928808272734472,0.06566978812131802
-3.923,-0.2633405106701714,0.1080563417419877
-3.9225,0.1634664836371343,0.1716361721729923
-3.922,0.3768699807907871,0.2458126410091644
-3.9215,0.4515612047945656,0.3411823866556712
-3.921,0.4622313796522482,0.4365521323021782
-3.9205,0.4408910299368829,0.5319218779486851
-3.92,0.408880505363835,0.6060983467848571
-3.9195,0.3875401556484697,0.6802748156210291
-3.919,0.3768699807907871,0.7332580076468663
-3.9185,0.3661998059331045,0.7650479228623686
-3.918,0.3661998059331045,0.6484849004055269
-3.9175,0.08877525963335578,0.05507314971615059
-3.917,-0.658136980404429,-0.6866915386455698
-3.9165,-1.298347471865388,-1.227120097309109
-3.916,-1.031593100423322,-1.195330182093607
-3.9155,-0.423393133535411,-0.6654982618352349
-3.915,0.0674349099179905,-0.1356663415768632
-3.9145,0.3555296310754218,0.1928294489833272
-3.914,0.4729015545099309,0.3305857482505039
-3.9135,0.5049120790829789,0.3623756634660061
-3.913,0.4835717293676135,0.2987958330350016
-3.9125,0.4835717293676135,0.1716361721729923
-3.912,0.5689331282290746,-0.08268314955102604
-3.9115,0.5689331282290746,-0.2310360872233701
-3.911,0.5049120790829789,-0.3052125560595421
-3.9105,0.4408910299368829,-0.3475991096802118
-3.91,0.3875401556484697,-0.3581957480853793
-3.9095,0.1207857842064037,-0.252229364033705
-3.909,-0.5834457564006506,-0.2204394488182027
-3.9085,-1.170305373573196,-0.7290780922662394
-3.908,-1.597112367880501,-1.05757388282643
-3.9075,-1.565101843307454,-0.6019184314042303
-3.907,-0.9889124009925911,-0.2204394488182027
-3.9065,-0.391382608962363,0.01268659609548085
-3.906,0.05676473506030786,0.1504428953626575
-3.9055,0.3128489316446912,0.2458126410091644
-3.905,0.4195506802215176,0.309392471440169
-3.9045,0.4515612047945656,0.3623756634660061
-3.904,0.4408910299368829,0.4259554938970107
-3.9035,0.408880505363835,0.4789386859228479
-3.903,0.3875401556484697,0.5319218779486851
-3.9025,0.3768699807907871,0.5743084315693548
-3.902,0.3661998059331045,0.6166949851900245
-3.9015,0.3661998059331045,0.5849050699745222
-3.901,0.04609456020262521,0.1186529801471552
-3.9005,-0.6367966306890638,-0.6337083466197325
-3.9,-1.287677297007705,-1.248313374119443
-3.8995,-1.26633694729234,-1.258910012524611
-3.899,-0.6474668055467465,-0.792657922697244
-3.8985,-0.06060718837420119,-0.3052125560595421
-3.898,0.3128489316446912,0.06566978812131802
-3.8975,0.4729015545099309,0.2776025562246667
-3.897,0.5049120790829789,0.3517790250608387
-3.8965,0.4942419042252961,0.309392471440169
-3.896,0.4622313796522482,0.2140227257936621
-3.8955,0.4835717293676135,0.1504428953626575
-3.895,0.4835717293676135,0.09745970333682032
-3.8945,0.4515612047945656,0.03387987290581572
-3.894,0.408880505363835,-0.02969995752518888
-3.8935,0.3875401556484697,-0.06148987274069118
-3.893,0.2701682322139607,-0.04029659593035631
-3.8925,-0.3166913849585846,0.1716361721729923
-3.892,-1.1062843244271,-0.1992461720078678
-3.8915,-1.799845690176472,-0.8032545611024114
-3.891,-2.130621110764634,-0.5807251545938954
-3.8905,-1.46907026958831,-0.2204394488182027
-3.89,-0.7114878546928423,-0.008506680714854012
-3.8895,-0.124628237520297,0.09745970333682032
-3.889,0.2381577076409128,0.1610395337678249
-3.8885,0.408880505363835,0.2140227257936621
-3.888,0.4622313796522482,0.2564092794143318
-3.8875,0.4622313796522482,0.309392471440169
-3.887,0.4302208550792003,0.3729723018711736
