Class_4_Move_right_hand_Horiszontal/Class_4_Move_right_hand_Horiszontal_AM_3.csv

#Digilent WaveForms Oscilloscope Acquisition
#Device Name: EExplorer
#Serial Number: SN:210151A2B84A
#Date Time: 2020-11-08 09:37:32.978
#Sample rate: 2000Hz
#Samples: 16384
#Trigger: Source: Channel 1 Type: Edge Condition: Rising Level: 0 V Hyst.: Auto HoldOff: 0 s
#Channel 1: Range: 1 V/div Offset: 0 V Attenuation: 1 X
#Channel 2: Range: 1 V/div Offset: 0 V Attenuation: 1 X
#Power Supplies: ON
#Fixed Supply: ON
#Voltage: 3.3 V Readback: 3.331 V
#Positive Supply: ON
#Voltage: 3.7 V Readback: 3.512 V
#Current: 40 mA Readback: 22 mA
#Negative Supply: ON
#Voltage: -3.7 V Readback: -4.672 V
#Current: -40 mA Readback: 0 A
#Reference 1: ON
#Voltage: 0 V
#Reference 2: ON
#Voltage: 0 V

Time (s),Channel 1 (V),Channel 2 (V)
-4.096,1.15579274540162,-0.2416327256285375
-4.0955,0.9850699476788529,-0.08268314955117059
-4.095,1.081101521397822,-0.2416327256285857
-4.0945,1.059761171682476,-0.2946159176543747
-4.094,0.9317190733904009,-0.1992461720079546
-4.0935,0.793006800240313,-0.07208651114571404
-4.093,0.6863050516635838,0.08686306493165288
-4.0925,0.5796033030868544,0.447148770707018
-4.092,0.9743997728211314,1.220703374285262
-4.0915,1.102441871113207,1.983661339456623
-4.091,0.2381577076409128,2.375736960447818
-4.0905,-0.7968492535550895,1.528005888033161
-4.09,-1.661133417026597,0.13984625695749
-4.0895,-2.333354433060604,-0.9622041371799229
-4.089,-2.42938600677966,-1.587405803084233
-4.0885,-2.333354433060604,-1.682775548731308
-4.088,-1.51175096901904,-0.9092209451540858
-4.0875,-0.5514352318284762,0.1080563417410625
-4.087,0.1207857842067531,0.9239974989403427
-4.0865,0.5049120790829789,1.432636142387917
-4.086,0.6649647019480728,1.65516554889623
-4.0855,0.6969752265212567,1.655165548896298
-4.085,0.6863050516635838,1.506812611224089
-4.0845,0.5796033030868544,1.125333628638408
-4.084,0.02475421048603717,0.330585748249251
-4.0835,-1.319687821580753,-1.046977244421262
-4.083,-2.173301810195364,-1.926498232050159
-4.0825,-2.034589537044199,-2.318573853041624
-4.082,-0.6154562809736985,-2.615279728386042
-4.0815,0.8036769750980928,-2.689456197222214
-4.081,1.59326991456589,-2.254994022610745
-4.0805,1.742652362574165,-1.449649503817625
-4.08,1.571929564851243,-0.7608680074817418
-4.0795,1.30517519340942,-0.284019279249641
-4.079,1.049090996824687,-0.06148987274052733
-4.0785,0.9317190733902845,0.1186529801471552
-4.078,0.8997085488172656,0.2564092794142065
-4.0775,0.8143471499556977,0.224619364198762
-4.077,0.7289857510943143,0.1504428953626575
-4.0765,0.6649647019482765,0.1080563417420263
-4.076,0.5369226036558907,0.2352160026046234
-4.0755,0.3875401556484697,0.92399749893988
-4.075,0.05676473506030786,1.761131932948107
-4.0745,-0.7755089038396467,2.354543683637146
-4.074,-1.554431668449771,1.983661339456623
-4.0735,-2.258663209056825,0.6484849004055269
-4.073,-2.504077230783303,-0.6231117082134086
-4.0725,-2.461396531352796,-1.42845622700729
-4.072,-2.23732285934146,-1.555615887869299
-4.0715,-1.25566677243555,-0.7820612842927801
-4.071,-0.3487019095310793,0.1610395337685092
-4.0705,0.2594980573562781,0.9134008605347127
-4.07,0.5796033030864662,1.379652950361656
-4.0695,0.696975226521276,1.58098908006028
-4.069,0.707645401378949,1.602182356870596
-4.0685,0.6756348768059011,1.506812611224089
-4.068,0.6436243522326299,1.294879843120249
-4.0675,0.3982103305061524,0.7544512844572011
-4.067,0.3021787567870086,-0.1356663415768632
-4.0665,-0.08194753808979939,-1.481439419033705
-4.066,-0.3380317346739499,-2.117237723343173
-4.0655,0.1314559590640864,-2.466926790713698
-4.065,0.8036769750974814,-2.753036027652959
-4.0645,1.337185717982225,-2.498716705929201
-4.064,1.51857869056283,-1.746355379162313
-4.0635,1.422547116843773,-1.036380606016741
-4.063,1.241154144262906,-0.4853554089470801
-4.0625,1.049090996824793,-0.1462629799820306
-4.062,0.9530594231057371,-0.07208651114592607
-4.0615,1.02775064710937,-0.2098428104129871
-4.061,0.9637295979633325,-0.1568596183871981
-4.0605,0.8463576745288233,-0.008506680714854012
-4.06,0.7396559259519094,0.1610395337679791
-4.0595,0.6436243522328531,0.3305857482505039
-4.059,0.7289857510943143,0.7438546460520338
-4.0585,1.209143619689596,1.485619334413079
-4.058,0.79300680024041,2.174400830749637
-4.0575,-0.2953510352432193,2.16380419234447
-4.057,-1.341028171295167,0.9769806909667966
-4.0565,-2.205312334768412,-0.3687923864905467
-4.056,-2.504077230783526,-1.290699927740113
-4.0555,-2.450726356495161,-1.725162102351583
-4.055,-1.91721761361003,-1.290699927739227
-4.0545,-0.8715404775580819,-0.3158091944647096
-4.054,-0.08194753809028454,0.5955017083788609
-4.0535,0.4088805053640388,1.220703374284867
-4.053,0.6329541773751706,1.549199164844759
-4.0525,0.6969752265212663,1.623375633680931
-4.052,0.6863050516635449,1.549199164844566
-4.0515,0.6436243522328531,1.33726639674141
-4.051,0.4302208550792003,0.8392243916985406
-4.0505,-0.2740106855272135,0.03387987290654815
-4.05,-1.159635198715513,-0.8138511995075789
-4.0495,-2.301343908487556,-1.968884785670829
-4.049,-1.831856214749947,-1.852321763214093
-4.0485,-0.5300948821112378,-1.788741932783108
-4.048,0.5689331282290746,-1.926498232050159
-4.0475,1.262494493977815,-1.545019249464479
-4.047,1.4652278162743,-0.9833974139898337
-4.0465,1.337185717982225,-0.5171453241628908
-4.046,1.134452395686439,-0.2098428104133147
-4.0455,0.9743997728210053,0.03387987290610485
-4.045,0.9637295979633325,0.3517790250608387
-4.0445,0.9210488985326017,0.4259554938970107
-4.044,0.8250173248133706,0.3517790250607712
-4.0435,0.7289857510943143,0.2776025562246667
-4.043,0.6649647019482183,0.2564092794143318
-4.0425,0.5582629533714891,0.4789386859226455
-4.042,0.6649647019482183,1.188913459069066
-4.0415,0.2808384070716433,1.941274785835954
-4.041,-0.6688071552612481,2.174400830749426
-4.0405,-1.565101843308152,1.252493289498847
-4.04,-2.333354433060604,-0.09327978795619347
-4.0395,-2.546757930214063,-1.110557074851342
-4.039,-2.493407055925513,-1.661582271920771
-4.0385,-2.130621110764634,-1.439052865412457
-4.038,-1.074273799855013,-0.4959520473534137
-4.0375,-0.2099896363812535,0.4577454091131491
-4.037,0.3448594562177392,1.157123543853563
-4.0365,0.6222840025174878,1.559795803249926
-4.036,0.7076454013789394,1.697552102517064
-4.0355,0.6969752265212663,1.655165548896433
-4.035,0.6649647019482183,1.485619334413754
-4.0345,0.5796033030868349,1.157123543853862
-4.034,0.09944543449103843,0.4365521323021782
-4.0335,-0.6154562809736985,-0.3899856633008816
-4.033,-1.458400094729861,-1.174136905282559
-4.0325,-2.14129128562121,-2.244397384205539
-4.032,-0.9248913518464952,-2.636473005196377
-4.0315,0.3341892813589113,-2.774229304463429
-4.031,1.059761171682825,-2.26559066101464
-4.0305,1.443887466559051,-1.301296566145281
-4.03,1.465227816274397,-0.5489352393790773
-4.0295,1.241154144262877,-0.2522293640336472
-4.029,1.017080472251745,-0.1886495336027004
-4.0285,0.9850699476786977,-0.06148987274069118
-4.028,1.070431346540071,0.1504428953626575
-4.0275,0.974399772821015,0.1504428953626575
-4.027,0.8463576745288233,0.08686306493165288
-4.0265,0.7396559259520938,0.06566978812133729
-4.026,0.6329541773751706,0.1928294489833272
-4.0255,0.6116138276598051,0.8392243916985406
-4.025,0.8463576745286098,1.676358825706006
-4.0245,0.2274875327823179,2.290963853206122
-4.024,-0.7755089038389382,1.898888232215284
-4.0235,-1.703814116456484,0.5637117931654017
-4.023,-2.429386006779854,-0.6972881770514504
-4.0225,-2.546757930214257,-1.481439419033127
-4.022,-2.482736881068219,-1.735758740756914
-4.0215,-1.810515865033213,-1.068170521230662
-4.021,-0.7755089038389382,-0.04029659593035631
-4.0205,-0.007256314085787988,0.8392243916985406
-4.02,0.4515612047947596,1.422039503983
-4.0195,0.6649647019482183,1.697552102517103
-4.019,0.707645401378949,1.739938656137773
-4.0185,0.6863050516636032,1.644568910491352
-4.018,0.6436243522328531,1.42203950398275
-4.0175,0.3875401556484697,0.8180311148882058
-4.017,0.4302208550791615,-0.008506680714102322
-4.0165,0.5689331282285506,-0.7396747306719851
-4.016,-0.007256314085787988,-1.375473034981453
-4.0155,-0.1993194615239008,-2.117237723342499
-4.015,0.6222840025179924,-2.382153683472388
-4.0145,1.177133095116985,-2.413943598687861
-4.014,1.358526067697425,-1.799338571188709
-4.0135,1.422547116843579,-1.025783967610494
-4.013,1.305175193409177,-0.5489352393783931
-4.0125,1.081101521397841,-0.3158091944647096
-4.012,0.9530594231057177,-0.1144730647662874
-4.0115,1.027750647109428,0.1504428953626575
-4.011,0.9637295979633325,0.1822328105781598
-4.0105,0.8463576745289301,0.09745970333689742
-4.01,0.7289857510943143,0.03387987290581572
-4.0095,0.6436243522328531,0.07626642652648545
-4.009,0.4729015545100861,0.5531151547585862
-4.0085,0.3128489316439925,1.379652950362745
-4.008,-0.4554036581084589,2.110821000318633
-4.0075,-1.33035799643764,2.17440083074958
-4.007,-2.066600061618994,1.072350436611
-4.0065,-2.568098279929622,-0.2734226408440398
-4.006,-2.568098279929622,-1.216523458903942
-4.0055,-2.493407055925203,-1.640388995110186
-4.005,-1.789175515318789,-1.142346990067769
-4.0045,-0.7648387289812555,-0.1674562567923655
-4.004,0.003413860772311942,0.7226613692422579
-4.0035,0.4622313796522482,1.33726639674141
-4.003,0.6542945270905358,1.655165548896433
-4.0025,0.6969752265212275,1.729342017732538
-4.002,0.6756348768059011,1.6657621873016
-4.0015,0.6329541773751706,1.496215972818921
-4.001,0.4942419042254222,1.104140351828083
-4.0005,0.1527963087793837,0.3093924714394365
-4,0.07810508477567314,-0.4959520473525559
-3.9995,-0.4020527838200457,-1.131750351662602
-3.999,-0.8608703027003992,-1.979481424075996
-3.9985,-0.1993194615240755,-2.456330152308531
-3.998,0.6222840025174878,-2.54110325954987
-3.9975,1.049090996824793,-2.021867977696666
-3.997,1.273164668836129,-1.195330182093607
-3.9965,1.326515543124542,-0.5277419625680583
-3.996,1.166462920259302,-0.2098428104130352
-3.9955,0.9957401225363802,-0.09327978795619347
-3.995,1.049090996824793,-0.1780528951975329
-3.9945,1.038420821967111,-0.2204394488182027
-3.994,0.9103787236749192,-0.1250697031716958
-3.9935,0.7823366253827275,0.02328323450064829
-3.993,0.6969752265212663,0.1610395337678249
-3.9925,0.5902734779444399,0.4683420475176805
-3.992,0.5369226036560266,1.210106735879401
-3.9915,0.07810508477567314,1.973064701051456
-3.991,-0.8502001278427167,2.375736960447818
-3.9905,-1.703814116457328,1.623375633680931
-3.99,-2.418715831922065,0.2246193641988295
-3.9895,-2.568098279929622,-0.9622041371799229
-3.989,-2.525417580498891,-1.693372187136476
-3.9885,-2.333354433060604,-1.767548655972648
-3.988,-1.362368521011484,-0.9304142219644207
-3.9875,-0.4340633083930936,0.04447651131098315
-3.987,0.2061471830678648,0.8180311148882058
-3.9865,0.5582629533713921,1.284283204715573
-3.986,0.6863050516635838,1.485619334413754
-3.9855,0.6969752265212663,1.475022696008586
-3.985,0.6649647019482183,1.33726639674141
-3.9845,0.5796033030867573,1.029963882991555
-3.984,0.2381577076409128,0.3411823866556712
-3.9835,0.4942419042252961,-0.4535654937318862
-3.983,0.6649647019482183,-1.174136905283272
-3.9825,0.08877525963335578,-2.202010830584512
-3.982,0.7716664505250448,-2.58348981317054
-3.9815,1.379866417412955,-2.795422581273889
-3.981,1.582599739708926,-2.466926790713698
-3.9805,1.603940089424291,-1.502632695843462
-3.98,1.433217291701369,-0.7396747306714069
-3.9795,1.145122570543937,-0.3052125560595421
-3.979,0.942389248247967,-0.008506680714854012
-3.9785,0.8783681991018712,0.2352160026039969
-3.978,0.9103787236749192,0.3729723018711736
-3.9775,0.8463576745288233,0.3411823866556712
-3.977,0.7503261008096795,0.2881991946298341
-3.9765,0.6863050516635838,0.2670059178194992
-3.976,0.6009436528021226,0.3517790250608387
-3.9755,0.5475927785137094,0.8816109453192104
-3.975,0.3341892813600565,1.6657621873016
-3.9745,-0.5621054066852853,2.174400830749637
-3.974,-1.46907026958831,1.697552102517103
-3.9735,-2.258663209056825,0.4153588554918433
-3.973,-2.578768454787304,-0.792657922697244
-3.9725,-2.546757930214257,-1.555615887869299
-3.972,-2.44005618163743,-1.79933857118815
-3.9715,-1.607782542738184,-1.089363798041932
-3.971,-0.6154562809736985,-0.09327978795619347
-3.9705,0.08877525963335578,0.7438546460520338
-3.97,0.4942419042252961,1.273686566310405
-3.9695,0.6649647019482183,1.528005888034424
-3.969,0.6863050516635838,1.559795803249926
-3.9685,0.6649647019482183,1.464426057603419
-3.968,0.6222840025174878,1.25249328950007
-3.9675,0.3448594562177392,0.7438546460520338
-3.967,-0.391382608962363,-0.07208651114585861
-3.9665,-1.138294849000148,-0.8244478379127463
-3.966,-2.07727023647622,-1.788741932782983
-3.9655,-1.746494815888059,-2.085447808127671
-3.965,-0.4660738329661415,-2.202010830584512
-3.9645,0.5049120790829789,-2.000674700886331
-3.964,1.102441871113207,-1.237716735714276
-3.9635,1.369196242555273,-0.5065486857577234
-3.963,1.283834843693812,-0.1250697031716958
-3.9625,1.102441871113207,0.01268659609548085
-3.962,0.942389248247967,0.07626642652648545
-3.9615,0.9103787236749192,0.1610395337678249
-3.961,0.8356874996711408,0.1716361721729923
-3.9605,0.7396559259519968,0.1610395337678249
-3.96,0.6756348768059011,0.1716361721729923
-3.9595,0.6329541773751706,0.2352160026039969
-3.959,0.6329541773751706,0.6060983467848571
-3.9585,1.145122570543937,1.369056311956912
-3.958,1.070431346540159,2.07903108510313
-3.9575,0.07810508477567314,2.301560491611646
-3.957,-1.020922925565639,1.273686566310405
-3.9565,-1.895877263895616,-0.1250697031716958
-3.956,-2.504077230783526,-1.163540266878104
-3.9555,-2.514747405641209,-1.703968825541643
-3.955,-2.013249187330125,-1.364876396576285
-3.9545,-0.9569018764195432,-0.4111789401112165
-3.954,-0.1459685872356623,0.5107286011383502
-3.9535,0.3661998059331045,1.167720182258731
-3.953,0.6222840025174878,1.538602526439591
-3.9525,0.6863050516635838,1.633972272086098
-3.952,0.6649647019482183,1.570392441655093
-3.9515,0.6329541773751706,1.390249588767247
-3.951,0.5049120790829789,0.9875773293708847
-3.9505,-0.124628237520297,0.2034260873884947
-3.95,-0.9248913518464952,-0.5595318777835605
-3.9495,-1.682473766741963,-1.195330182093607
-3.949,-1.917217613610981,-2.159624276963843
-3.9485,-0.7114878546928423,-2.594086451575707
-3.948,0.4515612047945656,-2.710649474032549
-3.9475,1.081101521397841,-2.392750321877526
-3.947,1.401206767128321,-1.502632695843462
-3.9465,1.433217291701369,-0.6231117082145651
-3.946,1.219813794547716,-0.1250697031716958
-3.9455,1.006410297394063,0.09745970333682032
-3.945,1.017080472251745,0.3517790250608387
-3.9445,1.017080472251745,0.4365521323021782
-3.944,0.8997085488172365,0.309392471440169
-3.9435,0.7823366253827275,0.1610395337678249
-3.943,0.6863050516635838,0.09745970333682032
-3.9425,0.5582629533713921,0.2670059178194992
-3.942,0.408880505363835,0.9663840525605498
-3.9415,-0.1032878878049318,1.79292184816361
-3.941,-1.020922925565639,2.354543683637484
-3.9405,-1.83185621474952,1.867098316999781
-3.94,-2.504077230783526,0.4895353243280153
-3.9395,-2.610778979360353,-0.7396747306714069
-3.939,-2.546757930214257,-1.481439419033127
-3.9385,-2.109280761049269,-1.34368311976595
-3.938,-1.042263275281004,-0.474758770542221
-3.9375,-0.1886492866663929,0.4471487707073456
-3.937,0.3555296310754218,1.146526905448396
-3.9365,0.6222840025174878,1.559795803249926
-3.936,0.6969752265212663,1.70814874092227
-3.9355,0.6756348768059011,1.686955464111935
-3.935,0.6329541773751706,1.559795803249926
-3.9345,0.5902734779444399,1.316073119931075
-3.934,0.2808384070716433,0.6908714540261965
-3.9335,0.2808384070716433,-0.1250697031716958
-3.933,0.3448594562177392,-0.9198175835592532
-3.9325,-0.1352984123779797,-1.831128486403653
-3.932,0.6329541773751706,-2.117237723343173
-3.9315,1.422547116843686,-2.392750321877526
-3.931,1.817343586577944,-2.339767129851689
-3.9305,1.860024286008674,-1.693372187136476
-3.93,1.614610264281974,-0.9728007755850904
-3.9295,1.305175193409177,-0.4429688553267188
-3.929,1.027750647109428,-0.1356663415768632
-3.9285,0.8997085488172365,-0.02969995752518888
-3.928,0.9210488985326017,-0.1462629799820306
-3.9275,0.8463576745288233,-0.1462629799820306
-3.927,0.7503261008096795,-0.09327978795619347
-3.9265,0.6756348768059011,-0.01910331912002144
-3.926,0.6009436528021226,0.08686306493165288
-3.9255,0.5049120790829789,0.627291623595192
-3.925,0.3341892813600565,1.475022696008586
-3.9245,-0.4660738329661415,2.195594107559972
-3.924,-1.30901764672307,2.237980661180642
-3.9235,-2.066600061618538,1.114736990232894
-3.923,-2.386705307349017,-0.2098428104130352
-3.9225,-2.365364957633652,-1.142346990067769
-3.922,-2.290673733629873,-1.587405803084801
-3.9215,-1.650463242168915,-1.0999604364471
-3.921,-0.6794773301197943,-0.1886495336027004
-3.9205,0.03542438534494258,0.6166949851900245
-3.92,0.4515612047945656,1.167720182258731
-3.9195,0.6329541773751706,1.443232780793084
-3.919,0.6756348768059011,1.506812611224089
-3.9185,0.6542945270905358,1.443232780793084
-3.918,0.09944543449103843,0.7226613692416989
-3.9175,-0.4020527838200457,-0.1144730647665284
-3.917,-1.095614149569417,-0.9728007755850904
-3.9165,-1.959898313041711,-1.788741932782983
-3.916,-2.44005618163743,-2.202010830584512
-3.9155,-1.533091318734406,-2.17022091536901
-3.915,0.05676473506030786,-2.350363768256857
-3.9145,1.15579274540162,-2.530506621144703
-3.914,1.603940089424291,-2.032464616101834
-3.9135,1.603940089424291,-1.280103289334946
-3.913,1.401206767128321,-0.5913217929990628
-3.9125,1.145122570543937,-0.1144730647665284
-3.912,0.9637295979633325,0.07626642652648545
-3.9115,1.049090996824793,-0.06148987274069118
-3.911,1.017080472251745,-0.1144730647665284
-3.9105,0.8783681991018712,-0.05089323433552374
-3.91,0.7396559259519968,0.07626642652648545
-3.9095,0.6436243522328531,0.2140227257936621
-3.909,0.3982103305061524,0.55311515475902
-3.9085,0.2381577076409128,1.316073119931075
-3.908,-0.3166913849585846,2.057837808292796
-3.9075,-1.159635198715513,2.312157130016814
-3.907,-1.927887788468663,1.369056311956912
-3.9065,-2.472066706210478,-0.008506680714854012
-3.906,-2.482736881068161,-1.05757388282643
-3.9055,-2.429386006779747,-1.661582271920973
-3.905,-2.087940411333903,-1.460246142222792
-3.9045,-1.052933450138687,-0.5489352393783931
-3.904,-0.2206598112394408,0.383568940276341
-3.9035,0.3235191065023739,1.051157159801889
-3.903,0.5902734779444399,1.432636142387917
-3.9025,0.6756348768059011,1.559795803249926
-3.902,0.6756348768059011,1.528005888034424
-3.9015,0.6436243522328531,1.369056311956912
-3.901,0.5582629533713921,1.019367244586387
-3.9005,0.02475421048725994,0.1822328105781598
-3.9,-0.8608703027003992,-1.237716735714276
-3.8995,-1.415719395299897,-1.979481424075996
-3.899,-1.362368521011484,-2.223204107394847
-3.8985,-0.2313299860971235,-2.413943598687861
-3.898,0.8783681991018712,-2.382153683472359
-3.8975,1.454557641416734,-1.778145294377815
-3.897,1.529248865420512,-1.121153713257435
-3.8965,1.369196242555273,-0.6125150698093976
-3.896,1.166462920259302,-0.3052125560595421
-3.8955,0.974399772821015,-0.1992461720078678
-3.895,0.974399772821015,0.05507314971615059
-3.8945,1.027750647109428,0.2776025562246667
-3.894,0.9210488985326017,0.2881991946298341
-3.8935,0.8036769750980928,0.2458126410091644
-3.893,0.6863050516635838,0.2352160026039969
-3.8925,0.5475927785137094,0.4153588554918433
-3.892,0.6116138276598051,1.093543713422559
-3.8915,0.8143471499557753,1.877694955404949
-3.891,0.09944543449103843,2.428720152473656
-3.8905,-0.9248913518464952,1.941274785835954
-3.89,-1.83185621474952,0.5637117931641874
-3.8895,-2.482736881068161,-0.6760949002404023
-3.889,-2.504077230783526,-1.417859588602123
-3.8885,-2.280003558772191,-1.42845622700729
-3.888,-1.287677297007705,-0.6019184314042303
-3.8875,-0.3807124341046804,0.3623756634660061
-3.887,0.2381577076409128,1.114736990232894
-3.8865,0.5582629533713921,1.580989080060261
-3.886,0.6756348768059011,1.761131932948107
-3.8855,0.6649647019482183,1.739938656137773
-3.885,0.6329541773751706,1.612778995275763
-3.8845,0.5902734779444399,1.347863035146577
-3.884,0.3235191065023739,0.701468092431364
