Class_4_Move_right_hand_Horiszontal/Class_4_Move_right_hand_Horiszontal_Suko_11.csv

#Digilent WaveForms Oscilloscope Acquisition
#Device Name: EExplorer
#Serial Number: SN:210151A2B84A
#Date Time: 2021-02-03 11:34:27.863
#Sample rate: 2000Hz
#Samples: 16384
#Trigger: Source: Channel 1 Type: Edge Condition: Rising Level: 0 V Hyst.: Auto HoldOff: 0 s
#Channel 1: Range: 1 V/div Offset: 0 V Attenuation: 1 X
#Channel 2: Range: 1 V/div Offset: 0 V Attenuation: 1 X
#Power Supplies: ON
#Fixed Supply: ON
#Voltage: 3.3 V Readback: 3.302 V
#Positive Supply: ON
#Voltage: 3.7 V Readback: 3.703 V
#Current: 40 mA Readback: 16 mA
#Negative Supply: ON
#Voltage: -3.7 V Readback: -3.363 V
#Current: -40 mA Readback: -6 mA
#Reference 1: ON
#Voltage: 0 V
#Reference 2: ON
#Voltage: 0 V

Time (s),Channel 1 (V),Channel 2 (V)
-4.096,0.6649647019482183,-0.2734226408440398
-4.0955,0.6756348768058914,-0.2840192792491976
-4.095,0.6222840025174393,-0.3687923864906913
-4.0945,0.5689331282290746,-0.5277419625680583
-4.094,0.5796033030867477,-0.697288177050583
-4.0935,0.558262953371363,-0.6866915386454734
-4.093,0.5262524287983441,-0.5807251545938954
-4.0925,0.5049120790829983,-0.442968855326844
-4.092,0.4515612047945559,-0.2734226408438664
-4.0915,0.4408910299368829,-0.08268314955102604
-4.091,0.7823366253827275,0.3411823866556712
-4.0905,0.7076454013783376,0.3835689402757724
-4.09,0.03542438534494258,-0.2416327256285375
-4.0895,-0.7755089038389382,-0.8880276683437509
-4.089,-1.490410619303025,-1.311893204550063
-4.0885,-1.533091318734406,-1.195330182093607
-4.088,-1.010252750707956,-0.474758770542221
-4.0875,-0.4447334832512907,0.3093924714394557
-4.087,-0.01792648894324742,0.8922075837246959
-4.0865,0.2274875327832301,1.241896651094903
-4.086,0.3341892813599595,1.411442865577428
-4.0855,0.3555296310753733,1.432636142387869
-4.085,0.3021787567870086,1.37965295036208
-4.0845,0.2701682322139898,1.273686566310502
-4.084,0.2168173579255378,1.167720182258606
-4.0835,0.2061471830678648,1.029963882991555
-4.083,0.04609456020262521,0.8922075837243778
-4.0825,-0.5194247072549624,0.5531151547583357
-4.082,-0.9675720512772257,-0.1992461720078678
-4.0815,-1.191645723288561,-0.9198175835592532
-4.081,-0.8608703027007001,-1.004590690800516
-4.0805,-0.2420001609548061,-0.7608680074817418
-4.08,0.2808384070716433,-0.570128516188728
-4.0795,0.5902734779441584,-0.4535654937319922
-4.079,0.6756348768058622,-0.4217755785164032
-4.0785,0.6329541773751706,-0.4429688553267188
-4.078,0.547592778513787,-0.48535540894735
-4.0775,0.6436243522329405,-0.5913217929991207
-4.077,0.7396559259519968,-0.6549016234300674
-4.0765,0.6756348768059592,-0.5383386009733316
-4.076,0.5582629533712951,-0.347599109680048
-4.0755,0.4515612047945656,-0.1674562567923655
-4.075,0.3768699807907871,0.02328323450064829
-4.0745,0.5796033030869514,0.3305857482507737
-4.074,0.79300680024041,0.627291623595192
-4.0735,0.2274875327832301,0.09745970333682032
-4.073,-0.5407650569692213,-0.3370024712746493
-4.0725,-1.30901764672307,-0.4641621321370536
-4.072,-2.03458953704549,-0.9304142219644207
-4.0715,-2.087940411333855,-1.184733543688208
-4.071,-1.30901764672242,-0.7608680074811636
-4.0705,-0.5941159312583333,-0.1250697031716958
-4.07,-0.0819475380900323,0.4365521323016673
-4.0695,0.216817357925664,0.8180311148883985
-4.069,0.3448594562177392,1.029963882991555
-4.0685,0.3448594562177392,1.135930267043229
-4.068,0.3235191065023448,1.167720182258712
-4.0675,0.291508581929326,1.146526905448396
-4.067,0.2701682322139607,1.114736990232894
-4.0665,0.1741366584943705,1.082947075017122
-4.066,-0.3166913849585846,0.7862411996727035
-4.0655,-0.8715404775580819,-0.02969995752518888
-4.065,-1.170305373572924,-0.8350444763171814
-4.0645,-0.9142211769888124,-0.9833974139902578
-4.064,-0.274010685527854,-0.5383386009732256
-4.0635,0.2915085819288117,-0.04029659593080925
-4.063,0.6222840025175849,0.2034260873884657
-4.0625,0.7289857510943143,0.1716361721729923
-4.062,0.7076454013789685,0.01268659609562542
-4.0615,0.6329541773751609,-0.2098428104132376
-4.061,0.6222840025174878,-0.4323722169215513
-4.0605,0.7396559259519968,-0.6019184314042303
-4.06,0.686305051663477,-0.6125150698093301
-4.0595,0.5689331282290746,-0.5383386009732256
-4.059,0.4515612047945656,-0.4111789401112165
-4.0585,0.376869980790855,-0.2734226408441651
-4.058,0.4729015545099309,-0.1462629799820306
-4.0575,0.8890383739595538,-0.09327978795619347
-4.057,0.5902734779447116,-0.4747587705418741
-4.0565,-0.1139580626626144,-1.004590690800593
-4.056,-0.9782422261349084,-1.42845622700729
-4.0555,-1.725154466172014,-1.650985633515603
-4.055,-1.799845690175909,-1.428456227006557
-4.0545,-1.180975548430879,-0.6231117082145651
-4.054,-0.5407650569705024,0.2034260873877429
-4.0535,-0.06060718837394887,0.8180311148885334
-4.053,0.2168173579255475,1.178316820663898
-4.0525,0.3448594562177392,1.326669758336243
-4.052,0.366199805933085,1.337266396741362
-4.0515,0.3448594562177392,1.284283204715573
-4.051,0.291508581929326,1.178316820663898
-4.0505,0.2488278824986342,1.061753798207163
-4.05,0.2168173579255475,0.92399749893988
-4.0495,-0.1032878878049318,0.849821030103708
-4.049,-0.7114878546922891,0.595501708379921
-4.0485,-0.9995825758502833,-0.167456256792857
-4.048,-1.010252750707956,-0.7078848154559045
-4.0475,-0.5087545323973282,-0.5913217929991689
-4.047,0.07810508477605162,-0.3687923864904793
-4.0465,0.4942419042252961,-0.2946159176543747
-4.046,0.6756348768057361,-0.3264058328698481
-4.0455,0.6969752265212275,-0.3899856633009683
-4.045,0.6542945270905358,-0.4853554089473885
-4.0445,0.6116138276598051,-0.6019184314042303
-4.044,0.7609962756673623,-0.5171453241628233
-4.0435,0.7609962756673623,-0.4429688553267188
-4.043,0.6436243522328531,-0.3899856633008816
-4.0425,0.504912079083105,-0.2946159176544614
-4.042,0.3982103305061524,-0.1674562567923655
-4.0415,0.3661998059331045,0.02328323450064829
-4.041,0.6649647019479465,0.4895353243275913
-4.0405,0.5689331282284147,0.669678177215293
-4.04,-0.156638762093345,0.04447651131098315
-4.0395,-0.999582575849507,-0.6866915386449047
-4.039,-1.767835165603851,-1.174136905283416
-4.0385,-2.23732285934146,-1.333086481360783
-4.038,-1.650463242169449,-0.8350444763183668
-4.0375,-0.8715404775575288,0.01268659609616512
-4.037,-0.2633405106701714,0.7650479228623686
-4.0365,0.1207857842064037,1.263089927905238
-4.036,0.3128489316447398,1.528005888034501
-4.0355,0.3661998059331045,1.612778995275763
-4.035,0.3341892813600565,1.580989080060261
-4.0345,0.2808384070716918,1.496215972818998
-4.034,0.2274875327832301,1.358459673551745
-4.0335,0.1954770082101822,1.210106735879401
-4.033,0.1207857842064716,1.01936724458656
-4.0325,-0.3487019095321565,0.7862411996720963
-4.032,-0.9248913518464952,0.1186529801471552
-4.0315,-1.362368521011086,-0.6760949002396794
-4.031,-1.074273799853402,-0.8668343915333004
-4.0305,-0.3593720843893152,-0.7396747306714069
-4.03,0.2701682322133881,-0.6019184314043555
-4.0295,0.6436243522329599,-0.5595318777835798
-4.029,0.7609962756673623,-0.5807251545938954
-4.0285,0.6969752265212663,-0.6443049850249
-4.028,0.6116138276598342,-0.718481453861149
-4.0275,0.6436243522328531,-0.8032545611024114
-4.027,0.6542945270905358,-0.8138511995075789
-4.0265,0.5796033030868253,-0.7184814538611587
-4.026,0.4729015545099309,-0.5807251545938954
-4.0255,0.3982103305061524,-0.4111789401112165
-4.025,0.3448594562177877,-0.2416327256286918
-4.0245,0.5475927785139714,0.129249618552843
-4.024,0.8356874996711408,0.701468092431364
-4.0235,0.302178756787494,0.4153588554921036
-4.023,-0.4340633083937341,-0.1886495336031437
-4.0225,-1.138294849000148,-0.6760949002404023
-4.022,-1.767835165602851,-1.078767159636399
-4.0215,-1.703814116456746,-1.004590690799976
-4.021,-1.06360362499637,-0.326405832869877
-4.0205,-0.4554036581084589,0.4153588554918433
-4.02,-0.007256314085564785,0.9875773293712123
-4.0195,0.2381577076409128,1.347863035146577
-4.019,0.3448594562177392,1.517409249629256
-4.0185,0.3448594562177392,1.570392441655045
-4.018,0.3128489316446912,1.528005888034424
-4.0175,0.2808384070716433,1.443232780793084
-4.017,0.2488278824986245,1.326669758336348
-4.0165,0.1848068333521017,1.220703374284693
-4.016,-0.2526703358124887,1.358459673551745
-4.0155,-0.7755089038384628,1.220703374284693
-4.015,-1.052933450138473,0.3305857482500701
-4.0145,-0.8181896032696687,-0.1462629799820306
-4.014,-0.1352984123786007,-0.178052895197504
-4.0135,0.4302208550794915,-0.1674562567924041
-4.013,0.7503261008096795,-0.2098428104130352
-4.0125,0.8143471499557753,-0.3687923864905467
-4.012,0.7503261008095825,-0.5913217929992846
-4.0115,0.6436243522328531,-0.8350444763179138
-4.011,0.6222840025174878,-0.9622041371799229
-4.0105,0.7609962756672362,-0.9939940523953964
-4.01,0.707645401378949,-0.8774310299385835
-4.0095,0.6009436528021226,-0.6760949002404023
-4.009,0.5049120790830662,-0.4535654937320886
-4.0085,0.4195506802215176,-0.2098428104127268
-4.008,0.4195506802215176,0.1292496185523226
-4.0075,0.6863050516633411,0.733258007646317
-4.007,0.3021787567863487,0.6696781772151966
-4.0065,-0.423393133535411,-0.06148987274069118
-4.006,-1.191645723288561,-0.7502713690765743
-4.0055,-1.917217613611301,-1.174136905283349
-4.005,-2.269333383914508,-1.258910012524611
-4.0045,-1.607782542738184,-0.7078848154559045
-4.004,-0.8181896032691253,0.139846256958155
-4.0035,-0.2206598112394408,0.8710143069140429
-4.003,0.142126133921769,1.347863035146577
-4.0025,0.3235191065022089,1.580989080060049
-4.002,0.3555296310754218,1.655165548896433
-4.0015,0.3235191065023739,1.612778995275763
-4.001,0.2915085819293551,1.496215972819027
-4.0005,0.2488278824985372,1.369056311956816
-4,0.1848068333524996,1.263089927905238
-3.9995,-0.07127736323188383,0.9557874141553824
-3.999,-0.6261264558313813,0.09745970333682032
-3.9985,-0.9035510021311299,-0.8244478379127463
-3.998,-0.8715404775580819,-1.280103289334946
-3.9975,-0.3380317346739499,-1.004590690800593
-3.997,0.2488278824985954,-0.6654982618352349
-3.9965,0.6649647019482183,-0.4641621321370536
-3.996,0.8356874996711408,-0.4641621321370536
-3.9955,0.8143471499557753,-0.5595318777835605
-3.995,0.7183155762366316,-0.718481453861072
-3.9945,0.6436243522328531,-0.8456411147230812
-3.994,0.7289857510943143,-0.9728007755850904
-3.9935,0.6969752265212663,-0.9198175835592532
-3.993,0.5689331282290746,-0.7290780922662394
-3.9925,0.4515612047945656,-0.4959520473525559
-3.992,0.3875401556484697,-0.2628260024388724
-3.9915,0.3661998059331045,-0.02969995752518888
-3.991,0.7183155762366316,0.457745409112513
-3.9905,0.825017324813458,0.7332580076468663
-3.99,0.1527963087794516,0.1716361721729923
-3.9895,-0.5300948821122373,-0.1886495336027004
-3.989,-1.244996597576974,-0.6125150698093976
-3.9885,-1.906547438753298,-1.05757388282643
-3.988,-1.853196564464885,-1.05757388282643
-3.9875,-1.148965023857831,-0.4429688553267188
-3.987,-0.4980843575391895,0.2776025562246667
-3.9865,-0.02859666380115328,0.849821030103708
-3.986,0.2274875327832301,1.210106735879401
-3.9855,0.3128489316446912,1.390249588767247
-3.985,0.291508581929326,1.443232780793084
-3.9845,0.2701682322139607,1.411442865577582
-3.984,0.2594980573562781,1.33726639674141
-3.9835,0.2381577076409128,1.241896651094903
-3.983,0.04609456020262521,1.210106735879401
-3.9825,-0.5087545323968721,0.9981739677760521
-3.982,-0.9355615267041777,0.2034260873884947
-3.9815,-1.223656247861609,-0.7290780922662394
-3.981,-1.159635198715513,-1.05757388282643
-3.9805,-0.5087545323968721,-0.7078848154559045
-3.98,0.1741366584948169,-0.3793890248957141
-3.9795,0.6222840025174878,-0.2310360872233701
-3.979,0.7823366253827275,-0.2098428104130352
-3.9785,0.7609962756673623,-0.2946159176543747
-3.978,0.6649647019482183,-0.3899856633008816
-3.9775,0.7289857510943143,-0.3158091944647096
-3.977,0.8036769750980928,-0.1992461720078678
-3.9765,0.7183155762366316,-0.2734226408440398
-3.976,0.5796033030867573,-0.3475991096802118
-3.9755,0.4515612047945656,-0.3687923864905467
-3.975,0.3661998059331045,-0.3158091944647096
-3.9745,0.5262524287983441,-0.02969995752518888
-3.974,0.8143471499557753,0.6378882620003594
-3.9735,0.2488278824985954,0.5955017083796896
-3.973,-0.572775581542968,-0.01910331912002144
-3.9725,-1.362368521011484,-0.6443049850249
-3.972,-2.07727023647622,-1.152943628472937
-3.9715,-2.098610586191586,-1.216523458903942
-3.971,-1.30901764672307,-0.5913217929990628
-3.9705,-0.5941159312583333,0.2140227257936621
-3.97,-0.08194753808956648,0.8604176685088755
-3.9695,0.2168173579255475,1.29487984312074
-3.969,0.3448594562177392,1.517409249629256
-3.9685,0.3555296310754218,1.612778995275763
-3.968,0.3235191065023739,1.591585718465428
-3.9675,0.291508581929326,1.528005888034424
-3.967,0.2594980573562781,1.42203950398275
-3.9665,0.2168173579255475,1.284283204715573
-3.966,-0.1886492866663929,0.9663840525605498
-3.9655,-0.722158029550525,0.1928294489833272
-3.965,-1.010252750707956,-0.7290780922662394
-3.9645,-1.234326422719292,-1.311893204550448
-3.964,-0.807519428411986,-1.068170521231597
-3.9635,-0.1352984123779797,-0.6654982618352349
-3.963,0.3982103305061524,-0.4641621321370536
-3.9625,0.6649647019482183,-0.474758770542221
-3.962,0.7183155762366316,-0.5913217929990628
-3.9615,0.6542945270905358,-0.718481453861072
-3.961,0.6222840025174878,-0.8350444763179138
-3.9605,0.79300680024041,-0.9622041371799229
-3.96,0.8036769750980928,-0.8774310299385835
-3.9595,0.6756348768059011,-0.6866915386455698
-3.959,0.5582629533713921,-0.474758770542221
-3.9585,0.4515612047945656,-0.2734226408440398
-3.958,0.4622313796522482,-0.05089323433552374
-3.9575,0.825017324813458,0.2881991946298341
-3.957,0.5155822539406614,0.04447651131098315
-3.9565,-0.3487019095316325,-0.5807251545938954
-3.956,-1.212986073003927,-1.121153713257435
-3.9555,-1.991908837614759,-1.417859588602123
-3.955,-2.269333383914508,-1.417859588602123
-3.9545,-1.554431668449771,-0.7820612842920766
-3.954,-0.7755089038389382,0.05507314971615059
-3.9535,-0.1886492866663929,0.7226613692416989
-3.953,0.1634664836371343,1.146526905448396
-3.9525,0.3235191065023739,1.33726639674141
-3.952,0.3555296310754218,1.369056311956912
-3.9515,0.3128489316446912,1.305476481525908
-3.951,0.2594980573562781,1.199510097474233
-3.9505,0.2168173579255475,1.061753798207057
-3.95,0.1848068333524996,0.9134008605347127
-3.9495,-0.1352984123779797,0.6378882620003594
-3.949,-0.722158029550525,-0.1356663415768632
-3.9485,-1.06360362499637,-0.9728007755850904
-3.948,-1.223656247861609,-1.598002441489969
-3.9475,-0.9248913518464952,-1.439052865412457
-3.947,-0.2526703358124887,-0.8880276683437509
-3.9465,0.3235191065023739,-0.474758770542221
-3.946,0.6649647019482183,-0.2734226408440398
-3.9455,0.7503261008096795,-0.2416327256285375
-3.945,0.707645401378949,-0.326405832869877
-3.9445,0.6329541773751706,-0.4853554089473885
-3.944,0.8036769750980928,-0.5807251545938954
-3.9435,0.9103787236749192,-0.6760949002404023
-3.943,0.7823366253827275,-0.6231117082145651
-3.9425,0.6222840025174878,-0.4959520473525559
-3.942,0.5369226036560266,-0.3687923864905467
-3.9415,0.4729015545099309,-0.2204394488182027
-3.941,0.1848068333524996,-0.4429688553267188
-3.9405,-0.5087545323968721,-0.9833974139902578
-3.94,-1.148965023857831,-1.47084278062796
-3.9395,-1.661133417026597,-1.75695201756748
-3.939,-2.205312334768412,-1.79933857118815
-3.9385,-2.322684258202921,-1.619195718300304
-3.938,-1.650463242168915,-0.9622041371799229
-3.9375,-0.839529952985034,-0.08268314955102604
-3.937,-0.2313299860971235,0.6378882620003594
-3.9365,0.1527963087794516,1.093543713422559
-3.936,0.3341892813600565,1.305476481525908
-3.9355,0.3875401556484697,1.347863035146577
-3.935,0.3555296310754218,1.29487984312074
-3.9345,0.3021787567870086,1.188913459069066
-3.934,0.2488278824985954,1.040560521396722
-3.9335,0.2381577076409128,0.8922075837243778
-3.933,0.1634664836371343,0.7544512844572011
-3.9325,-0.3060212101009019,0.5743084315693548
-3.932,-0.8288597781273515,0.02328323450064829
-3.9315,-1.031593100423322,-0.7290780922662394
-3.931,-0.6794773301197943,-0.9939940523954253
-3.9305,-0.03926683865883591,-0.8986243067489184
-3.93,0.4622313796522482,-0.6337083466197325
-3.9295,0.7396559259519968,-0.4959520473525559
-3.929,0.7823366253827275,-0.5595318777835605
-3.9285,0.707645401378949,-0.6549016234300674
-3.928,0.5902734779444399,-0.7078848154559045
-3.9275,0.6542945270905358,-0.8244478379127463
-3.927,0.79300680024041,-0.9092209451540858
-3.9265,0.7183155762366316,-0.718481453861072
-3.926,0.6116138276598051,-0.4535654937318862
-3.9255,0.5155822539406614,-0.1886495336027004
-3.925,0.4302208550792003,0.05507314971615059
-3.9245,0.5582629533713921,0.4259554938970107
-3.924,0.8143471499557753,1.051157159801889
-3.9235,0.2488278824985954,0.9981739677760521
-3.923,-0.5514352318276028,0.3305857482505039
-3.9225,-1.341028171296118,-0.3793890248957141
-3.922,-2.002579012472442,-1.036380606016095
-3.9215,-1.821186039891837,-1.131750351662602
-3.921,-1.084943974711735,-0.570128516188728
-3.9205,-0.4340633083930936,0.1292496185523226
-3.92,0.01408403562957729,0.6802748156210291
-3.9195,0.2594980573562781,1.040560521396722
-3.919,0.3555296310754218,1.231300012689736
-3.9185,0.3555296310754218,1.29487984312074
-3.918,0.3341892813600565,1.29487984312074
-3.9175,0.3021787567870086,1.241896651094903
-3.917,0.2701682322139607,1.167720182258731
-3.9165,0.1954770082101822,1.125333628638062
-3.916,-0.1459685872356623,1.210106735879401
-3.9155,-0.6154562809736985,0.9557874141553824
-3.915,-0.8822106524157645,0.05507314971615059
-3.9145,-0.8181896032696687,-0.5277419625680583
-3.914,-0.3060212101009019,-0.5171453241628908
-3.9135,0.2168173579255475,-0.4111789401112165
-3.913,0.5689331282290746,-0.3475991096802118
-3.9125,0.707645401378949,-0.3370024712750445
-3.912,0.6863050516635838,-0.3475991096802118
-3.9115,0.6116138276598051,-0.3687923864905467
-3.911,0.5902734779444399,-0.474758770542221
-3.9105,0.9317190733902845,-0.6972881770507372
-3.91,1.059761171682476,-0.792657922697244
-3.9095,0.8997085488172365,-0.5913217929990628
-3.909,0.7396559259519968,-0.3899856633008816
-3.9085,0.6009436528021226,-0.2204394488182027
-3.908,0.5369226036560266,0.04447651131098315
-3.9075,0.8676980242441885,0.5849050699745222
-3.907,0.6329541773751706,0.4683420475176805
-3.9065,-0.06060718837420119,-0.2628260024388724
-3.906,-0.8822106524157645,-0.9516074987747555
-3.9055,-1.629122892453549,-1.407262950196955
-3.905,-1.83185621474952,-1.449649503817625
-3.9045,-1.255666772434657,-0.8032545611024114
-3.904,-0.6154562809736985,-0.008506680714854012
-3.9035,-0.1139580626626144,0.6166949851900245
-3.903,0.1848068333524996,0.9981739677760521
-3.9025,0.3235191065023739,1.178316820663898
-3.902,0.3555296310754218,1.210106735879401
-3.9015,0.3235191065023739,1.157123543853563
-3.901,0.291508581929326,1.072350436612224
-3.9005,0.2488278824985954,0.9557874141553824
-3.9,0.2061471830678648,0.849821030103708
-3.8995,-0.1139580626626144,0.9663840525605498
-3.899,-0.690147504977477,0.849821030103708
-3.8985,-1.031593100423322,0.03387987290581572
-3.898,-1.052933450138687,-0.8244478379127463
-3.8975,-0.7008176798351597,-1.036380606016095
-3.897,-0.04993701351651855,-0.8244478379127463
-3.8965,0.4729015545099309,-0.5595318777835605
-3.896,0.7396559259519968,-0.3899856633008816
-3.8955,0.7823366253827275,-0.3370024712750445
-3.895,0.6969752265212663,-0.3052125560595421
-3.8945,0.6009436528021226,-0.2946159176543747
-3.894,0.7183155762366316,-0.474758770542221
-3.8935,0.7609962756673623,-0.5383386009732256
-3.893,0.6542945270905358,-0.400582301706049
-3.8925,0.5262524287983441,-0.2098428104130352
-3.892,0.4195506802215176,-0.01910331912002144
-3.8915,0.3555296310754218,0.1610395337678249
-3.891,0.6436243522328531,0.5425185163538525
-3.8905,0.7396559259519968,0.9557874141553824
-3.89,0.08877525963335578,0.457745409112513
-3.8895,-0.7434983792658902,-0.4323722169215513
-3.889,-1.522421143876723,-1.184733543688439
-3.8885,-2.130621110764634,-1.650985633515806
-3.888,-1.757164990745741,-1.396666311791788
-3.8875,-0.9995825758502737,-0.6125150698093976
-3.887,-0.3700422592469978,0.1504428953626575
-3.8865,0.05676473506030786,0.6908714540261965
