Class_4_Move_right_hand_Horiszontal/Class_4_Move_right_hand_Horiszontal_UZ_1.csv

#Digilent WaveForms Oscilloscope Acquisition
#Device Name: EExplorer
#Serial Number: SN:210151A2B84A
#Date Time: 2020-11-17 10:35:22.022
#Sample rate: 2000Hz
#Samples: 16384
#Trigger: Source: Channel 1 Type: Edge Condition: Rising Level: 0 V Hyst.: Auto HoldOff: 0 s
#Channel 1: Range: 1 V/div Offset: 0 V Attenuation: 1 X
#Channel 2: Range: 1 V/div Offset: 0 V Attenuation: 1 X
#Power Supplies: ON
#Fixed Supply: ON
#Voltage: 3.3 V Readback: 3.332 V
#Positive Supply: ON
#Voltage: 3.7 V Readback: 3.723 V
#Current: 40 mA Readback: 19 mA
#Negative Supply: ON
#Voltage: -3.7 V Readback: -3.342 V
#Current: -40 mA Readback: -5 mA
#Reference 1: ON
#Voltage: 0 V
#Reference 2: ON
#Voltage: 0 V

Time (s),Channel 1 (V),Channel 2 (V)
-4.096,-0.1352984123779797,0.09745970333682032
-4.0955,-0.1459685872356526,0.07626642652650473
-4.095,-0.1779791118087005,0.01268659609550977
-4.0945,-0.1673089369510276,0.04447651131098315
-4.094,-0.1352984123780088,0.1292496185522455
-4.0935,-0.1032878878050385,0.2246193641986946
-4.093,-0.2206598112394408,0.07626642652648545
-4.0925,-0.7434983792654146,-0.5277419625675089
-4.092,-1.07427379985379,-1.152943628473371
-4.0915,-0.7861790786966207,-1.629792356705471
-4.091,-0.423393133535411,-1.682775548731308
-4.0905,-0.1993194615239591,-0.9939940523947314
-4.09,-0.07127736323188383,-0.2310360872233701
-4.0895,-0.02859666380115328,0.3517790250608387
-4.089,-0.01792648894348033,0.6908714540258881
-4.0885,-0.02859666380115328,0.8392243916985406
-4.088,-0.03926683865883591,0.8604176685088755
-4.0875,-0.04993701351650885,0.828627753293402
-4.087,-0.06060718837420119,0.7438546460519663
-4.0865,-0.06060718837420119,0.6696781772158616
-4.086,-0.04993701351652825,0.5955017083797571
-4.0855,-0.04993701351649914,0.5213252395434694
-4.085,-0.02859666380115328,0.4683420475176805
-4.0845,0.1314559590639408,0.18223281057842
-4.084,0.5582629533717802,-0.5065486857583884
-4.0835,0.9850699476786977,-1.237716735714276
-4.083,1.326515543124542,-1.735758740757146
-4.0825,1.177133095116607,-1.439052865411908
-4.082,0.7609962756673623,-0.8350444763179138
-4.0815,0.3768699807907871,-0.3370024712750445
-4.081,0.09944543449129073,-0.01910331912031055
-4.0805,-0.04993701351651855,0.13984625695749
-4.08,-0.1139580626626144,0.1928294489833272
-4.0795,-0.1246282375202873,0.1716361721730116
-4.079,-0.1246282375204232,0.15044289536259
-4.0785,-0.2633405106701714,0.07626642652648545
-4.078,-0.3060212101008631,0.02328323450069648
-4.0775,-0.2526703358124305,0.02328323450068684
-4.077,-0.1886492866663929,0.06566978812131802
-4.0765,-0.1779791118087199,0.02328323450068684
-4.076,-0.5300948821125769,-0.474758770542809
-4.0755,-0.9035510021311299,-1.121153713257435
-4.075,-0.7861790786966207,-1.650985633515806
-4.0745,-0.5194247072543995,-1.947691508859993
-4.074,-0.3487019095316325,-1.396666311791788
-4.0735,-0.2099896363817582,-0.5807251545938954
-4.073,-0.1032878878050288,0.08686306493104567
-4.0725,-0.06060718837420119,0.5213252395435176
-4.072,-0.03926683865883591,0.7544512844572011
-4.0715,-0.03926683865883591,0.8286277532933056
-4.071,-0.03926683865884562,0.8180311148881673
-4.0705,-0.04993701351651855,0.775644561267536
-4.07,-0.06060718837419149,0.7120647308365893
-4.0695,-0.04993701351651855,0.648484900405469
-4.069,-0.04993701351651855,0.5849050699745222
-4.0685,-0.03926683865883591,0.5425185163538525
-4.068,0.04609456020312985,0.3835689402757917
-4.0675,0.6009436528021226,-0.2204394488182027
-4.067,1.230483969405398,-0.9728007755850904
-4.0665,1.50790851570506,-1.598002441489998
-4.066,1.411876941986003,-1.629792356705471
-4.0655,0.942389248247967,-0.9833974139902578
-4.065,0.4729015545103579,-0.400582301706579
-4.0645,0.142126133921769,-0.02969995752518888
-4.064,-0.03926683865883591,0.1610395337678249
-4.0635,-0.1139580626625465,0.2140227257936139
-4.063,-0.13529841237797,0.1928294489832983
-4.0625,-0.124628237520297,0.1610395337678249
-4.062,-0.2206598112393535,0.002089957690457972
-4.0615,-0.3060212101008631,-0.1250697031716572
-4.061,-0.2633405106701714,-0.08268314955102604
-4.0605,-0.1993194615240755,0.01268659609548085
-4.06,-0.145968587235837,0.09745970333666612
-4.0595,-0.3380317346739499,-0.07208651114585861
-4.059,-0.7755089038389382,-0.6654982618352349
-4.0585,-0.8395299529849758,-1.31189320454986
-4.058,-0.572775581542968,-1.862918401619155
-4.0575,-0.4980843575391895,-1.852321763213987
-4.057,-0.3807124341047872,-1.099960436447784
-4.0565,-0.2420001609548061,-0.326405832869877
-4.056,-0.1352984123779797,0.2564092794143318
-4.0555,-0.081947538089615,0.5955017083793812
-4.055,-0.04993701351650884,0.7650479228624071
-4.0545,-0.03926683865883591,0.8074344764830383
-4.054,-0.04993701351650885,0.7862411996727228
-4.0535,-0.04993701351651855,0.7438546460519856
-4.053,-0.04993701351651855,0.6908714540261965
-4.0525,-0.04993701351651855,0.6484849004055269
-4.052,-0.02859666380114357,0.6272916235951438
-4.0515,-0.01792648894347063,0.5743084315693548
-4.051,0.09944543449103843,0.5001319627331828
-4.0505,0.4622313796519182,0.023283234501082
-4.05,0.9317190733902845,-0.7502713690765743
-4.0495,1.166462920259302,-1.258910012524611
-4.049,0.931719073390498,-1.036380606016297
-4.0485,0.5369226036557452,-0.5913217929986966
-4.048,0.2274875327832301,-0.1886495336027004
-4.0475,0.02475421048744431,0.0656697881210867
-4.047,-0.0819475380895956,0.1716361721730309
-4.0465,-0.1139580626626144,0.2140227257936621
-4.046,-0.1139580626626144,0.1928294489833465
-4.0455,-0.1459685872357594,0.1186529801469721
-4.045,-0.2526703358124887,-0.08268314955102604
-4.0445,-0.2526703358124887,-0.09327978795619347
-4.044,-0.199319461524027,-0.008506680714757636
-4.0435,-0.1459685872356623,0.09745970333682032
-4.043,-0.2099896363817582,0.06566978812131802
-4.0425,-0.7008176798347133,-0.4217755785159406
-4.042,-1.191645723288561,-1.089363798041932
-4.0415,-1.170305373573196,-1.640388995110639
-4.041,-1.191645723288542,-2.000674700886004
-4.0405,-1.074273799853751,-1.54501924946338
-4.04,-0.7434983792658902,-0.718481453861072
-4.0395,-0.4127229586780292,-0.008506680715499759
-4.039,-0.1886492866662861,0.4471487707075673
-4.0385,-0.07127736323188383,0.6908714540261965
-4.038,-0.01792648894351915,0.775644561267459
-4.0375,-0.01792648894348033,0.7650479228623107
-4.037,-0.02859666380115328,0.701468092431364
-4.0365,-0.02859666380115328,0.6484849004055269
-4.036,-0.03926683865883591,0.5743084315693067
-4.0355,-0.03926683865883591,0.5213252395435176
-4.035,0.00341386077189465,0.5319218779486851
-4.0345,0.3661998059327745,0.6378882620002631
-4.034,0.825017324813458,0.1186529801471552
-4.0335,1.19847344483235,-0.6866915386455698
-4.033,1.262494493978388,-1.152943628472513
-4.0325,0.9637295979629734,-0.9622041371795953
-4.032,0.5689331282290746,-0.6019184314042303
-4.0315,0.2381577076412136,-0.2734226408443386
-4.031,0.02475421048716289,-0.07208651114574295
-4.0305,-0.08194753808956648,0.05507314971615059
-4.03,-0.1139580626625853,0.1186529801470974
-4.0295,-0.1246282375202873,0.1398462569574997
-4.029,-0.1139580626626144,0.1504428953626575
-4.0285,-0.2206598112394408,0.02328323450064829
-4.028,-0.2633405106701229,-0.00850668071477691
-4.0275,-0.2099896363817582,0.07626642652648545
-4.027,-0.156638762093345,0.1928294489833272
-4.0265,-0.156638762093345,0.2352160026039584
-4.026,-0.5834457564006506,-0.2204394488182027
-4.0255,-0.8608703027003992,-0.8774310299385835
-4.025,-0.6047861061162487,-1.428456227006789
-4.0245,-0.4020527838202786,-1.629792356705355
-4.024,-0.658136980404429,-1.502632695843462
-4.0235,-0.6367966306890832,-0.835044476318521
-4.023,-0.4554036581082939,-0.1038764263608694
-4.0225,-0.274010685527854,0.4365521323021782
-4.022,-0.1459685872357788,0.7438546460517543
-4.0215,-0.07127736323185471,0.8710143069140429
-4.021,-0.03926683865883591,0.8710143069140429
-4.0205,-0.02859666380115328,0.8180311148882058
-4.02,-0.03926683865883591,0.7332580076467893
-4.0195,-0.03926683865883591,0.6484849004055269
-4.019,-0.02859666380115328,0.5743084315693548
-4.0185,-0.01792648894348033,0.5213252395435658
-4.018,0.1527963087794516,0.5107286011383502
-4.0175,0.7716664505250448,0.383568940276341
-4.017,1.294505018551019,-0.2522293640331268
-4.0165,1.561259389993395,-0.9516074987747843
-4.016,1.379866417412955,-0.9833974139902578
-4.0155,0.8997085488176733,-0.612515069809735
-4.015,0.4622313796519474,-0.2416327256283255
-4.0145,0.1314559590640864,-0.008506680714854012
-4.014,-0.03926683865868064,0.09745970333672394
-4.0135,-0.1139580626626338,0.1292496185523322
-4.013,-0.1352984123779797,0.13984625695749
-4.0125,-0.1139580626626144,0.1292496185523226
-4.012,-0.2313299860972399,0.0126865960953652
-4.0115,-0.3593720843893152,-0.1144730647665284
-4.011,-0.3166913849585846,-0.05089323433552374
-4.0105,-0.242000160954874,0.06566978812121201
-4.01,-0.1673089369510276,0.2034260873884947
-4.0095,-0.2526703358124887,0.1292496185523226
-4.009,-0.7434983792654438,-0.305212556059147
-4.0085,-0.8502001278425226,-0.9092209451545291
-4.008,-0.6367966306890638,-1.396666311791788
-4.0075,-0.8181896032695037,-1.714565463946522
-4.007,-0.8502001278425226,-1.322489842954941
-4.0065,-0.6367966306890638,-0.5807251545938954
-4.006,-0.391382608962363,0.06566978812131802
-4.0055,-0.1993194615239785,0.5001319627333949
-4.005,-0.09261771294724913,0.7332580076468663
-4.0045,-0.03926683865883591,0.7968378380778709
-4.004,-0.01792648894348033,0.7968378380778131
-4.0035,-0.02859666380115328,0.7332580076468663
-4.003,-0.03926683865883591,0.6696781772158616
-4.0025,-0.03926683865883591,0.6060983467849149
-4.002,-0.03926683865883591,0.55311515475902
-4.0015,0.02475421048725994,0.55311515475902
-4.001,0.5049120790825421,0.5213252395435465
-4.0005,1.209143619690305,-0.09327978795688738
-4,1.507908515705147,-0.8562377531282487
-3.9995,1.401206767128321,-1.01518732920576
-3.999,0.9850699476786977,-0.6231117082145651
-3.9985,0.5369226036560266,-0.2310360872233701
-3.998,0.1848068333524996,0.02328323450064829
-3.9975,-0.01792648894347063,0.13984625695749
-3.997,-0.1032878878049318,0.1928294489833272
-3.9965,-0.124628237520297,0.1928294489833272
-3.996,-0.124628237520297,0.1716361721729923
-3.9955,-0.1459685872356623,0.1080563417419877
-3.995,-0.2420001609548061,-0.08268314955102604
-3.9945,-0.2420001609548061,-0.07208651114585861
-3.994,-0.1993194615240755,0.03387987290581572
-3.9935,-0.1459685872356623,0.1610395337678249
-3.993,-0.2633405106701714,0.09745970333682032
-3.9925,-0.8181896032696687,-0.4641621321370536
-3.992,-0.9995825758502737,-1.110557074852267
-3.9915,-0.658136980404429,-1.619195718300304
-3.991,-0.5407650569699201,-1.937094870455327
-3.9905,-0.7114878546928423,-1.672178910326141
-3.99,-0.6154562809736985,-0.8562377531282487
-3.9895,-0.4127229586777283,-0.1038764263613609
-3.989,-0.2313299860971235,0.4153588554918433
-3.9885,-0.124628237520297,0.6908714540261965
-3.988,-0.06060718837420119,0.7968378380778709
-3.9875,-0.02859666380115328,0.7968378380778709
-3.987,-0.03926683865883591,0.7332580076468663
-3.9865,-0.03926683865883591,0.6484849004055269
-3.986,-0.03926683865883591,0.5743084315693548
-3.9855,-0.02859666380115328,0.5107286011383502
-3.985,-0.01792648894347063,0.4683420475176805
-3.9845,0.2061471830678648,0.3199891098453364
-3.984,0.7823366253827275,0.08686306493165288
-3.9835,1.241154144263081,-0.5595318777835605
-3.983,1.433217291701369,-1.046977244421262
-3.9825,1.134452395686255,-0.8456411147230812
-3.982,0.6756348768059011,-0.4323722169215513
-3.9815,0.2808384070716433,-0.1038764263613609
-3.981,0.04609456020262521,0.1080563417419877
-3.9805,-0.08194753808956648,0.1928294489833272
-3.98,-0.124628237520297,0.2140227257936621
-3.9795,-0.124628237520297,0.2140227257936621
-3.979,-0.124628237520297,0.1822328105781598
-3.9785,-0.1993194615240755,0.1080563417419877
-3.978,-0.2099896363817582,0.07626642652648545
-3.9775,-0.1886492866663929,0.1080563417419877
-3.977,-0.1352984123779797,0.1716361721729923
-3.9765,-0.1459685872356623,0.1610395337678249
-3.976,-0.572775581542968,-0.3370024712750445
-3.9755,-1.074273799854052,-0.9939940523954253
-3.975,-0.9889124009925911,-1.555615887869299
-3.9745,-0.7328282044082075,-1.947691508860494
-3.974,-0.6474668055467465,-1.672178910326141
-3.9735,-0.4660738329661415,-0.8562377531282487
-3.973,-0.274010685527854,-0.1144730647665284
-3.9725,-0.1459685872356623,0.4047622170866759
-3.972,-0.07127736323188383,0.701468092431364
-3.9715,-0.03926683865883591,0.8180311148882058
-3.971,-0.02859666380115328,0.8286277532933731
-3.9705,-0.03926683865883591,0.7862411996727035
-3.97,-0.03926683865883591,0.7332580076468663
-3.9695,-0.03926683865883591,0.6696781772158616
-3.969,-0.03926683865883591,0.6166949851900245
-3.9685,-0.01792648894347063,0.5849050699745222
-3.968,0.09944543449103843,0.55311515475902
-3.9675,0.5796033030867573,0.383568940276341
-3.967,0.79300680024041,-0.2204394488182027
-3.9665,0.8997085488172365,-0.8986243067489184
-3.966,0.825017324813458,-0.9092209451540858
-3.9655,0.5475927785137094,-0.5595318777835605
-3.965,0.2701682322139607,-0.2204394488182027
-3.9645,0.07810508477567314,0.01268659609548085
-3.964,-0.04993701351651855,0.1186529801471552
-3.9635,-0.09261771294724913,0.1504428953626575
-3.963,-0.1032878878049318,0.1610395337678249
-3.9625,-0.1032878878049318,0.1610395337678249
-3.962,-0.156638762093345,0.09745970333682032
-3.9615,-0.2206598112394408,0.04447651131098315
-3.961,-0.2099896363817582,0.07626642652648545
-3.9605,-0.156638762093345,0.1716361721729923
-3.96,-0.1139580626626144,0.2564092794143318
-3.9595,-0.2526703358124887,0.02328323450064829
-3.959,-0.5300948821122373,-0.570128516188728
-3.9585,-0.4340633083930936,-1.174136905283272
-3.958,-0.124628237520297,-1.650985633515806
-3.9575,-0.1993194615240755,-1.84172512480882
-3.957,-0.274010685527854,-1.216523458903942
-3.9565,-0.2313299860971235,-0.4111789401112165
-3.956,-0.1673089369510276,0.2246193641988295
-3.9555,-0.1139580626626144,0.6060983467848571
-3.955,-0.07127736323188383,0.7968378380778709
-3.9545,-0.04993701351651855,0.8392243916985406
-3.954,-0.04993701351651855,0.8074344764830383
-3.9535,-0.04993701351651855,0.7332580076468663
-3.953,-0.04993701351651855,0.6590815388106942
-3.9525,-0.03926683865883591,0.5849050699745222
-3.952,-0.02859666380115328,0.5319218779486851
-3.9515,-0.007256314085787988,0.4895353243280153
-3.951,0.1634664836371343,0.5637117931641874
-3.9505,0.6329541773751706,0.5849050699745222
-3.95,1.390536592270638,-0.07208651114585861
-3.9495,1.774662887147213,-0.6125150698093976
-3.949,1.422547116843686,-0.5595318777835605
-3.9485,0.857027849386506,-0.2946159176543747
-3.948,0.3875401556484697,-0.05089323433552374
-3.9475,0.07810508477567314,0.1186529801471552
-3.947,-0.09261771294724913,0.1928294489833272
-3.9465,-0.1352984123779797,0.2352160026039969
-3.946,-0.1352984123779797,0.2458126410091644
-3.9455,-0.1673089369510276,0.2140227257936621
-3.945,-0.3166913849585846,0.06566978812131802
-3.9445,-0.3166913849585846,0.05507314971615059
-3.944,-0.2526703358124887,0.1186529801471552
-3.9435,-0.1779791118087102,0.2034260873884947
-3.943,-0.1779791118087102,0.2034260873884947
-3.9425,-0.658136980404429,-0.3158091944647096
-3.942,-1.1062843244271,-0.9304142219644207
-3.9415,-0.9462317015618604,-1.449649503817625
-3.941,-0.7755089038389382,-1.79933857118815
-3.9405,-0.6688071552621118,-1.417859588602123
-3.94,-0.4660738329661415,-0.6549016234300674
-3.9395,-0.2633405106701714,0.01268659609548085
-3.939,-0.1352984123779797,0.457745409112513
-3.9385,-0.06060718837420119,0.701468092431364
-3.938,-0.03926683865883591,0.775644561267536
-3.9375,-0.02859666380115328,0.7544512844572011
-3.937,-0.03926683865883591,0.701468092431364
-3.9365,-0.04993701351651855,0.627291623595192
-3.936,-0.03926683865883591,0.55311515475902
-3.9355,-0.03926683865883591,0.5001319627331828
-3.935,-0.01792648894347063,0.4683420475176805
-3.9345,0.08877525963335578,0.383568940276341
-3.934,0.4408910299368829,0.08686306493165288
-3.9335,0.9957401225363802,-0.6019184314042303
-3.933,1.326515543124542,-1.089363798041932
-3.9325,1.113112045970889,-0.8668343915334161
-3.932,0.6863050516635838,-0.4641621321370536
-3.9315,0.3235191065023739,-0.1356663415768632
-3.931,0.0674349099179905,0.07626642652648545
-3.9305,-0.06060718837420119,0.1716361721729923
-3.93,-0.1139580626626144,0.2140227257936621
-3.9295,-0.124628237520297,0.2140227257936621
-3.929,-0.1139580626626144,0.2034260873884947
-3.9285,-0.2313299860971235,0.04447651131098315
-3.928,-0.274010685527854,-0.008506680714854012
-3.9275,-0.2420001609548061,0.04447651131098315
-3.927,-0.1673089369510276,0.1610395337678249
-3.9265,-0.1673089369510276,0.1822328105781598
-3.926,-0.5834457564006506,-0.3052125560595421
-3.9255,-1.26633694729234,-0.9728007755850904
-3.925,-1.437059745015262,-1.51322933424863
-3.9245,-1.170305373573196,-1.661582271920973
-3.924,-1.202315898146244,-1.598002441489969
-3.9235,-0.9995825758502737,-0.9833974139902578
-3.923,-0.6367966306890638,-0.2628260024388724
-3.9225,-0.3487019095316325,0.2881991946298341
-3.922,-0.1459685872356623,0.627291623595192
-3.9215,-0.03926683865883591,0.7650479228623686
-3.921,-0.01792648894347063,0.7862411996727035
-3.9205,-0.007256314085787988,0.7438546460520338
-3.92,-0.01792648894347063,0.6802748156210291
-3.9195,-0.02859666380115328,0.5955017083796896
-3.919,-0.02859666380115328,0.5319218779486851
-3.9185,-0.02859666380115328,0.4789386859228479
-3.918,0.0674349099179905,0.5107286011383502
-3.9175,0.6009436528021226,0.8816109453192104
-3.917,0.9103787236749192,0.6060983467848571
-3.9165,1.017080472251745,-0.1674562567923655
-3.916,0.942389248247967,-0.474758770542221
-3.9155,0.6649647019482183,-0.3687923864905467
-3.915,0.3448594562177392,-0.1886495336027004
-3.9145,0.1101156093487211,-0.01910331912002144
-3.914,-0.01792648894347063,0.08686306493165288
-3.9135,-0.09261771294724913,0.1504428953626575
-3.913,-0.1032878878049318,0.2034260873884947
-3.9125,-0.1032878878049318,0.2246193641988295
-3.912,-0.2206598112394408,0.1928294489833272
-3.9115,-0.391382608962363,0.08686306493165288
-3.911,-0.3593720843893152,0.13984625695749
-3.9105,-0.2633405106701714,0.2458126410091644
-3.91,-0.1673089369510276,0.3729723018711736
-3.9095,-0.2526703358124887,0.2670059178194992
-3.909,-0.7968492535543035,-0.3052125560595421
-3.9085,-1.191645723288561,-0.9728007755850904
-3.908,-1.095614149569417,-1.449649503817625
-3.9075,-0.8608703027003992,-1.354279758171118
-3.907,-0.5514352318276028,-0.6866915386455698
-3.9065,-0.2846808603855366,-0.008506680714854012
-3.906,-0.1139580626626144,0.4789386859228479
-3.9055,-0.03926683865883591,0.7332580076468663
-3.905,-0.01792648894347063,0.8286277532933731
-3.9045,-0.007256314085787988,0.8180311148882058
-3.904,-0.02859666380115328,0.7332580076468663
-3.9035,-0.03926683865883591,0.6378882620003594
-3.903,-0.03926683865883591,0.55311515475902
-3.9025,-0.03926683865883591,0.4683420475176805
-3.902,-0.02859666380115328,0.4047622170866759
-3.9015,0.07810508477567314,0.457745409112513
-3.901,0.3768699807907871,0.701468092431364
-3.9005,0.79300680024041,0.5849050699745222
-3.9,1.017080472251745,-0.07208651114585861
-3.8995,0.9103787236749192,-0.5383386009732256
-3.899,0.6116138276598051,-0.5383386009732256
-3.8985,0.291508581929326,-0.4217755785163839
-3.898,0.07810508477567314,-0.2628260024388724
-3.8975,-0.03926683865883591,-0.1250697031716958
-3.897,-0.09261771294724913,-0.04029659593035631
-3.8965,-0.1032878878049318,0.04447651131098315
-3.896,-0.09261771294724913,0.1186529801471552
-3.8955,-0.1139580626626144,0.1716361721729923
-3.895,-0.1779791118087102,0.2034260873884947
-3.8945,-0.1673089369510276,0.2776025562246667
-3.894,-0.1459685872356623,0.3517790250608387
-3.8935,-0.1352984123779797,0.4259554938970107
-3.893,-0.2206598112394408,0.3411823866556712
-3.8925,-0.7008176798351597,-0.2098428104130352
-3.892,-1.042263275281004,-0.8244478379127463
-3.8915,-0.8181896032696687,-1.280103289334946
-3.891,-0.6154562809736985,-1.460246142222792
-3.8905,-0.4660738329661415,-0.9622041371799229
-3.89,-0.2953510352432193,-0.2098428104130352
