Class_4_Move_right_hand_Horiszontal/Class_4_Move_right_hand_Horiszontal_AM_7.csv

#Digilent WaveForms Oscilloscope Acquisition
#Device Name: EExplorer
#Serial Number: SN:210151A2B84A
#Date Time: 2020-12-03 14:49:26.268
#Sample rate: 2000Hz
#Samples: 16384
#Trigger: Source: Channel 1 Type: Edge Condition: Rising Level: 0 V Hyst.: Auto HoldOff: 0 s
#Channel 1: Range: 1 V/div Offset: 0 V Attenuation: 1 X
#Channel 2: Range: 1 V/div Offset: 0 V Attenuation: 1 X
#Power Supplies: ON
#Fixed Supply: ON
#Voltage: 3.3 V Readback: 3.325 V
#Positive Supply: ON
#Voltage: 3.7 V Readback: 3.659 V
#Current: 40 mA Readback: 17 mA
#Negative Supply: ON
#Voltage: -3.7 V Readback: -4.175 V
#Current: -40 mA Readback: -10 mA
#Reference 1: ON
#Voltage: 0 V
#Reference 2: ON
#Voltage: 0 V

Time (s),Channel 1 (V),Channel 2 (V)
-4.096,0.1741366584948169,-0.8774310299385835
-4.0955,-0.3807124341041758,-1.682775548730576
-4.095,-1.052933450138105,-2.307977214635724
-4.0945,-0.4127229586777283,-1.79933857118815
-4.094,0.6542945270895653,-0.4323722169227946
-4.0935,1.379866417413246,0.8392243916992634
-4.093,1.699971663143435,1.633972272086098
-4.0925,1.72131201285878,1.845905040189254
-4.092,1.603940089424126,1.040560521395556
-4.0915,1.422547116843686,-0.2416327256285375
-4.091,1.326515543124542,-1.258910012524611
-4.0905,1.091771696255165,-1.449649503817288
-4.09,0.6969752265212663,-1.078767159636765
-4.0895,0.3341892813600565,-0.6019184314042303
-4.089,0.1101156093489248,-0.2098428104133918
-4.0885,-0.1032878878049318,0.1292496185523226
-4.088,-0.4660738329661415,0.1822328105781598
-4.0875,-0.7328282044079648,-0.294615917653941
-4.087,-1.223656247862269,-1.227120097309909
-4.0865,-1.949228138184029,-2.106641084938006
-4.086,-2.344024607917928,-2.318573853041161
-4.0855,-2.226652684483147,-1.93709487045445
-4.085,-1.533091318734406,-0.9728007755850904
-4.0845,-0.7861790786973001,-0.01910331912088892
-4.084,-0.3273615598160537,0.5743084315696536
-4.0835,-0.09261771294724913,0.9028042221295453
-4.083,0.01408403562957729,1.051157159801889
-4.0825,0.04609456020261551,1.082947075017363
-4.082,0.03542438534494258,1.051157159801889
-4.0815,0.02475421048725994,0.9663840525605498
-4.081,0.02475421048725994,0.8710143069141296
-4.0805,0.02475421048725994,0.7650479228623686
-4.08,-0.03926683865883591,0.457745409112513
-4.0795,-0.4980843575387722,-0.368792386489795
-4.079,-0.7434983792659484,-0.88802766834404
-4.0785,-0.807519428411986,-1.205926820498774
-4.078,-0.2313299860976474,-1.470842780627719
-4.0775,0.8570278493872048,-0.6760949002393325
-4.077,1.625280439139656,0.5001319627331828
-4.0765,1.902704985439152,1.443232780792227
-4.076,1.870694460866192,1.930678147430372
-4.0755,1.689301488285752,1.475022696008586
-4.075,1.465227816274416,0.2246193641988295
-4.0745,1.262494493978233,-0.9198175835596387
-4.074,1.027750647109428,-1.34368311976595
-4.0735,0.6436243522328531,-1.110557074852267
-4.073,0.3128489316449921,-0.6866915386459553
-4.0725,0.09944543449103843,-0.2946159176543747
-4.072,-0.01792648894347063,0.01268659609548085
-4.0715,-0.3593720843890046,0.002089957690323059
-4.071,-1.0209229255666,-0.6760949002414721
-4.0705,-2.07727023647622,-1.852321763213987
-4.07,-2.514747405640811,-2.265590661015141
-4.0695,-2.824182476513617,-2.477523429118374
-4.069,-2.3973754822067,-1.937094870455327
-4.0685,-1.490410619303675,-0.8350444763179138
-4.068,-0.7114878546924444,0.1186529801476756
-4.0675,-0.274010685527854,0.6908714540261965
-4.067,-0.03926683865883591,0.9981739677760521
-4.0665,0.04609456020264462,1.114736990232894
-4.066,0.0674349099179905,1.114736990232894
-4.0655,0.04609456020262521,1.051157159801889
-4.065,0.03542438534495228,0.9451907757503113
-4.0645,0.02475421048725994,0.849821030103708
-4.064,0.01408403562957729,0.7332580076468663
-4.0635,-0.00725631408576858,0.5849050699746571
-4.063,-0.3700422592475218,-0.08268314955190306
-4.0625,-0.9462317015618604,-1.046977244421262
-4.062,-1.59711236787991,-1.799338571187466
-4.0615,-1.309017646722139,-1.39666631179065
-4.061,-0.2846808603855366,-0.1462629799820306
-4.0605,0.6969752265212663,1.040560521396722
-4.06,1.337185717982497,1.835308401784588
-4.0595,1.635950613997339,2.174400830749637
-4.059,1.657290963712704,1.930678147430786
-4.0585,1.550589215135975,0.7226613692427977
-4.058,1.379866417412955,-0.6125150698093976
-4.0575,1.230483969405398,-1.481439419033127
-4.057,0.8783681991021914,-1.481439419033127
-4.0565,0.4942419042252961,-1.036380606016095
-4.056,0.2061471830678648,-0.5383386009732256
-4.0555,0.0247542104874249,-0.1462629799823872
-4.055,-0.08194753808948885,0.2140227257939416
-4.0545,0.00341386077189465,0.5213252395435176
-4.054,-0.3487019095313122,0.04447651131141689
-4.0535,-0.9782422261359662,-0.7078848154570032
-4.053,-2.141291285622316,-1.915901593644992
-4.0525,-2.19464215991073,-1.873515040024322
-4.052,-1.586442193022285,-1.057573882825707
-4.0515,-0.9995825758502737,-0.2628260024388724
-4.051,-0.4554036581084589,0.4471487707073456
-4.0505,-0.09261771294757909,0.9345941373446042
-4.05,0.02475421048725994,1.125333628638062
-4.0495,0.03542438534494258,1.188913459069066
-4.049,0.02475421048726964,1.178316820663908
-4.0485,0.01408403562956759,1.125333628637984
-4.048,0.00341386077189465,1.040560521396722
-4.0475,0.01408403562956759,0.9451907757503016
-4.047,0.02475421048708526,0.8180311148876758
-4.0465,-0.1673089369510276,0.2352160026039969
-4.046,-0.6901475049770014,-0.7502713690756779
-4.0455,-1.27700712215041,-1.640388995111111
-4.045,-1.703814116457328,-2.159624276963843
-4.0445,-0.839529952985034,-1.364876396576285
-4.044,0.3555296310761982,0.02328323450171806
-4.0435,1.209143619690033,1.199510097474233
-4.043,1.635950613997339,1.877694955404949
-4.0425,1.721312012858722,1.973064701051369
-4.042,1.614610264281974,1.00877060618122
-4.0415,1.433217291701369,-0.3475991096802118
-4.041,1.29450501855162,-1.396666311790834
-4.0405,1.049090996824531,-1.619195718300053
-4.04,0.7609962756673623,-1.34368311976595
-4.0395,0.4302208550795011,-0.8880276683441652
-4.039,0.1848068333522958,-0.4747587705419608
-4.0385,-0.03926683865883591,-0.1886495336027004
-4.038,-0.690147504976885,-0.4217755785161719
-4.0375,-1.212986073004092,-0.941010860369964
-4.037,-1.394379045584531,-1.354279758171118
-4.0365,-1.565101843307454,-1.566212526274467
-4.036,-1.479740444445876,-1.248313374119039
-4.0355,-1.351698346153801,-0.8032545611024114
-4.035,-1.447729919872945,-0.6019184314042303
-4.0345,-0.9035510021316249,0.1610395337671311
-4.034,-0.5621054066852853,0.6378882620003594
-4.0335,-0.2846808603855366,0.9769806909657173
-4.033,-0.0285966638013862,1.25249328949982
-4.0325,0.03542438534492317,1.284283204715505
-4.032,0.01408403562957729,1.210106735879401
-4.0315,0.003413860771904354,1.104140351827823
-4.031,-0.007256314085778284,0.9663840525604149
-4.0305,0.00341386077189465,0.8180311148882058
-4.03,-0.08194753808948885,0.5001319627334719
-4.0295,-0.6474668055471346,-0.389985663301643
-4.029,-1.074273799854052,-1.227120097309109
-4.0285,-1.148965023857831,-1.862918401619155
-4.028,-0.5194247072537299,-1.820531847997444
-4.0275,0.3875401556484697,-0.6760949002404023
-4.027,1.123782220828572,0.6166949851900245
-4.0265,1.529248865420143,1.517409249628437
-4.026,1.657290963712704,1.835308401784279
-4.0255,1.603940089424291,1.040560521396722
-4.025,1.465227816274542,-0.3052125560583181
-4.0245,1.315845368266656,-1.386069673386842
-4.024,1.091771696255524,-1.629792356705471
-4.0235,0.7076454013792984,-1.258910012524948
-4.023,0.3555296310752083,-0.7502713690761792
-4.0225,0.1207857842064037,-0.3158091944647096
-4.022,-0.01792648894334448,0.002089957690024291
-4.0215,-0.1886492866665773,0.3199891098452304
-4.021,-0.391382608962363,0.2034260873884947
-4.0205,-0.9462317015618604,-0.5277419625680583
-4.02,-1.447729919872828,-1.152943628472792
-4.0195,-1.319687821580753,-0.9939940523954253
-4.019,-0.8928808272734472,-0.400582301706049
-4.0185,-0.4874141826818756,0.1928294489827875
-4.018,-0.2526703358124887,0.5849050699745222
-4.0175,-0.807519428411986,0.1716361721729923
-4.017,-0.7221580295506026,0.341182386655517
-4.0165,-0.5407650569697842,0.5849050699746667
-4.016,-0.391382608962363,0.7438546460520338
-4.0155,-0.1779791118089043,0.9451907757500319
-4.015,-0.01792648894345122,1.040560521396664
-4.0145,0.00341386077189465,0.9769806909657173
-4.014,0.00341386077189465,0.8710143069141393
-4.0135,0.003413860771574403,0.7014680924306508
-4.013,-0.3487019095316325,-0.08268314955102604
-4.0125,-0.807519428411986,-1.025783967610927
-4.012,-0.9782422261344426,-1.65098563351597
-4.0115,-0.4660738329661415,-1.831128486403653
-4.011,0.4515612047945656,-0.9516074987747555
-4.0105,1.219813794547017,0.3517790250596532
-4.01,1.625280439139656,1.37965295036208
-4.0095,1.753322537431848,1.930678147430786
-4.009,1.678631313428137,1.644568910491526
-4.0085,1.529248865420347,0.3517790250596436
-4.008,1.347855892839907,-0.9622041371799229
-4.0075,1.166462920259467,-1.640388995110022
-4.007,0.7930068002400801,-1.492036057437871
-4.0065,0.4302208550792003,-1.025783967610927
-4.006,0.1741366584948169,-0.5383386009732256
-4.0055,0.01408403562931527,-0.1568596183870053
-4.005,-0.274010685527854,0.05507314971615059
-4.0045,-1.052933450138687,-0.3899856633008816
-4.004,-1.629122892453986,-1.078767159637247
-4.0035,-2.109280761049269,-1.608599079895136
-4.003,-2.269333383914508,-1.682775548731308
-4.0025,-1.650463242169478,-0.9939940523960517
-4.002,-0.9675720512772257,-0.1356663415768632
-4.0015,-0.4447334832507763,0.5425185163538525
-4.001,-0.1246282375205882,0.9769806909653221
-4.0005,0.03542438534498139,1.210106735879468
-4,0.07810508477567314,1.284283204715573
-3.9995,-0.007256314085787988,1.188913459069066
-3.999,-0.7434983792658902,0.4153588554918433
-3.9985,-0.7755089038389382,0.309392471440169
-3.998,-0.6047861061160158,0.3517790250608387
-3.9975,-0.4660738329661415,0.3729723018711736
-3.997,-0.2206598112394408,0.4259554938970107
-3.9965,-0.3807124341046804,-0.05089323433552374
-3.996,-0.9782422261349084,-0.9939940523954253
-3.9955,-1.212986073003927,-1.629792356705471
-3.995,-0.9035510021311299,-1.958288147265661
-3.9945,0.05676473506030786,-1.227120097309109
-3.994,0.942389248247967,0.08686306493165288
-3.9935,1.486568165989782,1.210106735879401
-3.993,1.731982187716482,1.898888232215284
-3.9925,1.731982187716482,1.909484870620451
-3.992,1.603940089424291,0.7438546460520338
-3.9915,1.411876941986003,-0.6549016234300674
-3.991,1.305175193409177,-1.608599079895136
-3.9905,1.017080472251745,-1.682775548731308
-3.99,0.6222840025174878,-1.227120097309109
-3.9895,0.3021787567870086,-0.6866915386455698
-3.989,0.08877525963335578,-0.2416327256285375
-3.9885,-0.1352984123779797,0.03387987290581572
-3.988,-0.6261264558313813,-0.2416327256285375
-3.9875,-1.255666772434657,-0.9410108603695881
-3.987,-1.661133417026597,-1.492036057438295
-3.9865,-1.575772018165136,-1.42845622700729
-3.986,-1.1062843244271,-0.7396747306714069
-3.9855,-0.6154562809736985,0.01268659609548085
-3.985,-0.2526703358124887,0.6060983467848571
-3.9845,-0.04993701351651855,0.9769806909657173
-3.984,0.03542438534494258,1.157123543853563
-3.9835,0.05676473506030786,1.231300012689736
-3.983,0.04609456020262521,1.220703374284568
-3.9825,0.02475421048725994,1.178316820663898
-3.982,0.01408403562957729,1.082947075017392
-3.9815,0.00341386077189465,0.9875773293708847
-3.981,0.00341386077189465,0.8710143069140429
-3.9805,0.01408403562957729,0.7332580076468663
-3.98,-0.4554036581084589,0.09745970333682032
-3.9795,-1.362368521011484,-1.184733543688439
-3.979,-1.415719395299897,-1.767548655972648
-3.9785,-1.351698346153801,-2.159624276963843
-3.978,-0.7114878546928423,-1.937094870455327
-3.9775,0.3661998059331045,-0.5383386009732256
-3.977,1.166462920259302,0.849821030103708
-3.9765,1.550589215135878,1.739938656137773
-3.976,1.667961138570387,2.07903108510313
-3.9755,1.603940089424291,1.347863035146577
-3.975,1.465227816274416,-0.04029659593035631
-3.9745,1.337185717982225,-1.216523458903942
-3.974,1.166462920259302,-1.672178910326141
-3.9735,0.7823366253827275,-1.34368311976595
-3.973,0.4195506802215176,-0.8032545611024114
-3.9725,0.1634664836371343,-0.3158091944647096
-3.972,0.00341386077189465,0.02328323450064829
-3.9715,-0.156638762093345,0.3305857482505039
-3.971,0.0674349099179905,0.2670059178194992
-3.9705,-0.2420001609548061,-0.5489352393783931
-3.97,-0.9462317015618604,-1.38606967338662
-3.9695,-1.597112367880501,-1.84172512480882
-3.969,-1.490410619303675,-1.38606967338662
-3.9685,-1.020922925565639,-0.5383386009732256
-3.968,-0.5514352318276028,0.2140227257936621
-3.9675,-0.2099896363817582,0.7438546460520338
-3.967,-0.02859666380115328,1.051157159801889
-3.9665,0.04609456020262521,1.178316820663898
-3.966,0.0674349099179905,1.210106735879401
-3.9655,0.04609456020262521,1.178316820663898
-3.965,0.03542438534494258,1.093543713422559
-3.9645,0.01408403562957729,0.9981739677760521
-3.964,0.00341386077189465,0.8710143069140429
-3.9635,0.01408403562957729,0.6802748156210291
-3.963,-0.2633405106701714,0.08686306493165288
-3.9625,-0.658136980404429,-0.6654982618352349
-3.962,-0.9782422261349084,-1.280103289334946
-3.9615,-0.4767440078238243,-1.184733543688439
-3.961,0.142126133921769,-0.4217755785163839
-3.9605,0.2488278824985954,0.09745970333682032
-3.96,0.8676980242441885,1.146526905448396
-3.9595,1.166462920259302,1.655165548896433
-3.959,1.294505018551494,1.464426057603419
-3.9585,1.390536592270638,0.3411823866556712
-3.958,1.305175193409177,-0.8774310299385835
-3.9575,1.145122570543937,-1.555615887869299
-3.957,0.7823366253827275,-1.42845622700729
-3.9565,0.4195506802215176,-0.9728007755850904
-3.956,0.1634664836371343,-0.5065486857577234
-3.9555,0.02475421048725994,-0.1356663415768632
-3.955,-0.3166913849585846,-0.05089323433552374
-3.9545,-1.212986073003927,-0.7396747306714069
-3.954,-1.938557963326346,-1.523825972653797
-3.9535,-2.098610586191586,-1.820531847998485
-3.953,-1.67180359188428,-1.280103289334946
-3.9525,-1.020922925565639,-0.3793890248957141
-3.952,-0.4874141826815069,0.4153588554918433
-3.9515,-0.1459685872356623,0.9451907757502149
-3.951,0.02475421048725994,1.241896651094903
-3.9505,0.07810508477567314,1.369056311956912
-3.95,0.07810508477567314,1.37965295036208
-3.9495,0.05676473506030786,1.316073119931075
-3.949,0.03542438534494258,1.220703374284568
-3.9485,0.01408403562957729,1.093543713422559
-3.948,0.01408403562957729,0.9451907757502149
-3.9475,0.01408403562957729,0.775644561267536
-3.947,0.04609456020262521,0.5425185163538525
-3.9465,-0.04993701351651855,-0.08268314955102604
-3.946,-0.5834457564006506,-0.8880276683437509
-3.9455,-0.9995825758502737,-1.502632695843462
-3.945,-0.6794773301197943,-1.79933857118815
-3.9445,0.4195506802215176,-0.9939940523954253
-3.944,1.401206767128321,0.2776025562246667
-3.9435,1.881364635724039,1.305476481525908
-3.943,1.956055859727818,1.888291593810116
-3.9425,1.145122570543937,1.178316820663898
-3.942,0.8356874996711408,-0.008506680714854012
-3.9415,0.7823366253827275,-1.195330182093607
-3.941,0.7716664505250448,-2.011271339291499
-3.9405,0.6542945270905358,-1.84172512480882
-3.94,0.4835717293676135,-1.195330182093607
-3.9395,0.2381577076409128,-0.6337083466197325
-3.939,0.05676473506030786,-0.2204394488182027
-3.9385,-0.1352984123779797,0.04447651131098315
-3.938,-0.8715404775580819,-0.3793890248957141
-3.9375,-1.693143941599645,-1.280103289334946
-3.937,-1.981238662757077,-1.809935209593318
-3.9365,-2.119950935906951,-2.043061254507001
-3.936,-1.746494815888059,-1.51322933424863
-3.9355,-1.1062843244271,-0.5807251545938954
-3.935,-0.5514352318276028,0.2458126410091644
-3.9345,-0.1886492866663929,0.7968378380778709
-3.934,0.00341386077189465,1.104140351827727
-3.9335,0.07810508477567314,1.231300012689736
-3.933,0.07810508477567314,1.241896651094903
-3.9325,0.05676473506030786,1.178316820663898
-3.932,0.03542438534494258,1.082947075017392
-3.9315,0.01408403562957729,0.9451907757502149
-3.931,0.01408403562957729,0.8180311148882058
-3.9305,0.01408403562957729,0.6590815388106942
-3.93,-0.01792648894347063,0.4259554938970107
-3.9295,-0.2526703358124887,-0.2840192792492073
-3.929,-0.572775581542968,-1.089363798041932
-3.9285,-0.9995825758502737,-1.778145294377815
-3.928,-0.5300948821122373,-1.672178910326141
-3.9275,0.5902734779444399,-0.474758770542221
-3.927,1.443887466559051,0.7862411996727035
-3.9265,1.806673411720261,1.6657621873016
-3.926,1.838683936293309,2.015451254672126
-3.9255,1.689301488285752,1.464426057603419
-3.925,0.974399772821015,-0.252229364033705
-3.9245,0.4302208550792003,-1.42845622700729
-3.924,0.3128489316446912,-1.269506650929778
-3.9235,0.08877525963335578,-0.9304142219644207
-3.923,0.00341386077189465,-0.5065486857577234
-3.9225,0.02475421048725994,-0.1250697031716958
-3.922,-0.03926683865883591,0.05507314971615059
-3.9215,-0.5941159312583333,-0.1886495336027004
-3.921,-1.522421143876723,-1.046977244421262
-3.9205,-2.03458953704549,-1.820531847998485
-3.92,-2.429386006779747,-2.339767129851689
-3.9195,-2.80284212679864,-2.551699897955038
-3.919,-2.376035132491334,-1.915901593644992
-3.9185,-1.533091318734406,-0.8138511995075789
-3.918,-0.7755089038389382,0.1504428953626575
-3.9175,-0.274010685527854,0.7862411996727035
-3.917,-0.007256314085787988,1.114736990232894
-3.9165,0.09944543449103843,1.220703374284568
-3.916,0.1101156093487211,1.210106735879401
-3.9155,0.08877525963335578,1.114736990232894
-3.915,0.05676473506030786,0.9663840525605498
-3.9145,0.03542438534494258,0.8074344764830383
-3.914,0.02475421048725994,0.6484849004055269
-3.9135,0.01408403562957729,0.383568940276341
-3.913,-0.4340633083930936,-0.3581957480853793
-3.9125,-0.9248913518464952,-1.131750351662602
-3.912,-1.010252750707956,-1.608599079895136
-3.9115,-0.2633405106701714,-1.258910012524611
-3.911,0.7609962756673623,-0.09327978795619347
-3.9105,1.465227816274416,1.061753798207057
-3.91,1.796003236862578,1.835308401784279
-3.9095,1.828013761435626,2.16380419234447
-3.909,1.710641838001117,1.782325209758442
-3.9085,1.401206767128321,0.457745409112513
-3.908,0.5369226036560266,-1.364876396576285
-3.9075,0.3661998059331045,-1.693372187136476
-3.907,0.1741366584948169,-1.322489842955616
-3.9065,0.00341386077189465,-0.8138511995075789
-3.906,0.01408403562957729,-0.2840192792492073
-3.9055,0.02475421048725994,0.06566978812131802
-3.905,-0.08194753808956648,0.309392471440169
-3.9045,-0.1139580626626144,0.5425185163538525
-3.904,-0.3380317346739499,-0.008506680714854012
-3.9035,-0.839529952985034,-0.8986243067489184
-3.903,-1.330357996438436,-1.481439419033127
-3.9025,-1.180975548430879,-1.121153713257435
-3.902,-0.7755089038389382,-0.4111789401112165
-3.9015,-0.391382608962363,0.2458126410091644
-3.901,-0.1459685872356623,0.7120647308365314
-3.9005,-0.007256314085787988,0.9981739677760521
-3.9,0.04609456020262521,1.135930267043229
-3.8995,0.05676473506030786,1.199510097474233
-3.899,0.04609456020262521,1.199510097474233
-3.8985,0.03542438534494258,1.167720182258731
-3.898,0.02475421048725994,1.093543713422559
-3.8975,0.02475421048725994,0.9875773293708847
-3.897,0.04609456020262521,0.8392243916985406
-3.8965,-0.09261771294724913,0.2140227257936621
-3.896,-0.6047861061160158,-0.6760949002404023
-3.8955,-0.9355615267041777,-1.301296566145281
-3.895,-0.9462317015618604,-1.555615887869299
-3.8945,-0.124628237520297,-0.7290780922662394
-3.894,0.7823366253827275,0.4895353243280153
-3.8935,1.390536592270638,1.453829419198252
-3.893,1.657290963712704,1.983661339456623
-3.8925,1.689301488285752,1.962468062646288
-3.892,1.582599739708926,0.9875773293708847
-3.8915,1.369196242555273,-0.2946159176543747
-3.891,0.6009436528021226,-1.88411167842949
-3.8905,0.3341892813600565,-1.968884785670829
-3.89,0.09944543449103843,-1.439052865412457
-3.8895,-0.07127736323188383,-0.8562377531282487
-3.889,-0.04993701351651855,-0.2840192792492073
-3.8885,-0.06060718837420119,0.1504428953626575
-3.888,-0.3487019095316325,0.6590815388106942
-3.8875,-0.9675720512772257,0.2140227257936621
-3.887,-1.639793067311232,-0.8138511995075789
-3.8865,-2.162631635337682,-1.672178910326141
-3.886,-2.461396531352796,-2.106641084938006
