Class_4_Move_right_hand_Horiszontal/Class_4_Move_Right_hand_Horizontal_Turki_13.csv

#Digilent WaveForms Oscilloscope Acquisition
#Device Name: EExplorer
#Serial Number: SN:210151A2B84A
#Date Time: 2021-02-03 11:23:33.466
#Sample rate: 2000Hz
#Samples: 16384
#Trigger: Source: Channel 1 Type: Edge Condition: Rising Level: 0 V Hyst.: Auto HoldOff: 0 s
#Channel 1: Range: 1 V/div Offset: 0 V Attenuation: 1 X
#Channel 2: Range: 1 V/div Offset: 0 V Attenuation: 1 X
#Power Supplies: ON
#Fixed Supply: ON
#Voltage: 3.3 V Readback: 3.317 V
#Positive Supply: ON
#Voltage: 3.7 V Readback: 3.717 V
#Current: 40 mA Readback: 17 mA
#Negative Supply: ON
#Voltage: -3.7 V Readback: -3.334 V
#Current: -40 mA Readback: -20 mA
#Reference 1: ON
#Voltage: 0 V
#Reference 2: ON
#Voltage: 0 V

Time (s),Channel 1 (V),Channel 2 (V)
-4.096,-0.7434983792658902,-0.5913217929990628
-4.0955,-0.9355615267040029,-1.333086481360108
-4.095,-1.095614149569097,-1.428456227006876
-4.0945,-0.7434983792658902,-0.9728007755850904
-4.094,-0.274010685528281,-0.5913217929994098
-4.0935,0.1314559590643096,-0.453565493731944
-4.093,0.3768699807907871,-0.5171453241628908
-4.0925,0.4942419042251894,-0.6549016234299421
-4.092,0.5049120790829885,-0.8244478379129005
-4.0915,0.5155822539406614,-0.9939940523954253
-4.091,0.4942419042252961,-0.9410108603695881
-4.0905,0.4515612047945365,-0.6972881770505348
-4.09,0.4195506802215176,-0.474758770542221
-4.0895,0.3875401556484697,-0.252229364033705
-4.089,0.3768699807907968,-0.1144730647666536
-4.0885,0.2808384070716433,-0.2310360872233701
-4.088,-0.08194753808956648,-0.4853554089473885
-4.0875,-0.5194247072541569,-0.9728007755846471
-4.087,-0.9569018764200187,-1.39666631179198
-4.0865,-1.479740444445993,-1.608599079895136
-4.086,-1.511750969019011,-1.449649503817769
-4.0855,-0.9782422261344038,-0.8244478379120043
-4.085,-0.423393133535411,-0.008506680714854012
-4.0845,0.003413860771506461,0.7544512844565072
-4.084,0.2488278824986924,1.305476481526187
-4.0835,0.3555296310754218,1.612778995275763
-4.083,0.3875401556484697,1.718745379327438
-4.0825,0.3768699807907677,1.729342017732576
-4.082,0.3555296310754218,1.697552102517103
-4.0815,0.3341892813600565,1.633972272086098
-4.081,0.3235191065023836,1.52800588803452
-4.0805,0.2808384070716433,1.33726639674141
-4.08,-0.1779791118087102,0.7120647308365314
-4.0795,-0.6474668055463195,-0.2416327256276701
-4.079,-0.8928808272736996,-1.078767159637102
-4.0785,-1.170305373573196,-1.449649503817625
-4.078,-1.020922925565775,-1.078767159637102
-4.0775,-0.540765056969464,-0.6866915386455119
-4.077,-0.03926683865883591,-0.6231117082145651
-4.0765,0.3021787567866981,-0.6654982618351963
-4.076,0.4729015545099794,-0.6972881770508047
-4.0755,0.5262524287983441,-0.7714646458869092
-4.075,0.5475927785137094,-0.9198175835592532
-4.0745,0.558262953371363,-1.004590690800409
-4.074,0.5262524287983441,-0.8032545611024114
-4.0735,0.4622313796522482,-0.5595318777835605
-4.073,0.4088805053638835,-0.379389024895878
-4.0725,0.3661998059331045,-0.2416327256285375
-4.072,0.4302208550792003,-0.02969995752518888
-4.0715,0.7289857510940425,0.2776025562243872
-4.071,0.4408910299364365,-0.1462629799825703
-4.0705,-0.04993701351651855,-0.7396747306714069
-4.07,-0.6794773301192217,-1.078767159636456
-4.0695,-1.309017646723061,-1.248313374119164
-4.069,-1.298347471865388,-0.9410108603695881
-4.0685,-0.8181896032696687,-0.1462629799820306
-4.068,-0.3166913849582449,0.6696781772164206
-4.0675,0.05676473506030786,1.284283204715573
-4.067,0.2701682322139607,1.655165548896433
-4.0665,0.3555296310754412,1.814115124973983
-4.066,0.3768699807907871,1.856501678594614
-4.0655,0.3661998059331045,1.856501678594614
-4.065,0.3448594562177586,1.792921848163668
-4.0645,0.3235191065023739,1.686955464111935
-4.064,0.3021787567870086,1.517409249629256
-4.0635,-0.07127736323154416,0.9557874141558932
-4.063,-0.5727755815432495,-0.02969995752601771
-4.0625,-0.8822106524157645,-0.9410108603695881
-4.062,-0.9142211769887834,-1.417859588601689
-4.0615,-0.5514352318272049,-1.184733543688025
-4.061,-0.1139580626626144,-0.7290780922662394
-4.0605,0.2381577076409128,-0.5489352393783931
-4.06,0.4515612047946529,-0.5595318777836762
-4.0595,0.5475927785137094,-0.6866915386455698
-4.059,0.5582629533713921,-0.8456411147230812
-4.0585,0.5155822539407002,-0.9728007755849747
-4.058,0.4408910299368829,-1.046977244421262
-4.0575,0.3875401556484697,-0.8774310299385835
-4.057,0.3875401556484697,-0.6231117082147963
-4.0565,0.408880505363835,-0.4323722169215513
-4.056,0.408880505363835,-0.2840192792492073
-4.0555,0.4195506802215079,-0.1144730647666826
-4.055,0.7396559259519483,0.3517790250607327
-4.0545,0.6863050516635838,0.2352160026039969
-4.054,0.1101156093492451,-0.4217755785157863
-4.0535,-0.6581369804050016,-1.015187329206049
-4.053,-1.287677297007705,-1.333086481360783
-4.0525,-1.223656247861609,-1.142346990067769
-4.052,-0.7434983792654536,-0.4535654937311248
-4.0515,-0.2633405106701714,0.383568940276341
-4.051,0.07810508477567314,1.082947075017392
-4.0505,0.280838407071459,1.549199164844334
-4.05,0.3661998059331045,1.79292184816361
-4.0495,0.3768699807907871,1.867098316999781
-4.049,0.3661998059331142,1.877694955404939
-4.0485,0.3448594562177197,1.824711763379006
-4.048,0.3235191065023739,1.70814874092227
-4.0475,0.312848931644701,1.51740924962943
-4.047,0.1527963087789179,1.241896651094228
-4.0465,-0.4340633083930936,0.5001319627331828
-4.046,-0.871540477557684,-0.4535654937310188
-4.0455,-1.031593100422963,-1.184733543688555
-4.045,-0.6367966306890638,-1.311893204550448
-4.0445,-0.1459685872356623,-0.9410108603695881
-4.044,0.216817357925761,-0.7078848154559239
-4.0435,0.4515612047945656,-0.7290780922662394
-4.043,0.5582629533713921,-0.8562377531282487
-4.0425,0.5689331282290649,-0.9516074987746688
-4.042,0.5475927785137094,-0.9092209451540858
-4.0415,0.5689331282290746,-0.9410108603695881
-4.041,0.6009436528020935,-0.9622041371799036
-4.0405,0.536922603655949,-0.7608680074815105
-4.04,0.4515612047945656,-0.5065486857577234
-4.0395,0.387540155648528,-0.2840192792494097
-4.039,0.3555296310755965,-0.1144730647662103
-4.0385,0.5475927785137094,0.2352160026039969
-4.038,0.6436243522327657,0.3093924714401015
-4.0375,0.1207857842058797,-0.2946159176548662
-4.037,-0.4554036581084589,-0.8350444763179138
-4.0365,-1.116954499284783,-1.163540266878104
-4.036,-1.55443166844949,-1.280103289334531
-4.0355,-1.244996597576974,-0.8244478379127463
-4.035,-0.6794773301197943,-0.008506680714854012
-4.0345,-0.1779791118091663,0.765047922861665
-4.034,0.142126133921769,1.316073119931075
-4.0335,0.3128489316446912,1.623375633680931
-4.033,0.3768699807907289,1.750535294542824
-4.0325,0.3768699807907677,1.771728571353265
-4.032,0.3555296310754218,1.761131932948107
-4.0315,0.334189281360076,1.665762187301687
-4.031,0.3235191065022962,1.549199164844595
-4.0305,0.2381577076409128,1.369056311956912
-4.03,-0.295351035242734,0.6908714540268134
-4.0295,-0.7434983792660358,-0.284019279249959
-4.029,-0.9035510021311299,-1.110557074852267
-4.0285,-0.8715404775580819,-1.439052865412457
-4.028,-0.5514352318272147,-1.036380606015748
-4.0275,-0.124628237520297,-0.6549016234300674
-4.027,0.2061471830678648,-0.5807251545938954
-4.0265,0.3875401556483047,-0.6443049850248421
-4.026,0.4729015545099309,-0.6972881770507372
-4.0255,0.5049120790829789,-0.7608680074817418
-4.025,0.5369226036559975,-0.8032545611023729
-4.0245,0.5689331282290357,-0.8456411147229077
-4.024,0.5262524287983441,-0.6549016234300674
-4.0235,0.4942419042253252,-0.4959520473527005
-4.023,0.4408910299368344,-0.2946159176541048
-4.0225,0.3875401556484697,0.002089957690313421
-4.022,0.4408910299368344,0.2140227257934693
-4.0215,0.7183155762362822,0.4047622170862518
-4.021,0.3341892813600565,-0.06148987274069118
-4.0205,-0.2633405106701714,-0.6866915386455698
-4.02,-0.8715404775586254,-1.046977244421436
-4.0195,-1.46907026958831,-1.237716735714276
-4.019,-1.437059745015262,-1.004590690800593
-4.0185,-0.9035510021316152,-0.2628260024395471
-4.018,-0.3593720843893152,0.5637117931641874
-4.0175,0.03542438534494258,1.210106735879401
-4.017,0.2594980573560743,1.612778995275397
-4.0165,0.3555296310754412,1.803518486568816
-4.016,0.3768699807907871,1.845905040189447
-4.0155,0.3661998059331142,1.835308401784289
-4.015,0.3448594562177197,1.761131932948011
-4.0145,0.3235191065023739,1.655165548896433
-4.014,0.302178756787028,1.47502269600875
-4.0135,-0.03926683865930173,0.9769806909648499
-4.013,-0.5514352318276028,0.02328323450064829
-4.0125,-0.7861790786966207,-0.8774310299385835
-4.012,-0.8608703027002246,-1.364876396576083
-4.0115,-0.6688071552621118,-1.142346990067769
-4.011,-0.2846808603855366,-0.7608680074817418
-4.0105,0.07810508477534317,-0.5595318777837436
-4.01,0.3448594562177392,-0.4641621321370536
-4.0095,0.4729015545099309,-0.5595318777835605
-4.009,0.5049120790829498,-0.7926579226970319
-4.0085,0.5049120790830468,-0.9622041371800193
-4.008,0.5796033030867573,-1.068170521231597
-4.0075,0.5902734779444302,-0.983397413990335
-4.007,0.5155822539405934,-0.7926579226970898
-4.0065,0.4408910299368829,-0.6231117082145651
-4.006,0.3768699807907871,-0.4429688553267188
-4.0055,0.3661998059333859,-0.2416327256281039
-4.005,0.6756348768059011,0.2352160026039969
-4.0045,0.5582629533713921,0.09745970333682032
-4.004,-0.06060718837484168,-0.4959520473529511
-4.0035,-0.7648387289812555,-0.9304142219644207
-4.003,-1.447729919872945,-1.163540266878104
-4.0025,-1.554431668449674,-1.078767159636842
-4.002,-1.031593100423322,-0.4959520473525559
-4.0015,-0.4554036581084589,0.3199891098453364
-4.001,-0.02859666380154147,1.051157159801224
-4.0005,0.2381577076410195,1.559795803250176
-4,0.3555296310754218,1.835308401784279
-3.9995,0.3875401556484697,1.930678147430786
-3.999,0.3768699807907871,1.941274785835954
-3.9985,0.3448594562177392,1.898888232215284
-3.998,0.3235191065023739,1.803518486568777
-3.9975,0.3128489316446912,1.602182356870596
-3.997,0.1527963087794516,1.231300012689736
-3.9965,-0.4340633083930936,0.6484849004055269
-3.996,-0.8502001278427167,-0.2628260024388724
-3.9955,-0.9675720512772257,-1.036380606016095
-3.995,-0.658136980404429,-1.184733543688439
-3.9945,-0.2420001609548061,-0.8774310299385835
-3.994,0.08877525963335578,-0.6019184314042303
-3.9935,0.3128489316446912,-0.5171453241628908
-3.993,0.4302208550792003,-0.6125150698093976
-3.9925,0.4835717293676135,-0.7396747306714069
-3.992,0.4942419042252961,-0.8244478379127463
-3.9915,0.6329541773751706,-0.9410108603695881
-3.991,0.7823366253827275,-0.9728007755850904
-3.9905,0.7289857510943143,-0.7714646458869092
-3.99,0.6009436528021226,-0.4535654937318862
-3.9895,0.4942419042252961,-0.1674562567923655
-3.989,0.4195506802215176,0.01268659609548085
-3.9885,0.5796033030867573,0.3411823866556712
-3.988,0.6756348768059011,0.3941655786815084
-3.9875,0.1634664836371343,-0.2310360872233701
-3.987,-0.2846808603855366,-0.7396747306714069
-3.9865,-0.8181896032696687,-0.9939940523954253
-3.986,-1.30901764672307,-1.121153713257435
-3.9855,-1.138294849000148,-0.7714646458869092
-3.985,-0.658136980404429,-0.008506680714854012
-3.9845,-0.1993194615240755,0.7544512844572011
-3.984,0.1207857842064037,1.305476481525908
-3.9835,0.291508581929326,1.633972272086098
-3.983,0.3555296310754218,1.761131932948107
-3.9825,0.3661998059331045,1.782325209758442
-3.982,0.3555296310754218,1.729342017732605
-3.9815,0.3341892813600565,1.633972272086098
-3.981,0.3235191065023739,1.485619334413754
-3.9805,0.2594980573562781,1.284283204715573
-3.98,-0.2420001609548061,0.627291623595192
-3.9795,-0.839529952985034,-0.3370024712750445
-3.979,-1.095614149569417,-1.152943628472937
-3.9785,-0.807519428411986,-1.375473034981453
-3.978,-0.3166913849585846,-0.9833974139902578
-3.9775,0.09944543449103843,-0.6654982618352349
-3.977,0.3768699807907871,-0.5913217929990628
-3.9765,0.5155822539406614,-0.6866915386455698
-3.976,0.5475927785137094,-0.8032545611024114
-3.9755,0.5155822539406614,-0.9092209451540858
-3.975,0.4408910299368829,-1.025783967610927
-3.9745,0.2274875327832301,-1.068170521231597
-3.974,0.1634664836371343,-0.8880276683437509
-3.9735,0.1848068333524996,-0.6549016234300674
-3.973,0.2381577076409128,-0.4641621321370536
-3.9725,0.2808384070716433,-0.2946159176543747
-3.972,0.3555296310754218,0.01268659609548085
-3.9715,0.6329541773751706,0.4259554938970107
-3.971,0.408880505363835,0.04447651131098315
-3.9705,-0.1352984123779797,-0.570128516188728
-3.97,-0.7434983792658902,-0.9516074987747555
-3.9695,-1.383708870726849,-1.163540266878104
-3.969,-1.46907026958831,-0.9939940523954253
-3.9685,-0.9782422261349084,-0.2840192792492073
-3.968,-0.423393133535411,0.55311515475902
-3.9675,-0.007256314085787988,1.220703374284568
-3.967,0.2381577076409128,1.623375633680931
-3.9665,0.3448594562177392,1.814115124973944
-3.966,0.3768699807907871,1.867098316999781
-3.9655,0.3661998059331045,1.867098316999781
-3.965,0.3448594562177392,1.824711763379112
-3.9645,0.3235191065023739,1.70814874092227
-3.964,0.3021787567870086,1.528005888034424
-3.9635,0.05676473506030786,1.125333628638062
-3.963,-0.4554036581084589,0.2034260873884947
-3.9625,-0.7114878546928423,-0.7502713690765743
-3.962,-0.6794773301197943,-1.322489842955616
-3.9615,-0.2953510352432193,-1.227120097309109
-3.961,0.07810508477567314,-0.9410108603695881
-3.9605,0.3341892813600565,-0.7396747306714069
-3.96,0.4835717293676135,-0.7078848154559045
-3.9595,0.5475927785137094,-0.8774310299385835
-3.959,0.5369226036560266,-1.05757388282643
-3.9585,0.4942419042252961,-1.078767159636765
-3.958,0.4195506802215176,-1.078767159636765
-3.9575,0.3661998059331045,-0.9622041371799229
-3.957,0.3448594562177392,-0.7714646458869092
-3.9565,0.3341892813600565,-0.5807251545938954
-3.956,0.3341892813600565,-0.4111789401112165
-3.9555,0.3661998059331045,-0.2204394488182027
-3.955,0.6542945270905358,0.1822328105781598
-3.9545,0.4942419042252961,-0.01910331912002144
-3.954,-0.1352984123779797,-0.6125150698093976
-3.9535,-0.7648387289812555,-1.01518732920576
-3.953,-1.405049220442214,-1.227120097309109
-3.9525,-1.597112367880501,-1.142346990067769
-3.952,-1.1062843244271,-0.5065486857577234
-3.9515,-0.5300948821122373,0.3517790250608387
-3.951,-0.07127736323188383,1.093543713422559
-3.9505,0.2061471830678648,1.591585718465428
-3.95,0.3448594562177392,1.856501678594614
-3.9495,0.3768699807907871,1.951871424241121
-3.949,0.3768699807907871,1.962468062646288
-3.9485,0.3555296310754218,1.888291593810116
-3.948,0.3341892813600565,1.729342017732605
-3.9475,0.3128489316446912,1.538602526439591
-3.947,0.1634664836371343,1.210106735879401
-3.9465,-0.4447334832507763,0.3729723018711736
-3.946,-0.9248913518464952,-0.6019184314042303
-3.9455,-1.020922925565639,-1.311893204550448
-3.945,-0.6261264558313813,-1.322489842955616
-3.9445,-0.124628237520297,-1.004590690800593
-3.944,0.2488278824985954,-0.7078848154559045
-3.9435,0.4622313796522482,-0.5913217929990628
-3.943,0.5369226036560266,-0.4959520473525559
-3.9425,0.5475927785137094,-0.5595318777835605
-3.942,0.5262524287983441,-0.718481453861072
-3.9415,0.6222840025174878,-0.8774310299385835
-3.941,0.7609962756673623,-0.9728007755850904
-3.9405,0.6969752265212663,-0.8456411147230812
-3.94,0.5689331282290746,-0.6337083466197325
-3.9395,0.4515612047945656,-0.4111789401112165
-3.939,0.3875401556484697,-0.1992461720078678
-3.9385,0.5582629533713921,0.1928294489833272
-3.938,0.6969752265212663,0.309392471440169
-3.9375,0.2274875327832301,-0.2734226408440398
-3.937,-0.3166913849585846,-0.8138511995075789
-3.9365,-0.9889124009925911,-1.152943628472937
-3.936,-1.46907026958831,-1.269506650929778
-3.9355,-1.223656247861609,-0.8350444763179138
-3.935,-0.690147504977477,-0.01910331912002144
-3.9345,-0.1993194615240755,0.7438546460520338
-3.934,0.1207857842064037,1.29487984312074
-3.9335,0.291508581929326,1.612778995275763
-3.933,0.3661998059331045,1.739938656137773
-3.9325,0.3661998059331045,1.782325209758442
-3.932,0.3555296310754218,1.761131932948107
-3.9315,0.3341892813600565,1.655165548896433
-3.931,0.3128489316446912,1.517409249629256
-3.9305,0.2594980573562781,1.33726639674141
-3.93,-0.2099896363817582,0.7862411996727035
-3.9295,-0.6794773301197943,-0.1780528951975329
-3.929,-0.9142211769888124,-1.05757388282643
-3.9285,-1.148965023857831,-1.534422611058964
-3.928,-0.9995825758502737,-1.216523458903942
-3.9275,-0.5087545323968721,-0.7502713690765743
-3.927,-0.02859666380115328,-0.4429688553267188
-3.9265,0.291508581929326,-0.3687923864905467
-3.926,0.4622313796522482,-0.5065486857577234
-3.9255,0.5262524287983441,-0.6972881770507372
-3.925,0.5262524287983441,-0.8244478379127463
-3.9245,0.5049120790829789,-0.9198175835592532
-3.924,0.4515612047945656,-0.7396747306714069
-3.9235,0.408880505363835,-0.4853554089473885
-3.923,0.3768699807907871,-0.2946159176543747
-3.9225,0.3661998059331045,-0.1144730647665284
-3.922,0.408880505363835,0.09745970333682032
-3.9215,0.6542945270905358,0.3623756634660061
-3.921,0.3982103305061524,-0.09327978795619347
-3.9205,0.01408403562957729,-0.7078848154559045
-3.92,-0.4980843575391895,-0.9833974139902578
-3.9195,-1.138294849000148,-1.174136905283272
-3.919,-1.212986073003927,-0.9833974139902578
-3.9185,-0.7968492535543035,-0.2628260024388724
-3.918,-0.3273615598162672,0.5319218779486851
-3.9175,0.02475421048725994,1.146526905448396
-3.917,0.2381577076409128,1.538602526439591
-3.9165,0.3341892813600565,1.718745379327438
-3.916,0.3661998059331045,1.771728571353275
-3.9155,0.3555296310754218,1.761131932948107
-3.915,0.3341892813600565,1.739938656137773
-3.9145,0.3128489316446912,1.6657621873016
-3.914,0.3021787567870086,1.453829419198252
-3.9135,0.0674349099179905,0.9028042221295453
-3.913,-0.391382608962363,-0.01910331912002144
-3.9125,-0.6688071552621118,-0.8774310299385835
-3.912,-0.722158029550525,-1.280103289334946
-3.9115,-0.4767440078238243,-1.004590690800593
-3.911,-0.124628237520297,-0.6654982618352349
-3.9105,0.1741366584948169,-0.4429688553267188
-3.91,0.3661998059331045,-0.3687923864905467
-3.9095,0.4729015545099309,-0.4959520473525559
-3.909,0.4942419042252961,-0.6972881770507372
-3.9085,0.4942419042252961,-0.8350444763179138
-3.908,0.6542945270905358,-0.9728007755850904
-3.9075,0.6969752265212663,-0.9198175835592532
-3.907,0.6009436528021226,-0.7714646458869092
-3.9065,0.4942419042252961,-0.6231117082145651
-3.906,0.408880505363835,-0.4429688553267188
-3.9055,0.3768699807907871,-0.2310360872233701
-3.905,0.6649647019482183,0.2352160026039969
-3.9045,0.6222840025174878,0.1186529801471552
-3.904,0.1207857842064037,-0.4853554089473885
-3.9035,-0.5407650569699201,-0.9198175835592532
-3.903,-1.26633694729234,-1.184733543688439
-3.9025,-1.458400094730627,-1.110557074852267
-3.902,-1.020922925565639,-0.4641621321370536
-3.9015,-0.4767440078238243,0.3729723018711736
-3.901,-0.04993701351651855,1.093543713422559
-3.9005,0.2061471830678648,1.580989080060261
-3.9,0.3341892813600565,1.835308401784279
-3.8995,0.3661998059331045,1.920081509025619
-3.899,0.3661998059331045,1.930678147430786
-3.8985,0.3341892813600565,1.824711763379112
-3.898,0.3235191065023739,1.70814874092227
-3.8975,0.3021787567870086,1.549199164844759
-3.897,0.1954770082101822,1.33726639674141
-3.8965,-0.3273615598162672,0.6484849004055269
-3.896,-0.7861790786966207,-0.3370024712750445
-3.8955,-0.9889124009925911,-1.110557074852267
-3.895,-0.7861790786966207,-1.269506650929778
-3.8945,-0.3593720843893152,-1.01518732920576
-3.894,0.03542438534494258,-0.8032545611024114
-3.8935,0.3235191065023739,-0.718481453861072
-3.893,0.4835717293676135,-0.7290780922662394
-3.8925,0.5262524287983441,-0.8138511995075789
-3.892,0.5262524287983441,-0.8880276683437509
-3.8915,0.6222840025174878,-0.9622041371799229
-3.891,0.7823366253827275,-0.9833974139902578
-3.8905,0.7183155762366316,-0.7608680074817418
-3.89,0.5902734779444399,-0.5065486857577234
-3.8895,0.4622313796522482,-0.3158091944647096
-3.889,0.3875401556484697,-0.1568596183871981
-3.8885,0.291508581929326,-0.3158091944647096
-3.888,-0.2099896363817582,-0.8350444763179138
-3.8875,-0.6261264558313813,-1.322489842955616
-3.887,-0.7648387289812555,-1.364876396576285
-3.8865,-1.06360362499637,-1.152943628472937
