Class_4_Move_right_hand_Horiszontal/Class_4_Move_Right_hand_Horizontal_Turki_5.csv

#Digilent WaveForms Oscilloscope Acquisition
#Device Name: EExplorer
#Serial Number: SN:210151A2B84A
#Date Time: 2020-11-18 11:32:04.747
#Sample rate: 2000Hz
#Samples: 16384
#Trigger: Source: Channel 1 Type: Edge Condition: Rising Level: 0 V Hyst.: Auto HoldOff: 0 s
#Channel 1: Range: 1 V/div Offset: 0 V Attenuation: 1 X
#Channel 2: Range: 1 V/div Offset: 0 V Attenuation: 1 X
#Power Supplies: ON
#Fixed Supply: ON
#Voltage: 3.3 V Readback: 3.336 V
#Positive Supply: ON
#Voltage: 3.7 V Readback: 3.719 V
#Current: 500 mA Readback: 20 mA
#Negative Supply: ON
#Voltage: -3.7 V Readback: -3.707 V
#Current: -500 mA Readback: -6 mA
#Reference 1: ON
#Voltage: 0 V
#Reference 2: ON
#Voltage: 0 V

Time (s),Channel 1 (V),Channel 2 (V)
-4.096,0.4515612047945656,0.3623756634660061
-4.0955,0.5049120790829303,0.2881991946299016
-4.095,0.5902734779443913,0.1716361721729827
-4.0945,0.5369226036560266,0.1610395337678249
-4.094,0.4515612047946432,0.2034260873884561
-4.0935,0.376869980790758,0.267005917819586
-4.093,0.3448594562177392,0.3623756634660061
-4.0925,0.1527963087796263,0.4365521323021107
-4.092,-0.5087545323973087,-0.0932797879569163
-4.0915,-0.9889124009925911,-0.8880276683437509
-4.091,-1.084943974711735,-1.42845622700729
-4.0905,-0.7861790786962519,-1.131750351661966
-4.09,-0.3807124341046804,-0.4323722169215513
-4.0895,-0.03926683865883591,0.2246193641988295
-4.089,0.1634664836369499,0.6802748156206146
-4.0885,0.2701682322139607,0.9451907757502149
-4.088,0.3021787567870086,1.061753798207057
-4.0875,0.3021787567870086,1.09354371342253
-4.087,0.2915085819292969,1.072350436612186
-4.0865,0.2594980573562781,1.029963882991555
-4.086,0.2488278824986051,0.9769806909657655
-4.0855,0.2274875327832204,0.9239974989398222
-4.085,0.2168173579255475,0.8604176685088755
-4.0845,0.03542438534510756,0.6590815388108773
-4.084,-0.6901475049780205,-0.1144730647673379
-4.0835,-1.287677297007705,-1.004590690800593
-4.083,-1.639793067311232,-1.598002441489969
-4.0825,-1.554431668449189,-1.481439419032539
-4.082,-0.9142211769888124,-0.8350444763179138
-4.0815,-0.2633405106701714,-0.2098428104130352
-4.081,0.184806833352092,0.1504428953623298
-4.0805,0.4302208550792003,0.2987958330350016
-4.08,0.5155822539406614,0.3199891098453364
-4.0795,0.5049120790829885,0.3199891098453364
-4.079,0.483571729367662,0.2352160026039006
-4.0785,0.5369226036560266,0.1292496185523226
-4.078,0.4942419042253349,0.1292496185523226
-4.0775,0.4195506802214497,0.1822328105782176
-4.077,0.3448594562177392,0.2458126410091644
-4.0765,0.3128489316447204,0.3093924714401111
-4.076,0.4942419042257037,0.5001319627336743
-4.0755,0.942389248247967,1.040560521396722
-4.075,0.5796033030867573,0.7968378380778709
-4.0745,-0.04993701351713964,-0.1356663415775764
-4.074,-0.7328282044082075,-0.9198175835592532
-4.0735,-0.7861790786966207,-0.8774310299385835
-4.073,-0.4980843575394515,-0.3581957480858515
-4.0725,-0.1779791118087102,0.1928294489833272
-4.072,0.0674349099179905,0.6166949851900245
-4.0715,0.2168173579254116,0.8816109453189694
-4.071,0.280838407071653,1.029963882991612
-4.0705,0.291508581929326,1.093543713422559
-4.07,0.291508581929326,1.104140351827717
-4.0695,0.2594980573562586,1.082947075017372
-4.069,0.2381577076409128,1.061753798207057
-4.0685,0.2274875327832301,1.019367244586387
-4.068,0.2168173579253243,0.9663840525602317
-4.0675,-0.02859666380115328,0.6166949851900245
-4.067,-0.3807124341046804,-0.1992461720078678
-4.0665,-0.5087545323972505,-1.036380606016683
-4.066,-0.9248913518464952,-1.682775548731308
-4.0655,-1.212986073003927,-1.640388995110639
-4.065,-0.8502001278430467,-0.9939940523960131
-4.0645,-0.2953510352432193,-0.3581957480853793
-4.064,0.142126133921769,0.04447651131098315
-4.0635,0.3661998059329007,0.2458126410089813
-4.063,0.4515612047945753,0.2987958330349726
-4.0625,0.4622313796522482,0.2670059178194992
-4.062,0.5262524287982859,0.1610395337679213
-4.0615,0.5155822539405934,0.09745970333682032
-4.061,0.4408910299368829,0.09745970333682032
-4.0605,0.3768699807907871,0.1292496185523226
-4.06,0.3341892813601245,0.1716361721731658
-4.0595,0.408880505363835,0.3623756634660061
-4.059,0.825017324813458,0.9875773293708847
-4.0585,0.50491207908327,0.9239974989399379
-4.058,-0.5087545323968721,0.01268659609548085
-4.0575,-1.26633694729234,-0.8138511995075789
-4.057,-1.180975548430956,-0.7820612842921054
-4.0565,-0.7328282044082075,-0.2734226408440398
-4.056,-0.274010685527854,0.2670059178194992
-4.0555,0.04609456020233405,0.6802748156206533
-4.055,0.227487532783298,0.9451907757503402
-4.0545,0.3021787567870086,1.082947075017392
-4.054,0.3128489316446815,1.146526905448338
-4.0535,0.3021787567869795,1.157123543853544
-4.053,0.2701682322139607,1.135930267043229
-4.0525,0.2488278824985954,1.093543713422559
-4.052,0.227487532783201,1.040560521396654
-4.0515,0.1954770082101822,0.9663840525605498
-4.051,0.0674349099179905,0.6802748156210291
-4.0505,-0.18864928666616,0.09745970333735032
-4.05,-0.8288597781273515,-0.7290780922662394
-4.0495,-1.479740444445993,-1.47084278062796
-4.049,-1.693143941599451,-1.650985633515642
-4.0485,-1.063603624995719,-1.078767159636225
-4.048,-0.3487019095316325,-0.4853554089473885
-4.0475,0.1527963087789955,-0.04029659593076107
-4.047,0.4195506802215953,0.1610395337678924
-4.0465,0.5049120790829789,0.2352160026039969
-4.046,0.4835717293676329,0.2246193641988391
-4.0455,0.5475927785137482,0.2352160026039969
-4.045,0.5902734779444399,0.2352160026039969
-4.0445,0.5262524287983441,0.2034260873884947
-4.044,0.4302208550791324,0.1822328105781501
-4.0435,0.3555296310754218,0.1716361721729923
-4.043,0.3341892813600565,0.2352160026039969
-4.0425,0.739655925951628,0.70146809243094
-4.042,1.059761171682476,1.188913459069066
-4.0415,0.4942419042252961,0.627291623595192
-4.041,-0.4020527838192306,-0.3475991096793252
-4.0405,-1.159635198715474,-1.089363798041797
-4.04,-1.116954499284783,-0.9410108603695881
-4.0395,-0.7008176798355382,-0.3475991096807515
-4.039,-0.2740106855275629,0.2564092794147462
-4.0385,0.04609456020262521,0.7120647308365314
-4.038,0.2168173579253922,0.9875773293706341
-4.0375,0.2915085819293454,1.135930267043286
-4.037,0.3128489316446912,1.199510097474233
-4.0365,0.291508581929326,1.199510097474233
-4.036,0.2701682322139316,1.17831682066386
-4.0355,0.2381577076409128,1.135930267043229
-4.035,0.2274875327832301,1.082947075017392
-4.0345,0.1634664836371925,0.9345941373451824
-4.034,-0.3273615598162672,0.2670059178194992
-4.0335,-0.8822106524157645,-0.6443049850249
-4.033,-1.19164572328828,-1.375473034980788
-4.0325,-1.095614149568942,-1.53442261105854
-4.032,-0.572775581542968,-1.068170521231597
-4.0315,-0.08194753809001287,-0.411178940111814
-4.031,0.2488278824987507,0.1080563417421998
-4.0305,0.4195506802215176,0.3411823866556712
-4.03,0.4942419042252282,0.3729723018711447
-4.0295,0.4729015545099018,0.2670059178193643
-4.029,0.4408910299368829,0.1186529801471552
-4.0285,0.4408910299368829,-0.008506680714854012
-4.028,0.4088805053637865,-0.02969995752514069
-4.0275,0.3555296310754218,0.02328323450064829
-4.027,0.3128489316446912,0.08686306493165288
-4.0265,0.2915085819293454,0.1716361721729152
-4.026,0.4835717293676135,0.02328323450064829
-4.0255,0.7609962756673623,-0.5807251545938954
-4.025,0.2061471830683694,-1.269506650929152
-4.0245,-0.6367966306893161,-1.788741932782771
-4.024,-0.9142211769888124,-1.555615887869299
-4.0235,-0.6794773301200078,-0.739674730672149
-4.023,-0.3166913849583128,0.06566978812184808
-4.0225,-0.01792648894347063,0.6484849004055269
-4.022,0.1741366584946422,0.9875773293705763
-4.0215,0.2594980573563169,1.146526905448435
-4.021,0.3021787567870086,1.188913459069066
-4.0205,0.291508581929326,1.157123543853563
-4.02,0.2808384070716239,1.104140351827659
-4.0195,0.2594980573562781,1.029963882991555
-4.019,0.2381577076409128,0.9557874141553824
-4.0185,0.2168173579255669,0.8710143069141201
-4.018,0.1314559590640864,0.7332580076468663
-4.0175,-0.3593720843893152,0.13984625695749
-4.017,-0.9462317015613266,-0.7290780922654492
-4.0165,-1.362368521011581,-1.449649503817519
-4.016,-1.46907026958831,-1.333086481360783
-4.0155,-1.020922925566047,-0.8138511995080512
-4.015,-0.423393133534984,-0.3264058328695879
-4.0145,0.04609456020262521,-0.008506680714854012
-4.014,0.3128489316444486,0.08686306493156615
-4.0135,0.4408910299369024,0.08686306493162398
-4.013,0.4622313796522482,0.05507314971615059
-4.0125,0.4408910299368829,0.04447651131098315
-4.012,0.5049120790829692,-0.02969995752515033
-4.0115,0.4942419042252961,0.01268659609548085
-4.011,0.4302208550792003,0.1292496185523226
-4.0105,0.3661998059331627,0.2458126410090584
-4.01,0.3128489316446912,0.3517790250608387
-4.0095,0.2274875327832301,0.3199891098453364
-4.009,-0.3060212101004167,-0.2734226408435002
-4.0085,-0.9995825758508075,-1.046977244421783
-4.008,-1.586442193022819,-1.619195718300304
-4.0075,-1.799845690176278,-1.725162102351882
-4.007,-1.319687821580171,-1.046977244420511
-4.0065,-0.6794773301197943,-0.2204394488182027
-4.006,-0.1779791118087102,0.4365521323021782
-4.0055,0.1421261339219048,0.8392243916987141
-4.005,0.291508581929326,1.029963882991555
-4.0045,0.3341892813600565,1.093543713422559
-4.004,0.3341892813600371,1.061753798206999
-4.0035,0.3128489316446912,0.9981739677760521
-4.003,0.2808384070716433,0.92399749893988
-4.0025,0.2594980573562975,0.8392243916986177
-4.002,0.2381577076409128,0.7544512844572011
-4.0015,0.2168173579255475,0.6696781772158616
-4.001,0.06743490991812637,0.3835689402766013
-4.0005,-0.4874141826817301,-0.4111789401119297
-4,-0.7328282044082075,-1.195330182093607
-3.9995,-1.042263275281004,-1.778145294377815
-3.999,-1.287677297007705,-1.820531847998485
-3.9985,-0.7968492535543035,-1.121153713257435
-3.998,-0.2099896363817582,-0.400582301706049
-3.9975,0.2168173579255475,0.1610395337678249
-3.997,0.4408910299368829,0.4789386859228479
-3.9965,0.5155822539406614,0.5319218779486851
-3.996,0.5049120790829789,0.4471487707073456
-3.9955,0.5582629533713921,0.2881991946298341
-3.995,0.5902734779444399,0.13984625695749
-3.9945,0.5155822539406614,0.1080563417419877
-3.994,0.4302208550792003,0.13984625695749
-3.9935,0.3555296310754218,0.1822328105781598
-3.993,0.3341892813600565,0.2458126410091644
-3.9925,0.7183155762366316,0.6484849004055269
-3.992,1.027750647109428,1.125333628638062
-3.9915,0.3235191065023739,0.5637117931641874
-3.991,-0.6047861061160158,-0.4323722169215513
-3.9905,-0.9355615267041777,-0.8774310299385835
-3.99,-0.7114878546928423,-0.5913217929990628
-3.9895,-0.3380317346739499,-0.07208651114585861
-3.989,-0.02859666380115328,0.383568940276341
-3.9885,0.1634664836371343,0.7120647308365314
-3.988,0.2701682322139607,0.9134008605347127
-3.9875,0.3021787567870086,1.00877060618122
-3.987,0.3021787567870086,1.051157159801889
-3.9865,0.291508581929326,1.051157159801889
-3.986,0.2594980573562781,1.040560521396722
-3.9855,0.2381577076409128,1.00877060618122
-3.985,0.2274875327832301,0.9769806909657173
-3.9845,0.1848068333524996,0.8392243916985406
-3.984,-0.2206598112394408,0.1610395337678249
-3.9835,-0.839529952985034,-0.7396747306714069
-3.983,-1.341028171296118,-1.47084278062796
-3.9825,-1.277007122150022,-1.545019249464132
-3.982,-0.7114878546928423,-1.004590690800593
-3.9815,-0.1139580626626144,-0.4217755785163839
-3.981,0.3128489316446912,-0.008506680714854012
-3.9805,0.5155822539406614,0.2352160026039969
-3.98,0.5582629533713921,0.3199891098453364
-3.9795,0.5155822539406614,0.2881991946298341
-3.979,0.5262524287983441,0.1610395337678249
-3.9785,0.6542945270905358,-0.07208651114585861
-3.978,0.6116138276598051,-0.06148987274069118
-3.9775,0.4942419042252961,0.05507314971615059
-3.977,0.3982103305061524,0.1716361721729923
-3.9765,0.3341892813600565,0.2670059178194992
-3.976,0.291508581929326,0.1822328105781598
-3.9755,0.07810508477567314,-0.400582301706049
-3.975,-0.572775581542968,-1.142346990067769
-3.9745,-1.116954499284783,-1.735758740757146
-3.974,-1.426389570157579,-1.915901593644992
-3.9735,-1.095614149569417,-1.237716735714276
-3.973,-0.572775581542968,-0.400582301706049
-3.9725,-0.1459685872356623,0.2564092794143318
-3.972,0.142126133921769,0.6696781772158616
-3.9715,0.2701682322139607,0.8816109453192104
-3.971,0.3235191065023739,0.9451907757502149
-3.9705,0.3235191065023739,0.9345941373450475
-3.97,0.3021787567870086,0.8922075837243778
-3.9695,0.2701682322139607,0.8286277532933731
-3.969,0.2488278824985954,0.775644561267536
-3.9685,0.2274875327832301,0.7226613692416989
-3.968,0.07810508477567314,0.5849050699745222
-3.9675,-0.6047861061160158,-0.08268314955102604
-3.967,-1.298347471865388,-0.9516074987747555
-3.9665,-1.639793067311232,-1.619195718300304
-3.966,-1.234326422719292,-1.502632695843462
-3.9655,-0.5621054066852853,-0.8986243067489184
-3.965,-0.01792648894347063,-0.3370024712750445
-3.9645,0.3341892813600565,0.04447651131098315
-3.964,0.5155822539406614,0.2458126410091644
-3.9635,0.5689331282290746,0.309392471440169
-3.963,0.5369226036560266,0.2564092794143318
-3.9625,0.4942419042252961,0.1822328105781598
-3.962,0.5475927785137094,0.04447651131098315
-3.9615,0.5155822539406614,0.07626642652648545
-3.961,0.4408910299368829,0.2034260873884947
-3.9605,0.3768699807907871,0.3411823866556712
-3.96,0.3448594562177392,0.4365521323021782
-3.9595,0.3448594562177392,0.457745409112513
-3.959,-0.1352984123779797,-0.08268314955102604
-3.9585,-0.839529952985034,-0.8986243067489184
-3.958,-1.30901764672307,-1.523825972653797
-3.9575,-1.287677297007705,-1.576809164679634
-3.957,-0.8502001278427167,-0.8986243067489184
-3.9565,-0.3593720843893152,-0.1356663415768632
-3.956,0.00341386077189465,0.4471487707073456
-3.9555,0.2168173579255475,0.7862411996727035
-3.955,0.3128489316446912,0.9451907757502149
-3.9545,0.3341892813600565,0.9875773293708847
-3.954,0.3235191065023739,0.9557874141553824
-3.9535,0.3021787567870086,0.8922075837243778
-3.953,0.2701682322139607,0.8286277532933731
-3.9525,0.2488278824985954,0.7544512844572011
-3.952,0.2274875327832301,0.6802748156210291
-3.9515,0.2061471830678648,0.6060983467848571
-3.951,-0.1352984123779797,0.1822328105781598
-3.9505,-0.7755089038389382,-0.6549016234300674
-3.95,-1.138294849000148,-1.396666311791788
-3.9495,-1.394379045584531,-1.926498232050159
-3.949,-1.277007122150022,-1.778145294377815
-3.9485,-0.658136980404429,-0.9939940523954253
-3.948,-0.1139580626626144,-0.2628260024388724
-3.9475,0.2594980573562781,0.1716361721729923
-3.947,0.4408910299368829,0.3623756634660061
-3.9465,0.5049120790829789,0.4153588554918433
-3.946,0.4835717293676135,0.383568940276341
-3.9455,0.4835717293676135,0.4259554938970107
-3.945,0.4622313796522482,0.4471487707073456
-3.9445,0.408880505363835,0.383568940276341
-3.944,0.3661998059331045,0.3411823866556712
-3.9435,0.3341892813600565,0.3199891098453364
-3.943,0.3555296310754218,0.3411823866556712
-3.9425,0.5369226036560266,0.2881991946298341
-3.942,0.5369226036560266,-0.252229364033705
-3.9415,0.1527963087794516,-0.9198175835592532
-3.941,-0.4554036581084589,-1.439052865412457
-3.9405,-0.6474668055467465,-1.290699927740113
-3.94,-0.4447334832507763,-0.6337083466197325
-3.9395,-0.1673089369510276,0.01268659609548085
-3.939,0.0674349099179905,0.4895353243280153
-3.9385,0.2061471830678648,0.7650479228623686
-3.938,0.2808384070716433,0.9028042221295453
-3.9375,0.3021787567870086,0.9451907757502149
-3.937,0.3021787567870086,0.9451907757502149
-3.9365,0.2808384070716433,0.9134008605347127
-3.936,0.2594980573562781,0.8816109453192104
-3.9355,0.2488278824985954,0.8392243916985406
-3.935,0.2274875327832301,0.7968378380778709
-3.9345,0.09944543449103843,0.55311515475902
-3.934,-0.4447334832507763,-0.07208651114585861
-3.9335,-0.9675720512772257,-0.8774310299385835
-3.933,-1.362368521011484,-1.555615887869299
-3.9325,-1.490410619303675,-1.672178910326141
-3.932,-0.9355615267041777,-1.078767159636765
-3.9315,-0.2526703358124887,-0.400582301706049
-3.931,0.2594980573562781,0.06566978812131802
-3.9305,0.4942419042252961,0.2881991946298341
-3.93,0.5582629533713921,0.3729723018711736
-3.9295,0.5155822539406614,0.383568940276341
-3.929,0.5262524287983441,0.3623756634660061
-3.9285,0.6116138276598051,0.309392471440169
-3.928,0.5582629533713921,0.2881991946298341
-3.9275,0.4622313796522482,0.2776025562246667
-3.927,0.3875401556484697,0.2670059178194992
-3.9265,0.3448594562177392,0.2670059178194992
-3.926,0.2061471830678648,0.2564092794143318
-3.9255,-0.1886492866663929,-0.1250697031716958
-3.925,-0.7648387289812555,-0.8244478379127463
-3.9245,-1.362368521011484,-1.47084278062796
-3.924,-1.522421143876723,-1.619195718300304
-3.9235,-1.074273799854052,-0.9939940523954253
-3.923,-0.5194247072545548,-0.252229364033705
-3.9225,-0.08194753808956648,0.3411823866556712
-3.922,0.1848068333524996,0.7120647308365314
-3.9215,0.3021787567870086,0.8922075837243778
-3.921,0.3448594562177392,0.9557874141553824
-3.9205,0.3341892813600565,0.9557874141553824
-3.92,0.3128489316446912,0.9134008605347127
-3.9195,0.2808384070716433,0.8710143069140429
-3.919,0.2594980573562781,0.8180311148882058
-3.9185,0.2381577076409128,0.7650479228623686
-3.918,0.2061471830678648,0.6696781772158616
-3.9175,-0.1779791118087102,0.13984625695749
-3.917,-0.6474668055467465,-0.7290780922662394
-3.9165,-0.8715404775580819,-1.460246142222792
-3.916,-0.9675720512772257,-1.75695201756748
-3.9155,-0.6474668055467465,-1.227120097309109
-3.915,-0.1779791118087102,-0.4853554089473885
-3.9145,0.1954770082101822,0.06566978812131802
-3.914,0.4195506802215176,0.3199891098453364
-3.9135,0.4942419042252961,0.3623756634660061
-3.913,0.4835717293676135,0.3305857482505039
-3.9125,0.4835717293676135,0.2352160026039969
-3.912,0.6436243522328531,0.01268659609548085
-3.9115,0.6436243522328531,0.02328323450064829
-3.911,0.5369226036560266,0.13984625695749
-3.9105,0.4302208550792003,0.2670059178194992
-3.91,0.3555296310754218,0.3729723018711736
-3.9095,0.4729015545099309,0.627291623595192
-3.909,0.942389248247967,1.263089927905238
-3.9085,0.825017324813458,1.517409249629256
-3.908,-0.08194753808956648,0.6484849004055269
-3.9075,-1.010252750707956,-0.4429688553267188
-3.907,-1.116954499284783,-0.7820612842920766
-3.9065,-0.754168554123573,-0.4641621321370536
-3.906,-0.3166913849585846,0.01268659609548085
-3.9055,0.00341386077189465,0.4259554938970107
-3.905,0.2061471830678648,0.701468092431364
-3.9045,0.3021787567870086,0.8604176685088755
-3.904,0.3235191065023739,0.92399749893988
-3.9035,0.3128489316446912,0.9451907757502149
-3.903,0.291508581929326,0.9345941373450475
-3.9025,0.2594980573562781,0.9134008605347127
-3.902,0.2381577076409128,0.8816109453192104
-3.9015,0.2061471830678648,0.8180311148882058
-3.901,-0.2953510352432193,0.309392471440169
-3.9005,-0.9142211769888124,-0.570128516188728
-3.9,-1.330357996438436,-1.354279758171118
-3.8995,-1.597112367880501,-1.937094870455327
-3.899,-1.351698346153801,-1.788741932782983
-3.8985,-0.658136980404429,-1.01518732920576
-3.898,-0.01792648894347063,-0.326405832869877
-3.8975,0.3661998059331045,0.1504428953626575
-3.897,0.5262524287983441,0.4047622170866759
-3.8965,0.5369226036560266,0.4365521323021782
-3.896,0.4942419042252961,0.3305857482505039
-3.8955,0.4942419042252961,0.1610395337678249
-3.895,0.4622313796522482,0.06566978812131802
-3.8945,0.408880505363835,0.06566978812131802
-3.894,0.3661998059331045,0.1080563417419877
-3.8935,0.3235191065023739,0.1716361721729923
-3.893,0.3448594562177392,0.2564092794143318
-3.8925,0.05676473506030786,0.02328323450064829
-3.892,-0.6154562809736985,-0.6760949002404023
-3.8915,-1.031593100423322,-1.364876396576285
-3.891,-1.052933450138687,-1.619195718300304
-3.8905,-0.7008176798351597,-1.05757388282643
-3.89,-0.2953510352432193,-0.2734226408440398
-3.8895,0.02475421048725994,0.383568940276341
-3.889,0.2168173579255475,0.7968378380778709
-3.8885,0.3021787567870086,1.019367244586387
-3.888,0.3235191065023739,1.093543713422559
-3.8875,0.3235191065023739,1.093543713422559
-3.887,0.3021787567870086,1.040560521396722
-3.8865,0.2808384070716433,0.9769806909657173
-3.886,0.2594980573562781,0.9028042221295453
