Class_4_Move_right_hand_Horiszontal/Class_4_Move_right_hand_Horiszontal_SH_4.csv

#Digilent WaveForms Oscilloscope Acquisition
#Device Name: EExplorer
#Serial Number: SN:210151A2B84A
#Date Time: 2020-12-07 14:12:14.099
#Sample rate: 2000Hz
#Samples: 16384
#Trigger: Source: Channel 1 Type: Edge Condition: Rising Level: 0 V Hyst.: Auto HoldOff: 0 s
#Channel 1: Range: 1 V/div Offset: 0 V Attenuation: 1 X
#Channel 2: Range: 1 V/div Offset: 0 V Attenuation: 1 X
#Power Supplies: ON
#Fixed Supply: ON
#Voltage: 3.3 V Readback: 3.325 V
#Positive Supply: ON
#Voltage: 3.7 V Readback: 3.715 V
#Current: 50 mA Readback: 19 mA
#Negative Supply: ON
#Voltage: -3.7 V Readback: -3.702 V
#Current: -50 mA Readback: -8 mA
#Reference 1: ON
#Voltage: 0 V
#Reference 2: ON
#Voltage: 0 V

Time (s),Channel 1 (V),Channel 2 (V)
-4.096,-0.09261771294724913,-0.09327978795619347
-4.0955,0.2808384070713036,0.03387987290570006
-4.095,0.5049120790830274,0.02328323450063865
-4.0945,0.5582629533713921,0.01268659609548085
-4.094,0.5582629533713921,-0.01910331911999253
-4.0935,0.7823366253828343,-0.241632725628605
-4.093,0.8997085488172365,-0.3158091944647096
-4.0925,0.8143471499558529,-0.1568596183873426
-4.092,0.6649647019481019,0.05507314971632406
-4.0915,0.5369226036560266,0.2458126410091644
-4.091,0.4622313796522482,0.2987958330350016
-4.0905,0.1741366584944578,-0.2416327256292507
-4.09,-0.2206598112394408,-1.025783967610927
-4.0895,-1.020922925565639,-1.650985633515806
-4.089,-1.629122892452996,-1.937094870455066
-4.0885,-1.415719395299897,-1.439052865412457
-4.088,-0.8181896032696687,-0.6443049850249
-4.0875,-0.252670335813003,0.03387987290519889
-4.087,0.1421261339219631,0.4471487707075094
-4.0865,0.3555296310754218,0.627291623595192
-4.086,0.4408910299368053,0.6484849004055075
-4.0855,0.4515612047945559,0.5849050699744258
-4.085,0.4408910299368829,0.4789386859228479
-4.0845,0.4088805053638641,0.37297230187127
-4.084,0.38754015564846,0.2881991946297474
-4.0835,0.3768699807907871,0.1928294489833272
-4.083,0.3128489316446912,0.1822328105781598
-4.0825,0.01408403562895621,0.4259554938974348
-4.082,-0.6688071552621118,0.8922075837243778
-4.0815,-1.415719395299897,0.6060983467848571
-4.081,-1.853196564464487,-0.3264058328690289
-4.0805,-1.821186039891837,-0.6019184314042303
-4.08,-1.202315898146244,-0.2734226408440398
-4.0795,-0.4447334832514653,-0.008506680715094916
-4.079,0.1314559590644066,0.1186529801471552
-4.0785,0.4835717293676135,0.1186529801471552
-4.078,0.6116138276596886,0.0868630649316818
-4.0775,0.6329541773752191,0.01268659609543267
-4.077,0.6863050516635838,-0.04029659593035631
-4.0765,0.803676975097986,-0.1038764263613031
-4.076,0.7503261008095922,-0.008506680714719085
-4.0755,0.6542945270905358,0.13984625695749
-4.075,0.5582629533713921,0.2881991946298341
-4.0745,0.4942419042253446,0.4153588554917662
-4.074,0.5475927785137094,0.3305857482505039
-4.0735,0.8676980242441885,0.3729723018711736
-4.073,0.3341892813605418,-0.167456256791874
-4.0725,-0.5941159312583333,-1.01518732920576
-4.072,-1.202315898146244,-1.523825972653797
-4.0715,-1.04226327528115,-1.216523458904221
-4.071,-0.5621054066848777,-0.5913217929985617
-4.0705,-0.1139580626626144,-0.04029659593035631
-4.07,0.1954770082099007,0.3199891098450087
-4.0695,0.3555296310754897,0.500131962733231
-4.069,0.4302208550792003,0.55311515475902
-4.0685,0.4408910299368829,0.5425185163538525
-4.068,0.4195506802214982,0.4895353243279671
-4.0675,0.3982103305061524,0.4365521323021782
-4.067,0.3768699807907871,0.4153588554918433
-4.0665,0.3448594562176518,0.4365521323022745
-4.066,0.2488278824985954,0.5425185163538525
-4.0655,-0.3166913849585846,0.7650479228623686
-4.065,-1.116954499284055,0.955787414155209
-4.0645,-1.629122892453549,0.2034260873884947
-4.064,-1.949228138184029,-0.6125150698093976
-4.0635,-1.703814116457551,-0.5065486857578197
-4.063,-0.9462317015611909,-0.2310360872231966
-4.0625,-0.2099896363817582,-0.04029659593035631
-4.062,0.2808384070711969,0.04447651131090605
-4.0615,0.5262524287984121,0.04447651131098315
-4.061,0.6009436528021226,0.04447651131098315
-4.0605,0.6222840025174878,-0.008506680714854012
-4.06,0.8143471499557947,-0.1886495336027293
-4.0595,0.8356874996711408,-0.2204394488182027
-4.059,0.7396559259519968,-0.1144730647665284
-4.0585,0.6222840025175946,0.05507314971599636
-4.058,0.5262524287983441,0.2034260873884947
-4.0575,0.4515612047945656,0.1504428953626575
-4.057,0.3021787567871445,-0.4853554089468102
-4.0565,0.04609456020262521,-1.205926820498774
-4.056,-0.722158029550525,-1.714565463946811
-4.0555,-1.341028171295555,-1.905304955239651
-4.055,-1.223656247861143,-1.386069673385859
-4.0545,-0.7114878546928423,-0.5489352393783931
-4.054,-0.2099896363822142,0.1398462569568637
-4.0535,0.1527963087796263,0.5637117931643609
-4.053,0.3448594562177392,0.7544512844572011
-4.0525,0.4302208550792003,0.775644561267536
-4.052,0.4515612047945461,0.701468092431258
-4.0515,0.4302208550792003,0.5849050699745222
-4.051,0.3982103305061524,0.4895353243280153
-4.0505,0.3661998059331336,0.4259554938970685
-4.05,0.3341892813600565,0.3305857482505039
-4.0495,0.2808384070716433,0.3199891098453364
-4.049,-0.07127736323156358,0.4365521323020721
-4.0485,-0.6154562809743196,0.7120647308361073
-4.048,-1.298347471865388,0.2458126410091644
-4.0475,-1.831856214749034,-0.6337083466189326
-4.047,-1.810515865033543,-0.7608680074814623
-4.0465,-1.138294849000148,-0.4535654937318862
-4.046,-0.4127229586783883,-0.1886495336029413
-4.0455,0.1101156093490025,-0.07208651114582006
-4.045,0.4195506802215176,-0.02969995752518888
-4.0445,0.5582629533713921,0.01268659609548085
-4.044,0.6116138276598633,0.01268659609540375
-4.0435,0.6756348768059011,-0.07208651114585861
-4.043,0.707645401378949,-0.08268314955102604
-4.0425,0.6542945270905843,-0.05089323433555266
-4.042,0.6542945270905358,-0.07208651114585861
-4.0415,0.6009436528021226,0.01268659609548085
-4.041,0.5582629533714309,0.09745970333674321
-4.0405,0.8463576745290853,-0.1144730647667211
-4.04,1.134452395686255,-0.326405832869877
-4.0395,0.4729015545105325,-0.9092209451535558
-4.039,-0.4020527838204048,-1.449649503817577
-4.0385,-0.7968492535543035,-1.396666311791788
-4.038,-0.6047861061161905,-0.76086800748232
-4.0375,-0.2526703358121976,-0.08268314955057307
-4.037,0.0674349099179905,0.4153588554918433
-4.0365,0.2701682322139607,0.6908714540261965
-4.036,0.3768699807908259,0.7968378380778612
-4.0355,0.4195506802215176,0.7862411996727035
-4.035,0.4195506802215176,0.7120647308365314
-4.0345,0.4088805053638447,0.627291623595269
-4.034,0.3768699807907871,0.5637117931641874
-4.0335,0.3341892813600565,0.55311515475902
-4.033,0.2808384070716918,0.5955017083796511
-4.0325,0.0781050847751685,0.648484900405575
-4.032,-0.4767440078238243,0.701468092431364
-4.0315,-1.1169544992842,0.4577454091127347
-4.031,-1.618452717596168,-0.4641621321374969
-4.0305,-1.949228138184029,-0.9516074987747555
-4.03,-1.575772018165476,-0.612515069809706
-4.0295,-0.8822106524151628,-0.2416327256283159
-4.029,-0.2206598112394408,0.002089957690313421
-4.0285,0.2381577076409128,0.03387987290581572
-4.028,0.4835717293677008,-0.07208651114596462
-4.0275,0.5796033030867573,-0.1886495336027004
-4.027,0.6649647019482183,-0.326405832869877
-4.0265,0.7823366253826207,-0.5065486857575595
-4.026,0.79300680024041,-0.4959520473525559
-4.0255,0.7716664505250448,-0.4429688553267188
-4.025,0.6969752265213343,-0.2522293640338785
-4.0245,0.6116138276597081,-0.02969995752528525
-4.024,0.5049120790829789,-0.1356663415768632
-4.0235,0.5689331282290164,-0.7502713690760153
-4.023,0.1101156093480126,-1.386069673387015
-4.0225,-0.6688071552621118,-1.820531847998485
-4.022,-1.095614149569029,-1.756952017567538
-4.0215,-0.8608703026999917,-1.025783967610205
-4.021,-0.4127229586777283,-0.2310360872233701
-4.0205,-0.01792648894347063,0.3517790250608387
-4.02,0.2381577076410389,0.6802748156211351
-4.0195,0.3768699807907871,0.7968378380778709
-4.019,0.4302208550792003,0.7862411996727035
-4.0185,0.4302208550792003,0.7120647308365989
-4.018,0.408880505363835,0.6060983467848571
-4.0175,0.3768699807907871,0.5319218779486851
-4.017,0.3448594562177683,0.4789386859228961
-4.0165,0.3021787567869213,0.4789386859228864
-4.016,0.2061471830678648,0.5213252395435176
-4.0155,-0.2953510352427632,0.5849050699744643
-4.015,-0.935561526704498,0.8286277532928913
-4.0145,-1.287677297007705,0.2987958330350016
-4.014,-1.565101843307201,-0.4959520473518331
-4.0135,-1.511750969018575,-0.4853554089472054
-4.013,-0.9995825758502737,-0.2840192792492073
-4.0125,-0.3807124341046804,-0.1250697031716958
-4.012,0.120785784206656,-0.01910331912001181
-4.0115,0.3982103305061524,-0.008506680714854012
-4.011,0.5049120790829789,-0.06148987274069118
-4.0105,0.5262524287983247,-0.08268314955100677
-4.01,0.5049120790829789,-0.2310360872233701
-4.0095,0.5049120790829789,-0.2416327256285375
-4.009,0.4942419042253058,-0.114473064766644
-4.0085,0.5049120790829789,0.03387987290595065
-4.008,0.5049120790829789,0.1822328105781598
-4.0075,0.462231379652287,0.2246193641987909
-4.007,0.483571729367497,-0.1780528951981112
-4.0065,0.3555296310754218,-0.8138511995075789
-4.006,-0.4340633083930936,-1.417859588602123
-4.0055,-1.01025275070784,-1.629792356704979
-4.005,-0.8822106524157645,-1.089363798041932
-4.0045,-0.4767440078238243,-0.3370024712750445
-4.004,-0.07127736323163152,0.2564092794146595
-4.0035,0.2061471830678648,0.6166949851900245
-4.003,0.3555296310754218,0.7650479228623686
-4.0025,0.4195506802214594,0.7650479228623686
-4.002,0.4302208550792003,0.6908714540261965
-4.0015,0.4195506802215176,0.5849050699745222
-4.001,0.3982103305061718,0.4577454091126287
-4.0005,0.3661998059330657,0.3835689402763025
-4,0.3235191065023739,0.3411823866556712
-3.9995,0.2701682322139607,0.3517790250608387
-3.999,-0.06060718837420119,0.5743084315693548
-3.9985,-0.5300948821122373,1.00877060618122
-3.998,-1.127624674142465,0.7438546460520338
-3.9975,-1.586442193022819,-0.1250697031716958
-3.997,-1.51175096901904,-0.3475991096802118
-3.9965,-0.9248913518464952,-0.2098428104130352
-3.996,-0.274010685527854,-0.07208651114585861
-3.9955,0.1954770082101822,0.02328323450064829
-3.995,0.4729015545099309,0.09745970333682032
-3.9945,0.6116138276598051,0.1080563417419877
-3.994,0.6329541773751706,0.06566978812131802
-3.9935,0.7289857510943143,-0.1886495336027004
-3.993,0.825017324813458,-0.3793890248957141
-3.9925,0.7503261008096795,-0.2310360872233701
-3.992,0.6756348768059011,-0.008506680714854012
-3.9915,0.6009436528021226,0.2140227257936621
-3.991,0.5369226036560266,0.383568940276341
-3.9905,0.4942419042252961,0.07626642652648545
-3.99,0.5262524287983441,-0.6231117082145651
-3.9895,-0.1352984123779797,-1.269506650929778
-3.989,-0.9142211769888124,-1.587405803084801
-3.9885,-1.30901764672307,-1.555615887869299
-3.988,-1.010252750707956,-0.9410108603695881
-3.9875,-0.4980843575391895,-0.2310360872233701
-3.987,-0.04993701351651855,0.2776025562246667
-3.9865,0.2274875327832301,0.55311515475902
-3.986,0.3768699807907871,0.627291623595192
-3.9855,0.4302208550792003,0.5743084315693548
-3.985,0.4302208550792003,0.4683420475176805
-3.9845,0.408880505363835,0.3411823866556712
-3.984,0.3661998059331045,0.2352160026039969
-3.9835,0.291508581929326,0.1928294489833272
-3.983,0.1954770082101822,0.2881991946298341
-3.9825,0.00341386077189465,0.3729723018711736
-3.982,-0.572775581542968,0.1928294489833272
-3.9815,-1.244996597576974,-0.3899856633008816
-3.981,-1.746494815888059,-1.227120097309109
-3.9805,-2.109280761049269,-1.502632695843462
-3.98,-1.735824641030376,-0.8986243067489184
-3.9795,-0.9035510021311299,-0.3158091944647096
-3.979,-0.156638762093345,-0.01910331912002144
-3.9785,0.3235191065023739,0.02328323450064829
-3.978,0.5689331282290746,-0.05089323433552374
-3.9775,0.6329541773751706,-0.08268314955102604
-3.977,0.6756348768059011,-0.1462629799820306
-3.9765,0.8143471499557753,-0.326405832869877
-3.976,0.7716664505250448,-0.2416327256285375
-3.9755,0.6649647019482183,-0.04029659593035631
-3.975,0.5582629533713921,0.1610395337678249
-3.9745,0.4942419042252961,0.3199891098453364
-3.974,0.3555296310754218,0.08686306493165288
-3.9735,-0.1779791118087102,-0.6654982618352349
-3.973,-0.7861790786966207,-1.38606967338662
-3.9725,-1.180975548430879,-1.809935209593318
-3.972,-1.46907026958831,-1.915901593644992
-3.9715,-1.170305373573196,-1.375473034981453
-3.971,-0.6047861061160158,-0.5913217929990628
-3.9705,-0.1139580626626144,0.03387987290581572
-3.97,0.2061471830678648,0.4047622170866759
-3.9695,0.3768699807907871,0.55311515475902
-3.969,0.4408910299368829,0.5637117931641874
-3.9685,0.4515612047945656,0.5001319627331828
-3.968,0.4302208550792003,0.3941655786815084
-3.9675,0.3982103305061524,0.2987958330350016
-3.967,0.3555296310754218,0.2564092794143318
-3.9665,0.3128489316446912,0.2352160026039969
-3.966,0.2381577076409128,0.2776025562246667
-3.9655,-0.1459685872356623,0.2564092794143318
-3.965,-0.690147504977477,0.4365521323021782
-3.9645,-1.351698346153801,-0.06148987274069118
-3.964,-1.490410619303675,-0.570128516188728
-3.9635,-0.9889124009925911,-0.474758770542221
-3.963,-0.3700422592469978,-0.2628260024388724
-3.9625,0.07810508477567314,-0.1250697031716958
-3.962,0.3982103305061524,-0.01910331912002144
-3.9615,0.5582629533713921,0.09745970333682032
-3.961,0.6009436528021226,0.1292496185523226
-3.9605,0.5902734779444399,0.08686306493165288
-3.96,0.7396559259519968,-0.1250697031716958
-3.9595,0.7716664505250448,-0.1462629799820306
-3.959,0.6863050516635838,-0.008506680714854012
-3.9585,0.5796033030867573,0.1716361721729923
-3.958,0.5049120790829789,0.3517790250608387
-3.9575,0.4835717293676135,0.4047622170866759
-3.957,0.6863050516635838,-0.1038764263613609
-3.9565,0.5262524287983441,-0.8456411147230812
-3.956,-0.4020527838200457,-1.449649503817625
-3.9555,-1.180975548430879,-1.693372187136476
-3.955,-1.116954499284783,-1.195330182093607
-3.9545,-0.6688071552621118,-0.4217755785163839
-3.954,-0.1886492866663929,0.2034260873884947
-3.9535,0.142126133921769,0.5743084315693548
-3.953,0.3341892813600565,0.7226613692416989
-3.9525,0.4195506802215176,0.7120647308365314
-3.952,0.4302208550792003,0.6166949851900245
-3.9515,0.4195506802215176,0.4895353243280153
-3.951,0.3982103305061524,0.3517790250608387
-3.9505,0.3768699807907871,0.2352160026039969
-3.95,0.3341892813600565,0.1928294489833272
-3.9495,0.2701682322139607,0.2352160026039969
-3.949,-0.09261771294724913,0.4259554938970107
-3.9485,-0.8928808272734472,0.6696781772158616
-3.948,-1.67180359188428,0.2564092794143318
-3.9475,-2.301343908487556,-0.6654982618352349
-3.947,-2.290673733629873,-0.8774310299385835
-3.9465,-1.46907026958831,-0.5383386009732256
-3.946,-0.658136980404429,-0.1992461720078678
-3.9455,-0.04993701351651855,0.05507314971615059
-3.945,0.3661998059331045,0.13984625695749
-3.9445,0.5902734779444399,0.1610395337678249
-3.944,0.6649647019482183,0.13984625695749
-3.9435,0.7716664505250448,-0.09327978795619347
-3.943,0.825017324813458,-0.2628260024388724
-3.9425,0.7396559259519968,-0.1462629799820306
-3.942,0.6222840025174878,0.03387987290581572
-3.9415,0.5262524287983441,0.2352160026039969
-3.941,0.4835717293676135,0.3729723018711736
-3.9405,0.3555296310754218,0.01268659609548085
-3.94,0.4622313796522482,-0.6443049850249
-3.9395,-0.007256314085787988,-1.269506650929778
-3.939,-0.7648387289812555,-1.598002441489969
-3.9385,-1.116954499284783,-1.47084278062796
-3.938,-0.839529952985034,-0.7820612842920766
-3.9375,-0.3700422592469978,-0.07208651114585861
-3.937,0.01408403562957729,0.4259554938970107
-3.9365,0.2594980573562781,0.6696781772158616
-3.936,0.3875401556484697,0.7226613692416989
-3.9355,0.4302208550792003,0.6696781772158616
-3.935,0.4302208550792003,0.55311515475902
-3.9345,0.408880505363835,0.4153588554918433
-3.934,0.3768699807907871,0.309392471440169
-3.9335,0.3341892813600565,0.2352160026039969
-3.933,0.291508581929326,0.2140227257936621
-3.9325,0.1314559590640864,0.2881991946298341
-3.932,-0.5300948821122373,0.1610395337678249
-3.9315,-1.26633694729234,-0.2946159176543747
-3.931,-1.565101843307454,-1.046977244421262
-3.9305,-1.533091318734406,-1.046977244421262
-3.93,-1.074273799854052,-0.474758770542221
-3.9295,-0.4447334832507763,-0.01910331912002144
-3.929,0.0674349099179905,0.1716361721729923
-3.9285,0.3982103305061524,0.13984625695749
-3.928,0.5689331282290746,0.04447651131098315
-3.9275,0.6009436528021226,0.002089957690313421
-3.927,0.5902734779444399,-0.1144730647665284
-3.9265,0.5689331282290746,-0.3158091944647096
-3.926,0.5369226036560266,-0.2416327256285375
-3.9255,0.5049120790829789,-0.05089323433552374
-3.925,0.4942419042252961,0.1716361721729923
-3.9245,0.4622313796522482,0.3517790250608387
-3.924,0.4302208550792003,0.2352160026039969
-3.9235,0.4408910299368829,-0.3475991096802118
-3.923,0.291508581929326,-0.9516074987747555
-3.9225,-0.3700422592469978,-1.449649503817625
-3.922,-0.839529952985034,-1.523825972653797
-3.9215,-0.7008176798351597,-0.9410108603695881
-3.921,-0.3380317346739499,-0.2416327256285375
-3.9205,0.00341386077189465,0.2670059178194992
-3.92,0.2381577076409128,0.55311515475902
-3.9195,0.3661998059331045,0.6378882620003594
-3.919,0.408880505363835,0.5955017083796896
-3.9185,0.4195506802215176,0.5001319627331828
-3.918,0.408880505363835,0.383568940276341
-3.9175,0.3875401556484697,0.2776025562246667
-3.917,0.3661998059331045,0.1822328105781598
-3.9165,0.3235191065023739,0.1504428953626575
-3.916,0.2488278824985954,0.1822328105781598
-3.9155,-0.08194753808956648,0.2987958330350016
-3.915,-0.2099896363817582,0.6166949851900245
-3.9145,-0.722158029550525,0.1928294489833272
-3.914,-1.405049220442214,-0.6337083466197325
-3.9135,-1.607782542738184,-0.6337083466197325
-3.913,-1.1062843244271,-0.3475991096802118
-3.9125,-0.4340633083930936,-0.1250697031716958
-3.912,0.0674349099179905,0.06566978812131802
-3.9115,0.3661998059331045,0.13984625695749
-3.911,0.5049120790829789,0.1610395337678249
-3.9105,0.5582629533713921,0.1504428953626575
-3.91,0.7609962756673623,0.04447651131098315
-3.9095,0.8676980242441885,-0.01910331912002144
-3.909,0.825017324813458,0.05507314971615059
-3.9085,0.7183155762366316,0.1928294489833272
-3.908,0.6009436528021226,0.3305857482505039
-3.9075,0.5049120790829789,0.3941655786815084
-3.907,0.3021787567870086,-0.08268314955102604
-3.9065,0.1954770082101822,-0.8562377531282487
-3.906,-0.4127229586777283,-1.492036057438295
-3.9055,-0.9889124009925911,-1.75695201756748
-3.905,-0.8928808272734472,-1.248313374119443
-3.9045,-0.4874141826815069,-0.4959520473525559
-3.904,-0.09261771294724913,0.1186529801471552
-3.9035,0.1954770082101822,0.4789386859228479
-3.903,0.3448594562177392,0.627291623595192
-3.9025,0.408880505363835,0.627291623595192
-3.902,0.4195506802215176,0.55311515475902
-3.9015,0.408880505363835,0.4365521323021782
-3.901,0.3875401556484697,0.3305857482505039
-3.9005,0.3661998059331045,0.2670059178194992
-3.9,0.3128489316446912,0.2458126410091644
-3.8995,0.2701682322139607,0.2352160026039969
-3.899,-0.007256314085787988,0.3517790250608387
-3.8985,-0.6474668055467465,0.6060983467848571
-3.898,-1.298347471865388,0.4153588554918433
-3.8975,-1.87453691418025,-0.474758770542221
-3.897,-2.098610586191586,-0.792657922697244
-3.8965,-1.501080794161358,-0.4535654937318862
-3.896,-0.6794773301197943,-0.1462629799820306
-3.8955,0.00341386077189465,0.08686306493165288
-3.895,0.3982103305061524,0.1716361721729923
-3.8945,0.5796033030867573,0.1716361721729923
-3.894,0.6436243522328531,0.1080563417419877
-3.8935,0.7716664505250448,-0.07208651114585861
-3.893,0.9103787236749192,-0.252229364033705
-3.8925,0.8356874996711408,-0.1568596183871981
-3.892,0.6863050516635838,0.05507314971615059
-3.8915,0.5582629533713921,0.2670059178194992
-3.891,0.4835717293676135,0.4259554938970107
-3.8905,0.3982103305061524,0.1504428953626575
-3.89,0.4195506802215176,-0.5913217929990628
-3.8895,-0.07127736323188383,-1.269506650929778
-3.889,-0.7114878546928423,-1.629792356705471
-3.8885,-0.754168554123573,-1.237716735714276
-3.888,-0.4447334832507763,-0.4959520473525559
-3.8875,-0.09261771294724913,0.13984625695749
-3.887,0.1741366584948169,0.5425185163538525
