Class_4_Move_right_hand_Horiszontal/Class_4_Move_right_hand_Horiszontal_UZ_10.csv

#Digilent WaveForms Oscilloscope Acquisition
#Device Name: EExplorer
#Serial Number: SN:210151A2B84A
#Date Time: 2020-12-23 13:07:27.795
#Sample rate: 2000Hz
#Samples: 16384
#Trigger: Source: Channel 1 Type: Edge Condition: Rising Level: 0 V Hyst.: Auto HoldOff: 0 s
#Channel 1: Range: 1 V/div Offset: 0 V Attenuation: 1 X
#Channel 2: Range: 1 V/div Offset: 0 V Attenuation: 1 X
#Power Supplies: ON
#Fixed Supply: ON
#Voltage: 3.3 V Readback: 3.33 V
#Positive Supply: ON
#Voltage: 3.7 V Readback: 3.706 V
#Current: 40 mA Readback: 20 mA
#Negative Supply: ON
#Voltage: -3.7 V Readback: -4.105 V
#Current: -40 mA Readback: -3 mA
#Reference 1: ON
#Voltage: 0 V
#Reference 2: ON
#Voltage: 0 V

Time (s),Channel 1 (V),Channel 2 (V)
-4.096,0.3021787567870086,0.9875773293708847
-4.0955,0.2808384070716627,0.9769806909657269
-4.095,0.2701682322139704,0.9451907757501764
-4.0945,0.2808384070716433,0.9028042221295453
-4.094,0.3768699807906998,0.8074344764831251
-4.0935,0.835687499671626,0.372972301870258
-4.093,1.369196242555273,-0.6337083466197325
-4.0925,0.7396559259525693,-1.629792356704565
-4.092,-0.2846808603855561,-2.043061254506423
-4.0915,-0.3060212101009019,-1.407262950196955
-4.091,0.05676473506030786,-0.7290780922662394
-4.0905,0.3768699807909424,-0.178052895197186
-4.09,0.5475927785137094,0.2034260873884947
-4.0895,0.5582629533713921,0.3305857482505039
-4.089,0.4729015545100085,0.3623756634659772
-4.0885,0.3768699807907871,0.3517790250608387
-4.088,0.3341892813600565,0.3411823866556712
-4.0875,0.3021787567870378,0.3305857482505135
-4.087,0.2701682322139316,0.3093924714401593
-4.0865,0.2381577076409128,0.2987958330350016
-4.086,0.2168173579255669,0.3093924714401593
-4.0855,0.1741366584944384,0.3517790250611664
-4.085,-0.2420001609548061,0.7120647308365314
-4.0845,-1.031593100422604,1.39024958876663
-4.084,-1.810515865034727,1.84590504018935
-4.0835,-2.44005618163743,1.739938656137773
-4.083,-2.312014083345239,1.273686566310405
-4.0825,-1.426389570156881,0.8392243916983189
-4.082,-0.658136980404429,0.5955017083796896
-4.0815,-0.124628237520297,0.5107286011383502
-4.081,0.1848068333522181,0.5531151547589814
-4.0805,0.2701682322139607,0.6166949851900245
-4.08,0.2274875327832301,0.6802748156210291
-4.0795,0.259498057356249,0.8604176685087116
-4.079,-0.3166913849586331,0.4153588554918818
-4.0785,-0.3700422592469978,0.457745409112513
-4.078,-0.167308936951212,0.7332580076466158
-4.0775,0.03542438534532105,0.9451907757502535
-4.077,0.4515612047945656,0.9875773293708847
-4.0765,1.209143619689344,0.2246193641995233
-4.076,1.326515543123746,-0.8562377531289426
-4.0755,0.4515612047945656,-1.619195718300304
-4.075,0.1848068333524996,-1.152943628472937
-4.0745,0.4088805053640097,-0.4111789401107828
-4.074,0.6009436528021226,0.06566978812131802
-4.0735,0.6436243522328531,0.2881991946298341
-4.073,0.5796033030868155,0.3305857482504653
-4.0725,0.4729015545099309,0.2881991946298341
-4.072,0.3768699807907871,0.2246193641988295
-4.0715,0.3768699807907871,0.2352160026039873
-4.071,0.4835717293675941,0.4047622170866855
-4.0705,0.4622313796522482,0.4153588554918433
-4.07,0.3768699807908648,0.3517790250608965
-4.0695,0.2915085819292678,0.2987958330349823
-4.069,0.2274875327832301,0.2776025562246667
-4.0685,-0.07127736323188383,0.4365521323021782
-4.068,-0.8395299529855289,0.7544512844570951
-4.0675,-1.383708870726849,0.6378882620003594
-4.067,-1.543761493592088,0.03387987290581572
-4.0665,-1.693143941599267,-0.517145324162833
-4.066,-1.277007122150022,-0.4535654937318862
-4.0655,-0.690147504977477,-0.06148987274069118
-4.065,-0.199319461524522,0.3623756634656206
-4.0645,0.1101156093487211,0.6802748156210291
-4.064,0.2594980573562781,0.8816109453192104
-4.0635,0.3021787567869698,0.9875773293707883
-4.063,0.3021787567869892,1.029963882991574
-4.0625,0.2808384070716433,1.051157159801889
-4.062,0.2701682322139704,1.029963882991574
-4.0615,0.2701682322139704,0.9981739677760039
-4.061,0.2808384070716433,0.9451907757502149
-4.0605,0.3555296310754218,0.849821030103708
-4.06,0.6969752265214409,0.2670059178188824
-4.0595,0.8890383739595538,-0.4111789401112165
-4.059,0.09944543449103843,-1.237716735714276
-4.0585,-0.9355615267032364,-2.170220915368162
-4.058,-0.4340633083930936,-1.703968825541643
-4.0575,0.09944543449103843,-1.004590690800593
-4.057,0.4408910299365724,-0.3793890248962828
-4.0565,0.6116138276598051,0.06566978812131802
-4.056,0.5582629533713921,0.2246193641988295
-4.0555,0.4515612047946626,0.2776025562246185
-4.055,0.3768699807908938,0.2670059178195089
-4.0545,0.4942419042252961,0.2776025562246667
-4.054,0.4942419042252961,0.256409279414351
-4.0535,0.4088805053637574,0.2246193641988102
-4.053,0.3235191065023739,0.2034260873884947
-4.0525,0.2594980573562781,0.2034260873884947
-4.052,0.1634664836365811,0.288199194630104
-4.0515,-0.4447334832507763,0.5849050699745222
-4.051,-1.458400094730627,0.6060983467848571
-4.0505,-2.226652684483079,0.002089957690862732
-4.05,-2.877533350802418,-0.8880276683437509
-4.0495,-2.568098279929622,-1.269506650929778
-4.049,-1.607782542739058,-0.8562377531286245
-4.0485,-0.7328282044076641,-0.2204394488177111
-4.048,-0.1352984123779797,0.3199891098453364
-4.0475,0.1954770082098814,0.6908714540258591
-4.047,0.334189281360076,0.902804222129632
-4.0465,0.3555296310754218,0.9981739677760521
-4.046,0.334189281360076,1.029963882991526
-4.0455,0.3021787567869892,1.019367244586368
-4.045,0.2808384070716433,0.9981739677760521
-4.0445,0.2808384070716433,0.9451907757502149
-4.044,0.3341892813604544,0.8816109453188152
-4.0435,0.7716664505250448,0.4471487707073456
-4.043,1.273164668836129,-0.3793890248957141
-4.0425,0.9423892482482679,-1.068170521230971
-4.042,0.408880505363835,-1.555615887869299
-4.0415,0.4729015545099309,-1.735758740757146
-4.041,0.6649647019480436,-1.195330182094098
-4.0405,0.6542945270905455,-0.6654982618347626
-4.04,0.6649647019482183,-0.1462629799820306
-4.0395,0.5262524287984702,0.1080563417417564
-4.039,-0.1246282375204329,-0.2946159176544229
-4.0385,-0.274010685527854,-0.3475991096802118
-4.038,-0.09261771294741411,-0.3475991096802118
-4.0375,0.099445434491184,-0.3475991096800384
-4.037,0.2594980573562781,-0.1568596183871981
-4.0365,0.2701682322139607,-0.02969995752518888
-4.036,0.248827882498508,0.06566978812143368
-4.0355,0.1527963087794516,0.1928294489833272
-4.035,-0.4767440078238243,0.701468092431364
-4.0345,-1.458400094729734,1.19951009747378
-4.034,-1.949228138184029,0.9769806909657173
-4.0335,-2.365364957633652,0.4789386859228479
-4.033,-2.482736881068054,0.5213252395434791
-4.0325,-1.810515865033388,0.6378882620004365
-4.032,-0.9675720512772257,0.7226613692416989
-4.0315,-0.3060212101015035,0.7968378380778034
-4.031,0.09944543449121311,0.8604176685089333
-4.0305,0.291508581929326,0.92399749893988
-4.03,0.3448594562176907,0.9769806909656691
-4.0295,0.3448594562177101,1.019367244586406
-4.029,0.3128489316446912,1.040560521396722
-4.0285,0.291508581929326,1.040560521396722
-4.028,0.2915085819293454,1.019367244586358
-4.0275,0.3128489316446912,0.9875773293708847
-4.027,0.5689331282290746,0.8286277532933731
-4.0265,1.209143619689451,0.2246193641993789
-4.026,1.102441871113207,-0.6549016234300674
-4.0255,0.2061471830678648,-1.354279758171118
-4.025,-0.07127736323163153,-1.375473034981433
-4.0245,0.1421261339220116,-0.8562377531277187
-4.024,0.408880505363835,-0.2734226408440398
-4.0235,0.5582629533712562,0.09745970333648296
-4.023,0.5475927785136318,0.2564092794143607
-4.0225,0.4622313796522482,0.2881991946298341
-4.022,0.3661998059331918,0.2564092794143607
-4.0215,0.3021787567870086,0.139846256957384
-4.021,0.3021787567870086,0.02328323450064829
-4.0205,0.3555296310754218,0.07626642652648545
-4.02,-0.4447334832507278,-0.6760949002403059
-4.0195,-0.391382608962363,-0.570128516188728
-4.019,-0.2633405106701714,-0.326405832869877
-4.0185,-0.7221580295501078,0.1292496185519083
-4.018,-1.543761493592088,0.6060983467848571
-4.0175,-2.376035132491334,0.4047622170866759
-4.017,-3.048256148524729,-0.4535654937311056
-4.0165,-3.517743842262601,-1.428456227007396
-4.016,-2.664129853648766,-1.545019249464132
-4.0155,-1.543761493593107,-0.9198175835598219
-4.015,-0.6154562809731551,-0.18864953360218
-4.0145,-0.01792648894347063,0.383568940276341
-4.014,0.2915085819290446,0.7544512844568638
-4.0135,0.3875401556484697,0.945190775750292
-4.013,0.3875401556484697,1.029963882991555
-4.0125,0.3448594562177392,1.040560521396722
-4.012,0.3128489316446815,1.019367244586358
-4.0115,0.3021787567870086,0.9875773293708847
-4.011,0.3128489316446912,0.9451907757502149
-4.0105,0.355529631075383,0.8498210301037947
-4.01,0.6649647019482183,0.309392471440169
-4.0095,1.027750647109428,-0.6019184314042303
-4.009,0.5262524287988002,-1.396666311791065
-4.0085,0.08877525963348194,-1.661582271920569
-4.008,0.2274875327832301,-1.216523458903942
-4.0075,0.4515612047943618,-0.6866915386460516
-4.007,0.5475927785136899,-0.1780528951972149
-4.0065,0.5262524287983441,0.1716361721729923
-4.006,0.4515612047945656,0.3411823866556712
-4.0055,0.3661998059330657,0.3729723018711736
-4.005,0.3235191065023739,0.3729723018711736
-4.0045,0.3021787567870086,0.457745409112513
-4.004,0.2808384070716142,0.4471487707072588
-4.0035,0.2488278824985954,0.3517790250608387
-4.003,0.2381577076409128,0.2564092794143318
-4.0025,0.2168173579255669,0.1928294489833851
-4.002,-0.03926683865883591,0.3199891098453364
-4.0015,-0.7114878546928423,0.9769806909657173
-4.001,-1.842526389606174,1.284283204715293
-4.0005,-2.717480727937412,1.326669758335982
-4,-2.973564924521563,1.040560521396722
-3.9995,-2.578768454787304,0.2881991946298341
-3.999,-1.575772018165136,0.07626642652648545
-3.9985,-0.658136980404429,0.1504428953626575
-3.998,-0.1032878878049318,0.2776025562246667
-3.9975,0.2061471830678648,0.4683420475176805
-3.997,0.3341892813600565,0.6590815388106942
-3.9965,0.3555296310754218,0.8180311148882058
-3.996,0.3448594562177392,0.9557874141553824
-3.9955,0.3235191065023739,1.061753798207057
-3.995,0.3128489316446912,1.135930267043229
-3.9945,0.3128489316446912,1.178316820663898
-3.994,0.3128489316446912,1.199510097474233
-3.9935,0.4729015545099309,1.082947075017392
-3.993,1.006410297394063,0.4895353243280153
-3.9925,0.7396559259519968,-0.4535654937318862
-3.992,0.05676473506030786,-1.110557074852267
-3.9915,0.07810508477567314,-1.05757388282643
-3.991,0.3448594562177392,-0.5065486857577234
-3.9905,0.5582629533713921,0.09745970333682032
-3.99,0.6222840025174878,0.4683420475176805
-3.9895,0.5902734779444399,0.6060983467848571
-3.989,0.5049120790829789,0.5743084315693548
-3.9885,0.408880505363835,0.5001319627331828
-3.988,0.4835717293676135,0.5425185163538525
-3.9875,0.5049120790829789,0.5107286011383502
-3.987,0.4302208550792003,0.3517790250608387
-3.9865,0.3448594562177392,0.1716361721729923
-3.986,0.2808384070716433,0.02328323450064829
-3.9855,0.1527963087794516,-0.08268314955102604
-3.985,-0.3807124341046804,-0.04029659593035631
-3.9845,-1.031593100423322,-0.09327978795619347
-3.984,-1.639793067311232,-0.5913217929990628
-3.9835,-2.205312334768412,-1.195330182093607
-3.983,-1.949228138184029,-1.333086481360783
-3.9825,-1.26633694729234,-0.9410108603695881
-3.982,-0.5194247072545548,-0.2628260024388724
-3.9815,-0.6794773301197943,-0.400582301706049
-3.981,-0.4447334832507763,-0.1038764263613609
-3.9805,-0.124628237520297,0.2881991946298341
-3.98,0.0674349099179905,0.55311515475902
-3.9795,0.2488278824985954,0.7862411996727035
-3.979,0.3021787567870086,0.8604176685088755
-3.9785,0.2808384070716433,0.849821030103708
-3.978,0.2701682322139607,0.8286277532933731
-3.9775,0.2808384070716433,0.8074344764830383
-3.977,0.3235191065023739,0.627291623595192
-3.9765,0.7503261008096795,-0.1886495336027004
-3.976,1.230483969405398,-1.205926820498774
-3.9755,0.942389248247967,-1.862918401619155
-3.975,0.8356874996711408,-1.248313374119443
-3.9745,0.8997085488172365,-0.5383386009732256
-3.974,0.9103787236749192,-0.1144730647665284
-3.9735,0.8356874996711408,0.1504428953626575
-3.973,0.6756348768059011,0.2246193641988295
-3.9725,0.5369226036560266,0.1822328105781598
-3.972,0.4195506802215176,0.13984625695749
-3.9715,0.3235191065023739,0.1610395337678249
-3.971,0.2594980573562781,0.2140227257936621
-3.9705,0.2274875327832301,0.2564092794143318
-3.97,0.2168173579255475,0.2987958330350016
-3.9695,0.2168173579255475,0.3305857482505039
-3.969,0.1954770082101822,0.383568940276341
-3.9685,-0.1352984123779797,0.6696781772158616
-3.968,-0.8502001278427167,1.114736990232894
-3.9675,-1.46907026958831,0.9557874141553824
-3.967,-1.970568487899394,0.1504428953626575
-3.9665,-1.863866739322568,-0.4429688553267188
-3.966,-1.191645723288561,-0.3370024712750445
-3.9655,-0.5407650569699201,0.05507314971615059
-3.965,-0.06060718837420119,0.4365521323021782
-3.9645,0.1954770082101822,0.7120647308365314
-3.964,0.3128489316446912,0.8604176685088755
-3.9635,0.3341892813600565,0.92399749893988
-3.963,0.1848068333524996,0.7968378380778709
-3.9625,0.2808384070716433,0.8922075837243778
-3.962,-0.4660738329661415,0.1186529801471552
-3.9615,-0.391382608962363,0.1292496185523226
-3.961,-0.1673089369510276,0.2670059178194992
-3.9605,0.03542438534494258,0.3517790250608387
-3.96,0.5582629533713921,0.2140227257936621
-3.9595,1.251824319120764,-0.4535654937318862
-3.959,0.857027849386506,-1.364876396576285
-3.9585,0.3768699807907871,-1.492036057438295
-3.958,0.3875401556484697,-1.01518732920576
-3.9575,0.5049120790829789,-0.5277419625680583
-3.957,0.5475927785137094,-0.1038764263613609
-3.9565,0.5262524287983441,0.13984625695749
-3.956,0.4835717293676135,0.2564092794143318
-3.9555,0.3982103305061524,0.2670059178194992
-3.955,0.3235191065023739,0.2140227257936621
-3.9545,0.2594980573562781,0.1186529801471552
-3.954,0.2381577076409128,0.1080563417419877
-3.9535,0.2381577076409128,0.1504428953626575
-3.953,0.2274875327832301,0.2034260873884947
-3.9525,0.2061471830678648,0.2670059178194992
-3.952,-0.007256314085787988,0.3941655786815084
-3.9515,-0.7755089038389382,0.5425185163538525
-3.951,-1.682473766741963,0.3623756634660061
-3.9505,-2.247993034199143,-0.2098428104130352
-3.95,-2.610778979360353,-0.4323722169215513
-3.9495,-2.002579012472442,-0.1038764263613609
-3.949,-1.127624674142465,0.2458126410091644
-3.9485,-0.4127229586777283,0.5107286011383502
-3.948,0.04609456020262521,0.6802748156210291
-3.9475,0.2701682322139607,0.7862411996727035
-3.947,0.3555296310754218,0.8286277532933731
-3.9465,0.3555296310754218,0.8392243916985406
-3.946,0.3235191065023739,0.8392243916985406
-3.9455,0.3021787567870086,0.8286277532933731
-3.945,0.3021787567870086,0.7968378380778709
-3.9445,0.3235191065023739,0.7544512844572011
-3.944,0.3875401556484697,0.6908714540261965
-3.9435,0.7183155762366316,0.3517790250608387
-3.943,1.379866417412955,-0.3370024712750445
-3.9425,1.294505018551494,-1.036380606016095
-3.942,0.5902734779444399,-1.364876396576285
-3.9415,-0.156638762093345,-1.608599079895136
-3.941,0.1314559590640864,-0.9939940523954253
-3.9405,0.3341892813600565,-0.4959520473525559
-3.94,0.4408910299368829,-0.1144730647665284
-3.9395,0.4835717293676135,0.1292496185523226
-3.939,0.3982103305061524,0.1610395337678249
-3.9385,0.3341892813600565,0.1610395337678249
-3.938,0.4195506802215176,0.1186529801471552
-3.9375,0.4408910299368829,0.1292496185523226
-3.937,0.3875401556484697,0.1822328105781598
-3.9365,0.3235191065023739,0.2564092794143318
-3.936,0.2808384070716433,0.3199891098453364
-3.9355,0.2061471830678648,0.4259554938970107
-3.935,-0.3060212101009019,0.8816109453192104
-3.9345,-0.9675720512772257,1.400846227172415
-3.934,-1.565101843307454,1.241896651094903
-3.9335,-2.141291285622316,1.019367244586387
-3.933,-2.322684258202921,1.125333628638062
-3.9325,-1.693143941599645,0.9134008605347127
-3.932,-0.8928808272734472,0.6060983467848571
-3.9315,-0.2633405106701714,0.4047622170866759
-3.931,0.1207857842064037,0.3411823866556712
-3.9305,0.3021787567870086,0.383568940276341
-3.93,0.3555296310754218,0.5001319627331828
-3.9295,0.3448594562177392,0.6590815388106942
-3.929,0.3235191065023739,0.8074344764830383
-3.9285,0.3128489316446912,0.9451907757502149
-3.928,0.3128489316446912,1.051157159801889
-3.9275,0.3341892813600565,1.135930267043229
-3.927,0.6649647019482183,0.9981739677760521
-3.9265,1.209143619690033,0.383568940276341
-3.926,0.8463576745288233,-0.326405832869877
-3.9255,0.04609456020262521,-0.6654982618352349
-3.925,0.01408403562957729,-0.252229364033705
-3.9245,0.291508581929326,0.2564092794143318
-3.924,0.5155822539406614,0.6378882620003594
-3.9235,0.5796033030867573,0.8180311148882058
-3.923,0.3768699807907871,0.6484849004055269
-3.9225,0.408880505363835,0.6802748156210291
-3.922,-0.4020527838200457,-0.1886495336027004
-3.9215,-0.1779791118087102,-0.1992461720078678
-3.921,0.142126133921769,-0.1038764263613609
-3.9205,0.2701682322139607,-0.05089323433552374
-3.92,0.3661998059331045,0.03387987290581572
-3.9195,0.3235191065023739,0.01268659609548085
-3.919,0.1741366584948169,0.02328323450064829
-3.9185,-0.4980843575391895,0.5637117931641874
-3.918,-1.479740444445993,1.326669758336243
-3.9175,-2.258663209056825,1.920081509025619
-3.917,-2.877533350802418,1.920081509025619
-3.9165,-2.941554399948514,0.9028042221295453
-3.916,-2.023919362187807,0.2034260873884947
-3.9155,-1.052933450138687,-0.008506680714854012
-3.915,-0.3166913849585846,0.04447651131098315
-3.9145,0.1314559590640864,0.2034260873884947
-3.914,0.3341892813600565,0.383568940276341
-3.9135,0.3875401556484697,0.55311515475902
-3.913,0.3768699807907871,0.6908714540261965
-3.9125,0.3448594562177392,0.7968378380778709
-3.912,0.3128489316446912,0.8710143069140429
-3.9115,0.3021787567870086,0.92399749893988
-3.911,0.3235191065023739,0.9451907757502149
-3.9105,0.3875401556484697,0.8922075837243778
-3.91,0.5262524287983441,0.3305857482505039
-3.9095,0.3982103305061524,-0.3370024712750445
-3.909,0.03542438534494258,-0.6760949002404023
-3.9085,0.1207857842064037,-0.4535654937318862
-3.908,0.5049120790829789,0.02328323450064829
-3.9075,0.7609962756673623,0.2458126410091644
-3.907,0.825017324813458,0.3729723018711736
-3.9065,0.7396559259519968,0.457745409112513
-3.906,0.5902734779444399,0.4365521323021782
-3.9055,0.4515612047945656,0.3729723018711736
-3.905,0.408880505363835,0.2987958330350016
-3.9045,0.4835717293676135,0.2776025562246667
-3.904,0.4302208550792003,0.1822328105781598
-3.9035,0.2594980573562781,0.01268659609548085
-3.903,0.2594980573562781,0.002089957690313421
-3.9025,-0.3166913849585846,-0.5383386009732256
-3.902,-0.5941159312583333,-0.5807251545938954
-3.9015,-1.074273799854052,-0.2734226408440398
-3.901,-1.682473766741963,-0.4853554089473885
-3.9005,-2.03458953704549,-0.9939940523954253
-3.9,-2.482736881068161,-0.5383386009732256
-3.8995,-2.408045657064382,0.1504428953626575
-3.899,-1.629122892453549,0.3623756634660061
-3.8985,-0.7861790786966207,0.3623756634660061
-3.898,-0.1779791118087102,0.3199891098453364
-3.8975,0.1848068333524996,0.309392471440169
-3.897,0.3448594562177392,0.3623756634660061
-3.8965,0.3875401556484697,0.457745409112513
-3.896,0.3661998059331045,0.5743084315693548
-3.8955,0.3341892813600565,0.6908714540261965
-3.895,0.3235191065023739,0.7968378380778709
-3.8945,0.3235191065023739,0.8922075837243778
-3.894,0.3768699807907871,0.9557874141553824
-3.8935,0.8783681991018712,0.6378882620003594
-3.893,1.262494493978446,-0.1674562567923655
-3.8925,0.5049120790829789,-0.9410108603695881
-3.892,-0.124628237520297,-0.9728007755850904
-3.8915,0.08877525963335578,-0.2734226408440398
-3.891,0.4515612047945656,0.1080563417419877
-3.8905,0.6542945270905358,0.2564092794143318
-3.89,0.6542945270905358,0.309392471440169
-3.8895,0.5796033030867573,0.309392471440169
-3.889,0.4622313796522482,0.2670059178194992
-3.8885,0.3875401556484697,0.2458126410091644
-3.888,0.4942419042252961,0.3729723018711736
-3.8875,0.5049120790829789,0.383568940276341
-3.887,0.4302208550792003,0.3305857482505039
-3.8865,0.3448594562177392,0.2670059178194992
-3.886,0.2808384070716433,0.2352160026039969
-3.8855,0.1101156093487211,0.3517790250608387
