Class_4_Move_right_hand_Horiszontal/Class_4_Move_right_hand_Horiszontal_UZ_11.csv

#Digilent WaveForms Oscilloscope Acquisition
#Device Name: EExplorer
#Serial Number: SN:210151A2B84A
#Date Time: 2021-01-18 13:48:01.755
#Sample rate: 2000Hz
#Samples: 16384
#Trigger: Source: Channel 1 Type: Edge Condition: Rising Level: 0 V Hyst.: Auto HoldOff: 0 s
#Channel 1: Range: 1 V/div Offset: 0 V Attenuation: 1 X
#Channel 2: Range: 1 V/div Offset: 0 V Attenuation: 1 X
#Power Supplies: ON
#Fixed Supply: ON
#Voltage: 3.3 V Readback: 3.322 V
#Positive Supply: ON
#Voltage: 3.7 V Readback: 3.707 V
#Current: 40 mA Readback: 24 mA
#Negative Supply: ON
#Voltage: -3.7 V Readback: -4.047 V
#Current: -40 mA Readback: -6 mA
#Reference 1: ON
#Voltage: 0 V
#Reference 2: ON
#Voltage: 0 V

Time (s),Channel 1 (V),Channel 2 (V)
-4.096,0.07810508477567314,0.9981739677760521
-4.0955,0.07810508477567314,0.9239974989399475
-4.095,0.04609456020260581,0.8180311148880901
-4.0945,0.02475421048725994,0.6908714540261965
-4.094,0.014084035629587,0.5743084315694609
-4.0935,0.02475421048730846,0.4683420475176323
-4.093,0.07810508477567314,0.4153588554918433
-4.0925,0.5049120790825907,0.4047622170866855
-4.092,1.123782220828786,-0.2310360872241026
-4.0915,1.35852606769759,-1.036380606016095
-4.091,1.443887466559051,-1.174136905283272
-4.0905,1.422547116843492,-0.3370024712743795
-4.09,1.209143619690033,0.3941655786815084
-4.0895,0.8356874996711408,0.5319218779486851
-4.089,0.5796033030869903,0.4895353243280539
-4.0885,0.2168173579255475,0.1928294489833272
-4.088,-0.572775581542968,-0.6125150698093976
-4.0875,-0.5087545323969302,-0.60191843140424
-4.087,-0.4447334832506501,-0.7502713690765165
-4.0865,-0.3060212101009019,-0.6866915386455698
-4.086,-0.1352984123781349,-0.3793890248959936
-4.0855,-0.08194753808954706,-0.1356663415766608
-4.085,-0.06060718837420119,0.08686306493165288
-4.0845,-0.1886492866662765,0.1080563417419685
-4.084,-0.9462317015623359,-0.5913217929997567
-4.0835,-1.46907026958831,-1.354279758171118
-4.083,-1.565101843307454,-1.809935209593318
-4.0825,-1.447729919872547,-1.799338571187476
-4.082,-1.010252750707956,-1.05757388282643
-4.0815,-0.5621054066852853,-0.2098428104130352
-4.081,-0.2313299860974243,0.4471487707067481
-4.0805,-0.03926683865883591,0.8180311148882058
-4.08,0.04609456020262521,0.9769806909657173
-4.0795,0.0674349099179711,0.9875773293708751
-4.079,0.05676473506028845,0.9239974989397837
-4.0785,0.03542438534494258,0.8180311148882058
-4.078,0.02475421048726964,0.6908714540263122
-4.0775,0.01408403562957729,0.5637117931640814
-4.077,0.01408403562957729,0.4471487707073456
-4.0765,0.02475421048725023,0.3517790250609254
-4.076,0.195477008210813,0.1610395337672177
-4.0755,0.8890383739595538,-0.5065486857577234
-4.075,1.433217291701369,-1.301296566145281
-4.0745,1.529248865420503,-1.619195718299562
-4.074,1.51857869056283,-0.8032545611024114
-4.0735,1.326515543124542,0.2034260873884947
-4.073,1.006410297394354,0.6272916235948065
-4.0725,0.6649647019482183,0.627291623595192
-4.072,0.3555296310754218,0.4047622170866759
-4.0715,0.152796308779636,0.1610395337680466
-4.071,0.0247542104871823,-0.04029659593039486
-4.0705,-0.06060718837420119,-0.08268314955102604
-4.07,-0.1139580626625659,0.002089957690236316
-4.0695,-0.1993194615239882,-0.0720865111457815
-4.069,-0.1032878878049318,0.01268659609548085
-4.0685,-0.09261771294724913,0.06566978812131802
-4.068,-0.103287887805252,0.09745970333655046
-4.0675,-0.4554036581084589,-0.1992461720078678
-4.067,-1.170305373573196,-0.8244478379127463
-4.0665,-1.661133417026597,-1.343683119765979
-4.066,-1.661133417026597,-1.375473034981453
-4.0655,-1.202315898146244,-0.7396747306714069
-4.065,-0.7114878546932887,-0.02969995752583454
-4.0645,-0.3807124341046804,0.4789386859228479
-4.064,-0.1779791118087102,0.7968378380778709
-4.0635,-0.743498379265376,0.277602556225139
-4.063,-0.5941159312582265,0.4259554938970782
-4.0625,-0.4767440078238243,0.5001319627331828
-4.062,-0.3060212101010572,0.6060983467847607
-4.0615,-0.09261771294716178,0.7226613692416892
-4.061,0.00341386077189465,0.7120647308365314
-4.0605,0.00341386077189465,0.6060983467848571
-4.06,0.003413860771962581,0.4895353243279093
-4.0595,0.07810508477567314,0.3729723018711736
-4.059,0.6649647019482183,-0.06148987274069118
-4.0585,1.43321729170067,-1.057573882825524
-4.058,1.806673411720261,-1.968884785670829
-4.0575,1.828013761435626,-1.608599079895136
-4.057,1.582599739709149,-0.5383386009741991
-4.0565,1.19847344483235,0.09745970333682032
-4.056,0.8143471499557753,0.2987958330350016
-4.0555,0.4729015545102414,0.2564092794143703
-4.055,0.2274875327830845,0.1186529801470106
-4.0545,0.0674349099179905,-0.04029659593035631
-4.054,-0.03926683865873887,-0.1886495336025655
-4.0535,-0.2099896363817873,-0.3899856633008431
-4.053,-0.2420001609548061,-0.3475991096802118
-4.0525,-0.1886492866663929,-0.1780528951975329
-4.052,-0.1246282375202582,0.01268659609563506
-4.0515,-0.08194753808956648,0.1822328105781598
-4.051,-0.2526703358124887,0.08686306493165288
-4.0505,-0.9248913518458839,-0.591321792998446
-4.05,-1.597112367880501,-1.322489842955616
-4.0495,-1.789175515318789,-1.735758740757146
-4.049,-1.469070269588601,-1.396666311792096
-4.0485,-0.9248913518460682,-0.6125150698087519
-4.048,-0.4554036581084589,0.09745970333682032
-4.0475,-0.1566387620936167,0.5743084315689212
-4.047,0.003413860771943172,0.8286277532934406
-4.0465,0.05676473506030786,0.9028042221295453
-4.046,0.05676473506030786,0.8816109453192297
-4.0455,0.04609456020260581,0.8074344764829516
-4.045,0.02475421048725994,0.7120647308365314
-4.0445,0.01408403562957729,0.6060983467848571
-4.044,0.003413860771884946,0.5107286011382538
-4.0435,-0.007256314085787988,0.4047622170866759
-4.043,-0.007256314085787988,0.309392471440169
-4.0425,0.4408910299364754,0.1716361721731176
-4.042,1.081101521397841,-0.5171453241628908
-4.0415,1.379866417412955,-1.248313374119443
-4.041,1.411876941985974,-1.248313374119443
-4.0405,1.326515543124329,-0.3370024712743988
-4.04,1.091771696255524,0.3729723018711736
-4.0395,0.782336625383009,0.5743084315691718
-4.039,0.4729015545096301,0.4577454091122625
-4.0385,0.142126133921769,0.1822328105781598
-4.038,0.04609456020271256,0.05507314971626623
-4.0375,-0.03926683865898148,-0.0614898727405948
-4.037,-0.1993194615240755,0.04447651131098315
-4.0365,-0.2526703358124887,0.1186529801471552
-4.036,-0.2099896363816999,0.1186529801471456
-4.0355,-0.1459685872356623,0.1080563417419877
-4.035,-0.09261771294724913,0.1292496185523226
-4.0345,-0.1459685872356138,0.1186529801471648
-4.034,-0.7434983792658902,-0.4535654937318862
-4.0335,-1.298347471865388,-1.025783967610927
-4.033,-1.650463242168595,-1.481439419032713
-4.0325,-1.885207089037778,-1.619195718300024
-4.032,-1.714484291315011,-1.311893204550448
-4.0315,-1.159635198716018,-0.5595318777842447
-4.031,-0.6261264558310319,0.1504428953631105
-4.0305,-0.2420001609548061,0.6484849004055269
-4.03,-0.03926683865902028,0.902804222129314
-4.0295,0.05676473506025934,0.9875773293708172
-4.029,0.00341386077189465,0.9134008605347127
-4.0285,0.03542438534494258,0.8710143069140429
-4.028,0.01408403562925705,0.7650479228619638
-4.0275,-0.3380317346739499,0.3199891098453364
-4.027,-0.6794773301197943,-0.1250697031716958
-4.0265,-0.5514352318277193,-0.08268314955106459
-4.026,-0.2099896363817582,-0.2310360872233701
-4.0255,0.6756348768059011,-0.9198175835592532
-4.025,1.219813794547221,-1.70396882554093
-4.0245,1.422547116843734,-2.149027638558049
-4.024,1.475897991132099,-1.460246142222792
-4.0235,1.347855892840024,-0.2840192792502771
-4.023,1.038420821966771,0.3729723018712989
-4.0225,0.6649647019482183,0.5107286011383502
-4.022,0.3768699807910491,0.3941655786816144
-4.0215,0.1741366584947102,0.1822328105779863
-4.021,0.05676473506030786,-0.008506680714854012
-4.0205,-0.04993701351651855,-0.1038764263613609
-4.02,-0.1246282375202873,-0.1356663415768439
-4.0195,-0.1139580626626144,-0.1144730647665284
-4.019,-0.09261771294724913,-0.07208651114585861
-4.0185,-0.07127736323190323,-0.02969995752522743
-4.018,-0.09261771294724913,-0.05089323433552374
-4.0175,-0.4874141826815069,-0.5171453241628908
-4.017,-1.052933450138173,-1.301296566144567
-4.0165,-1.319687821581112,-1.958288147266066
-4.016,-1.714484291315011,-2.403346960282694
-4.0155,-1.778505340461048,-2.149027638558907
-4.015,-1.309017646722566,-1.216523458903084
-4.0145,-0.754168554123573,-0.2734226408440398
-4.014,-0.3273615598166554,0.404762217086059
-4.0135,-0.07127736323178678,0.7968378380780348
-4.013,0.03542438534494258,0.9769806909657173
-4.0125,0.07810508477567314,1.00877060618122
-4.012,0.06743490991797109,0.9769806909656498
-4.0115,0.04609456020262521,0.9028042221295453
-4.011,0.02475421048725994,0.8180311148882058
-4.0105,0.014084035629587,0.7226613692417856
-4.01,0.02475421048725994,0.6590815388106942
-4.0095,0.0674349099179905,0.5849050699745222
-4.009,0.5155822539402538,0.03387987290631689
-4.0085,0.9423892482482096,-0.8032545611029126
-4.008,1.209143619690033,-1.354279758171118
-4.0075,1.422547116843492,-0.782061284292597
-4.007,1.358526067697347,0.1822328105785934
-4.0065,1.091771696255524,0.6590815388106942
-4.006,0.79300680024041,0.7226613692416989
-4.0055,0.3448594562169725,0.3411823866548617
-4.005,-0.4980843575391895,-0.5489352393783931
-4.0045,-0.4767440078238243,-0.6337083466197325
-4.004,-0.466073832966161,-0.6654982618352445
-4.0035,-0.4874141826815069,-0.6760949002404023
-4.003,-0.3273615598162672,-0.4641621321370536
-4.0025,-0.2313299860972108,-0.2734226408442133
-4.002,-0.1459685872356623,-0.08268314955102604
-4.0015,-0.09261771294724913,0.08686306493165288
-4.001,-0.3166913849583808,-0.1038764263611874
-4.0005,-1.031593100423894,-0.8668343915341485
-4,-1.661133417026597,-1.672178910326141
-3.9995,-1.970568487899394,-2.180817553774178
-3.999,-2.141291285622316,-2.25499402261035
-3.9985,-1.67180359188428,-1.47084278062796
-3.998,-1.010252750707956,-0.4641621321370536
-3.9975,-0.4767440078238243,0.3411823866556712
-3.997,-0.1352984123779797,0.8180311148882058
-3.9965,0.03542438534494258,1.040560521396722
-3.996,0.08877525963335578,1.082947075017392
-3.9955,0.08877525963335578,1.019367244586387
-3.995,0.0674349099179905,0.9028042221295453
-3.9945,0.04609456020262521,0.7650479228623686
-3.994,0.03542438534494258,0.6484849004055269
-3.9935,0.03542438534494258,0.5319218779486851
-3.993,0.07810508477567314,0.4471487707073456
-3.9925,0.5475927785137094,0.4047622170866759
-3.992,1.049090996824793,-0.02969995752518888
-3.9915,1.294505018551494,-0.8244478379127463
-3.991,1.497238340847464,-0.792657922697244
-3.9905,1.497238340847464,0.06566978812131802
-3.99,1.262494493978446,0.6696781772158616
-3.9895,0.8783681991018712,0.7120647308365314
-3.989,0.5155822539406614,0.4683420475176805
-3.9885,0.2381577076409128,0.1716361721729923
-3.988,0.0674349099179905,-0.02969995752518888
-3.9875,-0.007256314085787988,-0.1568596183871981
-3.987,-0.07127736323188383,-0.2840192792492073
-3.9865,-0.06060718837420119,-0.252229364033705
-3.986,-0.02859666380115328,-0.1144730647665284
-3.9855,-0.02859666380115328,0.02328323450064829
-3.985,-0.03926683865883591,0.1504428953626575
-3.9845,-0.2206598112394408,0.08686306493165288
-3.984,-0.8928808272734472,-0.474758770542221
-3.9835,-1.46907026958831,-1.089363798041932
-3.983,-1.735824641030376,-1.502632695843462
-3.9825,-2.002579012472442,-1.703968825541643
-3.982,-1.586442193022819,-1.121153713257435
-3.9815,-1.116954499284783,-0.4429688553267188
-3.981,-1.223656247861609,-0.3687923864905467
-3.9805,-0.7755089038389382,0.1716361721729923
-3.98,-0.4554036581084589,0.5107286011383502
-3.9795,-0.1886492866663929,0.7438546460520338
-3.979,0.02475421048725994,0.8922075837243778
-3.9785,0.05676473506030786,0.8392243916985406
-3.978,0.03542438534494258,0.7226613692416989
-3.9775,0.02475421048725994,0.5955017083796896
-3.977,0.01408403562957729,0.4683420475176805
-3.9765,0.02475421048725994,0.3729723018711736
-3.976,0.291508581929326,0.3941655786815084
-3.9755,0.9103787236749192,0.5425185163538525
-3.975,1.187803269974668,-0.1992461720078678
-3.9745,1.305175193409177,-0.8244478379127463
-3.974,1.283834843693812,-0.4111789401112165
-3.9735,1.113112045970889,0.1186529801471552
-3.973,0.8463576745288233,0.3411823866556712
-3.9725,0.5689331282290746,0.3305857482505039
-3.972,0.3235191065023739,0.1928294489833272
-3.9715,0.1634664836371343,0.05507314971615059
-3.971,0.07810508477567314,-0.06148987274069118
-3.9705,-0.03926683865883591,-0.008506680714854012
-3.97,-0.1139580626626144,0.08686306493165288
-3.9695,-0.1139580626626144,0.13984625695749
-3.969,-0.08194753808956648,0.2140227257936621
-3.9685,-0.06060718837420119,0.2987958330350016
-3.968,-0.1032878878049318,0.3305857482505039
-3.9675,-0.4980843575391895,-0.07208651114585861
-3.967,-0.9675720512772257,-0.718481453861072
-3.9665,-1.180975548430879,-1.205926820498774
-3.966,-1.383708870726849,-1.407262950196955
-3.9655,-1.159635198715513,-0.9092209451540858
-3.965,-0.7434983792658902,-0.1250697031716958
-3.9645,-0.3700422592469978,0.5213252395435176
-3.964,-0.124628237520297,0.92399749893988
-3.9635,0.00341386077189465,1.114736990232894
-3.963,0.05676473506030786,1.135930267043229
-3.9625,0.0674349099179905,1.061753798207057
-3.962,0.05676473506030786,0.9345941373450475
-3.9615,0.03542438534494258,0.7862411996727035
-3.961,-0.02859666380115328,0.5849050699745222
-3.9605,-0.01792648894347063,0.457745409112513
-3.96,0.01408403562957729,0.3623756634660061
-3.9595,0.03542438534494258,0.2352160026039969
-3.959,0.3341892813600565,0.1610395337678249
-3.9585,0.9210488985326017,-0.3052125560595421
-3.958,1.209143619690033,-1.131750351662602
-3.9575,1.401206767128321,-0.6972881770507372
-3.957,1.369196242555273,0.1610395337678249
-3.9565,1.038420821967111,0.4683420475176805
-3.956,0.6756348768059011,0.3729723018711736
-3.9555,0.3555296310754218,0.1822328105781598
-3.955,0.1527963087794516,0.01268659609548085
-3.9545,0.03542438534494258,-0.08268314955102604
-3.954,0.01408403562957729,-0.06148987274069118
-3.9535,0.02475421048725994,0.06566978812131802
-3.953,0.02475421048725994,0.13984625695749
-3.9525,0.01408403562957729,0.1822328105781598
-3.952,-0.007256314085787988,0.2352160026039969
-3.9515,-0.03926683865883591,0.2881991946298341
-3.951,-0.3593720843893152,-0.07208651114585861
-3.9505,-1.052933450138687,-0.9092209451540858
-3.95,-1.351698346153801,-1.502632695843462
-3.9495,-1.479740444445993,-1.778145294377815
-3.949,-1.533091318734406,-1.650985633515806
-3.9485,-1.138294849000148,-0.8774310299385835
-3.948,-0.658136980404429,-0.06148987274069118
-3.9475,-0.2846808603855366,0.5319218779486851
-3.947,-0.06060718837420119,0.8604176685088755
-3.9465,0.04609456020262521,0.9875773293708847
-3.946,0.07810508477567314,0.9769806909657173
-3.9455,0.0674349099179905,0.8922075837243778
-3.945,0.04609456020262521,0.775644561267536
-3.9445,0.03542438534494258,0.6590815388106942
-3.944,0.03542438534494258,0.55311515475902
-3.9435,0.03542438534494258,0.4471487707073456
-3.943,0.0674349099179905,0.3411823866556712
-3.9425,0.4729015545099309,-0.07208651114585861
-3.942,0.942389248247967,-0.8350444763179138
-3.9415,1.241154144263081,-1.481439419033127
-3.941,1.401206767128321,-1.227120097309109
-3.9405,1.315845368266859,-0.3687923864905467
-3.94,0.9637295979633325,0.09745970333682032
-3.9395,0.6969752265212663,0.3623756634660061
-3.939,0.1848068333524996,0.09745970333682032
-3.9385,-0.5087545323968721,-0.5277419625680583
-3.938,-0.4554036581084589,-0.5277419625680583
-3.9375,-0.3807124341046804,-0.4853554089473885
-3.937,-0.3166913849585846,-0.2840192792492073
-3.9365,-0.1993194615240755,-0.1038764263613609
-3.936,-0.1459685872356623,-0.04029659593035631
-3.9355,-0.09261771294724913,0.03387987290581572
-3.935,-0.06060718837420119,0.1080563417419877
-3.9345,-0.1352984123779797,0.06566978812131802
-3.934,-0.7328282044082075,-0.5913217929990628
-3.9335,-1.319687821580753,-1.492036057438295
-3.933,-1.490410619303675,-2.053657892912168
-3.9325,-1.244996597576974,-1.75695201756748
-3.932,-0.7861790786966207,-0.8986243067489184
-3.9315,-0.391382608962363,-0.07208651114585861
-3.931,-0.124628237520297,0.5213252395435176
-3.9305,0.01408403562957729,0.8604176685088755
-3.93,0.0674349099179905,1.00877060618122
-3.9295,0.07810508477567314,1.029963882991555
-3.929,0.05676473506030786,0.9875773293708847
-3.9285,0.04609456020262521,0.9134008605347127
-3.928,0.02475421048725994,0.8180311148882058
-3.9275,0.01408403562957729,0.7226613692416989
-3.927,0.02475421048725994,0.6484849004055269
-3.9265,0.04609456020262521,0.5849050699745222
-3.926,0.3982103305061524,0.5743084315693548
-3.9255,0.9957401225363802,-0.06148987274069118
-3.925,1.273164668836129,-0.9622041371799229
-3.9245,1.56125938999356,-1.269506650929778
-3.924,1.550589215135878,-0.6443049850249
-3.9235,1.294505018551494,-0.02969995752518888
-3.923,0.9103787236749192,0.1716361721729923
-3.9225,0.5475927785137094,0.08686306493165288
-3.922,0.2808384070716433,-0.08268314955102604
-3.9215,0.1314559590640864,-0.1780528951975329
-3.921,0.03542438534494258,-0.2098428104130352
-3.9205,-0.09261771294724913,-0.2098428104130352
-3.92,-0.1139580626626144,-0.1250697031716958
-3.9195,-0.1032878878049318,-0.06148987274069118
-3.919,-0.08194753808956648,-0.008506680714854012
-3.9185,-0.07127736323188383,0.07626642652648545
-3.918,-0.1459685872356623,0.04447651131098315
-3.9175,-0.7114878546928423,-0.4323722169215513
-3.917,-1.277007122150022,-1.05757388282643
-3.9165,-1.757164990745741,-1.523825972653797
-3.916,-2.023919362187807,-1.725162102351978
-3.9155,-1.554431668449771,-1.089363798041932
-3.915,-0.9889124009925911,-0.3158091944647096
-3.9145,-1.052933450138687,-0.2098428104130352
-3.914,-0.7968492535543035,0.13984625695749
-3.9135,-0.4980843575391895,0.4895353243280153
-3.913,-0.274010685527854,0.7120647308365314
-3.9125,-0.03926683865883591,0.9028042221295453
-3.912,0.05676473506030786,0.9345941373450475
-3.9115,0.03542438534494258,0.8392243916985406
-3.911,0.02475421048725994,0.7332580076468663
-3.9105,0.02475421048725994,0.627291623595192
-3.91,0.02475421048725994,0.5319218779486851
-3.9095,0.1101156093487211,0.3941655786815084
-3.909,0.6329541773751706,0.13984625695749
-3.9085,1.123782220828572,-0.7290780922662394
-3.908,1.475897991132099,-1.608599079895136
-3.9075,1.593269914566608,-1.322489842955616
-3.907,1.422547116843686,-0.5065486857577234
-3.9065,1.070431346540159,0.002089957690313421
-3.906,0.6969752265212663,0.2140227257936621
-3.9055,0.3875401556484697,0.2246193641988295
-3.905,0.1741366584948169,0.1186529801471552
-3.9045,0.04609456020262521,-0.008506680714854012
-3.904,-0.04993701351651855,-0.1674562567923655
-3.9035,-0.1352984123779797,-0.3052125560595421
-3.903,-0.1352984123779797,-0.2416327256285375
-3.9025,-0.1032878878049318,-0.1038764263613609
-3.902,-0.07127736323188383,0.04447651131098315
-3.9015,-0.07127736323188383,0.1610395337678249
-3.901,-0.4660738329661415,-0.1356663415768632
-3.9005,-1.244996597576974,-0.8668343915334161
-3.9,-1.799845690176472,-1.502632695843462
-3.8995,-2.151961460479999,-1.894708316834657
-3.899,-2.023919362187807,-1.661582271920973
-3.8985,-1.373038695869166,-0.8456411147230812
-3.898,-0.7434983792658902,-0.04029659593035631
-3.8975,-0.2953510352432193,0.5213252395435176
-3.897,-0.03926683865883591,0.8286277532933731
-3.8965,0.0674349099179905,0.9451907757502149
-3.896,0.09944543449103843,0.9345941373450475
-3.8955,0.07810508477567314,0.8604176685088755
-3.895,0.05676473506030786,0.7544512844572011
-3.8945,-0.02859666380115328,0.5849050699745222
-3.894,0.01408403562957729,0.5425185163538525
-3.8935,-0.007256314085787988,0.4153588554918433
-3.893,-0.4020527838200457,-0.09327978795619347
-3.8925,-0.2953510352432193,-0.3687923864905467
-3.892,0.4195506802215176,-0.7608680074817418
-3.8915,1.070431346540159,-1.545019249464132
-3.891,1.51857869056283,-1.354279758171118
-3.8905,1.550589215135878,-0.400582301706049
-3.89,1.262494493978446,0.2670059178194992
-3.8895,0.8997085488172365,0.4895353243280153
-3.889,0.5369226036560266,0.4153588554918433
-3.8885,0.2488278824985954,0.2140227257936621
