Class_4_Move_right_hand_Horiszontal/Class_4_Move_right_hand_Horiszontal_SH_2.csv

#Digilent WaveForms Oscilloscope Acquisition
#Device Name: EExplorer
#Serial Number: SN:210151A2B84A
#Date Time: 2020-11-25 11:36:09.892
#Sample rate: 2000Hz
#Samples: 16384
#Trigger: Source: Channel 1 Type: Edge Condition: Rising Level: 0 V Hyst.: Auto HoldOff: 0 s
#Channel 1: Range: 1 V/div Offset: 0 V Attenuation: 1 X
#Channel 2: Range: 1 V/div Offset: 0 V Attenuation: 1 X
#Power Supplies: ON
#Fixed Supply: ON
#Voltage: 3.3 V Readback: 3.322 V
#Positive Supply: ON
#Voltage: 3.7 V Readback: 3.711 V
#Current: 40 mA Readback: 19 mA
#Negative Supply: ON
#Voltage: -3.7 V Readback: -3.345 V
#Current: -40 mA Readback: -8 mA
#Reference 1: ON
#Voltage: 0 V
#Reference 2: ON
#Voltage: 0 V

Time (s),Channel 1 (V),Channel 2 (V)
-4.096,0.1314559590640864,0.8074344764830383
-4.0955,-0.5194247072539628,0.8604176685088273
-4.095,-1.127624674142795,0.2246193641980392
-4.0945,-1.490410619303675,-0.6443049850249
-4.094,-1.714484291314807,-1.068170521231212
-4.0935,-1.44772991987244,-0.7608680074812791
-4.093,-0.8928808272734472,-0.252229364033705
-4.0925,-0.2846808603860898,0.06566978812102892
-4.092,0.1954770082104442,0.09745970333678176
-4.0915,0.4835717293676135,0.05507314971615059
-4.091,0.6116138276598051,-0.02969995752518888
-4.0905,0.718315576236748,-0.1568596183872752
-4.09,0.8463576745288233,-0.2416327256285375
-4.0895,0.7823366253827275,-0.1886495336027004
-4.089,0.6649647019483251,-0.09327978795628021
-4.0885,0.5369226036560266,0.03387987290581572
-4.088,0.4622313796522482,0.13984625695749
-4.0875,0.3982103305062106,-0.04029659593019247
-4.087,0.4515612047940415,-0.1144730647669717
-4.0865,-0.124628237520297,-0.6019184314042303
-4.086,-0.7861790786960191,-1.078767159636331
-4.0855,-0.8181896032693678,-0.8668343915329053
-4.085,-0.4874141826815069,-0.3052125560595421
-4.0845,-0.1352984123782999,0.2352160026035055
-4.084,0.120785784206559,0.6378882620005811
-4.0835,0.291508581929326,0.8816109453192104
-4.083,0.3555296310754218,1.00877060618122
-4.0825,0.3661998059331045,1.040560521396722
-4.082,0.3661998059331045,1.040560521396722
-4.0815,0.3448594562177392,1.019367244586387
-4.081,0.3128489316447204,0.9769806909657558
-4.0805,0.2594980573562781,0.9451907757502149
-4.08,0.2168173579255475,0.92399749893988
-4.0795,0.08877525963347224,0.8286277532934598
-4.079,-0.4660738329667141,0.2246193641980296
-4.0785,-1.095614149569417,-0.6549016234300674
-4.078,-1.533091318734008,-1.354279758170482
-4.0775,-1.703814116457008,-1.364876396575804
-4.077,-1.351698346153801,-0.8350444763179138
-4.0765,-0.7008176798357517,-0.2946159176548662
-4.076,-0.1352984123776109,0.01268659609558687
-4.0755,0.2701682322139607,0.1292496185523226
-4.075,0.4942419042252961,0.02328323450064829
-4.0745,0.6009436528021614,-0.125069703171744
-4.074,0.6436243522328531,-0.1780528951975329
-4.0735,0.79300680024041,-0.1250697031716958
-4.073,0.79300680024041,-0.1250697031716958
-4.0725,0.6863050516635838,-0.1144730647665284
-4.072,0.5689331282290746,-0.07208651114585861
-4.0715,0.504912079083037,-0.01910331912006964
-4.071,0.4088805053637671,-0.1144730647669524
-4.0705,0.3341892813600565,-0.5807251545938954
-4.07,-0.1032878878045339,-1.110557074851785
-4.0695,-0.8075194284124226,-1.481439419033118
-4.069,-1.287677297007705,-1.47084278062796
-4.0685,-1.074273799854052,-0.8032545611024114
-4.068,-0.5941159312579354,0.03387987290641325
-4.0675,-0.156638762093345,0.6908714540261965
-4.067,0.1527963087794516,1.125333628638062
-4.0665,0.3235191065024224,1.337266396741458
-4.066,0.3768699807907871,1.390249588767247
-4.0655,0.3875401556484697,1.358459673551745
-4.065,0.3661998059331239,1.273686566310482
-4.0645,0.3341892813600565,1.167720182258731
-4.064,0.3021787567870086,1.051157159801889
-4.0635,0.2808384070716627,0.9451907757503113
-4.063,0.2274875327830069,0.8286277532931611
-4.0625,-0.01792648894347063,0.5955017083796896
-4.062,-0.295351035242967,0.3305857482507448
-4.0615,-0.7755089038393846,-0.4005823017067044
-4.061,-1.26633694729234,-1.121153713257435
-4.0605,-1.479740444445993,-1.269506650929778
-4.06,-1.17030537357272,-0.8244478379123127
-4.0595,-0.6474668055467465,-0.3475991096802118
-4.059,-0.1459685872356623,-0.1038764263613609
-4.0585,0.2274875327828904,-0.05089323433557193
-4.058,0.4515612047945656,-0.1462629799820306
-4.0575,0.5369226036560266,-0.252229364033705
-4.057,0.654294527090429,-0.2734226408440206
-4.0565,0.707645401378949,-0.252229364033705
-4.056,0.6969752265212663,-0.2416327256285375
-4.0555,0.6863050516635935,-0.2628260024388531
-4.055,0.6863050516635062,-0.3158091944647096
-4.0545,0.6009436528021226,-0.3158091944647096
-4.054,0.4942419042253932,-0.5171453241627078
-4.0535,0.3448594562171181,-0.8138511995079547
-4.053,-0.3380317346739499,-1.227120097309109
-4.0525,-0.9995825758502737,-1.502632695843462
-4.052,-1.170305373572866,-1.269506650929094
-4.0515,-0.807519428411986,-0.5171453241628908
-4.051,-0.3487019095316325,0.2352160026039969
-4.0505,0.02475421048692028,0.7968378380773602
-4.05,0.2488278824985954,1.135930267043229
-4.0495,0.3448594562177392,1.284283204715573
-4.049,0.3875401556484309,1.316073119931046
-4.0485,0.3768699807907677,1.273686566310328
-4.048,0.3555296310754218,1.188913459069066
-4.0475,0.334189281360076,1.104140351827804
-4.047,0.2915085819291998,1.008770606181162
-4.0465,0.1527963087794516,0.9451907757502149
-4.046,-0.1352984123777176,0.6908714540264278
-4.0455,-0.5727755815434145,0.002089957689580964
-4.045,-1.06360362499637,-0.8032545611024114
-4.0445,-1.447729919872945,-1.407262950196955
-4.044,-1.341028171295701,-1.301296566144818
-4.0435,-0.8822106524157645,-0.792657922697244
-4.043,-0.3700422592469978,-0.2840192792492073
-4.0425,0.0674349099175926,-0.008506680715104575
-4.042,0.3448594562177392,0.01268659609548085
-4.0415,0.4942419042252961,-0.05089323433552374
-4.041,0.5475927785136608,-0.1992461720077329
-4.0405,0.6116138276599119,-0.3475991096802022
-4.04,0.7289857510943143,-0.3370024712750445
-4.0395,0.7396559259519871,-0.2098428104131509
-4.039,0.664964701948131,-0.09327978795608746
-4.0385,0.5689331282290746,0.02328323450064829
-4.038,0.4942419042253641,0.1504428953625418
-4.0375,0.7503261008099706,0.4577454091128697
-4.037,1.070431346540159,0.849821030103708
-4.0365,0.5155822539406614,0.3305857482505039
-4.036,-0.4020527838205212,-0.5171453241632763
-4.0355,-0.9248913518464952,-0.9410108603695881
-4.035,-0.7755089038389382,-0.6231117082145651
-4.0345,-0.4020527838203854,-0.0402965959308863
-4.034,-0.04993701351651855,0.4895353243280153
-4.0335,0.1848068333524996,0.8604176685088755
-4.033,0.3128489316445748,1.082947075017189
-4.0325,0.3661998059331142,1.199510097474272
-4.032,0.3768699807907871,1.241896651094903
-4.0315,0.3555296310754412,1.220703374284587
-4.031,0.3128489316446718,1.188913459069027
-4.0305,0.291508581929326,1.146526905448396
-4.03,0.2594980573563072,1.093543713422607
-4.0295,0.110115609348197,0.9663840525599523
-4.029,-0.4660738329661415,0.309392471440169
-4.0285,-1.074273799854052,-0.5913217929990628
-4.028,-1.469070269588591,-1.333086481361033
-4.0275,-1.778505340461106,-1.608599079895136
-4.027,-1.586442193022819,-1.174136905283272
-4.0265,-1.084943974712191,-0.5807251545944351
-4.026,-0.5194247072545548,-0.1250697031716958
-4.0255,-0.02859666380115328,0.02328323450064829
-4.025,0.2808384070713619,-0.01910331911998289
-4.0245,0.4729015545100279,-0.1356663415769885
-4.024,0.5796033030867573,-0.2734226408440398
-4.0235,0.7076454013788326,-0.36879238649046
-4.023,0.6969752265211887,-0.2734226408439145
-4.0225,0.6116138276598051,-0.1356663415768632
-4.022,0.5369226036560946,-0.06148987274075864
-4.0215,0.5262524287984509,-0.08268314955082365
-4.021,0.6436243522328531,0.13984625695749
-4.0205,1.251824319120764,0.7968378380778709
-4.02,1.27316466883544,0.7544512844564976
-4.0195,0.5155822539406614,-0.01910331912002144
-4.019,-0.007256314085787988,-0.4323722169215513
-4.0185,-0.1139580626625174,-0.2840192792493422
-4.018,-0.02859666380115328,0.06566978812131802
-4.0175,0.1101156093487211,0.4153588554918433
-4.017,0.2274875327831234,0.6802748156207882
-4.0165,0.2915085819293551,0.8498210301038044
-4.016,0.3235191065023739,0.9557874141553824
-4.0155,0.3341892813600468,1.008770606181171
-4.015,0.3341892813600468,1.019367244586397
-4.0145,0.3235191065023739,1.029963882991555
-4.014,0.312848931644701,1.019367244586397
-4.0135,0.2808384070716045,0.9981739677760424
-4.013,0.2381577076409128,0.9875773293708847
-4.0125,-0.03926683865883591,0.7862411996727035
-4.012,-0.327361559816704,0.3729723018704411
-4.0115,-0.807519428411986,-0.4323722169215513
-4.011,-1.148965023857831,-1.01518732920576
-4.0105,-1.07427379985412,-0.9304142219644977
-4.01,-0.658136980404429,-0.570128516188728
-4.0095,-0.2099896363817582,-0.2204394488182027
-4.009,0.1634664836367946,-0.01910331912020455
-4.0085,0.3875401556485765,-0.01910331912007927
-4.008,0.5049120790829789,-0.08268314955102604
-4.0075,0.5262524287983247,-0.1568596183871306
-4.007,0.611613827659844,-0.3475991096802408
-4.0065,0.6542945270905358,-0.3793890248957141
-4.006,0.5902734779444399,-0.2416327256285375
-4.0055,0.50491207908294,-0.07208651114570441
-4.005,0.4622313796522482,0.09745970333682032
-4.0045,0.4622313796522482,0.1822328105781598
-4.004,0.8890383739595149,0.04447651131064584
-4.0035,0.8463576745288233,-0.326405832869877
-4.003,0.0674349099179905,-0.9092209451540858
-4.0025,-0.7114878546921338,-1.354279758170713
-4.002,-0.9569018764195432,-1.248313374119443
-4.0015,-0.690147504977477,-0.6019184314042303
-4.001,-0.2953510352435784,0.07626642652586857
-4.0005,0.02475421048745402,0.5849050699747921
-4,0.2381577076409128,0.8816109453192104
-3.9995,0.3341892813600565,0.9981739677760521
-3.999,0.3661998059331045,1.019367244586387
-3.9985,0.3661998059331045,0.9663840525605498
-3.998,0.3448594562177392,0.8922075837243778
-3.9975,0.3341892813600565,0.8074344764830383
-3.997,0.3021787567870086,0.7226613692416989
-3.9965,0.2808384070716433,0.627291623595192
-3.996,0.02475421048725994,0.2881991946298341
-3.9955,-0.6474668055467465,-0.4535654937318862
-3.995,-1.159635198715513,-1.205926820498774
-3.9945,-1.394379045584531,-1.672178910326141
-3.994,-1.191645723288561,-1.322489842955616
-3.9935,-0.7114878546928423,-0.6443049850249
-3.993,-0.2633405106701714,-0.1144730647665284
-3.9925,0.1207857842064037,0.1186529801471552
-3.992,0.3448594562177392,0.1822328105781598
-3.9915,0.4622313796522482,0.08686306493165288
-3.991,0.5049120790829789,-0.008506680714854012
-3.9905,0.5475927785137094,-0.05089323433552374
-3.99,0.6329541773751706,-0.02969995752518888
-3.9895,0.6222840025174878,-0.01910331912002144
-3.989,0.5369226036560266,-0.01910331912002144
-3.9885,0.5902734779444399,-0.1250697031716958
-3.988,0.6969752265212663,-0.2310360872233701
-3.9875,0.7396559259519968,-0.474758770542221
-3.987,0.7396559259519968,-0.9939940523954253
-3.9865,0.1634664836371343,-1.481439419033127
-3.986,-0.572775581542968,-1.725162102351978
-3.9855,-1.138294849000148,-1.608599079895136
-3.985,-1.010252750707956,-0.8774310299385835
-3.9845,-0.572775581542968,-0.04029659593035631
-3.984,-0.156638762093345,0.6060983467848571
-3.9835,0.1314559590640864,1.00877060618122
-3.983,0.291508581929326,1.210106735879401
-3.9825,0.3661998059331045,1.263089927905238
-3.982,0.3768699807907871,1.231300012689736
-3.9815,0.3555296310754218,1.157123543853563
-3.981,0.3128489316446912,1.072350436612224
-3.9805,0.2808384070716433,0.9769806909657173
-3.98,0.2381577076409128,0.8816109453192104
-3.9795,0.1207857842064037,0.7226613692416989
-3.979,-0.4447334832507763,0.06566978812131802
-3.9785,-1.095614149569417,-0.7714646458869092
-3.978,-1.501080794161358,-1.439052865412457
-3.9775,-1.447729919872945,-1.38606967338662
-3.977,-0.9462317015618604,-0.9198175835592532
-3.9765,-0.3380317346739499,-0.4641621321370536
-3.976,0.1207857842064037,-0.1780528951975329
-3.9755,0.4195506802215176,-0.08268314955102604
-3.975,0.5582629533713921,-0.09327978795619347
-3.9745,0.6116138276598051,-0.1886495336027004
-3.974,0.6329541773751706,-0.2204394488182027
-3.9735,0.7609962756673623,-0.2098428104130352
-3.973,0.7289857510943143,-0.1992461720078678
-3.9725,0.6863050516635838,-0.2734226408440398
-3.972,0.6649647019482183,-0.2840192792492073
-3.9715,0.5902734779444399,-0.1780528951975329
-3.971,0.6116138276598051,-0.1674562567923655
-3.9705,0.8143471499557753,-0.5595318777835605
-3.97,0.4195506802215176,-1.05757388282643
-3.9695,-0.3380317346739499,-1.439052865412457
-3.969,-0.6154562809736985,-1.174136905283272
-3.9685,-0.4554036581084589,-0.4429688553267188
-3.968,-0.1779791118087102,0.2776025562246667
-3.9675,0.07810508477567314,0.8074344764830383
-3.967,0.2381577076409128,1.125333628638062
-3.9665,0.3128489316446912,1.263089927905238
-3.966,0.3448594562177392,1.305476481525908
-3.9655,0.3448594562177392,1.273686566310405
-3.965,0.3341892813600565,1.210106735879401
-3.9645,0.3235191065023739,1.125333628638062
-3.964,0.3128489316446912,1.029963882991555
-3.9635,0.2594980573562781,0.9345941373450475
-3.963,0.1527963087794516,0.8816109453192104
-3.9625,-0.2846808603855366,0.4153588554918433
-3.962,-0.9569018764195432,-0.4323722169215513
-3.9615,-1.51175096901904,-1.205926820498774
-3.961,-1.821186039891837,-1.566212526274467
-3.9605,-1.543761493592088,-1.184733543688439
-3.96,-0.9355615267041777,-0.6125150698093976
-3.9595,-0.3060212101009019,-0.1886495336027004
-3.959,0.1207857842064037,0.02328323450064829
-3.9585,0.3768699807907871,0.03387987290581572
-3.958,0.5155822539406614,-0.07208651114585861
-3.9575,0.5475927785137094,-0.2098428104130352
-3.957,0.6329541773751706,-0.400582301706049
-3.9565,0.6542945270905358,-0.4535654937318862
-3.956,0.5902734779444399,-0.3370024712750445
-3.9555,0.5475927785137094,-0.1992461720078678
-3.955,0.5262524287983441,-0.1038764263613609
-3.9545,0.5475927785137094,-0.07208651114585861
-3.954,0.8783681991018712,-0.4959520473525559
-3.9535,0.6649647019482183,-1.089363798041932
-3.953,-0.07127736323188383,-1.576809164679634
-3.9525,-0.9248913518464952,-1.84172512480882
-3.952,-1.298347471865388,-1.576809164679634
-3.9515,-0.9889124009925911,-0.7502713690765743
-3.951,-0.4980843575391895,0.05507314971615059
-3.9505,-0.08194753808956648,0.627291623595192
-3.95,0.1954770082101822,0.9769806909657173
-3.9495,0.3235191065023739,1.114736990232894
-3.949,0.3661998059331045,1.135930267043229
-3.9485,0.3768699807907871,1.093543713422559
-3.948,0.3341892813600565,1.00877060618122
-3.9475,0.291508581929326,0.9134008605347127
-3.947,0.2808384070716433,0.8286277532933731
-3.9465,0.2488278824985954,0.7650479228623686
-3.946,0.00341386077189465,0.5425185163538525
-3.9455,-0.6367966306890638,-0.1886495336027004
-3.945,-1.26633694729234,-0.9939940523954253
-3.9445,-1.746494815888059,-1.502632695843462
-3.944,-1.906547438753298,-1.375473034981453
-3.9435,-1.405049220442214,-0.7820612842920766
-3.943,-0.7648387289812555,-0.2734226408440398
-3.9425,-0.1993194615240755,0.01268659609548085
-3.942,0.2274875327832301,0.07626642652648545
-3.9415,0.4729015545099309,-0.02969995752518888
-3.941,0.5796033030867573,-0.1038764263613609
-3.9405,0.6863050516635838,-0.1780528951975329
-3.94,0.8036769750980928,-0.2840192792492073
-3.9395,0.7396559259519968,-0.2204394488182027
-3.939,0.6222840025174878,-0.1250697031716958
-3.9385,0.5475927785137094,-0.01910331912002144
-3.938,0.4835717293676135,0.07626642652648545
-3.9375,0.4408910299368829,-0.02969995752518888
-3.937,0.5796033030867573,-0.1038764263613609
-3.9365,0.02475421048725994,-0.6125150698093976
-3.936,-0.6367966306890638,-1.163540266878104
-3.9355,-0.839529952985034,-1.152943628472937
-3.935,-0.5834457564006506,-0.6019184314042303
-3.9345,-0.2313299860971235,0.002089957690313421
-3.934,0.0674349099179905,0.4789386859228479
-3.9335,0.2488278824985954,0.7650479228623686
-3.933,0.3235191065023739,0.9028042221295453
-3.9325,0.3555296310754218,0.9557874141553824
-3.932,0.3555296310754218,0.9557874141553824
-3.9315,0.3341892813600565,0.92399749893988
-3.931,0.3021787567870086,0.8816109453192104
-3.9305,0.2808384070716433,0.8392243916985406
-3.93,0.2488278824985954,0.775644561267536
-3.9295,0.1207857842064037,0.5107286011383502
-3.929,-0.3700422592469978,-0.1462629799820306
-3.9285,-0.9569018764195432,-0.9516074987747555
-3.928,-1.277007122150022,-1.598002441489969
-3.9275,-1.533091318734406,-2.011271339291499
-3.927,-1.479740444445993,-1.502632695843462
-3.9265,-0.9995825758502737,-0.7608680074817418
-3.926,-0.4340633083930936,-0.2204394488182027
-3.9255,0.01408403562957729,0.1292496185523226
-3.925,0.2808384070716433,0.2140227257936621
-3.9245,0.4408910299368829,0.08686306493165288
-3.924,0.5369226036560266,-0.06148987274069118
-3.9235,0.6969752265212663,-0.2416327256285375
-3.923,0.7503261008096795,-0.2204394488182027
-3.9225,0.6756348768059011,-0.09327978795619347
-3.922,0.5796033030867573,0.04447651131098315
-3.9215,0.5049120790829789,0.1610395337678249
-3.921,0.4835717293676135,0.09745970333682032
-3.9205,0.6542945270905358,-0.09327978795619347
-3.92,0.2061471830678648,-0.570128516188728
-3.9195,-0.4874141826815069,-1.131750351662602
-3.919,-0.9675720512772257,-1.460246142222792
-3.9185,-0.9035510021311299,-1.121153713257435
-3.918,-0.5300948821122373,-0.4429688553267188
-3.9175,-0.1459685872356623,0.1716361721729923
-3.917,0.1314559590640864,0.5955017083796896
-3.9165,0.291508581929326,0.8286277532933731
-3.916,0.3555296310754218,0.92399749893988
-3.9155,0.3661998059331045,0.9345941373450475
-3.915,0.3555296310754218,0.8922075837243778
-3.9145,0.3235191065023739,0.8392243916985406
-3.914,0.291508581929326,0.8074344764830383
-3.9135,0.2488278824985954,0.7650479228623686
-3.913,0.1954770082101822,0.7120647308365314
-3.9125,-0.1993194615240755,0.309392471440169
-3.912,-0.8608703027003992,-0.4959520473525559
-3.9115,-1.362368521011484,-1.237716735714276
-3.911,-1.543761493592088,-1.481439419033127
-3.9105,-1.191645723288561,-0.9939940523954253
-3.91,-0.6047861061160158,-0.4641621321370536
-3.9095,-0.07127736323188383,-0.01910331912002144
-3.909,0.2808384070716433,0.2246193641988295
-3.9085,0.4408910299368829,0.2564092794143318
-3.908,0.5155822539406614,0.2034260873884947
-3.9075,0.5262524287983441,0.1186529801471552
-3.907,0.6009436528021226,-0.1038764263613609
-3.9065,0.6436243522328531,-0.1568596183871981
-3.906,0.5796033030867573,-0.07208651114585861
-3.9055,0.4942419042252961,0.06566978812131802
-3.905,0.4729015545099309,0.2034260873884947
-3.9045,0.4729015545099309,0.2352160026039969
-3.904,0.408880505363835,-0.2416327256285375
-3.9035,0.1527963087794516,-0.9198175835592532
-3.903,-0.4447334832507763,-1.460246142222792
-3.9025,-0.807519428411986,-1.47084278062796
-3.902,-0.6474668055467465,-0.8138511995075789
-3.9015,-0.3060212101009019,-0.1038764263613609
-3.901,0.00341386077189465,0.4365521323021782
-3.9005,0.2061471830678648,0.7650479228623686
-3.9,0.3128489316446912,0.9134008605347127
-3.8995,0.3555296310754218,0.9557874141553824
-3.899,0.3555296310754218,0.92399749893988
-3.8985,0.3448594562177392,0.8710143069140429
-3.898,0.3235191065023739,0.7968378380778709
-3.8975,0.3021787567870086,0.7332580076468663
-3.897,0.2594980573562781,0.6696781772158616
-3.8965,0.2168173579255475,0.6166949851900245
-3.896,0.00341386077189465,0.3941655786815084
-3.8955,-0.4340633083930936,-0.07208651114585861
-3.895,-0.9675720512772257,-0.7396747306714069
-3.8945,-1.437059745015262,-1.258910012524611
-3.894,-1.46907026958831,-1.110557074852267
-3.8935,-1.074273799854052,-0.6019184314042303
-3.893,-0.5407650569699201,-0.1780528951975329
-3.8925,-0.06060718837420119,0.05507314971615059
-3.892,0.2701682322139607,0.1080563417419877
-3.8915,0.4408910299368829,0.03387987290581572
-3.891,0.5155822539406614,-0.02969995752518888
-3.8905,0.6116138276598051,-0.1250697031716958
-3.89,0.7289857510943143,-0.1886495336027004
-3.8895,0.6863050516635838,-0.1038764263613609
-3.889,0.5796033030867573,0.03387987290581572
-3.8885,0.4729015545099309,0.1716361721729923
-3.888,0.4302208550792003,0.2670059178194992
-3.8875,0.3982103305061524,0.08686306493165288
-3.887,0.3661998059331045,-0.5171453241628908
