Class_4_Move_right_hand_Horiszontal/Class_4_Move_Right_Hand_Horizontal_Zakour_11.csv

#Digilent WaveForms Oscilloscope Acquisition
#Device Name: EExplorer
#Serial Number: SN:210151A2B84A
#Date Time: 2021-02-07 16:05:25.632
#Sample rate: 2000Hz
#Samples: 16384
#Trigger: Source: Channel 1 Type: Edge Condition: Rising Level: 0 V Hyst.: Auto HoldOff: 0 s
#Channel 1: Range: 1 V/div Offset: 0 V Attenuation: 1 X
#Channel 2: Range: 1 V/div Offset: 0 V Attenuation: 1 X
#Power Supplies: ON
#Fixed Supply: ON
#Voltage: 3.3 V Readback: 3.331 V
#Positive Supply: ON
#Voltage: 3.7 V Readback: 3.71 V
#Current: 40 mA Readback: 20 mA
#Negative Supply: ON
#Voltage: -3.7 V Readback: -3.683 V
#Current: -40 mA Readback: -6 mA
#Reference 1: ON
#Voltage: 0 V
#Reference 2: ON
#Voltage: 0 V

Time (s),Channel 1 (V),Channel 2 (V)
-4.096,0.5369226036560266,-1.322489842955616
-4.0955,0.7716664505248313,-0.7290780922667791
-4.095,0.7396559259518318,-0.05089323433506114
-4.0945,0.5582629533713921,0.457745409112513
-4.094,0.3128489316449145,0.7438546460517735
-4.0935,0.2381577076409128,0.8710143069140333
-4.093,0.2381577076409128,0.8604176685088755
-4.0925,0.1527963087795293,0.733258007646982
-4.092,0.05676473506023023,0.5743084315692006
-4.0915,-0.02859666380115328,0.4047622170866759
-4.091,-0.1032878878049318,0.2987958330350016
-4.0905,-0.4127229586781359,0.6166949851904582
-4.09,-0.8608703027003992,1.093543713422559
-4.0895,-1.330357996438436,0.7120647308365314
-4.089,-1.479740444445857,-0.0932797879554611
-4.0885,-1.159635198715513,-0.3793890248957141
-4.088,-0.7434983792658902,-0.400582301706049
-4.0875,-0.4127229586780292,-0.3158091944647867
-4.087,-0.2099896363816611,-0.2098428104129485
-4.0865,-0.1032878878049318,-0.1144730647665284
-4.086,-0.07127736323191294,-0.02969995752526598
-4.0855,-0.07127736323190324,0.04447651131104098
-4.085,-0.09261771294724913,0.1080563417419877
-4.0845,-0.1032878878049221,0.1716361721729345
-4.084,-0.1139580626626241,0.2352160026040451
-4.0835,-0.124628237520297,0.2881991946298341
-4.083,-0.124628237520297,0.3305857482505039
-4.0825,-0.1993194615245899,0.1928294489827104
-4.082,-0.7648387289812555,-0.4853554089473885
-4.0815,-1.244996597576974,-1.216523458903942
-4.081,-1.469070269588106,-1.693372187136042
-4.0805,-1.30901764672307,-1.915901593644992
-4.08,-0.5300948821122373,-1.735758740757146
-4.0795,0.2061471830671953,-1.301296566145676
-4.079,0.6436243522329695,-0.7078848154553359
-4.0785,0.7716664505250448,-0.08268314955102604
-4.078,0.6756348768059884,0.4047622170862325
-4.0775,0.4408910299367277,0.6272916235952113
-4.077,0.2701682322139607,0.6484849004055269
-4.0765,0.3128489316446524,0.4683420475178444
-4.076,0.2488278824984886,0.3199891098452304
-4.0755,0.1314559590640864,0.2034260873884947
-4.075,0.03542438534494258,0.09745970333682032
-4.0745,-0.02859666380108535,-0.008506680714805825
-4.074,0.04609456020262521,0.04447651131098315
-4.0735,0.04609456020262521,0.5425185163538525
-4.073,-0.4980843575386946,0.5319218779486947
-4.0725,-0.8928808272734472,-0.1992461720078678
-4.072,-0.8715404775580819,-0.5171453241628908
-4.0715,-0.6474668055469504,-0.4747587705422596
-4.071,-0.4127229586775634,-0.3158091944645554
-4.0705,-0.2313299860971235,-0.1462629799820306
-4.07,-0.135298412378067,-0.008506680714979287
-4.0695,-0.09261771294723943,0.09745970333689742
-4.069,-0.08194753808956648,0.1822328105781598
-4.0685,-0.09261771294724913,0.2458126410091644
-4.068,-0.1032878878049415,0.3093924714402171
-4.0675,-0.1139580626626144,0.3623756634660061
-4.067,-0.1139580626626144,0.3941655786815084
-4.0665,-0.1139580626626144,0.4259554938970204
-4.066,-0.1139580626626144,0.4365521323021782
-4.0655,-0.423393133535411,0.07626642652648545
-4.065,-1.031593100422769,-0.7078848154551913
-4.0645,-1.341028171296118,-1.375473034981453
-4.064,-1.052933450138687,-1.619195718300304
-4.0635,-0.3593720843899459,-1.49203605743841
-4.063,0.2808384070720024,-1.216523458903556
-4.0625,0.6756348768059011,-0.792657922697244
-4.062,0.8036769750979763,-0.2840192792496699
-4.0615,0.7076454013787452,0.1822328105784296
-4.061,0.4835717293676135,0.4789386859228479
-4.0605,0.2488278824985954,0.6166949851900245
-4.06,0.216817357925499,0.7014680924312676
-4.0595,0.1634664836371343,0.5955017083796896
-4.059,0.07810508477567314,0.383568940276341
-4.0585,0.003413860771962582,0.1504428953628695
-4.058,-0.04993701351651855,-0.02969995752518888
-4.0575,-0.2206598112394408,-0.05089323433552374
-4.057,-0.9355615267035275,0.17163617217279
-4.0565,-1.618452717595867,-0.3052125560595421
-4.056,-1.799845690176472,-1.0999604364471
-4.0555,-1.543761493592321,-1.333086481360571
-4.055,-1.031593100422904,-0.9198175835588196
-4.0545,-0.572775581542968,-0.4429688553267188
-4.054,-0.2740106855281257,-0.06148987274103812
-4.0535,-0.1139580626625562,0.1716361721730984
-4.053,-0.04993701351651855,0.2881991946298341
-4.0525,-0.03926683865883591,0.3411823866556712
-4.052,-0.0606071883742206,0.3623756634660158
-4.0515,-0.08194753808956648,0.3729723018711736
-4.051,-0.09261771294724913,0.3729723018711736
-4.0505,-0.1032878878049221,0.3729723018711736
-4.05,-0.1032878878049318,0.3623756634660061
-4.0495,-0.1032878878049318,0.3517790250608387
-4.049,-0.2953510352430446,0.09745970333705162
-4.0485,-0.9462317015622971,-0.6654982618359577
-4.048,-1.426389570157579,-1.460246142222792
-4.0475,-1.661133417026384,-2.064254531316787
-4.047,-1.1703053735724,-2.350363768256596
-4.0465,-0.2953510352432193,-2.064254531317336
-4.046,0.4088805053631945,-1.555615887869762
-4.0455,0.7716664505250933,-0.9516074987742061
-4.045,0.825017324813458,-0.3475991096802118
-4.0445,0.6756348768059011,0.09745970333682032
-4.044,0.4302208550790548,0.3623756634660351
-4.0435,0.2701682322139607,0.3941655786815084
-4.043,0.1954770082101822,0.2987958330350016
-4.0425,0.08877525963345283,0.2246193641988969
-4.042,0.01408403562957729,0.1610395337678249
-4.0415,-0.03926683865883591,0.09745970333682032
-4.041,-0.06060718837418178,0.03387987290587355
-4.0405,-0.370042259247551,0.1822328105781116
-4.04,-0.9782422261349084,0.1292496185523226
-4.0395,-1.351698346153461,-0.6125150698087229
-4.039,-1.437059745014981,-1.237716735714122
-4.0385,-1.127624674142465,-1.068170521231597
-4.038,-0.7114878546932207,-0.6019184314046544
-4.0375,-0.380712434104496,-0.1674562567920957
-4.037,-0.1779791118087102,0.1292496185523226
-4.0365,-0.08194753808956648,0.2987958330350016
-4.036,-0.03926683865884562,0.3835689402763603
-4.0355,-0.04993701351651855,0.4047622170866759
-4.035,-0.06060718837420119,0.4047622170866759
-4.0345,-0.08194753808954708,0.3941655786815181
-4.034,-0.09261771294724913,0.383568940276341
-4.0335,-0.09261771294724913,0.3623756634660061
-4.033,-0.09261771294724913,0.3517790250608483
-4.0325,-0.1352984123783582,0.2776025562241463
-4.032,-0.5514352318276028,-0.2946159176543747
-4.0315,-0.9995825758498661,-1.110557074851525
-4.031,-1.330357996438377,-1.820531847998929
-4.0305,-1.26633694729234,-2.307977214636187
-4.03,-0.54076505697058,-2.223204107394924
-4.0295,0.2061471830682821,-1.735758740756587
-4.029,0.6649647019482183,-1.121153713257435
-4.0285,0.8036769750980928,-0.4641621321370536
-4.028,0.707645401378755,0.04447651131124337
-4.0275,0.4942419042252961,0.3305857482505039
-4.027,0.2701682322139607,0.4365521323021782
-4.0265,0.1421261339218854,0.4259554938970204
-4.026,0.04609456020262521,0.3623756634660061
-4.0255,-0.01792648894347063,0.2776025562246667
-4.025,-0.04993701351648944,0.1928294489834043
-4.0245,-0.06060718837440499,0.1292496185524383
-4.024,-0.2846808603855366,0.2564092794143318
-4.0235,-0.882210652415221,0.8074344764825372
-4.023,-1.511750969019283,0.9451907757494921
-4.0225,-1.778505340461106,0.1504428953626575
-4.022,-1.650463242169031,-0.2628260024384965
-4.0215,-1.159635198715067,-0.2522293640335894
-4.021,-0.6688071552621118,-0.1250697031716958
-4.0205,-0.3166913849585846,0.02328323450064829
-4.02,-0.1246282375202194,0.1504428953627538
-4.0195,-0.03926683865883591,0.2564092794143318
-4.019,-0.01792648894347063,0.3411823866556712
-4.0185,-0.02859666380114357,0.4153588554917759
-4.018,-0.04993701351651855,0.4789386859228479
-4.0175,-0.07127736323188383,0.5213252395435176
-4.017,-0.08194753808955678,0.5425185163538332
-4.0165,-0.08194753808957618,0.542518516353814
-4.016,-0.09261771294724913,0.5001319627331828
-4.0155,-0.4874141826811478,0.023283234501082
-4.015,-1.180975548431325,-0.7820612842927126
-4.0145,-1.67180359188428,-1.481439419033127
-4.014,-1.607782542738242,-1.809935209593019
-4.0135,-0.9142211769880652,-1.661582271920675
-4.013,-0.09261771294724913,-1.333086481360783
-4.0125,0.4729015545099309,-0.8774310299385835
-4.012,0.70764540137892,-0.3264058328694144
-4.0115,0.6756348768059011,0.1822328105781598
-4.011,0.4942419042252961,0.4683420475176805
-4.0105,0.2808384070718374,0.542518516353785
-4.01,0.2274875327832301,0.5319218779486851
-4.0095,0.1741366584948169,0.4259554938970107
-4.009,0.08877525963343341,0.256409279414486
-4.0085,0.01408403562952877,0.07626642652635053
-4.008,-0.03926683865883591,-0.07208651114585861
-4.0075,-0.1246282375202194,-0.156859618387121
-4.007,-0.73282820440878,-0.08268314955139228
-4.0065,-1.362368521011484,-0.4853554089473885
-4.006,-1.714484291315011,-1.195330182093607
-4.0055,-1.74649481588768,-1.227120097308666
-4.005,-1.330357996438436,-0.7396747306714069
-4.0045,-0.807519428411986,-0.3052125560595421
-4.004,-0.4020527838198225,-0.008506680714709449
-4.0035,-0.156638762093345,0.1504428953626575
-4.003,-0.03926683865883591,0.2352160026039969
-4.0025,-0.007256314085817103,0.2881991946297859
-4.002,-0.007256314085787988,0.3199891098453364
-4.0015,-0.02859666380115328,0.3411823866556712
-4.001,-0.04993701351649914,0.3729723018711447
-4.0005,-0.0606071883742109,0.3941655786815277
-4,-0.07127736323188383,0.4153588554918433
-3.9995,-0.06060718837420119,0.4153588554918433
-3.999,-0.1993194615240755,0.2776025562246667
-3.9985,-0.7861790786966207,-0.3899856633008816
-3.998,-1.330357996438436,-1.174136905283272
-3.9975,-1.639793067311232,-1.650985633515806
-3.997,-1.223656247861609,-1.492036057438295
-3.9965,-0.4020527838200457,-1.0999604364471
-3.996,0.291508581929326,-0.6549016234300674
-3.9955,0.6756348768059011,-0.1462629799820306
-3.995,0.7716664505250448,0.2881991946298341
-3.9945,0.6542945270905358,0.5637117931641874
-3.994,0.4408910299368829,0.6696781772158616
-3.9935,0.2488278824985954,0.627291623595192
-3.993,0.1741366584948169,0.5425185163538525
-3.9925,0.08877525963335578,0.4365521323021782
-3.992,0.02475421048725994,0.3199891098453364
-3.9915,-0.01792648894347063,0.1928294489833272
-3.991,-0.06060718837420119,0.09745970333682032
-3.9905,-0.572775581542968,0.3941655786815084
-3.99,-1.415719395299897,0.9557874141553824
-3.9895,-1.991908837614759,0.8392243916985406
-3.989,-2.119950935906951,0.002089957690313421
-3.9885,-1.714484291315011,-0.2840192792492073
-3.988,-1.074273799854052,-0.2628260024388724
-3.9875,-0.5514352318276028,-0.1674562567923655
-3.987,-0.2099896363817582,-0.07208651114585861
-3.9865,-0.03926683865883591,0.02328323450064829
-3.986,0.02475421048725994,0.1080563417419877
-3.9855,0.02475421048725994,0.1822328105781598
-3.985,0.00341386077189465,0.2564092794143318
-3.9845,-0.01792648894347063,0.3305857482505039
-3.984,-0.03926683865883591,0.3941655786815084
-3.9835,-0.04993701351651855,0.4365521323021782
-3.983,-0.04993701351651855,0.4683420475176805
-3.9825,-0.124628237520297,0.3941655786815084
-3.982,-0.722158029550525,-0.1992461720078678
-3.9815,-1.383708870726849,-0.9833974139902578
-3.981,-1.810515865034154,-1.534422611058964
-3.9805,-1.437059745015262,-1.47084278062796
-3.98,-0.572775581542968,-1.205926820498774
-3.9795,0.1954770082101822,-0.8350444763179138
-3.979,0.6542945270905358,-0.3687923864905467
-3.9785,0.79300680024041,0.13984625695749
-3.978,0.707645401378949,0.4789386859228479
-3.9775,0.5049120790829789,0.627291623595192
-3.977,0.3128489316446912,0.6378882620003594
-3.9765,0.2488278824985954,0.6166949851900245
-3.976,0.1741366584948169,0.5213252395435176
-3.9755,0.08877525963335578,0.3729723018711736
-3.975,0.02475421048725994,0.2352160026039969
-3.9745,0.00341386077189465,0.1080563417419877
-3.974,-0.2206598112394408,0.1822328105781598
-3.9735,-0.9569018764195432,0.6802748156210291
-3.973,-1.554431668449771,0.627291623595192
-3.9725,-1.789175515318789,-0.1992461720078678
-3.972,-1.46907026958831,-0.5171453241628908
-3.9715,-0.9355615267041777,-0.3370024712750445
-3.971,-0.4874141826815069,-0.1356663415768632
-3.9705,-0.1886492866663929,0.02328323450064829
-3.97,-0.03926683865883591,0.1292496185523226
-3.9695,0.02475421048725994,0.2140227257936621
-3.969,0.02475421048725994,0.2670059178194992
-3.9685,0.01408403562957729,0.309392471440169
-3.968,-0.007256314085787988,0.3517790250608387
-3.9675,-0.02859666380115328,0.3941655786815084
-3.967,-0.03926683865883591,0.4153588554918433
-3.9665,-0.04993701351651855,0.4365521323021782
-3.966,-0.03926683865883591,0.4259554938970107
-3.9655,-0.3166913849585846,0.03387987290581572
-3.965,-0.9248913518464952,-0.7396747306714069
-3.9645,-1.30901764672307,-1.42845622700729
-3.964,-1.426389570157579,-1.862918401619155
-3.9635,-0.8181896032696687,-1.926498232050159
-3.963,-0.007256314085787988,-1.640388995110639
-3.9625,0.5796033030867573,-1.121153713257435
-3.962,0.8356874996711408,-0.5065486857577234
-3.9615,0.825017324813458,0.03387987290581572
-3.961,0.6436243522328531,0.383568940276341
-3.9605,0.408880505363835,0.5425185163538525
-3.96,0.3128489316446912,0.4789386859228479
-3.9595,0.2381577076409128,0.3623756634660061
-3.959,0.142126133921769,0.2564092794143318
-3.9585,0.0674349099179905,0.1610395337678249
-3.958,0.02475421048725994,0.06566978812131802
-3.9575,0.01408403562957729,-0.008506680714854012
-3.957,0.2061471830678648,0.309392471440169
-3.9565,-0.2099896363817582,0.8074344764830383
-3.956,-0.690147504977477,0.4365521323021782
-3.9555,-1.010252750707956,-0.2204394488182027
-3.955,-0.9035510021311299,-0.3687923864905467
-3.9545,-0.6154562809736985,-0.2946159176543747
-3.954,-0.3380317346739499,-0.1568596183871981
-3.9535,-0.1459685872356623,-0.008506680714854012
-3.953,-0.03926683865883591,0.1080563417419877
-3.9525,0.00341386077189465,0.2140227257936621
-3.952,0.00341386077189465,0.2987958330350016
-3.9515,-0.007256314085787988,0.383568940276341
-3.951,-0.01792648894347063,0.4471487707073456
-3.9505,-0.02859666380115328,0.5001319627331828
-3.95,-0.02859666380115328,0.5319218779486851
-3.9495,-0.02859666380115328,0.5425185163538525
-3.949,-0.156638762093345,0.3517790250608387
-3.9485,-0.7328282044082075,-0.3475991096802118
-3.948,-1.30901764672307,-1.0999604364471
-3.9475,-1.67180359188428,-1.661582271920973
-3.947,-1.405049220442214,-1.820531847998485
-3.9465,-0.5514352318276028,-1.545019249464132
-3.946,0.2168173579255475,-1.004590690800593
-3.9455,0.6649647019482183,-0.3793890248957141
-3.945,0.79300680024041,0.1610395337678249
-3.9445,0.6969752265212663,0.4789386859228479
-3.944,0.4942419042252961,0.5955017083796896
-3.9435,0.408880505363835,0.5001319627331828
-3.943,0.5582629533713921,0.1292496185523226
-3.9425,0.4835717293676135,-0.01910331912002144
-3.942,0.3128489316446912,-0.05089323433552374
-3.9415,0.1634664836371343,-0.02969995752518888
-3.941,0.05676473506030786,0.002089957690313421
-3.9405,-0.3166913849585846,0.1504428953626575
-3.94,-1.116954499284783,0.5213252395435176
-3.9395,-1.575772018165136,0.07626642652648545
-3.939,-1.821186039891837,-0.6866915386455698
-3.9385,-1.725154466172693,-0.5913217929990628
-3.938,-1.202315898146244,-0.2204394488182027
-3.9375,-0.6688071552621118,0.01268659609548085
-3.937,-0.2846808603855366,0.1292496185523226
-3.9365,-0.06060718837420119,0.1928294489833272
-3.936,0.02475421048725994,0.2246193641988295
-3.9355,0.04609456020262521,0.2670059178194992
-3.935,0.03542438534494258,0.309392471440169
-3.9345,0.01408403562957729,0.3623756634660061
-3.934,-0.007256314085787988,0.4047622170866759
-3.9335,-0.007256314085787988,0.4471487707073456
-3.933,-0.01792648894347063,0.4683420475176805
-3.9325,-0.02859666380115328,0.4365521323021782
-3.932,-0.2420001609548061,-0.05089323433552374
-3.9315,-0.5087545323968721,-0.8350444763179138
-3.931,-0.9035510021311299,-1.502632695843462
-3.9305,-1.074273799854052,-1.937094870455327
-3.93,-0.5087545323968721,-1.937094870455327
-3.9295,0.1848068333524996,-1.619195718300304
-3.929,0.6649647019482183,-1.089363798041932
-3.9285,0.825017324813458,-0.400582301706049
-3.928,0.7609962756673623,0.1928294489833272
-3.9275,0.5582629533713921,0.5213252395435176
-3.927,0.3661998059331045,0.6166949851900245
-3.9265,0.3341892813600565,0.4259554938970107
-3.926,0.2701682322139607,0.2564092794143318
-3.9255,0.1848068333524996,0.13984625695749
-3.925,0.1101156093487211,0.04447651131098315
-3.9245,0.05676473506030786,-0.01910331912002144
-3.924,-0.1352984123779797,0.04447651131098315
-3.9235,-0.8181896032696687,0.5849050699745222
-3.923,-1.479740444445993,0.8286277532933731
-3.9225,-1.725154466172693,0.1610395337678249
-3.922,-1.405049220442214,-0.2628260024388724
-3.9215,-0.8822106524157645,-0.3052125560595421
-3.921,-0.4340633083930936,-0.1992461720078678
-3.9205,-0.1459685872356623,-0.06148987274069118
-3.92,-0.007256314085787988,0.07626642652648545
-3.9195,0.04609456020262521,0.1928294489833272
-3.919,0.04609456020262521,0.2881991946298341
-3.9185,0.03542438534494258,0.3729723018711736
-3.918,0.01408403562957729,0.4471487707073456
-3.9175,-0.007256314085787988,0.5107286011383502
-3.917,-0.01792648894347063,0.55311515475902
-3.9165,-0.01792648894347063,0.55311515475902
-3.916,-0.007256314085787988,0.5319218779486851
-3.9155,-0.1459685872356623,0.2034260873884947
-3.915,-0.658136980404429,-0.570128516188728
-3.9145,-1.042263275281004,-1.269506650929778
-3.914,-1.287677297007705,-1.778145294377815
-3.9135,-0.7434983792658902,-1.926498232050159
-3.913,0.04609456020262521,-1.598002441489969
-3.9125,0.6222840025174878,-1.01518732920576
-3.912,0.8676980242441885,-0.3581957480853793
-3.9115,0.857027849386506,0.2034260873884947
-3.911,0.6969752265212663,0.5425185163538525
-3.9105,0.4622313796522482,0.6484849004055269
-3.91,0.408880505363835,0.6166949851900245
-3.9095,0.4729015545099309,0.5425185163538525
-3.909,0.3768699807907871,0.4047622170866759
-3.9085,0.2488278824985954,0.2352160026039969
-3.908,0.1314559590640864,0.07626642652648545
-3.9075,-0.007256314085787988,0.002089957690313421
-3.907,-0.658136980404429,0.3941655786815084
-3.9065,-1.437059745015262,1.019367244586387
-3.906,-1.693143941599645,1.400846227172415
-3.9055,-1.447729919872945,1.093543713422559
-3.905,-0.9462317015618604,0.4895353243280153
-3.9045,-0.4874141826815069,-0.008506680714854012
-3.904,-0.1779791118087102,-0.2946159176543747
-3.9035,-0.01792648894347063,-0.3793890248957141
-3.903,0.04609456020262521,-0.3158091944647096
-3.9025,0.05676473506030786,-0.1674562567923655
-3.902,0.04609456020262521,0.02328323450064829
-3.9015,0.02475421048725994,0.2246193641988295
-3.901,0.00341386077189465,0.4259554938970107
-3.9005,0.00341386077189465,0.6060983467848571
-3.9,-0.007256314085787988,0.7438546460520338
-3.8995,0.00341386077189465,0.849821030103708
-3.899,-0.06060718837420119,0.8286277532933731
-3.8985,-0.4767440078238243,0.2670059178194992
-3.898,-0.7434983792658902,-0.4429688553267188
-3.8975,-0.9675720512772257,-0.9939940523954253
-3.897,-0.7434983792658902,-1.227120097309109
-3.8965,-0.09261771294724913,-1.089363798041932
-3.896,0.4942419042252961,-0.7290780922662394
-3.8955,0.825017324813458,-0.2734226408440398
-3.895,0.8783681991018712,0.2352160026039969
-3.8945,0.7396559259519968,0.627291623595192
-3.894,0.5155822539406614,0.7968378380778709
-3.8935,0.3128489316446912,0.7862411996727035
-3.893,0.2168173579255475,0.6696781772158616
-3.8925,0.1527963087794516,0.4365521323021782
-3.892,0.09944543449103843,0.1716361721729923
-3.8915,0.0674349099179905,-0.07208651114585861
-3.891,0.03542438534494258,-0.2946159176543747
-3.8905,-0.274010685527854,-0.1992461720078678
-3.89,-0.9995825758502737,0.2987958330350016
-3.8895,-1.501080794161358,0.06566978812131802
-3.889,-1.661133417026597,-0.6654982618352349
