Class_4_Move_right_hand_Horiszontal/Class_4_Move_right_hand_Horiszontal_Suko_6.csv

#Digilent WaveForms Oscilloscope Acquisition
#Device Name: EExplorer
#Serial Number: SN:210151A2B84A
#Date Time: 2020-12-22 14:23:36.203
#Sample rate: 2000Hz
#Samples: 16384
#Trigger: Source: Channel 1 Type: Edge Condition: Rising Level: 0 V Hyst.: Auto HoldOff: 0 s
#Channel 1: Range: 1 V/div Offset: 0 V Attenuation: 1 X
#Channel 2: Range: 1 V/div Offset: 0 V Attenuation: 1 X
#Power Supplies: ON
#Fixed Supply: ON
#Voltage: 3.3 V Readback: 3.319 V
#Positive Supply: ON
#Voltage: 3.7 V Readback: 3.66 V
#Current: 40 mA Readback: 21 mA
#Negative Supply: ON
#Voltage: -3.7 V Readback: -4.122 V
#Current: -40 mA Readback: -18 mA
#Reference 1: ON
#Voltage: 0 V
#Reference 2: ON
#Voltage: 0 V

Time (s),Channel 1 (V),Channel 2 (V)
-4.096,-0.007256314085787988,-0.2416327256285375
-4.0955,-0.7541685541228936,0.2246193641984054
-4.095,-1.682473766742642,0.7862411996730311
-4.0945,-2.429386006779747,1.146526905448396
-4.094,-2.952224574805721,1.284283204715448
-4.0935,-2.504077230782662,0.87101430691332
-4.093,-1.554431668449771,0.07626642652648545
-4.0925,-0.7114878546936089,-0.623111708213929
-4.092,-0.1352984123776886,-0.993994052395512
-4.0915,0.1848068333524996,-1.089363798041932
-4.091,0.3021787567870086,-0.9728007755850904
-4.0905,0.3235191065023448,-0.7290780922659503
-4.09,0.291508581929326,-0.4111789401112165
-4.0895,0.2488278824985954,-0.07208651114585861
-4.089,0.2274875327832495,0.256409279414033
-4.0885,0.2061471830678648,0.5743084315693548
-4.088,0.1954770082101822,0.8180311148882058
-4.0875,0.408880505363641,0.6272916235953654
-4.087,0.8250173248131766,0.108056341741583
-4.0865,0.5155822539406614,-0.3370024712750445
-4.086,-0.03926683865833136,-0.6125150698091471
-4.0855,0.0781050847760031,-0.6654982618351192
-4.085,0.4408910299368829,-0.5383386009732256
-4.0845,0.7183155762363793,-0.2522293640339652
-4.084,0.7823366253826305,0.2352160026045367
-4.0835,0.6756348768059011,0.8286277532933731
-4.083,0.5155822539406614,1.210106735879401
-4.0825,0.3982103305061524,1.347863035146433
-4.082,0.3982103305061524,1.188913459069066
-4.0815,0.3875401556484697,0.9028042221295453
-4.081,0.3235191065024321,0.5849050699748113
-4.0805,-0.09261771294724913,-0.1144730647665284
-4.08,-0.6367966306890638,-0.9410108603695881
-4.0795,-0.5194247072546616,-0.9622041371799036
-4.079,-0.8822106524162205,-0.4429688553260634
-4.0785,-1.383708870726849,0.2776025562246667
-4.078,-1.597112367880307,0.5955017083794005
-4.0775,-1.970568487899258,0.4895353243277648
-4.077,-1.821186039891837,0.2140227257936621
-4.0765,-1.191645723289134,-0.3581957480848588
-4.076,-0.5514352318271855,-0.835044476318145
-4.0755,-0.09261771294724913,-1.089363798041932
-4.075,0.1634664836371343,-1.121153713257435
-4.0745,0.2808384070716433,-0.9939940523952229
-4.074,0.2808384070716433,-0.7714646458869092
-4.0735,0.2701682322139607,-0.4641621321370536
-4.073,0.2488278824986148,-0.1462629799823197
-4.0725,0.2274875327832301,0.1716361721729923
-4.072,0.2061471830678648,0.4789386859228479
-4.0715,0.2168173579255378,0.7544512844569505
-4.071,0.1741366584945258,0.9557874141550451
-4.0705,-0.1459685872356623,0.5849050699745222
-4.07,-0.7861790786960384,-0.06148987274010331
-4.0695,-1.202315898145749,-0.4959520473527487
-4.069,-0.658136980404429,-0.7078848154559045
-4.0685,0.142126133921769,-0.6654982618352349
-4.068,0.6969752265214701,-0.4323722169210694
-4.0675,0.9210488985326017,0.09745970333682032
-4.067,0.8890383739595538,0.7120647308365314
-4.0665,0.7183155762364666,1.061753798207163
-4.066,0.5369226036560266,1.178316820663898
-4.0655,0.4515612047945656,1.040560521396722
-4.065,0.4622313796522385,0.7120647308368302
-4.0645,0.3982103305061524,0.4683420475176805
-4.064,0.3128489316446912,0.2246193641988295
-4.0635,0.2488278824986536,-0.04029659593011542
-4.063,0.1954770082099105,-0.3264058328703107
-4.0625,-0.1032878878049318,-0.8032545611024114
-4.062,-1.14896502385688,-1.735758740756297
-4.0615,-2.354694782776319,-2.721246112437611
-4.061,-2.738821077652544,-2.604683089980875
-4.0605,-2.834852651371688,-1.47084278062796
-4.06,-2.087940411332971,-0.6125150698090314
-4.0595,-1.06360362499637,-0.2098428104130352
-4.059,-0.3700422592469978,-0.2310360872233701
-4.0585,0.03542438534457382,-0.3793890248955792
-4.058,0.2381577076409128,-0.5065486857577234
-4.0575,0.3021787567870086,-0.5913217929990628
-4.057,0.3021787567870086,-0.6125150698093783
-4.0565,0.2808384070716433,-0.5807251545938954
-4.056,0.2488278824985954,-0.5171453241628908
-4.0555,0.2061471830679036,-0.453565493731944
-4.055,0.2168173579255572,-0.3158091944646517
-4.0545,0.2274875327832301,-0.252229364033705
-4.054,0.40888050536367,-0.6972881770503324
-4.0535,0.7396559259519192,-1.417859588602306
-4.053,0.6542945270905358,-1.619195718300304
-4.0525,0.6009436528021226,-1.650985633515806
-4.052,0.8036769750982383,-1.672178910325977
-4.0515,0.9637295979633325,-1.492036057438295
-4.051,0.9957401225363802,-1.110557074852267
-4.0505,0.9103787236749968,-0.4217755785170103
-4.05,0.7183155762366316,0.3199891098453364
-4.0495,0.5262524287983441,0.8710143069140429
-4.049,0.3982103305062689,1.178316820663619
-4.0485,0.4408910299368539,1.220703374284539
-4.048,0.408880505363835,1.188913459069066
-4.0475,0.3448594562177974,1.104140351827804
-4.047,0.2808384070715851,0.9769806909655631
-4.0465,0.2168173579255475,0.8074344764830383
-4.046,0.05676473506045343,0.7862411996727228
-4.0455,-0.5194247072550594,1.178316820664159
-4.045,-1.074273799854052,1.464426057603419
-4.0445,-1.597112367880501,0.92399749893988
-4.044,-2.354694782775979,-0.02969995752500576
-4.0435,-2.365364957633652,0.1716361721729923
-4.043,-1.810515865034154,-0.02969995752518888
-4.0425,-1.010252750708684,-0.2946159176541338
-4.042,-0.3060212101009019,-0.4535654937318862
-4.0415,0.04609456020262521,-0.6125150698093976
-4.041,0.2274875327830651,-0.6443049850248711
-4.0405,0.2808384070716336,-0.5913217929989568
-4.04,0.2701682322139607,-0.474758770542221
-4.0395,0.2488278824986148,-0.3158091944648541
-4.039,0.2274875327832301,-0.1356663415766897
-4.0385,0.2274875327832301,0.05507314971615059
-4.038,0.259498057356249,0.1822328105780441
-4.0375,0.6222840025179343,-0.2098428104137484
-4.037,1.113112045970889,-0.9939940523954253
-4.0365,0.7823366253827275,-1.576809164679634
-4.036,0.2168173579256057,-1.862918401619087
-4.0355,0.2808384070716433,-1.788741932782983
-4.035,0.5475927785137094,-1.396666311791788
-4.0345,0.7396559259518221,-0.7926579226977933
-4.034,0.7609962756673623,-0.01910331912002144
-4.0335,0.6436243522328531,0.6696781772158616
-4.033,0.494241904225432,1.072350436611858
-4.0325,0.3661998059332015,1.199510097474195
-4.032,0.4729015545099309,1.157123543853563
-4.0315,0.5475927785136414,1.008770606181355
-4.031,0.4729015545098436,0.8074344764828456
-4.0305,0.3768699807907871,0.5955017083796896
-4.03,0.2915085819294037,0.3623756634662182
-4.0295,0.1954770082098134,0.1822328105782754
-4.029,-0.2099896363817582,0.309392471440169
-4.0285,-0.9248913518464952,0.7862411996727035
-4.028,-1.522421143876995,1.26308992790544
-4.0275,-1.821186039891837,1.485619334413754
-4.027,-1.437059745015262,1.072350436612224
-4.0265,-0.9355615267046338,0.2458126410099161
-4.026,-0.9355615267041777,-0.8986243067489184
-4.0255,-0.7114878546928423,-1.38606967338662
-4.025,-0.3700422592473083,-1.364876396576305
-4.0245,-0.1459685872354488,-1.184733543688111
-4.024,0.08877525963335578,-0.8244478379127463
-4.0235,0.216817357925431,-0.4853554089476969
-4.023,0.2061471830678648,-0.2628260024386603
-4.0225,0.2061471830678648,-0.02969995752518888
-4.022,0.1954770082101919,0.182232810577967
-4.0215,0.1954770082102113,0.3835689402763603
-4.021,0.2274875327832301,0.4047622170866759
-4.0205,0.291508581929326,-0.2416327256285375
-4.02,-0.06060718837466701,-1.025783967611342
-4.0195,-0.572775581542968,-1.481439419033127
-4.019,-0.1459685872356623,-1.682775548731308
-4.0185,0.643624352232135,-1.725162102351939
-4.018,1.145122570543937,-1.460246142222792
-4.0175,1.273164668836129,-1.004590690800593
-4.017,1.123782220828708,-0.2840192792498627
-4.0165,0.8356874996709078,0.4471487707078082
-4.016,0.5796033030867573,0.9557874141553824
-4.0155,0.3982103305063174,1.167720182258538
-4.015,0.2915085819292775,1.146526905448251
-4.0145,0.2381577076409128,0.9875773293708847
-4.014,0.1848068333525481,0.7226613692419398
-4.0135,0.1848068333524898,0.4577454091122335
-4.013,0.1741366584948169,0.1504428953626575
-4.0125,-0.2633405106701714,0.2352160026039969
-4.012,-1.031593100423875,0.7438546460524771
-4.0115,-1.639793067311232,1.231300012689736
-4.011,-1.991908837614759,1.464426057603419
-4.0105,-1.735824641030609,1.146526905448685
-4.01,-1.06360362499637,0.383568940276341
-4.0095,-0.4767440078238243,-0.3370024712750445
-4.009,-0.04993701351690671,-0.7820612842916718
-4.0085,0.1848068333524025,-0.941010860369752
-4.008,0.07810508477567314,-1.121153713257435
-4.0075,-0.5300948821116842,-1.57680916467922
-4.007,-0.4233931335352945,-1.227120097308733
-4.0065,-0.2953510352432193,-0.8138511995075789
-4.006,-0.1352984123779797,-0.3475991096802118
-4.0055,0.08877525963345283,0.161039533768143
-4.005,0.1954770082101822,0.5107286011383502
-4.0045,0.2061471830678648,0.6908714540261965
-4.004,0.3982103305064532,0.2987958330342595
-4.0035,0.7289857510943143,-0.5171453241628908
-4.003,0.4835717293676135,-1.174136905283272
-4.0025,0.1848068333527713,-1.555615887868953
-4.002,0.5155822539406614,-1.629792356705471
-4.0015,0.8676980242441885,-1.42845622700729
-4.001,1.070431346539974,-1.057573882826767
-4.0005,1.038420821966917,-0.464162132136379
-4,0.825017324813458,0.2776025562246667
-3.9995,0.6329541773751706,0.8074344764830383
-3.999,0.4729015545099309,1.051157159801889
-3.9985,0.5262524287983441,1.029963882991555
-3.998,0.4942419042252961,0.8604176685088755
-3.9975,0.3982103305061524,0.6060983467848571
-3.997,0.3021787567870086,0.309392471440169
-3.9965,0.2381577076409128,0.01268659609548085
-3.996,0.08877525963335578,-0.02969995752518888
-3.9955,-0.5941159312583333,0.4047622170866759
-3.995,-1.255666772434657,0.8604176685088755
-3.9945,-1.799845690176472,1.051157159801889
-3.994,-2.226652684483777,1.104140351827727
-3.9935,-1.87453691418025,0.7226613692416989
-3.993,-1.138294849000148,0.002089957690313421
-3.9925,-0.4767440078238243,-0.5913217929990628
-3.992,-0.03926683865883591,-0.9198175835592532
-3.9915,0.1954770082101822,-0.9939940523954253
-3.991,0.2594980573562781,-0.9092209451540858
-3.9905,0.2808384070716433,-0.6760949002404023
-3.99,0.2701682322139607,-0.3793890248957141
-3.9895,-0.1139580626626144,-0.4217755785163839
-3.989,-0.6154562809736985,-0.6019184314042303
-3.9885,-0.4340633083930936,-0.09327978795619347
-3.988,-0.274010685527854,0.3305857482505039
-3.9875,-0.07127736323188383,0.383568940276341
-3.987,0.1634664836371343,-0.07208651114585861
-3.9865,-0.2953510352432193,-0.5807251545938954
-3.986,-0.807519428411986,-0.9939940523954253
-3.9855,-0.4874141826815069,-0.9622041371799229
-3.985,0.07810508477567314,-0.6760949002404023
-3.9845,0.5369226036560266,-0.252229364033705
-3.984,0.7183155762366316,0.3517790250608387
-3.9835,0.6863050516635838,0.9557874141553824
-3.983,0.5689331282290746,1.316073119931075
-3.9825,0.4515612047945656,1.411442865577582
-3.982,0.3875401556484697,1.25249328950007
-3.9815,0.3235191065023739,0.9663840525605498
-3.981,0.291508581929326,0.6908714540261965
-3.9805,0.2594980573562781,0.3517790250608387
-3.98,0.2274875327832301,0.002089957690313421
-3.9795,0.1848068333524996,-0.2946159176543747
-3.979,-0.2099896363817582,-0.1462629799820306
-3.9785,-1.095614149569417,0.3941655786815084
-3.978,-1.87453691418025,0.8816109453192104
-3.9775,-2.312014083345239,0.8074344764830383
-3.977,-2.269333383914508,0.4047622170866759
-3.9765,-1.490410619303675,-0.1674562567923655
-3.976,-0.7328282044082075,-0.7078848154559045
-3.9755,-0.1779791118087102,-1.01518732920576
-3.975,0.142126133921769,-1.078767159636765
-3.9745,0.2808384070716433,-0.9728007755850904
-3.974,0.3128489316446912,-0.7396747306714069
-3.9735,0.291508581929326,-0.4429688553267188
-3.973,0.2701682322139607,-0.1144730647665284
-3.9725,0.2168173579255475,0.1928294489833272
-3.972,0.2168173579255475,0.5107286011383502
-3.9715,0.1634664836371343,0.7332580076468663
-3.971,-0.2953510352432193,0.4789386859228479
-3.9705,-0.572775581542968,-0.01910331912002144
-3.97,-0.2313299860971235,-0.4959520473525559
-3.9695,-0.2099896363817582,-0.8880276683437509
-3.969,0.3661998059331045,-1.036380606016095
-3.9685,1.027750647109428,-1.05757388282643
-3.968,1.294505018551494,-0.9516074987747555
-3.9675,1.273164668836129,-0.5913217929990628
-3.967,1.070431346540159,0.08686306493165288
-3.9665,0.7609962756673623,0.7226613692416989
-3.966,0.5049120790829789,1.114736990232894
-3.9655,0.3875401556484697,1.241896651094903
-3.965,0.3875401556484697,1.157123543853563
-3.9645,0.3555296310754218,0.8922075837243778
-3.964,0.3021787567870086,0.5425185163538525
-3.9635,0.2381577076409128,0.1504428953626575
-3.963,0.1848068333524996,-0.2204394488182027
-3.9625,-0.1459685872356623,-0.1568596183871981
-3.962,-0.9462317015618604,0.3411823866556712
-3.9615,-1.650463242168915,0.8286277532933731
-3.961,-1.917217613610981,0.9557874141553824
-3.9605,-1.693143941599645,0.6060983467848571
-3.96,-1.06360362499637,-0.1038764263613609
-3.9595,-0.4660738329661415,-0.7290780922662394
-3.959,-0.04993701351651855,-1.110557074852267
-3.9585,0.1527963087794516,-1.248313374119443
-3.958,0.2808384070716433,-1.142346990067769
-3.9575,0.291508581929326,-0.9304142219644207
-3.957,0.2808384070716433,-0.6443049850249
-3.9565,0.2488278824985954,-0.3158091944647096
-3.956,0.2274875327832301,0.02328323450064829
-3.9555,0.2061471830678648,0.3411823866556712
-3.955,0.2061471830678648,0.6590815388106942
-3.9545,0.2594980573562781,0.8710143069140429
-3.954,0.7396559259519968,0.5637117931641874
-3.9535,1.059761171682476,0.1186529801471552
-3.953,0.5796033030867573,-0.1674562567923655
-3.9525,-0.09261771294724913,-0.718481453861072
-3.952,-0.1673089369510276,-1.121153713257435
-3.9515,0.291508581929326,-0.9410108603695881
-3.951,0.5582629533713921,-0.6019184314042303
-3.9505,0.7396559259519968,0.1716361721729923
-3.95,0.7396559259519968,0.92399749893988
-3.9495,0.5796033030867573,1.273686566310405
-3.949,0.4408910299368829,1.29487984312074
-3.9485,0.4942419042252961,1.061753798207057
-3.948,0.4622313796522482,0.7862411996727035
-3.9475,0.3875401556484697,0.4789386859228479
-3.947,0.3021787567870086,0.1822328105781598
-3.9465,0.2488278824985954,-0.1250697031716958
-3.946,0.03542438534494258,-0.2204394488182027
-3.9455,-0.7968492535543035,0.2140227257936621
-3.945,-1.586442193022819,0.6908714540261965
-3.9445,-1.885207089037933,0.8074344764830383
-3.944,-2.130621110764634,0.7968378380778709
-3.9435,-1.735824641030376,0.4047622170866759
-3.943,-1.020922925565639,-0.2628260024388724
-3.9425,-0.4020527838200457,-0.792657922697244
-3.942,0.00341386077189465,-1.05757388282643
-3.9415,0.2168173579255475,-1.078767159636765
-3.941,0.291508581929326,-0.9304142219644207
-3.9405,0.291508581929326,-0.6760949002404023
-3.94,0.2488278824985954,-0.3793890248957141
-3.9395,0.2488278824985954,-0.01910331912002144
-3.939,0.2274875327832301,0.309392471440169
-3.9385,0.2168173579255475,0.6060983467848571
-3.938,0.2168173579255475,0.8710143069140429
-3.9375,0.2594980573562781,0.8710143069140429
-3.937,0.408880505363835,0.4365521323021782
-3.9365,0.4302208550792003,0.07626642652648545
-3.936,0.03542438534494258,-0.1462629799820306
-3.9355,0.02475421048725994,-0.3052125560595421
-3.935,0.408880505363835,-0.2946159176543747
-3.9345,0.5582629533713921,-0.326405832869877
-3.934,0.1314559590640864,-0.5277419625680583
-3.9335,0.07810508477567314,-0.01910331912002144
-3.933,0.07810508477567314,0.5001319627331828
-3.9325,0.1101156093487211,0.8286277532933731
-3.932,0.3341892813600565,1.072350436612224
-3.9315,0.4408910299368829,1.019367244586387
-3.931,0.3661998059331045,0.7120647308365314
-3.9305,0.3021787567870086,0.3623756634660061
-3.93,0.2488278824985954,0.01268659609548085
-3.9295,0.2061471830678648,-0.2946159176543747
-3.929,-0.07127736323188383,-0.2098428104130352
-3.9285,-0.7755089038389382,0.2987958330350016
-3.928,-1.479740444445993,0.6484849004055269
-3.9275,-2.109280761049269,0.8180311148882058
-3.927,-2.098610586191586,0.6378882620003594
-3.9265,-1.447729919872945,0.002089957690313421
-3.926,-0.7328282044082075,-0.6019184314042303
-3.9255,-0.1779791118087102,-0.9516074987747555
-3.925,0.142126133921769,-1.05757388282643
-3.9245,0.2701682322139607,-0.9728007755850904
-3.924,0.3128489316446912,-0.7502713690765743
-3.9235,0.291508581929326,-0.4641621321370536
-3.923,0.2594980573562781,-0.1356663415768632
-3.9225,0.2274875327832301,0.1928294489833272
-3.922,0.2061471830678648,0.5001319627331828
-3.9215,0.1954770082101822,0.7438546460520338
-3.921,0.2381577076409128,0.849821030103708
-3.9205,0.2808384070716433,0.4259554938970107
-3.92,0.01408403562957729,-0.08268314955102604
-3.9195,-0.572775581542968,-0.4429688553267188
-3.919,-0.4660738329661415,-0.570128516188728
-3.9185,0.07810508477567314,-0.4959520473525559
-3.918,0.5582629533713921,-0.3052125560595421
-3.9175,0.79300680024041,0.07626642652648545
-3.917,0.6009436528021226,0.4471487707073456
-3.9165,-0.06060718837420119,0.3199891098453364
-3.916,-0.1352984123779797,0.5743084315693548
-3.9155,-0.06060718837420119,0.6484849004055269
-3.915,0.1527963087794516,0.5849050699745222
-3.9145,0.3235191065023739,0.5213252395435176
-3.914,0.3235191065023739,0.2881991946298341
-3.9135,0.2594980573562781,-0.008506680714854012
-3.913,0.2061471830678648,-0.2734226408440398
-3.9125,-0.2099896363817582,-0.1250697031716958
-3.912,-1.074273799854052,0.457745409112513
-3.9115,-1.917217613610981,0.9663840525605498
-3.911,-2.536087755356574,0.9981739677760521
-3.9105,-2.877533350802418,0.2987958330350016
-3.91,-2.205312334768412,-0.2310360872233701
-3.9095,-1.26633694729234,-0.5807251545938954
-3.909,-0.4874141826815069,-0.7396747306714069
-3.9085,0.00341386077189465,-0.7396747306714069
-3.908,0.2274875327832301,-0.6443049850249
-3.9075,0.3128489316446912,-0.474758770542221
-3.907,0.3341892813600565,-0.2416327256285375
-3.9065,0.3021787567870086,-0.02969995752518888
-3.906,0.2594980573562781,0.1928294489833272
-3.9055,0.2274875327832301,0.4047622170866759
-3.905,0.2168173579255475,0.5955017083796896
-3.9045,0.2488278824985954,0.701468092431364
-3.904,0.3448594562177392,0.2987958330350016
-3.9035,0.2701682322139607,-0.2204394488182027
-3.903,-0.1459685872356623,-0.5277419625680583
-3.9025,-0.2953510352432193,-0.6972881770507372
-3.902,0.03542438534494258,-0.6760949002404023
-3.9015,0.4515612047945656,-0.5807251545938954
-3.901,0.7503261008096795,-0.4111789401112165
-3.9005,0.8143471499557753,-0.04029659593035631
-3.9,0.707645401378949,0.4683420475176805
-3.8995,0.4408910299368829,0.7650479228623686
-3.899,-0.2313299860971235,0.3729723018711736
-3.8985,-0.4020527838200457,0.2246193641988295
-3.898,-0.2633405106701714,0.2246193641988295
-3.8975,-0.124628237520297,0.1292496185523226
-3.897,0.07810508477567314,0.08686306493165288
-3.8965,0.2061471830678648,-0.06148987274069118
-3.896,0.1954770082101822,-0.2734226408440398
-3.8955,0.3235191065023739,-0.2310360872233701
-3.895,0.02475421048725994,0.1504428953626575
-3.8945,-0.9142211769888124,0.5637117931641874
-3.894,-1.586442193022819,0.7120647308365314
-3.8935,-1.351698346153801,0.3305857482505039
-3.893,-0.7968492535543035,-0.1992461720078678
-3.8925,-0.3060212101009019,-0.6231117082145651
-3.892,0.03542438534494258,-0.8244478379127463
-3.8915,0.2061471830678648,-0.8244478379127463
-3.891,0.2808384070716433,-0.6866915386455698
-3.8905,0.291508581929326,-0.474758770542221
-3.89,0.2808384070716433,-0.2098428104130352
-3.8895,0.2381577076409128,0.04447651131098315
-3.889,0.2168173579255475,0.2987958330350016
-3.8885,0.2168173579255475,0.55311515475902
-3.888,0.2274875327832301,0.775644561267536
-3.8875,0.142126133921769,0.7332580076468663
-3.887,-0.07127736323188383,0.1716361721729923
-3.8865,-0.5300948821122373,-0.400582301706049
