Class_4_Move_right_hand_Horiszontal/Class_4_Move_right_hand_Horiszontal_AM_9.csv

#Digilent WaveForms Oscilloscope Acquisition
#Device Name: EExplorer
#Serial Number: SN:210151A2B84A
#Date Time: 2020-12-14 14:11:39.619
#Sample rate: 2000Hz
#Samples: 16384
#Trigger: Source: Channel 1 Type: Edge Condition: Rising Level: 0 V Hyst.: Auto HoldOff: 0 s
#Channel 1: Range: 1 V/div Offset: 0 V Attenuation: 1 X
#Channel 2: Range: 1 V/div Offset: 0 V Attenuation: 1 X
#Power Supplies: ON
#Fixed Supply: ON
#Voltage: 3.3 V Readback: 3.32 V
#Positive Supply: ON
#Voltage: 3.7 V Readback: 3.715 V
#Current: 40 mA Readback: 19 mA
#Negative Supply: ON
#Voltage: -3.7 V Readback: -3.343 V
#Current: -40 mA Readback: -7 mA
#Reference 1: ON
#Voltage: 0 V
#Reference 2: ON
#Voltage: 0 V

Time (s),Channel 1 (V),Channel 2 (V)
-4.096,0.3555296310754218,0.1504428953626575
-4.0955,0.7503261008093205,0.4577454091122335
-4.095,0.4408910299361551,0.9557874141556811
-4.0945,-0.3593720843893152,1.284283204715573
-4.094,-1.116954499284094,1.422039503982624
-4.0935,-1.180975548430558,1.008770606180583
-4.093,-0.8288597781273515,0.309392471440169
-4.0925,-0.4340633083934527,-0.2628260024383519
-4.092,-0.1352984123778244,-0.5913217929991592
-4.0915,0.03542438534494258,-0.6972881770507372
-4.091,0.1207857842064037,-0.6549016234300674
-4.0905,0.1421261339217593,-0.5383386009730811
-4.09,0.1314559590640864,-0.3793890248957141
-4.0895,0.1101156093487211,-0.2416327256285375
-4.089,0.08877525963337518,-0.1356663415769596
-4.0885,0.07810508477567314,-0.07208651114585861
-4.088,0.03542438534494258,0.02328323450064829
-4.0875,-0.4554036581080125,0.139846256957384
-4.087,-0.9889124009927756,0.27760255622511
-4.0865,-1.191645723288561,0.7650479228623686
-4.086,-0.9782422261351025,1.051157159801629
-4.0855,-0.2206598112387615,0.3199891098443919
-4.085,0.5262524287983441,-0.718481453861072
-4.0845,0.9637295979629346,-1.386069673386013
-4.084,1.049090996824648,-1.343683119765613
-4.0835,0.8890383739595538,-0.9728007755850904
-4.083,0.6542945270905358,-0.5807251545938954
-4.0825,0.4622313796521803,-0.2522293640334641
-4.082,0.3875401556484697,0.01268659609548085
-4.0815,0.2808384070716433,0.1610395337678249
-4.081,0.2061471830679328,0.2352160026039295
-4.0805,0.142126133921769,0.2776025562246667
-4.08,0.1101156093487211,0.2881991946298341
-4.0795,0.02475421048733757,0.4577454091123588
-4.079,-0.4447334832511645,0.8816109453195476
-4.0785,-0.8715404775580819,1.25249328950007
-4.078,-1.223656247861289,1.485619334413542
-4.0775,-1.543761493591904,1.52800588803398
-4.077,-1.341028171296118,1.040560521396722
-4.0765,-0.8502001278431631,0.2776025562253606
-4.076,-0.4020527838197546,-0.3370024712753721
-4.0755,-0.08194753808956648,-0.6972881770507372
-4.075,0.07810508477567314,-0.8138511995075789
-4.0745,0.1421261339217787,-0.7608680074816165
-4.074,0.1527963087794516,-0.6231117082145651
-4.0735,0.142126133921769,-0.4535654937318862
-4.073,0.1101156093487502,-0.2946159176545192
-4.0725,0.08877525963335578,-0.1674562567923655
-4.072,0.07810508477567314,-0.08268314955102604
-4.0715,0.07810508477567314,-0.02969995752523707
-4.071,-0.1566387620938302,0.214022725794144
-4.0705,-0.690147504977477,0.7438546460520338
-4.07,-1.06360362499603,1.263089927904766
-4.0695,-1.10628432442646,1.549199164844122
-4.069,-0.4020527838200457,0.849821030103708
-4.0685,0.4408910299368829,-0.3370024712750445
-4.068,0.9957401225365549,-1.248313374119704
-4.0675,1.187803269974668,-1.534422611058964
-4.067,1.113112045970889,-1.237716735714276
-4.0665,0.8783681991016287,-0.7714646458865334
-4.066,0.6116138276598051,-0.3581957480853793
-4.0655,0.5155822539406614,-0.1144730647665284
-4.065,0.419550680221605,0.1080563417417854
-4.0645,0.291508581929326,0.2670059178194992
-4.064,0.1954770082101822,0.3517790250608387
-4.0635,0.1314559590641446,0.4047622170866277
-4.063,0.07810508477527525,0.4895353243283527
-4.0625,-0.3593720843893152,0.8604176685088755
-4.062,-0.7648387289808867,1.284283204715187
-4.0615,-1.127624674142863,1.528005888034414
-4.061,-1.565101843307454,1.517409249629256
-4.0605,-1.714484291315011,1.316073119931075
-4.06,-1.255666772434152,0.6272916235945173
-4.0595,-0.7008176798351597,-0.1144730647665284
-4.059,-0.2633405106701714,-0.6231117082145651
-4.0585,0.003413860771652011,-0.8668343915331944
-4.058,0.1207857842064037,-0.9092209451540858
-4.0575,0.1634664836371343,-0.8244478379127463
-4.057,0.1527963087794613,-0.6654982618353794
-4.0565,0.1314559590640864,-0.4853554089473885
-4.056,0.1101156093487211,-0.3370024712750445
-4.0555,0.08877525963337518,-0.2098428104131509
-4.055,0.08877525963321992,-0.1250697031715512
-4.0545,-0.06060718837420119,0.03387987290581572
-4.054,-0.6261264558308669,0.4259554938966541
-4.0535,-1.084943974711861,0.9451907757504944
-4.053,-1.223656247861609,1.25249328950007
-4.0525,-0.6474668055467465,0.775644561267536
-4.052,0.1527963087800048,-0.2734226408448301
-4.0515,0.7609962756673623,-1.142346990067769
-4.051,1.038420821967111,-1.34368311976595
-4.0505,1.017080472251765,-1.046977244421532
-4.05,0.825017324813458,-0.6443049850249
-4.0495,0.5796033030867573,-0.2628260024388724
-4.049,0.4622313796523549,-0.02969995752540092
-4.0485,0.4729015545098532,0.1186529801472516
-4.048,0.3875401556484697,0.2246193641988295
-4.0475,0.2701682322140674,0.2881991946297763
-4.047,0.1848068333524607,0.3199891098453653
-4.0465,0.142126133921769,0.3517790250608387
-4.046,0.09944543449107725,0.5849050699743101
-4.0455,-0.1886492866666452,1.019367244586695
-4.045,-0.4660738329661415,1.358459673551745
-4.0445,-0.807519428411986,1.528005888034424
-4.044,-1.020922925565435,1.347863035145941
-4.0435,-0.7968492535543035,0.6484849004055269
-4.043,-0.4554036581084589,-0.06148987274069118
-4.0425,-0.1673089369512896,-0.538338600972792
-4.042,0.01408403562957729,-0.7820612842920766
-4.0415,0.09944543449103843,-0.8138511995075789
-4.041,0.1314559590640572,-0.7290780922663165
-4.0405,0.1314559590640766,-0.5913217929989183
-4.04,0.1207857842064037,-0.4323722169215513
-4.0395,0.09944543449105783,-0.2946159176545
-4.039,0.08877525963334608,-0.19924617200781
-4.0385,0.07810508477567314,-0.1356663415768632
-4.038,0.02475421048730846,-0.09327978795623203
-4.0375,-0.4554036581091188,0.1292496185528045
-4.037,-1.180975548430879,0.6590815388106942
-4.0365,-1.842526389607202,1.178316820663898
-4.036,-1.72515446617182,1.326669758335481
-4.0355,-0.7648387289812555,0.4895353243280153
-4.035,0.1848068333524996,-0.6549016234300674
-4.0345,0.7930068002398569,-1.417859588601429
-4.034,0.9957401225363802,-1.449649503817625
-4.0335,0.9103787236749192,-1.036380606016095
-4.033,0.6863050516637876,-0.5807251545943097
-4.0325,0.5155822539407099,-0.178052895197186
-4.032,0.5689331282290746,0.2034260873884947
-4.0315,0.504912079083037,0.2987958330349149
-4.031,0.3661998059329977,0.2352160026039102
-4.0305,0.2488278824985954,0.13984625695749
-4.03,0.1634664836372119,0.07626642652654328
-4.0295,0.2274875327837542,0.1504428953629755
-4.029,0.8036769750980928,0.5001319627331828
-4.0285,0.942389248247967,0.9875773293708847
-4.028,0.2701682322131164,1.379652950362253
-4.0275,-0.658136980404429,1.570392441655093
-4.027,-0.9995825758502737,1.210106735879401
-4.0265,-0.8075194284121607,0.4895353243286708
-4.026,-0.4767440078238243,-0.1356663415768632
-4.0255,-0.1886492866663929,-0.5065486857577234
-4.025,0.003413860771719956,-0.6443049850247746
-4.0245,0.09944543449106755,-0.6125150698092916
-4.024,0.1314559590640864,-0.4959520473525559
-4.0235,0.1314559590640864,-0.337002471275189
-4.023,0.1207857842063843,-0.1780528951974173
-4.0225,0.09944543449103843,-0.05089323433552374
-4.022,0.08877525963336548,0.01268659609542303
-4.0215,0.07810508477540141,0.07626642652671675
-4.021,-0.2206598112394408,0.3305857482505039
-4.0205,-0.5941159312583333,0.8180311148882058
-4.02,-0.764838728981139,1.273686566310463
-4.0195,-0.6367966306890638,1.33726639674141
-4.019,-0.04993701351651855,0.4895353243280153
-4.0185,0.5689331282285117,-0.6760949002393422
-4.018,0.9637295979633325,-1.545019249464132
-4.0175,1.081101521397841,-1.735758740757146
-4.017,0.9530594231057662,-1.364876396576623
-4.0165,0.7289857510941202,-0.8562377531278632
-4.016,0.5155822539406614,-0.4323722169215513
-4.0155,0.600943652802045,-0.09327978795650188
-4.015,0.6329541773750444,0.1080563417420263
-4.0145,0.4942419042252961,0.1504428953626575
-4.014,0.3341892813602021,0.1398462569574997
-4.0135,0.2061471830678357,0.1186529801471937
-4.013,0.1741366584948169,0.1610395337678249
-4.0125,0.5369226036560266,0.457745409112513
-4.012,0.6649647019477137,0.8710143069144187
-4.0115,0.1101156093487211,1.284283204715573
-4.011,-0.7755089038389382,1.549199164844759
-4.0105,-1.298347471864912,1.506812611224127
-4.01,-1.127624674142465,0.8710143069140429
-4.0095,-0.7114878546928423,0.1504428953626575
-4.009,-0.3273615598166166,-0.3687923864900745
-4.0085,-0.07127736323174796,-0.633708346619771
-4.008,0.07810508477567314,-0.6760949002404023
-4.0075,0.1314559590640378,-0.5913217929991399
-4.007,0.1421261339217496,-0.4429688553265645
-4.0065,0.1207857842064037,-0.2734226408440398
-4.006,0.09944543449103843,-0.1356663415768632
-4.0055,0.08877525963334608,-0.02969995752513105
-4.005,0.07810508477567314,0.03387987290581572
-4.0045,-0.07127736323188383,0.01268659609548085
-4.004,-0.572775581543298,0.3941655786820096
-4.0035,-0.9355615267041777,0.9451907757502149
-4.003,-1.020922925565639,1.25249328950007
-4.0025,-0.2313299860978415,0.6696781772163917
-4.002,0.6009436528021226,-0.4535654937318862
-4.0015,1.113112045970889,-1.364876396576285
-4.001,1.294505018551329,-1.735758740756808
-4.0005,1.177133095116733,-1.502632695843019
-4,0.8997085488172365,-1.01518732920576
-3.9995,0.5796033030867573,-0.5277419625680583
-3.999,0.4729015545099309,-0.06148987274069118
-3.9985,0.5049120790829789,0.2564092794143318
-3.998,0.408880505363835,0.2881991946298341
-3.9975,0.2808384070716433,0.2034260873884947
-3.997,0.1848068333524996,0.1292496185523226
-3.9965,0.1314559590640864,0.08686306493165288
-3.996,0.142126133921769,0.3199891098453364
-3.9955,0.2274875327832301,0.775644561267536
-3.995,-0.3166913849585846,1.231300012689736
-3.9945,-0.9782422261349084,1.496215972818921
-3.994,-1.394379045584531,1.475022696008586
-3.9935,-1.170305373573196,0.8710143069140429
-3.993,-0.722158029550525,0.1716361721729923
-3.9925,-0.3273615598162672,-0.3370024712750445
-3.992,-0.06060718837420119,-0.5807251545938954
-3.9915,0.07810508477567314,-0.6337083466197325
-3.991,0.1314559590640864,-0.5489352393783931
-3.9905,0.142126133921769,-0.4111789401112165
-3.99,0.1207857842064037,-0.2416327256285375
-3.9895,0.09944543449103843,-0.1144730647665284
-3.989,0.07810508477567314,-0.02969995752518888
-3.9885,0.07810508477567314,-0.008506680714854012
-3.988,0.02475421048725994,-0.04029659593035631
-3.9875,-0.4127229586777283,0.2034260873884947
-3.987,-0.9995825758502737,0.7650479228623686
-3.9865,-1.383708870726849,1.220703374284568
-3.986,-1.138294849000148,1.061753798207057
-3.9855,-0.3700422592469978,0.1292496185523226
-3.985,0.3661998059331045,-0.7714646458869092
-3.9845,0.8143471499557753,-1.184733543688439
-3.984,0.9530594231056497,-1.195330182093607
-3.9835,0.8463576745288233,-0.9092209451540858
-3.983,0.6222840025174878,-0.570128516188728
-3.9825,0.4408910299368829,-0.2734226408440398
-3.982,0.4835717293676135,0.08686306493165288
-3.9815,0.4302208550792003,0.2034260873884947
-3.981,0.3235191065023739,0.1928294489833272
-3.9805,0.2168173579255475,0.1504428953626575
-3.98,0.142126133921769,0.1292496185523226
-3.9795,-0.08194753808956648,0.2987958330350016
-3.979,-0.7114878546928423,0.7862411996727035
-3.9785,-1.074273799854052,1.25249328950007
-3.978,-1.212986073003927,1.496215972818921
-3.9775,-1.51175096901904,1.538602526439591
-3.977,-1.490410619303675,1.273686566310405
-3.9765,-1.031593100423322,0.5849050699745222
-3.976,-0.5407650569699201,-0.05089323433552374
-3.9755,-0.1779791118087102,-0.4323722169215513
-3.975,0.03542438534494258,-0.5595318777835605
-3.9745,0.1314559590640864,-0.5277419625680583
-3.974,0.1527963087794516,-0.3793890248957141
-3.9735,0.142126133921769,-0.1992461720078678
-3.973,0.1207857842064037,-0.02969995752518888
-3.9725,0.08877525963335578,0.09745970333682032
-3.972,0.07810508477567314,0.1610395337678249
-3.9715,0.0674349099179905,0.1716361721729923
-3.971,-0.2953510352432193,0.2564092794143318
-3.9705,-0.8502001278427167,0.4895353243280153
-3.97,-1.26633694729234,0.9345941373450475
-3.9695,-1.394379045584531,1.199510097474233
-3.969,-0.8608703027003992,0.6060983467848571
-3.9685,-0.03926683865883591,-0.4641621321370536
-3.968,0.6116138276598051,-1.34368311976595
-3.9675,0.9317190733902845,-1.640388995110639
-3.967,0.9210488985326017,-1.396666311791788
-3.9665,0.7396559259519968,-0.9410108603695881
-3.966,0.5262524287983441,-0.5065486857577234
-3.9655,0.4302208550792003,-0.09327978795619347
-3.965,0.3661998059331045,0.1292496185523226
-3.9645,0.2701682322139607,0.1610395337678249
-3.964,0.1848068333524996,0.1292496185523226
-3.9635,0.1314559590640864,0.08686306493165288
-3.963,0.1101156093487211,0.05507314971615059
-3.9625,0.4942419042252961,-0.3370024712750445
-3.962,1.134452395686255,-0.8138511995075789
-3.9615,0.9957401225363802,-0.4111789401112165
-3.961,0.1848068333524996,0.2246193641988295
-3.9605,-0.690147504977477,0.7438546460520338
-3.96,-0.8715404775580819,0.5743084315693548
-3.9595,-0.658136980404429,0.07626642652648545
-3.959,-0.3700422592469978,-0.3687923864905467
-3.9585,-0.124628237520297,-0.6337083466197325
-3.958,0.02475421048725994,-0.7396747306714069
-3.9575,0.09944543449103843,-0.7078848154559045
-3.957,0.1207857842064037,-0.6125150698093976
-3.9565,0.1101156093487211,-0.4853554089473885
-3.956,0.08877525963335578,-0.3793890248957141
-3.9555,0.07810508477567314,-0.2734226408440398
-3.955,0.0674349099179905,-0.2098428104130352
-3.9545,-0.124628237520297,-0.1144730647665284
-3.954,-0.7008176798351597,0.3517790250608387
-3.9535,-1.138294849000148,0.9345941373450475
-3.953,-1.405049220442214,1.241896651094903
-3.9525,-0.7755089038389382,0.5001319627331828
-3.952,0.1101156093487211,-0.6337083466197325
-3.9515,0.7716664505250448,-1.439052865412457
-3.951,1.081101521397841,-1.576809164679634
-3.9505,1.059761171682476,-1.237716735714276
-3.95,0.8463576745288233,-0.7608680074817418
-3.9495,0.5796033030867573,-0.3581957480853793
-3.949,0.4729015545099309,0.01268659609548085
-3.9485,0.5049120790829789,0.2881991946298341
-3.948,0.408880505363835,0.3305857482505039
-3.9475,0.2808384070716433,0.2776025562246667
-3.947,0.1848068333524996,0.2034260873884947
-3.9465,0.1314559590640864,0.1610395337678249
-3.946,0.3982103305061524,0.3623756634660061
-3.9455,0.6436243522328531,0.775644561267536
-3.945,0.08877525963335578,1.199510097474233
-3.9445,-0.7434983792658902,1.411442865577582
-3.944,-1.383708870726849,1.42203950398275
-3.9435,-1.287677297007705,0.8922075837243778
-3.943,-0.8502001278427167,0.1716361721729923
-3.9425,-0.423393133535411,-0.3793890248957141
-3.942,-0.1139580626626144,-0.6866915386455698
-3.9415,0.05676473506030786,-0.7714646458869092
-3.941,0.1207857842064037,-0.7078848154559045
-3.9405,0.142126133921769,-0.5807251545938954
-3.94,0.1314559590640864,-0.4111789401112165
-3.9395,0.1101156093487211,-0.2628260024388724
-3.939,0.08877525963335578,-0.1356663415768632
-3.9385,0.07810508477567314,-0.06148987274069118
-3.938,0.08877525963335578,-0.09327978795619347
-3.9375,0.3555296310754218,-0.5489352393783931
-3.937,0.6542945270905358,-0.8668343915334161
-3.9365,0.3448594562177392,-0.326405832869877
-3.936,0.05676473506030786,0.2564092794143318
-3.9355,0.3555296310754218,-0.1568596183871981
-3.935,0.7609962756673623,-0.9728007755850904
-3.9345,1.017080472251745,-1.502632695843462
-3.934,1.049090996824793,-1.460246142222792
-3.9335,0.8783681991018712,-1.110557074852267
-3.933,0.6436243522328531,-0.7290780922662394
-3.9325,0.4622313796522482,-0.3687923864905467
-3.932,0.5582629533713921,0.06566978812131802
-3.9315,0.5155822539406614,0.1716361721729923
-3.931,0.3875401556484697,0.09745970333682032
-3.9305,0.2488278824985954,-0.01910331912002144
-3.93,0.1527963087794516,-0.1250697031716958
-3.9295,0.142126133921769,-0.06148987274069118
-3.929,0.4622313796522482,0.2670059178194992
-3.9285,0.2808384070716433,0.7650479228623686
-3.928,-0.2206598112394408,1.146526905448396
-3.9275,-0.8822106524157645,1.326669758336243
-3.927,-0.9995825758502737,0.9875773293708847
-3.9265,-0.7328282044082075,0.3411823866556712
-3.926,-0.4020527838200457,-0.1886495336027004
-3.9255,-0.1352984123779797,-0.4959520473525559
-3.925,0.01408403562957729,-0.5913217929990628
-3.9245,0.08877525963335578,-0.5383386009732256
-3.924,0.1101156093487211,-0.400582301706049
-3.9235,0.1101156093487211,-0.2310360872233701
-3.923,0.08877525963335578,-0.09327978795619347
-3.9225,0.07810508477567314,0.01268659609548085
-3.922,0.0674349099179905,0.07626642652648545
-3.9215,0.05676473506030786,0.09745970333682032
-3.921,-0.1352984123779797,0.2352160026039969
-3.9205,-0.6047861061160158,0.701468092431364
-3.92,-1.042263275281004,1.199510097474233
-3.9195,-1.26633694729234,1.506812611224089
-3.919,-0.6261264558313813,0.9345941373450475
-3.9185,0.2274875327832301,-0.2628260024388724
-3.918,0.8356874996711408,-1.280103289334946
-3.9175,1.091771696255524,-1.640388995110639
-3.917,1.027750647109428,-1.354279758171118
-3.9165,0.7823366253827275,-0.8880276683437509
-3.916,0.5369226036560266,-0.474758770542221
-3.9155,0.5155822539406614,-0.07208651114585861
-3.915,0.4942419042252961,0.13984625695749
-3.9145,0.3768699807907871,0.1610395337678249
-3.914,0.2488278824985954,0.1080563417419877
-3.9135,0.1527963087794516,0.04447651131098315
-3.913,0.08877525963335578,0.07626642652648545
-3.9125,-0.3060212101009019,0.4683420475176805
-3.912,-0.7968492535543035,0.9875773293708847
-3.9115,-1.330357996438436,1.369056311956912
-3.911,-1.767835165603424,1.464426057603419
-3.9105,-2.045259711903173,1.432636142387917
-3.91,-1.565101843307454,0.8816109453192104
-3.9095,-0.9248913518464952,0.1822328105781598
-3.909,-0.4020527838200457,-0.326405832869877
-3.9085,-0.07127736323188383,-0.5913217929990628
-3.908,0.09944543449103843,-0.6337083466197325
-3.9075,0.1527963087794516,-0.5277419625680583
-3.907,0.1527963087794516,-0.3581957480853793
-3.9065,0.1314559590640864,-0.1780528951975329
-3.906,0.09944543449103843,-0.04029659593035631
-3.9055,0.07810508477567314,0.05507314971615059
-3.905,0.0674349099179905,0.1186529801471552
-3.9045,-0.08194753808956648,0.1928294489833272
-3.904,-0.5834457564006506,0.1716361721729923
-3.9035,-0.839529952985034,0.4047622170866759
-3.903,-0.9355615267041777,0.7862411996727035
-3.9025,-0.3166913849585846,0.6802748156210291
-3.902,0.4302208550792003,-0.2098428104130352
-3.9015,0.942389248247967,-1.163540266878104
-3.901,1.15579274540162,-1.735758740757146
-3.9005,1.091771696255524,-1.640388995110639
-3.9,0.8676980242441885,-1.174136905283272
-3.8995,0.5902734779444399,-0.6760949002404023
-3.899,0.4835717293676135,-0.2628260024388724
-3.8985,0.5475927785137094,0.1186529801471552
-3.898,0.4515612047945656,0.1822328105781598
-3.8975,0.3128489316446912,0.09745970333682032
-3.897,0.1954770082101822,-0.008506680714854012
-3.8965,0.1207857842064037,-0.07208651114585861
-3.896,0.04609456020262521,0.13984625695749
-3.8955,0.05676473506030786,0.5955017083796896
-3.895,-0.274010685527854,1.082947075017392
-3.8945,-0.8502001278427167,1.400846227172415
-3.894,-1.330357996438436,1.475022696008586
-3.8935,-1.180975548430879,0.9451907757502149
-3.893,-0.7648387289812555,0.2352160026039969
-3.8925,-0.3593720843893152,-0.3052125560595421
-3.892,-0.09261771294724913,-0.5807251545938954
-3.8915,0.05676473506030786,-0.6337083466197325
-3.891,0.1207857842064037,-0.5595318777835605
-3.8905,0.1314559590640864,-0.4111789401112165
-3.89,0.1101156093487211,-0.2310360872233701
-3.8895,0.08877525963335578,-0.1038764263613609
-3.889,0.07810508477567314,-0.04029659593035631
-3.8885,0.0674349099179905,0.01268659609548085
-3.888,0.01408403562957729,0.06566978812131802
-3.8875,-0.4554036581084589,0.3517790250608387
