Class_4_Move_right_hand_Horiszontal/Class_4_Move_right_hand_Horiszontal_Suko_9.csv

#Digilent WaveForms Oscilloscope Acquisition
#Device Name: EExplorer
#Serial Number: SN:210151A2B84A
#Date Time: 2021-01-28 10:05:10.158
#Sample rate: 2000Hz
#Samples: 16384
#Trigger: Source: Channel 1 Type: Edge Condition: Rising Level: 0 V Hyst.: Auto HoldOff: 0 s
#Channel 1: Range: 1 V/div Offset: 0 V Attenuation: 1 X
#Channel 2: Range: 1 V/div Offset: 0 V Attenuation: 1 X
#Power Supplies: ON
#Fixed Supply: ON
#Voltage: 3.3 V Readback: 3.331 V
#Positive Supply: ON
#Voltage: 3.7 V Readback: 3.715 V
#Current: 40 mA Readback: 19 mA
#Negative Supply: ON
#Voltage: -3.7 V Readback: -3.351 V
#Current: -40 mA Readback: -10 mA
#Reference 1: ON
#Voltage: 0 V
#Reference 2: ON
#Voltage: 0 V

Time (s),Channel 1 (V),Channel 2 (V)
-4.096,0.8143471499557753,0.7226613692416989
-4.0955,1.625280439138919,1.443232780792429
-4.095,2.009406734015416,1.835308401783768
-4.0945,1.113112045970889,1.273686566310405
-4.094,-0.348701909530303,0.1398462569585213
-4.0935,-1.629122892454277,-0.8032545611028162
-4.093,-2.429386006779747,-1.248313374119443
-4.0925,-2.066600061618868,-1.015187329205972
-4.092,-1.362368521010969,-0.4959520473521222
-4.0915,-0.7968492535543035,-0.01910331912002144
-4.091,-0.4127229586777283,0.2670059178194992
-4.0905,-0.2206598112394506,0.3411823866555652
-4.09,-0.2313299860971235,0.2246193641988295
-4.0895,-0.423393133535411,-0.008506680714854012
-4.089,-0.764838728980945,-0.2734226408437989
-4.0885,-1.362368521011484,-0.4111789401112165
-4.088,-1.351698346153801,-0.07208651114585861
-4.0875,-0.2633405106711613,0.7120647308358182
-4.087,0.9743997728215003,1.432636142387985
-4.0865,1.507908515705147,1.506812611224089
-4.086,1.102441871113576,0.8180311148888322
-4.0855,0.6222840025171773,-0.008506680715441904
-4.085,0.2808384070716433,-0.6549016234300674
-4.0845,0.08877525963353047,-1.099960436446695
-4.084,0.02475421048725994,-1.333086481360841
-4.0835,0.02475421048725994,-1.396666311791788
-4.083,0.04609456020262521,-1.364876396576285
-4.0825,0.1848068333525384,-1.089363798041691
-4.082,0.2274875327832301,-0.8244478379127463
-4.0815,0.1207857842064037,-0.6972881770507372
-4.081,-0.007256314085671539,-0.5807251545940014
-4.0805,-0.1139580626626144,-0.4217755785163839
-4.08,-0.02859666380115328,-0.09327978795619347
-4.0795,0.6009436528015499,0.606098346784221
-4.079,1.433217291701912,1.34786303514705
-4.0785,2.030747083731597,1.867098316999781
-4.078,1.57192956485166,1.612778995275995
-4.0775,0.1527963087783259,0.5319218779477309
-4.077,-1.084943974711735,-0.5171453241628908
-4.0765,-1.426389570157269,-0.8350444763176247
-4.076,-1.191645723288221,-0.5701285161882943
-4.0755,-0.8181896032696687,-0.09327978795619347
-4.075,-0.5087545323968721,0.3729723018711736
-4.0745,-0.3060212101008146,0.6696781772158905
-4.074,-0.2099896363817582,0.701468092431364
-4.0735,-0.2099896363817582,0.55311515475902
-4.073,-0.3807124341045252,0.2034260873888127
-4.0725,-0.690147504977477,-0.2098428104130352
-4.072,-1.298347471865388,-0.5065486857577234
-4.0715,-1.682473766741613,-0.5489352393783545
-4.071,-0.8288597781261579,0.002089957691094066
-4.0705,0.4835717293676135,0.8604176685088755
-4.07,1.443887466558178,1.390249588766765
-4.0695,1.241154144262615,0.8922075837237706
-4.069,0.7289857510943143,0.2246193641988295
-4.0685,0.3875401556484697,-0.3052125560595421
-4.068,0.2274875327832107,-0.6760949002406529
-4.0675,0.2061471830678648,-0.9516074987747555
-4.067,0.1954770082101822,-1.152943628472937
-4.0665,0.1527963087795002,-1.227120097309032
-4.066,0.2061471830678648,-1.142346990067769
-4.0655,0.3128489316446912,-0.9410108603695881
-4.065,0.2168173579256348,-0.8244478379128524
-4.0645,0.05676473506030786,-0.7078848154559045
-4.064,-0.07127736323188383,-0.5595318777835605
-4.0635,-0.1139580626625756,-0.3052125560597734
-4.063,0.3128489316454288,0.2776025562253702
-4.0625,1.123782220828572,1.051157159801889
-4.062,1.860024286008005,1.697552102516515
-4.0615,1.806673411719116,1.941274785835385
-4.061,0.5475927785137094,1.316073119931075
-4.0605,-0.8928808272734472,0.1504428953626575
-4.06,-1.970568487899501,-0.7820612842922886
-4.0595,-2.087940411333903,-1.01518732920576
-4.059,-1.533091318734406,-0.6972881770507372
-4.0585,-0.9569018764200672,-0.2416327256289519
-4.058,-0.5407650569699201,0.1080563417419877
-4.0575,-0.2846808603855366,0.2987958330350016
-4.057,-0.1886492866664802,0.3305857482504749
-4.0565,-0.274010685527854,0.2034260873884947
-4.056,-0.4980843575391895,-0.02969995752518888
-4.0555,-1.031593100422836,-0.2946159176541338
-4.055,-1.629122892453181,-0.432372216921214
-4.0545,-1.223656247861609,-0.06148987274069118
-4.054,0.03542438534379744,0.7332580076461435
-4.0535,1.209143619690247,1.400846227172212
-4.053,1.443887466559051,1.178316820663898
-4.0525,0.9850699476786977,0.4153588554918433
-4.052,0.5155822539403994,-0.2628260024393543
-4.0515,0.2274875327832301,-0.792657922697244
-4.051,0.0674349099179905,-1.152943628472937
-4.0505,0.01408403562962582,-1.322489842955461
-4.05,0.04609456020262521,-1.354279758171118
-4.0495,0.09944543449103843,-1.269506650929778
-4.049,0.2808384070714783,-1.036380606016307
-4.0485,0.2594980573561519,-0.898624306748822
-4.048,0.1207857842064037,-0.792657922697244
-4.0475,-0.01792648894334448,-0.6654982618353505
-4.047,-0.1139580626624106,-0.485355408947003
-4.0465,0.1101156093487211,-0.06148987274069118
-4.046,0.8570278493858267,0.6696781772151966
-4.0455,1.657290963713024,1.379652950362485
-4.045,2.009406734016231,1.824711763379112
-4.0445,1.038420821967111,1.443232780793084
-4.044,-0.3593720843899557,0.3199891098445943
-4.0435,-1.06360362499637,-0.4959520473525559
-4.043,-1.074273799854052,-0.6549016234300674
-4.0425,-0.8288597781275746,-0.4111789401114381
-4.042,-0.5621054066852853,0.002089957690313421
-4.0415,-0.3593720843893152,0.4259554938970107
-4.041,-0.2420001609549128,0.6590815388104821
-4.0405,-0.1993194615241338,0.6908714540260616
-4.04,-0.2633405106701714,0.5425185163538525
-4.0395,-0.4554036581082842,0.1928294489836452
-4.039,-0.8075194284125391,-0.188649533602922
-4.0385,-1.415719395299897,-0.4323722169215513
-4.038,-1.437059745015243,-0.4217755785163936
-4.0375,-0.3487019095304874,0.2034260873892464
-4.037,0.9103787236749192,1.029963882991555
-4.0365,1.433217291701369,1.273686566310405
-4.036,1.049090996824434,0.7968378380774372
-4.0355,0.6542945270905358,0.3199891098453364
-4.035,0.3021787567870086,-0.2416327256285375
-4.0345,0.1101156093488957,-0.7608680074812695
-4.034,0.04609456020262521,-1.078767159636765
-4.0335,0.0674349099179905,-1.163540266878104
-4.033,0.08877525963333638,-1.163540266878104
-4.0325,0.2274875327832398,-1.078767159636649
-4.032,0.2381577076409128,-0.9516074987747555
-4.0315,0.1207857842065105,-0.8456411147231776
-4.031,-0.01792648894356767,-0.6972881770505733
-4.0305,-0.124628237520297,-0.5171453241628908
-4.03,0.003413860771778188,-0.1250697031720523
-4.0295,0.6863050516643311,0.6378882620010436
-4.029,1.507908515705147,1.390249588767247
-4.0285,2.073427783162327,1.898888232215284
-4.028,1.486568165988462,1.77172857135233
-4.0275,0.03542438534494258,0.7332580076468663
-4.027,-1.319687821580753,-0.3899856633008816
-4.0265,-2.087940411333205,-1.036380606015507
-4.026,-1.842526389607202,-0.9304142219644207
-4.0255,-1.26633694729234,-0.4641621321370536
-4.025,-0.7648387289817116,0.02328323450020497
-4.0245,-0.4127229586775634,0.3305857482505906
-4.024,-0.2313299860971235,0.4259554938970107
-4.0235,-0.2099896363817776,0.3517790250609061
-4.023,-0.3807124341049327,0.09745970333654083
-4.0225,-0.658136980404429,-0.2098428104130352
-4.022,-1.244996597576441,-0.4323722169213489
-4.0215,-1.597112367879735,-0.2522293640330496
-4.021,-0.754168554123573,0.4683420475176805
-4.0205,0.5369226036560266,1.25249328950007
-4.02,1.43321729170133,1.623375633680439
-4.0195,1.390536592270638,1.082947075017392
-4.019,0.9637295979633325,0.2458126410091644
-4.0185,0.5582629533717609,-0.4641621321364079
-4.018,0.2701682322139607,-0.8668343915334161
-4.0175,0.1527963087794516,-1.05757388282643
-4.017,0.1421261339217787,-1.121153713257377
-4.0165,0.1527963087795487,-1.142346990067654
-4.016,0.2594980573562781,-1.01518732920576
-4.0155,0.3768699807906803,-0.7502713690768152
-4.015,0.2594980573561228,-0.6549016234300096
-4.0145,0.08877525963335578,-0.5913217929990628
-4.014,-0.06060718837406531,-0.4747587705423271
-4.0135,-0.08194753808911037,-0.209842810412457
-4.013,0.4195506802215176,0.4259554938970107
-4.0125,1.230483969405398,1.178316820663898
-4.012,1.934715510012375,1.782325209758616
-4.0115,1.849354111150991,1.973064701051456
-4.011,0.5689331282290746,1.231300012689736
-4.0105,-0.8822106524144446,0.03387987290690475
-4.01,-1.949228138184029,-0.8668343915334161
-4.0095,-2.045259711903173,-1.046977244421262
-4.009,-1.501080794161853,-0.6443049850252662
-4.0085,-0.946231701561482,-0.04029659592975878
-4.008,-0.5300948821122373,0.6166949851900245
-4.0075,-0.2846808603857598,1.157123543853072
-4.007,-0.1886492866665093,1.475022696008345
-4.0065,-0.3166913849585846,1.210106735879401
-4.006,-0.5941159312583333,0.6166949851900245
-4.0055,-1.159635198716008,0.0338798729055555
-4.005,-1.703814116457328,-0.252229364033705
-4.0045,-1.202315898146244,-0.1568596183871981
-4.004,0.08877525963441357,0.5319218779493308
-4.0035,1.251824319120764,1.241896651094903
-4.003,1.529248865420512,1.358459673551745
-4.0025,1.145122570544287,0.7968378380783817
-4.002,0.6969752265212663,0.09745970333682032
-4.0015,0.3768699807907871,-0.4959520473525559
-4.001,0.1954770082103472,-0.9410108603691834
-4.0005,0.1207857842063843,-1.20592682049887
-4,0.09944543449103843,-1.311893204550448
-3.9995,0.1314559590640864,-1.269506650929778
-3.999,0.291508581929326,-1.110557074852267
-3.9985,0.2594980573562781,-0.9622041371799229
-3.998,0.1101156093487211,-0.792657922697244
-3.9975,-0.02859666380115328,-0.6019184314042303
-3.997,-0.1139580626626144,-0.3687923864905467
-3.9965,0.1634664836371343,0.1504428953626575
-3.996,0.9317190733902845,0.9345941373450475
-3.9955,1.7213120128588,1.612778995275763
-3.995,2.020076908873914,2.004854616266958
-3.9945,1.017080472251745,2.036644531482461
-3.994,-0.4127229586777283,1.146526905448396
-3.9935,-1.180975548430879,0.01268659609548085
-3.993,-1.202315898146244,-0.4641621321370536
-3.9925,-0.9248913518464952,-0.4111789401112165
-3.992,-0.6154562809736985,-0.09327978795619347
-3.9915,-0.3807124341046804,0.309392471440169
-3.991,-0.2526703358124887,0.5849050699745222
-3.9905,-0.1993194615240755,0.6060983467848571
-3.99,-0.274010685527854,0.4365521323021782
-3.9895,-0.4660738329661415,0.1080563417419877
-3.989,-0.7861790786966207,-0.2310360872233701
-3.9885,-1.287677297007705,-0.4429688553267188
-3.988,-1.223656247861609,-0.326405832869877
-3.9875,-0.1352984123779797,0.3729723018711736
-3.987,1.070431346540159,1.167720182258731
-3.9865,1.614610264281974,1.316073119931075
-3.986,1.19847344483235,0.6696781772158616
-3.9855,0.6649647019482183,0.02328323450064829
-3.985,0.3021787567870086,-0.5383386009732256
-3.9845,0.142126133921769,-0.9198175835592532
-3.984,0.1101156093487211,-1.110557074852267
-3.9835,0.1207857842064037,-1.195330182093607
-3.983,0.142126133921769,-1.152943628472937
-3.9825,0.2594980573562781,-0.9092209451540858
-3.982,0.2701682322139607,-0.7078848154559045
-3.9815,0.1314559590640864,-0.6443049850249
-3.981,-0.007256314085787988,-0.5807251545938954
-3.9805,-0.124628237520297,-0.4641621321370536
-3.98,-0.007256314085787988,-0.1462629799820306
-3.9795,0.6542945270905358,0.5319218779486851
-3.979,1.475897991132099,1.263089927905238
-3.9785,2.020076908873914,1.79292184816361
-3.978,1.390536592270638,1.686955464111935
-3.9775,-0.06060718837420119,0.6484849004055269
-3.977,-1.202315898146244,-0.4217755785163839
-3.9765,-1.437059745015262,-0.7820612842920766
-3.976,-1.159635198715513,-0.5595318777835605
-3.9755,-0.7861790786966207,-0.1250697031716958
-3.975,-0.4874141826815069,0.2670059178194992
-3.9745,-0.2953510352432193,0.4683420475176805
-3.974,-0.2099896363817582,0.5001319627331828
-3.9735,-0.2206598112394408,0.4471487707073456
-3.973,-0.391382608962363,0.1822328105781598
-3.9725,-0.6474668055467465,-0.1568596183871981
-3.972,-1.138294849000148,-0.4323722169215513
-3.9715,-1.437059745015262,-0.400582301706049
-3.971,-0.5621054066852853,0.2458126410091644
-3.9705,0.6863050516635838,1.061753798207057
-3.97,1.529248865420512,1.475022696008586
-3.9695,1.443887466559051,0.9557874141553824
-3.969,0.9637295979633325,0.1928294489833272
-3.9685,0.5262524287983441,-0.4853554089473885
-3.968,0.2594980573562781,-0.9410108603695881
-3.9675,0.1634664836371343,-1.174136905283272
-3.967,0.1527963087794516,-1.290699927740113
-3.9665,0.1741366584948169,-1.333086481360783
-3.966,0.2488278824985954,-1.174136905283272
-3.9655,0.3341892813600565,-0.8350444763179138
-3.965,0.2168173579255475,-0.6866915386455698
-3.9645,0.04609456020262521,-0.570128516188728
-3.964,-0.08194753808956648,-0.4323722169215513
-3.9635,-0.09261771294724913,-0.1674562567923655
-3.963,0.408880505363835,0.4471487707073456
-3.9625,1.230483969405398,1.199510097474233
-3.962,1.92404533515477,1.782325209758442
-3.9615,1.76399271228953,1.909484870620451
-3.961,0.4515612047945656,1.061753798207057
-3.9605,-0.9889124009925911,-0.1250697031716958
-3.96,-2.03458953704549,-0.9622041371799229
-3.9595,-2.087940411333903,-1.110557074852267
-3.959,-1.51175096901904,-0.7290780922662394
-3.9585,-0.9462317015618604,-0.2416327256285375
-3.958,-0.5300948821122373,0.1186529801471552
-3.9575,-0.2846808603855366,0.2987958330350016
-3.957,-0.1993194615240755,0.3199891098453364
-3.9565,-0.2953510352432193,0.1610395337678249
-3.956,-0.5407650569699201,-0.09327978795619347
-3.9555,-1.031593100423322,-0.3370024712750445
-3.955,-1.586442193022819,-0.3581957480853793
-3.9545,-1.074273799854052,0.08686306493165288
-3.954,0.1848068333524996,0.8710143069140429
-3.9535,1.283834843693812,1.475022696008586
-3.953,1.209143619690033,1.114736990232894
-3.9525,0.4195506802215176,0.2246193641988295
-3.952,-0.09261771294724913,-0.4429688553267188
-3.9515,-0.2313299860971235,-0.8774310299385835
-3.951,-0.156638762093345,-1.152943628472937
-3.9505,-0.02859666380115328,-1.311893204550448
-3.95,0.0674349099179905,-1.364876396576285
-3.9495,0.1527963087794516,-1.322489842955616
-3.949,0.291508581929326,-1.152943628472937
-3.9485,0.2274875327832301,-1.036380606016095
-3.948,0.08877525963335578,-0.9410108603695881
-3.9475,-0.04993701351651855,-0.8032545611024114
-3.947,-0.1352984123779797,-0.6125150698093976
-3.9465,0.142126133921769,-0.1886495336027004
-3.946,0.9210488985326017,0.5849050699745222
-3.9455,1.710641838001117,1.33726639674141
-3.945,1.977396209443183,1.782325209758442
-3.9445,0.9317190733902845,1.284283204715573
-3.944,-0.5194247072545548,0.13984625695749
-3.9435,-1.362368521011484,-0.7078848154559045
-3.943,-1.362368521011484,-0.8032545611024114
-3.9425,-1.031593100423322,-0.4959520473525559
-3.942,-0.6688071552621118,-0.1038764263613609
-3.9415,-0.4127229586777283,0.2352160026039969
-3.941,-0.2526703358124887,0.4153588554918433
-3.9405,-0.1993194615240755,0.4683420475176805
-3.94,-0.2633405106701714,0.3941655786815084
-3.9395,-0.4660738329661415,0.1080563417419877
-3.939,-0.8181896032696687,-0.2204394488182027
-3.9385,-1.405049220442214,-0.4217755785163839
-3.938,-1.319687821580753,-0.1462629799820306
-3.9375,-0.1993194615240755,0.627291623595192
-3.937,1.038420821967111,1.369056311956912
-3.9365,1.486568165989782,1.347863035146577
-3.936,0.6969752265212663,0.4259554938970107
-3.9355,0.00341386077189465,-0.2734226408440398
-3.935,-0.2206598112394408,-0.6549016234300674
-3.9345,-0.1886492866663929,-0.9410108603695881
-3.934,-0.06060718837420119,-1.131750351662602
-3.9335,0.05676473506030786,-1.227120097309109
-3.933,0.1101156093487211,-1.227120097309109
-3.9325,0.2594980573562781,-1.195330182093607
-3.932,0.2808384070716433,-1.121153713257435
-3.9315,0.142126133921769,-1.01518732920576
-3.931,-0.007256314085787988,-0.8774310299385835
-3.9305,-0.1139580626626144,-0.6866915386455698
-3.93,0.01408403562957729,-0.3052125560595421
-3.9295,0.6756348768059011,0.4471487707073456
-3.929,1.497238340847464,1.231300012689736
-3.9285,2.041417258589279,1.79292184816361
-3.928,1.411876941986003,1.697552102517103
-3.9275,-0.02859666380115328,0.6696781772158616
-3.927,-1.373038695869166,-0.4429688553267188
-3.9265,-2.130621110764634,-1.05757388282643
-3.926,-1.853196564464885,-0.9092209451540858
-3.9255,-1.26633694729234,-0.4429688553267188
-3.925,-0.754168554123573,0.002089957690313421
-3.9245,-0.4127229586777283,0.2776025562246667
-3.924,-0.2313299860971235,0.3517790250608387
-3.9235,-0.2099896363817582,0.2670059178194992
-3.923,-0.3380317346739499,0.06566978812131802
-3.9225,-0.6474668055467465,-0.1886495336027004
-3.922,-1.277007122150022,-0.3899856633008816
-3.9215,-1.554431668449771,-0.2204394488182027
-3.921,-0.6367966306890638,0.5001319627331828
-3.9205,0.6542945270905358,1.263089927905238
-3.92,1.486568165989782,1.612778995275763
-3.9195,1.273164668836129,1.146526905448396
-3.919,0.8036769750980928,0.309392471440169
-3.9185,0.4942419042252961,-0.4111789401112165
-3.918,0.2808384070716433,-0.8774310299385835
-3.9175,0.1527963087794516,-1.0999604364471
-3.917,0.1207857842064037,-1.184733543688439
-3.9165,0.1207857842064037,-1.195330182093607
-3.916,0.2168173579255475,-1.05757388282643
-3.9155,0.3448594562177392,-0.7608680074817418
-3.915,0.2381577076409128,-0.6760949002404023
-3.9145,0.0674349099179905,-0.6231117082145651
-3.914,-0.07127736323188383,-0.5171453241628908
-3.9135,-0.06060718837420119,-0.2628260024388724
-3.913,0.5049120790829789,0.4153588554918433
-3.9125,1.337185717982225,1.178316820663898
-3.912,2.009406734016231,1.761131932948107
-3.9115,1.828013761435626,1.676358825706768
-3.911,0.4942419042252961,0.6378882620003594
-3.9105,-0.9248913518464952,-0.4641621321370536
-3.91,-1.575772018165136,-1.004590690800593
-3.9095,-1.437059745015262,-0.8244478379127463
-3.909,-1.031593100423322,-0.3687923864905467
-3.9085,-0.6474668055467465,0.07626642652648545
-3.908,-0.3807124341046804,0.3623756634660061
-3.9075,-0.2313299860971235,0.457745409112513
-3.907,-0.1993194615240755,0.4895353243280153
-3.9065,-0.3273615598162672,0.3199891098453364
-3.906,-0.572775581542968,0.01268659609548085
-3.9055,-1.095614149569417,-0.3052125560595421
-3.905,-1.629122892453549,-0.3158091944647096
-3.9045,-1.074273799854052,0.2246193641988295
-3.904,0.1954770082101822,1.00877060618122
-3.9035,1.337185717982225,1.580989080060261
-3.903,1.582599739708926,1.25249328950007
-3.9025,1.15579274540162,0.457745409112513
-3.902,0.6863050516635838,-0.252229364033705
-3.9015,0.3768699807907871,-0.792657922697244
-3.901,0.1634664836371343,-1.0999604364471
-3.9005,0.07810508477567314,-1.258910012524611
-3.9,0.08877525963335578,-1.311893204550448
-3.8995,0.1314559590640864,-1.227120097309109
-3.899,0.291508581929326,-0.8668343915334161
-3.8985,0.2488278824985954,-0.6760949002404023
-3.898,0.09944543449103843,-0.5913217929990628
-3.8975,-0.03926683865883591,-0.4959520473525559
-3.897,-0.124628237520297,-0.326405832869877
-3.8965,0.1634664836371343,0.1292496185523226
-3.896,0.942389248247967,0.8604176685088755
-3.8955,1.731982187716482,1.538602526439591
-3.895,1.945385684870135,1.877694955404949
-3.8945,0.857027849386506,1.284283204715573
-3.894,-0.6154562809736985,0.09745970333682032
-3.8935,-1.83185621474952,-0.8562377531282487
-3.893,-2.365364957633652,-1.258910012524611
-3.8925,-1.853196564464885,-0.9833974139902578
-3.892,-1.202315898146244,-0.4535654937318862
-3.8915,-0.690147504977477,0.02328323450064829
-3.891,-0.3593720843893152,0.2776025562246667
-3.8905,-0.2099896363817582,0.3411823866556712
-3.89,-0.2313299860971235,0.2246193641988295
-3.8895,-0.3700422592469978,0.01268659609548085
-3.889,-0.6474668055467465,-0.2416327256285375
-3.8885,-1.180975548430879,-0.4111789401112165
-3.888,-1.148965023857831,-0.2416327256285375
-3.8875,-0.1139580626626144,0.4683420475176805
-3.887,1.059761171682476,1.231300012689736
-3.8865,1.593269914566608,1.284283204715573
