Class_4_Move_right_hand_Horiszontal/Class_4_Move_Right_hand_Horizontal_Turki_8.csv

#Digilent WaveForms Oscilloscope Acquisition
#Device Name: EExplorer
#Serial Number: SN:210151A2B84A
#Date Time: 2020-12-13 12:40:51.235
#Sample rate: 2000Hz
#Samples: 16384
#Trigger: Source: Channel 1 Type: Edge Condition: Rising Level: 0 V Hyst.: Auto HoldOff: 0 s
#Channel 1: Range: 1 V/div Offset: 0 V Attenuation: 1 X
#Channel 2: Range: 1 V/div Offset: 0 V Attenuation: 1 X
#Power Supplies: ON
#Fixed Supply: ON
#Voltage: 3.3 V Readback: 3.324 V
#Positive Supply: ON
#Voltage: 3.7 V Readback: 3.72 V
#Current: 40 mA Readback: 20 mA
#Negative Supply: ON
#Voltage: -3.7 V Readback: -3.354 V
#Current: -40 mA Readback: -8 mA
#Reference 1: ON
#Voltage: 0 V
#Reference 2: ON
#Voltage: 0 V

Time (s),Channel 1 (V),Channel 2 (V)
-4.096,0.3128489316446912,-0.05089323433552374
-4.0955,0.184806833352616,-0.008506680714892564
-4.095,-0.3166913849592153,-0.5171453241633053
-4.0945,-1.010252750707956,-0.9728007755850904
-4.094,-1.501080794160911,-1.280103289334666
-4.0935,-1.266336947291855,-1.06817052123099
-4.093,-0.7328282044082075,-0.400582301706049
-4.0925,-0.2526703358129254,0.3517790250601545
-4.092,0.06743490991814577,0.9345941373454041
-4.0915,0.2381577076409128,1.326669758336243
-4.091,0.3128489316446912,1.528005888034424
-4.0905,0.3128489316446718,1.602182356870625
-4.09,0.291508581929326,1.633972272086098
-4.0895,0.2594980573562781,1.6657621873016
-4.089,0.2274875327832592,1.6657621873016
-4.0885,0.2168173579255475,1.623375633680931
-4.088,0.09944543449103843,1.496215972818921
-4.0875,-0.3273615598158791,1.220703374284819
-4.087,-0.7861790786969798,0.6166949851891861
-4.0865,-1.180975548430879,-0.3052125560595421
-4.086,-1.40504922044201,-0.8562377531277475
-4.0855,-1.084943974711114,-1.025783967610744
-4.085,-0.4020527838200457,-0.8244478379127463
-4.0845,0.142126133921274,-0.6125150698095904
-4.084,0.4835717293677202,-0.5065486857578197
-4.0835,0.6009436528021226,-0.6125150698093976
-4.083,0.5902734779444399,-0.7502713690765743
-4.0825,0.590273477944566,-0.888027668343828
-4.082,0.7289857510943143,-0.9728007755850904
-4.0815,0.6542945270905358,-0.8138511995075789
-4.081,0.5262524287984606,-0.601918431404423
-4.0805,0.3982103305061524,-0.3687923864905467
-4.08,0.3235191065023739,-0.1568596183871981
-4.0795,0.312848931644701,-0.06148987274077791
-4.079,0.6436243522327172,0.256409279414168
-4.0785,0.4942419042252961,0.07626642652648545
-4.078,-0.167308936950426,-0.4747587705417198
-4.0775,-0.9355615267044203,-0.9304142219645171
-4.077,-1.202315898146244,-1.036380606016095
-4.0765,-0.8928808272737286,-0.4959520473530474
-4.076,-0.4554036581081192,0.2458126410097426
-4.0755,-0.08194753808956648,0.8816109453192104
-4.075,0.1527963087794516,1.305476481525908
-4.0745,0.2594980573563169,1.549199164844845
-4.074,0.3021787567870086,1.644568910491266
-4.0735,0.3021787567870086,1.644568910491266
-4.073,0.2701682322139898,1.633972272086108
-4.0725,0.2381577076409128,1.623375633680931
-4.072,0.2274875327832301,1.591585718465428
-4.0715,0.1741366584948654,1.475022696008692
-4.071,-0.1886492866668199,1.019367244585693
-4.0705,-0.658136980404429,0.2564092794143318
-4.07,-1.095614149569019,-0.6760949002395542
-4.0695,-1.33035799643861,-1.460246142223236
-4.069,-1.522421143876723,-1.947691508860494
-4.0685,-1.116954499284783,-1.598002441489969
-4.068,-0.455403658107964,-1.078767159636437
-4.0675,0.08877525963335578,-0.718481453861072
-4.067,0.3768699807907871,-0.6337083466197325
-4.0665,0.5262524287983926,-0.7290780922664322
-4.066,0.5796033030867573,-0.9410108603695881
-4.0655,0.8143471499557753,-1.0999604364471
-4.065,0.8783681991018131,-1.015187329205837
-4.0645,0.7289857510943143,-0.7714646458869092
-4.064,0.5475927785137094,-0.5171453241628908
-4.0635,0.3982103305062883,-0.3158091944648926
-4.063,0.3555296310756159,-0.04029659592973951
-4.0625,0.5689331282290746,0.6378882620003594
-4.062,0.6542945270904582,0.7544512844570951
-4.0615,0.2061471830670982,0.04447651131030852
-4.061,-0.6367966306890638,-0.6972881770507372
-4.0605,-1.148965023857831,-1.142346990067769
-4.06,-0.9675720512768472,-0.8244478379121295
-4.0595,-0.5514352318276028,-0.1462629799820306
-4.059,-0.1673089369510276,0.5213252395435176
-4.0585,0.09944543449079579,1.019367244585934
-4.058,0.2381577076409128,1.326669758336243
-4.0575,0.291508581929326,1.496215972818921
-4.057,0.3021787567869989,1.54919916484471
-4.0565,0.2701682322139607,1.591585718465428
-4.056,0.2381577076409128,1.633972272086098
-4.0555,0.2168173579255669,1.633972272086098
-4.055,0.2061471830676125,1.570392441654949
-4.0545,-0.07127736323188383,1.411442865577582
-4.054,-0.7755089038382977,1.252493289500215
-4.0535,-1.202315898146399,0.8498210301029756
-4.053,-1.373038695869166,0.04447651131098315
-4.0525,-1.458400094730627,-0.5383386009732256
-4.052,-0.8715404775574511,-0.739674730671378
-4.0515,-0.1779791118087102,-0.7078848154559045
-4.051,0.3128489316446912,-0.6443049850249
-4.0505,0.5475927785134959,-0.6654982618352155
-4.05,0.6329541773751706,-0.718481453861072
-4.0495,0.6329541773751706,-0.792657922697244
-4.049,0.718315576236554,-0.9304142219642955
-4.0485,0.8463576745287359,-0.9939940523952517
-4.048,0.7503261008096795,-0.8032545611024114
-4.0475,0.5796033030869125,-0.5383386009734665
-4.047,0.4195506802214497,-0.284019279248976
-4.0465,0.3448594562177392,-0.02969995752518888
-4.046,0.5796033030865438,0.4365521323017541
-4.0455,0.8143471499553386,0.5849050699739632
-4.045,0.3341892813600565,-0.02969995752518888
-4.0445,-0.4767440078238243,-0.6337083466197325
-4.044,-1.138294849000099,-1.036380606015989
-4.0435,-1.084943974711735,-0.9198175835592532
-4.043,-0.6794773301197943,-0.3052125560595421
-4.0425,-0.2526703358128769,0.4471487707066614
-4.042,0.04609456020262521,1.061753798207057
-4.0415,0.2168173579255475,1.464426057603419
-4.041,0.291508581929258,1.665762187301417
-4.0405,0.3021787567869892,1.739938656137753
-4.04,0.2808384070716433,1.718745379327438
-4.0395,0.2594980573562975,1.729342017732596
-4.039,0.2274875327832107,1.718745379327361
-4.0385,0.2061471830678648,1.633972272086098
-4.038,0.1101156093488084,1.379652950362311
-4.0375,-0.4340633083936274,1.082947075016804
-4.037,-1.020922925565639,0.4365521323021782
-4.0365,-1.373038695869166,-0.4959520473525559
-4.036,-1.5224211438765,-1.121153713257666
-4.0355,-1.277007122150022,-1.375473034981453
-4.035,-0.5834457564006506,-1.227120097309109
-4.0345,0.04609456020205271,-1.068170521231742
-4.034,0.4195506802215176,-0.9833974139902578
-4.0335,0.5796033030867573,-1.046977244421262
-4.033,0.6009436528021032,-1.078767159636736
-4.0325,0.6329541773753452,-1.121153713257502
-4.032,0.825017324813458,-1.195330182093607
-4.0315,0.7823366253827664,-1.015187329205924
-4.031,0.6222840025173423,-0.7184814538608214
-4.0305,0.4622313796522482,-0.4429688553267188
-4.03,0.3555296310755188,-0.2098428104132473
-4.0295,0.4515612047949052,0.1716361721734453
-4.029,0.825017324813458,0.6696781772158616
-4.0285,0.3235191065023739,0.6696781772158616
-4.028,-0.4020527838205697,0.2987958330344715
-4.0275,-0.9782422261349084,-0.2840192792492073
-4.027,-0.9355615267041777,-0.3687923864905467
-4.0265,-0.572775581543298,0.02328323450029168
-4.026,-0.1993194615240755,0.5213252395435176
-4.0255,0.0674349099179905,0.9557874141553824
-4.025,0.2168173579254116,1.273686566310116
-4.0245,0.280838407071653,1.48561933441385
-4.024,0.291508581929326,1.591585718465428
-4.0235,0.280838407071653,1.633972272086059
-4.023,0.2594980573562586,1.665762187301629
-4.0225,0.2381577076409128,1.697552102517103
-4.022,0.2274875327832398,1.686955464111945
-4.0215,0.1848068333521502,1.633972272085819
-4.021,-0.1993194615240755,1.326669758336243
-4.0205,-0.7114878546928423,0.4365521323021782
-4.02,-0.9248913518467475,-0.6019184314048375
-4.0195,-1.202315898146244,-1.269506650929778
-4.019,-1.51175096901904,-1.714565463946811
-4.0185,-1.106284324427469,-1.545019249464286
-4.018,-0.423393133535411,-1.152943628472937
-4.0175,0.1314559590640864,-0.8880276683437509
-4.017,0.4408910299366015,-0.835044476317962
-4.0165,0.5796033030867768,-0.9410108603696845
-4.016,0.6009436528021226,-1.046977244421262
-4.0155,0.8036769750979084,-1.142346990067683
-4.015,0.8463576745286971,-0.9728007755848591
-4.0145,0.707645401378949,-0.718481453861072
-4.014,0.5262524287985091,-0.4853554089476005
-4.0135,0.3875401556484115,-0.2840192792490435
-4.013,0.3235191065023739,-0.1038764263613609
-4.0125,-0.01792648894347063,0.01268659609548085
-4.012,-0.6047861061164816,-0.1462629799825318
-4.0115,-1.116954499284783,-0.6972881770507372
-4.011,-1.533091318734406,-1.05757388282643
-4.0105,-1.746494815887865,-1.24831337411927
-4.01,-1.277007122150022,-0.8244478379127463
-4.0095,-0.6688071552621118,-0.07208651114585861
-4.009,-0.1779791118091567,0.6166949851893981
-4.0085,0.1314559590642222,1.093543713422819
-4.008,0.2808384070716433,1.37965295036208
-4.0075,0.3235191065023351,1.506812611223973
-4.007,0.3128489316446718,1.517409249629198
-4.0065,0.291508581929326,1.453829419198252
-4.006,0.2594980573562781,1.411442865577582
-4.0055,0.2274875327832107,1.411442865577544
-4.005,0.2061471830678648,1.369056311956912
-4.0045,-0.04993701351651855,0.9981739677760521
-4.004,-0.7008176798356256,0.5531151547583164
-4.0035,-1.212986073003927,-0.2204394488182027
-4.003,-1.501080794161358,-0.9622041371799229
-4.0025,-1.671803591884125,-1.40726295019655
-4.002,-1.244996597576974,-1.322489842955616
-4.0015,-0.5194247072545548,-1.05757388282643
-4.001,0.04609456020211089,-0.8986243067490629
-4.0005,0.3982103305062882,-0.8562377531282872
-4,0.5475927785137094,-0.8986243067489184
-3.9995,0.5796033030867573,-0.9410108603695881
-3.999,0.6863050516635838,-1.05757388282643
-3.9985,0.8356874996711408,-1.068170521231597
-3.998,0.7396559259519968,-0.8244478379127463
-3.9975,0.5796033030867573,-0.5277419625680583
-3.997,0.4302208550792003,-0.2840192792492073
-3.9965,0.3448594562177392,-0.06148987274069118
-3.996,0.3661998059331045,0.1292496185523226
-3.9955,0.6329541773751706,0.1504428953626575
-3.995,0.4942419042252961,-0.3793890248957141
-3.9945,-0.07127736323188383,-0.8456411147230812
-3.994,-0.7755089038389382,-1.142346990067769
-3.9935,-0.839529952985034,-0.792657922697244
-3.993,-0.5407650569699201,-0.07208651114585861
-3.9925,-0.2099896363817582,0.6060983467848571
-3.992,0.05676473506030786,1.104140351827727
-3.9915,0.2061471830678648,1.400846227172415
-3.991,0.2701682322139607,1.538602526439591
-3.9905,0.291508581929326,1.580989080060261
-3.99,0.2808384070716433,1.570392441655093
-3.9895,0.2594980573562781,1.570392441655093
-3.989,0.2381577076409128,1.517409249629256
-3.9885,0.2381577076409128,1.37965295036208
-3.988,0.142126133921769,1.273686566310405
-3.9875,-0.3593720843893152,1.411442865577582
-3.987,-0.807519428411986,0.8392243916985406
-3.9865,-1.244996597576974,-0.1886495336027004
-3.986,-1.51175096901904,-0.9728007755850904
-3.9855,-1.180975548430879,-1.364876396576285
-3.985,-0.4874141826815069,-1.227120097309109
-3.9845,0.1101156093487211,-0.9833974139902578
-3.984,0.4729015545099309,-0.8456411147230812
-3.9835,0.6009436528021226,-0.8774310299385835
-3.983,0.6116138276598051,-0.8880276683437509
-3.9825,0.6116138276598051,-0.9304142219644207
-3.982,0.7396559259519968,-0.9622041371799229
-3.9815,0.6969752265212663,-0.8668343915334161
-3.981,0.5796033030867573,-0.7078848154559045
-3.9805,0.4622313796522482,-0.5277419625680583
-3.98,0.3661998059331045,-0.3370024712750445
-3.9795,0.408880505363835,-0.3052125560595421
-3.979,0.7503261008096795,-0.1992461720078678
-3.9785,0.6542945270905358,-0.4217755785163839
-3.978,-0.007256314085787988,-0.8350444763179138
-3.9775,-0.8288597781273515,-1.110557074852267
-3.977,-1.127624674142465,-1.068170521231597
-3.9765,-0.839529952985034,-0.4429688553267188
-3.976,-0.423393133535411,0.3305857482505039
-3.9755,-0.07127736323188383,0.9557874141553824
-3.975,0.1527963087794516,1.37965295036208
-3.9745,0.2594980573562781,1.612778995275763
-3.974,0.3021787567870086,1.70814874092227
-3.9735,0.291508581929326,1.697552102517103
-3.973,0.2594980573562781,1.655165548896433
-3.9725,0.2274875327832301,1.623375633680931
-3.972,0.2061471830678648,1.570392441655093
-3.9715,0.1634664836371343,1.432636142387917
-3.971,-0.2633405106701714,1.019367244586387
-3.9705,-0.8715404775580819,0.7120647308365314
-3.97,-1.223656247861609,-0.1144730647665284
-3.9695,-1.447729919872945,-0.8668343915334161
-3.969,-1.554431668449771,-1.322489842955616
-3.9685,-0.9782422261349084,-1.216523458903942
-3.968,-0.3060212101009019,-1.036380606016095
-3.9675,0.1848068333524996,-0.9516074987747555
-3.967,0.4622313796522482,-0.9304142219644207
-3.9665,0.5902734779444399,-0.9304142219644207
-3.966,0.6116138276598051,-1.004590690800593
-3.9655,0.7609962756673623,-1.163540266878104
-3.965,0.8143471499557753,-1.121153713257435
-3.9645,0.6756348768059011,-0.8668343915334161
-3.964,0.5155822539406614,-0.5807251545938954
-3.9635,0.3875401556484697,-0.3370024712750445
-3.963,0.3982103305061524,-0.02969995752518888
-3.9625,0.825017324813458,0.55311515475902
-3.962,0.6756348768059011,0.3517790250608387
-3.9615,0.2168173579255475,-0.3793890248957141
-3.961,-0.4340633083930936,-0.9939940523954253
-3.9605,-0.807519428411986,-1.142346990067769
-3.96,-0.6474668055467465,-0.5807251545938954
-3.9595,-0.3273615598162672,0.1504428953626575
-3.959,-0.03926683865883591,0.7650479228623686
-3.9585,0.142126133921769,1.178316820663898
-3.958,0.2488278824985954,1.42203950398275
-3.9575,0.2808384070716433,1.528005888034424
-3.957,0.2808384070716433,1.538602526439591
-3.9565,0.2701682322139607,1.528005888034424
-3.956,0.2488278824985954,1.506812611224089
-3.9555,0.2381577076409128,1.443232780793084
-3.955,0.2168173579255475,1.305476481525908
-3.9545,-0.04993701351651855,0.9451907757502149
-3.954,-0.7114878546928423,0.06566978812131802
-3.9535,-1.138294849000148,-0.8880276683437509
-3.953,-1.341028171296118,-1.640388995110639
-3.9525,-1.586442193022819,-2.233800745800015
-3.952,-1.234326422719292,-2.149027638558676
-3.9515,-0.5621054066852853,-1.460246142222792
-3.951,0.03542438534494258,-0.9728007755850904
-3.9505,0.408880505363835,-0.7714646458869092
-3.95,0.5689331282290746,-0.7608680074817418
-3.9495,0.6009436528021226,-0.8774310299385835
-3.949,0.7183155762366316,-1.036380606016095
-3.9485,0.9103787236749192,-0.9198175835592532
-3.948,0.8356874996711408,-0.7078848154559045
-3.9475,0.6542945270905358,-0.5065486857577234
-3.947,0.4835717293676135,-0.3475991096802118
-3.9465,0.3661998059331045,-0.252229364033705
-3.946,0.02475421048725994,-0.5383386009732256
-3.9455,-0.4980843575391895,-1.089363798041932
-3.945,-0.9355615267041777,-1.555615887869299
-3.9445,-1.373038695869166,-1.809935209593318
-3.944,-1.30901764672307,-1.661582271920973
-3.9435,-0.839529952985034,-1.046977244421262
-3.943,-0.3487019095316325,-0.2628260024388724
-3.9425,0.00341386077189465,0.5001319627331828
-3.942,0.2061471830678648,1.061753798207057
-3.9415,0.291508581929326,1.37965295036208
-3.941,0.3128489316446912,1.517409249629256
-3.9405,0.3021787567870086,1.517409249629256
-3.94,0.2808384070716433,1.475022696008586
-3.9395,0.2488278824985954,1.453829419198252
-3.939,0.2168173579255475,1.42203950398275
-3.9385,0.2061471830678648,1.33726639674141
-3.938,0.09944543449103843,1.072350436612224
-3.9375,-0.4554036581084589,0.701468092431364
-3.937,-1.031593100423322,0.1716361721729923
-3.9365,-1.319687821580753,-0.6337083466197325
-3.936,-1.084943974711735,-1.01518732920576
-3.9355,-0.4660738329661415,-1.01518732920576
-3.935,0.1101156093487211,-0.9092209451540858
-3.9345,0.4835717293676135,-0.8774310299385835
-3.934,0.6542945270905358,-0.8350444763179138
-3.9335,0.6649647019482183,-0.9198175835592532
-3.933,0.6222840025174878,-1.05757388282643
-3.9325,0.5796033030867573,-1.152943628472937
-3.932,0.6863050516635838,-1.110557074852267
-3.9315,0.6329541773751706,-0.8986243067489184
-3.931,0.5049120790829789,-0.6443049850249
-3.9305,0.3982103305061524,-0.400582301706049
-3.93,0.3235191065023739,-0.1992461720078678
-3.9295,0.2168173579255475,-0.08268314955102604
-3.929,-0.3807124341046804,-0.4323722169215513
-3.9285,-0.9675720512772257,-0.9516074987747555
-3.928,-1.426389570157579,-1.184733543688439
-3.9275,-1.799845690176472,-1.184733543688439
-3.927,-1.522421143876723,-0.8350444763179138
-3.9265,-0.8928808272734472,-0.07208651114585861
-3.926,-0.3380317346739499,0.701468092431364
-3.9255,0.03542438534494258,1.263089927905238
-3.925,0.2381577076409128,1.602182356870596
-3.9245,0.3235191065023739,1.739938656137773
-3.924,0.3341892813600565,1.75053529454294
-3.9235,0.3128489316446912,1.676358825706768
-3.923,0.2594980573562781,1.549199164844759
-3.9225,0.2274875327832301,1.37965295036208
-3.922,0.2061471830678648,1.284283204715573
-3.9215,0.2061471830678648,1.146526905448396
-3.921,-0.06060718837420119,0.6908714540261965
-3.9205,-0.6154562809736985,-0.1886495336027004
-3.92,-0.9569018764195432,-1.05757388282643
-3.9195,-1.180975548430879,-1.576809164679634
-3.919,-0.9889124009925911,-1.587405803084801
-3.9185,-0.391382608962363,-1.258910012524611
-3.918,0.1527963087794516,-0.9728007755850904
-3.9175,0.4729015545099309,-0.8774310299385835
-3.917,0.5902734779444399,-0.9410108603695881
-3.9165,0.6116138276598051,-1.036380606016095
-3.916,0.5796033030867573,-1.0999604364471
-3.9155,0.7503261008096795,-1.131750351662602
-3.915,0.7823366253827275,-0.8880276683437509
-3.9145,0.6542945270905358,-0.6337083466197325
-3.914,0.4942419042252961,-0.4111789401112165
-3.9135,0.3768699807907871,-0.2204394488182027
-3.913,0.3448594562177392,0.002089957690313421
-3.9125,0.6542945270905358,0.55311515475902
-3.912,0.6009436528021226,0.4789386859228479
-3.9115,-0.007256314085787988,-0.2310360872233701
-3.911,-0.7114878546928423,-0.7502713690765743
-3.9105,-1.180975548430879,-1.05757388282643
-3.91,-0.9889124009925911,-0.6760949002404023
-3.9095,-0.5621054066852853,0.03387987290581572
-3.909,-0.1673089369510276,0.701468092431364
-3.9085,0.09944543449103843,1.188913459069066
-3.908,0.2488278824985954,1.496215972818921
-3.9075,0.3021787567870086,1.644568910491266
-3.907,0.3021787567870086,1.686955464111935
-3.9065,0.2808384070716433,1.697552102517103
-3.906,0.2488278824985954,1.70814874092227
-3.9055,0.2168173579255475,1.697552102517103
-3.905,0.1954770082101822,1.612778995275763
-3.9045,0.00341386077189465,1.29487984312074
-3.904,-0.3166913849585846,0.9769806909657173
-3.9035,-0.5514352318276028,0.1292496185523226
-3.903,-0.8608703027003992,-0.8244478379127463
-3.9025,-1.319687821580753,-1.576809164679634
-3.902,-1.170305373573196,-1.693372187136476
-3.9015,-0.5514352318276028,-1.248313374119443
-3.901,-0.01792648894347063,-0.9198175835592532
-3.9005,0.3235191065023739,-0.7714646458869092
-3.9,0.4942419042252961,-0.7502713690765743
-3.8995,0.5262524287983441,-0.8138511995075789
-3.899,0.6222840025174878,-0.9304142219644207
-3.8985,0.7503261008096795,-0.8456411147230812
-3.898,0.6649647019482183,-0.7290780922662394
-3.8975,0.5155822539406614,-0.6125150698093976
-3.897,0.3982103305061524,-0.4853554089473885
-3.8965,0.3235191065023739,-0.3687923864905467
-3.896,0.09944543449103843,-0.3899856633008816
-3.8955,-0.4980843575391895,-0.6866915386455698
-3.895,-1.202315898146244,-1.174136905283272
-3.8945,-1.842526389607202,-1.545019249464132
-3.894,-2.205312334768412,-1.640388995110639
-3.8935,-1.629122892453549,-1.227120097309109
-3.893,-0.8715404775580819,-0.4217755785163839
-3.8925,-0.2846808603855366,0.4471487707073456
-3.892,0.08877525963335578,1.104140351827727
-3.8915,0.2808384070716433,1.517409249629256
-3.891,0.3448594562177392,1.70814874092227
-3.8905,0.3448594562177392,1.75053529454294
-3.89,0.3128489316446912,1.697552102517103
-3.8895,0.2701682322139607,1.612778995275763
-3.889,0.2381577076409128,1.496215972818921
-3.8885,0.2168173579255475,1.358459673551745
-3.888,0.1527963087794516,1.188913459069066
-3.8875,-0.3273615598162672,1.284283204715573
-3.887,-0.7861790786966207,0.8816109453192104
-3.8865,-0.9569018764195432,-0.09327978795619347
-3.886,-1.223656247861609,-0.9728007755850904
-3.8855,-1.277007122150022,-1.460246142222792
