Class_4_Move_right_hand_Horiszontal/Class_4_Move_right_hand_horizontal_Basim_2.csv

#Digilent WaveForms Oscilloscope Acquisition
#Device Name: EExplorer
#Serial Number: SN:210151A2B84A
#Date Time: 2020-10-27 13:39:58.598
#Sample rate: 2000Hz
#Samples: 16384
#Trigger: Source: Channel 1 Type: Edge Condition: Rising Level: 0 V Hyst.: Auto HoldOff: 0 s
#Channel 1: Range: 1 V/div Offset: 0 V Attenuation: 1 X
#Channel 2: Range: 1 V/div Offset: 0 V Attenuation: 1 X
#Power Supplies: ON
#Fixed Supply: ON
#Voltage: 3.3 V Readback: 3.317 V
#Positive Supply: ON
#Voltage: 3.7 V Readback: 3.709 V
#Current: 500 mA Readback: 20 mA
#Negative Supply: ON
#Voltage: -3.7 V Readback: -3.705 V
#Current: -500 mA Readback: -11 mA
#Reference 1: ON
#Voltage: 0 V
#Reference 2: ON
#Voltage: 0 V

Time (s),Channel 1 (V),Channel 2 (V)
-4.096,-1.341028171296118,-1.354279758171118
-4.0955,-1.970568487898821,-1.746355379161956
-4.095,-1.682473766741128,-1.767548655972234
-4.0945,-0.7648387289812555,-1.311893204550448
-4.094,0.04609456020188774,-0.7396747306719273
-4.0935,0.5155822539408749,-0.2734226408438085
-4.093,0.7503261008096795,-0.01910331912002144
-4.0925,0.857027849386409,0.1610395337676611
-4.092,0.8356874996710922,0.2458126410090969
-4.0915,0.7823366253827275,0.1716361721729923
-4.091,0.8463576745288233,0.01268659609548085
-4.0905,0.8570278493864478,0.1928294489834525
-4.09,0.79300680024041,0.3305857482505039
-4.0895,0.7183155762366316,0.5425185163538525
-4.089,0.654294527090594,0.5955017083796414
-4.0885,0.7396559259519968,0.3411823866556712
-4.088,0.8676980242441885,-0.2946159176543747
-4.0875,0.1101156093494101,-0.9304142219638425
-4.087,-0.7434983792665502,-1.248313374119472
-4.0865,-1.46907026958831,-1.280103289334946
-4.086,-2.130621110764032,-1.142346990067895
-4.0855,-2.237322859340722,-0.8880276683432786
-4.085,-1.426389570157579,-0.3687923864905467
-4.0845,-0.5621054066860713,0.5001319627323926
-4.084,0.08877525963370514,1.379652950362658
-4.0835,0.4729015545099309,2.015451254672126
-4.083,0.6436243522328531,2.333350406827149
-4.0825,0.675634876805872,2.34394704523221
-4.082,0.6436243522328531,2.227384022775475
-4.0815,0.5902734779444399,1.983661339456623
-4.081,0.5582629533714212,1.676358825707047
-4.0805,0.4622313796522482,0.9345941373450475
-4.08,-0.04993701351651855,-0.04029659593035631
-4.0795,-0.9035510021303536,-0.8986243067481378
-4.079,-1.682473766742167,-1.555615887869588
-4.0785,-1.906547438753298,-1.873515040024322
-4.078,-1.159635198716193,-1.545019249464431
-4.0775,-0.2740106855272232,-0.8880276683432594
-4.077,0.4195506802215176,-0.3475991096802118
-4.0765,0.7930068002400703,-0.04029659593063584
-4.076,0.8997085488172074,0.06566978812130839
-4.0755,0.8676980242441885,0.05507314971615059
-4.075,0.8036769750980928,0.05507314971615059
-4.0745,0.8463576745289301,-0.156859618387227
-4.074,0.9637295979633325,-0.1886495336027004
-4.0735,0.9210488985326017,-0.02969995752518888
-4.073,0.8143471499558723,0.1504428953624937
-4.0725,0.7183155762366316,0.4047622170866759
-4.072,0.5902734779444399,0.4365521323021782
-4.0715,0.1741366584951954,-0.1038764263608695
-4.071,-0.615456280974407,-0.7608680074821659
-4.0705,-1.394379045584531,-1.227120097309109
-4.07,-1.981238662756543,-1.396666311791634
-4.0695,-2.376035132491364,-1.311893204550227
-4.069,-2.408045657064382,-1.068170521231597
-4.0685,-2.301343908487556,-0.8032545611024114
-4.068,-1.458400094729802,-0.4641621321365332
-4.0675,-0.5514352318276028,0.1080563417419877
-4.067,0.1101156093487211,0.9028042221295453
-4.0665,0.4942419042254514,1.612778995276062
-4.066,0.6649647019482183,1.941274785835954
-4.0655,0.6969752265212663,2.068434446697963
-4.065,0.6649647019482474,2.036644531482489
-4.0645,0.6009436528021226,1.75053529454294
-4.064,0.5155822539406614,1.019367244586387
-4.0635,0.1207857842067628,0.02328323450155423
-4.063,-0.7328282044089548,-0.8456411147236884
-4.0625,-1.554431668449771,-1.51322933424863
-4.062,-1.757164990745557,-1.873515040023995
-4.0615,-0.9355615267034013,-1.64038899511008
-4.061,-0.08194753808956648,-1.025783967610927
-4.0605,0.5049120790829789,-0.5383386009732256
-4.06,0.8036769750981801,-0.3158091944646132
-4.0595,0.8997085488172365,-0.2098428104130352
-4.059,0.8783681991018712,-0.1780528951975329
-4.0585,0.8036769750981607,-0.1356663415769017
-4.058,0.8143471499557753,-0.2416327256285375
-4.0575,0.9637295979633325,-0.3158091944647096
-4.057,0.9423892482479864,-0.135666341577027
-4.0565,0.8463576745288233,0.08686306493165288
-4.056,0.7396559259519968,0.1610395337678249
-4.0555,0.6969752265213052,0.09745970333687815
-4.055,0.9957401225362443,-0.2416327256290387
-4.0545,0.8463576745288233,-0.792657922697244
-4.054,-0.1032878878040681,-1.258910012524187
-4.0535,-0.9675720512779147,-1.396666311791682
-4.053,-1.725154466172693,-1.280103289334946
-4.0525,-2.312014083345239,-1.036380606016095
-4.052,-2.36536495763304,-0.7502713690763044
-4.0515,-1.693143941599645,-0.4535654937318862
-4.051,-0.754168554123573,-0.01910331912002144
-4.0505,-0.02859666380181314,0.5213252395430261
-4.05,0.4195506802215176,1.157123543853563
-4.0495,0.6329541773751706,1.633972272086098
-4.049,0.6863050516635353,1.739938656137676
-4.0485,0.6542945270904776,1.708148740922058
-4.048,0.5902734779444399,1.475022696008586
-4.0475,0.5049120790830565,0.9663840525610125
-4.047,0.1101156093479835,0.1822328105774273
-4.0465,-0.7008176798351597,-0.6231117082145651
-4.046,-1.511750969018303,-1.290699927739506
-4.0455,-2.077270236475687,-1.778145294377902
-4.045,-1.490410619303675,-1.873515040024322
-4.0445,-0.5621054066852853,-1.449649503817625
-4.044,0.1527963087798786,-0.8774310299381883
-4.0435,0.6222840025174878,-0.4429688553267188
-4.043,0.825017324813458,-0.1886495336027004
-4.0425,0.8356874996711311,-0.07208651114596462
-4.042,0.8036769750980928,-0.02969995752518888
-4.0415,0.7609962756673623,-0.02969995752518888
-4.041,0.7930068002403809,-0.02969995752518888
-4.0405,0.8143471499557364,0.1822328105782079
-4.04,0.7716664505250448,0.2352160026039969
-4.0395,0.7289857510943532,0.3411823866555749
-4.039,0.6863050516637003,0.4365521323020625
-4.0385,0.8143471499557753,0.309392471440169
-4.038,1.102441871112945,-0.2840192792486676
-4.0375,0.4408910299359804,-0.898624306749246
-4.037,-0.5514352318276028,-1.258910012524611
-4.0365,-1.426389570157579,-1.290699927740113
-4.036,-2.151961460480028,-1.089363798041662
-4.0355,-2.183971985053047,-0.792657922697244
-4.035,-1.351698346153801,-0.326405832869877
-4.0345,-0.4980843575399659,0.3623756634653797
-4.034,0.1314559590640864,1.220703374284568
-4.0335,0.5049120790829789,1.962468062646288
-4.033,0.6649647019480728,2.407526875662916
-4.0325,0.6863050516635547,2.481703344499358
-4.032,0.6542945270905358,2.333350406827149
-4.0315,0.590273477944498,1.930678147431152
-4.031,0.5262524287981791,1.337266396740707
-4.0305,0.3448594562177392,0.5637117931641874
-4.03,-0.3380317346733288,-0.2628260024381206
-4.0295,-1.191645723289221,-0.9833974139907783
-4.029,-1.917217613610981,-1.555615887869299
-4.0285,-1.703814116457328,-1.75695201756748
-4.028,-0.7648387289804889,-1.375473034981077
-4.0275,0.07810508477567314,-0.9622041371799229
-4.027,0.6222840025174878,-0.6019184314042303
-4.0265,0.8890383739593111,-0.2734226408443386
-4.026,0.9530594231056497,-0.09327978795619347
-4.0255,0.9103787236749192,-0.02969995752518888
-4.025,0.8463576745288814,-0.07208651114582006
-4.0245,0.8570278493865545,-0.2098428104129485
-4.024,0.9103787236749192,-0.1144730647665284
-4.0235,0.8570278493865545,0.129249618552101
-4.023,0.7823366253826693,0.500131962733231
-4.0225,0.7183155762366316,0.55311515475902
-4.022,0.7396559259519774,0.288199194630075
-4.0215,1.05976117168203,-0.3370024712756227
-4.021,0.5689331282290746,-0.9728007755850904
-4.0205,-0.4127229586777283,-1.364876396576285
-4.02,-1.244996597577624,-1.375473034981289
-4.0195,-1.959898313041711,-1.195330182093607
-4.019,-2.023919362187807,-0.9092209451540858
-4.0185,-1.255666772435356,-0.3475991096807226
-4.018,-0.4554036581084589,0.5319218779486851
-4.0175,0.142126133921769,1.432636142387917
-4.017,0.4942419042249759,2.068434446697385
-4.0165,0.6542945270905649,2.407526875663311
-4.016,0.6863050516635838,2.396930237258153
-4.0155,0.6542945270905649,2.259173937991102
-4.015,0.5902734779443525,2.0684344466975
-4.0145,0.4942419042252961,1.559795803249926
-4.014,0.1634664836374351,0.7226613692424603
-4.0135,-0.4020527838207444,-0.2310360872240929
-4.013,-1.170305373573196,-1.025783967610927
-4.0125,-1.895877263895616,-1.640388995110639
-4.012,-2.045259711902328,-1.905304955239719
-4.0115,-1.116954499284783,-1.788741932782983
-4.011,-0.2099896363817582,-1.248313374119443
-4.0105,0.451561204793964,-0.7714646458873429
-4.01,0.825017324813458,-0.3581957480853793
-4.0095,0.942389248247967,-0.1886495336027004
-4.009,0.9210488985326212,-0.1250697031717536
-4.0085,0.8676980242441594,-0.0508932343355623
-4.008,0.8356874996711408,-0.09327978795619347
-4.0075,0.9210488985325241,-0.167456256792298
-4.007,0.8890383739595052,-0.02969995752505395
-4.0065,0.8356874996711408,0.1186529801471552
-4.006,0.7609962756673623,0.1928294489833272
-4.0055,0.7076454013790946,0.3199891098451919
-4.005,0.8676980242441885,0.1610395337678249
-4.0045,0.6969752265212663,-0.4217755785163839
-4.004,-0.209989636382486,-0.9622041371801157
-4.0035,-1.010252750707956,-1.174136905283272
-4.003,-1.725154466172693,-1.163540266878104
-4.0025,-2.301343908487032,-1.015187329205895
-4.002,-2.344024607918286,-0.8032545611024114
-4.0015,-1.618452717595867,-0.4959520473525559
-4.001,-0.7008176798359943,0.023283234500176
-4.0005,0.01408403562996547,0.7968378380785456
-4,0.4408910299368829,1.538602526439591
-3.9995,0.6436243522328531,1.941274785835954
-3.999,0.6756348768059011,1.845905040189447
-3.9985,0.6116138276598051,1.188913459069066
-3.998,0.5475927785137094,0.3199891098453364
-3.9975,0.5049120790829789,-0.4535654937318862
-3.997,0.2594980573562781,-1.05757388282643
-3.9965,-0.4874141826815069,-1.566212526274467
-3.996,-1.330357996438436,-1.88411167842949
-3.9955,-1.949228138184029,-1.915901593644992
-3.995,-1.586442193022819,-1.831128486403653
-3.9945,-0.7008176798351597,-1.237716735714276
-3.994,0.04609456020262521,-0.6549016234300674
-3.9935,0.5262524287983441,-0.2416327256285375
-3.993,0.7823366253827275,0.01268659609548085
-3.9925,0.8463576745288233,0.08686306493165288
-3.992,0.8356874996711408,0.002089957690313421
-3.9915,0.8036769750980928,-0.1038764263613609
-3.991,0.9637295979633325,-0.2628260024388724
-3.9905,1.017080472251745,0.02328323450064829
-3.99,0.9317190733902845,0.3729723018711736
-3.9895,0.825017324813458,0.5001319627331828
-3.989,0.7289857510943143,0.6378882620003594
-3.9885,0.825017324813458,0.4683420475176805
-3.988,0.9317190733902845,-0.1886495336027004
-3.9875,0.1314559590640864,-0.8456411147230812
-3.987,-0.7755089038389382,-1.142346990067769
-3.9865,-1.533091318734406,-1.142346990067769
-3.986,-2.19464215991073,-1.004590690800593
-3.9855,-2.344024607918286,-0.792657922697244
-3.985,-1.650463242168915,-0.4323722169215513
-3.9845,-0.722158029550525,0.2246193641988295
-3.984,-0.007256314085787988,1.082947075017392
-3.9835,0.4302208550792003,1.79292184816361
-3.983,0.6436243522328531,2.195594107559972
-3.9825,0.6969752265212663,2.237980661180642
-3.982,0.6756348768059011,2.142610915534135
-3.9815,0.6116138276598051,1.867098316999781
-3.981,0.5582629533713921,1.390249588767247
-3.9805,0.3875401556484697,0.6166949851900245
-3.98,-0.2953510352432193,-0.3158091944647096
-3.9795,-1.159635198715513,-1.089363798041932
-3.979,-1.87453691418025,-1.672178910326141
-3.9785,-1.543761493592088,-1.88411167842949
-3.978,-0.6261264558313813,-1.460246142222792
-3.9775,0.1314559590640864,-0.8562377531282487
-3.977,0.6329541773751706,-0.4217755785163839
-3.9765,0.8463576745288233,-0.1992461720078678
-3.976,0.8890383739595538,-0.09327978795619347
-3.9755,0.8783681991018712,-0.008506680714854012
-3.975,0.825017324813458,0.04447651131098315
-3.9745,0.8997085488172365,-0.1144730647665284
-3.974,1.017080472251745,-0.05089323433552374
-3.9735,0.9530594231056497,0.2881991946298341
-3.973,0.8463576745288233,0.5425185163538525
-3.9725,0.7503261008096795,0.5743084315693548
-3.972,0.7289857510943143,0.5425185163538525
-3.9715,0.974399772821015,0.01268659609548085
-3.971,0.5049120790829789,-0.6760949002404023
-3.9705,-0.4980843575391895,-1.184733543688439
-3.97,-1.437059745015262,-1.396666311791788
-3.9695,-2.183971985053047,-1.311893204550448
-3.969,-2.290673733629873,-1.05757388282643
-3.9685,-1.501080794161358,-0.5277419625680583
-3.968,-0.6154562809736985,0.3941655786815084
-3.9675,0.0674349099179905,1.316073119931075
-3.967,0.4729015545099309,1.973064701051456
-3.9665,0.6542945270905358,2.312157130016814
-3.966,0.6969752265212663,2.343947045232316
-3.9655,0.6649647019482183,2.16380419234447
-3.965,0.6116138276598051,1.994257977861791
-3.9645,0.5689331282290746,1.75053529454294
-3.964,0.5475927785137094,1.559795803249926
-3.9635,0.4302208550792003,1.104140351827727
-3.963,0.1741366584948169,0.1928294489833272
-3.9625,-0.572775581542968,-0.6972881770507372
-3.962,-1.042263275281004,-1.311893204550448
-3.9615,-0.6154562809736985,-1.375473034981453
-3.961,0.01408403562957729,-1.004590690800593
-3.9605,0.5049120790829789,-0.6231117082145651
-3.96,0.7183155762366316,-0.2734226408440398
-3.9595,0.79300680024041,-0.1144730647665284
-3.959,0.8036769750980928,-0.09327978795619347
-3.9585,0.7823366253827275,-0.1144730647665284
-3.958,0.79300680024041,-0.1674562567923655
-3.9575,0.8890383739595538,-0.09327978795619347
-3.957,0.8676980242441885,0.2352160026039969
-3.9565,0.8036769750980928,0.4365521323021782
-3.956,0.7503261008096795,0.5955017083796896
-3.9555,0.7183155762366316,0.6696781772158616
-3.955,0.9957401225363802,0.2881991946298341
-3.9545,0.8676980242441885,-0.4323722169215513
-3.954,-0.07127736323188383,-1.025783967610927
-3.9535,-0.9462317015618604,-1.227120097309109
-3.953,-1.703814116457328,-1.184733543688439
-3.9525,-2.312014083345239,-1.004590690800593
-3.952,-2.365364957633652,-0.7714646458869092
-3.9515,-1.703814116457328,-0.474758770542221
-3.951,-0.7648387289812555,0.06566978812131802
-3.9505,-0.03926683865883591,0.849821030103708
-3.95,0.408880505363835,1.602182356870596
-3.9495,0.6222840025174878,2.015451254672126
-3.949,0.6756348768059011,1.962468062646288
-3.9485,0.6542945270905358,1.506812611224089
-3.948,0.6116138276598051,0.8180311148882058
-3.9475,0.4515612047945656,0.05507314971615059
-3.947,0.02475421048725994,-0.6549016234300674
-3.9465,-0.7114878546928423,-1.237716735714276
-3.946,-1.501080794161358,-1.725162102351978
-3.9455,-2.03458953704549,-1.915901593644992
-3.945,-1.458400094730627,-1.862918401619155
-3.9445,-0.5407650569699201,-1.322489842955616
-3.944,0.2274875327832301,-0.7396747306714069
-3.9435,0.6969752265212663,-0.3475991096802118
-3.943,0.8676980242441885,-0.08268314955102604
-3.9425,0.8676980242441885,0.002089957690313421
-3.942,0.8143471499557753,-0.06148987274069118
-3.9415,0.7716664505250448,-0.1992461720078678
-3.941,0.8676980242441885,-0.3793890248957141
-3.9405,0.8783681991018712,-0.2628260024388724
-3.94,0.8143471499557753,0.002089957690313421
-3.9395,0.7289857510943143,0.2987958330350016
-3.939,0.6649647019482183,0.4683420475176805
-3.9385,0.7823366253827275,0.2881991946298341
-3.938,0.9637295979633325,-0.3370024712750445
-3.9375,0.2168173579255475,-0.9728007755850904
-3.937,-0.7008176798351597,-1.311893204550448
-3.9365,-1.458400094730627,-1.364876396576285
-3.936,-2.141291285622316,-1.205926820498774
-3.9355,-2.365364957633652,-0.9622041371799229
-3.935,-1.789175515318789,-0.570128516188728
-3.9345,-0.839529952985034,0.1928294489833272
-3.934,-0.09261771294724913,1.104140351827727
-3.9335,0.3875401556484697,1.824711763379112
-3.933,0.6222840025174878,2.216787384370307
-3.9325,0.6863050516635838,2.237980661180642
-3.932,0.6542945270905358,2.057837808292796
-3.9315,0.6009436528021226,1.570392441655093
-3.931,0.5582629533713921,0.7862411996727035
-3.9305,0.4835717293676135,-0.04029659593035631
-3.93,0.01408403562957729,-0.7820612842920766
-3.9295,-0.8502001278427167,-1.396666311791788
-3.929,-1.629122892453549,-1.831128486403653
-3.9285,-1.693143941599645,-1.894708316834657
-3.928,-0.9142211769888124,-1.51322933424863
-3.9275,-0.08194753808956648,-0.8668343915334161
-3.927,0.4835717293676135,-0.400582301706049
-3.9265,0.7823366253827275,-0.1038764263613609
-3.926,0.8676980242441885,0.07626642652648545
-3.9255,0.8463576745288233,0.1928294489833272
-3.925,0.79300680024041,0.2034260873884947
-3.9245,0.825017324813458,0.01268659609548085
-3.924,0.9210488985326017,0.01268659609548085
-3.9235,0.942389248247967,0.09745970333682032
-3.923,1.049090996824793,-0.07208651114585861
-3.9225,0.9850699476786977,0.1504428953626575
-3.922,0.942389248247967,0.2776025562246667
-3.9215,1.262494493978446,-0.1568596183871981
-3.921,0.9103787236749192,-0.7608680074817418
-3.9205,-0.1032878878049318,-1.195330182093607
-3.92,-1.052933450138687,-1.333086481360783
-3.9195,-1.799845690176472,-1.258910012524611
-3.919,-1.778505340461106,-1.01518732920576
-3.9185,-1.074273799854052,-0.3370024712750445
-3.918,-0.3380317346739499,0.6378882620003594
-3.9175,0.2061471830678648,1.464426057603419
-3.917,0.5155822539406614,2.004854616266958
-3.9165,0.6542945270905358,2.259173937990977
-3.916,0.6756348768059011,2.259173937990977
-3.9155,0.6436243522328531,2.132014277128968
-3.915,0.5796033030867573,1.697552102517103
-3.9145,0.5155822539406614,1.135930267043229
-3.914,0.4408910299368829,0.5955017083796896
-3.9135,-0.007256314085787988,-0.09327978795619347
-3.913,-0.8502001278427167,-0.8138511995075789
-3.9125,-1.650463242168915,-1.417859588602123
-3.912,-1.927887788468663,-1.820531847998485
-3.9115,-1.148965023857831,-1.608599079895136
-3.911,-0.2526703358124887,-0.8774310299385835
-3.9105,0.4195506802215176,-0.3475991096802118
-3.91,0.7609962756673623,-0.01910331912002144
-3.9095,0.8676980242441885,0.1822328105781598
-3.909,0.8463576745288233,0.2140227257936621
-3.9085,0.79300680024041,0.13984625695749
-3.908,0.7716664505250448,-0.008506680714854012
-3.9075,0.8783681991018712,-0.008506680714854012
-3.907,0.857027849386506,0.2352160026039969
-3.9065,0.7823366253827275,0.6060983467848571
-3.906,0.7183155762366316,0.8286277532933731
-3.9055,0.6649647019482183,0.8392243916985406
-3.905,0.8356874996711408,0.4683420475176805
-3.9045,0.6329541773751706,-0.2734226408440398
-3.904,-0.274010685527854,-0.9092209451540858
-3.9035,-1.074273799854052,-1.184733543688439
-3.903,-1.778505340461106,-1.227120097309109
-3.9025,-2.322684258202921,-1.089363798041932
-3.902,-2.23732285934146,-0.8668343915334161
-3.9015,-1.362368521011484,-0.326405832869877
-3.901,-0.4874141826815069,0.5425185163538525
-3.9005,0.142126133921769,1.37965295036208
-3.9,0.5049120790829789,1.951871424241121
-3.8995,0.6649647019482183,2.174400830749637
-3.899,0.6756348768059011,2.047241169887628
-3.8985,0.6436243522328531,1.920081509025619
-3.898,0.5796033030867573,1.506812611224089
-3.8975,0.5262524287983441,0.7332580076468663
-3.897,0.3555296310754218,-0.06148987274069118
-3.8965,-0.3593720843893152,-0.7396747306714069
-3.896,-1.223656247861609,-1.333086481360783
-3.8955,-1.949228138184029,-1.788741932782983
-3.895,-1.959898313041711,-1.88411167842949
-3.8945,-1.084943974711735,-1.47084278062796
-3.894,-0.2313299860971235,-0.8350444763179138
-3.8935,0.3982103305061524,-0.3687923864905467
-3.893,0.7289857510943143,-0.06148987274069118
-3.8925,0.8463576745288233,0.13984625695749
-3.892,0.8463576745288233,0.1822328105781598
-3.8915,0.8036769750980928,0.1822328105781598
-3.891,0.8890383739595538,0.01268659609548085
-3.8905,0.9210488985326017,0.1610395337678249
-3.89,0.8463576745288233,0.4683420475176805
-3.8895,0.7503261008096795,0.6378882620003594
-3.889,0.6863050516635838,0.6802748156210291
-3.8885,0.6649647019482183,0.5319218779486851
-3.888,0.4408910299368829,-0.08268314955102604
-3.8875,-0.3807124341046804,-0.7820612842920766
-3.887,-1.202315898146244,-1.269506650929778
-3.8865,-1.885207089037933,-1.502632695843462
-3.886,-2.354694782775969,-1.460246142222792
