Class_4_Move_right_hand_Horiszontal/Class_4_Move_Right_hand_Horizontal_Turki_12.csv

#Digilent WaveForms Oscilloscope Acquisition
#Device Name: EExplorer
#Serial Number: SN:210151A2B84A
#Date Time: 2021-01-28 09:57:31.598
#Sample rate: 2000Hz
#Samples: 16384
#Trigger: Source: Channel 1 Type: Edge Condition: Rising Level: 0 V Hyst.: Auto HoldOff: 0 s
#Channel 1: Range: 1 V/div Offset: 0 V Attenuation: 1 X
#Channel 2: Range: 1 V/div Offset: 0 V Attenuation: 1 X
#Power Supplies: ON
#Fixed Supply: ON
#Voltage: 3.3 V Readback: 3.323 V
#Positive Supply: ON
#Voltage: 3.7 V Readback: 3.713 V
#Current: 40 mA Readback: 20 mA
#Negative Supply: ON
#Voltage: -3.7 V Readback: -3.348 V
#Current: -40 mA Readback: -6 mA
#Reference 1: ON
#Voltage: 0 V
#Reference 2: ON
#Voltage: 0 V

Time (s),Channel 1 (V),Channel 2 (V)
-4.096,-0.1993194615240755,-1.449649503817625
-4.0955,-0.1779791118087296,-1.460246142222783
-4.095,-0.3807124341047484,-1.481439419032906
-4.0945,-0.4554036581084589,-1.237716735714276
-4.094,-0.4127229586777671,-0.8456411147234378
-4.0935,-0.3380317346738625,-0.4323722169211754
-4.093,-0.2420001609548061,-0.01910331912002144
-4.0925,0.2381577076404761,0.6060983467842884
-4.092,1.102441871113915,1.30547648152639
-4.0915,1.881364635724039,1.835308401784279
-4.091,2.105438307735375,1.930678147430786
-4.0905,1.038420821965781,1.008770606180121
-4.09,-0.423393133535411,-0.1992461720078678
-4.0895,-1.212986073003927,-0.8668343915334161
-4.089,-1.223656247861599,-0.7608680074818381
-4.0885,-0.9355615267041777,-0.2204394488182027
-4.088,-0.6261264558313813,0.3941655786815084
-4.0875,-0.3913826089625765,0.9028042221290826
-4.087,-0.2526703358124305,1.231300012689909
-4.0865,-0.1886492866663929,1.42203950398275
-4.086,-0.2099896363817388,1.379652950362118
-4.0855,-0.3166913849589145,0.9663840525599908
-4.085,-0.6794773301197943,0.3517790250608387
-4.0845,-1.052933450138347,0.02328323450094705
-4.084,-0.3700422592459691,0.4683420475182877
-4.0835,0.7609962756673623,1.135930267043229
-4.083,1.731982187716482,1.655165548896433
-4.0825,1.892034810581014,1.50681261122325
-4.082,1.113112045970889,0.5849050699745222
-4.0815,0.3128489316446912,-0.3475991096802118
-4.081,-0.1246282375198991,-0.9198175835587328
-4.0805,-0.2846808603855366,-1.237716735714276
-4.08,-0.2953510352432193,-1.375473034981453
-4.0795,-0.2420001609548546,-1.407262950196926
-4.079,-0.1779791118087782,-1.407262950196965
-4.0785,-0.2526703358124887,-1.417859588602123
-4.078,-0.3593720843892181,-1.290699927740229
-4.0775,-0.3593720843892764,-1.004590690800294
-4.077,-0.3166913849585846,-0.6760949002404023
-4.0765,-0.2633405106702199,-0.3581957480856684
-4.076,0.01408403563028572,0.1398462569581743
-4.0755,0.79300680024041,0.8922075837243778
-4.075,1.635950613997339,1.559795803249926
-4.0745,2.137448832307821,1.930678147430246
-4.074,1.475897991132099,1.33726639674141
-4.0735,0.01408403562957729,0.13984625695749
-4.073,-1.31968782157954,-0.8774310299376582
-4.0725,-2.215982509626095,-1.38606967338662
-4.072,-2.002579012472442,-1.078767159636765
-4.0715,-1.362368521012066,-0.3158091944654035
-4.071,-0.8181896032693291,0.436552132302689
-4.0705,-0.4447334832507763,0.9981739677760521
-4.07,-0.2420001609549905,1.326669758335944
-4.0695,-0.1673089369510858,1.443232780792824
-4.069,-0.2313299860971235,1.157123543853563
-4.0685,-0.4660738329661415,0.5319218779486851
-4.068,-0.9675720512770025,-0.07208651114565622
-4.0675,-0.722158029550525,0.1504428953626575
-4.067,0.3341892813600565,0.8286277532933731
-4.0665,1.401206767128825,1.443232780793239
-4.066,1.956055859727818,1.612778995275763
-4.0655,1.582599739708926,0.9134008605347127
-4.065,0.8997085488178576,-0.0191033191191734
-4.0645,0.3555296310754218,-0.7714646458869092
-4.064,0.02475421048725994,-1.258910012524611
-4.0635,-0.1352984123778341,-1.481439419032925
-4.063,-0.1886492866663929,-1.502632695843433
-4.0625,-0.1886492866663929,-1.47084278062796
-4.062,-0.2420001609547576,-1.449649503817644
-4.0615,-0.4233931335354304,-1.386069673386341
-4.061,-0.4447334832507763,-1.078767159636765
-4.0605,-0.391382608962363,-0.6760949002404023
-4.06,-0.3166913849584681,-0.2946159176540085
-4.0595,-0.1886492866663929,0.1080563417419877
-4.059,0.4302208550792003,0.7544512844572011
-4.0585,1.305175193408381,1.411442865576985
-4.058,2.009406734016231,1.888291593810116
-4.0575,1.860024286008674,1.6657621873016
-4.057,0.5689331282302488,0.5319218779497161
-4.0565,-0.6794773301197943,-0.5913217929990628
-4.056,-1.1062843244271,-0.9304142219644207
-4.0555,-0.9995825758503707,-0.5277419625684245
-4.055,-0.7434983792656573,0.06566978812180954
-4.0545,-0.4874141826815069,0.6060983467848571
-4.054,-0.3273615598164128,0.9981739677756954
-4.0535,-0.2313299860970943,1.231300012689841
-4.053,-0.1993194615240755,1.347863035146577
-4.0525,-0.2313299860971235,1.231300012689736
-4.052,-0.3487019095319625,0.8286277532928141
-4.0515,-0.7114878546928423,0.2140227257936621
-4.051,-0.807519428411986,0.1504428953626575
-4.0505,0.04609456020184888,0.7120647308360206
-4.05,1.123782220828572,1.347863035146577
-4.0495,1.902704985439405,1.729342017732605
-4.049,1.529248865420852,1.210106735879873
-4.0485,0.2701682322132911,0.09745970333609749
-4.048,-0.4660738329661415,-0.6972881770507372
-4.0475,-0.6154562809735626,-1.110557074851891
-4.047,-0.5194247072544189,-1.290699927740181
-4.0465,-0.3700422592469978,-1.364876396576285
-4.046,-0.2420001609549225,-1.354279758171127
-4.0455,-0.1673089369511926,-1.364876396576362
-4.045,-0.3487019095316325,-1.449649503817625
-4.0445,-0.4447334832507763,-1.280103289334946
-4.044,-0.4127229586776604,-0.9622041371796242
-4.0435,-0.3380317346739499,-0.6337083466197325
-4.043,-0.2526703358124887,-0.3052125560595421
-4.0425,0.2381577076404663,0.3305857482499256
-4.042,1.091771696255524,1.093543713422559
-4.0415,1.870694460866357,1.70814874092227
-4.041,2.105438307735161,1.867098316999637
-4.0405,1.059761171681127,0.987577329369786
-4.04,-0.423393133535411,-0.2204394488182027
-4.0395,-1.639793067310126,-1.121153713256615
-4.039,-2.002579012472054,-1.280103289334425
-4.0385,-1.575772018165136,-0.7078848154559045
-4.038,-1.031593100423817,0.02328323449998326
-4.0375,-0.6047861061157634,0.6484849004059027
-4.037,-0.3273615598162672,1.061753798207057
-4.0365,-0.1993194615240755,1.284283204715573
-4.036,-0.1886492866664802,1.241896651094518
-4.0355,-0.2846808603855366,0.8180311148882058
-4.035,-0.6474668055467465,0.1610395337678249
-4.0345,-1.084943974711337,-0.1886495336023823
-4.034,-0.4767440078238243,0.2987958330350016
-4.0335,0.6542945270905358,1.00877060618122
-4.033,1.657290963711792,1.570392441654583
-4.0325,1.828013761435005,1.443232780792314
-4.032,1.145122570543937,0.5955017083796896
-4.0315,0.4622313796528692,-0.2522293640329339
-4.031,0.02475421048707555,-0.8880276683440882
-4.0305,-0.1779791118087102,-1.258910012524611
-4.03,-0.2420001609547479,-1.40726295019682
-4.0295,-0.2313299860970846,-1.439052865412457
-4.029,-0.1886492866663929,-1.439052865412457
-4.0285,-0.2099896363817582,-1.460246142222792
-4.028,-0.2846808603855366,-1.34368311976569
-4.0275,-0.2846808603855366,-1.05757388282643
-4.027,-0.274010685527854,-0.7290780922662394
-4.0265,-0.2420001609548352,-0.38998566330119
-4.026,0.01408403562957729,0.1504428953626575
-4.0255,0.7716664505250448,0.8922075837243778
-4.025,1.603940089423534,1.549199164844161
-4.0245,2.148119007165562,1.941274785835472
-4.024,1.550589215135878,1.411442865577582
-4.0235,0.09944543449235832,0.2352160026050667
-4.023,-1.223656247862055,-0.7714646458871405
-4.0225,-1.714484291315011,-1.025783967610927
-4.022,-1.45840009473086,-0.5065486857581957
-4.0215,-0.9995825758499243,0.2140227257942307
-4.021,-0.6154562809736985,0.8392243916985406
-4.0205,-0.3593720843893152,1.284283204715573
-4.02,-0.220659811239402,1.528005888034491
-4.0195,-0.1779791118087102,1.602182356870596
-4.019,-0.2526703358124887,1.326669758336243
-4.0185,-0.5194247072543121,0.7014680924319326
-4.018,-1.010252750707956,0.1292496185523226
-4.0175,-0.5941159312583333,0.3411823866556712
-4.017,0.4942419042243062,0.9557874141548234
-4.0165,1.539919040278622,1.517409249629353
-4.016,2.009406734016231,1.623375633680931
-4.0155,1.13445239568705,0.7226613692425181
-4.015,-0.30602121010195,-0.4853554089482366
-4.0145,-1.458400094730627,-1.417859588602123
-4.014,-1.714484291314778,-1.788741932782645
-4.0135,-1.330357996437979,-1.714565463946666
-4.013,-0.8288597781273515,-1.555615887869299
-4.0125,-0.4340633083930936,-1.449649503817625
-4.012,-0.2099896363817582,-1.439052865412448
-4.0115,-0.2099896363817582,-1.42845622700729
-4.011,-0.2206598112394408,-1.248313374119443
-4.0105,-0.2206598112394408,-1.015187329205972
-4.01,-0.2206598112394408,-0.792657922697244
-4.0095,-0.1352984123779797,-0.5277419625680583
-4.009,0.430220855078686,0.04447651131046271
-4.0085,1.273164668836779,0.8180311148887937
-4.008,1.988066384300866,1.464426057603419
-4.0075,1.828013761435772,1.400846227172472
-4.007,0.5262524287970437,0.3835689402753387
-4.0065,-0.9035510021311299,-0.718481453861072
-4.006,-2.045259711903173,-1.460246142222792
-4.0055,-2.354694782775416,-1.555615887868711
-4.005,-1.746494815888059,-0.9092209451540858
-4.0045,-1.095614149569417,-0.1038764263613609
-4.004,-0.6047861061157538,0.5849050699749366
-4.0035,-0.3166913849585846,1.040560521396722
-4.003,-0.1779791118087102,1.273686566310405
-4.0025,-0.1886492866663832,1.167720182258827
-4.002,-0.3593720843893152,0.6378882620003594
-4.0015,-0.807519428411986,-0.04029659593035631
-4.001,-0.8502001278426778,-0.08268314955098749
-4.0005,0.06743490991899007,0.553115154759656
-4,1.166462920259302,1.25249328950007
-3.9995,1.934715510012453,1.676358825706768
-3.999,1.785333062004896,1.178316820663898
-3.9985,1.15579274540162,0.2564092794143318
-3.998,0.5369226036560266,-0.5171453241628908
-3.9975,0.1101156093487211,-1.025783967610927
-3.997,-0.1139580626626144,-1.301296566145281
-3.9965,-0.1886492866663929,-1.417859588602123
-3.996,-0.1993194615240755,-1.439052865412457
-3.9955,-0.1886492866663929,-1.42845622700729
-3.995,-0.2953510352432193,-1.460246142222792
-3.9945,-0.3487019095316325,-1.237716735714276
-3.994,-0.3273615598162672,-0.8880276683437509
-3.9935,-0.2846808603855366,-0.5065486857577234
-3.993,-0.2206598112394408,-0.1038764263613609
-3.9925,0.2594980573562781,0.5319218779486851
-3.992,1.123782220828572,1.25249328950007
-3.9915,1.892034810581722,1.803518486568777
-3.991,2.12677865745074,1.898888232215284
-3.9905,1.081101521397841,0.9769806909657173
-3.99,-0.4127229586777283,-0.2416327256285375
-3.9895,-1.543761493592088,-1.078767159636765
-3.989,-1.746494815888059,-1.078767159636765
-3.9885,-1.351698346153801,-0.4323722169215513
-3.988,-0.8822106524157645,0.2987958330350016
-3.9875,-0.5194247072545548,0.8922075837243778
-3.987,-0.2953510352432193,1.273686566310405
-3.9865,-0.1886492866663929,1.485619334413754
-3.986,-0.1779791118087102,1.475022696008586
-3.9855,-0.2953510352432193,1.061753798207057
-3.985,-0.6474668055467465,0.3729723018711736
-3.9845,-0.9889124009925911,0.03387987290581572
-3.984,-0.274010685527854,0.4789386859228479
-3.9835,0.8463576745288233,1.135930267043229
-3.983,1.774662887147213,1.644568910491266
-3.9825,1.849354111150991,1.432636142387917
-3.982,0.7716664505250448,0.383568940276341
-3.9815,-0.08194753808956648,-0.5383386009732256
-3.981,-0.4660738329661415,-1.142346990067769
-3.9805,-0.4874141826815069,-1.460246142222792
-3.98,-0.391382608962363,-1.566212526274467
-3.9795,-0.274010685527854,-1.566212526274467
-3.979,-0.1779791118087102,-1.502632695843462
-3.9785,-0.1886492866663929,-1.481439419033127
-3.978,-0.2526703358124887,-1.34368311976595
-3.9775,-0.2526703358124887,-1.089363798041932
-3.977,-0.2526703358124887,-0.8138511995075789
-3.9765,-0.2313299860971235,-0.5489352393783931
-3.976,-0.01792648894347063,-0.1356663415768632
-3.9755,0.7183155762366316,0.5955017083796896
-3.975,1.56125938999356,1.326669758336243
-3.9745,2.105438307735375,1.79292184816361
-3.974,1.475897991132099,1.29487984312074
-3.9735,0.03542438534494258,0.1292496185523226
-3.973,-1.170305373573196,-0.8880276683437509
-3.9725,-1.554431668449771,-1.322489842955616
-3.972,-1.30901764672307,-1.046977244421262
-3.9715,-0.9035510021311299,-0.400582301706049
-3.971,-0.5514352318276028,0.309392471440169
-3.9705,-0.3273615598162672,0.8710143069140429
-3.97,-0.2099896363817582,1.220703374284568
-3.9695,-0.1779791118087102,1.33726639674141
-3.969,-0.2846808603855366,0.9981739677760521
-3.9685,-0.5087545323968721,0.3623756634660061
-3.968,-0.9782422261349084,-0.1992461720078678
-3.9675,-0.6474668055467465,0.06566978812131802
-3.967,0.4195506802215176,0.775644561267536
-3.9665,1.475897991132099,1.42203950398275
-3.966,1.988066384300866,1.644568910491266
-3.9655,1.507908515705147,1.019367244586387
-3.965,0.825017324813458,0.1186529801471552
-3.9645,0.3128489316446912,-0.6760949002404023
-3.964,0.00341386077189465,-1.174136905283272
-3.9635,-0.1459685872356623,-1.449649503817625
-3.963,-0.1886492866663929,-1.545019249464132
-3.9625,-0.1886492866663929,-1.534422611058964
-3.962,-0.2206598112394408,-1.502632695843462
-3.9615,-0.3700422592469978,-1.42845622700729
-3.961,-0.391382608962363,-1.142346990067769
-3.9605,-0.3487019095316325,-0.7820612842920766
-3.96,-0.2953510352432193,-0.4111789401112165
-3.9595,-0.156638762093345,0.02328323450064829
-3.959,0.4622313796522482,0.7332580076468663
-3.9585,1.337185717982225,1.42203950398275
-3.958,2.030747083731597,1.898888232215284
-3.9575,1.881364635724039,1.676358825706768
-3.957,0.5796033030867573,0.55311515475902
-3.9565,-0.839529952985034,-0.570128516188728
-3.956,-1.533091318734406,-1.0999604364471
-3.9555,-1.415719395299897,-0.8774310299385835
-3.955,-1.020922925565639,-0.252229364033705
-3.9545,-0.6474668055467465,0.4365521323021782
-3.954,-0.3807124341046804,0.9769806909657173
-3.9535,-0.2420001609548061,1.316073119931075
-3.953,-0.1779791118087102,1.485619334413754
-3.9525,-0.2099896363817582,1.390249588767247
-3.952,-0.3273615598162672,0.9557874141553824
-3.9515,-0.7755089038389382,0.2776025562246667
-3.951,-0.807519428411986,0.1504428953626575
-3.9505,0.1314559590640864,0.6802748156210291
-3.95,1.209143619690033,1.29487984312074
-3.9495,1.966726034585501,1.6657621873016
-3.949,1.56125938999356,1.093543713422559
-3.9485,0.2594980573562781,-0.07208651114585861
-3.948,-0.6367966306890638,-0.8562377531282487
-3.9475,-0.839529952985034,-1.174136905283272
-3.947,-0.7008176798351597,-1.280103289334946
-3.9465,-0.4767440078238243,-1.333086481360783
-3.946,-0.2846808603855366,-1.322489842955616
-3.9455,-0.1673089369510276,-1.333086481360783
-3.945,-0.2313299860971235,-1.417859588602123
-3.9445,-0.274010685527854,-1.290699927740113
-3.944,-0.274010685527854,-1.036380606016095
-3.9435,-0.2633405106701714,-0.7608680074817418
-3.943,-0.2099896363817582,-0.4641621321370536
-3.9425,0.2168173579255475,0.09745970333682032
-3.942,1.049090996824793,0.8816109453192104
-3.9415,1.828013761435626,1.549199164844759
-3.941,2.073427783162327,1.771728571353275
-3.9405,1.027750647109428,0.92399749893988
-3.94,-0.4447334832507763,-0.252229364033705
-3.9395,-1.693143941599645,-1.142346990067769
-3.939,-2.365364957633652,-1.492036057438295
-3.9385,-1.906547438753298,-1.078767159636765
-3.938,-1.244996597576974,-0.3052125560595421
-3.9375,-0.722158029550525,0.4259554938970107
-3.937,-0.3807124341046804,0.9557874141553824
-3.9365,-0.2099896363817582,1.263089927905238
-3.936,-0.1779791118087102,1.305476481525908
-3.9355,-0.274010685527854,0.9663840525605498
-3.935,-0.6474668055467465,0.3199891098453364
-3.9345,-0.9995825758502737,-0.04029659593035631
-3.934,-0.2633405106701714,0.4047622170866759
-3.9335,0.8676980242441885,1.072350436612224
-3.933,1.796003236862578,1.602182356870596
-3.9325,1.806673411720261,1.42203950398275
-3.932,0.5902734779444399,0.3411823866556712
-3.9315,-0.7114878546928423,-0.7290780922662394
-3.931,-1.234326422719292,-1.184733543688439
-3.9305,-1.127624674142465,-1.290699927740113
-3.93,-0.807519428411986,-1.290699927740113
-3.9295,-0.4874141826815069,-1.301296566145281
-3.929,-0.2526703358124887,-1.322489842955616
-3.9285,-0.3273615598162672,-1.375473034981453
-3.928,-0.4660738329661415,-1.290699927740113
-3.9275,-0.4447334832507763,-1.01518732920576
-3.927,-0.3700422592469978,-0.7290780922662394
-3.9265,-0.2953510352432193,-0.4535654937318862
-3.926,-0.007256314085787988,-0.01910331912002144
-3.9255,0.7716664505250448,0.7226613692416989
-3.925,1.614610264281974,1.432636142387917
-3.9245,2.137448832308423,1.835308401784279
-3.924,1.475897991132099,1.284283204715573
-3.9235,0.03542438534494258,0.09745970333682032
-3.923,-0.9782422261349084,-0.792657922697244
-3.9225,-1.159635198715513,-0.9728007755850904
-3.922,-0.9569018764195432,-0.7290780922662394
-3.9215,-0.658136980404429,-0.326405832869877
-3.921,-0.423393133535411,0.09745970333682032
-3.9205,-0.274010685527854,0.3517790250608387
-3.92,-0.1993194615240755,0.2458126410091644
-3.9195,-0.1993194615240755,-0.1250697031716958
-3.919,-0.2633405106701714,-0.5277419625680583
-3.9185,-0.5194247072545548,-0.8668343915334161
-3.918,-1.084943974711735,-0.9728007755850904
-3.9175,-0.8181896032696687,-0.3158091944647096
-3.917,0.2808384070716433,0.6378882620003594
-3.9165,1.390536592270638,1.390249588767247
-3.916,1.934715510012453,1.612778995275763
-3.9155,1.422547116843686,0.92399749893988
-3.915,0.6756348768059011,0.03387987290581572
-3.9145,0.142126133921769,-0.6972881770507372
-3.914,-0.124628237520297,-1.227120097309109
-3.9135,-0.2206598112394408,-1.481439419033127
-3.913,-0.2420001609548061,-1.555615887869299
-3.9125,-0.2099896363817582,-1.545019249464132
-3.912,-0.1886492866663929,-1.502632695843462
-3.9115,-0.2206598112394408,-1.396666311791788
-3.911,-0.2313299860971235,-1.142346990067769
-3.9105,-0.2313299860971235,-0.8244478379127463
-3.91,-0.2206598112394408,-0.4853554089473885
-3.9095,-0.1352984123779797,-0.08268314955102604
-3.909,0.4515612047945656,0.5955017083796896
-3.9085,1.305175193409177,1.316073119931075
-3.908,2.009406734016231,1.824711763379112
-3.9075,1.870694460866357,1.6657621873016
-3.907,0.5796033030867573,0.5849050699745222
-3.9065,-0.722158029550525,-0.4853554089473885
-3.906,-1.180975548430879,-0.8032545611024114
-3.9055,-1.06360362499637,-0.4429688553267188
-3.905,-0.7755089038389382,0.1610395337678249
-3.9045,-0.5087545323968721,0.7438546460520338
-3.904,-0.3273615598162672,1.167720182258731
-3.9035,-0.2206598112394408,1.432636142387917
-3.903,-0.1886492866663929,1.559795803249926
-3.9025,-0.2313299860971235,1.390249588767247
-3.902,-0.3700422592469978,0.8922075837243778
-3.9015,-0.8288597781273515,0.2670059178194992
-3.901,-0.807519428411986,0.309392471440169
-3.9005,0.1314559590640864,0.8710143069140429
-3.9,1.219813794547716,1.443232780793084
-3.8995,1.977396209443183,1.75053529454294
-3.899,1.539919040278195,1.125333628638062
-3.8985,0.1848068333524996,-0.07208651114585861
-3.898,-0.722158029550525,-0.8774310299385835
-3.8975,-0.9035510021311299,-1.258910012524611
-3.897,-0.754168554123573,-1.396666311791788
-3.8965,-0.5300948821122373,-1.396666311791788
-3.896,-0.3380317346739499,-1.375473034981453
-3.8955,-0.1886492866663929,-1.38606967338662
-3.895,-0.1139580626626144,-1.42845622700729
-3.8945,-0.1032878878049318,-1.322489842955616
-3.894,-0.1352984123779797,-1.131750351662602
-3.8935,-0.1779791118087102,-0.8986243067489184
-3.893,-0.1779791118087102,-0.6443049850249
-3.8925,0.2061471830678648,-0.1462629799820306
-3.892,1.027750647109428,0.6378882620003594
-3.8915,1.817343586577944,1.369056311956912
-3.891,2.08409795802001,1.6657621873016
-3.8905,1.081101521397841,0.8922075837243778
-3.89,-0.4020527838200457,-0.252229364033705
-3.8895,-1.46907026958831,-1.078767159636765
-3.889,-1.618452717595867,-1.121153713257435
-3.8885,-1.255666772434657,-0.4959520473525559
-3.888,-0.8288597781273515,0.2352160026039969
-3.8875,-0.4874141826815069,0.849821030103708
-3.887,-0.2846808603855366,1.263089927905238
-3.8865,-0.1886492866663929,1.485619334413754
-3.886,-0.1993194615240755,1.453829419198252
-3.8855,-0.3166913849585846,0.9981739677760521
