Class_4_Move_right_hand_Horiszontal/Class_4_Move_right_hand_Horiszontal_Suko_10.csv

#Digilent WaveForms Oscilloscope Acquisition
#Device Name: EExplorer
#Serial Number: SN:210151A2B84A
#Date Time: 2021-01-28 10:05:39.512
#Sample rate: 2000Hz
#Samples: 16384
#Trigger: Source: Channel 1 Type: Edge Condition: Rising Level: 0 V Hyst.: Auto HoldOff: 0 s
#Channel 1: Range: 1 V/div Offset: 0 V Attenuation: 1 X
#Channel 2: Range: 1 V/div Offset: 0 V Attenuation: 1 X
#Power Supplies: ON
#Fixed Supply: ON
#Voltage: 3.3 V Readback: 3.329 V
#Positive Supply: ON
#Voltage: 3.7 V Readback: 3.711 V
#Current: 40 mA Readback: 21 mA
#Negative Supply: ON
#Voltage: -3.7 V Readback: -3.346 V
#Current: -40 mA Readback: -8 mA
#Reference 1: ON
#Voltage: 0 V
#Reference 2: ON
#Voltage: 0 V

Time (s),Channel 1 (V),Channel 2 (V)
-4.096,0.1848068333524996,-1.121153713257435
-4.0955,0.1314559590641349,-1.216523458903855
-4.095,0.1421261339218369,-1.099960436446974
-4.0945,0.2168173579255475,-0.9622041371799229
-4.094,0.3235191065022768,-0.8456411147231873
-4.0935,0.2274875327830845,-0.7714646458868128
-4.093,0.0674349099179905,-0.6654982618352349
-4.0925,-0.07127736323175768,-0.5065486857578679
-4.092,-0.124628237519938,-0.284019279248764
-4.0915,0.2701682322139607,0.2034260873884947
-4.091,1.070431346540159,0.9451907757502149
-4.0905,1.828013761435626,1.602182356870721
-4.09,1.828013761435626,1.739938656137773
-4.0895,0.5902734779444399,0.8604176685088755
-4.089,-0.8502001278414066,-0.2734226408430086
-4.0885,-1.981238662757077,-1.068170521231597
-4.088,-2.247993034199143,-1.216523458903942
-4.0875,-1.671803591884804,-0.771464645887314
-4.087,-1.05293345013827,-0.2310360872230135
-4.0865,-0.5941159312583333,0.1610395337678249
-4.086,-0.306021210101164,0.3517790250606652
-4.0855,-0.1993194615241823,0.3729723018710194
-4.085,-0.3166913849585846,0.2034260873884947
-4.0845,-0.5514352318273893,-0.05089323433529241
-4.084,-1.01025275070848,-0.2946159176543747
-4.0835,-1.586442193022819,-0.2946159176543747
-4.083,-1.148965023857831,0.2670059178194992
-4.0825,0.08877525963440386,1.072350436612774
-4.082,1.241154144263081,1.676358825706768
-4.0815,1.401206767128321,1.432636142387917
-4.081,0.9103787236753657,0.6378882620010823
-4.0805,0.4835717293676135,-0.1250697031716958
-4.08,0.2488278824985954,-0.6972881770507372
-4.0795,0.1848068333525578,-1.046977244420944
-4.079,0.2168173579255766,-1.205926820498707
-4.0785,0.2488278824985954,-1.131750351662602
-4.078,0.2701682322139413,-1.057573882826497
-4.0775,0.4195506802214497,-1.099960436447061
-4.077,0.3448594562177392,-1.05757388282643
-4.0765,0.1634664836372993,-0.8986243067490629
-4.076,-0.007256314085885032,-0.6866915386453288
-4.0755,-0.1139580626626144,-0.4217755785163839
-4.075,0.1634664836371343,0.1292496185523226
-4.0745,0.9423892482486851,0.9239974989405257
-4.074,1.731982187716482,1.633972272086098
-4.0735,2.062757608304644,1.930678147430786
-4.073,1.134452395687099,1.178316820664583
-4.0725,-0.3487019095316325,0.002089957690313421
-4.072,-1.51175096901904,-0.8880276683437509
-4.0715,-1.767835165603191,-1.152943628472696
-4.071,-1.394379045584104,-0.7820612842915657
-4.0705,-0.9248913518464952,-0.2204394488182027
-4.07,-0.5407650569702694,0.2246193641984247
-4.0695,-0.3060212101008049,0.4471487707073649
-4.069,-0.1993194615240755,0.4683420475176805
-4.0685,-0.2526703358124887,0.3199891098453364
-4.068,-0.4340633083933848,0.05507314971589037
-4.0675,-0.754168554123573,-0.2310360872233701
-4.067,-1.319687821580753,-0.3581957480853793
-4.0665,-1.426389570156648,-0.008506680714150469
-4.066,-0.4020527838200457,0.7650479228623686
-4.0655,0.8463576745288233,1.485619334413754
-4.065,1.614610264281275,1.506812611224069
-4.0645,1.614610264281974,0.6378882620003594
-4.064,1.123782220828572,-0.1674562567923655
-4.0635,0.6542945270909628,-0.7396747306708864
-4.063,0.3235191065022477,-1.078767159636861
-4.0625,0.1848068333524996,-1.184733543688439
-4.062,0.110115609348789,-1.184733543688439
-4.0615,0.07810508477575077,-1.121153713257271
-4.061,0.1634664836371343,-0.9410108603695881
-4.0605,0.1954770082101822,-0.792657922697244
-4.06,0.08877525963324903,-0.7290780922661624
-4.0595,-0.02859666380115328,-0.6443049850249
-4.059,-0.124628237520297,-0.5065486857577234
-4.0585,-0.02859666380124062,-0.1780528951978317
-4.058,0.6222840025174878,0.5425185163538525
-4.0575,1.454557641416734,1.305476481525908
-4.057,2.041417258588745,1.835308401783797
-4.0565,1.507908515705147,1.75053529454294
-4.056,0.07810508477567314,0.9134008605347127
-4.0555,-1.266336947291117,-0.199246172006856
-4.055,-1.88520708903771,-0.8986243067488798
-4.0545,-1.639793067311232,-0.8562377531282487
-4.054,-1.138294849000604,-0.474758770542568
-4.0535,-0.6794773301195226,-0.008506680714526335
-4.053,-0.3807124341046804,0.3517790250608387
-4.0525,-0.2206598112394408,0.5319218779486851
-4.052,-0.1993194615242405,0.5849050699742716
-4.0515,-0.3807124341046804,0.309392471440169
-4.051,-0.690147504977477,-0.09327978795619347
-4.0505,-1.202315898145778,-0.4323722169212429
-4.05,-1.586442193022819,-0.570128516188728
-4.0495,-0.7968492535543035,-0.1356663415768632
-4.049,0.494241904224122,0.7226613692409183
-4.0485,1.465227816274572,1.316073119930709
-4.048,1.635950613997339,0.9134008605347127
-4.0475,0.931719073390925,0.09745970333756238
-4.047,0.3875401556482562,-0.4747587705425584
-4.0465,0.1527963087794516,-0.8456411147230812
-4.046,0.07810508477574107,-1.015187329205606
-4.0455,0.1207857842064619,-1.078767159636755
-4.045,0.1848068333524996,-1.068170521231597
-4.0445,0.291508581929326,-0.9516074987747555
-4.044,0.4088805053637283,-0.7820612842920187
-4.0435,0.291508581929326,-0.718481453861072
-4.043,0.09944543449103843,-0.6654982618352349
-4.0425,-0.04993701351638269,-0.5807251545939724
-4.042,-0.09261771294724913,-0.3793890248957141
-4.0415,0.3661998059331045,0.1610395337678249
-4.041,1.177133095116248,0.9345941373443438
-4.0405,1.902704985439327,1.591585718465525
-4.04,1.817343586577944,1.697552102517103
-4.0395,0.5475927785148642,0.8074344764838479
-4.039,-0.8928808272743886,-0.3264058328705709
-4.0385,-1.927887788468663,-1.089363798041932
-4.038,-1.981238662757028,-1.068170521231617
-4.0375,-1.44772991987245,-0.4747587705415368
-4.037,-0.9035510021311299,0.2776025562246667
-4.0365,-0.5087545323968721,0.9345941373450475
-4.036,-0.2740106855277764,1.400846227172617
-4.0355,-0.1886492866663929,1.623375633680931
-4.035,-0.2953510352432193,1.33726639674141
-4.0345,-0.5514352318273699,0.7014680924319422
-4.034,-1.020922925565639,0.06566978812131802
-4.0335,-1.565101843307454,-0.326405832869877
-4.033,-1.106284324427517,-0.1674562567925101
-4.0325,0.1421261339227977,0.5849050699751775
-4.032,1.273164668836129,1.305476481525908
-4.0315,1.550589215135625,1.241896651094961
-4.031,1.230483969405,0.563711793163532
-4.0305,0.79300680024041,-0.1568596183871981
-4.03,0.462231379652549,-0.6866915386450879
-4.0295,0.2915085819292678,-1.004590690800718
-4.029,0.2274875327832301,-1.142346990067769
-4.0285,0.2061471830678648,-1.195330182093607
-4.028,0.2488278824987313,-1.15294362847285
-4.0275,0.3982103305061524,-1.05757388282643
-4.027,0.3235191065023739,-0.9622041371799229
-4.0265,0.142126133921934,-0.8138511995077138
-4.026,-0.02859666380115328,-0.6231117082145651
-4.0255,-0.1139580626626144,-0.3899856633008816
-4.025,0.1848068333522278,0.150442895362166
-4.0245,0.9637295979640409,0.945190775750851
-4.024,1.742652362574165,1.644568910491266
-4.0235,2.05208743344668,1.994257977861473
-4.023,1.059761171681117,1.369056311955833
-4.0225,-0.4340633083930936,0.1822328105781598
-4.022,-1.415719395299004,-0.6972881770499373
-4.0215,-1.479740444445672,-0.7502713690762081
-4.021,-1.127624674142465,-0.3475991096802118
-4.0205,-0.7434983792658902,0.1928294489833272
-4.02,-0.4447334832506113,0.6802748156212315
-4.0195,-0.2633405106701714,0.9028042221295453
-4.019,-0.1993194615240755,0.9451907757502149
-4.0185,-0.2633405106701132,0.7756445612676902
-4.018,-0.4660738329661415,0.309392471440169
-4.0175,-0.8288597781273515,-0.1886495336027004
-4.017,-1.426389570157036,-0.4959520473522764
-4.0165,-1.38370887072584,-0.2416327256278051
-4.016,-0.274010685527854,0.5637117931641874
-4.0155,0.9743997728198796,1.347863035145864
-4.015,1.43321729170099,1.475022696007989
-4.0145,1.017080472251745,0.8180311148882058
-4.014,0.5582629533718093,0.06566978812200219
-4.0135,0.2381577076407672,-0.5383386009735629
-4.013,0.07810508477567314,-0.9092209451540858
-4.0125,0.0674349099179905,-1.078767159636765
-4.012,0.1207857842064619,-1.089363798041874
-4.0115,0.1848068333524996,-1.025783967610927
-4.011,0.3341892813600565,-0.8244478379127463
-4.0105,0.3555296310754024,-0.6866915386456951
-4.01,0.1954770082101822,-0.6019184314042303
-4.0095,0.02475421048725994,-0.4853554089473885
-4.009,-0.1032878878048153,-0.3264058328700216
-4.0085,-0.02859666380057101,0.01268659609609766
-4.008,0.6116138276598051,0.6908714540261965
-4.0075,1.433217291700621,1.422039503982085
-4.007,2.009406734015697,1.92008150902533
-4.0065,1.422547116843686,1.602182356870596
-4.006,-0.007256314085787988,0.4895353243280153
-4.0055,-1.351698346154393,-0.5913217929995255
-4.005,-2.002579012472442,-1.0999604364471
-4.0045,-1.725154466172693,-0.8562377531282487
-4.004,-1.180975548430452,-0.326405832869453
-4.0035,-0.7114878546928423,0.13984625695749
-4.003,-0.391382608962363,0.4047622170866759
-4.0025,-0.231329986097269,0.4683420475176227
-4.002,-0.2206598112394408,0.3623756634660061
-4.0015,-0.391382608962363,0.08686306493165288
-4.001,-0.6688071552618595,-0.231036087223081
-4.0005,-1.180975548431121,-0.464162132136909
-4,-1.447729919872945,-0.3052125560595421
-3.9995,-0.5621054066852853,0.4471487707073456
-3.999,0.6969752265212663,1.25249328950007
-3.9985,1.507908515705147,1.623375633680931
-3.998,0.942389248247967,0.8922075837243778
-3.9975,-0.1779791118087102,-0.1992461720078678
-3.997,-0.658136980404429,-0.7396747306714069
-3.9965,-0.6154562809736985,-0.8562377531282487
-3.996,-0.3380317346739499,-0.7290780922662394
-3.9955,-0.02859666380115328,-0.7078848154559045
-3.995,0.1527963087794516,-0.8032545611024114
-3.9945,0.291508581929326,-0.8138511995075789
-3.994,0.3875401556484697,-0.6125150698093976
-3.9935,0.2594980573562781,-0.6125150698093976
-3.993,0.07810508477567314,-0.6337083466197325
-3.9925,-0.07127736323188383,-0.6019184314042303
-3.992,-0.07127736323188383,-0.400582301706049
-3.9915,0.4835717293676135,0.2881991946298341
-3.991,1.315845368266859,1.104140351827727
-3.9905,1.998736559158548,1.75053529454294
-3.99,1.870694460866357,1.867098316999781
-3.9895,0.5582629533713921,1.104140351827727
-3.989,-0.8928808272734472,-0.05089323433552374
-3.9885,-1.693143941599645,-0.8562377531282487
-3.988,-1.597112367880501,-0.9092209451540858
-3.9875,-1.159635198715513,-0.5277419625680583
-3.987,-0.722158029550525,-0.08268314955102604
-3.9865,-0.4127229586777283,0.2352160026039969
-3.986,-0.2420001609548061,0.383568940276341
-3.9855,-0.1993194615240755,0.4047622170866759
-3.985,-0.3060212101009019,0.2564092794143318
-3.9845,-0.5514352318276028,-0.01910331912002144
-3.984,-1.06360362499637,-0.2946159176543747
-3.9835,-1.618452717595867,-0.3370024712750445
-3.983,-1.1062843244271,0.2140227257936621
-3.9825,0.1527963087794516,1.029963882991555
-3.982,1.283834843693812,1.602182356870596
-3.9815,1.475897991132099,1.316073119931075
-3.981,1.091771696255524,0.5425185163538525
-3.9805,0.6329541773751706,-0.1568596183871981
-3.98,0.2808384070716433,-0.6972881770507372
-3.9795,0.1207857842064037,-1.05757388282643
-3.979,0.07810508477567314,-1.227120097309109
-3.9785,0.1207857842064037,-1.269506650929778
-3.978,0.1848068333524996,-1.216523458903942
-3.9775,0.3875401556484697,-0.8880276683437509
-3.977,0.3448594562177392,-0.7078848154559045
-3.9765,0.1634664836371343,-0.6231117082145651
-3.976,-0.007256314085787988,-0.5277419625680583
-3.9755,-0.1032878878049318,-0.3581957480853793
-3.975,0.2381577076409128,0.1716361721729923
-3.9745,1.027750647109428,0.9451907757502149
-3.974,1.785333062004896,1.623375633680931
-3.9735,2.052087433446962,1.941274785835954
-3.973,1.017080472251745,1.241896651094903
-3.9725,-0.4447334832507763,0.07626642652648545
-3.972,-1.234326422719292,-0.6019184314042303
-3.9715,-1.234326422719292,-0.5277419625680583
-3.971,-0.9462317015618604,-0.08268314955102604
-3.9705,-0.6261264558313813,0.5213252395435176
-3.97,-0.391382608962363,1.072350436612224
-3.9695,-0.2526703358124887,1.485619334413754
-3.969,-0.1993194615240755,1.729342017732605
-3.9685,-0.274010685527854,1.591585718465428
-3.968,-0.4980843575391895,0.9981739677760521
-3.9675,-0.8822106524157645,0.309392471440169
-3.967,-1.479740444445993,-0.2098428104130352
-3.9665,-1.415719395299897,-0.4535654937318862
-3.966,-0.2846808603855366,0.04447651131098315
-3.9655,0.974399772821015,0.8604176685088755
-3.965,1.390536592270638,1.072350436612224
-3.9645,0.9637295979633325,0.4895353243280153
-3.964,0.5369226036560266,-0.1992461720078678
-3.9635,0.3128489316446912,-0.6866915386455698
-3.963,0.1848068333524996,-1.036380606016095
-3.9625,0.142126133921769,-1.216523458903942
-3.962,0.142126133921769,-1.248313374119443
-3.9615,0.1527963087794516,-1.195330182093607
-3.961,0.291508581929326,-0.9833974139902578
-3.9605,0.3235191065023739,-0.8456411147230812
-3.96,0.1741366584948169,-0.8032545611024114
-3.9595,0.01408403562957729,-0.7396747306714069
-3.959,-0.1139580626626144,-0.6019184314042303
-3.9585,-0.01792648894347063,-0.2734226408440398
-3.958,0.6436243522328531,0.4683420475176805
-3.9575,1.465227816274416,1.25249328950007
-3.957,2.020076908873914,1.824711763379112
-3.9565,1.379866417412955,1.814115124973944
-3.956,-0.06060718837420119,0.92399749893988
-3.9555,-1.383708870726849,-0.2098428104130352
-3.955,-1.927887788468663,-0.8350444763179138
-3.9545,-1.629122892453549,-0.7396747306714069
-3.954,-1.1062843244271,-0.2840192792492073
-3.9535,-0.658136980404429,0.2140227257936621
-3.953,-0.3700422592469978,0.5001319627331828
-3.9525,-0.2206598112394408,0.5637117931641874
-3.952,-0.2313299860971235,0.457745409112513
-3.9515,-0.4447334832507763,0.13984625695749
-3.951,-0.807519428411986,-0.2098428104130352
-3.9505,-1.426389570157579,-0.4641621321370536
-3.95,-1.693143941599645,-0.326405832869877
-3.9495,-0.7434983792658902,0.3941655786815084
-3.949,0.5902734779444399,1.210106735879401
-3.9485,1.443887466559051,1.570392441655093
-3.948,1.241154144263081,1.00877060618122
-3.9475,0.825017324813458,0.2670059178194992
-3.947,0.4835717293676135,-0.3370024712750445
-3.9465,0.2701682322139607,-0.7290780922662394
-3.946,0.1527963087794516,-0.9728007755850904
-3.9455,0.1314559590640864,-1.142346990067769
-3.945,0.142126133921769,-1.195330182093607
-3.9445,0.2488278824985954,-1.195330182093607
-3.944,0.3661998059331045,-1.195330182093607
-3.9435,0.2488278824985954,-0.9833974139902578
-3.943,0.07810508477567314,-0.6972881770507372
-3.9425,-0.07127736323188383,-0.3899856633008816
-3.942,-0.08194753808956648,-0.01910331912002144
-3.9415,0.4302208550792003,0.6696781772158616
-3.941,1.251824319120764,1.400846227172415
-3.9405,1.945385684870135,1.930678147430786
-3.94,1.860024286008674,1.824711763379112
-3.9395,0.5902734779444399,0.7438546460520338
-3.939,-0.7861790786966207,-0.4217755785163839
-3.9385,-1.330357996438436,-0.9410108603695881
-3.938,-1.202315898146244,-0.7714646458869092
-3.9375,-0.8822106524157645,-0.2840192792492073
-3.937,-0.5621054066852853,0.3305857482505039
-3.9365,-0.3487019095316325,0.8710143069140429
-3.936,-0.2313299860971235,1.220703374284568
-3.9355,-0.2099896363817582,1.263089927905238
-3.935,-0.3593720843893152,0.849821030103708
-3.9345,-0.5941159312583333,0.2140227257936621
-3.934,-1.095614149569417,-0.3581957480853793
-3.9335,-1.618452717595867,-0.5489352393783931
-3.933,-1.127624674142465,-0.02969995752518888
-3.9325,0.1314559590640864,0.8286277532933731
-3.932,1.241154144263081,1.475022696008586
-3.9315,1.347855892839907,1.199510097474233
-3.931,0.9210488985326017,0.5319218779486851
-3.9305,0.5475927785137094,-0.1250697031716958
-3.93,0.3021787567870086,-0.6549016234300674
-3.9295,0.1848068333524996,-1.004590690800593
-3.929,0.1314559590640864,-1.174136905283272
-3.9285,0.1207857842064037,-1.237716735714276
-3.928,0.1527963087794516,-1.195330182093607
-3.9275,0.2701682322139607,-1.184733543688439
-3.927,0.2061471830678648,-1.004590690800593
-3.9265,0.05676473506030786,-0.7078848154559045
-3.926,-0.07127736323188383,-0.400582301706049
-3.9255,-0.1459685872356623,-0.08268314955102604
-3.925,0.1207857842064037,0.4047622170866759
-3.9245,0.8783681991018712,1.093543713422559
-3.924,1.678631313428069,1.70814874092227
-3.9235,1.945385684870135,1.951871424241121
-3.923,0.9210488985326017,1.263089927905238
-3.9225,-0.5514352318276028,0.05507314971615059
-3.922,-1.757164990745741,-0.9198175835592532
-3.9215,-2.215982509626095,-1.301296566145281
-3.921,-1.735824641030376,-0.9939940523954253
-3.9205,-1.138294849000148,-0.4853554089473885
-3.92,-0.658136980404429,-0.06148987274069118
-3.9195,-0.3487019095316325,0.1610395337678249
-3.919,-0.2206598112394408,0.2140227257936621
-3.9185,-0.2526703358124887,0.1292496185523226
-3.918,-0.4447334832507763,-0.1250697031716958
-3.9175,-0.8822106524157645,-0.4217755785163839
-3.917,-1.51175096901904,-0.5489352393783931
-3.9165,-1.373038695869166,-0.1144730647665284
-3.916,-0.2206598112394408,0.7332580076468663
-3.9155,1.017080472251745,1.464426057603419
-3.915,1.465227816274416,1.485619334413754
-3.9145,1.145122570543937,0.7650479228623686
-3.914,0.7183155762366316,-0.008506680714854012
-3.9135,0.4515612047945656,-0.5913217929990628
-3.913,0.3021787567870086,-0.9833974139902578
-3.9125,0.2274875327832301,-1.205926820498774
-3.912,0.1848068333524996,-1.290699927740113
-3.9115,0.1741366584948169,-1.227120097309109
-3.911,0.2701682322139607,-1.0999604364471
-3.9105,0.2381577076409128,-0.9622041371799229
-3.91,0.09944543449103843,-0.792657922697244
-3.9095,-0.03926683865883591,-0.5807251545938954
-3.909,-0.1352984123779797,-0.3581957480853793
-3.9085,0.01408403562957729,0.08686306493165288
-3.908,0.7183155762366316,0.8392243916985406
-3.9075,1.539919040278195,1.538602526439591
-3.907,2.052087433446962,1.973064701051456
-3.9065,1.369196242555273,1.644568910491266
-3.906,-0.09261771294724913,0.5213252395435176
-3.9055,-1.362368521011484,-0.5595318777835605
-3.905,-1.757164990745741,-1.01518732920576
-3.9045,-1.458400094730627,-0.7608680074817418
-3.904,-0.9889124009925911,-0.2098428104130352
-3.9035,-0.5941159312583333,0.4259554938970107
-3.903,-0.3380317346739499,0.9981739677760521
-3.9025,-0.2099896363817582,1.390249588767247
-3.902,-0.2313299860971235,1.464426057603419
-3.9015,-0.4447334832507763,0.9875773293708847
-3.901,-0.8181896032696687,0.3305857482505039
-3.9005,-1.447729919872945,-0.2204394488182027
-3.9,-1.661133417026597,-0.1462629799820306
-3.8995,-0.6688071552621118,0.5319218779486851
-3.899,0.6436243522328531,1.273686566310405
-3.8985,1.443887466559051,1.570392441655093
-3.898,1.219813794547716,0.9981739677760521
-3.8975,0.8036769750980928,0.2246193641988295
-3.897,0.4408910299368829,-0.4853554089473885
-3.8965,0.2168173579255475,-0.9939940523954253
-3.896,0.142126133921769,-1.237716735714276
-3.8955,0.1207857842064037,-1.301296566145281
-3.895,0.1207857842064037,-1.290699927740113
-3.8945,0.2061471830678648,-1.248313374119443
-3.894,0.2808384070716433,-1.205926820498774
-3.8935,0.1634664836371343,-0.9939940523954253
-3.893,0.01408403562957729,-0.718481453861072
-3.8925,-0.1032878878049318,-0.4323722169215513
-3.892,-0.07127736323188383,-0.07208651114585861
-3.8915,0.5262524287983441,0.627291623595192
-3.891,1.35852606769759,1.369056311956912
-3.8905,2.020076908873914,1.898888232215284
-3.89,1.753322537431848,1.75053529454294
-3.8895,0.3875401556484697,0.6696781772158616
-3.889,-1.052933450138687,-0.4959520473525559
-3.8885,-2.045259711903173,-1.227120097309109
-3.888,-2.03458953704549,-1.216523458903942
-3.8875,-1.46907026958831,-0.718481453861072
-3.887,-0.9142211769888124,-0.1780528951975329
-3.8865,-0.5087545323968721,0.1928294489833272
-3.886,-0.2846808603855366,0.3305857482505039
