Class_4_Move_right_hand_Horiszontal/Class_4_Move_right_hand_Horiszontal_SH_10.csv

#Digilent WaveForms Oscilloscope Acquisition
#Device Name: EExplorer
#Serial Number: SN:210151A2B84A
#Date Time: 2021-01-21 11:59:15.141
#Sample rate: 2000Hz
#Samples: 16384
#Trigger: Source: Channel 1 Type: Edge Condition: Rising Level: 0 V Hyst.: Auto HoldOff: 0 s
#Channel 1: Range: 1 V/div Offset: 0 V Attenuation: 1 X
#Channel 2: Range: 1 V/div Offset: 0 V Attenuation: 1 X
#Power Supplies: ON
#Fixed Supply: ON
#Voltage: 3.3 V Readback: 3.331 V
#Positive Supply: ON
#Voltage: 3.7 V Readback: 3.776 V
#Current: 40 mA Readback: 18 mA
#Negative Supply: ON
#Voltage: -3.7 V Readback: -4.265 V
#Current: -40 mA Readback: -26 mA
#Reference 1: ON
#Voltage: 0 V
#Reference 2: ON
#Voltage: 0 V

Time (s),Channel 1 (V),Channel 2 (V)
-4.096,-0.5941159312583333,0.08686306493165288
-4.0955,-0.0819475380900323,-0.3370024712746589
-4.095,0.3021787567871639,-0.5807251545939918
-4.0945,0.4729015545099309,-0.6866915386455698
-4.094,-0.06060718837371593,-1.25891001252409
-4.0935,-0.09261771294724913,-1.195330182093356
-4.093,-0.09261771294724913,-0.9198175835592532
-4.0925,-0.04993701351655737,-0.5595318777838882
-4.092,0.2061471830680395,-0.09327978795584652
-4.0915,0.3982103305061524,0.2881991946298341
-4.091,0.4622313796522482,0.5107286011383502
-4.0905,0.462231379651928,0.6484849004050932
-4.09,0.1101156093487211,0.1716361721729923
-4.0895,-0.02859666380115328,-0.6760949002404023
-4.089,-0.4767440078234167,-1.354279758170501
-4.0885,-1.127624674142465,-1.75695201756748
-4.088,-1.373038695869166,-1.576809164679634
-4.0875,-0.9462317015622486,-0.7396747306721683
-4.087,-0.3807124341042534,0.07626642652697697
-4.0865,0.08877525963335578,0.6166949851900245
-4.086,0.376869980790525,0.8392243916983382
-4.0855,0.5155822539407002,0.8286277532932189
-4.085,0.5582629533713921,0.6590815388106942
-4.0845,0.5582629533713921,0.4259554938972228
-4.084,0.5369226036560266,0.1610395337676033
-4.0835,0.5369226036560266,-0.08268314955102604
-4.083,0.5369226036560266,-0.2946159176543747
-4.0825,0.5689331282290843,-0.432372216921561
-4.082,0.5796033030867573,-0.4429688553267188
-4.0815,0.07810508477567314,0.03387987290581572
-4.081,-0.6367966306884136,0.4047622170863385
-4.0805,-1.06360362499637,0.5637117931641874
-4.08,-1.052933450138687,0.6590815388106942
-4.0795,-0.5727755815434048,0.3941655786817493
-4.079,-0.08194753808926564,-0.07208651114620557
-4.0785,0.2488278824985954,-0.4535654937318862
-4.078,0.4515612047943812,-0.6866915386453577
-4.0775,0.5796033030867282,-0.7714646458869381
-4.077,0.5475927785137094,-0.8032545611024114
-4.0765,-0.09261771294666687,-1.29069992773967
-4.076,-0.4660738329660736,-1.417859588601756
-4.0755,-0.391382608962363,-1.01518732920576
-4.075,-0.1459685872356623,-0.4323722169215513
-4.0745,0.2061471830680686,0.2246193641992439
-4.074,0.4302208550792003,0.6802748156210291
-4.0735,0.3661998059331045,0.5319218779486851
-4.073,0.5796033030865633,-0.2734226408433074
-4.0725,0.7823366253827275,-1.078767159636765
-4.072,0.03542438534494258,-1.47084278062796
-4.0715,-0.8608703026995841,-1.555615887869222
-4.071,-0.9355615267038089,-0.9198175835584919
-4.0705,-0.5300948821122373,-0.08268314955102604
-4.07,-0.08194753808997401,0.5107286011378105
-4.0695,0.2488278824987604,0.7862411996727228
-4.069,0.4302208550792003,0.8074344764830383
-4.0685,0.5155822539406614,0.6484849004055269
-4.068,0.5475927785136997,0.4153588554915927
-4.0675,0.5369226036560266,0.13984625695749
-4.067,0.5369226036560266,-0.1144730647665284
-4.0665,0.5369226036560363,-0.3475991096803853
-4.066,0.5475927785137094,-0.5383386009732256
-4.0655,0.5582629533713921,-0.6337083466197325
-4.065,0.536922603656046,-0.2734226408443675
-4.0645,0.7183155762366316,0.2352160026039969
-4.064,0.3875401556484697,0.5107286011383502
-4.0635,-0.2633405106695794,0.7226613692415061
-4.063,-0.604786106115812,0.7438546460516965
-4.0625,-0.3807124341046804,0.3729723018711736
-4.062,-0.02859666380147352,-0.07208651114545384
-4.0615,0.2808384070718083,-0.411178940111361
-4.061,0.4622313796522482,-0.570128516188728
-4.0605,0.5582629533713921,-0.6019184314042303
-4.06,0.5796033030866118,-0.5065486857577522
-4.0595,0.4195506802215176,-0.5383386009732256
-4.059,-0.1459685872356623,-0.8668343915334161
-4.0585,-0.1459685872356623,-0.5595318777838401
-4.058,-0.007256314085787988,-0.1144730647665284
-4.0575,0.1634664836371343,0.3199891098453364
-4.057,0.4408910299366307,0.6378882620000703
-4.0565,0.8997085488172365,0.1716361721729923
-4.056,0.825017324813458,-0.6654982618352349
-4.0555,-0.1673089369501252,-1.343683119765334
-4.055,-1.212986073003995,-1.661582271920482
-4.0545,-1.287677297007705,-1.121153713257435
-4.054,-0.8075194284124227,-0.2310360872241797
-4.0535,-0.2420001609544179,0.4789386859231948
-4.053,0.1848068333524996,0.8604176685088755
-4.0525,0.4302208550792003,0.9451907757502149
-4.052,0.5369226036560363,0.8180311148879937
-4.0515,0.5475927785137094,0.5849050699745222
-4.051,0.5369226036560266,0.2987958330350016
-4.0505,0.5262524287983538,0.01268659609574108
-4.05,0.5369226036560266,-0.2416327256285375
-4.0495,0.5475927785137094,-0.4535654937318862
-4.049,0.5582629533713824,-0.6125150698092531
-4.0485,0.4622313796522094,-0.4641621321365428
-4.048,0.4195506802215176,0.09745970333682032
-4.0475,0.1741366584950401,0.5425185163534477
-4.047,-0.3487019095319722,0.7862411996727805
-4.0465,-0.722158029550525,0.8710143069140429
-4.046,-0.5621054066854309,0.5213252395438357
-4.0455,-0.1779791118083997,0.04447651131059765
-4.045,0.1634664836371343,-0.3793890248957141
-4.0445,0.3768699807907871,-0.6443049850249
-4.044,0.5049120790830177,-0.7078848154558082
-4.0435,0.5475927785137094,-0.6019184314042303
-4.043,0.4302208550792003,-0.570128516188728
-4.0425,0.2274875327834145,-0.4959520473526234
-4.042,0.2488278824985954,-0.1568596183871981
-4.0415,-0.2099896363817582,-0.2946159176543747
-4.041,-0.3487019095315064,-0.1886495336027967
-4.0405,-0.1139580626623233,0.192829448983173
-4.04,0.2061471830678648,0.02328323450064829
-4.0395,0.9210488985319516,-0.5383386009727148
-4.039,0.6116138276590191,-0.9833974139904602
-4.0385,-0.2526703358124887,-1.205926820498774
-4.038,-1.191645723287707,-1.428456227007088
-4.0375,-1.319687821580326,-1.004590690799879
-4.037,-0.8502001278427167,-0.2204394488182027
-4.0365,-0.2953510352432193,0.4047622170866759
-4.036,0.131455959064329,0.7332580076469145
-4.0355,0.3982103305061524,0.7862411996727035
-4.035,0.5262524287983441,0.6484849004055269
-4.0345,0.558262953371363,0.3835689402765819
-4.034,0.5369226036560266,0.08686306493165288
-4.0335,0.5155822539406614,-0.2204394488182027
-4.033,0.4942419042253156,-0.4853554089471476
-4.0325,0.5155822539406808,-0.6760949002403926
-4.032,0.5369226036560266,-0.6654982618352349
-4.0315,0.09944543449143634,-0.1674562567928185
-4.031,-0.4874141826817107,0.1080563417420359
-4.0305,-0.7114878546928423,0.1610395337678249
-4.03,-0.8395299529849175,0.3305857482503496
-4.0295,-0.5941159312579548,0.1292496185519853
-4.029,-0.1779791118087102,-0.2416327256285375
-4.0285,0.1634664836371343,-0.5807251545938954
-4.028,0.3875401556486056,-0.76086800748179
-4.0275,0.5369226036560266,-0.8138511995075789
-4.027,0.6116138276598051,-0.718481453861072
-4.0265,0.5582629533714406,-0.5807251545940206
-4.026,0.3982103305061524,-0.5065486857577234
-4.0255,0.3982103305061524,-0.1992461720078678
-4.025,0.4408910299368441,0.171636172172655
-4.0245,0.4835717293676232,0.5425185163541224
-4.024,0.4942419042252961,0.8392243916985406
-4.0235,0.02475421048768695,0.4895353243283334
-4.023,-0.1673089369511829,-0.3264058328703878
-4.0225,-0.3380317346739499,-0.8880276683437509
-4.022,-1.170305373572439,-1.386069673386167
-4.0215,-1.746494815887729,-1.492036057437659
-4.021,-1.383708870726849,-0.792657922697244
-4.0205,-0.754168554123573,0.01268659609548085
-4.02,-0.1886492866660338,0.5743084315696054
-4.0195,0.2061471830678648,0.849821030103708
-4.019,0.4195506802215176,0.8710143069140429
-4.0185,0.515582253940574,0.7226613692418338
-4.018,0.5475927785137094,0.4895353243280153
-4.0175,0.5369226036560266,0.2140227257936621
-4.017,0.5262524287983538,-0.07208651114559836
-4.0165,0.5155822539406614,-0.3370024712752276
-4.016,0.5155822539406614,-0.5383386009732256
-4.0155,0.5475927785136803,-0.6654982618351192
-4.015,0.8890383739599226,-0.3793890248952612
-4.0145,1.294505018551494,0.1186529801471552
-4.014,0.6116138276604262,0.3623756634657845
-4.0135,-0.1032878878051647,0.5213252395434212
-4.013,-0.3593720843893152,0.4153588554918433
-4.0125,-0.1886492866663929,-0.008506680714854012
-4.012,0.1101156093489346,-0.4111789401114381
-4.0115,0.3448594562177392,-0.6549016234300674
-4.011,0.4942419042252961,-0.718481453861072
-4.0105,0.5582629533713339,-0.6866915386455986
-4.01,0.5475927785137094,-0.570128516188728
-4.0095,0.4515612047945656,-0.4641621321370536
-4.009,0.4515612047945656,-0.2310360872235821
-4.0085,0.4729015545099406,0.07626642652676494
-4.008,0.4835717293676135,0.383568940276341
-4.0075,0.4942419042252864,0.6590815388104436
-4.007,0.5155822539406614,0.8180311148878974
-4.0065,0.5155822539406614,0.4789386859228479
-4.006,0.5369226036560266,-0.1250697031716958
-4.0055,-0.3060212101020471,-0.7820612842928283
-4.005,-1.565101843307454,-1.608599079895136
-4.0045,-1.970568487899394,-1.608599079895136
-4.004,-1.618452717595217,-0.9939940523946832
-4.0035,-0.9035510021311299,-0.1780528951975329
-4.003,-0.1673089369510276,0.5001319627331828
-4.0025,0.2488278824982169,0.7756445612672854
-4.002,0.4302208550792003,0.7650479228623686
-4.0015,0.5049120790829789,0.6060983467848571
-4.001,0.5155822539406517,0.3729723018713856
-4.0005,0.5049120790829789,0.1186529801469432
-4,0.5049120790829789,-0.1144730647665284
-3.9995,0.5049120790829789,-0.326405832869877
-3.999,0.5475927785137094,-0.4641621321370536
-3.9985,0.4835717293676135,-0.3052125560595421
-3.998,0.4835717293676135,0.2352160026039969
-3.9975,0.4302208550792003,0.4259554938970107
-3.997,0.02475421048725994,0.6166949851900245
-3.9965,-0.391382608962363,0.7544512844572011
-3.996,-0.3273615598162672,0.4259554938970107
-3.9955,-0.06060718837420119,-0.07208651114585861
-3.995,0.2061471830678648,-0.474758770542221
-3.9945,0.3982103305061524,-0.718481453861072
-3.994,0.5049120790829789,-0.7396747306714069
-3.9935,0.5475927785137094,-0.6231117082145651
-3.993,0.4515612047945656,-0.5489352393783931
-3.9925,0.2594980573562781,-0.5171453241628908
-3.992,0.2701682322139607,-0.2098428104130352
-3.9915,0.3341892813600565,0.1716361721729923
-3.991,0.408880505363835,0.5319218779486851
-3.9905,0.4622313796522482,0.7968378380778709
-3.99,0.408880505363835,0.6060983467848571
-3.9895,0.6649647019482183,0.04447651131098315
-3.989,0.3021787567870086,-0.4641621321370536
-3.9885,-0.4554036581084589,-0.8350444763179138
-3.988,-0.9248913518464952,-0.8244478379127463
-3.9875,-0.7968492535543035,-0.326405832869877
-3.987,-0.9889124009925911,-0.3370024712750445
-3.9865,-0.690147504977477,-0.01910331912002144
-3.986,-0.2846808603855366,0.2670059178194992
-3.9855,0.01408403562957729,0.3729723018711736
-3.985,0.3128489316446912,0.4365521323021782
-3.9845,0.4729015545099309,0.3623756634660061
-3.984,0.4729015545099309,0.1186529801471552
-3.9835,0.4729015545099309,-0.1250697031716958
-3.983,0.4835717293676135,-0.3475991096802118
-3.9825,0.4942419042252961,-0.5171453241628908
-3.982,0.4835717293676135,-0.5595318777835605
-3.9815,0.2808384070716433,-0.1144730647665284
-3.981,-0.1032878878049318,0.55311515475902
-3.9805,-0.7648387289812555,1.082947075017392
-3.98,-1.223656247861609,1.316073119931075
-3.9795,-1.052933450138687,1.029963882991555
-3.979,-0.5407650569699201,0.383568940276341
-3.9785,-0.02859666380115328,-0.1992461720078678
-3.978,0.3128489316446912,-0.5489352393783931
-3.9775,0.4729015545099309,-0.6760949002404023
-3.977,0.5475927785137094,-0.6337083466197325
-3.9765,0.5475927785137094,-0.5065486857577234
-3.976,0.4729015545099309,-0.4535654937318862
-3.9755,0.4515612047945656,-0.2098428104130352
-3.975,0.4622313796522482,0.1186529801471552
-3.9745,0.4835717293676135,0.4365521323021782
-3.974,0.4835717293676135,0.6908714540261965
-3.9735,0.5475927785137094,0.7332580076468663
-3.973,0.9103787236749192,0.2140227257936621
-3.9725,1.049090996824793,-0.4429688553267188
-3.972,0.3235191065023739,-0.8880276683437509
-3.9715,-0.4340633083930936,-1.121153713257435
-3.971,-0.8288597781273515,-0.8986243067489184
-3.9705,-0.6261264558313813,-0.252229364033705
-3.97,-0.2420001609548061,0.3411823866556712
-3.9695,0.09944543449103843,0.6908714540261965
-3.969,0.09944543449103843,0.5743084315693548
-3.9685,-0.3700422592469978,-0.1038764263613609
-3.968,-0.1886492866663929,-0.1568596183871981
-3.9675,-0.03926683865883591,-0.2628260024388724
-3.967,0.142126133921769,-0.326405832869877
-3.9665,0.3875401556484697,-0.3052125560595421
-3.966,0.4835717293676135,-0.4217755785163839
-3.9655,0.5155822539406614,-0.4959520473525559
-3.965,0.1954770082101822,-0.1780528951975329
-3.9645,-0.3166913849585846,0.457745409112513
-3.964,-1.074273799854052,0.8816109453192104
-3.9635,-1.437059745015262,0.9134008605347127
-3.963,-1.06360362499637,0.6696781772158616
-3.9625,-0.4660738329661415,0.2246193641988295
-3.962,0.01408403562957729,-0.1992461720078678
-3.9615,0.3448594562177392,-0.5277419625680583
-3.961,0.5049120790829789,-0.6549016234300674
-3.9605,0.5582629533713921,-0.6231117082145651
-3.96,0.5475927785137094,-0.4853554089473885
-3.9595,0.4835717293676135,-0.2628260024388724
-3.959,0.4622313796522482,-0.05089323433552374
-3.9585,0.4622313796522482,0.13984625695749
-3.958,0.4622313796522482,0.3411823866556712
-3.9575,0.4729015545099309,0.5319218779486851
-3.957,0.4622313796522482,0.627291623595192
-3.9565,0.5475927785137094,0.1822328105781598
-3.956,0.79300680024041,-0.4853554089473885
-3.9555,0.1207857842064037,-0.9939940523954253
-3.955,-0.7861790786966207,-1.258910012524611
-3.9545,-1.052933450138687,-0.9198175835592532
-3.954,-0.7328282044082075,-0.1780528951975329
-3.9535,-0.274010685527854,0.4683420475176805
-3.953,0.09944543449103843,0.8392243916985406
-3.9525,0.3341892813600565,0.9663840525605498
-3.952,0.4515612047945656,0.9028042221295453
-3.9515,0.4942419042252961,0.7226613692416989
-3.951,0.4835717293676135,0.4895353243280153
-3.9505,0.3448594562177392,0.09745970333682032
-3.95,-0.2526703358124887,-0.7290780922662394
-3.9495,-0.2313299860971235,-0.9092209451540858
-3.949,-0.09261771294724913,-0.9622041371799229
-3.9485,-0.07127736323188383,-0.7820612842920766
-3.948,0.0674349099179905,0.07626642652648545
-3.9475,-0.3166913849585846,0.8922075837243778
-3.947,-0.8608703027003992,1.082947075017392
-3.9465,-1.319687821580753,1.029963882991555
-3.946,-1.148965023857831,0.6484849004055269
-3.9455,-0.5834457564006506,0.1186529801471552
-3.945,-0.04993701351651855,-0.326405832869877
-3.9445,0.3128489316446912,-0.5807251545938954
-3.944,0.5049120790829789,-0.6654982618352349
-3.9435,0.5689331282290746,-0.6443049850249
-3.943,0.4835717293676135,-0.6443049850249
-3.9425,0.3021787567870086,-0.6231117082145651
-3.942,0.291508581929326,-0.326405832869877
-3.9415,0.3448594562177392,0.05507314971615059
-3.941,0.408880505363835,0.383568940276341
-3.9405,0.4622313796522482,0.6484849004055269
-3.94,0.291508581929326,0.4259554938970107
-3.9395,0.5369226036560266,-0.2734226408440398
-3.939,0.04609456020262521,-0.9092209451540858
-3.9385,-0.7328282044082075,-1.301296566145281
-3.938,-1.277007122150022,-1.364876396576285
-3.9375,-1.095614149569417,-0.7608680074817418
-3.937,-0.5941159312583333,0.01268659609548085
-3.9365,-0.1032878878049318,0.5637117931641874
-3.936,0.2274875327832301,0.8286277532933731
-3.9355,0.4195506802215176,0.8392243916985406
-3.935,0.4835717293676135,0.701468092431364
-3.9345,0.4942419042252961,0.4683420475176805
-3.934,0.4835717293676135,0.2140227257936621
-3.9335,0.4729015545099309,-0.04029659593035631
-3.933,0.4729015545099309,-0.252229364033705
-3.9325,0.4835717293676135,-0.4323722169215513
-3.932,0.5049120790829789,-0.4959520473525559
-3.9315,0.1527963087794516,-0.4641621321370536
-3.931,-0.5514352318276028,-0.6654982618352349
-3.9305,-1.26633694729234,-0.1038764263613609
-3.93,-2.055929886760855,0.5743084315693548
-3.9295,-2.03458953704549,0.8922075837243778
-3.929,-1.26633694729234,0.5743084315693548
-3.9285,-0.4767440078238243,0.07626642652648545
-3.928,0.0674349099179905,-0.3370024712750445
-3.9275,0.4195506802215176,-0.5489352393783931
-3.927,0.5796033030867573,-0.570128516188728
-3.9265,0.5902734779444399,-0.474758770542221
-3.926,0.3661998059331045,-0.4959520473525559
-3.9255,0.2701682322139607,-0.3052125560595421
-3.925,0.3021787567870086,0.04447651131098315
-3.9245,0.3555296310754218,0.3941655786815084
-3.924,0.408880505363835,0.6696781772158616
-3.9235,0.2808384070716433,0.701468092431364
-3.923,0.2274875327832301,0.1610395337678249
-3.9225,0.6649647019482183,-0.5383386009732256
-3.922,0.09944543449103843,-1.05757388282643
-3.9215,-0.7434983792658902,-1.269506650929778
-3.921,-0.839529952985034,-0.7290780922662394
-3.9205,-0.4980843575391895,0.01268659609548085
-3.92,-0.1032878878049318,0.5743084315693548
-3.9195,0.2061471830678648,0.849821030103708
-3.919,0.3875401556484697,0.8816109453192104
-3.9185,0.4622313796522482,0.7544512844572011
-3.918,0.4835717293676135,0.5319218779486851
-3.9175,0.4835717293676135,0.2670059178194992
-3.917,0.4729015545099309,0.002089957690313421
-3.9165,0.4729015545099309,-0.2310360872233701
-3.916,0.4835717293676135,-0.4217755785163839
-3.9155,0.5049120790829789,-0.5489352393783931
-3.915,0.291508581929326,-0.4323722169215513
-3.9145,0.09944543449103843,0.1186529801471552
-3.914,-0.06060718837420119,0.4259554938970107
-3.9135,-0.4127229586777283,0.5213252395435176
-3.913,-1.244996597576974,0.1186529801471552
-3.9125,-1.244996597576974,-0.3475991096802118
-3.912,-0.7008176798351597,-0.5913217929990628
-3.9115,-0.2633405106701714,-0.792657922697244
-3.911,0.1741366584948169,-0.7608680074817418
-3.9105,0.4408910299368829,-0.6019184314042303
-3.91,0.5155822539406614,-0.4959520473525559
-3.9095,0.3768699807907871,-0.4959520473525559
-3.909,0.2594980573562781,-0.3687923864905467
-3.9085,0.2808384070716433,-0.06148987274069118
-3.908,0.3448594562177392,0.2776025562246667
-3.9075,0.408880505363835,0.5743084315693548
-3.907,0.4835717293676135,0.7650479228623686
-3.9065,0.6009436528021226,0.3305857482505039
-3.906,0.5155822539406614,-0.4853554089473885
-3.9055,-0.423393133535411,-1.174136905283272
-3.905,-1.351698346153801,-1.534422611058964
-3.9045,-1.46907026958831,-1.152943628472937
-3.904,-0.9569018764195432,-0.3370024712750445
-3.9035,-0.3700422592469978,0.3729723018711736
-3.903,0.07810508477567314,0.775644561267536
-3.9025,0.3555296310754218,0.9028042221295453
-3.902,0.4729015545099309,0.8180311148882058
-3.9015,0.5155822539406614,0.627291623595192
-3.901,0.5049120790829789,0.3729723018711736
-3.9005,0.4835717293676135,0.1080563417419877
-3.9,0.4729015545099309,-0.1462629799820306
-3.8995,0.4729015545099309,-0.3687923864905467
-3.899,0.4835717293676135,-0.5277419625680583
-3.8985,0.5155822539406614,-0.5489352393783931
-3.898,0.9530594231056497,-0.09327978795619347
-3.8975,1.134452395686255,0.5319218779486851
-3.897,0.5475927785137094,0.8604176685088755
-3.8965,-0.1673089369510276,1.040560521396722
-3.896,-0.3593720843893152,0.7226613692416989
-3.8955,-0.2099896363817582,0.1610395337678249
-3.895,-0.1779791118087102,-0.474758770542221
-3.8945,-0.5407650569699201,-1.280103289334946
-3.894,-0.2633405106701714,-1.216523458903942
-3.8935,-0.01792648894347063,-1.025783967610927
-3.893,0.0674349099179905,-0.792657922697244
-3.8925,0.01408403562957729,-0.5807251545938954
-3.892,0.09944543449103843,-0.2204394488182027
-3.8915,0.1954770082101822,0.1504428953626575
-3.891,0.3128489316446912,0.5001319627331828
-3.8905,0.3875401556484697,0.775644561267536
-3.89,0.2381577076409128,0.5849050699745222
-3.8895,-0.5621054066852853,-0.1992461720078678
-3.889,-1.277007122150022,-0.8986243067489184
-3.8885,-1.67180359188428,-1.280103289334946
-3.888,-1.394379045584531,-0.9198175835592532
