Class_4_Move_right_hand_Horiszontal/Class_4_Move_right_hand_Horiszontal_AM_4.csv

#Digilent WaveForms Oscilloscope Acquisition
#Device Name: EExplorer
#Serial Number: SN:210151A2B84A
#Date Time: 2020-11-17 16:06:27.319
#Sample rate: 2000Hz
#Samples: 16384
#Trigger: Source: Channel 1 Type: Edge Condition: Rising Level: 0 V Hyst.: Auto HoldOff: 0 s
#Channel 1: Range: 1 V/div Offset: 0 V Attenuation: 1 X
#Channel 2: Range: 1 V/div Offset: 0 V Attenuation: 1 X
#Power Supplies: ON
#Fixed Supply: ON
#Voltage: 3.3 V Readback: 3.317 V
#Positive Supply: ON
#Voltage: 3.7 V Readback: 3.703 V
#Current: 500 mA Readback: 23 mA
#Negative Supply: ON
#Voltage: -3.7 V Readback: -3.683 V
#Current: -500 mA Readback: -13 mA
#Reference 1: ON
#Voltage: 0 V
#Reference 2: ON
#Voltage: 0 V

Time (s),Channel 1 (V),Channel 2 (V)
-4.096,0.2488278824985954,0.8710143069140429
-4.0955,0.08877525963350136,0.7968378380779384
-4.095,-0.4874141826819242,0.1610395337670636
-4.0945,-0.9462317015618604,-0.6760949002404023
-4.094,-1.084943974711609,-1.301296566144712
-4.0935,-0.7968492535535369,-1.640388995110398
-4.093,0.04609456020262521,-1.375473034981453
-4.0925,0.739655925951366,-0.6549016234307228
-4.092,1.059761171682457,-0.040296595930019
-4.0915,1.038420821967111,0.3305857482505039
-4.091,0.8676980242441885,0.4153588554918433
-4.0905,0.6863050516634577,0.3729723018710676
-4.09,0.5475927785137094,0.2564092794143318
-4.0895,0.5796033030867573,0.2246193641988295
-4.089,0.6863050516634868,0.2564092794143029
-4.0885,0.6436243522328531,0.1186529801471552
-4.088,0.5689331282290746,-0.05089323433552374
-4.0875,0.4835717293676911,-0.1886495336025751
-4.087,0.2488278824978967,-0.2310360872237363
-4.0865,-0.5194247072545548,-0.6337083466197325
-4.086,-1.277007122149333,-1.301296566144674
-4.0855,-1.906547438753851,-1.417859588601207
-4.085,-2.514747405641209,-0.4111789401112165
-4.0845,-2.73882107765234,0.7862411996716143
-4.084,-2.055929886759982,1.390249588767199
-4.0835,-1.095614149569417,1.33726639674141
-4.083,-0.3487019095316325,1.019367244586387
-4.0825,0.1207857842066172,0.7332580076467121
-4.082,0.3555296310754218,0.5637117931641874
-4.0815,0.4302208550792003,0.5319218779486851
-4.081,0.4195506802215274,0.5955017083796318
-4.0805,0.3768699807907871,0.7120647308365314
-4.08,0.3021787567870086,0.8286277532933731
-4.0795,0.2594980573563169,0.9451907757501089
-4.079,0.1741366584943511,0.9769806909653028
-4.0785,-0.3380317346739499,0.5213252395435176
-4.078,-0.8928808272729426,-0.2840192792484748
-4.0775,-1.212986073004189,-0.9728007755854952
-4.077,-1.501080794161358,-1.417859588602123
-4.0765,-0.9035510021316734,-1.322489842955702
-4.076,0.04609456020321719,-0.7078848154553167
-4.0755,0.6969752265212663,-0.06148987274069118
-4.075,0.942389248247967,0.3729723018711736
-4.0745,0.9210488985324853,0.55311515475902
-4.074,0.79300680024041,0.55311515475902
-4.0735,0.6542945270905358,0.4365521323021782
-4.073,0.611613827659844,0.2246193641990223
-4.0725,0.79300680024041,-0.1780528951975329
-4.072,0.8676980242441885,-0.3158091944647096
-4.0715,0.7716664505251322,-0.3158091944647096
-4.071,0.6116138276596207,-0.2840192792491688
-4.0705,0.408880505363835,-0.2416327256285375
-4.07,-0.3273615598155977,-0.3793890248955888
-4.0695,-1.052933450139143,-0.9728007755856012
-4.069,-1.554431668449771,-1.534422611058964
-4.0685,-2.023919362187807,-1.195330182093607
-4.068,-2.504077230783186,-0.04029659592953712
-4.0675,-2.130621110764634,0.8604176685088755
-4.067,-1.244996597576974,1.051157159801889
-4.0665,-0.4767440078233585,0.8498210301034671
-4.066,0.03542438534494258,0.5849050699745222
-4.0655,0.3128489316446912,0.3941655786815084
-4.065,0.4195506802214206,0.3093924714402461
-4.0645,0.4302208550792003,0.309392471440169
-4.064,0.3875401556484697,0.3729723018711736
-4.0635,0.3021787567870863,0.4683420475175938
-4.063,0.2594980573562586,0.553115154759097
-4.0625,0.2381577076409128,0.6378882620003594
-4.062,-0.124628237519967,0.3411823866559411
-4.0615,-0.5621054066855377,-0.4217755785170393
-4.061,-0.839529952985034,-1.142346990067769
-4.0605,-1.159635198715513,-1.619195718300304
-4.06,-0.8928808272726806,-1.545019249463506
-4.0595,-0.04993701351651855,-0.8562377531282487
-4.059,0.6329541773751706,-0.1356663415768632
-4.0585,0.9530594231053586,0.3623756634655532
-4.058,0.9637295979633325,0.627291623595192
-4.0575,0.8356874996711408,0.7332580076468663
-4.057,0.6969752265213924,0.7014680924313929
-4.0565,0.5796033030867573,0.5849050699745222
-4.056,0.6756348768059011,0.309392471440169
-4.0555,0.7183155762365927,0.1080563417421709
-4.055,0.6542945270904873,0.03387987290579644
-4.0545,0.6009436528021226,0.01268659609548085
-4.054,0.5582629533714309,0.03387987290579644
-4.0535,0.9637295979637498,0.4577454091131395
-4.053,1.422547116843686,1.146526905448396
-4.0525,0.7716664505250448,1.697552102517103
-4.052,-0.2953510352441898,1.718745379327524
-4.0515,-1.362368521011484,1.814115124973944
-4.051,-1.949228138184029,1.941274785835954
-4.0505,-1.575772018165476,1.602182356870904
-4.05,-0.8822106524157645,1.019367244586387
-4.0495,-0.274010685527854,0.5637117931641874
-4.049,0.1207857842060447,0.3093924714404003
-4.0485,0.3235191065024418,0.2670059178195667
-4.048,0.3982103305061524,0.3411823866556712
-4.0475,0.3982103305061524,0.4895353243278804
-4.047,0.355529631075383,0.6696781772160062
-4.0465,0.3128489316446912,0.8286277532933731
-4.046,0.2701682322139995,0.9769806909655824
-4.0455,0.1421261339212352,1.019367244585915
-4.045,-0.4447334832507763,0.5001319627331828
-4.0445,-0.9142211769888124,-0.2734226408440398
-4.044,-1.212986073003975,-0.8880276683439148
-4.0435,-1.26633694729234,-1.068170521231597
-4.043,-0.5194247072545548,-0.6549016234300674
-4.0425,0.2808384070709155,-0.0191033191205997
-4.042,0.7503261008096795,0.4789386859228479
-4.0415,0.8890383739595538,0.701468092431364
-4.041,0.8250173248135162,0.7226613692416796
-4.0405,0.707645401378852,0.6908714540261002
-4.04,0.6009436528021226,0.5849050699745222
-4.0395,0.6222840025174684,0.288199194630104
-4.039,0.7076454013788811,-0.05089323433568758
-4.0385,0.6329541773751706,-0.2310360872233701
-4.038,0.5262524287984411,-0.3475991096801058
-4.0375,0.4408910299366112,-0.4217755785165671
-4.037,0.142126133921769,-0.6231117082145651
-4.0365,-0.6688071552621118,-1.121153713257435
-4.036,-1.373038695869457,-1.714565463947042
-4.0355,-1.693143941599645,-1.968884785670829
-4.035,-2.119950935906951,-1.068170521231597
-4.0345,-2.418715831921793,0.2352160026028114
-4.034,-1.789175515318789,0.92399749893988
-4.0335,-0.9569018764195432,0.9451907757502149
-4.033,-0.284680860386148,0.7014680924315857
-4.0325,0.1421261339219631,0.4683420475175455
-4.032,0.3555296310754218,0.3199891098453364
-4.0315,0.4302208550791324,0.2776025562247052
-4.031,0.4195506802214691,0.3093924714402364
-4.0305,0.3661998059331045,0.383568940276341
-4.03,0.3021787567870668,0.4683420475176034
-4.0295,0.2701682322139219,0.5637117931642356
-4.029,0.2274875327832301,0.6166949851900245
-4.0285,-0.07127736323188383,0.2140227257936621
-4.028,-0.5514352318277774,-0.5701285161893255
-4.0275,-0.7434983792658902,-1.227120097309109
-4.027,-0.9675720512772257,-1.640388995110639
-4.0265,-0.4447334832512518,-1.640388995110639
-4.026,0.3448594562177392,-1.05757388282643
-4.0255,0.8676980242441885,-0.326405832869877
-4.025,1.01708047225161,0.2140227257931706
-4.0245,0.9103787236747737,0.5001319627332407
-4.024,0.7503261008096795,0.5637117931641874
-4.0235,0.6116138276599312,0.5319218779487139
-4.023,0.5475927785137675,0.4153588554915927
-4.0225,0.6116138276598051,0.13984625695749
-4.022,0.5796033030867864,0.0232832345007543
-4.0215,0.5262524287983052,-0.01910331912004072
-4.021,0.4835717293676135,-0.04029659593035631
-4.0205,0.5689331282290746,0.05507314971615059
-4.02,1.091771696255408,0.5849050699746089
-4.0195,0.9637295979633325,0.6802748156210291
-4.019,0.1954770082101822,-0.04029659593035631
-4.0185,-0.8075194284110738,-0.3052125560593012
-4.018,-1.703814116457328,0.3411823866556712
-4.0175,-1.810515865034154,0.9345941373450475
-4.017,-1.223656247862143,0.9875773293708365
-4.0165,-0.5621054066848292,0.7544512844569891
-4.016,-0.06060718837420119,0.5213252395435176
-4.0155,0.238157707640641,0.3729723018713085
-4.015,0.3768699807908162,0.3411823866557098
-4.0145,0.408880505363835,0.383568940276341
-4.014,0.3661998059331433,0.4789386859227611
-4.0135,0.3128489316446622,0.5849050699746186
-4.013,0.2808384070716433,0.6908714540261965
-4.0125,0.2488278824985954,0.775644561267536
-4.012,-0.2313299860977154,0.4365521323014746
-4.0115,-0.8822106524157645,-0.3370024712750445
-4.011,-1.212986073003927,-1.05757388282643
-4.0105,-1.405049220442039,-1.417859588601795
-4.01,-0.8822106524157645,-1.0999604364471
-4.0095,0.01408403562957729,-0.4429688553267188
-4.009,0.6863050516629724,0.1504428953621178
-4.0085,0.9850699476786977,0.4895353243281214
-4.008,0.9850699476786977,0.6060983467848571
-4.0075,0.8356874996712766,0.6060983467848571
-4.007,0.6756348768058137,0.5001319627330479
-4.0065,0.5796033030867573,0.3517790250608387
-4.006,0.6649647019482183,0.3517790250608387
-4.0055,0.6969752265212372,0.2564092794141968
-4.005,0.6649647019482183,0.1080563417419877
-4.0045,0.5689331282290746,-0.04029659593035631
-4.004,0.4408910299363201,-0.1780528951977739
-4.0035,-0.1779791118087102,-0.4429688553267188
-4.003,-0.9462317015618604,-1.046977244421262
-4.0025,-1.479740444445507,-1.672178910325572
-4.002,-1.821186039891837,-1.947691508860494
-4.0015,-2.280003558772191,-1.110557074852267
-4.001,-2.301343908487536,0.1186529801460372
-4.0005,-1.511750969018313,0.7226613692417664
-4,-0.7114878546928423,0.7968378380778709
-3.9995,-0.1139580626626144,0.6484849004055269
-3.999,0.2381577076409128,0.4895353243280153
-3.9985,0.3875401556484697,0.3941655786815084
-3.998,0.4302208550792003,0.3729723018711736
-3.9975,0.408880505363835,0.4047622170866759
-3.997,0.3661998059331045,0.4789386859228479
-3.9965,0.3235191065023739,0.5637117931641874
-3.996,0.2808384070716433,0.6378882620003594
-3.9955,0.05676473506030786,0.5743084315693548
-3.995,-0.5834457564006506,-0.05089323433552374
-3.9945,-1.031593100423322,-0.8562377531282487
-3.994,-1.26633694729234,-1.396666311791788
-3.9935,-0.9355615267041777,-1.237716735714276
-3.993,-0.1139580626626144,-0.6443049850249
-3.9925,0.5582629533713921,-0.01910331912002144
-3.992,0.8997085488172365,0.4259554938970107
-3.9915,0.942389248247967,0.6166949851900245
-3.991,0.857027849386506,0.627291623595192
-3.9905,0.7183155762366316,0.5743084315693548
-3.99,0.6009436528021226,0.4153588554918433
-3.9895,0.6542945270905358,0.09745970333682032
-3.989,0.7503261008096795,-0.1886495336027004
-3.9885,0.6756348768059011,-0.252229364033705
-3.988,0.5689331282290746,-0.2204394488182027
-3.9875,0.5049120790829789,-0.1674562567923655
-3.987,0.6009436528021226,0.1716361721729923
-3.9865,0.7183155762366316,0.5319218779486851
-3.986,0.3235191065023739,0.002089957690313421
-3.9855,-0.4020527838200457,-0.8880276683437509
-3.985,-1.30901764672307,-0.9410108603695881
-3.9845,-1.917217613610981,-0.02969995752518888
-3.984,-1.629122892453549,0.7120647308365314
-3.9835,-0.9462317015618604,0.92399749893988
-3.983,-0.3273615598162672,0.8074344764830383
-3.9825,0.08877525963335578,0.6060983467848571
-3.982,0.3128489316446912,0.457745409112513
-3.9815,0.3982103305061524,0.4153588554918433
-3.981,0.408880505363835,0.4365521323021782
-3.9805,0.3661998059331045,0.5001319627331828
-3.98,0.3235191065023739,0.5849050699745222
-3.9795,0.2808384070716433,0.6696781772158616
-3.979,0.1527963087794516,0.627291623595192
-3.9785,-0.274010685527854,0.01268659609548085
-3.978,-0.7968492535543035,-0.792657922697244
-3.9775,-1.148965023857831,-1.396666311791788
-3.977,-1.180975548430879,-1.502632695843462
-3.9765,-0.4660738329661415,-1.004590690800593
-3.976,0.3661998059331045,-0.2946159176543747
-3.9755,0.8676980242441885,0.2352160026039969
-3.975,0.974399772821015,0.5319218779486851
-3.9745,0.8783681991018712,0.6060983467848571
-3.974,0.7289857510943143,0.5107286011383502
-3.9735,0.5796033030867573,0.3729723018711736
-3.973,0.5369226036560266,0.1610395337678249
-3.9725,0.6222840025174878,-0.1886495336027004
-3.972,0.6863050516635838,-0.2840192792492073
-3.9715,0.7396559259519968,-0.2310360872233701
-3.971,0.6542945270905358,-0.1886495336027004
-3.9705,0.6756348768059011,-0.07208651114585861
-3.97,1.177133095116985,0.4895353243280153
-3.9695,1.390536592270638,1.199510097474233
-3.969,1.379866417412955,1.771728571353275
-3.9685,0.3982103305061524,2.153207553939303
-3.968,-0.8181896032696687,2.375736960447818
-3.9675,-1.277007122150022,2.142610915534135
-3.967,-0.9782422261349084,1.453829419198252
-3.9665,-0.4980843575391895,0.8286277532933731
-3.966,-0.07127736323188383,0.4471487707073456
-3.9655,0.1954770082101822,0.309392471440169
-3.965,0.3235191065023739,0.3517790250608387
-3.9645,0.3661998059331045,0.4895353243280153
-3.964,0.3555296310754218,0.6590815388106942
-3.9635,0.3235191065023739,0.8286277532933731
-3.963,0.2701682322139607,0.9769806909657173
-3.9625,0.2274875327832301,1.082947075017392
-3.962,-0.1459685872356623,0.8286277532933731
-3.9615,-0.6047861061160158,0.07626642652648545
-3.961,-1.020922925565639,-0.6654982618352349
-3.9605,-1.298347471865388,-1.131750351662602
-3.96,-0.8502001278427167,-0.9939940523954253
-3.9595,-0.01792648894347063,-0.4641621321370536
-3.959,0.6009436528021226,0.1080563417419877
-3.9585,0.8676980242441885,0.5107286011383502
-3.958,0.8783681991018712,0.6696781772158616
-3.9575,0.7716664505250448,0.627291623595192
-3.957,0.6436243522328531,0.4365521323021782
-3.9565,0.5796033030867573,0.1822328105781598
-3.956,0.6756348768059011,-0.1356663415768632
-3.9555,0.6649647019482183,-0.3475991096802118
-3.955,0.5796033030867573,-0.4853554089473885
-3.9545,0.4942419042252961,-0.5595318777835605
-3.954,0.3768699807907871,-0.5807251545938954
-3.9535,-0.2099896363817582,-0.5383386009732256
-3.953,-0.839529952985034,-0.9092209451540858
-3.9525,-1.116954499284783,-1.502632695843462
-3.952,-1.51175096901904,-1.947691508860494
-3.9515,-2.045259711903173,-1.269506650929778
-3.951,-2.151961460479999,-0.02969995752518888
-3.9505,-1.46907026958831,0.7650479228623686
-3.95,-0.7008176798351597,0.9875773293708847
-3.9495,-0.124628237520297,0.8710143069140429
-3.949,0.2168173579255475,0.6696781772158616
-3.9485,0.3768699807907871,0.5425185163538525
-3.948,0.4195506802215176,0.4895353243280153
-3.9475,0.3982103305061524,0.5213252395435176
-3.947,0.3448594562177392,0.5849050699745222
-3.9465,0.291508581929326,0.6696781772158616
-3.946,0.2701682322139607,0.7438546460520338
-3.9455,0.142126133921769,0.6908714540261965
-3.945,-0.2313299860971235,0.06566978812131802
-3.9445,-0.5941159312583333,-0.7502713690765743
-3.944,-0.9569018764195432,-1.38606967338662
-3.9435,-0.9889124009925911,-1.534422611058964
-3.943,-0.2526703358124887,-0.9939940523954253
-3.9425,0.4835717293676135,-0.3475991096802118
-3.942,0.8676980242441885,0.07626642652648545
-3.9415,0.9210488985326017,0.2881991946298341
-3.941,0.8143471499557753,0.309392471440169
-3.9405,0.6756348768059011,0.2458126410091644
-3.94,0.5689331282290746,0.1504428953626575
-3.9395,0.5902734779444399,0.1292496185523226
-3.939,0.6329541773751706,0.06566978812131802
-3.9385,0.5902734779444399,-0.02969995752518888
-3.938,0.5475927785137094,-0.1144730647665284
-3.9375,0.5049120790829789,-0.1568596183871981
-3.937,0.4195506802215176,-0.01910331912002144
-3.9365,0.5369226036560266,-0.08268314955102604
-3.936,0.2594980573562781,-0.7502713690765743
-3.9355,-0.4660738329661415,-1.396666311791788
-3.935,-1.373038695869166,-1.142346990067769
-3.9345,-1.991908837614759,-0.06148987274069118
-3.934,-1.693143941599645,0.6802748156210291
-3.9335,-0.9889124009925911,0.8604176685088755
-3.933,-0.3487019095316325,0.7438546460520338
-3.9325,0.07810508477567314,0.5743084315693548
-3.932,0.3021787567870086,0.4683420475176805
-3.9315,0.3982103305061524,0.4365521323021782
-3.931,0.3982103305061524,0.4789386859228479
-3.9305,0.3555296310754218,0.55311515475902
-3.93,0.291508581929326,0.6484849004055269
-3.9295,0.2594980573562781,0.7226613692416989
-3.929,0.2168173579255475,0.7544512844572011
-3.9285,-0.1779791118087102,0.3623756634660061
-3.928,-0.7114878546928423,-0.4429688553267188
-3.9275,-1.052933450138687,-1.163540266878104
-3.927,-0.9889124009925911,-1.407262950196955
-3.9265,-0.2953510352432193,-1.025783967610927
-3.926,0.4302208550792003,-0.3687923864905467
-3.9255,0.857027849386506,0.1716361721729923
-3.925,0.9530594231056497,0.4471487707073456
-3.9245,0.857027849386506,0.5001319627331828
-3.924,0.7183155762366316,0.4153588554918433
-3.9235,0.6009436528021226,0.2776025562246667
-3.923,0.5796033030867573,0.1822328105781598
-3.9225,0.6756348768059011,0.2246193641988295
-3.922,0.6542945270905358,0.1504428953626575
-3.9215,0.5796033030867573,0.03387987290581572
-3.921,0.4942419042252961,-0.09327978795619347
-3.9205,0.5475927785137094,0.002089957690313421
-3.92,1.049090996824793,0.5849050699745222
-3.9195,1.177133095116985,1.167720182258731
-3.919,0.4729015545099309,0.7968378380778709
-3.9185,-0.6474668055467465,0.09745970333682032
-3.918,-1.629122892453549,0.383568940276341
-3.9175,-1.789175515318789,0.8604176685088755
-3.917,-1.234326422719292,0.9028042221295453
-3.9165,-0.5834457564006506,0.7226613692416989
-3.916,-0.08194753808956648,0.55311515475902
-3.9155,0.2168173579255475,0.4789386859228479
-3.915,0.3555296310754218,0.5107286011383502
-3.9145,0.3982103305061524,0.6060983467848571
-3.914,0.3661998059331045,0.7332580076468663
-3.9135,0.3235191065023739,0.8604176685088755
-3.913,0.2808384070716433,0.9769806909657173
-3.9125,0.2274875327832301,1.040560521396722
-3.912,-0.1886492866663929,0.6802748156210291
-3.9115,-0.690147504977477,-0.1250697031716958
-3.911,-0.7861790786966207,-0.8562377531282487
-3.9105,-0.9675720512772257,-1.364876396576285
-3.91,-0.8502001278427167,-1.47084278062796
-3.9095,-0.124628237520297,-0.9410108603695881
-3.909,0.5155822539406614,-0.252229364033705
-3.9085,0.825017324813458,0.2564092794143318
-3.908,0.857027849386506,0.5107286011383502
-3.9075,0.7823366253827275,0.5001319627331828
-3.907,0.6756348768059011,0.309392471440169
-3.9065,0.5902734779444399,0.09745970333682032
-3.906,0.6969752265212663,-0.1038764263613609
-3.9055,0.707645401378949,-0.2628260024388724
-3.905,0.6116138276598051,-0.3687923864905467
-3.9045,0.5155822539406614,-0.4641621321370536
-3.904,0.4622313796522482,-0.5065486857577234
-3.9035,0.8143471499557753,-0.4959520473525559
-3.903,0.9210488985326017,-0.8456411147230812
-3.9025,0.1741366584948169,-1.439052865412457
-3.902,-0.8181896032696687,-1.650985633515806
-3.9015,-1.746494815888059,-0.8032545611024114
-3.901,-2.045259711903173,0.2881991946298341
-3.9005,-1.46907026958831,0.7650479228623686
-3.9,-0.7434983792658902,0.7650479228623686
-3.8995,-0.1779791118087102,0.6166949851900245
-3.899,0.1741366584948169,0.4789386859228479
-3.8985,0.3448594562177392,0.4153588554918433
-3.898,0.3982103305061524,0.4365521323021782
-3.8975,0.3768699807907871,0.5001319627331828
-3.897,0.3235191065023739,0.5955017083796896
-3.8965,0.2701682322139607,0.6908714540261965
-3.896,0.2274875327832301,0.7650479228623686
-3.8955,-0.007256314085787988,0.55311515475902
-3.895,-0.5941159312583333,-0.1992461720078678
-3.8945,-1.031593100423322,-0.9833974139902578
-3.894,-1.255666772434657,-1.502632695843462
-3.8935,-1.170305373573196,-1.502632695843462
-3.893,-0.423393133535411,-0.8986243067489184
-3.8925,0.3235191065023739,-0.2628260024388724
-3.892,0.7183155762366316,0.1504428953626575
-3.8915,0.825017324813458,0.3517790250608387
-3.891,0.7716664505250448,0.4153588554918433
-3.8905,0.6756348768059011,0.3623756634660061
-3.89,0.5796033030867573,0.2352160026039969
-3.8895,0.6436243522328531,-0.06148987274069118
-3.889,0.707645401378949,-0.326405832869877
-3.8885,0.6329541773751706,-0.3793890248957141
-3.888,0.5155822539406614,-0.3581957480853793
-3.8875,0.4515612047945656,-0.3052125560595421
-3.887,0.4729015545099309,0.1186529801471552
-3.8865,0.1634664836371343,0.849821030103708
-3.886,-0.6688071552621118,1.42203950398275
