Class_4_Move_right_hand_Horiszontal/Class_4_Move_right_hand_Horiszontal_Suko_5.csv

#Digilent WaveForms Oscilloscope Acquisition
#Device Name: EExplorer
#Serial Number: SN:210151A2B84A
#Date Time: 2020-12-21 15:34:14.708
#Sample rate: 2000Hz
#Samples: 16384
#Trigger: Source: Channel 1 Type: Edge Condition: Rising Level: 0 V Hyst.: Auto HoldOff: 0 s
#Channel 1: Range: 1 V/div Offset: 0 V
#Channel 2: Range: 1 V/div Offset: 0 V

Time (s),Channel 1 (V),Channel 2 (V)
-4.0960000000000001,0.23815770764091276,-0.59132179299906285
-4.0955000000000004,0.13145595906418339,-0.29461591765464451
-4.0949999999999998,-0.35937208438972273,0.13984625695796227
-4.0945,-0.80751942841198598,0.6590815388106942
-4.0940000000000003,-0.91422117698871541,1.0723504366118484
-4.0934999999999997,-1.1169544992847729,1.3054764815255799
-4.093,-1.1062843244271001,0.94519077575021493
-4.0925000000000002,-0.75416855412389316,0.24581264100980038
-4.0919999999999996,-0.23132998609671587,-0.35819574808570698
-4.0914999999999999,0.21681735792554749,-0.71848145386107198
-4.0910000000000002,0.51558225394066137,-0.81385119950757889
-4.0904999999999996,0.65429452709057467,-0.67609490024019991
-4.0899999999999999,0.69697522652126631,-0.4535654937318862
-4.0895000000000001,0.95305942310564973,-0.18864953360270037
-4.0890000000000004,1.0597611716823792,-0.072086511145964621
-4.0884999999999998,0.93171907339028448,-0.050893234335523743
-4.0880000000000001,0.75032610080967954,-0.029699957525188878
-4.0875000000000004,0.6222840025176043,-0.029699957525188878
-4.0869999999999997,0.57960330308714547,0.012686596095779618
-4.0865,1.006410297394063,0.34118238665567124
-4.0860000000000003,0.91037872367500661,0.77564456126714088
-4.0854999999999997,0.12078578420561764,1.082947075017517
-4.085,-0.74349837926589024,1.2207033742845681
-4.0845000000000002,-1.5330913187336876,1.2207033742845681
-4.0839999999999996,-1.5437614935915742,0.7756445612668228
-4.0834999999999999,-0.97824222613490841,-0.0085066807148540119
-4.0830000000000002,-0.3700422592469978,-0.66549826183523486
-4.0824999999999996,0.078105084775906053,-1.0363806060162009
-4.0819999999999999,0.33418928136005654,-1.1529436284729369
-4.0815000000000001,0.45156120479456557,-1.0893637980419322
-4.0810000000000004,0.47290155450991145,-0.93041422196456525
-4.0804999999999998,0.45156120479456557,-0.71848145386107198
-4.0800000000000001,0.38754015564846972,-0.48535540894738849
-4.0795000000000003,0.30217875678708628,-0.25222936403391705
-4.0789999999999997,0.21681735792530488,-0.0085066807145745219
-4.0785,-0.049937013516518552,0.29879583303500157
-4.0780000000000003,-0.66880715526154888,0.7332580076464712
-4.0774999999999997,-1.2663369472928057,1.1041403518279482
-4.077,-1.7785053404611064,1.3478630351465775
-4.0765000000000002,-2.0879404113336215,1.369056311956893
-4.0759999999999996,-1.7144842913143119,0.78624119967199024
-4.0754999999999999,-0.94623170156186043,0.0020899576903134209
-4.0750000000000002,-0.23132998609712346,-0.60191843140423029
-4.0744999999999996,0.28083840707190533,-0.88802766834380875
-4.0739999999999998,0.5689331282290746,-0.95160749877475548
-4.0735000000000001,0.69697522652126631,-0.82444783791274634
-4.0730000000000004,0.86769802424403331,-0.4959520473528547
-4.0724999999999998,1.0277506471094282,-0.17805289519753292
-4.0720000000000001,0.93171907339028448,-0.14626297998203064
-4.0715000000000003,0.76099627566751749,-0.18864953360266182
-4.0709999999999997,0.63295417737510262,-0.20984281041303524
-4.0705,0.55826295337139209,-0.20984281041303524
-4.0700000000000003,0.86769802424390707,-0.46416213213682234
-4.0694999999999997,1.3371857179816522,-0.6760949002399782
-4.069,0.70764540137894905,-0.20984281041303524
-4.0685000000000002,-0.43406330839309365,0.41535885549184332
-4.0679999999999996,-1.4477299198731288,0.88161094531917183
-4.0674999999999999,-1.6504632421689147,0.83922439169854057
-4.0670000000000002,-1.1276246741424654,0.2246193641988295
-4.0664999999999996,-0.49808435753873337,-0.411178940111602
-4.0659999999999998,0.0034138607718946501,-0.83504447631791379
-4.0655000000000001,0.29150858192932599,-1.0363806060160949
-4.0650000000000004,0.44089102993674711,-1.0469772444212528
-4.0644999999999998,0.4835717293676135,-0.95160749877475548
-4.0640000000000001,0.47290155450993088,-0.792657922697244
-4.0635000000000003,0.40888050536389325,-0.59132179299924592
-4.0629999999999997,0.32351910650229621,-0.37938902489551174
-4.0625,0.23815770764091276,-0.15685961838719809
-4.0620000000000003,0.056764735060472832,0.097459703336588988
-4.0614999999999997,-0.3487019095321468,0.29879583303530999
-4.0609999999999999,-0.91422117698881245,0.63788826200035942
-4.0605000000000002,-1.4797404444459925,1.0087706061812196
-4.0599999999999996,-1.9278877884685663,1.2313000126893885
-4.0594999999999999,-1.8211860398918371,0.84982103010370802
-4.0590000000000002,-1.2343264227192918,0.11865298014715518
-4.0585000000000004,-0.5621054066858967,-0.45356549373136568
-4.0579999999999998,0.014084035629577295,-0.80325456110241145
-4.0575000000000001,0.45156120479456557,-0.96220413717992292
-4.0570000000000004,0.67563487680569723,-0.8986243067489762
-4.0564999999999998,0.80367697509809277,-0.83504447631791379
-4.056,0.98506994767869771,-0.9092209451540858
-4.0555000000000003,0.92104889853265992,-0.77146464588703445
-4.0549999999999997,0.77166645052491867,-0.53833860097303288
-4.0545,0.63295417737517057,-0.32640583286987701
-4.0540000000000003,0.54759277851378696,-0.1568596183873523
-4.0534999999999997,0.4622313796519959,0.033879872906201224
-4.0529999999999999,0.18480683335249956,0.45774540911251305
-4.0525000000000002,-0.46607383296614152,0.86041766850887547
-4.0519999999999996,-1.2236562478620263,1.1147369902329327
-4.0514999999999999,-1.6824737667419627,1.1571235438535634
-4.0510000000000002,-1.3837088707268488,0.62729162359519197
-4.0505000000000004,-0.74349837926647255,-0.1356663415761693
-4.0499999999999998,-0.17797911180871023,-0.75027136907657432
-4.0495000000000001,0.19547700821018218,-1.0893637980419322
-4.0490000000000004,0.39821033050596799,-1.1953301820935103
-4.0484999999999998,0.47290155450994059,-1.1423469900676442
-4.048,0.4835717293676135,-1.0045906908005926
-4.0475000000000003,0.45156120479459472,-0.80325456110259452
-4.0469999999999997,0.36619980593303653,-0.54893523937820032
-4.0465,0.29150858192932599,-0.33700247127504446
-4.0460000000000003,0.20614718306794247,-0.1356663415770463
-4.0454999999999997,0.15279630877917991,0.076266426526726397
-4.0449999999999999,-0.14596858723566233,0.34118238665567124
-4.0445000000000002,-0.77550890383893822,0.75445128445720111
-4.0439999999999996,-1.3410281712965064,1.1147369902330964
-4.0434999999999999,-1.7678351656034239,1.33726639674141
-4.0430000000000001,-1.7251544661726932,1.0935437134225592
-4.0425000000000004,-1.0742737998546441,0.39416557868214441
-4.0419999999999998,-0.33803173467394987,-0.30521255605954212
-4.0415000000000001,0.21681735792554749,-0.80325456110241145
-4.0410000000000004,0.56893312822875441,-0.99399405239525174
-4.0404999999999998,0.72898575109434338,-0.95160749877461093
-4.04,0.76099627566736228,-0.792657922697244
-4.0395000000000003,0.95305942310547498,-0.87743102993850641
-4.0389999999999997,0.98506994767856182,-0.83504447631770173
-4.0385,0.83568749967114075,-0.60191843140423029
-4.0380000000000003,0.66496470194837354,-0.35819574808560095
-4.0374999999999996,0.55826295337141152,-0.13566634157669935
-4.0369999999999999,0.57960330308675734,0.044476511310983152
-4.0365000000000002,1.0704313465401587,0.42595549389701071
-4.0359999999999996,0.98506994767788258,0.8498210301039586
-4.0354999999999999,0.08877525963335578,1.1253336286380615
-4.0350000000000001,-0.99958257585027366,1.241896651094903
-4.0345000000000004,-1.82118603989109,1.2101067358794295
-4.0339999999999998,-1.7358246410303759,0.71206473083653143
-4.0335000000000001,-1.0742737998540521,-0.10387642636136091
-4.0330000000000004,-0.40205278382065712,-0.76086800748114425
-4.0324999999999998,0.078105084775925454,-1.1317503516627079
-4.032,0.35552963107542179,-1.2483133741194434
-4.0315000000000003,0.47290155450982413,-1.1847335436884969
-4.0309999999999997,0.4835717293675747,-1.0151873292055578
-4.0305,0.44089102993688295,-0.792657922697244
-4.0300000000000002,0.37686998079084533,-0.53833860097345698
-4.0294999999999996,0.280838407071556,-0.29461591765411443
-4.0289999999999999,0.18480683335249956,-0.0085066807148540119
-4.0285000000000002,-0.06060718837420119,0.33058574825050385
-4.0279999999999996,-0.7114878546934148,0.77564456126786363
-4.0274999999999999,-1.3410281712961183,1.1359302670432285
-4.0270000000000001,-1.6611334170265974,1.2736865663104053
-4.0265000000000004,-1.4584000947308116,0.77564456126798897
-4.0259999999999998,-0.94623170156186043,0.097459703336820316
-4.0255000000000001,-0.34870190953163249,-0.37938902489571413
-4.0250000000000004,0.16346648363666849,-0.65490162342981684
-4.0244999999999997,0.48357172936775905,-0.76086800748173211
-4.024,0.64362435223285308,-0.75027136907657432
-4.0235000000000003,0.69697522652121779,-0.58072515459404961
-4.0229999999999997,0.83568749967122813,-0.27342264084383744
-4.0225,0.93171907339028448,-0.050893234335523743
-4.0220000000000002,0.83568749967122813,-0.061489872740681538
-4.0214999999999996,0.68630505166347699,-0.12506970317171504
-4.0209999999999999,0.5689331282290746,-0.14626297998203064
-4.0205000000000002,0.57960330308675734,-0.11447306476652835
-4.0199999999999996,0.98506994767900824,0.18223281057858381
-4.0194999999999999,1.3265155431245421,0.64848490040552687
-4.0190000000000001,0.54759277851370936,1.0087706061812196
-4.0185000000000004,-0.57277558154194907,1.2207033742843754
-4.0179999999999998,-1.554431668449771,1.2630899279052379
-4.0175000000000001,-1.7464948158880587,0.94519077575021493
-4.0170000000000003,-1.1916457232890658,0.18223281057885365
-4.0164999999999997,-0.53009488211176181,-0.50654868575809919
-4.016,-0.0072563140857879876,-0.91981758355925325
-4.0155000000000003,0.30217875678672718,-1.0681705212314623
-4.0149999999999997,0.44089102993692175,-1.0151873292056155
-4.0145,0.4835717293676135,-0.85623775312824868
-4.0140000000000002,0.45156120479459472,-0.63370834661993491
-4.0134999999999996,0.38754015564836297,-0.35819574808511906
-4.0129999999999999,0.27016823221396069,-0.072086511145858609
-4.0125000000000002,0.18480683335249956,0.19282944898332721
-4.0119999999999996,0.078105084775236436,0.43655213230246726
-4.0114999999999998,-0.40205278382004572,0.75445128445720111
-4.0110000000000001,-0.92489135184649518,1.0829470750173917
-4.0105000000000004,-1.0422632752808973,1.326669758336021
-4.0099999999999998,-1.2876772970077051,1.4538294191982519
-4.0095000000000001,-1.3516983461538008,1.1571235438535634
-4.0090000000000003,-1.0529334501389587,0.39416557868220226
-4.0084999999999997,-0.48741418268102166,-0.30521255605990832
-4.008,0.046094560202625215,-0.70788481545590454
-4.0075000000000003,0.39821033050583216,-0.84564111472295589
-4.0069999999999997,0.60094365280224871,-0.81385119950753071
-4.0065,0.73965592595199681,-0.76086800748174177
-4.0060000000000002,0.95305942310564973,-0.792657922697244
-4.0054999999999996,0.91037872367479311,-0.62311170821434336
-4.0049999999999999,0.77166645052504479,-0.37938902489571413
-4.0045000000000002,0.73965592595199681,-0.093279787956193475
-4.0039999999999996,0.76099627566755634,0.17163617217320437
-4.0034999999999998,0.97439977282101498,0.40476221708667587
-4.0030000000000001,1.4118769419860033,0.775644561267536
-4.0025000000000004,1.1237822208288339,1.0829470750171122
-4.0019999999999998,0.099445434491038431,1.2313000126897355
-4.0015000000000001,-0.99958257585027366,1.2313000126897355
-4.0010000000000003,-1.7678351656027251,1.114736990233
-4.0004999999999997,-1.586442193022227,0.5107286011376273
-4,-0.93556152670417769,-0.28401927924920728
-3.9994999999999998,-0.30602121010090194,-0.87743102993858346
-3.9990000000000001,0.13145595906408636,-1.1635402668781043
-3.9984999999999999,0.36619980593310447,-1.2165234589039415
-3.9980000000000002,0.47290155450993088,-1.1105570748522671
-3.9975000000000001,0.47290155450993088,-0.9092209451540858
-3.9969999999999999,0.40888050536383502,-0.64430498502489997
-3.9965000000000002,0.32351910650237387,-0.37938902489571413
-3.996,0.24882788249859539,-0.11447306476652835
-3.9954999999999998,0.067434909917990504,0.21402272579366208
-3.9950000000000001,-0.55143523182760279,0.63788826200035942
-3.9944999999999999,-1.2129860730039266,1.0405605213967219
-3.9940000000000002,-1.6824737667419627,1.3054764815259077
-3.9935,-1.9812386627570766,1.4220395039827496
-3.9929999999999999,-1.9065474387532981,1.1147369902328941
-3.9925000000000002,-1.3090176467230703,0.39416557868150842
-3.992,-0.61545628097369853,-0.22043944881820265
-3.9914999999999998,-0.017926488943470625,-0.55953187778356051
-3.9910000000000001,0.3982103305061524,-0.62311170821456507
-3.9904999999999999,0.62228400251748783,-0.59132179299906285
-3.9900000000000002,0.72898575109431429,-0.4535654937318862
-3.9895,0.93171907339028448,-0.12506970317169577
-3.9889999999999999,0.99574012253638022,0.044476511310983152
-3.9885000000000002,0.8997085488172365,0.055073149716150585
-3.988,0.76099627566736228,0.0020899576903134209
-3.9874999999999998,0.63295417737517057,-0.029699957525188878
-3.9870000000000001,0.5689331282290746,0.023283234500648287
-3.9864999999999999,0.59027347794443985,0.37297230187117358
-3.9860000000000002,0.43022085507920033,0.80743447648303834
-3.9855,-0.23132998609712346,1.0723504366122243
-3.9849999999999999,-0.98891240099259115,1.1677201822587309
-3.9845000000000002,-1.554431668449771,1.1041403518277266
-3.984,-1.3090176467230703,0.52132523954351762
-3.9834999999999998,-0.72215802955052499,-0.2310360872233701
-3.9830000000000001,-0.17797911180871023,-0.792657922697244
-3.9824999999999999,0.19547700821018218,-1.0787671596367647
-3.9820000000000002,0.38754015564846972,-1.131750351662602
-3.9815,0.47290155450993088,-1.0363806060160949
-3.9809999999999999,0.47290155450993088,-0.86683439153341613
-3.9805000000000001,0.41955068022151765,-0.64430498502489997
-3.98,0.33418928136005654,-0.40058230170604903
-3.9794999999999998,0.23815770764091276,-0.14626297998203064
-3.9790000000000001,0.099445434491038431,0.11865298014715518
-3.9784999999999999,-0.028596663801153277,0.33058574825050385
-3.9780000000000002,-0.19931946152407554,0.5637117931641874
-3.9775,-0.3700422592469978,0.89220758372437781
-3.9769999999999999,-0.83952995298503397,1.1783168206638983
-3.9765000000000001,-1.2983474718653876,1.2101067358794007
-3.976,-1.1596351987155133,0.68027481562102909
-3.9754999999999998,-0.66880715526211176,-0.04029659593035631
-3.9750000000000001,-0.11395806266261441,-0.5807251545938954
-3.9744999999999999,0.28083840707164331,-0.86683439153341613
-3.9740000000000002,0.50491207908297886,-0.9304142219644207
-3.9735,0.60094365280212259,-0.88802766834375091
-3.9729999999999999,0.81434714995577528,-0.96220413717992292
-3.9725000000000001,0.99574012253638022,-1.01518732920576
-3.972,0.91037872367491923,-0.78206128429207655
-3.9714999999999998,0.77166645052504479,-0.48535540894738849
-3.9710000000000001,0.63295417737517057,-0.25222936403370499
-3.9704999999999999,0.62228400251748783,-0.082683149551026042
-3.9700000000000002,0.98506994767869771,0.27760255622466667
-3.9695,1.1664629202593024,0.74385464605203377
-3.9689999999999999,0.32351910650237387,1.1041403518277266
-3.9685000000000001,-0.61545628097369853,1.2524932895000704
-3.968,-1.4904106193036752,1.2736865663104053
-3.9674999999999998,-1.7358246410303759,0.94519077575021493
-3.9670000000000001,-1.2129860730039266,0.17163617217299235
-3.9664999999999999,-0.55143523182760279,-0.54893523937839306
-3.9660000000000002,-0.028596663801153277,-1.0045906908005926
-3.9655,0.28083840707164331,-1.1953301820936066
-3.9649999999999999,0.44089102993688295,-1.1847335436884392
-3.9645000000000001,0.4835717293676135,-1.0575738828264298
-3.964,0.4622313796522482,-0.84564111472308123
-3.9634999999999998,0.3768699807907871,-0.59132179299906285
-3.9630000000000001,0.28083840707164331,-0.34759910968021185
-3.9624999999999999,0.20614718306786484,-0.10387642636136091
-3.9620000000000002,0.16346648363713429,0.13984625695749003
-3.9615,0.12078578420640371,0.39416557868150842
-3.9609999999999999,-0.34870190953163249,0.75445128445720111
-3.9605000000000001,-1.0209229255656389,1.0935437134225592
-3.96,-1.6824737667419627,1.3160731199310751
-3.9594999999999998,-1.7785053404611064,0.99817396777605205
-3.9590000000000001,-1.2876772970077051,0.26700591781949923
-3.9584999999999999,-0.5621054066852853,-0.38998566330088158
-3.9580000000000002,0.046094560202625215,-0.78206128429207655
-3.9575,0.43022085507920033,-0.9092209451540858
-3.9569999999999999,0.63295417737517057,-0.85623775312824868
-3.9565000000000001,0.80367697509809277,-0.63370834661973252
-3.956,1.0917716962555239,-0.27342264084403983
-3.9554999999999998,1.0490909968247935,-0.17805289519753292
-3.9550000000000001,0.857027849386506,-0.20984281041303524
-3.9544999999999999,0.6863050516635838,-0.2310360872233701
-3.9540000000000002,0.57960330308675734,-0.22043944881820265
-3.9535,0.80367697509809277,0.012686596095480854
-3.9529999999999998,1.5079085157051471,0.50013196273318283
-3.9525000000000001,1.657290963712704,0.92399749893988004
-3.952,0.75032610080967954,1.1571235438535634
-3.9514999999999998,-0.38071243410468042,1.2313000126897355
-3.9510000000000001,-1.1489650238578306,1.0617537982070568
-3.9504999999999999,-1.0422632752810042,0.38356894027634103
-3.9500000000000002,-0.58344575640065055,-0.32640583286987701
-3.9495,-0.13529841237797968,-0.792657922697244
-3.9489999999999998,0.18480683335249956,-1.0045906908005926
-3.9485000000000001,0.36619980593310447,-0.99399405239542526
-3.948,0.44089102993688295,-0.86683439153341613
-3.9474999999999998,0.45156120479456557,-0.67609490024040231
-3.9470000000000001,0.43022085507920033,-0.43237221692155131
-3.9464999999999999,0.35552963107542179,-0.17805289519753292
-3.9460000000000002,0.24882788249859539,0.065669788121318018
-3.9455,0.067434909917990504,0.33058574825050385
-3.9449999999999998,-0.55143523182760279,0.72266136924169888
-3.9445000000000001,-1.0529334501386869,1.0829470750173917
-3.944,-1.5117509690190405,1.3266697583362426
-3.9434999999999998,-1.7998456901764717,1.3266697583362426
-3.9430000000000001,-1.554431668449771,0.72266136924169888
-3.9424999999999999,-0.92489135184649518,-0.04029659593035631
-3.9420000000000002,-0.23132998609712346,-0.62311170821456507
-3.9415,0.29150858192932599,-0.94101086036958814
-3.9409999999999998,0.5689331282290746,-0.96220413717992292
-3.9405000000000001,0.6863050516635838,-0.80325456110241145
-3.9399999999999999,0.73965592595199681,-0.62311170821456507
-3.9394999999999998,0.95305942310564973,-0.792657922697244
-3.9390000000000001,0.97439977282101498,-0.80325456110241145
-3.9384999999999999,0.84635767452882327,-0.61251506980939763
-3.9380000000000002,0.6863050516635838,-0.41117894011121647
-3.9375,0.62228400251748783,-0.1674562567923655
-3.9369999999999998,0.71831557623663156,0.097459703336820316
-3.9365000000000001,1.2518243191207636,0.54251851635385251
-3.9359999999999999,1.2945050185514941,0.94519077575021493
-3.9355000000000002,0.43022085507920033,1.1783168206638983
-3.9350000000000001,-0.65813698040442903,1.241896651094903
-3.9344999999999999,-1.586442193022819,1.1889134590690658
-3.9340000000000002,-1.6397930673112322,0.70146809243136399
-3.9335,-1.0636036249963696,-0.10387642636136091
-3.9329999999999998,-0.42339313353541097,-0.75027136907657432
-3.9325000000000001,0.046094560202625215,-1.0999604364470996
-3.9319999999999999,0.32351910650237387,-1.1953301820936066
-3.9315000000000002,0.44089102993688295,-1.1211537132574345
-3.931,0.4622313796522482,-0.9304142219644207
-3.9304999999999999,0.43022085507920033,-0.6972881770507372
-3.9300000000000002,0.36619980593310447,-0.44296885532671876
-3.9295,0.28083840707164331,-0.17805289519753292
-3.9289999999999998,0.20614718306786484,0.076266426526485451
-3.9285000000000001,-0.11395806266261441,0.38356894027634103
