Class_4_Move_right_hand_Horiszontal/Class_4_Move_right_hand_Horiszontal_AM_8.csv

#Digilent WaveForms Oscilloscope Acquisition
#Device Name: EExplorer
#Serial Number: SN:210151A2B84A
#Date Time: 2020-12-06 10:56:18.023
#Sample rate: 2000Hz
#Samples: 16384
#Trigger: Source: Channel 1 Type: Edge Condition: Rising Level: 0 V Hyst.: Auto HoldOff: 0 s
#Channel 1: Range: 1 V/div Offset: 0 V Attenuation: 1 X
#Channel 2: Range: 1 V/div Offset: 0 V Attenuation: 1 X
#Power Supplies: ON
#Fixed Supply: ON
#Voltage: 3.3 V Readback: 3.324 V
#Positive Supply: ON
#Voltage: 3.7 V Readback: 3.7 V
#Current: 40 mA Readback: 20 mA
#Negative Supply: ON
#Voltage: -3.7 V Readback: -3.768 V
#Current: -40 mA Readback: -8 mA
#Reference 1: ON
#Voltage: 0 V
#Reference 2: ON
#Voltage: 0 V

Time (s),Channel 1 (V),Channel 2 (V)
-4.096,0.3235191065023739,0.5425185163538525
-4.0955,0.312848931644701,0.5849050699744837
-4.095,0.1314559590637952,0.3729723018707881
-4.0945,-0.1886492866663929,-0.05089323433552374
-4.094,-0.5407650569695998,-0.3581957480850998
-4.0935,-0.7755089038386762,-0.6125150698095807
-4.093,-0.4874141826815069,-0.8138511995075789
-4.0925,-0.4233931335354692,-1.545019249463467
-4.092,0.206147183068253,-1.619195718300169
-4.0915,0.6329541773751706,-1.47084278062796
-4.091,0.7609962756673623,-0.9410108603695881
-4.0905,0.8463576745287942,0.02328323450131328
-4.09,0.8143471499557753,0.7544512844572011
-4.0895,0.7396559259519968,1.114736990232894
-4.089,0.6756348768059592,1.220703374284472
-4.0885,0.5582629533713921,1.051157159801889
-4.088,0.4622313796522482,0.775644561267536
-4.0875,0.3982103305062106,0.4895353243282756
-4.087,0.3341892813597848,0.2776025562248787
-4.0865,0.03542438534494258,0.5107286011383502
-4.086,-0.5194247072540501,0.9875773293704511
-4.0855,-1.330357996439066,0.6378882619999546
-4.085,-2.023919362187807,0.1928294489833272
-4.0845,-2.50407723078309,0.56371179316385
-4.084,-2.013249187329349,0.7014680924311134
-4.0835,-1.159635198715513,0.4259554938970107
-4.083,-0.4127229586777283,0.09745970333682032
-4.0825,0.07810508477590605,-0.1356663415769403
-4.082,0.3341892813600565,-0.2204394488182027
-4.0815,0.4302208550792003,-0.1886495336027004
-4.081,0.4408910299368732,-0.09327978795628021
-4.0805,0.3982103305061524,0.04447651131098315
-4.08,0.3555296310754218,0.13984625695749
-4.0795,0.323519106502403,0.2246193641987524
-4.079,0.302178756786931,0.3199891098453364
-4.0785,0.2168173579255475,0.3199891098453364
-4.078,-0.2953510352427535,-0.08268314955065981
-4.0775,-0.8928808272736996,-0.6019184314045097
-4.077,-1.170305373573196,-0.9092209451540858
-4.0765,-0.6794773301202407,-1.152943628472715
-4.076,-0.370042259246202,-1.820531847998476
-4.0755,0.5049120790829789,-1.809935209593318
-4.075,0.942389248247967,-1.619195718300304
-4.0745,1.027750647109399,-0.993994052394606
-4.074,0.9957401225363802,-0.09327978795619347
-4.0735,0.825017324813458,0.55311515475902
-4.073,0.675634876806037,0.9239974989395427
-4.0725,0.6222840025174878,1.135930267043229
-4.072,0.5369226036560266,1.114736990232894
-4.0715,0.4515612047946432,0.9451907757503691
-4.071,0.3982103305061136,0.7014680924311519
-4.0705,0.3555296310754218,0.4683420475176805
-4.07,0.05676473506057961,0.5849050699744162
-4.0695,-0.5834457564012814,1.114736990233019
-4.069,-1.277007122150022,1.25249328950007
-4.0685,-1.735824641030376,0.6696781772158616
-4.068,-2.13062111076442,0.7544512844573168
-4.0675,-1.895877263895616,0.8816109453192104
-4.067,-1.159635198715513,0.5425185163538525
-4.0665,-0.4554036581080222,0.1292496185520528
-4.066,0.02475421048725994,-0.1674562567923655
-4.0655,0.291508581929326,-0.3158091944647096
-4.065,0.4088805053637283,-0.3264058328698674
-4.0645,0.4302208550792003,-0.2416327256285375
-4.064,0.408880505363835,-0.1038764263613609
-4.0635,0.3661998059331433,0.03387987290569044
-4.063,0.3341892813600371,0.1292496185523997
-4.0625,0.3128489316446912,0.2140227257936621
-4.062,0.3021787567870183,0.2776025562246088
-4.0615,0.1101156093485755,0.0762664265260614
-4.061,-0.04993701351651855,-0.3899856633008816
-4.0605,-0.9569018764195432,-1.375473034981453
-4.06,-0.9995825758495556,-1.77814529437796
-4.0595,-0.2099896363817582,-1.937094870455327
-4.059,0.5369226036560266,-2.000674700886331
-4.0585,1.059761171682001,-1.735758740757386
-4.058,1.262494493978446,-1.174136905283272
-4.0575,1.134452395686255,-0.3687923864905467
-4.057,0.8890383739597769,0.4047622170859723
-4.0565,0.707645401378949,0.9875773293708847
-4.056,0.7289857510943143,1.347863035146577
-4.0555,0.6756348768059496,1.316073119931104
-4.055,0.568933128228997,1.051157159801591
-4.0545,0.4835717293676135,0.7226613692416989
-4.054,0.408880505363903,0.4153588554921228
-4.0535,0.2168173579248488,0.3305857482509279
-4.053,-0.5514352318276028,0.7968378380778709
-4.0525,-1.277007122150022,1.019367244586387
-4.052,-1.629122892453423,0.2246193641982031
-4.0515,-1.490410619303675,-0.4641621321370536
-4.051,-0.9248913518464952,-0.5807251545938954
-4.0505,-0.3487019095321565,-0.4535654937320018
-4.05,0.05676473506030786,-0.2946159176543747
-4.0495,0.2808384070716433,-0.1462629799820306
-4.049,0.3875401556483727,-0.04029659593045269
-4.0485,0.4088805053638253,0.03387987290586391
-4.048,0.3982103305061524,0.08686306493165288
-4.0475,0.3661998059331336,0.1398462569574419
-4.047,0.3341892813600275,0.1610395337677671
-4.0465,0.3021787567870086,0.09745970333682032
-4.046,0.2915085819293357,0.07626642652650473
-4.0455,0.2915085819291998,0.09745970333670466
-4.045,0.1527963087794516,-0.02969995752518888
-4.0445,-0.4660738329661415,-0.5277419625680583
-4.044,-0.8395299529853639,-0.9410108603699736
-4.0435,-1.202315898146244,-1.364876396576285
-4.043,-1.533091318734406,-2.223204107394847
-4.0425,-0.647466805547552,-2.350363768256741
-4.042,0.142126133921769,-2.360960406662024
-4.0415,0.6222840025174878,-2.021867977696666
-4.041,0.8890383739593111,-1.110557074853096
-4.0405,0.8997085488171006,-0.1356663415762175
-4.04,0.7503261008096795,0.5743084315693548
-4.0395,0.7289857510943337,1.135930267042718
-4.039,0.7503261008095922,1.369056311956768
-4.0385,0.6542945270905358,1.210106735879401
-4.038,0.5369226036561334,0.9345941373452981
-4.0375,0.4515612047944588,0.6696781772157171
-4.037,0.3341892813600565,0.5107286011383502
-4.0365,-0.2526703358124887,0.8604176685088755
-4.036,-1.116954499285307,1.411442865577283
-4.0355,-1.693143941599645,1.082947075017392
-4.035,-2.130621110764634,0.08686306493165288
-4.0345,-2.461396531352495,0.08686306493165288
-4.034,-1.917217613610981,0.309392471440169
-4.0335,-1.06360362499637,0.309392471440169
-4.033,-0.3487019095322826,0.2352160026040644
-4.0325,0.1101156093489346,0.1716361721729827
-4.032,0.3448594562177392,0.1610395337678249
-4.0315,0.4302208550791227,0.1928294489832983
-4.031,0.4302208550791712,0.25640927941438
-4.0305,0.3982103305061524,0.309392471440169
-4.03,0.3555296310754606,0.3305857482504846
-4.0295,0.3128489316446718,0.3093924714401208
-4.029,0.291508581929326,0.2564092794143318
-4.0285,0.1314559590640864,0.08686306493165288
-4.028,-0.4020527838204921,-0.4641621321375355
-4.0275,-0.8928808272734472,-0.9939940523954253
-4.027,-1.383708870726849,-1.34368311976595
-4.0265,-1.53309131873427,-1.884111678428998
-4.026,-0.9462317015618604,-2.276187299420684
-4.0255,0.03542438534494258,-2.21260746898968
-4.025,0.6542945270899729,-2.032464616101997
-4.0245,0.9637295979633906,-1.364876396575447
-4.024,1.027750647109428,-0.4429688553267188
-4.0235,0.8783681991020071,0.2776025562240114
-4.023,0.7609962756673817,0.7968378380781697
-4.0225,0.7823366253827275,1.125333628638062
-4.022,0.6863050516636712,1.051157159801957
-4.0215,0.5582629533713047,0.8074344764828166
-4.021,0.4622313796522482,0.5637117931641874
-4.0205,0.3875401556484697,0.4047622170866759
-4.02,0.02475421048643506,0.542518516354373
-4.0195,-0.8822106524157645,1.114736990232894
-4.019,-1.703814116457328,1.464426057603419
-4.0185,-2.205312334767956,0.7014680924320579
-4.018,-1.938557963326346,-0.1144730647665284
-4.0175,-1.180975548430879,-0.3370024712750445
-4.017,-0.4660738329667917,-0.2416327256286243
-4.0165,0.02475421048751225,-0.05089323433535026
-4.016,0.3021787567870086,0.13984625695749
-4.0155,0.4195506802214109,0.2776025562245414
-4.015,0.4302208550791809,0.3835689402764085
-4.0145,0.408880505363835,0.457745409112513
-4.014,0.3768699807908162,0.5001319627331443
-4.0135,0.3448594562177101,0.4895353243279961
-4.013,0.3128489316446912,0.4683420475176805
-4.0125,0.291508581929326,0.3941655786815084
-4.012,0.2594980573556084,0.2670059178187186
-4.0115,-0.4767440078238243,-0.5913217929990628
-4.011,-1.394379045584531,-1.725162102351978
-4.0105,-1.757164990745411,-2.191414192178921
-4.01,-1.575772018165136,-2.572893174765372
-4.0095,-0.6474668055467465,-2.678859558817047
-4.009,0.3448594562168367,-2.562296536360311
-4.0085,0.9423892482481029,-2.318573853040872
-4.008,1.091771696255524,-1.788741932782983
-4.0075,0.9957401225364676,-0.9198175835600435
-4.007,0.8463576745287165,-0.1038764263608405
-4.0065,0.7289857510943143,0.4683420475176805
-4.006,0.825017324813458,0.9557874141553824
-4.0055,0.803676975097986,1.093543713422443
-4.005,0.6863050516635838,0.9663840525605498
-4.0045,0.5582629533713921,0.7544512844572011
-4.004,0.4408910299366597,0.5425185163538332
-4.0035,0.1954770082101822,0.5213252395435176
-4.003,-0.6261264558313813,1.019367244586387
-4.0025,-1.479740444445216,1.528005888033961
-4.002,-1.810515865034154,1.146526905448396
-4.0015,-1.693143941599645,0.6484849004055269
-4.001,-1.095614149569961,0.2987958330353196
-4.0005,-0.4660738329657145,0.05507314971605421
-4,0.00341386077189465,-0.05089323433552374
-3.9995,0.2808384070716433,-0.06148987274069118
-3.999,0.3982103305061524,0.002089957690313421
-3.9985,0.4195506802215176,0.1080563417419877
-3.998,0.408880505363835,0.2352160026039969
-3.9975,0.3875401556484697,0.3623756634660061
-3.997,0.3555296310754218,0.457745409112513
-3.9965,0.3235191065023739,0.4683420475176805
-3.996,0.3128489316446912,0.4471487707073456
-3.9955,0.3128489316446912,0.4259554938970107
-3.995,0.291508581929326,0.4259554938970107
-3.9945,0.291508581929326,-0.008506680714854012
-3.994,-0.6688071552621118,-1.089363798041932
-3.9935,-1.084943974711735,-1.682775548731308
-3.993,-0.4340633083930936,-1.947691508860494
-3.9925,0.3768699807907871,-2.191414192179345
-3.992,1.027750647109428,-2.202010830584512
-3.9915,1.35852606769759,-1.894708316834657
-3.991,1.251824319120764,-1.227120097309109
-3.9905,0.9850699476786977,-0.3899856633008816
-3.99,0.7396559259519968,0.3305857482505039
-3.9895,0.707645401378949,0.7332580076468663
-3.989,0.6863050516635838,0.9134008605347127
-3.9885,0.6009436528021226,0.8922075837243778
-3.988,0.5049120790829789,0.7650479228623686
-3.9875,0.4408910299368829,0.5955017083796896
-3.987,0.3021787567870086,0.5319218779486851
-3.9865,-0.156638762093345,0.9451907757502149
-3.986,-0.6367966306890638,1.506812611224089
-3.9855,-1.30901764672307,1.602182356870596
-3.985,-1.949228138184029,0.8286277532933731
-3.9845,-2.087940411333903,0.6484849004055269
-3.984,-1.479740444445993,0.457745409112513
-3.9835,-0.7328282044082075,0.2034260873884947
-3.983,-0.1459685872356623,0.01268659609548085
-3.9825,0.2061471830678648,-0.07208651114585861
-3.982,0.3768699807907871,-0.07208651114585861
-3.9815,0.4302208550792003,-0.008506680714854012
-3.981,0.4195506802215176,0.09745970333682032
-3.9805,0.3875401556484697,0.1928294489833272
-3.98,0.3448594562177392,0.2670059178194992
-3.9795,0.3128489316446912,0.2987958330350016
-3.979,0.291508581929326,0.2670059178194992
-3.9785,0.2381577076409128,0.09745970333682032
-3.978,-0.04993701351651855,-0.3687923864905467
-3.9775,-0.4874141826815069,-0.8032545611024114
-3.977,-1.074273799854052,-1.184733543688439
-3.9765,-1.789175515318789,-2.074851169722503
-3.976,-1.020922925565639,-2.21260746898968
-3.9755,-0.08194753808956648,-2.244397384205182
-3.975,0.5582629533713921,-2.106641084938006
-3.9745,0.9317190733902845,-1.439052865412457
-3.974,0.9957401225363802,-0.4535654937318862
-3.9735,0.825017324813458,0.383568940276341
-3.973,0.7183155762366316,0.9345941373450475
-3.9725,0.7716664505250448,1.273686566310405
-3.972,0.6863050516635838,1.157123543853563
-3.9715,0.5582629533713921,0.8710143069140429
-3.971,0.4622313796522482,0.5955017083796896
-3.9705,0.3875401556484697,0.383568940276341
-3.97,0.09944543449103843,0.5319218779486851
-3.9695,-0.5834457564006506,1.061753798207057
-3.969,-1.052933450138687,0.7544512844572011
-3.9685,-1.212986073003927,-0.1568596183871981
-3.968,-0.9035510021311299,-0.4853554089473885
-3.9675,-0.423393133535411,-0.4111789401112165
-3.967,-0.02859666380115328,-0.2204394488182027
-3.9665,0.2168173579255475,-0.02969995752518888
-3.966,0.3448594562177392,0.1080563417419877
-3.9655,0.3875401556484697,0.2140227257936621
-3.965,0.3875401556484697,0.2881991946298341
-3.9645,0.3768699807907871,0.3411823866556712
-3.964,0.3555296310754218,0.3941655786815084
-3.9635,0.3341892813600565,0.4153588554918433
-3.963,0.3128489316446912,0.3729723018711736
-3.9625,0.3021787567870086,0.2987958330350016
-3.962,0.2701682322139607,0.1610395337678249
-3.9615,-0.1779791118087102,-0.326405832869877
-3.961,-0.7968492535543035,-0.8668343915334161
-3.9605,-1.180975548430879,-1.301296566145281
-3.96,-1.031593100423322,-1.650985633515806
-3.9595,-0.8502001278427167,-2.413943598687861
-3.959,0.0674349099179905,-2.519909982739535
-3.9585,0.7716664505250448,-2.519909982739535
-3.958,1.049090996824793,-2.223204107394847
-3.9575,1.113112045970889,-1.449649503817625
-3.957,1.038420821967111,-0.4535654937318862
-3.9565,0.8143471499557753,0.2987958330350016
-3.956,0.6969752265212663,0.8604176685088755
-3.9555,0.5902734779444399,1.040560521396722
-3.955,0.4835717293676135,0.9451907757502149
-3.9545,0.408880505363835,0.7650479228623686
-3.954,0.3661998059331045,0.5849050699745222
-3.9535,0.3021787567870086,0.5319218779486851
-3.953,0.04609456020262521,0.9875773293708847
-3.9525,-0.6367966306890638,1.475022696008586
-3.952,-1.437059745015262,1.040560521396722
-3.9515,-2.087940411333903,0.9451907757502149
-3.951,-2.162631635337682,1.135930267043229
-3.9505,-1.479740444445993,0.8710143069140429
-3.95,-0.7008176798351597,0.4471487707073456
-3.9495,-0.124628237520297,0.1186529801471552
-3.949,0.2274875327832301,-0.04029659593035631
-3.9485,0.3875401556484697,-0.07208651114585861
-3.948,0.4302208550792003,0.002089957690313421
-3.9475,0.4195506802215176,0.1292496185523226
-3.947,0.3768699807907871,0.2458126410091644
-3.9465,0.3341892813600565,0.3305857482505039
-3.946,0.3128489316446912,0.3941655786815084
-3.9455,0.3021787567870086,0.3941655786815084
-3.945,0.1207857842064037,0.1822328105781598
-3.9445,-0.4127229586777283,-0.2840192792492073
-3.944,-0.754168554123573,-0.5595318777835605
-3.9435,-0.8502001278427167,-1.025783967610927
-3.943,-0.5194247072545548,-1.820531847998485
-3.9425,0.3768699807907871,-1.937094870455327
-3.942,0.8783681991018712,-2.021867977696666
-3.9415,1.091771696255524,-1.79933857118815
-3.941,1.15579274540162,-1.078767159636765
-3.9405,1.017080472251745,-0.252229364033705
-3.94,0.7823366253827275,0.3729723018711736
-3.9395,0.707645401378949,0.9028042221295453
-3.939,0.6649647019482183,1.125333628638062
-3.9385,0.5582629533713921,1.019367244586387
-3.938,0.4622313796522482,0.7968378380778709
-3.9375,0.3982103305061524,0.55311515475902
-3.937,0.2808384070716433,0.4471487707073456
-3.9365,-0.4340633083930936,0.8604176685088755
-3.936,-1.405049220442214,1.443232780793084
-3.9355,-2.109280761049269,1.538602526439591
-3.935,-2.60010880450267,1.157123543853563
-3.9345,-2.717480727937179,1.231300012689736
-3.934,-1.863866739322568,0.9769806909657173
-3.9335,-0.9462317015618604,0.4789386859228479
-3.933,-0.2420001609548061,0.06566978812131802
-3.9325,0.1848068333524996,-0.1568596183871981
-3.932,0.3875401556484697,-0.1992461720078678
-3.9315,0.4515612047945656,-0.1356663415768632
-3.931,0.4408910299368829,0.01268659609548085
-3.9305,0.3982103305061524,0.1716361721729923
-3.93,0.3555296310754218,0.309392471440169
-3.9295,0.3235191065023739,0.4259554938970107
-3.929,0.3021787567870086,0.5001319627331828
-3.9285,0.1848068333524996,0.3517790250608387
-3.928,0.2274875327832301,-0.1356663415768632
-3.9275,0.2701682322139607,-0.5489352393783931
-3.927,-0.2099896363817582,-0.8032545611024114
-3.9265,-0.391382608962363,-0.9728007755850904
-3.926,-0.5407650569699201,-1.714565463946811
-3.9255,0.00341386077189465,-1.831128486403653
-3.925,0.4835717293676135,-1.693372187136476
-3.9245,0.6542945270905358,-1.174136905283272
-3.924,0.7289857510943143,-0.2416327256285375
-3.9235,0.707645401378949,0.5319218779486851
-3.923,0.6756348768059011,0.9663840525605498
-3.9225,0.8890383739595538,1.326669758336243
-3.922,0.857027849386506,1.220703374284568
-3.9215,0.6969752265212663,0.8710143069140429
-3.921,0.5369226036560266,0.4895353243280153
-3.9205,0.4195506802215176,0.1822328105781598
-3.92,0.09944543449103843,0.3623756634660061
-3.9195,-0.7008176798351597,0.6590815388106942
-3.919,-1.383708870726849,0.01268659609548085
-3.9185,-1.853196564464885,-1.025783967610927
-3.918,-2.269333383914508,-1.894708316834657
-3.9175,-1.970568487899394,-2.053657892912168
-3.917,-1.191645723288561,-1.396666311791788
-3.9165,-0.4660738329661415,-0.6443049850249
-3.916,0.03542438534494258,-0.06148987274069118
-3.9155,0.3021787567870086,0.2776025562246667
-3.915,0.4195506802215176,0.4365521323021782
-3.9145,0.4302208550792003,0.4895353243280153
-3.914,0.408880505363835,0.4789386859228479
-3.9135,0.3768699807907871,0.4259554938970107
-3.913,0.3448594562177392,0.3411823866556712
-3.9125,0.3128489316446912,0.1822328105781598
-3.912,0.2381577076409128,-0.02969995752518888
-3.9115,-0.3273615598162672,-0.5913217929990628
-3.911,-0.9248913518464952,-1.205926820498774
-3.9105,-1.223656247861609,-1.672178910326141
-3.91,-1.074273799854052,-2.074851169722503
-3.9095,-0.7968492535543035,-2.678859558817047
-3.909,-0.01792648894347063,-2.710649474032549
-3.9085,0.6116138276598051,-2.562296536360205
-3.908,0.857027849386506,-1.926498232050159
-3.9075,0.942389248247967,-0.8032545611024114
-3.907,0.857027849386506,0.1186529801471552
-3.9065,0.7183155762366316,0.6378882620003594
-3.906,0.8143471499557753,0.9451907757502149
-3.9055,0.7609962756673623,1.00877060618122
-3.905,0.6329541773751706,0.9134008605347127
-3.9045,0.5049120790829789,0.775644561267536
-3.904,0.4195506802215176,0.627291623595192
-3.9035,0.3235191065023739,0.6378882620003594
-3.903,0.1848068333524996,1.104140351827727
-3.9025,-0.4340633083930936,1.676358825706768
-3.902,-1.020922925565639,1.538602526439591
-3.9015,-1.127624674142465,0.9028042221295453
-3.901,-0.754168554123573,0.4789386859228479
-3.9005,-0.3060212101009019,0.2246193641988295
-3.9,0.04609456020262521,0.1186529801471552
-3.8995,0.2594980573562781,0.1186529801471552
-3.899,0.3555296310754218,0.1822328105781598
-3.8985,0.3875401556484697,0.2564092794143318
-3.898,0.3768699807907871,0.3517790250608387
-3.8975,0.3661998059331045,0.4365521323021782
-3.897,0.3341892813600565,0.457745409112513
-3.8965,0.3021787567870086,0.4471487707073456
-3.896,0.2808384070716433,0.4259554938970107
-3.8955,0.2808384070716433,0.383568940276341
-3.895,-0.5621054066852853,-0.474758770542221
-3.8945,-1.51175096901904,-1.396666311791788
-3.894,-1.83185621474952,-1.88411167842949
-3.8935,-2.045259711903173,-2.297380576231019
-3.893,-1.426389570157579,-2.498716705929201
-3.8925,-0.2206598112394408,-2.477523429118866
-3.892,0.707645401378949,-2.403346960282694
-3.8915,1.134452395686255,-2.149027638558676
-3.891,1.15579274540162,-1.311893204550448
-3.8905,1.006410297394063,-0.252229364033705
-3.89,0.8143471499557753,0.5107286011383502
-3.8895,0.79300680024041,0.9769806909657173
-3.889,0.7503261008096795,1.072350436612224
-3.8885,0.6329541773751706,0.8922075837243778
-3.888,0.5049120790829789,0.6378882620003594
-3.8875,0.3982103305061524,0.4047622170866759
-3.887,0.2701682322139607,0.3411823866556712
-3.8865,0.02475421048725994,0.775644561267536
-3.886,0.1207857842064037,1.390249588767247
-3.8855,-0.3273615598162672,1.199510097474233
