Class_4_Move_right_hand_Horiszontal/Class_4_Move_right_hand_Horiszontal_SH_7.csv

#Digilent WaveForms Oscilloscope Acquisition
#Device Name: EExplorer
#Serial Number: SN:210151A2B84A
#Date Time: 2020-12-17 15:41:10.274
#Sample rate: 2000Hz
#Samples: 16384
#Trigger: Source: Channel 1 Type: Edge Condition: Rising Level: 0 V Hyst.: Auto HoldOff: 0 s
#Channel 1: Range: 1 V/div Offset: 0 V Attenuation: 1 X
#Channel 2: Range: 1 V/div Offset: 0 V Attenuation: 1 X
#Power Supplies: ON
#Fixed Supply: ON
#Voltage: 3.3 V Readback: 3.329 V
#Positive Supply: ON
#Voltage: 3.7 V Readback: 3.715 V
#Current: 40 mA Readback: 20 mA
#Negative Supply: ON
#Voltage: -3.7 V Readback: -3.355 V
#Current: -40 mA Readback: -10 mA
#Reference 1: ON
#Voltage: 0 V
#Reference 2: ON
#Voltage: 0 V

Time (s),Channel 1 (V),Channel 2 (V)
-4.096,0.4195506802215176,-1.004590690800593
-4.0955,0.3875401556484989,-1.046977244421224
-4.095,0.2915085819292483,-1.1105570748522
-4.0945,0.2061471830678648,-1.036380606016095
-4.094,0.184806833352519,-0.8244478379129391
-4.0935,0.1954770082101919,-0.5595318777833196
-4.093,0.2061471830678648,-0.2946159176543747
-4.0925,0.2381577076408836,-0.1568596183873234
-4.092,0.4729015545098436,-0.5277419625685306
-4.0915,0.3768699807907871,-1.046977244421262
-4.091,-0.391382608962363,-1.38606967338662
-4.0905,-1.127624674142689,-1.492036057437967
-4.09,-1.373038695869166,-1.131750351662602
-4.0895,-1.010252750707956,-0.3158091944647096
-4.089,-0.5194247072550012,0.4683420475169673
-4.0885,-0.1139580626626144,1.029963882991555
-4.088,0.1314559590640864,1.326669758336243
-4.0875,0.2488278824984886,1.422039503982663
-4.087,0.2808384070716433,1.390249588767141
-4.0865,0.2808384070716433,1.273686566310405
-4.086,0.2701682322139704,1.135930267043354
-4.0855,0.2915085819293648,1.029963882991516
-4.085,0.3341892813600565,0.9875773293708847
-4.0845,0.3661998059330753,0.9028042221296224
-4.084,0.2061471830680395,0.7226613692414483
-4.0835,0.3982103305061524,0.4471487707073456
-4.083,0.5155822539406614,-0.1886495336027004
-4.0825,0.04609456020222733,-0.9939940523957626
-4.082,-0.391382608962363,-1.364876396576285
-4.0815,-0.3273615598162672,-1.131750351662602
-4.081,-0.08194753808978969,-0.8880276683439725
-4.0805,0.142126133921769,-0.792657922697244
-4.08,0.3021787567870086,-0.8350444763179138
-4.0795,0.3768699807907192,-0.8774310299385449
-4.079,0.3661998059329783,-0.9304142219644882
-4.0785,0.2274875327832301,-1.004590690800593
-4.078,-0.01792648894324742,-1.046977244421224
-4.0775,-0.04993701351645062,-0.8986243067487063
-4.077,0.02475421048725994,-0.6654982618352349
-4.0765,0.1101156093486434,-0.4429688553269212
-4.076,0.1207857842061902,-0.2946159176546831
-4.0755,-0.1139580626626144,-0.6337083466197325
-4.075,0.2594980573562781,-1.195330182093607
-4.0745,0.2168173579251593,-1.629792356705635
-4.074,-0.2099896363817582,-1.809935209593318
-4.0735,-0.7755089038389382,-1.640388995110639
-4.073,-0.7755089038389382,-0.8880276683444351
-4.0725,-0.4874141826815069,-0.02969995752518888
-4.072,-0.1673089369510276,0.627291623595192
-4.0715,0.05676473506010407,1.029963882991188
-4.071,0.1954770082102307,1.21010673587943
-4.0705,0.2488278824985954,1.241896651094903
-4.07,0.2594980573562684,1.188913459069114
-4.0695,0.2594980573562878,1.093543713422482
-4.069,0.2701682322139607,1.00877060618122
-4.0685,0.291508581929326,0.9451907757502149
-4.068,0.3448594562178944,0.9451907757503691
-4.0675,0.5155822539406614,1.114736990232894
-4.067,0.03542438534494258,1.135930267043229
-4.0665,-0.8181896032702607,0.902804222128755
-4.066,-1.46907026958831,0.03387987290581572
-4.0655,-1.565101843307454,-0.8350444763179138
-4.065,-1.074273799854498,-1.036380606015912
-4.0645,-0.4660738329661415,-0.8880276683437509
-4.064,-0.007256314085787988,-0.7502713690765743
-4.0635,0.2808384070713813,-0.7290780922662587
-4.063,0.4195506802215371,-0.7820612842920959
-4.0625,0.4408910299368829,-0.8032545611024114
-4.062,0.3768699807908453,-0.8138511995075692
-4.0615,0.2274875327831719,-0.8774310299384871
-4.061,0.1634664836371343,-0.7714646458869092
-4.0605,0.1634664836371343,-0.5807251545938954
-4.06,0.1848068333524996,-0.3581957480852058
-4.0595,0.1848068333524996,-0.1674562567923655
-4.059,-0.09261771294724913,-0.3475991096802118
-4.0585,0.003413860771807303,-0.8350444763174705
-4.058,0.00341386077189465,-1.280103289334946
-4.0575,-0.5941159312583333,-1.534422611058964
-4.057,-1.212986073003364,-1.534422611058964
-4.0565,-1.191645723288561,-0.9516074987747555
-4.056,-0.7755089038389382,-0.09327978795619347
-4.0555,-0.3273615598166748,0.6166949851893788
-4.055,0.003413860772059626,1.082947075017584
-4.0545,0.1848068333524996,1.29487984312074
-4.054,0.2701682322138831,1.337266396741371
-4.0535,0.2808384070716336,1.27368656631029
-4.053,0.2701682322139607,1.146526905448396
-4.0525,0.2701682322139607,1.029963882991555
-4.052,0.2915085819293745,0.9345941373450186
-4.0515,0.3448594562177392,0.9028042221295453
-4.051,0.4408910299368829,0.92399749893988
-4.0505,0.8463576745284545,1.188913459068825
-4.05,1.51857869056283,1.570392441655093
-4.0495,1.262494493978446,1.114736990232894
-4.049,0.2488278824995174,0.01268659609648326
-4.0485,-0.402052783820036,-0.6972881770508624
-4.048,-0.391382608962363,-0.8350444763179138
-4.0475,-0.1566387620935585,-0.7820612842921247
-4.047,0.08877525963351104,-0.7078848154558949
-4.0465,0.2594980573562781,-0.6972881770507372
-4.046,0.3341892813599886,-0.6760949002404216
-4.0455,0.3448594562175839,-0.6760949002405372
-4.045,0.1741366584948169,-0.8244478379127463
-4.0445,-0.02859666380115328,-0.8774310299385835
-4.044,-0.02859666380109505,-0.7078848154556828
-4.0435,0.03542438534494258,-0.4641621321370536
-4.043,0.1314559590640864,-0.2204394488182027
-4.0425,0.2381577076408157,-0.09327978795630912
-4.042,0.6969752265212663,-0.474758770542221
-4.0415,1.049090996824793,-1.068170521231597
-4.041,0.3875401556490713,-1.492036057437909
-4.0405,-0.4874141826820503,-1.61919571830013
-4.04,-1.084943974711735,-1.42845622700729
-4.0395,-0.9782422261350054,-0.7078848154565599
-4.039,-0.5941159312579839,0.04447651131150358
-4.0385,-0.2099896363817582,0.6166949851900245
-4.038,0.05676473506006524,0.9345941373447584
-4.0375,0.1954770082102404,1.061753798207066
-4.037,0.2594980573562781,1.072350436612224
-4.0365,0.2701682322139607,0.9981739677760521
-4.036,0.2594980573562878,0.9028042221294778
-4.0355,0.2701682322139607,0.8286277532933731
-4.035,0.3235191065023739,0.8180311148882058
-4.0345,0.472901554509795,0.9239974989397837
-4.034,0.4729015545099309,1.114736990232894
-4.0335,0.7503261008096795,1.464426057603419
-4.033,0.675634876805969,1.294879843120894
-4.0325,0.003413860771739378,0.3835689402758688
-4.032,-0.1673089369510276,-0.1356663415768632
-4.0315,-0.06060718837429824,-0.3052125560593879
-4.031,0.1101156093488278,-0.4005823017061551
-4.0305,0.2274875327832301,-0.5171453241628908
-4.03,0.2808384070715948,-0.6549016234299421
-4.0295,0.3128489316446912,-0.7608680074817803
-4.029,0.3128489316446912,-0.8032545611024114
-4.0285,0.2168173579255475,-0.8986243067489184
-4.028,-0.01792648894349974,-0.9728007755848976
-4.0275,-0.04993701351651855,-0.7608680074817418
-4.027,0.01408403562957729,-0.4323722169215513
-4.0265,0.0994454344909608,-0.1144730647668175
-4.026,0.1634664836371343,0.1186529801471552
-4.0255,0.3661998059331045,0.2034260873884947
-4.025,1.091771696254864,0.2776025562245992
-4.0245,1.475897991131507,0.2458126410086825
-4.024,0.825017324813458,-0.2840192792492073
-4.0235,-0.08194753808874156,-0.7714646458864659
-4.023,-0.4233931335353527,-0.6019184314037677
-4.0225,-0.3593720843893152,-0.09327978795619347
-4.022,-0.1779791118088752,0.4047622170862229
-4.0215,0.003413860772011104,0.7544512844573746
-4.021,0.1314559590640864,0.9451907757502149
-4.0205,0.1954770082101822,1.019367244586387
-4.02,0.2274875327832301,1.008770606181171
-4.0195,0.2274875327832301,0.9557874141553824
-4.019,0.2381577076409128,0.8922075837243778
-4.0185,0.2594980573562586,0.8498210301037465
-4.018,0.2808384070716433,0.8074344764830383
-4.0175,0.2381577076409128,0.7120647308365314
-4.017,0.195477008210221,0.8074344764829516
-4.0165,0.1527963087790246,0.5319218779478851
-4.016,-0.3166913849585846,-0.3475991096802118
-4.0155,-0.88221065241525,-1.152943628472205
-4.015,-0.9355615267038186,-1.248313374119212
-4.0145,-0.5407650569699201,-0.9939940523954253
-4.014,-0.1246282375206755,-0.7820612842922693
-4.0135,0.1527963087795778,-0.6549016234300578
-4.013,0.291508581929326,-0.6443049850249
-4.0125,0.3235191065023739,-0.6654982618352349
-4.012,0.3128489316446136,-0.6972881770508432
-4.0115,0.2274875327832301,-0.8138511995075789
-4.011,0.1741366584948169,-0.7608680074817418
-4.0105,0.1741366584948169,-0.6019184314043748
-4.01,0.1848068333524996,-0.4111789401112165
-4.0095,0.1954770082101822,-0.2204394488182027
-4.009,0.2808384070715657,-0.2310360872233605
-4.0085,0.6969752265209364,-0.7078848154563864
-4.008,0.3341892813600565,-1.237716735714276
-4.0075,-0.4660738329654136,-1.608599079894799
-4.007,-1.170305373573235,-1.725162102351496
-4.0065,-1.212986073003927,-1.195330182093607
-4.006,-0.8181896032696687,-0.3687923864905467
-4.0055,-0.370042259246697,0.3623756634664398
-4.005,-0.03926683865883591,0.8392243916985406
-4.0045,0.1527963087794516,1.082947075017392
-4.004,0.2381577076409322,1.157123543853544
-4.0035,0.2594980573562781,1.135930267043229
-4.003,0.2488278824985954,1.040560521396722
-4.0025,0.2488278824985954,0.9557874141554594
-4.002,0.2701682322139607,0.9028042221295453
-4.0015,0.3128489316446912,0.8816109453192104
-4.001,0.4195506802214206,0.9663840525604728
-4.0005,0.8143471499563382,1.273686566310791
-4,1.433217291701369,1.697552102517103
-3.9995,1.539919040278195,1.506812611224089
-3.999,0.5262524287983441,0.4153588554918433
-3.9985,-0.2953510352432193,-0.4853554089473885
-3.998,-0.4020527838200457,-0.7290780922662394
-3.9975,-0.2099896363817582,-0.6972881770507372
-3.997,0.00341386077189465,-0.6654982618352349
-3.9965,0.1848068333524996,-0.6231117082145651
-3.996,0.2808384070716433,-0.6443049850249
-3.9955,0.3128489316446912,-0.6654982618352349
-3.995,0.2061471830678648,-0.7820612842920766
-3.9945,0.1101156093487211,-0.792657922697244
-3.994,0.1101156093487211,-0.6337083466197325
-3.9935,0.1314559590640864,-0.4217755785163839
-3.993,0.1634664836371343,-0.2098428104130352
-3.9925,0.1527963087794516,-0.09327978795619347
-3.992,0.4408910299368829,-0.008506680714854012
-3.9915,0.4729015545099309,-0.2204394488182027
-3.991,-0.2420001609548061,-0.7820612842920766
-3.9905,-1.1062843244271,-1.269506650929778
-3.99,-1.51175096901904,-1.322489842955616
-3.9895,-1.191645723288561,-0.7078848154559045
-3.989,-0.6688071552621118,0.02328323450064829
-3.9885,-0.2313299860971235,0.6060983467848571
-3.988,0.05676473506030786,0.9557874141553824
-3.9875,0.2061471830678648,1.125333628638062
-3.987,0.2594980573562781,1.146526905448396
-3.9865,0.2594980573562781,1.093543713422559
-3.986,0.2488278824985954,1.00877060618122
-3.9855,0.2594980573562781,0.9557874141553824
-3.985,0.3235191065023739,0.9663840525605498
-3.9845,0.5155822539406614,1.135930267043229
-3.984,0.4302208550792003,0.9451907757502149
-3.9835,-0.2099896363817582,0.1080563417419877
-3.983,-0.9782422261349084,-0.8562377531282487
-3.9825,-1.426389570157579,-1.555615887869299
-3.982,-1.234326422719292,-1.555615887869299
-3.9815,-0.6794773301197943,-1.089363798041932
-3.981,-0.156638762093345,-0.7396747306714069
-3.9805,0.1848068333524996,-0.6019184314042303
-3.98,0.3235191065023739,-0.5913217929990628
-3.9795,0.3341892813600565,-0.6231117082145651
-3.979,0.3235191065023739,-0.7290780922662394
-3.9785,0.2274875327832301,-0.8032545611024114
-3.978,0.07810508477567314,-0.8880276683437509
-3.9775,0.05676473506030786,-0.8138511995075789
-3.977,0.09944543449103843,-0.6443049850249
-3.9765,0.142126133921769,-0.4429688553267188
-3.976,0.1527963087794516,-0.2734226408440398
-3.9755,-0.09261771294724913,-0.5277419625680583
-3.975,-0.1032878878049318,-1.089363798041932
-3.9745,-0.5407650569699201,-1.587405803084801
-3.974,-1.127624674142465,-1.873515040024322
-3.9735,-1.554431668449771,-1.79933857118815
-3.973,-1.30901764672307,-1.046977244421262
-3.9725,-0.7861790786966207,-0.1568596183871981
-3.972,-0.3060212101009019,0.5637117931641874
-3.9715,0.02475421048725994,1.019367244586387
-3.971,0.1954770082101822,1.241896651094903
-3.9705,0.2594980573562781,1.29487984312074
-3.97,0.2701682322139607,1.263089927905238
-3.9695,0.2488278824985954,1.167720182258731
-3.969,0.2488278824985954,1.082947075017392
-3.9685,0.2701682322139607,1.00877060618122
-3.968,0.3021787567870086,0.9769806909657173
-3.9675,0.4302208550792003,1.019367244586387
-3.967,0.942389248247967,1.316073119931075
-3.9665,0.8783681991018712,0.92399749893988
-3.966,0.6116138276598051,0.01268659609548085
-3.9655,0.1741366584948169,-0.8668343915334161
-3.965,-0.1032878878049318,-1.110557074852267
-3.9645,-0.03926683865883591,-0.8456411147230812
-3.964,0.08877525963335578,-0.6231117082145651
-3.9635,0.1848068333524996,-0.5383386009732256
-3.963,0.2594980573562781,-0.5913217929990628
-3.9625,0.3021787567870086,-0.6760949002404023
-3.962,0.291508581929326,-0.7290780922662394
-3.9615,0.1954770082101822,-0.8774310299385835
-3.961,0.1314559590640864,-0.8350444763179138
-3.9605,0.1314559590640864,-0.6443049850249
-3.96,0.1527963087794516,-0.4323722169215513
-3.9595,0.1741366584948169,-0.2416327256285375
-3.959,0.01408403562957729,-0.3158091944647096
-3.9585,0.04609456020262521,-0.7820612842920766
-3.958,-0.007256314085787988,-1.311893204550448
-3.9575,-0.5300948821122373,-1.703968825541643
-3.957,-1.084943974711735,-1.84172512480882
-3.9565,-1.127624674142465,-1.311893204550448
-3.956,-0.7648387289812555,-0.474758770542221
-3.9555,-0.3487019095316325,0.2564092794143318
-3.955,-0.03926683865883591,0.7544512844572011
-3.9545,0.1527963087794516,1.00877060618122
-3.954,0.2274875327832301,1.093543713422559
-3.9535,0.2488278824985954,1.082947075017392
-3.953,0.2381577076409128,1.00877060618122
-3.9525,0.2381577076409128,0.92399749893988
-3.952,0.2381577076409128,0.849821030103708
-3.9515,0.2808384070716433,0.8392243916985406
-3.951,0.3768699807907871,0.8816109453192104
-3.9505,0.3021787567870086,0.8074344764830383
-3.95,0.3555296310754218,0.8286277532933731
-3.9495,-0.156638762093345,0.1822328105781598
-3.949,-0.7114878546928423,-0.6972881770507372
-3.9485,-0.7861790786966207,-0.9622041371799229
-3.948,-0.4767440078238243,-0.7714646458869092
-3.9475,-0.1459685872356623,-0.5913217929990628
-3.947,0.1314559590640864,-0.5489352393783931
-3.9465,0.2808384070716433,-0.570128516188728
-3.946,0.3341892813600565,-0.6337083466197325
-3.9455,0.3448594562177392,-0.6760949002404023
-3.945,0.2061471830678648,-0.7820612842920766
-3.9445,0.04609456020262521,-0.8244478379127463
-3.944,0.03542438534494258,-0.6549016234300674
-3.9435,0.07810508477567314,-0.4323722169215513
-3.943,0.1314559590640864,-0.1992461720078678
-3.9425,0.1954770082101822,-0.04029659593035631
-3.942,0.5796033030867573,-0.08268314955102604
-3.9415,0.6649647019482183,-0.3793890248957141
-3.941,-0.1032878878049318,-0.8562377531282487
-3.9405,-0.9035510021311299,-1.174136905283272
-3.94,-1.341028171296118,-1.142346990067769
-3.9395,-1.095614149569417,-0.5277419625680583
-3.939,-0.6261264558313813,0.1928294489833272
-3.9385,-0.2206598112394408,0.7438546460520338
-3.938,0.05676473506030786,1.061753798207057
-3.9375,0.1954770082101822,1.188913459069066
-3.937,0.2488278824985954,1.178316820663898
-3.9365,0.2488278824985954,1.082947075017392
-3.936,0.2381577076409128,0.9663840525605498
-3.9355,0.2488278824985954,0.8710143069140429
-3.935,0.2808384070716433,0.8286277532933731
-3.9345,0.3235191065023739,0.7650479228623686
-3.934,0.2381577076409128,0.6378882620003594
-3.9335,0.4195506802215176,0.7226613692416989
-3.933,0.4729015545099309,0.5213252395435176
-3.9325,0.02475421048725994,-0.2946159176543747
-3.932,-0.4980843575391895,-1.046977244421262
-3.9315,-0.4874141826815069,-1.131750351662602
-3.931,-0.2313299860971235,-0.8668343915334161
-3.9305,0.02475421048725994,-0.6654982618352349
-3.93,0.2061471830678648,-0.6019184314042303
-3.9295,0.3021787567870086,-0.6231117082145651
-3.929,0.3341892813600565,-0.6866915386455698
-3.9285,0.2701682322139607,-0.7502713690765743
-3.928,0.01408403562957729,-0.8986243067489184
-3.9275,-0.04993701351651855,-0.7714646458869092
-3.927,-0.007256314085787988,-0.5277419625680583
-3.9265,0.07810508477567314,-0.2734226408440398
-3.926,0.142126133921769,-0.05089323433552374
-3.9255,0.1314559590640864,-0.1674562567923655
-3.925,-0.4554036581084589,-0.7290780922662394
-3.9245,-1.074273799854052,-1.269506650929778
-3.924,-1.46907026958831,-1.598002441489969
-3.9235,-1.682473766741963,-1.608599079895136
-3.923,-1.287677297007705,-0.9622041371799229
-3.9225,-0.7114878546928423,-0.1568596183871981
-3.922,-0.2420001609548061,0.4895353243280153
-3.9215,0.0674349099179905,0.8922075837243778
-3.921,0.2168173579255475,1.072350436612224
-3.9205,0.2594980573562781,1.093543713422559
-3.92,0.2594980573562781,1.029963882991555
-3.9195,0.2488278824985954,0.92399749893988
-3.919,0.2381577076409128,0.8392243916985406
-3.9185,0.2594980573562781,0.775644561267536
-3.918,0.3021787567870086,0.7544512844572011
-3.9175,0.3875401556484697,0.8074344764830383
-3.917,0.5582629533713921,0.9557874141553824
-3.9165,0.7716664505250448,1.019367244586387
-3.916,0.1101156093487211,0.2458126410091644
-3.9155,-0.7008176798351597,-0.7078848154559045
-3.915,-0.9035510021311299,-0.9516074987747555
-3.9145,-0.572775581542968,-0.7290780922662394
-3.914,-0.1886492866663929,-0.5277419625680583
-3.9135,0.09944543449103843,-0.4111789401112165
-3.913,0.2701682322139607,-0.4535654937318862
-3.9125,0.3235191065023739,-0.4853554089473885
-3.912,0.3021787567870086,-0.5065486857577234
-3.9115,0.142126133921769,-0.5383386009732256
-3.911,0.05676473506030786,-0.5277419625680583
-3.9105,0.0674349099179905,-0.4535654937318862
-3.91,0.1101156093487211,-0.3370024712750445
-3.9095,0.1527963087794516,-0.1992461720078678
-3.909,0.08877525963335578,-0.1992461720078678
-3.9085,0.4302208550792003,-0.3052125560595421
-3.908,0.7183155762366316,-0.6549016234300674
-3.9075,0.1207857842064037,-1.089363798041932
-3.907,-0.6474668055467465,-1.311893204550448
-3.9065,-0.7968492535543035,-0.8880276683437509
-3.906,-0.5621054066852853,-0.1674562567923655
-3.9055,-0.2526703358124887,0.457745409112513
-3.905,-0.007256314085787988,0.8816109453192104
-3.9045,0.142126133921769,1.104140351827727
-3.904,0.2061471830678648,1.178316820663898
-3.9035,0.2274875327832301,1.157123543853563
-3.903,0.2274875327832301,1.082947075017392
-3.9025,0.2274875327832301,1.00877060618122
-3.902,0.2594980573562781,0.9875773293708847
-3.9015,0.3021787567870086,0.9769806909657173
-3.901,0.3448594562177392,0.9663840525605498
-3.9005,0.6436243522328531,1.146526905448396
-3.9,1.219813794547716,1.496215972818921
-3.8995,0.9957401225363802,1.029963882991555
-3.899,0.1101156093487211,-0.05089323433552374
-3.8985,-0.6154562809736985,-0.8138511995075789
-3.898,-0.6047861061160158,-0.8774310299385835
-3.8975,-0.3273615598162672,-0.6866915386455698
-3.897,-0.03926683865883591,-0.5171453241628908
-3.8965,0.1741366584948169,-0.4641621321370536
-3.896,0.2808384070716433,-0.5171453241628908
-3.8955,0.3128489316446912,-0.5807251545938954
-3.895,0.1848068333524996,-0.6972881770507372
-3.8945,-0.07127736323188383,-0.8244478379127463
-3.894,-0.1032878878049318,-0.6972881770507372
-3.8935,-0.01792648894347063,-0.474758770542221
-3.893,0.0674349099179905,-0.2416327256285375
-3.8925,0.1527963087794516,-0.06148987274069118
-3.892,0.5689331282290746,0.1716361721729923
-3.8915,1.102441871113207,0.5849050699745222
-3.891,0.6756348768059011,0.1504428953626575
-3.8905,-0.2953510352432193,-0.6549016234300674
-3.89,-0.9995825758502737,-1.142346990067769
-3.8895,-0.9675720512772257,-0.8456411147230812
-3.889,-0.6154562809736985,-0.2416327256285375
-3.8885,-0.2526703358124887,0.3199891098453364
-3.888,0.00341386077189465,0.7226613692416989
-3.8875,0.1527963087794516,0.9451907757502149
-3.887,0.2168173579255475,1.061753798207057
