Class_4_Move_right_hand_Horiszontal/Class_4_Move_Right_hand_Horizontal_Turki_7.csv

#Digilent WaveForms Oscilloscope Acquisition
#Device Name: EExplorer
#Serial Number: SN:210151A2B84A
#Date Time: 2020-12-10 14:07:08.082
#Sample rate: 2000Hz
#Samples: 16384
#Trigger: Source: Channel 1 Type: Edge Condition: Rising Level: 0 V Hyst.: Auto HoldOff: 0 s
#Channel 1: Range: 1 V/div Offset: 0 V Attenuation: 1 X
#Channel 2: Range: 1 V/div Offset: 0 V Attenuation: 1 X
#Power Supplies: ON
#Fixed Supply: ON
#Voltage: 3.3 V Readback: 3.323 V
#Positive Supply: ON
#Voltage: 3.7 V Readback: 3.719 V
#Current: 40 mA Readback: 19 mA
#Negative Supply: ON
#Voltage: -3.7 V Readback: -3.709 V
#Current: -40 mA Readback: 0 A
#Reference 1: ON
#Voltage: 0 V
#Reference 2: ON
#Voltage: 0 V

Time (s),Channel 1 (V),Channel 2 (V)
-4.096,0.9530594231056497,-0.5913217929990628
-4.0955,0.9423892482479767,-0.4853554089474849
-4.095,0.8036769750979667,-0.26282600243867
-4.0945,0.6649647019482183,-0.04029659593035631
-4.094,0.568933128229162,0.1292496185521684
-4.0935,0.6329541773757335,0.1398462569570852
-4.093,1.251824319120764,-0.3052125560595421
-4.0925,1.838683936292775,-0.8668343915329053
-4.092,1.507908515704176,-1.280103289334926
-4.0915,0.4408910299368829,-1.258910012524611
-4.091,-0.7434983792658902,-1.163540266878104
-4.0905,-1.01025275070816,-0.5595318777831847
-4.09,-1.234326422719292,-0.1462629799820306
-4.0895,-0.8608703027003992,0.6484849004055269
-4.089,-0.3273615598167525,1.443232780792362
-4.0885,0.08877525963335578,1.983661339456623
-4.088,0.3982103305061524,2.322753768421981
-4.0875,0.4835717293675359,2.365140322042612
-4.087,0.4622313796521997,2.322753768421962
-4.0865,0.408880505363835,2.301560491611646
-4.086,0.3661998059331433,2.216787384370384
-4.0855,0.334189281359746,2.0260478930771
-4.085,-0.007256314085787988,1.814115124973944
-4.0845,-0.9675720512763523,0.7862411996736383
-4.084,-1.885207089038612,-0.5171453241638353
-4.0835,-2.632119329075718,-1.555615887869299
-4.083,-3.048256148525341,-2.286783937825852
-4.0825,-2.738821077651477,-2.307977214635522
-4.082,-1.565101843307454,-1.576809164679634
-4.0815,-0.4874141826815069,-0.9092209451540858
-4.081,0.2808384070709446,-0.4641621321374584
-4.0805,0.707645401378949,-0.2946159176543747
-4.08,0.8676980242441885,-0.3052125560595421
-4.0795,0.9850699476785909,-0.4747587705420668
-4.079,1.123782220828465,-0.633708346619559
-4.0785,1.006410297394063,-0.4429688553267188
-4.078,0.81434714995595,-0.1780528951977738
-4.0775,0.6542945270904484,0.06566978812145294
-4.077,0.5582629533713921,0.2140227257936621
-4.0765,0.8356874996708885,0.4047622170865024
-4.076,1.518578690562733,0.3835689402758014
-4.0755,1.411876941986003,-0.2098428104130352
-4.075,0.4835717293676135,-0.718481453861072
-4.0745,-0.6047861061165107,-1.004590690800525
-4.074,-1.148965023857831,-0.9304142219644207
-4.0735,-0.9142211769888124,-0.1780528951975329
-4.073,-0.4767440078242222,0.712064730835722
-4.0725,-0.09261771294724913,1.453829419198252
-4.072,-0.02859666380115328,1.75053529454294
-4.0715,-0.2740106855276308,1.644568910491362
-4.071,-0.007256314085642421,1.94127478583605
-4.0705,0.1527963087794516,2.047241169887628
-4.07,0.3128489316445456,2.206190745964995
-4.0695,0.3768699807907677,2.248577299585645
-4.069,0.3555296310754218,2.068434446697963
-4.0685,0.142126133921769,1.6657621873016
-4.068,-0.7434983792667151,0.7332580076457965
-4.0675,-1.650463242168915,-0.4429688553267188
-4.067,-2.173301810195364,-1.439052865412457
-4.0665,-2.568098279929797,-1.979481424076266
-4.066,-2.76016142736791,-2.276187299420684
-4.0655,-1.959898313041711,-1.693372187136476
-4.065,-0.9035510021320907,-0.909220945154799
-4.0645,-0.007256314085787988,-0.4111789401112165
-4.064,0.5475927785137094,-0.3158091944647096
-4.0635,0.8036769750978598,-0.4323722169214453
-4.063,0.8783681991020557,-0.6019184314044134
-4.0625,1.081101521397841,-0.8032545611024114
-4.062,1.03842082196715,-0.6231117082147289
-4.0615,0.8676980242440235,-0.3370024712748613
-4.061,0.6863050516635838,-0.1356663415768632
-4.0605,0.5689331282290746,0.002089957690313421
-4.06,0.6863050516641369,0.03387987290558442
-4.0595,1.294505018551494,-0.2204394488182027
-4.059,1.123782220828572,-0.718481453861072
-4.0585,0.1101156093496429,-1.152943628472542
-4.058,-0.9569018764195432,-1.322489842955616
-4.0575,-1.639793067311232,-1.258910012524611
-4.057,-1.405049220442427,-0.644304985025459
-4.0565,-0.7755089038389382,0.309392471440169
-4.056,-0.1886492866663929,1.199510097474233
-4.0555,0.2168173579251787,1.835308401783701
-4.055,0.430220855079278,2.195594107560107
-4.0545,0.5155822539406614,2.343947045232316
-4.054,0.5262524287983344,2.301560491611685
-4.0535,0.3555296310754509,2.068434446697924
-4.053,0.3875401556484697,2.026047893077293
-4.0525,-0.2526703358124887,1.25249328950007
-4.052,-0.3380317346743283,0.6378882619995402
-4.0515,-0.754168554123573,-0.2628260024388724
-4.051,-1.650463242168915,-1.227120097309109
-4.0505,-2.418715831921366,-1.926498232049523
-4.05,-3.069596498240706,-2.445733513903364
-4.0495,-3.485733317690329,-2.880195688515228
-4.049,-2.792171951941588,-2.551699897955336
-4.0485,-1.469070269587272,-1.69337218713583
-4.048,-0.3273615598162672,-0.9833974139902578
-4.0475,0.4302208550785113,-0.559531877783946
-4.047,0.8143471499558821,-0.4005823017060779
-4.0465,0.9317190733902845,-0.4323722169215513
-4.046,1.070431346540033,-0.7502713690762852
-4.0455,1.070431346540023,-0.7926579226970513
-4.045,0.9210488985326017,-0.5807251545938954
-4.0445,0.7609962756673623,-0.3581957480853793
-4.044,0.6222840025174684,-0.1992461720077618
-4.0435,0.6009436528021226,-0.08268314955102604
-4.043,1.134452395686255,0.1292496185523226
-4.0425,1.635950613996883,0.09745970333684922
-4.042,1.017080472251745,-0.5277419625680583
-4.0415,-0.1779791118087102,-1.068170521231597
-4.041,-1.309017646722042,-1.375473034981173
-4.0405,-1.61845271759543,-1.152943628472108
-4.04,-1.138294849000148,-0.2416327256285375
-4.0395,-0.4980843575397719,0.7756445612666107
-4.039,0.01408403562986843,1.580989080060723
-4.0385,0.3341892813600565,2.089627723508298
-4.038,0.4942419042251506,2.333350406826927
-4.0375,0.5369226036559878,2.386333598852909
-4.037,0.4942419042252961,2.301560491611646
-4.0365,0.3982103305061524,2.142610915534135
-4.036,0.3448594562177101,1.983661339456382
-4.0355,0.3128489316446912,1.718745379327438
-4.035,0.05676473506030786,1.072350436612224
-4.0345,-0.636796630688433,0.1928294489841271
-4.034,-1.437059745015262,-0.6760949002404023
-4.0335,-1.959898313041711,-1.227120097309109
-4.033,-2.141291285622152,-1.492036057438054
-4.0325,-1.831856214749093,-1.629792356705432
-4.032,-1.362368521011484,-1.587405803084801
-4.0315,-0.3487019095325545,-0.9728007755856494
-4.031,0.2915085819296948,-0.6549016234299422
-4.0305,0.6969752265212663,-0.5171453241628908
-4.03,0.889038373959379,-0.5701285161886798
-4.0295,0.9423892482480544,-0.8350444763180295
-4.029,1.038420821967111,-0.9622041371799229
-4.0285,0.9210488985326017,-0.6866915386455698
-4.028,0.7609962756672458,-0.3475991096799516
-4.0275,0.6329541773751706,-0.06148987274069118
-4.027,0.5689331282290746,0.1716361721729923
-4.0265,0.8676980242439167,0.139846256957519
-4.026,1.486568165989782,-0.5595318777835605
-4.0255,1.19847344483235,-1.34368311976595
-4.025,0.01408403563065441,-1.746355379161947
-4.0245,-1.24499659757744,-1.799338571187851
-4.024,-1.757164990745741,-1.47084278062796
-4.0235,-1.330357996438824,-0.4429688553276536
-4.023,-0.658136980403905,0.7226613692425181
-4.0225,-0.08194753808956648,1.623375633680931
-4.022,0.2915085819289863,2.174400830749136
-4.0215,0.4835717293676717,2.428720152473694
-4.021,0.5475927785137094,2.471106706094325
-4.0205,0.5369226036560266,2.354543683637484
-4.02,0.50491207908294,2.248577299585635
-4.0195,0.4622313796522482,2.057837808292796
-4.019,0.4195506802215176,1.79292184816361
-4.0185,0.3235191065024612,1.54919916484498
-4.018,-0.274010685527854,0.6908714540261965
-4.0175,-1.116954499284783,-0.3370024712750445
-4.017,-1.842526389606542,-1.131750351661879
-4.0165,-2.226652684483409,-1.57680916467975
-4.016,-1.821186039891837,-1.703968825541643
-4.0155,-0.7755089038398892,-1.322489842955962
-4.015,0.1207857842068404,-0.9516074987745627
-4.0145,0.6009436528021226,-0.7396747306714069
-4.014,0.7609962756672167,-0.6337083466198289
-4.0135,0.7076454013784444,-0.6654982618357842
-4.013,0.1527963087794516,-1.269506650929778
-4.0125,0.5796033030867573,-1.322489842955616
-4.012,0.7289857510943337,-1.089363798041489
-4.0115,0.7503261008096795,-0.6019184314042303
-4.011,0.7183155762366316,-0.1462629799820306
-4.0105,0.6116138276599021,0.1080563417417564
-4.01,0.7823366253827275,0.06566978812131802
-4.0095,1.454557641416734,-0.2946159176543747
-4.009,1.305175193409313,-0.9728007755844735
-4.0085,0.06743490991683568,-1.576809164679875
-4.008,-1.202315898146244,-1.84172512480882
-4.0075,-2.09861058619077,-1.873515040024293
-4.007,-1.917217613610282,-1.237716735713245
-4.0065,-1.148965023857831,-0.1038764263613609
-4.006,-0.4020527838200457,0.9451907757502149
-4.0055,0.1314559590643484,1.686955464112311
-4.005,0.4195506802215176,2.100224361913465
-4.0045,0.5475927785137094,2.269770576396144
-4.004,0.5582629533713532,2.227384022775417
-4.0035,0.5155822539406614,2.16380419234447
-4.003,0.4515612047945656,2.16380419234447
-4.0025,0.3982103305062009,2.089627723508365
-4.002,0.3448594562177392,1.845905040189447
-4.0015,-0.03926683865883591,1.114736990232894
-4.001,-0.8395299529843061,0.4259554938976371
-4.0005,-1.607782542738786,-0.3899856633015562
-4,-2.269333383914508,-1.131750351662602
-3.9995,-2.408045657064382,-1.640388995110639
-3.999,-1.693143941599645,-1.354279758171118
-3.9985,-0.7008176798351597,-0.8562377531282487
-3.998,0.08877525963335578,-0.5171453241628908
-3.9975,0.6009436528021226,-0.3687923864905467
-3.997,0.825017324813458,-0.3793890248957141
-3.9965,0.825017324813458,-0.5595318777835605
-3.996,0.9957401225363802,-0.718481453861072
-3.9955,1.091771696255524,-0.5807251545938954
-3.995,0.3661998059331045,-0.8668343915334161
-3.9945,0.291508581929326,-0.4959520473525559
-3.994,0.291508581929326,-0.1356663415768632
-3.9935,0.4515612047945656,0.13984625695749
-3.993,1.102441871113207,-0.05089323433552374
-3.9925,1.497238340847464,-0.8774310299385835
-3.992,0.5689331282290746,-1.682775548731308
-3.9915,-0.7755089038389382,-2.138431000153508
-3.991,-1.917217613610981,-2.265590661015517
-3.9905,-2.03458953704549,-1.703968825541643
-3.99,-1.362368521011484,-0.474758770542221
-3.9895,-0.572775581542968,0.7226613692416989
-3.989,0.02475421048725994,1.591585718465428
-3.9885,0.3661998059331045,2.07903108510313
-3.988,0.5262524287983441,2.301560491611646
-3.9875,0.5689331282290746,2.301560491611646
-3.987,0.5369226036560266,2.195594107559972
-3.9865,0.4729015545099309,2.153207553939303
-3.986,0.408880505363835,2.057837808292796
-3.9855,0.3768699807907871,1.803518486568777
-3.985,0.1101156093487211,1.199510097474233
-3.9845,-0.6794773301197943,0.701468092431364
-3.984,-1.51175096901904,-0.08268314955102604
-3.9835,-2.119950935906951,-0.8456411147230812
-3.983,-2.258663209056825,-1.258910012524611
-3.9825,-1.437059745015262,-1.269506650929778
-3.982,-0.4127229586777283,-1.036380606016095
-3.9815,0.3128489316446912,-0.7290780922662394
-3.981,0.7289857510943143,-0.5065486857577234
-3.9805,0.8890383739595538,-0.4429688553267188
-3.98,0.8997085488172365,-0.4535654937318862
-3.9795,0.8997085488172365,-0.5595318777835605
-3.979,1.006410297394063,-0.4535654937318862
-3.9785,0.9317190733902845,-0.2310360872233701
-3.978,0.6542945270905358,-0.2310360872233701
-3.9775,0.6222840025174878,-0.06148987274069118
-3.977,-0.08194753808956648,-0.6019184314042303
-3.9765,0.1207857842064037,-0.7396747306714069
-3.976,0.9210488985326017,-1.216523458903942
-3.9755,1.070431346540159,-1.746355379162313
-3.975,0.08877525963335578,-2.011271339291499
-3.9745,-1.26633694729234,-2.074851169722503
-3.974,-1.917217613610981,-1.79933857118815
-3.9735,-1.51175096901904,-0.7078848154559045
-3.973,-0.7968492535543035,0.5743084315693548
-3.9725,-0.156638762093345,1.591585718465428
-3.972,0.2594980573562781,2.227384022775475
-3.9715,0.4835717293676135,2.555879813335665
-3.971,0.5689331282290746,2.640652920577004
-3.9705,0.5689331282290746,2.53468653652533
-3.97,0.5049120790829789,2.428720152473656
-3.9695,0.3982103305061524,2.269770576396144
-3.969,0.3448594562177392,2.057837808292796
-3.9685,0.1848068333524996,1.633972272086098
-3.968,-0.5407650569699201,0.627291623595192
-3.9675,-1.458400094730627,-0.4959520473525559
-3.967,-2.247993034199143,-1.354279758171118
-3.9665,-2.621449154218035,-1.88411167842949
-3.966,-2.247993034199143,-2.064254531317336
-3.9655,-1.1062843244271,-1.555615887869299
-3.965,-0.1459685872356623,-0.9939940523954253
-3.9645,0.4942419042252961,-0.718481453861072
-3.964,0.8143471499557753,-0.5489352393783931
-3.9635,0.8997085488172365,-0.4853554089473885
-3.963,0.9210488985326017,-0.5383386009732256
-3.9625,1.081101521397841,-0.6866915386455698
-3.962,1.049090996824793,-0.5913217929990628
-3.9615,0.9317190733902845,-0.3370024712750445
-3.961,0.79300680024041,-0.07208651114585861
-3.9605,0.6649647019482183,0.08686306493165288
-3.96,0.6969752265212663,0.002089957690313421
-3.9595,1.262494493978446,-0.4111789401112165
-3.959,1.35852606769759,-0.9092209451540858
-3.9585,0.1527963087794516,-1.629792356705471
-3.958,-1.447729919872945,-2.180817553774178
-3.9575,-2.109280761049269,-1.968884785670829
-3.957,-1.778505340461106,-1.089363798041932
-3.9565,-0.9462317015618604,0.1928294489833272
-3.956,-0.2313299860971235,1.241896651094903
-3.9555,0.2061471830678648,1.877694955404949
-3.955,0.4408910299368829,2.216787384370307
-3.9545,0.5369226036560266,2.333350406827149
-3.954,0.5475927785137094,2.312157130016814
-3.9535,0.5049120790829789,2.237980661180642
-3.953,0.4408910299368829,1.973064701051456
-3.9525,0.3448594562177392,1.432636142387917
-3.952,0.2274875327832301,0.4153588554918433
-3.9515,-0.08194753808956648,-0.5807251545938954
-3.951,-0.9462317015618604,-1.449649503817625
-3.9505,-1.853196564464885,-2.127834361748341
-3.95,-2.408045657064382,-2.403346960282694
-3.9495,-2.536087755356574,-2.382153683472359
-3.949,-1.67180359188428,-2.032464616101834
-3.9485,-0.572775581542968,-1.311893204550448
-3.948,0.2488278824985954,-0.7714646458869092
-3.9475,0.707645401378949,-0.5171453241628908
-3.947,0.8783681991018712,-0.4429688553267188
-3.9465,0.8890383739595538,-0.5065486857577234
-3.946,0.9957401225363802,-0.6654982618352349
-3.9455,1.017080472251745,-0.5595318777835605
-3.945,0.8890383739595538,-0.2628260024388724
-3.9445,0.7503261008096795,0.002089957690313421
-3.944,0.6436243522328531,0.2246193641988295
-3.9435,0.6116138276598051,0.383568940276341
-3.943,1.081101521397841,0.2034260873884947
-3.9425,1.529248865420512,-0.3687923864905467
-3.942,0.9210488985326017,-0.9304142219644207
-3.9415,-0.1352984123779797,-1.248313374119443
-3.941,-1.138294849000148,-1.354279758171118
-3.9405,-1.180975548430879,-0.718481453861072
-3.94,-1.138294849000148,-0.1568596183871981
-3.9395,-0.754168554123573,0.5955017083796896
-3.939,-0.1993194615240755,1.411442865577582
-3.9385,0.2168173579255475,1.962468062646288
-3.938,0.4835717293676135,2.290963853206479
-3.9375,0.5369226036560266,2.333350406827149
-3.937,0.5155822539406614,2.269770576396144
-3.9365,0.4622313796522482,2.259173937990977
-3.936,0.408880505363835,2.20619074596514
-3.9355,0.3448594562177392,1.994257977861791
-3.935,0.142126133921769,1.273686566310405
-3.9345,-0.6367966306890638,0.002089957690313421
-3.934,-1.565101843307454,-1.152943628472937
-3.9335,-2.312014083345239,-1.990078062481164
-3.933,-2.898873700517784,-2.477523429118866
-3.9325,-2.653459678791083,-2.392750321877526
-3.932,-1.501080794161358,-1.608599079895136
-3.9315,-0.4340633083930936,-0.8880276683437509
-3.931,0.3235191065023739,-0.5171453241628908
-3.9305,0.7609962756673623,-0.3899856633008816
-3.93,0.9103787236749192,-0.4217755785163839
-3.9295,0.974399772821015,-0.5489352393783931
-3.929,1.091771696255524,-0.6866915386455698
-3.9285,0.9957401225363802,-0.5277419625680583
-3.928,0.825017324813458,-0.2840192792492073
-3.9275,0.6863050516635838,-0.06148987274069118
-3.927,0.6009436528021226,0.1080563417419877
-3.9265,0.8997085488172365,0.1822328105781598
-3.926,1.550589215135878,0.2670059178194992
-3.9255,1.326515543124542,-0.2098428104130352
-3.925,0.3448594562177392,-0.6654982618352349
-3.9245,-0.690147504977477,-0.9304142219644207
-3.924,-1.170305373573196,-0.8350444763179138
-3.9235,-0.8928808272734472,-0.09327978795619347
-3.923,-0.5194247072545548,0.6908714540261965
-3.9225,-0.06060718837420119,1.453829419198252
-3.922,-0.423393133535411,1.284283204715573
-3.9215,-0.07127736323188383,1.739938656137773
-3.921,0.142126133921769,1.994257977861791
-3.9205,0.3341892813600565,2.174400830749637
-3.92,0.4515612047945656,2.333350406827149
-3.9195,0.408880505363835,2.269770576396144
-3.919,0.3875401556484697,2.100224361913465
-3.9185,0.2274875327832301,1.644568910491266
-3.918,-0.6367966306890638,0.4789386859228479
-3.9175,-1.714484291315011,-0.8032545611024114
-3.917,-2.536087755356574,-1.767548655972648
-3.9165,-2.984235099379245,-2.286783937825852
-3.916,-2.930884225090832,-2.498716705929201
-3.9155,-1.789175515318789,-1.84172512480882
-3.915,-0.5941159312583333,-1.05757388282643
-3.9145,0.2808384070716433,-0.5595318777835605
-3.914,0.7609962756673623,-0.3793890248957141
-3.9135,0.9317190733902845,-0.3899856633008816
-3.913,0.942389248247967,-0.5277419625680583
-3.9125,1.102441871113207,-0.7608680074817418
-3.912,1.070431346540159,-0.6337083466197325
-3.9115,0.8997085488172365,-0.3687923864905467
-3.911,0.7289857510943143,-0.1568596183871981
-3.9105,0.6116138276598051,-0.008506680714854012
-3.91,0.6969752265212663,0.08686306493165288
-3.9095,1.262494493978446,0.1292496185523226
-3.909,1.177133095116985,-0.2734226408440398
-3.9085,0.142126133921769,-0.8456411147230812
-3.908,-0.9142211769888124,-1.248313374119443
-3.9075,-1.287677297007705,-1.280103289334946
-3.907,-0.9675720512772257,-0.570128516188728
-3.9065,-0.423393133535411,0.4259554938970107
-3.906,0.04609456020262521,1.305476481525908
-3.9055,0.3448594562177392,1.898888232215284
-3.905,0.4942419042252961,2.237980661180642
-3.9045,0.4942419042252961,2.333350406827149
-3.904,0.4408910299368829,2.259173937990977
-3.9035,0.1527963087794516,1.962468062646288
-3.903,-0.2633405106701714,1.496215972818921
-3.9025,-0.08194753808956648,1.485619334413754
-3.902,0.07810508477567314,1.411442865577582
-3.9015,-0.274010685527854,1.029963882991555
-3.901,-1.234326422719292,-0.09327978795619347
-3.9005,-2.226652684483777,-1.333086481360783
-3.9,-2.824182476514005,-2.064254531317336
-3.8995,-2.792171951940957,-2.403346960282694
-3.899,-1.863866739322568,-1.937094870455327
-3.8985,-0.722158029550525,-1.237716735714276
-3.898,0.1314559590640864,-0.7078848154559045
-3.8975,0.6542945270905358,-0.3793890248957141
-3.897,0.8676980242441885,-0.3052125560595421
-3.8965,0.9103787236749192,-0.3793890248957141
-3.896,1.027750647109428,-0.6231117082145651
-3.8955,1.102441871113207,-0.6337083466197325
-3.895,1.006410297394063,-0.4323722169215513
-3.8945,0.8676980242441885,-0.1780528951975329
-3.894,0.7183155762366316,-0.008506680714854012
-3.8935,0.6542945270905358,0.07626642652648545
-3.893,1.091771696255524,0.1610395337678249
-3.8925,1.657290963712704,0.01268659609548085
-3.892,1.19847344483235,-0.6125150698093976
-3.8915,-0.02859666380115328,-1.184733543688439
-3.891,-1.180975548430879,-1.492036057438295
-3.8905,-1.490410619303675,-1.258910012524611
-3.89,-1.031593100423322,-0.3793890248957141
-3.8895,-0.423393133535411,0.6378882620003594
-3.889,0.0674349099179905,1.464426057603419
-3.8885,0.3661998059331045,1.983661339456623
-3.888,0.5155822539406614,2.248577299585809
-3.8875,0.5582629533713921,2.312157130016814
-3.887,0.5369226036560266,2.16380419234447
-3.8865,0.4835717293676135,2.100224361913465
-3.886,0.4195506802215176,2.07903108510313
-3.8855,0.3768699807907871,1.930678147430786
-3.885,0.05676473506030786,1.231300012689736
