Class_4_Move_right_hand_Horiszontal/Class_4_Move_right_hand_Horiszontal_Suko_12.csv

#Digilent WaveForms Oscilloscope Acquisition
#Device Name: EExplorer
#Serial Number: SN:210151A2B84A
#Date Time: 2021-02-04 11:07:05.062
#Sample rate: 2000Hz
#Samples: 16384
#Trigger: Source: Channel 1 Type: Edge Condition: Rising Level: 0 V Hyst.: Auto HoldOff: 0 s
#Channel 1: Range: 1 V/div Offset: 0 V Attenuation: 1 X
#Channel 2: Range: 1 V/div Offset: 0 V Attenuation: 1 X
#Power Supplies: ON
#Fixed Supply: ON
#Voltage: 3.3 V Readback: 3.327 V
#Positive Supply: ON
#Voltage: 3.7 V Readback: 3.711 V
#Current: 40 mA Readback: 19 mA
#Negative Supply: ON
#Voltage: -3.7 V Readback: -3.347 V
#Current: -40 mA Readback: -8 mA
#Reference 1: ON
#Voltage: 0 V
#Reference 2: ON
#Voltage: 0 V

Time (s),Channel 1 (V),Channel 2 (V)
-4.096,0.1741366584948169,-0.2416327256285375
-4.0955,0.152796308779471,-0.1992461720079064
-4.095,0.1314559590640572,-0.1356663415767861
-4.0945,0.09944543449103843,-0.05089323433552374
-4.094,0.07810508477569256,0.03387987290573861
-4.0935,0.01408403562918912,0.07626642652611922
-4.093,-0.4127229586777283,-0.326405832869877
-4.0925,-0.6901475049772248,-0.7714646458865044
-4.092,-0.79684925355409,-1.099960436447331
-4.0915,-0.5621054066852853,-1.354279758171118
-4.091,-0.007256314085787988,-1.280103289334946
-4.0905,0.4195506802216729,-0.9410108603691159
-4.09,0.5902734779444399,-0.4217755785163839
-4.0895,0.5689331282290746,0.2034260873884947
-4.089,0.4515612047946723,0.7120647308360688
-4.0885,0.3235191065023739,1.00877060618122
-4.088,0.3448594562177392,1.210106735879401
-4.0875,0.4729015545098144,1.294879843120663
-4.087,0.430220855079113,1.12533362863784
-4.0865,0.3341892813600565,0.8816109453192104
-4.086,0.248827882498673,0.637888262000581
-4.0855,0.1954770082101919,0.4365521323021492
-4.085,0.2061471830678648,0.4047622170866759
-4.0845,0.014084035629752,0.8710143069136189
-4.084,-0.6581369804049434,1.072350436611771
-4.0835,-1.223656247861609,0.5743084315693548
-4.083,-1.746494815888059,0.6802748156210291
-4.0825,-1.629122892453045,0.8286277532931419
-4.082,-1.074273799854052,0.5743084315693548
-4.0815,-0.5300948821122373,0.2458126410091644
-4.081,-0.1459685872360117,0.01268659609569286
-4.0805,0.0674349099179905,-0.1038764263613609
-4.08,0.1527963087794516,-0.1144730647665284
-4.0795,0.1741366584947975,-0.05089323433558157
-4.079,0.1527963087794225,0.04447651131108916
-4.0785,0.1207857842064037,0.1610395337678249
-4.078,0.09944543449105783,0.2776025562245606
-4.0775,0.07810508477566344,0.3941655786816048
-4.077,0.0674349099179905,0.5001319627331828
-4.0765,-0.2420001609545246,0.2564092794145534
-4.076,-0.5834457564008155,-0.2204394488185593
-4.0755,-0.7648387289812555,-0.6125150698093976
-4.075,-0.6154562809736985,-0.9622041371799229
-4.0745,0.03542438534536958,-1.099960436446946
-4.074,0.5049120790829789,-0.9304142219644207
-4.0735,0.707645401378949,-0.5489352393783931
-4.073,0.6863050516636032,0.03387987290528571
-4.0725,0.5369226036560266,0.5425185163538525
-4.072,0.3875401556484697,0.8392243916985406
-4.0715,0.3021787567870863,0.976980690965592
-4.071,0.38754015564846,1.061753798206941
-4.0705,0.3768699807907871,0.9345941373450475
-4.07,0.3235191065024224,0.701468092431576
-4.0695,0.2594980573562781,0.4789386859226841
-4.069,0.2594980573562781,0.2987958330350016
-4.0685,0.2701682322139607,0.1504428953626575
-4.068,0.00341386077126386,0.0974597033364059
-4.0675,-0.690147504977477,-0.3581957480853793
-4.067,-1.202315898146244,-0.9622041371799229
-4.0665,-1.565101843307813,-0.8032545611016115
-4.066,-1.959898313041711,0.07626642652648545
-4.0655,-1.661133417026597,0.5743084315693548
-4.065,-1.031593100423894,0.5001319627332503
-4.0645,-0.4767440078238243,0.2670059178194992
-4.064,-0.1032878878049318,0.04447651131098315
-4.0635,0.09944543449085405,-0.08268314955091038
-4.063,0.1741366584948266,-0.1144730647664898
-4.0625,0.1848068333524996,-0.07208651114585861
-4.062,0.1527963087794807,0.002089957690245961
-4.0615,0.1314559590640572,0.1186529801472516
-4.061,0.09944543449103843,0.2246193641988295
-4.0605,0.08877525963335578,0.3411823866556712
-4.06,-0.1246282375207143,0.2140227257932187
-4.0595,-0.5834457564006506,-0.2734226408440398
-4.059,-0.8608703027003992,-0.7078848154559045
-4.0585,-0.8715404775580723,-1.036380606015796
-4.058,-0.2526703358124887,-1.227120097309109
-4.0575,0.3341892813600565,-1.110557074852267
-4.057,0.6329541773748988,-0.7078848154562707
-4.0565,0.6756348768059011,-0.1886495336027004
-4.056,0.5689331282290746,0.3517790250608387
-4.0555,0.4195506802216535,0.7438546460516772
-4.055,0.3021787567870863,0.9451907757501379
-4.0545,0.3875401556484697,0.8604176685088755
-4.054,0.4408910299368344,0.7544512844572975
-4.0535,0.366199805933056,0.6802748156209906
-4.053,0.3128489316446912,0.6378882620003594
-4.0525,0.3235191065023739,0.627291623595192
-4.052,0.3021787567871833,0.5107286011385526
-4.0515,0.4942419042252961,0.7332580076468663
-4.051,0.2808384070716433,1.072350436612224
-4.0505,-0.4020527838194247,0.5213252395440188
-4.05,-0.9355615267041777,-0.2204394488182027
-4.0495,-0.9782422261349084,-0.3899856633008816
-4.049,-0.6794773301200661,-0.3475991096802504
-4.0485,-0.3380317346737169,-0.2628260024388145
-4.048,-0.08194753808956648,-0.1992461720078678
-4.0475,0.06743490991785464,-0.1568596183872366
-4.047,0.1314559590641058,-0.1356663415768536
-4.0465,0.1527963087794516,-0.1250697031716958
-4.046,0.1421261339217787,-0.1038764263613802
-4.0455,0.131455959064067,-0.06148987274065262
-4.045,0.1101156093487211,-0.01910331912002144
-4.0445,0.1101156093487211,0.03387987290581572
-4.044,0.0994454344909608,0.09745970333680104
-4.0435,0.01408403562957729,0.07626642652648545
-4.043,-0.4660738329661415,-0.3581957480853793
-4.0425,-0.754168554123311,-0.7396747306710599
-4.042,-0.9035510021311299,-1.089363798041932
-4.0415,-0.423393133535411,-1.417859588602123
-4.041,0.2488278824979839,-1.449649503817596
-4.0405,0.6329541773752579,-1.13175035166213
-4.04,0.7289857510943143,-0.6125150698093976
-4.0395,0.6329541773752579,0.002089957689754396
-4.039,0.472901554509795,0.5213252395437971
-4.0385,0.3235191065023739,0.8286277532933731
-4.038,0.3341892813600468,0.8816109453191622
-4.0375,0.4088805053638059,0.7862411996726553
-4.037,0.3768699807907871,0.7332580076468663
-4.0365,0.3021787567870086,0.6696781772158616
-4.036,0.2381577076408739,0.6060983467847704
-4.0355,0.1954770082101822,0.5107286011383502
-4.035,0.2061471830678648,0.457745409112513
-4.0345,-0.03926683865861269,0.2776025562248305
-4.034,-0.5407650569699201,-0.3899856633008816
-4.0335,-0.9782422261349084,-0.7820612842920766
-4.033,-1.522421143876228,-0.1462629799826088
-4.0325,-1.671803591883863,0.5531151547590393
-4.032,-1.212986073003927,0.5743084315693548
-4.0315,-0.6688071552626067,0.2881991946300944
-4.031,-0.2420001609545635,-0.008506680715046764
-4.0305,0.02475421048725994,-0.2204394488182027
-4.03,0.1421261339216622,-0.3158091944646229
-4.0295,0.1848068333524898,-0.3158091944646517
-4.029,0.1741366584948169,-0.252229364033705
-4.0285,0.1314559590640864,-0.1568596183871981
-4.028,0.08877525963334608,-0.04029659593023102
-4.0275,0.07810508477567314,0.09745970333682032
-4.027,0.05676473506030786,0.2140227257936621
-4.0265,-0.2526703358122073,0.002089957690506183
-4.026,-0.6261264558313813,-0.474758770542221
-4.0255,-0.754168554123573,-0.792657922697244
-4.025,-0.5407650569701141,-0.6337083466198771
-4.0245,-0.03926683865846715,-0.4323722169214357
-4.024,0.3661998059331045,-0.3052125560595421
-4.0235,0.5582629533712173,-0.08268314955122844
-4.023,0.5582629533713047,0.2670059178198269
-4.0225,0.4622313796522482,0.627291623595192
-4.022,0.3448594562178459,0.8816109453189791
-4.0215,0.2915085819293745,1.04056052139678
-4.021,0.3448594562177392,1.104140351827727
-4.0205,0.3128489316446912,1.061753798207057
-4.02,0.2915085819292969,0.9663840525604246
-4.0195,0.2594980573562781,0.8286277532933731
-4.019,0.2274875327832301,0.6802748156210291
-4.0185,0.1101156093488278,0.4683420475178732
-4.018,-0.4020527838200457,-0.1144730647665284
-4.0175,-1.010252750707956,-0.8774310299385835
-4.017,-1.341028171295817,-1.460246142222262
-4.0165,-1.575772018164855,-1.407262950196425
-4.016,-1.26633694729234,-0.8244478379127463
-4.0155,-0.7541685541240388,-0.4005823017064346
-4.015,-0.3166913849583226,-0.167456256792298
-4.0145,-0.02859666380115328,-0.09327978795619347
-4.014,0.1207857842062678,-0.09327978795619347
-4.0135,0.1741366584948266,-0.1356663415769017
-4.013,0.1848068333524996,-0.1780528951975329
-4.0125,0.1527963087794516,-0.1992461720078678
-4.012,0.131455959064067,-0.1992461720078486
-4.0115,0.1101156093487211,-0.1780528951975329
-4.011,0.08877525963335578,-0.1462629799820306
-4.0105,0.07810508477568284,-0.08268314955108387
-4.01,-0.03926683865883591,-0.1780528951975329
-4.0095,-0.3593720843893152,-0.6549016234300674
-4.009,-0.6367966306888115,-1.099960436446695
-4.0085,-0.8181896032693873,-1.205926820498475
-4.008,-0.5087545323968721,-0.8774310299385835
-4.0075,-0.04993701351693586,-0.5489352393786918
-4.007,0.2915085819294425,-0.1992461720074438
-4.0065,0.4195506802215176,0.2670059178194992
-4.006,0.408880505363835,0.6908714540261965
-4.0055,0.3448594562176809,0.9345941373451053
-4.005,0.2808384070716433,0.9981739677760521
-4.0045,0.3341892813600565,0.9451907757502149
-4.004,0.3341892813600177,0.9134008605346742
-4.0035,0.291508581929326,0.8710143069140429
-4.003,0.2381577076409128,0.7862411996727035
-4.0025,0.195477008210221,0.6908714540262832
-4.002,0.1954770082101822,0.6060983467848571
-4.0015,0.2061471830678648,0.8710143069140429
-4.001,-0.2846808603850902,1.072350436612041
-4.0005,-0.8288597781274096,0.4259554938964324
-4,-0.8928808272734472,-0.2098428104130352
-3.9995,-0.6261264558313813,-0.4323722169215513
-3.999,-0.3060212101009019,-0.4429688553267188
-3.9985,-0.07127736323188383,-0.3899856633008816
-3.998,0.07810508477567314,-0.3158091944647096
-3.9975,0.142126133921769,-0.2628260024388724
-3.997,0.1634664836371343,-0.2098428104130352
-3.9965,0.1527963087794516,-0.1674562567923655
-3.996,0.142126133921769,-0.1144730647665284
-3.9955,0.1314559590640864,-0.05089323433552374
-3.995,0.1207857842064037,0.02328323450064829
-3.9945,0.1101156093487211,0.1080563417419877
-3.994,0.09944543449103843,0.1928294489833272
-3.9935,0.05676473506030786,0.2458126410091644
-3.993,-0.391382608962363,-0.1462629799820306
-3.9925,-0.7861790786966207,-0.6972881770507372
-3.992,-0.8715404775580819,-1.089363798041932
-3.9915,-0.3487019095316325,-1.38606967338662
-3.991,0.3021787567870086,-1.38606967338662
-3.9905,0.6756348768059011,-1.046977244421262
-3.99,0.7609962756673623,-0.5171453241628908
-3.9895,0.6649647019482183,0.09745970333682032
-3.989,0.5049120790829789,0.5743084315693548
-3.9885,0.3555296310754218,0.849821030103708
-3.988,0.3661998059331045,0.9134008605347127
-3.9875,0.3982103305061524,0.8392243916985406
-3.987,0.3448594562177392,0.7438546460520338
-3.9865,0.3128489316446912,0.6696781772158616
-3.986,0.2701682322139607,0.55311515475902
-3.9855,0.2168173579255475,0.4153588554918433
-3.985,0.1848068333524996,0.4047622170866759
-3.9845,-0.07127736323188383,0.627291623595192
-3.984,-0.6794773301197943,0.13984625695749
-3.9835,-1.116954499284783,-0.3475991096802118
-3.983,-1.607782542738184,0.1186529801471552
-3.9825,-1.906547438753298,0.8074344764830383
-3.982,-1.447729919872945,0.8392243916985406
-3.9815,-0.839529952985034,0.5001319627331828
-3.981,-0.3273615598162672,0.1292496185523226
-3.9805,-0.01792648894347063,-0.1250697031716958
-3.98,0.142126133921769,-0.2416327256285375
-3.9795,0.1954770082101822,-0.252229364033705
-3.979,0.1848068333524996,-0.1886495336027004
-3.9785,0.1527963087794516,-0.09327978795619347
-3.978,0.1314559590640864,0.03387987290581572
-3.9775,0.1101156093487211,0.1610395337678249
-3.977,0.07810508477567314,0.2776025562246667
-3.9765,-0.2846808603855366,0.002089957690313421
-3.976,-0.6261264558313813,-0.4535654937318862
-3.9755,-0.839529952985034,-0.8244478379127463
-3.975,-0.6474668055467465,-1.046977244421262
-3.9745,-0.08194753808956648,-1.089363798041932
-3.974,0.3875401556484697,-0.8562377531282487
-3.9735,0.6009436528021226,-0.4111789401112165
-3.973,0.5902734779444399,0.1186529801471552
-3.9725,0.4835717293676135,0.5955017083796896
-3.972,0.3661998059331045,0.8922075837243778
-3.9715,0.3235191065023739,1.061753798207057
-3.971,0.3661998059331045,1.104140351827727
-3.9705,0.3235191065023739,0.9663840525605498
-3.97,0.2701682322139607,0.7544512844572011
-3.9695,0.2594980573562781,0.55311515475902
-3.969,0.2488278824985954,0.3623756634660061
-3.9685,0.2488278824985954,0.2458126410091644
-3.968,0.02475421048725994,0.6060983467848571
-3.9675,-0.6261264558313813,0.7226613692416989
-3.967,-1.052933450138687,0.06566978812131802
-3.9665,-1.052933450138687,-0.326405832869877
-3.966,-0.722158029550525,-0.3899856633008816
-3.9655,-0.3487019095316325,-0.3370024712750445
-3.965,-0.08194753808956648,-0.252229364033705
-3.9645,0.08877525963335578,-0.1780528951975329
-3.964,0.1527963087794516,-0.1144730647665284
-3.9635,0.1741366584948169,-0.06148987274069118
-3.963,0.1741366584948169,-0.008506680714854012
-3.9625,0.1527963087794516,0.04447651131098315
-3.962,0.1314559590640864,0.1080563417419877
-3.9615,0.09944543449103843,0.1610395337678249
-3.961,0.08877525963335578,0.2352160026039969
-3.9605,0.08877525963335578,0.309392471440169
-3.96,0.00341386077189465,0.1928294489833272
-3.9595,-0.3060212101009019,-0.3370024712750445
-3.959,-0.572775581542968,-0.7608680074817418
-3.9585,-0.7008176798351597,-1.131750351662602
-3.958,-0.2846808603855366,-1.333086481360783
-3.9575,0.2061471830678648,-1.237716735714276
-3.957,0.5049120790829789,-0.8986243067489184
-3.9565,0.5796033030867573,-0.3370024712750445
-3.956,0.5049120790829789,0.2352160026039969
-3.9555,0.3875401556484697,0.6060983467848571
-3.955,0.3128489316446912,0.7438546460520338
-3.9545,0.4835717293676135,0.5107286011383502
-3.954,0.5262524287983441,0.3729723018711736
-3.9535,0.4302208550792003,0.3729723018711736
-3.953,0.3448594562177392,0.4047622170866759
-3.9525,0.3555296310754218,0.5213252395435176
-3.952,0.3555296310754218,0.5425185163538525
-3.9515,0.4942419042252961,0.9134008605347127
-3.951,-0.06060718837420119,1.188913459069066
-3.9505,-0.754168554123573,0.5319218779486851
-3.95,-0.9462317015618604,-0.09327978795619347
-3.9495,-0.7008176798351597,-0.2946159176543747
-3.949,-0.3807124341046804,-0.2840192792492073
-3.9485,-0.1139580626626144,-0.1992461720078678
-3.948,0.05676473506030786,-0.1144730647665284
-3.9475,0.142126133921769,-0.05089323433552374
-3.947,0.1634664836371343,-0.008506680714854012
-3.9465,0.1634664836371343,0.03387987290581572
-3.946,0.1527963087794516,0.06566978812131802
-3.9455,0.1314559590640864,0.1080563417419877
-3.945,0.1207857842064037,0.1504428953626575
-3.9445,0.1101156093487211,0.2034260873884947
-3.944,0.09944543449103843,0.2458126410091644
-3.9435,-0.02859666380115328,0.13984625695749
-3.943,-0.5300948821122373,-0.400582301706049
-3.9425,-0.807519428411986,-0.8986243067489184
-3.942,-0.807519428411986,-1.258910012524611
-3.9415,-0.1459685872356623,-1.555615887869299
-3.941,0.5155822539406614,-1.587405803084801
-3.9405,0.8143471499557753,-1.152943628472937
-3.94,0.825017324813458,-0.5913217929990628
-3.9395,0.6756348768059011,0.01268659609548085
-3.939,0.4942419042252961,0.5107286011383502
-3.9385,0.3341892813600565,0.7968378380778709
-3.938,0.408880505363835,1.019367244586387
-3.9375,0.4835717293676135,1.061753798207057
-3.937,0.4195506802215176,0.8710143069140429
-3.9365,0.3235191065023739,0.6166949851900245
-3.936,0.2594980573562781,0.383568940276341
-3.9355,0.2168173579255475,0.2140227257936621
-3.935,0.1848068333524996,0.3729723018711736
-3.9345,-0.274010685527854,0.8180311148882058
-3.934,-1.020922925565639,0.4789386859228479
-3.9335,-1.639793067311232,0.01268659609548085
-3.933,-2.258663209056825,0.4259554938970107
-3.9325,-2.280003558772191,0.9134008605347127
-3.932,-1.46907026958831,0.8074344764830383
-3.9315,-0.754168554123573,0.4683420475176805
-3.931,-0.2420001609548061,0.1610395337678249
-3.9305,0.05676473506030786,-0.008506680714854012
-3.93,0.1954770082101822,-0.05089323433552374
-3.9295,0.2168173579255475,0.002089957690313421
-3.929,0.2061471830678648,0.1186529801471552
-3.9285,0.1634664836371343,0.2352160026039969
-3.928,0.1314559590640864,0.3729723018711736
-3.9275,0.1101156093487211,0.5001319627331828
-3.927,0.08877525963335578,0.5955017083796896
-3.9265,-0.1673089369510276,0.3623756634660061
-3.926,-0.3487019095316325,0.1610395337678249
-3.9255,-0.4020527838200457,0.02328323450064829
-3.925,-0.1032878878049318,-0.2416327256285375
-3.9245,0.825017324813458,-0.6549016234300674
-3.924,1.454557641416734,-0.9410108603695881
-3.9235,1.497238340847464,-0.9198175835592532
-3.923,1.209143619690033,-0.6019184314042303
-3.9225,0.825017324813458,-0.1038764263613609
-3.922,0.4942419042252961,0.3517790250608387
-3.9215,0.3661998059331045,0.6378882620003594
-3.921,0.4195506802215176,0.7650479228623686
-3.9205,0.3768699807907871,0.7226613692416989
-3.92,0.3021787567870086,0.5955017083796896
-3.9195,0.2381577076409128,0.4259554938970107
-3.919,0.1954770082101822,0.2458126410091644
-3.9185,0.1527963087794516,0.1504428953626575
-3.918,-0.2633405106701714,0.2458126410091644
-3.9175,-0.9248913518464952,-0.252229364033705
-3.917,-1.277007122150022,-0.7502713690765743
-3.9165,-1.703814116457328,-0.2416327256285375
-3.916,-1.981238662757077,0.5743084315693548
-3.9155,-1.490410619303675,0.7332580076468663
-3.915,-0.8502001278427167,0.457745409112513
-3.9145,-0.3380317346739499,0.1186529801471552
-3.914,-0.007256314085787988,-0.1356663415768632
-3.9135,0.1527963087794516,-0.2416327256285375
-3.913,0.2061471830678648,-0.252229364033705
-3.9125,0.1954770082101822,-0.1886495336027004
-3.912,0.1741366584948169,-0.08268314955102604
-3.9115,0.142126133921769,0.05507314971615059
-3.911,0.1101156093487211,0.1822328105781598
-3.9105,0.08877525963335578,0.309392471440169
-3.91,-0.09261771294724913,0.1716361721729923
-3.9095,-0.391382608962363,-0.2098428104130352
-3.909,-0.6154562809736985,-0.5383386009732256
-3.9085,-0.6688071552621118,-0.8562377531282487
-3.908,-0.2099896363817582,-0.9622041371799229
-3.9075,0.2274875327832301,-0.7502713690765743
-3.907,0.5155822539406614,-0.4217755785163839
-3.9065,0.5796033030867573,0.01268659609548085
-3.906,0.5049120790829789,0.5001319627331828
-3.9055,0.3875401556484697,0.8604176685088755
-3.905,0.3128489316446912,0.9981739677760521
-3.9045,0.3768699807907871,0.9345941373450475
-3.904,0.3661998059331045,0.8604176685088755
-3.9035,0.291508581929326,0.7438546460520338
-3.903,0.2381577076409128,0.6060983467848571
-3.9025,0.2061471830678648,0.4471487707073456
-3.902,0.2061471830678648,0.2881991946298341
-3.9015,0.4515612047945656,0.5107286011383502
-3.901,0.3235191065023739,0.5743084315693548
-3.9005,-0.2846808603855366,-0.1144730647665284
-3.9,-1.031593100423322,-0.474758770542221
-3.8995,-1.383708870726849,-0.02969995752518888
-3.899,-1.1062843244271,0.1504428953626575
-3.8985,-0.6474668055467465,0.08686306493165288
-3.898,-0.2526703358124887,-0.05089323433552374
-3.8975,0.00341386077189465,-0.1674562567923655
-3.897,0.142126133921769,-0.2416327256285375
-3.8965,0.1848068333524996,-0.2628260024388724
-3.896,0.1741366584948169,-0.2416327256285375
-3.8955,0.1527963087794516,-0.1886495336027004
-3.895,0.1207857842064037,-0.1144730647665284
-3.8945,0.08877525963335578,-0.04029659593035631
-3.894,0.07810508477567314,0.06566978812131802
-3.8935,0.01408403562957729,0.06566978812131802
-3.893,-0.423393133535411,-0.3687923864905467
-3.8925,-0.7755089038389382,-0.8562377531282487
-3.892,-0.9462317015618604,-1.110557074852267
-3.8915,-0.6047861061160158,-0.9092209451540858
-3.891,-0.06060718837420119,-0.6972881770507372
-3.8905,0.3341892813600565,-0.400582301706049
-3.89,0.5049120790829789,-0.01910331912002144
-3.8895,0.4942419042252961,0.4259554938970107
-3.889,0.4195506802215176,0.7650479228623686
-3.8885,0.3235191065023739,0.9557874141553824
-3.888,0.408880505363835,1.051157159801889
