Class_4_Move_right_hand_Horiszontal/Class_4_Move_right_hand_Horiszontal_AM_5.csv

#Digilent WaveForms Oscilloscope Acquisition
#Device Name: EExplorer
#Serial Number: SN:210151A2B84A
#Date Time: 2020-11-24 16:09:46.640
#Sample rate: 2000Hz
#Samples: 16384
#Trigger: Source: Channel 1 Type: Edge Condition: Rising Level: 0 V Hyst.: Auto HoldOff: 0 s
#Channel 1: Range: 1 V/div Offset: 0 V Attenuation: 1 X
#Channel 2: Range: 1 V/div Offset: 0 V Attenuation: 1 X
#Power Supplies: ON
#Fixed Supply: ON
#Voltage: 3.3 V Readback: 3.324 V
#Positive Supply: ON
#Voltage: 3.7 V Readback: 3.703 V
#Current: 40 mA Readback: 22 mA
#Negative Supply: ON
#Voltage: -3.7 V Readback: -3.341 V
#Current: -40 mA Readback: -5 mA
#Reference 1: ON
#Voltage: 0 V
#Reference 2: ON
#Voltage: 0 V

Time (s),Channel 1 (V),Channel 2 (V)
-4.096,0.942389248247967,-0.2734226408440398
-4.0955,0.8997085488172754,0.08686306493132523
-4.095,0.7930068002402451,0.3623756634660447
-4.0945,0.6116138276598051,0.4047622170866759
-4.094,0.4408910299370382,0.3517790250608869
-4.0935,0.3875401556488385,0.3411823866559797
-4.093,0.79300680024041,0.6802748156210291
-4.0925,0.6649647019483348,0.4577454091127154
-4.092,0.01408403562875241,-0.1250697031721391
-4.0915,-0.8928808272734472,-0.6125150698093976
-4.091,-1.714484291315011,-0.9092209451540858
-4.0905,-2.429386006779796,-0.9728007755849458
-4.09,-2.482736881068161,-0.8138511995075789
-4.0895,-1.735824641030376,-0.3581957480853793
-4.089,-0.8928808272742138,0.351779025060193
-4.0885,-0.2846808603855366,1.114736990232894
-4.088,0.07810508477567314,1.697552102517103
-4.0875,0.2381577076407672,1.983661339456363
-4.087,0.2701682322139413,2.068434446697895
-4.0865,0.2488278824985954,1.994257977861791
-4.086,0.2274875327832495,1.761131932948319
-4.0855,0.1954770082098813,1.475022696008201
-4.085,-0.1352984123779797,1.051157159801889
-4.0845,-0.6794773301192993,0.1928294489841078
-4.084,-0.9142211769888221,-0.6337083466202722
-4.0835,-0.9248913518464952,-1.227120097309109
-4.083,-0.4340633083930936,-1.205926820498774
-4.0825,0.3982103305067832,-0.930414221964228
-4.082,1.091771696255524,-0.718481453861072
-4.0815,1.433217291701369,-0.6337083466197325
-4.081,1.486568165989733,-0.5489352393784701
-4.0805,1.305175193409177,-0.4111789401112165
-4.08,1.017080472251745,-0.2840192792492073
-4.0795,0.9103787236750163,-0.2840192792492073
-4.079,0.8143471499558044,-0.0614898727402864
-4.0785,0.8463576745288233,0.383568940276341
-4.078,0.7609962756674399,0.8074344764826529
-4.0775,0.6649647019480728,0.9875773293708077
-4.077,0.5049120790829789,0.9028042221295453
-4.0765,-0.01792648894299509,0.44714877070776
-4.076,-0.7755089038393749,-0.1780528951980052
-4.0755,-1.255666772434657,-0.6972881770507372
-4.075,-1.725154466172693,-0.8562377531282487
-4.0745,-2.290673733630087,-0.8668343915333198
-4.074,-2.525417580498891,-0.7608680074817418
-4.0735,-2.525417580498891,-0.5807251545938954
-4.073,-2.226652684484049,-0.3264058328701083
-4.0725,-1.277007122150022,0.09745970333682032
-4.072,-0.5514352318276028,0.6696781772158616
-4.0715,-0.07127736323232053,1.25249328949954
-4.071,0.1848068333525772,1.50681261122405
-4.0705,0.2701682322139607,1.464426057603419
-4.07,0.2701682322139607,1.178316820664159
-4.0695,0.2488278824985663,1.072350436612137
-4.069,0.2168173579255475,0.9769806909657173
-4.0685,0.05676473506030786,0.7120647308365314
-4.068,-0.4554036581087889,0.08686306493100716
-4.0675,-0.8181896032696687,-0.6231117082145651
-4.067,-1.020922925565639,-1.089363798041932
-4.0665,-0.732828204407373,-1.269506650929672
-4.066,0.1848068333524996,-1.152943628472937
-4.0655,0.9957401225363802,-0.7820612842920766
-4.065,1.454557641416317,-0.5595318777837629
-4.0645,1.582599739708926,-0.5065486857577234
-4.064,1.454557641416734,-0.6019184314042303
-4.0635,1.166462920259564,-0.7078848154558082
-4.063,1.017080472251775,-0.7820612842918645
-4.0625,1.049090996824793,-0.5489352393783931
-4.062,0.9637295979634101,-0.09327978795660785
-4.0615,0.7823366253825625,0.2246193641990801
-4.061,0.6009436528021226,0.5001319627331828
-4.0605,0.4515612047945656,0.55311515475902
-4.06,0.1848068333519367,0.4789386859223564
-4.0595,-0.4340633083930936,-0.06148987274069118
-4.059,-0.8608703027003992,-0.6866915386455698
-4.0585,-1.341028171295682,-1.121153713257039
-4.058,-1.917217613610981,-1.280103289334946
-4.0575,-2.450726356495113,-1.142346990067769
-4.057,-2.525417580498823,-0.8880276683439823
-4.0565,-2.472066706210478,-0.6125150698093976
-4.056,-1.693143941599645,-0.2840192792492073
-4.0555,-0.8502001278434833,0.1928294489828935
-4.055,-0.2420001609544956,0.7650479228627058
-4.0545,0.09944543449103843,1.135930267043229
-4.054,0.2381577076407866,1.241896651094807
-4.0535,0.2808384070716336,1.379652950362244
-4.053,0.2701682322139607,1.559795803249926
-4.0525,0.2488278824985954,1.6657621873016
-4.052,0.2061471830675252,1.453829419197751
-4.0515,-0.1673089369510276,0.9028042221295453
-4.051,-0.6047861061160158,0.2140227257936621
-4.0505,-0.8075194284118016,-0.5277419625673836
-4.05,-0.7114878546928423,-1.004590690800593
-4.0495,0.00341386077189465,-1.34368311976595
-4.049,0.7609962756666733,-1.184733543688584
-4.0485,1.283834843693996,-0.8350444763176054
-4.048,1.486568165989782,-0.4959520473525559
-4.0475,1.411876941986071,-0.3052125560597156
-4.047,1.145122570543704,-0.3264058328699252
-4.0465,0.8890383739595538,-0.3793890248957141
-4.046,0.8463576745288621,-0.2946159176544518
-4.0455,0.6863050516634479,0.1398462569577984
-4.045,0.5369226036560266,0.4789386859228479
-4.0445,0.3982103305061524,0.5743084315693548
-4.044,0.3128489316445845,0.7650479228626962
-4.0435,0.1954770082101822,1.125333628638062
-4.043,-0.1993194615240755,1.263089927905238
-4.0425,-0.8502001278421247,0.5637117931648234
-4.042,-1.191645723288561,-0.2734226408440398
-4.0415,-1.618452717595867,-0.8562377531282487
-4.041,-2.17330181019486,-1.08936379804172
-4.0405,-2.504077230783468,-1.025783967610696
-4.04,-2.44005618163743,-0.7714646458869092
-4.0395,-1.629122892454287,-0.2734226408444928
-4.039,-0.8181896032691349,0.4683420475183648
-4.0385,-0.2313299860971235,1.220703374284568
-4.038,0.1101156093484105,1.729342017732142
-4.0375,0.2488278824986148,1.814115124974031
-4.037,0.2701682322139607,1.909484870620451
-4.0365,0.2594980573562781,1.909484870620451
-4.036,0.2381577076408739,1.697552102516871
-4.0355,0.1954770082101822,1.443232780793084
-4.035,-0.1139580626626144,0.9663840525605498
-4.0345,-0.5621054066848777,0.1186529801479262
-4.034,-0.8288597781273515,-0.6760949002404023
-4.0335,-1.06360362499637,-1.322489842955616
-4.033,-0.4980843575397039,-1.73575874075677
-4.0325,0.4515612047952255,-1.640388995110205
-4.032,1.177133095116985,-1.163540266878104
-4.0315,1.539919040277865,-0.6866915386460035
-4.031,1.561259389993376,-0.5171453241628426
-4.0305,1.35852606769759,-0.4641621321370536
-4.03,1.049090996825075,-0.4535654937318959
-4.0295,0.9317190733901584,-0.5065486857575499
-4.029,0.79300680024041,-0.3158091944647096
-4.0285,0.6116138276598051,-0.07208651114585861
-4.028,0.4515612047944491,0.1398462569576346
-4.0275,0.3235191065023739,0.2987958330350016
-4.027,0.2168173579255475,0.3517790250608387
-4.0265,0.01408403562976168,0.6802748156207303
-4.026,-0.3273615598162672,0.4259554938970107
-4.0255,-0.8502001278427167,-0.2098428104130352
-4.025,-1.362368521011018,-0.6125150698090315
-4.0245,-1.949228138184495,-0.8456411147231006
-4.024,-2.461396531352796,-0.8668343915334161
-4.0235,-2.493407055925814,-0.7290780922663647
-4.023,-1.853196564464089,-0.3475991096795951
-4.0225,-0.9782422261349084,0.3305857482505039
-4.022,-0.3380317346745322,1.104140351827023
-4.0215,0.05676473506048254,1.739938656138071
-4.021,0.2488278824985954,2.068434446697963
-4.0205,0.291508581929326,2.184997469154805
-4.02,0.2808384070716142,2.163804192344007
-4.0195,0.2488278824985954,1.655165548896433
-4.019,0.2274875327832301,0.7438546460520338
-4.0185,0.05676473506046312,0.06566978812193491
-4.018,-0.5087545323968721,-0.4535654937318862
-4.0175,-0.8928808272734472,-1.004590690800593
-4.017,-1.127624674142252,-1.492036057437852
-4.0165,-0.6154562809726505,-1.767548655972571
-4.016,0.5369226036560266,-1.682775548731308
-4.0155,1.411876941985208,-1.09996043644763
-4.015,1.817343586577983,-0.6019184314039797
-4.0145,1.860024286008674,-0.326405832869877
-4.014,1.635950613997543,-0.2522293640337724
-4.0135,1.273164668835915,-0.2840192792493711
-4.013,1.038420821967111,-0.4641621321370536
-4.0125,0.942389248247967,-0.5277419625680583
-4.012,0.707645401378755,-0.05089323433503223
-4.0115,0.4942419042252961,0.4895353243280153
-4.011,0.3555296310754218,0.6908714540261965
-4.0105,0.2701682322140383,0.7332580076468278
-4.01,0.05676473506030786,0.7968378380778709
-4.0095,-0.572775581542968,0.9345941373450475
-4.009,-1.095614149568942,0.4047622170871576
-4.0085,-1.511750969019506,-0.347599109680713
-4.008,-2.023919362187807,-0.8986243067489184
-4.0075,-2.47206670621007,-1.142346990067548
-4.007,-2.514747405641121,-1.110557074852065
-4.0065,-2.418715831922065,-0.8880276683437509
-4.006,-1.565101843307454,-0.4853554089473885
-4.0055,-0.7434983792653759,0.08686306493225042
-4.005,-0.1779791118087102,0.7438546460520338
-4.0045,0.1314559590640864,1.104140351827727
-4.004,0.2701682322139704,1.178316820664014
-4.0035,0.2808384070716433,1.305476481525908
-4.003,0.2701682322139607,1.104140351827727
-4.0025,0.2381577076409419,0.6802748156214147
-4.002,0.1527963087794516,0.1292496185523226
-4.0015,-0.3487019095316325,-0.4217755785163839
-4.001,-0.7755089038385501,-0.983397413989747
-4.0005,-0.9782422261348016,-1.428456227007386
-4,-0.8608703027003992,-1.534422611058964
-3.9995,-0.1352984123779797,-1.449649503817625
-3.999,0.6863050516635838,-1.110557074852267
-3.9985,1.241154144263081,-0.7714646458869092
-3.998,1.475897991132099,-0.5913217929990628
-3.9975,1.443887466559051,-0.4959520473525559
-3.997,1.19847344483235,-0.4217755785163839
-3.9965,0.9637295979633325,-0.4853554089473885
-3.996,0.8997085488172365,-0.6019184314042303
-3.9955,0.79300680024041,-0.3370024712750445
-3.995,0.6969752265212663,0.08686306493165288
-3.9945,0.5475927785137094,0.2987958330350016
-3.994,0.3982103305061524,0.3729723018711736
-3.9935,0.3235191065023739,0.4365521323021782
-3.993,-0.1673089369510276,0.04447651131098315
-3.9925,-0.7114878546928423,-0.5595318777835605
-3.992,-1.084943974711735,-0.8774310299385835
-3.9915,-1.479740444445993,-0.8456411147230812
-3.991,-1.991908837614759,-0.7820612842920766
-3.9905,-2.450726356495113,-0.6866915386455698
-3.99,-2.418715831922065,-0.5489352393783931
-3.9895,-1.629122892453549,-0.2946159176543747
-3.989,-0.8181896032696687,0.13984625695749
-3.9885,-0.2313299860971235,0.7120647308365314
-3.988,0.1101156093487211,1.146526905448396
-3.9875,0.2594980573562781,0.9875773293708847
-3.987,0.291508581929326,0.5637117931641874
-3.9865,0.291508581929326,0.3517790250608387
-3.986,0.2594980573562781,0.4789386859228479
-3.9855,0.2381577076409128,0.5425185163538525
-3.985,0.03542438534494258,0.1504428953626575
-3.9845,-0.3807124341046804,-0.4959520473525559
-3.984,-0.6367966306890638,-1.0999604364471
-3.9835,-0.8502001278427167,-1.598002441489969
-3.983,-0.2420001609548061,-1.778145294377815
-3.9825,0.6329541773751706,-1.778145294377815
-3.982,1.283834843693812,-1.47084278062796
-3.9815,1.582599739708926,-0.8880276683437509
-3.981,1.582599739708926,-0.5489352393783931
-3.9805,1.369196242555273,-0.3581957480853793
-3.98,1.081101521397841,-0.326405832869877
-3.9795,1.006410297394063,-0.4535654937318862
-3.979,0.8890383739595538,-0.3158091944647096
-3.9785,0.7716664505250448,0.04447651131098315
-3.978,0.6649647019482183,0.3305857482505039
-3.9775,0.5155822539406614,0.4365521323021782
-3.977,0.3661998059331045,0.4153588554918433
-3.9765,-0.1886492866663929,-0.05089323433552374
-3.976,-0.839529952985034,-0.6443049850249
-3.9755,-1.319687821580753,-1.046977244421262
-3.975,-1.746494815888059,-1.036380606016095
-3.9745,-2.269333383914508,-1.01518732920576
-3.974,-2.504077230783526,-0.9410108603695881
-3.9735,-2.504077230783526,-0.792657922697244
-3.973,-2.119950935906951,-0.5065486857577234
-3.9725,-1.170305373573196,0.08686306493165288
-3.972,-0.4660738329661415,0.8074344764830383
-3.9715,-0.007256314085787988,1.42203950398275
-3.971,0.2168173579255475,1.538602526439591
-3.9705,0.3021787567870086,1.570392441655093
-3.97,0.291508581929326,1.644568910491266
-3.9695,0.2594980573562781,1.210106735879401
-3.969,0.2381577076409128,0.457745409112513
-3.9685,0.03542438534494258,-0.252229364033705
-3.968,-0.4874141826815069,-0.8668343915334161
-3.9675,-0.7861790786966207,-1.396666311791788
-3.967,-0.9248913518464952,-1.693372187136476
-3.9665,-0.4874141826815069,-1.735758740757146
-3.966,0.3555296310754218,-1.629792356705471
-3.9655,1.070431346540159,-1.174136905283272
-3.965,1.475897991132099,-0.6760949002404023
-3.9645,1.56125938999356,-0.3899856633008816
-3.964,1.411876941986003,-0.252229364033705
-3.9635,1.113112045970889,-0.1886495336027004
-3.963,0.9530594231056497,-0.2204394488182027
-3.9625,0.8890383739595538,0.05507314971615059
-3.962,0.6863050516635838,0.3729723018711736
-3.9615,0.5049120790829789,0.5213252395435176
-3.961,0.3875401556484697,0.6802748156210291
-3.9605,0.3341892813600565,0.8074344764830383
-3.96,0.1101156093487211,0.6696781772158616
-3.9595,-0.5621054066852853,0.5001319627331828
-3.959,-1.052933450138687,-0.09327978795619347
-3.9585,-1.415719395299897,-0.5277419625680583
-3.958,-1.885207089037933,-0.792657922697244
-3.9575,-2.386705307349017,-0.8880276683437509
-3.957,-2.482736881068161,-0.8138511995075789
-3.9565,-2.03458953704549,-0.5171453241628908
-3.956,-1.127624674142465,0.1186529801471552
-3.9555,-0.4340633083930936,0.9134008605347127
-3.955,0.00341386077189465,1.570392441655093
-3.9545,0.2274875327832301,1.856501678594614
-3.954,0.3021787567870086,1.930678147430786
-3.9535,0.291508581929326,1.644568910491266
-3.953,0.2594980573562781,0.92399749893988
-3.9525,0.2381577076409128,0.1928294489833272
-3.952,0.1527963087794516,-0.326405832869877
-3.9515,-0.3166913849585846,-0.5807251545938954
-3.951,-0.7008176798351597,-0.9833974139902578
-3.9505,-0.9248913518464952,-1.333086481360783
-3.95,-0.9569018764195432,-1.439052865412457
-3.9495,-0.1459685872356623,-1.121153713257435
-3.949,0.7716664505250448,-0.6549016234300674
-3.9485,1.390536592270638,-0.3370024712750445
-3.948,1.635950613997339,-0.2628260024388724
-3.9475,1.571929564851243,-0.326405832869877
-3.947,1.315845368266859,-0.4111789401112165
-3.9465,1.070431346540159,-0.5277419625680583
-3.946,1.049090996824793,-0.4959520473525559
-3.9455,0.9637295979633325,-0.08268314955102604
-3.945,0.7716664505250448,0.2776025562246667
-3.9445,0.5796033030867573,0.3941655786815084
-3.944,0.408880505363835,0.4365521323021782
-3.9435,0.4515612047945656,0.4895353243280153
-3.943,0.6649647019482183,0.5955017083796896
-3.9425,0.1527963087794516,0.08686306493165288
-3.942,-0.7434983792658902,-0.5171453241628908
-3.9415,-1.586442193022819,-0.9092209451540858
-3.941,-2.333354433060604,-1.004590690800593
-3.9405,-2.504077230783526,-0.8668343915334161
-3.94,-2.482736881068161,-0.6231117082145651
-3.9395,-1.810515865034154,-0.1674562567923655
-3.939,-0.9142211769888124,0.55311515475902
-3.9385,-0.2846808603855366,1.29487984312074
-3.938,0.09944543449103843,1.782325209758442
-3.9375,0.2701682322139607,1.951871424241121
-3.937,0.3021787567870086,1.845905040189447
-3.9365,0.2808384070716433,1.178316820663898
-3.936,0.2594980573562781,0.5743084315693548
-3.9355,0.2168173579255475,0.03387987290581572
-3.935,-0.1459685872356623,-0.3687923864905467
-3.9345,-0.5941159312583333,-0.8350444763179138
-3.934,-0.807519428411986,-1.290699927740113
-3.9335,-0.754168554123573,-1.492036057438295
-3.933,-0.1139580626626144,-1.640388995110639
-3.9325,0.6969752265212663,-1.396666311791788
-3.932,1.283834843693812,-0.9728007755850904
-3.9315,1.56125938999356,-0.6231117082145651
-3.931,1.539919040278195,-0.4535654937318862
-3.9305,1.326515543124542,-0.326405832869877
-3.93,1.038420821967111,-0.3052125560595421
-3.9295,0.974399772821015,-0.4111789401112165
-3.929,0.857027849386506,-0.1568596183871981
-3.9285,0.6436243522328531,0.04447651131098315
-3.928,0.4729015545099309,0.2140227257936621
-3.9275,0.3661998059331045,0.2776025562246667
-3.927,0.2594980573562781,0.2881991946298341
-3.9265,-0.2313299860971235,0.5213252395435176
-3.926,-0.8288597781273515,0.4153588554918433
-3.9255,-1.074273799854052,-0.1886495336027004
-3.925,-1.426389570157579,-0.7290780922662394
-3.9245,-1.938557963326346,-1.025783967610927
-3.924,-2.429386006779747,-1.025783967610927
-3.9235,-2.493407055925843,-0.8456411147230812
-3.923,-2.07727023647622,-0.5277419625680583
-3.9225,-1.148965023857831,0.03387987290581572
-3.922,-0.4554036581084589,0.7332580076468663
-3.9215,0.00341386077189465,1.37965295036208
-3.921,0.2274875327832301,1.6657621873016
-3.9205,0.291508581929326,1.835308401784279
-3.92,0.2808384070716433,1.920081509025619
-3.9195,0.2594980573562781,1.898888232215284
-3.919,0.2381577076409128,1.70814874092227
-3.9185,0.01408403562957729,1.210106735879401
-3.918,-0.4874141826815069,0.3729723018711736
-3.9175,-0.754168554123573,-0.4641621321370536
-3.917,-0.9142211769888124,-1.025783967610927
-3.9165,-0.572775581542968,-1.417859588602123
-3.916,0.2701682322139607,-1.555615887869299
-3.9155,0.9957401225363802,-1.248313374119443
-3.915,1.411876941986003,-0.8880276683437509
-3.9145,1.507908515705147,-0.6866915386455698
-3.914,1.347855892839907,-0.5807251545938954
-3.9135,1.059761171682476,-0.5807251545938954
-3.913,0.9317190733902845,-0.718481453861072
-3.9125,0.8890383739595538,-0.718481453861072
-3.912,0.7183155762366316,-0.3899856633008816
-3.9115,0.5369226036560266,0.03387987290581572
-3.911,0.3982103305061524,0.2670059178194992
-3.9105,0.3235191065023739,0.4259554938970107
-3.91,0.08877525963335578,0.4471487707073456
-3.9095,-0.4980843575391895,-0.06148987274069118
-3.909,-0.8822106524157645,-0.6760949002404023
-3.9085,-1.180975548430879,-0.9939940523954253
-3.908,-1.650463242168915,-1.110557074852267
-3.9075,-2.205312334768412,-1.068170521231597
-3.907,-2.482736881068161,-0.8986243067489184
-3.9065,-2.23732285934146,-0.6231117082145651
-3.906,-1.319687821580753,-0.06148987274069118
-3.9055,-0.572775581542968,0.6696781772158616
-3.905,-0.07127736323188383,1.316073119931075
-3.9045,0.1954770082101822,1.633972272086098
-3.904,0.2808384070716433,1.400846227172415
-3.9035,0.291508581929326,0.9663840525605498
-3.903,0.2808384070716433,0.8710143069140429
-3.9025,0.2594980573562781,0.627291623595192
-3.902,0.2168173579255475,0.4153588554918433
-3.9015,-0.1459685872356623,-0.04029659593035631
-3.901,-0.4980843575391895,-0.6654982618352349
-3.9005,-0.7755089038389382,-1.216523458903942
-3.9,-0.658136980404429,-1.650985633515806
-3.8995,0.3128489316446912,-1.746355379162313
-3.899,1.187803269974668,-1.407262950196955
-3.8985,1.657290963712704,-0.7820612842920766
-3.898,1.76399271228953,-0.3793890248957141
-3.8975,1.614610264281974,-0.2098428104130352
-3.897,1.283834843693812,-0.1992461720078678
-3.8965,1.017080472251745,-0.3793890248957141
-3.896,0.9850699476786977,-0.5065486857577234
-3.8955,0.79300680024041,-0.1144730647665284
-3.895,0.6329541773751706,0.3411823866556712
-3.8945,0.4942419042252961,0.6060983467848571
-3.894,0.4408910299368829,0.6590815388106942
-3.8935,0.2701682322139607,0.457745409112513
-3.893,-0.3273615598162672,-0.02969995752518888
-3.8925,-0.7648387289812555,-0.6337083466197325
-3.892,-1.042263275281004,-1.110557074852267
-3.8915,-1.522421143876723,-1.364876396576285
-3.891,-2.098610586191586,-1.34368311976595
-3.8905,-2.472066706210478,-1.152943628472937
-3.89,-2.408045657064382,-0.8986243067489184
-3.8895,-1.597112367880501,-0.5277419625680583
-3.889,-0.7755089038389382,0.002089957690313421
-3.8885,-0.1993194615240755,0.6378882620003594
-3.888,0.142126133921769,1.072350436612224
-3.8875,0.2808384070716433,1.135930267043229
-3.887,0.3021787567870086,1.29487984312074
-3.8865,0.2808384070716433,1.475022696008586
-3.886,0.2594980573562781,1.517409249629256
-3.8855,0.2061471830678648,1.326669758336243
