Class_4_Move_right_hand_Horiszontal/Class_4_Move_right_hand_Horiszontal_SH_3.csv

#Digilent WaveForms Oscilloscope Acquisition
#Device Name: EExplorer
#Serial Number: SN:210151A2B84A
#Date Time: 2020-12-03 11:48:36.157
#Sample rate: 2000Hz
#Samples: 16384
#Trigger: Source: Channel 1 Type: Edge Condition: Rising Level: 0 V Hyst.: Auto HoldOff: 0 s
#Channel 1: Range: 1 V/div Offset: 0 V Attenuation: 1 X
#Channel 2: Range: 1 V/div Offset: 0 V Attenuation: 1 X
#Power Supplies: ON
#Fixed Supply: ON
#Voltage: 3.3 V Readback: 3.317 V
#Positive Supply: ON
#Voltage: 3.7 V Readback: 3.453 V
#Current: 40 mA Readback: 14 mA
#Negative Supply: ON
#Voltage: -3.7 V Readback: -4.308 V
#Current: -40 mA Readback: -11 mA
#Reference 1: ON
#Voltage: 0 V
#Reference 2: ON
#Voltage: 0 V

Time (s),Channel 1 (V),Channel 2 (V)
-4.096,0.6329541773751706,0.1610395337678249
-4.0955,0.7930068002402645,0.3517790250606652
-4.095,1.347855892839684,0.9028042221293525
-4.0945,1.102441871113207,0.6908714540261965
-4.094,-0.007256314084778781,-0.2522293640328472
-4.0935,-1.255666772434608,-1.37547303498126
-4.093,-1.202315898146244,-1.163540266878104
-4.0925,-0.7755089038393264,-0.5489352393789521
-4.092,-0.2740106855274367,0.1398462569580297
-4.0915,0.1848068333524996,0.7332580076468663
-4.091,0.3875401556484697,1.029963882991555
-4.0905,0.4515612047945753,1.146526905448444
-4.09,0.4622313796522482,1.199510097474233
-4.0895,0.4622313796522482,1.199510097474233
-4.089,0.4408910299369024,1.199510097474233
-4.0885,0.4195506802215176,1.199510097474233
-4.088,0.3982103305061524,1.220703374284568
-4.0875,0.291508581929423,1.178316820663937
-4.087,-0.4127229586784659,0.4789386859218552
-4.0865,-1.223656247861609,-0.6125150698093976
-4.086,-1.778505340460602,-1.534422611058126
-4.0855,-1.906547438752764,-1.735758740756606
-4.085,-1.319687821580753,-1.142346990067769
-4.0845,-0.5514352318283016,-0.4535654937325126
-4.084,0.0781050847760225,0.03387987290599884
-4.0835,0.4622313796522482,0.2352160026039969
-4.083,0.6542945270905358,0.2776025562246667
-4.0825,0.707645401378949,0.2246193641987524
-4.082,0.707645401378949,0.13984625695749
-4.0815,0.9210488985326017,-0.05089323433552374
-4.081,0.9637295979632936,-0.1038764263613127
-4.0805,0.8356874996711408,0.002089957690313421
-4.08,0.6969752265212663,0.1186529801471552
-4.0795,0.5902734779445369,0.2352160026038909
-4.079,0.6116138276602806,0.2670059178196824
-4.0785,1.134452395686255,0.4683420475176805
-4.078,1.219813794547638,0.4471487707073649
-4.0775,0.07810508477446979,-0.506548685758716
-4.077,-1.244996597576974,-1.598002441489969
-4.0765,-1.661133417026219,-1.831128486403441
-4.076,-1.330357996437824,-1.248313374118615
-4.0755,-0.658136980404429,-0.3370024712750445
-4.075,-0.04993701351651855,0.457745409112513
-4.0745,0.2701682322140965,0.8922075837245802
-4.074,0.4195506802215176,1.114736990232894
-4.0735,0.4729015545099309,1.210106735879401
-4.073,0.4835717293676038,1.220703374284559
-4.0725,0.4622313796522482,1.210106735879401
-4.072,0.4302208550792003,1.199510097474233
-4.0715,0.4088805053638545,1.199510097474233
-4.071,0.3555296310750239,1.210106735879102
-4.0705,-0.08194753808956648,0.8816109453192104
-4.07,-0.5727755815425216,0.6908714540263701
-4.0695,-1.191645723288998,0.02328323449997366
-4.069,-1.67180359188428,-0.718481453861072
-4.0685,-1.437059745015262,-0.6972881770507372
-4.068,-0.7861790786960093,-0.3264058328695975
-4.0675,-0.1139580626626144,-0.01910331912002144
-4.067,0.3768699807907871,0.1504428953626575
-4.0665,0.6436243522329405,0.1822328105781405
-4.066,0.7396559259519968,0.1610395337678249
-4.0655,0.7289857510943143,0.13984625695749
-4.065,0.8036769750980248,0.0338798729059121
-4.0645,0.8356874996711408,-0.02969995752518888
-4.064,0.7396559259519968,0.06566978812131802
-4.0635,0.6436243522329405,0.2034260873883694
-4.063,0.5582629533713727,0.3411823866557965
-4.0625,0.5369226036560266,0.4789386859228479
-4.062,0.9103787236745795,0.5849050699744258
-4.0615,1.209143619689004,0.584905069973462
-4.061,0.07810508477567314,-0.5807251545938954
-4.0605,-0.807519428411986,-1.237716735714276
-4.06,-1.469070269588116,-1.640388995110195
-4.0595,-1.255666772434657,-1.152943628472937
-4.059,-0.6047861061160158,-0.252229364033705
-4.0585,-0.09261771294771504,0.4471487707067096
-4.058,0.2061471830678648,0.8710143069140429
-4.0575,0.3875401556484697,1.114736990232894
-4.057,0.4622313796521803,1.210106735879314
-4.0565,0.4729015545099309,1.220703374284568
-4.056,0.4729015545099309,1.188913459069066
-4.0555,0.451561204794585,1.16772018225875
-4.055,0.4302208550791615,1.135930267043209
-4.0545,0.3875401556484697,1.114736990232894
-4.054,0.1848068333526839,0.9134008605348958
-4.0535,-0.5834457564013007,0.5743084315688922
-4.053,-1.298347471865388,0.06566978812131802
-4.0525,-1.703814116457328,-0.7820612842920766
-4.052,-1.479740444445352,-0.9622041371796145
-4.0515,-0.7755089038389382,-0.6231117082145651
-4.051,-0.1139580626626144,-0.2310360872233701
-4.0505,0.3235191065019759,0.06566978812104818
-4.05,0.5796033030867573,0.1292496185523226
-4.0495,0.6863050516635838,0.1716361721729923
-4.049,0.6969752265212567,0.1822328105781501
-4.0485,0.7289857510944598,0.0550731497159482
-4.048,0.8890383739595538,-0.1674562567923655
-4.0475,0.8463576745288621,-0.1144730647665765
-4.047,0.7183155762365345,0.0762664265266782
-4.0465,0.6116138276598051,0.2881991946298341
-4.046,0.5369226036560946,0.4683420475175166
-4.0455,0.7076454013794246,0.5637117931644958
-4.045,1.230483969405398,0.9028042221295453
-4.0445,0.6542945270905358,0.3411823866556712
-4.044,-0.7541685541243299,-1.004590690801258
-4.0435,-1.586442193022819,-1.735758740757146
-4.043,-1.650463242168915,-1.693372187136476
-4.0425,-1.063603624996903,-0.8986243067496412
-4.042,-0.3487019095316325,0.01268659609548085
-4.0415,0.09944543449103843,0.5955017083796896
-4.041,0.334189281359843,0.9239974989395813
-4.0405,0.4408910299369218,1.082947075017449
-4.04,0.4835717293676135,1.146526905448396
-4.0395,0.4729015545099406,1.135930267043238
-4.039,0.4515612047945461,1.114736990232875
-4.0385,0.4302208550792003,1.093543713422559
-4.038,0.3982103305061815,1.104140351827717
-4.0375,0.2701682322133978,1.093543713421981
-4.037,-0.3487019095316325,0.457745409112513
-4.0365,-1.223656247861609,-0.6337083466197325
-4.036,-1.970568487899646,-1.55561588786955
-4.0355,-2.247993034199143,-1.831128486403653
-4.035,-1.629122892453549,-1.311893204550448
-4.0345,-0.7648387289820415,-0.5913217929997182
-4.034,-0.03926683865883591,-0.08268314955102604
-4.0335,0.4195506802215176,0.1292496185523226
-4.033,0.6436243522326492,0.1928294489832694
-4.0325,0.7076454013789394,0.1928294489832983
-4.032,0.6969752265212663,0.1610395337678249
-4.0315,0.8783681991017063,-0.02969995752501542
-4.031,0.9103787236748124,-0.06148987274058516
-4.0305,0.79300680024041,0.05507314971615059
-4.03,0.6542945270906619,0.2034260873883598
-4.0295,0.5582629533714309,0.3305857482504557
-4.029,0.6009436528021226,0.2776025562246667
-4.0285,1.113112045970889,-0.09327978795619347
-4.028,1.113112045969676,-0.5913217930000266
-4.0275,-0.2206598112394408,-1.650985633515806
-4.027,-1.116954499284783,-1.979481424075996
-4.0265,-1.607782542737738,-1.990078062481154
-4.026,-1.255666772434657,-1.237716735714276
-4.0255,-0.5621054066852853,-0.2628260024388724
-4.025,-0.03926683865931146,0.4153588554912265
-4.0245,0.2488278824987313,0.7756445612676902
-4.024,0.3982103305061524,0.9451907757502149
-4.0235,0.46223137965219,0.9981739677760039
-4.023,0.4729015545099212,0.9875773293708558
-4.0225,0.4622313796522482,0.9557874141553824
-4.022,0.4515612047945753,0.9239974989399089
-4.0215,0.4302208550791518,0.92399749893988
-4.021,0.3768699807907871,0.92399749893988
-4.0205,-0.08194753808956648,0.457745409112513
-4.02,-1.010252750708713,-0.5701285161895761
-4.0195,-1.842526389607202,-1.502632695843462
-4.019,-2.19464215991073,-1.905304955239825
-4.0185,-1.735824641030793,-1.386069673387093
-4.018,-0.9035510021311299,-0.6019184314042303
-4.0175,-0.1459685872356623,0.04447651131098315
-4.017,0.3341892813596198,0.3835689402760326
-4.0165,0.5689331282291522,0.47893868592279
-4.016,0.6542945270905358,0.4153588554918433
-4.0155,0.6542945270905358,0.2352160026041608
-4.015,0.8143471499559014,-0.06148987274085502
-4.0145,0.9530594231056497,-0.2416327256285375
-4.014,0.8570278493865934,-0.114473064766644
-4.0135,0.7183155762365151,0.08686306493182636
-4.013,0.5902734779444399,0.2776025562246667
-4.0125,0.5369226036560266,0.4365521323021782
-4.012,0.9317190733906726,0.5531151547591838
-4.0115,1.35852606769759,0.7332580076468663
-4.011,0.6969752265212663,0.1504428953626575
-4.0105,-0.7434983792645802,-1.057573882825331
-4.01,-1.703814116457328,-1.862918401619155
-4.0095,-1.490410619303675,-1.492036057438295
-4.009,-0.9355615267046823,-0.7396747306720911
-4.0085,-0.3060212101004458,0.06566978812186736
-4.008,0.1954770082101822,0.6696781772158616
-4.0075,0.387540155648295,0.9345941373448066
-4.007,0.451561204794585,1.040560521396751
-4.0065,0.4729015545099309,1.072350436612224
-4.006,0.4515612047945656,1.061753798207057
-4.0055,0.4408910299368635,1.040560521396712
-4.005,0.4195506802215176,1.029963882991555
-4.0045,0.408880505363835,1.061753798207057
-4.004,0.1741366584943317,0.9028042221292465
-4.0035,-0.3593720843893152,0.5743084315693548
-4.003,-1.020922925565639,-0.01910331912002144
-4.0025,-1.618452717595324,-0.8986243067481186
-4.002,-1.533091318734406,-1.01518732920576
-4.0015,-0.8822106524157645,-0.570128516188728
-4.001,-0.2206598112400425,-0.156859618387574
-4.0005,0.2594980573565304,0.1080563417421516
-4,0.5369226036560266,0.2881991946298341
-3.9995,0.6542945270905358,0.3411823866556712
-3.999,0.6649647019482183,0.3305857482505039
-3.9985,0.7183155762366316,0.2140227257936621
-3.998,0.8890383739595538,-0.008506680714854012
-3.9975,0.8463576745288233,0.01268659609548085
-3.997,0.7183155762366316,0.1292496185523226
-3.9965,0.5902734779444399,0.2564092794143318
-3.996,0.5155822539406614,0.3729723018711736
-3.9955,0.7396559259519968,0.3729723018711736
-3.995,1.337185717982225,0.6696781772158616
-3.9945,1.006410297394063,0.309392471440169
-3.994,0.05676473506030786,-0.3475991096802118
-3.9935,-1.277007122150022,-1.354279758171118
-3.993,-1.394379045584531,-1.301296566145281
-3.9925,-0.9355615267041777,-0.6760949002404023
-3.992,-0.3807124341046804,-0.008506680714854012
-3.9915,0.1207857842064037,0.5955017083796896
-3.991,0.3661998059331045,0.9134008605347127
-3.9905,0.4515612047945656,1.040560521396722
-3.99,0.4622313796522482,1.082947075017392
-3.9895,0.4515612047945656,1.093543713422559
-3.989,0.4195506802215176,1.104140351827727
-3.9885,0.3982103305061524,1.104140351827727
-3.988,0.3768699807907871,1.125333628638062
-3.9875,0.2808384070716433,1.104140351827727
-3.987,-0.391382608962363,0.4683420475176805
-3.9865,-1.255666772434657,-0.4853554089473885
-3.986,-1.778505340461106,-1.364876396576285
-3.9855,-1.714484291315011,-1.598002441489969
-3.985,-1.052933450138687,-1.025783967610927
-3.9845,-0.3380317346739499,-0.326405832869877
-3.984,0.1741366584948169,0.1504428953626575
-3.9835,0.4835717293676135,0.3411823866556712
-3.983,0.6436243522328531,0.2987958330350016
-3.9825,0.7183155762366316,0.1716361721729923
-3.982,0.707645401378949,0.07626642652648545
-3.9815,0.8997085488172365,-0.1462629799820306
-3.981,0.9103787236749192,-0.1674562567923655
-3.9805,0.79300680024041,-0.04029659593035631
-3.98,0.6436243522328531,0.1186529801471552
-3.9795,0.5475927785137094,0.2564092794143318
-3.979,0.5902734779444399,0.309392471440169
-3.9785,0.8463576745288233,0.2670059178194992
-3.978,0.974399772821015,0.2352160026039969
-3.9775,0.5369226036560266,-0.2628260024388724
-3.977,-0.5194247072545548,-1.131750351662602
-3.9765,-1.020922925565639,-1.42845622700729
-3.976,-0.7328282044082075,-0.8350444763179138
-3.9755,-0.3380317346739499,-0.1568596183871981
-3.975,0.00341386077189465,0.3941655786815084
-3.9745,0.2488278824985954,0.775644561267536
-3.974,0.3768699807907871,0.9981739677760521
-3.9735,0.4408910299368829,1.114736990232894
-3.973,0.4622313796522482,1.167720182258731
-3.9725,0.4622313796522482,1.178316820663898
-3.972,0.4408910299368829,1.188913459069066
-3.9715,0.4195506802215176,1.188913459069066
-3.971,0.3661998059331045,1.167720182258731
-3.9705,-0.09261771294724913,0.6802748156210291
-3.97,-0.9889124009925911,-0.3370024712750445
-3.9695,-1.821186039891837,-1.290699927740113
-3.969,-2.098610586191586,-1.75695201756748
-3.9685,-1.501080794161358,-1.354279758171118
-3.968,-0.7328282044082075,-0.6125150698093976
-3.9675,-0.09261771294724913,-0.05089323433552374
-3.967,0.3555296310754218,0.1504428953626575
-3.9665,0.5902734779444399,0.2246193641988295
-3.966,0.6756348768059011,0.2458126410091644
-3.9655,0.6649647019482183,0.1822328105781598
-3.965,0.8143471499557753,0.002089957690313421
-3.9645,0.9210488985326017,-0.1356663415768632
-3.964,0.825017324813458,-0.06148987274069118
-3.9635,0.6863050516635838,0.07626642652648545
-3.963,0.5689331282290746,0.2034260873884947
-3.9625,0.5262524287983441,0.2881991946298341
-3.962,0.9103787236749192,0.3729723018711736
-3.9615,1.241154144263081,0.4471487707073456
-3.961,0.05676473506030786,-0.7078848154559045
-3.9605,-0.5941159312583333,-1.311893204550448
-3.96,-0.6367966306890638,-1.0999604364471
-3.9595,-0.391382608962363,-0.5277419625680583
-3.959,-0.007256314085787988,0.13984625695749
-3.9585,0.2701682322139607,0.6060983467848571
-3.958,0.3555296310754218,0.8180311148882058
-3.9575,0.3982103305061524,0.9345941373450475
-3.957,0.4195506802215176,0.9981739677760521
-3.9565,0.4195506802215176,1.019367244586387
-3.956,0.4195506802215176,1.040560521396722
-3.9555,0.408880505363835,1.061753798207057
-3.955,0.3982103305061524,1.082947075017392
-3.9545,0.3768699807907871,1.114736990232894
-3.954,0.1741366584948169,0.92399749893988
-3.9535,-0.6474668055467465,0.02328323450064829
-3.953,-1.351698346153801,-1.01518732920576
-3.9525,-1.597112367880501,-1.714565463946811
-3.952,-1.191645723288561,-1.51322933424863
-3.9515,-0.5407650569699201,-0.8668343915334161
-3.951,0.01408403562957729,-0.2628260024388724
-3.9505,0.408880505363835,0.1504428953626575
-3.95,0.6222840025174878,0.3411823866556712
-3.9495,0.6969752265212663,0.2564092794143318
-3.949,0.707645401378949,0.05507314971615059
-3.9485,0.7503261008096795,-0.1144730647665284
-3.948,0.9103787236749192,-0.3158091944647096
-3.9475,0.857027849386506,-0.1992461720078678
-3.947,0.707645401378949,-0.008506680714854012
-3.9465,0.5796033030867573,0.1822328105781598
-3.946,0.4942419042252961,0.3199891098453364
-3.9455,0.6863050516635838,0.2670059178194992
-3.945,1.411876941986003,0.457745409112513
-3.9445,1.699971663143435,0.5743084315693548
-3.944,0.5049120790829789,-0.5065486857577234
-3.9435,-0.1673089369510276,-0.8668343915334161
-3.943,-0.2526703358124887,-0.5383386009732256
-3.9425,-0.1673089369510276,-0.1144730647665284
-3.942,0.08877525963335578,0.3729723018711736
-3.9415,0.3021787567870086,0.7332580076468663
-3.941,0.3555296310754218,0.8604176685088755
-3.9405,0.3768699807907871,0.9345941373450475
-3.94,0.3875401556484697,0.9769806909657173
-3.9395,0.3875401556484697,0.9875773293708847
-3.939,0.3768699807907871,1.019367244586387
-3.9385,0.3768699807907871,1.051157159801889
-3.938,0.3661998059331045,1.093543713422559
-3.9375,0.2274875327832301,1.061753798207057
-3.937,-0.5621054066852853,0.309392471440169
-3.9365,-1.490410619303675,-0.7502713690765743
-3.936,-2.055929886760855,-1.608599079895136
-3.9355,-2.141291285622316,-1.84172512480882
-3.935,-1.543761493592088,-1.269506650929778
-3.9345,-0.7008176798351597,-0.4959520473525559
-3.934,-0.007256314085787988,0.08686306493165288
-3.9335,0.4195506802215176,0.3517790250608387
-3.933,0.6116138276598051,0.383568940276341
-3.9325,0.6756348768059011,0.3517790250608387
-3.932,0.6863050516635838,0.2564092794143318
-3.9315,0.7609962756673623,0.1080563417419877
-3.931,0.7289857510943143,0.07626642652648545
-3.9305,0.6329541773751706,0.09745970333682032
-3.93,0.5475927785137094,0.1504428953626575
-3.9295,0.4835717293676135,0.1928294489833272
-3.929,0.5582629533713921,0.2670059178194992
-3.9285,1.134452395686255,0.5743084315693548
-3.928,1.230483969405398,0.5213252395435176
-3.9275,0.1634664836371343,-0.4535654937318862
-3.927,-1.277007122150022,-1.672178910326141
-3.9265,-1.501080794161358,-1.714565463946811
-3.926,-1.1062843244271,-1.078767159636765
-3.9255,-0.5087545323968721,-0.2416327256285375
-3.925,0.03542438534494258,0.457745409112513
-3.9245,0.291508581929326,0.8180311148882058
-3.924,0.3982103305061524,0.9981739677760521
-3.9235,0.4408910299368829,1.072350436612224
-3.923,0.4408910299368829,1.082947075017392
-3.9225,0.4195506802215176,1.082947075017392
-3.922,0.3982103305061524,1.082947075017392
-3.9215,0.3768699807907871,1.093543713422559
-3.921,0.3448594562177392,1.093543713422559
-3.9205,-0.1886492866663929,0.627291623595192
-3.92,-0.9782422261349084,-0.3899856633008816
-3.9195,-1.255666772434657,-1.333086481360783
-3.919,-1.447729919872945,-1.820531847998485
-3.9185,-1.330357996438436,-1.502632695843462
-3.918,-0.754168554123573,-0.8032545611024114
-3.9175,-0.1779791118087102,-0.1992461720078678
-3.917,0.2274875327832301,0.1822328105781598
-3.9165,0.4622313796522482,0.3199891098453364
-3.916,0.5689331282290746,0.2881991946298341
-3.9155,0.6009436528021226,0.1610395337678249
-3.915,0.7716664505250448,-0.08268314955102604
-3.9145,0.8890383739595538,-0.2310360872233701
-3.914,0.8036769750980928,-0.1144730647665284
-3.9135,0.6649647019482183,0.06566978812131802
-3.913,0.5582629533713921,0.2352160026039969
-3.9125,0.5155822539406614,0.3411823866556712
-3.912,0.9210488985326017,0.3623756634660061
-3.9115,1.027750647109428,0.13984625695749
-3.911,-0.124628237520297,-0.9939940523954253
-3.9105,-1.031593100423322,-1.619195718300304
-3.91,-1.778505340461106,-2.064254531317336
-3.9095,-1.554431668449771,-1.587405803084801
-3.909,-0.8288597781273515,-0.6337083466197325
-3.9085,-0.2420001609548061,0.1292496185523226
-3.908,0.1314559590640864,0.5955017083796896
-3.9075,0.3341892813600565,0.8604176685088755
-3.907,0.4302208550792003,0.9769806909657173
-3.9065,0.4515612047945656,1.00877060618122
-3.906,0.4515612047945656,1.00877060618122
-3.9055,0.4195506802215176,0.9981739677760521
-3.905,0.3982103305061524,0.9981739677760521
-3.9045,0.3768699807907871,0.9875773293708847
-3.904,0.08877525963335578,0.6696781772158616
-3.9035,-0.722158029550525,0.04447651131098315
-3.903,-1.533091318734406,-0.6972881770507372
-3.9025,-2.055929886760855,-1.407262950196955
-3.902,-1.83185621474952,-1.396666311791788
-3.9015,-1.074273799854052,-0.8138511995075789
-3.901,-0.3166913849585846,-0.252229364033705
-3.9005,0.2274875327832301,0.07626642652648545
-3.9,0.5155822539406614,0.2458126410091644
-3.8995,0.6329541773751706,0.2564092794143318
-3.899,0.6436243522328531,0.2034260873884947
-3.8985,0.6542945270905358,0.09745970333682032
-3.898,0.7503261008096795,-0.06148987274069118
-3.8975,0.707645401378949,-0.04029659593035631
-3.897,0.6222840025174878,0.05507314971615059
-3.8965,0.5369226036560266,0.1822328105781598
-3.896,0.4835717293676135,0.2987958330350016
-3.8955,0.6969752265212663,0.3517790250608387
-3.895,1.262494493978446,0.3623756634660061
-3.8945,0.8143471499557753,-0.2204394488182027
-3.894,-0.572775581542968,-1.42845622700729
-3.8935,-1.426389570157579,-1.958288147265661
-3.893,-1.565101843307454,-1.735758740757146
-3.8925,-1.06360362499637,-0.8986243067489184
-3.892,-0.391382608962363,0.04447651131098315
-3.8915,0.0674349099179905,0.6484849004055269
-3.891,0.3021787567870086,0.9557874141553824
-3.8905,0.408880505363835,1.093543713422559
-3.89,0.4408910299368829,1.114736990232894
-3.8895,0.4408910299368829,1.093543713422559
-3.889,0.4195506802215176,1.051157159801889
-3.8885,0.3982103305061524,1.00877060618122
-3.888,0.3768699807907871,0.9981739677760521
-3.8875,0.2488278824985954,0.8604176685088755
-3.887,-0.4980843575391895,0.2776025562246667
-3.8865,-1.447729919872945,-0.252229364033705
-3.886,-2.119950935906951,-1.036380606016095
-3.8855,-2.3973754822067,-1.439052865412457
-3.885,-1.842526389607202,-1.184733543688439
