Class_4_Move_right_hand_Horiszontal/Class_4_Move_Right_Hand_Horizontal_Zakour_7.csv

#Digilent WaveForms Oscilloscope Acquisition
#Device Name: EExplorer
#Serial Number: SN:210151A2B84A
#Date Time: 2020-12-21 15:17:38.904
#Sample rate: 2000Hz
#Samples: 16384
#Trigger: Source: Channel 1 Type: Edge Condition: Rising Level: 0 V Hyst.: Auto HoldOff: 0 s
#Channel 1: Range: 1 V/div Offset: 0 V
#Channel 2: Range: 1 V/div Offset: 0 V

Time (s),Channel 1 (V),Channel 2 (V)
-4.0960000000000001,-1.2663369472923398,1.4220395039827496
-4.0955000000000004,-1.0209229255658621,1.0087706061815955
-4.0949999999999998,-0.34870190953106961,0.23521600260338976
-4.0945,0.27016823221396069,-0.43237221692155131
-4.0940000000000003,0.63295417737484061,-0.80325456110207405
-4.0934999999999997,0.75032610080967954,-0.93041422196437251
-4.093,0.75032610080967954,-0.87743102993858346
-4.0925000000000002,0.78233662538269844,-0.70788481545605875
-4.0919999999999996,1.0170804722517843,-0.45356549373178018
-4.0914999999999999,1.0597611716824762,-0.33700247127504446
-4.0910000000000002,0.91037872367491923,-0.30521255605954212
-4.0904999999999996,0.7289857510941784,-0.27342264084397239
-4.0899999999999999,0.57960330308675734,-0.19924617200786782
-4.0895000000000001,0.6116138276598051,-0.04029659593035631
-4.0890000000000004,0.97439977282068502,-0.28401927924898562
-4.0884999999999998,0.4835717293676135,-0.54893523937839306
-4.0880000000000001,-0.50875453239687207,-0.1674562567923655
-4.0875000000000004,-1.3943790455837259,0.3517790250603664
-4.0869999999999997,-1.4904106193032289,0.57430843156906575
-4.0865,-0.99958257585027366,0.25640927941433178
-4.0860000000000003,-0.43406330839360796,-0.20984281041261116
-4.0854999999999997,-0.0072563140855550802,-0.57012851618890148
-4.085,0.24882788249859539,-0.76086800748174177
-4.0845000000000002,0.36619980593299772,-0.81385119950753071
-4.0839999999999996,0.39821033050614268,-0.7608680074816454
-4.0834999999999999,0.38754015564846972,-0.65490162343006741
-4.0830000000000002,0.33418928136005654,-0.53833860097322561
-4.0824999999999996,0.27016823221394126,-0.41117894011111045
-4.0819999999999999,0.24882788249859539,-0.29461591765437467
-4.0815000000000001,0.23815770764091276,-0.13566634157686319
-4.0810000000000004,0.088775259633491643,0.17163617217271282
-4.0804999999999998,-0.11395806266261441,0.60609834678485708
-4.0800000000000001,-0.43406330839309365,1.0087706061812196
-4.0795000000000003,-0.62612645583120652,1.0405605213966931
-4.0789999999999997,-0.316691384958177,0.44714877070676734
-4.0785,0.13145595906408636,-0.18864953360270037
-4.0780000000000003,0.51558225394031199,-0.58072515459353879
-4.0774999999999997,0.72898575109434338,-0.79265792269730184
-4.077,0.76099627566736228,-0.85623775312824868
-4.0765000000000002,0.72898575109434338,-0.87743102993856414
-4.0759999999999996,0.68630505166374878,-0.80325456110211269
-4.0754999999999999,0.86769802424418851,-0.47475877054222104
-4.0750000000000002,0.91037872367491923,-0.29461591765437467
-4.0744999999999996,0.77166645052488947,-0.29461591765436501
-4.0739999999999998,0.60094365280212259,-0.28401927924920728
-4.0735000000000001,0.47290155450993088,-0.25222936403370499
-4.0730000000000004,0.44089102993691209,-0.24163272562854718
-4.0724999999999998,0.857027849386506,-0.70788481545590454
-4.0720000000000001,0.84635767452882327,-1.3966663117917877
-4.0715000000000003,-0.0072563140850115948,-1.2801032893350517
-4.0709999999999997,-0.99958257585088506,-0.50654868575702949
-4.0705,-1.67180359188428,0.25640927941433178
-4.0700000000000003,-1.4690702695884943,0.38356894027622535
-4.0694999999999997,-0.86087030269989462,0.0020899576899086423
-4.069,-0.30602121010090194,-0.44296885532671876
-4.0685000000000002,0.08877525963335578,-0.77146464588690922
-4.0679999999999996,0.29150858192940365,-0.93041422196444001
-4.0674999999999999,0.3768699807907871,-0.95160749877475548
-4.0670000000000002,0.38754015564846972,-0.88802766834375091
-4.0664999999999996,0.35552963107535385,-0.78206128429196087
-4.0659999999999998,0.28083840707164331,-0.65490162343006741
-4.0655000000000001,0.24882788249859539,-0.52774196256805828
-4.0650000000000004,0.18480683335255779,-0.3158091944649023
-4.0644999999999998,-0.10328788780493176,-0.04029659593035631
-4.0640000000000001,-0.74349837926589024,-0.029699957525188878
-4.0635000000000003,-1.2449965975765183,0.28819919462954502
-4.0629999999999997,-1.5437614935921855,0.76504792286267698
-4.0625,-1.6504632421689147,1.1041403518277266
-4.0620000000000003,-1.0209229255662113,0.81803111488846603
-4.0614999999999997,-0.15663876209277239,0.13984625695695996
-4.0609999999999999,0.47290155450993088,-0.44296885532671876
-4.0605000000000002,0.78233662538272752,-0.80325456110241145
-4.0599999999999996,0.83568749967108258,-0.89862430674885085
-4.0594999999999999,0.77166645052504479,-0.82444783791274634
-4.0590000000000002,0.83568749967114075,-0.60191843140423029
-4.0585000000000004,0.91037872367485129,-0.33700247127528538
-4.0579999999999998,0.79300680024041004,-0.26282600243887239
-4.0575000000000001,0.63295417737517057,-0.2310360872233701
-4.0570000000000004,0.49424190422542225,-0.19924617200789674
-4.0564999999999998,0.41955068022151765,-0.14626297998203064
-4.056,0.30217875678700862,0.17163617217299235
-4.0555000000000003,-0.039266838658525371,0.68027481562056646
-4.0549999999999997,-0.73282820440891594,1.0935437134227808
-4.0545,-1.5117509690190405,1.33726639674141
-4.0540000000000003,-1.9065474387529391,1.3584596735517256
-4.0534999999999997,-1.4797404444453715,0.83922439169787555
-4.0529999999999999,-0.79684925355430347,0.10805634174198775
-4.0525000000000002,-0.22065981123944084,-0.4535654937318862
-4.0519999999999996,0.14212613392194368,-0.73967473067146472
-4.0514999999999999,0.33418928136005654,-0.80325456110241145
-4.0510000000000002,0.3982103305061524,-0.71848145386107198
-4.0505000000000004,0.3982103305061524,-0.55953187778370506
-4.0499999999999998,0.35552963107542179,-0.37938902489571413
-4.0495000000000001,0.28083840707164331,-0.17805289519753292
-4.0490000000000004,0.21681735792560572,0.033879872905622971
-4.0484999999999998,0.15279630877942252,0.24581264100934749
-4.048,0.12078578420640371,0.4471487707073456
-4.0475000000000003,0.17413665849476839,0.57430843156923916
-4.0469999999999997,-0.028596663801454116,0.76504792286263845
-4.0465,-0.35937208438931517,1.0617537982070568
-4.0460000000000003,-0.8715404775576161,1.3054764815256861
-4.0454999999999997,-0.98891240099207678,1.0723504366115304
-4.0449999999999999,-0.42339313353541097,0.30939247144016896
-4.0445000000000002,0.18480683335249956,-0.36879238649054674
-4.0439999999999996,0.55826295337152798,-0.8032545611026235
-4.0434999999999999,0.70764540137894905,-1.0363806060160949
-4.0430000000000001,0.73965592595199681,-1.1423469900677694
-4.0425000000000004,0.76099627566734285,-1.0257839676110334
-4.0419999999999998,0.94238924824796699,-0.63370834661973252
-4.0415000000000001,0.88903837395955376,-0.49595204735255594
-4.0410000000000004,0.71831557623678677,-0.48535540894739815
-4.0404999999999998,0.54759277851361232,-0.48535540894735957
-4.04,0.44089102993688295,-0.4535654937318862
-4.0395000000000003,0.45156120479455586,-0.29461591765451922
-4.0389999999999997,0.61161382765922279,-0.16745625679206674
-4.0385,-0.028596663801153277,0.16103953376782493
-4.0380000000000003,-0.9355615267033528,0.65908153881024123
-4.0374999999999996,-1.7038141164574057,1.0405605213967701
-4.0369999999999999,-1.7891755153187892,1.0935437134225592
-4.0365000000000002,-1.2129860730039266,0.61669498519002452
-4.0359999999999996,-0.56210540668482922,0.0020899576898990046
-4.0354999999999999,-0.06060718837420119,-0.4535654937318862
-4.0350000000000001,0.22748753278323011,-0.67609490024040231
-4.0345000000000004,0.3661998059329783,-0.70788481545587567
-4.0339999999999998,0.3982103305061524,-0.61251506980939763
-4.0335000000000001,0.3768699807907871,-0.4535654937318862
-4.0330000000000004,0.32351910650242238,-0.28401927924936149
-4.0324999999999998,0.23815770764083513,-0.11447306476638379
-4.032,0.15279630877945163,0.044476511310983152
-4.0315000000000003,0.056764735060395199,0.26700591781929683
-4.0309999999999997,-0.38071243410529182,0.2140227257933344
-4.0305,-1.0529334501386869,-0.14626297998203064
-4.0300000000000002,-1.5651018433069879,0.097459703336598646
-4.0294999999999996,-1.5864421930219843,0.54251851635390069
-4.0289999999999999,-0.66880715526211176,0.59550170837968963
-4.0285000000000002,0.22748753278323011,0.15044289536265748
-4.0279999999999996,0.77166645052523886,-0.3581957480857455
-4.0274999999999999,0.98506994767869771,-0.76086800748174177
-4.0270000000000001,0.98506994767869771,-0.96220413717992292
-4.0265000000000004,0.87836819910196828,-1.004590690800554
-4.0259999999999998,0.76099627566736228,-0.94101086036958814
-4.0255000000000001,0.79300680024041004,-0.66549826183523486
-4.0250000000000004,0.73965592595204532,-0.51714532416302572
-4.0244999999999997,0.62228400251738103,-0.49595204735254628
-4.024,0.50491207908297886,-0.48535540894738849
-4.0235000000000003,0.44089102993694118,-0.45356549373191513
-4.0229999999999997,0.41955068022178937,-0.42177557851665376
-4.0225,0.71831557623663156,-0.71848145386107198
-4.0220000000000002,0.56893312822921049,-1.3330864813602239
-4.0214999999999996,-0.26334051067098657,-1.5980024414893519
-4.0209999999999999,-1.1596351987155133,-0.91981758355925325
-4.0205000000000002,-1.5010807941613578,-0.15685961838719809
-4.0199999999999996,-1.1169544992842779,-0.019103319120204559
-4.0194999999999999,-0.5621054066852853,-0.22043944881820265
-4.0190000000000001,-0.10328788780493176,-0.47475877054222104
-4.0185000000000004,0.18480683335223752,-0.65490162342990355
-4.0179999999999998,0.33418928136005654,-0.72907809226623943
-4.0175000000000001,0.3768699807907871,-0.72907809226623943
-4.0170000000000003,0.3768699807907871,-0.67609490024045049
-4.0164999999999997,0.33418928136001774,-0.59132179299896648
-4.016,0.29150858192932599,-0.48535540894738849
-4.0155000000000003,0.24882788249863419,-0.38998566330096829
-4.0149999999999997,0.2061471830677678,-0.28401927924918802
-4.0145,0.099445434491038431,-0.26282600243887239
-4.0140000000000002,-0.071277363231728563,-0.80325456110191995
-4.0134999999999996,-0.25267033581276044,-1.5132293342483982
-4.0129999999999999,-0.55143523182760279,-1.2589100125246109
-4.0125000000000002,-0.81818960326966872,-0.49595204735255594
-4.0119999999999996,-0.43406330839255991,-0.18864953360278711
-4.0114999999999998,0.15279630877945163,-0.28401927924920728
-4.0110000000000001,0.59027347794443985,-0.43237221692155131
-4.0105000000000004,0.78233662538255277,-0.55953187778344482
-4.0099999999999998,0.80367697509809277,-0.6972881770507372
-4.0095000000000001,0.73965592595199681,-0.82444783791274634
-4.0090000000000003,0.76099627566734285,-0.78206128429211508
-4.0084999999999997,0.86769802424409148,-0.55953187778353164
-4.008,0.76099627566736228,-0.52774196256805828
-4.0075000000000003,0.61161382765994099,-0.55953187778353164
-4.0069999999999997,0.48357172936754556,-0.58072515459386653
-4.0065,0.40888050536383502,-0.54893523937839306
-4.0060000000000002,0.6863050516635838,-0.26282600243887239
-4.0054999999999996,1.1878032699742407,-0.3264058328697132
-4.0049999999999999,0.71831557623663156,-0.14626297998203064
-4.0045000000000002,-0.29535103524321932,0.39416557868150842
-4.0039999999999996,-1.0742737998540133,0.8498210301036887
-4.0034999999999998,-1.0315931004233216,0.82862775329337313
-4.0030000000000001,-0.62612645583138127,0.40476221708667587
-4.0025000000000004,-0.20998963638213664,-0.09327978795574049
-4.0019999999999998,0.099445434491038431,-0.4641621321370536
-4.0015000000000001,0.27016823221396069,-0.62311170821456507
-4.0010000000000003,0.34485945621767122,-0.62311170821456507
-4.0004999999999997,0.3555296310753927,-0.52774196256791372
-4,0.32351910650237387,-0.36879238649054674
-3.9994999999999998,0.27016823221396069,-0.20984281041303524
-3.9990000000000001,0.22748753278323011,-0.050893234335523743
-3.9984999999999999,0.22748753278323011,0.097459703336820316
-3.9980000000000002,0.15279630877945163,0.30939247144016896
-3.9975000000000001,-0.43406330839309365,0.59550170837968963
-3.9969999999999999,-1.2663369472923398,0.89220758372437781
-3.9965000000000002,-1.9492281381840288,1.1995100974742332
-3.996,-2.2906737336298733,1.33726639674141
-3.9954999999999998,-1.6611334170265974,0.9134008605347127
-3.9950000000000001,-0.65813698040442903,0.25640927941433178
-3.9944999999999999,0.18480683335249956,-0.31580919446470956
-3.9940000000000002,0.66496470194821833,-0.6972881770507372
-3.9935,0.81434714995577528,-0.84564111472308123
-3.9929999999999999,0.80367697509809277,-0.82444783791274634
-3.9925000000000002,0.76099627566736228,-0.73967473067140688
-3.992,0.87836819910187125,-0.47475877054222104
-3.9914999999999998,0.88903837395955376,-0.3581957480853793
-3.9910000000000001,0.77166645052504479,-0.33700247127504446
-3.9904999999999999,0.60094365280212259,-0.32640583286987701
-3.9900000000000002,0.4622313796522482,-0.28401927924920728
-3.9895,0.50491207908297886,-0.24163272562853755
-3.9889999999999999,0.86769802424418851,-0.51714532416289083
-3.9885000000000002,0.43022085507920033,-0.32640583286987701
-3.988,-0.41272295867772835,0.26700591781949923
-3.9874999999999998,-1.0742737998540521,0.76504792286236856
-3.9870000000000001,-0.99958257585027366,0.7968378380778709
-3.9864999999999999,-0.59411593125833329,0.43655213230217815
-3.9860000000000002,-0.18864928666639288,-0.050893234335523743
-3.9855,0.11011560934872107,-0.44296885532671876
-3.9849999999999999,0.27016823221396069,-0.65490162343006741
-3.9845000000000002,0.34485945621773917,-0.6972881770507372
-3.984,0.35552963107542179,-0.63370834661973252
-3.9834999999999998,0.33418928136005654,-0.50654868575772338
-3.9830000000000001,0.29150858192932599,-0.33700247127504446
-3.9824999999999999,0.24882788249859539,-0.18864953360270037
-3.9820000000000002,0.20614718306786484,-0.050893234335523743
-3.9815,0.17413665849481691,0.10805634174198775
-3.9809999999999999,0.024754210487259936,-0.0085066807148540119
-3.9805000000000001,-0.30602121010090194,-0.31580919446470956
-3.98,-0.72215802955052499,0.033879872905815719
-3.9794999999999998,-0.96757205127722568,0.51072860113835017
-3.9790000000000001,-0.78617907869662074,0.53192187794868506
-3.9784999999999999,-0.17797911180871023,0.11865298014715518
-3.9780000000000002,0.36619980593310447,-0.37938902489571413
-3.9775,0.67563487680590106,-0.75027136907657432
-3.9769999999999999,0.78233662538272752,-0.97280077558509037
-3.9765000000000001,0.75032610080967954,-1.0575738828264298
-3.976,0.69697522652126631,-1.0469772444212624
-3.9754999999999998,0.86769802424418851,-0.76086800748174177
-3.9750000000000001,0.95305942310564973,-0.47475877054222104
-3.9744999999999999,0.84635767452882327,-0.44296885532671876
-3.9740000000000002,0.6863050516635838,-0.48535540894738849
-3.9735,0.62228400251748783,-0.49595204735255594
-3.9729999999999999,0.55826295337139209,-0.49595204735255594
-3.9725000000000001,0.87836819910187125,-0.84564111472308123
-3.972,0.73965592595199681,-1.4602461422227924
-3.9714999999999998,-0.10328788780493176,-1.1847335436884392
-3.9710000000000001,-1.0636036249963696,-0.31580919446470956
-3.9704999999999999,-1.5010807941613578,0.40476221708667587
-3.9700000000000002,-1.1703053735731959,0.43655213230217815
-3.9695,-0.61545628097369853,0.086863064931652884
-3.9689999999999999,-0.15663876209334496,-0.29461591765437467
-3.9685000000000001,0.15279630877945163,-0.53833860097322561
-3.968,0.30217875678700862,-0.63370834661973252
-3.9674999999999998,0.35552963107542179,-0.62311170821456507
-3.9670000000000001,0.35552963107542179,-0.52774196256805828
-3.9664999999999999,0.31284893164469124,-0.41117894011121647
-3.9660000000000002,0.25949805735627807,-0.29461591765437467
-3.9655,0.23815770764091276,-0.18864953360270037
-3.9649999999999999,0.22748753278323011,-0.061489872740691176
-3.9645000000000001,0.035424385344942577,0.2246193641988295
-3.964,-0.50875453239687207,0.66967817721586165
-3.9634999999999998,-0.91422117698881245,1.0829470750173917
-3.9630000000000001,-1.373038695869166,1.3690563119569124
-3.9624999999999999,-1.6504632421689147,1.4856193344137538
-3.9620000000000002,-1.0636036249963696,1.0299638829915545
-3.9615,-0.28468086038553664,0.29879583303500157
-3.9609999999999999,0.31284893164469124,-0.36879238649054674
-3.9605000000000001,0.64362435223285308,-0.70788481545590454
-3.96,0.75032610080967954,-0.76086800748174177
-3.9594999999999998,0.73965592595199681,-0.6972881770507372
-3.9590000000000001,0.79300680024041004,-0.4641621321370536
-3.9584999999999999,0.88903837395955376,-0.17805289519753292
-3.9580000000000002,0.77166645052504479,-0.14626297998203064
-3.9575,0.6116138276598051,-0.14626297998203064
-3.9569999999999999,0.4835717293676135,-0.14626297998203064
-3.9565000000000001,0.3982103305061524,-0.093279787956193475
-3.956,0.20614718306786484,0.19282944898332721
-3.9554999999999998,0.3982103305061524,0.5637117931641874
-3.9550000000000001,-0.0072563140857879876,0.94519077575021493
-3.9544999999999999,-0.78617907869662074,1.241896651094903
-3.9540000000000002,-1.437059745015262,1.3796529503620798
-3.9535,-1.3410281712961183,1.1041403518277266
-3.9529999999999998,-0.81818960326966872,0.47893868592284788
-3.9525000000000001,-0.30602121010090194,-0.15685961838719809
-3.952,0.05676473506030786,-0.57012851618872795
-3.9514999999999998,0.25949805735627807,-0.75027136907657432
-3.9510000000000001,0.34485945621773917,-0.72907809226623943
-3.9504999999999999,0.36619980593310447,-0.61251506980939763
-3.9500000000000002,0.33418928136005654,-0.43237221692155131
-3.9495,0.27016823221396069,-0.2310360872233701
-3.9489999999999998,0.22748753278323011,-0.061489872740691176
-3.9485000000000001,0.11011560934872107,0.18223281057815977
-3.948,-0.092617712947249131,0.51072860113835017
-3.9474999999999998,-0.6047861061160158,0.64848490040552687
-3.9470000000000001,-1.3410281712961183,0.71206473083653143
-3.9464999999999999,-1.9598983130417114,0.97698069096571727
-3.9460000000000002,-2.23732285934146,1.1783168206638983
-3.9455,-1.6077825427381842,0.82862775329337313
-3.9449999999999998,-0.66880715526211176,0.2246193641988295
-3.9445000000000001,0.12078578420640371,-0.30521255605954212
-3.944,0.60094365280212259,-0.65490162343006741
-3.9434999999999998,0.78233662538272752,-0.81385119950757889
-3.9430000000000001,0.80367697509809277,-0.83504447631791379
-3.9424999999999999,0.78233662538272752,-0.76086800748174177
-3.9420000000000002,0.92104889853260175,-0.52774196256805828
-3.9415,0.87836819910187125,-0.34759910968021185
-3.9409999999999998,0.70764540137894905,-0.24163272562853755
-3.9405000000000001,0.53692260365602662,-0.1674562567923655
-3.9399999999999999,0.45156120479456557,-0.12506970317169577
-3.9394999999999998,0.49424190422529612,-0.093279787956193475
-3.9390000000000001,0.99574012253638022,-0.4535654937318862
-3.9384999999999999,1.0704313465401587,-0.66549826183523486
-3.9380000000000002,0.55826295337139209,-0.1674562567923655
-3.9375,-0.17797911180871023,0.39416557868150842
-3.9369999999999998,-0.38071243410468042,0.52132523954351762
-3.9365000000000001,-0.25267033581248871,0.20342608738849466
-3.9359999999999999,-0.049937013516518552,-0.26282600243887239
-3.9355000000000002,0.12078578420640371,-0.65490162343006741
-3.9350000000000001,0.23815770764091276,-0.87743102993858346
-3.9344999999999999,0.29150858192932599,-0.94101086036958814
-3.9340000000000002,0.31284893164469124,-0.88802766834375091
-3.9335,0.30217875678700862,-0.78206128429207655
-3.9329999999999998,0.28083840707164331,-0.65490162343006741
-3.9325000000000001,0.23815770764091276,-0.48535540894738849
-3.9319999999999999,0.20614718306786484,-0.29461591765437467
-3.9315000000000002,-0.08194753808956648,0.065669788121318018
-3.931,-0.69014750497747701,0.26700591781949923
-3.9304999999999999,-0.98891240099259115,-0.42177557851638392
-3.9300000000000002,-1.2023158981462438,-0.51714532416289083
-3.9295,-1.3516983461538008,-0.04029659593035631
