Class_4_Move_right_hand_Horiszontal/Class_4_Move_right_hand_Horiszontal_SH_13.csv

#Digilent WaveForms Oscilloscope Acquisition
#Device Name: EExplorer
#Serial Number: SN:210151A2B84A
#Date Time: 2021-02-03 13:59:03.705
#Sample rate: 2000Hz
#Samples: 16384
#Trigger: Source: Channel 1 Type: Edge Condition: Rising Level: 0 V Hyst.: Auto HoldOff: 0 s
#Channel 1: Range: 1 V/div Offset: 0 V Attenuation: 1 X
#Channel 2: Range: 1 V/div Offset: 0 V Attenuation: 1 X
#Power Supplies: ON
#Fixed Supply: ON
#Voltage: 3.3 V Readback: 3.331 V
#Positive Supply: ON
#Voltage: 3.7 V Readback: 3.717 V
#Current: 40 mA Readback: 32 mA
#Negative Supply: ON
#Voltage: -3.7 V Readback: -3.334 V
#Current: -40 mA Readback: -2 mA
#Reference 1: ON
#Voltage: 0 V
#Reference 2: ON
#Voltage: 0 V

Time (s),Channel 1 (V),Channel 2 (V)
-4.096,0.4195506802215176,0.7544512844572011
-4.0955,0.2808384070717694,0.9451907757500415
-4.095,-0.1673089369514449,1.167720182258885
-4.0945,-0.6261264558313813,1.33726639674141
-4.094,-1.138294848999682,1.43263614238783
-4.0935,-1.586442193022693,1.369056311956324
-4.093,-1.447729919872945,0.7226613692416989
-4.0925,-0.8075194284125683,-0.1780528951967137
-4.092,-0.1993194615236485,-0.8880276683442135
-4.0915,0.2701682322139607,-1.396666311791788
-4.091,0.5902734779444399,-1.566212526274467
-4.0905,0.7503261008097377,-1.428456227007223
-4.09,0.8143471499557753,-1.354279758171118
-4.0895,0.974399772821015,-1.449649503817625
-4.089,1.081101521397744,-1.2801032893351
-4.0885,1.209143619690033,-0.9516074987747555
-4.088,1.15579274540162,-0.6549016234300674
-4.0875,0.9957401225365258,-0.4005823017062803
-4.087,0.7716664505245499,-0.2098428104126016
-4.0865,0.2274875327832301,0.2670059178194992
-4.086,-0.5727755815422402,0.7862411996722312
-4.0855,-1.2556667724352,1.125333628638225
-4.085,-1.853196564464885,1.305476481525908
-4.0845,-2.034589537045325,1.326669758336223
-4.084,-1.373038695868448,0.7968378380772637
-4.0835,-0.5834457564006506,0.1292496185523226
-4.083,0.01408403562957729,-0.3581957480853793
-4.0825,0.3768699807909424,-0.5913217929990822
-4.082,0.5475927785137094,-0.6125150698093976
-4.0815,0.5902734779444399,-0.5065486857577234
-4.081,0.579603303086767,-0.3052125560597252
-4.0805,0.5369226036560266,-0.01910331912002144
-4.08,0.4835717293676135,0.383568940276341
-4.0795,0.4195506802215759,0.7014680924310749
-4.079,0.3341892813597266,0.9239974989400053
-4.0785,-0.02859666380115328,1.061753798207057
-4.078,-0.6154562809731647,1.231300012689581
-4.0775,-1.095614149569844,1.369056311956951
-4.077,-1.565101843307454,1.411442865577582
-4.0765,-1.629122892453491,0.9769806909661124
-4.076,-1.06360362499571,0.1822328105774948
-4.0755,-0.3380317346739499,-0.5489352393783931
-4.075,0.2168173579255475,-1.110557074852267
-4.0745,0.5582629533716056,-1.481439419033291
-4.074,0.79300680024041,-1.661582271920973
-4.0735,0.8036769750980928,-1.703968825541643
-4.073,0.5796033030869612,-1.873515040024168
-4.0725,0.5262524287983441,-1.682775548731308
-4.072,0.5475927785137094,-1.227120097309109
-4.0715,0.5796033030867282,-0.7714646458873236
-4.071,0.6116138276598633,-0.4111789401108984
-4.0705,0.6756348768059011,-0.06148987274069118
-4.07,0.7396559259519386,0.4577454091120408
-4.0695,0.08877525963264736,0.945190775750398
-4.069,-0.690147504977477,1.146526905448396
-4.0685,-1.298347471865388,0.5849050699745222
-4.068,-1.863866739322393,0.4259554938969818
-4.0675,-1.67180359188428,0.3941655786815084
-4.067,-0.9142211769888124,0.04447651131098315
-4.0665,-0.2420001609543888,-0.2840192792493808
-4.066,0.2168173579255475,-0.474758770542221
-4.0655,0.4729015545099309,-0.5065486857577234
-4.065,0.5689331282289872,-0.4323722169216188
-4.0645,0.5796033030867573,-0.2628260024388724
-4.064,0.5475927785137094,0.002089957690313421
-4.0635,0.5155822539406905,0.2564092794141005
-4.063,0.494241904225267,0.4789386859230695
-4.0625,0.4622313796522482,0.7226613692416989
-4.062,0.1741366584950789,0.9451907757500125
-4.0615,-0.3807124341051462,1.167720182258885
-4.061,-0.8928808272734472,1.33726639674141
-4.0605,-1.287677297007705,1.220703374284568
-4.06,-1.244996597576489,0.5637117931634357
-4.0595,-0.7114878546928423,-0.2628260024388724
-4.059,-0.1139580626626144,-0.8774310299385835
-4.0585,0.3768699807903406,-1.269506650929422
-4.058,0.6649647019482183,-1.481439419033127
-4.0575,0.8036769750980928,-1.47084278062796
-4.057,0.8783681991018033,-1.364876396576382
-4.0565,1.091771696255524,-1.439052865412457
-4.056,1.177133095116985,-1.333086481360783
-4.0555,1.027750647109564,-1.05757388282668
-4.055,0.8356874996710437,-0.7608680074815105
-4.0545,0.7289857510943143,-0.5065486857577234
-4.054,0.7076454013789685,-0.315809194464883
-4.0535,0.9530594231052033,0.03387987290630724
-4.053,0.4622313796522482,0.5743084315693548
-4.0525,-0.3487019095316325,1.029963882991555
-4.052,-1.106284324427721,1.337266396741555
-4.0515,-1.789175515318789,1.496215972818921
-4.051,-1.778505340461106,1.316073119931075
-4.0505,-1.031593100424001,0.6272916235958184
-4.05,-0.3380317346739499,-0.04029659593035631
-4.0495,0.1527963087794516,-0.4535654937318862
-4.049,0.4408910299366209,-0.6231117082144109
-4.0485,0.5582629533714017,-0.591321792998928
-4.048,0.5689331282290746,-0.4429688553267188
-4.0475,0.5369226036560557,-0.2098428104132473
-4.047,0.5049120790829594,0.1080563417422576
-4.0465,0.4835717293676135,0.4047622170866759
-4.046,0.4622313796522676,0.6484849004053053
-4.0455,0.3128489316441478,0.8922075837245802
-4.045,-0.2846808603855366,1.114736990232894
-4.0445,-0.9675720512772257,1.316073119931075
-4.044,-1.469070269588504,1.35845967355135
-4.0435,-1.682473766741963,0.92399749893988
-4.043,-1.244996597576974,0.13984625695749
-4.0425,-0.5514352318282336,-0.5913217929983978
-4.042,0.05676473506030786,-1.110557074852267
-4.0415,0.4835717293676135,-1.375473034981453
-4.041,0.7396559259517639,-1.354279758171137
-4.0405,0.8676980242442661,-1.227120097309128
-4.04,0.9530594231056497,-1.248313374119443
-4.0395,1.070431346540052,-1.195330182093655
-4.039,1.059761171682379,-0.9833974139900458
-4.0385,0.9530594231056497,-0.7502713690765743
-4.038,0.8356874996712476,-0.5171453241631029
-4.0375,0.7396559259519871,-0.3158091944644108
-4.037,0.7289857510943143,0.01268659609548085
-4.0365,0.408880505363835,0.5425185163538525
-4.036,-0.3807124341051754,0.9981739677761581
-4.0355,-0.9248913518464952,1.114736990232894
-4.035,-1.26633694729234,0.383568940276341
-4.0345,-1.693143941599257,-0.8244478379116477
-4.034,-1.565101843307454,-1.587405803084801
-4.0335,-0.8822106524157645,-1.51322933424863
-4.033,-0.2526703358130612,-1.099960436447476
-4.0325,0.1954770082104151,-0.6549016234297493
-4.032,0.4515612047945656,-0.3052125560595421
-4.0315,0.5582629533712951,-0.05089323433575504
-4.031,0.5689331282290455,0.150442895362831
-4.0305,0.5369226036560266,0.3411823866556712
-4.03,0.5155822539406808,0.4153588554917759
-4.0295,0.4622313796521124,0.5849050699747246
-4.029,0.3128489316446912,0.8074344764830383
-4.0285,-0.2526703358124887,1.040560521396722
-4.028,-0.9569018764200381,1.263089927905354
-4.0275,-1.501080794161358,1.390249588767247
-4.027,-1.959898313041711,1.42203950398275
-4.0265,-1.874536914180328,0.9663840525609642
-4.026,-1.170305373573196,0.1080563417419877
-4.0255,-0.423393133535411,-0.6760949002404023
-4.025,0.1527963087789276,-1.237716735713766
-4.0245,0.5155822539408264,-1.555615887869415
-4.024,0.6969752265212663,-1.682775548731308
-4.0235,0.750326100809631,-1.735758740757097
-4.023,0.6542945270905358,-1.862918401618953
-4.0225,0.6542945270905358,-1.640388995110639
-4.022,0.6542945270905358,-1.354279758171378
-4.0215,0.6329541773751997,-1.205926820498514
-4.021,0.6649647019482183,-0.9198175835592532
-4.0205,0.7823366253827275,-0.5277419625680583
-4.02,0.9957401225358562,0.1080563417425564
-4.0195,0.4195506802215176,0.7332580076468663
-4.019,-0.4447334832507763,1.188913459069066
-4.0185,-1.255666772433919,1.443232780792853
-4.018,-1.863866739322568,1.538602526439591
-4.0175,-1.533091318734406,1.167720182258731
-4.017,-0.7861790786973001,0.4683420475183165
-4.0165,-0.1566387620929568,-0.1038764263616308
-4.016,0.2701682322139607,-0.400582301706049
-4.0155,0.4942419042250923,-0.4747587705421536
-4.015,0.5796033030867573,-0.379389024895531
-4.0145,0.5796033030867573,-0.1780528951975329
-4.014,0.5582629533714115,0.08686306493141199
-4.0135,0.526252428798315,0.372972301871376
-4.013,0.4942419042252961,0.5955017083796896
-4.0125,0.4515612047945656,0.8392243916985406
-4.012,0.2168173579250914,1.040560521396895
-4.0115,-0.2846808603855366,1.231300012689736
-4.011,-0.7968492535543035,1.37965295036208
-4.0105,-1.33035799643795,1.432636142387869
-4.01,-1.383708870726849,1.040560521396722
-4.0095,-0.8928808272734472,0.1716361721729923
-4.009,-0.231329986097725,-0.6125150698086844
-4.0085,0.2808384070719538,-1.174136905283638
-4.008,0.6222840025174878,-1.576809164679634
-4.0075,0.7716664505249089,-1.746355379162159
-4.007,0.8356874996712281,-1.67217891032615
-4.0065,0.9317190733902845,-1.682775548731308
-4.006,0.9317190733902845,-1.576809164679634
-4.0055,0.8463576745287553,-1.290699927739824
-4.005,0.7716664505250448,-0.9728007755850904
-4.0045,0.707645401378949,-0.6760949002404023
-4.004,0.6969752265214119,-0.4005823017056057
-4.0035,0.857027849386506,0.08686306493165288
-4.003,0.3235191065023739,0.6590815388106942
-4.0025,-0.5300948821114611,1.11473699023248
-4.002,-1.319687821580753,1.390249588767247
-4.0015,-1.981238662757077,1.528005888034424
-4.001,-1.927887788468712,1.390249588767372
-4.0005,-1.127624674141786,0.7544512844566229
-4,-0.3807124341046804,0.1186529801471552
-3.9995,0.142126133921769,-0.2734226408440398
-3.999,0.4408910299368829,-0.400582301706049
-3.9985,0.5689331282290746,-0.3475991096802118
-3.998,0.5902734779444399,-0.1780528951975329
-3.9975,0.5689331282290746,0.07626642652648545
-3.997,0.5155822539406614,0.3729723018711736
-3.9965,0.4729015545099309,0.6696781772158616
-3.996,0.4302208550792003,0.9028042221295453
-3.9955,0.2701682322139607,1.114736990232894
-3.995,-0.2313299860971235,1.29487984312074
-3.9945,-0.6794773301197943,1.42203950398275
-3.994,-1.202315898146244,1.475022696008586
-3.9935,-1.533091318734406,1.25249328950007
-3.993,-1.234326422719292,0.4365521323021782
-3.9925,-0.5834457564006506,-0.4429688553267188
-3.992,0.02475421048725994,-1.05757388282643
-3.9915,0.4408910299368829,-1.460246142222792
-3.991,0.6329541773751706,-1.608599079895136
-3.9905,0.7183155762366316,-1.629792356705471
-3.99,0.8036769750980928,-1.629792356705471
-3.9895,0.9103787236749192,-1.672178910326141
-3.989,0.9210488985326017,-1.492036057438295
-3.9885,0.8997085488172365,-1.205926820498774
-3.988,0.9957401225363802,-1.068170521231597
-3.9875,0.9637295979633325,-0.8032545611024114
-3.987,0.857027849386506,-0.3581957480853793
-3.9865,0.4195506802215176,0.309392471440169
-3.986,-0.2953510352432193,0.8816109453192104
-3.9855,-0.9569018764195432,1.210106735879401
-3.985,-1.575772018165136,1.369056311956912
-3.9845,-2.002579012472442,1.188913459069066
-3.984,-1.501080794161358,0.4683420475176805
-3.9835,-0.7114878546928423,-0.1144730647665284
-3.983,-0.09261771294724913,-0.4111789401112165
-3.9825,0.3128489316446912,-0.474758770542221
-3.982,0.5155822539406614,-0.3793890248957141
-3.9815,0.5796033030867573,-0.2098428104130352
-3.981,0.5796033030867573,0.02328323450064829
-3.9805,0.5475927785137094,0.3305857482505039
-3.98,0.4942419042252961,0.6060983467848571
-3.9795,0.4622313796522482,0.8392243916985406
-3.979,0.3555296310754218,1.019367244586387
-3.9785,-0.1779791118087102,1.188913459069066
-3.978,-0.8928808272734472,1.347863035146577
-3.9775,-1.479740444445993,1.42203950398275
-3.977,-1.863866739322568,1.220703374284568
-3.9765,-1.586442193022819,0.5107286011383502
-3.976,-0.8715404775580819,-0.3581957480853793
-3.9755,-0.2099896363817582,-1.046977244421262
-3.975,0.3341892813600565,-1.439052865412457
-3.9745,0.6649647019482183,-1.661582271920973
-3.974,0.8036769750980928,-1.693372187136476
-3.9735,0.7609962756673623,-1.640388995110639
-3.973,0.6542945270905358,-1.905304955239825
-3.9725,0.7183155762366316,-1.894708316834657
-3.972,0.7609962756673623,-1.523825972653797
-3.9715,0.7716664505250448,-1.078767159636765
-3.971,0.7823366253827275,-0.718481453861072
-3.9705,0.9103787236749192,-0.3370024712750445
-3.97,0.8676980242441885,0.2564092794143318
-3.9695,0.1741366584948169,0.8392243916985406
-3.969,-0.6047861061160158,1.125333628638062
-3.9685,-1.116954499284783,0.8604176685088755
-3.968,-1.639793067311232,0.8286277532933731
-3.9675,-1.767835165603424,0.5001319627331828
-3.967,-1.116954499284783,-0.02969995752518888
-3.9665,-0.423393133535411,-0.3793890248957141
-3.966,0.09944543449103843,-0.4959520473525559
-3.9655,0.3982103305061524,-0.4641621321370536
-3.965,0.5475927785137094,-0.326405832869877
-3.9645,0.5689331282290746,-0.1144730647665284
-3.964,0.5262524287983441,0.1292496185523226
-3.9635,0.4729015545099309,0.3623756634660061
-3.963,0.3448594562177392,0.6908714540261965
-3.9625,0.2168173579255475,0.92399749893988
-3.962,-0.04993701351651855,1.019367244586387
-3.9615,-0.5514352318276028,1.167720182258731
-3.961,-0.9569018764195432,1.316073119931075
-3.9605,-1.330357996438436,1.178316820663898
-3.96,-1.298347471865388,0.5107286011383502
-3.9595,-0.7861790786966207,-0.3052125560595421
-3.959,-0.156638762093345,-0.8880276683437509
-3.9585,0.3661998059331045,-1.216523458903942
-3.958,0.6649647019482183,-1.34368311976595
-3.9575,0.79300680024041,-1.396666311791788
-3.957,0.8463576745288233,-1.51322933424863
-3.9565,0.6649647019482183,-1.714565463946811
-3.956,0.6116138276598051,-1.629792356705471
-3.9555,0.6969752265212663,-1.38606967338662
-3.955,0.7503261008096795,-1.036380606016095
-3.9545,0.7609962756673623,-0.6760949002404023
-3.954,0.7503261008096795,-0.3475991096802118
-3.9535,0.8676980242441885,0.1822328105781598
-3.953,0.3875401556484697,0.7544512844572011
-3.9525,-0.391382608962363,1.146526905448396
-3.952,-0.9035510021311299,0.7968378380778709
-3.9515,-1.30901764672307,0.3729723018711736
-3.951,-1.67180359188428,0.3305857482505039
-3.9505,-1.30901764672307,-0.02969995752518888
-3.95,-0.6367966306890638,-0.3475991096802118
-3.9495,-0.07127736323188383,-0.4959520473525559
-3.949,0.3021787567870086,-0.4959520473525559
-3.9485,0.4942419042252961,-0.3899856633008816
-3.948,0.5582629533713921,-0.1992461720078678
-3.9475,0.5582629533713921,0.04447651131098315
-3.947,0.5262524287983441,0.3305857482505039
-3.9465,0.4942419042252961,0.55311515475902
-3.946,0.4622313796522482,0.7650479228623686
-3.9455,0.3021787567870086,0.9981739677760521
-3.945,-0.2313299860971235,1.231300012689736
-3.9445,-0.6474668055467465,1.390249588767247
-3.944,-0.9569018764195432,1.42203950398275
-3.9435,-1.170305373573196,1.040560521396722
-3.943,-0.9248913518464952,0.2140227257936621
-3.9425,-0.423393133535411,-0.6443049850249
-3.942,0.05676473506030786,-1.301296566145281
-3.9415,0.408880505363835,-1.640388995110639
-3.941,0.6009436528021226,-1.735758740757146
-3.9405,0.6863050516635838,-1.714565463946811
-3.94,0.857027849386506,-1.75695201756748
-3.9395,1.102441871113207,-1.75695201756748
-3.939,1.145122570543937,-1.449649503817625
-3.9385,1.049090996824793,-1.05757388282643
-3.938,0.9210488985326017,-0.6866915386455698
-3.9375,0.8036769750980928,-0.3899856633008816
-3.937,0.8143471499557753,0.02328323450064829
-3.9365,0.4195506802215176,0.5849050699745222
-3.936,-0.391382608962363,1.061753798207057
-3.9355,-1.138294849000148,1.358459673551745
-3.935,-1.810515865034154,1.506812611224089
-3.9345,-2.023919362187807,1.475022696008586
-3.934,-1.330357996438436,0.9134008605347127
-3.9335,-0.5621054066852853,0.2246193641988295
-3.933,0.02475421048725994,-0.252229364033705
-3.9325,0.3768699807907871,-0.4641621321370536
-3.932,0.5369226036560266,-0.4641621321370536
-3.9315,0.5902734779444399,-0.3370024712750445
-3.931,0.5689331282290746,-0.09327978795619347
-3.9305,0.5262524287983441,0.1822328105781598
-3.93,0.4622313796522482,0.4895353243280153
-3.9295,0.3982103305061524,0.8604176685088755
-3.929,0.2274875327832301,1.072350436612224
-3.9285,-0.3273615598162672,1.231300012689736
-3.928,-0.9248913518464952,1.369056311956912
-3.9275,-1.159635198715513,1.453829419198252
-3.927,-1.405049220442214,1.42203950398275
-3.9265,-1.319687821580753,0.8392243916985406
-3.926,-0.8288597781273515,-0.04029659593035631
-3.9255,-0.2420001609548061,-0.7290780922662394
-3.925,0.2274875327832301,-1.131750351662602
-3.9245,0.5262524287983441,-1.407262950196955
-3.924,0.707645401378949,-1.492036057438295
-3.9235,0.707645401378949,-1.51322933424863
-3.923,0.5049120790829789,-1.672178910326141
-3.9225,0.6969752265212663,-1.682775548731308
-3.922,0.79300680024041,-1.333086481360783
-3.9215,0.7823366253827275,-0.8774310299385835
-3.921,0.7289857510943143,-0.4641621321370536
-3.9205,0.7609962756673623,-0.06148987274069118
-3.92,0.6436243522328531,0.4895353243280153
-3.9195,-0.1139580626626144,0.9875773293708847
-3.919,-0.9142211769888124,1.316073119931075
-3.9185,-1.618452717595867,1.496215972818921
-3.918,-2.07727023647622,1.549199164844759
-3.9175,-1.639793067311232,1.178316820663898
-3.917,-0.807519428411986,0.4471487707073456
-3.9165,-0.1459685872356623,-0.1568596183871981
-3.916,0.2808384070716433,-0.5065486857577234
-3.9155,0.5049120790829789,-0.6019184314042303
-3.915,0.5796033030867573,-0.5489352393783931
-3.9145,0.5902734779444399,-0.3687923864905467
-3.914,0.5582629533713921,-0.08268314955102604
-3.9135,0.5262524287983441,0.1504428953626575
-3.913,0.5049120790829789,0.3305857482505039
-3.9125,0.4302208550792003,0.6378882620003594
-3.912,0.0674349099179905,0.9451907757502149
-3.9115,-0.5194247072545548,1.220703374284568
-3.911,-1.095614149569417,1.390249588767247
-3.9105,-1.682473766741963,1.475022696008586
-3.91,-1.842526389607202,1.188913459069066
-3.9095,-1.191645723288561,0.4471487707073456
-3.909,-0.4340633083930936,-0.2840192792492073
-3.9085,0.1954770082101822,-0.8774310299385835
-3.908,0.5902734779444399,-1.237716735714276
-3.9075,0.8036769750980928,-1.333086481360783
-3.907,0.857027849386506,-1.258910012524611
-3.9065,0.8143471499557753,-1.163540266878104
-3.906,0.7396559259519968,-1.036380606016095
-3.9055,0.6863050516635838,-0.8562377531282487
-3.905,0.7503261008096795,-0.718481453861072
-3.9045,0.7716664505250448,-0.5489352393783931
-3.904,0.7823366253827275,-0.326405832869877
-3.9035,0.8463576745288233,0.13984625695749
-3.903,0.1954770082101822,0.701468092431364
-3.9025,-0.5407650569699201,1.135930267043229
-3.902,-1.202315898146244,1.400846227172415
-3.9015,-1.767835165603424,1.517409249629256
-3.901,-1.554431668449771,1.241896651094903
-3.9005,-0.8502001278427167,0.5637117931641874
-3.9,-0.2099896363817582,-0.02969995752518888
-3.8995,0.2274875327832301,-0.3687923864905467
-3.899,0.4729015545099309,-0.4641621321370536
-3.8985,0.5689331282290746,-0.3899856633008816
-3.898,0.5796033030867573,-0.2204394488182027
-3.8975,0.5582629533713921,0.06566978812131802
-3.897,0.5262524287983441,0.3517790250608387
-3.8965,0.4835717293676135,0.6908714540261965
-3.896,0.4302208550792003,0.9345941373450475
-3.8955,0.2274875327832301,1.093543713422559
-3.895,-0.3807124341046804,1.25249328950007
-3.8945,-1.06360362499637,1.37965295036208
-3.894,-1.703814116457328,1.443232780793084
-3.8935,-2.03458953704549,1.25249328950007
-3.893,-1.533091318734406,0.4895353243280153
-3.8925,-0.8288597781273515,-0.3370024712750445
-3.892,-0.2099896363817582,-0.9622041371799229
-3.8915,0.2594980573562781,-1.38606967338662
-3.891,0.5582629533713921,-1.576809164679634
-3.8905,0.707645401378949,-1.576809164679634
-3.89,0.8356874996711408,-1.650985633515806
-3.8895,1.102441871113207,-1.629792356705471
-3.889,1.326515543124542,-1.333086481360783
-3.8885,1.283834843693812,-1.01518732920576
-3.888,1.091771696255524,-0.6760949002404023
-3.8875,0.8783681991018712,-0.3899856633008816
-3.887,0.9317190733902845,0.02328323450064829
-3.8865,0.5582629533713921,0.5849050699745222
-3.886,-0.3060212101009019,1.040560521396722
-3.8855,-0.9995825758502737,1.125333628638062
-3.885,-1.618452717595867,1.135930267043229
