Class_4_Move_right_hand_Horiszontal/Class_4_Move_right_hand_Horiszontal_AM_1.csv

#Digilent WaveForms Oscilloscope Acquisition
#Device Name: EExplorer
#Serial Number: SN:210151A2B84A
#Date Time: 2020-10-20 17:03:08.016
#Sample rate: 2000Hz
#Samples: 16384
#Trigger: Source: Channel 1 Type: Edge Condition: Rising Level: 0 V Hyst.: Auto HoldOff: 0 s
#Channel 1: Range: 1 V/div Offset: 0 V
#Channel 2: Range: 1 V/div Offset: 0 V

Time (s),Channel 1 (V),Channel 2 (V)
-4.0960000000000001,0.53692260365602662,1.1041403518277266
-4.0955000000000004,0.48357172936766202,1.0087706061813064
-4.0949999999999998,0.44089102993684415,0.91340086053463565
-4.0945,0.3982103305061524,0.82862775329337313
-4.0940000000000003,0.32351910650244181,0.73325800764695304
-4.0934999999999997,-0.14596858723633194,0.48953532432746599
-4.093,-0.88221065241576446,-0.11447306476652835
-4.0925000000000002,-1.9172176136100396,-1.4178595886009371
-4.0919999999999996,-1.8211860398910704,-1.5662125262738982
-4.0914999999999999,-0.97824222613490841,-0.94101086036958814
-4.0910000000000002,-0.19931946152407554,-0.34759910968021185
-4.0904999999999996,0.41955068022178937,0.13984625695771169
-4.0899999999999999,0.71831557623663156,0.38356894027634103
-4.0895000000000001,0.71831557623663156,0.39416557868150842
-4.0890000000000004,0.64362435223292103,0.36237566346603506
-4.0884999999999998,0.57960330308675734,0.35177902506083869
-4.0880000000000001,0.60094365280212259,0.33058574825050385
-4.0875000000000004,0.80367697509790836,0.22461936419892586
-4.0869999999999997,0.81434714995569768,0.23521600260407405
-4.0865,0.72898575109431429,0.31998910984533641
-4.0860000000000003,0.63295417737525794,0.41535885549175655
-4.0854999999999997,0.62228400251791482,0.29879583303430768
-4.085,1.0917716962555239,-0.4641621321370536
-4.0845000000000002,0.89970854881741125,-1.3224898429548348
-4.0839999999999996,-0.028596663802065495,-1.9370948704556255
-4.0834999999999999,-1.0315931004233216,-2.265590661015517
-4.0830000000000002,-1.8852070890379329,-2.360960406662024
-4.0824999999999996,-1.8745369141796193,-1.7145654639458565
-4.0819999999999999,-1.1809755484308786,-0.66549826183523486
-4.0815000000000001,-0.4554036581084589,0.2246193641988295
-4.0810000000000004,0.078105084775187905,0.79683783807735042
-4.0804999999999998,0.3768699807907871,1.0935437134225592
-4.0800000000000001,0.51558225394066137,1.1783168206638983
-4.0795000000000003,0.53692260365600719,1.1465269054484248
-4.0789999999999997,0.50491207908293034,1.0723504366121279
-4.0785,0.45156120479456557,0.96638405256054982
-4.0780000000000003,0.39821033050620092,0.88161094531928752
-4.0774999999999997,0.35552963107508212,0.79683783807754327
-4.077,-0.017926488943470625,0.43655213230217815
-4.0765000000000002,-0.71148785469221143,-0.34759910967949859
-4.0759999999999996,-1.1703053735735451,-1.0681705212320598
-4.0754999999999999,-1.554431668449771,-1.5768091646796343
-4.0750000000000002,-1.1276246741424654,-1.0787671596367647
-4.0744999999999996,-0.35937208438879115,-0.43237221692122363
-4.0739999999999998,0.21681735792554749,-0.072086511145858609
-4.0735000000000001,0.60094365280212259,0.21402272579366208
-4.0730000000000004,0.72898575109419783,0.29879583303492446
-4.0724999999999998,0.67563487680590106,0.26700591781949923
-4.0720000000000001,0.60094365280212259,0.24581264100916439
-4.0715000000000003,0.56893312822910369,0.25640927941432212
-4.0709999999999997,0.66496470194822799,0.27760255622471486
-4.0705,0.67563487680590106,0.33058574825050385
-4.0700000000000003,0.63295417737520943,0.39416557868145058
-4.0694999999999997,0.56893312822904551,0.47893868592285754
-4.069,0.53692260365602662,0.48953532432801533
-4.0685000000000002,0.857027849386506,0.086863064931652884
-4.0679999999999996,1.1664629202586232,-0.64430498502549749
-4.0674999999999999,0.41955068022151765,-1.3012965661452807
-4.0670000000000002,-0.57277558154296804,-1.5874058030848013
-4.0664999999999996,-1.5437614935924475,-1.7463553791621491
-4.0659999999999998,-1.9385579633263461,-1.5662125262744668
-4.0655000000000001,-1.3943790455845313,-0.75027136907657432
-4.0650000000000004,-0.6581369804050986,0.10805634174120715
-4.0644999999999998,-0.071277363231883828,0.73325800764686633
-4.0640000000000001,0.29150858192932599,1.0723504366122243
-4.0635000000000003,0.46223137965209293,1.1995100974741175
-4.0629999999999997,0.52625242879833445,1.1889134590689983
-4.0625,0.51558225394066137,1.1147369902328941
-4.0620000000000003,0.46223137965229671,1.008770606181316
-4.0614999999999997,0.41955068022148856,0.90280422212945854
-4.0609999999999999,0.38754015564846972,0.80743447648303834
-4.0605000000000002,-0.06060718837420119,0.41535885549184332
-4.0599999999999996,-1.383708870727596,-0.8774310299394027
-4.0594999999999999,-2.2053123347684123,-1.7781452943778153
-4.0590000000000002,-2.7068105530794964,-2.4457335139033636
-4.0585000000000004,-2.4720667062106916,-2.3185738530414697
-4.0579999999999998,-1.2663369472923398,-1.3436831197659505
-4.0575000000000001,-0.23132998609712346,-0.37938902489571413
-4.0570000000000004,0.36619980593256102,0.20342608738796464
-4.0564999999999998,0.63295417737517057,0.4471487707073456
-4.056,0.69697522652126631,0.47893868592284788
-4.0555000000000003,0.67563487680592049,0.42595549389705889
-4.0549999999999997,0.62228400251754601,0.36237566346599648
-4.0545,0.6863050516635838,0.35177902506083869
-4.0540000000000003,0.75032610080962137,0.36237566346599648
-4.0534999999999997,0.75032610080960194,0.33058574825048459
-4.0529999999999999,0.66496470194821833,0.30939247144016896
-4.0525000000000002,0.57960330308675734,0.33058574825050385
-4.0519999999999996,0.75032610081019391,0.13984625695689251
-4.0514999999999999,1.3158453682668594,-0.51714532416289083
-4.0510000000000002,1.006410297394063,-1.3012965661452807
-4.0505000000000004,-0.060607188373230647,-1.9053049552392753
-4.0499999999999998,-1.2556667724346571,-2.3079772146361868
-4.0495000000000001,-1.9492281381840288,-2.2549940226103495
-4.0490000000000004,-1.6077825427384949,-1.3224898429564638
-4.0484999999999998,-0.87154047755748998,-0.29461591765365186
-4.048,-0.22065981123944084,0.50013196273318283
-4.0475000000000003,0.21681735792514961,0.97698069096528362
-4.0469999999999997,0.44089102993696061,1.1995100974742814
-4.0465,0.52625242879834411,1.2524932895000704
-4.0460000000000003,0.52625242879834411,1.2101067358794393
-4.0454999999999997,0.48357172936756498,1.1359302670431515
-4.0449999999999999,0.43022085507920033,1.0511571598018894
-4.0445000000000002,0.38754015564846972,0.96638405256054982
-4.0439999999999996,0.280838407071129,0.87101430691354176
-4.0434999999999999,-0.28468086038553664,0.31998910984533641
-4.0430000000000001,-0.94623170156186043,-0.50654868575772338
-4.0425000000000004,-1.522421143876199,-1.3860696733858204
-4.0419999999999998,-1.9598983130417114,-1.9794814240759964
-4.0415000000000001,-1.2663369472923398,-1.3224898429556156
-4.0410000000000004,-0.44473348325152362,-0.55953187778425439
-4.0404999999999998,0.21681735792590656,0.055073149716449353
-4.04,0.6116138276598051,0.38356894027634103
-4.0395000000000003,0.68630505166351585,0.40476221708665661
-4.0389999999999997,0.6542945270904873,0.35177902506078085
-4.0385,0.60094365280212259,0.28819919462983412
-4.0380000000000003,0.63295417737514148,0.21402272579372955
-4.0374999999999996,0.83568749967115041,0.076266426526514358
-4.0369999999999999,0.84635767452882327,0.10805634174198775
-4.0365000000000002,0.75032610080967954,0.2246193641988295
-4.0359999999999996,0.63295417737522874,0.3517790250610025
-4.0354999999999999,0.69697522652126631,0.53192187794868506
-4.0350000000000001,1.2411541442630809,0.83922439169854057
-4.0345000000000004,1.1451225705440244,0.36237566346643985
-4.0339999999999998,0.17413665849481691,-0.50654868575772338
-4.0335000000000001,-0.95690187641954316,-1.2165234589039415
-4.0330000000000004,-1.8638667393217427,-1.6827755487308842
-4.0324999999999998,-1.8958772638949655,-1.4708427806271984
-4.032,-1.1809755484308786,-0.63370834661973252
-4.0315000000000003,-0.45540365810911876,0.1716361721722599
-4.0309999999999997,0.078105084775935169,0.74385464605231322
-4.0305,0.36619980593310447,1.0511571598018894
-4.0300000000000002,0.50491207908285274,1.1783168206637826
-4.0294999999999996,0.53692260365600719,1.188913459069008
-4.0289999999999999,0.51558225394066137,1.1253336286380615
-4.0285000000000002,0.4835717293676135,1.0511571598018894
-4.0279999999999996,0.44089102993669854,0.96638405256034743
-4.0274999999999999,0.23815770764091276,0.74385464605203377
-4.0270000000000001,-0.83952995298503397,-0.13566634157686319
-4.0265000000000004,-1.6397930673105043,-0.97280077558432898
-4.0259999999999998,-1.9172176136109809,-1.8099352095933177
-4.0255000000000001,-1.8852070890379329,-2.1702209153690104
-4.0250000000000004,-1.170305373573846,-1.5132293342492271
-4.0244999999999997,-0.28468086038502233,-0.6231117082140446
-4.024,0.28083840707164331,-0.050893234335523743
-4.0235000000000003,0.54759277851346666,0.26700591781921013
-4.0229999999999997,0.63295417737517057,0.39416557868152768
-4.0225,0.63295417737517057,0.41535885549184332
-4.0220000000000002,0.60094365280215167,0.39416557868152768
-4.0214999999999996,0.60094365280226814,0.36237566346587119
-4.0209999999999999,0.76099627566736228,0.21402272579366208
-4.0205000000000002,0.81434714995577528,0.15044289536265748
-4.0199999999999996,0.73965592595189977,0.17163617217306945
-4.0194999999999999,0.63295417737517057,0.25640927941433178
-4.0190000000000001,0.59027347794443985,0.29879583303500157
-4.0185000000000004,0.97439977282066559,-0.14626297998162585
-4.0179999999999998,1.3371857179822249,-0.91981758355925325
-4.0175000000000001,0.63295417737517057,-1.6085990798951362
-4.0170000000000003,-0.48741418268048786,-2.0006747008859747
-4.0164999999999997,-1.5651018433077448,-2.2338007457997064
-4.016,-1.8852070890379329,-1.8947083168346572
-4.0155000000000003,-1.3410281712966132,-0.8986243067498243
-4.0149999999999997,-0.61545628097317451,0.044476511311580681
-4.0145,-0.039266838658835915,0.70146809243136399
-4.0140000000000002,0.312848931644371,1.072350436611887
-4.0134999999999996,0.48357172936766202,1.2207033742845874
-4.0129999999999999,0.53692260365602662,1.241896651094903
-4.0125000000000002,0.51558225394066137,1.1783168206638983
-4.0119999999999996,0.47290155450987265,1.1041403518276496
-4.0114999999999998,0.40888050536383502,1.0193672445863871
-4.0110000000000001,0.36619980593310447,0.94519077575021493
-4.0105000000000004,0.088775259633608106,0.6908714540264278
-4.0099999999999998,-0.59411593125833329,-0.072086511145858609
-4.0095000000000001,-1.2129860730039266,-1.0045906908005926
-4.0090000000000003,-1.7891755153182651,-1.7887419327822696
-4.0084999999999997,-1.0315931004225356,-0.98339741398957359
-4.008,-0.16730893695102761,-0.2310360872233701
-4.0075000000000003,0.44089102993632984,0.15044289536231054
-4.0069999999999997,0.77166645052504479,0.35177902506080977
-4.0065,0.77166645052504479,0.31998910984533641
-4.0060000000000002,0.6863050516635838,0.24581264100916439
-4.0054999999999996,0.59027347794440099,0.19282944898332721
-4.0049999999999999,0.54759277851370936,0.19282944898332721
-4.0045000000000002,0.66496470194821833,0.21402272579366208
-4.0039999999999996,0.76099627566732342,0.23521600260406442
-4.0034999999999998,0.71831557623663156,0.30939247144016896
-4.0030000000000001,0.65429452709053582,0.39416557868150842
-4.0025000000000004,0.57960330308682528,0.47893868592277078
-4.0019999999999998,0.69697522652126631,0.15044289536265748
-4.0015000000000001,0.93171907339028448,-0.64430498502489997
-4.0010000000000003,0.29150858192990825,-1.3436831197653145
-4.0004999999999997,-0.7648387289821289,-1.7887419327831369
-4,-1.7251544661726932,-1.9582881472656615
-3.9994999999999998,-2.2159825096260946,-1.7675486559726479
-3.9990000000000001,-1.6077825427381842,-0.88802766834375091
-3.9984999999999999,-0.79684925355430347,0.044476511310983152
-3.9980000000000002,-0.13529841237797968,0.74385464605203377
-3.9975000000000001,0.27016823221396069,1.1359302670432285
-3.9969999999999999,0.47290155450993088,1.2842832047155728
-3.9965000000000002,0.53692260365602662,1.2842832047155728
-3.996,0.52625242879834411,1.1995100974742332
-3.9954999999999998,0.47290155450993088,1.0829470750173917
-3.9950000000000001,0.40888050536383502,0.95578741415538238
-3.9944999999999999,0.36619980593310447,0.84982103010370802
-3.9940000000000002,-0.11395806266261441,0.37297230187117358
-3.9935,-1.2023158981462438,-0.4535654937318862
-3.9929999999999999,-1.7998456901764717,-1.2059268204987741
-3.9925000000000002,-2.1092807610492685,-1.9370948704553266
-3.992,-1.7678351656034239,-1.6721789103261409
-3.9914999999999998,-0.78617907869662074,-0.792657922697244
-3.9910000000000001,0.05676473506030786,-0.11447306476652835
-3.9904999999999999,0.49424190422529612,0.21402272579366208
-3.9900000000000002,0.67563487680590106,0.34118238665567124
-3.9895,0.69697522652126631,0.35177902506083869
-3.9889999999999999,0.65429452709053582,0.31998910984533641
-3.9885000000000002,0.60094365280212259,0.29879583303500157
-3.988,0.65429452709053582,0.29879583303500157
-3.9874999999999998,0.80367697509809277,0.24581264100916439
-3.9870000000000001,0.78233662538272752,0.24581264100916439
-3.9864999999999999,0.67563487680590106,0.25640927941433178
-3.9860000000000002,0.57960330308675734,0.29879583303500157
-3.9855,0.54759277851370936,0.076266426526485451
-3.9849999999999999,0.55826295337139209,-0.67609490024040231
-3.9845000000000002,0.014084035629577295,-1.4390528654124575
-3.984,-0.66880715526211176,-1.84172512480882
-3.9834999999999998,-1.3943790455845313,-1.9582881472656615
-3.9830000000000001,-1.9919088376147593,-1.9370948704553266
-3.9824999999999999,-1.7251544661726932,-1.2801032893349458
-3.9820000000000002,-0.97824222613490841,-0.32640583286987701
-3.9815,-0.29535103524321932,0.47893868592284788
-3.9809999999999999,0.17413665849481691,0.97698069096571727
-3.9805000000000001,0.43022085507920033,1.2207033742845681
-3.98,0.52625242879834411,1.2842832047155728
-3.9794999999999998,0.53692260365602662,1.241896651094903
-3.9790000000000001,0.49424190422529612,1.146526905448396
-3.9784999999999999,0.40888050536383502,1.0511571598018894
-3.9780000000000002,0.36619980593310447,0.94519077575021493
-3.9775,0.31284893164469124,0.86041766850887547
-3.9769999999999999,-0.13529841237797968,0.48953532432801533
-3.9765000000000001,-0.86087030270039921,-0.30521255605954212
-3.976,-1.8852070890379329,-1.5662125262744668
-3.9754999999999998,-2.2053123347684123,-2.1914141921793449
-3.9750000000000001,-1.5330913187344057,-1.7039688255416432
-3.9744999999999999,-0.62612645583138127,-0.91981758355925325
-3.9740000000000002,0.14212613392176898,-0.1674562567923655
-3.9735,0.57960330308675734,0.30939247144016896
-3.9729999999999999,0.67563487680590106,0.42595549389701071
-3.9725000000000001,0.64362435223285308,0.40476221708667587
-3.972,0.59027347794443985,0.36237566346600614
-3.9714999999999998,0.59027347794443985,0.27760255622466667
-3.9710000000000001,0.81434714995577528,-0.029699957525188878
-3.9704999999999999,0.86769802424418851,-0.061489872740691176
-3.9700000000000002,0.77166645052504479,0.033879872905815719
-3.9695,0.66496470194821833,0.17163617217299235
-3.9689999999999999,0.62228400251748783,0.19282944898332721
-3.9685000000000001,0.86769802424418851,-0.43237221692155131
-3.968,0.66496470194821833,-1.2483133741194434
-3.9674999999999998,-0.20998963638175816,-1.8523217632139874
-3.9670000000000001,-1.1382948490001481,-2.1490276385586755
-3.9664999999999999,-1.9598983130417114,-2.2761872994206844
-3.9660000000000002,-2.0345895370454898,-1.8099352095933177
-3.9655,-1.3090176467230703,-0.81385119950757889
-3.9649999999999999,-0.54076505696992005,0.076266426526485451
-3.9645000000000001,0.035424385344942577,0.66967817721586165
-3.964,0.36619980593310447,0.98757732937088472
-3.9634999999999998,0.51558225394066137,1.0829470750173917
-3.9630000000000001,0.54759277851370936,1.0617537982070568
-3.9624999999999999,0.52625242879834411,0.98757732937088472
-3.9620000000000002,0.4622313796522482,0.89220758372437781
-3.9615,0.40888050536383502,0.7968378380778709
-3.9609999999999999,0.33418928136005654,0.78624119967270345
-3.9605000000000001,0.08877525963335578,0.6590815388106942
-3.96,-0.4980843575391895,-0.019103319120021445
-3.9594999999999998,-1.0315931004233216,-0.85623775312824868
-3.9590000000000001,-1.7144842913150107,-1.6721789103261409
-3.9584999999999999,-1.0636036249963696,-1.0893637980419322
-3.9580000000000002,-0.23132998609712346,-0.40058230170604903
-3.9575,0.33418928136005654,0.065669788121318018
-3.9569999999999999,0.69697522652126631,0.38356894027634103
-3.9565000000000001,0.76099627566736228,0.46834204751768049
-3.956,0.6863050516635838,0.42595549389701071
-3.9554999999999998,0.60094365280212259,0.39416557868150842
-3.9550000000000001,0.54759277851370936,0.38356894027634103
-3.9544999999999999,0.66496470194821833,0.34118238665567124
-3.9540000000000002,0.71831557623663156,0.31998910984533641
-3.9535,0.67563487680590106,0.39416557868150842
-3.9529999999999998,0.6116138276598051,0.48953532432801533
-3.9525000000000001,0.5689331282290746,0.57430843156935485
-3.952,0.81434714995577528,0.37297230187117358
-3.9514999999999998,1.3265155431245421,-0.28401927924920728
-3.9510000000000001,0.87836819910187125,-1.0363806060160949
-3.9504999999999999,-0.22065981123944084,-1.523825972653797
-3.9500000000000002,-1.3410281712961183,-1.8099352095933177
-3.9495,-1.9598983130417114,-1.7781452943778153
-3.9489999999999998,-1.5651018433074537,-1.01518732920576
-3.9485000000000001,-0.82885977812735145,-0.10387642636136091
-3.948,-0.18864928666639288,0.60609834678485708
-3.9474999999999998,0.23815770764091276,1.0087706061812196
-3.9470000000000001,0.45156120479456557,1.1783168206638983
-3.9464999999999999,0.52625242879834411,1.1783168206638983
-3.9460000000000002,0.52625242879834411,1.1041403518277266
-3.9455,0.4835717293676135,0.99817396777605205
-3.9449999999999998,0.43022085507920033,0.88161094531921036
-3.9445000000000001,0.35552963107542179,0.80743447648303834
-3.944,0.23815770764091276,0.6590815388106942
-3.9434999999999998,-0.35937208438931517,-0.13566634157686319
-3.9430000000000001,-1.3837088707268488,-1.4496495038176249
-3.9424999999999999,-1.5971123678805015,-2.043061254507001
-3.9420000000000002,-1.2556667724346571,-1.8205318479984851
-3.9415,-0.47674400782382426,-1.0469772444212624
-3.9409999999999998,0.27016823221396069,-0.25222936403370499
-3.9405000000000001,0.64362435223285308,0.18223281057815977
-3.9399999999999999,0.70764540137894905,0.33058574825050385
-3.9394999999999998,0.67563487680590106,0.37297230187117358
-3.9390000000000001,0.6116138276598051,0.35177902506083869
-3.9384999999999999,0.55826295337139209,0.34118238665567124
-3.9380000000000002,0.65429452709053582,0.36237566346600614
-3.9375,0.82501732481345802,0.36237566346600614
-3.9369999999999998,0.80367697509809277,0.38356894027634103
-3.9365000000000001,0.70764540137894905,0.42595549389701071
-3.9359999999999999,0.60094365280212259,0.46834204751768049
-3.9355000000000002,0.73965592595199681,0.33058574825050385
-3.9350000000000001,1.2411541442630809,-0.04029659593035631
-3.9344999999999999,0.87836819910187125,-0.72907809226623943
-3.9340000000000002,-0.06060718837420119,-1.3648763965762853
-3.9335,-1.1489650238578306,-1.7993385711881502
-3.9329999999999998,-1.9385579633263461,-1.9582881472656615
-3.9325000000000001,-1.7678351656034239,-1.3754730349814528
-3.9319999999999999,-1.0315931004233216,-0.41117894011121647
-3.9315000000000002,-0.33803173467394987,0.39416557868150842
-3.931,0.14212613392176898,0.92399749893988004
-3.9304999999999999,0.40888050536383502,1.1783168206638983
-3.9300000000000002,0.51558225394066137,1.241896651094903
-3.9295,0.52625242879834411,1.2101067358794007
-3.9289999999999998,0.4835717293676135,1.1147369902328941
-3.9285000000000001,0.44089102993688295,1.0193672445863871
-3.9279999999999999,0.3982103305061524,0.92399749893988004
-3.9275000000000002,0.33418928136005654,0.82862775329337313
