Class_4_Move_right_hand_Horiszontal/Class_4_Move_right_hand_Horiszontal_Suko_1.csv

#Digilent WaveForms Oscilloscope Acquisition
#Device Name: EExplorer
#Serial Number: SN:210151A2B84A
#Date Time: 2020-10-20 13:25:09.417
#Sample rate: 2000Hz
#Samples: 16384
#Trigger: Source: Channel 1 Type: Edge Condition: Rising Level: 0 V Hyst.: Auto HoldOff: 0 s
#Channel 1: Range: 1 V/div Offset: 0 V
#Channel 2: Range: 1 V/div Offset: 0 V

Time (s),Channel 1 (V),Channel 2 (V)
-4.0960000000000001,0.43022085507920033,0.076266426526485451
-4.0955000000000004,0.40888050536385445,0.26700591781932576
-4.0949999999999998,0.30217875678647488,0.15044289536226235
-4.0945,-0.28468086038553664,-0.28401927924920728
-4.0940000000000003,-0.26334051067019082,-0.029699957525420206
-4.0934999999999997,-0.15663876209321881,0.3093924714404292
-4.093,-0.017926488943470625,0.59550170837968963
-4.0925000000000002,0.17413665849464222,0.37297230187137598
-4.0919999999999996,0.088775259632899672,-0.48535540894823659
-4.0914999999999999,-0.41272295867772835,-1.4178595886021226
-4.0910000000000002,-1.2449965975769743,-1.9794814240759964
-4.0904999999999996,-2.1626316353379731,-1.4284562270063166
-4.0899999999999999,-2.4827368810681607,-0.3581957480853793
-4.0895000000000001,-1.8211860398918371,0.10805634174198775
-4.0890000000000004,-0.92489135184731031,0.11865298014714554
-4.0884999999999998,-0.20998963638175816,-0.072086511145858609
-4.0880000000000001,0.21681735792554749,-0.32640583286987701
-4.0875000000000004,0.40888050536366033,-0.54893523937819066
-4.0869999999999997,0.46223137965223848,-0.71848145386114903
-4.0865,0.45156120479456557,-0.80325456110241145
-4.0860000000000003,0.40888050536387383,-0.79265792269725366
-4.0854999999999997,0.37686998079076767,-0.7078848154557793
-4.085,0.35552963107542179,-0.57012851618872795
-4.0845000000000002,0.30217875678705713,-0.34759910968041424
-4.0839999999999996,0.0034138607715549938,0.36237566346671934
-4.0834999999999999,-0.3700422592469978,1.146526905448396
-4.0830000000000002,-0.73282820440820751,1.7187453793274377
-4.0824999999999996,-0.71148785469253173,1.8353084017838357
-4.0819999999999999,-0.3700422592469978,1.3478630351465775
-4.0815000000000001,-0.017926488943470625,0.63788826200035942
-4.0810000000000004,0.2274875327830069,0.16103953376825864
-4.0804999999999998,0.36619980593310447,-0.061489872740691176
-4.0800000000000001,0.41955068022151765,-0.072086511145858609
-4.0795000000000003,0.41955068022151765,0.055073149716034928
-4.0789999999999997,0.40888050536386411,0.24581264100927042
-4.0785,0.44089102993688295,0.36237566346600614
-4.0780000000000003,0.47290155450990179,0.4895353243278997
-4.0774999999999997,0.45156120479453649,0.66967817721603518
-4.077,0.41955068022151765,0.86041766850887547
-4.0765000000000002,0.32351910650246118,0.92399749893982219
-4.0759999999999996,-0.31669138495875926,0.30939247143955217
-4.0754999999999999,-0.50875453239687207,-0.36879238649054674
-4.0750000000000002,-0.82885977812735145,-1.1741369052832717
-4.0744999999999996,-1.3196878215811507,-1.5344226110581067
-4.0739999999999998,-1.7571649907457412,-0.59132179299906285
-4.0735000000000001,-2.2266526844837773,0.58490506997452218
-4.0730000000000004,-1.9598983130419541,0.89220758372409836
-4.0724999999999998,-1.1916457232885611,0.55311515475901996
-4.0720000000000001,-0.4554036581084589,0.055073149716150585
-4.0715000000000003,0.056764735059841975,-0.35819574808500343
-4.0709999999999997,0.33418928136016329,-0.63370834661985775
-4.0705,0.45156120479456557,-0.77146464588690922
-4.0700000000000003,0.47290155450991145,-0.79265792269722468
-4.0694999999999997,0.45156120479452677,-0.71848145386097562
-4.069,0.40888050536383502,-0.61251506980939763
-4.0685000000000002,0.3768699807907871,-0.4535654937318862
-4.0679999999999996,0.28083840707115809,0.012686596096184397
-4.0674999999999999,-0.25267033581248871,0.78624119967270345
-4.0670000000000002,-1.1169544992847826,1.4856193344137538
-4.0664999999999996,-1.7678351656033171,1.9306781474307284
-4.0659999999999998,-1.6504632421689147,1.8670983169997815
-4.0655000000000001,-0.97824222613490841,1.2101067358794007
-4.0650000000000004,-0.31669138495918625,0.55311515475961748
-4.0644999999999998,0.14212613392176898,0.16103953376782493
-4.0640000000000001,0.38754015564846972,0.044476511310983152
-4.0635000000000003,0.48357172936752613,0.097459703336772119
-4.0629999999999997,0.4942419042252767,0.24581264100933786
-4.0625,0.47290155450993088,0.43655213230217815
-4.0620000000000003,0.46223137965225791,0.56371179316407172
-4.0614999999999997,0.48357172936759407,0.61669498519013055
-4.0609999999999999,0.4622313796522482,0.73325800764686633
-4.0605000000000002,0.43022085507920033,0.86041766850887547
-4.0599999999999996,0.40888050536379622,0.95578741415529567
-4.0594999999999999,0.36619980593310447,0.86041766850887547
-4.0590000000000002,0.16346648363713429,0.2246193641988295
-4.0585000000000004,-0.20998963638141849,-0.52774196256737405
-4.0579999999999998,-1.0422632752810042,-1.4814394190331273
-4.0575000000000001,-1.3090176467230703,-2.0854478081276708
-4.0570000000000004,-1.2876772970077244,-2.3503637682566154
-4.0564999999999998,-1.3410281712961183,-2.2549940226103495
-4.056,-0.8502001278427167,-1.5026326958434622
-4.0555000000000003,-0.25267033581303211,-0.71848145386178519
-4.0549999999999997,0.11011560934888605,-0.32640583286978064
-4.0545,0.29150858192932599,-0.22043944881820265
-4.0540000000000003,0.3875401556483824,-0.28401927924914944
-4.0534999999999997,0.40888050536383502,-0.4323722169216766
-4.0529999999999999,0.40888050536383502,-0.57012851618872795
-4.0525000000000002,0.3982103305061524,-0.64430498502489997
-4.0519999999999996,0.38754015564846001,-0.67609490024036378
-4.0514999999999999,0.3768699807907871,-0.63370834661973252
-4.0510000000000002,0.34485945621773917,-0.34759910968021185
-4.0505000000000004,0.30217875678704742,0.27760255622409796
-4.0499999999999998,0.078105084775673142,0.98757732937088472
-4.0495000000000001,-0.29535103524321932,1.5174092496292562
-4.0490000000000004,-0.39138260896227572,1.3478630351467316
-4.0484999999999998,-0.19931946152385233,0.63788826199980042
-4.048,0.046094560202625215,0.023283234500648287
-4.0475000000000003,0.24882788249841103,-0.35819574808503235
-4.0469999999999997,0.36619980593315299,-0.4747587705421536
-4.0465,0.41955068022151765,-0.40058230170604903
-4.0460000000000003,0.43022085507919061,-0.2204394488183665
-4.0454999999999997,0.43022085507925856,-0.0085066807147769104
-4.0449999999999999,0.49424190422529612,0.076266426526485451
-4.0445000000000002,0.49424190422529612,0.25640927941433178
-4.0439999999999996,0.46223137965221911,0.50013196273339489
-4.0434999999999999,0.43022085507920033,0.73325800764686633
-4.0430000000000001,0.3982103305061524,0.89220758372437781
-4.0425000000000004,0.34485945621778769,0.64848490040574847
-4.0419999999999998,0.11011560934872107,0.0020899576903134209
-4.0415000000000001,-0.77550890383893822,-0.89862430674891836
-4.0410000000000004,-1.5224211438760435,-1.4390528654119659
-4.0404999999999998,-0.87154047755805286,-0.45356549373097066
-4.04,-0.83952995298503397,0.55311515475901996
-4.0395000000000003,-0.60478610611622929,0.7862411996724914
-4.0389999999999997,-0.15663876209310235,0.55311515475860551
-4.0385,0.11011560934872107,0.097459703336820316
-4.0380000000000003,0.25949805735614223,-0.29461591765401807
-4.0374999999999996,0.34485945621777797,-0.53833860097333164
-4.0369999999999999,0.38754015564846972,-0.65490162343006741
-4.0365000000000002,0.38754015564846972,-0.65490162343006741
-4.0359999999999996,0.38754015564846972,-0.58072515459378937
-4.0354999999999999,0.38754015564846972,-0.4641621321370536
-4.0350000000000001,0.38754015564846972,-0.29461591765437467
-4.0345000000000004,0.3235191065024321,0.055073149715832548
-4.0339999999999998,0.067434909917990504,0.74385464605203377
-4.0335000000000001,-0.41272295867772835,1.4114428655775821
-4.0330000000000004,-0.99958257584973986,1.8353084017838937
-4.0324999999999998,-1.0209229255652896,1.6763588257062956
-4.032,-0.63679663068906378,1.1571235438535634
-4.0315000000000003,-0.1673089369514546,0.60609834678535823
-4.0309999999999997,0.1741366584949916,0.18223281057797666
-4.0305,0.36619980593310447,-0.019103319120021445
-4.0300000000000002,0.440891029936815,-0.029699957525179239
-4.0294999999999996,0.46223137965222877,0.08686306493180708
-4.0289999999999999,0.44089102993688295,0.25640927941433178
-4.0285000000000002,0.4622313796522482,0.35177902506083869
-4.0279999999999996,0.47290155450990179,0.47893868592300209
-4.0274999999999999,0.44089102993688295,0.64848490040552687
-4.0270000000000001,0.41955068022151765,0.80743447648303834
-4.0265000000000004,0.38754015564849886,0.91340086053461633
-4.0259999999999998,0.29150858192932599,0.68027481562102909
-4.0255000000000001,-0.028596663801153277,-0.019103319120021445
-4.0250000000000004,-0.43406330839272489,-0.61251506980885795
-4.0244999999999997,-0.8715404775589165,-0.90922094515407614
-4.024,-1.7891755153187892,-0.89862430674891836
-4.0235000000000003,-2.2800035587717442,0.033879872904967634
-4.0229999999999997,-2.0239193621871179,0.46834204751754555
-4.0225,-1.2663369472923398,0.31998910984533641
-4.0220000000000002,-0.42339313353617758,0.086863064931864908
-4.0214999999999996,0.11011560934892486,-0.22043944881847249
-4.0209999999999999,0.33418928136005654,-0.51714532416289083
-4.0205000000000002,0.43022085507920033,-0.6972881770507372
-4.0199999999999996,0.44089102993686352,-0.78206128429206689
-4.0194999999999999,0.41955068022151765,-0.77146464588690922
-4.0190000000000001,0.3982103305061524,-0.68669153864556975
-4.0185000000000004,0.38754015564847943,-0.54893523937851829
-4.0179999999999998,0.35552963107542179,-0.29461591765437467
-4.0175000000000001,-0.12462823752029703,0.40476221708667587
-4.0170000000000003,-0.78617907869601911,1.0829470750167749
-4.0164999999999997,-1.01025275070784,1.5491991648448935
-4.016,-0.88221065241576446,1.6975521025171028
-4.0155000000000003,-0.49808435753953889,1.3054764815262643
-4.0149999999999997,-0.10328788780466973,0.73325800764646154
-4.0145,0.18480683335249956,0.28819919462983412
-4.0140000000000002,0.35552963107526653,0.044476511311204808
-4.0134999999999996,0.43022085507921976,-0.019103319119944343
-4.0129999999999999,0.45156120479456557,0.065669788121318018
-4.0125000000000002,0.44089102993688295,0.2246193641988295
-4.0119999999999996,0.462231379652287,0.34118238665570977
-4.0114999999999998,0.50491207908297886,0.38356894027634103
-4.0110000000000001,0.49424190422529612,0.54251851635385251
-4.0105000000000004,0.46223137965227734,0.72266136924153501
-4.0099999999999998,0.41955068022151765,0.86041766850887547
-4.0095000000000001,0.3982103305061524,0.89220758372437781
-4.0090000000000003,0.45156120479451706,0.43655213230259254
-4.0084999999999997,0.40888050536354387,-0.31580919446522998
-4.008,0.08877525963335578,-0.88802766834375091
-4.0075000000000003,-0.38071243410425348,-0.5277419625683859
-4.0069999999999997,-1.223656247862172,0.12924961855214914
-4.0065,-1.8425263896072024,-0.061489872740691176
-4.0060000000000002,-1.3410281712961183,-0.19924617200786782
-4.0054999999999996,-0.75416855412310713,-0.48535540894757162
-4.0049999999999999,-0.24200016095480609,-0.68669153864556975
-4.0045000000000002,0.20614718306786484,-0.70788481545590454
-4.0039999999999996,0.39821033050617183,-0.73967473067145506
-4.0034999999999998,0.41955068022151765,-0.792657922697244
-4.0030000000000001,0.40888050536383502,-0.76086800748174177
-4.0025000000000004,0.38754015564848915,-0.66549826183532157
-4.0019999999999998,0.36619980593310447,-0.50654868575772338
-4.0015000000000001,0.35552963107542179,-0.30521255605954212
-4.0010000000000003,0.22748753278334657,0.22461936419834772
-4.0004999999999997,-0.13529841237838727,0.98757732937145337
-4,-0.58344575640065055,1.6127789952757632
-3.9994999999999998,-0.78617907869662074,1.9094848706204512
-3.9990000000000001,-0.47674400782382426,1.6657621873016004
-3.9984999999999999,-0.071277363231883828,1.0087706061812196
-3.9980000000000002,0.22748753278323011,0.38356894027634103
-3.9975000000000001,0.3982103305061524,0.023283234500648287
-3.9969999999999999,0.47290155450993088,-0.072086511145858609
-3.9965000000000002,0.47290155450993088,0.012686596095480854
-3.996,0.45156120479456557,0.18223281057815977
-3.9954999999999998,0.45156120479456557,0.35177902506083869
-3.9950000000000001,0.62228400251748783,0.25640927941433178
-3.9944999999999999,0.67563487680590106,0.33058574825050385
-3.9940000000000002,0.6116138276598051,0.5637117931641874
-3.9935,0.52625242879834411,0.7968378380778709
-3.9929999999999999,0.45156120479456557,0.93459413734504748
-3.9925000000000002,0.43022085507920033,0.57430843156935485
-3.992,0.31284893164469124,-0.1674562567923655
-3.9914999999999998,-0.14596858723566233,-0.84564111472308123
-3.9910000000000001,-0.79684925355430347,-0.97280077558509037
-3.9904999999999999,-1.46907026958831,-0.19924617200786782
-3.9900000000000002,-1.5330913187344057,0.38356894027634103
-3.9895,-1.0102527507079564,0.31998910984533641
-3.9889999999999999,-0.98891240099259115,-0.54893523937839306
-3.9885000000000002,-0.70081767983515975,-1.0257839676109275
-3.988,-0.30602121010090194,-1.1635402668781043
-3.9874999999999998,-0.049937013516518552,-1.2165234589039415
-3.9870000000000001,0.20614718306786484,-1.0893637980419322
-3.9864999999999999,0.3768699807907871,-0.89862430674891836
-3.9860000000000002,0.3982103305061524,-0.80325456110241145
-3.9855,0.36619980593310447,-0.68669153864556975
-3.9849999999999999,0.34485945621773917,-0.51714532416289083
-3.9845000000000002,0.30217875678700862,-0.15685961838719809
-3.984,0.099445434491038431,0.58490506997452218
-3.9834999999999998,-0.11395806266261441,1.3054764815259077
-3.9830000000000001,-0.32736155981626724,1.7823252097584423
-3.9824999999999999,-0.20998963638175816,1.7187453793274377
-3.9820000000000002,0.035424385344942577,1.1253336286380615
-3.9815,0.23815770764091276,0.55311515475901996
-3.9809999999999999,0.35552963107542179,0.21402272579366208
-3.9805000000000001,0.41955068022151765,0.086863064931652884
-3.98,0.44089102993688295,0.13984625695749003
-3.9794999999999998,0.44089102993688295,0.28819919462983412
-3.9790000000000001,0.43022085507920033,0.46834204751768049
-3.9784999999999999,0.49424190422529612,0.47893868592284788
-3.9780000000000002,0.51558225394066137,0.54251851635385251
-3.9775,0.49424190422529612,0.70146809243136399
-3.9769999999999999,0.45156120479456557,0.84982103010370802
-3.9765000000000001,0.41955068022151765,0.95578741415538238
-3.976,0.38754015564846972,0.75445128445720111
-3.9754999999999998,0.38754015564846972,0.012686596095480854
-3.9750000000000001,0.19547700821018218,-0.78206128429207655
-3.9744999999999999,-0.24200016095480609,-1.2695066509297783
-3.9740000000000002,-0.74349837926589024,-0.75027136907657432
-3.9735,-1.2983474718653876,0.21402272579366208
-3.9729999999999999,-1.1916457232885611,0.55311515475901996
-3.9725000000000001,-0.69014750497747701,0.31998910984533641
-3.972,-0.19931946152407554,-0.082683149551026042
-3.9714999999999998,-0.19931946152407554,-0.792657922697244
-3.9710000000000001,-0.4554036581084589,-1.5132293342486296
-3.9704999999999999,-0.24200016095480609,-1.5450192494641319
-3.9700000000000002,-0.092617712947249131,-1.4814394190331273
-3.9695,0.078105084775673142,-1.2589100125246109
-3.9689999999999999,0.29150858192932599,-0.89862430674891836
-3.9685000000000001,0.36619980593310447,-0.66549826183523486
-3.968,0.33418928136005654,-0.36879238649054674
-3.9674999999999998,0.16346648363713429,0.36237566346600614
-3.9670000000000001,-0.092617712947249131,1.1571235438535634
-3.9664999999999999,-0.4980843575391895,1.7187453793274377
-3.9660000000000002,-0.55143523182760279,1.8353084017842791
-3.9655,-0.24200016095480609,1.4538294191982519
-3.9649999999999999,0.08877525963335578,0.83922439169854057
-3.9645000000000001,0.30217875678700862,0.29879583303500157
-3.964,0.41955068022151765,-0.0085066807148540119
-3.9634999999999998,0.45156120479456557,-0.072086511145858609
-3.9630000000000001,0.45156120479456557,0.023283234500648287
-3.9624999999999999,0.44089102993688295,0.21402272579366208
-3.9620000000000002,0.45156120479456557,0.38356894027634103
-3.9615,0.47290155450993088,0.51072860113835017
-3.9609999999999999,0.4622313796522482,0.70146809243136399
-3.9605000000000001,0.44089102993688295,0.88161094531921036
-3.96,0.40888050536383502,1.0299638829915545
-3.9594999999999998,0.44089102993688295,1.0193672445863871
-3.9590000000000001,0.88903837395955376,0.42595549389701071
-3.9584999999999999,1.4012067671283206,-0.37938902489571413
-3.9580000000000002,1.3905365922706379,-1.0363806060160949
-3.9575,0.53692260365602662,-1.4814394190331273
-3.9569999999999999,-0.53009488211223732,-1.6721789103261409
-3.9565000000000001,-0.81818960326966872,-1.2483133741194434
-3.956,-0.57277558154296804,-0.60191843140423029
-3.9554999999999998,-0.20998963638175816,-0.13566634157686319
-3.9550000000000001,0.08877525963335578,0.055073149716150585
-3.9544999999999999,0.28083840707164331,0.023283234500648287
-3.9540000000000002,0.36619980593310447,-0.14626297998203064
-3.9535,0.067434909917990504,-0.6972881770507372
-3.9529999999999998,-0.44473348325077627,-1.4178595886021226
-3.9525000000000001,-0.32736155981626724,-1.4708427806279598
-3.952,-0.20998963638175816,-1.4708427806279598
-3.9514999999999998,-0.028596663801153277,-1.2695066509297783
-3.9510000000000001,0.014084035629577295,-0.52774196256805828
-3.9504999999999999,-0.41272295867772835,0.37297230187117358
-3.9500000000000002,-1.1382948490001481,1.0299638829915545
-3.9495,-1.5117509690190405,1.4114428655775821
-3.9489999999999998,-1.0315931004233216,1.2524932895000704
-3.9485000000000001,-0.41272295867772835,0.57430843156935485
-3.948,0.067434909917990504,-0.093279787956193475
-3.9474999999999998,0.35552963107542179,-0.50654868575772338
-3.9470000000000001,0.47290155450993088,-0.63370834661973252
-3.9464999999999999,0.49424190422529612,-0.55953187778356051
-3.9460000000000002,0.4622313796522482,-0.34759910968021185
-3.9455,0.44089102993688295,-0.11447306476652835
-3.9449999999999998,0.49424190422529612,0.012686596095480854
-3.9445000000000001,0.49424190422529612,0.26700591781949923
-3.944,0.47290155450993088,0.58490506997452218
-3.9434999999999998,0.43022085507920033,0.88161094531921036
-3.9430000000000001,0.3982103305061524,1.0829470750173917
-3.9424999999999999,0.28083840707164331,0.74385464605203377
-3.9420000000000002,-0.092617712947249131,-0.0085066807148540119
-3.9415,-0.83952995298503397,-0.66549826183523486
-3.9409999999999998,-0.93556152670417769,-0.59132179299906285
-3.9405000000000001,-0.66880715526211176,0.21402272579366208
-3.9399999999999999,-0.81818960326966872,0.89220758372437781
-3.9394999999999998,-0.6047861061160158,0.7968378380778709
-3.9390000000000001,-0.24200016095480609,0.36237566346600614
-3.9384999999999999,0.067434909917990504,-0.082683149551026042
-3.9380000000000002,0.27016823221396069,-0.42177557851638392
-3.9375,0.36619980593310447,-0.62311170821456507
-3.9369999999999998,0.40888050536383502,-0.71848145386107198
-3.9365000000000001,0.3982103305061524,-0.70788481545590454
-3.9359999999999999,0.3768699807907871,-0.63370834661973252
-3.9355000000000002,0.35552963107542179,-0.51714532416289083
-3.9350000000000001,0.14212613392176898,-0.55953187778356051
-3.9344999999999999,-0.46607383296614152,-0.76086800748174177
-3.9340000000000002,-0.58344575640065055,0.15044289536265748
-3.9335,-0.78617907869662074,1.0935437134225592
-3.9329999999999998,-0.97824222613490841,1.7611319329481074
-3.9325000000000001,-0.66880715526211176,1.8882915938101164
-3.9319999999999999,-0.27401068552785401,1.3266697583362426
-3.9315000000000002,0.024754210487259936,0.58490506997452218
-3.931,0.23815770764091276,0.055073149716150585
-3.9304999999999999,0.35552963107542179,-0.18864953360270037
-3.9300000000000002,0.40888050536383502,-0.18864953360270037
-3.9295,0.43022085507920033,-0.04029659593035631
-3.9289999999999998,0.43022085507920033,0.17163617217299235
