Class_4_Move_right_hand_Horiszontal/Class_4_Move_right_hand_horizontal_Basim_4.csv

#Digilent WaveForms Oscilloscope Acquisition
#Device Name: EExplorer
#Serial Number: SN:210151A2B84A
#Date Time: 2020-11-18 11:19:26.379
#Sample rate: 2000Hz
#Samples: 16384
#Trigger: Source: Channel 1 Type: Edge Condition: Rising Level: 0 V Hyst.: Auto HoldOff: 0 s
#Channel 1: Range: 1 V/div Offset: 0 V Attenuation: 1 X
#Channel 2: Range: 1 V/div Offset: 0 V Attenuation: 1 X
#Power Supplies: ON
#Fixed Supply: ON
#Voltage: 3.3 V Readback: 3.327 V
#Positive Supply: ON
#Voltage: 3.7 V Readback: 3.716 V
#Current: 500 mA Readback: 20 mA
#Negative Supply: ON
#Voltage: -3.7 V Readback: -3.702 V
#Current: -500 mA Readback: -10 mA
#Reference 1: ON
#Voltage: 0 V
#Reference 2: ON
#Voltage: 0 V

Time (s),Channel 1 (V),Channel 2 (V)
-4.096,-1.661133417026597,-1.735758740757146
-4.0955,-0.9462317015625106,-1.099960436447678
-4.095,-0.1993194615236291,-0.3264058328692891
-4.0945,0.291508581929326,0.3199891098453364
-4.094,0.5155822539404575,0.701468092431017
-4.0935,0.5582629533713727,0.8816109453192682
-4.093,0.5369226036560266,0.9451907757502149
-4.0925,0.4942419042253349,0.9028042221295838
-4.092,0.536922603656017,0.6802748156209134
-4.0915,0.5262524287983441,0.55311515475902
-4.091,0.4729015545099309,0.5001319627331828
-4.0905,0.4195506802214788,0.468342047517642
-4.09,0.3768699807907871,0.4259554938970107
-4.0895,0.1634664836371343,0.5001319627331828
-4.089,-0.5514352318269526,0.5319218779486562
-4.0885,-1.244996597576974,-0.1038764263613609
-4.088,-1.661133417026597,-0.9622041371799229
-4.0875,-1.703814116457289,-1.386069673386235
-4.087,-1.148965023857248,-1.046977244420761
-4.0865,-0.5087545323968721,-0.4959520473525559
-4.086,-0.02859666380158998,-0.01910331912045515
-4.0855,0.2488278824987215,0.2776025562248016
-4.085,0.3875401556484697,0.4259554938970107
-4.0845,0.4195506802214886,0.4789386859227997
-4.084,0.4088805053638156,0.4789386859228382
-4.0835,0.3875401556484697,0.4683420475176805
-4.083,0.3555296310754218,0.4365521323021782
-4.0825,0.3341892813600468,0.4153588554918337
-4.082,0.3235191065023739,0.4047622170866759
-4.0815,0.3128489316446912,0.3411823866556712
-4.081,-0.02859666380084275,-0.1250697031712717
-4.0805,-0.7648387289812555,-0.9092209451540858
-4.08,-1.415719395299897,-1.619195718300304
-4.0795,-1.821186039891468,-2.106641084937563
-4.079,-1.394379045583823,-1.841725124808068
-4.0785,-0.6154562809736985,-1.01518732920576
-4.078,0.03542438534435055,-0.1992461720086098
-4.0775,0.4195506802216438,0.3305857482508123
-4.077,0.5582629533713921,0.6696781772158616
-4.0765,0.5796033030867379,0.8498210301035442
-4.076,0.526252428798383,0.9028042221294874
-4.0755,0.5689331282290746,0.8392243916985406
-4.075,0.5796033030867573,0.7544512844572011
-4.0745,0.5262524287982859,0.6696781772157941
-4.074,0.4622313796522482,0.5955017083796896
-4.0735,0.408880505363835,0.5213252395435176
-4.073,0.3875401556484891,0.4683420475177287
-4.0725,0.1741366584948169,0.8180311148882058
-4.072,-0.5621054066852853,1.199510097474233
-4.0715,-1.148965023857297,0.5637117931647656
-4.071,-1.511750969018788,-0.4111789401114671
-4.0705,-1.234326422719292,-0.6866915386455698
-4.07,-0.6794773301202989,-0.464162132137256
-4.0695,-0.1779791118083997,-0.1144730647662681
-4.069,0.1634664836371343,0.1716361721729923
-4.0685,0.3341892813600565,0.3517790250608387
-4.068,0.408880505363835,0.4577454091125516
-4.0675,0.408880505363835,0.5001319627331828
-4.067,0.3982103305061524,0.5213252395435176
-4.0665,0.366199805933085,0.521325239543508
-4.066,0.3448594562177392,0.5107286011383502
-4.0655,0.3341892813600565,0.5001319627331828
-4.065,0.3341892813600565,0.489535324328025
-4.0645,0.1527963087794516,0.2670059178194992
-4.064,-0.5941159312583333,-0.4853554089473885
-4.0635,-1.437059745014496,-1.280103289334223
-4.063,-1.735824641029862,-1.703968825541335
-4.0625,-1.170305373573196,-1.364876396576285
-4.062,-0.3700422592477257,-0.7926579226977645
-4.0615,0.2061471830681366,-0.1462629799815873
-4.061,0.5049120790829789,0.3411823866556712
-4.0605,0.5902734779444399,0.6590815388106942
-4.06,0.5796033030867088,0.8180311148882347
-4.0595,0.5262524287983441,0.849821030103708
-4.059,0.5155822539406614,0.775644561267536
-4.0585,0.6116138276597177,0.6166949851901691
-4.058,0.5902734779444399,0.5637117931641874
-4.0575,0.5155822539406614,0.5637117931641874
-4.057,0.4408910299369509,0.5531151547590296
-4.0565,0.3768699807907871,0.5213252395435176
-4.056,0.01408403562957729,0.8286277532933731
-4.0555,-0.626126455830799,1.167720182258422
-4.055,-1.14896502385819,0.5107286011374442
-4.0545,-1.543761493592088,-0.4853554089473885
-4.054,-1.629122892453472,-0.6443049850247554
-4.0535,-1.127624674141912,-0.3687923864902962
-4.053,-0.5194247072545548,-0.09327978795619347
-4.0525,-0.03926683865883591,0.1186529801471552
-4.052,0.2488278824987215,0.2458126410092319
-4.0515,0.3875401556484697,0.3199891098453364
-4.051,0.4195506802215176,0.3623756634660061
-4.0505,0.4195506802215176,0.3835689402763218
-4.05,0.3875401556484697,0.4047622170866759
-4.0495,0.3661998059331045,0.4365521323021782
-4.049,0.3448594562177586,0.4577454091124938
-4.0485,0.3448594562176712,0.4789386859227611
-4.048,0.2701682322139607,0.383568940276341
-4.0475,-0.284680860385032,-0.2416327256279689
-4.047,-1.010252750708393,-1.036380606016654
-4.0465,-1.490410619303675,-1.650985633515806
-4.046,-1.746494815887826,-2.021867977696329
-4.0455,-1.159635198714815,-1.682775548730537
-4.045,-0.391382608962363,-0.8350444763179138
-4.0445,0.1741366584948169,-0.08268314955102604
-4.044,0.4942419042254126,0.5001319627335298
-4.0435,0.6222840025174878,0.8816109453192104
-4.043,0.6222840025174878,1.00877060618122
-4.0425,0.5796033030867962,1.019367244586378
-4.042,0.6969752265212663,1.051157159801889
-4.0415,0.707645401378949,0.9451907757502149
-4.041,0.6116138276598925,0.7756445612676902
-4.0405,0.5155822539405934,0.6060983467847318
-4.04,0.4408910299368829,0.4683420475176805
-4.0395,0.2061471830680783,0.542518516353785
-4.039,-0.5194247072550303,0.4047622170859723
-4.0385,-1.042263275281004,-0.3687923864905467
-4.038,-1.501080794160941,-1.216523458903171
-4.0375,-1.735824641029959,-1.703968825541315
-4.037,-1.277007122150022,-1.34368311976595
-4.0365,-0.6367966306890638,-0.6972881770507372
-4.036,-0.1139580626623136,-0.1356663415765451
-4.0355,0.2168173579255475,0.2140227257936621
-4.035,0.3768699807907871,0.3941655786815084
-4.0345,0.4302208550791518,0.4471487707072974
-4.034,0.4302208550792003,0.4471487707073456
-4.0335,0.408880505363835,0.4153588554918433
-4.033,0.3768699807908162,0.38356894027637
-4.0325,0.3555296310754121,0.3517790250608098
-4.032,0.3448594562177392,0.3199891098453364
-4.0315,0.3448594562177392,0.3199891098453364
-4.031,0.2381577076405052,0.1398462569568829
-4.0305,-0.2099896363817582,-0.5277419625680583
-4.03,-0.732828204407732,-1.269506650929104
-4.0295,-1.223656247861493,-1.862918401619309
-4.029,-1.095614149569417,-2.032464616101834
-4.0285,-0.4660738329661415,-1.417859588602123
-4.028,0.06743490991827193,-0.5807251545932594
-4.0275,0.3768699807907871,0.1186529801471552
-4.027,0.5155822539406614,0.6484849004055269
-4.0265,0.5582629533713532,0.9239974989396295
-4.026,0.5369226036560266,0.9769806909657173
-4.0255,0.6542945270905358,1.00877060618122
-4.025,0.7609962756672652,1.019367244586378
-4.0245,0.686305051663477,0.9028042221294007
-4.024,0.5689331282290746,0.7438546460520338
-4.0235,0.4622313796523452,0.5955017083798245
-4.023,0.3448594562173413,0.5637117931644958
-4.0225,-0.09261771294724913,0.9028042221295453
-4.022,-0.5941159312578772,1.125333628637859
-4.0215,-0.946231701562103,0.3729723018707881
-4.021,-1.212986073003927,-0.05089323433552374
-4.0205,-1.202315898146244,0.1610395337678249
-4.02,-0.7541685541231266,0.2246193641988102
-4.0195,-0.2633405106701714,0.2034260873884947
-4.019,0.09944543449103843,0.1716361721729923
-4.0185,0.3021787567868243,0.1716361721729923
-4.018,0.3982103305061524,0.1928294489833272
-4.0175,0.4195506802215176,0.2458126410091644
-4.017,0.4088805053638447,0.319989109845269
-4.0165,0.3875401556484503,0.4047622170867433
-4.016,0.3661998059331045,0.4789386859228479
-4.0155,0.3448594562177586,0.5319218779486369
-4.015,0.3448594562175645,0.5849050699743487
-4.0145,0.1527963087794516,0.3941655786815084
-4.014,-0.4980843575385976,-0.3052125560589061
-4.0135,-1.212986073004237,-1.036380606016442
-4.013,-1.554431668449771,-1.417859588602123
-4.0125,-1.191645723288561,-1.089363798041932
-4.012,-0.4767440078233002,-0.4323722169209731
-4.0115,0.09944543449103843,0.2034260873884947
-4.011,0.4408910299368829,0.6696781772158616
-4.0105,0.590273477944304,0.9875773293705956
-4.01,0.6009436528021226,1.104140351827727
-4.0095,0.5582629533713921,1.082947075017392
-4.009,0.5689331282290649,1.019367244586445
-4.0085,0.675634876805872,0.9769806909656016
-4.008,0.6436243522328531,0.849821030103708
-4.0075,0.5475927785137967,0.6908714540263411
-4.007,0.4622313796521997,0.5213252395433924
-4.0065,0.408880505363835,0.383568940276341
-4.006,0.291508581929326,0.5213252395435176
-4.0055,-0.1566387620938496,0.9875773293705089
-4.005,-0.7114878546928423,0.5743084315693548
-4.0045,-1.095614149569417,-0.400582301706049
-4.004,-1.074273799853664,-0.8880276683435967
-4.0035,-0.6474668055467465,-0.718481453861072
-4.003,-0.1993194615240755,-0.3475991096802118
-4.0025,0.1207857842061126,-0.02969995752547799
-4.002,0.3128489316446912,0.1928294489833272
-4.0015,0.3982103305061524,0.309392471440169
-4.001,0.4088805053638253,0.362375663465958
-4.0005,0.4088805053638156,0.3729723018711736
-4,0.3875401556484697,0.3729723018711736
-3.9995,0.3661998059331045,0.3729723018711736
-3.999,0.3555296310754218,0.3729723018711736
-3.9985,0.3448594562177392,0.383568940276341
-3.998,0.3235191065023739,0.3411823866556712
-3.9975,-0.124628237520297,-0.1886495336027004
-3.997,-0.7008176798351597,-0.9622041371799229
-3.9965,-1.074273799854052,-1.587405803084801
-3.996,-1.010252750707956,-1.894708316834657
-3.9955,-0.4447334832507763,-1.51322933424863
-3.995,0.1101156093487211,-0.718481453861072
-3.9945,0.4515612047945656,0.03387987290581572
-3.994,0.5902734779444399,0.5319218779486851
-3.9935,0.6009436528021226,0.8074344764830383
-3.993,0.5475927785137094,0.9345941373450475
-3.9925,0.5049120790829789,0.9557874141553824
-3.992,0.5796033030867573,0.7544512844572011
-3.9915,0.5796033030867573,0.6060983467848571
-3.991,0.5155822539406614,0.5213252395435176
-3.9905,0.4515612047945656,0.4683420475176805
-3.99,0.408880505363835,0.4047622170866759
-3.9895,0.2594980573562781,0.5319218779486851
-3.989,-0.2526703358124887,1.019367244586387
-3.9885,-0.9675720512772257,0.7438546460520338
-3.988,-1.30901764672307,-0.1674562567923655
-3.9875,-1.607782542738184,-0.2098428104130352
-3.987,-1.51175096901904,0.2140227257936621
-3.9865,-0.9462317015618604,0.309392471440169
-3.986,-0.3593720843893152,0.2352160026039969
-3.9855,0.0674349099179905,0.13984625695749
-3.985,0.3128489316446912,0.08686306493165288
-3.9845,0.408880505363835,0.07626642652648545
-3.984,0.4302208550792003,0.1186529801471552
-3.9835,0.4195506802215176,0.1928294489833272
-3.983,0.3875401556484697,0.2776025562246667
-3.9825,0.3661998059331045,0.3623756634660061
-3.982,0.3555296310754218,0.4365521323021782
-3.9815,0.3341892813600565,0.4789386859228479
-3.981,-0.007256314085787988,0.1504428953626575
-3.9805,-0.7861790786966207,-0.570128516188728
-3.98,-1.479740444445993,-1.227120097309109
-3.9795,-1.714484291315011,-1.587405803084801
-3.979,-1.287677297007705,-1.375473034981453
-3.9785,-0.5300948821122373,-0.6337083466197325
-3.978,0.09944543449103843,0.13984625695749
-3.9775,0.4515612047945656,0.6908714540261965
-3.977,0.5902734779444399,0.9875773293708847
-3.9765,0.6009436528021226,1.082947075017392
-3.976,0.5475927785137094,1.072350436612224
-3.9755,0.6436243522328531,1.104140351827727
-3.975,0.7396559259519968,1.061753798207057
-3.9745,0.6649647019482183,0.8392243916985406
-3.974,0.5582629533713921,0.5849050699745222
-3.9735,0.4622313796522482,0.3517790250608387
-3.973,0.3768699807907871,0.2140227257936621
-3.9725,0.01408403562957729,0.4259554938970107
-3.972,-0.6154562809736985,0.4789386859228479
-3.9715,-1.244996597576974,-0.252229364033705
-3.971,-1.650463242168915,-1.01518732920576
-3.9705,-1.426389570157579,-1.05757388282643
-3.97,-0.8288597781273515,-0.6549016234300674
-3.9695,-0.2526703358124887,-0.2204394488182027
-3.969,0.1314559590640864,0.1080563417419877
-3.9685,0.3448594562177392,0.2987958330350016
-3.968,0.4302208550792003,0.3941655786815084
-3.9675,0.4408910299368829,0.4259554938970107
-3.967,0.4195506802215176,0.4365521323021782
-3.9665,0.3982103305061524,0.4365521323021782
-3.966,0.3661998059331045,0.4259554938970107
-3.9655,0.3555296310754218,0.4259554938970107
-3.965,0.3555296310754218,0.4153588554918433
-3.9645,0.1527963087794516,0.13984625695749
-3.964,-0.5514352318276028,-0.6125150698093976
-3.9635,-1.191645723288561,-1.38606967338662
-3.963,-1.575772018165136,-1.968884785670829
-3.9625,-1.46907026958831,-1.979481424075996
-3.962,-0.7861790786966207,-1.184733543688439
-3.9615,-0.09261771294724913,-0.3581957480853793
-3.961,0.3661998059331045,0.2776025562246667
-3.9605,0.5796033030867573,0.627291623595192
-3.96,0.6329541773751706,0.775644561267536
-3.9595,0.5902734779444399,0.8392243916985406
-3.959,0.5582629533713921,0.8710143069140429
-3.9585,0.6329541773751706,1.029963882991555
-3.958,0.6329541773751706,0.9981739677760521
-3.9575,0.5582629533713921,0.8286277532933731
-3.957,0.4835717293676135,0.627291623595192
-3.9565,0.4195506802215176,0.4471487707073456
-3.956,0.2168173579255475,0.2140227257936621
-3.9555,-0.1032878878049318,-0.04029659593035631
-3.955,-0.6474668055467465,-0.7078848154559045
-3.9545,-1.031593100423322,-1.280103289334946
-3.954,-1.06360362499637,-1.216523458903942
-3.9535,-0.6688071552621118,-0.7502713690765743
-3.953,-0.2206598112394408,-0.2946159176543747
-3.9525,0.1207857842064037,0.02328323450064829
-3.952,0.3128489316446912,0.2034260873884947
-3.9515,0.3982103305061524,0.2776025562246667
-3.951,0.4195506802215176,0.2987958330350016
-3.9505,0.408880505363835,0.2987958330350016
-3.95,0.3982103305061524,0.2881991946298341
-3.9495,0.3768699807907871,0.2987958330350016
-3.949,0.3661998059331045,0.2987958330350016
-3.9485,0.3555296310754218,0.3199891098453364
-3.948,0.3341892813600565,0.2881991946298341
-3.9475,-0.09261771294724913,-0.1992461720078678
-3.947,-0.7434983792658902,-0.9304142219644207
-3.9465,-1.30901764672307,-1.576809164679634
-3.946,-1.607782542738184,-1.88411167842949
-3.9455,-1.084943974711735,-1.481439419033127
-3.945,-0.3593720843893152,-0.7290780922662394
-3.9445,0.1741366584948169,0.002089957690313421
-3.944,0.4622313796522482,0.55311515475902
-3.9435,0.5796033030867573,0.8710143069140429
-3.943,0.5689331282290746,1.019367244586387
-3.9425,0.5369226036560266,1.019367244586387
-3.942,0.6863050516635838,1.093543713422559
-3.9415,0.7396559259519968,1.072350436612224
-3.941,0.6542945270905358,0.9028042221295453
-3.9405,0.5475927785137094,0.701468092431364
-3.94,0.4622313796522482,0.5213252395435176
-3.9395,0.2701682322139607,0.4471487707073456
-3.939,-0.391382608962363,0.05507314971615059
-3.9385,-1.020922925565639,-0.7396747306714069
-3.938,-1.362368521011484,-1.502632695843462
-3.9375,-1.490410619303675,-1.926498232050159
-3.937,-1.084943974711735,-1.492036057438295
-3.9365,-0.5194247072545548,-0.8032545611024114
-3.936,-0.04993701351651855,-0.2310360872233701
-3.9355,0.2488278824985954,0.1186529801471552
-3.935,0.3875401556484697,0.2881991946298341
-3.9345,0.4302208550792003,0.3411823866556712
-3.934,0.4302208550792003,0.3305857482505039
-3.9335,0.408880505363835,0.2987958330350016
-3.933,0.3875401556484697,0.2670059178194992
-3.9325,0.3661998059331045,0.2352160026039969
-3.932,0.3555296310754218,0.2140227257936621
-3.9315,0.3448594562177392,0.1928294489833272
-3.931,0.1954770082101822,-0.2204394488182027
-3.9305,0.01408403562957729,-0.9622041371799229
-3.93,-0.4767440078238243,-1.640388995110639
-3.9295,-1.042263275281004,-2.106641084938006
-3.929,-1.010252750707956,-1.852321763213987
-3.9285,-0.4660738329661415,-1.121153713257435
-3.928,0.03542438534494258,-0.3370024712750445
-3.9275,0.3555296310754218,0.2881991946298341
-3.927,0.5155822539406614,0.701468092431364
-3.9265,0.5582629533713921,0.8922075837243778
-3.926,0.5369226036560266,0.9451907757502149
-3.9255,0.5369226036560266,0.9451907757502149
-3.925,0.5262524287983441,0.92399749893988
-3.9245,0.4942419042252961,0.8392243916985406
-3.924,0.4515612047945656,0.7226613692416989
-3.9235,0.4195506802215176,0.6060983467848571
-3.923,0.3448594562177392,0.55311515475902
-3.9225,-0.1886492866663929,0.9134008605347127
-3.922,-0.8288597781273515,0.9769806909657173
-3.9215,-1.30901764672307,0.1080563417419877
-3.921,-1.693143941599645,-0.3581957480853793
-3.9205,-1.757164990745741,0.04447651131098315
-3.92,-1.202315898146244,0.2246193641988295
-3.9195,-0.5407650569699201,0.1928294489833272
-3.919,-0.02859666380115328,0.1186529801471552
-3.9185,0.2701682322139607,0.06566978812131802
-3.918,0.408880505363835,0.05507314971615059
-3.9175,0.4515612047945656,0.09745970333682032
-3.917,0.4408910299368829,0.1716361721729923
-3.9165,0.4195506802215176,0.2564092794143318
-3.916,0.3875401556484697,0.3517790250608387
-3.9155,0.3661998059331045,0.4365521323021782
-3.915,0.3661998059331045,0.5107286011383502
-3.9145,0.2168173579255475,0.383568940276341
-3.914,-0.4660738329661415,-0.2628260024388724
-3.9135,-1.180975548430879,-0.9833974139902578
-3.913,-1.575772018165136,-1.460246142222792
-3.9125,-1.159635198715513,-1.481439419033127
-3.912,-0.3807124341046804,-0.9198175835592532
-3.9115,0.2061471830678648,-0.1038764263613609
-3.911,0.5369226036560266,0.5213252395435176
-3.9105,0.6542945270905358,0.8710143069140429
-3.91,0.6542945270905358,1.029963882991555
-3.9095,0.5902734779444399,1.061753798207057
-3.909,0.5582629533713921,0.9663840525605498
-3.9085,0.6009436528021226,0.775644561267536
-3.908,0.5582629533713921,0.6378882620003594
-3.9075,0.4942419042252961,0.5213252395435176
-3.907,0.4408910299368829,0.4259554938970107
-3.9065,0.408880505363835,0.3305857482505039
-3.906,0.08877525963335578,0.01268659609548085
-3.9055,-0.6794773301197943,-0.7396747306714069
-3.905,-1.341028171296118,-1.492036057438295
-3.9045,-1.885207089037933,-2.085447808127671
-3.904,-1.821186039891837,-1.968884785670829
-3.9035,-1.148965023857831,-1.216523458903942
-3.903,-0.4660738329661415,-0.5171453241628908
-3.9025,0.02475421048725994,-0.05089323433552374
-3.902,0.3128489316446912,0.1928294489833272
-3.9015,0.4302208550792003,0.2670059178194992
-3.901,0.4622313796522482,0.2458126410091644
-3.9005,0.4515612047945656,0.2034260873884947
-3.9,0.4195506802215176,0.1504428953626575
-3.8995,0.3875401556484697,0.1080563417419877
-3.899,0.3768699807907871,0.07626642652648545
-3.8985,0.3661998059331045,0.06566978812131802
-3.898,0.3341892813600565,0.002089957690313421
-3.8975,-0.1139580626626144,-0.4535654937318862
-3.897,-0.8928808272734472,-1.152943628472937
-3.8965,-1.373038695869166,-1.714565463946811
-3.896,-1.116954499284783,-1.714565463946811
-3.8955,-0.423393133535411,-1.152943628472937
-3.895,0.1741366584948169,-0.4429688553267188
-3.8945,0.5155822539406614,0.1504428953626575
-3.894,0.6542945270905358,0.5425185163538525
-3.8935,0.6756348768059011,0.8286277532933731
-3.893,0.6116138276598051,0.9875773293708847
-3.8925,0.5475927785137094,1.040560521396722
-3.892,0.6222840025174878,1.135930267043229
-3.8915,0.6436243522328531,1.072350436612224
-3.891,0.5796033030867573,0.8816109453192104
-3.8905,0.5049120790829789,0.6802748156210291
-3.89,0.4408910299368829,0.5001319627331828
-3.8895,0.3341892813600565,0.4153588554918433
-3.889,-0.2313299860971235,-0.06148987274069118
-3.8885,-0.8928808272734472,-0.8986243067489184
-3.888,-1.490410619303675,-1.619195718300304
-3.8875,-1.842526389607202,-1.555615887869299
-3.887,-1.458400094730627,-0.8774310299385835
-3.8865,-0.7755089038389382,-0.326405832869877
-3.886,-0.1993194615240755,0.01268659609548085
-3.8855,0.1848068333524996,0.1822328105781598
