Class_4_Move_right_hand_Horiszontal/Class_4_Move_right_hand_Horiszontal_Suko_8.csv

#Digilent WaveForms Oscilloscope Acquisition
#Device Name: EExplorer
#Serial Number: SN:210151A2B84A
#Date Time: 2021-01-27 14:58:48.832
#Sample rate: 2000Hz
#Samples: 16384
#Trigger: Source: Channel 1 Type: Edge Condition: Rising Level: 0 V Hyst.: Auto HoldOff: 0 s
#Channel 1: Range: 1 V/div Offset: 0 V Attenuation: 1 X
#Channel 2: Range: 1 V/div Offset: 0 V Attenuation: 1 X
#Channel 4: Range: 1 V/div Offset: 0 V Attenuation: 1 X
#Power Supplies: ON
#Fixed Supply: ON
#Voltage: 3.3 V Readback: 3.331 V
#Positive Supply: ON
#Voltage: 3.7 V Readback: 3.717 V
#Current: 40 mA Readback: 12 mA
#Negative Supply: ON
#Voltage: -3.7 V Readback: -3.348 V
#Current: -40 mA Readback: -2 mA
#Reference 1: ON
#Voltage: 0 V
#Reference 2: ON
#Voltage: 0 V

Time (s),Channel 1 (V),Channel 2 (V),Channel 4 (V)
-4.096,0.7396559259519968,-1.078767159636765,-0.03203722724012713
-4.0955,0.7609962756673428,-0.495952047353086,-0.03203722724012713
-4.095,0.6329541773749862,0.04447651131116627,-0.03203722724013675
-4.0945,0.4302208550792003,0.2458126410091644,-0.04262030465097626
-4.094,0.2381577076410875,0.319989109845269,-0.04262030465097626
-4.0935,0.0994454344909705,0.3517790250608194,-0.04262030465097626
-4.093,0.02475421048725994,0.3305857482505039,-0.04262030465097626
-4.0925,0.03542438534493288,0.2987958330350305,-0.0002879950076182594
-4.092,0.05676473506029815,0.2458126410090969,0.01029508240326937
-4.0915,0.04609456020262521,0.1716361721729923,0.01029508240326937
-4.091,0.01408403562957729,0.08686306493165288,-0.000287995007579752
-4.0905,-0.01792648894354826,0.01268659609547122,-0.0108710724184385
-4.09,-0.1032878878049318,0.002089957690313421,-0.021454149829278
-4.0895,-0.5514352318276028,0.383568940276341,-0.04262030465097626
-4.089,-1.170305373572633,0.9134008605342309,-0.04262030465097626
-4.0885,-1.575772018165136,0.9875773293708847,-0.05320338206182537
-4.088,-1.927887788468663,0.383568940276341,-0.08495261429437276
-4.0875,-1.650463242169167,-0.1780528951970222,-0.05320338206185424
-4.087,-1.074273799853577,-0.3370024712750059,-0.04262030465097626
-4.0865,-0.5514352318276028,-0.2946159176543747,-0.04262030465097626
-4.086,-0.2099896363820687,-0.1674562567924812,-0.04262030465097626
-4.0855,-0.01792648894340269,-0.02969995752507323,-0.04262030465097626
-4.085,0.05676473506030786,0.09745970333682032,-0.04262030465097626
-4.0845,0.05676473506030786,0.1928294489832405,-0.04262030465097626
-4.084,0.04609456020260581,0.2776025562247245,-0.08495261429439201
-4.0835,0.02475421048725994,0.3411823866556712,-0.106118769116071
-4.083,0.01408403562957729,0.383568940276341,-0.1167018465269201
-4.0825,0.0140840356295967,0.3835689402763121,-0.1061187691160518
-4.082,0.03542438534494258,0.3517790250608387,-0.08495261429437276
-4.0815,0.1314559590640864,0.2458126410091644,-0.07436953688352363
-4.081,0.5049120790826391,-0.2204394488177786,-0.06378645947268413
-4.0805,0.7396559259519968,-0.8774310299385835,-0.05320338206182537
-4.08,0.8676980242441885,-1.301296566145281,-0.03203722724012713
-4.0795,0.9210488985325532,-1.121153713257598,-0.03203722724012713
-4.079,0.8997085488171297,-0.6549016234295759,-0.03203722724012713
-4.0785,0.7823366253827275,-0.1144730647665284,-0.03203722724012713
-4.078,0.5796033030869417,0.2564092794139944,-0.03203722724012713
-4.0775,0.3555296310752568,0.4153588554918722,-0.04262030465097626
-4.077,0.1741366584948169,0.4471487707073456,-0.04262030465097626
-4.0765,0.0567647350604146,0.4047622170867144,-0.04262030465097626
-4.076,0.02475421048726964,0.3517790250607808,-0.01087107241840963
-4.0755,0.03542438534494258,0.2881991946298341,0.01029508240326937
-4.075,0.02475421048725994,0.2034260873884947,0.01029508240326937
-4.0745,0.003413860771884946,0.1186529801470588,0.01029508240325012
-4.074,-0.007256314085787988,0.01268659609548085,-0.01087107241842888
-4.0735,-0.07127736323188383,-0.02969995752518888,-0.021454149829278
-4.073,-0.4767440078234555,0.235216002603756,-0.0320372272401175
-4.0725,-1.052933450138687,0.7120647308365314,-0.04262030465097626
-4.072,-1.501080794161358,0.7332580076468663,-0.05320338206182537
-4.0715,-1.959898313041294,0.1822328105786609,-0.07436953688350438
-4.071,-1.959898313041168,-0.4747587705423367,-0.06378645947265525
-4.0705,-1.362368521011484,-0.6019184314042303,-0.04262030465097626
-4.07,-0.7648387289817989,-0.4535654937320212,-0.04262030465097626
-4.0695,-0.3273615598160343,-0.2416327256283641,-0.04262030465097626
-4.069,-0.07127736323188383,-0.05089323433552374,-0.04262030465097626
-4.0685,0.04609456020262521,0.08686306493165288,-0.04262030465097626
-4.068,0.07810508477566344,0.192829448983385,-0.04262030465099551
-4.0675,0.0674349099179905,0.2564092794143318,-0.0637864594726745
-4.067,0.03542438534494258,0.309392471440169,-0.106118769116071
-4.0665,0.02475421048725023,0.3305857482505039,-0.1167018465269105
-4.066,0.01408403562957729,0.3305857482505039,-0.106118769116071
-4.0655,0.02475421048725994,0.309392471440169,-0.09553569170522189
-4.065,0.1101156093486434,0.1928294489834332,-0.07436953688354288
-4.0645,0.5155822539406614,-0.2416327256285375,-0.0637864594726745
-4.064,0.8036769750980928,-0.8456411147230812,-0.05320338206182537
-4.0635,0.9743997728208598,-1.396666311791287,-0.04262030465098588
-4.063,1.177133095116985,-1.354279758170723,-0.02145414982928762
-4.0625,1.177133095116985,-0.9198175835592532,-0.03203722724012713
-4.062,1.006410297394218,-0.4959520473529415,-0.03203722724012713
-4.0615,0.7396559259517348,-0.05089323433526353,-0.03203722724012713
-4.061,0.4515612047945656,0.2352160026039969,-0.03203722724012713
-4.0605,0.2274875327832301,0.3305857482505039,-0.04262030465097626
-4.06,0.07810508477560521,0.3093924714401208,-0.04262030465096663
-4.0595,0.00341386077189465,0.2564092794143318,-0.03203722724012713
-4.059,0.03542438534494258,0.2564092794143318,0.01029508240326937
-4.0585,0.05676473506028845,0.2140227257937006,0.01029508240326937
-4.058,0.03542438534494258,0.1504428953626575,-0.000287995007579752
-4.0575,0.01408403562957729,0.07626642652648545,-0.000287995007579752
-4.057,-0.02859666380111446,0.02328323450069648,-0.02145414982925875
-4.0565,-0.1993194615240755,0.1504428953626575,-0.03203722724012713
-4.056,-0.7755089038389382,0.6802748156210291,-0.03203722724012713
-4.0555,-1.447729919872333,1.178316820663445,-0.05320338206180612
-4.055,-1.735824641030405,1.135930267042621,-0.06378645947268413
-4.0545,-1.767835165603424,0.4683420475176805,-0.07436953688352363
-4.054,-1.298347471865815,0.002089957690737443,-0.05320338206184462
-4.0535,-0.7541685541231945,-0.1462629799820114,-0.04262030465097626
-4.053,-0.3380317346739499,-0.1250697031716958,-0.04262030465097626
-4.0525,-0.09261771294724913,-0.02969995752518888,-0.04262030465097626
-4.052,0.02475421048729875,0.0868630649317589,-0.04262030465097626
-4.0515,0.0674349099179905,0.2034260873884947,-0.04262030465097626
-4.051,0.05676473506030786,0.309392471440169,-0.05320338206182537
-4.0505,0.03542438534496199,0.3835689402762736,-0.09553569170518339
-4.05,0.01408403562957729,0.4471487707073456,-0.1167018465269201
-4.0495,0.01408403562957729,0.4471487707073456,-0.1167018465269201
-4.049,0.02475421048725023,0.4365521323021878,-0.09553569170524114
-4.0485,0.06743490991826223,0.372972301870923,-0.08495261429435351
-4.048,0.3661998059331045,0.09745970333682032,-0.0637864594726745
-4.0475,0.8783681991014054,-0.5277419625674896,-0.0637864594726745
-4.047,0.9637295979632645,-1.099960436447437,-0.05320338206180612
-4.0465,0.8890383739595538,-1.47084278062796,-0.03203722724012713
-4.046,0.9210488985325727,-1.576809164679538,-0.03203722724012713
-4.0455,0.8570278493863605,-1.227120097308579,-0.03203722724012713
-4.045,0.6969752265212663,-0.6443049850249,-0.03203722724012713
-4.0445,0.5049120790829789,-0.1674562567923655,-0.03203722724012713
-4.044,0.3128489316445554,0.1504428953627828,-0.03203722724013675
-4.0435,0.1634664836371343,0.2881991946298341,-0.04262030465097626
-4.043,0.05676473506030786,0.2987958330350016,-0.04262030465097626
-4.0425,0.08877525963332666,0.2881991946298438,-0.0002879950076182594
-4.042,0.1314559590640864,0.2881991946298341,0.01029508240326937
-4.0415,0.09944543449103843,0.2246193641988295,0.01029508240326937
-4.041,0.05676473506034668,0.09745970333693596,-0.000287995007570126
-4.0405,-0.007256314085894736,-0.02969995752522743,-0.0108710724184385
-4.04,-0.124628237520297,-0.07208651114585861,-0.021454149829278
-4.0395,-0.6367966306885979,0.309392471439822,-0.04262030465095701
-4.039,-1.127624674142718,0.7756445612675071,-0.04262030465098588
-4.0385,-1.405049220442214,0.7438546460520338,-0.05320338206182537
-4.038,-1.554431668449635,0.1610395337683549,-0.07436953688350438
-4.0375,-1.341028171295701,-0.3052125560596096,-0.05320338206181575
-4.037,-0.8822106524157645,-0.3793890248957141,-0.04262030465097626
-4.0365,-0.4554036581084589,-0.2734226408440398,-0.04262030465097626
-4.036,-0.1673089369508917,-0.1144730647663838,-0.04262030465097626
-4.0355,-0.01792648894347063,0.04447651131098315,-0.04262030465097626
-4.035,0.04609456020262521,0.1928294489833272,-0.04262030465097626
-4.0345,0.05676473506029815,0.2987958330349052,-0.04262030465097626
-4.034,0.04609456020262521,0.383568940276341,-0.08495261429437276
-4.0335,0.02475421048725994,0.4471487707073456,-0.106118769116071
-4.033,0.014084035629587,0.5001319627331346,-0.106118769116071
-4.0325,0.014084035629587,0.5001319627331732,-0.1061187691160518
-4.032,0.02475421048725994,0.4895353243280153,-0.08495261429437276
-4.0315,0.1634664836370081,0.3411823866558061,-0.06378645947269375
-4.031,0.6649647019486357,-0.1886495336033268,-0.06378645947266487
-4.0305,1.123782220828572,-0.8774310299385835,-0.05320338206182537
-4.03,1.315845368266685,-1.311893204550053,-0.03203722724014638
-4.0295,1.326515543124396,-1.227120097308762,-0.03203722724012713
-4.029,1.166462920259302,-0.8456411147230812,-0.03203722724012713
-4.0285,0.9317190733902845,-0.4641621321370536,-0.03203722724012713
-4.028,0.6542945270902835,-0.1356663415766319,-0.03203722724012713
-4.0275,0.3768699807907871,0.1186529801471552,-0.03203722724012713
-4.027,0.1741366584948169,0.2458126410091644,-0.04262030465097626
-4.0265,0.04609456020274166,0.26700591781948,-0.04262030465097626
-4.026,-0.007256314085787988,0.2246193641988295,-0.01087107241842888
-4.0255,0.00341386077189465,0.1716361721729923,0.01029508240326937
-4.025,-0.007256314085778284,0.09745970333688778,0.01029508240326937
-4.0245,-0.007256314085807397,0.01268659609541339,0.01029508240325012
-4.024,-0.02859666380115328,-0.06148987274069118,-0.01087107241842888
-4.0235,-0.1673089369509015,0.002089957690255592,-0.02145414982926837
-4.023,-0.5727755815435018,0.2881991946303353,-0.03203722724012713
-4.0225,-1.159635198715513,0.8392243916985406,-0.03203722724012713
-4.022,-1.650463242168468,1.231300012689379,-0.04262030465096663
-4.0215,-1.970568487899248,0.9345941373444306,-0.074369536883514
-4.021,-1.810515865034154,0.2564092794143318,-0.0637864594726745
-4.0205,-1.212986073003927,-0.1038764263613609,-0.04262030465097626
-4.02,-0.6474668055463971,-0.1992461720078293,-0.04262030465097626
-4.0195,-0.2633405106701714,-0.1568596183871981,-0.04262030465097626
-4.019,-0.03926683865883591,-0.05089323433552374,-0.04262030465097626
-4.0185,0.05676473506022052,0.07626642652636979,-0.04262030465097626
-4.018,0.0674349099179905,0.1928294489833272,-0.04262030465097626
-4.0175,0.05676473506030786,0.2881991946298341,-0.0637864594726745
-4.017,0.03542438534496199,0.3729723018710965,-0.1061187691160325
-4.0165,0.01408403562957729,0.3941655786815181,-0.1167018465269105
-4.016,0.01408403562957729,0.4047622170866759,-0.106118769116071
-4.0155,0.02475421048725023,0.3835689402763603,-0.08495261429439201
-4.015,0.110115609349119,0.2881991946294101,-0.074369536883514
-4.0145,0.5475927785137094,-0.1780528951975329,-0.0637864594726745
-4.014,0.8997085488169163,-0.8350444763173162,-0.0637864594726745
-4.0135,0.9317190733902941,-1.301296566145204,-0.0320372272401175
-4.013,0.942389248247967,-1.216523458903942,-0.021454149829278
-4.0125,0.9530594231056497,-0.7396747306714069,-0.021454149829278
-4.012,0.8676980242440139,-0.16745625679198,-0.03203722724012713
-4.0115,0.6756348768059011,0.2564092794143318,-0.03203722724012713
-4.011,0.4302208550792003,0.4683420475176805,-0.04262030465097626
-4.0105,0.2274875327834145,0.5319218779486272,-0.04262030465097626
-4.01,0.08877525963335578,0.4789386859228479,-0.04262030465097626
-4.0095,0.02475421048725994,0.383568940276341,-0.03203722724012713
-4.009,0.06743490991795169,0.330585748250552,0.01029508240323087
-4.0085,0.07810508477565373,0.2670059178194029,0.01029508240326937
-4.008,0.05676473506030786,0.1610395337678249,0.01029508240326937
-4.0075,0.02475421048728905,0.03387987290593139,-0.000287995007570126
-4.007,-0.01792648894365501,-0.09327978795613565,-0.02145414982928762
-4.0065,-0.2206598112394408,-0.02969995752518888,-0.03203722724012713
-4.006,-0.807519428411986,0.5001319627331828,-0.04262030465097626
-4.0055,-1.341028171296468,0.9239974989397355,-0.04262030465099551
-4.005,-1.725154466172693,0.7650479228623686,-0.0637864594726745
-4.0045,-1.682473766741963,0.2034260873884947,-0.0637864594726745
-4.004,-1.17030537357273,-0.1462629799821463,-0.05320338206181575
-4.0035,-0.658136980404429,-0.2734226408440398,-0.04262030465097626
-4.003,-0.274010685527854,-0.2628260024388724,-0.04262030465097626
-4.0025,-0.0606071883743953,-0.17805289519761,-0.04262030465097626
-4.002,0.03542438534494258,-0.06148987274069118,-0.04262030465097626
-4.0015,0.0674349099179905,0.05507314971615059,-0.04262030465097626
-4.001,0.05676473506031757,0.1610395337677286,-0.05320338206181575
-4.0005,0.03542438534492317,0.2670059178195667,-0.09553569170523152
-4,0.01408403562957729,0.3411823866556712,-0.106118769116071
-3.9995,0.00341386077189465,0.3941655786815084,-0.106118769116071
-3.999,0.02475421048725994,0.4259554938970107,-0.09553569170522189
-3.9985,0.1207857842064037,0.309392471440169,-0.08495261429437276
-3.998,0.3768699807907871,-0.05089323433552374,-0.07436953688352363
-3.9975,0.7716664505250448,-0.6337083466197325,-0.05320338206182537
-3.997,0.9210488985326017,-1.174136905283272,-0.05320338206182537
-3.9965,1.15579274540162,-1.460246142222792,-0.03203722724012713
-3.996,1.209143619690033,-1.227120097309109,-0.03203722724012713
-3.9955,1.102441871113207,-0.6654982618352349,-0.03203722724012713
-3.995,0.857027849386506,-0.08268314955102604,-0.03203722724012713
-3.9945,0.5475927785137094,0.2776025562246667,-0.04262030465097626
-3.994,0.291508581929326,0.4047622170866759,-0.04262030465097626
-3.9935,0.1207857842064037,0.4365521323021782,-0.04262030465097626
-3.993,0.02475421048725994,0.3941655786815084,-0.04262030465097626
-3.9925,-0.01792648894347063,0.309392471440169,-0.000287995007579752
-3.992,-0.01792648894347063,0.2670059178194992,0.01029508240326937
-3.9915,-0.02859666380115328,0.1716361721729923,0.01029508240326937
-3.991,-0.02859666380115328,0.05507314971615059,-0.000287995007579752
-3.9905,-0.06060718837420119,-0.04029659593035631,-0.01087107241842888
-3.99,-0.1459685872356623,-0.08268314955102604,-0.03203722724012713
-3.9895,-0.5834457564006506,0.2881991946298341,-0.04262030465097626
-3.989,-1.116954499284783,0.7332580076468663,-0.04262030465097626
-3.9885,-1.46907026958831,0.7120647308365314,-0.0637864594726745
-3.988,-1.618452717595867,0.1610395337678249,-0.07436953688352363
-3.9875,-1.26633694729234,-0.2204394488182027,-0.05320338206182537
-3.987,-0.7648387289812555,-0.326405832869877,-0.04262030465097626
-3.9865,-0.3700422592469978,-0.2840192792492073,-0.04262030465097626
-3.986,-0.1139580626626144,-0.1780528951975329,-0.04262030465097626
-3.9855,0.01408403562957729,-0.06148987274069118,-0.04262030465097626
-3.985,0.05676473506030786,0.05507314971615059,-0.04262030465097626
-3.9845,0.05676473506030786,0.1610395337678249,-0.04262030465097626
-3.984,0.03542438534494258,0.2564092794143318,-0.07436953688352363
-3.9835,0.01408403562957729,0.3305857482505039,-0.106118769116071
-3.983,0.01408403562957729,0.3623756634660061,-0.106118769116071
-3.9825,0.01408403562957729,0.3729723018711736,-0.09553569170522189
-3.982,0.03542438534494258,0.3517790250608387,-0.08495261429437276
-3.9815,0.2168173579255475,0.2034260873884947,-0.0637864594726745
-3.981,0.707645401378949,-0.3581957480853793,-0.0637864594726745
-3.9805,0.8890383739595538,-0.9939940523954253,-0.05320338206182537
-3.98,0.8463576745288233,-1.481439419033127,-0.03203722724012713
-3.9795,0.9210488985326017,-1.417859588602123,-0.03203722724012713
-3.979,0.9317190733902845,-0.8668343915334161,-0.021454149829278
-3.9785,0.8463576745288233,-0.2204394488182027,-0.03203722724012713
-3.978,0.6436243522328531,0.1822328105781598,-0.03203722724012713
-3.9775,0.3982103305061524,0.383568940276341,-0.04262030465097626
-3.977,0.1954770082101822,0.4365521323021782,-0.04262030465097626
-3.9765,0.0674349099179905,0.4047622170866759,-0.04262030465097626
-3.976,0.03542438534494258,0.3623756634660061,-0.021454149829278
-3.9755,0.07810508477567314,0.3411823866556712,0.01029508240326937
-3.975,0.0674349099179905,0.2352160026039969,-0.000287995007579752
-3.9745,0.03542438534494258,0.1186529801471552,-0.000287995007579752
-3.974,0.00341386077189465,0.002089957690313421,-0.01087107241842888
-3.9735,-0.04993701351651855,-0.08268314955102604,-0.021454149829278
-3.973,-0.3593720843893152,0.1080563417419877,-0.04262030465097626
-3.9725,-0.9142211769888124,0.6060983467848571,-0.04262030465097626
-3.972,-1.330357996438436,0.7438546460520338,-0.04262030465097626
-3.9715,-1.650463242168915,0.3199891098453364,-0.07436953688352363
-3.971,-1.778505340461106,-0.3793890248957141,-0.07436953688352363
-3.9705,-1.330357996438436,-0.6125150698093976,-0.04262030465097626
-3.97,-0.7968492535543035,-0.5171453241628908,-0.04262030465097626
-3.9695,-0.3700422592469978,-0.3052125560595421,-0.04262030465097626
-3.969,-0.1032878878049318,-0.1038764263613609,-0.04262030465097626
-3.9685,0.02475421048725994,0.05507314971615059,-0.04262030465097626
-3.968,0.05676473506030786,0.1716361721729923,-0.04262030465097626
-3.9675,0.05676473506030786,0.2564092794143318,-0.0637864594726745
-3.967,0.03542438534494258,0.3199891098453364,-0.09553569170522189
-3.9665,0.01408403562957729,0.3517790250608387,-0.106118769116071
-3.966,0.01408403562957729,0.3517790250608387,-0.106118769116071
-3.9655,0.04609456020262521,0.309392471440169,-0.08495261429437276
-3.965,0.1207857842064037,0.2140227257936621,-0.07436953688352363
-3.9645,0.5582629533713921,-0.1992461720078678,-0.0637864594726745
-3.964,0.942389248247967,-0.8562377531282487,-0.05320338206182537
-3.9635,1.017080472251745,-1.407262950196955,-0.03203722724012713
-3.963,0.942389248247967,-1.396666311791788,-0.03203722724012713
-3.9625,0.857027849386506,-0.8668343915334161,-0.03203722724012713
-3.962,0.7396559259519968,-0.3052125560595421,-0.03203722724012713
-3.9615,0.5689331282290746,0.1080563417419877,-0.03203722724012713
-3.961,0.3661998059331045,0.3305857482505039,-0.04262030465097626
-3.9605,0.1954770082101822,0.4259554938970107,-0.04262030465097626
-3.96,0.07810508477567314,0.4153588554918433,-0.04262030465097626
-3.9595,0.01408403562957729,0.3517790250608387,-0.03203722724012713
-3.959,0.05676473506030786,0.3305857482505039,-0.000287995007579752
-3.9585,0.0674349099179905,0.2670059178194992,0.01029508240326937
-3.958,0.04609456020262521,0.1716361721729923,-0.000287995007579752
-3.9575,0.01408403562957729,0.07626642652648545,-0.000287995007579752
-3.957,-0.01792648894347063,-0.01910331912002144,-0.021454149829278
-3.9565,-0.156638762093345,0.04447651131098315,-0.03203722724012713
-3.956,-0.7008176798351597,0.5425185163538525,-0.04262030465097626
-3.9555,-1.223656247861609,0.8710143069140429,-0.04262030465097626
-3.955,-1.479740444445993,0.627291623595192,-0.0637864594726745
-3.9545,-1.373038695869166,0.07626642652648545,-0.0637864594726745
-3.954,-0.9355615267041777,-0.2310360872233701,-0.05320338206182537
-3.9535,-0.5087545323968721,-0.3158091944647096,-0.04262030465097626
