Class_4_Move_right_hand_Horiszontal/Class_4_Move_Right_hand_Horizontal_Turki_6.csv

#Digilent WaveForms Oscilloscope Acquisition
#Device Name: EExplorer
#Serial Number: SN:210151A2B84A
#Date Time: 2020-11-26 10:55:57.452
#Sample rate: 2000Hz
#Samples: 16384
#Trigger: Source: Channel 1 Type: Edge Condition: Rising Level: 0 V Hyst.: Auto HoldOff: 0 s
#Channel 1: Range: 1 V/div Offset: 0 V Attenuation: 1 X
#Channel 2: Range: 1 V/div Offset: 0 V Attenuation: 1 X
#Power Supplies: ON
#Fixed Supply: ON
#Voltage: 3.3 V Readback: 3.33 V
#Positive Supply: ON
#Voltage: 3.7 V Readback: 3.715 V
#Current: 500 mA Readback: 20 mA
#Negative Supply: ON
#Voltage: -3.7 V Readback: -3.7 V
#Current: -500 mA Readback: -10 mA
#Reference 1: ON
#Voltage: 0 V
#Reference 2: ON
#Voltage: 0 V

Time (s),Channel 1 (V),Channel 2 (V)
-4.096,0.707645401378949,0.09745970333682032
-4.0955,0.6436243522329113,0.4365521323018697
-4.095,1.027750647109457,1.093543713423041
-4.0945,1.059761171682476,1.623375633680931
-4.094,0.3021787567876977,1.040560521397252
-4.0935,-0.5194247072553118,0.2458126410085283
-4.093,-1.351698346153801,-0.4535654937318862
-4.0925,-2.07727023647556,-0.8668343915330403
-4.092,-2.450726356494919,-0.9833974139901711
-4.0915,-2.23732285934146,-0.8880276683437509
-4.091,-1.298347471865388,-0.6654982618352349
-4.0905,-0.4340633083925502,-0.4111789401110527
-4.09,0.1634664836371343,-0.2310360872233701
-4.0895,0.4942419042252961,-0.1674562567923655
-4.089,0.6009436528020256,-0.08268314955110315
-4.0885,0.6009436528021226,0.04447651131098315
-4.088,0.5475927785137094,0.1292496185523226
-4.0875,0.5049120790830177,-0.01910331911988652
-4.087,0.1848068333517814,-0.3899856633006503
-4.0865,-0.6047861061160158,-0.1356663415768632
-4.086,-1.362368521010795,0.06566978812113491
-4.0855,-1.789175515318702,-0.3475991096805203
-4.085,-1.693143941599645,-0.6866915386455698
-4.0845,-1.12762467414298,-0.6866915386455698
-4.084,-0.3700422592463961,-0.6337083466197325
-4.0835,0.291508581929326,-0.6337083466197325
-4.083,0.6756348768059011,-0.6760949002404023
-4.0825,0.8463576745288524,-0.7608680074818575
-4.082,0.8783681991018712,-0.8880276683437509
-4.0815,0.9637295979633325,-0.9410108603695881
-4.081,1.155792745401445,-0.9622041371799036
-4.0805,1.091771696255524,-0.6972881770507372
-4.08,0.9210488985326017,-0.3158091944647096
-4.0795,0.7609962756675078,0.05507314971581323
-4.079,0.6542945270907299,0.3941655786819999
-4.0785,0.8676980242441885,0.9345941373450475
-4.078,1.315845368266452,1.665762187300935
-4.0775,0.7076454013781532,1.464426057602677
-4.077,-0.1673089369510276,0.6484849004055269
-4.0765,-1.01025275070719,-0.1144730647658345
-4.076,-1.767835165603967,-0.644304985025112
-4.0755,-2.365364957633652,-0.8774310299385835
-4.075,-2.418715831922065,-0.8562377531282487
-4.0745,-1.725154466171829,-0.6549016234298072
-4.074,-0.7755089038389382,-0.3687923864905467
-4.0735,-0.04993701351651855,-0.1250697031716958
-4.073,0.3875401556480718,-0.0508932343355912
-4.0725,0.5689331282290746,0.02328323450064829
-4.072,0.6009436528021226,0.3199891098453364
-4.0715,0.5689331282291037,0.7650479228619638
-4.071,0.5369226036558811,0.9875773293705956
-4.0705,0.3768699807907871,0.6696781772158616
-4.07,-0.3060212101002809,0.4153588554920746
-4.0695,-1.063603624996738,0.5001319627326817
-4.069,-1.46907026958831,-0.05089323433552374
-4.0685,-1.586442193022819,-0.5383386009732256
-4.068,-1.394379045583968,-0.6231117082144976
-4.0675,-0.7755089038389382,-0.5489352393783931
-4.067,-0.07127736323188383,-0.5489352393783931
-4.0665,0.4622313796525199,-0.612515069809494
-4.066,0.7609962756673623,-0.718481453861072
-4.0655,0.8783681991018712,-0.8456411147230812
-4.065,0.9103787236748901,-0.9304142219643436
-4.0645,1.134452395686255,-1.036380606016095
-4.064,1.145122570543937,-0.8774310299385835
-4.0635,0.9850699476788433,-0.538338600973534
-4.063,0.8036769750979763,-0.1674562567920475
-4.0625,0.6756348768059011,0.1822328105781598
-4.062,0.7289857510942658,0.6060983467844716
-4.0615,1.198473444831962,1.390249588767594
-4.061,0.7716664505250448,1.771728571353275
-4.0605,-0.2420001609548061,1.051157159801889
-4.06,-1.159635198716222,0.1504428953619829
-4.0595,-1.938557963326346,-0.5913217929990628
-4.059,-2.429386006779747,-0.9728007755850904
-4.0585,-2.461396531352766,-1.046977244421195
-4.058,-2.280003558772191,-0.9092209451540858
-4.0575,-1.330357996438436,-0.6549016234300674
-4.057,-0.4554036581092546,-0.3899856633011225
-4.0565,0.1634664836371343,-0.2310360872233701
-4.056,0.4942419042252961,-0.1462629799820306
-4.0555,0.6116138276596983,0.1080563417417564
-4.055,0.6116138276597662,0.5001319627334913
-4.0545,0.5689331282290746,0.8392243916985406
-4.054,0.504912079083037,0.8286277532933828
-4.0535,0.003413860771137702,0.5849050699748016
-4.053,-0.8288597781273515,0.8922075837243778
-4.0525,-1.341028171296118,0.5425185163538525
-4.052,-1.511750969018973,-0.1462629799824161
-4.0515,-1.437059745015262,-0.570128516188728
-4.051,-0.8928808272734472,-0.5913217929990628
-4.0505,-0.1886492866670334,-0.5383386009732738
-4.05,0.3768699807907871,-0.6019184314042303
-4.0495,0.7183155762366316,-0.7290780922662394
-4.049,0.8676980242440526,-0.8032545611023439
-4.0485,0.9103787236750648,-0.8350444763179523
-4.048,1.070431346540159,-0.8774310299385835
-4.0475,1.177133095116888,-0.8032545611024789
-4.047,1.038420821966956,-0.5277419625677595
-4.0465,0.8676980242441885,-0.1992461720078678
-4.046,0.7183155762367675,0.1080563417417083
-4.0455,0.6649647019485774,0.4047622170872541
-4.045,1.059761171682476,1.040560521396722
-4.0445,1.209143619690033,1.845905040189447
-4.044,0.3341892813591638,1.909484870619728
-4.0435,-0.6474668055467465,1.114736990232894
-4.043,-1.51175096901904,0.1080563417419877
-4.0425,-2.2373228593408,-0.6337083466190578
-4.042,-2.44005618163743,-0.9622041371799229
-4.0415,-2.183971985053047,-0.9728007755850904
-4.041,-1.21298607300481,-0.7396747306716189
-4.0405,-0.3700422592464641,-0.4323722169213393
-4.04,0.2168173579255475,-0.1992461720078678
-4.0395,0.5262524287980627,-0.1038764263614476
-4.039,0.6222840025174684,0.09745970333713835
-4.0385,0.6009436528021226,0.4471487707073456
-4.038,0.5689331282291037,0.7544512844569216
-4.0375,0.5262524287981015,0.7226613692413519
-4.037,0.2594980573562781,0.3411823866556712
-4.0365,-0.5407650569699201,0.55311515475902
-4.036,-1.394379045584978,1.104140351827418
-4.0355,-1.885207089037933,0.7650479228623686
-4.035,-1.682473766741963,0.1504428953626575
-4.0345,-0.9675720512778758,-0.2098428104127076
-4.034,-0.1673089369510276,-0.474758770542221
-4.0335,0.4408910299368829,-0.6549016234300674
-4.033,0.782336625382417,-0.7714646458868032
-4.0325,0.9103787236749289,-0.8774310299386702
-4.032,0.9210488985326017,-0.9728007755850904
-4.0315,0.9957401225363123,-1.036380606016037
-4.031,1.177133095116917,-1.046977244420993
-4.0305,1.102441871113207,-0.7502713690765743
-4.03,0.9210488985327667,-0.3475991096805781
-4.0295,0.7609962756672652,0.03387987290612413
-4.029,0.6542945270905358,0.3729723018711736
-4.0285,0.8890383739595538,0.9028042221295453
-4.028,1.262494493977806,1.665762187301523
-4.0275,0.5582629533713921,1.580989080060261
-4.027,-0.3700422592469978,0.7438546460520338
-4.0265,-1.21298607300316,-0.1144730647657477
-4.026,-1.959898313041711,-0.7396747306714069
-4.0255,-2.418715831922065,-1.004590690800593
-4.025,-2.322684258203009,-1.004590690800593
-4.0245,-1.469070269587495,-0.8032545611021609
-4.024,-0.572775581542968,-0.5277419625680583
-4.0235,0.08877525963275412,-0.3052125560597445
-4.023,0.462231379652384,-0.2098428104129389
-4.0225,0.6116138276598051,-0.1038764263613609
-4.022,0.6222840025174782,0.1716361721727418
-4.0215,0.5796033030867282,0.5319218779488875
-4.021,0.5475927785137094,0.7544512844572011
-4.0205,0.408880505363835,0.5213252395435176
-4.02,-0.2313299860977543,0.2776025562247727
-4.0195,-0.9248913518464952,0.3941655786815084
-4.019,-1.341028171296118,-0.1144730647665284
-4.0185,-1.511750969018885,-0.5489352393779979
-4.018,-1.287677297007705,-0.6231117082145651
-4.0175,-0.6367966306890638,-0.5595318777835605
-4.017,0.03542438534433112,-0.5595318777835605
-4.0165,0.515582253940904,-0.6337083466198192
-4.016,0.7823366253827275,-0.7290780922662394
-4.0155,0.9103787236748028,-0.7926579226971862
-4.015,0.9423892482481611,-0.8774310299387087
-4.0145,1.15579274540162,-1.01518732920576
-4.014,1.166462920259293,-0.866834391533551
-4.0135,1.006410297393908,-0.5065486857573668
-4.013,0.8356874996711408,-0.1144730647665284
-4.0125,0.6969752265212663,0.2458126410091644
-4.012,0.7396559259524529,0.680274815621723
-4.0115,1.241154144263081,1.443232780793084
-4.011,0.9210488985326017,1.973064701051456
-4.0105,0.01408403563040217,1.379652950362619
-4.01,-0.8715404775580819,0.4259554938970107
-4.0095,-1.67180359188428,-0.4111789401112165
-4.009,-2.312014083344657,-0.8668343915330017
-4.0085,-2.42938600677932,-0.9833974139901421
-4.008,-1.959898313041711,-0.8562377531282487
-4.0075,-0.9675720512781282,-0.6019184314044617
-4.007,-0.1886492866659271,-0.3475991096800576
-4.0065,0.3235191065023739,-0.1780528951975329
-4.006,0.5689331282290746,-0.09327978795619347
-4.0055,0.6329541773751511,0.1292496185525732
-4.005,0.6116138276598051,0.4047622170866759
-4.0045,0.5689331282290746,0.5425185163538525
-4.004,0.4942419042248109,0.3199891098450762
-4.0035,-0.03926683865883591,0.03387987290581572
-4.003,-0.8715404775580819,0.4471487707073456
-4.0025,-1.447729919872421,0.319989109845452
-4.002,-1.67180359188428,-0.2098428104130352
-4.0015,-1.212986073003927,-0.4323722169215513
-4.001,-0.4874141826821667,-0.4747587705421825
-4.0005,0.1954770082105898,-0.5489352393784798
-4,0.6436243522328531,-0.6443049850249
-3.9995,0.8676980242441885,-0.7608680074817418
-3.999,0.9317190733902845,-0.8774310299385835
-3.9985,0.9210488985326017,-0.9516074987747555
-3.998,1.091771696255524,-1.025783967610927
-3.9975,1.209143619690033,-0.9622041371799229
-3.997,1.070431346540159,-0.6443049850249
-3.9965,0.8890383739595538,-0.252229364033705
-3.996,0.7289857510943143,0.1186529801471552
-3.9955,0.6649647019482183,0.4683420475176805
-3.995,1.102441871113207,1.125333628638062
-3.9945,1.283834843693812,1.835308401784279
-3.994,0.4622313796522482,1.517409249629256
-3.9935,-0.4767440078238243,0.6696781772158616
-3.993,-1.362368521011484,-0.1886495336027004
-3.9925,-2.130621110764634,-0.7714646458869092
-3.992,-2.429386006779747,-1.004590690800593
-3.9915,-2.173301810195364,-0.9516074987747555
-3.991,-1.223656247861609,-0.718481453861072
-3.9905,-0.3700422592469978,-0.4323722169215513
-3.99,0.2168173579255475,-0.2310360872233701
-3.9895,0.5262524287983441,-0.1674562567923655
-3.989,0.6222840025174878,-0.06148987274069118
-3.9885,0.6222840025174878,0.1610395337678249
-3.988,0.5796033030867573,0.4259554938970107
-3.9875,0.5369226036560266,0.4471487707073456
-3.987,0.2488278824985954,0.1610395337678249
-3.9865,-0.5514352318276028,0.4789386859228479
-3.986,-1.383708870726849,0.7438546460520338
-3.9855,-1.970568487899394,0.1822328105781598
-3.985,-2.03458953704549,-0.400582301706049
-3.9845,-1.437059745015262,-0.570128516188728
-3.984,-0.5514352318276028,-0.6125150698093976
-3.9835,0.1848068333524996,-0.6549016234300674
-3.983,0.6436243522328531,-0.6972881770507372
-3.9825,0.857027849386506,-0.7820612842920766
-3.982,0.9103787236749192,-0.8456411147230812
-3.9815,0.9637295979633325,-0.9092209451540858
-3.981,1.145122570543937,-0.9516074987747555
-3.9805,1.081101521397841,-0.7078848154559045
-3.98,0.9210488985326017,-0.3581957480853793
-3.9795,0.7716664505250448,-0.02969995752518888
-3.979,0.6649647019482183,0.2564092794143318
-3.9785,0.8783681991018712,0.701468092431364
-3.978,1.251824319120764,1.485619334413754
-3.9775,0.6009436528021226,1.549199164844759
-3.977,-0.2633405106701714,0.7862411996727035
-3.9765,-1.095614149569417,-0.06148987274069118
-3.976,-1.842526389607202,-0.6972881770507372
-3.9755,-2.376035132491334,-0.9728007755850904
-3.975,-2.354694782775969,-0.9728007755850904
-3.9745,-1.554431668449771,-0.7502713690765743
-3.974,-0.6367966306890638,-0.4217755785163839
-3.9735,0.04609456020262521,-0.1462629799820306
-3.973,0.4515612047945656,-0.01910331912002144
-3.9725,0.6222840025174878,0.08686306493165288
-3.972,0.6436243522328531,0.2987958330350016
-3.9715,0.6009436528021226,0.5213252395435176
-3.971,0.5582629533713921,0.55311515475902
-3.9705,0.408880505363835,0.2352160026039969
-3.97,-0.2953510352432193,0.2881991946298341
-3.9695,-1.06360362499637,0.627291623595192
-3.969,-1.543761493592088,0.13984625695749
-3.9685,-1.746494815888059,-0.4217755785163839
-3.968,-1.522421143876723,-0.6019184314042303
-3.9675,-0.8288597781273515,-0.5913217929990628
-3.967,-0.07127736323188383,-0.570128516188728
-3.9665,0.4729015545099309,-0.6337083466197325
-3.966,0.7716664505250448,-0.7820612842920766
-3.9655,0.8997085488172365,-0.8880276683437509
-3.965,0.9530594231056497,-0.9410108603695881
-3.9645,1.187803269974668,-1.01518732920576
-3.964,1.19847344483235,-0.8350444763179138
-3.9635,1.027750647109428,-0.474758770542221
-3.963,0.8463576745288233,-0.1144730647665284
-3.9625,0.707645401378949,0.2034260873884947
-3.962,0.7503261008096795,0.5637117931641874
-3.9615,1.273164668836129,1.284283204715573
-3.961,0.9637295979633325,1.464426057603419
-3.9605,0.07810508477567314,0.6908714540261965
-3.96,-0.7968492535543035,-0.1250697031716958
-3.9595,-1.607782542738184,-0.7608680074817418
-3.959,-2.280003558772191,-1.05757388282643
-3.9585,-2.429386006779747,-1.078767159636765
-3.958,-2.130621110764634,-0.8986243067489184
-3.9575,-1.159635198715513,-0.5913217929990628
-3.957,-0.3166913849585846,-0.2840192792492073
-3.9565,0.2488278824985954,-0.1250697031716958
-3.956,0.5475927785137094,-0.05089323433552374
-3.9555,0.6329541773751706,0.2458126410091644
-3.955,0.6329541773751706,0.6696781772158616
-3.9545,0.5902734779444399,0.9981739677760521
-3.954,0.5155822539406614,0.9134008605347127
-3.9535,0.02475421048725994,0.5107286011383502
-3.953,-0.7648387289812555,0.6484849004055269
-3.9525,-1.26633694729234,0.2352160026039969
-3.952,-1.46907026958831,-0.3687923864905467
-3.9515,-1.373038695869166,-0.5913217929990628
-3.951,-0.8928808272734472,-0.5171453241628908
-3.9505,-0.2206598112394408,-0.474758770542221
-3.95,0.3555296310754218,-0.5065486857577234
-3.9495,0.6969752265212663,-0.6231117082145651
-3.949,0.857027849386506,-0.7608680074817418
-3.9485,0.8997085488172365,-0.8562377531282487
-3.948,1.070431346540159,-1.004590690800593
-3.9475,1.166462920259302,-0.9410108603695881
-3.947,1.049090996824793,-0.5913217929990628
-3.9465,0.8783681991018712,-0.1886495336027004
-3.946,0.7396559259519968,0.1716361721729923
-3.9455,0.6756348768059011,0.5001319627331828
-3.945,1.059761171682476,1.167720182258731
-3.9445,0.9530594231056497,1.79292184816361
-3.944,0.04609456020262521,1.305476481525908
-3.9435,-0.7861790786966207,0.4365521323021782
-3.943,-1.533091318734406,-0.3899856633008816
-3.9425,-2.19464215991073,-0.9092209451540858
-3.942,-2.418715831922065,-1.0999604364471
-3.9415,-2.376035132491334,-1.05757388282643
-3.941,-1.618452717595867,-0.8350444763179138
-3.9405,-0.6794773301197943,-0.570128516188728
-3.94,0.02475421048725994,-0.3687923864905467
-3.9395,0.4408910299368829,-0.3052125560595421
-3.939,0.6116138276598051,-0.2840192792492073
-3.9385,0.6329541773751706,-0.2416327256285375
-3.938,0.6009436528021226,-0.1992461720078678
-3.9375,0.5582629533713921,-0.2946159176543747
-3.937,0.2168173579255475,-0.4853554089473885
-3.9365,-0.5941159312583333,0.05507314971615059
-3.936,-1.277007122150022,0.3729723018711736
-3.9355,-1.639793067311232,-0.07208651114585861
-3.935,-1.533091318734406,-0.400582301706049
-3.9345,-0.9035510021311299,-0.4429688553267188
-3.934,-0.1779791118087102,-0.4853554089473885
-3.9335,0.3982103305061524,-0.5171453241628908
-3.933,0.7396559259519968,-0.6337083466197325
-3.9325,0.8783681991018712,-0.7714646458869092
-3.932,0.8997085488172365,-0.8668343915334161
-3.9315,0.9210488985326017,-0.9939940523954253
-3.931,0.9317190733902845,-1.089363798041932
-3.9305,0.8463576745288233,-0.7820612842920766
-3.93,0.7503261008096795,-0.326405832869877
-3.9295,0.6756348768059011,0.1292496185523226
-3.929,0.6329541773751706,0.5319218779486851
-3.9285,0.9210488985326017,1.114736990232894
-3.928,1.369196242555273,1.877694955404949
-3.9275,0.6756348768059011,1.877694955404949
-3.927,-0.391382608962363,1.029963882991555
-3.9265,-1.341028171296118,0.09745970333682032
-3.926,-2.119950935906951,-0.6125150698093976
-3.9255,-2.418715831922065,-0.9410108603695881
-3.925,-2.418715831922065,-0.9833974139902578
-3.9245,-1.959898313041711,-0.8456411147230812
-3.924,-0.9569018764195432,-0.6337083466197325
-3.9235,-0.156638762093345,-0.4429688553267188
-3.923,0.3555296310754218,-0.326405832869877
-3.9225,0.5902734779444399,-0.2628260024388724
-3.922,0.6436243522328531,-0.2098428104130352
-3.9215,0.6329541773751706,-0.1462629799820306
-3.921,0.5902734779444399,-0.1568596183871981
-3.9205,0.408880505363835,-0.2734226408440398
-3.92,-0.3273615598162672,0.309392471440169
-3.9195,-1.020922925565639,0.8180311148882058
-3.919,-1.447729919872945,0.3199891098453364
-3.9185,-1.479740444445993,-0.2310360872233701
-3.918,-0.9995825758502737,-0.3793890248957141
-3.9175,-0.274010685527854,-0.400582301706049
-3.917,0.3235191065023739,-0.5065486857577234
-3.9165,0.707645401378949,-0.6443049850249
-3.916,0.8890383739595538,-0.792657922697244
-3.9155,0.9210488985326017,-0.9304142219644207
-3.915,0.9210488985326017,-0.9833974139902578
-3.9145,1.166462920259302,-1.025783967610927
-3.914,1.187803269974668,-0.8032545611024114
-3.9135,1.027750647109428,-0.4323722169215513
-3.913,0.8463576745288233,-0.04029659593035631
-3.9125,0.7183155762366316,0.2881991946298341
-3.912,0.7716664505250448,0.7120647308365314
-3.9115,1.294505018551494,1.496215972818921
-3.911,0.974399772821015,2.237980661180642
-3.9105,-0.04993701351651855,2.354543683637484
-3.91,-0.8181896032696687,1.75053529454294
-3.9095,-1.405049220442214,0.8286277532933731
-3.909,-1.970568487899394,-0.1250697031716958
-3.9085,-2.376035132491334,-0.7502713690765743
-3.908,-2.269333383914508,-0.9833974139902578
-3.9075,-1.405049220442214,-0.9092209451540858
-3.907,-0.5194247072545548,-0.6866915386455698
-3.9065,0.1207857842064037,-0.474758770542221
-3.906,0.4835717293676135,-0.3158091944647096
-3.9055,0.6222840025174878,-0.1250697031716958
-3.905,0.6436243522328531,0.13984625695749
-3.9045,0.6116138276598051,0.3623756634660061
-3.904,0.5369226036560266,0.2881991946298341
-3.9035,0.09944543449103843,0.1716361721729923
-3.903,-0.4874141826815069,0.6484849004055269
-3.9025,-1.06360362499637,0.4683420475176805
-3.902,-1.319687821580753,-0.1462629799820306
-3.9015,-1.234326422719292,-0.4535654937318862
-3.901,-0.6794773301197943,-0.400582301706049
-3.9005,-0.01792648894347063,-0.3158091944647096
-3.9,0.4942419042252961,-0.3687923864905467
-3.8995,0.7823366253827275,-0.5171453241628908
-3.899,0.8890383739595538,-0.7078848154559045
-3.8985,0.8997085488172365,-0.8668343915334161
-3.898,1.081101521397841,-1.004590690800593
-3.8975,1.209143619690033,-0.9410108603695881
-3.897,1.091771696255524,-0.5913217929990628
-3.8965,0.9210488985326017,-0.1992461720078678
-3.896,0.7716664505250448,0.13984625695749
-3.8955,0.707645401378949,0.4471487707073456
-3.895,1.134452395686255,1.082947075017392
-3.8945,1.273164668836129,1.771728571353275
-3.894,0.4622313796522482,1.369056311956912
-3.8935,-0.4874141826815069,0.4895353243280153
-3.893,-1.383708870726849,-0.3581957480853793
-3.8925,-2.130621110764634,-0.8774310299385835
-3.892,-2.408045657064382,-1.046977244421262
-3.8915,-2.183971985053047,-0.9622041371799229
-3.891,-1.234326422719292,-0.6760949002404023
-3.8905,-0.3700422592469978,-0.3475991096802118
-3.89,0.2274875327832301,-0.1250697031716958
-3.8895,0.5475927785137094,-0.05089323433552374
-3.889,0.6436243522328531,0.03387987290581572
-3.8885,0.6436243522328531,0.2034260873884947
-3.888,0.6009436528021226,0.3623756634660061
-3.8875,0.5582629533713921,0.2670059178194992
-3.887,0.2594980573562781,-0.04029659593035631
-3.8865,-0.5300948821122373,0.2987958330350016
