Class_4_Move_right_hand_Horiszontal/Class_4_Move_right_hand_Horiszontal_Suko_3.csv

#Digilent WaveForms Oscilloscope Acquisition
#Device Name: EExplorer
#Serial Number: SN:210151A2B84A
#Date Time: 2020-11-04 11:22:46.575
#Sample rate: 2000Hz
#Samples: 16384
#Trigger: Source: Channel 1 Type: Edge Condition: Rising Level: 0 V Hyst.: Auto HoldOff: 0 s
#Channel 1: Range: 1 V/div Offset: 0 V Attenuation: 1 X
#Channel 2: Range: 1 V/div Offset: 0 V Attenuation: 1 X
#Power Supplies: ON
#Fixed Supply: ON
#Voltage: 3.3 V Readback: 3.329 V
#Positive Supply: ON
#Voltage: 3.7 V Readback: 3.715 V
#Current: 500 mA Readback: 22 mA
#Negative Supply: ON
#Voltage: -3.7 V Readback: -3.702 V
#Current: -500 mA Readback: -6 mA
#Reference 1: ON
#Voltage: 0 V
#Reference 2: ON
#Voltage: 0 V

Time (s),Channel 1 (V),Channel 2 (V)
-4.096,1.379866417412955,0.8816109453192104
-4.0955,1.721312012858489,1.199510097473944
-4.095,0.9317190733892461,1.284283204715467
-4.0945,-0.2099896363817582,1.167720182258731
-4.094,-0.6154562809733297,0.5213252395441055
-4.0935,-0.4874141826812546,-0.3264058328704649
-4.093,-0.2099896363817582,-0.9728007755850904
-4.0925,0.04609456020239228,-1.301296566144982
-4.092,0.2168173579256348,-1.375473034981376
-4.0915,0.3128489316446912,-1.290699927740113
-4.091,0.3448594562177392,-1.089363798041932
-4.0905,0.3341892813600275,-0.8562377531280174
-4.09,0.3021787567870086,-0.6019184314042303
-4.0895,0.2701682322139607,-0.3581957480853793
-4.089,0.2488278824986148,-0.1356663415770656
-4.0885,0.1314559590640864,0.07626642652648545
-4.088,-0.4980843575391895,0.4683420475176805
-4.0875,-1.277007122149314,0.9557874141549391
-4.087,-1.831856214749112,1.316073119930632
-4.0865,-1.383708870726849,0.8286277532933731
-4.086,-0.4767440078246492,0.05507314971685418
-4.0855,0.216817357925858,-0.411178940111361
-4.085,0.5582629533713921,-0.570128516188728
-4.0845,0.6436243522327755,-0.4747587705423078
-4.084,0.6009436528020546,-0.2840192792490241
-4.0835,0.5262524287983441,-0.08268314955102604
-4.083,0.4515612047945656,0.08686306493165288
-4.0825,0.4729015545099794,0.1928294489833658
-4.082,0.5262524287983441,0.2352160026039969
-4.0815,0.4942419042252961,0.2670059178194992
-4.081,0.4408910299369315,0.2458126410091837
-4.0805,0.3875401556484697,0.2140227257936621
-4.08,0.5155822539406614,0.2564092794143318
-4.0795,1.209143619689402,0.6378882620000125
-4.079,1.614610264281382,1.040560521396934
-4.0785,0.9637295979633325,1.273686566310405
-4.078,-0.1779791118076719,1.316073119931036
-4.0775,-0.7008176798350724,0.9134008605339321
-4.077,-0.6047861061160158,0.05507314971615059
-4.0765,-0.3060212101011737,-0.7290780922655262
-4.076,-0.01792648894328624,-1.227120097309302
-4.0755,0.1848068333524996,-1.439052865412457
-4.075,0.291508581929326,-1.439052865412457
-4.0745,0.3341892813600565,-1.322489842955432
-4.074,0.3341892813600565,-1.121153713257435
-4.0735,0.3128489316446912,-0.8986243067489184
-4.073,0.2808384070716724,-0.6654982618354469
-4.0725,0.2488278824985954,-0.4429688553267188
-4.072,0.2061471830678648,-0.2204394488182027
-4.0715,-0.2206598112390527,0.1716361721726357
-4.071,-0.8608703027010786,0.7438546460524674
-4.0705,-1.607782542738184,1.220703374284568
-4.07,-1.607782542738184,1.01936724458657
-4.0695,-0.7541685541228742,0.1716361721724816
-4.069,0.01408403562957729,-0.3899856633008816
-4.0685,0.4729015545099309,-0.5913217929990628
-4.068,0.6329541773751609,-0.5065486857575499
-4.0675,0.6222840025174878,-0.3158091944647096
-4.067,0.5475927785137094,-0.09327978795619347
-4.0665,0.4729015545099212,0.08686306493173962
-4.066,0.4622313796522482,0.1822328105781598
-4.0655,0.6116138276598051,0.08686306493165288
-4.065,0.6009436528021322,0.09745970333681067
-4.0645,0.5155822539406614,0.1610395337678249
-4.064,0.4302208550792003,0.2140227257936621
-4.0635,0.4088805053638545,0.2881991946297667
-4.063,0.7609962756673719,0.6378882620007352
-4.0625,0.7716664505250448,1.051157159801889
-4.062,0.09944543449164989,1.294879843120519
-4.0615,-0.8502001278432311,1.36905631195672
-4.061,-1.415719395299897,1.157123543853563
-4.0605,-1.170305373573196,0.3941655786815084
-4.06,-0.6474668055463195,-0.4535654937324259
-4.0595,-0.1779791118087102,-1.046977244421262
-4.059,0.1314559590640864,-1.34368311976595
-4.0585,0.3021787567868534,-1.407262950196897
-4.058,0.3555296310754218,-1.311893204550448
-4.0575,0.3555296310754218,-1.131750351662602
-4.057,0.323519106502403,-0.9092209451542882
-4.0565,0.2808384070716433,-0.6760949002404023
-4.056,0.2488278824985954,-0.4535654937318862
-4.0555,0.2381577076409225,-0.2416327256287303
-4.055,0.06743490991735972,0.02328323450111089
-4.0545,-0.6261264558313813,0.5319218779486851
-4.054,-1.362368521010814,1.051157159801417
-4.0535,-1.629122892452948,1.337266396740822
-4.053,-0.9675720512772257,0.6908714540261965
-4.0525,-0.1779791118087102,-0.1144730647665284
-4.052,0.3448594562179527,-0.559531877783628
-4.0515,0.5796033030867573,-0.6337083466197325
-4.051,0.6222840025174878,-0.5065486857577234
-4.0505,0.5689331282291231,-0.3052125560597252
-4.05,0.4942419042252961,-0.1038764263613609
-4.0495,0.4408910299368829,0.05507314971615059
-4.049,0.5475927785136123,0.1398462569574129
-4.0485,0.5902734779443913,0.2034260873885428
-4.048,0.5369226036560266,0.2564092794143318
-4.0475,0.4515612047946432,0.2881991946298052
-4.047,0.3875401556486444,0.3093924714403714
-4.0465,0.5796033030867573,0.5319218779486851
-4.046,1.187803269974115,0.9345941373446813
-4.0455,1.187803269973765,1.252493289500205
-4.045,0.1954770082101822,1.400846227172415
-4.0445,-0.8928808272734472,1.347863035146577
-4.044,-1.138294848999847,0.7438546460512339
-4.0435,-0.807519428411986,-0.1356663415768632
-4.043,-0.3593720843893152,-0.8350444763179138
-4.0425,-0.007256314086108218,-1.227120097308752
-4.042,0.2168173579255475,-1.364876396576285
-4.0415,0.3128489316446912,-1.333086481360783
-4.041,0.3448594562177101,-1.184733543688574
-4.0405,0.334189281360008,-0.9833974139900554
-4.04,0.2808384070716433,-0.7608680074817418
-4.0395,0.2488278824986245,-0.538338600973428
-4.039,0.2274875327831331,-0.3370024712748324
-4.0385,0.1207857842064037,-0.1038764263613609
-4.038,-0.5194247072539725,0.3835689402758977
-4.0375,-0.988912400992795,0.9345941373454233
-4.037,-1.212986073003927,1.347863035146577
-4.0365,-1.042263275281004,1.146526905448396
-4.036,-0.4233931335349063,0.3517790250602508
-4.0355,0.1314559590640864,-0.2946159176543747
-4.035,0.4515612047945656,-0.5383386009732256
-4.0345,0.5582629533712951,-0.5171453241629101
-4.034,0.5475927785137094,-0.3687923864905467
-4.0335,0.4942419042252961,-0.1780528951975329
-4.033,0.4302208550792586,0.00208995769014958
-4.0325,0.4942419042254514,0.1186529801471937
-4.032,0.6649647019482183,0.1610395337678249
-4.0315,0.6329541773751997,0.2458126410090873
-4.031,0.5369226036559296,0.3093924714401882
-4.0305,0.4302208550792003,0.3305857482505039
-4.03,0.4408910299368732,0.4365521323020818
-4.0295,0.7716664505248798,0.7968378380781985
-4.029,0.5902734779444399,1.157123543853563
-4.0285,-0.2953510352432193,1.369056311956912
-4.028,-1.319687821581093,1.42203950398247
-4.0275,-1.693143941599645,1.114736990232894
-4.027,-1.26633694729234,0.2881991946298341
-4.0265,-0.6581369804049821,-0.5171453241621584
-4.026,-0.156638762093345,-1.046977244421262
-4.0255,0.1634664836371343,-1.301296566145281
-4.025,0.3128489316445554,-1.322489842955596
-4.0245,0.3661998059330948,-1.216523458903778
-4.024,0.3555296310754218,-1.036380606016095
-4.0235,0.31284893164473,-0.8138511995077813
-4.023,0.2701682322139316,-0.6019184314040376
-4.0225,0.2381577076409128,-0.3899856633008816
-4.022,0.195477008210221,-0.1886495336028835
-4.0215,-0.1673089369509306,0.2352160026045077
-4.021,-0.06060718837420119,0.7968378380778709
-4.0205,0.2274875327832301,1.263089927905238
-4.02,0.451561204794915,1.305476481525059
-4.0195,0.8356874996711408,0.3729723018711736
-4.019,0.9637295979633325,-0.3793890248957141
-4.0185,0.8890383739596217,-0.644304985024659
-4.018,0.7289857510943143,-0.6231117082145651
-4.0175,0.5796033030867573,-0.4641621321370536
-4.017,0.4622313796523549,-0.2628260024390555
-4.0165,0.38754015564846,-0.07208651114569477
-4.016,0.3768699807907871,0.1080563417419877
-4.0155,0.5049120790828624,0.2987958330348281
-4.015,0.5155822539406129,0.3941655786815469
-4.0145,0.4622313796522482,0.4365521323021782
-4.014,0.3982103305062106,0.4259554938970204
-4.0135,0.3555296310756838,0.3835689402764952
-4.013,0.6436243522328531,0.55311515475902
-4.0125,0.3448594562177392,0.9345941373450475
-4.012,-0.5300948821130331,1.241896651095048
-4.0115,-1.405049220442214,1.400846227172415
-4.011,-1.83185621474952,1.305476481525908
-4.0105,-1.426389570157948,0.5955017083803353
-4.01,-0.7861790786966207,-0.2628260024388724
-4.0095,-0.2313299860971235,-0.8880276683437509
-4.009,0.1207857842060834,-1.237716735713958
-4.0085,0.2915085819293842,-1.333086481360735
-4.008,0.3555296310754218,-1.280103289334946
-4.0075,0.3555296310754218,-1.131750351662737
-4.007,0.3128489316446524,-0.9516074987745724
-4.0065,0.2701682322139607,-0.7502713690765743
-4.006,0.2381577076409128,-0.5489352393783931
-4.0055,0.216817357925334,-0.3581957480851095
-4.005,-0.01792648894347063,-0.06148987274069118
-4.0045,-0.7968492535543035,0.5001319627331828
-4.004,-1.565101843307774,1.051157159802053
-4.0035,-1.917217613610981,1.231300012689736
-4.003,-1.298347471865388,0.6166949851900245
-4.0025,-0.4554036581092255,-0.1144730647658634
-4.002,0.1634664836371343,-0.5277419625680583
-4.0015,0.4835717293676135,-0.6019184314042303
-4.001,0.5902734779443428,-0.4853554089474945
-4.0005,0.5796033030866894,-0.3052125560593976
-4,0.5049120790829789,-0.1462629799820306
-3.9995,0.4408910299368829,-0.01910331912002144
-3.999,0.5262524287983441,0.1610395337678249
-3.9985,0.5796033030867573,0.2881991946298341
-3.998,0.5155822539406614,0.3411823866556712
-3.9975,0.4408910299368829,0.3517790250608387
-3.997,0.3768699807907871,0.3517790250608387
-3.9965,0.6436243522328531,0.5743084315693548
-3.996,1.145122570543937,0.9557874141553824
-3.9955,0.5475927785137094,1.263089927905238
-3.995,-0.5514352318276028,1.411442865577582
-3.9945,-1.447729919872945,1.390249588767247
-3.994,-1.46907026958831,0.8604176685088755
-3.9935,-0.9569018764195432,0.01268659609548085
-3.993,-0.4127229586777283,-0.6866915386455698
-3.9925,-0.007256314085787988,-1.089363798041932
-3.992,0.2274875327832301,-1.227120097309109
-3.9915,0.3235191065023739,-1.195330182093607
-3.991,0.3555296310754218,-1.046977244421262
-3.9905,0.3341892813600565,-0.8562377531282487
-3.99,0.2808384070716433,-0.6443049850249
-3.9895,0.2488278824985954,-0.4323722169215513
-3.989,0.2274875327832301,-0.2416327256285375
-3.9885,0.142126133921769,-0.04029659593035631
-3.988,-0.2953510352432193,0.4153588554918433
-3.9875,-0.9248913518464952,0.9451907757502149
-3.987,-1.597112367880501,1.347863035146577
-3.9865,-1.607782542738184,1.231300012689736
-3.986,-0.9035510021311299,0.5213252395435176
-3.9855,-0.1779791118087102,-0.1568596183871981
-3.985,0.291508581929326,-0.5913217929990628
-3.9845,0.5155822539406614,-0.7290780922662394
-3.984,0.5689331282290746,-0.6654982618352349
-3.9835,0.5262524287983441,-0.4853554089473885
-3.983,0.4622313796522482,-0.2734226408440398
-3.9825,0.4942419042252961,-0.1144730647665284
-3.982,0.5796033030867573,-0.008506680714854012
-3.9815,0.5369226036560266,0.1292496185523226
-3.981,0.4515612047945656,0.2458126410091644
-3.9805,0.3768699807907871,0.3305857482505039
-3.98,0.4835717293676135,0.4789386859228479
-3.9795,1.134452395686255,0.849821030103708
-3.979,1.230483969405398,1.199510097474233
-3.9785,0.3875401556484697,1.400846227172415
-3.978,-0.7114878546928423,1.453829419198252
-3.9775,-1.138294849000148,1.093543713422559
-3.977,-0.8822106524157645,0.2670059178194992
-3.9765,-0.4554036581084589,-0.4853554089473885
-3.976,-0.07127736323188383,-0.9622041371799229
-3.9755,0.1634664836371343,-1.174136905283272
-3.975,0.291508581929326,-1.174136905283272
-3.9745,0.3341892813600565,-1.046977244421262
-3.974,0.3235191065023739,-0.8668343915334161
-3.9735,0.2808384070716433,-0.6760949002404023
-3.973,0.2381577076409128,-0.4641621321370536
-3.9725,0.2168173579255475,-0.2840192792492073
-3.972,0.1954770082101822,-0.1144730647665284
-3.9715,0.02475421048725994,0.1610395337678249
-3.971,-0.156638762093345,0.6166949851900245
-3.9705,-0.839529952985034,1.093543713422559
-3.97,-1.426389570157579,1.241896651094903
-3.9695,-1.084943974711735,0.627291623595192
-3.969,-0.4020527838200457,-0.05089323433552374
-3.9685,0.1314559590640864,-0.4959520473525559
-3.968,0.4195506802215176,-0.6443049850249
-3.9675,0.5262524287983441,-0.6019184314042303
-3.967,0.5262524287983441,-0.4959520473525559
-3.9665,0.4729015545099309,-0.3793890248957141
-3.966,0.4408910299368829,-0.3052125560595421
-3.9655,0.5475927785137094,-0.3158091944647096
-3.965,0.5262524287983441,-0.252229364033705
-3.9645,0.4622313796522482,-0.1674562567923655
-3.964,0.3875401556484697,-0.09327978795619347
-3.9635,0.3235191065023739,0.002089957690313421
-3.963,0.3768699807907871,0.3941655786815084
-3.9625,0.1101156093487211,0.8922075837243778
-3.962,-0.5194247072545548,1.241896651094903
-3.9615,-1.255666772434657,1.390249588767247
-3.961,-1.746494815888059,1.284283204715573
-3.9605,-1.426389570157579,0.6166949851900245
-3.96,-0.807519428411986,-0.1886495336027004
-3.9595,-0.2633405106701714,-0.7820612842920766
-3.959,0.09944543449103843,-1.078767159636765
-3.9585,0.2808384070716433,-1.131750351662602
-3.958,0.3555296310754218,-1.036380606016095
-3.9575,0.3555296310754218,-0.8562377531282487
-3.957,0.3128489316446912,-0.6443049850249
-3.9565,0.2594980573562781,-0.4217755785163839
-3.956,0.2274875327832301,-0.2204394488182027
-3.9555,0.2168173579255475,-0.04029659593035631
-3.955,-0.01792648894347063,0.2140227257936621
-3.9545,-0.5300948821122373,0.6908714540261965
-3.954,-1.084943974711735,1.146526905448396
-3.9535,-1.522421143876723,1.411442865577582
-3.953,-1.223656247861609,1.019367244586387
-3.9525,-0.5087545323968721,0.2670059178194992
-3.952,0.08877525963335578,-0.2946159176543747
-3.9515,0.4195506802215176,-0.570128516188728
-3.951,0.5475927785137094,-0.6125150698093976
-3.9505,0.5582629533713921,-0.5277419625680583
-3.95,0.5049120790829789,-0.3793890248957141
-3.9495,0.4408910299368829,-0.2310360872233701
-3.949,0.4408910299368829,-0.1038764263613609
-3.9485,0.4408910299368829,0.002089957690313421
-3.948,0.408880505363835,0.09745970333682032
-3.9475,0.3661998059331045,0.1716361721729923
-3.947,0.3448594562177392,0.2246193641988295
-3.9465,0.3128489316446912,0.4683420475176805
-3.946,0.2701682322139607,0.8816109453192104
-3.9455,-0.2953510352432193,1.220703374284568
-3.945,-0.9675720512772257,1.37965295036208
-3.9445,-1.575772018165136,1.369056311956912
-3.944,-1.479740444445993,0.8392243916985406
-3.9435,-0.9248913518464952,0.002089957690313421
-3.943,-0.3700422592469978,-0.6760949002404023
-3.9425,0.02475421048725994,-1.05757388282643
-3.942,0.2488278824985954,-1.174136905283272
-3.9415,0.3448594562177392,-1.110557074852267
-3.941,0.3555296310754218,-0.9516074987747555
-3.9405,0.3341892813600565,-0.7396747306714069
-3.94,0.2808384070716433,-0.5171453241628908
-3.9395,0.2381577076409128,-0.3052125560595421
-3.939,0.2168173579255475,-0.1144730647665284
-3.9385,0.1527963087794516,0.08686306493165288
-3.938,-0.2846808603855366,0.5107286011383502
-3.9375,-0.7008176798351597,0.9981739677760521
-3.937,-1.202315898146244,1.347863035146577
-3.9365,-1.031593100423322,0.9875773293708847
-3.936,-0.3700422592469978,0.07626642652648545
-3.9355,0.1954770082101822,-0.4641621321370536
-3.935,0.5049120790829789,-0.6549016234300674
-3.9345,0.6222840025174878,-0.6019184314042303
-3.934,0.6009436528021226,-0.4853554089473885
-3.9335,0.5262524287983441,-0.326405832869877
-3.933,0.4515612047945656,-0.1674562567923655
-3.9325,0.4729015545099309,-0.1144730647665284
-3.932,0.6542945270905358,-0.3052125560595421
-3.9315,0.6436243522328531,-0.2840192792492073
-3.931,0.5475927785137094,-0.1674562567923655
-3.9305,0.4408910299368829,-0.04029659593035631
-3.93,0.3875401556484697,0.13984625695749
-3.9295,0.7289857510943143,0.5849050699745222
-3.929,0.408880505363835,1.029963882991555
-3.9285,-0.391382608962363,1.29487984312074
-3.928,-1.170305373573196,1.369056311956912
-3.9275,-1.319687821580753,0.9769806909657173
-3.927,-0.9035510021311299,0.1504428953626575
-3.9265,-0.4020527838200457,-0.5807251545938954
-3.926,-0.01792648894347063,-1.046977244421262
-3.9255,0.2061471830678648,-1.216523458903942
-3.925,0.3128489316446912,-1.205926820498774
-3.9245,0.3448594562177392,-1.068170521231597
-3.924,0.3341892813600565,-0.8774310299385835
-3.9235,0.291508581929326,-0.6549016234300674
-3.923,0.2488278824985954,-0.4429688553267188
-3.9225,0.2274875327832301,-0.252229364033705
-3.922,0.2061471830678648,-0.07208651114585861
-3.9215,-0.01792648894347063,0.2458126410091644
-3.921,-0.08194753808956648,0.7544512844572011
-3.9205,-0.6047861061160158,1.210106735879401
-3.92,-0.9248913518464952,1.093543713422559
-3.9195,-0.423393133535411,0.2458126410091644
-3.919,0.1207857842064037,-0.3899856633008816
-3.9185,0.4515612047945656,-0.6654982618352349
-3.918,0.5796033030867573,-0.6549016234300674
-3.9175,0.5796033030867573,-0.5277419625680583
-3.917,0.5155822539406614,-0.3687923864905467
-3.9165,0.4408910299368829,-0.2098428104130352
-3.916,0.408880505363835,-0.06148987274069118
-3.9155,0.5369226036560266,0.1504428953626575
-3.915,0.5475927785137094,0.2140227257936621
-3.9145,0.4835717293676135,0.2034260873884947
-3.914,0.408880505363835,0.1610395337678249
-3.9135,0.3768699807907871,0.13984625695749
-3.913,0.825017324813458,0.4047622170866759
-3.9125,1.337185717982225,0.849821030103708
-3.912,0.707645401378949,1.188913459069066
-3.9115,-0.4447334832507763,1.33726639674141
-3.911,-1.287677297007705,1.231300012689736
-3.9105,-1.223656247861609,0.5319218779486851
-3.91,-0.7648387289812555,-0.2734226408440398
-3.9095,-0.2846808603855366,-0.8562377531282487
-3.909,0.04609456020262521,-1.142346990067769
-3.9085,0.2381577076409128,-1.205926820498774
-3.908,0.3235191065023739,-1.110557074852267
-3.9075,0.3341892813600565,-0.9410108603695881
-3.907,0.3021787567870086,-0.7396747306714069
-3.9065,0.2594980573562781,-0.5277419625680583
-3.906,0.2274875327832301,-0.326405832869877
-3.9055,0.2274875327832301,-0.1462629799820306
-3.905,0.142126133921769,0.05507314971615059
-3.9045,0.3768699807907871,0.4789386859228479
-3.904,1.091771696255524,0.9769806909657173
-3.9035,1.507908515705147,1.29487984312074
-3.903,1.699971663143435,0.9663840525605498
-3.9025,1.507908515705147,0.2881991946298341
-3.902,1.187803269974668,-0.252229364033705
-3.9015,0.8676980242441885,-0.4959520473525559
-3.901,0.6116138276598051,-0.5065486857577234
-3.9005,0.4622313796522482,-0.4429688553267188
-3.9,0.3661998059331045,-0.3370024712750445
-3.8995,0.3235191065023739,-0.2310360872233701
-3.899,0.4408910299368829,-0.2204394488182027
-3.8985,0.5369226036560266,-0.2310360872233701
-3.898,0.5049120790829789,-0.2098428104130352
-3.8975,0.4302208550792003,-0.2098428104130352
-3.897,0.3555296310754218,-0.2310360872233701
-3.8965,0.3982103305061524,-0.02969995752518888
-3.896,0.5262524287983441,0.5001319627331828
-3.8955,0.03542438534494258,0.9769806909657173
-3.895,-0.7968492535543035,1.220703374284568
-3.8945,-1.565101843307454,1.263089927905238
-3.894,-1.618452717595867,0.8180311148882058
-3.8935,-1.095614149569417,0.002089957690313421
-3.893,-0.4980843575391895,-0.7078848154559045
-3.8925,-0.06060718837420119,-1.110557074852267
-3.892,0.1954770082101822,-1.258910012524611
-3.8915,0.3021787567870086,-1.205926820498774
-3.891,0.3341892813600565,-1.046977244421262
-3.8905,0.3128489316446912,-0.8350444763179138
-3.89,0.2701682322139607,-0.6019184314042303
-3.8895,0.2274875327832301,-0.3793890248957141
-3.889,0.2061471830678648,-0.1674562567923655
-3.8885,0.1207857842064037,0.03387987290581572
-3.888,-0.09261771294724913,0.4471487707073456
-3.8875,0.02475421048725994,0.9451907757502149
-3.887,-0.3487019095316325,1.33726639674141
-3.8865,-0.6154562809736985,1.135930267043229
