Class_4_Move_right_hand_Horiszontal/Class_4_Move_Right_Hand_Horizontal_Zakour_8.csv

#Digilent WaveForms Oscilloscope Acquisition
#Device Name: EExplorer
#Serial Number: SN:210151A2B84A
#Date Time: 2021-01-24 16:31:13.758
#Sample rate: 2000Hz
#Samples: 16384
#Trigger: Source: Channel 1 Type: Edge Condition: Rising Level: 0 V Hyst.: Auto HoldOff: 0 s
#Channel 1: Range: 1 V/div Offset: 0 V Attenuation: 1 X
#Channel 2: Range: 1 V/div Offset: 0 V Attenuation: 1 X
#Power Supplies: ON
#Fixed Supply: ON
#Voltage: 3.3 V Readback: 3.346 V
#Positive Supply: ON
#Voltage: 3.7 V Readback: 3.703 V
#Current: 40 mA Readback: 16 mA
#Negative Supply: ON
#Voltage: -3.7 V Readback: -3.348 V
#Current: -40 mA Readback: -9 mA
#Reference 1: ON
#Voltage: 0 V
#Reference 2: ON
#Voltage: 0 V

Time (s),Channel 1 (V),Channel 2 (V)
-4.096,0.1207857842064037,-0.1250697031716958
-4.0955,0.09944543449105783,-0.008506680714960024
-4.095,0.08877525963335578,0.1186529801472516
-4.0945,0.08877525963335578,0.2246193641988295
-4.094,0.1527963087793934,0.2987958330349341
-4.0935,0.3768699807903892,0.5213252395437585
-4.093,-0.06060718837420119,0.7862411996727035
-4.0925,-0.8608703026996714,0.9557874141552282
-4.092,-0.9355615267035954,0.8922075837243103
-4.0915,-0.2953510352432193,0.8180311148882058
-4.091,0.3768699807907871,0.7120647308365314
-4.0905,0.8570278493867001,0.6166949851898414
-4.09,1.070431346540159,0.4153588554918433
-4.0895,1.049090996824793,-0.09327978795619347
-4.089,0.8570278493866808,-0.6654982618347144
-4.0885,0.6436243522328531,-1.121153713257435
-4.088,0.6542945270905358,-1.555615887869299
-4.0875,0.5369226036561334,-1.576809164679615
-4.087,0.3768699807906513,-1.343683119765671
-4.0865,0.2274875327832301,-1.036380606016095
-4.086,0.1207857842065008,-0.7396747306716767
-4.0855,0.03542438534478731,-0.4217755785160852
-4.085,-0.1352984123779797,-0.09327978795619347
-4.0845,-0.6154562809732618,0.2670059178191715
-4.084,-1.223656247861987,0.6484849004056907
-4.0835,-1.639793067311232,0.8286277532933731
-4.083,-1.362368521011484,0.4895353243280153
-4.0825,-0.8395299529846166,-0.008506680715200965
-4.082,-0.3807124341046804,-0.3899856633008816
-4.0815,-0.07127736323188383,-0.570128516188728
-4.081,0.0887752596332102,-0.5913217929990435
-4.0805,0.142126133921769,-0.5065486857577234
-4.08,0.1527963087794516,-0.3793890248957141
-4.0795,0.1314559590641058,-0.2416327256286628
-4.079,0.1101156093487017,-0.103876426361226
-4.0785,0.08877525963335578,0.04447651131098315
-4.078,0.08877525963335578,0.1928294489831923
-4.0775,0.0887752596331908,0.3835689402765627
-4.077,-0.09261771294724913,0.627291623595192
-4.0765,-0.7328282044076251,0.8604176685086634
-4.076,-1.426389570157676,1.029963882991526
-4.0755,-1.533091318734406,0.9981739677760521
-4.075,-0.722158029550525,0.92399749893988
-4.0745,0.1954770082107644,0.9028042221295164
-4.074,0.8356874996711408,0.8710143069140429
-4.0735,1.145122570543937,0.701468092431364
-4.073,1.145122570543937,0.235216002604421
-4.0725,0.9637295979633325,-0.4111789401112165
-4.072,0.6969752265212663,-0.8986243067489184
-4.0715,0.6542945270905747,-1.375473034981019
-4.071,0.579603303086602,-1.523825972653652
-4.0705,0.408880505363835,-1.364876396576285
-4.07,0.248827882498741,-1.089363798042183
-4.0695,0.1421261339216913,-0.8138511995073668
-4.069,0.05676473506030786,-0.5807251545938954
-4.0685,-0.1886492866663929,-0.7290780922662394
-4.068,-0.7541685541242038,-0.8986243067484943
-4.0675,-1.447729919872945,-0.4323722169215513
-4.067,-2.03458953704549,0.1610395337678249
-4.0665,-1.810515865033543,0.2776025562243968
-4.066,-1.138294849000148,-0.01910331912002144
-4.0655,-0.5514352318276028,-0.3581957480853793
-4.065,-0.156638762093704,-0.580725154593693
-4.0645,0.0674349099179905,-0.6654982618352349
-4.064,0.1527963087794516,-0.6337083466197325
-4.0635,0.1741366584947975,-0.5489352393784701
-4.063,0.1527963087794225,-0.4429688553266031
-4.0625,0.1207857842064037,-0.3158091944647096
-4.062,0.09944543449105783,-0.188649533602816
-4.0615,0.09944543449103843,-0.06148987274056589
-4.061,0.09944543449103843,0.07626642652648545
-4.0605,0.05676473506030786,0.2881991946298341
-4.06,-0.3913826089628677,0.6060983467850883
-4.0595,-0.9462317015618604,0.8604176685088755
-4.059,-1.330357996438436,1.029963882991555
-4.0585,-0.8181896032701346,1.104140351827659
-4.058,0.0674349099179905,1.093543713422559
-4.0575,0.7503261008096795,1.029963882991555
-4.057,1.102441871112886,0.8604176685090297
-4.0565,1.166462920259302,0.4471487707073456
-4.056,1.027750647109428,-0.2416327256285375
-4.0555,0.7823366253829507,-0.8244478379122163
-4.055,0.6649647019481989,-1.280103289335177
-4.0545,0.6436243522328531,-1.534422611058964
-4.054,0.494241904225432,-1.375473034981597
-4.0535,0.3128489316445748,-1.068170521231308
-4.053,0.1848068333524996,-0.7502713690765743
-4.0525,0.09944543449103843,-0.4429688553267188
-4.052,-0.09261771294774405,-0.358195748085601
-4.0515,-0.6367966306890638,-0.6019184314042303
-4.051,-1.330357996438436,-0.3158091944647096
-4.0505,-1.917217613610447,0.05507314971581323
-4.05,-1.970568487899394,0.2352160026039969
-4.0495,-1.341028171296118,0.01268659609548085
-4.049,-0.7114878546934148,-0.2946159176540952
-4.0485,-0.2526703358122364,-0.5171453241629872
-4.048,0.02475421048725994,-0.6231117082145651
-4.0475,0.1421261339216622,-0.6231117082145651
-4.047,0.1741366584948072,-0.5701285161886412
-4.0465,0.1634664836371343,-0.474758770542221
-4.046,0.1314559590641155,-0.3793890248958008
-4.0455,0.09944543449102873,-0.2734226408439338
-4.045,0.08877525963335578,-0.1568596183871981
-4.0445,0.08877525963335578,-0.08268314955102604
-4.044,0.08877525963355958,-0.008506680714593796
-4.0435,0.3128489316446912,0.2776025562246667
-4.043,0.2168173579255475,0.6378882620003594
-4.0425,-0.4020527838194828,0.9028042221293043
-4.042,-0.3380317346739499,1.040560521396722
-4.0415,0.291508581929326,1.093543713422559
-4.041,0.8570278493859917,1.082947075017401
-4.0405,1.20914361969012,1.040560521396587
-4.04,1.305175193409177,0.8922075837243778
-4.0395,1.198473444832447,0.415358855492277
-4.039,0.9530594231054459,-0.2522293640342158
-4.0385,0.7289857510943143,-0.8138511995075789
-4.038,0.7289857510943143,-1.375473034980942
-4.0375,0.6009436528019479,-1.470842780627767
-4.037,0.408880505363835,-1.258910012524611
-4.0365,0.2381577076409128,-0.9410108603695881
-4.036,0.1101156093484785,-0.6760949002402771
-4.0355,-0.156638762093345,-0.5383386009732256
-4.035,-0.658136980404429,-0.3158091944647096
-4.0345,-1.319687821580151,0.1504428953622334
-4.034,-1.842526389607202,0.6060983467848571
-4.0335,-1.789175515318789,0.6802748156210291
-4.033,-1.202315898146778,0.2776025562250329
-4.0325,-0.6261264558309931,-0.1674562567926353
-4.032,-0.1993194615240755,-0.4641621321370536
-4.0315,0.03542438534472908,-0.5807251545937894
-4.031,0.1421261339217884,-0.5701285161886509
-4.0305,0.1634664836371343,-0.4853554089473885
-4.03,0.1527963087794613,-0.3687923864906528
-4.0295,0.1314559590640572,-0.2416327256284315
-4.029,0.09944543449103843,-0.1250697031716958
-4.0285,0.08877525963335578,0.002089957690313421
-4.028,0.0887752596333946,0.1186529801473479
-4.0275,0.1314559590640864,0.3305857482505039
-4.027,0.4622313796522482,0.5849050699745222
-4.0265,0.5902734779443234,0.8498210301034671
-4.026,-0.1032878878049318,1.019367244586387
-4.0255,-0.4340633083930936,1.061753798207057
-4.025,-0.01792648894384913,1.051157159801899
-4.0245,0.5582629533717706,1.029963882991516
-4.024,0.974399772821015,0.9875773293708847
-4.0235,1.166462920259128,0.8498210301038334
-4.023,1.13445239568608,0.4577454091119155
-4.0225,0.942389248247967,-0.1992461720078678
-4.022,0.6969752265214895,-0.7820612842915464
-4.0215,0.6009436528020061,-1.099960436447167
-4.021,0.4729015545099309,-1.174136905283272
-4.0205,0.3235191065023739,-1.0999604364471
-4.02,0.1954770082101046,-0.9304142219642376
-4.0195,0.1101156093487211,-0.7290780922662394
-4.019,-0.02859666380115328,-0.6019184314042303
-4.0185,-0.4980843575387625,-0.3687923864907587
-4.018,-1.095614149569417,0.13984625695749
-4.0175,-1.543761493592088,0.6060983467848571
-4.017,-1.863866739322277,0.8816109453189598
-4.0165,-1.735824641029852,0.7968378380774179
-4.016,-1.159635198715513,0.2987958330350016
-4.0155,-0.5834457564011746,-0.1674562567919415
-4.015,-0.1779791118085065,-0.4429688553267862
-4.0145,0.04609456020262521,-0.5171453241628908
-4.014,0.1421261339216816,-0.4641621321371018
-4.0135,0.1634664836371246,-0.3264058328697421
-4.013,0.1527963087794516,-0.1780528951975329
-4.0125,0.1207857842064037,-0.008506680714854012
-4.012,0.09944543449102873,0.1504428953627828
-4.0115,0.08877525963335578,0.2881991946298341
-4.011,0.1101156093487211,0.4259554938970107
-4.0105,-0.01792648894335418,0.5425185163537465
-4.01,-0.5834457564006506,0.7544512844572011
-4.0095,-1.26633694729234,0.9451907757502149
-4.009,-1.853196564464351,1.061753798206951
-4.0085,-1.383708870725927,1.104140351827707
-4.008,-0.3700422592469978,1.082947075017392
-4.0075,0.4942419042245101,1.019367244586445
-4.007,1.017080472251901,0.9239974989396391
-4.0065,1.187803269974668,0.6590815388106942
-4.006,1.091771696255524,0.09745970333682032
-4.0055,0.8356874996710534,-0.5277419625683956
-4.005,0.7396559259519968,-0.8986243067489184
-4.0045,0.857027849386506,-1.375473034981453
-4.004,0.739655925951793,-1.523825972653643
-4.0035,0.5155822539406614,-1.354279758171118
-4.003,0.3021787567870086,-1.089363798041932
-4.0025,0.1314559590642416,-0.8138511995078295
-4.002,-0.3380317346739499,-0.9198175835592532
-4.0015,-0.9889124009925911,-1.01518732920576
-4.001,-1.501080794160892,-0.4853554089478703
-4.0005,-1.842526389607018,0.1610395337679984
-4,-1.639793067311232,0.3517790250608387
-3.9995,-1.052933450138687,0.08686306493165288
-3.999,-0.5194247072545548,-0.2204394488182027
-3.9985,-0.1352984123779797,-0.4217755785163839
-3.998,0.0674349099179905,-0.4853554089473885
-3.9975,0.1527963087794516,-0.4429688553267188
-3.997,0.1634664836371343,-0.3370024712750445
-3.9965,0.1527963087794516,-0.2204394488182027
-3.996,0.1314559590640864,-0.09327978795619347
-3.9955,0.1101156093487211,0.01268659609548085
-3.995,0.09944543449103843,0.1186529801471552
-3.9945,0.09944543449103843,0.2246193641988295
-3.994,0.03542438534494258,0.2987958330350016
-3.9935,-0.4554036581084589,0.5319218779486851
-3.993,-1.116954499284783,0.7968378380778709
-3.9925,-1.533091318734406,0.9769806909657173
-3.992,-1.074273799854052,1.051157159801889
-3.9915,-0.1673089369510276,1.061753798207057
-3.991,0.6116138276598051,1.029963882991555
-3.9905,1.059761171682476,0.92399749893988
-3.99,1.187803269974668,0.6484849004055269
-3.9895,1.091771696255524,0.06566978812131802
-3.989,0.8676980242441885,-0.570128516188728
-3.9885,0.6756348768059011,-1.004590690800593
-3.988,0.6436243522328531,-1.089363798041932
-3.9875,0.5049120790829789,-1.089363798041932
-3.987,0.3341892813600565,-1.01518732920576
-3.9865,0.1954770082101822,-0.8986243067489184
-3.986,0.1101156093487211,-0.7290780922662394
-3.9855,0.0674349099179905,-0.6760949002404023
-3.985,-0.2526703358124887,-0.9092209451540858
-3.9845,-0.9569018764195432,-0.5913217929990628
-3.984,-1.597112367880501,-0.02969995752518888
-3.9835,-1.927887788468663,0.3623756634660061
-3.983,-1.490410619303675,0.2564092794143318
-3.9825,-0.8715404775580819,-0.07208651114585861
-3.982,-0.3700422592469978,-0.3475991096802118
-3.9815,-0.04993701351651855,-0.474758770542221
-3.981,0.1101156093487211,-0.4853554089473885
-3.9805,0.1741366584948169,-0.4111789401112165
-3.98,0.1741366584948169,-0.3052125560595421
-3.9795,0.1527963087794516,-0.1886495336027004
-3.979,0.1207857842064037,-0.06148987274069118
-3.9785,0.09944543449103843,0.05507314971615059
-3.978,0.09944543449103843,0.1504428953626575
-3.9775,0.1314559590640864,0.2458126410091644
-3.977,0.291508581929326,0.4789386859228479
-3.9765,0.1741366584948169,0.7544512844572011
-3.976,-0.3700422592469978,0.9557874141553824
-3.9755,-0.391382608962363,1.019367244586387
-3.975,0.1741366584948169,1.029963882991555
-3.9745,0.7289857510943143,0.9875773293708847
-3.974,1.070431346540159,0.9028042221295453
-3.9735,1.19847344483235,0.775644561267536
-3.973,1.145122570543937,0.4471487707073456
-3.9725,0.942389248247967,-0.1780528951975329
-3.972,0.6863050516635838,-0.7396747306714069
-3.9715,0.6863050516635838,-1.290699927740113
-3.971,0.5902734779444399,-1.47084278062796
-3.9705,0.4195506802215176,-1.322489842955616
-3.97,0.2594980573562781,-1.046977244421262
-3.9695,0.1527963087794516,-0.7714646458869092
-3.969,-0.007256314085787988,-0.6231117082145651
-3.9685,-0.4980843575391895,-0.9728007755850904
-3.968,-1.170305373573196,-1.0999604364471
-3.9675,-1.639793067311232,-0.5383386009732256
-3.967,-1.863866739322568,0.08686306493165288
-3.9665,-1.447729919872945,0.1610395337678249
-3.966,-0.8502001278427167,-0.09327978795619347
-3.9655,-0.3593720843893152,-0.3581957480853793
-3.965,-0.04993701351651855,-0.5171453241628908
-3.9645,0.1101156093487211,-0.5595318777835605
-3.964,0.1634664836371343,-0.5277419625680583
-3.9635,0.1634664836371343,-0.4535654937318862
-3.963,0.142126133921769,-0.3581957480853793
-3.9625,0.1207857842064037,-0.2416327256285375
-3.962,0.09944543449103843,-0.07208651114585861
-3.9615,0.08877525963335578,0.03387987290581572
-3.961,0.09944543449103843,0.1292496185523226
-3.9605,0.08877525963335578,0.2352160026039969
-3.96,-0.07127736323188383,0.5001319627331828
-3.9595,-0.6794773301197943,0.7968378380778709
-3.959,-0.9889124009925911,0.9134008605347127
-3.9585,-0.3380317346739499,0.9557874141553824
-3.958,0.4302208550792003,0.9875773293708847
-3.9575,0.974399772821015,0.9875773293708847
-3.957,1.230483969405398,0.9028042221295453
-3.9565,1.209143619690033,0.4789386859228479
-3.956,1.027750647109428,-0.1674562567923655
-3.9555,0.7396559259519968,-0.7290780922662394
-3.955,0.6649647019482183,-1.248313374119443
-3.9545,0.6436243522328531,-1.555615887869299
-3.954,0.4835717293676135,-1.439052865412457
-3.9535,0.3128489316446912,-1.131750351662602
-3.953,0.1848068333524996,-0.8138511995075789
-3.9525,0.07810508477567314,-0.5277419625680583
-3.952,-0.1139580626626144,-0.3899856633008816
-3.9515,-0.6047861061160158,-0.4323722169215513
-3.951,-1.234326422719292,-0.01910331912002144
-3.9505,-1.703814116457328,0.4471487707073456
-3.95,-1.863866739322568,0.6696781772158616
-3.9495,-1.351698346153801,0.3517790250608387
-3.949,-0.754168554123573,-0.1038764263613609
-3.9485,-0.2953510352432193,-0.4323722169215513
-3.948,-0.007256314085787988,-0.5807251545938954
-3.9475,0.1314559590640864,-0.5913217929990628
-3.947,0.1634664836371343,-0.5171453241628908
-3.9465,0.1634664836371343,-0.400582301706049
-3.946,0.1314559590640864,-0.2628260024388724
-3.9455,0.1101156093487211,-0.1144730647665284
-3.945,0.08877525963335578,0.01268659609548085
-3.9445,0.09944543449103843,0.1504428953626575
-3.944,0.0674349099179905,0.309392471440169
-3.9435,-0.4127229586777283,0.55311515475902
-3.943,-1.06360362499637,0.8180311148882058
-3.9425,-1.554431668449771,0.9981739677760521
-3.942,-1.116954499284783,1.019367244586387
-3.9415,-0.1993194615240755,1.029963882991555
-3.941,0.5796033030867573,1.00877060618122
-3.9405,1.038420821967111,0.9345941373450475
-3.94,1.166462920259302,0.6378882620003594
-3.9395,1.070431346540159,0.05507314971615059
-3.939,0.825017324813458,-0.5595318777835605
-3.9385,0.6436243522328531,-1.004590690800593
-3.938,0.6116138276598051,-1.258910012524611
-3.9375,0.4622313796522482,-1.248313374119443
-3.937,0.3021787567870086,-1.110557074852267
-3.9365,0.1848068333524996,-0.8880276683437509
-3.936,0.09944543449103843,-0.6337083466197325
-3.9355,0.03542438534494258,-0.5277419625680583
-3.935,-0.1779791118087102,-0.792657922697244
-3.9345,-0.8288597781273515,-0.5807251545938954
-3.934,-1.479740444445993,-0.008506680714854012
-3.9335,-1.87453691418025,0.457745409112513
-3.933,-1.522421143876723,0.3517790250608387
-3.9325,-0.9142211769888124,-0.01910331912002144
-3.932,-0.4020527838200457,-0.3475991096802118
-3.9315,-0.07127736323188383,-0.5383386009732256
-3.931,0.09944543449103843,-0.5807251545938954
-3.9305,0.1634664836371343,-0.5383386009732256
-3.93,0.1634664836371343,-0.4429688553267188
-3.9295,0.1527963087794516,-0.3158091944647096
-3.929,0.1207857842064037,-0.1780528951975329
-3.9285,0.09944543449103843,-0.04029659593035631
-3.928,0.09944543449103843,0.06566978812131802
-3.9275,0.09944543449103843,0.1186529801471552
-3.927,-0.1886492866663929,0.3411823866556712
-3.9265,-0.8502001278427167,0.6590815388106942
-3.926,-1.234326422719292,0.8816109453192104
-3.9255,-1.223656247861609,0.9875773293708847
-3.925,-0.6047861061160158,0.9875773293708847
-3.9245,0.1954770082101822,0.9663840525605498
-3.924,0.79300680024041,0.9134008605347127
-3.9235,1.070431346540159,0.7332580076468663
-3.923,1.070431346540159,0.2034260873884947
-3.9225,0.8890383739595538,-0.4429688553267188
-3.922,0.6649647019482183,-0.9198175835592532
-3.9215,0.6542945270905358,-1.333086481360783
-3.921,0.5475927785137094,-1.364876396576285
-3.9205,0.3875401556484697,-1.152943628472937
-3.92,0.2488278824985954,-0.8774310299385835
-3.9195,0.142126133921769,-0.6019184314042303
-3.919,-0.09261771294724913,-0.5171453241628908
-3.9185,-0.7008176798351597,-0.7820612842920766
-3.918,-1.383708870726849,-0.718481453861072
-3.9175,-1.991908837614759,-0.1568596183871981
-3.917,-2.322684258202921,0.3729723018711736
-3.9165,-1.714484291315011,0.3411823866556712
-3.916,-0.9782422261349084,-0.008506680714854012
-3.9155,-0.4020527838200457,-0.3370024712750445
-3.915,-0.04993701351651855,-0.5383386009732256
-3.9145,0.1314559590640864,-0.6125150698093976
-3.914,0.1848068333524996,-0.5807251545938954
-3.9135,0.1848068333524996,-0.4959520473525559
-3.913,0.1634664836371343,-0.400582301706049
-3.9125,0.1314559590640864,-0.2946159176543747
-3.912,0.1101156093487211,-0.1674562567923655
-3.9115,0.1101156093487211,-0.008506680714854012
-3.911,0.142126133921769,0.2140227257936621
-3.9105,0.07810508477567314,0.383568940276341
-3.91,-0.1993194615240755,0.6484849004055269
-3.9095,-0.754168554123573,0.9028042221295453
-3.909,-0.9248913518464952,1.040560521396722
-3.9085,-0.2846808603855366,1.082947075017392
-3.908,0.4729015545099309,1.093543713422559
-3.9075,0.9957401225363802,1.051157159801889
-3.907,1.241154144263081,0.9663840525605498
-3.9065,1.241154144263081,0.6378882620003594
-3.906,1.059761171682476,0.002089957690313421
-3.9055,0.7823366253827275,-0.5807251545938954
-3.905,0.6863050516635838,-1.152943628472937
-3.9045,0.6116138276598051,-1.439052865412457
-3.904,0.4408910299368829,-1.322489842955616
-3.9035,0.2808384070716433,-1.068170521231597
-3.903,0.1634664836371343,-0.7714646458869092
-3.9025,0.07810508477567314,-0.5171453241628908
-3.902,-0.1459685872356623,-0.5913217929990628
-3.9015,-0.6261264558313813,-0.8350444763179138
-3.901,-1.212986073003927,-0.4535654937318862
-3.9005,-1.661133417026597,0.1504428953626575
-3.9,-1.810515865034154,0.5213252395435176
-3.8995,-1.319687821580753,0.2987958330350016
-3.899,-0.7328282044082075,-0.1038764263613609
-3.8985,-0.274010685527854,-0.4217755785163839
-3.898,0.00341386077189465,-0.5807251545938954
-3.8975,0.1314559590640864,-0.6231117082145651
-3.897,0.1741366584948169,-0.5595318777835605
-3.8965,0.1634664836371343,-0.474758770542221
-3.896,0.142126133921769,-0.3581957480853793
-3.8955,0.1207857842064037,-0.2204394488182027
-3.895,0.1101156093487211,-0.08268314955102604
-3.8945,0.1101156093487211,0.07626642652648545
-3.894,0.04609456020262521,0.2670059178194992
-3.8935,-0.5194247072545548,0.5743084315693548
-3.893,-1.127624674142465,0.8392243916985406
-3.8925,-1.533091318734406,1.00877060618122
-3.892,-1.234326422719292,1.072350436612224
-3.8915,-0.3807124341046804,1.061753798207057
-3.891,0.4302208550792003,1.019367244586387
-3.8905,0.9317190733902845,0.9134008605347127
-3.89,1.123782220828572,0.6378882620003594
-3.8895,1.070431346540159,0.03387987290581572
-3.889,0.857027849386506,-0.5383386009732256
-3.8885,0.7183155762366316,-1.004590690800593
-3.888,0.7183155762366316,-1.354279758171118
-3.8875,0.5582629533713921,-1.301296566145281
