Class_4_Move_right_hand_Horiszontal/Class_4_Move_Right_hand_Horizontal_Turki_10.csv

#Digilent WaveForms Oscilloscope Acquisition
#Device Name: EExplorer
#Serial Number: SN:210151A2B84A
#Date Time: 2020-12-16 09:43:08.391
#Sample rate: 2000Hz
#Samples: 16384
#Trigger: Source: Channel 1 Type: Edge Condition: Rising Level: 0 V Hyst.: Auto HoldOff: 0 s
#Channel 1: Range: 1 V/div Offset: 0 V Attenuation: 1 X
#Channel 2: Range: 1 V/div Offset: 0 V Attenuation: 1 X
#Power Supplies: ON
#Fixed Supply: ON
#Voltage: 3.3 V Readback: 3.333 V
#Positive Supply: ON
#Voltage: 3.7 V Readback: 3.711 V
#Current: 40 mA Readback: 21 mA
#Negative Supply: ON
#Voltage: -3.7 V Readback: -3.351 V
#Current: -40 mA Readback: -9 mA
#Reference 1: ON
#Voltage: 0 V
#Reference 2: ON
#Voltage: 0 V

Time (s),Channel 1 (V),Channel 2 (V)
-4.096,-0.1673089369510276,-0.05089323433552374
-4.0955,0.5369226036553862,0.6272916235945751
-4.095,1.401206767128903,1.241896651095288
-4.0945,2.041417258589279,1.6657621873016
-4.094,1.731982187716764,1.782325209758336
-4.0935,0.3128489316436529,0.9557874141542259
-4.093,-0.8288597781273515,-0.3158091944647096
-4.0925,-1.138294848999867,-1.152943628472175
-4.092,-1.010252750707733,-1.258910012524177
-4.0915,-0.7648387289812555,-0.7820612842920766
-4.091,-0.5407650569699201,-0.1356663415768632
-4.0905,-0.3913826089622951,0.4259554938973577
-4.09,-0.3166913849585846,0.8074344764830383
-4.0895,-0.2846808603855366,1.040560521396722
-4.089,-0.3166913849585554,1.135930267043142
-4.0885,-0.3593720843893152,1.114736990232894
-4.088,-0.4660738329661415,0.9557874141553824
-4.0875,-0.754168554123311,0.9557874141553824
-4.087,-0.2099896363808362,1.231300012689996
-4.0865,0.8036769750980928,1.517409249629256
-4.086,1.59326991456589,1.591585718465361
-4.0855,1.251824319119939,0.9239974989390319
-4.085,0.3448594562177392,-0.008506680714854012
-4.0845,-0.2526703358119452,-0.8138511995068465
-4.084,-0.4340633083930839,-1.364876396576603
-4.0835,-0.423393133535411,-1.714565463946811
-4.083,-0.3273615598162672,-1.862918401619155
-4.0825,-0.2420001609547479,-1.947691508860436
-4.082,-0.1779791118087102,-1.88411167842949
-4.0815,-0.156638762093345,-1.693372187136476
-4.081,-0.1993194615240367,-1.449649503817847
-4.0805,-0.2420001609548061,-1.163540266878104
-4.08,-0.274010685527854,-0.8456411147230812
-4.0795,-0.2526703358125081,-0.4747587705425584
-4.079,0.2594980573570447,0.1928294489840018
-4.0785,1.102441871113207,0.9345941373450475
-4.078,1.849354111150312,1.485619334413253
-4.0775,1.988066384299798,1.559795803249059
-4.077,0.8143471499557753,0.6060983467848571
-4.0765,-0.5407650569686875,-0.580725154592816
-4.076,-1.084943974711716,-1.23771673571419
-4.0755,-1.06360362499637,-1.142346990067769
-4.075,-0.839529952985034,-0.5383386009732256
-4.0745,-0.594115931258178,0.1822328105786802
-4.074,-0.423393133535411,0.7544512844572011
-4.0735,-0.3380317346739499,1.146526905448396
-4.073,-0.2953510352432581,1.358459673551552
-4.0725,-0.3060212101009019,1.443232780793084
-4.072,-0.3487019095316325,1.400846227172415
-4.0715,-0.3913826089623242,1.220703374284732
-4.071,-0.679477330119639,1.008770606181335
-4.0705,-0.5087545323968721,1.135930267043229
-4.07,0.4302208550783464,1.400846227172174
-4.0695,1.390536592270774,1.580989080060039
-4.069,1.539919040278195,1.33726639674141
-4.0685,0.7183155762366316,0.4789386859228479
-4.068,0.03542438534464174,-0.4959520473532402
-4.0675,-0.2953510352432193,-1.248313374119443
-4.067,-0.391382608962363,-1.714565463946811
-4.0665,-0.3700422592469298,-1.958288147265748
-4.066,-0.2953510352432193,-2.053657892912168
-4.0655,-0.2313299860971235,-2.106641084938006
-4.065,-0.1246282375203941,-2.08544780812769
-4.0645,-0.124628237520297,-1.767548655972648
-4.064,-0.1779791118087102,-1.34368311976595
-4.0635,-0.2420001609547479,-0.9092209451544809
-4.063,-0.2740106855276405,-0.5065486857572415
-4.0625,-0.03926683865883591,0.02328323450064829
-4.062,0.7396559259512884,0.7438546460513784
-4.0615,1.571929564851709,1.337266396741718
-4.061,2.08409795802001,1.676358825706768
-4.0605,1.422547116843686,1.273686566310405
-4.06,-0.07127736323299014,0.1504428953616552
-4.0595,-1.287677297007705,-0.9516074987747555
-4.059,-1.575772018165136,-1.396666311791788
-4.0585,-1.309017646723313,-1.078767159637054
-4.058,-0.9248913518464952,-0.4111789401112165
-4.0575,-0.6047861061160158,0.2458126410091644
-4.057,-0.4020527838202301,0.7438546460515808
-4.0565,-0.3060212101009019,1.040560521396722
-4.056,-0.2846808603855366,1.199510097474233
-4.0555,-0.3060212101008825,1.220703374284549
-4.055,-0.3700422592471822,1.135930267043007
-4.0545,-0.572775581542968,0.8922075837243778
-4.054,-0.7648387289810807,0.9451907757501667
-4.0535,-0.01792648894252929,1.231300012689976
-4.053,1.017080472251745,1.496215972818921
-4.0525,1.614610264281974,1.369056311956912
-4.052,1.187803269974105,0.5213252395426695
-4.0515,0.5689331282290746,-0.4111789401112165
-4.051,0.08877525963335578,-1.0999604364471
-4.0505,-0.1673089369507947,-1.534422611058569
-4.05,-0.2633405106701714,-1.778145294377815
-4.0495,-0.2633405106701714,-1.862918401619155
-4.049,-0.2313299860971526,-1.873515040024313
-4.0485,-0.242000160954874,-1.884111678429345
-4.048,-0.3166913849585846,-1.725162102351978
-4.0475,-0.3487019095316034,-1.364876396576613
-4.047,-0.3487019095316228,-0.9516074987743989
-4.0465,-0.3380317346739499,-0.5595318777835605
-4.046,-0.2206598112395476,-0.1250697031720909
-4.0455,0.4302208550799767,0.5425185163544307
-4.045,1.283834843693812,1.178316820663898
-4.0445,1.966726034585501,1.623375633680931
-4.044,1.721312012857548,1.443232780792101
-4.0435,0.3448594562177392,0.3623756634660061
-4.043,-0.7648387289812555,-0.7608680074817418
-4.0425,-1.074273799853771,-1.237716735713843
-4.042,-0.9569018764195432,-1.036380606016095
-4.0415,-0.7328282044082075,-0.4429688553267188
-4.041,-0.5300948821124217,0.1716361721724334
-4.0405,-0.3913826089622951,0.648484900405816
-4.04,-0.3166913849585846,0.9663840525605498
-4.0395,-0.2953510352432387,1.125333628637917
-4.039,-0.3166913849586234,1.188913459069018
-4.0385,-0.3593720843893152,1.135930267043229
-4.038,-0.4874141826813904,0.9134008605349151
-4.0375,-0.8502001278423091,0.8074344764832793
-4.037,-0.4020527838200457,1.072350436612224
-4.0365,0.6329541773751706,1.390249588767247
-4.036,1.529248865420473,1.538602526439071
-4.0355,1.486568165989782,0.9663840525605498
-4.035,0.8356874996711408,0.002089957690313421
-4.0345,0.2915085819298209,-0.8244478379119946
-4.034,-0.06060718837420119,-1.375473034981453
-4.0335,-0.1993194615240755,-1.725162102351978
-4.033,-0.2420001609547673,-1.884111678429345
-4.0325,-0.2313299860970555,-1.905304955239786
-4.032,-0.156638762093345,-1.862918401619155
-4.0315,-0.03926683865894266,-1.78874193278305
-4.031,-0.06060718837427882,-1.502632695843134
-4.0305,-0.1459685872356623,-1.142346990067769
-4.03,-0.2206598112393729,-0.7714646458872465
-4.0295,-0.252670335812149,-0.4005823017055093
-4.029,0.1207857842064037,0.1928294489833272
-4.0285,0.942389248247967,0.8922075837243778
-4.028,1.721312012859062,1.443232780793239
-4.0275,2.009406734016231,1.612778995275763
-4.027,0.9637295979633325,1.072350436612224
-4.0265,-0.4767440078225142,-0.04029659592934443
-4.026,-1.148965023857831,-0.9728007755850904
-4.0255,-1.159635198715513,-1.205926820498774
-4.025,-0.9248913518467087,-0.8138511995079355
-4.0245,-0.6581369804042446,-0.18864953360218
-4.024,-0.4554036581084589,0.383568940276341
-4.0235,-0.3487019095317295,0.7862411996723373
-4.023,-0.295351035243229,1.040560521396828
-4.0225,-0.3060212101009019,1.157123543853563
-4.022,-0.3380317346739208,1.167720182258721
-4.0215,-0.402052783820298,1.040560521396558
-4.021,-0.6794773301197943,0.8604176685088755
-4.0205,-0.6047861061160158,1.00877060618122
-4.02,0.3021787567879111,1.316073119931297
-4.0195,1.294505018551494,1.559795803249926
-4.019,1.507908515705147,1.263089927905238
-4.0185,0.6863050516643311,0.3835689402771409
-4.018,-0.1352984123779797,-0.5489352393783931
-4.0175,-0.4874141826815069,-1.248313374119443
-4.017,-0.5407650569698715,-1.672178910325755
-4.0165,-0.4554036581083812,-1.894708316834715
-4.016,-0.3700422592469978,-1.958288147265661
-4.0155,-0.2740106855279414,-1.926498232050188
-4.015,-0.1352984123779506,-1.852321763213804
-4.0145,-0.1032878878049318,-1.650985633515806
-4.014,-0.1566387620932964,-1.364876396576546
-4.0135,-0.2206598112394797,-1.046977244420954
-4.013,-0.2633405106701714,-0.7078848154559045
-4.0125,-0.03926683865883591,-0.1992461720078678
-4.012,0.7289857510950616,0.5743084315699524
-4.0115,1.550589215135878,1.231300012689736
-4.011,2.08409795802001,1.655165548896433
-4.0105,1.443887466559633,1.43263614238812
-4.01,-0.02859666380115328,0.3199891098453364
-4.0095,-0.9675720512772257,-0.718481453861072
-4.009,-1.138294848999993,-1.046977244420964
-4.0085,-0.9675720512769928,-0.7078848154553359
-4.008,-0.7114878546928423,-0.08268314955102604
-4.0075,-0.4980843575393836,0.5001319627326528
-4.007,-0.3700422592469396,0.9345941373452884
-4.0065,-0.3060212101009019,1.199510097474233
-4.006,-0.2953510352432193,1.33726639674141
-4.0055,-0.3166913849586234,1.369056311956816
-4.005,-0.3593720843893152,1.263089927905238
-4.0045,-0.5194247072545548,0.9981739677760521
-4.004,-0.7434983792652498,0.9769806909659485
-4.0035,-0.03926683865883591,1.231300012689736
-4.003,0.9850699476786977,1.496215972818921
-4.0025,1.571929564850709,1.464426057603448
-4.002,1.006410297394063,0.7544512844572011
-4.0015,0.2701682322139607,-0.1886495336027004
-4.001,-0.1352984123776109,-0.9622041371792194
-4.0005,-0.3166913849586137,-1.470842780628239
-4,-0.3487019095316325,-1.778145294377815
-3.9995,-0.3060212101009019,-1.915901593644992
-3.999,-0.2526703358124887,-1.926498232050159
-3.9985,-0.1459685872356623,-1.79933857118815
-3.998,-0.08194753808956648,-1.619195718300304
-3.9975,-0.1139580626626144,-1.407262950196955
-3.997,-0.1886492866663929,-1.163540266878104
-3.9965,-0.2526703358124887,-0.8668343915334161
-3.996,-0.1993194615240755,-0.474758770542221
-3.9955,0.3982103305061524,0.2564092794143318
-3.995,1.251824319120764,0.9981739677760521
-3.9945,1.956055859727818,1.538602526439591
-3.994,1.934715510012453,1.782325209758442
-3.9935,0.6649647019482183,1.549199164844759
-3.993,-0.7968492535543035,0.4789386859228479
-3.9925,-1.46907026958831,-0.474758770542221
-3.992,-1.383708870726849,-0.718481453861072
-3.9915,-1.042263275281004,-0.3475991096802118
-3.991,-0.7008176798351597,0.2352160026039969
-3.9905,-0.4660738329661415,0.7544512844572011
-3.99,-0.3380317346739499,1.135930267043229
-3.9895,-0.2846808603855366,1.358459673551745
-3.989,-0.3060212101009019,1.453829419198252
-3.9885,-0.3487019095316325,1.432636142387917
-3.988,-0.4660738329661415,1.220703374284568
-3.9875,-0.807519428411986,1.040560521396722
-3.987,-0.4340633083930936,1.199510097474233
-3.9865,0.5796033030867573,1.443232780793084
-3.986,1.486568165989782,1.559795803249926
-3.9855,1.35852606769759,1.029963882991555
-3.985,0.4729015545099309,0.03387987290581572
-3.9845,-0.1779791118087102,-0.8456411147230812
-3.984,-0.4340633083930936,-1.439052865412457
-3.9835,-0.4874141826815069,-1.746355379162313
-3.983,-0.423393133535411,-1.915901593644992
-3.9825,-0.3273615598162672,-1.990078062481164
-3.982,-0.2206598112394408,-2.021867977696666
-3.9815,-0.1139580626626144,-1.958288147265661
-3.981,-0.124628237520297,-1.661582271920973
-3.9805,-0.1779791118087102,-1.280103289334946
-3.98,-0.2420001609548061,-0.8986243067489184
-3.9795,-0.2633405106701714,-0.5171453241628908
-3.979,0.1314559590640864,0.08686306493165288
-3.9785,0.9637295979633325,0.8286277532933731
-3.978,1.742652362574165,1.411442865577582
-3.9775,2.08409795802001,1.644568910491266
-3.977,1.102441871113207,0.8816109453192104
-3.9765,-0.2846808603855366,-0.3475991096802118
-3.976,-0.9248913518464952,-1.131750351662602
-3.9755,-0.9782422261349084,-1.216523458903942
-3.975,-0.807519428411986,-0.7608680074817418
-3.9745,-0.5941159312583333,-0.1144730647665284
-3.974,-0.4447334832507763,0.457745409112513
-3.9735,-0.3487019095316325,0.8604176685088755
-3.973,-0.3060212101009019,1.104140351827727
-3.9725,-0.3060212101009019,1.210106735879401
-3.972,-0.3487019095316325,1.220703374284568
-3.9715,-0.4020527838200457,1.093543713422559
-3.971,-0.6367966306890638,0.8922075837243778
-3.9705,-0.6261264558313813,1.029963882991555
-3.97,0.2381577076409128,1.326669758336243
-3.9695,1.241154144263081,1.559795803249926
-3.969,1.603940089424291,1.475022696008586
-3.9685,0.9317190733902845,0.7544512844572011
-3.968,0.2594980573562781,-0.1886495336027004
-3.9675,-0.1139580626626144,-0.9728007755850904
-3.967,-0.2846808603855366,-1.481439419033127
-3.9665,-0.2953510352432193,-1.735758740757146
-3.966,-0.2526703358124887,-1.820531847998485
-3.9655,-0.1993194615240755,-1.79933857118815
-3.965,-0.08194753808956648,-1.778145294377815
-3.9645,-0.07127736323188383,-1.598002441489969
-3.964,-0.1352984123779797,-1.301296566145281
-3.9635,-0.2099896363817582,-0.9622041371799229
-3.963,-0.2633405106701714,-0.6125150698093976
-3.9625,-0.1139580626626144,-0.1462629799820306
-3.962,0.6116138276598051,0.5743084315693548
-3.9615,1.443887466559051,1.220703374284568
-3.961,2.041417258589279,1.623375633680931
-3.9605,1.529248865420512,1.284283204715573
-3.96,0.0674349099179905,0.1504428953626575
-3.9595,-1.1062843244271,-0.9410108603695881
-3.959,-1.383708870726849,-1.34368311976595
-3.9585,-1.170305373573196,-1.025783967610927
-3.958,-0.839529952985034,-0.3687923864905467
-3.9575,-0.572775581542968,0.2881991946298341
-3.957,-0.4020527838200457,0.775644561267536
-3.9565,-0.3060212101009019,1.072350436612224
-3.956,-0.2953510352432193,1.220703374284568
-3.9555,-0.3166913849585846,1.263089927905238
-3.955,-0.3700422592469978,1.178316820663898
-3.9545,-0.5087545323968721,0.9345941373450475
-3.954,-0.7648387289812555,0.9134008605347127
-3.9535,-0.1139580626626144,1.188913459069066
-3.953,0.9103787236749192,1.464426057603419
-3.9525,1.614610264281974,1.485619334413754
-3.952,1.059761171682476,0.7332580076468663
-3.9515,0.02475421048725994,-0.2310360872233701
-3.951,-0.6688071552621118,-1.004590690800593
-3.9505,-0.8608703027003992,-1.51322933424863
-3.95,-0.7648387289812555,-1.75695201756748
-3.9495,-0.572775581542968,-1.905304955239825
-3.949,-0.3700422592469978,-1.947691508860494
-3.9485,-0.1352984123779797,-1.778145294377815
-3.948,0.07810508477567314,-1.417859588602123
-3.9475,0.04609456020262521,-1.195330182093607
-3.947,-0.07127736323188383,-1.004590690800593
-3.9465,-0.1779791118087102,-0.7820612842920766
-3.946,-0.1886492866663929,-0.4535654937318862
-3.9455,0.3448594562177392,0.2034260873884947
-3.945,1.187803269974668,0.9345941373450475
-3.9445,1.902704985439405,1.485619334413754
-3.944,1.92404533515477,1.6657621873016
-3.9435,0.6649647019482183,0.8816109453192104
-3.943,-0.5941159312583333,-0.2946159176543747
-3.9425,-1.042263275281004,-0.9304142219644207
-3.942,-0.9889124009925911,-0.8774310299385835
-3.9415,-0.7755089038389382,-0.3475991096802118
-3.941,-0.5621054066852853,0.2776025562246667
-3.9405,-0.4127229586777283,0.7968378380778709
-3.94,-0.3273615598162672,1.146526905448396
-3.9395,-0.2953510352432193,1.33726639674141
-3.939,-0.3060212101009019,1.42203950398275
-3.9385,-0.3487019095316325,1.37965295036208
-3.938,-0.4340633083930936,1.178316820663898
-3.9375,-0.754168554123573,0.9557874141553824
-3.937,-0.4447334832507763,1.114736990232894
-3.9365,0.5369226036560266,1.37965295036208
-3.936,1.454557641416734,1.549199164844759
-3.9355,1.379866417412955,1.040560521396722
-3.935,0.4302208550792003,0.06566978812131802
-3.9345,-0.3166913849585846,-0.792657922697244
-3.934,-0.5834457564006506,-1.375473034981453
-3.9335,-0.5941159312583333,-1.693372187136476
-3.933,-0.4767440078238243,-1.852321763213987
-3.9325,-0.3593720843893152,-1.937094870455327
-3.932,-0.2313299860971235,-1.990078062481164
-3.9315,-0.04993701351651855,-1.968884785670829
-3.931,-0.03926683865883591,-1.703968825541643
-3.9305,-0.1139580626626144,-1.333086481360783
-3.93,-0.1993194615240755,-0.9516074987747555
-3.9295,-0.2526703358124887,-0.5595318777835605
-3.929,0.0674349099179905,0.02328323450064829
-3.9285,0.8783681991018712,0.7650479228623686
-3.928,1.667961138570387,1.369056311956912
-3.9275,2.062757608304644,1.623375633680931
-3.927,1.15579274540162,0.8604176685088755
-3.9265,-0.2526703358124887,-0.3581957480853793
-3.926,-0.9569018764195432,-1.195330182093607
-3.9255,-1.031593100423322,-1.322489842955616
-3.925,-0.8502001278427167,-0.8668343915334161
-3.9245,-0.6261264558313813,-0.1674562567923655
-3.924,-0.4554036581084589,0.4471487707073456
-3.9235,-0.3487019095316325,0.9028042221295453
-3.923,-0.3060212101009019,1.167720182258731
-3.9225,-0.3060212101009019,1.284283204715573
-3.922,-0.3380317346739499,1.29487984312074
-3.9215,-0.3807124341046804,1.167720182258731
-3.921,-0.6154562809736985,0.92399749893988
-3.9205,-0.6688071552621118,0.9981739677760521
-3.92,0.1634664836371343,1.284283204715573
-3.9195,1.177133095116985,1.538602526439591
-3.919,1.539919040278195,1.316073119931075
-3.9185,0.7503261008096795,0.4153588554918433
-3.918,-0.1673089369510276,-0.5489352393783931
-3.9175,-0.658136980404429,-1.258910012524611
-3.917,-0.7008176798351597,-1.672178910326141
-3.9165,-0.5514352318276028,-1.88411167842949
-3.916,-0.3700422592469978,-1.915901593644992
-3.9155,-0.2313299860971235,-1.926498232050159
-3.915,-0.2846808603855366,-1.990078062481164
-3.9145,-0.3807124341046804,-1.79933857118815
-3.914,-0.4020527838200457,-1.42845622700729
-3.9135,-0.3807124341046804,-1.01518732920576
-3.913,-0.3487019095316325,-0.6443049850249
-3.9125,-0.1673089369510276,-0.1780528951975329
-3.912,0.5582629533713921,0.55311515475902
-3.9115,1.411876941986003,1.199510097474233
-3.911,2.041417258589279,1.623375633680931
-3.9105,1.646620788855021,1.263089927905238
-3.91,0.2168173579255475,0.08686306493165288
-3.9095,-1.074273799854052,-1.046977244421262
-3.909,-1.437059745015262,-1.51322933424863
-3.9085,-1.244996597576974,-1.205926820498774
-3.908,-0.9035510021311299,-0.5277419625680583
-3.9075,-0.6047861061160158,0.13984625695749
-3.907,-0.4127229586777283,0.6484849004055269
-3.9065,-0.3166913849585846,0.9557874141553824
-3.906,-0.2846808603855366,1.114736990232894
-3.9055,-0.3060212101009019,1.157123543853563
-3.905,-0.3593720843893152,1.093543713422559
-3.9045,-0.5194247072545548,0.849821030103708
-3.904,-0.8502001278427167,0.8074344764830383
-3.9035,-0.274010685527854,1.104140351827727
-3.903,0.7716664505250448,1.411442865577582
-3.9025,1.571929564851243,1.528005888034424
-3.902,1.187803269974668,0.9557874141553824
-3.9015,0.2808384070716433,0.01268659609548085
-3.901,-0.3060212101009019,-0.8350444763179138
-3.9005,-0.4980843575391895,-1.407262950196955
-3.9,-0.4660738329661415,-1.735758740757146
-3.8995,-0.3593720843893152,-1.915901593644992
-3.899,-0.2420001609548061,-1.958288147265661
-3.8985,-0.156638762093345,-1.873515040024322
-3.898,-0.09261771294724913,-1.661582271920973
-3.8975,-0.1352984123779797,-1.417859588602123
-3.897,-0.1993194615240755,-1.131750351662602
-3.8965,-0.2526703358124887,-0.8350444763179138
-3.896,-0.2526703358124887,-0.4853554089473885
-3.8955,0.2381577076409128,0.1716361721729923
-3.895,1.081101521397841,0.9028042221295453
-3.8945,1.838683936293309,1.464426057603419
-3.894,1.956055859727818,1.559795803249926
-3.8935,0.7609962756673623,0.7120647308365314
-3.893,-0.722158029550525,-0.4959520473525559
-3.8925,-1.479740444445993,-1.280103289334946
-3.892,-1.426389570157579,-1.280103289334946
-3.8915,-1.084943974711735,-0.6972881770507372
-3.891,-0.7328282044082075,0.03387987290581572
-3.8905,-0.4767440078238243,0.6378882620003594
-3.89,-0.3380317346739499,1.051157159801889
-3.8895,-0.2846808603855366,1.284283204715573
-3.889,-0.2846808603855366,1.390249588767247
-3.8885,-0.3380317346739499,1.369056311956912
-3.888,-0.423393133535411,1.178316820663898
-3.8875,-0.7008176798351597,0.9451907757502149
-3.887,-0.4554036581084589,1.093543713422559
-3.8865,0.4942419042252961,1.369056311956912
-3.886,1.443887466559051,1.549199164844759
