Class_4_Move_right_hand_Horiszontal/Class_4_Move_Right_hand_Horizontal_Turki_9.csv

#Digilent WaveForms Oscilloscope Acquisition
#Device Name: EExplorer
#Serial Number: SN:210151A2B84A
#Date Time: 2020-12-15 14:04:04.303
#Sample rate: 2000Hz
#Samples: 16384
#Trigger: Source: Channel 1 Type: Edge Condition: Rising Level: 0 V Hyst.: Auto HoldOff: 0 s
#Channel 1: Range: 1 V/div Offset: 0 V Attenuation: 1 X
#Channel 2: Range: 1 V/div Offset: 0 V Attenuation: 1 X
#Power Supplies: ON
#Fixed Supply: ON
#Voltage: 3.3 V Readback: 3.322 V
#Positive Supply: ON
#Voltage: 3.7 V Readback: 3.712 V
#Current: 40 mA Readback: 20 mA
#Negative Supply: ON
#Voltage: -3.7 V Readback: -3.351 V
#Current: -40 mA Readback: -7 mA
#Reference 1: ON
#Voltage: 0 V
#Reference 2: ON
#Voltage: 0 V

Time (s),Channel 1 (V),Channel 2 (V)
-4.096,0.291508581929326,0.9345941373450475
-4.0955,-0.007256314085516247,0.5531151547593669
-4.095,-0.5514352318279327,-0.284019279249959
-4.0945,-0.9142211769888124,-1.110557074852267
-4.094,-1.127624674142271,-1.661582271920472
-4.0935,-1.202315898145963,-1.598002441489496
-4.093,-0.8928808272734472,-1.078767159636765
-4.0925,-0.4127229586781651,-0.5595318777840328
-4.092,-0.01792648894323772,-0.1992461720077329
-4.0915,0.2381577076409128,-0.05089323433552374
-4.091,0.3768699807907871,-0.06148987274069118
-4.0905,0.440891029936912,-0.1568596183872656
-4.09,0.4729015545099309,-0.2310360872233701
-4.0895,0.4942419042252961,-0.2416327256285375
-4.089,0.4408910299369315,-0.2522293640336953
-4.0885,0.3768699807907871,-0.2310360872233701
-4.088,0.3341892813600565,-0.1886495336027004
-4.0875,0.3235191065023836,-0.103876426361438
-4.087,0.6009436528019479,0.3411823866557676
-4.0865,0.408880505363835,0.4471487707073456
-4.086,-0.1886492866658495,-0.2098428104124377
-4.0855,-0.8075194284122771,-0.8562377531285378
-4.085,-1.127624674142465,-1.174136905283272
-4.0845,-0.8502001278429689,-0.8032545611027488
-4.084,-0.423393133535081,-0.1886495336021992
-4.0835,-0.06060718837420119,0.3623756634660061
-4.083,0.1848068333524996,0.7438546460520338
-4.0825,0.3021787567870377,0.9663840525606462
-4.082,0.3341892813600565,1.072350436612224
-4.0815,0.3448594562177392,1.104140351827727
-4.081,0.3235191065023933,1.093543713422569
-4.0805,0.3128489316446912,1.051157159801889
-4.08,0.3021787567870086,1.00877060618122
-4.0795,0.3021787567870086,0.9451907757502728
-4.079,0.1314559590635526,0.6908714540255123
-4.0785,-0.4554036581084589,-0.06148987274069118
-4.078,-0.8502001278423577,-0.9092209451533148
-4.0775,-1.010252750708015,-1.555615887869309
-4.077,-1.074273799854052,-1.566212526274467
-4.0765,-0.7221580295508452,-1.057573882826893
-4.076,-0.167308936950688,-0.5807251545935773
-4.0755,0.2061471830678648,-0.2310360872233701
-4.075,0.3875401556484697,-0.04029659593035631
-4.0745,0.4408910299368829,-0.008506680714921475
-4.074,0.4408910299368829,-0.08268314955102604
-4.0735,0.4408910299368829,-0.1992461720078678
-4.073,0.4835717293675747,-0.2522293640336568
-4.0725,0.4622313796522482,-0.2098428104130352
-4.072,0.3982103305061524,-0.1462629799820306
-4.0715,0.3448594562177877,-0.06148987274076828
-4.071,0.3235191065025486,0.0232832345009085
-4.0705,0.5155822539406614,0.309392471440169
-4.07,0.5475927785136803,0.6590815388103761
-4.0695,-0.1779791118094575,0.1292496185516287
-4.069,-0.9995825758502737,-0.6337083466197325
-4.0685,-1.575772018165136,-1.184733543688439
-4.068,-1.362368521010979,-1.142346990067268
-4.0675,-0.807519428411986,-0.5913217929990628
-4.067,-0.2846808603855366,0.002089957690313421
-4.0665,0.07810508477584782,0.4577454091127733
-4.066,0.2701682322139607,0.7438546460520338
-4.0655,0.3448594562177392,0.8922075837243778
-4.065,0.3555296310754121,0.9451907757501667
-4.0645,0.3448594562177392,0.9451907757502149
-4.064,0.3235191065023739,0.92399749893988
-4.0635,0.302178756787028,0.8922075837244067
-4.063,0.3021787567869504,0.8498210301036213
-4.0625,0.2381577076409128,0.7544512844572011
-4.062,-0.2526703358120423,0.3305857482508894
-4.0615,-0.7541685541238253,-0.4217755785170682
-4.061,-1.031593100423322,-1.174136905283272
-4.0605,-1.06360362499637,-1.523825972653797
-4.06,-0.7434983792654244,-1.21652345890345
-4.0595,-0.2313299860971235,-0.6760949002404023
-4.059,0.1207857842064037,-0.2416327256285375
-4.0585,0.3341892813598625,0.02328323450040737
-4.058,0.4302208550792003,0.09745970333682032
-4.0575,0.4515612047945656,0.04447651131098315
-4.057,0.4195506802215467,-0.08268314955091038
-4.0565,0.4195506802215176,-0.1780528951975329
-4.056,0.3982103305061524,-0.2204394488182027
-4.0555,0.3661998059331336,-0.1992461720078871
-4.055,0.3235191065023544,-0.1462629799819632
-4.0545,0.3021787567870086,-0.07208651114585861
-4.054,0.3768699807907192,0.1186529801469817
-4.0535,0.6436243522323776,0.6166949851897451
-4.053,0.1207857842064037,0.309392471440169
-4.0525,-0.690147504977477,-0.4429688553267188
-4.052,-1.373038695869321,-1.036380606016288
-4.0515,-1.543761493592088,-1.248313374119443
-4.051,-1.084943974711735,-0.7820612842920766
-4.0505,-0.5194247072550692,-0.1356663415774511
-4.05,-0.07127736323188383,0.4047622170866759
-4.0495,0.1954770082101822,0.7650479228623686
-4.049,0.3235191065022574,0.9663840525603667
-4.0485,0.3555296310754218,1.040560521396731
-4.048,0.3555296310754218,1.051157159801889
-4.0475,0.334189281360076,1.019367244586416
-4.047,0.3128489316446815,0.9663840525605016
-4.0465,0.3021787567870086,0.9134008605347127
-4.046,0.2915085819293357,0.8498210301037659
-4.0455,-0.007256314086302324,0.5001319627324408
-4.045,-0.572775581542968,-0.3158091944647096
-4.0445,-0.8608703027003992,-1.131750351662602
-4.044,-0.9675720512770898,-1.650985633515661
-4.0435,-0.8181896032696687,-1.492036057438295
-4.043,-0.4020527838200457,-0.9728007755850904
-4.0425,-0.01792648894381998,-0.4959520473529896
-4.042,0.2488278824985954,-0.1462629799820306
-4.0415,0.3875401556484697,-0.01910331912002144
-4.041,0.4302208550791615,-0.07208651114581041
-4.0405,0.4302208550792294,-0.1886495336027967
-4.04,0.4622313796522482,-0.2946159176543747
-4.0395,0.5155822539406129,-0.3475991096801637
-4.039,0.4835717293675456,-0.2734226408439531
-4.0385,0.408880505363835,-0.1780528951975329
-4.038,0.3555296310754703,-0.06148987274079719
-4.0375,0.3448594562180303,0.06566978812173244
-4.037,0.6649647019482183,0.5213252395435176
-4.0365,0.3982103305061524,0.4895353243280153
-4.036,-0.3807124341053015,-0.2416327256291544
-4.0355,-1.06360362499637,-0.9198175835592532
-4.035,-1.405049220442214,-1.290699927740113
-4.0345,-1.084943974712026,-0.9410108603699061
-4.034,-0.5621054066852853,-0.2946159176543747
-4.0335,-0.124628237520297,0.2776025562246667
-4.033,0.1527963087791993,0.6802748156206628
-4.0325,0.3021787567870474,0.9134008605347994
-4.032,0.3448594562177392,1.00877060618122
-4.0315,0.3555296310754121,1.029963882991535
-4.031,0.3341892813600371,1.008770606181181
-4.0305,0.3128489316446912,0.9663840525605498
-4.03,0.3021787567870183,0.9134008605347609
-4.0295,0.2915085819291998,0.849821030103496
-4.029,0.1527963087794516,0.6166949851900245
-4.0285,-0.423393133535411,-0.1356663415768632
-4.028,-0.8608703027005642,-0.9728007755856686
-4.0275,-1.042263275281004,-1.608599079895136
-4.027,-1.095614149569417,-1.703968825541643
-4.0265,-0.6581369804048269,-1.195330182094069
-4.026,-0.1352984123779797,-0.6337083466197325
-4.0255,0.2061471830678648,-0.2310360872233701
-4.025,0.3768699807906318,0.002089957690101396
-4.0245,0.4408910299369024,0.04447651131089642
-4.024,0.4622313796522482,-0.05089323433552374
-4.0235,0.4408910299369024,-0.1038764263613127
-4.023,0.4088805053637962,-0.1462629799820499
-4.0225,0.3661998059331045,-0.1674562567923655
-4.022,0.3341892813600856,-0.1674562567923655
-4.0215,0.3021787567870086,-0.1356663415768054
-4.021,0.3021787567870086,-0.07208651114585861
-4.0205,0.5369226036560266,0.2564092794143318
-4.02,0.5902734779439061,0.5213252395429876
-4.0195,0.00341386077189465,-0.06148987274069118
-4.019,-0.7008176798351597,-0.8032545611024114
-4.0185,-1.277007122149498,-1.322489842955143
-4.018,-1.148965023857831,-1.163540266878104
-4.0175,-0.690147504977477,-0.5489352393783931
-4.017,-0.2313299860975407,0.08686306493107465
-4.0165,0.08877525963351104,0.5531151547592802
-4.016,0.2594980573562781,0.8392243916985406
-4.0155,0.3341892813599886,0.976980690965592
-4.015,0.3555296310754024,1.019367244586378
-4.0145,0.3341892813600565,1.00877060618122
-4.014,0.3128489316447107,0.9769806909657461
-4.0135,0.3021787567870086,0.9345941373449993
-4.013,0.3021787567870086,0.8816109453192104
-4.0125,0.2381577076409128,0.7544512844572011
-4.012,-0.2633405106706372,0.1398462569567094
-4.0115,-0.7755089038389382,-0.718481453861072
-4.011,-1.095614149569417,-1.439052865412457
-4.0105,-1.180975548430801,-1.576809164679509
-4.01,-0.9142211769888124,-1.05757388282643
-4.0095,-0.4340633083930936,-0.5065486857577234
-4.009,0.03542438534451559,-0.1462629799823583
-4.0085,0.3128489316448271,0.0444765113110217
-4.008,0.4622313796522482,0.08686306493165288
-4.0075,0.4729015545099212,0.01268659609554831
-4.007,0.4408910299369218,-0.08268314955113205
-4.0065,0.4835717293676135,-0.1992461720078678
-4.006,0.4942419042252961,-0.2310360872233701
-4.0055,0.4302208550791518,-0.1886495336026329
-4.005,0.3768699807907871,-0.1144730647665284
-4.0045,0.3341892813600565,-0.01910331912002144
-4.004,0.3982103305063659,0.1610395337682104
-4.0035,0.6329541773751706,0.5849050699745222
-4.003,0.09944543449103843,0.2352160026039969
-4.0025,-0.6474668055460673,-0.5277419625673645
-4.002,-1.287677297007705,-1.110557074852267
-4.0015,-1.447729919872945,-1.258910012524611
-4.001,-0.9995825758506812,-0.750271369077037
-4.0005,-0.466073832965763,-0.0932797879557116
-4,-0.04993701351651855,0.4365521323021782
-3.9995,0.2061471830678648,0.7862411996727035
-3.999,0.3235191065023739,0.9663840525605498
-3.9985,0.3555296310754218,1.029963882991555
-3.998,0.3555296310754218,1.040560521396722
-3.9975,0.3341892813600565,0.9981739677760521
-3.997,0.3128489316446912,0.9451907757502149
-3.9965,0.3021787567870086,0.8816109453192104
-3.996,0.2808384070716433,0.8074344764830383
-3.9955,-0.09261771294724913,0.383568940276341
-3.995,-0.6794773301197943,-0.4641621321370536
-3.9945,-0.9675720512772257,-1.248313374119443
-3.994,-1.1062843244271,-1.735758740757146
-3.9935,-1.1062843244271,-1.555615887869299
-3.993,-0.7755089038389382,-0.9516074987747555
-3.9925,-0.274010685527854,-0.400582301706049
-3.992,0.09944543449103843,-0.08268314955102604
-3.9915,0.3128489316446912,0.01268659609548085
-3.991,0.408880505363835,-0.01910331912002144
-3.9905,0.4408910299368829,-0.07208651114585861
-3.99,0.4622313796522482,-0.1250697031716958
-3.9895,0.4729015545099309,-0.1674562567923655
-3.989,0.4302208550792003,-0.1568596183871981
-3.9885,0.3768699807907871,-0.1038764263613609
-3.988,0.3341892813600565,-0.02969995752518888
-3.9875,0.3341892813600565,0.06566978812131802
-3.987,0.5796033030867573,0.457745409112513
-3.9865,0.2488278824985954,0.4047622170866759
-3.986,-0.5194247072545548,-0.3158091944647096
-3.9855,-1.202315898146244,-0.9198175835592532
-3.985,-1.543761493592088,-1.248313374119443
-3.9845,-1.159635198715513,-0.9092209451540858
-3.984,-0.6047861061160158,-0.2840192792492073
-3.9835,-0.1352984123779797,0.2776025562246667
-3.983,0.1634664836371343,0.6696781772158616
-3.9825,0.3128489316446912,0.8922075837243778
-3.982,0.3555296310754218,0.9875773293708847
-3.9815,0.3555296310754218,0.9981739677760521
-3.981,0.3448594562177392,0.9769806909657173
-3.9805,0.3235191065023739,0.9345941373450475
-3.98,0.3021787567870086,0.8816109453192104
-3.9795,0.3021787567870086,0.8180311148882058
-3.979,0.142126133921769,0.6590815388106942
-3.9785,-0.4767440078238243,0.1186529801471552
-3.978,-0.8715404775580819,-0.6760949002404023
-3.9775,-0.9995825758502737,-1.34368311976595
-3.977,-0.8928808272734472,-1.439052865412457
-3.9765,-0.5087545323968721,-0.9728007755850904
-3.976,-0.09261771294724913,-0.4853554089473885
-3.9755,0.2168173579255475,-0.1462629799820306
-3.975,0.3768699807907871,0.02328323450064829
-3.9745,0.4408910299368829,0.04447651131098315
-3.974,0.4408910299368829,-0.02969995752518888
-3.9735,0.4515612047945656,-0.1038764263613609
-3.973,0.5049120790829789,-0.1462629799820306
-3.9725,0.4729015545099309,-0.1462629799820306
-3.972,0.408880505363835,-0.1144730647665284
-3.9715,0.3555296310754218,-0.06148987274069118
-3.971,0.3235191065023739,0.02328323450064829
-3.9705,0.5582629533713921,0.3411823866556712
-3.97,0.5902734779444399,0.6166949851900245
-3.9695,-0.1352984123779797,0.02328323450064829
-3.969,-0.9035510021311299,-0.6549016234300674
-3.9685,-1.437059745015262,-1.110557074852267
-3.968,-1.223656247861609,-1.004590690800593
-3.9675,-0.7008176798351597,-0.4641621321370536
-3.967,-0.2206598112394408,0.09745970333682032
-3.9665,0.09944543449103843,0.5319218779486851
-3.966,0.2808384070716433,0.7968378380778709
-3.9655,0.3448594562177392,0.9345941373450475
-3.965,0.3661998059331045,0.9981739677760521
-3.9645,0.3448594562177392,0.9981739677760521
-3.964,0.3235191065023739,0.9769806909657173
-3.9635,0.3128489316446912,0.9451907757502149
-3.963,0.3021787567870086,0.9028042221295453
-3.9625,0.2381577076409128,0.7968378380778709
-3.962,-0.274010685527854,0.2246193641988295
-3.9615,-0.8288597781273515,-0.6231117082145651
-3.961,-1.042263275281004,-1.354279758171118
-3.9605,-1.095614149569417,-1.693372187136476
-3.96,-0.839529952985034,-1.354279758171118
-3.9595,-0.3060212101009019,-0.7502713690765743
-3.959,0.0674349099179905,-0.2840192792492073
-3.9585,0.2808384070716433,-0.04029659593035631
-3.958,0.3875401556484697,-0.01910331912002144
-3.9575,0.4302208550792003,-0.1144730647665284
-3.957,0.4408910299368829,-0.1780528951975329
-3.9565,0.4408910299368829,-0.2204394488182027
-3.956,0.408880505363835,-0.1992461720078678
-3.9555,0.3661998059331045,-0.1568596183871981
-3.955,0.3341892813600565,-0.1038764263613609
-3.9545,0.3128489316446912,-0.04029659593035631
-3.954,0.408880505363835,0.1292496185523226
-3.9535,0.5796033030867573,0.5319218779486851
-3.953,0.05676473506030786,0.1292496185523226
-3.9525,-0.6047861061160158,-0.6337083466197325
-3.952,-1.277007122150022,-1.237716735714276
-3.9515,-1.447729919872945,-1.375473034981453
-3.951,-1.010252750707956,-0.8350444763179138
-3.9505,-0.4767440078238243,-0.1674562567923655
-3.95,-0.04993701351651855,0.3729723018711736
-3.9495,0.2061471830678648,0.7226613692416989
-3.949,0.3235191065023739,0.9028042221295453
-3.9485,0.3661998059331045,0.9769806909657173
-3.948,0.3555296310754218,0.9769806909657173
-3.9475,0.3341892813600565,0.9345941373450475
-3.947,0.3235191065023739,0.8922075837243778
-3.9465,0.3021787567870086,0.8392243916985406
-3.946,0.291508581929326,0.7650479228623686
-3.9455,-0.1032878878049318,0.2987958330350016
-3.945,-0.6688071552621118,-0.5277419625680583
-3.9445,-0.9675720512772257,-1.301296566145281
-3.944,-1.127624674142465,-1.75695201756748
-3.9435,-1.042263275281004,-1.51322933424863
-3.943,-0.572775581542968,-0.9092209451540858
-3.9425,-0.03926683865883591,-0.4111789401112165
-3.942,0.3021787567870086,-0.1144730647665284
-3.9415,0.4622313796522482,-0.01910331912002144
-3.941,0.4835717293676135,-0.04029659593035631
-3.9405,0.4622313796522482,-0.1038764263613609
-3.94,0.5155822539406614,-0.2204394488182027
-3.9395,0.5796033030867573,-0.2734226408440398
-3.939,0.5369226036560266,-0.1780528951975329
-3.9385,0.4408910299368829,-0.04029659593035631
-3.938,0.3768699807907871,0.07626642652648545
-3.9375,0.3448594562177392,0.2034260873884947
-3.937,0.5796033030867573,0.5955017083796896
-3.9365,0.2808384070716433,0.4895353243280153
-3.936,-0.4767440078238243,-0.2734226408440398
-3.9355,-1.159635198715513,-0.9622041371799229
-3.935,-1.51175096901904,-1.322489842955616
-3.9345,-1.148965023857831,-0.9622041371799229
-3.934,-0.6047861061160158,-0.3370024712750445
-3.9335,-0.1459685872356623,0.2140227257936621
-3.933,0.1634664836371343,0.5849050699745222
-3.9325,0.3128489316446912,0.7968378380778709
-3.932,0.3555296310754218,0.8816109453192104
-3.9315,0.3661998059331045,0.8922075837243778
-3.931,0.3448594562177392,0.8604176685088755
-3.9305,0.3235191065023739,0.8286277532933731
-3.93,0.3128489316446912,0.775644561267536
-3.9295,0.3021787567870086,0.7226613692416989
-3.929,0.1207857842064037,0.5213252395435176
-3.9285,-0.5300948821122373,-0.1992461720078678
-3.928,-1.116954499284783,-1.004590690800593
-3.9275,-1.30901764672307,-1.608599079895136
-3.927,-1.255666772434657,-1.693372187136476
-3.9265,-0.807519428411986,-1.205926820498774
-3.926,-0.2420001609548061,-0.6654982618352349
-3.9255,0.1741366584948169,-0.252229364033705
-3.925,0.3982103305061524,-0.008506680714854012
-3.9245,0.4835717293676135,0.05507314971615059
-3.924,0.4942419042252961,0.01268659609548085
-3.9235,0.4622313796522482,-0.02969995752518888
-3.923,0.4515612047945656,-0.04029659593035631
-3.9225,0.3982103305061524,-0.06148987274069118
-3.922,0.3555296310754218,-0.06148987274069118
-3.9215,0.3341892813600565,-0.04029659593035631
-3.921,0.3128489316446912,0.01268659609548085
-3.9205,0.5369226036560266,0.3517790250608387
-3.92,0.5155822539406614,0.6484849004055269
-3.9195,-0.2846808603855366,0.06566978812131802
-3.919,-1.06360362499637,-0.6866915386455698
-3.9185,-1.501080794161358,-1.195330182093607
-3.918,-1.212986073003927,-0.9833974139902578
-3.9175,-0.6688071552621118,-0.3899856633008816
-3.917,-0.1886492866663929,0.1822328105781598
-3.9165,0.1314559590640864,0.6060983467848571
-3.916,0.291508581929326,0.8604176685088755
-3.9155,0.3555296310754218,0.9769806909657173
-3.915,0.3661998059331045,1.019367244586387
-3.9145,0.3448594562177392,1.00877060618122
-3.914,0.3235191065023739,0.9769806909657173
-3.9135,0.3128489316446912,0.9345941373450475
-3.913,0.3021787567870086,0.8816109453192104
-3.9125,0.2381577076409128,0.7332580076468663
-3.912,-0.3060212101009019,0.08686306493165288
-3.9115,-0.9035510021311299,-0.7608680074817418
-3.911,-1.170305373573196,-1.47084278062796
-3.9105,-1.191645723288561,-1.735758740757146
-3.91,-0.8288597781273515,-1.269506650929778
-3.9095,-0.2420001609548061,-0.6654982618352349
-3.909,0.2274875327832301,-0.2204394488182027
-3.9085,0.4622313796522482,0.02328323450064829
-3.908,0.5369226036560266,0.09745970333682032
-3.9075,0.5155822539406614,0.08686306493165288
-3.907,0.4622313796522482,0.002089957690313421
-3.9065,0.4835717293676135,-0.09327978795619347
-3.906,0.4515612047945656,-0.1356663415768632
-3.9055,0.3982103305061524,-0.1250697031716958
-3.905,0.3555296310754218,-0.09327978795619347
-3.9045,0.3235191065023739,-0.02969995752518888
-3.904,0.1634664836371343,0.1716361721729923
-3.9035,-0.4554036581084589,0.55311515475902
-3.903,-1.116954499284783,0.1080563417419877
-3.9025,-1.575772018165136,-0.6654982618352349
-3.902,-1.959898313041711,-1.280103289334946
-3.9015,-1.639793067311232,-1.407262950196955
-3.901,-0.9355615267041777,-0.8562377531282487
-3.9005,-0.3380317346739499,-0.1886495336027004
-3.9,0.07810508477567314,0.3623756634660061
-3.8995,0.291508581929326,0.7120647308365314
-3.899,0.3768699807907871,0.8922075837243778
-3.8985,0.3875401556484697,0.9663840525605498
-3.898,0.3661998059331045,0.9663840525605498
-3.8975,0.3448594562177392,0.9451907757502149
-3.897,0.3235191065023739,0.9028042221295453
-3.8965,0.3128489316446912,0.849821030103708
-3.896,0.3021787567870086,0.7862411996727035
-3.8955,-0.06060718837420119,0.383568940276341
-3.895,-0.6154562809736985,-0.4323722169215513
-3.8945,-0.9142211769888124,-1.216523458903942
-3.894,-1.020922925565639,-1.555615887869299
-3.8935,-0.7648387289812555,-1.163540266878104
-3.893,-0.274010685527854,-0.6443049850249
-3.8925,0.1101156093487211,-0.2628260024388724
-3.892,0.3235191065023739,-0.05089323433552374
-3.8915,0.4195506802215176,0.02328323450064829
-3.891,0.4622313796522482,-0.01910331912002144
-3.8905,0.4515612047945656,-0.1356663415768632
-3.89,0.5155822539406614,-0.1886495336027004
-3.8895,0.5689331282290746,-0.2098428104130352
-3.889,0.5155822539406614,-0.1356663415768632
-3.8885,0.4408910299368829,-0.04029659593035631
-3.888,0.3661998059331045,0.05507314971615059
