Class_4_Move_right_hand_Horiszontal/Class_4_Move_right_hand_Horiszontal_AM_6.csv

#Digilent WaveForms Oscilloscope Acquisition
#Device Name: EExplorer
#Serial Number: SN:210151A2B84A
#Date Time: 2020-11-30 11:25:44.817
#Sample rate: 2000Hz
#Samples: 16384
#Trigger: Source: Channel 1 Type: Edge Condition: Rising Level: 0 V Hyst.: Auto HoldOff: 0 s
#Channel 1: Range: 1 V/div Offset: 0 V Attenuation: 1 X
#Channel 2: Range: 1 V/div Offset: 0 V Attenuation: 1 X
#Power Supplies: ON
#Fixed Supply: ON
#Voltage: 3.3 V Readback: 3.317 V
#Positive Supply: ON
#Voltage: 3.7 V Readback: 3.717 V
#Current: 500 mA Readback: 18 mA
#Negative Supply: ON
#Voltage: -3.7 V Readback: -3.697 V
#Current: -500 mA Readback: -6 mA
#Reference 1: ON
#Voltage: 0 V
#Reference 2: ON
#Voltage: 0 V

Time (s),Channel 1 (V),Channel 2 (V)
-4.096,2.404203203750489,-1.333086481360783
-4.0955,2.425543553465835,-1.004590690800891
-4.095,2.201469881454257,-0.5807251545934521
-4.0945,1.913375160297087,-0.09327978795619347
-4.094,1.721312012858975,0.3623756634655917
-4.0935,1.593269914566249,0.6378882620007257
-4.093,1.19847344483235,1.040560521396722
-4.0925,0.8143471499561247,1.358459673551456
-4.092,0.5262524287981986,1.475022696008538
-4.0915,0.3661998059331045,1.42203950398275
-4.091,0.1848068333524996,1.33726639674141
-4.0905,-0.4340633083937244,1.284283204714888
-4.09,-1.127624674142465,0.5319218779486851
-4.0895,-1.575772018165136,-0.4853554089473885
-4.089,-2.013249187329727,-1.131750351662014
-4.0885,-2.546757930214257,-0.5383386009732256
-4.088,-2.792171951940957,0.5955017083796896
-4.0875,-2.80284212679863,1.559795803249049
-4.087,-2.546757930213354,1.962468062645864
-4.0865,-1.554431668449771,1.496215972818921
-4.086,-0.6794773301205901,0.7544512844578758
-4.0855,-0.08194753808926564,0.129249618551966
-4.085,0.2488278824985954,-0.2628260024388724
-4.0845,0.3875401556483435,-0.4323722169213971
-4.084,0.4088805053638059,-0.4429688553266513
-4.0835,0.3768699807907871,-0.3687923864905467
-4.083,0.3448594562177392,-0.2310360872233701
-4.0825,0.04609456020207206,-0.3264058328703492
-4.082,-0.5621054066852853,-0.8456411147230812
-4.0815,-0.839529952985034,-1.333086481360783
-4.081,-0.6474668055469213,-1.598002441489728
-4.0805,0.3448594562177392,-1.650985633515806
-4.08,1.326515543124542,-1.481439419033127
-4.0795,1.881364635723535,-1.195330182093867
-4.079,2.062757608304606,-0.8668343915330403
-4.0785,2.020076908873914,-0.4535654937318862
-4.078,1.86002428600882,0.03387987290537242
-4.0775,1.646620788854963,0.6590815388110315
-4.077,1.582599739708926,1.029963882991555
-4.0765,1.411876941986159,1.358459673551446
-4.076,1.091771696255223,1.570392441655132
-4.0755,0.7609962756673623,1.612778995275763
-4.075,0.5049120790829789,1.517409249629256
-4.0745,0.2915085819287631,1.294879843120046
-4.074,-0.3273615598162672,0.5319218779486851
-4.0735,-1.127624674142465,-0.5065486857577234
-4.073,-1.671803591883785,-1.322489842954873
-4.0725,-2.098610586191586,-1.778145294377815
-4.072,-2.589438629644987,-1.195330182093607
-4.0715,-2.792171951940773,0.1186529801459602
-4.071,-2.802842126798582,1.284283204716199
-4.0705,-2.738821077652544,1.973064701051456
-4.07,-1.927887788469401,1.7611319329483
-4.0695,-0.9675720512765852,1.008770606180564
-4.069,-0.2633405106701714,0.2881991946298341
-4.0685,0.1527963087794516,-0.2204394488182027
-4.068,0.3448594562177877,-0.4853554089474559
-4.0675,0.3982103305061524,-0.5595318777835605
-4.067,0.3875401556484697,-0.5065486857577234
-4.0665,0.355529631075286,-0.4005823017060876
-4.066,0.2061471830678648,-0.4429688553267188
-4.0655,-0.274010685527854,-0.8986243067489184
-4.065,-0.6688071552617527,-1.386069673386177
-4.0645,-0.754168554123573,-1.703968825541643
-4.064,-0.02859666380115328,-1.778145294377815
-4.0635,1.027750647108467,-1.619195718300448
-4.063,1.721312012859072,-1.311893204550111
-4.0625,2.020076908873914,-0.9410108603695881
-4.062,2.041417258589259,-0.4959520473529607
-4.0615,1.892034810581528,0.02328323450122654
-4.061,1.678631313428069,0.6590815388106942
-4.0605,1.593269914566608,1.284283204715573
-4.06,1.35852606769725,1.623375633681017
-4.0595,0.9850699476786977,1.718745379327438
-4.059,0.6649647019482183,1.644568910491266
-4.0585,0.4622313796524326,1.464426057603583
-4.058,0.3448594562177392,1.263089927905238
-4.0575,-0.007256314085787988,0.8710143069140429
-4.057,-0.8075194284112581,-0.01910331911921193
-4.0565,-1.351698346153801,-0.9304142219644207
-4.056,-1.650463242168915,-1.566212526274467
-4.0555,-2.087940411333505,-1.650985633515729
-4.055,-2.578768454787498,-0.5489352393771884
-4.0545,-2.792171951940957,0.775644561267536
-4.054,-2.792171951940957,1.782325209757527
-4.0535,-2.312014083344317,2.03664453148196
-4.053,-1.298347471865388,1.485619334413754
-4.0525,-0.4874141826815069,0.7650479228623686
-4.052,0.03542438534517548,0.1928294489830188
-4.0515,0.291508581929326,-0.1462629799820306
-4.051,0.3875401556484697,-0.2840192792492073
-4.0505,0.3982103305061427,-0.2734226408440495
-4.05,0.3661998059331045,-0.1992461720078678
-4.0495,0.2168173579255475,-0.1992461720078678
-4.049,-0.4447334832501747,-0.6443049850244952
-4.0485,-0.9569018764196985,-1.216523458904289
-4.048,-1.127624674142465,-1.598002441489969
-4.0475,-0.3913826089630327,-1.672178910326073
-4.047,0.8143471499565322,-1.608599079894953
-4.0465,1.646620788855021,-1.407262950196955
-4.046,2.030747083731247,-1.121153713257695
-4.0455,2.084097958019903,-0.7502713690761502
-4.045,1.966726034585501,-0.2840192792492073
-4.0445,1.742652362574165,0.3411823866556712
-4.044,1.593269914566501,0.8922075837246091
-4.0435,1.475897991132099,1.146526905448396
-4.043,1.123782220828572,1.400846227172415
-4.0425,0.771666450525365,1.528005888034308
-4.042,0.5155822539406614,1.517409249629256
-4.0415,0.3555296310754218,1.369056311956912
-4.041,0.2381577076410195,1.337266396741439
-4.0405,0.09944543449049498,1.655165548896144
-4.04,-0.4980843575391895,1.33726639674141
-4.0395,-1.170305373572584,0.2564092794153148
-4.039,-1.874536914180861,-0.6866915386452999
-4.0385,-2.546757930214257,-0.3899856633008816
-4.038,-2.802842126798407,0.616694985189109
-4.0375,-2.802842126798417,1.559795803250292
-4.037,-2.557428105071939,1.962468062646288
-4.0365,-1.554431668449771,1.528005888034424
-4.036,-0.6688071552615683,0.8392243916980298
-4.0355,-0.07127736323188383,0.2776025562246667
-4.035,0.2594980573562781,-0.08268314955102604
-4.0345,0.3875401556483533,-0.2310360872232352
-4.034,0.408880505363835,-0.2416327256285375
-4.0335,0.3768699807907871,-0.1674562567923655
-4.033,0.3235191065024224,-0.1038764263614187
-4.0325,-0.007256314086137349,-0.4429688553272584
-4.032,-0.391382608962363,-1.036380606016095
-4.0315,-0.5407650569697842,-1.513229334248196
-4.031,-0.2420001609541171,-1.629792356705394
-4.0305,0.5155822539406614,-1.545019249464132
-4.03,1.241154144262421,-1.364876396576449
-4.0295,1.699971663143609,-1.121153713257107
-4.029,1.892034810581722,-0.7608680074817418
-4.0285,1.870694460866357,-0.3052125560595421
-4.028,1.731982187716327,0.2352160026045848
-4.0275,1.56125938999356,0.8816109453192104
-4.027,1.486568165989782,1.273686566310405
-4.0265,1.166462920259594,1.464426057603246
-4.026,0.8143471499557753,1.506812611224089
-4.0255,0.5475927785137094,1.432636142387917
-4.025,0.3768699807909424,1.284283204715708
-4.0245,0.2274875327826575,1.019367244585655
-4.024,-0.4020527838200457,0.2140227257936621
-4.0235,-1.063603624995768,-0.7502713690756974
-4.023,-1.490410619304073,-1.502632695843915
-4.0225,-1.927887788468663,-2.000674700886331
-4.022,-2.450726356494637,-1.513229334249073
-4.0215,-2.781501777083294,-0.1250697031705296
-4.021,-2.80284212679864,1.157123543853563
-4.0205,-2.696140378221814,1.941274785835954
-4.02,-1.81051586503331,1.782325209757825
-4.0195,-0.8822106524157645,1.104140351827727
-4.019,-0.2099896363817582,0.4259554938970107
-4.0185,0.1848068333521405,-0.04029659592993223
-4.018,0.3555296310754218,-0.2840192792492073
-4.0175,0.3982103305061524,-0.3581957480853793
-4.017,0.3875401556484794,-0.3264058328699059
-4.0165,0.3448594562175548,-0.2416327256286532
-4.016,0.142126133921769,-0.3687923864905467
-4.0155,-0.4020527838195508,-0.8986243067484365
-4.015,-0.8288597781272738,-1.439052865412679
-4.0145,-0.7434983792658902,-1.682775548731308
-4.014,0.2701682322130388,-1.693372187136466
-4.0135,1.294505018552047,-1.566212526274245
-4.013,1.902704985439405,-1.322489842955616
-4.0125,2.116108482593058,-1.01518732920576
-4.012,2.073427783162172,-0.6019184314037677
-4.0115,1.902704985439405,-0.09327978795619347
-4.011,1.678631313428069,0.5849050699745222
-4.0105,1.539919040278321,1.199510097473674
-4.01,1.209143619690033,1.559795803249926
-4.0095,0.8463576745288233,1.686955464111935
-4.009,0.5689331282293268,1.633972272086146
-4.0085,0.4302208550791033,1.485619334413561
-4.008,0.3235191065023739,1.273686566310405
-4.0075,-0.1673089369505812,0.7332580076473578
-4.007,-0.9462317015625689,-0.2628260024396916
-4.0065,-1.725154466172693,-1.163540266878104
-4.006,-2.365364957633652,-1.820531847998485
-4.0055,-2.760161427367948,-1.396666311790583
-4.005,-2.80284212679864,-0.07208651114585861
-4.0045,-2.80284212679864,1.167720182258731
-4.004,-2.749491252509528,1.941274785835838
-4.0035,-1.981238662757077,1.814115124973944
-4.003,-1.010252750707956,1.114736990232894
-4.0025,-0.2846808603861966,0.4153588554924793
-4.002,0.1527963087794516,-0.08268314955102604
-4.0015,0.3555296310754218,-0.3475991096802118
-4.001,0.4195506802214594,-0.4217755785163165
-4.0005,0.4088805053638059,-0.3899856633007948
-4,0.3768699807907871,-0.2946159176543747
-3.9995,0.2808384070716433,-0.2628260024388724
-3.999,-0.2313299860971235,-0.6760949002404023
-3.9985,-0.6474668055467465,-1.195330182093607
-3.998,-0.6261264558313813,-1.47084278062796
-3.9975,0.08877525963335578,-1.51322933424863
-3.997,1.017080472251745,-1.449649503817625
-3.9965,1.678631313428069,-1.290699927740113
-3.996,1.988066384300866,-1.01518732920576
-3.9955,2.030747083731597,-0.5913217929990628
-3.995,1.913375160297087,-0.04029659593035631
-3.9945,1.7213120128588,0.6484849004055269
-3.994,1.625280439139656,1.178316820663898
-3.9935,1.593269914566608,1.231300012689736
-3.993,1.241154144263081,1.305476481525908
-3.9925,0.8463576745288233,1.358459673551745
-3.992,0.5689331282290746,1.33726639674141
-3.9915,0.3982103305061524,1.210106735879401
-3.991,0.04609456020262521,0.8710143069140429
-3.9905,-0.658136980404429,-0.02969995752518888
-3.99,-1.234326422719292,-0.9622041371799229
-3.9895,-1.661133417026597,-1.629792356705471
-3.989,-2.141291285622316,-1.714565463946811
-3.9885,-2.6427895039334,-0.5913217929990628
-3.988,-2.792171951940957,0.7438546460520338
-3.9875,-2.781501777083275,1.739938656137773
-3.987,-2.386705307349017,2.015451254672126
-3.9865,-1.362368521011484,1.464426057603419
-3.986,-0.5300948821122373,0.7226613692416989
-3.9855,0.01408403562957729,0.1292496185523226
-3.985,0.291508581929326,-0.2310360872233701
-3.9845,0.3982103305061524,-0.3793890248957141
-3.984,0.408880505363835,-0.3899856633008816
-3.9835,0.3768699807907871,-0.3052125560595421
-3.983,0.3235191065023739,-0.2098428104130352
-3.9825,-0.04993701351651855,-0.4429688553267188
-3.982,-0.5941159312583333,-0.8986243067489184
-3.9815,-0.8715404775580819,-1.364876396576285
-3.981,-0.4767440078238243,-1.439052865412457
-3.9805,0.4729015545099309,-1.449649503817625
-3.98,1.283834843693812,-1.38606967338662
-3.9795,1.785333062004896,-1.205926820498774
-3.979,1.966726034585501,-0.8880276683437509
-3.9785,1.934715510012453,-0.3899856633008816
-3.978,1.774662887147213,0.2458126410091644
-3.9775,1.614610264281974,0.8816109453192104
-3.977,1.529248865420512,1.146526905448396
-3.9765,1.19847344483235,1.411442865577582
-3.976,0.825017324813458,1.580989080060261
-3.9755,0.5475927785137094,1.612778995275763
-3.975,0.3768699807907871,1.538602526439591
-3.9745,0.2594980573562781,1.443232780793084
-3.974,-0.274010685527854,1.580989080060261
-3.9735,-0.9035510021311299,1.019367244586387
-3.973,-1.255666772434657,-0.04029659593035631
-3.9725,-1.597112367880501,-0.7502713690765743
-3.972,-2.03458953704549,-0.2628260024388724
-3.9715,-2.557428105071939,0.7544512844572011
-3.971,-2.770831602225592,1.644568910491266
-3.9705,-2.568098279929622,2.036644531482461
-3.97,-1.607782542738184,1.591585718465428
-3.9695,-0.7328282044082075,0.849821030103708
-3.969,-0.1032878878049318,0.2352160026039969
-3.9685,0.2381577076409128,-0.1462629799820306
-3.968,0.3875401556484697,-0.3158091944647096
-3.9675,0.408880505363835,-0.326405832869877
-3.967,0.3875401556484697,-0.2310360872233701
-3.9665,0.3555296310754218,-0.09327978795619347
-3.966,0.1207857842064037,-0.2098428104130352
-3.9655,-0.391382608962363,-0.7502713690765743
-3.965,-0.6154562809736985,-1.269506650929778
-3.9645,-0.5834457564006506,-1.608599079895136
-3.964,0.3235191065023739,-1.714565463946811
-3.9635,1.454557641416734,-1.608599079895136
-3.963,2.116108482593058,-1.354279758171118
-3.9625,2.28683128031598,-1.004590690800593
-3.962,2.180129531739154,-0.5171453241628908
-3.9615,1.934715510012453,0.08686306493165288
-3.961,1.678631313428069,0.7650479228623686
-3.9605,1.614610264281974,0.9663840525605498
-3.96,1.379866417412955,1.114736990232894
-3.9595,0.9850699476786977,1.33726639674141
-3.959,0.6649647019482183,1.443232780793084
-3.9585,0.4622313796522482,1.400846227172415
-3.958,0.3661998059331045,1.273686566310405
-3.9575,0.6009436528021226,1.453829419198252
-3.957,0.79300680024041,1.528005888034424
-3.9565,0.2168173579255475,0.7332580076468663
-3.956,-0.6047861061160158,-0.1144730647665284
-3.9555,-1.394379045584531,-0.1568596183871981
-3.955,-2.098610586191586,0.6060983467848571
-3.9545,-2.706810553079496,1.42203950398275
-3.954,-2.749491252510227,1.951871424241121
-3.9535,-2.023919362187807,1.739938656137773
-3.953,-1.052933450138687,1.040560521396722
-3.9525,-0.3273615598162672,0.383568940276341
-3.952,0.1207857842064037,-0.05089323433552374
-3.9515,0.3341892813600565,-0.252229364033705
-3.951,0.3982103305061524,-0.2840192792492073
-3.9505,0.3982103305061524,-0.1886495336027004
-3.95,0.3661998059331045,-0.06148987274069118
-3.9495,0.2701682322139607,-0.01910331912002144
-3.949,-0.1886492866663929,-0.4853554089473885
-3.9485,-0.5941159312583333,-1.078767159636765
-3.948,-0.7648387289812555,-1.375473034981453
-3.9475,-0.2953510352432193,-1.237716735714276
-3.947,0.5475927785137094,-1.110557074852267
-3.9465,1.294505018551494,-0.9833974139902578
-3.946,1.731982187716482,-0.7820612842920766
-3.9455,1.881364635724039,-0.4323722169215513
-3.945,1.806673411720261,0.01268659609548085
-3.9445,1.635950613997339,0.5637117931641874
-3.944,1.56125938999356,1.040560521396722
-3.9435,1.411876941986003,1.241896651094903
-3.943,1.049090996824793,1.37965295036208
-3.9425,0.707645401378949,1.390249588767247
-3.942,0.4622313796522482,1.273686566310405
-3.9415,0.3341892813600565,1.104140351827727
-3.941,0.07810508477567314,1.093543713422559
-3.9405,-0.572775581542968,1.369056311956912
-3.94,-0.9675720512772257,0.8286277532933731
-3.9395,-1.415719395299897,-0.2310360872233701
-3.939,-1.981238662757077,-0.9516074987747555
-3.9385,-2.578768454787304,-0.3899856633008816
-3.938,-2.792171951940957,0.701468092431364
-3.9375,-2.80284212679864,1.644568910491266
-3.937,-2.536087755356574,2.036644531482461
-3.9365,-1.533091318734406,1.591585718465428
-3.936,-0.658136980404429,0.8922075837243778
-3.9355,-0.06060718837420119,0.3199891098453364
-3.935,0.2594980573562781,-0.02969995752518888
-3.9345,0.3875401556484697,-0.1780528951975329
-3.934,0.408880505363835,-0.1886495336027004
-3.9335,0.3768699807907871,-0.1038764263613609
-3.933,0.3341892813600565,-0.01910331912002144
-3.9325,-0.03926683865883591,-0.2840192792492073
-3.932,-0.5621054066852853,-0.8774310299385835
-3.9315,-0.9355615267041777,-1.396666311791788
-3.931,-0.7434983792658902,-1.714565463946811
-3.9305,0.3661998059331045,-1.79933857118815
-3.93,1.390536592270638,-1.661582271920973
-3.9295,1.934715510012453,-1.364876396576285
-3.929,2.094768132877692,-0.9939940523954253
-3.9285,2.020076908873914,-0.5065486857577234
-3.928,1.806673411720261,0.1822328105781598
-3.9275,1.614610264281974,0.7862411996727035
-3.927,1.529248865420512,0.9451907757502149
-3.9265,1.177133095116985,1.125333628638062
-3.926,0.8036769750980928,1.25249328950007
-3.9255,0.5369226036560266,1.263089927905238
-3.925,0.3768699807907871,1.178316820663898
-3.9245,0.1954770082101822,1.104140351827727
-3.924,-0.4874141826815069,1.210106735879401
-3.9235,-1.191645723288561,0.6802748156210291
-3.923,-1.554431668449771,-0.326405832869877
-3.9225,-2.002579012472442,-1.142346990067769
-3.922,-2.525417580498891,-0.7820612842920766
-3.9215,-2.781501777083275,0.3517790250608387
-3.921,-2.792171951940957,1.411442865577582
-3.9205,-2.546757930214257,1.930678147430786
-3.92,-1.543761493592088,1.570392441655093
-3.9195,-0.6794773301197943,0.8922075837243778
-3.919,-0.07127736323188383,0.309392471440169
-3.9185,0.2594980573562781,-0.07208651114585861
-3.918,0.3875401556484697,-0.2416327256285375
-3.9175,0.408880505363835,-0.2734226408440398
-3.917,0.3875401556484697,-0.1992461720078678
-3.9165,0.3448594562177392,-0.1250697031716958
-3.916,0.01408403562957729,-0.1144730647665284
-3.9155,-0.5621054066852853,-0.2946159176543747
-3.915,-0.8181896032696687,-0.8456411147230812
-3.9145,-0.7968492535543035,-1.34368311976595
-3.914,-0.04993701351651855,-1.629792356705471
-3.9135,0.857027849386506,-1.650985633515806
-3.913,1.529248865420512,-1.47084278062796
-3.9125,1.881364635724039,-1.195330182093607
-3.912,1.956055859727818,-0.792657922697244
-3.9115,1.838683936293309,-0.2310360872233701
-3.911,1.646620788855021,0.4895353243280153
-3.9105,1.582599739708926,1.019367244586387
-3.91,1.273164668836129,1.33726639674141
-3.9095,0.8997085488172365,1.496215972818921
-3.909,0.6009436528021226,1.485619334413754
-3.9085,0.4302208550792003,1.369056311956912
-3.908,0.3341892813600565,1.231300012689736
-3.9075,-0.09261771294724913,1.146526905448396
-3.907,-0.7755089038389382,0.6590815388106942
-3.9065,-1.202315898146244,-0.326405832869877
-3.906,-1.639793067311232,-1.227120097309109
-3.9055,-2.183971985053047,-1.523825972653797
-3.905,-2.685470203364131,-0.5489352393783931
-3.9045,-2.792171951940957,0.7226613692416989
-3.904,-2.76016142736791,1.676358825706768
-3.9035,-2.03458953704549,1.782325209758442
-3.903,-1.052933450138687,1.210106735879401
-3.9025,-0.3166913849585846,0.5637117931641874
-3.902,0.1314559590640864,0.08686306493165288
-3.9015,0.3448594562177392,-0.1886495336027004
-3.901,0.408880505363835,-0.2840192792492073
-3.9005,0.408880505363835,-0.2628260024388724
-3.9,0.3768699807907871,-0.1992461720078678
-3.8995,0.2061471830678648,-0.2628260024388724
-3.899,-0.4127229586777283,-0.7714646458869092
-3.8985,-1.042263275281004,-1.34368311976595
-3.898,-1.191645723288561,-1.725162102351978
-3.8975,-0.2633405106701714,-1.852321763213987
-3.897,0.857027849386506,-1.75695201756748
-3.8965,1.625280439139656,-1.523825972653797
-3.896,2.009406734016231,-1.258910012524611
-3.8955,2.073427783162327,-0.8986243067489184
-3.895,1.956055859727818,-0.400582301706049
-3.8945,1.742652362574165,0.3199891098453364
-3.894,1.529248865420512,1.040560521396722
-3.8935,1.177133095116985,1.475022696008586
-3.893,0.8143471499557753,1.612778995275763
-3.8925,0.5689331282290746,1.549199164844759
-3.892,0.4302208550792003,1.390249588767247
-3.8915,0.3555296310754218,1.178316820663898
-3.891,0.3448594562177392,1.210106735879401
-3.8905,0.2061471830678648,1.00877060618122
-3.89,-0.2420001609548061,0.06566978812131802
-3.8895,-0.8288597781273515,-0.9304142219644207
-3.889,-1.565101843307454,-1.396666311791788
-3.8885,-2.269333383914508,-0.5807251545938954
-3.888,-2.76016142736791,0.6378882620003594
-3.8875,-2.781501777083275,1.644568910491266
-3.887,-2.418715831922065,2.015451254672126
-3.8865,-1.394379045584531,1.538602526439591
-3.886,-0.5621054066852853,0.8392243916985406
-3.8855,-0.007256314085787988,0.2670059178194992
-3.885,0.291508581929326,-0.07208651114585861
-3.8845,0.408880505363835,-0.1992461720078678
-3.884,0.4195506802215176,-0.1992461720078678
