Class_4_Move_right_hand_Horiszontal/Class_4_Move_right_hand_horizontal_Basim_1.csv

#Digilent WaveForms Oscilloscope Acquisition
#Device Name: EExplorer
#Serial Number: SN:210151A2B84A
#Date Time: 2020-10-20 13:02:13.191
#Sample rate: 2000Hz
#Samples: 16384
#Trigger: Source: Channel 1 Type: Edge Condition: Rising Level: 0 V Hyst.: Auto HoldOff: 0 s
#Channel 1: Range: 1 V/div Offset: 0 V
#Channel 2: Range: 1 V/div Offset: 0 V

Time (s),Channel 1 (V),Channel 2 (V)
-4.0960000000000001,0.35552963107542179,0.80743447648303834
-4.0955000000000004,0.33418928136007597,0.68027481562114478
-4.0949999999999998,0.32351910650240295,0.51072860113814778
-4.0945,0.35552963107542179,0.28819919462983412
-4.0940000000000003,0.67563487680560996,-0.22043944881774002
-4.0934999999999997,1.3585260676978521,-0.97280077558569755
-4.093,1.6466207888550213,-1.6403889951106385
-4.0925000000000002,1.6466207888550213,-1.9370948704550568
-4.0919999999999996,1.3691962425544379,-1.4496495038175479
-4.0914999999999999,0.45156120479456557,-1.3648763965762853
-4.0910000000000002,-0.071277363231883828,-1.01518732920576
-4.0904999999999996,-0.18864928666637348,-0.57012851618849669
-4.0899999999999999,-0.16730893695102761,-0.31580919446470956
-4.0895000000000001,0.014084035629577295,-0.082683149551026042
-4.0890000000000004,0.17413665849467133,0.05507314971602531
-4.0884999999999998,0.19547700821018218,0.055073149716150585
-4.0880000000000001,0.099445434491038431,0.26700591781949923
-4.0875000000000004,0.046094560202673739,0.37297230187107722
-4.0869999999999997,0.088775259633414011,0.34118238665562306
-4.0865,0.15279630877945163,0.28819919462983412
-4.0860000000000003,0.18480683335247045,0.29879583303499191
-4.0854999999999997,-0.081947538090362246,0.62729162359543289
-4.085,-0.95690187641954316,0.89220758372437781
-4.0845000000000002,-1.5224211438762087,0.21402272579427895
-4.0839999999999996,-1.7358246410307836,-0.34759910968058771
-4.0834999999999999,-2.1839719850530468,-0.76086800748174177
-4.0830000000000002,-2.2266526844837773,-1.1529436284729369
-4.0824999999999996,-1.5117509690183417,-0.83504447631739331
-4.0819999999999999,-0.74349837926589024,-0.26282600243887239
-4.0815000000000001,-0.16730893695102761,0.25640927941433178
-4.0810000000000004,0.17413665849450638,0.61669498518969679
-4.0804999999999998,0.32351910650237387,0.82862775329337313
-4.0800000000000001,0.36619980593310447,0.93459413734504748
-4.0795000000000003,0.35552963107543151,0.94519077575020527
-4.0789999999999997,0.33418928136004683,0.86041766850876944
-4.0785,0.32351910650237387,0.74385464605203377
-4.0780000000000003,0.32351910650237387,0.58490506997466674
-4.0774999999999997,0.5155822539412922,0.20342608738780074
-4.077,1.2091436196900331,-0.55953187778356051
-4.0765000000000002,1.9560558597271385,-1.3118932045497638
-4.0759999999999996,2.4042032037501393,-1.831128486403296
-4.0754999999999999,2.0200769088739139,-1.4390528654124575
-4.0750000000000002,0.81434714995577528,-1.4708427806279598
-4.0744999999999996,0.17413665849458401,-1.1211537132570586
-4.0739999999999998,-0.08194753808956648,-0.70788481545590454
-4.0735000000000001,-0.13529841237797968,-0.40058230170604903
-4.0730000000000004,0.024754210487114348,-0.10387642636163075
-4.0724999999999998,0.15279630877945163,0.044476511310983152
-4.0720000000000001,0.17413665849481691,0.044476511310983152
-4.0715000000000003,0.17413665849481691,0.12924961855224551
-4.0709999999999997,0.17413665849483631,0.26700591781950889
-4.0705,0.19547700821018218,0.27760255622466667
-4.0700000000000003,0.21681735792552809,0.25640927941435104
-4.0694999999999997,0.23815770764073807,0.25640927941455344
-4.069,0.046094560202625215,0.50013196273318283
-4.0685000000000002,-0.78617907869662074,1.1571235438535634
-4.0679999999999996,-1.7785053404618343,1.7929218481635423
-4.0674999999999999,-2.5787684547873044,1.7187453793274377
-4.0670000000000002,-3.0909368479560713,0.51072860113835017
-4.0664999999999996,-3.0375859736668818,-0.72907809226647069
-4.0659999999999998,-2.1839719850530468,-0.98339741399025782
-4.0655000000000001,-1.1276246741424654,-0.57012851618872795
-4.0650000000000004,-0.34870190953234093,-0.0085066807153648671
-4.0644999999999998,0.12078578420640371,0.45774540911251305
-4.0640000000000001,0.33418928136005654,0.78624119967270345
-4.0635000000000003,0.39821033050609417,0.96638405256038595
-4.0629999999999997,0.38754015564844063,1.0511571598018508
-4.0625,0.35552963107542179,1.0087706061812196
-4.0620000000000003,0.33418928136007597,0.88161094531932604
-4.0614999999999997,0.33418928136011478,0.73325800764661575
-4.0609999999999999,0.3982103305061524,0.45774540911251305
-4.0605000000000002,0.92104889853260175,-0.19924617200786782
-4.0599999999999996,1.710641838001457,-0.97280077558565903
-4.0594999999999999,2.0840979580200099,-1.5980024414899687
-4.0590000000000002,2.1267786574507404,-1.8099352095933177
-4.0585000000000004,1.4972383408480368,-1.5980024414901615
-4.0579999999999998,0.4622313796522482,-1.5556158878692994
-4.0575000000000001,0.099445434491038431,-0.96220413717992292
-4.0570000000000004,-0.092617712947074438,-0.54893523937876898
-4.0564999999999998,-0.071277363231883828,-0.24163272562853755
-4.056,0.11011560934872107,0.0020899576903134209
-4.0555000000000003,0.17413665849475868,0.0444765113109446
-4.0549999999999997,0.17413665849478779,0.033879872905921732
-4.0545,0.14212613392176898,0.15044289536265748
-4.0540000000000003,0.14212613392176898,0.15044289536265748
-4.0534999999999997,0.17413665849485574,0.097459703336781764
-4.0529999999999999,0.21681735792554749,0.055073149716150585
-4.0525000000000002,0.19547700821018218,0.065669788121318018
-4.0519999999999996,-0.3913826089633044,0.044476511310433807
-4.0514999999999999,-1.4263895701575793,-0.55953187778356051
-4.0510000000000002,-2.2053123347684123,-1.3012965661452807
-4.0505000000000004,-2.4720667062102355,-0.87743102993896893
-4.0499999999999998,-2.7708316022255923,0.16103953376782493
-4.0495000000000001,-2.2479930341991428,0.55311515475901996
-4.0490000000000004,-1.319687821581597,0.55311515475901996
-4.0484999999999998,-0.53009488211176181,0.4577454091124552
-4.048,-0.0072563140857879876,0.39416557868150842
-4.0475000000000003,0.25949805735603543,0.39416557868150842
-4.0469999999999997,0.36619980593311419,0.44714877070743236
-4.0465,0.3768699807907871,0.54251851635385251
-4.0460000000000003,0.35552963107544122,0.61669498518995702
-4.0454999999999997,0.33418928136004683,0.64848490040551721
-4.0449999999999999,0.32351910650237387,0.63788826200035942
-4.0445000000000002,0.34485945621773917,0.5637117931641874
-4.0439999999999996,0.81434714995655166,0.10805634174137094
-4.0434999999999999,1.6679611385703865,-0.57012851618872795
-4.0430000000000001,2.4042032037504888,-1.1211537132574345
-4.0425000000000004,2.7243084494806769,-1.4178595886018528
-4.0419999999999998,2.3081716300313451,-1.1529436284729369
-4.0415000000000001,1.0704313465401587,-1.0257839676109275
-4.0410000000000004,0.31284893164538019,-0.44296885532724883
-4.0404999999999998,-0.0072563140858753275,0.18223281057848745
-4.04,-0.10328788780493176,0.54251851635385251
-4.0395000000000003,0.035424385344816428,0.77564456126732395
-4.0389999999999997,0.15279630877946135,0.80743447648291311
-4.0385,0.16346648363713429,0.66967817721586165
-4.0380000000000003,0.14212613392178838,0.60609834678491492
-4.0374999999999996,0.13145595906411547,0.48953532432784186
-4.0369999999999999,0.16346648363713429,0.29879583303500157
-4.0365000000000002,0.19547700821018218,0.11865298014715518
-4.0359999999999996,0.19547700820980371,0.023283234501004876
-4.0354999999999999,-0.22065981123944084,0.41535885549184332
-4.0350000000000001,-1.1169544992847826,1.146526905448396
-4.0345000000000004,-1.8958772638949073,1.4856193344134454
-4.0339999999999998,-2.322684258202921,0.72266136924169888
-4.0335000000000001,-2.8028421267986401,-0.52774196256805828
-4.0330000000000004,-2.5894386296451812,-1.3118932045497349
-4.0324999999999998,-1.5971123678797154,-1.1423469900672876
-4.032,-0.73282820440820751,-0.61251506980939763
-4.0315000000000003,-0.12462823752085017,-0.093279787956665805
-4.0309999999999997,0.2061471830680007,0.28819919463004617
-4.0305,0.35552963107542179,0.52132523954351762
-4.0300000000000002,0.37686998079076767,0.63788826200025339
-4.0294999999999996,0.36619980593308504,0.65908153881061715
-4.0289999999999999,0.34485945621773917,0.57430843156935485
-4.0285000000000002,0.33418928136005654,0.45774540911251305
-4.0279999999999996,0.33418928136028947,0.35177902506054959
-4.0274999999999999,0.59027347794443985,0.033879872905815719
-4.0270000000000001,1.3478558928399074,-0.66549826183523486
-4.0265000000000004,2.1481190071653775,-1.3330864813601759
-4.0259999999999998,2.606936526046459,-1.7887419327829828
-4.0255000000000001,2.0840979580200099,-1.5980024414899687
-4.0250000000000004,0.8036769750992574,-1.4284562270074441
-4.0244999999999997,0.24882788249831395,-0.69728817705022639
-4.024,-0.06060718837420119,-0.13566634157686319
-4.0235000000000003,-0.11395806266256589,0.20342608738818624
-4.0229999999999997,0.046094560202712555,0.47893868592288641
-4.0225,0.14212613392176898,0.52132523954351762
-4.0220000000000002,0.16346648363711488,0.43655213230225526
-4.0214999999999996,0.17413665849480719,0.40476221708665661
-4.0209999999999999,0.16346648363713429,0.38356894027634103
-4.0205000000000002,0.18480683335249956,0.30939247144016896
-4.0199999999999996,0.21681735792556689,0.23521600260394876
-4.0194999999999999,0.23815770764091276,0.18223281057815977
-4.0190000000000001,0.067434909917990504,0.36237566346600614
-4.0185000000000004,-0.77550890383817161,0.81803111488779146
-4.0179999999999998,-1.8318562147495197,0.39416557868150842
-4.0175000000000001,-2.5254175804988912,-0.48535540894738849
-4.0170000000000003,-2.8988737005174441,-1.1847335436878033
-4.0164999999999997,-2.9095438753746028,-1.7781452943775649
-4.016,-1.9598983130417114,-1.5026326958434622
-4.0155000000000003,-0.99958257585114707,-0.79265792269788971
-4.0149999999999997,-0.28468086038514845,-0.13566634157643914
-4.0145,0.14212613392176898,0.33058574825050385
-4.0140000000000002,0.33418928135988185,0.59550170837944871
-4.0134999999999996,0.38754015564845029,0.7226613692417182
-4.0129999999999999,0.36619980593310447,0.74385464605203377
-4.0125000000000002,0.34485945621773917,0.6590815388106942
-4.0119999999999996,0.33418928136005654,0.52132523954339238
-4.0114999999999998,0.33418928136005654,0.38356894027634103
-4.0110000000000001,0.43022085507920033,0.15044289536265748
-4.0105000000000004,1.0597611716819035,-0.50654868575712575
-4.0099999999999998,1.9027049854394047,-1.2695066509297783
-4.0095000000000001,2.5535856517580457,-1.8947083168346572
-4.0090000000000003,2.489564602612008,-1.8205318479985526
-4.0084999999999997,1.8386839362923773,-1.0787671596364756
-4.008,0.81434714995577528,-0.76086800748174177
-4.0075000000000003,-0.060607188373405396,-0.64430498502500599
-4.0069999999999997,-0.22065981123944084,-0.23103608722316771
-4.0065,-0.22065981123944084,-0.0085066807148540119
-4.0060000000000002,-0.06060718837420119,0.18223281057815977
-4.0054999999999996,0.1421261339217981,0.33058574825052311
-4.0049999999999999,0.17413665849481691,0.35177902506083869
-4.0045000000000002,0.14212613392176898,0.4471487707073456
-4.0039999999999996,0.15279630877947104,0.41535885549178547
-4.0034999999999998,0.17413665849481691,0.35177902506083869
-4.0030000000000001,0.20614718306786484,0.27760255622466667
-4.0025000000000004,0.15279630877950015,0.31998910984529783
-4.0019999999999998,-0.46607383296614152,0.7968378380778709
-4.0015000000000001,-1.4904106193036752,0.75445128445720111
-4.0010000000000003,-2.3760351324905287,-0.22043944881731603
-4.0004999999999997,-3.0482561485253603,-1.3224898429563481
-4,-3.0695964982407062,-2.1278343617483406
-3.9994999999999998,-2.5467579302142567,-2.0112713392914987
-3.9990000000000001,-1.4157193952998968,-1.1953301820936066
-3.9984999999999999,-0.54076505696992005,-0.3581957480853793
-3.9980000000000002,0.014084035629577295,0.24581264100916439
-3.9975000000000001,0.29150858192932599,0.60609834678485708
-3.9969999999999999,0.38754015564846972,0.76504792286236856
-3.9965000000000002,0.38754015564846972,0.80743447648303834
-3.996,0.35552963107542179,0.74385464605203377
-3.9954999999999998,0.34485945621773917,0.62729162359519197
-3.9950000000000001,0.33418928136005654,0.46834204751768049
-3.9944999999999999,0.3982103305061524,0.19282944898332721
-3.9940000000000002,0.86769802424418851,-0.42177557851638392
-3.9935,1.6466207888550213,-1.1635402668781043
-3.9929999999999999,2.3401821546043928,-1.8205318479984851
-3.9925000000000002,2.606936526046459,-2.2126074689896797
-3.992,1.7213120128587998,-2.043061254507001
-3.9914999999999998,0.92104889853260175,-1.4814394190331273
-3.9910000000000001,0.45156120479456557,-0.72907809226623943
-3.9904999999999999,0.18480683335249956,-0.17805289519753292
-3.9900000000000002,0.17413665849481691,0.21402272579366208
-3.9895,0.17413665849481691,0.36237566346600614
-3.9889999999999999,0.16346648363713429,0.35177902506083869
-3.9885000000000002,0.16346648363713429,0.30939247144016896
-3.988,0.099445434491038431,0.46834204751768049
-3.9874999999999998,0.08877525963335578,0.48953532432801533
-3.9870000000000001,0.13145595906408636,0.39416557868150842
-3.9864999999999999,0.18480683335249956,0.28819919462983412
-3.9860000000000002,0.21681735792554749,0.23521600260399694
-3.9855,0.08877525963335578,0.28819919462983412
-3.9849999999999999,-0.43406330839309365,0.18223281057815977
-3.9845000000000002,-1.2663369472923398,-0.4535654937318862
-3.984,-1.8531965644648849,-0.91981758355925325
-3.9834999999999998,-2.3760351324913342,-1.3966663117917877
-3.9830000000000001,-2.2266526844837773,-1.523825972653797
-3.9824999999999999,-1.405049220442214,-0.98339741399025782
-3.9820000000000002,-0.63679663068906378,-0.31580919446470956
-3.9815,-0.092617712947249131,0.21402272579366208
-3.9809999999999999,0.20614718306786484,0.54251851635385251
-3.9805000000000001,0.33418928136005654,0.70146809243136399
-3.98,0.35552963107542179,0.75445128445720111
-3.9794999999999998,0.33418928136005654,0.73325800764686633
-3.9790000000000001,0.32351910650237387,0.62729162359519197
-3.9784999999999999,0.31284893164469124,0.50013196273318283
-3.9780000000000002,0.32351910650237387,0.35177902506083869
-3.9775,0.36619980593310447,-0.19924617200786782
-3.9769999999999999,0.60094365280212259,-1.5344226110589645
-3.9765000000000001,1.6359506139973388,-2.3185738530413542
-3.976,2.3615225043197583,-2.8166158580842238
-3.9754999999999998,2.2228102311698841,-2.3185738530413542
-3.9750000000000001,1.7213120128587998,-1.2377167357142764
-3.9744999999999999,1.1131120459708892,-0.38998566330088158
-3.9740000000000002,0.60094365280212259,0.055073149716150585
-3.9735,0.29150858192932599,0.24581264100916439
-3.9729999999999999,0.16346648363713429,0.28819919462983412
-3.9725000000000001,0.13145595906408636,0.25640927941433178
-3.972,0.15279630877945163,0.21402272579366208
-3.9714999999999998,0.13145595906408636,0.34118238665567124
-3.9710000000000001,0.12078578420640371,0.43655213230217815
-3.9704999999999999,0.15279630877945163,0.39416557868150842
-3.9700000000000002,0.17413665849481691,0.30939247144016896
-3.9695,0.19547700821018218,0.26700591781949923
-3.9689999999999999,0.05676473506030786,0.45774540911251305
-3.9685000000000001,-0.66880715526211176,0.84982103010370802
-3.968,-1.6397930673112322,0.30939247144016896
-3.9674999999999998,-2.2586632090568255,-0.43237221692155131
-3.9670000000000001,-2.7494912525102269,-0.94101086036958814
-3.9664999999999999,-2.7815017770832746,-1.42845622700729
-3.9660000000000002,-1.8531965644648849,-1.1529436284729369
-3.9655,-0.92489135184649518,-0.50654868575772338
-3.9649999999999999,-0.25267033581248871,0.086863064931652884
-3.9645000000000001,0.14212613392176898,0.51072860113835017
-3.964,0.32351910650237387,0.75445128445720111
-3.9634999999999998,0.3768699807907871,0.84982103010370802
-3.9630000000000001,0.35552963107542179,0.84982103010370802
-3.9624999999999999,0.32351910650237387,0.74385464605203377
-3.9620000000000002,0.32351910650237387,0.59550170837968963
-3.9615,0.34485945621773917,0.40476221708667587
-3.9609999999999999,0.50491207908297886,0.055073149716150585
-3.9605000000000001,1.1771330951169852,-0.65490162343006741
-3.96,1.8493541111509915,-1.5132293342486296
-3.9594999999999998,1.9347155100124527,-2.5516998979550376
-3.9590000000000001,1.9880663843008659,-2.4033469602826938
-3.9584999999999999,1.4972383408474643,-1.7357587407571455
-3.9580000000000002,0.94238924824796699,-0.9092209451540858
-3.9575,0.62228400251748783,-0.1674562567923655
-3.9569999999999999,0.36619980593310447,0.19282944898332721
-3.9565000000000001,0.19547700821018218,0.28819919462983412
-3.956,0.13145595906408636,0.28819919462983412
-3.9554999999999998,0.14212613392176898,0.24581264100916439
-3.9550000000000001,0.14212613392176898,0.26700591781949923
-3.9544999999999999,0.14212613392176898,0.35177902506083869
-3.9540000000000002,0.17413665849481691,0.34118238665567124
-3.9535,0.20614718306786484,0.29879583303500157
-3.9529999999999998,0.21681735792554749,0.26700591781949923
-3.9525000000000001,0.078105084775673142,0.39416557868150842
-3.952,-0.63679663068906378,0.87101430691404291
-3.9514999999999998,-1.618452717595867,0.57430843156935485
-3.9510000000000001,-2.3760351324913342,-0.32640583286987701
-3.9504999999999999,-2.8561930010870533,-0.91981758355925325
-3.9500000000000002,-2.9308842250908316,-1.523825972653797
-3.9495,-2.1946421599107295,-1.4072629501969551
-3.9489999999999998,-1.1809755484308786,-0.76086800748174177
-3.9485000000000001,-0.41272295867772835,-0.093279787956193475
-3.948,0.067434909917990504,0.39416557868150842
-3.9474999999999998,0.29150858192932599,0.69087145402619654
-3.9470000000000001,0.36619980593310447,0.82862775329337313
-3.9464999999999999,0.35552963107542179,0.86041766850887547
-3.9460000000000002,0.33418928136005654,0.7968378380778709
-3.9455,0.31284893164469124,0.66967817721586165
-3.9449999999999998,0.31284893164469124,0.50013196273318283
-3.9445000000000001,0.3768699807907871,0.25640927941433178
-3.944,0.87836819910187125,-0.34759910968021185
-3.9434999999999998,1.3478558928399074,-1.4708427806279598
-3.9430000000000001,1.9133751602970874,-2.360960406662024
-3.9424999999999999,2.2548207557429318,-2.4033469602826938
-3.9420000000000002,1.7853330620048957,-1.6615822719209734
-3.9415,1.2304839694053984,-0.71848145386107198
-3.9409999999999998,0.77166645052504479,-0.10387642636136091
-3.9405000000000001,0.3982103305061524,0.16103953376782493
-3.9399999999999999,0.19547700821018218,0.26700591781949923
-3.9394999999999998,0.13145595906408636,0.26700591781949923
-3.9390000000000001,0.13145595906408636,0.24581264100916439
-3.9384999999999999,0.15279630877945163,0.24581264100916439
-3.9380000000000002,0.14212613392176898,0.38356894027634103
-3.9375,0.16346648363713429,0.39416557868150842
-3.9369999999999998,0.19547700821018218,0.35177902506083869
-3.9365000000000001,0.20614718306786484,0.29879583303500157
-3.9359999999999999,0.18480683335249956,0.30939247144016896
-3.9355000000000002,-0.22065981123944084,0.69087145402619654
-3.9350000000000001,-1.0956141495694174,1.3584596735517449
-3.9344999999999999,-1.9492281381840288,1.655165548896433
-3.9340000000000002,-2.6214491542180349,0.86041766850887547
-3.9335,-2.8028421267986401,-0.37938902489571413
-3.9329999999999998,-2.5360877553565739,-1.0787671596367647
-3.9325000000000001,-1.5010807941613578,-0.85623775312824868
-3.9319999999999999,-0.65813698040442903,-0.31580919446470956
-3.9315000000000002,-0.08194753808956648,0.20342608738849466
-3.931,0.22748753278323011,0.58490506997452218
-3.9304999999999999,0.34485945621773917,0.82862775329337313
-3.9300000000000002,0.36619980593310447,0.94519077575021493
-3.9295,0.33418928136005654,0.97698069096571727
-3.9289999999999998,0.31284893164469124,0.9134008605347127
-3.9285000000000001,0.27016823221396069,0.75445128445720111
-3.9279999999999999,-0.28468086038553664,-0.050893234335523743
