Class_4_Move_right_hand_Horiszontal/Class_4_Move_right_hand_horizontal_Basim_10.csv

#Digilent WaveForms Oscilloscope Acquisition
#Device Name: EExplorer
#Serial Number: SN:210151A2B84A
#Date Time: 2021-01-28 09:22:52.505
#Sample rate: 2000Hz
#Samples: 16384
#Trigger: Source: Channel 1 Type: Edge Condition: Rising Level: 0 V Hyst.: Auto HoldOff: 0 s
#Channel 1: Range: 1 V/div Offset: 0 V Attenuation: 1 X
#Channel 2: Range: 1 V/div Offset: 0 V Attenuation: 1 X
#Channel 4: Range: 1 V/div Offset: 0 V Attenuation: 1 X
#Power Supplies: ON
#Fixed Supply: ON
#Voltage: 3.3 V Readback: 3.327 V
#Positive Supply: ON
#Voltage: 3.7 V Readback: 3.719 V
#Current: 40 mA Readback: 19 mA
#Negative Supply: ON
#Voltage: -3.7 V Readback: -3.348 V
#Current: -40 mA Readback: -7 mA
#Reference 1: ON
#Voltage: 0 V
#Reference 2: ON
#Voltage: 0 V

Time (s),Channel 1 (V),Channel 2 (V),Channel 4 (V)
-4.096,-1.223656247861609,-0.7290780922662394,-0.021454149829278
-4.0955,-0.5834457564012329,-0.4111789401115056,-0.021454149829278
-4.095,-0.09261771294699682,-0.09327978795596217,-0.03203722724012713
-4.0945,0.1848068333524996,0.1610395337678249,-0.03203722724012713
-4.094,0.3128489316445748,0.309392471440034,-0.03203722724012713
-4.0935,0.3555296310754024,0.4047622170867241,-0.03203722724012713
-4.093,0.3341892813600565,0.457745409112513,-0.03203722724012713
-4.0925,0.3128489316447107,0.4789386859228286,-0.08495261429432463
-4.092,0.2915085819293163,0.4895353243280153,-0.106118769116071
-4.0915,0.2808384070716433,0.4895353243280153,-0.106118769116071
-4.091,0.2701682322139607,0.4789386859228479,-0.09553569170522189
-4.0905,0.2915085819297045,0.4365521323017444,-0.07436953688350438
-4.09,0.707645401378949,-0.04029659593035631,-0.05320338206182537
-4.0895,1.177133095116985,-0.8138511995075789,-0.05320338206182537
-4.089,0.6756348768063571,-1.502632695842836,-0.04262030465098588
-4.0885,0.00341386077189465,-1.608599079895136,-0.021454149829278
-4.088,-0.1459685872356623,-1.004590690800593,-0.01087107241842888
-4.0875,-0.06060718837427882,-0.4005823017065984,-0.01087107241842888
-4.087,0.07810508477577019,0.02328323450088923,-0.021454149829278
-4.0865,0.1848068333524996,0.2881991946298341,-0.021454149829278
-4.086,0.2381577076408642,0.4047622170865698,-0.021454149829278
-4.0855,0.2381577076409128,0.404762217086618,-0.021454149829278
-4.085,0.2381577076409128,0.3411823866556712,-0.021454149829278
-4.0845,0.2701682322139316,0.3093924714401979,0.02087815981408
-4.084,0.2594980573562684,0.2881991946297378,0.04204431463580712
-4.0835,0.2488278824985954,0.1822328105781598,0.03146123722496762
-4.083,0.2488278824985954,0.06566978812131802,0.03146123722496762
-4.0825,0.2488278824985275,-0.008506680714825099,0.01029508240325975
-4.082,0.1741366584948169,0.02328323450064829,-0.000287995007579752
-4.0815,-0.4020527838200457,0.5425185163538525,-0.01087107241842888
-4.081,-1.191645723287843,0.7014680924312194,-0.03203722724010788
-4.0805,-1.703814116457328,-0.04029659593035631,-0.05320338206182537
-4.08,-1.885207089037933,-0.8774310299385835,-0.05320338206182537
-4.0795,-1.426389570157997,-1.025783967610792,-0.02145414982930687
-4.079,-0.7755089038384433,-0.6866915386451746,-0.021454149829278
-4.0785,-0.2313299860971235,-0.252229364033705,-0.021454149829278
-4.078,0.1101156093484105,0.09745970333650228,-0.0320372272401175
-4.0775,0.2808384070717015,0.3305857482506195,-0.03203722724012713
-4.077,0.3448594562177392,0.457745409112513,-0.03203722724012713
-4.0765,0.3448594562177392,0.5213252395434598,-0.03203722724012713
-4.076,0.3235191065023544,0.5425185163538429,-0.06378645947270338
-4.0755,0.3021787567870086,0.5319218779486851,-0.09553569170522189
-4.075,0.2808384070716433,0.5213252395435176,-0.106118769116071
-4.0745,0.2701682322139607,0.5001319627331635,-0.09553569170520264
-4.074,0.2701682322139607,0.4789386859228479,-0.07436953688352363
-4.0735,0.5369226036560266,0.1716361721729923,-0.0637864594726745
-4.073,1.091771696255019,-0.5807251545932112,-0.053203382061835
-4.0725,0.6542945270905358,-1.333086481360783,-0.05320338206182537
-4.072,-0.2526703358124887,-1.788741932782983,-0.03203722724012713
-4.0715,-0.5300948821119851,-1.333086481361197,-0.01087107241844813
-4.071,-0.3807124341044475,-0.7078848154554322,-0.01087107241842888
-4.0705,-0.124628237520297,-0.1886495336027004,-0.01087107241842888
-4.07,0.08877525963316169,0.1292496185520335,-0.02145414982926837
-4.0695,0.2168173579255863,0.2776025562247052,-0.021454149829278
-4.069,0.2594980573562781,0.3199891098453364,-0.021454149829278
-4.0685,0.2808384070716433,0.2881991946298341,-0.021454149829278
-4.068,0.2915085819293551,0.2564092794143414,-0.000287995007541251
-4.0675,0.3235191065023739,0.2670059178194992,0.04204431463581675
-4.067,0.3235191065023739,0.1716361721729923,0.03146123722496762
-4.0665,0.3021787567869892,0.05507314971608313,0.031461237224958
-4.066,0.2808384070716433,-0.01910331912002144,0.0208781598141185
-4.0655,0.2488278824985954,-0.05089323433552374,-0.000287995007579752
-4.065,-0.1566387620929762,0.06566978812121201,-0.02145414982925875
-4.0645,-0.9142211769888124,-0.3370024712750445,-0.04262030465097626
-4.064,-1.629122892453549,-1.036380606016095,-0.04262030465097626
-4.0635,-2.045259711902794,-1.258910012524408,-0.03203722724013675
-4.063,-1.810515865033494,-0.729078092265854,-0.021454149829278
-4.0625,-1.084943974711735,-0.3052125560595421,-0.021454149829278
-4.062,-0.4554036581090314,-0.0402965959305972,-0.0320372272401175
-4.0615,-0.007256314085564785,0.1186529801472323,-0.03203722724012713
-4.061,0.2381577076409128,0.2034260873884947,-0.03203722724012713
-4.0605,0.3341892813600565,0.2564092794143318,-0.03203722724012713
-4.06,0.3555296310754024,0.3093924714402171,-0.03203722724013675
-4.0595,0.3341892813600565,0.3623756634660061,-0.04262030465097626
-4.059,0.3128489316446912,0.4047622170866759,-0.09553569170522189
-4.0585,0.2915085819293454,0.4471487707073071,-0.1061187691160614
-4.058,0.2808384070716433,0.5001319627331828,-0.106118769116071
-4.0575,0.2701682322139607,0.5319218779486851,-0.08495261429437276
-4.057,0.3768699807906901,0.4365521323022649,-0.06378645947269375
-4.0565,0.7289857510943143,-0.1568596183871981,-0.05320338206182537
-4.056,0.3661998059331045,-0.8774310299385835,-0.05320338206182537
-4.0555,-0.5300948821114222,-1.428456227006789,-0.04262030465098588
-4.055,-0.9248913518463011,-1.290699927739583,-0.02145414982926837
-4.0545,-0.7114878546928423,-0.7078848154559045,-0.01087107241842888
-4.054,-0.3273615598166166,-0.1250697031722258,-0.01087107241842888
-4.0535,0.00341386077208874,0.2881991946300365,-0.021454149829278
-4.053,0.2168173579255475,0.5107286011383502,-0.021454149829278
-4.0525,0.3128489316446912,0.5637117931641874,-0.021454149829278
-4.052,0.3235191065023642,0.5107286011382731,-0.02145414982926837
-4.0515,0.3128489316446912,0.4259554938970107,-0.01087107241842888
-4.051,0.3128489316446912,0.457745409112513,0.03146123722496762
-4.0505,0.3021787567870183,0.3835689402764085,0.04204431463580712
-4.05,0.2808384070716433,0.2246193641988295,0.03146123722496762
-4.0495,0.2701682322139607,0.07626642652648545,0.0208781598141185
-4.049,0.2594980573562878,-0.0402965959302503,0.010295082403279
-4.0485,0.06743490991736942,0.0762664265269577,-0.0002879950075990025
-4.048,-0.6154562809736985,0.5955017083796896,-0.021454149829278
-4.0475,-1.362368521010804,0.3305857482507448,-0.04262030465095701
-4.047,-1.735824641030405,-0.4853554089479475,-0.05320338206181575
-4.0465,-1.767835165603424,-1.0999604364471,-0.04262030465097626
-4.046,-1.212986073004431,-1.015187329205837,-0.02145414982929725
-4.0455,-0.5941159312578966,-0.6125150698090218,-0.021454149829278
-4.045,-0.1139580626626144,-0.1992461720078678,-0.021454149829278
-4.0445,0.1848068333524996,0.1080563417419877,-0.03203722724012713
-4.044,0.31284893164473,0.2881991946299209,-0.03203722724012713
-4.0435,0.3555296310754218,0.383568940276341,-0.03203722724012713
-4.043,0.3448594562177392,0.4153588554918433,-0.03203722724012713
-4.0425,0.3235191065023933,0.425955493897001,-0.07436953688348513
-4.042,0.3021787567870086,0.4153588554918433,-0.106118769116071
-4.0415,0.2808384070716433,0.4047622170866759,-0.106118769116071
-4.041,0.2808384070716433,0.3941655786815181,-0.08495261429439201
-4.0405,0.2915085819297239,0.3623756634656013,-0.07436953688350438
-4.04,0.7289857510943143,-0.08268314955102604,-0.05320338206182537
-4.0395,1.209143619689596,-0.8562377531275451,-0.05320338206182537
-4.039,0.5796033030859907,-1.566212526274795,-0.04262030465096663
-4.0385,-0.2633405106701714,-1.926498232050159,-0.03203722724012713
-4.038,-0.4554036581082842,-1.428456227007743,-0.01087107241844813
-4.0375,-0.3060212101006884,-0.7396747306708864,-0.01087107241842888
-4.037,-0.07127736323188383,-0.1674562567923655,-0.01087107241842888
-4.0365,0.1101156093487211,0.1822328105781598,-0.021454149829278
-4.036,0.216817357925596,0.3623756634660543,-0.021454149829278
-4.0355,0.2701682322139607,0.4153588554918433,-0.021454149829278
-4.035,0.2701682322139607,0.383568940276341,-0.021454149829278
-4.0345,0.2594980573562878,0.3623756634660254,0.02087815981408
-4.034,0.2061471830678648,0.383568940276341,0.04204431463581675
-4.0335,0.2061471830678648,0.2670059178194992,0.03146123722496762
-4.033,0.2168173579255378,0.1504428953627635,0.03146123722496762
-4.0325,0.227487532783201,0.06566978812130839,0.01029508240325975
-4.032,0.1954770082101822,0.05507314971615059,-0.000287995007579752
-4.0315,-0.3166913849581187,0.500131962732778,-0.01087107241841925
-4.031,-1.095614149569835,0.5213252395428334,-0.03203722724014638
-4.0305,-1.554431668449771,-0.2310360872233701,-0.05320338206182537
-4.03,-1.714484291314865,-1.025783967610205,-0.05320338206182537
-4.0295,-1.3196878215802,-1.121153713257078,-0.021454149829278
-4.029,-0.7114878546928423,-0.7290780922662394,-0.021454149829278
-4.0285,-0.2099896363817582,-0.2734226408440398,-0.021454149829278
-4.028,0.120785784206559,0.08686306493186491,-0.03203722724012713
-4.0275,0.291508581929326,0.3199891098453364,-0.03203722724012713
-4.027,0.3448594562177392,0.4365521323021782,-0.03203722724012713
-4.0265,0.3448594562177392,0.4895353243279671,-0.03203722724012713
-4.026,0.3341892813600565,0.5001319627331828,-0.0637864594726745
-4.0255,0.3021787567870086,0.4895353243280153,-0.09553569170522189
-4.025,0.2915085819293357,0.4789386859228575,-0.1061187691160614
-4.0245,0.2808384070716336,0.4577454091124938,-0.09553569170520264
-4.024,0.2701682322139607,0.4365521323021782,-0.07436953688352363
-4.0235,0.5155822539404382,0.1610395337680755,-0.06378645947268413
-4.023,1.305175193409517,-0.5701285161894218,-0.05320338206181575
-4.0225,1.678631313428069,-1.333086481360783,-0.04262030465097626
-4.022,0.9317190733909638,-1.841725124808357,-0.03203722724013675
-4.0215,0.3448594562175645,-1.36487639657564,-0.01087107241842888
-4.021,0.1527963087794516,-0.6549016234300674,-0.01087107241842888
-4.0205,0.1314559590640864,-0.1144730647665284,-0.01087107241842888
-4.02,0.1634664836371828,0.214022725793797,-0.021454149829278
-4.0195,0.2168173579255475,0.3623756634660061,-0.021454149829278
-4.019,0.2381577076409128,0.4153588554918433,-0.021454149829278
-4.0185,0.2488278824985857,0.3729723018712121,-0.021454149829278
-4.018,0.2168173579255475,0.3199891098453364,-0.000287995007579752
-4.0175,0.08877525963335578,0.3623756634660061,0.04204431463581675
-4.017,0.06743490991800991,0.2776025562247438,0.04204431463581675
-4.0165,0.1101156093487696,0.139846256957384,0.031461237224958
-4.016,0.1634664836371343,0.02328323450064829,0.0208781598141185
-4.0155,0.1954770082101531,-0.02969995752514069,-0.0002879950075605001
-4.015,-0.1459685872363319,0.1928294489831056,-0.01087107241844813
-4.0145,-0.8822106524157645,-0.05089323433552374,-0.03203722724012713
-4.014,-1.479740444445449,-0.7608680074810961,-0.04262030465096663
-4.0135,-1.714484291314894,-1.142346990067365,-0.0320372272401175
-4.013,-1.586442193022819,-0.6972881770507372,-0.021454149829278
-4.0125,-1.010252750707956,-0.3052125560595421,-0.021454149829278
-4.012,-0.4233931335350325,-0.04029659593021175,-0.02145414982928762
-4.0115,-0.007256314085787988,0.1186529801471552,-0.03203722724012713
-4.011,0.2274875327832301,0.2246193641988295,-0.03203722724012713
-4.0105,0.3235191065022865,0.2881991946297763,-0.03203722724012713
-4.01,0.3555296310754218,0.3517790250608387,-0.03203722724012713
-4.0095,0.3341892813600565,0.4047622170866759,-0.04262030465097626
-4.009,0.3128489316447107,0.4683420475176227,-0.08495261429433426
-4.0085,0.2915085819293163,0.5213252395435561,-0.1061187691160614
-4.008,0.2808384070716433,0.5637117931641874,-0.09553569170522189
-4.0075,0.2701682322139704,0.6060983467848186,-0.08495261429438239
-4.007,0.323519106502665,0.5531151547585285,-0.06378645947266487
-4.0065,0.6436243522328531,0.01268659609548085,-0.05320338206182537
-4.006,0.4622313796522482,-0.7290780922662394,-0.05320338206182537
-4.0055,-0.3807124341050783,-1.322489842955558,-0.04262030465095701
-4.005,-0.8181896032696687,-1.258910012524611,-0.021454149829278
-4.0045,-0.6474668055467465,-0.6866915386455698,-0.01087107241842888
-4.004,-0.3060212101006205,-0.1356663415765355,-0.01087107241842888
-4.0035,0.00341386077189465,0.2246193641988295,-0.01087107241842888
-4.003,0.2061471830678648,0.4471487707073456,-0.021454149829278
-4.0025,0.2915085819292483,0.5319218779486079,-0.021454149829278
-4.002,0.3021787567870086,0.5001319627331828,-0.021454149829278
-4.0015,0.2808384070716433,0.4047622170866759,-0.01087107241842888
-4.001,0.2274875327832786,0.3411823866557291,0.03146123722492912
-4.0005,0.1741366584948266,0.2564092794142065,0.04204431463581675
-4,0.1848068333524996,0.1186529801471552,0.04204431463581675
-3.9995,0.2168173579255475,-0.01910331912002144,0.03146123722496762
-3.999,0.2274875327832301,-0.1250697031716958,0.01029508240326937
-3.9985,0.0674349099179905,0.01268659609548085,-0.000287995007579752
-3.998,-0.6154562809736985,0.5425185163538525,-0.01087107241842888
-3.9975,-1.287677297007705,0.2881991946298341,-0.04262030465097626
-3.997,-1.575772018165136,-0.5277419625680583,-0.04262030465097626
-3.9965,-1.575772018165136,-1.131750351662602,-0.04262030465097626
-3.996,-1.074273799854052,-1.004590690800593,-0.021454149829278
-3.9955,-0.5087545323968721,-0.5595318777835605,-0.021454149829278
-3.995,-0.07127736323188383,-0.1250697031716958,-0.021454149829278
-3.9945,0.1954770082101822,0.1928294489833272,-0.03203722724012713
-3.994,0.3128489316446912,0.383568940276341,-0.03203722724012713
-3.9935,0.3448594562177392,0.4789386859228479,-0.03203722724012713
-3.993,0.3448594562177392,0.5213252395435176,-0.03203722724012713
-3.9925,0.3235191065023739,0.5213252395435176,-0.07436953688352363
-3.992,0.3021787567870086,0.5107286011383502,-0.09553569170522189
-3.9915,0.291508581929326,0.4895353243280153,-0.106118769116071
-3.991,0.2808384070716433,0.4683420475176805,-0.08495261429437276
-3.9905,0.291508581929326,0.4365521323021782,-0.07436953688352363
-3.99,0.6222840025174878,0.01268659609548085,-0.05320338206182537
-3.9895,1.411876941986003,-0.7608680074817418,-0.04262030465097626
-3.989,1.710641838001117,-1.492036057438295,-0.04262030465097626
-3.9885,1.017080472251745,-1.725162102351978,-0.021454149829278
-3.988,0.5689331282290746,-1.068170521231597,-0.01087107241842888
-3.9875,0.3448594562177392,-0.4959520473525559,-0.01087107241842888
-3.987,0.2488278824985954,-0.09327978795619347,-0.021454149829278
-3.9865,0.2168173579255475,0.1610395337678249,-0.021454149829278
-3.986,0.2274875327832301,0.2881991946298341,-0.021454149829278
-3.9855,0.2381577076409128,0.2987958330350016,-0.021454149829278
-3.985,0.2488278824985954,0.2564092794143318,-0.021454149829278
-3.9845,0.2594980573562781,0.2034260873884947,0.0208781598141185
-3.984,0.291508581929326,0.1928294489833272,0.04204431463581675
-3.9835,0.291508581929326,0.1292496185523226,0.04204431463581675
-3.983,0.2808384070716433,0.07626642652648545,0.03146123722496762
-3.9825,0.2701682322139607,0.04447651131098315,0.0208781598141185
-3.982,0.1954770082101822,0.07626642652648545,-0.000287995007579752
-3.9815,-0.3380317346739499,0.5425185163538525,-0.01087107241842888
-3.981,-1.127624674142465,0.7226613692416989,-0.03203722724012713
-3.9805,-1.586442193022819,0.01268659609548085,-0.04262030465097626
-3.98,-1.757164990745741,-0.3370024712750445,-0.04262030465097626
-3.9795,-1.415719395299897,-0.1780528951975329,-0.021454149829278
-3.979,-0.807519428411986,-0.06148987274069118,-0.021454149829278
-3.9785,-0.274010685527854,0.03387987290581572,-0.03203722724012713
-3.978,0.08877525963335578,0.1186529801471552,-0.03203722724012713
-3.9775,0.2701682322139607,0.2034260873884947,-0.03203722724012713
-3.977,0.3341892813600565,0.2776025562246667,-0.03203722724012713
-3.9765,0.3448594562177392,0.3623756634660061,-0.03203722724012713
-3.976,0.3341892813600565,0.4471487707073456,-0.05320338206182537
-3.9755,0.3021787567870086,0.5107286011383502,-0.09553569170522189
-3.975,0.2808384070716433,0.5743084315693548,-0.106118769116071
-3.9745,0.2808384070716433,0.627291623595192,-0.09553569170522189
-3.974,0.2701682322139607,0.6696781772158616,-0.07436953688352363
-3.9735,0.4408910299368829,0.4895353243280153,-0.0637864594726745
-3.973,0.8890383739595538,-0.1674562567923655,-0.04262030465097626
-3.9725,0.825017324813458,-0.8774310299385835,-0.04262030465097626
-3.972,0.05676473506030786,-1.333086481360783,-0.03203722724012713
-3.9715,-0.3273615598162672,-1.004590690800593,-0.01087107241842888
-3.971,-0.2633405106701714,-0.4641621321370536,-0.01087107241842888
-3.9705,-0.07127736323188383,-0.008506680714854012,-0.01087107241842888
-3.97,0.09944543449103843,0.3199891098453364,-0.01087107241842888
-3.9695,0.2061471830678648,0.5001319627331828,-0.01087107241842888
-3.969,0.2594980573562781,0.5319218779486851,-0.021454149829278
-3.9685,0.2808384070716433,0.457745409112513,-0.021454149829278
-3.968,0.2701682322139607,0.383568940276341,-0.000287995007579752
-3.9675,0.2274875327832301,0.4365521323021782,0.04204431463581675
-3.967,0.2061471830678648,0.3411823866556712,0.04204431463581675
-3.9665,0.2168173579255475,0.1610395337678249,0.03146123722496762
-3.966,0.2274875327832301,0.002089957690313421,0.0208781598141185
-3.9655,0.2274875327832301,-0.09327978795619347,0.01029508240326937
-3.965,-0.1139580626626144,0.1822328105781598,-0.000287995007579752
-3.9645,-0.8715404775580819,0.5425185163538525,-0.021454149829278
-3.964,-1.543761493592088,-0.01910331912002144,-0.04262030465097626
-3.9635,-1.853196564464885,-0.8562377531282487,-0.05320338206182537
-3.963,-1.703814116457328,-1.280103289334946,-0.03203722724012713
-3.9625,-1.074273799854052,-1.004590690800593,-0.021454149829278
-3.962,-0.4554036581084589,-0.5171453241628908,-0.021454149829278
-3.9615,-0.01792648894347063,-0.08268314955102604,-0.021454149829278
-3.961,0.2274875327832301,0.2034260873884947,-0.03203722724012713
-3.9605,0.3341892813600565,0.3729723018711736,-0.03203722724012713
-3.96,0.3555296310754218,0.4471487707073456,-0.03203722724012713
-3.9595,0.3448594562177392,0.4683420475176805,-0.04262030465097626
-3.959,0.3128489316446912,0.4683420475176805,-0.08495261429437276
-3.9585,0.291508581929326,0.457745409112513,-0.106118769116071
-3.958,0.2808384070716433,0.4259554938970107,-0.106118769116071
-3.9575,0.2701682322139607,0.4153588554918433,-0.08495261429437276
-3.957,0.3341892813600565,0.3199891098453364,-0.0637864594726745
-3.9565,0.9103787236749192,-0.2416327256285375,-0.05320338206182537
-3.956,1.241154144263081,-1.025783967610927,-0.04262030465097626
-3.9555,0.4515612047945656,-1.693372187136476,-0.04262030465097626
-3.955,-0.2526703358124887,-1.682775548731308,-0.021454149829278
-3.9545,-0.3380317346739499,-1.046977244421262,-0.01087107241842888
-3.954,-0.1779791118087102,-0.4323722169215513,-0.01087107241842888
-3.9535,0.02475421048725994,0.02328323450064829,-0.01087107241842888
-3.953,0.1741366584948169,0.2881991946298341,-0.021454149829278
-3.9525,0.2594980573562781,0.3941655786815084,-0.021454149829278
-3.952,0.2808384070716433,0.3941655786815084,-0.021454149829278
