Class_6_Listen_To_Quran/Class_6_Listen_To_Quran_Turki_12.csv

#Digilent WaveForms Oscilloscope Acquisition
#Device Name: EExplorer
#Serial Number: SN:210151A2B84A
#Date Time: 2021-01-31 11:20:45.258
#Sample rate: 2000Hz
#Samples: 16384
#Trigger: Source: Channel 1 Type: Edge Condition: Rising Level: 0 V Hyst.: Auto HoldOff: 0 s
#Channel 1: Range: 1 V/div Offset: 0 V Attenuation: 1 X
#Channel 2: Range: 1 V/div Offset: 0 V Attenuation: 1 X
#Power Supplies: ON
#Fixed Supply: ON
#Voltage: 3.3 V Readback: 3.325 V
#Positive Supply: ON
#Voltage: 3.7 V Readback: 3.716 V
#Current: 40 mA Readback: 17 mA
#Negative Supply: ON
#Voltage: -3.7 V Readback: -3.345 V
#Current: -40 mA Readback: -9 mA
#Reference 1: ON
#Voltage: 0 V
#Reference 2: ON
#Voltage: 0 V

Time (s),Channel 1 (V),Channel 2 (V)
-4.096,0.3875401556484697,0.7226613692416989
-4.0955,0.6649647019479661,0.4895353243282273
-4.095,0.7289857510941978,0.4895353243281214
-4.0945,0.6009436528021226,0.6060983467848571
-4.094,0.4408910299370286,0.7120647308364351
-4.0935,0.3128489316444875,0.7650479228622337
-4.093,0.08877525963335578,0.6166949851900245
-4.0925,-0.5300948821116744,-0.07208651114523223
-4.092,-0.9782422261350443,-0.8880276683443099
-4.0915,-1.127624674142465,-1.502632695843462
-4.091,-1.159635198715513,-1.640388995110639
-4.0905,-0.8075194284116075,-1.110557074851737
-4.09,-0.391382608962363,-0.5277419625680583
-4.0895,-0.06060718837420119,-0.1144730647665284
-4.089,0.1314559590639117,0.1080563417417854
-4.0885,0.2274875327832301,0.1716361721729923
-4.088,0.2488278824985954,0.1610395337678249
-4.0875,0.2488278824985954,0.1080563417420359
-4.087,0.2274875327832204,0.05507314971612167
-4.0865,0.2168173579255475,0.02328323450064829
-4.086,0.1954770082102016,0.01268659609549049
-4.0855,0.1848068333524802,0.03387987290585427
-4.085,0.1634664836371343,0.07626642652648545
-4.0845,-0.1886492866660726,-0.01910331911993471
-4.084,-0.6901475049779525,-0.5065486857582534
-4.0835,-1.212986073003927,-1.089363798041932
-4.083,-1.437059745015262,-1.364876396576285
-4.0825,-0.8715404775574511,-0.9939940523948663
-4.082,-0.1779791118087102,-0.3793890248957141
-4.0815,0.2808384070716433,0.1610395337678249
-4.081,0.4729015545097562,0.5107286011380321
-4.0805,0.4942419042252961,0.7332580076468663
-4.08,0.4408910299368829,0.8286277532933731
-4.0795,0.3661998059331724,0.8710143069140044
-4.079,0.4835717293676912,0.7756445612674493
-4.0785,0.5689331282290746,0.6802748156210291
-4.078,0.4942419042253641,0.6908714540261869
-4.0775,0.3875401556483921,0.7120647308365411
-4.077,0.3021787567870086,0.7226613692416989
-4.0765,0.1634664836372604,0.6166949851901209
-4.076,-0.3593720843898101,0.1398462569567961
-4.0755,-0.9035510021311299,-0.6231117082145651
-4.075,-1.255666772434657,-1.301296566145281
-4.0745,-1.394379045584192,-1.566212526274062
-4.074,-1.020922925565639,-1.121153713257435
-4.0735,-0.5300948821122373,-0.5489352393783931
-4.073,-0.1352984123783387,-0.1038764263617657
-4.0725,0.1101156093487211,0.1504428953626575
-4.072,0.2274875327832301,0.2458126410091644
-4.0715,0.259498057356249,0.2458126410091644
-4.071,0.2594980573562684,0.2034260873884561
-4.0705,0.2488278824985954,0.1610395337678249
-4.07,0.2274875327832495,0.1186529801471937
-4.0695,0.2061471830678551,0.1080563417419974
-4.069,0.1954770082101822,0.1186529801471552
-4.0685,0.1954770082101822,0.13984625695749
-4.068,0.06743490991765085,0.002089957689802629
-4.0675,-0.3060212101009019,-0.5595318777835605
-4.067,-0.5834457564006506,-1.163540266878104
-4.0665,-0.7755089038386956,-1.311893204549976
-4.066,-0.5087545323968721,-0.792657922697244
-4.0655,-0.02859666380115328,-0.2628260024388724
-4.065,0.3341892813597266,0.1610395337674394
-4.0645,0.5049120790829789,0.4259554938970107
-4.064,0.5155822539406614,0.5955017083796896
-4.0635,0.4729015545099697,0.7120647308364254
-4.063,0.3875401556484697,0.7756445612674782
-4.0625,0.3875401556484697,0.7120647308365314
-4.062,0.4195506802214886,0.627291623595269
-4.0615,0.3768699807907386,0.6484849004055654
-4.061,0.3235191065023739,0.6908714540261965
-4.0605,0.2701682322139607,0.7226613692416989
-4.06,0.2274875327829875,0.7226613692414386
-4.0595,-0.03926683865883591,0.4365521323021782
-4.059,-0.423393133535411,-0.1992461720078678
-4.0585,-0.8181896032693097,-0.9092209451534401
-4.058,-1.138294849000148,-1.417859588602123
-4.0575,-0.9995825758502737,-1.216523458903942
-4.057,-0.6047861061163748,-0.6760949002408938
-4.0565,-0.2206598112394408,-0.1780528951975329
-4.056,0.04609456020262521,0.13984625695749
-4.0555,0.1848068333523734,0.298795833034857
-4.055,0.2488278824986051,0.3305857482504749
-4.0545,0.2594980573562781,0.2987958330350016
-4.054,0.2488278824986051,0.2564092794143703
-4.0535,0.2274875327832204,0.2140227257936332
-4.053,0.2168173579255475,0.1822328105781598
-4.0525,0.2061471830678648,0.1716361721729923
-4.052,0.1954770082102404,0.1822328105782272
-4.0515,0.2594980573562781,0.2564092794143318
-4.051,0.6116138276598051,0.457745409112513
-4.0505,0.5262524287984217,0.02328323450104341
-4.05,0.1741366584948169,-0.570128516188728
-4.0495,0.1101156093487211,-0.5595318777835605
-4.049,0.3021787567868339,-0.2416327256288267
-4.0485,0.4622313796522967,0.1398462569577792
-4.048,0.5155822539406614,0.457745409112513
-4.0475,0.4729015545099697,0.6590815388105111
-4.047,0.3982103305060942,0.7332580076468856
-4.0465,0.3341892813600565,0.7544512844572011
-4.046,0.3128489316447107,0.7862411996726746
-4.0455,0.3448594562177392,0.8604176685088755
-4.045,0.3448594562177392,0.8604176685088755
-4.0445,0.3128489316446912,0.8074344764830383
-4.044,0.2808384070716336,0.7438546460519856
-4.0435,0.2701682322139607,0.6908714540261965
-4.043,0.0674349099179905,0.5743084315693548
-4.0425,-0.5300948821116939,-0.05089323433495507
-4.042,-0.9995825758502737,-0.8456411147230812
-4.0415,-1.298347471865388,-1.163540266878104
-4.041,-1.244996597577023,-0.8562377531285281
-4.0405,-0.8075194284115784,-0.4853554089471283
-4.04,-0.3593720843893152,-0.1992461720078678
-4.0395,-0.02859666380145409,-0.01910331912018529
-4.039,0.1527963087795293,0.06566978812134693
-4.0385,0.2381577076409128,0.09745970333682032
-4.038,0.2594980573562586,0.1080563417419781
-4.0375,0.248827882498576,0.1292496185523419
-4.037,0.2274875327832301,0.1504428953626575
-4.0365,0.2168173579255475,0.1928294489833272
-4.036,0.1954770082101822,0.2458126410092319
-4.0355,0.1954770082101822,0.3199891098453364
-4.035,0.1741366584948169,0.3941655786815084
-4.0345,-0.1566387620930442,0.1928294489835103
-4.034,-0.6047861061160158,-0.4535654937318862
-4.0335,-0.8181896032696687,-1.05757388282643
-4.033,-0.6688071552622477,-1.015187329205799
-4.0325,-0.1566387620929374,-0.4747587705417199
-4.032,0.291508581929326,0.07626642652648545
-4.0315,0.5475927785134764,0.5001319627327973
-4.031,0.5902734779443913,0.7226613692417856
-4.0305,0.5369226036560266,0.8180311148882058
-4.03,0.4408910299369703,0.8392243916985213
-4.0295,0.3555296310756159,0.8074344764828071
-4.029,0.5689331282290746,0.55311515475902
-4.0285,0.6756348768059011,0.4259554938970107
-4.028,0.590273477944304,0.5001319627332792
-4.0275,0.4408910299368829,0.6060983467848571
-4.027,0.3128489316446912,0.6802748156210291
-4.0265,0.1741366584949431,0.7120647308365026
-4.026,-0.3060212101009019,0.4471487707073456
-4.0255,-0.8288597781273515,-0.2734226408440398
-4.025,-1.14896502385754,-1.036380606015401
-4.0245,-1.202315898145904,-1.311893204550111
-4.024,-0.8288597781273515,-0.9410108603695881
-4.0235,-0.4020527838204339,-0.4535654937323295
-4.023,-0.06060718837402651,-0.08268314955083329
-4.0225,0.1314559590640864,0.1292496185523226
-4.022,0.2274875327831428,0.1928294489832694
-4.0215,0.2488278824985954,0.1716361721729538
-4.021,0.2488278824985954,0.1292496185523226
-4.0205,0.2274875327832301,0.07626642652648545
-4.02,0.2168173579255281,0.04447651131096388
-4.0195,0.1954770082101822,0.02328323450064829
-4.019,0.1848068333524996,0.03387987290581572
-4.0185,0.1848068333524996,0.0656697881212891
-4.018,0.03542438534494258,-0.008506680714854012
-4.0175,-0.5300948821122373,-0.5065486857577234
-4.017,-0.9248913518461361,-1.131750351662033
-4.0165,-0.9889124009922127,-1.545019249463843
-4.016,-0.572775581542968,-1.227120097309109
-4.0155,0.03542438534438941,-0.591321792999641
-4.015,0.4729015545100571,-0.008506680714516697
-4.0145,0.6116138276598051,0.3623756634660061
-4.014,0.5582629533714406,0.6166949851897932
-4.0135,0.4515612047944783,0.754451284457259
-4.013,0.3555296310754218,0.8180311148882058
-4.0125,0.3982103305061524,0.7226613692416989
-4.012,0.5475927785136705,0.5319218779486947
-4.0115,0.5049120790829789,0.5425185163538525
-4.011,0.408880505363835,0.6166949851900245
-4.0105,0.3128489316447786,0.6802748156209713
-4.01,0.2594980573562781,0.6908714540261965
-4.0095,-0.06060718837420119,0.5425185163538525
-4.009,-0.764838728980615,-0.02969995752466836
-4.0085,-1.180975548431063,-0.8138511995080994
-4.008,-1.383708870726849,-1.38606967338662
-4.0075,-1.106284324427352,-1.237716735714411
-4.007,-0.6261264558310028,-0.7184814538606479
-4.0065,-0.2099896363817582,-0.252229364033705
-4.006,0.0674349099179905,0.05507314971615059
-4.0055,0.2061471830679037,0.1928294489833465
-4.005,0.2488278824985954,0.2140227257936621
-4.0045,0.2594980573562781,0.1822328105781598
-4.004,0.248827882498576,0.1292496185522744
-4.0035,0.2274875327832301,0.07626642652648545
-4.003,0.2061471830678648,0.04447651131098315
-4.0025,0.1954770082101919,0.04447651131098315
-4.002,0.1848068333524996,0.07626642652648545
-4.0015,0.05676473506030786,0.02328323450064829
-4.001,-0.466073832965666,-0.4747587705417681
-4.0005,-0.7541685541236894,-1.078767159637198
-4,-0.8822106524157645,-1.555615887869299
-3.9995,-0.722158029550525,-1.417859588602123
-3.999,-0.1673089369510276,-0.7502713690765743
-3.9985,0.3128489316446912,-0.1038764263613609
-3.998,0.5475927785137094,0.383568940276341
-3.9975,0.5689331282290746,0.6696781772158616
-3.997,0.5049120790829789,0.8074344764830383
-3.9965,0.408880505363835,0.8392243916985406
-3.996,0.3661998059331045,0.8286277532933731
-3.9955,0.5049120790829789,0.8392243916985406
-3.995,0.5155822539406614,0.7968378380778709
-3.9945,0.4302208550792003,0.701468092431364
-3.994,0.3448594562177392,0.6166949851900245
-3.9935,0.2701682322139607,0.55311515475902
-3.993,0.01408403562957729,0.627291623595192
-3.9925,-0.6688071552621118,0.4047622170866759
-3.992,-1.074273799854052,-0.3370024712750445
-3.9915,-1.244996597576974,-1.078767159636765
-3.991,-1.084943974711735,-1.205926820498774
-3.9905,-0.658136980404429,-0.7820612842920766
-3.99,-0.2526703358124887,-0.2840192792492073
-3.9895,0.02475421048725994,0.08686306493165288
-3.989,0.1848068333524996,0.2987958330350016
-3.9885,0.2488278824985954,0.383568940276341
-3.988,0.2594980573562781,0.383568940276341
-3.9875,0.2488278824985954,0.3623756634660061
-3.987,0.2274875327832301,0.3199891098453364
-3.9865,0.2061471830678648,0.2881991946298341
-3.986,0.1954770082101822,0.2776025562246667
-3.9855,0.1848068333524996,0.2776025562246667
-3.985,0.1848068333524996,0.2776025562246667
-3.9845,-0.09261771294724913,-0.01910331912002144
-3.984,-0.7328282044082075,-0.6866915386455698
-3.9835,-1.212986073003927,-1.301296566145281
-3.983,-1.341028171296118,-1.492036057438295
-3.9825,-0.7648387289812555,-0.9939940523954253
-3.982,-0.09261771294724913,-0.3581957480853793
-3.9815,0.3555296310754218,0.1610395337678249
-3.981,0.5262524287983441,0.5107286011383502
-3.9805,0.5369226036560266,0.6802748156210291
-3.98,0.4622313796522482,0.7226613692416989
-3.9795,0.3875401556484697,0.701468092431364
-3.979,0.5475927785137094,0.5319218779486851
-3.9785,0.6222840025174878,0.457745409112513
-3.978,0.5369226036560266,0.4789386859228479
-3.9775,0.408880505363835,0.5213252395435176
-3.977,0.3128489316446912,0.5425185163538525
-3.9765,0.2274875327832301,0.4153588554918433
-3.976,-0.1993194615240755,-0.2204394488182027
-3.9755,-0.6794773301197943,-0.9728007755850904
-3.975,-0.9782422261349084,-1.587405803084801
-3.9745,-0.9675720512772257,-1.587405803084801
-3.974,-0.6367966306890638,-0.9728007755850904
-3.9735,-0.274010685527854,-0.3793890248957141
-3.973,0.00341386077189465,0.03387987290581572
-3.9725,0.1634664836371343,0.2564092794143318
-3.972,0.2381577076409128,0.3305857482505039
-3.9715,0.2488278824985954,0.3305857482505039
-3.971,0.2381577076409128,0.2881991946298341
-3.9705,0.2274875327832301,0.2352160026039969
-3.97,0.2168173579255475,0.2034260873884947
-3.9695,0.2061471830678648,0.1928294489833272
-3.969,0.1954770082101822,0.2034260873884947
-3.9685,0.1848068333524996,0.2246193641988295
-3.968,-0.03926683865883591,-0.01910331912002144
-3.9675,-0.7008176798351597,-0.6443049850249
-3.967,-1.095614149569417,-1.258910012524611
-3.9665,-0.9035510021311299,-1.290699927740113
-3.966,-0.2206598112394408,-0.7290780922662394
-3.9655,0.3341892813600565,-0.2204394488182027
-3.965,0.6329541773751706,0.1610395337678249
-3.9645,0.6756348768059011,0.4047622170866759
-3.964,0.5902734779444399,0.5319218779486851
-3.9635,0.4729015545099309,0.627291623595192
-3.963,0.3661998059331045,0.6590815388106942
-3.9625,0.4302208550792003,0.7544512844572011
-3.962,0.5475927785137094,0.775644561267536
-3.9615,0.4942419042252961,0.7544512844572011
-3.961,0.3982103305061524,0.7226613692416989
-3.9605,0.3128489316446912,0.701468092431364
-3.96,0.2168173579255475,0.7120647308365314
-3.9595,-0.2206598112394408,0.9345941373450475
-3.959,-0.807519428411986,0.6484849004055269
-3.9585,-1.138294849000148,-0.2098428104130352
-3.958,-1.287677297007705,-0.9410108603695881
-3.9575,-0.9995825758502737,-0.9304142219644207
-3.957,-0.5407650569699201,-0.5171453241628908
-3.9565,-0.1673089369510276,-0.09327978795619347
-3.956,0.08877525963335578,0.2140227257936621
-3.9555,0.2061471830678648,0.383568940276341
-3.955,0.2594980573562781,0.4471487707073456
-3.9545,0.2594980573562781,0.457745409112513
-3.954,0.2381577076409128,0.4259554938970107
-3.9535,0.2274875327832301,0.3941655786815084
-3.953,0.2061471830678648,0.3623756634660061
-3.9525,0.2061471830678648,0.3517790250608387
-3.952,0.1954770082101822,0.3517790250608387
-3.9515,0.1207857842064037,0.3305857482505039
-3.951,-0.3593720843893152,-0.1674562567923655
-3.9505,-0.6474668055467465,-0.8774310299385835
-3.95,-0.754168554123573,-1.269506650929778
-3.9495,-0.4980843575391895,-0.9516074987747555
-3.949,-0.01792648894347063,-0.4959520473525559
-3.9485,0.3341892813600565,-0.1144730647665284
-3.948,0.4835717293676135,0.1080563417419877
-3.9475,0.5049120790829789,0.2140227257936621
-3.947,0.4622313796522482,0.2670059178194992
-3.9465,0.3875401556484697,0.2776025562246667
-3.946,0.3768699807907871,0.2881991946298341
-3.9455,0.4408910299368829,0.3199891098453364
-3.945,0.4195506802215176,0.3305857482505039
-3.9445,0.3448594562177392,0.3411823866556712
-3.944,0.291508581929326,0.3729723018711736
-3.9435,0.2488278824985954,0.4259554938970107
-3.943,0.1634664836371343,0.5213252395435176
-3.9425,-0.124628237520297,0.5319218779486851
-3.942,-0.4874141826815069,-0.09327978795619347
-3.9415,-0.7434983792658902,-0.5065486857577234
-3.941,-0.807519428411986,-0.4535654937318862
-3.9405,-0.5407650569699201,-0.1992461720078678
-3.94,-0.2313299860971235,0.09745970333682032
-3.9395,0.01408403562957729,0.3305857482505039
-3.939,0.1527963087794516,0.4895353243280153
-3.9385,0.2168173579255475,0.5849050699745222
-3.938,0.2381577076409128,0.6378882620003594
-3.9375,0.2381577076409128,0.6802748156210291
-3.937,0.2274875327832301,0.701468092431364
-3.9365,0.2061471830678648,0.7120647308365314
-3.936,0.1954770082101822,0.7226613692416989
-3.9355,0.1954770082101822,0.7332580076468663
-3.935,0.1207857842064037,0.6590815388106942
-3.9345,-0.3700422592469978,0.09745970333682032
-3.934,-0.7861790786966207,-0.6019184314042303
-3.9335,-1.052933450138687,-1.216523458903942
-3.933,-1.020922925565639,-1.396666311791788
-3.9325,-0.5194247072545548,-0.9092209451540858
-3.932,0.01408403562957729,-0.3370024712750445
-3.9315,0.3661998059331045,0.1292496185523226
-3.931,0.4942419042252961,0.3623756634660061
-3.9305,0.4942419042252961,0.3941655786815084
-3.93,0.4302208550792003,0.3305857482505039
-3.9295,0.3768699807907871,0.2246193641988295
-3.929,0.5155822539406614,0.02328323450064829
-3.9285,0.5582629533713921,-0.02969995752518888
-3.928,0.4835717293676135,0.03387987290581572
-3.9275,0.3768699807907871,0.1186529801471552
-3.927,0.3021787567870086,0.2140227257936621
-3.9265,0.1634664836371343,0.2881991946298341
-3.926,-0.4447334832507763,-0.2098428104130352
-3.9255,-0.9569018764195432,-0.9304142219644207
-3.925,-1.298347471865388,-1.545019249464132
-3.9245,-1.341028171296118,-1.619195718300304
-3.924,-0.9142211769888124,-0.9833974139902578
-3.9235,-0.4340633083930936,-0.3158091944647096
-3.923,-0.07127736323188383,0.1928294489833272
-3.9225,0.142126133921769,0.5001319627331828
-3.922,0.2381577076409128,0.6378882620003594
-3.9215,0.2701682322139607,0.6696781772158616
-3.921,0.2594980573562781,0.6590815388106942
-3.9205,0.2381577076409128,0.6166949851900245
-3.92,0.2168173579255475,0.5743084315693548
-3.9195,0.2061471830678648,0.5425185163538525
-3.919,0.1954770082101822,0.5107286011383502
-3.9185,0.1848068333524996,0.4789386859228479
-3.918,0.0674349099179905,0.4153588554918433
-3.9175,-0.4447334832507763,-0.01910331912002144
-3.917,-1.052933450138687,-0.7396747306714069
-3.9165,-1.191645723288561,-1.078767159636765
-3.916,-0.6794773301197943,-0.8244478379127463
-3.9155,-0.07127736323188383,-0.3793890248957141
-3.915,0.3235191065023739,0.01268659609548085
-3.9145,0.4942419042252961,0.1928294489833272
-3.914,0.5155822539406614,0.2564092794143318
-3.9135,0.4515612047945656,0.2670059178194992
-3.913,0.3661998059331045,0.2352160026039969
-3.9125,0.3875401556484697,0.1080563417419877
-3.912,0.4942419042252961,-0.008506680714854012
-3.9115,0.4622313796522482,0.04447651131098315
-3.911,0.3768699807907871,0.1610395337678249
-3.9105,0.3021787567870086,0.2776025562246667
-3.91,0.2381577076409128,0.3517790250608387
-3.9095,-0.124628237520297,0.1716361721729923
-3.909,-0.7114878546928423,-0.4217755785163839
-3.9085,-1.074273799854052,-1.078767159636765
-3.908,-1.191645723288561,-1.38606967338662
-3.9075,-0.8715404775580819,-0.9622041371799229
-3.907,-0.4340633083930936,-0.326405832869877
-3.9065,-0.09261771294724913,0.2034260873884947
-3.906,0.1207857842064037,0.5425185163538525
-3.9055,0.2274875327832301,0.701468092431364
-3.905,0.2594980573562781,0.7544512844572011
-3.9045,0.2488278824985954,0.7332580076468663
-3.904,0.2381577076409128,0.6908714540261965
-3.9035,0.2274875327832301,0.627291623595192
-3.903,0.2061471830678648,0.5637117931641874
-3.9025,0.1954770082101822,0.5107286011383502
-3.902,0.1954770082101822,0.4683420475176805
-3.9015,0.08877525963335578,0.2881991946298341
-3.901,-0.4447334832507763,-0.3158091944647096
-3.9005,-0.7861790786966207,-1.036380606016095
-3.9,-0.9248913518464952,-1.566212526274467
-3.8995,-0.7114878546928423,-1.42845622700729
-3.899,-0.124628237520297,-0.8456411147230812
-3.8985,0.3661998059331045,-0.2946159176543747
-3.898,0.6222840025174878,0.05507314971615059
-3.8975,0.6436243522328531,0.1822328105781598
-3.897,0.5475927785137094,0.1822328105781598
-3.8965,0.4302208550792003,0.1822328105781598
-3.896,0.408880505363835,0.1292496185523226
-3.8955,0.5902734779444399,-0.008506680714854012
-3.895,0.5796033030867573,0.03387987290581572
-3.8945,0.4835717293676135,0.13984625695749
-3.894,0.3768699807907871,0.2458126410091644
-3.8935,0.291508581929326,0.2881991946298341
-3.893,0.04609456020262521,0.13984625695749
-3.8925,-0.5621054066852853,-0.2628260024388724
-3.892,-0.9355615267041777,-0.9092209451540858
-3.8915,-1.351698346153801,-1.502632695843462
-3.891,-1.533091318734406,-1.682775548731308
-3.8905,-1.116954499284783,-1.078767159636765
-3.89,-0.5834457564006506,-0.3899856633008816
-3.8895,-0.156638762093345,0.1610395337678249
-3.889,0.1101156093487211,0.5001319627331828
-3.8885,0.2274875327832301,0.6590815388106942
-3.888,0.2701682322139607,0.701468092431364
-3.8875,0.2701682322139607,0.6908714540261965
-3.887,0.2488278824985954,0.6590815388106942
