Class_6_Listen_To_Quran/Class_6_Listen_To_quran_Zakour_1_.csv

#Digilent WaveForms Oscilloscope Acquisition
#Device Name: EExplorer
#Serial Number: SN:210151A2B84A
#Date Time: 2020-10-20 13:11:04.093
#Sample rate: 2000Hz
#Samples: 16384
#Trigger: Source: Channel 1 Type: Edge Condition: Rising Level: 0 V Hyst.: Auto HoldOff: 0 s
#Channel 1: Range: 1 V/div Offset: 0 V
#Channel 2: Range: 1 V/div Offset: 0 V

Time (s),Channel 1 (V),Channel 2 (V)
-4.0960000000000001,-0.43406330839309365,0.11865298014715518
-4.0955000000000004,-0.41272295867774778,0.044476511311050612
-4.0949999999999998,-0.49808435753922831,0.18223281057823687
-4.0945,-0.54076505696992005,0.26700591781949923
-4.0940000000000003,-0.53009488211224698,0.15044289536276351
-4.0934999999999997,-1.0209229255657069,-0.49595204735248849
-4.093,-1.0956141495694174,-0.42177557851638392
-4.0925000000000002,-1.4263895701572784,0.36237566346529293
-4.0919999999999996,-2.1306211107645949,1.2736865663105403
-4.0914999999999999,-2.0879404113339031,1.4220395039827496
-4.0910000000000002,-1.2983474718653876,0.66967817721586165
-4.0904999999999996,-0.0072563140849048807,-0.67609490024121188
-4.0899999999999999,0.96372959796333246,-1.5662125262744668
-4.0895000000000001,1.0170804722517455,-1.3224898429556156
-4.0890000000000004,0.66496470194853852,-0.61251506981004333
-4.0884999999999998,0.28083840707164331,0.086863064931652884
-4.0880000000000001,-0.0072563140857879876,0.60609834678485708
-4.0875000000000004,-0.15663876209320909,0.93459413734474872
-4.0869999999999997,-0.23132998609714286,1.1147369902329327
-4.0865,-0.25267033581248871,1.1571235438535634
-4.0860000000000003,-0.20998963638179696,1.0299638829916702
-4.0854999999999997,-0.10328788780466973,0.79683783807741793
-4.085,0.18480683335249956,0.29879583303500157
-4.0845000000000002,0.53692260365570632,-0.23103608722288826
-4.0839999999999996,1.1557927454021633,-0.95160749877536266
-4.0834999999999999,1.7533225374318477,-1.6191957183003036
-4.0830000000000002,2.1054383077353749,-2.043061254507001
-4.0824999999999996,1.710641838000438,-1.6827755487306337
-4.0819999999999999,0.96372959796333246,-0.94101086036958814
-4.0815000000000001,0.29150858192932599,-0.26282600243887239
-4.0810000000000004,-0.14596858723526446,0.17163617217259725
-4.0804999999999998,-0.35937208438931517,0.33058574825050385
-4.0800000000000001,-0.43406330839309365,0.33058574825050385
-4.0795000000000003,-0.42339313353542068,0.24581264100924149
-4.0789999999999997,-0.4020527838201719,0.17163617217309837
-4.0785,-0.54076505696992005,0.28819919462983412
-4.0780000000000003,-0.80751942841174329,0.55311515475877904
-4.0774999999999997,-0.76483872898128458,0.4577454091121661
-4.077,-0.79684925355430347,0.076266426526485451
-4.0765000000000002,-1.1703053735728561,-0.60191843140361345
-4.0759999999999996,-0.90355100213065442,-0.4323722169211176
-4.0754999999999999,-0.38071243410468042,0.044476511310983152
-4.0750000000000002,0.6116138276598051,-0.30521255605954212
-4.0744999999999996,1.4012067671286603,-0.64430498502433131
-4.0739999999999998,1.774662887147213,-0.019103319120021445
-4.0735000000000001,1.9880663843008659,0.23521600260399694
-4.0730000000000004,1.5505892151362755,0.11865298014726119
-4.0724999999999998,0.857027849386506,0.10805634174198775
-4.0720000000000001,0.28083840707164331,0.19282944898332721
-4.0715000000000003,-0.081947538089236494,0.31998910984522078
-4.0709999999999997,-0.25267033581253723,0.47893868592299244
-4.0705,-0.30602121010090194,0.63788826200035942
-4.0700000000000003,-0.29535103524322903,0.75445128445709508
-4.0694999999999997,-0.22065981123922734,0.70146809243107489
-4.069,0.014084035629577295,0.38356894027634103
-4.0685000000000002,0.17413665849481691,0.15044289536265748
-4.0679999999999996,0.36619980593363821,-0.13566634157738361
-4.0674999999999999,0.95305942310564973,-0.70788481545590454
-4.0670000000000002,1.625280439139656,-1.2801032893349458
-4.0664999999999996,1.9240453351544886,-1.6085990798948084
-4.0659999999999998,1.6146102642819735,-1.2483133741194434
-4.0655000000000001,0.92104889853260175,-0.4535654937318862
-4.0650000000000004,0.28083840707222563,0.25640927941368613
-4.0644999999999998,-0.16730893695102761,0.66967817721586165
-4.0640000000000001,-0.39138260896236304,0.7968378380778709
-4.0635000000000003,-0.46607383296607358,0.72266136924176638
-4.0629999999999997,-0.45540365810844918,0.5849050699744065
-4.0625,-0.44473348325077627,0.45774540911251305
-4.0620000000000003,-0.46607383296612209,0.39416557868156626
-4.0614999999999997,-0.6794773301198137,0.54251851635381398
-4.0609999999999999,-0.70081767983515975,0.50013196273318283
-4.0605000000000002,-0.61545628097369853,0.35177902506083869
-4.0599999999999996,-0.86087030270063214,-0.18864953360308587
-4.0594999999999999,-1.1169544992847826,-0.61251506980939763
-4.0590000000000002,-0.57277558154296804,0.076266426526485451
-4.0585000000000004,0.13145595906344587,0.83922439169784668
-4.0579999999999998,0.95305942310564973,0.5637117931641874
-4.0575000000000001,1.4865681659897818,0.52132523954351762
-4.0570000000000004,1.9347155100120452,-0.14626297998142346
-4.0564999999999998,1.8920348105817222,-0.86683439153341613
-4.056,1.2624944939784462,-0.77146464588690922
-4.0555000000000003,0.5796033030873784,-0.3264058328702818
-4.0549999999999997,0.088775259633103468,0.13984625695782735
-4.0545,-0.18864928666639288,0.51072860113835017
-4.0540000000000003,-0.30602121010079519,0.75445128445697951
-4.0534999999999997,-0.31669138495855548,0.90280422212956457
-4.0529999999999999,-0.28468086038553664,0.92399749893988004
-4.0525000000000002,-0.22065981123944084,0.81803111488820579
-4.0519999999999996,-0.12462823752013205,0.61669498518971611
-4.0514999999999999,0.05676473506030786,0.27760255622466667
-4.0510000000000002,0.63295417737517057,-0.41117894011121647
-4.0505000000000004,1.3478558928392572,-1.1953301820928934
-4.0499999999999998,1.9240453351547699,-1.7993385711881502
-4.0495000000000001,2.0307470837315966,-1.9053049552398247
-4.0490000000000004,1.422547116844239,-1.1529436284736212
-4.0484999999999998,0.6436243522322902,-0.24163272562795929
-4.048,0.024754210487259936,0.39416557868150842
-4.0475000000000003,-0.31669138495827404,0.63788826200013782
-4.0469999999999997,-0.4447334832507957,0.62729162359508595
-4.0465,-0.46607383296614152,0.51072860113835017
-4.0460000000000003,-0.4447334832507957,0.37297230187129887
-4.0454999999999997,-0.43406330839328772,0.2987958330351847
-4.0449999999999999,-0.64746680554674652,0.50013196273318283
-4.0445000000000002,-0.77550890383893822,0.58490506997452218
-4.0439999999999996,-0.67947733011966815,0.42595549389683723
-4.0434999999999999,-0.54076505696992005,0.23521600260399694
-4.0430000000000001,-0.43406330839309365,0.11865298014715518
-4.0425000000000004,-1.0849439747111429,0.097459703336839593
-4.0419999999999998,-2.2266526844837773,0.50013196273318283
-4.0415000000000001,-2.4827368810681607,1.0935437134225592
-4.0410000000000004,-1.9492281381845142,1.1889134590689789
-4.0404999999999998,-0.57277558154184227,1.6021823568706151
-4.04,0.66496470194821833,1.6233756336809306
-4.0395000000000003,0.84635767452865829,1.040560521397252
-4.0389999999999997,0.5689331282287543,0.52132523954326704
-4.0385,0.21681735792554749,0.24581264100916439
-4.0380000000000003,-0.049937013516275913,0.1928294489833754
-4.0374999999999996,-0.20998963638181639,0.29879583303517504
-4.0369999999999999,-0.27401068552785401,0.48953532432801533
-4.0365000000000002,-0.27401068552785401,0.69087145402619654
-4.0359999999999996,-0.24200016095468962,0.8604176685087791
-4.0354999999999999,-0.11395806266261441,0.75445128445720111
-4.0350000000000001,0.08877525963335578,0.50013196273318283
-4.0345000000000004,0.50491207908260038,0.023283234501081995
-4.0339999999999998,1.2198137945477157,-0.63370834661973252
-4.0335000000000001,1.8920348105817222,-1.1847335436884392
-4.0330000000000004,2.1694593568812186,-1.3860696733864371
-4.0324999999999998,1.6146102642812457,-0.76086800748104788
-4.032,0.81434714995577528,0.0020899576903134209
-4.0315000000000003,0.14212613392238038,0.62729162359462332
-4.0309999999999997,-0.28468086038570162,0.90280422212955491
-4.0305,-0.46607383296614152,0.9134008605347127
-4.0300000000000002,-0.50875453239683321,0.75445128445734566
-4.0294999999999996,-0.47674400782380483,0.55311515475888506
-4.0289999999999999,-0.4554036581084589,0.40476221708667587
-4.0285000000000002,-0.54076505696992005,0.38356894027634103
-4.0279999999999996,-0.67947733011977485,0.42595549389689508
-4.0274999999999999,-0.65813698040442903,0.29879583303500157
-4.0270000000000001,-0.55143523182760279,0.12924961855232261
-4.0265000000000004,-0.46607383296621918,0.012686596095586866
-4.0259999999999998,-0.65813698040442903,0.30939247144016896
-4.0255000000000001,-1.3090176467230703,1.0511571598018894
-4.0250000000000004,-2.183971985052251,1.2948798431205186
-4.0244999999999997,-2.3013439084861878,0.31998910984424733
-4.024,-0.79684925355430347,-0.87743102993858346
-4.0235000000000003,0.51558225393946766,-1.8523217632131008
-4.0229999999999997,0.87836819910174513,-1.6403889951098869
-4.0225,0.73965592595199681,-0.81385119950757889
-4.0220000000000002,0.37686998079111705,-0.072086511146533305
-4.0214999999999996,0.014084035629383205,0.42595549389729981
-4.0209999999999999,-0.19931946152407554,0.74385464605203377
-4.0205000000000002,-0.29535103524321932,0.9134008605347127
-4.0199999999999996,-0.31669138495853605,0.99817396777598455
-4.0194999999999999,-0.26334051067017139,0.92399749893988004
-4.0190000000000001,-0.15663876209334496,0.74385464605203377
-4.0185000000000004,-0.07127736323196146,0.5319218779488778
-4.0179999999999998,0.11011560934872107,0.17163617217299235
-4.0175000000000001,0.70764540137894905,-0.65490162343006741
-4.0170000000000003,1.4758979911314003,-1.5450192494633224
-4.0164999999999997,2.0734277831621428,-2.1702209153687115
-4.016,1.8706944608663567,-1.84172512480882
-4.0155000000000003,1.0917716962562323,-0.95160749877556505
-4.0149999999999997,0.35552963107496566,-0.26282600243851578
-4.0145,-0.14596858723566233,0.12924961855232261
-4.0140000000000002,-0.39138260896213983,0.23521600260390058
-4.0134999999999996,-0.46607383296613181,0.19282944898325974
-4.0129999999999999,-0.4554036581084589,0.11865298014715518
-4.0125000000000002,-0.44473348325077627,0.086863064931652884
-4.0119999999999996,-0.47674400782409598,0.15044289536296587
-4.0114999999999998,-0.77550890383893822,0.48953532432801533
-4.0110000000000001,-0.81818960326966872,0.54251851635385251
-4.0105000000000004,-0.6794773301199204,0.41535885549195894
-4.0099999999999998,-0.53009488211223732,0.29879583303500157
-4.0095000000000001,-0.41272295867772835,0.27760255622466667
-4.0090000000000003,-0.32736155981634485,0.44714877070719139
-4.0084999999999997,0.15279630878012124,0.1822328105776008
-4.008,0.88903837395955376,-0.43237221692155131
-4.0075000000000003,1.1237822208283585,-0.25222936403386886
-4.0069999999999997,1.03842082196713,0.033879872906239776
-4.0065,1.0597611716824762,0.50013196273318283
-4.0060000000000002,0.62228400251748783,0.4471487707073456
-4.0054999999999996,0.15279630877924785,0.27760255622468594
-4.0049999999999999,-0.071277363231883828,0.29879583303500157
-4.0045000000000002,-0.20998963638175816,0.34118238665567124
-4.0039999999999996,-0.32736155981629633,0.3835689402764374
-4.0034999999999998,-0.35937208438931517,0.48953532432801533
-4.0030000000000001,-0.33803173467394987,0.60609834678485708
-4.0025000000000004,-0.2313299860972205,0.57430843156938371
-4.0019999999999998,-0.11395806266261441,0.50013196273318283
-4.0015000000000001,0.067434909917990504,0.28819919462983412
-4.0010000000000003,0.62228400251698324,-0.32640583286931801
-4.0004999999999997,1.3798664174135182,-1.0893637980424622
-4,1.9987365591585484,-1.6721789103261409
-3.9994999999999998,2.1801295317391536,-1.8735150400243223
-3.9990000000000001,1.6039400894242908,-1.2483133741194434
-3.9984999999999999,0.80367697509809277,-0.27342264084403983
-3.9980000000000002,0.15279630877945163,0.47893868592284788
-3.9975000000000001,-0.23132998609712346,0.90280422212954525
-3.9969999999999999,-0.41272295867772835,1.0405605213967219
-3.9965000000000002,-0.4554036581084589,0.97698069096571727
-3.996,-0.44473348325077627,0.83922439169854057
-3.9954999999999998,-0.43406330839309365,0.68027481562102909
-3.9950000000000001,-0.65813698040442903,0.74385464605203377
-3.9944999999999999,-0.80751942841198598,0.70146809243136399
-3.9940000000000002,-0.73282820440820751,0.42595549389701071
-3.9935,-0.59411593125833329,0.15044289536265748
-3.9929999999999999,-0.4980843575391895,0.0020899576903134209
-3.9925000000000002,-0.74349837926589024,0.34118238665567124
-3.992,-1.405049220442214,1.0299638829915545
-3.9914999999999998,-1.5971123678805015,1.2101067358794007
-3.9910000000000001,-0.86087030270039921,0.41535885549184332
-3.9904999999999999,0.29150858192932599,-0.68669153864556975
-3.9900000000000002,0.41955068022151765,-1.6615822719209734
-3.9895,0.34485945621773917,-1.3436831197659505
-3.9889999999999999,0.08877525963335578,-0.71848145386107198
-3.9885000000000002,-0.10328788780493176,-0.10387642636136091
-3.988,-0.15663876209334496,0.42595549389701071
-3.9874999999999998,-0.24200016095480609,0.66967817721586165
-3.9870000000000001,-0.30602121010090194,0.775644561267536
-3.9864999999999999,-0.30602121010090194,0.7968378380778709
-3.9860000000000002,-0.27401068552785401,0.73325800764686633
-3.9855,-0.18864928666639288,0.57430843156935485
-3.9849999999999999,-0.10328788780493176,0.40476221708667587
-3.9845000000000002,0.23815770764091276,-0.050893234335523743
-3.984,1.0170804722517455,-0.89862430674891836
-3.9834999999999998,1.7853330620048957,-1.6721789103261409
-3.9830000000000001,2.2228102311698841,-2.159624276963843
-3.9824999999999999,1.8280137614356262,-1.7357587407571455
-3.9820000000000002,1.0277506471094282,-0.81385119950757889
-3.9815,0.31284893164469124,-0.04029659593035631
-3.9809999999999999,-0.14596858723566233,0.35177902506083869
-3.9805000000000001,-0.38071243410468042,0.46834204751768049
-3.98,-0.4554036581084589,0.43655213230217815
-3.9794999999999998,-0.4554036581084589,0.36237566346600614
-3.9790000000000001,-0.44473348325077627,0.29879583303500157
-3.9784999999999999,-0.5621054066852853,0.38356894027634103
-3.9780000000000002,-0.8502001278427167,0.64848490040552687
-3.9775,-0.81818960326966872,0.58490506997452218
-3.9769999999999999,-0.69014750497747701,0.4471487707073456
-3.9765000000000001,-0.6047861061160158,0.41535885549184332
-3.976,-0.58344575640065055,0.35177902506083869
-3.9754999999999998,-0.8928808272734472,0.29879583303500157
-3.9750000000000001,-0.017926488943470625,0.81803111488820579
-3.9744999999999999,0.81434714995577528,0.28819919462983412
-3.9740000000000002,0.19547700821018218,-0.82444783791274634
-3.9735,-0.96757205127722568,-1.7251621023519781
-3.9729999999999999,-1.373038695869166,-1.650985633515806
-3.9725000000000001,-1.2449965975769743,-0.99399405239542526
-3.972,-0.92489135184649518,-0.26282600243887239
-3.9714999999999998,-0.61545628097369853,0.29879583303500157
-3.9710000000000001,-0.40205278382004572,0.66967817721586165
-3.9704999999999999,-0.28468086038553664,0.88161094531921036
-3.9700000000000002,-0.22065981123944084,0.97698069096571727
-3.9695,-0.16730893695102761,0.93459413734504748
-3.9689999999999999,-0.10328788780493176,0.74385464605203377
-3.9685000000000001,0.046094560202625215,0.36237566346600614
-3.968,0.19547700821018218,0.012686596095480854
-3.9674999999999998,0.6863050516635838,-0.66549826183523486
-3.9670000000000001,1.3265155431245421,-1.4390528654124575
-3.9664999999999999,1.774662887147213,-2.0536578929121685
-3.9660000000000002,1.8600242860086742,-2.265590661015517
-3.9655,1.2945050185514941,-1.523825972653797
-3.9649999999999999,0.57960330308675734,-0.66549826183523486
-3.9645000000000001,0.024754210487259936,-0.072086511145858609
-3.964,-0.28468086038553664,0.24581264100916439
-3.9634999999999998,-0.41272295867772835,0.35177902506083869
-3.9630000000000001,-0.44473348325077627,0.34118238665567124
-3.9624999999999999,-0.43406330839309365,0.30939247144016896
-3.9620000000000002,-0.46607383296614152,0.30939247144016896
-3.9615,-0.74349837926589024,0.55311515475901996
-3.9609999999999999,-0.79684925355430347,0.53192187794868506
-3.9605000000000001,-0.67947733011979428,0.37297230187117358
-3.96,-0.54076505696992005,0.24581264100916439
-3.9594999999999998,-0.47674400782382426,0.29879583303500157
-3.9590000000000001,-0.34870190953163249,0.83922439169854057
-3.9584999999999999,0.27016823221396069,1.2842832047155728
-3.9580000000000002,0.57960330308675734,0.16103953376782493
-3.9575,1.4118769419860033,-1.0787671596367647
-3.9569999999999999,2.0627576083046444,-2.0854478081276708
-3.9565000000000001,1.8600242860086742,-2.1066410849380057
-3.956,1.2304839694053984,-1.227120097309109
-3.9554999999999998,0.5689331282290746,-0.30521255605954212
-3.9550000000000001,0.024754210487259936,0.30939247144016896
-3.9544999999999999,-0.27401068552785401,0.69087145402619654
-3.9540000000000002,-0.39138260896236304,0.89220758372437781
-3.9535,-0.40205278382004572,0.96638405256054982
-3.9529999999999998,-0.34870190953163249,0.94519077575021493
-3.9525000000000001,-0.24200016095480609,0.76504792286236856
-3.952,-0.13529841237797968,0.55311515475901996
-3.9514999999999998,-0.0072563140857879876,0.24581264100916439
-3.9510000000000001,0.29150858192932599,-0.31580919446470956
-3.9504999999999999,0.99574012253638022,-1.2165234589039415
-3.9500000000000002,1.7319821877164825,-2.0218679776966662
-3.9495,1.8920348105817222,-2.1808175537741779
-3.9489999999999998,1.2198137945477157,-1.4072629501969551
-3.9485000000000001,0.51558225394066137,-0.76086800748174177
-3.948,-0.0072563140857879876,-0.36879238649054674
-3.9474999999999998,-0.29535103524321932,-0.15685961838719809
-3.9470000000000001,-0.42339313353541097,-0.082683149551026042
-3.9464999999999999,-0.4554036581084589,-0.050893234335523743
-3.9460000000000002,-0.44473348325077627,-0.029699957525188878
-3.9455,-0.43406330839309365,0.033879872905815719
-3.9449999999999998,-0.66880715526211176,0.35177902506083869
-3.9445000000000001,-0.83952995298503397,0.58490506997452218
-3.944,-0.75416855412357298,0.54251851635385251
-3.9434999999999998,-0.59411593125833329,0.42595549389701071
-3.9430000000000001,-0.4554036581084589,0.38356894027634103
-3.9424999999999999,-0.66880715526211176,0.71206473083653143
-3.9420000000000002,-1.373038695869166,1.1147369902328941
-3.9415,-2.1626316353376818,0.4471487707073456
-3.9409999999999998,-2.1839719850530468,-0.41117894011121647
-3.9405000000000001,-0.67947733011979428,0.2246193641988295
-3.9399999999999999,0.50491207908297886,0.84982103010370802
-3.9394999999999998,0.73965592595199681,0.86041766850887547
-3.9390000000000001,0.60094365280212259,0.73325800764686633
-3.9384999999999999,0.25949805735627807,0.54251851635385251
-3.9380000000000002,-0.049937013516518552,0.4471487707073456
-3.9375,-0.24200016095480609,0.47893868592284788
-3.9369999999999998,-0.31669138495858457,0.60609834678485708
-3.9365000000000001,-0.32736155981626724,0.75445128445720111
-3.9359999999999999,-0.28468086038553664,0.82862775329337313
-3.9355000000000002,-0.18864928666639288,0.7968378380778709
-3.9350000000000001,-0.0072563140857879876,0.57430843156935485
-3.9344999999999999,0.19547700821018218,0.28819919462983412
-3.9340000000000002,0.77166645052504479,-0.34759910968021185
-3.9335,1.4332172917013686,-1.0363806060160949
-3.9329999999999998,1.774662887147213,-1.42845622700729
-3.9325000000000001,1.4225471168436858,-1.01518732920576
-3.9319999999999999,0.76099627566736228,-0.22043944881820265
-3.9315000000000002,0.16346648363713429,0.50013196273318283
-3.931,-0.22065981123944084,0.87101430691404291
-3.9304999999999999,-0.40205278382004572,0.93459413734504748
-3.9300000000000002,-0.4554036581084589,0.83922439169854057
-3.9295,-0.44473348325077627,0.66967817721586165
-3.9289999999999998,-0.42339313353541097,0.48953532432801533
-3.9285000000000001,-0.53009488211223732,0.47893868592284788
