Class_6_Listen_To_Quran/Class_6_Listen_To_Quran_SH_7.csv

#Digilent WaveForms Oscilloscope Acquisition
#Device Name: EExplorer
#Serial Number: SN:210151A2B84A
#Date Time: 2020-12-15 14:55:21.830
#Sample rate: 2000Hz
#Samples: 16384
#Trigger: Source: Channel 1 Type: Edge Condition: Rising Level: 0 V Hyst.: Auto HoldOff: 0 s
#Channel 1: Range: 1 V/div Offset: 0 V Attenuation: 1 X
#Channel 2: Range: 1 V/div Offset: 0 V Attenuation: 1 X
#Power Supplies: ON
#Fixed Supply: ON
#Voltage: 3.3 V Readback: 3.327 V
#Positive Supply: ON
#Voltage: 3.7 V Readback: 3.713 V
#Current: 40 mA Readback: 20 mA
#Negative Supply: ON
#Voltage: -3.7 V Readback: -3.353 V
#Current: -40 mA Readback: -7 mA
#Reference 1: ON
#Voltage: 0 V
#Reference 2: ON
#Voltage: 0 V

Time (s),Channel 1 (V),Channel 2 (V)
-4.096,-0.8288597781273515,-1.269506650929778
-4.0955,-1.202315898145904,-1.555615887869039
-4.095,-1.22365624786124,-1.195330182093048
-4.0945,-0.8181896032696687,-0.5807251545938954
-4.094,-0.3380317346743866,0.002089957689783373
-4.0935,0.03542438534514637,0.4259554938972324
-4.093,0.2594980573562781,0.6696781772158616
-4.0925,0.3661998059330074,0.7968378380777552
-4.092,0.3982103305061427,0.8392243916985406
-4.0915,0.3875401556484697,0.8392243916985406
-4.091,0.3768699807907871,0.8180311148882058
-4.0905,0.3448594562177197,0.7756445612674975
-4.09,0.3235191065023739,0.7332580076468663
-4.0895,0.3021787567870086,0.6908714540261965
-4.089,0.2488278824986439,0.6590815388107231
-4.0885,-0.2206598112394408,0.2776025562246667
-4.088,-0.9675720512772257,-0.5277419625680583
-4.0875,-1.586442193022256,-1.248313374118788
-4.087,-1.394379045583765,-1.311893204549745
-4.0865,-0.5514352318276028,-0.5383386009732256
-4.086,0.07810508477510059,0.02328323450013747
-4.0855,0.4408910299369897,0.2670059178195089
-4.085,0.5582629533713921,0.2776025562246667
-4.0845,0.536922603656046,0.1716361721730887
-4.084,0.4942419042252379,0.05507314971609276
-4.0835,0.4302208550792003,-0.008506680714854012
-4.083,0.5369226036560266,-0.06148987274069118
-4.0825,0.6436243522328142,-0.09327978795613565
-4.082,0.6009436528021226,-0.02969995752518888
-4.0815,0.5155822539406614,0.07626642652648545
-4.081,0.430220855079278,0.1928294489832212
-4.0805,0.291508581929326,0.1822328105781598
-4.08,-0.2099896363817582,-0.326405832869877
-4.0795,-0.754168554123078,-0.9728007755845025
-4.079,-1.244996597577265,-1.470842780628114
-4.0785,-1.565101843307454,-1.640388995110639
-4.078,-1.22365624786192,-1.05757388282696
-4.0775,-0.6367966306886174,-0.2734226408434616
-4.077,-0.1459685872356623,0.3623756634660061
-4.0765,0.1741366584945258,0.7650479228620024
-4.076,0.3448594562177974,0.9557874141554306
-4.0755,0.408880505363835,1.00877060618122
-4.075,0.408880505363835,0.9769806909657173
-4.0745,0.3875401556484503,0.9028042221294585
-4.074,0.3661998059331045,0.8074344764830383
-4.0735,0.3341892813600565,0.701468092431364
-4.073,0.3128489316447107,0.6060983467849438
-4.0725,0.291508581929326,0.5213252395435176
-4.072,0.2168173579255475,0.3623756634660061
-4.0715,0.3448594562176227,0.01268659609579886
-4.071,0.08877525963305494,-0.6231117082149313
-4.0705,-0.2420001609548061,-1.025783967610927
-4.07,0.00341386077167144,-0.5807251545943002
-4.0695,0.2915085819294813,-0.09327978795600073
-4.069,0.4622313796522482,0.1186529801471552
-4.0685,0.5369226036560266,0.1928294489833272
-4.068,0.5262524287982956,0.1292496185522455
-4.0675,0.4729015545099309,0.04447651131098315
-4.067,0.4302208550792003,-0.01910331912002144
-4.0665,0.408880505363835,-0.01910331911997326
-4.066,0.408880505363835,0.03387987290581572
-4.0655,0.3982103305061524,0.08686306493165288
-4.065,0.3875401556484794,0.1610395337677575
-4.0645,0.3661998059331045,0.2352160026039969
-4.064,0.3448594562177392,0.309392471440169
-4.0635,0.04609456020289693,-0.04029659593003831
-4.063,-0.6261264558319053,-0.6866915386460613
-4.0625,-1.202315898146244,-1.227120097309109
-4.062,-1.565101843307124,-1.36487639657616
-4.0615,-1.597112367880016,-1.131750351662014
-4.061,-1.06360362499637,-0.4853554089473885
-4.0605,-0.4767440078238243,0.1928294489833272
-4.06,-0.01792648894322801,0.68027481562127
-4.0595,0.2488278824985954,0.9451907757502149
-4.059,0.3768699807907871,1.040560521396722
-4.0585,0.4088805053638059,1.029963882991564
-4.058,0.3982103305061524,0.9557874141553824
-4.0575,0.3768699807907871,0.8604176685088755
-4.057,0.3448594562177683,0.733258007646982
-4.0565,0.3235191065023739,0.6166949851900245
-4.056,0.3021787567870086,0.5001319627331828
-4.0555,0.2168173579256251,0.3305857482506581
-4.055,0.1634664836370081,-0.04029659593087674
-4.0545,0.02475421048725994,-0.6125150698093976
-4.054,-0.5087545323963868,-1.184733543687919
-4.0535,-0.4340633083927249,-0.9304142219639002
-4.053,-0.02859666380115328,-0.3581957480853793
-4.0525,0.2808384070716433,0.02328323450064829
-4.052,0.4729015545099794,0.2034260873884368
-4.0515,0.5262524287983441,0.13984625695749
-4.051,0.4942419042252961,0.04447651131098315
-4.0505,0.4515612047946044,-0.04029659593027921
-4.05,0.4195506802215176,-0.04029659593035631
-4.0495,0.6009436528021226,0.2352160026039969
-4.049,0.6756348768058331,0.3835689402762061
-4.0485,0.6009436528020352,0.3729723018711351
-4.048,0.5049120790829789,0.3305857482505039
-4.0475,0.4195506802215953,0.3199891098453461
-4.047,0.2594980573557734,0.1398462569569311
-4.0465,-0.2953510352432193,-0.474758770542221
-4.046,-0.8608703026998847,-1.089363798041373
-4.0455,-1.309017646723293,-1.460246142222792
-4.045,-1.554431668449771,-1.460246142222792
-4.0445,-1.148965023857831,-0.8350444763179138
-4.044,-0.5834457564002139,-0.08268314955049598
-4.0435,-0.1032878878049318,0.5001319627331828
-4.043,0.1954770082101822,0.8604176685088755
-4.0425,0.3448594562176033,1.0299638829914
-4.042,0.3982103305061524,1.051157159801889
-4.0415,0.3982103305061524,1.00877060618122
-4.041,0.3768699807908065,0.9239974989399571
-4.0405,0.3448594562177101,0.8180311148880901
-4.04,0.3128489316446912,0.6908714540261965
-4.0395,0.2915085819293454,0.5849050699746186
-4.039,0.2488278824984207,0.5107286011383213
-4.0385,0.05676473506030786,0.4789386859228479
-4.038,-0.1566387620931509,0.267005917819692
-4.0375,-0.359372084389354,-0.3687923864908166
-4.037,-0.4020527838200457,-0.6654982618352349
-4.0365,-0.03926683865883591,-0.3158091944647096
-4.036,0.2808384070718083,0.02328323450076394
-4.0355,0.4622313796522482,0.1504428953626575
-4.035,0.5155822539406614,0.1080563417419877
-4.0345,0.4942419042253156,0.002089957690409802
-4.034,0.4408910299368829,-0.07208651114585861
-4.0335,0.3982103305061524,-0.09327978795619347
-4.033,0.5155822539405546,0.07626642652633124
-4.0325,0.654294527090497,0.2776025562246956
-4.032,0.6116138276598051,0.309392471440169
-4.0315,0.5155822539407487,0.309392471440169
-4.031,0.4302208550791518,0.3199891098453557
-4.0305,0.3768699807907871,0.3411823866556712
-4.03,0.6756348768056293,0.05507314971641081
-4.0295,1.422547116843676,-0.5701285161892291
-4.029,1.411876941986003,-1.121153713257435
-4.0285,0.6222840025174878,-1.364876396576285
-4.028,0.08877525963323933,-0.9516074987741001
-4.0275,-0.03926683865883591,-0.2310360872233701
-4.027,0.01408403562957729,0.4047622170866759
-4.0265,0.1207857842063066,0.8180311148878299
-4.026,0.2168173579255475,1.019367244586387
-4.0255,0.2808384070716433,1.061753798207057
-4.025,0.3128489316446621,1.029963882991583
-4.0245,0.3235191065023739,0.9451907757501089
-4.024,0.3235191065023739,0.8286277532933731
-4.0235,0.302178756787028,0.7014680924314797
-4.023,0.2808384070716239,0.5743084315692585
-4.0225,0.2594980573562781,0.4683420475176805
-4.022,0.03542438534514636,0.18223281057842
-4.0215,-0.5194247072549624,-0.5065486857583112
-4.021,-0.9675720512772257,-1.152943628472937
-4.0205,-1.287677297007705,-1.51322933424863
-4.02,-0.8181896032691349,-0.9410108603691063
-4.0195,-0.2313299860971235,-0.4111789401112165
-4.019,0.1848068333524996,-0.1674562567923655
-4.0185,0.4088805053636312,-0.07208651114594535
-4.018,0.4835717293676135,-0.06148987274069118
-4.0175,0.4729015545099309,-0.08268314955102604
-4.017,0.4302208550792391,-0.1038764263613416
-4.0165,0.4515612047947403,-0.02969995752488047
-4.016,0.6436243522328531,0.309392471440169
-4.0155,0.6542945270905262,0.3941655786814313
-4.015,0.5582629533712951,0.3411823866556231
-4.0145,0.4515612047945656,0.2881991946298341
-4.014,0.376869980790855,0.2776025562246763
-4.0135,0.5475927785140199,0.2458126410088463
-4.013,0.8890383739595538,-0.1038764263613609
-4.0125,0.4302208550792003,-0.7290780922662394
-4.012,-0.348701909532108,-1.227120097309138
-4.0115,-0.8715404775580819,-1.258910012524611
-4.011,-0.754168554123573,-0.6549016234300674
-4.0105,-0.402052783820366,0.04447651131034713
-4.01,-0.06060718837420119,0.5743084315693548
-4.0095,0.1634664836371343,0.8922075837243778
-4.009,0.2915085819292095,1.029963882991429
-4.0085,0.3448594562177489,1.051157159801841
-4.008,0.3555296310754218,0.9981739677760521
-4.0075,0.3448594562177489,0.9134008605347899
-4.007,0.3235191065023448,0.807434476482942
-4.0065,0.291508581929326,0.701468092431364
-4.006,0.2808384070716433,0.5955017083796896
-4.0055,0.1954770082096872,0.4259554938964614
-4.005,-0.3487019095316325,-0.1780528951975329
-4.0045,-1.06360362499637,-0.9410108603695881
-4.004,-1.639793067311028,-1.555615887869087
-4.0035,-1.415719395299897,-1.322489842955616
-4.003,-0.7328282044082075,-0.6019184314042303
-4.0025,-0.156638762093869,-0.1250697031721295
-4.002,0.2168173579255475,0.05507314971615059
-4.0015,0.3875401556484697,0.08686306493165288
-4.001,0.4408910299368344,0.03387987290586391
-4.0005,0.4195506802215079,-0.02969995752522743
-4,0.408880505363835,-0.07208651114585861
-3.9995,0.5262524287983441,-0.1780528951975329
-3.999,0.5796033030867573,-0.2098428104130352
-3.9985,0.5155822539406614,-0.1568596183871981
-3.998,0.4408910299368829,-0.07208651114585861
-3.9975,0.3768699807907871,0.03387987290581572
-3.997,0.3021787567870086,-0.04029659593035631
-3.9965,0.00341386077189465,-0.570128516188728
-3.996,-0.6154562809736985,-1.205926820498774
-3.9955,-1.1062843244271,-1.640388995110639
-3.995,-1.319687821580753,-1.629792356705471
-3.9945,-0.9782422261349084,-0.9410108603695881
-3.994,-0.4874141826815069,-0.1886495336027004
-3.9935,-0.07127736323188383,0.3941655786815084
-3.993,0.1954770082101822,0.7544512844572011
-3.9925,0.3235191065023739,0.9345941373450475
-3.992,0.3661998059331045,0.9769806909657173
-3.9915,0.3661998059331045,0.9663840525605498
-3.991,0.3448594562177392,0.9028042221295453
-3.9905,0.3235191065023739,0.8286277532933731
-3.99,0.291508581929326,0.7438546460520338
-3.9895,0.2808384070716433,0.6696781772158616
-3.989,0.2381577076409128,0.5849050699745222
-3.9885,-0.1352984123779797,0.1504428953626575
-3.988,-0.722158029550525,-0.570128516188728
-3.9875,-1.255666772434657,-1.237716735714276
-3.987,-1.415719395299897,-1.38606967338662
-3.9865,-0.8822106524157645,-0.7714646458869092
-3.986,-0.3166913849585846,-0.326405832869877
-3.9855,0.08877525963335578,-0.1038764263613609
-3.985,0.3128489316446912,0.002089957690313421
-3.9845,0.408880505363835,0.02328323450064829
-3.984,0.4195506802215176,0.002089957690313421
-3.9835,0.3982103305061524,-0.02969995752518888
-3.983,0.4835717293676135,0.08686306493165288
-3.9825,0.5902734779444399,0.2352160026039969
-3.982,0.5475927785137094,0.2246193641988295
-3.9815,0.4729015545099309,0.1822328105781598
-3.981,0.3982103305061524,0.1610395337678249
-3.9805,0.3235191065023739,0.1186529801471552
-3.98,-0.03926683865883591,-0.3370024712750445
-3.9795,-0.6688071552621118,-0.9939940523954253
-3.979,-1.277007122150022,-1.555615887869299
-3.9785,-1.693143941599645,-1.650985633515806
-3.978,-1.490410619303675,-1.205926820498774
-3.9775,-0.8928808272734472,-0.474758770542221
-3.977,-0.3273615598162672,0.1716361721729923
-3.9765,0.0674349099179905,0.6060983467848571
-3.976,0.2808384070716433,0.849821030103708
-3.9755,0.3661998059331045,0.9451907757502149
-3.975,0.3875401556484697,0.9451907757502149
-3.9745,0.3661998059331045,0.9134008605347127
-3.974,0.3448594562177392,0.849821030103708
-3.9735,0.3128489316446912,0.775644561267536
-3.973,0.291508581929326,0.6908714540261965
-3.9725,0.2594980573562781,0.627291623595192
-3.972,0.03542438534494258,0.383568940276341
-3.9715,-0.5834457564006506,-0.3475991096802118
-3.971,-1.191645723288561,-1.0999604364471
-3.9705,-1.554431668449771,-1.576809164679634
-3.97,-1.287677297007705,-1.280103289334946
-3.9695,-0.690147504977477,-0.7608680074817418
-3.969,-0.1673089369510276,-0.2946159176543747
-3.9685,0.2061471830678648,0.002089957690313421
-3.968,0.3982103305061524,0.1186529801471552
-3.9675,0.4515612047945656,0.09745970333682032
-3.967,0.4408910299368829,0.02328323450064829
-3.9665,0.4515612047945656,0.01268659609548085
-3.966,0.5689331282290746,0.2034260873884947
-3.9655,0.5689331282290746,0.2352160026039969
-3.965,0.4942419042252961,0.1822328105781598
-3.9645,0.4195506802215176,0.1504428953626575
-3.964,0.3661998059331045,0.1292496185523226
-3.9635,0.3768699807907871,-0.1992461720078678
-3.963,0.4729015545099309,-0.8244478379127463
-3.9625,0.05676473506030786,-1.417859588602123
-3.962,-0.6154562809736985,-1.788741932782983
-3.9615,-0.9462317015618604,-1.555615887869299
-3.961,-0.722158029550525,-0.792657922697244
-3.9605,-0.3380317346739499,-0.05089323433552374
-3.96,-0.007256314085787988,0.4895353243280153
-3.9595,0.2061471830678648,0.8074344764830383
-3.959,0.3128489316446912,0.9557874141553824
-3.9585,0.3555296310754218,0.9875773293708847
-3.958,0.3555296310754218,0.9557874141553824
-3.9575,0.3448594562177392,0.9028042221295453
-3.957,0.3128489316446912,0.8286277532933731
-3.9565,0.291508581929326,0.7438546460520338
-3.956,0.2701682322139607,0.6696781772158616
-3.9555,0.2274875327832301,0.5743084315693548
-3.955,-0.1459685872356623,0.03387987290581572
-3.9545,-0.807519428411986,-0.7608680074817418
-3.954,-1.341028171296118,-1.417859588602123
-3.9535,-1.138294849000148,-1.280103289334946
-3.953,-0.5300948821122373,-0.6866915386455698
-3.9525,-0.007256314085787988,-0.2310360872233701
-3.952,0.3128489316446912,0.002089957690313421
-3.9515,0.4622313796522482,0.06566978812131802
-3.951,0.4835717293676135,0.002089957690313421
-3.9505,0.4515612047945656,-0.05089323433552374
-3.95,0.408880505363835,-0.07208651114585861
-3.9495,0.5369226036560266,-0.05089323433552374
-3.949,0.6009436528021226,-0.04029659593035631
-3.9485,0.5475927785137094,-0.008506680714854012
-3.948,0.4622313796522482,0.04447651131098315
-3.9475,0.3875401556484697,0.1080563417419877
-3.947,0.3448594562177392,0.1504428953626575
-3.9465,0.6329541773751706,0.002089957690313421
-3.946,0.7183155762366316,-0.570128516188728
-3.9455,0.142126133921769,-1.068170521231597
-3.945,-0.5300948821122373,-1.05757388282643
-3.9445,-0.7114878546928423,-0.7396747306714069
-3.944,-0.4874141826815069,-0.2098428104130352
-3.9435,-0.1673089369510276,0.2670059178194992
-3.943,0.08877525963335578,0.5955017083796896
-3.9425,0.2381577076409128,0.775644561267536
-3.942,0.3128489316446912,0.8604176685088755
-3.9415,0.3448594562177392,0.8816109453192104
-3.941,0.3341892813600565,0.8604176685088755
-3.9405,0.3235191065023739,0.8180311148882058
-3.94,0.3021787567870086,0.7650479228623686
-3.9395,0.2808384070716433,0.7226613692416989
-3.939,0.2381577076409128,0.6696781772158616
-3.9385,-0.1673089369510276,0.2458126410091644
-3.938,-0.8715404775580819,-0.5595318777835605
-3.9375,-1.501080794161358,-1.301296566145281
-3.937,-1.714484291315011,-1.545019249464132
-3.9365,-1.074273799854052,-0.9833974139902578
-3.936,-0.391382608962363,-0.3687923864905467
-3.9355,0.07810508477567314,0.01268659609548085
-3.935,0.3341892813600565,0.1292496185523226
-3.9345,0.4302208550792003,0.1186529801471552
-3.934,0.4302208550792003,0.05507314971615059
-3.9335,0.408880505363835,0.002089957690313421
-3.933,0.4622313796522482,0.1080563417419877
-3.9325,0.5475927785137094,0.309392471440169
-3.932,0.5262524287983441,0.309392471440169
-3.9315,0.4622313796522482,0.2564092794143318
-3.931,0.3875401556484697,0.2246193641988295
-3.9305,0.3768699807907871,0.2034260873884947
-3.93,0.7183155762366316,0.03387987290581572
-3.9295,1.422547116843686,-0.4959520473525559
-3.929,1.145122570543937,-1.0999604364471
-3.9285,0.2381577076409128,-1.227120097309109
-3.928,-0.4340633083930936,-1.05757388282643
-3.9275,-0.4874141826815069,-0.5065486857577234
-3.927,-0.2846808603855366,0.05507314971615059
-3.9265,-0.03926683865883591,0.4683420475176805
-3.926,0.1527963087794516,0.7226613692416989
-3.9255,0.2594980573562781,0.8392243916985406
-3.925,0.3128489316446912,0.8816109453192104
-3.9245,0.3235191065023739,0.8710143069140429
-3.924,0.3235191065023739,0.8286277532933731
-3.9235,0.3021787567870086,0.775644561267536
-3.923,0.2808384070716433,0.7120647308365314
-3.9225,0.2594980573562781,0.6590815388106942
-3.922,0.1207857842064037,0.4683420475176805
-3.9215,-0.2846808603855366,-0.1568596183871981
-3.921,-0.839529952985034,-0.9304142219644207
-3.9205,-1.341028171296118,-1.502632695843462
-3.92,-1.127624674142465,-1.205926820498774
-3.9195,-0.5941159312583333,-0.6125150698093976
-3.919,-0.09261771294724913,-0.252229364033705
-3.9185,0.2381577076409128,-0.08268314955102604
-3.918,0.3982103305061524,-0.008506680714854012
-3.9175,0.4302208550792003,0.01268659609548085
-3.917,0.408880505363835,0.002089957690313421
-3.9165,0.4195506802215176,0.03387987290581572
-3.916,0.6009436528021226,0.2458126410091644
-3.9155,0.6116138276598051,0.2881991946298341
-3.915,0.5262524287983441,0.2564092794143318
-3.9145,0.4302208550792003,0.2140227257936621
-3.914,0.3661998059331045,0.1928294489833272
-3.9135,0.1207857842064037,-0.08268314955102604
-3.913,-0.4660738329661415,-0.718481453861072
-3.9125,-0.9675720512772257,-1.301296566145281
-3.912,-1.351698346153801,-1.693372187136476
-3.9115,-1.362368521011484,-1.523825972653797
-3.911,-0.8928808272734472,-0.7820612842920766
-3.9105,-0.3807124341046804,-0.04029659593035631
-3.91,0.00341386077189465,0.4895353243280153
-3.9095,0.2381577076409128,0.7968378380778709
-3.909,0.3341892813600565,0.92399749893988
-3.9085,0.3661998059331045,0.9451907757502149
-3.908,0.3555296310754218,0.9028042221295453
-3.9075,0.3341892813600565,0.8286277532933731
-3.907,0.3021787567870086,0.7332580076468663
-3.9065,0.2808384070716433,0.6484849004055269
-3.906,0.2594980573562781,0.5637117931641874
-3.9055,0.1848068333524996,0.4471487707073456
-3.905,-0.3487019095316325,-0.1038764263613609
-3.9045,-1.010252750707956,-0.8668343915334161
-3.904,-1.554431668449771,-1.481439419033127
-3.9035,-1.319687821580753,-1.258910012524611
-3.903,-0.6261264558313813,-0.5807251545938954
-3.9025,-0.04993701351651855,-0.1144730647665284
-3.902,0.291508581929326,0.08686306493165288
-3.9015,0.4515612047945656,0.08686306493165288
-3.901,0.4729015545099309,0.02328323450064829
-3.9005,0.4302208550792003,-0.04029659593035631
-3.9,0.3982103305061524,-0.06148987274069118
-3.8995,0.5049120790829789,0.1186529801471552
-3.899,0.5582629533713921,0.2564092794143318
-3.8985,0.5155822539406614,0.2776025562246667
-3.898,0.4302208550792003,0.2670059178194992
-3.8975,0.3661998059331045,0.2776025562246667
-3.897,0.2381577076409128,0.13984625695749
-3.8965,-0.3273615598162672,-0.4535654937318862
-3.896,-0.9995825758502737,-1.089363798041932
-3.8955,-1.415719395299897,-1.534422611058964
-3.895,-1.554431668449771,-1.566212526274467
-3.8945,-1.116954499284783,-0.8986243067489184
-3.894,-0.5407650569699201,-0.1356663415768632
-3.8935,-0.09261771294724913,0.4471487707073456
-3.893,0.1954770082101822,0.8074344764830383
-3.8925,0.3235191065023739,0.9663840525605498
-3.892,0.3661998059331045,0.9981739677760521
-3.8915,0.3661998059331045,0.9557874141553824
-3.891,0.3448594562177392,0.8710143069140429
-3.8905,0.3235191065023739,0.775644561267536
-3.89,0.291508581929326,0.6590815388106942
-3.8895,0.2594980573562781,0.5637117931641874
-3.889,0.2381577076409128,0.5001319627331828
-3.8885,0.2381577076409128,0.4259554938970107
-3.888,0.2381577076409128,0.05507314971615059
-3.8875,-0.274010685527854,-0.6654982618352349
-3.887,-0.5941159312583333,-0.9728007755850904
