Class_6_Listen_To_Quran/Class_6_Listen_To_Quran_SH_8.csv

#Digilent WaveForms Oscilloscope Acquisition
#Device Name: EExplorer
#Serial Number: SN:210151A2B84A
#Date Time: 2020-12-17 15:42:58.500
#Sample rate: 2000Hz
#Samples: 16384
#Trigger: Source: Channel 1 Type: Edge Condition: Rising Level: 0 V Hyst.: Auto HoldOff: 0 s
#Channel 1: Range: 1 V/div Offset: 0 V Attenuation: 1 X
#Channel 2: Range: 1 V/div Offset: 0 V Attenuation: 1 X
#Power Supplies: ON
#Fixed Supply: ON
#Voltage: 3.3 V Readback: 3.327 V
#Positive Supply: ON
#Voltage: 3.7 V Readback: 3.713 V
#Current: 40 mA Readback: 21 mA
#Negative Supply: ON
#Voltage: -3.7 V Readback: -3.357 V
#Current: -40 mA Readback: -7 mA
#Reference 1: ON
#Voltage: 0 V
#Reference 2: ON
#Voltage: 0 V

Time (s),Channel 1 (V),Channel 2 (V)
-4.096,-0.1032878878049318,-0.3899856633008816
-4.0955,0.1954770082099104,-0.2840192792493036
-4.095,0.323519106502403,-0.1674562567922113
-4.0945,0.3555296310754218,0.002089957690313421
-4.094,0.334189281360076,0.1398462569573647
-4.0935,0.3021787567869698,0.214022725793691
-4.093,0.2594980573562781,0.2458126410091644
-4.0925,0.2168173579255863,0.3093924714401111
-4.092,0.1848068333524802,0.3623756634660543
-4.0915,0.1634664836371343,0.4153588554918433
-4.091,0.1634664836371343,0.4259554938970107
-4.0905,0.3982103305065018,0.3411823866555074
-4.09,0.7823366253827275,0.1610395337678249
-4.0895,0.291508581929326,-0.4853554089473885
-4.089,-0.5300948821114899,-1.078767159636225
-4.0885,-1.212986073003927,-1.439052865412457
-4.088,-1.159635198715513,-1.131750351662602
-4.0875,-0.7541685541239418,-0.559531877784081
-4.087,-0.3487019095313608,-0.08268314955076583
-4.0865,-0.04993701351651855,0.2034260873884947
-4.086,0.1207857842062484,0.3199891098452304
-4.0855,0.1954770082101919,0.319989109845269
-4.085,0.2061471830678648,0.2458126410091644
-4.0845,0.1954770082101919,0.161039533767902
-4.084,0.1954770082101919,0.1080563417419685
-4.0835,0.2061471830678648,0.08686306493165288
-4.083,0.2488278824985954,0.13984625695749
-4.0825,0.5902734779450803,0.4577454091130335
-4.082,1.294505018551494,1.029963882991555
-4.0815,1.710641838001117,1.42203950398275
-4.081,1.155792745402124,0.8604176685093863
-4.0805,0.5049120790829789,0.3517790250608387
-4.08,0.2594980573562781,0.1822328105781598
-4.0795,0.1848068333525675,-0.02969995752499613
-4.079,0.2061471830679037,-0.1462629799820596
-4.0785,0.2488278824985954,-0.1780528951975329
-4.078,0.2594980573562684,-0.1780528951975329
-4.0775,0.2808384070716142,-0.1462629799819535
-4.077,0.2488278824985954,-0.06148987274069118
-4.0765,-0.06060718837391976,-0.2628260024386893
-4.076,-0.2633405106701326,-0.2840192792489567
-4.0755,-0.2206598112394408,-0.008506680714854012
-4.075,-0.1032878878049318,0.3199891098453364
-4.0745,0.0140840356298005,0.5955017083798149
-4.074,0.2594980573562781,0.7332580076468663
-4.0735,0.8890383739595538,0.2987958330350016
-4.073,0.7183155762367868,-0.3475991096796239
-4.0725,-0.156638762093345,-0.8244478379127463
-4.072,-1.020922925565639,-1.068170521231597
-4.0715,-1.373038695868846,-0.983397413990335
-4.071,-1.074273799853635,-0.453565493731414
-4.0705,-0.6154562809736985,0.06566978812131802
-4.07,-0.2206598112397999,0.3941655786812097
-4.0695,0.03542438534504933,0.5001319627331443
-4.069,0.1527963087794516,0.457745409112513
-4.0685,0.1954770082101822,0.3199891098453364
-4.068,0.1954770082101725,0.1504428953625033
-4.0675,0.1848068333524996,-0.01910331912002144
-4.067,0.1954770082101822,-0.1144730647665284
-4.0665,0.2061471830679134,-0.18864953360271
-4.066,0.2594980573562781,-0.1992461720078678
-4.0655,0.3128489316446912,0.2458126410091644
-4.065,0.2701682322139995,0.6484849004051607
-4.0645,-0.3487019095316325,0.13984625695749
-4.064,-0.839529952985034,-0.3370024712750445
-4.0635,-0.7008176798352859,-0.4217755785163068
-4.063,-0.3060212101006108,-0.3158091944646421
-4.0625,0.01408403562957729,-0.2416327256285375
-4.062,0.1954770082100172,-0.1886495336027486
-4.0615,0.2594980573563072,-0.156859618387121
-4.061,0.291508581929326,-0.07208651114585861
-4.0605,0.2808384070716433,0.002089957690313421
-4.06,0.1634664836370373,0.07626642652653363
-4.0595,0.05676473506030786,0.1292496185523226
-4.059,0.04609456020262521,0.2352160026039969
-4.0585,0.07810508477564403,0.3517790250607327
-4.058,0.1101156093487211,0.457745409112513
-4.0575,0.04609456020262521,0.4365521323021782
-4.057,0.003413860771933466,-0.02969995752476484
-4.0565,0.1101156093487211,-0.6337083466197325
-4.056,-0.4660738329661415,-1.142346990067769
-4.0555,-1.202315898145574,-1.439052865412188
-4.055,-1.394379045584192,-1.237716735713688
-4.0545,-1.020922925565639,-0.5913217929990628
-4.054,-0.5514352318280298,0.02328323450008929
-4.0535,-0.1673089369508141,0.4153588554919879
-4.053,0.0674349099179905,0.5743084315693548
-4.0525,0.1741366584948169,0.5743084315693548
-4.052,0.2061471830678648,0.4789386859227129
-4.0515,0.2061471830678648,0.3305857482505039
-4.051,0.1848068333524996,0.2034260873884947
-4.0505,0.1954770082101725,0.1080563417420745
-4.05,0.2061471830678648,0.05507314971615059
-4.0495,0.2808384070716433,0.1186529801471552
-4.049,0.5369226036557937,0.3411823866554689
-4.0485,1.177133095117169,0.9028042221297476
-4.048,1.379866417412955,1.125333628638062
-4.0475,0.8997085488176733,0.4365521323028045
-4.047,0.4195506802213527,-0.125069703171744
-4.0465,0.2381577076409128,-0.1780528951975329
-4.046,0.1848068333525481,-0.1886495336026907
-4.0455,0.2061471830678842,-0.2840192792492555
-4.045,0.2274875327832301,-0.3370024712750445
-4.0445,0.2488278824985954,-0.3793890248957141
-4.044,0.2381577076409225,-0.3052125560594265
-4.0435,0.2488278824985954,-0.1780528951975329
-4.043,0.2381577076409128,-0.02969995752518888
-4.0425,0.2168173579255669,0.1080563417418625
-4.042,0.1848068333524996,0.2458126410091644
-4.0415,0.1634664836371343,0.3729723018711736
-4.041,0.1421261339217884,0.4789386859227515
-4.0405,0.2488278824988962,0.4577454091124552
-4.04,0.5796033030867573,0.3941655786815084
-4.0395,0.04609456020311054,-0.1674562567918547
-4.039,-0.7755089038395496,-0.7396747306717538
-4.0385,-1.447729919872945,-1.121153713257435
-4.038,-1.39437904558458,-0.888027668343963
-4.0375,-0.9248913518460585,-0.3052125560590602
-4.037,-0.4447334832507763,0.2246193641988295
-4.0365,-0.09261771294724913,0.5425185163538525
-4.036,0.09944543449111606,0.669678177215852
-4.0355,0.1848068333524996,0.6590815388106942
-4.035,0.1954770082101822,0.55311515475902
-4.0345,0.1848068333525093,0.4259554938971264
-4.034,0.1741366584948169,0.2987958330350016
-4.0335,0.1954770082101822,0.2246193641988295
-4.033,0.2168173579255281,0.2034260873885139
-4.0325,0.3128489316450115,0.2987958330353678
-4.032,0.6649647019482183,0.701468092431364
-4.0315,0.6009436528021808,0.5743084315694705
-4.031,-0.1566387620939369,-0.2310360872238905
-4.0305,-0.807519428411986,-0.8032545611024114
-4.03,-0.7221580295506026,-0.6866915386456758
-4.0295,-0.3593720843890144,-0.4429688553265742
-4.029,-0.02859666380115328,-0.2840192792492073
-4.0285,0.1848068333524996,-0.1674562567923655
-4.028,0.2808384070716821,-0.1144730647665187
-4.0275,0.3235191065023739,-0.1038764263613609
-4.027,0.3128489316446912,-0.1250697031716958
-4.0265,0.2168173579256348,-0.2946159176542205
-4.026,0.142126133921769,-0.2840192792492073
-4.0255,0.1101156093487211,-0.1462629799820306
-4.025,0.1101156093487211,0.04447651131080968
-4.0245,0.1207857842062096,0.192829448983173
-4.024,-0.09261771294724913,0.02328323450064829
-4.0235,-0.7328282044076251,-0.6019184314036616
-4.023,-1.298347471865883,-1.216523458904327
-4.0225,-1.842526389607202,-1.640388995110639
-4.022,-2.205312334768082,-1.809935209593164
-4.0215,-1.661133417025947,-1.301296566144606
-4.021,-0.9462317015618604,-0.5595318777835605
-4.0205,-0.3807124341046804,0.03387987290581572
-4.02,-0.01792648894330565,0.3941655786816434
-4.0195,0.1634664836371343,0.5425185163538525
-4.019,0.2274875327832301,0.5425185163538525
-4.0185,0.2274875327832301,0.4683420475177479
-4.018,0.2061471830678648,0.3623756634660061
-4.0175,0.1848068333524996,0.2670059178194992
-4.017,0.1954770082101725,0.224619364198868
-4.0165,0.2168173579255766,0.2140227257936621
-4.016,0.2488278824985954,0.2140227257936621
-4.0155,0.643624352232494,0.5637117931638693
-4.015,0.8463576745282798,0.7544512844565747
-4.0145,0.2488278824985954,0.06566978812131802
-4.014,-0.2740106855273785,-0.7290780922655165
-4.0135,-0.370042259246794,-0.9516074987745916
-4.013,-0.1459685872356623,-0.7714646458869092
-4.0125,0.07810508477567314,-0.5383386009732256
-4.012,0.1954770082102501,-0.3475991096800866
-4.0115,0.2701682322139607,-0.2098428104130352
-4.011,0.2808384070716433,-0.1356663415768632
-4.0105,0.2594980573562975,-0.1144730647665476
-4.01,0.0674349099179905,-0.2734226408440398
-4.0095,-0.08194753808956648,-0.326405832869877
-4.009,-0.07127736323189353,-0.1780528951976678
-4.0085,-0.007256314085720057,0.01268659609564469
-4.008,0.0674349099179905,0.1928294489833272
-4.0075,0.0674349099179905,0.2670059178194318
-4.007,-0.3807124341053403,-0.1674562567929534
-4.0065,-1.1062843244271,-0.8138511995075789
-4.006,-1.618452717595867,-1.322489842955616
-4.0055,-2.087940411333661,-1.619195718300053
-4.005,-1.821186039891837,-1.34368311976595
-4.0045,-1.127624674142465,-0.6443049850249
-4.004,-0.5194247072541763,-0.01910331911964558
-4.0035,-0.1032878878049318,0.3941655786815084
-4.003,0.1314559590640864,0.5849050699745222
-4.0025,0.2168173579254699,0.6060983467848378
-4.002,0.2274875327832301,0.5319218779486851
-4.0015,0.2061471830678648,0.4153588554918433
-4.001,0.184806833352519,0.2987958330351076
-4.0005,0.184806833352519,0.2140227257936235
-4,0.2061471830678648,0.1716361721729923
-3.9995,0.2381577076409128,0.1610395337678249
-3.999,0.408880505363835,0.3623756634660061
-3.9985,0.7396559259519968,0.7438546460520338
-3.998,0.3768699807907871,0.2881991946298341
-3.9975,-0.2526703358124887,-0.4535654937318862
-3.997,-0.3273615598162672,-0.326405832869877
-3.9965,-0.02859666380115328,0.01268659609548085
-3.996,0.2381577076409128,0.04447651131098315
-3.9955,0.3661998059331045,-0.08268314955102604
-3.995,0.3982103305061524,-0.1780528951975329
-3.9945,0.3875401556484697,-0.2204394488182027
-3.994,0.3555296310754218,-0.2416327256285375
-3.9935,0.3021787567870086,-0.2310360872233701
-3.993,0.3128489316446912,-0.09327978795619347
-3.9925,0.291508581929326,0.07626642652648545
-3.992,0.2488278824985954,0.1928294489833272
-3.9915,0.2061471830678648,0.2881991946298341
-3.991,0.1527963087794516,0.3517790250608387
-3.9905,-0.1779791118087102,0.01268659609548085
-3.99,-0.6794773301197943,-0.6337083466197325
-3.9895,-1.127624674142465,-1.142346990067769
-3.989,-1.554431668449771,-1.47084278062796
-3.9885,-1.757164990745741,-1.502632695843462
-3.988,-1.30901764672307,-0.9304142219644207
-3.9875,-0.722158029550525,-0.2416327256285375
-3.987,-0.2633405106701714,0.2776025562246667
-3.9865,0.03542438534494258,0.55311515475902
-3.986,0.1741366584948169,0.6484849004055269
-3.9855,0.2168173579255475,0.6166949851900245
-3.985,0.2168173579255475,0.5107286011383502
-3.9845,0.1954770082101822,0.3941655786815084
-3.984,0.1954770082101822,0.2987958330350016
-3.9835,0.2061471830678648,0.2458126410091644
-3.983,0.2594980573562781,0.2776025562246667
-3.9825,0.5049120790829789,0.5955017083796896
-3.982,1.059761171682476,1.051157159801889
-3.9815,1.038420821967111,0.775644561267536
-3.981,0.2701682322139607,-0.1886495336027004
-3.9805,-0.5621054066852853,-1.036380606016095
-3.98,-0.6474668055467465,-1.036380606016095
-3.9795,-0.3487019095316325,-0.6760949002404023
-3.979,-0.03926683865883591,-0.3475991096802118
-3.9785,0.1634664836371343,-0.1462629799820306
-3.978,0.2701682322139607,-0.07208651114585861
-3.9775,0.3021787567870086,-0.04029659593035631
-3.977,0.3021787567870086,-0.02969995752518888
-3.9765,0.291508581929326,-0.07208651114585861
-3.976,0.2488278824985954,-0.06148987274069118
-3.9755,0.2061471830678648,-0.008506680714854012
-3.975,0.1741366584948169,0.06566978812131802
-3.9745,0.1527963087794516,0.1504428953626575
-3.974,-0.03926683865883591,0.02328323450064829
-3.9735,-0.7114878546928423,-0.5807251545938954
-3.973,-1.30901764672307,-1.205926820498774
-3.9725,-1.746494815888059,-1.640388995110639
-3.972,-1.714484291315011,-1.555615887869299
-3.9715,-1.148965023857831,-0.9092209451540858
-3.971,-0.572775581542968,-0.2310360872233701
-3.9705,-0.1459685872356623,0.2458126410091644
-3.97,0.08877525963335578,0.5001319627331828
-3.9695,0.1954770082101822,0.5849050699745222
-3.969,0.2274875327832301,0.5637117931641874
-3.9685,0.2168173579255475,0.4895353243280153
-3.968,0.1848068333524996,0.3941655786815084
-3.9675,0.1741366584948169,0.309392471440169
-3.967,0.1741366584948169,0.2458126410091644
-3.9665,0.1954770082101822,0.2352160026039969
-3.966,0.2594980573562781,0.3411823866556712
-3.9655,0.2168173579255475,0.6484849004055269
-3.965,-0.2633405106701714,0.92399749893988
-3.9645,-0.8608703027003992,0.2670059178194992
-3.964,-1.426389570157579,-0.6760949002404023
-3.9635,-1.341028171296118,-0.9410108603695881
-3.963,-0.7755089038389382,-0.7078848154559045
-3.9625,-0.2206598112394408,-0.400582301706049
-3.962,0.142126133921769,-0.1992461720078678
-3.9615,0.3341892813600565,-0.1462629799820306
-3.961,0.3982103305061524,-0.07208651114585861
-3.9605,0.3768699807907871,-0.02969995752518888
-3.96,0.3128489316446912,-0.1356663415768632
-3.9595,0.2381577076409128,-0.1992461720078678
-3.959,0.1848068333524996,-0.09327978795619347
-3.9585,0.1634664836371343,0.05507314971615059
-3.958,0.1527963087794516,0.1928294489833272
-3.9575,0.08877525963335578,0.2034260873884947
-3.957,-0.06060718837420119,-0.2946159176543747
-3.9565,-0.007256314085787988,-0.9728007755850904
-3.956,-0.5300948821122373,-1.51322933424863
-3.9555,-1.170305373573196,-1.873515040024322
-3.955,-1.362368521011484,-1.682775548731308
-3.9545,-0.9995825758502737,-0.9728007755850904
-3.954,-0.5407650569699201,-0.2946159176543747
-3.9535,-0.1673089369510276,0.1610395337678249
-3.953,0.0674349099179905,0.383568940276341
-3.9525,0.1741366584948169,0.4471487707073456
-3.952,0.2168173579255475,0.4047622170866759
-3.9515,0.2061471830678648,0.309392471440169
-3.951,0.1954770082101822,0.2140227257936621
-3.9505,0.2168173579255475,0.2458126410091644
-3.95,0.2274875327832301,0.2246193641988295
-3.9495,0.2274875327832301,0.13984625695749
-3.949,0.3661998059331045,0.2881991946298341
-3.9485,0.6436243522328531,0.7968378380778709
-3.948,0.3448594562177392,0.8074344764830383
-3.9475,-0.1139580626626144,0.3517790250608387
-3.947,-0.2633405106701714,0.1292496185523226
-3.9465,-0.124628237520297,0.03387987290581572
-3.946,0.07810508477567314,-0.04029659593035631
-3.9455,0.2168173579255475,-0.04029659593035631
-3.945,0.2594980573562781,-0.05089323433552374
-3.9445,0.2594980573562781,-0.05089323433552374
-3.944,0.2488278824985954,-0.01910331912002144
-3.9435,0.2168173579255475,-0.02969995752518888
-3.943,0.1314559590640864,-0.07208651114585861
-3.9425,0.1101156093487211,0.04447651131098315
-3.942,0.1101156093487211,0.2246193641988295
-3.9415,0.1314559590640864,0.4047622170866759
-3.941,0.1314559590640864,0.5425185163538525
-3.9405,0.1634664836371343,0.4789386859228479
-3.94,0.6969752265212663,0.2670059178194992
-3.9395,0.5369226036560266,-0.2840192792492073
-3.939,-0.2526703358124887,-0.7608680074817418
-3.9385,-1.06360362499637,-1.046977244421262
-3.938,-1.234326422719292,-0.8562377531282487
-3.9375,-0.8928808272734472,-0.3158091944647096
-3.937,-0.4660738329661415,0.1716361721729923
-3.9365,-0.124628237520297,0.4683420475176805
-3.936,0.07810508477567314,0.55311515475902
-3.9355,0.1741366584948169,0.5107286011383502
-3.935,0.2061471830678648,0.3941655786815084
-3.9345,0.1954770082101822,0.2458126410091644
-3.934,0.2061471830678648,0.1504428953626575
-3.9335,0.2274875327832301,0.09745970333682032
-3.933,0.2488278824985954,0.04447651131098315
-3.9325,0.2808384070716433,0.04447651131098315
-3.932,0.4835717293676135,0.4153588554918433
-3.9315,0.4302208550792003,0.4259554938970107
-3.931,-0.2420001609548061,-0.2946159176543747
-3.9305,-0.5194247072545548,-0.8350444763179138
-3.93,-0.3380317346739499,-0.6866915386455698
-3.9295,-0.04993701351651855,-0.400582301706049
-3.929,0.1741366584948169,-0.2098428104130352
-3.9285,0.3021787567870086,-0.07208651114585861
-3.928,0.3341892813600565,-0.06148987274069118
-3.9275,0.3235191065023739,-0.1038764263613609
-3.927,0.2701682322139607,-0.1356663415768632
-3.9265,0.1101156093487211,-0.2310360872233701
-3.926,0.02475421048725994,-0.1886495336027004
-3.9255,0.03542438534494258,-0.02969995752518888
-3.925,0.0674349099179905,0.1504428953626575
-3.9245,0.1101156093487211,0.309392471440169
-3.924,0.2168173579255475,0.3411823866556712
-3.9235,0.7183155762366316,-0.008506680714854012
-3.923,0.6436243522328531,-0.5913217929990628
-3.9225,-0.2313299860971235,-1.121153713257435
-3.922,-1.095614149569417,-1.460246142222792
-3.9215,-1.341028171296118,-1.280103289334946
-3.921,-1.010252750707956,-0.6443049850249
-3.9205,-0.5514352318276028,-0.01910331912002144
-3.92,-0.1779791118087102,0.383568940276341
-3.9195,0.05676473506030786,0.5637117931641874
-3.919,0.1634664836371343,0.5955017083796896
-3.9185,0.2061471830678648,0.5213252395435176
-3.918,0.1954770082101822,0.3941655786815084
-3.9175,0.1848068333524996,0.2776025562246667
-3.917,0.1848068333524996,0.1822328105781598
-3.9165,0.2061471830678648,0.13984625695749
-3.916,0.2594980573562781,0.1610395337678249
-3.9155,0.4195506802215176,0.5425185163538525
-3.915,0.707645401378949,1.029963882991555
-3.9145,0.1848068333524996,0.6590815388106942
-3.914,-0.4874141826815069,-0.2098428104130352
-3.9135,-0.6474668055467465,-0.6337083466197325
-3.913,-0.3593720843893152,-0.4959520473525559
-3.9125,-0.01792648894347063,-0.3370024712750445
-3.912,0.2061471830678648,-0.252229364033705
-3.9115,0.291508581929326,-0.1992461720078678
-3.911,0.3341892813600565,-0.1674562567923655
-3.9105,0.3341892813600565,-0.1568596183871981
-3.91,0.1101156093487211,-0.2416327256285375
-3.9095,-0.2099896363817582,-0.3475991096802118
-3.909,-0.2313299860971235,-0.1674562567923655
-3.9085,-0.1352984123779797,0.08686306493165288
-3.908,-0.007256314085787988,0.309392471440169
-3.9075,0.03542438534494258,0.4153588554918433
-3.907,-0.2526703358124887,0.002089957690313421
-3.9065,0.07810508477567314,-0.6760949002404023
-3.906,0.4195506802215176,-1.227120097309109
-3.9055,-0.1352984123779797,-1.566212526274467
-3.905,-0.7328282044082075,-1.534422611058964
-3.9045,-0.7434983792658902,-0.9198175835592532
-3.904,-0.4874141826815069,-0.2628260024388724
-3.9035,-0.2099896363817582,0.2034260873884947
-3.903,-0.007256314085787988,0.4259554938970107
-3.9025,0.1101156093487211,0.4789386859228479
-3.902,0.1634664836371343,0.4153588554918433
-3.9015,0.1741366584948169,0.2881991946298341
-3.901,0.1741366584948169,0.1610395337678249
-3.9005,0.1741366584948169,0.05507314971615059
-3.9,0.1741366584948169,-0.02969995752518888
-3.8995,0.1848068333524996,-0.08268314955102604
-3.899,0.1848068333524996,-0.1250697031716958
-3.8985,0.4195506802215176,0.01268659609548085
-3.898,0.5475927785137094,0.1186529801471552
-3.8975,-0.08194753808956648,-0.4535654937318862
-3.897,-0.4447334832507763,-0.8668343915334161
-3.8965,-0.3487019095316325,-0.7820612842920766
-3.896,-0.09261771294724913,-0.570128516188728
-3.8955,0.1314559590640864,-0.4641621321370536
-3.895,0.2594980573562781,-0.3687923864905467
-3.8945,0.3128489316446912,-0.3370024712750445
-3.894,0.3235191065023739,-0.2946159176543747
-3.8935,0.2701682322139607,-0.2310360872233701
-3.893,0.1527963087794516,-0.2416327256285375
-3.8925,0.1101156093487211,-0.09327978795619347
-3.892,0.09944543449103843,0.1080563417419877
-3.8915,0.1101156093487211,0.2987958330350016
-3.891,0.1207857842064037,0.4259554938970107
-3.8905,-0.08194753808956648,0.1928294489833272
-3.89,-0.07127736323188383,-0.4535654937318862
-3.8895,-0.4767440078238243,-1.068170521231597
-3.889,-1.127624674142465,-1.47084278062796
-3.8885,-1.586442193022819,-1.587405803084801
-3.888,-1.351698346153801,-1.089363798041932
