Class_6_Listen_To_Quran/Class_6_Listen_To_quran_Zakour_5_.csv

#Digilent WaveForms Oscilloscope Acquisition
#Device Name: EExplorer
#Serial Number: SN:210151A2B84A
#Date Time: 2020-11-26 10:48:03.055
#Sample rate: 2000Hz
#Samples: 16384
#Trigger: Source: Channel 1 Type: Edge Condition: Rising Level: 0 V Hyst.: Auto HoldOff: 0 s
#Channel 1: Range: 1 V/div Offset: 0 V Attenuation: 1 X
#Channel 2: Range: 1 V/div Offset: 0 V Attenuation: 1 X
#Power Supplies: ON
#Fixed Supply: ON
#Voltage: 3.3 V Readback: 3.323 V
#Positive Supply: ON
#Voltage: 3.7 V Readback: 3.713 V
#Current: 500 mA Readback: 20 mA
#Negative Supply: ON
#Voltage: -3.7 V Readback: -3.704 V
#Current: -500 mA Readback: -8 mA
#Reference 1: ON
#Voltage: 0 V
#Reference 2: ON
#Voltage: 0 V

Time (s),Channel 1 (V),Channel 2 (V)
-4.096,0.5369226036560266,0.8286277532933731
-4.0955,0.1207857842067822,0.1822328105787476
-4.095,-0.6901475049780496,-0.7184814538617659
-4.0945,-1.319687821580753,-1.481439419033127
-4.094,-1.341028171296099,-1.905304955239439
-4.0935,-0.5087545323961151,-1.672178910325486
-4.093,0.3235191065023739,-0.9516074987747555
-4.0925,0.8570278493860206,-0.2946159176549722
-4.092,1.081101521397822,0.1292496185524768
-4.0915,1.059761171682476,0.2987958330350016
-4.091,0.942389248247967,0.3305857482505039
-4.0905,0.8356874996712281,0.3199891098452304
-4.09,0.9317190733902845,0.2034260873884947
-4.0895,0.9850699476786977,0.1080563417419877
-4.089,0.8783681991019683,0.1610395337677767
-4.0885,0.7503261008096795,0.2458126410091644
-4.088,0.6436243522328531,0.3411823866556712
-4.0875,0.5902734779444884,0.4683420475175648
-4.087,0.8036769750977725,0.9663840525608968
-4.0865,0.4515612047945656,1.347863035146577
-4.086,-0.4874141826806529,0.6484849004061629
-4.0855,-1.298347471866028,-0.3052125560603131
-4.085,-2.002579012472442,-1.152943628472937
-4.0845,-2.440056181637032,-1.735758740756616
-4.084,-2.280003558771356,-1.841725124808126
-4.0835,-1.362368521011484,-1.078767159636765
-4.083,-0.4874141826815069,-0.1780528951975329
-4.0825,0.1314559590644066,0.5319218779490898
-4.082,0.4835717293676135,0.9769806909657173
-4.0815,0.6329541773751706,1.199510097474233
-4.081,0.6542945270905164,1.26308992790518
-4.0805,0.6222840025174878,1.231300012689736
-4.08,0.5902734779444399,1.157123543853563
-4.0795,0.5582629533714212,0.9663840525607232
-4.079,0.3235191065016946,0.478938685922048
-4.0785,-0.423393133535411,-0.400582301706049
-4.078,-1.106284324426479,-1.237716735713515
-4.0775,-1.511750969018516,-1.778145294377613
-4.077,-0.9355615267041777,-1.555615887869299
-4.0765,-0.06060718837499701,-0.9092209451546737
-4.076,0.6116138276601254,-0.315809194464353
-4.0755,0.9637295979633325,0.07626642652648545
-4.075,1.017080472251745,0.2564092794143318
-4.0745,0.9530594231055527,0.2881991946297956
-4.074,0.8463576745288233,0.2458126410091644
-4.0735,0.8783681991018712,0.02328323450064829
-4.073,1.017080472251619,-0.1780528951973498
-4.0725,0.942389248247967,-0.08268314955102604
-4.072,0.8036769750980928,0.09745970333682032
-4.0715,0.6756348768060175,0.2776025562245029
-4.071,0.6009436528022681,0.415358855492171
-4.0705,0.7609962756673623,0.775644561267536
-4.07,0.8143471499557268,1.390249588766688
-4.0695,-0.01792648894430521,1.061753798206209
-4.069,-0.9355615267041777,0.1292496185523226
-4.0685,-1.575772018165136,-0.6866915386455698
-4.068,-2.162631635337914,-1.386069673387044
-4.0675,-2.418715831922065,-1.852321763213987
-4.067,-1.821186039891837,-1.555615887869299
-4.0665,-0.8822106524150949,-0.6972881770499951
-4.066,-0.1459685872356623,0.1186529801471552
-4.0655,0.3341892813600565,0.701468092431364
-4.065,0.5689331282288611,1.029963882991256
-4.0645,0.6436243522328531,1.178316820663898
-4.064,0.6436243522328531,1.210106735879401
-4.0635,0.6009436528021614,1.16772018225877
-4.063,0.5689331282289776,1.040560521396394
-4.0625,0.4622313796522482,0.6802748156210291
-4.062,-0.2099896363811467,-0.1462629799812789
-4.0615,-1.10628432442776,-1.025783967611525
-4.061,-1.83185621474952,-1.682775548731308
-4.0605,-1.607782542738184,-1.725162102351978
-4.06,-0.6688071552613354,-1.03638060601544
-4.0595,0.1848068333524996,-0.3158091944647096
-4.059,0.7396559259519968,0.1716361721729923
-4.0585,0.9530594231054557,0.4153588554916217
-4.058,0.974399772821015,0.4895353243280153
-4.0575,0.8997085488172365,0.4365521323021782
-4.057,0.825017324813526,0.3093924714402846
-4.0565,0.974399772821015,0.02328323450064829
-4.056,0.9530594231056497,-0.008506680714854012
-4.0555,0.8356874996712476,0.09745970333672394
-4.055,0.7076454013788714,0.235216002604103
-4.0545,0.6222840025174878,0.3517790250608387
-4.054,0.4729015545100668,0.5849050699743101
-4.0535,-0.1566387620941019,1.146526905448184
-4.053,-0.9889124009925911,0.9134008605347127
-4.0525,-1.597112367880501,0.002089957690313421
-4.052,-2.098610586191896,-0.8138511995081957
-4.0515,-2.44005618163743,-1.492036057438295
-4.051,-2.461396531352796,-1.947691508860494
-4.0505,-2.162631635337954,-1.87351504002439
-4.05,-1.191645723288561,-1.01518732920576
-4.0495,-0.3487019095316325,-0.1250697031716958
-4.049,0.2168173579250331,0.5319218779480875
-4.0485,0.5369226036561237,0.9239974989400342
-4.048,0.6436243522328531,1.093543713422559
-4.0475,0.6542945270905262,1.13593026704319
-4.047,0.6222840025174587,1.082947075017295
-4.0465,0.5902734779444399,0.9769806909657173
-4.046,0.5475927785137482,0.7120647308367724
-4.0455,0.08877525963257943,0.351779025060829
-4.045,-0.7648387289812555,0.3411823866556712
-4.0445,-1.597112367880501,-0.2310360872233701
-4.044,-1.746494815887292,-0.8350444763179523
-4.0435,-0.9035510021311299,-0.8774310299385835
-4.043,0.01408403562957729,-0.5065486857577234
-4.0425,0.6542945270899535,-0.08268314955141159
-4.042,0.9530594231056497,0.2140227257936621
-4.0415,0.9957401225363802,0.3623756634660061
-4.041,0.9317190733903427,0.3941655786814795
-4.0405,0.8463576745289494,0.3411823866554978
-4.04,0.9850699476786977,0.1504428953626575
-4.0395,1.038420821967062,0.06566978812139512
-4.039,0.9210488985324659,0.1610395337679598
-4.0385,0.7716664505250448,0.309392471440169
-4.038,0.6649647019483154,0.4365521323020625
-4.0375,0.5582629533710136,0.6060983467853486
-4.037,0.142126133921769,1.146526905448396
-4.0365,-0.690147504977477,1.42203950398275
-4.036,-1.511750969019506,0.6484849004047848
-4.0355,-2.023919362187807,-0.1674562567923655
-4.035,-2.312014083345239,-0.8774310299385835
-4.0345,-2.440056181637314,-1.502632695842893
-4.034,-2.376035132491334,-1.894708316834657
-4.0335,-1.639793067311232,-1.51322933424863
-4.033,-0.7221580295513595,-0.6337083466205324
-4.0325,-0.01792648894308245,0.1716361721735128
-4.032,0.408880505363835,0.7438546460520338
-4.0315,0.6116138276596207,1.061753798206768
-4.031,0.6649647019482087,1.21010673587942
-4.0305,0.6542945270905358,1.231300012689736
-4.03,0.611613827659844,1.167720182258789
-4.0295,0.579603303086505,0.9875773293704221
-4.029,0.3021787567870086,0.4789386859228479
-4.0285,-0.5300948821122373,0.09745970333682032
-4.028,-1.394379045585007,-0.5171453241634402
-4.0275,-1.917217613610981,-1.121153713257435
-4.027,-1.298347471865388,-1.046977244421262
-4.0265,-0.3273615598171503,-0.5807251545943195
-4.026,0.4515612047945656,-0.1356663415768632
-4.0255,0.8997085488172365,0.1504428953626575
-4.025,1.038420821966985,0.2458126410090777
-4.0245,1.006410297393956,0.2458126410090969
-4.024,0.8890383739595538,0.1716361721729923
-4.0235,0.8783681991018809,0.07626642652657219
-4.023,0.942389248247899,0.03387987290586391
-4.0225,0.8676980242441885,0.08686306493165288
-4.022,0.7609962756674593,0.182232810578073
-4.0215,0.6649647019481602,0.2881991946299209
-4.021,0.6009436528021226,0.383568940276341
-4.0205,0.3555296310754218,0.7650479228623686
-4.02,-0.3913826089631491,1.347863035146221
-4.0195,-1.255666772434657,0.9557874141553824
-4.019,-1.789175515318789,0.02328323450064829
-4.0185,-2.215982509625706,-0.8774310299377642
-4.018,-2.429386006779747,-1.534422611058964
-4.0175,-2.386705307349017,-1.852321763213987
-4.017,-1.629122892454238,-1.333086481361255
-4.0165,-0.7008176798345193,-0.4217755785156515
-4.016,0.00341386077189465,0.383568940276341
-4.0155,0.4302208550788121,0.9239974989393885
-4.015,0.6222840025175363,1.220703374284674
-4.0145,0.6756348768059011,1.33726639674141
-4.014,0.664964701948228,1.347863035146568
-4.0135,0.6222840025174587,1.273686566310261
-4.013,0.5902734779444399,1.114736990232894
-4.0125,0.4835717293676135,0.7332580076468663
-4.012,-0.1139580626633422,-0.08268314955181633
-4.0115,-0.9142211769888124,-0.9516074987747555
-4.011,-1.607782542738184,-1.640388995110639
-4.0105,-1.309017646723342,-1.725162102351901
-4.01,-0.391382608962363,-1.121153713257435
-4.0095,0.3982103305061524,-0.5065486857577234
-4.009,0.8676980242437615,-0.08268314955141159
-4.0085,1.049090996824774,0.1610395337678924
-4.008,1.027750647109428,0.2352160026039969
-4.0075,0.9317190733903719,0.2564092794143125
-4.007,0.8570278493866128,0.182232810577967
-4.0065,0.974399772821015,-0.02969995752518888
-4.006,0.942389248247967,-0.02969995752518888
-4.0055,0.825017324813361,0.07626642652661074
-4.005,0.7183155762366316,0.2140227257936621
-4.0045,0.6329541773751706,0.3199891098453364
-4.004,0.5902734779445078,0.5637117931647656
-4.0035,0.6649647019482183,1.199510097474233
-4.003,0.03542438534494258,1.220703374284568
-4.0025,-0.8715404775572571,0.3835689402771024
-4.002,-1.607782542738184,0.13984625695749
-4.0015,-2.247993034199143,0.3411823866556712
-4.001,-2.440056181637256,-0.1992461720073764
-4.0005,-2.215982509625231,-0.7714646458867647
-4,-1.26633694729234,-0.6125150698093976
-3.9995,-0.4020527838200457,-0.1038764263613609
-3.999,0.1954770082101822,0.3941655786815084
-3.9985,0.5262524287983441,0.775644561267536
-3.998,0.6649647019482183,1.00877060618122
-3.9975,0.6756348768059011,1.157123543853563
-3.997,0.6436243522328531,1.210106735879401
-3.9965,0.6116138276598051,1.199510097474233
-3.996,0.5582629533713921,1.00877060618122
-3.9955,0.04609456020262521,0.5637117931641874
-3.995,-0.8502001278427167,0.2352160026039969
-3.9945,-1.639793067311232,-0.5065486857577234
-3.994,-1.693143941599645,-1.131750351662602
-3.9935,-0.7328282044082075,-1.142346990067769
-3.993,0.1848068333524996,-0.6231117082145651
-3.9925,0.79300680024041,-0.06148987274069118
-3.992,1.059761171682476,0.3411823866556712
-3.9915,1.070431346540159,0.5001319627331828
-3.991,0.9637295979633325,0.4683420475176805
-3.9905,0.8463576745288233,0.3941655786815084
-3.99,0.9530594231056497,0.309392471440169
-3.9895,0.9637295979633325,0.2352160026039969
-3.989,0.8676980242441885,0.2352160026039969
-3.9885,0.7396559259519968,0.2564092794143318
-3.988,0.6542945270905358,0.2987958330350016
-3.9875,0.5902734779444399,0.3941655786815084
-3.987,0.3982103305061524,0.92399749893988
-3.9865,-0.2953510352432193,1.093543713422559
-3.986,-1.116954499284783,0.309392471440169
-3.9855,-1.735824641030376,-0.5171453241628908
-3.985,-2.258663209056825,-1.269506650929778
-3.9845,-2.429386006779747,-1.831128486403653
-3.984,-2.290673733629873,-1.990078062481164
-3.9835,-1.394379045584531,-1.280103289334946
-3.983,-0.5087545323968721,-0.3581957480853793
-3.9825,0.1314559590640864,0.383568940276341
-3.982,0.5049120790829789,0.8392243916985406
-3.9815,0.6542945270905358,1.072350436612224
-3.981,0.6863050516635838,1.157123543853563
-3.9805,0.6542945270905358,1.135930267043229
-3.98,0.6222840025174878,1.051157159801889
-3.9795,0.5902734779444399,0.8816109453192104
-3.979,0.3021787567870086,0.3411823866556712
-3.9785,-0.4980843575391895,-0.5277419625680583
-3.978,-1.351698346153801,-1.322489842955616
-3.9775,-1.789175515318789,-1.852321763213987
-3.977,-1.020922925565639,-1.672178910326141
-3.9765,-0.06060718837420119,-0.9622041371799229
-3.976,0.6542945270905358,-0.400582301706049
-3.9755,1.006410297394063,-0.008506680714854012
-3.975,1.070431346540159,0.1822328105781598
-3.9745,0.9850699476786977,0.2034260873884947
-3.974,0.8783681991018712,0.09745970333682032
-3.9735,0.9210488985326017,-0.09327978795619347
-3.973,1.027750647109428,-0.2098428104130352
-3.9725,0.9530594231056497,-0.07208651114585861
-3.972,0.8143471499557753,0.1292496185523226
-3.9715,0.6969752265212663,0.309392471440169
-3.971,0.6222840025174878,0.4471487707073456
-3.9705,0.6329541773751706,0.8392243916985406
-3.97,0.5262524287983441,1.453829419198252
-3.9695,-0.2953510352432193,1.167720182258731
-3.969,-1.138294849000148,0.2034260873884947
-3.9685,-1.853196564464885,-0.7820612842920766
-3.968,-2.376035132491334,-1.534422611058964
-3.9675,-2.429386006779747,-1.990078062481164
-3.967,-1.959898313041711,-1.693372187136476
-3.9665,-0.9675720512772257,-0.792657922697244
-3.966,-0.1779791118087102,0.06566978812131802
-3.9655,0.3341892813600565,0.6696781772158616
-3.965,0.6009436528021226,1.00877060618122
-3.9645,0.6756348768059011,1.157123543853563
-3.964,0.6756348768059011,1.178316820663898
-3.9635,0.6436243522328531,1.114736990232894
-3.963,0.6116138276598051,0.9769806909657173
-3.9625,0.4729015545099309,0.5743084315693548
-3.962,-0.1886492866663929,0.2564092794143318
-3.9615,-1.042263275281004,-0.05089323433552374
-3.961,-1.682473766741963,-0.7290780922662394
-3.9605,-1.341028171296118,-1.046977244421262
-3.96,-0.4020527838200457,-0.8244478379127463
-3.9595,0.408880505363835,-0.4111789401112165
-3.959,0.8890383739595538,-0.07208651114585861
-3.9585,1.049090996824793,0.1080563417419877
-3.958,1.038420821967111,0.2140227257936621
-3.9575,0.942389248247967,0.2987958330350016
-3.957,0.8890383739595538,0.2670059178194992
-3.9565,1.027750647109428,0.02328323450064829
-3.956,0.974399772821015,0.04447651131098315
-3.9555,0.8463576745288233,0.1928294489833272
-3.955,0.7289857510943143,0.3729723018711736
-3.9545,0.6436243522328531,0.5319218779486851
-3.954,0.5475927785137094,0.8074344764830383
-3.9535,0.3661998059331045,1.390249588767247
-3.953,-0.3700422592469978,1.25249328950007
-3.9525,-1.202315898146244,0.3305857482505039
-3.952,-1.895877263895616,-0.5807251545938954
-3.9515,-2.386705307349017,-1.354279758171118
-3.951,-2.44005618163743,-1.873515040024322
-3.9505,-2.365364957633652,-2.021867977696666
-3.95,-1.543761493592088,-1.322489842955616
-3.9495,-0.6154562809736985,-0.3793890248957141
-3.949,0.0674349099179905,0.383568940276341
-3.9485,0.4729015545099309,0.8604176685088755
-3.948,0.6436243522328531,1.104140351827727
-3.9475,0.6863050516635838,1.167720182258731
-3.947,0.6649647019482183,1.146526905448396
-3.9465,0.6329541773751706,1.040560521396722
-3.946,0.5689331282290746,0.7862411996727035
-3.9455,0.01408403562957729,0.03387987290581572
-3.945,-0.8715404775580819,-0.8774310299385835
-3.9445,-1.67180359188428,-1.619195718300304
-3.944,-1.682473766741963,-1.968884785670829
-3.9435,-0.690147504977477,-1.566212526274467
-3.943,0.2488278824985954,-0.8562377531282487
-3.9425,0.8463576745288233,-0.3052125560595421
-3.942,1.070431346540159,0.04447651131098315
-3.9415,1.059761171682476,0.2352160026039969
-3.941,0.9530594231056497,0.2564092794143318
-3.9405,0.8356874996711408,0.1928294489833272
-3.94,0.8036769750980928,-0.04029659593035631
-3.9395,0.7609962756673623,-0.1038764263613609
-3.939,0.6969752265212663,0.03387987290581572
-3.9385,0.6542945270905358,0.2034260873884947
-3.938,0.6116138276598051,0.3517790250608387
-3.9375,0.5582629533713921,0.5213252395435176
-3.937,0.1101156093487211,1.051157159801889
-3.9365,-0.7328282044082075,1.104140351827727
-3.936,-1.490410619303675,0.2564092794143318
-3.9355,-2.07727023647622,-0.6231117082145651
-3.935,-2.408045657064382,-1.364876396576285
-3.9345,-2.429386006779747,-1.873515040024322
-3.934,-2.290673733629873,-1.968884785670829
-3.9335,-1.405049220442214,-1.227120097309109
-3.933,-0.4980843575391895,-0.3052125560595421
-3.9325,0.1527963087794516,0.4259554938970107
-3.932,0.5155822539406614,0.8710143069140429
-3.9315,0.6756348768059011,1.082947075017392
-3.931,0.6969752265212663,1.146526905448396
-3.9305,0.6649647019482183,1.125333628638062
-3.93,0.6329541773751706,1.029963882991555
-3.9295,0.6009436528021226,0.8286277532933731
-3.929,0.2808384070716433,0.2670059178194992
-3.9285,-0.5621054066852853,-0.6337083466197325
-3.928,-1.373038695869166,-1.417859588602123
-3.9275,-1.661133417026597,-1.915901593644992
-3.927,-0.8928808272734472,-1.714565463946811
-3.9265,0.01408403562957729,-1.004590690800593
-3.926,0.6756348768059011,-0.3370024712750445
-3.9255,0.9850699476786977,0.08686306493165288
-3.925,1.049090996824793,0.2670059178194992
-3.9245,0.9850699476786977,0.3411823866556712
-3.924,0.8783681991018712,0.3411823866556712
-3.9235,0.9317190733902845,0.1504428953626575
-3.923,1.038420821967111,-0.008506680714854012
-3.9225,0.9530594231056497,0.04447651131098315
-3.922,0.825017324813458,0.1822328105781598
-3.9215,0.707645401378949,0.309392471440169
-3.921,0.6329541773751706,0.4153588554918433
-3.9205,0.5155822539406614,0.8286277532933731
-3.92,-0.02859666380115328,1.37965295036208
-3.9195,-0.8822106524157645,0.8816109453192104
-3.919,-1.533091318734406,-0.05089323433552374
-3.9185,-2.098610586191586,-0.9516074987747555
-3.918,-2.408045657064382,-1.619195718300304
-3.9175,-2.376035132491334,-1.958288147265661
-3.917,-1.639793067311232,-1.439052865412457
-3.9165,-0.7008176798351597,-0.5383386009732256
-3.916,0.01408403562957729,0.2458126410091644
-3.9155,0.4515612047945656,0.7650479228623686
-3.915,0.6542945270905358,1.040560521396722
-3.9145,0.6969752265212663,1.146526905448396
-3.914,0.6863050516635838,1.146526905448396
-3.9135,0.6436243522328531,1.082947075017392
-3.913,0.6222840025174878,0.9451907757502149
-3.9125,0.4835717293676135,0.5425185163538525
-3.912,-0.1886492866663929,-0.3158091944647096
-3.9115,-0.9355615267041777,-1.174136905283272
-3.911,-1.554431668449771,-1.788741932782983
-3.9105,-1.341028171296118,-1.619195718300304
-3.91,-0.4980843575391895,-0.9516074987747555
-3.9095,0.291508581929326,-0.3581957480853793
-3.909,0.7823366253827275,0.002089957690313421
-3.9085,0.9957401225363802,0.1822328105781598
-3.908,0.9957401225363802,0.2670059178194992
-3.9075,0.9210488985326017,0.2564092794143318
-3.907,0.8783681991018712,0.1716361721729923
-3.9065,1.038420821967111,-0.02969995752518888
-3.906,0.9957401225363802,0.002089957690313421
-3.9055,0.8676980242441885,0.1504428953626575
-3.905,0.7503261008096795,0.2987958330350016
-3.9045,0.6542945270905358,0.4259554938970107
-3.904,0.4942419042252961,0.7226613692416989
-3.9035,-0.01792648894347063,1.273686566310405
-3.903,-0.8181896032696687,0.92399749893988
-3.9025,-1.46907026958831,0.002089957690313421
-3.902,-2.013249187330125,-0.8138511995075789
-3.9015,-2.386705307349017,-1.502632695843462
-3.901,-2.3973754822067,-1.947691508860494
-3.9005,-1.949228138184029,-1.767548655972648
-3.9,-0.9675720512772257,-0.8986243067489184
-3.8995,-0.1779791118087102,-0.02969995752518888
-3.899,0.3448594562177392,0.5955017083796896
-3.8985,0.6116138276598051,0.9451907757502149
-3.898,0.6969752265212663,1.104140351827727
-3.8975,0.6969752265212663,1.135930267043229
-3.897,0.6649647019482183,1.093543713422559
-3.8965,0.6222840025174878,0.9981739677760521
-3.896,0.5689331282290746,0.7650479228623686
-3.8955,0.04609456020262521,0.6378882620003594
-3.895,-0.839529952985034,0.5743084315693548
-3.8945,-1.639793067311232,-0.1780528951975329
-3.894,-1.618452717595867,-0.8774310299385835
-3.8935,-0.658136980404429,-0.9516074987747555
-3.893,0.2274875327832301,-0.6549016234300674
-3.8925,0.8143471499557753,-0.2946159176543747
-3.892,1.059761171682476,0.02328323450064829
-3.8915,1.091771696255524,0.2458126410091644
-3.891,0.9957401225363802,0.3199891098453364
-3.8905,0.8890383739595538,0.2881991946298341
-3.89,0.8783681991018712,0.07626642652648545
-3.8895,0.825017324813458,0.02328323450064829
-3.889,0.7396559259519968,0.1292496185523226
-3.8885,0.6756348768059011,0.2881991946298341
-3.888,0.6329541773751706,0.4259554938970107
-3.8875,0.6329541773751706,0.6060983467848571
-3.887,0.9103787236749192,1.167720182258731
-3.8865,0.5155822539406614,1.528005888034424
-3.886,-0.4660738329661415,0.7862411996727035
-3.8855,-1.255666772434657,-0.1462629799820306
-3.885,-1.863866739322568,-1.004590690800593
