Class_6_Listen_To_Quran/Class_6_Listen_To_Quran_Suko_5.csv

#Digilent WaveForms Oscilloscope Acquisition
#Device Name: EExplorer
#Serial Number: SN:210151A2B84A
#Date Time: 2020-12-21 15:35:22.653
#Sample rate: 2000Hz
#Samples: 16384
#Trigger: Source: Channel 1 Type: Edge Condition: Rising Level: 0 V Hyst.: Auto HoldOff: 0 s
#Channel 1: Range: 1 V/div Offset: 0 V
#Channel 2: Range: 1 V/div Offset: 0 V

Time (s),Channel 1 (V),Channel 2 (V)
-4.0960000000000001,0.19547700821018218,-0.28401927924920728
-4.0955000000000004,0.099445434491125778,0.0020899576900532124
-4.0949999999999998,-0.33803173467457093,0.39416557868191321
-4.0945,-1.0209229255656389,0.83922439169854057
-4.0940000000000003,-1.501080794160921,1.1995100974739055
-4.0934999999999997,-1.7785053404611744,1.4220395039825473
-4.093,-1.8531965644648849,1.1995100974742332
-4.0925000000000002,-1.3303579964389112,0.46834204751834552
-4.0919999999999996,-0.5941159312577704,-0.22043944881860744
-4.0914999999999999,0.024754210487259936,-0.66549826183523486
-4.0910000000000002,0.3768699807907871,-0.80325456110241145
-4.0904999999999996,0.55826295337145027,-0.75027136907641045
-4.0899999999999999,0.62228400251748783,-0.57012851618872795
-4.0895000000000001,0.72898575109431429,-0.36879238649054674
-4.0890000000000004,0.84635767452871646,-0.14626297998223303
-4.0884999999999998,0.857027849386506,-0.029699957525188878
-4.0880000000000001,0.72898575109431429,-0.019103319120021445
-4.0875000000000004,0.60094365280223905,0.044476511310925324
-4.0869999999999997,0.55826295337146004,0.15044289536296587
-4.0865,0.63295417737517057,0.48953532432801533
-4.0860000000000003,0.4088805053640388,0.88161094531885376
-4.0854999999999997,-0.45540365810925465,1.1465269054484923
-4.085,-1.3303579964384356,1.2524932895000704
-4.0845000000000002,-2.0559298867601954,1.2313000126897549
-4.0839999999999996,-2.0025790124717724,0.8392243916977985
-4.0834999999999999,-1.2663369472923398,0.023283234500648287
-4.0830000000000002,-0.53009488211223732,-0.6972881770507372
-4.0824999999999996,0.0034138607721760795,-1.1423469900679235
-4.0819999999999999,0.31284893164469124,-1.3118932045504481
-4.0815000000000001,0.44089102993688295,-1.2906999277401132
-4.0810000000000004,0.46223137965222877,-1.1423469900679044
-4.0804999999999998,0.41955068022151765,-0.91981758355925325
-4.0800000000000001,0.32351910650237387,-0.65490162343006741
-4.0795000000000003,0.20614718306797158,-0.35819574808564913
-4.0789999999999997,0.067434909917747893,0.04447651131134938
-4.0785,-0.19931946152407554,0.4471487707073456
-4.0780000000000003,-0.83952995298445166,0.87101430691365733
-4.0774999999999997,-1.3090176467232935,1.2101067358795934
-4.077,-1.554431668449771,1.4220395039827496
-4.0765000000000002,-1.725154466172538,1.4326361423879075
-4.0759999999999996,-1.4050492204416221,0.86041766850820078
-4.0754999999999999,-0.75416855412357298,0.11865298014715518
-4.0750000000000002,-0.13529841237797968,-0.37938902489571413
-4.0744999999999996,0.30217875678722211,-0.63370834661979036
-4.0739999999999998,0.53692260365602662,-0.6972881770507372
-4.0735000000000001,0.64362435223285308,-0.61251506980939763
-4.0730000000000004,0.77166645052492833,-0.44296885532687297
-4.0724999999999998,0.94238924824796699,-0.26282600243887239
-4.0720000000000001,0.86769802424418851,-0.12506970317169577
-4.0715000000000003,0.72898575109444042,-0.0085066807149600243
-4.0709999999999997,0.60094365280206441,0.076266426526543279
-4.0705,0.53692260365602662,0.13984625695749003
-4.0700000000000003,0.39821033050627852,0.30939247144001475
-4.0694999999999997,-0.29535103524384038,0.70146809243168207
-4.069,-0.97824222613490841,1.0511571598018894
-4.0685000000000002,-1.4904106193036752,1.241896651094903
-4.0679999999999996,-1.9812386627571348,1.2842832047153414
-4.0674999999999999,-2.0452597119031726,1.0299638829915545
-4.0670000000000002,-1.3516983461538008,0.25640927941433178
-4.0664999999999996,-0.6047861061155112,-0.52774196256854011
-4.0659999999999998,-0.049937013516518552,-1.0575738828264298
-4.0655000000000001,0.29150858192932599,-1.3012965661452807
-4.0650000000000004,0.44089102993674711,-1.3224898429555962
-4.0644999999999998,0.4835717293676135,-1.2165234589039415
-4.0640000000000001,0.45156120479456557,-1.0257839676109275
-4.0635000000000003,0.3448594562178362,-0.77146464588714059
-4.0629999999999997,0.20614718306771926,-0.48535540894707047
-4.0625,0.046094560202625215,-0.13566634157686319
-4.0620000000000003,-0.092617712947122968,0.17163617217271282
-4.0614999999999997,-0.60478610611645245,0.584905069974898
-4.0609999999999999,-1.0849439747117349,0.99817396777605205
-4.0605000000000002,-1.1916457232885611,1.2948798431207402
-4.0599999999999996,-1.4477299198729543,1.4538294191979242
-4.0594999999999999,-1.4584000947306273,1.0935437134225592
-4.0590000000000002,-0.97824222613490841,0.29879583303500157
-4.0585000000000004,-0.38071243410522382,-0.30521255605899278
-4.0579999999999998,0.12078578420640371,-0.68669153864556975
-4.0575000000000001,0.45156120479456557,-0.82444783791274634
-4.0570000000000004,0.61161382765965955,-0.73967473067148393
-4.0564999999999998,0.71831557623663156,-0.59132179299906285
-4.056,0.92104889853260175,-0.67609490024040231
-4.0555000000000003,0.87836819910191011,-0.60191843140429779
-4.0549999999999997,0.72898575109419783,-0.4217755785161526
-4.0545,0.60094365280212259,-0.1674562567923655
-4.0540000000000003,0.52625242879841205,0.065669788121105993
-4.0534999999999997,0.63295417737568493,0.28819919463019072
-4.0529999999999999,1.1984734448323504,0.68027481562102909
-4.0525000000000002,1.5612593899935603,1.0511571598018894
-4.0519999999999996,0.93171907338923643,1.2524932895001091
-4.0514999999999999,-0.22065981123944084,1.2948798431207402
-4.0510000000000002,-1.1809755484308786,1.1571235438535634
-4.0505000000000004,-1.2023158981462245,0.48953532432862257
-4.0499999999999998,-0.75416855412357298,-0.32640583286987701
-4.0495000000000001,-0.25267033581248871,-0.95160749877475548
-4.0490000000000004,0.1101156093483911,-1.2801032893346469
-4.0484999999999998,0.32351910650246118,-1.3754730349813951
-4.048,0.41955068022151765,-1.3118932045504481
-4.0475000000000003,0.44089102993686352,-1.1529436284730814
-4.0469999999999997,0.3875401556483824,-0.93041422196419898
-4.0465,0.29150858192932599,-0.68669153864556975
-4.0460000000000003,0.17413665849492366,-0.40058230170630926
-4.0454999999999997,-0.049937013516945551,0.023283234501043429
-4.0449999999999999,-0.51942470725455481,0.45774540911251305
-4.0445000000000002,-1.0956141495694174,0.90280422212954525
-4.0439999999999996,-1.522421143877053,1.2418966510950862
-4.0434999999999999,-1.8852070890379329,1.4432327807930845
-4.0430000000000001,-1.8638667393225676,1.1889134590690658
-4.0425000000000004,-1.309017646723575,0.5213252395441248
-4.0419999999999998,-0.57277558154296804,-0.082683149551026042
-4.0415000000000001,0.046094560202625215,-0.4641621321370536
-4.0410000000000004,0.45156120479419681,-0.6443049850247361
-4.0404999999999998,0.66496470194828627,-0.60191843140407608
-4.04,0.73965592595199681,-0.43237221692155131
-4.0395000000000003,0.83568749967105338,-0.32640583286997338
-4.0389999999999997,0.81434714995580437,-0.18864953360242087
-4.0385,0.84635767452882327,0.11865298014715518
-4.0380000000000003,1.0811015213976281,0.48953532432767799
-4.0374999999999996,1.0811015213977928,0.57430843156929701
-4.0369999999999999,1.0277506471094282,0.51072860113835017
-4.0365000000000002,1.3905365922706379,0.71206473083653143
-4.0359999999999996,1.2091436196891112,0.99817396777623513
-4.0354999999999999,0.19547700821018218,1.1995100974742332
-4.0350000000000001,-0.97824222613490841,1.2736865663104053
-4.0345000000000004,-1.8211860398910704,1.2207033742846163
-4.0339999999999998,-1.7038141164573279,0.70146809243136399
-4.0335000000000001,-1.0422632752810042,-0.11447306476652835
-4.0330000000000004,-0.39138260896295507,-0.7608680074811538
-4.0324999999999998,0.078105084775906053,-1.1211537132575404
-4.032,0.33418928136005654,-1.2377167357142764
-4.0315000000000003,0.44089102993678592,-1.1635402668781718
-4.0309999999999997,0.46223137965221911,-0.99399405239520355
-4.0305,0.43022085507920033,-0.75027136907657432
-4.0300000000000002,0.3661998059331627,-0.45356549373215604
-4.0294999999999996,0.29150858192924833,-0.20984281041280392
-4.0289999999999999,0.20614718306786484,0.044476511310983152
-4.0285000000000002,0.035424385344942577,0.33058574825050385
-4.0279999999999996,-0.57277558154351149,0.71206473083685906
-4.0274999999999999,-1.1703053735731959,1.0723504366122243
-4.0270000000000001,-1.5757720181651362,1.2736865663104053
-4.0265000000000004,-1.4477299198730611,0.82862775329377791
-4.0259999999999998,-1.0422632752810042,0.097459703336820316
-4.0255000000000001,-0.4980843575391895,-0.48535540894738849
-4.0250000000000004,0.035424385344457299,-0.81385119950728013
-4.0244999999999997,0.38754015564864441,-0.9092209451540183
-4.024,0.57960330308675734,-0.83504447631791379
-4.0235000000000003,0.64362435223279491,-0.67609490024054686
-4.0229999999999997,0.78233662538284399,-0.41117894011101408
-4.0225,0.91037872367491923,-0.18864953360270037
-4.0220000000000002,0.81434714995586266,-0.19924617200785819
-4.0214999999999996,0.67563487680579426,-0.26282600243890131
-4.0209999999999999,0.55826295337139209,-0.29461591765437467
-4.0205000000000002,0.51558225394066137,-0.26282600243887239
-4.0199999999999996,0.32351910650166543,0.055073149716613187
-4.0194999999999999,-0.4554036581084589,0.5637117931641874
-4.0190000000000001,-1.3090176467230703,0.96638405256054982
-4.0185000000000004,-1.8852070890374089,1.1783168206637056
-4.0179999999999998,-2.4293860067797475,1.241896651094903
-4.0175000000000001,-2.3546947827759692,1.0193672445863871
-4.0170000000000003,-1.4584000947314424,0.29879583303565693
-4.0164999999999997,-0.62612645583083781,-0.41117894011163086
-4.016,-0.028596663801153277,-0.86683439153341613
-4.0155000000000003,0.32351910650205362,-1.0363806060159408
-4.0149999999999997,0.462231379652287,-1.004590690800448
-4.0145,0.50491207908297886,-0.84564111472308123
-4.0140000000000002,0.462231379652287,-0.62311170821476747
-4.0134999999999996,0.37686998079069978,-0.35819574808514798
-4.0129999999999999,0.28083840707164331,-0.10387642636136091
-4.0125000000000002,0.18480683335249956,0.17163617217299235
-4.0119999999999996,0.024754210486706781,0.47893868592316591
-4.0114999999999998,-0.58344575640065055,0.82862775329337313
-4.0110000000000001,-1.2876772970077051,1.146526905448396
-4.0105000000000004,-1.810515865033679,1.3584596735515522
-4.0099999999999998,-1.7998456901764717,1.2101067358794007
-4.0095000000000001,-1.2023158981462438,0.5637117931641874
-4.0090000000000003,-0.48741418268215697,-0.093279787955595994
-4.0084999999999997,0.088775259633676024,-0.58072515459416529
-4.008,0.44089102993688295,-0.87743102993858346
-4.0075000000000003,0.62228400251732285,-0.97280077558500366
-4.0069999999999997,0.69697522652132449,-0.91981758355908938
-4.0065,0.76099627566736228,-0.73967473067140688
-4.0060000000000002,0.93171907339028448,-0.42177557851638392
-4.0054999999999996,0.88903837395948582,-0.20984281041289068
-4.0049999999999999,0.81434714995577528,-0.050893234335523743
-4.0045000000000002,0.69697522652126631,0.033879872905815719
-4.0039999999999996,0.59027347794439133,0.076266426526630016
-4.0034999999999998,0.53692260365602662,0.23521600260399694
-4.0030000000000001,0.49424190422529612,0.63788826200035942
-4.0025000000000004,0.067434909918378694,0.99817396777572442
-4.0019999999999998,-0.58344575640065055,1.1995100974742332
-4.0015000000000001,-1.2983474718653876,1.2630899279052379
-4.0010000000000003,-1.4477299198728086,0.96638405256081961
-4.0004999999999997,-0.97824222613438439,0.20342608738783929
-4,-0.40205278382004572,-0.51714532416289083
-3.9994999999999998,0.035424385344942577,-0.98339741399025782
-3.9990000000000001,0.30217875678700862,-1.1741369052832717
-3.9984999999999999,0.43022085507920033,-1.1741369052832717
-3.9980000000000002,0.4622313796522482,-1.0469772444212624
-3.9975000000000001,0.45156120479456557,-0.85623775312824868
-3.9969999999999999,0.3768699807907871,-0.5807251545938954
-3.9965000000000002,0.25949805735627807,-0.30521255605954212
-3.996,0.20614718306786484,-0.10387642636136091
-3.9954999999999998,0.099445434491038431,0.13984625695749003
-3.9950000000000001,-0.3700422592469978,0.50013196273318283
-3.9944999999999999,-1.0102527507079564,0.92399749893988004
-3.9940000000000002,-1.3410281712961183,1.241896651094903
-3.9935,-1.5330913187344057,1.432636142387917
-3.9929999999999999,-1.6504632421689147,1.2101067358794007
-3.9925000000000002,-1.3090176467230703,0.43655213230217815
-3.992,-0.71148785469284226,-0.29461591765437467
-3.9914999999999998,-0.092617712947249131,-0.6972881770507372
-3.9910000000000001,0.36619980593310447,-0.81385119950757889
-3.9904999999999999,0.62228400251748783,-0.76086800748174177
-3.9900000000000002,0.73965592595199681,-0.62311170821456507
-3.9895,0.92104889853260175,-0.61251506980939763
-3.9889999999999999,0.93171907339028448,-0.51714532416289083
-3.9885000000000002,0.83568749967114075,-0.31580919446470956
-3.988,0.70764540137894905,-0.13566634157686319
-3.9874999999999998,0.60094365280212259,0.023283234500648287
-3.9870000000000001,0.62228400251748783,0.20342608738849466
-3.9864999999999999,1.0597611716824762,0.57430843156935485
-3.9860000000000002,0.87836819910187125,0.96638405256054982
-3.9855,-0.13529841237797968,1.1995100974742332
-3.9849999999999999,-1.1382948490001481,1.2842832047155728
-3.9845000000000002,-1.8852070890379329,1.2313000126897355
-3.984,-1.7358246410303759,0.72266136924169888
-3.9834999999999998,-1.0529334501386869,-0.093279787956193475
-3.9830000000000001,-0.38071243410468042,-0.75027136907657432
-3.9824999999999999,0.08877525963335578,-1.1211537132574345
-3.9820000000000002,0.35552963107542179,-1.227120097309109
-3.9815,0.4622313796522482,-1.1635402668781043
-3.9809999999999999,0.4835717293676135,-1.0045906908005926
-3.9805000000000001,0.43022085507920033,-0.78206128429207655
-3.98,0.33418928136005654,-0.52774196256805828
-3.9794999999999998,0.21681735792554749,-0.25222936403370499
-3.9790000000000001,0.024754210487259936,0.044476511310983152
-3.9784999999999999,-0.18864928666639288,0.2246193641988295
-3.9780000000000002,-0.86087030270039921,0.60609834678485708
-3.9775,-1.5757720181651362,1.0087706061812196
-3.9769999999999999,-1.9385579633263461,1.146526905448396
-3.9765000000000001,-1.522421143876723,0.60609834678485708
-3.976,-0.79684925355430347,-0.072086511145858609
-3.9754999999999998,-0.11395806266261441,-0.62311170821456507
-3.9750000000000001,0.35552963107542179,-0.85623775312824868
-3.9744999999999999,0.6116138276598051,-0.86683439153341613
-3.9740000000000002,0.72898575109431429,-0.83504447631791379
-3.9735,0.75032610080967954,-0.62311170821456507
-3.9729999999999999,0.857027849386506,-0.25222936403370499
-3.9725000000000001,0.91037872367491923,-0.019103319120021445
-3.972,0.80367697509809277,0.0020899576903134209
-3.9714999999999998,0.75032610080967954,0.023283234500648287
-3.9710000000000001,0.65429452709053582,0.023283234500648287
-3.9704999999999999,0.60094365280212259,0.0020899576903134209
-3.9700000000000002,0.6863050516635838,0.13984625695749003
-3.9695,1.0811015213978414,0.39416557868150842
-3.9689999999999999,1.3585260676975901,0.69087145402619654
-3.9685000000000001,0.84635767452882327,0.94519077575021493
-3.968,-0.29535103524321932,1.1147369902328941
-3.9674999999999998,-0.91422117698881245,0.88161094531921036
-3.9670000000000001,-0.77550890383893822,0.17163617217299235
-3.9664999999999999,-0.38071243410468042,-0.52774196256805828
-3.9660000000000002,-0.017926488943470625,-0.99399405239542526
-3.9655,0.23815770764091276,-1.2165234589039415
-3.9649999999999999,0.3768699807907871,-1.2589100125246109
-3.9645000000000001,0.43022085507920033,-1.1953301820936066
-3.964,0.41955068022151765,-1.0469772444212624
-3.9634999999999998,0.35552963107542179,-0.85623775312824868
-3.9630000000000001,0.28083840707164331,-0.65490162343006741
-3.9624999999999999,0.20614718306786484,-0.42177557851638392
-3.9620000000000002,-0.028596663801153277,-0.050893234335523743
-3.9615,-0.73282820440820751,0.50013196273318283
-3.9609999999999999,-1.405049220442214,0.98757732937088472
-3.9605000000000001,-1.8425263896072024,1.2313000126897355
-3.96,-1.7144842913150107,0.69087145402619654
-3.9594999999999998,-1.1276246741424654,-0.072086511145858609
-3.9590000000000001,-0.42339313353541097,-0.63370834661973252
-3.9584999999999999,0.078105084775673142,-0.80325456110241145
-3.9580000000000002,0.41955068022151765,-0.76086800748174177
-3.9575,0.6116138276598051,-0.65490162343006741
-3.9569999999999999,0.67563487680590106,-0.47475877054222104
-3.9565000000000001,0.75032610080967954,-0.28401927924920728
-3.956,0.92104889853260175,-0.14626297998203064
-3.9554999999999998,0.87836819910187125,-0.019103319120021445
-3.9550000000000001,0.75032610080967954,0.055073149716150585
-3.9544999999999999,0.65429452709053582,0.10805634174198775
-3.9540000000000002,0.57960330308675734,0.13984625695749003
-3.9535,0.6116138276598051,0.21402272579366208
-3.9529999999999998,0.70764540137894905,0.5637117931641874
-3.9525000000000001,0.57960330308675734,0.93459413734504748
-3.952,-0.23132998609712346,1.1783168206638983
-3.9514999999999998,-1.2023158981462438,1.2842832047155728
-3.9510000000000001,-1.7038141164573279,1.1359302670432285
-3.9504999999999999,-1.3410281712961183,0.41535885549184332
-3.9500000000000002,-0.70081767983515975,-0.37938902489571413
-3.9495,-0.15663876209334496,-0.95160749877475548
-3.9489999999999998,0.20614718306786484,-1.2377167357142764
-3.9485000000000001,0.3982103305061524,-1.3012965661452807
-3.948,0.4622313796522482,-1.2165234589039415
-3.9474999999999998,0.4622313796522482,-1.0575738828264298
-3.9470000000000001,0.3768699807907871,-0.80325456110241145
-3.9464999999999999,0.25949805735627807,-0.53833860097322561
-3.9460000000000002,0.20614718306786484,-0.30521255605954212
-3.9455,0.014084035629577295,0.023283234500648287
-3.9449999999999998,-0.34870190953163249,0.38356894027634103
-3.9445000000000001,-1.0102527507079564,0.82862775329337313
-3.944,-1.5117509690190405,1.1783168206638983
-3.9434999999999998,-1.6504632421689147,0.96638405256054982
-3.9430000000000001,-1.2663369472923398,0.33058574825050385
-3.9424999999999999,-0.71148785469284226,-0.20984281041303524
-3.9420000000000002,-0.20998963638175816,-0.53833860097322561
-3.9415,0.16346648363713429,-0.64430498502489997
-3.9409999999999998,0.41955068022151765,-0.59132179299906285
-3.9405000000000001,0.59027347794443985,-0.40058230170604903
-3.9399999999999999,0.67563487680590106,-0.2310360872233701
-3.9394999999999998,0.8997085488172365,-0.34759910968021185
-3.9390000000000001,0.92104889853260175,-0.32640583286987701
-3.9384999999999999,0.79300680024041004,-0.17805289519753292
-3.9380000000000002,0.64362435223285308,-0.029699957525188878
-3.9375,0.53692260365602662,0.086863064931652884
-3.9369999999999998,0.57960330308675734,0.21402272579366208
-3.9365000000000001,1.1237822208285719,0.57430843156935485
-3.9359999999999999,1.4545576414167338,0.95578741415538238
-3.9355000000000002,0.64362435223285308,1.1889134590690658
-3.9350000000000001,-0.59411593125833329,1.2842832047155728
-3.9344999999999999,-1.5010807941613578,1.2207033742845681
-3.9340000000000002,-1.4477299198729445,0.61669498519002452
-3.9335,-0.8928808272734472,-0.2310360872233701
-3.9329999999999998,-0.30602121010090194,-0.89862430674891836
-3.9325000000000001,0.099445434491038431,-1.2801032893349458
-3.9319999999999999,0.33418928136005654,-1.4178595886021226
-3.9315000000000002,0.44089102993688295,-1.3754730349814528
-3.931,0.4622313796522482,-1.227120097309109
-3.9304999999999999,0.41955068022151765,-1.0257839676109275
-3.9300000000000002,0.31284893164469124,-0.77146464588690922
-3.9295,0.15279630877945163,-0.42177557851638392
-3.9289999999999998,-0.14596858723566233,0.0020899576903134209
-3.9285000000000001,-0.48741418268150688,0.31998910984533641
