Class_6_Listen_To_Quran/Class_6_Listen_To_Quran_SH_12.csv

#Digilent WaveForms Oscilloscope Acquisition
#Device Name: EExplorer
#Serial Number: SN:210151A2B84A
#Date Time: 2021-01-27 12:02:24.315
#Sample rate: 2000Hz
#Samples: 16384
#Trigger: Source: Channel 1 Type: Edge Condition: Rising Level: 0 V Hyst.: Auto HoldOff: 0 s
#Channel 1: Range: 1 V/div Offset: 0 V Attenuation: 1 X
#Channel 2: Range: 1 V/div Offset: 0 V Attenuation: 1 X
#Channel 4: Range: 1 V/div Offset: 0 V Attenuation: 1 X
#Power Supplies: ON
#Fixed Supply: ON
#Voltage: 3.3 V Readback: 3.39 V
#Positive Supply: ON
#Voltage: 3.7 V Readback: 3.703 V
#Current: 40 mA Readback: 18 mA
#Negative Supply: ON
#Voltage: -3.7 V Readback: -3.334 V
#Current: -40 mA Readback: 0 A
#Reference 1: ON
#Voltage: 0 V
#Reference 2: ON
#Voltage: 0 V

Time (s),Channel 1 (V),Channel 2 (V),Channel 4 (V)
-4.096,0.5796033030867573,-0.2204394488182027,0.05262739204666587
-4.0955,0.5582629533714115,-0.05089323433567794,0.04204431463582637
-4.095,0.4835717293675553,0.1504428953628213,0.0420443146357975
-4.0945,0.4195506802215176,0.3305857482505039,0.0208781598141185
-4.094,0.3982103305061718,0.425955493896924,-0.0214541498292395
-4.0935,0.248827882498081,0.02328323450007003,-0.05320338206182537
-4.093,-0.3166913849585846,-0.6125150698093976,-0.05320338206182537
-4.0925,-0.9462317015612878,-1.13175035166213,-0.04262030465098588
-4.092,-1.373038695869195,-1.205926820498562,-0.07436953688350438
-4.0915,-1.405049220442214,-0.9728007755850904,-0.05320338206182537
-4.091,-0.9248913518464952,-0.4535654937318862,-0.04262030465097626
-4.0905,-0.391382608962004,0.03387987290609521,-0.04262030465097626
-4.09,0.00341386077189465,0.3411823866556712,-0.04262030465097626
-4.0895,0.2381577076409128,0.4683420475176805,-0.05320338206182537
-4.089,0.3448594562176421,0.4577454091125227,-0.05320338206182537
-4.0885,0.3768699807907871,0.3623756634660061,-0.05320338206182537
-4.088,0.3661998059331045,0.2352160026039969,-0.09553569170522189
-4.0875,0.3448594562177586,0.09745970333694559,-0.1378680013485799
-4.087,0.3021787567869795,-0.01910331912009855,-0.1378680013486087
-4.0865,0.2701682322139607,-0.1038764263613609,-0.1272849239377692
-4.086,0.2488278824986148,-0.1674562567923077,-0.1061187691160903
-4.0855,0.04609456020203324,-0.01910331911950101,-0.053203382061835
-4.085,-0.6047861061160158,0.55311515475902,-0.0637864594726745
-4.0845,-1.170305373572682,1.061753798206594,-0.053203382061835
-4.084,-1.533091318734503,0.860417668508384,-0.02145414982928762
-4.0835,-1.639793067311232,0.3199891098453364,-0.03203722724012713
-4.083,-1.191645723288561,-0.1356663415768632,-0.03203722724012713
-4.0825,-0.5941159312578772,-0.4747587705423367,-0.0320372272401175
-4.082,-0.09261771294724913,-0.6019184314042303,-0.021454149829278
-4.0815,0.2594980573562781,-0.570128516188728,-0.021454149829278
-4.081,0.4302208550790451,-0.411178940111361,-0.021454149829278
-4.0805,0.4729015545099309,-0.252229364033705,-0.021454149829278
-4.08,0.4942419042252961,-0.1144730647665284,-0.000287995007579752
-4.0795,0.5689331282290067,-0.04029659593042377,0.05262739204661775
-4.079,0.5582629533713339,0.06566978812146258,0.04204431463581675
-4.0785,0.4942419042252961,0.2246193641988295,0.04204431463581675
-4.078,0.4302208550792586,0.3941655786813542,0.02087815981413775
-4.0775,0.3982103305061718,0.531921877948502,-0.000287995007618253
-4.077,0.4195506802215176,0.3305857482505039,-0.04262030465097626
-4.0765,0.2274875327834048,-0.2628260024383327,-0.06378645947265525
-4.076,-0.3273615598168689,-0.7714646458872176,-0.04262030465099551
-4.0755,-0.9889124009925911,-1.110557074852267,-0.0637864594726745
-4.075,-1.501080794161358,-1.258910012524611,-0.07436953688352363
-4.0745,-1.309017646722575,-0.8774310299380053,-0.04262030465096663
-4.074,-0.7648387289812555,-0.2416327256285375,-0.03203722724012713
-4.0735,-0.2526703358124887,0.2670059178194992,-0.04262030465097626
-4.073,0.09944543449071819,0.5531151547587597,-0.05320338206181575
-4.0725,0.291508581929326,0.627291623595192,-0.05320338206182537
-4.072,0.3661998059331045,0.5637117931641874,-0.05320338206182537
-4.0715,0.3875401556484503,0.4153588554919783,-0.07436953688350438
-4.071,0.366199805933056,0.2352160026038524,-0.1272849239377789
-4.0705,0.3128489316446912,0.07626642652648545,-0.1378680013486184
-4.07,0.2808384070716724,-0.0614898727405659,-0.1378680013486184
-4.0695,0.2488278824985372,-0.1780528951975522,-0.1167018465268816
-4.069,0.1848068333524996,-0.1992461720078678,-0.07436953688352363
-4.0685,-0.274010685527854,0.2034260873884947,-0.05320338206182537
-4.068,-0.9355615267046047,0.8074344764832696,-0.0532033820617965
-4.0675,-1.405049220442214,1.061753798207057,-0.021454149829278
-4.067,-1.244996597576974,0.6060983467848571,-0.021454149829278
-4.0665,-0.6688071552616557,0.04447651131062656,-0.03203722724012713
-4.066,-0.1673089369510276,-0.3475991096802118,-0.03203722724012713
-4.0655,0.1527963087794516,-0.5277419625680583,-0.03203722724012713
-4.065,0.3021787567868728,-0.5595318777835316,-0.02145414982928762
-4.0645,0.3661998059331045,-0.4959520473525559,-0.021454149829278
-4.064,0.3875401556484697,-0.3581957480853793,-0.021454149829278
-4.0635,0.4088805053638156,-0.2310360872234858,-0.021454149829278
-4.063,0.5689331282291328,-0.3264058328698288,0.04204431463582637
-4.0625,0.6329541773751706,-0.2734226408440398,0.05262739204666587
-4.062,0.5689331282291328,-0.05089323433572612,0.04204431463582637
-4.0615,0.4835717293675553,0.2034260873886971,0.031461237224958
-4.061,0.4195506802215176,0.4259554938970107,0.0208781598141185
-4.0605,0.4622313796522482,0.457745409112513,-0.021454149829278
-4.06,0.9850699476788821,-0.02969995752573822,-0.05320338206182537
-4.0595,1.187803269974668,-0.6337083466197325,-0.05320338206182537
-4.059,0.5689331282290746,-1.036380606016095,-0.05320338206182537
-4.0585,-0.338031734673125,-1.258910012524408,-0.08495261429434389
-4.058,-0.690147504977477,-0.9622041371799229,-0.05320338206182537
-4.0575,-0.5300948821122373,-0.3475991096802118,-0.04262030465097626
-4.057,-0.2206598112397223,0.182232810577678,-0.04262030465097626
-4.0565,0.04609456020262521,0.5001319627331828,-0.04262030465097626
-4.056,0.2168173579255475,0.5955017083796896,-0.05320338206182537
-4.0555,0.3128489316446039,0.5531151547590585,-0.05320338206182537
-4.055,0.3448594562177392,0.4153588554916891,-0.05320338206188312
-4.0545,0.3448594562177392,0.2458126410091644,-0.1167018465269201
-4.054,0.3341892813600663,0.07626642652663967,-0.1378680013485991
-4.0535,0.3235191065023448,-0.09327978795628986,-0.1378680013485991
-4.053,0.291508581929326,-0.1992461720078678,-0.1167018465269201
-4.0525,0.2594980573562781,-0.252229364033705,-0.09553569170522189
-4.052,0.07810508477520733,-0.1886495336024498,-0.05320338206182537
-4.0515,-0.4340633083930936,0.08686306493165288,-0.05320338206182537
-4.051,-0.8822106524157645,-0.04029659593035631,-0.04262030465097626
-4.0505,-1.180975548430607,-0.3687923864902479,-0.01087107241845775
-4.05,-1.212986073003927,-0.3370024712750445,-0.021454149829278
-4.0495,-0.8181896032696687,-0.2946159176543747,-0.03203722724012713
-4.049,-0.3273615598167137,-0.3052125560595325,-0.02145414982928762
-4.0485,0.08877525963357898,-0.3052125560595036,-0.021454149829278
-4.048,0.3341892813600565,-0.2628260024388724,-0.021454149829278
-4.0475,0.430220855079113,-0.2416327256285568,-0.021454149829278
-4.047,0.4408910299369897,-0.220439448818193,-0.03203722724006938
-4.0465,0.5582629533713921,-0.2098428104130352,0.03146123722496762
-4.046,0.6329541773751026,-0.1568596183872463,0.05262739204664663
-4.0455,0.5796033030866894,0.01268659609563506,0.05262739204665625
-4.045,0.5049120790829789,0.1822328105781598,0.04204431463581675
-4.0445,0.4302208550792003,0.3517790250608387,0.0208781598141185
-4.044,0.4302208550795788,0.4471487707069794,-0.01087107241845775
-4.0435,0.8463576745288233,0.04447651131098315,-0.04262030465097626
-4.043,1.337185717982225,-0.570128516188728,-0.05320338206182537
-4.0425,0.8143471499562508,-1.078767159636302,-0.05320338206182537
-4.042,-0.08194753808956648,-1.333086481360783,-0.08495261429437276
-4.0415,-0.6047861061160158,-1.163540266878104,-0.05320338206182537
-4.041,-0.5514352318276513,-0.5383386009737943,-0.04262030465098588
-4.0405,-0.2740106855276114,0.06566978812166498,-0.04262030465097626
-4.04,-0.007256314085787988,0.4471487707073456,-0.04262030465097626
-4.0395,0.1848068333523249,0.6060983467847125,-0.05320338206181575
-4.039,0.2808384070716918,0.6060983467847607,-0.05320338206182537
-4.0385,0.3341892813600565,0.5001319627331828,-0.05320338206182537
-4.038,0.3448594562177295,0.3411823866558158,-0.09553569170518339
-4.0375,0.3235191065023448,0.1822328105780248,-0.1378680013486184
-4.037,0.291508581929326,0.03387987290581572,-0.1378680013486184
-4.0365,0.2594980573562781,-0.07208651114585861,-0.1272849239377692
-4.036,0.2381577076407575,-0.1568596183871113,-0.1061187691160229
-4.0355,0.0674349099179905,-0.06148987274069118,-0.05320338206182537
-4.035,-0.5300948821122373,0.4895353243280153,-0.05320338206182537
-4.0345,-1.095614149568903,0.9451907757498006,-0.03203722724014638
-4.034,-1.554431668449771,0.9663840525605498,-0.021454149829278
-4.0335,-1.458400094730627,0.5107286011383502,-0.03203722724012713
-4.033,-0.9462317015623263,0.0232832345010916,-0.03203722724012713
-4.0325,-0.4233931335350034,-0.2840192792493422,-0.021454149829278
-4.032,0.02475421048725994,-0.4323722169215513,-0.021454149829278
-4.0315,0.2915085819290834,-0.5383386009731292,-0.021454149829278
-4.031,0.4088805053638545,-0.5065486857576174,-0.021454149829278
-4.0305,0.4302208550792003,-0.3899856633008816,-0.021454149829278
-4.03,0.4729015545098921,-0.2840192792493036,0.0102950824032405
-4.0295,0.5689331282290552,-0.2204394488180484,0.05262739204666587
-4.029,0.5475927785137094,-0.05089323433552374,0.05262739204666587
-4.0285,0.5155822539406614,0.13984625695749,0.04204431463581675
-4.028,0.4515612047945268,0.3305857482506388,0.02087815981409925
-4.0275,0.408880505363835,0.4789386859228479,-0.000287995007579752
-4.027,0.6116138276598051,0.2987958330350016,-0.03203722724012713
-4.0265,1.262494493977854,-0.2734226408435194,-0.05320338206180612
-4.026,1.251824319120764,-0.8350444763179138,-0.04262030465097626
-4.0255,0.3661998059331045,-1.195330182093607,-0.07436953688352363
-4.025,-0.5621054066844409,-1.3224898429555,-0.07436953688352363
-4.0245,-0.764838728981042,-0.8880276683431534,-0.04262030465097626
-4.024,-0.5300948821122373,-0.2310360872233701,-0.04262030465097626
-4.0235,-0.1993194615243764,0.2670059178190463,-0.04262030465097626
-4.023,0.06743490991813607,0.5213252395435755,-0.05320338206182537
-4.0225,0.2274875327832301,0.5849050699745222,-0.05320338206182537
-4.022,0.3128489316446136,0.5001319627332599,-0.05320338206182537
-4.0215,0.3448594562177295,0.3517790250606749,-0.07436953688357176
-4.021,0.3341892813600565,0.1716361721729923,-0.1272849239377692
-4.0205,0.3128489316446912,0.002089957690313421,-0.1378680013486184
-4.02,0.2915085819293066,-0.1356663415769499,-0.12728492393775
-4.0195,0.2701682322139607,-0.2310360872233701,-0.106118769116071
-4.019,0.1527963087794516,-0.1038764263613609,-0.07436953688352363
-4.0185,-0.3593720843888494,0.415358855491371,-0.05320338206184462
-4.018,-1.020922925565639,0.9981739677760521,-0.05320338206182537
-4.0175,-1.447729919872945,1.167720182258731,-0.021454149829278
-4.017,-1.639793067311057,0.8604176685091549,-0.0320372272401175
-4.0165,-1.277007122149469,0.3517790250604532,-0.03203722724012713
-4.016,-0.6688071552621118,-0.07208651114585861,-0.03203722724012713
-4.0155,-0.1886492866668296,-0.3581957480851191,-0.03203722724012713
-4.015,0.1421261339219534,-0.4747587705422018,-0.021454149829278
-4.0145,0.3448594562177392,-0.4535654937318862,-0.021454149829278
-4.014,0.4408910299367956,-0.3687923864906238,-0.021454149829278
-4.0135,0.4729015545100376,-0.2416327256285857,-0.01087107241838075
-4.013,0.5902734779444399,-0.2946159176543747,0.04204431463581675
-4.0125,0.6009436528021226,-0.2840192792492073,0.05262739204666587
-4.012,0.5262524287982665,-0.0932797879559718,0.04204431463580712
-4.0115,0.4408910299368829,0.1504428953626575,0.03146123722496762
-4.011,0.3768699807907871,0.383568940276341,0.01029508240326937
-4.0105,0.38754015564846,0.4047622170866566,-0.03203722724008862
-4.01,0.3128489316446912,-0.06148987274069118,-0.0637864594726745
-4.0095,-0.124628237520297,-0.5807251545938954,-0.05320338206182537
-4.009,-0.6367966306885979,-0.9410108603692604,-0.04262030465098588
-4.0085,-1.170305373573186,-1.163540266877835,-0.07436953688349475
-4.008,-1.159635198715513,-0.8668343915334161,-0.04262030465097626
-4.0075,-0.7221580295509229,-0.2416327256291062,-0.03203722724013675
-4.007,-0.2633405106698706,0.3199891098456352,-0.04262030465097626
-4.0065,0.0674349099179905,0.6484849004055269,-0.04262030465097626
-4.006,0.2594980573562781,0.7650479228623686,-0.05320338206182537
-4.0055,0.3448594562177586,0.7226613692415736,-0.05320338206182537
-4.005,0.3661998059331045,0.5849050699745222,-0.05320338206182537
-4.0045,0.3555296310754218,0.4047622170866759,-0.1167018465269201
-4.004,0.3235191065023448,0.2140227257935175,-0.1378680013486184
-4.0035,0.291508581929326,0.05507314971615059,-0.1378680013486184
-4.003,0.2488278824985954,-0.07208651114585861,-0.1167018465269201
-4.0025,0.2168173579255766,-0.156859618387121,-0.08495261429440162
-4.002,-0.1673089369510276,0.1186529801471552,-0.05320338206182537
-4.0015,-0.7755089038389382,0.701468092431364,-0.05320338206182537
-4.001,-1.191645723288183,0.8498210301035731,-0.03203722724014638
-4.0005,-1.501080794161261,0.3305857482500605,-0.02145414982928762
-4,-1.394379045584531,-0.1568596183871981,-0.03203722724012713
-3.9995,-0.9355615267041777,-0.4429688553267188,-0.03203722724012713
-3.999,-0.3700422592469978,-0.6125150698093976,-0.021454149829278
-3.9985,0.0674349099179905,-0.6443049850249,-0.021454149829278
-3.998,0.3235191065023739,-0.5489352393783931,-0.021454149829278
-3.9975,0.4622313796522482,-0.4535654937318862,-0.021454149829278
-3.997,0.4835717293676135,-0.3899856633008816,-0.03203722724012713
-3.9965,0.6116138276598051,-0.400582301706049,0.03146123722496762
-3.996,0.6756348768059011,-0.3158091944647096,0.05262739204666587
-3.9955,0.6009436528021226,-0.08268314955102604,0.04204431463581675
-3.995,0.4942419042252961,0.1822328105781598,0.04204431463581675
-3.9945,0.4195506802215176,0.4153588554918433,0.0208781598141185
-3.994,0.408880505363835,0.55311515475902,-0.021454149829278
-3.9935,0.6542945270905358,0.1928294489833272,-0.04262030465097626
-3.993,0.9530594231056497,-0.400582301706049,-0.0637864594726745
-3.9925,0.4835717293676135,-0.8456411147230812,-0.04262030465097626
-3.992,-0.3700422592469978,-1.089363798041932,-0.08495261429437276
-3.9915,-0.8502001278427167,-0.9728007755850904,-0.0637864594726745
-3.991,-0.7114878546928423,-0.3793890248957141,-0.04262030465097626
-3.9905,-0.3700422592469978,0.2034260873884947,-0.04262030465097626
-3.99,-0.03926683865883591,0.5849050699745222,-0.04262030465097626
-3.9895,0.1741366584948169,0.7438546460520338,-0.05320338206182537
-3.989,0.291508581929326,0.7226613692416989,-0.05320338206182537
-3.9885,0.3448594562177392,0.5955017083796896,-0.05320338206182537
-3.988,0.3448594562177392,0.4153588554918433,-0.09553569170522189
-3.9875,0.3341892813600565,0.2140227257936621,-0.1378680013486184
-3.987,0.3021787567870086,0.04447651131098315,-0.1378680013486184
-3.9865,0.2701682322139607,-0.1038764263613609,-0.1272849239377692
-3.986,0.2381577076409128,-0.1992461720078678,-0.106118769116071
-3.9855,0.1527963087794516,-0.1674562567923655,-0.05320338206182537
-3.985,-0.2846808603855366,0.1292496185523226,-0.05320338206182537
-3.9845,-0.7968492535543035,0.4789386859228479,-0.04262030465097626
-3.984,-1.26633694729234,0.5001319627331828,-0.01087107241842888
-3.9835,-1.26633694729234,0.1716361721729923,-0.03203722724012713
-3.983,-0.9035510021311299,-0.2204394488182027,-0.03203722724012713
-3.9825,-0.4020527838200457,-0.4853554089473885,-0.03203722724012713
-3.982,0.03542438534494258,-0.6443049850249,-0.03203722724012713
-3.9815,0.2808384070716433,-0.6972881770507372,-0.021454149829278
-3.981,0.408880505363835,-0.6019184314042303,-0.021454149829278
-3.9805,0.4408910299368829,-0.4641621321370536,-0.021454149829278
-3.98,0.4942419042252961,-0.3475991096802118,0.01029508240326937
-3.9795,0.5689331282290746,-0.2310360872233701,0.05262739204666587
-3.979,0.5262524287983441,-0.04029659593035631,0.05262739204666587
-3.9785,0.4622313796522482,0.1716361721729923,0.04204431463581675
-3.978,0.3875401556484697,0.3623756634660061,0.0208781598141185
-3.9775,0.3555296310754218,0.5213252395435176,-0.000287995007579752
-3.977,0.5902734779444399,0.6696781772158616,-0.03203722724012713
-3.9765,0.9850699476786977,0.8286277532933731,-0.04262030465097626
-3.976,0.4622313796522482,0.3517790250608387,-0.05320338206182537
-3.9755,-0.4554036581084589,-0.3793890248957141,-0.08495261429437276
-3.975,-1.042263275281004,-0.8138511995075789,-0.07436953688352363
-3.9745,-0.9142211769888124,-0.570128516188728,-0.04262030465097626
-3.974,-0.5194247072545548,-0.08268314955102604,-0.04262030465097626
-3.9735,-0.1352984123779797,0.309392471440169,-0.04262030465097626
-3.973,0.1314559590640864,0.5319218779486851,-0.05320338206182537
-3.9725,0.2808384070716433,0.5955017083796896,-0.05320338206182537
-3.972,0.3448594562177392,0.5425185163538525,-0.05320338206182537
-3.9715,0.3555296310754218,0.4259554938970107,-0.07436953688352363
-3.971,0.3341892813600565,0.2881991946298341,-0.1272849239377692
-3.9705,0.291508581929326,0.1610395337678249,-0.1378680013486184
-3.97,0.2488278824985954,0.04447651131098315,-0.1272849239377692
-3.9695,0.2168173579255475,-0.04029659593035631,-0.1167018465269201
-3.969,0.1207857842064037,-0.02969995752518888,-0.05320338206182537
-3.9685,-0.3273615598162672,0.3199891098453364,-0.0637864594726745
-3.968,-0.9462317015618604,0.9028042221295453,-0.05320338206182537
-3.9675,-1.30901764672307,1.220703374284568,-0.01087107241842888
-3.967,-1.373038695869166,0.8710143069140429,-0.03203722724012713
-3.9665,-0.9889124009925911,0.2776025562246667,-0.03203722724012713
-3.966,-0.4874141826815069,-0.2204394488182027,-0.03203722724012713
-3.9655,-0.06060718837420119,-0.5065486857577234,-0.021454149829278
-3.965,0.2274875327832301,-0.5807251545938954,-0.021454149829278
-3.9645,0.3982103305061524,-0.5595318777835605,-0.021454149829278
-3.964,0.4622313796522482,-0.4641621321370536,-0.021454149829278
-3.9635,0.4729015545099309,-0.3475991096802118,-0.01087107241842888
-3.963,0.5902734779444399,-0.3475991096802118,0.04204431463581675
-3.9625,0.6009436528021226,-0.1886495336027004,0.05262739204666587
-3.962,0.5262524287983441,0.05507314971615059,0.04204431463581675
-3.9615,0.4408910299368829,0.2881991946298341,0.03146123722496762
-3.961,0.3875401556484697,0.5001319627331828,0.01029508240326937
-3.9605,0.5049120790829789,0.4683420475176805,-0.03203722724012713
-3.96,1.049090996824793,-0.04029659593035631,-0.0637864594726745
-3.9595,1.102441871113207,-0.5595318777835605,-0.04262030465097626
-3.959,0.3768699807907871,-0.9092209451540858,-0.05320338206182537
-3.9585,-0.5194247072545548,-1.089363798041932,-0.08495261429437276
-3.958,-0.754168554123573,-0.7608680074817418,-0.04262030465097626
-3.9575,-0.5300948821122373,-0.1780528951975329,-0.03203722724012713
-3.957,-0.2099896363817582,0.2987958330350016,-0.04262030465097626
-3.9565,0.05676473506030786,0.5637117931641874,-0.04262030465097626
-3.956,0.2274875327832301,0.627291623595192,-0.05320338206182537
-3.9555,0.3128489316446912,0.55311515475902,-0.05320338206182537
-3.955,0.3341892813600565,0.4153588554918433,-0.0637864594726745
-3.9545,0.3341892813600565,0.2352160026039969,-0.1167018465269201
-3.954,0.3128489316446912,0.06566978812131802,-0.1378680013486184
-3.9535,0.2808384070716433,-0.08268314955102604,-0.1378680013486184
-3.953,0.2488278824985954,-0.1886495336027004,-0.1167018465269201
-3.9525,0.2061471830678648,-0.2310360872233701,-0.08495261429437276
