Class_6_Listen_To_Quran/Class_6_Listen_To_Quran_SH_4.csv

#Digilent WaveForms Oscilloscope Acquisition
#Device Name: EExplorer
#Serial Number: SN:210151A2B84A
#Date Time: 2020-12-03 11:50:40.326
#Sample rate: 2000Hz
#Samples: 16384
#Trigger: Source: Channel 1 Type: Edge Condition: Rising Level: 0 V Hyst.: Auto HoldOff: 0 s
#Channel 1: Range: 1 V/div Offset: 0 V Attenuation: 1 X
#Channel 2: Range: 1 V/div Offset: 0 V Attenuation: 1 X
#Power Supplies: ON
#Fixed Supply: ON
#Voltage: 3.3 V Readback: 3.331 V
#Positive Supply: ON
#Voltage: 3.7 V Readback: 3.806 V
#Current: 40 mA Readback: 18 mA
#Negative Supply: ON
#Voltage: -3.7 V Readback: -4.003 V
#Current: -40 mA Readback: -22 mA
#Reference 1: ON
#Voltage: 0 V
#Reference 2: ON
#Voltage: 0 V

Time (s),Channel 1 (V),Channel 2 (V)
-4.096,0.5689331282290746,0.03387987290581572
-4.0955,0.5369226036560557,0.05507314971613131
-4.095,0.8036769750984907,-0.07208651114582006
-4.0945,1.241154144263081,-0.02969995752518888
-4.094,0.2808384070725167,-0.8986243067481281
-4.0935,-0.7008176798359846,-1.492036057438738
-4.093,-1.607782542738184,-1.979481424075996
-4.0925,-1.607782542738184,-1.661582271921263
-4.092,-0.9675720512766726,-0.7396747306706648
-4.0915,-0.3593720843893152,0.07626642652648545
-4.091,0.03542438534494258,0.5849050699745222
-4.0905,0.2594980573563751,0.8816109453193453
-4.09,0.3661998059331045,1.029963882991555
-4.0895,0.408880505363835,1.072350436612224
-4.089,0.408880505363835,1.072350436612224
-4.0885,0.3768699807907871,1.072350436612224
-4.088,0.3448594562177392,1.082947075017392
-4.0875,0.2915085819293745,1.114736990232865
-4.087,0.1207857842057923,0.9981739677756569
-4.0865,-0.5514352318276028,0.5637117931641874
-4.086,-1.415719395299111,0.09745970333724435
-4.0855,-1.991908837614604,-0.7714646458872273
-4.085,-1.821186039891837,-1.121153713257435
-4.0845,-1.084943974712405,-0.7926579226975428
-4.084,-0.3593720843888688,-0.3158091944643915
-4.0835,0.1314559590640864,0.03387987290581572
-4.083,0.4195506802215176,0.2246193641988295
-4.0825,0.5475927785137384,0.2352160026039198
-4.082,0.5796033030867573,0.1504428953626575
-4.0815,0.6009436528021226,0.09745970333682032
-4.081,0.7823366253825625,-0.02969995752507322
-4.0805,0.7716664505250448,0.01268659609548085
-4.08,0.6649647019482183,0.1186529801471552
-4.0795,0.5475927785138162,0.1928294489832598
-4.079,0.4942419042252573,0.2564092794143029
-4.0785,0.4515612047945656,0.2246193641988295
-4.078,0.6329541773750056,0.1822328105781983
-4.0775,0.6009436528011425,-0.3793890248966972
-4.077,-0.4767440078238243,-1.460246142222792
-4.0765,-1.330357996437659,-1.915901593644578
-4.076,-1.66113341702617,-1.873515040023561
-4.0755,-1.191645723288561,-1.036380606016095
-4.075,-0.5087545323968721,-0.1038764263613609
-4.0745,-0.06060718837395858,0.5107286011386682
-4.074,0.2061471830678648,0.8604176685088755
-4.0735,0.3448594562177392,1.019367244586387
-4.073,0.3982103305061039,1.072350436612176
-4.0725,0.408880505363835,1.061753798207057
-4.072,0.3875401556484697,1.029963882991555
-4.0715,0.3555296310754509,1.019367244586397
-4.071,0.3235191065022865,1.019367244586397
-4.0705,0.2274875327832301,1.029963882991555
-4.07,-0.2846808603850708,0.6696781772161893
-4.0695,-1.159635198716241,0.3941655786807952
-4.069,-1.959898313041711,-0.3899856633008816
-4.0685,-2.109280761049269,-1.01518732920576
-4.068,-1.458400094729909,-0.9092209451536907
-4.0675,-0.6688071552621118,-0.474758770542221
-4.067,-0.03926683865883591,-0.04029659593035631
-4.0665,0.3661998059332792,0.1398462569575478
-4.066,0.5582629533713921,0.2034260873884947
-4.0655,0.6009436528021226,0.2034260873884947
-4.065,0.5902734779444495,0.1610395337678635
-4.0645,0.707645401378949,0.02328323450064829
-4.064,0.7503261008096795,-0.05089323433552374
-4.0635,0.6649647019482959,0.03387987290573861
-4.063,0.5582629533713047,0.1716361721730887
-4.0625,0.4622313796522482,0.2776025562246667
-4.062,0.494241904225267,0.3199891098452978
-4.0615,0.536922603656017,-0.1674562567926065
-4.061,0.5262524287983441,-0.4323722169215513
-4.0605,-0.3273615598162672,-1.089363798041932
-4.06,-1.415719395300334,-1.77814529437796
-4.0595,-1.895877263895616,-1.937094870455327
-4.059,-1.426389570157579,-1.216523458903942
-4.0585,-0.786179078697203,-0.347599109681002
-4.058,-0.2313299860971235,0.3623756634660061
-4.0575,0.142126133921769,0.8180311148882058
-4.057,0.3341892813598819,1.061753798206835
-4.0565,0.4195506802215176,1.167720182258731
-4.056,0.4408910299368829,1.178316820663898
-4.0555,0.43022085507921,1.146526905448425
-4.055,0.3982103305061039,1.114736990232875
-4.0545,0.3448594562177392,1.093543713422559
-4.054,0.216817357925664,1.167720182258663
-4.0535,-0.1459685872363902,0.902804222128967
-4.053,-0.9462317015618604,0.2670059178194992
-4.0525,-1.586442193022819,-0.570128516188728
-4.052,-1.906547438753152,-1.364876396576449
-4.0515,-1.746494815888059,-1.545019249464132
-4.051,-1.138294849000148,-1.004590690800593
-4.0505,-0.466073832966753,-0.4217755785169139
-4.05,0.07810508477567314,-0.04029659593035631
-4.0495,0.408880505363835,0.1716361721729923
-4.049,0.5689331282289291,0.2140227257936235
-4.0485,0.6222840025175752,0.15044289536259
-4.048,0.7183155762366316,0.07626642652648545
-4.0475,0.8463576745287068,-0.008506680714776907
-4.047,0.7716664505249187,0.04447651131106989
-4.0465,0.6329541773751706,0.13984625695749
-4.046,0.5262524287984411,0.2034260873884368
-4.0455,0.4942419042255581,0.2670059178194703
-4.045,0.7823366253827275,0.2352160026039969
-4.0445,0.857027849386506,-0.1462629799820306
-4.044,0.3021787567860673,-0.8456411147237173
-4.0435,-0.7328282044082075,-1.545019249464132
-4.043,-1.650463242168915,-2.043061254507001
-4.0425,-1.511750969019167,-1.5662125262749
-4.042,-0.8715404775580819,-0.6125150698093976
-4.0415,-0.3380317346739499,0.1504428953626575
-4.041,0.05676473505994883,0.6696781772153895
-4.0405,0.2808384070717403,0.9769806909658425
-4.04,0.3875401556484697,1.114736990232894
-4.0395,0.4195506802214886,1.157123543853525
-4.039,0.4302208550791809,1.146526905448377
-4.0385,0.408880505363835,1.125333628638062
-4.038,0.3661998059331433,1.114736990232904
-4.0375,0.3235191065021895,1.125333628637946
-4.037,0.1207857842064037,0.9981739677760521
-4.0365,-0.5087545323968721,0.627291623595192
-4.036,-1.266336947292825,0.2670059178187282
-4.0355,-1.799845690176472,-0.5807251545938954
-4.035,-1.725154466172693,-0.8774310299385835
-4.0345,-1.116954499285336,-0.5807251545941652
-4.034,-0.4340633083930936,-0.2416327256285375
-4.0335,0.07810508477567314,-0.04029659593035631
-4.033,0.3875401556481883,0.02328323450059046
-4.0325,0.5582629533714406,0.03387987290585427
-4.032,0.6116138276598051,0.07626642652648545
-4.0315,0.654294527090497,0.01268659609553868
-4.031,0.8356874996711117,-0.1886495336026907
-4.0305,0.8036769750980928,-0.1780528951975329
-4.03,0.6756348768060175,-0.1038764263614284
-4.0295,0.5475927785136414,0.03387987290593137
-4.029,0.4729015545099309,0.1610395337678249
-4.0285,0.6116138276598051,0.05507314971615059
-4.028,1.102441871112712,-0.3158091944655095
-4.0275,0.5582629533713921,-1.195330182093607
-4.027,-0.2953510352432193,-1.809935209593318
-4.0265,-1.148965023857054,-2.074851169722263
-4.026,-1.426389570157579,-1.778145294377815
-4.0255,-0.9569018764195432,-0.792657922697244
-4.025,-0.3700422592475316,0.1504428953617997
-4.0245,0.003413860772108149,0.7332580076471554
-4.024,0.2381577076409128,1.051157159801889
-4.0235,0.355529631075315,1.188913459068941
-4.023,0.408880505363835,1.220703374284529
-4.0225,0.408880505363835,1.178316820663898
-4.022,0.3982103305061621,1.12533362863811
-4.0215,0.376869980790758,1.082947075017372
-4.021,0.3448594562177392,1.061753798207057
-4.0205,0.2594980573562781,0.9981739677760521
-4.02,-0.2313299860977931,0.4895353243277262
-4.0195,-0.9675720512772257,0.1716361721729923
-4.019,-1.554431668449771,-0.5807251545938954
-4.0185,-1.789175515318576,-1.152943628472416
-4.018,-1.330357996438436,-1.089363798041932
-4.0175,-0.658136980404429,-0.6231117082145651
-4.017,-0.1246282375207823,-0.1568596183876221
-4.0165,0.2594980573564916,0.1504428953627346
-4.016,0.4942419042252961,0.2352160026039969
-4.0155,0.5902734779443525,0.1610395337678924
-4.015,0.6009436528022196,0.0656697881211349
-4.0145,0.707645401378949,-0.1356663415768632
-4.014,0.707645401378949,-0.1568596183871788
-4.0135,0.6222840025174005,-0.1144730647664416
-4.013,0.5262524287983441,-0.01910331912002144
-4.0125,0.4622313796522482,0.09745970333682032
-4.012,0.5262524287988002,0.1080563417416601
-4.0115,1.027750647109428,-0.252229364033705
-4.011,1.443887466559051,-0.6125150698093976
-4.0105,0.2381577076420094,-1.682775548730335
-4.01,-0.839529952985034,-2.21260746898968
-4.0095,-1.597112367880501,-2.297380576231019
-4.009,-1.469070269588427,-1.545019249464816
-4.0085,-0.8181896032691253,-0.4323722169207417
-4.008,-0.2206598112394408,0.457745409112513
-4.0075,0.1207857842060931,0.9451907757497716
-4.007,0.3021787567870863,1.188913459069133
-4.0065,0.3875401556484697,1.263089927905238
-4.006,0.408880505363835,1.25249328950007
-4.0055,0.4088805053638156,1.199510097474185
-4.005,0.3875401556484697,1.146526905448396
-4.0045,0.3555296310754218,1.125333628638062
-4.004,0.3235191065020439,1.125333628637744
-4.0035,-0.03926683865883591,0.775644561267536
-4.003,-0.8928808272734472,0.4259554938970107
-4.0025,-1.735824641029609,-0.2416327256279304
-4.002,-2.03458953704549,-1.025783967610927
-4.0015,-1.479740444445993,-1.152943628472937
-4.001,-0.7434983792665598,-0.7290780922666249
-4.0005,-0.1246282375199186,-0.2522293640334929
-4,0.291508581929326,-0.01910331912002144
-3.9995,0.5155822539406614,0.07626642652648545
-3.999,0.5902734779444399,0.1292496185523226
-3.9985,0.5796033030867573,0.1186529801471552
-3.998,0.6863050516635838,-0.008506680714854012
-3.9975,0.8356874996711408,-0.1250697031716958
-3.997,0.7716664505250448,-0.05089323433552374
-3.9965,0.6329541773751706,0.06566978812131802
-3.996,0.5262524287983441,0.1928294489833272
-3.9955,0.4942419042252961,0.2564092794143318
-3.995,0.9210488985326017,-0.1250697031716958
-3.9945,1.486568165989782,-0.4111789401112165
-3.994,0.942389248247967,-0.8880276683437509
-3.9935,-0.5834457564006506,-1.809935209593318
-3.993,-1.30901764672307,-1.968884785670829
-3.9925,-1.191645723288561,-1.34368311976595
-3.992,-0.7328282044082075,-0.474758770542221
-3.9915,-0.1673089369510276,0.3517790250608387
-3.991,0.1741366584948169,0.8286277532933731
-3.9905,0.3235191065023739,1.019367244586387
-3.99,0.3875401556484697,1.082947075017392
-3.9895,0.3982103305061524,1.082947075017392
-3.989,0.3875401556484697,1.040560521396722
-3.9885,0.3661998059331045,0.9981739677760521
-3.988,0.3555296310754218,0.9769806909657173
-3.9875,0.3341892813600565,0.9875773293708847
-3.987,0.1634664836371343,0.8286277532933731
-3.9865,-0.572775581542968,0.3623756634660061
-3.986,-1.447729919872945,-0.1674562567923655
-3.9855,-2.098610586191586,-0.9622041371799229
-3.985,-2.173301810195364,-1.184733543688439
-3.9845,-1.522421143876723,-0.7820612842920766
-3.984,-0.754168554123573,-0.2416327256285375
-3.9835,-0.1032878878049318,0.1504428953626575
-3.983,0.3128489316446912,0.2352160026039969
-3.9825,0.5262524287983441,0.1716361721729923
-3.982,0.5902734779444399,0.1080563417419877
-3.9815,0.6436243522328531,0.04447651131098315
-3.981,0.8676980242441885,-0.1780528951975329
-3.9805,0.8463576745288233,-0.1568596183871981
-3.98,0.707645401378949,-0.04029659593035631
-3.9795,0.5689331282290746,0.09745970333682032
-3.979,0.4729015545099309,0.2140227257936621
-3.9785,0.6009436528021226,0.3729723018711736
-3.978,1.251824319120764,0.7968378380778709
-3.9775,0.9530594231056497,0.2564092794143318
-3.977,-0.274010685527854,-0.8774310299385835
-3.9765,-0.658136980404429,-1.036380606016095
-3.976,-0.5941159312583333,-0.6443049850249
-3.9755,-0.2633405106701714,-0.04029659593035631
-3.975,0.09944543449103843,0.5319218779486851
-3.9745,0.2594980573562781,0.8286277532933731
-3.974,0.3235191065023739,0.9981739677760521
-3.9735,0.3661998059331045,1.093543713422559
-3.973,0.3768699807907871,1.146526905448396
-3.9725,0.3768699807907871,1.157123543853563
-3.972,0.3661998059331045,1.178316820663898
-3.9715,0.3555296310754218,1.210106735879401
-3.971,0.3341892813600565,1.241896651094903
-3.9705,0.2488278824985954,1.263089927905238
-3.97,-0.3487019095316325,0.7968378380778709
-3.9695,-1.277007122150022,0.3305857482505039
-3.969,-1.949228138184029,-0.5383386009732256
-3.9685,-2.002579012472442,-1.142346990067769
-3.968,-1.437059745015262,-1.01518732920576
-3.9675,-0.7114878546928423,-0.5277419625680583
-3.967,-0.1032878878049318,-0.1250697031716958
-3.9665,0.3128489316446912,0.06566978812131802
-3.966,0.5475927785137094,0.02328323450064829
-3.9655,0.6436243522328531,-0.04029659593035631
-3.965,0.6329541773751706,-0.09327978795619347
-3.9645,0.7183155762366316,-0.2098428104130352
-3.964,0.707645401378949,-0.2098428104130352
-3.9635,0.6116138276598051,-0.1038764263613609
-3.963,0.5262524287983441,0.04447651131098315
-3.9625,0.4622313796522482,0.1610395337678249
-3.962,0.4622313796522482,0.2352160026039969
-3.9615,0.7289857510943143,0.09745970333682032
-3.961,0.8997085488172365,-0.1780528951975329
-3.9605,-0.2846808603855366,-1.248313374119443
-3.96,-1.159635198715513,-1.831128486403653
-3.9595,-1.234326422719292,-1.545019249464132
-3.959,-0.839529952985034,-0.7290780922662394
-3.9585,-0.274010685527854,0.1716361721729923
-3.958,0.1101156093487211,0.7862411996727035
-3.9575,0.291508581929326,1.082947075017392
-3.957,0.3661998059331045,1.220703374284568
-3.9565,0.3982103305061524,1.25249328950007
-3.956,0.3982103305061524,1.231300012689736
-3.9555,0.3768699807907871,1.178316820663898
-3.955,0.3661998059331045,1.157123543853563
-3.9545,0.3448594562177392,1.135930267043229
-3.954,0.3128489316446912,1.104140351827727
-3.9535,-0.03926683865883591,0.8286277532933731
-3.953,-0.6261264558313813,0.627291623595192
-3.9525,-1.319687821580753,-0.02969995752518888
-3.952,-1.810515865034154,-0.8244478379127463
-3.9515,-1.543761493592088,-0.9516074987747555
-3.951,-0.839529952985034,-0.6125150698093976
-3.9505,-0.1993194615240755,-0.2098428104130352
-3.95,0.2381577076409128,0.02328323450064829
-3.9495,0.4942419042252961,0.04447651131098315
-3.949,0.6009436528021226,0.01268659609548085
-3.9485,0.6116138276598051,-0.04029659593035631
-3.948,0.7396559259519968,-0.1674562567923655
-3.9475,0.8997085488172365,-0.2628260024388724
-3.947,0.825017324813458,-0.1250697031716958
-3.9465,0.6756348768059011,0.04447651131098315
-3.946,0.5369226036560266,0.1716361721729923
-3.9455,0.4622313796522482,0.2458126410091644
-3.945,0.5796033030867573,-0.06148987274069118
-3.9445,0.2808384070716433,-0.6972881770507372
-3.944,-0.2846808603855366,-1.333086481360783
-3.9435,-1.127624674142465,-1.915901593644992
-3.943,-1.778505340461106,-2.17022091536901
-3.9425,-1.51175096901904,-1.566212526274467
-3.942,-0.8822106524157645,-0.6019184314042303
-3.9415,-0.3273615598162672,0.1928294489833272
-3.941,0.07810508477567314,0.7438546460520338
-3.9405,0.3021787567870086,1.051157159801889
-3.94,0.408880505363835,1.188913459069066
-3.9395,0.4408910299368829,1.220703374284568
-3.939,0.4408910299368829,1.199510097474233
-3.9385,0.4195506802215176,1.157123543853563
-3.938,0.3768699807907871,1.114736990232894
-3.9375,0.3341892813600565,1.082947075017392
-3.937,0.1101156093487211,0.9663840525605498
-3.9365,-0.7114878546928423,0.2670059178194992
-3.936,-1.522421143876723,-0.5807251545938954
-3.9355,-1.87453691418025,-1.375473034981453
-3.935,-1.767835165603424,-1.576809164679634
-3.9345,-1.223656247861609,-1.110557074852267
-3.934,-0.5407650569699201,-0.570128516188728
-3.9335,-0.007256314085787988,-0.1568596183871981
-3.933,0.3555296310754218,0.04447651131098315
-3.9325,0.5475927785137094,0.1292496185523226
-3.932,0.6116138276598051,0.08686306493165288
-3.9315,0.6542945270905358,0.002089957690313421
-3.931,0.7716664505250448,-0.1780528951975329
-3.9305,0.7289857510943143,-0.1886495336027004
-3.93,0.6329541773751706,-0.08268314955102604
-3.9295,0.5369226036560266,0.04447651131098315
-3.929,0.4729015545099309,0.1504428953626575
-3.9285,0.6009436528021226,-0.05089323433552374
-3.928,0.6649647019482183,-0.792657922697244
-3.9275,0.03542438534494258,-1.650985633515806
-3.927,-0.8715404775580819,-2.085447808127671
-3.9265,-1.735824641030376,-2.339767129851689
-3.926,-1.661133417026597,-1.788741932782983
-3.9255,-0.9782422261349084,-0.7078848154559045
-3.925,-0.391382608962363,0.1610395337678249
-3.9245,0.03542438534494258,0.7332580076468663
-3.924,0.2808384070716433,1.051157159801889
-3.9235,0.3982103305061524,1.178316820663898
-3.923,0.4408910299368829,1.188913459069066
-3.9225,0.4408910299368829,1.146526905448396
-3.922,0.408880505363835,1.093543713422559
-3.9215,0.3768699807907871,1.051157159801889
-3.921,0.3448594562177392,1.00877060618122
-3.9205,0.2701682322139607,0.9557874141553824
-3.92,-0.274010685527854,0.3729723018711736
-3.9195,-1.052933450138687,-0.6019184314042303
-3.919,-1.533091318734406,-1.47084278062796
-3.9185,-1.522421143876723,-1.84172512480882
-3.918,-0.8822106524157645,-1.47084278062796
-3.9175,-0.274010685527854,-0.7608680074817418
-3.917,0.1848068333524996,-0.1992461720078678
-3.9165,0.4622313796522482,0.05507314971615059
-3.916,0.5796033030867573,0.1610395337678249
-3.9155,0.6116138276598051,0.09745970333682032
-3.915,0.6116138276598051,-0.06148987274069118
-3.9145,0.7716664505250448,-0.3052125560595421
-3.914,0.8036769750980928,-0.326405832869877
-3.9135,0.707645401378949,-0.1780528951975329
-3.913,0.5796033030867573,-0.01910331912002144
-3.9125,0.4835717293676135,0.1186529801471552
-3.912,0.3021787567870086,-0.1250697031716958
-3.9115,-0.08194753808956648,-0.8350444763179138
-3.911,0.5049120790829789,-0.5277419625680583
-3.9105,0.05676473506030786,-1.01518732920576
-3.91,-0.839529952985034,-1.661582271920973
-3.9095,-1.1062843244271,-1.640388995110639
-3.909,-0.807519428411986,-0.9516074987747555
-3.9085,-0.391382608962363,-0.1780528951975329
-3.908,-0.01792648894347063,0.4471487707073456
-3.9075,0.2274875327832301,0.849821030103708
-3.907,0.3661998059331045,1.061753798207057
-3.9065,0.4195506802215176,1.157123543853563
-3.906,0.4408910299368829,1.178316820663898
-3.9055,0.4302208550792003,1.167720182258731
-3.905,0.3875401556484697,1.146526905448396
-3.9045,0.3448594562177392,1.125333628638062
-3.904,0.3128489316446912,1.114736990232894
-3.9035,-0.03926683865883591,0.7438546460520338
-3.903,-0.839529952985034,0.2881991946298341
-3.9025,-1.479740444445993,-0.3581957480853793
-3.902,-1.83185621474952,-1.184733543688439
-3.9015,-1.991908837614759,-1.661582271920973
-3.901,-1.437059745015262,-1.269506650929778
-3.9005,-0.658136980404429,-0.6125150698093976
-3.9,-0.007256314085787988,-0.08268314955102604
-3.8995,0.3982103305061524,0.1292496185523226
-3.899,0.5902734779444399,0.1822328105781598
-3.8985,0.6329541773751706,0.1186529801471552
-3.898,0.7396559259519968,0.002089957690313421
-3.8975,0.8463576745288233,-0.1038764263613609
-3.897,0.7716664505250448,-0.07208651114585861
-3.8965,0.6436243522328531,0.04447651131098315
-3.896,0.5262524287983441,0.1504428953626575
-3.8955,0.4195506802215176,0.1504428953626575
-3.895,0.2061471830678648,-0.7078848154559045
-3.8945,0.3661998059331045,-1.142346990067769
-3.894,-0.3380317346739499,-1.75695201756748
-3.8935,-1.095614149569417,-2.191414192179345
-3.893,-1.51175096901904,-2.17022091536901
-3.8925,-1.170305373573196,-1.396666311791788
-3.892,-0.6474668055467465,-0.4641621321370536
-3.8915,-0.1673089369510276,0.2881991946298341
-3.891,0.1634664836371343,0.7650479228623686
-3.8905,0.3448594562177392,1.019367244586387
-3.89,0.4302208550792003,1.104140351827727
-3.8895,0.4515612047945656,1.104140351827727
-3.889,0.4408910299368829,1.061753798207057
-3.8885,0.408880505363835,1.029963882991555
-3.888,0.3661998059331045,0.9875773293708847
-3.8875,0.3341892813600565,0.9663840525605498
-3.887,0.1634664836371343,0.7862411996727035
-3.8865,-0.4020527838200457,0.4153588554918433
-3.886,-1.095614149569417,0.1080563417419877
