Class_6_Listen_To_Quran/Class_6_Listen_To_Quran_UZ_9.csv

#Digilent WaveForms Oscilloscope Acquisition
#Device Name: EExplorer
#Serial Number: SN:210151A2B84A
#Date Time: 2020-12-21 13:38:48.000
#Sample rate: 2000Hz
#Samples: 16384
#Trigger: Source: Channel 1 Type: Edge Condition: Rising Level: 0 V Hyst.: Auto HoldOff: 0 s
#Channel 1: Range: 1 V/div Offset: 0 V
#Channel 2: Range: 1 V/div Offset: 0 V

Time (s),Channel 1 (V),Channel 2 (V)
-4.0960000000000001,0.15279630877945163,-0.47475877054222104
-4.0955000000000004,0.23815770764083513,-0.33700247127516975
-4.0949999999999998,0.76099627566795425,0.10805634174251781
-4.0945,1.4118769419860033,0.69087145402619654
-4.0940000000000003,1.7960032368622287,1.1359302670428237
-4.0934999999999997,1.9560558597277597,1.3796529503620028
-4.093,1.8920348105817222,1.2948798431207402
-4.0925000000000002,1.6146102642822258,0.64848490040611473
-4.0919999999999996,1.2624944939781355,-0.093279787956656077
-4.0914999999999999,0.92104889853260175,-0.60191843140423029
-4.0910000000000002,0.6116138276598051,-0.83504447631791379
-4.0904999999999996,0.3875401556483824,-0.91981758355927257
-4.0899999999999999,0.29150858192932599,-0.94101086036958814
-4.0895000000000001,0.45156120479456557,-1.0575738828264298
-4.0890000000000004,0.44089102993689266,-0.90922094515422069
-4.0884999999999998,0.33418928136005654,-0.63370834661973252
-4.0880000000000001,0.22748753278323011,-0.37938902489571413
-4.0875000000000004,0.15279630877951955,-0.13566634157708485
-4.0869999999999997,-0.01792648894398496,0.065669788121607148
-4.0865,-0.58344575640065055,0.38356894027634103
-4.0860000000000003,-1.3196878215800831,0.81803111488781066
-4.0854999999999997,-2.0239193621882632,1.072350436611829
-4.085,-2.5254175804988912,0.63788826200035942
-4.0845000000000002,-2.3653649576337976,0.35177902506109893
-4.0839999999999996,-1.4797404444453133,-0.019103319120329847
-4.0834999999999999,-0.73282820440820751,-0.3581957480853793
-4.0830000000000002,-0.22065981123944084,-0.54893523937839306
-4.0824999999999996,0.067434909918097252,-0.62311170821455542
-4.0819999999999999,0.18480683335249956,-0.61251506980939763
-4.0815000000000001,0.20614718306786484,-0.55953187778356051
-4.0810000000000004,0.18480683335251896,-0.47475877054229815
-4.0804999999999998,0.16346648363713429,-0.38998566330088158
-4.0800000000000001,0.15279630877945163,-0.30521255605954212
-4.0795000000000003,0.15279630877945163,-0.23103608722343755
-4.0789999999999997,0.2381577076410098,-0.082683149550833293
-4.0785,0.34485945621773917,0.12924961855232261
-4.0780000000000003,0.4195506802214497,0.55311515475863438
-4.0774999999999997,-0.071277363232194371,0.99817396777605205
-4.077,-0.41272295867772835,0.99817396777605205
-4.0765000000000002,-0.017926488943829644,0.6802748156213182
-4.0759999999999996,0.43022085507945262,0.22461936419828016
-4.0754999999999999,0.70764540137894905,-0.37938902489571413
-4.0750000000000002,0.76099627566736228,-0.80325456110241145
-4.0744999999999996,0.66496470194808244,-1.0257839676110239
-4.0739999999999998,0.51558225394066137,-1.131750351662602
-4.0735000000000001,0.3768699807907871,-1.0999604364470996
-4.0730000000000004,0.46223137965217054,-1.2165234589038356
-4.0724999999999998,0.4835717293676135,-1.1741369052832717
-4.0720000000000001,0.3768699807907871,-0.95160749877475548
-4.0715000000000003,0.25949805735638481,-0.69728817705096846
-4.0709999999999997,0.16346648363698871,-0.47475877054209575
-4.0705,0.0034138607718946501,-0.33700247127504446
-4.0700000000000003,-0.61545628097313565,-0.20984281041315089
-4.0694999999999997,-1.2876772970082777,0.25640927941482328
-4.069,-1.9172176136109809,0.7968378380778709
-4.0685000000000002,-2.4827368810681607,1.2101067358794007
-4.0679999999999996,-2.5360877553559917,1.3902495887668425
-4.0674999999999999,-1.8958772638956156,0.94519077575021493
-4.0670000000000002,-1.0209229255656389,0.24581264100916439
-4.0664999999999996,-0.40205278381969634,-0.30521255605982162
-4.0659999999999998,-0.017926488943470625,-0.61251506980939763
-4.0655000000000001,0.16346648363713429,-0.70788481545590454
-4.0650000000000004,0.21681735792549897,-0.66549826183527339
-4.0644999999999998,0.20614718306786484,-0.55953187778356051
-4.0640000000000001,0.18480683335249956,-0.42177557851638392
-4.0635000000000003,0.15279630877948075,-0.27342264084417478
-4.0629999999999997,0.15279630877946135,-0.13566634157676682
-4.0625,0.16346648363713429,-0.029699957525188878
-4.0620000000000003,0.38754015564826594,0.18223281057796703
-4.0614999999999997,0.89970854881709095,0.58490506997477276
-4.0609999999999999,0.73965592595199681,0.86041766850887547
-4.0605000000000002,0.45156120479456557,0.87101430691404291
-4.0599999999999996,0.75032610080999007,0.80743447648291311
-4.0594999999999999,1.0917716962555239,0.66967817721586165
-4.0590000000000002,1.1878032699746677,0.20342608738849466
-4.0585000000000004,1.1024418711132844,-0.31580919446423728
-4.0579999999999998,0.87836819910187125,-0.6972881770507372
-4.0575000000000001,0.6116138276598051,-0.9092209451540858
-4.0570000000000004,0.3875401556486735,-0.94101086036955928
-4.0564999999999998,0.32351910650237387,-0.99399405239542526
-4.056,0.35552963107542179,-1.0257839676109275
-4.0555000000000003,0.29150858192938423,-0.88802766834387614
-4.0549999999999997,0.21681735792547957,-0.67609490024021923
-4.0545,0.14212613392176898,-0.47475877054222104
-4.0540000000000003,0.067434909918058436,-0.30521255605969633
-4.0534999999999997,-0.30602121010150363,-0.11447306476614286
-4.0529999999999999,-0.96757205127722568,0.30939247144016896
-4.0525000000000002,-1.6291228924535495,0.81803111488820579
-4.0519999999999996,-2.3013439084877794,1.2313000126899378
-4.0514999999999999,-2.5467579302142567,1.4538294191982519
-4.0510000000000002,-2.1733018101953641,1.146526905448396
-4.0505000000000004,-1.2449965975778188,0.44714877070798165
-4.0499999999999998,-0.55143523182760279,-0.17805289519753292
-4.0495000000000001,-0.10328788780493176,-0.55953187778356051
-4.0490000000000004,0.12078578420619993,-0.69728817705061186
-4.0484999999999998,0.20614718306787455,-0.68669153864547339
-4.048,0.21681735792554749,-0.5807251545938954
-4.0475000000000003,0.18480683335252868,-0.43237221692168626
-4.0469999999999997,0.16346648363713429,-0.27342264084391454
-4.0465,0.16346648363713429,-0.13566634157686319
-4.0460000000000003,0.18480683335248016,-0.0085066807149696555
-4.0454999999999997,0.36619980593353146,0.25640927941470765
-4.0449999999999999,0.83568749967114075,0.66967817721586165
-4.0445000000000002,1.2945050185514941,1.0723504366122243
-4.0439999999999996,1.0597611716824955,1.3160731199307378
-4.0434999999999999,1.0811015213978414,0.94519077575021493
-4.0430000000000001,1.2411541442630809,0.51072860113835017
-4.0425000000000004,1.2624944939784268,-0.10387642636080185
-4.0419999999999998,1.1451225705439372,-0.65490162343006741
-4.0415000000000001,0.8997085488172365,-0.97280077558509037
-4.0410000000000004,0.64362435223308601,-1.0363806060160372
-4.0404999999999998,0.4195506802214109,-0.96220413717982656
-4.04,0.30217875678700862,-0.85623775312824868
-4.0395000000000003,0.40888050536373799,-0.84564111472309089
-4.0389999999999997,0.37686998079069978,-0.67609490024021923
-4.0385,0.28083840707164331,-0.47475877054222104
-4.0380000000000003,0.19547700821025982,-0.27342264084422296
-4.0374999999999996,0.1207857842061611,-0.1250697031716283
-4.0369999999999999,-0.14596858723566233,-0.050893234335523743
-4.0365000000000002,-0.82885977812735145,0.12924961855232261
-4.0359999999999996,-1.575772018165738,0.58490506997487879
-4.0354999999999999,-2.23732285934146,0.97698069096571727
-4.0350000000000001,-2.5574281050719394,1.1889134590690658
-4.0345000000000004,-2.4613965313528832,1.1677201822587502
-4.0339999999999998,-1.6077825427381842,0.59550170837968963
-4.0335000000000001,-0.80751942841198598,-0.072086511145858609
-4.0330000000000004,-0.26334051067066633,-0.55953187778311719
-4.0324999999999998,0.056764735060424315,-0.80325456110246929
-4.032,0.18480683335249956,-0.86683439153341613
-4.0315000000000003,0.21681735792551837,-0.82444783791278486
-4.0309999999999997,0.19547700821015307,-0.71848145386094675
-4.0305,0.16346648363713429,-0.5807251545938954
-4.0300000000000002,0.15279630877946135,-0.44296885532684405
-4.0294999999999996,0.1634664836371634,-0.29461591765424938
-4.0289999999999999,0.19547700821018218,-0.15685961838719809
-4.0285000000000002,0.29150858192932599,0.12924961855232261
-4.0279999999999996,0.61161382765984396,0.63788826200076421
-4.0274999999999999,0.65429452709053582,1.0829470750173917
-4.0270000000000001,0.53692260365602662,0.94519077575021493
-4.0265000000000004,0.8570278493862149,-0.13566634157588031
-4.0259999999999998,1.1024418711132067,-0.73967473067140688
-4.0255000000000001,1.1344523956862547,-0.83504447631791379
-4.0250000000000004,0.9850699476788336,-0.79265792269728252
-4.0244999999999997,0.73965592595176388,-0.66549826183509997
-4.024,0.4835717293676135,-0.51714532416289083
-4.0235000000000003,0.3021787567871736,-0.41117894011131284
-4.0229999999999997,0.24882788249855656,-0.3899856633008334
-4.0225,0.20614718306786484,-0.33700247127504446
-4.0220000000000002,0.15279630877950015,-0.2522293640337821
-4.0214999999999996,0.11011560934870165,-0.19924617200782926
-4.0209999999999999,0.08877525963335578,-0.15685961838719809
-4.0205000000000002,-0.028596663801153277,-0.17805289519753292
-4.0199999999999996,-0.61545628097434868,-0.33700247127485172
-4.0194999999999999,-1.3303579964384356,-0.12506970317169577
-4.0190000000000001,-1.9919088376147593,0.38356894027634103
-4.0185000000000004,-2.5040772307830603,0.88161094531875739
-4.0179999999999998,-2.5147474056412089,1.1359302670432285
-4.0175000000000001,-1.7571649907457412,0.73325800764686633
-4.0170000000000003,-0.92489135184725213,0.055073149716767467
-4.0164999999999997,-0.33803173467362962,-0.50654868575805101
-4.016,0.014084035629577295,-0.86683439153341613
-4.0155000000000003,0.17413665849467133,-1.0363806060159408
-4.0149999999999997,0.21681735792552809,-1.0787671596367261
-4.0145,0.19547700821018218,-1.0363806060160949
-4.0140000000000002,0.17413665849483631,-0.95160749877483264
-4.0134999999999996,0.15279630877945163,-0.845641114722956
-4.0129999999999999,0.15279630877945163,-0.70788481545590454
-4.0125000000000002,0.18480683335249956,-0.55953187778356051
-4.0119999999999996,0.38754015564899374,-0.27342264084350015
-4.0114999999999998,0.96372959796333246,0.31998910984533641
-4.0110000000000001,0.87836819910187125,0.90280422212954525
-4.0105000000000004,0.23815770764149502,1.2313000126894367
-4.0099999999999998,0.21681735792554749,1.1995100974742332
-4.0095000000000001,0.4835717293676135,0.61669498519002452
-4.0090000000000003,0.69697522652107224,-0.040296595929758761
-4.0084999999999997,0.7503261008096116,-0.49595204735282578
-4.008,0.67563487680590106,-0.792657922697244
-4.0075000000000003,0.53692260365615274,-0.89862430674882199
-4.0069999999999997,0.38754015564845029,-0.77146464588689956
-4.0065,0.36619980593310447,-0.76086800748174177
-4.0060000000000002,0.38754015564846972,-0.6972881770507372
-4.0054999999999996,0.31284893164461358,-0.45356549373163563
-4.0049999999999999,0.22748753278323011,-0.17805289519753292
-4.0045000000000002,0.16346648363713429,0.033879872905815719
-4.0039999999999996,0.088775259633035536,0.2034260873886585
-4.0034999999999998,-0.26334051067017139,0.38356894027634103
-4.0030000000000001,-0.86087030270039921,0.74385464605203377
-4.0025000000000004,-1.3943790455840461,1.1147369902325568
-4.0019999999999998,-1.8531965644648849,1.33726639674141
-4.0015000000000001,-2.3546947827759692,1.4432327807930845
-4.0010000000000003,-2.0559298867611271,1.1359302670435081
-4.0004999999999997,-1.2556667724340553,0.41535885549123613
-4,-0.59411593125833329,-0.25222936403370499
-3.9994999999999998,-0.14596858723566233,-0.68669153864556975
-3.9990000000000001,0.099445434491038431,-0.89862430674891836
-3.9984999999999999,0.19547700821018218,-0.94101086036958814
-3.9980000000000002,0.20614718306786484,-0.88802766834375091
-3.9975000000000001,0.18480683335249956,-0.78206128429207655
-3.9969999999999999,0.16346648363713429,-0.66549826183523486
-3.9965000000000002,0.15279630877945163,-0.52774196256805828
-3.996,0.16346648363713429,-0.41117894011121647
-3.9954999999999998,0.28083840707164331,-0.19924617200786782
-3.9950000000000001,0.73965592595199681,0.27760255622466667
-3.9944999999999999,0.96372959796333246,0.82862775329337313
-3.9940000000000002,1.0917716962555239,1.1995100974742332
-3.9935,1.3265155431245421,0.72266136924169888
-3.9929999999999999,1.5505892151358776,-0.27342264084403983
-3.9925000000000002,1.4972383408474643,-0.71848145386107198
-3.992,1.2731646688361289,-0.83504447631791379
-3.9914999999999998,0.96372959796333246,-0.73967473067140688
-3.9910000000000001,0.67563487680590106,-0.5807251545938954
-3.9904999999999999,0.43022085507920033,-0.43237221692155131
-3.9900000000000002,0.30217875678700862,-0.33700247127504446
-3.9895,0.34485945621773917,-0.33700247127504446
-3.9889999999999999,0.30217875678700862,-0.27342264084403983
-3.9885000000000002,0.22748753278323011,-0.19924617200786782
-3.988,0.16346648363713429,-0.12506970317169577
-3.9874999999999998,0.11011560934872107,-0.072086511145858609
-3.9870000000000001,0.024754210487259936,-0.050893234335523743
-3.9864999999999999,-0.35937208438931517,-0.072086511145858609
-3.9860000000000002,-1.0956141495694174,0.24581264100916439
-3.9855,-1.7678351656034239,0.51072860113835017
-3.9849999999999999,-2.386705307349017,-0.04029659593035631
-3.9845000000000002,-2.365364957633652,-0.29461591765437467
-3.984,-1.522421143876723,-0.49595204735255594
-3.9834999999999998,-0.78617907869662074,-0.67609490024040231
-3.9830000000000001,-0.25267033581248871,-0.792657922697244
-3.9824999999999999,0.046094560202625215,-0.84564111472308123
-3.9820000000000002,0.17413665849481691,-0.85623775312824868
-3.9815,0.20614718306786484,-0.83504447631791379
-3.9809999999999999,0.18480683335249956,-0.792657922697244
-3.9805000000000001,0.16346648363713429,-0.73967473067140688
-3.98,0.15279630877945163,-0.66549826183523486
-3.9794999999999998,0.20614718306786484,-0.55953187778356051
-3.9790000000000001,0.35552963107542179,-0.33700247127504446
-3.9784999999999999,0.44089102993688295,-0.15685961838719809
-3.9780000000000002,0.53692260365602662,0.2246193641988295
-3.9775,0.19547700821018218,0.74385464605203377
-3.9769999999999999,-0.049937013516518552,1.0935437134225592
-3.9765000000000001,0.27016823221396069,1.1359302670432285
-3.976,0.62228400251748783,0.64848490040552687
-3.9754999999999998,0.81434714995577528,-0.04029659593035631
-3.9750000000000001,0.80367697509809277,-0.54893523937839306
-3.9744999999999999,0.65429452709053582,-0.77146464588690922
-3.9740000000000002,0.45156120479456557,-0.82444783791274634
-3.9735,0.31284893164469124,-0.81385119950757889
-3.9729999999999999,0.34485945621773917,-0.91981758355925325
-3.9725000000000001,0.33418928136005654,-0.83504447631791379
-3.972,0.25949805735627807,-0.63370834661973252
-3.9714999999999998,0.18480683335249956,-0.41117894011121647
-3.9710000000000001,0.13145595906408636,-0.24163272562853755
-3.9704999999999999,-0.017926488943470625,-0.12506970317169577
-3.9700000000000002,-0.64746680554674652,-0.0085066807148540119
-3.9695,-1.3943790455845313,0.24581264100916439
-3.9689999999999999,-1.9385579633263461,0.66967817721586165
-3.9685000000000001,-2.4293860067797475,1.0935437134225592
-3.968,-2.4293860067797475,1.241896651094903
-3.9674999999999998,-1.6077825427381842,0.76504792286236856
-3.9670000000000001,-0.83952995298503397,0.097459703336820316
-3.9664999999999999,-0.28468086038553664,-0.42177557851638392
-3.9660000000000002,0.035424385344942577,-0.71848145386107198
-3.9655,0.17413665849481691,-0.83504447631791379
-3.9649999999999999,0.21681735792554749,-0.82444783791274634
-3.9645000000000001,0.19547700821018218,-0.75027136907657432
-3.964,0.16346648363713429,-0.64430498502489997
-3.9634999999999998,0.15279630877945163,-0.51714532416289083
-3.9630000000000001,0.15279630877945163,-0.40058230170604903
-3.9624999999999999,0.14212613392176898,-0.31580919446470956
-3.9620000000000002,0.17413665849481691,-0.19924617200786782
-3.9615,0.36619980593310447,0.10805634174198775
-3.9609999999999999,0.33418928136005654,0.61669498519002452
-3.9605000000000001,0.035424385344942577,0.92399749893988004
-3.96,0.23815770764091276,0.68027481562102909
-3.9594999999999998,0.5689331282290746,0.35177902506083869
-3.9590000000000001,0.78233662538272752,-0.11447306476652835
-3.9584999999999999,0.82501732481345802,-0.48535540894738849
-3.9580000000000002,0.69697522652126631,-0.67609490024040231
-3.9575,0.51558225394066137,-0.792657922697244
-3.9569999999999999,0.35552963107542179,-0.83504447631791379
-3.9565000000000001,0.45156120479456557,-0.95160749877475548
-3.956,0.6863050516635838,-1.131750351662602
-3.9554999999999998,0.63295417737517057,-0.97280077558509037
-3.9550000000000001,0.4622313796522482,-0.6972881770507372
-3.9544999999999999,0.29150858192932599,-0.47475877054222104
-3.9540000000000002,0.15279630877945163,-0.27342264084403983
-3.9535,-0.071277363231883828,-0.14626297998203064
-3.9529999999999998,-0.69014750497747701,0.097459703336820316
-3.9525000000000001,-1.437059745015262,0.59550170837968963
-3.952,-2.0345895370454898,0.58490506997452218
-3.9514999999999998,-2.5040772307835262,0.33058574825050385
-3.9510000000000001,-2.0345895370454898,0.15044289536265748
-3.9504999999999999,-1.1809755484308786,-0.17805289519753292
-3.9500000000000002,-0.53009488211223732,-0.4641621321370536
-3.9495,-0.10328788780493176,-0.64430498502489997
-3.9489999999999998,0.12078578420640371,-0.70788481545590454
-3.9485000000000001,0.20614718306786484,-0.6972881770507372
-3.948,0.20614718306786484,-0.65490162343006741
-3.9474999999999998,0.18480683335249956,-0.5807251545938954
-3.9470000000000001,0.16346648363713429,-0.49595204735255594
-3.9464999999999999,0.15279630877945163,-0.40058230170604903
-3.9460000000000002,0.17413665849481691,-0.31580919446470956
-3.9455,0.35552963107542179,-0.04029659593035631
-3.9449999999999998,0.63295417737517057,0.50013196273318283
-3.9445000000000001,0.71831557623663156,1.0087706061812196
-3.944,0.099445434491038431,1.2630899279052379
-3.9434999999999998,-0.017926488943470625,0.71206473083653143
-3.9430000000000001,0.30217875678700862,0.086863064931652884
-3.9424999999999999,0.59027347794443985,-0.3581957480853793
-3.9420000000000002,0.73965592595199681,-0.63370834661973252
-3.9415,0.72898575109431429,-0.75027136907657432
-3.9409999999999998,0.59027347794443985,-0.80325456110241145
-3.9405000000000001,0.43022085507920033,-0.73967473067140688
-3.9399999999999999,0.3768699807907871,-0.63370834661973252
-3.9394999999999998,0.45156120479456557,-0.60191843140423029
-3.9390000000000001,0.38754015564846972,-0.4535654937318862
-3.9384999999999999,0.29150858192932599,-0.27342264084403983
-3.9380000000000002,0.19547700821018218,-0.10387642636136091
-3.9375,0.13145595906408636,0.012686596095480854
-3.9369999999999998,-0.16730893695102761,0.055073149716150585
-3.9365000000000001,-0.8502001278427167,0.19282944898332721
-3.9359999999999999,-1.5437614935920885,0.60609834678485708
-3.9355000000000002,-2.0132491873301248,1.0405605213967219
-3.9350000000000001,-2.4507263564951129,1.3584596735517449
-3.9344999999999999,-2.0239193621878071,1.1359302670432285
-3.9340000000000002,-1.2023158981462438,0.4471487707073456
-3.9335,-0.54076505696992005,-0.22043944881820265
-3.9329999999999998,-0.11395806266261441,-0.67609490024040231
-3.9325000000000001,0.12078578420640371,-0.89862430674891836
-3.9319999999999999,0.19547700821018218,-0.96220413717992292
-3.9315000000000002,0.20614718306786484,-0.9304142219644207
-3.931,0.18480683335249956,-0.83504447631791379
-3.9304999999999999,0.16346648363713429,-0.71848145386107198
-3.9300000000000002,0.14212613392176898,-0.59132179299906285
-3.9295,0.14212613392176898,-0.47475877054222104
-3.9289999999999998,0.15279630877945163,-0.3581957480853793
