Class_6_Listen_To_Quran/Class_6_Listen_To_Quran_AM_3.csv

#Digilent WaveForms Oscilloscope Acquisition
#Device Name: EExplorer
#Serial Number: SN:210151A2B84A
#Date Time: 2020-11-08 09:39:04.281
#Sample rate: 2000Hz
#Samples: 16384
#Trigger: Source: Channel 1 Type: Edge Condition: Rising Level: 0 V Hyst.: Auto HoldOff: 0 s
#Channel 1: Range: 1 V/div Offset: 0 V Attenuation: 1 X
#Channel 2: Range: 1 V/div Offset: 0 V Attenuation: 1 X
#Power Supplies: ON
#Fixed Supply: ON
#Voltage: 3.3 V Readback: 3.331 V
#Positive Supply: ON
#Voltage: 3.7 V Readback: 3.703 V
#Current: 40 mA Readback: 9 mA
#Negative Supply: ON
#Voltage: -3.7 V Readback: -4.148 V
#Current: -40 mA Readback: -156 mA
#Reference 1: ON
#Voltage: 0 V
#Reference 2: ON
#Voltage: 0 V

Time (s),Channel 1 (V),Channel 2 (V)
-4.096,1.571929564851243,-0.9622041371799229
-4.0955,1.209143619690363,-0.3158091944652974
-4.095,0.9530594231055527,0.05507314971630479
-4.0945,0.8463576745288233,0.2246193641988295
-4.094,0.9423892482478796,0.2670059178194607
-4.0935,0.8997085488171395,0.1504428953625515
-4.093,0.79300680024041,0.03387987290581572
-4.0925,0.6863050516636808,-0.05089323433544664
-4.092,0.5902734779444399,-0.04029659592995153
-4.0915,0.5902734779444399,0.4047622170866759
-4.091,1.006410297394063,1.25249328950007
-4.0905,0.7076454013780465,2.015451254672087
-4.09,-0.2846808603855366,1.973064701051456
-4.0895,-1.30901764672307,0.7862411996727035
-4.089,-2.173301810194578,-0.485355408946232
-4.0885,-2.504077230783526,-1.322489842955616
-4.088,-2.472066706210478,-1.725162102351978
-4.0875,-2.290673733630038,-1.545019249464296
-4.087,-1.330357996437611,-0.6231117082136688
-4.0865,-0.423393133535411,0.3623756634660061
-4.086,0.1954770082096193,1.104140351827052
-4.0855,0.5155822539407778,1.528005888034568
-4.085,0.6436243522328531,1.686955464111935
-4.0845,0.6542945270905262,1.676358825706777
-4.084,0.6329541773749571,1.538602526439177
-4.0835,0.3982103305061524,1.082947075017392
-4.083,-0.7755089038389382,-0.2628260024388724
-4.0825,-1.82118603989241,-1.343683119766529
-4.082,-2.450726356495113,-1.979481424075996
-4.0815,-1.87453691418025,-2.064254531317336
-4.081,-0.4127229586790579,-2.149027638558598
-4.0805,0.8463576745288233,-2.202010830584512
-4.08,1.422547116843686,-1.79933857118815
-4.0795,1.507908515705069,-1.142346990068367
-4.079,1.358526067697386,-0.5807251545935581
-4.0785,1.134452395686255,-0.2098428104130352
-4.078,0.9637295979634877,-0.008506680715037129
-4.0775,1.038420821967082,-0.01910331912008891
-4.077,1.006410297394063,-0.09327978795619347
-4.0765,0.8676980242443146,-0.1250697031716669
-4.076,0.7289857510942269,-0.1250697031716476
-4.0755,0.6329541773751706,-0.07208651114585861
-4.075,0.5902734779444399,0.1822328105781598
-4.0745,1.059761171682699,0.9345941373458089
-4.074,1.305175193409177,1.771728571353275
-4.0735,0.4835717293676135,2.20619074596514
-4.073,-0.4767440078229508,1.453829419198936
-4.0725,-1.138294849000148,0.2987958330350016
-4.072,-1.767835165603424,-0.7714646458869092
-4.0715,-2.322684258202417,-1.460246142222166
-4.071,-2.365364957633021,-1.714565463946252
-4.0705,-1.67180359188428,-1.0999604364471
-4.07,-0.7221580295513886,-0.1250697031725824
-4.0695,-0.01792648894308245,0.7332580076473868
-4.069,0.408880505363835,1.305476481525908
-4.0685,0.6009436528021226,1.591585718465428
-4.068,0.6542945270905262,1.686955464111887
-4.0675,0.6436243522328531,1.633972272086098
-4.067,0.5582629533713921,1.42203950398275
-4.0665,-0.2526703358131583,0.2776025562235391
-4.066,-0.9889124009925911,-0.9622041371799229
-4.0655,-1.693143941599645,-1.703968825541643
-4.065,-1.831856214749394,-2.233800745799533
-4.0645,-0.722158029550525,-2.477523429118866
-4.064,0.4515612047945656,-2.339767129851689
-4.0635,1.134452395685634,-1.831128486404115
-4.063,1.337185717982206,-1.142346990067191
-4.0625,1.315845368266859,-0.5065486857577234
-4.062,1.187803269974784,-0.1462629799823583
-4.0615,1.027750647109399,-0.02969995752512141
-4.061,0.9957401225363802,0.04447651131098315
-4.0605,1.027750647109428,0.1822328105781598
-4.06,0.9210488985324756,0.1292496185522262
-4.0595,0.7823366253827275,0.02328323450064829
-4.059,0.6542945270905358,-0.05089323433552374
-4.0585,0.4942419042254417,0.07626642652636979
-4.058,0.291508581929326,0.7650479228623686
-4.0575,0.2381577076409128,1.623375633680931
-4.057,-0.4020527838194635,2.269770576395556
-4.0565,-1.191645723288561,1.867098316999781
-4.056,-1.885207089037933,0.5319218779486851
-4.0555,-2.440056181636926,-0.6972881770496192
-4.055,-2.514747405641161,-1.470842780628268
-4.0545,-2.461396531352796,-1.809935209593318
-4.054,-2.045259711903551,-1.375473034981848
-4.0535,-1.010252750707209,-0.3899856633000335
-4.053,-0.1886492866663929,0.5425185163538525
-4.0525,0.3235191065023739,1.188913459069066
-4.052,0.5796033030868253,1.52800588803452
-4.0515,0.6542945270905358,1.633972272086098
-4.051,0.6542945270905358,1.591585718465428
-4.0505,0.6222840025175169,1.432636142388062
-4.05,0.3128489316446912,0.8816109453192104
-4.0495,-0.4020527838200457,-0.04029659593035631
-4.049,-1.735824641029163,-1.428456227006027
-4.0485,-2.162631635336798,-2.011271339291759
-4.048,-1.191645723288561,-2.297380576231019
-4.0475,0.02475421048615378,-2.562296536359964
-4.047,0.9317190733906726,-2.223204107394173
-4.0465,1.35852606769759,-1.481439419033127
-4.046,1.379866417412936,-0.8244478379133439
-4.0455,1.241154144262906,-0.3899856633007178
-4.045,1.049090996824793,-0.2098428104130352
-4.0445,0.942389248247967,-0.2204394488182027
-4.044,1.038420821967043,-0.3052125560594457
-4.0435,0.9637295979633325,-0.1992461720078678
-4.043,0.8356874996711408,0.002089957690313421
-4.0425,0.7183155762367384,0.1928294489831537
-4.042,0.6222840025174878,0.3623756634660061
-4.0415,0.3875401556484697,0.8286277532933731
-4.041,0.09944543449130044,1.580989080059577
-4.0405,-0.6688071552628493,2.21678738437024
-4.04,-1.479740444445993,2.142610915534135
-4.0395,-2.141291285621715,0.9028042221306727
-4.039,-2.568098279929622,-0.453565493732744
-4.0385,-2.568098279929622,-1.396666311791788
-4.038,-2.514747405641257,-1.894708316834204
-4.0375,-2.33335443305974,-1.809935209592479
-4.037,-1.383708870726849,-0.8880276683437509
-4.0365,-0.4554036581084589,0.1186529801471552
-4.036,0.1848068333528101,0.8816109453196055
-4.0355,0.5262524287983441,1.316073119931075
-4.035,0.6542945270905358,1.485619334413754
-4.0345,0.6756348768058816,1.485619334413754
-4.034,0.6542945270905358,1.33726639674141
-4.0335,0.4408910299368829,0.9345941373450475
-4.033,0.43022085507921,0.1716361721736862
-4.0325,1.006410297393539,-0.6443049850259986
-4.032,0.4302208550792003,-1.852321763213987
-4.0315,0.4088805053638545,-2.371557045066719
-4.031,0.8570278493867971,-2.721246112437639
-4.0305,1.177133095116985,-2.636473005196377
-4.03,1.379866417412771,-1.873515040025016
-4.0295,1.390536592270483,-1.089363798041431
-4.029,1.219813794547716,-0.5383386009732256
-4.0285,1.038420821967111,-0.2310360872233701
-4.028,0.8997085488173044,-0.1356663415766897
-4.0275,0.974399772821015,0.05507314971615059
-4.027,0.974399772821015,0.1716361721729923
-4.0265,0.8570278493866128,0.1610395337678346
-4.026,0.7503261008096795,0.1504428953626575
-4.0255,0.6542945270905358,0.1822328105781598
-4.025,0.5155822539407875,0.4365521323019468
-4.0245,0.4302208550787345,1.157123543854267
-4.024,-0.08194753808956648,1.930678147430786
-4.0235,-0.9355615267034013,2.396930237257729
-4.023,-1.479740444446264,1.814115124972797
-4.0225,-1.778505340461106,0.55311515475902
-4.022,-2.194642159910351,-0.6654982618341266
-4.0215,-2.47206670621039,-1.428456227007521
-4.021,-2.376035132491334,-1.682775548731308
-4.0205,-1.554431668449771,-1.036380606016095
-4.02,-0.6154562809730775,-0.02969995752438896
-4.0195,0.0674349099179905,0.849821030103708
-4.019,0.4622313796522482,1.42203950398275
-4.0185,0.6222840025173423,1.697552102516852
-4.018,0.6649647019482183,1.782325209758442
-4.0175,0.6436243522328531,1.718745379327438
-4.017,0.5582629533714697,1.453829419198493
-4.0165,0.280838407071653,0.7332580076459604
-4.016,0.291508581929326,-0.2628260024388724
-4.0155,-0.4554036581077796,-1.534422611057808
-4.015,-0.615456280972961,-1.915901593645291
-4.0145,0.1954770082101822,-2.244397384205182
-4.014,1.006410297393325,-2.488120067523812
-4.0135,1.497238340847532,-2.159624276963226
-4.013,1.571929564851243,-1.481439419033127
-4.0125,1.390536592270638,-0.8668343915334161
-4.012,1.166462920259137,-0.43237221692132
-4.0115,0.9850699476786977,-0.1780528951975329
-4.011,0.942389248247967,-0.05089323433552374
-4.0105,0.9743997728209859,0.08686306493152761
-4.01,0.8783681991018712,0.04447651131098315
-4.0095,0.7609962756673623,-0.04029659593035631
-4.009,0.6649647019483057,-0.08268314955098749
-4.0085,0.622284002517876,-0.008506680714343219
-4.008,1.049090996824793,0.55311515475902
-4.0075,1.68930148828517,1.432636142387117
-4.007,1.283834843692754,2.121417638723415
-4.0065,0.1207857842064037,1.697552102517103
-4.006,-1.031593100423322,0.4259554938970107
-4.0055,-1.927887788469168,-0.7290780922668755
-4.005,-2.482736881068161,-1.42845622700729
-4.0045,-2.472066706210478,-1.703968825541643
-4.004,-2.151961460479067,-1.301296566144375
-4.0035,-1.127624674142465,-0.3052125560595421
-4.003,-0.274010685527854,0.6590815388106942
-4.0025,0.2701682322134658,1.337266396740793
-4.002,0.5475927785137094,1.697552102517103
-4.0015,0.6542945270905358,1.803518486568777
-4.001,0.6542945270905358,1.750535294542988
-4.0005,0.6222840025171579,1.591585718464908
-4,0.2594980573562781,1.019367244586387
-3.9995,-0.4340633083930936,-0.1038764263613609
-3.999,-1.426389570157579,-1.439052865412457
-3.9985,-1.799845690176472,-1.968884785670829
-3.998,-0.8288597781273515,-2.265590661015517
-3.9975,0.5262524287983441,-2.488120067524033
-3.997,1.411876941986003,-2.318573853041354
-3.9965,1.657290963712704,-1.703968825541643
-3.996,1.51857869056283,-1.004590690800593
-3.9955,1.305175193409177,-0.4959520473525559
-3.995,1.081101521397841,-0.2628260024388724
-3.9945,0.9530594231056497,-0.2946159176543747
-3.994,1.006410297394063,-0.4217755785163839
-3.9935,0.9317190733902845,-0.4323722169215513
-3.993,0.8036769750980928,-0.3581957480853793
-3.9925,0.6863050516635838,-0.2628260024388724
-3.992,0.6009436528021226,-0.1356663415768632
-3.9915,0.6009436528021226,0.2670059178194992
-3.991,1.113112045970889,1.104140351827727
-3.9905,0.9210488985326017,1.930678147430786
-3.99,-0.04993701351651855,2.184997469154805
-3.9895,-0.9569018764195432,1.188913459069066
-3.989,-1.586442193022819,-0.1038764263613609
-3.9885,-2.19464215991073,-1.089363798041932
-3.988,-2.450726356495113,-1.629792356705471
-3.9875,-2.247993034199143,-1.534422611058964
-3.987,-1.298347471865388,-0.6443049850249
-3.9865,-0.423393133535411,0.3411823866556712
-3.986,0.1848068333524996,1.093543713422559
-3.9855,0.5049120790829789,1.538602526439591
-3.985,0.6329541773751706,1.729342017732605
-3.9845,0.6436243522328531,1.739938656137773
-3.984,0.6222840025174878,1.633972272086098
-3.9835,0.4515612047945656,1.263089927905238
-3.983,-0.2313299860971235,0.1080563417419877
-3.9825,-0.6367966306890638,-1.174136905283272
-3.982,-0.9462317015618604,-1.788741932782983
-3.9815,-0.690147504977477,-1.905304955239825
-3.981,0.3448594562177392,-2.064254531317336
-3.9805,1.241154144263081,-2.138431000153508
-3.98,1.593269914566608,-1.873515040024322
-3.9795,1.539919040278195,-1.280103289334946
-3.979,1.337185717982225,-0.6866915386455698
-3.9785,1.102441871113207,-0.2946159176543747
-3.978,0.9317190733902845,-0.1992461720078678
-3.9775,0.942389248247967,0.03387987290581572
-3.977,0.9103787236749192,0.13984625695749
-3.9765,0.8036769750980928,0.07626642652648545
-3.976,0.6969752265212663,-0.01910331912002144
-3.9755,0.6116138276598051,-0.07208651114585861
-3.975,0.6542945270905358,0.08686306493165288
-3.9745,1.273164668836129,0.8180311148882058
-3.974,1.817343586577944,1.686955464111935
-3.9735,1.294505018551494,2.216787384370307
-3.973,0.2808384070716433,1.898888232215284
-3.9725,-0.8181896032696687,1.888291593810116
-3.972,-1.767835165603424,2.1214176387238
-3.9715,-2.429386006779747,1.888291593810116
-3.971,-2.312014083345239,0.9663840525605498
-3.9705,-1.383708870726849,0.5319218779486851
-3.97,-0.4874141826815069,0.5319218779486851
-3.9695,0.142126133921769,0.7438546460520338
-3.969,0.4835717293676135,1.00877060618122
-3.9685,0.6009436528021226,1.241896651094903
-3.968,0.6329541773751706,1.432636142387917
-3.9675,0.6116138276598051,1.559795803249926
-3.967,0.5475927785137094,1.549199164844759
-3.9665,0.3341892813600565,1.093543713422559
-3.966,0.5689331282290746,0.2987958330350016
-3.9655,0.2488278824985954,-0.8986243067489184
-3.965,0.2061471830678648,-1.227120097309109
-3.9645,0.7609962756673623,-1.449649503817625
-3.964,1.294505018551494,-1.587405803084801
-3.9635,1.646620788855021,-1.174136905283272
-3.963,1.657290963712704,-0.3052125560595421
-3.9625,1.401206767128321,0.3305857482505039
-3.962,1.113112045970889,0.7332580076468663
-3.9615,0.8997085488172365,0.8392243916985406
-3.961,0.8997085488172365,0.8074344764830383
-3.9605,0.9850699476786977,0.7226613692416989
-3.96,0.9103787236749192,0.4365521323021782
-3.9595,0.7716664505250448,0.1186529801471552
-3.959,0.6649647019482183,-0.1568596183871981
-3.9585,0.5155822539406614,-0.252229364033705
-3.958,0.1848068333524996,0.2564092794143318
-3.9575,-0.1886492866663929,1.00877060618122
-3.957,-0.9889124009925911,1.623375633680931
-3.9565,-1.725154466172693,1.443232780793084
-3.956,-2.3973754822067,0.309392471440169
-3.9555,-2.685470203364131,-0.8774310299385835
-3.955,-2.653459678791083,-1.714565463946811
-3.9545,-2.60010880450267,-2.191414192179345
-3.954,-2.226652684483777,-1.809935209593318
-3.9535,-1.170305373573196,-0.7502713690765743
-3.953,-0.2953510352432193,0.2352160026039969
-3.9525,0.2594980573562781,0.9451907757502149
-3.952,0.5475927785137094,1.326669758336243
-3.9515,0.6436243522328531,1.475022696008586
-3.951,0.6436243522328531,1.453829419198252
-3.9505,0.5902734779444399,1.316073119931075
-3.95,0.2488278824985954,0.7968378380778709
-3.9495,-0.4874141826815069,-0.02969995752518888
-3.949,-1.255666772434657,-0.7502713690765743
-3.9485,-1.67180359188428,-1.152943628472937
-3.948,-0.9142211769888124,-1.587405803084801
-3.9475,-0.07127736323188383,-2.318573853041354
-3.947,0.8356874996711408,-2.233800745800015
-3.9465,1.166462920259302,-1.682775548731308
-3.946,1.241154144263081,-0.9410108603695881
-3.9455,1.251824319120764,-0.2734226408440398
-3.945,1.113112045970889,0.04447651131098315
-3.9445,0.942389248247967,0.1080563417419877
-3.944,0.9530594231056497,-0.01910331912002144
-3.9435,0.8676980242441885,-0.08268314955102604
-3.943,0.7503261008096795,-0.09327978795619347
-3.9425,0.6542945270905358,-0.05089323433552374
-3.942,0.5796033030867573,0.02328323450064829
-3.9415,0.408880505363835,0.5001319627331828
-3.941,0.3341892813600565,1.33726639674141
-3.9405,-0.2420001609548061,2.089627723508298
-3.94,-0.9889124009925911,2.343947045232316
-3.9395,-1.426389570157579,1.42203950398275
-3.939,-1.746494815888059,0.06566978812131802
-3.9385,-2.215982509626095,-1.0999604364471
-3.938,-2.60010880450267,-1.820531847998485
-3.9375,-2.493407055925843,-2.000674700886331
-3.937,-1.607782542738184,-1.195330182093607
-3.9365,-0.6474668055467465,-0.1568596183871981
-3.936,0.04609456020262521,0.6908714540261965
-3.9355,0.4515612047945656,1.220703374284568
-3.935,0.6116138276598051,1.443232780793084
-3.9345,0.6436243522328531,1.485619334413754
-3.934,0.6329541773751706,1.400846227172415
-3.9335,0.4408910299368829,1.029963882991555
-3.933,-0.1993194615240755,0.2352160026039969
-3.9325,-0.9889124009925911,-0.5489352393783931
-3.932,-1.67180359188428,-1.0999604364471
-3.9315,-1.362368521011484,-1.34368311976595
-3.931,-0.5941159312583333,-1.979481424075996
-3.9305,0.4729015545099309,-2.117237723343173
-3.93,1.059761171682476,-1.820531847998485
-3.9295,1.326515543124542,-1.121153713257435
-3.929,1.401206767128321,-0.474758770542221
-3.9285,1.230483969405398,-0.08268314955102604
-3.928,1.027750647109428,0.07626642652648545
-3.9275,0.9637295979633325,0.2034260873884947
-3.927,0.8890383739595538,0.2458126410091644
-3.9265,0.7716664505250448,0.1504428953626575
-3.926,0.6649647019482183,0.06566978812131802
-3.9255,0.6009436528021226,0.03387987290581572
-3.925,0.4835717293676135,0.2564092794143318
-3.9245,0.4729015545099309,0.9981739677760521
-3.924,0.291508581929326,1.814115124973944
-3.9235,-0.4874141826815069,2.365140322042651
-3.923,-1.287677297007705,1.888291593810116
-3.9225,-1.938557963326346,0.55311515475902
-3.922,-2.3973754822067,-0.6549016234300674
-3.9215,-2.3973754822067,-1.38606967338662
-3.921,-2.322684258202921,-1.650985633515806
-3.9205,-1.693143941599645,-1.068170521231597
-3.92,-0.722158029550525,-0.08268314955102604
-3.9195,-0.01792648894347063,0.7650479228623686
-3.919,0.408880505363835,1.33726639674141
-3.9185,0.6009436528021226,1.602182356870596
-3.918,0.6436243522328531,1.6657621873016
-3.9175,0.5689331282290746,1.538602526439591
-3.917,-0.1139580626626144,0.6696781772158616
-3.9165,-0.807519428411986,-0.2416327256285375
-3.916,-1.661133417026597,-1.163540266878104
-3.9155,-2.461396531352796,-1.926498232050159
-3.915,-2.376035132491334,-2.17022091536901
-3.9145,-0.9035510021311299,-2.318573853041354
-3.914,0.5369226036560266,-2.604683089980875
-3.9135,1.337185717982225,-2.382153683472359
-3.913,1.56125938999356,-1.640388995110639
-3.9125,1.454557641416734,-0.9304142219644207
-3.912,1.230483969405398,-0.4111789401112165
-3.9115,1.017080472251745,-0.1568596183871981
-3.911,0.9637295979633325,-0.1144730647665284
-3.9105,1.017080472251745,-0.1356663415768632
-3.91,0.9103787236749192,-0.1780528951975329
-3.9095,0.7716664505250448,-0.1992461720078678
-3.909,0.6542945270905358,-0.1674562567923655
-3.9085,0.6009436528021226,-0.05089323433552374
-3.908,0.9210488985326017,0.4895353243280153
-3.9075,1.742652362574165,1.358459673551745
-3.907,1.956055859727818,2.026047893077293
-3.9065,0.9850699476786977,1.761131932948107
-3.906,-0.2846808603855366,0.5743084315693548
-3.9055,-1.330357996438436,-0.5913217929990628
-3.905,-2.19464215991073,-1.354279758171118
-3.9045,-2.44005618163743,-1.682775548731308
-3.904,-2.109280761049269,-1.280103289334946
-3.9035,-1.095614149569417,-0.2946159176543747
-3.903,-0.274010685527854,0.6590815388106942
-3.9025,0.2701682322139607,1.33726639674141
-3.902,0.5369226036560266,1.70814874092227
-3.9015,0.6329541773751706,1.835308401784279
-3.901,0.6329541773751706,1.79292184816361
-3.9005,0.6116138276598051,1.633972272086098
-3.9,0.2594980573562781,1.051157159801889
-3.8995,-0.690147504977477,-0.4111789401112165
-3.899,-1.26633694729234,-1.396666311791788
-3.8985,-1.789175515318789,-1.990078062481164
-3.898,-0.9995825758502737,-2.297380576231019
-3.8975,0.3661998059331045,-2.498716705929201
-3.897,1.326515543124542,-2.551699897955038
-3.8965,1.614610264281974,-2.106641084938006
-3.896,1.529248865420512,-1.38606967338662
-3.8955,1.315845368266859,-0.7502713690765743
-3.895,1.091771696255524,-0.3475991096802118
-3.8945,0.9317190733902845,-0.2098428104130352
-3.894,0.9530594231056497,0.02328323450064829
-3.8935,0.8890383739595538,0.05507314971615059
-3.893,0.7716664505250448,-0.02969995752518888
-3.8925,0.6649647019482183,-0.1144730647665284
-3.892,0.5902734779444399,-0.1250697031716958
-3.8915,0.6436243522328531,0.2034260873884947
-3.891,1.294505018551494,1.029963882991555
-3.8905,1.635950613997339,1.867098316999781
-3.89,0.9103787236749192,2.227384022775475
-3.8895,-0.02859666380115328,1.79292184816361
-3.889,-0.9355615267041777,1.814115124973944
-3.8885,-1.778505340461106,2.026047893077293
-3.888,-2.418715831922065,1.411442865577582
-3.8875,-2.301343908487556,0.3729723018711736
-3.887,-1.373038695869166,0.1080563417419877
-3.8865,-0.4874141826815069,0.3517790250608387
-3.886,0.1314559590640864,0.7544512844572011
-3.8855,0.4729015545099309,1.135930267043229
-3.885,0.6116138276598051,1.42203950398275
-3.8845,0.6329541773751706,1.602182356870596
-3.884,0.6116138276598051,1.697552102517103
