Class_6_Listen_To_Quran/Class_6_Listen_To_Quran_SH_5.csv

#Digilent WaveForms Oscilloscope Acquisition
#Device Name: EExplorer
#Serial Number: SN:210151A2B84A
#Date Time: 2020-12-07 14:14:00.334
#Sample rate: 2000Hz
#Samples: 16384
#Trigger: Source: Channel 1 Type: Edge Condition: Rising Level: 0 V Hyst.: Auto HoldOff: 0 s
#Channel 1: Range: 1 V/div Offset: 0 V Attenuation: 1 X
#Channel 2: Range: 1 V/div Offset: 0 V Attenuation: 1 X
#Power Supplies: ON
#Fixed Supply: ON
#Voltage: 3.3 V Readback: 3.322 V
#Positive Supply: ON
#Voltage: 3.7 V Readback: 3.719 V
#Current: 50 mA Readback: 21 mA
#Negative Supply: ON
#Voltage: -3.7 V Readback: -3.703 V
#Current: -50 mA Readback: -8 mA
#Reference 1: ON
#Voltage: 0 V
#Reference 2: ON
#Voltage: 0 V

Time (s),Channel 1 (V),Channel 2 (V)
-4.096,-0.8181896032696687,-0.6549016234300674
-4.0955,-0.2313299860976572,0.150442895361925
-4.095,0.1741366584950304,0.6908714540264664
-4.0945,0.408880505363835,0.9875773293708847
-4.094,0.5049120790828915,1.104140351827621
-4.0935,0.5262524287983247,1.104140351827669
-4.093,0.5049120790829789,1.040560521396722
-4.0925,0.4835717293676329,0.9557874141554594
-4.092,0.4408910299368344,0.8816109453191718
-4.0915,0.3875401556484697,0.8392243916985406
-4.091,0.3341892813600565,0.8180311148882058
-4.0905,0.2594980573559869,0.6908714540262062
-4.09,-0.06060718837420119,0.701468092431364
-4.0895,-0.4554036581084589,0.6484849004055269
-4.089,-0.9569018764190871,-0.1250697031709922
-4.0885,-1.330357996438436,-0.3581957480853793
-4.088,-1.074273799854052,-0.07208651114585861
-4.0875,-0.5407650569704053,0.1716361721727707
-4.087,-0.02859666380082333,0.2564092794143607
-4.0865,0.3341892813600565,0.2881991946298341
-4.086,0.5369226036558422,0.2458126410092029
-4.0855,0.6222840025175654,0.1398462569573744
-4.085,0.707645401378949,0.01268659609548085
-4.0845,0.8570278493863701,-0.08268314955093931
-4.084,0.8143471499556879,-0.04029659593025994
-4.0835,0.7183155762366316,0.06566978812131802
-4.083,0.6116138276598051,0.1928294489833272
-4.0825,0.5369226036561431,0.3305857482504075
-4.082,0.6649647019482183,0.2246193641988295
-4.0815,1.145122570543937,-0.2628260024388724
-4.081,0.9317190733904785,-0.8986243067483402
-4.0805,0.00341386077189465,-1.407262950196955
-4.08,-0.7434983792658902,-1.523825972653797
-4.0795,-0.7328282044082172,-0.9092209451546448
-4.079,-0.3913826089620234,-0.1144730647659501
-4.0785,-0.01792648894347063,0.5213252395435176
-4.078,0.2488278824983528,0.9028042221291983
-4.0775,0.3982103305062203,1.072350436612253
-4.077,0.4729015545099309,1.104140351827727
-4.0765,0.4835717293676038,1.04056052139678
-4.076,0.4729015545099018,0.9557874141552957
-4.0755,0.4408910299368829,0.8604176685088755
-4.075,0.3982103305061524,0.7862411996727035
-4.0745,0.3555296310753636,0.7332580076468375
-4.074,0.291508581929326,0.701468092431364
-4.0735,-0.09261771294724913,0.2564092794143318
-4.073,-0.5834457564002041,-0.5171453241621873
-4.0725,-1.159635198715513,-1.280103289334946
-4.072,-1.479740444445993,-1.322489842955616
-4.0715,-1.18097554843115,-0.686691538646148
-4.071,-0.572775581542444,-0.1568596183869282
-4.0705,0.00341386077189465,0.13984625695749
-4.07,0.3982103305057934,0.1822328105781212
-4.0695,0.6009436528021905,0.1822328105780923
-4.069,0.6756348768059011,0.1080563417419877
-4.0685,0.6756348768059011,-0.008506680714854012
-4.068,0.8250173248134677,-0.2522293640337243
-4.0675,0.8356874996711408,-0.2734226408440398
-4.067,0.7396559259519968,-0.1250697031716958
-4.0665,0.632954177375093,0.07626642652664929
-4.066,0.5475927785137094,0.2564092794143318
-4.0655,0.5475927785137094,0.3199891098453364
-4.065,0.9743997728206268,0.06566978812154933
-4.0645,1.134452395686255,-0.2946159176543747
-4.064,0.4195506802215176,-0.9092209451540858
-4.0635,-0.2420001609542045,-1.163540266877873
-4.063,-0.306021210100737,-0.6866915386449819
-4.0625,-0.124628237520297,-0.04029659593035631
-4.062,0.1101156093485076,0.4789386859223757
-4.0615,0.2808384070717403,0.8180311148883407
-4.061,0.3875401556484697,0.9663840525605498
-4.0605,0.4408910299368829,1.00877060618122
-4.06,0.4515612047945656,0.9875773293708172
-4.0595,0.4515612047945656,0.9134008605347127
-4.059,0.4302208550792003,0.849821030103708
-4.0585,0.3875401556485085,0.8074344764830769
-4.058,0.3448594562177392,0.7862411996727035
-4.0575,0.3021787567870086,0.7650479228623686
-4.057,0.03542438534518522,0.4789386859231081
-4.0565,-0.1459685872356623,0.01268659609548085
-4.056,-0.4980843575391895,-0.3687923864905467
-4.0555,-1.148965023857239,-1.015187329205172
-4.055,-1.511750969018691,-0.9410108603691063
-4.0545,-1.127624674142465,-0.4111789401112165
-4.054,-0.4980843575397621,-0.01910331912037805
-4.0535,0.02475421048756078,0.1504428953627153
-4.053,0.3555296310754218,0.2140227257936621
-4.0525,0.5262524287983441,0.1504428953626575
-4.052,0.6116138276599312,0.02328323450061937
-4.0515,0.7503261008096795,-0.008506680714854012
-4.051,0.857027849386506,-0.008506680714854012
-4.0505,0.7930068002404682,0.05507314971609276
-4.05,0.6863050516635838,0.1186529801471552
-4.0495,0.5902734779444399,0.2034260873884947
-4.049,0.5475927785137482,0.2140227257936524
-4.0485,0.6116138276599797,-0.2204394488187231
-4.048,0.8036769750980928,-0.792657922697244
-4.0475,0.5796033030869612,-1.311893204549976
-4.047,0.003413860771661743,-1.629792356705143
-4.0465,-0.2526703358124887,-1.269506650929778
-4.046,-0.1459685872357594,-0.527741962568733
-4.0455,0.05676473506047284,0.1398462569579045
-4.045,0.2381577076409128,0.5955017083796896
-4.0445,0.3555296310754218,0.8392243916985406
-4.044,0.4195506802215371,0.9451907757502149
-4.0435,0.4408910299368829,0.9451907757502149
-4.043,0.4408910299368829,0.9028042221295453
-4.0425,0.43022085507921,0.860417668508914
-4.042,0.3875401556484697,0.8180311148882058
-4.0415,0.3555296310754218,0.7968378380778709
-4.041,0.31284893164473,0.7968378380778709
-4.0405,0.120785784206132,0.7544512844566903
-4.04,-0.1779791118087102,0.1928294489833272
-4.0395,-0.2313299860970749,-0.5701285161880341
-4.039,-0.5300948821126837,-1.28010328933511
-4.0385,-1.020922925565639,-1.460246142222792
-4.038,-0.9248913518465826,-0.909220945154587
-4.0375,-0.4767440078234264,-0.2840192792488314
-4.037,-0.03926683865883591,0.1292496185523226
-4.0365,0.2488278824985954,0.2458126410091644
-4.036,0.4515612047946529,0.2458126410091451
-4.0355,0.5475927785137094,0.2246193641988295
-4.035,0.6649647019482183,0.13984625695749
-4.0345,0.8783681991016772,-0.04029659593019247
-4.034,0.857027849386506,-0.06148987274069118
-4.0335,0.7396559259519968,0.002089957690313421
-4.033,0.6116138276599216,0.1080563417418914
-4.0325,0.5262524287982665,0.2140227257935272
-4.032,0.4408910299368829,0.06566978812131802
-4.0315,0.5049120790829207,-0.6231117082139388
-4.031,0.4408910299363201,-1.343683119766375
-4.0305,-0.1779791118087102,-1.809935209593318
-4.03,-0.5300948821119171,-1.629792356705635
-4.0295,-0.4020527838197837,-0.8562377531275355
-4.029,-0.1139580626626144,-0.07208651114585861
-4.0285,0.142126133921769,0.4895353243280153
-4.028,0.3128489316447689,0.818031114888331
-4.0275,0.3982103305061524,0.9557874141553824
-4.027,0.4408910299368829,0.9769806909657173
-4.0265,0.4408910299368829,0.934594137345086
-4.026,0.4302208550792003,0.8710143069140429
-4.0255,0.3982103305061524,0.8074344764830383
-4.025,0.3661998059331336,0.7756445612675649
-4.0245,0.3235191065023253,0.7544512844572011
-4.024,0.2701682322139607,0.7544512844572011
-4.0235,-0.08194753808924621,0.3623756634663627
-4.023,-0.8928808272739616,-0.5277419625688197
-4.0225,-1.458400094730627,-1.364876396576285
-4.022,-1.671803591884086,-1.831128486403228
-4.0215,-1.597112367880016,-1.24831337411874
-4.021,-1.06360362499637,-0.474758770542221
-4.0205,-0.4767440078238243,0.01268659609548085
-4.02,0.04609456020292605,0.1822328105781887
-4.0195,0.3768699807907871,0.2140227257936621
-4.019,0.5582629533713921,0.1716361721729923
-4.0185,0.6329541773751026,0.1504428953626767
-4.018,0.8890383739595538,0.1292496185523226
-4.0175,0.942389248247967,0.08686306493165288
-4.017,0.8143471499558917,0.0762664265264951
-4.0165,0.6756348768057943,0.1080563417420359
-4.016,0.5582629533713921,0.1610395337678249
-4.0155,0.5155822539407002,0.08686306493172034
-4.015,0.8143471499560858,-0.2204394488182219
-4.0145,1.15579274540162,-0.2416327256285375
-4.014,0.5262524287989166,-0.7396747306709539
-4.0135,-0.4233931335357409,-1.248313374119395
-4.013,-0.7861790786966207,-1.195330182093607
-4.0125,-0.572775581542968,-0.5913217929990628
-4.012,-0.2099896363814767,0.04447651131142648
-4.0115,0.09944543449103843,0.5319218779486851
-4.011,0.3021787567870086,0.8286277532933731
-4.0105,0.398210330506065,0.9769806909655824
-4.01,0.4408910299368829,1.029963882991555
-4.0095,0.4408910299368829,1.019367244586387
-4.009,0.4195506802215371,0.9875773293709136
-4.0085,0.376869980790758,0.9557874141553631
-4.008,0.3448594562177392,0.9345941373450475
-4.0075,0.2915085819293745,0.9557874141553631
-4.007,0.0354243853447776,0.9451907757498873
-4.0065,-0.1459685872356623,0.5849050699745222
-4.006,-0.3487019095316325,-0.2416327256285375
-4.0055,-0.8181896032697658,-0.9410108603693954
-4.005,-0.9248913518464952,-0.7290780922662394
-4.0045,-0.5621054066852853,-0.2946159176543747
-4.004,-0.1139580626622844,-0.0402965959302503
-4.0035,0.2488278824985954,0.07626642652648545
-4.003,0.4729015545099309,0.1186529801471552
-4.0025,0.5582629533713145,0.0868630649316818
-4.002,0.5796033030867573,0.06566978812131802
-4.0015,0.707645401378949,0.05507314971615059
-4.001,0.8250173248133512,0.0232832345006772
-4.0005,0.7716664505249478,0.06566978812138548
-4,0.6649647019482183,0.13984625695749
-3.9995,0.5582629533713921,0.2246193641988295
-3.999,0.5049120790829789,0.2776025562246667
-3.9985,0.408880505363835,-0.1462629799820306
-3.998,0.6969752265212663,-0.7714646458869092
-3.9975,0.7609962756673623,-1.322489842955616
-3.997,0.3021787567870086,-1.598002441489969
-3.9965,0.0674349099179905,-1.131750351662602
-3.996,0.0674349099179905,-0.3687923864905467
-3.9955,0.1634664836371343,0.2776025562246667
-3.995,0.2594980573562781,0.7120647308365314
-3.9945,0.3341892813600565,0.9345941373450475
-3.994,0.3768699807907871,1.00877060618122
-3.9935,0.3982103305061524,0.9981739677760521
-3.993,0.3982103305061524,0.9345941373450475
-3.9925,0.3982103305061524,0.8604176685088755
-3.992,0.3661998059331045,0.8074344764830383
-3.9915,0.3341892813600565,0.7650479228623686
-3.991,0.2701682322139607,0.7862411996727035
-3.9905,0.1634664836371343,0.7544512844572011
-3.99,-0.3807124341046804,0.2034260873884947
-3.9895,-1.138294849000148,-0.7290780922662394
-3.989,-1.682473766741963,-1.47084278062796
-3.9885,-1.87453691418025,-1.396666311791788
-3.988,-1.426389570157579,-0.6972881770507372
-3.9875,-0.7008176798351597,-0.1144730647665284
-3.987,-0.08194753808956648,0.2246193641988295
-3.9865,0.3021787567870086,0.3305857482505039
-3.986,0.5049120790829789,0.3199891098453364
-3.9855,0.5796033030867573,0.2458126410091644
-3.985,0.6329541773751706,0.1716361721729923
-3.9845,0.8036769750980928,0.07626642652648545
-3.984,0.7823366253827275,0.01268659609548085
-3.9835,0.6756348768059011,0.01268659609548085
-3.983,0.5689331282290746,0.05507314971615059
-3.9825,0.4942419042252961,0.1292496185523226
-3.982,0.5369226036560266,0.002089957690313421
-3.9815,0.8997085488172365,-0.6549016234300674
-3.981,0.6542945270905358,-1.375473034981453
-3.9805,-0.2420001609548061,-1.79933857118815
-3.98,-1.095614149569417,-1.84172512480882
-3.9795,-1.170305373573196,-1.311893204550448
-3.979,-0.7434983792658902,-0.4853554089473885
-3.9785,-0.2633405106701714,0.2246193641988295
-3.978,0.09944543449103843,0.701468092431364
-3.9775,0.3128489316446912,0.9451907757502149
-3.977,0.4195506802215176,1.040560521396722
-3.9765,0.4408910299368829,1.040560521396722
-3.976,0.4302208550792003,0.9981739677760521
-3.9755,0.3982103305061524,0.9345941373450475
-3.975,0.3555296310754218,0.8922075837243778
-3.9745,0.3021787567870086,0.8710143069140429
-3.974,0.2168173579255475,0.8816109453192104
-3.9735,-0.1139580626626144,0.6696781772158616
-3.973,-0.2953510352432193,0.09745970333682032
-3.9725,-0.6474668055467465,-0.7714646458869092
-3.972,-1.052933450138687,-1.0999604364471
-3.9715,-1.042263275281004,-0.5807251545938954
-3.971,-0.658136980404429,-0.08268314955102604
-3.9705,-0.1779791118087102,0.2246193641988295
-3.97,0.2061471830678648,0.2670059178194992
-3.9695,0.4408910299368829,0.2034260873884947
-3.969,0.5369226036560266,0.1186529801471552
-3.9685,0.5689331282290746,0.03387987290581572
-3.968,0.7503261008096795,0.002089957690313421
-3.9675,0.8036769750980928,-0.01910331912002144
-3.967,0.7183155762366316,0.01268659609548085
-3.9665,0.6116138276598051,0.08686306493165288
-3.966,0.5155822539406614,0.1928294489833272
-3.9655,0.4835717293676135,0.2987958330350016
-3.965,0.7716664505250448,0.3199891098453364
-3.9645,1.081101521397841,0.1504428953626575
-3.964,0.6863050516635838,-0.4853554089473885
-3.9635,-0.09261771294724913,-1.025783967610927
-3.963,-0.3700422592469978,-0.8138511995075789
-3.9625,-0.2526703358124887,-0.1886495336027004
-3.962,-0.02859666380115328,0.4153588554918433
-3.9615,0.1741366584948169,0.8392243916985406
-3.961,0.3021787567870086,1.061753798207057
-3.9605,0.3661998059331045,1.146526905448396
-3.96,0.3982103305061524,1.135930267043229
-3.9595,0.3982103305061524,1.072350436612224
-3.959,0.3875401556484697,0.9875773293708847
-3.9585,0.3448594562177392,0.9134008605347127
-3.958,0.3128489316446912,0.8392243916985406
-3.9575,0.2701682322139607,0.7968378380778709
-3.957,0.03542438534494258,0.7120647308365314
-3.9565,-0.3807124341046804,0.08686306493165288
-3.956,-0.6154562809736985,-0.7078848154559045
-3.9555,-0.8288597781273515,-1.38606967338662
-3.955,-0.9675720512772257,-1.237716735714276
-3.9545,-0.7114878546928423,-0.6549016234300674
-3.954,-0.3060212101009019,-0.1250697031716958
-3.9535,0.04609456020262521,0.1292496185523226
-3.953,0.3128489316446912,0.1822328105781598
-3.9525,0.4622313796522482,0.1080563417419877
-3.952,0.5155822539406614,-0.01910331912002144
-3.9515,0.6969752265212663,-0.2416327256285375
-3.951,0.9317190733902845,-0.4217755785163839
-3.9505,0.8997085488172365,-0.3052125560595421
-3.95,0.7609962756673623,-0.1038764263613609
-3.9495,0.6116138276598051,0.08686306493165288
-3.949,0.5155822539406614,0.2246193641988295
-3.9485,0.4622313796522482,-0.07208651114585861
-3.948,0.4302208550792003,-0.8244478379127463
-3.9475,-0.1993194615240755,-1.523825972653797
-3.947,-1.06360362499637,-1.990078062481164
-3.9465,-1.330357996438436,-1.746355379162313
-3.946,-0.9355615267041777,-0.9198175835592532
-3.9455,-0.4127229586777283,-0.1144730647665284
-3.945,0.00341386077189465,0.4471487707073456
-3.9445,0.2594980573562781,0.7650479228623686
-3.944,0.3875401556484697,0.8922075837243778
-3.9435,0.4302208550792003,0.8922075837243778
-3.943,0.4195506802215176,0.849821030103708
-3.9425,0.3982103305061524,0.775644561267536
-3.942,0.3555296310754218,0.7226613692416989
-3.9415,0.3128489316446912,0.6908714540261965
-3.941,0.2701682322139607,0.6696781772158616
-3.9405,0.1527963087794516,0.701468092431364
-3.94,-0.4554036581084589,0.4683420475176805
-3.9395,-1.06360362499637,-0.3687923864905467
-3.939,-1.575772018165136,-1.195330182093607
-3.9385,-1.725154466172693,-1.121153713257435
-3.938,-1.298347471865388,-0.4641621321370536
-3.9375,-0.6154562809736985,-0.08268314955102604
-3.937,-0.04993701351651855,-0.008506680714854012
-3.9365,0.2701682322139607,0.03387987290581572
-3.936,0.4622313796522482,0.06566978812131802
-3.9355,0.5262524287983441,0.04447651131098315
-3.935,0.5902734779444399,0.002089957690313421
-3.9345,0.8356874996711408,-0.1674562567923655
-3.934,0.857027849386506,-0.1356663415768632
-3.9335,0.7396559259519968,0.05507314971615059
-3.933,0.6009436528021226,0.2564092794143318
-3.9325,0.5049120790829789,0.4259554938970107
-3.932,0.4835717293676135,0.457745409112513
-3.9315,0.8783681991018712,0.5743084315693548
-3.931,1.113112045970889,0.5743084315693548
-3.9305,0.3982103305061524,-0.1992461720078678
-3.93,-0.5300948821122373,-1.004590690800593
-3.9295,-0.7968492535543035,-1.089363798041932
-3.929,-0.5621054066852853,-0.6125150698093976
-3.9285,-0.2099896363817582,-0.06148987274069118
-3.928,0.08877525963335578,0.3517790250608387
-3.9275,0.2808384070716433,0.6060983467848571
-3.927,0.3661998059331045,0.7332580076468663
-3.9265,0.3982103305061524,0.7650479228623686
-3.926,0.3982103305061524,0.7650479228623686
-3.9255,0.3661998059331045,0.7544512844572011
-3.925,0.3235191065023739,0.7650479228623686
-3.9245,0.291508581929326,0.775644561267536
-3.924,0.2274875327832301,0.8180311148882058
-3.9235,-0.1673089369510276,0.6484849004055269
-3.923,-0.6154562809736985,-0.1462629799820306
-3.9225,-1.074273799854052,-1.036380606016095
-3.922,-1.437059745015262,-1.672178910326141
-3.9215,-1.277007122150022,-1.439052865412457
-3.921,-0.722158029550525,-0.7608680074817418
-3.9205,-0.1886492866663929,-0.1992461720078678
-3.92,0.2168173579255475,0.2140227257936621
-3.9195,0.4515612047945656,0.3411823866556712
-3.919,0.5582629533713921,0.2881991946298341
-3.9185,0.5796033030867573,0.2246193641988295
-3.918,0.7289857510943143,0.1080563417419877
-3.9175,0.79300680024041,0.002089957690313421
-3.917,0.707645401378949,0.01268659609548085
-3.9165,0.5902734779444399,0.08686306493165288
-3.916,0.4942419042252961,0.1610395337678249
-3.9155,0.4729015545099309,0.2034260873884947
-3.915,0.8890383739595538,-0.2416327256285375
-3.9145,1.091771696255524,-0.9833974139902578
-3.914,0.3768699807907871,-1.629792356705471
-3.9135,-0.4340633083930936,-1.926498232050159
-3.913,-0.6154562809736985,-1.375473034981453
-3.9125,-0.4020527838200457,-0.5489352393783931
-3.912,-0.1032878878049318,0.1504428953626575
-3.9115,0.142126133921769,0.6060983467848571
-3.911,0.291508581929326,0.8392243916985406
-3.9105,0.3661998059331045,0.92399749893988
-3.91,0.3875401556484697,0.9134008605347127
-3.9095,0.3875401556484697,0.8710143069140429
-3.909,0.3661998059331045,0.8180311148882058
-3.9085,0.3235191065023739,0.775644561267536
-3.908,0.291508581929326,0.7438546460520338
-3.9075,0.2488278824985954,0.7438546460520338
-3.907,0.01408403562957729,0.7120647308365314
-3.9065,-0.391382608962363,0.4895353243280153
-3.906,-0.8608703027003992,0.4047622170866759
-3.9055,-1.383708870726849,-0.252229364033705
-3.905,-1.277007122150022,-0.3899856633008816
-3.9045,-0.7648387289812555,-0.1886495336027004
-3.904,-0.2313299860971235,-0.02969995752518888
-3.9035,0.1848068333524996,0.05507314971615059
-3.903,0.4195506802215176,0.1186529801471552
-3.9025,0.5155822539406614,0.07626642652648545
-3.902,0.5369226036560266,0.05507314971615059
-3.9015,0.6329541773751706,-0.07208651114585861
-3.901,0.7716664505250448,-0.1992461720078678
-3.9005,0.7289857510943143,-0.1038764263613609
-3.9,0.6222840025174878,0.07626642652648545
-3.8995,0.5155822539406614,0.2564092794143318
-3.899,0.4408910299368829,0.4047622170866759
-3.8985,0.4408910299368829,0.2352160026039969
-3.898,0.3235191065023739,-0.4535654937318862
-3.8975,-0.3166913849585846,-1.174136905283272
-3.897,-0.8928808272734472,-1.545019249464132
-3.8965,-1.341028171296118,-1.619195718300304
-3.896,-1.148965023857831,-1.089363798041932
-3.8955,-0.6367966306890638,-0.326405832869877
-3.895,-0.1673089369510276,0.2881991946298341
-3.8945,0.1527963087794516,0.6696781772158616
-3.894,0.3341892813600565,0.8392243916985406
-3.8935,0.3982103305061524,0.8604176685088755
-3.893,0.408880505363835,0.8180311148882058
-3.8925,0.3982103305061524,0.7332580076468663
-3.892,0.3555296310754218,0.6590815388106942
-3.8915,0.3128489316446912,0.6060983467848571
-3.891,0.2594980573562781,0.5849050699745222
-3.8905,0.1207857842064037,0.6378882620003594
-3.89,-0.391382608962363,0.2881991946298341
-3.8895,-0.807519428411986,-0.4641621321370536
-3.889,-1.223656247861609,-1.248313374119443
-3.8885,-1.607782542738184,-1.650985633515806
-3.888,-1.554431668449771,-1.0999604364471
-3.8875,-0.9355615267041777,-0.400582301706049
-3.887,-0.3060212101009019,0.07626642652648545
-3.8865,0.142126133921769,0.2352160026039969
