Class_6_Listen_To_Quran/Class_6_Listen_To_Quran_UZ_4.csv

#Digilent WaveForms Oscilloscope Acquisition
#Device Name: EExplorer
#Serial Number: SN:210151A2B84A
#Date Time: 2020-12-03 12:22:03.452
#Sample rate: 2000Hz
#Samples: 16384
#Trigger: Source: Channel 1 Type: Edge Condition: Rising Level: 0 V Hyst.: Auto HoldOff: 0 s
#Channel 1: Range: 1 V/div Offset: 0 V Attenuation: 1 X
#Channel 2: Range: 1 V/div Offset: 0 V Attenuation: 1 X
#Power Supplies: ON
#Fixed Supply: ON
#Voltage: 3.3 V Readback: 3.331 V
#Positive Supply: ON
#Voltage: 3.7 V Readback: 3.717 V
#Current: 40 mA Readback: 0 A
#Negative Supply: ON
#Voltage: -3.7 V Readback: -4.454 V
#Current: -40 mA Readback: -4 mA
#Reference 1: ON
#Voltage: 0 V
#Reference 2: ON
#Voltage: 0 V

Time (s),Channel 1 (V),Channel 2 (V)
-4.096,1.817343586577944,-1.555615887869299
-4.0955,1.47589799113241,-0.9728007755856204
-4.095,0.9850699476782804,-0.1886495336021317
-4.0945,0.5262524287983441,0.4365521323021782
-4.094,0.1848068333528101,0.7968378380775432
-4.0935,-0.007256314085865623,0.9769806909657558
-4.093,-0.09261771294724913,1.019367244586387
-4.0925,-0.1352984123779409,0.9981739677760714
-4.092,-0.3060212101009407,0.9875773293708462
-4.0915,-0.3487019095316325,0.9451907757502149
-4.091,-0.3060212101009019,0.8710143069140429
-4.0905,-0.2313299860970555,0.7968378380778131
-4.09,-0.156638762093345,0.7332580076468663
-4.0895,-0.2526703358124887,0.6060983467848571
-4.089,-0.7328282044077707,0.02328323450117831
-4.0885,-1.458400094730627,-0.9410108603695881
-4.088,-1.981238662757077,-1.926498232050159
-4.0875,-1.778505340461291,-2.202010830584262
-4.087,-1.703814116456872,-2.106641084937245
-4.0865,-1.202315898146244,-1.269506650929778
-4.086,-0.6154562809742323,-0.3475991096810502
-4.0855,-0.274010685527689,0.2246193641991186
-4.085,-0.09261771294724913,0.5425185163538525
-4.0845,-0.00725631408586562,0.6590815388105882
-4.084,0.02475421048725994,0.6802748156210098
-4.0835,0.02475421048725994,0.6590815388106942
-4.083,0.03542438534494258,0.6166949851900245
-4.0825,0.0674349099180002,0.5849050699745125
-4.082,0.07810508477567314,0.5743084315693548
-4.0815,0.2381577076409128,0.5743084315693548
-4.081,0.9317190733896537,0.3305857482507255
-4.0805,1.689301488285752,-0.474758770542221
-4.08,2.030747083731597,-1.248313374119443
-4.0795,2.084097958019961,-1.778145294377333
-4.079,1.870694460865862,-1.629792356704719
-4.0785,1.326515543124542,-0.8032545611024114
-4.078,0.8036769750985683,-0.01910331912073471
-4.0775,0.3875401556482271,0.5319218779489742
-4.077,0.1207857842064037,0.849821030103708
-4.0765,-0.03926683865869035,0.9981739677759172
-4.076,-0.1139580626627309,1.019367244586233
-4.0755,-0.2420001609548061,0.849821030103708
-4.075,-0.3593720843893152,0.6590815388106942
-4.0745,-0.327361559816209,0.6484849004055654
-4.074,-0.2633405106701714,0.6908714540261965
-4.0735,-0.1993194615240755,0.7226613692416989
-4.073,-0.4127229586775343,0.4789386859230695
-4.0725,-1.415719395299897,-0.4111789401112165
-4.072,-2.183971985053047,-1.174136905283272
-4.0715,-2.792171951940404,-1.979481424075264
-4.071,-2.824182476513607,-2.530506621144529
-4.0705,-2.386705307349017,-2.339767129851689
-4.07,-1.565101843308201,-1.428456227008119
-4.0695,-0.8608703026999528,-0.5595318777829918
-4.069,-0.3700422592469978,0.06566978812131802
-4.0685,-0.08194753808956648,0.4259554938970107
-4.068,0.03542438534497169,0.5637117931641971
-4.0675,0.0674349099179905,0.5743084315693548
-4.067,0.0674349099179905,0.5425185163538525
-4.0665,0.05676473506030786,0.5001319627331346
-4.066,0.05676473506030786,0.4471487707073456
-4.0655,0.05676473506030786,0.4153588554918433
-4.065,0.0674349099179808,0.3941655786815277
-4.0645,0.2594980573562781,0.2881991946298341
-4.064,0.974399772821015,-0.3581957480853793
-4.0635,1.64662078885441,-1.17413690528253
-4.063,1.998736559158539,-1.746355379162053
-4.0625,1.988066384300866,-1.460246142222792
-4.062,1.507908515705584,-0.644304985025642
-4.0615,0.9103787236744826,0.1186529801476563
-4.061,0.4302208550792003,0.6696781772158616
-4.0605,0.1207857842064037,0.9557874141553824
-4.06,-0.03926683865889414,1.061753798207047
-4.0595,-0.1032878878049318,1.051157159801889
-4.059,-0.1673089369510276,0.9875773293708847
-4.0585,-0.2953510352431029,0.8498210301038334
-4.058,-0.2846808603855366,0.7862411996727035
-4.0575,-0.2420001609548061,0.7650479228623686
-4.057,-0.1993194615241143,0.7544512844572108
-4.0565,-0.156638762093345,0.7438546460520338
-4.056,-0.4020527838200457,0.5107286011383502
-4.0555,-1.319687821579918,-0.4323722169206935
-4.055,-2.162631635337303,-1.66158227192134
-4.0545,-1.746494815888059,-2.064254531317336
-4.054,-1.522421143876927,-2.307977214635965
-4.0535,-1.116954499284297,-1.703968825540757
-4.053,-0.5834457564006506,-0.7290780922662394
-4.0525,-0.2420001609548061,-0.008506680714854012
-4.052,-0.0926177129471812,0.3941655786816819
-4.0515,-0.01792648894347063,0.5849050699745222
-4.051,0.01408403562957729,0.6484849004055269
-4.0505,0.01408403562957729,0.6378882620003691
-4.05,0.01408403562957729,0.6060983467848571
-4.0495,0.03542438534494258,0.5849050699745222
-4.049,0.06743490991796139,0.5637117931642067
-4.0485,0.09944543449103843,0.5531151547590006
-4.048,0.09944543449103843,0.5319218779486851
-4.0475,0.3982103305058807,0.1186529801475311
-4.047,1.059761171682884,-0.7184814538616598
-4.0465,1.507908515705147,-1.364876396576285
-4.046,1.657290963712568,-1.661582271920704
-4.0455,1.603940089423912,-1.407262950196271
-4.045,1.187803269974668,-0.6549016234300674
-4.0445,0.6756348768059011,0.09745970333682032
-4.044,0.2701682322137278,0.6378882620006197
-4.0435,0.01408403562957729,0.92399749893988
-4.043,-0.1032878878049318,1.040560521396722
-4.0425,-0.1459685872356235,1.040560521396722
-4.042,-0.2846808603855366,0.9875773293708847
-4.0415,-0.2953510352432193,0.9134008605347127
-4.041,-0.2313299860971817,0.8392243916986081
-4.0405,-0.1673089369509985,0.7756445612674878
-4.04,-0.1352984123779797,0.7226613692416989
-4.0395,-0.1886492866663444,0.6166949851901209
-4.039,-0.6794773301204931,0.07626642652579155
-4.0385,-1.447729919872945,-0.6866915386455698
-4.038,-2.685470203363005,-1.937094870454189
-4.0375,-3.080266673098107,-2.466926790713535
-4.037,-2.770831602225592,-2.286783937825852
-4.0365,-1.959898313041711,-1.460246142222792
-4.036,-1.042263275280393,-0.4959520473519006
-4.0355,-0.3700422592469978,0.2246193641988295
-4.035,-0.07127736323188383,0.5425185163538525
-4.0345,0.04609456020251847,0.6590815388105882
-4.034,0.07810508477567314,0.6696781772158616
-4.0335,0.05676473506030786,0.6378882620003594
-4.033,0.04609456020263492,0.5849050699745704
-4.0325,0.06743490991801962,0.5531151547590103
-4.032,0.09944543449103843,0.5425185163538525
-4.0315,0.1421261339217302,0.5319218779486947
-4.031,0.3982103305067541,0.2564092794135897
-4.0305,1.059761171682476,-0.5595318777835605
-4.03,1.625280439139142,-1.364876396575553
-4.0295,1.956055859727925,-1.926498232050323
-4.029,2.073427783162327,-2.106641084938006
-4.0285,1.657290963712704,-1.375473034981453
-4.028,1.049090996824308,-0.4535654937312116
-4.0275,0.5155822539406614,0.2881991946298341
-4.027,0.1741366584948169,0.7544512844572011
-4.0265,0.003413860772049915,0.9769806909655149
-4.026,-0.07127736323188383,1.061753798207057
-4.0255,-0.2313299860971235,0.9028042221295453
-4.025,-0.3807124341045446,0.7014680924315471
-4.0245,-0.3380317346738819,0.669678177215881
-4.024,-0.2633405106701714,0.6908714540261965
-4.0235,-0.2740106855278443,0.7120647308365121
-4.023,-0.2740106855281743,0.6908714540258496
-4.0225,-0.6261264558313813,0.309392471440169
-4.022,-1.20231589814572,-0.4429688553260345
-4.0215,-1.405049220442631,-1.184733543689432
-4.021,-1.863866739322568,-2.276187299420684
-4.0205,-1.970568487899394,-2.445733513903364
-4.02,-1.629122892453035,-1.820531847997666
-4.0195,-1.06360362499637,-0.9198175835592532
-4.019,-0.4767440078238243,-0.08268314955102604
-4.0185,-0.1352984123782902,0.3941655786810747
-4.018,-0.01792648894347063,0.5637117931641874
-4.0175,0.02475421048725994,0.5955017083796896
-4.017,0.03542438534493288,0.5637117931642163
-4.0165,0.03542438534496199,0.5107286011383213
-4.016,0.05676473506030786,0.4789386859228479
-4.0155,0.08877525963332666,0.4577454091125323
-4.015,0.09944543449101902,0.4577454091124938
-4.0145,0.07810508477567314,0.4365521323021782
-4.014,0.3341892813598236,0.1186529801474443
-4.0135,1.03842082196747,-0.591321792999641
-4.013,1.433217291701369,-1.227120097309109
-4.0125,1.422547116843686,-1.34368311976595
-4.012,1.091771696255136,-0.7820612842914405
-4.0115,0.6649647019482183,-0.08268314955102604
-4.011,0.3235191065023739,0.4471487707073456
-4.0105,0.08877525963356928,0.7756445612672372
-4.01,-0.02859666380115328,0.9345941373450475
-4.0095,-0.07127736323188383,0.9981739677760521
-4.009,-0.1352984123779215,1.061753798206999
-4.0085,-0.2846808603855366,1.178316820663841
-4.008,-0.2846808603855366,1.114736990232894
-4.0075,-0.231329986097172,0.9981739677761581
-4.007,-0.1673089369509888,0.8922075837243103
-4.0065,-0.124628237520297,0.8180311148882058
-4.006,-0.3593720843893152,0.55311515475902
-4.0055,-1.266336947293107,-0.4005823017071381
-4.005,-2.109280761049269,-1.598002441489969
-4.0045,-1.757164990745741,-2.000674700886331
-4.004,-1.597112367880142,-2.244397384204623
-4.0035,-1.202315898146244,-1.629792356705471
-4.003,-0.6474668055467465,-0.6337083466197325
-4.0025,-0.2953510352435396,0.09745970333615528
-4.002,-0.1032878878049318,0.5319218779486851
-4.0015,-0.007256314085787988,0.7438546460520338
-4.001,0.02475421048723082,0.8074344764829805
-4.0005,0.03542438534494258,0.7862411996726649
-4,0.03542438534494258,0.7438546460520338
-3.9995,0.04609456020262521,0.701468092431364
-3.999,0.04609456020262521,0.6590815388106942
-3.9985,0.08877525963335578,0.627291623595192
-3.998,0.1314559590640864,0.5849050699745222
-3.9975,0.5049120790829789,0.1716361721729923
-3.997,1.241154144263081,-0.6760949002404023
-3.9965,1.731982187716482,-1.375473034981453
-3.996,2.12677865745074,-1.862918401619155
-3.9955,2.12677865745074,-1.778145294377815
-3.995,1.582599739708926,-0.9728007755850904
-3.9945,0.9210488985326017,-0.1356663415768632
-3.994,0.4195506802215176,0.457745409112513
-3.9935,0.09944543449103843,0.8074344764830383
-3.993,-0.07127736323188383,0.92399749893988
-3.9925,-0.1352984123779797,0.9345941373450475
-3.992,-0.2846808603855366,0.9028042221295453
-3.9915,-0.3166913849585846,0.8286277532933731
-3.991,-0.2526703358124887,0.7544512844572011
-3.9905,-0.1673089369510276,0.6802748156210291
-3.99,-0.124628237520297,0.6060983467848571
-3.9895,-0.2313299860971235,0.4789386859228479
-3.989,-1.255666772434657,-0.5489352393783931
-3.9885,-2.269333383914508,-1.629792356705471
-3.988,-2.44005618163743,-2.21260746898968
-3.9875,-2.418715831922065,-2.519909982739535
-3.987,-2.269333383914508,-2.339767129851689
-3.9865,-1.554431668449771,-1.38606967338662
-3.986,-0.8715404775580819,-0.474758770542221
-3.9855,-0.4020527838200457,0.1610395337678249
-3.985,-0.1139580626626144,0.5425185163538525
-3.9845,0.02475421048725994,0.701468092431364
-3.984,0.0674349099179905,0.7332580076468663
-3.9835,0.07810508477567314,0.7120647308365314
-3.983,0.07810508477567314,0.6696781772158616
-3.9825,0.09944543449103843,0.627291623595192
-3.982,0.142126133921769,0.5955017083796896
-3.9815,0.1741366584948169,0.5637117931641874
-3.981,0.4515612047945656,0.3411823866556712
-3.9805,1.15579274540162,-0.4111789401112165
-3.98,1.614610264281974,-1.184733543688439
-3.9795,1.870694460866357,-1.735758740757146
-3.979,1.817343586577944,-1.608599079895136
-3.9785,1.35852606769759,-0.8244478379127463
-3.978,0.8143471499557753,-0.04029659593035631
-3.9775,0.3982103305061524,0.4895353243280153
-3.977,0.1207857842064037,0.7968378380778709
-3.9765,-0.03926683865883591,0.9451907757502149
-3.976,-0.1032878878049318,0.9875773293708847
-3.9755,-0.2313299860971235,0.8392243916985406
-3.975,-0.3380317346739499,0.6802748156210291
-3.9745,-0.2953510352432193,0.6908714540261965
-3.974,-0.2099896363817582,0.7544512844572011
-3.9735,-0.1459685872356623,0.7968378380778709
-3.973,-0.1352984123779797,0.775644561267536
-3.9725,-0.4980843575391895,0.2987958330350016
-3.972,-1.799845690176472,-1.142346990067769
-3.9715,-2.205312334768412,-1.958288147265661
-3.971,-1.842526389607202,-2.498716705929201
-3.9705,-1.575772018165136,-2.636473005196377
-3.97,-1.052933450138687,-1.75695201756748
-3.9695,-0.5194247072545548,-0.718481453861072
-3.969,-0.2313299860971235,-0.01910331912002144
-3.9685,-0.06060718837420119,0.383568940276341
-3.968,0.01408403562957729,0.55311515475902
-3.9675,0.03542438534494258,0.5955017083796896
-3.967,0.04609456020262521,0.5637117931641874
-3.9665,0.04609456020262521,0.5107286011383502
-3.966,0.0674349099179905,0.4683420475176805
-3.9655,0.09944543449103843,0.4471487707073456
-3.965,0.142126133921769,0.4259554938970107
-3.9645,0.2594980573562781,0.3517790250608387
-3.964,0.857027849386506,-0.2310360872233701
-3.9635,1.475897991132099,-1.05757388282643
-3.963,1.689301488285752,-1.682775548731308
-3.9625,1.593269914566608,-1.682775548731308
-3.962,1.187803269974668,-0.8986243067489184
-3.9615,0.7183155762366316,-0.06148987274069118
-3.961,0.3341892813600565,0.5743084315693548
-3.9605,0.08877525963335578,0.92399749893988
-3.96,-0.03926683865883591,1.061753798207057
-3.9595,-0.09261771294724913,1.072350436612224
-3.959,-0.1352984123779797,1.040560521396722
-3.9585,-0.2526703358124887,0.9875773293708847
-3.958,-0.2420001609548061,0.9345941373450475
-3.9575,-0.1886492866663929,0.8922075837243778
-3.957,-0.1352984123779797,0.849821030103708
-3.9565,-0.1032878878049318,0.8180311148882058
-3.956,-0.3060212101009019,0.627291623595192
-3.9555,-1.084943974711735,-0.2098428104130352
-3.955,-2.066600061618538,-1.587405803084801
-3.9545,-1.906547438753298,-2.191414192179345
-3.954,-1.927887788468663,-2.54110325954987
-3.9535,-1.629122892453549,-2.032464616101834
-3.953,-0.9782422261349084,-0.9833974139902578
-3.9525,-0.4554036581084589,-0.1250697031716958
-3.952,-0.1779791118087102,0.3623756634660061
-3.9515,-0.02859666380115328,0.6060983467848571
-3.951,0.03542438534494258,0.6802748156210291
-3.9505,0.05676473506030786,0.6696781772158616
-3.95,0.04609456020262521,0.627291623595192
-3.9495,0.05676473506030786,0.5849050699745222
-3.949,0.07810508477567314,0.55311515475902
-3.9485,0.08877525963335578,0.5319218779486851
-3.948,0.3021787567870086,0.5425185163538525
-3.9475,0.8356874996711408,0.1610395337678249
-3.947,1.529248865420512,-0.6866915386455698
-3.9465,1.753322537431848,-1.364876396576285
-3.946,1.934715510012453,-1.809935209593318
-3.9455,1.977396209443183,-1.79933857118815
-3.945,1.507908515705147,-1.025783967610927
-3.9445,0.8997085488172365,-0.1780528951975329
-3.944,0.408880505363835,0.4789386859228479
-3.9435,0.08877525963335578,0.8816109453192104
-3.943,-0.08194753808956648,1.051157159801889
-3.9425,-0.1352984123779797,1.072350436612224
-3.942,-0.2953510352432193,0.9981739677760521
-3.9415,-0.3380317346739499,0.9028042221295453
-3.941,-0.274010685527854,0.8286277532933731
-3.9405,-0.1779791118087102,0.7650479228623686
-3.94,-0.1139580626626144,0.7120647308365314
-3.9395,-0.1886492866663929,0.5637117931641874
-3.939,-0.7114878546928423,-0.06148987274069118
-3.9385,-2.013249187330125,-1.449649503817625
-3.938,-2.290673733629873,-2.159624276963843
-3.9375,-2.247993034199143,-2.594086451575707
-3.937,-2.19464215991073,-2.519909982739535
-3.9365,-1.522421143876723,-1.534422611058964
-3.936,-0.7968492535543035,-0.5065486857577234
-3.9355,-0.3593720843893152,0.1610395337678249
-3.935,-0.09261771294724913,0.5319218779486851
-3.9345,0.02475421048725994,0.6908714540261965
-3.934,0.0674349099179905,0.7120647308365314
-3.9335,0.0674349099179905,0.6908714540261965
-3.933,0.0674349099179905,0.6484849004055269
-3.9325,0.07810508477567314,0.6060983467848571
-3.932,0.1101156093487211,0.5743084315693548
-3.9315,0.142126133921769,0.55311515475902
-3.931,0.1954770082101822,0.4259554938970107
-3.9305,0.6756348768059011,-0.2628260024388724
-3.93,1.166462920259302,-1.121153713257435
-3.9295,1.529248865420512,-1.767548655972648
-3.929,1.635950613997339,-1.852321763213987
-3.9285,1.283834843693812,-1.163540266878104
-3.928,0.8143471499557753,-0.3370024712750445
-3.9275,0.408880505363835,0.3305857482505039
-3.927,0.142126133921769,0.7650479228623686
-3.9265,-0.007256314085787988,0.9769806909657173
-3.926,-0.07127736323188383,1.029963882991555
-3.9255,-0.1886492866663929,0.9875773293708847
-3.925,-0.3273615598162672,0.8710143069140429
-3.9245,-0.2846808603855366,0.8180311148882058
-3.924,-0.1993194615240755,0.7968378380778709
-3.9235,-0.124628237520297,0.7862411996727035
-3.923,-0.1032878878049318,0.7438546460520338
-3.9225,-0.5087545323968721,0.309392471440169
-3.922,-1.51175096901904,-0.7290780922662394
-3.9215,-2.514747405641209,-1.915901593644992
-3.921,-2.450726356495113,-2.339767129851689
-3.9205,-2.514747405641209,-2.594086451575707
-3.92,-2.023919362187807,-1.947691508860494
-3.9195,-1.180975548430879,-0.8774310299385835
-3.919,-0.572775581542968,-0.08268314955102604
-3.9185,-0.1993194615240755,0.3941655786815084
-3.918,0.00341386077189465,0.627291623595192
-3.9175,0.07810508477567314,0.6908714540261965
-3.917,0.08877525963335578,0.6696781772158616
-3.9165,0.07810508477567314,0.627291623595192
-3.916,0.08877525963335578,0.5743084315693548
-3.9155,0.1101156093487211,0.5425185163538525
-3.915,0.1314559590640864,0.5107286011383502
-3.9145,0.2061471830678648,0.4259554938970107
-3.914,0.7503261008096795,-0.1568596183871981
-3.9135,1.507908515705147,-0.9939940523954253
-3.913,1.945385684870135,-1.629792356705471
-3.9125,2.08409795802001,-1.820531847998485
-3.912,1.710641838001117,-1.131750351662602
-3.9115,1.113112045970889,-0.2416327256285375
-3.911,0.6009436528021226,0.4789386859228479
-3.9105,0.2381577076409128,0.8816109453192104
-3.91,0.03542438534494258,1.029963882991555
-3.9095,-0.06060718837420119,1.040560521396722
-3.909,-0.1352984123779797,0.9875773293708847
-3.9085,-0.2846808603855366,0.8392243916985406
-3.908,-0.2846808603855366,0.775644561267536
-3.9075,-0.2099896363817582,0.7650479228623686
-3.907,-0.124628237520297,0.7544512844572011
-3.9065,-0.1032878878049318,0.7438546460520338
-3.906,-0.5087545323968721,0.2881991946298341
-3.9055,-1.757164990745741,-1.046977244421262
-3.905,-2.19464215991073,-1.79933857118815
-3.9045,-2.205312334768412,-2.392750321877526
-3.904,-1.906547438753298,-2.424540237093029
-3.9035,-1.212986073003927,-1.51322933424863
-3.903,-0.6047861061160158,-0.5383386009732256
-3.9025,-0.2420001609548061,0.1186529801471552
-3.902,-0.03926683865883591,0.5001319627331828
-3.9015,0.04609456020262521,0.6696781772158616
-3.901,0.07810508477567314,0.701468092431364
-3.9005,0.07810508477567314,0.6696781772158616
-3.9,0.0674349099179905,0.627291623595192
-3.8995,0.05676473506030786,0.5849050699745222
-3.899,0.07810508477567314,0.5425185163538525
-3.8985,0.08877525963335578,0.5107286011383502
-3.898,0.142126133921769,0.4895353243280153
-3.8975,0.6329541773751706,0.07626642652648545
-3.897,1.347855892839907,-0.7502713690765743
-3.8965,1.828013761435626,-1.47084278062796
-3.896,2.073427783162327,-1.598002441489969
-3.8955,1.76399271228953,-0.9092209451540858
-3.895,1.209143619690033,-0.08268314955102604
-3.8945,0.6969752265212663,0.5213252395435176
-3.894,0.291508581929326,0.8604176685088755
-3.8935,0.03542438534494258,1.029963882991555
-3.893,-0.08194753808956648,1.082947075017392
-3.8925,-0.124628237520297,1.061753798207057
-3.892,-0.3060212101009019,0.9451907757502149
-3.8915,-0.3593720843893152,0.8286277532933731
-3.891,-0.2846808603855366,0.775644561267536
-3.8905,-0.1779791118087102,0.7438546460520338
-3.89,-0.1032878878049318,0.7226613692416989
-3.8895,-0.124628237520297,0.6590815388106942
-3.889,-0.9035510021311299,-0.08268314955102604
-3.8885,-1.970568487899394,-1.407262950196955
-3.888,-1.735824641030376,-2.053657892912168
-3.8875,-1.362368521011484,-2.509313344334368
-3.887,-1.095614149569417,-2.17022091536901
-3.8865,-0.6047861061160158,-1.131750351662602
