Class_6_Listen_To_Quran/Class_6_Listen_To_Quran_UZ_7.csv

#Digilent WaveForms Oscilloscope Acquisition
#Device Name: EExplorer
#Serial Number: SN:210151A2B84A
#Date Time: 2020-12-14 13:28:12.899
#Sample rate: 2000Hz
#Samples: 16384
#Trigger: Source: Channel 1 Type: Edge Condition: Rising Level: 0 V Hyst.: Auto HoldOff: 0 s
#Channel 1: Range: 1 V/div Offset: 0 V Attenuation: 1 X
#Channel 2: Range: 1 V/div Offset: 0 V Attenuation: 1 X
#Power Supplies: ON
#Fixed Supply: ON
#Voltage: 3.3 V Readback: 3.324 V
#Positive Supply: ON
#Voltage: 3.7 V Readback: 3.719 V
#Current: 40 mA Readback: 18 mA
#Negative Supply: ON
#Voltage: -3.7 V Readback: -3.352 V
#Current: -40 mA Readback: -9 mA
#Reference 1: ON
#Voltage: 0 V
#Reference 2: ON
#Voltage: 0 V

Time (s),Channel 1 (V),Channel 2 (V)
-4.096,0.1207857842064037,0.457745409112513
-4.0955,0.1848068333524413,0.5955017083795644
-4.095,0.302178756787455,0.6908714540260809
-4.0945,0.79300680024041,0.5637117931641874
-4.094,0.7183155762366995,0.3517790250610314
-4.0935,0.1207857842065202,0.2987958330347992
-4.093,0.2488278824985954,0.07626642652648545
-4.0925,0.6863050516631859,-0.1780528951973016
-4.092,0.9743997728210538,-0.2628260024386411
-4.0915,1.017080472251745,-0.008506680714854012
-4.091,0.8463576745288233,0.4259554938970107
-4.0905,0.5689331282288611,0.7438546460521687
-4.09,0.3341892813600565,0.8922075837243778
-4.0895,0.08877525963335578,0.7650479228623686
-4.089,-0.1993194615238135,0.4365521323024769
-4.0885,-0.2526703358124887,0.1716361721729923
-4.088,-0.1993194615240755,-0.06148987274069118
-4.0875,-0.124628237520365,-0.2840192792490049
-4.087,-0.07127736323215556,-0.4959520473523921
-4.0865,-0.3700422592469978,-0.3158091944647096
-4.086,-0.999582575849701,0.2352160026034958
-4.0855,-1.565101843307852,0.7332580076471266
-4.085,-2.002579012472442,1.019367244586387
-4.0845,-1.863866739322694,0.7968378380780733
-4.084,-1.244996597576431,0.08686306493105535
-4.0835,-0.6474668055467465,-0.570128516188728
-4.083,-0.2420001609548061,-0.9622041371799229
-4.0825,-0.007256314085690943,-1.099960436447023
-4.082,0.09944543449103843,-1.01518732920576
-4.0815,0.1207857842064037,-0.8032545611024114
-4.081,0.09944543449105783,-0.5277419625683089
-4.0805,0.07810508477567314,-0.2204394488182027
-4.08,0.0674349099179905,0.07626642652648545
-4.0795,0.08877525963333638,0.3093924714399569
-4.079,0.1527963087795487,0.4471487707073553
-4.0785,0.2594980573562781,0.457745409112513
-4.078,0.5582629533711203,0.4471487707073553
-4.0775,0.8676980242437712,0.118652980147001
-4.077,0.408880505363835,-0.05089323433552374
-4.0765,0.1634664836373575,-0.08268314955099712
-4.076,0.387540155648722,-0.1780528951975329
-4.0755,0.6649647019482183,-0.1780528951975329
-4.075,0.79300680024041,0.02328323450064829
-4.0745,0.6969752265211013,0.3729723018714627
-4.074,0.5155822539406614,0.6908714540261965
-4.0735,0.3341892813600565,0.9028042221295453
-4.073,0.1634664836372896,0.9028042221295453
-4.0725,-0.03926683865883591,0.6378882620003594
-4.072,-0.1139580626626144,0.383568940276341
-4.0715,-0.1032878878049415,0.129249618552554
-4.071,-0.07127736323184501,-0.1250697031719174
-4.0705,-0.02859666380115328,-0.3687923864905467
-4.07,-0.1779791118085744,-0.3793890248957045
-4.0695,-0.6367966306895587,0.1080563417424793
-4.069,-1.180975548430879,0.6484849004055269
-4.0685,-1.586442193022819,0.9875773293708847
-4.068,-1.91721761361069,1.093543713422135
-4.0675,-1.597112367880501,0.627291623595192
-4.067,-0.9995825758502737,-0.1144730647665284
-4.0665,-0.4767440078235137,-0.6972881770510071
-4.066,-0.1352984123779797,-0.9939940523954253
-4.0655,0.04609456020262521,-1.046977244421262
-4.065,0.1101156093486628,-0.909220945154211
-4.0645,0.1101156093487211,-0.6654982618352349
-4.064,0.09944543449103843,-0.3793890248957141
-4.0635,0.07810508477569256,-0.08268314955129591
-4.063,0.09944543449106755,0.1716361721731754
-4.0625,0.1314559590640864,0.3729723018711736
-4.062,0.1741366584947781,0.5107286011382248
-4.0615,0.558262953371722,0.3305857482500895
-4.061,0.9210488985326017,-0.1250697031716958
-4.0605,0.4195506802215176,-0.3687923864905467
-4.06,0.04609456020298428,-0.2522293640337628
-4.0595,0.4408910299368829,-0.3158091944647096
-4.059,0.8356874996711408,-0.3475991096802118
-4.0585,1.027750647109253,-0.2840192792492651
-4.058,0.974399772821015,0.02328323450064829
-4.0575,0.7289857510943143,0.4471487707073456
-4.057,0.4515612047948179,0.7650479228620795
-4.0565,0.2381577076409128,0.8604176685088755
-4.056,0.1954770082101822,0.701468092431364
-4.0555,0.1848068333525093,0.4683420475178925
-4.055,0.1314559590640378,0.2352160026037753
-4.0545,0.07810508477567314,-0.008506680714854012
-4.054,0.03542438534498139,-0.2628260024386411
-4.0535,-0.06060718837467671,-0.4217755785160659
-4.053,-0.5834457564006506,-0.07208651114585861
-4.0525,-1.298347471865388,0.4789386859228479
-4.052,-1.938557963326812,0.9028042221296995
-4.0515,-2.450726356495113,1.072350436612224
-4.051,-2.344024607918286,0.8922075837243778
-4.0505,-1.501080794162124,0.203426087389121
-4.05,-0.7861790786966207,-0.4853554089473885
-4.0495,-0.2953510352432193,-0.9198175835592532
-4.049,-0.007256314086049986,-1.07876715963662
-4.0485,0.1101156093487502,-1.004590690800409
-4.048,0.142126133921769,-0.8032545611024114
-4.0475,0.1207857842064231,-0.5277419625683089
-4.047,0.09944543449103843,-0.2204394488179521
-4.0465,0.09944543449103843,0.05507314971615059
-4.046,0.1207857842063843,0.3093924714399376
-4.0455,0.1741366584950984,0.4365521323020625
-4.045,0.4835717293676135,0.309392471440169
-4.0445,1.113112045970889,-0.07208651114585861
-4.044,1.09177169625532,-0.1886495336027582
-4.0435,0.8676980242441885,-0.252229364033705
-4.043,0.8783681991018712,-0.326405832869877
-4.0425,0.9850699476786007,-0.3581957480853504
-4.042,1.006410297394063,-0.2204394488182027
-4.0415,0.8783681991018712,0.13984625695749
-4.041,0.6542945270907397,0.5637117931638018
-4.0405,0.419550680221343,0.8498210301038044
-4.04,0.2274875327832301,0.9557874141553824
-4.0395,0.1101156093488278,0.8922075837244356
-4.039,0.0460945602025864,0.7332580076466158
-4.0385,0.00341386077189465,0.457745409112513
-4.038,-0.007256314085778284,0.1186529801474636
-4.0375,-0.007256314085807397,-0.2098428104132858
-4.037,-0.02859666380115328,-0.4853554089473885
-4.0365,-0.4340633083930936,-0.2840192792492073
-4.036,-1.13829484900073,0.2670059178199522
-4.0355,-1.778505340461106,0.7650479228623686
-4.035,-2.205312334768412,1.051157159801889
-4.0345,-2.183971985053066,0.9769806909657848
-4.034,-1.46907026958831,0.3305857482505039
-4.0335,-0.7968492535543035,-0.3687923864905467
-4.033,-0.3060212101013484,-0.8350444763174898
-4.0325,-0.02859666380103683,-1.015187329205721
-4.032,0.09944543449103843,-0.9728007755850904
-4.0315,0.1314559590640572,-0.7820612842922501
-4.031,0.1207857842063843,-0.5065486857574535
-4.0305,0.09944543449103843,-0.2098428104130352
-4.03,0.07810508477569256,0.09745970333654083
-4.0295,0.0887752596333849,0.3517790250609929
-4.029,0.1207857842064037,0.5213252395435176
-4.0285,0.3021787567870086,0.4365521323021782
-4.028,0.8570278493866904,0.09745970333659865
-4.0275,1.059761171682476,-0.1462629799820306
-4.027,0.4835717293676135,0.08686306493165288
-4.0265,0.3555296310755383,0.235216002603862
-4.026,0.6756348768059011,0.03387987290581572
-4.0255,0.9317190733902845,-0.1674562567923655
-4.025,0.9850699476786492,-0.1356663415768921
-4.0245,0.8570278493862925,0.1504428953629659
-4.024,0.6222840025174878,0.4895353243280153
-4.0235,0.3875401556486832,0.6802748156208556
-4.023,0.1954770082099105,0.6484849004052763
-4.0225,-0.1032878878049318,0.3729723018711736
-4.022,-0.2099896363816611,0.1716361721731754
-4.0215,-0.177979111808652,0.01268659609531701
-4.021,-0.1139580626626144,-0.1674562567923655
-4.0205,-0.06060718837420119,-0.3793890248957141
-4.02,-0.2633405106707536,-0.3264058328694048
-4.0195,-0.9035510021311299,0.1928294489833272
-4.019,-1.607782542738184,0.7226613692416989
-4.0185,-2.237322859340888,1.051157159801591
-4.018,-2.482736881068161,1.114736990232894
-4.0175,-1.810515865034154,0.5743084315693548
-4.017,-1.03159310042403,-0.1568596183865331
-4.0165,-0.4554036581081289,-0.7184814538613226
-4.016,-0.09261771294724913,-0.9939940523954253
-4.0155,0.07810508477551786,-1.025783967610899
-4.015,0.1421261339217593,-0.8880276683435292
-4.0145,0.1314559590640864,-0.6443049850249
-4.014,0.1101156093487405,-0.3475991096804817
-4.0135,0.09944543449104813,-0.06148987274046951
-4.013,0.1101156093487211,0.1822328105781598
-4.0125,0.142126133921769,0.3729723018711736
-4.012,0.2168173579259939,0.4471487707070854
-4.0115,0.707645401378949,0.1610395337678249
-4.011,1.422547116843686,-0.2734226408440398
-4.0105,1.305175193409284,-0.3052125560595132
-4.01,0.7503261008096795,0.02328323450064829
-4.0095,0.707645401378949,-0.01910331912002144
-4.009,0.867698024244043,-0.1886495336025462
-4.0085,0.9317190733902165,-0.1674562567920475
-4.008,0.857027849386506,0.1822328105781598
-4.0075,0.6436243522330471,0.584905069974156
-4.007,0.440891029936718,0.8286277532933924
-4.0065,0.2594980573562781,0.849821030103708
-4.006,0.07810508477567314,0.5425185163538525
-4.0055,-0.04993701351653796,0.2352160026038235
-4.005,-0.07127736323188383,0.04447651131098315
-4.0045,-0.06060718837420119,-0.1250697031716958
-4.004,-0.0285966638012018,-0.3052125560596289
-4.0035,-0.08194753808956648,-0.400582301706049
-4.003,-0.5941159312583333,0.02328323450064829
-4.0025,-1.30901764672242,0.6166949851894848
-4.002,-1.735824641030376,1.019367244586387
-4.0015,-1.853196564464885,1.125333628638062
-4.001,-1.458400094730986,0.6590815388111182
-4.0005,-0.8822106524153278,-0.06148987274121161
-4,-0.4020527838200457,-0.6337083466197325
-3.9995,-0.09261771294724913,-0.9410108603695881
-3.999,0.05676473506030786,-1.004590690800593
-3.9985,0.1101156093487211,-0.8986243067489184
-3.998,0.1101156093487211,-0.6972881770507372
-3.9975,0.09944543449103843,-0.4323722169215513
-3.997,0.07810508477567314,-0.1674562567923655
-3.9965,0.09944543449103843,0.07626642652648545
-3.996,0.1314559590640864,0.2670059178194992
-3.9955,0.1634664836371343,0.4153588554918433
-3.995,0.3875401556484697,0.3517790250608387
-3.9945,0.9103787236749192,0.03387987290581572
-3.994,0.7183155762366316,0.2352160026039969
-3.9935,0.08877525963335578,0.7544512844572011
-3.993,0.02475421048725994,0.6484849004055269
-3.9925,0.3341892813600565,0.1186529801471552
-3.992,0.6222840025174878,-0.2416327256285375
-3.9915,0.707645401378949,-0.1886495336027004
-3.991,0.6222840025174878,0.1186529801471552
-3.9905,0.4515612047945656,0.4471487707073456
-3.99,0.2808384070716433,0.6484849004055269
-3.9895,0.1634664836371343,0.5637117931641874
-3.989,0.04609456020262521,0.2352160026039969
-3.9885,-0.007256314085787988,0.1292496185523226
-3.988,-0.01792648894347063,0.1080563417419877
-3.9875,-0.01792648894347063,0.06566978812131802
-3.987,-0.01792648894347063,0.002089957690313421
-3.9865,-0.4020527838200457,0.2352160026039969
-3.986,-1.138294849000148,0.7650479228623686
-3.9855,-1.746494815888059,1.241896651094903
-3.985,-2.322684258202921,1.538602526439591
-3.9845,-2.472066706210478,1.549199164844759
-3.984,-1.735824641030376,0.9345941373450475
-3.9835,-0.9569018764195432,0.1822328105781598
-3.983,-0.4020527838200457,-0.3793890248957141
-3.9825,-0.06060718837420119,-0.6654982618352349
-3.982,0.09944543449103843,-0.718481453861072
-3.9815,0.142126133921769,-0.6231117082145651
-3.981,0.1314559590640864,-0.4323722169215513
-3.9805,0.1101156093487211,-0.2204394488182027
-3.98,0.1101156093487211,-0.01910331912002144
-3.9795,0.1207857842064037,0.1504428953626575
-3.979,0.1741366584948169,0.2352160026039969
-3.9785,0.3768699807907871,0.13984625695749
-3.978,1.017080472251745,-0.3158091944647096
-3.9775,1.571929564851243,-0.7820612842920766
-3.977,1.15579274540162,-0.8774310299385835
-3.9765,0.7716664505250448,-0.8456411147230812
-3.976,0.8676980242441885,-0.8880276683437509
-3.9755,0.9957401225363802,-0.8668343915334161
-3.975,1.006410297394063,-0.6654982618352349
-3.9745,0.8463576745288233,-0.1780528951975329
-3.974,0.5902734779444399,0.2987958330350016
-3.9735,0.3555296310754218,0.5955017083796896
-3.973,0.1848068333524996,0.6166949851900245
-3.9725,0.0674349099179905,0.383568940276341
-3.972,0.01408403562957729,0.1716361721729923
-3.9715,0.00341386077189465,-0.01910331912002144
-3.971,0.00341386077189465,-0.2098428104130352
-3.9705,0.00341386077189465,-0.3899856633008816
-3.97,-0.06060718837420119,-0.4323722169215513
-3.9695,-0.4767440078238243,0.04447651131098315
-3.969,-1.148965023857831,0.6696781772158616
-3.9685,-1.735824641030376,1.135930267043229
-3.968,-2.226652684483777,1.37965295036208
-3.9675,-1.927887788468663,1.072350436612224
-3.967,-1.212986073003927,0.3729723018711736
-3.9665,-0.6047861061160158,-0.2416327256285375
-3.966,-0.1886492866663929,-0.5913217929990628
-3.9655,0.03542438534494258,-0.6866915386455698
-3.965,0.1207857842064037,-0.6125150698093976
-3.9645,0.1314559590640864,-0.4217755785163839
-3.964,0.1101156093487211,-0.1886495336027004
-3.9635,0.09944543449103843,0.04447651131098315
-3.963,0.1101156093487211,0.2458126410091644
-3.9625,0.1314559590640864,0.3941655786815084
-3.962,0.1741366584948169,0.4789386859228479
-3.9615,0.5049120790829789,0.2670059178194992
-3.961,0.8356874996711408,-0.252229364033705
-3.9605,0.4408910299368829,-0.570128516188728
-3.96,0.142126133921769,-0.4641621321370536
-3.9595,0.5049120790829789,-0.5489352393783931
-3.959,0.8783681991018712,-0.6549016234300674
-3.9585,1.017080472251745,-0.5489352393783931
-3.958,0.9210488985326017,-0.2416327256285375
-3.9575,0.6649647019482183,0.13984625695749
-3.957,0.408880505363835,0.4471487707073456
-3.9565,0.2168173579255475,0.5743084315693548
-3.956,0.09944543449103843,0.4683420475176805
-3.9555,0.02475421048725994,0.2987958330350016
-3.955,0.00341386077189465,0.1186529801471552
-3.9545,0.00341386077189465,-0.08268314955102604
-3.954,0.00341386077189465,-0.2840192792492073
-3.9535,-0.1139580626626144,-0.3687923864905467
-3.953,-0.7114878546928423,0.07626642652648545
-3.9525,-1.394379045584531,0.6590815388106942
-3.952,-1.863866739322568,1.072350436612224
-3.9515,-2.226652684483777,1.263089927905238
-3.951,-1.842526389607202,0.9028042221295453
-3.9505,-1.138294849000148,0.1716361721729923
-3.95,-0.5514352318276028,-0.4429688553267188
-3.9495,-0.156638762093345,-0.792657922697244
-3.949,0.04609456020262521,-0.8880276683437509
-3.9485,0.1207857842064037,-0.8032545611024114
-3.948,0.1314559590640864,-0.6019184314042303
-3.9475,0.1101156093487211,-0.3475991096802118
-3.947,0.08877525963335578,-0.08268314955102604
-3.9465,0.08877525963335578,0.1610395337678249
-3.946,0.1314559590640864,0.3199891098453364
-3.9455,0.1954770082101822,0.3941655786815084
-3.945,0.4942419042252961,0.1716361721729923
-3.9445,1.113112045970889,-0.2734226408440398
-3.944,0.9210488985326017,-0.2946159176543747
-3.9435,0.2808384070716433,0.13984625695749
-3.943,0.3982103305061524,0.1080563417419877
-3.9425,0.7503261008096795,-0.2098428104130352
-3.942,0.974399772821015,-0.400582301706049
-3.9415,0.9530594231056497,-0.2310360872233701
-3.941,0.7609962756673623,0.1610395337678249
-3.9405,0.5155822539406614,0.4895353243280153
-3.94,0.2808384070716433,0.6590815388106942
-3.9395,0.07810508477567314,0.6060983467848571
-3.939,-0.04993701351651855,0.4365521323021782
-3.9385,-0.07127736323188383,0.2564092794143318
-3.938,-0.04993701351651855,0.05507314971615059
-3.9375,-0.02859666380115328,-0.1568596183871981
-3.937,-0.01792648894347063,-0.3475991096802118
-3.9365,-0.3060212101009019,-0.1886495336027004
-3.936,-0.9675720512772257,0.3941655786815084
-3.9355,-1.586442193022819,0.9345941373450475
-3.935,-2.19464215991073,1.284283204715573
-3.9345,-2.280003558772191,1.231300012689736
-3.934,-1.533091318734406,0.5743084315693548
-3.9335,-0.839529952985034,-0.1462629799820306
-3.933,-0.3273615598162672,-0.6443049850249
-3.9325,-0.02859666380115328,-0.8668343915334161
-3.932,0.1101156093487211,-0.8668343915334161
-3.9315,0.142126133921769,-0.718481453861072
-3.931,0.1314559590640864,-0.4959520473525559
-3.9305,0.1101156093487211,-0.2416327256285375
-3.93,0.09944543449103843,-0.008506680714854012
-3.9295,0.1207857842064037,0.1928294489833272
-3.929,0.2168173579255475,0.2670059178194992
-3.9285,0.408880505363835,0.2140227257936621
-3.928,0.8143471499557753,-0.07208651114585861
-3.9275,0.9850699476786977,-0.5065486857577234
-3.927,0.4515612047945656,-0.6231117082145651
-3.9265,0.3555296310754218,-0.6019184314042303
-3.926,0.6542945270905358,-0.6337083466197325
-3.9255,0.8890383739595538,-0.5489352393783931
-3.925,0.942389248247967,-0.2310360872233701
-3.9245,0.7823366253827275,0.1822328105781598
-3.924,0.5369226036560266,0.5319218779486851
-3.9235,0.3128489316446912,0.7226613692416989
-3.923,0.1741366584948169,0.7968378380778709
-3.9225,0.142126133921769,0.7968378380778709
-3.922,0.1101156093487211,0.5425185163538525
-3.9215,0.07810508477567314,0.1928294489833272
-3.921,0.04609456020262521,-0.1568596183871981
-3.9205,0.02475421048725994,-0.4535654937318862
-3.92,-0.1886492866663929,-0.4535654937318862
-3.9195,-0.8288597781273515,0.06566978812131802
-3.919,-1.447729919872945,0.627291623595192
-3.9185,-1.970568487899394,1.029963882991555
-3.918,-2.23732285934146,1.125333628638062
-3.9175,-1.629122892453549,0.5849050699745222
-3.917,-0.9355615267041777,-0.1250697031716958
-3.9165,-0.4020527838200457,-0.6337083466197325
-3.916,-0.07127736323188383,-0.8774310299385835
-3.9155,0.07810508477567314,-0.8774310299385835
-3.915,0.142126133921769,-0.718481453861072
-3.9145,0.1314559590640864,-0.474758770542221
-3.914,0.1101156093487211,-0.1992461720078678
-3.9135,0.09944543449103843,0.07626642652648545
-3.913,0.1101156093487211,0.2987958330350016
-3.9125,0.142126133921769,0.4683420475176805
-3.912,0.2168173579255475,0.5213252395435176
-3.9115,0.6116138276598051,0.2670059178194992
-3.911,1.305175193409177,-0.2098428104130352
-3.9105,1.305175193409177,-0.6231117082145651
-3.91,0.7503261008096795,-0.8668343915334161
-3.9095,0.7289857510943143,-0.9304142219644207
-3.909,0.8676980242441885,-0.8350444763179138
-3.9085,0.9210488985326017,-0.4853554089473885
-3.908,0.8036769750980928,0.01268659609548085
-3.9075,0.5689331282290746,0.4471487707073456
-3.907,0.3448594562177392,0.701468092431364
-3.9065,0.1954770082101822,0.7332580076468663
-3.906,0.1527963087794516,0.6908714540261965
-3.9055,0.1207857842064037,0.5107286011383502
-3.905,0.07810508477567314,0.1928294489833272
-3.9045,0.04609456020262521,-0.1356663415768632
-3.904,0.02475421048725994,-0.4429688553267188
-3.9035,-0.08194753808956648,-0.5807251545938954
-3.903,-0.658136980404429,-0.1674562567923655
-3.9025,-1.330357996438436,0.4153588554918433
-3.902,-1.83185621474952,0.8392243916985406
-3.9015,-2.215982509626095,0.92399749893988
-3.901,-1.917217613610981,0.6484849004055269
-3.9005,-1.212986073003927,0.03387987290581572
-3.9,-0.6047861061160158,-0.4959520473525559
-3.8995,-0.1886492866663929,-0.7820612842920766
-3.899,0.03542438534494258,-0.8350444763179138
-3.8985,0.1207857842064037,-0.718481453861072
-3.898,0.142126133921769,-0.4959520473525559
-3.8975,0.1207857842064037,-0.2310360872233701
-3.897,0.09944543449103843,0.04447651131098315
-3.8965,0.09944543449103843,0.2776025562246667
-3.896,0.1314559590640864,0.4471487707073456
-3.8955,0.1848068333524996,0.5425185163538525
-3.895,0.4835717293676135,0.309392471440169
-3.8945,1.081101521397841,-0.1780528951975329
-3.894,1.15579274540162,-0.5913217929990628
-3.8935,0.4622313796522482,-0.7396747306714069
-3.893,0.3448594562177392,-0.8032545611024114
-3.8925,0.6116138276598051,-0.792657922697244
-3.892,0.825017324813458,-0.6231117082145651
-3.8915,0.8463576745288233,-0.2204394488182027
-3.891,0.6756348768059011,0.2670059178194992
-3.8905,0.4515612047945656,0.6060983467848571
-3.89,0.2594980573562781,0.7226613692416989
-3.8895,0.1634664836371343,0.5849050699745222
-3.889,0.1207857842064037,0.3729723018711736
-3.8885,0.07810508477567314,0.1292496185523226
-3.888,0.04609456020262521,-0.1250697031716958
