Class_6_Listen_To_Quran/Class_6_Listen_To_Quran_Suko_6.csv

#Digilent WaveForms Oscilloscope Acquisition
#Device Name: EExplorer
#Serial Number: SN:210151A2B84A
#Date Time: 2020-12-22 14:24:51.690
#Sample rate: 2000Hz
#Samples: 16384
#Trigger: Source: Channel 1 Type: Edge Condition: Rising Level: 0 V Hyst.: Auto HoldOff: 0 s
#Channel 1: Range: 1 V/div Offset: 0 V Attenuation: 1 X
#Channel 2: Range: 1 V/div Offset: 0 V Attenuation: 1 X
#Power Supplies: ON
#Fixed Supply: ON
#Voltage: 3.3 V Readback: 3.323 V
#Positive Supply: ON
#Voltage: 3.7 V Readback: 3.653 V
#Current: 40 mA Readback: 17 mA
#Negative Supply: ON
#Voltage: -3.7 V Readback: -4.127 V
#Current: -40 mA Readback: -5 mA
#Reference 1: ON
#Voltage: 0 V
#Reference 2: ON
#Voltage: 0 V

Time (s),Channel 1 (V),Channel 2 (V)
-4.096,0.3448594562177392,-0.8350444763179138
-4.0955,0.7503261008093107,-0.7290780922663358
-4.095,0.8890383739595052,-0.294615917653941
-4.0945,0.8356874996711408,0.1822328105781598
-4.094,0.6863050516637197,0.5531151547586826
-4.0935,0.54759277851336,0.7438546460516772
-4.093,0.1634664836371343,0.3517790250608387
-4.0925,-0.1779791118083997,-0.1992461720073667
-4.092,-0.03926683865878739,-0.1462629799820306
-4.0915,0.01408403562957729,-0.1462629799820306
-4.091,0.142126133921769,-0.1038764263613609
-4.0905,0.2701682322138151,-0.103876426361544
-4.09,0.1101156093487211,-0.3052125560595421
-4.0895,-0.5514352318276028,-0.252229364033705
-4.089,-1.490410619302821,-0.008506680715075654
-4.0885,-2.280003558772191,0.3623756634660061
-4.088,-2.546757930214257,0.7862411996727035
-4.0875,-1.895877263896208,0.6272916235953365
-4.087,-1.010252750707316,0.2034260873881573
-4.0865,-0.3060212101009019,-0.1674562567923655
-4.086,0.1314559590636885,-0.3793890248955214
-4.0855,0.3341892813601148,-0.4323722169214935
-4.085,0.3982103305061524,-0.3687923864905467
-4.0845,0.3982103305061524,-0.2310360872234954
-4.084,0.3661998059330657,-0.05089323433535026
-4.0835,0.3235191065023739,0.13984625695749
-4.083,0.291508581929326,0.3199891098453364
-4.0825,0.2808384070715851,0.4895353243280732
-4.082,0.2168173579255475,0.55311515475902
-4.0815,-0.274010685527854,0.09745970333682032
-4.081,-0.8608703026998654,-0.5913217929984365
-4.0805,-1.212986073003927,-1.068170521231597
-4.08,-0.9035510021311299,-0.9410108603695881
-4.0795,-0.1566387620940243,-0.6760949002406432
-4.079,0.4622313796525394,-0.315809194464353
-4.0785,0.7823366253827275,0.07626642652648545
-4.078,0.8143471499557462,0.5531151547585862
-4.0775,0.6969752265211304,0.892207583724503
-4.077,0.5475927785137094,1.029963882991555
-4.0765,0.4835717293676717,0.9875773293709232
-4.076,0.5262524287983247,0.8074344764828648
-4.0755,0.5049120790829789,0.6166949851900245
-4.075,0.02475421048725994,0.002089957690313421
-4.0745,-0.4554036581083231,-0.6019184314042206
-4.074,-0.3060212101009019,-0.5913217929990628
-4.0735,-0.423393133535411,-0.3052125560595421
-4.073,-0.9782422261344038,0.5319218779479237
-4.0725,-1.629122892453549,1.358459673551745
-4.072,-2.055929886760855,1.75053529454294
-4.0715,-2.408045657064062,1.84590504018936
-4.071,-1.981238662756329,1.337266396740658
-4.0705,-1.159635198715513,0.5107286011383502
-4.07,-0.4233931335360805,-0.1568596183865909
-4.0695,0.05676473506054076,-0.538338600973322
-4.069,0.3128489316446912,-0.6443049850249
-4.0685,0.408880505363835,-0.5807251545938954
-4.068,0.4088805053638059,-0.4005823017058466
-4.0675,0.3768699807907871,-0.1780528951975329
-4.067,0.3448594562177392,0.07626642652648545
-4.0665,0.3128489316446815,0.3093924714403617
-4.066,0.3021787567870086,0.5213252395435176
-4.0655,0.291508581929326,0.6696781772158616
-4.065,0.07810508477586722,0.6060983467849149
-4.0645,-0.4340633083930936,0.2564092794143318
-4.064,-0.8822106524157645,-0.252229364033705
-4.0635,-0.9675720512771481,-0.5701285161884388
-4.063,-0.444733483250194,-0.4641621321369572
-4.0625,0.1954770082101822,-0.3581957480853793
-4.062,0.6436243522324455,0.0126865960951435
-4.0615,0.8143471499557656,0.4471487707076058
-4.061,0.8036769750980928,0.7332580076468663
-4.0605,0.6969752265212663,0.92399749893988
-4.06,0.5689331282291231,0.9663840525603667
-4.0595,0.6222840025174878,0.7650479228623686
-4.059,0.6222840025174878,0.5849050699745222
-4.0585,0.5262524287984315,0.4789386859229443
-4.058,0.4302208550792003,0.309392471440169
-4.0575,0.3555296310754218,0.1080563417419877
-4.057,0.2701682322140383,-0.01910331911990579
-4.0565,-0.4980843575391895,-0.04029659593035631
-4.056,-1.853196564464885,-0.08268314955102604
-4.0555,-2.493407055925261,0.5319218779481261
-4.055,-3.016245623952099,0.8074344764828745
-4.0545,-2.80284212679864,0.627291623595192
-4.054,-1.778505340462038,0.2034260873888802
-4.0535,-0.8395299529844323,-0.2840192792494868
-4.053,-0.1779791118087102,-0.5913217929990628
-4.0525,0.2061471830678648,-0.6866915386455698
-4.052,0.3768699807908259,-0.6231117082144205
-4.0515,0.4195506802215176,-0.4641621321370536
-4.051,0.408880505363835,-0.252229364033705
-4.0505,0.3875401556484891,-0.01910331912023347
-4.05,0.3448594562177392,0.2034260873884947
-4.0495,0.3235191065023739,0.4047622170866759
-4.049,0.302178756787028,0.5531151547588851
-4.0485,0.1634664836364841,0.5849050699740596
-4.048,-0.5514352318276028,0.07626642652648545
-4.0475,-1.255666772434016,-0.6654982618345602
-4.047,-1.597112367879977,-1.174136905283368
-4.0465,-1.020922925565639,-1.280103289334946
-4.046,-0.156638762094131,-0.9092209451544231
-4.0455,0.4729015545101832,-0.2098428104125052
-4.045,0.7503261008096795,0.3729723018711736
-4.0445,0.7823366253827275,0.7438546460520338
-4.044,0.6969752265211498,0.9345941373450763
-4.0435,0.5689331282290746,0.9663840525605498
-4.043,0.5689331282290746,0.8392243916985406
-4.0425,0.6116138276597662,0.6060983467850691
-4.042,0.5475927785137094,0.4365521323021782
-4.0415,0.4622313796522482,0.2564092794143318
-4.041,0.3875401556485377,0.06566978812149149
-4.0405,0.3128489316443225,-0.09327978795595253
-4.04,-0.09261771294724913,0.1716361721729923
-4.0395,-0.8715404775573734,0.7544512844566711
-4.039,-1.426389570157608,1.104140351827457
-4.0385,-1.458400094730627,0.8074344764830383
-4.038,-1.255666772434841,0.07626642652715043
-4.0375,-1.25566677243423,-1.015187329206059
-4.037,-0.7861790786966207,-1.34368311976595
-4.0365,-0.3487019095316325,-1.34368311976595
-4.036,-0.02859666380090096,-1.142346990067442
-4.0355,0.2488278824985954,-0.7820612842920766
-4.035,0.3661998059331045,-0.4641621321370536
-4.0345,0.3555296310754315,-0.2204394488184243
-4.034,0.3341892813600565,0.02328323450064829
-4.0335,0.3128489316446912,0.2564092794143318
-4.033,0.3021787567870183,0.4789386859226455
-4.0325,0.302178756787028,0.7014680924314025
-4.032,0.3235191065023739,0.7438546460520338
-4.0315,0.5369226036558326,0.1716361721735128
-4.031,0.4942419042246362,-0.5065486857581957
-4.0305,-0.2313299860971235,-1.025783967610927
-4.03,-0.6581369804040409,-1.354279758170819
-4.0295,-0.2313299860965994,-1.354279758170858
-4.029,0.3448594562177392,-1.068170521231597
-4.0285,0.7289857510943143,-0.4323722169215513
-4.028,0.8356874996710631,0.2352160026044306
-4.0275,0.7503261008096795,0.7120647308365314
-4.027,0.6116138276598051,0.9345941373450475
-4.0265,0.5155822539407487,0.913400860534732
-4.026,0.5475927785137094,0.627291623595192
-4.0255,0.5155822539406614,0.383568940276341
-4.025,0.4515612047946238,0.1610395337680273
-4.0245,0.3982103305061136,-0.05089323433571649
-4.024,0.3555296310754218,-0.2628260024388724
-4.0235,0.1314559590642901,-0.2522293640337147
-4.023,-0.5407650569704247,0.2776025562251678
-4.0225,-1.095614149569417,0.8286277532933731
-4.022,-1.159635198715455,0.7756445612675842
-4.0215,-0.8608703027000013,0.2670059178189884
-4.021,-0.423393133535411,-0.2946159176543747
-4.0205,-0.03926683865883591,-0.6866915386455698
-4.02,0.1954770082101337,-0.8562377531284125
-4.0195,0.142126133921769,-1.036380606016095
-4.019,-0.4127229586777283,-1.51322933424863
-4.0185,-0.3380317346740178,-1.248313374119684
-4.018,-0.1993194615240755,-0.8562377531282487
-4.0175,-0.02859666380115328,-0.4217755785163839
-4.017,0.1848068333523055,0.06566978812087471
-4.0165,0.291508581929326,0.4153588554920457
-4.016,0.291508581929326,0.6378882620003594
-4.0155,0.280838407071653,0.8180311148880419
-4.015,0.08877525963269588,0.6590815388100195
-4.0145,-0.6367966306890638,-0.08268314955102604
-4.014,-1.330357996437805,-0.8880276683430185
-4.0135,-1.533091318733833,-1.407262950196946
-4.013,-0.9035510021311299,-1.396666311791788
-4.0125,-0.1032878878049318,-0.8562377531282487
-4.012,0.4942419042255388,-0.06148987274006473
-4.0115,0.7609962756673623,0.627291623595192
-4.011,0.7716664505250448,0.9981739677760521
-4.0105,0.6756348768059884,1.10414035182763
-4.01,0.5582629533713921,1.00877060618122
-4.0095,0.6436243522328531,0.6908714540261965
-4.009,0.6649647019481989,0.3729723018714627
-4.0085,0.5796033030866603,0.1504428953624744
-4.008,0.4729015545099309,-0.05089323433552374
-4.0075,0.3875401556485474,-0.2416327256283641
-4.007,0.3128489316444875,-0.3899856633006117
-4.0065,0.08877525963335578,-0.09327978795619347
-4.006,-0.4980843575391895,0.5637117931641874
-4.0055,-1.234326422719874,1.135930267043546
-4.005,-1.87453691418025,1.485619334413754
-4.0045,-1.87453691418025,1.316073119931075
-4.004,-1.212986073003315,0.6166949851893981
-4.0035,-0.5407650569699201,-0.07208651114585861
-4.003,-0.03926683865883591,-0.4959520473525559
-4.0025,0.2488278824983334,-0.6549016234299229
-4.002,0.3768699807907871,-0.6019184314042303
-4.0015,0.408880505363835,-0.4111789401112165
-4.001,0.3875401556484891,-0.1674562567925872
-4.0005,-0.06060718837462819,-0.3158091944648734
-4,-0.5300948821122373,-0.4959520473525559
-3.9995,-0.3487019095316325,-0.04029659593035631
-3.999,-0.1993194615240755,0.3305857482505039
-3.9985,-0.07127736323188383,0.4153588554918433
-3.998,-0.1673089369510276,-0.08268314955102604
-3.9975,-0.7648387289812555,-0.792657922697244
-3.997,-1.405049220442214,-1.417859588602123
-3.9965,-1.202315898146244,-1.629792356705471
-3.996,-0.3807124341046804,-1.439052865412457
-3.9955,0.3448594562177392,-0.8138511995075789
-3.995,0.7289857510943143,0.07626642652648545
-3.9945,0.825017324813458,0.7650479228623686
-3.994,0.7716664505250448,1.114736990232894
-3.9935,0.6542945270905358,1.157123543853563
-3.993,0.5689331282290746,0.9345941373450475
-3.9925,0.5902734779444399,0.4895353243280153
-3.992,0.5369226036560266,0.1822328105781598
-3.9915,0.4622313796522482,-0.05089323433552374
-3.991,0.3982103305061524,-0.2628260024388724
-3.9905,0.3448594562177392,-0.474758770542221
-3.99,-0.007256314085787988,-0.3581957480853793
-3.9895,-0.8928808272734472,0.2458126410091644
-3.989,-1.714484291315011,0.849821030103708
-3.9885,-2.098610586191586,1.178316820663898
-3.988,-1.639793067311232,0.8180311148882058
-3.9875,-0.8928808272734472,0.1292496185523226
-3.987,-0.274010685527854,-0.4429688553267188
-3.9865,0.1314559590640864,-0.7608680074817418
-3.986,0.3341892813600565,-0.8244478379127463
-3.9855,0.408880505363835,-0.7078848154559045
-3.985,0.408880505363835,-0.4959520473525559
-3.9845,0.3768699807907871,-0.2204394488182027
-3.984,0.3555296310754218,0.06566978812131802
-3.9835,0.3235191065023739,0.3517790250608387
-3.983,0.3021787567870086,0.6166949851900245
-3.9825,0.3021787567870086,0.849821030103708
-3.982,0.2701682322139607,1.029963882991555
-3.9815,-0.3380317346739499,0.6590815388106942
-3.981,-1.319687821580753,-0.1356663415768632
-3.9805,-1.458400094730627,-0.1038764263613609
-3.98,-1.298347471865388,-0.3052125560595421
-3.9795,-0.5194247072545548,-0.5065486857577234
-3.979,0.3235191065023739,-0.2204394488182027
-3.9785,0.8036769750980928,0.1928294489833272
-3.978,0.8997085488172365,0.6060983467848571
-3.9775,0.8036769750980928,0.9345941373450475
-3.977,0.6542945270905358,1.00877060618122
-3.9765,0.5475927785137094,0.8922075837243778
-3.976,0.6542945270905358,0.55311515475902
-3.9755,0.6436243522328531,0.2776025562246667
-3.975,0.5582629533713921,0.06566978812131802
-3.9745,0.4515612047945656,-0.1568596183871981
-3.974,0.3768699807907871,-0.3687923864905467
-3.9735,0.2274875327832301,-0.400582301706049
-3.973,-0.4127229586777283,0.1080563417419877
-3.9725,-1.084943974711735,0.6696781772158616
-3.972,-1.607782542738184,0.9451907757502149
-3.9715,-2.023919362187807,0.9875773293708847
-3.971,-1.767835165603424,0.701468092431364
-3.9705,-1.06360362499637,0.1080563417419877
-3.97,-0.4020527838200457,-0.3899856633008816
-3.9695,0.05676473506030786,-0.6549016234300674
-3.969,0.3021787567870086,-0.6972881770507372
-3.9685,0.3982103305061524,-0.570128516188728
-3.968,0.4195506802215176,-0.3475991096802118
-3.9675,0.3982103305061524,-0.07208651114585861
-3.967,0.3661998059331045,0.2034260873884947
-3.9665,0.3341892813600565,0.4683420475176805
-3.966,0.3128489316446912,0.7120647308365314
-3.9655,0.3021787567870086,0.92399749893988
-3.965,0.1848068333524996,0.8180311148882058
-3.9645,-0.06060718837420119,0.4153588554918433
-3.964,-0.5194247072545548,-0.008506680714854012
-3.9635,-0.9355615267041777,-0.3899856633008816
-3.963,-0.754168554123573,-0.6972881770507372
-3.9625,-0.658136980404429,-1.0999604364471
-3.962,-0.08194753808956648,-0.7078848154559045
-3.9615,0.3235191065023739,-0.1674562567923655
-3.961,0.4942419042252961,0.4047622170866759
-3.9605,0.6009436528021226,0.8286277532933731
-3.96,0.5475927785137094,0.9134008605347127
-3.9595,0.5155822539406614,0.7226613692416989
-3.959,0.4942419042252961,0.4683420475176805
-3.9585,0.4302208550792003,0.2458126410091644
-3.958,0.3875401556484697,0.002089957690313421
-3.9575,0.3555296310754218,-0.2416327256285375
-3.957,0.2808384070716433,-0.3793890248957141
-3.9565,-0.2953510352432193,0.01268659609548085
-3.956,-1.234326422719292,0.627291623595192
-3.9555,-2.055929886760855,1.093543713422559
-3.955,-2.706810553079496,1.305476481525908
-3.9545,-2.6427895039334,1.157123543853563
-3.954,-1.682473766741963,0.4895353243280153
-3.9535,-0.7755089038389382,-0.1886495336027004
-3.953,-0.1139580626626144,-0.6231117082145651
-3.9525,0.2488278824985954,-0.7714646458869092
-3.952,0.4195506802215176,-0.7078848154559045
-3.9515,0.4515612047945656,-0.5065486857577234
-3.951,0.4302208550792003,-0.2204394488182027
-3.9505,0.3982103305061524,0.07626642652648545
-3.95,0.3555296310754218,0.3729723018711736
-3.9495,0.3235191065023739,0.6484849004055269
-3.949,0.3128489316446912,0.8816109453192104
-3.9485,0.2168173579255475,0.9875773293708847
-3.948,-0.3807124341046804,0.5849050699745222
-3.9475,-0.9782422261349084,0.03387987290581572
-3.947,-1.255666772434657,-0.2946159176543747
-3.9465,-0.690147504977477,-0.1144730647665284
-3.946,0.1314559590640864,-0.2628260024388724
-3.9455,0.5155822539406614,-0.5807251545938954
-3.945,0.2168173579255475,-0.9092209451540858
-3.9445,0.3021787567870086,-0.4429688553267188
-3.944,0.291508581929326,-0.008506680714854012
-3.9435,0.3235191065023739,0.309392471440169
-3.943,0.4302208550792003,0.5107286011383502
-3.9425,0.4302208550792003,0.4683420475176805
-3.942,0.3875401556484697,0.3517790250608387
-3.9415,0.3661998059331045,0.1928294489833272
-3.941,0.3448594562177392,0.03387987290581572
-3.9405,0.3235191065023739,-0.09327978795619347
-3.94,-0.06060718837420119,0.1610395337678249
-3.9395,-0.7008176798351597,0.6696781772158616
-3.939,-1.1062843244271,0.849821030103708
-3.9385,-1.522421143876723,0.7862411996727035
-3.938,-1.821186039891837,0.849821030103708
-3.9375,-1.415719395299897,0.5637117931641874
-3.937,-0.754168554123573,0.1292496185523226
-3.9365,-0.1886492866663929,-0.1992461720078678
-3.936,0.1741366584948169,-0.3475991096802118
-3.9355,0.3555296310754218,-0.3370024712750445
-3.935,0.4195506802215176,-0.2204394488182027
-3.9345,0.4195506802215176,-0.04029659593035631
-3.934,0.3982103305061524,0.1610395337678249
-3.9335,0.3768699807907871,0.3623756634660061
-3.933,0.3448594562177392,0.5425185163538525
-3.9325,0.3341892813600565,0.701468092431364
-3.932,0.3235191065023739,0.8180311148882058
-3.9315,0.05676473506030786,0.6908714540261965
-3.931,-0.572775581542968,0.1186529801471552
-3.9305,-1.26633694729234,-0.5277419625680583
-3.93,-1.415719395299897,-0.9516074987747555
-3.9295,-0.7114878546928423,-1.0999604364471
-3.929,0.1101156093487211,-0.9728007755850904
-3.9285,0.6649647019482183,-0.400582301706049
-3.928,0.5796033030867573,-0.09327978795619347
-3.9275,0.01408403562957729,-0.252229364033705
-3.927,0.09944543449103843,0.09745970333682032
-3.9265,0.1741366584948169,0.2140227257936621
-3.926,0.6542945270905358,-0.09327978795619347
-3.9255,0.9210488985326017,-0.2628260024388724
-3.925,0.825017324813458,-0.326405832869877
-3.9245,0.6329541773751706,-0.3687923864905467
-3.924,0.4835717293676135,-0.4217755785163839
-3.9235,0.2274875327832301,-0.326405832869877
-3.923,-0.4340633083930936,0.1928294489833272
-3.9225,-1.234326422719292,0.849821030103708
-3.922,-1.970568487899394,1.33726639674141
-3.9215,-2.610778979360353,1.135930267043229
-3.921,-2.365364957633652,0.2776025562246667
-3.9205,-1.479740444445993,-0.2416327256285375
-3.92,-0.6261264558313813,-0.4323722169215513
-3.9195,-0.02859666380115328,-0.4217755785163839
-3.919,0.3021787567870086,-0.2946159176543747
-3.9185,0.4408910299368829,-0.1144730647665284
-3.918,0.4729015545099309,0.06566978812131802
-3.9175,0.4408910299368829,0.2458126410091644
-3.917,0.408880505363835,0.4047622170866759
-3.9165,0.3661998059331045,0.5425185163538525
-3.916,0.3448594562177392,0.6484849004055269
-3.9155,0.3235191065023739,0.7226613692416989
-3.915,0.1101156093487211,0.457745409112513
-3.9145,-0.5514352318276028,-0.252229364033705
-3.914,-1.202315898146244,-0.9304142219644207
-3.9135,-1.341028171296118,-1.0999604364471
-3.913,-0.6261264558313813,-0.9304142219644207
-3.9125,0.1954770082101822,-0.9728007755850904
-3.912,0.7396559259519968,-0.9304142219644207
-3.9115,0.942389248247967,-0.6337083466197325
-3.911,0.9103787236749192,-0.1886495336027004
-3.9105,0.6222840025174878,0.08686306493165288
-3.91,0.05676473506030786,-0.08268314955102604
-3.9095,-0.1032878878049318,-0.1568596183871981
-3.909,0.05676473506030786,-0.05089323433552374
-3.9085,0.1741366584948169,0.002089957690313421
-3.908,0.3341892813600565,0.06566978812131802
-3.9075,0.3875401556484697,0.002089957690313421
-3.907,0.3555296310754218,-0.1250697031716958
-3.9065,0.3768699807907871,0.1080563417419877
-3.906,0.1207857842064037,0.7226613692416989
-3.9055,-0.8715404775580819,1.316073119931075
-3.905,-1.746494815888059,1.475022696008586
-3.9045,-1.693143941599645,0.8604176685088755
-3.904,-1.074273799854052,0.2034260873884947
-3.9035,-0.4340633083930936,-0.2416327256285375
-3.903,0.02475421048725994,-0.4429688553267188
-3.9025,0.291508581929326,-0.4535654937318862
-3.902,0.408880505363835,-0.3370024712750445
-3.9015,0.4408910299368829,-0.1568596183871981
-3.901,0.4302208550792003,0.04447651131098315
-3.9005,0.3982103305061524,0.2564092794143318
-3.9,0.3661998059331045,0.4471487707073456
-3.8995,0.3448594562177392,0.6166949851900245
-3.899,0.3448594562177392,0.7650479228623686
-3.8985,0.2701682322139607,0.7862411996727035
-3.898,-0.2526703358124887,0.2564092794143318
-3.8975,-0.754168554123573,-0.3899856633008816
-3.897,-1.020922925565639,-0.8244478379127463
-3.8965,-0.6047861061160158,-0.9198175835592532
-3.896,0.08877525963335578,-0.8562377531282487
-3.8955,0.6329541773751706,-0.5383386009732256
-3.895,0.8890383739595538,0.02328323450064829
-3.8945,0.8997085488172365,0.5001319627331828
-3.894,0.8036769750980928,0.7862411996727035
-3.8935,0.6756348768059011,0.8286277532933731
-3.893,0.6222840025174878,0.701468092431364
-3.8925,0.6756348768059011,0.4365521323021782
-3.892,0.3128489316446912,-0.07208651114585861
-3.8915,-0.3273615598162672,-0.8138511995075789
-3.891,-0.2206598112394408,-0.8244478379127463
-3.8905,-0.124628237520297,-0.8350444763179138
-3.89,-0.1673089369510276,-0.4111789401112165
-3.8895,-0.6688071552621118,0.457745409112513
-3.889,-1.405049220442214,1.082947075017392
-3.8885,-1.927887788468663,1.37965295036208
-3.888,-2.258663209056825,1.475022696008586
-3.8875,-1.778505340461106,0.9981739677760521
-3.887,-0.9782422261349084,0.2776025562246667
