Class_6_Listen_To_Quran/Class_6_Listen_To_Quran_Basim_3.csv

#Digilent WaveForms Oscilloscope Acquisition
#Device Name: EExplorer
#Serial Number: SN:210151A2B84A
#Date Time: 2020-11-18 11:20:45.573
#Sample rate: 2000Hz
#Samples: 16384
#Trigger: Source: Channel 1 Type: Edge Condition: Rising Level: 0 V Hyst.: Auto HoldOff: 0 s
#Channel 1: Range: 1 V/div Offset: 0 V Attenuation: 1 X
#Channel 2: Range: 1 V/div Offset: 0 V Attenuation: 1 X
#Power Supplies: ON
#Fixed Supply: ON
#Voltage: 3.3 V Readback: 3.326 V
#Positive Supply: ON
#Voltage: 3.7 V Readback: 3.708 V
#Current: 500 mA Readback: 21 mA
#Negative Supply: ON
#Voltage: -3.7 V Readback: -3.703 V
#Current: -500 mA Readback: -7 mA
#Reference 1: ON
#Voltage: 0 V
#Reference 2: ON
#Voltage: 0 V

Time (s),Channel 1 (V),Channel 2 (V)
-4.096,0.2701682322139607,0.2458126410091644
-4.0955,-0.113958062662265,-0.1568596183868319
-4.095,-0.6794773301202601,-0.8880276683443484
-4.0945,-1.191645723288561,-1.545019249464132
-4.094,-1.554431668449441,-2.053657892911706
-4.0935,-1.031593100422633,-2.085447808127083
-4.093,-0.274010685527854,-1.439052865412457
-4.0925,0.2701682322134658,-0.6019184314049917
-4.092,0.5262524287984121,0.1186529801476274
-4.0915,0.6009436528021226,0.6378882620003594
-4.091,0.5689331282290746,0.9134008605347127
-4.0905,0.5262524287984217,1.008770606181133
-4.09,0.6116138276598051,0.9134008605347127
-4.0895,0.6009436528021226,0.8180311148882058
-4.089,0.515582253940739,0.754451284457259
-4.0885,0.4302208550792003,0.701468092431364
-4.088,0.3555296310754218,0.6484849004055269
-4.0875,0.3982103305061136,0.690871454026158
-4.087,0.7396559259516572,1.157123543853727
-4.0865,0.3661998059331045,1.33726639674141
-4.086,-0.1993194615235612,0.5849050699752064
-4.0855,-0.8181896032697561,0.330585748250552
-4.085,-0.9142211769888124,0.383568940276341
-4.0845,-0.5941159312586244,0.2987958330350787
-4.084,-0.2206598112391788,0.1928294489832694
-4.0835,0.0674349099179905,0.1292496185523226
-4.083,0.2488278824985954,0.1186529801471552
-4.0825,0.3235191065023933,0.1610395337678827
-4.082,0.3448594562177392,0.2246193641988295
-4.0815,0.3341892813600565,0.309392471440169
-4.081,0.3128489316447107,0.3941655786814313
-4.0805,0.3021787567870086,0.4789386859228479
-4.08,0.2808384070716433,0.5425185163538525
-4.0795,0.2808384070716433,0.616694985189957
-4.079,0.2701682322139607,0.5531151547585188
-4.0785,0.2701682322139607,0.002089957690313421
-4.078,-0.1566387620929567,-0.6866915386449434
-4.0775,-0.8181896032696105,-1.237716735714498
-4.077,-0.754168554123573,-1.481439419033127
-4.0765,-0.2206598112399262,-1.142346990068078
-4.076,0.216817357925761,-0.3793890248950492
-4.0755,0.4515612047945656,0.3517790250608387
-4.075,0.5262524287983441,0.8074344764830383
-4.0745,0.5155822539406129,1.029963882991603
-4.074,0.4622313796522482,1.082947075017392
-4.0735,0.5262524287983441,1.019367244586387
-4.073,0.5689331282290357,0.8922075837244935
-4.0725,0.5155822539406614,0.7544512844572011
-4.072,0.4302208550792003,0.6166949851900245
-4.0715,0.3661998059331627,0.489535324328131
-4.071,0.312848931644633,0.3941655786818072
-4.0705,0.2488278824985954,0.7226613692416989
-4.07,-0.2846808603850514,1.114736990232537
-4.0695,-1.042263275281518,0.5213252395431032
-4.069,-1.607782542738184,0.06566978812131802
-4.0685,-1.703814116457328,0.3199891098453364
-4.068,-1.170305373572633,0.362375663465929
-4.0675,-0.5514352318276028,0.2776025562246667
-4.067,-0.07127736323188383,0.1716361721729923
-4.0665,0.2061471830679813,0.1186529801471456
-4.066,0.3341892813600565,0.1080563417419877
-4.0655,0.3768699807907871,0.1504428953626575
-4.065,0.3661998059331142,0.2140227257936043
-4.0645,0.3341892813600565,0.2987958330350016
-4.064,0.3128489316446912,0.3729723018711736
-4.0635,0.2915085819293454,0.4577454091124359
-4.063,0.280838407071556,0.542518516353785
-4.0625,0.1848068333524996,0.4683420475176805
-4.062,-0.3593720843888202,-0.1356663415763139
-4.0615,-1.010252750708306,-0.8350444763183474
-4.061,-1.394379045584531,-1.311893204550448
-4.0605,-1.127624674142465,-1.439052865412457
-4.06,-0.4233931335348578,-1.099960436446454
-4.0595,0.1848068333524996,-0.3899856633008816
-4.059,0.5262524287983441,0.2458126410091644
-4.0585,0.6222840025174005,0.7120647308361074
-4.058,0.5902734779444399,1.019367244586387
-4.0575,0.5155822539406614,1.135930267043229
-4.057,0.4729015545099697,1.114736990232913
-4.0565,0.4942419042252961,1.029963882991555
-4.056,0.4515612047945656,0.8816109453192104
-4.0555,0.3982103305062009,0.7120647308366856
-4.055,0.3448594562177197,0.5213252395433537
-4.0545,0.3235191065023739,0.3411823866556712
-4.054,0.4408910299367762,0.4153588554917759
-4.0535,0.7823366253821937,0.93459413734498
-4.053,0.1954770082101822,0.8604176685088755
-4.0525,-0.5407650569699201,0.04447651131098315
-4.052,-0.7114878546926288,-0.3687923864905371
-4.0515,-0.4767440078238243,-0.3581957480853793
-4.051,-0.1673089369510276,-0.1992461720078678
-4.0505,0.07810508477544992,-0.0296999575253431
-4.05,0.2381577076409128,0.1080563417419877
-4.0495,0.3128489316446912,0.2034260873884947
-4.049,0.3341892813600371,0.2670059178194414
-4.0485,0.3235191065023642,0.3199891098453846
-4.048,0.3128489316446912,0.3729723018711736
-4.0475,0.3021787567870183,0.4153588554918047
-4.047,0.2915085819293163,0.4577454091125323
-4.0465,0.2808384070716433,0.4789386859228479
-4.046,0.2274875327832786,0.3941655786815855
-4.0455,-0.3060212101016104,-0.2204394488189062
-4.045,-1.084943974711735,-0.9939940523954253
-4.0445,-1.533091318734406,-1.555615887869299
-4.044,-1.629122892452987,-1.862918401618962
-4.0435,-1.010252750707956,-1.650985633515806
-4.043,-0.2526703358124887,-0.9092209451540858
-4.0425,0.2808384070711581,-0.1144730647672513
-4.042,0.5369226036560266,0.4789386859228479
-4.0415,0.6009436528021226,0.8286277532933731
-4.041,0.5689331282291037,0.9557874141552667
-4.0405,0.5155822539407002,0.966384052560386
-4.04,0.5582629533713921,0.7862411996727035
-4.0395,0.5262524287983732,0.6696781772159677
-4.039,0.4515612047945073,0.6060983467847896
-4.0385,0.3875401556484697,0.5319218779486851
-4.038,0.3341892813601051,0.4365521323022649
-4.0375,0.195477008209697,0.5213252395439609
-4.037,-0.3380317346739499,1.00877060618122
-4.0365,-0.9782422261349084,0.8604176685088755
-4.036,-1.244996597576858,-0.06148987274120197
-4.0355,-1.116954499284783,-0.6231117082145651
-4.035,-0.6688071552621118,-0.570128516188728
-4.0345,-0.2206598112398484,-0.3158091944649409
-4.034,0.09944543449103843,-0.06148987274069118
-4.0335,0.2701682322139607,0.1186529801471552
-4.033,0.3448594562176712,0.2246193641987331
-4.0325,0.3555296310754121,0.288199194629863
-4.032,0.3448594562177392,0.3199891098453364
-4.0315,0.3235191065023933,0.3305857482504942
-4.031,0.3021787567869892,0.3517790250608483
-4.0305,0.2808384070716433,0.3623756634660061
-4.03,0.2808384070716433,0.3835689402763218
-4.0295,0.2808384070715075,0.3835689402761097
-4.029,0.1314559590640864,0.1292496185523226
-4.0285,-0.4447334832507763,-0.6019184314042303
-4.028,-1.084943974712104,-1.322489842956088
-4.0275,-1.490410619303675,-1.84172512480882
-4.027,-1.170305373573196,-1.947691508860494
-4.0265,-0.455403658109109,-1.449649503818078
-4.026,0.1314559590640864,-0.7078848154559045
-4.0255,0.4622313796522482,-0.01910331912002144
-4.025,0.5796033030866505,0.5213252395430261
-4.0245,0.5796033030867088,0.8710143069141875
-4.024,0.5262524287983441,1.029963882991555
-4.0235,0.5262524287983441,1.135930267043132
-4.023,0.5369226036559781,1.135930267043113
-4.0225,0.4835717293676135,1.00877060618122
-4.022,0.408880505363903,0.828627753293537
-4.0215,0.3555296310753927,0.6378882620002245
-4.021,0.3235191065023739,0.4895353243280153
-4.0205,0.5582629533713921,0.7438546460520338
-4.02,0.6116138276593878,1.082947075016852
-4.0195,0.1527963087794516,0.4895353243280153
-4.019,-0.3380317346739499,-0.4111789401112165
-4.0185,-0.4020527838199875,-0.6443049850246879
-4.018,-0.2313299860971235,-0.474758770542221
-4.0175,-0.007256314085787988,-0.1992461720078678
-4.017,0.1527963087793061,0.02328323450044589
-4.0165,0.2594980573563169,0.1822328105782369
-4.016,0.3021787567870086,0.2670059178194992
-4.0155,0.3235191065023544,0.3093924714401304
-4.015,0.3128489316446815,0.3305857482505231
-4.0145,0.3021787567870086,0.3517790250608387
-4.014,0.2915085819293357,0.3729723018711543
-4.0135,0.2808384070716336,0.383568940276341
-4.013,0.2701682322139607,0.383568940276341
-4.0125,0.2061471830678648,0.3305857482505039
-4.012,-0.3273615598168301,-0.2734226408447145
-4.0115,-0.9462317015618604,-1.01518732920576
-4.011,-1.1062843244271,-1.523825972653797
-4.0105,-0.8502001278429496,-1.481439419033166
-4.01,-0.2953510352432193,-0.9833974139902578
-4.0095,0.1954770082101822,-0.3899856633008816
-4.009,0.4729015545096785,0.1716361721724815
-4.0085,0.5582629533713921,0.606098346785127
-4.008,0.5582629533713921,0.9028042221295453
-4.0075,0.4942419042253544,1.051157159801754
-4.007,0.4942419042253738,1.125333628638139
-4.0065,0.5796033030867573,1.210106735879401
-4.006,0.5369226036560266,1.072350436612224
-4.0055,0.4515612047944976,0.8392243916983382
-4.005,0.3768699807907871,0.6166949851900245
-4.0045,0.3235191065023739,0.4365521323021782
-4.004,0.08877525963285114,0.6272916235955968
-4.0035,-0.4660738329661415,1.072350436612224
-4.003,-1.1062843244271,0.627291623595192
-4.0025,-1.383708870726597,-0.3687923864896407
-4.002,-1.255666772434657,-0.8668343915334161
-4.0015,-0.7755089038389382,-0.6866915386455698
-4.001,-0.2846808603859831,-0.3052125560598891
-4.0005,0.06743490991816518,0.03387987290601811
-4,0.2594980573562781,0.2564092794143318
-3.9995,0.3341892813600565,0.383568940276341
-3.999,0.3555296310754218,0.4365521323021782
-3.9985,0.3448594562177392,0.4471487707073456
-3.998,0.3235191065023739,0.4365521323021782
-3.9975,0.3021787567870086,0.4259554938970107
-3.997,0.2808384070716433,0.4153588554918433
-3.9965,0.2808384070716433,0.4047622170866759
-3.996,0.2594980573562781,0.3729723018711736
-3.9955,-0.08194753808956648,-0.1144730647665284
-3.995,-0.6794773301197943,-0.8986243067489184
-3.9945,-1.180975548430879,-1.576809164679634
-3.994,-1.202315898146244,-1.873515040024322
-3.9935,-0.6047861061160158,-1.439052865412457
-3.993,0.00341386077189465,-0.7608680074817418
-3.9925,0.3982103305061524,-0.09327978795619347
-3.992,0.5689331282290746,0.457745409112513
-3.9915,0.6009436528021226,0.8180311148882058
-3.991,0.5475927785137094,0.9663840525605498
-3.9905,0.4729015545099309,0.9981739677760521
-3.99,0.5049120790829789,1.061753798207057
-3.9895,0.4835717293676135,0.9557874141553824
-3.989,0.4195506802215176,0.7650479228623686
-3.9885,0.3661998059331045,0.55311515475902
-3.988,0.3235191065023739,0.383568940276341
-3.9875,0.3341892813600565,0.3411823866556712
-3.987,0.79300680024041,0.775644561267536
-3.9865,0.9103787236749192,1.273686566310405
-3.986,0.05676473506030786,0.7862411996727035
-3.9855,-0.7861790786966207,0.03387987290581572
-3.985,-0.8715404775580819,-0.1780528951975329
-3.9845,-0.5621054066852853,-0.1356663415768632
-3.984,-0.1993194615240755,-0.008506680714854012
-3.9835,0.07810508477567314,0.1292496185523226
-3.983,0.2381577076409128,0.2458126410091644
-3.9825,0.3128489316446912,0.3411823866556712
-3.982,0.3341892813600565,0.4153588554918433
-3.9815,0.3235191065023739,0.4789386859228479
-3.981,0.3128489316446912,0.5319218779486851
-3.9805,0.291508581929326,0.5637117931641874
-3.98,0.2808384070716433,0.5955017083796896
-3.9795,0.2701682322139607,0.6166949851900245
-3.979,0.02475421048725994,0.3305857482505039
-3.9785,-0.6367966306890638,-0.4429688553267188
-3.978,-1.127624674142465,-1.142346990067769
-3.9775,-1.244996597576974,-1.598002441489969
-3.977,-0.7755089038389382,-1.492036057438295
-3.9765,-0.1459685872356623,-1.01518732920576
-3.976,0.3021787567870086,-0.3475991096802118
-3.9755,0.5475927785137094,0.2458126410091644
-3.975,0.6009436528021226,0.6802748156210291
-3.9745,0.5689331282290746,0.92399749893988
-3.974,0.4942419042252961,0.9875773293708847
-3.9735,0.5369226036560266,0.8604176685088755
-3.973,0.5689331282290746,0.6696781772158616
-3.9725,0.5049120790829789,0.5213252395435176
-3.972,0.4195506802215176,0.4047622170866759
-3.9715,0.3555296310754218,0.2881991946298341
-3.971,0.291508581929326,0.2246193641988295
-3.9705,0.05676473506030786,0.5849050699745222
-3.97,-0.3380317346739499,0.92399749893988
-3.9695,-0.7861790786966207,0.2881991946298341
-3.969,-0.9569018764195432,-0.4641621321370536
-3.9685,-0.690147504977477,-0.5807251545938954
-3.968,-0.3060212101009019,-0.3793890248957141
-3.9675,0.00341386077189465,-0.1250697031716958
-3.967,0.2061471830678648,0.08686306493165288
-3.9665,0.3021787567870086,0.2352160026039969
-3.966,0.3341892813600565,0.3305857482505039
-3.9655,0.3341892813600565,0.383568940276341
-3.965,0.3128489316446912,0.4259554938970107
-3.9645,0.291508581929326,0.457745409112513
-3.964,0.2808384070716433,0.4895353243280153
-3.9635,0.2701682322139607,0.5001319627331828
-3.963,0.2701682322139607,0.5107286011383502
-3.9625,0.1741366584948169,0.1928294489833272
-3.962,-0.007256314085787988,-0.5489352393783931
-3.9615,-0.423393133535411,-1.227120097309109
-3.961,-1.020922925565639,-1.725162102351978
-3.9605,-1.234326422719292,-2.021867977696666
-3.96,-0.7008176798351597,-1.767548655972648
-3.9595,-0.1139580626626144,-1.025783967610927
-3.959,0.2808384070716433,-0.2310360872233701
-3.9585,0.4835717293676135,0.3729723018711736
-3.958,0.5262524287983441,0.7544512844572011
-3.9575,0.4942419042252961,0.8922075837243778
-3.957,0.4835717293676135,0.9028042221295453
-3.9565,0.5262524287983441,0.8074344764830383
-3.956,0.4835717293676135,0.701468092431364
-3.9555,0.408880505363835,0.5955017083796896
-3.955,0.3555296310754218,0.4895353243280153
-3.9545,0.3128489316446912,0.3941655786815084
-3.954,0.5582629533713921,0.5849050699745222
-3.9535,0.9637295979633325,1.082947075017392
-3.953,0.4302208550792003,0.6908714540261965
-3.9525,-0.3700422592469978,-0.02969995752518888
-3.952,-1.042263275281004,0.1292496185523226
-3.9515,-0.9889124009925911,0.2352160026039969
-3.951,-0.6047861061160158,0.1822328105781598
-3.9505,-0.1993194615240755,0.09745970333682032
-3.95,0.08877525963335578,0.04447651131098315
-3.9495,0.2488278824985954,0.04447651131098315
-3.949,0.3235191065023739,0.08686306493165288
-3.9485,0.3341892813600565,0.1610395337678249
-3.948,0.3128489316446912,0.2564092794143318
-3.9475,0.291508581929326,0.3517790250608387
-3.947,0.2808384070716433,0.4471487707073456
-3.9465,0.2701682322139607,0.5213252395435176
-3.946,0.2168173579255475,0.4365521323021782
-3.9455,-0.3166913849585846,-0.1568596183871981
-3.945,-0.9035510021311299,-0.8350444763179138
-3.9445,-1.180975548430879,-1.258910012524611
-3.944,-0.9248913518464952,-1.42845622700729
-3.9435,-0.2526703358124887,-1.174136905283272
-3.943,0.2701682322139607,-0.4535654937318862
-3.9425,0.5369226036560266,0.2458126410091644
-3.942,0.6009436528021226,0.7120647308365314
-3.9415,0.5582629533713921,0.9875773293708847
-3.941,0.4835717293676135,1.082947075017392
-3.9405,0.4302208550792003,1.051157159801889
-3.94,0.5049120790829789,0.9557874141553824
-3.9395,0.4942419042252961,0.8392243916985406
-3.939,0.4302208550792003,0.7120647308365314
-3.9385,0.3661998059331045,0.55311515475902
-3.938,0.3235191065023739,0.4047622170866759
-3.9375,0.2488278824985954,0.3729723018711736
-3.937,-0.3166913849585846,0.7968378380778709
-3.9365,-0.9675720512772257,0.6060983467848571
-3.936,-1.447729919872945,-0.2734226408440398
-3.9355,-1.575772018165136,-0.6549016234300674
-3.935,-1.116954499284783,-0.5383386009732256
-3.9345,-0.5407650569699201,-0.3158091944647096
-3.934,-0.09261771294724913,-0.1144730647665284
-3.9335,0.1848068333524996,0.02328323450064829
-3.933,0.3128489316446912,0.08686306493165288
-3.9325,0.3555296310754218,0.1292496185523226
-3.932,0.3448594562177392,0.1610395337678249
-3.9315,0.3235191065023739,0.1822328105781598
-3.931,0.3021787567870086,0.2140227257936621
-3.9305,0.2808384070716433,0.2564092794143318
-3.93,0.2701682322139607,0.2881991946298341
-3.9295,0.2594980573562781,0.2881991946298341
-3.929,-0.1032878878049318,-0.1568596183871981
-3.9285,-0.8181896032696687,-0.9092209451540858
-3.928,-1.362368521011484,-1.555615887869299
-3.9275,-1.87453691418025,-1.990078062481164
-3.927,-1.522421143876723,-2.053657892912168
-3.9265,-0.6474668055467465,-1.47084278062796
-3.926,0.05676473506030786,-0.570128516188728
-3.9255,0.4408910299368829,0.1716361721729923
-3.925,0.5796033030867573,0.6908714540261965
-3.9245,0.5796033030867573,0.9981739677760521
-3.924,0.5155822539406614,1.093543713422559
-3.9235,0.6116138276598051,1.167720182258731
-3.923,0.6756348768059011,1.114736990232894
-3.9225,0.6009436528021226,0.9028042221295453
-3.922,0.4835717293676135,0.6696781772158616
-3.9215,0.3768699807907871,0.457745409112513
-3.921,0.3448594562177392,0.3199891098453364
-3.9205,0.7289857510943143,0.627291623595192
-3.92,1.102441871113207,1.146526905448396
-3.9195,0.4942419042252961,0.7226613692416989
-3.919,-0.4020527838200457,-0.1886495336027004
-3.9185,-0.658136980404429,-0.5065486857577234
-3.918,-0.4767440078238243,-0.3793890248957141
-3.9175,-0.1886492866663929,-0.1462629799820306
-3.917,0.05676473506030786,0.07626642652648545
-3.9165,0.2061471830678648,0.2246193641988295
-3.916,0.291508581929326,0.3199891098453364
-3.9155,0.3128489316446912,0.3729723018711736
-3.915,0.3128489316446912,0.4047622170866759
-3.9145,0.3021787567870086,0.4259554938970107
-3.914,0.2808384070716433,0.4471487707073456
-3.9135,0.2701682322139607,0.4471487707073456
-3.913,0.2701682322139607,0.457745409112513
-3.9125,0.1741366584948169,0.3199891098453364
-3.912,-0.4340633083930936,-0.3687923864905467
-3.9115,-0.9035510021311299,-1.110557074852267
-3.911,-1.202315898146244,-1.672178910326141
-3.9105,-1.052933450138687,-1.84172512480882
-3.91,-0.4660738329661415,-1.354279758171118
-3.9095,0.0674349099179905,-0.6019184314042303
-3.909,0.3875401556484697,0.1080563417419877
-3.9085,0.5049120790829789,0.5743084315693548
-3.908,0.5155822539406614,0.8180311148882058
-3.9075,0.4835717293676135,0.8922075837243778
-3.907,0.4835717293676135,0.9345941373450475
-3.9065,0.5582629533713921,0.9769806909657173
-3.906,0.5262524287983441,0.8710143069140429
-3.9055,0.4408910299368829,0.7120647308365314
-3.905,0.3661998059331045,0.5425185163538525
-3.9045,0.3235191065023739,0.3941655786815084
-3.904,0.5262524287983441,0.5213252395435176
-3.9035,0.942389248247967,1.040560521396722
-3.903,0.3768699807907871,0.8180311148882058
-3.9025,-0.5407650569699201,-0.04029659593035631
-3.902,-0.7434983792658902,-0.3899856633008816
-3.9015,-0.5300948821122373,-0.3475991096802118
-3.901,-0.2099896363817582,-0.1674562567923655
-3.9005,0.04609456020262521,0.01268659609548085
-3.9,0.2061471830678648,0.1504428953626575
-3.8995,0.291508581929326,0.2352160026039969
-3.899,0.3128489316446912,0.2987958330350016
-3.8985,0.3128489316446912,0.3305857482505039
-3.898,0.291508581929326,0.3623756634660061
-3.8975,0.2808384070716433,0.3941655786815084
-3.897,0.2701682322139607,0.4153588554918433
-3.8965,0.2594980573562781,0.457745409112513
-3.896,0.2381577076409128,0.4683420475176805
-3.8955,-0.1779791118087102,0.02328323450064829
-3.895,-0.5514352318276028,-0.6654982618352349
-3.8945,-0.807519428411986,-1.311893204550448
-3.894,-0.8822106524157645,-1.693372187136476
-3.8935,-0.4447334832507763,-1.439052865412457
-3.893,0.03542438534494258,-0.7714646458869092
-3.8925,0.3448594562177392,-0.04029659593035631
-3.892,0.4942419042252961,0.5001319627331828
-3.8915,0.5155822539406614,0.7968378380778709
-3.891,0.4729015545099309,0.9134008605347127
-3.8905,0.4408910299368829,0.92399749893988
-3.89,0.5049120790829789,0.9028042221295453
-3.8895,0.4942419042252961,0.8180311148882058
-3.889,0.4302208550792003,0.6908714540261965
-3.8885,0.3661998059331045,0.55311515475902
-3.888,0.3128489316446912,0.4259554938970107
-3.8875,0.3555296310754218,0.4259554938970107
-3.887,0.7503261008096795,0.8922075837243778
-3.8865,0.3982103305061524,1.114736990232894
-3.886,-0.4554036581084589,0.383568940276341
