Class_6_Listen_To_Quran/Class_6_Listen_To_Quran_SH_1.csv

#Digilent WaveForms Oscilloscope Acquisition
#Device Name: EExplorer
#Serial Number: SN:210151A2B84A
#Date Time: 2020-11-17 10:24:06.417
#Sample rate: 2000Hz
#Samples: 16384
#Trigger: Source: Channel 1 Type: Edge Condition: Rising Level: 0 V Hyst.: Auto HoldOff: 0 s
#Channel 1: Range: 1 V/div Offset: 0 V Attenuation: 1 X
#Channel 2: Range: 1 V/div Offset: 0 V Attenuation: 1 X
#Power Supplies: ON
#Fixed Supply: ON
#Voltage: 3.3 V Readback: 3.321 V
#Positive Supply: ON
#Voltage: 3.7 V Readback: 3.717 V
#Current: 40 mA Readback: 20 mA
#Negative Supply: ON
#Voltage: -3.7 V Readback: -3.343 V
#Current: -40 mA Readback: -8 mA
#Reference 1: ON
#Voltage: 0 V
#Reference 2: ON
#Voltage: 0 V

Time (s),Channel 1 (V),Channel 2 (V)
-4.096,-0.02859666380115328,0.002089957690313421
-4.0955,0.2488278824983431,0.1610395337676804
-4.095,0.3875401556485085,0.2034260873884561
-4.0945,0.4302208550792003,0.1610395337678249
-4.094,0.4195506802215274,0.1186529801471937
-4.0935,0.4195506802216244,0.1080563417421612
-4.093,0.5369226036560266,0.2987958330350016
-4.0925,0.5475927785136997,0.3517790250607905
-4.092,0.5049120790829303,0.3199891098452979
-4.0915,0.4515612047945656,0.2776025562246667
-4.091,0.3982103305061524,0.1504428953626575
-4.0905,-0.07127736323255343,-0.4217755785169911
-4.09,-0.807519428411986,-1.089363798041932
-4.0895,-1.330357996438436,-1.598002441489969
-4.089,-1.650463242168624,-1.831128486403441
-4.0885,-1.319687821580753,-1.280103289334946
-4.088,-0.7114878546928423,-0.4853554089473885
-4.0875,-0.1779791118091955,0.1822328105775526
-4.087,0.1634664836372993,0.6166949851902269
-4.0865,0.3448594562177392,0.8392243916985406
-4.086,0.4195506802214497,0.9134008605346452
-4.0855,0.4195506802214982,0.8922075837243296
-4.085,0.3982103305061524,0.8392243916985406
-4.0845,0.3768699807908065,0.7650479228624361
-4.084,0.3555296310754121,0.6802748156209616
-4.0835,0.3448594562177392,0.6060983467848571
-4.083,0.3341892813600565,0.5319218779486851
-4.0825,0.1527963087791799,0.2034260873878682
-4.082,-0.1459685872356623,-0.4853554089473885
-4.0815,-0.4980843575391895,-1.131750351662602
-4.081,-0.8502001278423965,-1.396666311791547
-4.0805,-0.7755089038389382,-0.8562377531282487
-4.08,-0.4020527838200457,-0.3158091944647096
-4.0795,-0.03926683865916586,0.02328323450033987
-4.079,0.206147183067991,0.182232810578179
-4.0785,0.3448594562177392,0.2034260873884947
-4.078,0.3982103305061039,0.1610395337678635
-4.0775,0.4088805053638253,0.1186529801471263
-4.077,0.3982103305061524,0.08686306493165288
-4.0765,0.3128489316447689,0.288199194629651
-4.076,0.2488278824986051,0.4259554938969914
-4.0755,0.2594980573562781,0.4047622170866759
-4.075,0.3021787567870086,0.3517790250608387
-4.0745,0.3235191065020731,0.2670059178190752
-4.074,-0.007256314085787988,-0.1992461720078678
-4.0735,-0.6047861061160158,-0.8562377531282487
-4.073,-1.212986073003373,-1.439052865411927
-4.0725,-1.735824641030376,-1.79933857118815
-4.072,-1.522421143876723,-1.396666311791788
-4.0715,-0.8822106524163468,-0.6019184314049532
-4.071,-0.2953510352428506,0.1080563417424214
-4.0705,0.1101156093487211,0.5849050699745222
-4.07,0.3235191065021798,0.8498210301034671
-4.0695,0.4088805053638545,0.9557874141553824
-4.069,0.4302208550792003,0.9557874141553824
-4.0685,0.408880505363835,0.9028042221295453
-4.068,0.3875401556484503,0.8286277532932961
-4.0675,0.3661998059331045,0.7438546460520338
-4.067,0.3448594562177392,0.6590815388106942
-4.0665,0.3448594562176712,0.57430843156922
-4.066,0.2701682322139607,0.4259554938970107
-4.0655,-0.2099896363817582,-0.1568596183871981
-4.065,-0.914221176988172,-0.9092209451534016
-4.0645,-1.26633694729234,-1.47084278062796
-4.064,-1.255666772434657,-1.449649503817625
-4.0635,-0.775508903839375,-0.8562377531287884
-4.063,-0.263340510669822,-0.3264058328695782
-4.0625,0.1207857842064037,0.002089957690313421
-4.062,0.3341892813598625,0.1398462569573647
-4.0615,0.4195506802215371,0.1610395337678057
-4.061,0.4408910299368829,0.13984625695749
-4.0605,0.4302208550792003,0.09745970333682032
-4.06,0.4942419042254417,0.1822328105783525
-4.0595,0.6542945270905358,0.3941655786815084
-4.059,0.6436243522328531,0.3941655786815084
-4.0585,0.5689331282291425,0.3199891098454039
-4.058,0.4835717293676135,0.2458126410091644
-4.0575,0.3448594562177392,-0.09327978795619347
-4.057,0.07810508477591577,-0.7608680074811346
-4.0565,-0.4127229586777283,-1.375473034981453
-4.056,-1.084943974711735,-1.862918401619155
-4.0555,-1.458400094730288,-1.862918401619155
-4.055,-1.106284324426605,-1.068170521230865
-4.0545,-0.5621054066852853,-0.2628260024388724
-4.054,-0.09261771294767612,0.3517790250602796
-4.0535,0.2061471830680104,0.7226613692418627
-4.053,0.3661998059331045,0.9028042221295453
-4.0525,0.4195506802215176,0.9451907757502149
-4.052,0.4195506802214982,0.9239974989398222
-4.0515,0.3982103305061524,0.8604176685088755
-4.051,0.3768699807907871,0.7862411996727035
-4.0505,0.3555296310754412,0.7120647308365989
-4.05,0.3448594562177392,0.6378882620003594
-4.0495,0.3341892813600565,0.55311515475902
-4.049,0.3982103305060942,0.288199194630075
-4.0485,0.2915085819288505,-0.3475991096808383
-4.048,-0.2313299860971235,-1.036380606016095
-4.0475,-0.5407650569696386,-1.131750351662515
-4.047,-0.3807124341044087,-0.6125150698090122
-4.0465,-0.08194753808956648,-0.1886495336027004
-4.046,0.174136658494584,0.0656697881210867
-4.0455,0.3235191065024418,0.1504428953626575
-4.045,0.3982103305061524,0.1504428953626575
-4.0445,0.408880505363835,0.1186529801471552
-4.044,0.3982103305061427,0.08686306493167216
-4.0435,0.3875401556484697,0.1080563417419877
-4.043,0.3875401556484697,0.2987958330350016
-4.0425,0.3768699807907968,0.3517790250607905
-4.042,0.3768699807907871,0.3305857482505039
-4.0415,0.3661998059331045,0.2987958330350016
-4.041,0.3661998059331045,0.2458126410092126
-4.0405,0.003413860771419131,-0.2098428104135942
-4.04,-0.5194247072545548,-0.8244478379127463
-4.0395,-0.9142211769884534,-1.311893204550005
-4.039,-1.223656247861444,-1.60859907989477
-4.0385,-1.042263275281004,-1.205926820498774
-4.038,-0.5834457564010678,-0.4641621321377283
-4.0375,-0.135298412377708,0.1928294489837223
-4.037,0.1634664836371343,0.627291623595192
-4.0365,0.3341892813600565,0.8604176685088755
-4.036,0.3982103305061621,0.9451907757502053
-4.0355,0.408880505363835,0.9345941373450475
-4.035,0.3982103305061524,0.8816109453192104
-4.0345,0.3768699807908065,0.8074344764831058
-4.034,0.3555296310754218,0.7226613692416989
-4.0335,0.3448594562177392,0.6378882620003594
-4.033,0.3341892813600663,0.5637117931642549
-4.0325,0.1101156093481582,0.31998910984471
-4.032,-0.5087545323968721,-0.3687923864905467
-4.0315,-1.052933450138192,-1.02578396761033
-4.031,-1.255666772434463,-1.26950665092921
-4.0305,-1.042263275281004,-0.6443049850249
-4.03,-0.5514352318280492,-0.08268314955153688
-4.0295,-0.0926177129469677,0.1504428953627057
-4.029,0.2168173579255475,0.2034260873884947
-4.0285,0.3661998059331045,0.1504428953626575
-4.028,0.4195506802215274,0.0868630649316047
-4.0275,0.4302208550792003,0.03387987290581572
-4.027,0.408880505363835,0.02328323450064829
-4.0265,0.4729015545098726,0.2034260873883308
-4.026,0.5155822539406614,0.3729723018711736
-4.0255,0.4835717293676135,0.383568940276341
-4.025,0.4408910299369218,0.3729723018711832
-4.0245,0.4195506802217894,0.3623756634656977
-4.024,0.7183155762366316,0.02328323450064829
-4.0235,0.8783681991017257,-0.633708346619135
-4.023,0.3982103305056381,-1.152943628473158
-4.0225,-0.1673089369510276,-1.396666311791788
-4.022,-0.5087545323965615,-1.19533018209379
-4.0215,-0.4020527838198128,-0.5383386009726281
-4.021,-0.1459685872356623,0.1186529801471552
-4.0205,0.08877525963335578,0.5849050699745222
-4.02,0.259498057356346,0.8498210301038044
-4.0195,0.3341892813600565,0.9557874141553824
-4.019,0.3768699807907871,0.9663840525605498
-4.0185,0.3768699807907871,0.9134008605347609
-4.018,0.3661998059331045,0.8392243916985406
-4.0175,0.3555296310754218,0.7544512844572011
-4.017,0.3448594562177489,0.6590815388107809
-4.0165,0.3341892813599886,0.5743084315692006
-4.016,0.2594980573562781,0.4047622170866759
-4.0155,-0.1779791118083123,-0.1992461720073185
-4.015,-0.7861790786969992,-0.94101086037007
-4.0145,-1.202315898146244,-1.47084278062796
-4.014,-0.8928808272737286,-1.089363798042279
-4.0135,-0.3380317346735811,-0.4111789401108406
-4.013,0.0674349099179905,0.002089957690313421
-4.0125,0.3128489316446912,0.13984625695749
-4.012,0.4088805053638641,0.1186529801470974
-4.0115,0.4408910299368829,0.05507314971615059
-4.011,0.4195506802215176,-0.008506680714854012
-4.0105,0.3982103305061718,-0.0402965959303274
-4.01,0.4195506802215176,0.01268659609548085
-4.0095,0.4729015545099309,0.1292496185523226
-4.009,0.4622313796522579,0.1822328105781116
-4.0085,0.4302208550791712,0.2246193641988873
-4.008,0.3982103305061524,0.2881991946298341
-4.0075,0.3235191065024418,0.139846256957625
-4.007,-0.2099896363823404,-0.4535654937323874
-4.0065,-0.8502001278427167,-1.004590690800593
-4.006,-1.330357996438436,-1.34368311976595
-4.0055,-1.565101843307046,-1.354279758170569
-4.005,-1.116954499284783,-0.7502713690765743
-4.0045,-0.5407650569699201,-0.02969995752518888
-4.004,-0.0712773632316121,0.521325239543826
-4.0035,0.2274875327832301,0.8604176685088755
-4.003,0.3661998059331045,1.00877060618122
-4.0025,0.4088805053637962,1.029963882991535
-4.002,0.408880505363835,0.9769806909657173
-4.0015,0.3875401556484697,0.8922075837243778
-4.001,0.3661998059331239,0.7968378380779576
-4.0005,0.3448594562177295,0.6802748156209327
-4,0.3341892813600565,0.5743084315693548
-3.9995,0.3341892813600565,0.4789386859228479
-3.999,0.1101156093487211,0.1504428953626575
-3.9985,-0.4660738329661415,-0.5489352393783931
-3.998,-1.170305373573196,-1.227120097309109
-3.9975,-1.394379045584531,-1.407262950196955
-3.997,-0.9462317015618604,-0.8880276683437509
-3.9965,-0.391382608962363,-0.3581957480853793
-3.996,0.03542438534494258,-0.008506680714854012
-3.9955,0.291508581929326,0.1610395337678249
-3.995,0.3982103305061524,0.1928294489833272
-3.9945,0.4302208550792003,0.1610395337678249
-3.994,0.4195506802215176,0.1186529801471552
-3.9935,0.408880505363835,0.1080563417419877
-3.993,0.5049120790829789,0.2458126410091644
-3.9925,0.5369226036560266,0.2776025562246667
-3.992,0.4942419042252961,0.2564092794143318
-3.9915,0.4408910299368829,0.2246193641988295
-3.991,0.3768699807907871,0.1504428953626575
-3.9905,0.1527963087794516,-0.3581957480853793
-3.99,-0.1886492866663929,-0.9622041371799229
-3.9895,-0.6154562809736985,-1.439052865412457
-3.989,-1.095614149569417,-1.778145294377815
-3.9885,-1.127624674142465,-1.439052865412457
-3.988,-0.7114878546928423,-0.6654982618352349
-3.9875,-0.2526703358124887,0.02328323450064829
-3.987,0.08877525963335578,0.5107286011383502
-3.9865,0.291508581929326,0.7862411996727035
-3.986,0.3768699807907871,0.8922075837243778
-3.9855,0.408880505363835,0.9028042221295453
-3.985,0.3982103305061524,0.8604176685088755
-3.9845,0.3768699807907871,0.7968378380778709
-3.984,0.3555296310754218,0.7226613692416989
-3.9835,0.3448594562177392,0.6484849004055269
-3.983,0.3341892813600565,0.5849050699745222
-3.9825,0.1527963087794516,0.3517790250608387
-3.982,-0.4980843575391895,-0.3370024712750445
-3.9815,-1.084943974711735,-1.036380606016095
-3.981,-1.234326422719292,-1.38606967338662
-3.9805,-0.7755089038389382,-0.8880276683437509
-3.98,-0.2420001609548061,-0.3052125560595421
-3.9795,0.1527963087794516,0.02328323450064829
-3.979,0.3661998059331045,0.1292496185523226
-3.9785,0.4408910299368829,0.1080563417419877
-3.978,0.4408910299368829,0.06566978812131802
-3.9775,0.4195506802215176,0.02328323450064829
-3.977,0.3982103305061524,0.002089957690313421
-3.9765,0.4302208550792003,0.1080563417419877
-3.976,0.4515612047945656,0.2140227257936621
-3.9755,0.4408910299368829,0.2564092794143318
-3.975,0.408880505363835,0.2987958330350016
-3.9745,0.3768699807907871,0.309392471440169
-3.974,0.1741366584948169,-0.06148987274069118
-3.9735,0.142126133921769,-0.7396747306714069
-3.973,-0.2206598112394408,-1.237716735714276
-3.9725,-0.5407650569699201,-1.47084278062796
-3.972,-0.9035510021311299,-1.51322933424863
-3.9715,-0.839529952985034,-0.9728007755850904
-3.971,-0.4767440078238243,-0.2204394488182027
-3.9705,-0.1032878878049318,0.3941655786815084
-3.97,0.1634664836371343,0.7862411996727035
-3.9695,0.3128489316446912,0.9557874141553824
-3.969,0.3768699807907871,0.9981739677760521
-3.9685,0.3982103305061524,0.9451907757502149
-3.968,0.3768699807907871,0.8604176685088755
-3.9675,0.3661998059331045,0.7544512844572011
-3.967,0.3555296310754218,0.6378882620003594
-3.9665,0.3448594562177392,0.5319218779486851
-3.966,0.3128489316446912,0.4047622170866759
-3.9655,-0.07127736323188383,-0.06148987274069118
-3.965,-0.5300948821122373,-0.7078848154559045
-3.9645,-0.8502001278427167,-1.195330182093607
-3.964,-0.9569018764195432,-1.110557074852267
-3.9635,-0.6474668055467465,-0.6019184314042303
-3.963,-0.2313299860971235,-0.1780528951975329
-3.9625,0.09944543449103843,0.05507314971615059
-3.962,0.291508581929326,0.13984625695749
-3.9615,0.3875401556484697,0.13984625695749
-3.961,0.408880505363835,0.09745970333682032
-3.9605,0.408880505363835,0.06566978812131802
-3.96,0.408880505363835,0.1186529801471552
-3.9595,0.4408910299368829,0.3199891098453364
-3.959,0.4408910299368829,0.3411823866556712
-3.9585,0.4195506802215176,0.2987958330350016
-3.958,0.3982103305061524,0.2776025562246667
-3.9575,0.4942419042252961,0.1610395337678249
-3.957,0.9103787236749192,-0.400582301706049
-3.9565,0.7183155762366316,-0.9516074987747555
-3.956,0.2168173579255475,-1.311893204550448
-3.9555,-0.4660738329661415,-1.492036057438295
-3.955,-0.5941159312583333,-1.036380606016095
-3.9545,-0.3807124341046804,-0.3370024712750445
-3.954,-0.09261771294724913,0.2670059178194992
-3.9535,0.142126133921769,0.6590815388106942
-3.953,0.2808384070716433,0.8604176685088755
-3.9525,0.3555296310754218,0.9345941373450475
-3.952,0.3768699807907871,0.9345941373450475
-3.9515,0.3661998059331045,0.8816109453192104
-3.951,0.3555296310754218,0.8180311148882058
-3.9505,0.3448594562177392,0.7438546460520338
-3.95,0.3341892813600565,0.6590815388106942
-3.9495,0.3235191065023739,0.5743084315693548
-3.949,-0.007256314085787988,0.1716361721729923
-3.9485,-0.7434983792658902,-0.5913217929990628
-3.948,-1.319687821580753,-1.258910012524611
-3.9475,-1.607782542738184,-1.481439419033127
-3.947,-1.212986073003927,-0.9198175835592532
-3.9465,-0.5941159312583333,-0.3581957480853793
-3.946,-0.08194753808956648,0.002089957690313421
-3.9455,0.2381577076409128,0.1610395337678249
-3.945,0.3875401556484697,0.1928294489833272
-3.9445,0.4408910299368829,0.1504428953626575
-3.944,0.4302208550792003,0.1080563417419877
-3.9435,0.408880505363835,0.08686306493165288
-3.943,0.3235191065023739,0.2881991946298341
-3.9425,0.2701682322139607,0.3623756634660061
-3.942,0.2808384070716433,0.3199891098453364
-3.9415,0.3021787567870086,0.2564092794143318
-3.941,0.2488278824985954,0.1292496185523226
-3.9405,-0.1459685872356623,-0.4217755785163839
-3.94,-0.6154562809736985,-1.068170521231597
-3.9395,-0.8928808272734472,-1.492036057438295
-3.939,-0.9675720512772257,-1.640388995110639
-3.9385,-1.084943974711735,-1.502632695843462
-3.938,-0.7648387289812555,-0.8244478379127463
-3.9375,-0.3273615598162672,-0.09327978795619347
-3.937,0.03542438534494258,0.457745409112513
-3.9365,0.2594980573562781,0.775644561267536
-3.936,0.3661998059331045,0.92399749893988
-3.9355,0.3982103305061524,0.9557874141553824
-3.935,0.3982103305061524,0.9134008605347127
-3.9345,0.3768699807907871,0.8392243916985406
-3.934,0.3555296310754218,0.7544512844572011
-3.9335,0.3448594562177392,0.6696781772158616
-3.933,0.3341892813600565,0.5955017083796896
-3.9325,0.1527963087794516,0.3517790250608387
-3.932,-0.2099896363817582,-0.3052125560595421
-3.9315,-0.6474668055467465,-0.9198175835592532
-3.931,-1.074273799854052,-1.375473034981453
-3.9305,-1.180975548430879,-1.290699927740113
-3.93,-0.7755089038389382,-0.718481453861072
-3.9295,-0.2846808603855366,-0.2310360872233701
-3.929,0.07810508477567314,0.05507314971615059
-3.9285,0.291508581929326,0.1716361721729923
-3.928,0.3875401556484697,0.1822328105781598
-3.9275,0.4195506802215176,0.1504428953626575
-3.927,0.408880505363835,0.1080563417419877
-3.9265,0.4515612047945656,0.2352160026039969
-3.926,0.5369226036560266,0.4471487707073456
-3.9255,0.5155822539406614,0.4365521323021782
-3.925,0.4622313796522482,0.3517790250608387
-3.9245,0.408880505363835,0.2670059178194992
-3.924,0.1741366584948169,-0.1250697031716958
-3.9235,-0.1993194615240755,-0.8032545611024114
-3.923,-0.6474668055467465,-1.354279758171118
-3.9225,-1.052933450138687,-1.75695201756748
-3.922,-1.223656247861609,-1.640388995110639
-3.9215,-0.8502001278427167,-0.8986243067489184
-3.921,-0.3700422592469978,-0.1462629799820306
-3.9205,0.01408403562957729,0.4047622170866759
-3.92,0.2594980573562781,0.7332580076468663
-3.9195,0.3661998059331045,0.8816109453192104
-3.919,0.408880505363835,0.9134008605347127
-3.9185,0.3982103305061524,0.8922075837243778
-3.918,0.3768699807907871,0.8286277532933731
-3.9175,0.3661998059331045,0.7544512844572011
-3.917,0.3448594562177392,0.6802748156210291
-3.9165,0.3341892813600565,0.6060983467848571
-3.916,0.2701682322139607,0.4895353243280153
-3.9155,-0.2313299860971235,-0.08268314955102604
-3.915,-0.7968492535543035,-0.8032545611024114
-3.9145,-1.180975548430879,-1.407262950196955
-3.914,-1.394379045584531,-1.534422611058964
-3.9135,-0.9995825758502737,-0.9304142219644207
-3.913,-0.4554036581084589,-0.3158091944647096
-3.9125,-0.01792648894347063,0.05507314971615059
-3.912,0.2594980573562781,0.2246193641988295
-3.9115,0.3875401556484697,0.2564092794143318
-3.911,0.4302208550792003,0.2140227257936621
-3.9105,0.4195506802215176,0.1610395337678249
-3.91,0.408880505363835,0.1822328105781598
-3.9095,0.3768699807907871,0.4259554938970107
-3.909,0.3661998059331045,0.4683420475176805
-3.9085,0.3661998059331045,0.4047622170866759
-3.908,0.3661998059331045,0.3199891098453364
-3.9075,0.4622313796522482,0.1080563417419877
-3.907,0.825017324813458,-0.5065486857577234
-3.9065,0.5262524287983441,-1.163540266878104
-3.906,-0.007256314085787988,-1.566212526274467
-3.9055,-0.6154562809736985,-1.746355379162313
-3.905,-0.7008176798351597,-1.216523458903942
-3.9045,-0.423393133535411,-0.4641621321370536
-3.904,-0.1032878878049318,0.1610395337678249
-3.9035,0.142126133921769,0.5637117931641874
-3.903,0.291508581929326,0.775644561267536
-3.9025,0.3661998059331045,0.8604176685088755
-3.902,0.3875401556484697,0.8604176685088755
-3.9015,0.3768699807907871,0.8180311148882058
-3.901,0.3661998059331045,0.7544512844572011
-3.9005,0.3555296310754218,0.6908714540261965
-3.9,0.3448594562177392,0.627291623595192
-3.8995,0.3341892813600565,0.5637117931641874
-3.899,0.1954770082101822,0.3305857482505039
-3.8985,-0.2633405106701714,-0.3475991096802118
-3.898,-0.6154562809736985,-0.9410108603695881
-3.8975,-0.7861790786966207,-1.237716735714276
-3.897,-0.658136980404429,-0.9304142219644207
-3.8965,-0.2953510352432193,-0.4323722169215513
-3.896,0.02475421048725994,-0.05089323433552374
-3.8955,0.2488278824985954,0.1610395337678249
-3.895,0.3555296310754218,0.2458126410091644
-3.8945,0.3982103305061524,0.2458126410091644
-3.894,0.3982103305061524,0.2140227257936621
-3.8935,0.3982103305061524,0.2034260873884947
-3.893,0.5049120790829789,0.4047622170866759
-3.8925,0.5475927785137094,0.5107286011383502
-3.892,0.5049120790829789,0.4365521323021782
-3.8915,0.4515612047945656,0.3517790250608387
-3.891,0.4302208550792003,0.2352160026039969
-3.8905,0.7609962756673623,-0.2628260024388724
-3.89,0.942389248247967,-0.9092209451540858
-3.8895,0.4515612047945656,-1.375473034981453
-3.889,-0.07127736323188383,-1.545019249464132
-3.8885,-0.5834457564006506,-1.492036057438295
-3.888,-0.5834457564006506,-0.8880276683437509
-3.8875,-0.3166913849585846,-0.1992461720078678
-3.887,-0.02859666380115328,0.3517790250608387
-3.8865,0.1848068333524996,0.6802748156210291
