Class_6_Listen_To_Quran/Class_6_Listen_To_Quran_Suko_3.csv

#Digilent WaveForms Oscilloscope Acquisition
#Device Name: EExplorer
#Serial Number: SN:210151A2B84A
#Date Time: 2020-11-04 11:23:46.722
#Sample rate: 2000Hz
#Samples: 16384
#Trigger: Source: Channel 1 Type: Edge Condition: Rising Level: 0 V Hyst.: Auto HoldOff: 0 s
#Channel 1: Range: 1 V/div Offset: 0 V Attenuation: 1 X
#Channel 2: Range: 1 V/div Offset: 0 V Attenuation: 1 X
#Power Supplies: ON
#Fixed Supply: ON
#Voltage: 3.3 V Readback: 3.326 V
#Positive Supply: ON
#Voltage: 3.7 V Readback: 3.711 V
#Current: 500 mA Readback: 20 mA
#Negative Supply: ON
#Voltage: -3.7 V Readback: -3.704 V
#Current: -500 mA Readback: -8 mA
#Reference 1: ON
#Voltage: 0 V
#Reference 2: ON
#Voltage: 0 V

Time (s),Channel 1 (V),Channel 2 (V)
-4.096,-1.170305373573196,-0.474758770542221
-4.0955,-1.437059745015019,-0.9622041371794796
-4.095,-0.9248913518458062,-1.078767159636379
-4.0945,-0.1673089369510276,-0.6549016234300674
-4.094,0.3661998059326192,-0.0191033191205997
-4.0935,0.6329541773752287,0.4471487707075865
-4.093,0.6969752265212663,0.7120647308365314
-4.0925,0.6436243522329016,0.8074344764829516
-4.092,0.5475927785136414,0.7438546460518699
-4.0915,0.4729015545099309,0.5637117931641874
-4.091,0.4835717293676135,0.3517790250608387
-4.0905,0.526252428798315,0.1186529801469142
-4.09,0.4942419042252961,-0.1462629799820306
-4.0895,0.4408910299368829,-0.4323722169215513
-4.089,0.3875401556485182,-0.707884815455654
-4.0885,0.4729015545099309,-0.7608680074817418
-4.088,1.027750647109428,-0.2416327256285375
-4.0875,0.8676980242443341,0.3835689402757724
-4.087,-0.1673089369519883,0.8392243916987718
-4.0865,-1.223656247861609,1.093543713422559
-4.086,-1.511750969018778,0.8498210301039297
-4.0855,-1.074273799853538,0.1080563417413709
-4.085,-0.5087545323968721,-0.570128516188728
-4.0845,-0.06060718837460877,-0.9728007755847241
-4.084,0.2168173579256736,-1.089363798041845
-4.0835,0.3555296310754218,-0.9939940523954253
-4.083,0.3982103305061524,-0.7714646458869092
-4.0825,0.3875401556484212,-0.4853554089471186
-4.082,0.3341892813600565,-0.1886495336027004
-4.0815,0.2808384070716433,0.07626642652648545
-4.081,0.2381577076409516,0.3093924714399569
-4.0805,0.2061471830678648,0.5001319627331828
-4.08,-0.08194753808956648,0.55311515475902
-4.0795,-0.8715404775573639,0.500131962733231
-4.079,-1.490410619303607,0.5425185163537755
-4.0785,-1.415719395299897,0.457745409112513
-4.078,-0.508754532397697,0.07626642652683241
-4.0775,0.2274875327835795,0.09745970333702271
-4.077,0.6116138276598051,0.3199891098453364
-4.0765,0.7183155762365345,0.5743084315691236
-4.076,0.6756348768058137,0.7226613692416892
-4.0755,0.5796033030867573,0.7120647308365314
-4.075,0.5049120790829789,0.6060983467848571
-4.0745,0.4835717293677105,0.447148770707201
-4.074,0.5902734779444399,0.2881991946298341
-4.0735,0.5796033030867573,0.03387987290581572
-4.073,0.5155822539407195,-0.2522293640334448
-4.0725,0.4408910299368829,-0.5383386009732256
-4.072,0.4302208550792003,-0.7396747306714069
-4.0715,0.9210488985321553,-0.4005823017063574
-4.071,1.027750647108574,0.2352160026044788
-4.0705,0.08877525963335578,0.7650479228623686
-4.07,-0.9995825758492838,1.051157159801629
-4.0695,-1.618452717595624,1.082947075016862
-4.069,-1.351698346153801,0.5001319627331828
-4.0685,-0.7648387289812555,-0.252229364033705
-4.068,-0.2313299860967935,-0.7820612842922983
-4.0675,0.1314559590640864,-1.025783967610927
-4.067,0.3128489316446912,-1.01518732920576
-4.0665,0.3875401556484794,-0.84564111472285
-4.066,0.3982103305061524,-0.5913217929990628
-4.0655,0.3555296310754218,-0.3052125560595421
-4.065,0.3021787567870571,-0.02969995752543947
-4.0645,0.2594980573562781,0.2246193641988295
-4.064,0.2274875327832301,0.4365521323021782
-4.0635,0.0140840356297714,0.5425185163537561
-4.063,-0.7328282044087315,0.468342047517507
-4.0625,-1.30901764672307,0.2776025562246667
-4.062,-1.575772018164894,0.03387987290603739
-4.0615,-0.9995825758495749,-0.1568596183870053
-4.061,-0.2313299860971235,0.05507314971615059
-4.0605,0.3235191065023739,0.3517790250608387
-4.06,0.5902734779444884,0.606098346784992
-4.0595,0.6436243522328531,0.7544512844572011
-4.059,0.6009436528021226,0.7544512844572011
-4.0585,0.5262524287984121,0.6378882620004654
-4.058,0.4622313796522482,0.4471487707073456
-4.0575,0.5475927785137094,0.2140227257936621
-4.057,0.590273477944401,-0.02969995752496721
-4.0565,0.5369226036560266,-0.2734226408440398
-4.056,0.4622313796522482,-0.5171453241628908
-4.0555,0.4088805053638835,-0.7078848154557311
-4.055,0.1314559590633391,-0.4747587705416331
-4.0545,-0.690147504977477,0.1716361721729923
-4.054,-1.42638957015691,0.7438546460515133
-4.0535,-2.077270236476589,1.104140351827862
-4.053,-2.482736881068161,1.25249328950007
-4.0525,-1.863866739322568,0.8286277532933731
-4.052,-0.9995825758496428,0.0444765113104049
-4.0515,-0.3060212101009019,-0.5913217929990628
-4.051,0.1314559590640864,-0.9410108603695881
-4.0505,0.355529631075218,-1.015187329205693
-4.05,0.4302208550792003,-0.8986243067489184
-4.0495,0.4302208550792003,-0.6760949002404023
-4.049,0.3875401556485085,-0.4111789401114574
-4.0485,0.3235191065023253,-0.1462629799817993
-4.048,0.2701682322139607,0.1080563417419877
-4.0475,0.2488278824986148,0.3093924714399858
-4.047,0.2061471830675155,0.4789386859228479
-4.0465,-0.1779791118087102,0.4789386859228479
-4.046,-0.7008176798346843,0.2458126410093764
-4.0455,-0.9462317015614625,0.01268659609524955
-4.045,-0.5087545323968721,-0.2416327256285375
-4.0445,0.09944543449103843,-0.1356663415768632
-4.044,0.5155822539408167,0.2352160026042861
-4.0435,0.6863050516635838,0.55311515475902
-4.043,0.6756348768059011,0.7332580076468663
-4.0425,0.6009436528021905,0.7650479228623397
-4.042,0.5155822539406614,0.6696781772158616
-4.0415,0.4515612047945656,0.5001319627331828
-4.041,0.5049120790829303,0.3517790250609736
-4.0405,0.611613827659776,0.2246193641986078
-4.04,0.5796033030867573,-0.01910331912002144
-4.0395,0.5049120790830468,-0.2946159176541241
-4.039,0.4302208550792683,-0.5701285161888436
-4.0385,0.5049120790829789,-0.6972881770507372
-4.038,1.049090996824299,-0.2522293640341098
-4.0375,0.7609962756664307,0.4047622170871192
-4.037,-0.2633405106701714,0.8922075837243778
-4.0365,-1.298347471865388,1.157123543853563
-4.036,-1.74649481588768,1.072350436611598
-4.0355,-1.330357996438436,0.383568940276341
-4.035,-0.690147504977477,-0.3475991096802118
-4.0345,-0.1566387620938302,-0.8138511995071549
-4.034,0.1741366584948169,-0.9939940523954253
-4.0335,0.3448594562177392,-0.9516074987747555
-4.033,0.3982103305061039,-0.7714646458870731
-4.0325,0.3875401556484309,-0.5171453241626499
-4.032,0.3448594562177392,-0.252229364033705
-4.0315,0.2915085819293745,0.01268659609523992
-4.031,0.248827882498576,0.2458126410093282
-4.0305,0.2274875327832301,0.4259554938970107
-4.03,-0.1139580626623039,0.6378882620001667
-4.0295,-0.8928808272741362,1.072350436612533
-4.029,-1.650463242168915,1.411442865577582
-4.0285,-2.19464215991073,1.273686566310405
-4.028,-1.65046324216808,0.9875773293707595
-4.0275,-0.7328282044082075,0.849821030103708
-4.027,-0.007256314085787988,0.7438546460520338
-4.0265,0.3982103305057836,0.6908714540262447
-4.026,0.5582629533713921,0.6484849004055269
-4.0255,0.5796033030867573,0.5955017083796896
-4.025,0.5475927785137384,0.4895353243281117
-4.0245,0.5369226036561431,0.3835689402762736
-4.024,0.6649647019482183,0.309392471440169
-4.0235,0.6542945270905455,0.1292496185524865
-4.023,0.5582629533713047,-0.1038764263615826
-4.0225,0.4622313796522482,-0.3475991096802118
-4.022,0.4088805053638835,-0.4853554089472632
-4.0215,0.6436243522329599,-0.1250697031711368
-4.021,0.7609962756673623,0.4895353243280153
-4.0205,0.03542438534494258,0.9769806909657173
-4.02,-0.9248913518470872,1.21010673587941
-4.0195,-1.575772018165136,1.220703374284568
-4.019,-1.362368521011484,0.627291623595192
-4.0185,-0.7861790786971448,-0.1356663415761693
-4.018,-0.2420001609548061,-0.6972881770507372
-4.0175,0.1207857842064037,-0.9728007755850904
-4.017,0.3128489316445165,-1.004590690800564
-4.0165,0.3982103305061524,-0.8774310299383907
-4.016,0.3982103305061524,-0.6654982618352349
-4.0155,0.3661998059331336,-0.4111789401114478
-4.015,0.3235191065023448,-0.1674562567921727
-4.0145,0.291508581929326,0.04447651131098315
-4.014,0.280838407071653,0.2670059178192968
-4.0135,0.2061471830678746,0.4577454091125998
-4.013,0.2168173579255475,0.55311515475902
-4.0125,-0.03926683865883591,0.6802748156210291
-4.012,-0.5941159312581101,0.8710143069137538
-4.0115,-0.3487019095316325,0.55311515475902
-4.011,0.142126133921769,0.3411823866556712
-4.0105,0.483571729367303,0.404762217086618
-4.01,0.6222840025174878,0.6060983467848571
-4.0095,0.6116138276598051,0.701468092431364
-4.009,0.5475927785137675,0.6908714540262062
-4.0085,0.4835717293675747,0.5955017083795451
-4.008,0.4408910299368829,0.4365521323021782
-4.0075,0.5582629533712853,0.2987958330351269
-4.007,0.622284002517449,0.1398462569572876
-4.0065,0.5796033030867573,-0.08268314955102604
-4.006,0.4942419042252961,-0.3158091944647096
-4.0055,0.41955068022144,-0.5277419625679619
-4.005,0.3341892813600565,-0.4217755785163839
-4.0045,0.05676473506030786,0.1610395337678249
-4.004,-0.7755089038396952,0.7650479228627252
-4.0035,-1.607782542738184,1.157123543853563
-4.003,-2.151961460479999,1.305476481525908
-4.0025,-1.767835165603773,0.8286277532938069
-4.002,-0.9995825758502737,0.04447651131098315
-4.0015,-0.3380317346739499,-0.6019184314042303
-4.001,0.09944543449064053,-0.9516074987744374
-4.0005,0.3341892813601245,-1.036380606016008
-4,0.408880505363835,-0.9410108603695881
-3.9995,0.4195506802215176,-0.7502713690765743
-3.999,0.3875401556484697,-0.5065486857577234
-3.9985,0.3341892813600565,-0.2628260024388724
-3.998,0.2808384070716433,-0.04029659593035631
-3.9975,0.2488278824985954,0.1610395337678249
-3.997,0.1207857842064037,0.2670059178194992
-3.9965,-0.2206598112394408,-0.04029659593035631
-3.996,-0.5514352318276028,-0.4535654937318862
-3.9955,-0.9355615267041777,-0.5913217929990628
-3.995,-0.6794773301197943,-0.5913217929990628
-3.9945,-0.09261771294724913,-0.326405832869877
-3.994,0.3555296310754218,0.01268659609548085
-3.9935,0.5796033030867573,0.3623756634660061
-3.993,0.6436243522328531,0.6378882620003594
-3.9925,0.6009436528021226,0.7226613692416989
-3.992,0.5369226036560266,0.6590815388106942
-3.9915,0.4729015545099309,0.5107286011383502
-3.991,0.5262524287983441,0.3623756634660061
-3.9905,0.6542945270905358,0.2458126410091644
-3.99,0.6116138276598051,0.02328323450064829
-3.9895,0.5262524287983441,-0.2416327256285375
-3.989,0.4408910299368829,-0.4853554089473885
-3.9885,0.408880505363835,-0.5171453241628908
-3.988,0.8783681991018712,0.002089957690313421
-3.9875,1.113112045970889,0.627291623595192
-3.987,0.2701682322139607,1.061753798207057
-3.9865,-0.839529952985034,1.273686566310405
-3.986,-1.373038695869166,1.082947075017392
-3.9855,-1.084943974711735,0.3305857482505039
-3.985,-0.572775581542968,-0.400582301706049
-3.9845,-0.124628237520297,-0.8668343915334161
-3.984,0.1741366584948169,-1.036380606016095
-3.9835,0.3235191065023739,-1.004590690800593
-3.983,0.3768699807907871,-0.8350444763179138
-3.9825,0.3768699807907871,-0.6019184314042303
-3.982,0.3448594562177392,-0.3475991096802118
-3.9815,0.291508581929326,-0.1038764263613609
-3.981,0.2594980573562781,0.1080563417419877
-3.9805,0.2168173579255475,0.2881991946298341
-3.98,-0.274010685527854,0.07626642652648545
-3.9795,-1.095614149569417,-0.326405832869877
-3.979,-1.618452717595867,-0.7078848154559045
-3.9785,-1.650463242168915,-0.8562377531282487
-3.978,-0.9248913518464952,-0.5489352393783931
-3.9775,-0.1459685872356623,-0.1038764263613609
-3.977,0.3768699807907871,0.3411823866556712
-3.9765,0.6009436528021226,0.6378882620003594
-3.976,0.6329541773751706,0.7650479228623686
-3.9755,0.5796033030867573,0.7332580076468663
-3.975,0.5049120790829789,0.5955017083796896
-3.9745,0.4835717293676135,0.4259554938970107
-3.974,0.5796033030867573,0.3411823866556712
-3.9735,0.5796033030867573,0.1080563417419877
-3.973,0.5049120790829789,-0.1780528951975329
-3.9725,0.4408910299368829,-0.4641621321370536
-3.972,0.408880505363835,-0.7078848154559045
-3.9715,0.857027849386506,-0.6019184314042303
-3.971,1.326515543124542,0.01268659609548085
-3.9705,0.6009436528021226,0.627291623595192
-3.97,-0.572775581542968,1.019367244586387
-3.9695,-1.405049220442214,1.114736990232894
-3.969,-1.298347471865388,0.5425185163538525
-3.9685,-0.7861790786966207,-0.2098428104130352
-3.968,-0.274010685527854,-0.7608680074817418
-3.9675,0.08877525963335578,-1.025783967610927
-3.967,0.291508581929326,-1.046977244421262
-3.9665,0.3768699807907871,-0.9092209451540858
-3.966,0.3875401556484697,-0.6760949002404023
-3.9655,0.3555296310754218,-0.4217755785163839
-3.965,0.3128489316446912,-0.1568596183871981
-3.9645,0.2701682322139607,0.07626642652648545
-3.964,0.2274875327832301,0.2352160026039969
-3.9635,-0.1352984123779797,0.01268659609548085
-3.963,-0.8928808272734472,-0.6019184314042303
-3.9625,-1.575772018165136,-1.152943628472937
-3.962,-1.917217613610981,-1.492036057438295
-3.9615,-1.629122892453549,-1.364876396576285
-3.961,-0.807519428411986,-0.7608680074817418
-3.9605,-0.06060718837420119,-0.05089323433552374
-3.96,0.408880505363835,0.457745409112513
-3.9595,0.6116138276598051,0.7120647308365314
-3.959,0.6329541773751706,0.7544512844572011
-3.9585,0.5796033030867573,0.6484849004055269
-3.958,0.5049120790829789,0.4683420475176805
-3.9575,0.6222840025174878,0.2564092794143318
-3.957,0.6649647019482183,0.04447651131098315
-3.9565,0.5902734779444399,-0.1886495336027004
-3.956,0.4942419042252961,-0.4323722169215513
-3.9555,0.4195506802215176,-0.6231117082145651
-3.955,0.6863050516635838,-0.4853554089473885
-3.9545,1.401206767128321,0.09745970333682032
-3.954,1.92404533515477,0.701468092431364
-3.9535,1.401206767128321,1.104140351827727
-3.953,0.3235191065023739,1.199510097474233
-3.9525,-0.156638762093345,0.627291623595192
-3.952,-0.1886492866663929,-0.1356663415768632
-3.9515,-0.06060718837420119,-0.7078848154559045
-3.951,0.09944543449103843,-0.9939940523954253
-3.9505,0.2168173579255475,-1.036380606016095
-3.95,0.291508581929326,-0.9092209451540858
-3.9495,0.3235191065023739,-0.6866915386455698
-3.949,0.3235191065023739,-0.4323722169215513
-3.9485,0.291508581929326,-0.1780528951975329
-3.948,0.2488278824985954,0.04447651131098315
-3.9475,0.2274875327832301,0.2670059178194992
-3.947,0.1207857842064037,0.383568940276341
-3.9465,-0.3487019095316325,0.02328323450064829
-3.946,-0.8715404775580819,-0.5065486857577234
-3.9455,-1.383708870726849,-0.9622041371799229
-3.945,-0.9995825758502737,-1.174136905283272
-3.9445,-0.2420001609548061,-0.792657922697244
-3.944,0.3235191065023739,-0.1992461720078678
-3.9435,0.6116138276598051,0.3411823866556712
-3.943,0.6756348768059011,0.6484849004055269
-3.9425,0.6222840025174878,0.7226613692416989
-3.942,0.5369226036560266,0.6484849004055269
-3.9415,0.4622313796522482,0.4789386859228479
-3.941,0.5155822539406614,0.3199891098453364
-3.9405,0.6329541773751706,0.1716361721729923
-3.94,0.5902734779444399,-0.07208651114585861
-3.9395,0.5049120790829789,-0.3370024712750445
-3.939,0.4195506802215176,-0.5913217929990628
-3.9385,0.5049120790829789,-0.6443049850249
-3.938,1.006410297394063,-0.1356663415768632
-3.9375,0.7716664505250448,0.5107286011383502
-3.937,-0.01792648894347063,0.9769806909657173
-3.9365,-0.9995825758502737,1.210106735879401
-3.936,-1.394379045584531,1.019367244586387
-3.9355,-1.052933450138687,0.2881991946298341
-3.935,-0.5300948821122373,-0.4111789401112165
-3.9345,-0.09261771294724913,-0.8456411147230812
-3.934,0.1848068333524996,-1.004590690800593
-3.9335,0.3235191065023739,-0.9410108603695881
-3.933,0.3661998059331045,-0.7608680074817418
-3.9325,0.3555296310754218,-0.5065486857577234
-3.932,0.3235191065023739,-0.2416327256285375
-3.9315,0.2701682322139607,0.01268659609548085
-3.931,0.2488278824985954,0.2352160026039969
-3.9305,0.2274875327832301,0.4259554938970107
-3.93,-0.1673089369510276,0.5213252395435176
-3.9295,-0.9675720512772257,0.4471487707073456
-3.929,-1.533091318734406,0.2140227257936621
-3.9285,-1.554431668449771,-0.06148987274069118
-3.928,-0.9355615267041777,-0.05089323433552374
-3.9275,-0.1993194615240755,0.1822328105781598
-3.927,0.3128489316446912,0.4471487707073456
-3.9265,0.5689331282290746,0.6060983467848571
-3.926,0.6222840025174878,0.6696781772158616
-3.9255,0.5796033030867573,0.6166949851900245
-3.925,0.5049120790829789,0.4789386859228479
-3.9245,0.4729015545099309,0.2987958330350016
-3.924,0.6009436528021226,0.04447651131098315
-3.9235,0.5902734779444399,-0.1780528951975329
-3.923,0.5155822539406614,-0.3687923864905467
-3.9225,0.4302208550792003,-0.5595318777835605
-3.922,0.408880505363835,-0.6760949002404023
-3.9215,0.79300680024041,-0.3052125560595421
-3.921,0.5475927785137094,0.3729723018711736
-3.9205,-0.4554036581084589,0.9345941373450475
-3.92,-1.405049220442214,1.273686566310405
-3.9195,-1.693143941599645,1.210106735879401
-3.919,-1.234326422719292,0.5319218779486851
-3.9185,-0.6154562809736985,-0.2098428104130352
-3.918,-0.124628237520297,-0.7078848154559045
-3.9175,0.1848068333524996,-0.9198175835592532
-3.917,0.3341892813600565,-0.9092209451540858
-3.9165,0.3768699807907871,-0.7608680074817418
-3.916,0.3768699807907871,-0.5383386009732256
-3.9155,0.3341892813600565,-0.2946159176543747
-3.915,0.2808384070716433,-0.07208651114585861
-3.9145,0.2381577076409128,0.13984625695749
-3.914,0.2168173579255475,0.309392471440169
-3.9135,0.08877525963335578,0.4895353243280153
-3.913,-0.5087545323968721,0.7120647308365314
-3.9125,-1.212986073003927,0.9451907757502149
-3.912,-1.789175515318789,1.040560521396722
-3.9115,-1.693143941599645,0.7862411996727035
-3.911,-0.9035510021311299,0.5849050699745222
-3.9105,-0.156638762093345,0.5743084315693548
-3.91,0.3235191065023739,0.6378882620003594
-3.9095,0.5475927785137094,0.6802748156210291
-3.909,0.5902734779444399,0.6378882620003594
-3.9085,0.5475927785137094,0.5107286011383502
-3.908,0.4835717293676135,0.3517790250608387
-3.9075,0.6009436528021226,0.1928294489833272
-3.907,0.6542945270905358,0.01268659609548085
-3.9065,0.5796033030867573,-0.1992461720078678
-3.906,0.4835717293676135,-0.4217755785163839
-3.9055,0.3982103305061524,-0.6125150698093976
-3.905,0.408880505363835,-0.4217755785163839
-3.9045,0.79300680024041,0.1928294489833272
-3.904,0.3768699807907871,0.775644561267536
-3.9035,-0.6154562809736985,1.157123543853563
-3.903,-1.394379045584531,1.273686566310405
-3.9025,-1.30901764672307,0.7650479228623686
-3.902,-0.807519428411986,-0.008506680714854012
-3.9015,-0.2953510352432193,-0.6019184314042303
-3.901,0.0674349099179905,-0.8986243067489184
-3.9005,0.2701682322139607,-0.9516074987747555
-3.9,0.3555296310754218,-0.8350444763179138
-3.8995,0.3768699807907871,-0.6231117082145651
-3.899,0.3448594562177392,-0.3687923864905467
-3.8985,0.3021787567870086,-0.1250697031716958
-3.898,0.2594980573562781,0.09745970333682032
-3.8975,0.2274875327832301,0.2881991946298341
-3.897,0.1848068333524996,0.4789386859228479
-3.8965,-0.3700422592469978,0.6590815388106942
-3.896,-1.1062843244271,0.8710143069140429
-3.8955,-1.501080794161358,1.040560521396722
-3.895,-1.095614149569417,0.7544512844572011
-3.8945,-0.3166913849585846,0.3623756634660061
-3.894,0.2701682322139607,0.2776025562246667
-3.8935,0.5582629533713921,0.3941655786815084
-3.893,0.6329541773751706,0.5213252395435176
-3.8925,0.6009436528021226,0.5637117931641874
-3.892,0.5262524287983441,0.5107286011383502
-3.8915,0.4622313796522482,0.383568940276341
-3.891,0.4942419042252961,0.2458126410091644
-3.8905,0.6009436528021226,0.1292496185523226
-3.89,0.5689331282290746,-0.07208651114585861
-3.8895,0.4942419042252961,-0.3158091944647096
-3.889,0.4195506802215176,-0.5595318777835605
-3.8885,0.5155822539406614,-0.6019184314042303
-3.888,1.017080472251745,-0.09327978795619347
-3.8875,0.7503261008096795,0.5319218779486851
-3.887,-0.2526703358124887,0.9663840525605498
-3.8865,-1.255666772434657,1.178316820663898
