Class_6_Listen_To_Quran/Class_6_Listen_To_Quran_Turki_16.csv

#Digilent WaveForms Oscilloscope Acquisition
#Device Name: EExplorer
#Serial Number: SN:210151A2B84A
#Date Time: 2021-02-10 11:38:55.849
#Sample rate: 2000Hz
#Samples: 16384
#Trigger: Source: Channel 1 Type: Edge Condition: Rising Level: 0 V Hyst.: Auto HoldOff: 0 s
#Channel 1: Range: 1 V/div Offset: 0 V Attenuation: 1 X
#Channel 2: Range: 1 V/div Offset: 0 V Attenuation: 1 X
#Power Supplies: ON
#Fixed Supply: ON
#Voltage: 3.3 V Readback: 3.331 V
#Positive Supply: ON
#Voltage: 3.7 V Readback: 3.717 V
#Current: 40 mA Readback: 12 mA
#Negative Supply: ON
#Voltage: -3.7 V Readback: -3.697 V
#Current: -40 mA Readback: -4 mA
#Reference 1: ON
#Voltage: 0 V
#Reference 2: ON
#Voltage: 0 V

Time (s),Channel 1 (V),Channel 2 (V)
-4.096,-0.3593720843893152,-0.6866915386455698
-4.0955,0.1848068333520046,-0.2098428104134689
-4.095,0.5262524287984897,0.04447651131110844
-4.0945,0.6863050516635838,0.1822328105781598
-4.094,0.7183155762366025,0.2352160026039488
-4.0935,0.6649647019481115,0.1822328105780152
-4.093,0.5475927785137094,0.02328323450064829
-4.0925,0.3875401556486153,-0.1356663415767186
-4.092,0.3235191065023739,-0.04029659593020211
-4.0915,0.3235191065023739,0.1292496185523226
-4.091,0.3448594562177392,0.2881991946298341
-4.0905,0.3875401556486832,0.415358855492171
-4.09,0.6222840025174878,0.775644561267536
-4.0895,0.7183155762366316,1.00877060618122
-4.089,-0.03926683865814695,0.2776025562253317
-4.0885,-0.807519428411986,-0.570128516188728
-4.088,-1.565101843307454,-1.237716735714276
-4.0875,-2.194642159910157,-1.714565463946377
-4.087,-2.023919362187099,-1.640388995109925
-4.0865,-1.244996597576974,-0.8562377531282487
-4.086,-0.5087545323975416,-0.01910331912078289
-4.0855,0.02475421048752196,0.606098346785204
-4.085,0.3128489316446912,0.9875773293708847
-4.0845,0.4408910299367665,1.157123543853409
-4.084,0.4622313796522191,1.199510097474214
-4.0835,0.4302208550792003,1.178316820663898
-4.083,0.3982103305061524,1.135930267043229
-4.0825,0.3555296310753733,1.061753798206922
-4.082,0.3021787567870086,0.9134008605347127
-4.0815,-0.1459685872356623,0.2034260873884947
-4.081,-0.7434983792653468,-0.7396747306705491
-4.0805,-1.191645723288561,-1.51322933424863
-4.08,-1.501080794161358,-1.990078062481164
-4.0795,-1.07427379985444,-1.587405803085167
-4.079,-0.284680860385032,-0.8456411147225704
-4.0785,0.2701682322139607,-0.2840192792492073
-4.078,0.5796033030864759,0.05507314971584215
-4.0775,0.6863050516635741,0.2246193641988777
-4.077,0.6756348768059011,0.2776025562246667
-4.0765,0.6436243522328822,0.2034260873885621
-4.076,0.5689331282290067,-0.08268314955105495
-4.0755,0.4942419042252961,-0.1144730647665284
-4.075,0.4302208550792003,0.02328323450064829
-4.0745,0.408880505363835,0.1928294489834525
-4.074,0.408880505363835,0.3305857482505039
-4.0735,0.4622313796522482,0.4365521323021782
-4.073,0.6116138276596692,0.2776025562248112
-4.0725,0.03542438534494258,-0.4217755785163839
-4.072,-0.7008176798351597,-1.121153713257435
-4.0715,-1.383708870726228,-1.545019249463746
-4.071,-2.045259711903357,-1.84172512480883
-4.0705,-2.247993034199143,-1.852321763213987
-4.07,-1.543761493592729,-1.142346990068415
-4.0695,-0.7541685541230101,-0.2628260024382363
-4.069,-0.1352984123779797,0.4365521323021782
-4.0685,0.2381577076409128,0.849821030103708
-4.068,0.4195506802215662,1.040560521396761
-4.0675,0.4729015545099309,1.082947075017392
-4.067,0.4622313796522482,1.051157159801889
-4.0665,0.4302208550791712,0.9769806909656594
-4.066,0.3982103305061524,0.9134008605347127
-4.0655,0.3555296310754218,0.8286277532933731
-4.065,0.003413860772214894,0.4683420475180082
-4.0645,-0.7328282044082075,-0.3793890248957141
-4.064,-1.116954499284783,-1.195330182093607
-4.0635,-1.010252750708053,-1.640388995110234
-4.063,-0.5087545323964257,-1.290699927739554
-4.0625,-0.01792648894347063,-0.6760949002404023
-4.062,0.3448594562174092,-0.2522293640340905
-4.0615,0.5475927785137773,0.08686306493176854
-4.061,0.6222840025174878,0.2140227257936621
-4.0605,0.6329541773751706,0.1716361721729923
-4.06,0.6009436528021032,0.1398462569575478
-4.0595,0.5796033030867573,0.2034260873884947
-4.059,0.5475927785137094,0.2352160026039969
-4.0585,0.5049120790830177,0.2458126410091548
-4.058,0.4515612047945656,0.2670059178194992
-4.0575,0.4195506802215176,0.2881991946298341
-4.057,0.4195506802215176,0.3093924714401497
-4.0565,0.6863050516635838,0.03387987290581572
-4.056,0.6863050516635838,-0.6125150698093976
-4.0555,0.1421261339222639,-1.290699927739496
-4.055,-0.6474668055475229,-1.788741932783224
-4.0545,-1.501080794161358,-2.053657892912168
-4.054,-1.895877263895257,-1.968884785670906
-4.0535,-1.447729919872314,-1.184733543687562
-4.053,-0.754168554123573,-0.2204394488182027
-4.0525,-0.1673089369510276,0.5425185163538525
-4.052,0.1954770082103569,1.019367244586589
-4.0515,0.3875401556484697,1.241896651094903
-4.051,0.4515612047945656,1.29487984312074
-4.0505,0.4515612047945656,1.273686566310425
-4.05,0.4195506802215176,1.210106735879401
-4.0495,0.3875401556484697,1.135930267043229
-4.049,0.3555296310754509,1.040560521396809
-4.0485,0.2274875327826673,0.8710143069133875
-4.048,-0.391382608962363,0.1504428953626575
-4.0475,-0.8715404775576452,-0.7714646458860708
-4.047,-1.106284324426954,-1.428456227007203
-4.0465,-0.9462317015618604,-1.333086481360783
-4.046,-0.4020527838205407,-0.7926579226977355
-4.0455,0.1314559590643872,-0.294615917654047
-4.045,0.4622313796522482,0.06566978812131802
-4.0445,0.6009436528021226,0.2776025562246667
-4.044,0.6542945270905262,0.2670059178194221
-4.0435,0.6436243522328531,0.1822328105781598
-4.043,0.6542945270905358,-0.01910331912002144
-4.0425,0.7076454013789005,-0.2416327256283352
-4.042,0.6542945270905358,-0.1674562567923655
-4.0415,0.5582629533713921,0.03387987290581572
-4.041,0.4835717293676814,0.2352160026038138
-4.0405,0.4408910299369994,0.3729723018714338
-4.04,0.5689331282290746,0.6590815388106942
-4.0395,0.5902734779444204,0.77564456126743
-4.039,0.05676473505972559,0.04447651131027961
-4.0385,-0.5834457564006506,-0.7290780922662394
-4.038,-1.341028171295429,-1.290699927739603
-4.0375,-2.023919362187788,-1.725162102351939
-4.037,-2.002579012472442,-1.682775548731308
-4.0365,-1.287677297007705,-0.9092209451540858
-4.036,-0.5514352318271175,-0.06148987274010329
-4.0355,-0.01792648894347063,0.5849050699745222
-4.035,0.291508581929326,0.9769806909657173
-4.0345,0.4302208550790741,1.1571235438534
-4.034,0.4622313796522482,1.199510097474233
-4.0335,0.4408910299368829,1.188913459069066
-4.033,0.4088805053638641,1.135930267043277
-4.0325,0.3768699807907289,1.072350436612128
-4.032,0.3128489316446912,0.9663840525605498
-4.0315,-0.2420001609543015,0.3623756634665555
-4.031,-0.8715404775583149,-0.5807251545946375
-4.0305,-1.127624674142465,-1.396666311791788
-4.03,-1.309017646722905,-1.937094870454835
-4.0295,-1.020922925565028,-1.66158227192028
-4.029,-0.3487019095316325,-0.8986243067489184
-4.0285,0.1634664836371343,-0.252229364033705
-4.028,0.4835717293677493,0.1080563417420745
-4.0275,0.6329541773751706,0.2034260873884947
-4.027,0.6649647019482183,0.1928294489833272
-4.0265,0.6649647019482183,0.1928294489833272
-4.026,0.79300680024041,0.002089957690313421
-4.0255,0.7823366253827275,-0.01910331912002144
-4.025,0.6756348768059981,0.1080563417418721
-4.0245,0.5475927785136318,0.2458126410092704
-4.024,0.4622313796522482,0.3623756634660061
-4.0235,0.4408910299369024,0.4895353243278997
-4.023,0.6329541773748989,0.8074344764826336
-4.0225,0.3341892813600565,0.3623756634660061
-4.022,-0.2206598112389362,-0.4959520473517753
-4.0215,-0.9355615267048667,-1.163540266878586
-4.021,-1.693143941599645,-1.693372187136476
-4.0205,-1.991908837614759,-1.88411167842949
-4.02,-1.447729919872285,-1.237716735713476
-4.0195,-0.722158029550525,-0.3581957480853793
-4.019,-0.1352984123779797,0.3517790250608387
-4.0185,0.2274875327829001,0.807434476482624
-4.018,0.408880505363835,1.040560521396722
-4.0175,0.4622313796522482,1.125333628638062
-4.017,0.4515612047945753,1.125333628638062
-4.0165,0.4195506802214886,1.104140351827688
-4.016,0.3875401556484697,1.061753798207057
-4.0155,0.344859456217778,1.008770606181268
-4.015,0.01408403562890769,0.5955017083788704
-4.0145,-0.722158029550525,-0.3052125560595421
-4.014,-1.170305373572788,-1.174136905282481
-4.0135,-1.170305373572779,-1.619195718299966
-4.013,-0.7114878546928423,-1.248313374119443
-4.0125,-0.124628237520297,-0.6760949002404023
-4.012,0.3021787567872221,-0.1992461720075305
-4.0115,0.5369226036560266,0.1716361721729923
-4.011,0.6436243522328531,0.3517790250608387
-4.0105,0.6542945270905262,0.3835689402763121
-4.01,0.6329541773751706,0.309392471440169
-4.0095,0.5796033030867573,0.13984625695749
-4.009,0.5049120790830468,0.06566978812138548
-4.0085,0.4408910299368635,0.1292496185523997
-4.008,0.4195506802215176,0.2140227257936621
-4.0075,0.4195506802215176,0.3093924714400822
-4.007,0.4408910299371547,0.4047622170869746
-4.0065,0.7396559259519968,0.7332580076468663
-4.006,0.6222840025174878,0.627291623595192
-4.0055,-0.01792648894412082,-0.1886495336033654
-4.005,-0.7328282044082075,-0.9198175835592532
-4.0045,-1.51175096901904,-1.47084278062796
-4.004,-2.173301810195228,-1.820531847998292
-4.0035,-2.023919362187807,-1.608599079895136
-4.003,-1.244996597576974,-0.7608680074817418
-4.0025,-0.4980843575398689,0.0974597033360397
-4.002,0.02475421048725994,0.7120647308365314
-4.0015,0.3235191065023739,1.072350436612224
-4.001,0.4515612047944491,1.220703374284433
-4.0005,0.4729015545099114,1.241896651094884
-4,0.4515612047945656,1.220703374284568
-3.9995,0.408880505363835,1.157123543853563
-3.999,0.3768699807907871,1.072350436612224
-3.9985,0.1954770082101822,0.849821030103708
-3.998,-0.4660738329661415,0.5213252395435176
-3.9975,-1.042263275281004,-0.2204394488182027
-3.997,-1.330357996438436,-0.9833974139902578
-3.9965,-1.116954499284783,-1.078767159636765
-3.996,-0.4874141826815069,-0.7608680074817418
-3.9955,0.07810508477567314,-0.3899856633008816
-3.995,0.4302208550792003,-0.05089323433552374
-3.9945,0.6009436528021226,0.1186529801471552
-3.994,0.6542945270905358,0.1292496185523226
-3.9935,0.6222840025174878,0.09745970333682032
-3.993,0.6329541773751706,-0.04029659593035631
-3.9925,0.7396559259519968,-0.1886495336027004
-3.992,0.707645401378949,-0.07208651114585861
-3.9915,0.6116138276598051,0.1186529801471552
-3.991,0.5262524287983441,0.2987958330350016
-3.9905,0.4622313796522482,0.4471487707073456
-3.99,0.6116138276598051,0.7544512844572011
-3.9895,0.8143471499557753,1.00877060618122
-3.989,0.2061471830678648,0.3199891098453364
-3.9885,-0.6261264558313813,-0.5595318777835605
-3.988,-1.46907026958831,-1.248313374119443
-3.9875,-2.151961460479999,-1.714565463946811
-3.987,-2.002579012472442,-1.650985633515806
-3.9865,-1.223656247861609,-0.8774310299385835
-3.986,-0.4874141826815069,-0.01910331912002144
-3.9855,0.03542438534494258,0.627291623595192
-3.985,0.3341892813600565,1.00877060618122
-3.9845,0.4515612047945656,1.188913459069066
-3.984,0.4729015545099309,1.231300012689736
-3.9835,0.4515612047945656,1.210106735879401
-3.983,0.4195506802215176,1.157123543853563
-3.9825,0.3875401556484697,1.082947075017392
-3.982,0.3555296310754218,0.9875773293708847
-3.9815,-0.03926683865883591,0.5001319627331828
-3.981,-0.6261264558313813,-0.4323722169215513
-3.9805,-0.8715404775580819,-1.258910012524611
-3.98,-0.6261264558313813,-1.534422611058964
-3.9795,-0.124628237520297,-1.110557074852267
-3.979,0.291508581929326,-0.5489352393783931
-3.9785,0.5582629533713921,-0.2416327256285375
-3.978,0.6756348768059011,-0.09327978795619347
-3.9775,0.6756348768059011,0.002089957690313421
-3.977,0.6329541773751706,0.07626642652648545
-3.9765,0.6222840025174878,0.07626642652648545
-3.976,0.7609962756673623,0.002089957690313421
-3.9755,0.7609962756673623,0.04447651131098315
-3.975,0.6542945270905358,0.1716361721729923
-3.9745,0.5582629533713921,0.2987958330350016
-3.974,0.4729015545099309,0.4047622170866759
-3.9735,0.4729015545099309,0.5213252395435176
-3.973,0.79300680024041,0.9451907757502149
-3.9725,0.4408910299368829,0.7120647308365314
-3.972,-0.4340633083930936,-0.1462629799820306
-3.9715,-1.319687821580753,-0.8668343915334161
-3.971,-2.098610586191586,-1.449649503817625
-3.9705,-2.3973754822067,-1.75695201756748
-3.97,-1.67180359188428,-1.301296566145281
-3.9695,-0.8288597781273515,-0.4535654937318862
-3.969,-0.1673089369510276,0.2987958330350016
-3.9685,0.2274875327832301,0.8180311148882058
-3.968,0.4302208550792003,1.093543713422559
-3.9675,0.4835717293676135,1.199510097474233
-3.967,0.4729015545099309,1.220703374284568
-3.9665,0.4302208550792003,1.188913459069066
-3.966,0.3875401556484697,1.157123543853563
-3.9655,0.3555296310754218,1.093543713422559
-3.965,0.0674349099179905,0.7120647308365314
-3.9645,-0.6154562809736985,-0.1886495336027004
-3.964,-1.031593100423322,-1.089363798041932
-3.9635,-1.191645723288561,-1.608599079895136
-3.963,-0.9462317015618604,-1.301296566145281
-3.9625,-0.3380317346739499,-0.6760949002404023
-3.962,0.1848068333524996,-0.1250697031716958
-3.9615,0.5262524287983441,0.1610395337678249
-3.961,0.6542945270905358,0.2458126410091644
-3.9605,0.6649647019482183,0.1822328105781598
-3.96,0.6329541773751706,0.05507314971615059
-3.9595,0.6756348768059011,-0.1992461720078678
-3.959,0.6969752265212663,-0.2946159176543747
-3.9585,0.6329541773751706,-0.1356663415768632
-3.958,0.5369226036560266,0.07626642652648545
-3.9575,0.4729015545099309,0.2776025562246667
-3.957,0.4408910299368829,0.4365521323021782
-3.9565,0.6542945270905358,0.7438546460520338
-3.956,0.5796033030867573,0.6060983467848571
-3.9555,0.0674349099179905,-0.2204394488182027
-3.955,-0.6047861061160158,-0.9516074987747555
-3.9545,-1.405049220442214,-1.492036057438295
-3.954,-1.981238662757077,-1.809935209593318
-3.9535,-1.693143941599645,-1.439052865412457
-3.953,-0.9782422261349084,-0.5807251545938954
-3.9525,-0.3273615598162672,0.2246193641988295
-3.952,0.1207857842064037,0.7862411996727035
-3.9515,0.3661998059331045,1.082947075017392
-3.951,0.4622313796522482,1.199510097474233
-3.9505,0.4729015545099309,1.210106735879401
-3.95,0.4408910299368829,1.188913459069066
-3.9495,0.408880505363835,1.125333628638062
-3.949,0.3768699807907871,1.040560521396722
-3.9485,0.3128489316446912,0.92399749893988
-3.948,-0.2099896363817582,0.309392471440169
-3.9475,-0.7861790786966207,-0.6337083466197325
-3.947,-1.020922925565639,-1.364876396576285
-3.9465,-0.7434983792658902,-1.333086481360783
-3.946,-0.2420001609548061,-0.7820612842920766
-3.9455,0.1954770082101822,-0.326405832869877
-3.945,0.4622313796522482,-0.1144730647665284
-3.9445,0.6009436528021226,0.002089957690313421
-3.944,0.6436243522328531,0.1080563417419877
-3.9435,0.6329541773751706,0.13984625695749
-3.943,0.5796033030867573,0.01268659609548085
-3.9425,0.4515612047945656,-0.1992461720078678
-3.942,0.3875401556484697,-0.1250697031716958
-3.9415,0.3661998059331045,0.07626642652648545
-3.941,0.3768699807907871,0.2670059178194992
-3.9405,0.3982103305061524,0.4153588554918433
-3.94,0.5155822539406614,0.6060983467848571
-3.9395,0.6009436528021226,0.7332580076468663
-3.939,0.05676473506030786,0.03387987290581572
-3.9385,-0.5300948821122373,-0.8032545611024114
-3.938,-1.26633694729234,-1.439052865412457
-3.9375,-1.927887788468663,-1.852321763213987
-3.937,-1.895877263895616,-1.767548655972648
-3.9365,-1.212986073003927,-0.9516074987747555
-3.936,-0.5087545323968721,-0.07208651114585861
-3.9355,0.01408403562957729,0.5955017083796896
-3.935,0.3128489316446912,0.9875773293708847
-3.9345,0.4515612047945656,1.157123543853563
-3.934,0.4835717293676135,1.188913459069066
-3.9335,0.4622313796522482,1.146526905448396
-3.933,0.4302208550792003,1.093543713422559
-3.9325,0.3982103305061524,1.019367244586387
-3.932,0.3555296310754218,0.9028042221295453
-3.9315,-0.01792648894347063,0.3305857482505039
-3.931,-0.572775581542968,-0.5807251545938954
-3.9305,-0.9248913518464952,-1.38606967338662
-3.93,-1.234326422719292,-1.894708316834657
-3.9295,-1.042263275281004,-1.534422611058964
-3.929,-0.4980843575391895,-0.8244478379127463
-3.9285,0.00341386077189465,-0.2840192792492073
-3.928,0.3235191065023739,0.06566978812131802
-3.9275,0.5049120790829789,0.2140227257936621
-3.927,0.5902734779444399,0.2246193641988295
-3.9265,0.5902734779444399,0.2140227257936621
-3.926,0.4515612047945656,0.07626642652648545
-3.9255,0.3555296310754218,0.03387987290581572
-3.925,0.3448594562177392,0.1080563417419877
-3.9245,0.3555296310754218,0.2140227257936621
-3.924,0.3875401556484697,0.3199891098453364
-3.9235,0.4515612047945656,0.4259554938970107
-3.923,0.7503261008096795,0.8180311148882058
-3.9225,0.4302208550792003,0.5425185163538525
-3.922,-0.2420001609548061,-0.3158091944647096
-3.9215,-1.042263275281004,-1.0999604364471
-3.921,-1.810515865034154,-1.672178910326141
-3.9205,-2.045259711903173,-1.852321763213987
-3.92,-1.437059745015262,-1.184733543688439
-3.9195,-0.690147504977477,-0.2946159176543747
-3.919,-0.1032878878049318,0.4365521323021782
-3.9185,0.2594980573562781,0.9134008605347127
-3.918,0.4302208550792003,1.146526905448396
-3.9175,0.4835717293676135,1.220703374284568
-3.917,0.4622313796522482,1.220703374284568
-3.9165,0.4408910299368829,1.188913459069066
-3.916,0.408880505363835,1.125333628638062
-3.9155,0.3875401556484697,1.029963882991555
-3.915,0.2594980573562781,0.7332580076468663
-3.9145,-0.3487019095316325,-0.1144730647665284
-3.914,-0.8715404775580819,-1.01518732920576
-3.9135,-1.084943974711735,-1.545019249464132
-3.913,-0.722158029550525,-1.248313374119443
-3.9125,-0.156638762093345,-0.718481453861072
-3.912,0.2594980573562781,-0.3052125560595421
-3.9115,0.4942419042252961,-0.01910331912002144
-3.911,0.6009436528021226,0.1504428953626575
-3.9105,0.6329541773751706,0.2140227257936621
-3.91,0.6116138276598051,0.2034260873884947
-3.9095,0.7396559259519968,0.1186529801471552
-3.909,0.9317190733902845,-0.08268314955102604
-3.9085,0.857027849386506,-0.02969995752518888
-3.908,0.707645401378949,0.1292496185523226
-3.9075,0.5689331282290746,0.2881991946298341
-3.907,0.4835717293676135,0.4365521323021782
-3.9065,0.5796033030867573,0.7332580076468663
-3.906,0.3982103305061524,0.6484849004055269
-3.9055,-0.1993194615240755,-0.1674562567923655
-3.905,-0.7968492535543035,-0.8774310299385835
-3.9045,-1.51175096901904,-1.417859588602123
-3.904,-1.981238662757077,-1.735758740757146
-3.9035,-1.597112367880501,-1.354279758171118
-3.903,-0.8822106524157645,-0.5065486857577234
-3.9025,-0.2526703358124887,0.2564092794143318
-3.902,0.1741366584948169,0.7862411996727035
-3.9015,0.3875401556484697,1.061753798207057
-3.901,0.4729015545099309,1.167720182258731
-3.9005,0.4729015545099309,1.178316820663898
-3.9,0.4408910299368829,1.135930267043229
-3.8995,0.408880505363835,1.082947075017392
-3.899,0.3875401556484697,0.9981739677760521
-3.8985,0.3341892813600565,0.8710143069140429
-3.898,-0.09261771294724913,0.2458126410091644
-3.8975,-0.6154562809736985,-0.6654982618352349
-3.897,-0.839529952985034,-1.375473034981453
-3.8965,-0.658136980404429,-1.269506650929778
-3.896,-0.1779791118087102,-0.7290780922662394
-3.8955,0.2488278824985954,-0.2946159176543747
-3.895,0.5049120790829789,-0.008506680714854012
-3.8945,0.6222840025174878,0.1928294489833272
-3.894,0.6436243522328531,0.2458126410091644
-3.8935,0.6329541773751706,0.2034260873884947
-3.893,0.6436243522328531,0.08686306493165288
-3.8925,0.6969752265212663,-0.1144730647665284
-3.892,0.6436243522328531,-0.08268314955102604
-3.8915,0.5582629533713921,0.07626642652648545
-3.891,0.4835717293676135,0.2458126410091644
-3.8905,0.4515612047945656,0.3941655786815084
-3.89,0.3768699807907871,0.5213252395435176
-3.8895,0.02475421048725994,0.5107286011383502
-3.889,-0.4980843575391895,-0.1780528951975329
-3.8885,-0.8502001278427167,-0.9092209451540858
-3.888,-1.351698346153801,-1.417859588602123
-3.8875,-1.938557963326346,-1.778145294377815
-3.887,-2.045259711903173,-1.75695201756748
-3.8865,-1.373038695869166,-0.9939940523954253
-3.886,-0.6261264558313813,-0.1038764263613609
