Class_6_Listen_To_Quran/Class_6_Listen_To_Quran_Turki_13.csv

#Digilent WaveForms Oscilloscope Acquisition
#Device Name: EExplorer
#Serial Number: SN:210151A2B84A
#Date Time: 2021-02-03 11:24:37.652
#Sample rate: 2000Hz
#Samples: 16384
#Trigger: Source: Channel 1 Type: Edge Condition: Rising Level: 0 V Hyst.: Auto HoldOff: 0 s
#Channel 1: Range: 1 V/div Offset: 0 V Attenuation: 1 X
#Channel 2: Range: 1 V/div Offset: 0 V Attenuation: 1 X
#Power Supplies: ON
#Fixed Supply: ON
#Voltage: 3.3 V Readback: 3.331 V
#Positive Supply: ON
#Voltage: 3.7 V Readback: 3.717 V
#Current: 40 mA Readback: 21 mA
#Negative Supply: ON
#Voltage: -3.7 V Readback: -3.348 V
#Current: -40 mA Readback: -11 mA
#Reference 1: ON
#Voltage: 0 V
#Reference 2: ON
#Voltage: 0 V

Time (s),Channel 1 (V),Channel 2 (V)
-4.096,-0.9248913518464952,-1.364876396576285
-4.0955,-0.4767440078242318,-1.142346990067972
-4.095,-0.007256314085516262,-0.7820612842918548
-4.0945,0.291508581929326,-0.5383386009732256
-4.094,0.45156120479442,-0.5065486857577522
-4.0935,0.5155822539406419,-0.5807251545939821
-4.093,0.4942419042252961,-0.6760949002404023
-4.0925,0.4515612047946044,-0.7714646458868225
-4.092,0.5902734779444884,-0.9092209451540183
-4.0915,0.6436243522328531,-0.8350444763179138
-4.091,0.5689331282290746,-0.5913217929990628
-4.0905,0.4622313796521609,-0.3052125560593012
-4.09,0.3661998059331045,-0.04029659593035631
-4.0895,0.3235191065023739,0.1928294489833272
-4.089,0.1848068333526257,0.0232832345008025
-4.0885,-0.3060212101009019,-0.4959520473525559
-4.088,-0.7008176798351597,-0.9092209451540858
-4.0875,-1.127624674142077,-1.121153713257242
-4.087,-1.330357996438115,-0.9728007755844253
-4.0865,-0.9782422261349084,-0.2416327256285375
-4.086,-0.4980843575396262,0.5849050699737705
-4.0855,-0.1032878878047086,1.210106735879738
-4.085,0.142126133921769,1.580989080060261
-4.0845,0.2594980573561713,1.739938656137628
-4.084,0.3021787567870086,1.739938656137686
-4.0835,0.3021787567870086,1.644568910491266
-4.083,0.2701682322139607,1.528005888034424
-4.0825,0.248827882498576,1.379652950361935
-4.082,0.2274875327832301,1.220703374284568
-4.0815,0.2168173579255475,1.019367244586387
-4.081,0.06743490991812637,0.6590815388110218
-4.0805,-0.4980843575391895,0.13984625695749
-4.08,-1.042263275281004,-0.6019184314042303
-4.0795,-1.309017646722828,-1.195330182093067
-4.079,-1.074273799853557,-1.174136905283012
-4.0785,-0.5300948821122373,-0.8880276683437509
-4.078,-0.04993701351695529,-0.676094900240595
-4.0775,0.2381577076410292,-0.6125150698093688
-4.077,0.3661998059331045,-0.5807251545938954
-4.0765,0.4302208550791421,-0.6125150698093688
-4.076,0.4302208550792488,-0.6972881770508624
-4.0755,0.4835717293676135,-0.8350444763179138
-4.075,0.5689331282290746,-0.8774310299385835
-4.0745,0.515582253940574,-0.7078848154556925
-4.074,0.4195506802215176,-0.474758770542221
-4.0735,0.3448594562177392,-0.2416327256285375
-4.073,0.3021787567870474,-0.01910331912022384
-4.0725,0.3555296310754218,-0.09327978795619347
-4.072,0.1314559590640864,-0.6019184314042303
-4.0715,-0.32736155981585,-1.078767159636331
-4.071,-0.7861790786970866,-1.311893204550458
-4.0705,-1.298347471865388,-1.322489842955616
-4.07,-1.223656247861677,-0.7714646458874104
-4.0695,-0.7648387289808382,0.1080563417426817
-4.069,-0.3060212101009019,0.8710143069140429
-4.0685,0.02475421048725994,1.390249588767247
-4.068,0.2061471830679425,1.665762187301687
-4.0675,0.291508581929326,1.761131932948107
-4.067,0.3021787567870086,1.739938656137773
-4.0665,0.2915085819293066,1.64456891049114
-4.066,0.2701682322139607,1.506812611224089
-4.0655,0.2594980573562781,1.326669758336243
-4.065,0.2381577076409322,1.104140351827929
-4.0645,0.1848068333524996,0.8604176685088755
-4.064,-0.274010685527854,0.2776025562246667
-4.0635,-0.7114878546924444,-0.5807251545931148
-4.063,-1.042263275281082,-1.290699927740316
-4.0625,-1.127624674142465,-1.51322933424863
-4.062,-0.7648387289815854,-1.110557074852633
-4.0615,-0.3273615598159276,-0.7078848154557407
-4.061,0.04609456020262521,-0.5277419625680583
-4.0605,0.2808384070716433,-0.5171453241628908
-4.06,0.3875401556484891,-0.612515069809494
-4.0595,0.408880505363835,-0.718481453861072
-4.059,0.4515612047945656,-0.7608680074817418
-4.0585,0.6436243522326783,-0.8456411147230041
-4.058,0.6436243522328531,-0.7502713690765743
-4.0575,0.5369226036560266,-0.5383386009732256
-4.057,0.4302208550792974,-0.3052125560597542
-4.0565,0.3448594562177392,-0.08268314955102604
-4.056,0.2594980573562781,-0.05089323433552374
-4.0555,-0.1246282375199477,-0.5171453241624668
-4.055,-0.6688071552625291,-1.046977244421571
-4.0545,-1.127624674142465,-1.38606967338662
-4.054,-1.54376149359171,-1.48143941903304
-4.0535,-1.373038695868681,-0.9939940523946253
-4.053,-0.839529952985034,-0.1144730647665284
-4.0525,-0.3273615598162672,0.6908714540261965
-4.052,0.02475421048744432,1.241896651095192
-4.0515,0.2274875327832301,1.559795803249926
-4.051,0.3021787567870086,1.676358825706768
-4.0505,0.3128489316446815,1.676358825706768
-4.05,0.3021787567870086,1.602182356870596
-4.0495,0.2701682322139607,1.517409249629256
-4.049,0.2381577076409419,1.400846227172521
-4.0485,0.2274875327832107,1.231300012689562
-4.048,0.2061471830678648,1.040560521396722
-4.0475,-0.1246282375199962,0.510728601138832
-4.047,-0.690147504977807,-0.3687923864912599
-4.0465,-1.052933450138687,-1.152943628472937
-4.046,-1.095614149569379,-1.576809164679249
-4.0455,-0.7114878546924347,-1.343683119765584
-4.045,-0.2633405106701714,-0.9410108603695881
-4.0445,0.08877525963335578,-0.7290780922662394
-4.044,0.2915085819294037,-0.6760949002404023
-4.0435,0.3768699807907871,-0.6760949002404023
-4.043,0.3982103305061524,-0.7396747306714069
-4.0425,0.3982103305061524,-0.8032545611023536
-4.042,0.3661998059331045,-0.9304142219644207
-4.0415,0.3235191065023739,-0.8562377531282487
-4.041,0.302178756787028,-0.6019184314044617
-4.0405,0.291508581929326,-0.3264058328696457
-4.04,0.291508581929326,-0.07208651114585861
-4.0395,0.291508581929326,0.05507314971603493
-4.039,0.2701682322138637,-0.135666341577133
-4.0385,0.1634664836371343,-0.4323722169215513
-4.038,-0.1779791118083997,-0.8774310299381787
-4.0375,-0.7114878546933081,-1.174136905283329
-4.037,-1.223656247861609,-1.237716735714276
-4.0365,-1.084943974711735,-0.6760949002404023
-4.036,-0.647466805546368,0.1504428953632936
-4.0355,-0.2313299860971235,0.849821030103708
-4.035,0.0674349099179905,1.305476481525908
-4.0345,0.2274875327830845,1.549199164844537
-4.034,0.291508581929326,1.623375633680931
-4.0335,0.3128489316446912,1.591585718465428
-4.033,0.2915085819293454,1.517409249629324
-4.0325,0.2808384070716239,1.400846227172299
-4.032,0.2594980573562781,1.273686566310405
-4.0315,0.2488278824986051,1.114736990233039
-4.031,0.09944543449056291,0.7968378380772252
-4.0305,-0.423393133535411,0.08686306493165288
-4.03,-0.8288597781269826,-0.7608680074809707
-4.0295,-0.9995825758501961,-1.449649503817779
-4.029,-0.9142211769888124,-1.619195718300304
-4.0285,-0.4874141826815069,-1.184733543688439
-4.028,-0.04993701351625653,-0.7396747306712141
-4.0275,0.2381577076409128,-0.5277419625680583
-4.027,0.3982103305061524,-0.5171453241628908
-4.0265,0.4515612047945171,-0.5913217929989953
-4.026,0.4408910299368829,-0.6654982618352349
-4.0255,0.3448594562177392,-0.7820612842920766
-4.025,0.1634664836372993,-0.8032545611023921
-4.0245,0.1207857842064328,-0.6019184314039894
-4.024,0.1527963087794516,-0.3370024712750445
-4.0235,0.2061471830678163,-0.1038764263615729
-4.023,0.2381577076411165,0.05507314971613131
-4.0225,0.4622313796522482,0.03387987290581572
-4.022,0.5475927785136318,-0.3158091944643915
-4.0215,0.02475421048683294,-0.8350444763181644
-4.021,-0.4447334832507763,-1.110557074852267
-4.0205,-1.042263275281004,-1.184733543688439
-4.02,-1.191645723288241,-0.8774310299378896
-4.0195,-0.839529952985034,-0.1144730647665284
-4.019,-0.391382608962363,0.6484849004055269
-4.0185,-0.03926683865915614,1.199510097473732
-4.018,0.1741366584948169,1.517409249629256
-4.0175,0.2808384070716433,1.644568910491266
-4.017,0.3021787567869892,1.655165548896423
-4.0165,0.3021787567869795,1.602182356870509
-4.016,0.2701682322139607,1.506812611224089
-4.0155,0.2488278824986148,1.400846227172511
-4.015,0.2274875327831525,1.25249328949983
-4.0145,0.142126133921769,0.9875773293708847
-4.014,-0.3807124341042049,0.245812641009839
-4.0135,-0.9035510021313143,-0.6549016234307228
-4.013,-1.1062843244271,-1.375473034981453
-4.0125,-0.7861790786966207,-1.682775548731308
-4.012,-0.2526703358121297,-1.343683119765555
-4.0115,0.142126133921769,-0.9092209451540858
-4.011,0.3661998059331045,-0.7290780922662394
-4.0105,0.4515612047944879,-0.7290780922662394
-4.01,0.4622313796522482,-0.8032545611024114
-4.0095,0.4408910299368829,-0.8774310299385835
-4.009,0.4515612047945559,-0.9304142219643725
-4.0085,0.6222840025174975,-0.9092209451536617
-4.008,0.6329541773751706,-0.4429688553267188
-4.0075,0.5262524287984411,-0.1144730647668271
-4.007,0.4088805053637574,0.0656697881214144
-4.0065,0.3235191065023739,0.1716361721729923
-4.006,0.3448594562177392,0.1080563417419877
-4.0055,0.5796033030865148,-0.4217755785169236
-4.005,0.3128489316446912,-1.01518732920576
-4.0045,-0.2846808603855366,-1.375473034981453
-4.004,-1.010252750708345,-1.449649503817442
-4.0035,-1.437059745015262,-1.248313374119443
-4.003,-1.148965023857831,-0.4959520473525559
-4.0025,-0.6367966306895296,0.3623756634652255
-4.002,-0.1993194615240755,1.029963882991555
-4.0015,0.09944543449103843,1.432636142387917
-4.001,0.2488278824984595,1.612778995275599
-4.0005,0.3128489316446912,1.655165548896385
-4,0.3128489316446912,1.602182356870596
-3.9995,0.291508581929326,1.517409249629256
-3.999,0.2594980573562781,1.411442865577582
-3.9985,0.2488278824985954,1.25249328950007
-3.998,0.2381577076409128,1.051157159801889
-3.9975,0.1527963087794516,0.9134008605347127
-3.997,-0.2633405106701714,0.8074344764830383
-3.9965,-0.5621054066852853,0.06566978812131802
-3.996,-0.6688071552621118,-0.6337083466197325
-3.9955,-0.4020527838200457,-0.8244478379127463
-3.995,-0.04993701351651855,-0.7290780922662394
-3.9945,0.2061471830678648,-0.6125150698093976
-3.994,0.3555296310754218,-0.6549016234300674
-3.9935,0.3982103305061524,-0.7078848154559045
-3.993,0.3982103305061524,-0.7078848154559045
-3.9925,0.3768699807907871,-0.6866915386455698
-3.992,0.4302208550792003,-0.8138511995075789
-3.9915,0.4835717293676135,-0.792657922697244
-3.991,0.4515612047945656,-0.5277419625680583
-3.9905,0.3982103305061524,-0.2098428104130352
-3.99,0.3982103305061524,0.1080563417419877
-3.9895,0.3768699807907871,0.309392471440169
-3.989,0.2488278824985954,0.1610395337678249
-3.9885,-0.1032878878049318,-0.3475991096802118
-3.988,-0.4980843575391895,-0.8032545611024114
-3.9875,-0.8502001278427167,-0.9939940523954253
-3.987,-1.351698346153801,-1.05757388282643
-3.9865,-1.330357996438436,-0.7078848154559045
-3.986,-0.8608703027003992,0.06566978812131802
-3.9855,-0.3700422592469978,0.7968378380778709
-3.985,-0.007256314085787988,1.29487984312074
-3.9845,0.2061471830678648,1.559795803249926
-3.984,0.291508581929326,1.633972272086098
-3.9835,0.3128489316446912,1.591585718465428
-3.983,0.3021787567870086,1.496215972818921
-3.9825,0.2701682322139607,1.358459673551745
-3.982,0.2488278824985954,1.199510097474233
-3.9815,0.2274875327832301,1.00877060618122
-3.981,0.08877525963335578,0.6802748156210291
-3.9805,-0.4447334832507763,0.07626642652648545
-3.98,-0.8608703027003992,-0.6866915386455698
-3.9795,-1.020922925565639,-1.290699927740113
-3.979,-0.6688071552621118,-1.396666311791788
-3.9785,-0.1993194615240755,-1.01518732920576
-3.978,0.1634664836371343,-0.6337083466197325
-3.9775,0.3661998059331045,-0.5171453241628908
-3.977,0.4515612047945656,-0.570128516188728
-3.9765,0.4515612047945656,-0.6337083466197325
-3.976,0.4195506802215176,-0.6972881770507372
-3.9755,0.5262524287983441,-0.7608680074817418
-3.975,0.7289857510943143,-0.8244478379127463
-3.9745,0.6756348768059011,-0.6549016234300674
-3.974,0.5582629533713921,-0.4111789401112165
-3.9735,0.4408910299368829,-0.1780528951975329
-3.973,0.3555296310754218,0.01268659609548085
-3.9725,0.4408910299368829,0.3305857482505039
-3.972,0.6542945270905358,0.4365521323021782
-3.9715,0.2594980573562781,-0.1568596183871981
-3.971,-0.4020527838200457,-0.7290780922662394
-3.9705,-1.095614149569417,-1.089363798041932
-3.97,-1.458400094730627,-1.142346990067769
-3.9695,-1.138294849000148,-0.5277419625680583
-3.969,-0.6154562809736985,0.2776025562246667
-3.9685,-0.1779791118087102,0.9345941373450475
-3.968,0.1101156093487211,1.369056311956912
-3.9675,0.2594980573562781,1.602182356870596
-3.967,0.3128489316446912,1.676358825706768
-3.9665,0.3021787567870086,1.6657621873016
-3.966,0.2808384070716433,1.612778995275763
-3.9655,0.2488278824985954,1.475022696008586
-3.965,0.2274875327832301,1.316073119931075
-3.9645,0.2061471830678648,1.051157159801889
-3.964,0.07810508477567314,0.6060983467848571
-3.9635,-0.3060212101009019,-0.1568596183871981
-3.963,-0.6261264558313813,-0.9410108603695881
-3.9625,-0.5087545323968721,-1.290699927740113
-3.962,-0.1673089369510276,-1.078767159636765
-3.9615,0.1314559590640864,-0.718481453861072
-3.961,0.3341892813600565,-0.5595318777835605
-3.9605,0.408880505363835,-0.5383386009732256
-3.96,0.408880505363835,-0.6019184314042303
-3.9595,0.3661998059331045,-0.6972881770507372
-3.959,0.3661998059331045,-0.7820612842920766
-3.9585,0.5049120790829789,-0.9516074987747555
-3.958,0.5155822539406614,-0.8350444763179138
-3.9575,0.4515612047945656,-0.5595318777835605
-3.957,0.3768699807907871,-0.2734226408440398
-3.9565,0.3341892813600565,-0.02969995752518888
-3.956,0.3021787567870086,0.13984625695749
-3.9555,0.02475421048725994,-0.1886495336027004
-3.955,-0.6154562809736985,-0.7502713690765743
-3.9545,-0.9995825758502737,-1.110557074852267
-3.954,-1.351698346153801,-1.216523458903942
-3.9535,-1.682473766741963,-1.142346990067769
-3.953,-1.341028171296118,-0.5489352393783931
-3.9525,-0.754168554123573,0.2881991946298341
-3.952,-0.2526703358124887,0.9769806909657173
-3.9515,0.07810508477567314,1.42203950398275
-3.951,0.2488278824985954,1.623375633680931
-3.9505,0.3128489316446912,1.655165548896433
-3.95,0.3128489316446912,1.591585718465428
-3.9495,0.291508581929326,1.485619334413754
-3.949,0.2594980573562781,1.347863035146577
-3.9485,0.2381577076409128,1.178316820663898
-3.948,0.2168173579255475,0.9769806909657173
-3.9475,-0.124628237520297,0.4683420475176805
-3.947,-0.6794773301197943,-0.3899856633008816
-3.9465,-0.9889124009925911,-1.163540266878104
-3.946,-0.8822106524157645,-1.629792356705471
-3.9455,-0.3060212101009019,-1.460246142222792
-3.945,0.09944543449103843,-0.9728007755850904
-3.9445,0.3341892813600565,-0.6125150698093976
-3.944,0.4195506802215176,-0.4535654937318862
-3.9435,0.4408910299368829,-0.4535654937318862
-3.943,0.4195506802215176,-0.570128516188728
-3.9425,0.3982103305061524,-0.7078848154559045
-3.942,0.5902734779444399,-0.8562377531282487
-3.9415,0.707645401378949,-0.8456411147230812
-3.941,0.6222840025174878,-0.6443049850249
-3.9405,0.5155822539406614,-0.3793890248957141
-3.94,0.4195506802215176,-0.1356663415768632
-3.9395,0.3768699807907871,0.1080563417419877
-3.939,0.7183155762366316,0.6484849004055269
-3.9385,0.942389248247967,0.701468092431364
-3.938,0.4622313796522482,0.01268659609548085
-3.9375,-0.3380317346739499,-0.718481453861072
-3.937,-1.052933450138687,-1.131750351662602
-3.9365,-1.042263275281004,-0.792657922697244
-3.936,-0.6688071552621118,-0.02969995752518888
-3.9355,-0.2633405106701714,0.701468092431364
-3.935,0.03542438534494258,1.231300012689736
-3.9345,0.2061471830678648,1.538602526439591
-3.934,0.2808384070716433,1.686955464111935
-3.9335,0.291508581929326,1.718745379327438
-3.933,0.2808384070716433,1.697552102517103
-3.9325,0.2594980573562781,1.644568910491266
-3.932,0.2488278824985954,1.517409249629256
-3.9315,0.2381577076409128,1.33726639674141
-3.931,0.142126133921769,1.125333628638062
-3.9305,-0.3807124341046804,0.5319218779486851
-3.93,-0.807519428411986,-0.3899856633008816
-3.9295,-0.9675720512772257,-1.121153713257435
-3.929,-0.7648387289812555,-1.195330182093607
-3.9285,-0.3593720843893152,-0.8880276683437509
-3.928,0.01408403562957729,-0.6654982618352349
-3.9275,0.2488278824985954,-0.5913217929990628
-3.927,0.3661998059331045,-0.5489352393783931
-3.9265,0.408880505363835,-0.5595318777835605
-3.926,0.408880505363835,-0.6549016234300674
-3.9255,0.5049120790829789,-0.7396747306714069
-3.925,0.6329541773751706,-0.7714646458869092
-3.9245,0.6009436528021226,-0.6231117082145651
-3.924,0.4942419042252961,-0.4111789401112165
-3.9235,0.3875401556484697,-0.1992461720078678
-3.923,0.3235191065023739,-0.008506680714854012
-3.9225,0.2168173579255475,-0.1038764263613609
-3.922,-0.3487019095316325,-0.6337083466197325
-3.9215,-0.8928808272734472,-1.142346990067769
-3.921,-1.148965023857831,-1.439052865412457
-3.9205,-1.116954499284783,-1.322489842955616
-3.92,-0.7434983792658902,-0.5913217929990628
-3.9195,-0.3166913849585846,0.2458126410091644
-3.919,0.00341386077189465,0.9028042221295453
-3.9185,0.1954770082101822,1.316073119931075
-3.918,0.2808384070716433,1.517409249629256
-3.9175,0.3021787567870086,1.580989080060261
-3.917,0.291508581929326,1.549199164844759
-3.9165,0.2701682322139607,1.475022696008586
-3.916,0.2488278824985954,1.369056311956912
-3.9155,0.2274875327832301,1.25249328950007
-3.915,0.2168173579255475,1.114736990232894
-3.9145,0.1741366584948169,0.8922075837243778
-3.914,-0.2953510352432193,0.2564092794143318
-3.9135,-0.7648387289812555,-0.6125150698093976
-3.913,-1.084943974711735,-1.322489842955616
-3.9125,-1.010252750707956,-1.545019249464132
-3.912,-0.5941159312583333,-1.152943628472937
-3.9115,-0.1886492866663929,-0.7820612842920766
-3.911,0.1207857842064037,-0.5807251545938954
-3.9105,0.291508581929326,-0.5277419625680583
-3.91,0.3875401556484697,-0.5807251545938954
-3.9095,0.4195506802215176,-0.6019184314042303
-3.909,0.4408910299368829,-0.6125150698093976
-3.9085,0.6116138276598051,-0.6866915386455698
-3.908,0.6329541773751706,-0.6443049850249
-3.9075,0.5582629533713921,-0.474758770542221
-3.907,0.4622313796522482,-0.3052125560595421
-3.9065,0.3768699807907871,-0.1356663415768632
-3.906,0.3661998059331045,0.09745970333682032
-3.9055,0.5902734779444399,0.3623756634660061
-3.905,0.1954770082101822,-0.04029659593035631
-3.9045,-0.3700422592469978,-0.6654982618352349
-3.904,-1.010252750707956,-1.131750351662602
-3.9035,-1.30901764672307,-1.152943628472937
-3.903,-0.9995825758502737,-0.4853554089473885
-3.9025,-0.5194247072545548,0.3305857482505039
-3.902,-0.124628237520297,0.9981739677760521
-3.9015,0.1314559590640864,1.42203950398275
-3.901,0.2594980573562781,1.644568910491266
-3.9005,0.3021787567870086,1.718745379327438
-3.9,0.3021787567870086,1.697552102517103
-3.8995,0.2808384070716433,1.623375633680931
-3.899,0.2594980573562781,1.517409249629256
-3.8985,0.2488278824985954,1.369056311956912
-3.898,0.2381577076409128,1.188913459069066
-3.8975,-0.02859666380115328,0.6696781772158616
-3.897,-0.6154562809736985,-0.2416327256285375
-3.8965,-1.020922925565639,-1.068170521231597
-3.896,-1.234326422719292,-1.703968825541643
-3.8955,-1.1062843244271,-1.650985633515806
-3.895,-0.6154562809736985,-1.110557074852267
-3.8945,-0.156638762093345,-0.718481453861072
-3.894,0.1634664836371343,-0.6019184314042303
-3.8935,0.3341892813600565,-0.5913217929990628
-3.893,0.408880505363835,-0.6866915386455698
-3.8925,0.4195506802215176,-0.8244478379127463
-3.892,0.3235191065023739,-0.6866915386455698
-3.8915,0.2701682322139607,-0.4641621321370536
-3.891,0.2381577076409128,-0.4217755785163839
-3.8905,0.2381577076409128,-0.4429688553267188
-3.89,0.2594980573562781,-0.400582301706049
-3.8895,0.2594980573562781,-0.2946159176543747
-3.889,0.3875401556484697,-0.400582301706049
-3.8885,0.7609962756673623,-0.8456411147230812
-3.888,0.5155822539406614,-1.269506650929778
-3.8875,-0.1886492866663929,-1.449649503817625
-3.887,-0.9995825758502737,-1.396666311791788
-3.8865,-1.170305373573196,-0.8244478379127463
