Class_6_Listen_To_Quran/Class_6_Listen_To_Quran_Basim_13.csv

#Digilent WaveForms Oscilloscope Acquisition
#Device Name: EExplorer
#Serial Number: SN:210151A2B84A
#Date Time: 2021-02-07 15:56:38.849
#Sample rate: 2000Hz
#Samples: 16384
#Trigger: Source: Channel 1 Type: Edge Condition: Rising Level: 0 V Hyst.: Auto HoldOff: 0 s
#Channel 1: Range: 1 V/div Offset: 0 V Attenuation: 1 X
#Channel 2: Range: 1 V/div Offset: 0 V Attenuation: 1 X
#Power Supplies: ON
#Fixed Supply: ON
#Voltage: 3.3 V Readback: 3.331 V
#Positive Supply: ON
#Voltage: 3.7 V Readback: 3.717 V
#Current: 40 mA Readback: 21 mA
#Negative Supply: ON
#Voltage: -3.7 V Readback: -3.697 V
#Current: -40 mA Readback: -9 mA
#Reference 1: ON
#Voltage: 0 V
#Reference 2: ON
#Voltage: 0 V

Time (s),Channel 1 (V),Channel 2 (V)
-4.096,0.4408910299368829,0.92399749893988
-4.0955,0.5689331282289581,1.411442865577139
-4.095,-0.1886492866665676,1.729342017732133
-4.0945,-0.3807124341046804,1.210106735879401
-4.094,-0.09261771294751114,0.01268659609657008
-4.0935,0.1207857842064619,-0.7290780922663743
-4.093,0.1848068333524996,-0.8774310299385835
-4.0925,0.1421261339218078,-0.6654982618354276
-4.092,0.06743490991793227,-0.3687923864903058
-4.0915,0.00341386077189465,-0.1038764263613609
-4.091,0.02475421048725994,0.002089957690313421
-4.0905,0.1527963087794419,-0.05089323433542737
-4.09,0.142126133921769,0.05507314971615059
-4.0895,0.0674349099179905,0.2246193641988295
-4.089,-0.007256314085720056,0.3623756634658808
-4.0885,-0.07127736323188383,0.457745409112513
-4.088,-0.2633405106701714,0.627291623595192
-4.0875,-0.9142211769882205,1.040560521396346
-4.087,-1.511750969019477,1.485619334414033
-4.0865,-1.991908837614759,1.79292184816361
-4.086,-1.906547438753376,1.528005888034665
-4.0855,-1.351698346153287,0.8180311148876179
-4.085,-0.7861790786966207,0.1716361721729923
-4.0845,-0.3700422592473763,-0.2522293640333194
-4.084,-0.1352984123778923,-0.4429688553267477
-4.0835,-0.03926683865883591,-0.474758770542221
-4.083,-0.01792648894347063,-0.4111789401112165
-4.0825,-0.02859666380117269,-0.294615917654259
-4.082,-0.04993701351651855,-0.1674562567923655
-4.0815,-0.07127736323188383,-0.01910331912002144
-4.081,-0.08194753808955678,0.1186529801470299
-4.0805,-0.07127736323188383,0.2458126410091644
-4.08,-0.07127736323188383,0.3517790250608387
-4.0795,-0.3273615598160343,0.6802748156207303
-4.079,-0.956901876420077,1.167720182259087
-4.0785,-1.543761493592088,1.559795803249926
-4.078,-1.437059745015359,1.125333628638457
-4.0775,-0.764838728980712,0.01268659609486405
-4.077,-0.1673089369510276,-0.6654982618352349
-4.0765,0.1314559590638146,-0.7820612842919705
-4.076,0.2061471830678163,-0.6019184314039894
-4.0755,0.1527963087794516,-0.3370024712750445
-4.075,0.07810508477567314,-0.09327978795619347
-4.0745,0.01408403562957729,0.05507314971618914
-4.074,0.01408403562957729,0.09745970333682032
-4.0735,0.00341386077189465,0.1716361721729923
-4.073,-0.02859666380112416,0.2776025562245703
-4.0725,-0.04993701351651855,0.3623756634660061
-4.072,-0.07127736323188383,0.4259554938970107
-4.0715,-0.1886492866662861,0.4789386859227997
-4.071,-0.7861790786973097,0.7756445612679601
-4.0705,-1.543761493592088,1.241896651094903
-4.07,-2.055929886760389,1.612778995275426
-4.0695,-1.885207089037399,1.453829419197664
-4.069,-1.298347471865388,0.8074344764830383
-4.0685,-0.7328282044082075,0.1716361721729923
-4.068,-0.3273615598160635,-0.2416327256287303
-4.0675,-0.1032878878049318,-0.4535654937318862
-4.067,-0.01792648894347063,-0.4959520473525559
-4.0665,0.003413860771884946,-0.4323722169214549
-4.066,-0.007256314085787988,-0.326405832869877
-4.0655,-0.03926683865883591,-0.1992461720078678
-4.065,-0.04993701351650885,-0.06148987274081646
-4.0645,-0.06060718837420119,0.06566978812131802
-4.064,-0.06060718837420119,0.1822328105781598
-4.0635,-0.06060718837420119,0.2881991946297378
-4.063,0.1741366584951954,0.5531151547594441
-4.0625,0.5902734779444399,1.019367244586387
-4.062,0.3555296310756353,1.39024958876691
-4.0615,-0.284680860385624,1.602182356869998
-4.061,-0.3807124341046804,0.9451907757502149
-4.0605,-0.1886492866663929,0.06566978812131802
-4.06,-0.03926683865877769,-0.4111789401113321
-4.0595,0.02475421048725994,-0.5383386009732256
-4.059,0.04609456020262521,-0.4853554089473885
-4.0585,0.03542438534495228,-0.3264058328700216
-4.058,0.00341386077189465,-0.1462629799820306
-4.0575,0.02475421048725994,-0.05089323433552374
-4.057,0.03542438534493288,0.03387987290573861
-4.0565,0.01408403562957729,0.1822328105781598
-4.056,-0.01792648894347063,0.3199891098453364
-4.0555,-0.04993701351648944,0.4259554938969143
-4.055,-0.08194753808981879,0.5001319627334141
-4.0545,-0.3593720843893152,0.7544512844572011
-4.054,-0.914221176988308,1.157123543853197
-4.0535,-1.309017646723264,1.4538294191983
-4.053,-1.522421143876723,1.506812611224089
-4.0525,-1.362368521011484,1.146526905448396
-4.052,-0.9248913518461264,0.5319218779482224
-4.0515,-0.5194247072545548,0.02328323450064829
-4.051,-0.2313299860971235,-0.2840192792492073
-4.0505,-0.08194753808970234,-0.4111789401111008
-4.05,-0.01792648894347063,-0.4111789401112165
-4.0495,-0.007256314085787988,-0.3370024712750445
-4.049,-0.01792648894346092,-0.2310360872234665
-4.0485,-0.03926683865884562,-0.1144730647664223
-4.048,-0.04993701351651855,0.002089957690313421
-4.0475,-0.06060718837419149,0.1080563417418914
-4.047,-0.0499370135163924,0.2140227257938259
-4.0465,0.08877525963335578,0.3941655786815084
-4.046,0.5902734779439838,0.881610945318767
-4.0455,0.4408910299363298,1.337266396741622
-4.045,-0.1673089369510276,1.570392441655093
-4.0445,-0.4127229586777283,1.082947075017392
-4.044,-0.2313299860969488,0.2034260873879742
-4.0435,-0.03926683865883591,-0.3687923864905467
-4.043,0.0674349099179905,-0.5913217929990628
-4.0425,0.09944543449100932,-0.5595318777835894
-4.042,0.07810508477567314,-0.4111789401112165
-4.0415,0.03542438534494258,-0.2416327256285375
-4.041,0.03542438534494258,-0.114473064766644
-4.0405,0.1101156093487114,-0.08268314955092003
-4.04,0.09944543449103843,0.03387987290581572
-4.0395,0.04609456020267374,0.1928294489831827
-4.039,-0.00725631408583651,0.341182386655758
-4.0385,-0.06060718837420119,0.4365521323021782
-4.038,-0.3273615598160246,0.5955017083795451
-4.0375,-1.01025275070848,1.019367244586801
-4.037,-1.586442193022819,1.475022696008586
-4.0365,-1.618452717595867,1.612778995275763
-4.036,-1.21298607300349,1.125333628637483
-4.0355,-0.7328282044082075,0.4895353243280153
-4.035,-0.3593720843893152,-0.01910331912002144
-4.0345,-0.1352984123781835,-0.3052125560592819
-4.034,-0.02859666380115328,-0.400582301706049
-4.0335,0.00341386077189465,-0.3899856633008816
-4.033,0.00341386077189465,-0.3052125560596192
-4.0325,-0.01792648894349003,-0.1992461720077714
-4.032,-0.03926683865883591,-0.09327978795619347
-4.0315,-0.04993701351650885,0.02328323450054227
-4.031,-0.04993701351651855,0.1292496185523997
-4.0305,-0.04993701351651855,0.2140227257936621
-4.03,-0.02859666380117269,0.31998910984524
-4.0295,-0.1032878878053393,0.6378882620008027
-4.029,-0.5514352318276028,1.125333628638062
-4.0285,-0.9142211769888124,1.443232780793084
-4.028,-0.7328282044077514,0.9769806909647825
-4.0275,-0.2313299860971235,-0.05089323433552374
-4.027,0.1314559590640864,-0.6972881770507372
-4.0265,0.2594980573561616,-0.8032545611023151
-4.026,0.2381577076409128,-0.6337083466197325
-4.0255,0.1634664836371343,-0.3899856633008816
-4.025,0.07810508477575077,-0.1886495336028835
-4.0245,0.02475421048725994,-0.06148987274065262
-4.024,0.02475421048725994,-0.01910331912002144
-4.0235,0.014084035629587,0.04447651131092532
-4.023,-0.007256314085807397,0.1398462569575382
-4.0225,-0.02859666380115328,0.1928294489833272
-4.022,-0.04993701351649914,0.2352160026039584
-4.0215,-0.231329986097764,0.1822328105783718
-4.021,-0.9355615267041777,0.4153588554918433
-4.0205,-1.682473766741963,0.9557874141553824
-4.02,-2.109280761049007,1.379652950361878
-4.0195,-1.821186039891837,1.157123543853563
-4.019,-1.191645723288561,0.55311515475902
-4.0185,-0.6367966306895684,0.01268659609597234
-4.018,-0.2526703358124887,-0.326405832869877
-4.0175,-0.04993701351651855,-0.474758770542221
-4.017,0.02475421048719201,-0.4853554089473788
-4.0165,0.03542438534492317,-0.4111789401111201
-4.016,0.01408403562957729,-0.3052125560595421
-4.0155,-0.00725631408576858,-0.1780528951976486
-4.015,-0.02859666380115328,-0.04029659593023102
-4.0145,-0.02859666380115328,0.09745970333682032
-4.014,-0.02859666380115328,0.2140227257935561
-4.0135,-0.01792648894348033,0.3093924714403424
-4.013,-0.02859666380115328,0.5001319627331828
-4.0125,-0.08194753808956648,0.9557874141553824
-4.012,-0.2740106855280578,1.157123543853438
-4.0115,-0.4980843575391895,1.019367244586387
-4.011,-0.2313299860971235,0.03387987290581572
-4.0105,0.09944543449073762,-0.909220945153228
-4.01,0.2701682322139607,-1.269506650929778
-4.0095,0.2701682322139607,-1.121153713257435
-4.009,0.1954770082102501,-0.782061284292385
-4.0085,0.1101156093486628,-0.4429688553264778
-4.008,0.04609456020262521,-0.1780528951975329
-4.0075,0.07810508477564403,-0.1356663415769017
-4.007,0.110115609348692,-0.1144730647664031
-4.0065,0.07810508477567314,0.02328323450064829
-4.006,0.03542438534494258,0.1610395337678249
-4.0055,-0.007256314085817101,0.2776025562247534
-4.005,-0.03926683865883591,0.3729723018711736
-4.0045,-0.274010685527854,0.6590815388106942
-4.004,-0.91422117698922,1.146526905448781
-4.0035,-1.362368521011484,1.570392441655093
-4.003,-1.67180359188428,1.739938656137773
-4.0025,-1.437059745015476,1.263089927905672
-4.002,-0.9355615267041777,0.55311515475902
-4.0015,-0.4980843575391895,-0.008506680714854012
-4.001,-0.1993194615243473,-0.3370024712747457
-4.0005,-0.03926683865877769,-0.4641621321370439
-4,0.02475421048725994,-0.4535654937318862
-3.9995,0.02475421048725994,-0.3687923864905467
-3.999,0.01408403562957729,-0.252229364033705
-3.9985,-0.007256314085787988,-0.1250697031716958
-3.998,-0.01792648894347063,0.01268659609548085
-3.9975,-0.01792648894347063,0.13984625695749
-3.997,-0.01792648894347063,0.2352160026039969
-3.9965,-0.02859666380115328,0.3729723018711736
-3.996,-0.4127229586777283,0.8074344764830383
-3.9955,-1.116954499284783,1.305476481525908
-3.995,-1.330357996438436,1.485619334413754
-3.9945,-0.8822106524157645,0.9769806909657173
-3.994,-0.2953510352432193,0.1080563417419877
-3.9935,0.08877525963335578,-0.4429688553267188
-3.993,0.2381577076409128,-0.5913217929990628
-3.9925,0.2381577076409128,-0.5065486857577234
-3.992,0.1741366584948169,-0.3370024712750445
-3.9915,0.1101156093487211,-0.1568596183871981
-3.991,0.0674349099179905,-0.04029659593035631
-3.9905,0.0674349099179905,0.01268659609548085
-3.99,0.04609456020262521,0.1186529801471552
-3.9895,0.01408403562957729,0.2140227257936621
-3.989,-0.01792648894347063,0.2881991946298341
-3.9885,-0.04993701351651855,0.3305857482505039
-3.988,-0.3273615598162672,0.4895353243280153
-3.9875,-0.9889124009925911,0.9345941373450475
-3.987,-1.415719395299897,1.305476481525908
-3.9865,-1.30901764672307,1.263089927905238
-3.986,-0.9142211769888124,0.7862411996727035
-3.9855,-0.5087545323968721,0.2458126410091644
-3.985,-0.2206598112394408,-0.1462629799820306
-3.9845,-0.04993701351651855,-0.3687923864905467
-3.984,0.01408403562957729,-0.4323722169215513
-3.9835,0.03542438534494258,-0.4111789401112165
-3.983,0.02475421048725994,-0.3475991096802118
-3.9825,0.00341386077189465,-0.2628260024388724
-3.982,-0.007256314085787988,-0.1674562567923655
-3.9815,-0.01792648894347063,-0.06148987274069118
-3.981,-0.01792648894347063,0.03387987290581572
-3.9805,-0.01792648894347063,0.1080563417419877
-3.98,0.02475421048725994,0.2034260873884947
-3.9795,0.1207857842064037,0.55311515475902
-3.979,-0.08194753808956648,0.9345941373450475
-3.9785,-0.5834457564006506,1.33726639674141
-3.978,-0.9142211769888124,1.411442865577582
-3.9775,-0.6261264558313813,0.627291623595192
-3.977,-0.2206598112394408,-0.1038764263613609
-3.9765,0.02475421048725994,-0.4959520473525559
-3.976,0.1314559590640864,-0.6337083466197325
-3.9755,0.1314559590640864,-0.5913217929990628
-3.975,0.1101156093487211,-0.4323722169215513
-3.9745,0.07810508477567314,-0.2840192792492073
-3.974,0.1101156093487211,-0.2416327256285375
-3.9735,0.1101156093487211,-0.1038764263613609
-3.973,0.0674349099179905,0.07626642652648545
-3.9725,0.02475421048725994,0.2352160026039969
-3.972,-0.007256314085787988,0.3729723018711736
-3.9715,-0.08194753808956648,0.5107286011383502
-3.971,-0.5300948821122373,0.9134008605347127
-3.9705,-1.020922925565639,1.29487984312074
-3.97,-1.1062843244271,1.432636142387917
-3.9695,-0.9675720512772257,1.241896651094903
-3.969,-0.6474668055467465,0.7120647308365314
-3.9685,-0.3487019095316325,0.2140227257936621
-3.968,-0.1352984123779797,-0.1038764263613609
-3.9675,-0.02859666380115328,-0.2628260024388724
-3.967,0.02475421048725994,-0.2946159176543747
-3.9665,0.02475421048725994,-0.252229364033705
-3.966,0.02475421048725994,-0.1886495336027004
-3.9655,0.00341386077189465,-0.1038764263613609
-3.965,-0.007256314085787988,-0.01910331912002144
-3.9645,-0.007256314085787988,0.07626642652648545
-3.964,0.00341386077189465,0.13984625695749
-3.9635,0.01408403562957729,0.2034260873884947
-3.963,-0.04993701351651855,0.4153588554918433
-3.9625,-0.6047861061160158,0.92399749893988
-3.962,-1.170305373573196,1.37965295036208
-3.9615,-1.394379045584531,1.475022696008586
-3.961,-0.9569018764195432,0.627291623595192
-3.9605,-0.3700422592469978,-0.3475991096802118
-3.96,0.02475421048725994,-0.8562377531282487
-3.9595,0.2061471830678648,-0.9728007755850904
-3.959,0.2274875327832301,-0.8668343915334161
-3.9585,0.1741366584948169,-0.6760949002404023
-3.958,0.1207857842064037,-0.474758770542221
-3.9575,0.1527963087794516,-0.2840192792492073
-3.957,0.1954770082101822,-0.1144730647665284
-3.9565,0.1527963087794516,0.05507314971615059
-3.956,0.08877525963335578,0.1928294489833272
-3.9555,0.03542438534494258,0.309392471440169
-3.955,-0.04993701351651855,0.3729723018711736
-3.9545,-0.4980843575391895,0.5425185163538525
-3.954,-0.9569018764195432,0.9769806909657173
-3.9535,-1.383708870726849,1.42203950398275
-3.953,-1.703814116457328,1.559795803249926
-3.9525,-1.383708870726849,1.072350436612224
-3.952,-0.8608703027003992,0.4471487707073456
-3.9515,-0.4127229586777283,-0.02969995752518888
-3.951,-0.1352984123779797,-0.3052125560595421
-3.9505,0.01408403562957729,-0.3899856633008816
-3.95,0.0674349099179905,-0.3687923864905467
-3.9495,0.0674349099179905,-0.2840192792492073
-3.949,0.04609456020262521,-0.1886495336027004
-3.9485,0.02475421048725994,-0.07208651114585861
-3.948,0.01408403562957729,0.04447651131098315
-3.9475,0.01408403562957729,0.1504428953626575
-3.947,0.02475421048725994,0.2564092794143318
-3.9465,0.05676473506030786,0.383568940276341
-3.946,0.2274875327832301,0.8074344764830383
-3.9455,0.1741366584948169,1.178316820663898
-3.945,-0.04993701351651855,1.231300012689736
-3.9445,0.00341386077189465,0.5319218779486851
-3.944,0.2168173579255475,-0.474758770542221
-3.9435,0.3341892813600565,-0.9516074987747555
-3.943,0.3128489316446912,-0.9728007755850904
-3.9425,0.2381577076409128,-0.8032545611024114
-3.942,0.142126133921769,-0.570128516188728
-3.9415,0.07810508477567314,-0.326405832869877
-3.941,0.05676473506030786,-0.1568596183871981
-3.9405,0.04609456020262521,-0.07208651114585861
-3.94,0.03542438534494258,0.03387987290581572
-3.9395,0.02475421048725994,0.1292496185523226
-3.939,0.00341386077189465,0.2140227257936621
-3.9385,-0.007256314085787988,0.2670059178194992
-3.938,-0.2420001609548061,0.4047622170866759
-3.9375,-0.9355615267041777,0.8604176685088755
-3.937,-1.501080794161358,1.347863035146577
-3.9365,-1.938557963326346,1.697552102517103
-3.936,-1.87453691418025,1.496215972818921
-3.9355,-1.30901764672307,0.8074344764830383
-3.935,-0.7114878546928423,0.1716361721729923
-3.9345,-0.2846808603855366,-0.252229364033705
-3.934,-0.03926683865883591,-0.4429688553267188
-3.9335,0.0674349099179905,-0.4641621321370536
-3.933,0.08877525963335578,-0.3899856633008816
-3.9325,0.07810508477567314,-0.2734226408440398
-3.932,0.05676473506030786,-0.1356663415768632
-3.9315,0.03542438534494258,0.002089957690313421
-3.931,0.02475421048725994,0.13984625695749
-3.9305,0.02475421048725994,0.2458126410091644
-3.93,0.03542438534494258,0.3411823866556712
-3.9295,0.2274875327832301,0.6484849004055269
-3.929,0.3661998059331045,1.072350436612224
-3.9285,-0.01792648894347063,1.326669758336243
-3.928,-0.3060212101009019,0.9345941373450475
-3.9275,-0.1139580626626144,0.02328323450064829
-3.927,0.1207857842064037,-0.6549016234300674
-3.9265,0.2274875327832301,-0.8456411147230812
-3.926,0.2274875327832301,-0.7502713690765743
-3.9255,0.1741366584948169,-0.570128516188728
-3.925,0.1101156093487211,-0.3687923864905467
-3.9245,0.08877525963335578,-0.2204394488182027
-3.924,0.1848068333524996,-0.2310360872233701
-3.9235,0.1954770082101822,-0.1568596183871981
-3.923,0.142126133921769,-0.01910331912002144
-3.9225,0.08877525963335578,0.09745970333682032
-3.922,0.04609456020262521,0.1928294489833272
-3.9215,-0.02859666380115328,0.2881991946298341
-3.921,-0.5087545323968721,0.6590815388106942
-3.9205,-1.138294849000148,1.167720182258731
-3.92,-1.533091318734406,1.538602526439591
-3.9195,-1.479740444445993,1.411442865577582
-3.919,-1.042263275281004,0.775644561267536
-3.9185,-0.572775581542968,0.1504428953626575
-3.918,-0.2206598112394408,-0.2734226408440398
-3.9175,-0.02859666380115328,-0.474758770542221
-3.917,0.05676473506030786,-0.5171453241628908
-3.9165,0.07810508477567314,-0.4641621321370536
-3.916,0.0674349099179905,-0.3475991096802118
-3.9155,0.04609456020262521,-0.2310360872233701
-3.915,0.03542438534494258,-0.09327978795619347
-3.9145,0.02475421048725994,0.03387987290581572
-3.914,0.02475421048725994,0.1504428953626575
-3.9135,0.02475421048725994,0.2352160026039969
-3.913,0.04609456020262521,0.4365521323021782
-3.9125,-0.3380317346739499,0.9134008605347127
-3.912,-0.9248913518464952,1.263089927905238
-3.9115,-1.415719395299897,1.42203950398275
-3.911,-1.031593100423322,0.627291623595192
-3.9105,-0.391382608962363,-0.4959520473525559
-3.91,0.05676473506030786,-1.046977244421262
-3.9095,0.2381577076409128,-1.121153713257435
-3.909,0.2594980573562781,-0.9516074987747555
-3.9085,0.2168173579255475,-0.6972881770507372
-3.908,0.1527963087794516,-0.4429688553267188
-3.9075,0.1634664836371343,-0.3475991096802118
-3.907,0.1634664836371343,-0.2416327256285375
-3.9065,0.1314559590640864,-0.06148987274069118
-3.906,0.08877525963335578,0.1186529801471552
-3.9055,0.04609456020262521,0.2670059178194992
-3.905,-0.01792648894347063,0.3411823866556712
-3.9045,-0.5087545323968721,0.4683420475176805
-3.904,-1.202315898146244,0.92399749893988
-3.9035,-1.714484291315011,1.400846227172415
-3.903,-1.927887788468663,1.623375633680931
-3.9025,-1.543761493592088,1.178316820663898
-3.902,-0.9462317015618604,0.5107286011383502
-3.9015,-0.4447334832507763,-0.01910331912002144
-3.901,-0.1139580626626144,-0.326405832869877
-3.9005,0.04609456020262521,-0.4323722169215513
-3.9,0.09944543449103843,-0.400582301706049
-3.8995,0.09944543449103843,-0.3052125560595421
-3.899,0.08877525963335578,-0.1780528951975329
-3.8985,0.0674349099179905,-0.05089323433552374
-3.898,0.04609456020262521,0.08686306493165288
-3.8975,0.04609456020262521,0.2034260873884947
-3.897,0.04609456020262521,0.2987958330350016
-3.8965,0.04609456020262521,0.3941655786815084
-3.896,0.08877525963335578,0.7226613692416989
-3.8955,-0.1779791118087102,1.072350436612224
-3.895,-0.6794773301197943,1.33726639674141
-3.8945,-0.572775581542968,0.8816109453192104
-3.894,-0.1779791118087102,-0.06148987274069118
-3.8935,0.1207857842064037,-0.6337083466197325
-3.893,0.2594980573562781,-0.8562377531282487
-3.8925,0.2701682322139607,-0.8350444763179138
-3.892,0.2168173579255475,-0.7078848154559045
-3.8915,0.1634664836371343,-0.5489352393783931
-3.891,0.1207857842064037,-0.3793890248957141
-3.8905,0.09944543449103843,-0.2310360872233701
-3.89,0.07810508477567314,-0.09327978795619347
