Class_6_Listen_To_Quran/Class_6_Listen_To_quran_Zakour_8.csv

#Digilent WaveForms Oscilloscope Acquisition
#Device Name: EExplorer
#Serial Number: SN:210151A2B84A
#Date Time: 2021-01-24 16:32:37.520
#Sample rate: 2000Hz
#Samples: 16384
#Trigger: Source: Channel 1 Type: Edge Condition: Rising Level: 0 V Hyst.: Auto HoldOff: 0 s
#Channel 1: Range: 1 V/div Offset: 0 V Attenuation: 1 X
#Channel 2: Range: 1 V/div Offset: 0 V Attenuation: 1 X
#Power Supplies: ON
#Fixed Supply: ON
#Voltage: 3.3 V Readback: 3.317 V
#Positive Supply: ON
#Voltage: 3.7 V Readback: 3.695 V
#Current: 40 mA Readback: 20 mA
#Negative Supply: ON
#Voltage: -3.7 V Readback: -3.363 V
#Current: -40 mA Readback: -6 mA
#Reference 1: ON
#Voltage: 0 V
#Reference 2: ON
#Voltage: 0 V

Time (s),Channel 1 (V),Channel 2 (V)
-4.096,0.2488278824985954,-0.8668343915334161
-4.0955,0.1741366584948849,-0.6337083466199446
-4.095,-0.1779791118093313,-0.3264058328693951
-4.0945,-0.8608703027003992,0.2034260873884947
-4.094,-1.405049220441719,0.6696781772154377
-4.0935,-1.778505340461174,0.9875773293709136
-4.093,-1.853196564464885,1.019367244586387
-4.0925,-1.298347471865892,0.5531151547594439
-4.092,-0.69014750497705,0.02328323450033025
-4.0915,-0.2206598112394408,-0.326405832869877
-4.091,0.05676473506030786,-0.4535654937318862
-4.0905,0.1954770082102113,-0.4217755785162683
-4.09,0.2274875327832301,-0.2946159176543747
-4.0895,0.2274875327832301,-0.1356663415768632
-4.089,0.1954770082102113,0.03387987290566152
-4.0885,0.1527963087794516,0.1928294489833272
-4.088,0.1314559590640864,0.3517790250608387
-4.0875,0.1207857842064134,0.48953532432789
-4.087,0.09944543449063084,0.6378882620005233
-4.0865,-0.3487019095316325,0.8180311148882058
-4.086,-1.010252750707355,0.9981739677758882
-4.0855,-1.501080794161067,1.104140351827678
-4.085,-1.180975548430879,1.051157159801889
-4.0845,-0.2953510352440248,0.9557874141554691
-4.084,0.4622313796526752,0.765047922862195
-4.0835,0.9317190733902845,0.5743084315693548
-4.083,1.102441871113207,0.2034260873884947
-4.0825,1.038420821966956,-0.4217755785169236
-4.082,0.8676980242441885,-1.01518732920576
-4.0815,0.6542945270905358,-1.354279758171118
-4.081,0.5262524287984606,-1.417859588602065
-4.0805,0.4302208550792003,-1.375473034981453
-4.08,0.3448594562177392,-1.227120097309109
-4.0795,0.2594980573563557,-1.015187329205953
-4.079,0.195477008209959,-0.7820612842920091
-4.0785,-0.04993701351651855,-0.7078848154559045
-4.078,-0.7541685541229325,-0.4959520473527487
-4.0775,-1.447729919873536,0.0656697881217999
-4.077,-2.098610586191586,0.5955017083796896
-4.0765,-2.33335443306039,0.8498210301034768
-4.076,-1.58644219302214,0.5213252395430743
-4.0755,-0.839529952985034,0.03387987290581572
-4.075,-0.2846808603855366,-0.3158091944647096
-4.0745,0.04609456020277078,-0.4641621321370439
-4.074,0.2061471830678648,-0.4535654937318862
-4.0735,0.2488278824985954,-0.3370024712750445
-4.073,0.2381577076409225,-0.1886495336028353
-4.0725,0.2168173579255475,-0.02969995752518888
-4.072,0.1848068333524996,0.1080563417419877
-4.0715,0.1634664836371537,0.2670059178193547
-4.071,0.142126133921769,0.4047622170867915
-4.0705,0.142126133921769,0.5319218779486851
-4.07,-0.06060718837401682,0.7014680924312098
-4.0695,-0.6474668055473094,0.892207583724503
-4.069,-1.26633694729234,1.029963882991555
-4.0685,-1.287677297007705,1.051157159801889
-4.068,-0.4980843575384423,1.01936724458631
-4.0675,0.3235191065023739,0.9345941373450475
-4.067,0.8783681991018712,0.7226613692416989
-4.0665,1.11311204597087,0.3093924714395618
-4.066,1.091771696255524,-0.3581957480853793
-4.0655,0.9103787236749192,-0.9622041371799229
-4.065,0.6863050516637876,-1.343683119765604
-4.0645,0.6542945270905358,-1.34368311976595
-4.064,0.6009436528021226,-1.248313374119443
-4.0635,0.4515612047947014,-1.142346990067866
-4.063,0.3235191065022768,-1.004590690800429
-4.0625,0.2168173579255475,-0.8244478379127463
-4.062,0.131455959064164,-0.6443049850250638
-4.0615,-0.1886492866669557,-0.7714646458870538
-4.061,-0.807519428411986,-0.9304142219644207
-4.0605,-1.447729919872945,-0.4535654937318862
-4.06,-1.949228138183796,0.1716361721731369
-4.0595,-1.693143941599645,0.3305857482505039
-4.059,-1.042263275281004,0.07626642652648545
-4.0585,-0.4660738329666656,-0.209842810412775
-4.058,-0.07127736323188383,-0.400582301706049
-4.0575,0.142126133921769,-0.4535654937318862
-4.057,0.2274875327831525,-0.4217755785164128
-4.0565,0.2381577076409128,-0.326405832869877
-4.056,0.2274875327832301,-0.2204394488182027
-4.0555,0.1954770082102113,-0.1144730647666247
-4.055,0.1741366584947975,0.002089957690400159
-4.0545,0.1527963087794516,0.09745970333682032
-4.054,0.1527963087794516,0.2034260873883983
-4.0535,0.1101156093483911,0.4047622170869457
-4.053,-0.2526703358124887,0.701468092431364
-4.0525,-0.8928808272734472,0.9557874141553824
-4.052,-1.426389570157143,1.093543713422607
-4.0515,-0.9462317015618604,1.146526905448396
-4.051,-0.03926683865883591,1.125333628638062
-4.0505,0.6863050516629239,1.029963882991641
-4.05,1.091771696255524,0.849821030103708
-4.0495,1.187803269974668,0.3305857482505039
-4.049,1.070431346540266,-0.3899856633002263
-4.0485,0.8463576745287068,-0.9092209451544424
-4.048,0.7183155762366316,-1.301296566145281
-4.0475,0.6649647019482668,-1.523825972653595
-4.047,0.5049120790828333,-1.38606967338636
-4.0465,0.3448594562177392,-1.0999604364471
-4.046,0.2381577076410098,-0.8244478379129969
-4.0455,0.1527963087791023,-0.5807251545935581
-4.045,-0.2313299860971235,-0.2098428104130352
-4.0445,-0.9035510021311299,0.309392471440169
-4.044,-1.533091318734852,0.7544512844574613
-4.0435,-2.023919362187807,1.040560521396722
-4.043,-1.906547438753298,0.92399749893988
-4.0425,-1.212986073004557,0.3729723018716747
-4.042,-0.5834457564006506,-0.1568596183871981
-4.0415,-0.1352984123779797,-0.474758770542221
-4.041,0.1207857842061708,-0.6019184314041146
-4.0405,0.2274875327832495,-0.5595318777834641
-4.04,0.2488278824985954,-0.4535654937318862
-4.0395,0.2274875327832495,-0.3158091944648349
-4.039,0.206147183067826,-0.1674562567922402
-4.0385,0.1634664836371343,-0.02969995752518888
-4.038,0.1421261339217884,0.1080563417418625
-4.0375,0.1421261339217593,0.2458126410092993
-4.037,0.1314559590640864,0.3941655786815084
-4.0365,-0.1993194615240755,0.627291623595192
-4.036,-0.7755089038392973,0.8604176685090104
-4.0355,-1.170305373573196,1.00877060618122
-4.035,-0.9675720512772257,0.9028042221295453
-4.0345,-0.1993194615247743,0.8286277532934406
-4.034,0.5155822539406614,0.7968378380778709
-4.0335,0.9637295979633325,0.6590815388106942
-4.033,1.123782220828426,0.3411823866559603
-4.0325,1.070431346539965,-0.2416327256290676
-4.032,0.857027849386506,-0.8244478379127463
-4.0315,0.6649647019483931,-1.227120097308743
-4.031,0.6969752265211789,-1.555615887869261
-4.0305,0.6009436528021226,-1.51322933424863
-4.03,0.4408910299370286,-1.258910012524842
-4.0295,0.3021787567869213,-0.9622041371796917
-4.029,0.2061471830678648,-0.7078848154559045
-4.0285,0.03542438534494258,-0.5277419625680583
-4.028,-0.3913826089628095,-0.3899856633005442
-4.0275,-0.8822106524157645,-0.01910331912002144
-4.027,-1.1062843244271,0.4683420475176805
-4.0265,-1.21298607300383,0.6908714540259941
-4.026,-0.8928808272734472,0.383568940276341
-4.0255,-0.4660738329661415,-0.05089323433552374
-4.025,-0.1352984123782805,-0.3793890248954154
-4.0245,0.07810508477577019,-0.5383386009732449
-4.024,0.1848068333524996,-0.5595318777835605
-4.0235,0.2168173579255184,-0.5065486857577716
-4.023,0.2168173579255281,-0.4111789401111201
-4.0225,0.1954770082101822,-0.3052125560595421
-4.022,0.1741366584948363,-0.1992461720079642
-4.0215,0.1421261339217593,-0.07208651114576223
-4.021,0.1314559590640864,0.03387987290581572
-4.0205,0.142126133921769,0.1292496185523226
-4.02,0.131455959063902,0.2458126410094246
-4.0195,-0.07127736323188383,0.5319218779486851
-4.019,-0.658136980404429,0.8286277532933731
-4.0185,-0.9782422261346173,1.029963882991371
-4.018,-0.4660738329661415,1.104140351827727
-4.0175,0.2594980573562781,1.040560521396722
-4.017,0.7930068002399248,0.8604176685090393
-4.0165,1.03842082196712,0.4895353243274757
-4.016,1.049090996824793,-0.1038764263613609
-4.0155,0.8997085488173724,-0.7290780922656708
-4.015,0.6969752265212469,-1.17413690528359
-4.0145,0.6756348768059011,-1.523825972653797
-4.014,0.6222840025175363,-1.619195718300217
-4.0135,0.4835717293674777,-1.42845622700702
-4.013,0.3341892813600565,-1.131750351662602
-4.0125,0.2274875327832301,-0.8138511995075789
-4.012,0.1527963087793255,-0.5595318777836857
-4.0115,0.01408403562957729,-0.6972881770507372
-4.011,-0.4447334832507763,-0.8562377531282487
-4.0105,-1.074273799853479,-0.3899856633013056
-4.01,-1.522421143876723,0.1822328105781598
-4.0095,-1.341028171296118,0.2564092794143318
-4.009,-0.83952995298549,-0.00850668071461308
-4.0085,-0.370042259246697,-0.2840192792493615
-4.008,-0.03926683865883591,-0.4535654937318862
-4.0075,0.142126133921604,-0.5065486857576752
-4.007,0.2168173579255572,-0.4747587705421536
-4.0065,0.2274875327832301,-0.400582301706049
-4.006,0.2061471830678648,-0.3052125560595421
-4.0055,0.1848068333524704,-0.1992461720077618
-4.005,0.1527963087794516,-0.08268314955102604
-4.0045,0.142126133921769,0.01268659609548085
-4.004,0.1421261339218369,0.09745970333696488
-4.0035,0.2168173579255475,0.2564092794143318
-4.003,0.6116138276598051,0.5637117931641874
-4.0025,0.5155822539407487,0.83922439169829
-4.002,-0.02859666380115328,1.029963882991555
-4.0015,-0.09261771294724913,1.082947075017392
-4.001,0.2915085819289766,0.9451907757503402
-4.0005,0.6756348768061242,0.6802748156206628
-4,0.9210488985326017,0.2776025562246667
-3.9995,0.9637295979633325,-0.252229364033705
-3.999,0.857027849386506,-0.8032545611024114
-3.9985,0.6756348768059011,-1.227120097309109
-3.998,0.6436243522328531,-1.555615887869299
-3.9975,0.79300680024041,-1.820531847998485
-3.997,0.6756348768059011,-1.640388995110639
-3.9965,0.4942419042252961,-1.269506650929778
-3.996,0.3235191065023739,-0.8880276683437509
-3.9955,0.2061471830678648,-0.5489352393783931
-3.995,-0.01792648894347063,-0.5383386009732256
-3.9945,-0.658136980404429,-0.9728007755850904
-3.994,-1.362368521011484,-1.34368311976595
-3.9935,-1.885207089037933,-0.9728007755850904
-3.993,-1.863866739322568,-0.3899856633008816
-3.9925,-1.223656247861609,-0.1674562567923655
-3.992,-0.6154562809736985,-0.1568596183871981
-3.9915,-0.1673089369510276,-0.2204394488182027
-3.991,0.08877525963335578,-0.2946159176543747
-3.9905,0.2061471830678648,-0.3370024712750445
-3.99,0.2381577076409128,-0.3687923864905467
-3.9895,0.2168173579255475,-0.400582301706049
-3.989,0.1954770082101822,-0.400582301706049
-3.9885,0.1527963087794516,-0.3793890248957141
-3.988,0.142126133921769,-0.3899856633008816
-3.9875,0.142126133921769,-0.3793890248957141
-3.987,0.142126133921769,-0.2204394488182027
-3.9865,0.05676473506030786,0.09745970333682032
-3.986,-0.3060212101009019,0.5213252395435176
-3.9855,-0.8502001278427167,0.8710143069140429
-3.985,-0.807519428411986,1.051157159801889
-3.9845,-0.2099896363817582,0.9875773293708847
-3.984,0.3875401556484697,0.7332580076468663
-3.9835,0.8143471499557753,0.4259554938970107
-3.983,0.9850699476786977,-0.07208651114585861
-3.9825,0.9530594231056497,-0.6443049850249
-3.982,0.79300680024041,-1.078767159636765
-3.9815,0.6222840025174878,-1.333086481360783
-3.981,0.6649647019482183,-1.545019249464132
-3.9805,0.5796033030867573,-1.449649503817625
-3.98,0.4195506802215176,-1.142346990067769
-3.9795,0.2808384070716433,-0.8032545611024114
-3.979,0.1954770082101822,-0.4853554089473885
-3.9785,-0.01792648894347063,-0.4217755785163839
-3.978,-0.5834457564006506,-0.8456411147230812
-3.9775,-1.244996597576974,-1.131750351662602
-3.977,-1.842526389607202,-0.6654982618352349
-3.9765,-2.151961460479999,-0.02969995752518888
-3.976,-1.554431668449771,0.09745970333682032
-3.9755,-0.8608703027003992,-0.08268314955102604
-3.975,-0.3166913849585846,-0.3052125560595421
-3.9745,0.02475421048725994,-0.4641621321370536
-3.974,0.1848068333524996,-0.5277419625680583
-3.9735,0.2381577076409128,-0.5277419625680583
-3.973,0.2381577076409128,-0.4959520473525559
-3.9725,0.2061471830678648,-0.4429688553267188
-3.972,0.1634664836371343,-0.3581957480853793
-3.9715,0.1314559590640864,-0.252229364033705
-3.971,0.1101156093487211,-0.1356663415768632
-3.9705,0.1207857842064037,0.002089957690313421
-3.97,-0.08194753808956648,0.2776025562246667
-3.9695,-0.6367966306890638,0.6590815388106942
-3.969,-1.170305373573196,0.9557874141553824
-3.9685,-1.319687821580753,1.019367244586387
-3.968,-0.6154562809736985,0.9769806909657173
-3.9675,0.2061471830678648,0.9451907757502149
-3.967,0.79300680024041,0.8286277532933731
-3.9665,1.059761171682476,0.5107286011383502
-3.966,1.070431346540159,-0.05089323433552374
-3.9655,0.9103787236749192,-0.6337083466197325
-3.965,0.6863050516635838,-1.036380606016095
-3.9645,0.6969752265212663,-1.42845622700729
-3.964,0.6863050516635838,-1.545019249464132
-3.9635,0.5369226036560266,-1.311893204550448
-3.963,0.3768699807907871,-0.9728007755850904
-3.9625,0.2488278824985954,-0.6443049850249
-3.962,0.1101156093487211,-0.400582301706049
-3.9615,-0.2953510352432193,-0.1144730647665284
-3.961,-0.9462317015618604,0.3729723018711736
-3.9605,-1.522421143876723,0.7968378380778709
-3.96,-1.970568487899394,1.061753798207057
-3.9595,-1.735824641030376,0.849821030103708
-3.959,-1.074273799854052,0.2987958330350016
-3.9585,-0.4874141826815069,-0.1886495336027004
-3.958,-0.08194753808956648,-0.4535654937318862
-3.9575,0.1314559590640864,-0.5383386009732256
-3.957,0.2274875327832301,-0.474758770542221
-3.9565,0.2381577076409128,-0.3370024712750445
-3.956,0.2168173579255475,-0.1886495336027004
-3.9555,0.1954770082101822,-0.04029659593035631
-3.955,0.1634664836371343,0.1080563417419877
-3.9545,0.142126133921769,0.2564092794143318
-3.954,0.142126133921769,0.4047622170866759
-3.9535,0.2274875327832301,0.5743084315693548
-3.953,0.6969752265212663,0.8074344764830383
-3.9525,0.7503261008096795,1.00877060618122
-3.952,0.4515612047945656,1.029963882991555
-3.9515,0.6329541773751706,0.9981739677760521
-3.951,0.9637295979633325,1.00877060618122
-3.9505,1.187803269974668,0.9557874141553824
-3.95,1.241154144263081,0.7650479228623686
-3.9495,1.15579274540162,0.2564092794143318
-3.949,0.9637295979633325,-0.4217755785163839
-3.9485,0.7289857510943143,-0.9410108603695881
-3.948,0.6116138276598051,-1.290699927740113
-3.9475,0.6116138276598051,-1.51322933424863
-3.947,0.4835717293676135,-1.417859588602123
-3.9465,0.3448594562177392,-1.184733543688439
-3.946,0.2381577076409128,-0.9304142219644207
-3.9455,0.1741366584948169,-0.6866915386455698
-3.945,0.02475421048725994,-0.5383386009732256
-3.9445,-0.4980843575391895,-0.3370024712750445
-3.944,-1.180975548430879,0.1716361721729923
-3.9435,-1.789175515318789,0.4153588554918433
-3.943,-2.023919362187807,-0.008506680714854012
-3.9425,-1.437059745015262,-0.3370024712750445
-3.942,-0.7861790786966207,-0.4959520473525559
-3.9415,-0.274010685527854,-0.5065486857577234
-3.941,0.03542438534494258,-0.4429688553267188
-3.9405,0.1848068333524996,-0.3370024712750445
-3.94,0.2274875327832301,-0.2310360872233701
-3.9395,0.2274875327832301,-0.1356663415768632
-3.939,0.1954770082101822,-0.06148987274069118
-3.9385,0.1527963087794516,0.03387987290581572
-3.938,0.1207857842064037,0.1080563417419877
-3.9375,0.1207857842064037,0.1504428953626575
-3.937,0.09944543449103843,0.2987958330350016
-3.9365,-0.3593720843893152,0.5743084315693548
-3.936,-0.9995825758502737,0.849821030103708
-3.9355,-1.362368521011484,0.9981739677760521
-3.935,-1.138294849000148,1.040560521396722
-3.9345,-0.3060212101009019,1.051157159801889
-3.934,0.4729015545099309,0.9981739677760521
-3.9335,0.942389248247967,0.7968378380778709
-3.933,1.091771696255524,0.3729723018711736
-3.9325,1.017080472251745,-0.2628260024388724
-3.932,0.8356874996711408,-0.8350444763179138
-3.9315,0.6542945270905358,-1.237716735714276
-3.931,0.6756348768059011,-1.576809164679634
-3.9305,0.5796033030867573,-1.545019249464132
-3.93,0.4195506802215176,-1.280103289334946
-3.9295,0.291508581929326,-0.9622041371799229
-3.929,0.1954770082101822,-0.6549016234300674
-3.9285,-0.007256314085787988,-0.5277419625680583
-3.928,-0.4874141826815069,-0.7396747306714069
-3.9275,-0.9462317015618604,-0.6549016234300674
-3.927,-1.277007122150022,-0.08268314955102604
-3.9265,-1.639793067311232,0.4789386859228479
-3.926,-1.447729919872945,0.5001319627331828
-3.9255,-0.9142211769888124,0.1292496185523226
-3.925,-0.4020527838200457,-0.2416327256285375
-3.9245,-0.06060718837420119,-0.4853554089473885
-3.924,0.1314559590640864,-0.5807251545938954
-3.9235,0.2061471830678648,-0.5595318777835605
-3.923,0.2274875327832301,-0.4853554089473885
-3.9225,0.2061471830678648,-0.3793890248957141
-3.922,0.1741366584948169,-0.252229364033705
-3.9215,0.1314559590640864,-0.1038764263613609
-3.921,0.1207857842064037,0.02328323450064829
-3.9205,0.1314559590640864,0.1504428953626575
-3.92,-0.09261771294724913,0.383568940276341
-3.9195,-0.5834457564006506,0.7226613692416989
-3.919,-1.191645723288561,0.9875773293708847
-3.9185,-1.341028171296118,0.9028042221295453
-3.918,-0.6367966306890638,0.4683420475176805
-3.9175,0.1848068333524996,0.4259554938970107
-3.917,0.7716664505250448,0.4895353243280153
-3.9165,1.070431346540159,0.4683420475176805
-3.916,1.102441871113207,0.04447651131098315
-3.9155,0.9317190733902845,-0.474758770542221
-3.915,0.707645401378949,-0.8562377531282487
-3.9145,0.6756348768059011,-0.8668343915334161
-3.914,0.6222840025174878,-0.792657922697244
-3.9135,0.4729015545099309,-0.7714646458869092
-3.913,0.3235191065023739,-0.718481453861072
-3.9125,0.2168173579255475,-0.6443049850249
-3.912,0.1207857842064037,-0.5595318777835605
-3.9115,-0.124628237520297,-0.718481453861072
-3.911,-0.5300948821122373,-0.8774310299385835
-3.9105,-0.9675720512772257,-0.3899856633008816
-3.91,-1.405049220442214,0.2458126410091644
-3.9095,-1.351698346153801,0.4047622170866759
-3.909,-0.8928808272734472,0.1292496185523226
-3.9085,-0.423393133535411,-0.2098428104130352
-3.908,-0.08194753808956648,-0.4323722169215513
-3.9075,0.1101156093487211,-0.5171453241628908
-3.907,0.1954770082101822,-0.4959520473525559
-3.9065,0.2168173579255475,-0.4111789401112165
-3.906,0.2061471830678648,-0.3052125560595421
-3.9055,0.1848068333524996,-0.1992461720078678
-3.905,0.1634664836371343,-0.09327978795619347
-3.9045,0.1527963087794516,0.02328323450064829
-3.904,0.142126133921769,0.1186529801471552
-3.9035,0.08877525963335578,0.2987958330350016
-3.903,-0.4020527838200457,0.627291623595192
-3.9025,-0.9248913518464952,0.92399749893988
-3.902,-1.277007122150022,1.093543713422559
-3.9015,-0.8822106524157645,1.093543713422559
-3.901,-0.09261771294724913,1.019367244586387
-3.9005,0.5796033030867573,0.8816109453192104
-3.9,0.974399772821015,0.4683420475176805
-3.8995,1.081101521397841,-0.04029659593035631
-3.899,0.9850699476786977,-0.5171453241628908
-3.8985,0.7716664505250448,-0.8880276683437509
-3.898,0.6436243522328531,-1.184733543688439
-3.8975,0.6222840025174878,-1.417859588602123
-3.897,0.4835717293676135,-1.301296566145281
-3.8965,0.3448594562177392,-1.046977244421262
-3.896,0.2381577076409128,-0.7608680074817418
-3.8955,0.1527963087794516,-0.5171453241628908
-3.895,-0.1459685872356623,-0.3158091944647096
-3.8945,-0.7328282044082075,-0.07208651114585861
-3.894,-1.373038695869166,0.3623756634660061
-3.8935,-1.810515865034154,0.7862411996727035
-3.893,-1.767835165603424,0.8286277532933731
-3.8925,-1.170305373573196,0.4047622170866759
-3.892,-0.5834457564006506,-0.07208651114585861
-3.8915,-0.1459685872356623,-0.3899856633008816
-3.891,0.09944543449103843,-0.5277419625680583
-3.8905,0.2061471830678648,-0.5277419625680583
-3.89,0.2381577076409128,-0.4641621321370536
-3.8895,0.2168173579255475,-0.3581957480853793
-3.889,0.1954770082101822,-0.2416327256285375
-3.8885,0.1634664836371343,-0.1144730647665284
-3.888,0.1314559590640864,0.01268659609548085
-3.8875,0.1314559590640864,0.1504428953626575
-3.887,0.1101156093487211,0.2987958330350016
