Class_6_Listen_To_Quran/Class_6_Listen_To_Quran_Suko_11.csv

#Digilent WaveForms Oscilloscope Acquisition
#Device Name: EExplorer
#Serial Number: SN:210151A2B84A
#Date Time: 2021-02-04 11:08:12.486
#Sample rate: 2000Hz
#Samples: 16384
#Trigger: Source: Channel 1 Type: Edge Condition: Rising Level: 0 V Hyst.: Auto HoldOff: 0 s
#Channel 1: Range: 1 V/div Offset: 0 V Attenuation: 1 X
#Channel 2: Range: 1 V/div Offset: 0 V Attenuation: 1 X
#Power Supplies: ON
#Fixed Supply: ON
#Voltage: 3.3 V Readback: 3.321 V
#Positive Supply: ON
#Voltage: 3.7 V Readback: 3.715 V
#Current: 40 mA Readback: 18 mA
#Negative Supply: ON
#Voltage: -3.7 V Readback: -3.346 V
#Current: -40 mA Readback: -8 mA
#Reference 1: ON
#Voltage: 0 V
#Reference 2: ON
#Voltage: 0 V

Time (s),Channel 1 (V),Channel 2 (V)
-4.096,0.2701682322139607,1.040560521396722
-4.0955,0.3128489316446524,1.104140351827669
-4.095,0.2701682322139025,0.9239974989396295
-4.0945,0.2061471830678648,0.6484849004055269
-4.094,0.1527963087795002,0.3623756634662664
-4.0935,0.1207857842063746,0.118652980147001
-4.093,0.08877525963335578,-0.05089323433552374
-4.0925,-0.2633405106698511,-0.2416327256283641
-4.092,-0.8288597781277396,-0.8138511995080994
-4.0915,-1.255666772434657,-1.38606967338662
-4.091,-1.735824641030376,-1.216523458903942
-4.0905,-1.661133417026112,-0.474758770541903
-4.09,-1.127624674142465,-0.1250697031716958
-4.0895,-0.5834457564006506,-0.04029659593035631
-4.089,-0.1993194615244249,-0.08268314955098749
-4.0885,0.02475421048725994,-0.1568596183871981
-4.088,0.1207857842064037,-0.1992461720078678
-4.0875,0.1421261339217496,-0.2098428104130256
-4.087,0.1207857842063746,-0.1886495336026714
-4.0865,0.08877525963335578,-0.1568596183871981
-4.086,0.05676473506033698,-0.0826831495510935
-4.0855,0.04609456020262521,-0.00850668071477691
-4.085,0.04609456020262521,0.07626642652648545
-4.0845,-0.1673089369508335,-0.0402965959302503
-4.084,-0.5407650569700269,-0.4641621321373234
-4.0835,-0.658136980404429,-0.7608680074817418
-4.083,-0.5087545323968721,-1.121153713257435
-4.0825,0.1954770082106286,-1.386069673386572
-4.082,0.6863050516635838,-1.333086481360783
-4.0815,0.8676980242441885,-1.025783967610927
-4.081,0.793006800240478,-0.4641621321375644
-4.0805,0.5902734779444399,0.1928294489833272
-4.08,0.3982103305061524,0.6590815388106942
-4.0795,0.2808384070717501,0.8922075837241658
-4.079,0.3982103305061524,0.7650479228622818
-4.0785,0.3982103305061524,0.6696781772158616
-4.078,0.3021787567870959,0.6166949851900727
-4.0775,0.216817357925499,0.5637117931641199
-4.077,0.1634664836371343,0.4895353243280153
-4.0765,0.1527963087794613,0.4471487707073841
-4.076,-0.04993701351709112,0.7968378380777842
-4.0755,-0.6794773301197943,0.701468092431364
-4.075,-1.26633694729234,-0.1356663415768632
-4.0745,-1.799845690176646,-0.8668343915331752
-4.074,-1.991908837614759,-0.6019184314042303
-4.0735,-1.447729919872945,-0.2416327256285375
-4.073,-0.8181896032702413,-0.09327978795632838
-4.0725,-0.3380317346739499,-0.08268314955102604
-4.072,-0.03926683865883591,-0.1250697031716958
-4.0715,0.1101156093485852,-0.167456256792327
-4.071,0.1527963087794419,-0.1992461720078678
-4.0705,0.142126133921769,-0.1992461720078678
-4.07,0.1207857842064231,-0.1780528951975522
-4.0695,0.07810508477564403,-0.1462629799819825
-4.069,0.04609456020262521,-0.09327978795619347
-4.0685,0.03542438534494258,-0.02969995752518888
-4.068,-0.06060718837460878,-0.02969995752556474
-4.0675,-0.5087545323968721,-0.4429688553267188
-4.067,-0.7755089038389382,-0.9304142219644207
-4.0665,-0.7434983792655409,-1.184733543688352
-4.066,-0.3593720843893152,-1.089363798041932
-4.0655,0.07810508477567314,-0.792657922697244
-4.065,0.3661998059328425,-0.4005823017064056
-4.0645,0.4622313796522482,0.07626642652648545
-4.064,0.4195506802215176,0.55311515475902
-4.0635,0.3235191065024612,0.860417668508596
-4.063,0.2488278824986827,1.019367244586512
-4.0625,0.3448594562177392,1.157123543853563
-4.062,0.3982103305061039,1.114736990232933
-4.0615,0.3341892813599789,0.8922075837241465
-4.061,0.2488278824985954,0.6378882620003594
-4.0605,0.1741366584948169,0.4153588554918433
-4.06,0.1421261339219631,0.2458126410092704
-4.0595,0.3555296310754218,0.3623756634660061
-4.059,0.6009436528021226,0.7120647308365314
-4.0585,0.1207857842068404,0.2352160026044307
-4.058,-0.6688071552621118,-0.5171453241628908
-4.0575,-1.351698346153801,-0.3687923864905467
-4.057,-1.319687821580782,-0.00850668071518168
-4.0565,-0.9035510021311299,0.08686306493165288
-4.056,-0.4660738329661415,0.06566978812131802
-4.0555,-0.1459685872359535,0.01268659609552904
-4.055,0.03542438534502021,-0.01910331912003108
-4.0545,0.1207857842064037,-0.02969995752518888
-4.054,0.1314559590640766,0.002089957690284507
-4.0535,0.110115609348692,0.04447651131103134
-4.053,0.07810508477567314,0.09745970333682032
-4.0525,0.05676473506030786,0.1610395337678249
-4.052,0.0460945602025864,0.2246193641988391
-4.0515,0.00341386077189465,0.2352160026039969
-4.051,-0.4020527838200457,-0.1992461720078678
-4.0505,-0.8181896032692902,-0.7184814538605997
-4.05,-0.8822106524157645,-0.9939940523954253
-4.0495,-0.4554036581084589,-1.248313374119443
-4.049,0.2381577076402819,-1.364876396576179
-4.0485,0.6542945270906523,-1.174136905282925
-4.048,0.7823366253827275,-0.792657922697244
-4.0475,0.6863050516636712,-0.2204394488187231
-4.047,0.4942419042251409,0.2881991946301329
-4.0465,0.3235191065023739,0.6166949851900245
-4.046,0.2701682322140092,0.8074344764828649
-4.0455,0.3128489316446524,0.9028042221294778
-4.045,0.2701682322139607,0.8286277532933731
-4.0445,0.2168173579255475,0.701468092431364
-4.044,0.2061471830679134,0.5743084315692392
-4.0435,0.2594980573562781,0.4471487707073456
-4.043,0.2808384070716433,0.3623756634660061
-4.0425,-0.2633405106696765,0.08686306493190343
-4.042,-0.8608703027003992,-0.6231117082145651
-4.0415,-1.074273799854052,-1.227120097309109
-4.041,-1.479740444445624,-0.9410108603698484
-4.0405,-1.586442193022421,-0.1250697031714163
-4.04,-1.148965023857831,0.1822328105781598
-4.0395,-0.6367966306895296,0.1504428953626864
-4.039,-0.2420001609545829,0.03387987290570971
-4.0385,0.00341386077189465,-0.08268314955102604
-4.038,0.110115609348624,-0.135666341576815
-4.0375,0.142126133921769,-0.1250697031716572
-4.037,0.142126133921769,-0.08268314955102604
-4.0365,0.1101156093487211,-0.008506680714854012
-4.036,0.08877525963333636,0.08686306493173962
-4.0355,0.0674349099179905,0.1822328105781598
-4.035,0.04609456020262521,0.2670059178194992
-4.0345,-0.1352984123778147,0.1080563417421323
-4.034,-0.5834457564006506,-0.3793890248957141
-4.0335,-0.807519428411986,-0.7608680074817418
-4.033,-0.6047861061162002,-1.078767159636476
-4.0325,-0.0072563140853804,-1.216523458903787
-4.032,0.4408910299368829,-1.046977244421262
-4.0315,0.6222840025173229,-0.6337083466201083
-4.031,0.6116138276596983,-0.1250697031712235
-4.0305,0.4942419042252961,0.3941655786815084
-4.03,0.3448594562178751,0.7650479228620313
-4.0295,0.2808384070717695,0.9345941373450475
-4.029,0.4195506802215176,0.9345941373450475
-4.0285,0.4195506802215176,0.8286277532933731
-4.028,0.3341892813599692,0.6802748156208845
-4.0275,0.2381577076409128,0.5213252395435176
-4.027,0.1741366584948169,0.3729723018711736
-4.0265,0.1207857842064522,0.2352160026041222
-4.026,-0.1993194615240755,0.457745409112513
-4.0255,-0.7861790786966207,0.6908714540261965
-4.025,-1.223656247861211,0.06566978812188673
-4.0245,-1.703814116457474,-0.548935239378104
-4.024,-1.863866739322568,-0.2310360872233701
-4.0235,-1.36236852101194,0.01268659609525918
-4.023,-0.7648387289808285,0.03387987290575789
-4.0225,-0.2953510352432193,-0.02969995752518888
-4.022,-0.01792648894372295,-0.1038764263612934
-4.0215,0.1207857842064425,-0.1462629799820306
-4.021,0.1634664836371343,-0.1462629799820306
-4.0205,0.1527963087794516,-0.1250697031716958
-4.02,0.110115609348692,-0.08268314955097786
-4.0195,0.07810508477567314,-0.02969995752518888
-4.019,0.04609456020262521,0.03387987290581572
-4.0185,0.02475421048727934,0.09745970333676249
-4.018,-0.06060718837420119,0.04447651131098315
-4.0175,-0.4020527838200457,-0.3687923864905467
-4.017,-0.5621054066851398,-0.6549016234298072
-4.0165,-0.5621054066849359,-0.9198175835594556
-4.016,-0.1779791118087102,-1.142346990067769
-4.0155,0.2594980573558802,-1.131750351662612
-4.015,0.5262524287984121,-0.8562377531278439
-4.0145,0.6009436528021226,-0.4111789401112165
-4.014,0.515582253940739,0.08686306493119988
-4.0135,0.387540155648363,0.5001319627334045
-4.013,0.2701682322139607,0.7438546460520338
-4.0125,0.3875401556484697,0.9875773293708847
-4.012,0.4622313796521803,1.061753798206941
-4.0115,0.3875401556484697,0.9345941373450475
-4.011,0.291508581929326,0.7438546460520338
-4.0105,0.2168173579256154,0.5425185163540356
-4.01,0.2061471830678648,0.4153588554918433
-4.0095,-0.09261771294724913,0.6696781772158616
-4.009,-0.8395299529843545,0.6166949851900727
-4.0085,-1.618452717596517,-0.1674562567926546
-4.008,-2.333354433060604,-0.4853554089473885
-4.0075,-2.525417580498717,0.1504428953620792
-4.007,-2.130621110763799,0.5955017083796029
-4.0065,-1.212986073003927,0.5001319627331828
-4.006,-0.5407650569699201,0.2246193641988295
-4.0055,-0.1139580626624106,-0.01910331912015637
-4.005,0.1101156093487211,-0.1674562567923655
-4.0045,0.1848068333524996,-0.2204394488182027
-4.004,0.1954770082101531,-0.19924617200781
-4.0035,0.1634664836371343,-0.1356663415768632
-4.003,0.1207857842064037,-0.04029659593035631
-4.0025,0.0887752596333849,0.05507314971606385
-4.002,0.07810508477567314,0.1716361721729923
-4.0015,0.04609456020262521,0.2458126410091644
-4.001,-0.3273615598159276,-0.0402965959300961
-4.0005,-0.8181896032699792,-0.5807251545942905
-4,-1.159635198715513,-1.01518732920576
-3.9995,-0.7114878546928423,-1.269506650929778
-3.999,0.00341386077189465,-1.227120097309109
-3.9985,0.4622313796522482,-0.8668343915334161
-3.998,0.6542945270905358,-0.3793890248957141
-3.9975,0.6222840025174878,0.1716361721729923
-3.997,0.4835717293676135,0.6060983467848571
-3.9965,0.3341892813600565,0.8710143069140429
-3.996,0.3341892813600565,1.051157159801889
-3.9955,0.4622313796522482,1.135930267043229
-3.995,0.4195506802215176,0.9134008605347127
-3.9945,0.3235191065023739,0.6166949851900245
-3.994,0.2381577076409128,0.3411823866556712
-3.9935,0.1741366584948169,0.1292496185523226
-3.993,0.04609456020262521,0.002089957690313421
-3.9925,-0.5300948821122373,-0.1462629799820306
-3.992,-1.191645723288561,-0.718481453861072
-3.9915,-1.373038695869166,-1.237716735714276
-3.991,-1.052933450138687,-1.163540266878104
-3.9905,-0.6047861061160158,-0.7820612842920766
-3.99,-0.2313299860971235,-0.3899856633008816
-3.9895,0.00341386077189465,-0.1356663415768632
-3.989,0.1207857842064037,0.01268659609548085
-3.9885,0.1527963087794516,0.07626642652648545
-3.988,0.1527963087794516,0.08686306493165288
-3.9875,0.142126133921769,0.08686306493165288
-3.987,0.1207857842064037,0.08686306493165288
-3.9865,0.08877525963335578,0.08686306493165288
-3.986,0.07810508477567314,0.09745970333682032
-3.9855,0.0674349099179905,0.1186529801471552
-3.985,0.05676473506030786,0.1504428953626575
-3.9845,-0.1352984123779797,-0.09327978795619347
-3.984,-0.4874141826815069,-0.6654982618352349
-3.9835,-0.6688071552621118,-1.05757388282643
-3.983,-0.4127229586777283,-1.311893204550448
-3.9825,0.2808384070716433,-1.576809164679634
-3.982,0.7183155762366316,-1.502632695843462
-3.9815,0.8463576745288233,-1.142346990067769
-3.981,0.7609962756673623,-0.6125150698093976
-3.9805,0.5689331282290746,-0.04029659593035631
-3.98,0.3768699807907871,0.4047622170866759
-3.9795,0.2808384070716433,0.7120647308365314
-3.979,0.3341892813600565,0.9451907757502149
-3.9785,0.3235191065023739,0.92399749893988
-3.978,0.2808384070716433,0.7862411996727035
-3.9775,0.291508581929326,0.6166949851900245
-3.977,0.2701682322139607,0.4471487707073456
-3.9765,0.2274875327832301,0.3305857482505039
-3.976,0.1527963087794516,0.5849050699745222
-3.9755,-0.2526703358124887,0.55311515475902
-3.975,-0.754168554123573,-0.1038764263613609
-3.9745,-1.26633694729234,-0.09327978795619347
-3.974,-1.799845690176472,0.5637117931641874
-3.9735,-1.703814116457328,0.8604176685088755
-3.973,-1.127624674142465,0.6166949851900245
-3.9725,-0.5621054066852853,0.2352160026039969
-3.972,-0.1673089369510276,-0.04029659593035631
-3.9715,0.0674349099179905,-0.1886495336027004
-3.971,0.1634664836371343,-0.1992461720078678
-3.9705,0.1741366584948169,-0.1250697031716958
-3.97,0.1527963087794516,-0.01910331912002144
-3.9695,0.08877525963335578,0.09745970333682032
-3.969,0.05676473506030786,0.2246193641988295
-3.9685,0.04609456020262521,0.3517790250608387
-3.968,-0.007256314085787988,0.3941655786815084
-3.9675,-0.2526703358124887,0.1292496185523226
-3.967,-0.4554036581084589,-0.1886495336027004
-3.9665,-0.690147504977477,-0.5807251545938954
-3.966,-0.4554036581084589,-0.8456411147230812
-3.9655,0.00341386077189465,-0.8668343915334161
-3.965,0.3555296310754218,-0.6654982618352349
-3.9645,0.5049120790829789,-0.2946159176543747
-3.964,0.4729015545099309,0.2246193641988295
-3.9635,0.3768699807907871,0.6060983467848571
-3.963,0.2808384070716433,0.8074344764830383
-3.9625,0.3661998059331045,0.7120647308365314
-3.962,0.408880505363835,0.55311515475902
-3.9615,0.3555296310754218,0.4683420475176805
-3.961,0.2701682322139607,0.3729723018711736
-3.9605,0.1954770082101822,0.2564092794143318
-3.96,0.1634664836371343,0.13984625695749
-3.9595,0.2168173579255475,0.13984625695749
-3.959,-0.1993194615240755,-0.1462629799820306
-3.9585,-0.7114878546928423,-0.7820612842920766
-3.958,-1.170305373573196,-0.8350444763179138
-3.9575,-1.725154466172693,-0.01910331912002144
-3.957,-1.799845690176472,0.6166949851900245
-3.9565,-1.244996597576974,0.5425185163538525
-3.956,-0.6688071552621118,0.2034260873884947
-3.9555,-0.2206598112394408,-0.1250697031716958
-3.955,0.03542438534494258,-0.326405832869877
-3.9545,0.1527963087794516,-0.400582301706049
-3.954,0.1848068333524996,-0.3687923864905467
-3.9535,0.1527963087794516,-0.2840192792492073
-3.953,0.1207857842064037,-0.1568596183871981
-3.9525,0.1101156093487211,-0.008506680714854012
-3.952,0.08877525963335578,0.13984625695749
-3.9515,0.04609456020262521,0.2458126410091644
-3.951,-0.3380317346739499,-0.02969995752518888
-3.9505,-0.6474668055467465,-0.4535654937318862
-3.95,-0.6367966306890638,-0.5913217929990628
-3.9495,-0.2206598112394408,-0.7396747306714069
-3.949,0.3021787567870086,-0.7820612842920766
-3.9485,0.6009436528021226,-0.5489352393783931
-3.948,0.6436243522328531,-0.1568596183871981
-3.9475,0.5582629533713921,0.2987958330350016
-3.947,0.4195506802215176,0.701468092431364
-3.9465,0.3021787567870086,0.9557874141553824
-3.946,0.3341892813600565,1.082947075017392
-3.9455,0.4622313796522482,1.104140351827727
-3.945,0.4195506802215176,0.9769806909657173
-3.9445,0.3235191065023739,0.7862411996727035
-3.944,0.2594980573562781,0.5849050699745222
-3.9435,0.2274875327832301,0.3941655786815084
-3.943,0.1954770082101822,0.3411823866556712
-3.9425,-0.2099896363817582,0.7650479228623686
-3.942,-0.8928808272734472,0.849821030103708
-3.9415,-1.330357996438436,0.1822328105781598
-3.941,-1.746494815888059,0.08686306493165288
-3.9405,-1.565101843307454,0.2881991946298341
-3.94,-1.010252750707956,0.1822328105781598
-3.9395,-0.4874141826815069,-0.02969995752518888
-3.939,-0.1139580626626144,-0.1992461720078678
-3.9385,0.08877525963335578,-0.2946159176543747
-3.938,0.1741366584948169,-0.3158091944647096
-3.9375,0.1848068333524996,-0.2840192792492073
-3.937,0.1527963087794516,-0.2098428104130352
-3.9365,0.1207857842064037,-0.1144730647665284
-3.936,0.09944543449103843,0.002089957690313421
-3.9355,0.08877525963335578,0.1186529801471552
-3.935,0.08877525963335578,0.2352160026039969
-3.9345,-0.07127736323188383,0.09745970333682032
-3.934,-0.3487019095316325,-0.2840192792492073
-3.9335,-0.7968492535543035,-0.7290780922662394
-3.933,-0.8288597781273515,-1.078767159636765
-3.9325,-0.2099896363817582,-1.237716735714276
-3.932,0.3128489316446912,-1.036380606016095
-3.9315,0.5796033030867573,-0.6125150698093976
-3.931,0.6222840025174878,-0.08268314955102604
-3.9305,0.5155822539406614,0.4365521323021782
-3.93,0.3768699807907871,0.7650479228623686
-3.9295,0.3128489316446912,0.92399749893988
-3.929,0.408880505363835,1.072350436612224
-3.9285,0.3875401556484697,0.9663840525605498
-3.928,0.3128489316446912,0.7438546460520338
-3.9275,0.2381577076409128,0.5001319627331828
-3.927,0.1848068333524996,0.2881991946298341
-3.9265,0.1314559590640864,0.1080563417419877
-3.926,-0.3166913849585846,-0.1462629799820306
-3.9255,-0.7755089038389382,-0.6972881770507372
-3.925,-1.212986073003927,-1.322489842955616
-3.9245,-1.586442193022819,-1.375473034981453
-3.924,-1.362368521011484,-0.8244478379127463
-3.9235,-0.8502001278427167,-0.400582301706049
-3.923,-0.3807124341046804,-0.1568596183871981
-3.9225,-0.06060718837420119,-0.05089323433552374
-3.922,0.1101156093487211,-0.01910331912002144
-3.9215,0.1741366584948169,-0.01910331912002144
-3.921,0.1848068333524996,-0.02969995752518888
-3.9205,0.1741366584948169,-0.02969995752518888
-3.92,0.142126133921769,-0.01910331912002144
-3.9195,0.1101156093487211,0.002089957690313421
-3.919,0.07810508477567314,0.03387987290581572
-3.9185,0.0674349099179905,0.07626642652648545
-3.918,-0.01792648894347063,-0.008506680714854012
-3.9175,-0.391382608962363,-0.4535654937318862
-3.917,-0.690147504977477,-0.8774310299385835
-3.9165,-0.7328282044082075,-0.9622041371799229
-3.916,-0.3487019095316325,-0.718481453861072
-3.9155,0.142126133921769,-0.6866915386455698
-3.915,0.4622313796522482,-0.5913217929990628
-3.9145,0.5689331282290746,-0.2840192792492073
-3.914,0.5155822539406614,0.1186529801471552
-3.9135,0.408880505363835,0.457745409112513
-3.913,0.3128489316446912,0.6590815388106942
-3.9125,0.4195506802215176,0.9028042221295453
-3.912,0.4729015545099309,0.9345941373450475
-3.9115,0.408880505363835,0.775644561267536
-3.911,0.3021787567870086,0.5743084315693548
-3.9105,0.2274875327832301,0.3941655786815084
-3.91,0.1954770082101822,0.2670059178194992
-3.9095,0.2381577076409128,0.457745409112513
-3.909,-0.1673089369510276,0.8074344764830383
-3.9085,-0.8502001278427167,0.3411823866556712
-3.908,-1.341028171296118,0.07626642652648545
-3.9075,-1.87453691418025,0.5743084315693548
-3.907,-1.895877263895616,0.9557874141553824
-3.9065,-1.277007122150022,0.7544512844572011
-3.906,-0.658136980404429,0.3729723018711736
-3.9055,-0.2099896363817582,0.07626642652648545
-3.905,0.05676473506030786,-0.08268314955102604
-3.9045,0.1741366584948169,-0.09327978795619347
-3.904,0.2061471830678648,-0.01910331912002144
-3.9035,0.1848068333524996,0.09745970333682032
-3.903,0.1527963087794516,0.2458126410091644
-3.9025,0.1207857842064037,0.383568940276341
-3.902,0.08877525963335578,0.5001319627331828
-3.9015,0.05676473506030786,0.5743084315693548
-3.901,-0.2420001609548061,0.2564092794143318
-3.9005,-0.5194247072545548,-0.2098428104130352
-3.9,-0.5941159312583333,-0.4217755785163839
-3.8995,-0.2206598112394408,-0.1886495336027004
-3.899,0.2701682322139607,-0.3052125560595421
-3.8985,0.5902734779444399,-0.4853554089473885
-3.898,0.6863050516635838,-0.474758770542221
-3.8975,0.6222840025174878,-0.1356663415768632
-3.897,0.4729015545099309,0.2140227257936621
-3.8965,0.3341892813600565,0.4471487707073456
-3.896,0.291508581929326,0.6166949851900245
-3.8955,0.2808384070716433,0.6696781772158616
-3.895,0.2381577076409128,0.5849050699745222
-3.8945,0.2061471830678648,0.457745409112513
-3.894,0.1741366584948169,0.3199891098453364
-3.8935,0.1634664836371343,0.1928294489833272
-3.893,0.1741366584948169,0.2352160026039969
-3.8925,-0.09261771294724913,0.7544512844572011
-3.892,-0.8288597781273515,1.061753798207057
-3.8915,-1.383708870726849,0.5425185163538525
-3.891,-1.351698346153801,0.1822328105781598
-3.8905,-0.9142211769888124,0.002089957690313421
-3.89,-0.4554036581084589,-0.08268314955102604
-3.8895,-0.1139580626626144,-0.07208651114585861
-3.889,0.08877525963335578,-0.02969995752518888
-3.8885,0.1741366584948169,0.03387987290581572
