Class_6_Listen_To_Quran/Class_6_Listen_To_Quran_Suko_2.csv

#Digilent WaveForms Oscilloscope Acquisition
#Device Name: EExplorer
#Serial Number: SN:210151A2B84A
#Date Time: 2020-10-27 13:56:59.122
#Sample rate: 2000Hz
#Samples: 16384
#Trigger: Source: Channel 1 Type: Edge Condition: Rising Level: 0 V Hyst.: Auto HoldOff: 0 s
#Channel 1: Range: 1 V/div Offset: 0 V Attenuation: 1 X
#Channel 2: Range: 1 V/div Offset: 0 V Attenuation: 1 X
#Power Supplies: ON
#Fixed Supply: ON
#Voltage: 3.3 V Readback: 3.314 V
#Positive Supply: ON
#Voltage: 3.7 V Readback: 3.717 V
#Current: 500 mA Readback: 20 mA
#Negative Supply: ON
#Voltage: -3.7 V Readback: -3.701 V
#Current: -500 mA Readback: -5 mA
#Reference 1: ON
#Voltage: 0 V
#Reference 2: ON
#Voltage: 0 V

Time (s),Channel 1 (V),Channel 2 (V)
-4.096,-1.629122892453549,-0.6443049850249
-4.0955,-1.234326422719651,-0.9728007755847916
-4.095,-0.6581369804039632,-0.7714646458866105
-4.0945,-0.1459685872356623,-0.4429688553267188
-4.094,0.1634664836368529,-0.1780528951977738
-4.0935,0.31284893164473,-0.04029659593033703
-4.093,0.3555296310754218,-0.01910331912002144
-4.0925,0.3448594562177489,-0.09327978795612601
-4.092,0.3555296310754509,-0.2416327256287399
-4.0915,0.3875401556484697,-0.4641621321370536
-4.091,0.3555296310754218,-0.5913217929990628
-4.0905,0.3128489316446524,-0.6760949002404408
-4.09,0.2701682322139607,-0.718481453861072
-4.0895,0.2701682322139607,-0.7290780922662394
-4.089,0.6863050516632053,-0.3370024712754011
-4.0885,1.529248865420512,0.4365521323021782
-4.088,1.956055859727818,0.8604176685088755
-4.0875,1.219813794548385,0.1292496185529877
-4.087,-0.1886492866673439,-0.5595318777832811
-4.0865,-1.234326422719292,-0.252229364033705
-4.086,-1.277007122149983,-0.02969995752539129
-4.0855,-0.8608703026999819,0.01268659609548085
-4.085,-0.4020527838200457,0.01268659609548085
-4.0845,-0.06060718837451173,0.04447651131095424
-4.084,0.1421261339218466,0.1186529801472323
-4.0835,0.2274875327832301,0.2034260873884947
-4.083,0.2274875327832301,0.3305857482505039
-4.0825,0.1954770082101531,0.447148770707442
-4.082,0.1634664836371343,0.55311515475902
-4.0815,0.1314559590640864,0.627291623595192
-4.081,-0.01792648894333476,0.5531151547590875
-4.0805,-0.722158029550525,0.1928294489833272
-4.08,-1.458400094730627,-0.4323722169215513
-4.0795,-1.543761493592011,-1.142346990067124
-4.079,-1.127624674141951,-1.301296566144972
-4.0785,-0.5621054066852853,-0.9622041371799229
-4.078,-0.103287887805349,-0.5277419625684534
-4.0775,0.184806833352616,-0.209842810412881
-4.077,0.3128489316446912,-0.04029659593035631
-4.0765,0.355529631075383,0.002089957690274868
-4.076,0.3448594562177197,-0.0720865111459839
-4.0755,0.3235191065023739,-0.2098428104130352
-4.075,0.3875401556484697,-0.5171453241628908
-4.0745,0.3982103305061039,-0.6231117082145844
-4.074,0.3448594562177392,-0.6443049850249
-4.0735,0.291508581929326,-0.6443049850249
-4.073,0.2488278824986342,-0.6443049850249
-4.0725,0.4302208550792003,-0.4429688553267188
-4.072,0.974399772821015,0.1822328105781598
-4.0715,1.113112045970763,0.7226613692412074
-4.071,1.326515543123863,1.11473699023273
-4.0705,0.5796033030867573,0.9345941373450475
-4.07,-0.5941159312572657,1.082947075017257
-4.0695,-1.020922925565464,0.9557874141549969
-4.069,-0.8288597781273515,0.5319218779486851
-4.0685,-0.4554036581084589,0.1504428953626575
-4.068,-0.1352984123777856,-0.04029659593038522
-4.0675,0.07810508477567314,-0.07208651114585861
-4.067,0.1848068333524996,0.02328323450064829
-4.0665,0.2168173579255281,0.1716361721731658
-4.066,0.1954770082101822,0.3623756634660061
-4.0655,0.1634664836371343,0.5319218779486851
-4.065,0.1421261339217884,0.6696781772157363
-4.0645,0.05676473506030786,0.7226613692416989
-4.064,-0.5087545323968721,0.4471487707073456
-4.0635,-1.37303869586838,0.4577454091125034
-4.063,-2.141291285622258,0.1080563417416408
-4.0625,-2.07727023647622,-0.2734226408440398
-4.062,-1.351698346154461,-0.2840192792491976
-4.0615,-0.626126455830896,-0.146262979981915
-4.061,-0.09261771294724913,-0.01910331912002144
-4.0605,0.2061471830678648,0.04447651131098315
-4.06,0.3341892813600856,0.00208995769019777
-4.0595,0.3661998059331045,-0.1250697031716958
-4.059,0.3555296310754218,-0.2734226408440398
-4.0585,0.4729015545098241,-0.4323722169214068
-4.058,0.5689331282290746,-0.6125150698093976
-4.0575,0.5049120790829789,-0.6972881770507372
-4.057,0.3875401556485765,-0.7290780922662106
-4.0565,0.3021787567870086,-0.7396747306714069
-4.056,0.3128489316446912,-0.6760949002404023
-4.0555,0.867698024243684,-0.1462629799825125
-4.055,1.731982187717045,0.6696781772164399
-4.0545,2.350852329462076,1.305476481525908
-4.054,1.78533306200541,0.9134008605350693
-4.0535,0.2594980573552591,0.4895353243281214
-4.053,-0.8608703027003992,0.6060983467848571
-4.0525,-1.010252750707956,0.457745409112513
-4.052,-0.7114878546925026,0.2246193641986946
-4.0515,-0.3380317346739499,0.07626642652648545
-4.051,-0.04993701351651855,0.04447651131098315
-4.0505,0.1207857842062484,0.1080563417419299
-4.05,0.1954770082101822,0.2246193641988295
-4.0495,0.2061471830678648,0.3729723018711736
-4.049,0.1634664836371731,0.5425185163536983
-4.0485,0.1207857842063746,0.6802748156210966
-4.048,0.08877525963335578,0.7544512844572011
-4.0475,-0.1779791118084676,0.5319218779488875
-4.047,-0.8075194284123935,-0.209842810413787
-4.0465,-1.255666772434657,-1.036380606016095
-4.046,-1.383708870726732,-1.5874058030843
-4.0455,-1.074273799853635,-1.407262950196406
-4.045,-0.6154562809736985,-0.8032545611024114
-4.0445,-0.1779791118087102,-0.2840192792492073
-4.044,0.1101156093488569,0.01268659609555796
-4.0435,0.2594980573562781,0.09745970333682032
-4.043,0.3128489316446912,-0.008506680714854012
-4.0425,0.3128489316446912,-0.1886495336025366
-4.042,0.3555296310754218,-0.4217755785163839
-4.0415,0.5049120790829789,-0.6972881770507372
-4.041,0.4835717293676329,-0.8032545611023151
-4.0405,0.3982103305060747,-0.8138511995075692
-4.04,0.3128489316446912,-0.8032545611024114
-4.0395,0.2701682322139995,-0.7926579226972537
-4.039,0.6222840025180604,-0.559531877783069
-4.0385,1.251824319120764,-0.01910331912002144
-4.038,1.305175193409128,-0.09327978795612601
-4.0375,0.6009436528010357,-0.8244478379131511
-4.037,-0.5941159312583333,-1.269506650929778
-4.0365,-1.543761493592088,-0.6231117082145651
-4.036,-1.53309131873394,-0.07208651114571404
-4.0355,-1.020922925565639,0.08686306493165288
-4.035,-0.4767440078238243,0.08686306493165288
-4.0345,-0.09261771294759852,0.0762664265264951
-4.034,0.1314559590640864,0.1080563417419877
-4.0335,0.2274875327832301,0.1716361721729923
-4.033,0.248827882498576,0.2670059178194125
-4.0325,0.2168173579255087,0.3941655786816144
-4.032,0.1741366584948169,0.5107286011383502
-4.0315,0.1314559590641252,0.6060983467847704
-4.031,-0.01792648894408201,0.553115154758461
-4.0305,-0.690147504977477,-0.06148987274069118
-4.03,-1.287677297007161,-0.9198175835584727
-4.0295,-1.522421143876539,-1.587405803084849
-4.029,-1.319687821580753,-1.640388995110639
-4.0285,-0.7434983792658902,-1.068170521231597
-4.028,-0.1779791118083997,-0.4747587705418837
-4.0275,0.1634664836371343,-0.1038764263613609
-4.027,0.3341892813600565,0.06566978812131802
-4.0265,0.3768699807907483,0.07626642652647581
-4.026,0.3661998059331045,-0.02969995752518888
-4.0255,0.3448594562177392,-0.1992461720078678
-4.025,0.4088805053637768,-0.5489352393780751
-4.0245,0.3982103305061039,-0.7184814538611202
-4.024,0.3448594562177392,-0.7714646458869092
-4.0235,0.2915085819293745,-0.7714646458869092
-4.023,0.2488278824987701,-0.7608680074815297
-4.0225,0.4408910299368829,-0.5277419625680583
-4.022,1.134452395685624,0.1822328105775141
-4.0215,1.550589215135907,0.9239974989401981
-4.021,1.582599739708926,1.273686566310405
-4.0205,0.6329541773751706,0.6802748156210291
-4.02,-0.6581369804048851,0.5955017083797378
-4.0195,-1.159635198715513,0.6484849004055269
-4.019,-0.9569018764195432,0.4047622170866759
-4.0185,-0.5407650569702985,0.1610395337680466
-4.018,-0.1779791118087102,0.03387987290581572
-4.0175,0.05676473506030786,0.03387987290581572
-4.017,0.1848068333523831,0.1292496185522359
-4.0165,0.2168173579255475,0.2670059178196342
-4.016,0.2168173579255475,0.4153588554918433
-4.0155,0.1848068333525287,0.5637117931640525
-4.015,0.1527963087793934,0.6908714540262351
-4.0145,0.08877525963335578,0.7332580076468663
-4.014,-0.4447334832502911,0.2564092794147655
-4.0135,-1.30901764672374,-0.5913217929997279
-4.013,-2.045259711903173,-1.322489842955616
-4.0125,-2.269333383914508,-1.672178910326141
-4.012,-1.650463242168197,-1.290699927739535
-4.0115,-0.8608703027003992,-0.6549016234300674
-4.011,-0.2313299860971235,-0.1992461720078678
-4.0105,0.1634664836367752,0.05507314971591926
-4.01,0.3448594562177392,0.1186529801471552
-4.0095,0.3982103305061524,0.02328323450064829
-4.009,0.3875401556484794,-0.1356663415767186
-4.0085,0.4195506802215467,-0.3687923864907588
-4.008,0.4515612047945656,-0.6019184314042303
-4.0075,0.387540155648528,-0.7502713690764394
-4.007,0.3128489316446427,-0.8350444763179716
-4.0065,0.2594980573562781,-0.8986243067489184
-4.006,0.3128489316446912,-0.8456411147230812
-4.0055,0.8997085488177411,-0.2628260024382749
-4.005,1.454557641416734,0.3941655786815084
-4.0045,1.593269914566608,0.8710143069140429
-4.004,1.059761171681312,0.7226613692417085
-4.0035,-0.2206598112394408,0.7332580076468663
-4.003,-1.031593100423322,0.8816109453192104
-4.0025,-0.9995825758503027,0.6166949851902654
-4.002,-0.6367966306890638,0.2881991946298341
-4.0015,-0.2633405106701714,0.08686306493165288
-4.001,0.003413860771652011,0.03387987290586391
-4.0005,0.1527963087795099,0.1186529801472805
-4,0.2168173579255475,0.2564092794143318
-3.9995,0.2274875327832301,0.4259554938970107
-3.999,0.2168173579255475,0.5849050699745222
-3.9985,0.1848068333524996,0.7332580076468663
-3.998,0.142126133921769,0.8392243916985406
-3.9975,-0.2313299860971235,0.6590815388106942
-3.997,-0.9035510021311299,0.01268659609548085
-3.9965,-1.223656247861609,-0.7608680074817418
-3.996,-1.116954499284783,-1.280103289334946
-3.9955,-0.658136980404429,-1.227120097309109
-3.995,-0.2206598112394408,-0.7290780922662394
-3.9945,0.09944543449103843,-0.2310360872233701
-3.994,0.2594980573562781,0.09745970333682032
-3.9935,0.3235191065023739,0.1928294489833272
-3.993,0.3235191065023739,0.1080563417419877
-3.9925,0.3128489316446912,-0.09327978795619347
-3.992,0.3448594562177392,-0.3370024712750445
-3.9915,0.4729015545099309,-0.6019184314042303
-3.991,0.4729015545099309,-0.7714646458869092
-3.9905,0.3875401556484697,-0.8774310299385835
-3.99,0.3021787567870086,-0.9410108603695881
-3.9895,0.2701682322139607,-0.9728007755850904
-3.989,0.6542945270905358,-0.5913217929990628
-3.9885,1.294505018551494,0.1822328105781598
-3.988,1.497238340847464,0.8604176685088755
-3.9875,0.9850699476786977,0.6802748156210291
-3.987,-0.2206598112394408,-0.1674562567923655
-3.9865,-1.298347471865388,-0.1144730647665284
-3.986,-1.426389570157579,0.08686306493165288
-3.9855,-0.9995825758502737,0.07626642652648545
-3.985,-0.4980843575391895,0.04447651131098315
-3.9845,-0.1139580626626144,0.06566978812131802
-3.984,0.1101156093487211,0.13984625695749
-3.9835,0.2168173579255475,0.2564092794143318
-3.983,0.2274875327832301,0.4153588554918433
-3.9825,0.1954770082101822,0.5637117931641874
-3.982,0.142126133921769,0.6908714540261965
-3.9815,0.1101156093487211,0.775644561267536
-3.981,-0.02859666380115328,0.7544512844572011
-3.9805,-0.6047861061160158,0.2458126410091644
-3.98,-1.1062843244271,-0.5807251545938954
-3.9795,-1.575772018165136,-1.322489842955616
-3.979,-1.575772018165136,-1.51322933424863
-3.9785,-1.042263275281004,-1.068170521231597
-3.978,-0.4447334832507763,-0.5171453241628908
-3.9775,0.00341386077189465,-0.1144730647665284
-3.977,0.2488278824985954,0.06566978812131802
-3.9765,0.3555296310754218,0.05507314971615059
-3.976,0.3768699807907871,-0.06148987274069118
-3.9755,0.3661998059331045,-0.2098428104130352
-3.975,0.4622313796522482,-0.3899856633008816
-3.9745,0.4729015545099309,-0.5807251545938954
-3.974,0.3982103305061524,-0.7396747306714069
-3.9735,0.3128489316446912,-0.8562377531282487
-3.973,0.2594980573562781,-0.9198175835592532
-3.9725,0.4302208550792003,-0.7078848154559045
-3.972,1.15579274540162,0.01268659609548085
-3.9715,1.796003236862578,0.7862411996727035
-3.971,1.881364635724039,1.167720182258731
-3.9705,0.8997085488172365,0.6060983467848571
-3.97,-0.4874141826815069,0.5319218779486851
-3.9695,-1.095614149569417,0.5849050699745222
-3.969,-0.9462317015618604,0.3729723018711736
-3.9685,-0.5621054066852853,0.1716361721729923
-3.968,-0.1993194615240755,0.09745970333682032
-3.9675,0.04609456020262521,0.13984625695749
-3.967,0.1741366584948169,0.2564092794143318
-3.9665,0.2168173579255475,0.4153588554918433
-3.966,0.2061471830678648,0.6060983467848571
-3.9655,0.1634664836371343,0.7968378380778709
-3.965,0.1314559590640864,0.9134008605347127
-3.9645,0.05676473506030786,0.9557874141553824
-3.964,-0.4874141826815069,0.55311515475902
-3.9635,-1.351698346153801,-0.2416327256285375
-3.963,-1.949228138184029,-1.036380606016095
-3.9625,-2.269333383914508,-1.576809164679634
-3.962,-1.917217613610981,-1.47084278062796
-3.9615,-1.159635198715513,-0.8880276683437509
-3.961,-0.4660738329661415,-0.3793890248957141
-3.9605,0.01408403562957729,-0.1038764263613609
-3.96,0.2701682322139607,-0.02969995752518888
-3.9595,0.3555296310754218,-0.1144730647665284
-3.959,0.3661998059331045,-0.2628260024388724
-3.9585,0.4302208550792003,-0.4111789401112165
-3.958,0.4835717293676135,-0.5807251545938954
-3.9575,0.4195506802215176,-0.7714646458869092
-3.957,0.3341892813600565,-0.9304142219644207
-3.9565,0.2701682322139607,-1.05757388282643
-3.956,0.3021787567870086,-1.036380606016095
-3.9555,0.8356874996711408,-0.4641621321370536
-3.955,1.273164668836129,0.309392471440169
-3.9545,0.8997085488172365,0.7438546460520338
-3.954,-0.01792648894347063,0.4365521323021782
-3.9535,-1.159635198715513,0.3305857482505039
-3.953,-1.67180359188428,0.5955017083796896
-3.9525,-1.341028171296118,0.5001319627331828
-3.952,-0.7648387289812555,0.2881991946298341
-3.9515,-0.2846808603855366,0.1610395337678249
-3.951,0.03542438534494258,0.1610395337678249
-3.9505,0.1954770082101822,0.2564092794143318
-3.95,0.2488278824985954,0.4047622170866759
-3.9495,0.2274875327832301,0.5955017083796896
-3.949,0.1848068333524996,0.7650479228623686
-3.9485,0.1527963087794516,0.9028042221295453
-3.948,0.1101156093487211,0.9875773293708847
-3.9475,-0.1993194615240755,0.9451907757502149
-3.947,-0.9248913518464952,0.6802748156210291
-3.9465,-1.437059745015262,-0.06148987274069118
-3.946,-1.693143941599645,-0.8138511995075789
-3.9455,-1.405049220442214,-0.9304142219644207
-3.945,-0.7968492535543035,-0.5277419625680583
-3.9445,-0.2633405106701714,-0.1038764263613609
-3.944,0.1101156093487211,0.08686306493165288
-3.9435,0.291508581929326,0.08686306493165288
-3.943,0.3555296310754218,-0.06148987274069118
-3.9425,0.3555296310754218,-0.2628260024388724
-3.942,0.3768699807907871,-0.5065486857577234
-3.9415,0.4729015545099309,-0.7820612842920766
-3.941,0.4515612047945656,-0.8880276683437509
-3.9405,0.3661998059331045,-0.9198175835592532
-3.94,0.3021787567870086,-0.9410108603695881
-3.9395,0.2594980573562781,-0.9516074987747555
-3.939,0.5262524287983441,-0.6972881770507372
-3.9385,1.326515543124542,0.05507314971615059
-3.938,1.966726034585501,0.8286277532933731
-3.9375,1.828013761435626,0.9663840525605498
-3.937,0.5475927785137094,0.3411823866556712
-3.9365,-0.7861790786966207,0.457745409112513
-3.936,-1.191645723288561,0.5425185163538525
-3.9355,-0.9355615267041777,0.3411823866556712
-3.935,-0.5087545323968721,0.1504428953626575
-3.9345,-0.1459685872356623,0.06566978812131802
-3.934,0.07810508477567314,0.08686306493165288
-3.9335,0.1954770082101822,0.1928294489833272
-3.933,0.2274875327832301,0.3411823866556712
-3.9325,0.2061471830678648,0.5001319627331828
-3.932,0.142126133921769,0.6802748156210291
-3.9315,0.09944543449103843,0.8074344764830383
-3.931,-0.02859666380115328,0.7862411996727035
-3.9305,-0.6261264558313813,0.1928294489833272
-3.93,-1.415719395299897,-0.6654982618352349
-3.9295,-2.045259711903173,-1.375473034981453
-3.929,-2.055929886760855,-1.555615887869299
-3.9285,-1.373038695869166,-1.046977244421262
-3.928,-0.6154562809736985,-0.4217755785163839
-3.9275,-0.06060718837420119,-0.06148987274069118
-3.927,0.2381577076409128,0.09745970333682032
-3.9265,0.3555296310754218,0.07626642652648545
-3.926,0.3768699807907871,-0.05089323433552374
-3.9255,0.3661998059331045,-0.252229364033705
-3.925,0.4729015545099309,-0.5807251545938954
-3.9245,0.4942419042252961,-0.7608680074817418
-3.924,0.4408910299368829,-0.8244478379127463
-3.9235,0.3661998059331045,-0.8456411147230812
-3.923,0.291508581929326,-0.8668343915334161
-3.9225,0.4408910299368829,-0.6866915386455698
-3.922,1.102441871113207,0.01268659609548085
-3.9215,1.390536592270638,0.6802748156210291
-3.921,0.8143471499557753,0.5955017083796896
-3.9205,-0.1459685872356623,0.4259554938970107
-3.92,-1.180975548430879,0.7862411996727035
-3.9195,-1.447729919872945,0.8710143069140429
-3.919,-1.06360362499637,0.5213252395435176
-3.9185,-0.5514352318276028,0.1610395337678249
-3.918,-0.1459685872356623,-0.05089323433552374
-3.9175,0.09944543449103843,-0.08268314955102604
-3.917,0.2168173579255475,0.01268659609548085
-3.9165,0.2488278824985954,0.1716361721729923
-3.916,0.2274875327832301,0.3729723018711736
-3.9155,0.1954770082101822,0.55311515475902
-3.915,0.1527963087794516,0.7120647308365314
-3.9145,0.08877525963335578,0.8180311148882058
-3.914,-0.4127229586777283,0.4683420475176805
-3.9135,-1.277007122150022,-0.2840192792492073
-3.913,-2.066600061618538,-1.01518732920576
-3.9125,-2.23732285934146,-1.269506650929778
-3.912,-1.565101843307454,-0.8244478379127463
-3.9115,-0.7968492535543035,-0.2204394488182027
-3.911,-0.1886492866663929,0.1610395337678249
-3.9105,0.1848068333524996,0.2881991946298341
-3.91,0.3555296310754218,0.2458126410091644
-3.9095,0.3875401556484697,0.09745970333682032
-3.909,0.3768699807907871,-0.1144730647665284
-3.9085,0.4302208550792003,-0.4535654937318862
-3.908,0.5582629533713921,-0.8032545611024114
-3.9075,0.5049120790829789,-0.8986243067489184
-3.907,0.408880505363835,-0.8986243067489184
-3.9065,0.3235191065023739,-0.8880276683437509
-3.906,0.3341892813600565,-0.8350444763179138
-3.9055,0.857027849386506,-0.3158091944647096
-3.905,1.305175193409177,0.4365521323021782
-3.9045,1.401206767128321,0.9769806909657173
-3.904,0.9637295979633325,0.8604176685088755
-3.9035,-0.2313299860971235,0.7862411996727035
-3.903,-0.9889124009925911,0.8604176685088755
-3.9025,-0.9355615267041777,0.5425185163538525
-3.902,-0.5834457564006506,0.1716361721729923
-3.9015,-0.2206598112394408,-0.05089323433552374
-3.901,0.02475421048725994,-0.1144730647665284
-3.9005,0.1634664836371343,-0.05089323433552374
-3.9,0.2274875327832301,0.07626642652648545
-3.8995,0.2168173579255475,0.2670059178194992
-3.899,0.1954770082101822,0.4365521323021782
-3.8985,0.1527963087794516,0.5955017083796896
-3.898,0.1207857842064037,0.7120647308365314
-3.8975,-0.2099896363817582,0.7544512844572011
-3.897,-1.031593100423322,0.6802748156210291
-3.8965,-1.789175515318789,0.8180311148882058
-3.896,-1.83185621474952,0.7226613692416989
-3.8955,-1.287677297007705,0.2987958330350016
-3.895,-0.6367966306890638,0.03387987290581572
-3.8945,-0.1139580626626144,-0.1144730647665284
-3.894,0.1848068333524996,-0.1886495336027004
-3.8935,0.3235191065023739,-0.2310360872233701
-3.893,0.3768699807907871,-0.2734226408440398
-3.8925,0.3661998059331045,-0.326405832869877
-3.892,0.3875401556484697,-0.4217755785163839
-3.8915,0.4942419042252961,-0.6337083466197325
-3.891,0.4729015545099309,-0.6549016234300674
-3.8905,0.3982103305061524,-0.5595318777835605
-3.89,0.3128489316446912,-0.4641621321370536
-3.8895,0.2701682322139607,-0.3899856633008816
-3.889,0.5796033030867573,-0.1144730647665284
-3.8885,1.390536592270638,0.5319218779486851
-3.888,2.105438307735375,1.188913459069066
-3.8875,2.073427783162327,1.273686566310405
