Class_6_Listen_To_Quran/Class_6_Listen_To_Quran_UZ_5.csv

#Digilent WaveForms Oscilloscope Acquisition
#Device Name: EExplorer
#Serial Number: SN:210151A2B84A
#Date Time: 2020-12-06 09:32:12.704
#Sample rate: 2000Hz
#Samples: 16384
#Trigger: Source: Channel 1 Type: Edge Condition: Rising Level: 0 V Hyst.: Auto HoldOff: 0 s
#Channel 1: Range: 1 V/div Offset: 0 V Attenuation: 1 X
#Channel 2: Range: 1 V/div Offset: 0 V Attenuation: 1 X
#Power Supplies: ON
#Fixed Supply: ON
#Voltage: 3.3 V Readback: 3.229 V
#Positive Supply: ON
#Voltage: 3.7 V Readback: 3.717 V
#Current: 40 mA Readback: 21 mA
#Negative Supply: ON
#Voltage: -3.7 V Readback: -3.465 V
#Current: -40 mA Readback: -6 mA
#Reference 1: ON
#Voltage: 0 V
#Reference 2: ON
#Voltage: 0 V

Time (s),Channel 1 (V),Channel 2 (V)
-4.096,0.4515612047945656,0.4789386859228479
-4.0955,0.4408910299368927,0.4577454091125323
-4.095,0.4195506802212459,0.4365521323019372
-4.0945,0.1207857842064037,0.1716361721729923
-4.094,-0.7114878546920853,-0.6125150698086844
-4.0935,-1.373038695869399,-1.407262950197427
-4.093,-1.629122892453549,-1.926498232050159
-4.0925,-1.15963519871594,-1.629792356705741
-4.092,-0.3273615598156558,-0.7608680074810671
-4.0915,0.3448594562177392,-0.01910331912002144
-4.091,0.707645401378949,0.5107286011383502
-4.0905,0.8143471499557462,0.8498210301038044
-4.09,0.7823366253827275,0.9557874141553824
-4.0895,0.6863050516635838,0.9875773293708847
-4.089,0.6969752265212567,0.9028042221296224
-4.0885,0.79300680024041,0.7544512844572011
-4.088,0.7289857510943143,0.7862411996727035
-4.0875,0.6222840025175849,0.8498210301036502
-4.087,0.5262524287982859,0.9028042221295356
-4.0865,0.4622313796522482,0.8922075837243778
-4.086,0.1101156093490413,0.5319218779490127
-4.0855,-1.138294849000662,-0.8350444763186173
-4.085,-1.703814116457328,-1.608599079895136
-4.0845,-2.087940411333554,-2.202010830583973
-4.084,-2.322684258202368,-2.530506621144134
-4.0835,-1.714484291315011,-1.905304955239825
-4.083,-0.8502001278427167,-0.9516074987747555
-4.0825,-0.2206598112390624,-0.2416327256281231
-4.082,0.1954770082101822,0.2140227257936621
-4.0815,0.408880505363835,0.4259554938970107
-4.081,0.4942419042252185,0.4895353243279575
-4.0805,0.5049120790829789,0.4683420475176805
-4.08,0.4835717293676135,0.4259554938970107
-4.0795,0.4622313796522676,0.3835689402763796
-4.079,0.4408910299368539,0.3623756634659772
-4.0785,0.408880505363835,0.3305857482505039
-4.078,0.3021787567871057,0.2034260873886103
-4.0775,-0.3487019095323021,-0.4217755785170971
-4.077,-1.084943974711735,-1.205926820498774
-4.0765,-1.565101843307017,-1.778145294377295
-4.076,-1.415719395299198,-1.576809164678998
-4.0755,-0.6474668055467465,-0.8774310299385835
-4.075,0.1207857842064037,-0.1674562567923655
-4.0745,0.6222840025176625,0.3835689402766495
-4.074,0.8143471499557753,0.7226613692416989
-4.0735,0.825017324813458,0.92399749893988
-4.073,0.7503261008097475,1.029963882991458
-4.0725,0.6863050516635838,0.9875773293708847
-4.072,0.8143471499557753,0.7544512844572011
-4.0715,0.7930068002404295,0.6696781772159388
-4.071,0.675634876805804,0.7014680924314025
-4.0705,0.5689331282290746,0.7438546460520338
-4.07,0.4835717293676911,0.7756445612675071
-4.0695,0.2381577076396803,0.6166949851888487
-4.069,-1.116954499284783,-0.6760949002404023
-4.0685,-2.045259711903173,-1.523825972653797
-4.068,-2.322684258203047,-2.170220915369415
-4.0675,-2.461396531352796,-2.615279728386042
-4.067,-1.863866739322568,-2.127834361748341
-4.0665,-0.9355615267035566,-1.110557074851525
-4.066,-0.2526703358124887,-0.2946159176543747
-4.0655,0.1848068333524996,0.2246193641988295
-4.065,0.4088805053636312,0.5001319627329323
-4.0645,0.4942419042252961,0.5849050699745222
-4.064,0.5049120790829789,0.5849050699745222
-4.0635,0.4942419042253058,0.5531151547590488
-4.063,0.4729015545099114,0.5107286011383213
-4.0625,0.4515612047945656,0.4789386859228479
-4.062,0.4408910299368927,0.4577454091125323
-4.0615,0.4088805053634954,0.4047622170863289
-4.061,0.03542438534494258,0.02328323450064829
-4.0605,-0.658136980404429,-0.718481453861072
-4.06,-1.010252750708102,-1.364876396576651
-4.0595,-1.170305373573196,-1.767548655972648
-4.059,-0.754168554123573,-1.566212526274467
-4.0585,-0.06060718837483203,-0.9198175835598411
-4.058,0.4942419042252961,-0.1674562567923655
-4.0575,0.7609962756673623,0.4365521323021782
-4.057,0.8356874996710728,0.8604176685084899
-4.0565,0.79300680024041,1.072350436612224
-4.056,0.6969752265212663,1.082947075017392
-4.0555,0.7183155762366121,0.8816109453193934
-4.055,0.718315576236554,0.7650479228623589
-4.0545,0.6329541773751706,0.7544512844572011
-4.054,0.547592778513787,0.7862411996726746
-4.0535,0.4835717293675553,0.7968378380778612
-4.053,0.4195506802215176,0.7862411996727035
-4.0525,0.2488278824985954,0.7650479228623686
-4.052,-0.41272295867866,0.108056341740918
-4.0515,-1.437059745015262,-1.068170521231597
-4.051,-1.959898313041711,-1.460246142222792
-4.0505,-2.472066706210012,-1.915901593644578
-4.05,-2.087940411333903,-1.682775548731308
-4.0495,-1.148965023857831,-0.8668343915334161
-4.049,-0.3807124341053791,-0.1886495336033173
-4.0485,0.1101156093489637,0.235216002604209
-4.048,0.3768699807907871,0.4683420475176805
-4.0475,0.4835717293675165,0.5531151547589428
-4.047,0.5155822539406419,0.5637117931641681
-4.0465,0.4942419042252961,0.5425185163538525
-4.046,0.4729015545099503,0.5213252395435369
-4.0455,0.4515612047945365,0.500131962733154
-4.045,0.4195506802215176,0.4683420475176805
-4.0445,0.09944543449103843,0.1504428953626575
-4.044,-0.7648387289817795,-0.6760949002411059
-4.0435,-1.341028171296118,-1.449649503817625
-4.043,-1.405049220442214,-1.735758740757146
-4.0425,-0.8075194284125294,-1.333086481361149
-4.042,-0.007256314085787988,-0.7078848154559045
-4.0415,0.5369226036560266,-0.09327978795619347
-4.041,0.825017324813196,0.3199891098449605
-4.0405,0.8676980242441303,0.6378882620004943
-4.04,0.8036769750980928,0.7862411996727035
-4.0395,0.7183155762367092,0.8392243916984924
-4.039,0.7076454013789879,0.7650479228622818
-4.0385,0.7503261008096795,0.6696781772158616
-4.038,0.686305051663642,0.7120647308364929
-4.0375,0.5902734779443719,0.7968378380779094
-4.037,0.5155822539406614,0.8392243916985406
-4.0365,0.4622313796522482,0.849821030103708
-4.036,0.06743490991737912,0.5001319627325082
-4.0355,-0.6047861061160158,-0.2416327256285375
-4.035,-1.479740444445993,-1.407262950196955
-4.0345,-1.885207089037564,-2.117237723342527
-4.034,-1.735824641030376,-2.074851169722503
-4.0335,-1.138294849000148,-1.38606967338662
-4.033,-0.4127229586783883,-0.5171453241636811
-4.0325,0.1207857842066269,0.1186529801474154
-4.032,0.3661998059331045,0.4047622170866759
-4.0315,0.4622313796521609,0.5107286011382538
-4.031,0.4835717293676038,0.5107286011383213
-4.0305,0.4729015545099309,0.4789386859228479
-4.03,0.4622313796522579,0.4365521323022167
-4.0295,0.4408910299368732,0.4047622170866662
-4.029,0.4302208550792003,0.3941655786815084
-4.0285,0.4195506802215176,0.3941655786815084
-4.028,0.3128489316440605,0.2776025562240692
-4.0275,-0.3807124341046804,-0.3793890248957141
-4.027,-1.202315898146244,-1.184733543688439
-4.0265,-1.554431668449451,-1.746355379161802
-4.026,-1.138294849000148,-1.492036057438295
-4.0255,-0.3166913849585846,-0.7820612842920766
-4.025,0.3768699807901563,-0.08268314955166212
-4.0245,0.7716664505251613,0.4895353243283141
-4.024,0.8997085488172365,0.8180311148882058
-4.0235,0.8570278493865449,0.9663840525604149
-4.023,0.7396559259519289,0.9981739677760327
-4.0225,0.6649647019482183,0.9769806909657173
-4.022,0.7609962756672749,0.7968378380780348
-4.0215,0.7289857510942269,0.7544512844572396
-4.021,0.6329541773751706,0.7968378380778709
-4.0205,0.5475927785137094,0.8286277532933731
-4.02,0.4835717293673903,0.8286277532933153
-4.0195,0.2381577076409128,0.7650479228623686
-4.019,-0.9675720512772257,-0.3899856633008816
-4.0185,-1.650463242168294,-1.290699927739294
-4.018,-1.87453691418025,-1.873515040024322
-4.0175,-1.789175515318789,-2.106641084938006
-4.017,-1.116954499285394,-1.439052865413065
-4.0165,-0.3807124341042631,-0.5701285161882075
-4.016,0.07810508477567314,0.002089957690313421
-4.0155,0.3341892813598236,0.330585748250205
-4.015,0.4515612047945947,0.4683420475177094
-4.0145,0.4835717293676135,0.5001319627331828
-4.014,0.4835717293676135,0.4789386859228671
-4.0135,0.4729015545099114,0.4471487707073167
-4.013,0.4515612047945656,0.4153588554918433
-4.0125,0.4408910299368829,0.4047622170866759
-4.012,0.4195506802214691,0.3941655786814506
-4.0115,0.3661998059331045,0.3305857482505039
-4.011,-0.2099896363817582,-0.2098428104130352
-4.0105,-1.031593100422574,-1.036380606015343
-4.01,-1.405049220442214,-1.566212526274467
-4.0095,-1.127624674142465,-1.492036057438295
-4.009,-0.4127229586783785,-0.8456411147236691
-4.0085,0.2808384070720509,-0.135666341576362
-4.008,0.7289857510943143,0.4153588554918433
-4.0075,0.8890383739594082,0.7332580076465772
-4.007,0.8463576745287165,0.9239974989399667
-4.0065,0.7289857510943143,1.019367244586387
-4.006,0.6329541773751706,1.019367244586387
-4.0055,0.6969752265212857,0.8074344764829613
-4.005,0.7183155762366316,0.7226613692416989
-4.0045,0.6542945270905358,0.775644561267536
-4.004,0.5689331282290067,0.8392243916985791
-4.0035,0.4942419042252961,0.8816109453192104
-4.003,0.4302208550792003,0.8710143069140429
-4.0025,0.01408403562995575,0.4153588554922577
-4.002,-1.1062843244271,-0.8774310299385835
-4.0015,-1.87453691418025,-1.852321763213987
-4.001,-2.322684258202513,-2.392750321877035
-4.0005,-2.301343908486838,-2.477523429118105
-4,-1.51175096901904,-1.640388995110639
-3.9995,-0.6047861061160158,-0.6443049850249
-3.999,-0.01792648894347063,0.002089957690313421
-3.9985,0.3021787567870086,0.3517790250608387
-3.998,0.4622313796522482,0.5001319627331828
-3.9975,0.5049120790829789,0.5213252395435176
-3.997,0.5049120790829789,0.4895353243280153
-3.9965,0.4835717293676135,0.4365521323021782
-3.996,0.4622313796522482,0.4047622170866759
-3.9955,0.4408910299368829,0.3729723018711736
-3.995,0.4195506802215176,0.3517790250608387
-3.9945,0.1634664836371343,0.05507314971615059
-3.994,-0.6367966306890638,-0.6972881770507372
-3.9935,-1.212986073003927,-1.449649503817625
-3.993,-1.565101843307454,-1.937094870455327
-3.9925,-1.277007122150022,-1.725162102351978
-3.992,-0.4874141826815069,-0.8562377531282487
-3.9915,0.2488278824985954,-0.04029659593035631
-3.991,0.6863050516635838,0.5213252395435176
-3.9905,0.8676980242441885,0.8180311148882058
-3.99,0.8676980242441885,0.9981739677760521
-3.9895,0.7716664505250448,1.061753798207057
-3.989,0.7183155762366316,1.125333628638062
-3.9885,0.707645401378949,1.125333628638062
-3.988,0.6329541773751706,1.019367244586387
-3.9875,0.5582629533713921,0.8922075837243778
-3.987,0.4942419042252961,0.7862411996727035
-3.9865,0.4515612047945656,0.701468092431364
-3.986,0.2061471830678648,0.4471487707073456
-3.9855,-0.7008176798351597,-0.5277419625680583
-3.985,-1.447729919872945,-1.407262950196955
-3.9845,-1.757164990745741,-1.767548655972648
-3.984,-2.03458953704549,-2.085447808127671
-3.9835,-1.51175096901904,-1.545019249464132
-3.983,-0.690147504977477,-0.6337083466197325
-3.9825,-0.09261771294724913,0.02328323450064829
-3.982,0.2488278824985954,0.4047622170866759
-3.9815,0.4302208550792003,0.5955017083796896
-3.981,0.4942419042252961,0.6696781772158616
-3.9805,0.5049120790829789,0.6696781772158616
-3.98,0.4835717293676135,0.6484849004055269
-3.9795,0.4729015545099309,0.627291623595192
-3.979,0.4515612047945656,0.6060983467848571
-3.9785,0.4195506802215176,0.5637117931641874
-3.978,0.3128489316446912,0.4047622170866759
-3.9775,-0.3700422592469978,-0.2734226408440398
-3.977,-1.191645723288561,-1.142346990067769
-3.9765,-1.714484291315011,-1.79933857118815
-3.976,-1.661133417026597,-1.84172512480882
-3.9755,-0.8715404775580819,-1.068170521231597
-3.975,-0.07127736323188383,-0.1992461720078678
-3.9745,0.4408910299368829,0.4471487707073456
-3.974,0.6969752265212663,0.7862411996727035
-3.9735,0.7609962756673623,0.9028042221295453
-3.973,0.7289857510943143,0.9345941373450475
-3.9725,0.6969752265212663,0.8604176685088755
-3.972,0.79300680024041,0.6590815388106942
-3.9715,0.7503261008096795,0.6590815388106942
-3.971,0.6436243522328531,0.7120647308365314
-3.9705,0.5475927785137094,0.7650479228623686
-3.97,0.4835717293676135,0.7862411996727035
-3.9695,0.3128489316446912,0.6696781772158616
-3.969,-0.3273615598162672,0.05507314971615059
-3.9685,-0.9035510021311299,-0.7290780922662394
-3.968,-1.885207089037933,-1.831128486403653
-3.9675,-2.205312334768412,-1.831128486403653
-3.967,-2.386705307349017,-1.88411167842949
-3.9665,-1.83185621474952,-1.407262950196955
-3.966,-0.9035510021311299,-0.5807251545938954
-3.9655,-0.1459685872356623,0.07626642652648545
-3.965,0.2488278824985954,0.3941655786815084
-3.9645,0.4408910299368829,0.5319218779486851
-3.964,0.5049120790829789,0.5743084315693548
-3.9635,0.5155822539406614,0.55311515475902
-3.963,0.4942419042252961,0.5319218779486851
-3.9625,0.4622313796522482,0.5001319627331828
-3.962,0.4622313796522482,0.4895353243280153
-3.9615,0.408880505363835,0.4153588554918433
-3.961,-0.04993701351651855,-0.1462629799820306
-3.9605,-0.7861790786966207,-1.025783967610927
-3.96,-1.234326422719292,-1.703968825541643
-3.9595,-1.223656247861609,-1.714565463946811
-3.959,-0.5300948821122373,-1.195330182093607
-3.9585,0.1954770082101822,-0.5807251545938954
-3.958,0.6756348768059011,0.03387987290581572
-3.9575,0.8783681991018712,0.5319218779486851
-3.957,0.8890383739595538,0.7968378380778709
-3.9565,0.79300680024041,0.9028042221295453
-3.956,0.6863050516635838,0.92399749893988
-3.9555,0.7289857510943143,0.7650479228623686
-3.955,0.7183155762366316,0.7120647308365314
-3.9545,0.6436243522328531,0.7650479228623686
-3.954,0.5582629533713921,0.8286277532933731
-3.9535,0.4942419042252961,0.8604176685088755
-3.953,0.3982103305061524,0.9028042221295453
-3.9525,-0.1032878878049318,0.6060983467848571
-3.952,-0.7434983792658902,-0.1780528951975329
-3.9515,-1.373038695869166,-0.9516074987747555
-3.951,-2.333354433060604,-2.021867977696666
-3.9505,-2.354694782775969,-2.276187299420684
-3.95,-1.597112367880501,-1.587405803084801
-3.9495,-0.7648387289812555,-0.7502713690765743
-3.949,-0.06060718837420119,-0.01910331912002144
-3.9485,0.3661998059331045,0.4153588554918433
-3.948,0.4942419042252961,0.5319218779486851
-3.9475,0.5262524287983441,0.5425185163538525
-3.947,0.5049120790829789,0.5001319627331828
-3.9465,0.4835717293676135,0.457745409112513
-3.946,0.4622313796522482,0.4153588554918433
-3.9455,0.4515612047945656,0.3941655786815084
-3.945,0.4515612047945656,0.3941655786815084
-3.9445,0.1848068333524996,0.1080563417419877
-3.944,-0.572775581542968,-0.6654982618352349
-3.9435,-1.202315898146244,-1.42845622700729
-3.943,-1.533091318734406,-1.873515040024322
-3.9425,-1.148965023857831,-1.492036057438295
-3.942,-0.3380317346739499,-0.6760949002404023
-3.9415,0.3448594562177392,0.08686306493165288
-3.941,0.7183155762366316,0.6060983467848571
-3.9405,0.8463576745288233,0.9134008605347127
-3.94,0.825017324813458,1.029963882991555
-3.9395,0.7396559259519968,1.029963882991555
-3.939,0.7183155762366316,1.051157159801889
-3.9385,0.7396559259519968,1.061753798207057
-3.938,0.6756348768059011,0.9981739677760521
-3.9375,0.5902734779444399,0.9134008605347127
-3.937,0.5262524287983441,0.8286277532933731
-3.9365,0.4622313796522482,0.775644561267536
-3.936,0.05676473506030786,0.7544512844572011
-3.9355,-1.277007122150022,-0.252229364033705
-3.935,-1.949228138184029,-1.152943628472937
-3.9345,-2.23732285934146,-1.862918401619155
-3.934,-2.162631635337682,-2.106641084938006
-3.9335,-1.362368521011484,-1.38606967338662
-3.933,-0.4980843575391895,-0.4959520473525559
-3.9325,0.04609456020262521,0.1080563417419877
-3.932,0.3448594562177392,0.457745409112513
-3.9315,0.4835717293676135,0.6166949851900245
-3.931,0.5262524287983441,0.6590815388106942
-3.9305,0.5155822539406614,0.6378882620003594
-3.93,0.4942419042252961,0.6060983467848571
-3.9295,0.4835717293676135,0.5849050699745222
-3.929,0.4622313796522482,0.55311515475902
-3.9285,0.4408910299368829,0.5213252395435176
-3.928,0.3235191065023739,0.3941655786815084
-3.9275,-0.3593720843893152,-0.2734226408440398
-3.927,-1.020922925565639,-1.121153713257435
-3.9265,-1.415719395299897,-1.725162102351978
-3.926,-1.170305373573196,-1.608599079895136
-3.9255,-0.4340633083930936,-0.8562377531282487
-3.925,0.2488278824985954,-0.1038764263613609
-3.9245,0.6863050516635838,0.4789386859228479
-3.924,0.8676980242441885,0.8180311148882058
-3.9235,0.8676980242441885,0.9981739677760521
-3.923,0.7823366253827275,0.9981739677760521
-3.9225,0.7289857510943143,1.00877060618122
-3.922,0.79300680024041,1.135930267043229
-3.9215,0.7396559259519968,1.072350436612224
-3.921,0.6329541773751706,0.9345941373450475
-3.9205,0.5475927785137094,0.7862411996727035
-3.92,0.4942419042252961,0.6802748156210291
-3.9195,0.2594980573562781,0.4683420475176805
-3.919,-0.4340633083930936,-0.2628260024388724
-3.9185,-1.490410619303675,-1.42845622700729
-3.918,-1.629122892453549,-1.746355379162313
-3.9175,-1.490410619303675,-1.735758740757146
-3.917,-0.9248913518464952,-1.089363798041932
-3.9165,-0.2420001609548061,-0.2734226408440398
-3.916,0.1848068333524996,0.2670059178194992
-3.9155,0.3875401556484697,0.5425185163538525
-3.915,0.4729015545099309,0.6696781772158616
-3.9145,0.4942419042252961,0.701468092431364
-3.914,0.4942419042252961,0.701468092431364
-3.9135,0.4835717293676135,0.6802748156210291
-3.913,0.4729015545099309,0.6696781772158616
-3.9125,0.4622313796522482,0.6696781772158616
-3.912,0.4515612047945656,0.6484849004055269
-3.9115,0.4302208550792003,0.6060983467848571
-3.911,0.1314559590640864,0.2034260873884947
-3.9105,-0.4874141826815069,-0.6231117082145651
-3.91,-0.8288597781273515,-1.248313374119443
-3.9095,-1.159635198715513,-1.661582271920973
-3.909,-0.9355615267041777,-1.481439419033127
-3.9085,-0.2526703358124887,-0.7078848154559045
-3.908,0.3448594562177392,0.04447651131098315
-3.9075,0.6756348768059011,0.5425185163538525
-3.907,0.7716664505250448,0.849821030103708
-3.9065,0.7289857510943143,0.9769806909657173
-3.906,0.6756348768059011,1.00877060618122
-3.9055,0.8143471499557753,1.093543713422559
-3.905,0.8356874996711408,1.040560521396722
-3.9045,0.7396559259519968,0.8816109453192104
-3.904,0.6329541773751706,0.7332580076468663
-3.9035,0.5369226036560266,0.6060983467848571
-3.903,0.291508581929326,0.3729723018711736
-3.9025,-0.9355615267041777,-0.792657922697244
-3.902,-1.629122892453549,-1.587405803084801
-3.9015,-2.130621110764634,-2.25499402261035
-3.901,-2.429386006779747,-2.62587636679121
-3.9005,-1.821186039891837,-1.990078062481164
-3.9,-0.9142211769888124,-0.9410108603695881
-3.8995,-0.2313299860971235,-0.1462629799820306
-3.899,0.2061471830678648,0.3623756634660061
-3.8985,0.4302208550792003,0.627291623595192
-3.898,0.5155822539406614,0.7120647308365314
-3.8975,0.5369226036560266,0.7120647308365314
-3.897,0.5262524287983441,0.6908714540261965
-3.8965,0.5049120790829789,0.6484849004055269
-3.896,0.4835717293676135,0.6060983467848571
-3.8955,0.4515612047945656,0.5637117931641874
-3.895,0.4302208550792003,0.5213252395435176
-3.8945,0.1101156093487211,0.2246193641988295
-3.894,-0.7114878546928423,-0.6019184314042303
-3.8935,-1.330357996438436,-1.407262950196955
-3.893,-1.458400094730627,-1.788741932782983
-3.8925,-0.8715404775580819,-1.354279758171118
-3.892,-0.07127736323188383,-0.6972881770507372
-3.8915,0.5369226036560266,-0.04029659593035631
-3.891,0.8463576745288233,0.4683420475176805
-3.8905,0.9103787236749192,0.7226613692416989
-3.89,0.8463576745288233,0.8710143069140429
-3.8895,0.7289857510943143,0.9345941373450475
-3.889,0.7396559259519968,0.849821030103708
-3.8885,0.7823366253827275,0.7120647308365314
-3.888,0.707645401378949,0.6908714540261965
-3.8875,0.6116138276598051,0.701468092431364
-3.887,0.5369226036560266,0.7120647308365314
-3.8865,0.4835717293676135,0.7120647308365314
-3.886,0.142126133921769,0.5849050699745222
-3.8855,-0.5941159312583333,-0.1462629799820306
