Class_6_Listen_To_Quran/Class_6_Listen_To_Quran_UZ_6.csv

#Digilent WaveForms Oscilloscope Acquisition
#Device Name: EExplorer
#Serial Number: SN:210151A2B84A
#Date Time: 2020-12-07 12:14:38.287
#Sample rate: 2000Hz
#Samples: 16384
#Trigger: Source: Channel 1 Type: Edge Condition: Rising Level: 0 V Hyst.: Auto HoldOff: 0 s
#Channel 1: Range: 1 V/div Offset: 0 V Attenuation: 1 X
#Channel 2: Range: 1 V/div Offset: 0 V Attenuation: 1 X
#Power Supplies: ON
#Fixed Supply: ON
#Voltage: 3.3 V Readback: 3.324 V
#Positive Supply: ON
#Voltage: 3.7 V Readback: 3.679 V
#Current: 40 mA Readback: 20 mA
#Negative Supply: ON
#Voltage: -3.7 V Readback: -3.953 V
#Current: -40 mA Readback: -2 mA
#Reference 1: ON
#Voltage: 0 V
#Reference 2: ON
#Voltage: 0 V

Time (s),Channel 1 (V),Channel 2 (V)
-4.096,1.625280439139656,1.061753798207057
-4.0955,0.9423892482485881,-0.02969995752419607
-4.095,0.04609456020246024,-0.9304142219644785
-4.0945,-0.1352984123779797,-0.9939940523954253
-4.094,-0.2313299860970361,-0.8774310299386895
-4.0935,-0.1779791118085355,-0.5913217929987062
-4.093,0.01408403562957729,-0.1992461720078678
-4.0925,-0.01792648894344151,-0.1144730647666055
-4.092,-0.1459685872356429,-0.1992461720077136
-4.0915,-0.124628237520297,-0.02969995752518888
-4.091,-0.04993701351651855,0.2352160026039969
-4.0905,0.02475421048728905,0.468342047517854
-4.09,0.05676473506030786,0.6590815388106942
-4.0895,-0.2420001609548061,0.7862411996727035
-4.089,-1.02092292556493,0.7862411996727035
-4.0885,-1.607782542738184,0.4683420475176805
-4.088,-2.002579012472442,0.3305857482505039
-4.0875,-2.087940411333825,0.6166949851897643
-4.087,-1.522421143876082,0.61669498518988
-4.0865,-0.8181896032696687,0.457745409112513
-4.086,-0.274010685528349,0.2881991946299883
-4.0855,0.04609456020276108,0.1504428953625707
-4.085,0.1954770082101822,0.05507314971615059
-4.0845,0.238157707640874,-0.008506680714796183
-4.084,0.2274875327832107,-0.02969995752519852
-4.0835,0.2061471830678648,-0.04029659593035631
-4.083,0.1848068333524996,-0.04029659593035631
-4.0825,0.1741366584948266,-0.02969995752517924
-4.082,0.1848068333524996,-0.01910331912002144
-4.0815,0.3341892813600565,0.07626642652648545
-4.081,0.9850699476781057,0.5319218779482706
-4.0805,1.678631313428069,1.029963882991555
-4.08,2.137448832308423,1.146526905448396
-4.0795,2.009406734016348,0.8180311148885046
-4.079,1.539919040277729,0.500131962733019
-4.0785,1.027750647109428,0.3199891098453364
-4.078,0.6116138276601836,0.235216002604074
-4.0775,0.3341892813598625,0.2034260873884657
-4.077,0.1207857842064037,0.1716361721729923
-4.0765,-0.5834457564000101,-0.4111789401106865
-4.076,-0.6901475049774964,-0.4853554089474559
-4.0755,-0.7114878546928423,-0.5595318777835605
-4.075,-0.5621054066852853,-0.4217755785163839
-4.0745,-0.2526703358122655,-0.08268314955077546
-4.074,-0.007256314085787988,0.1928294489833272
-4.0735,0.05676473506030786,0.2776025562246667
-4.073,-0.06060718837409445,0.08686306493182636
-4.0725,-0.722158029550525,-0.8032545611024114
-4.072,-1.543761493592088,-1.852321763213987
-4.0715,-2.002579012472025,-2.456330152307982
-4.071,-2.280003558771763,-1.873515040023493
-4.0705,-1.810515865034154,-0.9622041371799229
-4.07,-1.063603624997049,-0.3264058328704552
-4.0695,-0.4447334832504075,0.0126865960955965
-4.069,-0.03926683865883591,0.13984625695749
-4.0685,0.1634664836371343,0.1504428953626575
-4.068,0.2381577076409128,0.1080563417419396
-4.0675,0.2381577076409128,0.05507314971615059
-4.067,0.2168173579255475,0.002089957690313421
-4.0665,0.1954770082101628,-0.02969995752520815
-4.066,0.1741366584948169,-0.05089323433552374
-4.0655,0.1741366584948169,-0.06148987274069118
-4.065,0.2274875327831816,-0.02969995752521779
-4.0645,0.6649647019482183,0.3199891098453364
-4.064,1.411876941986003,0.9028042221295453
-4.0635,1.881364635723612,1.220703374284279
-4.063,1.763992712289133,0.9557874141549969
-4.0625,1.326515543124542,0.5319218779486851
-4.062,0.9210488985329706,0.2458126410094246
-4.0615,0.5796033030865438,0.09745970333674321
-4.061,0.3448594562177392,0.01268659609548085
-4.0605,0.2061471830678648,0.04447651131098315
-4.06,0.1314559590640572,0.1080563417420552
-4.0595,0.09944543449103843,0.1822328105781598
-4.059,-0.07127736323188383,0.05507314971615059
-4.0585,-0.2846808603853426,-0.1250697031715319
-4.058,-0.8608703027003992,-0.6443049850249
-4.0575,-0.722158029550525,-0.4429688553267188
-4.057,-0.5194247072547392,-0.1992461720080895
-4.0565,-0.3487019095316325,0.04447651131098315
-4.056,-0.572775581542968,0.3305857482505039
-4.0555,-1.298347471864728,0.3305857482505039
-4.055,-1.789175515319177,-0.06148987274061408
-4.0545,-2.215982509626095,0.02328323450064829
-4.054,-2.16263163533773,0.3941655786811711
-4.0535,-1.490410619303006,0.4047622170865506
-4.053,-0.754168554123573,0.2670059178194992
-4.0525,-0.2206598112394408,0.1080563417419877
-4.052,0.08877525963348194,-0.008506680714921475
-4.0515,0.2274875327832301,-0.08268314955102604
-4.051,0.2488278824985954,-0.1038764263613609
-4.0505,0.2274875327832495,-0.1038764263613609
-4.05,0.2061471830678648,-0.07208651114585861
-4.0495,0.1848068333524996,-0.02969995752518888
-4.049,0.1848068333524996,0.0126865960954423
-4.0485,0.1848068333527325,0.06566978812145294
-4.048,0.4408910299368829,0.2140227257936621
-4.0475,1.15579274540097,0.6484849004051317
-4.047,1.571929564851262,0.9875773293709232
-4.0465,1.593269914566608,1.029963882991555
-4.046,1.390536592270822,0.9663840525606077
-4.0455,1.059761171682175,0.6908714540259653
-4.045,0.7289857510943143,0.4365521323021782
-4.0445,0.4408910299368829,0.2987958330350016
-4.044,0.259498057356181,0.2776025562246859
-4.0435,0.1527963087794516,0.2987958330350016
-4.043,0.1101156093487211,0.3305857482505039
-4.0425,0.01408403562966463,0.2458126410092415
-4.042,-0.09261771294724913,0.09745970333682032
-4.0415,-0.08194753808956648,0.1186529801471552
-4.041,-0.01792648894352886,0.1822328105781019
-4.0405,0.03542438534495228,0.2246193641988295
-4.04,0.04609456020262521,0.2246193641988295
-4.0395,-0.8715404775572474,-0.527741962567374
-4.039,-1.789175515319235,-1.099960436447601
-4.0385,-2.280003558772191,-1.650985633515806
-4.038,-2.674800028506089,-2.339767129851062
-4.0375,-2.482736881067384,-2.392750321876871
-4.037,-1.629122892453549,-1.672178910326141
-4.0365,-0.8288597781273515,-0.9198175835592532
-4.036,-0.2740106855275629,-0.379389024895425
-4.0355,0.04609456020262521,-0.06148987274069118
-4.035,0.1954770082101822,0.07626642652648545
-4.0345,0.238157707640874,0.1080563417419588
-4.034,0.2381577076409128,0.08686306493165288
-4.0335,0.2274875327832301,0.05507314971615059
-4.033,0.2061471830678842,0.0232832345006772
-4.0325,0.1954770082101725,-0.008506680714882925
-4.032,0.1848068333524996,-0.04029659593035631
-4.0315,0.291508581929229,0.01268659609543266
-4.031,0.825017324814147,0.3729723018715591
-4.0305,1.582599739708926,0.7968378380778709
-4.03,1.966726034585151,0.8710143069139754
-4.0295,1.860024286008296,0.5955017083794197
-4.029,1.443887466559051,0.2987958330350016
-4.0285,0.974399772821015,0.1822328105781598
-4.028,0.5902734779442069,0.1398462569574997
-4.0275,0.3341892813600565,0.1504428953626575
-4.027,0.1848068333524996,0.2034260873884947
-4.0265,0.1207857842064619,0.2458126410091258
-4.026,0.05676473506030786,0.2352160026039969
-4.0255,-0.1032878878049318,0.01268659609548085
-4.025,-0.1246282375202776,-0.008506680714834736
-4.0245,-0.06060718837413326,0.09745970333692633
-4.024,0.01408403562957729,0.2140227257936621
-4.0235,0.05676473506026904,0.3093924714400822
-4.023,-0.1779791118093507,0.3199891098452015
-4.0225,-0.8822106524157645,0.1716361721729923
-4.022,-1.533091318733814,-0.1780528951972149
-4.0215,-2.397375482207175,-1.248313374120041
-4.021,-2.920214050233149,-1.905304955239825
-4.0205,-2.408045657064382,-1.566212526274467
-4.02,-1.565101843306687,-0.9939940523948856
-4.0195,-0.722158029550525,-0.400582301706049
-4.019,-0.1139580626626144,0.04447651131098315
-4.0185,0.1421261339215361,0.1822328105780345
-4.018,0.2274875327832301,0.1928294489833272
-4.0175,0.2274875327832301,0.1504428953626575
-4.017,0.2061471830678842,0.09745970333686851
-4.0165,0.1954770082101725,0.0444765113109446
-4.016,0.1848068333524996,0.002089957690313421
-4.0155,0.1954770082101725,-0.02969995752515996
-4.015,0.2381577076413301,-0.04029659593021175
-4.0145,0.6969752265212663,0.1186529801471552
-4.014,1.433217291700699,0.5001319627328359
-4.0135,1.785333062004789,0.6802748156209424
-4.013,1.667961138570387,0.5849050699745222
-4.0125,1.315845368266859,0.4153588554918433
-4.012,0.9530594231053781,0.235216002603862
-4.0115,0.6542945270905358,0.08686306493165288
-4.011,0.408880505363835,-0.01910331912002144
-4.0105,0.248827882498741,-0.07208651114581041
-4.01,0.1527963087794516,-0.06148987274069118
-4.0095,0.1101156093487211,-0.008506680714854012
-4.009,-0.06060718837404593,-0.1568596183870632
-4.0085,-0.1459685872356138,-0.1992461720077425
-4.008,-0.09261771294724913,-0.06148987274069118
-4.0075,-0.00725631408586562,0.1186529801469914
-4.007,0.05676473506029815,0.2776025562247534
-4.0065,0.04609456020262521,0.3729723018711736
-4.006,-0.4127229586777283,0.3305857482505039
-4.0055,-1.191645723289172,0.1398462569571045
-4.005,-1.863866739322568,-0.2840192792492073
-4.0045,-2.354694782775969,-0.6443049850249
-4.004,-1.89587726389548,-0.5383386009734762
-4.0035,-1.746494815888059,-0.8138511995075789
-4.003,-1.202315898146244,-0.570128516188728
-4.0025,-0.658136980404924,-0.2204394488185207
-4.002,-0.2953510352432193,0.002089957690313421
-4.0015,0.01408403562957729,0.2352160026039969
-4.001,0.2061471830676901,0.3517790250607327
-4.0005,0.2168173579255184,0.2881991946297378
-4,0.1848068333524996,0.1822328105781598
-3.9995,0.1741366584948169,0.08686306493165288
-3.999,0.1741366584948169,-0.008506680714854012
-3.9985,0.1848068333524996,-0.08268314955102604
-3.998,0.4622313796522482,0.02328323450064829
-3.9975,1.219813794547716,0.5955017083796896
-3.997,1.56125938999356,1.00877060618122
-3.9965,1.497238340847464,0.849821030103708
-3.996,1.283834843693812,0.3517790250608387
-3.9955,1.006410297394063,-0.1144730647665284
-3.995,0.7503261008096795,-0.3581957480853793
-3.9945,0.5049120790829789,-0.4535654937318862
-3.994,0.3235191065023739,-0.400582301706049
-3.9935,0.2061471830678648,-0.2946159176543747
-3.993,0.142126133921769,-0.1674562567923655
-3.9925,0.02475421048725994,-0.1144730647665284
-3.992,-0.1139580626626144,-0.1250697031716958
-3.9915,-0.09261771294724913,0.002089957690313421
-3.991,-0.02859666380115328,0.1716361721729923
-3.9905,0.04609456020262521,0.3199891098453364
-3.99,0.0674349099179905,0.457745409112513
-3.9895,-0.2633405106701714,0.5107286011383502
-3.989,-0.9462317015618604,0.4259554938970107
-3.9885,-1.522421143876723,0.05507314971615059
-3.988,-1.970568487899394,-0.4959520473525559
-3.9875,-1.895877263895616,-0.6443049850249
-3.987,-1.255666772434657,-0.3052125560595421
-3.9865,-0.6154562809736985,0.1080563417419877
-3.986,-0.1673089369510276,0.4047622170866759
-3.9855,-0.01792648894347063,0.4365521323021782
-3.985,-0.5300948821122373,-0.1568596183871981
-3.9845,-0.4874141826815069,-0.1992461720078678
-3.984,-0.3593720843893152,-0.1674562567923655
-3.9835,-0.2206598112394408,-0.1356663415768632
-3.983,0.01408403562957729,-0.008506680714854012
-3.9825,0.1634664836371343,0.02328323450064829
-3.982,0.1741366584948169,-0.08268314955102604
-3.9815,0.3128489316446912,-0.1038764263613609
-3.981,0.974399772821015,0.2352160026039969
-3.9805,1.550589215135878,0.6378882620003594
-3.98,1.817343586577944,0.701468092431364
-3.9795,1.753322537431848,0.3411823866556712
-3.979,1.433217291701369,-0.09327978795619347
-3.9785,1.006410297394063,-0.4535654937318862
-3.978,0.6222840025174878,-0.6125150698093976
-3.9775,0.3448594562177392,-0.6231117082145651
-3.977,0.1848068333524996,-0.5489352393783931
-3.9765,0.1101156093487211,-0.4323722169215513
-3.976,0.0674349099179905,-0.3158091944647096
-3.9755,-0.07127736323188383,-0.3052125560595421
-3.975,-0.09261771294724913,-0.1886495336027004
-3.9745,-0.03926683865883591,-0.008506680714854012
-3.974,0.03542438534494258,0.1928294489833272
-3.9735,0.07810508477567314,0.3729723018711736
-3.973,-0.03926683865883591,0.5107286011383502
-3.9725,-0.6794773301197943,0.5213252395435176
-3.972,-1.479740444445993,0.2670059178194992
-3.9715,-2.03458953704549,-0.2734226408440398
-3.971,-2.162631635337682,-0.6654982618352349
-3.9705,-1.522421143876723,-0.400582301706049
-3.97,-0.8181896032696687,0.08686306493165288
-3.9695,-0.274010685527854,0.4895353243280153
-3.969,0.04609456020262521,0.7226613692416989
-3.9685,0.1954770082101822,0.8074344764830383
-3.968,0.2381577076409128,0.7650479228623686
-3.9675,0.2274875327832301,0.6590815388106942
-3.967,0.1634664836371343,0.4683420475176805
-3.9665,-0.4980843575391895,-0.3370024712750445
-3.966,-0.5941159312583333,-0.5807251545938954
-3.9655,-0.4554036581084589,-0.5913217929990628
-3.965,-0.2633405106701714,-0.570128516188728
-3.9645,0.4835717293676135,-0.2310360872233701
-3.964,1.443887466559051,0.13984625695749
-3.9635,1.774662887147213,0.05507314971615059
-3.963,1.870694460866357,-0.4853554089473885
-3.9625,1.76399271228953,-1.036380606016095
-3.962,1.390536592270638,-1.216523458903942
-3.9615,0.942389248247967,-1.0999604364471
-3.961,0.5902734779444399,-0.9092209451540858
-3.9605,0.3448594562177392,-0.7502713690765743
-3.96,0.2061471830678648,-0.5913217929990628
-3.9595,0.1207857842064037,-0.4641621321370536
-3.959,-0.01792648894347063,-0.5065486857577234
-3.9585,-0.07127736323188383,-0.474758770542221
-3.958,-0.03926683865883591,-0.2840192792492073
-3.9575,0.02475421048725994,-0.02969995752518888
-3.957,0.07810508477567314,0.2034260873884947
-3.9565,0.0674349099179905,0.3623756634660061
-3.956,-0.3380317346739499,0.1080563417419877
-3.9555,-1.116954499284783,-0.4641621321370536
-3.955,-1.725154466172693,-1.01518732920576
-3.9545,-2.173301810195364,-0.7078848154559045
-3.954,-1.917217613610981,-0.06148987274069118
-3.9535,-1.212986073003927,0.309392471440169
-3.953,-0.5621054066852853,0.4789386859228479
-3.9525,-0.1139580626626144,0.5213252395435176
-3.952,0.1207857842064037,0.5107286011383502
-3.9515,0.2168173579255475,0.4683420475176805
-3.951,0.2381577076409128,0.4259554938970107
-3.9505,0.2168173579255475,0.383568940276341
-3.95,0.1954770082101822,0.3411823866556712
-3.9495,0.1741366584948169,0.2987958330350016
-3.949,0.1741366584948169,0.2564092794143318
-3.9485,0.1741366584948169,0.2140227257936621
-3.948,0.2594980573562781,0.13984625695749
-3.9475,0.2381577076409128,-0.2098428104130352
-3.947,0.7396559259519968,-0.06148987274069118
-3.9465,1.091771696255524,-0.06148987274069118
-3.946,1.038420821967111,-0.1038764263613609
-3.9455,0.942389248247967,-0.08268314955102604
-3.945,0.7396559259519968,-0.1038764263613609
-3.9445,0.4729015545099309,-0.2310360872233701
-3.944,0.2808384070716433,-0.326405832869877
-3.9435,0.1634664836371343,-0.3581957480853793
-3.943,0.1207857842064037,-0.3475991096802118
-3.9425,0.03542438534494258,-0.400582301706049
-3.942,-0.06060718837420119,-0.5065486857577234
-3.9415,-0.03926683865883591,-0.400582301706049
-3.941,0.02475421048725994,-0.2204394488182027
-3.9405,0.0674349099179905,-0.04029659593035631
-3.94,0.07810508477567314,0.1080563417419877
-3.9395,-0.2526703358124887,0.08686306493165288
-3.939,-1.042263275281004,-0.1780528951975329
-3.9385,-1.810515865034154,-0.6549016234300674
-3.938,-2.162631635337682,-0.7714646458869092
-3.9375,-2.183971985053047,-0.1674562567923655
-3.937,-1.565101843307454,0.1928294489833272
-3.9365,-0.839529952985034,0.2987958330350016
-3.936,-0.2846808603855366,0.309392471440169
-3.9355,0.04609456020262521,0.2881991946298341
-3.935,0.2061471830678648,0.2881991946298341
-3.9345,0.2488278824985954,0.2987958330350016
-3.934,0.2381577076409128,0.3305857482505039
-3.9335,0.2061471830678648,0.3623756634660061
-3.933,0.1848068333524996,0.3941655786815084
-3.9325,0.1741366584948169,0.4153588554918433
-3.932,0.1741366584948169,0.4259554938970107
-3.9315,0.2701682322139607,0.4789386859228479
-3.931,0.825017324813458,0.7968378380778709
-3.9305,1.625280439139656,1.231300012689736
-3.93,2.105438307735375,1.326669758336243
-3.9295,1.977396209443183,1.093543713422559
-3.929,1.51857869056283,0.7862411996727035
-3.9285,0.6116138276598051,0.07626642652648545
-3.928,-0.1993194615240755,-0.4959520473525559
-3.9275,-0.3380317346739499,-0.4323722169215513
-3.927,-0.3487019095316325,-0.3793890248957141
-3.9265,-0.2099896363817582,-0.2416327256285375
-3.926,-0.01792648894347063,-0.1144730647665284
-3.9255,-0.09261771294724913,-0.3581957480853793
-3.925,-0.1139580626626144,-0.4535654937318862
-3.9245,-0.04993701351651855,-0.3899856633008816
-3.924,0.01408403562957729,-0.2840192792492073
-3.9235,0.07810508477567314,-0.1780528951975329
-3.923,-0.007256314085787988,-0.1250697031716958
-3.9225,-0.690147504977477,-0.1356663415768632
-3.922,-1.51175096901904,-0.3158091944647096
-3.9215,-1.938557963326346,-0.6760949002404023
-3.921,-2.173301810195364,-0.8456411147230812
-3.9205,-1.714484291315011,-0.6337083466197325
-3.92,-0.9995825758502737,-0.3052125560595421
-3.9195,-0.4020527838200457,-0.008506680714854012
-3.919,-0.01792648894347063,0.2034260873884947
-3.9185,0.1741366584948169,0.3199891098453364
-3.918,0.2381577076409128,0.383568940276341
-3.9175,0.2381577076409128,0.4047622170866759
-3.917,0.2168173579255475,0.4153588554918433
-3.9165,0.1954770082101822,0.4047622170866759
-3.916,0.1848068333524996,0.3941655786815084
-3.9155,0.1848068333524996,0.383568940276341
-3.915,0.1954770082101822,0.3623756634660061
-3.9145,0.4729015545099309,0.383568940276341
-3.914,1.123782220828572,0.4259554938970107
-3.9135,1.571929564851243,0.2776025562246667
-3.913,1.678631313428069,0.2140227257936621
-3.9125,1.529248865420512,0.2670059178194992
-3.912,1.187803269974668,0.08686306493165288
-3.9115,0.8143471499557753,-0.07208651114585861
-3.911,0.5049120790829789,-0.1780528951975329
-3.9105,0.291508581929326,-0.252229364033705
-3.91,0.1634664836371343,-0.2734226408440398
-3.9095,-0.2953510352432193,-0.6654982618352349
-3.909,-0.7328282044082075,-1.068170521231597
-3.9085,-0.5834457564006506,-0.8668343915334161
-3.908,-0.4340633083930936,-0.6549016234300674
-3.9075,-0.2099896363817582,-0.3581957480853793
-3.907,0.02475421048725994,-0.02969995752518888
-3.9065,0.0674349099179905,0.1186529801471552
-3.906,-0.4554036581084589,0.1504428953626575
-3.9055,-1.351698346153801,0.02328323450064829
-3.905,-1.885207089037933,-0.3370024712750445
-3.9045,-2.162631635337682,-0.1886495336027004
-3.904,-2.162631635337682,0.3305857482505039
-3.9035,-1.533091318734406,0.4683420475176805
-3.903,-0.7968492535543035,0.3941655786815084
-3.9025,-0.2526703358124887,0.2776025562246667
-3.902,0.0674349099179905,0.2034260873884947
-3.9015,0.2061471830678648,0.1716361721729923
-3.901,0.2488278824985954,0.1928294489833272
-3.9005,0.2381577076409128,0.2352160026039969
-3.9,0.2168173579255475,0.2987958330350016
-3.8995,0.1954770082101822,0.3517790250608387
-3.899,0.1848068333524996,0.4047622170866759
-3.8985,0.1954770082101822,0.4365521323021782
-3.898,0.3875401556484697,0.55311515475902
-3.8975,1.059761171682476,0.92399749893988
-3.897,1.539919040278195,1.188913459069066
-3.8965,1.614610264281974,1.104140351827727
-3.896,1.326515543124542,0.8392243916985406
-3.8955,0.974399772821015,0.55311515475902
-3.895,0.6542945270905358,0.3729723018711736
-3.8945,0.408880505363835,0.2352160026039969
-3.894,0.2488278824985954,0.1716361721729923
-3.8935,0.1634664836371343,0.1610395337678249
-3.893,0.1207857842064037,0.1504428953626575
-3.8925,0.05676473506030786,0.03387987290581572
-3.892,-0.04993701351651855,-0.1674562567923655
-3.8915,-0.03926683865883591,-0.1992461720078678
-3.891,-0.1459685872356623,-0.3158091944647096
-3.8905,-0.7008176798351597,-0.8880276683437509
-3.89,-0.6794773301197943,-0.7608680074817418
-3.8895,-0.8608703027003992,-0.6760949002404023
-3.889,-1.458400094730627,-0.8032545611024114
-3.8885,-1.735824641030376,-1.078767159636765
-3.888,-1.821186039891837,-1.004590690800593
