Class_6_Listen_To_Quran/Class_6_Listen_To_Quran_AM_6.csv

#Digilent WaveForms Oscilloscope Acquisition
#Device Name: EExplorer
#Serial Number: SN:210151A2B84A
#Date Time: 2020-11-30 11:28:04.753
#Sample rate: 2000Hz
#Samples: 16384
#Trigger: Source: Channel 1 Type: Edge Condition: Rising Level: 0 V Hyst.: Auto HoldOff: 0 s
#Channel 1: Range: 1 V/div Offset: 0 V Attenuation: 1 X
#Channel 2: Range: 1 V/div Offset: 0 V Attenuation: 1 X
#Power Supplies: ON
#Fixed Supply: ON
#Voltage: 3.3 V Readback: 3.317 V
#Positive Supply: ON
#Voltage: 3.7 V Readback: 3.717 V
#Current: 500 mA Readback: 14 mA
#Negative Supply: ON
#Voltage: -3.7 V Readback: -3.712 V
#Current: -500 mA Readback: -6 mA
#Reference 1: ON
#Voltage: 0 V
#Reference 2: ON
#Voltage: 0 V

Time (s),Channel 1 (V),Channel 2 (V)
-4.096,1.699971663143435,-1.089363798041932
-4.0955,1.817343586577837,-0.633708346620147
-4.095,1.721312012858615,0.08686306493236606
-4.0945,1.51857869056283,0.8710143069140429
-4.094,1.443887466559119,1.188913459068777
-4.0935,1.305175193408866,1.231300012689871
-4.093,0.9637295979633325,1.37965295036208
-4.0925,0.6542945270908173,1.496215972818815
-4.092,0.4408910299367859,1.496215972818873
-4.0915,0.3341892813600565,1.443232780793084
-4.091,0.3021787567870086,1.612778995275763
-4.0905,0.2061471830673311,1.792921848162916
-4.09,-0.3807124341046804,1.029963882991555
-4.0895,-1.116954499284783,-0.09327978795619347
-4.089,-1.863866739321888,-1.025783967610079
-4.0885,-2.568098279929622,-1.714565463946811
-4.088,-2.781501777083275,-2.064254531317336
-4.0875,-2.738821077652583,-2.064254531317336
-4.087,-1.949228138183156,-1.470842780627121
-4.0865,-0.9889124009925911,-0.5489352393783931
-4.086,-0.2740106855285042,0.118652980146548
-4.0855,0.1421261339219437,0.5001319627333081
-4.085,0.3341892813600565,0.6378882620003594
-4.0845,0.3661998059330753,0.6272916235952016
-4.084,0.3448594562177101,0.5531151547589236
-4.0835,0.3128489316446912,0.4471487707073456
-4.083,0.2594980573562781,0.2776025562246667
-4.0825,-0.1993194615246093,-0.2522293640343122
-4.082,-0.7861790786966207,-0.9198175835592532
-4.0815,-1.138294849000148,-1.492036057438295
-4.081,-0.8928808272736704,-1.926498232049764
-4.0805,0.1741366584948169,-2.064254531317336
-4.08,1.102441871113207,-2.032464616101834
-4.0795,1.6572909637122,-1.799338571188362
-4.079,1.849354111150943,-1.311893204549754
-4.0785,1.796003236862578,-0.5489352393783931
-4.078,1.593269914566792,0.2881991946290727
-4.0775,1.465227816274387,0.8922075837246091
-4.077,1.433217291701369,1.146526905448396
-4.0765,1.134452395686526,1.210106735879343
-4.076,0.8036769750978598,1.199510097474185
-4.0755,0.5475927785137094,1.146526905448396
-4.075,0.3982103305061524,1.082947075017392
-4.0745,0.1848068333518882,0.9239974989392343
-4.074,-0.4874141826815069,0.2140227257936621
-4.0735,-1.084943974711735,-0.6443049850249
-4.073,-1.533091318733998,-1.343683119765315
-4.0725,-2.045259711903173,-1.873515040024322
-4.072,-2.60010880450267,-2.064254531317336
-4.0715,-2.781501777083109,-1.905304955239969
-4.071,-2.781501777082886,-0.6337083466186435
-4.0705,-2.354694782775969,0.5637117931641874
-4.07,-1.330357996439367,0.9875773293704992
-4.0695,-0.5194247072540599,0.9875773293707498
-4.069,0.02475421048725994,0.8392243916985406
-4.0685,0.291508581929326,0.6802748156210291
-4.068,0.3982103305061621,0.5849050699744837
-4.0675,0.408880505363835,0.5425185163538525
-4.067,0.3768699807907871,0.5637117931641874
-4.0665,0.3341892813596975,0.5849050699741656
-4.066,-0.06060718837420119,0.1928294489833272
-4.0655,-0.7114878546928423,-0.5383386009732256
-4.065,-1.106284324426741,-1.163540266877536
-4.0645,-1.031593100423322,-1.576809164679634
-4.064,0.03542438534494258,-1.75695201756748
-4.0635,1.123782220827582,-1.672178910326218
-4.063,1.753322537432052,-1.386069673386264
-4.0625,1.977396209443183,-0.9939940523954253
-4.062,1.913375160297146,-0.4641621321375354
-4.0615,1.699971663143231,0.319989109845905
-4.061,1.475897991132099,0.9451907757502149
-4.0605,1.497238340847464,0.9875773293708847
-4.06,1.315845368266559,1.104140351827833
-4.0595,0.9850699476786977,1.220703374284568
-4.059,0.6863050516635838,1.273686566310405
-4.0585,0.462231379652452,1.231300012689774
-4.058,0.3661998059331045,1.210106735879401
-4.0575,0.4729015545099309,1.549199164844759
-4.057,0.1421261339220698,1.422039503982865
-4.0565,-0.6367966306890638,0.4683420475176805
-4.056,-1.479740444445993,-0.5489352393783931
-4.0555,-2.226652684483098,-0.7714646458867068
-4.055,-2.760161427367948,0.1716361721740525
-4.0545,-2.80284212679864,1.33726639674141
-4.054,-2.504077230783798,1.973064701050878
-4.0535,-1.490410619302889,1.750535294542477
-4.053,-0.6261264558313813,1.241896651094903
-4.0525,-0.03926683865883591,0.7862411996727035
-4.052,0.2701682322140577,0.4895353243278997
-4.0515,0.3768699807907871,0.3623756634660061
-4.051,0.3768699807907871,0.3411823866556712
-4.0505,0.3341892813600953,0.3941655786814602
-4.05,0.3021787567870086,0.4683420475176805
-4.0495,0.04609456020262521,0.3199891098453364
-4.049,-0.5194247072540404,-0.3158091944641313
-4.0485,-0.8288597781273126,-0.9198175835595231
-4.048,-0.7861790786966207,-1.216523458903942
-4.0475,0.1207857842055788,-1.26950665092973
-4.047,1.070431346540712,-1.237716735714141
-4.0465,1.678631313428069,-1.089363798041932
-4.046,1.93471551001222,-0.835044476318145
-4.0455,1.924045335154615,-0.3581957480847432
-4.045,1.753322537431848,0.3411823866556712
-4.0445,1.507908515705147,0.9875773293708847
-4.044,1.411876941985838,1.220703374284578
-4.0435,1.230483969405398,1.231300012689736
-4.043,0.9103787236749192,1.305476481525908
-4.0425,0.6222840025177498,1.347863035146539
-4.042,0.4515612047945656,1.326669758336243
-4.0415,0.3448594562177392,1.231300012689736
-4.041,0.216817357925664,1.231300012689736
-4.0405,-0.01792648894412082,1.485619334413253
-4.04,-0.7328282044082075,0.9345941373450475
-4.0395,-1.458400094729967,-0.09327978795525871
-4.039,-2.151961460480513,-0.9939940523960421
-4.0385,-2.717480727937179,-1.672178910326141
-4.038,-2.792171951940889,-2.064254531316979
-4.0375,-2.749491252509547,-2.085447808127179
-4.037,-2.002579012472442,-1.545019249464132
-4.0365,-1.020922925565639,-0.6231117082145651
-4.036,-0.2953510352428214,0.06566978812168425
-4.0355,0.142126133921769,0.4683420475176805
-4.035,0.3448594562177392,0.627291623595192
-4.0345,0.4088805053637768,0.627291623595192
-4.034,0.3768699807907871,0.5425185163538525
-4.0335,0.3235191065023739,0.3623756634660061
-4.033,0.1848068333526257,0.1504428953628502
-4.0325,-0.4127229586781845,-0.4111789401118044
-4.032,-0.9142211769888124,-1.05757388282643
-4.0315,-1.063603624996234,-1.534422611058531
-4.031,-0.3273615598152871,-1.756952017567625
-4.0305,0.7503261008096795,-1.915901593644992
-4.03,1.529248865419804,-1.979481424075939
-4.0295,1.924045335154828,-1.926498232049793
-4.029,1.988066384300866,-1.523825972653797
-4.0285,1.849354111150991,-0.792657922697244
-4.028,1.603940089424145,-0.05089323433502259
-4.0275,1.443887466559051,0.5001319627331828
-4.027,1.305175193409177,0.7332580076468663
-4.0265,0.9850699476789888,0.9451907757500222
-4.026,0.6863050516635838,1.082947075017392
-4.0255,0.4942419042252961,1.167720182258731
-4.025,0.3982103305062398,1.188913459069046
-4.0245,0.2488278824982945,1.305476481526235
-4.024,-0.08194753808956648,1.6657621873016
-4.0235,-0.7221580295499427,1.146526905448868
-4.023,-1.351698346154383,0.08686306493079514
-4.0225,-1.991908837614759,-0.8562377531282487
-4.022,-2.600108804502117,-1.555615887868663
-4.0215,-2.781501777083275,-1.746355379161291
-4.021,-2.781501777083275,-0.6231117082145651
-4.0205,-2.258663209056825,0.4789386859228479
-4.02,-1.244996597576246,0.9134008605347609
-4.0195,-0.4447334832507763,0.9663840525605498
-4.019,0.05676473506030786,0.8816109453192104
-4.0185,0.3128489316444583,0.7650479228624746
-4.018,0.3982103305061524,0.6908714540261965
-4.0175,0.3875401556484697,0.6484849004055269
-4.017,0.3555296310754509,0.6272916235952113
-4.0165,0.3128489316444777,0.6272916235949703
-4.016,0.07810508477567314,0.383568940276341
-4.0155,-0.3166913849582255,-0.2310360872228111
-4.015,-0.6367966306890444,-0.8032545611027969
-4.0145,-0.6154562809736985,-1.227120097309109
-4.014,0.3555296310745387,-1.545019249463843
-4.0135,1.411876941986498,-1.672178910326035
-4.013,1.956055859727818,-1.555615887869299
-4.0125,2.094768132877692,-1.290699927740113
-4.012,1.988066384300643,-0.8562377531276897
-4.0115,1.742652362574165,-0.2416327256285375
-4.011,1.475897991132099,0.4365521323021782
-4.0105,1.251824319120967,1.008770606180699
-4.01,0.942389248247967,1.33726639674141
-4.0095,0.6649647019482183,1.453829419198252
-4.009,0.4729015545101056,1.400846227172463
-4.0085,0.3555296310753538,1.284283204715428
-4.008,0.2808384070716433,1.125333628638062
-4.0075,0.03542438534516579,0.8074344764833274
-4.007,-0.327361559816636,0.1186529801464613
-4.0065,-0.7328282044082075,-0.6443049850249
-4.006,-1.159635198715513,-1.237716735714276
-4.0055,-1.757164990746314,-1.152943628471877
-4.005,-2.386705307349017,0.01268659609548085
-4.0045,-2.770831602225592,1.284283204715573
-4.004,-2.450726356494211,1.941274785835751
-4.0035,-1.458400094730627,1.718745379327438
-4.003,-0.6154562809736985,1.188913459069066
-4.0025,-0.03926683865935998,0.7226613692421229
-4.002,0.2594980573562781,0.4259554938970107
-4.0015,0.3768699807907871,0.2881991946298341
-4.001,0.3768699807907871,0.2564092794143607
-4.0005,0.3448594562177004,0.2987958330350594
-4,0.3021787567870086,0.3623756634660061
-3.9995,0.01408403562957729,0.1716361721729923
-3.999,-0.6367966306890638,-0.4429688553267188
-3.9985,-0.9889124009925911,-1.036380606016095
-3.998,-0.9889124009925911,-1.417859588602123
-3.9975,-0.07127736323188383,-1.555615887869299
-3.997,0.9637295979633325,-1.449649503817625
-3.9965,1.614610264281974,-1.131750351662602
-3.996,1.860024286008674,-0.7078848154559045
-3.9955,1.870694460866357,-0.2416327256285375
-3.995,1.7213120128588,0.3729723018711736
-3.9945,1.486568165989782,0.9981739677760521
-3.994,1.443887466559051,1.199510097474233
-3.9935,1.283834843693812,1.231300012689736
-3.993,0.942389248247967,1.33726639674141
-3.9925,0.6542945270905358,1.37965295036208
-3.992,0.4515612047945656,1.33726639674141
-3.9915,0.3341892813600565,1.220703374284568
-3.991,0.1848068333524996,1.390249588767247
-3.9905,0.1314559590640864,1.729342017732605
-3.99,-0.3487019095316325,1.167720182258731
-3.9895,-1.1062843244271,0.07626642652648545
-3.989,-1.87453691418025,-0.8986243067489184
-3.9885,-2.578768454787304,-1.629792356705471
-3.988,-2.781501777083275,-2.064254531317336
-3.9875,-2.717480727937179,-2.011271339291499
-3.987,-1.863866739322568,-1.269506650929778
-3.9865,-0.9248913518464952,-0.4323722169215513
-3.986,-0.2313299860971235,0.1610395337678249
-3.9855,0.1741366584948169,0.4789386859228479
-3.985,0.3555296310754218,0.5955017083796896
-3.9845,0.408880505363835,0.5743084315693548
-3.984,0.3555296310754218,0.4683420475176805
-3.9835,0.3128489316446912,0.3729723018711736
-3.983,0.1954770082101822,0.13984625695749
-3.9825,-0.3380317346739499,-0.4641621321370536
-3.982,-0.7755089038389382,-1.089363798041932
-3.9815,-1.1062843244271,-1.598002441489969
-3.981,-0.6688071552621118,-1.979481424075996
-3.9805,0.3128489316446912,-2.074851169722503
-3.98,1.134452395686255,-2.000674700886331
-3.9795,1.614610264281974,-1.714565463946811
-3.979,1.785333062004896,-1.131750351662602
-3.9785,1.7213120128588,-0.2734226408440398
-3.978,1.539919040278195,0.5001319627331828
-3.9775,1.401206767128321,0.8922075837243778
-3.977,1.230483969405398,0.9557874141553824
-3.9765,1.070431346540159,1.082947075017392
-3.976,0.9530594231056497,1.199510097474233
-3.9755,0.7289857510943143,1.220703374284568
-3.975,0.5369226036560266,1.210106735879401
-3.9745,0.2488278824985954,1.019367244586387
-3.974,-0.3593720843893152,0.2140227257936621
-3.9735,-0.9462317015618604,-0.6866915386455698
-3.973,-1.46907026958831,-1.322489842955616
-3.9725,-2.023919362187807,-1.778145294377815
-3.972,-2.60010880450267,-2.043061254507001
-3.9715,-2.781501777083275,-1.439052865412457
-3.971,-2.770831602225592,0.002089957690313421
-3.9705,-2.087940411333903,0.8710143069140429
-3.97,-1.095614149569417,1.029963882991555
-3.9695,-0.3487019095316325,0.8922075837243778
-3.969,0.1101156093487211,0.6802748156210291
-3.9685,0.3341892813600565,0.5001319627331828
-3.968,0.3768699807907871,0.3941655786815084
-3.9675,0.3555296310754218,0.3517790250608387
-3.967,0.3235191065023739,0.3729723018711736
-3.9665,0.2594980573562781,0.3517790250608387
-3.966,-0.2633405106701714,-0.08268314955102604
-3.9655,-0.7861790786966207,-0.7608680074817418
-3.965,-1.084943974711735,-1.34368311976595
-3.9645,-0.9569018764195432,-1.714565463946811
-3.964,0.142126133921769,-1.831128486403653
-3.9635,1.145122570543937,-1.650985633515806
-3.963,1.7213120128588,-1.301296566145281
-3.9625,1.92404533515477,-0.8774310299385835
-3.962,1.870694460866357,-0.2310360872233701
-3.9615,1.667961138570387,0.5743084315693548
-3.961,1.465227816274416,1.093543713422559
-3.9605,1.411876941986003,1.104140351827727
-3.96,1.134452395686255,1.199510097474233
-3.9595,0.8036769750980928,1.316073119931075
-3.959,0.5475927785137094,1.358459673551745
-3.9585,0.3875401556484697,1.305476481525908
-3.958,0.2808384070716433,1.199510097474233
-3.9575,-0.2420001609548061,0.7438546460520338
-3.957,-1.031593100423322,-0.06148987274069118
-3.9565,-1.607782542738184,-0.8986243067489184
-3.956,-2.109280761049269,-1.555615887869299
-3.9555,-2.632119329075718,-2.011271339291499
-3.955,-2.781501777083275,-1.746355379162313
-3.9545,-2.781501777083275,-0.3475991096802118
-3.954,-2.450726356495113,0.8286277532933731
-3.9535,-1.426389570157579,1.114736990232894
-3.953,-0.5834457564006506,0.9345941373450475
-3.9525,-0.01792648894347063,0.627291623595192
-3.952,0.2808384070716433,0.3623756634660061
-3.9515,0.3768699807907871,0.1822328105781598
-3.951,0.3875401556484697,0.1080563417419877
-3.9505,0.3768699807907871,0.1186529801471552
-3.95,0.3341892813600565,0.1610395337678249
-3.9495,-0.04993701351651855,-0.07208651114585861
-3.949,-0.722158029550525,-0.6654982618352349
-3.9485,-1.116954499284783,-1.237716735714276
-3.948,-1.074273799854052,-1.629792356705471
-3.9475,-0.2633405106701714,-1.598002441489969
-3.947,0.6863050516635838,-1.396666311791788
-3.9465,1.379866417412955,-1.142346990067769
-3.946,1.731982187716482,-0.792657922697244
-3.9455,1.796003236862578,-0.2310360872233701
-3.945,1.678631313428069,0.4683420475176805
-3.9445,1.486568165989782,1.114736990232894
-3.944,1.443887466559051,1.464426057603419
-3.9435,1.219813794547716,1.580989080060261
-3.943,0.8890383739595538,1.633972272086098
-3.9425,0.6116138276598051,1.591585718465428
-3.942,0.4302208550792003,1.485619334413754
-3.9415,0.3341892813600565,1.33726639674141
-3.941,-0.03926683865883591,0.8710143069140429
-3.9405,-0.7328282044082075,-0.07208651114585861
-3.94,-1.330357996438436,-0.9516074987747555
-3.9395,-1.927887788468663,-1.619195718300304
-3.939,-2.546757930214257,-2.043061254507001
-3.9385,-2.770831602225592,-2.106641084938006
-3.938,-2.770831602225592,-2.106641084938006
-3.9375,-2.664129853648766,-2.043061254507001
-3.937,-1.767835165603424,-1.322489842955616
-3.9365,-0.839529952985034,-0.474758770542221
-3.936,-0.1673089369510276,0.1186529801471552
-3.9355,0.2168173579255475,0.4259554938970107
-3.935,0.3661998059331045,0.5107286011383502
-3.9345,0.3875401556484697,0.4471487707073456
-3.934,0.3555296310754218,0.3199891098453364
-3.9335,0.3021787567870086,0.1186529801471552
-3.933,0.2061471830678648,-0.09327978795619347
-3.9325,-0.2953510352432193,-0.5595318777835605
-3.932,-0.7114878546928423,-1.121153713257435
-3.9315,-0.9462317015618604,-1.629792356705471
-3.931,-0.3487019095316325,-1.990078062481164
-3.9305,0.79300680024041,-2.064254531317336
-3.93,1.582599739708926,-2.011271339291499
-3.9295,1.945385684870135,-1.725162102351978
-3.929,1.977396209443183,-1.174136905283272
-3.9285,1.828013761435626,-0.4323722169215513
-3.928,1.582599739708926,0.3411823866556712
-3.9275,1.454557641416734,0.8392243916985406
-3.927,1.337185717982225,0.9663840525605498
-3.9265,1.027750647109428,1.135930267043229
-3.926,0.7396559259519968,1.25249328950007
-3.9255,0.5369226036560266,1.305476481525908
-3.925,0.408880505363835,1.273686566310405
-3.9245,0.4515612047945656,1.432636142387917
-3.924,0.9317190733902845,1.898888232215284
-3.9235,0.7396559259519968,1.771728571353275
-3.923,-0.03926683865883591,0.7438546460520338
-3.9225,-0.9462317015618604,-0.3052125560595421
-3.922,-1.810515865034154,-0.2628260024388724
-3.9215,-2.557428105071939,0.6908714540261965
-3.921,-2.770831602225592,1.676358825706768
-3.9205,-2.205312334768412,1.951871424241121
-3.92,-1.202315898146244,1.580989080060261
-3.9195,-0.423393133535411,1.082947075017392
-3.919,0.0674349099179905,0.7120647308365314
-3.9185,0.3128489316446912,0.5107286011383502
-3.918,0.3982103305061524,0.457745409112513
-3.9175,0.3768699807907871,0.4789386859228479
-3.917,0.3448594562177392,0.5637117931641874
-3.9165,0.2274875327832301,0.5637117931641874
-3.916,-0.3700422592469978,0.04447651131098315
-3.9155,-0.8822106524157645,-0.6019184314042303
-3.915,-1.052933450138687,-1.004590690800593
-3.9145,-0.5621054066852853,-0.9939940523954253
-3.914,0.4195506802215176,-0.9939940523954253
-3.9135,1.262494493978446,-0.9728007755850904
-3.913,1.753322537431848,-0.8774310299385835
-3.9125,1.92404533515477,-0.6654982618352349
-3.912,1.860024286008674,-0.1674562567923655
-3.9115,1.657290963712704,0.55311515475902
-3.911,1.486568165989782,1.188913459069066
-3.9105,1.390536592270638,1.602182356870596
-3.91,1.070431346540159,1.612778995275763
-3.9095,0.7396559259519968,1.411442865577582
-3.909,0.5049120790829789,1.146526905448396
-3.9085,0.3768699807907871,0.9028042221295453
-3.908,0.2168173579255475,0.6590815388106942
-3.9075,-0.4127229586777283,0.002089957690313421
-3.907,-0.9889124009925911,-0.792657922697244
-3.9065,-1.426389570157579,-1.460246142222792
-3.906,-1.949228138184029,-1.958288147265661
-3.9055,-2.514747405641209,-2.106641084938006
-3.905,-2.76016142736791,-2.106641084938006
-3.9045,-2.770831602225592,-2.106641084938006
-3.904,-2.386705307349017,-1.84172512480882
-3.9035,-1.373038695869166,-0.9198175835592532
-3.903,-0.5407650569699201,-0.1038764263613609
-3.9025,0.00341386077189465,0.4259554938970107
-3.902,0.291508581929326,0.6908714540261965
-3.9015,0.3875401556484697,0.7544512844572011
-3.901,0.3875401556484697,0.7120647308365314
-3.9005,0.3448594562177392,0.6166949851900245
-3.9,0.291508581929326,0.4789386859228479
-3.8995,-0.04993701351651855,0.02328323450064829
-3.899,-0.6474668055467465,-0.6866915386455698
-3.8985,-0.9569018764195432,-1.311893204550448
-3.898,-1.06360362499637,-1.820531847998485
-3.8975,-0.1352984123779797,-2.074851169722503
-3.897,0.9957401225363802,-2.085447808127671
-3.8965,1.699971663143435,-2.032464616101834
-3.896,1.977396209443183,-1.746355379162313
-3.8955,1.956055859727818,-1.142346990067769
-3.895,1.76399271228953,-0.3370024712750445
-3.8945,1.51857869056283,0.4365521323021782
-3.894,1.486568165989782,1.104140351827727
-3.8935,1.251824319120764,1.369056311956912
-3.893,0.9103787236749192,1.316073119931075
-3.8925,0.6116138276598051,1.146526905448396
-3.892,0.4302208550792003,0.9663840525605498
-3.8915,0.3021787567870086,0.8286277532933731
-3.891,-0.1673089369510276,0.5637117931641874
-3.8905,-0.7968492535543035,0.09745970333682032
-3.89,-1.287677297007705,-0.6337083466197325
-3.8895,-1.799845690176472,-1.301296566145281
-3.889,-2.365364957633652,-1.820531847998485
-3.8885,-2.738821077652544,-2.053657892912168
-3.888,-2.781501777083275,-1.34368311976595
-3.8875,-2.738821077652544,0.08686306493165288
-3.887,-1.991908837614759,0.8922075837243778
-3.8865,-1.020922925565639,1.072350436612224
-3.886,-0.2846808603855366,0.9981739677760521
-3.8855,0.1527963087794516,0.849821030103708
-3.885,0.3555296310754218,0.7332580076468663
-3.8845,0.3982103305061524,0.6590815388106942
-3.884,0.3768699807907871,0.6590815388106942
-3.8835,0.3341892813600565,0.6484849004055269
