Class_6_Listen_To_Quran/Class_6_Listen_To_quran_Zakour_2_.csv

#Digilent WaveForms Oscilloscope Acquisition
#Device Name: EExplorer
#Serial Number: SN:210151A2B84A
#Date Time: 2020-10-27 13:53:57.066
#Sample rate: 2000Hz
#Samples: 16384
#Trigger: Source: Channel 1 Type: Edge Condition: Rising Level: 0 V Hyst.: Auto HoldOff: 0 s
#Channel 1: Range: 1 V/div Offset: 0 V Attenuation: 1 X
#Channel 2: Range: 1 V/div Offset: 0 V Attenuation: 1 X
#Power Supplies: ON
#Fixed Supply: ON
#Voltage: 3.3 V Readback: 3.328 V
#Positive Supply: ON
#Voltage: 3.7 V Readback: 3.718 V
#Current: 500 mA Readback: 20 mA
#Negative Supply: ON
#Voltage: -3.7 V Readback: -3.706 V
#Current: -500 mA Readback: -8 mA
#Reference 1: ON
#Voltage: 0 V
#Reference 2: ON
#Voltage: 0 V

Time (s),Channel 1 (V),Channel 2 (V)
-4.096,-0.1993194615240755,-0.7290780922662394
-4.0955,-0.2633405106701132,-0.8138511995075017
-4.095,-0.2740106855278831,-0.919817583558993
-4.0945,-0.3060212101009019,-0.6337083466197325
-4.094,-0.2633405106702102,-0.2522293640340519
-4.0935,-0.220659811239402,0.02328323450096633
-4.093,-0.1779791118087102,0.3729723018711736
-4.0925,-0.1779791118087102,0.4789386859227515
-4.092,-0.09261771294692889,0.03387987290515072
-4.0915,0.2594980573562781,-0.6972881770507372
-4.091,0.8356874996711408,-1.195330182093607
-4.0905,0.5369226036549688,-1.280103289334801
-4.09,-0.6261264558313813,-1.121153713257435
-4.0895,-1.714484291315011,-0.8244478379127463
-4.089,-2.023919362187526,-0.3899856633012767
-4.0885,-1.607782542738184,0.5001319627331828
-4.088,-1.010252750707956,1.517409249629256
-4.0875,-0.540765056970347,2.290963853205775
-4.087,-0.2420001609546799,2.714829389413215
-4.0865,-0.1032878878049318,2.757215943033846
-4.086,-0.04993701351656708,2.428720152473955
-4.0855,-0.02859666380114357,1.909484870619892
-4.085,-0.01792648894347063,1.29487984312074
-4.0845,0.04609456020256698,0.5531151547596946
-4.084,0.4729015545106684,-0.315809194465442
-4.0835,1.283834843693812,-1.121153713257435
-4.083,2.030747083731597,-1.767548655972648
-4.0825,2.457554078038718,-2.212607468989602
-4.082,2.254820755742932,-2.127834361748341
-4.0815,1.593269914566608,-1.555615887869299
-4.081,0.8890383739601943,-1.078767159637198
-4.0805,0.3768699807907871,-0.7714646458869092
-4.08,0.03542438534494258,-0.6443049850249
-4.0795,-0.1459685872354974,-0.6231117082145844
-4.079,-0.1993194615240464,-0.6866915386456854
-4.0785,-0.1673089369510276,-0.8138511995075789
-4.078,-0.1139580626626629,-0.6972881770508432
-4.0775,-0.1032878878049415,-0.2522293640333966
-4.077,-0.1139580626626144,0.08686306493165288
-4.0765,-0.1352984123779603,0.4047622170863867
-4.076,-0.156638762093345,0.5107286011380514
-4.0755,-0.156638762093345,0.1822328105781598
-4.075,0.0674349099179905,-0.5383386009732256
-4.0745,0.5369226036562498,-1.174136905283532
-4.074,0.7823366253827275,-1.460246142222792
-4.0735,-0.1032878878049318,-1.375473034981453
-4.073,-1.309017646721974,-1.078767159637035
-4.0725,-1.959898313041711,-0.6125150698093976
-4.072,-1.714484291315011,0.3623756634660061
-4.0715,-1.148965023858345,1.453829419197259
-4.071,-0.6474668055464456,2.269770576396578
-4.0705,-0.3166913849585846,2.746619304628679
-4.07,-0.1352984123781447,2.873778965490573
-4.0695,-0.07127736323185471,2.736022666223261
-4.069,-0.03926683865883591,2.460510067689158
-4.0685,-0.01792648894347063,2.110821000318633
-4.068,0.3128489316452638,1.379652950361106
-4.0675,0.942389248247967,0.309392471440169
-4.067,1.678631313428069,-0.7290780922662394
-4.0665,2.276161105458627,-1.534422611059504
-4.066,2.638947050619507,-2.127834361748341
-4.0655,2.670957575192555,-2.307977214636187
-4.065,2.116108482593562,-2.043061254507242
-4.0645,1.305175193409177,-1.407262950196955
-4.064,0.6009436528021226,-0.9304142219644207
-4.0635,0.1634664836375322,-0.6654982618354758
-4.063,-0.08194753808966353,-0.591321792999111
-4.0625,-0.1886492866663929,-0.6443049850249
-4.062,-0.2633405106701034,-0.7608680074816357
-4.0615,-0.2206598112393826,-0.8138511995072513
-4.061,-0.156638762093345,-0.4535654937318862
-4.0605,-0.1459685872356623,-0.06148987274069118
-4.06,-0.1459685872356817,0.2458126410092704
-4.0595,-0.1673089369510276,0.3623756634660061
-4.059,-0.2206598112394408,0.1928294489833272
-4.0585,0.02475421048703672,-0.4111789401106671
-4.058,0.6436243522328531,-1.089363798041932
-4.0575,1.102441871113207,-1.460246142222792
-4.057,0.3555296310761011,-1.460246142222792
-4.0565,-0.9569018764195432,-1.216523458903942
-4.056,-2.013249187330125,-0.8668343915334161
-4.0555,-2.1412912856222,-0.2416327256291062
-4.055,-1.597112367879939,0.8180311148891117
-4.0545,-0.9782422261349084,1.814115124973944
-4.054,-0.5087545323972991,2.481703344498886
-4.0535,-0.2313299860969973,2.810199135059626
-4.053,-0.09261771294724913,2.746619304628679
-4.0525,-0.03926683865883591,2.49229998290466
-4.052,-0.0179264889434124,2.153207553938975
-4.0515,0.04609456020262521,1.79292184816361
-4.051,0.3235191065023739,1.093543713422559
-4.0505,0.8890383739590393,0.06566978812225277
-4.05,1.646620788855021,-0.9304142219644207
-4.0495,2.265490930600615,-1.693372187136476
-4.049,2.585596176330803,-2.212607468989208
-4.0485,2.318841804888387,-2.191414192178815
-4.048,1.614610264281974,-1.608599079895136
-4.0475,0.846357674529522,-1.036380606016615
-4.047,0.2915085819290155,-0.7078848154557889
-4.0465,-0.04993701351651855,-0.5807251545938954
-4.046,-0.1886492866662667,-0.5595318777835798
-4.0455,-0.2633405106702199,-0.6337083466198096
-4.045,-0.3166913849585846,-0.718481453861072
-4.0445,-0.3487019095316325,-0.5595318777835605
-4.044,-0.3166913849585263,-0.315809194464565
-4.0435,-0.2526703358124887,-0.1568596183871981
-4.043,-0.2206598112394408,-0.01910331912002144
-4.0425,-0.3166913849584972,0.04447651131092532
-4.042,-1.020922925565639,-0.4217755785163839
-4.0415,-1.906547438753298,-1.046977244421262
-4.041,-2.696140378221096,-1.417859588601785
-4.0405,-2.941554399948544,-1.343683119765738
-4.04,-2.973564924521563,-1.110557074852267
-4.0395,-2.973564924521563,-0.8138511995078488
-4.039,-2.941554399947816,-0.4853554089468006
-4.0385,-2.173301810195364,0.1610395337678249
-4.038,-1.255666772435492,1.135930267042342
-4.0375,-0.6047861061156762,1.983661339457096
-4.037,-0.2313299860971235,2.502896621309828
-4.0365,-0.06060718837420119,2.640652920577004
-4.036,-0.007256314085787988,2.513493259714735
-4.0355,-0.007256314085787988,2.227384022775475
-4.035,-0.007256314085787988,1.814115124973944
-4.0345,0.05676473506024964,1.135930267043845
-4.034,0.4515612047945656,0.2458126410091644
-4.0335,1.230483969405398,-0.6972881770507372
-4.033,1.977396209442504,-1.470842780627256
-4.0325,2.468224252896575,-2.053657892912284
-4.032,2.457554078038902,-2.180817553774178
-4.0315,1.860024286009218,-1.619195718300814
-4.031,1.102441871112634,-1.078767159636504
-4.0305,0.4729015545099309,-0.792657922697244
-4.03,0.06743490991835926,-0.6443049850250349
-4.0295,-0.1566387620934323,-0.6019184314042785
-4.029,-0.2526703358124887,-0.6549016234300674
-4.0285,-0.274010685527854,-0.7820612842920766
-4.028,-0.3593720843893055,-0.72907809226596
-4.0275,-0.3487019095316325,-0.4217755785163839
-4.027,-0.2846808603855366,-0.1780528951975329
-4.0265,-0.231329986097172,-0.008506680715008208
-4.026,-0.2206598112394408,0.05507314971615059
-4.0255,-0.5941159312583333,-0.2946159176543747
-4.025,-0.9248913518461943,-0.9304142219638425
-4.0245,-1.159635198715639,-1.407262950196965
-4.024,-1.298347471865388,-1.417859588602123
-4.0235,-1.757164990745324,-1.195330182093809
-4.023,-2.386705307349201,-0.9198175835589545
-4.0225,-2.589438629644987,-0.5913217929990628
-4.022,-1.927887788469265,0.1504428953619829
-4.0215,-1.191645723288027,1.157123543854325
-4.021,-0.6047861061160158,1.994257977861791
-4.0205,-0.2526703358124887,2.49229998290466
-4.02,-0.0926177129471909,2.661846197387214
-4.0195,-0.02859666380115328,2.524089898120163
-4.019,-0.01792648894347063,2.259173937990977
-4.0185,0.003413860771875242,1.835308401784665
-4.018,0.08877525963335578,1.231300012689736
-4.0175,0.291508581929326,0.4895353243280153
-4.017,0.9103787236743563,-0.3687923864897661
-4.0165,1.689301488286286,-1.184733543689017
-4.016,2.276161105458297,-1.820531847998485
-4.0155,2.308171630031316,-2.08544780812743
-4.015,1.774662887146582,-1.661582271920472
-4.0145,1.081101521397841,-1.110557074852267
-4.014,0.5049120790835029,-0.7820612842923753
-4.0135,0.09944543449082494,-0.676094900240383
-4.013,-0.1352984123779797,-0.6549016234300674
-4.0125,-0.2420001609548061,-0.6760949002404023
-4.012,-0.274010685527854,-0.7502713690766418
-4.0115,-0.274010685527854,-0.8244478379127463
-4.011,-0.274010685527854,-0.570128516188728
-4.0105,-0.2313299860971623,-0.2840192792494675
-4.01,-0.1886492866663929,-0.08268314955102604
-4.0095,-0.1779791118087102,0.09745970333682032
-4.009,-0.08194753808965383,0.1504428953626093
-4.0085,0.5475927785145052,-0.3370024712756227
-4.008,1.422547116843686,-0.9728007755850904
-4.0075,1.849354111150603,-1.31189320455014
-4.007,0.9103787236735315,-1.311893204550255
-4.0065,-0.6154562809736985,-1.0999604364471
-4.006,-1.543761493592088,-0.6549016234300674
-4.0055,-1.501080794160979,0.3305857482514772
-4.005,-1.084943974711735,1.400846227172415
-4.0045,-0.658136980404429,2.195594107559972
-4.004,-0.3487019095314772,2.651249558982326
-4.0035,-0.1779791118087102,2.820795773464851
-4.003,-0.1032878878049318,2.693636112602841
-4.0025,-0.07127736323191294,2.333350406827476
-4.002,-0.04993701351651855,1.941274785835954
-4.0015,-0.01792648894347063,1.464426057603419
-4.001,0.06743490991791287,0.849821030104267
-4.0005,0.526252428799072,0.1398462569566997
-4,1.326515543124542,-0.7290780922662394
-3.9995,2.052087433446962,-1.47084278062796
-3.999,2.318841804889028,-1.905304955239825
-3.9985,1.913375160297087,-1.672178910326141
-3.998,1.230483969405398,-1.248313374119443
-3.9975,0.6329541773751706,-0.9516074987747555
-3.997,0.2061471830678648,-0.8032545611024114
-3.9965,-0.04993701351651855,-0.7396747306714069
-3.996,-0.1886492866663929,-0.7396747306714069
-3.9955,-0.2526703358124887,-0.7820612842920766
-3.995,-0.2953510352432193,-0.8032545611024114
-3.9945,-0.3273615598162672,-0.5065486857577234
-3.994,-0.2846808603855366,-0.1886495336027004
-3.9935,-0.2420001609548061,0.03387987290581572
-3.993,-0.1993194615240755,0.2246193641988295
-3.9925,-0.2846808603855366,0.2776025562246667
-3.992,-0.9248913518464952,-0.2416327256285375
-3.9915,-1.821186039891837,-0.9092209451540858
-3.991,-2.621449154218035,-1.248313374119443
-3.9905,-2.930884225090832,-1.131750351662602
-3.99,-2.96289474966388,-0.8774310299385835
-3.9895,-2.96289474966388,-0.5595318777835605
-3.989,-2.482736881068161,0.03387987290581572
-3.9885,-1.490410619303675,1.029963882991555
-3.988,-0.7648387289812555,1.941274785835954
-3.9875,-0.3060212101009019,2.555879813335665
-3.987,-0.09261771294724913,2.852585688680353
-3.9865,-0.01792648894347063,2.820795773464851
-3.986,-0.01792648894347063,2.460510067689158
-3.9855,-0.02859666380115328,1.994257977861791
-3.985,-0.02859666380115328,1.549199164844759
-3.9845,-0.02859666380115328,1.157123543853563
-3.984,0.3875401556484697,0.457745409112513
-3.9835,1.230483969405398,-0.5277419625680583
-3.983,1.998736559158548,-1.354279758171118
-3.9825,2.510904952327315,-1.990078062481164
-3.982,2.532245302042681,-2.17022091536901
-3.9815,1.934715510012453,-1.608599079895136
-3.981,1.166462920259302,-1.05757388282643
-3.9805,0.5262524287983441,-0.718481453861072
-3.98,0.1101156093487211,-0.570128516188728
-3.9795,-0.1139580626626144,-0.5489352393783931
-3.979,-0.2099896363817582,-0.6019184314042303
-3.9785,-0.2633405106701714,-0.7078848154559045
-3.978,-0.4127229586777283,-0.6866915386455698
-3.9775,-0.4340633083930936,-0.3793890248957141
-3.977,-0.3487019095316325,-0.1144730647665284
-3.9765,-0.2633405106701714,0.07626642652648545
-3.976,-0.2313299860971235,0.1928294489833272
-3.9755,-0.2846808603855366,-0.04029659593035631
-3.975,-0.1459685872356623,-0.6866915386455698
-3.9745,0.3448594562177392,-1.248313374119443
-3.974,0.6756348768059011,-1.492036057438295
-3.9735,-0.1459685872356623,-1.396666311791788
-3.973,-1.277007122150022,-1.110557074852267
-3.9725,-1.682473766741963,-0.474758770542221
-3.972,-1.383708870726849,0.627291623595192
-3.9715,-0.9142211769888124,1.644568910491266
-3.971,-0.5087545323968721,2.354543683637484
-3.9705,-0.2526703358124887,2.725426027818344
-3.97,-0.124628237520297,2.778409219844181
-3.9695,-0.08194753808956648,2.53468653652533
-3.969,-0.04993701351651855,2.248577299585809
-3.9685,-0.02859666380115328,1.898888232215284
-3.968,-0.007256314085787988,1.485619334413754
-3.9675,0.2488278824985954,0.7438546460520338
-3.967,0.9210488985326017,-0.2840192792492073
-3.9665,1.7213120128588,-1.184733543688439
-3.966,2.318841804889028,-1.862918401619155
-3.9655,2.500234777469633,-2.244397384205182
-3.965,2.052087433446962,-1.905304955239825
-3.9645,1.337185717982225,-1.311893204550448
-3.964,0.6649647019482183,-0.8986243067489184
-3.9635,0.1848068333524996,-0.6866915386455698
-3.963,-0.1139580626626144,-0.5807251545938954
-3.9625,-0.2420001609548061,-0.6337083466197325
-3.962,-0.2953510352432193,-0.7608680074817418
-3.9615,-0.2953510352432193,-0.7820612842920766
-3.961,-0.2846808603855366,-0.4959520473525559
-3.9605,-0.2420001609548061,-0.252229364033705
-3.96,-0.2099896363817582,-0.07208651114585861
-3.9595,-0.1993194615240755,0.07626642652648545
-3.959,-0.3487019095316325,-0.01910331912002144
-3.9585,-1.074273799854052,-0.5807251545938954
-3.958,-1.959898313041711,-1.174136905283272
-3.9575,-2.696140378221814,-1.42845622700729
-3.957,-2.952224574806197,-1.311893204550448
-3.9565,-2.96289474966388,-1.046977244421262
-3.956,-2.952224574806197,-0.7078848154559045
-3.9555,-2.301343908487556,-0.07208651114585861
-3.955,-1.341028171296118,0.9663840525605498
-3.9545,-0.658136980404429,1.898888232215284
-3.954,-0.2526703358124887,2.513493259714995
-3.9535,-0.07127736323188383,2.789005858249348
-3.953,-0.01792648894347063,2.683039474197674
-3.9525,-0.007256314085787988,2.428720152473656
-3.952,-0.01792648894347063,2.068434446697963
-3.9515,-0.007256314085787988,1.591585718465428
-3.951,0.05676473506030786,0.8604176685088755
-3.9505,0.4729015545099309,-0.1462629799820306
-3.95,1.283834843693812,-1.078767159636765
-3.9495,2.030747083731597,-1.788741932782983
-3.949,2.329511979746711,-2.191414192179345
-3.9485,1.977396209443183,-1.873515040024322
-3.948,1.337185717982225,-1.354279758171118
-3.9475,0.6969752265212663,-1.01518732920576
-3.947,0.2168173579255475,-0.8032545611024114
-3.9465,-0.06060718837420119,-0.7820612842920766
-3.946,-0.1673089369510276,-0.8032545611024114
-3.9455,-0.2099896363817582,-0.7820612842920766
-3.945,-0.2313299860971235,-0.792657922697244
-3.9445,-0.2206598112394408,-0.6972881770507372
-3.944,-0.1886492866663929,-0.3793890248957141
-3.9435,-0.1673089369510276,-0.09327978795619347
-3.943,-0.1779791118087102,0.1504428953626575
-3.9425,-0.2633405106701714,0.2881991946298341
-3.942,-0.8502001278427167,-0.1674562567923655
-3.9415,-1.746494815888059,-0.8456411147230812
-3.941,-2.557428105071939,-1.258910012524611
-3.9405,-2.930884225090832,-1.280103289334946
-3.94,-2.96289474966388,-1.068170521231597
-3.9395,-2.96289474966388,-0.7608680074817418
-3.939,-2.653459678791083,-0.2734226408440398
-3.9385,-1.639793067311232,0.6802748156210291
-3.938,-0.8502001278427167,1.676358825706768
-3.9375,-0.3487019095316325,2.386333598852986
-3.937,-0.09261771294724913,2.757215943033846
-3.9365,-0.007256314085787988,2.789005858249348
-3.936,0.00341386077189465,2.555879813335665
-3.9355,0.00341386077189465,2.195594107559972
-3.935,0.02475421048725994,1.697552102517103
-3.9345,0.1848068333524996,0.9663840525605498
-3.934,0.7503261008096795,0.04447651131098315
-3.9335,1.550589215135878,-0.9092209451540858
-3.933,2.212140056312201,-1.650985633515806
-3.9325,2.585596176331094,-2.180817553774178
-3.932,2.382862854035124,-2.17022091536901
-3.9315,1.731982187716482,-1.640388995110639
-3.931,0.9957401225363802,-1.152943628472937
-3.9305,0.4195506802215176,-0.8350444763179138
-3.93,0.02475421048725994,-0.6549016234300674
-3.9295,-0.1993194615240755,-0.6125150698093976
-3.929,-0.3060212101009019,-0.6231117082145651
-3.9285,-0.2953510352432193,-0.7078848154559045
-3.928,-0.3166913849585846,-0.7290780922662394
-3.9275,-0.2953510352432193,-0.4323722169215513
-3.927,-0.2420001609548061,-0.1780528951975329
-3.9265,-0.1886492866663929,0.03387987290581572
-3.926,-0.1673089369510276,0.1716361721729923
-3.9255,-0.06060718837420119,-0.01910331912002144
-3.925,0.4942419042252961,-0.6443049850249
-3.9245,1.081101521397841,-1.216523458903942
-3.924,1.177133095116985,-1.407262950196955
-3.9235,0.1101156093487211,-1.290699927740113
-3.923,-1.223656247861609,-1.01518732920576
-3.9225,-1.949228138184029,-0.6231117082145651
-3.922,-1.746494815888059,0.2564092794143318
-3.9215,-1.191645723288561,1.326669758336243
-3.921,-0.6794773301197943,2.16380419234447
-3.9205,-0.3273615598162672,2.672442835792507
-3.92,-0.1352984123779797,2.820795773464851
-3.9195,-0.06060718837420119,2.661846197387339
-3.919,-0.02859666380115328,2.375736960447818
-3.9185,-0.007256314085787988,1.951871424241121
-3.918,0.03542438534494258,1.400846227172415
-3.9175,0.1634664836371343,0.5743084315693548
-3.917,0.7183155762366316,-0.3793890248957141
-3.9165,1.529248865420512,-1.237716735714276
-3.916,2.201469881454519,-1.88411167842949
-3.9155,2.457554078038902,-2.233800745800015
-3.915,2.062757608304644,-1.88411167842949
-3.9145,1.369196242555273,-1.34368311976595
-3.914,0.6969752265212663,-0.9833974139902578
-3.9135,0.2061471830678648,-0.7502713690765743
-3.913,-0.09261771294724913,-0.6760949002404023
-3.9125,-0.2206598112394408,-0.7290780922662394
-3.912,-0.2313299860971235,-0.8456411147230812
-3.9115,-0.2099896363817582,-0.8986243067489184
-3.911,-0.1993194615240755,-0.6019184314042303
-3.9105,-0.1779791118087102,-0.2734226408440398
-3.91,-0.1673089369510276,-0.04029659593035631
-3.9095,-0.1779791118087102,0.06566978812131802
-3.909,-0.2206598112394408,0.002089957690313421
-3.9085,-0.09261771294724913,-0.5065486857577234
-3.908,0.6116138276598051,-1.110557074852267
-3.9075,1.369196242555273,-1.439052865412457
-3.907,0.8356874996711408,-1.42845622700729
-3.9065,-0.4767440078238243,-1.184733543688439
-3.906,-1.255666772434657,-0.6019184314042303
-3.9055,-1.223656247861609,0.4789386859228479
-3.905,-0.8928808272734472,1.549199164844759
-3.9045,-0.5514352318276028,2.312157130016814
-3.904,-0.3060212101009019,2.736022666223511
-3.9035,-0.156638762093345,2.884375603895855
-3.903,-0.1032878878049318,2.810199135059683
-3.9025,-0.07127736323188383,2.577073090146
-3.902,-0.03926683865883591,2.195594107559972
-3.9015,-0.007256314085787988,1.655165548896433
-3.901,0.09944543449103843,0.8922075837243778
-3.9005,0.5689331282290746,-0.01910331912002144
-3.9,1.390536592270638,-0.9410108603695881
-3.8995,2.105438307735375,-1.661582271920973
-3.899,2.532245302042681,-2.180817553774178
-3.8985,2.372192679177441,-2.17022091536901
-3.898,1.667961138570387,-1.587405803084801
-3.8975,0.9210488985326017,-1.05757388282643
-3.897,0.3555296310754218,-0.718481453861072
-3.8965,0.01408403562957729,-0.6125150698093976
-3.896,-0.1673089369510276,-0.6125150698093976
-3.8955,-0.2313299860971235,-0.6760949002404023
-3.895,-0.2313299860971235,-0.7714646458869092
-3.8945,-0.1673089369510276,-0.5277419625680583
-3.894,-0.1459685872356623,-0.1356663415768632
-3.8935,-0.1352984123779797,0.1504428953626575
-3.893,-0.1459685872356623,0.2034260873884947
-3.8925,-0.1779791118087102,0.1292496185523226
-3.892,-0.2953510352432193,-0.2840192792492073
-3.8915,-0.3487019095316325,-0.9410108603695881
-3.891,-0.1139580626626144,-1.42845622700729
-3.8905,-0.1993194615240755,-1.523825972653797
-3.89,-1.052933450138687,-1.333086481360783
-3.8895,-1.949228138184029,-1.025783967610927
-3.889,-2.162631635337682,-0.4853554089473885
-3.8885,-1.661133417026597,0.5637117931641874
-3.888,-1.031593100423322,1.602182356870596
-3.8875,-0.5407650569699201,2.343947045232316
-3.887,-0.2420001609548061,2.736022666223511
