Class_6_Listen_To_Quran/Class_6_Listen_To_Quran_AM_7.csv

#Digilent WaveForms Oscilloscope Acquisition
#Device Name: EExplorer
#Serial Number: SN:210151A2B84A
#Date Time: 2020-12-03 14:51:04.096
#Sample rate: 2000Hz
#Samples: 16384
#Trigger: Source: Channel 1 Type: Edge Condition: Rising Level: 0 V Hyst.: Auto HoldOff: 0 s
#Channel 1: Range: 1 V/div Offset: 0 V Attenuation: 1 X
#Channel 2: Range: 1 V/div Offset: 0 V Attenuation: 1 X
#Power Supplies: ON
#Fixed Supply: ON
#Voltage: 3.3 V Readback: 3.323 V
#Positive Supply: ON
#Voltage: 3.7 V Readback: 3.718 V
#Current: 40 mA Readback: 21 mA
#Negative Supply: ON
#Voltage: -3.7 V Readback: -3.704 V
#Current: -40 mA Readback: -8 mA
#Reference 1: ON
#Voltage: 0 V
#Reference 2: ON
#Voltage: 0 V

Time (s),Channel 1 (V),Channel 2 (V)
-4.096,0.1314559590640864,1.082947075017392
-4.0955,0.8783681991011919,0.4895353243285551
-4.095,1.305175193409264,-0.2840192792496506
-4.0945,1.401206767128321,-0.7714646458869092
-4.094,1.315845368266937,-1.142346990067432
-4.0935,1.134452395686158,-1.364876396576517
-4.093,1.027750647109428,-1.619195718300304
-4.0925,1.027750647109428,-1.979481424075669
-4.092,0.8036769750978017,-1.841725124808454
-4.0915,0.4835717293676135,-1.439052865412457
-4.091,0.2381577076409128,-1.004590690800593
-4.0905,0.08877525963341401,-0.612515069808935
-4.09,0.1527963087794516,-0.1038764263613609
-4.0895,0.01408403562957729,0.5319218779486851
-4.089,-0.626126455830799,1.029963882991102
-4.0885,-1.020922925565639,1.040560521396722
-4.088,-0.8822106524157645,0.5319218779486851
-4.0875,-0.5727755815432495,0.01268659609595313
-4.087,-0.2953510352430543,-0.294615917654471
-4.0865,-0.1139580626626144,-0.400582301706049
-4.086,-0.007256314085885035,-0.3581957480854179
-4.0855,0.02475421048726964,-0.2310360872232352
-4.085,0.03542438534494258,-0.08268314955102604
-4.0845,0.02475421048726964,0.0656697881211831
-4.084,0.01408403562955789,0.1822328105782465
-4.0835,-0.007256314085787988,0.2776025562246667
-4.083,-0.01792648894347063,0.3305857482505039
-4.0825,-0.0285966638012115,0.3517790250608772
-4.082,-0.09261771294724913,0.3941655786815084
-4.0815,-0.5834457564006506,0.6590815388106942
-4.081,-0.850200127842474,0.9239974989396391
-4.0805,-0.7648387289812555,0.9769806909657173
-4.08,-0.2420001609548061,1.082947075017392
-4.0795,0.7716664505241229,1.220703374284443
-4.079,1.454557641416928,1.093543713422164
-4.0785,1.667961138570387,0.6590815388106942
-4.078,1.603940089424349,-0.01910331911940466
-4.0775,1.422547116843463,-0.7820612842925199
-4.077,1.177133095116985,-1.269506650929778
-4.0765,0.9423892482481805,-1.481439419032935
-4.076,0.7823366253825044,-1.428456227007213
-4.0755,0.5369226036560266,-1.34368311976595
-4.075,0.3021787567870086,-1.195330182093607
-4.0745,0.1421261339216816,-0.9939940523952229
-4.074,0.04609456020262521,-0.7714646458869092
-4.0735,0.04609456020262521,-0.4535654937318862
-4.073,0.02475421048727934,0.1716361721724237
-4.0725,-0.6154562809736985,0.775644561267536
-4.072,-1.127624674142465,1.199510097474233
-4.0715,-1.18097554843083,1.082947075017498
-4.071,-0.8608703027000693,0.5319218779482224
-4.0705,-0.4980843575391895,0.02328323450064829
-4.07,-0.2206598112396931,-0.2522293640334544
-4.0695,-0.06060718837413326,-0.3158091944646325
-4.069,0.01408403562957729,-0.2310360872233701
-4.0685,0.03542438534494258,-0.07208651114585861
-4.068,0.02475421048725023,0.09745970333696488
-4.0675,0.01408403562957729,0.2564092794143318
-4.067,-0.007256314085787988,0.3941655786815084
-4.0665,-0.007256314085797692,0.4895353243280443
-4.066,-0.01792648894347063,0.5213252395435176
-4.0655,-0.02859666380115328,0.5319218779486851
-4.065,-0.3166913849583226,0.6696781772157363
-4.0645,-1.138294849000148,0.9451907757502149
-4.064,-1.693143941599645,1.125333628638062
-4.0635,-1.319687821581093,0.5955017083801715
-4.063,-0.3273615598154423,0.06566978812124091
-4.0625,0.5796033030867573,-0.01910331912002144
-4.062,1.145122570543423,0.03387987290576753
-4.0615,1.390536592270648,-0.06148987274102849
-4.061,1.401206767128321,-0.4323722169215513
-4.0605,1.273164668836129,-0.7820612842920766
-4.06,1.049090996824648,-1.121153713257714
-4.0595,0.8890383739595538,-1.42845622700729
-4.059,0.6329541773751706,-1.555615887869299
-4.0585,0.3555296310756741,-1.492036057438352
-4.058,0.1527963087794516,-1.322489842955616
-4.0575,0.03542438534494258,-1.110557074852267
-4.057,-0.1139580626624785,-0.9092209451542689
-4.0565,-0.722158029550525,-0.4641621321370536
-4.056,-1.341028171296118,0.2564092794143318
-4.0555,-1.554431668449577,0.8710143069134839
-4.055,-1.543761493591729,1.146526905448049
-4.0545,-1.148965023857831,0.7650479228623686
-4.054,-0.6688071552625485,0.2352160026044787
-4.0535,-0.3060212101006982,-0.1356663415770077
-4.053,-0.08194753808956648,-0.2946159176543747
-4.0525,0.01408403562957729,-0.2628260024388724
-4.052,0.04609456020262521,-0.135666341576709
-4.0515,0.04609456020262521,0.03387987290581572
-4.051,0.02475421048725994,0.1928294489833272
-4.0505,0.003413860771914058,0.3305857482503786
-4.05,-0.007256314085787988,0.457745409112513
-4.0495,-0.02859666380115328,0.5319218779486851
-4.049,-0.02859666380115328,0.5637117931641585
-4.0485,-0.2420001609554466,0.68027481562127
-4.048,-0.9462317015618604,0.9451907757502149
-4.0475,-1.629122892452928,1.199510097474002
-4.047,-1.73582464102957,1.316073119931133
-4.0465,-0.8502001278427167,1.37965295036208
-4.046,0.2701682322129417,1.13593026704345
-4.0455,1.017080472252066,0.5213252395428334
-4.045,1.369196242555273,-0.2310360872233701
-4.0445,1.433217291701369,-0.8668343915334161
-4.044,1.305175193409002,-1.269506650929932
-4.0435,1.113112045970889,-1.439052865412457
-4.043,0.9317190733902845,-1.51322933424863
-4.0425,0.7183155762368256,-1.439052865412525
-4.042,0.4515612047945656,-1.258910012524611
-4.0415,0.2274875327832301,-1.142346990067769
-4.041,0.07810508477580902,-0.9622041371800868
-4.0405,0.003413860771564698,-0.6760949002399397
-4.04,-0.3593720843893152,-0.1674562567923655
-4.0395,-1.084943974711075,0.5001319627325757
-4.039,-1.661133417026956,1.029963882991844
-4.0385,-2.055929886760855,1.347863035146577
-4.038,-1.863866739322742,1.18891345906921
-4.0375,-1.255666772434123,0.584905069974021
-4.037,-0.6688071552621118,0.03387987290581572
-4.0365,-0.2633405106701714,-0.2840192792492073
-4.036,-0.03926683865874857,-0.3581957480853118
-4.0355,0.05676473506030786,-0.2840192792492073
-4.035,0.07810508477567314,-0.1250697031716958
-4.0345,0.05676473506032727,0.05507314971598676
-4.034,0.03542438534494258,0.2246193641988295
-4.0335,0.01408403562957729,0.3623756634660061
-4.033,-0.00725631408576858,0.4683420475175841
-4.0325,-0.01792648894349003,0.5319218779487621
-4.032,-0.03926683865883591,0.6166949851900245
-4.0315,-0.3807124341043699,0.8392243916983382
-4.031,-0.6154562809737859,1.019367244586512
-4.0305,-0.7114878546928423,1.157123543853563
-4.03,-0.4340633083933459,0.9663840525607232
-4.0295,0.2381577076414562,0.3199891098448931
-4.029,0.8356874996711408,-0.1674562567923655
-4.0285,1.209143619690033,-0.6760949002404023
-4.028,1.347855892839859,-0.9092209451542207
-4.0275,1.294505018551494,-1.05757388282643
-4.027,1.134452395686255,-1.269506650929778
-4.0265,0.9530594231058147,-1.364876396576199
-4.026,0.8676980242441885,-1.174136905283272
-4.0255,0.6222840025174878,-1.089363798041932
-4.025,0.3875401556486832,-1.057573882826459
-4.0245,0.1954770082100657,-0.9833974139901326
-4.024,0.0674349099179905,-0.8456411147230812
-4.0235,-0.18864928666616,-0.6866915386457143
-4.023,-0.54076505697025,-0.1992461720072606
-4.0225,-0.9035510021311299,0.4683420475176805
-4.022,-1.020922925565532,0.8816109453188345
-4.0215,-0.82885977812707,0.6802748156206821
-4.021,-0.5194247072545548,0.2987958330350016
-4.0205,-0.2526703358124887,0.002089957690313421
-4.02,-0.09261771294716178,-0.1250697031716861
-4.0195,0.00341386077189465,-0.1144730647665284
-4.019,0.02475421048725994,-0.01910331912002144
-4.0185,0.03542438534493288,0.0974597033367143
-4.018,0.02475421048725994,0.2140227257936621
-4.0175,0.01408403562957729,0.2987958330350016
-4.017,-0.00725631408576858,0.3517790250607905
-4.0165,-0.01792648894347063,0.3729723018711639
-4.016,-0.01792648894347063,0.3623756634660061
-4.0155,-0.02859666380114357,0.3305857482505328
-4.015,-0.370042259247386,0.5001319627334141
-4.0145,-0.7968492535543035,0.7544512844572011
-4.014,-0.8502001278426682,0.8710143069139369
-4.0135,-0.6367966306881709,0.9981739677761966
-4.013,0.3448594562177392,1.157123543853563
-4.0125,1.283834843693812,1.114736990232894
-4.012,1.699971663143454,0.2881991946292077
-4.0115,1.7213120128588,-0.400582301706049
-4.011,1.550589215135878,-0.792657922697244
-4.0105,1.294505018551727,-1.078767159636504
-4.01,1.017080472251745,-1.375473034981453
-4.0095,0.9103787236749192,-1.725162102351978
-4.009,0.7076454013791335,-1.778145294377767
-4.0085,0.4408910299366985,-1.566212526274178
-4.008,0.2381577076409128,-1.248313374119443
-4.0075,0.08877525963349164,-0.919817583559552
-4.007,-0.01792648894368412,-0.5701285161881883
-4.0065,-0.2526703358124887,0.02328323450064829
-4.006,-0.754168554123573,0.6590815388106942
-4.0055,-1.223656247862143,1.114736990233145
-4.005,-1.810515865034154,1.390249588767247
-4.0045,-1.885207089037933,1.25249328950007
-4.004,-1.383708870726315,0.6484849004050064
-4.0035,-0.7968492535543035,0.07626642652648545
-4.003,-0.3593720843893152,-0.252229364033705
-4.0025,-0.09261771294749177,-0.3475991096801251
-4.002,0.02475421048725994,-0.2734226408440398
-4.0015,0.0674349099179905,-0.1250697031716958
-4.001,0.05676473506031757,0.05507314971598676
-4.0005,0.03542438534491346,0.2246193641989644
-4,0.00341386077189465,0.3729723018711736
-3.9995,-0.007256314085787988,0.4789386859228479
-3.999,-0.01792648894347063,0.5637117931641874
-3.9985,-0.2526703358124887,0.7438546460520338
-3.998,-0.8608703027003992,1.029963882991555
-3.9975,-1.191645723288561,1.273686566310405
-3.997,-1.362368521011484,1.42203950398275
-3.9965,-0.7755089038389382,1.25249328950007
-3.996,0.142126133921769,0.5637117931641874
-3.9955,0.825017324813458,-0.1886495336027004
-3.995,1.209143619690033,-0.8668343915334161
-3.9945,1.326515543124542,-1.311893204550448
-3.994,1.262494493978446,-1.481439419033127
-3.9935,1.102441871113207,-1.481439419033127
-3.993,0.9637295979633325,-1.502632695843462
-3.9925,0.7823366253827275,-1.492036057438295
-3.992,0.5049120790829789,-1.280103289334946
-3.9915,0.2594980573562781,-1.01518732920576
-3.991,0.09944543449103843,-0.7396747306714069
-3.9905,0.02475421048725994,-0.4959520473525559
-3.99,0.1101156093487211,-0.09327978795619347
-3.9895,0.09944543449103843,0.4683420475176805
-3.989,-0.3166913849585846,0.9345941373450475
-3.9885,-1.020922925565639,1.263089927905238
-3.988,-1.501080794161358,1.273686566310405
-3.9875,-1.277007122150022,0.7226613692416989
-3.987,-0.8288597781273515,0.1080563417419877
-3.9865,-0.423393133535411,-0.3158091944647096
-3.986,-0.156638762093345,-0.4853554089473885
-3.9855,-0.01792648894347063,-0.4853554089473885
-3.985,0.03542438534494258,-0.3687923864905467
-3.9845,0.04609456020262521,-0.2204394488182027
-3.984,0.03542438534494258,-0.07208651114585861
-3.9835,0.00341386077189465,0.07626642652648545
-3.983,-0.01792648894347063,0.1928294489833272
-3.9825,-0.02859666380115328,0.2670059178194992
-3.982,-0.07127736323188383,0.3305857482505039
-3.9815,-0.5087545323968721,0.5955017083796896
-3.981,-0.8181896032696687,0.9345941373450475
-3.9805,-0.9462317015618604,1.093543713422559
-3.98,-0.4447334832507763,0.5001319627331828
-3.9795,0.3448594562177392,0.03387987290581572
-3.979,0.9637295979633325,-0.07208651114585861
-3.9785,1.305175193409177,-0.07208651114585861
-3.978,1.401206767128321,-0.2098428104130352
-3.9775,1.337185717982225,-0.5277419625680583
-3.977,1.166462920259302,-0.9092209451540858
-3.9765,0.974399772821015,-1.195330182093607
-3.976,0.8676980242441885,-1.534422611058964
-3.9755,0.6116138276598051,-1.523825972653797
-3.975,0.3555296310754218,-1.333086481360783
-3.9745,0.1527963087794516,-1.05757388282643
-3.974,0.04609456020262521,-0.7714646458869092
-3.9735,-0.1352984123779797,-0.5489352393783931
-3.973,-0.5621054066852853,-0.07208651114585861
-3.9725,-1.1062843244271,0.5425185163538525
-3.972,-1.789175515318789,0.8392243916985406
-3.9715,-2.066600061618538,0.1610395337678249
-3.971,-1.618452717595867,-0.3899856633008816
-3.9705,-0.9782422261349084,-0.5807251545938954
-3.97,-0.4660738329661415,-0.5489352393783931
-3.9695,-0.1459685872356623,-0.4111789401112165
-3.969,0.01408403562957729,-0.252229364033705
-3.9685,0.0674349099179905,-0.1038764263613609
-3.968,0.0674349099179905,0.01268659609548085
-3.9675,0.04609456020262521,0.09745970333682032
-3.967,0.01408403562957729,0.1504428953626575
-3.9665,-0.007256314085787988,0.1822328105781598
-3.966,-0.01792648894347063,0.1822328105781598
-3.9655,-0.01792648894347063,0.13984625695749
-3.965,-0.1886492866663929,0.2034260873884947
-3.9645,-0.754168554123573,0.55311515475902
-3.964,-1.341028171296118,0.9134008605347127
-3.9635,-1.351698346153801,1.178316820663898
-3.963,-0.4554036581084589,1.263089927905238
-3.9625,0.4835717293676135,0.9769806909657173
-3.962,1.123782220828572,0.4365521323021782
-3.9615,1.401206767128321,-0.1568596183871981
-3.961,1.422547116843686,-0.8350444763179138
-3.9605,1.283834843693812,-1.34368311976595
-3.96,1.070431346540159,-1.587405803084801
-3.9595,0.9103787236749192,-1.75695201756748
-3.959,0.6756348768059011,-1.693372187136476
-3.9585,0.408880505363835,-1.42845622700729
-3.958,0.2061471830678648,-1.121153713257435
-3.9575,0.07810508477567314,-0.8138511995075789
-3.957,-0.007256314085787988,-0.5171453241628908
-3.9565,-0.1886492866663929,-0.008506680714854012
-3.956,-0.6688071552621118,0.6060983467848571
-3.9555,-1.074273799854052,1.019367244586387
-3.955,-1.597112367880501,1.273686566310405
-3.9545,-1.693143941599645,1.135930267043229
-3.954,-1.244996597576974,0.5743084315693548
-3.9535,-0.722158029550525,0.06566978812131802
-3.953,-0.3273615598162672,-0.2204394488182027
-3.9525,-0.08194753808956648,-0.2946159176543747
-3.952,0.02475421048725994,-0.2204394488182027
-3.9515,0.05676473506030786,-0.08268314955102604
-3.951,0.05676473506030786,0.07626642652648545
-3.9505,0.03542438534494258,0.2246193641988295
-3.95,0.00341386077189465,0.3517790250608387
-3.9495,-0.007256314085787988,0.4365521323021782
-3.949,-0.01792648894347063,0.4683420475176805
-3.9485,-0.09261771294724913,0.55311515475902
-3.948,-0.4980843575391895,0.8180311148882058
-3.9475,-0.9035510021311299,1.114736990232894
-3.947,-1.020922925565639,1.104140351827727
-3.9465,-0.4127229586777283,0.849821030103708
-3.946,0.3661998059331045,0.6590815388106942
-3.9455,0.9637295979633325,0.457745409112513
-3.945,1.283834843693812,0.1504428953626575
-3.9445,1.369196242555273,-0.2310360872233701
-3.944,1.294505018551494,-0.6654982618352349
-3.9435,1.113112045970889,-1.078767159636765
-3.943,0.942389248247967,-1.258910012524611
-3.9425,0.825017324813458,-1.248313374119443
-3.942,0.6009436528021226,-1.227120097309109
-3.9415,0.3555296310754218,-1.121153713257435
-3.941,0.1634664836371343,-0.9410108603695881
-3.9405,0.04609456020262521,-0.718481453861072
-3.94,-0.3380317346739499,-0.252229364033705
-3.9395,-1.138294849000148,0.4153588554918433
-3.939,-1.778505340461106,0.9663840525605498
-3.9385,-2.258663209056825,1.326669758336243
-3.938,-2.482736881068161,1.42203950398275
-3.9375,-1.863866739322568,0.9451907757502149
-3.937,-1.116954499284783,0.3411823866556712
-3.9365,-0.5194247072545548,-0.07208651114585861
-3.936,-0.1459685872356623,-0.2310360872233701
-3.9355,0.03542438534494258,-0.1886495336027004
-3.935,0.08877525963335578,-0.02969995752518888
-3.9345,0.08877525963335578,0.1610395337678249
-3.934,0.05676473506030786,0.3517790250608387
-3.9335,0.02475421048725994,0.5213252395435176
-3.933,0.00341386077189465,0.6378882620003594
-3.9325,-0.007256314085787988,0.7120647308365314
-3.932,-0.02859666380115328,0.7438546460520338
-3.9315,-0.274010685527854,0.8816109453192104
-3.931,-0.6367966306890638,1.104140351827727
-3.9305,-0.7968492535543035,1.241896651094903
-3.93,-0.4447334832507763,1.199510097474233
-3.9295,0.4942419042252961,1.167720182258731
-3.929,1.166462920259302,0.9028042221295453
-3.9285,1.465227816274416,0.4365521323021782
-3.928,1.507908515705147,-0.07208651114585861
-3.9275,1.390536592270638,-0.6760949002404023
-3.927,1.187803269974668,-1.205926820498774
-3.9265,0.9957401225363802,-1.555615887869299
-3.926,0.8997085488172365,-1.84172512480882
-3.9255,0.6542945270905358,-1.778145294377815
-3.925,0.3768699807907871,-1.523825972653797
-3.9245,0.1848068333524996,-1.195330182093607
-3.924,0.05676473506030786,-0.8668343915334161
-3.9235,0.04609456020262521,-0.4959520473525559
-3.923,0.1848068333524996,0.13984625695749
-3.9225,-0.03926683865883591,0.7120647308365314
-3.922,-0.5194247072545548,1.135930267043229
-3.9215,-1.020922925565639,1.25249328950007
-3.921,-0.9675720512772257,0.7968378380778709
-3.9205,-0.6688071552621118,0.2458126410091644
-3.92,-0.3593720843893152,-0.1144730647665284
-3.9195,-0.1459685872356623,-0.2628260024388724
-3.919,-0.02859666380115328,-0.2310360872233701
-3.9185,0.02475421048725994,-0.1144730647665284
-3.918,0.03542438534494258,0.04447651131098315
-3.9175,0.02475421048725994,0.1928294489833272
-3.917,0.01408403562957729,0.3199891098453364
-3.9165,0.00341386077189465,0.4047622170866759
-3.916,-0.007256314085787988,0.457745409112513
-3.9155,-0.007256314085787988,0.4895353243280153
-3.915,-0.2099896363817582,0.627291623595192
-3.9145,-0.9142211769888124,0.9134008605347127
-3.914,-1.362368521011484,1.104140351827727
-3.9135,-1.170305373573196,1.125333628638062
-3.913,-0.04993701351651855,1.146526905448396
-3.9125,1.15579274540162,1.199510097474233
-3.912,1.774662887147213,0.9451907757502149
-3.9115,1.860024286008674,0.3305857482505039
-3.911,1.667961138570387,-0.474758770542221
-3.9105,1.390536592270638,-1.078767159636765
-3.91,1.091771696255524,-1.417859588602123
-3.9095,0.9530594231056497,-1.693372187136476
-3.909,0.7503261008096795,-1.725162102351978
-3.9085,0.4622313796522482,-1.481439419033127
-3.908,0.2274875327832301,-1.163540266878104
-3.9075,0.08877525963335578,-0.8562377531282487
-3.907,0.00341386077189465,-0.570128516188728
-3.9065,-0.1032878878049318,-0.1038764263613609
-3.906,-0.5941159312583333,0.5107286011383502
-3.9055,-1.095614149569417,0.9134008605347127
-3.905,-1.67180359188428,0.309392471440169
-3.9045,-1.746494815888059,-0.6019184314042303
-3.904,-1.277007122150022,-0.8880276683437509
-3.9035,-0.7434983792658902,-0.792657922697244
-3.903,-0.3273615598162672,-0.5489352393783931
-3.9025,-0.08194753808956648,-0.2946159176543747
-3.902,0.02475421048725994,-0.08268314955102604
-3.9015,0.05676473506030786,0.07626642652648545
-3.901,0.05676473506030786,0.1822328105781598
-3.9005,0.02475421048725994,0.2352160026039969
-3.9,0.00341386077189465,0.2670059178194992
-3.8995,-0.007256314085787988,0.2670059178194992
-3.899,-0.01792648894347063,0.2458126410091644
-3.8985,-0.04993701351651855,0.2458126410091644
-3.898,-0.4447334832507763,0.5425185163538525
-3.8975,-0.9035510021311299,0.8922075837243778
-3.897,-0.8822106524157645,0.9875773293708847
-3.8965,-0.3487019095316325,0.7120647308365314
-3.896,0.3875401556484697,-0.1038764263613609
-3.8955,0.9530594231056497,-0.5171453241628908
-3.895,1.262494493978446,-0.6760949002404023
-3.8945,1.347855892839907,-0.8562377531282487
-3.894,1.273164668836129,-1.184733543688439
-3.8935,1.102441871113207,-1.460246142222792
-3.893,0.9317190733902845,-1.640388995110639
-3.8925,0.7396559259519968,-1.693372187136476
-3.892,0.4835717293676135,-1.502632695843462
-3.8915,0.2701682322139607,-1.216523458903942
-3.891,0.1314559590640864,-0.9092209451540858
-3.8905,0.03542438534494258,-0.6231117082145651
-3.89,0.1207857842064037,-0.2734226408440398
-3.8895,0.2701682322139607,0.3305857482505039
-3.889,-0.04993701351651855,0.8816109453192104
-3.8885,-0.722158029550525,1.241896651094903
-3.888,-1.255666772434657,1.273686566310405
-3.8875,-1.127624674142465,0.7650479228623686
