Class_6_Listen_To_Quran/Class_6_Listen_To_Quran_Basim_5.csv

#Digilent WaveForms Oscilloscope Acquisition
#Device Name: EExplorer
#Serial Number: SN:210151A2B84A
#Date Time: 2020-11-04 11:06:24.873
#Sample rate: 2000Hz
#Samples: 16384
#Trigger: Source: Channel 1 Type: Edge Condition: Rising Level: 0 V Hyst.: Auto HoldOff: 0 s
#Channel 1: Range: 1 V/div Offset: 0 V Attenuation: 1 X
#Channel 2: Range: 1 V/div Offset: 0 V Attenuation: 1 X
#Power Supplies: ON
#Fixed Supply: ON
#Voltage: 3.3 V Readback: 3.324 V
#Positive Supply: ON
#Voltage: 3.7 V Readback: 3.712 V
#Current: 500 mA Readback: 20 mA
#Negative Supply: ON
#Voltage: -3.7 V Readback: -3.702 V
#Current: -500 mA Readback: -7 mA
#Reference 1: ON
#Voltage: 0 V
#Reference 2: ON
#Voltage: 0 V

Time (s),Channel 1 (V),Channel 2 (V)
-4.096,-0.007256314085787988,-1.566212526274467
-4.0955,0.3768699807904377,-0.8774310299392098
-4.095,0.4942419042252864,-0.2946159176540373
-4.0945,0.4835717293676135,0.07626642652648545
-4.094,0.4302208550792488,0.2670059178193258
-4.0935,0.366199805933056,0.3305857482505039
-4.093,0.3128489316446912,0.3305857482505039
-4.0925,0.4622313796521124,0.5107286011381863
-4.092,0.5475927785136608,0.6060983467847992
-4.0915,0.4942419042252961,0.5425185163538525
-4.091,0.3982103305061524,0.457745409112513
-4.0905,0.3128489316444001,0.4153588554920842
-4.09,-0.007256314085787988,0.6802748156210291
-4.0895,-0.7968492535543035,0.6378882620003594
-4.089,-1.447729919872353,-0.1886495336019486
-4.0885,-1.885207089037933,-1.068170521231597
-4.088,-1.949228138184029,-1.534422611058964
-4.0875,-1.362368521012017,-1.12115371325781
-4.087,-0.6688071552616363,-0.3687923864899492
-4.0865,-0.1459685872356623,0.2881991946298341
-4.086,0.1741366584945258,0.7438546460516193
-4.0855,0.31284893164473,0.9875773293709811
-4.085,0.3555296310754218,1.093543713422559
-4.0845,0.3448594562177489,1.114736990232875
-4.084,0.3128489316446622,1.061753798206941
-4.0835,0.2808384070716433,0.9345941373450475
-4.083,0.2594980573562781,0.7650479228623686
-4.0825,0.259498057356346,0.6060983467845776
-4.082,0.3341892813600565,0.2987958330350016
-4.0815,0.7183155762366316,-0.4641621321370536
-4.081,0.7503261008096505,-1.269506650929046
-4.0805,-0.07127736323188383,-1.873515040024322
-4.08,-0.274010685527854,-2.085447808127671
-4.0795,0.06743490991767997,-1.778145294378095
-4.079,0.3661998059332112,-1.025783967610349
-4.0785,0.4835717293676135,-0.3899856633008816
-4.078,0.4835717293676135,-0.008506680715200943
-4.0775,0.4302208550791421,0.1610395337678731
-4.077,0.3661998059331045,0.2140227257936621
-4.0765,0.3235191065024127,0.2140227257936621
-4.076,0.3768699807909133,0.3199891098455099
-4.0755,0.5155822539406614,0.5107286011383502
-4.075,0.4942419042252961,0.5107286011383502
-4.0745,0.41955068022144,0.4577454091124841
-4.074,0.3341892813600565,0.4259554938970107
-4.0735,0.1314559590640864,0.5955017083796896
-4.073,-0.6047861061153462,0.8816109453189501
-4.0725,-1.437059745015262,0.2352160026039969
-4.072,-2.066600061618538,-0.7078848154559045
-4.0715,-2.44005618163709,-1.428456227006635
-4.071,-1.885207089037186,-1.333086481360137
-4.0705,-1.06360362499637,-0.6231117082145651
-4.07,-0.3807124341053014,0.1186529801464805
-4.0695,0.0674349099181846,0.6802748156213279
-4.069,0.2808384070716433,1.00877060618122
-4.0685,0.3661998059331045,1.178316820663898
-4.068,0.3661998059330754,1.231300012689707
-4.0675,0.3341892813600565,1.199510097474233
-4.067,0.291508581929326,1.104140351827727
-4.0665,0.270168232213951,0.934594137344874
-4.066,0.2594980573562781,0.7438546460520338
-4.0655,0.2808384070716433,0.5213252395435176
-4.065,0.4729015545097562,-0.09327978795563452
-4.0645,0.3448594562177392,-0.9410108603695881
-4.064,-0.5087545323968721,-1.661582271920973
-4.0635,-0.9355615267037896,-1.968884785670549
-4.063,-0.4874141826810314,-1.778145294377256
-4.0625,0.03542438534494258,-1.163540266878104
-4.062,0.3448594562174577,-0.5489352393789521
-4.0615,0.4515612047945656,-0.1568596183870246
-4.061,0.4515612047945656,0.03387987290581572
-4.0605,0.408880505363835,0.1080563417419877
-4.06,0.3555296310754024,0.1186529801471937
-4.0595,0.3341892813600565,0.1610395337678249
-4.059,0.4942419042252961,0.4047622170866759
-4.0585,0.5155822539406419,0.4895353243279382
-4.058,0.4515612047945656,0.4471487707073456
-4.0575,0.3661998059331045,0.4153588554918433
-4.057,0.2594980573563751,0.4577454091124745
-4.0565,-0.2526703358124887,0.8286277532933731
-4.056,-1.116954499284783,0.4789386859228479
-4.0555,-1.885207089037234,-0.4323722169207225
-4.055,-2.525417580498833,-1.2589100125249
-4.0545,-2.461396531352796,-1.576809164679634
-4.054,-1.565101843308269,-1.025783967611429
-4.0535,-0.7328282044076641,-0.2098428104124184
-4.053,-0.1352984123779797,0.4683420475176805
-4.0525,0.2061471830678648,0.9134008605347127
-4.052,0.3448594562177683,1.146526905448473
-4.0515,0.3768699807907871,1.231300012689736
-4.051,0.3555296310754218,1.231300012689736
-4.0505,0.323519106502403,1.157123543853631
-4.05,0.291508581929326,0.9981739677760521
-4.0495,0.2701682322139607,0.7968378380778709
-4.049,0.2701682322139607,0.6060983467850305
-4.0485,0.4408910299372323,0.139846256956719
-4.048,0.825017324813458,-0.7078848154559045
-4.0475,0.4942419042255969,-1.481439419032424
-4.047,-0.3166913849585166,-1.958288147265739
-4.0465,-0.2420001609548061,-2.043061254507001
-4.046,0.1207857842060737,-1.672178910326478
-4.0455,0.3661998059331821,-0.9833974139897278
-4.045,0.4515612047945656,-0.400582301706049
-4.0445,0.4515612047945656,-0.05089323433552374
-4.044,0.4088805053637865,0.1186529801471937
-4.0435,0.3555296310754218,0.1610395337678249
-4.043,0.3128489316446912,0.1610395337678249
-4.0425,0.4515612047944394,0.3623756634658231
-4.042,0.5475927785137094,0.5001319627331828
-4.0415,0.5049120790829789,0.4471487707073456
-4.041,0.4088805053639224,0.3941655786815566
-4.0405,0.3235191065020731,0.3729723018714434
-4.04,-0.007256314085787988,0.6696781772158616
-4.0395,-0.8288597781266042,0.6908714540261772
-4.039,-1.639793067311795,-0.1250697031724475
-4.0385,-2.258663209056825,-0.9516074987747555
-4.038,-2.49340705592563,-1.449649503817172
-4.0375,-1.767835165602657,-1.152943628472253
-4.037,-0.9248913518464952,-0.400582301706049
-4.0365,-0.274010685527854,0.309392471440169
-4.036,0.1314559590642611,0.7968378380781311
-4.0355,0.3235191065023739,1.082947075017392
-4.035,0.3768699807907871,1.210106735879401
-4.0345,0.3661998059331142,1.231300012689716
-4.034,0.3341892813600565,1.178316820663898
-4.0335,0.3021787567870086,1.029963882991555
-4.033,0.2701682322139898,0.8498210301038719
-4.0325,0.2701682322139995,0.659081538810434
-4.032,0.3128489316446912,0.3729723018711736
-4.0315,0.6969752265209169,-0.3793890248950299
-4.031,0.760996275666615,-1.2165234589045
-4.0305,-0.06060718837420119,-1.831128486403653
-4.03,-0.3380317346736976,-2.011271339291335
-4.0295,-0.04993701351624683,-1.682775548730701
-4.029,0.2488278824985954,-1.01518732920576
-4.0285,0.408880505363835,-0.4641621321370536
-4.028,0.4408910299368635,-0.09327978795602
-4.0275,0.4195506802215176,0.09745970333682032
-4.027,0.3661998059331045,0.1716361721729923
-4.0265,0.3235191065024127,0.1822328105781501
-4.026,0.3875401556484697,0.2881991946298341
-4.0255,0.5475927785137094,0.5213252395435176
-4.025,0.5369226036560363,0.5213252395435176
-4.0245,0.4515612047944783,0.4471487707073071
-4.024,0.3555296310754218,0.4047622170866759
-4.0235,0.1314559590642901,0.5107286011382538
-4.023,-0.5941159312590999,0.7332580076462881
-4.0225,-1.437059745015262,0.09745970333682032
-4.022,-2.013249187329601,-0.771464645886119
-4.0215,-2.461396531352631,-1.40726295019708
-4.021,-2.280003558772191,-1.545019249464132
-4.0205,-1.426389570157579,-0.8986243067489184
-4.02,-0.6474668055462419,-0.1038764263607826
-4.0195,-0.09261771294724913,0.5319218779486851
-4.019,0.2274875327832301,0.9345941373450475
-4.0185,0.3555296310753053,1.135930267043045
-4.018,0.3768699807907871,1.210106735879401
-4.0175,0.3555296310754218,1.188913459069066
-4.017,0.323519106502403,1.125333628638119
-4.0165,0.2915085819293163,0.9981739677758978
-4.016,0.2808384070716433,0.8286277532933731
-4.0155,0.3021787567869892,0.5955017083799017
-4.015,0.6009436528024235,-0.0296999575259888
-4.0145,0.9317190733902845,-0.9092209451540858
-4.014,0.3128489316452541,-1.640388995109973
-4.0135,-0.3273615598161023,-1.979481424075939
-4.013,-0.1459685872356623,-1.915901593644992
-4.0125,0.1741366584948169,-1.407262950196955
-4.012,0.3982103305062106,-0.7290780922657768
-4.0115,0.4622313796522482,-0.2204394488182027
-4.011,0.4408910299368829,0.06566978812131802
-4.0105,0.3982103305061912,0.1822328105780537
-4.01,0.3448594562177392,0.1928294489833272
-4.0095,0.3341892813600565,0.2034260873884947
-4.009,0.4729015545098048,0.4047622170864927
-4.0085,0.5049120790829207,0.4577454091124745
-4.008,0.4408910299368829,0.4153588554918433
-4.0075,0.3661998059331724,0.3623756634660543
-4.007,0.2701682322135337,0.383568940276688
-4.0065,-0.1993194615240755,0.7650479228623686
-4.006,-1.074273799854052,0.4789386859228479
-4.0055,-1.82118603989239,-0.4111789401119585
-4.005,-2.429386006779747,-1.227120097309109
-4.0045,-2.376035132491334,-1.555615887869299
-4.004,-1.522421143875985,-1.015187329205047
-4.0035,-0.7114878546928423,-0.2310360872233701
-4.003,-0.124628237520297,0.4259554938970107
-4.0025,0.206147183067564,0.8604176685084803
-4.002,0.3448594562177392,1.104140351827727
-4.0015,0.3768699807907871,1.188913459069066
-4.001,0.3661998059331142,1.199510097474224
-4.0005,0.3235191065023448,1.125333628637927
-4,0.291508581929326,0.9769806909657173
-3.9995,0.2701682322139607,0.7968378380778709
-3.999,0.2701682322139607,0.6060983467848571
-3.9985,0.2594980573562781,0.2034260873884947
-3.998,0.05676473506030786,-0.6019184314042303
-3.9975,-0.5087545323968721,-1.396666311791788
-3.997,-0.9675720512772257,-1.968884785670829
-3.9965,-0.5300948821122373,-2.297380576231019
-3.996,0.1101156093487211,-2.021867977696666
-3.9955,0.4942419042252961,-1.216523458903942
-3.995,0.5902734779444399,-0.5277419625680583
-3.9945,0.5582629533713921,-0.06148987274069118
-3.994,0.4729015545099309,0.1928294489833272
-3.9935,0.3875401556484697,0.2881991946298341
-3.993,0.3341892813600565,0.309392471440169
-3.9925,0.4408910299368829,0.4471487707073456
-3.992,0.5475927785137094,0.5743084315693548
-3.9915,0.5049120790829789,0.5319218779486851
-3.991,0.4195506802215176,0.4471487707073456
-3.9905,0.3235191065023739,0.3941655786815084
-3.99,-0.03926683865883591,0.6802748156210291
-3.9895,-0.8608703027003992,0.7862411996727035
-3.989,-1.639793067311232,-0.008506680714854012
-3.9885,-2.19464215991073,-0.8668343915334161
-3.988,-2.418715831922065,-1.449649503817625
-3.9875,-1.735824641030376,-1.216523458903942
-3.987,-0.9142211769888124,-0.5065486857577234
-3.9865,-0.274010685527854,0.1822328105781598
-3.986,0.1314559590640864,0.6802748156210291
-3.9855,0.3235191065023739,0.9663840525605498
-3.985,0.3768699807907871,1.104140351827727
-3.9845,0.3768699807907871,1.146526905448396
-3.984,0.3448594562177392,1.114736990232894
-3.9835,0.3021787567870086,0.9875773293708847
-3.983,0.2808384070716433,0.8180311148882058
-3.9825,0.2808384070716433,0.6378882620003594
-3.982,0.3341892813600565,0.383568940276341
-3.9815,0.6222840025174878,-0.3370024712750445
-3.981,0.4835717293676135,-1.163540266878104
-3.9805,-0.3807124341046804,-1.788741932782983
-3.98,-0.6047861061160158,-1.894708316834657
-3.9795,-0.1886492866663929,-1.640388995110639
-3.979,0.2168173579255475,-1.01518732920576
-3.9785,0.4195506802215176,-0.4641621321370536
-3.978,0.4729015545099309,-0.1038764263613609
-3.9775,0.4408910299368829,0.09745970333682032
-3.977,0.3875401556484697,0.1822328105781598
-3.9765,0.3448594562177392,0.2140227257936621
-3.976,0.3875401556484697,0.3199891098453364
-3.9755,0.5475927785137094,0.5425185163538525
-3.975,0.5369226036560266,0.5425185163538525
-3.9745,0.4515612047945656,0.4789386859228479
-3.974,0.3661998059331045,0.4365521323021782
-3.9735,0.1848068333524996,0.5637117931641874
-3.973,-0.4874141826815069,0.92399749893988
-3.9725,-1.341028171296118,0.3729723018711736
-3.972,-1.959898313041711,-0.5807251545938954
-3.9715,-2.408045657064382,-1.34368311976595
-3.971,-2.023919362187807,-1.42845622700729
-3.9705,-1.191645723288561,-0.7820612842920766
-3.97,-0.4767440078238243,-0.01910331912002144
-3.9695,0.01408403562957729,0.5637117931641874
-3.969,0.2701682322139607,0.9345941373450475
-3.9685,0.3661998059331045,1.114736990232894
-3.968,0.3875401556484697,1.178316820663898
-3.9675,0.3555296310754218,1.167720182258731
-3.967,0.3128489316446912,1.061753798207057
-3.9665,0.291508581929326,0.8922075837243778
-3.966,0.2808384070716433,0.7226613692416989
-3.9655,0.291508581929326,0.5107286011383502
-3.965,0.5902734779444399,-0.1038764263613609
-3.9645,1.038420821967111,-0.9516074987747555
-3.964,0.4835717293676135,-1.672178910326141
-3.9635,-0.2099896363817582,-2.159624276963843
-3.963,-0.04993701351651855,-2.233800745800015
-3.9625,0.2488278824985954,-1.576809164679634
-3.962,0.4302208550792003,-0.8350444763179138
-3.9615,0.4835717293676135,-0.2946159176543747
-3.961,0.4622313796522482,0.04447651131098315
-3.9605,0.3982103305061524,0.2034260873884947
-3.96,0.3448594562177392,0.2564092794143318
-3.9595,0.3341892813600565,0.2776025562246667
-3.959,0.5262524287983441,0.5001319627331828
-3.9585,0.5796033030867573,0.5637117931641874
-3.958,0.5155822539406614,0.5001319627331828
-3.9575,0.408880505363835,0.4259554938970107
-3.957,0.2808384070716433,0.4471487707073456
-3.9565,-0.2420001609548061,0.8604176685088755
-3.956,-1.095614149569417,0.627291623595192
-3.9555,-1.778505340461106,-0.2946159176543747
-3.955,-2.322684258202921,-1.163540266878104
-3.9545,-2.258663209056825,-1.555615887869299
-3.954,-1.458400094730627,-1.046977244421262
-3.9535,-0.6794773301197943,-0.2840192792492073
-3.953,-0.1139580626626144,0.3729723018711736
-3.9525,0.2168173579255475,0.8074344764830383
-3.952,0.3555296310754218,1.040560521396722
-3.9515,0.3875401556484697,1.135930267043229
-3.951,0.3661998059331045,1.146526905448396
-3.9505,0.3235191065023739,1.082947075017392
-3.95,0.291508581929326,0.9451907757502149
-3.9495,0.2808384070716433,0.775644561267536
-3.949,0.2808384070716433,0.6060983467848571
-3.9485,0.3661998059331045,0.2246193641988295
-3.948,0.7716664505250448,-0.570128516188728
-3.9475,0.5049120790829789,-1.364876396576285
-3.947,-0.3166913849585846,-1.88411167842949
-3.9465,-0.274010685527854,-1.894708316834657
-3.946,0.09944543449103843,-1.396666311791788
-3.9455,0.3555296310754218,-0.7608680074817418
-3.945,0.4622313796522482,-0.2204394488182027
-3.9445,0.4622313796522482,0.1186529801471552
-3.944,0.4195506802215176,0.2670059178194992
-3.9435,0.3661998059331045,0.2987958330350016
-3.943,0.3235191065023739,0.2987958330350016
-3.9425,0.4515612047945656,0.457745409112513
-3.942,0.6009436528021226,0.6166949851900245
-3.9415,0.5582629533713921,0.5637117931641874
-3.941,0.4515612047945656,0.4683420475176805
-3.9405,0.3448594562177392,0.4153588554918433
-3.94,0.04609456020262521,0.6590815388106942
-3.9395,-0.7328282044082075,0.7438546460520338
-3.939,-1.405049220442214,-0.05089323433552374
-3.9385,-1.83185621474952,-0.8774310299385835
-3.938,-2.19464215991073,-1.449649503817625
-3.9375,-1.863866739322568,-1.375473034981453
-3.937,-1.116954499284783,-0.6760949002404023
-3.9365,-0.4340633083930936,0.06566978812131802
-3.936,0.02475421048725994,0.6166949851900245
-3.9355,0.2701682322139607,0.9451907757502149
-3.935,0.3661998059331045,1.104140351827727
-3.9345,0.3768699807907871,1.146526905448396
-3.934,0.3448594562177392,1.114736990232894
-3.9335,0.3128489316446912,0.9981739677760521
-3.933,0.291508581929326,0.8286277532933731
-3.9325,0.2808384070716433,0.6590815388106942
-3.932,0.3128489316446912,0.3517790250608387
-3.9315,0.1848068333524996,-0.3687923864905467
-3.931,-0.274010685527854,-1.184733543688439
-3.9305,-0.9035510021311299,-1.84172512480882
-3.93,-0.9035510021311299,-2.265590661015517
-3.9295,-0.3060212101009019,-1.958288147265661
-3.929,0.1954770082101822,-1.142346990067769
-3.9285,0.4515612047945656,-0.4323722169215513
-3.928,0.5155822539406614,0.03387987290581572
-3.9275,0.4835717293676135,0.2564092794143318
-3.927,0.4195506802215176,0.3305857482505039
-3.9265,0.3555296310754218,0.3305857482505039
-3.926,0.3768699807907871,0.383568940276341
-3.9255,0.5475927785137094,0.5743084315693548
-3.925,0.5475927785137094,0.55311515475902
-3.9245,0.4729015545099309,0.457745409112513
-3.924,0.3768699807907871,0.3729723018711736
-3.9235,0.2168173579255475,0.457745409112513
-3.923,-0.423393133535411,0.7862411996727035
-3.9225,-1.244996597576974,0.2458126410091644
-3.922,-1.917217613610981,-0.6654982618352349
-3.9215,-2.418715831922065,-1.38606967338662
-3.921,-2.109280761049269,-1.502632695843462
-3.9205,-1.26633694729234,-0.8668343915334161
-3.92,-0.5194247072545548,-0.1038764263613609
-3.9195,-0.007256314085787988,0.4895353243280153
-3.919,0.2594980573562781,0.8604176685088755
-3.9185,0.3768699807907871,1.051157159801889
-3.918,0.3875401556484697,1.104140351827727
-3.9175,0.3555296310754218,1.093543713422559
-3.917,0.3235191065023739,1.00877060618122
-3.9165,0.3021787567870086,0.8604176685088755
-3.916,0.2808384070716433,0.701468092431364
-3.9155,0.291508581929326,0.5213252395435176
-3.915,0.3875401556484697,-0.008506680714854012
-3.9145,0.3448594562177392,-0.8456411147230812
-3.914,-0.3166913849585846,-1.587405803084801
-3.9135,-0.7434983792658902,-1.968884785670829
-3.913,-0.2313299860971235,-2.043061254507001
-3.9125,0.291508581929326,-1.608599079895136
-3.912,0.5369226036560266,-0.8986243067489184
-3.9115,0.5902734779444399,-0.3793890248957141
-3.911,0.5262524287983441,-0.05089323433552374
-3.9105,0.4408910299368829,0.1080563417419877
-3.91,0.3768699807907871,0.1716361721729923
-3.9095,0.3341892813600565,0.2034260873884947
-3.909,0.4729015545099309,0.4047622170866759
-3.9085,0.5155822539406614,0.4789386859228479
-3.908,0.4622313796522482,0.4365521323021782
-3.9075,0.3875401556484697,0.4047622170866759
-3.907,0.291508581929326,0.4259554938970107
-3.9065,-0.1673089369510276,0.7862411996727035
-3.906,-1.052933450138687,0.5743084315693548
-3.9055,-1.863866739322568,-0.326405832869877
-3.905,-2.514747405641209,-1.184733543688439
-3.9045,-2.301343908487556,-1.492036057438295
-3.904,-1.405049220442214,-0.9516074987747555
-3.9035,-0.6154562809736985,-0.1780528951975329
-3.903,-0.06060718837420119,0.4683420475176805
-3.9025,0.2488278824985954,0.8816109453192104
-3.902,0.3768699807907871,1.114736990232894
-3.9015,0.3982103305061524,1.199510097474233
-3.901,0.3768699807907871,1.210106735879401
-3.9005,0.3341892813600565,1.157123543853563
-3.9,0.3021787567870086,1.029963882991555
-3.8995,0.291508581929326,0.8710143069140429
-3.899,0.2808384070716433,0.6802748156210291
-3.8985,0.3661998059331045,0.2564092794143318
-3.898,0.3235191065023739,-0.570128516188728
-3.8975,-0.3060212101009019,-1.375473034981453
-3.897,-1.084943974711735,-1.926498232050159
-3.8965,-0.807519428411986,-2.096044446532838
-3.896,-0.1352984123779797,-1.84172512480882
-3.8955,0.3235191065023739,-1.205926820498774
-3.895,0.5262524287983441,-0.6125150698093976
-3.8945,0.5475927785137094,-0.1780528951975329
-3.894,0.4942419042252961,0.05507314971615059
-3.8935,0.4195506802215176,0.1504428953626575
-3.893,0.3555296310754218,0.1822328105781598
-3.8925,0.408880505363835,0.3305857482505039
-3.892,0.4835717293676135,0.4895353243280153
-3.8915,0.4622313796522482,0.4789386859228479
-3.891,0.3982103305061524,0.4153588554918433
-3.8905,0.3235191065023739,0.3729723018711736
-3.89,0.07810508477567314,0.5849050699745222
-3.8895,-0.7114878546928423,0.7650479228623686
-3.889,-1.575772018165136,0.02328323450064829
-3.8885,-2.141291285622316,-0.8562377531282487
-3.888,-2.44005618163743,-1.449649503817625
-3.8875,-1.799845690176472,-1.258910012524611
-3.887,-0.9675720512772257,-0.5383386009732256
-3.8865,-0.2953510352432193,0.1716361721729923
-3.886,0.1207857842064037,0.6908714540261965
-3.8855,0.3235191065023739,0.9875773293708847
