Class_6_Listen_To_Quran/Class_6_Listen_To_quran_Zakour_10.csv

#Digilent WaveForms Oscilloscope Acquisition
#Device Name: EExplorer
#Serial Number: SN:210151A2B84A
#Date Time: 2021-02-03 11:17:24.197
#Sample rate: 2000Hz
#Samples: 16384
#Trigger: Source: Channel 1 Type: Edge Condition: Rising Level: 0 V Hyst.: Auto HoldOff: 0 s
#Channel 1: Range: 1 V/div Offset: 0 V Attenuation: 1 X
#Channel 2: Range: 1 V/div Offset: 0 V Attenuation: 1 X
#Power Supplies: ON
#Fixed Supply: ON
#Voltage: 3.3 V Readback: 3.317 V
#Positive Supply: ON
#Voltage: 3.7 V Readback: 3.71 V
#Current: 40 mA Readback: 17 mA
#Negative Supply: ON
#Voltage: -3.7 V Readback: -3.348 V
#Current: -40 mA Readback: -2 mA
#Reference 1: ON
#Voltage: 0 V
#Reference 2: ON
#Voltage: 0 V

Time (s),Channel 1 (V),Channel 2 (V)
-4.096,-0.9462317015618604,-1.566212526274467
-4.0955,-0.2526703358131195,-1.513229334248678
-4.095,0.355529631075742,-1.195330182093318
-4.0945,0.707645401378949,-0.8774310299385835
-4.094,0.8143471499556783,-0.644304985025112
-4.0935,0.7396559259518803,-0.517145324162833
-4.093,0.6116138276598051,-0.4535654937318862
-4.0925,0.5049120790830759,-0.4535654937318862
-4.092,0.6969752265212954,-0.4853554089473692
-4.0915,0.7289857510943143,-0.4641621321370536
-4.091,0.6009436528021226,-0.3370024712750445
-4.0905,0.4515612047944588,-0.1674562567922113
-4.09,0.3341892813600565,0.002089957690313421
-4.0895,0.2274875327832301,0.1928294489833272
-4.089,-0.07127736323161207,0.2352160026039584
-4.0885,-0.6047861061160158,-0.1992461720078678
-4.088,-1.06360362499637,-0.7502713690765743
-4.0875,-1.490410619303287,-1.110557074851939
-4.087,-1.906547438753017,-1.248313374119029
-4.0865,-1.597112367880501,-0.792657922697244
-4.086,-0.9462317015624524,0.033879872905064
-4.0855,-0.3807124341043214,0.775644561267989
-4.085,0.01408403562957729,1.273686566310405
-4.0845,0.2168173579253631,1.53860252643935
-4.084,0.2915085819293357,1.623375633680892
-4.0835,0.3021787567870086,1.580989080060261
-4.083,0.2701682322139607,1.464426057603419
-4.0825,0.2381577076408836,1.294879843120586
-4.082,0.2061471830678648,1.125333628638062
-4.0815,0.1954770082101822,0.9345941373450475
-4.081,0.07810508477577989,0.5955017083799981
-4.0805,-0.4340633083930936,-0.1462629799820306
-4.08,-0.839529952985034,-0.9304142219644207
-4.0795,-0.9462317015617634,-1.492036057437784
-4.079,-0.444733483250194,-1.672178910325813
-4.0785,0.1954770082101822,-1.311893204550448
-4.078,0.6329541773747727,-0.909220945154452
-4.0775,0.8143471499557559,-0.633708346619559
-4.077,0.79300680024041,-0.4429688553267188
-4.0765,0.6542945270906619,-0.3581957480854564
-4.076,0.5155822539407002,-0.3475991096803275
-4.0755,0.5582629533713921,-0.474758770542221
-4.075,0.6542945270905358,-0.5383386009732256
-4.0745,0.5689331282289776,-0.4111789401110623
-4.074,0.4622313796522482,-0.2416327256285375
-4.0735,0.3661998059331045,-0.07208651114585861
-4.073,0.2915085819293939,0.07626642652635053
-4.0725,0.07810508477567314,0.02328323450064829
-4.072,-0.423393133535411,-0.400582301706049
-4.0715,-0.8715404775576744,-0.9622041371794121
-4.071,-1.223656247862007,-1.248313374119549
-4.0705,-1.661133417026597,-1.364876396576285
-4.07,-1.59711236788056,-1.046977244421551
-4.0695,-1.031593100422807,-0.2734226408433459
-4.069,-0.4660738329661415,0.4895353243280153
-4.0685,-0.06060718837420119,1.040560521396722
-4.068,0.1848068333525869,1.369056311957038
-4.0675,0.2808384070716433,1.506812611224089
-4.067,0.3021787567870086,1.517409249629256
-4.0665,0.2808384070716142,1.453829419198146
-4.066,0.2488278824985954,1.33726639674141
-4.0655,0.2274875327832301,1.199510097474233
-4.065,0.2061471830678842,1.040560521396867
-4.0645,0.1207857842064037,0.775644561267536
-4.064,-0.4020527838200457,0.08686306493165288
-4.0635,-0.860870302699982,-0.7396747306706551
-4.063,-1.010252750707588,-1.386069673386794
-4.0625,-0.6047861061160158,-1.576809164679634
-4.062,0.05676473505970625,-1.205926820499111
-4.0615,0.5475927785139325,-0.8562377531280366
-4.061,0.79300680024041,-0.6231117082145651
-4.0605,0.825017324813458,-0.4111789401112165
-4.06,0.7076454013788132,-0.3158091944647096
-4.0595,0.5582629533713921,-0.3158091944647096
-4.059,0.4942419042252961,-0.2734226408440398
-4.0585,0.5369226036559878,-0.1250697031718307
-4.058,0.5049120790829789,-0.07208651114585861
-4.0575,0.4195506802215176,-0.07208651114585861
-4.057,0.3341892813601341,-0.05089323433554302
-4.0565,0.3128489316446912,0.04447651131098315
-4.056,0.3661998059331045,0.2670059178194992
-4.0555,0.440891029936815,0.3623756634659194
-4.055,0.07810508477520733,-0.1780528951980919
-4.0545,-0.4340633083930936,-0.792657922697244
-4.054,-1.106284324426489,-1.227120097308714
-4.0535,-1.394379045584221,-1.184733543687784
-4.053,-1.052933450138687,-0.4641621321370536
-4.0525,-0.5514352318276028,0.3729723018711736
-4.052,-0.1459685872354294,1.061753798207462
-4.0515,0.1101156093487211,1.506812611224089
-4.051,0.2488278824985954,1.739938656137773
-4.0505,0.2915085819292872,1.824711763379035
-4.05,0.2808384070716433,1.814115124973944
-4.0495,0.2488278824985954,1.729342017732605
-4.049,0.2168173579255766,1.602182356870711
-4.0485,0.1954770082101628,1.432636142387695
-4.048,0.1741366584948169,1.188913459069066
-4.0475,-0.1459685872353712,0.6060983467853871
-4.047,-0.6474668055469697,-0.2946159176551071
-4.0465,-0.8928808272734472,-1.0999604364471
-4.046,-0.8075194284120636,-1.587405803084358
-4.0455,-0.2206598112389168,-1.523825972653527
-4.045,0.3555296310754218,-1.227120097309109
-4.0445,0.707645401378949,-0.9092209451540858
-4.044,0.8250173248133998,-0.6760949002402384
-4.0435,0.7609962756673623,-0.4959520473525559
-4.043,0.6222840025174878,-0.4111789401112165
-4.0425,0.5049120790830857,-0.432372216921532
-4.042,0.6649647019482183,-0.5171453241628908
-4.0415,0.6969752265212663,-0.5065486857577234
-4.041,0.5796033030868641,-0.3793890248958298
-4.0405,0.4408910299367859,-0.2098428104128907
-4.04,0.3341892813600565,-0.05089323433552374
-4.0395,0.2808384070716918,0.1292496185521588
-4.039,0.4729015545097465,0.5425185163536886
-4.0385,0.2701682322139607,0.3623756634660061
-4.038,-0.2313299860966673,-0.2946159176537771
-4.0375,-0.8502001278432698,-0.824447837913074
-4.037,-1.458400094730627,-1.184733543688439
-4.0365,-1.415719395299897,-0.9092209451540858
-4.036,-0.9142211769883466,-0.188649533602045
-4.0355,-0.4020527838200457,0.5319218779486851
-4.035,-0.02859666380115328,1.061753798207057
-4.0345,0.1848068333523055,1.379652950361791
-4.034,0.2701682322139607,1.528005888034424
-4.0335,0.291508581929326,1.559795803249926
-4.033,0.2701682322139801,1.517409249629295
-4.0325,0.2381577076408836,1.422039503982634
-4.032,0.2061471830678648,1.29487984312074
-4.0315,0.1954770082101919,1.125333628638216
-4.031,0.1101156093482941,0.8074344764823541
-4.0305,-0.3593720843893152,0.05507314971615059
-4.03,-0.8075194284115784,-0.7820612842913152
-4.0295,-0.9035510021306641,-1.364876396576391
-4.029,-0.391382608962363,-1.481439419033127
-4.0285,0.2168173579255475,-1.163540266878104
-4.028,0.6329541773753259,-0.7608680074814623
-4.0275,0.8036769750980928,-0.4535654937318862
-4.027,0.7716664505250448,-0.3052125560595421
-4.0265,0.6436243522329695,-0.262826002438911
-4.026,0.5049120790829789,-0.3370024712750445
-4.0255,0.5689331282290746,-0.4323722169215513
-4.025,0.6969752265211498,-0.4641621321370247
-4.0245,0.6222840025173714,-0.347599109680048
-4.024,0.4942419042252961,-0.1674562567923655
-4.0235,0.3875401556485668,0.01268659609531703
-4.023,0.3235191065022768,0.2034260873886971
-4.0225,0.2168173579255475,0.4259554938970107
-4.022,-0.1352984123776594,0.3305857482505906
-4.0215,-0.6581369804047881,-0.284019279249747
-4.021,-1.052933450138687,-0.8774310299385835
-4.0205,-1.458400094730627,-1.227120097309109
-4.02,-1.277007122149566,-0.8774310299378896
-4.0195,-0.7755089038389382,-0.1144730647665284
-4.019,-0.2953510352432193,0.5955017083796896
-4.0185,0.0247542104869688,1.104140351827264
-4.018,0.2061471830678648,1.390249588767247
-4.0175,0.2808384070716433,1.517409249629256
-4.017,0.2915085819293163,1.528005888034414
-4.0165,0.2701682322139316,1.453829419198146
-4.016,0.2381577076409128,1.33726639674141
-4.0155,0.206147183067894,1.199510097474358
-4.015,0.1954770082101046,1.029963882991304
-4.0145,0.1101156093487211,0.7544512844572011
-4.014,-0.4127229586772529,0.04447651131162889
-4.0135,-0.8715404775582469,-0.7714646458875067
-4.013,-1.052933450138687,-1.42845622700729
-4.0125,-0.7648387289812555,-1.788741932782983
-4.012,-0.1459685872351868,-1.672178910325765
-4.0115,0.3768699807907871,-1.258910012524611
-4.011,0.6649647019482183,-0.8350444763179138
-4.0105,0.7289857510942561,-0.5701285161889689
-4.01,0.6436243522328531,-0.4429688553267188
-4.0095,0.5262524287983441,-0.4111789401112165
-4.009,0.4835717293676523,-0.4959520473524788
-4.0085,0.611613827659776,-0.6443049850248036
-4.008,0.5796033030867573,-0.5383386009732256
-4.0075,0.4729015545100279,-0.3264058328700697
-4.007,0.3661998059330365,-0.09327978795600073
-4.0065,0.291508581929326,0.1186529801471552
-4.006,0.3235191065023739,0.3941655786815084
-4.0055,0.4515612047941483,0.6484849004050642
-4.005,-0.007256314085787988,0.13984625695749
-4.0045,-0.5514352318276028,-0.5277419625680583
-4.004,-0.7648387289810905,-0.7926579226968489
-4.0035,-0.5834457564006506,-0.3581957480853793
-4.003,-0.274010685527854,0.2881991946298341
-4.0025,-0.01792648894370352,0.860417668508355
-4.002,0.142126133921769,1.25249328950007
-4.0015,0.2274875327832301,1.485619334413754
-4.001,0.259498057356249,1.580989080060174
-4.0005,0.2594980573562586,1.602182356870548
-4,0.2381577076409128,1.549199164844759
-3.9995,0.2168173579255475,1.453829419198252
-3.999,0.1954770082101822,1.33726639674141
-3.9985,0.1741366584948169,1.167720182258731
-3.998,0.1741366584948169,0.9663840525605498
-3.9975,-0.08194753808956648,0.4895353243280153
-3.997,-0.5834457564006506,-0.3475991096802118
-3.9965,-0.9569018764195432,-1.110557074852267
-3.996,-0.9675720512772257,-1.523825972653797
-3.9955,-0.4340633083930936,-1.301296566145281
-3.995,0.1527963087794516,-0.8562377531282487
-3.9945,0.5582629533713921,-0.5595318777835605
-3.994,0.707645401378949,-0.474758770542221
-3.9935,0.6756348768059011,-0.4323722169215513
-3.993,0.5582629533713921,-0.4429688553267188
-3.9925,0.4729015545099309,-0.4641621321370536
-3.992,0.6542945270905358,-0.570128516188728
-3.9915,0.6969752265212663,-0.5489352393783931
-3.991,0.5796033030867573,-0.3687923864905467
-3.9905,0.4302208550792003,-0.1462629799820306
-3.99,0.3235191065023739,0.08686306493165288
-3.9895,0.2808384070716433,0.3199891098453364
-3.989,0.4622313796522482,0.6590815388106942
-3.9885,0.1954770082101822,0.2987958330350016
-3.988,-0.3060212101009019,-0.3899856633008816
-3.9875,-0.8608703027003992,-0.8456411147230812
-3.987,-1.437059745015262,-1.131750351662602
-3.9865,-1.426389570157579,-0.8668343915334161
-3.986,-0.9355615267041777,-0.1356663415768632
-3.9855,-0.423393133535411,0.5743084315693548
-3.985,-0.04993701351651855,1.104140351827727
-3.9845,0.1634664836371343,1.411442865577582
-3.984,0.2594980573562781,1.538602526439591
-3.9835,0.2808384070716433,1.549199164844759
-3.983,0.2594980573562781,1.485619334413754
-3.9825,0.2274875327832301,1.369056311956912
-3.982,0.1954770082101822,1.231300012689736
-3.9815,0.1848068333524996,1.061753798207057
-3.981,0.01408403562957729,0.6802748156210291
-3.9805,-0.5514352318276028,-0.1462629799820306
-3.98,-0.9995825758502737,-0.9622041371799229
-3.9795,-1.095614149569417,-1.545019249464132
-3.979,-0.572775581542968,-1.735758740757146
-3.9785,0.08877525963335578,-1.38606967338662
-3.978,0.5582629533713921,-0.9304142219644207
-3.9775,0.7716664505250448,-0.6125150698093976
-3.977,0.7716664505250448,-0.4111789401112165
-3.9765,0.6649647019482183,-0.3052125560595421
-3.976,0.5369226036560266,-0.2946159176543747
-3.9755,0.6009436528021226,-0.4111789401112165
-3.975,0.7183155762366316,-0.5065486857577234
-3.9745,0.6329541773751706,-0.3899856633008816
-3.974,0.4835717293676135,-0.1992461720078678
-3.9735,0.3661998059331045,0.002089957690313421
-3.973,0.291508581929326,0.1822328105781598
-3.9725,0.07810508477567314,0.04447651131098315
-3.972,-0.4980843575391895,-0.4959520473525559
-3.9715,-0.9569018764195432,-1.01518732920576
-3.971,-1.277007122150022,-1.237716735714276
-3.9705,-1.693143941599645,-1.301296566145281
-3.97,-1.639793067311232,-0.9939940523954253
-3.9695,-1.06360362499637,-0.2310360872233701
-3.969,-0.4874141826815069,0.5213252395435176
-3.9685,-0.07127736323188383,1.061753798207057
-3.968,0.1741366584948169,1.358459673551745
-3.9675,0.2701682322139607,1.475022696008586
-3.967,0.3021787567870086,1.475022696008586
-3.9665,0.2808384070716433,1.37965295036208
-3.966,0.2488278824985954,1.241896651094903
-3.9655,0.2168173579255475,1.072350436612224
-3.965,0.1954770082101822,0.8922075837243778
-3.9645,0.1314559590640864,0.6484849004055269
-3.964,-0.3807124341046804,0.002089957690313421
-3.9635,-0.8715404775580819,-0.7820612842920766
-3.963,-1.116954499284783,-1.42845622700729
-3.9625,-0.7968492535543035,-1.629792356705471
-3.962,-0.1032878878049318,-1.248313374119443
-3.9615,0.4622313796522482,-0.9516074987747555
-3.961,0.7609962756673623,-0.7290780922662394
-3.9605,0.8143471499557753,-0.5277419625680583
-3.96,0.7183155762366316,-0.3687923864905467
-3.9595,0.5689331282290746,-0.3158091944647096
-3.959,0.5155822539406614,-0.3793890248957141
-3.9585,0.6969752265212663,-0.5595318777835605
-3.958,0.6649647019482183,-0.4853554089473885
-3.9575,0.5369226036560266,-0.2734226408440398
-3.957,0.408880505363835,-0.06148987274069118
-3.9565,0.3341892813600565,0.1186529801471552
-3.956,0.2061471830678648,0.1822328105781598
-3.9555,-0.3060212101009019,-0.252229364033705
-3.955,-0.807519428411986,-0.8562377531282487
-3.9545,-1.116954499284783,-1.322489842955616
-3.954,-1.394379045584531,-1.545019249464132
-3.9535,-1.170305373573196,-1.046977244421262
-3.953,-0.6794773301197943,-0.2098428104130352
-3.9525,-0.2420001609548061,0.5213252395435176
-3.952,0.05676473506030786,1.029963882991555
-3.9515,0.2168173579255475,1.316073119931075
-3.951,0.2808384070716433,1.443232780793084
-3.9505,0.2808384070716433,1.453829419198252
-3.95,0.2594980573562781,1.400846227172415
-3.9495,0.2274875327832301,1.305476481525908
-3.949,0.2061471830678648,1.188913459069066
-3.9485,0.1848068333524996,1.040560521396722
-3.948,0.1741366584948169,0.8604176685088755
-3.9475,-0.1139580626626144,0.3517790250608387
-3.947,-0.6367966306890638,-0.4641621321370536
-3.9465,-1.031593100423322,-1.205926820498774
-3.946,-1.020922925565639,-1.650985633515806
-3.9455,-0.4447334832507763,-1.809935209593318
-3.945,0.1741366584948169,-1.417859588602123
-3.9445,0.5796033030867573,-1.036380606016095
-3.944,0.7503261008096795,-0.6866915386455698
-3.9435,0.7183155762366316,-0.4535654937318862
-3.943,0.6009436528021226,-0.3581957480853793
-3.9425,0.4835717293676135,-0.3687923864905467
-3.942,0.6436243522328531,-0.5489352393783931
-3.9415,0.6969752265212663,-0.5489352393783931
-3.941,0.5902734779444399,-0.3581957480853793
-3.9405,0.4408910299368829,-0.1144730647665284
-3.94,0.3341892813600565,0.1080563417419877
-3.9395,0.291508581929326,0.3199891098453364
-3.939,0.4835717293676135,0.7120647308365314
-3.9385,0.2274875327832301,0.4683420475176805
-3.938,-0.4020527838200457,-0.252229364033705
-3.9375,-1.052933450138687,-0.7820612842920766
-3.937,-1.618452717595867,-1.131750351662602
-3.9365,-1.490410619303675,-0.8774310299385835
-3.936,-0.9355615267041777,-0.1568596183871981
-3.9355,-0.4020527838200457,0.5425185163538525
-3.935,-0.01792648894347063,1.040560521396722
-3.9345,0.1848068333524996,1.347863035146577
-3.934,0.2701682322139607,1.475022696008586
-3.9335,0.291508581929326,1.496215972818921
-3.933,0.2594980573562781,1.432636142387917
-3.9325,0.2274875327832301,1.326669758336243
-3.932,0.1954770082101822,1.210106735879401
-3.9315,0.1848068333524996,1.040560521396722
-3.931,0.05676473506030786,0.8074344764830383
-3.9305,-0.4874141826815069,0.3199891098453364
-3.93,-0.9782422261349084,-0.4853554089473885
-3.9295,-1.148965023857831,-1.131750351662602
-3.929,-0.8608703027003992,-1.184733543688439
-3.9285,-0.2526703358124887,-0.9198175835592532
-3.928,0.2701682322139607,-0.6654982618352349
-3.9275,0.5796033030867573,-0.4111789401112165
-3.927,0.6756348768059011,-0.252229364033705
-3.9265,0.6222840025174878,-0.2204394488182027
-3.926,0.5155822539406614,-0.252229364033705
-3.9255,0.5582629533713921,-0.3370024712750445
-3.925,0.6542945270905358,-0.3899856633008816
-3.9245,0.5796033030867573,-0.2840192792492073
-3.924,0.4622313796522482,-0.1356663415768632
-3.9235,0.3555296310754218,0.02328323450064829
-3.923,0.291508581929326,0.1610395337678249
-3.9225,0.4408910299368829,0.5425185163538525
-3.922,0.5369226036560266,0.6696781772158616
-3.9215,0.04609456020262521,0.03387987290581572
-3.921,-0.6154562809736985,-0.7078848154559045
-3.9205,-1.26633694729234,-1.195330182093607
-3.92,-1.255666772434657,-0.9516074987747555
-3.9195,-0.8288597781273515,-0.2204394488182027
-3.919,-0.3700422592469978,0.5001319627331828
-3.9185,-0.02859666380115328,1.029963882991555
-3.918,0.1741366584948169,1.358459673551745
-3.9175,0.2594980573562781,1.517409249629256
-3.917,0.2808384070716433,1.549199164844759
-3.9165,0.2594980573562781,1.506812611224089
-3.916,0.2274875327832301,1.42203950398275
-3.9155,0.2061471830678648,1.305476481525908
-3.915,0.1848068333524996,1.146526905448396
-3.9145,0.1634664836371343,0.92399749893988
-3.914,-0.1779791118087102,0.3305857482505039
-3.9135,-0.6367966306890638,-0.5277419625680583
-3.913,-0.9142211769888124,-1.237716735714276
-3.9125,-0.6047861061160158,-1.672178910326141
-3.912,0.02475421048725994,-1.809935209593318
-3.9115,0.5262524287983441,-1.34368311976595
-3.911,0.7823366253827275,-0.8986243067489184
-3.9105,0.8143471499557753,-0.6019184314042303
-3.91,0.707645401378949,-0.4429688553267188
-3.9095,0.5689331282290746,-0.3793890248957141
-3.909,0.5155822539406614,-0.3687923864905467
-3.9085,0.6969752265212663,-0.4111789401112165
-3.908,0.6756348768059011,-0.4111789401112165
-3.9075,0.5369226036560266,-0.3370024712750445
-3.907,0.3982103305061524,-0.2098428104130352
-3.9065,0.3021787567870086,-0.06148987274069118
-3.906,0.2061471830678648,0.1822328105781598
-3.9055,-0.2633405106701714,0.5107286011383502
-3.905,-0.8288597781273515,0.07626642652648545
-3.9045,-1.202315898146244,-0.5595318777835605
-3.904,-1.554431668449771,-0.9516074987747555
-3.9035,-1.87453691418025,-1.142346990067769
-3.903,-1.479740444445993,-0.6972881770507372
-3.9025,-0.839529952985034,0.08686306493165288
-3.902,-0.3060212101009019,0.8074344764830383
-3.9015,0.04609456020262521,1.316073119931075
-3.901,0.2274875327832301,1.591585718465428
-3.9005,0.291508581929326,1.697552102517103
-3.9,0.291508581929326,1.697552102517103
-3.8995,0.2594980573562781,1.612778995275763
-3.899,0.2274875327832301,1.485619334413754
-3.8985,0.2061471830678648,1.316073119931075
-3.898,0.1848068333524996,1.082947075017392
-3.8975,-0.1673089369510276,0.5107286011383502
-3.897,-0.8288597781273515,-0.3793890248957141
-3.8965,-0.9995825758502737,-1.078767159636765
-3.896,-0.754168554123573,-1.481439419033127
-3.8955,-0.1139580626626144,-1.545019249464132
-3.895,0.4515612047945656,-1.301296566145281
-3.8945,0.7716664505250448,-0.9833974139902578
-3.894,0.8463576745288233,-0.7608680074817418
-3.8935,0.7716664505250448,-0.5913217929990628
-3.893,0.6222840025174878,-0.5383386009732256
-3.8925,0.5049120790829789,-0.5065486857577234
-3.892,0.6329541773751706,-0.5913217929990628
-3.8915,0.6756348768059011,-0.5489352393783931
-3.891,0.5582629533713921,-0.3687923864905467
-3.8905,0.4302208550792003,-0.1356663415768632
-3.89,0.3341892813600565,0.07626642652648545
-3.8895,0.2701682322139607,0.2881991946298341
-3.889,-0.03926683865883591,0.4365521323021782
-3.8885,-0.6047861061160158,0.03387987290581572
-3.888,-0.9995825758502737,-0.570128516188728
-3.8875,-1.330357996438436,-1.036380606016095
-3.887,-1.426389570157579,-1.089363798041932
-3.8865,-0.9995825758502737,-0.4641621321370536
