Class_6_Listen_To_Quran/Class_6_Listen_To_Quran_Suko_7.csv

#Digilent WaveForms Oscilloscope Acquisition
#Device Name: EExplorer
#Serial Number: SN:210151A2B84A
#Date Time: 2021-01-24 14:26:57.056
#Sample rate: 2000Hz
#Samples: 16384
#Trigger: Source: Channel 1 Type: Edge Condition: Rising Level: 0 V Hyst.: Auto HoldOff: 0 s
#Channel 1: Range: 1 V/div Offset: 0 V Attenuation: 1 X
#Channel 2: Range: 1 V/div Offset: 0 V Attenuation: 1 X
#Power Supplies: ON
#Fixed Supply: ON
#Voltage: 3.3 V Readback: 3.317 V
#Positive Supply: ON
#Voltage: 3.7 V Readback: 3.703 V
#Current: 40 mA Readback: 7 mA
#Negative Supply: ON
#Voltage: -3.7 V Readback: -3.348 V
#Current: -40 mA Readback: -9 mA
#Reference 1: ON
#Voltage: 0 V
#Reference 2: ON
#Voltage: 0 V

Time (s),Channel 1 (V),Channel 2 (V)
-4.096,0.3128489316446912,0.7438546460520338
-4.0955,0.3021787567870183,0.7226613692417182
-4.095,0.2808384070716239,0.6802748156209906
-4.0945,0.2594980573562781,0.6378882620003594
-4.094,0.2488278824986051,0.5955017083797282
-4.0935,0.227487532783036,0.5319218779484152
-4.093,0.01408403562957729,0.2352160026039969
-4.0925,-0.4980843575387237,-0.4853554089467332
-4.092,-0.9035510021312367,-1.184733543688641
-4.0915,-1.020922925565639,-1.407262950196955
-4.091,-0.658136980404429,-0.9198175835592532
-4.0905,-0.1673089369507074,-0.3687923864902094
-4.09,0.1848068333524996,0.002089957690313421
-4.0895,0.3555296310754218,0.1716361721729923
-4.089,0.4195506802214594,0.1928294489833079
-4.0885,0.408880505363835,0.1716361721729923
-4.088,0.3875401556484697,0.1504428953626575
-4.0875,0.526252428798218,0.3093924714400244
-4.087,0.5689331282290261,0.3941655786814988
-4.0865,0.5155822539406614,0.383568940276341
-4.086,0.4515612047946238,0.3623756634660254
-4.0855,0.3982103305061912,0.3623756634660254
-4.085,0.4408910299368829,0.383568940276341
-4.0845,0.7930068002400898,0.09745970333708054
-4.084,0.5262524287977133,-0.5701285161892966
-4.0835,-0.1673089369510276,-1.195330182093607
-4.083,-0.7755089038389382,-1.492036057438295
-4.0825,-0.7861790786963491,-1.025783967610291
-4.082,-0.4874141826815069,-0.326405832869877
-4.0815,-0.156638762093345,0.2670059178194992
-4.081,0.08877525963313257,0.6590815388103376
-4.0805,0.2381577076409128,0.8604176685088755
-4.08,0.3021787567870086,0.92399749893988
-4.0795,0.3128489316446815,0.9134008605347224
-4.079,0.3021787567869892,0.8498210301036405
-4.0785,0.2808384070716433,0.775644561267536
-4.078,0.2594980573562975,0.6908714540262737
-4.0775,0.2381577076408934,0.60609834678478
-4.077,0.2168173579255475,0.5213252395435176
-4.0765,0.03542438534510756,0.2670059178197305
-4.076,-0.5087545323971924,-0.4005823017066658
-4.0755,-0.8608703027003992,-1.078767159636765
-4.075,-1.116954499284783,-1.47084278062796
-4.0745,-0.8608703026999722,-1.110557074851785
-4.074,-0.391382608962363,-0.5807251545938954
-4.0735,0.01408403562957729,-0.1780528951975329
-4.073,0.2594980573560549,0.01268659609530737
-4.0725,0.3768699807907871,0.08686306493165288
-4.072,0.3982103305061524,0.1080563417419877
-4.0715,0.3875401556484794,0.09745970333682996
-4.071,0.4942419042254126,0.2034260873886296
-4.0705,0.6222840025174878,0.3517790250608387
-4.07,0.5796033030867962,0.3623756634659965
-4.0695,0.5049120790829109,0.3305857482504942
-4.069,0.4302208550792003,0.3199891098453364
-4.0685,0.3875401556484697,0.3305857482505039
-4.068,0.6542945270906134,0.3305857482500798
-4.0675,0.7396559259519968,-0.1356663415768632
-4.067,0.1527963087794516,-0.8032545611024114
-4.0665,-0.6261264558316336,-1.333086481360677
-4.066,-0.9035510021311299,-1.216523458903942
-4.0655,-0.6688071552621118,-0.5913217929990628
-4.065,-0.3166913849589048,0.03387987290524708
-4.0645,-0.01792648894347063,0.4895353243280153
-4.064,0.1741366584948169,0.7544512844572011
-4.0635,0.2701682322138733,0.8604176685087791
-4.063,0.3128489316446912,0.8816109453191815
-4.0625,0.3128489316446912,0.849821030103708
-4.062,0.2915085819293454,0.7968378380779191
-4.0615,0.2594980573562684,0.7226613692416314
-4.061,0.2488278824985954,0.6484849004055269
-4.0605,0.2168173579255475,0.5637117931641874
-4.06,0.1527963087791023,0.4259554938965096
-4.0595,-0.2313299860971235,-0.1250697031716958
-4.059,-0.8288597781273515,-0.8350444763179138
-4.0585,-1.458400094730055,-1.460246142222224
-4.058,-1.661133417026597,-1.587405803084801
-4.0575,-1.116954499284783,-0.9939940523954253
-4.057,-0.4660738329667335,-0.3899856633014309
-4.0565,0.01408403562957729,0.02328323450064829
-4.056,0.291508581929326,0.2034260873884947
-4.0555,0.4088805053637283,0.2246193641988102
-4.055,0.4302208550792391,0.1822328105781694
-4.0545,0.4729015545099309,0.1928294489833272
-4.054,0.6649647019480436,0.3517790250606941
-4.0535,0.718315576236554,0.4047622170866373
-4.053,0.6329541773751706,0.3623756634660061
-4.0525,0.5049120790829789,0.2881991946298341
-4.052,0.4088805053637671,0.2458126410091162
-4.0515,0.3341892813600565,0.1928294489833272
-4.051,-0.1993194615240755,-0.2840192792492073
-4.0505,-0.8288597781267789,-0.9092209451535171
-4.05,-1.234326422719292,-1.407262950196955
-4.0495,-1.223656247861609,-1.34368311976595
-4.049,-0.7861790786970186,-0.7396747306719562
-4.0485,-0.3273615598159567,-0.1038764263609272
-4.048,0.01408403562957729,0.3729723018711736
-4.0475,0.2168173579253631,0.6484849004052763
-4.047,0.3128489316447107,0.786241199672742
-4.0465,0.3341892813600565,0.8286277532933731
-4.046,0.3235191065023836,0.8074344764830577
-4.0455,0.3021787567869698,0.7756445612674782
-4.045,0.2594980573562781,0.7120647308365314
-4.0445,0.2274875327832301,0.6590815388106942
-4.044,0.2274875327832107,0.5955017083796318
-4.0435,0.2061471830678648,0.5319218779486851
-4.043,-0.04993701351651855,0.2987958330350016
-4.0425,-0.5514352318271467,-0.3264058328693084
-4.042,-0.9355615267041777,-1.036380606016095
-4.0415,-1.095614149569417,-1.269506650929778
-4.041,-0.7221580295508647,-0.8774310299389401
-4.0405,-0.2206598112390915,-0.3687923864902576
-4.04,0.1634664836371343,-0.05089323433552374
-4.0395,0.3661998059329201,0.0974597033366854
-4.039,0.4302208550791906,0.13984625695749
-4.0385,0.4195506802215176,0.13984625695749
-4.038,0.3982103305061718,0.13984625695749
-4.0375,0.5689331282291135,0.3305857482505713
-4.037,0.6116138276598051,0.4047622170866759
-4.0365,0.5475927785137094,0.3623756634660061
-4.036,0.4622313796521803,0.3093924714401497
-4.0355,0.3875401556484697,0.2881991946298341
-4.035,0.3448594562177392,0.2881991946298341
-4.0345,-0.1139580626621972,-0.08268314955068873
-4.034,-0.7114878546928423,-0.718481453861072
-4.0335,-1.202315898146244,-1.227120097309109
-4.033,-1.511750969018759,-1.248313374119424
-4.0325,-1.191645723288066,-0.7714646458863406
-4.032,-0.6474668055467465,-0.1462629799820306
-4.0315,-0.1886492866668102,0.3517790250603857
-4.031,0.1207857842065493,0.6802748156211736
-4.0305,0.2808384070716433,0.8392243916985406
-4.03,0.334189281360008,0.9028042221294874
-4.0295,0.3341892813600371,0.8922075837243489
-4.029,0.3128489316446912,0.8604176685088755
-4.0285,0.291508581929326,0.7968378380778709
-4.028,0.259498057356249,0.7332580076467988
-4.0275,0.2274875327832301,0.6590815388106942
-4.027,0.2061471830678648,0.5743084315693548
-4.0265,-0.007256314085593879,0.2987958330352521
-4.026,-0.4874141826815069,-0.400582301706049
-4.0255,-0.8715404775580819,-1.110557074852267
-4.025,-1.298347471864999,-1.640388995110157
-4.0245,-1.191645723288056,-1.439052865411841
-4.024,-0.6367966306890638,-0.7608680074817418
-4.0235,-0.1246282375207629,-0.1992461720083786
-4.023,0.2168173579256834,0.08686306493173962
-4.0225,0.3661998059331045,0.1822328105781598
-4.022,0.4195506802214691,0.171636172173002
-4.0215,0.4195506802216438,0.1504428953626864
-4.021,0.5582629533713921,0.1822328105781598
-4.0205,0.6863050516635838,0.2352160026039969
-4.02,0.6329541773750735,0.2140227257936332
-4.0195,0.5262524287983441,0.1822328105781598
-4.019,0.4302208550792003,0.1716361721729923
-4.0185,0.4195506802215274,0.1822328105781501
-4.018,0.7289857510943143,0.06566978812131802
-4.0175,0.7396559259519968,-0.4853554089473885
-4.017,0.07810508477627476,-1.110557074851698
-4.0165,-0.6901475049777294,-1.152943628472426
-4.016,-0.9675720512772257,-0.5913217929990628
-4.0155,-0.7221580295507481,-0.1144730647669621
-4.015,-0.3380317346736684,0.2140227257938452
-4.0145,-0.02859666380115328,0.4153588554918433
-4.014,0.1741366584946325,0.531921877948579
-4.0135,0.2808384070716724,0.5955017083797282
-4.013,0.3128489316446912,0.6378882620003594
-4.0125,0.3128489316446912,0.6590815388106942
-4.012,0.2915085819293066,0.6908714540262062
-4.0115,0.2701682322139607,0.701468092431364
-4.011,0.2381577076409128,0.7120647308365314
-4.0105,0.206147183067894,0.7014680924313736
-4.01,0.09944543449103843,0.5955017083796896
-4.0095,-0.4020527838200457,0.04447651131098315
-4.009,-0.7114878546925608,-0.5595318777830112
-4.0085,-0.9462317015617634,-1.078767159636582
-4.008,-0.839529952985034,-0.8774310299385835
-4.0075,-0.3913826089627706,-0.3793890248961671
-4.007,0.03542438534518519,-0.01910331911984797
-4.0065,0.3021787567870086,0.1716361721729923
-4.006,0.4302208550792003,0.2352160026039969
-4.0055,0.4515612047945365,0.2352160026039873
-4.005,0.4195506802215176,0.2246193641988295
-4.0045,0.4302208550792003,0.2670059178194992
-4.004,0.536922603656017,0.3729723018711736
-4.0035,0.5262524287983441,0.3729723018711736
-4.003,0.4729015545099309,0.3305857482505039
-4.0025,0.4088805053638933,0.2881991946298726
-4.002,0.3768699807907871,0.2881991946298341
-4.0015,0.408880505363835,0.3411823866556712
-4.001,0.6649647019479854,0.1186529801473576
-4.0005,0.3235191065017042,-0.5065486857582534
-4,-0.4127229586777283,-1.089363798041932
-3.9995,-0.8822106524157645,-1.195330182093607
-3.999,-0.7434983792658902,-0.7396747306714069
-3.9985,-0.4020527838200457,-0.1886495336027004
-3.998,-0.08194753808956648,0.2564092794143318
-3.9975,0.142126133921769,0.5425185163538525
-3.997,0.2594980573562781,0.6802748156210291
-3.9965,0.3021787567870086,0.7438546460520338
-3.996,0.3128489316446912,0.7438546460520338
-3.9955,0.291508581929326,0.7226613692416989
-3.995,0.2701682322139607,0.6802748156210291
-3.9945,0.2274875327832301,0.6378882620003594
-3.994,0.1954770082101822,0.5849050699745222
-3.9935,0.1634664836371343,0.5107286011383502
-3.993,-0.2206598112394408,0.1186529801471552
-3.9925,-0.9035510021311299,-0.6231117082145651
-3.992,-1.298347471865388,-1.301296566145281
-3.9915,-1.277007122150022,-1.333086481360783
-3.991,-0.807519428411986,-0.8032545611024114
-3.9905,-0.2846808603855366,-0.2840192792492073
-3.99,0.08877525963335578,0.03387987290581572
-3.9895,0.3021787567870086,0.1716361721729923
-3.989,0.3768699807907871,0.1928294489833272
-3.9885,0.3982103305061524,0.1610395337678249
-3.988,0.3982103305061524,0.1186529801471552
-3.9875,0.5796033030867573,0.04447651131098315
-3.987,0.6116138276598051,0.05507314971615059
-3.9865,0.5369226036560266,0.1080563417419877
-3.986,0.4515612047945656,0.1822328105781598
-3.9855,0.4195506802215176,0.2670059178194992
-3.985,0.4835717293676135,0.3623756634660061
-3.9845,0.7396559259519968,0.2564092794143318
-3.984,0.2061471830678648,-0.3899856633008816
-3.9835,-0.572775581542968,-1.036380606016095
-3.983,-1.148965023857831,-1.38606967338662
-3.9825,-1.042263275281004,-0.9939940523954253
-3.982,-0.6154562809736985,-0.3370024712750445
-3.9815,-0.2099896363817582,0.2352160026039969
-3.981,0.07810508477567314,0.6166949851900245
-3.9805,0.2381577076409128,0.8286277532933731
-3.98,0.3021787567870086,0.9028042221295453
-3.9795,0.3235191065023739,0.9028042221295453
-3.979,0.3128489316446912,0.8710143069140429
-3.9785,0.291508581929326,0.8074344764830383
-3.978,0.2701682322139607,0.7438546460520338
-3.9775,0.2381577076409128,0.6696781772158616
-3.977,0.2168173579255475,0.5743084315693548
-3.9765,-0.04993701351651855,0.2564092794143318
-3.976,-0.5621054066852853,-0.4535654937318862
-3.9755,-0.8928808272734472,-1.110557074852267
-3.975,-1.234326422719292,-1.650985633515806
-3.9745,-1.212986073003927,-1.555615887869299
-3.974,-0.7008176798351597,-0.9198175835592532
-3.9735,-0.1779791118087102,-0.3475991096802118
-3.973,0.1741366584948169,-0.008506680714854012
-3.9725,0.3555296310754218,0.1610395337678249
-3.972,0.408880505363835,0.2034260873884947
-3.9715,0.4195506802215176,0.2034260873884947
-3.971,0.5475927785137094,0.2458126410091644
-3.9705,0.6436243522328531,0.2776025562246667
-3.97,0.5902734779444399,0.2352160026039969
-3.9695,0.5049120790829789,0.1928294489833272
-3.969,0.4515612047945656,0.1716361721729923
-3.9685,0.4302208550792003,0.1716361721729923
-3.968,0.707645401378949,0.06566978812131802
-3.9675,0.6542945270905358,-0.4641621321370536
-3.967,0.01408403562957729,-1.068170521231597
-3.9665,-0.6688071552621118,-1.502632695843462
-3.966,-0.7755089038389382,-1.195330182093607
-3.9655,-0.5194247072545548,-0.5489352393783931
-3.965,-0.1993194615240755,0.03387987290581572
-3.9645,0.05676473506030786,0.4365521323021782
-3.964,0.2061471830678648,0.6696781772158616
-3.9635,0.2808384070716433,0.7650479228623686
-3.963,0.3021787567870086,0.7968378380778709
-3.9625,0.3021787567870086,0.775644561267536
-3.962,0.2808384070716433,0.7332580076468663
-3.9615,0.2488278824985954,0.6802748156210291
-3.961,0.2168173579255475,0.627291623595192
-3.9605,0.2061471830678648,0.5743084315693548
-3.96,0.142126133921769,0.4471487707073456
-3.9595,-0.2633405106701714,-0.09327978795619347
-3.959,-0.7114878546928423,-0.8032545611024114
-3.9585,-1.074273799854052,-1.333086481360783
-3.958,-0.9889124009925911,-1.174136905283272
-3.9575,-0.5194247072545548,-0.6443049850249
-3.957,-0.07127736323188383,-0.2098428104130352
-3.9565,0.2061471830678648,0.07626642652648545
-3.956,0.3448594562177392,0.2034260873884947
-3.9555,0.3875401556484697,0.2352160026039969
-3.955,0.3982103305061524,0.2352160026039969
-3.9545,0.4408910299368829,0.2564092794143318
-3.954,0.5475927785137094,0.3305857482505039
-3.9535,0.5475927785137094,0.3199891098453364
-3.953,0.5049120790829789,0.2987958330350016
-3.9525,0.4942419042252961,0.2881991946298341
-3.952,0.4835717293676135,0.2987958330350016
-3.9515,0.7183155762366316,0.2034260873884947
-3.951,1.006410297394063,-0.3052125560595421
-3.9505,0.5689331282290746,-0.9410108603695881
-3.95,-0.1459685872356623,-1.407262950196955
-3.9495,-0.5621054066852853,-1.311893204550448
-3.949,-0.4874141826815069,-0.7078848154559045
-3.9485,-0.2420001609548061,-0.09327978795619347
-3.948,-0.007256314085787988,0.3623756634660061
-3.9475,0.1527963087794516,0.627291623595192
-3.947,0.2488278824985954,0.7544512844572011
-3.9465,0.2808384070716433,0.775644561267536
-3.946,0.291508581929326,0.7650479228623686
-3.9455,0.2808384070716433,0.7226613692416989
-3.945,0.2701682322139607,0.6696781772158616
-3.9445,0.2488278824985954,0.6166949851900245
-3.944,0.2274875327832301,0.55311515475902
-3.9435,0.1741366584948169,0.457745409112513
-3.943,-0.1886492866663929,-0.008506680714854012
-3.9425,-0.7328282044082075,-0.7396747306714069
-3.942,-1.138294849000148,-1.38606967338662
-3.9415,-1.415719395299897,-1.746355379162313
-3.941,-1.084943974711735,-1.311893204550448
-3.9405,-0.5621054066852853,-0.6443049850249
-3.94,-0.09261771294724913,-0.1038764263613609
-3.9395,0.2061471830678648,0.1928294489833272
-3.939,0.3555296310754218,0.2987958330350016
-3.9385,0.3982103305061524,0.309392471440169
-3.938,0.4195506802215176,0.309392471440169
-3.9375,0.5902734779444399,0.4683420475176805
-3.937,0.6116138276598051,0.4683420475176805
-3.9365,0.5475927785137094,0.3623756634660061
-3.936,0.4622313796522482,0.2564092794143318
-3.9355,0.3875401556484697,0.1928294489833272
-3.935,0.3875401556484697,0.1610395337678249
-3.9345,0.6649647019482183,-0.1356663415768632
-3.934,0.3982103305061524,-0.718481453861072
-3.9335,-0.3380317346739499,-1.269506650929778
-3.933,-0.9569018764195432,-1.481439419033127
-3.9325,-0.9142211769888124,-1.01518732920576
-3.932,-0.5621054066852853,-0.3581957480853793
-3.9315,-0.1886492866663929,0.1928294489833272
-3.931,0.07810508477567314,0.55311515475902
-3.9305,0.2274875327832301,0.7438546460520338
-3.93,0.291508581929326,0.8180311148882058
-3.9295,0.3128489316446912,0.8180311148882058
-3.929,0.291508581929326,0.7862411996727035
-3.9285,0.2701682322139607,0.7332580076468663
-3.928,0.2274875327832301,0.6696781772158616
-3.9275,0.2061471830678648,0.6060983467848571
-3.927,0.1848068333524996,0.5425185163538525
-3.9265,0.02475421048725994,0.2987958330350016
-3.926,-0.4660738329661415,-0.3793890248957141
-3.9255,-0.9675720512772257,-1.089363798041932
-3.925,-1.191645723288561,-1.439052865412457
-3.9245,-0.9462317015618604,-1.036380606016095
-3.924,-0.4447334832507763,-0.4959520473525559
-3.9235,-0.02859666380115328,-0.09327978795619347
-3.923,0.2168173579255475,0.13984625695749
-3.9225,0.3341892813600565,0.2564092794143318
-3.922,0.3768699807907871,0.2776025562246667
-3.9215,0.3875401556484697,0.2670059178194992
-3.921,0.5582629533713921,0.4047622170866759
-3.9205,0.6649647019482183,0.5001319627331828
-3.92,0.6542945270905358,0.4683420475176805
-3.9195,0.5796033030867573,0.3729723018711736
-3.919,0.4942419042252961,0.2881991946298341
-3.9185,0.4302208550792003,0.2881991946298341
-3.918,0.09944543449103843,0.1504428953626575
-3.9175,-0.6047861061160158,-0.474758770542221
-3.917,-1.116954499284783,-1.089363798041932
-3.9165,-1.490410619303675,-1.439052865412457
-3.916,-1.330357996438436,-1.184733543688439
-3.9155,-0.807519428411986,-0.5807251545938954
-3.915,-0.3060212101009019,0.002089957690313421
-3.9145,0.03542438534494258,0.4047622170866759
-3.914,0.2381577076409128,0.627291623595192
-3.9135,0.3128489316446912,0.7332580076468663
-3.913,0.3235191065023739,0.7544512844572011
-3.9125,0.3128489316446912,0.7332580076468663
-3.912,0.291508581929326,0.6908714540261965
-3.9115,0.2594980573562781,0.6484849004055269
-3.911,0.2168173579255475,0.5849050699745222
-3.9105,0.1954770082101822,0.5213252395435176
-3.91,0.04609456020262521,0.3623756634660061
-3.9095,-0.4340633083930936,-0.2310360872233701
-3.909,-0.7755089038389382,-0.9304142219644207
-3.9085,-1.127624674142465,-1.502632695843462
-3.908,-1.212986073003927,-1.47084278062796
-3.9075,-0.7434983792658902,-0.8668343915334161
-3.907,-0.2206598112394408,-0.3052125560595421
-3.9065,0.1207857842064037,0.06566978812131802
-3.906,0.3021787567870086,0.2458126410091644
-3.9055,0.3768699807907871,0.2987958330350016
-3.905,0.3875401556484697,0.2564092794143318
-3.9045,0.4942419042252961,0.2881991946298341
-3.904,0.707645401378949,0.4153588554918433
-3.9035,0.6969752265212663,0.383568940276341
-3.903,0.6009436528021226,0.309392471440169
-3.9025,0.4942419042252961,0.2458126410091644
-3.902,0.4195506802215176,0.2246193641988295
-3.9015,0.3982103305061524,0.05507314971615059
-3.901,-0.08194753808956648,-0.5171453241628908
-3.9005,-0.6794773301197943,-1.110557074852267
-3.9,-1.191645723288561,-1.534422611058964
-3.8995,-1.330357996438436,-1.481439419033127
-3.899,-0.9248913518464952,-0.8456411147230812
-3.8985,-0.4340633083930936,-0.1780528951975329
-3.898,-0.04993701351651855,0.309392471440169
-3.8975,0.1848068333524996,0.6060983467848571
-3.897,0.291508581929326,0.7438546460520338
-3.8965,0.3235191065023739,0.7862411996727035
-3.896,0.3128489316446912,0.775644561267536
-3.8955,0.3021787567870086,0.7332580076468663
-3.895,0.2701682322139607,0.6802748156210291
-3.8945,0.2594980573562781,0.627291623595192
-3.894,0.2381577076409128,0.5743084315693548
-3.8935,0.1954770082101822,0.4789386859228479
-3.893,-0.1886492866663929,0.002089957690313421
-3.8925,-0.6794773301197943,-0.7396747306714069
-3.892,-1.052933450138687,-1.364876396576285
-3.8915,-1.148965023857831,-1.301296566145281
-3.891,-0.7328282044082075,-0.7608680074817418
-3.8905,-0.2633405106701714,-0.3052125560595421
-3.89,0.07810508477567314,-0.008506680714854012
-3.8895,0.2808384070716433,0.1504428953626575
-3.889,0.3661998059331045,0.2034260873884947
-3.8885,0.3875401556484697,0.1822328105781598
-3.888,0.4195506802215176,0.1928294489833272
-3.8875,0.5902734779444399,0.383568940276341
-3.887,0.6009436528021226,0.4259554938970107
-3.8865,0.5262524287983441,0.383568940276341
