Class_6_Listen_To_Quran/Class_6_Listen_To_Quran_AM_2.csv

#Digilent WaveForms Oscilloscope Acquisition
#Device Name: EExplorer
#Serial Number: SN:210151A2B84A
#Date Time: 2020-10-27 14:08:22.296
#Sample rate: 2000Hz
#Samples: 16384
#Trigger: Source: Channel 1 Type: Edge Condition: Rising Level: 0 V Hyst.: Auto HoldOff: 0 s
#Channel 1: Range: 1 V/div Offset: 0 V Attenuation: 1 X
#Channel 2: Range: 1 V/div Offset: 0 V Attenuation: 1 X
#Power Supplies: ON
#Fixed Supply: ON
#Voltage: 3.3 V Readback: 3.328 V
#Positive Supply: ON
#Voltage: 3.7 V Readback: 3.711 V
#Current: 500 mA Readback: 20 mA
#Negative Supply: ON
#Voltage: -3.7 V Readback: -3.703 V
#Current: -500 mA Readback: -9 mA
#Reference 1: ON
#Voltage: 0 V
#Reference 2: ON
#Voltage: 0 V

Time (s),Channel 1 (V),Channel 2 (V)
-4.096,0.9317190733902845,0.3305857482505039
-4.0955,0.8250173248135551,0.1716361721731369
-4.095,0.6863050516634868,0.0444765113109446
-4.0945,0.5796033030867573,0.002089957690313421
-4.094,0.6649647019481407,-0.1674562567922113
-4.0935,0.7183155762365734,-0.2310360872232641
-4.093,0.6542945270905358,-0.1144730647665284
-4.0925,0.5582629533714795,0.06566978812115418
-4.092,0.4729015545097465,0.2352160026039584
-4.0915,0.2701682322139607,0.1928294489833272
-4.091,-0.1352984123779797,-0.4429688553267188
-4.0905,-0.8502001278434155,-1.195330182094098
-4.09,-1.618452717595867,-1.735758740757146
-4.0895,-2.312014083345239,-2.032464616101834
-4.089,-2.674800028506118,-2.085447808127622
-4.0885,-2.418715831922065,-1.714565463946811
-4.088,-1.447729919872945,-0.8032545611024114
-4.0875,-0.5834457564014366,0.06566978812052782
-4.087,0.003413860772185784,0.6802748156213279
-4.0865,0.3235191065023739,1.00877060618122
-4.086,0.4515612047944491,1.114736990232798
-4.0855,0.4729015545098921,1.093543713422463
-4.085,0.4302208550792003,0.9875773293708847
-4.0845,0.3768699807908356,0.8498210301038334
-4.084,0.3448594562176809,0.7226613692415447
-4.0835,0.2808384070716433,0.55311515475902
-4.083,0.142126133921769,-0.02969995752518888
-4.0825,0.2381577076404858,-0.8880276683444063
-4.082,-0.2313299860971235,-1.608599079895136
-4.0815,-0.4767440078238243,-1.682775548731308
-4.081,-0.01792648894388793,-0.8880276683444738
-4.0805,0.5049120790829789,-0.2098428104130352
-4.08,0.8356874996711408,0.2670059178194992
-4.0795,0.8997085488171783,0.4153588554917084
-4.079,0.8463576745287165,0.3093924714400533
-4.0785,0.7289857510943143,0.1822328105781598
-4.078,0.6116138276599119,0.07626642652658183
-4.0775,0.6009436528021905,0.05507314971623732
-4.077,0.6756348768059011,0.1504428953626575
-4.0765,0.6222840025175363,0.1822328105781308
-4.076,0.5369226036559587,0.1928294489833368
-4.0755,0.4622313796522482,0.2034260873884947
-4.075,0.3128489316446912,0.1292496185523226
-4.0745,-0.00725631408620528,-0.474758770542886
-4.074,-0.4660738329661415,-1.205926820498774
-4.0735,-1.170305373573196,-1.778145294377815
-4.073,-1.746494815887535,-2.085447808127392
-4.0725,-2.344024607918286,-2.138431000153508
-4.072,-2.386705307349017,-1.84172512480882
-4.0715,-1.543761493592855,-0.9622041371807228
-4.071,-0.7008176798346066,-0.04029659592973951
-4.0705,-0.09261771294724913,0.6378882620003594
-4.07,0.2701682322136307,1.008770606180882
-4.0695,0.4302208550792294,1.167720182258731
-4.069,0.4622313796522482,1.167720182258731
-4.0685,0.4302208550792003,1.082947075017392
-4.068,0.3768699807907483,0.9451907757500897
-4.0675,0.3341892813600565,0.8074344764830383
-4.067,0.3128489316446912,0.6696781772158616
-4.0665,0.1527963087795487,0.2776025562239246
-4.066,0.2594980573562781,-0.5383386009732256
-4.0655,-0.1779791118087102,-1.333086481360783
-4.065,-0.6367966306886466,-1.92649823204962
-4.0645,-0.2526703358124887,-1.714565463946811
-4.064,0.3235191065023739,-0.8138511995075789
-4.0635,0.7183155762362725,-0.2098428104135845
-4.063,0.8783681991018712,0.1080563417420263
-4.0625,0.8783681991018712,0.1504428953626575
-4.062,0.7716664505251418,0.1186529801471841
-4.0615,0.6329541773751124,0.06566978812125056
-4.061,0.5689331282290746,-0.008506680714854012
-4.0605,0.6756348768059011,-0.1674562567923655
-4.06,0.6756348768058235,-0.146262979981915
-4.0595,0.5902734779444399,-0.01910331912002144
-4.059,0.5049120790829789,0.1080563417419877
-4.0585,0.4195506802215953,0.2246193641987235
-4.058,0.1741366584948169,0.1292496185523226
-4.0575,-0.2420001609548061,-0.4217755785163839
-4.057,-0.956901876418893,-1.142346990067114
-4.0565,-1.661133417026597,-1.714565463946811
-4.056,-2.333354433060604,-2.064254531317336
-4.0555,-2.653459678790792,-2.159624276963756
-4.055,-2.173301810194481,-1.640388995109781
-4.0545,-1.202315898146244,-0.6972881770507372
-4.054,-0.4127229586784464,0.1292496185515709
-4.0535,0.09944543449128104,0.6802748156212893
-4.053,0.3661998059331045,0.9663840525605498
-4.0525,0.4622313796522482,1.061753798207057
-4.052,0.4622313796521997,1.0193672445863
-4.0515,0.408880505363835,0.92399749893988
-4.051,0.3555296310754218,0.8074344764830383
-4.0505,0.323519106502403,0.6908714540263026
-4.05,0.2168173579255475,0.4789386859228479
-4.0495,-0.4020527838200457,-0.2416327256285375
-4.049,-1.244996597576208,-1.089363798041161
-4.0485,-1.874536914179842,-1.6933721871361
-4.048,-1.426389570157579,-1.280103289334946
-4.0475,-0.4127229586786503,-0.5595318777842159
-4.047,0.3982103305065406,0.002089957690612186
-4.0465,0.825017324813458,0.3305857482505039
-4.046,0.9423892482478602,0.3411823866556616
-4.0455,0.8997085488171297,0.2352160026039102
-4.045,0.7823366253827275,0.13984625695749
-4.0445,0.6542945270905358,0.04447651131098315
-4.044,0.6222840025174782,-0.07208651114589716
-4.0435,0.6116138276598051,-0.1144730647665284
-4.043,0.5369226036560266,-0.05089323433552374
-4.0425,0.4622313796523161,0.04447651131089642
-4.042,0.408880505363835,0.1610395337678249
-4.0415,0.2808384070716433,0.1716361721729923
-4.041,0.163466483637241,-0.2416327256281617
-4.0405,-0.1352984123786008,-0.8774310299390943
-4.04,-0.8181896032696687,-1.439052865412457
-4.0395,-1.554431668449102,-1.788741932782665
-4.039,-2.226652684483787,-1.915901593644742
-4.0385,-2.23732285934146,-1.640388995110639
-4.038,-1.415719395300644,-0.7820612842928572
-4.0375,-0.6154562809731745,0.1186529801477334
-4.037,-0.03926683865883591,0.7544512844572011
-4.0365,0.291508581929326,1.125333628638062
-4.036,0.440891029936912,1.263089927905228
-4.0355,0.4729015545099309,1.25249328950007
-4.035,0.4408910299368829,1.157123543853563
-4.0345,0.3875401556485182,1.02996388299167
-4.034,0.3448594562177392,0.8816109453192104
-4.0335,0.3128489316446912,0.7226613692416989
-4.033,-0.07127736323153444,0.192829448983809
-4.0325,-0.9035510021318384,-0.6972881770514214
-4.032,-1.682473766741963,-1.449649503817625
-4.0315,-1.597112367880579,-1.650985633515623
-4.031,-0.6474668055459701,-1.280103289334368
-4.0305,0.2061471830678648,-0.6443049850249
-4.03,0.7396559259515115,-0.125069703172168
-4.0295,0.9423892482479476,0.1504428953626767
-4.029,0.9210488985326017,0.1716361721729923
-4.0285,0.8036769750980928,0.1080563417419877
-4.028,0.675634876805872,0.01268659609533629
-4.0275,0.6436243522328531,-0.1462629799820306
-4.027,0.707645401378949,-0.2628260024388724
-4.0265,0.6542945270905843,-0.231036087223399
-4.026,0.5475927785137094,-0.1250697031716958
-4.0255,0.4622313796522482,0.002089957690313421
-4.025,0.3661998059331918,0.1822328105779959
-4.0245,0.4195506802214691,0.6696781772158713
-4.024,0.3661998059331045,0.6802748156210291
-4.0235,-0.3487019095309824,-0.1250697031709633
-4.023,-1.170305373573895,-0.9833974139907783
-4.0225,-1.938557963326346,-1.555615887869299
-4.022,-2.301343908487226,-1.725162102351824
-4.0215,-1.650463242168168,-1.078767159635946
-4.021,-0.8288597781273515,-0.1780528951975329
-4.0205,-0.1779791118087102,0.5743084315693548
-4.02,0.2168173579257222,1.051157159802101
-4.0195,0.408880505363835,1.284283204715573
-4.019,0.4622313796522482,1.358459673551745
-4.0185,0.4408910299369024,1.326669758336271
-4.018,0.408880505363835,1.241896651094903
-4.0175,0.3555296310754218,1.114736990232894
-4.017,0.31284893164473,0.9557874141555269
-4.0165,0.0887752596329773,0.5743084315685453
-4.016,-0.3273615598162672,-0.3158091944647096
-4.0155,-0.8502001278422412,-1.205926820497965
-4.015,-1.095614149568971,-1.831128486403547
-4.0145,-0.6047861061160158,-1.714565463946811
-4.014,0.099445434490398,-0.9304142219651339
-4.0135,0.6329541773753937,-0.1886495336024016
-4.013,0.8783681991018712,0.13984625695749
-4.0125,0.8890383739595538,0.1610395337678249
-4.012,0.803676975097986,0.1080563417419203
-4.0115,0.6863050516635838,0.03387987290581572
-4.011,0.6009436528021226,-0.02969995752518888
-4.0105,0.6863050516635062,0.1186529801470203
-4.01,0.6863050516635838,0.1928294489833272
-4.0095,0.6009436528021226,0.1928294489833272
-4.009,0.5049120790830662,0.1716361721730116
-4.0085,0.4408910299366889,0.2034260873884465
-4.008,0.2274875327832301,0.1504428953626575
-4.0075,-0.3807124341041274,-0.4217755785158635
-4.007,-1.138294849000701,-1.142346990068213
-4.0065,-1.746494815888059,-1.629792356705471
-4.006,-2.333354433060604,-1.88411167842949
-4.0055,-2.568098279928952,-1.884111678428883
-4.005,-1.83185621474952,-1.216523458903942
-4.0045,-0.9248913518464952,-0.2734226408440398
-4.004,-0.2206598112390527,0.5001319627336358
-4.0035,0.2061471830678648,0.9981739677760521
-4.003,0.4195506802215176,1.241896651094903
-4.0025,0.4835717293675553,1.30547648152585
-4.002,0.4622313796522482,1.263089927905238
-4.0015,0.408880505363835,1.157123543853563
-4.001,0.3661998059331433,1.02996388299167
-4.0005,0.3341892813599789,0.8922075837241658
-4,0.2488278824985954,0.6590815388106942
-3.9995,0.2381577076409128,-0.1038764263613609
-3.999,0.2168173579255475,-1.004590690800593
-3.9985,-0.4874141826815069,-1.650985633515806
-3.998,-0.5194247072545548,-1.492036057438295
-3.9975,0.01408403562957729,-0.9939940523954253
-3.997,0.5049120790829789,-0.400582301706049
-3.9965,0.7823366253827275,-0.04029659593035631
-3.996,0.8463576745288233,0.05507314971615059
-3.9955,0.79300680024041,0.06566978812131802
-3.995,0.6969752265212663,0.01268659609548085
-3.9945,0.5902734779444399,-0.04029659593035631
-3.994,0.5902734779444399,0.03387987290581572
-3.9935,0.6116138276598051,0.1610395337678249
-3.993,0.5582629533713921,0.1716361721729923
-3.9925,0.4942419042252961,0.1716361721729923
-3.992,0.4408910299368829,0.1928294489833272
-3.9915,0.2488278824985954,0.1292496185523226
-3.991,-0.2526703358124887,-0.4535654937318862
-3.9905,-0.9782422261349084,-1.163540266878104
-3.99,-1.586442193022819,-1.608599079895136
-3.9895,-2.07727023647622,-1.746355379162313
-3.989,-2.504077230783526,-1.735758740757146
-3.9885,-1.991908837614759,-1.280103289334946
-3.988,-1.1062843244271,-0.3793890248957141
-3.9875,-0.3593720843893152,0.4365521323021782
-3.987,0.1314559590640864,0.9875773293708847
-3.9865,0.3768699807907871,1.273686566310405
-3.986,0.4729015545099309,1.358459673551745
-3.9855,0.4729015545099309,1.316073119931075
-3.985,0.4408910299368829,1.210106735879401
-3.9845,0.408880505363835,1.072350436612224
-3.984,0.3555296310754218,0.9028042221295453
-3.9835,0.3235191065023739,0.7438546460520338
-3.983,0.07810508477567314,0.2670059178194992
-3.9825,-0.4447334832507763,-0.6125150698093976
-3.982,-1.212986073003927,-1.407262950196955
-3.9815,-1.394379045584531,-1.523825972653797
-3.981,-0.6794773301197943,-0.8244478379127463
-3.9805,0.1101156093487211,-0.07208651114585861
-3.98,0.6329541773751706,0.2881991946298341
-3.9795,0.8676980242441885,0.2776025562246667
-3.979,0.8676980242441885,0.1610395337678249
-3.9785,0.7609962756673623,0.03387987290581572
-3.978,0.6436243522328531,-0.04029659593035631
-3.9775,0.6116138276598051,-0.07208651114585861
-3.977,0.6542945270905358,-0.09327978795619347
-3.9765,0.6116138276598051,-0.07208651114585861
-3.976,0.5369226036560266,-0.008506680714854012
-3.9755,0.4729015545099309,0.07626642652648545
-3.975,0.4302208550792003,0.1928294489833272
-3.9745,0.7396559259519968,0.6378882620003594
-3.974,0.6969752265212663,0.8922075837243778
-3.9735,-0.124628237520297,0.1822328105781598
-3.973,-1.052933450138687,-0.7608680074817418
-3.9725,-1.885207089037933,-1.449649503817625
-3.972,-2.322684258202921,-1.725162102351978
-3.9715,-1.693143941599645,-1.152943628472937
-3.971,-0.8715404775580819,-0.252229364033705
-3.9705,-0.2099896363817582,0.5107286011383502
-3.97,0.2061471830678648,1.029963882991555
-3.9695,0.408880505363835,1.305476481525908
-3.969,0.4729015545099309,1.400846227172415
-3.9685,0.4515612047945656,1.390249588767247
-3.968,0.3982103305061524,1.305476481525908
-3.9675,0.3555296310754218,1.199510097474233
-3.967,0.3235191065023739,1.082947075017392
-3.9665,0.1634664836371343,0.775644561267536
-3.966,-0.01792648894347063,-0.07208651114585861
-3.9655,-0.5621054066852853,-1.01518732920576
-3.965,-1.138294849000148,-1.566212526274467
-3.9645,-0.722158029550525,-0.9939940523954253
-3.964,0.02475421048725994,-0.3899856633008816
-3.9635,0.6009436528021226,-0.06148987274069118
-3.963,0.8890383739595538,0.06566978812131802
-3.9625,0.8997085488172365,0.06566978812131802
-3.962,0.8036769750980928,-0.07208651114585861
-3.9615,0.6863050516635838,-0.1674562567923655
-3.961,0.6116138276598051,-0.2098428104130352
-3.9605,0.6863050516635838,-0.3581957480853793
-3.96,0.6863050516635838,-0.326405832869877
-3.9595,0.6009436528021226,-0.1462629799820306
-3.959,0.5049120790829789,0.04447651131098315
-3.9585,0.4408910299368829,0.2140227257936621
-3.958,0.2594980573562781,0.3623756634660061
-3.9575,0.3341892813600565,0.5001319627331828
-3.957,-0.124628237520297,-0.05089323433552374
-3.9565,-0.8502001278427167,-0.8138511995075789
-3.956,-1.607782542738184,-1.407262950196955
-3.9555,-2.215982509626095,-1.735758740757146
-3.955,-1.917217613610981,-1.407262950196955
-3.9545,-1.116954499284783,-0.570128516188728
-3.954,-0.4020527838200457,0.2246193641988295
-3.9535,0.08877525963335578,0.775644561267536
-3.953,0.3555296310754218,1.061753798207057
-3.9525,0.4622313796522482,1.167720182258731
-3.952,0.4622313796522482,1.146526905448396
-3.9515,0.4302208550792003,1.040560521396722
-3.951,0.3768699807907871,0.92399749893988
-3.9505,0.3341892813600565,0.7968378380778709
-3.95,0.3021787567870086,0.6484849004055269
-3.9495,-0.156638762093345,0.07626642652648545
-3.949,-0.9462317015618604,-0.8032545611024114
-3.9485,-1.51175096901904,-1.534422611058964
-3.948,-1.319687821580753,-1.449649503817625
-3.9475,-0.4447334832507763,-0.4217755785163839
-3.947,0.3235191065023739,0.309392471440169
-3.9465,0.7823366253827275,0.4789386859228479
-3.946,0.9210488985326017,0.3941655786815084
-3.9455,0.8676980242441885,0.2352160026039969
-3.945,0.7609962756673623,0.05507314971615059
-3.9445,0.6542945270905358,-0.06148987274069118
-3.944,0.6863050516635838,-0.2204394488182027
-3.9435,0.7716664505250448,-0.2946159176543747
-3.943,0.6969752265212663,-0.1568596183871981
-3.9425,0.5796033030867573,0.05507314971615059
-3.942,0.4729015545099309,0.2458126410091644
-3.9415,0.5262524287983441,0.5319218779486851
-3.941,1.017080472251745,1.199510097474233
-3.9405,0.6969752265212663,1.432636142387917
-3.94,-0.3060212101009019,0.6166949851900245
-3.9395,-1.223656247861609,-0.3687923864905467
-3.939,-2.03458953704549,-1.227120097309109
-3.9385,-2.589438629644987,-1.75695201756748
-3.938,-2.098610586191586,-1.51322933424863
-3.9375,-1.159635198715513,-0.6760949002404023
-3.937,-0.3807124341046804,0.1292496185523226
-3.9365,0.1207857842064037,0.7120647308365314
-3.936,0.3768699807907871,1.040560521396722
-3.9355,0.4729015545099309,1.178316820663898
-3.935,0.4622313796522482,1.188913459069066
-3.9345,0.408880505363835,1.135930267043229
-3.934,0.3768699807907871,1.061753798207057
-3.9335,0.3555296310754218,0.9663840525605498
-3.933,0.02475421048725994,0.4895353243280153
-3.9325,-0.7008176798351597,-0.4111789401112165
-3.932,-1.362368521011484,-1.269506650929778
-3.9315,-1.87453691418025,-1.894708316834657
-3.931,-1.46907026958831,-1.703968825541643
-3.9305,-0.5194247072545548,-0.9728007755850904
-3.93,0.2594980573562781,-0.3158091944647096
-3.9295,0.707645401378949,0.06566978812131802
-3.929,0.8783681991018712,0.2246193641988295
-3.9285,0.8676980242441885,0.2140227257936621
-3.928,0.7609962756673623,0.1186529801471552
-3.9275,0.6969752265212663,-0.05089323433552374
-3.927,0.79300680024041,-0.2416327256285375
-3.9265,0.7396559259519968,-0.1886495336027004
-3.926,0.6222840025174878,-0.04029659593035631
-3.9255,0.5155822539406614,0.1080563417419877
-3.925,0.4195506802215176,0.2458126410091644
-3.9245,0.1634664836371343,0.4153588554918433
-3.924,-0.1139580626626144,0.3517790250608387
-3.9235,-0.8288597781273515,-0.2734226408440398
-3.923,-1.490410619303675,-1.01518732920576
-3.9225,-2.130621110764634,-1.587405803084801
-3.922,-2.525417580498891,-1.873515040024322
-3.9215,-1.853196564464885,-1.396666311791788
-3.921,-0.9569018764195432,-0.5171453241628908
-3.9205,-0.2526703358124887,0.2564092794143318
-3.92,0.1954770082101822,0.7650479228623686
-3.9195,0.408880505363835,1.029963882991555
-3.919,0.4835717293676135,1.125333628638062
-3.9185,0.4622313796522482,1.093543713422559
-3.918,0.4195506802215176,1.019367244586387
-3.9175,0.3768699807907871,0.9028042221295453
-3.917,0.3448594562177392,0.775644561267536
-3.9165,0.2594980573562781,0.5425185163538525
-3.916,-0.3166913849585846,-0.2098428104130352
-3.9155,-1.010252750707956,-1.078767159636765
-3.915,-1.437059745015262,-1.746355379162313
-3.9145,-1.095614149569417,-1.502632695843462
-3.914,-0.2206598112394408,-0.2946159176543747
-3.9135,0.4942419042252961,0.5425185163538525
-3.913,0.8783681991018712,0.7332580076468663
-3.9125,0.9530594231056497,0.6166949851900245
-3.912,0.8676980242441885,0.4153588554918433
-3.9115,0.7503261008096795,0.2564092794143318
-3.911,0.6436243522328531,0.1186529801471552
-3.9105,0.707645401378949,0.2140227257936621
-3.91,0.7183155762366316,0.3199891098453364
-3.9095,0.6436243522328531,0.309392471440169
-3.909,0.5369226036560266,0.2776025562246667
-3.9085,0.4622313796522482,0.2881991946298341
-3.908,0.3448594562177392,0.2140227257936621
-3.9075,0.3982103305061524,-0.1992461720078678
-3.907,0.09944543449103843,-0.9092209451540858
-3.9065,-0.690147504977477,-1.502632695843462
-3.906,-1.522421143876723,-1.873515040024322
-3.9055,-2.215982509626095,-1.979481424075996
-3.905,-2.098610586191586,-1.587405803084801
-3.9045,-1.287677297007705,-0.6760949002404023
-3.904,-0.5194247072545548,0.2034260873884947
-3.9035,0.02475421048725994,0.8074344764830383
-3.903,0.3341892813600565,1.135930267043229
-3.9025,0.4622313796522482,1.25249328950007
-3.902,0.4729015545099309,1.220703374284568
-3.9015,0.4195506802215176,1.104140351827727
-3.901,0.3555296310754218,0.9663840525605498
-3.9005,0.3341892813600565,0.8392243916985406
-3.9,0.3235191065023739,0.6802748156210291
-3.8995,0.1207857842064037,0.1716361721729923
-3.899,-0.3166913849585846,-0.6549016234300674
-3.8985,-0.8608703027003992,-1.417859588602123
-3.898,-0.8715404775580819,-1.555615887869299
-3.8975,-0.2099896363817582,-0.8456411147230812
-3.897,0.4515612047945656,-0.1038764263613609
-3.8965,0.8356874996711408,0.2881991946298341
-3.896,0.9530594231056497,0.3623756634660061
-3.8955,0.8997085488172365,0.2564092794143318
-3.895,0.7716664505250448,0.09745970333682032
-3.8945,0.6436243522328531,-0.05089323433552374
-3.894,0.6116138276598051,-0.1886495336027004
-3.8935,0.6116138276598051,-0.1992461720078678
-3.893,0.5582629533713921,-0.1250697031716958
-3.8925,0.4942419042252961,-0.008506680714854012
-3.892,0.4302208550792003,0.1186529801471552
-3.8915,0.3555296310754218,0.2140227257936621
-3.891,0.3768699807907871,0.13984625695749
-3.8905,-0.03926683865883591,-0.400582301706049
-3.89,-0.8715404775580819,-1.0999604364471
-3.8895,-1.661133417026597,-1.608599079895136
-3.889,-2.376035132491334,-1.88411167842949
-3.8885,-2.536087755356574,-1.809935209593318
-3.888,-1.714484291315011,-1.05757388282643
-3.8875,-0.8181896032696687,-0.1356663415768632
-3.887,-0.1459685872356623,0.5849050699745222
-3.8865,0.2594980573562781,1.019367244586387
-3.886,0.4408910299368829,1.199510097474233
