Class_6_Listen_To_Quran/Class_6_Listen_To_quran_Zakour_3_.csv

#Digilent WaveForms Oscilloscope Acquisition
#Device Name: EExplorer
#Serial Number: SN:210151A2B84A
#Date Time: 2020-11-04 11:35:49.836
#Sample rate: 2000Hz
#Samples: 16384
#Trigger: Source: Channel 1 Type: Edge Condition: Rising Level: 0 V Hyst.: Auto HoldOff: 0 s
#Channel 1: Range: 1 V/div Offset: 0 V Attenuation: 1 X
#Channel 2: Range: 1 V/div Offset: 0 V Attenuation: 1 X
#Power Supplies: ON
#Fixed Supply: ON
#Voltage: 3.3 V Readback: 3.324 V
#Positive Supply: ON
#Voltage: 3.7 V Readback: 3.718 V
#Current: 500 mA Readback: 21 mA
#Negative Supply: ON
#Voltage: -3.7 V Readback: -3.703 V
#Current: -500 mA Readback: -8 mA
#Reference 1: ON
#Voltage: 0 V
#Reference 2: ON
#Voltage: 0 V

Time (s),Channel 1 (V),Channel 2 (V)
-4.096,0.3235191065023739,0.6484849004055269
-4.0955,0.6542945270902349,-0.1992461720070967
-4.095,0.8676980242435771,-1.131750351663257
-4.0945,0.1954770082101822,-1.852321763213987
-4.094,-0.4127229586771752,-2.265590661015141
-4.0935,-0.3380317346736781,-2.000674700885676
-4.093,-0.03926683865883591,-1.280103289334946
-4.0925,0.1634664836369499,-0.707884815456425
-4.092,0.2594980573562878,-0.3899856633007466
-4.0915,0.2701682322139607,-0.2416327256285375
-4.091,0.2488278824985954,-0.2098428104130352
-4.0905,0.2168173579255281,-0.2734226408441266
-4.09,0.1954770082101822,-0.3687923864905467
-4.0895,0.2488278824985954,-0.3475991096802118
-4.089,0.2488278824985954,-0.1674562567925293
-4.0885,0.2061471830678648,0.01268659609548085
-4.088,0.1741366584948169,0.1610395337678249
-4.0875,0.06743490991808755,0.3199891098451919
-4.087,-0.01792648894386851,0.6590815388102991
-4.0865,-0.4554036581084589,0.2246193641988295
-4.086,-1.191645723287892,-0.6125150698086363
-4.0855,-1.853196564465011,-1.205926820498957
-4.085,-1.991908837614759,-1.407262950196955
-4.0845,-1.437059745015766,-0.8350444763184343
-4.084,-0.7648387289807896,-0.008506680714237207
-4.0835,-0.2526703358124887,0.6696781772158616
-4.083,0.05676473506030786,1.125333628638062
-4.0825,0.206147183067894,1.358459673551832
-4.082,0.2381577076409128,1.453829419198252
-4.0815,0.2381577076409128,1.432636142387917
-4.081,0.2168173579255669,1.337266396741497
-4.0805,0.2168173579255475,1.210106735879401
-4.08,0.2274875327832301,1.072350436612224
-4.0795,0.259498057356249,0.8286277532935948
-4.079,0.5582629533719065,0.2564092794137439
-4.0785,1.123782220828572,-0.3899856633008816
-4.078,0.9743997728211509,-1.163540266877401
-4.0775,0.2274875327829681,-1.69337218713637
-4.077,-0.06060718837420119,-1.576809164679634
-4.0765,0.03542438534485523,-1.06817052123206
-4.076,0.1848068333525869,-0.5701285161884677
-4.0755,0.2808384070716433,-0.2840192792492073
-4.075,0.3021787567870086,-0.1674562567923655
-4.0745,0.2808384070716045,-0.156859618387227
-4.074,0.2381577076409128,-0.1886495336027004
-4.0735,0.2061471830678648,-0.252229364033705
-4.073,0.2168173579255378,-0.3052125560594939
-4.0725,0.2168173579255475,-0.252229364033705
-4.072,0.1848068333524996,-0.1674562567923655
-4.0715,0.1421261339218078,-0.07208651114594535
-4.071,0.09944543449070847,0.08686306493208658
-4.0705,-0.2633405106701714,0.5637117931641874
-4.07,-0.9782422261342583,0.4683420475177672
-4.0695,-1.618452717596255,-0.3158091944651433
-4.069,-2.045259711903173,-0.792657922697244
-4.0685,-2.130621110764634,-1.110557074852267
-4.068,-1.522421143876073,-0.7290780922656034
-4.0675,-0.807519428411986,-0.02969995752518888
-4.067,-0.2633405106701714,0.6060983467848571
-4.0665,0.05676473506044372,1.061753798207298
-4.066,0.2061471830678648,1.326669758336243
-4.0655,0.2488278824985954,1.453829419198252
-4.065,0.2381577076409225,1.485619334413725
-4.0645,0.2168173579255475,1.42203950398275
-4.064,0.2274875327832301,1.199510097474233
-4.0635,0.248827882498576,0.8392243916988682
-4.063,0.2915085819294133,0.6060983467844716
-4.0625,0.3875401556484697,0.1822328105781598
-4.062,0.4622313796521803,-0.6231117082138327
-4.0615,0.3021787567866011,-1.439052865412901
-4.061,-0.1459685872356623,-1.926498232050159
-4.0605,-0.03926683865883591,-1.958288147265661
-4.06,0.2808384070717986,-1.608599079894606
-4.0595,0.4515612047945656,-1.025783967610927
-4.059,0.4729015545099309,-0.5595318777835605
-4.0585,0.4088805053638933,-0.3052125560597734
-4.058,0.3128489316446912,-0.2204394488182027
-4.0575,0.2488278824985954,-0.252229364033705
-4.057,0.1954770082102307,-0.2946159176543361
-4.0565,0.2168173579255475,-0.2946159176543747
-4.056,0.291508581929326,-0.06148987274069118
-4.0555,0.291508581929326,0.07626642652636018
-4.055,0.2488278824985469,0.1398462569575478
-4.0545,0.1954770082101822,0.2034260873884947
-4.054,0.056764735060434,0.5425185163535441
-4.0535,-0.07127736323250491,0.7544512844565264
-4.053,-0.754168554123573,0.01268659609548085
-4.0525,-1.490410619303675,-0.7820612842920766
-4.052,-2.002579012472258,-1.269506650929672
-4.0515,-1.799845690176472,-1.152943628472937
-4.051,-1.148965023857831,-0.4217755785163839
-4.0505,-0.5300948821128002,0.3623756634652929
-4.05,-0.09261771294724913,0.9557874141553824
-4.0495,0.142126133921769,1.316073119931075
-4.049,0.2274875327831525,1.4856193344136
-4.0485,0.248827882498576,1.528005888034366
-4.048,0.2274875327832301,1.464426057603419
-4.0475,0.2168173579255572,1.347863035146683
-4.047,0.2274875327832398,1.146526905448213
-4.0465,0.2381577076409128,0.9451907757502149
-4.046,0.3235191065022962,0.5425185163542188
-4.0455,0.5582629533716444,-0.2946159176552035
-4.045,0.8356874996711408,-1.205926820498774
-4.0445,0.2808384070716433,-1.88411167842949
-4.044,-0.1673089369508723,-2.085447808127449
-4.0435,0.00341386077189465,-1.84172512480882
-4.043,0.2381577076409128,-1.195330182093607
-4.0425,0.355529631075315,-0.6337083466202433
-4.042,0.3661998059331045,-0.326405832869877
-4.0415,0.3021787567870086,-0.2310360872233701
-4.041,0.2488278824986439,-0.2522293640336857
-4.0405,0.2168173579255475,-0.3264058328699734
-4.04,0.2168173579255475,-0.4323722169215513
-4.0395,0.302178756786931,-0.4747587705421825
-4.039,0.2915085819292872,-0.3052125560593494
-4.0385,0.2488278824985954,-0.09327978795619347
-4.038,0.1954770082102307,0.09745970333664684
-4.0375,0.1848068333528198,0.3199891098456834
-4.037,0.5369226036560266,0.701468092431364
-4.0365,0.4622313796522482,0.1928294489833272
-4.036,-0.3060212101016298,-0.6337083466201952
-4.0355,-1.1062843244271,-1.142346990067769
-4.035,-1.244996597576974,-1.036380606016095
-4.0345,-0.8928808272737674,-0.3793890248963117
-4.034,-0.4554036581084589,0.3305857482505039
-4.0335,-0.1032878878049318,0.8710143069140429
-4.033,0.09944543449085405,1.199510097473934
-4.0325,0.1954770082102016,1.369056311956951
-4.032,0.2168173579255475,1.411442865577582
-4.0315,0.2061471830678746,1.358459673551793
-4.031,0.1954770082101919,1.188913459068912
-4.0305,0.2061471830678648,1.019367244586387
-4.03,0.2274875327832107,0.8498210301038622
-4.0295,0.3768699807911073,0.4577454091118673
-4.029,0.7289857510943143,-0.252229364033705
-4.0285,1.209143619690033,-1.110557074852267
-4.028,1.166462920258837,-1.820531847998967
-4.0275,0.6542945270905358,-2.350363768256857
-4.027,0.5155822539406614,-2.350363768256857
-4.0265,0.5049120790829885,-1.555615887870022
-4.026,0.4729015545099309,-0.8350444763179138
-4.0255,0.4302208550792003,-0.326405832869877
-4.025,0.3661998059331627,-0.1038764263615633
-4.0245,0.2915085819292775,-0.07208651114592607
-4.024,0.2381577076409128,-0.1462629799820306
-4.0235,0.2274875327832398,-0.2204394488181352
-4.023,0.44089102993698,-0.4111789401111876
-4.0225,0.5475927785137094,-0.3793890248957141
-4.022,0.4622313796523259,-0.2098428104131894
-4.0215,0.3341892813599498,0.002089957690554361
-4.021,0.2168173579255475,0.2670059178194992
-4.0205,-0.124628237520297,0.4471487707073456
-4.02,-0.7755089038394428,-0.07208651114658143
-4.0195,-1.330357996438436,-0.8668343915334161
-4.019,-1.810515865034154,-1.34368311976595
-4.0185,-2.002579012472268,-1.513229334248475
-4.018,-1.490410619303675,-0.9622041371799229
-4.0175,-0.8181896032696687,-0.1356663415768632
-4.017,-0.2846808603860219,0.5743084315687091
-4.0165,0.03542438534508814,1.040560521396934
-4.016,0.1954770082101822,1.273686566310405
-4.0155,0.238157707640874,1.358459673551668
-4.015,0.2274875327832107,1.337266396741323
-4.0145,0.2061471830678648,1.241896651094903
-4.014,0.1954770082101919,1.125333628638167
-4.0135,0.2274875327833077,0.9981739677757726
-4.013,0.3128489316446912,0.6908714540261965
-4.0125,0.4622313796522482,0.1610395337678249
-4.012,0.9530594231057856,-0.1568596183876318
-4.0115,1.102441871113207,-0.6337083466197325
-4.011,0.3982103305061524,-1.205926820498774
-4.0105,0.2488278824987313,-1.439052865412245
-4.01,0.3768699807907871,-1.280103289334946
-4.0095,0.4515612047945656,-0.8880276683437509
-4.009,0.4302208550792198,-0.5701285161890171
-4.0085,0.3768699807907289,-0.3581957480852443
-4.008,0.3128489316446912,-0.2098428104130352
-4.0075,0.2488278824986536,-0.1462629799820885
-4.007,0.2061471830679522,-0.1992461720079546
-4.0065,0.3021787567870086,-0.2946159176543747
-4.006,0.4835717293676135,-0.3899856633008816
-4.0055,0.4515612047944685,-0.2522293640335315
-4.005,0.3448594562177392,-0.06148987274069118
-4.0045,0.2381577076409128,0.1292496185523226
-4.004,-0.0179264889440626,0.5319218779488681
-4.0035,-0.6688071552621118,0.7332580076468663
-4.003,-1.383708870726849,-0.01910331912002144
-4.0025,-1.885207089037477,-0.7290780922655937
-4.002,-2.151961460479999,-1.184733543688439
-4.0015,-1.703814116457328,-1.036380606016095
-4.001,-0.9995825758509141,-0.3581957480859961
-4.0005,-0.4020527838196963,0.3305857482509665
-4,-0.01792648894347063,0.8392243916985406
-3.9995,0.1741366584948169,1.157123543853563
-3.999,0.2381577076409128,1.316073119931075
-3.9985,0.2381577076409128,1.358459673551745
-3.998,0.2168173579255475,1.326669758336243
-3.9975,0.1954770082101822,1.231300012689736
-3.997,0.2061471830678648,1.061753798207057
-3.9965,0.2274875327832301,0.8922075837243778
-3.996,0.3128489316446912,0.5849050699745222
-3.9955,0.8463576745288233,-0.1674562567923655
-3.995,1.081101521397841,-1.078767159636765
-3.9945,0.4942419042252961,-1.79933857118815
-3.994,0.142126133921769,-2.064254531317336
-3.9935,0.4408910299368829,-1.979481424075996
-3.993,0.6116138276598051,-1.311893204550448
-3.9925,0.5902734779444399,-0.6654982618352349
-3.992,0.4942419042252961,-0.2734226408440398
-3.9915,0.3768699807907871,-0.1674562567923655
-3.991,0.2808384070716433,-0.1462629799820306
-3.9905,0.2168173579255475,-0.1992461720078678
-3.99,0.2168173579255475,-0.2946159176543747
-3.9895,0.3021787567870086,-0.3158091944647096
-3.989,0.291508581929326,-0.2098428104130352
-3.9885,0.2488278824985954,-0.05089323433552374
-3.988,0.1848068333524996,0.1186529801471552
-3.9875,0.02475421048725994,0.2881991946298341
-3.987,-0.5087545323968721,0.4047622170866759
-3.9865,-1.202315898146244,0.02328323450064829
-3.986,-1.703814116457328,-0.6654982618352349
-3.9855,-2.151961460479999,-1.121153713257435
-3.985,-2.098610586191586,-1.248313374119443
-3.9845,-1.415719395299897,-0.6654982618352349
-3.984,-0.7114878546928423,0.09745970333682032
-3.9835,-0.1993194615240755,0.7226613692416989
-3.983,0.09944543449103843,1.135930267043229
-3.9825,0.2168173579255475,1.358459673551745
-3.982,0.2488278824985954,1.443232780793084
-3.9815,0.2274875327832301,1.42203950398275
-3.981,0.2061471830678648,1.316073119931075
-3.9805,0.2061471830678648,1.220703374284568
-3.98,0.2168173579255475,1.082947075017392
-3.9795,0.291508581929326,0.7968378380778709
-3.979,0.6329541773751706,0.2140227257936621
-3.9785,1.241154144263081,-0.474758770542221
-3.978,1.017080472251745,-1.248313374119443
-3.9775,0.3021787567870086,-1.682775548731308
-3.977,0.1634664836371343,-1.650985633515806
-3.9765,0.2594980573562781,-1.174136905283272
-3.976,0.3341892813600565,-0.7290780922662394
-3.9755,0.3448594562177392,-0.4853554089473885
-3.975,0.291508581929326,-0.3687923864905467
-3.9745,0.2274875327832301,-0.3370024712750445
-3.974,0.1848068333524996,-0.3475991096802118
-3.9735,0.1634664836371343,-0.3793890248957141
-3.973,0.2168173579255475,-0.3475991096802118
-3.9725,0.2274875327832301,-0.1780528951975329
-3.972,0.2168173579255475,-0.05089323433552374
-3.9715,0.1741366584948169,0.05507314971615059
-3.971,0.1314559590640864,0.2034260873884947
-3.9705,0.1954770082101822,0.6908714540261965
-3.97,0.01408403562957729,0.5743084315693548
-3.9695,-0.7008176798351597,-0.2734226408440398
-3.969,-1.383708870726849,-0.9092209451540858
-3.9685,-1.87453691418025,-1.290699927740113
-3.968,-1.597112367880501,-0.9304142219644207
-3.9675,-0.9782422261349084,-0.1568596183871981
-3.967,-0.4127229586777283,0.5743084315693548
-3.9665,-0.03926683865883591,1.093543713422559
-3.966,0.1527963087794516,1.390249588767247
-3.9655,0.2274875327832301,1.517409249629256
-3.965,0.2274875327832301,1.538602526439591
-3.9645,0.2168173579255475,1.464426057603419
-3.964,0.2061471830678648,1.326669758336243
-3.9635,0.2168173579255475,1.135930267043229
-3.963,0.2488278824985954,0.8710143069140429
-3.9625,0.4195506802215176,0.3941655786815084
-3.962,0.942389248247967,-0.4959520473525559
-3.9615,0.7396559259519968,-1.364876396576285
-3.961,-0.1032878878049318,-1.958288147265661
-3.9605,-0.2846808603855366,-2.180817553774178
-3.96,-0.01792648894347063,-1.84172512480882
-3.9595,0.2168173579255475,-1.152943628472937
-3.959,0.3341892813600565,-0.6019184314042303
-3.9585,0.3555296310754218,-0.2734226408440398
-3.958,0.3128489316446912,-0.2416327256285375
-3.9575,0.2701682322139607,-0.3052125560595421
-3.957,0.2381577076409128,-0.3581957480853793
-3.9565,0.2274875327832301,-0.400582301706049
-3.956,0.2168173579255475,-0.326405832869877
-3.9555,0.1954770082101822,-0.1250697031716958
-3.955,0.1741366584948169,0.05507314971615059
-3.9545,0.1314559590640864,0.1822328105781598
-3.954,-0.2633405106701714,0.04447651131098315
-3.9535,-1.095614149569417,-0.1886495336027004
-3.953,-1.83185621474952,-0.8138511995075789
-3.9525,-2.429386006779747,-1.269506650929778
-3.952,-2.685470203364131,-1.439052865412457
-3.9515,-1.917217613610981,-0.9833974139902578
-3.951,-1.06360362499637,-0.1462629799820306
-3.9505,-0.391382608962363,0.6060983467848571
-3.95,0.01408403562957729,1.114736990232894
-3.9495,0.2061471830678648,1.390249588767247
-3.949,0.2701682322139607,1.496215972818921
-3.9485,0.2594980573562781,1.485619334413754
-3.948,0.2274875327832301,1.37965295036208
-3.9475,0.2061471830678648,1.231300012689736
-3.947,0.2061471830678648,1.082947075017392
-3.9465,0.2274875327832301,0.8816109453192104
-3.946,0.3448594562177392,0.4895353243280153
-3.9455,0.8463576745288233,-0.1674562567923655
-3.945,1.262494493978446,-0.8138511995075789
-3.9445,0.6649647019482183,-1.481439419033127
-3.944,0.1314559590640864,-1.84172512480882
-3.9435,0.1741366584948169,-1.703968825541643
-3.943,0.291508581929326,-1.163540266878104
-3.9425,0.3448594562177392,-0.6972881770507372
-3.942,0.3448594562177392,-0.4217755785163839
-3.9415,0.3235191065023739,-0.2840192792492073
-3.941,0.2594980573562781,-0.2310360872233701
-3.9405,0.2061471830678648,-0.2204394488182027
-3.94,0.1848068333524996,-0.1780528951975329
-3.9395,0.2701682322139607,-0.06148987274069118
-3.939,0.291508581929326,-0.02969995752518888
-3.9385,0.2488278824985954,-0.008506680714854012
-3.938,0.1954770082101822,0.03387987290581572
-3.9375,0.2488278824985954,0.2564092794143318
-3.937,0.7289857510943143,0.6378882620003594
-3.9365,0.4515612047945656,0.1080563417419877
-3.936,-0.3380317346739499,-0.6760949002404023
-3.9355,-1.06360362499637,-1.142346990067769
-3.935,-1.127624674142465,-0.9092209451540858
-3.9345,-0.7755089038389382,-0.1674562567923655
-3.934,-0.3700422592469978,0.5849050699745222
-3.9335,-0.07127736323188383,1.135930267043229
-3.933,0.1101156093487211,1.496215972818921
-3.9325,0.1954770082101822,1.6657621873016
-3.932,0.2168173579255475,1.729342017732605
-3.9315,0.2061471830678648,1.686955464111935
-3.931,0.1954770082101822,1.549199164844759
-3.9305,0.2061471830678648,1.316073119931075
-3.93,0.2701682322139607,0.9769806909657173
-3.9295,0.3341892813600565,0.5955017083796896
-3.929,0.3875401556484697,0.1610395337678249
-3.9285,0.5689331282290746,-0.4535654937318862
-3.928,0.1954770082101822,-1.205926820498774
-3.9275,-0.1673089369510276,-1.778145294377815
-3.927,0.0674349099179905,-1.926498232050159
-3.9265,0.3235191065023739,-1.396666311791788
-3.926,0.4302208550792003,-0.8456411147230812
-3.9255,0.4302208550792003,-0.4323722169215513
-3.925,0.3768699807907871,-0.2416327256285375
-3.9245,0.291508581929326,-0.1992461720078678
-3.924,0.2168173579255475,-0.1886495336027004
-3.9235,0.1848068333524996,-0.2204394488182027
-3.923,0.2061471830678648,-0.3158091944647096
-3.9225,0.2168173579255475,-0.2416327256285375
-3.922,0.1954770082101822,-0.1038764263613609
-3.9215,0.1314559590640864,0.06566978812131802
-3.921,0.04609456020262521,0.2034260873884947
-3.9205,-0.4980843575391895,0.1080563417419877
-3.92,-1.30901764672307,-0.2628260024388724
-3.9195,-2.013249187330125,-0.9304142219644207
-3.919,-2.504077230783526,-1.311893204550448
-3.9185,-2.514747405641209,-1.460246142222792
-3.918,-1.703814116457328,-0.9304142219644207
-3.9175,-0.8928808272734472,-0.09327978795619347
-3.917,-0.2846808603855366,0.6166949851900245
-3.9165,0.0674349099179905,1.093543713422559
-3.916,0.2274875327832301,1.347863035146577
-3.9155,0.2701682322139607,1.432636142387917
-3.915,0.2488278824985954,1.42203950398275
-3.9145,0.2168173579255475,1.326669758336243
-3.914,0.2168173579255475,1.220703374284568
-3.9135,0.2488278824985954,0.9981739677760521
-3.913,0.3235191065023739,0.6590815388106942
-3.9125,0.4835717293676135,0.1292496185523226
-3.912,1.006410297394063,-0.6972881770507372
-3.9115,1.241154144263081,-1.481439419033127
-3.911,0.5902734779444399,-1.958288147265661
-3.9105,0.3128489316446912,-1.926498232050159
-3.91,0.3448594562177392,-1.439052865412457
-3.9095,0.3875401556484697,-0.8668343915334161
-3.909,0.3875401556484697,-0.3899856633008816
-3.9085,0.3555296310754218,-0.1356663415768632
-3.908,0.291508581929326,-0.1356663415768632
-3.9075,0.2274875327832301,-0.2098428104130352
-3.907,0.1954770082101822,-0.2840192792492073
-3.9065,0.0674349099179905,-0.3899856633008816
-3.906,-0.04993701351651855,-0.400582301706049
-3.9055,-0.03926683865883591,-0.2098428104130352
-3.905,0.01408403562957729,0.01268659609548085
-3.9045,0.05676473506030786,0.2140227257936621
-3.904,-0.1032878878049318,0.5213252395435176
-3.9035,-0.572775581542968,0.457745409112513
-3.903,-1.26633694729234,-0.326405832869877
-3.9025,-1.917217613610981,-1.05757388282643
-3.902,-2.312014083345239,-1.439052865412457
-3.9015,-1.799845690176472,-1.078767159636765
-3.901,-1.042263275281004,-0.2840192792492073
-3.9005,-0.4127229586777283,0.4471487707073456
-3.9,-0.007256314085787988,0.9557874141553824
-3.8995,0.1848068333524996,1.231300012689736
-3.899,0.2488278824985954,1.347863035146577
-3.8985,0.2488278824985954,1.347863035146577
-3.898,0.2274875327832301,1.273686566310405
-3.8975,0.2061471830678648,1.114736990232894
-3.897,0.2274875327832301,0.7862411996727035
-3.8965,0.2488278824985954,0.5637117931641874
-3.896,0.3661998059331045,0.2352160026039969
-3.8955,0.9850699476786977,-0.2840192792492073
-3.895,1.305175193409177,-0.7396747306714069
-3.8945,1.102441871113207,-1.354279758171118
-3.894,1.19847344483235,-1.767548655972648
-3.8935,1.230483969405398,-1.545019249464132
-3.893,1.038420821967111,-0.9304142219644207
-3.8925,0.7609962756673623,-0.4535654937318862
-3.892,0.5262524287983441,-0.252229364033705
-3.8915,0.3448594562177392,-0.1568596183871981
-3.891,0.2274875327832301,-0.1568596183871981
-3.8905,0.1527963087794516,-0.1674562567923655
-3.89,0.1741366584948169,-0.2098428104130352
-3.8895,0.2594980573562781,-0.1250697031716958
-3.889,0.2594980573562781,-0.008506680714854012
-3.8885,0.2168173579255475,0.08686306493165288
-3.888,0.1634664836371343,0.1928294489833272
-3.8875,0.00341386077189465,0.383568940276341
-3.887,-0.6261264558313813,0.55311515475902
-3.8865,-1.426389570157579,-0.08268314955102604
-3.886,-2.087940411333903,-0.8774310299385835
