Class_6_Listen_To_Quran/Class_6_Listen_To_Quran_AM_9.csv

#Digilent WaveForms Oscilloscope Acquisition
#Device Name: EExplorer
#Serial Number: SN:210151A2B84A
#Date Time: 2020-12-14 14:13:57.782
#Sample rate: 2000Hz
#Samples: 16384
#Trigger: Source: Channel 1 Type: Edge Condition: Rising Level: 0 V Hyst.: Auto HoldOff: 0 s
#Channel 1: Range: 1 V/div Offset: 0 V Attenuation: 1 X
#Channel 2: Range: 1 V/div Offset: 0 V Attenuation: 1 X
#Power Supplies: ON
#Fixed Supply: ON
#Voltage: 3.3 V Readback: 3.31 V
#Positive Supply: ON
#Voltage: 3.7 V Readback: 3.715 V
#Current: 40 mA Readback: 20 mA
#Negative Supply: ON
#Voltage: -3.7 V Readback: -3.354 V
#Current: -40 mA Readback: -7 mA
#Reference 1: ON
#Voltage: 0 V
#Reference 2: ON
#Voltage: 0 V

Time (s),Channel 1 (V),Channel 2 (V)
-4.096,0.4622313796522482,0.05507314971615059
-4.0955,0.3128489316448271,0.033879872905835
-4.095,0.2168173579254601,-0.008506680714738361
-4.0945,0.1207857842064037,0.1186529801471552
-4.094,0.1848068333524413,0.3093924714399955
-4.0935,0.01408403562896591,0.4895353243283815
-4.093,-0.658136980404429,0.8922075837243778
-4.0925,-1.373038695868516,1.220703374284269
-4.092,-1.575772018164758,1.178316820663359
-4.0915,-1.159635198715513,0.5849050699745222
-4.091,-0.6261264558313813,-0.05089323433552374
-4.0905,-0.2099896363815253,-0.4747587705423849
-4.09,0.04609456020262521,-0.6549016234300674
-4.0895,0.1634664836371343,-0.6443049850249
-4.089,0.1954770082101531,-0.5277419625681643
-4.0885,0.1954770082101822,-0.3475991096802118
-4.088,0.1741366584948169,-0.1674562567923655
-4.0875,0.1421261339217981,-0.008506680714998577
-4.087,0.1207857842063843,0.1080563417420745
-4.0865,0.09944543449103843,0.2034260873884947
-4.086,-0.1993194615238038,0.3729723018710194
-4.0855,-0.6581369804048172,0.7650479228627927
-4.085,-1.084943974711735,1.231300012689736
-4.0845,-1.042263275281043,1.475022696008365
-4.084,-0.2526703358117803,0.8498210301027154
-4.0835,0.5262524287983441,-0.2416327256285375
-4.083,0.9957401225363802,-1.089363798041932
-4.0825,1.14512257054385,-1.364876396576054
-4.082,1.049090996824793,-1.110557074852267
-4.0815,0.8036769750980928,-0.6654982618352349
-4.081,0.5796033030869612,-0.2840192792495542
-4.0805,0.6009436528021226,0.05507314971615059
-4.08,0.5796033030867573,0.2670059178194992
-4.0795,0.451561204794682,0.2987958330349726
-4.079,0.3235191065022962,0.267005917819451
-4.0785,0.2381577076409128,0.2140227257936621
-4.078,0.1421261339218563,0.2140227257936621
-4.0775,0.1421261339216622,0.5955017083801619
-4.077,0.02475421048725994,1.114736990232894
-4.0765,-0.6688071552614809,1.496215972818574
-4.076,-1.394379045584754,1.676358825706614
-4.0755,-1.639793067311232,1.506812611224089
-4.075,-1.234326422719292,0.7968378380778709
-4.0745,-0.6901475049770791,0.05507314971568798
-4.074,-0.2526703358124887,-0.4535654937318862
-4.0735,0.02475421048725994,-0.6760949002404023
-4.073,0.1634664836370081,-0.6972881770507179
-4.0725,0.2061471830678648,-0.5913217929990628
-4.072,0.1954770082101822,-0.4111789401112165
-4.0715,0.1741366584948363,-0.2098428104132183
-4.071,0.1421261339217399,-0.06148987274058516
-4.0705,0.1101156093487211,0.05507314971615059
-4.07,0.09944543449104813,0.1292496185522551
-4.0695,-0.1139580626631481,0.002089957690226683
-4.069,-0.7008176798351597,-0.09327978795619347
-4.0685,-1.084943974711735,0.3517790250608387
-4.068,-0.9782422261343553,0.786241199672318
-4.0675,-0.3700422592469978,0.3623756634660061
-4.067,0.3235191065023739,-0.4641621321370536
-4.0665,0.8036769750982674,-1.046977244421349
-4.066,0.9957401225363802,-1.142346990067769
-4.0655,0.9530594231056497,-0.8456411147230812
-4.065,0.760996275667537,-0.4535654937322428
-4.0645,0.5475927785137094,-0.1356663415768632
-4.064,0.5262524287983441,0.1822328105781598
-4.0635,0.6222840025174005,0.3729723018710001
-4.063,0.5262524287982276,0.2881991946296896
-4.0625,0.3982103305061524,0.1292496185523226
-4.062,0.2808384070717501,-0.008506680714728737
-4.0615,0.1954770082099105,-0.08268314955080437
-4.061,-0.1032878878049318,0.1610395337678249
-4.0605,-0.722158029550525,0.7226613692416989
-4.06,-1.159635198715737,1.220703374284809
-4.0595,-1.405049220442214,1.485619334413754
-4.059,-1.67180359188428,1.559795803249926
-4.0585,-1.383708870727111,1.125333628638457
-4.058,-0.8288597781273515,0.4047622170866759
-4.0575,-0.3487019095316325,-0.1674562567923655
-4.057,-0.02859666380144443,-0.4747587705419415
-4.0565,0.142126133921769,-0.5489352393783931
-4.056,0.1954770082101822,-0.4641621321370536
-4.0555,0.2061471830678551,-0.3052125560596867
-4.055,0.1848068333524802,-0.1144730647663549
-4.0545,0.1634664836371343,0.07626642652648545
-4.054,0.1421261339217884,0.2140227257935368
-4.0535,0.1207857842063455,0.2881991946298726
-4.053,0.05676473506030786,0.3305857482505039
-4.0525,-0.4020527838200457,0.2987958330350016
-4.052,-0.9569018764199605,0.4365521323026022
-4.0515,-1.415719395299897,0.9028042221295453
-4.051,-1.244996597576974,0.92399749893988
-4.0505,-0.4340633083938311,0.08686306493241425
-4.05,0.3555296310754218,-0.7714646458869092
-4.0495,0.8356874996711408,-1.216523458903942
-4.049,0.9957401225362347,-1.110557074852363
-4.0485,0.9103787236747154,-0.7926579226969646
-4.048,0.6863050516635838,-0.4853554089473885
-4.0475,0.5155822539408166,-0.2204394488184436
-4.047,0.6329541773751511,0.1186529801472323
-4.0465,0.6116138276598051,0.2034260873884947
-4.046,0.48357172936773,0.1080563417420745
-4.0455,0.3448594562176421,-0.00850668071494075
-4.045,0.2381577076409128,-0.1038764263613609
-4.0445,-0.007256314085787988,0.08686306493165288
-4.044,-0.7221580295510879,0.6696781772163435
-4.0435,-1.341028171296118,1.199510097474233
-4.043,-1.703814116457328,1.549199164844759
-4.0425,-1.607782542738271,1.485619334413812
-4.042,-1.074273799854052,0.849821030103708
-4.0415,-0.5194247072545548,0.1716361721729923
-4.041,-0.1246282375206561,-0.2734226408436351
-4.0405,0.09944543449112578,-0.4641621321370536
-4.04,0.1954770082101822,-0.4641621321370536
-4.0395,0.2168173579255281,-0.3370024712751601
-4.039,0.2061471830678454,-0.167456256792192
-4.0385,0.1848068333524996,0.02328323450064829
-4.038,0.1634664836371537,0.192829448983173
-4.0375,0.1314559590640766,0.3093924714402364
-4.037,0.1207857842064037,0.383568940276341
-4.0365,0.08877525963335578,0.3623756634660061
-4.036,-0.3060212101013774,0.01268659609520136
-4.0355,-0.8288597781273515,-0.2946159176543747
-4.035,-1.095614149569417,0.1504428953626575
-4.0345,-0.999582575850361,0.690871454025705
-4.034,-0.3807124341046804,0.309392471440169
-4.0335,0.3235191065023739,-0.570128516188728
-4.033,0.803676975097656,-1.237716735713669
-4.0325,0.9743997728209665,-1.396666311791604
-4.032,0.9210488985326017,-1.195330182093607
-4.0315,0.7503261008098348,-0.8986243067491881
-4.031,0.55826295337146,-0.6654982618348976
-4.0305,0.6329541773751706,-0.2946159176543747
-4.03,0.6756348768058622,-0.008506680715114234
-4.0295,0.5475927785135735,-0.01910331912010818
-4.029,0.3982103305061524,-0.1144730647665284
-4.0285,0.2701682322139607,-0.1886495336027004
-4.028,0.1741366584945937,-0.2098428104126883
-4.0275,-0.07127736323188383,0.1716361721729923
-4.027,-0.4874141826815069,0.7438546460520338
-4.0265,-0.7328282044079844,1.135930267042872
-4.026,-1.170305373573196,1.432636142387917
-4.0255,-1.405049220442214,1.464426057603419
-4.025,-1.074273799854353,0.9239974989403715
-4.0245,-0.6047861061156568,0.3093924714397931
-4.024,-0.2099896363817582,-0.1038764263613609
-4.0235,0.03542438534471937,-0.2734226408438856
-4.023,0.1634664836371731,-0.2734226408439242
-4.0225,0.2061471830678648,-0.1462629799820306
-4.022,0.1954770082101919,0.02328323450049408
-4.0215,0.1848068333524704,0.2034260873886103
-4.021,0.1527963087794516,0.3305857482505039
-4.0205,0.1101156093487211,0.3941655786815084
-4.02,0.09944543449084434,0.4471487707073263
-4.0195,-0.1139580626626144,0.4259554938970107
-4.019,-0.7114878546928423,0.55311515475902
-4.0185,-1.106284324426741,0.9451907757498583
-4.018,-1.330357996438436,1.358459673551745
-4.0175,-0.9355615267041777,1.082947075017392
-4.017,-0.1246282375210346,0.1080563417428744
-4.0165,0.5582629533717415,-0.813851199507974
-4.016,0.942389248247967,-1.248313374119443
-4.0155,1.006410297394005,-1.205926820498813
-4.015,0.8783681991016772,-0.9410108603693569
-4.0145,0.6649647019482183,-0.6866915386455698
-4.014,0.6009436528021808,-0.4535654937320982
-4.0135,0.6756348768058137,-0.1886495336026522
-4.013,0.5796033030867573,-0.1356663415768632
-4.0125,0.4195506802215176,-0.1674562567923655
-4.012,0.291508581929258,-0.1886495336026811
-4.0115,0.2168173579255475,-0.1674562567923655
-4.011,0.3128489316446912,0.2246193641988295
-4.0105,0.8036769750976464,0.8286277532928237
-4.01,0.6116138276598051,1.284283204715573
-4.0095,-0.09261771294724913,1.538602526439591
-4.009,-0.935561526703411,1.655165548896327
-4.0085,-1.159635198715242,1.316073119930458
-4.008,-0.8608703027003992,0.6378882620003594
-4.0075,-0.4660738329665006,0.06566978812183843
-4.007,-0.135298412377805,-0.241632725628605
-4.0065,0.05676473506030786,-0.3158091944647096
-4.006,0.1634664836371343,-0.2416327256285375
-4.0055,0.1954770082101725,-0.0826831495508622
-4.005,0.1848068333524996,0.09745970333682032
-4.0045,0.1527963087794516,0.2564092794143318
-4.004,0.1101156093487017,0.3729723018712314
-4.0035,0.08877525963335578,0.4365521323021782
-4.003,0.03542438534494258,0.457745409112513
-4.0025,-0.3913826089619749,0.5531151547589332
-4.002,-0.6474668055467465,0.8710143069140429
-4.0015,-0.754168554123573,1.284283204715573
-4.001,-0.6261264558314977,1.273686566310415
-4.0005,0.05676473506087072,0.2776025562236547
-4,0.6756348768059011,-0.8350444763179138
-3.9995,1.027750647109428,-1.502632695843462
-3.999,1.091771696255524,-1.51322933424863
-3.9985,0.9530594231056497,-1.237716735714276
-3.998,0.7183155762366316,-0.9304142219644207
-3.9975,0.5582629533713921,-0.6549016234300674
-3.997,0.6969752265212663,-0.2204394488182027
-3.9965,0.6542945270905358,-0.09327978795619347
-3.996,0.4942419042252961,-0.1674562567923655
-3.9955,0.3341892813600565,-0.2628260024388724
-3.995,0.2168173579255475,-0.3158091944647096
-3.9945,0.0674349099179905,-0.1462629799820306
-3.994,-0.5087545323968721,0.457745409112513
-3.9935,-0.9035510021311299,1.072350436612224
-3.993,-1.180975548430879,1.506812611224089
-3.9925,-1.565101843307454,1.729342017732605
-3.992,-1.458400094730627,1.496215972818921
-3.9915,-0.9569018764195432,0.8180311148882058
-3.991,-0.4554036581084589,0.2140227257936621
-3.9905,-0.09261771294724913,-0.1462629799820306
-3.99,0.09944543449103843,-0.252229364033705
-3.9895,0.1848068333524996,-0.1992461720078678
-3.989,0.2061471830678648,-0.05089323433552374
-3.9885,0.1954770082101822,0.13984625695749
-3.988,0.1634664836371343,0.309392471440169
-3.9875,0.142126133921769,0.4471487707073456
-3.987,0.1314559590640864,0.5213252395435176
-3.9865,0.08877525963335578,0.4789386859228479
-3.986,-0.3060212101009019,0.1822328105781598
-3.9855,-0.8928808272734472,0.02328323450064829
-3.985,-1.223656247861609,0.4471487707073456
-3.9845,-1.010252750707956,0.9134008605347127
-3.984,-0.156638762093345,0.5107286011383502
-3.9835,0.6009436528021226,-0.474758770542221
-3.983,1.027750647109428,-1.152943628472937
-3.9825,1.134452395686255,-1.322489842955616
-3.982,1.006410297394063,-1.174136905283272
-3.9815,0.7823366253827275,-0.9198175835592532
-3.981,0.5582629533713921,-0.6760949002404023
-3.9805,0.6116138276598051,-0.3052125560595421
-3.98,0.6116138276598051,-0.1144730647665284
-3.9795,0.4835717293676135,-0.1356663415768632
-3.979,0.3341892813600565,-0.1992461720078678
-3.9785,0.2274875327832301,-0.252229364033705
-3.978,0.08877525963335578,-0.1674562567923655
-3.9775,-0.4874141826815069,0.3729723018711736
-3.977,-1.020922925565639,1.00877060618122
-3.9765,-1.255666772434657,1.475022696008586
-3.976,-1.607782542738184,1.729342017732605
-3.9755,-1.757164990745741,1.697552102517103
-3.975,-1.287677297007705,1.104140351827727
-3.9745,-0.7008176798351597,0.4259554938970107
-3.974,-0.2420001609548061,-0.04029659593035631
-3.9735,0.03542438534494258,-0.2310360872233701
-3.973,0.1741366584948169,-0.2204394488182027
-3.9725,0.2168173579255475,-0.08268314955102604
-3.972,0.2061471830678648,0.09745970333682032
-3.9715,0.1848068333524996,0.2881991946298341
-3.971,0.1634664836371343,0.4471487707073456
-3.9705,0.142126133921769,0.5425185163538525
-3.97,0.1314559590640864,0.5849050699745222
-3.9695,0.03542438534494258,0.627291623595192
-3.969,-0.4447334832507763,0.92399749893988
-3.9685,-0.8502001278427167,1.241896651094903
-3.968,-1.052933450138687,1.485619334413754
-3.9675,-0.690147504977477,0.9981739677760521
-3.967,0.0674349099179905,-0.1674562567923655
-3.9665,0.6863050516635838,-1.174136905283272
-3.966,1.006410297394063,-1.598002441489969
-3.9655,1.038420821967111,-1.47084278062796
-3.965,0.8890383739595538,-1.152943628472937
-3.9645,0.6649647019482183,-0.8456411147230812
-3.964,0.5475927785137094,-0.6972881770507372
-3.9635,0.5155822539406614,-0.5913217929990628
-3.963,0.3875401556484697,-0.4323722169215513
-3.9625,0.2808384070716433,-0.2946159176543747
-3.962,0.2061471830678648,-0.1780528951975329
-3.9615,0.1634664836371343,-0.08268314955102604
-3.961,-0.1352984123779797,0.3517790250608387
-3.9605,-0.7434983792658902,0.9557874141553824
-3.96,-1.287677297007705,1.42203950398275
-3.9595,-1.682473766741963,1.686955464111935
-3.959,-1.757164990745741,1.623375633680931
-3.9585,-1.244996597576974,0.9981739677760521
-3.958,-0.658136980404429,0.2987958330350016
-3.9575,-0.2099896363817582,-0.1780528951975329
-3.957,0.05676473506030786,-0.3899856633008816
-3.9565,0.1848068333524996,-0.400582301706049
-3.956,0.2168173579255475,-0.2840192792492073
-3.9555,0.2061471830678648,-0.1250697031716958
-3.955,0.1954770082101822,0.06566978812131802
-3.9545,0.1741366584948169,0.2246193641988295
-3.954,0.142126133921769,0.3411823866556712
-3.9535,0.1314559590640864,0.383568940276341
-3.953,0.02475421048725994,0.309392471440169
-3.9525,-0.4660738329661415,0.1928294489833272
-3.952,-0.9355615267041777,0.5425185163538525
-3.9515,-1.084943974711735,0.9875773293708847
-3.951,-0.4874141826815069,0.6802748156210291
-3.9505,0.3448594562177392,-0.3370024712750445
-3.95,0.942389248247967,-1.280103289334946
-3.9495,1.209143619690033,-1.672178910326141
-3.949,1.177133095116985,-1.587405803084801
-3.9485,0.9637295979633325,-1.248313374119443
-3.948,0.6863050516635838,-0.8562377531282487
-3.9475,0.5049120790829789,-0.570128516188728
-3.947,0.6009436528021226,-0.2840192792492073
-3.9465,0.5582629533713921,-0.1886495336027004
-3.946,0.4302208550792003,-0.2098428104130352
-3.9455,0.291508581929326,-0.252229364033705
-3.945,0.2168173579255475,-0.2734226408440398
-3.9445,0.02475421048725994,-0.01910331912002144
-3.944,-0.6047861061160158,0.5955017083796896
-3.9435,-1.212986073003927,1.167720182258731
-3.943,-1.565101843307454,1.549199164844759
-3.9425,-1.895877263895616,1.718745379327438
-3.942,-1.607782542738184,1.390249588767247
-3.9415,-0.9889124009925911,0.6802748156210291
-3.941,-0.4340633083930936,0.06566978812131802
-3.9405,-0.06060718837420119,-0.2734226408440398
-3.94,0.1314559590640864,-0.3793890248957141
-3.9395,0.2168173579255475,-0.3052125560595421
-3.939,0.2274875327832301,-0.1462629799820306
-3.9385,0.2061471830678648,0.03387987290581572
-3.938,0.1741366584948169,0.2140227257936621
-3.9375,0.1527963087794516,0.3411823866556712
-3.937,0.1314559590640864,0.4365521323021782
-3.9365,0.09944543449103843,0.4683420475176805
-3.936,-0.2526703358124887,0.2670059178194992
-3.9355,-0.690147504977477,0.2670059178194992
-3.935,-0.8608703027003992,0.701468092431364
-3.9345,-0.658136980404429,0.9875773293708847
-3.934,0.01408403562957729,0.3623756634660061
-3.9335,0.6542945270905358,-0.6972881770507372
-3.933,1.049090996824793,-1.534422611058964
-3.9325,1.145122570543937,-1.75695201756748
-3.932,1.006410297394063,-1.449649503817625
-3.9315,0.7609962756673623,-1.05757388282643
-3.931,0.5369226036560266,-0.7502713690765743
-3.9305,0.4302208550792003,-0.4641621321370536
-3.93,0.3448594562177392,-0.3370024712750445
-3.9295,0.2594980573562781,-0.3158091944647096
-3.929,0.2061471830678648,-0.3158091944647096
-3.9285,0.1741366584948169,-0.326405832869877
-3.928,0.1314559590640864,-0.2840192792492073
-3.9275,-0.2526703358124887,0.1504428953626575
-3.927,-0.8502001278427167,0.7968378380778709
-3.9265,-1.26633694729234,1.316073119931075
-3.926,-1.639793067311232,1.623375633680931
-3.9255,-1.703814116457328,1.602182356870596
-3.925,-1.202315898146244,0.9981739677760521
-3.9245,-0.6261264558313813,0.309392471440169
-3.924,-0.1993194615240755,-0.1674562567923655
-3.9235,0.0674349099179905,-0.3687923864905467
-3.923,0.1848068333524996,-0.3793890248957141
-3.9225,0.2168173579255475,-0.252229364033705
-3.922,0.2168173579255475,-0.07208651114585861
-3.9215,0.1848068333524996,0.1080563417419877
-3.921,0.1634664836371343,0.2670059178194992
-3.9205,0.142126133921769,0.3729723018711736
-3.92,0.1207857842064037,0.4153588554918433
-3.9195,-0.1032878878049318,0.2987958330350016
-3.919,-0.6794773301197943,-0.05089323433552374
-3.9185,-1.095614149569417,0.1080563417419877
-3.918,-1.138294849000148,0.5637117931641874
-3.9175,-0.5194247072545548,0.2881991946298341
-3.917,0.2061471830678648,-0.4959520473525559
-3.9165,0.7396559259519968,-1.227120097309109
-3.916,0.9957401225363802,-1.439052865412457
-3.9155,1.006410297394063,-1.269506650929778
-3.915,0.8356874996711408,-1.004590690800593
-3.9145,0.6009436528021226,-0.7608680074817418
-3.914,0.5369226036560266,-0.4429688553267188
-3.9135,0.5796033030867573,-0.1356663415768632
-3.913,0.4835717293676135,-0.1038764263613609
-3.9125,0.3555296310754218,-0.1674562567923655
-3.912,0.2488278824985954,-0.2416327256285375
-3.9115,0.1954770082101822,-0.2310360872233701
-3.911,-0.06060718837420119,0.1716361721729923
-3.9105,-0.6261264558313813,0.8074344764830383
-3.91,-0.9569018764195432,1.316073119931075
-3.9095,-1.191645723288561,1.591585718465428
-3.909,-1.479740444445993,1.644568910491266
-3.9085,-1.223656247861609,1.167720182258731
-3.908,-0.7328282044082075,0.4683420475176805
-3.9075,-0.2953510352432193,-0.05089323433552374
-3.907,0.00341386077189465,-0.3052125560595421
-3.9065,0.1527963087794516,-0.3475991096802118
-3.906,0.2061471830678648,-0.2416327256285375
-3.9055,0.2168173579255475,-0.06148987274069118
-3.905,0.1954770082101822,0.1186529801471552
-3.9045,0.1634664836371343,0.2881991946298341
-3.904,0.1527963087794516,0.4153588554918433
-3.9035,0.1314559590640864,0.4683420475176805
-3.903,0.04609456020262521,0.3941655786815084
-3.9025,-0.4767440078238243,-0.09327978795619347
-3.902,-0.7861790786966207,-0.2840192792492073
-3.9015,-0.9462317015618604,0.2246193641988295
-3.901,-0.8822106524157645,0.5637117931641874
-3.9005,-0.1779791118087102,-0.08268314955102604
-3.9,0.5262524287983441,-1.01518732920576
-3.8995,0.9637295979633325,-1.576809164679634
-3.899,1.091771696255524,-1.629792356705471
-3.8985,0.9637295979633325,-1.375473034981453
-3.898,0.707645401378949,-1.05757388282643
-3.8975,0.5369226036560266,-0.7502713690765743
-3.897,0.5689331282290746,-0.3793890248957141
-3.8965,0.5049120790829789,-0.2628260024388724
-3.896,0.3768699807907871,-0.2840192792492073
-3.8955,0.2701682322139607,-0.3370024712750445
-3.895,0.2061471830678648,-0.3475991096802118
-3.8945,0.00341386077189465,-0.07208651114585861
-3.894,-0.5194247072545548,0.55311515475902
-3.8935,-0.8715404775580819,1.125333628638062
-3.893,-1.351698346153801,1.528005888034424
-3.8925,-1.810515865034154,1.70814874092227
-3.892,-1.565101843307454,1.390249588767247
-3.8915,-0.9675720512772257,0.701468092431364
-3.891,-0.4340633083930936,0.1186529801471552
-3.8905,-0.06060718837420119,-0.1886495336027004
-3.89,0.142126133921769,-0.2734226408440398
-3.8895,0.2168173579255475,-0.1886495336027004
-3.889,0.2274875327832301,-0.01910331912002144
-3.8885,0.2061471830678648,0.1610395337678249
-3.888,0.1848068333524996,0.3411823866556712
-3.8875,0.1634664836371343,0.4789386859228479
-3.887,0.142126133921769,0.5425185163538525
