Class_6_Listen_To_Quran/Class_6_Listen_To_Quran_SH_9.csv

#Digilent WaveForms Oscilloscope Acquisition
#Device Name: EExplorer
#Serial Number: SN:210151A2B84A
#Date Time: 2020-12-22 11:49:19.511
#Sample rate: 2000Hz
#Samples: 16384
#Trigger: Source: Channel 1 Type: Edge Condition: Rising Level: 0 V Hyst.: Auto HoldOff: 0 s
#Channel 1: Range: 1 V/div Offset: 0 V Attenuation: 1 X
#Channel 2: Range: 1 V/div Offset: 0 V Attenuation: 1 X
#Power Supplies: ON
#Fixed Supply: ON
#Voltage: 3.3 V Readback: 3.33 V
#Positive Supply: ON
#Voltage: 3.7 V Readback: 3.694 V
#Current: 40 mA Readback: 19 mA
#Negative Supply: ON
#Voltage: -3.7 V Readback: -3.908 V
#Current: -40 mA Readback: -5 mA
#Reference 1: ON
#Voltage: 0 V
#Reference 2: ON
#Voltage: 0 V

Time (s),Channel 1 (V),Channel 2 (V)
-4.096,0.03542438534494258,-0.2098428104130352
-4.0955,0.2594980573560743,-0.05089323433566831
-4.095,0.4195506802215274,0.09745970333685887
-4.0945,0.4302208550792003,0.13984625695749
-4.094,0.4302208550792003,0.2034260873884368
-4.0935,0.3448594562175451,0.05507314971549523
-4.093,0.1314559590640864,-0.6654982618352349
-4.0925,-0.3807124341042146,-1.502632695842701
-4.092,-0.7755089038386956,-2.064254531317548
-4.0915,-0.5087545323968721,-2.297380576231019
-4.091,0.08877525963335578,-1.778145294377815
-4.0905,0.4088805053639418,-0.7502713690757359
-4.09,0.5262524287983441,0.1716361721729923
-4.0895,0.5369226036560266,0.7968378380778709
-4.089,0.5155822539406808,1.13593026704292
-4.0885,0.4835717293676135,1.273686566310405
-4.088,0.4515612047945656,1.273686566310405
-4.0875,0.4302208550792198,1.210106735879458
-4.087,0.4195506802215176,1.114736990232807
-4.0865,0.4195506802215176,1.019367244586387
-4.086,0.4195506802215176,0.9557874141554402
-4.0855,0.4195506802212071,0.9028042221291308
-4.085,0.07810508477567314,0.4471487707073456
-4.0845,-0.6047861061153947,-0.4641621321362248
-4.084,-1.319687821581083,-1.290699927740373
-4.0835,-1.682473766741963,-1.576809164679634
-4.083,-1.319687821580753,-1.025783967610927
-4.0825,-0.7648387289807994,-0.3158091944642566
-4.082,-0.2633405106701714,0.1822328105781598
-4.0815,0.09944543449103843,0.3517790250608387
-4.081,0.334189281359843,0.3517790250608387
-4.0805,0.4515612047945656,0.2564092794143318
-4.08,0.3341892813600565,-0.008506680714854012
-4.0795,0.2915085819293648,-0.1356663415767476
-4.079,-0.2633405106701714,-0.665498261835177
-4.0785,-0.2633405106701714,-0.6019184314042303
-4.078,-0.06060718837438558,-0.305212556059812
-4.0775,0.1634664836373284,0.01268659609565433
-4.077,0.3768699807907871,0.2034260873884947
-4.0765,0.718315576236321,0.1928294489833368
-4.076,0.6329541773744136,-0.4429688553275861
-4.0755,-0.1993194615240755,-1.396666311791788
-4.075,-0.8181896032696687,-1.926498232050159
-4.0745,-0.7541685541232334,-1.417859588601313
-4.074,-0.3807124341046804,-0.5277419625680583
-4.0735,-0.007256314085787988,0.2564092794143318
-4.073,0.2594980573560354,0.7862411996722216
-4.0725,0.408880505363835,1.072350436612224
-4.072,0.4622313796522482,1.188913459069066
-4.0715,0.4729015545099212,1.210106735879381
-4.071,0.4622313796522385,1.167720182258683
-4.0705,0.4515612047945656,1.114736990232894
-4.07,0.4408910299368927,1.072350436612263
-4.0695,0.4408910299368829,1.051157159801889
-4.069,0.4408910299368829,1.051157159801889
-4.0685,0.6649647019482183,1.231300012689736
-4.068,1.113112045970714,1.29487984311996
-4.0675,0.9210488985326017,0.4365521323021782
-4.067,0.3235191065023739,-0.6019184314042303
-4.0665,-0.1566387620934129,-0.9728007755847531
-4.066,-0.2313299860971235,-0.6019184314042303
-4.0655,-0.124628237520297,-0.04029659593035631
-4.065,0.05676473506014287,0.2987958330346931
-4.0645,0.2274875327832301,0.3941655786815084
-4.064,0.3235191065023739,0.3623756634660061
-4.0635,0.3875401556484115,0.2776025562247438
-4.063,0.3661998059330462,0.1292496185522359
-4.0625,0.3021787567870086,0.03387987290581572
-4.062,0.3128489316446815,0.1080563417419203
-4.0615,0.2061471830677872,0.09745970333682995
-4.061,0.1207857842064037,0.1080563417419877
-4.0605,-0.423393133535411,-0.3899856633008816
-4.06,-0.8715404775588292,-0.8350444763186173
-4.0595,-1.693143941599645,-1.608599079895136
-4.059,-2.066600061618538,-2.106641084938006
-4.0585,-2.10928076104923,-2.339767129851477
-4.058,-1.789175515318789,-2.286783937825852
-4.0575,-1.010252750707956,-1.42845622700729
-4.057,-0.3166913849592154,-0.3687923864915104
-4.0565,0.1527963087794516,0.4471487707073456
-4.056,0.408880505363835,0.92399749893988
-4.0555,0.5049120790828915,1.135930267043036
-4.055,0.5262524287983344,1.167720182258673
-4.0545,0.5155822539406614,1.104140351827727
-4.054,0.4835717293676426,0.976980690965833
-4.0535,0.4515612047945559,0.8604176685087888
-4.053,0.4408910299368829,0.7650479228623686
-4.0525,0.4302208550792003,0.6802748156210291
-4.052,0.3982103305057157,0.4895353243273504
-4.0515,-0.08194753808956648,-0.2416327256285375
-4.051,-0.7755089038389382,-1.152943628472937
-4.0505,-1.106284324426799,-1.788741932782405
-4.05,-1.1062843244271,-1.809935209593318
-4.0495,-0.8181896032696687,-1.152943628472937
-4.049,-0.3487019095320595,-0.3899856633015755
-4.0485,0.07810508477590605,0.1080563417422383
-4.048,0.3341892813600565,0.383568940276341
-4.0475,0.4408910299367859,0.4471487707072878
-4.047,0.4622313796522579,0.3941655786814313
-4.0465,0.4729015545099309,0.309392471440169
-4.046,0.5049120790829498,0.2776025562246956
-4.0455,0.5049120790829594,0.2352160026039969
-4.045,0.4835717293676135,0.2352160026039969
-4.0445,0.4515612047945656,0.2564092794143318
-4.044,0.4408910299368441,0.3199891098450087
-4.0435,0.3982103305061524,-0.04029659593035631
-4.043,0.6329541773751706,-0.7714646458869092
-4.0425,-0.03926683865822456,-1.894708316833636
-4.042,-0.4127229586777283,-2.138431000153508
-4.0415,-0.3700422592469978,-2.25499402261035
-4.041,0.1527963087789762,-1.672178910326671
-4.0405,0.4515612047946044,-0.6337083466189615
-4.04,0.4942419042252961,0.2140227257936621
-4.0395,0.4835717293676232,0.7968378380773409
-4.039,0.4622313796522191,1.104140351827833
-4.0385,0.4302208550792003,1.220703374284568
-4.038,0.4195506802215274,1.220703374284568
-4.0375,0.4195506802215274,1.167720182258683
-4.037,0.4302208550792003,1.114736990232894
-4.0365,0.4408910299368829,1.072350436612224
-4.036,0.4408910299368635,1.008770606181133
-4.0355,0.4195506802215176,0.9134008605347127
-4.035,-0.01792648894347063,0.2987958330350016
-4.0345,-0.7434983792652303,-0.7396747306704623
-4.034,-1.159635198715513,-1.598002441489969
-4.0335,-1.074273799854052,-1.778145294377815
-4.033,-0.6154562809741158,-1.184733543688979
-4.0325,-0.1566387620930926,-0.4853554089469163
-4.032,0.1207857842064037,0.03387987290581572
-4.0315,0.2808384070714978,0.2670059178192872
-4.031,0.3875401556485085,0.3305857482504364
-4.0305,0.4302208550792003,0.2564092794143318
-4.03,0.4515612047945461,0.09745970333696485
-4.0295,0.4622313796522385,0.01268659609549049
-4.029,0.4515612047945656,0.02328323450064829
-4.0285,0.4408910299368829,0.05507314971615059
-4.028,0.4302208550791906,0.1292496185524094
-4.0275,0.4195506802215176,0.2246193641988295
-4.027,0.408880505363835,0.13984625695749
-4.0265,0.5049120790828915,0.0232832345007543
-4.026,0.8143471499557753,-0.1462629799820306
-4.0255,0.7289857510943143,-0.9728007755850904
-4.025,-0.04993701351581015,-1.756952017566767
-4.0245,-0.2633405106700841,-1.481439419032376
-4.024,-0.1673089369510276,-0.6549016234300674
-4.0235,0.09944543449079579,0.2140227257928718
-4.023,0.259498057356346,0.7862411996729829
-4.0225,0.3341892813600565,1.093543713422559
-4.022,0.3768699807907483,1.252493289499926
-4.0215,0.3982103305061621,1.305476481525908
-4.021,0.408880505363835,1.305476481525908
-4.0205,0.4195506802215176,1.284283204715573
-4.02,0.43022085507921,1.273686566310367
-4.0195,0.4408910299368829,1.231300012689736
-4.019,0.4408910299368829,1.178316820663898
-4.0185,0.2915085819294618,0.9345941373452691
-4.018,-0.3060212101009019,-0.04029659593035631
-4.0175,-0.7648387289812555,-1.025783967610927
-4.017,-1.202315898145846,-1.788741932782289
-4.0165,-1.629122892453384,-2.000674700885618
-4.016,-1.447729919872945,-1.216523458903942
-4.0155,-0.8502001278432602,-0.4217755785171068
-4.015,-0.2740106855274853,0.08686306493184563
-4.0145,0.1314559590640864,0.2987958330350016
-4.014,0.3235191065021992,0.3729723018711061
-4.0135,0.4088805053638835,0.3093924714399762
-4.013,0.4622313796522482,0.09745970333682032
-4.0125,0.4729015545099309,-0.04029659593035631
-4.012,0.4622313796522288,-0.02969995752512141
-4.0115,0.4408910299368829,0.04447651131098315
-4.011,0.4302208550792003,0.13984625695749
-4.0105,0.4195506802215274,0.1716361721729634
-4.01,0.291508581929326,-0.2416327256285375
-4.0095,0.2381577076409128,-0.9092209451540858
-4.009,-0.4233931335348094,-1.629792356704816
-4.0085,-1.41571939529981,-2.382153683472176
-4.008,-1.319687821580753,-2.180817553774178
-4.0075,-0.8075194284124518,-1.30129656614608
-4.007,-0.2206598112390624,-0.2628260024381592
-4.0065,0.1954770082101822,0.5213252395435176
-4.006,0.3661998059331045,0.9134008605347127
-4.0055,0.4302208550792198,1.093543713422607
-4.005,0.4515612047945656,1.146526905448396
-4.0045,0.4408910299368829,1.114736990232894
-4.004,0.4302208550792003,1.061753798207009
-4.0035,0.4302208550792003,1.00877060618122
-4.003,0.4408910299368829,0.9875773293708847
-4.0025,0.43022085507921,0.9557874141554112
-4.002,0.2701682322139607,0.7650479228623686
-4.0015,-0.423393133535411,-0.07208651114585861
-4.001,-0.9569018764190579,-1.068170521230691
-4.0005,-1.148965023857627,-1.756952017567288
-4,-0.9248913518464952,-1.545019249464132
-3.9995,-0.4660738329661415,-0.8562377531282487
-3.999,-0.08194753808956648,-0.1992461720078678
-3.9985,0.1954770082101822,0.2140227257936621
-3.998,0.3661998059331045,0.383568940276341
-3.9975,0.4515612047945656,0.3941655786815084
-3.997,0.4835717293676135,0.3199891098453364
-3.9965,0.4408910299368829,0.1504428953626575
-3.996,0.3341892813600565,-0.008506680714854012
-3.9955,0.3128489316446912,0.02328323450064829
-3.995,0.3448594562177392,0.1292496185523226
-3.9945,0.3768699807907871,0.2458126410091644
-3.994,0.3982103305061524,0.3411823866556712
-3.9935,0.5475927785137094,0.4471487707073456
-3.993,1.102441871113207,0.7120647308365314
-3.9925,1.369196242555273,0.1080563417419877
-3.992,0.6436243522328531,-1.216523458903942
-3.9915,1.070431346540159,-1.725162102351978
-3.991,1.241154144263081,-1.598002441489969
-3.9905,1.091771696255524,-0.7820612842920766
-3.99,0.8783681991018712,0.05507314971615059
-3.9895,0.6009436528021226,0.5849050699745222
-3.989,0.4302208550792003,0.9028042221295453
-3.9885,0.3555296310754218,1.072350436612224
-3.988,0.3341892813600565,1.125333628638062
-3.9875,0.3448594562177392,1.125333628638062
-3.987,0.3661998059331045,1.125333628638062
-3.9865,0.3982103305061524,1.125333628638062
-3.986,0.4195506802215176,1.114736990232894
-3.9855,0.3661998059331045,1.040560521396722
-3.985,-0.1993194615240755,0.7650479228623686
-3.9845,-0.8715404775580819,0.1080563417419877
-3.984,-1.234326422719292,-0.8774310299385835
-3.9835,-1.138294849000148,-1.248313374119443
-3.983,-0.6261264558313813,-0.8562377531282487
-3.9825,-0.1779791118087102,-0.326405832869877
-3.982,0.1207857842064037,0.08686306493165288
-3.9815,0.2701682322139607,0.2987958330350016
-3.981,0.3555296310754218,0.3411823866556712
-3.9805,0.408880505363835,0.2776025562246667
-3.98,0.4302208550792003,0.1822328105781598
-3.9795,0.408880505363835,-0.01910331912002144
-3.979,0.3875401556484697,-0.02969995752518888
-3.9785,0.3875401556484697,0.07626642652648545
-3.978,0.3875401556484697,0.2140227257936621
-3.9775,0.3875401556484697,0.3517790250608387
-3.977,0.4515612047945656,0.4789386859228479
-3.9765,0.9317190733902845,0.849821030103708
-3.976,1.027750647109428,0.4895353243280153
-3.9755,0.2381577076409128,-0.4853554089473885
-3.975,-0.3807124341046804,-0.9728007755850904
-3.9745,-0.9782422261349084,-1.227120097309109
-3.974,-0.722158029550525,-0.5913217929990628
-3.9735,-0.3166913849585846,0.09745970333682032
-3.973,0.0674349099179905,0.6802748156210291
-3.9725,0.3235191065023739,1.051157159801889
-3.972,0.3982103305061524,1.167720182258731
-3.9715,0.408880505363835,1.199510097474233
-3.971,0.408880505363835,1.178316820663898
-3.9705,0.3982103305061524,1.146526905448396
-3.97,0.3875401556484697,1.093543713422559
-3.9695,0.3982103305061524,1.061753798207057
-3.969,0.408880505363835,1.072350436612224
-3.9685,0.6116138276598051,1.093543713422559
-3.968,0.7183155762366316,0.5001319627331828
-3.9675,0.291508581929326,-0.570128516188728
-3.967,-0.2420001609548061,-1.460246142222792
-3.9665,-0.7648387289812555,-1.767548655972648
-3.966,-0.7434983792658902,-1.216523458903942
-3.9655,-0.4660738329661415,-0.5489352393783931
-3.965,-0.124628237520297,-0.008506680714854012
-3.9645,0.1207857842064037,0.2987958330350016
-3.964,0.291508581929326,0.4153588554918433
-3.9635,0.3768699807907871,0.383568940276341
-3.963,0.4408910299368829,0.3411823866556712
-3.9625,0.4622313796522482,0.2987958330350016
-3.962,0.4515612047945656,0.2352160026039969
-3.9615,0.4302208550792003,0.2140227257936621
-3.961,0.408880505363835,0.2352160026039969
-3.9605,0.3661998059331045,0.1822328105781598
-3.96,0.1101156093487211,-0.1674562567923655
-3.9595,-0.01792648894347063,-0.4641621321370536
-3.959,-0.4447334832507763,-0.9728007755850904
-3.9585,-0.754168554123573,-1.34368311976595
-3.958,-0.5300948821122373,-1.258910012524611
-3.9575,-0.3593720843893152,-0.7820612842920766
-3.957,-0.3166913849585846,-0.3158091944647096
-3.9565,-0.3700422592469978,-0.008506680714854012
-3.956,-0.09261771294724913,0.5001319627331828
-3.9555,0.1101156093487211,0.8392243916985406
-3.955,0.3341892813600565,1.104140351827727
-3.9545,0.3982103305061524,1.157123543853563
-3.954,0.3875401556484697,1.114736990232894
-3.9535,0.3768699807907871,1.072350436612224
-3.953,0.3768699807907871,1.019367244586387
-3.9525,0.3768699807907871,0.9663840525605498
-3.952,0.2061471830678648,0.6908714540261965
-3.9515,-0.4980843575391895,0.1504428953626575
-3.951,-1.116954499284783,-0.7714646458869092
-3.9505,-1.554431668449771,-1.566212526274467
-3.95,-1.405049220442214,-1.407262950196955
-3.9495,-0.8928808272734472,-0.8032545611024114
-3.949,-0.391382608962363,-0.2310360872233701
-3.9485,0.01408403562957729,0.1292496185523226
-3.948,0.2594980573562781,0.2881991946298341
-3.9475,0.3875401556484697,0.2881991946298341
-3.947,0.4302208550792003,0.2140227257936621
-3.9465,0.4622313796522482,0.1928294489833272
-3.946,0.5049120790829789,0.3199891098453364
-3.9455,0.5049120790829789,0.3517790250608387
-3.945,0.4729015545099309,0.3305857482505039
-3.9445,0.4302208550792003,0.3411823866556712
-3.944,0.408880505363835,0.3411823866556712
-3.9435,0.4835717293676135,0.1928294489833272
-3.943,0.974399772821015,0.2458126410091644
-3.9425,0.8783681991018712,-0.3052125560595421
-3.942,0.1848068333524996,-0.9728007755850904
-3.9415,-0.3166913849585846,-1.142346990067769
-3.941,-0.3166913849585846,-0.6125150698093976
-3.9405,-0.1139580626626144,0.05507314971615059
-3.94,0.09944543449103843,0.6060983467848571
-3.9395,0.08877525963335578,0.7862411996727035
-3.939,-0.1886492866663929,0.6166949851900245
-3.9385,-0.3166913849585846,0.5213252395435176
-3.938,-0.124628237520297,0.7120647308365314
-3.9375,0.04609456020262521,0.8604176685088755
-3.937,0.2701682322139607,1.061753798207057
-3.9365,0.3875401556484697,1.167720182258731
-3.936,0.3875401556484697,1.125333628638062
-3.9355,0.3128489316446912,0.9663840525605498
-3.935,-0.3060212101009019,0.2564092794143318
-3.9345,-1.084943974711735,-0.8138511995075789
-3.934,-1.405049220442214,-1.767548655972648
-3.9335,-1.298347471865388,-1.979481424075996
-3.933,-0.8608703027003992,-1.333086481360783
-3.9325,-0.4127229586777283,-0.5171453241628908
-3.932,-0.07127736323188383,0.05507314971615059
-3.9315,0.142126133921769,0.2881991946298341
-3.931,0.2701682322139607,0.309392471440169
-3.9305,0.3448594562177392,0.2034260873884947
-3.93,0.3448594562177392,0.03387987290581572
-3.9295,0.1207857842064037,-0.2310360872233701
-3.929,0.05676473506030786,-0.2204394488182027
-3.9285,0.142126133921769,-0.06148987274069118
-3.928,0.2381577076409128,0.1186529801471552
-3.9275,0.3235191065023739,0.2670059178194992
-3.927,0.3341892813600565,0.1292496185523226
-3.9265,0.3021787567870086,-0.1780528951975329
-3.926,0.0674349099179905,-0.6654982618352349
-3.9255,-0.3593720843893152,-1.258910012524611
-3.925,-0.7114878546928423,-1.523825972653797
-3.9245,-0.6047861061160158,-1.004590690800593
-3.924,-0.274010685527854,-0.2416327256285375
-3.9235,0.03542438534494258,0.3941655786815084
-3.923,0.2488278824985954,0.8074344764830383
-3.9225,0.3555296310754218,1.029963882991555
-3.922,0.408880505363835,1.114736990232894
-3.9215,0.4195506802215176,1.114736990232894
-3.921,0.3235191065023739,0.9875773293708847
-3.9205,0.05676473506030786,0.6696781772158616
-3.92,-0.4340633083930936,0.1610395337678249
-3.9195,-0.2313299860971235,0.3199891098453364
-3.919,-0.08194753808956648,0.4365521323021782
-3.9185,-0.1886492866663929,0.1186529801471552
-3.918,-0.6367966306890638,-0.7396747306714069
-3.9175,-0.9462317015618604,-1.492036057438295
-3.917,-1.639793067311232,-2.21260746898968
-3.9165,-2.130621110764634,-2.445733513903364
-3.916,-1.767835165603424,-1.650985633515806
-3.9155,-1.042263275281004,-0.6866915386455698
-3.915,-0.3700422592469978,-0.01910331912002144
-3.9145,0.08877525963335578,0.309392471440169
-3.914,0.3341892813600565,0.383568940276341
-3.9135,0.4408910299368829,0.2881991946298341
-3.913,0.3768699807907871,0.05507314971615059
-3.9125,0.3235191065023739,-0.08268314955102604
-3.912,0.3235191065023739,-0.06148987274069118
-3.9115,0.3448594562177392,0.03387987290581572
-3.911,0.3661998059331045,0.1186529801471552
-3.9105,0.4195506802215176,0.2670059178194992
-3.91,0.857027849386506,0.7332580076468663
-3.9095,1.337185717982225,0.5319218779486851
-3.909,0.7503261008096795,-0.3793890248957141
-3.9085,-0.1139580626626144,-1.163540266878104
-3.908,-0.4127229586777283,-1.068170521231597
-3.9075,-0.2846808603855366,-0.4641621321370536
-3.907,-0.04993701351651855,0.1610395337678249
-3.9065,0.1634664836371343,0.627291623595192
-3.906,0.3021787567870086,0.9134008605347127
-3.9055,0.3768699807907871,1.051157159801889
-3.905,0.3982103305061524,1.104140351827727
-3.9045,0.3982103305061524,1.104140351827727
-3.904,0.3982103305061524,1.093543713422559
-3.9035,0.3982103305061524,1.093543713422559
-3.903,0.3982103305061524,1.082947075017392
-3.9025,0.3875401556484697,1.061753798207057
-3.902,0.1954770082101822,0.7968378380778709
-3.9015,-0.6474668055467465,0.2670059178194992
-3.901,-1.639793067311232,-0.7820612842920766
-3.9005,-1.917217613610981,-1.460246142222792
-3.9,-1.991908837614759,-1.84172512480882
-3.8995,-1.639793067311232,-1.38606967338662
-3.899,-0.9035510021311299,-0.5489352393783931
-3.8985,-0.274010685527854,0.05507314971615059
-3.898,0.08877525963335578,0.2987958330350016
-3.8975,0.291508581929326,0.3411823866556712
-3.897,0.3875401556484697,0.2776025562246667
-3.8965,0.408880505363835,0.2670059178194992
-3.896,0.408880505363835,0.2776025562246667
-3.8955,0.408880505363835,0.2564092794143318
-3.895,0.408880505363835,0.2458126410091644
-3.8945,0.3982103305061524,0.2564092794143318
-3.894,0.4195506802215176,0.2776025562246667
-3.8935,0.8036769750980928,0.02328323450064829
-3.893,1.56125938999356,-0.474758770542221
-3.8925,1.838683936293309,-1.184733543688439
-3.892,1.081101521397841,-1.650985633515806
-3.8915,0.2808384070716433,-1.714565463946811
-3.891,0.00341386077189465,-1.036380606016095
-3.8905,0.01408403562957729,-0.2098428104130352
-3.89,0.1207857842064037,0.457745409112513
-3.8895,0.2274875327832301,0.8604176685088755
-3.889,0.3128489316446912,1.061753798207057
-3.8885,0.3661998059331045,1.125333628638062
-3.888,0.3875401556484697,1.104140351827727
-3.8875,0.3875401556484697,1.051157159801889
-3.887,0.3875401556484697,1.00877060618122
-3.8865,0.3875401556484697,0.9769806909657173
-3.886,0.3875401556484697,0.9451907757502149
-3.8855,0.3128489316446912,0.849821030103708
