Class_6_Listen_To_Quran/Class_6_Listen_To_Quran_Turki_14.csv

#Digilent WaveForms Oscilloscope Acquisition
#Device Name: EExplorer
#Serial Number: SN:210151A2B84A
#Date Time: 2021-02-04 11:24:48.861
#Sample rate: 2000Hz
#Samples: 16384
#Trigger: Source: Channel 1 Type: Edge Condition: Rising Level: 0 V Hyst.: Auto HoldOff: 0 s
#Channel 1: Range: 1 V/div Offset: 0 V Attenuation: 1 X
#Channel 2: Range: 1 V/div Offset: 0 V Attenuation: 1 X
#Power Supplies: ON
#Fixed Supply: ON
#Voltage: 3.3 V Readback: 3.323 V
#Positive Supply: ON
#Voltage: 3.7 V Readback: 3.722 V
#Current: 40 mA Readback: 17 mA
#Negative Supply: ON
#Voltage: -3.7 V Readback: -3.358 V
#Current: -40 mA Readback: -8 mA
#Reference 1: ON
#Voltage: 0 V
#Reference 2: ON
#Voltage: 0 V

Time (s),Channel 1 (V),Channel 2 (V)
-4.096,0.3128489316446912,0.03387987290581572
-4.0955,0.2594980573563266,0.05507314971613131
-4.095,0.216817357925499,0.1080563417418143
-4.0945,0.1634664836371343,-0.08268314955102604
-4.094,-0.2633405106697832,-0.6549016234295469
-4.0935,-0.8715404775586254,-1.205926820499179
-4.093,-1.46907026958831,-1.650985633515806
-4.0925,-1.981238662756611,-1.894708316834436
-4.092,-1.735824641029765,-1.439052865411696
-4.0915,-1.06360362499637,-0.6019184314042303
-4.091,-0.4767440078238243,0.1292496185523226
-4.0905,-0.07127736323168003,0.6272916235954329
-4.09,0.1527963087794516,0.8922075837243778
-4.0895,0.2381577076409128,0.9981739677760521
-4.089,0.2594980573562586,0.9981739677760521
-4.0885,0.2274875327832301,0.9557874141553824
-4.088,0.1954770082101822,0.8816109453192104
-4.0875,0.1634664836371634,0.8074344764831058
-4.087,0.1314559590640087,0.6590815388104821
-4.0865,0.04609456020262521,0.4259554938970107
-4.086,-0.4660738329656757,-0.1886495336021413
-4.0855,-0.9782422261352189,-0.9198175835598026
-4.085,-1.319687821580753,-1.523825972653797
-4.0845,-1.522421143876539,-1.809935209593057
-4.084,-1.042263275280422,-1.227120097308492
-4.0835,-0.4020527838200457,-0.5489352393783931
-4.083,0.05676473506030786,-0.02969995752518888
-4.0825,0.3021787567870863,0.1928294489833176
-4.082,0.3875401556484697,0.1822328105781598
-4.0815,0.3982103305061524,0.08686306493165288
-4.081,0.4302208550791712,-0.08268314955087183
-4.0805,0.6756348768059011,-0.326405832869877
-4.08,0.6863050516635838,-0.2840192792492073
-4.0795,0.5475927785138355,-0.1038764263615247
-4.079,0.4195506802214303,0.08686306493176854
-4.0785,0.3235191065023739,0.2140227257936621
-4.078,0.3555296310753927,0.1610395337678731
-4.0775,0.7503261008094951,-0.3899856633014791
-4.077,0.5475927785137094,-1.046977244421262
-4.0765,-0.01792648894295623,-1.58740580308431
-4.076,-0.7328282044083821,-1.97948142407563
-4.0755,-0.9248913518464952,-1.576809164679634
-4.075,-0.6794773301197943,-0.7502713690765743
-4.0745,-0.3380317346736976,-0.05089323433509005
-4.074,-0.06060718837420119,0.4259554938970107
-4.0735,0.1101156093487211,0.6908714540261965
-4.073,0.1954770082101046,0.7968378380777745
-4.0725,0.2168173579255475,0.8074344764830383
-4.072,0.2168173579255475,0.7650479228623686
-4.0715,0.1954770082102016,0.7226613692417374
-4.071,0.1634664836371246,0.6696781772157846
-4.0705,0.1527963087794516,0.5849050699745222
-4.07,0.1314559590641058,0.5107286011384177
-4.0695,-0.01792648894392674,0.1822328105775141
-4.069,-0.5194247072545548,-0.5277419625680583
-4.0685,-0.7861790786966207,-1.184733543688439
-4.068,-0.7541685541232042,-1.428456227006924
-4.0675,-0.3487019095316325,-1.025783967610927
-4.067,0.03542438534494258,-0.4959520473525559
-4.0665,0.2808384070717403,-0.1568596183870053
-4.066,0.3875401556484697,0.05507314971615059
-4.0655,0.408880505363835,0.13984625695749
-4.065,0.3982103305061621,0.1822328105781212
-4.0645,0.3768699807907871,0.1610395337678249
-4.064,0.5689331282290746,0.1080563417419877
-4.0635,0.6542945270904582,0.1716361721729345
-4.063,0.5475927785135832,0.214022725793691
-4.0625,0.408880505363835,0.2458126410091644
-4.062,0.3235191065024515,0.2881991946297956
-4.0615,0.302178756787193,0.3517790250608483
-4.061,0.5049120790829789,0.3623756634660061
-4.0605,0.2701682322139607,-0.1992461720078678
-4.06,-0.2420001609551457,-0.8668343915337727
-4.0595,-0.6154562809736985,-1.258910012524611
-4.059,-0.5834457564006506,-0.9198175835592532
-4.0585,-0.348701909531846,-0.2840192792497855
-4.058,-0.1139580626626144,0.2987958330350016
-4.0575,0.05676473506030786,0.6908714540261965
-4.057,0.1634664836370373,0.9028042221293525
-4.0565,0.1954770082101822,0.9981739677760521
-4.056,0.2061471830678648,1.00877060618122
-4.0555,0.2061471830678648,0.9769806909657461
-4.055,0.1848068333524898,0.9239974989398319
-4.0545,0.1741366584948169,0.8710143069140429
-4.054,0.152796308779471,0.7968378380779384
-4.0535,0.1314559590639214,0.690871454025946
-4.053,-0.04993701351651855,0.4153588554918433
-4.0525,-0.5941159312583333,-0.2840192792492073
-4.052,-0.9889124009926785,-1.025783967611342
-4.0515,-1.084943974711735,-1.481439419033127
-4.051,-0.7328282044082075,-1.131750351662602
-4.0505,-0.2633405106705984,-0.6125150698098699
-4.05,0.09944543449103843,-0.3158091944647096
-4.0495,0.3128489316446912,-0.1992461720078678
-4.049,0.3875401556484018,-0.08268314955113205
-4.0485,0.3768699807907677,-0.02969995752517924
-4.048,0.3555296310754218,-0.01910331912002144
-4.0475,0.4622313796521512,-0.07208651114581041
-4.047,0.5796033030866992,-0.1356663415767765
-4.0465,0.5155822539406614,-0.04029659593035631
-4.046,0.4088805053639321,0.07626642652637944
-4.0455,0.3021787567869601,0.1822328105782465
-4.045,0.2488278824985954,0.2776025562246667
-4.0445,0.3982103305061524,0.3411823866556712
-4.044,0.4302208550787151,-0.07208651114647542
-4.0435,-0.1032878878049318,-0.7502713690765743
-4.043,-0.9142211769888124,-1.34368311976595
-4.0425,-1.554431668449189,-1.714565463946473
-4.042,-1.458400094730627,-1.34368311976595
-4.0415,-0.9355615267041777,-0.570128516188728
-4.041,-0.4233931335358768,0.1186529801465288
-4.0405,-0.0606071883740168,0.5955017083799209
-4.04,0.142126133921769,0.849821030103708
-4.0395,0.2274875327831525,0.955787414155286
-4.039,0.248827882498576,0.9663840525605113
-4.0385,0.2274875327832301,0.92399749893988
-4.038,0.1848068333525384,0.8710143069140911
-4.0375,0.1634664836371052,0.7968378380777938
-4.037,0.1314559590640864,0.7120647308365314
-4.0365,0.04609456020262521,0.55311515475902
-4.036,-0.4233931335358185,-0.04029659593105021
-4.0355,-0.8715404775580819,-0.8032545611024114
-4.035,-1.031593100423322,-1.396666311791788
-4.0345,-0.7648387289814982,-1.322489842955683
-4.034,-0.2633405106701714,-0.8138511995075789
-4.0335,0.1314559590640864,-0.4217755785163839
-4.033,0.3448594562175451,-0.1462629799822812
-4.0325,0.4302208550791906,-0.05089323433548519
-4.032,0.4195506802215176,-0.008506680714854012
-4.0315,0.3875401556484989,0.02328323450061937
-4.031,0.3982103305062786,0.0232832345006001
-4.0305,0.5369226036560266,-0.02969995752518888
-4.03,0.5155822539406808,-0.01910331912003108
-4.0295,0.4302208550791324,0.02328323450070611
-4.029,0.3555296310754218,0.08686306493165288
-4.0285,0.291508581929326,0.1716361721729923
-4.028,0.3448594562179721,0.3835689402765048
-4.0275,0.6009436528021226,0.5637117931641874
-4.027,0.1741366584948169,-0.008506680714854012
-4.0265,-0.3593720843888299,-0.6654982618346373
-4.026,-0.9782422261349084,-1.0999604364471
-4.0255,-1.533091318734406,-1.38606967338662
-4.025,-1.394379045584657,-1.036380606016413
-4.0245,-0.882210652415318,-0.3370024712744662
-4.024,-0.391382608962363,0.2987958330350016
-4.0235,-0.03926683865915614,0.7332580076464712
-4.023,0.1527963087795196,0.976980690965804
-4.0225,0.2274875327832301,1.072350436612224
-4.022,0.248827882498576,1.082947075017382
-4.0215,0.2168173579255184,1.040560521396664
-4.021,0.1848068333524996,0.9769806909657173
-4.0205,0.1634664836371343,0.849821030103708
-4.02,0.1421261339215264,0.6590815388103087
-4.0195,-0.124628237520297,0.2352160026039969
-4.019,-0.6794773301197943,-0.5171453241628908
-4.0185,-0.8928808272732531,-1.205926820498148
-4.018,-0.9889124009925911,-1.661582271920973
-4.0175,-0.6474668055467465,-1.311893204550448
-4.017,-0.1673089369514643,-0.7184814538616117
-4.0165,0.1527963087796166,-0.2840192792489952
-4.016,0.3341892813600565,-0.05089323433552374
-4.0155,0.3982103305060942,0.01268659609542303
-4.015,0.38754015564846,-0.008506680714844374
-4.0145,0.3768699807907871,0.002089957690313421
-4.014,0.5475927785135541,-0.1356663415767379
-4.0135,0.5902734779443622,-0.1356663415767765
-4.013,0.5049120790829789,-0.04029659593035631
-4.0125,0.408880505363835,0.08686306493165288
-4.012,0.3235191065023351,0.1928294489834139
-4.0115,0.2808384070716433,0.2881991946298341
-4.011,0.4515612047945656,0.3941655786815084
-4.0105,0.1527963087797234,-0.1038764263609079
-4.01,-0.3807124341046804,-0.7714646458869092
-4.0095,-0.7328282044082075,-1.036380606016095
-4.009,-1.244996597576508,-1.280103289334724
-4.0085,-1.373038695868817,-1.205926820498234
-4.008,-0.9889124009925911,-0.6125150698093976
-4.0075,-0.4980843575396359,0.02328323450007008
-4.007,-0.1246282375200932,0.5001319627334334
-4.0065,0.09944543449103843,0.775644561267536
-4.006,0.2168173579255475,0.9028042221295453
-4.0055,0.238157707640903,0.9239974989398512
-4.005,0.2274875327832301,0.8922075837243778
-4.0045,0.1954770082101822,0.8392243916985406
-4.004,0.1741366584947878,0.775644561267459
-4.0035,0.142126133921769,0.6908714540261965
-4.003,0.05676473506030786,0.5001319627331828
-4.0025,-0.3273615598159179,-0.1144730647659694
-4.002,-0.6688071552621118,-0.8668343915334161
-4.0015,-0.8608703027003992,-1.47084278062796
-4.001,-0.4554036581088277,-1.608599079895011
-4.0005,0.05676473506056018,-1.036380606015536
-4,0.3341892813600565,-0.4217755785163839
-3.9995,0.4408910299368829,0.002089957690313421
-3.999,0.4408910299368829,0.1822328105781598
-3.9985,0.3982103305061524,0.1928294489833272
-3.998,0.3555296310754218,0.09745970333682032
-3.9975,0.4942419042252961,-0.1356663415768632
-3.997,0.7183155762366316,-0.3475991096802118
-3.9965,0.6969752265212663,-0.2628260024388724
-3.996,0.5475927785137094,-0.06148987274069118
-3.9955,0.4195506802215176,0.1610395337678249
-3.995,0.3235191065023739,0.3199891098453364
-3.9945,0.3021787567870086,0.2352160026039969
-3.994,0.08877525963335578,-0.3158091944647096
-3.9935,-0.4127229586777283,-0.9410108603695881
-3.993,-0.9675720512772257,-1.417859588602123
-3.9925,-1.51175096901904,-1.725162102351978
-3.992,-1.415719395299897,-1.364876396576285
-3.9915,-0.9142211769888124,-0.6019184314042303
-3.991,-0.4127229586777283,0.07626642652648545
-3.9905,-0.04993701351651855,0.5319218779486851
-3.99,0.1527963087794516,0.775644561267536
-3.9895,0.2381577076409128,0.8710143069140429
-3.989,0.2488278824985954,0.8604176685088755
-3.9885,0.2381577076409128,0.8180311148882058
-3.988,0.1954770082101822,0.7438546460520338
-3.9875,0.1634664836371343,0.6696781772158616
-3.987,0.1527963087794516,0.5955017083796896
-3.9865,0.02475421048725994,0.4365521323021782
-3.986,-0.5087545323968721,-0.1674562567923655
-3.9855,-0.9035510021311299,-0.8986243067489184
-3.985,-1.159635198715513,-1.502632695843462
-3.9845,-1.394379045584531,-1.809935209593318
-3.984,-0.9569018764195432,-1.280103289334946
-3.9835,-0.3593720843893152,-0.6443049850249
-3.983,0.04609456020262521,-0.2098428104130352
-3.9825,0.2594980573562781,0.02328323450064829
-3.982,0.3555296310754218,0.1080563417419877
-3.9815,0.3768699807907871,0.09745970333682032
-3.981,0.4302208550792003,0.02328323450064829
-3.9805,0.6756348768059011,-0.2416327256285375
-3.98,0.6756348768059011,-0.2310360872233701
-3.9795,0.5689331282290746,-0.08268314955102604
-3.979,0.4622313796522482,0.08686306493165288
-3.9785,0.3555296310754218,0.2246193641988295
-3.978,0.3661998059331045,0.4259554938970107
-3.9775,0.5475927785137094,0.5955017083796896
-3.977,0.09944543449103843,0.01268659609548085
-3.9765,-0.5407650569699201,-0.718481453861072
-3.976,-1.244996597576974,-1.290699927740113
-3.9755,-1.714484291315011,-1.619195718300304
-3.975,-1.405049220442214,-1.142346990067769
-3.9745,-0.8181896032696687,-0.4111789401112165
-3.974,-0.3166913849585846,0.2034260873884947
-3.9735,0.01408403562957729,0.6166949851900245
-3.973,0.1954770082101822,0.8286277532933731
-3.9725,0.2488278824985954,0.9028042221295453
-3.972,0.2594980573562781,0.9028042221295453
-3.9715,0.2274875327832301,0.8604176685088755
-3.971,0.1848068333524996,0.7968378380778709
-3.9705,0.142126133921769,0.7332580076468663
-3.97,0.08877525963335578,0.5955017083796896
-3.9695,-0.3060212101009019,0.13984625695749
-3.969,-0.7861790786966207,-0.6125150698093976
-3.9685,-0.8822106524157645,-1.280103289334946
-3.968,-1.052933450138687,-1.809935209593318
-3.9675,-0.7755089038389382,-1.566212526274467
-3.967,-0.2420001609548061,-0.8562377531282487
-3.9665,0.1314559590640864,-0.326405832869877
-3.966,0.3128489316446912,0.05507314971615059
-3.9655,0.3768699807907871,0.1822328105781598
-3.965,0.3875401556484697,0.1504428953626575
-3.9645,0.3661998059331045,0.04447651131098315
-3.964,0.5262524287983441,-0.2734226408440398
-3.9635,0.6649647019482183,-0.4535654937318862
-3.963,0.6116138276598051,-0.2946159176543747
-3.9625,0.4942419042252961,-0.04029659593035631
-3.962,0.3768699807907871,0.1610395337678249
-3.9615,0.3128489316446912,0.2881991946298341
-3.961,0.4195506802215176,0.2246193641988295
-3.9605,0.0674349099179905,-0.2946159176543747
-3.96,-0.5087545323968721,-0.9622041371799229
-3.9595,-1.180975548430879,-1.523825972653797
-3.959,-1.575772018165136,-1.767548655972648
-3.9585,-1.255666772434657,-1.163540266878104
-3.958,-0.722158029550525,-0.3899856633008816
-3.9575,-0.2526703358124887,0.2352160026039969
-3.957,0.04609456020262521,0.627291623595192
-3.9565,0.1954770082101822,0.8286277532933731
-3.956,0.2594980573562781,0.8922075837243778
-3.9555,0.2488278824985954,0.8710143069140429
-3.955,0.2274875327832301,0.8180311148882058
-3.9545,0.1954770082101822,0.7650479228623686
-3.954,0.1527963087794516,0.6908714540261965
-3.9535,0.1101156093487211,0.5743084315693548
-3.953,-0.01792648894347063,0.4047622170866759
-3.9525,-0.5514352318276028,-0.1674562567923655
-3.952,-1.010252750707956,-0.8880276683437509
-3.9515,-1.180975548430879,-1.492036057438295
-3.951,-1.031593100423322,-1.619195718300304
-3.9505,-0.4874141826815069,-0.9939940523954253
-3.95,0.01408403562957729,-0.3475991096802118
-3.9495,0.291508581929326,0.07626642652648545
-3.949,0.408880505363835,0.2246193641988295
-3.9485,0.4195506802215176,0.2034260873884947
-3.948,0.408880505363835,0.1610395337678249
-3.9475,0.5369226036560266,0.01268659609548085
-3.947,0.6649647019482183,-0.1250697031716958
-3.9465,0.5902734779444399,-0.08268314955102604
-3.946,0.4622313796522482,0.03387987290581572
-3.9455,0.3448594562177392,0.1504428953626575
-3.945,0.2808384070716433,0.2458126410091644
-3.9445,0.4408910299368829,0.2987958330350016
-3.944,0.4195506802215176,-0.1356663415768632
-3.9435,-0.1779791118087102,-0.8032545611024114
-3.943,-0.5834457564006506,-1.121153713257435
-3.9425,-1.06360362499637,-1.290699927740113
-3.942,-1.362368521011484,-1.269506650929778
-3.9415,-1.052933450138687,-0.6866915386455698
-3.941,-0.5834457564006506,0.002089957690313421
-3.9405,-0.1779791118087102,0.5425185163538525
-3.94,0.07810508477567314,0.8604176685088755
-3.9395,0.2061471830678648,1.019367244586387
-3.939,0.2594980573562781,1.051157159801889
-3.9385,0.2488278824985954,1.019367244586387
-3.938,0.2168173579255475,0.9557874141553824
-3.9375,0.1741366584948169,0.8710143069140429
-3.937,0.142126133921769,0.7438546460520338
-3.9365,0.0674349099179905,0.5743084315693548
-3.936,-0.4127229586777283,-0.008506680714854012
-3.9355,-0.8502001278427167,-0.7714646458869092
-3.935,-0.9569018764195432,-1.407262950196955
-3.9345,-0.8181896032696687,-1.42845622700729
-3.934,-0.3700422592469978,-0.8668343915334161
-3.9335,-0.01792648894347063,-0.3052125560595421
-3.933,0.2168173579255475,0.01268659609548085
-3.9325,0.3448594562177392,0.1080563417419877
-3.932,0.3768699807907871,0.06566978812131802
-3.9315,0.3768699807907871,-0.02969995752518888
-3.931,0.4408910299368829,-0.1144730647665284
-3.9305,0.6329541773751706,-0.2628260024388724
-3.93,0.6009436528021226,-0.1992461720078678
-3.9295,0.4835717293676135,-0.04029659593035631
-3.929,0.3768699807907871,0.13984625695749
-3.9285,0.3235191065023739,0.309392471440169
-3.928,0.2488278824985954,0.2776025562246667
-3.9275,-0.274010685527854,-0.2628260024388724
-3.927,-0.839529952985034,-0.8138511995075789
-3.9265,-1.458400094730627,-1.248313374119443
-3.926,-2.07727023647622,-1.492036057438295
-3.9255,-1.938557963326346,-1.280103289334946
-3.925,-1.191645723288561,-0.5489352393783931
-3.9245,-0.5514352318276028,0.1822328105781598
-3.924,-0.09261771294724913,0.7120647308365314
-3.9235,0.1634664836371343,0.9981739677760521
-3.923,0.2701682322139607,1.114736990232894
-3.9225,0.291508581929326,1.104140351827727
-3.922,0.2701682322139607,1.019367244586387
-3.9215,0.2381577076409128,0.9134008605347127
-3.921,0.1848068333524996,0.8074344764830383
-3.9205,0.1527963087794516,0.6484849004055269
-3.92,0.142126133921769,0.5001319627331828
-3.9195,-0.1352984123779797,0.1080563417419877
-3.919,-0.6154562809736985,-0.6019184314042303
-3.9185,-0.7648387289812555,-1.248313374119443
-3.918,-0.6047861061160158,-1.502632695843462
-3.9175,-0.1779791118087102,-1.121153713257435
-3.917,0.1634664836371343,-0.5807251545938954
-3.9165,0.3661998059331045,-0.2310360872233701
-3.916,0.4515612047945656,-0.09327978795619347
-3.9155,0.4515612047945656,-0.1038764263613609
-3.915,0.4195506802215176,-0.1356663415768632
-3.9145,0.3875401556484697,-0.1886495336027004
-3.914,0.5689331282290746,-0.3370024712750445
-3.9135,0.6116138276598051,-0.2840192792492073
-3.913,0.5262524287983441,-0.09327978795619347
-3.9125,0.4195506802215176,0.09745970333682032
-3.912,0.3448594562177392,0.2670059178194992
-3.9115,0.3128489316446912,0.4259554938970107
-3.911,0.5369226036560266,0.7120647308365314
-3.9105,0.3341892813600565,0.3305857482505039
-3.91,-0.1886492866663929,-0.4323722169215513
-3.9095,-0.7861790786966207,-1.025783967610927
-3.909,-1.415719395299897,-1.460246142222792
-3.9085,-1.437059745015262,-1.248313374119443
-3.908,-0.9675720512772257,-0.5383386009732256
-3.9075,-0.4554036581084589,0.13984625695749
-3.907,-0.07127736323188383,0.6378882620003594
-3.9065,0.1527963087794516,0.9134008605347127
-3.906,0.2488278824985954,1.040560521396722
-3.9055,0.2701682322139607,1.061753798207057
-3.905,0.2381577076409128,1.019367244586387
-3.9045,0.2061471830678648,0.9557874141553824
-3.904,0.1848068333524996,0.8816109453192104
-3.9035,0.1634664836371343,0.8074344764830383
-3.903,-0.07127736323188383,0.5213252395435176
-3.9025,-0.5941159312583333,-0.2204394488182027
-3.902,-0.9782422261349084,-0.9939940523954253
-3.9015,-0.9889124009925911,-1.42845622700729
-3.901,-0.6474668055467465,-1.184733543688439
-3.9005,-0.1886492866663929,-0.7502713690765743
-3.9,0.1527963087794516,-0.3793890248957141
-3.8995,0.3341892813600565,-0.1674562567923655
-3.899,0.3982103305061524,-0.08268314955102604
-3.8985,0.3875401556484697,-0.08268314955102604
-3.898,0.3875401556484697,-0.08268314955102604
-3.8975,0.4729015545099309,-0.09327978795619347
-3.897,0.5369226036560266,-0.1144730647665284
-3.8965,0.4835717293676135,-0.01910331912002144
-3.896,0.408880505363835,0.08686306493165288
-3.8955,0.3341892813600565,0.1822328105781598
-3.895,0.3021787567870086,0.2458126410091644
-3.8945,0.4195506802215176,-0.01910331912002144
-3.894,0.291508581929326,-0.6443049850249
-3.8935,-0.2633405106701714,-1.227120097309109
-3.893,-0.9035510021311299,-1.619195718300304
-3.8925,-1.277007122150022,-1.587405803084801
-3.892,-1.031593100423322,-0.8562377531282487
-3.8915,-0.5834457564006506,-0.06148987274069118
-3.891,-0.1779791118087102,0.5637117931641874
-3.8905,0.07810508477567314,0.9451907757502149
-3.89,0.2168173579255475,1.125333628638062
-3.8895,0.2594980573562781,1.167720182258731
-3.889,0.2701682322139607,1.135930267043229
-3.8885,0.2488278824985954,1.072350436612224
-3.888,0.2168173579255475,0.9769806909657173
-3.8875,0.1848068333524996,0.8816109453192104
