Class_6_Listen_To_Quran/Class_6_Listen_To_Quran_Basim_4.csv

#Digilent WaveForms Oscilloscope Acquisition
#Device Name: EExplorer
#Serial Number: SN:210151A2B84A
#Date Time: 2020-11-26 10:39:09.190
#Sample rate: 2000Hz
#Samples: 16384
#Trigger: Source: Channel 1 Type: Edge Condition: Rising Level: 0 V Hyst.: Auto HoldOff: 0 s
#Channel 1: Range: 1 V/div Offset: 0 V Attenuation: 1 X
#Channel 2: Range: 1 V/div Offset: 0 V Attenuation: 1 X
#Power Supplies: ON
#Fixed Supply: ON
#Voltage: 3.3 V Readback: 3.322 V
#Positive Supply: ON
#Voltage: 3.7 V Readback: 3.709 V
#Current: 500 mA Readback: 21 mA
#Negative Supply: ON
#Voltage: -3.7 V Readback: -3.703 V
#Current: -500 mA Readback: -6 mA
#Reference 1: ON
#Voltage: 0 V
#Reference 2: ON
#Voltage: 0 V

Time (s),Channel 1 (V),Channel 2 (V)
-4.096,0.7823366253827275,-0.326405832869877
-4.0955,0.8463576745287651,0.1610395337673816
-4.095,0.7823366253826401,0.4683420475177769
-4.0945,0.6863050516635838,0.5743084315693548
-4.094,0.6756348768059107,0.5637117931641971
-4.0935,0.8463576745288136,0.5001319627330671
-4.093,0.8356874996711408,0.3729723018711736
-4.0925,0.7396559259520842,0.2034260873886489
-4.092,0.6436243522327755,0.04447651131085786
-4.0915,0.5582629533713921,-0.09327978795619347
-4.091,0.3661998059331045,-0.02969995752518888
-4.0905,-0.3380317346746777,0.5849050699751582
-4.09,-1.138294849000148,1.284283204715573
-4.0895,-1.67180359188428,1.464426057603419
-4.089,-2.045259711902833,0.5531151547598487
-4.0885,-2.119950935906951,-0.570128516188728
-4.088,-1.405049220442214,-0.9304142219644207
-4.0875,-0.6047861061167437,-0.7290780922664225
-4.087,0.01408403562990725,-0.379389024895425
-4.0865,0.3768699807907871,-0.06148987274069118
-4.086,0.5582629533712271,0.1716361721727803
-4.0855,0.6009436528021129,0.330585748250581
-4.085,0.5902734779444399,0.4153588554918433
-4.0845,0.5582629533714212,0.4471487707073167
-4.084,0.5262524287983247,0.4471487707073359
-4.0835,0.5049120790829789,0.4365521323021782
-4.083,0.4515612047945656,0.3623756634660061
-4.0825,-0.07127736323260196,-0.1886495336034521
-4.082,-0.8608703027003992,-1.01518732920576
-4.0815,-1.373038695869166,-1.693372187136476
-4.081,-1.223656247861745,-1.778145294377738
-4.0805,-0.4660738329661415,-1.47084278062796
-4.08,0.2701682322139607,-1.078767159636765
-4.0795,0.7076454013785511,-0.5489352393788749
-4.079,0.8356874996711117,-0.01910331911967449
-4.0785,0.8036769750980928,0.3623756634660061
-4.078,0.7183155762367092,0.5637117931640043
-4.0775,0.6542945270906523,0.606098346784674
-4.077,0.7823366253827275,0.4047622170866759
-4.0765,0.8250173248134192,0.2246193641989933
-4.076,0.7609962756672749,0.1292496185522648
-4.0755,0.6649647019482183,0.06566978812131802
-4.075,0.5796033030867573,-0.008506680714854012
-4.0745,0.49424190422484,-0.01910331911961667
-4.074,-0.007256314085787988,0.4259554938970107
-4.0735,-0.7434983792658902,1.114736990232894
-4.073,-1.362368521010921,1.32666975833605
-4.0725,-1.853196564464885,0.55311515475902
-4.072,-2.205312334768412,-0.5807251545938954
-4.0715,-1.682473766742438,-1.099960436446627
-4.071,-0.8502001278420859,-0.9198175835588966
-4.0705,-0.156638762093345,-0.5277419625680583
-4.07,0.2915085819289185,-0.1674562567926932
-4.0695,0.515582253940739,0.09745970333697451
-4.069,0.6009436528021226,0.2670059178194992
-4.0685,0.6009436528021226,0.3623756634660061
-4.068,0.5689331282290455,0.4047622170866855
-4.0675,0.5369226036560266,0.4153588554918433
-4.067,0.5049120790829789,0.4047622170866759
-4.0665,0.4942419042250147,0.3729723018708652
-4.066,0.1848068333524996,0.03387987290581572
-4.0655,-0.6154562809736985,-0.7608680074817418
-4.065,-1.309017646722439,-1.523825972653103
-4.0645,-1.586442193022819,-1.990078062481164
-4.064,-0.9675720512772257,-1.915901593644992
-4.0635,-0.1246282375210637,-1.449649503818049
-4.063,0.4835717293678464,-0.8032545611017851
-4.0625,0.7396559259519968,-0.1144730647665284
-4.062,0.7823366253826887,0.3835689402758881
-4.0615,0.7396559259519289,0.6378882620004173
-4.061,0.6649647019482183,0.701468092431364
-4.0605,0.7289857510943143,0.5849050699745222
-4.06,0.8676980242441497,0.3517790250607037
-4.0595,0.825017324813458,0.2034260873884947
-4.059,0.7183155762366316,0.08686306493165288
-4.0585,0.6116138276599021,-0.01910331911992506
-4.058,0.5475927785137094,-0.1038764263613609
-4.0575,0.2168173579255475,0.1504428953626575
-4.057,-0.5727755815422499,0.8392243916979143
-4.0565,-1.223656247861609,1.369056311956912
-4.056,-1.693143941599645,0.9134008605347127
-4.0555,-2.141291285621909,-0.2310360872223293
-4.055,-1.874536914179513,-0.9939940523953964
-4.0545,-1.06360362499637,-0.9622041371799229
-4.054,-0.316691384959264,-0.6231117082148735
-4.0535,0.1954770082104345,-0.2522293640334448
-4.053,0.4729015545099309,0.03387987290581572
-4.0525,0.5902734779444399,0.2140227257936621
-4.052,0.6009436528021032,0.3199891098453749
-4.0515,0.5796033030867573,0.3623756634660061
-4.051,0.5369226036560266,0.383568940276341
-4.0505,0.5155822539406808,0.3729723018711832
-4.05,0.4942419042252961,0.3517790250608387
-4.0495,0.3768699807907871,0.1928294489833272
-4.049,-0.3060212101002809,-0.5065486857570873
-4.0485,-0.9782422261352287,-1.322489842956136
-4.048,-1.330357996438436,-1.894708316834657
-4.0475,-1.010252750708247,-1.756952017567606
-4.047,-0.2526703358119065,-1.364876396575842
-4.0465,0.3875401556484697,-0.8774310299385835
-4.046,0.7289857510940038,-0.3264058328703782
-4.0455,0.8036769750980539,0.1822328105784489
-4.045,0.7609962756673623,0.5001319627331828
-4.0445,0.6863050516635838,0.6378882620003594
-4.044,0.6756348768061049,0.7014680924314989
-4.0435,0.8997085488172365,0.849821030103708
-4.043,0.9210488985326017,0.7226613692416989
-4.0425,0.8036769750981996,0.457745409112754
-4.042,0.6863050516635838,0.1928294489833272
-4.0415,0.5796033030867573,-0.008506680714854012
-4.041,0.4088805053639903,0.01268659609546158
-4.0405,-0.2740106855285915,0.5849050699751486
-4.04,-1.084943974711735,1.273686566310405
-4.0395,-1.554431668449344,1.475022696008403
-4.039,-1.927887788468751,0.5955017083786873
-4.0385,-2.023919362187807,-0.5065486857577234
-4.038,-1.351698346154412,-0.835044476317615
-4.0375,-0.5727755815424246,-0.6337083466194144
-4.037,0.02475421048725994,-0.2840192792492073
-4.0365,0.3875401556484697,0.03387987290581572
-4.036,0.5475927785137579,0.2670059178196342
-4.0355,0.6009436528021226,0.4153588554918433
-4.035,0.5902734779444399,0.5001319627331828
-4.0345,0.5582629533714212,0.5319218779486562
-4.034,0.5262524287983441,0.5213252395435176
-4.0335,0.5049120790829789,0.5001319627331828
-4.033,0.462231379652287,0.4153588554919204
-4.0325,-0.0285966638018617,-0.1356663415776246
-4.032,-0.807519428411986,-0.9728007755850904
-4.0315,-1.373038695868652,-1.682775548730663
-4.031,-1.437059745014602,-1.862918401618866
-4.0305,-0.7114878546928423,-1.545019249464132
-4.03,0.07810508477495504,-1.068170521232031
-4.0295,0.5902734779446048,-0.4959520473520548
-4.029,0.7716664505250448,0.05507314971615059
-4.0285,0.7823366253827275,0.4259554938970107
-4.028,0.7289857510942463,0.5955017083797089
-4.0275,0.6542945270905358,0.6166949851900245
-4.027,0.79300680024041,0.6696781772158616
-4.0265,0.8783681991017936,0.6272916235952305
-4.026,0.8036769750980928,0.4365521323021782
-4.0255,0.6863050516635838,0.2034260873884947
-4.025,0.6009436528022002,0.01268659609565431
-4.0245,0.48357172936707,-0.07208651114545384
-4.024,-0.1139580626626144,0.3729723018711736
-4.0235,-0.9995825758494682,1.082947075016746
-4.023,-1.72515446617314,1.633972272085741
-4.0225,-2.215982509626095,1.241896651094903
-4.022,-2.440056181637226,0.05507314971722987
-4.0215,-1.767835165602589,-0.6337083466197422
-4.021,-0.8502001278427167,-0.6443049850249
-4.0205,-0.1352984123779797,-0.3793890248957141
-4.02,0.312848931644895,-0.0932797879559718
-4.0195,0.5369226036560266,0.1504428953626575
-4.019,0.6116138276598051,0.309392471440169
-4.0185,0.6116138276598051,0.4047622170865891
-4.018,0.5689331282290746,0.4471487707073456
-4.0175,0.5369226036560266,0.4471487707073456
-4.017,0.5155822539406808,0.4365521323021878
-4.0165,0.5049120790827557,0.4047622170864156
-4.016,0.2594980573562781,0.1186529801471552
-4.0155,-0.5300948821115192,-0.6549016234293639
-4.015,-1.202315898146448,-1.439052865412901
-4.0145,-1.426389570157579,-1.926498232050159
-4.014,-0.8928808272739325,-1.788741932783108
-4.0135,-0.1032878878043883,-1.333086481360243
-4.013,0.4942419042252961,-0.7396747306714069
-4.0125,0.7609962756673623,-0.1250697031716958
-4.012,0.8143471499557171,0.3411823866559122
-4.0115,0.7503261008096795,0.6060983467848571
-4.011,0.6756348768059011,0.6908714540261965
-4.0105,0.6969752265212469,0.5213252395436718
-4.01,0.825017324813458,0.1928294489833272
-4.0095,0.79300680024041,0.05507314971615059
-4.009,0.6969752265213537,-0.008506680714796183
-4.0085,0.6116138276597469,-0.061489872740749
-4.008,0.5475927785137094,-0.1250697031716958
-4.0075,0.2274875327835212,0.09745970333661794
-4.007,-0.5514352318282724,0.7650479228628794
-4.0065,-1.287677297007705,1.326669758336243
-4.006,-1.778505340461106,1.082947075017392
-4.0055,-2.194642159910613,0.1186529801463167
-4.005,-2.066600061618538,-0.8032545611024114
-4.0045,-1.244996597576974,-0.9516074987747555
-4.004,-0.444733483250262,-0.6760949002400842
-4.0035,0.1207857842064037,-0.326405832869877
-4.003,0.4408910299368829,-0.02969995752518888
-4.0025,0.5796033030866312,0.1716361721728092
-4.002,0.6116138276598051,0.309392471440169
-4.0015,0.5796033030867573,0.3729723018711736
-4.001,0.5475927785137384,0.4047622170866469
-4.0005,0.5262524287983247,0.4047622170866662
-4,0.5049120790829789,0.3941655786815084
-3.9995,0.3982103305061524,0.2564092794143318
-3.999,-0.2633405106701714,-0.4111789401112165
-3.9985,-0.9889124009925911,-1.216523458903942
-3.998,-1.394379045584531,-1.831128486403653
-3.9975,-1.138294849000148,-1.968884785670829
-3.997,-0.3807124341046804,-1.598002441489969
-3.9965,0.3021787567870086,-1.01518732920576
-3.996,0.6863050516635838,-0.3370024712750445
-3.9955,0.79300680024041,0.2458126410091644
-3.995,0.7609962756673623,0.6166949851900245
-3.9945,0.6863050516635838,0.7650479228623686
-3.994,0.6542945270905358,0.7544512844572011
-3.9935,0.8356874996711408,0.7544512844572011
-3.993,0.857027849386506,0.6060983467848571
-3.9925,0.7609962756673623,0.4047622170866759
-3.992,0.6649647019482183,0.2034260873884947
-3.9915,0.5796033030867573,0.03387987290581572
-3.991,0.408880505363835,0.02328323450064829
-3.9905,-0.3060212101009019,0.5637117931641874
-3.99,-1.202315898146244,1.231300012689736
-3.9895,-1.970568487899394,1.623375633680931
-3.989,-2.472066706210478,0.92399749893988
-3.9885,-2.3973754822067,-0.2098428104130352
-3.988,-1.522421143876723,-0.6549016234300674
-3.9875,-0.6261264558313813,-0.5913217929990628
-3.987,0.03542438534494258,-0.3370024712750445
-3.9865,0.408880505363835,-0.09327978795619347
-3.986,0.5796033030867573,0.09745970333682032
-3.9855,0.6222840025174878,0.2246193641988295
-3.985,0.6009436528021226,0.309392471440169
-3.9845,0.5689331282290746,0.3411823866556712
-3.984,0.5262524287983441,0.3623756634660061
-3.9835,0.5049120790829789,0.3623756634660061
-3.983,0.4835717293676135,0.3199891098453364
-3.9825,0.03542438534494258,-0.1462629799820306
-3.982,-0.7861790786966207,-0.9622041371799229
-3.9815,-1.479740444445993,-1.661582271920973
-3.981,-1.639793067311232,-2.000674700886331
-3.9805,-0.9569018764195432,-1.714565463946811
-3.98,-0.124628237520297,-1.163540266878104
-3.9795,0.4515612047945656,-0.4853554089473885
-3.979,0.7183155762366316,0.09745970333682032
-3.9785,0.7823366253827275,0.5001319627331828
-3.978,0.7396559259519968,0.701468092431364
-3.9775,0.6649647019482183,0.7332580076468663
-3.977,0.825017324813458,0.8604176685088755
-3.9765,0.9317190733902845,0.8180311148882058
-3.976,0.857027849386506,0.55311515475902
-3.9755,0.7289857510943143,0.2458126410091644
-3.975,0.6222840025174878,-0.01910331912002144
-3.9745,0.5262524287983441,-0.1780528951975329
-3.974,0.1207857842064037,0.1610395337678249
-3.9735,-0.7328282044082075,0.8710143069140429
-3.973,-1.437059745015262,1.453829419198252
-3.9725,-1.83185621474952,1.316073119931075
-3.972,-2.151961460479999,0.2987958330350016
-3.9715,-1.767835165603424,-0.5171453241628908
-3.971,-0.9462317015618604,-0.6443049850249
-3.9705,-0.2420001609548061,-0.4323722169215513
-3.97,0.2488278824985954,-0.1568596183871981
-3.9695,0.5049120790829789,0.09745970333682032
-3.969,0.6009436528021226,0.2881991946298341
-3.9685,0.6116138276598051,0.4153588554918433
-3.968,0.5796033030867573,0.5001319627331828
-3.9675,0.5475927785137094,0.5213252395435176
-3.967,0.5155822539406614,0.5213252395435176
-3.9665,0.5049120790829789,0.5001319627331828
-3.966,0.3341892813600565,0.2670059178194992
-3.9655,-0.4127229586777283,-0.4641621321370536
-3.965,-1.234326422719292,-1.248313374119443
-3.9645,-1.629122892453549,-1.725162102351978
-3.964,-1.095614149569417,-1.534422611058964
-3.9635,-0.2313299860971235,-1.195330182093607
-3.963,0.4302208550792003,-0.7396747306714069
-3.9625,0.7503261008096795,-0.2098428104130352
-3.962,0.825017324813458,0.2246193641988295
-3.9615,0.7823366253827275,0.5107286011383502
-3.961,0.707645401378949,0.627291623595192
-3.9605,0.7396559259519968,0.5637117931641874
-3.96,0.8997085488172365,0.3623756634660061
-3.9595,0.8676980242441885,0.2352160026039969
-3.959,0.7503261008096795,0.1504428953626575
-3.9585,0.6436243522328531,0.07626642652648545
-3.958,0.5689331282290746,-0.01910331912002144
-3.9575,0.3555296310754218,0.1080563417419877
-3.957,-0.3487019095316325,0.7226613692416989
-3.9565,-0.9889124009925911,1.305476481525908
-3.956,-1.405049220442214,1.157123543853563
-3.9555,-1.757164990745741,0.2246193641988295
-3.955,-1.853196564464885,-0.7714646458869092
-3.9545,-1.223656247861609,-0.9833974139902578
-3.954,-0.4980843575391895,-0.7396747306714069
-3.9535,0.0674349099179905,-0.3793890248957141
-3.953,0.3982103305061524,-0.08268314955102604
-3.9525,0.5582629533713921,0.1292496185523226
-3.952,0.6009436528021226,0.2670059178194992
-3.9515,0.5902734779444399,0.3411823866556712
-3.951,0.5582629533713921,0.3623756634660061
-3.9505,0.5262524287983441,0.3729723018711736
-3.95,0.5049120790829789,0.3623756634660061
-3.9495,0.4408910299368829,0.2670059178194992
-3.949,-0.1459685872356623,-0.3475991096802118
-3.9485,-0.9248913518464952,-1.152943628472937
-3.948,-1.405049220442214,-1.79933857118815
-3.9475,-1.212986073003927,-1.788741932782983
-3.947,-0.4554036581084589,-1.38606967338662
-3.9465,0.2701682322139607,-0.8880276683437509
-3.946,0.6863050516635838,-0.3052125560595421
-3.9455,0.8143471499557753,0.2140227257936621
-3.945,0.7823366253827275,0.5425185163538525
-3.9445,0.6969752265212663,0.6908714540261965
-3.944,0.6542945270905358,0.6908714540261965
-3.9435,0.8463576745288233,0.6378882620003594
-3.943,0.8890383739595538,0.5107286011383502
-3.9425,0.8036769750980928,0.3517790250608387
-3.942,0.6863050516635838,0.2034260873884947
-3.9415,0.6009436528021226,0.06566978812131802
-3.941,0.4515612047945656,0.04447651131098315
-3.9405,-0.1993194615240755,0.5425185163538525
-3.94,-1.052933450138687,1.210106735879401
-3.9395,-1.586442193022819,1.506812611224089
-3.939,-1.917217613610981,0.7438546460520338
-3.9385,-2.119950935906951,-0.4323722169215513
-3.938,-1.533091318734406,-0.9410108603695881
-3.9375,-0.722158029550525,-0.8032545611024114
-3.937,-0.07127736323188383,-0.4641621321370536
-3.9365,0.3341892813600565,-0.1462629799820306
-3.936,0.5369226036560266,0.09745970333682032
-3.9355,0.6116138276598051,0.2564092794143318
-3.935,0.6009436528021226,0.3517790250608387
-3.9345,0.5689331282290746,0.3941655786815084
-3.934,0.5369226036560266,0.4047622170866759
-3.9335,0.5155822539406614,0.383568940276341
-3.933,0.4942419042252961,0.3517790250608387
-3.9325,0.1314559590640864,-0.07208651114585861
-3.932,-0.6154562809736985,-0.8774310299385835
-3.9315,-1.159635198715513,-1.598002441489969
-3.931,-1.447729919872945,-1.937094870455327
-3.9305,-0.9142211769888124,-1.598002441489969
-3.93,-0.156638762093345,-1.01518732920576
-3.9295,0.408880505363835,-0.3687923864905467
-3.929,0.6863050516635838,0.1822328105781598
-3.9285,0.7609962756673623,0.55311515475902
-3.928,0.7289857510943143,0.7226613692416989
-3.9275,0.6649647019482183,0.7438546460520338
-3.927,0.7716664505250448,0.5319218779486851
-3.9265,0.8890383739595538,0.2881991946298341
-3.926,0.825017324813458,0.13984625695749
-3.9255,0.7183155762366316,0.04447651131098315
-3.925,0.6222840025174878,-0.06148987274069118
-3.9245,0.5369226036560266,-0.1356663415768632
-3.924,0.1207857842064037,0.1928294489833272
-3.9235,-0.722158029550525,0.8816109453192104
-3.923,-1.415719395299897,1.453829419198252
-3.9225,-1.853196564464885,1.188913459069066
-3.922,-2.247993034199143,0.05507314971615059
-3.9215,-1.83185621474952,-0.7290780922662394
-3.921,-0.9782422261349084,-0.7820612842920766
-3.9205,-0.2526703358124887,-0.5171453241628908
-3.92,0.2381577076409128,-0.2098428104130352
-3.9195,0.5049120790829789,0.04447651131098315
-3.919,0.6009436528021226,0.2034260873884947
-3.9185,0.6116138276598051,0.309392471440169
-3.918,0.5902734779444399,0.3517790250608387
-3.9175,0.5475927785137094,0.3623756634660061
-3.917,0.5155822539406614,0.3517790250608387
-3.9165,0.5049120790829789,0.3411823866556712
-3.916,0.3341892813600565,0.13984625695749
-3.9155,-0.391382608962363,-0.6019184314042303
-3.915,-1.159635198715513,-1.396666311791788
-3.9145,-1.67180359188428,-1.915901593644992
-3.914,-1.255666772434657,-1.714565463946811
-3.9135,-0.4127229586777283,-1.237716735714276
-3.913,0.3021787567870086,-0.6654982618352349
-3.9125,0.6756348768059011,-0.09327978795619347
-3.912,0.79300680024041,0.3411823866556712
-3.9115,0.7716664505250448,0.6060983467848571
-3.911,0.6969752265212663,0.701468092431364
-3.9105,0.707645401378949,0.6908714540261965
-3.91,0.8783681991018712,0.6484849004055269
-3.9095,0.857027849386506,0.5107286011383502
-3.909,0.7503261008096795,0.3517790250608387
-3.9085,0.6436243522328531,0.1822328105781598
-3.908,0.5689331282290746,0.02328323450064829
-3.9075,0.3448594562177392,0.1080563417419877
-3.907,-0.4127229586777283,0.6908714540261965
-3.9065,-1.191645723288561,1.326669758336243
-3.906,-1.586442193022819,1.358459673551745
-3.9055,-1.895877263895616,0.3623756634660061
-3.905,-1.959898313041711,-0.7078848154559045
-3.9045,-1.287677297007705,-0.9833974139902578
-3.904,-0.5300948821122373,-0.7396747306714069
-3.9035,0.05676473506030786,-0.3793890248957141
-3.903,0.408880505363835,-0.07208651114585861
-3.9025,0.5689331282290746,0.1504428953626575
-3.902,0.6116138276598051,0.2776025562246667
-3.9015,0.5902734779444399,0.3517790250608387
-3.901,0.5689331282290746,0.3729723018711736
-3.9005,0.5369226036560266,0.3729723018711736
-3.9,0.5155822539406614,0.3623756634660061
-3.8995,0.4515612047945656,0.2776025562246667
-3.899,-0.1139580626626144,-0.3158091944647096
-3.8985,-0.8715404775580819,-1.142346990067769
-3.898,-1.458400094730627,-1.79933857118815
-3.8975,-1.437059745015262,-1.873515040024322
-3.897,-0.6688071552621118,-1.481439419033127
-3.8965,0.1207857842064037,-0.9939940523954253
-3.896,0.6116138276598051,-0.4217755785163839
-3.8955,0.8036769750980928,0.13984625695749
-3.895,0.8036769750980928,0.5213252395435176
-3.8945,0.7289857510943143,0.6802748156210291
-3.894,0.6756348768059011,0.701468092431364
-3.8935,0.8463576745288233,0.8286277532933731
-3.893,0.8890383739595538,0.7226613692416989
-3.8925,0.8036769750980928,0.4789386859228479
-3.892,0.6863050516635838,0.2140227257936621
-3.8915,0.6009436528021226,-0.008506680714854012
-3.891,0.4729015545099309,-0.08268314955102604
-3.8905,-0.1459685872356623,0.3941655786815084
-3.89,-0.9995825758502737,1.082947075017392
-3.8895,-1.501080794161358,1.485619334413754
-3.889,-1.83185621474952,0.8392243916985406
-3.8885,-2.03458953704549,-0.2946159176543747
-3.888,-1.447729919872945,-0.7820612842920766
-3.8875,-0.6688071552621118,-0.6654982618352349
-3.887,-0.03926683865883591,-0.3475991096802118
-3.8865,0.3555296310754218,-0.02969995752518888
-3.886,0.5475927785137094,0.2140227257936621
