Class_6_Listen_To_Quran/Class_6_Listen_To_quran_Zakour_7.csv

#Digilent WaveForms Oscilloscope Acquisition
#Device Name: EExplorer
#Serial Number: SN:210151A2B84A
#Date Time: 2020-12-21 15:18:43.621
#Sample rate: 2000Hz
#Samples: 16384
#Trigger: Source: Channel 1 Type: Edge Condition: Rising Level: 0 V Hyst.: Auto HoldOff: 0 s
#Channel 1: Range: 1 V/div Offset: 0 V
#Channel 2: Range: 1 V/div Offset: 0 V

Time (s),Channel 1 (V),Channel 2 (V)
-4.0960000000000001,0.78233662538272752,-0.68669153864556975
-4.0955000000000004,0.75032610080970863,-0.62311170821462292
-4.0949999999999998,0.66496470194816981,-0.46416213213683194
-4.0945,0.6116138276598051,-0.22043944881820265
-4.0940000000000003,0.53692260365609457,-0.061489872740835727
-4.0934999999999997,0.47290155450988236,0.04447651131106025
-4.093,0.41955068022151765,0.12924961855232261
-4.0925000000000002,0.39821033050617183,0.19282944898326937
-4.0919999999999996,0.33418928135970716,0.33058574825084119
-4.0914999999999999,-0.049937013516518552,0.70146809243136399
-4.0910000000000002,-0.62612645583138127,1.0723504366122243
-4.0904999999999996,-0.95690187641995073,1.2842832047156114
-4.0899999999999999,-1.405049220442214,1.3266697583362426
-4.0895000000000001,-1.3943790455845313,1.0087706061812196
-4.0890000000000004,-0.90355100213157635,0.23521600260470044
-4.0884999999999998,-0.35937208438931517,-0.48535540894738849
-4.0880000000000001,0.035424385344942577,-0.95160749877475548
-4.0875000000000004,0.25949805735607429,-1.142346990067596
-4.0869999999999997,0.3661998059331239,-1.1317503516624767
-4.0865,0.38754015564846972,-0.99399405239542526
-4.0860000000000003,0.37686998079079681,-0.79265792269742708
-4.0854999999999997,0.28083840707157537,-0.57012851618853522
-4.085,0.20614718306786484,-0.3581957480853793
-4.0845000000000002,0.18480683335251896,-0.16745625679253898
-4.0839999999999996,0.1954770082099784,0.033879872906047021
-4.0834999999999999,-0.028596663801153277,0.28819919462983412
-4.0830000000000002,-0.71148785469284226,0.61669498519002452
-4.0824999999999996,-1.3730386958693503,1.0087706061813353
-4.0819999999999999,-1.5757720181651362,1.1359302670432285
-4.0815000000000001,-0.90355100213112993,0.70146809243136399
-4.0810000000000004,-0.060607188374967813,0.086863064932211853
-4.0804999999999998,0.54759277851370936,-0.37938902489571413
-4.0800000000000001,0.84635767452882327,-0.62311170821456507
-4.0795000000000003,0.89970854881718798,-0.73967473067130085
-4.0789999999999997,0.84635767452873589,-0.70788481545579851
-4.0785,0.75032610080967954,-0.59132179299906285
-4.0780000000000003,0.86769802424408171,-0.46416213213716928
-4.0774999999999997,0.91037872367479311,-0.28401927924910125
-4.077,0.77166645052504479,-0.1674562567923655
-4.0765000000000002,0.59027347794460483,-0.10387642636141874
-4.0759999999999996,0.47290155450991145,-0.061489872740623716
-4.0754999999999999,0.45156120479456557,0.012686596095480854
-4.0750000000000002,0.857027849386506,0.29879583303500157
-4.0744999999999996,1.0597611716819328,0.62729162359550039
-4.0739999999999998,0.4622313796522482,0.96638405256054982
-4.0735000000000001,-0.20998963638175816,1.1147369902328941
-4.0730000000000004,-0.4233931335352169,0.68027481562142422
-4.0724999999999998,-0.27401068552785401,-0.04029659593035631
-4.0720000000000001,-0.049937013516518552,-0.64430498502489997
-4.0715000000000003,0.13145595906392138,-1.0045906908002649
-4.0709999999999997,0.2594980573563363,-1.1423469900677501
-4.0705,0.32351910650237387,-1.1211537132574345
-4.0700000000000003,0.34485945621771974,-1.0045906908006985
-4.0694999999999997,0.33418928136002746,-0.84564111472292702
-4.069,0.30217875678700862,-0.67609490024040231
-4.0685000000000002,0.23815770764091276,-0.49595204735255594
-4.0679999999999996,0.18480683335246073,-0.31580919446451683
-4.0674999999999999,0.14212613392176898,-0.10387642636136091
-4.0670000000000002,-0.092617712947249131,0.20342608738849466
-4.0664999999999996,-0.8075194284125391,0.65908153881108933
-4.0659999999999998,-1.4157193952998968,1.0935437134225592
-4.0655000000000001,-1.7144842913150107,1.3160731199310751
-4.0650000000000004,-1.1169544992853262,1.0405605213969724
-4.0644999999999998,-0.26334051067017139,0.39416557868150842
-4.0640000000000001,0.40888050536383502,-0.19924617200786782
-4.0635000000000003,0.7823366253823878,-0.59132179299870624
-4.0629999999999997,0.87836819910181307,-0.72907809226618159
-4.0625,0.81434714995577528,-0.66549826183523486
-4.0620000000000003,0.69697522652137311,-0.50654868575786793
-4.0614999999999997,0.70764540137906551,-0.25222936403346408
-4.0609999999999999,0.83568749967114075,0.012686596095480854
-4.0605000000000002,0.75032610080967954,0.055073149716150585
-4.0599999999999996,0.61161382765968864,0.0020899576902748706
-4.0594999999999999,0.4835717293676135,-0.04029659593035631
-4.0590000000000002,0.40888050536383502,-0.050893234335523743
-4.0585000000000004,0.5582629533712562,-0.040296595930365949
-4.0579999999999998,0.66496470194821833,0.023283234500648287
-4.0575000000000001,-0.06060718837420119,0.4471487707073456
-4.0570000000000004,-1.0849439747108032,0.87101430691365733
-4.0564999999999998,-1.7998456901764717,1.0829470750173917
-4.056,-1.5971123678805015,0.71206473083653143
-4.0555000000000003,-0.95690187642012547,-0.0085066807141986889
-4.0549999999999997,-0.3593720843889367,-0.62311170821490236
-4.0545,0.05676473506030786,-0.99399405239542526
-4.0540000000000003,0.28083840707143953,-1.1211537132573188
-4.0534999999999997,0.37686998079079681,-1.0893637980418165
-4.0529999999999999,0.38754015564846972,-0.96220413717992292
-4.0525000000000002,0.36619980593310447,-0.792657922697244
-4.0519999999999996,0.33418928135996923,-0.61251506980921455
-4.0514999999999999,0.23815770764091276,-0.41117894011121647
-4.0510000000000002,0.15279630877945163,-0.2310360872233701
-4.0505000000000004,0.024754210487376388,0.023283234500416972
-4.0499999999999998,-0.59411593125833329,0.4471487707073456
-4.0495000000000001,-1.2556667724346571,0.92399749893988004
-4.0490000000000004,-1.7571649907452851,1.284283204715245
-4.0484999999999998,-1.7678351656027447,1.1995100974736839
-4.048,-1.0209229255656389,0.59550170837968963
-4.0475000000000003,-0.16730893695180404,-0.050893234334935866
-4.0469999999999997,0.45156120479485673,-0.51714532416302572
-4.0465,0.77166645052504479,-0.66549826183523486
-4.0460000000000003,0.8570278493864284,-0.64430498502491929
-4.0454999999999997,0.81434714995571711,-0.52774196256790407
-4.0449999999999999,0.75032610080967954,-0.3581957480853793
-4.0445000000000002,0.87836819910187125,-0.061489872740691176
-4.0439999999999996,0.83568749967098543,0.055073149716112033
-4.0434999999999999,0.66496470194821833,0.012686596095480854
-4.0430000000000001,0.51558225394066137,-0.04029659593035631
-4.0425000000000004,0.41955068022160502,-0.050893234335514105
-4.0419999999999998,0.36619980593310447,0.076266426526485451
-4.0415000000000001,0.63295417737517057,0.50013196273318283
-4.0410000000000004,0.48357172936774939,0.93459413734465235
-4.0404999999999998,-0.28468086038628387,1.19951009747432
-4.04,-1.1062843244271001,1.2948798431207402
-4.0395000000000003,-1.309017646722886,0.98757732937116427
-4.0389999999999997,-0.91422117698835637,0.22461936419818379
-4.0385,-0.41272295867772835,-0.48535540894738849
-4.0380000000000003,-0.017926488943829644,-0.91981758355885812
-4.0374999999999996,0.21681735792565424,-1.0999604364470708
-4.0369999999999999,0.33418928136005654,-1.0681705212315973
-4.0365000000000002,0.36619980593310447,-0.9304142219644207
-4.0359999999999996,0.36619980593305596,-0.7290780922660467
-4.0354999999999999,0.31284893164469124,-0.51714532416289083
-4.0350000000000001,0.23815770764091276,-0.29461591765437467
-4.0345000000000004,0.18480683335254808,-0.082683149551218804
-4.0339999999999998,0.15279630877945163,0.17163617217299235
-4.0335000000000001,-0.28468086038553664,0.53192187794868506
-4.0330000000000004,-0.97824222613427758,0.96638405256015469
-4.0324999999999998,-1.4690702695885913,1.3054764815260811
-4.032,-1.7785053404611064,1.4962159728189213
-4.0315000000000003,-1.5544316684499748,1.2418966510951344
-4.0309999999999997,-0.7968492535536047,0.54251851635325499
-4.0305,-0.028596663801153277,-0.11447306476652835
-4.0300000000000002,0.51558225394016644,-0.55953187778315572
-4.0294999999999996,0.78233662538275661,-0.76086800748173211
-4.0289999999999999,0.81434714995577528,-0.75027136907657432
-4.0285000000000002,0.71831557623663156,-0.64430498502489997
-4.0279999999999996,0.78233662538277604,-0.37938902489550208
-4.0274999999999999,0.83568749967114075,-0.14626297998203064
-4.0270000000000001,0.71831557623663156,-0.050893234335523743
-4.0265000000000004,0.57960330308688346,-0.0085066807148925644
-4.0259999999999998,0.45156120479456557,0.023283234500648287
-4.0255000000000001,0.3982103305061524,0.044476511310983152
-4.0250000000000004,0.75032610080935935,-0.17805289519733053
-4.0244999999999997,1.3691962425548263,-0.89862430674960259
-4.024,0.87836819910187125,-1.650985633515806
-4.0235000000000003,-0.26334051066913311,-1.7569520175673841
-4.0229999999999997,-1.3196878215809178,-0.95160749877423501
-4.0225,-1.5010807941613578,-0.37938902489571413
-4.0220000000000002,-1.0422632752814214,-0.3687923864905564
-4.0214999999999996,-0.47674400782343607,-0.5913217929992749
-4.0209999999999999,-0.049937013516518552,-0.82444783791274634
-4.0205000000000002,0.21681735792554749,-0.98339741399025782
-4.0199999999999996,0.33418928136009535,-1.0681705212316068
-4.0194999999999999,0.3768699807907871,-1.0787671596367647
-4.0190000000000001,0.34485945621773917,-1.0257839676109275
-4.0185000000000004,0.28083840707170155,-0.94101086036966519
-4.0179999999999998,0.20614718306786484,-0.84564111472308123
-4.0175000000000001,0.14212613392176898,-0.65490162343006741
-4.0170000000000003,-0.10328788780470854,-0.30521255605986014
-4.0164999999999997,-0.78617907869716419,0.26700591782001004
-4.016,-1.3837088707268488,0.82862775329337313
-4.0155000000000003,-1.8638667393221309,1.2418966510945271
-4.0149999999999997,-2.0772702364757447,1.347863035146134
-4.0145,-1.554431668449771,0.86041766850887547
-4.0140000000000002,-0.66880715526291723,0.24581264100972344
-4.0134999999999996,0.056764735060705743,-0.15685961838740048
-4.0129999999999999,0.49424190422529612,-0.37938902489571413
-4.0125000000000002,0.69697522652126631,-0.50654868575772338
-4.0119999999999996,0.71831557623663156,-0.49595204735244031
-4.0114999999999998,0.71831557623663156,-0.36879238649054674
-4.0110000000000001,0.76099627566736228,-0.20984281041303524
-4.0105000000000004,0.6649647019483057,0.012686596095278474
-4.0099999999999998,0.5689331282290746,0.23521600260399694
-4.0095000000000001,0.4835717293676135,0.38356894027634103
-4.0090000000000003,0.41955068022157588,0.46834204751760339
-4.0084999999999997,0.55826295337173171,0.4471487707067866
-4.008,0.93171907339028448,-0.1674562567923655
-4.0075000000000003,0.48357172936802106,-0.77146464588635988
-4.0069999999999997,-0.1886492866670722,-0.49595204735199694
-4.0065,-0.93556152670417769,0.11865298014715518
-4.0060000000000002,-1.0636036249963696,0.26700591781949923
-4.0054999999999996,-0.71148785469245412,-0.13566634157732579
-4.0049999999999999,-0.28468086038553664,-0.64430498502489997
-4.0045000000000002,0.046094560202625215,-1.0575738828264298
-4.0039999999999996,0.23815770764100011,-1.3224898429557312
-4.0034999999999998,0.33418928136005654,-1.4496495038176249
-4.0030000000000001,0.36619980593310447,-1.4708427806279598
-4.0025000000000004,0.3448594562177586,-1.4284562270073287
-4.0019999999999998,0.28083840707164331,-1.3224898429556156
-4.0015000000000001,0.22748753278323011,-1.1953301820936066
-4.0010000000000003,0.16346648363719252,-1.0257839676110816
-4.0004999999999997,0.12078578420602523,-0.82444783791237053
-4,-0.29535103524321932,-0.41117894011121647
-3.9994999999999998,-1.0102527507079564,0.13984625695749003
-3.9990000000000001,-1.6397930673112322,0.74385464605203377
-3.9984999999999999,-1.9065474387532981,1.0617537982070568
-3.9980000000000002,-1.3623685210114835,0.78624119967270345
-3.9975000000000001,-0.4980843575391895,0.23521600260399694
-3.9969999999999999,0.23815770764091276,-0.19924617200786782
-3.9965000000000002,0.65429452709053582,-0.42177557851638392
-3.996,0.79300680024041004,-0.42177557851638392
-3.9954999999999998,0.77166645052504479,-0.26282600243887239
-3.9950000000000001,0.71831557623663156,-0.0085066807148540119
-3.9944999999999999,0.86769802424418851,0.27760255622466667
-3.9940000000000002,0.857027849386506,0.41535885549184332
-3.9935,0.73965592595199681,0.43655213230217815
-3.9929999999999999,0.6116138276598051,0.4471487707073456
-3.9925000000000002,0.4835717293676135,0.42595549389701071
-3.992,0.34485945621773917,0.42595549389701071
-3.9914999999999998,0.18480683335249956,0.54251851635385251
-3.9910000000000001,-0.27401068552785401,0.7968378380778709
-3.9904999999999999,-1.0315931004233216,1.0935437134225592
-3.9900000000000002,-1.7251544661726932,1.2736865663104053
-3.9895,-1.6611334170265974,1.0193672445863871
-3.9889999999999999,-1.0636036249963696,0.26700591781949923
-3.9885000000000002,-0.44473348325077627,-0.47475877054222104
-3.988,-0.0072563140857879876,-0.97280077558509037
-3.9874999999999998,0.24882788249859539,-1.227120097309109
-3.9870000000000001,0.36619980593310447,-1.2906999277401132
-3.9864999999999999,0.38754015564846972,-1.227120097309109
-3.9860000000000002,0.3768699807907871,-1.0999604364470996
-3.9855,0.32351910650237387,-0.9304142219644207
-3.9849999999999999,0.24882788249859539,-0.76086800748174177
-3.9845000000000002,0.16346648363713429,-0.5807251545938954
-3.984,0.05676473506030786,-0.34759910968021185
-3.9834999999999998,-0.50875453239687207,0.15044289536265748
-3.9830000000000001,-1.3090176467230703,0.61669498519002452
-3.9824999999999999,-1.7464948158880587,0.96638405256054982
-3.9820000000000002,-1.7571649907457412,1.1571235438535634
-3.9815,-1.1169544992847826,0.78624119967270345
-3.9809999999999999,-0.31669138495858457,0.18223281057815977
-3.9805000000000001,0.29150858192932599,-0.25222936403370499
-3.98,0.66496470194821833,-0.47475877054222104
-3.9794999999999998,0.81434714995577528,-0.53833860097322561
-3.9790000000000001,0.79300680024041004,-0.4535654937318862
-3.9784999999999999,0.70764540137894905,-0.29461591765437467
-3.9780000000000002,0.73965592595199681,-0.24163272562853755
-3.9775,0.77166645052504479,-0.19924617200786782
-3.9769999999999999,0.66496470194821833,-0.0085066807148540119
-3.9765000000000001,0.53692260365602662,0.18223281057815977
-3.976,0.44089102993688295,0.30939247144016896
-3.9754999999999998,0.40888050536383502,0.37297230187117358
-3.9750000000000001,0.4835717293676135,0.39416557868150842
-3.9744999999999999,0.29150858192932599,0.62729162359519197
-3.9740000000000002,-0.41272295867772835,0.96638405256054982
-3.9735,-1.2770071221500223,1.2207033742845681
-3.9729999999999999,-1.6824737667419627,1.2313000126897355
-3.9725000000000001,-1.3090176467230703,0.63788826200035942
-3.972,-0.69014750497747701,-0.17805289519753292
-3.9714999999999998,-0.17797911180871023,-0.83504447631791379
-3.9710000000000001,0.15279630877945163,-1.227120097309109
-3.9704999999999999,0.32351910650237387,-1.3860696733866202
-3.9700000000000002,0.38754015564846972,-1.3860696733866202
-3.9695,0.38754015564846972,-1.2906999277401132
-3.9689999999999999,0.34485945621773917,-1.1423469900677694
-3.9685000000000001,0.28083840707164331,-0.96220413717992292
-3.968,0.21681735792554749,-0.77146464588690922
-3.9674999999999998,0.18480683335249956,-0.5807251545938954
-3.9670000000000001,0.15279630877945163,-0.36879238649054674
-3.9664999999999999,-0.34870190953163249,-0.0085066807148540119
-3.9660000000000002,-1.0102527507079564,0.52132523954351762
-3.9655,-1.4477299198729445,1.0087706061812196
-3.9649999999999999,-1.3090176467230703,1.0193672445863871
-3.9645000000000001,-0.65813698040442903,0.53192187794868506
-3.964,0.035424385344942577,0.012686596095480854
-3.9634999999999998,0.54759277851370936,-0.32640583286987701
-3.9630000000000001,0.80367697509809277,-0.4535654937318862
-3.9624999999999999,0.83568749967114075,-0.44296885532671876
-3.9620000000000002,0.77166645052504479,-0.32640583286987701
-3.9615,0.72898575109431429,-0.093279787956193475
-3.9609999999999999,0.83568749967114075,0.16103953376782493
-3.9605000000000001,0.83568749967114075,0.24581264100916439
-3.96,0.77166645052504479,0.23521600260399694
-3.9594999999999998,0.63295417737517057,0.15044289536265748
-3.9590000000000001,0.49424190422529612,0.065669788121318018
-3.9584999999999999,0.4835717293676135,-0.061489872740691176
-3.9580000000000002,0.78233662538272752,-0.43237221692155131
-3.9575,0.45156120479456557,-0.18864953360270037
-3.9569999999999999,-0.34870190953163249,0.35177902506083869
-3.9565000000000001,-1.1703053735731959,0.7968378380778709
-3.956,-1.2556667724346571,0.66967817721586165
-3.9554999999999998,-0.82885977812735145,0.065669788121318018
-3.9550000000000001,-0.33803173467394987,-0.52774196256805828
-3.9544999999999999,0.024754210487259936,-0.9092209451540858
-3.9540000000000002,0.23815770764091276,-1.0787671596367647
-3.9535,0.34485945621773917,-1.0787671596367647
-3.9529999999999998,0.36619980593310447,-0.98339741399025782
-3.9525000000000001,0.35552963107542179,-0.82444783791274634
-3.952,0.32351910650237387,-0.65490162343006741
-3.9514999999999998,0.22748753278323011,-0.4535654937318862
-3.9510000000000001,0.067434909917990504,-0.20984281041303524
-3.9504999999999999,-0.12462823752029703,0.12924961855232261
-3.9500000000000002,-0.54076505696992005,0.57430843156935485
-3.9495,-1.1703053735731959,1.0405605213967219
-3.9489999999999998,-1.7144842913150107,1.3690563119569124
-3.9485000000000001,-1.6824737667419627,1.432636142387917
-3.948,-0.86087030270039921,1.0087706061812196
-3.9474999999999998,-0.08194753808956648,0.27760255622466667
-3.9470000000000001,0.4835717293676135,-0.28401927924920728
-3.9464999999999999,0.75032610080967954,-0.52774196256805828
-3.9460000000000002,0.81434714995577528,-0.54893523937839306
-3.9455,0.79300680024041004,-0.41117894011121647
-3.9449999999999998,0.70764540137894905,-0.31580919446470956
-3.9445000000000001,0.91037872367491923,-0.0085066807148540119
-3.944,0.99574012253638022,0.26700591781949923
-3.9434999999999998,0.87836819910187125,0.23521600260399694
-3.9430000000000001,0.69697522652126631,0.11865298014715518
-3.9424999999999999,0.52625242879834411,0.023283234500648287
-3.9420000000000002,0.35552963107542179,0.065669788121318018
-3.9415,-0.049937013516518552,0.43655213230217815
-3.9409999999999998,-0.69014750497747701,0.88161094531921036
-3.9405000000000001,-1.3623685210114835,1.1783168206638983
-3.9399999999999999,-1.9065474387532981,1.2948798431207402
-3.9394999999999998,-2.0452597119031726,1.1783168206638983
-3.9390000000000001,-1.4263895701575793,0.53192187794868506
-3.9384999999999999,-0.70081767983515975,-0.1674562567923655
-3.9380000000000002,-0.14596858723566233,-0.64430498502489997
-3.9375,0.19547700821018218,-0.84564111472308123
-3.9369999999999998,0.35552963107542179,-0.84564111472308123
-3.9365000000000001,0.3982103305061524,-0.70788481545590454
-3.9359999999999999,0.38754015564846972,-0.51714532416289083
-3.9355000000000002,0.33418928136005654,-0.30521255605954212
-3.9350000000000001,0.24882788249859539,-0.10387642636136091
-3.9344999999999999,0.18480683335249956,0.086863064931652884
-3.9340000000000002,0.17413665849481691,0.24581264100916439
-3.9335,-0.017926488943470625,0.48953532432801533
-3.9329999999999998,-0.61545628097369853,0.88161094531921036
-3.9325000000000001,-1.1382948490001481,1.2207033742845681
-3.9319999999999999,-0.99958257585027366,1.0405605213967219
-3.9315000000000002,-0.10328788780493176,0.775644561267536
-3.931,0.6863050516635838,0.42595549389701071
-3.9304999999999999,1.0811015213978414,-0.10387642636136091
-3.9300000000000002,1.1664629202593024,-0.54893523937839306
-3.9295,1.0811015213978414,-0.78206128429207655
-3.9289999999999998,0.91037872367491923,-0.82444783791274634
