Class_6_Listen_To_Quran/Class_6_Listen_To_Quran_AM_8.csv

#Digilent WaveForms Oscilloscope Acquisition
#Device Name: EExplorer
#Serial Number: SN:210151A2B84A
#Date Time: 2020-12-06 10:59:44.991
#Sample rate: 2000Hz
#Samples: 16384
#Trigger: Source: Channel 1 Type: Edge Condition: Rising Level: 0 V Hyst.: Auto HoldOff: 0 s
#Channel 1: Range: 1 V/div Offset: 0 V Attenuation: 1 X
#Channel 2: Range: 1 V/div Offset: 0 V Attenuation: 1 X
#Power Supplies: ON
#Fixed Supply: ON
#Voltage: 3.3 V Readback: 3.331 V
#Positive Supply: ON
#Voltage: 3.7 V Readback: 3.806 V
#Current: 40 mA Readback: 14 mA
#Negative Supply: ON
#Voltage: -3.7 V Readback: -4.032 V
#Current: -40 mA Readback: -20 mA
#Reference 1: ON
#Voltage: 0 V
#Reference 2: ON
#Voltage: 0 V

Time (s),Channel 1 (V),Channel 2 (V)
-4.096,0.3768699807907871,0.4471487707073456
-4.0955,0.3341892813600953,0.6166949851898703
-4.095,0.3128489316444389,0.7544512844570759
-4.0945,0.03542438534494258,0.6166949851900245
-4.094,-0.5941159312577606,0.1504428953630815
-4.0935,-0.9782422261351025,-0.1992461720080895
-4.093,-1.191645723288561,-0.4429688553267188
-4.0925,-0.711487854693279,-0.591321792998928
-4.092,0.120785784206986,-0.6337083466197037
-4.0915,0.7609962756673623,-0.6019184314042303
-4.091,0.7716664505250448,-0.7608680074817418
-4.0905,0.2701682322140092,-0.8138511995068947
-4.09,0.3235191065023739,-0.06148987274069118
-4.0895,0.3021787567870086,0.457745409112513
-4.089,0.4835717293674485,0.8922075837239827
-4.0885,0.707645401378949,1.093543713422559
-4.088,0.6649647019482183,0.8710143069140429
-4.0875,0.5475927785138162,0.5001319627335201
-4.087,0.4515612047944685,0.129249618552101
-4.0865,0.3448594562177392,-0.1144730647665284
-4.086,-0.1993194615235806,0.1928294489830477
-4.0855,-1.116954499285433,0.7332580076467411
-4.085,-1.83185621474952,0.5955017083796896
-4.0845,-2.365364957633167,-0.3052125560587229
-4.084,-2.290673733629194,-0.432372216921426
-4.0835,-1.543761493592088,-0.2946159176543747
-4.083,-0.7114878546928423,-0.2098428104130352
-4.0825,-0.09261771294691917,-0.1462629799819728
-4.082,0.2701682322139607,-0.08268314955102604
-4.0815,0.4302208550792003,-0.008506680714854012
-4.081,0.483571729367565,0.07626642652640835
-4.0805,0.4622313796522482,0.1716361721729923
-4.08,0.4195506802215176,0.2458126410091644
-4.0795,0.3768699807908259,0.319989109845269
-4.079,0.3448594562177197,0.3517790250608483
-4.0785,0.3235191065023739,0.3623756634660061
-4.078,0.1954770082102986,0.2246193641989548
-4.0775,-0.3807124341052627,-0.2946159176548566
-4.077,-1.020922925565639,-0.8244478379127463
-4.0765,-1.095614149569349,-1.036380606015902
-4.076,-0.2526703358115668,-1.248313374119578
-4.0755,0.7609962756673623,-1.396666311791788
-4.075,1.347855892839907,-1.449649503817625
-4.0745,1.539919040277875,-1.396666311791711
-4.074,1.187803269974668,-1.311893204550448
-4.0735,0.3875401556484697,-1.237716735714276
-4.073,0.2915085819294133,-0.4641621321377571
-4.0725,0.2594980573562781,0.1292496185523226
-4.072,0.3768699807907871,0.6060983467848571
-4.0715,0.5049120790828624,0.8286277532931707
-4.071,0.4729015545098824,0.7226613692415158
-4.0705,0.4195506802215176,0.5213252395435176
-4.07,0.35552963107548,0.3411823866558351
-4.0695,-0.1673089369519204,0.6060983467853389
-4.069,-1.148965023857831,1.135930267043229
-4.0685,-1.799845690176472,0.8180311148882058
-4.068,-2.109280761049026,-0.1568596183873137
-4.0675,-1.842526389607202,-0.2840192792492073
-4.067,-1.116954499284783,-0.1780528951975329
-4.0665,-0.4233931335349743,-0.09327978795614529
-4.066,0.05676473506030786,-0.04029659593035631
-4.0655,0.3341892813600565,0.01268659609548085
-4.065,0.4408910299367859,0.05507314971611203
-4.0645,0.4622313796522482,0.1080563417419877
-4.064,0.4515612047945656,0.1716361721729923
-4.0635,0.4195506802215467,0.2246193641987813
-4.063,0.3875401556484406,0.2670059178195281
-4.0625,0.3555296310754218,0.2987958330350016
-4.062,0.323519106502403,0.2458126410092126
-4.0615,0.2701682322135046,0.1504428953622238
-4.061,-0.2313299860971235,-0.326405832869877
-4.0605,-0.7968492535543035,-0.8562377531282487
-4.06,-1.277007122150003,-1.322489842955924
-4.0595,-1.255666772434657,-1.661582271920973
-4.059,-0.3700422592469978,-1.852321763213987
-4.0585,0.526252428797529,-1.852321763213987
-4.058,1.027750647109428,-1.778145294377815
-4.0575,0.5902734779444399,-1.990078062481164
-4.057,0.579603303086767,-1.19533018209433
-4.0565,0.5369226036560266,-0.3899856633008816
-4.056,0.5262524287983441,0.2458126410091644
-4.0555,0.8143471499555133,0.8710143069134741
-4.055,0.8250173248133319,1.040560521396606
-4.0545,0.6863050516635838,0.9134008605347127
-4.054,0.5475927785138355,0.7014680924315567
-4.0535,0.4515612047942065,0.5001319627332889
-4.053,0.05676473506030786,0.6166949851900245
-4.0525,-0.7861790786966207,1.167720182258731
-4.052,-1.362368521011464,1.390249588766553
-4.0515,-1.341028171296118,0.627291623595192
-4.051,-1.06360362499637,0.2140227257936621
-4.0505,-0.5727755815434145,-0.008506680714651632
-4.05,-0.124628237520297,-0.1568596183871981
-4.0495,0.1848068333524996,-0.2098428104130352
-4.049,0.3555296310752665,-0.1886495336027196
-4.0485,0.4195506802215274,-0.1144730647664416
-4.048,0.4302208550792003,-0.01910331912002144
-4.0475,0.4195506802215274,0.0974597033367143
-4.047,0.398210330506133,0.2246193641989452
-4.0465,0.3768699807907871,0.3517790250608387
-4.046,0.3661998059331142,0.4471487707072589
-4.0455,0.3448594562177295,0.4683420475176998
-4.045,0.3341892813600565,0.4895353243280153
-4.0445,0.05676473506030786,0.2140227257936621
-4.044,-0.5514352318279424,-0.3687923864909901
-4.0435,-0.9248913518464952,-0.8562377531282487
-4.043,-0.7648387289812555,-1.142346990067769
-4.0425,-0.1459685872362252,-1.534422611058608
-4.042,0.0674349099179905,-2.180817553774178
-4.0415,0.6756348768059011,-2.106641084938006
-4.041,0.9210488985323786,-1.852321763214219
-4.0405,0.9423892482479573,-1.152943628472031
-4.04,0.9317190733902845,-0.1568596183871981
-4.0395,0.7930068002405362,0.563711793163532
-4.039,0.7609962756673428,1.072350436612369
-4.0385,0.7396559259519968,1.231300012689736
-4.038,0.6436243522329405,1.061753798207211
-4.0375,0.5369226036559587,0.7756445612672854
-4.037,0.4622313796522482,0.5001319627331828
-4.0365,0.3555296310754218,0.383568940276341
-4.036,-0.3273615598171309,0.8180311148887744
-4.0355,-1.277007122150022,1.443232780793084
-4.035,-1.821186039891837,1.686955464111935
-4.0345,-2.109280761049007,1.422039503982991
-4.034,-1.703814116457328,1.051157159801889
-4.0335,-0.9462317015618604,0.4789386859228479
-4.033,-0.2846808603861383,0.01268659609590489
-4.0325,0.1421261339219728,-0.2522293640337821
-4.032,0.3661998059331045,-0.3370024712750445
-4.0315,0.4515612047944879,-0.2946159176544132
-4.031,0.4515612047945461,-0.1674562567922113
-4.0305,0.4302208550792003,0.002089957690313421
-4.03,0.3982103305061815,0.1716361721728381
-4.0295,0.3661998059330754,0.2987958330350594
-4.029,0.3341892813600565,0.3623756634660061
-4.0285,0.3128489316446912,0.383568940276341
-4.028,0.1527963087788694,0.2034260873880128
-4.0275,-0.4874141826815069,-0.326405832869877
-4.027,-1.191645723288561,-0.8032545611024114
-4.0265,-1.458400094730385,-1.025783967610725
-4.026,-1.394379045584531,-1.492036057438295
-4.0255,-0.9248913518464952,-1.968884785670829
-4.025,0.01408403562872329,-1.82053184799862
-4.0245,0.5475927785139423,-1.523825972653171
-4.024,0.8036769750980928,-0.8350444763179138
-4.0235,0.9103787236748222,-0.01910331912076357
-4.023,0.8356874996710826,0.6272916235955968
-4.0225,0.7716664505250448,1.072350436612224
-4.022,0.7716664505250448,1.263089927905064
-4.0215,0.6756348768057943,1.082947075017103
-4.021,0.5582629533713921,0.7650479228623686
-4.0205,0.4622313796522482,0.4259554938970107
-4.02,0.3875401556482077,0.1822328105783718
-4.0195,0.09944543449103843,0.4153588554918433
-4.019,-0.5514352318276028,0.7968378380778709
-4.0185,-1.031593100422885,0.2352160026045077
-4.018,-1.437059745015262,-0.3052125560595421
-4.0175,-1.842526389607202,0.1822328105781598
-4.017,-1.586442193023052,0.5531151547586826
-4.0165,-0.9248913518459323,0.4471487707071239
-4.016,-0.3060212101009019,0.2034260873884947
-4.0155,0.1101156093483426,0.002089957690496524
-4.015,0.3448594562178168,-0.09327978795620311
-4.0145,0.4302208550792003,-0.1038764263613609
-4.014,0.4515612047945461,-0.04029659593041414
-4.0135,0.4302208550791615,0.05507314971622768
-4.013,0.3875401556484697,0.13984625695749
-4.0125,0.3555296310754218,0.2246193641988295
-4.012,0.3235191065022574,0.267005917819345
-4.0115,0.1954770082101822,0.09745970333682032
-4.011,-0.1779791118087102,-0.326405832869877
-4.0105,-0.7221580295500301,-0.8138511995071356
-4.01,-1.084943974711735,-1.184733543688439
-4.0095,-1.202315898146244,-1.51322933424863
-4.009,-1.095614149569514,-2.149027638558097
-4.0085,-0.1886492866658106,-2.043061254506808
-4.008,0.4515612047945656,-1.831128486403653
-4.0075,0.7930068002400995,-1.290699927740605
-4.007,0.9637295979632743,-0.3899856633001491
-4.0065,0.8997085488172365,0.4153588554918433
-4.006,0.7716664505250448,0.8180311148882058
-4.0055,0.8570278493864671,0.8816109453192104
-4.005,0.8143471499557753,0.8816109453192104
-4.0045,0.6756348768059011,0.7968378380778709
-4.004,0.5475927785136318,0.6590815388105496
-4.0035,0.4622313796522482,0.5001319627331828
-4.003,0.2168173579255475,0.6166949851900245
-4.0025,-0.551435231826904,1.16772018225823
-4.002,-1.277007122150022,1.263089927905238
-4.0015,-1.799845690176472,0.5001319627331828
-4.001,-2.354694782775465,0.4683420475177094
-4.0005,-2.589438629644259,0.8922075837242911
-4,-1.789175515318789,0.7968378380778709
-3.9995,-0.9035510021311299,0.4047622170866759
-3.999,-0.2099896363817582,0.02328323450064829
-3.9985,0.2168173579255475,-0.2204394488182027
-3.998,0.4195506802215176,-0.3158091944647096
-3.9975,0.4835717293676135,-0.2946159176543747
-3.997,0.4729015545099309,-0.1992461720078678
-3.9965,0.4302208550792003,-0.08268314955102604
-3.996,0.3768699807907871,0.02328323450064829
-3.9955,0.3448594562177392,0.1186529801471552
-3.995,0.2594980573562781,0.13984625695749
-3.9945,-0.2206598112394408,-0.2734226408440398
-3.994,-0.7328282044082075,-0.6760949002404023
-3.9935,-0.8181896032696687,-0.6654982618352349
-3.993,-1.127624674142465,-1.258910012524611
-3.9925,-0.6474668055467465,-1.778145294377815
-3.992,0.2168173579255475,-1.862918401619155
-3.9915,0.7396559259519968,-1.852321763213987
-3.991,1.038420821967111,-1.449649503817625
-3.9905,1.123782220828572,-0.6443049850249
-3.99,0.9637295979633325,0.07626642652648545
-3.9895,0.7609962756673623,0.6696781772158616
-3.989,0.7503261008096795,1.040560521396722
-3.9885,0.7183155762366316,1.167720182258731
-3.988,0.6222840025174878,1.093543713422559
-3.9875,0.5369226036560266,0.9134008605347127
-3.987,0.4622313796522482,0.6908714540261965
-3.9865,0.3128489316446912,0.5637117931641874
-3.986,-0.3487019095316325,0.9345941373450475
-3.9855,-1.020922925565639,1.178316820663898
-3.985,-1.661133417026597,0.4259554938970107
-3.9845,-2.280003558772191,-0.05089323433552374
-3.984,-2.674800028506448,0.3941655786815084
-3.9835,-1.981238662757077,0.5637117931641874
-3.983,-1.052933450138687,0.3305857482505039
-3.9825,-0.3060212101009019,0.02328323450064829
-3.982,0.1634664836371343,-0.2098428104130352
-3.9815,0.3982103305061524,-0.3158091944647096
-3.981,0.4835717293676135,-0.326405832869877
-3.9805,0.4835717293676135,-0.2628260024388724
-3.98,0.4408910299368829,-0.1674562567923655
-3.9795,0.3982103305061524,-0.07208651114585861
-3.979,0.3555296310754218,0.02328323450064829
-3.9785,0.3235191065023739,0.09745970333682032
-3.978,0.142126133921769,-0.07208651114585861
-3.9775,-0.4554036581084589,-0.5595318777835605
-3.977,-0.9355615267041777,-0.9516074987747555
-3.9765,-1.255666772434657,-1.174136905283272
-3.976,-0.9355615267041777,-1.354279758171118
-3.9755,-0.7648387289812555,-2.064254531317336
-3.975,0.00341386077189465,-2.000674700886331
-3.9745,0.5369226036560266,-1.725162102351978
-3.974,0.7396559259519968,-0.9833974139902578
-3.9735,0.8676980242441885,0.09745970333682032
-3.973,0.8463576745288233,0.849821030103708
-3.9725,0.7823366253827275,1.220703374284568
-3.972,0.825017324813458,1.400846227172415
-3.9715,0.7289857510943143,1.241896651094903
-3.971,0.5902734779444399,0.9451907757502149
-3.9705,0.4942419042252961,0.6484849004055269
-3.97,0.4195506802215176,0.4153588554918433
-3.9695,0.01408403562957729,0.6590815388106942
-3.969,-0.8288597781273515,1.241896651094903
-3.9685,-1.67180359188428,1.400846227172415
-3.968,-2.141291285622316,0.4259554938970107
-3.9675,-2.301343908487556,-0.8138511995075789
-3.967,-1.746494815888059,-1.301296566145281
-3.9665,-0.9355615267041777,-1.01518732920576
-3.966,-0.2526703358124887,-0.5489352393783931
-3.9655,0.1848068333524996,-0.1462629799820306
-3.965,0.3982103305061524,0.1080563417419877
-3.9645,0.4729015545099309,0.2458126410091644
-3.964,0.4729015545099309,0.309392471440169
-3.9635,0.4408910299368829,0.309392471440169
-3.963,0.3982103305061524,0.2670059178194992
-3.9625,0.3555296310754218,0.2034260873884947
-3.962,0.3341892813600565,0.1292496185523226
-3.9615,0.1954770082101822,-0.07208651114585861
-3.961,-0.4020527838200457,-0.6866915386455698
-3.9605,-0.9995825758502737,-1.280103289334946
-3.96,-1.170305373573196,-1.608599079895136
-3.9595,-0.8715404775580819,-1.937094870455327
-3.959,-0.3380317346739499,-2.350363768256857
-3.9585,-0.07127736323188383,-2.58348981317054
-3.958,0.5262524287983441,-2.297380576231019
-3.9575,0.7609962756673623,-1.714565463946811
-3.957,0.8356874996711408,-0.6866915386455698
-3.9565,0.825017324813458,0.2034260873884947
-3.956,0.7396559259519968,0.7544512844572011
-3.9555,0.8356874996711408,1.199510097474233
-3.955,0.8036769750980928,1.263089927905238
-3.9545,0.6756348768059011,1.061753798207057
-3.954,0.5582629533713921,0.7968378380778709
-3.9535,0.4622313796522482,0.5743084315693548
-3.953,0.2808384070716433,0.6378882620003594
-3.9525,-0.3060212101009019,1.125333628638062
-3.952,-0.9675720512772257,1.188913459069066
-3.9515,-1.693143941599645,0.3941655786815084
-3.951,-2.226652684483777,0.2564092794143318
-3.9505,-1.970568487899394,0.5213252395435176
-3.95,-1.180975548430879,0.4471487707073456
-3.9495,-0.4447334832507763,0.2670059178194992
-3.949,0.0674349099179905,0.1080563417419877
-3.9485,0.3448594562177392,0.04447651131098315
-3.948,0.4622313796522482,0.04447651131098315
-3.9475,0.4835717293676135,0.1080563417419877
-3.947,0.4515612047945656,0.2034260873884947
-3.9465,0.408880505363835,0.2670059178194992
-3.946,0.3661998059331045,0.309392471440169
-3.9455,0.3448594562177392,0.3729723018711736
-3.945,0.2808384070716433,0.3623756634660061
-3.9445,-0.2420001609548061,-0.09327978795619347
-3.944,-0.8822106524157645,-0.6443049850249
-3.9435,-1.479740444445993,-1.205926820498774
-3.943,-1.885207089037933,-1.947691508860494
-3.9425,-0.9035510021311299,-1.968884785670829
-3.942,0.01408403562957729,-2.053657892912168
-3.9415,0.6863050516635838,-2.021867977696666
-3.941,1.113112045970889,-1.619195718300304
-3.9405,1.166462920259302,-0.7820612842920766
-3.94,0.9637295979633325,0.01268659609548085
-3.9395,0.7609962756673623,0.5743084315693548
-3.939,0.7609962756673623,1.00877060618122
-3.9385,0.7609962756673623,1.167720182258731
-3.938,0.6649647019482183,0.9875773293708847
-3.9375,0.5582629533713921,0.7226613692416989
-3.937,0.4835717293676135,0.4683420475176805
-3.9365,0.3021787567870086,0.4047622170866759
-3.936,-0.3380317346739499,0.8922075837243778
-3.9355,-1.1062843244271,1.305476481525908
-3.935,-1.767835165603424,0.627291623595192
-3.9345,-2.322684258202921,0.002089957690313421
-3.934,-2.685470203364131,0.383568940276341
-3.9335,-1.981238662757077,0.5849050699745222
-3.933,-1.052933450138687,0.4471487707073456
-3.9325,-0.2953510352432193,0.2352160026039969
-3.932,0.1741366584948169,0.07626642652648545
-3.9315,0.4195506802215176,0.01268659609548085
-3.931,0.4942419042252961,0.03387987290581572
-3.9305,0.4942419042252961,0.09745970333682032
-3.93,0.4622313796522482,0.1822328105781598
-3.9295,0.408880505363835,0.2458126410091644
-3.929,0.3661998059331045,0.2987958330350016
-3.9285,0.3235191065023739,0.2987958330350016
-3.928,0.01408403562957729,-0.02969995752518888
-3.9275,-0.7008176798351597,-0.6231117082145651
-3.927,-1.255666772434657,-1.089363798041932
-3.9265,-1.26633694729234,-1.34368311976595
-3.926,-0.5194247072545548,-1.47084278062796
-3.9255,-0.274010685527854,-2.117237723343173
-3.925,0.3768699807907871,-2.106641084938006
-3.9245,0.8036769750980928,-1.862918401619155
-3.924,0.9317190733902845,-1.301296566145281
-3.9235,0.9850699476786977,-0.3370024712750445
-3.923,0.9103787236749192,0.5107286011383502
-3.9225,0.8463576745288233,1.019367244586387
-3.922,0.8463576745288233,1.210106735879401
-3.9215,0.7289857510943143,1.072350436612224
-3.921,0.6009436528021226,0.8074344764830383
-3.9205,0.4942419042252961,0.5425185163538525
-3.92,0.3982103305061524,0.3941655786815084
-3.9195,-0.124628237520297,0.7544512844572011
-3.919,-0.9889124009925911,1.305476481525908
-3.9185,-1.87453691418025,1.072350436612224
-3.918,-2.589438629644987,0.02328323450064829
-3.9175,-2.525417580498891,-1.036380606016095
-3.917,-1.607782542738184,-1.248313374119443
-3.9165,-0.722158029550525,-0.8880276683437509
-3.916,-0.07127736323188383,-0.4429688553267188
-3.9155,0.3021787567870086,-0.07208651114585861
-3.915,0.4622313796522482,0.1610395337678249
-3.9145,0.5049120790829789,0.2881991946298341
-3.914,0.4942419042252961,0.3623756634660061
-3.9135,0.4515612047945656,0.383568940276341
-3.913,0.4195506802215176,0.383568940276341
-3.9125,0.3768699807907871,0.3623756634660061
-3.912,0.3448594562177392,0.2564092794143318
-3.9115,0.2274875327832301,-0.1568596183871981
-3.911,-0.2953510352432193,-0.792657922697244
-3.9105,-0.839529952985034,-1.354279758171118
-3.91,-1.127624674142465,-1.778145294377815
-3.9095,-1.341028171296118,-2.530506621144703
-3.909,-0.4660738329661415,-2.604683089980875
-3.9085,0.3021787567870086,-2.572893174765372
-3.908,0.7716664505250448,-2.339767129851689
-3.9075,1.027750647109428,-1.608599079895136
-3.907,1.059761171682476,-0.7714646458869092
-3.9065,0.8997085488172365,-0.06148987274069118
-3.906,0.7396559259519968,0.4895353243280153
-3.9055,0.8783681991018712,1.061753798207057
-3.905,0.942389248247967,1.358459673551745
-3.9045,0.825017324813458,1.25249328950007
-3.904,0.6863050516635838,1.029963882991555
-3.9035,0.5689331282290746,0.775644561267536
-3.903,0.2061471830678648,0.849821030103708
-3.9025,-0.690147504977477,1.358459673551745
-3.902,-1.415719395299897,1.623375633680931
-3.9015,-1.789175515318789,1.040560521396722
-3.901,-2.226652684483777,1.00877060618122
-3.9005,-2.205312334768412,1.210106735879401
-3.9,-1.447729919872945,0.9345941373450475
-3.8995,-0.6474668055467465,0.5107286011383502
-3.899,-0.04993701351651855,0.1928294489833272
-3.8985,0.3021787567870086,0.02328323450064829
-3.898,0.4622313796522482,0.002089957690313421
-3.8975,0.4942419042252961,0.07626642652648545
-3.897,0.4835717293676135,0.2034260873884947
-3.8965,0.4408910299368829,0.3199891098453364
-3.896,0.3661998059331045,0.2987958330350016
-3.8955,0.3235191065023739,0.2987958330350016
-3.895,0.2808384070716433,0.2987958330350016
-3.8945,-0.1032878878049318,-0.05089323433552374
-3.894,-0.722158029550525,-0.570128516188728
-3.8935,-1.06360362499637,-0.9198175835592532
-3.893,-0.807519428411986,-1.121153713257435
-3.8925,-0.6047861061160158,-1.947691508860494
-3.892,0.2061471830678648,-2.096044446532838
-3.8915,0.79300680024041,-2.064254531317336
-3.891,1.006410297394063,-1.75695201756748
-3.8905,1.081101521397841,-0.8880276683437509
-3.89,1.027750647109428,-0.05089323433552374
-3.8895,0.825017324813458,0.4895353243280153
-3.889,0.7716664505250448,0.9345941373450475
-3.8885,0.825017324813458,1.220703374284568
-3.888,0.7609962756673623,1.114736990232894
-3.8875,0.6329541773751706,0.8286277532933731
-3.887,0.5262524287983441,0.5319218779486851
-3.8865,0.3875401556484697,0.4365521323021782
-3.886,-0.274010685527854,0.9134008605347127
-3.8855,-1.244996597576974,1.506812611224089
