Class_6_Listen_To_Quran/Class_6_Listen_To_Quran_Turki_5.csv

#Digilent WaveForms Oscilloscope Acquisition
#Device Name: EExplorer
#Serial Number: SN:210151A2B84A
#Date Time: 2020-11-26 10:57:02.553
#Sample rate: 2000Hz
#Samples: 16384
#Trigger: Source: Channel 1 Type: Edge Condition: Rising Level: 0 V Hyst.: Auto HoldOff: 0 s
#Channel 1: Range: 1 V/div Offset: 0 V Attenuation: 1 X
#Channel 2: Range: 1 V/div Offset: 0 V Attenuation: 1 X
#Power Supplies: ON
#Fixed Supply: ON
#Voltage: 3.3 V Readback: 3.325 V
#Positive Supply: ON
#Voltage: 3.7 V Readback: 3.712 V
#Current: 500 mA Readback: 19 mA
#Negative Supply: ON
#Voltage: -3.7 V Readback: -3.706 V
#Current: -500 mA Readback: -9 mA
#Reference 1: ON
#Voltage: 0 V
#Reference 2: ON
#Voltage: 0 V

Time (s),Channel 1 (V),Channel 2 (V)
-4.096,0.6436243522328531,-0.008506680714854012
-4.0955,0.6329541773751802,0.3305857482501954
-4.095,1.123782220828582,0.9981739677766881
-4.0945,1.134452395686255,1.697552102517103
-4.094,0.3128489316454385,1.422039503983
-4.0935,-0.6794773301206094,0.4683420475167649
-4.093,-1.575772018165136,-0.5383386009732256
-4.0925,-2.312014083344569,-1.216523458903325
-4.092,-2.504077230783177,-1.513229334248562
-4.0915,-2.119950935906951,-1.439052865412457
-4.091,-1.127624674142465,-1.078767159636765
-4.0905,-0.3166913849580896,-0.6972881770505059
-4.09,0.2274875327832301,-0.4429688553267188
-4.0895,0.4942419042252961,-0.2310360872233701
-4.089,0.5582629533713339,0.2564092794138885
-4.0885,0.5369226036560266,0.8074344764830383
-4.088,0.4835717293676135,1.210106735879401
-4.0875,0.4302208550792488,1.273686566310348
-4.087,0.05676473505962855,0.9557874141554499
-4.0865,-0.690147504977477,1.029963882991555
-4.086,-1.170305373572759,0.7862411996729251
-4.0855,-1.351698346153587,-0.07208651114642722
-4.085,-1.116954499284783,-0.6972881770507372
-4.0845,-0.5300948821127711,-0.8138511995074729
-4.084,0.02475421048763841,-0.7502713690765455
-4.0835,0.4408910299368829,-0.718481453861072
-4.083,0.6863050516635838,-0.7714646458869092
-4.0825,0.7823366253827372,-0.8880276683438569
-4.082,0.79300680024041,-1.004590690800593
-4.0815,0.942389248247967,-1.142346990067769
-4.081,1.081101521397715,-1.131750351662612
-4.0805,0.9850699476786977,-0.8244478379127463
-4.08,0.825017324813458,-0.4429688553267188
-4.0795,0.6863050516637099,-0.0826831495513537
-4.079,0.611613827660106,0.2564092794148522
-4.0785,0.942389248247967,0.8286277532933731
-4.078,1.347855892839539,1.602182356869892
-4.0775,0.6222840025165077,2.227384022775436
-4.077,-0.4554036581084589,2.184997469154805
-4.0765,-1.437059745014369,1.051157159802921
-4.076,-2.237322859341702,-0.1992461720086485
-4.0755,-2.504077230783526,-1.05757388282643
-4.075,-2.3973754822067,-1.417859588602123
-4.0745,-1.522421143875888,-1.301296566144963
-4.074,-0.6047861061160158,-0.9516074987747555
-4.0735,0.05676473506030786,-0.6019184314042303
-4.073,0.4195506802211877,-0.4005823017062321
-4.0725,0.5582629533713921,-0.06148987274069118
-4.072,0.5582629533713921,0.4471487707073456
-4.0715,0.5155822539407002,0.9239974989394464
-4.071,0.4729015545097174,1.125333628637821
-4.0705,0.2381577076409128,0.8604176685088755
-4.07,-0.5194247072538658,0.6590815388108773
-4.0695,-1.277007122150498,1.029963882991265
-4.069,-1.799845690176472,0.7120647308365314
-4.0685,-1.650463242168915,0.07626642652648545
-4.068,-1.031593100422642,-0.2946159176545578
-4.0675,-0.2846808603855366,-0.4959520473525559
-4.067,0.291508581929326,-0.5913217929990628
-4.0665,0.6649647019483736,-0.7290780922663551
-4.066,0.8356874996711408,-0.8562377531282487
-4.0655,0.8676980242441885,-0.9092209451540858
-4.065,0.9103787236748804,-0.9939940523953481
-4.0645,1.102441871113207,-1.068170521231597
-4.064,1.038420821967111,-0.8456411147230812
-4.0635,0.8783681991020168,-0.5065486857580318
-4.063,0.7289857510942173,-0.1462629799817415
-4.0625,0.6222840025174878,0.1716361721729923
-4.062,0.7503261008095631,0.6484849004050932
-4.0615,1.337185717981924,1.400846227172858
-4.061,1.006410297394063,1.888291593810116
-4.0605,0.05676473506030786,1.316073119931075
-4.06,-0.9675720512780215,0.3199891098444786
-4.0595,-1.842526389607202,-0.6231117082145651
-4.059,-2.450726356495113,-1.174136905283272
-4.0585,-2.472066706210458,-1.354279758170954
-4.058,-1.810515865034154,-1.184733543688439
-4.0575,-0.839529952985034,-0.8138511995075789
-4.057,-0.1032878878056013,-0.4641621321373716
-4.0565,0.3448594562177392,-0.2840192792492073
-4.056,0.5369226036560266,-0.05089323433552374
-4.0555,0.5582629533713727,0.4471487707068926
-4.055,0.5155822539406129,0.945190775750504
-4.0545,0.4622313796522482,1.263089927905238
-4.054,0.3661998059331918,1.241896651094922
-4.0535,-0.2206598112401493,0.97698069096591
-4.053,-0.9995825758502737,1.188913459069066
-4.0525,-1.479740444445993,0.8180311148882058
-4.052,-1.597112367880142,0.002089957689908642
-4.0515,-1.202315898146244,-0.4429688553267188
-4.051,-0.4874141826815069,-0.5489352393783931
-4.0505,0.1527963087788693,-0.6654982618351288
-4.05,0.5689331282290746,-0.8350444763179138
-4.0495,0.79300680024041,-0.9410108603695881
-4.049,0.8570278493864478,-1.02578396761085
-4.0485,0.8676980242443438,-1.099960436447215
-4.048,1.038420821967111,-1.227120097309109
-4.0475,1.038420821967111,-1.089363798042057
-4.047,0.8997085488171006,-0.7502713690762177
-4.0465,0.7503261008096795,-0.3581957480853793
-4.046,0.6436243522329501,0.002089957689985766
-4.0455,0.6542945270910211,0.4047622170873312
-4.045,1.187803269974668,1.125333628638062
-4.0445,1.113112045970889,1.877694955404949
-4.044,0.0994454344900971,2.375736960447365
-4.0435,-0.9355615267041777,1.877694955404949
-4.043,-1.799845690176472,0.5849050699745222
-4.0425,-2.429386006779175,-0.5489352393773619
-4.042,-2.493407055925843,-1.205926820498774
-4.0415,-2.055929886760855,-1.290699927740113
-4.041,-1.052933450139599,-0.8562377531286438
-4.0405,-0.2526703358120132,-0.2840192792488025
-4.04,0.2701682322139607,0.1610395337678249
-4.0395,0.5155822539404382,0.4259554938967698
-4.039,0.5796033030867282,0.9028042221300175
-4.0385,0.5475927785137094,1.42203950398275
-4.038,0.4835717293676717,1.771728571352957
-4.0375,0.4195506802211877,1.856501678594373
-4.037,0.05676473506030786,1.591585718465428
-4.0365,-0.6688071552621118,1.549199164844759
-4.036,-1.138294849000303,1.210106735878514
-4.0355,-1.30901764672307,0.2352160026039969
-4.035,-1.180975548430879,-0.5065486857577234
-4.0345,-0.6154562809742129,-0.7502713690763527
-4.034,0.01408403562957729,-0.8456411147230812
-4.0335,0.4729015545099309,-0.9198175835592532
-4.033,0.7289857510940814,-1.025783967610831
-4.0325,0.8356874996711602,-1.099960436447157
-4.032,0.857027849386506,-1.163540266878104
-4.0315,0.9957401225362541,-1.237716735714209
-4.031,1.123782220828475,-1.18473354368816
-4.0305,1.017080472251745,-0.8774310299385835
-4.03,0.8463576745289785,-0.4959520473529029
-4.0295,0.6969752265211984,-0.1356663415765548
-4.029,0.6222840025174878,0.2034260873884947
-4.0285,0.9637295979633325,0.8074344764830383
-4.028,1.31584536826617,1.60218235687101
-4.0275,0.5582629533713921,2.057837808292796
-4.027,-0.4767440078238243,1.538602526439591
-4.0265,-1.415719395299043,0.3729723018722337
-4.026,-2.19464215991073,-0.6654982618352349
-4.0255,-2.493407055925843,-1.269506650929778
-4.025,-2.48273688106817,-1.460246142222619
-4.0245,-1.863866739321665,-1.280103289334599
-4.024,-0.8715404775580819,-0.8986243067489184
-4.0235,-0.1246282375209764,-0.5595318777838689
-4.023,0.3341892813602312,-0.347599109679836
-4.0225,0.5262524287983441,0.06566978812131802
-4.022,0.558262953371363,0.6802748156204701
-4.0215,0.5155822539406225,1.210106735879661
-4.021,0.4729015545099309,1.496215972818921
-4.0205,0.2594980573562781,1.347863035146577
-4.02,-0.4660738329666947,1.188913459069104
-4.0195,-1.074273799854052,1.231300012689736
-4.019,-1.330357996438436,0.4789386859228479
-4.0185,-1.277007122150071,-0.2840192792485134
-4.018,-0.8181896032696687,-0.570128516188728
-4.0175,-0.1993194615240755,-0.6231117082145651
-4.017,0.3235191065018983,-0.6760949002403541
-4.0165,0.6542945270906717,-0.7608680074818575
-4.016,0.8036769750980928,-0.8880276683437509
-4.0155,0.8676980242441303,-0.9939940523953289
-4.015,0.9423892482481805,-1.046977244421311
-4.0145,1.177133095116985,-1.0999604364471
-4.014,1.123782220828621,-0.8986243067491014
-4.0135,0.942389248247802,-0.5701285161884195
-4.013,0.7609962756673623,-0.2310360872233701
-4.0125,0.6436243522328531,0.09745970333682032
-4.012,0.7823366253832613,0.5531151547597235
-4.0115,1.369196242555273,1.326669758336243
-4.011,0.9957401225363802,2.036644531482461
-4.0105,-0.01792648894254878,2.312157130016563
-4.01,-1.020922925565639,1.464426057603419
-4.0095,-1.87453691418025,0.1716361721729923
-4.009,-2.450726356494589,-0.8138511995066826
-4.0085,-2.472066706209954,-1.311893204550458
-4.008,-1.895877263895616,-1.322489842955616
-4.0075,-0.9142211769897053,-0.9833974139905662
-4.007,-0.1566387620929083,-0.6019184314040182
-4.0065,0.3235191065023739,-0.3687923864905467
-4.006,0.5369226036560266,-0.05089323433552374
-4.0055,0.5796033030867379,0.510728601138832
-4.005,0.5582629533713921,1.040560521396722
-4.0045,0.5049120790829789,1.33726639674141
-4.004,0.3875401556479068,1.220703374284318
-4.0035,-0.2313299860971235,0.9451907757502149
-4.003,-0.9889124009925911,1.178316820663898
-4.0025,-1.597112367879948,0.7650479228627445
-4.002,-1.810515865034154,-0.05089323433552374
-4.0015,-1.490410619303675,-0.5383386009732256
-4.001,-0.7648387289819154,-0.6549016234299614
-4.0005,-0.01792648894300481,-0.7396747306714936
-4,0.4942419042252961,-0.8350444763179138
-3.9995,0.7503261008096795,-0.8880276683437509
-3.999,0.825017324813458,-0.9198175835592532
-3.9985,0.825017324813458,-0.9622041371799229
-3.998,1.027750647109428,-1.004590690800593
-3.9975,1.070431346540159,-0.9092209451540858
-3.997,0.942389248247967,-0.6654982618352349
-3.9965,0.7823366253827275,-0.3687923864905467
-3.996,0.6649647019482183,-0.07208651114585861
-3.9955,0.6649647019482183,0.2776025562246667
-3.995,1.19847344483235,0.9981739677760521
-3.9945,1.379866417412955,1.739938656137773
-3.994,0.4729015545099309,1.655165548896433
-3.9935,-0.6688071552621118,0.775644561267536
-3.993,-1.629122892453549,-0.2946159176543747
-3.9925,-2.365364957633652,-1.036380606016095
-3.992,-2.461396531352796,-1.364876396576285
-3.9915,-1.842526389607202,-1.290699927740113
-3.991,-0.8715404775580819,-0.9728007755850904
-3.9905,-0.124628237520297,-0.6231117082145651
-3.99,0.3448594562177392,-0.3793890248957141
-3.9895,0.5582629533713921,-0.1780528951975329
-3.989,0.5902734779444399,0.3199891098453364
-3.9885,0.5475927785137094,0.9134008605347127
-3.988,0.4835717293676135,1.37965295036208
-3.9875,0.4302208550792003,1.549199164844759
-3.987,0.0674349099179905,1.210106735879401
-3.9865,-0.658136980404429,1.114736990232894
-3.986,-1.095614149569417,0.701468092431364
-3.9855,-1.30901764672307,-0.1674562567923655
-3.985,-1.223656247861609,-0.6549016234300674
-3.9845,-0.7114878546928423,-0.7608680074817418
-3.984,-0.08194753808956648,-0.792657922697244
-3.9835,0.4408910299368829,-0.8032545611024114
-3.983,0.7396559259519968,-0.8880276683437509
-3.9825,0.8676980242441885,-0.9410108603695881
-3.982,0.8890383739595538,-0.9833974139902578
-3.9815,1.006410297394063,-1.078767159636765
-3.981,1.113112045970889,-1.05757388282643
-3.9805,0.9957401225363802,-0.792657922697244
-3.98,0.8356874996711408,-0.4429688553267188
-3.9795,0.6969752265212663,-0.1144730647665284
-3.979,0.6329541773751706,0.2140227257936621
-3.9785,0.974399772821015,0.7968378380778709
-3.978,1.486568165989782,1.580989080060261
-3.9775,0.9103787236749192,1.761131932948107
-3.977,-0.06060718837420119,0.9981739677760521
-3.9765,-1.06360362499637,-0.06148987274069118
-3.976,-1.906547438753298,-0.8986243067489184
-3.9755,-2.450726356495113,-1.322489842955616
-3.975,-2.344024607918286,-1.375473034981453
-3.9745,-1.458400094730627,-1.025783967610927
-3.974,-0.5621054066852853,-0.4959520473525559
-3.9735,0.07810508477567314,-0.04029659593035631
-3.973,0.4408910299368829,0.1716361721729923
-3.9725,0.5689331282290746,0.5319218779486851
-3.972,0.5582629533713921,1.040560521396722
-3.9715,0.5049120790829789,1.464426057603419
-3.971,0.4515612047945656,1.655165548896433
-3.9705,0.2701682322139607,1.517409249629256
-3.97,-0.3700422592469978,1.390249588767247
-3.9695,-1.010252750707956,1.347863035146577
-3.969,-1.362368521011484,0.5213252395435176
-3.9685,-1.490410619303675,-0.2628260024388724
-3.968,-1.202315898146244,-0.6125150698093976
-3.9675,-0.5407650569699201,-0.6972881770507372
-3.967,0.09944543449103843,-0.7608680074817418
-3.9665,0.5369226036560266,-0.792657922697244
-3.966,0.7609962756673623,-0.8456411147230812
-3.9655,0.825017324813458,-0.9728007755850904
-3.965,0.8783681991018712,-1.121153713257435
-3.9645,1.070431346540159,-1.205926820498774
-3.964,1.027750647109428,-0.9728007755850904
-3.9635,0.8890383739595538,-0.6125150698093976
-3.963,0.7396559259519968,-0.2310360872233701
-3.9625,0.6436243522328531,0.1080563417419877
-3.962,0.7823366253827275,0.5955017083796896
-3.9615,1.347855892839907,1.369056311956912
-3.961,1.049090996824793,1.782325209758442
-3.9605,0.1634664836371343,1.104140351827727
-3.96,-0.8288597781273515,0.09745970333682032
-3.9595,-1.703814116457328,-0.7820612842920766
-3.959,-2.376035132491334,-1.258910012524611
-3.9585,-2.44005618163743,-1.38606967338662
-3.958,-1.725154466172693,-1.131750351662602
-3.9575,-0.7755089038389382,-0.6549016234300674
-3.957,-0.06060718837420119,-0.2098428104130352
-3.9565,0.3768699807907871,0.002089957690313421
-3.956,0.5582629533713921,0.2564092794143318
-3.9555,0.5796033030867573,0.7438546460520338
-3.955,0.5369226036560266,1.188913459069066
-3.9545,0.4729015545099309,1.432636142387917
-3.954,0.3875401556484697,1.33726639674141
-3.9535,-0.156638762093345,1.019367244586387
-3.953,-0.8502001278427167,1.178316820663898
-3.9525,-1.234326422719292,0.6908714540261965
-3.952,-1.30901764672307,-0.1992461720078678
-3.9515,-1.1062843244271,-0.7502713690765743
-3.951,-0.5194247072545548,-0.8668343915334161
-3.9505,0.07810508477567314,-0.8138511995075789
-3.95,0.5155822539406614,-0.8032545611024114
-3.9495,0.7609962756673623,-0.8774310299385835
-3.949,0.8463576745288233,-0.9198175835592532
-3.9485,0.857027849386506,-0.9410108603695881
-3.948,1.038420821967111,-1.05757388282643
-3.9475,1.049090996824793,-0.9622041371799229
-3.947,0.9210488985326017,-0.6654982618352349
-3.9465,0.7716664505250448,-0.3370024712750445
-3.946,0.6542945270905358,-0.02969995752518888
-3.9455,0.6649647019482183,0.309392471440169
-3.945,1.209143619690033,1.029963882991555
-3.9445,1.283834843693812,1.803518486568777
-3.944,0.3021787567870086,2.322753768421981
-3.9435,-0.7328282044082075,1.845905040189447
-3.943,-1.597112367880501,0.55311515475902
-3.9425,-2.301343908487556,-0.6019184314042303
-3.942,-2.482736881068161,-1.301296566145281
-3.9415,-2.280003558772191,-1.51322933424863
-3.941,-1.330357996438436,-1.237716735714276
-3.9405,-0.4554036581084589,-0.8032545611024114
-3.94,0.1527963087794516,-0.4535654937318862
-3.9395,0.4729015545099309,-0.2098428104130352
-3.939,0.5689331282290746,0.2881991946298341
-3.9385,0.5689331282290746,0.8604176685088755
-3.938,0.5155822539406614,1.316073119931075
-3.9375,0.4515612047945656,1.432636142387917
-3.937,0.02475421048725994,1.157123543853563
-3.9365,-0.7434983792658902,1.273686566310405
-3.936,-1.191645723288561,1.019367244586387
-3.9355,-1.351698346153801,0.1080563417419877
-3.935,-1.330357996438436,-0.5595318777835605
-3.9345,-0.839529952985034,-0.6760949002404023
-3.934,-0.1673089369510276,-0.6443049850249
-3.9335,0.3768699807907871,-0.6231117082145651
-3.933,0.6863050516635838,-0.6443049850249
-3.9325,0.825017324813458,-0.718481453861072
-3.932,0.857027849386506,-0.8244478379127463
-3.9315,0.9957401225363802,-0.9410108603695881
-3.931,1.102441871113207,-0.9516074987747555
-3.9305,0.9957401225363802,-0.7396747306714069
-3.93,0.8356874996711408,-0.4323722169215513
-3.9295,0.6969752265212663,-0.1356663415768632
-3.929,0.6222840025174878,0.1822328105781598
-3.9285,0.9637295979633325,0.775644561267536
-3.928,1.347855892839907,1.570392441655093
-3.9275,0.6222840025174878,1.729342017732605
-3.927,-0.4554036581084589,0.9557874141553824
-3.9265,-1.426389570157579,-0.1038764263613609
-3.926,-2.215982509626095,-0.9198175835592532
-3.9255,-2.482736881068161,-1.333086481360783
-3.925,-2.365364957633652,-1.396666311791788
-3.9245,-1.490410619303675,-1.152943628472937
-3.924,-0.572775581542968,-0.8032545611024114
-3.9235,0.07810508477567314,-0.5277419625680583
-3.923,0.4408910299368829,-0.3899856633008816
-3.9225,0.5796033030867573,-0.1144730647665284
-3.922,0.5796033030867573,0.3623756634660061
-3.9215,0.5369226036560266,0.7862411996727035
-3.921,0.4835717293676135,0.9345941373450475
-3.9205,0.2381577076409128,0.6908714540261965
-3.92,-0.5087545323968721,0.701468092431364
-3.9195,-1.159635198715513,0.9875773293708847
-3.919,-1.501080794161358,0.4047622170866759
-3.9185,-1.490410619303675,-0.3581957480853793
-3.918,-1.010252750707956,-0.6654982618352349
-3.9175,-0.274010685527854,-0.7290780922662394
-3.917,0.3128489316446912,-0.7502713690765743
-3.9165,0.6649647019482183,-0.8244478379127463
-3.916,0.825017324813458,-0.9304142219644207
-3.9155,0.8676980242441885,-0.9622041371799229
-3.915,0.9317190733902845,-1.025783967610927
-3.9145,1.123782220828572,-1.089363798041932
-3.914,1.070431346540159,-0.8668343915334161
-3.9135,0.9103787236749192,-0.5171453241628908
-3.913,0.7503261008096795,-0.1568596183871981
-3.9125,0.6436243522328531,0.1716361721729923
-3.912,0.8356874996711408,0.6696781772158616
-3.9115,1.422547116843686,1.443232780793084
-3.911,0.9530594231056497,2.057837808292796
-3.9105,-0.156638762093345,1.867098316999781
-3.91,-1.202315898146244,0.8604176685088755
-3.9095,-2.066600061618538,-0.2946159176543747
-3.909,-2.472066706210478,-1.089363798041932
-3.9085,-2.450726356495113,-1.42845622700729
-3.908,-1.767835165603424,-1.364876396576285
-3.9075,-0.7968492535543035,-1.05757388282643
-3.907,-0.06060718837420119,-0.718481453861072
-3.9065,0.3768699807907871,-0.5065486857577234
-3.906,0.5582629533713921,-0.1674562567923655
-3.9055,0.5796033030867573,0.4153588554918433
-3.905,0.5369226036560266,0.9875773293708847
-3.9045,0.4942419042252961,1.358459673551745
-3.904,0.3875401556484697,1.263089927905238
-3.9035,-0.1993194615240755,0.8710143069140429
-3.903,-0.8928808272734472,0.9981739677760521
-3.9025,-1.244996597576974,0.5319218779486851
-3.902,-1.319687821580753,-0.2840192792492073
-3.9015,-1.084943974711735,-0.7290780922662394
-3.901,-0.4660738329661415,-0.7714646458869092
-3.9005,0.142126133921769,-0.7714646458869092
-3.9,0.6009436528021226,-0.792657922697244
-3.8995,0.8463576745288233,-0.8244478379127463
-3.899,0.942389248247967,-0.8880276683437509
-3.8985,0.9530594231056497,-0.9939940523954253
-3.898,1.049090996824793,-1.131750351662602
-3.8975,1.017080472251745,-1.036380606016095
-3.897,0.8783681991018712,-0.7502713690765743
-3.8965,0.7396559259519968,-0.4217755785163839
-3.896,0.6329541773751706,-0.1038764263613609
-3.8955,0.6649647019482183,0.2881991946298341
-3.895,1.209143619690033,1.040560521396722
-3.8945,1.081101521397841,1.824711763379112
-3.894,0.04609456020262521,2.322753768421981
-3.8935,-0.9782422261349084,1.803518486568777
-3.893,-1.842526389607202,0.5425185163538525
-3.8925,-2.429386006779747,-0.5489352393783931
-3.892,-2.472066706210478,-1.163540266878104
-3.8915,-2.23732285934146,-1.333086481360783
-3.891,-1.26633694729234,-1.152943628472937
-3.8905,-0.4020527838200457,-0.8244478379127463
-3.89,0.1848068333524996,-0.5595318777835605
-3.8895,0.4942419042252961,-0.326405832869877
-3.889,0.5902734779444399,0.1292496185523226
-3.8885,0.5796033030867573,0.7544512844572011
-3.888,0.5262524287983441,1.284283204715573
-3.8875,0.4622313796522482,1.453829419198252
-3.887,0.1634664836371343,1.29487984312074
-3.8865,-0.2313299860971235,1.506812611224089
-3.886,-0.722158029550525,1.464426057603419
-3.8855,-1.084943974711735,0.6484849004055269
