Class_6_Listen_To_Quran/Class_6_Listen_To_Quran_SH_2.csv

#Digilent WaveForms Oscilloscope Acquisition
#Device Name: EExplorer
#Serial Number: SN:210151A2B84A
#Date Time: 2020-11-25 11:38:05.619
#Sample rate: 2000Hz
#Samples: 16384
#Trigger: Source: Channel 1 Type: Edge Condition: Rising Level: 0 V Hyst.: Auto HoldOff: 0 s
#Channel 1: Range: 1 V/div Offset: 0 V Attenuation: 1 X
#Channel 2: Range: 1 V/div Offset: 0 V Attenuation: 1 X
#Power Supplies: ON
#Fixed Supply: ON
#Voltage: 3.3 V Readback: 3.331 V
#Positive Supply: ON
#Voltage: 3.7 V Readback: 3.71 V
#Current: 40 mA Readback: 20 mA
#Negative Supply: ON
#Voltage: -3.7 V Readback: -3.354 V
#Current: -40 mA Readback: -10 mA
#Reference 1: ON
#Voltage: 0 V
#Reference 2: ON
#Voltage: 0 V

Time (s),Channel 1 (V),Channel 2 (V)
-4.096,-0.6474668055467465,-0.7290780922662394
-4.0955,-0.3060212101012125,-0.05089323433614057
-4.095,0.00341386077208874,0.4789386859231466
-4.0945,0.2168173579255475,0.8074344764830383
-4.094,0.3341892813599498,0.9769806909655631
-4.0935,0.3661998059331142,1.019367244586378
-4.093,0.3768699807907871,1.00877060618122
-4.0925,0.3661998059331142,0.9663840525605883
-4.092,0.3341892813600275,0.9134008605346742
-4.0915,0.3021787567870086,0.8710143069140429
-4.091,0.2701682322139607,0.8392243916985406
-4.0905,0.1741366584943414,0.7544512844566614
-4.09,-0.3487019095316325,0.1610395337678249
-4.0895,-0.8928808272734472,-0.6760949002404023
-4.089,-1.212986073003635,-1.375473034980817
-4.0885,-1.586442193022819,-1.788741932782983
-4.088,-1.543761493592088,-1.280103289334946
-4.0875,-1.074273799854479,-0.5383386009739003
-4.087,-0.4874141826810314,-0.02969995752496721
-4.0865,0.03542438534494258,0.2140227257936621
-4.086,0.3555296310751306,0.2881991946297667
-4.0855,0.5155822539407195,0.1928294489832116
-4.085,0.5796033030867573,0.06566978812131802
-4.0845,0.7503261008095243,-0.1462629799818379
-4.084,0.7503261008095922,-0.1568596183871113
-4.0835,0.6542945270905358,-0.06148987274069118
-4.083,0.5475927785137094,0.06566978812131802
-4.0825,0.4622313796523355,0.1716361721729538
-4.082,0.5582629533713921,0.1292496185523226
-4.0815,0.9850699476786977,-0.3052125560595421
-4.081,0.5155822539410884,-0.9410108603690099
-4.0805,-0.3060212101009019,-1.502632695843462
-4.08,-0.8715404775580819,-1.703968825541643
-4.0795,-0.7968492535543714,-1.078767159637333
-4.079,-0.4340633083927637,-0.3158091944641602
-4.0785,-0.07127736323188383,0.2881991946298341
-4.078,0.1741366584945937,0.6696781772155147
-4.0775,0.3128489316447495,0.8604176685089333
-4.077,0.3768699807907871,0.92399749893988
-4.0765,0.38754015564846,0.9134008605347224
-4.076,0.366199805933085,0.8604176685088273
-4.0755,0.3448594562177392,0.8074344764830383
-4.075,0.3128489316446912,0.7650479228623686
-4.0745,0.2808384070715657,0.7226613692416796
-4.074,0.1954770082101822,0.701468092431364
-4.0735,-0.2206598112394408,0.2670059178194992
-4.073,-0.7968492535537794,-0.5383386009724932
-4.0725,-1.138294849000148,-1.248313374119443
-4.072,-1.383708870726849,-1.746355379162313
-4.0715,-1.319687821580811,-1.481439419033368
-4.071,-0.8288597781268856,-0.7608680074811828
-4.0705,-0.3166913849585846,-0.1462629799820306
-4.07,0.08877525963298705,0.1928294489830188
-4.0695,0.355529631075548,0.2670059178195281
-4.069,0.4942419042252961,0.2987958330350016
-4.0685,0.5475927785137094,0.2670059178194992
-4.068,0.7289857510943919,0.03387987290570007
-4.0675,0.8143471499557753,-0.09327978795619347
-4.067,0.7503261008096795,-0.02969995752518888
-4.0665,0.6329541773750735,0.0868630649317589
-4.066,0.5262524287983441,0.2034260873884947
-4.0655,0.4942419042252961,0.3199891098453364
-4.065,0.8890383739591947,0.7650479228619638
-4.0645,0.7503261008096795,0.6484849004055269
-4.064,0.1954770082101822,-0.1038764263613609
-4.0635,-0.4127229586771752,-0.8456411147224066
-4.063,-0.5727755815427934,-0.9198175835588678
-4.0625,-0.3807124341046804,-0.4959520473525559
-4.062,-0.09261771294751114,0.01268659609501821
-4.0615,0.1421261339218854,0.415358855492065
-4.061,0.2701682322139607,0.6590815388106942
-4.0605,0.3448594562177392,0.8074344764830383
-4.06,0.3661998059330948,0.8710143069140526
-4.0595,0.3555296310754218,0.8816109453192104
-4.059,0.3448594562177392,0.8710143069140429
-4.0585,0.3128489316447204,0.8710143069140429
-4.058,0.2808384070716433,0.8604176685088755
-4.0575,0.2381577076409128,0.8604176685088755
-4.057,0.05676473506047283,0.5849050699747728
-4.0565,-0.2313299860971235,0.1186529801471552
-4.056,-0.722158029550525,-0.570128516188728
-4.0555,-1.170305373572788,-1.227120097308511
-4.055,-1.255666772434298,-1.322489842955095
-4.0545,-0.8608703027003992,-0.7502713690765743
-4.054,-0.3166913849590796,-0.1886495336032111
-4.0535,0.0674349099181846,0.1928294489834525
-4.053,0.2808384070716433,0.3305857482505039
-4.0525,0.4195506802215176,0.309392471440169
-4.052,0.4835717293677202,0.224619364198656
-4.0515,0.6009436528021226,0.03387987290581572
-4.051,0.7716664505250448,-0.1780528951975329
-4.0505,0.7289857510943532,-0.1356663415769017
-4.05,0.6116138276598051,0.002089957690313421
-4.0495,0.5049120790829789,0.1610395337678249
-4.049,0.4408910299369412,0.2987958330348763
-4.0485,0.6863050516638652,0.6166949851902848
-4.048,0.9957401225363802,0.9028042221295453
-4.0475,0.3875401556490228,0.2776025562252353
-4.047,-0.4340633083936177,-0.5171453241633631
-4.0465,-1.010252750707956,-1.036380606016095
-4.046,-0.903551002131227,-0.8244478379129391
-4.0455,-0.508754532396513,-0.2734226408435676
-4.045,-0.1139580626626144,0.2458126410091644
-4.0445,0.1527963087794516,0.6166949851900245
-4.044,0.3021787567870668,0.8392243916986273
-4.0435,0.3661998059331045,0.9345941373450475
-4.043,0.3768699807907871,0.9663840525605498
-4.0425,0.3661998059331142,0.955787414155392
-4.042,0.3341892813600565,0.92399749893988
-4.0415,0.3021787567870086,0.9028042221295453
-4.041,0.2594980573563169,0.8816109453192297
-4.0405,0.1954770082097552,0.8180311148877046
-4.04,-0.274010685527854,0.2670059178194992
-4.0395,-0.8502001278421927,-0.5701285161879666
-4.039,-1.127624674142601,-1.311893204550843
-4.0385,-1.277007122150022,-1.746355379162313
-4.038,-1.095614149569582,-1.258910012525054
-4.0375,-0.6261264558309252,-0.5595318777831364
-4.037,-0.124628237520297,-0.09327978795619347
-4.0365,0.2594980573562781,0.1292496185523226
-4.036,0.4942419042253641,0.1716361721729442
-4.0355,0.5689331282290746,0.1186529801471552
-4.035,0.5796033030867573,0.04447651131098315
-4.0345,0.7076454013788326,-0.1356663415766994
-4.034,0.6969752265212663,-0.1356663415768632
-4.0335,0.6116138276598051,-0.05089323433552374
-4.033,0.5155822539407487,0.06566978812121201
-4.0325,0.4515612047946529,0.1822328105781116
-4.032,0.5475927785137094,0.1292496185523226
-4.0315,1.113112045970375,-0.1568596183869379
-4.031,0.9743997728202386,-0.6443049850253818
-4.0305,0.1207857842064037,-1.174136905283272
-4.03,-0.7328282044074311,-1.460246142222532
-4.0295,-0.9248913518462332,-1.131750351661947
-4.029,-0.6367966306890638,-0.4111789401112165
-4.0285,-0.2526703358124887,0.2458126410091644
-4.028,0.0460945602028096,0.6908714540264278
-4.0275,0.2488278824985954,0.9451907757502149
-4.027,0.3448594562177392,1.040560521396722
-4.0265,0.366199805933085,1.029963882991564
-4.026,0.3661998059331045,0.9875773293708847
-4.0255,0.3448594562177392,0.9134008605347127
-4.025,0.3021787567870474,0.8498210301037659
-4.0245,0.2594980573562393,0.7968378380778324
-4.024,0.2168173579255475,0.7544512844572011
-4.0235,-0.1779791118083512,0.606098346784992
-4.023,-0.7968492535547208,-0.09327978795692593
-4.0225,-1.255666772434657,-0.8986243067489184
-4.022,-1.437059745015097,-1.280103289334599
-4.0215,-1.148965023857326,-0.8986243067484269
-4.021,-0.5941159312583333,-0.3581957480853793
-4.0205,-0.1032878878049318,0.03387987290581572
-4.02,0.2168173579257319,0.1928294489833176
-4.0195,0.4195506802215176,0.1822328105781598
-4.019,0.5262524287983441,0.1080563417419877
-4.0185,0.536922603656017,0.03387987290588318
-4.018,0.5689331282290746,-0.09327978795619347
-4.0175,0.5902734779444399,-0.1144730647665284
-4.017,0.5369226036560751,-0.04029659593042377
-4.0165,0.4729015545098921,0.05507314971624696
-4.016,0.4302208550792003,0.1610395337678249
-4.0155,0.4195506802215274,0.2246193641987717
-4.015,0.8036769750980248,-0.1144730647670681
-4.0145,0.7289857510943143,-0.7078848154559045
-4.014,-0.02859666380046422,-1.269506650929268
-4.0135,-0.6901475049777002,-1.576809164679403
-4.013,-0.9355615267041777,-1.322489842955616
-4.0125,-0.658136980404429,-0.5807251545938954
-4.012,-0.2846808603852455,0.1398462569579623
-4.0115,0.03542438534494258,0.6590815388106942
-4.011,0.2381577076409128,0.9557874141553824
-4.0105,0.3341892813599692,1.072350436612118
-4.01,0.3661998059331045,1.082947075017392
-4.0095,0.3661998059331045,1.029963882991555
-4.009,0.3341892813600856,0.9557874141554499
-4.0085,0.3021787567869601,0.8710143069139851
-4.008,0.2488278824985954,0.8074344764830383
-4.0075,0.2168173579255766,0.7650479228624071
-4.007,-0.007256314086321733,0.6484849004049582
-4.0065,-0.5941159312583333,0.02328323450064829
-4.006,-0.9248913518464952,-0.792657922697244
-4.0055,-1.202315898146428,-1.449649503817769
-4.005,-1.405049220442214,-1.608599079895136
-4.0045,-1.116954499284783,-0.9833974139902578
-4.004,-0.5941159312578966,-0.3687923864901901
-4.0035,-0.1139580626626144,0.02328323450064829
-4.003,0.2381577076409128,0.2458126410091644
-4.0025,0.4515612047943715,0.2776025562246378
-4.002,0.5369226036560266,0.1822328105781598
-4.0015,0.5902734779444399,0.02328323450064829
-4.001,0.6649647019481504,-0.04029659593029848
-4.0005,0.6116138276597372,-0.02969995752517924
-4,0.5369226036560266,-0.01910331912002144
-3.9995,0.4729015545099309,0.01268659609548085
-3.999,0.4302208550792003,0.06566978812131802
-3.9985,0.5902734779444399,-0.1674562567923655
-3.998,0.8676980242441885,-0.4641621321370536
-3.9975,0.408880505363835,-0.9516074987747555
-3.997,-0.3273615598162672,-1.396666311791788
-3.9965,-0.7861790786966207,-1.417859588602123
-3.996,-0.6688071552621118,-0.7820612842920766
-3.9955,-0.3380317346739499,-0.04029659593035631
-3.995,-0.02859666380115328,0.55311515475902
-3.9945,0.1954770082101822,0.92399749893988
-3.994,0.3128489316446912,1.114736990232894
-3.9935,0.3555296310754218,1.167720182258731
-3.993,0.3661998059331045,1.167720182258731
-3.9925,0.3448594562177392,1.114736990232894
-3.992,0.3128489316446912,1.040560521396722
-3.9915,0.291508581929326,0.9769806909657173
-3.991,0.2594980573562781,0.9134008605347127
-3.9905,0.1848068333524996,0.8074344764830383
-3.99,-0.1886492866663929,0.2670059178194992
-3.9895,-0.5941159312583333,-0.570128516188728
-3.989,-0.8181896032696687,-1.290699927740113
-3.9885,-1.042263275281004,-1.650985633515806
-3.988,-0.9889124009925911,-1.237716735714276
-3.9875,-0.6047861061160158,-0.6019184314042303
-3.987,-0.2206598112394408,-0.1250697031716958
-3.9865,0.08877525963335578,0.06566978812131802
-3.986,0.3448594562177392,0.09745970333682032
-3.9855,0.4729015545099309,0.06566978812131802
-3.985,0.5262524287983441,-0.06148987274069118
-3.9845,0.707645401378949,-0.252229364033705
-3.984,0.8143471499557753,-0.2946159176543747
-3.9835,0.7396559259519968,-0.1992461720078678
-3.983,0.6116138276598051,-0.06148987274069118
-3.9825,0.5049120790829789,0.06566978812131802
-3.982,0.5262524287983441,0.2670059178194992
-3.9815,0.9103787236749192,0.7544512844572011
-3.981,0.6542945270905358,0.457745409112513
-3.9805,-0.08194753808956648,-0.3370024712750445
-3.98,-0.658136980404429,-0.9092209451540858
-3.9795,-0.6474668055467465,-0.7290780922662394
-3.979,-0.3593720843893152,-0.2098428104130352
-3.9785,-0.06060718837420119,0.3199891098453364
-3.978,0.1634664836371343,0.701468092431364
-3.9775,0.291508581929326,0.9451907757502149
-3.977,0.3341892813600565,1.061753798207057
-3.9765,0.3555296310754218,1.114736990232894
-3.976,0.3448594562177392,1.104140351827727
-3.9755,0.2808384070716433,1.072350436612224
-3.975,0.2381577076409128,1.051157159801889
-3.9745,0.2168173579255475,0.9981739677760521
-3.974,0.1741366584948169,0.9875773293708847
-3.9735,-0.2206598112394408,0.7332580076468663
-3.973,-0.7114878546928423,-0.1144730647665284
-3.9725,-1.06360362499637,-0.9728007755850904
-3.972,-1.191645723288561,-1.34368311976595
-3.9715,-1.031593100423322,-0.8456411147230812
-3.971,-0.5514352318276028,-0.3475991096802118
-3.9705,-0.06060718837420119,0.002089957690313421
-3.97,0.2594980573562781,0.13984625695749
-3.9695,0.4195506802215176,0.1186529801471552
-3.969,0.5049120790829789,-0.008506680714854012
-3.9685,0.5262524287983441,-0.1038764263613609
-3.968,0.5689331282290746,-0.05089323433552374
-3.9675,0.6009436528021226,0.02328323450064829
-3.967,0.5689331282290746,0.06566978812131802
-3.9665,0.4942419042252961,0.09745970333682032
-3.966,0.4195506802215176,0.13984625695749
-3.9655,0.4302208550792003,0.1822328105781598
-3.965,0.8356874996711408,-0.07208651114585861
-3.9645,0.9637295979633325,-0.6866915386455698
-3.964,0.291508581929326,-1.237716735714276
-3.9635,-0.4554036581084589,-1.587405803084801
-3.963,-0.9142211769888124,-1.449649503817625
-3.9625,-0.7648387289812555,-0.6972881770507372
-3.962,-0.4020527838200457,0.09745970333682032
-3.9615,-0.06060718837420119,0.6908714540261965
-3.961,0.1741366584948169,1.040560521396722
-3.9605,0.3021787567870086,1.199510097474233
-3.96,0.3448594562177392,1.220703374284568
-3.9595,0.3555296310754218,1.178316820663898
-3.959,0.3341892813600565,1.093543713422559
-3.9585,0.3021787567870086,0.9875773293708847
-3.958,0.2701682322139607,0.9028042221295453
-3.9575,0.2594980573562781,0.8074344764830383
-3.957,0.2274875327832301,0.6378882620003594
-3.9565,-0.09261771294724913,0.07626642652648545
-3.956,-0.6261264558313813,-0.7078848154559045
-3.9555,-1.052933450138687,-1.375473034981453
-3.955,-1.06360362499637,-1.417859588602123
-3.9545,-0.658136980404429,-0.8668343915334161
-3.954,-0.1886492866663929,-0.3475991096802118
-3.9535,0.1527963087794516,-0.01910331912002144
-3.953,0.3341892813600565,0.08686306493165288
-3.9525,0.4195506802215176,0.04447651131098315
-3.952,0.4408910299368829,-0.08268314955102604
-3.9515,0.4942419042252961,-0.1674562567923655
-3.951,0.6436243522328531,-0.1992461720078678
-3.9505,0.6222840025174878,-0.1568596183871981
-3.95,0.5796033030867573,-0.1462629799820306
-3.9495,0.6329541773751706,-0.2416327256285375
-3.949,0.6009436528021226,-0.1780528951975329
-3.9485,0.4515612047945656,-0.2840192792492073
-3.948,0.01408403562957729,-0.792657922697244
-3.9475,-0.6154562809736985,-1.322489842955616
-3.947,-1.116954499284783,-1.725162102351978
-3.9465,-1.212986073003927,-1.51322933424863
-3.946,-0.8288597781273515,-0.718481453861072
-3.9455,-0.3593720843893152,0.06566978812131802
-3.945,0.01408403562957729,0.6484849004055269
-3.9445,0.2381577076409128,0.9981739677760521
-3.944,0.3341892813600565,1.146526905448396
-3.9435,0.3661998059331045,1.188913459069066
-3.943,0.3661998059331045,1.157123543853563
-3.9425,0.3341892813600565,1.082947075017392
-3.942,0.3021787567870086,1.00877060618122
-3.9415,0.2594980573562781,0.9345941373450475
-3.941,0.2274875327832301,0.849821030103708
-3.9405,0.2274875327832301,0.7650479228623686
-3.94,0.05676473506030786,0.3305857482505039
-3.9395,-0.2206598112394408,-0.4429688553267188
-3.939,-0.6367966306890638,-1.184733543688439
-3.9385,-1.084943974711735,-1.703968825541643
-3.938,-1.202315898146244,-1.38606967338662
-3.9375,-0.8288597781273515,-0.7290780922662394
-3.937,-0.3060212101009019,-0.2416327256285375
-3.9365,0.1207857842064037,0.07626642652648545
-3.936,0.3661998059331045,0.1928294489833272
-3.9355,0.4729015545099309,0.1716361721729923
-3.935,0.5262524287983441,0.1080563417419877
-3.9345,0.6969752265212663,-0.1038764263613609
-3.934,0.7396559259519968,-0.2416327256285375
-3.9335,0.7396559259519968,-0.2734226408440398
-3.933,0.6649647019482183,-0.2204394488182027
-3.9325,0.5475927785137094,-0.1144730647665284
-3.932,0.4622313796522482,-0.09327978795619347
-3.9315,0.05676473506030786,-0.5065486857577234
-3.931,-0.5834457564006506,-1.078767159636765
-3.9305,-1.127624674142465,-1.576809164679634
-3.93,-1.223656247861609,-1.545019249464132
-3.9295,-0.8288597781273515,-0.8244478379127463
-3.929,-0.3593720843893152,-0.07208651114585861
-3.9285,0.01408403562957729,0.5001319627331828
-3.928,0.2381577076409128,0.849821030103708
-3.9275,0.3341892813600565,1.029963882991555
-3.927,0.3661998059331045,1.082947075017392
-3.9265,0.3661998059331045,1.072350436612224
-3.926,0.3448594562177392,1.029963882991555
-3.9255,0.3128489316446912,0.9769806909657173
-3.925,0.2808384070716433,0.9134008605347127
-3.9245,0.2274875327832301,0.8710143069140429
-3.924,0.1954770082101822,0.8286277532933731
-3.9235,-0.1352984123779797,0.627291623595192
-3.923,-0.7434983792658902,-0.1144730647665284
-3.9225,-1.020922925565639,-0.9304142219644207
-3.922,-1.170305373573196,-1.333086481360783
-3.9215,-1.052933450138687,-0.9198175835592532
-3.921,-0.6474668055467465,-0.3475991096802118
-3.9205,-0.1993194615240755,0.08686306493165288
-3.92,0.142126133921769,0.2564092794143318
-3.9195,0.3448594562177392,0.2458126410091644
-3.919,0.4515612047945656,0.1716361721729923
-3.9185,0.4835717293676135,0.06566978812131802
-3.918,0.5796033030867573,-0.09327978795619347
-3.9175,0.7183155762366316,-0.07208651114585861
-3.917,0.6649647019482183,0.01268659609548085
-3.9165,0.5582629533713921,0.09745970333682032
-3.916,0.4835717293676135,0.1716361721729923
-3.9155,0.4835717293676135,0.2140227257936621
-3.915,0.3021787567870086,-0.2204394488182027
-3.9145,-0.3487019095316325,-0.8244478379127463
-3.914,-0.9995825758502737,-1.280103289334946
-3.9135,-1.298347471865388,-1.449649503817625
-3.913,-1.298347471865388,-1.227120097309109
-3.9125,-0.8502001278427167,-0.5171453241628908
-3.912,-0.3487019095316325,0.2140227257936621
-3.9115,0.02475421048725994,0.7438546460520338
-3.911,0.2488278824985954,1.051157159801889
-3.9105,0.3448594562177392,1.167720182258731
-3.91,0.3768699807907871,1.167720182258731
-3.9095,0.3661998059331045,1.104140351827727
-3.909,0.3448594562177392,1.00877060618122
-3.9085,0.3128489316446912,0.9028042221295453
-3.908,0.2701682322139607,0.8180311148882058
-3.9075,0.2381577076409128,0.7226613692416989
-3.907,0.01408403562957729,0.6696781772158616
-3.9065,-0.4767440078238243,0.2034260873884947
-3.906,-0.8288597781273515,-0.4535654937318862
-3.9055,-1.06360362499637,-1.131750351662602
-3.905,-1.341028171296118,-1.555615887869299
-3.9045,-1.255666772434657,-1.205926820498774
-3.904,-0.7968492535543035,-0.5807251545938954
-3.9035,-0.3166913849585846,-0.08268314955102604
-3.903,0.08877525963335578,0.1716361721729923
-3.9025,0.3341892813600565,0.13984625695749
-3.902,0.4942419042252961,0.01268659609548085
-3.9015,0.5902734779444399,-0.06148987274069118
-3.901,0.7289857510943143,-0.1250697031716958
-3.9005,0.707645401378949,-0.1038764263613609
-3.9,0.6222840025174878,-0.04029659593035631
-3.8995,0.5369226036560266,0.03387987290581572
-3.899,0.4622313796522482,0.09745970333682032
-3.8985,0.3982103305061524,-0.09327978795619347
-3.898,0.2594980573562781,-0.6866915386455698
-3.8975,-0.2420001609548061,-1.290699927740113
-3.897,-0.839529952985034,-1.75695201756748
-3.8965,-1.180975548430879,-1.746355379162313
-3.896,-0.9142211769888124,-0.9728007755850904
-3.8955,-0.4554036581084589,-0.1674562567923655
-3.895,-0.07127736323188383,0.4471487707073456
-3.8945,0.1848068333524996,0.8180311148882058
-3.894,0.3235191065023739,0.9981739677760521
-3.8935,0.3661998059331045,1.040560521396722
-3.893,0.3661998059331045,1.019367244586387
-3.8925,0.3555296310754218,0.9557874141553824
-3.892,0.3235191065023739,0.8816109453192104
-3.8915,0.291508581929326,0.8180311148882058
-3.891,0.2488278824985954,0.7650479228623686
-3.8905,0.1634664836371343,0.7226613692416989
-3.89,-0.3060212101009019,0.2670059178194992
-3.8895,-0.9569018764195432,-0.5383386009732256
-3.889,-1.30901764672307,-1.258910012524611
-3.8885,-1.618452717595867,-1.703968825541643
-3.888,-1.383708870726849,-1.280103289334946
-3.8875,-0.7861790786966207,-0.5807251545938954
-3.887,-0.2420001609548061,-0.04029659593035631
