Class_6_Listen_To_Quran/Class_6_Listen_To_Quran_Suko_10.csv

#Digilent WaveForms Oscilloscope Acquisition
#Device Name: EExplorer
#Serial Number: SN:210151A2B84A
#Date Time: 2021-02-03 11:35:47.787
#Sample rate: 2000Hz
#Samples: 16384
#Trigger: Source: Channel 1 Type: Edge Condition: Rising Level: 0 V Hyst.: Auto HoldOff: 0 s
#Channel 1: Range: 1 V/div Offset: 0 V Attenuation: 1 X
#Channel 2: Range: 1 V/div Offset: 0 V Attenuation: 1 X
#Power Supplies: ON
#Fixed Supply: ON
#Voltage: 3.3 V Readback: 3.331 V
#Positive Supply: ON
#Voltage: 3.7 V Readback: 3.732 V
#Current: 40 mA Readback: 7 mA
#Negative Supply: ON
#Voltage: -3.7 V Readback: -3.348 V
#Current: -40 mA Readback: -6 mA
#Reference 1: ON
#Voltage: 0 V
#Reference 2: ON
#Voltage: 0 V

Time (s),Channel 1 (V),Channel 2 (V)
-4.096,0.7503261008096795,-0.3899856633008816
-4.0955,0.8676980242440817,-0.4429688553266706
-4.095,0.803676975097986,-0.5489352393785569
-4.0945,0.6863050516635838,-0.7290780922662394
-4.094,0.7289857510942754,-0.9833974139900266
-4.0935,0.7930068002403324,-1.057573882826276
-4.093,0.707645401378949,-0.8880276683437509
-4.0925,0.6222840025175654,-0.6654982618354373
-4.092,0.5689331282290261,-0.4429688553264778
-4.0915,0.5155822539406614,-0.1780528951975329
-4.091,0.6542945270905358,0.2034260873884947
-4.0905,0.9530594231051548,0.6908714540258593
-4.09,0.408880505363835,0.3199891098453364
-4.0895,-0.4340633083930936,-0.3899856633008816
-4.089,-1.180975548430199,-0.941010860369087
-4.0885,-1.863866739322568,-1.227120097309109
-4.088,-2.269333383914508,-1.269506650929778
-4.0875,-1.821186039892245,-0.7820612842925199
-4.087,-0.9675720512766143,0.076266426527189
-4.0865,-0.2953510352432193,0.849821030103708
-4.086,0.1421261339213711,1.36905631195644
-4.0855,0.3555296310754703,1.644568910491333
-4.085,0.408880505363835,1.718745379327438
-4.0845,0.3875401556484891,1.676358825706806
-4.084,0.3341892813600275,1.559795803249781
-4.0835,0.3021787567870086,1.400846227172415
-4.083,0.2061471830678648,1.199510097474233
-4.0825,-0.338031734674503,0.5319218779478273
-4.082,-0.9462317015618604,-0.4111789401112165
-4.0815,-1.234326422719292,-1.205926820498774
-4.081,-1.159635198715581,-1.534422611058666
-4.0805,-0.4767440078238243,-1.078767159636765
-4.08,0.2274875327832301,-0.5807251545938954
-4.0795,0.6863050516631666,-0.2734226408443193
-4.079,0.8676980242441691,-0.2098428104130931
-4.0785,0.8463576745288233,-0.2734226408440398
-4.078,0.7609962756674399,-0.4959520473523535
-4.0775,0.7183155762367189,-0.6760949002402771
-4.077,0.8143471499557753,-0.5383386009732256
-4.0765,0.7503261008097377,-0.4747587705422789
-4.076,0.6222840025174005,-0.4429688553266802
-4.0755,0.5262524287983441,-0.400582301706049
-4.075,0.4515612047945656,-0.3052125560595421
-4.0745,0.3982103305059874,-0.2416327256287303
-4.074,0.2168173579255475,-0.4535654937318862
-4.0735,-0.2420001609548061,-0.8986243067489184
-4.073,-0.8928808272728552,-1.32248984295523
-4.0725,-1.533091318734406,-1.545019249464132
-4.072,-2.151961460479999,-1.523825972653797
-4.0715,-2.30134390848742,-1.333086481360956
-4.071,-1.981238662756261,-0.813851199506779
-4.0705,-1.084943974711735,0.06566978812131802
-4.07,-0.370042259247648,0.8710143069133105
-4.0695,0.09944543449126163,1.411442865577842
-4.069,0.3448594562177392,1.697552102517103
-4.0685,0.4302208550792003,1.782325209758442
-4.068,0.4088805053637865,1.729342017732499
-4.0675,0.3555296310754218,1.612778995275763
-4.067,0.3021787567870086,1.443232780793084
-4.0665,0.2594980573559675,1.273686566310116
-4.066,-0.08194753808956648,0.9557874141553824
-4.0655,-0.6154562809736985,0.08686306493165288
-4.065,-1.010252750707597,-0.8138511995067597
-4.0645,-1.170305373573196,-1.301296566145281
-4.064,-0.690147504977477,-1.110557074852267
-4.0635,0.003413860771263821,-0.6760949002407974
-4.063,0.5475927785139714,-0.4111789401112068
-4.0625,0.8356874996711408,-0.400582301706049
-4.062,0.8890383739595052,-0.453565493731838
-4.0615,0.8036769750980054,-0.5701285161888628
-4.061,0.707645401378949,-0.718481453861072
-4.0605,0.8463576745288233,-0.9728007755850904
-4.06,0.8570278493863799,-0.9304142219641894
-4.0595,0.7183155762366316,-0.6760949002404023
-4.059,0.6009436528021226,-0.3899856633008816
-4.0585,0.515582253940739,-0.1250697031719367
-4.058,0.4302208550792003,0.06566978812131802
-4.0575,0.2488278824985954,-0.1462629799820306
-4.057,-0.1246282375199573,-0.644304985024447
-4.0565,-0.7008176798351597,-1.121153713257435
-4.056,-1.319687821580753,-1.407262950196955
-4.0555,-1.949228138183456,-1.48143941903306
-4.055,-2.290673733629631,-1.386069673386264
-4.0545,-2.023919362187807,-0.9939940523954253
-4.054,-1.138294849000954,-0.1886495336034328
-4.0535,-0.4233931335349645,0.5955017083801619
-4.053,0.0674349099179905,1.114736990232894
-4.0525,0.3341892813600565,1.37965295036208
-4.052,0.4302208550791906,1.453829419198194
-4.0515,0.4195506802215176,1.390249588767247
-4.051,0.3555296310754218,1.263089927905238
-4.0505,0.31284893164473,1.104140351827871
-4.05,0.2808384070716433,0.9345941373450475
-4.0495,0.07810508477567314,0.7968378380778709
-4.049,-0.4767440078233197,0.2352160026045077
-4.0485,-0.8502001278429108,-0.570128516189364
-4.048,-1.06360362499637,-1.269506650929778
-4.0475,-0.9035510021312755,-1.354279758171041
-4.047,-0.2420001609542335,-0.8562377531279114
-4.0465,0.3875401556484697,-0.4853554089473885
-4.046,0.7823366253823685,-0.3687923864906528
-4.0455,0.9103787236748707,-0.3475991096802311
-4.045,0.857027849386506,-0.3687923864905467
-4.0445,0.7289857510943143,-0.4111789401112165
-4.044,0.7503261008097571,-0.5171453241629679
-4.0435,0.8356874996711408,-0.6019184314042303
-4.043,0.7503261008096795,-0.474758770542221
-4.0425,0.6542945270906232,-0.273422640844223
-4.042,0.6116138276598051,-0.07208651114585861
-4.0415,0.5582629533713921,0.1292496185523226
-4.041,0.5155822539407002,0.08686306493169144
-4.0405,0.3875401556479554,-0.2946159176548276
-4.04,-0.1779791118087102,-0.792657922697244
-4.0395,-0.8608703026997782,-1.152943628472609
-4.039,-1.533091318734978,-1.322489842955606
-4.0385,-2.162631635337682,-1.311893204550448
-4.038,-2.258663209056738,-1.152943628473081
-4.0375,-1.597112367879745,-0.5383386009724932
-4.037,-0.7648387289812555,0.2670059178194992
-4.0365,-0.1459685872356623,0.8922075837243778
-4.036,0.2274875327833854,1.263089927905363
-4.0355,0.3982103305061524,1.400846227172415
-4.035,0.4302208550792003,1.369056311956912
-4.0345,0.3875401556485085,1.263089927905334
-4.034,0.3235191065023739,1.104140351827727
-4.0335,0.291508581929326,0.92399749893988
-4.033,0.2274875327832883,0.7332580076470399
-4.0325,-0.2526703358130904,0.4259554938965288
-4.032,-0.9142211769888124,-0.1038764263613609
-4.0315,-1.373038695868749,-0.8032545611017754
-4.031,-1.202315898145555,-0.9728007755847723
-4.0305,-0.4447334832507763,-0.6231117082145651
-4.03,0.2701682322133106,-0.3158091944649891
-4.0295,0.7396559259521714,-0.2734226408440784
-4.029,0.9317190733902845,-0.3158091944647096
-4.0285,0.9210488985326017,-0.3475991096802118
-4.028,0.8036769750980539,-0.3899856633009008
-4.0275,0.7609962756673623,-0.4111789401112165
-4.027,0.9317190733902845,-0.2098428104130352
-4.0265,0.8676980242442467,-0.1462629799820885
-4.026,0.7183155762366316,-0.1356663415768632
-4.0255,0.5902734779444399,-0.1038764263613609
-4.025,0.5049120790830565,-0.02969995752525634
-4.0245,0.3982103305057157,0.04447651131068438
-4.024,-0.08194753808956648,-0.2840192792492073
-4.0235,-0.6367966306885592,-0.8032545611019393
-4.023,-1.04226327528146,-1.174136905283407
-4.0225,-1.543761493592088,-1.322489842955616
-4.022,-2.087940411333408,-1.290699927740142
-4.0215,-2.280003558771899,-1.152943628472551
-4.021,-1.959898313041711,-0.7290780922662394
-4.0205,-1.074273799854052,0.07626642652648545
-4.02,-0.3700422592465611,0.8286277532938358
-4.0195,0.1101156093487211,1.33726639674141
-4.019,0.3555296310754218,1.580989080060261
-4.0185,0.4302208550791324,1.623375633680892
-4.018,0.408880505363835,1.538602526439591
-4.0175,0.3555296310754218,1.390249588767247
-4.017,0.3021787567870571,1.199510097474407
-4.0165,0.2274875327829487,1.040560521396683
-4.016,-0.08194753808956648,0.9981739677760521
-4.0155,-0.7008176798345969,0.9345941373451053
-4.015,-1.180975548430956,0.2140227257931031
-4.0145,-1.26633694729234,-0.400582301706049
-4.014,-0.5941159312589447,-0.294615917654471
-4.0135,0.1527963087799271,-0.1674562567923848
-4.013,0.6756348768059011,-0.1886495336027004
-4.0125,0.9103787236749192,-0.326405832869877
-4.012,0.9210488985325241,-0.548935239378528
-4.0115,0.8356874996711408,-0.6972881770507372
-4.011,0.7289857510943143,-0.7714646458869092
-4.0105,0.8356874996710437,-0.7714646458869092
-4.01,0.8356874996711408,-0.718481453861072
-4.0095,0.707645401378949,-0.570128516188728
-4.009,0.5689331282292007,-0.3793890248958876
-4.0085,0.4729015545098824,-0.1674562567921824
-4.008,0.4195506802215176,0.03387987290581572
-4.0075,0.09944543449132959,-0.135666341576709
-4.007,-0.4340633083934527,-0.6337083466200988
-4.0065,-0.8288597781273515,-1.036380606016095
-4.006,-1.116954499284783,-1.184733543688439
-4.0055,-1.511750969019487,-1.142346990067654
-4.005,-2.002579012472442,-1.01518732920576
-4.0045,-2.087940411333903,-0.7714646458869092
-4.004,-1.341028171295439,-0.07208651114513578
-4.0035,-0.5941159312583333,0.7226613692416989
-4.003,-0.04993701351651855,1.316073119931075
-4.0025,0.2808384070713426,1.633972272085809
-4.002,0.4195506802215176,1.718745379327438
-4.0015,0.4302208550792003,1.655165548896433
-4.001,0.3982103305061815,1.506812611224224
-4.0005,0.3661998059330754,1.294879843120538
-4,0.3341892813600565,1.072350436612224
-3.9995,0.2594980573562781,0.775644561267536
-3.999,-0.156638762093345,0.06566978812131802
-3.9985,-0.5941159312583333,-0.7714646458869092
-3.998,-1.042263275281004,-1.449649503817625
-3.9975,-1.020922925565639,-1.492036057438295
-3.997,-0.3807124341046804,-0.8350444763179138
-3.9965,0.2594980573562781,-0.3793890248957141
-3.996,0.6863050516635838,-0.1462629799820306
-3.9955,0.8676980242441885,-0.1250697031716958
-3.995,0.857027849386506,-0.2098428104130352
-3.9945,0.7716664505250448,-0.326405832869877
-3.994,0.8356874996711408,-0.474758770542221
-3.9935,0.942389248247967,-0.6337083466197325
-3.993,0.8356874996711408,-0.6760949002404023
-3.9925,0.6969752265212663,-0.6443049850249
-3.992,0.6009436528021226,-0.5595318777835605
-3.9915,0.5262524287983441,-0.400582301706049
-3.991,0.7183155762366316,-0.4853554089473885
-3.9905,0.974399772821015,-0.9092209451540858
-3.99,0.4408910299368829,-1.34368311976595
-3.9895,-0.4767440078238243,-1.608599079895136
-3.989,-1.330357996438436,-1.608599079895136
-3.9885,-2.07727023647622,-1.42845622700729
-3.988,-2.280003558772191,-1.152943628472937
-3.9875,-1.778505340461106,-0.5171453241628908
-3.987,-0.9035510021311299,0.3623756634660061
-3.9865,-0.2420001609548061,1.082947075017392
-3.986,0.1848068333524996,1.538602526439591
-3.9855,0.3875401556484697,1.739938656137773
-3.985,0.4408910299368829,1.761131932948107
-3.9845,0.408880505363835,1.676358825706768
-3.984,0.3555296310754218,1.528005888034424
-3.9835,0.3128489316446912,1.347863035146577
-3.983,0.2168173579255475,1.188913459069066
-3.9825,-0.274010685527854,1.326669758336243
-3.982,-0.8502001278427167,1.167720182258731
-3.9815,-1.212986073003927,0.2776025562246667
-3.981,-1.031593100423322,-0.1780528951975329
-3.9805,-0.3166913849585846,-0.1992461720078678
-3.98,0.3341892813600565,-0.2310360872233701
-3.9795,0.7716664505250448,-0.3370024712750445
-3.979,0.9210488985326017,-0.5065486857577234
-3.9785,0.8997085488172365,-0.6337083466197325
-3.978,0.7823366253827275,-0.718481453861072
-3.9775,0.7503261008096795,-0.6337083466197325
-3.977,0.857027849386506,-0.3370024712750445
-3.9765,0.79300680024041,-0.252229364033705
-3.976,0.6649647019482183,-0.252229364033705
-3.9755,0.5475927785137094,-0.2204394488182027
-3.975,0.4622313796522482,-0.1144730647665284
-3.9745,0.4408910299368829,0.04447651131098315
-3.974,0.2808384070716433,0.01268659609548085
-3.9735,-0.1886492866663929,-0.3370024712750445
-3.973,-0.6261264558313813,-0.7290780922662394
-3.9725,-1.159635198715513,-0.9833974139902578
-3.972,-1.757164990745741,-1.046977244421262
-3.9715,-2.215982509626095,-0.9516074987747555
-3.971,-1.83185621474952,-0.4959520473525559
-3.9705,-0.9889124009925911,0.3411823866556712
-3.97,-0.3166913849585846,1.104140351827727
-3.9695,0.1314559590640864,1.602182356870596
-3.969,0.3661998059331045,1.835308401784279
-3.9685,0.4408910299368829,1.867098316999781
-3.968,0.4195506802215176,1.771728571353275
-3.9675,0.3768699807907871,1.602182356870596
-3.967,0.3021787567870086,1.400846227172415
-3.9665,0.2701682322139607,1.178316820663898
-3.966,0.1527963087794516,0.8710143069140429
-3.9655,-0.391382608962363,0.2140227257936621
-3.965,-0.8608703027003992,-0.6231117082145651
-3.9645,-1.223656247861609,-1.311893204550448
-3.964,-1.042263275281004,-1.322489842955616
-3.9635,-0.3380317346739499,-0.8668343915334161
-3.963,0.3341892813600565,-0.5065486857577234
-3.9625,0.7503261008096795,-0.3687923864905467
-3.962,0.8783681991018712,-0.4111789401112165
-3.9615,0.8356874996711408,-0.5807251545938954
-3.961,0.7289857510943143,-0.7714646458869092
-3.9605,0.7716664505250448,-0.7396747306714069
-3.96,0.7716664505250448,-0.7078848154559045
-3.9595,0.7183155762366316,-0.6654982618352349
-3.959,0.6116138276598051,-0.5913217929990628
-3.9585,0.5262524287983441,-0.474758770542221
-3.958,0.4942419042252961,-0.2628260024388724
-3.9575,0.825017324813458,0.3411823866556712
-3.957,1.070431346540159,1.146526905448396
-3.9565,0.4195506802215176,1.114736990232894
-3.956,-0.4980843575391895,0.2881991946298341
-3.9555,-1.351698346153801,-0.5595318777835605
-3.955,-2.087940411333903,-1.078767159636765
-3.9545,-2.215982509626095,-1.152943628472937
-3.954,-1.479740444445993,-0.5171453241628908
-3.9535,-0.6794773301197943,0.383568940276341
-3.953,-0.09261771294724913,1.146526905448396
-3.9525,0.2594980573562781,1.655165548896433
-3.952,0.4195506802215176,1.920081509025619
-3.9515,0.4302208550792003,2.015451254672126
-3.951,0.3982103305061524,1.994257977861791
-3.9505,0.3448594562177392,1.898888232215284
-3.95,0.3021787567870086,1.771728571353275
-3.9495,0.08877525963335578,1.676358825706768
-3.949,-0.5300948821122373,1.644568910491266
-3.9485,-1.06360362499637,0.9875773293708847
-3.948,-1.319687821580753,-0.07208651114585861
-3.9475,-1.010252750707956,-0.6019184314042303
-3.947,-0.2313299860971235,-0.474758770542221
-3.9465,0.4515612047945656,-0.3370024712750445
-3.946,0.8463576745288233,-0.3158091944647096
-3.9455,0.974399772821015,-0.4429688553267188
-3.945,0.9103787236749192,-0.6337083466197325
-3.9445,0.7716664505250448,-0.8456411147230812
-3.944,0.7716664505250448,-0.9728007755850904
-3.9435,0.8676980242441885,-1.01518732920576
-3.943,0.8143471499557753,-0.8880276683437509
-3.9425,0.6969752265212663,-0.718481453861072
-3.942,0.5689331282290746,-0.5489352393783931
-3.9415,0.4622313796522482,-0.3581957480853793
-3.941,0.5796033030867573,-0.3158091944647096
-3.9405,0.825017324813458,-0.7078848154559045
-3.94,0.4835717293676135,-1.174136905283272
-3.9395,0.05676473506030786,-1.407262950196955
-3.939,-0.658136980404429,-1.460246142222792
-3.9385,-1.405049220442214,-1.364876396576285
-3.938,-1.959898313041711,-1.174136905283272
-3.9375,-1.597112367880501,-0.5807251545938954
-3.937,-0.8608703027003992,0.2987958330350016
-3.9365,-0.2526703358124887,1.029963882991555
-3.936,0.1527963087794516,1.506812611224089
-3.9355,0.3661998059331045,1.729342017732605
-3.935,0.4195506802215176,1.771728571353275
-3.9345,0.3875401556484697,1.697552102517103
-3.934,0.3448594562177392,1.559795803249926
-3.9335,0.291508581929326,1.390249588767247
-3.933,0.2381577076409128,1.220703374284568
-3.9325,-0.1886492866663929,1.199510097474233
-3.932,-0.7648387289812555,0.9875773293708847
-3.9315,-1.191645723288561,0.1292496185523226
-3.931,-1.148965023857831,-0.3687923864905467
-3.9305,-0.4767440078238243,-0.3687923864905467
-3.93,0.2168173579255475,-0.3899856633008816
-3.9295,0.6756348768059011,-0.400582301706049
-3.929,0.8356874996711408,-0.4641621321370536
-3.9285,0.8143471499557753,-0.5807251545938954
-3.928,0.7289857510943143,-0.7078848154559045
-3.9275,0.707645401378949,-0.7820612842920766
-3.927,0.857027849386506,-0.5807251545938954
-3.9265,0.8143471499557753,-0.474758770542221
-3.926,0.6969752265212663,-0.4323722169215513
-3.9255,0.5689331282290746,-0.3687923864905467
-3.925,0.4835717293676135,-0.252229364033705
-3.9245,0.4942419042252961,-0.06148987274069118
-3.924,0.8676980242441885,0.1186529801471552
-3.9235,0.6116138276598051,-0.1780528951975329
-3.923,-0.1352984123779797,-0.6972881770507372
-3.9225,-0.7968492535543035,-0.9410108603695881
-3.922,-1.415719395299897,-1.05757388282643
-3.9215,-2.023919362187807,-1.046977244421262
-3.921,-1.991908837614759,-0.7714646458869092
-3.9205,-1.202315898146244,-0.008506680714854012
-3.92,-0.4874141826815069,0.7968378380778709
-3.9195,0.02475421048725994,1.390249588767247
-3.919,0.3021787567870086,1.70814874092227
-3.9185,0.4195506802215176,1.814115124973944
-3.918,0.4195506802215176,1.771728571353275
-3.9175,0.3555296310754218,1.644568910491266
-3.917,0.291508581929326,1.464426057603419
-3.9165,0.2701682322139607,1.25249328950007
-3.916,0.02475421048725994,1.029963882991555
-3.9155,-0.5514352318276028,0.8286277532933731
-3.915,-0.9142211769888124,0.2246193641988295
-3.9145,-1.074273799854052,-0.5277419625680583
-3.914,-0.754168554123573,-0.7820612842920766
-3.9135,-0.09261771294724913,-0.6443049850249
-3.913,0.4835717293676135,-0.5383386009732256
-3.9125,0.8036769750980928,-0.5171453241628908
-3.912,0.8890383739595538,-0.5913217929990628
-3.9115,0.825017324813458,-0.7078848154559045
-3.911,0.7289857510943143,-0.7820612842920766
-3.9105,0.825017324813458,-0.9304142219644207
-3.91,0.8356874996711408,-0.9304142219644207
-3.9095,0.7183155762366316,-0.7608680074817418
-3.909,0.5796033030867573,-0.5277419625680583
-3.9085,0.4835717293676135,-0.2840192792492073
-3.908,0.4302208550792003,-0.04029659593035631
-3.9075,0.2381577076409128,-0.1356663415768632
-3.907,-0.2420001609548061,-0.5807251545938954
-3.9065,-0.7861790786966207,-0.9410108603695881
-3.906,-1.30901764672307,-1.131750351662602
-3.9055,-1.863866739322568,-1.163540266878104
-3.905,-2.258663209056825,-1.068170521231597
-3.9045,-2.23732285934146,-0.8668343915334161
-3.904,-1.554431668449771,-0.2310360872233701
-3.9035,-0.722158029550525,0.5849050699745222
-3.903,-0.1139580626626144,1.220703374284568
-3.9025,0.2488278824985954,1.580989080060261
-3.902,0.4195506802215176,1.70814874092227
-3.9015,0.4408910299368829,1.655165548896433
-3.901,0.408880505363835,1.506812611224089
-3.9005,0.3555296310754218,1.316073119931075
-3.9,0.3128489316446912,1.093543713422559
-3.8995,0.1634664836371343,0.849821030103708
-3.899,-0.4020527838200457,0.3411823866556712
-3.8985,-0.8288597781273515,-0.4217755785163839
-3.898,-1.042263275281004,-1.0999604364471
-3.8975,-0.8608703027003992,-1.131750351662602
-3.897,-0.2526703358124887,-0.7820612842920766
-3.8965,0.3448594562177392,-0.5383386009732256
-3.896,0.7183155762366316,-0.4429688553267188
-3.8955,0.8463576745288233,-0.474758770542221
-3.895,0.79300680024041,-0.570128516188728
-3.8945,0.6863050516635838,-0.6654982618352349
-3.894,0.7183155762366316,-0.6654982618352349
-3.8935,0.8356874996711408,-0.6654982618352349
-3.893,0.7609962756673623,-0.6337083466197325
-3.8925,0.6542945270905358,-0.5383386009732256
-3.892,0.5689331282290746,-0.400582301706049
-3.8915,0.4942419042252961,-0.2310360872233701
-3.891,0.5689331282290746,-0.2946159176543747
-3.8905,0.6116138276598051,-0.7502713690765743
-3.89,0.07810508477567314,-1.184733543688439
-3.8895,-0.5834457564006506,-1.364876396576285
-3.889,-1.26633694729234,-1.311893204550448
-3.8885,-1.938557963326346,-1.163540266878104
-3.888,-2.258663209056825,-0.9516074987747555
-3.8875,-1.821186039891837,-0.4217755785163839
-3.887,-0.9462317015618604,0.4153588554918433
-3.8865,-0.274010685527854,1.135930267043229
-3.886,0.1634664836371343,1.591585718465428
