Class_6_Listen_To_Quran/Class_6_Listen_To_Quran_AM_1.csv

#Digilent WaveForms Oscilloscope Acquisition
#Device Name: EExplorer
#Serial Number: SN:210151A2B84A
#Date Time: 2020-10-20 17:05:21.092
#Sample rate: 2000Hz
#Samples: 16384
#Trigger: Source: Channel 1 Type: Edge Condition: Rising Level: 0 V Hyst.: Auto HoldOff: 0 s
#Channel 1: Range: 1 V/div Offset: 0 V
#Channel 2: Range: 1 V/div Offset: 0 V

Time (s),Channel 1 (V),Channel 2 (V)
-4.0960000000000001,0.63295417737517057,0.40476221708667587
-4.0955000000000004,0.57960330308680585,0.34118238665572909
-4.0949999999999998,0.56893312822919107,0.35177902506105074
-4.0945,0.69697522652126631,0.58490506997452218
-4.0940000000000003,0.72898575109428521,0.6590815388106267
-4.0934999999999997,0.67563487680584289,0.63788826200033055
-4.093,0.6116138276598051,0.60609834678485708
-4.0925000000000002,0.62228400251747817,0.53192187794875256
-4.0919999999999996,0.92104889853269878,-0.1038764263621801
-4.0914999999999999,1.0277506471094282,-1.0045906908005926
-4.0910000000000002,0.35552963107542179,-1.6827755487313083
-4.0904999999999996,-0.7114878546937351,-2.0854478081277961
-4.0899999999999999,-1.6931439415996454,-2.2232041073948472
-4.0895000000000001,-1.8745369141802501,-1.6933721871364757
-4.0890000000000004,-1.2663369472928929,-0.66549826183616956
-4.0884999999999998,-0.54076505696992005,0.24581264100916439
-4.0880000000000001,0.014084035629577295,0.86041766850887547
-4.0875000000000004,0.34485945621743835,1.1783168206636092
-4.0869999999999997,0.50491207908300795,1.2842832047155439
-4.0865,0.53692260365602662,1.2524932895000704
-4.0860000000000003,0.50491207908300795,1.1571235438536502
-4.0854999999999997,0.44089102993683443,1.051157159801793
-4.085,0.38754015564846972,0.94519077575021493
-4.0845000000000002,0.34485945621777797,0.86041766850895263
-4.0839999999999996,-0.039266838659427886,0.57430843156868017
-4.0834999999999999,-0.69014750497747701,-0.1674562567923655
-4.0830000000000002,-1.5971123678805015,-1.2695066509297783
-4.0824999999999996,-1.7251544661718392,-1.5450192494633319
-4.0819999999999999,-0.78617907869662074,-0.66549826183523486
-4.0815000000000001,0.046094560202625215,-0.019103319120021445
-4.0810000000000004,0.61161382765929073,0.33058574825018583
-4.0804999999999998,0.81434714995577528,0.42595549389701071
-4.0800000000000001,0.76099627566736228,0.37297230187117358
-4.0795000000000003,0.6649647019483057,0.29879583303506901
-4.0789999999999997,0.59027347794441076,0.26700591781949923
-4.0785,0.55826295337139209,0.26700591781949923
-4.0780000000000003,0.70764540137881315,0.383568940276235
-4.0774999999999997,0.77166645052499627,0.47893868592288641
-4.077,0.71831557623663156,0.52132523954351762
-4.0765000000000002,0.62228400251757521,0.56371179316414888
-4.0759999999999996,0.6009436528024914,0.5531151547585188
-4.0754999999999999,1.006410297394063,0.0020899576903134209
-4.0750000000000002,1.3051751934091769,-0.82444783791274634
-4.0744999999999996,0.61161382765887351,-1.4284562270075791
-4.0739999999999998,-0.41272295867772835,-1.746355379162313
-4.0735000000000001,-1.405049220442214,-1.8629184016191549
-4.0730000000000004,-1.6824737667417105,-1.4602461422231585
-4.0724999999999998,-1.1596351987155133,-0.53833860097322561
-4.0720000000000001,-0.4980843575391895,0.29879583303500157
-4.0715000000000003,0.01408403562911148,0.87101430691352244
-4.0709999999999997,0.3235191065025097,1.1677201822588177
-4.0705,0.47290155450993088,1.2630899279052379
-4.0700000000000003,0.51558225394062251,1.2418966510949223
-4.0694999999999997,0.50491207908292068,1.1571235438534671
-4.069,0.44089102993688295,1.0511571598018894
-4.0685000000000002,0.3768699807907871,0.94519077575021493
-4.0679999999999996,0.27016823221319403,0.77564456126681314
-4.0674999999999999,-0.57277558154296804,-0.019103319120021445
-4.0670000000000002,-1.522421143876723,-0.78206128429207655
-4.0664999999999996,-2.24799303419924,-1.6509856335162494
-4.0659999999999998,-2.3546947827759692,-2.1384310001535081
-4.0655000000000001,-1.5437614935920885,-1.4072629501969551
-4.0650000000000004,-0.53009488211315925,-0.45356549373275368
-4.0644999999999998,0.20614718306786484,0.15044289536265748
-4.0640000000000001,0.5689331282290746,0.38356894027634103
-4.0635000000000003,0.69697522652114985,0.44714877070728776
-4.0629999999999997,0.68630505166354494,0.41535885549180479
-4.0625,0.64362435223285308,0.37297230187117358
-4.0620000000000003,0.60094365280216144,0.34118238665570016
-4.0614999999999997,0.6863050516636906,0.41535885549191076
-4.0609999999999999,0.80367697509809277,0.48953532432801533
-4.0605000000000002,0.76099627566736228,0.48953532432801533
-4.0599999999999996,0.65429452709045821,0.4471487707073456
-4.0594999999999999,0.5689331282290746,0.4471487707073456
-4.0590000000000002,0.6116138276598051,0.21402272579366208
-4.0585000000000004,0.41955068022169234,-0.57012851618801474
-4.0579999999999998,-0.3700422592469978,-1.3754730349814528
-4.0575000000000001,-1.0422632752810042,-1.650985633515806
-4.0570000000000004,-1.5330913187339594,-1.5132293342487548
-4.0564999999999998,-1.9385579633263461,-1.5132293342486296
-4.056,-1.5651018433074537,-1.0257839676109275
-4.0555000000000003,-0.83952995298569388,-0.20984281041377728
-4.0549999999999997,-0.18864928666601441,0.48953532432842012
-4.0545,0.22748753278323011,0.93459413734504748
-4.0540000000000003,0.45156120479436179,1.1465269054482032
-4.0534999999999997,0.53692260365602662,1.1995100974742043
-4.0529999999999999,0.53692260365602662,1.1677201822587309
-4.0525000000000002,0.47290155450993088,1.0935437134225592
-4.0519999999999996,0.38754015564844063,1.0087706061811426
-4.0514999999999999,0.35552963107542179,0.92399749893988004
-4.0510000000000002,0.24882788249859539,0.88161094531921036
-4.0505000000000004,-0.3166913849580702,0.43655213230258294
-4.0499999999999998,-0.95690187641954316,-0.37938902489571413
-4.0495000000000001,-1.5971123678805015,-1.2906999277401132
-4.0490000000000004,-1.8211860398916333,-1.6085990798948471
-4.0484999999999998,-1.0209229255649401,-0.94101086036909665
-4.048,-0.25267033581248871,-0.40058230170604903
-4.0475000000000003,0.32351910650184984,0.05507314971573618
-4.0469999999999997,0.67563487680593992,0.36237566346603506
-4.0465,0.71831557623663156,0.39416557868150842
-4.0460000000000003,0.65429452709059399,0.34118238665571943
-4.0454999999999997,0.59027347794444951,0.29879583303497265
-4.0449999999999999,0.60094365280212259,0.26700591781949923
-4.0445000000000002,0.75032610080967954,0.17163617217299235
-4.0439999999999996,0.73965592595192886,0.17163617217304053
-4.0434999999999999,0.66496470194821833,0.2246193641988295
-4.0430000000000001,0.59027347794443985,0.26700591781949923
-4.0425000000000004,0.579603303086767,0.15044289536276351
-4.0419999999999998,0.38754015564846972,-0.54893523937839306
-4.0415000000000001,-0.34870190953163249,-1.3118932045504481
-4.0410000000000004,-1.0315931004227006,-1.8205318479980224
-4.0404999999999998,-1.735824641030832,-2.1066410849379769
-4.04,-2.23732285934146,-2.0748511697225034
-4.0395000000000003,-1.7571649907461779,-1.2906999277408264
-4.0389999999999997,-0.92489135184586435,-0.28401927924847481
-4.0385,-0.23132998609712346,0.52132523954351762
-4.0380000000000003,0.22748753278281286,1.0193672445859341
-4.0374999999999996,0.46223137965232586,1.2524932895001186
-4.0369999999999999,0.54759277851370936,1.3054764815259077
-4.0365000000000002,0.54759277851370936,1.2524932895000704
-4.0359999999999996,0.50491207908291091,1.1465269054482996
-4.0354999999999999,0.43022085507920033,1.0405605213967219
-4.0350000000000001,0.3768699807907871,0.95578741415538238
-4.0345000000000004,0.33418928136009535,0.87101430691412007
-4.0339999999999998,0.0034138607718946501,0.87101430691404291
-4.0335000000000001,-0.72215802955052499,0.61669498519002452
-4.0330000000000004,-1.746494815887127,-0.69728817704954205
-4.0324999999999998,-2.0132491873295812,-1.3754730349812119
-4.032,-1.4157193952998968,-1.1105570748522671
-4.0315000000000003,-0.5834457564014075,-0.59132179299953513
-4.0309999999999997,0.17413665849523421,-0.040296595930028635
-4.0305,0.63295417737517057,0.31998910984533641
-4.0300000000000002,0.72898575109422692,0.3729723018711254
-4.0294999999999996,0.68630505166352562,0.34118238665563272
-4.0289999999999999,0.62228400251748783,0.29879583303500157
-4.0285000000000002,0.59027347794443985,0.28819919462983412
-4.0279999999999996,0.73965592595203566,0.36237566346606398
-4.0274999999999999,0.78233662538272752,0.42595549389701071
-4.0270000000000001,0.72898575109431429,0.47893868592284788
-4.0265000000000004,0.64362435223293069,0.52132523954347909
-4.0259999999999998,0.57960330308675734,0.48953532432801533
-4.0255000000000001,0.51558225394066137,-0.12506970317169577
-4.0250000000000004,0.12078578420676278,-0.99399405239463501
-4.0244999999999997,-0.54076505697058963,-1.598002441490306
-4.024,-1.2770071221500223,-1.9688847856708289
-4.0235000000000003,-2.0025790124717822,-2.1066410849378805
-4.0229999999999997,-2.0345895370448299,-1.6827755487304217
-4.0225,-1.3090176467230703,-0.70788481545590454
-4.0220000000000002,-0.53009488211294575,0.21402272579282366
-4.0214999999999996,0.046094560202926051,0.83922439169883933
-4.0209999999999999,0.3768699807907871,1.1677201822587309
-4.0205000000000002,0.52625242879834411,1.2736865663104053
-4.0199999999999996,0.558262953371363,1.2418966510948162
-4.0194999999999999,0.52625242879834411,1.146526905448396
-4.0190000000000001,0.47290155450993088,1.0193672445863871
-4.0185000000000004,0.41955068022156616,0.90280422212965128
-4.0179999999999998,0.36619980593310447,0.7968378380778709
-4.0175000000000001,0.27016823221396069,0.60609834678485708
-4.0170000000000003,-0.25267033581201315,-0.061489872740083995
-4.0164999999999997,-0.79684925355463343,-0.82444783791315113
-4.016,-1.1596351987155133,-1.2695066509297783
-4.0155000000000003,-1.1703053735731861,-1.2059268204988318
-4.0149999999999997,-0.93556152670361481,-1.0469772444207226
-4.0145,-0.31669138495858457,-0.4535654937318862
-4.0140000000000002,0.11011560934833287,-0.029699957525574416
-4.0134999999999996,0.41955068022171171,0.23521600260413186
-4.0129999999999999,0.63295417737517057,0.38356894027634103
-4.0125000000000002,0.63295417737517057,0.34118238665567124
-4.0119999999999996,0.5902734779445078,0.25640927941425468
-4.0114999999999998,0.66496470194821833,0.17163617217299235
-4.0110000000000001,0.75032610080967954,0.10805634174198775
-4.0105000000000004,0.7076454013789879,0.15044289536261893
-4.0099999999999998,0.64362435223285308,0.24581264100916439
-4.0095000000000001,0.57960330308675734,0.33058574825050385
-4.0090000000000003,0.47290155451002791,-0.10387642636096578
-4.0084999999999997,-0.28468086038611889,-0.97280077558565903
-4.008,-0.92489135184649518,-1.5980024414899687
-4.0075000000000003,-1.3623685210110856,-1.915901593644703
-4.0069999999999997,-1.9492281381842425,-2.0960444465326842
-4.0065,-2.1839719850530468,-1.9264982320501591
-4.0060000000000002,-1.5437614935920885,-1.0469772444212624
-4.0054999999999996,-0.72215802954994268,-0.06148987274002618
-4.0049999999999999,-0.08194753808956648,0.66967817721586165
-4.0045000000000002,0.31284893164469124,1.1041403518277266
-4.0039999999999996,0.50491207908303704,1.2842832047155921
-4.0034999999999998,0.5689331282290746,1.3054764815259077
-4.0030000000000001,0.54759277851370936,1.2313000126897355
-4.0025000000000004,0.50491207908301772,1.1359302670433153
-4.0019999999999998,0.45156120479456557,1.0193672445863871
-4.0015000000000001,0.41955068022151765,0.9134008605347127
-4.0010000000000003,0.15279630877969425,1.0405605213966063
-4.0004999999999997,-0.54076505697050237,1.5491991648448549
-4,-1.1809755484308786,1.655165548896433
-3.9994999999999998,-1.5117509690190405,0.7968378380778709
-3.9990000000000001,-1.1703053735731959,0.20342608738849466
-3.9984999999999999,-0.66880715526211176,-0.12506970317169577
-3.9980000000000002,-0.5621054066852853,-0.55953187778356051
-3.9975000000000001,-0.071277363231883828,-0.37938902489571413
-3.9969999999999999,0.21681735792554749,-0.24163272562853755
-3.9965000000000002,0.40888050536383502,-0.061489872740691176
-3.996,0.59027347794443985,0.19282944898332721
-3.9954999999999998,0.6116138276598051,0.31998910984533641
-3.9950000000000001,0.63295417737517057,0.35177902506083869
-3.9944999999999999,0.75032610080967954,0.35177902506083869
-3.9940000000000002,0.72898575109431429,0.42595549389701071
-3.9935,0.67563487680590106,0.52132523954351762
-3.9929999999999999,0.72898575109431429,0.42595549389701071
-3.9925000000000002,0.81434714995577528,0.5637117931641874
-3.992,1.3371857179822249,1.1995100974742332
-3.9914999999999998,1.3905365922706379,1.4432327807930845
-3.9910000000000001,0.41955068022151765,0.55311515475901996
-3.9904999999999999,-0.72215802955052499,-0.55953187778356051
-3.9900000000000002,-1.7038141164573279,-1.42845622700729
-3.9895,-1.7464948158880587,-1.42845622700729
-3.9889999999999999,-1.1169544992847826,-0.6972881770507372
-3.9885000000000002,-0.42339313353541097,0.086863064931652884
-3.988,0.08877525963335578,0.69087145402619654
-3.9874999999999998,0.38754015564846972,1.0511571598018894
-3.9870000000000001,0.51558225394066137,1.2313000126897355
-3.9864999999999999,0.54759277851370936,1.2948798431207402
-3.9860000000000002,0.52625242879834411,1.2842832047155728
-3.9855,0.4622313796522482,1.2524932895000704
-3.9849999999999999,0.40888050536383502,1.2101067358794007
-3.9845000000000002,0.33418928136005654,1.1677201822587309
-3.984,-0.039266838658835915,0.83922439169854057
-3.9834999999999998,-0.69014750497747701,0.012686596095480854
-3.9830000000000001,-1.0636036249963696,-0.82444783791274634
-3.9824999999999999,-0.91422117698881245,-1.0893637980419322
-3.9820000000000002,-0.16730893695102761,-0.50654868575772338
-3.9815,0.28083840707164331,-0.061489872740691176
-3.9809999999999999,0.046094560202625215,-0.3581957480853793
-3.9805000000000001,0.18480683335249956,-0.25222936403370499
-3.98,0.24882788249859539,-0.17805289519753292
-3.9794999999999998,0.34485945621773917,-0.072086511145858609
-3.9790000000000001,0.50491207908297886,0.10805634174198775
-3.9784999999999999,0.5689331282290746,0.17163617217299235
-3.9780000000000002,0.67563487680590106,0.16103953376782493
-3.9775,0.6863050516635838,0.17163617217299235
-3.9769999999999999,0.63295417737517057,0.23521600260399694
-3.9765000000000001,0.5689331282290746,0.30939247144016896
-3.976,0.63295417737517057,0.26700591781949923
-3.9754999999999998,1.1771330951169852,-0.40058230170604903
-3.9750000000000001,1.2945050185514941,-1.2165234589039415
-3.9744999999999999,0.3982103305061524,-1.8099352095933177
-3.9740000000000002,-0.62612645583138127,-2.0960444465328383
-3.9735,-1.6291228924535495,-2.1808175537741779
-3.9729999999999999,-2.0025790124724421,-1.84172512480882
-3.9725000000000001,-1.4584000947306273,-0.87743102993858346
-3.972,-0.69014750497747701,0.097459703336820316
-3.9714999999999998,-0.071277363231883828,0.78624119967270345
-3.9710000000000001,0.30217875678700862,1.1571235438535634
-3.9704999999999999,0.49424190422529612,1.2842832047155728
-3.9700000000000002,0.54759277851370936,1.2736865663104053
-3.9695,0.53692260365602662,1.1889134590690658
-3.9689999999999999,0.49424190422529612,1.0617537982070568
-3.9685000000000001,0.45156120479456557,0.94519077575021493
-3.968,0.3982103305061524,0.83922439169854057
-3.9674999999999998,0.25949805735627807,0.5637117931641874
-3.9670000000000001,-0.3700422592469978,-0.1674562567923655
-3.9664999999999999,-1.1062843244271001,-0.95160749877475548
-3.9660000000000002,-1.5757720181651362,-1.5026326958434622
-3.9655,-1.1916457232885611,-1.2906999277401132
-3.9649999999999999,-0.64746680554674652,-0.82444783791274634
-3.9645000000000001,-0.51942470725455481,-0.83504447631791379
-3.964,-0.049937013516518552,-0.4535654937318862
-3.9634999999999998,0.21681735792554749,-0.1674562567923655
-3.9630000000000001,0.40888050536383502,0.065669788121318018
-3.9624999999999999,0.59027347794443985,0.27760255622466667
-3.9620000000000002,0.59027347794443985,0.30939247144016896
-3.9615,0.66496470194821833,0.26700591781949923
-3.9609999999999999,0.71831557623663156,0.2246193641988295
-3.9605000000000001,0.67563487680590106,0.24581264100916439
-3.96,0.6116138276598051,0.29879583303500157
-3.9594999999999998,0.55826295337139209,0.34118238665567124
-3.9590000000000001,0.54759277851370936,-0.029699957525188878
-3.9584999999999999,0.16346648363713429,-0.86683439153341613
-3.9580000000000002,-0.50875453239687207,-1.5768091646796343
-3.9575,-1.1489650238578306,-2.0006747008863313
-3.9569999999999999,-1.8638667393225676,-2.2443973842051821
-3.9565000000000001,-2.23732285934146,-2.0854478081276708
-3.956,-1.6291228924535495,-1.1529436284729369
-3.9554999999999998,-0.79684925355430347,-0.1674562567923655
-3.9550000000000001,-0.12462823752029703,0.57430843156935485
-3.9544999999999999,0.29150858192932599,0.99817396777605205
-3.9540000000000002,0.49424190422529612,1.1889134590690658
-3.9535,0.55826295337139209,1.2101067358794007
-3.9529999999999998,0.55826295337139209,1.146526905448396
-3.9525000000000001,0.50491207908297886,1.0617537982070568
-3.952,0.4622313796522482,0.95578741415538238
-3.9514999999999998,0.43022085507920033,0.86041766850887547
-3.9510000000000001,0.3768699807907871,0.72266136924169888
-3.9504999999999999,-0.071277363231883828,0.15044289536265748
-3.9500000000000002,-0.66880715526211176,-0.63370834661973252
-3.9495,-1.3943790455845313,-1.3436831197659505
-3.9489999999999998,-2.0879404113339031,-1.9794814240759964
-3.9485000000000001,-1.4584000947306273,-1.2483133741194434
-3.948,-0.63679663068906378,-0.42177557851638392
-3.9474999999999998,0.014084035629577295,0.15044289536265748
-3.9470000000000001,0.50491207908297886,0.48953532432801533
-3.9464999999999999,0.66496470194821833,0.52132523954351762
-3.9460000000000002,0.66496470194821833,0.42595549389701071
-3.9455,0.62228400251748783,0.33058574825050385
-3.9449999999999998,0.66496470194821833,0.24581264100916439
-3.9445000000000001,0.84635767452882327,0.055073149716150585
-3.944,0.83568749967114075,0.044476511310983152
-3.9434999999999998,0.73965592595199681,0.15044289536265748
-3.9430000000000001,0.64362435223285308,0.27760255622466667
-3.9424999999999999,0.64362435223285308,0.16103953376782493
-3.9420000000000002,0.4622313796522482,-0.55953187778356051
-3.9415,-0.27401068552785401,-1.3436831197659505
-3.9409999999999998,-1.0529334501386869,-1.8841116784294898
-3.9405000000000001,-1.7891755153187892,-2.1914141921793449
-3.9399999999999999,-2.3760351324913342,-2.1702209153690104
-3.9394999999999998,-1.9065474387532981,-1.3754730349814528
-3.9390000000000001,-1.0209229255656389,-0.36879238649054674
-3.9384999999999999,-0.27401068552785401,0.43655213230217815
-3.9380000000000002,0.21681735792554749,0.94519077575021493
-3.9375,0.47290155450993088,1.1677201822587309
-3.9369999999999998,0.55826295337139209,1.2207033742845681
-3.9365000000000001,0.55826295337139209,1.1783168206638983
-3.9359999999999999,0.51558225394066137,1.0829470750173917
-3.9355000000000002,0.4622313796522482,0.98757732937088472
-3.9350000000000001,0.41955068022151765,0.89220758372437781
-3.9344999999999999,0.36619980593310447,0.82862775329337313
-3.9340000000000002,-0.22065981123944084,0.30939247144016896
-3.9335,-1.2343264227192918,-0.80325456110241145
-3.9329999999999998,-1.554431668449771,-1.42845622700729
-3.9325000000000001,-1.8638667393225676,-1.9900780624811638
-3.9319999999999999,-1.3837088707268488,-1.523825972653797
-3.9315000000000002,-0.44473348325077627,-0.5807251545938954
-3.931,0.21681735792554749,0.033879872905815719
-3.9304999999999999,0.52625242879834411,0.29879583303500157
-3.9300000000000002,0.64362435223285308,0.39416557868150842
-3.9295,0.65429452709053582,0.40476221708667587
-3.9289999999999998,0.62228400251748783,0.37297230187117358
-3.9285000000000001,0.6116138276598051,0.35177902506083869
-3.9279999999999999,0.73965592595199681,0.26700591781949923
-3.9275000000000002,0.76099627566736228,0.24581264100916439
-3.927,0.69697522652126631,0.28819919462983412
