Class_6_Listen_To_Quran/Class_6_Listen_To_Quran_SH_3.csv

#Digilent WaveForms Oscilloscope Acquisition
#Device Name: EExplorer
#Serial Number: SN:210151A2B84A
#Date Time: 2020-11-25 11:39:53.620
#Sample rate: 2000Hz
#Samples: 16384
#Trigger: Source: Channel 1 Type: Edge Condition: Rising Level: 0 V Hyst.: Auto HoldOff: 0 s
#Channel 1: Range: 1 V/div Offset: 0 V Attenuation: 1 X
#Channel 2: Range: 1 V/div Offset: 0 V Attenuation: 1 X
#Power Supplies: ON
#Fixed Supply: ON
#Voltage: 3.3 V Readback: 3.325 V
#Positive Supply: ON
#Voltage: 3.7 V Readback: 3.711 V
#Current: 40 mA Readback: 21 mA
#Negative Supply: ON
#Voltage: -3.7 V Readback: -3.345 V
#Current: -40 mA Readback: -9 mA
#Reference 1: ON
#Voltage: 0 V
#Reference 2: ON
#Voltage: 0 V

Time (s),Channel 1 (V),Channel 2 (V)
-4.096,-0.3593720843893152,0.01268659609548085
-4.0955,-0.04993701351679997,0.6166949851894752
-4.095,0.1634664836372216,0.9875773293710486
-4.0945,0.2594980573562781,1.167720182258731
-4.094,0.3021787567869698,1.22070337428452
-4.0935,0.3021787567869892,1.210106735879343
-4.093,0.2808384070716433,1.146526905448396
-4.0925,0.2488278824986245,1.072350436612292
-4.092,0.2274875327831913,0.9981739677759942
-4.0915,0.1848068333524996,0.9345941373450475
-4.091,0.09944543449103843,0.8922075837243778
-4.0905,-0.3273615598168107,0.4047622170858856
-4.09,-0.9248913518464952,-0.4641621321370536
-4.0895,-1.234326422719292,-1.237716735714276
-4.089,-1.565101843307153,-1.809935209592797
-4.0885,-1.693143941599645,-1.661582271920973
-4.088,-1.255666772434657,-0.9304142219644207
-4.0875,-0.6261264558319538,-0.3370024712755841
-4.087,-0.07127736323154417,-0.008506680714825099
-4.0865,0.3021787567870086,0.02328323450064829
-4.086,0.5049120790827945,-0.01910331911998289
-4.0855,0.60094365280221,-0.01910331912005999
-4.085,0.6969752265212663,-0.06148987274069118
-4.0845,0.6969752265212663,-0.1144730647664802
-4.084,0.5902734779443525,-0.1568596183872173
-4.0835,0.4942419042252961,-0.1780528951975329
-4.083,0.4408910299368829,-0.1144730647665284
-4.0825,0.4729015545103676,-0.05089323433509969
-4.082,0.9530594231056497,0.4153588554918433
-4.0815,0.9210488985326017,0.4895353243280153
-4.081,0.05676473506109392,-0.1886495336020835
-4.0805,-0.658136980404429,-0.718481453861072
-4.08,-0.690147504977477,-0.5383386009732256
-4.0795,-0.4233931335356536,-0.06148987274112488
-4.079,-0.1352984123777759,0.4259554938973577
-4.0785,0.08877525963335578,0.8074344764830383
-4.078,0.227487532783104,1.061753798206825
-4.0775,0.2808384070716627,1.220703374284645
-4.077,0.3021787567870086,1.305476481525908
-4.0765,0.2915085819293357,1.326669758336223
-4.076,0.2594980573562586,1.326669758336223
-4.0755,0.2381577076409128,1.305476481525908
-4.075,0.2061471830678648,1.263089927905238
-4.0745,0.1314559590638146,1.294879843120644
-4.074,-0.1673089369510276,1.188913459069066
-4.0735,-0.7755089038389382,0.4047622170866759
-4.073,-1.095614149569126,-0.5595318777826834
-4.0725,-1.330357996438436,-1.34368311976595
-4.072,-1.650463242168915,-1.79933857118815
-4.0715,-1.383708870727091,-1.343683119766365
-4.071,-0.7008176798346163,-0.7820612842916621
-4.0705,-0.1032878878049318,-0.326405832869877
-4.07,0.2915085819289669,-0.07208651114608994
-4.0695,0.5049120790830177,-0.07208651114594535
-4.069,0.5475927785137094,-0.1674562567923655
-4.0685,0.6329541773751706,-0.3370024712750445
-4.068,0.8143471499557364,-0.5065486857576752
-4.0675,0.7716664505250448,-0.4535654937318862
-4.067,0.6222840025174878,-0.3052125560595421
-4.0665,0.5155822539406129,-0.1038764263612067
-4.066,0.4622313796522482,0.06566978812131802
-4.0655,0.7396559259519968,0.1292496185523226
-4.065,1.091771696255204,0.2670059178193739
-4.0645,0.4195506802215176,-0.2416327256285375
-4.064,-0.4874141826815069,-0.8456411147230812
-4.0635,-1.127624674141883,-1.216523458903604
-4.063,-1.042263275280635,-0.9198175835586846
-4.0625,-0.6367966306890638,-0.2946159176543747
-4.062,-0.2313299860974922,0.2987958330344619
-4.0615,0.06743490991813607,0.733258007647088
-4.061,0.2274875327832301,0.9769806909657173
-4.0605,0.3021787567870086,1.093543713422559
-4.06,0.3128489316446718,1.135930267043219
-4.0595,0.291508581929326,1.125333628638062
-4.059,0.2274875327832301,1.093543713422559
-4.0585,0.1741366584948654,1.061753798207086
-4.058,0.1207857842064037,1.093543713422559
-4.0575,0.02475421048725994,1.019367244586387
-4.057,-0.4340633083926764,0.3305857482511303
-4.0565,-1.031593100423322,-0.6019184314042303
-4.056,-1.394379045584531,-1.38606967338662
-4.0555,-1.703814116457047,-1.937094870454825
-4.055,-1.618452717595314,-1.619195718299697
-4.0545,-1.010252750707956,-0.9516074987747555
-4.054,-0.3380317346745613,-0.3793890248962346
-4.0535,0.1421261339220019,-0.01910331911993471
-4.053,0.3982103305061524,0.07626642652648545
-4.0525,0.4942419042252961,0.01268659609548085
-4.052,0.5369226036561334,-0.1144730647666826
-4.0515,0.6542945270905358,-0.2840192792492073
-4.051,0.6436243522328531,-0.326405832869877
-4.0505,0.675634876805872,-0.4111789401111394
-4.05,0.6756348768059011,-0.3793890248957141
-4.0495,0.5902734779444399,-0.2628260024388724
-4.049,0.6222840025174587,-0.2204394488182412
-4.0485,1.102441871113003,-0.464162132137468
-4.048,0.8783681991018712,-0.9198175835592532
-4.0475,0.05676473506105517,-1.407262950196512
-4.047,-0.8395299529851989,-1.714565463946425
-4.0465,-1.020922925565639,-1.290699927740113
-4.046,-0.7114878546931237,-0.4747587705429631
-4.0455,-0.3166913849583031,0.2564092794147848
-4.045,-0.007256314085787988,0.7544512844572011
-4.0445,0.1954770082101822,1.051157159801889
-4.044,0.2915085819293454,1.178316820663908
-4.0435,0.3128489316446912,1.188913459069066
-4.043,0.3021787567870086,1.146526905448396
-4.0425,0.2808384070716627,1.082947075017449
-4.042,0.2488278824985954,0.9981739677760521
-4.0415,0.2061471830678648,0.8710143069140429
-4.041,0.1314559590641543,0.8392243916985694
-4.0405,-0.3166913849592542,0.584905069973809
-4.04,-1.052933450138687,-0.1992461720078678
-4.0395,-1.597112367880007,-1.025783967610176
-4.039,-1.981238662757096,-1.66158227192107
-4.0385,-2.002579012472442,-1.767548655972648
-4.038,-1.34102817129672,-1.205926820499285
-4.0375,-0.647466805546271,-0.6231117082142181
-4.037,-0.124628237520297,-0.2416327256285375
-4.0365,0.2381577076409128,-0.1568596183871981
-4.036,0.4408910299369509,-0.1144730647665284
-4.0355,0.5155822539406614,-0.1144730647665284
-4.035,0.5796033030867573,-0.2310360872233701
-4.0345,0.6436243522327949,-0.2310360872233701
-4.034,0.5902734779444399,-0.1886495336027004
-4.0335,0.5582629533713921,-0.1250697031716958
-4.033,0.5155822539407002,-0.061489872740749
-4.0325,0.5049120790833864,-0.09327978795649224
-4.032,0.9530594231056497,-0.4217755785163839
-4.0315,1.13445239568609,-0.8668343915330113
-4.031,0.3448594562169046,-1.396666311792144
-4.0305,-0.572775581542968,-1.788741932782983
-4.03,-0.9355615267038477,-1.502632695843722
-4.0295,-0.7221580295502047,-0.6866915386448662
-4.029,-0.3700422592469978,0.08686306493165288
-4.0285,-0.04993701351651855,0.6484849004055269
-4.028,0.1634664836372313,0.9981739677761966
-4.0275,0.2701682322139607,1.157123543853563
-4.027,0.3021787567870086,1.210106735879401
-4.0265,0.3128489316446815,1.188913459069085
-4.026,0.2808384070716433,1.135930267043229
-4.0255,0.2381577076409128,1.072350436612224
-4.025,0.195477008210221,1.019367244586435
-4.0245,0.1207857842061708,1.008770606181075
-4.024,-0.1352984123779797,0.849821030103708
-4.0235,-0.7861790786960288,0.1080563417426624
-4.023,-1.341028171296341,-0.7820612842927319
-4.0225,-1.586442193022819,-1.502632695843462
-4.022,-1.5544316684498,-1.619195718300198
-4.0215,-1.074273799853518,-1.004590690800043
-4.021,-0.4874141826815069,-0.400582301706049
-4.0205,0.01408403562957729,-0.008506680714854012
-4.02,0.3235191065025097,0.1292496185523226
-4.0195,0.4729015545099309,0.1292496185523226
-4.019,0.5369226036560266,-0.06148987274069118
-4.0185,0.5902734779443913,-0.1992461720077425
-4.018,0.7183155762366316,-0.1674562567923655
-4.0175,0.7183155762366316,-0.1462629799820306
-4.017,0.6116138276599021,-0.1568596183871885
-4.0165,0.483571729367565,-0.1356663415767957
-4.016,0.4302208550792003,-0.06148987274069118
-4.0155,0.6863050516633509,-0.1462629799819535
-4.015,1.017080472251241,-0.4959520473530474
-4.0145,0.4622313796522482,-1.036380606016095
-4.014,-0.2953510352425303,-1.39666631179146
-4.0135,-0.5194247072544287,-1.004590690799947
-4.013,-0.3807124341046804,-0.2946159176543747
-4.0125,-0.1352984123779797,0.3411823866556712
-4.012,0.06743490991811667,0.8180311148884564
-4.0115,0.2061471830678648,1.093543713422559
-4.011,0.2701682322139607,1.241896651094903
-4.0105,0.2915085819293066,1.30547648152585
-4.01,0.291508581929326,1.305476481525908
-4.0095,0.2701682322139607,1.263089927905238
-4.009,0.2488278824986148,1.220703374284607
-4.0085,0.1848068333524413,1.167720182258683
-4.008,0.1207857842064037,1.114736990232894
-4.0075,0.05676473506036608,1.061753798207105
-4.007,-0.380712434105253,0.4895353243271768
-4.0065,-1.010252750707956,-0.4323722169215513
-4.006,-1.437059745015262,-1.237716735714276
-4.0055,-1.821186039891769,-1.788741932782665
-4.005,-1.746494815888059,-1.439052865412457
-4.0045,-1.180975548430879,-0.7714646458869092
-4.004,-0.5194247072540599,-0.3370024712748324
-4.0035,0.02475421048725994,-0.1038764263613609
-4.003,0.3448594562177392,-0.02969995752518888
-4.0025,0.5262524287981791,-0.1674562567922402
-4.002,0.5902734779444399,-0.3158091944647096
-4.0015,0.7396559259519968,-0.4853554089473885
-4.001,0.7609962756673428,-0.4535654937319151
-4.0005,0.7609962756672847,-0.4323722169214164
-4,0.6756348768059011,-0.2840192792492073
-3.9995,0.5582629533713921,-0.09327978795619347
-3.999,0.5902734779444399,-0.02969995752518888
-3.9985,0.9957401225363802,-0.2204394488182027
-3.998,0.6222840025174878,-0.7290780922662394
-3.9975,-0.3166913849585846,-1.311893204550448
-3.997,-1.170305373573196,-1.746355379162313
-3.9965,-1.341028171296118,-1.51322933424863
-3.996,-0.9462317015618604,-0.7290780922662394
-3.9955,-0.4447334832507763,0.01268659609548085
-3.995,-0.04993701351651855,0.5425185163538525
-3.9945,0.1848068333524996,0.8604176685088755
-3.994,0.291508581929326,0.9981739677760521
-3.9935,0.3235191065023739,1.040560521396722
-3.993,0.3235191065023739,1.00877060618122
-3.9925,0.2808384070716433,0.9557874141553824
-3.992,0.2168173579255475,0.8922075837243778
-3.9915,0.142126133921769,0.8392243916985406
-3.991,0.1101156093487211,0.8286277532933731
-3.9905,-0.124628237520297,0.5107286011383502
-3.99,-0.722158029550525,-0.2946159176543747
-3.9895,-1.319687821580753,-1.0999604364471
-3.989,-1.778505340461106,-1.735758740757146
-3.9885,-2.045259711903173,-1.862918401619155
-3.988,-1.575772018165136,-1.121153713257435
-3.9875,-0.8608703027003992,-0.474758770542221
-3.987,-0.1993194615240755,-0.05089323433552374
-3.9865,0.2488278824985954,0.1610395337678249
-3.986,0.4942419042252961,0.1292496185523226
-3.9855,0.5582629533713921,0.04447651131098315
-3.985,0.6649647019482183,-0.07208651114585861
-3.9845,0.7716664505250448,-0.09327978795619347
-3.984,0.707645401378949,-0.07208651114585861
-3.9835,0.6436243522328531,-0.02969995752518888
-3.983,0.5689331282290746,0.02328323450064829
-3.9825,0.5155822539406614,0.06566978812131802
-3.982,0.8356874996711408,-0.252229364033705
-3.9815,0.79300680024041,-0.8562377531282487
-3.981,0.142126133921769,-1.42845622700729
-3.9805,-0.5514352318276028,-1.788741932782983
-3.98,-0.722158029550525,-1.322489842955616
-3.9795,-0.4980843575391895,-0.4959520473525559
-3.979,-0.1886492866663929,0.2352160026039969
-3.9785,0.05676473506030786,0.7332580076468663
-3.978,0.2061471830678648,1.019367244586387
-3.9775,0.2808384070716433,1.146526905448396
-3.977,0.3021787567870086,1.167720182258731
-3.9765,0.3021787567870086,1.135930267043229
-3.976,0.291508581929326,1.072350436612224
-3.9755,0.2701682322139607,0.9981739677760521
-3.975,0.2274875327832301,0.9451907757502149
-3.9745,0.1527963087794516,0.9557874141553824
-3.974,-0.08194753808956648,0.8392243916985406
-3.9735,-0.6794773301197943,0.6060983467848571
-3.973,-1.116954499284783,-0.06148987274069118
-3.9725,-1.298347471865388,-0.8668343915334161
-3.972,-1.629122892453549,-1.449649503817625
-3.9715,-1.543761493592088,-1.184733543688439
-3.971,-0.9248913518464952,-0.5595318777835605
-3.9705,-0.274010685527854,-0.09327978795619347
-3.97,0.2061471830678648,0.1504428953626575
-3.9695,0.4729015545099309,0.13984625695749
-3.969,0.5902734779444399,-0.008506680714854012
-3.9685,0.6222840025174878,-0.04029659593035631
-3.968,0.7503261008096795,0.1292496185523226
-3.9675,0.7183155762366316,0.1504428953626575
-3.967,0.6116138276598051,0.08686306493165288
-3.9665,0.5049120790829789,0.04447651131098315
-3.966,0.4515612047945656,0.01268659609548085
-3.9655,0.6436243522328531,-0.2416327256285375
-3.965,1.113112045970889,-0.8350444763179138
-3.9645,0.7609962756673623,-1.407262950196955
-3.964,-0.04993701351651855,-1.788741932782983
-3.9635,-0.4660738329661415,-1.396666311791788
-3.963,-0.4127229586777283,-0.570128516188728
-3.9625,-0.1886492866663929,0.1928294489833272
-3.962,0.02475421048725994,0.7332580076468663
-3.9615,0.1741366584948169,1.040560521396722
-3.961,0.2594980573562781,1.188913459069066
-3.9605,0.291508581929326,1.220703374284568
-3.96,0.291508581929326,1.199510097474233
-3.9595,0.2808384070716433,1.146526905448396
-3.959,0.2594980573562781,1.072350436612224
-3.9585,0.2274875327832301,1.00877060618122
-3.958,0.2061471830678648,0.9451907757502149
-3.9575,0.142126133921769,0.9134008605347127
-3.957,-0.3380317346739499,0.6060983467848571
-3.9565,-0.9889124009925911,-0.1780528951975329
-3.956,-1.319687821580753,-0.9939940523954253
-3.9555,-1.618452717595867,-1.619195718300304
-3.955,-1.543761493592088,-1.545019249464132
-3.9545,-0.8928808272734472,-0.9092209451540858
-3.954,-0.2099896363817582,-0.3687923864905467
-3.9535,0.3021787567870086,0.01268659609548085
-3.953,0.5262524287983441,0.1186529801471552
-3.9525,0.5902734779444399,0.01268659609548085
-3.952,0.5902734779444399,-0.1462629799820306
-3.9515,0.7183155762366316,-0.2416327256285375
-3.951,0.7609962756673623,-0.1780528951975329
-3.9505,0.6756348768059011,-0.1038764263613609
-3.95,0.5689331282290746,-0.04029659593035631
-3.9495,0.5262524287983441,-0.008506680714854012
-3.949,0.5689331282290746,-0.05089323433552374
-3.9485,1.038420821967111,-0.4853554089473885
-3.948,1.017080472251745,-1.089363798041932
-3.9475,0.3555296310754218,-1.608599079895136
-3.947,-0.2206598112394408,-1.576809164679634
-3.9465,-0.3060212101009019,-0.8562377531282487
-3.946,-0.1779791118087102,-0.09327978795619347
-3.9455,0.00341386077189465,0.4895353243280153
-3.945,0.142126133921769,0.8604176685088755
-3.9445,0.2274875327832301,1.051157159801889
-3.944,0.2701682322139607,1.125333628638062
-3.9435,0.291508581929326,1.125333628638062
-3.943,0.2808384070716433,1.082947075017392
-3.9425,0.2488278824985954,1.029963882991555
-3.942,0.2381577076409128,0.9769806909657173
-3.9415,0.2274875327832301,0.92399749893988
-3.941,0.1741366584948169,0.92399749893988
-3.9405,-0.007256314085787988,0.701468092431364
-3.94,-0.5407650569699201,-0.08268314955102604
-3.9395,-1.052933450138687,-0.9198175835592532
-3.939,-1.415719395299897,-1.566212526274467
-3.9385,-1.629122892453549,-1.587405803084801
-3.938,-1.287677297007705,-0.9728007755850904
-3.9375,-0.754168554123573,-0.3687923864905467
-3.937,-0.2206598112394408,-0.04029659593035631
-3.9365,0.1741366584948169,0.04447651131098315
-3.936,0.3875401556484697,-0.008506680714854012
-3.9355,0.4729015545099309,-0.1356663415768632
-3.935,0.6009436528021226,-0.2734226408440398
-3.9345,0.8676980242441885,-0.1568596183871981
-3.934,0.8783681991018712,0.06566978812131802
-3.9335,0.7503261008096795,0.1822328105781598
-3.933,0.5796033030867573,0.2458126410091644
-3.9325,0.4835717293676135,0.2987958330350016
-3.932,0.7823366253827275,-0.01910331912002144
-3.9315,1.091771696255524,-0.6972881770507372
-3.931,0.4195506802215176,-1.333086481360783
-3.9305,-0.3273615598162672,-1.534422611058964
-3.93,-0.4980843575391895,-0.9516074987747555
-3.9295,-0.3487019095316325,-0.2098428104130352
-3.929,-0.1139580626626144,0.4047622170866759
-3.9285,0.08877525963335578,0.7968378380778709
-3.928,0.2061471830678648,0.9981739677760521
-3.9275,0.2701682322139607,1.082947075017392
-3.927,0.291508581929326,1.082947075017392
-3.9265,0.291508581929326,1.040560521396722
-3.926,0.2701682322139607,0.9769806909657173
-3.9255,0.2488278824985954,0.9134008605347127
-3.925,0.2381577076409128,0.8604176685088755
-3.9245,0.1634664836371343,0.849821030103708
-3.924,-0.007256314085787988,0.7544512844572011
-3.9235,-0.4980843575391895,0.09745970333682032
-3.923,-0.9995825758502737,-0.7502713690765743
-3.9225,-1.277007122150022,-1.449649503817625
-3.922,-1.597112367880501,-1.926498232050159
-3.9215,-1.575772018165136,-1.693372187136476
-3.921,-1.042263275281004,-0.9198175835592532
-3.9205,-0.4660738329661415,-0.2416327256285375
-3.92,0.04609456020262521,0.07626642652648545
-3.9195,0.3661998059331045,0.09745970333682032
-3.919,0.5262524287983441,0.02328323450064829
-3.9185,0.6116138276598051,-0.1250697031716958
-3.918,0.8036769750980928,-0.3052125560595421
-3.9175,0.8463576745288233,-0.2840192792492073
-3.917,0.7183155762366316,-0.1992461720078678
-3.9165,0.5796033030867573,-0.1038764263613609
-3.916,0.4622313796522482,0.01268659609548085
-3.9155,0.5369226036560266,-0.09327978795619347
-3.915,0.9317190733902845,-0.6443049850249
-3.9145,0.5155822539406614,-1.269506650929778
-3.914,-0.2313299860971235,-1.75695201756748
-3.9135,-0.5941159312583333,-1.502632695843462
-3.913,-0.4767440078238243,-0.7290780922662394
-3.9125,-0.2313299860971235,-0.02969995752518888
-3.912,0.01408403562957729,0.4789386859228479
-3.9115,0.1741366584948169,0.775644561267536
-3.911,0.2488278824985954,0.8922075837243778
-3.9105,0.291508581929326,0.9345941373450475
-3.91,0.291508581929326,0.9134008605347127
-3.9095,0.2808384070716433,0.8710143069140429
-3.909,0.2594980573562781,0.8286277532933731
-3.9085,0.2061471830678648,0.7862411996727035
-3.908,0.1527963087794516,0.8074344764830383
-3.9075,0.03542438534494258,0.8392243916985406
-3.907,-0.4020527838200457,0.4789386859228479
-3.9065,-0.9782422261349084,-0.3475991096802118
-3.906,-1.415719395299897,-1.121153713257435
-3.9055,-1.533091318734406,-1.460246142222792
-3.905,-1.138294849000148,-0.9939940523954253
-3.9045,-0.5621054066852853,-0.3158091944647096
-3.904,-0.04993701351651855,0.1080563417419877
-3.9035,0.2701682322139607,0.309392471440169
-3.903,0.4302208550792003,0.2670059178194992
-3.9025,0.4835717293676135,0.09745970333682032
-3.902,0.4942419042252961,-0.04029659593035631
-3.9015,0.6222840025174878,-0.08268314955102604
-3.901,0.6863050516635838,-0.05089323433552374
-3.9005,0.6222840025174878,0.01268659609548085
-3.9,0.5369226036560266,0.09745970333682032
-3.8995,0.4515612047945656,0.1716361721729923
-3.899,0.4622313796522482,0.2670059178194992
-3.8985,0.942389248247967,0.6590815388106942
-3.898,0.9317190733902845,0.7120647308365314
-3.8975,0.142126133921769,-0.01910331912002144
-3.897,-0.7648387289812555,-0.8244478379127463
-3.8965,-1.042263275281004,-0.9939940523954253
-3.896,-0.7755089038389382,-0.5277419625680583
-3.8955,-0.3807124341046804,0.06566978812131802
-3.895,-0.03926683865883591,0.5743084315693548
-3.8945,0.1634664836371343,0.9028042221295453
-3.894,0.2701682322139607,1.082947075017392
-3.8935,0.3021787567870086,1.167720182258731
-3.893,0.3021787567870086,1.178316820663898
-3.8925,0.2808384070716433,1.157123543853563
-3.892,0.2381577076409128,1.114736990232894
-3.8915,0.1848068333524996,1.082947075017392
-3.891,0.1101156093487211,1.114736990232894
-3.8905,-0.2206598112394408,1.104140351827727
-3.89,-0.8715404775580819,0.4047622170866759
-3.8895,-1.138294849000148,-0.5489352393783931
-3.889,-1.234326422719292,-1.227120097309109
-3.8885,-1.202315898146244,-1.025783967610927
-3.888,-0.8181896032696687,-0.5489352393783931
-3.8875,-0.3166913849585846,-0.1568596183871981
-3.887,0.1101156093487211,0.04447651131098315
