Class_6_Listen_To_Quran/Class_6_Listen_To_Quran_AM_4.csv

#Digilent WaveForms Oscilloscope Acquisition
#Device Name: EExplorer
#Serial Number: SN:210151A2B84A
#Date Time: 2020-11-17 16:08:52.143
#Sample rate: 2000Hz
#Samples: 16384
#Trigger: Source: Channel 1 Type: Edge Condition: Rising Level: 0 V Hyst.: Auto HoldOff: 0 s
#Channel 1: Range: 1 V/div Offset: 0 V Attenuation: 1 X
#Channel 2: Range: 1 V/div Offset: 0 V Attenuation: 1 X
#Power Supplies: ON
#Fixed Supply: ON
#Voltage: 3.3 V Readback: 3.331 V
#Positive Supply: ON
#Voltage: 3.7 V Readback: 3.762 V
#Current: 500 mA Readback: 23 mA
#Negative Supply: ON
#Voltage: -3.7 V Readback: -3.683 V
#Current: -500 mA Readback: -9 mA
#Reference 1: ON
#Voltage: 0 V
#Reference 2: ON
#Voltage: 0 V

Time (s),Channel 1 (V),Channel 2 (V)
-4.096,0.9103787236749192,0.3729723018711736
-4.0955,0.7609962756674982,0.3411823866557002
-4.095,0.6222840025174102,0.2246193641986753
-4.0945,0.5369226036560266,0.05507314971615059
-4.094,0.6329541773750832,-0.2840192792488989
-4.0935,0.7716664505249866,-0.5913217929991207
-4.093,0.707645401378949,-0.6549016234300674
-4.0925,0.5796033030868738,-0.6125150698094362
-4.092,0.472901554509533,-0.5489352393781328
-4.0915,0.03542438534494258,-0.2628260024388724
-4.091,-0.8928808272734472,-0.02969995752518888
-4.0905,-1.661133417027083,-0.2840192792497855
-4.09,-2.19464215991073,-0.9198175835592532
-4.0895,-2.685470203364131,-0.718481453861072
-4.089,-2.600108804502748,0.1716361721721827
-4.0885,-1.682473766741963,0.6590815388106942
-4.088,-0.7968492535543035,0.6802748156210291
-4.0875,-0.1566387620939272,0.5637117931642934
-4.087,0.2274875327833757,0.4577454091124841
-4.0865,0.3875401556484697,0.4259554938970107
-4.086,0.4302208550791615,0.468342047517642
-4.0855,0.4088805053637962,0.5637117931642934
-4.085,0.3661998059331045,0.6802748156210291
-4.0845,0.2915085819293939,0.7968378380777649
-4.084,0.2488278824985178,0.8816109453192489
-4.0835,0.1634664836371343,0.92399749893988
-4.083,-0.3380317346739499,0.5955017083796896
-4.0825,-0.9248913518469027,-0.1780528951982076
-4.082,-1.373038695869166,-0.9198175835592532
-4.0815,-1.351698346153801,-1.152943628472937
-4.081,-0.6047861061166951,-0.7714646458872562
-4.0805,0.1741366584948169,-0.2310360872233701
-4.08,0.6649647019482183,0.1716361721729923
-4.0795,0.8356874996709855,0.3623756634658327
-4.079,0.8250173248133706,0.3623756634659098
-4.0785,0.7289857510943143,0.2564092794143318
-4.078,0.6116138276599119,0.1186529801472805
-4.0775,0.6116138276599797,-0.09327978795652116
-4.077,0.8036769750980928,-0.4535654937318862
-4.0765,0.782336625382747,-0.5489352393783063
-4.076,0.6436243522327366,-0.5277419625680101
-4.0755,0.5155822539406614,-0.474758770542221
-4.075,0.5902734779444399,-0.3052125560595421
-4.0745,0.8570278493860207,0.288199194630104
-4.074,0.3235191065023739,0.5849050699745222
-4.0735,-0.6154562809736985,-0.008506680714854012
-4.073,-1.56510184330659,-0.2310360872231677
-4.0725,-2.173301810195364,0.383568940276341
-4.072,-1.789175515318789,0.775644561267536
-4.0715,-1.031593100424011,0.7332580076469049
-4.071,-0.3593720843889173,0.5531151547588947
-4.0705,0.07810508477567314,0.4153588554918433
-4.07,0.3128489316444777,0.3729723018712121
-4.0695,0.3982103305061621,0.4259554938971071
-4.069,0.408880505363835,0.5319218779486851
-4.0685,0.3661998059331045,0.6590815388106942
-4.068,0.3128489316446427,0.7968378380779673
-4.0675,0.2594980573562781,0.9028042221295453
-4.067,0.1848068333524996,0.9981739677760521
-4.0665,-0.3380317346745128,1.093543713422231
-4.066,-0.9569018764195432,0.7332580076468663
-4.0655,-1.373038695869166,-0.1038764263613609
-4.065,-1.607782542737971,-0.7290780922656708
-4.0645,-1.020922925565639,-0.6654982618352349
-4.064,-0.124628237520297,-0.2628260024388724
-4.0635,0.5262524287977521,0.1398462569571238
-4.063,0.8143471499557849,0.3835689402764085
-4.0625,0.825017324813458,0.457745409112513
-4.062,0.7183155762367286,0.3729723018712507
-4.0615,0.6116138276597662,0.2458126410090102
-4.061,0.5689331282290746,0.07626642652648545
-4.0605,0.7503261008096795,0.1292496185523226
-4.06,0.7716664505249478,0.02328323450042662
-4.0595,0.6649647019482183,-0.2204394488182027
-4.059,0.5369226036560266,-0.4323722169215513
-4.0585,0.4515612047946432,-0.5807251545937605
-4.058,0.7503261008096795,-0.6549016234300674
-4.0575,0.6116138276598051,-1.004590690800593
-4.057,-0.1566387620926462,-1.492036057437852
-4.0565,-1.095614149569417,-1.0999604364471
-4.056,-1.906547438753298,0.03387987290581572
-4.0555,-1.970568487899336,0.8604176685081237
-4.055,-1.30901764672243,0.9345941373448547
-4.0545,-0.6047861061160158,0.7226613692416989
-4.054,-0.07127736323236911,0.5107286011385429
-4.0535,0.2381577076410389,0.4047622170866855
-4.053,0.3768699807907871,0.4153588554918433
-4.0525,0.408880505363835,0.5001319627331828
-4.052,0.3875401556484212,0.6166949851901402
-4.0515,0.3341892813600565,0.7438546460520338
-4.051,0.2808384070716433,0.8604176685088755
-4.0505,0.2168173579256057,0.9557874141552957
-4.05,-0.1032878878049318,0.9451907757502149
-4.0495,-0.7968492535543035,0.457745409112513
-4.049,-1.223656247861221,-0.368792386489795
-4.0485,-1.351698346153345,-0.8880276683435967
-4.048,-0.8502001278427167,-0.718481453861072
-4.0475,-0.04993701351724644,-0.2310360872238134
-4.047,0.5369226036562692,0.203426087388726
-4.0465,0.8036769750980928,0.457745409112513
-4.046,0.8250173248134386,0.510728601138302
-4.0455,0.7289857510942173,0.4365521323020914
-4.045,0.6222840025174878,0.3411823866556712
-4.0445,0.5475927785137094,0.1822328105781598
-4.044,0.6863050516636712,-0.05089323433572613
-4.0435,0.7823366253827275,-0.2734226408440398
-4.043,0.6969752265212663,-0.400582301706049
-4.0425,0.5689331282291911,-0.4747587705421536
-4.042,0.4835717293676135,-0.4959520473525559
-4.0415,0.6969752265212663,-0.1462629799820306
-4.041,0.5689331282291911,0.4683420475171215
-4.0405,-0.3807124341055247,0.6272916235950184
-4.04,-1.30901764672307,0.4365521323021782
-4.0395,-2.098610586190868,0.7756445612672276
-4.039,-2.450726356494463,1.26308992790517
-4.0385,-1.735824641030376,1.188913459069066
-4.038,-0.8928808272742138,0.7968378380782275
-4.0375,-0.2313299860967644,0.4683420475175359
-4.037,0.1634664836371343,0.309392471440169
-4.0365,0.3661998059331045,0.309392471440169
-4.036,0.4195506802215079,0.4153588554919879
-4.0355,0.408880505363835,0.5743084315693548
-4.035,0.3661998059331045,0.7544512844572011
-4.0345,0.3021787567870668,0.9134008605345681
-4.034,0.2488278824985954,1.040560521396722
-4.0335,0.1741366584948169,1.125333628638062
-4.033,-0.3060212101004652,0.9557874141555366
-4.0325,-0.8608703027006516,0.267005917818786
-4.032,-1.138294849000148,-0.5171453241628908
-4.0315,-0.9248913518466892,-0.7608680074815202
-4.031,-0.2313299860965412,-0.3370024712746011
-4.0305,0.408880505363835,0.1504428953626575
-4.03,0.750326100809369,0.4259554938967601
-4.0295,0.8356874996710826,0.4577454091124649
-4.029,0.7716664505250448,0.4047622170866759
-4.0285,0.6649647019482183,0.2987958330350016
-4.028,0.5796033030867962,0.1504428953624744
-4.0275,0.6222840025174878,-0.05089323433552374
-4.027,0.7823366253827275,-0.2416327256285375
-4.0265,0.7289857510943628,-0.3899856633007467
-4.026,0.6009436528021226,-0.4959520473525559
-4.0255,0.4835717293676135,-0.5807251545938954
-4.025,0.6329541773750347,-0.3475991096804238
-4.0245,0.9103787236743563,0.3517790250612917
-4.024,0.291508581929326,0.849821030103708
-4.0235,-0.5514352318268361,0.6060983467850787
-4.023,-1.426389570158123,0.6272916235955774
-4.0225,-2.023919362187807,1.051157159801889
-4.022,-1.725154466172965,1.061753798207047
-4.0215,-1.010252750707374,0.7014680924310652
-4.021,-0.3700422592469978,0.3729723018711736
-4.0205,0.0674349099179905,0.2034260873884947
-4.02,0.3021787567870959,0.2140227257937681
-4.0195,0.3982103305061524,0.3305857482505039
-4.019,0.408880505363835,0.5001319627331828
-4.0185,0.3661998059331433,0.7014680924311809
-4.018,0.3128489316446912,0.8816109453192104
-4.0175,0.2594980573562781,1.040560521396722
-4.017,0.1741366584948945,1.157123543853458
-4.0165,-0.3273615598168107,0.9875773293702775
-4.016,-0.9248913518464952,0.3199891098453364
-4.0155,-1.191645723288318,-0.4429688553260249
-4.015,-0.9035510021304312,-0.8032545611021994
-4.0145,-0.1352984123779797,-0.570128516188728
-4.014,0.5475927785130883,-0.07208651114631159
-4.0135,0.899708548817285,0.3517790250610122
-4.013,0.9530594231056497,0.5425185163538525
-4.0125,0.8463576745288233,0.5425185163538525
-4.012,0.6969752265211498,0.436552132301995
-4.0115,0.5689331282290746,0.2352160026039969
-4.011,0.5369226036560266,0.002089957690313421
-4.0105,0.7183155762364666,-0.1886495336025269
-4.01,0.7396559259519968,-0.3687923864905467
-4.0095,0.6329541773751706,-0.5171453241628908
-4.009,0.5155822539407682,-0.6549016234299421
-4.0085,0.5262524287987129,-0.6549016234298265
-4.008,0.9317190733902845,-0.3899856633008816
-4.0075,0.7289857510944987,-0.5913217929988798
-4.007,0.02475421048638653,-1.184733543688218
-4.0065,-0.9355615267041777,-0.9410108603695881
-4.006,-1.789175515318789,0.08686306493165288
-4.0055,-1.853196564464322,0.8074344764830672
-4.005,-1.234326422719292,0.8392243916985406
-4.0045,-0.5621054066852853,0.6060983467848571
-4.004,-0.06060718837392946,0.3941655786814121
-4.0035,0.2381577076409128,0.2881991946298341
-4.003,0.3661998059331045,0.2987958330350016
-4.0025,0.3982103305061233,0.3835689402762639
-4.002,0.3768699807907871,0.5001319627331828
-4.0015,0.3235191065023739,0.6378882620003594
-4.001,0.2808384070716821,0.7544512844570951
-4.0005,0.2381577076405634,0.8498210301037177
-4,-0.1459685872356623,0.8604176685088755
-3.9995,-0.7861790786966207,0.3729723018711736
-3.999,-1.138294849000148,-0.4429688553267188
-3.9985,-1.26633694729234,-1.004590690800593
-3.998,-0.7861790786966207,-0.9304142219644207
-3.9975,-0.007256314085787988,-0.4217755785163839
-3.997,0.5582629533713921,0.03387987290581572
-3.9965,0.8143471499557753,0.3305857482505039
-3.996,0.825017324813458,0.457745409112513
-3.9955,0.7289857510943143,0.4683420475176805
-3.995,0.6116138276598051,0.3411823866556712
-3.9945,0.5369226036560266,0.1610395337678249
-3.994,0.6542945270905358,0.07626642652648545
-3.9935,0.707645401378949,-0.04029659593035631
-3.993,0.6222840025174878,-0.2310360872233701
-3.9925,0.5049120790829789,-0.4111789401112165
-3.992,0.4408910299368829,-0.5065486857577234
-3.9915,0.5475927785137094,-0.2204394488182027
-3.991,0.4408910299368829,0.1504428953626575
-3.9905,-0.2099896363817582,-0.1674562567923655
-3.99,-0.8502001278427167,-0.4535654937318862
-3.9895,-1.586442193022819,0.1716361721729923
-3.989,-1.927887788468663,0.8710143069140429
-3.9885,-1.447729919872945,0.9134008605347127
-3.988,-0.754168554123573,0.6378882620003594
-3.9875,-0.1886492866663929,0.383568940276341
-3.987,0.1634664836371343,0.2564092794143318
-3.9865,0.3341892813600565,0.2670059178194992
-3.986,0.3982103305061524,0.3623756634660061
-3.9855,0.3875401556484697,0.5107286011383502
-3.985,0.3448594562177392,0.6696781772158616
-3.9845,0.291508581929326,0.8180311148882058
-3.984,0.2488278824985954,0.9345941373450475
-3.9835,0.07810508477567314,0.9663840525605498
-3.983,-0.5941159312583333,0.55311515475902
-3.9825,-1.234326422719292,-0.252229364033705
-3.982,-1.629122892453549,-0.9092209451540858
-3.9815,-1.501080794161358,-0.9833974139902578
-3.981,-0.6474668055467465,-0.4959520473525559
-3.9805,0.1741366584948169,0.05507314971615059
-3.98,0.6542945270905358,0.4153588554918433
-3.9795,0.79300680024041,0.5425185163538525
-3.979,0.7609962756673623,0.5213252395435176
-3.9785,0.6756348768059011,0.3623756634660061
-3.978,0.6009436528021226,0.1822328105781598
-3.9775,0.6756348768059011,-0.1462629799820306
-3.977,0.825017324813458,-0.5489352393783931
-3.9765,0.7503261008096795,-0.6654982618352349
-3.976,0.6116138276598051,-0.6549016234300674
-3.9755,0.4942419042252961,-0.6125150698093976
-3.975,0.6542945270905358,-0.2204394488182027
-3.9745,0.9530594231056497,0.5001319627331828
-3.974,0.3661998059331045,0.6908714540261965
-3.9735,-0.5407650569699201,0.3941655786815084
-3.973,-1.479740444445993,0.6802748156210291
-3.9725,-2.109280761049269,1.199510097474233
-3.972,-1.789175515318789,1.199510097474233
-3.9715,-1.052933450138687,0.7968378380778709
-3.971,-0.3807124341046804,0.4153588554918433
-3.9705,0.0674349099179905,0.2034260873884947
-3.97,0.3021787567870086,0.1716361721729923
-3.9695,0.3982103305061524,0.2670059178194992
-3.969,0.3982103305061524,0.4365521323021782
-3.9685,0.3661998059331045,0.627291623595192
-3.968,0.3021787567870086,0.8074344764830383
-3.9675,0.2594980573562781,0.9663840525605498
-3.967,0.1314559590640864,1.104140351827727
-3.9665,-0.5087545323968721,1.146526905448396
-3.966,-1.362368521011484,0.6590815388106942
-3.9655,-1.789175515318789,-0.1568596183871981
-3.965,-1.458400094730627,-0.5595318777835605
-3.9645,-0.5834457564006506,-0.2310360872233701
-3.964,0.2488278824985954,0.2352160026039969
-3.9635,0.7503261008096795,0.5213252395435176
-3.963,0.8890383739595538,0.5849050699745222
-3.9625,0.825017324813458,0.5107286011383502
-3.962,0.6969752265212663,0.3623756634660061
-3.9615,0.5902734779444399,0.13984625695749
-3.961,0.5689331282290746,-0.1038764263613609
-3.9605,0.7289857510943143,-0.5065486857577234
-3.96,0.707645401378949,-0.6654982618352349
-3.9595,0.6009436528021226,-0.6760949002404023
-3.959,0.4942419042252961,-0.6654982618352349
-3.9585,0.5262524287983441,-0.6231117082145651
-3.958,0.9317190733902845,-0.5489352393783931
-3.9575,0.707645401378949,-0.9516074987747555
-3.957,-0.02859666380115328,-1.608599079895136
-3.9565,-0.9995825758502737,-1.682775548731308
-3.956,-1.821186039891837,-0.6549016234300674
-3.9555,-1.810515865034154,0.2881991946298341
-3.955,-1.180975548430879,0.5743084315693548
-3.9545,-0.5194247072545548,0.5001319627331828
-3.954,-0.02859666380115328,0.3411823866556712
-3.9535,0.2488278824985954,0.2246193641988295
-3.953,0.3661998059331045,0.1822328105781598
-3.9525,0.3982103305061524,0.2034260873884947
-3.952,0.3768699807907871,0.2776025562246667
-3.9515,0.3235191065023739,0.3623756634660061
-3.951,0.2701682322139607,0.457745409112513
-3.9505,0.2061471830678648,0.5319218779486851
-3.95,-0.1993194615240755,0.3941655786815084
-3.9495,-0.839529952985034,-0.2946159176543747
-3.949,-1.255666772434657,-1.089363798041932
-3.9485,-1.255666772434657,-1.523825972653797
-3.948,-0.6047861061160158,-1.248313374119443
-3.9475,0.142126133921769,-0.6654982618352349
-3.947,0.6436243522328531,-0.1038764263613609
-3.9465,0.825017324813458,0.2670059178194992
-3.946,0.8036769750980928,0.4365521323021782
-3.9455,0.707645401378949,0.4471487707073456
-3.945,0.5902734779444399,0.3941655786815084
-3.9445,0.5155822539406614,0.2564092794143318
-3.944,0.6756348768059011,-0.1780528951975329
-3.9435,0.7289857510943143,-0.474758770542221
-3.943,0.6436243522328531,-0.5171453241628908
-3.9425,0.5262524287983441,-0.474758770542221
-3.942,0.408880505363835,-0.3687923864905467
-3.9415,-0.156638762093345,0.02328323450064829
-3.941,-1.06360362499637,0.1716361721729923
-3.9405,-1.67180359188428,-0.3687923864905467
-3.94,-2.098610586191586,-0.9304142219644207
-3.9395,-2.568098279929622,-0.3899856633008816
-3.939,-2.269333383914508,0.4047622170866759
-3.9385,-1.362368521011484,0.6590815388106942
-3.938,-0.5621054066852853,0.5425185163538525
-3.9375,-0.01792648894347063,0.3517790250608387
-3.937,0.2808384070716433,0.2140227257936621
-3.9365,0.408880505363835,0.1610395337678249
-3.936,0.4302208550792003,0.1822328105781598
-3.9355,0.3982103305061524,0.2670059178194992
-3.935,0.3448594562177392,0.3729723018711736
-3.9345,0.291508581929326,0.4683420475176805
-3.934,0.2701682322139607,0.55311515475902
-3.9335,0.01408403562957729,0.55311515475902
-3.933,-0.658136980404429,0.1080563417419877
-3.9325,-1.148965023857831,-0.6866915386455698
-3.932,-1.351698346153801,-1.269506650929778
-3.9315,-0.9462317015618604,-1.174136905283272
-3.931,-0.1886492866663929,-0.6549016234300674
-3.9305,0.4408910299368829,-0.1144730647665284
-3.93,0.7609962756673623,0.2246193641988295
-3.9295,0.8143471499557753,0.383568940276341
-3.929,0.7289857510943143,0.4259554938970107
-3.9285,0.6116138276598051,0.383568940276341
-3.928,0.5155822539406614,0.2564092794143318
-3.9275,0.6116138276598051,-0.09327978795619347
-3.927,0.7503261008096795,-0.4535654937318862
-3.9265,0.6969752265212663,-0.5277419625680583
-3.926,0.5689331282290746,-0.4959520473525559
-3.9255,0.4729015545099309,-0.4429688553267188
-3.925,0.6969752265212663,-0.2734226408440398
-3.9245,0.8143471499557753,-0.1356663415768632
-3.924,0.1314559590640864,-0.6231117082145651
-3.9235,-0.722158029550525,-0.9516074987747555
-3.923,-1.597112367880501,-0.252229364033705
-3.9225,-2.141291285622316,0.6908714540261965
-3.922,-1.714484291315011,0.9663840525605498
-3.9215,-0.9675720512772257,0.7332580076468663
-3.921,-0.3166913849585846,0.4047622170866759
-3.9205,0.1101156093487211,0.1822328105781598
-3.92,0.3235191065023739,0.08686306493165288
-3.9195,0.408880505363835,0.1080563417419877
-3.919,0.408880505363835,0.1928294489833272
-3.9185,0.3661998059331045,0.3199891098453364
-3.918,0.3235191065023739,0.4471487707073456
-3.9175,0.2808384070716433,0.55311515475902
-3.917,0.1314559590640864,0.6908714540261965
-3.9165,-0.5514352318276028,0.7544512844572011
-3.916,-1.351698346153801,0.2987958330350016
-3.9155,-1.661133417026597,-0.4853554089473885
-3.915,-1.287677297007705,-0.8668343915334161
-3.9145,-0.3807124341046804,-0.5913217929990628
-3.914,0.3982103305061524,-0.1038764263613609
-3.9135,0.825017324813458,0.2670059178194992
-3.913,0.9317190733902845,0.457745409112513
-3.9125,0.8463576745288233,0.5001319627331828
-3.912,0.6969752265212663,0.4365521323021782
-3.9115,0.5689331282290746,0.309392471440169
-3.911,0.5475927785137094,0.07626642652648545
-3.9105,0.707645401378949,-0.326405832869877
-3.91,0.6863050516635838,-0.4641621321370536
-3.9095,0.5902734779444399,-0.4641621321370536
-3.909,0.4835717293676135,-0.4323722169215513
-3.9085,0.5689331282290746,-0.3793890248957141
-3.908,1.113112045970889,-0.2416327256285375
-3.9075,0.8463576745288233,-0.5383386009732256
-3.907,-0.007256314085787988,-1.068170521231597
-3.9065,-0.9995825758502737,-0.5913217929990628
-3.906,-1.789175515318789,0.3941655786815084
-3.9055,-1.693143941599645,0.8604176685088755
-3.905,-1.06360362499637,0.701468092431364
-3.9045,-0.4340633083930936,0.3941655786815084
-3.904,0.01408403562957729,0.1610395337678249
-3.9035,0.2701682322139607,0.05507314971615059
-3.903,0.3768699807907871,0.05507314971615059
-3.9025,0.3982103305061524,0.13984625695749
-3.902,0.3768699807907871,0.2564092794143318
-3.9015,0.3235191065023739,0.383568940276341
-3.901,0.2701682322139607,0.5107286011383502
-3.9005,0.2061471830678648,0.6060983467848571
-3.9,-0.1886492866663929,0.457745409112513
-3.8995,-0.839529952985034,-0.1992461720078678
-3.899,-1.319687821580753,-0.9622041371799229
-3.8985,-1.533091318734406,-1.407262950196955
-3.898,-0.9462317015618604,-1.121153713257435
-3.8975,-0.06060718837420119,-0.4535654937318862
-3.897,0.5902734779444399,0.08686306493165288
-3.8965,0.8676980242441885,0.3729723018711736
-3.896,0.8783681991018712,0.4471487707073456
-3.8955,0.7609962756673623,0.4259554938970107
-3.895,0.6222840025174878,0.309392471440169
-3.8945,0.5582629533713921,0.1080563417419877
-3.894,0.7609962756673623,-0.3052125560595421
-3.8935,0.8036769750980928,-0.5277419625680583
-3.893,0.6863050516635838,-0.5383386009732256
-3.8925,0.5475927785137094,-0.4853554089473885
-3.892,0.5155822539406614,-0.3370024712750445
-3.8915,0.8676980242441885,0.2352160026039969
-3.891,0.6542945270905358,0.8180311148882058
-3.8905,0.01408403562957729,0.5213252395435176
-3.89,-0.8502001278427167,0.1716361721729923
-3.8895,-1.67180359188428,0.5955017083796896
-3.889,-1.757164990745741,0.9028042221295453
-3.8885,-1.180975548430879,0.6908714540261965
-3.888,-0.5407650569699201,0.3729723018711736
-3.8875,-0.04993701351651855,0.1610395337678249
-3.887,0.2381577076409128,0.08686306493165288
-3.8865,0.3661998059331045,0.13984625695749
