Class_6_Listen_To_Quran/Class_6_Listen_To_Quran_Turki_4.csv

#Digilent WaveForms Oscilloscope Acquisition
#Device Name: EExplorer
#Serial Number: SN:210151A2B84A
#Date Time: 2020-11-18 11:33:08.834
#Sample rate: 2000Hz
#Samples: 16384
#Trigger: Source: Channel 1 Type: Edge Condition: Rising Level: 0 V Hyst.: Auto HoldOff: 0 s
#Channel 1: Range: 1 V/div Offset: 0 V Attenuation: 1 X
#Channel 2: Range: 1 V/div Offset: 0 V Attenuation: 1 X
#Power Supplies: ON
#Fixed Supply: ON
#Voltage: 3.3 V Readback: 3.327 V
#Positive Supply: ON
#Voltage: 3.7 V Readback: 3.721 V
#Current: 500 mA Readback: 21 mA
#Negative Supply: ON
#Voltage: -3.7 V Readback: -3.709 V
#Current: -500 mA Readback: -7 mA
#Reference 1: ON
#Voltage: 0 V
#Reference 2: ON
#Voltage: 0 V

Time (s),Channel 1 (V),Channel 2 (V)
-4.096,0.1527963087794516,0.9663840525605498
-4.0955,0.1954770082101434,1.008770606181181
-4.095,0.2061471830678551,0.9981739677760135
-4.0945,0.1954770082101822,0.9557874141553824
-4.094,0.1741366584948363,0.8922075837244356
-4.0935,0.1527963087794419,0.8392243916984827
-4.093,0.142126133921769,0.775644561267536
-4.0925,0.1101156093487502,0.6908714540262737
-4.092,-0.2953510352436755,0.2140227257928814
-4.0915,-0.7968492535543035,-0.6443049850249
-4.091,-0.9889124009925911,-1.407262950196955
-4.0905,-1.106284324426692,-1.778145294377391
-4.09,-0.658136980404429,-1.311893204550448
-4.0895,-0.07127736323188383,-0.6337083466197325
-4.089,0.3235191065020148,-0.1144730647670006
-4.0885,0.4729015545099309,0.2246193641988295
-4.088,0.4835717293676135,0.3411823866556712
-4.0875,0.4302208550792488,0.3305857482505135
-4.087,0.3661998059331821,0.267005917819345
-4.0865,0.4515612047945656,0.09745970333682032
-4.086,0.4515612047945656,0.07626642652650473
-4.0855,0.3982103305060845,0.1504428953627442
-4.085,0.3235191065023739,0.2458126410091644
-4.0845,0.2594980573563363,0.319989109845269
-4.084,0.3021787567874162,0.4365521323022553
-4.0835,0.7503261008096795,0.5213252395435176
-4.083,0.8676980242441885,-0.01910331912002144
-4.0825,0.3555296310746843,-0.8032545611028933
-4.082,-0.4554036581084589,-1.333086481360783
-4.0815,-0.722158029550525,-1.152943628472937
-4.081,-0.5621054066854309,-0.517145324163469
-4.0805,-0.2953510352432193,0.1080563417419877
-4.08,-0.06060718837420119,0.55311515475902
-4.0795,0.0887752596332199,0.807434476482807
-4.079,0.1741366584948363,0.9134008605347416
-4.0785,0.1954770082101822,0.9451907757502149
-4.078,0.1954770082101822,0.9239974989398994
-4.0775,0.1741366584947878,0.8710143069140044
-4.077,0.142126133921769,0.8286277532933731
-4.0765,0.1101156093487502,0.7756445612675842
-4.076,0.09944543449079582,0.712064730836223
-4.0755,-0.1673089369510276,0.3729723018711736
-4.075,-0.7968492535543035,-0.4429688553267188
-4.0745,-1.244996597576994,-1.258910012524881
-4.074,-1.26633694729234,-1.555615887869299
-4.0735,-0.722158029550525,-1.068170521231597
-4.073,-0.08194753809014876,-0.4959520473530764
-4.0725,0.3341892813600565,-0.06148987274069118
-4.072,0.4942419042252961,0.1504428953626575
-4.0715,0.4835717293676232,0.2352160026039198
-4.071,0.440891029936815,0.2352160026039777
-4.0705,0.3661998059331045,0.2140227257936621
-4.07,0.4835717293675068,0.2564092794142933
-4.0695,0.6863050516635449,0.3941655786815277
-4.069,0.6436243522328531,0.4153588554918433
-4.0685,0.4942419042252961,0.3941655786815084
-4.068,0.3448594562176809,0.3835689402763603
-4.0675,0.2808384070716433,0.4047622170866759
-4.067,0.5582629533713921,0.5107286011383502
-4.0665,0.707645401378163,0.150442895361925
-4.066,-0.156638762093345,-0.6549016234300674
-4.0655,-1.170305373573196,-1.34368311976595
-4.065,-1.437059745015019,-1.311893204550477
-4.0645,-1.06360362499637,-0.6654982618352349
-4.064,-0.572775581542968,0.04447651131098315
-4.0635,-0.1779791118090693,0.574308431568873
-4.063,0.06743490991809725,0.892207583724503
-4.0625,0.1848068333524996,1.029963882991555
-4.062,0.2274875327831913,1.072350436612186
-4.0615,0.2168173579255281,1.040560521396664
-4.061,0.1954770082101822,0.9769806909657173
-4.0605,0.1741366584948169,0.9134008605347127
-4.06,0.1527963087794322,0.8392243916984635
-4.0595,0.1314559590640864,0.7544512844572011
-4.059,-0.03926683865883591,0.5107286011383502
-4.0585,-0.5941159312578287,-0.2840192792484844
-4.058,-1.212986073003927,-1.131750351662602
-4.0575,-1.906547438753298,-1.778145294377815
-4.057,-2.365364957633235,-2.074851169722233
-4.0565,-1.714484291315011,-1.481439419033127
-4.056,-0.7434983792658902,-0.6654982618352349
-4.0555,-0.01792648894413051,-0.02969995752576704
-4.055,0.3341892813601536,0.2670059178195667
-4.0545,0.4408910299368829,0.3411823866556712
-4.054,0.43022085507921,0.3093924714401979
-4.0535,0.4622313796524326,0.1610395337675551
-4.053,0.6649647019482183,-0.1356663415768632
-4.0525,0.6436243522328531,-0.1356663415768632
-4.052,0.5155822539405449,0.01268659609562542
-4.0515,0.3875401556484697,0.1716361721729923
-4.051,0.291508581929326,0.2987958330350016
-4.0505,0.3982103305060554,0.3941655786814217
-4.05,0.6436243522328531,0.1186529801471552
-4.0495,0.2061471830678648,-0.6443049850249
-4.049,-0.3380317346734549,-1.36487639657563
-4.0485,-0.6581369804043222,-1.481439419032607
-4.048,-0.5407650569699201,-0.9092209451540858
-4.0475,-0.2846808603857696,-0.2310360872239869
-4.047,-0.06060718837406533,0.2776025562249558
-4.0465,0.08877525963335578,0.5955017083796896
-4.046,0.1634664836370663,0.7438546460518989
-4.0455,0.1954770082101919,0.7862411996726938
-4.045,0.2061471830678648,0.775644561267536
-4.0445,0.1741366584948169,0.7332580076468663
-4.044,0.1421261339217496,0.690871454026158
-4.0435,0.1207857842064037,0.6484849004055269
-4.043,0.1207857842064037,0.6166949851900245
-4.0425,0.06743490991803902,0.54251851635392
-4.042,-0.4447334832507763,-0.01910331912002144
-4.0415,-1.031593100423322,-0.8562377531282487
-4.041,-1.234326422719108,-1.545019249463506
-4.0405,-0.9675720512766919,-1.725162102351486
-4.04,-0.3807124341046804,-1.184733543688439
-4.0395,0.08877525963292882,-0.4853554089480245
-4.039,0.355529631075548,0.04447651131122409
-4.0385,0.4942419042252961,0.309392471440169
-4.038,0.4942419042252961,0.4153588554917469
-4.0375,0.4302208550791421,0.4047622170866566
-4.037,0.3661998059331045,0.383568940276341
-4.0365,0.4622313796522482,0.5107286011383502
-4.036,0.46223137965219,0.5213252395434694
-4.0355,0.3982103305061524,0.4683420475176805
-4.035,0.3235191065023739,0.4153588554918433
-4.0345,0.2701682322140092,0.4047622170866855
-4.034,0.291508581929326,0.5425185163538525
-4.0335,0.4835717293676135,0.9875773293708847
-4.033,0.2168173579257901,0.7226613692419398
-4.0325,-0.2846808603860898,-0.1780528951982365
-4.032,-0.8928808272734472,-0.9516074987747555
-4.0315,-1.01025275070785,-1.068170521231491
-4.031,-0.7114878546925026,-0.5701285161881883
-4.0305,-0.3380317346739499,0.02328323450064829
-4.03,-0.0606071883744535,0.4895353243275913
-4.0295,0.1207857842064716,0.786241199672848
-4.029,0.1954770082101822,0.9451907757502149
-4.0285,0.2168173579255475,1.00877060618122
-4.028,0.2061471830678551,1.00877060618121
-4.0275,0.1954770082101822,0.9981739677760521
-4.027,0.1741366584948169,0.9557874141553824
-4.0265,0.152796308779471,0.9134008605347512
-4.026,0.1207857842064037,0.8392243916985406
-4.0255,-0.2313299860971235,0.383568940276341
-4.025,-0.7648387289807703,-0.4853554089465982
-4.0245,-1.042263275281208,-1.248313374119916
-4.024,-1.26633694729234,-1.767548655972648
-4.0235,-1.255666772434667,-1.735758740757174
-4.023,-0.6581369804038952,-1.036380606015469
-4.0225,-0.07127736323188383,-0.3475991096802118
-4.022,0.3021787567866689,0.07626642652609994
-4.0215,0.4515612047945656,0.256409279414351
-4.021,0.4515612047945656,0.2776025562246667
-4.0205,0.3875401556484697,0.2564092794143318
-4.02,0.4622313796522773,0.1822328105781116
-4.0195,0.4942419042252961,0.1292496185523226
-4.019,0.4515612047945656,0.1186529801471552
-4.0185,0.4088805053638738,0.1610395337677864
-4.018,0.3341892813600565,0.2034260873884947
-4.0175,0.3128489316446912,0.2881991946298341
-4.017,0.6863050516632441,0.7332580076464615
-4.0165,0.760996275666877,1.125333628637483
-4.016,0.2274875327832301,0.4895353243280153
-4.0155,-0.4980843575385296,-0.474758770541344
-4.015,-0.72215802955036,-0.7502713690762562
-4.0145,-0.5407650569699201,-0.400582301706049
-4.014,-0.2740106855280967,0.08686306493120954
-4.0135,-0.03926683865870005,0.5107286011386104
-4.013,0.1101156093487211,0.7968378380778709
-4.0125,0.1848068333524996,0.9769806909657173
-4.012,0.2061471830678648,1.061753798207086
-4.0115,0.2061471830678648,1.093543713422559
-4.011,0.1848068333524996,1.104140351827727
-4.0105,0.1527963087794807,1.072350436612253
-4.01,0.1314559590640864,1.040560521396722
-4.0095,0.1207857842064037,0.9875773293708847
-4.009,-0.0819475380893821,0.7332580076470976
-4.0085,-0.7648387289816921,-0.08268314955182596
-4.008,-1.244996597576974,-0.9622041371799229
-4.0075,-1.55443166844949,-1.629792356704864
-4.007,-1.255666772434075,-1.619195718299706
-4.0065,-0.6154562809736985,-0.9622041371799229
-4.006,-0.07127736323188383,-0.3370024712750445
-4.0055,0.270168232214116,0.03387987290597956
-4.005,0.4408910299368829,0.2140227257936621
-4.0045,0.4729015545099309,0.2670059178194992
-4.004,0.4302208550792198,0.2034260873883501
-4.0035,0.4515612047945656,0.04447651131098315
-4.003,0.5262524287983441,-0.1144730647665284
-4.0025,0.4729015545099794,-0.07208651114589716
-4.002,0.408880505363835,0.04447651131098315
-4.0015,0.3448594562177392,0.1716361721729923
-4.001,0.2915085819293745,0.2776025562245703
-4.0005,0.5475927785140297,0.5319218779487044
-4,0.8997085488172365,0.55311515475902
-3.9995,0.3341892813600565,-0.1992461720078678
-3.999,-0.5834457564006506,-1.05757388282643
-3.9985,-1.277007122150022,-1.555615887869299
-3.998,-1.180975548430879,-1.174136905283272
-3.9975,-0.7434983792658902,-0.4535654937318862
-3.997,-0.3166913849585846,0.1928294489833272
-3.9965,-0.01792648894347063,0.6378882620003594
-3.996,0.1527963087794516,0.8710143069140429
-3.9955,0.2168173579255475,0.9663840525605498
-3.995,0.2274875327832301,0.9769806909657173
-3.9945,0.2168173579255475,0.9451907757502149
-3.994,0.1848068333524996,0.8922075837243778
-3.9935,0.1527963087794516,0.8286277532933731
-3.993,0.1314559590640864,0.7650479228623686
-3.9925,0.02475421048725994,0.6166949851900245
-3.992,-0.5621054066852853,-0.07208651114585861
-3.9915,-1.191645723288561,-0.9516074987747555
-3.991,-1.437059745015262,-1.661582271920973
-3.9905,-1.490410619303675,-2.085447808127671
-3.99,-0.8502001278427167,-1.587405803084801
-3.9895,-0.09261771294724913,-0.7820612842920766
-3.989,0.3661998059331045,-0.1674562567923655
-3.9885,0.5155822539406614,0.1610395337678249
-3.988,0.4942419042252961,0.309392471440169
-3.9875,0.408880505363835,0.309392471440169
-3.987,0.3555296310754218,0.2776025562246667
-3.9865,0.3768699807907871,0.3411823866556712
-3.986,0.3555296310754218,0.3199891098453364
-3.9855,0.3235191065023739,0.2670059178194992
-3.985,0.291508581929326,0.2458126410091644
-3.9845,0.2594980573562781,0.2458126410091644
-3.984,0.4302208550792003,0.3941655786815084
-3.9835,0.942389248247967,0.6166949851900245
-3.983,0.7609962756673623,0.08686306493165288
-3.9825,0.00341386077189465,-0.7820612842920766
-3.982,-0.7861790786966207,-1.354279758171118
-3.9815,-0.8715404775580819,-1.078767159636765
-3.981,-0.5941159312583333,-0.400582301706049
-3.9805,-0.274010685527854,0.2246193641988295
-3.98,-0.01792648894347063,0.6590815388106942
-3.9795,0.1314559590640864,0.9028042221295453
-3.979,0.1954770082101822,1.019367244586387
-3.9785,0.2168173579255475,1.040560521396722
-3.978,0.2061471830678648,1.019367244586387
-3.9775,0.1848068333524996,0.9663840525605498
-3.977,0.1634664836371343,0.9134008605347127
-3.9765,0.1314559590640864,0.8392243916985406
-3.976,0.1101156093487211,0.7650479228623686
-3.9755,-0.3380317346739499,0.2987958330350016
-3.975,-0.9675720512772257,-0.5913217929990628
-3.9745,-1.341028171296118,-1.407262950196955
-3.974,-1.693143941599645,-1.979481424075996
-3.9735,-1.458400094730627,-1.746355379162313
-3.973,-0.7648387289812555,-0.9622041371799229
-3.9725,-0.156638762093345,-0.3158091944647096
-3.972,0.2274875327832301,0.06566978812131802
-3.9715,0.3875401556484697,0.2246193641988295
-3.971,0.4195506802215176,0.2246193641988295
-3.9705,0.3875401556484697,0.1716361721729923
-3.97,0.5796033030867573,-0.04029659593035631
-3.9695,0.6969752265212663,-0.1674562567923655
-3.969,0.6116138276598051,-0.08268314955102604
-3.9685,0.4729015545099309,0.07626642652648545
-3.968,0.3661998059331045,0.2140227257936621
-3.9675,0.3555296310754218,0.383568940276341
-3.967,0.8356874996711408,0.9557874141553824
-3.9665,1.209143619690033,1.580989080060261
-3.966,0.6542945270905358,1.263089927905238
-3.9655,-0.3273615598162672,0.1928294489833272
-3.965,-0.9248913518464952,-0.5807251545938954
-3.9645,-0.839529952985034,-0.5595318777835605
-3.964,-0.5087545323968721,-0.1886495336027004
-3.9635,-0.1886492866663929,0.2246193641988295
-3.963,0.03542438534494258,0.5425185163538525
-3.9625,0.1634664836371343,0.7650479228623686
-3.962,0.2061471830678648,0.8922075837243778
-3.9615,0.2168173579255475,0.9663840525605498
-3.961,0.2061471830678648,0.9981739677760521
-3.9605,0.1848068333524996,0.9981739677760521
-3.96,0.1634664836371343,0.9981739677760521
-3.9595,0.142126133921769,0.9769806909657173
-3.959,0.03542438534494258,0.7862411996727035
-3.9585,-0.3700422592469978,0.09745970333682032
-3.958,-0.6367966306890638,-0.6125150698093976
-3.9575,-1.010252750707956,-1.280103289334946
-3.957,-1.191645723288561,-1.555615887869299
-3.9565,-0.6261264558313813,-1.078767159636765
-3.956,-0.01792648894347063,-0.4535654937318862
-3.9555,0.3555296310754218,-0.01910331912002144
-3.955,0.4942419042252961,0.1716361721729923
-3.9545,0.4835717293676135,0.2458126410091644
-3.954,0.408880505363835,0.2564092794143318
-3.9535,0.4195506802215176,0.3199891098453364
-3.953,0.4622313796522482,0.3941655786815084
-3.9525,0.3982103305061524,0.3305857482505039
-3.952,0.3235191065023739,0.2352160026039969
-3.9515,0.2594980573562781,0.1610395337678249
-3.951,0.2488278824985954,0.1292496185523226
-3.9505,0.5902734779444399,0.2140227257936621
-3.95,0.9210488985326017,0.08686306493165288
-3.9495,0.2808384070716433,-0.6125150698093976
-3.949,-0.7434983792658902,-1.34368311976595
-3.9485,-1.212986073003927,-1.51322933424863
-3.948,-0.9889124009925911,-0.9304142219644207
-3.9475,-0.572775581542968,-0.1992461720078678
-3.947,-0.1993194615240755,0.3729723018711736
-3.9465,0.04609456020262521,0.7438546460520338
-3.946,0.1848068333524996,0.9345941373450475
-3.9455,0.2274875327832301,1.00877060618122
-3.945,0.2274875327832301,1.00877060618122
-3.9445,0.2061471830678648,0.9769806909657173
-3.944,0.1741366584948169,0.92399749893988
-3.9435,0.1527963087794516,0.8710143069140429
-3.943,0.142126133921769,0.8074344764830383
-3.9425,0.01408403562957729,0.627291623595192
-3.942,-0.5834457564006506,-0.1038764263613609
-3.9415,-1.074273799854052,-1.004590690800593
-3.941,-1.26633694729234,-1.661582271920973
-3.9405,-0.9675720512772257,-1.439052865412457
-3.94,-0.4127229586777283,-0.8562377531282487
-3.9395,0.04609456020262521,-0.3475991096802118
-3.939,0.3448594562177392,-0.06148987274069118
-3.9385,0.4729015545099309,0.07626642652648545
-3.938,0.4835717293676135,0.1504428953626575
-3.9375,0.4302208550792003,0.1292496185523226
-3.937,0.3982103305061524,0.1186529801471552
-3.9365,0.4195506802215176,0.2246193641988295
-3.936,0.3875401556484697,0.2352160026039969
-3.9355,0.3341892813600565,0.2140227257936621
-3.935,0.291508581929326,0.2246193641988295
-3.9345,0.2381577076409128,0.2670059178194992
-3.934,0.3768699807907871,0.4683420475176805
-3.9335,0.9637295979633325,0.7650479228623686
-3.933,1.219813794547716,0.1822328105781598
-3.9325,0.6969752265212663,-0.7396747306714069
-3.932,-0.2206598112394408,-1.322489842955616
-3.9315,-0.5300948821122373,-1.01518732920576
-3.931,-0.4447334832507763,-0.3370024712750445
-3.9305,-0.2206598112394408,0.2987958330350016
-3.93,-0.02859666380115328,0.7438546460520338
-3.9295,0.09944543449103843,1.00877060618122
-3.929,0.1741366584948169,1.125333628638062
-3.9285,0.1954770082101822,1.157123543853563
-3.928,0.1954770082101822,1.125333628638062
-3.9275,0.1848068333524996,1.072350436612224
-3.927,0.1741366584948169,1.00877060618122
-3.9265,0.1634664836371343,0.9345941373450475
-3.926,0.142126133921769,0.8392243916985406
-3.9255,-0.2633405106701714,0.3411823866556712
-3.925,-0.690147504977477,-0.4323722169215513
-3.9245,-0.9248913518464952,-1.121153713257435
-3.924,-0.8715404775580819,-1.407262950196955
-3.9235,-0.4554036581084589,-1.036380606016095
-3.923,0.01408403562957729,-0.5595318777835605
-3.9225,0.3235191065023739,-0.1780528951975329
-3.922,0.4515612047945656,0.04447651131098315
-3.9215,0.4515612047945656,0.1186529801471552
-3.921,0.4195506802215176,0.07626642652648545
-3.9205,0.3768699807907871,0.002089957690313421
-3.92,0.4302208550792003,-0.1356663415768632
-3.9195,0.4302208550792003,-0.1462629799820306
-3.919,0.3768699807907871,-0.05089323433552374
-3.9185,0.3128489316446912,0.06566978812131802
-3.918,0.2594980573562781,0.1928294489833272
-3.9175,0.2274875327832301,0.2776025562246667
-3.917,0.02475421048725994,-0.1356663415768632
-3.9165,-0.3273615598162672,-0.8668343915334161
-3.916,-0.7008176798351597,-1.439052865412457
-3.9155,-1.191645723288561,-1.746355379162313
-3.915,-1.234326422719292,-1.439052865412457
-3.9145,-0.8502001278427167,-0.6443049850249
-3.914,-0.4020527838200457,0.1186529801471552
-3.9135,-0.07127736323188383,0.6484849004055269
-3.913,0.1207857842064037,0.9451907757502149
-3.9125,0.2061471830678648,1.061753798207057
-3.912,0.2274875327832301,1.072350436612224
-3.9115,0.2168173579255475,1.019367244586387
-3.911,0.1848068333524996,0.9451907757502149
-3.9105,0.1527963087794516,0.8604176685088755
-3.91,0.1207857842064037,0.7650479228623686
-3.9095,0.1101156093487211,0.6696781772158616
-3.909,-0.156638762093345,0.2881991946298341
-3.9085,-0.754168554123573,-0.5595318777835605
-3.908,-1.074273799854052,-1.364876396576285
-3.9075,-1.202315898146244,-1.88411167842949
-3.907,-0.8288597781273515,-1.661582271920973
-3.9065,-0.1993194615240755,-1.004590690800593
-3.906,0.2701682322139607,-0.4217755785163839
-3.9055,0.4835717293676135,-0.09327978795619347
-3.905,0.5049120790829789,0.06566978812131802
-3.9045,0.4515612047945656,0.1292496185523226
-3.904,0.3875401556484697,0.1504428953626575
-3.9035,0.3982103305061524,0.2034260873884947
-3.903,0.3982103305061524,0.2246193641988295
-3.9025,0.3661998059331045,0.2246193641988295
-3.902,0.3341892813600565,0.2140227257936621
-3.9015,0.291508581929326,0.2246193641988295
-3.901,0.2808384070716433,0.2881991946298341
-3.9005,0.6222840025174878,0.7226613692416989
-3.9,0.7609962756673623,1.072350436612224
-3.8995,0.00341386077189465,0.3941655786815084
-3.899,-0.5300948821122373,-0.4429688553267188
-3.8985,-0.5514352318276028,-0.5595318777835605
-3.898,-0.3487019095316325,-0.2310360872233701
-3.8975,-0.1139580626626144,0.1928294489833272
-3.897,0.04609456020262521,0.5425185163538525
-3.8965,0.1527963087794516,0.7968378380778709
-3.896,0.1954770082101822,0.9451907757502149
-3.8955,0.2061471830678648,1.029963882991555
-3.895,0.1954770082101822,1.061753798207057
-3.8945,0.1848068333524996,1.072350436612224
-3.894,0.1634664836371343,1.061753798207057
-3.8935,0.142126133921769,1.029963882991555
-3.893,0.1314559590640864,0.9875773293708847
-3.8925,-0.01792648894347063,0.7650479228623686
-3.892,-0.6154562809736985,-0.008506680714854012
-3.8915,-1.1062843244271,-0.8986243067489184
-3.891,-1.287677297007705,-1.481439419033127
-3.8905,-0.9462317015618604,-1.248313374119443
-3.89,-0.3593720843893152,-0.6549016234300674
-3.8895,0.1101156093487211,-0.1674562567923655
-3.889,0.3768699807907871,0.1186529801471552
-3.8885,0.4729015545099309,0.2458126410091644
-3.888,0.4515612047945656,0.2458126410091644
-3.8875,0.3875401556484697,0.1504428953626575
-3.887,0.3768699807907871,0.09745970333682032
-3.8865,0.4942419042252961,0.2352160026039969
-3.886,0.4835717293676135,0.2458126410091644
