Class_6_Listen_To_Quran/Class_6_Listen_To_Quran_Turki_7.csv

#Digilent WaveForms Oscilloscope Acquisition
#Device Name: EExplorer
#Serial Number: SN:210151A2B84A
#Date Time: 2020-12-13 12:41:48.889
#Sample rate: 2000Hz
#Samples: 16384
#Trigger: Source: Channel 1 Type: Edge Condition: Rising Level: 0 V Hyst.: Auto HoldOff: 0 s
#Channel 1: Range: 1 V/div Offset: 0 V Attenuation: 1 X
#Channel 2: Range: 1 V/div Offset: 0 V Attenuation: 1 X
#Power Supplies: ON
#Fixed Supply: ON
#Voltage: 3.3 V Readback: 3.324 V
#Positive Supply: ON
#Voltage: 3.7 V Readback: 3.713 V
#Current: 40 mA Readback: 19 mA
#Negative Supply: ON
#Voltage: -3.7 V Readback: -3.354 V
#Current: -40 mA Readback: -8 mA
#Reference 1: ON
#Voltage: 0 V
#Reference 2: ON
#Voltage: 0 V

Time (s),Channel 1 (V),Channel 2 (V)
-4.096,-0.8181896032696687,-1.078767159636765
-4.0955,-1.020922925565455,-1.428456227006972
-4.095,-0.6261264558309252,-1.205926820498427
-4.0945,-0.124628237520297,-0.8244478379127463
-4.094,0.2915085819289475,-0.5383386009734858
-4.0935,0.515582253940739,-0.3899856633009105
-4.093,0.6009436528021226,-0.4217755785163839
-4.0925,0.6116138276597954,-0.5383386009731196
-4.092,0.793006800240478,-0.6972881770507565
-4.0915,0.8676980242441885,-0.718481453861072
-4.091,0.7609962756673623,-0.570128516188728
-4.0905,0.6009436528020158,-0.3793890248955503
-4.09,0.4835717293676135,-0.1992461720078678
-4.0895,0.3875401556484697,-0.06148987274069118
-4.089,0.1421261339219922,-0.008506680714902203
-4.0885,-0.2099896363817582,-0.04029659593035631
-4.088,-0.839529952985034,-0.5171453241628908
-4.0875,-1.415719395299373,-0.8562377531279403
-4.087,-1.735824641029959,-0.9939940523949723
-4.0865,-1.277007122150022,-0.4959520473525559
-4.086,-0.6474668055473191,0.2987958330342787
-4.0855,-0.1246282375200059,1.008770606181663
-4.085,0.1954770082101822,1.496215972818921
-4.0845,0.3661998059329492,1.782325209758182
-4.084,0.4195506802215079,1.898888232215293
-4.0835,0.408880505363835,1.909484870620451
-4.083,0.3875401556484697,1.867098316999781
-4.0825,0.3448594562177101,1.845905040189398
-4.082,0.3128489316446912,1.79292184816361
-4.0815,0.291508581929326,1.644568910491266
-4.081,0.08877525963354016,1.294879843121058
-4.0805,-0.572775581542968,1.00877060618122
-4.08,-1.138294849000148,0.6378882620003594
-4.0795,-1.309017646722915,-0.1780528951967908
-4.079,-1.180975548430277,-0.8456411147232451
-4.0785,-0.5194247072545548,-1.025783967610927
-4.078,0.1848068333518591,-0.8668343915335607
-4.0775,0.590273477944566,-0.7078848154558757
-4.077,0.7289857510943143,-0.6760949002404023
-4.0765,0.7289857510943143,-0.7290780922661912
-4.076,0.675634876805969,-0.7714646458870152
-4.0755,0.7503261008096795,-0.8880276683437509
-4.075,0.9103787236749192,-0.8880276683437509
-4.0745,0.8143471499556297,-0.6549016234298072
-4.074,0.6542945270905358,-0.3687923864905467
-4.0735,0.5049120790829789,-0.08268314955102604
-4.073,0.4088805053639224,0.09745970333665649
-4.0725,0.291508581929326,0.02328323450064829
-4.072,0.3875401556484697,0.05507314971615059
-4.0715,-0.0285966638007748,-0.4005823017056346
-4.071,-0.6261264558316529,-0.9304142219645749
-4.0705,-0.9248913518464952,-1.0999604364471
-4.07,-0.7008176798353636,-0.5383386009737364
-4.0695,-0.3166913849582838,0.2458126410097812
-4.069,0.01408403562957729,0.92399749893988
-4.0685,0.2381577076409128,1.390249588767247
-4.068,0.344859456217778,1.644568910491371
-4.0675,0.3875401556484697,1.761131932948107
-4.067,0.3875401556484697,1.771728571353275
-4.0665,0.366199805933085,1.729342017732557
-4.066,0.3448594562177392,1.676358825706768
-4.0655,0.3128489316446912,1.633972272086098
-4.065,0.2915085819293454,1.591585718465467
-4.0645,0.2381577076409128,1.390249588767247
-4.064,-0.156638762093345,0.6166949851900245
-4.0635,-0.6261264558309543,-0.3793890248948082
-4.063,-0.7968492535544879,-1.142346990068059
-4.0625,-0.9995825758502737,-1.460246142222792
-4.062,-0.8715404775581984,-1.693372187136264
-4.0615,-0.2953510352427438,-1.343683119765517
-4.061,0.2274875327832301,-0.8668343915334161
-4.0605,0.5369226036560266,-0.6760949002404023
-4.06,0.6542945270905455,-0.6019184314042206
-4.0595,0.6649647019482183,-0.5913217929990628
-4.059,0.6436243522328531,-0.6549016234300674
-4.0585,0.675634876805872,-0.6654982618352252
-4.058,0.6222840025174878,-0.5913217929990628
-4.0575,0.5262524287983441,-0.4959520473525559
-4.057,0.4408910299369606,-0.3687923864906624
-4.0565,0.3982103305061524,-0.2310360872233701
-4.056,0.3341892813600565,-0.2734226408440398
-4.0555,-0.1993194615235903,-0.7290780922658251
-4.055,-0.6794773301200078,-1.216523458904134
-4.0545,-0.9142211769888124,-1.42845622700729
-4.054,-1.180975548430636,-1.301296566145396
-4.0535,-1.266336947291971,-0.9939940523947024
-4.053,-0.8608703027003992,-0.1992461720078678
-4.0525,-0.3700422592469978,0.6378882620003594
-4.052,0.02475421048747344,1.273686566310752
-4.0515,0.2594980573562781,1.655165548896433
-4.051,0.3661998059331045,1.835308401784279
-4.0505,0.3982103305061233,1.867098316999753
-4.05,0.3875401556484697,1.814115124973944
-4.0495,0.3661998059331045,1.761131932948107
-4.049,0.3235191065024127,1.676358825706845
-4.0485,0.3021787567869698,1.580989080060116
-4.048,0.2594980573562781,1.42203950398275
-4.0475,-0.1032878878046018,1.072350436612542
-4.047,-0.6688071552622573,0.6696781772151003
-4.0465,-0.8288597781273515,-0.1674562567923655
-4.046,-0.9569018764194267,-0.8668343915327801
-4.0455,-0.9889124009921836,-1.26950665092973
-4.045,-0.5407650569699201,-1.216523458903942
-4.0445,0.00341386077189465,-1.004590690800593
-4.044,0.4302208550793847,-0.7820612842919898
-4.0435,0.6329541773751706,-0.6866915386455698
-4.043,0.6969752265212663,-0.7396747306714069
-4.0425,0.6863050516635935,-0.8032545611023536
-4.042,0.857027849386506,-0.9092209451540858
-4.0415,0.8997085488172365,-0.8138511995075789
-4.041,0.7609962756674884,-0.5807251545941075
-4.0405,0.5902734779443234,-0.3475991096800095
-4.04,0.4622313796522482,-0.1250697031716958
-4.0395,0.4515612047945753,0.1080563417417757
-4.039,0.8356874996710437,0.6166949851899282
-4.0385,0.7289857510943143,0.5107286011383502
-4.038,0.003413860772554567,-0.1780528951969066
-4.0375,-0.8715404775584216,-0.6972881770509878
-4.037,-1.244996597576974,-0.9728007755850904
-4.0365,-0.9355615267041777,-0.5595318777835605
-4.036,-0.4554036581080901,0.1292496185528912
-4.0355,-0.04993701351651855,0.7544512844572011
-4.035,0.2061471830678648,1.210106735879401
-4.0345,0.344859456217613,1.485619334413503
-4.034,0.3875401556484697,1.623375633680931
-4.0335,0.3875401556484697,1.6657621873016
-4.033,0.3661998059331239,1.6657621873016
-4.0325,0.3341892813600371,1.655165548896433
-4.032,0.3128489316446912,1.655165548896433
-4.0315,0.3021787567870183,1.602182356870644
-4.031,0.1527963087790246,1.316073119930487
-4.0305,-0.3166913849585846,0.6696781772158616
-4.03,-0.7008176798348104,-0.2310360872225509
-4.0295,-0.9035510021312561,-0.9516074987751024
-4.029,-1.042263275281004,-1.333086481360783
-4.0285,-0.6474668055467465,-1.322489842955616
-4.028,-0.1032878878045533,-1.01518732920549
-4.0275,0.3128489316446912,-0.718481453861072
-4.027,0.5475927785137094,-0.6125150698093976
-4.0265,0.632954177375093,-0.6654982618351867
-4.026,0.6436243522328531,-0.7290780922662394
-4.0255,0.7503261008096795,-0.8668343915334161
-4.025,0.9530594231054653,-0.9622041371798362
-4.0245,0.8676980242440332,-0.7820612842918548
-4.024,0.6969752265212663,-0.5383386009732256
-4.0235,0.5369226036561722,-0.3052125560597542
-4.023,0.4408910299370382,-0.09327978795611637
-4.0225,0.6116138276598051,-0.008506680714854012
-4.022,0.974399772820685,0.02328323450061937
-4.0215,0.568933128228308,-0.453565493732397
-4.021,-0.274010685527854,-1.01518732920576
-4.0205,-0.839529952985034,-1.269506650929778
-4.02,-0.7434983792655797,-0.7926579226965308
-4.0195,-0.4020527838200457,-0.008506680714854012
-4.019,-0.06060718837420119,0.7120647308365314
-4.0185,0.1741366584946034,1.210106735878948
-4.018,0.3128489316446912,1.517409249629256
-4.0175,0.3661998059331045,1.655165548896433
-4.017,0.3661998059331045,1.686955464111906
-4.0165,0.3555296310753927,1.665762187301591
-4.016,0.3235191065023739,1.655165548896433
-4.0155,0.2915085819293551,1.633972272086117
-4.015,0.2701682322138734,1.57039244165492
-4.0145,0.1741366584948169,1.37965295036208
-4.014,-0.3700422592465029,1.210106735879555
-4.0135,-0.903551002131421,0.9769806909649367
-4.013,-1.223656247861609,0.1186529801471552
-4.0125,-1.277007122150022,-0.6125150698093976
-4.012,-0.8502001278421927,-0.9410108603695688
-4.0115,-0.274010685527854,-0.9198175835592532
-4.011,0.2061471830678648,-0.7714646458869092
-4.0105,0.4942419042250341,-0.7184814538611202
-4.01,0.6116138276598051,-0.7078848154559045
-4.0095,0.6329541773751706,-0.6972881770507372
-4.009,0.6329541773751706,-0.7608680074816839
-4.0085,0.7076454013788909,-0.8138511995074729
-4.008,0.6436243522328531,-0.6972881770507372
-4.0075,0.5369226036561237,-0.495952047352739
-4.007,0.4515612047945073,-0.2734226408438567
-4.0065,0.3875401556484697,-0.07208651114585861
-4.006,0.5262524287983441,0.2881991946298341
-4.0055,0.9850699476783968,0.8498210301033899
-4.005,0.6542945270905358,0.5001319627331828
-4.0045,-0.1139580626626144,-0.1674562567923655
-4.004,-0.924891351846699,-0.6654982618352927
-4.0035,-1.148965023857831,-0.7290780922662394
-4.003,-0.807519428411986,-0.1462629799820306
-4.0025,-0.3487019095320498,0.6060983467841728
-4.002,0.01408403562957729,1.231300012689736
-4.0015,0.2381577076409128,1.6657621873016
-4.001,0.3448594562176421,1.90948487062023
-4.0005,0.3768699807907774,2.015451254672116
-4,0.3661998059331045,2.004854616266958
-3.9995,0.3448594562177392,1.941274785835954
-3.999,0.3128489316446912,1.845905040189447
-3.9985,0.3021787567870086,1.739938656137773
-3.998,0.2808384070716433,1.559795803249926
-3.9975,-0.007256314085787988,1.019367244586387
-3.997,-0.5087545323968721,0.04447651131098315
-3.9965,-0.8715404775580819,-0.8880276683437509
-3.996,-1.1062843244271,-1.555615887869299
-3.9955,-1.405049220442214,-2.032464616101834
-3.995,-1.020922925565639,-1.862918401619155
-3.9945,-0.3060212101009019,-1.216523458903942
-3.994,0.2488278824985954,-0.8138511995075789
-3.9935,0.5689331282290746,-0.5807251545938954
-3.993,0.707645401378949,-0.570128516188728
-3.9925,0.707645401378949,-0.6549016234300674
-3.992,0.8036769750980928,-0.8138511995075789
-3.9915,0.7823366253827275,-0.792657922697244
-3.991,0.6542945270905358,-0.6760949002404023
-3.9905,0.5155822539406614,-0.5383386009732256
-3.99,0.4195506802215176,-0.4111789401112165
-3.9895,0.3661998059331045,-0.326405832869877
-3.989,-0.01792648894347063,-0.5277419625680583
-3.9885,-0.658136980404429,-1.004590690800593
-3.988,-1.084943974711735,-1.439052865412457
-3.9875,-1.415719395299897,-1.619195718300304
-3.987,-1.607782542738184,-1.47084278062796
-3.9865,-1.170305373573196,-0.718481453861072
-3.986,-0.572775581542968,0.2034260873884947
-3.9855,-0.09261771294724913,0.9557874141553824
-3.985,0.2061471830678648,1.443232780793084
-3.9845,0.3448594562177392,1.697552102517103
-3.984,0.3982103305061524,1.79292184816361
-3.9835,0.3982103305061524,1.771728571353275
-3.983,0.3661998059331045,1.70814874092227
-3.9825,0.3235191065023739,1.655165548896433
-3.982,0.291508581929326,1.580989080060261
-3.9815,0.2701682322139607,1.443232780793084
-3.981,0.1207857842064037,1.135930267043229
-3.9805,-0.3593720843893152,0.5955017083796896
-3.98,-0.5941159312583333,-0.252229364033705
-3.9795,-0.7755089038389382,-0.9833974139902578
-3.979,-1.148965023857831,-1.417859588602123
-3.9785,-1.010252750707956,-1.38606967338662
-3.978,-0.4340633083930936,-1.068170521231597
-3.9775,0.1314559590640864,-0.8350444763179138
-3.977,0.4729015545099309,-0.7078848154559045
-3.9765,0.6222840025174878,-0.6866915386455698
-3.976,0.6542945270905358,-0.7502713690765743
-3.9755,0.7289857510943143,-0.8350444763179138
-3.975,0.8676980242441885,-0.8562377531282487
-3.9745,0.7823366253827275,-0.718481453861072
-3.974,0.6329541773751706,-0.5171453241628908
-3.9735,0.4942419042252961,-0.3158091944647096
-3.973,0.408880505363835,-0.1038764263613609
-3.9725,0.6542945270905358,0.4153588554918433
-3.972,1.177133095116985,1.178316820663898
-3.9715,0.9637295979633325,1.051157159801889
-3.971,0.2274875327832301,0.383568940276341
-3.9705,-0.6154562809736985,-0.2628260024388724
-3.97,-0.7755089038389382,-0.2840192792492073
-3.9695,-0.5194247072545548,0.2140227257936621
-3.969,-0.1779791118087102,0.8074344764830383
-3.9685,0.08877525963335578,1.316073119931075
-3.968,0.2594980573562781,1.686955464111935
-3.9675,0.3341892813600565,1.898888232215284
-3.967,0.3661998059331045,2.015451254672126
-3.9665,0.3555296310754218,2.036644531482461
-3.966,0.3235191065023739,2.026047893077293
-3.9655,0.3021787567870086,1.983661339456623
-3.965,0.2701682322139607,1.803518486568777
-3.9645,0.1954770082101822,1.305476481525908
-3.964,-0.2099896363817582,1.082947075017392
-3.9635,-0.754168554123573,0.775644561267536
-3.963,-1.06360362499637,-0.08268314955102604
-3.9625,-1.30901764672307,-0.9304142219644207
-3.962,-1.415719395299897,-1.42845622700729
-3.9615,-0.7755089038389382,-1.184733543688439
-3.961,-0.09261771294724913,-0.7608680074817418
-3.9605,0.3768699807907871,-0.5383386009732256
-3.96,0.6222840025174878,-0.4641621321370536
-3.9595,0.6863050516635838,-0.5277419625680583
-3.959,0.707645401378949,-0.6866915386455698
-3.9585,0.857027849386506,-0.8350444763179138
-3.958,0.825017324813458,-0.7502713690765743
-3.9575,0.6649647019482183,-0.5913217929990628
-3.957,0.5155822539406614,-0.4111789401112165
-3.9565,0.408880505363835,-0.252229364033705
-3.956,0.3768699807907871,-0.1144730647665284
-3.9555,0.6222840025174878,0.2140227257936621
-3.955,0.3768699807907871,-0.008506680714854012
-3.9545,-0.1352984123779797,-0.570128516188728
-3.954,-0.7755089038389382,-0.9728007755850904
-3.9535,-1.116954499284783,-1.078767159636765
-3.953,-0.8502001278427167,-0.4959520473525559
-3.9525,-0.4127229586777283,0.2776025562246667
-3.952,-0.03926683865883591,0.9451907757502149
-3.9515,0.1954770082101822,1.400846227172415
-3.951,0.3235191065023739,1.6657621873016
-3.9505,0.3661998059331045,1.782325209758442
-3.95,0.3661998059331045,1.79292184816361
-3.9495,0.3341892813600565,1.782325209758442
-3.949,0.3021787567870086,1.771728571353275
-3.9485,0.2701682322139607,1.729342017732605
-3.948,0.2488278824985954,1.602182356870596
-3.9475,-0.07127736323188383,1.093543713422559
-3.947,-0.5407650569699201,0.3411823866556712
-3.9465,-0.9355615267041777,-0.5595318777835605
-3.946,-1.341028171296118,-1.258910012524611
-3.9455,-1.51175096901904,-1.672178910326141
-3.945,-0.8822106524157645,-1.38606967338662
-3.9445,-0.1886492866663929,-0.9092209451540858
-3.944,0.3128489316446912,-0.6337083466197325
-3.9435,0.5689331282290746,-0.5383386009732256
-3.943,0.6542945270905358,-0.5383386009732256
-3.9425,0.6436243522328531,-0.6549016234300674
-3.942,0.7609962756673623,-0.8032545611024114
-3.9415,0.79300680024041,-0.718481453861072
-3.941,0.6756348768059011,-0.6019184314042303
-3.9405,0.5369226036560266,-0.474758770542221
-3.94,0.4302208550792003,-0.3475991096802118
-3.9395,0.3875401556484697,-0.2098428104130352
-3.939,0.5475927785137094,-0.1038764263613609
-3.9385,0.4729015545099309,-0.2416327256285375
-3.938,-0.09261771294724913,-0.7290780922662394
-3.9375,-0.7434983792658902,-1.01518732920576
-3.937,-1.277007122150022,-1.0999604364471
-3.9365,-1.116954499284783,-0.570128516188728
-3.936,-0.6367966306890638,0.2776025562246667
-3.9355,-0.1886492866663929,1.040560521396722
-3.935,0.1314559590640864,1.570392441655093
-3.9345,0.3021787567870086,1.877694955404949
-3.934,0.3661998059331045,2.004854616266958
-3.9335,0.3768699807907871,2.004854616266958
-3.933,0.3555296310754218,1.962468062646288
-3.9325,0.3341892813600565,1.877694955404949
-3.932,0.3021787567870086,1.761131932948107
-3.9315,0.2808384070716433,1.623375633680931
-3.931,0.1527963087794516,1.284283204715573
-3.9305,-0.3807124341046804,0.4471487707073456
-3.93,-0.8181896032696687,-0.5277419625680583
-3.9295,-1.138294849000148,-1.248313374119443
-3.929,-1.501080794161358,-1.629792356705471
-3.9285,-1.234326422719292,-1.51322933424863
-3.928,-0.5834457564006506,-1.131750351662602
-3.9275,0.02475421048725994,-0.8986243067489184
-3.927,0.408880505363835,-0.8138511995075789
-3.9265,0.5796033030867573,-0.792657922697244
-3.926,0.6009436528021226,-0.8456411147230812
-3.9255,0.6863050516635838,-0.9939940523954253
-3.925,0.857027849386506,-1.05757388282643
-3.9245,0.79300680024041,-0.8668343915334161
-3.924,0.6329541773751706,-0.6337083466197325
-3.9235,0.4942419042252961,-0.3899856633008816
-3.923,0.408880505363835,-0.1780528951975329
-3.9225,0.6329541773751706,0.309392471440169
-3.922,1.102441871113207,0.9663840525605498
-3.9215,0.825017324813458,0.6696781772158616
-3.921,0.05676473506030786,-0.02969995752518888
-3.9205,-0.5621054066852853,-0.5171453241628908
-3.92,-0.572775581542968,-0.2946159176543747
-3.9195,-0.3166913849585846,0.2776025562246667
-3.919,-0.03926683865883591,0.849821030103708
-3.9185,0.1634664836371343,1.305476481525908
-3.918,0.2808384070716433,1.612778995275763
-3.9175,0.3341892813600565,1.782325209758442
-3.917,0.3448594562177392,1.856501678594614
-3.9165,0.3341892813600565,1.856501678594614
-3.916,0.3128489316446912,1.856501678594614
-3.9155,0.2808384070716433,1.877694955404949
-3.915,0.2594980573562781,1.75053529454294
-3.9145,0.2168173579255475,1.517409249629256
-3.914,-0.2313299860971235,1.580989080060261
-3.9135,-0.7648387289812555,1.29487984312074
-3.913,-1.052933450138687,0.2776025562246667
-3.9125,-1.30901764672307,-0.7396747306714069
-3.912,-1.394379045584531,-1.42845622700729
-3.9115,-0.7755089038389382,-1.354279758171118
-3.911,-0.1459685872356623,-0.9092209451540858
-3.9105,0.3021787567870086,-0.5383386009732256
-3.91,0.5155822539406614,-0.3370024712750445
-3.9095,0.6009436528021226,-0.3793890248957141
-3.909,0.6222840025174878,-0.570128516188728
-3.9085,0.9530594231056497,-0.8986243067489184
-3.908,1.102441871113207,-0.8138511995075789
-3.9075,0.9317190733902845,-0.5171453241628908
-3.907,0.6969752265212663,-0.2204394488182027
-3.9065,0.5155822539406614,0.01268659609548085
-3.906,0.4515612047945656,0.1928294489833272
-3.9055,0.5369226036560266,0.2246193641988295
-3.905,0.4622313796522482,-0.1356663415768632
-3.9045,-0.07127736323188383,-0.7714646458869092
-3.904,-0.7114878546928423,-1.237716735714276
-3.9035,-0.8181896032696687,-1.01518732920576
-3.903,-0.5300948821122373,-0.326405832869877
-3.9025,-0.1779791118087102,0.383568940276341
-3.902,0.08877525963335578,0.9028042221295453
-3.9015,0.2594980573562781,1.220703374284568
-3.901,0.3341892813600565,1.37965295036208
-3.9005,0.3555296310754218,1.42203950398275
-3.9,0.3448594562177392,1.411442865577582
-3.8995,0.3341892813600565,1.347863035146577
-3.899,0.3128489316446912,1.284283204715573
-3.8985,0.291508581929326,1.220703374284568
-3.898,0.2701682322139607,1.114736990232894
-3.8975,0.00341386077189465,0.8180311148882058
-3.897,-0.5407650569699201,0.5319218779486851
-3.8965,-0.9355615267041777,-0.1992461720078678
-3.896,-1.212986073003927,-0.8774310299385835
-3.8955,-1.341028171296118,-1.311893204550448
-3.895,-0.7755089038389382,-1.184733543688439
-3.8945,-0.07127736323188383,-0.7608680074817418
-3.894,0.3982103305061524,-0.4853554089473885
-3.8935,0.6009436528021226,-0.400582301706049
-3.893,0.6436243522328531,-0.4323722169215513
-3.8925,0.6222840025174878,-0.4959520473525559
-3.892,0.79300680024041,-0.6972881770507372
-3.8915,0.9103787236749192,-0.6760949002404023
-3.891,0.79300680024041,-0.4853554089473885
-3.8905,0.6116138276598051,-0.2628260024388724
-3.89,0.4729015545099309,-0.05089323433552374
-3.8895,0.408880505363835,0.1186529801471552
-3.889,0.1207857842064037,0.08686306493165288
-3.8885,-0.4767440078238243,-0.252229364033705
-3.888,-1.010252750707956,-0.8138511995075789
-3.8875,-1.394379045584531,-1.184733543688439
-3.887,-1.597112367880501,-1.269506650929778
-3.8865,-1.159635198715513,-0.6866915386455698
-3.886,-0.5834457564006506,0.13984625695749
