Class_6_Listen_To_Quran/Class_6_Listen_To_Quran_Basim_2.csv

#Digilent WaveForms Oscilloscope Acquisition
#Device Name: EExplorer
#Serial Number: SN:210151A2B84A
#Date Time: 2020-10-27 13:42:30.937
#Sample rate: 2000Hz
#Samples: 16384
#Trigger: Source: Channel 1 Type: Edge Condition: Rising Level: 0 V Hyst.: Auto HoldOff: 0 s
#Channel 1: Range: 1 V/div Offset: 0 V Attenuation: 1 X
#Channel 2: Range: 1 V/div Offset: 0 V Attenuation: 1 X
#Power Supplies: ON
#Fixed Supply: ON
#Voltage: 3.3 V Readback: 3.314 V
#Positive Supply: ON
#Voltage: 3.7 V Readback: 3.711 V
#Current: 500 mA Readback: 21 mA
#Negative Supply: ON
#Voltage: -3.7 V Readback: -3.702 V
#Current: -500 mA Readback: -9 mA
#Reference 1: ON
#Voltage: 0 V
#Reference 2: ON
#Voltage: 0 V

Time (s),Channel 1 (V),Channel 2 (V)
-4.096,-1.885207089037933,-1.417859588602123
-4.0955,-2.16263163533743,-1.545019249464016
-4.095,-1.255666772433774,-1.08936379804147
-4.0945,-0.2846808603855366,-0.5807251545938954
-4.094,0.3982103305055313,-0.241632725628846
-4.0935,0.7609962756674787,-0.220439448818193
-4.093,0.8890383739595538,-0.2098428104130352
-4.0925,0.8997085488172268,-0.09327978795629949
-4.092,0.8676980242442855,-0.06148987274077791
-4.0915,0.974399772821015,-0.1568596183871981
-4.091,0.9637295979633325,-0.2098428104130352
-4.0905,0.8570278493864381,-0.1780528951974654
-4.09,0.7823366253827275,-0.1038764263613609
-4.0895,0.8036769750980928,-0.2098428104130352
-4.089,0.8250173248134386,-0.1568596183872463
-4.0885,0.9637295979633325,-0.400582301706049
-4.088,0.2808384070716433,-0.8350444763179138
-4.0875,-0.7114878546919398,-1.099960436446859
-4.087,-1.511750969019671,-1.068170521231414
-4.0865,-2.205312334768412,-0.8668343915334161
-4.086,-2.408045657064198,-0.5913217929993134
-4.0855,-2.087940411333049,-0.3264058328696457
-4.085,-1.148965023857831,-0.07208651114585861
-4.0845,-0.3380317346746874,0.1504428953624551
-4.084,0.2168173579258289,0.3941655786817397
-4.0835,0.5262524287983441,0.6484849004055269
-4.083,0.6329541773751706,0.8286277532933731
-4.0825,0.6329541773751415,0.9028042221294971
-4.082,0.6009436528021226,0.849821030103708
-4.0815,0.5582629533713921,0.6696781772158616
-4.081,0.5262524287983732,0.5849050699745992
-4.0805,0.0674349099179905,0.3729723018711736
-4.08,-0.807519428411986,-0.1992461720078678
-4.0795,-1.629122892452802,-0.8244478379121776
-4.079,-1.981238662756388,-1.343683119765873
-4.0785,-1.223656247861609,-1.258910012524611
-4.078,-0.3166913849594095,-0.7078848154564057
-4.0775,0.3235191065027038,-0.26282600243867
-4.077,0.6863050516635838,-0.04029659593035631
-4.0765,0.8250173248133319,-0.05089323433551411
-4.076,0.8356874996711019,-0.1568596183872945
-4.0755,0.79300680024041,-0.2628260024388724
-4.075,0.8676980242441885,-0.4217755785163839
-4.0745,0.9530594231056012,-0.4429688553265164
-4.074,0.8997085488172365,-0.2204394488182027
-4.0735,0.79300680024041,-0.008506680714854012
-4.073,0.6969752265213537,0.1504428953625129
-4.0725,0.6436243522328531,0.2881991946298341
-4.072,0.9103787236749192,0.02328323450064829
-4.0715,0.7183155762368063,-0.5383386009727148
-4.071,-0.2313299860979872,-1.004590690800737
-4.0705,-1.180975548430879,-1.163540266878104
-4.07,-1.970568487898676,-1.036380606016211
-4.0695,-2.386705307348677,-0.7608680074814623
-4.069,-2.013249187330125,-0.4535654937318862
-4.0685,-1.084943974711735,-0.1356663415768632
-4.068,-0.2846808603850514,0.2352160026043728
-4.0675,0.2488278824985954,0.6484849004055269
-4.067,0.5475927785137094,1.125333628638062
-4.0665,0.6436243522328531,1.411442865577621
-4.066,0.6436243522328531,1.453829419198252
-4.0655,0.6009436528021226,1.390249588767247
-4.065,0.5582629533714309,1.220703374284722
-4.0645,0.5262524287983441,0.8816109453192104
-4.064,0.3555296310754218,0.2670059178194992
-4.0635,-0.3593720843886651,-0.4111789401105996
-4.063,-1.223656247862143,-1.02578396761138
-4.0625,-1.810515865034154,-1.523825972653797
-4.062,-1.266336947292835,-1.693372187136322
-4.0615,-0.3487019095309823,-1.163540266877516
-4.061,0.3661998059331045,-0.5171453241628908
-4.0605,0.7823366253827275,-0.1250697031716958
-4.06,0.9103787236749096,-0.05089323433558157
-4.0595,0.8997085488172365,-0.1144730647665284
-4.059,0.8143471499557753,-0.1674562567923655
-4.0585,0.7716664505250836,-0.2416327256284701
-4.058,0.8143471499557753,-0.1992461720078678
-4.0575,0.7716664505250448,0.2246193641988295
-4.057,0.7289857510943532,0.3623756634658808
-4.0565,0.6969752265212663,0.3199891098453364
-4.056,0.6542945270905358,0.309392471440169
-4.0555,0.7930068002402839,0.150442895362802
-4.055,0.9423892482472489,-0.379389024896196
-4.0545,0.1527963087794516,-0.9092209451540858
-4.054,-0.7968492535534398,-1.174136905283031
-4.0535,-1.597112367881084,-1.121153713257203
-4.053,-2.23732285934146,-0.8668343915334161
-4.0525,-2.173301810195364,-0.5595318777835605
-4.052,-1.351698346153044,-0.2310360872230232
-4.0515,-0.5194247072545548,0.1504428953626575
-4.051,0.09944543449103843,0.5955017083796896
-4.0505,0.4622313796519182,1.12533362863758
-4.05,0.6222840025174878,1.676358825706768
-4.0495,0.6436243522328531,2.057837808292796
-4.049,0.6116138276598342,2.100224361913427
-4.0485,0.5689331282290455,1.983661339456382
-4.048,0.5369226036560266,1.718745379327438
-4.0475,0.4408910299369703,1.114736990233443
-4.047,-0.1459685872364484,0.2034260873877237
-4.0465,-1.010252750707956,-0.6443049850249
-4.046,-1.757164990745062,-1.301296566144683
-4.0455,-1.522421143875869,-1.682775548730961
-4.045,-0.5834457564006506,-1.301296566145281
-4.0445,0.2168173579255475,-0.6231117082145651
-4.044,0.6969752265214507,-0.156859618386909
-4.0435,0.8997085488172365,0.1610395337678249
-4.043,0.9210488985326017,0.1928294489833272
-4.0425,0.8570278493865642,0.06566978812143368
-4.042,0.7823366253827275,-0.1038764263613609
-4.0415,0.8143471499557753,-0.2946159176543747
-4.041,0.8036769750981024,-0.2946159176543747
-4.0405,0.7503261008096407,-0.1568596183869957
-4.04,0.707645401378949,0.06566978812131802
-4.0395,0.6649647019482572,0.2458126410090005
-4.039,0.7183155762368936,0.2881991946294775
-4.0385,1.006410297394063,-0.1038764263613609
-4.038,0.4408910299373973,-0.665498261834724
-4.0375,-0.5727755815438026,-1.046977244421311
-4.037,-1.490410619303675,-1.0999604364471
-4.0365,-2.183971985053047,-0.8880276683437509
-4.036,-2.055929886760079,-0.5807251545935485
-4.0355,-1.202315898146244,-0.1992461720078678
-4.035,-0.391382608962363,0.2776025562246667
-4.0345,0.1741366584943025,0.8498210301031875
-4.034,0.5049120790829789,1.506812611224089
-4.0335,0.6329541773751706,2.153207553939303
-4.033,0.6542945270905164,2.587669728550772
-4.0325,0.6329541773751317,2.767812581438888
-4.032,0.5902734779444399,2.630056282171837
-4.0315,0.5475927785137482,2.121417638724263
-4.031,0.5155822539403799,1.358459673550906
-4.0305,0.2061471830678648,0.4365521323021782
-4.03,-0.6154562809729512,-0.4535654937310767
-4.0295,-1.469070269588912,-1.152943628473371
-4.029,-2.130621110764634,-1.629792356705471
-4.0285,-1.693143941599645,-1.364876396576285
-4.028,-0.6794773301190568,-0.7290780922658346
-4.0275,0.1314559590640864,-0.2840192792492073
-4.027,0.6222840025174878,-0.08268314955102604
-4.0265,0.8250173248132736,0.002089957690236316
-4.026,0.8676980242441885,-0.07208651114585861
-4.0255,0.825017324813458,-0.1780528951975329
-4.025,0.8356874996711311,-0.3370024712748999
-4.0245,0.8890383739595441,-0.3899856633006599
-4.024,0.8783681991018712,-0.1462629799820306
-4.0235,0.8036769750981607,-0.0191033191201371
-4.023,0.7396559259519483,0.07626642652660111
-4.0225,0.6863050516635838,0.2034260873884947
-4.022,0.9103787236747154,-0.06148987274045026
-4.0215,0.6009436528012395,-0.6019184314046351
-4.021,-0.3700422592469978,-1.046977244421262
-4.0205,-1.287677297007705,-1.216523458903942
-4.02,-2.066600061618829,-1.110557074852017
-4.0195,-2.386705307349017,-0.8350444763179138
-4.019,-1.917217613610981,-0.5383386009732256
-4.0185,-0.9782422261357624,-0.2204394488184918
-4.018,-0.2099896363817582,0.1504428953626575
-4.0175,0.291508581929326,0.5849050699745222
-4.017,0.5582629533711494,1.104140351827254
-4.0165,0.6542945270905262,1.538602526439764
-4.016,0.6436243522328531,1.729342017732605
-4.0155,0.6009436528021614,1.739938656137763
-4.015,0.5582629533713532,1.623375633680661
-4.0145,0.5155822539406614,1.326669758336243
-4.014,0.248827882498838,0.5849050699751969
-4.0135,-0.5407650569706964,-0.2628260024395278
-4.013,-1.394379045584531,-0.9833974139902578
-4.0125,-2.119950935906951,-1.545019249464132
-4.012,-2.087940411332991,-1.587405803084261
-4.0115,-1.084943974711735,-0.9939940523954253
-4.011,-0.1673089369510276,-0.3899856633008816
-4.0105,0.4408910299363298,-0.1144730647667789
-4.01,0.7609962756673623,0.02328323450064829
-4.0095,0.857027849386506,0.02328323450064829
-4.009,0.8356874996711602,-0.02969995752514069
-4.0085,0.8143471499558723,-0.125069703171744
-4.008,0.9210488985326017,-0.1780528951975329
-4.0075,0.8890383739595829,0.04447651131078076
-4.007,0.8143471499557073,0.1822328105782561
-4.0065,0.7396559259519968,0.2881991946298341
-4.006,0.6863050516635838,0.3517790250608387
-4.0055,0.8356874996712476,0.1610395337673238
-4.005,0.9530594231056497,-0.3899856633008816
-4.0045,0.1314559590640864,-0.9304142219644207
-4.004,-0.8502001278434542,-1.195330182093558
-4.0035,-1.661133417026597,-1.142346990067769
-4.003,-2.280003558772191,-0.8986243067489184
-4.0025,-2.151961460480115,-0.6019184314045001
-4.002,-1.287677297007705,-0.2946159176543747
-4.0015,-0.4554036581084589,0.05507314971615059
-4.001,0.1421261339212255,0.4789386859224624
-4.0005,0.4835717293677397,0.9769806909661317
-4,0.6222840025174878,1.432636142387917
-3.9995,0.6329541773751706,1.528005888034424
-3.999,0.6009436528021226,1.475022696008586
-3.9985,0.5582629533713921,1.390249588767247
-3.998,0.5262524287983441,1.178316820663898
-3.9975,0.4515612047945656,0.6590815388106942
-3.997,-0.1459685872356623,-0.07208651114585861
-3.9965,-1.031593100423322,-0.7820612842920766
-3.996,-1.778505340461106,-1.375473034981453
-3.9955,-1.586442193022819,-1.682775548731308
-3.995,-0.658136980404429,-1.237716735714276
-3.9945,0.1527963087794516,-0.6019184314042303
-3.994,0.6649647019482183,-0.2310360872233701
-3.9935,0.8783681991018712,-0.06148987274069118
-3.993,0.9210488985326017,0.002089957690313421
-3.9925,0.8890383739595538,0.04447651131098315
-3.992,0.825017324813458,-0.01910331912002144
-3.9915,0.857027849386506,-0.1462629799820306
-3.991,0.8463576745288233,-0.1038764263613609
-3.9905,0.8036769750980928,-0.008506680714854012
-3.99,0.7503261008096795,0.04447651131098315
-3.9895,0.707645401378949,0.05507314971615059
-3.989,0.7503261008096795,0.1080563417419877
-3.9885,0.9317190733902845,-0.252229364033705
-3.988,0.2594980573562781,-0.7502713690765743
-3.9875,-0.7328282044082075,-1.046977244421262
-3.987,-1.533091318734406,-1.025783967610927
-3.9865,-2.215982509626095,-0.8032545611024114
-3.986,-2.344024607918286,-0.5171453241628908
-3.9855,-1.67180359188428,-0.2204394488182027
-3.985,-0.7648387289812555,0.1186529801471552
-3.9845,-0.04993701351651855,0.5213252395435176
-3.984,0.3875401556484697,1.00877060618122
-3.9835,0.6009436528021226,1.549199164844759
-3.983,0.6542945270905358,1.888291593810116
-3.9825,0.6436243522328531,1.994257977861791
-3.982,0.5902734779444399,1.782325209758442
-3.9815,0.5475927785137094,1.390249588767247
-3.981,0.5049120790829789,0.8392243916985406
-3.9805,0.1314559590640864,0.1080563417419877
-3.98,-0.722158029550525,-0.6337083466197325
-3.9795,-1.543761493592088,-1.248313374119443
-3.979,-2.162631635337682,-1.640388995110639
-3.9785,-1.629122892453549,-1.38606967338662
-3.978,-0.6367966306890638,-0.7820612842920766
-3.9775,0.1527963087794516,-0.400582301706049
-3.977,0.6116138276598051,-0.2204394488182027
-3.9765,0.79300680024041,-0.1568596183871981
-3.976,0.8356874996711408,-0.1674562567923655
-3.9755,0.8036769750980928,-0.2204394488182027
-3.975,0.7609962756673623,-0.3687923864905467
-3.9745,0.707645401378949,-0.3687923864905467
-3.974,0.6649647019482183,-0.1568596183871981
-3.9735,0.6542945270905358,0.03387987290581572
-3.973,0.6222840025174878,0.07626642652648545
-3.9725,0.6222840025174878,0.08686306493165288
-3.972,0.8463576745288233,-0.1780528951975329
-3.9715,0.4408910299368829,-0.6866915386455698
-3.971,-0.5087545323968721,-1.131750351662602
-3.9705,-1.30901764672307,-1.205926820498774
-3.97,-2.002579012472442,-1.036380606016095
-3.9695,-2.376035132491334,-0.7608680074817418
-3.969,-2.066600061618538,-0.4535654937318862
-3.9685,-1.138294849000148,-0.1568596183871981
-3.968,-0.3273615598162672,0.1610395337678249
-3.9675,0.2274875327832301,0.5213252395435176
-3.967,0.5369226036560266,0.9451907757502149
-3.9665,0.6542945270905358,1.241896651094903
-3.966,0.6542945270905358,1.273686566310405
-3.9655,0.6222840025174878,1.125333628638062
-3.965,0.5796033030867573,0.8816109453192104
-3.9645,0.5475927785137094,0.5107286011383502
-3.964,0.2808384070716433,-0.008506680714854012
-3.9635,-0.5194247072545548,-0.5489352393783931
-3.963,-1.373038695869166,-1.078767159636765
-3.9625,-2.002579012472442,-1.523825972653797
-3.962,-1.543761493592088,-1.481439419033127
-3.9615,-0.5941159312583333,-0.9092209451540858
-3.961,0.1741366584948169,-0.4853554089473885
-3.9605,0.6222840025174878,-0.3158091944647096
-3.96,0.79300680024041,-0.2946159176543747
-3.9595,0.8143471499557753,-0.2734226408440398
-3.959,0.7823366253827275,-0.2628260024388724
-3.9585,0.7823366253827275,-0.3158091944647096
-3.958,0.9850699476786977,-0.5171453241628908
-3.9575,1.006410297394063,-0.4323722169215513
-3.957,0.9103787236749192,-0.2204394488182027
-3.9565,0.79300680024041,-0.01910331912002144
-3.956,0.7823366253827275,-0.01910331912002144
-3.9555,1.006410297394063,-0.252229364033705
-3.955,1.347855892839907,-0.7078848154559045
-3.9545,0.6222840025174878,-1.110557074852267
-3.954,-0.4767440078238243,-1.248313374119443
-3.9535,-1.437059745015262,-1.110557074852267
-3.953,-2.109280761049269,-0.8456411147230812
-3.9525,-1.906547438753298,-0.5595318777835605
-3.952,-1.084943974711735,-0.2628260024388724
-3.9515,-0.3166913849585846,0.08686306493165288
-3.951,0.2168173579255475,0.5107286011383502
-3.9505,0.5155822539406614,1.040560521396722
-3.95,0.6329541773751706,1.549199164844759
-3.9495,0.6329541773751706,1.70814874092227
-3.949,0.6009436528021226,1.644568910491266
-3.9485,0.5582629533713921,1.464426057603419
-3.948,0.5262524287983441,1.210106735879401
-3.9475,0.4622313796522482,0.627291623595192
-3.947,-0.1032878878049318,-0.1568596183871981
-3.9465,-0.9782422261349084,-0.8668343915334161
-3.946,-1.767835165603424,-1.449649503817625
-3.9455,-2.002579012472442,-1.661582271920973
-3.945,-1.127624674142465,-1.068170521231597
-3.9445,-0.1886492866663929,-0.3581957480853793
-3.944,0.4515612047945656,0.09745970333682032
-3.9435,0.7716664505250448,0.2564092794143318
-3.943,0.8783681991018712,0.2458126410091644
-3.9425,0.8676980242441885,0.1610395337678249
-3.942,0.8143471499557753,0.01268659609548085
-3.9415,0.8676980242441885,-0.2204394488182027
-3.941,0.857027849386506,-0.2946159176543747
-3.9405,0.7716664505250448,-0.3158091944647096
-3.94,0.6863050516635838,-0.2416327256285375
-3.9395,0.6222840025174878,-0.06148987274069118
-3.939,0.6542945270905358,0.06566978812131802
-3.9385,0.8676980242441885,-0.252229364033705
-3.938,0.2168173579255475,-0.7396747306714069
-3.9375,-0.754168554123573,-1.046977244421262
-3.937,-1.586442193022819,-1.046977244421262
-3.9365,-2.247993034199143,-0.8244478379127463
-3.936,-2.258663209056825,-0.5171453241628908
-3.9355,-1.46907026958831,-0.1886495336027004
-3.935,-0.5941159312583333,0.1504428953626575
-3.9345,0.05676473506030786,0.5213252395435176
-3.934,0.4408910299368829,0.9663840525605498
-3.9335,0.6222840025174878,1.432636142387917
-3.933,0.6649647019482183,1.782325209758442
-3.9325,0.6436243522328531,2.110821000318633
-3.932,0.6009436528021226,2.174400830749637
-3.9315,0.5582629533713921,1.867098316999781
-3.931,0.4408910299368829,1.135930267043229
-3.9305,-0.156638762093345,0.1716361721729923
-3.93,-1.020922925565639,-0.6866915386455698
-3.9295,-1.799845690176472,-1.34368311976595
-3.929,-2.301343908487556,-1.714565463946811
-3.9285,-1.650463242168915,-1.38606967338662
-3.928,-0.6154562809736985,-0.6654982618352349
-3.9275,0.1741366584948169,-0.1674562567923655
-3.927,0.6436243522328531,0.04447651131098315
-3.9265,0.825017324813458,0.08686306493165288
-3.926,0.857027849386506,0.06566978812131802
-3.9255,0.8356874996711408,-0.06148987274069118
-3.925,0.8356874996711408,-0.2310360872233701
-3.9245,0.857027849386506,-0.2628260024388724
-3.924,0.8890383739595538,-0.1992461720078678
-3.9235,0.8463576745288233,-0.008506680714854012
-3.923,0.7716664505250448,0.05507314971615059
-3.9225,0.707645401378949,0.06566978812131802
-3.922,0.9210488985326017,-0.2204394488182027
-3.9215,0.5689331282290746,-0.7290780922662394
-3.921,-0.4127229586777283,-1.110557074852267
-3.9205,-1.330357996438436,-1.216523458903942
-3.92,-2.109280761049269,-1.046977244421262
-3.9195,-2.386705307349017,-0.7502713690765743
-3.919,-2.087940411333903,-0.4429688553267188
-3.9185,-1.159635198715513,-0.1356663415768632
-3.918,-0.3380317346739499,0.2140227257936621
-3.9175,0.2274875327832301,0.6378882620003594
-3.917,0.5369226036560266,1.125333628638062
-3.9165,0.6542945270905358,1.517409249629256
-3.916,0.6542945270905358,1.718745379327438
-3.9155,0.6116138276598051,1.70814874092227
-3.915,0.5689331282290746,1.729342017732605
-3.9145,0.5369226036560266,1.612778995275763
-3.914,0.2488278824985954,1.00877060618122
-3.9135,-0.5300948821122373,0.1186529801471552
-3.913,-1.373038695869166,-0.7078848154559045
-3.9125,-1.938557963326346,-1.34368311976595
-3.912,-1.298347471865388,-1.587405803084801
-3.9115,-0.3166913849585846,-1.068170521231597
-3.911,0.4302208550792003,-0.4853554089473885
-3.9105,0.8143471499557753,-0.1144730647665284
-3.91,0.9103787236749192,0.02328323450064829
-3.9095,0.8997085488172365,0.05507314971615059
-3.909,0.857027849386506,0.06566978812131802
-3.9085,0.825017324813458,-0.02969995752518888
-3.908,0.857027849386506,-0.08268314955102604
-3.9075,0.8036769750980928,0.1186529801471552
-3.907,0.7396559259519968,0.2670059178194992
-3.9065,0.6756348768059011,0.2352160026039969
-3.906,0.6329541773751706,0.1610395337678249
-3.9055,0.5689331282290746,-0.01910331912002144
-3.905,0.03542438534494258,-0.5065486857577234
-3.9045,-0.8608703027003992,-0.9728007755850904
-3.904,-1.554431668449771,-1.131750351662602
-3.9035,-2.119950935906951,-0.9939940523954253
-3.903,-2.386705307349017,-0.7078848154559045
-3.9025,-2.23732285934146,-0.3899856633008816
-3.902,-1.383708870726849,-0.07208651114585861
-3.9015,-0.5087545323968721,0.2776025562246667
-3.901,0.1207857842064037,0.6696781772158616
-3.9005,0.4835717293676135,1.125333628638062
-3.9,0.6436243522328531,1.559795803249926
-3.8995,0.6756348768059011,1.898888232215284
-3.899,0.6436243522328531,2.089627723508298
-3.8985,0.6009436528021226,2.07903108510313
-3.898,0.5582629533713921,1.835308401784279
-3.8975,0.5049120790829789,1.358459673551745
-3.897,-0.03926683865883591,0.5637117931641874
-3.8965,-0.9142211769888124,-0.3370024712750445
-3.896,-1.725154466172693,-1.078767159636765
-3.8955,-2.03458953704549,-1.481439419033127
-3.895,-1.191645723288561,-1.205926820498774
-3.8945,-0.2526703358124887,-0.570128516188728
-3.894,0.4195506802215176,-0.1674562567923655
-3.8935,0.7396559259519968,-0.02969995752518888
-3.893,0.825017324813458,0.05507314971615059
-3.8925,0.8143471499557753,-0.04029659593035631
-3.892,0.7716664505250448,-0.2098428104130352
-3.8915,0.7609962756673623,-0.2946159176543747
-3.891,0.7183155762366316,-0.06148987274069118
-3.8905,0.6863050516635838,0.1080563417419877
-3.89,0.6649647019482183,0.1610395337678249
-3.8895,0.6329541773751706,0.13984625695749
-3.889,0.7183155762366316,0.02328323450064829
-3.8885,1.038420821967111,-0.4323722169215513
-3.888,0.4622313796522482,-0.9410108603695881
-3.8875,-0.5621054066852853,-1.227120097309109
-3.887,-1.426389570157579,-1.184733543688439
-3.8865,-2.151961460479999,-0.9304142219644207
