Class_6_Listen_To_Quran/Class_6_Listen_To_Quran_SH_11.csv

#Digilent WaveForms Oscilloscope Acquisition
#Device Name: EExplorer
#Serial Number: SN:210151A2B84A
#Date Time: 2021-01-21 12:00:57.615
#Sample rate: 2000Hz
#Samples: 16384
#Trigger: Source: Channel 1 Type: Edge Condition: Rising Level: 0 V Hyst.: Auto HoldOff: 0 s
#Channel 1: Range: 1 V/div Offset: 0 V Attenuation: 1 X
#Channel 2: Range: 1 V/div Offset: 0 V Attenuation: 1 X
#Power Supplies: ON
#Fixed Supply: ON
#Voltage: 3.3 V Readback: 3.317 V
#Positive Supply: ON
#Voltage: 3.7 V Readback: 3.703 V
#Current: 40 mA Readback: 18 mA
#Negative Supply: ON
#Voltage: -3.7 V Readback: -3.741 V
#Current: -40 mA Readback: 0 A
#Reference 1: ON
#Voltage: 0 V
#Reference 2: ON
#Voltage: 0 V

Time (s),Channel 1 (V),Channel 2 (V)
-4.096,-0.8608703027003992,-0.8668343915334161
-4.0955,-1.341028171295682,-1.428456227006779
-4.095,-1.981238662756999,-1.831128486403354
-4.0945,-1.895877263895616,-1.502632695843462
-4.094,-1.14896502385851,-0.5595318777844183
-4.0935,-0.4340633083926181,0.2352160026044595
-4.093,0.08877525963335578,0.7438546460520338
-4.0925,0.4088805053635439,0.9557874141551896
-4.092,0.5582629533714406,0.9345941373449126
-4.0915,0.6116138276598051,0.7862411996727035
-4.091,0.6116138276598051,0.55311515475902
-4.0905,0.6009436528021129,0.3093924714399473
-4.09,0.5902734779444399,0.06566978812131802
-4.0895,0.5689331282290746,-0.1674562567923655
-4.089,0.5582629533714017,-0.3370024712748902
-4.0885,0.4302208550792003,-0.3793890248957141
-4.088,-0.3273615598162672,0.1080563417419877
-4.0875,-1.170305373572429,0.7226613692411399
-4.087,-1.75716499074611,1.188913459069287
-4.0865,-2.162631635337682,1.432636142387917
-4.086,-1.735824641030764,1.157123543853814
-4.0855,-0.8822106524151045,0.5001319627326238
-4.085,-0.156638762093345,-0.1144730647665284
-4.0845,0.3448594562172831,-0.4747587705418934
-4.084,0.6009436528022002,-0.6231117082145844
-4.0835,0.6863050516635838,-0.6443049850249
-4.083,0.6116138276598051,-0.5489352393783931
-4.0825,0.291508581929258,-0.5383386009730136
-4.082,0.2168173579255475,-0.3052125560595421
-4.0815,0.291508581929326,0.05507314971615059
-4.081,0.3982103305060554,0.4153588554915156
-4.0805,0.4835717293676135,0.7120647308365314
-4.08,0.5155822539406614,0.6802748156210291
-4.0795,0.7076454013787743,0.1610395337682972
-4.079,0.4195506802205957,-0.5065486857584269
-4.0785,-0.5941159312583333,-1.280103289334946
-4.078,-1.116954499284307,-1.333086481360735
-4.0775,-1.010252750707529,-0.7926579226965501
-4.077,-0.5407650569699201,-0.02969995752518888
-4.0765,0.01408403562907268,0.6166949851894367
-4.076,0.3341892813601924,0.8816109453192007
-4.0755,0.4835717293676135,0.8710143069140429
-4.075,0.5475927785137094,0.7226613692416989
-4.0745,0.5582629533713921,0.5001319627329516
-4.074,0.5582629533713921,0.2458126410091644
-4.0735,0.5475927785137094,0.002089957690313421
-4.073,0.5582629533713824,-0.2204394488180003
-4.0725,0.5582629533713921,-0.4217755785163839
-4.072,0.5902734779444399,-0.5277419625680583
-4.0715,1.102441871112741,-0.1356663415772198
-4.071,1.497238340846979,0.4895353243283141
-4.0705,0.9637295979633325,0.8180311148882058
-4.07,0.3235191065029562,0.8816109453191525
-4.0695,-0.007256314085739466,0.6378882619998968
-4.069,0.04609456020262521,0.1292496185523226
-4.0685,0.2381577076409128,-0.3052125560595421
-4.068,0.4302208550793071,-0.601918431404346
-4.0675,0.5475927785137094,-0.7290780922662394
-4.067,0.5902734779444399,-0.6866915386455698
-4.0665,0.6009436528021322,-0.5383386009730617
-4.066,0.6116138276598051,-0.3581957480853793
-4.0655,0.6222840025174878,-0.1144730647665284
-4.065,0.6116138276598148,0.1504428953624166
-4.0645,0.6009436528021226,0.4047622170866759
-4.064,0.5796033030867573,0.627291623595192
-4.0635,0.6009436528021032,0.7226613692416122
-4.063,0.63295417737519,0.2987958330344619
-4.0625,0.6542945270905358,-0.2946159176543747
-4.062,-0.007256314085186344,-0.75027136907616
-4.0615,-0.7221580295510199,-0.9092209451541436
-4.061,-1.26633694729234,-0.9728007755850904
-4.0605,-1.148965023857831,-0.570128516188728
-4.06,-0.6047861061156082,0.07626642652684204
-4.0595,-0.156638762093345,0.4683420475176805
-4.059,0.2488278824985954,0.7226613692416989
-4.0585,0.5049120790827459,0.7862411996726456
-4.058,0.5475927785137094,0.5955017083796896
-4.0575,0.5475927785137094,0.3517790250608387
-4.057,0.5262524287983635,0.1080563417422094
-4.0565,0.5155822539406614,-0.1356663415768632
-4.056,0.5262524287983441,-0.3370024712750445
-4.0555,0.536922603656017,-0.4747587705420958
-4.055,0.4942419042255581,-0.5065486857572801
-4.0545,0.7823366253827275,-0.01910331912002144
-4.054,1.411876941985431,0.6378882619997619
-4.0535,0.9957401225355553,1.157123543853718
-4.053,0.08877525963335578,1.326669758336243
-4.0525,-0.2099896363817582,0.8710143069140429
-4.052,-0.07127736323165092,0.1716361721725008
-4.0515,0.1848068333524996,-0.3687923864905467
-4.051,0.3875401556484697,-0.6231117082145651
-4.0505,0.5049120790828721,-0.6443049850248806
-4.05,0.5582629533713921,-0.570128516188728
-4.0495,0.5475927785137094,-0.6019184314042303
-4.049,0.4942419042253446,-0.5913217929990725
-4.0485,0.4942419042253058,-0.3052125560591952
-4.048,0.5049120790829789,0.07626642652648545
-4.0475,0.5155822539406517,0.4365521323018505
-4.047,0.5369226036563177,0.7120647308363965
-4.0465,0.857027849386506,0.5637117931641874
-4.046,1.337185717981788,-0.01910331911949148
-4.0455,0.7609962756664792,-0.5701285161890556
-4.045,-0.2099896363817582,-0.9304142219644207
-4.0445,-0.7328282044082075,-0.8032545611024114
-4.044,-0.5834457564003206,-0.178052895196974
-4.0435,-0.2206598112394408,0.4365521323021782
-4.043,0.01408403562957729,0.7120647308365314
-4.0425,-0.3380317346736296,0.2564092794147462
-4.042,-0.2420001609548061,0.1610395337678249
-4.0415,-0.04993701351651855,0.1292496185523226
-4.041,0.1207857842062484,0.05507314971621805
-4.0405,0.3661998059332209,0.04447651131089642
-4.04,0.4942419042252961,-0.05089323433552374
-4.0395,0.5155822539406419,-0.2416327256283641
-4.039,0.5155822539406032,-0.4217755785163936
-4.0385,0.4515612047945656,-0.4323722169215513
-4.038,-0.2099896363811566,0.04447651131054942
-4.0375,-0.8715404775585769,0.3305857482506677
-4.037,-1.415719395299897,0.5107286011383502
-4.0365,-1.490410619303675,0.7650479228623686
-4.036,-1.031593100422749,0.5955017083792655
-4.0355,-0.4020527838200457,0.1292496185523226
-4.035,0.09944543449103843,-0.326405832869877
-4.0345,0.4088805053635536,-0.580725154593664
-4.034,0.5475927785137094,-0.6866915386455698
-4.0335,0.5902734779444399,-0.6443049850249
-4.033,0.5369226036560751,-0.591321792999111
-4.0325,0.1954770082100948,-0.7608680074815394
-4.032,0.09944543449103843,-0.5383386009732256
-4.0315,0.1954770082100948,-0.103876426361756
-4.031,0.3341892813601633,0.3305857482508315
-4.0305,0.4515612047945656,0.6908714540261965
-4.03,0.4729015545099114,0.669678177215881
-4.0295,0.7716664505254621,0.08686306493107462
-4.029,1.230483969405398,-0.5489352393783931
-4.0285,1.027750647109428,-0.9092209451540858
-4.028,0.2808384070711969,-0.9939940523951265
-4.0275,-0.2099896363817582,-0.6654982618352349
-4.027,-0.1993194615240755,-0.02969995752518888
-4.0265,0.00341386077171027,0.4789386859223853
-4.026,0.2168173579255475,0.7438546460520338
-4.0255,0.3768699807907871,0.775644561267536
-4.025,0.4622313796521705,0.6484849004056426
-4.0245,0.4835717293670895,0.4153588554910819
-4.024,-0.09261771294724913,-0.4217755785163839
-4.0235,-0.2846808603853619,-0.8668343915330113
-4.023,-0.1352984123778535,-0.9516074987748037
-4.0225,0.00341386077189465,-1.004590690800593
-4.022,0.2061471830676805,-0.835044476318068
-4.0215,0.1421261339218078,-0.1886495336020161
-4.021,0.1848068333524996,0.5637117931641874
-4.0205,-0.3807124341046804,0.9769806909657173
-4.02,-0.9995825758507201,1.051157159801957
-4.0195,-1.490410619303675,1.125333628638062
-4.019,-1.180975548430879,0.7438546460520338
-4.0185,-0.583445756401194,0.1822328105786706
-4.018,-0.02859666380115328,-0.2946159176543747
-4.0175,0.3768699807907871,-0.5383386009732256
-4.017,0.5689331282288999,-0.6019184314041724
-4.0165,0.6222840025173519,-0.5277419625680583
-4.016,0.4729015545099309,-0.5277419625680583
-4.0155,0.4195506802215662,-0.2946159176545867
-4.015,0.4302208550792391,0.05507314971645899
-4.0145,0.4729015545099309,0.3941655786815084
-4.014,0.5155822539406225,0.6908714540259266
-4.0135,0.4515612047942744,0.7756445612670542
-4.013,0.1314559590640864,0.2458126410091644
-4.0125,-0.03926683865883591,-0.2204394488182027
-4.012,-0.5087545323973087,-0.6231117082147771
-4.0115,-0.9889124009925911,-0.8562377531282487
-4.011,-0.839529952985034,-0.4323722169215513
-4.0105,-0.4020527838204436,0.1822328105776007
-4.01,0.02475421048725994,0.6484849004055269
-4.0095,0.3128489316446912,0.8710143069140429
-4.009,0.4729015545097853,0.8816109453192007
-4.0085,0.5262524287983441,0.7438546460518217
-4.008,0.5262524287983441,0.5107286011383502
-4.0075,0.5262524287983441,0.2670059178197209
-4.007,0.5049120790829789,0.0232832345004459
-4.0065,0.5049120790829789,-0.1992461720078678
-4.006,0.5049120790829789,-0.3899856633008816
-4.0055,0.5049120790827945,-0.5489352393785569
-4.005,0.3021787567870086,-0.7290780922662394
-4.0045,-0.1032878878049318,-0.7714646458869092
-4.004,-0.5300948821128875,0.02328323450125545
-4.0035,-1.244996597576974,0.6908714540261965
-4.003,-1.565101843307454,0.8710143069140429
-4.0025,-1.04226327528148,0.606098346785098
-4.002,-0.3807124341046804,0.1186529801471552
-4.0015,0.1101156093487211,-0.3581957480853793
-4.001,0.4195506802212362,-0.6125150698091664
-4.0005,0.5582629533714503,-0.6866915386454927
-4,0.6222840025174878,-0.6019184314042303
-3.9995,0.5582629533713921,-0.5595318777835605
-3.999,0.4515612047945656,-0.4535654937318862
-3.9985,0.4622313796522482,-0.1250697031716958
-3.998,0.5049120790829789,0.2246193641988295
-3.9975,0.5262524287983441,0.5425185163538525
-3.997,0.5475927785137094,0.7650479228623686
-3.9965,0.9103787236749192,0.4153588554918433
-3.996,1.465227816274416,-0.3475991096802118
-3.9955,1.017080472251745,-0.8562377531282487
-3.995,0.03542438534494258,-1.004590690800593
-3.9945,-0.5941159312583333,-0.8244478379127463
-3.994,-0.5300948821122373,-0.1886495336027004
-3.9935,-0.2099896363817582,0.4047622170866759
-3.993,0.1101156093487211,0.7544512844572011
-3.9925,0.3341892813600565,0.8604176685088755
-3.992,0.4515612047945656,0.775644561267536
-3.9915,0.5049120790829789,0.5849050699745222
-3.991,0.5155822539406614,0.3411823866556712
-3.9905,0.5049120790829789,0.07626642652648545
-3.99,0.4942419042252961,-0.1674562567923655
-3.9895,0.4835717293676135,-0.3899856633008816
-3.989,0.4835717293676135,-0.5807251545938954
-3.9885,0.5155822539406614,-0.6125150698093976
-3.988,0.6756348768059011,-0.1462629799820306
-3.9875,0.4515612047945656,0.5213252395435176
-3.987,-0.1886492866663929,0.9875773293708847
-3.9865,-0.6154562809736985,1.220703374284568
-3.986,-0.8822106524157645,0.7120647308365314
-3.9855,-1.020922925565639,-0.326405832869877
-3.985,-0.5300948821122373,-0.718481453861072
-3.9845,-0.156638762093345,-0.9198175835592532
-3.984,0.1741366584948169,-0.8668343915334161
-3.9835,0.4408910299368829,-0.6125150698093976
-3.983,0.5262524287983441,-0.4217755785163839
-3.9825,0.5475927785137094,-0.2204394488182027
-3.982,0.5475927785137094,0.02328323450064829
-3.9815,0.5369226036560266,0.2670059178194992
-3.981,0.5262524287983441,0.5107286011383502
-3.9805,0.5155822539406614,0.7332580076468663
-3.98,0.6649647019482183,0.7968378380778709
-3.9795,1.262494493978446,0.2034260873884947
-3.979,1.113112045970889,-0.6337083466197325
-3.9785,0.1314559590640864,-1.131750351662602
-3.978,-0.8288597781273515,-1.227120097309109
-3.9775,-1.010252750707956,-0.8244478379127463
-3.977,-0.6474668055467465,-0.1568596183871981
-3.9765,-0.1886492866663929,0.383568940276341
-3.976,0.1634664836371343,0.6696781772158616
-3.9755,0.3875401556484697,0.7332580076468663
-3.975,0.4942419042252961,0.6484849004055269
-3.9745,0.5155822539406614,0.4683420475176805
-3.974,0.5155822539406614,0.2670059178194992
-3.9735,0.4942419042252961,0.05507314971615059
-3.973,0.4942419042252961,-0.1144730647665284
-3.9725,0.5049120790829789,-0.2416327256285375
-3.972,0.5049120790829789,-0.3158091944647096
-3.9715,0.6436243522328531,0.02328323450064829
-3.971,0.9530594231056497,0.5319218779486851
-3.9705,0.4835717293676135,0.6378882620003594
-3.97,-0.3487019095316325,0.7120647308365314
-3.9695,-0.6261264558313813,0.6802748156210291
-3.969,-0.3487019095316325,0.3729723018711736
-3.9685,0.02475421048725994,-0.01910331912002144
-3.968,0.2594980573562781,-0.326405832869877
-3.9675,-0.1886492866663929,-1.046977244421262
-3.967,-0.2526703358124887,-1.195330182093607
-3.9665,-0.09261771294724913,-0.9833974139902578
-3.966,0.07810508477567314,-0.7608680074817418
-3.9655,0.3235191065023739,-0.3581957480853793
-3.965,0.4942419042252961,0.01268659609548085
-3.9645,0.5049120790829789,0.2458126410091644
-3.964,0.5049120790829789,0.4259554938970107
-3.9635,0.5049120790829789,0.5001319627331828
-3.963,0.5155822539406614,-0.08268314955102604
-3.9625,0.6649647019482183,-0.8032545611024114
-3.962,0.142126133921769,-1.227120097309109
-3.9615,-0.7328282044082075,-1.555615887869299
-3.961,-0.8928808272734472,-1.131750351662602
-3.9605,-0.572775581542968,-0.3475991096802118
-3.96,-0.1459685872356623,0.309392471440169
-3.9595,0.1741366584948169,0.6908714540261965
-3.959,0.3768699807907871,0.8180311148882058
-3.9585,0.4835717293676135,0.775644561267536
-3.958,0.5155822539406614,0.627291623595192
-3.9575,0.5049120790829789,0.4153588554918433
-3.957,0.4835717293676135,0.2034260873884947
-3.9565,0.4835717293676135,0.002089957690313421
-3.956,0.4729015545099309,-0.1568596183871981
-3.9555,0.4729015545099309,-0.3052125560595421
-3.955,0.3661998059331045,-0.1568596183871981
-3.9545,0.3875401556484697,0.4471487707073456
-3.954,0.08877525963335578,1.00877060618122
-3.9535,-0.5834457564006506,1.347863035146577
-3.953,-0.9035510021311299,1.369056311956912
-3.9525,-0.6154562809736985,0.9134008605347127
-3.952,-0.1886492866663929,0.2564092794143318
-3.9515,0.1848068333524996,-0.2416327256285375
-3.951,0.408880505363835,-0.4959520473525559
-3.9505,0.5262524287983441,-0.5913217929990628
-3.95,0.5582629533713921,-0.570128516188728
-3.9495,0.00341386077189465,-1.025783967610927
-3.949,-0.4127229586777283,-1.258910012524611
-3.9485,-0.2420001609548061,-0.8562377531282487
-3.948,-0.06060718837420119,-0.3793890248957141
-3.9475,0.2061471830678648,0.1504428953626575
-3.947,0.4302208550792003,0.5637117931641874
-3.9465,0.6756348768059011,0.4153588554918433
-3.946,1.166462920259302,-0.2734226408440398
-3.9455,0.5796033030867573,-1.110557074852267
-3.945,-0.4874141826815069,-1.682775548731308
-3.9445,-1.116954499284783,-1.650985633515806
-3.944,-0.9355615267041777,-0.8668343915334161
-3.9435,-0.4554036581084589,-0.01910331912002144
-3.943,-0.007256314085787988,0.5637117931641874
-3.9425,0.291508581929326,0.8180311148882058
-3.942,0.4408910299368829,0.8286277532933731
-3.9415,0.4942419042252961,0.6802748156210291
-3.941,0.5049120790829789,0.4683420475176805
-3.9405,0.4942419042252961,0.2246193641988295
-3.94,0.4942419042252961,0.01268659609548085
-3.9395,0.4729015545099309,-0.1992461720078678
-3.939,0.4729015545099309,-0.3687923864905467
-3.9385,0.408880505363835,-0.3687923864905467
-3.938,-0.1993194615240755,0.1292496185523226
-3.9375,-0.8715404775580819,0.701468092431364
-3.937,-1.277007122150022,0.9981739677760521
-3.9365,-1.629122892453549,1.178316820663898
-3.936,-1.51175096901904,1.051157159801889
-3.9355,-0.8715404775580819,0.4789386859228479
-3.935,-0.2313299860971235,-0.1038764263613609
-3.9345,0.1954770082101822,-0.4853554089473885
-3.934,0.4408910299368829,-0.6549016234300674
-3.9335,0.5475927785137094,-0.6443049850249
-3.933,0.5796033030867573,-0.5277419625680583
-3.9325,0.6116138276598051,-0.3687923864905467
-3.932,0.4622313796522482,-0.2734226408440398
-3.9315,-0.1673089369510276,-0.6231117082145651
-3.931,-0.156638762093345,-0.3581957480853793
-3.9305,-0.03926683865883591,0.002089957690313421
-3.93,0.1741366584948169,0.1928294489833272
-3.9295,0.6542945270905358,-0.2416327256285375
-3.929,0.6116138276598051,-0.7078848154559045
-3.9285,-0.03926683865883591,-0.9728007755850904
-3.928,-0.8288597781273515,-1.163540266878104
-3.9275,-0.839529952985034,-0.6443049850249
-3.927,-0.4660738329661415,0.07626642652648545
-3.9265,-0.06060718837420119,0.6166949851900245
-3.926,0.2381577076409128,0.8922075837243778
-3.9255,0.4195506802215176,0.9451907757502149
-3.925,0.5049120790829789,0.8392243916985406
-3.9245,0.5155822539406614,0.627291623595192
-3.924,0.4942419042252961,0.3729723018711736
-3.9235,0.4729015545099309,0.1292496185523226
-3.923,0.4729015545099309,-0.08268314955102604
-3.9225,0.4729015545099309,-0.252229364033705
-3.922,0.4408910299368829,-0.3475991096802118
-3.9215,-0.08194753808956648,0.002089957690313421
-3.921,-0.9675720512772257,0.5955017083796896
-3.9205,-1.693143941599645,1.061753798207057
-3.92,-2.109280761049269,1.37965295036208
-3.9195,-1.949228138184029,1.29487984312074
-3.919,-1.148965023857831,0.701468092431364
-3.9185,-0.3700422592469978,0.03387987290581572
-3.918,0.1634664836371343,-0.4535654937318862
-3.9175,0.4408910299368829,-0.718481453861072
-3.917,0.5582629533713921,-0.7714646458869092
-3.9165,0.5796033030867573,-0.6760949002404023
-3.916,0.4515612047945656,-0.6125150698093976
-3.9155,0.3661998059331045,-0.4111789401112165
-3.915,0.3661998059331045,-0.09327978795619347
-3.9145,0.3982103305061524,0.2458126410091644
-3.914,0.3661998059331045,0.4683420475176805
-3.9135,-0.2420001609548061,-0.008506680714854012
-3.913,0.00341386077189465,-0.3370024712750445
-3.9125,0.4302208550792003,-0.8350444763179138
-3.912,-0.2313299860971235,-1.38606967338662
-3.9115,-0.9889124009925911,-1.672178910326141
-3.911,-1.362368521011484,-1.47084278062796
-3.9105,-1.042263275281004,-0.6972881770507372
-3.91,-0.5087545323968721,0.08686306493165288
-3.9095,-0.03926683865883591,0.6166949851900245
-3.909,0.2701682322139607,0.8392243916985406
-3.9085,0.4408910299368829,0.8286277532933731
-3.908,0.5155822539406614,0.6696781772158616
-3.9075,0.5262524287983441,0.4471487707073456
-3.907,0.5155822539406614,0.1822328105781598
-3.9065,0.4942419042252961,-0.06148987274069118
-3.906,0.4729015545099309,-0.3052125560595421
-3.9055,0.4622313796522482,-0.4323722169215513
-3.905,0.3982103305061524,-0.3370024712750445
-3.9045,-0.1032878878049318,0.1822328105781598
-3.904,-0.8181896032696687,0.6484849004055269
-3.9035,-1.287677297007705,0.7650479228623686
-3.903,-1.479740444445993,0.8392243916985406
-3.9025,-1.052933450138687,0.5001319627331828
-3.902,-0.4127229586777283,-0.02969995752518888
-3.9015,0.09944543449103843,-0.474758770542221
-3.901,0.3982103305061524,-0.718481453861072
-3.9005,0.5475927785137094,-0.7714646458869092
-3.9,0.5902734779444399,-0.6866915386455698
-3.8995,0.5796033030867573,-0.5171453241628908
-3.899,0.5262524287983441,-0.2734226408440398
-3.8985,0.4835717293676135,0.002089957690313421
-3.898,0.4622313796522482,0.2776025562246667
-3.8975,0.4622313796522482,0.5213252395435176
-3.897,0.4622313796522482,0.7120647308365314
-3.8965,0.3768699807907871,0.6378882620003594
-3.896,0.5902734779444399,0.1080563417419877
-3.8955,-0.3060212101009019,-1.004590690800593
-3.895,-0.7114878546928423,-1.619195718300304
-3.8945,-1.1062843244271,-1.725162102351978
-3.894,-0.9675720512772257,-1.068170521231597
-3.8935,-0.4554036581084589,-0.1038764263613609
-3.893,0.01408403562957729,0.5849050699745222
-3.8925,0.2594980573562781,0.8604176685088755
-3.892,0.3982103305061524,0.8922075837243778
-3.8915,0.4515612047945656,0.7650479228623686
-3.891,0.4729015545099309,0.55311515475902
-3.8905,0.4729015545099309,0.309392471440169
-3.89,0.4729015545099309,0.06566978812131802
-3.8895,0.4835717293676135,-0.1356663415768632
-3.889,0.4942419042252961,-0.3052125560595421
-3.8885,0.4622313796522482,-0.4853554089473885
-3.888,0.01408403562957729,-0.2946159176543747
-3.8875,-0.5621054066852853,0.04447651131098315
