Class_6_Listen_To_Quran/Class_6_Listen_To_Quran_Basim_1.csv

#Digilent WaveForms Oscilloscope Acquisition
#Device Name: EExplorer
#Serial Number: SN:210151A2B84A
#Date Time: 2020-10-20 13:05:12.185
#Sample rate: 2000Hz
#Samples: 16384
#Trigger: Source: Channel 1 Type: Edge Condition: Rising Level: 0 V Hyst.: Auto HoldOff: 0 s
#Channel 1: Range: 1 V/div Offset: 0 V
#Channel 2: Range: 1 V/div Offset: 0 V

Time (s),Channel 1 (V),Channel 2 (V)
-4.0960000000000001,0.36619980593310447,0.45774540911251305
-4.0955000000000004,0.48357172936750675,0.13984625695777914
-4.0949999999999998,0.43022085507929736,-1.0257839676116696
-4.0945,0.53692260365602662,-1.84172512480882
-4.0940000000000003,0.9103787236745795,-2.1384310001532381
-4.0934999999999997,1.0277506471093409,-1.4814394190324238
-4.093,0.93171907339028448,-0.70788481545590454
-4.0925000000000002,0.76099627566751749,-0.16745625679285703
-4.0919999999999996,0.50491207908281388,0.055073149716218045
-4.0914999999999999,0.32351910650237387,0.12924961855232261
-4.0910000000000002,0.23815770764091276,0.12924961855232261
-4.0904999999999996,0.20614718306786484,0.11865298014717446
-4.0899999999999999,0.20614718306786484,0.13984625695749003
-4.0895000000000001,0.16346648363713429,0.35177902506083869
-4.0890000000000004,0.14212613392178838,0.48953532432789004
-4.0884999999999998,0.17413665849481691,0.47893868592284788
-4.0880000000000001,0.20614718306786484,0.42595549389701071
-4.0875000000000004,0.22748753278321071,0.41535885549185297
-4.0869999999999997,0.11011560934823585,0.51072860113843688
-4.0865,-0.42339313353541097,0.60609834678485708
-4.0860000000000003,-1.3303579964376107,0.086863064932125145
-4.0854999999999997,-2.1306211107652935,-0.81385119950827278
-4.085,-2.8561930010870533,-1.5768091646796343
-4.0845000000000002,-2.7601614273679971,-1.7569520175673166
-4.0839999999999996,-1.746494815887224,-1.1105570748515154
-4.0834999999999999,-0.82885977812735145,-0.28401927924920728
-4.0830000000000002,-0.16730893695102761,0.36237566346600614
-4.0824999999999996,0.20614718306801041,0.75445128445736498
-4.0819999999999999,0.36619980593310447,0.93459413734504748
-4.0815000000000001,0.3982103305061524,0.96638405256054982
-4.0810000000000004,0.37686998079080652,0.9028042221296031
-4.0804999999999998,0.34485945621773917,0.76504792286236856
-4.0800000000000001,0.33418928136005654,0.58490506997452218
-4.0795000000000003,0.36619980593307533,0.35177902506105074
-4.0789999999999997,0.48357172936814724,0.033879872905247105
-4.0785,1.0704313465401587,-0.59132179299906285
-4.0780000000000003,1.7426523625735535,-1.2589100125240038
-4.0774999999999997,1.8600242860083345,-2.1278343617482443
-4.077,1.4865681659897818,-2.0218679776966662
-4.0765000000000002,1.1024418711135562,-1.1317503516634115
-4.0759999999999996,0.65429452709031266,-0.48535540894695478
-4.0754999999999999,0.40888050536383502,-0.0085066807148540119
-4.0750000000000002,0.33418928136005654,0.28819919462983412
-4.0744999999999996,0.22748753278319128,0.30939247144012078
-4.0739999999999998,0.18480683335249956,0.25640927941433178
-4.0735000000000001,0.17413665849481691,0.21402272579366208
-4.0730000000000004,0.17413665849481691,0.26700591781945104
-4.0724999999999998,0.16346648363713429,0.37297230187117358
-4.0720000000000001,0.18480683335249956,0.36237566346600614
-4.0715000000000003,0.22748753278319128,0.33058574825053277
-4.0709999999999997,0.24882788249839161,0.31998910984557732
-4.0705,0.024754210487259936,0.58490506997452218
-4.0700000000000003,-0.77550890383821036,1.2524932894994634
-4.0694999999999997,-1.7251544661731688,1.8035184865686422
-4.069,-2.2479930341991428,1.655165548896433
-4.0685000000000002,-2.4293860067797475,0.61669498519002452
-4.0679999999999996,-2.6001088045020295,-0.60191843140453871
-4.0674999999999999,-1.8958772638956156,-0.94101086036958814
-4.0670000000000002,-1.0209229255656389,-0.57012851618872795
-4.0664999999999996,-0.32736155981586934,-0.029699957524755186
-4.0659999999999998,0.11011560934872107,0.4471487707073456
-4.0655000000000001,0.32351910650237387,0.775644561267536
-4.0650000000000004,0.38754015564841149,0.97698069096553419
-4.0644999999999998,0.3768699807907871,1.0617537982070568
-4.0640000000000001,0.35552963107542179,1.0617537982070568
-4.0635000000000003,0.33418928136007597,0.96638405256063653
-4.0629999999999997,0.3341892813601342,0.80743447648280708
-4.0625,0.41955068022151765,0.55311515475901996
-4.0620000000000003,0.98506994767818334,-0.072086511145289967
-4.0614999999999997,1.6572909637131601,-0.82444783791332454
-4.0609999999999999,2.1587891820237881,-1.4602461422227924
-4.0605000000000002,1.6039400894242908,-1.8735150400243223
-4.0599999999999996,1.0384208219667128,-1.2589100125239845
-4.0594999999999999,0.60094365280212259,-0.57012851618872795
-4.0590000000000002,0.30217875678700862,-0.093279787956193475
-4.0585000000000004,0.25949805735631687,0.25640927941401376
-4.0579999999999998,0.22748753278323011,0.33058574825050385
-4.0575000000000001,0.18480683335249956,0.23521600260399694
-4.0570000000000004,0.17413665849482662,0.13984625695757677
-4.0564999999999998,0.18480683335249956,0.13984625695749003
-4.056,0.13145595906408636,0.30939247144016896
-4.0555000000000003,0.14212613392175927,0.34118238665564232
-4.0549999999999997,0.1954770082102113,0.2881991946297956
-4.0545,0.22748753278323011,0.24581264100916439
-4.0540000000000003,0.1954770082102113,0.29879583303495338
-4.0534999999999997,-0.42339313353632319,0.66967817721563039
-4.0529999999999999,-1.4263895701575793,0.41535885549184332
-4.0525000000000002,-2.2479930341991428,-0.48535540894738849
-4.0519999999999996,-2.8135123016564392,-1.2377167357148162
-4.0514999999999999,-2.9415543999485143,-1.8311284864036526
-4.0510000000000002,-2.386705307349017,-1.6827755487313083
-4.0505000000000004,-1.3303579964393963,-0.90922094515478935
-4.0499999999999998,-0.50875453239687207,-0.12506970317169577
-4.0495000000000001,0.024754210487259936,0.4471487707073456
-4.0490000000000004,0.30217875678675632,0.78624119967239503
-4.0484999999999998,0.3982103305061524,0.94519077575024379
-4.048,0.3982103305061524,0.97698069096571727
-4.0475000000000003,0.36619980593313362,0.90280422212961275
-4.0469999999999997,0.33418928136004683,0.76504792286225287
-4.0465,0.32351910650237387,0.63788826200035942
-4.0460000000000003,0.34485945621771974,0.45774540911267692
-4.0454999999999997,0.7183155762373109,-0.061489872741394717
-4.0449999999999999,1.4652278162744163,-0.83504447631791379
-4.0445000000000002,1.4225471168436858,-1.9370948704553266
-4.0439999999999996,1.241154144262848,-2.4987167059286999
-4.0434999999999999,0.98506994767869771,-1.947691508860494
-4.0430000000000001,0.6116138276598051,-1.2165234589039415
-4.0425000000000004,0.40888050536401943,-0.50654868575836909
-4.0419999999999998,0.34485945621773917,0.033879872905815719
-4.0415000000000001,0.24882788249859539,0.23521600260399694
-4.0410000000000004,0.1954770082102307,0.28819919462978594
-4.0404999999999998,0.1954770082101919,0.27760255622464741
-4.04,0.20614718306786484,0.25640927941433178
-4.0395000000000003,0.18480683335251896,0.39416557868138313
-4.0389999999999997,0.1954770082102113,0.43655213230212997
-4.0385,0.22748753278323011,0.38356894027634103
-4.0380000000000003,0.24882788249857599,0.33058574825055204
-4.0374999999999996,0.24882788249827514,0.2987958330352618
-4.0369999999999999,-0.10328788780493176,0.58490506997452218
-4.0365000000000002,-1.0315931004233216,0.80743447648303834
-4.0359999999999996,-1.9385579633270544,0.10805634174103362
-4.0354999999999999,-2.7174807279371791,-0.94101086036958814
-4.0350000000000001,-2.9842350993792448,-1.7781452943778153
-4.0345000000000004,-2.8028421267988053,-2.0218679776964446
-4.0339999999999998,-1.7678351656034239,-1.3224898429556156
-4.0335000000000001,-0.81818960326966872,-0.4535654937318862
-4.0330000000000004,-0.14596858723627371,0.24581264100852834
-4.0324999999999998,0.21681735792569307,0.68027481562123149
-4.032,0.3768699807907871,0.90280422212954525
-4.0315000000000003,0.40888050536380594,0.96638405256049198
-4.0309999999999997,0.37686998079076767,0.92399749893976435
-4.0305,0.35552963107542179,0.7968378380778709
-4.0300000000000002,0.34485945621774888,0.62729162359534618
-4.0294999999999996,0.34485945621790415,0.46834204751736247
-4.0289999999999999,0.52625242879834411,0.11865298014715518
-4.0285000000000002,1.1878032699746677,-0.59132179299906285
-4.0279999999999996,1.3798664174127224,-1.566212526275103
-4.0274999999999999,1.1237822208285719,-2.265590661015517
-4.0270000000000001,1.0170804722517455,-1.6191957183003036
-4.0265000000000004,0.70764540137923049,-0.82444783791346921
-4.0259999999999998,0.49424190422529612,-0.17805289519753292
-4.0255000000000001,0.3982103305061524,0.2246193641988295
-4.0250000000000004,0.27016823221407715,0.30939247144009185
-4.0244999999999997,0.20614718306785512,0.27760255622462815
-4.024,0.19547700821018218,0.23521600260399694
-4.0235000000000003,0.20614718306785512,0.20342608738852358
-4.0229999999999997,0.19547700821018218,0.29879583303508833
-4.0225,0.19547700821018218,0.39416557868150842
-4.0220000000000002,0.21681735792552809,0.38356894027635069
-4.0214999999999996,0.23815770764092248,0.34118238665564232
-4.0209999999999999,0.24882788249859539,0.30939247144016896
-4.0205000000000002,0.035424385344942577,0.43655213230217815
-4.0199999999999996,-0.78617907869746506,0.52132523954287191
-4.0194999999999999,-1.7144842913150107,-0.18864953360270037
-4.0190000000000001,-2.472066706210478,-1.0999604364470996
-4.0185000000000004,-2.8561930010867038,-1.7887419327823564
-4.0179999999999998,-2.7921719519409574,-2.0960444465328383
-4.0175000000000001,-2.0025790124724421,-1.4602461422227924
-4.0170000000000003,-1.010252750708859,-0.55953187778437974
-4.0164999999999997,-0.28468086038514845,0.1716361721734164
-4.016,0.14212613392176898,0.63788826200035942
-4.0155000000000003,0.34485945621755476,0.87101430691383086
-4.0149999999999997,0.38754015564846972,0.93459413734501862
-4.0145,0.38754015564846972,0.90280422212954525
-4.0140000000000002,0.35552963107545088,0.77564456126765169
-4.0134999999999996,0.35552963107542179,0.59550170837953542
-4.0129999999999999,0.35552963107542179,0.42595549389701071
-4.0125000000000002,0.25949805735627807,0.012686596095480854
-4.0119999999999996,0.22748753278411321,-1.2483133741202144
-4.0114999999999998,1.1984734448323504,-2.0960444465328383
-4.0110000000000001,2.1481190071661054,-2.7106494740325493
-4.0105000000000004,2.3188418048888724,-2.6046830899809712
-4.0099999999999998,1.8920348105817222,-1.6721789103261409
-4.0095000000000001,1.2945050185514941,-0.6972881770507372
-4.0090000000000003,0.7396559259525014,-0.11447306476705832
-4.0084999999999997,0.38754015564831445,0.18223281057823687
-4.008,0.21681735792554749,0.26700591781949923
-4.0075000000000003,0.1634664836371828,0.24581264100918365
-4.0069999999999997,0.17413665849483631,0.214022725793691
-4.0065,0.19547700821018218,0.24581264100916439
-4.0060000000000002,0.15279630877945163,0.46834204751768049
-4.0054999999999996,0.16346648363715369,0.50013196273311533
-4.0049999999999999,0.18480683335249956,0.42595549389701071
-4.0045000000000002,0.21681735792554749,0.36237566346600614
-4.0039999999999996,0.19547700820973579,0.37297230187135672
-4.0034999999999998,-0.29535103524321932,0.57430843156935485
-4.0030000000000001,-1.2770071221500223,0.26700591781949923
-4.0025000000000004,-2.1626316353368762,-0.65490162342922897
-4.0019999999999998,-2.8988737005177838,-1.5132293342486296
-4.0015000000000001,-2.9842350993792448,-2.0324646161018336
-4.0010000000000003,-2.3973754822072335,-1.6827755487316263
-4.0004999999999997,-1.2983474718646306,-0.80325456110166937
-4,-0.46607383296614152,0.012686596095480854
-3.9994999999999998,0.05676473506030786,0.57430843156935485
-3.9990000000000001,0.31284893164469124,0.88161094531921036
-3.9984999999999999,0.3982103305061524,0.99817396777605205
-3.9980000000000002,0.3982103305061524,1.0087706061812196
-3.9975000000000001,0.36619980593310447,0.92399749893988004
-3.9969999999999999,0.34485945621773917,0.75445128445720111
-3.9965000000000002,0.35552963107542179,0.54251851635385251
-3.996,0.3768699807907871,0.35177902506083869
-3.9954999999999998,0.76099627566736228,-0.1674562567923655
-3.9950000000000001,1.5505892151358776,-0.91981758355925325
-3.9944999999999999,1.7960032368625782,-1.9900780624811638
-3.9940000000000002,1.9347155100124527,-2.3291704914465217
-3.9935,1.593269914566608,-1.8205318479984851
-3.9929999999999999,1.0490909968247935,-0.98339741399025782
-3.9925000000000002,0.70764540137894905,-0.17805289519753292
-3.992,0.43022085507920033,0.25640927941433178
-3.9914999999999998,0.24882788249859539,0.39416557868150842
-3.9910000000000001,0.17413665849481691,0.38356894027634103
-3.9904999999999999,0.17413665849481691,0.33058574825050385
-3.9900000000000002,0.18480683335249956,0.27760255622466667
-3.9895,0.15279630877945163,0.41535885549184332
-3.9889999999999999,0.15279630877945163,0.45774540911251305
-3.9885000000000002,0.18480683335249956,0.38356894027634103
-3.988,0.21681735792554749,0.29879583303500157
-3.9874999999999998,0.21681735792554749,0.25640927941433178
-3.9870000000000001,-0.16730893695102761,0.61669498519002452
-3.9864999999999999,-1.0315931004233216,1.2842832047155728
-3.9860000000000002,-1.9065474387532981,1.5809890800602608
-3.9855,-2.6427895039334004,0.7968378380778709
-3.9849999999999999,-2.7815017770832746,-0.38998566330088158
-3.9845000000000002,-2.5894386296449872,-1.0999604364470996
-3.984,-1.5757720181651362,-0.86683439153341613
-3.9834999999999998,-0.70081767983515975,-0.29461591765437467
-3.9830000000000001,-0.092617712947249131,0.26700591781949923
-3.9824999999999999,0.22748753278323011,0.68027481562102909
-3.9820000000000002,0.36619980593310447,0.94519077575021493
-3.9815,0.38754015564846972,1.0829470750173917
-3.9809999999999999,0.36619980593310447,1.1147369902328941
-3.9805000000000001,0.34485945621773917,1.0405605213967219
-3.98,0.33418928136005654,0.87101430691404291
-3.9794999999999998,-0.19931946152407554,0.10805634174198775
-3.9790000000000001,-0.17797911180871023,-0.62311170821456507
-3.9784999999999999,0.81434714995577528,-1.4390528654124575
-3.9780000000000002,1.8706944608663567,-2.2232041073948472
-3.9775,2.6496172254771895,-2.6258763667912097
-3.9769999999999999,2.5962663511887762,-2.1808175537741779
-3.9765000000000001,1.9133751602970874,-1.227120097309109
-3.976,1.1557927454016199,-0.42177557851638392
-3.9754999999999998,0.64362435223285308,0.086863064931652884
-3.9750000000000001,0.34485945621773917,0.31998910984533641
-3.9744999999999999,0.20614718306786484,0.37297230187117358
-3.9740000000000002,0.17413665849481691,0.34118238665567124
-3.9735,0.18480683335249956,0.26700591781949923
-3.9729999999999999,0.17413665849481691,0.35177902506083869
-3.9725000000000001,0.12078578420640371,0.45774540911251305
-3.972,0.14212613392176898,0.37297230187117358
-3.9714999999999998,0.17413665849481691,0.25640927941433178
-3.9710000000000001,0.20614718306786484,0.17163617217299235
-3.9704999999999999,0.05676473506030786,0.36237566346600614
-3.9700000000000002,-0.70081767983515975,1.0511571598018894
-3.9695,-1.67180359188428,1.655165548896433
-3.9689999999999999,-2.5360877553565739,1.2207033742845681
-3.9685000000000001,-2.9842350993792448,0.0020899576903134209
-3.968,-2.9202140502331493,-1.0257839676109275
-3.9674999999999998,-2.0879404113339031,-1.0681705212315973
-3.9670000000000001,-1.0529334501386869,-0.53833860097322561
-3.9664999999999999,-0.30602121010090194,0.065669788121318018
-3.9660000000000002,0.14212613392176898,0.53192187794868506
-3.9655,0.34485945621773917,0.83922439169854057
-3.9649999999999999,0.3982103305061524,1.0087706061812196
-3.9645000000000001,0.38754015564846972,1.0723504366122243
-3.964,0.35552963107542179,1.0299638829915545
-3.9634999999999998,0.34485945621773917,0.90280422212954525
-3.9630000000000001,0.34485945621773917,0.73325800764686633
-3.9624999999999999,0.44089102993688295,0.47893868592284788
-3.9620000000000002,1.0277506471094282,-0.15685961838719809
-3.9615,1.6786313134280693,-1.0787671596367647
-3.9609999999999999,1.7960032368625782,-2.1808175537741779
-3.9605000000000001,1.8706944608663567,-1.9900780624811638
-3.96,1.4012067671283206,-1.2483133741194434
-3.9594999999999998,0.87836819910187125,-0.4535654937318862
-3.9590000000000001,0.59027347794443985,0.19282944898332721
-3.9584999999999999,0.35552963107542179,0.43655213230217815
-3.9580000000000002,0.21681735792554749,0.4471487707073456
-3.9575,0.16346648363713429,0.37297230187117358
-3.9569999999999999,0.16346648363713429,0.27760255622466667
-3.9565000000000001,0.17413665849481691,0.26700591781949923
-3.956,0.14212613392176898,0.38356894027634103
-3.9554999999999998,0.16346648363713429,0.37297230187117358
-3.9550000000000001,0.20614718306786484,0.29879583303500157
-3.9544999999999999,0.22748753278323011,0.21402272579366208
-3.9540000000000002,0.16346648363713429,0.25640927941433178
-3.9535,-0.42339313353541097,0.7968378380778709
-3.9529999999999998,-1.3943790455845313,0.98757732937088472
-3.9525000000000001,-2.2159825096260946,0.21402272579366208
-3.952,-2.8135123016563228,-0.71848145386107198
-3.9514999999999998,-2.9202140502331493,-1.5132293342486296
-3.9510000000000001,-2.2906737336298733,-1.5026326958434622
-3.9504999999999999,-1.2449965975769743,-0.83504447631791379
-3.9500000000000002,-0.4554036581084589,-0.11447306476652835
-3.9495,0.05676473506030786,0.43655213230217815
-3.9489999999999998,0.30217875678700862,0.775644561267536
-3.9485000000000001,0.38754015564846972,0.95578741415538238
-3.948,0.38754015564846972,1.0087706061812196
-3.9474999999999998,0.34485945621773917,0.95578741415538238
-3.9470000000000001,0.33418928136005654,0.83922439169854057
-3.9464999999999999,0.33418928136005654,0.70146809243136399
-3.9460000000000002,0.36619980593310447,0.50013196273318283
-3.9455,0.81434714995577528,-0.050893234335523743
-3.9449999999999998,1.4972383408474643,-0.95160749877475548
-3.9445000000000001,1.539919040278195,-2.2126074689896797
-3.944,1.6146102642819735,-2.456330152308531
-3.9434999999999998,1.2731646688361289,-1.8947083168346572
-3.9430000000000001,0.84635767452882327,-1.0257839676109275
-3.9424999999999999,0.60094365280212259,-0.22043944881820265
-3.9420000000000002,0.40888050536383502,0.20342608738849466
-3.9415,0.24882788249859539,0.31998910984533641
-3.9409999999999998,0.18480683335249956,0.31998910984533641
-3.9405000000000001,0.16346648363713429,0.27760255622466667
-3.9399999999999999,0.18480683335249956,0.25640927941433178
-3.9394999999999998,0.14212613392176898,0.39416557868150842
-3.9390000000000001,0.14212613392176898,0.4471487707073456
-3.9384999999999999,0.17413665849481691,0.40476221708667587
-3.9380000000000002,0.21681735792554749,0.34118238665567124
-3.9375,0.21681735792554749,0.30939247144016896
-3.9369999999999998,-0.12462823752029703,0.5637117931641874
-3.9365000000000001,-1.0636036249963696,0.54251851635385251
-3.9359999999999999,-1.9919088376147593,-0.28401927924920728
-3.9355000000000002,-2.7494912525102269,-1.2059268204987741
-3.9350000000000001,-2.9949052742369275,-1.9264982320501591
-3.9344999999999999,-2.7601614273679096,-2.0218679776966662
-3.9340000000000002,-1.6824737667419627,-1.2483133741194434
-3.9335,-0.75416855412357298,-0.36879238649054674
-3.9329999999999998,-0.11395806266261441,0.29879583303500157
-3.9325000000000001,0.23815770764091276,0.71206473083653143
-3.9319999999999999,0.3768699807907871,0.90280422212954525
-3.9315000000000002,0.3982103305061524,0.95578741415538238
-3.931,0.3768699807907871,0.9134008605347127
-3.9304999999999999,0.34485945621773917,0.78624119967270345
-3.9300000000000002,0.33418928136005654,0.61669498519002452
-3.9295,0.38754015564846972,0.34118238665567124
-3.9289999999999998,0.6116138276598051,-0.093279787956193475
-3.9285000000000001,1.3158453682668594,-0.80325456110241145
-3.9279999999999999,2.0414172585892789,-1.5344226110589645
-3.9275000000000002,2.0627576083046444,-2.3927503218775263
-3.927,1.8706944608663567,-1.9900780624811638
