Class_6_Listen_To_Quran/Class_6_Listen_To_Quran_UZ_8.csv

#Digilent WaveForms Oscilloscope Acquisition
#Device Name: EExplorer
#Serial Number: SN:210151A2B84A
#Date Time: 2020-12-20 12:42:35.365
#Sample rate: 2000Hz
#Samples: 16384
#Trigger: Source: Channel 1 Type: Edge Condition: Rising Level: 0 V Hyst.: Auto HoldOff: 0 s
#Channel 1: Range: 1 V/div Offset: 0 V
#Channel 2: Range: 1 V/div Offset: 0 V

Time (s),Channel 1 (V),Channel 2 (V)
-4.0960000000000001,-1.5010807941613578,-1.0257839676109275
-4.0955000000000004,-1.9812386627566398,-1.2059268204986102
-4.0949999999999998,-1.9385579633255503,-1.174136905282867
-4.0945,-1.0636036249963696,-0.72907809226623943
-4.0940000000000003,-0.2206598112402075,-0.072086511146456145
-4.0934999999999997,0.37686998079109763,0.43655213230242873
-4.093,0.71831557623663156,0.71206473083653143
-4.0925000000000002,0.85702784938637988,0.8286277532932671
-4.0919999999999996,0.88903837395953433,0.79683783807776487
-4.0914999999999999,0.86769802424418851,0.68027481562102909
-4.0910000000000002,1.0384208219671107,0.18223281057815977
-4.0904999999999996,1.0811015213976862,-0.22043944881834721
-4.0899999999999999,0.91037872367491923,-0.37938902489571413
-4.0895000000000001,0.69697522652126631,-0.47475877054222104
-4.0890000000000004,0.53692260365617217,-0.55953187778348346
-4.0884999999999998,0.62228400251748783,-0.37938902489571413
-4.0880000000000001,0.81434714995577528,0.24581264100916439
-4.0875000000000004,1.0170804722515612,0.84982103010315857
-4.0869999999999997,1.0917716962551067,1.2418966510950862
-4.0865,0.63295417737517057,1.4432327807930845
-4.0860000000000003,-0.1673089369502998,1.3902495887672954
-4.0854999999999997,-0.39138260896223687,0.76504792286170353
-4.085,-0.25267033581248871,0.033879872905815719
-4.0845000000000002,-0.017926488943684121,-0.46416213213660062
-4.0839999999999996,0.18480683335261602,-0.6866915386455601
-4.0834999999999999,0.31284893164469124,-0.67609490024040231
-4.0830000000000002,0.3768699807907871,-0.51714532416289083
-4.0824999999999996,0.39821033050606508,-0.29461591765417228
-4.0819999999999999,0.30217875678700862,-0.072086511145858609
-4.0815000000000001,0.23815770764091276,0.13984625695749003
-4.0810000000000004,0.17413665849487514,0.26700591781938354
-4.0804999999999998,-0.12462823752029703,0.055073149716150585
-4.0800000000000001,-0.73282820440820751,-0.36879238649054674
-4.0795000000000003,-1.3730386958685838,-0.75027136907622738
-4.0789999999999997,-1.9919088376149632,-1.0045906908006697
-4.0785,-2.2159825096260946,-1.0893637980419322
-4.0780000000000003,-1.7678351656038314,-0.79265792269751389
-4.0774999999999997,-0.82885977812664302,-0.31580919446426625
-4.077,-0.049937013516518552,0.17163617217299235
-4.0765000000000002,0.47290155450945537,0.55311515475867301
-4.0759999999999996,0.75032610080978634,0.71206473083651212
-4.0754999999999999,0.86769802424418851,0.69087145402619654
-4.0750000000000002,0.86769802424418851,0.52132523954351762
-4.0744999999999996,0.92104889853266969,0.44714877070733594
-4.0739999999999998,0.99574012253638022,0.43655213230217815
-4.0735000000000001,0.857027849386506,0.20342608738849466
-4.0730000000000004,0.71831557623675768,-0.082683149550765833
-4.0724999999999998,0.62228400251748783,-0.3581957480853793
-4.0720000000000001,0.52625242879834411,-0.52774196256805828
-4.0715000000000003,0.056764735060734872,-0.15685961838753543
-4.0709999999999997,-0.66880715526274259,0.44714877070778891
-4.0705,-1.3623685210114835,0.93459413734504748
-4.0700000000000003,-2.0132491873295328,1.2101067358791502
-4.0694999999999997,-2.1839719850524548,1.3054764815254452
-4.069,-1.5330913187344057,0.7968378380778709
-4.0685000000000002,-0.72215802955052499,0.086863064931652884
-4.0679999999999996,-0.11395806266228445,-0.45356549373211752
-4.0674999999999999,0.24882788249859539,-0.70788481545590454
-4.0670000000000002,0.41955068022151765,-0.73967473067140688
-4.0664999999999996,0.48357172936760379,-0.6019184314040279
-4.0659999999999998,0.47290155450993088,-0.37938902489571413
-4.0655000000000001,0.40888050536383502,-0.13566634157686319
-4.0650000000000004,0.31284893164477856,0.076266426526292702
-4.0644999999999998,0.21681735792554749,0.21402272579366208
-4.0640000000000001,0.099445434491038431,0.13984625695749003
-4.0635000000000003,-0.26334051066984143,-0.22043944881787497
-4.0629999999999997,-0.91422117698941407,-0.66549826183553362
-4.0625,-1.5757720181651362,-0.99399405239542526
-4.0620000000000003,-2.0345895370450724,-1.0787671596366877
-4.0614999999999997,-1.266336947291544,-0.62311170821410244
-4.0609999999999999,-0.39138260896236304,-0.11447306476652835
-4.0605000000000002,0.30217875678700862,0.27760255622466667
-4.0599999999999996,0.76099627566754668,0.51072860113841767
-4.0594999999999999,0.96372959796333246,0.58490506997452218
-4.0590000000000002,0.98506994767869771,0.60609834678485708
-4.0585000000000004,0.92104889853265992,0.56371179316422593
-4.0579999999999998,0.857027849386506,0.45774540911251305
-4.0575000000000001,0.96372959796333246,0.10805634174198775
-4.0570000000000004,0.86769802424427589,-0.10387642636116814
-4.0564999999999998,0.69697522652126631,-0.2310360872233701
-4.056,0.55826295337139209,-0.34759910968021185
-4.0555000000000003,0.48357172936768145,-0.42177557851631647
-4.0549999999999997,0.29150858192922896,-0.082683149550447782
-4.0545,0.18480683335249956,0.55311515475901996
-4.0540000000000003,0.046094560202751378,1.0935437134220676
-4.0534999999999997,-0.46607383296673349,1.4220395039828846
-4.0529999999999999,-1.1169544992847826,1.5703924416550934
-4.0525000000000002,-1.2770071221500223,1.2842832047155728
-4.0519999999999996,-0.86087030269993337,0.53192187794805867
-4.0514999999999999,-0.34870190953163249,-0.15685961838719809
-4.0510000000000002,0.05676473506030786,-0.55953187778356051
-4.0505000000000004,0.30217875678678541,-0.70788481545576964
-4.0499999999999998,0.40888050536383502,-0.64430498502489997
-4.0495000000000001,0.45156120479456557,-0.4641621321370536
-4.0490000000000004,0.41955068022154673,-0.24163272562873994
-4.0484999999999998,0.36619980593307538,-0.0085066807146612598
-4.048,0.33418928136005654,0.20342608738849466
-4.0475000000000003,0.30217875678703776,0.33058574825038822
-4.0469999999999997,0.01408403562904355,0.1292496185519853
-4.0465,-0.57277558154296804,-0.24163272562853755
-4.0460000000000003,-1.2449965975763631,-0.69728817705032275
-4.0454999999999997,-1.6397930673110186,-1.015187329205625
-4.0449999999999999,-1.405049220442214,-0.86683439153341613
-4.0445000000000002,-0.67947733011979428,-0.30521255605954212
-4.0439999999999996,0.046094560203120145,0.13984625695774061
-4.0434999999999999,0.59027347794443985,0.41535885549184332
-4.0430000000000001,0.857027849386506,0.5637117931641874
-4.0425000000000004,0.89970854881719764,0.63788826200029192
-4.0419999999999998,0.86769802424418851,0.60609834678485708
-4.0415000000000001,0.80367697509809277,0.48953532432801533
-4.0410000000000004,0.89970854881714912,0.26700591781970162
-4.0404999999999998,0.89970854881711038,0.055073149716034935
-4.04,0.76099627566736228,-0.072086511145858609
-4.0395000000000003,0.61161382765994099,-0.22043944881806771
-4.0389999999999997,0.50491207908292068,-0.36879238649049856
-4.0385,0.44089102993688295,-0.31580919446470956
-4.0380000000000003,0.32351910650248061,0.18223281057770679
-4.0374999999999996,0.29150858192931628,0.796837838078295
-4.0369999999999999,0.28083840707164331,1.2630899279052379
-4.0365000000000002,-0.08194753808956648,1.5386025264395911
-4.0359999999999996,-0.6901475049775061,1.5703924416545827
-4.0354999999999999,-0.72215802955052499,1.0087706061812196
-4.0350000000000001,-0.41272295867772835,0.25640927941433178
-4.0345000000000004,-0.071277363232194357,-0.3052125560590313
-4.0339999999999998,0.18480683335249956,-0.5807251545938954
-4.0335000000000001,0.33418928136005654,-0.61251506980939763
-4.0330000000000004,0.40888050536376708,-0.49595204735266196
-4.0324999999999998,0.40888050536377679,-0.30521255605935899
-4.032,0.34485945621773917,-0.10387642636136091
-4.0315000000000003,0.22748753278333686,0.033879872905690445
-4.0309999999999997,0.1101156093485658,0.065669788121144546
-4.0305,-0.06060718837420119,-0.12506970317169577
-4.0300000000000002,-0.53009488211181033,-0.54893523937800759
-4.0294999999999996,-1.1703053735737781,-0.96220413718016384
-4.0289999999999999,-1.8105158650341544,-1.227120097309109
-4.0285000000000002,-1.9278877884686634,-1.1211537132574345
-4.0279999999999996,-1.0422632752803054,-0.4641621321364946
-4.0274999999999999,-0.27401068552785401,0.15044289536265748
-4.0270000000000001,0.27016823221396069,0.51072860113835017
-4.0265000000000004,0.56893312822880282,0.75445128445697951
-4.0259999999999998,0.72898575109431429,0.90280422212954525
-4.0255000000000001,0.80367697509809277,0.90280422212954525
-4.0250000000000004,0.80367697509809277,0.73325800764702054
-4.0244999999999997,0.88903837395968965,0.57430843156930667
-4.024,1.0384208219671107,0.52132523954351762
-4.0235000000000003,0.93171907339038151,0.2564092794145727
-4.0229999999999997,0.73965592595185126,-0.08268314955128625
-4.0225,0.57960330308675734,-0.36879238649054674
-4.0220000000000002,0.47290155451002791,-0.50654868575759804
-4.0214999999999996,-0.017926488944188756,-0.050893234334935852
-4.0209999999999999,-0.80751942841198598,0.59550170837968963
-4.0205000000000002,-1.405049220442214,1.0299638829915545
-4.0199999999999996,-1.8745369141805024,1.1677201822588272
-4.0194999999999999,-2.151961460479999,1.2736865663104053
-4.0190000000000001,-1.5757720181651362,0.92399749893988004
-4.0185000000000004,-0.78617907869733883,0.26700591782009675
-4.0179999999999998,-0.16730893695102761,-0.27342264084403983
-4.0175000000000001,0.21681735792554749,-0.54893523937839306
-4.0170000000000003,0.40888050536366033,-0.59132179299902432
-4.0164999999999997,0.47290155450993088,-0.47475877054202831
-4.016,0.47290155450993088,-0.26282600243887239
-4.0155000000000003,0.43022085507923913,-0.029699957525400916
-4.0149999999999997,0.28083840707152685,0.12924961855239972
-4.0145,0.15279630877945163,0.21402272579366208
-4.0140000000000002,0.067434909918068137,0.16103953376787311
-4.0134999999999996,-0.23132998609769603,-0.16745625679277992
-4.0129999999999999,-0.86087030270039921,-0.62311170821456507
-4.0125000000000002,-1.4797404444459925,-0.99399405239542526
-4.0119999999999996,-1.9812386627567273,-1.1741369052830501
-4.0114999999999998,-1.5971123678805015,-0.9304142219644207
-4.0110000000000001,-0.65813698040442903,-0.60191843140423029
-4.0105000000000004,0.17413665849406001,-0.36879238649075874
-4.0099999999999998,0.65429452709053582,-0.0085066807148540119
-4.0095000000000001,0.84635767452882327,0.31998910984533641
-4.0090000000000003,0.8890383739595149,0.5531151547588079
-4.0084999999999997,0.83568749967112133,0.62729162359512447
-4.008,0.81434714995577528,0.55311515475901996
-4.0075000000000003,1.0064102973938882,0.38356894027649524
-4.0069999999999997,0.95305942310549441,0.16103953376759361
-4.0065,0.78233662538272752,-0.093279787956193475
-4.0060000000000002,0.62228400251748783,-0.32640583286987701
-4.0054999999999996,0.51558225394053525,-0.52774196256783656
-4.0049999999999999,0.3768699807907871,-0.28401927924920728
-4.0045000000000002,0.05676473506030786,0.31998910984533641
-4.0039999999999996,-0.60478610611663686,0.86041766850917423
-4.0034999999999998,-1.2876772970077051,1.1889134590690658
-4.0030000000000001,-1.7785053404611064,1.3054764815259077
-4.0025000000000004,-1.4370597450155724,0.84982103010412247
-4.0019999999999998,-0.77550890383893822,0.10805634174198775
-4.0015000000000001,-0.19931946152407554,-0.48535540894738849
-4.0010000000000003,0.1848068333521502,-0.79265792269696456
-4.0004999999999997,0.38754015564853767,-0.85623775312813299
-4,0.4622313796522482,-0.72907809226623943
-3.9994999999999998,0.4622313796522482,-0.50654868575772338
-3.9990000000000001,0.43022085507920033,-0.25222936403370499
-3.9984999999999999,0.29150858192932599,-0.029699957525188878
-3.9980000000000002,0.14212613392176898,0.10805634174198775
-3.9975000000000001,0.067434909917990504,0.19282944898332721
-3.9969999999999999,-0.13529841237797968,0.012686596095480854
-3.9965000000000002,-0.63679663068906378,-0.42177557851638392
-3.996,-1.1276246741424654,-0.792657922697244
-3.9954999999999998,-1.6291228924535495,-1.01518732920576
-3.9950000000000001,-1.7144842913150107,-0.88802766834375091
-3.9944999999999999,-1.0636036249963696,-0.3581957480853793
-3.9940000000000002,-0.32736155981626724,0.19282944898332721
-3.9935,0.23815770764091276,0.57430843156935485
-3.9929999999999999,0.55826295337139209,0.775644561267536
-3.9925000000000002,0.70764540137894905,0.88161094531921036
-3.992,0.79300680024041004,0.89220758372437781
-3.9914999999999998,0.78233662538272752,0.70146809243136399
-3.9910000000000001,0.94238924824796699,0.20342608738849466
-3.9904999999999999,0.96372959796333246,-0.1674562567923655
-3.9900000000000002,0.81434714995577528,-0.3581957480853793
-3.9895,0.66496470194821833,-0.48535540894738849
-3.9889999999999999,0.54759277851370936,-0.59132179299906285
-3.9885000000000002,0.52625242879834411,-0.44296885532671876
-3.988,0.21681735792554749,0.16103953376782493
-3.9874999999999998,0.05676473506030786,0.76504792286236856
-3.9870000000000001,0.15279630877945163,1.1677201822587309
-3.9864999999999999,-0.0072563140857879876,1.3796529503620798
-3.9860000000000002,-0.50875453239687207,1.3266697583362426
-3.9855,-0.51942470725455481,0.68027481562102909
-3.9849999999999999,-0.26334051067017139,-0.072086511145858609
-3.9845000000000002,0.024754210487259936,-0.59132179299906285
-3.984,0.22748753278323011,-0.81385119950757889
-3.9834999999999998,0.35552963107542179,-0.80325456110241145
-3.9830000000000001,0.40888050536383502,-0.64430498502489997
-3.9824999999999999,0.40888050536383502,-0.41117894011121647
-3.9820000000000002,0.36619980593310447,-0.15685961838719809
-3.9815,0.28083840707164331,0.044476511310983152
-3.9809999999999999,0.17413665849481691,0.12924961855232261
-3.9805000000000001,0.014084035629577295,-0.029699957525188878
-3.98,-0.46607383296614152,-0.42177557851638392
-3.9794999999999998,-1.1169544992847826,-0.81385119950757889
-3.9790000000000001,-1.7785053404611064,-1.0681705212315973
-3.9784999999999999,-1.9385579633263461,-0.95160749877475548
-3.9780000000000002,-1.0956141495694174,-0.31580919446470956
-3.9775,-0.28468086038553664,0.27760255622466667
-3.9769999999999999,0.28083840707164331,0.62729162359519197
-3.9765000000000001,0.60094365280212259,0.75445128445720111
-3.976,0.73965592595199681,0.75445128445720111
-3.9754999999999998,0.78233662538272752,0.73325800764686633
-3.9750000000000001,0.77166645052504479,0.6590815388106942
-3.9744999999999999,0.82501732481345802,0.52132523954351762
-3.9740000000000002,0.93171907339028448,0.27760255622466667
-3.9735,0.83568749967114075,0.044476511310983152
-3.9729999999999999,0.6863050516635838,-0.1674562567923655
-3.9725000000000001,0.54759277851370936,-0.3581957480853793
-3.972,0.4622313796522482,-0.41117894011121647
-3.9714999999999998,0.035424385344942577,0.055073149716150585
-3.9710000000000001,-0.69014750497747701,0.69087145402619654
-3.9704999999999999,-1.3943790455845313,1.1677201822587309
-3.9700000000000002,-1.9919088376147593,1.3902495887672472
-3.9695,-2.1199509359069508,1.3584596735517449
-3.9689999999999999,-1.3943790455845313,0.75445128445720111
-3.9685000000000001,-0.62612645583138127,0.012686596095480854
-3.968,-0.049937013516518552,-0.51714532416289083
-3.9674999999999998,0.28083840707164331,-0.77146464588690922
-3.9670000000000001,0.44089102993688295,-0.80325456110241145
-3.9664999999999999,0.4835717293676135,-0.66549826183523486
-3.9660000000000002,0.47290155450993088,-0.4641621321370536
-3.9655,0.38754015564846972,-0.24163272562853755
-3.9649999999999999,0.24882788249859539,-0.082683149551026042
-3.9645000000000001,0.21681735792554749,0.097459703336820316
-3.964,0.16346648363713429,0.11865298014715518
-3.9634999999999998,-0.11395806266261441,-0.0085066807148540119
-3.9630000000000001,-0.67947733011979428,-0.26282600243887239
-3.9624999999999999,-1.2983474718653876,-0.65490162343006741
-3.9620000000000002,-1.5971123678805015,-0.95160749877475548
-3.9615,-1.0209229255656389,-0.76086800748174177
-3.9609999999999999,-0.27401068552785401,-0.24163272562853755
-3.9605000000000001,0.30217875678700862,0.21402272579366208
-3.96,0.67563487680590106,0.45774540911251305
-3.9594999999999998,0.82501732481345802,0.57430843156935485
-3.9590000000000001,0.857027849386506,0.5637117931641874
-3.9584999999999999,0.82501732481345802,0.43655213230217815
-3.9580000000000002,0.81434714995577528,0.33058574825050385
-3.9575,1.006410297394063,0.41535885549184332
-3.9569999999999999,0.95305942310564973,0.31998910984533641
-3.9565000000000001,0.77166645052504479,0.17163617217299235
-3.956,0.60094365280212259,-0.10387642636136091
-3.9554999999999998,0.51558225394066137,-0.36879238649054674
-3.9550000000000001,0.4835717293676135,-0.2310360872233701
-3.9544999999999999,0.59027347794443985,0.33058574825050385
-3.9540000000000002,1.2624944939784462,0.90280422212954525
-3.9535,1.774662887147213,1.3054764815259077
-3.9529999999999998,1.1557927454016199,1.4856193344137538
-3.9525000000000001,0.49424190422529612,1.1041403518277266
-3.952,0.21681735792554749,0.39416557868150842
-3.9514999999999998,0.16346648363713429,-0.18864953360270037
-3.9510000000000001,0.20614718306786484,-0.49595204735255594
-3.9504999999999999,0.27016823221396069,-0.54893523937839306
-3.9500000000000002,0.32351910650237387,-0.44296885532671876
-3.9495,0.35552963107542179,-0.2310360872233701
-3.9489999999999998,0.35552963107542179,0.0020899576903134209
-3.9485000000000001,0.31284893164469124,0.21402272579366208
-3.948,0.12078578420640371,0.2246193641988295
-3.9474999999999998,-0.14596858723566233,0.012686596095480854
-3.9470000000000001,-0.41272295867772835,-0.2310360872233701
-3.9464999999999999,-0.81818960326966872,-0.44296885532671876
-3.9460000000000002,-1.3623685210114835,-0.76086800748174177
-3.9455,-1.9385579633263461,-1.01518732920576
-3.9449999999999998,-1.586442193022819,-0.77146464588690922
-3.9445000000000001,-0.40205278382004572,-0.11447306476652835
-3.944,0.3768699807907871,0.11865298014715518
-3.9434999999999998,0.79300680024041004,0.097459703336820316
-3.9430000000000001,0.94238924824796699,-0.0085066807148540119
-3.9424999999999999,0.95305942310564973,-0.1674562567923655
-3.9420000000000002,0.8997085488172365,-0.28401927924920728
-3.9415,0.80367697509809277,-0.37938902489571413
-3.9409999999999998,0.8997085488172365,-0.6972881770507372
-3.9405000000000001,0.95305942310564973,-0.95160749877475548
-3.9399999999999999,0.82501732481345802,-0.9304142219644207
-3.9394999999999998,0.65429452709053582,-0.81385119950757889
-3.9390000000000001,0.52625242879834411,-0.66549826183523486
-3.9384999999999999,0.55826295337139209,-0.27342264084403983
-3.9380000000000002,0.12078578420640371,0.43655213230217815
-3.9375,-0.66880715526211176,1.0617537982070568
-3.9369999999999998,-1.4263895701575793,1.4856193344137538
-3.9365000000000001,-2.0879404113339031,1.7081487409222702
-3.9359999999999999,-2.2053123347684123,1.7187453793274377
-3.9355000000000002,-1.522421143876723,1.1995100974742332
-3.9350000000000001,-0.71148785469284226,0.54251851635385251
-3.9344999999999999,-0.11395806266261441,0.10805634174198775
-3.9340000000000002,0.24882788249859539,-0.061489872740691176
-3.9335,0.41955068022151765,-0.0085066807148540119
-3.9329999999999998,0.47290155450993088,0.18223281057815977
-3.9325000000000001,0.45156120479456557,0.42595549389701071
-3.9319999999999999,0.31284893164469124,0.59550170837968963
-3.9315000000000002,0.23815770764091276,0.775644561267536
-3.931,0.035424385344942577,0.73325800764686633
-3.9304999999999999,-0.41272295867772835,0.31998910984533641
-3.9300000000000002,-0.93556152670417769,-0.1674562567923655
-3.9295,-1.5117509690190405,-0.61251506980939763
-3.9289999999999998,-2.0666000616185376,-0.91981758355925325
-3.9285000000000001,-1.7785053404611064,-0.97280077558509037
