Class_6_Listen_To_Quran/Class_6_Listen_To_Quran_Turki_1.csv

#Digilent WaveForms Oscilloscope Acquisition
#Device Name: EExplorer
#Serial Number: SN:210151A2B84A
#Date Time: 2020-10-20 13:19:57.947
#Sample rate: 2000Hz
#Samples: 16384
#Trigger: Source: Channel 1 Type: Edge Condition: Rising Level: 0 V Hyst.: Auto HoldOff: 0 s
#Channel 1: Range: 1 V/div Offset: 0 V
#Channel 2: Range: 1 V/div Offset: 0 V

Time (s),Channel 1 (V),Channel 2 (V)
-4.0960000000000001,-0.06060718837420119,0.70146809243136399
-4.0955000000000004,-0.64746680554621272,0.086863064932211853
-4.0949999999999998,-0.79684925355415792,-0.19924617200785819
-4.0945,-0.63679663068906378,-0.18864953360270037
-4.0940000000000003,-0.48741418268164272,-0.23103608722333155
-4.0934999999999997,-0.25267033581232373,-0.22043944881824121
-4.093,-0.071277363231883828,-0.26282600243887239
-4.0925000000000002,-0.03926683865886503,-0.4323722169213971
-4.0919999999999996,0.035424385345233712,-0.26282600243828447
-4.0914999999999999,0.35552963107542179,0.38356894027634103
-4.0910000000000002,0.77166645052504479,0.99817396777605205
-4.0904999999999996,0.97439977282022894,1.400846227172617
-4.0899999999999999,0.11011560934872107,1.6233756336809306
-4.0895000000000001,-0.99958257585027366,1.5809890800602608
-4.0890000000000004,-1.2343264227190782,0.94519077575079313
-4.0884999999999998,-0.96757205127722568,0.18223281057815977
-4.0880000000000001,-0.6047861061160158,-0.3581957480853793
-4.0875000000000004,-0.30602121010117367,-0.60191843140400869
-4.0869999999999997,-0.11395806266252706,-0.6019184314040954
-4.0865,-0.017926488943470625,-0.4535654937318862
-4.0860000000000003,0.003413860771875242,-0.24163272562873031
-4.0854999999999997,0.0034138607718849456,-0.019103319119838331
-4.085,-0.0072563140857879876,0.18223281057815977
-4.0845000000000002,-0.017926488943460921,0.38356894027615795
-4.0839999999999996,-0.028596663801036825,0.48953532432762981
-4.0834999999999999,0.099445434491038431,0.065669788121318018
-4.0830000000000002,0.49424190422529612,-0.59132179299906285
-4.0824999999999996,1.1344523956865458,-1.0999604364470996
-4.0819999999999999,1.4545576414167338,-1.0999604364470996
-4.0815000000000001,1.1664629202593024,-0.60191843140423029
-4.0810000000000004,0.71831557623703912,-0.040296595930867096
-4.0804999999999998,0.32351910650237387,0.40476221708667587
-4.0800000000000001,0.078105084775673142,0.69087145402619654
-4.0795000000000003,-0.039266838658729167,0.79683783807777453
-4.0789999999999997,-0.092617712947249131,0.73325800764673144
-4.0785,-0.092617712947249131,0.58490506997452218
-4.0780000000000003,-0.11395806266259501,0.30939247144041954
-4.0774999999999997,-0.70081767983526655,-0.53833860097355324
-4.077,-0.81818960326966872,-0.89862430674891836
-4.0765000000000002,-0.6794773301199204,-0.98339741399018066
-4.0759999999999996,-0.53009488211198497,-1.0469772444212238
-4.0754999999999999,-0.25267033581248871,-1.0045906908005926
-4.0750000000000002,0.25949805735627807,-1.1105570748522671
-4.0744999999999996,0.82501732481386558,-0.97280077558441569
-4.0739999999999998,1.2731646688361289,-0.2310360872233701
-4.0735000000000001,0.77166645052504479,0.57430843156935485
-4.0730000000000004,-0.59411593125709117,1.1359302670427178
-4.0724999999999998,-1.2129860730039266,0.97698069096571727
-4.0720000000000001,-1.0956141495694174,0.36237566346600614
-4.0715000000000003,-0.73282820440853746,-0.18864953360219927
-4.0709999999999997,-0.40205278381984194,-0.50654868575781009
-4.0705,-0.17797911180871023,-0.60191843140423029
-4.0700000000000003,-0.060607188374307938,-0.50654868575781009
-4.0694999999999997,-0.0072563140857782836,-0.31580919446451683
-4.069,0.0034138607718946501,-0.10387642636136091
-4.0685000000000002,-0.0072563140857879876,0.10805634174198775
-4.0679999999999996,-0.017926488943470625,0.28819919462993049
-4.0674999999999999,-0.017926488943470625,0.39416557868150842
-4.0670000000000002,0.046094560202625215,0.12924961855232261
-4.0664999999999996,0.40888050536438819,-0.53833860097376529
-4.0659999999999998,1.0170804722517455,-1.131750351662602
-4.0655000000000001,1.5185786905628296,-1.3966663117917877
-4.0650000000000004,1.4332172917014463,-1.0363806060164227
-4.0644999999999998,0.99574012253638022,-0.32640583286987701
-4.0640000000000001,0.55826295337139209,0.28819919462983412
-4.0635000000000003,0.2274875327835309,0.70146809243098818
-4.0629999999999997,0.035424385344855237,0.8816109453192007
-4.0625,-0.06060718837420119,0.87101430691404291
-4.0620000000000003,-0.092617712947220016,0.73325800764699167
-4.0614999999999997,-0.081947538089537364,0.55311515475888506
-4.0609999999999999,-0.049937013516518552,0.40476221708667587
-4.0605000000000002,-0.039266838658835915,0.15044289536265748
-4.0599999999999996,-0.071277363232398167,-0.15685961838796908
-4.0594999999999999,-0.63679663068906378,-1.0045906908005926
-4.0590000000000002,-0.78617907869662074,-1.2483133741194434
-4.0585000000000004,-0.7114878546929102,-0.64430498502544931
-4.0579999999999998,-0.5621054066852853,0.24581264100916439
-4.0575000000000001,-0.18864928666639288,1.0511571598018894
-4.0570000000000004,-0.10328788780500939,1.5174092496288321
-4.0564999999999998,-1.0315931004233216,1.6445689104912655
-4.056,-1.67180359188428,1.33726639674141
-4.0555000000000003,-1.4584000947308213,0.54251851635457538
-4.0549999999999997,-0.96757205127680834,-0.16745625679274137
-4.0545,-0.50875453239687207,-0.5807251545938954
-4.0540000000000003,-0.19931946152435698,-0.69728817705063117
-4.0534999999999997,-0.03926683865877769,-0.60191843140403756
-4.0529999999999999,0.024754210487259936,-0.38998566330088158
-4.0525000000000002,0.024754210487259936,-0.15685961838719809
-4.0519999999999996,0.0034138607718752411,0.044476511311175901
-4.0514999999999999,-0.017926488943470625,0.25640927941433178
-4.0510000000000002,-0.017926488943470625,0.41535885549184332
-4.0505000000000004,0.035424385344894053,0.23521600260416078
-4.0499999999999998,0.35552963107542179,-0.43237221692155131
-4.0495000000000001,0.92104889853260175,-1.0575738828264298
-4.0490000000000004,1.4758979911315944,-1.3966663117914793
-4.0484999999999998,1.4545576414163262,-1.0999604364464732
-4.048,1.006410297394063,-0.41117894011121647
-4.0475000000000003,0.54759277851412658,0.22461936419825124
-4.0469999999999997,0.22748753278305542,0.64848490040570994
-4.0465,0.035424385344942577,0.84982103010370802
-4.0460000000000003,-0.060607188374113843,0.87101430691402359
-4.0454999999999997,-0.08194753808956648,0.74385464605186025
-4.0449999999999999,-0.08194753808956648,0.55311515475901996
-4.0445000000000002,-0.06060718837420119,0.42595549389701071
-4.0439999999999996,-0.039266838658835915,0.21402272579338258
-4.0434999999999999,-0.039266838658835915,-0.093279787956193475
-4.0430000000000001,-0.039266838658835915,-0.40058230170604903
-4.0425000000000004,-0.039266838658835915,-0.65490162342983615
-4.0419999999999998,-0.29535103524321932,-1.3012965661452807
-4.0415000000000001,-0.66880715526211176,-2.0218679776966662
-4.0410000000000004,-0.50875453239701762,-1.2377167357149896
-4.0404999999999998,-0.46607383296669469,-0.25222936403282797
-4.04,-1.0742737998540521,0.71206473083653143
-4.0395000000000003,-1.6611334170260637,1.3054764815253681
-4.0389999999999997,-1.5437614935916615,0.91340086053409586
-4.0385,-1.0742737998540521,0.23521600260399694
-4.0380000000000003,-0.60478610611644279,-0.2734226408435772
-4.0374999999999996,-0.27401068552767932,-0.51714532416291015
-4.0369999999999999,-0.08194753808956648,-0.53833860097322561
-4.0365000000000002,0.0034138607718946501,-0.41117894011121647
-4.0359999999999996,0.035424385344942577,-0.19924617200768471
-4.0354999999999999,0.035424385344942577,0.0020899576903134209
-4.0350000000000001,0.014084035629577295,0.18223281057815977
-4.0345000000000004,-0.0072563140857685796,0.30939247144005333
-4.0339999999999998,-0.017926488943470625,0.29879583303500157
-4.0335000000000001,0.046094560202625215,-0.15685961838719809
-4.0330000000000004,0.20614718306771929,-0.85623775312761263
-4.0324999999999998,0.43022085507933616,-1.322489842955606
-4.032,0.57960330308675734,-1.3118932045504481
-4.0315000000000003,0.49424190422537373,-0.85623775312866313
-4.0309999999999997,0.32351910650223803,-0.17805289519703177
-4.0305,0.17413665849481691,0.37297230187117358
-4.0300000000000002,0.067434909918087552,0.7226613692413808
-4.0294999999999996,0.0034138607718655367,0.86041766850883694
-4.0289999999999999,-0.028596663801153277,0.81803111488820579
-4.0285000000000002,-0.039266838658835915,0.66967817721586165
-4.0279999999999996,-0.039266838658835915,0.50013196273302862
-4.0274999999999999,-0.039266838658835915,0.33058574825050385
-4.0270000000000001,-0.039266838658835915,0.065669788121318018
-4.0265000000000004,-0.039266838658835915,-0.1992461720076269
-4.0259999999999998,-0.039266838658835915,-0.4535654937318862
-4.0255000000000001,-0.028596663801153277,-0.6972881770507372
-4.0250000000000004,0.046094560202557283,-1.1741369052828381
-4.0244999999999997,-0.32736155981624782,-2.0642545313172587
-4.024,-0.30602121010090194,-1.9794814240759964
-4.0235000000000003,-0.72215802955014652,-0.96220413718084807
-4.0229999999999997,-1.5971123678805501,0.23521600260443062
-4.0225,-1.6504632421689147,0.71206473083653143
-4.0220000000000002,-1.2129860730043245,0.43655213230242873
-4.0214999999999996,-0.74349837926555062,-0.02969995752549728
-4.0209999999999999,-0.3700422592469978,-0.36879238649054674
-4.0205000000000002,-0.13529841237797968,-0.50654868575772338
-4.0199999999999996,-0.017926488943441513,-0.48535540894728246
-4.0194999999999999,0.014084035629577295,-0.36879238649054674
-4.0190000000000001,0.024754210487259936,-0.22043944881820265
-4.0185000000000004,0.024754210487259936,-0.061489872740835727
-4.0179999999999998,0.0034138607718946501,0.076266426526485451
-4.0175000000000001,-0.0072563140857879876,0.12924961855232261
-4.0170000000000003,0.067434909917922572,-0.2946159176539892
-4.0164999999999997,0.35552963107580027,-0.9728007755854855
-4.016,0.77166645052504479,-1.4072629501969551
-4.0155000000000003,1.1237822208282517,-1.5556158878691644
-4.0149999999999997,1.0917716962552328,-1.1635402668774972
-4.0145,0.77166645052504479,-0.49595204735255594
-4.0140000000000002,0.43022085507951086,0.13984625695691177
-4.0134999999999996,0.1848068333523637,0.57430843156954758
-4.0129999999999999,0.035424385344942577,0.78624119967270345
-4.0125000000000002,-0.039266838658835915,0.80743447648303834
-4.0119999999999996,-0.060607188374220598,0.71206473083636757
-4.0114999999999998,-0.08194753808956648,0.53192187794868506
-4.0110000000000001,-0.14596858723566233,0.28819919462983412
-4.0105000000000004,-0.1352984123779894,0.076266426526678227
-4.0099999999999998,-0.11395806266261441,-0.10387642636136091
-4.0095000000000001,-0.08194753808956648,-0.27342264084403983
-4.0090000000000003,-0.071277363231893529,-0.43237221692140676
-4.0084999999999997,-0.55143523182763188,-0.77146464588646591
-4.008,-0.58344575640065055,-0.28401927924920728
-4.0075000000000003,-0.3166913849588272,0.6060983467840475
-4.0069999999999997,-0.25267033581292542,1.2418966510953271
-4.0065,-0.73282820440820751,1.7081487409222702
-4.0060000000000002,-1.2876772970077051,1.6445689104912655
-4.0054999999999996,-1.2129860730035966,0.8604176685081526
-4.0049999999999999,-0.8502001278427167,0.065669788121318018
-4.0045000000000002,-0.47674400782382426,-0.43237221692155131
-4.0039999999999996,-0.2099896363816223,-0.63370834661970366
-4.0034999999999998,-0.06060718837420119,-0.60191843140423029
-4.0030000000000001,0.014084035629577295,-0.43237221692155131
-4.0025000000000004,0.035424385344923169,-0.18864953360292203
-4.0019999999999998,0.024754210487259936,0.023283234500648287
-4.0015000000000001,0.014084035629577295,0.19282944898332721
-4.0010000000000003,-0.0072563140857685796,0.31998910984522078
-4.0004999999999997,0.0034138607720984441,0.22461936419824161
-4,0.22748753278323011,-0.42177557851638392
-3.9994999999999998,0.6863050516635838,-1.1211537132574345
-3.9990000000000001,1.1451225705439372,-1.5344226110589645
-3.9984999999999999,1.1344523956862547,-1.2695066509297783
-3.9980000000000002,0.82501732481345802,-0.59132179299906285
-3.9975000000000001,0.47290155450993088,0.097459703336820316
-3.9969999999999999,0.20614718306786484,0.57430843156935485
-3.9965000000000002,0.046094560202625215,0.81803111488820579
-3.996,-0.028596663801153277,0.84982103010370802
-3.9954999999999998,-0.06060718837420119,0.75445128445720111
-3.9950000000000001,-0.06060718837420119,0.57430843156935485
-3.9944999999999999,-0.028596663801153277,0.33058574825050385
-3.9940000000000002,-0.0072563140857879876,0.097459703336820316
-3.9935,-0.0072563140857879876,-0.13566634157686319
-3.9929999999999999,-0.017926488943470625,-0.33700247127504446
-3.9925000000000002,-0.028596663801153277,-0.51714532416289083
-3.992,0.15279630877945163,-0.63370834661973252
-3.9914999999999998,0.86769802424418851,-0.57012851618872795
-3.9910000000000001,1.0277506471094282,-0.57012851618872795
-3.9904999999999999,0.83568749967114075,-0.082683149551026042
-3.9900000000000002,-0.22065981123944084,0.5637117931641874
-3.9895,-1.373038695869166,0.98757732937088472
-3.9889999999999999,-1.4477299198729445,0.75445128445720111
-3.9885000000000002,-1.0315931004233216,0.21402272579366208
-3.988,-0.63679663068906378,-0.30521255605954212
-3.9874999999999998,-0.32736155981626724,-0.57012851618872795
-3.9870000000000001,-0.13529841237797968,-0.60191843140423029
-3.9864999999999999,-0.028596663801153277,-0.4641621321370536
-3.9860000000000002,0.0034138607718946501,-0.25222936403370499
-3.9855,0.014084035629577295,-0.0085066807148540119
-3.9849999999999999,0.014084035629577295,0.19282944898332721
-3.9845000000000002,0.014084035629577295,0.31998910984533641
-3.984,0.014084035629577295,0.25640927941433178
-3.9834999999999998,0.14212613392176898,-0.30521255605954212
-3.9830000000000001,0.45156120479456557,-1.0363806060160949
-3.9824999999999999,0.80367697509809277,-1.5344226110589645
-3.9820000000000002,1.0384208219671107,-1.5344226110589645
-3.9815,0.88903837395955376,-1.01518732920576
-3.9809999999999999,0.59027347794443985,-0.31580919446470956
-3.9805000000000001,0.32351910650237387,0.29879583303500157
-3.98,0.12078578420640371,0.70146809243136399
-3.9794999999999998,0.0034138607718946501,0.86041766850887547
-3.9790000000000001,-0.049937013516518552,0.82862775329337313
-3.9784999999999999,-0.06060718837420119,0.68027481562102909
-3.9780000000000002,-0.071277363231883828,0.43655213230217815
-3.9775,-0.092617712947249131,0.17163617217299235
-3.9769999999999999,-0.08194753808956648,-0.072086511145858609
-3.9765000000000001,-0.071277363231883828,-0.30521255605954212
-3.976,-0.06060718837420119,-0.51714532416289083
-3.9754999999999998,-0.017926488943470625,-0.5807251545938954
-3.9750000000000001,0.20614718306786484,-0.093279787956193475
-3.9744999999999999,0.57960330308675734,0.58490506997452218
-3.9740000000000002,0.88903837395955376,1.1147369902328941
-3.9735,0.3768699807907871,1.3160731199310751
-3.9729999999999999,-1.2556667724346571,0.83922439169854057
-3.9725000000000001,-1.7785053404611064,0.4471487707073456
-3.972,-1.5330913187344057,-0.18864953360270037
-3.9714999999999998,-1.0742737998540521,-0.67609490024040231
-3.9710000000000001,-0.54076505696992005,-0.77146464588690922
-3.9704999999999999,-0.17797911180871023,-0.68669153864556975
-3.9700000000000002,-0.049937013516518552,-0.54893523937839306
-3.9695,-0.017926488943470625,-0.33700247127504446
-3.9689999999999999,-0.0072563140857879876,-0.10387642636136091
-3.9685000000000001,-0.017926488943470625,0.15044289536265748
-3.968,-0.017926488943470625,0.35177902506083869
-3.9674999999999998,-0.0072563140857879876,0.46834204751768049
-3.9670000000000001,0.035424385344942577,0.25640927941433178
-3.9664999999999999,0.16346648363713429,-0.42177557851638392
-3.9660000000000002,0.36619980593310447,-1.1529436284729369
-3.9655,0.65429452709053582,-1.5768091646796343
-3.9649999999999999,0.72898575109431429,-1.3118932045504481
-3.9645000000000001,0.53692260365602662,-0.5807251545938954
-3.964,0.30217875678700862,0.17163617217299235
-3.9634999999999998,0.12078578420640371,0.68027481562102909
-3.9630000000000001,0.014084035629577295,0.90280422212954525
-3.9624999999999999,-0.039266838658835915,0.89220758372437781
-3.9620000000000002,-0.049937013516518552,0.74385464605203377
-3.9615,-0.049937013516518552,0.50013196273318283
-3.9609999999999999,-0.06060718837420119,0.12924961855232261
-3.9605000000000001,-0.049937013516518552,-0.14626297998203064
-3.96,-0.049937013516518552,-0.3581957480853793
-3.9594999999999998,-0.039266838658835915,-0.53833860097322561
-3.9590000000000001,-0.028596663801153277,-0.66549826183523486
-3.9584999999999999,0.046094560202625215,-0.41117894011121647
-3.9580000000000002,0.20614718306786484,0.19282944898332721
-3.9575,0.38754015564846972,0.7968378380778709
-3.9569999999999999,0.18480683335249956,1.2207033742845681
-3.9565000000000001,-0.64746680554674652,1.4432327807930845
-3.956,-1.1169544992847826,1.1359302670432285
-3.9554999999999998,-0.97824222613490841,0.40476221708667587
-3.9550000000000001,-1.0849439747117349,-0.67609490024040231
-3.9544999999999999,-1.1382948490001481,-1.3966663117917877
-3.9540000000000002,-0.79684925355430347,-1.333086481360783
-3.9535,-0.55143523182760279,-1.0893637980419322
-3.9529999999999998,-0.30602121010090194,-0.66549826183523486
-3.9525000000000001,-0.071277363231883828,-0.17805289519753292
-3.952,-0.0072563140857879876,0.17163617217299235
-3.9514999999999998,-0.017926488943470625,0.40476221708667587
-3.9510000000000001,-0.028596663801153277,0.5637117931641874
-3.9504999999999999,-0.0072563140857879876,0.42595549389701071
-3.9500000000000002,0.21681735792554749,-0.31580919446470956
-3.9495,0.63295417737517057,-1.1105570748522671
-3.9489999999999998,1.0490909968247935,-1.5026326958434622
-3.9485000000000001,1.0704313465401587,-1.0363806060160949
-3.948,0.76099627566736228,-0.25222936403370499
-3.9474999999999998,0.44089102993688295,0.40476221708667587
-3.9470000000000001,0.18480683335249956,0.78624119967270345
-3.9464999999999999,0.024754210487259936,0.93459413734504748
-3.9460000000000002,-0.039266838658835915,0.90280422212954525
-3.9455,-0.049937013516518552,0.74385464605203377
-3.9449999999999998,-0.049937013516518552,0.51072860113835017
-3.9445000000000001,-0.039266838658835915,0.30939247144016896
-3.944,-0.028596663801153277,0.086863064931652884
-3.9434999999999998,-0.017926488943470625,-0.17805289519753292
-3.9430000000000001,-0.028596663801153277,-0.43237221692155131
-3.9424999999999999,-0.028596663801153277,-0.64430498502489997
-3.9420000000000002,0.014084035629577295,-0.87743102993858346
-3.9415,0.25949805735627807,-1.3012965661452807
-3.9409999999999998,0.64362435223285308,-1.3436831197659505
-3.9405000000000001,0.96372959796333246,-0.6972881770507372
-3.9399999999999999,0.40888050536383502,0.2246193641988295
-3.9394999999999998,-0.4980843575391895,0.81803111488820579
-3.9390000000000001,-0.76483872898125549,0.60609834678485708
-3.9384999999999999,-0.64746680554674652,0.11865298014715518
-3.9380000000000002,-0.42339313353541097,-0.28401927924920728
-3.9375,-0.23132998609712346,-0.48535540894738849
-3.9369999999999998,-0.40205278382004572,-0.80325456110241145
-3.9365000000000001,-0.87154047755808195,-1.2165234589039415
-3.9359999999999999,-0.71148785469284226,-0.89862430674891836
-3.9355000000000002,-0.57277558154296804,-0.5807251545938954
-3.9350000000000001,-0.39138260896236304,-0.2310360872233701
-3.9344999999999999,-0.14596858723566233,0.16103953376782493
-3.9340000000000002,-0.0072563140857879876,0.17163617217299235
-3.9335,0.046094560202625215,-0.40058230170604903
-3.9329999999999998,0.21681735792554749,-1.2483133741194434
-3.9325000000000001,0.45156120479456557,-1.8947083168346572
-3.9319999999999999,0.6863050516635838,-1.8523217632139874
-3.9315000000000002,0.66496470194821833,-1.1423469900677694
-3.931,0.49424190422529612,-0.3581957480853793
-3.9304999999999999,0.30217875678700862,0.25640927941433178
