Class_6_Listen_To_Quran/Class_6_Listen_To_Quran_UZ_11.csv

#Digilent WaveForms Oscilloscope Acquisition
#Device Name: EExplorer
#Serial Number: SN:210151A2B84A
#Date Time: 2021-01-18 13:50:20.048
#Sample rate: 2000Hz
#Samples: 16384
#Trigger: Source: Channel 1 Type: Edge Condition: Rising Level: 0 V Hyst.: Auto HoldOff: 0 s
#Channel 1: Range: 1 V/div Offset: 0 V Attenuation: 1 X
#Channel 2: Range: 1 V/div Offset: 0 V Attenuation: 1 X
#Power Supplies: ON
#Fixed Supply: ON
#Voltage: 3.3 V Readback: 3.321 V
#Positive Supply: ON
#Voltage: 3.7 V Readback: 3.701 V
#Current: 40 mA Readback: 23 mA
#Negative Supply: ON
#Voltage: -3.7 V Readback: -3.958 V
#Current: -40 mA Readback: -5 mA
#Reference 1: ON
#Voltage: 0 V
#Reference 2: ON
#Voltage: 0 V

Time (s),Channel 1 (V),Channel 2 (V)
-4.096,1.422547116843686,-0.1780528951975329
-4.0955,0.9743997728214225,0.2987958330345679
-4.095,0.5475927785134279,0.4365521323021107
-4.0945,0.2381577076409128,0.3623756634660061
-4.094,0.05676473506047283,0.2246193641989548
-4.0935,-0.03926683865893296,0.1080563417419588
-4.093,-0.1459685872356623,0.07626642652648545
-4.0925,-0.1459685872356623,0.05507314971616986
-4.092,-0.1139580626625853,0.04447651131100243
-4.0915,-0.08194753808956648,0.06566978812131802
-4.091,-0.07127736323188383,0.09745970333682032
-4.0905,-0.2420001609554563,-0.04029659593101167
-4.09,-0.9569018764195432,-0.7608680074817418
-4.0895,-1.682473766741963,-1.566212526274467
-4.089,-1.991908837614478,-2.000674700885936
-4.0885,-2.205312334768412,-2.053657892912168
-4.088,-1.821186039891837,-1.460246142222792
-4.0875,-1.159635198716115,-0.5489352393792218
-4.087,-0.5727755815426187,0.2140227257941247
-4.0865,-0.1886492866663929,0.7226613692416989
-4.086,0.01408403562939292,0.9875773293706438
-4.0855,0.08877525963335578,1.093543713422559
-4.085,0.08877525963335578,1.093543713422559
-4.0845,0.07810508477568284,1.04056052139677
-4.084,0.04609456020261551,0.9663840525604823
-4.0835,0.03542438534494258,0.8922075837243778
-4.083,0.02475421048725994,0.8074344764830383
-4.0825,0.02475421048746373,0.7226613692413713
-4.082,0.2488278824985954,0.3623756634660061
-4.0815,0.707645401378949,-0.4323722169215513
-4.081,0.9743997728207723,-1.078767159636177
-4.0805,1.123782220828572,-1.301296566145281
-4.08,1.123782220828572,-0.6231117082145651
-4.0795,1.027750647109515,0.1398462569567961
-4.079,0.7930068002398666,0.4047622170863868
-4.0785,0.1954770082101822,0.08686306493165288
-4.078,-0.3380317346734646,-0.3158091944643433
-4.0775,-0.3380317346739014,-0.2840192792491976
-4.077,-0.2846808603855366,-0.2734226408440398
-4.0765,-0.402052783819939,-0.3581957480853022
-4.076,-0.4554036581084007,-0.3581957480852347
-4.0755,-0.391382608962363,-0.1992461720078678
-4.075,-0.2633405106701714,0.02328323450064829
-4.0745,-0.1459685872357303,0.2034260873884947
-4.074,-0.2206598112394408,0.2034260873884947
-4.0735,-0.8928808272734472,-0.5277419625680583
-4.073,-1.778505340460301,-1.48143941903226
-4.0725,-2.322684258202921,-2.202010830584512
-4.072,-2.76016142736791,-2.62587636679121
-4.0715,-2.429386006780048,-2.180817553774583
-4.071,-1.607782542737476,-1.142346990066902
-4.0705,-0.8288597781273515,-0.1886495336027004
-4.07,-0.3060212101013774,0.4471487707067673
-4.0695,-0.007256314085681239,0.7862411996728191
-4.069,0.1101156093487211,0.9134008605347127
-4.0685,0.1314559590640864,0.9028042221295453
-4.068,0.110115609348692,0.8286277532932864
-4.0675,0.07810508477567314,0.7332580076468663
-4.067,0.05676473506030786,0.6484849004055269
-4.0665,0.04609456020263492,0.5637117931641296
-4.066,0.05676473506030786,0.5001319627331828
-4.0655,0.3341892813600565,0.4153588554918433
-4.065,1.027750647108797,-0.2310360872227822
-4.0645,1.486568165989782,-1.046977244421262
-4.064,1.678631313428069,-1.629792356705471
-4.0635,1.710641838001088,-1.195330182094002
-4.063,1.465227816274077,-0.2204394488176244
-4.0625,1.091771696255524,0.4153588554918433
-4.062,0.739655925952317,0.6060983467846837
-4.0615,0.4302208550789771,0.542518516353708
-4.061,0.1848068333524996,0.383568940276341
-4.0605,0.03542438534494258,0.2352160026039969
-4.06,-0.1352984123779797,0.1610395337680466
-4.0595,-0.1352984123779797,0.4047622170866759
-4.059,-0.2099896363817582,0.3411823866556712
-4.0585,-0.7968492535537697,-0.315809194464112
-4.058,-0.7114878546928423,-0.4323722169215513
-4.0575,-0.6688071552621118,-0.5065486857577234
-4.057,-1.031593100422992,-0.888027668343404
-4.0565,-1.746494815888059,-1.598002441489969
-4.056,-2.226652684483777,-2.25499402261035
-4.0555,-2.557428105071639,-2.668262920411504
-4.055,-2.514747405640569,-2.488120067523108
-4.0545,-1.810515865034154,-1.47084278062796
-4.054,-1.010252750708684,-0.3899856633018646
-4.0535,-0.4127229586774081,0.4047622170870999
-4.053,-0.06060718837420119,0.8710143069140429
-4.0525,0.09944543449103843,1.082947075017392
-4.052,0.1421261339217496,1.114736990232836
-4.0515,0.1207857842064037,1.051157159801889
-4.051,0.08877525963335578,0.9557874141553824
-4.0505,0.06743490991800991,0.8604176685089622
-4.05,0.0674349099179905,0.7650479228623686
-4.0495,0.05676473506030786,0.6802748156210291
-4.049,0.07810508477565373,0.5743084315694512
-4.0485,0.4408910299372226,0.002089957689542414
-4.048,0.8143471499557753,-0.8456411147230812
-4.0475,0.9423892482478505,-1.470842780627391
-4.047,1.230483969405486,-1.099960436446136
-4.0465,1.326515543124542,-0.04029659593035631
-4.046,1.166462920259448,0.6378882619997426
-4.0455,0.8676980242438974,0.8180311148880709
-4.045,0.5475927785137094,0.6696781772158616
-4.0445,0.2808384070716433,0.3623756634660061
-4.044,0.09944543449094138,0.1186529801470203
-4.0435,-0.007256314085787988,-0.02969995752518888
-4.043,-0.1459685872356623,-0.1568596183871981
-4.0425,-0.1566387620933352,-0.0826831495510935
-4.042,-0.1139580626626144,0.06566978812131802
-4.0415,-0.07127736323188383,0.2140227257936621
-4.041,-0.04993701351653796,0.3623756634658712
-4.0405,-0.3166913849591377,0.192829448982855
-4.04,-0.9248913518464952,-0.326405832869877
-4.0395,-1.650463242168255,-0.9728007755845025
-4.039,-2.162631635337507,-1.428456227007145
-4.0385,-1.970568487899394,-1.269506650929778
-4.038,-1.309017646723672,-0.5489352393790484
-4.0375,-0.6901475049770791,0.182232810578632
-4.037,-0.2526703358124887,0.701468092431364
-4.0365,-0.007256314085787988,0.9875773293708847
-4.036,0.08877525963329755,1.093543713422472
-4.0355,0.02475421048725994,0.9981739677760521
-4.035,0.07810508477567314,0.9981739677760521
-4.0345,-0.2953510352428796,0.542518516354267
-4.034,-0.6794773301197943,0.06566978812131802
-4.0335,-0.5621054066852853,0.07626642652648545
-4.033,-0.4020527838201913,0.1398462569574322
-4.0325,-0.1352984123773101,0.2881991946297281
-4.032,0.6009436528021226,0.1716361721729923
-4.0315,1.166462920258788,-0.8032545611015248
-4.031,1.283834843693841,-1.841725124809032
-4.0305,1.315845368266859,-2.074851169722503
-4.03,1.283834843693841,-1.152943628473775
-4.0295,1.102441871112984,-0.1886495336022378
-4.029,0.857027849386506,0.3199891098453364
-4.0285,0.5902734779444399,0.4365521323021782
-4.028,0.3448594562175742,0.3729723018710868
-4.0275,0.1634664836371343,0.2776025562246667
-4.027,0.05676473506030786,0.1716361721729923
-4.0265,-0.01792648894340269,-0.008506680714690185
-4.026,-0.07127736323188383,-0.1038764263613609
-4.0255,-0.06060718837420119,-0.04029659593035631
-4.025,-0.04993701351652825,0.06566978812122164
-4.0245,-0.03926683865893296,0.1504428953625997
-4.024,-0.1459685872356623,0.08686306493165288
-4.0235,-0.7861790786960384,-0.5489352393778149
-4.023,-1.458400094730947,-1.301296566145772
-4.0225,-1.810515865034154,-1.84172512480882
-4.022,-1.959898313041575,-2.000674700886186
-4.0215,-1.533091318733843,-1.311893204549619
-4.021,-0.9142211769888124,-0.400582301706049
-4.0205,-0.423393133535411,0.3305857482505039
-4.02,-0.1032878878047862,0.7968378380780829
-4.0195,0.05676473506030786,1.029963882991555
-4.019,0.1101156093487211,1.114736990232894
-4.0185,0.1101156093487211,1.093543713422579
-4.018,0.08877525963335578,1.040560521396722
-4.0175,0.0674349099179905,0.9663840525605498
-4.017,0.05676473506031757,0.8816109453192875
-4.0165,0.05676473506031757,0.8074344764829708
-4.016,0.0674349099179905,0.7332580076468663
-4.0155,0.1954770082100657,0.5637117931643416
-4.015,0.8036769750982578,-0.08268314955176814
-4.0145,0.9850699476786977,-0.8986243067489184
-4.014,1.113112045970773,-1.396666311791335
-4.0135,1.283834843693763,-1.152943628472127
-4.013,1.230483969405398,-0.2628260024388724
-4.0125,1.006410297394063,0.3729723018711736
-4.012,0.7076454013786774,0.563711793164091
-4.0115,0.408880505363835,0.457745409112513
-4.011,0.1954770082101822,0.2881991946298341
-4.0105,0.06743490991810697,0.1610395337679406
-4.01,-0.09261771294724913,0.01268659609548085
-4.0095,-0.2099896363817582,-0.01910331912002144
-4.009,-0.1779791118087393,0.02328323450060973
-4.0085,-0.1459685872362155,0.03387987290526637
-4.008,-0.754168554123573,-0.570128516188728
-4.0075,-0.8395299529849564,-0.7396747306712527
-4.007,-1.18097554843148,-1.205926820499391
-4.0065,-1.842526389607202,-1.88411167842949
-4.006,-2.013249187330125,-2.17022091536901
-4.0055,-1.874536914179823,-2.233800745799456
-4.005,-1.405049220442214,-1.619195718300304
-4.0045,-0.8181896032696687,-0.6654982618352349
-4.004,-0.3593720843890629,0.150442895363149
-4.0035,-0.08194753808956648,0.6908714540261965
-4.003,0.05676473506030786,0.9875773293708847
-4.0025,0.1101156093486725,1.114736990232778
-4.002,0.1207857842064037,1.135930267043229
-4.0015,0.1101156093487211,1.104140351827727
-4.001,0.07810508477570226,1.029963882991622
-4.0005,0.05676473506030786,0.9451907757501474
-4,0.05676473506030786,0.8710143069140429
-3.9995,0.0674349099179905,0.8074344764830383
-3.999,0.1741366584948169,0.8286277532933731
-3.9985,0.7396559259519968,1.00877060618122
-3.998,1.273164668836129,0.4259554938970107
-3.9975,1.251824319120764,-0.5277419625680583
-3.997,1.187803269974668,-1.004590690800593
-3.9965,1.123782220828572,-0.5171453241628908
-3.996,0.974399772821015,0.03387987290581572
-3.9955,0.7716664505250448,0.3517790250608387
-3.995,0.5369226036560266,0.4365521323021782
-3.9945,0.3235191065023739,0.3199891098453364
-3.994,0.1634664836371343,0.1822328105781598
-3.9935,0.0674349099179905,0.09745970333682032
-3.993,0.00341386077189465,0.1504428953626575
-3.9925,-0.01792648894347063,0.2034260873884947
-3.992,-0.01792648894347063,0.2458126410091644
-3.9915,-0.01792648894347063,0.309392471440169
-3.991,-0.02859666380115328,0.383568940276341
-3.9905,-0.1673089369510276,0.2987958330350016
-3.99,-0.6688071552621118,-0.2416327256285375
-3.9895,-1.127624674142465,-0.8244478379127463
-3.989,-1.287677297007705,-1.163540266878104
-3.9885,-1.031593100423322,-0.8032545611024114
-3.988,-0.7008176798351597,-0.1992461720078678
-3.9875,-0.3166913849585846,0.4471487707073456
-3.987,-0.2206598112394408,0.7438546460520338
-3.9865,-0.658136980404429,0.3941655786815084
-3.986,-0.4340633083930936,0.6484849004055269
-3.9855,-0.2633405106701714,0.7862411996727035
-3.985,-0.08194753808956648,0.92399749893988
-3.9845,0.03542438534494258,0.9557874141553824
-3.984,0.04609456020262521,0.8710143069140429
-3.9835,0.04609456020262521,0.7650479228623686
-3.983,0.04609456020262521,0.6590815388106942
-3.9825,0.05676473506030786,0.5637117931641874
-3.982,0.4408910299368829,0.2246193641988295
-3.9815,0.9637295979633325,-0.7396747306714069
-3.981,1.049090996824793,-1.693372187136476
-3.9805,1.059761171682476,-1.84172512480882
-3.98,1.134452395686255,-0.8456411147230812
-3.9795,1.049090996824793,0.04447651131098315
-3.979,0.8676980242441885,0.3941655786815084
-3.9785,0.6542945270905358,0.4683420475176805
-3.978,0.408880505363835,0.3941655786815084
-3.9775,0.2168173579255475,0.2140227257936621
-3.977,0.09944543449103843,0.05507314971615059
-3.9765,-0.02859666380115328,-0.06148987274069118
-3.976,-0.09261771294724913,-0.09327978795619347
-3.9755,-0.09261771294724913,-0.04029659593035631
-3.975,-0.06060718837420119,0.06566978812131802
-3.9745,-0.06060718837420119,0.1610395337678249
-3.974,-0.1459685872356623,0.1610395337678249
-3.9735,-0.7434983792658902,-0.3475991096802118
-3.973,-1.543761493592088,-1.046977244421262
-3.9725,-2.045259711903173,-1.566212526274467
-3.972,-2.365364957633652,-1.809935209593318
-3.9715,-1.981238662757077,-1.34368311976595
-3.971,-1.244996597576974,-0.474758770542221
-3.9705,-0.6261264558313813,0.309392471440169
-3.97,-0.1993194615240755,0.8286277532933731
-3.9695,0.02475421048725994,1.104140351827727
-3.969,0.1101156093487211,1.199510097474233
-3.9685,0.0674349099179905,1.135930267043229
-3.968,0.05676473506030786,1.061753798207057
-3.9675,0.01408403562957729,0.9451907757502149
-3.967,-0.5941159312583333,0.2352160026039969
-3.9665,-0.5194247072545548,0.2140227257936621
-3.966,-0.3593720843893152,0.2564092794143318
-3.9655,0.09944543449103843,0.4259554938970107
-3.965,1.017080472251745,-0.04029659593035631
-3.9645,1.401206767128321,-1.121153713257435
-3.964,1.401206767128321,-1.905304955239825
-3.9635,1.35852606769759,-1.311893204550448
-3.963,1.209143619690033,-0.3370024712750445
-3.9625,0.9637295979633325,0.1716361721729923
-3.962,0.6756348768059011,0.3623756634660061
-3.9615,0.408880505363835,0.3941655786815084
-3.961,0.2168173579255475,0.2987958330350016
-3.9605,0.08877525963335578,0.1504428953626575
-3.96,-0.007256314085787988,-0.01910331912002144
-3.9595,-0.1352984123779797,-0.1886495336027004
-3.959,-0.1459685872356623,-0.1674562567923655
-3.9585,-0.1032878878049318,-0.05089323433552374
-3.958,-0.06060718837420119,0.09745970333682032
-3.9575,-0.06060718837420119,0.2034260873884947
-3.957,-0.5087545323968721,-0.1780528951975329
-3.9565,-1.191645723288561,-0.8986243067489184
-3.956,-1.543761493592088,-1.449649503817625
-3.9555,-1.693143941599645,-1.746355379162313
-3.955,-1.383708870726849,-1.269506650929778
-3.9545,-0.8608703027003992,-0.400582301706049
-3.954,-0.4020527838200457,0.3623756634660061
-3.9535,-0.1032878878049318,0.8710143069140429
-3.953,0.04609456020262521,1.135930267043229
-3.9525,0.09944543449103843,1.231300012689736
-3.952,0.09944543449103843,1.220703374284568
-3.9515,0.08877525963335578,1.135930267043229
-3.951,0.05676473506030786,1.029963882991555
-3.9505,0.05676473506030786,0.9345941373450475
-3.95,0.05676473506030786,0.8286277532933731
-3.9495,0.0674349099179905,0.7226613692416989
-3.949,0.1207857842064037,0.627291623595192
-3.9485,0.6756348768059011,0.2564092794143318
-3.948,1.059761171682476,-0.570128516188728
-3.9475,1.187803269974668,-1.205926820498774
-3.947,1.273164668836129,-1.523825972653797
-3.9465,1.273164668836129,-0.8138511995075789
-3.946,1.091771696255524,-0.07208651114585861
-3.9455,0.825017324813458,0.3517790250608387
-3.945,0.5262524287983441,0.4259554938970107
-3.9445,0.2808384070716433,0.3411823866556712
-3.944,0.1207857842064037,0.1928294489833272
-3.9435,-0.02859666380115328,0.01268659609548085
-3.943,-0.06060718837420119,0.04447651131098315
-3.9425,-0.07127736323188383,0.08686306493165288
-3.942,-0.06060718837420119,0.1080563417419877
-3.9415,-0.03926683865883591,0.1186529801471552
-3.941,-0.03926683865883591,0.13984625695749
-3.9405,-0.1352984123779797,0.05507314971615059
-3.94,-0.6474668055467465,-0.4641621321370536
-3.9395,-1.277007122150022,-1.0999604364471
-3.939,-1.821186039891837,-1.640388995110639
-3.9385,-1.661133417026597,-1.396666311791788
-3.938,-1.46907026958831,-0.9939940523954253
-3.9375,-1.30901764672307,-0.6337083466197325
-3.937,-0.8181896032696687,0.01268659609548085
-3.9365,-0.4767440078238243,0.457745409112513
-3.936,-0.1673089369510276,0.8180311148882058
-3.9355,0.05676473506030786,1.051157159801889
-3.935,0.08877525963335578,1.072350436612224
-3.9345,0.0674349099179905,1.019367244586387
-3.934,0.05676473506030786,0.9557874141553824
-3.9335,0.04609456020262521,0.8922075837243778
-3.933,0.04609456020262521,0.8180311148882058
-3.9325,0.07810508477567314,0.775644561267536
-3.932,0.408880505363835,0.5319218779486851
-3.9315,1.049090996824793,-0.4535654937318862
-3.931,1.283834843693812,-1.481439419033127
-3.9305,1.337185717982225,-2.043061254507001
-3.93,1.465227816274416,-1.460246142222792
-3.9295,1.422547116843686,-0.2098428104130352
-3.929,1.187803269974668,0.5637117931641874
-3.9285,0.8676980242441885,0.7650479228623686
-3.928,0.5369226036560266,0.6060983467848571
-3.9275,0.2701682322139607,0.3517790250608387
-3.927,0.1101156093487211,0.1504428953626575
-3.9265,-0.007256314085787988,0.1504428953626575
-3.926,-0.09261771294724913,0.1928294489833272
-3.9255,-0.08194753808956648,0.1716361721729923
-3.925,-0.06060718837420119,0.1610395337678249
-3.9245,-0.03926683865883591,0.1716361721729923
-3.924,-0.09261771294724913,0.09745970333682032
-3.9235,-0.6367966306890638,-0.4111789401112165
-3.923,-1.426389570157579,-1.131750351662602
-3.9225,-1.863866739322568,-1.682775548731308
-3.922,-2.151961460479999,-1.990078062481164
-3.9215,-2.205312334768412,-1.820531847998485
-3.921,-1.575772018165136,-0.9516074987747555
-3.9205,-0.8928808272734472,-0.04029659593035631
-3.92,-0.3807124341046804,0.6378882620003594
-3.9195,-0.06060718837420119,1.040560521396722
-3.919,0.07810508477567314,1.210106735879401
-3.9185,0.1207857842064037,1.241896651094903
-3.918,0.1207857842064037,1.178316820663898
-3.9175,0.08877525963335578,1.082947075017392
-3.917,0.00341386077189465,0.9028042221295453
-3.9165,0.03542438534494258,0.8392243916985406
-3.916,0.02475421048725994,0.7226613692416989
-3.9155,-0.2099896363817582,0.1716361721729923
-3.915,0.1207857842064037,-0.7714646458869092
-3.9145,0.5796033030867573,-1.619195718300304
-3.914,0.8356874996711408,-2.318573853041354
-3.9135,1.379866417412955,-2.329170491446522
-3.913,1.614610264281974,-1.089363798041932
-3.9125,1.422547116843686,0.02328323450064829
-3.912,1.027750647109428,0.5001319627331828
-3.9115,0.6329541773751706,0.5319218779486851
-3.911,0.3341892813600565,0.3729723018711736
-3.9105,0.142126133921769,0.1928294489833272
-3.91,0.01408403562957729,0.08686306493165288
-3.9095,-0.1779791118087102,0.1504428953626575
-3.909,-0.2206598112394408,0.1610395337678249
-3.9085,-0.1673089369510276,0.13984625695749
-3.908,-0.1032878878049318,0.1292496185523226
-3.9075,-0.04993701351651855,0.1504428953626575
-3.907,-0.2953510352432193,-0.06148987274069118
-3.9065,-1.095614149569417,-0.8244478379127463
-3.906,-1.789175515318789,-1.608599079895136
-3.9055,-2.290673733629873,-2.138431000153508
-3.905,-2.514747405641209,-2.233800745800015
-3.9045,-1.906547438753298,-1.42845622700729
-3.904,-1.127624674142465,-0.4323722169215513
-3.9035,-0.4980843575391895,0.3517790250608387
-3.903,-0.1139580626626144,0.849821030103708
-3.9025,0.07810508477567314,1.082947075017392
-3.902,0.142126133921769,1.157123543853563
-3.9015,0.142126133921769,1.135930267043229
-3.901,0.1101156093487211,1.061753798207057
-3.9005,0.08877525963335578,0.9663840525605498
-3.9,0.0674349099179905,0.8710143069140429
-3.8995,0.05676473506030786,0.7862411996727035
-3.899,0.09944543449103843,0.7544512844572011
-3.8985,0.4729015545099309,0.3517790250608387
-3.898,0.9530594231056497,-0.4535654937318862
-3.8975,1.219813794547716,-1.174136905283272
-3.897,1.19847344483235,-1.195330182093607
-3.8965,1.177133095116985,-0.3052125560595421
-3.896,0.9850699476786977,0.3517790250608387
-3.8955,0.2061471830678648,-0.02969995752518888
-3.895,0.02475421048725994,-0.1250697031716958
-3.8945,-0.04993701351651855,-0.1886495336027004
-3.894,-0.03926683865883591,-0.1674562567923655
-3.8935,0.04609456020262521,-0.08268314955102604
-3.893,0.00341386077189465,-0.1038764263613609
-3.8925,-0.01792648894347063,-0.08268314955102604
-3.892,-0.01792648894347063,0.002089957690313421
-3.8915,0.00341386077189465,0.1080563417419877
-3.891,0.00341386077189465,0.2140227257936621
-3.8905,-0.1673089369510276,0.1186529801471552
-3.89,-0.839529952985034,-0.6443049850249
-3.8895,-1.554431668449771,-1.492036057438295
-3.889,-1.917217613610981,-2.032464616101834
-3.8885,-2.247993034199143,-2.276187299420684
-3.888,-2.066600061618538,-1.831128486403653
-3.8875,-1.394379045584531,-0.8032545611024114
