Class_6_Listen_To_Quran/Class_6_Listen_To_Quran_Turki_10.csv

#Digilent WaveForms Oscilloscope Acquisition
#Device Name: EExplorer
#Serial Number: SN:210151A2B84A
#Date Time: 2020-12-21 15:26:24.682
#Sample rate: 2000Hz
#Samples: 16384
#Trigger: Source: Channel 1 Type: Edge Condition: Rising Level: 0 V Hyst.: Auto HoldOff: 0 s
#Channel 1: Range: 1 V/div Offset: 0 V
#Channel 2: Range: 1 V/div Offset: 0 V

Time (s),Channel 1 (V),Channel 2 (V)
-4.0960000000000001,-0.6047861061160158,-0.98339741399025782
-4.0955000000000004,-0.08194753809004196,-0.42177557851689473
-4.0949999999999998,0.34485945621795266,-0.029699957524967215
-4.0945,0.57960330308675734,0.21402272579366208
-4.0940000000000003,0.70764540137883258,0.3517790250607134
-4.0934999999999997,0.75032610080975715,0.36237566346598687
-4.093,0.83568749967114075,0.34118238665567124
-4.0925000000000002,0.97439977282088885,0.27760255622472452
-4.0919999999999996,0.91037872367479311,0.22461936419881023
-4.0914999999999999,0.77166645052504479,0.20342608738849466
-4.0910000000000002,0.65429452709053582,0.2246193641988295
-4.0904999999999996,0.56893312822874464,0.24581264100888489
-4.0899999999999999,0.20614718306786484,-0.061489872740691176
-4.0895000000000001,-0.59411593125833329,-0.78206128429207655
-4.0890000000000004,-1.2023158981456907,-1.4496495038170178
-4.0884999999999998,-1.7678351656034239,-1.9264982320501591
-4.0880000000000001,-2.0666000616185376,-2.0854478081276708
-4.0875000000000004,-1.5117509690195452,-1.4496495038182031
-4.0869999999999997,-0.71148785469225995,-0.49595204735183313
-4.0865,-0.071277363231883828,0.29879583303500157
-4.0860000000000003,0.34485945621736069,0.8180311148877335
-4.0854999999999997,0.54759277851376753,1.0829470750174688
-4.085,0.6116138276598051,1.1677201822587309
-4.0845000000000002,0.6116138276598051,1.157123543853573
-4.0839999999999996,0.57960330308672825,1.0935437134224821
-4.0834999999999999,0.54759277851370936,1.0087706061812196
-4.0830000000000002,0.51558225394066137,0.93459413734504748
-4.0824999999999996,0.50491207908290126,0.84982103010359233
-4.0819999999999999,0.41955068022151765,0.72266136924169888
-4.0815000000000001,0.046094560202625215,0.29879583303500157
-4.0810000000000004,-0.59411593125775097,-0.50654868575699097
-4.0804999999999998,-1.1489650238578306,-1.2695066509297783
-4.0800000000000001,-1.1809755484308786,-1.5874058030848013
-4.0795000000000003,-0.74349837926628815,-1.2165234589042788
-4.0789999999999997,-0.18864928666599501,-0.60191843140380619
-4.0785,0.24882788249859539,-0.13566634157686319
-4.0780000000000003,0.50491207908274593,0.076266426526292702
-4.0774999999999997,0.62228400251753635,0.15044289536266711
-4.077,0.67563487680590106,0.16103953376782493
-4.0765000000000002,0.7183155762365927,0.17163617217298272
-4.0759999999999996,0.91037872367493866,0.076266426526456543
-4.0754999999999999,0.93171907339028448,0.044476511310983152
-4.0750000000000002,0.81434714995577528,0.10805634174198775
-4.0744999999999996,0.69697522652118871,0.20342608738857176
-4.0739999999999998,0.6116138276598051,0.28819919462983412
-4.0735000000000001,0.43022085507920033,0.21402272579366208
-4.0730000000000004,-0.30602121010023237,-0.41117894011064782
-4.0724999999999998,-1.0102527507079564,-1.1529436284729369
-4.0720000000000001,-1.5757720181651362,-1.7145654639468106
-4.0715000000000003,-2.0772702364757643,-2.0324646161015445
-4.0709999999999997,-2.002579012471724,-1.8523217632131972
-4.0705,-1.2129860730039266,-0.98339741399025782
-4.0700000000000003,-0.43406330839380203,-0.082683149551845303
-4.0694999999999997,0.12078578420670455,0.56371179316453435
-4.069,0.45156120479456557,0.94519077575021493
-4.0685000000000002,0.59027347794443985,1.1041403518277266
-4.0679999999999996,0.6222840025174684,1.1253336286380229
-4.0674999999999999,0.60094365280212259,1.0829470750173917
-4.0670000000000002,0.5689331282290746,0.99817396777605205
-4.0664999999999996,0.53692260365600719,0.91340086053463565
-4.0659999999999998,0.51558225394066137,0.82862775329337313
-4.0655000000000001,0.49424190422529612,0.74385464605203377
-4.0650000000000004,0.32351910650252913,0.58490506997466674
-4.0644999999999998,0.18480683335249956,0.36237566346600614
-4.0640000000000001,-0.13529841237797968,-0.32640583286987701
-4.0635000000000003,-0.66880715526162648,-1.0469772444206069
-4.0629999999999997,-0.79684925355395408,-1.19533018209325
-4.0625,-0.41272295867772835,-0.80325456110241145
-4.0620000000000003,0.014084035629189084,-0.30521255605999509
-4.0614999999999997,0.34485945621794295,0.033879872905979561
-4.0609999999999999,0.5689331282290746,0.21402272579366208
-4.0605000000000002,0.67563487680590106,0.28819919462983412
-4.0599999999999996,0.68630505166370992,0.27760255622482088
-4.0594999999999999,0.82501732481345802,0.4471487707073456
-4.0590000000000002,0.88903837395955376,0.55311515475901996
-4.0585000000000004,0.81434714995584323,0.48953532432807317
-4.0579999999999998,0.69697522652126631,0.39416557868150842
-4.0575000000000001,0.6116138276598051,0.33058574825050385
-4.0570000000000004,0.54759277851376753,0.30939247144018822
-4.0564999999999998,0.78233662538272752,0.48953532432801533
-4.056,0.69697522652126631,0.28819919462983412
-4.0555000000000003,-0.15663876209256855,-0.48535540894668494
-4.0549999999999997,-1.0849439747123366,-1.2059268204991884
-4.0545,-1.7464948158880587,-1.6615822719209734
-4.0540000000000003,-1.5224211438769268,-1.3330864813610819
-4.0534999999999997,-0.83952995298445166,-0.51714532416218728
-4.0529999999999999,-0.19931946152407554,0.25640927941433178
-4.0525000000000002,0.23815770764091276,0.7968378380778709
-4.0519999999999996,0.48357172936770082,1.0935437134226651
-4.0514999999999999,0.57960330308675734,1.2101067358794007
-4.0510000000000002,0.59027347794443985,1.2313000126897355
-4.0505000000000004,0.56893312822909403,1.1889134590691044
-4.0499999999999998,0.53692260365602662,1.1253336286380615
-4.0495000000000001,0.51558225394066137,1.0511571598018894
-4.0490000000000004,0.48357172936764259,0.97698069096578477
-4.0484999999999998,0.29150858192882134,0.70146809243059294
-4.048,-0.26334051067017139,-0.14626297998203064
-4.0475000000000003,-0.56210540668501352,-1.046977244420443
-4.0469999999999997,-0.82885977812740963,-1.7357587407572033
-4.0465,-0.8928808272734472,-1.7993385711881502
-4.0460000000000003,-0.51942470725489454,-1.1529436284735248
-4.0454999999999997,-0.028596663800803918,-0.47475877054180665
-4.0449999999999999,0.35552963107542179,-0.019103319120021445
-4.0445000000000002,0.5689331282290746,0.21402272579366208
-4.0439999999999996,0.66496470194826685,0.26700591781941246
-4.0434999999999999,0.71831557623663156,0.17163617217299235
-4.0430000000000001,0.83568749967114075,0.055073149716150585
-4.0425000000000004,1.091771696255291,-0.13566634157668972
-4.0419999999999998,1.0384208219671107,-0.072086511145858609
-4.0415000000000001,0.86769802424418851,0.097459703336820316
-4.0410000000000004,0.7076454013790946,0.26700591781934502
-4.0404999999999998,0.59027347794414875,0.39416557868136387
-4.04,0.27016823221396069,0.23521600260399694
-4.0395000000000003,-0.41272295867710729,-0.4641621321364176
-4.0389999999999997,-0.88221065241613328,-1.1953301820940114
-4.0385,-1.2876772970077051,-1.6403889951106385
-4.0380000000000003,-1.6611334170262577,-1.8417251248086368
-4.0374999999999996,-1.5971123678799288,-1.5980024414892362
-4.0369999999999999,-0.96757205127722568,-0.792657922697244
-4.0365000000000002,-0.30602121010090194,0.0020899576903134209
-4.0359999999999996,0.16346648363738661,0.57430843156964395
-4.0354999999999999,0.44089102993688295,0.89220758372437781
-4.0350000000000001,0.55826295337139209,1.0193672445863871
-4.0345000000000004,0.59027347794441076,1.0193672445863871
-4.0339999999999998,0.57960330308675734,0.96638405256054982
-4.0335000000000001,0.54759277851370936,0.89220758372437781
-4.0330000000000004,0.51558225394069046,0.81803111488827329
-4.0324999999999998,0.49424190422519909,0.74385464605193741
-4.032,0.38754015564846972,0.63788826200035942
-4.0315000000000003,-0.17797911180819587,0.033879872906365072
-4.0309999999999997,-0.81818960327020251,-0.82444783791337273
-4.0305,-1.405049220442214,-1.5132293342486296
-4.0300000000000002,-1.3303579964385035,-1.4496495038176826
-4.0294999999999996,-0.66880715526151013,-0.81385119950699103
-4.0289999999999999,-0.0072563140857879876,-0.1674562567923655
-4.0285000000000002,0.43022085507920033,0.20342608738849466
-4.0279999999999996,0.65429452709057467,0.36237566346597722
-4.0274999999999999,0.69697522652126631,0.33058574825050385
-4.0270000000000001,0.69697522652126631,0.2246193641988295
-4.0265000000000004,0.67563487680592049,0.16103953376788277
-4.0259999999999998,0.69697522652126631,0.17163617217299235
-4.0255000000000001,0.66496470194821833,0.21402272579366208
-4.0250000000000004,0.61161382765985361,0.24581264100913547
-4.0244999999999997,0.56893312822904551,0.28819919462989196
-4.024,0.53692260365602662,0.35177902506083869
-4.0235000000000003,0.61161382765973715,0.50013196273304794
-4.0229999999999997,1.0490909968245412,1.0511571598020821
-4.0225,0.77166645052504479,1.2630899279052379
-4.0220000000000002,0.14212613392234152,0.5107286011390344
-4.0214999999999996,-0.50875453239738644,-0.32640583287048419
-4.0209999999999999,-1.0742737998540521,-0.99399405239542526
-4.0205000000000002,-0.91422117698881245,-0.84564111472308123
-4.0199999999999996,-0.44473348325036871,-0.27342264084351942
-4.0194999999999999,0.0034138607718946501,0.29879583303500157
-4.0190000000000001,0.31284893164469124,0.73325800764686633
-4.0185000000000004,0.48357172936745824,0.99817396777581113
-4.0179999999999998,0.54759277851370936,1.146526905448396
-4.0175000000000001,0.55826295337139209,1.1995100974742332
-4.0170000000000003,0.53692260365604605,1.2101067358793911
-4.0164999999999997,0.51558225394064194,1.1995100974742139
-4.016,0.49424190422529612,1.1783168206638983
-4.0155000000000003,0.46223137965227734,1.1465269054484248
-4.0149999999999997,0.15279630877879172,0.93459413734438246
-4.0145,-0.57277558154296804,0.20342608738849466
-4.0140000000000002,-1.2983474718647277,-0.73967473067054912
-4.0134999999999996,-1.3623685210110079,-1.2906999277399012
-4.0129999999999999,-0.83952995298503397,-1.0575738828264298
-4.0125000000000002,-0.19931946152407554,-0.54893523937839306
-4.0119999999999996,0.30217875678728034,-0.14626297998182825
-4.0114999999999998,0.60094365280212259,0.076266426526485451
-4.0110000000000001,0.72898575109431429,0.15044289536265748
-4.0105000000000004,0.77166645052500593,0.1610395337678153
-4.0099999999999998,0.75032610080967954,0.10805634174198775
-4.0095000000000001,0.84635767452882327,-0.04029659593035631
-4.0090000000000003,0.8890383739595149,-0.093279787956145277
-4.0084999999999997,0.79300680024030323,0.0020899576904290719
-4.008,0.67563487680590106,0.12924961855232261
-4.0075000000000003,0.57960330308684471,0.24581264100905836
-4.0069999999999997,0.55826295337177056,0.36237566346641092
-4.0065,0.97439977282101498,0.80743447648303834
-4.0060000000000002,1.3905365922706379,1.4538294191982519
-4.0054999999999996,0.771666450524084,1.2313000126887719
-4.0049999999999999,-0.28468086038553664,0.17163617217299235
-4.0045000000000002,-1.1062843244271001,-0.82444783791274634
-4.0039999999999996,-1.0636036249959426,-0.93041422196397738
-4.0034999999999998,-0.59411593125833329,-0.44296885532671876
-4.0030000000000001,-0.10328788780493176,0.12924961855232261
-4.0025000000000004,0.24882788249827514,0.58490506997410774
-4.0019999999999998,0.44089102993688295,0.87101430691404291
-4.0015000000000001,0.52625242879834411,1.0299638829915545
-4.0010000000000003,0.54759277851368993,1.0935437134225015
-4.0004999999999997,0.53692260365599753,1.1041403518277171
-4,0.50491207908297886,1.0935437134225592
-3.9994999999999998,0.4835717293676135,1.0723504366122243
-3.9990000000000001,0.4622313796522482,1.0511571598018894
-3.9984999999999999,0.21681735792554749,0.94519077575021493
-3.9980000000000002,-0.53009488211223732,0.2246193641988295
-3.9975000000000001,-1.3410281712961183,-0.72907809226623943
-3.9969999999999999,-1.9812386627570766,-1.523825972653797
-3.9965000000000002,-2.386705307349017,-2.043061254507001
-3.996,-1.7785053404611064,-1.6297923567054711
-3.9954999999999998,-0.83952995298503397,-0.84564111472308123
-3.9950000000000001,-0.071277363231883828,-0.19924617200786782
-3.9944999999999999,0.40888050536383502,0.20342608738849466
-3.9940000000000002,0.64362435223285308,0.31998910984533641
-3.9935,0.71831557623663156,0.30939247144016896
-3.9929999999999999,0.72898575109431429,0.26700591781949923
-3.9925000000000002,0.70764540137894905,0.20342608738849466
-3.992,0.65429452709053582,0.13984625695749003
-3.9914999999999998,0.59027347794443985,0.10805634174198775
-3.9910000000000001,0.53692260365602662,0.11865298014715518
-3.9904999999999999,0.51558225394066137,0.15044289536265748
-3.9900000000000002,0.71831557623663156,0.40476221708667587
-3.9895,1.2304839694053984,1.0723504366122243
-3.9889999999999999,0.93171907339028448,1.0405605213967219
-3.9885000000000002,-0.0072563140857879876,0.10805634174198775
-3.988,-0.95690187641954316,-0.87743102993858346
-3.9874999999999998,-1.1062843244271001,-1.1211537132574345
-3.9870000000000001,-0.70081767983515975,-0.62311170821456507
-3.9864999999999999,-0.20998963638175816,0.033879872905815719
-3.9860000000000002,0.17413665849481691,0.57430843156935485
-3.9855,0.40888050536383502,0.93459413734504748
-3.9849999999999999,0.51558225394066137,1.1359302670432285
-3.9845000000000002,0.54759277851370936,1.2207033742845681
-3.984,0.53692260365602662,1.241896651094903
-3.9834999999999998,0.51558225394066137,1.2313000126897355
-3.9830000000000001,0.4835717293676135,1.1995100974742332
-3.9824999999999999,0.4622313796522482,1.1571235438535634
-3.9820000000000002,0.40888050536383502,1.0511571598018894
-3.9815,-0.0072563140857879876,0.4471487707073456
-3.9809999999999999,-0.6047861061160158,-0.49595204735255594
-3.9805000000000001,-1.1916457232885611,-1.3436831197659505
-3.98,-1.5757720181651362,-1.8947083168346572
-3.9794999999999998,-1.2449965975769743,-1.5556158878692994
-3.9790000000000001,-0.55143523182760279,-0.85623775312824868
-3.9784999999999999,0.024754210487259936,-0.24163272562853755
-3.9780000000000002,0.3982103305061524,0.097459703336820316
-3.9775,0.62228400251748783,0.20342608738849466
-3.9769999999999999,0.69697522652126631,0.12924961855232261
-3.9765000000000001,0.70764540137894905,0.065669788121318018
-3.976,0.80367697509809277,-0.0085066807148540119
-3.9754999999999998,0.79300680024041004,-0.019103319120021445
-3.9750000000000001,0.69697522652126631,0.012686596095480854
-3.9744999999999999,0.60094365280212259,0.065669788121318018
-3.9740000000000002,0.53692260365602662,0.11865298014715518
-3.9735,0.45156120479456557,0.12924961855232261
-3.9729999999999999,-0.13529841237797968,-0.27342264084403983
-3.9725000000000001,-1.0102527507079564,-0.97280077558509037
-3.972,-1.7464948158880587,-1.6085990798951362
-3.9714999999999998,-2.3120140833452387,-2.0536578929121685
-3.9710000000000001,-2.3546947827759692,-2.0960444465328383
-3.9704999999999999,-1.5117509690190405,-1.2906999277401132
-3.9700000000000002,-0.64746680554674652,-0.34759910968021185
-3.9695,-0.0072563140857879876,0.38356894027634103
-3.9689999999999999,0.3768699807907871,0.83922439169854057
-3.9685000000000001,0.54759277851370936,1.0617537982070568
-3.968,0.59027347794443985,1.1253336286380615
-3.9674999999999998,0.57960330308675734,1.1041403518277266
-3.9670000000000001,0.53692260365602662,1.0511571598018894
-3.9664999999999999,0.50491207908297886,0.98757732937088472
-3.9660000000000002,0.4835717293676135,0.92399749893988004
-3.9655,0.45156120479456557,0.81803111488820579
-3.9649999999999999,0.31284893164469124,0.84982103010370802
-3.9645000000000001,-0.15663876209334496,1.2736865663104053
-3.964,-0.81818960326966872,1.2842832047155728
-3.9634999999999998,-1.1703053735731959,0.5637117931641874
-3.9630000000000001,-0.79684925355430347,0.25640927941433178
-3.9624999999999999,-0.22065981123944084,0.16103953376782493
-3.9620000000000002,0.24882788249859539,0.11865298014715518
-3.9615,0.52625242879834411,0.044476511310983152
-3.9609999999999999,0.65429452709053582,0.065669788121318018
-3.9605000000000001,0.66496470194821833,0.097459703336820316
-3.96,0.65429452709053582,0.055073149716150585
-3.9594999999999998,0.79300680024041004,0.15044289536265748
-3.9590000000000001,0.92104889853260175,0.2246193641988295
-3.9584999999999999,0.84635767452882327,0.30939247144016896
-3.9580000000000002,0.71831557623663156,0.39416557868150842
-3.9575,0.6116138276598051,0.48953532432801533
-3.9569999999999999,0.52625242879834411,0.57430843156935485
-3.9565000000000001,0.31284893164469124,0.46834204751768049
-3.956,-0.22065981123944084,-0.11447306476652835
-3.9554999999999998,-1.0315931004233216,-0.82444783791274634
-3.9550000000000001,-1.7464948158880587,-1.333086481360783
-3.9544999999999999,-1.9812386627570766,-1.5026326958434622
-3.9540000000000002,-1.3837088707268488,-0.91981758355925325
-3.9535,-0.62612645583138127,-0.093279787956193475
-3.9529999999999998,-0.028596663801153277,0.57430843156935485
-3.9525000000000001,0.34485945621773917,0.98757732937088472
-3.952,0.51558225394066137,1.1571235438535634
-3.9514999999999998,0.5689331282290746,1.1677201822587309
-3.9510000000000001,0.5689331282290746,1.0829470750173917
-3.9504999999999999,0.53692260365602662,0.96638405256054982
-3.9500000000000002,0.50491207908297886,0.82862775329337313
-3.9495,0.47290155450993088,0.71206473083653143
-3.9489999999999998,0.45156120479456557,0.59550170837968963
-3.9485000000000001,0.3768699807907871,0.51072860113835017
-3.948,0.50491207908297886,0.83922439169854057
-3.9474999999999998,0.38754015564846972,0.78624119967270345
-3.9470000000000001,-0.092617712947249131,0.012686596095480854
-3.9464999999999999,-0.31669138495858457,-0.37938902489571413
-3.9460000000000002,-0.15663876209334496,-0.42177557851638392
-3.9455,0.15279630877945163,-0.30521255605954212
-3.9449999999999998,0.41955068022151765,-0.11447306476652835
-3.9445000000000001,0.55826295337139209,0.0020899576903134209
-3.944,0.62228400251748783,0.055073149716150585
-3.9434999999999998,0.64362435223285308,0.055073149716150585
-3.9430000000000001,0.67563487680590106,-0.019103319120021445
-3.9424999999999999,0.80367697509809277,-0.14626297998203064
-3.9420000000000002,0.77166645052504479,0.0020899576903134209
-3.9415,0.67563487680590106,0.25640927941433178
-3.9409999999999998,0.59027347794443985,0.48953532432801533
-3.9405000000000001,0.52625242879834411,0.66967817721586165
-3.9399999999999999,0.20614718306786484,0.50013196273318283
-3.9394999999999998,-0.58344575640065055,-0.2310360872233701
-3.9390000000000001,-1.2556667724346571,-0.97280077558509037
-3.9384999999999999,-1.8318562147495197,-1.4814394190331273
-3.9380000000000002,-2.3440246079182865,-1.7569520175674804
-3.9375,-1.9705684878993939,-1.4708427806279598
-3.9369999999999998,-1.0956141495694174,-0.65490162343006741
-3.9365000000000001,-0.33803173467394987,0.11865298014715518
-3.9359999999999999,0.18480683335249956,0.62729162359519197
-3.9355000000000002,0.45156120479456557,0.88161094531921036
-3.9350000000000001,0.55826295337139209,0.93459413734504748
-3.9344999999999999,0.57960330308675734,0.88161094531921036
-3.9340000000000002,0.54759277851370936,0.76504792286236856
-3.9335,0.51558225394066137,0.63788826200035942
-3.9329999999999998,0.4835717293676135,0.52132523954351762
-3.9325000000000001,0.45156120479456557,0.42595549389701071
-3.9319999999999999,0.38754015564846972,0.31998910984533641
-3.9315000000000002,-0.028596663801153277,0.13984625695749003
-3.931,-0.73282820440820751,-0.32640583286987701
-3.9304999999999999,-1.1916457232885611,-1.0469772444212624
-3.9300000000000002,-1.4904106193036752,-1.5768091646796343
-3.9295,-1.1062843244271001,-1.333086481360783
-3.9289999999999998,-0.4554036581084589,-0.72907809226623943
-3.9285000000000001,0.11011560934872107,-0.2310360872233701
-3.9279999999999999,0.4622313796522482,0.097459703336820316
