Class_6_Listen_To_Quran/Class_6_Listen_To_Quran_Turki_9.csv

#Digilent WaveForms Oscilloscope Acquisition
#Device Name: EExplorer
#Serial Number: SN:210151A2B84A
#Date Time: 2020-12-16 09:44:19.030
#Sample rate: 2000Hz
#Samples: 16384
#Trigger: Source: Channel 1 Type: Edge Condition: Rising Level: 0 V Hyst.: Auto HoldOff: 0 s
#Channel 1: Range: 1 V/div Offset: 0 V Attenuation: 1 X
#Channel 2: Range: 1 V/div Offset: 0 V Attenuation: 1 X
#Power Supplies: ON
#Fixed Supply: ON
#Voltage: 3.3 V Readback: 3.324 V
#Positive Supply: ON
#Voltage: 3.7 V Readback: 3.716 V
#Current: 40 mA Readback: 22 mA
#Negative Supply: ON
#Voltage: -3.7 V Readback: -3.355 V
#Current: -40 mA Readback: -8 mA
#Reference 1: ON
#Voltage: 0 V
#Reference 2: ON
#Voltage: 0 V

Time (s),Channel 1 (V),Channel 2 (V)
-4.096,-0.1779791118087102,-0.8032545611024114
-4.0955,-0.220659811239402,-0.57012851618894
-4.095,0.1101156093494392,-0.02969995752451425
-4.0945,0.8997085488172365,0.7120647308365314
-4.094,1.689301488285034,1.347863035145999
-4.0935,1.998736559157626,1.559795803249136
-4.093,0.9850699476786977,0.6908714540261965
-4.0925,-0.3807124341034382,-0.4641621321360031
-4.092,-0.9782422261349278,-1.0045906908004
-4.0915,-0.9995825758502737,-0.792657922697244
-4.091,-0.7968492535543035,-0.2098428104130352
-4.0905,-0.5727755815428127,0.3941655786819421
-4.09,-0.4020527838200457,0.8710143069140429
-4.0895,-0.3060212101009019,1.178316820663898
-4.089,-0.2633405106702102,1.347863035146423
-4.0885,-0.274010685527854,1.400846227172415
-4.088,-0.3166913849585846,1.369056311956912
-4.0875,-0.3700422592469493,1.210106735879545
-4.087,-0.6367966306890734,0.934594137345115
-4.0865,-0.6474668055467465,1.00877060618122
-4.086,0.2381577076401072,1.29487984312048
-4.0855,1.251824319121084,1.549199164844508
-4.085,1.603940089424291,1.273686566310405
-4.0845,0.9530594231062417,0.3835689402771506
-4.084,0.2915085819289572,-0.5277419625686655
-4.0835,-0.1139580626626144,-1.195330182093607
-4.083,-0.2633405106701714,-1.576809164679634
-4.0825,-0.2953510352431902,-1.778145294377854
-4.082,-0.2633405106701714,-1.820531847998485
-4.0815,-0.2099896363817582,-1.788741932782983
-4.081,-0.007256314085972354,-1.460246142223091
-4.0805,0.04609456020262521,-1.205926820498774
-4.08,-0.02859666380115328,-1.05757388282643
-4.0795,-0.1246282375202097,-0.8986243067490629
-4.079,-0.2099896363816611,-0.6972881770503999
-4.0785,-0.1032878878049318,-0.326405832869877
-4.078,0.5369226036554442,0.3623756634653797
-4.0775,1.379866417413518,1.072350436612658
-4.077,1.998736559158548,1.549199164844759
-4.0765,1.475897991132574,1.199510097474551
-4.076,0.08877525963255031,0.06566978812052773
-4.0755,-0.7968492535543035,-0.8032545611024114
-4.075,-0.9782422261349084,-0.8668343915334161
-4.0745,-0.8502001278425226,-0.4217755785158538
-4.074,-0.6367966306890638,0.1610395337678249
-4.0735,-0.4554036581084589,0.6590815388106942
-4.073,-0.3380317346740566,1.019367244586059
-4.0725,-0.2846808603855366,1.231300012689736
-4.072,-0.274010685527854,1.33726639674141
-4.0715,-0.2953510352431999,1.347863035146568
-4.071,-0.3487019095317975,1.241896651094672
-4.0705,-0.5300948821122373,0.9875773293708847
-4.07,-0.7861790786963878,0.9875773293708847
-4.0695,-0.1032878878039904,1.252493289500321
-4.069,0.9317190733902845,1.528005888034424
-4.0685,1.603940089424291,1.464426057603419
-4.068,1.081101521397094,0.6378882619994825
-4.0675,0.2594980573562781,-0.326405832869877
-4.067,-0.1779791118087102,-1.089363798041932
-4.0665,-0.3166913849585749,-1.566212526274688
-4.066,-0.3060212101009019,-1.809935209593318
-4.0655,-0.274010685527854,-1.894708316834657
-4.065,-0.2206598112394894,-1.862918401619184
-4.0645,-0.1139580626626144,-1.735758740757146
-4.064,-0.06060718837420119,-1.523825972653797
-4.0635,-0.1032878878048929,-1.280103289335167
-4.063,-0.1673089369510858,-1.01518732920551
-4.0625,-0.2313299860971235,-0.7396747306714069
-4.062,-0.2206598112394506,-0.4005823017063574
-4.0615,0.2488278824993523,0.2246193641994752
-4.061,1.081101521397841,0.9345941373450475
-4.0605,1.838683936293309,1.485619334413754
-4.06,1.817343586576799,1.432636142386953
-4.0595,0.5582629533713921,0.3729723018711736
-4.059,-0.6474668055467465,-0.7078848154559045
-4.0585,-1.031593100422972,-1.025783967610638
-4.058,-0.9569018764195432,-0.6760949002404023
-4.0575,-0.7328282044082075,-0.08268314955102604
-4.057,-0.5194247072547489,0.4683420475171793
-4.0565,-0.3807124341046804,0.8710143069140429
-4.056,-0.2953510352432193,1.135930267043229
-4.0555,-0.2740106855278734,1.263089927905122
-4.055,-0.2953510352432484,1.294879843120682
-4.0545,-0.3273615598162672,1.231300012689736
-4.054,-0.4127229586776507,1.029963882991738
-4.0535,-0.7648387289809255,0.8392243916987333
-4.053,-0.4020527838200457,1.051157159801889
-4.0525,0.6009436528021226,1.369056311956912
-4.052,1.49723834084728,1.538602526439071
-4.0515,1.294505018551494,0.9663840525605498
-4.051,0.291508581929326,0.04447651131098315
-4.0505,-0.5514352318268361,-0.7502713690758515
-4.05,-0.839529952985034,-1.322489842955616
-4.0495,-0.7434983792658902,-1.650985633515806
-4.049,-0.5407650569701045,-1.788741932782858
-4.0485,-0.3487019095314772,-1.799338571188092
-4.048,-0.1779791118087102,-1.735758740757146
-4.0475,0.003413860771729671,-1.449649503817885
-4.047,0.003413860771817014,-1.248313374119289
-4.0465,-0.08194753808956648,-1.078767159636765
-4.046,-0.16730893695095,-0.8880276683439243
-4.0455,-0.2206598112391012,-0.6337083466192025
-4.045,0.1527963087794516,-0.05089323433552374
-4.0445,0.9637295979633325,0.7226613692416989
-4.044,1.742652362574476,1.358459673552024
-4.0435,2.08409795802001,1.6657621873016
-4.043,1.102441871113207,1.040560521396722
-4.0425,-0.3273615598149671,-0.1674562567912667
-4.042,-1.010252750707956,-0.8986243067489184
-4.0415,-1.052933450138687,-0.8456411147230812
-4.041,-0.8502001278429011,-0.3370024712755071
-4.0405,-0.6047861061158508,0.2564092794147848
-4.04,-0.423393133535411,0.7544512844572011
-4.0395,-0.3166913849586816,1.093543713422251
-4.039,-0.2740106855278637,1.294879843120827
-4.0385,-0.2846808603855366,1.390249588767247
-4.038,-0.3166913849585554,1.369056311956932
-4.0375,-0.3700422592472598,1.231300012689514
-4.037,-0.658136980404429,0.9875773293708847
-4.0365,-0.7114878546928423,1.093543713422559
-4.036,0.1527963087803832,1.369056311957124
-4.0355,1.177133095116985,1.602182356870596
-4.035,1.475897991132099,1.220703374284568
-4.0345,0.5902734779452453,0.1928294489842619
-4.034,-0.3700422592469978,-0.6866915386455698
-4.0335,-0.8181896032696687,-1.290699927740113
-4.033,-0.7755089038389771,-1.672178910325794
-4.0325,-0.5621054066850912,-1.905304955239873
-4.032,-0.3487019095316325,-1.958288147265661
-4.0315,-0.1779791118088655,-1.915901593645031
-4.031,0.06743490991803902,-1.629792356705269
-4.0305,0.1207857842064037,-1.407262950196955
-4.03,0.02475421048734729,-1.237716735714431
-4.0295,-0.09261771294734618,-1.057573882826237
-4.029,-0.1993194615240755,-0.8456411147230812
-4.0285,-0.04993701351651855,-0.4111789401112165
-4.028,0.6649647019489753,0.3729723018718386
-4.0275,1.497238340847464,1.104140351827727
-4.027,2.08409795802001,1.591585718465428
-4.0265,1.593269914567054,1.241896651095221
-4.026,0.142126133921769,0.08686306493165288
-4.0255,-0.8822106524157645,-0.8774310299385835
-4.025,-1.106284324426896,-1.025783967610792
-4.0245,-0.9569018764193102,-0.591321792998475
-4.024,-0.7008176798351597,0.05507314971615059
-4.0235,-0.487414182681701,0.6166949851895137
-4.023,-0.3487019095315743,1.029963882991786
-4.0225,-0.2846808603855366,1.284283204715573
-4.022,-0.2740106855278637,1.411442865577466
-4.0215,-0.3060212101009407,1.411442865577486
-4.021,-0.3487019095316325,1.305476481525908
-4.0205,-0.4874141826815069,1.072350436612224
-4.02,-0.8075194284114522,1.040560521396934
-4.0195,-0.2206598112394408,1.273686566310405
-4.019,0.8143471499557753,1.528005888034424
-4.0185,1.561259389992881,1.506812611224108
-4.018,1.19847344483235,0.7226613692416989
-4.0175,0.4729015545099309,-0.2416327256285375
-4.017,0.003413860772321642,-0.993994052394741
-4.0165,-0.209989636381797,-1.502632695843742
-4.016,-0.2526703358124887,-1.809935209593318
-4.0155,-0.22065981123947,-1.937094870455211
-4.015,-0.1673089369508626,-1.926498232049928
-4.0145,0.01408403562957729,-1.672178910326141
-4.014,0.1634664836369984,-1.311893204550776
-4.0135,0.09944543449091227,-1.131750351662477
-4.013,-0.03926683865883591,-0.9939940523954253
-4.0125,-0.1673089369510276,-0.8244478379127463
-4.012,-0.1779791118082347,-0.5277419625674511
-4.0115,0.3448594562177392,0.13984625695749
-4.011,1.187803269974668,0.9028042221295453
-4.0105,1.902704985438755,1.475022696008066
-4.01,1.913375160297087,1.411442865577582
-4.0095,0.6436243522328531,0.3411823866556712
-4.009,-0.7434983792646286,-0.7926579226962128
-4.0085,-1.277007122149945,-1.269506650929499
-4.008,-1.191645723288561,-0.9622041371799229
-4.0075,-0.9035510021313919,-0.2734226408446662
-4.007,-0.6154562809735141,0.4047622170871481
-4.0065,-0.4127229586777283,0.92399749893988
-4.006,-0.3060212101009019,1.25249328950007
-4.0055,-0.2740106855278637,1.422039503982788
-4.005,-0.2846808603855366,1.464426057603419
-4.0045,-0.3273615598162672,1.400846227172415
-4.004,-0.4020527838203563,1.167720182258529
-4.0035,-0.7434983792658902,0.9451907757502149
-4.003,-0.4980843575391895,1.114736990232894
-4.0025,0.4835717293667206,1.390249588766997
-4.002,1.422547116843686,1.549199164844759
-4.0015,1.326515543124542,0.9663840525605498
-4.001,0.4195506802223425,0.03387987290666383
-4.0005,-0.3593720843895869,-0.7714646458874392
-4,-0.658136980404429,-1.354279758171118
-3.9995,-0.6367966306890638,-1.672178910326141
-3.999,-0.4767440078238243,-1.778145294377815
-3.9985,-0.2846808603855366,-1.831128486403653
-3.998,-0.124628237520297,-1.79933857118815
-3.9975,0.08877525963335578,-1.51322933424863
-3.997,0.07810508477567314,-1.333086481360783
-3.9965,-0.02859666380115328,-1.174136905283272
-3.996,-0.1459685872356623,-0.9833974139902578
-3.9955,-0.2206598112394408,-0.7396747306714069
-3.995,0.09944543449103843,-0.1780528951975329
-3.9945,0.8997085488172365,0.6166949851900245
-3.994,1.689301488285752,1.284283204715573
-3.9935,2.094768132877692,1.686955464111935
-3.993,1.209143619690033,1.400846227172415
-3.9925,-0.2526703358124887,0.2670059178194992
-3.992,-1.010252750707956,-0.6337083466197325
-3.9915,-1.084943974711735,-0.7396747306714069
-3.991,-0.8822106524157645,-0.326405832869877
-3.9905,-0.6367966306890638,0.2458126410091644
-3.99,-0.4447334832507763,0.7544512844572011
-3.9895,-0.3273615598162672,1.125333628638062
-3.989,-0.274010685527854,1.358459673551745
-3.9885,-0.2846808603855366,1.464426057603419
-3.988,-0.3273615598162672,1.453829419198252
-3.9875,-0.3807124341046804,1.305476481525908
-3.987,-0.6154562809736985,1.019367244586387
-3.9865,-0.6688071552621118,1.051157159801889
-3.986,0.1741366584948169,1.316073119931075
-3.9855,1.19847344483235,1.549199164844759
-3.985,1.614610264281974,1.358459673551745
-3.9845,0.8997085488172365,0.457745409112513
-3.984,0.05676473506030786,-0.4853554089473885
-3.9835,-0.3487019095316325,-1.152943628472937
-3.983,-0.4340633083930936,-1.566212526274467
-3.9825,-0.3700422592469978,-1.809935209593318
-3.982,-0.2526703358124887,-1.915901593644992
-3.9815,-0.1459685872356623,-1.926498232050159
-3.981,-0.03926683865883591,-1.88411167842949
-3.9805,-0.02859666380115328,-1.714565463946811
-3.98,-0.1032878878049318,-1.460246142222792
-3.9795,-0.1886492866663929,-1.174136905283272
-3.979,-0.2420001609548061,-0.8562377531282487
-3.9785,-0.1139580626626144,-0.3899856633008816
-3.978,0.5902734779444399,0.383568940276341
-3.9775,1.433217291701369,1.114736990232894
-3.977,2.041417258589279,1.580989080060261
-3.9765,1.593269914566608,1.178316820663898
-3.976,0.1741366584948169,-0.008506680714854012
-3.9755,-0.839529952985034,-0.9092209451540858
-3.975,-1.06360362499637,-1.004590690800593
-3.9745,-0.9248913518464952,-0.5489352393783931
-3.974,-0.690147504977477,0.07626642652648545
-3.9735,-0.4874141826815069,0.627291623595192
-3.973,-0.3593720843893152,1.019367244586387
-3.9725,-0.2953510352432193,1.263089927905238
-3.972,-0.274010685527854,1.37965295036208
-3.9715,-0.3060212101009019,1.37965295036208
-3.971,-0.3487019095316325,1.284283204715573
-3.9705,-0.4767440078238243,1.029963882991555
-3.97,-0.807519428411986,0.9557874141553824
-3.9695,-0.2313299860971235,1.199510097474233
-3.969,0.8036769750980928,1.475022696008586
-3.9685,1.529248865420512,1.506812611224089
-3.968,1.102441871113207,0.8180311148882058
-3.9675,0.3235191065023739,-0.1250697031716958
-3.967,-0.156638762093345,-0.9304142219644207
-3.9665,-0.3380317346739499,-1.47084278062796
-3.966,-0.3593720843893152,-1.75695201756748
-3.9655,-0.3060212101009019,-1.862918401619155
-3.965,-0.2526703358124887,-1.905304955239825
-3.9645,-0.156638762093345,-1.831128486403653
-3.964,-0.04993701351651855,-1.682775548731308
-3.9635,-0.08194753808956648,-1.481439419033127
-3.963,-0.156638762093345,-1.237716735714276
-3.9625,-0.2206598112394408,-0.9622041371799229
-3.962,-0.2099896363817582,-0.6231117082145651
-3.9615,0.291508581929326,0.05507314971615059
-3.961,1.134452395686255,0.849821030103708
-3.9605,1.870694460866357,1.443232780793084
-3.96,1.945385684870135,1.485619334413754
-3.9595,0.7183155762366316,0.4895353243280153
-3.959,-0.5941159312583333,-0.6443049850249
-3.9585,-1.06360362499637,-1.068170521231597
-3.958,-1.020922925565639,-0.7608680074817418
-3.9575,-0.7861790786966207,-0.1462629799820306
-3.957,-0.5621054066852853,0.4471487707073456
-3.9565,-0.4020527838200457,0.9028042221295453
-3.956,-0.3060212101009019,1.199510097474233
-3.9555,-0.274010685527854,1.358459673551745
-3.955,-0.2953510352432193,1.411442865577582
-3.9545,-0.3380317346739499,1.369056311956912
-3.954,-0.4127229586777283,1.178316820663898
-3.9535,-0.7648387289812555,0.8286277532933731
-3.953,-0.5621054066852853,0.8392243916985406
-3.9525,0.408880505363835,1.146526905448396
-3.952,1.379866417412955,1.42203950398275
-3.9515,1.411876941986003,0.9875773293708847
-3.951,0.5689331282290746,0.04447651131098315
-3.9505,-0.09261771294724913,-0.792657922697244
-3.95,-0.423393133535411,-1.375473034981453
-3.9495,-0.4447334832507763,-1.703968825541643
-3.949,-0.3700422592469978,-1.852321763213987
-3.9485,-0.2846808603855366,-1.905304955239825
-3.948,-0.1993194615240755,-1.88411167842949
-3.9475,-0.1139580626626144,-1.703968825541643
-3.947,-0.1139580626626144,-1.51322933424863
-3.9465,-0.1673089369510276,-1.301296566145281
-3.946,-0.2206598112394408,-1.05757388282643
-3.9455,-0.2526703358124887,-0.792657922697244
-3.945,0.0674349099179905,-0.2416327256285375
-3.9445,0.8783681991018712,0.5637117931641874
-3.944,1.678631313428069,1.241896651094903
-3.9435,2.094768132877692,1.570392441655093
-3.943,1.219813794547716,0.8180311148882058
-3.9425,-0.2526703358124887,-0.3899856633008816
-3.942,-1.042263275281004,-1.089363798041932
-3.9415,-1.127624674142465,-0.9622041371799229
-3.941,-0.9142211769888124,-0.3899856633008816
-3.9405,-0.658136980404429,0.2352160026039969
-3.94,-0.4554036581084589,0.7438546460520338
-3.9395,-0.3380317346739499,1.093543713422559
-3.939,-0.2846808603855366,1.284283204715573
-3.9385,-0.2846808603855366,1.369056311956912
-3.938,-0.3166913849585846,1.347863035146577
-3.9375,-0.3700422592469978,1.210106735879401
-3.937,-0.6047861061160158,0.9134008605347127
-3.9365,-0.690147504977477,0.9451907757502149
-3.936,0.142126133921769,1.231300012689736
-3.9355,1.166462920259302,1.506812611224089
-3.935,1.593269914566608,1.305476481525908
-3.9345,0.8143471499557753,0.4365521323021782
-3.934,-0.1779791118087102,-0.4641621321370536
-3.9335,-0.7114878546928423,-1.152943628472937
-3.933,-0.754168554123573,-1.608599079895136
-3.9325,-0.5941159312583333,-1.852321763213987
-3.932,-0.3807124341046804,-1.926498232050159
-3.9315,-0.2313299860971235,-1.937094870455327
-3.931,-0.03926683865883591,-1.831128486403653
-3.9305,0.02475421048725994,-1.629792356705471
-3.93,-0.03926683865883591,-1.364876396576285
-3.9295,-0.1352984123779797,-1.089363798041932
-3.929,-0.2206598112394408,-0.7820612842920766
-3.9285,-0.1139580626626144,-0.3581957480853793
-3.928,0.5582629533713921,0.3941655786815084
-3.9275,1.390536592270638,1.104140351827727
-3.927,2.030747083731597,1.580989080060261
-3.9265,1.667961138570387,1.220703374284568
-3.926,0.2488278824985954,0.04447651131098315
-3.9255,-0.8502001278427167,-0.9092209451540858
-3.925,-1.116954499284783,-1.004590690800593
-3.9245,-0.9782422261349084,-0.5277419625680583
-3.924,-0.7328282044082075,0.09745970333682032
-3.9235,-0.5087545323968721,0.6378882620003594
-3.923,-0.3700422592469978,1.019367244586387
-3.9225,-0.2953510352432193,1.25249328950007
-3.922,-0.2846808603855366,1.358459673551745
-3.9215,-0.3060212101009019,1.358459673551745
-3.921,-0.3487019095316325,1.263089927905238
-3.9205,-0.4767440078238243,1.00877060618122
-3.92,-0.807519428411986,0.9345941373450475
-3.9195,-0.2633405106701714,1.178316820663898
-3.919,0.7716664505250448,1.453829419198252
-3.9185,1.550589215135878,1.496215972818921
-3.918,1.209143619690033,0.7650479228623686
-3.9175,0.3982103305061524,-0.2098428104130352
-3.917,-0.1139580626626144,-0.9939940523954253
-3.9165,-0.3380317346739499,-1.492036057438295
-3.916,-0.3700422592469978,-1.75695201756748
-3.9155,-0.3166913849585846,-1.852321763213987
-3.915,-0.2420001609548061,-1.820531847998485
-3.9145,-0.124628237520297,-1.650985633515806
-3.914,-0.01792648894347063,-1.375473034981453
-3.9135,-0.04993701351651855,-1.227120097309109
-3.913,-0.1352984123779797,-1.089363798041932
-3.9125,-0.2099896363817582,-0.8880276683437509
-3.912,-0.2313299860971235,-0.6125150698093976
-3.9115,0.2381577076409128,0.03387987290581572
-3.911,1.081101521397841,0.8074344764830383
-3.9105,1.828013761435626,1.411442865577582
-3.91,2.009406734016231,1.655165548896433
-3.9095,0.857027849386506,0.9875773293708847
-3.909,-0.4980843575391895,-0.1674562567923655
-3.9085,-1.042263275281004,-0.7502713690765743
-3.908,-1.020922925565639,-0.5913217929990628
-3.9075,-0.807519428411986,-0.08268314955102604
-3.907,-0.5834457564006506,0.4789386859228479
-3.9065,-0.4127229586777283,0.9134008605347127
-3.906,-0.3166913849585846,1.220703374284568
-3.9055,-0.2846808603855366,1.400846227172415
-3.905,-0.2953510352432193,1.464426057603419
-3.9045,-0.3273615598162672,1.42203950398275
-3.904,-0.4020527838200457,1.241896651094903
-3.9035,-0.7755089038389382,0.9769806909657173
-3.903,-0.6367966306890638,1.104140351827727
-3.9025,0.3128489316446912,1.369056311956912
-3.902,1.315845368266859,1.559795803249926
-3.9015,1.422547116843686,1.114736990232894
-3.901,0.5902734779444399,0.1610395337678249
-3.9005,-0.156638762093345,-0.718481453861072
-3.9,-0.5087545323968721,-1.354279758171118
-3.8995,-0.5407650569699201,-1.725162102351978
-3.899,-0.4447334832507763,-1.926498232050159
-3.8985,-0.3166913849585846,-2.011271339291499
-3.898,-0.1886492866663929,-1.990078062481164
-3.8975,-0.007256314085787988,-1.88411167842949
-3.897,0.00341386077189465,-1.640388995110639
-3.8965,-0.08194753808956648,-1.333086481360783
-3.896,-0.1673089369510276,-1.01518732920576
-3.8955,-0.2313299860971235,-0.6866915386455698
-3.895,0.00341386077189465,-0.1568596183871981
-3.8945,0.7716664505250448,0.6166949851900245
-3.894,1.582599739708926,1.263089927905238
-3.8935,2.030747083731597,1.580989080060261
-3.893,1.219813794547716,0.8392243916985406
-3.8925,-0.2313299860971235,-0.3899856633008816
-3.892,-1.052933450138687,-1.131750351662602
-3.8915,-1.138294849000148,-1.05757388282643
-3.891,-0.9248913518464952,-0.5065486857577234
-3.8905,-0.6688071552621118,0.1292496185523226
-3.89,-0.4554036581084589,0.6590815388106942
-3.8895,-0.3380317346739499,1.00877060618122
-3.889,-0.2846808603855366,1.210106735879401
-3.8885,-0.2846808603855366,1.284283204715573
-3.888,-0.3166913849585846,1.263089927905238
-3.8875,-0.3807124341046804,1.135930267043229
-3.887,-0.572775581542968,0.8710143069140429
-3.8865,-0.7114878546928423,0.92399749893988
-3.886,0.0674349099179905,1.220703374284568
