Class_6_Listen_To_Quran/Class_6_Listen_To_Quran_Suko_1.csv

#Digilent WaveForms Oscilloscope Acquisition
#Device Name: EExplorer
#Serial Number: SN:210151A2B84A
#Date Time: 2020-10-20 13:23:39.360
#Sample rate: 2000Hz
#Samples: 16384
#Trigger: Source: Channel 1 Type: Edge Condition: Rising Level: 0 V Hyst.: Auto HoldOff: 0 s
#Channel 1: Range: 1 V/div Offset: 0 V
#Channel 2: Range: 1 V/div Offset: 0 V

Time (s),Channel 1 (V),Channel 2 (V)
-4.0960000000000001,1.0490909968247935,0.53192187794868506
-4.0955000000000004,0.55826295337183851,0.17163617217332
-4.0949999999999998,0.25949805735613252,0.012686596095490492
-4.0945,0.099445434491038431,0.023283234500648287
-4.0940000000000003,0.046094560202673739,0.13984625695738401
-4.0934999999999997,0.046094560202634922,0.30939247144030391
-4.093,0.05676473506030786,0.45774540911251305
-4.0925000000000002,0.078105084775653727,0.48953532432798641
-4.0919999999999996,0.099445434491048132,0.59550170837980532
-4.0914999999999999,0.11011560934872107,0.72266136924169888
-4.0910000000000002,0.11011560934872107,0.83922439169854057
-4.0904999999999996,0.078105084775294667,0.84982103010328391
-4.0899999999999999,-0.33803173467394987,0.38356894027634103
-4.0895000000000001,-1.1489650238578306,-0.40058230170604903
-4.0890000000000004,-1.8958772638949362,-1.0469772444206744
-4.0884999999999998,-1.9919088376147593,-0.82444783791274634
-4.0880000000000001,-2.0772702364762203,0.097459703336820316
-4.0875000000000004,-1.7998456901767239,0.63788826199986792
-4.0869999999999997,-1.6611334170262773,-0.072086511146475421
-4.0865,-1.3090176467230703,-0.75027136907657432
-4.0860000000000003,-0.76483872898175043,-1.025783967610677
-4.0854999999999997,-0.41272295867745662,-1.195330182093568
-4.085,-0.11395806266261441,-1.1529436284729369
-4.0845000000000002,0.1101156093485173,-1.0151873292058853
-4.0839999999999996,0.16346648363711488,-0.90922094515398943
-4.0834999999999999,0.14212613392176898,-0.80325456110241145
-4.0830000000000002,0.13145595906408636,-0.68669153864556975
-4.0824999999999996,0.13145595906429985,-0.54893523937798827
-4.0819999999999999,0.36619980593310447,-0.10387642636136091
-4.0815000000000001,1.1024418711132067,0.68027481562102909
-4.0810000000000004,1.9027049854386768,1.3902495887666015
-4.0804999999999998,2.3508523294620756,1.8459050401894466
-4.0800000000000001,2.2014698814545186,1.7823252097584423
-4.0795000000000003,1.5719295648518155,1.16772018225929
-4.0789999999999997,0.92104889853218441,0.4895353243276202
-4.0785,0.4622313796522482,0.055073149716150585
-4.0780000000000003,0.1954770082104248,-0.072086511145742951
-4.0774999999999997,0.078105084775644026,0.0020899576904772599
-4.077,0.046094560202625215,0.18223281057815977
-4.0765000000000002,0.056764735060298152,0.39416557868131563
-4.0759999999999996,0.024754210487250232,0.35177902506083869
-4.0754999999999999,0.014084035629577295,0.35177902506083869
-4.0750000000000002,0.035424385344942577,0.55311515475901996
-4.0744999999999996,0.056764735060327268,0.78624119967286732
-4.0739999999999998,0.078105084775673142,0.96638405256054982
-4.0735000000000001,0.078105084775673142,0.76504792286236856
-4.0730000000000004,0.046094560202654331,0.044476511311638545
-4.0724999999999998,-0.0072563140857879876,-0.70788481545590454
-4.0720000000000001,-0.12462823752029703,-0.95160749877475548
-4.0715000000000003,-0.70081767983463572,-0.24163272562918325
-4.0709999999999997,-1.1596351987153677,0.45774540911249378
-4.0705,-0.99958257585027366,0.43655213230217815
-4.0700000000000003,-0.626126455831721,0.086863064931970879
-4.0694999999999997,-0.56210540668552789,-0.60191843140499168
-4.069,-0.82885977812735145,-1.4390528654124575
-4.0685000000000002,-0.58344575640065055,-1.5344226110589645
-4.0679999999999996,-0.40205278381988074,-1.523825972653662
-4.0674999999999999,-0.22065981123944084,-1.3754730349814528
-4.0670000000000002,0.024754210487259936,-1.0681705212315973
-4.0664999999999996,0.13145595906408636,-0.82444783791262111
-4.0659999999999998,0.13145595906408636,-0.68669153864556975
-4.0655000000000001,0.19547700821018218,-0.36879238649054674
-4.0650000000000004,0.56893312822873487,0.33058574824986781
-4.0644999999999998,1.2731646688361289,1.0935437134225592
-4.0640000000000001,2.0200769088739139,1.655165548896433
-4.0635000000000003,2.4575540780385041,1.9094848706202199
-4.0629999999999997,2.1054383077347247,1.47502269600796
-4.0625,1.3905365922706379,0.78624119967270345
-4.0620000000000003,0.75032610081026185,0.28819919463028709
-4.0614999999999997,0.33418928135985276,0.0444765113109446
-4.0609999999999999,0.11011560934872107,0.0020899576903134209
-4.0605000000000002,0.024754210487259936,0.12924961855232261
-4.0599999999999996,0.02475421048726964,0.31998910984544243
-4.0594999999999999,0.035424385344942577,0.43655213230217815
-4.0590000000000002,0.046094560202625215,0.48953532432801533
-4.0585000000000004,0.056764735060298152,0.64848490040538231
-4.0579999999999998,0.078105084775673142,0.82862775329337313
-4.0575000000000001,0.08877525963335578,0.96638405256054982
-4.0570000000000004,-0.0072563140857006408,0.91340086053476088
-4.0564999999999998,-0.63679663068906378,0.26700591781949923
-4.056,-1.522421143876723,-0.54893523937839306
-4.0555000000000003,-2.1412912856217536,-1.0469772444208094
-4.0549999999999997,-2.2053123347684607,-0.52774196256726802
-4.0545,-2.2586632090568255,0.34118238665567124
-4.0540000000000003,-1.6504632421694678,0.56371179316398501
-4.0534999999999997,-0.93556152670366333,0.25640927941394626
-4.0529999999999999,-0.3700422592469978,-0.1674562567923655
-4.0525000000000002,-0.028596663801153277,-0.53833860097322561
-4.0519999999999996,0.067434909917505281,-0.84564111472374626
-4.0514999999999999,-0.46607383296614152,-1.5768091646796343
-4.0510000000000002,-0.55143523182760279,-1.7039688255416432
-4.0505000000000004,-0.4340633083932004,-1.5450192494642765
-4.0499999999999998,-0.30602121010090194,-1.2906999277401132
-4.0495000000000001,-0.071277363231883828,-0.89862430674891836
-4.0490000000000004,0.15279630877924785,-0.47475877054260657
-4.0484999999999998,0.65429452709124425,0.24581264100990649
-4.048,1.4332172917013686,1.0617537982070568
-4.0475000000000003,2.0307470837310531,1.6551655488958934
-4.0469999999999997,2.3721926791772083,1.9518714242408415
-4.0465,2.1161084825930576,1.6445689104912655
-4.0460000000000003,1.4545576414173356,0.94519077575085098
-4.0454999999999997,0.84635767452843513,0.42595549389673121
-4.0449999999999999,0.41955068022151765,0.11865298014715518
-4.0445000000000002,0.16346648363713429,0.023283234500648287
-4.0439999999999996,0.046094560202605807,0.097459703336964881
-4.0434999999999999,0.024754210487259936,0.25640927941433178
-4.0430000000000001,0.035424385344942577,0.43655213230217815
-4.0425000000000004,0.056764735060288452,0.51072860113828267
-4.0419999999999998,0.078105084775673142,0.6590815388106942
-4.0415000000000001,0.08877525963335578,0.82862775329337313
-4.0410000000000004,0.099445434491028731,0.96638405256042459
-4.0404999999999998,0.05676473505987116,0.93459413734445962
-4.04,-0.42339313353541097,0.28819919462983412
-4.0395000000000003,-1.2663369472915731,-0.55953187778278946
-4.0389999999999997,-1.8852070890381851,-1.2165234589038163
-4.0385,-2.1626316353376818,-1.0787671596367647
-4.0380000000000003,-2.4507263564948509,-0.14626297998287874
-4.0374999999999996,-2.0345895370447717,0.42595549389691434
-4.0369999999999999,-1.2449965975769743,0.31998910984533641
-4.0365000000000002,-0.58344575640065055,-0.04029659593035631
-4.0359999999999996,-0.14596858723544884,-0.42177557851665376
-4.0354999999999999,0.08877525963335578,-0.71848145386107198
-4.0350000000000001,0.17413665849481691,-0.89862430674891836
-4.0345000000000004,0.1101156093487793,-1.0787671596366009
-4.0339999999999998,-0.50875453239687207,-1.6933721871364757
-4.0335000000000001,-0.54076505696992005,-1.6297923567054711
-4.0330000000000004,-0.42339313353551772,-1.3860696733868418
-4.0324999999999998,-0.26334051066976383,-1.0893637980413058
-4.032,0.18480683335249956,-0.40058230170604903
-4.0315000000000003,1.102441871112372,0.57430843156846823
-4.0309999999999997,1.8920348105820035,1.3584596735521786
-4.0305,2.2014698814545186,1.8353084017842791
-4.0300000000000002,2.0094067340164057,1.7823252097584905
-4.0294999999999996,1.4118769419854695,1.1465269054478273
-4.0289999999999999,0.82501732481345802,0.52132523954351762
-4.0285000000000002,0.40888050536383502,0.15044289536265748
-4.0279999999999996,0.17413665849471988,0.033879872905873548
-4.0274999999999999,0.067434909917990504,0.097459703336820316
-4.0270000000000001,0.035424385344942577,0.25640927941433178
-4.0265000000000004,0.046094560202615514,0.44714877070717213
-4.0259999999999998,0.046094560202625215,0.48953532432801533
-4.0255000000000001,0.067434909917990504,0.58490506997452218
-4.0250000000000004,0.088775259633336379,0.76504792286220469
-4.0244999999999997,0.099445434491038431,0.92399749893995708
-4.024,0.099445434491038431,1.0087706061812196
-4.0235000000000003,0.18480683335242193,0.73325800764711691
-4.0229999999999997,0.51558225394099133,-0.040296595931117681
-4.0225,0.87836819910187125,-0.87743102993858346
-4.0220000000000002,1.0384208219669651,-1.3118932045500529
-4.0214999999999996,0.31284893164385663,-0.70788481545510462
-4.0209999999999999,-0.6047861061160158,0.17163617217299235
-4.0205000000000002,-0.80751942841198598,0.34118238665567124
-4.0199999999999996,-0.62612645583112891,0.08686306493131557
-4.0194999999999999,-0.34870190953163249,-0.28401927924920728
-4.0190000000000001,-0.11395806266261441,-0.60191843140423029
-4.0185000000000004,0.024754210487133776,-0.83504447631770173
-4.0179999999999998,0.08877525963335578,-0.97280077558509037
-4.0175000000000001,-0.028596663801153277,-1.1741369052832717
-4.0170000000000003,-0.60478610611549177,-1.7251621023514769
-4.0164999999999997,-0.55143523182743781,-1.5874058030844254
-4.016,-0.3700422592469978,-1.1741369052832717
-4.0155000000000003,-0.12462823752052024,-0.6549016234305397
-4.0149999999999997,0.40888050536451431,0.27760255622547625
-4.0145,1.1557927454016199,1.1677201822587309
-4.0140000000000002,1.8600242860080338,1.7187453793269365
-4.0134999999999996,1.9560558597273521,1.6657621873011186
-4.0129999999999999,1.4438874665590511,1.1359302670432285
-4.0125000000000002,0.857027849386506,0.54251851635385251
-4.0119999999999996,0.44089102993665974,0.19282944898321155
-4.0114999999999998,0.19547700821018218,0.065669788121318018
-4.0110000000000001,0.08877525963335578,0.10805634174198775
-4.0105000000000004,0.046094560202664031,0.25640927941419689
-4.0099999999999998,0.046094560202625215,0.42595549389701071
-4.0095000000000001,0.046094560202625215,0.51072860113835017
-4.0090000000000003,0.056764735060298152,0.53192187794866574
-4.0084999999999997,0.067434909918009919,0.68027481562116399
-4.008,0.08877525963335578,0.82862775329337313
-4.0075000000000003,0.08877525963335578,0.93459413734495111
-4.0069999999999997,0.067434909917971089,0.83922439169790453
-4.0065,0.046094560202625215,0.13984625695749003
-4.0060000000000002,0.024754210487259936,-0.73967473067140688
-4.0054999999999996,-0.0072563140861858708,-1.4496495038177695
-4.0049999999999999,-0.44473348325077627,-1.6085990798951362
-4.0045000000000002,-1.1809755484308786,-0.792657922697244
-4.0039999999999996,-1.2663369472920099,-0.1780528951974269
-4.0034999999999998,-0.90355100213112993,-0.061489872740691176
-4.0030000000000001,-0.48741418268150688,-0.20984281041303524
-4.0025000000000004,-0.16730893695131877,-0.43237221692134892
-4.0019999999999998,0.024754210487259936,-0.66549826183523486
-4.0015000000000001,0.11011560934872107,-0.84564111472308123
-4.0010000000000003,0.13145595906406696,-0.9622041371798169
-4.0004999999999997,0.078105084775129688,-1.0469772444217442
-4,-0.51942470725455481,-1.5768091646796343
-3.9994999999999998,-0.53009488211223732,-1.4390528654124575
-3.9990000000000001,-0.35937208438931517,-1.1635402668781043
-3.9984999999999999,0.046094560202625215,-0.55953187778356051
-3.9980000000000002,0.8997085488172365,0.54251851635385251
-3.9975000000000001,1.5612593899935603,1.4538294191982519
-3.9969999999999999,1.806673411720261,1.7611319329481074
-3.9965000000000002,1.4652278162744163,1.4220395039827496
-3.996,0.91037872367491923,0.81803111488820579
-3.9954999999999998,0.47290155450993088,0.28819919462983412
-3.9950000000000001,0.19547700821018218,0.0020899576903134209
-3.9944999999999999,0.067434909917990504,-0.029699957525188878
-3.9940000000000002,0.035424385344942577,0.097459703336820316
-3.9935,0.046094560202625215,0.28819919462983412
-3.9929999999999999,0.05676473506030786,0.4471487707073456
-3.9925000000000002,0.046094560202625215,0.4471487707073456
-3.992,0.05676473506030786,0.57430843156935485
-3.9914999999999998,0.067434909917990504,0.75445128445720111
-3.9910000000000001,0.08877525963335578,0.90280422212954525
-3.9904999999999999,0.08877525963335578,0.97698069096571727
-3.9900000000000002,0.12078578420640371,0.76504792286236856
-3.9895,0.18480683335249956,0.10805634174198775
-3.9889999999999999,0.24882788249859539,-0.57012851618872795
-3.9885000000000002,0.014084035629577295,-0.41117894011121647
-3.988,-0.8502001278427167,0.36237566346600614
-3.9874999999999998,-1.3410281712961183,0.7968378380778709
-3.9870000000000001,-1.1169544992847826,0.52132523954351762
-3.9864999999999999,-0.69014750497747701,0.033879872905815719
-3.9860000000000002,-0.31669138495858457,-0.42177557851638392
-3.9855,-0.06060718837420119,-0.72907809226623943
-3.9849999999999999,0.067434909917990504,-0.9092209451540858
-3.9845000000000002,0.12078578420640371,-0.97280077558509037
-3.984,0.12078578420640371,-0.96220413717992292
-3.9834999999999998,0.11011560934872107,-0.85623775312824868
-3.9830000000000001,0.11011560934872107,-0.6972881770507372
-3.9824999999999999,-0.19931946152407554,-0.82444783791274634
-3.9820000000000002,-0.32736155981626724,-0.59132179299906285
-3.9815,0.22748753278323011,0.37297230187117358
-3.9809999999999999,0.95305942310564973,1.2101067358794007
-3.9805000000000001,1.774662887147213,1.8353084017842791
-3.98,2.0094067340162312,1.9200815090256187
-3.9794999999999998,1.4865681659897818,1.241896651094903
-3.9790000000000001,0.857027849386506,0.55311515475901996
-3.9784999999999999,0.3982103305061524,0.13984625695749003
-3.9780000000000002,0.13145595906408636,0.012686596095480854
-3.9775,0.014084035629577295,0.065669788121318018
-3.9769999999999999,-0.0072563140857879876,0.23521600260399694
-3.9765000000000001,0.024754210487259936,0.43655213230217815
-3.976,0.05676473506030786,0.54251851635385251
-3.9754999999999998,0.078105084775673142,0.6590815388106942
-3.9750000000000001,0.08877525963335578,0.78624119967270345
-3.9744999999999999,0.08877525963335578,0.89220758372437781
-3.9740000000000002,0.08877525963335578,0.95578741415538238
-3.9735,0.08877525963335578,0.71206473083653143
-3.9729999999999999,0.13145595906408636,-0.14626297998203064
-3.9725000000000001,0.18480683335249956,-1.0575738828264298
-3.972,0.14212613392176898,-1.3648763965762853
-3.9714999999999998,-0.58344575640065055,-0.55953187778356051
-3.9710000000000001,-1.2876772970077051,0.28819919462983412
-3.9704999999999999,-1.2129860730039266,0.38356894027634103
-3.9700000000000002,-0.80751942841198598,0.065669788121318018
-3.9695,-0.40205278382004572,-0.32640583286987701
-3.9689999999999999,-0.12462823752029703,-0.65490162343006741
-3.9685000000000001,0.035424385344942577,-0.86683439153341613
-3.968,0.099445434491038431,-0.98339741399025782
-3.9674999999999998,0.11011560934872107,-1.0045906908005926
-3.9670000000000001,0.11011560934872107,-0.94101086036958814
-3.9664999999999999,0.099445434491038431,-0.81385119950757889
-3.9660000000000002,0.12078578420640371,-0.61251506980939763
-3.9655,0.28083840707164331,-0.20984281041303524
-3.9649999999999999,0.86769802424418851,0.47893868592284788
-3.9645000000000001,0.88903837395955376,0.63788826200035942
-3.964,1.4118769419860033,1.1783168206638983
-3.9634999999999998,1.6679611385703865,1.4538294191982519
-3.9630000000000001,1.2945050185514941,1.0405605213967219
-3.9624999999999999,0.87836819910187125,0.60609834678485708
-3.9620000000000002,0.50491207908297886,0.27760255622466667
-3.9615,0.18480683335249956,0.076266426526485451
-3.9609999999999999,0.024754210487259936,0.076266426526485451
-3.9605000000000001,-0.017926488943470625,0.20342608738849466
-3.96,-0.017926488943470625,0.39416557868150842
-3.9594999999999998,0.0034138607718946501,0.48953532432801533
-3.9590000000000001,0.024754210487259936,0.55311515475901996
-3.9584999999999999,0.067434909917990504,0.71206473083653143
-3.9580000000000002,0.078105084775673142,0.86041766850887547
-3.9575,0.08877525963335578,0.95578741415538238
-3.9569999999999999,-0.028596663801153277,0.80743447648303834
-3.9565000000000001,-0.75416855412357298,0.0020899576903134209
-3.956,-1.7571649907457412,-0.95160749877475548
-3.9554999999999998,-2.4613965313527957,-1.4708427806279598
-3.9550000000000001,-2.8882035256601011,-0.84564111472308123
-3.9544999999999999,-3.0055754490946103,0.16103953376782493
-3.9540000000000002,-2.2053123347684123,0.46834204751768049
-3.9535,-1.2556667724346571,0.20342608738849466
-3.9529999999999998,-0.53009488211223732,-0.22043944881820265
-3.9525000000000001,-0.092617712947249131,-0.60191843140423029
-3.952,0.12078578420640371,-0.86683439153341613
-3.9514999999999998,0.18480683335249956,-1.01518732920576
-3.9510000000000001,0.17413665849481691,-1.0787671596367647
-3.9504999999999999,0.14212613392176898,-1.0469772444212624
-3.9500000000000002,0.11011560934872107,-0.94101086036958814
-3.9495,0.11011560934872107,-0.76086800748174177
-3.9489999999999998,0.21681735792554749,-0.37938902489571413
-3.9485000000000001,0.75032610080967954,0.31998910984533641
-3.948,1.2304839694053984,0.94519077575021493
-3.9474999999999998,1.2304839694053984,1.3478630351465775
-3.9470000000000001,0.66496470194821833,1.0935437134225592
-3.9464999999999999,0.51558225394066137,0.94519077575021493
-3.9460000000000002,0.34485945621773917,0.51072860113835017
-3.9455,0.15279630877945163,0.065669788121318018
-3.9449999999999998,0.13145595906408636,-0.050893234335523743
-3.9445000000000001,0.12078578420640371,0.012686596095480854
-3.944,0.05676473506030786,0.097459703336820316
-3.9434999999999998,0.024754210487259936,0.25640927941433178
-3.9430000000000001,0.014084035629577295,0.39416557868150842
-3.9424999999999999,-0.049937013516518552,0.097459703336820316
-3.9420000000000002,-0.08194753808956648,0.076266426526485451
-3.9415,-0.028596663801153277,0.35177902506083869
-3.9409999999999998,0.024754210487259936,0.64848490040552687
-3.9405000000000001,0.067434909917990504,0.7968378380778709
-3.9399999999999999,0.078105084775673142,0.23521600260399694
-3.9394999999999998,0.08877525963335578,-0.70788481545590454
-3.9390000000000001,0.17413665849481691,-1.4708427806279598
-3.9384999999999999,0.22748753278323011,-1.2589100125246109
-3.9380000000000002,-0.39138260896236304,-0.2310360872233701
-3.9375,-0.91422117698881245,0.43655213230217815
-3.9369999999999998,-0.83952995298503397,0.34118238665567124
-3.9365000000000001,-0.55143523182760279,-0.04029659593035631
-3.9359999999999999,-0.26334051067017139,-0.44296885532671876
-3.9355000000000002,-0.06060718837420119,-0.75027136907657432
-3.9350000000000001,0.05676473506030786,-0.94101086036958814
-3.9344999999999999,0.099445434491038431,-1.0363806060160949
-3.9340000000000002,0.099445434491038431,-1.0469772444212624
-3.9335,0.099445434491038431,-0.97280077558509037
-3.9329999999999998,0.099445434491038431,-0.83504447631791379
-3.9325000000000001,0.11011560934872107,-0.64430498502489997
-3.9319999999999999,0.25949805735627807,-0.22043944881820265
-3.9315000000000002,0.86769802424418851,0.5637117931641874
-3.931,1.5292488654205123,1.2842832047155728
-3.9304999999999999,1.9133751602970874,1.75053529454294
-3.9300000000000002,1.9027049854394047,1.6657621873016004
-3.9295,1.3051751934091769,0.9134008605347127
-3.9289999999999998,0.13145595906408636,-0.33700247127504446
