Class_6_Listen_To_Quran/Class_6_Listen_To_Quran_UZ_1.csv

#Digilent WaveForms Oscilloscope Acquisition
#Device Name: EExplorer
#Serial Number: SN:210151A2B84A
#Date Time: 2020-11-17 10:36:36.693
#Sample rate: 2000Hz
#Samples: 16384
#Trigger: Source: Channel 1 Type: Edge Condition: Rising Level: 0 V Hyst.: Auto HoldOff: 0 s
#Channel 1: Range: 1 V/div Offset: 0 V Attenuation: 1 X
#Channel 2: Range: 1 V/div Offset: 0 V Attenuation: 1 X
#Power Supplies: ON
#Fixed Supply: ON
#Voltage: 3.3 V Readback: 3.324 V
#Positive Supply: ON
#Voltage: 3.7 V Readback: 3.71 V
#Current: 40 mA Readback: 24 mA
#Negative Supply: ON
#Voltage: -3.7 V Readback: -3.34 V
#Current: -40 mA Readback: -7 mA
#Reference 1: ON
#Voltage: 0 V
#Reference 2: ON
#Voltage: 0 V

Time (s),Channel 1 (V),Channel 2 (V)
-4.096,-0.08194753808956648,0.06566978812131802
-4.0955,-0.1352984123779312,0.1928294489832116
-4.095,-0.1459685872356526,0.3199891098454424
-4.0945,-0.1352984123779797,0.4365521323021782
-4.094,-0.1993194615240173,0.4789386859228093
-4.0935,-0.3060212101008922,0.4259554938970878
-4.093,-0.2953510352432193,0.5107286011383502
-4.0925,-0.2313299860971817,0.6272916235950859
-4.092,-0.1673089369511538,0.7438546460519277
-4.0915,-0.3060212101009019,0.627291623595192
-4.091,-0.8608703027003992,0.002089957690313421
-4.0905,-1.106284324426867,-0.686691538646042
-4.09,-0.8502001278427167,-1.205926820498774
-4.0895,-0.807519428411986,-1.47084278062796
-4.089,-0.7328282044082755,-1.121153713257752
-4.0885,-0.5194247072545548,-0.474758770542221
-4.088,-0.3166913849585846,0.06566978812131802
-4.0875,-0.1673089369511635,0.3729723018708941
-4.087,-0.09261771294722002,0.478938685922819
-4.0865,-0.06060718837420119,0.4471487707073456
-4.086,-0.06060718837420119,0.3305857482506099
-4.0855,-0.0606071883742109,0.203426087388379
-4.085,-0.07127736323188383,0.07626642652648545
-4.0845,-0.07127736323188383,-0.0296999575250925
-4.084,-0.07127736323187413,-0.1038764263613995
-4.0835,-0.06060718837420119,-0.1462629799820306
-4.083,0.1848068333524996,-0.1250697031716958
-4.0825,0.7823366253833486,-0.156859618387333
-4.082,1.465227816274416,-0.3052125560595421
-4.0815,1.902704985439405,-0.1038764263613609
-4.081,1.59326991456689,0.04447651131084823
-4.0805,0.9850699476786977,0.02328323450064829
-4.08,0.4515612047945656,-0.02969995752518888
-4.0795,0.09944543449135868,-0.04029659593034667
-4.079,-0.09261771294731706,-0.008506680714786548
-4.0785,-0.1673089369510276,0.06566978812131802
-4.078,-0.1779791118087005,0.1822328105780537
-4.0775,-0.1779791118087685,0.288199194629863
-4.077,-0.2420001609548061,0.3199891098453364
-4.0765,-0.2313299860971332,0.4471487707072299
-4.076,-0.1993194615240367,0.5955017083798245
-4.0755,-0.156638762093345,0.7438546460520338
-4.075,-0.2099896363817582,0.7120647308365314
-4.0745,-0.6474668055469504,0.1716361721724141
-4.074,-0.8715404775580819,-0.4641621321370536
-4.0735,-0.572775581542968,-0.9516074987747555
-4.073,-0.2206598112397611,-1.227120097308859
-4.0725,-0.2206598112394408,-0.9939940523954253
-4.072,-0.1886492866663929,-0.3581957480853793
-4.0715,-0.1566387620933741,0.2140227257931416
-4.071,-0.113958062662595,0.5637117931642934
-4.0705,-0.09261771294724913,0.6802748156210291
-4.07,-0.08194753808957618,0.6484849004055557
-4.0695,-0.08194753808956648,0.5213252395433634
-4.069,-0.08194753808956648,0.3517790250608387
-4.0685,-0.08194753808956648,0.1822328105781598
-4.068,-0.09261771294723943,0.0126865960953652
-4.0675,-0.08194753808956648,-0.1144730647665284
-4.067,-0.07127736323188383,-0.1886495336027004
-4.0665,0.1848068333531012,0.1080563417424889
-4.066,0.8463576745288233,0.6590815388106942
-4.0655,1.230483969405398,0.5001319627331828
-4.065,1.166462920259361,-0.1992461720072317
-4.0645,0.8676980242441885,-0.5595318777835605
-4.064,0.4729015545099309,-0.5595318777835605
-4.0635,0.1634664836374157,-0.4111789401113514
-4.063,-0.02859666380124062,-0.2204394488180581
-4.0625,-0.124628237520297,-0.06148987274069118
-4.062,-0.1459685872356429,0.07626642652636018
-4.0615,-0.1459685872356526,0.203426087388591
-4.061,-0.1352984123779797,0.309392471440169
-4.0605,-0.2313299860971235,0.2564092794143318
-4.06,-0.2953510352431902,0.24581264100928
-4.0595,-0.2633405106701714,0.3729723018711736
-4.059,-0.2099896363817582,0.5319218779486851
-4.0585,-0.1673089369510664,0.6590815388105785
-4.058,-0.4660738329661415,0.3623756634660061
-4.0575,-1.052933450138687,-0.2946159176543747
-4.057,-1.148965023857743,-0.898624306748369
-4.0565,-0.9248913518464952,-1.237716735714276
-4.056,-1.084943974711735,-1.375473034981453
-4.0555,-0.9995825758503513,-0.9516074987751411
-4.055,-0.7008176798348977,-0.2946159176539024
-4.0545,-0.4127229586777283,0.2246193641988295
-4.054,-0.2099896363819425,0.5107286011380899
-4.0535,-0.1032878878048832,0.5955017083796414
-4.053,-0.04993701351651855,0.5425185163538525
-4.0525,-0.04993701351651855,0.4259554938970107
-4.052,-0.04993701351652826,0.277602556224551
-4.0515,-0.06060718837420119,0.1504428953626575
-4.051,-0.06060718837420119,0.04447651131098315
-4.0505,-0.06060718837420119,-0.06148987274059479
-4.05,0.03542438534494258,-0.008506680714854012
-4.0495,0.5902734779444399,0.5213252395435176
-4.049,0.9743997728206656,0.5001319627332022
-4.0485,1.155792745401533,-0.2098428104133244
-4.048,1.059761171682476,-0.5277419625680583
-4.0475,0.7076454013792692,-0.4429688553267959
-4.047,0.3341892813598236,-0.2522293640335604
-4.0465,0.07810508477567314,-0.09327978795619347
-4.046,-0.07127736323174795,0.03387987290570006
-4.0455,-0.1352984123779894,0.1186529801472226
-4.045,-0.1459685872356623,0.1928294489833272
-4.0445,-0.1352984123779797,0.2564092794143318
-4.044,-0.1993194615241823,0.2564092794142547
-4.0435,-0.3166913849585846,0.1716361721729923
-4.043,-0.3060212101009019,0.2458126410091644
-4.0425,-0.2420001609548643,0.3835689402762157
-4.042,-0.1779791118087102,0.5001319627331828
-4.0415,-0.4020527838200457,0.2776025562246667
-4.041,-1.074273799853441,-0.3793890248951166
-4.0405,-1.575772018165136,-1.015187329206165
-4.04,-1.575772018165136,-1.460246142222792
-4.0395,-1.511750969019099,-1.629792356705317
-4.039,-1.170305373572798,-1.131750351661956
-4.0385,-0.7328282044082075,-0.4217755785163839
-4.038,-0.3807124341050007,0.1292496185518215
-4.0375,-0.1673089369509306,0.4471487707074516
-4.037,-0.06060718837420119,0.5637117931641874
-4.0365,-0.02859666380115328,0.55311515475902
-4.036,-0.02859666380117269,0.457745409112407
-4.0355,-0.04993701351651855,0.3411823866556712
-4.035,-0.06060718837420119,0.2246193641988295
-4.0345,-0.06060718837420119,0.1398462569575671
-4.034,-0.03926683865883591,0.1080563417419877
-4.0335,-0.01792648894347063,0.08686306493165288
-4.033,0.3021787567867175,0.2458126410090198
-4.0325,0.8463576745291727,0.288199194629304
-4.032,1.230483969405398,-0.2946159176543747
-4.0315,1.358526067697474,-0.8244478379122645
-4.031,1.059761171682039,-0.7502713690763237
-4.0305,0.5796033030867573,-0.474758770542221
-4.03,0.2061471830682045,-0.2098428104132761
-4.0295,-0.01792648894356767,-0.008506680714738361
-4.029,-0.124628237520297,0.1186529801471552
-4.0285,-0.1459685872356623,0.1928294489833272
-4.028,-0.1459685872356817,0.2564092794143607
-4.0275,-0.1673089369510276,0.2881991946298341
-4.027,-0.3807124341046804,0.09745970333682032
-4.0265,-0.4340633083930451,0.09745970333682032
-4.026,-0.3487019095316325,0.2352160026039969
-4.0255,-0.2526703358124887,0.3941655786815084
-4.025,-0.22065981123947,0.4153588554918241
-4.0245,-0.5194247072548848,-0.1038764263619584
-4.024,-0.8822106524157645,-0.7608680074817418
-4.0235,-0.8181896032697269,-1.258910012524158
-4.023,-0.7008176798353927,-1.502632695843443
-4.0225,-0.9569018764195432,-1.481439419033127
-4.022,-0.8715404775581596,-0.9092209451546063
-4.0215,-0.6047861061157926,-0.2522293640332809
-4.021,-0.3593720843893152,0.2140227257936621
-4.0205,-0.1779791118087102,0.457745409112513
-4.02,-0.08194753808953736,0.5213252395434694
-4.0195,-0.04993701351651855,0.4683420475176805
-4.019,-0.03926683865883591,0.3623756634660061
-4.0185,-0.04993701351650885,0.2458126410092704
-4.018,-0.06060718837420119,0.1292496185523226
-4.0175,-0.06060718837420119,0.04447651131098315
-4.017,-0.06060718837420119,-0.01910331911996362
-4.0165,0.02475421048754137,-0.008506680714526335
-4.016,0.3341892813600565,0.3517790250608387
-4.0155,0.8463576745283574,0.9028042221290441
-4.015,1.049090996824677,0.7756445612673143
-4.0145,0.9210488985326017,0.5319218779486851
-4.014,0.5902734779447407,0.2352160026042668
-4.0135,0.2808384070714395,0.02328323450056155
-4.013,0.05676473506030786,-0.07208651114585861
-4.0125,-0.06060718837420119,-0.06148987274069118
-4.012,-0.1139580626626241,0.01268659609558687
-4.0115,-0.124628237520297,0.1292496185523226
-4.011,-0.124628237520297,0.2564092794143318
-4.0105,-0.2313299860970264,0.2246193641988584
-4.01,-0.3700422592469978,0.1504428953626575
-4.0095,-0.3380317346739499,0.309392471440169
-4.009,-0.2526703358125664,0.5107286011381671
-4.0085,-0.1993194615243958,0.6696781772155822
-4.008,-0.5514352318276028,0.3623756634660061
-4.0075,-1.127624674141941,-0.2628260024383037
-4.007,-1.287677297007501,-0.8244478379130836
-4.0065,-1.06360362499637,-1.195330182093607
-4.006,-0.9675720512772257,-1.258910012524611
-4.0055,-0.7434983792656379,-0.7290780922656516
-4.005,-0.4660738329661415,-0.08268314955102604
-4.0045,-0.2420001609548061,0.383568940276341
-4.004,-0.1139580626625562,0.616694985190063
-4.0035,-0.04993701351651855,0.6590815388106942
-4.003,-0.03926683865883591,0.5743084315693548
-4.0025,-0.03926683865883591,0.4153588554919879
-4.002,-0.04993701351651855,0.2564092794143318
-4.0015,-0.04993701351651855,0.1080563417419877
-4.001,-0.04993701351651855,-0.008506680714747999
-4.0005,-0.03926683865875828,-0.08268314955100677
-4,0.04609456020262521,-0.06148987274069118
-3.9995,0.6116138276598051,0.4683420475176805
-3.999,1.038420821967111,0.6590815388106942
-3.9985,1.15579274540162,0.01268659609548085
-3.998,0.9103787236749192,-0.3793890248957141
-3.9975,0.5155822539406614,-0.400582301706049
-3.997,0.1954770082101822,-0.3052125560595421
-3.9965,0.00341386077189465,-0.1568596183871981
-3.996,-0.09261771294724913,-0.02969995752518888
-3.9955,-0.124628237520297,0.08686306493165288
-3.995,-0.124628237520297,0.1928294489833272
-3.9945,-0.1139580626626144,0.2881991946298341
-3.994,-0.1352984123779797,0.3305857482505039
-3.9935,-0.1779791118087102,0.3199891098453364
-3.993,-0.1779791118087102,0.3941655786815084
-3.9925,-0.1459685872356623,0.5001319627331828
-3.992,-0.1139580626626144,0.6060983467848571
-3.9915,-0.1779791118087102,0.5425185163538525
-3.991,-0.690147504977477,-0.008506680714854012
-3.9905,-1.180975548430879,-0.6866915386455698
-3.99,-1.159635198715513,-1.152943628472937
-3.9895,-1.191645723288561,-1.375473034981453
-3.989,-1.170305373573196,-1.195330182093607
-3.9885,-0.8608703027003992,-0.5807251545938954
-3.988,-0.5194247072545548,-0.008506680714854012
-3.9875,-0.2526703358124887,0.3623756634660061
-3.987,-0.1032878878049318,0.5213252395435176
-3.9865,-0.03926683865883591,0.5319218779486851
-3.986,-0.01792648894347063,0.4471487707073456
-3.9855,-0.02859666380115328,0.3199891098453364
-3.985,-0.03926683865883591,0.2034260873884947
-3.9845,-0.03926683865883591,0.1080563417419877
-3.984,-0.03926683865883591,0.03387987290581572
-3.9835,-0.02859666380115328,-0.01910331912002144
-3.983,0.2381577076409128,0.1504428953626575
-3.9825,0.6969752265212663,0.5107286011383502
-3.982,0.7609962756673623,0.13984625695749
-3.9815,0.7396559259519968,-0.2946159176543747
-3.981,0.5369226036560266,-0.3687923864905467
-3.9805,0.2808384070716433,-0.3370024712750445
-3.98,0.08877525963335578,-0.252229364033705
-3.9795,-0.02859666380115328,-0.1462629799820306
-3.979,-0.09261771294724913,-0.04029659593035631
-3.9785,-0.1032878878049318,0.06566978812131802
-3.978,-0.1032878878049318,0.1716361721729923
-3.9775,-0.1032878878049318,0.2776025562246667
-3.977,-0.1459685872356623,0.3941655786815084
-3.9765,-0.1459685872356623,0.5001319627331828
-3.976,-0.124628237520297,0.5955017083796896
-3.9755,-0.1032878878049318,0.6802748156210291
-3.975,-0.1352984123779797,0.6696781772158616
-3.9745,-0.5514352318276028,0.2034260873884947
-3.974,-0.8715404775580819,-0.4641621321370536
-3.9735,-0.7008176798351597,-0.9728007755850904
-3.973,-0.5407650569699201,-1.290699927740113
-3.9725,-0.6367966306890638,-1.174136905283272
-3.972,-0.5300948821122373,-0.5595318777835605
-3.9715,-0.3487019095316325,0.05507314971615059
-3.971,-0.1993194615240755,0.4683420475176805
-3.9705,-0.1032878878049318,0.6378882620003594
-3.97,-0.06060718837420119,0.6484849004055269
-3.9695,-0.03926683865883591,0.5637117931641874
-3.969,-0.03926683865883591,0.4153588554918433
-3.9685,-0.04993701351651855,0.2670059178194992
-3.968,-0.04993701351651855,0.1292496185523226
-3.9675,-0.04993701351651855,0.02328323450064829
-3.967,-0.02859666380115328,-0.04029659593035631
-3.9665,0.1207857842064037,0.002089957690313421
-3.966,0.5689331282290746,-0.1038764263613609
-3.9655,0.6969752265212663,-0.4323722169215513
-3.965,0.7503261008096795,-0.792657922697244
-3.9645,0.6542945270905358,-0.6019184314042303
-3.964,0.408880505363835,-0.4429688553267188
-3.9635,0.1848068333524996,-0.3158091944647096
-3.963,0.02475421048725994,-0.2098428104130352
-3.9625,-0.06060718837420119,-0.1356663415768632
-3.962,-0.09261771294724913,-0.04029659593035631
-3.9615,-0.1032878878049318,0.06566978812131802
-3.961,-0.1032878878049318,0.1716361721729923
-3.9605,-0.1886492866663929,0.1610395337678249
-3.96,-0.274010685527854,0.1504428953626575
-3.9595,-0.2526703358124887,0.2881991946298341
-3.959,-0.1993194615240755,0.457745409112513
-3.9585,-0.1459685872356623,0.6166949851900245
-3.958,-0.3060212101009019,0.4259554938970107
-3.9575,-0.9462317015618604,-0.1780528951975329
-3.957,-1.46907026958831,-0.7714646458869092
-3.9565,-1.501080794161358,-1.174136905283272
-3.956,-1.565101843307454,-1.34368311976595
-3.9555,-1.319687821580753,-0.9304142219644207
-3.955,-0.8715404775580819,-0.2416327256285375
-3.9545,-0.4660738329661415,0.309392471440169
-3.954,-0.1993194615240755,0.627291623595192
-3.9535,-0.04993701351651855,0.7226613692416989
-3.953,-0.007256314085787988,0.6802748156210291
-3.9525,0.00341386077189465,0.55311515475902
-3.952,-0.01792648894347063,0.383568940276341
-3.9515,-0.02859666380115328,0.2352160026039969
-3.951,-0.02859666380115328,0.1080563417419877
-3.9505,-0.02859666380115328,0.002089957690313421
-3.95,0.08877525963335578,0.04447651131098315
-3.9495,0.6969752265212663,0.5425185163538525
-3.949,1.166462920259302,0.5955017083796896
-3.9485,1.305175193409177,-0.1038764263613609
-3.948,1.187803269974668,-0.4959520473525559
-3.9475,0.7823366253827275,-0.4535654937318862
-3.947,0.3875401556484697,-0.3158091944647096
-3.9465,0.1101156093487211,-0.1674562567923655
-3.946,-0.03926683865883591,-0.06148987274069118
-3.9455,-0.1032878878049318,0.04447651131098315
-3.945,-0.1139580626626144,0.1292496185523226
-3.9445,-0.1139580626626144,0.2034260873884947
-3.944,-0.124628237520297,0.2352160026039969
-3.9435,-0.1886492866663929,0.1822328105781598
-3.943,-0.1779791118087102,0.2458126410091644
-3.9425,-0.1459685872356623,0.3729723018711736
-3.942,-0.1139580626626144,0.4895353243280153
-3.9415,-0.1993194615240755,0.3729723018711736
-3.941,-0.6474668055467465,-0.2204394488182027
-3.9405,-0.8608703027003992,-0.8774310299385835
-3.94,-0.5941159312583333,-1.364876396576285
-3.9395,-0.5514352318276028,-1.608599079895136
-3.939,-0.5941159312583333,-1.248313374119443
-3.9385,-0.4554036581084589,-0.5383386009732256
-3.938,-0.2953510352432193,0.07626642652648545
-3.9375,-0.156638762093345,0.457745409112513
-3.937,-0.08194753808956648,0.6166949851900245
-3.9365,-0.03926683865883591,0.627291623595192
-3.936,-0.02859666380115328,0.5425185163538525
-3.9355,-0.03926683865883591,0.4259554938970107
-3.935,-0.03926683865883591,0.309392471440169
-3.9345,-0.03926683865883591,0.1928294489833272
-3.934,-0.02859666380115328,0.1186529801471552
-3.9335,-0.007256314085787988,0.07626642652648545
-3.933,0.408880505363835,0.383568940276341
-3.9325,1.123782220828572,0.9875773293708847
-3.932,1.454557641416734,0.9345941373450475
-3.9315,1.337185717982225,0.2564092794143318
-3.931,0.9530594231056497,-0.1886495336027004
-3.9305,0.5049120790829789,-0.3687923864905467
-3.93,0.1848068333524996,-0.3793890248957141
-3.9295,-0.007256314085787988,-0.2840192792492073
-3.929,-0.1032878878049318,-0.1674562567923655
-3.9285,-0.124628237520297,-0.02969995752518888
-3.928,-0.1139580626626144,0.1186529801471552
-3.9275,-0.1139580626626144,0.2458126410091644
-3.927,-0.2526703358124887,0.1822328105781598
-3.9265,-0.3060212101009019,0.2352160026039969
-3.926,-0.2526703358124887,0.3941655786815084
-3.9255,-0.1886492866663929,0.5637117931641874
-3.925,-0.1886492866663929,0.6378882620003594
-3.9245,-0.690147504977477,0.1928294489833272
-3.924,-1.212986073003927,-0.4535654937318862
-3.9235,-1.170305373573196,-0.9622041371799229
-3.923,-0.9355615267041777,-1.258910012524611
-3.9225,-0.7648387289812555,-1.025783967610927
-3.922,-0.5087545323968721,-0.3793890248957141
-3.9215,-0.2846808603855366,0.2034260873884947
-3.921,-0.124628237520297,0.5743084315693548
-3.9205,-0.04993701351651855,0.701468092431364
-3.92,-0.01792648894347063,0.6802748156210291
-3.9195,-0.01792648894347063,0.5743084315693548
-3.919,-0.02859666380115328,0.4047622170866759
-3.9185,-0.03926683865883591,0.2458126410091644
-3.918,-0.02859666380115328,0.1186529801471552
-3.9175,-0.02859666380115328,-0.008506680714854012
-3.917,-0.01792648894347063,-0.1038764263613609
-3.9165,0.0674349099179905,-0.09327978795619347
-3.916,0.5796033030867573,-0.08268314955102604
-3.9155,1.027750647109428,-0.3687923864905467
-3.915,1.15579274540162,-0.8774310299385835
-3.9145,1.123782220828572,-1.025783967610927
-3.914,0.7823366253827275,-0.7290780922662394
-3.9135,0.4195506802215176,-0.3793890248957141
-3.913,0.142126133921769,-0.1038764263613609
-3.9125,-0.01792648894347063,0.06566978812131802
-3.912,-0.09261771294724913,0.1822328105781598
-3.9115,-0.1139580626626144,0.2564092794143318
-3.911,-0.1032878878049318,0.3199891098453364
-3.9105,-0.1779791118087102,0.2458126410091644
-3.91,-0.2633405106701714,0.1292496185523226
-3.9095,-0.2420001609548061,0.1928294489833272
-3.909,-0.1886492866663929,0.3305857482505039
-3.9085,-0.1352984123779797,0.4365521323021782
-3.908,-0.4020527838200457,0.1716361721729923
-3.9075,-1.010252750707956,-0.474758770542221
-3.907,-1.159635198715513,-1.0999604364471
-3.9065,-0.7648387289812555,-1.354279758171118
-3.906,-0.7968492535543035,-1.322489842955616
-3.9055,-0.8822106524157645,-1.068170521231597
-3.905,-0.6794773301197943,-0.4959520473525559
-3.9045,-0.423393133535411,0.01268659609548085
-3.904,-0.2206598112394408,0.3305857482505039
-3.9035,-0.09261771294724913,0.4683420475176805
-3.903,-0.03926683865883591,0.4789386859228479
-3.9025,-0.01792648894347063,0.4153588554918433
-3.902,-0.01792648894347063,0.309392471440169
-3.9015,-0.02859666380115328,0.2246193641988295
-3.901,-0.02859666380115328,0.13984625695749
-3.9005,-0.02859666380115328,0.07626642652648545
-3.9,-0.01792648894347063,0.03387987290581572
-3.8995,0.291508581929326,0.3411823866556712
-3.899,0.8036769750980928,0.7226613692416989
-3.8985,1.145122570543937,0.2881991946298341
-3.898,1.038420821967111,-0.1462629799820306
-3.8975,0.6649647019482183,-0.2416327256285375
-3.897,0.3128489316446912,-0.252229364033705
-3.8965,0.07810508477567314,-0.1992461720078678
-3.896,-0.04993701351651855,-0.1250697031716958
-3.8955,-0.1032878878049318,-0.02969995752518888
-3.895,-0.1032878878049318,0.07626642652648545
-3.8945,-0.09261771294724913,0.1928294489833272
-3.894,-0.124628237520297,0.2564092794143318
-3.8935,-0.2420001609548061,0.2034260873884947
-3.893,-0.2526703358124887,0.2987958330350016
-3.8925,-0.1993194615240755,0.4471487707073456
-3.892,-0.1459685872356623,0.6060983467848571
-3.8915,-0.2206598112394408,0.5213252395435176
-3.891,-0.7434983792658902,-0.05089323433552374
-3.8905,-1.138294849000148,-0.6972881770507372
