Class_3_Grab_w_two_Hands/Class_3_Grab_with_Two_Hands_SH_13.csv

#Digilent WaveForms Oscilloscope Acquisition
#Device Name: EExplorer
#Serial Number: SN:210151A2B84A
#Date Time: 2021-02-03 13:57:30.942
#Sample rate: 2000Hz
#Samples: 16384
#Trigger: Source: Channel 1 Type: Edge Condition: Rising Level: 0 V Hyst.: Auto HoldOff: 0 s
#Channel 1: Range: 1 V/div Offset: 0 V Attenuation: 1 X
#Channel 2: Range: 1 V/div Offset: 0 V Attenuation: 1 X
#Power Supplies: ON
#Fixed Supply: ON
#Voltage: 3.3 V Readback: 3.346 V
#Positive Supply: ON
#Voltage: 3.7 V Readback: 3.717 V
#Current: 40 mA Readback: 23 mA
#Negative Supply: ON
#Voltage: -3.7 V Readback: -3.334 V
#Current: -40 mA Readback: -9 mA
#Reference 1: ON
#Voltage: 0 V
#Reference 2: ON
#Voltage: 0 V

Time (s),Channel 1 (V),Channel 2 (V)
-4.096,1.283834843693812,-0.04029659593035631
-4.0955,1.187803269974755,0.1822328105779574
-4.095,0.7609962756665277,0.5849050699748788
-4.0945,-0.156638762093345,0.9769806909657173
-4.094,-1.063603624995545,1.220703374284346
-4.0935,-1.810515865034387,1.305476481525888
-4.093,-2.066600061618538,1.284283204715573
-4.0925,-1.906547438753444,0.9557874141556811
-4.092,-1.063603624995681,0.1398462569567479
-4.0915,-0.3060212101009019,-0.6760949002404023
-4.091,0.2168173579255475,-1.227120097309109
-4.0905,0.5049120790830857,-1.502632695843491
-4.09,0.6222840025174878,-1.534422611058964
-4.0895,0.6436243522328531,-1.417859588602123
-4.089,0.5902734779444884,-1.131750351662862
-4.0885,0.4729015545099309,-0.6443049850249
-4.088,0.408880505363835,-0.2310360872233701
-4.0875,0.3448594562177974,0.2034260873880995
-4.087,0.05676473505969648,0.5955017083800462
-4.0865,-0.6154562809736985,0.9875773293708847
-4.086,-1.319687821580112,1.273686566310145
-4.0855,-1.895877263895538,1.432636142387734
-4.085,-1.810515865034154,1.231300012689736
-4.0845,-0.9248913518473006,0.5531151547596368
-4.084,-0.1139580626621001,-0.1462629799824451
-4.0835,0.4515612047945656,-0.6019184314042303
-4.083,0.8143471499557753,-0.8138511995075789
-4.0825,1.027750647109457,-0.7926579226970031
-4.082,1.059761171682476,-0.5277419625680583
-4.0815,0.9103787236749192,-0.2098428104130352
-4.081,0.8783681991019003,-0.09327978795629949
-4.0805,0.9957401225363802,-0.1780528951975329
-4.08,1.070431346540159,-0.1462629799820306
-4.0795,1.091771696255505,0.04447651131080968
-4.079,1.038420821966645,0.2140227257939127
-4.0785,0.5262524287983441,0.4895353243280153
-4.078,-0.3913826089615285,0.871014306913696
-4.0775,-1.234326422719913,1.146526905448512
-4.077,-1.917217613610981,1.273686566310405
-4.0765,-2.077270236476075,1.294879843120721
-4.076,-1.991908837614061,1.104140351827052
-4.0755,-1.223656247861609,0.3623756634660061
-4.075,-0.423393133535411,-0.4853554089473885
-4.0745,0.1527963087797428,-1.110557074852575
-4.074,0.4729015545099309,-1.449649503817625
-4.0735,0.6222840025174878,-1.545019249464132
-4.073,0.6436243522328337,-1.460246142222869
-4.0725,0.6329541773751706,-1.205926820498774
-4.072,0.5902734779444399,-0.8562377531282487
-4.0715,0.5369226036560751,-0.4853554089477258
-4.071,0.4835717293674388,-0.1144730647661621
-4.0705,0.291508581929326,0.2881991946298341
-4.07,-0.3700422592463962,0.754451284456777
-4.0695,-1.106284324427682,1.125333628638283
-4.069,-1.746494815888059,1.369056311956912
-4.0685,-1.735824641030376,1.220703374284568
-4.068,-0.9142211769880749,0.5001319627326432
-4.0675,-0.1032878878049318,-0.09327978795619347
-4.067,0.4835717293676135,-0.4641621321370536
-4.0665,0.7930068002404974,-0.5807251545938761
-4.066,0.8890383739595538,-0.5595318777835605
-4.0655,0.9103787236749192,-0.4217755785163839
-4.065,0.9210488985325921,-0.3264058328699637
-4.0645,0.9957401225363802,-0.4217755785163839
-4.064,1.102441871113207,-0.3370024712750445
-4.0635,1.134452395686226,-0.2628260024389398
-4.063,1.134452395686245,-0.2946159176543554
-4.0625,1.123782220828572,-0.2734226408440398
-4.062,0.8570278493867487,0.04447651131069402
-4.0615,0.07810508477484826,0.5637117931645729
-4.061,-0.8288597781273515,0.9875773293708847
-4.0605,-1.607782542738184,1.220703374284568
-4.06,-2.055929886760865,1.294879843120692
-4.0595,-2.066600061618538,1.241896651094903
-4.059,-1.639793067311232,0.701468092431364
-4.0585,-0.7434983792667054,-0.1780528951967331
-4.058,-0.07127736323188383,-0.9092209451540858
-4.0575,0.3555296310754218,-1.364876396576285
-4.057,0.5796033030865535,-1.555615887869126
-4.0565,0.6436243522328531,-1.545019249464132
-4.056,0.6436243522328531,-1.375473034981453
-4.0555,0.6116138276598342,-1.068170521231877
-4.055,0.5689331282290552,-0.7926579226970609
-4.0545,0.5475927785137094,-0.5913217929990628
-4.054,0.4088805053639611,-0.1886495336030666
-4.0535,-0.07127736323256315,0.2987958330354642
-4.053,-0.8181896032696687,0.8074344764830383
-4.0525,-1.522421143876723,1.178316820663898
-4.052,-1.981238662756591,1.390249588766977
-4.0515,-1.447729919872945,1.093543713422559
-4.051,-0.5621054066852853,0.4047622170866759
-4.0505,0.1421261339211285,-0.1568596183866873
-4.05,0.5796033030867573,-0.4323722169215513
-4.0495,0.8143471499557753,-0.5065486857577234
-4.049,0.8997085488171589,-0.4641621321370921
-4.0485,0.8997085488171783,-0.3899856633010165
-4.048,0.8356874996711408,-0.5383386009732256
-4.0475,0.9317190733901971,-0.5489352393783834
-4.047,1.113112045971044,-0.4853554089471476
-4.0465,1.283834843693812,-0.2204394488182027
-4.046,1.294505018551484,0.1186529801468468
-4.0455,1.070431346539421,0.3729723018714723
-4.045,0.2594980573562781,0.701468092431364
-4.0445,-0.7114878546928423,1.029963882991555
-4.044,-1.533091318734872,1.231300012689803
-4.0435,-2.045259711903173,1.305476481525908
-4.043,-2.07727023647622,1.273686566310405
-4.0425,-1.906547438753453,0.9663840525608294
-4.042,-1.052933450138687,0.1504428953626575
-4.0415,-0.2846808603855366,-0.6654982618352349
-4.041,0.2381577076404372,-1.227120097308598
-4.0405,0.5155822539407682,-1.513229334248668
-4.04,0.6329541773751706,-1.555615887869299
-4.0395,0.6329541773751706,-1.428456227007406
-4.039,0.611613827659776,-1.184733543688102
-4.0385,0.5796033030867573,-0.8138511995075789
-4.038,0.5262524287983926,-0.4005823017064249
-4.0375,0.462231379651957,0.01268659609585672
-4.037,0.142126133921769,0.4259554938970107
-4.0365,-0.572775581542968,0.8710143069140429
-4.036,-1.298347471865931,1.199510097474426
-4.0355,-1.895877263895616,1.411442865577582
-4.035,-1.810515865034154,1.273686566310405
-4.0345,-0.9035510021319548,0.6378882620009376
-4.034,-0.1032878878049318,-0.04029659593035631
-4.0335,0.4408910299368829,-0.5383386009732256
-4.033,0.7609962756670712,-0.7078848154557503
-4.0325,0.8890383739595634,-0.6337083466195494
-4.032,0.8997085488172365,-0.4323722169215513
-4.0315,0.8356874996711989,-0.3264058328699734
-4.031,0.9530594231057758,-0.3264058328698192
-4.0305,1.091771696255524,-0.2628260024388724
-4.03,1.081101521397851,-0.17805289519761
-4.0295,1.038420821967014,-0.02969995752502504
-4.029,0.9317190733902845,0.1504428953626575
-4.0285,0.3982103305061524,0.3729723018711736
-4.028,-0.4874141826822444,0.7544512844574902
-4.0275,-1.298347471865388,1.072350436612224
-4.027,-1.938557963326346,1.231300012689736
-4.0265,-2.066600061618421,1.252493289500051
-4.026,-1.959898313041711,1.029963882991555
-4.0255,-1.170305373573196,0.2246193641988295
-4.025,-0.3807124341053985,-0.6443049850241098
-4.0245,0.174136658495108,-1.269506650930096
-4.024,0.4942419042252961,-1.619195718300304
-4.0235,0.6222840025173714,-1.725162102351882
-4.023,0.6436243522327949,-1.640388995110407
-4.0225,0.5796033030867573,-1.38606967338662
-4.022,0.5155822539407195,-1.036380606016413
-4.0215,0.4622313796522191,-0.6972881770504096
-4.021,0.4302208550792003,-0.3370024712750445
-4.0205,0.2061471830678648,0.1186529801471552
-4.02,-0.4447334832514362,0.6378882620007545
-4.0195,-1.170305373573196,1.072350436612224
-4.019,-1.821186039891837,1.347863035146577
-4.0185,-2.002579012472277,1.358459673551735
-4.018,-1.330357996438436,0.775644561267536
-4.0175,-0.423393133535411,0.1292496185523226
-4.017,0.2701682322133299,-0.411178940110725
-4.0165,0.7076454013791335,-0.6443049850248711
-4.016,0.9103787236749192,-0.6125150698093976
-4.0155,0.9530594231056109,-0.4217755785165574
-4.015,0.9210488985327473,-0.1356663415768054
-4.0145,1.081101521397841,-0.07208651114585861
-4.014,1.230483969405263,-0.04029659593038522
-4.0135,1.187803269974561,-0.1356663415771234
-4.013,1.070431346540159,-0.4217755785163839
-4.0125,1.049090996824793,-0.4853554089473885
-4.012,0.6969752265204803,-0.2946159176539314
-4.0115,-0.1673089369510276,0.1928294489833272
-4.011,-1.042263275281004,0.7226613692416989
-4.0105,-1.757164990745091,1.072350436611906
-4.01,-2.055929886760855,1.220703374284568
-4.0095,-2.055929886760855,1.210106735879401
-4.009,-1.661133417026956,0.6908714540266688
-4.0085,-0.7755089038383074,-0.2098428104137484
-4.008,-0.08194753808956648,-0.9939940523954253
-4.0075,0.3555296310750239,-1.502632695842999
-4.007,0.5689331282291425,-1.735758740757155
-4.0065,0.6436243522328531,-1.746355379162313
-4.006,0.6222840025174878,-1.566212526274467
-4.0055,0.5582629533713532,-1.248313374119135
-4.005,0.5155822539406614,-0.9092209451540858
-4.0045,0.4729015545099309,-0.5277419625680583
-4.004,0.3768699807903116,-0.1250697031712621
-4.0035,-0.1459685872356623,0.3517790250608387
-4.003,-0.8822106524157645,0.8286277532933731
-4.0025,-1.575772018164505,1.188913459068738
-4.002,-2.002579012472442,1.37965295036208
-4.0015,-1.629122892453549,1.051157159801889
-4.001,-0.7434983792666957,0.4153588554924215
-4.0005,0.04609456020310073,-0.135666341577162
-4,0.5689331282290746,-0.4641621321370536
-3.9995,0.9103787236749192,-0.6443049850249
-3.999,1.059761171682476,-0.474758770542221
-3.9985,0.9957401225363802,-0.2204394488182027
-3.998,0.6116138276598051,-0.1462629799820306
-3.9975,0.5475927785137094,-0.1144730647665284
-3.997,0.6542945270905358,0.04447651131098315
-3.9965,0.7183155762366316,0.2670059178194992
-3.996,0.8143471499557753,0.4047622170866759
-3.9955,0.857027849386506,0.5107286011383502
-3.995,0.3661998059331045,0.7650479228623686
-3.9945,-0.4874141826815069,1.061753798207057
-3.994,-1.287677297007705,1.263089927905238
-3.9935,-1.938557963326346,1.347863035146577
-3.993,-2.055929886760855,1.33726639674141
-3.9925,-1.853196564464885,1.00877060618122
-3.992,-0.9995825758502737,0.1928294489833272
-3.9915,-0.2526703358124887,-0.6019184314042303
-3.991,0.2594980573562781,-1.142346990067769
-3.9905,0.5369226036560266,-1.407262950196955
-3.99,0.6329541773751706,-1.439052865412457
-3.9895,0.6116138276598051,-1.301296566145281
-3.989,0.5689331282290746,-1.068170521231597
-3.9885,0.5262524287983441,-0.7608680074817418
-3.988,0.5155822539406614,-0.3793890248957141
-3.9875,0.4835717293676135,0.01268659609548085
-3.987,0.1741366584948169,0.4259554938970107
-3.9865,-0.5407650569699201,0.849821030103708
-3.986,-1.26633694729234,1.188913459069066
-3.9855,-1.885207089037933,1.400846227172415
-3.985,-1.927887788468663,1.326669758336243
-3.9845,-1.148965023857831,0.7120647308365314
-3.984,-0.2953510352432193,0.04447651131098315
-3.9835,0.3555296310754218,-0.4217755785163839
-3.983,0.7396559259519968,-0.6654982618352349
-3.9825,0.8997085488172365,-0.6654982618352349
-3.982,0.942389248247967,-0.5489352393783931
-3.9815,0.8036769750980928,-0.4641621321370536
-3.981,0.7503261008096795,-0.3793890248957141
-3.9805,0.8036769750980928,-0.2734226408440398
-3.98,0.8890383739595538,-0.1356663415768632
-3.9795,0.8997085488172365,0.03387987290581572
-3.979,0.8783681991018712,0.2140227257936621
-3.9785,0.5262524287983441,0.5213252395435176
-3.978,-0.3060212101009019,0.9028042221295453
-3.9775,-1.127624674142465,1.178316820663898
-3.977,-1.83185621474952,1.305476481525908
-3.9765,-2.055929886760855,1.326669758336243
-3.976,-2.03458953704549,1.210106735879401
-3.9755,-1.426389570157579,0.5849050699745222
-3.975,-0.572775581542968,-0.2840192792492073
-3.9745,0.05676473506030786,-0.9728007755850904
-3.974,0.4302208550792003,-1.364876396576285
-3.9735,0.6116138276598051,-1.51322933424863
-3.973,0.6436243522328531,-1.439052865412457
-3.9725,0.6329541773751706,-1.227120097309109
-3.972,0.5902734779444399,-0.9410108603695881
-3.9715,0.5369226036560266,-0.6231117082145651
-3.971,0.4729015545099309,-0.2416327256285375
-3.9705,0.291508581929326,0.1716361721729923
-3.97,-0.3380317346739499,0.6590815388106942
-3.9695,-1.074273799854052,1.061753798207057
-3.969,-1.746494815888059,1.33726639674141
-3.9685,-1.959898313041711,1.358459673551745
-3.968,-1.255666772434657,0.7968378380778709
-3.9675,-0.391382608962363,0.06566978812131802
-3.967,0.2808384070716433,-0.4429688553267188
-3.9665,0.6649647019482183,-0.6231117082145651
-3.966,0.857027849386506,-0.6337083466197325
-3.9655,0.9850699476786977,-0.6760949002404023
-3.965,0.9103787236749192,-0.8138511995075789
-3.9645,0.6756348768059011,-0.9410108603695881
-3.964,0.7503261008096795,-0.7396747306714069
-3.9635,0.9317190733902845,-0.5383386009732256
-3.963,1.123782220828572,-0.3793890248957141
-3.9625,1.123782220828572,-0.09327978795619347
-3.962,0.8356874996711408,0.2776025562246667
-3.9615,0.03542438534494258,0.7332580076468663
-3.961,-0.8608703027003992,1.093543713422559
-3.9605,-1.586442193022819,1.284283204715573
-3.96,-2.023919362187807,1.326669758336243
-3.9595,-2.03458953704549,1.241896651094903
-3.959,-1.543761493592088,0.6908714540261965
-3.9585,-0.6688071552621118,-0.1780528951975329
-3.958,-0.01792648894347063,-0.9092209451540858
-3.9575,0.3982103305061524,-1.364876396576285
-3.957,0.5902734779444399,-1.545019249464132
-3.9565,0.6542945270905358,-1.523825972653797
-3.956,0.6436243522328531,-1.322489842955616
-3.9555,0.6009436528021226,-0.9728007755850904
-3.955,0.5475927785137094,-0.6337083466197325
-3.9545,0.5049120790829789,-0.2840192792492073
-3.954,0.3982103305061524,0.08686306493165288
-3.9535,-0.1459685872356623,0.55311515475902
-3.953,-0.8928808272734472,0.9875773293708847
-3.9525,-1.554431668449771,1.284283204715573
-3.952,-1.67180359188428,1.305476481525908
-3.9515,-1.010252750707956,0.7650479228623686
-3.951,-0.2420001609548061,0.06566978812131802
-3.9505,0.3555296310754218,-0.4323722169215513
-3.95,0.6969752265212663,-0.7396747306714069
-3.9495,0.8676980242441885,-0.7502713690765743
-3.949,0.8997085488172365,-0.570128516188728
-3.9485,0.857027849386506,-0.4641621321370536
-3.948,0.6863050516635838,-0.5065486857577234
-3.9475,0.6863050516635838,-0.2946159176543747
-3.947,0.7396559259519968,0.002089957690313421
-3.9465,0.8036769750980928,0.2246193641988295
-3.946,0.8463576745288233,0.309392471440169
-3.9455,0.8036769750980928,0.3623756634660061
-3.945,0.291508581929326,0.6484849004055269
-3.9445,-0.5514352318276028,0.9769806909657173
-3.944,-1.30901764672307,1.188913459069066
-3.9435,-1.895877263895616,1.273686566310405
-3.943,-2.045259711903173,1.263089927905238
-3.9425,-1.895877263895616,1.019367244586387
-3.942,-1.074273799854052,0.2458126410091644
-3.9415,-0.3060212101009019,-0.5489352393783931
-3.941,0.2168173579255475,-1.089363798041932
-3.9405,0.5262524287983441,-1.364876396576285
-3.94,0.6436243522328531,-1.396666311791788
-3.9395,0.6649647019482183,-1.258910012524611
-3.939,0.6436243522328531,-0.9622041371799229
-3.9385,0.6116138276598051,-0.6549016234300674
-3.938,0.5582629533713921,-0.1568596183871981
-3.9375,0.4515612047945656,0.309392471440169
-3.937,0.04609456020262521,0.7226613692416989
-3.9365,-0.6794773301197943,1.082947075017392
-3.936,-1.383708870726849,1.326669758336243
-3.9355,-1.927887788468663,1.464426057603419
-3.935,-1.67180359188428,1.305476481525908
-3.9345,-0.8715404775580819,0.627291623595192
-3.934,-0.1139580626626144,-0.01910331912002144
-3.9335,0.4408910299368829,-0.4111789401112165
-3.933,0.7716664505250448,-0.6337083466197325
-3.9325,0.9210488985326017,-0.718481453861072
-3.932,0.9530594231056497,-0.6866915386455698
-3.9315,0.7503261008096795,-0.7290780922662394
-3.931,0.6863050516635838,-0.5595318777835605
-3.9305,0.7396559259519968,-0.1992461720078678
-3.93,0.8036769750980928,0.13984625695749
-3.9295,0.8890383739595538,0.3623756634660061
-3.929,0.8997085488172365,0.4789386859228479
-3.9285,0.5902734779444399,0.6908714540261965
-3.928,-0.2420001609548061,0.9875773293708847
-3.9275,-1.074273799854052,1.210106735879401
-3.927,-1.789175515318789,1.305476481525908
-3.9265,-2.045259711903173,1.316073119931075
-3.926,-2.013249187330125,1.188913459069066
-3.9255,-1.362368521011484,0.5425185163538525
-3.925,-0.5194247072545548,-0.2946159176543747
-3.9245,0.08877525963335578,-0.9410108603695881
-3.924,0.4515612047945656,-1.301296566145281
-3.9235,0.6222840025174878,-1.417859588602123
-3.923,0.6542945270905358,-1.333086481360783
-3.9225,0.6436243522328531,-1.025783967610927
-3.922,0.5689331282290746,-0.474758770542221
-3.9215,0.4835717293676135,-0.06148987274069118
-3.921,0.4408910299368829,0.2458126410091644
-3.9205,0.2381577076409128,0.5425185163538525
-3.92,-0.4127229586777283,0.8922075837243778
-3.9195,-1.138294849000148,1.188913459069066
-3.919,-1.799845690176472,1.37965295036208
-3.9185,-1.885207089037933,1.326669758336243
-3.918,-1.084943974711735,0.7226613692416989
-3.9175,-0.2313299860971235,-0.02969995752518888
-3.917,0.408880505363835,-0.5489352393783931
-3.9165,0.7609962756673623,-0.7820612842920766
-3.916,0.9103787236749192,-0.7820612842920766
-3.9155,0.9850699476786977,-0.6549016234300674
-3.915,0.9637295979633325,-0.4641621321370536
-3.9145,1.038420821967111,-0.474758770542221
-3.914,1.123782220828572,-0.2628260024388724
-3.9135,1.166462920259302,-0.1674562567923655
-3.913,1.187803269974668,-0.1462629799820306
-3.9125,1.145122570543937,-0.02969995752518888
-3.912,0.8143471499557753,0.2246193641988295
-3.9115,-0.07127736323188383,0.6484849004055269
-3.911,-0.9675720512772257,1.00877060618122
-3.9105,-1.735824641030376,1.220703374284568
-3.91,-2.045259711903173,1.29487984312074
-3.9095,-2.045259711903173,1.25249328950007
-3.909,-1.639793067311232,0.8074344764830383
-3.9085,-0.7434983792658902,-0.05089323433552374
-3.908,-0.06060718837420119,-0.8032545611024114
-3.9075,0.3768699807907871,-1.290699927740113
-3.907,0.5902734779444399,-1.502632695843462
-3.9065,0.6649647019482183,-1.502632695843462
-3.906,0.6649647019482183,-1.364876396576285
-3.9055,0.6436243522328531,-1.131750351662602
-3.905,0.6222840025174878,-0.7820612842920766
-3.9045,0.5796033030867573,-0.3370024712750445
-3.904,0.4622313796522482,0.1080563417419877
-3.9035,-0.04993701351651855,0.5955017083796896
-3.903,-0.807519428411986,1.029963882991555
-3.9025,-1.490410619303675,1.316073119931075
-3.902,-1.693143941599645,1.33726639674141
-3.9015,-1.042263275281004,0.7650479228623686
-3.901,-0.2420001609548061,0.1716361721729923
-3.9005,0.3768699807907871,-0.2840192792492073
-3.9,0.7396559259519968,-0.5913217929990628
-3.8995,0.8997085488172365,-0.6654982618352349
-3.899,0.9317190733902845,-0.6125150698093976
-3.8985,0.8783681991018712,-0.5171453241628908
-3.898,0.6542945270905358,-0.4641621321370536
-3.8975,0.6649647019482183,-0.3052125560595421
-3.897,0.8356874996711408,-0.2098428104130352
-3.8965,1.027750647109428,-0.09327978795619347
-3.896,1.091771696255524,0.04447651131098315
-3.8955,0.9317190733902845,0.04447651131098315
-3.895,0.1848068333524996,0.1504428953626575
-3.8945,-0.7328282044082075,0.55311515475902
-3.894,-1.533091318734406,0.9134008605347127
-3.8935,-2.023919362187807,1.135930267043229
-3.893,-2.055929886760855,1.220703374284568
-3.8925,-1.949228138184029,1.029963882991555
-3.892,-1.148965023857831,0.2670059178194992
-3.8915,-0.3593720843893152,-0.570128516188728
-3.891,0.1954770082101822,-1.195330182093607
-3.8905,0.5155822539406614,-1.523825972653797
-3.89,0.6436243522328531,-1.608599079895136
-3.8895,0.6756348768059011,-1.502632695843462
-3.889,0.6649647019482183,-1.216523458903942
-3.8885,0.6116138276598051,-0.8774310299385835
-3.888,0.5582629533713921,-0.5489352393783931
-3.8875,0.5049120790829789,-0.1568596183871981
-3.887,0.1741366584948169,0.309392471440169
-3.8865,-0.5407650569699201,0.8074344764830383
-3.886,-1.277007122150022,1.178316820663898
-3.8855,-1.87453691418025,1.400846227172415
