Class_3_Grab_w_two_Hands/Class_3_Grab_with_Two_Hands_UZ_10.csv

#Digilent WaveForms Oscilloscope Acquisition
#Device Name: EExplorer
#Serial Number: SN:210151A2B84A
#Date Time: 2020-12-23 13:06:57.416
#Sample rate: 2000Hz
#Samples: 16384
#Trigger: Source: Channel 1 Type: Edge Condition: Rising Level: 0 V Hyst.: Auto HoldOff: 0 s
#Channel 1: Range: 1 V/div Offset: 0 V Attenuation: 1 X
#Channel 2: Range: 1 V/div Offset: 0 V Attenuation: 1 X
#Power Supplies: ON
#Fixed Supply: ON
#Voltage: 3.3 V Readback: 3.326 V
#Positive Supply: ON
#Voltage: 3.7 V Readback: 3.691 V
#Current: 40 mA Readback: 24 mA
#Negative Supply: ON
#Voltage: -3.7 V Readback: -4.116 V
#Current: -40 mA Readback: -6 mA
#Reference 1: ON
#Voltage: 0 V
#Reference 2: ON
#Voltage: 0 V

Time (s),Channel 1 (V),Channel 2 (V)
-4.096,0.3555296310754218,1.00877060618122
-4.0955,0.334189281360076,1.040560521396693
-4.095,0.3021787567869989,1.008770606181171
-4.0945,0.291508581929326,0.9557874141553824
-4.094,0.291508581929326,0.9028042221295934
-4.0935,0.3235191065025486,0.8286277532932093
-4.093,0.5155822539406614,0.6484849004055269
-4.0925,0.9743997728205978,0.002089957690901256
-4.092,0.6329541773745592,-0.8244478379131993
-4.0915,-0.03926683865883591,-1.322489842955616
-4.091,-0.007256314085787988,-1.004590690800593
-4.0905,0.3128489316449047,-0.4959520473521801
-4.09,0.5475927785137094,-0.08268314955102604
-4.0895,0.6116138276598051,0.2034260873884947
-4.089,0.5582629533714406,0.3623756634658616
-4.0885,0.4515612047945656,0.3941655786815084
-4.088,0.2061471830678648,0.2246193641988295
-4.0875,0.2594980573562296,0.3093924714400919
-4.087,-0.5514352318274378,-0.4111789401110333
-4.0865,-0.3700422592469978,-0.2098428104130352
-4.086,-0.1993194615242308,-0.0296999575253527
-4.0855,-0.02859666380099801,0.1504428953628599
-4.085,0.142126133921769,0.3729723018711736
-4.0845,-0.2099896363814379,0.7968378380774854
-4.084,-1.127624674143193,1.506812611224542
-4.0835,-1.927887788468663,2.004854616266958
-4.083,-2.472066706210478,1.612778995275763
-4.0825,-2.674800028505827,0.4153588554913325
-4.082,-1.991908837614759,-0.1462629799820306
-4.0815,-1.095614149569417,-0.08268314955102604
-4.081,-0.3700422592476578,0.2034260873882345
-4.0805,0.0674349099179905,0.5107286011383502
-4.08,0.2808384070716433,0.7650479228623686
-4.0795,0.3448594562176809,0.9451907757500511
-4.079,0.3448594562177101,1.061753798207124
-4.0785,0.3128489316446912,1.135930267043229
-4.078,0.2915085819293454,1.167720182258702
-4.0775,0.280838407071653,1.167720182258702
-4.077,0.291508581929326,1.135930267043229
-4.0765,0.3982103305060554,1.029963882991651
-4.076,0.9743997728210538,0.3941655786806796
-4.0755,1.017080472251745,-0.5171453241628908
-4.075,0.1741366584948169,-1.227120097309109
-4.0745,-0.124628237520035,-1.025783967610359
-4.074,0.1634664836371343,-0.400582301706049
-4.0735,0.4835717293676135,0.06566978812131802
-4.073,0.6329541773750347,0.2776025562244739
-4.0725,0.6009436528021226,0.3305857482505039
-4.072,0.4942419042252961,0.3199891098453364
-4.0715,0.3768699807908938,0.2670059178195474
-4.071,0.3021787567869795,0.16103953376769
-4.0705,0.2701682322139607,0.01268659609548085
-4.07,0.2488278824986148,-0.02969995752515033
-4.0695,0.2274875327831234,0.002089957690255595
-4.069,0.1101156093487211,-0.06148987274069118
-4.0685,0.1741366584948169,0.08686306493165288
-4.068,-0.07127736323309689,0.2352160026040066
-4.0675,-1.405049220442214,0.2458126410091644
-4.067,-1.87453691418025,0.6484849004055269
-4.0665,-2.258663209057117,0.08686306493169144
-4.066,-2.578768454787304,0.1292496185523226
-4.0655,-2.247993034199143,0.5319218779486851
-4.065,-1.458400094731345,0.5637117931641585
-4.0645,-0.6794773301197943,0.5319218779486851
-4.064,-0.124628237520297,0.5319218779486851
-4.0635,0.1848068333522181,0.5955017083796318
-4.063,0.3128489316447203,0.7014680924314797
-4.0625,0.3448594562177392,0.8286277532933731
-4.062,0.3341892813600663,0.9769806909655824
-4.0615,0.3128489316446815,1.093543713422646
-4.061,0.3021787567870086,1.188913459069066
-4.0605,0.291508581929326,1.263089927905238
-4.06,0.3341892813605223,1.284283204715149
-4.0595,0.8463576745288233,0.8180311148882058
-4.059,1.433217291701369,-0.08268314955102604
-4.0585,1.03842082196747,-0.8880276683430185
-4.058,0.4302208550792003,-1.121153713257435
-4.0575,0.3448594562177392,-0.8562377531282487
-4.057,0.4729015545098144,-0.3899856633013056
-4.0565,0.5902734779444399,0.1822328105781598
-4.056,0.6009436528021226,0.6060983467848571
-4.0555,0.5475927785137579,0.7968378380776975
-4.055,0.4515612047944783,0.7544512844570469
-4.0545,0.3555296310754218,0.5849050699745222
-4.054,0.3021787567870571,0.3199891098455773
-4.0535,0.2701682322139316,0.1186529801470684
-4.053,0.2381577076409128,0.02328323450064829
-4.0525,0.2168173579255475,-0.01910331912002144
-4.052,0.2061471830678066,-0.05089323433551411
-4.0515,0.142126133921769,-0.04029659593035631
-4.051,-0.3487019095316325,0.3411823866556712
-4.0505,-1.13829484899943,0.6590815388104051
-4.05,-1.938557963326346,0.2458126410091644
-4.0495,-2.568098279929622,-0.570128516188728
-4.049,-2.354694782776163,-1.08936379804146
-4.0485,-2.141291285621394,-1.460246142222108
-4.048,-1.127624674142465,-0.7078848154559045
-4.0475,-0.4233931335360515,-0.08268314955159473
-4.047,0.05676473506053106,0.4365521323024962
-4.0465,0.3021787567870086,0.7862411996727035
-4.046,0.3341892813600275,0.913400860534597
-4.0455,0.3128489316446622,0.9769806909657366
-4.045,0.2808384070716433,0.9981739677760521
-4.0445,0.2701682322139607,1.00877060618122
-4.044,0.2915085819293551,0.9981739677760232
-4.0435,0.3235191065023739,0.9663840525605498
-4.043,0.408880505363835,0.8286277532933731
-4.0425,0.5796033030866021,0.1504428953632743
-4.042,0.2701682322139607,-0.7502713690765743
-4.0415,-0.2099896363817582,-1.396666311791788
-4.041,-0.02859666380131826,-1.396666311791788
-4.0405,0.3661998059333374,-0.7926579226966947
-4.04,0.6222840025174878,-0.1886495336027004
-4.0395,0.6542945270905067,0.2776025562242426
-4.039,0.5796033030866603,0.5107286011383984
-4.0385,0.4729015545099309,0.5637117931641874
-4.038,0.3661998059332015,0.5107286011383984
-4.0375,0.3661998059331142,0.4365521323021203
-4.037,0.3768699807907871,0.3729723018711736
-4.0365,0.3448594562177392,0.2776025562246667
-4.036,0.2915085819292969,0.192829448983279
-4.0355,0.2594980573562781,0.13984625695749
-4.035,0.2061471830678648,0.1292496185523226
-4.0345,-0.2313299860967256,0.2458126410090584
-4.034,-0.9889124009925911,0.3623756634660061
-4.0335,-1.533091318734406,-0.008506680714854012
-4.033,-1.981238662756669,-0.7290780922655841
-4.0325,-2.16263163533706,-1.237716735714026
-4.032,-1.479740444445993,-0.9622041371799229
-4.0315,-0.7541685541242329,-0.3581957480859287
-4.031,-0.3380317346735714,0.06566978812176134
-4.0305,0.07810508477567314,0.55311515475902
-4.03,-0.2526703358121879,0.2987958330352329
-4.0295,-0.3273615598160732,0.2987958330352425
-4.029,-0.1139580626626144,0.5637117931641874
-4.0285,0.04609456020262521,0.7332580076468663
-4.028,0.2274875327832689,0.9028042221295549
-4.0275,0.2701682322139607,0.9134008605347127
-4.027,0.291508581929326,0.8710143069140429
-4.0265,0.3982103305060554,0.7226613692418338
-4.026,0.942389248247967,0.05507314971615059
-4.0255,1.166462920259302,-0.9939940523954253
-4.025,0.6542945270910017,-1.820531847997733
-4.0245,0.3875401556485862,-2.106641084937514
-4.024,0.5155822539406614,-1.566212526274467
-4.0235,0.6649647019480824,-0.824447837913421
-4.023,0.6863050516634964,-0.2416327256281713
-4.0225,0.5902734779444399,0.1610395337678249
-4.022,0.4729015545100376,0.3517790250606652
-4.0215,0.3661998059330172,0.3835689402763314
-4.021,0.2701682322139607,0.3729723018711736
-4.0205,0.1634664836371343,0.4153588554918433
-4.02,0.1421261339217884,0.3941655786814506
-4.0195,0.1634664836371343,0.3305857482505039
-4.019,0.1848068333524996,0.2881991946298341
-4.0185,0.1954770082101725,0.2670059178195185
-4.018,-0.03926683865883591,0.4153588554918433
-4.0175,-0.7755089038389382,0.8074344764830383
-4.017,-1.597112367879754,0.7120647308366181
-4.0165,-2.280003558772579,0.1398462569576731
-4.016,-2.706810553079496,0.3411823866556712
-4.0155,-2.24799303419956,0.6696781772155629
-4.015,-1.277007122149333,0.6590815388105882
-4.0145,-0.5194247072545548,0.5425185163538525
-4.014,-0.01792648894392668,0.4683420475177479
-4.0135,0.2488278824986827,0.4577454091125612
-4.013,0.3448594562177392,0.5107286011383502
-4.0125,0.3555296310754218,0.6060983467848571
-4.012,0.3235191065022671,0.7120647308365411
-4.0115,0.2061471830678648,0.7226613692416989
-4.011,0.2488278824985954,0.8710143069140429
-4.0105,0.2274875327832495,0.9345941373449896
-4.01,-0.391382608962363,0.2670059178194992
-4.0095,0.2701682322139607,0.02328323450064829
-4.009,0.7716664505245887,-0.7184814538603973
-4.0085,0.1954770082097649,-1.38606967338663
-4.008,-0.2633405106701714,-1.396666311791788
-4.0075,-0.06060718837438558,-0.8244478379132668
-4.007,0.2701682322141936,-0.1356663415763042
-4.0065,0.5262524287983441,0.4789386859228479
-4.006,0.5902734779444399,0.849821030103708
-4.0055,0.5582629533713241,0.966384052560521
-4.005,0.4835717293676135,0.9345941373450475
-4.0045,0.3982103305061524,0.8180311148882058
-4.004,0.4088805053638156,0.4895353243278226
-4.0035,0.3875401556484697,0.2776025562246667
-4.003,0.3341892813600565,0.1822328105781598
-4.0025,0.2915085819293648,0.1292496185523708
-4.002,0.2488278824985954,0.07626642652648545
-4.0015,0.02475421048725994,0.1186529801471552
-4.001,-0.8395299529842479,0.3199891098451533
-4.0005,-1.757164990746217,0.1504428953620503
-4,-2.280003558772191,-0.5171453241628908
-3.9995,-2.728150902794861,-0.4853554089473885
-3.999,-2.493407055925843,0.1186529801471552
-3.9985,-1.565101843307454,0.3199891098453364
-3.998,-0.722158029550525,0.2881991946298341
-3.9975,-0.1352984123779797,0.2140227257936621
-3.997,0.1954770082101822,0.1822328105781598
-3.9965,0.3341892813600565,0.2034260873884947
-3.996,0.3661998059331045,0.2881991946298341
-3.9955,0.3448594562177392,0.3941655786815084
-3.995,0.3128489316446912,0.5213252395435176
-3.9945,0.291508581929326,0.6484849004055269
-3.994,0.2808384070716433,0.7650479228623686
-3.9935,0.3021787567870086,0.8710143069140429
-3.993,0.5369226036560266,0.7862411996727035
-3.9925,1.059761171682476,0.2564092794143318
-3.992,0.8890383739595538,-0.3581957480853793
-3.9915,0.2381577076409128,-0.792657922697244
-3.991,0.4835717293676135,-0.252229364033705
-3.9905,0.6756348768059011,0.1080563417419877
-3.99,0.1207857842064037,-0.1144730647665284
-3.9895,0.2594980573562781,0.3941655786815084
-3.989,0.3128489316446912,0.7332580076468663
-3.9885,0.3448594562177392,0.9345941373450475
-3.988,0.3768699807907871,1.00877060618122
-3.9875,0.4408910299368829,0.9875773293708847
-3.987,0.4942419042252961,0.92399749893988
-3.9865,0.4302208550792003,0.7438546460520338
-3.986,0.3555296310754218,0.5425185163538525
-3.9855,0.291508581929326,0.3517790250608387
-3.985,0.2274875327832301,0.2034260873884947
-3.9845,0.05676473506030786,0.2458126410091644
-3.984,-0.4660738329661415,0.3517790250608387
-3.9835,-1.1062843244271,-0.09327978795619347
-3.983,-1.725154466172693,-0.4429688553267188
-3.9825,-2.07727023647622,0.04447651131098315
-3.982,-1.629122892453549,0.2564092794143318
-3.9815,-0.9142211769888124,0.2034260873884947
-3.981,-0.3166913849585846,0.1080563417419877
-3.9805,0.07810508477567314,0.04447651131098315
-3.98,0.2701682322139607,0.04447651131098315
-3.9795,0.3341892813600565,0.1186529801471552
-3.979,0.3341892813600565,0.2246193641988295
-3.9785,0.3128489316446912,0.3517790250608387
-3.978,0.3021787567870086,0.4895353243280153
-3.9775,0.3021787567870086,0.6166949851900245
-3.977,0.3235191065023739,0.7438546460520338
-3.9765,0.4195506802215176,0.7862411996727035
-3.976,0.8890383739595538,0.3623756634660061
-3.9755,1.027750647109428,-0.2840192792492073
-3.975,0.6329541773751706,-0.6654982618352349
-3.9745,0.5902734779444399,-0.9304142219644207
-3.974,0.8783681991018712,-0.9198175835592532
-3.9735,1.027750647109428,-0.3370024712750445
-3.973,0.9530594231056497,0.3411823866556712
-3.9725,0.7503261008096795,0.8286277532933731
-3.972,0.4729015545099309,1.019367244586387
-3.9715,0.3341892813600565,1.082947075017392
-3.971,0.02475421048725994,0.7332580076468663
-3.9705,-0.3273615598162672,0.1822328105781598
-3.97,-0.09261771294724913,0.2670059178194992
-3.9695,0.01408403562957729,0.2352160026039969
-3.969,0.1314559590640864,0.2352160026039969
-3.9685,0.2381577076409128,0.2246193641988295
-3.968,0.01408403562957729,0.2987958330350016
-3.9675,-0.7114878546928423,0.8922075837243778
-3.967,-1.26633694729234,1.316073119931075
-3.9665,-1.895877263895616,0.9451907757502149
-3.966,-2.408045657064382,-0.01910331912002144
-3.9655,-2.055929886760855,-0.6337083466197325
-3.965,-1.244996597576974,-0.6654982618352349
-3.9645,-0.5087545323968721,-0.474758770542221
-3.964,-0.02859666380115328,-0.2204394488182027
-3.9635,0.2381577076409128,-0.008506680714854012
-3.963,0.3341892813600565,0.1716361721729923
-3.9625,0.3555296310754218,0.3199891098453364
-3.962,0.3341892813600565,0.4365521323021782
-3.9615,0.3128489316446912,0.5319218779486851
-3.961,0.3021787567870086,0.6166949851900245
-3.9605,0.3021787567870086,0.701468092431364
-3.96,0.3875401556484697,0.7226613692416989
-3.9595,0.8783681991018712,0.2987958330350016
-3.959,1.241154144263081,-0.474758770542221
-3.9585,0.6009436528021226,-1.110557074852267
-3.958,0.1741366584948169,-0.9198175835592532
-3.9575,0.3555296310754218,-0.1780528951975329
-3.957,0.6009436528021226,0.2776025562246667
-3.9565,0.7183155762366316,0.5319218779486851
-3.956,0.6863050516635838,0.6590815388106942
-3.9555,0.5796033030867573,0.6908714540261965
-3.955,0.4408910299368829,0.6590815388106942
-3.9545,0.3555296310754218,0.6166949851900245
-3.954,0.3875401556484697,0.6060983467848571
-3.9535,0.3768699807907871,0.5743084315693548
-3.953,0.3341892813600565,0.5213252395435176
-3.9525,0.2061471830678648,0.3941655786815084
-3.952,0.1741366584948169,0.383568940276341
-3.9515,-0.08194753808956648,0.4471487707073456
-3.951,-1.543761493592088,-0.04029659593035631
-3.9505,-2.098610586191586,-0.1886495336027004
-3.95,-2.568098279929622,-1.01518732920576
-3.9495,-2.984235099379245,-1.905304955239825
-3.949,-2.557428105071939,-2.000674700886331
-3.9485,-1.629122892453549,-1.333086481360783
-3.948,-0.7648387289812555,-0.5489352393783931
-3.9475,-0.1459685872356623,0.06566978812131802
-3.947,0.1954770082101822,0.4471487707073456
-3.9465,0.3341892813600565,0.627291623595192
-3.946,0.3661998059331045,0.6802748156210291
-3.9455,0.3555296310754218,0.6696781772158616
-3.945,0.3235191065023739,0.627291623595192
-3.9445,0.291508581929326,0.5743084315693548
-3.944,0.291508581929326,0.5213252395435176
-3.9435,0.3021787567870086,0.4683420475176805
-3.943,0.4302208550792003,0.2776025562246667
-3.9425,1.006410297394063,-0.4111789401112165
-3.942,0.9210488985326017,-1.301296566145281
-3.9415,0.02475421048725994,-2.043061254507001
-3.941,-0.08194753808956648,-2.403346960282694
-3.9405,0.2594980573562781,-1.703968825541643
-3.94,0.5369226036560266,-0.8456411147230812
-3.9395,0.6542945270905358,-0.1250697031716958
-3.939,0.6009436528021226,0.3517790250608387
-3.9385,0.4942419042252961,0.5743084315693548
-3.938,0.3875401556484697,0.6378882620003594
-3.9375,0.4408910299368829,0.6590815388106942
-3.937,0.5049120790829789,0.6590815388106942
-3.9365,0.4408910299368829,0.5743084315693548
-3.936,0.3661998059331045,0.4895353243280153
-3.9355,0.291508581929326,0.4153588554918433
-3.935,0.1954770082101822,0.383568940276341
-3.9345,-0.2846808603855366,0.5743084315693548
-3.934,-1.052933450138687,0.627291623595192
-3.9335,-1.682473766741963,0.04447651131098315
-3.933,-2.269333383914508,-0.8880276683437509
-3.9325,-2.002579012472442,-1.205926820498774
-3.932,-1.991908837614759,-1.587405803084801
-3.9315,-1.212986073003927,-0.9516074987747555
-3.931,-0.5087545323968721,-0.2840192792492073
-3.9305,-0.03926683865883591,0.2034260873884947
-3.93,0.2701682322139607,0.55311515475902
-3.9295,0.3448594562177392,0.6484849004055269
-3.929,0.3341892813600565,0.6590815388106942
-3.9285,0.3021787567870086,0.6378882620003594
-3.928,0.291508581929326,0.5955017083796896
-3.9275,0.291508581929326,0.5637117931641874
-3.927,0.3128489316446912,0.5319218779486851
-3.9265,0.3555296310754218,0.4683420475176805
-3.926,0.7396559259519968,0.1080563417419877
-3.9255,1.326515543124542,-0.6866915386455698
-3.925,1.091771696255524,-1.42845622700729
-3.9245,0.9637295979633325,-1.01518732920576
-3.924,1.017080472251745,-0.3052125560595421
-3.9235,0.9850699476786977,0.09745970333682032
-3.923,0.8356874996711408,0.2352160026039969
-3.9225,0.6542945270905358,0.2140227257936621
-3.922,0.4835717293676135,0.2246193641988295
-3.9215,0.3661998059331045,0.2246193641988295
-3.921,0.3341892813600565,0.2458126410091644
-3.9205,0.3875401556484697,0.3729723018711736
-3.92,0.3661998059331045,0.4259554938970107
-3.9195,0.3235191065023739,0.457745409112513
-3.919,0.2808384070716433,0.4895353243280153
-3.9185,0.2274875327832301,0.5213252395435176
-3.918,-0.06060718837420119,0.8074344764830383
-3.9175,-0.7114878546928423,1.29487984312074
-3.917,-1.373038695869166,1.199510097474233
-3.9165,-1.746494815888059,0.3623756634660061
-3.916,-1.970568487899394,-0.5383386009732256
-3.9155,-1.447729919872945,-0.6866915386455698
-3.915,-0.7755089038389382,-0.3370024712750445
-3.9145,-0.2846808603855366,0.03387987290581572
-3.914,0.02475421048725994,0.3623756634660061
-3.9135,-0.06060718837420119,0.3411823866556712
-3.913,-0.4767440078238243,0.002089957690313421
-3.9125,-0.2099896363817582,0.3305857482505039
-3.912,-0.06060718837420119,0.5213252395435176
-3.9115,0.1314559590640864,0.701468092431364
-3.911,0.2808384070716433,0.8180311148882058
-3.9105,0.3128489316446912,0.775644561267536
-3.91,0.3768699807907871,0.6590815388106942
-3.9095,0.6756348768059011,0.1822328105781598
-3.909,0.8676980242441885,-0.7714646458869092
-3.9085,0.3235191065023739,-1.746355379162313
-3.908,0.0674349099179905,-1.714565463946811
-3.9075,0.3448594562177392,-0.8350444763179138
-3.907,0.6436243522328531,-0.2946159176543747
-3.9065,0.7609962756673623,-0.008506680714854012
-3.906,0.6969752265212663,0.1292496185523226
-3.9055,0.5689331282290746,0.2034260873884947
-3.905,0.4515612047945656,0.2246193641988295
-3.9045,0.408880505363835,0.2140227257936621
-3.904,0.5369226036560266,0.2246193641988295
-3.9035,0.5262524287983441,0.2352160026039969
-3.903,0.4408910299368829,0.2246193641988295
-3.9025,0.3448594562177392,0.2246193641988295
-3.902,0.2701682322139607,0.2352160026039969
-3.9015,0.1314559590640864,0.3517790250608387
-3.901,-0.5300948821122373,0.8180311148882058
-3.9005,-1.383708870726849,0.9769806909657173
-3.9,-2.087940411333903,0.3199891098453364
-3.8995,-2.653459678791083,-0.6337083466197325
-3.899,-2.173301810195364,-0.9516074987747555
-3.8985,-1.234326422719292,-0.5807251545938954
-3.898,-0.4980843575391895,-0.05089323433552374
-3.8975,-0.007256314085787988,0.4047622170866759
-3.897,0.2488278824985954,0.701468092431364
-3.8965,0.3448594562177392,0.8604176685088755
-3.896,0.3555296310754218,0.92399749893988
-3.8955,0.3235191065023739,0.92399749893988
-3.895,0.2168173579255475,0.8074344764830383
-3.8945,0.2274875327832301,0.775644561267536
-3.894,-0.007256314085787988,0.4789386859228479
-3.8935,-0.4874141826815069,-0.1568596183871981
-3.893,0.142126133921769,-0.400582301706049
-3.8925,0.7823366253827275,-1.269506650929778
-3.892,0.4408910299368829,-2.096044446532838
-3.8915,-0.1139580626626144,-2.244397384205182
-3.891,0.09944543449103843,-1.608599079895136
-3.8905,0.4515612047945656,-0.8880276683437509
-3.89,0.6969752265212663,-0.252229364033705
-3.8895,0.7396559259519968,0.08686306493165288
-3.889,0.6542945270905358,0.2246193641988295
-3.8885,0.5049120790829789,0.2458126410091644
-3.888,0.408880505363835,0.2034260873884947
-3.8875,0.4622313796522482,0.3517790250608387
-3.887,0.4729015545099309,0.4047622170866759
-3.8865,0.3982103305061524,0.3305857482505039
-3.886,0.3235191065023739,0.2458126410091644
