Class_3_Grab_w_two_Hands/Class_3_Grab_with_Two_Hands_Suko_6.csv

#Digilent WaveForms Oscilloscope Acquisition
#Device Name: EExplorer
#Serial Number: SN:210151A2B84A
#Date Time: 2020-12-22 14:23:04.412
#Sample rate: 2000Hz
#Samples: 16384
#Trigger: Source: Channel 1 Type: Edge Condition: Rising Level: 0 V Hyst.: Auto HoldOff: 0 s
#Channel 1: Range: 1 V/div Offset: 0 V Attenuation: 1 X
#Channel 2: Range: 1 V/div Offset: 0 V Attenuation: 1 X
#Power Supplies: ON
#Fixed Supply: ON
#Voltage: 3.3 V Readback: 3.326 V
#Positive Supply: ON
#Voltage: 3.7 V Readback: 3.685 V
#Current: 40 mA Readback: 18 mA
#Negative Supply: ON
#Voltage: -3.7 V Readback: -4.097 V
#Current: -40 mA Readback: -12 mA
#Reference 1: ON
#Voltage: 0 V
#Reference 2: ON
#Voltage: 0 V

Time (s),Channel 1 (V),Channel 2 (V)
-4.096,-0.5834457564006506,0.1292496185523226
-4.0955,-1.426389570156813,0.6378882619998968
-4.095,-1.714484291315176,0.7756445612674782
-4.0945,-1.895877263895616,0.7120647308365314
-4.094,-1.565101843307755,0.2987958330353774
-4.0935,-0.9248913518459712,-0.3475991096806841
-4.093,-0.3487019095316325,-0.8668343915334161
-4.0925,0.02475421048692028,-1.131750351662361
-4.092,0.2168173579256154,-1.163540266877969
-4.0915,0.291508581929326,-1.01518732920576
-4.091,0.3021787567870086,-0.7714646458869092
-4.0905,0.2808384070716142,-0.4747587705419223
-4.09,0.2488278824985954,-0.1462629799820306
-4.0895,0.2274875327832301,0.1716361721729923
-4.089,0.2274875327832301,0.4789386859225684
-4.0885,0.2488278824985954,0.7226613692416989
-4.088,0.3341892813600565,0.6378882620003594
-4.0875,0.5155822539404964,0.02328323450120728
-4.087,0.05676473506034668,-0.898624306748822
-4.0865,0.09944543449103843,-0.792657922697244
-4.086,0.50491207908261,-0.8562377531281908
-4.0855,0.8570278493867389,-0.8668343915331559
-4.085,1.113112045970889,-0.5807251545938954
-4.0845,1.102441871113216,0.02328323450009895
-4.084,0.867698024243975,0.6696781772162375
-4.0835,0.6329541773751706,1.082947075017392
-4.083,0.4408910299368829,1.241896651094903
-4.0825,0.4408910299368829,1.125333628637849
-4.082,0.4408910299368829,0.8922075837243778
-4.0815,0.3875401556484697,0.627291623595192
-4.081,0.3235191065024321,0.3411823866559315
-4.0805,0.2701682322139607,0.02328323450064829
-4.08,0.1207857842064037,-0.1780528951975329
-4.0795,-0.5834457564000101,0.1716361721726744
-4.079,-1.469070269588863,0.7120647308368977
-4.0785,-2.07727023647622,1.114736990232894
-4.078,-2.62144915421754,1.305476481525734
-4.0775,-2.3440246079175,0.9769806909649849
-4.077,-1.479740444445993,0.1716361721729923
-4.0765,-0.6794773301205221,-0.5701285161880533
-4.076,-0.1246282375200156,-1.025783967611062
-4.0755,0.1848068333524996,-1.174136905283272
-4.075,0.3021787567870086,-1.110557074852267
-4.0745,0.3341892813600275,-0.9092209451538256
-4.074,0.3021787567870086,-0.6231117082145651
-4.0735,0.2701682322139607,-0.2946159176543747
-4.073,0.2488278824986148,0.03387987290551697
-4.0725,0.2274875327832301,0.3517790250608387
-4.072,0.2274875327832301,0.6378882620003594
-4.0715,0.3768699807906513,0.6378882620003594
-4.071,0.9210488985327764,0.1822328105777646
-4.0705,1.113112045970889,-0.252229364033705
-4.07,0.7289857510946637,-0.3475991096801251
-4.0695,0.6863050516634479,-0.3264058328700794
-4.069,0.5369226036560266,-0.5489352393783931
-4.0685,0.142126133921769,-0.7820612842920766
-4.068,0.3235191065023836,-0.2098428104125244
-4.0675,0.3341892813600565,0.3517790250608387
-4.067,0.3661998059331045,0.9028042221295453
-4.0665,0.3875401556484212,1.199510097474204
-4.066,0.3341892813600565,1.167720182258731
-4.0655,0.3235191065023739,0.9663840525605498
-4.065,0.2915085819293551,0.6908714540264471
-4.0645,0.2594980573562781,0.383568940276341
-4.064,0.2381577076409128,0.07626642652648545
-4.0635,0.206147183067894,-0.209842810412775
-4.063,-0.1352984123786687,-0.07208651114540564
-4.0625,-0.8928808272734472,0.4259554938970107
-4.062,-1.62912289245288,0.8074344764826914
-4.0615,-2.205312334768616,0.9663840525605402
-4.061,-2.429386006779747,0.9557874141553824
-4.0605,-1.799845690176472,0.4153588554918433
-4.06,-0.9782422261343164,-0.2628260024393157
-4.0595,-0.3273615598162672,-0.7502713690765743
-4.059,0.0674349099179905,-0.9728007755850904
-4.0585,0.2594980573561034,-0.9622041371799326
-4.058,0.3235191065023739,-0.8032545611024114
-4.0575,0.3235191065023739,-0.5489352393783931
-4.057,0.2915085819293551,-0.2522293640339748
-4.0565,0.2594980573562781,0.05507314971615059
-4.056,0.2381577076409128,0.3517790250608387
-4.0555,0.2381577076409128,0.6272916235949414
-4.055,0.2594980573565304,0.7968378380775915
-4.0545,0.5369226036560266,0.4895353243280153
-4.054,0.8676980242438876,-0.0402965959298745
-4.0535,0.4515612047944103,-0.4323722169214549
-4.053,0.2808384070716433,-0.326405832869877
-4.0525,0.5369226036560266,-0.3475991096802118
-4.052,0.7930068002403324,-0.4217755785163936
-4.0515,0.707645401378949,-0.4323722169215513
-4.051,0.05676473506030786,-0.6019184314042303
-4.0505,0.03542438534496199,-0.06148987274118267
-4.05,0.03542438534494258,0.3305857482505039
-4.0495,0.1207857842064037,0.5849050699745222
-4.049,0.3768699807905542,0.6590815388106267
-4.0485,0.4088805053637768,0.5319218779485309
-4.048,0.3448594562177392,0.3623756634660061
-4.0475,0.2808384070717015,0.1928294489834814
-4.047,0.2381577076406702,-0.008506680714844374
-4.0465,-0.02859666380115328,0.002089957690313421
-4.046,-0.8288597781266236,0.5001319627327299
-4.0455,-1.586442193023333,1.082947075017768
-4.045,-2.151961460479999,1.496215972818921
-4.0445,-2.429386006779747,1.612778995275763
-4.044,-1.895877263894878,1.093543713421865
-4.0435,-1.084943974711735,0.3305857482505039
-4.043,-0.4020527838200457,-0.2734226408440398
-4.0425,0.03542438534454467,-0.5807251545936158
-4.042,0.2488278824985954,-0.6549016234300674
-4.0415,0.3235191065023739,-0.570128516188728
-4.041,0.3235191065023739,-0.3793890248958876
-4.0405,0.3021787567869795,-0.1356663415766415
-4.04,0.2701682322139607,0.1080563417419877
-4.0395,0.2488278824986148,0.3623756634657748
-4.039,0.2381577076409128,0.5849050699746861
-4.0385,0.2381577076409128,0.7650479228623686
-4.038,0.3875401556483339,0.5849050699746861
-4.0375,0.6649647019480824,-0.02969995752559365
-4.037,0.5155822539406614,-0.474758770542221
-4.0365,0.3341892813600565,-0.5171453241628908
-4.036,0.483571729367827,-0.5171453241628426
-4.0355,0.7183155762366316,-0.4641621321370536
-4.035,0.8676980242441885,-0.3581957480853793
-4.0345,0.8676980242441885,-0.07208651114611886
-4.034,0.6969752265212663,0.2458126410091644
-4.0335,0.04609456020262521,0.1080563417419877
-4.033,-0.3487019095312734,0.05507314971619878
-4.0325,-0.1993194615239494,0.2246193641988391
-4.032,-0.06060718837420119,0.2352160026039969
-4.0315,0.1207857842062387,0.2458126410091548
-4.031,0.2488278824985857,0.1504428953624262
-4.0305,0.2381577076409128,-0.1038764263613609
-4.03,0.1634664836372022,-0.305212556059359
-4.0295,-0.3593720843900624,0.02328323450120727
-4.029,-1.180975548430879,0.6378882620003594
-4.0285,-1.714484291315011,1.093543713422559
-4.028,-2.130621110764721,1.305476481525831
-4.0275,-2.226652684483777,1.220703374284568
-4.027,-1.607782542738184,0.5637117931641874
-4.0265,-0.8395299529857327,-0.1568596183865427
-4.026,-0.2526703358124887,-0.6337083466197325
-4.0255,0.1101156093487211,-0.8350444763179138
-4.025,0.280838407071488,-0.8032545611024403
-4.0245,0.3341892813600468,-0.6231117082143242
-4.024,0.3235191065023739,-0.3581957480853793
-4.0235,0.2915085819293551,-0.07208651114611886
-4.023,0.2594980573562684,0.2140227257939127
-4.0225,0.2488278824985954,0.4895353243280153
-4.022,0.2488278824985954,0.7332580076466446
-4.0215,0.2915085819296365,0.7968378380774179
-4.021,0.6329541773751706,0.2987958330350016
-4.0205,0.9530594231056497,-0.326405832869877
-4.02,0.6222840025174393,-0.6549016234299614
-4.0195,0.5689331282290746,-0.5383386009732256
-4.019,0.7609962756673623,-0.5807251545938954
-4.0185,0.9210488985324562,-0.6231117082145265
-4.018,0.9530594231056497,-0.4217755785163839
-4.0175,0.8356874996711408,0.01268659609548085
-4.017,0.6542945270907008,0.3941655786811615
-4.0165,0.4835717293675165,0.6696781772159291
-4.016,0.3768699807907871,0.7438546460520338
-4.0155,0.1741366584950013,0.4683420475179311
-4.015,-0.4447334832507278,-0.2628260024389591
-4.0145,-0.391382608962363,-0.3581957480853793
-4.014,-0.2740106855279608,-0.4111789401111683
-4.0135,-0.1246282375204232,-0.4217755785160177
-4.013,-0.2633405106701714,-0.01910331912002144
-4.0125,-1.095614149569417,0.6696781772158616
-4.012,-1.906547438753531,1.21010673587941
-4.0115,-2.162631635337682,1.220703374284568
-4.011,-1.927887788468663,0.6908714540261965
-4.0105,-1.223656247862249,0.01268659609609768
-4.01,-0.5407650569699201,-0.5065486857577234
-4.0095,-0.06060718837420119,-0.7820612842920766
-4.009,0.2061471830676222,-0.8350444763178656
-4.0085,0.312848931644701,-0.7608680074815779
-4.008,0.3235191065023739,-0.5807251545938954
-4.0075,0.302178756787028,-0.3581957480855817
-4.007,0.2701682322139413,-0.1038764263611392
-4.0065,0.2488278824985954,0.13984625695749
-4.006,0.2381577076409128,0.3729723018711736
-4.0055,0.2381577076409613,0.5849050699746089
-4.005,0.291508581929326,0.6802748156210291
-4.0045,0.6863050516635838,0.2246193641988295
-4.004,1.166462920259011,-0.474758770542674
-4.0035,0.8463576745288233,-0.9728007755850904
-4.003,0.5155822539406614,-1.163540266878104
-4.0025,0.5902734779443719,-1.078767159636842
-4.002,0.7396559259519968,-0.8244478379127463
-4.0015,0.8036769750980928,-0.400582301706049
-4.001,0.739655925952055,0.1504428953621564
-4.0005,0.6116138276596692,0.6378882620005811
-4,0.4622313796522482,0.8816109453192104
-3.9995,0.3661998059331045,0.9134008605347127
-3.999,0.4408910299368829,0.7438546460520338
-3.9985,0.4408910299368829,0.5213252395435176
-3.998,0.3768699807907871,0.2776025562246667
-3.9975,0.3021787567870086,0.02328323450064829
-3.997,-0.1673089369510276,-0.6231117082145651
-3.9965,-0.7861790786966207,-1.131750351662602
-3.996,-1.26633694729234,-0.4323722169215513
-3.9955,-1.959898313041711,0.4471487707073456
-3.995,-2.525417580498891,1.199510097474233
-3.9945,-2.984235099379245,1.570392441655093
-3.994,-2.834852651371688,0.9451907757502149
-3.9935,-1.906547438753298,0.08686306493165288
-3.993,-0.9569018764195432,-0.5171453241628908
-3.9925,-0.2633405106701714,-0.8138511995075789
-3.992,0.142126133921769,-0.8456411147230812
-3.9915,0.3235191065023739,-0.7078848154559045
-3.991,0.3661998059331045,-0.4641621321370536
-3.9905,0.3555296310754218,-0.1886495336027004
-3.99,0.3128489316446912,0.08686306493165288
-3.9895,0.2701682322139607,0.3623756634660061
-3.989,0.2488278824985954,0.6060983467848571
-3.9885,0.2488278824985954,0.8392243916985406
-3.988,0.2594980573562781,0.9663840525605498
-3.9875,0.4942419042252961,0.6802748156210291
-3.987,0.4302208550792003,0.2458126410091644
-3.9865,0.03542438534494258,-0.326405832869877
-3.986,0.1634664836371343,-0.7502713690765743
-3.9855,0.5155822539406614,-0.8668343915334161
-3.985,0.7823366253827275,-0.7078848154559045
-3.9845,0.857027849386506,-0.2416327256285375
-3.984,0.7716664505250448,0.3411823866556712
-3.9835,0.6329541773751706,0.7544512844572011
-3.983,0.4729015545099309,0.9451907757502149
-3.9825,0.4195506802215176,0.92399749893988
-3.982,0.3875401556484697,0.7650479228623686
-3.9815,0.3235191065023739,0.5319218779486851
-3.981,0.2808384070716433,0.2246193641988295
-3.9805,0.2488278824985954,-0.09327978795619347
-3.98,0.1954770082101822,-0.3475991096802118
-3.9795,-0.1993194615240755,-0.1144730647665284
-3.979,-0.9355615267041777,0.4683420475176805
-3.9785,-1.83185621474952,0.6590815388106942
-3.978,-2.738821077652544,0.4365521323021782
-3.9775,-2.269333383914508,0.2564092794143318
-3.977,-1.479740444445993,-0.3687923864905467
-3.9765,-0.6794773301197943,-0.8138511995075789
-3.976,-0.06060718837420119,-0.9728007755850904
-3.9755,0.2168173579255475,-1.01518732920576
-3.975,0.3021787567870086,-0.9198175835592532
-3.9745,0.3128489316446912,-0.7078848154559045
-3.974,0.291508581929326,-0.4323722169215513
-3.9735,0.2701682322139607,-0.1356663415768632
-3.973,0.2594980573562781,0.1716361721729923
-3.9725,0.2488278824985954,0.457745409112513
-3.972,0.2701682322139607,0.7226613692416989
-3.9715,0.3341892813600565,0.7226613692416989
-3.971,0.4942419042252961,0.1186529801471552
-3.9705,0.3555296310754218,-0.6019184314042303
-3.97,-0.3807124341046804,-1.089363798041932
-3.9695,-0.4127229586777283,-1.205926820498774
-3.969,0.05676473506030786,-1.025783967610927
-3.9685,0.5049120790829789,-0.6019184314042303
-3.968,0.7289857510943143,0.002089957690313421
-3.9675,0.7396559259519968,0.5743084315693548
-3.967,0.6222840025174878,0.9345941373450475
-3.9665,0.4835717293676135,1.082947075017392
-3.966,0.4195506802215176,1.019367244586387
-3.9655,0.4835717293676135,0.8180311148882058
-3.965,0.4515612047945656,0.55311515475902
-3.9645,0.3768699807907871,0.2458126410091644
-3.964,0.3128489316446912,-0.05089323433552374
-3.9635,0.2381577076409128,-0.3370024712750445
-3.963,-0.1139580626626144,-0.1992461720078678
-3.9625,-0.7755089038389382,0.3305857482505039
-3.962,-1.170305373573196,0.6060983467848571
-3.9615,-1.51175096901904,0.5849050699745222
-3.961,-1.863866739322568,0.6696781772158616
-3.9605,-1.586442193022819,0.2776025562246667
-3.96,-1.458400094730627,-0.8032545611024114
-3.9595,-1.1062843244271,-1.481439419033127
-3.959,-0.5621054066852853,-1.523825972653797
-3.9585,-0.2206598112394408,-1.364876396576285
-3.958,0.08877525963335578,-0.9728007755850904
-3.9575,0.2701682322139607,-0.5383386009732256
-3.957,0.291508581929326,-0.2098428104130352
-3.9565,0.2594980573562781,0.09745970333682032
-3.956,0.2488278824985954,0.3941655786815084
-3.9555,0.2381577076409128,0.6696781772158616
-3.955,0.2808384070716433,0.8604176685088755
-3.9545,0.4942419042252961,0.6908714540261965
-3.954,0.8463576745288233,0.08686306493165288
-3.9535,0.942389248247967,-0.6125150698093976
-3.953,0.9957401225363802,-1.089363798041932
-3.9525,1.209143619690033,-1.248313374119443
-3.952,1.294505018551494,-1.121153713257435
-3.9515,1.251824319120764,-0.7820612842920766
-3.951,1.070431346540159,-0.2628260024388724
-3.9505,0.825017324813458,0.3199891098453364
-3.95,0.5902734779444399,0.7862411996727035
-3.9495,0.4302208550792003,0.9981739677760521
-3.949,0.4729015545099309,0.9134008605347127
-3.9485,0.4622313796522482,0.6802748156210291
-3.948,0.3875401556484697,0.3941655786815084
-3.9475,0.3128489316446912,0.06566978812131802
-3.947,0.2594980573562781,-0.2628260024388724
-3.9465,0.1207857842064037,-0.474758770542221
-3.946,-0.4874141826815069,-0.2098428104130352
-3.9455,-1.223656247861609,0.3411823866556712
-3.945,-1.799845690176472,0.7544512844572011
-3.9445,-1.83185621474952,0.5213252395435176
-3.944,-1.223656247861609,-0.1462629799820306
-3.9435,-0.5941159312583333,-0.7502713690765743
-3.943,-0.1139580626626144,-1.121153713257435
-3.9425,0.1527963087794516,-1.237716735714276
-3.942,0.1101156093487211,-1.34368311976595
-3.9415,-0.3700422592469978,-1.661582271920973
-3.941,-0.4020527838200457,-1.396666311791788
-3.9405,-0.2633405106701714,-0.9304142219644207
-3.94,-0.1032878878049318,-0.4217755785163839
-3.9395,0.1101156093487211,0.1186529801471552
-3.939,0.2274875327832301,0.5319218779486851
-3.9385,0.2381577076409128,0.7968378380778709
-3.938,0.4302208550792003,0.6060983467848571
-3.9375,0.8997085488172365,-0.1674562567923655
-3.937,0.857027849386506,-0.8774310299385835
-3.9365,0.3875401556484697,-1.258910012524611
-3.936,0.4622313796522482,-1.322489842955616
-3.9355,0.7396559259519968,-1.0999604364471
-3.935,0.9210488985326017,-0.6972881770507372
-3.9345,0.9317190733902845,-0.09327978795619347
-3.934,0.8036769750980928,0.5425185163538525
-3.9335,0.6436243522328531,0.9451907757502149
-3.933,0.4729015545099309,1.114736990232894
-3.9325,0.4302208550792003,1.00877060618122
-3.932,0.408880505363835,0.7438546460520338
-3.9315,0.3555296310754218,0.457745409112513
-3.931,0.291508581929326,0.1716361721729923
-3.9305,0.2488278824985954,-0.1568596183871981
-3.93,0.1741366584948169,-0.4111789401112165
-3.9295,-0.2526703358124887,-0.1674562567923655
-3.929,-0.9995825758502737,0.3517790250608387
-3.9285,-1.650463242168915,0.7968378380778709
-3.928,-2.045259711903173,0.9663840525605498
-3.9275,-1.87453691418025,0.6908714540261965
-3.927,-1.180975548430879,-0.04029659593035631
-3.9265,-0.5300948821122373,-0.7078848154559045
-3.926,-0.07127736323188383,-1.0999604364471
-3.9255,0.1848068333524996,-1.205926820498774
-3.925,0.291508581929326,-1.0999604364471
-3.9245,0.3128489316446912,-0.8562377531282487
-3.924,0.291508581929326,-0.5489352393783931
-3.9235,-0.1673089369510276,-0.6231117082145651
-3.923,-0.572775581542968,-0.6443049850249
-3.9225,-0.3807124341046804,-0.1038764263613609
-3.922,-0.2206598112394408,0.3623756634660061
-3.9215,0.01408403562957729,0.7438546460520338
-3.921,0.142126133921769,0.4683420475176805
-3.9205,-0.07127736323188383,0.07626642652648545
-3.92,-0.5514352318276028,-0.400582301706049
-3.9195,-0.4980843575391895,-0.8562377531282487
-3.919,0.08877525963335578,-1.004590690800593
-3.9185,0.6222840025174878,-0.8456411147230812
-3.918,0.8997085488172365,-0.400582301706049
-3.9175,0.9210488985326017,0.2881991946298341
-3.917,0.7823366253827275,0.8816109453192104
-3.9165,0.6009436528021226,1.135930267043229
-3.916,0.4515612047945656,1.104140351827727
-3.9155,0.3875401556484697,0.8604176685088755
-3.915,0.3341892813600565,0.55311515475902
-3.9145,0.291508581929326,0.2140227257936621
-3.914,0.2488278824985954,-0.1250697031716958
-3.9135,0.2274875327832301,-0.4429688553267188
-3.913,0.142126133921769,-0.5383386009732256
-3.9125,-0.07127736323188383,-0.1568596183871981
-3.912,-0.658136980404429,0.3729723018711736
-3.9115,-1.212986073003927,0.6378882620003594
-3.911,-1.394379045584531,0.4365521323021782
-3.9105,-1.010252750707956,-0.1780528951975329
-3.91,-0.5087545323968721,-0.7608680074817418
-3.9095,-0.1032878878049318,-1.121153713257435
-3.909,0.142126133921769,-1.227120097309109
-3.9085,0.2594980573562781,-1.131750351662602
-3.908,0.291508581929326,-0.8986243067489184
-3.9075,0.2808384070716433,-0.5913217929990628
-3.907,0.2701682322139607,-0.2416327256285375
-3.9065,0.2488278824985954,0.09745970333682032
-3.906,0.2381577076409128,0.4365521323021782
-3.9055,0.2381577076409128,0.7332580076468663
-3.905,0.1741366584948169,0.8286277532933731
-3.9045,0.2061471830678648,0.02328323450064829
-3.904,0.9637295979633325,-0.6972881770507372
-3.9035,1.219813794547716,-1.131750351662602
-3.903,0.6756348768059011,-1.375473034981453
-3.9025,0.6436243522328531,-1.205926820498774
-3.902,0.8036769750980928,-0.8138511995075789
-3.9015,0.8676980242441885,-0.3687923864905467
-3.901,0.7716664505250448,0.2881991946298341
-3.9005,0.6009436528021226,0.9134008605347127
-3.9,0.4408910299368829,1.25249328950007
-3.8995,0.3341892813600565,1.263089927905238
-3.899,0.4515612047945656,0.7968378380778709
-3.8985,0.4942419042252961,0.4047622170866759
-3.898,0.4408910299368829,0.1292496185523226
-3.8975,0.3448594562177392,-0.1568596183871981
-3.897,0.2701682322139607,-0.4323722169215513
-3.8965,0.07810508477567314,-0.570128516188728
-3.896,-0.6154562809736985,-0.1568596183871981
-3.8955,-1.351698346153801,0.383568940276341
-3.895,-1.757164990745741,0.7120647308365314
-3.8945,-1.981238662757077,0.7438546460520338
-3.894,-1.661133417026597,0.3411823866556712
-3.8935,-0.9889124009925911,-0.3581957480853793
-3.893,-0.391382608962363,-0.9092209451540858
-3.8925,0.00341386077189465,-1.184733543688439
-3.892,0.2168173579255475,-1.195330182093607
-3.8915,0.3021787567870086,-1.01518732920576
-3.891,0.3128489316446912,-0.718481453861072
-3.8905,0.291508581929326,-0.3687923864905467
-3.89,0.2594980573562781,0.002089957690313421
-3.8895,0.2381577076409128,0.3729723018711736
-3.889,0.2274875327832301,0.701468092431364
-3.8885,0.2381577076409128,1.00877060618122
-3.888,0.2488278824985954,1.146526905448396
-3.8875,0.3021787567870086,0.7862411996727035
-3.887,-0.06060718837420119,0.2881991946298341
-3.8865,-0.4767440078238243,-0.04029659593035631
