Class_3_Grab_w_two_Hands/Class_3_Grab_with_Two_Hands_Suko_7.csv

#Digilent WaveForms Oscilloscope Acquisition
#Device Name: EExplorer
#Serial Number: SN:210151A2B84A
#Date Time: 2021-01-24 14:24:25.474
#Sample rate: 2000Hz
#Samples: 16384
#Trigger: Source: Channel 1 Type: Edge Condition: Rising Level: 0 V Hyst.: Auto HoldOff: 0 s
#Channel 1: Range: 1 V/div Offset: 0 V Attenuation: 1 X
#Channel 2: Range: 1 V/div Offset: 0 V Attenuation: 1 X
#Power Supplies: ON
#Fixed Supply: ON
#Voltage: 3.3 V Readback: 3.302 V
#Positive Supply: ON
#Voltage: 3.7 V Readback: 3.717 V
#Current: 40 mA Readback: 23 mA
#Negative Supply: ON
#Voltage: -3.7 V Readback: -3.348 V
#Current: -40 mA Readback: -11 mA
#Reference 1: ON
#Voltage: 0 V
#Reference 2: ON
#Voltage: 0 V

Time (s),Channel 1 (V),Channel 2 (V)
-4.096,-0.4767440078238243,-0.5807251545938954
-4.0955,-0.7968492535540124,-1.078767159636312
-4.095,-1.04226327528082,-1.364876396575948
-4.0945,-0.839529952985034,-0.9939940523954253
-4.094,-0.4447334832511353,-0.3687923864911155
-4.0935,-0.09261771294702593,0.1716361721733104
-4.093,0.1527963087794516,0.5213252395435176
-4.0925,0.2701682322138539,0.7226613692415158
-4.092,0.3235191065023739,0.7968378380778806
-4.0915,0.3235191065023739,0.8074344764830383
-4.091,0.3128489316446912,0.775644561267536
-4.0905,0.2915085819293163,0.7332580076468181
-4.09,0.2808384070716433,0.6802748156210291
-4.0895,0.2488278824985954,0.6166949851900245
-4.089,0.2274875327832495,0.5531151547590778
-4.0885,-0.007256314085787988,0.2881991946298341
-4.088,-0.4874141826815069,-0.3793890248957141
-4.0875,-0.8822106524154054,-1.057573882825813
-4.087,-1.244996597576965,-1.386069673386177
-4.0865,-1.234326422719292,-0.8986243067489184
-4.086,-0.7648387289816825,-0.4429688553271331
-4.0855,-0.2846808603852067,-0.1144730647663356
-4.085,0.07810508477567314,0.09745970333682032
-4.0845,0.280838407071459,0.1716361721729249
-4.084,0.3768699807908162,0.1716361721729827
-4.0835,0.408880505363835,0.1610395337678249
-4.083,0.5155822539406614,0.2564092794143318
-4.0825,0.6436243522328142,0.3941655786814988
-4.082,0.6009436528021226,0.383568940276341
-4.0815,0.5049120790829789,0.3305857482505039
-4.081,0.4195506802215953,0.2881991946298726
-4.0805,0.3982103305061524,0.309392471440169
-4.08,0.5369226036560266,0.4365521323021782
-4.0795,0.4942419042253349,0.05507314971649752
-4.079,-0.07127736323240787,-0.6231117082150277
-4.0785,-0.6474668055467465,-1.131750351662602
-4.078,-0.8288597781271865,-1.089363798041971
-4.0775,-0.58344575640034,-0.5383386009726859
-4.077,-0.2420001609548061,0.05507314971615059
-4.0765,0.03542438534469028,0.4895353243276202
-4.076,0.2061471830679425,0.7650479228624746
-4.0755,0.291508581929326,0.8816109453192104
-4.075,0.3128489316446912,0.92399749893988
-4.0745,0.3128489316446815,0.9028042221294971
-4.074,0.3021787567870086,0.849821030103708
-4.0735,0.2808384070716433,0.7862411996727035
-4.073,0.2594980573562975,0.7226613692417567
-4.0725,0.2488278824985954,0.6378882620003594
-4.072,0.1954770082101822,0.5001319627331828
-4.0715,-0.2313299860967352,-0.07208651114533815
-4.071,-0.7221580295507967,-0.782061284292597
-4.0705,-1.020922925565639,-1.354279758171118
-4.07,-1.074273799854004,-1.523825972653643
-4.0695,-0.7328282044077902,-1.036380606015603
-4.069,-0.274010685527854,-0.4959520473525559
-4.0685,0.09944543449103843,-0.1144730647665284
-4.068,0.3021787567870959,0.09745970333687815
-4.0675,0.3982103305061524,0.1610395337678249
-4.067,0.408880505363835,0.1716361721729923
-4.0665,0.4515612047947596,0.09745970333661792
-4.066,0.6649647019482183,-0.1250697031716958
-4.0655,0.6756348768059011,-0.1674562567923655
-4.065,0.5689331282291716,-0.1038764263614187
-4.0645,0.4622313796522482,-0.008506680714854012
-4.064,0.3768699807907871,0.07626642652648545
-4.0635,0.3448594562177683,0.1186529801471166
-4.063,-0.03926683865933085,-0.2628260024394506
-4.0625,-0.5834457564006506,-0.8986243067489184
-4.062,-0.8715404775578199,-1.375473034981019
-4.0615,-0.967572051276954,-1.428456227006779
-4.061,-0.6688071552621118,-0.8668343915334161
-4.0605,-0.2953510352432193,-0.2098428104130352
-4.06,0.01408403562975197,0.2987958330352811
-4.0595,0.2061471830678648,0.6060983467848571
-4.059,0.291508581929326,0.7650479228623686
-4.0585,0.3235191065023447,0.8180311148881576
-4.058,0.3235191065023739,0.8074344764830383
-4.0575,0.3021787567870086,0.775644561267536
-4.057,0.2915085819293357,0.7332580076469049
-4.0565,0.2701682322139607,0.6802748156210291
-4.056,0.2594980573562781,0.627291623595192
-4.0555,0.2488278824986051,0.5531151547590875
-4.055,0.01408403562909207,0.288199194629198
-4.0545,-0.5194247072545548,-0.4111789401112165
-4.054,-1.031593100422856,-1.121153713256789
-4.0535,-1.341028171295847,-1.534422611058647
-4.053,-1.042263275281004,-1.184733543688439
-4.0525,-0.4874141826815069,-0.6019184314042303
-4.052,-0.02859666380091067,-0.1780528951973305
-4.0515,0.2381577076409128,0.04447651131098315
-4.051,0.3661998059331045,0.1080563417419877
-4.0505,0.3982103305061233,0.1398462569574611
-4.05,0.3982103305061524,0.1610395337678249
-4.0495,0.5475927785137094,0.3411823866556712
-4.049,0.6116138276597469,0.4259554938969336
-4.0485,0.5902734779444399,0.3835689402763025
-4.048,0.5902734779444399,0.3411823866556712
-4.0475,0.5262524287984023,0.2881991946298823
-4.047,0.5155822539409817,0.2987958330348859
-4.0465,0.8676980242441885,0.1716361721729923
-4.046,0.5796033030870194,-0.4535654937313176
-4.0455,-0.167308936951639,-1.07876715963662
-4.045,-0.839529952985034,-0.9198175835592532
-4.0445,-0.9248913518464952,-0.4535654937318862
-4.044,-0.6047861061156858,-0.04029659593009609
-4.0435,-0.2420001609548061,0.2458126410091644
-4.043,0.04609456020262521,0.4365521323021782
-4.0425,0.2168173579253922,0.5425185163537561
-4.042,0.291508581929326,0.6060983467848571
-4.0415,0.3235191065023739,0.6378882620003594
-4.041,0.312848931644701,0.6696781772158328
-4.0405,0.2915085819293066,0.6908714540262062
-4.04,0.2701682322139607,0.701468092431364
-4.0395,0.2488278824986148,0.701468092431364
-4.039,0.2381577076407478,0.7014680924312291
-4.0385,0.05676473506030786,0.55311515475902
-4.038,-0.4767440078233389,-0.07208651114528997
-4.0375,-0.8715404775583634,-0.77146464588742
-4.037,-1.180975548430879,-1.333086481360783
-4.0365,-1.191645723288561,-1.269506650929778
-4.036,-0.7221580295500495,-0.6443049850243506
-4.0355,-0.1993194615240755,-0.04029659593035631
-4.035,0.1634664836371343,0.3199891098453364
-4.0345,0.3555296310752471,0.4789386859227033
-4.034,0.4302208550792003,0.4789386859228479
-4.0335,0.4302208550792003,0.4153588554918433
-4.033,0.5262524287982567,0.277602556224792
-4.0325,0.7503261008096505,0.03387987290579644
-4.032,0.7183155762366316,0.01268659609548085
-4.0315,0.6009436528022294,0.03387987290579644
-4.031,0.4729015545098726,0.06566978812133729
-4.0305,0.408880505363835,0.08686306493165288
-4.03,0.6436243522326396,-0.06148987274055626
-4.0295,0.6329541773746756,-0.6125150698099373
-4.029,0.08877525963335578,-1.205926820498774
-4.0285,-0.658136980404429,-1.449649503817625
-4.028,-0.924891351846272,-1.057573882825909
-4.0275,-0.6794773301197943,-0.4853554089473885
-4.027,-0.3166913849585846,0.002089957690313421
-4.0265,-0.01792648894374238,0.330585748250205
-4.026,0.1848068333524996,0.5107286011383502
-4.0255,0.2808384070716433,0.5849050699745222
-4.025,0.3128489316446621,0.6166949851899957
-4.0245,0.3128489316446718,0.6060983467848474
-4.024,0.291508581929326,0.5955017083796896
-4.0235,0.2701682322139801,0.5743084315693742
-4.023,0.2488278824985857,0.5531151547590006
-4.0225,0.2381577076409128,0.5319218779486851
-4.022,0.206147183067894,0.4789386859228961
-4.0215,-0.1459685872359243,0.02328323450010858
-4.021,-0.4340633083930936,-0.570128516188728
-4.0205,-0.7434983792658902,-1.152943628472937
-4.02,-1.084943974711512,-1.227120097308617
-4.0195,-0.839529952985034,-0.6866915386455698
-4.019,-0.4127229586777283,-0.1780528951975329
-4.0185,-0.04993701351684854,0.1186529801468854
-4.018,0.1954770082101822,0.2564092794143318
-4.0175,0.3235191065023739,0.2881991946298341
-4.017,0.3661998059330657,0.2881991946298341
-4.0165,0.4195506802217409,0.3093924714403232
-4.016,0.6649647019482183,0.4789386859228479
-4.0155,0.6969752265212372,0.5001319627331635
-4.015,0.6116138276597081,0.4577454091124649
-4.0145,0.5049120790829789,0.4047622170866759
-4.014,0.4195506802215953,0.3729723018712025
-4.0135,0.5049120790832214,0.3093924714397449
-4.013,0.7716664505250448,-0.1568596183871981
-4.0125,0.3661998059331045,-0.8350444763179138
-4.012,-0.2526703358130127,-1.195330182093134
-4.0115,-0.8288597781273515,-0.6760949002404023
-4.011,-0.8181896032696687,-0.1674562567923655
-4.0105,-0.4980843575394807,0.1292496185520528
-4.01,-0.156638762093345,0.2776025562246667
-4.0095,0.08877525963335578,0.3517790250608387
-4.009,0.2381577076407769,0.3941655786814698
-4.0085,0.2915085819293454,0.4259554938970492
-4.008,0.3128489316446912,0.4683420475176805
-4.0075,0.3021787567870183,0.5107286011383116
-4.007,0.2808384070716239,0.5531151547590585
-4.0065,0.2594980573562781,0.5955017083796896
-4.006,0.2381577076409128,0.6378882620003594
-4.0055,0.2168173579253049,0.6590815388104629
-4.005,-0.04993701351651855,0.4047622170866759
-4.0045,-0.5194247072545548,-0.2416327256285375
-4.004,-0.8075194284120151,-0.8350444763180102
-4.0035,-0.839529952985034,-0.9410108603695881
-4.003,-0.5407650569699201,-0.4217755785163839
-4.0025,-0.1779791118090402,0.05507314971571686
-4.002,0.08877525963335578,0.3411823866556712
-4.0015,0.2488278824985954,0.5001319627331828
-4.001,0.3341892813599789,0.542518516353814
-4.0005,0.3661998059331045,0.5319218779486465
-4,0.3661998059331045,0.4895353243280153
-3.9995,0.5796033030867573,0.55311515475902
-3.999,0.6756348768059011,0.5743084315693548
-3.9985,0.6436243522328531,0.5213252395435176
-3.998,0.5582629533713921,0.4471487707073456
-3.9975,0.4729015545099309,0.3729723018711736
-3.997,0.408880505363835,0.3199891098453364
-3.9965,0.3875401556484697,0.08686306493165288
-3.996,0.02475421048725994,-0.5277419625680583
-3.9955,-0.5834457564006506,-1.174136905283272
-3.995,-1.138294849000148,-1.672178910326141
-3.9945,-1.148965023857831,-1.460246142222792
-3.994,-0.754168554123573,-0.8032545611024114
-3.9935,-0.3060212101009019,-0.1886495336027004
-3.993,0.02475421048725994,0.2246193641988295
-3.9925,0.2168173579255475,0.457745409112513
-3.992,0.3021787567870086,0.55311515475902
-3.9915,0.3235191065023739,0.5637117931641874
-3.991,0.3128489316446912,0.5425185163538525
-3.9905,0.291508581929326,0.5001319627331828
-3.99,0.2701682322139607,0.4683420475176805
-3.9895,0.2488278824985954,0.4259554938970107
-3.989,0.2381577076409128,0.3941655786815084
-3.9885,0.1314559590640864,0.2140227257936621
-3.988,-0.3166913849585846,-0.400582301706049
-3.9875,-0.7755089038389382,-1.089363798041932
-3.987,-1.148965023857831,-1.661582271920973
-3.9865,-1.234326422719292,-1.576809164679634
-3.986,-0.8181896032696687,-0.8774310299385835
-3.9855,-0.2953510352432193,-0.2098428104130352
-3.985,0.09944543449103843,0.2140227257936621
-3.9845,0.3021787567870086,0.383568940276341
-3.984,0.3875401556484697,0.3941655786815084
-3.9835,0.3982103305061524,0.3517790250608387
-3.983,0.4942419042252961,0.4153588554918433
-3.9825,0.6222840025174878,0.5107286011383502
-3.982,0.5796033030867573,0.4471487707073456
-3.9815,0.5049120790829789,0.3623756634660061
-3.981,0.4195506802215176,0.2881991946298341
-3.9805,0.3661998059331045,0.2564092794143318
-3.98,0.5796033030867573,0.1186529801471552
-3.9795,0.5902734779444399,-0.4429688553267188
-3.979,-0.02859666380115328,-1.078767159636765
-3.9785,-0.7114878546928423,-1.216523458903942
-3.978,-0.9995825758502737,-0.8350444763179138
-3.9775,-0.754168554123573,-0.3370024712750445
-3.977,-0.3593720843893152,0.08686306493165288
-3.9765,-0.03926683865883591,0.3729723018711736
-3.976,0.1634664836371343,0.5213252395435176
-3.9755,0.2701682322139607,0.6060983467848571
-3.975,0.3128489316446912,0.6378882620003594
-3.9745,0.3128489316446912,0.6378882620003594
-3.974,0.291508581929326,0.627291623595192
-3.9735,0.2808384070716433,0.627291623595192
-3.973,0.2488278824985954,0.6060983467848571
-3.9725,0.2274875327832301,0.5849050699745222
-3.972,0.2061471830678648,0.5319218779486851
-3.9715,-0.1459685872356623,0.08686306493165288
-3.971,-0.6367966306890638,-0.6654982618352349
-3.9705,-0.9248913518464952,-1.301296566145281
-3.97,-1.020922925565639,-1.237716735714276
-3.9695,-0.7328282044082075,-0.6866915386455698
-3.969,-0.3060212101009019,-0.1674562567923655
-3.9685,0.03542438534494258,0.2034260873884947
-3.968,0.2488278824985954,0.3517790250608387
-3.9675,0.3555296310754218,0.3517790250608387
-3.967,0.3875401556484697,0.3199891098453364
-3.9665,0.4195506802215176,0.2987958330350016
-3.966,0.5475927785137094,0.3941655786815084
-3.9655,0.5582629533713921,0.383568940276341
-3.965,0.4835717293676135,0.3305857482505039
-3.9645,0.4195506802215176,0.2670059178194992
-3.964,0.3768699807907871,0.2458126410091644
-3.9635,0.4942419042252961,0.2034260873884947
-3.963,0.7289857510943143,-0.252229364033705
-3.9625,0.2168173579255475,-0.9198175835592532
-3.962,-0.391382608962363,-1.439052865412457
-3.9615,-0.7968492535543035,-1.439052865412457
-3.961,-0.690147504977477,-0.8774310299385835
-3.9605,-0.3700422592469978,-0.2416327256285375
-3.96,-0.07127736323188383,0.2458126410091644
-3.9595,0.142126133921769,0.5425185163538525
-3.959,0.2488278824985954,0.6908714540261965
-3.9585,0.3021787567870086,0.7438546460520338
-3.958,0.3021787567870086,0.7332580076468663
-3.9575,0.291508581929326,0.6908714540261965
-3.957,0.2594980573562781,0.6378882620003594
-3.9565,0.2274875327832301,0.5849050699745222
-3.956,0.2274875327832301,0.5425185163538525
-3.9555,0.2168173579255475,0.4895353243280153
-3.955,-0.07127736323188383,0.1610395337678249
-3.9545,-0.5834457564006506,-0.5383386009732256
-3.954,-0.9889124009925911,-1.216523458903942
-3.9535,-1.30901764672307,-1.714565463946811
-3.953,-1.191645723288561,-1.439052865412457
-3.9525,-0.7008176798351597,-0.7714646458869092
-3.952,-0.1993194615240755,-0.2204394488182027
-3.9515,0.142126133921769,0.1080563417419877
-3.951,0.3235191065023739,0.2352160026039969
-3.9505,0.3982103305061524,0.2564092794143318
-3.95,0.3982103305061524,0.2352160026039969
-3.9495,0.5049120790829789,0.3411823866556712
-3.949,0.5475927785137094,0.383568940276341
-3.9485,0.5049120790829789,0.3411823866556712
-3.948,0.4408910299368829,0.2881991946298341
-3.9475,0.3875401556484697,0.2458126410091644
-3.947,0.3768699807907871,0.2458126410091644
-3.9465,0.6009436528021226,0.07626642652648545
-3.946,0.3021787567870086,-0.5171453241628908
-3.9455,-0.4554036581084589,-1.174136905283272
-3.945,-1.127624674142465,-1.598002441489969
-3.9445,-1.084943974711735,-1.205926820498774
-3.944,-0.6794773301197943,-0.5277419625680583
-3.9435,-0.2526703358124887,0.06566978812131802
-3.943,0.05676473506030786,0.457745409112513
-3.9425,0.2274875327832301,0.6696781772158616
-3.942,0.3021787567870086,0.7544512844572011
-3.9415,0.3235191065023739,0.7650479228623686
-3.941,0.3128489316446912,0.7332580076468663
-3.9405,0.2808384070716433,0.6908714540261965
-3.94,0.2701682322139607,0.6378882620003594
-3.9395,0.2488278824985954,0.5743084315693548
-3.939,0.2381577076409128,0.5213252395435176
-3.9385,0.1207857842064037,0.3517790250608387
-3.938,-0.3807124341046804,-0.2628260024388724
-3.9375,-0.8502001278427167,-0.9728007755850904
-3.937,-1.06360362499637,-1.502632695843462
-3.9365,-0.9462317015618604,-1.311893204550448
-3.936,-0.5300948821122373,-0.7502713690765743
-3.9355,-0.1139580626626144,-0.3158091944647096
-3.935,0.1954770082101822,-0.02969995752518888
-3.9345,0.3341892813600565,0.1080563417419877
-3.934,0.3982103305061524,0.1080563417419877
-3.9335,0.3982103305061524,0.08686306493165288
-3.933,0.4622313796522482,0.1716361721729923
-3.9325,0.5689331282290746,0.3517790250608387
-3.932,0.5582629533713921,0.3941655786815084
-3.9315,0.5049120790829789,0.3729723018711736
-3.931,0.4408910299368829,0.3411823866556712
-3.9305,0.3875401556484697,0.3199891098453364
-3.93,0.5796033030867573,0.2140227257936621
-3.9295,0.6542945270905358,-0.3475991096802118
-3.929,0.07810508477567314,-1.004590690800593
-3.9285,-0.5941159312583333,-1.534422611058964
-3.928,-0.8715404775580819,-1.417859588602123
-3.9275,-0.6474668055467465,-0.7502713690765743
-3.927,-0.2953510352432193,-0.09327978795619347
-3.9265,-0.007256314085787988,0.3941655786815084
-3.926,0.1741366584948169,0.6696781772158616
-3.9255,0.2701682322139607,0.7968378380778709
-3.925,0.3021787567870086,0.8180311148882058
-3.9245,0.3021787567870086,0.7862411996727035
-3.924,0.2808384070716433,0.7332580076468663
-3.9235,0.2381577076409128,0.6590815388106942
-3.923,0.2168173579255475,0.5955017083796896
-3.9225,0.2168173579255475,0.5319218779486851
-3.922,0.1314559590640864,0.3941655786815084
-3.9215,-0.3273615598162672,-0.1462629799820306
-3.921,-0.6367966306890638,-0.792657922697244
-3.9205,-0.8181896032696687,-1.354279758171118
-3.92,-0.9995825758502737,-1.640388995110639
-3.9195,-0.7328282044082075,-1.184733543688439
-3.919,-0.3273615598162672,-0.5807251545938954
-3.9185,0.02475421048725994,-0.1356663415768632
-3.918,0.2488278824985954,0.1292496185523226
-3.9175,0.3555296310754218,0.2246193641988295
-3.917,0.3875401556484697,0.2458126410091644
-3.9165,0.4195506802215176,0.2564092794143318
-3.916,0.5796033030867573,0.4047622170866759
-3.9155,0.6009436528021226,0.3941655786815084
-3.915,0.5475927785137094,0.3199891098453364
-3.9145,0.4729015545099309,0.2458126410091644
-3.914,0.408880505363835,0.2140227257936621
-3.9135,0.3448594562177392,0.1822328105781598
-3.913,-0.02859666380115328,-0.1992461720078678
-3.9125,-0.5621054066852853,-0.8244478379127463
-3.912,-0.9462317015618604,-1.375473034981453
-3.9115,-1.084943974711735,-1.481439419033127
-3.911,-0.7755089038389382,-0.9198175835592532
-3.9105,-0.3593720843893152,-0.2628260024388724
-3.91,-0.01792648894347063,0.2564092794143318
-3.9095,0.1848068333524996,0.5743084315693548
-3.909,0.2808384070716433,0.7438546460520338
-3.9085,0.3128489316446912,0.7968378380778709
-3.908,0.3128489316446912,0.7968378380778709
-3.9075,0.291508581929326,0.7650479228623686
-3.907,0.2701682322139607,0.7226613692416989
-3.9065,0.2488278824985954,0.6696781772158616
-3.906,0.2381577076409128,0.6166949851900245
-3.9055,0.2168173579255475,0.55311515475902
-3.905,-0.08194753808956648,0.1610395337678249
-3.9045,-0.5621054066852853,-0.5065486857577234
-3.904,-0.8822106524157645,-1.046977244421262
-3.9035,-1.202315898146244,-1.439052865412457
-3.903,-1.084943974711735,-1.269506650929778
-3.9025,-0.6154562809736985,-0.7290780922662394
-3.902,-0.1459685872356623,-0.2734226408440398
-3.9015,0.1741366584948169,0.02328323450064829
-3.901,0.3341892813600565,0.1822328105781598
-3.9005,0.3875401556484697,0.2458126410091644
-3.9,0.3982103305061524,0.2246193641988295
-3.8995,0.5155822539406614,0.309392471440169
-3.899,0.5689331282290746,0.3517790250608387
-3.8985,0.5155822539406614,0.2881991946298341
-3.898,0.4408910299368829,0.2140227257936621
-3.8975,0.3768699807907871,0.1822328105781598
-3.897,0.3128489316446912,0.1610395337678249
-3.8965,-0.1139580626626144,-0.2098428104130352
-3.896,-0.690147504977477,-0.7608680074817418
-3.8955,-1.159635198715513,-1.290699927740113
-3.895,-1.490410619303675,-1.576809164679634
-3.8945,-1.159635198715513,-1.0999604364471
-3.894,-0.6261264558313813,-0.4111789401112165
-3.8935,-0.1673089369510276,0.1610395337678249
-3.893,0.1207857842064037,0.5319218779486851
-3.8925,0.2701682322139607,0.7332580076468663
-3.892,0.3341892813600565,0.8180311148882058
-3.8915,0.3341892813600565,0.8180311148882058
-3.891,0.3128489316446912,0.7862411996727035
-3.8905,0.291508581929326,0.7438546460520338
-3.89,0.2701682322139607,0.6908714540261965
-3.8895,0.2488278824985954,0.627291623595192
-3.889,0.2274875327832301,0.5637117931641874
-3.8885,0.00341386077189465,0.3199891098453364
-3.888,-0.5621054066852853,-0.3370024712750445
-3.8875,-1.031593100423322,-1.046977244421262
-3.887,-1.362368521011484,-1.502632695843462
