Class_3_Grab_w_two_Hands/Class_3_Grab_with_Two_Hands_Suko_1.csv

#Digilent WaveForms Oscilloscope Acquisition
#Device Name: EExplorer
#Serial Number: SN:210151A2B84A
#Date Time: 2020-10-20 13:26:33.235
#Sample rate: 2000Hz
#Samples: 16384
#Trigger: Source: Channel 1 Type: Edge Condition: Rising Level: 0 V Hyst.: Auto HoldOff: 0 s
#Channel 1: Range: 1 V/div Offset: 0 V
#Channel 2: Range: 1 V/div Offset: 0 V

Time (s),Channel 1 (V),Channel 2 (V)
-4.0960000000000001,0.3982103305061524,0.72266136924169888
-4.0955000000000004,0.37686998079080652,0.99817396777580147
-4.0949999999999998,0.50491207908332825,0.79683783807718667
-4.0945,0.88903837395955376,0.044476511310983152
-4.0940000000000003,1.1131120459706854,-0.57012851618816895
-4.0934999999999997,0.62228400251642035,-0.8244478379129776
-4.093,-0.55143523182760279,-1.0787671596367647
-4.0925000000000002,-1.3090176467223813,-0.99399405239550243
-4.0919999999999996,-1.138294848999692,-0.29461591765371931
-4.0914999999999999,-0.63679663068906378,0.42595549389701071
-4.0910000000000002,-0.15663876209334496,0.86041766850887547
-4.0904999999999996,0.17413665849497217,0.97698069096560158
-4.0899999999999999,0.34485945621773917,0.84982103010370802
-4.0895000000000001,0.40888050536383502,0.58490506997452218
-4.0890000000000004,0.40888050536383502,0.25640927941463054
-4.0884999999999998,0.3768699807907871,-0.04029659593035631
-4.0880000000000001,0.34485945621773917,-0.32640583286987701
-4.0875000000000004,0.32351910650239329,-0.55953187778334845
-4.0869999999999997,0.22748753278268666,-0.60191843140383516
-4.0865,-0.3700422592469978,-0.1674562567923655
-4.0860000000000003,-0.93556152670366322,0.40476221708615534
-4.0854999999999997,-1.2023158981461759,0.82862775329343097
-4.085,-1.1276246741424654,0.89220758372437781
-4.0845000000000002,-0.71148785469322073,0.38356894027680366
-4.0839999999999996,-0.22065981123910119,-0.24163272562895197
-4.0834999999999999,0.15279630877945163,-0.6972881770507372
-4.0830000000000002,0.35552963107542179,-0.91981758355925325
-4.0824999999999996,0.035424385344612626,-1.3224898429558083
-4.0819999999999999,-0.32736155981626724,-1.5344226110589645
-4.0815000000000001,-0.19931946152407554,-1.1423469900677694
-4.0810000000000004,-0.028596663801308542,-0.78206128429240418
-4.0804999999999998,0.21681735792554749,-0.33700247127504446
-4.0800000000000001,0.41955068022151765,0.21402272579366208
-4.0795000000000003,0.43022085507919061,0.60609834678450047
-4.0789999999999997,0.38754015564856675,0.92399749893992822
-4.0785,0.49424190422529612,0.97698069096571727
-4.0780000000000003,1.1664629202586911,0.33058574825109177
-4.0774999999999997,2.0307470837319652,-0.48535540894779328
-4.077,2.436213728323537,-0.9304142219644207
-4.0765000000000002,1.5932699145673745,-0.41117894011168876
-4.0759999999999996,0.056764735059570318,0.54251851635431514
-4.0754999999999999,-0.75416855412357298,1.0511571598018894
-4.0750000000000002,-0.73282820440820751,0.97698069096571727
-4.0744999999999996,-0.41272295867741782,0.68027481562072067
-4.0739999999999998,-0.071277363231883828,0.34118238665567124
-4.0735000000000001,0.18480683335249956,0.055073149716150585
-4.0730000000000004,0.32351910650224769,-0.16745625679216314
-4.0724999999999998,0.3768699807907871,-0.32640583286987701
-4.0720000000000001,0.3768699807907871,-0.42177557851638392
-4.0715000000000003,0.35552963107544122,-0.46416213213701507
-4.0709999999999997,0.33418928136001774,-0.46416213213696683
-4.0705,0.29150858192932599,-0.36879238649054674
-4.0700000000000003,-0.13529841237759149,0.19282944898281645
-4.0694999999999997,-0.83952995298549005,0.96638405256112803
-4.069,-1.3410281712961183,1.6021823568705957
-4.0685000000000002,-1.3623685210114835,1.9200815090256187
-4.0679999999999996,-0.8395299529845196,1.5174092496285527
-4.0674999999999999,-0.27401068552785401,0.74385464605203377
-4.0670000000000002,0.14212613392176898,0.044476511310983152
-4.0664999999999996,0.36619980593318213,-0.38998566330101653
-4.0659999999999998,0.45156120479456557,-0.53833860097322561
-4.0655000000000001,0.45156120479456557,-0.49595204735255594
-4.0650000000000004,0.43022085507921976,-0.31580919446487343
-4.0644999999999998,0.024754210487259936,-0.50654868575772338
-4.0640000000000001,-0.34870190953163249,-0.73967473067140688
-4.0635000000000003,-0.20998963638188431,-0.35819574808572624
-4.0629999999999997,-0.10328788780476678,0.044476511311387933
-4.0625,0.078105084775673142,0.48953532432801533
-4.0620000000000003,0.29150858192913193,0.83922439169822249
-4.0614999999999997,0.49424190422548053,0.36237566346516764
-4.0609999999999999,0.69697522652126631,-0.55953187778356051
-4.0605000000000002,0.64362435223285308,-1.3436831197659505
-4.0599999999999996,-0.10328788780597983,-1.8311284864038548
-4.0594999999999999,-1.2556667724346571,-2.0536578929121685
-4.0590000000000002,-1.5971123678805015,-1.5980024414899687
-4.0585000000000004,-1.1489650238582381,-0.65490162343092517
-4.0579999999999998,-0.53009488211223732,0.13984625695749003
-4.0575000000000001,-0.049937013516518552,0.5637117931641874
-4.0570000000000004,0.24882788249832363,0.64848490040544982
-4.0564999999999998,0.3768699807907871,0.51072860113835017
-4.056,0.41955068022151765,0.26700591781949923
-4.0555000000000003,0.40888050536384474,-0.019103319119761208
-4.0549999999999997,0.37686998079075801,-0.26282600243908444
-4.0545,0.34485945621773917,-0.49595204735255594
-4.0540000000000003,0.31284893164472038,-0.65490162342992286
-4.0534999999999997,0.06743490991726267,-0.42177557851580566
-4.0529999999999999,-0.73282820440820751,0.21402272579366208
-4.0525000000000002,-1.618452717595867,0.80743447648303834
-4.0519999999999996,-2.0132491873296301,1.0723504366118772
-4.0514999999999999,-1.46907026958831,0.69087145402619654
-4.0510000000000002,-0.71148785469284226,0.033879872905815719
-4.0505000000000004,-0.09261771294781207,-0.54893523937786304
-4.0499999999999998,0.28083840707164331,-0.91981758355925325
-4.0495000000000001,0.45156120479456557,-1.0045906908005926
-4.0490000000000004,0.49424190422525732,-0.89862430674901472
-4.0484999999999998,0.47290155450990179,-0.67609490024015173
-4.048,0.44089102993688295,-0.40058230170604903
-4.0475000000000003,0.5262524287982665,-0.25222936403383989
-4.0469999999999997,0.5475927785136705,0.0020899576906410989
-4.0465,0.50491207908297886,0.36237566346600614
-4.0460000000000003,0.1101156093490801,0.38356894027632177
-4.0454999999999997,-0.40205278381960902,0.1822328105780634
-4.0449999999999999,0.078105084775673142,0.076266426526485451
-4.0445000000000002,1.1024418711132067,-0.54893523937839306
-4.0439999999999996,2.0840979580202621,-1.0681705212318575
-4.0434999999999999,2.3615225043197583,-1.3542797581711179
-4.0430000000000001,1.0704313465401587,-1.5450192494641319
-4.0425000000000004,-0.45540365810707106,-1.1105570748526623
-4.0419999999999998,-0.8928808272734472,-0.24163272562853755
-4.0415000000000001,-0.69014750497747701,0.46834204751768049
-4.0410000000000004,-0.30602121010125133,0.8286277532930455
-4.0404999999999998,0.024754210487473435,0.88161094531907547
-4.04,0.25949805735627807,0.73325800764686633
-4.0395000000000003,0.37686998079068035,0.45774540911276362
-4.0389999999999997,0.39821033050613297,0.12924961855206241
-4.0385,0.3768699807907871,-0.15685961838719809
-4.0380000000000003,0.34485945621776826,-0.421775578516143
-4.0374999999999996,0.31284893164458449,-0.62311170821455542
-4.0369999999999999,0.19547700821018218,-0.61251506980939763
-4.0365000000000002,-0.48741418268150688,-0.093279787956193475
-4.0359999999999996,-1.4050492204427574,0.5213252395439224
-4.0354999999999999,-2.0025790124724421,0.96638405256054982
-4.0350000000000001,-1.8318562147495197,0.96638405256054982
-4.0345000000000004,-1.1169544992854328,0.39416557868202884
-4.0339999999999998,-0.40205278382004572,-0.32640583286987701
-4.0335000000000001,0.099445434491038431,-0.85623775312824868
-4.0330000000000004,0.36619980593286183,-1.0893637980417201
-4.0324999999999998,0.47290155450993088,-1.0575738828262371
-4.032,0.47290155450993088,-0.84564111472308123
-4.0315000000000003,0.451561204794585,-0.54893523937866284
-4.0309999999999997,0.49424190422533493,-0.31580919446448791
-4.0305,0.53692260365602662,-0.072086511145858609
-4.0300000000000002,0.50491207908300795,0.28819919462950644
-4.0294999999999996,0.45156120479452677,0.65908153881099296
-4.0289999999999999,0.40888050536383502,0.98757732937088472
-4.0285000000000002,0.53692260365602662,1.0511571598018894
-4.0279999999999996,1.0384208219673825,0.43655213230113732
-4.0274999999999999,1.3371857179822249,-0.70788481545590454
-4.0270000000000001,1.9027049854394047,-1.0257839676109275
-4.0265000000000004,1.1451225705446262,-0.35819574808598642
-4.0259999999999998,-0.31669138495858457,0.6590815388106942
-4.0255000000000001,-0.87154047755808195,1.1253336286380615
-4.0250000000000004,-0.7434983792660067,0.88161094531943207
-4.0244999999999997,-0.41272295867742753,0.41535885549147711
-4.024,-0.08194753808956648,0.012686596095480854
-4.0235000000000003,0.16346648363691108,-0.24163272562830623
-4.0229999999999997,0.30217875678706685,-0.37938902489576232
-4.0225,0.36619980593310447,-0.43237221692155131
-4.0220000000000002,0.37686998079077738,-0.3899856633009201
-4.0214999999999996,0.36619980593308504,-0.31580919446463246
-4.0209999999999999,0.34485945621773917,-0.2310360872233701
-4.0205000000000002,0.28083840707164331,-0.050893234335523743
-4.0199999999999996,-0.24200016095568919,0.51072860113896701
-4.0194999999999999,-1.2129860730039266,1.1889134590690658
-4.0190000000000001,-2.0772702364762203,1.7081487409222702
-4.0185000000000004,-2.0666000616185474,1.559795803250061
-4.0179999999999998,-1.2449965975769743,0.87101430691404291
-4.0175000000000001,-0.44473348325077627,0.29879583303500157
-4.0170000000000003,0.099445434490543494,-0.093279787955836857
-4.0164999999999997,0.38754015564856675,-0.27342264084403017
-4.016,0.49424190422529612,-0.26282600243887239
-4.0155000000000003,0.5049120790829692,-0.14626297998213666
-4.0149999999999997,0.46223137965221911,0.044476511311156632
-4.0145,0.43022085507920033,0.23521600260399694
-4.0140000000000002,0.44089102993687324,0.38356894027620614
-4.0134999999999996,0.4302208550791809,0.55311515475918382
-4.0129999999999999,0.40888050536383502,0.73325800764686633
-4.0125000000000002,0.38754015564846972,0.90280422212954525
-4.0119999999999996,0.41955068022199316,0.95578741415495827
-4.0114999999999998,0.94238924824796699,0.48953532432801533
-4.0110000000000001,1.806673411720261,-0.19924617200786782
-4.0105000000000004,2.468224252895983,-0.70788481545544202
-4.0099999999999998,1.8813646357240394,-0.53833860097322561
-4.0095000000000001,-0.18864928666639288,-0.26282600243887239
-4.0090000000000003,-1.3410281712950702,0.45774540911185774
-4.0084999999999997,-1.4050492204418259,0.43655213230185047
-4.008,-0.97824222613490841,0.076266426526485451
-4.0075000000000003,-0.37004225924755096,-0.17805289519730161
-4.0069999999999997,0.067434909918165184,-0.38998566330106471
-4.0065,0.25949805735627807,-0.59132179299906285
-4.0060000000000002,0.34485945621773917,-0.68669153864556975
-4.0054999999999996,0.35552963107540236,-0.66549826183513849
-4.0049999999999999,0.33418928136005654,-0.55953187778356051
-4.0045000000000002,0.31284893164469124,-0.44296885532671876
-4.0039999999999996,0.30217875678681455,-0.28401927924878323
-4.0034999999999998,0.08877525963335578,0.18223281057815977
-4.0030000000000001,-0.73282820440820751,0.9134008605347127
-4.0025000000000004,-1.7571649907448095,1.5386025264390224
-4.0019999999999998,-2.3333544330606037,1.8776949554049489
-4.0015000000000001,-1.8531965644648849,1.5809890800602608
-4.0010000000000003,-0.97824222613570422,0.97698069096626661
-4.0004999999999997,-0.25267033581208115,0.37297230187082664
-4,0.19547700821018218,-0.0085066807148540119
-3.9994999999999998,0.40888050536383502,-0.12506970317169577
-3.9990000000000001,0.4835717293676135,-0.04029659593035631
-3.9984999999999999,0.47290155450993088,0.15044289536265748
-3.9980000000000002,0.44089102993688295,0.38356894027634103
-3.9975000000000001,0.50491207908297886,0.45774540911251305
-3.9969999999999999,0.52625242879834411,0.60609834678485708
-3.9965000000000002,0.4835717293676135,0.82862775329337313
-3.996,0.43022085507920033,1.0193672445863871
-3.9954999999999998,0.38754015564846972,1.1571235438535634
-3.9950000000000001,0.36619980593310447,0.88161094531921036
-3.9944999999999999,0.28083840707164331,0.16103953376782493
-3.9940000000000002,-0.092617712947249131,-0.52774196256805828
-3.9935,-0.4980843575391895,-1.0257839676109275
-3.9929999999999999,-0.82885977812735145,-1.333086481360783
-3.9925000000000002,-1.1062843244271001,-1.3436831197659505
-3.992,-0.83952995298503397,-0.82444783791274634
-3.9914999999999998,-0.76483872898125549,-0.63370834661973252
-3.9910000000000001,-0.81818960326966872,-0.73967473067140688
-3.9904999999999999,-0.43406330839309365,-0.51714532416289083
-3.9900000000000002,-0.17797911180871023,-0.48535540894738849
-3.9895,0.067434909917990504,-0.48535540894738849
-3.9889999999999999,0.29150858192932599,-0.48535540894738849
-3.9885000000000002,0.35552963107542179,-0.60191843140423029
-3.988,0.32351910650237387,-0.76086800748174177
-3.9874999999999998,0.27016823221396069,-0.77146464588690922
-3.9870000000000001,0.14212613392176898,-0.54893523937839306
-3.9864999999999999,-0.23132998609712346,0.044476511310983152
-3.9860000000000002,-0.77550890383893822,0.72266136924169888
-3.9855,-1.437059745015262,1.2207033742845681
-3.9849999999999999,-1.3303579964384356,1.0829470750173917
-3.9845000000000002,-0.74349837926589024,0.42595549389701071
-3.984,-0.18864928666639288,-0.22043944881820265
-3.9834999999999998,0.18480683335249956,-0.63370834661973252
-3.9830000000000001,0.38754015564846972,-0.76086800748174177
-3.9824999999999999,0.4622313796522482,-0.64430498502489997
-3.9820000000000002,0.4622313796522482,-0.40058230170604903
-3.9815,0.44089102993688295,-0.10387642636136091
-3.9809999999999999,0.4622313796522482,0.10805634174198775
-3.9805000000000001,0.49424190422529612,0.30939247144016896
-3.98,0.47290155450993088,0.59550170837968963
-3.9794999999999998,0.43022085507920033,0.87101430691404291
-3.9790000000000001,0.3982103305061524,1.1041403518277266
-3.9784999999999999,0.38754015564846972,1.1359302670432285
-3.9780000000000002,0.4835717293676135,0.58490506997452218
-3.9775,0.32351910650237387,-0.11447306476652835
-3.9769999999999999,-0.12462823752029703,-0.53833860097322561
-3.9765000000000001,-0.028596663801153277,-0.34759910968021185
-3.976,-0.22065981123944084,-0.40058230170604903
-3.9754999999999998,-0.39138260896236304,-0.27342264084403983
-3.9750000000000001,-0.24200016095480609,0.11865298014715518
-3.9744999999999999,-0.017926488943470625,0.42595549389701071
-3.9740000000000002,0.17413665849481691,0.53192187794868506
-3.9735,-0.049937013516518552,0.11865298014715518
-3.9729999999999999,-0.46607383296614152,-0.55953187778356051
-3.9725000000000001,-0.31669138495858457,-0.68669153864556975
-3.972,-0.18864928666639288,-0.80325456110241145
-3.9714999999999998,-0.017926488943470625,-0.83504447631791379
-3.9710000000000001,0.19547700821018218,-0.75027136907657432
-3.9704999999999999,0.22748753278323011,-0.71848145386107198
-3.9700000000000002,-0.40205278382004572,-0.24163272562853755
-3.9695,-1.3516983461538008,0.42595549389701071
-3.9689999999999999,-2.0879404113339031,0.95578741415538238
-3.9685000000000001,-2.2906737336298733,1.1571235438535634
-3.968,-1.67180359188428,0.66967817721586165
-3.9674999999999998,-0.81818960326966872,-0.13566634157686319
-3.9670000000000001,-0.15663876209334496,-0.72907809226623943
-3.9664999999999999,0.23815770764091276,-1.0045906908005926
-3.9660000000000002,0.41955068022151765,-1.0045906908005926
-3.9655,0.47290155450993088,-0.81385119950757889
-3.9649999999999999,0.4622313796522482,-0.52774196256805828
-3.9645000000000001,0.4622313796522482,-0.2310360872233701
-3.964,0.51558225394066137,-0.029699957525188878
-3.9634999999999998,0.50491207908297886,0.28819919462983412
-3.9630000000000001,0.4622313796522482,0.63788826200035942
-3.9624999999999999,0.41955068022151765,0.95578741415538238
-3.9620000000000002,0.41955068022151765,1.146526905448396
-3.9615,0.81434714995577528,0.775644561267536
-3.9609999999999999,1.6466207888550213,0.097459703336820316
-3.9605000000000001,2.3295119797467105,-0.4641621321370536
-3.96,1.9347155100124527,-0.77146464588690922
-3.9594999999999998,0.5689331282290746,-0.9304142219644207
-3.9590000000000001,-0.31669138495858457,-0.61251506980939763
-3.9584999999999999,-0.46607383296614152,0.065669788121318018
-3.9580000000000002,-0.28468086038553664,0.60609834678485708
-3.9575,-0.028596663801153277,0.86041766850887547
-3.9569999999999999,0.17413665849481691,0.84982103010370802
-3.9565000000000001,0.29150858192932599,0.64848490040552687
-3.956,0.34485945621773917,0.35177902506083869
-3.9554999999999998,0.33418928136005654,0.0020899576903134209
-3.9550000000000001,-0.29535103524321932,-0.88802766834375091
-3.9544999999999999,-0.48741418268150688,-1.2483133741194434
-3.9540000000000002,-0.41272295867772835,-1.2059268204987741
-3.9535,-0.50875453239687207,-0.76086800748174177
-3.9529999999999998,-0.66880715526211176,0.076266426526485451
-3.9525000000000001,-0.93556152670417769,0.7968378380778709
-3.952,-1.2449965975769743,1.0723504366122243
-3.9514999999999998,-0.96757205127722568,0.62729162359519197
-3.9510000000000001,-0.46607383296614152,-0.22043944881820265
-3.9504999999999999,-0.039266838658835915,-0.89862430674891836
-3.9500000000000002,0.24882788249859539,-1.2695066509297783
-3.9495,0.3982103305061524,-1.3224898429556156
-3.9489999999999998,0.45156120479456557,-1.1529436284729369
-3.9485000000000001,0.45156120479456557,-0.85623775312824868
-3.948,0.43022085507920033,-0.51714532416289083
-3.9474999999999998,0.4835717293676135,-0.29461591765437467
-3.9470000000000001,0.49424190422529612,0.0020899576903134209
-3.9464999999999999,0.4622313796522482,0.39416557868150842
-3.9460000000000002,0.43022085507920033,0.775644561267536
-3.9455,0.40888050536383502,1.0723504366122243
-3.9449999999999998,0.72898575109431429,0.86041766850887547
-3.9445000000000001,1.4012067671283206,0.20342608738849466
-3.944,1.7213120128587998,-0.38998566330088158
-3.9434999999999998,1.3585260676975901,-0.44296885532671876
-3.9430000000000001,0.19547700821018218,0.13984625695749003
-3.9424999999999999,-0.79684925355430347,0.26700591781949923
-3.9420000000000002,-0.8928808272734472,0.29879583303500157
-3.9415,-0.57277558154296804,0.33058574825050385
-3.9409999999999998,-0.17797911180871023,0.30939247144016896
-3.9405000000000001,0.11011560934872107,0.24581264100916439
-3.9399999999999999,0.28083840707164331,0.15044289536265748
-3.9394999999999998,0.35552963107542179,0.023283234500648287
-3.9390000000000001,0.3768699807907871,-0.082683149551026042
-3.9384999999999999,0.35552963107542179,-0.1674562567923655
-3.9380000000000002,0.33418928136005654,-0.22043944881820265
-3.9375,0.30217875678700862,-0.25222936403370499
-3.9369999999999998,0.18480683335249956,-0.061489872740691176
-3.9365000000000001,-0.71148785469284226,0.2246193641988295
-3.9359999999999999,-1.5651018433074537,0.40476221708667587
-3.9355000000000002,-1.6397930673112322,0.98757732937088472
-3.9350000000000001,-1.2449965975769743,0.66967817721586165
-3.9344999999999999,-0.6047861061160158,0.10805634174198775
-3.9340000000000002,0.0034138607718946501,-0.24163272562853755
-3.9335,0.31284893164469124,-0.51714532416289083
-3.9329999999999998,0.40888050536383502,-0.65490162343006741
-3.9325000000000001,0.41955068022151765,-0.63370834661973252
-3.9319999999999999,0.40888050536383502,-0.48535540894738849
-3.9315000000000002,0.38754015564846972,-0.28401927924920728
-3.931,0.45156120479456557,-0.15685961838719809
-3.9304999999999999,0.51558225394066137,-0.04029659593035631
-3.9300000000000002,0.50491207908297886,0.21402272579366208
-3.9295,0.4622313796522482,0.47893868592284788
-3.9289999999999998,0.40888050536383502,0.71206473083653143
