Class_3_Grab_w_two_Hands/Class_3_Grab_with_Two_Hands_SH_1.csv

#Digilent WaveForms Oscilloscope Acquisition
#Device Name: EExplorer
#Serial Number: SN:210151A2B84A
#Date Time: 2020-11-17 10:21:02.109
#Sample rate: 2000Hz
#Samples: 16384
#Trigger: Source: Channel 1 Type: Edge Condition: Rising Level: 0 V Hyst.: Auto HoldOff: 0 s
#Channel 1: Range: 1 V/div Offset: 0 V Attenuation: 1 X
#Channel 2: Range: 1 V/div Offset: 0 V Attenuation: 1 X
#Power Supplies: ON
#Fixed Supply: ON
#Voltage: 3.3 V Readback: 3.331 V
#Positive Supply: ON
#Voltage: 3.7 V Readback: 3.711 V
#Current: 40 mA Readback: 20 mA
#Negative Supply: ON
#Voltage: -3.7 V Readback: -3.349 V
#Current: -40 mA Readback: -6 mA
#Reference 1: ON
#Voltage: 0 V
#Reference 2: ON
#Voltage: 0 V

Time (s),Channel 1 (V),Channel 2 (V)
-4.096,-0.8608703027003992,-1.725162102351978
-4.0955,-1.148965023857569,-1.672178910326189
-4.095,-0.8715404775576646,-0.962204137179229
-4.0945,-0.4127229586777283,-0.1992461720078678
-4.094,-0.01792648894382964,0.3729723018706532
-4.0935,0.2381577076410389,0.7226613692418338
-4.093,0.3768699807907871,0.8710143069140429
-4.0925,0.4195506802214788,0.9028042221295164
-4.092,0.4195506802215079,0.8604176685088176
-4.0915,0.408880505363835,0.7968378380778709
-4.091,0.3875401556484697,0.7120647308365314
-4.0905,0.3768699807907871,0.6272916235951149
-4.09,0.3768699807907871,0.5425185163538525
-4.0895,0.2701682322139607,0.3517790250608387
-4.089,0.216817357925596,-0.2946159176537868
-4.0885,-0.1459685872356623,-1.01518732920576
-4.088,-0.6047861061160158,-1.523825972653797
-4.0875,-0.914221176988531,-1.449649503817692
-4.087,-0.6581369804040602,-0.8562377531277668
-4.0865,-0.2526703358124887,-0.326405832869877
-4.086,0.08877525963304528,0.002089957690014632
-4.0855,0.3021787567870959,0.1398462569574997
-4.085,0.3982103305061524,0.1504428953626575
-4.0845,0.4302208550791712,0.1080563417420263
-4.084,0.4302208550791518,0.06566978812138548
-4.0835,0.3768699807907871,0.13984625695749
-4.083,0.2808384070716433,0.309392471440169
-4.0825,0.2701682322139898,0.2987958330349437
-4.082,0.3021787567870086,0.2352160026039969
-4.0815,0.3448594562177392,0.1822328105781598
-4.081,0.3448594562177392,-0.1038764263611007
-4.0805,0.3555296310754218,-0.6866915386455698
-4.08,-0.156638762093345,-1.311893204550448
-4.0795,-0.7755089038383753,-1.788741932782549
-4.079,-1.127624674142223,-1.809935209592653
-4.0785,-0.8608703027003992,-1.078767159636765
-4.078,-0.4127229586781359,-0.3052125560602457
-4.0775,-0.01792648894323772,0.2987958330353389
-4.077,0.2381577076409128,0.6696781772158616
-4.0765,0.366199805932988,0.8498210301035442
-4.076,0.4195506802215176,0.9028042221295356
-4.0755,0.4195506802215176,0.8922075837243778
-4.075,0.3982103305061524,0.849821030103708
-4.0745,0.38754015564846,0.7862411996726456
-4.074,0.3768699807907871,0.7226613692416989
-4.0735,0.3768699807907871,0.6484849004055269
-4.073,0.3555296310754412,0.5743084315694224
-4.0725,0.00341386077189465,0.1504428953626575
-4.072,-0.4980843575391895,-0.474758770542221
-4.0715,-0.8502001278423965,-1.068170521231058
-4.071,-1.010252750707772,-1.311893204550101
-4.0705,-0.807519428411986,-0.9304142219644207
-4.07,-0.3913826089627415,-0.4323722169220043
-4.0695,-0.007256314085545376,-0.0826831495508622
-4.069,0.2594980573562781,0.09745970333682032
-4.0685,0.3768699807907871,0.13984625695749
-4.068,0.4408910299368829,0.1186529801471166
-4.0675,0.4408910299368829,0.07626642652648545
-4.067,0.408880505363835,0.07626642652648545
-4.0665,0.3021787567869795,0.2776025562246956
-4.066,0.2701682322139607,0.309392471440169
-4.0655,0.3021787567870086,0.2564092794143318
-4.065,0.3448594562177004,0.2034260873885428
-4.0645,0.2381577076409128,0.01268659609548085
-4.064,0.1634664836371343,-0.5913217929990628
-4.0635,-0.2206598112390915,-1.216523458903373
-4.063,-0.7114878546929781,-1.661582271920838
-4.0625,-0.8608703027003992,-1.51322933424863
-4.062,-0.5621054066855571,-0.8244478379133727
-4.0615,-0.1886492866661212,-0.1356663415764006
-4.061,0.1101156093487211,0.3729723018711736
-4.0605,0.291508581929326,0.6802748156210291
-4.06,0.3875401556484891,0.8180311148882443
-4.0595,0.408880505363835,0.8604176685088755
-4.059,0.408880505363835,0.849821030103708
-4.0585,0.3875401556484891,0.8074344764830769
-4.058,0.3768699807907871,0.7544512844572011
-4.0575,0.3661998059331045,0.6908714540261965
-4.057,0.3661998059331045,0.6272916235952498
-4.0565,0.3768699807907871,0.5743084315693548
-4.056,0.2594980573562781,0.3623756634660061
-4.0555,-0.231329986096677,-0.2946159176537771
-4.055,-0.8288597781276135,-1.025783967611188
-4.0545,-1.116954499284783,-1.311893204550448
-4.054,-0.9462317015620156,-0.8138511995080319
-4.0535,-0.4980843575387916,-0.2840192792489278
-4.053,-0.06060718837420119,0.02328323450064829
-4.0525,0.2168173579255475,0.1080563417419877
-4.052,0.3768699807908453,0.09745970333677213
-4.0515,0.4408910299368829,0.04447651131098315
-4.051,0.4408910299368829,0.01268659609548085
-4.0505,0.43022085507921,-0.008506680714834736
-4.05,0.3235191065023739,0.1928294489833272
-4.0495,0.2381577076409128,0.3517790250608387
-4.049,0.2488278824985857,0.3411823866556809
-4.0485,0.3021787567870571,0.3199891098453075
-4.048,0.3555296310754218,0.2881991946298341
-4.0475,0.6863050516632829,-0.07208651114553094
-4.047,0.5689331282284341,-0.7290780922667502
-4.0465,-0.1352984123779797,-1.290699927740113
-4.046,-0.8181896032690477,-1.608599079894847
-4.0455,-1.138294848999886,-1.460246142222137
-4.045,-0.8502001278427167,-0.7396747306714069
-4.0445,-0.391382608962363,-0.008506680714854012
-4.044,-0.00725631408555508,0.5319218779489645
-4.0435,0.2488278824985954,0.8392243916985406
-4.043,0.3661998059331045,0.9663840525605498
-4.0425,0.4088805053637962,0.9769806909657076
-4.042,0.4195506802215176,0.92399749893988
-4.0415,0.3982103305061524,0.8286277532933731
-4.041,0.3768699807908065,0.733258007646953
-4.0405,0.3768699807907774,0.6272916235950956
-4.04,0.3661998059331045,0.5213252395435176
-4.0395,0.2808384070717209,0.3729723018713085
-4.039,-0.2526703358129545,-0.1886495336033172
-4.0385,-0.7648387289812555,-0.8668343915334161
-4.038,-1.234326422718865,-1.449649503817095
-4.0375,-1.415719395299489,-1.439052865411937
-4.037,-0.9675720512772257,-0.8668343915334161
-4.0365,-0.4020527838200457,-0.3581957480853793
-4.036,0.03542438534518519,-0.05089323433540809
-4.0355,0.3021787567870086,0.07626642652648545
-4.035,0.4302208550792003,0.07626642652648545
-4.0345,0.4622313796522191,0.04447651131101207
-4.034,0.4515612047945656,0.01268659609548085
-4.0335,0.4195506802215176,0.08686306493165288
-4.033,0.3875401556484989,0.2564092794141776
-4.0325,0.3875401556484697,0.2670059178194703
-4.032,0.3875401556484697,0.2352160026039969
-4.0315,0.3982103305061427,0.2140227257936814
-4.031,0.1634664836367655,-0.08268314955158503
-4.0305,-0.2420001609548061,-0.6972881770507372
-4.03,-0.7755089038384528,-1.2589100125241
-4.0295,-1.159635198715707,-1.619195718300361
-4.029,-1.373038695869166,-1.682775548731308
-4.0285,-1.031593100423322,-1.05757388282643
-4.028,-0.4980843575387916,-0.2946159176538253
-4.0275,-0.06060718837420119,0.309392471440169
-4.027,0.2381577076409128,0.6908714540261965
-4.0265,0.3768699807906609,0.871014306913879
-4.026,0.4302208550792003,0.92399749893988
-4.0255,0.4302208550792003,0.9028042221295453
-4.025,0.4088805053638545,0.8392243916985984
-4.0245,0.38754015564846,0.7650479228622915
-4.024,0.3768699807907871,0.6802748156210291
-4.0235,0.3768699807907871,0.5955017083797667
-4.023,0.3768699807907483,0.5213252395432574
-4.0225,0.3341892813600565,0.2352160026039969
-4.022,-0.04993701351616919,-0.4323722169209441
-4.0215,-0.4980843575395777,-0.9622041371802024
-4.021,-0.9248913518464952,-1.269506650929778
-4.0205,-0.8715404775580819,-0.9092209451540858
-4.02,-0.466073832965763,-0.4323722169212526
-4.0195,-0.04993701351651855,-0.1038764263613609
-4.019,0.2274875327832301,0.06566978812131802
-4.0185,0.3768699807906513,0.1292496185522648
-4.018,0.4408910299368829,0.1186529801471552
-4.0175,0.4408910299368829,0.08686306493165288
-4.017,0.4195506802215371,0.0762664265264951
-4.0165,0.3982103305061427,0.1610395337678538
-4.016,0.3875401556484697,0.1928294489833272
-4.0155,0.3875401556484697,0.1822328105781694
-4.015,0.387540155648528,0.1822328105781212
-4.0145,0.4515612047945656,0.13984625695749
-4.014,0.7396559259517348,-0.3370024712746107
-4.0135,0.312848931644012,-1.025783967611419
-4.013,-0.4340633083930936,-1.566212526274467
-4.0125,-1.095614149569417,-1.894708316834657
-4.012,-1.234326422718923,-1.545019249463399
-4.0115,-0.8288597781273515,-0.7396747306714069
-4.011,-0.3273615598162672,-0.01910331912002144
-4.0105,0.05676473505995849,0.4789386859223949
-4.01,0.291508581929326,0.7544512844572011
-4.0095,0.3875401556484697,0.8604176685088755
-4.009,0.4195506802214886,0.8710143069140333
-4.0085,0.4195506802214982,0.8180311148881479
-4.008,0.3982103305061524,0.7544512844572011
-4.0075,0.3768699807908065,0.6696781772159388
-4.007,0.3768699807907774,0.5955017083796221
-4.0065,0.3661998059331045,0.5213252395435176
-4.006,0.2381577076409128,0.309392471440169
-4.0055,-0.2420001609551652,-0.3370024712757191
-4.005,-0.6367966306890638,-1.078767159636765
-4.0045,-1.084943974711735,-1.629792356705471
-4.004,-1.148965023857442,-1.417859588601525
-4.0035,-0.722158029550525,-0.7608680074817418
-4.003,-0.2206598112394408,-0.2204394488182027
-4.0025,0.152796308779112,0.07626642652621562
-4.002,0.3661998059331045,0.1610395337678249
-4.0015,0.4515612047945656,0.13984625695749
-4.001,0.4729015545099114,0.08686306493170107
-4.0005,0.4515612047945268,0.04447651131110844
-4,0.408880505363835,0.1822328105781598
-3.9995,0.3661998059331045,0.2987958330350016
-3.999,0.3555296310754218,0.2987958330350016
-3.9985,0.3661998059331045,0.2776025562246667
-3.998,0.3768699807907871,0.2564092794143318
-3.9975,0.6542945270905358,-0.04029659593035631
-3.997,0.707645401378949,-0.6654982618352349
-3.9965,0.1101156093487211,-1.237716735714276
-3.996,-0.6794773301197943,-1.672178910326141
-3.9955,-1.042263275281004,-1.523825972653797
-3.995,-0.7861790786966207,-0.8032545611024114
-3.9945,-0.3593720843893152,-0.07208651114585861
-3.994,0.00341386077189465,0.457745409112513
-3.9935,0.2488278824985954,0.7650479228623686
-3.993,0.3661998059331045,0.9028042221295453
-3.9925,0.408880505363835,0.9134008605347127
-3.992,0.408880505363835,0.8710143069140429
-3.9915,0.3982103305061524,0.8074344764830383
-3.991,0.3768699807907871,0.7226613692416989
-3.9905,0.3661998059331045,0.6378882620003594
-3.99,0.3661998059331045,0.55311515475902
-3.9895,0.3128489316446912,0.4365521323021782
-3.989,-0.156638762093345,-0.1144730647665284
-3.9885,-0.5621054066852853,-0.7396747306714069
-3.988,-0.5941159312583333,-1.068170521231597
-3.9875,-0.4874141826815069,-1.05757388282643
-3.987,-0.1886492866663929,-0.6125150698093976
-3.9865,0.09944543449103843,-0.2204394488182027
-3.986,0.291508581929326,-0.008506680714854012
-3.9855,0.3768699807907871,0.05507314971615059
-3.985,0.4195506802215176,0.06566978812131802
-3.9845,0.4195506802215176,0.04447651131098315
-3.984,0.408880505363835,0.04447651131098315
-3.9835,0.4195506802215176,0.1186529801471552
-3.983,0.3982103305061524,0.309392471440169
-3.9825,0.3768699807907871,0.3411823866556712
-3.982,0.3768699807907871,0.3199891098453364
-3.9815,0.3768699807907871,0.2987958330350016
-3.981,0.1848068333524996,0.04447651131098315
-3.9805,-0.3380317346739499,-0.6125150698093976
-3.98,-0.9248913518464952,-1.269506650929778
-3.9795,-1.341028171296118,-1.703968825541643
-3.979,-1.575772018165136,-1.778145294377815
-3.9785,-1.170305373573196,-1.0999604364471
-3.978,-0.5834457564006506,-0.2946159176543747
-3.9775,-0.09261771294724913,0.3411823866556712
-3.977,0.2168173579255475,0.7438546460520338
-3.9765,0.3768699807907871,0.92399749893988
-3.976,0.4302208550792003,0.9769806909657173
-3.9755,0.4302208550792003,0.9345941373450475
-3.975,0.408880505363835,0.8604176685088755
-3.9745,0.3875401556484697,0.7650479228623686
-3.974,0.3768699807907871,0.6696781772158616
-3.9735,0.3661998059331045,0.5849050699745222
-3.973,0.3555296310754218,0.4789386859228479
-3.9725,0.01408403562957729,0.07626642652648545
-3.972,-0.722158029550525,-0.6654982618352349
-3.9715,-1.074273799854052,-1.152943628472937
-3.971,-0.9035510021311299,-0.9622041371799229
-3.9705,-0.4874141826815069,-0.3370024712750445
-3.97,-0.03926683865883591,0.04447651131098315
-3.9695,0.2594980573562781,0.1504428953626575
-3.969,0.3982103305061524,0.1292496185523226
-3.9685,0.4515612047945656,0.04447651131098315
-3.968,0.4515612047945656,-0.02969995752518888
-3.9675,0.4302208550792003,-0.08268314955102604
-3.967,0.3982103305061524,-0.06148987274069118
-3.9665,0.2488278824985954,0.1504428953626575
-3.966,0.1954770082101822,0.2564092794143318
-3.9655,0.2381577076409128,0.2776025562246667
-3.965,0.3021787567870086,0.2881991946298341
-3.9645,0.291508581929326,0.2140227257936621
-3.964,0.2594980573562781,-0.2946159176543747
-3.9635,0.2061471830678648,-0.8986243067489184
-3.963,-0.2099896363817582,-1.301296566145281
-3.9625,-0.7114878546928423,-1.417859588602123
-3.962,-0.690147504977477,-0.8986243067489184
-3.9615,-0.3700422592469978,-0.1674562567923655
-3.961,-0.04993701351651855,0.4259554938970107
-3.9605,0.1954770082101822,0.8074344764830383
-3.96,0.3235191065023739,0.9875773293708847
-3.9595,0.3875401556484697,1.040560521396722
-3.959,0.3982103305061524,1.019367244586387
-3.9585,0.3875401556484697,0.9345941373450475
-3.958,0.3768699807907871,0.849821030103708
-3.9575,0.3661998059331045,0.7438546460520338
-3.957,0.3661998059331045,0.6378882620003594
-3.9565,0.3661998059331045,0.5425185163538525
-3.956,0.1848068333524996,0.2987958330350016
-3.9555,-0.2526703358124887,-0.1992461720078678
-3.955,-0.5087545323968721,-0.6231117082145651
-3.9545,-0.722158029550525,-0.9304142219644207
-3.954,-0.6047861061160158,-0.5595318777835605
-3.9535,-0.2526703358124887,-0.1568596183871981
-3.953,0.04609456020262521,0.04447651131098315
-3.9525,0.2488278824985954,0.07626642652648545
-3.952,0.3555296310754218,0.03387987290581572
-3.9515,0.408880505363835,-0.02969995752518888
-3.951,0.408880505363835,-0.07208651114585861
-3.9505,0.408880505363835,-0.08268314955102604
-3.95,0.3341892813600565,0.1186529801471552
-3.9495,0.2274875327832301,0.3623756634660061
-3.949,0.2381577076409128,0.3941655786815084
-3.9485,0.2808384070716433,0.3517790250608387
-3.948,0.3341892813600565,0.3411823866556712
-3.9475,0.6222840025174878,0.1504428953626575
-3.947,0.6863050516635838,-0.4111789401112165
-3.9465,0.05676473506030786,-1.004590690800593
-3.946,-0.7328282044082075,-1.439052865412457
-3.9455,-1.170305373573196,-1.42845622700729
-3.945,-0.9248913518464952,-0.7714646458869092
-3.9445,-0.4660738329661415,-0.04029659593035631
-3.944,-0.04993701351651855,0.5319218779486851
-3.9435,0.2168173579255475,0.8710143069140429
-3.943,0.3555296310754218,1.00877060618122
-3.9425,0.408880505363835,1.029963882991555
-3.942,0.408880505363835,0.9769806909657173
-3.9415,0.3982103305061524,0.8922075837243778
-3.941,0.3768699807907871,0.7968378380778709
-3.9405,0.3661998059331045,0.6908714540261965
-3.94,0.3661998059331045,0.5849050699745222
-3.9395,0.3128489316446912,0.4471487707073456
-3.939,-0.124628237520297,-0.06148987274069118
-3.9385,-0.6367966306890638,-0.6866915386455698
-3.938,-0.8502001278427167,-1.068170521231597
-3.9375,-0.9569018764195432,-1.089363798041932
-3.937,-0.690147504977477,-0.6654982618352349
-3.9365,-0.2633405106701714,-0.2416327256285375
-3.936,0.07810508477567314,0.002089957690313421
-3.9355,0.3021787567870086,0.07626642652648545
-3.935,0.3982103305061524,0.06566978812131802
-3.9345,0.4302208550792003,0.02328323450064829
-3.934,0.4302208550792003,-0.01910331912002144
-3.9335,0.408880505363835,0.002089957690313421
-3.933,0.3555296310754218,0.13984625695749
-3.9325,0.3448594562177392,0.1610395337678249
-3.932,0.3448594562177392,0.1716361721729923
-3.9315,0.3555296310754218,0.1822328105781598
-3.931,0.4302208550792003,0.13984625695749
-3.9305,0.5902734779444399,0.05507314971615059
-3.93,0.1634664836371343,-0.4853554089473885
-3.9295,-0.4554036581084589,-1.089363798041932
-3.929,-0.9569018764195432,-1.42845622700729
-3.9285,-0.8608703027003992,-1.046977244421262
-3.928,-0.4767440078238243,-0.3687923864905467
-3.9275,-0.09261771294724913,0.2246193641988295
-3.927,0.1848068333524996,0.627291623595192
-3.9265,0.3235191065023739,0.8392243916985406
-3.926,0.3982103305061524,0.9345941373450475
-3.9255,0.408880505363835,0.9451907757502149
-3.925,0.3875401556484697,0.9028042221295453
-3.9245,0.3768699807907871,0.849821030103708
-3.924,0.3661998059331045,0.7862411996727035
-3.9235,0.3661998059331045,0.7120647308365314
-3.923,0.3661998059331045,0.6484849004055269
-3.9225,0.08877525963335578,0.309392471440169
-3.922,-0.6367966306890638,-0.4641621321370536
-3.9215,-1.351698346153801,-1.216523458903942
-3.921,-1.821186039891837,-1.650985633515806
-3.9205,-1.458400094730627,-1.258910012524611
-3.92,-0.7648387289812555,-0.6231117082145651
-3.9195,-0.1673089369510276,-0.1356663415768632
-3.919,0.2168173579255475,0.1080563417419877
-3.9185,0.408880505363835,0.1610395337678249
-3.918,0.4622313796522482,0.1186529801471552
-3.9175,0.4622313796522482,0.05507314971615059
-3.917,0.4408910299368829,0.01268659609548085
-3.9165,0.4408910299368829,0.13984625695749
-3.916,0.4195506802215176,0.2140227257936621
-3.9155,0.3982103305061524,0.1822328105781598
-3.915,0.3875401556484697,0.1504428953626575
-3.9145,0.408880505363835,0.09745970333682032
-3.914,0.6969752265212663,-0.3581957480853793
-3.9135,0.4729015545099309,-1.025783967610927
-3.913,-0.2633405106701714,-1.608599079895136
-3.9125,-1.020922925565639,-1.979481424075996
-3.912,-1.170305373573196,-1.566212526274467
-3.9115,-0.7861790786966207,-0.718481453861072
-3.911,-0.3166913849585846,0.01268659609548085
-3.9105,0.05676473506030786,0.5213252395435176
-3.91,0.2808384070716433,0.7968378380778709
-3.9095,0.3768699807907871,0.9134008605347127
-3.909,0.408880505363835,0.92399749893988
-3.9085,0.408880505363835,0.8816109453192104
-3.908,0.3875401556484697,0.8180311148882058
-3.9075,0.3768699807907871,0.7332580076468663
-3.907,0.3661998059331045,0.6590815388106942
-3.9065,0.3661998059331045,0.5849050699745222
-3.906,0.1741366584948169,0.3623756634660061
-3.9055,-0.3700422592469978,-0.3052125560595421
-3.905,-0.9675720512772257,-1.036380606016095
-3.9045,-1.373038695869166,-1.545019249464132
-3.904,-1.234326422719292,-1.375473034981453
-3.9035,-0.722158029550525,-0.7820612842920766
-3.903,-0.2099896363817582,-0.2734226408440398
-3.9025,0.1527963087794516,0.02328323450064829
-3.902,0.3661998059331045,0.13984625695749
-3.9015,0.4622313796522482,0.13984625695749
-3.901,0.4729015545099309,0.09745970333682032
-3.9005,0.4515612047945656,0.05507314971615059
-3.9,0.3661998059331045,0.2034260873884947
-3.8995,0.2488278824985954,0.3941655786815084
-3.899,0.2488278824985954,0.3623756634660061
-3.8985,0.291508581929326,0.2881991946298341
-3.898,0.3128489316446912,0.2034260873884947
-3.8975,-0.03926683865883591,-0.2098428104130352
-3.897,-0.690147504977477,-0.8880276683437509
-3.8965,-1.148965023857831,-1.439052865412457
-3.896,-1.46907026958831,-1.767548655972648
-3.8955,-1.373038695869166,-1.51322933424863
-3.895,-0.839529952985034,-0.7502713690765743
-3.8945,-0.3060212101009019,-0.02969995752518888
-3.894,0.08877525963335578,0.4895353243280153
-3.8935,0.3128489316446912,0.7862411996727035
-3.893,0.408880505363835,0.9134008605347127
-3.8925,0.4302208550792003,0.9345941373450475
-3.892,0.4195506802215176,0.9028042221295453
-3.8915,0.3875401556484697,0.8392243916985406
-3.891,0.3768699807907871,0.7650479228623686
-3.8905,0.3661998059331045,0.6908714540261965
-3.89,0.3661998059331045,0.6166949851900245
-3.8895,0.3661998059331045,0.5319218779486851
-3.889,0.5582629533713921,0.383568940276341
-3.8885,0.8890383739595538,0.01268659609548085
-3.888,0.4302208550792003,-0.6125150698093976
-3.8875,0.07810508477567314,-0.6443049850249
-3.887,0.03542438534494258,-0.3370024712750445
-3.8865,0.1314559590640864,-0.06148987274069118
