Class_3_Grab_w_two_Hands/Class_3_Grab_with_Two_Hands_SH_11.csv

#Digilent WaveForms Oscilloscope Acquisition
#Device Name: EExplorer
#Serial Number: SN:210151A2B84A
#Date Time: 2021-01-27 11:57:59.549
#Sample rate: 2000Hz
#Samples: 16384
#Trigger: Source: Channel 1 Type: Edge Condition: Rising Level: 0 V Hyst.: Auto HoldOff: 0 s
#Channel 1: Range: 1 V/div Offset: 0 V Attenuation: 1 X
#Channel 2: Range: 1 V/div Offset: 0 V Attenuation: 1 X
#Channel 4: Range: 1 V/div Offset: 0 V Attenuation: 1 X
#Power Supplies: ON
#Fixed Supply: ON
#Voltage: 3.3 V Readback: 3.317 V
#Positive Supply: ON
#Voltage: 3.7 V Readback: 3.717 V
#Current: 40 mA Readback: 21 mA
#Negative Supply: ON
#Voltage: -3.7 V Readback: -3.334 V
#Current: -40 mA Readback: -4 mA
#Reference 1: ON
#Voltage: 0 V
#Reference 2: ON
#Voltage: 0 V

Time (s),Channel 1 (V),Channel 2 (V),Channel 4 (V)
-4.096,0.5262524287983441,0.5107286011383502,0.03146123722496762
-4.0955,0.4302208550792876,0.6272916235950859,0.01029508240328863
-4.095,0.3768699807907289,0.6378882620000413,-0.03203722724013675
-4.0945,0.3128489316446912,0.2881991946298341,-0.04262030465097626
-4.094,-0.02859666380084275,-0.3370024712744758,-0.06378645947265525
-4.0935,-0.6367966306896654,-0.9728007755855337,-0.04262030465101476
-4.093,-1.298347471865388,-1.460246142222792,-0.08495261429437276
-4.0925,-1.437059745015136,-1.502632695843424,-0.05320338206185424
-4.092,-0.9889124009921059,-0.9833974139897663,-0.03203722724012713
-4.0915,-0.4554036581084589,-0.4429688553267188,-0.03203722724012713
-4.091,-0.03926683865883591,-0.07208651114585861,-0.04262030465097626
-4.0905,0.2168173579256542,0.09745970333683959,-0.04262030465097626
-4.09,0.3341892813600565,0.1186529801471552,-0.04262030465097626
-4.0895,0.3661998059331045,0.05507314971615059,-0.04262030465097626
-4.089,0.3555296310754315,-0.04029659593026957,-0.08495261429433426
-4.0885,0.3341892813600565,-0.1356663415768632,-0.1167018465269201
-4.088,0.3021787567870086,-0.1992461720078678,-0.1167018465269201
-4.0875,0.2594980573563169,-0.18864953360271,-0.1061187691160806
-4.087,0.2168173579253534,-0.125069703171503,-0.08495261429433426
-4.0865,0.00341386077189465,0.08686306493165288,-0.04262030465097626
-4.086,-0.6047861061154627,0.6802748156204894,-0.05320338206181575
-4.0855,-1.084943974711987,0.7544512844565939,-0.05320338206178687
-4.085,-1.362368521011484,0.08686306493165288,-0.01087107241842888
-4.0845,-1.116954499285006,-0.2734226408437122,-0.02145414982926837
-4.084,-0.647466805546339,-0.2840192792491013,-0.021454149829278
-4.0835,-0.1993194615240755,-0.1674562567923655,-0.021454149829278
-4.083,0.1314559590640864,-0.04029659593035631,-0.021454149829278
-4.0825,0.3021787567870863,0.1080563417421034,-0.021454149829278
-4.082,0.3875401556484697,0.2352160026039969,-0.021454149829278
-4.0815,0.4195506802215176,0.3411823866556712,-0.021454149829278
-4.081,0.4729015545098824,0.3729723018711447,-0.000287995007599004
-4.0805,0.5902734779444399,0.2987958330350016,0.04204431463581675
-4.08,0.5689331282290746,0.3941655786815084,0.03146123722496762
-4.0795,0.4835717293676911,0.5319218779485597,0.03146123722496762
-4.079,0.4088805053637962,0.6484849004055944,0.01029508240325012
-4.0785,0.3661998059331045,0.7226613692416989,-0.01087107241842888
-4.078,0.5582629533712173,0.8604176685087501,-0.05320338206178687
-4.0775,0.7183155762360881,0.923997498939215,-0.04262030465098588
-4.077,0.1207857842064037,0.1928294489833272,-0.05320338206182537
-4.0765,-0.6261264558307019,-0.5807251545931919,-0.07436953688350438
-4.076,-1.148965023857695,-0.898624306748822,-0.08495261429433426
-4.0755,-0.9995825758502737,-0.792657922697244,-0.04262030465097626
-4.075,-0.572775581542968,-0.4853554089473885,-0.04262030465097626
-4.0745,-0.1566387620930926,-0.209842810412881,-0.04262030465097626
-4.074,0.1207857842064037,-0.04029659593035631,-0.04262030465097626
-4.0735,0.2808384070716433,0.03387987290581572,-0.05320338206182537
-4.073,0.3448594562176809,0.03387987290581572,-0.05320338206182537
-4.0725,0.3555296310754218,0.01268659609548085,-0.0637864594726745
-4.072,0.3448594562177392,-0.02969995752518888,-0.1167018465269201
-4.0715,0.3128489316447204,-0.04029659593034667,-0.1167018465269201
-4.071,0.2808384070716142,-0.02969995752515996,-0.1167018465269009
-4.0705,0.2488278824985954,0.002089957690313421,-0.09553569170522189
-4.07,0.1741366584948849,0.1080563417418914,-0.05320338206186388
-4.0695,-0.3273615598168204,0.5849050699750427,-0.05320338206182537
-4.069,-0.9355615267041777,1.157123543853563,-0.05320338206182537
-4.0685,-1.180975548430879,0.9663840525605498,-0.021454149829278
-4.068,-1.138294848999857,0.4047622170863964,-0.02145414982928762
-4.0675,-0.8181896032696687,0.09745970333682032,-0.03203722724012713
-4.067,-0.3487019095316325,-0.008506680714854012,-0.021454149829278
-4.0665,0.01408403562977138,0.002089957690429072,-0.021454149829278
-4.066,0.2274875327832301,0.1292496185523226,-0.021454149829278
-4.0655,0.3341892813600565,0.2670059178194992,-0.021454149829278
-4.065,0.3768699807907483,0.383568940276235,-0.021454149829278
-4.0645,0.408880505363835,0.4365521323021782,-0.021454149829278
-4.064,0.5689331282290746,0.2881991946298341,0.03146123722496762
-4.0635,0.6009436528020935,0.2881991946298341,0.04204431463580712
-4.063,0.5262524287982762,0.4047622170868012,0.031461237224958
-4.0625,0.4515612047945656,0.5425185163538525,0.0208781598141185
-4.062,0.387540155648528,0.6484849004054305,-0.0002879950075605001
-4.0615,0.4622313796526072,0.6166949851898318,-0.04262030465098588
-4.061,0.857027849386506,0.4047622170866759,-0.05320338206182537
-4.0605,0.5049120790829789,-0.1886495336027004,-0.05320338206182537
-4.06,-0.3273615598169174,-0.8774310299390076,-0.06378645947269375
-4.0595,-1.042263275281004,-1.34368311976595,-0.08495261429437276
-4.059,-1.042263275281004,-1.163540266878104,-0.04262030465097626
-4.0585,-0.6581369804047784,-0.6443049850253723,-0.03203722724013675
-4.058,-0.2313299860971235,-0.1886495336027004,-0.04262030465097626
-4.0575,0.07810508477567314,0.07626642652648545,-0.04262030465097626
-4.057,0.2488278824984401,0.1716361721729056,-0.04262030465097626
-4.0565,0.3341892813600565,0.13984625695749,-0.05320338206182537
-4.056,0.3555296310754218,0.05507314971615059,-0.05320338206182537
-4.0555,0.3448594562177489,-0.05089323433542736,-0.1061187691160229
-4.055,0.3235191065023448,-0.1568596183872366,-0.1167018465269201
-4.0545,0.291508581929326,-0.1992461720078678,-0.1167018465269201
-4.054,0.2701682322139801,-0.2310360872233412,-0.09553569170524114
-4.0535,0.2594980573560354,-0.2628260024387953,-0.07436953688350438
-4.053,-0.007256314085787988,-0.1780528951975329,-0.05320338206182537
-4.0525,-0.4980843575391895,-0.05089323433552374,-0.04262030465097626
-4.052,-0.8288597781275553,-0.495952047352874,-0.04262030465094738
-4.0515,-1.052933450138687,-0.8456411147230812,-0.01087107241842888
-4.051,-1.031593100423322,-0.6866915386455698,-0.021454149829278
-4.0505,-0.6794773301201145,-0.3793890248959936,-0.021454149829278
-4.05,-0.2526703358124887,-0.1038764263613609,-0.021454149829278
-4.0495,0.0674349099179905,0.09745970333682032,-0.021454149829278
-4.049,0.2701682322137763,0.2140227257935561,-0.021454149829278
-4.0485,0.3555296310754509,0.3199891098454135,-0.02145414982928762
-4.048,0.3875401556484697,0.4047622170866759,-0.03203722724012713
-4.0475,0.5369226036558907,0.3305857482505713,0.02087815981407037
-4.047,0.6116138276597566,0.2670059178195763,0.04204431463580712
-4.0465,0.5582629533713921,0.3517790250608387,0.03146123722496762
-4.046,0.4729015545100085,0.4471487707072589,0.02087815981412813
-4.0455,0.4088805053638641,0.5107286011383213,0.01029508240323087
-4.045,0.4408910299368829,0.4789386859228479,-0.03203722724012713
-4.0445,0.8676980242441885,-0.08268314955102604,-0.05320338206182537
-4.044,0.9850699476780863,-0.8350444763184438,-0.05320338206180612
-4.0435,0.3128489316446912,-1.417859588602123,-0.03203722724012713
-4.043,-0.4980843575391895,-1.269506650929778,-0.07436953688352363
-4.0425,-1.020922925565163,-0.8562377531286245,-0.06378645947268413
-4.042,-0.8822106524157645,-0.5383386009732256,-0.04262030465097626
-4.0415,-0.4874141826815069,-0.3158091944647096,-0.04262030465097626
-4.041,-0.1139580626629541,-0.1992461720079738,-0.04262030465097626
-4.0405,0.1421261339218951,-0.1674562567923751,-0.04262030465097626
-4.04,0.2808384070716433,-0.1780528951975329,-0.04262030465097626
-4.0395,0.334189281360008,-0.1992461720078486,-0.04262030465097626
-4.039,0.3448594562177295,-0.220439448818193,-0.08495261429440164
-4.0385,0.3341892813600565,-0.2098428104130352,-0.1167018465269201
-4.038,0.3021787567870378,-0.1674562567924041,-0.1167018465269201
-4.0375,0.2701682322139316,-0.1038764263612452,-0.1061187691160614
-4.037,0.2381577076409128,0.02328323450064829,-0.09553569170522189
-4.0365,0.1207857842064037,0.2246193641988295,-0.03203722724012713
-4.036,-0.3487019095320401,0.7014680924313736,-0.05320338206182537
-4.0355,-0.7968492535543035,0.7120647308365314,-0.05320338206182537
-4.035,-1.148965023857831,-0.05089323433552374,-0.021454149829278
-4.0345,-1.362368521011289,-0.6337083466192025,-0.021454149829278
-4.034,-1.074273799854052,-0.570128516188728,-0.021454149829278
-4.0335,-0.5834457564006506,-0.2628260024388724,-0.021454149829278
-4.033,-0.1566387620937331,0.05507314971586147,-0.021454149829278
-4.0325,0.1207857842065493,0.2987958330351365,-0.021454149829278
-4.032,0.2808384070716433,0.4471487707073456,-0.021454149829278
-4.0315,0.3661998059330268,0.5425185163537658,-0.021454149829278
-4.031,0.4729015545101153,0.5213252395433827,-0.000287995007541251
-4.0305,0.6756348768059011,0.3729723018711736,0.04204431463581675
-4.03,0.6542945270905552,0.4259554938969625,0.03146123722497725
-4.0295,0.5582629533712951,0.5425185163539392,0.03146123722494838
-4.029,0.4515612047945656,0.6378882620003594,0.01029508240326937
-4.0285,0.3768699807907871,0.6802748156210291,-0.01087107241842888
-4.028,0.5262524287986352,0.7968378380782082,-0.04262030465096663
-4.0275,0.8463576745288233,1.167720182258731,-0.03203722724012713
-4.027,0.3982103305061524,1.072350436612224,-0.05320338206182537
-4.0265,-0.2420001609542238,0.1716361721738116,-0.08495261429434389
-4.026,-0.7328282044082075,-0.6443049850249,-0.07436953688352363
-4.0255,-0.6474668055467465,-0.792657922697244,-0.04262030465097626
-4.025,-0.3380317346742313,-0.6231117082147193,-0.04262030465097626
-4.0245,-0.04993701351632446,-0.3899856633007178,-0.04262030465097626
-4.024,0.1634664836371343,-0.2098428104130352,-0.04262030465097626
-4.0235,0.2808384070715366,-0.1038764263614573,-0.04262030465097626
-4.023,0.3235191065023836,-0.0614898727406719,-0.04262030465099551
-4.0225,0.3341892813600565,-0.04029659593035631,-0.0637864594726745
-4.022,0.3235191065023836,-0.04029659593035631,-0.116701846526872
-4.0215,0.3021787567869892,-0.02969995752515033,-0.1167018465269105
-4.021,0.2808384070716433,0.01268659609548085,-0.106118769116071
-4.0205,0.2381577076409128,0.1080563417419877,-0.09553569170522189
-4.02,0.2061471830676028,0.1822328105782465,-0.05320338206182537
-4.0195,-0.08194753808956648,0.2776025562246667,-0.05320338206182537
-4.019,-0.5407650569699201,0.09745970333682032,-0.0637864594726745
-4.0185,-0.8822106524154539,-0.5807251545932786,-0.01087107241847701
-4.018,-0.9355615267041777,-0.8138511995075789,-0.021454149829278
-4.0175,-0.5941159312583333,-0.5065486857577234,-0.021454149829278
-4.017,-0.2206598112397805,-0.07208651114625375,-0.021454149829278
-4.0165,0.07810508477584782,0.2881991946299787,-0.021454149829278
-4.016,0.2701682322139607,0.4471487707073456,-0.021454149829278
-4.0155,0.3555296310753442,0.4471487707073456,-0.0320372272401175
-4.015,0.3875401556484988,0.4471487707073167,-0.03203722724012713
-4.0145,0.4195506802215176,0.4153588554918433,-0.03203722724012713
-4.014,0.7823366253823976,0.08686306493195167,0.04204431463574937
-4.0135,0.9637295979632257,-0.04029659593023102,0.04204431463580712
-4.013,0.8463576745288233,0.09745970333682032,0.03146123722496762
-4.0125,0.6436243522328531,0.2670059178194992,0.0208781598141185
-4.012,0.4835717293676038,0.3835689402764471,-0.0002879950076086278
-4.0115,0.4729015545099309,0.5001319627331828,-0.03203722724012713
-4.011,0.8356874996711408,0.9028042221295453,-0.04262030465097626
-4.0105,0.4835717293679337,0.9345941373450186,-0.05320338206181575
-4.01,-0.2633405106701714,0.1822328105781598,-0.05320338206182537
-4.0095,-0.8928808272734472,-0.400582301706049,-0.09553569170522189
-4.009,-0.9782422261348308,-0.6760949002401517,-0.05320338206186388
-4.0085,-0.6474668055463875,-0.6019184314040761,-0.04262030465097626
-4.008,-0.2526703358124887,-0.4323722169215513,-0.04262030465097626
-4.0075,0.04609456020235347,-0.2734226408441844,-0.04262030465097626
-4.007,0.2274875327833077,-0.1780528951974847,-0.04262030465097626
-4.0065,0.3128489316446912,-0.1250697031716958,-0.04262030465097626
-4.006,0.3341892813600565,-0.09327978795619347,-0.05320338206182537
-4.0055,0.3341892813600371,-0.08268314955099713,-0.1061187691160806
-4.005,0.3128489316446912,-0.05089323433552374,-0.1167018465269201
-4.0045,0.2808384070716433,-0.008506680714854012,-0.1167018465269201
-4.004,0.259498057356249,0.04447651131105061,-0.1061187691160421
-4.0035,0.2274875327832301,0.1186529801471552,-0.07436953688352363
-4.003,-0.04993701351651855,0.2458126410091644,-0.05320338206182537
-4.0025,-0.6047861061155112,0.5637117931638983,-0.05320338206182537
-4.002,-0.8822106524157645,0.2564092794143318,-0.04262030465097626
-4.0015,-0.9355615267041777,-0.2946159176543747,-0.01087107241842888
-4.001,-0.8288597781274485,-0.3158091944646903,-0.02145414982926837
-4.0005,-0.4874141826811866,-0.1992461720077714,-0.021454149829278
-4,-0.1352984123779797,-0.09327978795619347,-0.021454149829278
-3.9995,0.1741366584948169,0.02328323450064829,-0.021454149829278
-3.999,0.3555296310754218,0.1610395337678249,-0.021454149829278
-3.9985,0.4302208550792003,0.2776025562246667,-0.021454149829278
-3.998,0.4302208550792003,0.3941655786815084,-0.03203722724012713
-3.9975,0.5262524287983441,0.3517790250608387,0.0208781598141185
-3.997,0.5796033030867573,0.3305857482505039,0.03146123722496762
-3.9965,0.5369226036560266,0.4047622170866759,0.03146123722496762
-3.996,0.4515612047945656,0.5107286011383502,0.0208781598141185
-3.9955,0.3875401556484697,0.6060983467848571,0.01029508240326937
-3.995,0.3661998059331045,0.6696781772158616,-0.021454149829278
-3.9945,0.6969752265212663,0.9557874141553824,-0.03203722724012713
-3.994,1.230483969405398,1.42203950398275,-0.03203722724012713
-3.9935,0.7609962756673623,1.761131932948107,-0.04262030465097626
-3.993,-0.09261771294724913,1.316073119931075,-0.106118769116071
-3.9925,-0.5514352318276028,0.4365521323021782,-0.07436953688352363
-3.992,-0.4874141826815069,-0.04029659593035631,-0.05320338206182537
-3.9915,-0.2420001609548061,-0.2204394488182027,-0.04262030465097626
-3.991,0.00341386077189465,-0.2310360872233701,-0.04262030465097626
-3.9905,0.1741366584948169,-0.1674562567923655,-0.04262030465097626
-3.99,0.2701682322139607,-0.08268314955102604,-0.04262030465097626
-3.9895,0.3128489316446912,0.002089957690313421,-0.04262030465097626
-3.989,0.3128489316446912,0.07626642652648545,-0.08495261429437276
-3.9885,0.3021787567870086,0.13984625695749,-0.1167018465269201
-3.988,0.2701682322139607,0.2352160026039969,-0.1167018465269201
-3.9875,0.2488278824985954,0.309392471440169,-0.106118769116071
-3.987,0.2488278824985954,0.383568940276341,-0.07436953688352363
-3.9865,-0.007256314085787988,0.6166949851900245,-0.05320338206182537
-3.986,-0.5834457564006506,1.019367244586387,-0.0637864594726745
-3.9855,-0.9675720512772257,0.7438546460520338,-0.05320338206182537
-3.985,-1.362368521011484,-0.1038764263613609,-0.021454149829278
-3.9845,-1.490410619303675,-0.4323722169215513,-0.021454149829278
-3.984,-1.1062843244271,-0.3687923864905467,-0.021454149829278
-3.9835,-0.6047861061160158,-0.2098428104130352,-0.021454149829278
-3.983,-0.1459685872356623,0.002089957690313421,-0.021454149829278
-3.9825,0.1848068333524996,0.2246193641988295,-0.021454149829278
-3.982,0.3555296310754218,0.3729723018711736,-0.021454149829278
-3.9815,0.408880505363835,0.457745409112513,-0.03203722724012713
-3.981,0.4729015545099309,0.3941655786815084,-0.000287995007579752
-3.9805,0.6116138276598051,0.1610395337678249,0.03146123722496762
-3.98,0.5902734779444399,0.1822328105781598,0.03146123722496762
-3.9795,0.5049120790829789,0.2987958330350016,0.0208781598141185
-3.979,0.408880505363835,0.4047622170866759,0.01029508240326937
-3.9785,0.3555296310754218,0.4789386859228479,-0.01087107241842888
-3.978,0.6009436528021226,0.4471487707073456,-0.04262030465097626
-3.9775,0.9103787236749192,0.3199891098453364,-0.05320338206182537
-3.977,0.3555296310754218,-0.3475991096802118,-0.04262030465097626
-3.9765,-0.3380317346739499,-0.7290780922662394,-0.0637864594726745
-3.976,-0.8181896032696687,-0.3158091944647096,-0.0637864594726745
-3.9755,-0.7648387289812555,-0.1144730647665284,-0.04262030465097626
-3.975,-0.4340633083930936,-0.1462629799820306,-0.04262030465097626
-3.9745,-0.1139580626626144,-0.2416327256285375,-0.05320338206182537
-3.974,0.1207857842064037,-0.3370024712750445,-0.04262030465097626
-3.9735,0.2594980573562781,-0.3899856633008816,-0.04262030465097626
-3.973,0.3128489316446912,-0.3899856633008816,-0.04262030465097626
-3.9725,0.3235191065023739,-0.3581957480853793,-0.0637864594726745
-3.972,0.3128489316446912,-0.2946159176543747,-0.1167018465269201
-3.9715,0.291508581929326,-0.1992461720078678,-0.1167018465269201
-3.971,0.2594980573562781,-0.07208651114585861,-0.106118769116071
-3.9705,0.2274875327832301,0.08686306493165288,-0.08495261429437276
-3.97,0.09944543449103843,0.4153588554918433,-0.03203722724012713
-3.9695,-0.4020527838200457,0.92399749893988,-0.0637864594726745
-3.969,-1.042263275281004,1.42203950398275,-0.05320338206182537
-3.9685,-1.330357996438436,1.241896651094903,-0.03203722724012713
-3.968,-1.447729919872945,0.457745409112513,-0.021454149829278
-3.9675,-1.180975548430879,0.06566978812131802,-0.03203722724012713
-3.967,-0.7008176798351597,0.002089957690313421,-0.021454149829278
-3.9665,-0.1993194615240755,0.1080563417419877,-0.021454149829278
-3.966,0.142126133921769,0.2140227257936621,-0.021454149829278
-3.9655,0.3021787567870086,0.3305857482505039,-0.021454149829278
-3.965,0.3661998059331045,0.4789386859228479,-0.021454149829278
-3.9645,0.408880505363835,0.5849050699745222,-0.021454149829278
-3.964,0.6009436528021226,0.4471487707073456,0.03146123722496762
-3.9635,0.6329541773751706,0.4471487707073456,0.04204431463581675
-3.963,0.5582629533713921,0.55311515475902,0.03146123722496762
-3.9625,0.4622313796522482,0.6590815388106942,0.0208781598141185
-3.962,0.3875401556484697,0.7226613692416989,-0.000287995007579752
-3.9615,0.4729015545099309,0.55311515475902,-0.04262030465097626
-3.961,0.9530594231056497,-0.1038764263613609,-0.0637864594726745
-3.9605,0.7716664505250448,-0.8668343915334161,-0.05320338206182537
-3.96,-0.01792648894347063,-1.42845622700729,-0.08495261429437276
-3.9595,-0.4020527838200457,-1.375473034981453,-0.05320338206182537
-3.959,-0.3487019095316325,-0.8774310299385835,-0.04262030465097626
-3.9585,-0.1459685872356623,-0.4111789401112165,-0.04262030465097626
-3.958,0.05676473506030786,-0.1250697031716958,-0.04262030465097626
-3.9575,0.1954770082101822,-0.01910331912002144,-0.05320338206182537
-3.957,0.2701682322139607,-0.04029659593035631,-0.05320338206182537
-3.9565,0.3021787567870086,-0.1250697031716958,-0.05320338206182537
-3.956,0.3021787567870086,-0.2416327256285375,-0.05320338206182537
-3.9555,0.3021787567870086,-0.3475991096802118,-0.106118769116071
-3.955,0.291508581929326,-0.4217755785163839,-0.1167018465269201
-3.9545,0.2701682322139607,-0.4323722169215513,-0.1167018465269201
-3.954,0.2381577076409128,-0.4217755785163839,-0.106118769116071
-3.9535,0.2168173579255475,-0.3475991096802118,-0.07436953688352363
-3.953,-0.04993701351651855,0.09745970333682032,-0.04262030465097626
-3.9525,-0.572775581542968,0.6166949851900245,-0.05320338206182537
