Class_3_Grab_w_two_Hands/Class_3_Grab_with_Two_Hands_Suko_5.csv

#Digilent WaveForms Oscilloscope Acquisition
#Device Name: EExplorer
#Serial Number: SN:210151A2B84A
#Date Time: 2020-12-21 15:33:14.684
#Sample rate: 2000Hz
#Samples: 16384
#Trigger: Source: Channel 1 Type: Edge Condition: Rising Level: 0 V Hyst.: Auto HoldOff: 0 s
#Channel 1: Range: 1 V/div Offset: 0 V
#Channel 2: Range: 1 V/div Offset: 0 V

Time (s),Channel 1 (V),Channel 2 (V)
-4.0960000000000001,0.62228400251748783,-0.061489872740691176
-4.0955000000000004,0.96372959796302193,0.31998910984498946
-4.0949999999999998,1.4758979911318952,0.77564456126783476
-4.0945,1.2518243191207636,1.1041403518277266
-4.0940000000000003,0.53692260365667677,1.2418966510947778
-4.0934999999999997,-0.55143523182806864,1.2418966510945946
-4.093,-1.0636036249963696,0.90280422212954525
-4.0925000000000002,-0.81818960326989187,0.1186529801478684
-4.0919999999999996,-0.34870190953126373,-0.59132179299946763
-4.0914999999999999,0.05676473506030786,-1.0363806060160949
-4.0910000000000002,0.33418928136005654,-1.1953301820936066
-4.0904999999999996,0.4835717293676523,-1.1741369052831367
-4.0899999999999999,0.52625242879834411,-1.0257839676109275
-4.0895000000000001,0.51558225394066137,-0.792657922697244
-4.0890000000000004,0.45156120479462381,-0.51714532416314141
-4.0884999999999998,0.3768699807907871,-0.2310360872233701
-4.0880000000000001,0.24882788249859539,0.10805634174198775
-4.0875000000000004,0.035424385345136672,0.41535885549156382
-4.0869999999999997,-0.62612645583193438,0.79683783807816966
-4.0865,-1.2343264227192918,1.1253336286380615
-4.0860000000000003,-1.4477299198727505,1.3266697583360594
-4.0854999999999997,-1.4584000947303846,1.3372663967409957
-4.085,-1.1916457232885611,0.88161094531921036
-4.0845000000000002,-0.59411593125887674,0.1080563417426913
-4.0839999999999996,-0.081947538089188005,-0.50654868575799328
-4.0834999999999999,0.33418928136005654,-0.80325456110241145
-4.0830000000000002,0.62228400251748783,-0.87743102993858346
-4.0824999999999996,0.77166645052513216,-0.79265792269705126
-4.0819999999999999,0.86769802424418851,-0.5807251545938954
-4.0815000000000001,0.98506994767869771,-0.31580919446470956
-4.0810000000000004,0.8997085488173141,-0.29461591765439393
-4.0804999999999998,0.77166645052504479,-0.28401927924920728
-4.0800000000000001,0.67563487680590106,-0.22043944881820265
-4.0795000000000003,0.62228400251753635,-0.1356663415769403
-4.0789999999999997,0.79300680024070114,0.086863064932057657
-4.0785,1.1131120459708892,0.53192187794868506
-4.0780000000000003,0.39821033050680255,0.93459413734468133
-4.0774999999999997,-0.63679663068986925,1.1571235438536309
-4.077,-1.522421143876723,1.2313000126897355
-4.0765000000000002,-1.8211860398915654,1.0299638829917377
-4.0759999999999996,-1.2770071221493817,0.30939247143948467
-4.0754999999999999,-0.57277558154296804,-0.44296885532671876
-4.0750000000000002,-0.0072563140857879876,-0.96220413717992292
-4.0744999999999996,0.34485945621788472,-1.1847335436884487
-4.0739999999999998,0.50491207908297886,-1.1953301820936066
-4.0735000000000001,0.55826295337139209,-1.0787671596367647
-4.0730000000000004,0.54759277851371901,-0.87743102993876654
-4.0724999999999998,0.4835717293676135,-0.63370834661973252
-4.0720000000000001,0.3768699807907871,-0.32640583286987701
-4.0715000000000003,0.29150858192940365,-0.029699957525458731
-4.0709999999999997,0.18480683335197551,0.27760255622500402
-4.0705,-0.39138260896236304,0.64848490040552687
-4.0700000000000003,-1.0956141495687768,1.0193672445860498
-4.0694999999999997,-1.6611334170267817,1.2842832047156596
-4.069,-1.8638667393225676,1.3796529503620798
-4.0685000000000002,-1.6397930673112322,0.97698069096571727
-4.0679999999999996,-0.99958257584961374,0.25640927941376318
-4.0674999999999999,-0.27401068552785401,-0.36879238649054674
-4.0670000000000002,0.28083840707164331,-0.72907809226623943
-4.0664999999999996,0.61161382765995065,-0.80325456110236326
-4.0659999999999998,0.77166645052504479,-0.75027136907657432
-4.0655000000000001,0.82501732481345802,-0.63370834661973252
-4.0650000000000004,0.96372959796320634,-0.70788481545583704
-4.0644999999999998,0.97439977282101498,-0.67609490024040231
-4.0640000000000001,0.86769802424418851,-0.48535540894738849
-4.0635000000000003,0.77166645052513216,-0.25222936403391705
-4.0629999999999997,0.67563487680592049,-0.10387642636120671
-4.0625,0.69697522652126631,0.065669788121318018
-4.0620000000000003,1.1451225705435295,0.45774540911215644
-4.0614999999999997,1.8493541111508458,0.86041766850908752
-4.0609999999999999,1.689301488285752,1.0935437134225592
-4.0605000000000002,0.51558225394066137,1.1677201822587309
-4.0599999999999996,-0.58344575640083496,1.0617537982064593
-4.0594999999999999,-0.78617907869662074,0.40476221708667587
-4.0590000000000002,-0.4980843575391895,-0.41117894011121647
-4.0585000000000004,-0.1032878878052908,-1.0151873292052107
-4.0579999999999998,0.20614718306786484,-1.333086481360783
-4.0575000000000001,0.3982103305061524,-1.4072629501969551
-4.0570000000000004,0.4835717293675359,-1.3224898429556926
-4.0564999999999998,0.51558225394066137,-1.1423469900677694
-4.056,0.4835717293676135,-0.89862430674891836
-4.0555000000000003,0.43022085507924884,-0.62311170821481565
-4.0549999999999997,0.35552963107534413,-0.33700247127475536
-4.0545,0.27016823221396069,-0.019103319120021445
-4.0540000000000003,-0.092617712946919173,0.36237566346565919
-4.0534999999999997,-0.85020012784315335,0.80743447648335642
-4.0529999999999999,-1.3303579964384356,1.1571235438535634
-4.0525000000000002,-1.3090176467230703,1.3478630351465775
-4.0519999999999996,-1.3516983461535679,1.2630899279046404
-4.0514999999999999,-1.0956141495694174,0.60609834678485708
-4.0510000000000002,-0.59411593125833329,-0.10387642636136091
-4.0505000000000004,-0.049937013517013518,-0.58072515459346175
-4.0499999999999998,0.35552963107542179,-0.77146464588690922
-4.0495000000000001,0.60094365280212259,-0.78206128429207655
-4.0490000000000004,0.72898575109419783,-0.66549826183534089
-4.0484999999999998,0.87836819910196828,-0.58072515459386653
-4.048,0.98506994767869771,-0.54893523937839306
-4.0475000000000003,0.91037872367498718,-0.33700247127523719
-4.0469999999999997,0.79300680024030323,-0.12506970317155122
-4.0465,0.67563487680590106,0.033879872905815719
-4.0460000000000003,0.60094365280219053,0.16103953376770924
-4.0454999999999997,0.65429452709080749,0.42595549389735765
-4.0449999999999999,0.95305942310564973,0.80743447648303834
-4.0445000000000002,0.60094365280212259,1.0829470750173917
-4.0439999999999996,-0.22065981124024631,1.1995100974742043
-4.0434999999999999,-1.1062843244271001,1.1677201822587309
-4.0430000000000001,-1.2663369472923398,0.70146809243136399
-4.0425000000000004,-0.81818960327007628,-0.14626297998125959
-4.0419999999999998,-0.28468086038553664,-0.87743102993858346
-4.0415000000000001,0.13145595906408636,-1.3224898429556156
-4.0410000000000004,0.37686998079056389,-1.4920360574381406
-4.0404999999999998,0.49424190422532521,-1.4708427806278248
-4.04,0.52625242879834411,-1.3224898429556156
-4.0395000000000003,0.49424190422532521,-1.0999604364473021
-4.0389999999999997,0.38754015564835326,-0.81385119950728979
-4.0385,0.25949805735627807,-0.49595204735255594
-4.0380000000000003,0.18480683335256748,-0.18864953360297987
-4.0374999999999996,0.088775259632977305,0.18223281057858381
-4.0369999999999999,-0.32736155981626724,0.64848490040552687
-4.0365000000000002,-0.80751942841198598,1.0511571598018894
-4.0359999999999996,-1.23432642271968,1.305476481526004
-4.0354999999999999,-1.6611334170265974,1.4114428655775821
-4.0350000000000001,-1.8211860398918371,1.2524932895000704
-4.0345000000000004,-1.2876772970081904,0.57430843156997169
-4.0339999999999998,-0.50875453239687207,-0.093279787956193475
-4.0335000000000001,0.13145595906408636,-0.52774196256805828
-4.0330000000000004,0.54759277851333088,-0.6866915386454252
-4.0324999999999998,0.7609962756674884,-0.59132179299887011
-4.032,0.8997085488172365,-0.37938902489571413
-4.0315000000000003,1.1344523956860413,-0.05089323433582249
-4.0309999999999997,1.0811015213976862,0.0020899576902555952
-4.0305,0.91037872367491923,-0.061489872740691176
-4.0300000000000002,0.72898575109447927,-0.093279787956164567
-4.0294999999999996,0.62228400251763338,-0.082683149550852569
-4.0289999999999999,0.78233662538272752,0.10805634174198775
-4.0285000000000002,1.2304839694053984,0.54251851635385251
-4.0279999999999996,0.71831557623575815,0.95578741415559443
-4.0274999999999999,-0.24200016095480609,1.1889134590690658
-4.0270000000000001,-1.2129860730039266,1.2736865663104053
-4.0265000000000004,-1.7144842913145546,1.1465269054485117
-4.0259999999999998,-1.3303579964384356,0.50013196273318283
-4.0255000000000001,-0.66880715526211176,-0.25222936403370499
-4.0250000000000004,-0.092617712947773212,-0.76086800748127914
-4.0244999999999997,0.28083840707181801,-1.0045906908006021
-4.024,0.47290155450993088,-1.01518732920576
-4.0235000000000003,0.53692260365596844,-0.89862430674902438
-4.0229999999999997,0.53692260365595867,-0.69728817705051549
-4.0225,0.4622313796522482,-0.4535654937318862
-4.0220000000000002,0.38754015564853767,-0.22043944881841468
-4.0214999999999996,0.36619980593306567,-0.029699957524976849
-4.0209999999999999,0.32351910650237387,0.20342608738849466
-4.0205000000000002,-0.24200016095480609,0.55311515475901996
-4.0199999999999996,-1.0315931004236709,0.94519077575047517
-4.0194999999999999,-1.4157193952998968,1.2313000126897355
-4.0190000000000001,-1.6504632421689147,1.4114428655775821
-4.0185000000000004,-1.8105158650340087,1.1889134590692683
-4.0179999999999998,-1.4584000947306273,0.40476221708667587
-4.0175000000000001,-0.76483872898125549,-0.34759910968021185
-4.0170000000000003,-0.081947538090187511,-0.77146464588652375
-4.0164999999999997,0.36619980593336648,-0.94101086036960746
-4.016,0.65429452709053582,-0.96220413717992292
-4.0155000000000003,0.78233662538261106,-0.81385119950771379
-4.0149999999999997,0.9743997728210344,-0.52774196256789441
-4.0145,0.99574012253638022,-0.34759910968021185
-4.0140000000000002,0.8890383739596508,-0.2522293640337917
-4.0134999999999996,0.81434714995568791,-0.13566634157680538
-4.0129999999999999,0.71831557623663156,-0.072086511145858609
-4.0125000000000002,0.69697522652126631,0.023283234500648287
-4.0119999999999996,0.75032610080945639,0.38356894027672656
-4.0114999999999998,0.50491207908297886,0.80743447648303834
-4.0110000000000001,-0.19931946152407554,1.0935437134225592
-4.0105000000000004,-1.0315931004225647,1.2207033742844524
-4.0099999999999998,-1.5757720181651362,1.1571235438535634
-4.0095000000000001,-1.2876772970077051,0.55311515475901996
-4.0090000000000003,-0.66880715526267465,-0.20984281041234132
-4.0084999999999997,-0.11395806266227475,-0.77146464588716945
-4.008,0.25949805735627807,-1.0575738828264298
-4.0075000000000003,0.46223137965206385,-1.099960436447061
-4.0069999999999997,0.53692260365602662,-1.0045906908004287
-4.0065,0.53692260365602662,-0.82444783791274634
-4.0060000000000002,0.49424190422529612,-0.60191843140423029
-4.0054999999999996,0.46223137965211236,-0.3793890248954539
-4.0049999999999999,0.31284893164469124,-0.093279787956193475
-4.0045000000000002,-0.039266838658835915,0.28819919462983412
-4.0039999999999996,-0.3913826089629065,0.6272916235955196
-4.0034999999999998,-0.98891240099259115,0.98757732937088472
-4.0030000000000001,-1.5117509690190405,1.2524932895000704
-4.0025000000000004,-1.7464948158878451,1.3160731199310174
-4.0019999999999998,-1.437059745015262,0.84982103010370802
-4.0015000000000001,-0.97824222613490841,0.12924961855232261
-4.0010000000000003,-0.46607383296660743,-0.50654868575714518
-4.0004999999999997,0.046094560202955166,-0.88802766834382796
-4,0.40888050536383502,-0.97280077558509037
-3.9994999999999998,0.63295417737517057,-0.82444783791274634
-3.9990000000000001,0.72898575109431429,-0.62311170821456507
-3.9984999999999999,0.80367697509809277,-0.37938902489571413
-3.9980000000000002,0.84635767452882327,-0.15685961838719809
-3.9975000000000001,0.79300680024041004,-0.072086511145858609
-3.9969999999999999,0.70764540137894905,-0.04029659593035631
-3.9965000000000002,0.70764540137894905,0.0020899576903134209
-3.996,0.86769802424418851,0.10805634174198775
-3.9954999999999998,1.2198137945477157,0.39416557868150842
-3.9950000000000001,1.3798664174129553,0.78624119967270345
-3.9944999999999999,0.57960330308675734,1.0723504366122243
-3.9940000000000002,-0.33803173467394987,1.1147369902328941
-3.9935,-1.1169544992847826,1.0299638829915545
-3.9929999999999999,-1.5010807941613578,0.7968378380778709
-3.9925000000000002,-1.1169544992847826,0.10805634174198775
-3.992,-0.51942470725455481,-0.59132179299906285
-3.9914999999999998,-0.0072563140857879876,-1.0363806060160949
-3.9910000000000001,0.31284893164469124,-1.227120097309109
-3.9904999999999999,0.47290155450993088,-1.2059268204987741
-3.9900000000000002,0.53692260365602662,-1.0681705212315973
-3.9895,0.50491207908297886,-0.84564111472308123
-3.9889999999999999,0.40888050536383502,-0.5807251545938954
-3.9885000000000002,0.35552963107542179,-0.34759910968021185
-3.988,0.28083840707164331,-0.04029659593035631
-3.9874999999999998,0.19547700821018218,0.25640927941433178
-3.9870000000000001,-0.26334051067017139,0.59550170837968963
-3.9864999999999999,-0.76483872898125549,0.96638405256054982
-3.9860000000000002,-1.0315931004233216,1.2524932895000704
-3.9855,-1.46907026958831,1.3902495887672472
-3.9849999999999999,-1.586442193022819,1.0087706061812196
-3.9845000000000002,-1.2129860730039266,0.2246193641988295
-3.984,-0.5621054066852853,-0.43237221692155131
-3.9834999999999998,0.0034138607718946501,-0.75027136907657432
-3.9830000000000001,0.40888050536383502,-0.85623775312824868
-3.9824999999999999,0.65429452709053582,-0.77146464588690922
-3.9820000000000002,0.80367697509809277,-0.66549826183523486
-3.9815,1.0811015213978414,-0.71848145386107198
-3.9809999999999999,1.1344523956862547,-0.5807251545938954
-3.9805000000000001,1.006410297394063,-0.36879238649054674
-3.98,0.82501732481345802,-0.1674562567923655
-3.9794999999999998,0.70764540137894905,-0.029699957525188878
-3.9790000000000001,0.81434714995577528,0.17163617217299235
-3.9784999999999999,1.3585260676975901,0.58490506997452218
-3.9780000000000002,1.2731646688361289,0.95578741415538238
-3.9775,0.44089102993688295,1.1783168206638983
-3.9769999999999999,-0.70081767983515975,1.2524932895000704
-3.9765000000000001,-1.437059745015262,1.1041403518277266
-3.976,-1.2449965975769743,0.42595549389701071
-3.9754999999999998,-0.66880715526211176,-0.37938902489571413
-3.9750000000000001,-0.13529841237797968,-0.94101086036958814
-3.9744999999999999,0.23815770764091276,-1.227120097309109
-3.9740000000000002,0.44089102993688295,-1.2695066509297783
-3.9735,0.51558225394066137,-1.1741369052832717
-3.9729999999999999,0.51558225394066137,-0.97280077558509037
-3.9725000000000001,0.44089102993688295,-0.70788481545590454
-3.972,0.36619980593310447,-0.4641621321370536
-3.9714999999999998,0.27016823221396069,-0.18864953360270037
-3.9710000000000001,0.13145595906408636,0.13984625695749003
-3.9704999999999999,-0.41272295867772835,0.53192187794868506
-3.9700000000000002,-1.2023158981462438,0.94519077575021493
-3.9695,-1.7998456901764717,1.241896651094903
-3.9689999999999999,-2.1946421599107295,1.3902495887672472
-3.9685000000000001,-2.2479930341991428,1.2207033742845681
-3.968,-1.554431668449771,0.50013196273318283
-3.9674999999999998,-0.71148785469284226,-0.17805289519753292
-3.9670000000000001,-0.049937013516518552,-0.60191843140423029
-3.9664999999999999,0.3982103305061524,-0.67609490024040231
-3.9660000000000002,0.64362435223285308,-0.62311170821456507
-3.9655,0.77166645052504479,-0.53833860097322561
-3.9649999999999999,1.0384208219671107,-0.24163272562853755
-3.9645000000000001,1.1344523956862547,-0.050893234335523743
-3.964,0.98506994767869771,-0.0085066807148540119
-3.9634999999999998,0.80367697509809277,-0.029699957525188878
-3.9630000000000001,0.66496470194821833,-0.04029659593035631
-3.9624999999999999,0.5689331282290746,0.033879872905815719
-3.9620000000000002,0.35552963107542179,0.37297230187117358
-3.9615,-0.26334051067017139,0.7968378380778709
-3.9609999999999999,-1.0636036249963696,1.0829470750173917
-3.9605000000000001,-1.7785053404611064,1.2101067358794007
-3.96,-2.2693333839145078,1.1783168206638983
-3.9594999999999998,-1.7678351656034239,0.63788826200035942
-3.9590000000000001,-0.92489135184649518,-0.15685961838719809
-3.9584999999999999,-0.22065981123944084,-0.77146464588690922
-3.9580000000000002,0.23815770764091276,-1.1105570748522671
-3.9575,0.47290155450993088,-1.1953301820936066
-3.9569999999999999,0.55826295337139209,-1.1105570748522671
-3.9565000000000001,0.55826295337139209,-0.9304142219644207
-3.956,0.50491207908297886,-0.67609490024040231
-3.9554999999999998,0.43022085507920033,-0.42177557851638392
-3.9550000000000001,0.33418928136005654,-0.15685961838719809
-3.9544999999999999,0.22748753278323011,0.15044289536265748
-3.9540000000000002,-0.11395806266261441,0.51072860113835017
-3.9535,-0.82885977812735145,0.90280422212954525
-3.9529999999999998,-1.405049220442214,1.1995100974742332
-3.9525000000000001,-1.8105158650341544,1.3796529503620798
-3.952,-2.0772702364762203,1.3796529503620798
-3.9514999999999998,-1.7358246410303759,0.81803111488820579
-3.9510000000000001,-1.0315931004233216,0.076266426526485451
-3.9504999999999999,-0.30602121010090194,-0.51714532416289083
-3.9500000000000002,0.28083840707164331,-0.81385119950757889
-3.9495,0.65429452709053582,-0.9304142219644207
-3.9489999999999998,0.80367697509809277,-0.82444783791274634
-3.9485000000000001,0.94238924824796699,-0.53833860097322561
-3.948,1.0490909968247935,-0.26282600243887239
-3.9474999999999998,0.95305942310564973,-0.15685961838719809
-3.9470000000000001,0.82501732481345802,-0.10387642636136091
-3.9464999999999999,0.69697522652126631,-0.072086511145858609
-3.9460000000000002,0.62228400251748783,-0.029699957525188878
-3.9455,0.95305942310564973,0.21402272579366208
-3.9449999999999998,1.2411541442630809,0.64848490040552687
-3.9445000000000001,0.78233662538272752,1.0087706061812196
-3.944,-0.11395806266261441,1.1995100974742332
-3.9434999999999998,-1.0636036249963696,1.241896651094903
-3.9430000000000001,-1.2876772970077051,0.86041766850887547
-3.9424999999999999,-0.86087030270039921,0.076266426526485451
-3.9420000000000002,-0.31669138495858457,-0.62311170821456507
-3.9415,0.11011560934872107,-1.0469772444212624
-3.9409999999999998,0.3768699807907871,-1.1953301820936066
-3.9405000000000001,0.49424190422529612,-1.1635402668781043
-3.9399999999999999,0.53692260365602662,-1.0257839676109275
-3.9394999999999998,0.51558225394066137,-0.81385119950757889
-3.9390000000000001,0.44089102993688295,-0.57012851618872795
-3.9384999999999999,0.36619980593310447,-0.32640583286987701
-3.9380000000000002,0.27016823221396069,-0.050893234335523743
-3.9375,0.19547700821018218,0.19282944898332721
-3.9369999999999998,-0.0072563140857879876,0.54251851635385251
-3.9365000000000001,-0.46607383296614152,0.93459413734504748
-3.9359999999999999,-0.96757205127722568,1.2207033742845681
-3.9355000000000002,-1.3943790455845313,1.2948798431207402
-3.9350000000000001,-1.4584000947306273,0.70146809243136399
-3.9344999999999999,-1.1169544992847826,-0.093279787956193475
-3.9340000000000002,-0.4980843575391895,-0.64430498502489997
-3.9335,0.078105084775673142,-0.85623775312824868
-3.9329999999999998,0.45156120479456557,-0.82444783791274634
-3.9325000000000001,0.65429452709053582,-0.68669153864556975
-3.9319999999999999,0.78233662538272752,-0.50654868575772338
-3.9315000000000002,1.1451225705439372,-0.11447306476652835
-3.931,1.2304839694053984,0.012686596095480854
-3.9304999999999999,1.0704313465401587,-0.093279787956193475
-3.9300000000000002,0.87836819910187125,-0.20984281041303524
-3.9295,0.71831557623663156,-0.27342264084403983
-3.9289999999999998,0.86769802424418851,-0.13566634157686319
-3.9285000000000001,1.1878032699746677,0.34118238665567124
