Class_3_Grab_w_two_Hands/Class_3_Grab_w_two_Hands_Zakour_10.csv

#Digilent WaveForms Oscilloscope Acquisition
#Device Name: EExplorer
#Serial Number: SN:210151A2B84A
#Date Time: 2021-02-03 11:15:33.123
#Sample rate: 2000Hz
#Samples: 16384
#Trigger: Source: Channel 1 Type: Edge Condition: Rising Level: 0 V Hyst.: Auto HoldOff: 0 s
#Channel 1: Range: 1 V/div Offset: 0 V Attenuation: 1 X
#Channel 2: Range: 1 V/div Offset: 0 V Attenuation: 1 X
#Power Supplies: ON
#Fixed Supply: ON
#Voltage: 3.3 V Readback: 3.331 V
#Positive Supply: ON
#Voltage: 3.7 V Readback: 3.717 V
#Current: 40 mA Readback: 18 mA
#Negative Supply: ON
#Voltage: -3.7 V Readback: -3.334 V
#Current: -40 mA Readback: -11 mA
#Reference 1: ON
#Voltage: 0 V
#Reference 2: ON
#Voltage: 0 V

Time (s),Channel 1 (V),Channel 2 (V)
-4.096,0.5796033030867573,-0.6125150698093976
-4.0955,0.5689331282290843,-0.5701285161887665
-4.095,0.4835717293675358,-0.6654982618353216
-4.0945,0.3982103305061524,-0.7608680074817418
-4.094,0.3235191065024418,-0.8244478379126885
-4.0935,0.3235191065023642,-0.8032545611022862
-4.093,0.3128489316446912,-0.6654982618352349
-4.0925,0.2915085819293454,-0.4959520473527101
-4.092,0.3021787567870377,-0.3158091944645168
-4.0915,0.3341892813600565,-0.1038764263613609
-4.091,0.4835717293676135,0.2352160026039969
-4.0905,0.1207857842058894,-0.1462629799825993
-4.09,-0.4447334832507763,-0.7714646458869092
-4.0895,-1.010252750707956,-1.163540266878104
-4.089,-1.490410619303238,-1.333086481360629
-4.0885,-1.298347471865388,-0.8456411147230812
-4.088,-0.7968492535543035,-0.02969995752518888
-4.0875,-0.3166913849590213,0.6908714540255412
-4.087,0.003413860772059626,1.199510097474503
-4.0865,0.1848068333524996,1.496215972818921
-4.086,0.2488278824985372,1.623375633680815
-4.0855,0.2594980573562586,1.633972272086079
-4.085,0.2381577076409128,1.612778995275763
-4.0845,0.2168173579255669,1.549199164844816
-4.084,0.2061471830678551,1.443232780792949
-4.0835,0.1954770082101822,1.29487984312074
-4.083,-0.02859666380115328,0.9028042221295453
-4.0825,-0.5941159312586632,0.002089957689484589
-4.082,-0.9569018764195432,-0.9092209451540858
-4.0815,-1.148965023857831,-1.555615887869299
-4.081,-0.9142211769890259,-1.534422611058984
-4.0805,-0.274010685527854,-1.248313374119443
-4.08,0.2808384070716433,-0.9304142219644207
-4.0795,0.6009436528018315,-0.6866915386457915
-4.079,0.6863050516635159,-0.5383386009732063
-4.0785,0.6116138276598051,-0.5171453241628908
-4.078,0.5049120790830759,-0.5701285161886798
-4.0775,0.568933128229162,-0.7502713690766322
-4.077,0.6649647019482183,-0.8138511995075789
-4.0765,0.5902734779445078,-0.6654982618353698
-4.076,0.4729015545098338,-0.4535654937317224
-4.0755,0.3661998059331045,-0.2734226408440398
-4.075,0.3128489316446912,-0.1144730647665284
-4.0745,0.5049120790828333,0.2246193641987235
-4.074,0.3448594562177392,0.1080563417419877
-4.0735,-0.124628237520297,-0.5383386009732256
-4.073,-0.5941159312579063,-1.163540266877536
-4.0725,-0.7968492535543035,-1.280103289334946
-4.072,-0.6047861061160158,-0.6972881770507372
-4.0715,-0.2953510352435008,0.03387987290515071
-4.071,-0.03926683865869035,0.6484849004059027
-4.0705,0.1207857842064037,1.061753798207057
-4.07,0.2061471830677872,1.305476481525686
-4.0695,0.238157707640903,1.422039503982788
-4.069,0.2274875327832301,1.464426057603419
-4.0685,0.2168173579255475,1.464426057603419
-4.068,0.2061471830678551,1.453829419198213
-4.0675,0.1954770082101822,1.411442865577582
-4.067,0.1848068333524996,1.326669758336243
-4.0665,0.1207857842059185,1.125333628637425
-4.066,-0.4127229586777283,0.4259554938970107
-4.0655,-0.9035510021311299,-0.4853554089473885
-4.065,-1.116954499284589,-1.237716735713592
-4.0645,-0.9248913518464952,-1.407262950196955
-4.064,-0.3700422592469978,-1.131750351662602
-4.0635,0.1527963087789762,-0.8244478379130258
-4.063,0.4622313796523259,-0.6019184314041146
-4.0625,0.5475927785137094,-0.474758770542221
-4.062,0.5049120790830177,-0.4535654937319055
-4.0615,0.4408910299369024,-0.464162132137121
-4.061,0.4622313796522482,-0.5383386009732256
-4.0605,0.6756348768059011,-0.6760949002404023
-4.06,0.654294527090429,-0.5807251545937412
-4.0595,0.5369226036560266,-0.4111789401112165
-4.059,0.3982103305061524,-0.2628260024388724
-4.0585,0.3021787567870959,-0.1250697031718211
-4.058,0.3661998059331045,0.13984625695749
-4.0575,0.2701682322139607,0.1928294489833272
-4.057,-0.295351035242705,-0.3899856633003516
-4.0565,-0.722158029550525,-1.046977244421262
-4.056,-1.223656247861609,-1.523825972653797
-4.0555,-1.244996597576955,-1.333086481360956
-4.055,-0.8395299529846264,-0.5807251545931919
-4.0545,-0.391382608962363,0.1928294489833272
-4.054,-0.04993701351682905,0.775644561267006
-4.0535,0.1421261339218466,1.135930267043402
-4.053,0.2274875327832301,1.326669758336243
-4.0525,0.2488278824985954,1.390249588767247
-4.052,0.238157707640903,1.37965295036207
-4.0515,0.2274875327832301,1.369056311956912
-4.051,0.2061471830678648,1.326669758336243
-4.0505,0.1954770082101919,1.252493289500138
-4.05,0.1741366584948169,1.135930267043229
-4.0495,-0.1779791118087102,0.6696781772158616
-4.049,-0.6794773301193382,-0.2416327256277088
-4.0485,-0.9569018764194946,-1.089363798042424
-4.048,-0.9035510021311299,-1.629792356705471
-4.0475,-0.3487019095321371,-1.555615887869367
-4.047,0.1954770082105121,-1.11055707485191
-4.0465,0.5582629533713921,-0.718481453861072
-4.046,0.6969752265211402,-0.4747587705424427
-4.0455,0.6436243522327463,-0.368792386490566
-4.045,0.5262524287983441,-0.3899856633008816
-4.0445,0.4408910299368829,-0.4853554089473885
-4.044,0.4729015545099018,-0.5171453241628715
-4.0435,0.4408910299368829,-0.4959520473525559
-4.043,0.3875401556484697,-0.4111789401112165
-4.0425,0.3341892813601051,-0.2946159176544807
-4.042,0.291508581929326,-0.1992461720078678
-4.0415,0.291508581929326,-0.1250697031716958
-4.041,0.3982103305060554,0.09745970333661794
-4.0405,-0.007256314086282916,-0.2522293640342543
-4.04,-0.5514352318276028,-0.8562377531282487
-4.0395,-1.074273799853577,-1.248313374119087
-4.039,-1.522421143876519,-1.386069673386138
-4.0385,-1.298347471865388,-0.8562377531282487
-4.038,-0.7861790786970866,-0.01910331912078289
-4.0375,-0.3060212101006108,0.7120647308370037
-4.037,0.01408403562957729,1.231300012689736
-4.0365,0.1848068333524996,1.538602526439591
-4.036,0.2488278824986051,1.665762187301629
-4.0355,0.2594980573562781,1.697552102517103
-4.035,0.2381577076409128,1.686955464111935
-4.0345,0.2168173579255669,1.644568910491304
-4.034,0.2061471830678648,1.559795803249926
-4.0335,0.1954770082101822,1.411442865577582
-4.033,0.003413860772069344,1.019367244586744
-4.0325,-0.5514352318279231,0.1292496185514745
-4.032,-0.9035510021311299,-0.8032545611024114
-4.0315,-0.9675720512771675,-1.428456227006721
-4.031,-0.6154562809732036,-1.322489842955336
-4.0305,-0.07127736323188383,-1.01518732920576
-4.03,0.3555296310750336,-0.7502713690768152
-4.0295,0.5796033030867864,-0.5913217929990628
-4.029,0.6116138276598051,-0.5913217929990628
-4.0285,0.5369226036560266,-0.6337083466197325
-4.028,0.4408910299368344,-0.7608680074819248
-4.0275,0.3875401556484697,-0.9622041371799229
-4.027,0.3341892813600565,-0.9198175835592532
-4.0265,0.3341892813600565,-0.6654982618354661
-4.026,0.3128489316446912,-0.4429688553267188
-4.0255,0.2808384070716433,-0.2628260024388724
-4.025,0.2594980573562975,-0.09327978795634767
-4.0245,0.3448594562175839,0.2670059178194318
-4.024,0.1741366584948169,0.1928294489833272
-4.0235,-0.3913826089618487,-0.4535654937312983
-4.023,-0.8822106524157936,-1.046977244421253
-4.0225,-0.9142211769888124,-1.036380606016095
-4.022,-0.6047861061162972,-0.4005823017066272
-4.0215,-0.2633405106699288,0.3411823866562109
-4.021,0.00341386077189465,0.9345941373450475
-4.0205,0.1527963087794516,1.33726639674141
-4.02,0.2168173579255669,1.559795803250013
-4.0195,0.2381577076409128,1.655165548896433
-4.019,0.2274875327832301,1.6657621873016
-4.0185,0.2168173579255572,1.644568910491285
-4.018,0.1954770082101822,1.602182356870596
-4.0175,0.1954770082101822,1.538602526439591
-4.017,0.1848068333525093,1.422039503982856
-4.0165,0.1421261339213517,1.199510097473626
-4.016,-0.3166913849585846,0.5319218779486851
-4.0155,-0.8395299529845583,-0.4429688553258321
-4.015,-1.063603624996379,-1.269506650930144
-4.0145,-1.074273799854052,-1.672178910326141
-4.014,-0.5300948821127323,-1.237716735714672
-4.0135,0.08877525963373425,-0.8562377531280366
-4.013,0.5049120790829789,-0.6231117082145651
-4.0125,0.6649647019482183,-0.5383386009732256
-4.012,0.643624352232756,-0.5595318777836376
-4.0115,0.5369226036560266,-0.6443049850249
-4.011,0.4622313796522482,-0.7502713690765743
-4.0105,0.5475927785136318,-0.7820612842920477
-4.01,0.5369226036560266,-0.6337083466197325
-4.0095,0.4515612047945656,-0.4535654937318862
-4.009,0.376869980790855,-0.2840192792493615
-4.0085,0.312848931644701,-0.1674562567921824
-4.008,0.3235191065023739,0.03387987290581572
-4.0075,0.3235191065023739,0.2140227257934982
-4.007,-0.1673089369515613,-0.2840192792498145
-4.0065,-0.754168554123573,-0.9516074987747555
-4.006,-1.351698346153801,-1.449649503817625
-4.0055,-1.405049220441806,-1.322489842954931
-4.005,-0.9569018764195432,-0.570128516188728
-4.0045,-0.4554036581084589,0.2246193641988295
-4.004,-0.08194753808937238,0.8392243916988972
-4.0035,0.1314559590640864,1.231300012689736
-4.003,0.2381577076409128,1.432636142387917
-4.0025,0.2594980573562586,1.506812611224021
-4.002,0.2488278824985954,1.506812611224089
-4.0015,0.2274875327832301,1.485619334413754
-4.001,0.2061471830678842,1.432636142387965
-4.0005,0.1954770082101725,1.337266396741275
-4,0.1848068333524996,1.188913459069066
-3.9995,-0.156638762093345,0.6590815388106942
-3.999,-0.7328282044082075,-0.2734226408440398
-3.9985,-1.1062843244271,-1.121153713257435
-3.998,-1.170305373573196,-1.587405803084801
-3.9975,-0.722158029550525,-1.34368311976595
-3.997,-0.1139580626626144,-0.9092209451540858
-3.9965,0.3555296310754218,-0.6125150698093976
-3.996,0.5796033030867573,-0.4535654937318862
-3.9955,0.5902734779444399,-0.4217755785163839
-3.995,0.4942419042252961,-0.474758770542221
-3.9945,0.408880505363835,-0.5595318777835605
-3.994,0.5902734779444399,-0.7290780922662394
-3.9935,0.6649647019482183,-0.6972881770507372
-3.993,0.5902734779444399,-0.5489352393783931
-3.9925,0.4622313796522482,-0.3793890248957141
-3.992,0.3555296310754218,-0.2310360872233701
-3.9915,0.3128489316446912,-0.06148987274069118
-3.991,0.5155822539406614,0.3729723018711736
-3.9905,0.3555296310754218,0.1716361721729923
-3.99,0.04609456020262521,-0.5065486857577234
-3.9895,-0.4980843575391895,-1.036380606016095
-3.989,-1.116954499284783,-1.38606967338662
-3.9885,-1.127624674142465,-1.046977244421262
-3.988,-0.7434983792658902,-0.2840192792492073
-3.9875,-0.3273615598162672,0.4471487707073456
-3.987,-0.02859666380115328,0.9875773293708847
-3.9865,0.1527963087794516,1.316073119931075
-3.986,0.2274875327832301,1.496215972818921
-3.9855,0.2488278824985954,1.549199164844759
-3.985,0.2381577076409128,1.580989080060261
-3.9845,0.2168173579255475,1.570392441655093
-3.984,0.2061471830678648,1.528005888034424
-3.9835,0.1954770082101822,1.42203950398275
-3.983,0.05676473506030786,1.135930267043229
-3.9825,-0.4980843575391895,0.3305857482505039
-3.982,-0.8822106524157645,-0.5913217929990628
-3.9815,-1.020922925565639,-1.311893204550448
-3.981,-0.8608703027003992,-1.42845622700729
-3.9805,-0.2846808603855366,-1.036380606016095
-3.98,0.2594980573562781,-0.6760949002404023
-3.9795,0.5689331282290746,-0.474758770542221
-3.979,0.6649647019482183,-0.4111789401112165
-3.9785,0.6009436528021226,-0.4641621321370536
-3.978,0.4835717293676135,-0.5171453241628908
-3.9775,0.5155822539406614,-0.6231117082145651
-3.977,0.6222840025174878,-0.6972881770507372
-3.9765,0.5582629533713921,-0.6019184314042303
-3.976,0.4622313796522482,-0.4323722169215513
-3.9755,0.3661998059331045,-0.3052125560595421
-3.975,0.3021787567870086,-0.1992461720078678
-3.9745,0.3768699807907871,0.01268659609548085
-3.974,0.142126133921769,-0.1038764263613609
-3.9735,-0.3593720843893152,-0.6972881770507372
-3.973,-0.807519428411986,-1.163540266878104
-3.9725,-1.319687821580753,-1.42845622700729
-3.972,-1.383708870726849,-1.205926820498774
-3.9715,-0.9462317015618604,-0.4429688553267188
-3.971,-0.4660738329661415,0.3411823866556712
-3.9705,-0.09261771294724913,0.9451907757502149
-3.97,0.1314559590640864,1.316073119931075
-3.9695,0.2274875327832301,1.506812611224089
-3.969,0.2594980573562781,1.559795803249926
-3.9685,0.2488278824985954,1.549199164844759
-3.968,0.2274875327832301,1.506812611224089
-3.9675,0.2061471830678648,1.42203950398275
-3.967,0.1954770082101822,1.316073119931075
-3.9665,0.1314559590640864,1.104140351827727
-3.966,-0.3700422592469978,0.4259554938970107
-3.9655,-0.8288597781273515,-0.5065486857577234
-3.965,-1.020922925565639,-1.280103289334946
-3.9645,-0.754168554123573,-1.396666311791788
-3.964,-0.1886492866663929,-0.9833974139902578
-3.9635,0.2808384070716433,-0.6549016234300674
-3.963,0.5582629533713921,-0.5277419625680583
-3.9625,0.6222840025174878,-0.5277419625680583
-3.962,0.5582629533713921,-0.5807251545938954
-3.9615,0.4622313796522482,-0.6866915386455698
-3.961,0.408880505363835,-0.7502713690765743
-3.9605,0.4622313796522482,-0.7502713690765743
-3.96,0.4408910299368829,-0.6549016234300674
-3.9595,0.3875401556484697,-0.5383386009732256
-3.959,0.3341892813600565,-0.400582301706049
-3.9585,0.2808384070716433,-0.252229364033705
-3.958,0.3235191065023739,-0.008506680714854012
-3.9575,0.3768699807907871,0.2140227257936621
-3.957,-0.04993701351651855,-0.252229364033705
-3.9565,-0.6367966306890638,-0.8138511995075789
-3.956,-1.26633694729234,-1.110557074852267
-3.9555,-1.67180359188428,-1.163540266878104
-3.955,-1.341028171296118,-0.5807251545938954
-3.9545,-0.7648387289812555,0.2458126410091644
-3.954,-0.274010685527854,0.9557874141553824
-3.9535,0.03542438534494258,1.432636142387917
-3.953,0.2061471830678648,1.686955464111935
-3.9525,0.2594980573562781,1.79292184816361
-3.952,0.2594980573562781,1.771728571353275
-3.9515,0.2381577076409128,1.70814874092227
-3.951,0.2168173579255475,1.612778995275763
-3.9505,0.2061471830678648,1.496215972818921
-3.95,0.1954770082101822,1.326669758336243
-3.9495,-0.08194753808956648,0.849821030103708
-3.949,-0.658136980404429,-0.09327978795619347
-3.9485,-0.9995825758502737,-0.9939940523954253
-3.948,-1.042263275281004,-1.534422611058964
-3.9475,-0.6047861061160158,-1.566212526274467
-3.947,-0.06060718837420119,-1.354279758171118
-3.9465,0.3235191065023739,-1.036380606016095
-3.946,0.5155822539406614,-0.7502713690765743
-3.9455,0.5369226036560266,-0.5807251545938954
-3.945,0.4835717293676135,-0.570128516188728
-3.9445,0.4195506802215176,-0.6654982618352349
-3.944,0.5155822539406614,-0.8138511995075789
-3.9435,0.5475927785137094,-0.8244478379127463
-3.943,0.4622313796522482,-0.7078848154559045
-3.9425,0.3661998059331045,-0.5807251545938954
-3.942,0.291508581929326,-0.4323722169215513
-3.9415,0.2594980573562781,-0.252229364033705
-3.941,0.5049120790829789,0.1610395337678249
-3.9405,0.2488278824985954,-0.01910331912002144
-3.94,-0.4980843575391895,-0.6549016234300674
-3.9395,-1.202315898146244,-1.227120097309109
-3.939,-1.554431668449771,-1.417859588602123
-3.9385,-1.212986073003927,-0.8456411147230812
-3.938,-0.6794773301197943,-0.01910331912002144
-3.9375,-0.2206598112394408,0.6908714540261965
-3.937,0.0674349099179905,1.167720182258731
-3.9365,0.2168173579255475,1.453829419198252
-3.936,0.2594980573562781,1.580989080060261
-3.9355,0.2594980573562781,1.602182356870596
-3.935,0.2381577076409128,1.559795803249926
-3.9345,0.2168173579255475,1.506812611224089
-3.934,0.1954770082101822,1.443232780793084
-3.9335,0.1954770082101822,1.326669758336243
-3.933,0.08877525963335578,1.061753798207057
-3.9325,-0.4127229586777283,0.2776025562246667
-3.932,-0.8181896032696687,-0.6549016234300674
-3.9315,-1.170305373573196,-1.38606967338662
-3.931,-1.084943974711735,-1.460246142222792
-3.9305,-0.4660738329661415,-1.131750351662602
-3.93,0.1314559590640864,-0.8032545611024114
-3.9295,0.5049120790829789,-0.5595318777835605
-3.929,0.6542945270905358,-0.4535654937318862
-3.9285,0.6222840025174878,-0.4323722169215513
-3.928,0.5049120790829789,-0.4641621321370536
-3.9275,0.4302208550792003,-0.474758770542221
-3.927,0.4942419042252961,-0.252229364033705
-3.9265,0.5369226036560266,-0.1038764263613609
-3.926,0.4942419042252961,-0.1356663415768632
-3.9255,0.4195506802215176,-0.1992461720078678
-3.925,0.3341892813600565,-0.2204394488182027
-3.9245,0.4195506802215176,-0.008506680714854012
-3.924,0.3021787567870086,0.01268659609548085
-3.9235,-0.274010685527854,-0.5383386009732256
-3.923,-0.8502001278427167,-1.046977244421262
-3.9225,-1.447729919872945,-1.311893204550448
-3.922,-1.586442193022819,-1.152943628472937
-3.9215,-1.116954499284783,-0.400582301706049
-3.921,-0.572775581542968,0.4259554938970107
-3.9205,-0.1459685872356623,1.061753798207057
-3.92,0.1101156093487211,1.475022696008586
-3.9195,0.2381577076409128,1.676358825706768
-3.919,0.2701682322139607,1.739938656137773
-3.9185,0.2594980573562781,1.718745379327438
-3.918,0.2381577076409128,1.6657621873016
-3.9175,0.2168173579255475,1.580989080060261
-3.917,0.2061471830678648,1.453829419198252
-3.9165,0.1634664836371343,1.241896651094903
-3.916,-0.2953510352432193,0.5425185163538525
-3.9155,-0.839529952985034,-0.4323722169215513
-3.915,-1.095614149569417,-1.269506650929778
-3.9145,-1.202315898146244,-1.820531847998485
-3.914,-0.7648387289812555,-1.598002441489969
-3.9135,-0.1032878878049318,-1.121153713257435
-3.913,0.3875401556484697,-0.7290780922662394
-3.9125,0.6329541773751706,-0.474758770542221
-3.912,0.6649647019482183,-0.400582301706049
-3.9115,0.5796033030867573,-0.5171453241628908
-3.911,0.4622313796522482,-0.718481453861072
-3.9105,0.3235191065023739,-1.0999604364471
-3.91,0.3661998059331045,-1.269506650929778
-3.9095,0.3555296310754218,-1.004590690800593
-3.909,0.3235191065023739,-0.6125150698093976
-3.9085,0.291508581929326,-0.2840192792492073
-3.908,0.3235191065023739,-0.008506680714854012
-3.9075,0.4729015545099309,0.2776025562246667
-3.907,0.0674349099179905,-0.1674562567923655
-3.9065,-0.4447334832507763,-0.8350444763179138
-3.906,-0.5941159312583333,-1.025783967610927
-3.9055,-0.4340633083930936,-0.5913217929990628
-3.905,-0.1779791118087102,0.01268659609548085
-3.9045,0.02475421048725994,0.5107286011383502
-3.904,0.1527963087794516,0.8710143069140429
-3.9035,0.2168173579255475,1.082947075017392
-3.903,0.2274875327832301,1.188913459069066
-3.9025,0.2274875327832301,1.241896651094903
-3.902,0.2168173579255475,1.241896651094903
-3.9015,0.2061471830678648,1.241896651094903
-3.901,0.1954770082101822,1.241896651094903
-3.9005,0.1954770082101822,1.210106735879401
-3.9,0.1954770082101822,1.135930267043229
-3.8995,-0.007256314085787988,0.7862411996727035
-3.899,-0.5087545323968721,-0.05089323433552374
-3.8985,-0.807519428411986,-0.9092209451540858
-3.898,-0.9889124009925911,-1.407262950196955
-3.8975,-0.6474668055467465,-1.121153713257435
-3.897,-0.1032878878049318,-0.7714646458869092
-3.8965,0.3235191065023739,-0.5595318777835605
-3.896,0.5369226036560266,-0.4217755785163839
-3.8955,0.5689331282290746,-0.3581957480853793
-3.895,0.5049120790829789,-0.3793890248957141
-3.8945,0.4302208550792003,-0.4323722169215513
-3.894,0.5369226036560266,-0.4959520473525559
-3.8935,0.5902734779444399,-0.4641621321370536
-3.893,0.5262524287983441,-0.3581957480853793
-3.8925,0.4302208550792003,-0.2310360872233701
-3.892,0.3448594562177392,-0.1038764263613609
-3.8915,0.3021787567870086,0.002089957690313421
-3.891,0.4729015545099309,0.3199891098453364
-3.8905,0.2274875327832301,0.1610395337678249
-3.89,-0.2846808603855366,-0.4959520473525559
-3.8895,-0.7755089038389382,-0.9939940523954253
-3.889,-1.330357996438436,-1.290699927740113
-3.8885,-1.341028171296118,-1.025783967610927
-3.888,-0.8928808272734472,-0.2734226408440398
-3.8875,-0.4127229586777283,0.4789386859228479
-3.887,-0.06060718837420119,1.040560521396722
-3.8865,0.1527963087794516,1.37965295036208
