Class_3_Grab_w_two_Hands/Class_3_Grab_with_Both_hands_Turki_13.csv

#Digilent WaveForms Oscilloscope Acquisition
#Device Name: EExplorer
#Serial Number: SN:210151A2B84A
#Date Time: 2021-01-31 11:18:11.635
#Sample rate: 2000Hz
#Samples: 16384
#Trigger: Source: Channel 1 Type: Edge Condition: Rising Level: 0 V Hyst.: Auto HoldOff: 0 s
#Channel 1: Range: 1 V/div Offset: 0 V Attenuation: 1 X
#Channel 2: Range: 1 V/div Offset: 0 V Attenuation: 1 X
#Power Supplies: ON
#Fixed Supply: ON
#Voltage: 3.3 V Readback: 3.323 V
#Positive Supply: ON
#Voltage: 3.7 V Readback: 3.713 V
#Current: 40 mA Readback: 17 mA
#Negative Supply: ON
#Voltage: -3.7 V Readback: -3.347 V
#Current: -40 mA Readback: -7 mA
#Reference 1: ON
#Voltage: 0 V
#Reference 2: ON
#Voltage: 0 V

Time (s),Channel 1 (V),Channel 2 (V)
-4.096,0.2274875327832301,0.9557874141553824
-4.0955,0.2168173579255572,0.8922075837244356
-4.095,0.1954770082101822,0.8180311148881576
-4.0945,0.1954770082101822,0.7650479228623686
-4.094,0.1954770082101822,0.690871454026264
-4.0935,-0.04993701351697466,0.2987958330343173
-4.093,-0.5514352318276028,-0.4535654937318862
-4.0925,-0.818189603269426,-1.121153713256827
-4.092,-1.042263275280664,-1.39666631179146
-4.0915,-0.6688071552621118,-1.036380606016095
-4.091,-0.1352984123779797,-0.6019184314042303
-4.0905,0.2808384070718374,-0.2946159176541915
-4.09,0.4942419042252961,-0.09327978795619347
-4.0895,0.5155822539406614,-0.07208651114585861
-4.089,0.4408910299369509,-0.103876426361332
-4.0885,0.3448594562177392,-0.1462629799820306
-4.088,0.3875401556484697,-0.2204394488182027
-4.0875,0.4942419042251991,-0.2098428104130449
-4.087,0.4622313796521609,-0.08268314955090075
-4.0865,0.3661998059331045,0.05507314971615059
-4.086,0.2915085819293939,0.1822328105780441
-4.0855,0.1954770082096872,0.2352160026035922
-4.085,-0.3487019095316325,-0.2098428104130352
-4.0845,-1.020922925565027,-0.8880276683431341
-4.084,-1.362368521011619,-1.449649503817808
-4.0835,-1.51175096901904,-1.650985633515806
-4.083,-1.148965023857831,-1.068170521231597
-4.0825,-0.6261264558309931,-0.3052125560589831
-4.082,-0.1993194615240755,0.309392471440169
-4.0815,0.07810508477567314,0.7120647308365314
-4.081,0.2168173579254213,0.9134008605345296
-4.0805,0.2594980573562781,0.9663840525605498
-4.08,0.2594980573562781,0.9557874141553824
-4.0795,0.2381577076409322,0.8922075837244356
-4.079,0.2168173579255378,0.8286277532932961
-4.0785,0.2061471830678648,0.7438546460520338
-4.078,0.1954770082101919,0.6696781772159291
-4.0775,0.2061471830678163,0.6272916235951341
-4.077,0.1527963087794516,0.5637117931641874
-4.0765,-0.3593720843888494,0.01268659609598199
-4.076,-0.8608703027006321,-0.7714646458874779
-4.0755,-1.116954499284783,-1.396666311791788
-4.075,-0.807519428411986,-1.375473034981453
-4.0745,-0.1032878878044077,-0.8562377531278342
-4.074,0.4729015545099309,-0.400582301706049
-4.0735,0.7183155762366316,-0.1038764263613609
-4.073,0.6863050516636129,0.05507314971600602
-4.0725,0.5475927785137094,0.06566978812131802
-4.072,0.4195506802215176,0.002089957690313421
-4.0715,0.35552963107548,-0.07208651114579115
-4.071,0.3768699807907677,-0.1144730647665091
-4.0705,0.3555296310754218,-0.09327978795619347
-4.07,0.31284893164473,-0.0191033191200889
-4.0695,0.2701682322139316,0.06566978812137585
-4.069,0.2381577076409128,0.1292496185523226
-4.0685,0.1101156093487211,-0.05089323433552374
-4.068,-0.4980843575396553,-0.5277419625685498
-4.0675,-1.010252750707956,-1.068170521231597
-4.067,-1.234326422719292,-1.407262950196955
-4.0665,-1.063603624995981,-1.11055707485165
-4.066,-0.6367966306890638,-0.4323722169215513
-4.0655,-0.2420001609548061,0.1928294489833272
-4.065,0.03542438534469028,0.6272916235947968
-4.0645,0.1848068333524996,0.8816109453192104
-4.064,0.2381577076409128,0.9981739677760521
-4.0635,0.2488278824985857,1.019367244586368
-4.063,0.238157707640903,0.9981739677760039
-4.0625,0.2274875327832301,0.9451907757502149
-4.062,0.2061471830678842,0.8816109453192682
-4.0615,0.1954770082101822,0.8180311148881576
-4.061,0.1954770082101822,0.7650479228623686
-4.0605,0.2274875327832301,0.7226613692416989
-4.06,0.2701682322137375,0.7332580076463555
-4.0595,0.02475421048725994,0.1716361721729923
-4.059,-0.2633405106701714,-0.6231117082145651
-4.0585,-0.2846808603855172,-0.9198175835589835
-4.058,0.05676473506030786,-0.7502713690765743
-4.0575,0.3875401556484697,-0.4853554089473885
-4.057,0.5369226036558907,-0.2840192792493904
-4.0565,0.5262524287983441,-0.1780528951975329
-4.056,0.4302208550792003,-0.1886495336027004
-4.0555,0.3341892813601439,-0.1780528951975426
-4.055,0.2808384070717306,-0.1038764263612645
-4.0545,0.3768699807907871,0.002089957690313421
-4.054,0.4302208550791518,0.05507314971610239
-4.0535,0.3768699807907289,0.1080563417420359
-4.053,0.3128489316446912,0.1610395337678249
-4.0525,0.2594980573562781,0.2246193641988295
-4.052,0.1314559590635817,0.2140227257932766
-4.0515,-0.423393133535411,-0.2098428104130352
-4.051,-1.074273799854052,-0.8562377531282487
-4.0505,-1.31968782158053,-1.354279758170665
-4.05,-1.127624674142465,-1.237716735714276
-4.0495,-0.6794773301197943,-0.5807251545938954
-4.049,-0.2633405106705499,0.07626642652588789
-4.0485,0.0247542104873958,0.5637117931644476
-4.048,0.1741366584948169,0.849821030103708
-4.0475,0.2381577076408545,0.9769806909656016
-4.047,0.2488278824985857,1.0087706061812
-4.0465,0.2381577076409128,0.9875773293708847
-4.046,0.2168173579255669,0.9239974989399379
-4.0455,0.2061471830678551,0.8498210301036502
-4.045,0.1954770082101822,0.7862411996727035
-4.0445,0.1954770082101822,0.7120647308365314
-4.044,0.1848068333523928,0.6378882620003979
-4.0435,0.0674349099179905,0.6802748156210291
-4.043,-0.4127229586777283,0.6484849004055269
-4.0425,-0.8715404775576647,-0.07208651114520326
-4.042,-1.1062843244271,-0.8032545611024114
-4.0415,-0.7434983792658902,-0.8668343915334161
-4.041,-0.113958062663187,-0.6549016234302601
-4.0405,0.3235191065025388,-0.4323722169213682
-4.04,0.5049120790829789,-0.2310360872233701
-4.0395,0.5262524287983247,-0.08268314955116096
-4.039,0.4622313796521705,0.04447651131101207
-4.0385,0.3768699807907871,0.07626642652648545
-4.038,0.398210330506133,0.09745970333680104
-4.0375,0.4622313796522094,0.1504428953626767
-4.037,0.4195506802215176,0.1716361721729923
-4.0365,0.3448594562177392,0.1928294489833272
-4.036,0.291508581929258,0.1928294489832597
-4.0355,0.2168173579255475,0.1186529801471552
-4.035,-0.3380317346739499,-0.3370024712750445
-4.0345,-1.052933450138037,-0.9939940523948277
-4.034,-1.426389570157579,-1.502632695843462
-4.0335,-1.191645723288561,-1.311893204550448
-4.033,-0.7008176798356062,-0.6337083466203494
-4.0325,-0.2740106855275823,0.03387987290625905
-4.032,0.02475421048725994,0.5213252395435176
-4.0315,0.184806833352354,0.7968378380776203
-4.031,0.2488278824985954,0.9345941373450763
-4.0305,0.2488278824985954,0.9663840525605498
-4.03,0.2381577076409225,0.9451907757502342
-4.0295,0.2274875327832107,0.9028042221294874
-4.029,0.2061471830678648,0.8392243916985406
-4.0285,0.1954770082101822,0.775644561267536
-4.028,0.1954770082101822,0.7120647308364736
-4.0275,0.1954770082101822,0.6484849004055269
-4.027,0.1741366584948169,0.5743084315693548
-4.0265,-0.1886492866660629,0.04447651131146502
-4.026,-0.4660738329661415,-0.6760949002404023
-4.0255,-0.6261264558313813,-1.280103289334946
-4.025,-0.4554036581086142,-1.460246142222628
-4.0245,0.01408403562986843,-1.089363798041479
-4.024,0.3341892813600565,-0.5913217929990628
-4.0235,0.4942419042251506,-0.1992461720082244
-4.023,0.4835717293675358,0.01268659609550013
-4.0225,0.3982103305061524,0.03387987290581572
-4.022,0.3128489316447689,-0.008506680714815459
-4.0215,0.2915085819294327,-0.08268314955113205
-4.021,0.408880505363835,-0.1992461720078678
-4.0205,0.3982103305061524,-0.1780528951975329
-4.02,0.3448594562176809,-0.08268314955092003
-4.0195,0.2808384070716433,0.03387987290581572
-4.019,0.2381577076409128,0.13984625695749
-4.0185,-0.02859666380091064,-0.008506680714719078
-4.018,-0.5834457564006506,-0.570128516188728
-4.0175,-1.020922925565639,-1.195330182093607
-4.017,-1.138294849000041,-1.545019249463814
-4.0165,-0.8608703027000304,-1.121153713256779
-4.016,-0.4554036581084589,-0.400582301706049
-4.0155,-0.1139580626629249,0.2352160026034187
-4.015,0.09944543449113548,0.6590815388109063
-4.0145,0.2061471830678648,0.8922075837243778
-4.014,0.2381577076408836,0.9769806909656402
-4.0135,0.248827882498576,0.9981739677760135
-4.013,0.2274875327832301,0.9557874141553824
-4.0125,0.2168173579255475,0.9028042221295453
-4.012,0.2061471830678551,0.8392243916984827
-4.0115,0.1954770082101822,0.775644561267536
-4.011,0.1954770082101822,0.7120647308365314
-4.0105,0.1741366584948363,0.5743084315694802
-4.01,-0.2420001609548061,0.03387987290581572
-4.0095,-0.7114878546928423,-0.7078848154559045
-4.009,-1.084943974711395,-1.290699927739583
-4.0085,-0.8928808272729037,-1.227120097308714
-4.008,-0.2953510352432193,-0.792657922697244
-4.0075,0.2061471830674087,-0.4429688553270368
-4.007,0.4515612047946044,-0.2310360872232737
-4.0065,0.4942419042252961,-0.1250697031716958
-4.006,0.4408910299368829,-0.06148987274069118
-4.0055,0.3768699807907386,0.01268659609548085
-4.005,0.3235191065023739,0.01268659609548085
-4.0045,0.4302208550792003,-0.07208651114585861
-4.004,0.46223137965219,-0.0720865111457815
-4.0035,0.3982103305061524,0.01268659609548085
-4.003,0.3341892813600565,0.1080563417419877
-4.0025,0.2701682322140189,0.2034260873884079
-4.002,0.1101156093487211,0.1822328105781598
-4.0015,-0.5407650569699201,-0.3687923864905467
-4.001,-1.170305373572623,-1.02578396761033
-4.0005,-1.351698346153626,-1.502632695843289
-4,-1.159635198715513,-1.311893204550448
-3.9995,-0.7008176798351597,-0.6125150698093976
-3.999,-0.274010685527854,0.06566978812131802
-3.9985,0.02475421048725994,0.5637117931641874
-3.998,0.1848068333524996,0.8392243916985406
-3.9975,0.2488278824985954,0.9663840525605498
-3.997,0.2594980573562781,0.9875773293708847
-3.9965,0.2381577076409128,0.9557874141553824
-3.996,0.2274875327832301,0.8922075837243778
-3.9955,0.2061471830678648,0.8074344764830383
-3.995,0.1954770082101822,0.7332580076468663
-3.9945,0.1954770082101822,0.6696781772158616
-3.994,0.1954770082101822,0.5955017083796896
-3.9935,-0.03926683865883591,0.2352160026039969
-3.993,-0.5621054066852853,-0.5171453241628908
-3.9925,-0.8715404775580819,-1.227120097309109
-3.992,-0.9569018764195432,-1.619195718300304
-3.9915,-0.4340633083930936,-1.258910012524611
-3.991,0.2168173579255475,-0.718481453861072
-3.9905,0.6542945270905358,-0.3475991096802118
-3.99,0.79300680024041,-0.1780528951975329
-3.9895,0.707645401378949,-0.09327978795619347
-3.989,0.5369226036560266,-0.008506680714854012
-3.9885,0.3875401556484697,0.02328323450064829
-3.988,0.3448594562177392,0.03387987290581572
-3.9875,0.3448594562177392,0.03387987290581572
-3.987,0.3021787567870086,0.04447651131098315
-3.9865,0.2701682322139607,0.05507314971615059
-3.986,0.2381577076409128,0.08686306493165288
-3.9855,0.1527963087794516,0.07626642652648545
-3.985,-0.4020527838200457,-0.3687923864905467
-3.9845,-1.084943974711735,-1.01518732920576
-3.984,-1.51175096901904,-1.534422611058964
-3.9835,-1.810515865034154,-1.735758740757146
-3.983,-1.447729919872945,-1.237716735714276
-3.9825,-0.839529952985034,-0.4641621321370536
-3.982,-0.3166913849585846,0.2034260873884947
-3.9815,0.02475421048725994,0.6378882620003594
-3.981,0.2061471830678648,0.8604176685088755
-3.9805,0.2701682322139607,0.9451907757502149
-3.98,0.2701682322139607,0.9451907757502149
-3.9795,0.2488278824985954,0.9028042221295453
-3.979,0.2274875327832301,0.8392243916985406
-3.9785,0.2168173579255475,0.775644561267536
-3.978,0.2061471830678648,0.7120647308365314
-3.9775,0.1954770082101822,0.6484849004055269
-3.977,0.05676473506030786,0.4259554938970107
-3.9765,-0.5194247072545548,-0.252229364033705
-3.976,-0.9035510021311299,-1.01518732920576
-3.9755,-1.159635198715513,-1.598002441489969
-3.975,-0.8608703027003992,-1.576809164679634
-3.9745,-0.1673089369510276,-1.036380606016095
-3.974,0.3555296310754218,-0.4853554089473885
-3.9735,0.5902734779444399,-0.08268314955102604
-3.973,0.5796033030867573,0.09745970333682032
-3.9725,0.4835717293676135,0.08686306493165288
-3.972,0.3875401556484697,0.03387987290581572
-3.9715,0.3555296310754218,-0.09327978795619347
-3.971,0.5689331282290746,-0.3158091944647096
-3.9705,0.6009436528021226,-0.2310360872233701
-3.97,0.5049120790829789,-0.04029659593035631
-3.9695,0.3875401556484697,0.13984625695749
-3.969,0.2808384070716433,0.2352160026039969
-3.9685,-0.2206598112394408,-0.1144730647665284
-3.968,-0.8715404775580819,-0.7820612842920766
-3.9675,-1.127624674142465,-1.375473034981453
-3.967,-1.319687821580753,-1.767548655972648
-3.9665,-1.052933450138687,-1.354279758171118
-3.966,-0.5941159312583333,-0.6337083466197325
-3.9655,-0.1993194615240755,-0.01910331912002144
-3.965,0.0674349099179905,0.383568940276341
-3.9645,0.2061471830678648,0.5955017083796896
-3.964,0.2488278824985954,0.6696781772158616
-3.9635,0.2594980573562781,0.6802748156210291
-3.963,0.2381577076409128,0.6484849004055269
-3.9625,0.2274875327832301,0.6060983467848571
-3.962,0.2061471830678648,0.5637117931641874
-3.9615,0.2061471830678648,0.5319218779486851
-3.961,0.2061471830678648,0.5425185163538525
-3.9605,0.1527963087794516,0.4365521323021782
-3.96,-0.3593720843893152,-0.1674562567923655
-3.9595,-0.8715404775580819,-0.9092209451540858
-3.959,-0.9569018764195432,-1.47084278062796
-3.9585,-0.7328282044082075,-1.333086481360783
-3.958,-0.1459685872356623,-0.7714646458869092
-3.9575,0.3021787567870086,-0.3052125560595421
-3.957,0.5049120790829789,-0.04029659593035631
-3.9565,0.5369226036560266,0.09745970333682032
-3.956,0.4835717293676135,0.1186529801471552
-3.9555,0.3982103305061524,0.08686306493165288
-3.955,0.3341892813600565,0.07626642652648545
-3.9545,0.4302208550792003,0.2140227257936621
-3.954,0.4622313796522482,0.2670059178194992
-3.9535,0.408880505363835,0.2670059178194992
-3.953,0.3341892813600565,0.2670059178194992
-3.9525,0.2808384070716433,0.2776025562246667
-3.952,0.1634664836371343,0.2246193641988295
-3.9515,-0.3273615598162672,-0.2946159176543747
-3.951,-0.7648387289812555,-0.9516074987747555
-3.9505,-0.8181896032696687,-1.227120097309109
-3.95,-0.5621054066852853,-0.8244478379127463
-3.9495,-0.2420001609548061,-0.2098428104130352
-3.949,0.00341386077189465,0.3305857482505039
-3.9485,0.1527963087794516,0.6908714540261965
-3.948,0.2168173579255475,0.8922075837243778
-3.9475,0.2488278824985954,0.9663840525605498
-3.947,0.2381577076409128,0.9769806909657173
-3.9465,0.2274875327832301,0.9557874141553824
-3.946,0.2168173579255475,0.9134008605347127
-3.9455,0.2061471830678648,0.849821030103708
-3.945,0.2061471830678648,0.7968378380778709
-3.9445,0.1954770082101822,0.7438546460520338
-3.944,0.2168173579255475,0.701468092431364
-3.9435,0.09944543449103843,0.4789386859228479
-3.943,-0.3807124341046804,-0.2416327256285375
-3.9425,-0.7434983792658902,-0.9728007755850904
-3.942,-0.8288597781273515,-1.121153713257435
-3.9415,-0.3593720843893152,-0.7608680074817418
-3.941,0.1634664836371343,-0.4111789401112165
-3.9405,0.4515612047945656,-0.2310360872233701
-3.94,0.4942419042252961,-0.1462629799820306
-3.9395,0.4408910299368829,-0.1038764263613609
-3.939,0.3661998059331045,-0.07208651114585861
-3.9385,0.3128489316446912,-0.07208651114585861
-3.938,0.3661998059331045,-0.05089323433552374
-3.9375,0.4195506802215176,-0.05089323433552374
-3.937,0.3875401556484697,-0.04029659593035631
-3.9365,0.3235191065023739,0.002089957690313421
-3.936,0.2701682322139607,0.06566978812131802
-3.9355,0.1634664836371343,0.08686306493165288
-3.935,-0.3166913849585846,-0.1886495336027004
-3.9345,-0.807519428411986,-0.7502713690765743
-3.934,-1.031593100423322,-1.311893204550448
-3.9335,-1.170305373573196,-1.534422611058964
-3.933,-0.8928808272734472,-1.004590690800593
-3.9325,-0.4767440078238243,-0.252229364033705
-3.932,-0.124628237520297,0.3623756634660061
-3.9315,0.09944543449103843,0.7650479228623686
-3.931,0.2168173579255475,0.9875773293708847
-3.9305,0.2488278824985954,1.061753798207057
-3.93,0.2488278824985954,1.061753798207057
-3.9295,0.2381577076409128,1.019367244586387
-3.929,0.2274875327832301,0.9557874141553824
-3.9285,0.2061471830678648,0.8816109453192104
-3.928,0.1954770082101822,0.8074344764830383
-3.9275,0.1954770082101822,0.7226613692416989
-3.927,0.00341386077189465,0.4153588554918433
-3.9265,-0.4660738329661415,-0.2840192792492073
-3.926,-0.7648387289812555,-0.9833974139902578
-3.9255,-0.9355615267041777,-1.523825972653797
-3.925,-0.6367966306890638,-1.407262950196955
-3.9245,-0.03926683865883591,-0.8880276683437509
-3.924,0.4195506802215176,-0.400582301706049
-3.9235,0.5902734779444399,-0.04029659593035631
-3.923,0.5369226036560266,0.1292496185523226
-3.9225,0.4302208550792003,0.13984625695749
-3.922,0.3341892813600565,0.09745970333682032
-3.9215,0.3341892813600565,0.04447651131098315
-3.921,0.4835717293676135,0.2034260873884947
-3.9205,0.4942419042252961,0.2246193641988295
-3.92,0.4302208550792003,0.1822328105781598
-3.9195,0.3448594562177392,0.13984625695749
-3.919,0.2488278824985954,0.1186529801471552
-3.9185,-0.156638762093345,-0.1568596183871981
-3.918,-0.7755089038389382,-0.7078848154559045
-3.9175,-1.180975548430879,-1.301296566145281
-3.917,-1.394379045584531,-1.682775548731308
-3.9165,-1.148965023857831,-1.290699927740113
-3.916,-0.658136980404429,-0.5277419625680583
-3.9155,-0.2420001609548061,0.1504428953626575
-3.915,0.04609456020262521,0.627291623595192
-3.9145,0.1954770082101822,0.9028042221295453
-3.914,0.2594980573562781,1.019367244586387
-3.9135,0.2594980573562781,1.040560521396722
-3.913,0.2488278824985954,1.00877060618122
-3.9125,0.2274875327832301,0.9557874141553824
-3.912,0.2168173579255475,0.8922075837243778
-3.9115,0.2061471830678648,0.8286277532933731
-3.911,0.2061471830678648,0.7544512844572011
-3.9105,0.1954770082101822,0.6484849004055269
-3.91,-0.1779791118087102,0.1504428953626575
-3.9095,-0.6154562809736985,-0.6231117082145651
-3.909,-0.7434983792658902,-1.163540266878104
-3.9085,-0.6794773301197943,-1.333086481360783
-3.908,-0.1993194615240755,-0.9728007755850904
-3.9075,0.2381577076409128,-0.5595318777835605
-3.907,0.4729015545099309,-0.2840192792492073
-3.9065,0.4942419042252961,-0.1568596183871981
-3.906,0.4515612047945656,-0.1038764263613609
-3.9055,0.3768699807907871,-0.1144730647665284
-3.905,0.3341892813600565,-0.1038764263613609
-3.9045,0.4515612047945656,0.1292496185523226
-3.904,0.4729015545099309,0.2034260873884947
-3.9035,0.4195506802215176,0.1822328105781598
-3.903,0.3341892813600565,0.1504428953626575
-3.9025,0.2808384070716433,0.13984625695749
-3.902,0.05676473506030786,0.02328323450064829
-3.9015,-0.4020527838200457,-0.02969995752518888
-3.901,-0.754168554123573,-0.4641621321370536
-3.9005,-0.9889124009925911,-0.9939940523954253
-3.9,-0.9782422261349084,-1.025783967610927
-3.8995,-0.6367966306890638,-0.5065486857577234
-3.899,-0.2633405106701714,0.07626642652648545
-3.8985,0.00341386077189465,0.5425185163538525
-3.898,0.1634664836371343,0.849821030103708
-3.8975,0.2381577076409128,1.00877060618122
-3.897,0.2488278824985954,1.072350436612224
-3.8965,0.2488278824985954,1.072350436612224
-3.896,0.2274875327832301,1.051157159801889
-3.8955,0.2168173579255475,0.9981739677760521
-3.895,0.2061471830678648,0.9345941373450475
-3.8945,0.2061471830678648,0.8710143069140429
-3.894,0.2061471830678648,0.7968378380778709
-3.8935,0.02475421048725994,0.5425185163538525
-3.893,-0.4554036581084589,-0.1992461720078678
-3.8925,-0.6474668055467465,-0.9833974139902578
-3.892,-0.7648387289812555,-1.38606967338662
-3.8915,-0.3700422592469978,-1.110557074852267
-3.891,0.08877525963335578,-0.6866915386455698
-3.8905,0.408880505363835,-0.326405832869877
-3.89,0.5049120790829789,-0.1144730647665284
-3.8895,0.4622313796522482,-0.01910331912002144
-3.889,0.3768699807907871,-0.02969995752518888
-3.8885,0.3021787567870086,-0.05089323433552374
-3.888,0.3235191065023739,0.06566978812131802
-3.8875,0.3555296310754218,0.13984625695749
