Class_3_Grab_w_two_Hands/Class_3_Grab_with_Two_Hands_SH_4.csv

#Digilent WaveForms Oscilloscope Acquisition
#Device Name: EExplorer
#Serial Number: SN:210151A2B84A
#Date Time: 2020-12-07 14:11:07.908
#Sample rate: 2000Hz
#Samples: 16384
#Trigger: Source: Channel 1 Type: Edge Condition: Rising Level: 0 V Hyst.: Auto HoldOff: 0 s
#Channel 1: Range: 1 V/div Offset: 0 V Attenuation: 1 X
#Channel 2: Range: 1 V/div Offset: 0 V Attenuation: 1 X
#Power Supplies: ON
#Fixed Supply: ON
#Voltage: 3.3 V Readback: 3.326 V
#Positive Supply: ON
#Voltage: 3.7 V Readback: 3.717 V
#Current: 50 mA Readback: 20 mA
#Negative Supply: ON
#Voltage: -3.7 V Readback: -3.707 V
#Current: -50 mA Readback: -7 mA
#Reference 1: ON
#Voltage: 0 V
#Reference 2: ON
#Voltage: 0 V

Time (s),Channel 1 (V),Channel 2 (V)
-4.096,-0.4660738329661415,-0.5383386009732256
-4.0955,-0.08194753808991589,0.0868630649310842
-4.095,0.2061471830680201,0.5213252395437393
-4.0945,0.3768699807907871,0.7650479228623686
-4.094,0.4408910299368247,0.8498210301036309
-4.0935,0.4622313796522385,0.8498210301036598
-4.093,0.4515612047945656,0.7968378380778709
-4.0925,0.4302208550792198,0.7650479228623974
-4.092,0.4088805053638059,0.7544512844572011
-4.0915,0.3768699807907871,0.7544512844572011
-4.091,0.3128489316446912,0.8074344764830383
-4.0905,-0.1566387620937234,0.5531151547583549
-4.09,-0.572775581542968,-0.1780528951975329
-4.0895,-0.722158029550525,-0.8350444763179138
-4.089,-1.191645723288134,-1.460246142222224
-4.0885,-1.543761493592088,-1.258910012524611
-4.088,-1.212986073003927,-0.5807251545938954
-4.0875,-0.5727755815435503,-0.04029659593084778
-4.087,0.01408403562990725,0.2140227257937392
-4.0865,0.3768699807907871,0.2987958330350016
-4.086,0.5582629533712271,0.2881991946298438
-4.0855,0.6222840025175654,0.1716361721727514
-4.085,0.707645401378949,-0.09327978795619347
-4.0845,0.7716664505249866,-0.2840192792490338
-4.084,0.7076454013788909,-0.2310360872232352
-4.0835,0.6436243522328531,-0.08268314955102604
-4.083,0.6009436528021226,0.07626642652648545
-4.0825,0.6116138276596595,0.08686306493123847
-4.082,0.4515612047945656,-0.3687923864905467
-4.0815,0.2488278824985954,-1.110557074852267
-4.081,-0.3060212101003973,-1.725162102351419
-4.0805,-0.7008176798351597,-1.873515040024322
-4.08,-0.5621054066852853,-1.195330182093607
-4.0795,-0.2313299860974243,-0.3687923864912984
-4.079,0.07810508477586724,0.28819919463021
-4.0785,0.291508581929326,0.701468092431364
-4.078,0.3982103305060554,0.9028042221293622
-4.0775,0.4408910299368927,0.9663840525605402
-4.077,0.4515612047945656,0.9557874141553824
-4.0765,0.4408910299368927,0.8922075837244356
-4.076,0.4195506802215079,0.839224391698502
-4.0755,0.408880505363835,0.7968378380778709
-4.075,0.3875401556484697,0.7862411996727035
-4.0745,0.3555296310751792,0.7862411996727323
-4.074,0.08877525963335578,0.8180311148882058
-4.0735,-0.5621054066852853,0.2034260873884947
-4.073,-1.170305373572643,-0.7608680074808648
-4.0725,-1.703814116457328,-1.555615887869299
-4.072,-2.045259711903173,-1.682775548731308
-4.0715,-1.597112367880909,-1.015187329206367
-4.071,-0.8181896032690573,-0.4217755785160273
-4.0705,-0.1459685872356623,-0.02969995752518888
-4.07,0.2808384070712551,0.2034260873882827
-4.0695,0.5262524287984315,0.3199891098452786
-4.069,0.6222840025174878,0.2564092794143318
-4.0685,0.6969752265212663,0.1080563417419877
-4.068,0.8356874996711213,0.002089957690313421
-4.0675,0.8143471499557753,0.002089957690313421
-4.067,0.7183155762366316,0.04447651131098315
-4.0665,0.6116138276597372,0.1080563417420456
-4.066,0.5369226036560266,0.1716361721729923
-4.0655,0.3661998059331045,-0.08268314955102604
-4.065,0.4729015545098338,-0.347599109679971
-4.0645,0.291508581929326,-0.7502713690765743
-4.064,-0.2953510352432193,-1.322489842955616
-4.0635,-0.7434983792654827,-1.502632695843298
-4.063,-0.6047861061156955,-0.9516074987741098
-4.0625,-0.2526703358124887,-0.2416327256285375
-4.062,0.06743490991769935,0.3305857482499834
-4.0615,0.2808384070717501,0.7014680924315279
-4.061,0.3982103305061524,0.8816109453192104
-4.0605,0.4408910299368829,0.9557874141553824
-4.06,0.4515612047945559,0.9557874141553535
-4.0595,0.4408910299368829,0.92399749893988
-4.059,0.4195506802215176,0.8922075837243778
-4.0585,0.3982103305061718,0.8922075837243778
-4.058,0.3555296310754218,0.92399749893988
-4.0575,0.2594980573562781,0.9345941373450475
-4.057,-0.1139580626622748,0.6166949851903136
-4.0565,-0.5087545323968721,0.09745970333682032
-4.056,-1.212986073003927,-0.718481453861072
-4.0555,-1.84252638960663,-1.290699927739593
-4.055,-1.917217613610399,-0.8562377531277187
-4.0545,-1.277007122150022,-0.2734226408440398
-4.054,-0.5087545323975708,0.1186529801467986
-4.0535,0.08877525963366632,0.2352160026039488
-4.053,0.4302208550792003,0.1822328105781598
-4.0525,0.5902734779444399,0.05507314971615059
-4.052,0.6542945270906911,-0.05089323433563939
-4.0515,0.825017324813458,-0.1780528951975329
-4.051,0.8463576745288233,-0.1780528951975329
-4.0505,0.7609962756674399,-0.06148987274079719
-4.05,0.6436243522328531,0.07626642652648545
-4.0495,0.5689331282290746,0.2034260873884947
-4.049,0.5475927785137288,0.1716361721730213
-4.0485,0.09944543449026208,-0.4323722169222356
-4.048,-0.754168554123573,-1.184733543688439
-4.0475,-1.394379045583949,-1.714565463946329
-4.047,-1.778505340460941,-1.947691508860147
-4.0465,-1.597112367880501,-1.566212526274467
-4.046,-0.9462317015624524,-0.6972881770515275
-4.0455,-0.316691384958177,0.1080563417424793
-4.045,0.1314559590640864,0.6484849004055269
-4.0445,0.3768699807907871,0.9451907757502149
-4.044,0.4729015545099503,1.040560521396703
-4.0435,0.4942419042252961,1.019367244586387
-4.043,0.4729015545099309,0.9451907757502149
-4.0425,0.4408910299369121,0.8498210301037947
-4.042,0.408880505363835,0.7968378380778709
-4.0415,0.3768699807907871,0.7438546460520338
-4.041,0.3341892813600953,0.7226613692417182
-4.0405,0.1527963087794516,0.5319218779485115
-4.04,0.1527963087794516,0.3411823866556712
-4.0395,-0.1566387620930635,-0.07208651114548276
-4.039,-0.9248913518467475,-0.8562377531284607
-4.0385,-1.202315898146244,-1.089363798041932
-4.038,-0.8502001278430369,-0.7290780922665672
-4.0375,-0.3166913849581576,-0.2628260024386411
-4.037,0.1527963087794516,-0.008506680714854012
-4.0365,0.4622313796522482,0.08686306493165288
-4.036,0.5902734779444689,0.08686306493164325
-4.0355,0.6222840025174878,0.07626642652648545
-4.035,0.6969752265212663,-0.06148987274069118
-4.0345,0.7289857510942852,-0.1568596183871113
-4.034,0.6969752265212663,-0.09327978795619347
-4.0335,0.6329541773751706,0.04447651131098315
-4.033,0.5689331282291328,0.1716361721728767
-4.0325,0.4942419042251311,0.256409279414139
-4.032,0.3128489316446912,0.04447651131098315
-4.0315,0.52625242879815,-0.1674562567921727
-4.031,0.4088805053633983,-0.7078848154564057
-4.0305,-0.07127736323188383,-1.258910012524611
-4.03,-0.3487019095313802,-1.205926820498822
-4.0295,-0.2313299860969197,-0.6125150698088194
-4.029,-0.007256314085787988,0.02328323450064829
-4.0285,0.1954770082101822,0.4895353243280153
-4.028,0.3341892813601148,0.7650479228624746
-4.0275,0.3982103305061524,0.8816109453192104
-4.027,0.4302208550792003,0.9028042221295453
-4.0265,0.4302208550792003,0.8710143069140718
-4.026,0.4195506802215176,0.8286277532933731
-4.0255,0.3982103305061524,0.8074344764830383
-4.025,0.3768699807908065,0.7862411996727228
-4.0245,0.3448594562175354,0.8074344764830383
-4.024,0.1207857842064037,0.8074344764830383
-4.0235,-0.0606071883740362,0.669678177215987
-4.023,-0.1566387620939466,0.8074344764825083
-4.0225,-0.8181896032696687,0.2246193641988295
-4.022,-1.33035799643797,-0.2628260024384291
-4.0215,-1.212986073003432,-0.2098428104129099
-4.021,-0.6688071552621118,-0.07208651114585861
-4.0205,-0.1139580626626144,0.04447651131098315
-4.02,0.2808384070718374,0.1186529801472034
-4.0195,0.4942419042252961,0.1716361721729923
-4.019,0.6009436528021226,0.1292496185523226
-4.0185,0.6222840025174684,0.06566978812137585
-4.018,0.5796033030867573,-0.07208651114585861
-4.0175,0.5262524287983441,-0.02969995752518888
-4.017,0.4835717293676523,0.09745970333670466
-4.0165,0.4835717293676038,0.2564092794144571
-4.016,0.4729015545099309,0.3941655786815084
-4.0155,0.3235191065025097,0.2246193641989837
-4.015,-0.3700422592474345,-0.4641621321376993
-4.0145,-0.8502001278427167,-1.174136905283272
-4.014,-1.127624674142213,-1.640388995110214
-4.0135,-1.170305373572808,-1.545019249463467
-4.013,-0.7434983792658902,-0.8138511995075789
-4.0125,-0.2526703358124887,-0.04029659593035631
-4.012,0.1101156093489249,0.5213252395437971
-4.0115,0.3341892813600565,0.8286277532933731
-4.011,0.4302208550792003,0.9451907757502149
-4.0105,0.4622313796522191,0.9345941373450571
-4.01,0.4515612047945656,0.8604176685088755
-4.0095,0.4302208550792003,0.7650479228623686
-4.009,0.4088805053638545,0.6696781772159484
-4.0085,0.3875401556484309,0.6166949851900342
-4.008,0.3448594562177392,0.627291623595192
-4.0075,0.2381577076410098,0.6166949851900342
-4.007,-0.1566387620936361,0.1928294489828453
-4.0065,-0.4767440078238243,-0.3370024712750445
-4.006,-0.839529952985034,-1.004590690800593
-4.0055,-1.159635198715261,-1.460246142222397
-4.005,-0.8822106524157645,-1.025783967610927
-4.0045,-0.3380317346739499,-0.3899856633008816
-4.004,0.163466483637406,0.01268659609565433
-4.0035,0.4622313796522482,0.2034260873884947
-4.003,0.5902734779444399,0.1928294489833272
-4.0025,0.6222840025174587,0.1080563417420649
-4.002,0.6116138276598051,0.06566978812131802
-4.0015,0.7609962756673623,0.02328323450064829
-4.001,0.8143471499557268,0.002089957690332697
-4.0005,0.7503261008096019,0.02328323450069647
-4,0.6649647019482183,0.07626642652648545
-3.9995,0.5902734779444399,0.1504428953626575
-3.999,0.4835717293676135,0.06566978812131802
-3.9985,0.1314559590640864,-0.570128516188728
-3.998,-0.01792648894347063,-1.301296566145281
-3.9975,-0.2420001609548061,-1.820531847998485
-3.997,-0.658136980404429,-2.032464616101834
-3.9965,-0.6794773301197943,-1.492036057438295
-3.996,-0.3807124341046804,-0.6019184314042303
-3.9955,-0.04993701351651855,0.1716361721729923
-3.995,0.2061471830678648,0.6696781772158616
-3.9945,0.3448594562177392,0.9451907757502149
-3.994,0.408880505363835,1.029963882991555
-3.9935,0.4302208550792003,1.029963882991555
-3.993,0.4195506802215176,0.9663840525605498
-3.9925,0.408880505363835,0.9028042221295453
-3.992,0.3875401556484697,0.8604176685088755
-3.9915,0.3555296310754218,0.8392243916985406
-3.991,0.3128489316446912,0.8286277532933731
-3.9905,0.07810508477567314,0.701468092431364
-3.99,-0.6794773301197943,0.6060983467848571
-3.9895,-1.405049220442214,0.5743084315693548
-3.989,-1.970568487899394,-0.1780528951975329
-3.9885,-2.173301810195364,-0.570128516188728
-3.988,-1.554431668449771,-0.3899856633008816
-3.9875,-0.807519428411986,-0.1038764263613609
-3.987,-0.156638762093345,0.08686306493165288
-3.9865,0.291508581929326,0.1716361721729923
-3.986,0.5369226036560266,0.2034260873884947
-3.9855,0.6222840025174878,0.1292496185523226
-3.985,0.6009436528021226,-0.06148987274069118
-3.9845,0.5155822539406614,-0.1780528951975329
-3.984,0.4729015545099309,-0.1250697031716958
-3.9835,0.4622313796522482,0.01268659609548085
-3.983,0.4515612047945656,0.1504428953626575
-3.9825,0.4408910299368829,0.2564092794143318
-3.982,0.2808384070716433,0.03387987290581572
-3.9815,0.4302208550792003,-0.2310360872233701
-3.981,-0.01792648894347063,-0.8032545611024114
-3.9805,-0.7861790786966207,-1.354279758171118
-3.98,-1.042263275281004,-1.280103289334946
-3.9795,-0.722158029550525,-0.6231117082145651
-3.979,-0.2846808603855366,0.06566978812131802
-3.9785,0.07810508477567314,0.5743084315693548
-3.978,0.3021787567870086,0.8604176685088755
-3.9775,0.408880505363835,0.9769806909657173
-3.977,0.4408910299368829,0.9769806909657173
-3.9765,0.4408910299368829,0.92399749893988
-3.976,0.4195506802215176,0.849821030103708
-3.9755,0.3982103305061524,0.7968378380778709
-3.975,0.3768699807907871,0.7650479228623686
-3.9745,0.3341892813600565,0.775644561267536
-3.974,0.1314559590640864,0.7862411996727035
-3.9735,-0.2953510352432193,0.3729723018711736
-3.973,-0.6688071552621118,-0.4217755785163839
-3.9725,-1.191645723288561,-1.258910012524611
-3.972,-1.682473766741963,-1.598002441489969
-3.9715,-1.51175096901904,-1.05757388282643
-3.971,-0.9035510021311299,-0.4429688553267188
-3.9705,-0.2633405106701714,-0.01910331912002144
-3.97,0.2061471830678648,0.1928294489833272
-3.9695,0.4729015545099309,0.2352160026039969
-3.969,0.5796033030867573,0.1610395337678249
-3.9685,0.6222840025174878,0.03387987290581572
-3.968,0.7183155762366316,-0.09327978795619347
-3.9675,0.707645401378949,-0.07208651114585861
-3.967,0.6542945270905358,0.01268659609548085
-3.9665,0.5902734779444399,0.09745970333682032
-3.966,0.5262524287983441,0.1928294489833272
-3.9655,0.3555296310754218,0.08686306493165288
-3.965,0.4195506802215176,-0.01910331912002144
-3.9645,0.3128489316446912,-0.3687923864905467
-3.964,-0.2313299860971235,-1.05757388282643
-3.9635,-0.722158029550525,-1.439052865412457
-3.963,-0.6261264558313813,-1.025783967610927
-3.9625,-0.2953510352432193,-0.3475991096802118
-3.962,0.02475421048725994,0.2352160026039969
-3.9615,0.2488278824985954,0.627291623595192
-3.961,0.3661998059331045,0.8392243916985406
-3.9605,0.4195506802215176,0.9134008605347127
-3.96,0.4302208550792003,0.92399749893988
-3.9595,0.4195506802215176,0.8922075837243778
-3.959,0.3982103305061524,0.8604176685088755
-3.9585,0.3768699807907871,0.8180311148882058
-3.958,0.3661998059331045,0.7650479228623686
-3.9575,0.3341892813600565,0.7438546460520338
-3.957,-0.08194753808956648,0.3199891098453364
-3.9565,-0.9248913518464952,-0.6019184314042303
-3.956,-1.522421143876723,-1.42845622700729
-3.9555,-1.83185621474952,-1.873515040024322
-3.955,-1.821186039891837,-1.301296566145281
-3.9545,-1.202315898146244,-0.5383386009732256
-3.954,-0.4447334832507763,0.002089957690313421
-3.9535,0.1207857842064037,0.309392471440169
-3.953,0.4622313796522482,0.3623756634660061
-3.9525,0.6116138276598051,0.2881991946298341
-3.952,0.6329541773751706,0.1292496185523226
-3.9515,0.707645401378949,-0.1356663415768632
-3.951,0.7503261008096795,-0.252229364033705
-3.9505,0.6863050516635838,-0.1886495336027004
-3.95,0.6009436528021226,-0.05089323433552374
-3.9495,0.5582629533713921,0.06566978812131802
-3.949,0.4729015545099309,0.1186529801471552
-3.9485,0.2168173579255475,-0.2628260024388724
-3.948,0.4942419042252961,-0.6443049850249
-3.9475,0.2061471830678648,-1.174136905283272
-3.947,-0.4020527838200457,-1.481439419033127
-3.9465,-0.4874141826815069,-1.046977244421262
-3.946,-0.2633405106701714,-0.3052125560595421
-3.9455,0.00341386077189465,0.3411823866556712
-3.945,0.2168173579255475,0.7650479228623686
-3.9445,0.3448594562177392,0.9875773293708847
-3.944,0.3982103305061524,1.051157159801889
-3.9435,0.4195506802215176,1.029963882991555
-3.943,0.408880505363835,0.9663840525605498
-3.9425,0.3982103305061524,0.8922075837243778
-3.942,0.3768699807907871,0.8392243916985406
-3.9415,0.3555296310754218,0.8074344764830383
-3.941,0.3128489316446912,0.7862411996727035
-3.9405,0.04609456020262521,0.8392243916985406
-3.94,-0.2206598112394408,0.92399749893988
-3.9395,-0.1459685872356623,0.9345941373450475
-3.939,-0.6474668055467465,0.1610395337678249
-3.9385,-1.074273799854052,-0.3158091944647096
-3.938,-0.8608703027003992,-0.2204394488182027
-3.9375,-0.391382608962363,-0.01910331912002144
-3.937,0.04609456020262521,0.03387987290581572
-3.9365,0.3341892813600565,0.05507314971615059
-3.936,0.4942419042252961,0.06566978812131802
-3.9355,0.5582629533713921,0.03387987290581572
-3.935,0.7183155762366316,-0.1356663415768632
-3.9345,0.9637295979633325,-0.3475991096802118
-3.934,0.9103787236749192,-0.2416327256285375
-3.9335,0.7503261008096795,0.002089957690313421
-3.933,0.6116138276598051,0.2352160026039969
-3.9325,0.5689331282290746,0.3729723018711736
-3.932,0.2274875327832301,0.04447651131098315
-3.9315,-0.4660738329661415,-0.6866915386455698
-3.931,-1.010252750707956,-1.301296566145281
-3.9305,-1.415719395299897,-1.682775548731308
-3.93,-1.533091318734406,-1.629792356705471
-3.9295,-1.06360362499637,-0.9198175835592532
-3.929,-0.4660738329661415,-0.1250697031716958
-3.9285,-0.007256314085787988,0.457745409112513
-3.928,0.2808384070716433,0.7650479228623686
-3.9275,0.408880505363835,0.8816109453192104
-3.927,0.4515612047945656,0.8604176685088755
-3.9265,0.4408910299368829,0.7650479228623686
-3.926,0.4195506802215176,0.6484849004055269
-3.9255,0.3982103305061524,0.5637117931641874
-3.925,0.3661998059331045,0.5001319627331828
-3.9245,0.3235191065023739,0.4365521323021782
-3.924,0.1848068333524996,0.4895353243280153
-3.9235,-0.1459685872356623,0.8286277532933731
-3.923,-0.4660738329661415,0.8604176685088755
-3.9225,-0.9782422261349084,0.03387987290581572
-3.922,-1.415719395299897,-0.6125150698093976
-3.9215,-1.223656247861609,-0.5595318777835605
-3.921,-0.658136980404429,-0.2734226408440398
-3.9205,-0.09261771294724913,-0.008506680714854012
-3.92,0.291508581929326,0.1822328105781598
-3.9195,0.5049120790829789,0.2352160026039969
-3.919,0.5796033030867573,0.2352160026039969
-3.9185,0.5796033030867573,0.1928294489833272
-3.918,0.4302208550792003,-0.08268314955102604
-3.9175,0.3341892813600565,-0.1038764263613609
-3.917,0.3448594562177392,0.05507314971615059
-3.9165,0.3768699807907871,0.2564092794143318
-3.916,0.4195506802215176,0.4153588554918433
-3.9155,0.4729015545099309,0.457745409112513
-3.915,0.03542438534494258,-0.1038764263613609
-3.9145,-0.7861790786966207,-0.8986243067489184
-3.914,-1.394379045584531,-1.51322933424863
-3.9135,-1.703814116457328,-1.767548655972648
-3.913,-1.298347471865388,-1.237716735714276
-3.9125,-0.658136980404429,-0.4535654937318862
-3.912,-0.124628237520297,0.1822328105781598
-3.9115,0.2168173579255475,0.5743084315693548
-3.911,0.3875401556484697,0.7438546460520338
-3.9105,0.4515612047945656,0.7650479228623686
-3.91,0.4515612047945656,0.7120647308365314
-3.9095,0.4302208550792003,0.6166949851900245
-3.909,0.3982103305061524,0.5319218779486851
-3.9085,0.3768699807907871,0.4789386859228479
-3.908,0.3448594562177392,0.4153588554918433
-3.9075,0.3021787567870086,0.383568940276341
-3.907,-0.1139580626626144,0.1504428953626575
-3.9065,-0.8288597781273515,-0.570128516188728
-3.906,-1.447729919872945,-1.354279758171118
-3.9055,-1.799845690176472,-1.682775548731308
-3.905,-1.51175096901904,-1.269506650929778
-3.9045,-0.8288597781273515,-0.6231117082145651
-3.904,-0.2099896363817582,-0.1250697031716958
-3.9035,0.2274875327832301,0.13984625695749
-3.903,0.4835717293676135,0.2246193641988295
-3.9025,0.6116138276598051,0.2246193641988295
-3.902,0.6329541773751706,0.1822328105781598
-3.9015,0.857027849386506,-0.01910331912002144
-3.901,1.070431346540159,-0.1886495336027004
-3.9005,1.038420821967111,-0.1038764263613609
-3.9,0.857027849386506,0.06566978812131802
-3.8995,0.6863050516635838,0.2352160026039969
-3.899,0.5796033030867573,0.2987958330350016
-3.8985,0.3875401556484697,-0.1144730647665284
-3.898,0.8036769750980928,-0.4111789401112165
-3.8975,0.5582629533713921,-0.9410108603695881
-3.897,-0.3593720843893152,-1.460246142222792
-3.8965,-0.807519428411986,-1.439052865412457
-3.896,-0.6261264558313813,-0.8138511995075789
-3.8955,-0.274010685527854,-0.1356663415768632
-3.895,0.04609456020262521,0.3623756634660061
-3.8945,0.2594980573562781,0.6378882620003594
-3.894,0.3661998059331045,0.7438546460520338
-3.8935,0.408880505363835,0.7438546460520338
-3.893,0.4195506802215176,0.6908714540261965
-3.8925,0.3982103305061524,0.627291623595192
-3.892,0.3768699807907871,0.5955017083796896
-3.8915,0.3555296310754218,0.5849050699745222
-3.891,0.3341892813600565,0.5319218779486851
-3.8905,0.1207857842064037,0.5001319627331828
-3.89,-0.5621054066852853,-0.08268314955102604
-3.8895,-1.373038695869166,-0.9622041371799229
-3.889,-1.970568487899394,-1.576809164679634
-3.8885,-1.842526389607202,-1.290699927740113
-3.888,-1.148965023857831,-0.6760949002404023
-3.8875,-0.4340633083930936,-0.1674562567923655
-3.887,0.09944543449103843,0.1186529801471552
