Class_3_Grab_w_two_Hands/Class_3_Grab_with_two_hands_Basim_6.csv

#Digilent WaveForms Oscilloscope Acquisition
#Device Name: EExplorer
#Serial Number: SN:210151A2B84A
#Date Time: 2020-12-15 13:56:20.998
#Sample rate: 2000Hz
#Samples: 16384
#Trigger: Source: Channel 1 Type: Edge Condition: Rising Level: 0 V Hyst.: Auto HoldOff: 0 s
#Channel 1: Range: 1 V/div Offset: 0 V Attenuation: 1 X
#Channel 2: Range: 1 V/div Offset: 0 V Attenuation: 1 X
#Power Supplies: ON
#Fixed Supply: ON
#Voltage: 3.3 V Readback: 3.327 V
#Positive Supply: ON
#Voltage: 3.7 V Readback: 3.706 V
#Current: 40 mA Readback: 18 mA
#Negative Supply: ON
#Voltage: -3.7 V Readback: -3.348 V
#Current: -40 mA Readback: -7 mA
#Reference 1: ON
#Voltage: 0 V
#Reference 2: ON
#Voltage: 0 V

Time (s),Channel 1 (V),Channel 2 (V)
-4.096,0.3555296310754218,0.2140227257936621
-4.0955,0.334189281360076,0.2458126410091355
-4.095,-0.07127736323249521,-0.1462629799826571
-4.0945,-0.7434983792658902,-0.8350444763179138
-4.094,-1.191645723288154,-1.396666311791277
-4.0935,-1.084943974711192,-1.481439419032684
-4.093,-0.4874141826815069,-0.9939940523954253
-4.0925,0.03542438534446707,-0.3264058328704842
-4.092,0.3555296310755383,0.2352160026042957
-4.0915,0.4835717293676135,0.5637117931641874
-4.091,0.5049120790829789,0.7226613692416989
-4.0905,0.4729015545099018,0.7332580076468181
-4.09,0.4408910299368829,0.6802748156210291
-4.0895,0.4835717293676135,0.5849050699745222
-4.089,0.4942419042252864,0.4683420475177865
-4.0885,0.4622313796522482,0.3517790250608387
-4.088,0.4195506802215176,0.2458126410091644
-4.0875,0.3875401556484989,0.1398462569575864
-4.087,0.3341892813596586,0.1186529801474636
-4.0865,-0.1032878878049318,0.457745409112513
-4.086,-0.7755089038383269,0.1822328105784103
-4.0855,-1.234326422719564,-0.591321792999641
-4.085,-1.533091318734406,-1.227120097309109
-4.0845,-1.223656247861891,-1.248313374119424
-4.084,-0.6581369804039632,-0.8668343915330403
-4.0835,-0.1459685872356623,-0.4535654937318862
-4.083,0.1848068333524996,-0.1568596183871981
-4.0825,0.35552963107548,0.01268659609553868
-4.082,0.4195506802215176,0.07626642652648545
-4.0815,0.4302208550792003,0.09745970333682032
-4.081,0.4088805053638545,0.08686306493166251
-4.0805,0.3875401556484697,0.07626642652648545
-4.08,0.3768699807907871,0.06566978812131802
-4.0795,0.3555296310754412,0.06566978812131802
-4.079,0.3555296310751986,0.0762664265262156
-4.0785,0.1101156093487211,-0.2204394488182027
-4.078,-0.6047861061153657,-0.8880276683431437
-4.0775,-1.373038695869467,-1.555615887869492
-4.077,-1.703814116457328,-1.767548655972648
-4.0765,-1.052933450139279,-1.195330182094127
-4.076,-0.3380317346735034,-0.538338600972763
-4.0755,0.1527963087794516,-0.02969995752518888
-4.075,0.408880505363835,0.309392471440169
-4.0745,0.5049120790829692,0.4577454091125709
-4.074,0.4942419042252961,0.5213252395435176
-4.0735,0.4622313796522482,0.5319218779486851
-4.073,0.4835717293675941,0.5955017083796318
-4.0725,0.5155822539406614,0.6484849004055269
-4.072,0.4835717293676135,0.5743084315693548
-4.0715,0.4408910299369218,0.4471487707074613
-4.071,0.3982103305061136,0.3305857482504267
-4.0705,0.3555296310754218,0.2458126410091644
-4.07,0.02475421048756077,0.5001319627329515
-4.0695,-0.7221580295512043,0.6166949851893788
-4.069,-1.46907026958831,-0.09327978795619347
-4.0685,-2.023919362187807,-0.5913217929990628
-4.068,-1.821186039891138,-0.6019184314040664
-4.0675,-1.052933450138687,-0.4217755785163839
-4.067,-0.391382608962363,-0.2204394488182027
-4.0665,0.07810508477590605,-0.05089323433543701
-4.066,0.3341892813600565,0.04447651131098315
-4.0655,0.4302208550792003,0.1080563417419877
-4.065,0.4515612047945461,0.1292496185523033
-4.0645,0.4302208550792003,0.1504428953626575
-4.064,0.408880505363835,0.1610395337678249
-4.0635,0.3875401556484891,0.1716361721729827
-4.063,0.3661998059331045,0.1928294489833465
-4.0625,0.3661998059331045,0.2140227257936621
-4.062,0.2701682322140481,0.05507314971629515
-4.0615,-0.3060212101016007,-0.5913217929997182
-4.061,-1.074273799854052,-1.311893204550448
-4.0605,-1.693143941599645,-1.852321763213987
-4.06,-1.447729919872285,-1.608599079894529
-4.0595,-0.722158029550525,-0.9410108603695881
-4.059,-0.124628237520297,-0.2734226408440398
-4.0585,0.2488278824982557,0.1928294489829032
-4.058,0.4302208550792003,0.4365521323021782
-4.0575,0.4835717293676135,0.5425185163538525
-4.057,0.4729015545099406,0.5319218779486947
-4.0565,0.4729015545099309,0.5213252395435176
-4.056,0.5582629533713921,0.457745409112513
-4.0555,0.547592778513719,0.3517790250609351
-4.055,0.4942419042252476,0.2458126410090873
-4.0545,0.4408910299368829,0.1610395337678249
-4.054,0.3982103305061912,0.08686306493172034
-4.0535,0.2168173579249555,0.2034260873888223
-4.053,-0.4340633083930936,0.5637117931641874
-4.0525,-1.06360362499637,0.09745970333682032
-4.052,-1.447729919873022,-0.5065486857575499
-4.0515,-1.533091318734406,-0.3158091944647096
-4.051,-1.031593100423322,-0.1356663415768632
-4.0505,-0.4447334832513101,-0.07208651114591644
-4.05,0.00341386077189465,-0.05089323433552374
-4.0495,0.2808384070716433,-0.02969995752518888
-4.049,0.4088805053637186,-0.008506680714873288
-4.0485,0.4408910299368732,0.02328323450069647
-4.048,0.4302208550792003,0.07626642652648545
-4.0475,0.4088805053638545,0.1292496185522744
-4.047,0.38754015564846,0.192829448983385
-4.0465,0.3768699807907871,0.2564092794143318
-4.046,0.3661998059331142,0.3199891098452786
-4.0455,0.366199805933153,0.3093924714397449
-4.045,0.4195506802215176,-0.1568596183871981
-4.0445,-0.04993701351651855,-0.8562377531282487
-4.044,-0.8608703027006516,-1.4178595886022
-4.0435,-1.138294849000148,-1.502632695843462
-4.043,-0.7328282044082075,-0.9833974139902578
-4.0425,-0.2206598112399067,-0.358195748085948
-4.042,0.1527963087794516,0.1292496185523226
-4.0415,0.3555296310754218,0.4153588554918433
-4.041,0.4408910299368053,0.5425185163537368
-4.0405,0.4622313796522385,0.5955017083796608
-4.04,0.4515612047945656,0.5637117931641874
-4.0395,0.4942419042252573,0.5107286011383984
-4.039,0.494241904225267,0.4047622170865602
-4.0385,0.4622313796522482,0.2776025562246667
-4.038,0.4195506802215564,0.1504428953627731
-4.0375,0.3875401556483727,0.04447651131088678
-4.037,0.2808384070716433,-0.06148987274069118
-4.0365,-0.2846808603855366,-0.07208651114585861
-4.036,-1.063603624996923,-0.5065486857582727
-4.0355,-1.67180359188428,-1.110557074852267
-4.035,-1.991908837614759,-1.417859588602123
-4.0345,-1.469070269588785,-1.23771673571444
-4.034,-0.7434983792658902,-0.7820612842920766
-4.0335,-0.156638762093345,-0.3581957480853793
-4.033,0.2061471830675349,-0.07208651114611886
-4.0325,0.387540155648528,0.08686306493171071
-4.032,0.4515612047945656,0.1504428953626575
-4.0315,0.4515612047945656,0.1716361721729731
-4.031,0.4302208550791712,0.1716361721729923
-4.0305,0.3982103305061524,0.1716361721729923
-4.03,0.3875401556484794,0.1610395337678346
-4.0295,0.3768699807907774,0.1716361721729923
-4.029,0.3661998059331045,0.1716361721729923
-4.0285,0.1101156093487211,-0.1250697031716958
-4.028,-0.5300948821126934,-0.8244478379133632
-4.0275,-1.031593100423322,-1.502632695843462
-4.027,-1.159635198715513,-1.831128486403653
-4.0265,-0.700817679835577,-1.333086481361236
-4.026,-0.1352984123779797,-0.6654982618352349
-4.0255,0.2488278824985954,-0.07208651114585861
-4.025,0.4302208550790353,0.3199891098449798
-4.0245,0.4942419042252961,0.5107286011383887
-4.024,0.4942419042252961,0.55311515475902
-4.0235,0.4622313796522773,0.5107286011383887
-4.023,0.47290155450996,0.4259554938968758
-4.0225,0.5049120790829789,0.2776025562246667
-4.022,0.4835717293676329,0.1822328105782465
-4.0215,0.4408910299368539,0.1080563417419396
-4.021,0.408880505363835,0.05507314971615059
-4.0205,0.3768699807907871,0.03387987290581572
-4.02,0.1101156093480612,0.3305857482507159
-4.0195,-0.6154562809736985,0.5637117931641874
-4.019,-1.287677297007705,-0.07208651114585861
-4.0185,-1.682473766741604,-0.8350444763172199
-4.018,-1.51175096901904,-1.152943628472937
-4.0175,-0.8928808272734472,-0.8880276683437509
-4.017,-0.3060212101014357,-0.4747587705425969
-4.0165,0.1101156093489249,-0.1144730647663163
-4.016,0.3341892813600565,0.1186529801471552
-4.0155,0.430220855079113,0.2458126410090487
-4.015,0.4515612047945461,0.3093924714401786
-4.0145,0.4302208550792003,0.3199891098453364
-4.014,0.4088805053638545,0.3305857482504942
-4.0135,0.38754015564846,0.3199891098453267
-4.013,0.3768699807907871,0.309392471440169
-4.0125,0.3661998059331045,0.2987958330350016
-4.012,0.2701682322134172,0.1398462569568925
-4.0115,-0.3273615598162672,-0.5171453241628908
-4.011,-1.116954499284783,-1.269506650929778
-4.0105,-1.693143941599121,-1.831128486403142
-4.01,-1.341028171296118,-1.619195718300304
-4.0095,-0.6367966306890638,-0.9410108603695881
-4.009,-0.04993701351705238,-0.3370024712755938
-4.0085,0.3128489316448465,0.09745970333705162
-4.008,0.4835717293676135,0.3517790250608387
-4.0075,0.5155822539406323,0.4471487707072589
-4.007,0.4942419042252767,0.4471487707073167
-4.0065,0.4729015545099309,0.4153588554918433
-4.006,0.4942419042252961,0.4259554938970107
-4.0055,0.4729015545099018,0.3623756634659098
-4.005,0.4408910299368829,0.2564092794143318
-4.0045,0.408880505363835,0.1504428953626575
-4.004,0.3875401556483047,0.07626642652665892
-4.0035,0.2061471830678648,0.2670059178194992
-4.003,-0.4554036581084589,0.6484849004055269
-4.0025,-1.084943974711162,0.1504428953631105
-4.002,-1.458400094730627,-0.6337083466197325
-4.0015,-1.533091318734406,-1.121153713257435
-4.001,-1.031593100423778,-0.9833974139903832
-4.0005,-0.444733483250359,-0.5807251545935388
-4,0.01408403562957729,-0.1886495336027004
-3.9995,0.2808384070716433,0.08686306493165288
-3.999,0.408880505363835,0.2458126410091644
-3.9985,0.4515612047945656,0.3199891098453364
-3.998,0.4408910299368829,0.3517790250608387
-3.9975,0.4195506802215176,0.3517790250608387
-3.997,0.3982103305061524,0.3517790250608387
-3.9965,0.3875401556484697,0.3411823866556712
-3.996,0.3768699807907871,0.3305857482505039
-3.9955,0.3555296310754218,0.2564092794143318
-3.995,-0.01792648894347063,-0.2946159176543747
-3.9945,-0.7755089038389382,-1.05757388282643
-3.994,-1.51175096901904,-1.725162102351978
-3.9935,-1.597112367880501,-1.820531847998485
-3.993,-0.9462317015618604,-1.163540266878104
-3.9925,-0.3060212101009019,-0.474758770542221
-3.992,0.142126133921769,0.02328323450064829
-3.9915,0.3875401556484697,0.3199891098453364
-3.991,0.4729015545099309,0.4683420475176805
-3.9905,0.4835717293676135,0.5107286011383502
-3.99,0.4729015545099309,0.4789386859228479
-3.9895,0.5475927785137094,0.4365521323021782
-3.989,0.5582629533713921,0.3411823866556712
-3.9885,0.5155822539406614,0.2352160026039969
-3.988,0.4622313796522482,0.13984625695749
-3.9875,0.408880505363835,0.05507314971615059
-3.987,0.3448594562177392,0.08686306493165288
-3.9865,-0.1352984123779797,0.5213252395435176
-3.986,-0.8502001278427167,0.3305857482505039
-3.9855,-1.341028171296118,-0.4429688553267188
-3.985,-1.629122892453549,-1.089363798041932
-3.9845,-1.255666772434657,-1.121153713257435
-3.984,-0.6474668055467465,-0.7396747306714069
-3.9835,-0.124628237520297,-0.3158091944647096
-3.983,0.2168173579255475,0.002089957690313421
-3.9825,0.3875401556484697,0.1928294489833272
-3.982,0.4515612047945656,0.2881991946298341
-3.9815,0.4515612047945656,0.3199891098453364
-3.981,0.4302208550792003,0.3305857482505039
-3.9805,0.408880505363835,0.3199891098453364
-3.98,0.3875401556484697,0.309392471440169
-3.9795,0.3768699807907871,0.2987958330350016
-3.979,0.3768699807907871,0.2776025562246667
-3.9785,0.3768699807907871,-0.09327978795619347
-3.978,0.03542438534494258,-0.8350444763179138
-3.9775,-0.5834457564006506,-1.534422611058964
-3.977,-0.9355615267041777,-1.937094870455327
-3.9765,-0.6474668055467465,-1.523825972653797
-3.976,-0.1673089369510276,-0.8456411147230812
-3.9755,0.1848068333524996,-0.2204394488182027
-3.975,0.3875401556484697,0.2034260873884947
-3.9745,0.4729015545099309,0.4153588554918433
-3.974,0.4835717293676135,0.4789386859228479
-3.9735,0.4622313796522482,0.4789386859228479
-3.973,0.4835717293676135,0.5319218779486851
-3.9725,0.5262524287983441,0.5425185163538525
-3.972,0.4942419042252961,0.4153588554918433
-3.9715,0.4515612047945656,0.2458126410091644
-3.971,0.408880505363835,0.09745970333682032
-3.9705,0.3875401556484697,0.002089957690313421
-3.97,0.2168173579255475,0.2670059178194992
-3.9695,-0.4767440078238243,0.4153588554918433
-3.969,-1.255666772434657,-0.2310360872233701
-3.9685,-1.863866739322568,-0.7502713690765743
-3.968,-1.767835165603424,-0.8456411147230812
-3.9675,-1.052933450138687,-0.6125150698093976
-3.967,-0.391382608962363,-0.2840192792492073
-3.9665,0.07810508477567314,-0.01910331912002144
-3.966,0.3341892813600565,0.1504428953626575
-3.9655,0.4408910299368829,0.2458126410091644
-3.965,0.4729015545099309,0.2987958330350016
-3.9645,0.4515612047945656,0.3199891098453364
-3.964,0.4195506802215176,0.3199891098453364
-3.9635,0.3982103305061524,0.3305857482505039
-3.963,0.3875401556484697,0.3411823866556712
-3.9625,0.3768699807907871,0.3411823866556712
-3.962,0.2594980573562781,0.1504428953626575
-3.9615,-0.3273615598162672,-0.5171453241628908
-3.961,-0.8928808272734472,-1.269506650929778
-3.9605,-1.191645723288561,-1.820531847998485
-3.96,-0.8928808272734472,-1.640388995110639
-3.9595,-0.3166913849585846,-0.9516074987747555
-3.959,0.1207857842064037,-0.3158091944647096
-3.9585,0.3768699807907871,0.1292496185523226
-3.958,0.4835717293676135,0.383568940276341
-3.9575,0.4942419042252961,0.4789386859228479
-3.957,0.4729015545099309,0.4789386859228479
-3.9565,0.4622313796522482,0.4365521323021782
-3.956,0.5155822539406614,0.3411823866556712
-3.9555,0.5155822539406614,0.2246193641988295
-3.955,0.4729015545099309,0.13984625695749
-3.9545,0.4302208550792003,0.06566978812131802
-3.954,0.3982103305061524,0.02328323450064829
-3.9535,0.2701682322139607,0.1610395337678249
-3.953,-0.3700422592469978,0.55311515475902
-3.9525,-1.052933450138687,0.1080563417419877
-3.952,-1.447729919872945,-0.474758770542221
-3.9515,-1.479740444445993,-0.2946159176543747
-3.951,-0.9569018764195432,-0.1462629799820306
-3.9505,-0.3807124341046804,-0.07208651114585861
-3.95,0.05676473506030786,-0.04029659593035631
-3.9495,0.3128489316446912,-0.008506680714854012
-3.949,0.4195506802215176,0.03387987290581572
-3.9485,0.4515612047945656,0.08686306493165288
-3.948,0.4408910299368829,0.1504428953626575
-3.9475,0.4195506802215176,0.2246193641988295
-3.947,0.3982103305061524,0.2987958330350016
-3.9465,0.3875401556484697,0.3623756634660061
-3.946,0.3768699807907871,0.4259554938970107
-3.9455,0.3555296310754218,0.4259554938970107
-3.945,0.00341386077189465,-0.01910331912002144
-3.9445,-0.7328282044082075,-0.718481453861072
-3.944,-1.298347471865388,-1.301296566145281
-3.9435,-1.244996597576974,-1.38606967338662
-3.943,-0.6474668055467465,-0.8986243067489184
-3.9425,-0.08194753808956648,-0.2734226408440398
-3.942,0.291508581929326,0.2352160026039969
-3.9415,0.4515612047945656,0.5107286011383502
-3.941,0.5049120790829789,0.6166949851900245
-3.9405,0.5049120790829789,0.627291623595192
-3.94,0.4835717293676135,0.5743084315693548
-3.9395,0.5155822539406614,0.55311515475902
-3.939,0.5155822539406614,0.4683420475176805
-3.9385,0.4835717293676135,0.2987958330350016
-3.938,0.4408910299368829,0.13984625695749
-3.9375,0.408880505363835,0.01268659609548085
-3.937,0.3128489316446912,-0.01910331912002144
-3.9365,-0.2206598112394408,0.4153588554918433
-3.936,-0.9889124009925911,0.3623756634660061
-3.9355,-1.479740444445993,-0.2946159176543747
-3.935,-1.67180359188428,-0.3158091944647096
-3.9345,-1.180975548430879,-0.1674562567923655
-3.934,-0.5621054066852853,-0.1144730647665284
-3.9335,-0.06060718837420119,-0.08268314955102604
-3.933,0.2594980573562781,-0.06148987274069118
-3.9325,0.408880505363835,-0.04029659593035631
-3.932,0.4515612047945656,0.002089957690313421
-3.9315,0.4515612047945656,0.06566978812131802
-3.931,0.4302208550792003,0.1292496185523226
-3.9305,0.408880505363835,0.2034260873884947
-3.93,0.3982103305061524,0.2776025562246667
-3.9295,0.3875401556484697,0.3517790250608387
-3.929,0.3768699807907871,0.4047622170866759
-3.9285,0.1314559590640864,0.1186529801471552
-3.928,-0.572775581542968,-0.5489352393783931
-3.9275,-1.341028171296118,-1.174136905283272
-3.927,-1.67180359188428,-1.449649503817625
-3.9265,-1.074273799854052,-1.05757388282643
-3.926,-0.3807124341046804,-0.4429688553267188
-3.9255,0.1101156093487211,0.1080563417419877
-3.925,0.3875401556484697,0.4683420475176805
-3.9245,0.5049120790829789,0.627291623595192
-3.924,0.5155822539406614,0.6590815388106942
-3.9235,0.4942419042252961,0.6166949851900245
-3.923,0.5155822539406614,0.5743084315693548
-3.9225,0.5582629533713921,0.4895353243280153
-3.922,0.5262524287983441,0.3411823866556712
-3.9215,0.4835717293676135,0.1928294489833272
-3.921,0.4302208550792003,0.05507314971615059
-3.9205,0.3768699807907871,-0.008506680714854012
-3.92,0.03542438534494258,0.3411823866556712
-3.9195,-0.7114878546928423,0.5743084315693548
-3.919,-1.341028171296118,-0.07208651114585861
-3.9185,-1.725154466172693,-0.400582301706049
-3.918,-1.415719395299897,-0.2310360872233701
-3.9175,-0.7755089038389382,-0.1462629799820306
-3.917,-0.2099896363817582,-0.09327978795619347
-3.9165,0.1741366584948169,-0.06148987274069118
-3.916,0.3768699807907871,-0.02969995752518888
-3.9155,0.4515612047945656,0.01268659609548085
-3.915,0.4622313796522482,0.05507314971615059
-3.9145,0.4408910299368829,0.1080563417419877
-3.914,0.4195506802215176,0.1716361721729923
-3.9135,0.3982103305061524,0.2352160026039969
-3.913,0.3875401556484697,0.2987958330350016
-3.9125,0.3875401556484697,0.3517790250608387
-3.912,0.3448594562177392,0.2564092794143318
-3.9115,-0.1032878878049318,-0.326405832869877
-3.911,-0.8715404775580819,-1.004590690800593
-3.9105,-1.479740444445993,-1.47084278062796
-3.91,-1.212986073003927,-1.290699927740113
-3.9095,-0.5621054066852853,-0.6760949002404023
-3.909,-0.01792648894347063,-0.08268314955102604
-3.9085,0.3128489316446912,0.3305857482505039
-3.908,0.4622313796522482,0.55311515475902
-3.9075,0.5049120790829789,0.6378882620003594
-3.907,0.4942419042252961,0.627291623595192
-3.9065,0.4942419042252961,0.5637117931641874
-3.906,0.5262524287983441,0.4683420475176805
-3.9055,0.5049120790829789,0.3517790250608387
-3.905,0.4622313796522482,0.2458126410091644
-3.9045,0.4302208550792003,0.13984625695749
-3.904,0.3982103305061524,0.05507314971615059
-3.9035,0.2168173579255475,0.2140227257936621
-3.903,-0.4127229586777283,0.55311515475902
-3.9025,-1.010252750707956,0.03387987290581572
-3.902,-1.362368521011484,-0.5807251545938954
-3.9015,-1.330357996438436,-0.5489352393783931
-3.901,-0.8288597781273515,-0.3475991096802118
-3.9005,-0.2953510352432193,-0.1568596183871981
-3.9,0.09944543449103843,-0.008506680714854012
-3.8995,0.3341892813600565,0.06566978812131802
-3.899,0.4302208550792003,0.1080563417419877
-3.8985,0.4515612047945656,0.1186529801471552
-3.898,0.4515612047945656,0.1292496185523226
-3.8975,0.4195506802215176,0.13984625695749
-3.897,0.408880505363835,0.1504428953626575
-3.8965,0.3875401556484697,0.1716361721729923
-3.896,0.3875401556484697,0.1928294489833272
-3.8955,0.3555296310754218,0.1610395337678249
-3.895,0.03542438534494258,-0.3158091944647096
-3.8945,-0.6794773301197943,-1.046977244421262
-3.894,-1.405049220442214,-1.682775548731308
-3.8935,-1.447729919872945,-1.725162102351978
-3.893,-0.839529952985034,-1.0999604364471
-3.8925,-0.2313299860971235,-0.4429688553267188
-3.892,0.1848068333524996,0.08686306493165288
-3.8915,0.3982103305061524,0.4153588554918433
-3.891,0.4942419042252961,0.5319218779486851
-3.8905,0.5049120790829789,0.55311515475902
-3.89,0.4729015545099309,0.5319218779486851
-3.8895,0.5049120790829789,0.5107286011383502
-3.889,0.5049120790829789,0.457745409112513
-3.8885,0.4729015545099309,0.3729723018711736
-3.888,0.4408910299368829,0.2987958330350016
-3.8875,0.408880505363835,0.2140227257936621
-3.887,0.3341892813600565,0.2246193641988295
-3.8865,-0.1673089369510276,0.5743084315693548
