Class_3_Grab_w_two_Hands/Class_3_Grab_with_Two_Hands_UZ_8.csv

#Digilent WaveForms Oscilloscope Acquisition
#Device Name: EExplorer
#Serial Number: SN:210151A2B84A
#Date Time: 2020-12-20 12:39:49.686
#Sample rate: 2000Hz
#Samples: 16384
#Trigger: Source: Channel 1 Type: Edge Condition: Rising Level: 0 V Hyst.: Auto HoldOff: 0 s
#Channel 1: Range: 1 V/div Offset: 0 V
#Channel 2: Range: 1 V/div Offset: 0 V

Time (s),Channel 1 (V),Channel 2 (V)
-4.0960000000000001,-0.65813698040442903,-0.19924617200786782
-4.0955000000000004,-0.060607188374744658,0.19282944898297061
-4.0949999999999998,0.33418928136025061,0.41535885549198787
-4.0945,0.54759277851370936,0.57430843156935485
-4.0940000000000003,0.62228400251741989,0.71206473083640609
-4.0934999999999997,0.60094365280221962,0.70146809243136399
-4.093,0.70764540137894905,0.70146809243136399
-4.0925000000000002,0.72898575109429486,0.61669498519010157
-4.0919999999999996,0.5902734779442943,0.38356894027606153
-4.0914999999999999,0.43022085507920033,0.076266426526485451
-4.0910000000000002,0.31284893164469124,-0.19924617200786782
-4.0904999999999996,0.22748753278316219,-0.29461591765396988
-4.0899999999999999,0.15279630877945163,0.15044289536265748
-4.0895000000000001,0.69697522652126631,0.76504792286236856
-4.0890000000000004,1.3371857179816424,1.1783168206635224
-4.0884999999999998,1.1344523956862547,1.0405605213967219
-4.0880000000000001,0.099445434491038431,1.0299638829915545
-4.0875000000000004,-0.54076505696933785,0.76504792286260948
-4.0869999999999997,-0.57277558154278363,0.1610395337673334
-4.0865,-0.3700422592469978,-0.37938902489571413
-4.0860000000000003,-0.13529841237819318,-0.68669153864529031
-4.0854999999999997,0.046094560202712555,-0.77146464588685137
-4.085,0.14212613392176898,-0.70788481545590454
-4.0845000000000002,0.18480683335246073,-0.54893523937853761
-4.0839999999999996,0.152796308779374,-0.33700247127488064
-4.0834999999999999,0.067434909917990504,-0.15685961838719809
-4.0830000000000002,-0.039266838658835915,-0.050893234335523743
-4.0824999999999996,-0.26334051067061781,-0.18864953360300876
-4.0819999999999999,-0.75416855412357298,-0.52774196256805828
-4.0815000000000001,-1.405049220442214,-0.83504447631791379
-4.0810000000000004,-2.0879404113332818,-1.1317503516623322
-4.0804999999999998,-2.4293860067797475,-1.227120097309109
-4.0800000000000001,-1.8852070890379329,-0.82444783791274634
-4.0795000000000003,-1.0209229255664249,-0.20984281041359421
-4.0789999999999997,-0.27401068552738822,0.2987958330352618
-4.0785,0.23815770764091276,0.58490506997452218
-4.0780000000000003,0.52625242879808209,0.70146809243125796
-4.0774999999999997,0.62228400251748783,0.72266136924166036
-4.077,0.62228400251748783,0.68027481562102909
-4.0765000000000002,0.68630505166352562,0.55311515475913564
-4.0759999999999996,0.82501732481336099,0.48953532432776475
-4.0754999999999999,0.71831557623663156,0.21402272579366208
-4.0750000000000002,0.53692260365602662,-0.093279787956193475
-4.0744999999999996,0.37686998079066092,-0.36879238649081658
-4.0739999999999998,0.23815770764091276,-0.66549826183523486
-4.0735000000000001,-0.13529841237797968,-0.77146464588690922
-4.0730000000000004,0.12078578420617081,-0.6019184314043845
-4.0724999999999998,0.72898575109431429,-0.57012851618872795
-4.0720000000000001,0.91037872367491923,-0.4641621321370536
-4.0715000000000003,0.21681735792617829,0.055073149715678338
-4.0709999999999997,-0.23132998609716229,0.17163617217273214
-4.0705,-0.27401068552785401,-0.11447306476652835
-4.0700000000000003,-0.15663876209345171,-0.40058230170578879
-4.0694999999999997,-0.017926488943373581,-0.58072515459393392
-4.069,0.08877525963335578,-0.62311170821456507
-4.0685000000000002,0.15279630877945163,-0.53833860097322561
-4.0679999999999996,0.18480683335248985,-0.40058230170588521
-4.0674999999999999,0.17413665849481691,-0.22043944881820265
-4.0670000000000002,0.08877525963335578,-0.061489872740691176
-4.0664999999999996,0.0034138607718558322,0.076266426526552911
-4.0659999999999998,-0.039266838658835915,0.15044289536265748
-4.0655000000000001,-0.35937208438931517,-0.04029659593035631
-4.0650000000000004,-0.8715404775576161,-0.15685961838709206
-4.0644999999999998,-0.81818960326966872,-0.47475877054222104
-4.0640000000000001,-0.44473348325077627,-0.88802766834375091
-4.0635000000000003,0.24882788249796456,-0.98339741399017111
-4.0629999999999997,0.59027347794453688,-0.58072515459334606
-4.0625,0.69697522652126631,0.023283234500648287
-4.0620000000000003,0.71831557623661213,0.40476221708632892
-4.0614999999999997,0.72898575109427544,0.53192187794872359
-4.0609999999999999,0.6863050516635838,0.57430843156935485
-4.0605000000000002,0.6116138276598051,0.55311515475901996
-4.0599999999999996,0.55826295337150855,0.415358855491612
-4.0594999999999999,0.6863050516635838,0.16103953376782493
-4.0590000000000002,0.63295417737517057,-0.061489872740691176
-4.0585000000000004,0.49424190422542225,-0.24163272562837371
-4.0579999999999998,0.36619980593310447,-0.40058230170604903
-4.0575000000000001,0.27016823221396069,-0.53833860097322561
-4.0570000000000004,0.23815770764094188,-0.34759910968038532
-4.0564999999999998,0.19547700821018218,0.27760255622466667
-4.056,0.857027849386506,0.89220758372437781
-4.0555000000000003,1.529248865419901,1.2948798431203741
-4.0549999999999997,0.97439977282015133,1.5174092496291791
-4.0545,0.024754210487259936,1.432636142387917
-4.0540000000000003,-0.33803173467361991,0.76504792286297574
-4.0534999999999997,-0.32736155981613141,0.033879872905372393
-4.0529999999999999,-0.17797911180871023,-0.4535654937318862
-4.0525000000000002,-0.028596663801153277,-0.66549826183523486
-4.0519999999999996,0.088775259633414011,-0.65490162342993252
-4.0514999999999999,0.15279630877945163,-0.50654868575772338
-4.0510000000000002,0.16346648363713429,-0.29461591765437467
-4.0505000000000004,0.099445434491096663,-0.061489872740903201
-4.0499999999999998,-0.017926488943470625,0.10805634174198775
-4.0495000000000001,-0.12462823752029703,0.20342608738849466
-4.0490000000000004,-0.19931946152400759,0.24581264100912584
-4.0484999999999998,-0.57277558154356967,0.46834204751776726
-4.048,-1.2343264227192918,0.5637117931641874
-4.0475000000000003,-1.9172176136103598,0.34118238665587364
-4.0469999999999997,-2.3440246079177331,-0.082683149551112778
-4.0465,-1.7358246410303759,-0.17805289519753292
-4.0460000000000003,-0.89288082727421381,0.044476511310780759
-4.0454999999999997,-0.17797911180827353,0.28819919462999793
-4.0449999999999999,0.30217875678700862,0.46834204751768049
-4.0445000000000002,0.55826295337139209,0.52132523954351762
-4.0439999999999996,0.65429452709053582,0.55311515475895245
-4.0434999999999999,0.65429452709053582,0.47893868592284788
-4.0430000000000001,0.79300680024041004,0.50013196273318283
-4.0425000000000004,0.84635767452877475,0.42595549389707815
-4.0419999999999998,0.6863050516635838,0.10805634174198775
-4.0415000000000001,0.49424190422529612,-0.24163272562853755
-4.0410000000000004,0.36619980593322093,-0.52774196256779804
-4.0404999999999998,0.2594980573563751,-0.61251506980921455
-4.04,0.36619980593310447,-0.41117894011121647
-4.0395000000000003,1.091771696254864,-0.30521255605963848
-4.0389999999999997,1.6039400894239026,-0.23103608722305205
-4.0385,1.1771330951169852,0.11865298014715518
-4.0380000000000003,0.099445434492018592,0.60609834678441377
-4.0374999999999996,-0.43406330839311308,0.52132523954311283
-4.0369999999999999,-0.4554036581084589,0.076266426526485451
-4.0365000000000002,-0.28468086038553664,-0.31580919446470956
-4.0359999999999996,-0.092617712947113268,-0.52774196256806793
-4.0354999999999999,0.05676473506030786,-0.53833860097322561
-4.0350000000000001,0.14212613392176898,-0.43237221692155131
-4.0345000000000004,0.17413665849478779,-0.24163272562871102
-4.0339999999999998,0.14212613392176898,-0.019103319120021445
-4.0335000000000001,0.046094560202625215,0.16103953376782493
-4.0330000000000004,-0.081947538089450031,0.25640927941424507
-4.0324999999999998,-0.37004225924735684,0.065669788121250558
-4.032,-0.76483872898125549,-0.0085066807148540119
-4.0315000000000003,-1.3196878215802483,0.10805634174188174
-4.0309999999999997,-1.9598983130421384,0.0020899576900050183
-4.0305,-2.4293860067797475,-0.33700247127504446
-4.0300000000000002,-2.2693333839146534,-0.4853554089472536
-4.0294999999999996,-1.3943790455837646,-0.25222936403347368
-4.0289999999999999,-0.55143523182760279,0.0020899576903134209
-4.0285000000000002,0.078105084775673142,0.21402272579366208
-4.0279999999999996,0.43022085507931679,0.38356894027640848
-4.0274999999999999,0.55826295337139209,0.45774540911251305
-4.0270000000000001,0.59027347794443985,0.42595549389701071
-4.0265000000000004,0.64362435223280456,0.21402272579385484
-4.0259999999999998,0.75032610080967954,-0.04029659593035631
-4.0255000000000001,0.65429452709053582,-0.27342264084403983
-4.0250000000000004,0.49424190422544168,-0.48535540894719575
-4.0244999999999997,0.36619980593303653,-0.66549826183535055
-4.024,0.29150858192932599,-0.792657922697244
-4.0235000000000003,0.33418928136001774,-0.51714532416314141
-4.0229999999999997,0.87836819910249231,-0.029699957524880475
-4.0225,1.5612593899935603,0.30939247144016896
-4.0220000000000002,1.6466207888549436,0.44714877070722031
-4.0214999999999996,0.65429452708976921,0.7332580076468278
-4.0209999999999999,-0.18864928666639288,0.69087145402619654
-4.0205000000000002,-0.40205278382004572,0.19282944898332721
-4.0199999999999996,-0.3166913849584293,-0.28401927924945786
-4.0194999999999999,-0.14596858723566233,-0.55953187778356051
-4.0190000000000001,0.014084035629577295,-0.62311170821456507
-4.0185000000000004,0.11011560934863374,-0.5171453241629872
-4.0179999999999998,0.16346648363713429,-0.32640583286987701
-4.0175000000000001,0.16346648363713429,-0.082683149551026042
-4.0170000000000003,0.1101156093487696,0.13984625695728764
-4.0164999999999997,0.046094560202576691,0.29879583303510759
-4.016,-0.0072563140857879876,0.41535885549184332
-4.0155000000000003,-0.060607188374152667,0.52132523954342125
-4.0149999999999997,-0.54076505697055088,0.55311515475872119
-4.0145,-1.2343264227192918,0.2246193641988295
-4.0140000000000002,-1.8958772638950139,-0.31580919446421812
-4.0134999999999996,-2.0239193621871374,-0.6549016234299132
-4.0129999999999999,-1.2876772970077051,-0.48535540894738849
-4.0125000000000002,-0.4980843575391895,-0.15685961838719809
-4.0119999999999996,0.088775259633646908,0.21402272579386447
-4.0114999999999998,0.40888050536383502,0.43655213230217815
-4.0110000000000001,0.5689331282290746,0.50013196273318283
-4.0105000000000004,0.6009436528020935,0.40476221708676263
-4.0099999999999998,0.57960330308675734,0.24581264100916439
-4.0095000000000001,0.77166645052504479,-0.20984281041303524
-4.0090000000000003,0.76099627566737194,-0.4959520473522957
-4.0084999999999997,0.59027347794428453,-0.59132179299910137
-4.008,0.41955068022151765,-0.63370834661973252
-4.0075000000000003,0.30217875678711537,-0.68669153864552157
-4.0069999999999997,0.17413665849453547,-0.53833860097266661
-4.0065,-0.13529841237797968,0.076266426526485451
-4.0060000000000002,-0.28468086038553664,0.75445128445720111
-4.0054999999999996,-0.23132998609726904,1.2313000126898896
-4.0049999999999999,-0.39138260896236304,1.4008462271724147
-4.0045000000000002,-0.41272295867772835,0.90280422212954525
-4.0039999999999996,-0.24200016095464111,0.18223281057764898
-4.0034999999999998,-0.06060718837420119,-0.37938902489571413
-4.0030000000000001,0.067434909917990504,-0.67609490024040231
-4.0025000000000004,0.152796308779374,-0.73967473067134903
-4.0019999999999998,0.18480683335249956,-0.65490162343006741
-4.0015000000000001,0.19547700821018218,-0.47475877054222104
-4.0010000000000003,0.17413665849483631,-0.26282600243906518
-4.0004999999999997,0.088775259633200515,-0.061489872740575525
-4,-0.08194753808956648,0.065669788121318018
-3.9994999999999998,-0.28468086038553664,0.033879872905815719
-3.9990000000000001,-0.42339313353541097,0.012686596095480854
-3.9984999999999999,-0.87154047755808195,0.29879583303500157
-3.9980000000000002,-1.4904106193036752,0.47893868592284788
-3.9975000000000001,-2.1626316353376818,0.26700591781949923
-3.9969999999999999,-2.0986105861915858,0.0020899576903134209
-3.9965000000000002,-1.2236562478616091,0.023283234500648287
-3.996,-0.51942470725455481,0.097459703336820316
-3.9954999999999998,0.035424385344942577,0.29879583303500157
-3.9950000000000001,0.41955068022151765,0.51072860113835017
-3.9944999999999999,0.62228400251748783,0.5637117931641874
-3.9940000000000002,0.66496470194821833,0.53192187794868506
-3.9935,0.62228400251748783,0.43655213230217815
-3.9929999999999999,0.72898575109431429,0.31998910984533641
-3.9925000000000002,0.77166645052504479,0.18223281057815977
-3.992,0.62228400251748783,-0.019103319120021445
-3.9914999999999998,0.45156120479456557,-0.22043944881820265
-3.9910000000000001,0.32351910650237387,-0.40058230170604903
-3.9904999999999999,0.29150858192932599,-0.48535540894738849
-3.9900000000000002,0.67563487680590106,-0.1674562567923655
-3.9895,1.4652278162744163,0.20342608738849466
-3.9889999999999999,2.1694593568814708,0.36237566346600614
-3.9885000000000002,1.8493541111509915,0.13984625695749003
-3.988,0.64362435223285308,0.2246193641988295
-3.9874999999999998,-0.071277363231883828,0.11865298014715518
-3.9870000000000001,-0.27401068552785401,-0.20984281041303524
-3.9864999999999999,-0.20998963638175816,-0.49595204735255594
-3.9860000000000002,-0.08194753808956648,-0.63370834661973252
-3.9855,0.035424385344942577,-0.63370834661973252
-3.9849999999999999,0.12078578420640371,-0.53833860097322561
-3.9845000000000002,0.15279630877945163,-0.38998566330088158
-3.984,0.13145595906408636,-0.22043944881820265
-3.9834999999999998,0.035424385344942577,-0.072086511145858609
-3.9830000000000001,-0.12462823752029703,-0.04029659593035631
-3.9824999999999999,-0.54076505696992005,-0.3581957480853793
-3.9820000000000002,-1.0315931004233216,-0.52774196256805828
-3.9815,-1.5757720181651362,0.023283234500648287
-3.9809999999999999,-2.1412912856223163,0.60609834678485708
-3.9805000000000001,-2.3546947827759692,0.73325800764686633
-3.98,-1.5010807941613578,0.75445128445720111
-3.9794999999999998,-0.79684925355430347,0.58490506997452218
-3.9790000000000001,-0.24200016095480609,0.29879583303500157
-3.9784999999999999,0.17413665849481691,0.0020899576903134209
-3.9780000000000002,0.44089102993688295,-0.20984281041303524
-3.9775,0.59027347794443985,-0.29461591765437467
-3.9769999999999999,0.6116138276598051,-0.27342264084403983
-3.9765000000000001,0.64362435223285308,-0.11447306476652835
-3.976,0.77166645052504479,0.13984625695749003
-3.9754999999999998,0.67563487680590106,0.18223281057815977
-3.9750000000000001,0.51558225394066137,0.12924961855232261
-3.9744999999999999,0.35552963107542179,0.055073149716150585
-3.9740000000000002,0.29150858192932599,0.065669788121318018
-3.9735,0.13145595906408636,0.50013196273318283
-3.9729999999999999,0.51558225394066137,1.0617537982070568
-3.9725000000000001,1.1984734448323504,1.4962159728189213
-3.972,1.1771330951169852,1.7081487409222702
-3.9714999999999998,0.25949805735627807,1.7717285713532749
-3.9710000000000001,-0.46607383296614152,1.4432327807930845
-3.9704999999999999,-0.5621054066852853,0.72266136924169888
-3.9700000000000002,-0.38071243410468042,0.086863064931652884
-3.9695,-0.15663876209334496,-0.27342264084403983
-3.9689999999999999,0.024754210487259936,-0.36879238649054674
-3.9685000000000001,0.13145595906408636,-0.30521255605954212
-3.968,0.18480683335249956,-0.13566634157686319
-3.9674999999999998,0.17413665849481691,0.065669788121318018
-3.9670000000000001,0.11011560934872107,0.25640927941433178
-3.9664999999999999,0.014084035629577295,0.37297230187117358
-3.9660000000000002,-0.039266838658835915,0.4471487707073456
-3.9655,-0.35937208438931517,0.16103953376782493
-3.9649999999999999,-0.77550890383893822,-0.34759910968021185
-3.9645000000000001,-0.57277558154296804,-0.85623775312824868
-3.964,-0.08194753808956648,-1.227120097309109
-3.9634999999999998,0.40888050536383502,-1.3860696733866202
-3.9630000000000001,0.66496470194821833,-1.1423469900677694
-3.9624999999999999,0.80367697509809277,-0.62311170821456507
-3.9620000000000002,0.81434714995577528,-0.093279787956193475
-3.9615,0.75032610080967954,0.23521600260399694
-3.9609999999999999,0.6863050516635838,0.33058574825050385
-3.9605000000000001,0.6116138276598051,0.25640927941433178
-3.96,0.5689331282290746,0.097459703336820316
-3.9594999999999998,0.75032610080967954,0.12924961855232261
-3.9590000000000001,0.72898575109431429,-0.029699957525188878
-3.9584999999999999,0.5689331282290746,-0.32640583286987701
-3.9580000000000002,0.40888050536383502,-0.61251506980939763
-3.9575,0.30217875678700862,-0.82444783791274634
-3.9569999999999999,0.35552963107542179,-0.66549826183523486
-3.9565000000000001,0.80367697509809277,-0.019103319120021445
-3.956,1.539919040278195,0.61669498519002452
-3.9554999999999998,1.9880663843008659,0.83922439169854057
-3.9550000000000001,1.3158453682668594,0.93459413734504748
-3.9544999999999999,0.13145595906408636,1.0829470750173917
-3.9540000000000002,-0.42339313353541097,0.73325800764686633
-3.9535,-0.4554036581084589,0.16103953376782493
-3.9529999999999998,-0.29535103524321932,-0.25222936403370499
-3.9525000000000001,-0.10328788780493176,-0.43237221692155131
-3.952,0.046094560202625215,-0.41117894011121647
-3.9514999999999998,0.13145595906408636,-0.24163272562853755
-3.9510000000000001,0.15279630877945163,-0.019103319120021445
-3.9504999999999999,0.11011560934872107,0.21402272579366208
-3.9500000000000002,-0.028596663801153277,0.36237566346600614
-3.9495,-0.16730893695102761,0.41535885549184332
-3.9489999999999998,-0.29535103524321932,0.35177902506083869
-3.9485000000000001,-0.72215802955052499,0.37297230187117358
-3.948,-1.3090176467230703,0.66967817721586165
-3.9474999999999998,-1.8638667393225676,0.87101430691404291
-3.9470000000000001,-1.9492281381840288,0.7968378380778709
-3.9464999999999999,-1.2663369472923398,0.64848490040552687
-3.9460000000000002,-0.58344575640065055,0.54251851635385251
-3.9455,-0.06060718837420119,0.48953532432801533
-3.9449999999999998,0.30217875678700862,0.4471487707073456
-3.9445000000000001,0.51558225394066137,0.38356894027634103
-3.944,0.62228400251748783,0.28819919462983412
-3.9434999999999998,0.60094365280212259,0.12924961855232261
-3.9430000000000001,0.71831557623663156,-0.072086511145858609
-3.9424999999999999,0.78233662538272752,-0.27342264084403983
-3.9420000000000002,0.63295417737517057,-0.44296885532671876
-3.9415,0.45156120479456557,-0.60191843140423029
-3.9409999999999998,0.31284893164469124,-0.76086800748174177
-3.9405000000000001,0.31284893164469124,-0.78206128429207655
-3.9399999999999999,0.72898575109431429,-0.30521255605954212
-3.9394999999999998,1.3585260676975901,0.29879583303500157
-3.9390000000000001,1.8920348105817222,0.62729162359519197
-3.9384999999999999,1.593269914566608,0.62729162359519197
-3.9380000000000002,0.3982103305061524,0.78624119967270345
-3.9375,-0.40205278382004572,0.6590815388106942
-3.9369999999999998,-0.54076505696992005,0.12924961855232261
-3.9365000000000001,-0.39138260896236304,-0.32640583286987701
-3.9359999999999999,-0.17797911180871023,-0.5807251545938954
-3.9355000000000002,-0.0072563140857879876,-0.62311170821456507
-3.9350000000000001,0.099445434491038431,-0.50654868575772338
-3.9344999999999999,0.15279630877945163,-0.29461591765437467
-3.9340000000000002,0.13145595906408636,-0.061489872740691176
-3.9335,0.11011560934872107,0.17163617217299235
-3.9329999999999998,0.014084035629577295,0.34118238665567124
-3.9325000000000001,-0.38071243410468042,0.23521600260399694
-3.9319999999999999,-0.88221065241576446,-0.14626297998203064
-3.9315000000000002,-1.1489650238578306,-0.63370834661973252
-3.931,-0.71148785469284226,-1.0045906908005926
-3.9304999999999999,0.067434909917990504,-1.2165234589039415
-3.9300000000000002,0.62228400251748783,-1.0363806060160949
-3.9295,0.87836819910187125,-0.50654868575772338
