Class_3_Grab_w_two_Hands/Class_3_Grab_w_two_Hands_Zakour_7.csv

#Digilent WaveForms Oscilloscope Acquisition
#Device Name: EExplorer
#Serial Number: SN:210151A2B84A
#Date Time: 2020-12-21 15:17:00.528
#Sample rate: 2000Hz
#Samples: 16384
#Trigger: Source: Channel 1 Type: Edge Condition: Rising Level: 0 V Hyst.: Auto HoldOff: 0 s
#Channel 1: Range: 1 V/div Offset: 0 V
#Channel 2: Range: 1 V/div Offset: 0 V

Time (s),Channel 1 (V),Channel 2 (V)
-4.0960000000000001,0.30217875678700862,-0.029699957525188878
-4.0955000000000004,0.0034138607721663772,0.40476221708628074
-4.0949999999999998,-0.63679663068956838,0.79683783807812147
-4.0945,-1.1916457232885611,1.0723504366122243
-4.0940000000000003,-1.0209229255657941,1.0087706061812773
-4.0934999999999997,-0.5621054066848874,0.66967817721553402
-4.093,-0.12462823752029703,0.30939247144016896
-4.0925000000000002,0.17413665849454515,0.086863064931855277
-4.0919999999999996,0.3448594562177974,0.04447651131106025
-4.0914999999999999,0.40888050536383502,0.12924961855232261
-4.0910000000000002,0.41955068022151765,0.28819919462983412
-4.0904999999999996,0.38754015564841149,0.46834204751782504
-4.0899999999999999,0.32351910650237387,0.62729162359519197
-4.0895000000000001,0.28083840707164331,0.73325800764686633
-4.0890000000000004,0.2488278824986245,0.79683783807781305
-4.0884999999999998,0.23815770764091276,0.78624119967270345
-4.0880000000000001,0.36619980593310447,0.31998910984533641
-4.0875000000000004,0.39821033050612331,-0.5595318777827607
-4.0869999999999997,-0.049937013517062,-0.68669153864518429
-4.0865,-0.64746680554674652,-0.26282600243887239
-4.0860000000000003,-0.75416855412347594,-0.26282600243887239
-4.0854999999999997,-0.35937208438885904,-0.67609490024081675
-4.085,0.14212613392176898,-1.131750351662602
-4.0845000000000002,0.48357172936730297,-1.5344226110585983
-4.0839999999999996,0.6649647019482765,-1.7463553791624287
-4.0834999999999999,0.72898575109431429,-1.8735150400243223
-4.0830000000000002,0.78233662538272752,-1.9053049552398247
-4.0824999999999996,0.93171907339021653,-1.6827755487312697
-4.0819999999999999,0.857027849386506,-1.6403889951106385
-4.0815000000000001,0.69697522652126631,-1.650985633515806
-4.0810000000000004,0.55826295337151821,-1.650985633515806
-4.0804999999999998,0.49424190422529612,-1.5768091646796343
-4.0800000000000001,0.5689331282290746,-1.5344226110589645
-4.0795000000000003,0.92104889853228156,-1.9688847856704337
-4.0789999999999997,0.44089102993606777,-2.0112713392907082
-4.0785,-0.4554036581084589,-1.1423469900677694
-4.0780000000000003,-1.2876772970069481,-0.072086511146832066
-4.0774999999999997,-1.3623685210110468,0.75445128445759624
-4.077,-0.88221065241576446,1.1889134590690658
-4.0765000000000002,-0.35937208438979062,1.2207033742845392
-4.0759999999999996,0.046094560202838711,0.96638405256026072
-4.0754999999999999,0.28083840707164331,0.64848490040552687
-4.0750000000000002,0.38754015564846972,0.43655213230217815
-4.0744999999999996,0.41955068022149822,0.37297230187123143
-4.0739999999999998,0.3982103305061524,0.43655213230217815
-4.0735000000000001,0.35552963107542179,0.53192187794868506
-4.0730000000000004,0.31284893164473004,0.63788826200026305
-4.0724999999999998,0.24882788249859539,0.73325800764686633
-4.0720000000000001,0.19547700821018218,0.86041766850887547
-4.0715000000000003,0.12078578420647164,0.68027481562119296
-4.0709999999999997,0.099445434490630841,-0.20984281041326655
-4.0705,-0.34870190953163249,-0.4641621321370536
-4.0700000000000003,-0.92489135184597115,-0.019103319120426232
-4.0694999999999997,-1.159635198715067,0.21402272579327658
-4.069,-0.66880715526211176,-0.20984281041303524
-4.0685000000000002,-0.06060718837420119,-0.87743102993858346
-4.0679999999999996,0.39821033050635618,-1.4072629501972442
-4.0674999999999999,0.62228400251748783,-1.7251621023519781
-4.0670000000000002,0.69697522652126631,-1.9370948704553266
-4.0664999999999996,0.70764540137903642,-2.1172377233429707
-4.0659999999999998,0.80367697509809277,-1.8947083168346572
-4.0655000000000001,0.79300680024041004,-1.6827755487313083
-4.0650000000000004,0.69697522652135369,-1.5662125262745727
-4.0644999999999998,0.57960330308675734,-1.4814394190331273
-4.0640000000000001,0.4835717293676135,-1.3542797581711179
-4.0635000000000003,0.43022085507924884,-1.2271200973092247
-4.0629999999999997,0.67563487680574574,-1.5026326958433465
-4.0625,0.50491207908297886,-1.3754730349814528
-4.0620000000000003,-0.13529841237739737,-0.57012851618946037
-4.0614999999999997,-0.7648387289818378,0.27760255622523528
-4.0609999999999999,-1.405049220442214,0.90280422212954525
-4.0605000000000002,-1.3196878215807528,0.99817396777605205
-4.0599999999999996,-0.80751942841151048,0.63788826199997395
-4.0594999999999999,-0.28468086038553664,0.21402272579366208
-4.0590000000000002,0.08877525963335578,-0.050893234335523743
-4.0585000000000004,0.3021787567868145,-0.11447306476647053
-4.0579999999999998,0.3982103305061524,-0.04029659593035631
-4.0575000000000001,0.40888050536383502,0.11865298014715518
-4.0570000000000004,0.37686998079081624,0.27760255622452212
-4.0564999999999998,0.32351910650237387,0.43655213230217815
-4.056,0.27016823221396069,0.57430843156935485
-4.0555000000000003,0.056764735060501947,0.81803111488798419
-4.0549999999999997,-0.15663876209382047,0.97698069096586182
-4.0545,-0.67947733011979428,1.1359302670432285
-4.0540000000000003,-1.0956141495690388,1.3054764815257536
-4.0534999999999997,-1.3837088707267808,1.3796529503618002
-4.0529999999999999,-1.3090176467230703,1.0723504366122243
-4.0525000000000002,-0.63679663068906378,0.27760255622466667
-4.0519999999999996,0.067434909918436911,-0.5065486857582342
-4.0514999999999999,0.55826295337139209,-1.0681705212315973
-4.0510000000000002,0.79300680024041004,-1.4496495038176249
-4.0505000000000004,0.84635767452877475,-1.6827755487310962
-4.0499999999999998,0.81434714995577528,-1.7569520175674804
-4.0495000000000001,0.857027849386506,-1.5768091646796343
-4.0490000000000004,0.97439977282090817,-1.2059268204991114
-4.0484999999999998,0.85702784938635068,-1.0257839676108118
-4.048,0.6863050516635838,-0.89862430674891836
-4.0475000000000003,0.53692260365616251,-0.73967473067155143
-4.0469999999999997,0.44089102993704793,-0.55953187778364721
-4.0465,0.62228400251748783,-0.65490162343006741
-4.0460000000000003,0.76099627566723616,-1.0575738828260637
-4.0454999999999997,0.088775259632627945,-0.73967473067076117
-4.0449999999999999,-0.71148785469284226,-0.029699957525188878
-4.0445000000000002,-1.4263895701575793,0.63788826200035942
-4.0439999999999996,-1.3730386958686904,0.84982103010343812
-4.0434999999999999,-0.8502001278427167,0.55311515475901996
-4.0430000000000001,-0.31669138495858457,0.11865298014715518
-4.0425000000000004,0.067434909917641117,-0.20984281041273645
-4.0419999999999998,0.29150858192932599,-0.3581957480853793
-4.0415000000000001,0.38754015564846972,-0.36879238649054674
-4.0410000000000004,0.40888050536381559,-0.28401927924928438
-4.0404999999999998,0.38754015564841149,-0.16745625679224022
-4.04,0.32351910650237387,-0.029699957525188878
-4.0395000000000003,0.24882788249866333,0.097459703336704659
-4.0389999999999997,0.20614718306777749,0.24581264100941497
-4.0385,0.11011560934872107,0.52132523954351762
-4.0380000000000003,-0.17797911180844822,0.65908153881056886
-4.0374999999999996,-0.55143523182805887,0.73325800764708804
-4.0369999999999999,-1.0529334501386869,0.97698069096571727
-4.0365000000000002,-1.4584000947306273,1.1783168206638983
-4.0359999999999996,-1.3410281712955263,0.86041766850821044
-4.0354999999999999,-0.69014750497747701,0.12924961855232261
-4.0350000000000001,0.0034138607718946501,-0.62311170821456507
-4.0345000000000004,0.4942419042248497,-1.2059268204982441
-4.0339999999999998,0.70764540137894905,-1.4814394190331273
-4.0335000000000001,0.76099627566736228,-1.5450192494641319
-4.0330000000000004,0.7823366253827081,-1.5026326958435008
-4.0324999999999998,1.0170804722517262,-1.1105570748520743
-4.032,0.99574012253638022,-0.89862430674891836
-4.0315000000000003,0.81434714995594026,-0.82444783791281384
-4.0309999999999997,0.64362435223272696,-0.7502713690764683
-4.0305,0.50491207908297886,-0.63370834661973252
-4.0300000000000002,0.31284893164486594,-0.3370024712753143
-4.0294999999999996,-0.41272295867838826,0.17163617217346458
-4.0289999999999999,-1.1382948490001481,0.69087145402619654
-4.0285000000000002,-1.6397930673112322,1.1147369902328941
-4.0279999999999996,-2.0345895370452181,1.3902495887672568
-4.0274999999999999,-1.7358246410303759,1.4008462271724147
-4.0270000000000001,-1.0209229255656389,1.1041403518277266
-4.0265000000000004,-0.35937208438991675,0.6484849004059412
-4.0259999999999998,0.08877525963335578,0.23521600260399694
-4.0255000000000001,0.32351910650237387,0.0020899576903134209
-4.0250000000000004,0.41955068022143027,-0.040296595930317758
-4.0244999999999997,0.4302208550791809,0.033879872905950646
-4.024,0.40888050536383502,0.18223281057815977
-4.0235000000000003,0.3448594562177974,0.35177902506068448
-4.0229999999999997,0.29150858192927748,0.47893868592295391
-4.0225,0.23815770764091276,0.59550170837968963
-4.0220000000000002,0.17413665849487514,0.78624119967253003
-4.0214999999999996,-0.081947538090129335,1.0405605213969242
-4.0209999999999999,-0.70081767983515975,1.2630899279052379
-4.0205000000000002,-1.2129860730039266,1.4114428655775821
-4.0199999999999996,-1.5651018433074344,1.4538294191979821
-4.0194999999999999,-1.5437614935920885,1.1571235438535634
-4.0190000000000001,-0.8928808272734472,0.37297230187117358
-4.0185000000000004,-0.12462823752099583,-0.48535540894660789
-4.0179999999999998,0.45156120479456557,-1.1741369052832717
-4.0175000000000001,0.72898575109431429,-1.5132293342486296
-4.0170000000000003,0.81434714995569768,-1.6403889951105228
-4.0164999999999997,0.80367697509821889,-1.6403889951103108
-4.016,0.94238924824796699,-1.2801032893349458
-4.0155000000000003,1.1451225705437529,-0.93041422196473866
-4.0149999999999997,1.1557927454014258,-0.77146464588690922
-4.0145,0.94238924824796699,-0.77146464588690922
-4.0140000000000002,0.70764540137916254,-0.73967473067143574
-4.0134999999999996,0.53692260365593925,-0.64430498502497702
-4.0129999999999999,0.44089102993688295,-0.72907809226623943
-4.0125000000000002,-0.16730893695102761,-0.86683439153341613
-4.0119999999999996,-0.80751942841247126,-0.62311170821398687
-4.0114999999999998,-1.3410281712961183,0.012686596095480854
-4.0110000000000001,-1.7678351656034239,0.62729162359519197
-4.0105000000000004,-1.4690702695885818,0.74385464605192775
-4.0099999999999998,-0.82885977812735145,0.43655213230217815
-4.0095000000000001,-0.25267033581248871,0.065669788121318018
-4.0090000000000003,0.13145595906373697,-0.15685961838699569
-4.0084999999999997,0.33418928136012449,-0.22043944881815447
-4.008,0.40888050536383502,-0.1674562567923655
-4.0075000000000003,0.41955068022150793,-0.061489872740787557
-4.0069999999999997,0.37686998079073858,0.065669788121414399
-4.0065,0.32351910650237387,0.17163617217299235
-4.0060000000000002,0.27016823221396069,0.26700591781949923
-4.0054999999999996,0.22748753278297779,0.41535885549209389
-4.0049999999999999,-0.049937013516518552,0.69087145402619654
-4.0045000000000002,-0.65813698040442903,1.0087706061812196
-4.0039999999999996,-1.2129860730042856,1.2630899279053343
-4.0034999999999998,-1.6077825427381842,1.3690563119569124
-4.0030000000000001,-1.7998456901764717,1.2207033742845681
-4.0025000000000004,-1.2876772970081709,0.51072860113899587
-4.0019999999999998,-0.53009488211223732,-0.3581957480853793
-4.0015000000000001,0.14212613392176898,-0.98339741399025782
-4.0010000000000003,0.57960330308635943,-1.3118932045501492
-4.0004999999999997,0.7503261008097184,-1.513229334248726
-4,0.79300680024041004,-1.6191957183003036
-3.9994999999999998,0.86769802424418851,-1.5556158878692994
-3.9990000000000001,0.99574012253638022,-1.2165234589039415
-3.9984999999999999,0.88903837395955376,-1.0787671596367647
-3.9980000000000002,0.70764540137894905,-0.98339741399025782
-3.9975000000000001,0.54759277851370936,-0.86683439153341613
-3.9969999999999999,0.45156120479456557,-0.70788481545590454
-3.9965000000000002,0.53692260365602662,-0.792657922697244
-3.996,0.81434714995577528,-1.3436831197659505
-3.9954999999999998,0.28083840707164331,-1.7039688255416432
-3.9950000000000001,-0.4980843575391895,-1.1105570748522671
-3.9944999999999999,-1.1062843244271001,-0.13566634157686319
-3.9940000000000002,-0.97824222613490841,0.6590815388106942
-3.9935,-0.55143523182760279,1.0299638829915545
-3.9929999999999999,-0.12462823752029703,0.95578741415538238
-3.9925000000000002,0.16346648363713429,0.61669498519002452
-3.992,0.32351910650237387,0.25640927941433178
-3.9914999999999998,0.38754015564846972,0.023283234500648287
-3.9910000000000001,0.3982103305061524,-0.072086511145858609
-3.9904999999999999,0.3768699807907871,-0.082683149551026042
-3.9900000000000002,0.35552963107542179,-0.029699957525188878
-3.9895,0.31284893164469124,0.023283234500648287
-3.9889999999999999,0.27016823221396069,0.11865298014715518
-3.9885000000000002,0.19547700821018218,0.24581264100916439
-3.988,-0.27401068552785401,0.10805634174198775
-3.9874999999999998,-0.81818960326966872,-0.029699957525188878
-3.9870000000000001,-1.1382948490001481,0.33058574825050385
-3.9864999999999999,-1.4584000947306273,0.69087145402619654
-3.9860000000000002,-1.3837088707268488,0.47893868592284788
-3.9855,-0.74349837926589024,-0.18864953360270037
-3.9849999999999999,-0.028596663801153277,-0.83504447631791379
-3.9845000000000002,0.47290155450993088,-1.3542797581711179
-3.984,0.71831557623663156,-1.6721789103261409
-3.9834999999999998,0.78233662538272752,-1.8523217632139874
-3.9830000000000001,0.81434714995577528,-1.8311284864036526
-3.9824999999999999,1.1131120459708892,-1.42845622700729
-3.9820000000000002,1.1237822208285719,-1.1211537132574345
-3.9815,0.92104889853260175,-1.0257839676109275
-3.9809999999999999,0.69697522652126631,-0.97280077558509037
-3.9805000000000001,0.52625242879834411,-0.86683439153341613
-3.98,0.53692260365602662,-0.89862430674891836
-3.9794999999999998,0.91037872367491923,-1.333086481360783
-3.9790000000000001,0.66496470194821833,-1.0469772444212624
-3.9784999999999999,-0.049937013516518552,-0.26282600243887239
-3.9780000000000002,-0.98891240099259115,0.46834204751768049
-3.9775,-1.6291228924535495,0.98757732937088472
-3.9769999999999999,-1.405049220442214,0.95578741415538238
-3.9765000000000001,-0.81818960326966872,0.54251851635385251
-3.976,-0.26334051067017139,0.10805634174198775
-3.9754999999999998,0.12078578420640371,-0.15685961838719809
-3.9750000000000001,0.32351910650237387,-0.22043944881820265
-3.9744999999999999,0.3982103305061524,-0.14626297998203064
-3.9740000000000002,0.3982103305061524,-0.0085066807148540119
-3.9735,0.35552963107542179,0.16103953376782493
-3.9729999999999999,0.30217875678700862,0.30939247144016896
-3.9725000000000001,0.25949805735627807,0.4471487707073456
-3.972,0.19547700821018218,0.70146809243136399
-3.9714999999999998,-0.071277363231883828,0.92399749893988004
-3.9710000000000001,-0.31669138495858457,0.775644561267536
-3.9704999999999999,-0.54076505696992005,0.87101430691404291
-3.9700000000000002,-0.8928808272734472,0.98757732937088472
-3.9695,-1.2449965975769743,0.88161094531921036
-3.9689999999999999,-0.86087030270039921,0.23521600260399694
-3.9685000000000001,-0.16730893695102761,-0.52774196256805828
-3.968,0.3768699807907871,-1.131750351662602
-3.9674999999999998,0.67563487680590106,-1.4708427806279598
-3.9670000000000001,0.78233662538272752,-1.5662125262744668
-3.9664999999999999,0.77166645052504479,-1.5344226110589645
-3.9660000000000002,0.81434714995577528,-1.3118932045504481
-3.9655,0.80367697509809277,-1.131750351662602
-3.9649999999999999,0.6863050516635838,-1.0363806060160949
-3.9645000000000001,0.55826295337139209,-0.91981758355925325
-3.964,0.47290155450993088,-0.77146464588690922
-3.9634999999999998,0.41955068022151765,-0.55953187778356051
-3.9630000000000001,0.40888050536383502,-0.13566634157686319
-3.9624999999999999,0.94238924824796699,-0.52774196256805828
-3.9620000000000002,0.8997085488172365,-1.0787671596367647
-3.9615,0.067434909917990504,-0.66549826183523486
-3.9609999999999999,-0.72215802955052499,0.044476511310983152
-3.9605000000000001,-0.78617907869662074,0.24581264100916439
-3.96,-0.48741418268150688,0.097459703336820316
-3.9594999999999998,-0.13529841237797968,-0.10387642636136091
-3.9590000000000001,0.13145595906408636,-0.19924617200786782
-3.9584999999999999,0.28083840707164331,-0.19924617200786782
-3.9580000000000002,0.35552963107542179,-0.11447306476652835
-3.9575,0.3768699807907871,-0.0085066807148540119
-3.9569999999999999,0.34485945621773917,0.10805634174198775
-3.9565000000000001,0.30217875678700862,0.19282944898332721
-3.956,0.25949805735627807,0.27760255622466667
-3.9554999999999998,0.19547700821018218,0.50013196273318283
-3.9550000000000001,0.024754210487259936,0.80743447648303834
-3.9544999999999999,-0.44473348325077627,1.0935437134225592
-3.9540000000000002,-0.98891240099259115,1.3266697583362426
-3.9535,-1.3303579964384356,1.4538294191982519
-3.9529999999999998,-1.3943790455845313,1.2736865663104053
-3.9525000000000001,-0.90355100213112993,0.54251851635385251
-3.952,-0.19931946152407554,-0.31580919446470956
-3.9514999999999998,0.35552963107542179,-0.99399405239542526
-3.9510000000000001,0.66496470194821833,-1.3436831197659505
-3.9504999999999999,0.76099627566736228,-1.4708427806279598
-3.9500000000000002,0.75032610080967954,-1.5132293342486296
-3.9495,0.78233662538272752,-1.5450192494641319
-3.9489999999999998,0.92104889853260175,-1.5132293342486296
-3.9485000000000001,0.93171907339028448,-1.2589100125246109
-3.948,0.78233662538272752,-0.97280077558509037
-3.9474999999999998,0.6116138276598051,-0.6972881770507372
-3.9470000000000001,0.49424190422529612,-0.4641621321370536
-3.9464999999999999,0.65429452709053582,-0.48535540894738849
-3.9460000000000002,0.75032610080967954,-1.0257839676109275
-3.9455,0.014084035629577295,-1.5450192494641319
-3.9449999999999998,-0.72215802955052499,-1.2801032893349458
-3.9445000000000001,-1.4157193952998968,-0.40058230170604903
-3.944,-1.437059745015262,0.2246193641988295
-3.9434999999999998,-0.93556152670417769,0.25640927941433178
-3.9430000000000001,-0.38071243410468042,0.012686596095480854
-3.9424999999999999,0.024754210487259936,-0.26282600243887239
-3.9420000000000002,0.25949805735627807,-0.44296885532671876
-3.9415,0.36619980593310447,-0.51714532416289083
-3.9409999999999998,0.3982103305061524,-0.50654868575772338
-3.9405000000000001,0.3768699807907871,-0.4535654937318862
-3.9399999999999999,0.32351910650237387,-0.40058230170604903
-3.9394999999999998,0.27016823221396069,-0.33700247127504446
-3.9390000000000001,0.22748753278323011,-0.20984281041303524
-3.9384999999999999,0.16346648363713429,0.086863064931652884
-3.9380000000000002,-0.30602121010090194,0.51072860113835017
-3.9375,-0.91422117698881245,0.96638405256054982
-3.9369999999999998,-1.1916457232885611,1.2736865663104053
-3.9365000000000001,-1.4263895701575793,1.3478630351465775
-3.9359999999999999,-1.1703053735731959,1.1041403518277266
-3.9355000000000002,-0.51942470725455481,0.39416557868150842
-3.9350000000000001,0.16346648363713429,-0.29461591765437467
-3.9344999999999999,0.60094365280212259,-0.80325456110241145
-3.9340000000000002,0.78233662538272752,-1.1105570748522671
-3.9335,0.80367697509809277,-1.2589100125246109
-3.9329999999999998,0.80367697509809277,-1.1741369052832717
-3.9325000000000001,0.88903837395955376,-0.9092209451540858
-3.9319999999999999,0.79300680024041004,-0.86683439153341613
-3.9315000000000002,0.64362435223285308,-0.792657922697244
-3.931,0.51558225394066137,-0.64430498502489997
-3.9304999999999999,0.43022085507920033,-0.4641621321370536
-3.9300000000000002,0.3768699807907871,-0.24163272562853755
-3.9295,0.36619980593310447,0.044476511310983152
-3.9289999999999998,-0.039266838658835915,0.37297230187117358
-3.9285000000000001,-0.6047861061160158,0.82862775329337313
