Class_3_Grab_w_two_Hands/Class_3_Grab_with_two_hands_Basim_4.csv

#Digilent WaveForms Oscilloscope Acquisition
#Device Name: EExplorer
#Serial Number: SN:210151A2B84A
#Date Time: 2020-11-26 10:35:36.791
#Sample rate: 2000Hz
#Samples: 16384
#Trigger: Source: Channel 1 Type: Edge Condition: Rising Level: 0 V Hyst.: Auto HoldOff: 0 s
#Channel 1: Range: 1 V/div Offset: 0 V Attenuation: 1 X
#Channel 2: Range: 1 V/div Offset: 0 V Attenuation: 1 X
#Power Supplies: ON
#Fixed Supply: ON
#Voltage: 3.3 V Readback: 3.328 V
#Positive Supply: ON
#Voltage: 3.7 V Readback: 3.715 V
#Current: 500 mA Readback: 20 mA
#Negative Supply: ON
#Voltage: -3.7 V Readback: -3.707 V
#Current: -500 mA Readback: -8 mA
#Reference 1: ON
#Voltage: 0 V
#Reference 2: ON
#Voltage: 0 V

Time (s),Channel 1 (V),Channel 2 (V)
-4.096,-1.244996597576974,-1.51322933424863
-4.0955,-0.4980843575398689,-1.152943628473265
-4.095,0.1954770082105413,-0.7078848154554419
-4.0945,0.5902734779444399,-0.1992461720078678
-4.094,0.7076454013788422,0.2564092794139174
-4.0935,0.6969752265211984,0.5637117931643031
-4.093,0.6222840025174878,0.6908714540261965
-4.0925,0.5796033030867962,0.6908714540261965
-4.092,0.7716664505250836,0.7862411996725974
-4.0915,0.8143471499557753,0.6696781772158616
-4.091,0.7289857510943143,0.3941655786815084
-4.0905,0.6222840025174005,0.1080563417417661
-4.09,0.5262524287983441,-0.1356663415768632
-4.0895,0.408880505363835,-0.2204394488182027
-4.089,-0.1246282375198118,0.2458126410087403
-4.0885,-0.9569018764195432,0.9663840525605498
-4.088,-1.735824641030376,1.432636142387917
-4.0875,-2.376035132490752,0.8180311148887648
-4.087,-2.162631635336857,-0.1356663415771716
-4.0865,-1.255666772434657,-0.474758770542221
-4.086,-0.4660738329668597,-0.4323722169215899
-4.0855,0.08877525963363721,-0.2416327256283544
-4.085,0.3982103305061524,-0.04029659593035631
-4.0845,0.5262524287982276,0.1292496185521684
-4.084,0.5475927785136899,0.2564092794144185
-4.0835,0.5262524287983441,0.3517790250608387
-4.083,0.4942419042252961,0.4259554938970107
-4.0825,0.4622313796522288,0.4683420475177094
-4.082,0.4408910299368829,0.5001319627331828
-4.0815,0.4302208550792003,0.5001319627331828
-4.081,0.142126133922031,0.1716361721732911
-4.0805,-0.658136980404429,-0.6337083466197325
-4.08,-1.373038695869166,-1.396666311791788
-4.0795,-1.511750969018914,-1.756952017567153
-4.079,-0.8928808272727679,-1.470842780627478
-4.0785,-0.1459685872356623,-0.9410108603695881
-4.078,0.3768699807903116,-0.3581957480859093
-4.0775,0.6009436528021711,0.1610395337681237
-4.077,0.6542945270905358,0.4895353243280153
-4.0765,0.6222840025175169,0.6272916235950667
-4.076,0.5689331282292105,0.5955017083797571
-4.0755,0.7183155762366316,0.6696781772158616
-4.075,0.8676980242441885,0.6802748156210291
-4.0745,0.803676975097986,0.4471487707070854
-4.074,0.6863050516635838,0.1610395337678249
-4.0735,0.5689331282290746,-0.09327978795619347
-4.073,0.4835717293676911,-0.2628260024387182
-4.0725,0.07810508477567314,0.01268659609548085
-4.072,-0.722158029550525,0.7226613692416989
-4.0715,-1.319687821580209,1.326669758335693
-4.071,-1.671803591884416,1.040560521395797
-4.0705,-1.821186039891837,0.02328323450064829
-4.07,-1.298347471865863,-0.4853554089469259
-4.0695,-0.5941159312578287,-0.4959520473523728
-4.069,-0.03926683865883591,-0.2946159176543747
-4.0685,0.3128489316446912,-0.06148987274069118
-4.068,0.4729015545099794,0.139846256957625
-4.0675,0.5262524287983441,0.2881991946298341
-4.067,0.5262524287983441,0.3941655786815084
-4.0665,0.4942419042252767,0.4577454091125516
-4.066,0.4729015545099309,0.5001319627331828
-4.0655,0.4515612047945656,0.5213252395435176
-4.065,0.4408910299368927,0.5107286011383598
-4.0645,0.3128489316446912,0.3517790250608387
-4.064,-0.3807124341046804,-0.3581957480853793
-4.0635,-1.148965023857132,-1.17413690528253
-4.063,-1.735824641030104,-1.767548655972609
-4.0625,-1.437059745015262,-1.725162102351978
-4.062,-0.6261264558321188,-1.227120097309562
-4.0615,0.09944543449140721,-0.6337083466192025
-4.061,0.5049120790829789,-0.05089323433552374
-4.0605,0.6542945270905358,0.3729723018711736
-4.06,0.6649647019481795,0.5955017083797185
-4.0595,0.6222840025174878,0.627291623595192
-4.059,0.6436243522328531,0.5955017083796896
-4.0585,0.8036769750979472,0.5849050699745318
-4.058,0.7823366253827275,0.4259554938970107
-4.0575,0.6863050516635838,0.2140227257936621
-4.057,0.5796033030868544,-0.008506680714651632
-4.0565,0.5049120790829789,-0.1992461720078678
-4.056,0.2488278824985954,-0.1144730647665284
-4.0555,-0.519424707253856,0.5107286011377814
-4.055,-1.106284324427372,1.188913459069191
-4.0545,-1.405049220442214,1.326669758336243
-4.054,-1.714484291314729,0.478938685923619
-4.0535,-1.405049220441622,-0.2840192792494
-4.053,-0.754168554123573,-0.4959520473525559
-4.0525,-0.1673089369510276,-0.4217755785163839
-4.052,0.2274875327834242,-0.2522293640335412
-4.0515,0.4408910299368829,-0.07208651114585861
-4.051,0.5155822539406614,0.08686306493165288
-4.0505,0.5262524287983344,0.2140227257935464
-4.05,0.5049120790829789,0.309392471440169
-4.0495,0.4729015545099309,0.3941655786815084
-4.049,0.4622313796522579,0.4471487707072974
-4.0485,0.4515612047945268,0.4895353243279864
-4.048,0.408880505363835,0.457745409112513
-4.0475,-0.1139580626621389,-0.07208651114537679
-4.047,-1.010252750708655,-0.8774310299391906
-4.0465,-1.778505340461106,-1.545019249464132
-4.046,-1.75716499074576,-1.65098563351571
-4.0455,-0.9355615267034207,-1.195330182093105
-4.045,-0.1032878878049318,-0.6443049850249
-4.0445,0.4302208550792003,-0.09327978795619347
-4.044,0.6436243522329016,0.3729723018714338
-4.0435,0.6969752265212663,0.6590815388106942
-4.043,0.6649647019482183,0.7650479228623686
-4.0425,0.6116138276598536,0.7120647308365796
-4.042,0.7609962756673623,0.3729723018711736
-4.0415,0.79300680024041,0.08686306493165288
-4.041,0.7076454013790267,-0.05089323433539847
-4.0405,0.6116138276597275,-0.1568596183872945
-4.04,0.5262524287983441,-0.2628260024388724
-4.0395,0.4302208550792876,-0.3052125560595036
-4.039,-0.1139580626634005,0.1398462569581357
-4.0385,-0.9782422261349084,0.849821030103708
-4.038,-1.607782542737612,1.326669758335809
-4.0375,-2.045259711903163,0.839224391697625
-4.037,-2.03458953704549,-0.1674562567923655
-4.0365,-1.287677297007705,-0.5807251545938954
-4.036,-0.530094882111723,-0.5701285161885641
-4.0355,0.03542438534494258,-0.3899856633008816
-4.035,0.3661998059331045,-0.1780528951975329
-4.0345,0.5155822539405255,0.00208995769014958
-4.034,0.5475927785137094,0.1504428953626575
-4.0335,0.5262524287983441,0.2564092794143318
-4.033,0.4942419042253252,0.3411823866555941
-4.0325,0.4729015545099114,0.3941655786815469
-4.032,0.4515612047945656,0.4365521323021782
-4.0315,0.4408910299368927,0.4577454091124938
-4.031,0.1741366584941473,0.1928294489826333
-4.0305,-0.5621054066852853,-0.570128516188728
-4.03,-1.042263275280567,-1.333086481360089
-4.0295,-1.159635198715047,-1.703968825541431
-4.029,-0.6474668055467465,-1.47084278062796
-4.0285,0.01408403562957729,-0.9728007755850904
-4.028,0.4835717293677979,-0.4323722169210791
-4.0275,0.6863050516635838,0.08686306493165288
-4.027,0.707645401378949,0.4471487707073456
-4.0265,0.6542945270905843,0.637888262000186
-4.026,0.5796033030867573,0.6696781772158616
-4.0255,0.6756348768059011,0.4471487707073456
-4.025,0.8036769750979763,0.1080563417422962
-4.0245,0.7609962756672652,-0.04029659593042377
-4.024,0.6542945270905358,-0.1144730647665284
-4.0235,0.5582629533714795,-0.1780528951974751
-4.023,0.4835717293672545,-0.241632725628258
-4.0225,0.08877525963335578,0.06566978812131802
-4.022,-0.7008176798344417,0.7650479228617326
-4.0215,-1.202315898146525,1.305476481525619
-4.021,-1.51175096901904,0.9875773293708847
-4.0205,-1.757164990745741,-0.06148987274069118
-4.02,-1.341028171295507,-0.6654982618352637
-4.0195,-0.6688071552621118,-0.6972881770507372
-4.019,-0.1032878878049318,-0.4959520473525559
-4.0185,0.270168232213621,-0.2522293640339267
-4.018,0.4622313796522482,-0.04029659593035631
-4.0175,0.5262524287983441,0.1080563417419877
-4.017,0.5262524287983441,0.2246193641987235
-4.0165,0.5049120790829594,0.2987958330350498
-4.016,0.4835717293676135,0.3517790250608387
-4.0155,0.4622313796522676,0.3941655786814698
-4.015,0.4408910299368053,0.4047622170865891
-4.0145,0.3555296310754218,0.309392471440169
-4.014,-0.2633405106696085,-0.3264058328692988
-4.0135,-0.8715404775582664,-1.131750351663122
-4.013,-1.074273799854052,-1.703968825541643
-4.0125,-0.7114878546928423,-1.619195718300304
-4.012,-0.07127736323142772,-1.163540266877603
-4.0115,0.4302208550792003,-0.6125150698093976
-4.011,0.6649647019482183,-0.05089323433552374
-4.0105,0.7076454013789102,0.3941655786811036
-4.01,0.6649647019482183,0.6378882620003594
-4.0095,0.5902734779444399,0.7120647308365314
-4.009,0.6116138276597857,0.7120647308365314
-4.0085,0.8143471499557753,0.7756445612674011
-4.008,0.8143471499557753,0.627291623595192
-4.0075,0.7076454013790461,0.3729723018714049
-4.007,0.600943652802045,0.1186529801469624
-4.0065,0.5155822539406614,-0.09327978795619347
-4.006,0.2594980573562781,-0.05089323433552374
-4.0055,-0.5300948821129167,0.54251851635445
-4.005,-1.277007122150022,1.199510097474233
-4.0045,-1.650463242168915,1.347863035146577
-4.004,-1.949228138183806,0.4577454091116939
-4.0035,-1.703814116457328,-0.4429688553267188
-4.003,-0.9782422261349084,-0.6760949002404023
-4.0025,-0.3060212101015133,-0.5489352393785087
-4.002,0.1634664836371343,-0.3158091944647096
-4.0015,0.4195506802215176,-0.1038764263613609
-4.001,0.5262524287982471,0.07626642652632162
-4.0005,0.5369226036560072,0.2034260873885718
-4,0.5155822539406614,0.2881991946298341
-3.9995,0.4835717293676135,0.3517790250608387
-3.999,0.4622313796522482,0.3941655786815084
-3.9985,0.4515612047945656,0.4153588554918433
-3.998,0.4195506802215176,0.3941655786815084
-3.9975,-0.06060718837420119,-0.1144730647665284
-3.997,-0.8608703027003992,-0.9410108603695881
-3.9965,-1.597112367880501,-1.629792356705471
-3.996,-1.735824641030376,-1.75695201756748
-3.9955,-1.020922925565639,-1.301296566145281
-3.995,-0.2206598112394408,-0.718481453861072
-3.9945,0.3341892813600565,-0.1462629799820306
-3.994,0.5902734779444399,0.3199891098453364
-3.9935,0.6542945270905358,0.5849050699745222
-3.993,0.6436243522328531,0.6802748156210291
-3.9925,0.6009436528021226,0.6590815388106942
-3.992,0.7823366253827275,0.7438546460520338
-3.9915,0.8356874996711408,0.6378882620003594
-3.991,0.7503261008096795,0.3623756634660061
-3.9905,0.6329541773751706,0.07626642652648545
-3.99,0.5369226036560266,-0.1568596183871981
-3.9895,0.4302208550792003,-0.2734226408440398
-3.989,-0.1352984123779797,0.1716361721729923
-3.9885,-0.839529952985034,0.9028042221295453
-3.988,-1.383708870726849,1.263089927905238
-3.9875,-1.885207089037933,0.5743084315693548
-3.987,-1.895877263895616,-0.3899856633008816
-3.9865,-1.212986073003927,-0.6760949002404023
-3.986,-0.4874141826815069,-0.5595318777835605
-3.9855,0.05676473506030786,-0.2946159176543747
-3.985,0.3661998059331045,-0.04029659593035631
-3.9845,0.5049120790829789,0.1504428953626575
-3.984,0.5475927785137094,0.2987958330350016
-3.9835,0.5262524287983441,0.3941655786815084
-3.983,0.5049120790829789,0.457745409112513
-3.9825,0.4729015545099309,0.5001319627331828
-3.982,0.4622313796522482,0.5319218779486851
-3.9815,0.4515612047945656,0.5319218779486851
-3.981,0.1954770082101822,0.2564092794143318
-3.9805,-0.5834457564006506,-0.5383386009732256
-3.98,-1.298347471865388,-1.333086481360783
-3.9795,-1.618452717595867,-1.767548655972648
-3.979,-1.06360362499637,-1.545019249464132
-3.9785,-0.2633405106701714,-1.068170521231597
-3.978,0.3341892813600565,-0.5277419625680583
-3.9775,0.6329541773751706,-0.008506680714854012
-3.977,0.6969752265212663,0.3517790250608387
-3.9765,0.6649647019482183,0.5319218779486851
-3.976,0.6009436528021226,0.55311515475902
-3.9755,0.6756348768059011,0.3517790250608387
-3.975,0.79300680024041,0.02328323450064829
-3.9745,0.7503261008096795,-0.1250697031716958
-3.974,0.6542945270905358,-0.2098428104130352
-3.9735,0.5582629533713921,-0.2734226408440398
-3.973,0.4942419042252961,-0.326405832869877
-3.9725,0.1848068333524996,-0.06148987274069118
-3.972,-0.572775581542968,0.6484849004055269
-3.9715,-1.1062843244271,1.25249328950007
-3.971,-1.394379045584531,1.019367244586387
-3.9705,-1.661133417026597,0.002089957690313421
-3.97,-1.298347471865388,-0.5913217929990628
-3.9695,-0.6474668055467465,-0.6231117082145651
-3.969,-0.09261771294724913,-0.4217755785163839
-3.9685,0.2701682322139607,-0.1780528951975329
-3.968,0.4622313796522482,0.03387987290581572
-3.9675,0.5262524287983441,0.2034260873884947
-3.967,0.5262524287983441,0.3199891098453364
-3.9665,0.5049120790829789,0.3941655786815084
-3.966,0.4835717293676135,0.4471487707073456
-3.9655,0.4622313796522482,0.4895353243280153
-3.965,0.4515612047945656,0.5107286011383502
-3.9645,0.3555296310754218,0.3941655786815084
-3.964,-0.3166913849585846,-0.2734226408440398
-3.9635,-1.020922925565639,-1.0999604364471
-3.963,-1.277007122150022,-1.672178910326141
-3.9625,-0.8502001278427167,-1.545019249464132
-3.962,-0.124628237520297,-1.184733543688439
-3.9615,0.4302208550792003,-0.7290780922662394
-3.961,0.707645401378949,-0.2098428104130352
-3.9605,0.7503261008096795,0.2034260873884947
-3.96,0.6969752265212663,0.4471487707073456
-3.9595,0.6116138276598051,0.5319218779486851
-3.959,0.5902734779444399,0.5001319627331828
-3.9585,0.7503261008096795,0.3941655786815084
-3.958,0.7609962756673623,0.2564092794143318
-3.9575,0.6756348768059011,0.1292496185523226
-3.957,0.5902734779444399,0.002089957690313421
-3.9565,0.5155822539406614,-0.1038764263613609
-3.956,0.3661998059331045,-0.06148987274069118
-3.9555,-0.2846808603855366,0.5001319627331828
-3.955,-1.170305373573196,1.178316820663898
-3.9545,-1.863866739322568,1.506812611224089
-3.954,-2.354694782775969,0.7332580076468663
-3.9535,-1.895877263895616,-0.1144730647665284
-3.953,-1.020922925565639,-0.3899856633008816
-3.9525,-0.2953510352432193,-0.3370024712750445
-3.952,0.1954770082101822,-0.1886495336027004
-3.9515,0.4515612047945656,-0.01910331912002144
-3.951,0.5475927785137094,0.1292496185523226
-3.9505,0.5475927785137094,0.2352160026039969
-3.95,0.5262524287983441,0.3199891098453364
-3.9495,0.4942419042252961,0.3729723018711736
-3.949,0.4622313796522482,0.4047622170866759
-3.9485,0.4515612047945656,0.4259554938970107
-3.948,0.4302208550792003,0.3941655786815084
-3.9475,-0.02859666380115328,-0.08268314955102604
-3.947,-0.7861790786966207,-0.9092209451540858
-3.9465,-1.223656247861609,-1.629792356705471
-3.946,-1.1062843244271,-1.809935209593318
-3.9455,-0.4554036581084589,-1.481439419033127
-3.945,0.2061471830678648,-1.01518732920576
-3.9445,0.6009436528021226,-0.474758770542221
-3.944,0.7289857510943143,0.05507314971615059
-3.9435,0.707645401378949,0.3941655786815084
-3.943,0.6436243522328531,0.5637117931641874
-3.9425,0.5796033030867573,0.5637117931641874
-3.942,0.7396559259519968,0.2564092794143318
-3.9415,0.8143471499557753,0.002089957690313421
-3.941,0.7396559259519968,-0.08268314955102604
-3.9405,0.6329541773751706,-0.1144730647665284
-3.94,0.5475927785137094,-0.1462629799820306
-3.9395,0.4302208550792003,-0.1356663415768632
-3.939,-0.1779791118087102,0.3517790250608387
-3.9385,-1.06360362499637,1.051157159801889
-3.938,-1.607782542738184,1.506812611224089
-3.9375,-1.959898313041711,0.9451907757502149
-3.937,-1.895877263895616,-0.09327978795619347
-3.9365,-1.180975548430879,-0.5277419625680583
-3.936,-0.4554036581084589,-0.5277419625680583
-3.9355,0.07810508477567314,-0.3475991096802118
-3.935,0.3768699807907871,-0.1568596183871981
-3.9345,0.5155822539406614,0.02328323450064829
-3.934,0.5475927785137094,0.1504428953626575
-3.9335,0.5262524287983441,0.2458126410091644
-3.933,0.5049120790829789,0.3199891098453364
-3.9325,0.4729015545099309,0.3623756634660061
-3.932,0.4515612047945656,0.3941655786815084
-3.9315,0.4515612047945656,0.4047622170866759
-3.931,0.2381577076409128,0.1610395337678249
-3.9305,-0.4660738329661415,-0.5913217929990628
-3.93,-1.042263275281004,-1.364876396576285
-3.9295,-1.437059745015262,-1.778145294377815
-3.929,-1.010252750707956,-1.492036057438295
-3.9285,-0.2526703358124887,-1.01518732920576
-3.928,0.3448594562177392,-0.5065486857577234
-3.9275,0.6329541773751706,0.002089957690313421
-3.927,0.707645401378949,0.4047622170866759
-3.9265,0.6756348768059011,0.627291623595192
-3.926,0.6116138276598051,0.6696781772158616
-3.9255,0.6436243522328531,0.7226613692416989
-3.925,0.7396559259519968,0.7332580076468663
-3.9245,0.707645401378949,0.5107286011383502
-3.924,0.6222840025174878,0.2140227257936621
-3.9235,0.5475927785137094,-0.05089323433552374
-3.923,0.4942419042252961,-0.252229364033705
-3.9225,0.1954770082101822,-0.08268314955102604
-3.922,-0.5941159312583333,0.5849050699745222
-3.9215,-1.202315898146244,1.231300012689736
-3.921,-1.51175096901904,1.093543713422559
-3.9205,-1.757164990745741,0.07626642652648545
-3.92,-1.362368521011484,-0.570128516188728
-3.9195,-0.7008176798351597,-0.6337083466197325
-3.919,-0.1139580626626144,-0.4323722169215513
-3.9185,0.2701682322139607,-0.1780528951975329
-3.918,0.4622313796522482,0.03387987290581572
-3.9175,0.5369226036560266,0.2034260873884947
-3.917,0.5369226036560266,0.3199891098453364
-3.9165,0.5155822539406614,0.4047622170866759
-3.916,0.4835717293676135,0.457745409112513
-3.9155,0.4622313796522482,0.5001319627331828
-3.915,0.4515612047945656,0.5213252395435176
-3.9145,0.3661998059331045,0.4153588554918433
-3.914,-0.2846808603855366,-0.2310360872233701
-3.9135,-1.084943974711735,-1.05757388282643
-3.913,-1.51175096901904,-1.682775548731308
-3.9125,-1.234326422719292,-1.735758740757146
-3.912,-0.4660738329661415,-1.322489842955616
-3.9115,0.1954770082101822,-0.7396747306714069
-3.911,0.5689331282290746,-0.1462629799820306
-3.9105,0.6969752265212663,0.309392471440169
-3.91,0.6969752265212663,0.5849050699745222
-3.9095,0.6436243522328531,0.6696781772158616
-3.909,0.6222840025174878,0.5955017083796896
-3.9085,0.7823366253827275,0.5107286011383502
-3.908,0.7823366253827275,0.3623756634660061
-3.9075,0.6863050516635838,0.1822328105781598
-3.907,0.5902734779444399,0.002089957690313421
-3.9065,0.5155822539406614,-0.1568596183871981
-3.906,0.3768699807907871,-0.1674562567923655
-3.9055,-0.2633405106701714,0.383568940276341
-3.905,-1.010252750707956,1.072350436612224
-3.9045,-1.458400094730627,1.241896651094903
-3.904,-1.83185621474952,0.3941655786815084
-3.9035,-1.661133417026597,-0.4641621321370536
-3.903,-0.9782422261349084,-0.6866915386455698
-3.9025,-0.3166913849585846,-0.570128516188728
-3.902,0.1527963087794516,-0.3370024712750445
-3.9015,0.408880505363835,-0.1250697031716958
-3.901,0.5155822539406614,0.04447651131098315
-3.9005,0.5475927785137094,0.1822328105781598
-3.9,0.5262524287983441,0.2670059178194992
-3.8995,0.4942419042252961,0.3305857482505039
-3.899,0.4729015545099309,0.3729723018711736
-3.8985,0.4515612047945656,0.4047622170866759
-3.898,0.4408910299368829,0.4047622170866759
-3.8975,0.02475421048725994,-0.01910331912002144
-3.897,-0.7861790786966207,-0.8244478379127463
-3.8965,-1.30901764672307,-1.534422611058964
-3.896,-1.287677297007705,-1.746355379162313
-3.8955,-0.6367966306890638,-1.354279758171118
-3.895,0.05676473506030786,-0.8138511995075789
-3.8945,0.4942419042252961,-0.2310360872233701
-3.894,0.6649647019482183,0.2670059178194992
-3.8935,0.6756348768059011,0.55311515475902
-3.893,0.6329541773751706,0.6590815388106942
-3.8925,0.5689331282290746,0.6378882620003594
-3.892,0.7396559259519968,0.309392471440169
-3.8915,0.8463576745288233,0.01268659609548085
-3.891,0.7823366253827275,-0.09327978795619347
-3.8905,0.6542945270905358,-0.1356663415768632
-3.89,0.5582629533713921,-0.1780528951975329
-3.8895,0.4622313796522482,-0.2098428104130352
-3.889,-0.03926683865883591,0.2034260873884947
-3.8885,-0.9248913518464952,0.9028042221295453
-3.888,-1.725154466172693,1.475022696008586
-3.8875,-2.301343908487556,1.135930267043229
-3.887,-2.301343908487556,0.09745970333682032
-3.8865,-1.447729919872945,-0.4217755785163839
