Class_3_Grab_w_two_Hands/Class_3_Grab_with_Two_Hands_Suko_4.csv

#Digilent WaveForms Oscilloscope Acquisition
#Device Name: EExplorer
#Serial Number: SN:210151A2B84A
#Date Time: 2020-12-15 14:12:09.487
#Sample rate: 2000Hz
#Samples: 16384
#Trigger: Source: Channel 1 Type: Edge Condition: Rising Level: 0 V Hyst.: Auto HoldOff: 0 s
#Channel 1: Range: 1 V/div Offset: 0 V Attenuation: 1 X
#Channel 2: Range: 1 V/div Offset: 0 V Attenuation: 1 X
#Power Supplies: ON
#Fixed Supply: ON
#Voltage: 3.3 V Readback: 3.326 V
#Positive Supply: ON
#Voltage: 3.7 V Readback: 3.715 V
#Current: 40 mA Readback: 19 mA
#Negative Supply: ON
#Voltage: -3.7 V Readback: -3.343 V
#Current: -40 mA Readback: -7 mA
#Reference 1: ON
#Voltage: 0 V
#Reference 2: ON
#Voltage: 0 V

Time (s),Channel 1 (V),Channel 2 (V)
-4.096,-0.9142211769888124,0.5213252395435176
-4.0955,-0.06060718837497758,-0.1250697031711079
-4.095,0.4729015545101444,-0.6443049850251699
-4.0945,0.707645401378949,-0.9410108603695881
-4.094,0.7183155762366219,-0.9833974139902193
-4.0935,0.6436243522327463,-0.9410108603694243
-4.093,0.5262524287983441,-0.7608680074817418
-4.0925,0.5796033030867088,-0.7396747306714262
-4.092,0.632954177375093,-0.686691538645377
-4.0915,0.5475927785137094,-0.474758770542221
-4.091,0.4302208550792003,-0.2310360872233701
-4.0905,0.3448594562177197,-0.02969995752505395
-4.09,0.3235191065023739,0.1186529801471552
-4.0895,0.7183155762366316,0.2987958330350016
-4.089,0.6649647019482668,0.6802748156206821
-4.0885,-0.1993194615240755,1.082947075017392
-4.088,-1.084943974711735,1.316073119931075
-4.0875,-1.618452717595382,1.347863035146549
-4.087,-1.341028171295604,0.8074344764824023
-4.0865,-0.7755089038389382,0.1080563417419877
-4.086,-0.2633405106706372,-0.4111789401107442
-4.0855,0.06743490991815548,-0.7078848154559912
-4.085,0.2488278824985954,-0.8032545611024114
-4.0845,0.312848931644633,-0.7714646458869381
-4.084,0.3235191065023448,-0.6654982618351096
-4.0835,0.291508581929326,-0.5277419625680583
-4.083,0.2381577076409128,-0.3475991096802118
-4.0825,0.1954770082101531,-0.1674562567921631
-4.082,0.1634664836371343,0.05507314971615059
-4.0815,-0.1139580626626144,0.4153588554918433
-4.081,-0.7968492535536824,0.8816109453187864
-4.0805,-1.543761493592088,1.263089927905238
-4.08,-1.981238662757077,1.37965295036208
-4.0795,-1.244996597577644,0.9663840525609257
-4.079,-0.3593720843887232,0.1822328105775237
-4.0785,0.291508581929326,-0.5171453241628908
-4.078,0.622284002517187,-0.9198175835588871
-4.0775,0.6969752265212081,-1.046977244421195
-4.077,0.6329541773751706,-0.9728007755850904
-4.0765,0.5155822539407682,-0.7926579226974079
-4.076,0.5155822539408167,-0.6760949002404505
-4.0755,0.6863050516635838,-0.7290780922662394
-4.075,0.6542945270905358,-0.5383386009732256
-4.0745,0.5262524287982373,-0.2628260024386411
-4.074,0.408880505363835,-0.008506680714854012
-4.0735,0.3235191065023739,0.1928294489833272
-4.073,0.5475927785135055,0.4259554938967987
-4.0725,1.017080472251745,0.8180311148882058
-4.072,0.4729015545099309,1.199510097474233
-4.0715,-0.4980843575383065,1.400846227172232
-4.071,-1.287677297007715,1.453829419197818
-4.0705,-1.298347471865388,0.9769806909657173
-4.07,-0.8502001278431243,0.2564092794149871
-4.0695,-0.3593720843889949,-0.326405832870195
-4.069,-0.007256314085787988,-0.6760949002404023
-4.0685,0.1954770082101822,-0.8032545611024114
-4.068,0.2915085819293454,-0.7926579226971573
-4.0675,0.3128489316446912,-0.6972881770507372
-4.067,0.3021787567870086,-0.570128516188728
-4.0665,0.2594980573562393,-0.4111789401110527
-4.066,0.2168173579255475,-0.2310360872233701
-4.0655,0.1848068333524996,-0.04029659593035631
-4.065,0.04609456020275138,0.2776025562243776
-4.0645,-0.5407650569699201,0.7438546460520338
-4.064,-1.277007122150022,1.167720182258731
-4.0635,-1.938557963325744,1.400846227172203
-4.063,-1.56510184330658,1.029963882991053
-4.0625,-0.6047861061160158,0.4789386859228479
-4.062,0.1634664836364355,-0.1144730647659887
-4.0615,0.6009436528022585,-0.5595318777837918
-4.061,0.7503261008096795,-0.8138511995075789
-4.0605,0.7183155762366316,-0.8774310299385835
-4.06,0.6009436528020352,-0.7608680074815779
-4.0595,0.5049120790829789,-0.5807251545938954
-4.059,0.6436243522328531,-0.400582301706049
-4.0585,0.6329541773751802,-0.2204394488183665
-4.058,0.5262524287983441,-0.06148987274069118
-4.0575,0.4195506802215176,0.07626642652648545
-4.057,0.3341892813601341,0.1716361721729056
-4.0565,0.3555296310754218,0.2458126410091644
-4.056,0.7823366253827275,0.3941655786815084
-4.0555,0.4622313796525394,0.7862411996723468
-4.055,-0.4447334832515332,1.104140351827823
-4.0545,-1.277007122150022,1.210106735879401
-4.054,-1.511750969018827,1.029963882991718
-4.0535,-1.08494397471124,0.4047622170861169
-4.053,-0.5407650569699201,-0.2098428104130352
-4.0525,-0.1139580626626144,-0.6231117082145651
-4.052,0.1527963087795681,-0.8138511995076174
-4.0515,0.2808384070716433,-0.8562377531282487
-4.051,0.3128489316446912,-0.792657922697244
-4.0505,0.3128489316446912,-0.6866915386456661
-4.05,0.2808384070716433,-0.5383386009732256
-4.0495,0.2381577076409128,-0.3687923864905467
-4.049,0.195477008210221,-0.1886495336028642
-4.0485,0.1421261339213517,0.04447651131138793
-4.048,-0.3166913849585846,0.4895353243280153
-4.0475,-1.042263275280344,0.976980690965274
-4.047,-1.757164990745809,1.326669758336262
-4.0465,-1.83185621474952,1.347863035146577
-4.046,-0.9462317015626659,0.8710143069144767
-4.0455,-0.1352984123775236,0.1292496185518311
-4.045,0.3661998059331045,-0.4111789401112165
-4.0445,0.5796033030867573,-0.7078848154559045
-4.044,0.6009436528020644,-0.8456411147231006
-4.0435,0.5369226036560266,-0.8668343915334161
-4.043,0.4515612047945656,-0.7714646458869092
-4.0425,0.5796033030866409,-0.8244478379126982
-4.042,0.707645401378949,-0.8138511995075789
-4.0415,0.6329541773751706,-0.5489352393783931
-4.041,0.4942419042254222,-0.2310360872236592
-4.0405,0.3875401556484309,0.0444765113111759
-4.04,0.3448594562177392,0.2564092794143318
-4.0395,0.7396559259516378,0.2564092794143318
-4.039,0.9423892482472682,0.3729723018715109
-4.0385,0.1741366584948169,0.7438546460520338
-4.038,-0.7541685541227288,0.5637117931643513
-4.0375,-1.426389570157482,0.3093924714399666
-4.037,-1.319687821580753,0.08686306493165288
-4.0365,-0.8288597781273515,-0.2416327256285375
-4.036,-0.327361559815947,-0.4853554089475234
-4.0355,0.02475421048725994,-0.6337083466197325
-4.035,0.2168173579255475,-0.6760949002404023
-4.0345,0.302178756786931,-0.6654982618352445
-4.034,0.3128489316446912,-0.6125150698093976
-4.0335,0.3021787567870086,-0.5383386009732256
-4.033,0.2594980573563169,-0.4323722169216477
-4.0325,0.2168173579255281,-0.3052125560594168
-4.032,0.1954770082101822,-0.1674562567923655
-4.0315,-0.04993701351629534,0.09745970333657941
-4.031,-0.7328282044088771,0.6166949851904486
-4.0305,-1.46907026958831,1.082947075017392
-4.03,-1.959898313041265,1.294879843120547
-4.0295,-1.24499659757614,1.06175379820645
-4.029,-0.3273615598162672,0.3941655786815084
-4.0285,0.3235191065023739,-0.2628260024388724
-4.028,0.6436243522329016,-0.6654982618353987
-4.0275,0.6969752265212663,-0.8456411147230812
-4.027,0.6222840025174878,-0.8774310299385835
-4.0265,0.5049120790830857,-0.8138511995076367
-4.026,0.4835717293676135,-0.7502713690765743
-4.0255,0.5902734779444399,-0.792657922697244
-4.025,0.5475927785137482,-0.6125150698095615
-4.0245,0.4515612047944879,-0.3475991096799805
-4.024,0.3661998059331045,-0.09327978795619347
-4.0235,0.3128489316447398,0.1080563417418046
-4.023,0.5262524287988002,0.2140227257938837
-4.0225,1.027750647109428,0.457745409112513
-4.022,0.5689331282294918,0.8816109453188248
-4.0215,-0.3380317346746777,1.072350436612272
-4.021,-1.138294849000148,1.125333628638062
-4.0205,-1.341028171296118,0.9028042221295453
-4.02,-0.9569018764190967,0.3199891098448353
-4.0195,-0.4660738329661415,-0.2310360872233701
-4.019,-0.07127736323188383,-0.570128516188728
-4.0185,0.1634664836369208,-0.7184814538609371
-4.018,0.2808384070716433,-0.718481453861072
-4.0175,0.3128489316446912,-0.6443049850249
-4.017,0.3021787567870183,-0.5171453241630065
-4.0165,0.2701682322139219,-0.3687923864903925
-4.016,0.2274875327832301,-0.1992461720078678
-4.0155,0.1848068333525384,-0.01910331912018529
-4.015,0.06743490991747617,0.2246193641992343
-4.0145,-0.4980843575391895,0.6696781772158616
-4.014,-1.255666772433968,1.104140351827331
-4.0135,-1.927887788468324,1.369056311956855
-4.013,-1.554431668449771,1.305476481525908
-4.0125,-0.6261264558313813,0.7544512844572011
-4.012,0.09944543449140721,-0.04029659593089602
-4.0115,0.5049120790829789,-0.6337083466197325
-4.011,0.6329541773751706,-0.9939940523954253
-4.0105,0.6116138276598245,-1.06817052123153
-4.01,0.5262524287983441,-0.9833974139902578
-4.0095,0.4515612047945656,-0.8244478379127463
-4.009,0.6116138276596595,-0.8562377531282198
-4.0085,0.6329541773750832,-0.7078848154556346
-4.008,0.5369226036560266,-0.4111789401112165
-4.0075,0.4195506802216244,-0.1356663415771138
-4.007,0.3448594562177586,0.1080563417420745
-4.0065,0.3661998059331045,0.2034260873884947
-4.006,0.8356874996711408,-0.2098428104130352
-4.0055,0.771666450524249,-0.5065486857574053
-4.005,-0.1032878878049318,-0.1568596183871981
-4.0045,-1.010252750707956,0.2352160026039969
-4.004,-1.533091318734153,0.5955017083794872
-4.0035,-1.255666772434657,0.3729723018711736
-4.003,-0.7114878546928423,-0.06148987274069118
-4.0025,-0.2313299860975602,-0.4535654937315296
-4.002,0.07810508477567314,-0.7078848154559045
-4.0015,0.2488278824985954,-0.8138511995075789
-4.001,0.312848931644633,-0.8244478379127367
-4.0005,0.3235191065023448,-0.7820612842919898
-4,0.291508581929326,-0.6866915386455698
-3.9995,0.2488278824985954,-0.5595318777835605
-3.999,0.2061471830678648,-0.400582301706049
-3.9985,0.1634664836371343,-0.2204394488182027
-3.998,-0.2420001609548061,0.1928294489833272
-3.9975,-0.9782422261349084,0.7544512844572011
-3.997,-1.714484291315011,1.199510097474233
-3.9965,-1.885207089037933,1.231300012689736
-3.996,-0.9889124009925911,0.8180311148882058
-3.9955,-0.1352984123779797,0.1610395337678249
-3.995,0.4408910299368829,-0.474758770542221
-3.9945,0.6863050516635838,-0.8244478379127463
-3.994,0.6969752265212663,-0.9092209451540858
-3.9935,0.6222840025174878,-0.8244478379127463
-3.993,0.5155822539406614,-0.6760949002404023
-3.9925,0.5689331282290746,-0.6866915386455698
-3.992,0.6436243522328531,-0.6760949002404023
-3.9915,0.5689331282290746,-0.4641621321370536
-3.991,0.4622313796522482,-0.1886495336027004
-3.9905,0.3661998059331045,0.06566978812131802
-3.99,0.3341892813600565,0.2670059178194992
-3.9895,0.7183155762366316,0.4789386859228479
-3.989,0.825017324813458,0.8286277532933731
-3.9885,0.00341386077189465,1.178316820663898
-3.988,-0.8502001278427167,1.347863035146577
-3.9875,-1.458400094730627,1.390249588767247
-3.987,-1.319687821580753,0.9028042221295453
-3.9865,-0.7968492535543035,0.2246193641988295
-3.986,-0.3060212101009019,-0.3158091944647096
-3.9855,0.04609456020262521,-0.6125150698093976
-3.985,0.2274875327832301,-0.7078848154559045
-3.9845,0.3021787567870086,-0.6760949002404023
-3.984,0.3235191065023739,-0.570128516188728
-3.9835,0.3021787567870086,-0.4323722169215513
-3.983,0.2488278824985954,-0.2628260024388724
-3.9825,0.2061471830678648,-0.09327978795619347
-3.982,0.1741366584948169,0.09745970333682032
-3.9815,-0.03926683865883591,0.3729723018711736
-3.981,-0.6474668055467465,0.8286277532933731
-3.9805,-1.30901764672307,1.210106735879401
-3.98,-1.799845690176472,1.400846227172415
-3.9795,-1.255666772434657,1.220703374284568
-3.979,-0.4340633083930936,0.6802748156210291
-3.9785,0.1848068333524996,0.002089957690313421
-3.978,0.5049120790829789,-0.5383386009732256
-3.9775,0.6116138276598051,-0.8562377531282487
-3.977,0.5689331282290746,-0.9622041371799229
-3.9765,0.4729015545099309,-0.9198175835592532
-3.976,0.4729015545099309,-0.8562377531282487
-3.9755,0.6329541773751706,-0.8774310299385835
-3.975,0.6116138276598051,-0.6654982618352349
-3.9745,0.5049120790829789,-0.3687923864905467
-3.974,0.3982103305061524,-0.09327978795619347
-3.9735,0.3235191065023739,0.1292496185523226
-3.973,0.4515612047945656,0.2670059178194992
-3.9725,0.9210488985326017,0.4259554938970107
-3.972,0.5155822539406614,0.8180311148882058
-3.9715,-0.391382608962363,0.9875773293708847
-3.971,-1.212986073003927,0.9451907757502149
-3.9705,-1.383708870726849,0.7438546460520338
-3.97,-0.9782422261349084,0.2246193641988295
-3.9695,-0.4660738329661415,-0.2416327256285375
-3.969,-0.07127736323188383,-0.5383386009732256
-3.9685,0.1741366584948169,-0.6654982618352349
-3.968,0.2808384070716433,-0.6654982618352349
-3.9675,0.3128489316446912,-0.5913217929990628
-3.967,0.3128489316446912,-0.474758770542221
-3.9665,0.2701682322139607,-0.3475991096802118
-3.966,0.2381577076409128,-0.1886495336027004
-3.9655,0.2061471830678648,-0.02969995752518888
-3.965,0.09944543449103843,0.2140227257936621
-3.9645,-0.4767440078238243,0.6484849004055269
-3.964,-1.223656247861609,1.093543713422559
-3.9635,-1.917217613610981,1.369056311956912
-3.963,-1.639793067311232,1.093543713422559
-3.9625,-0.6794773301197943,0.6060983467848571
-3.962,0.09944543449103843,-0.04029659593035631
-3.9615,0.5369226036560266,-0.5913217929990628
-3.961,0.7183155762366316,-0.8774310299385835
-3.9605,0.6969752265212663,-0.9092209451540858
-3.96,0.5902734779444399,-0.8562377531282487
-3.9595,0.4835717293676135,-0.7608680074817418
-3.959,0.5796033030867573,-0.8350444763179138
-3.9585,0.6009436528021226,-0.7502713690765743
-3.958,0.5155822539406614,-0.5171453241628908
-3.9575,0.408880505363835,-0.2628260024388724
-3.957,0.3448594562177392,-0.02969995752518888
-3.9565,0.3875401556484697,0.1610395337678249
-3.956,0.8676980242441885,0.3941655786815084
-3.9555,0.6649647019482183,0.8074344764830383
-3.955,-0.2313299860971235,1.104140351827727
-3.9545,-1.095614149569417,0.5001319627331828
-3.954,-1.46907026958831,-0.09327978795619347
-3.9535,-1.116954499284783,-0.400582301706049
-3.953,-0.6047861061160158,-0.5277419625680583
-3.9525,-0.156638762093345,-0.5277419625680583
-3.952,0.1207857842064037,-0.4853554089473885
-3.9515,0.2701682322139607,-0.4111789401112165
-3.951,0.3128489316446912,-0.3475991096802118
-3.9505,0.3128489316446912,-0.2946159176543747
-3.95,0.291508581929326,-0.2416327256285375
-3.9495,0.2488278824985954,-0.1674562567923655
-3.949,0.2061471830678648,-0.09327978795619347
-3.9485,0.1634664836371343,0.03387987290581572
-3.948,-0.1886492866663929,0.383568940276341
-3.9475,-0.8608703027003992,0.8710143069140429
-3.947,-1.543761493592088,1.241896651094903
-3.9465,-1.757164990745741,1.25249328950007
-3.946,-0.9782422261349084,0.6802748156210291
-3.9455,-0.1779791118087102,-0.1038764263613609
-3.945,0.3661998059331045,-0.7396747306714069
-3.9445,0.6009436528021226,-1.036380606016095
-3.944,0.6436243522328531,-1.089363798041932
-3.9435,0.5796033030867573,-1.068170521231597
-3.943,0.4835717293676135,-0.9728007755850904
-3.9425,0.5369226036560266,-1.004590690800593
-3.942,0.6542945270905358,-1.036380606016095
-3.9415,0.5902734779444399,-0.8032545611024114
-3.941,0.4729015545099309,-0.5065486857577234
-3.9405,0.3768699807907871,-0.2310360872233701
-3.94,0.3235191065023739,-0.008506680714854012
-3.9395,0.6649647019482183,-0.08268314955102604
-3.939,0.8143471499557753,-0.01910331912002144
-3.9385,0.02475421048725994,0.457745409112513
-3.938,-0.8502001278427167,0.7544512844572011
-3.9375,-1.51175096901904,0.9875773293708847
-3.937,-1.415719395299897,0.7650479228623686
-3.9365,-0.8822106524157645,0.2352160026039969
-3.936,-0.3593720843893152,-0.2310360872233701
-3.9355,0.01408403562957729,-0.5065486857577234
-3.935,0.2168173579255475,-0.6019184314042303
-3.9345,0.3021787567870086,-0.5807251545938954
-3.934,0.3235191065023739,-0.4853554089473885
-3.9335,0.3128489316446912,-0.3581957480853793
-3.933,0.2701682322139607,-0.1992461720078678
-3.9325,0.2274875327832301,-0.008506680714854012
-3.932,0.1954770082101822,0.1716361721729923
-3.9315,-0.01792648894347063,0.4471487707073456
-3.931,-0.6794773301197943,0.8710143069140429
-3.9305,-1.415719395299897,1.241896651094903
-3.93,-1.981238662757077,1.390249588767247
-3.9295,-1.362368521011484,0.7226613692416989
-3.929,-0.4127229586777283,-0.09327978795619347
-3.9285,0.2701682322139607,-0.6443049850249
-3.928,0.6222840025174878,-0.8562377531282487
-3.9275,0.707645401378949,-0.8668343915334161
-3.927,0.6649647019482183,-0.8032545611024114
-3.9265,0.5689331282290746,-0.7290780922662394
-3.926,0.5262524287983441,-0.6125150698093976
-3.9255,0.6222840025174878,-0.400582301706049
-3.925,0.5796033030867573,-0.326405832869877
-3.9245,0.4729015545099309,-0.2946159176543747
-3.924,0.3768699807907871,-0.2416327256285375
-3.9235,0.3235191065023739,-0.1780528951975329
-3.923,0.4729015545099309,-0.05089323433552374
-3.9225,0.8676980242441885,0.2458126410091644
-3.922,0.3128489316446912,0.7438546460520338
-3.9215,-0.6154562809736985,1.125333628638062
-3.921,-1.405049220442214,1.347863035146577
-3.9205,-1.501080794161358,1.125333628638062
-3.92,-1.010252750707956,0.5001319627331828
-3.9195,-0.4660738329661415,-0.06148987274069118
-3.919,-0.06060718837420119,-0.3899856633008816
-3.9185,0.1848068333524996,-0.5171453241628908
-3.918,0.3021787567870086,-0.474758770542221
-3.9175,0.3235191065023739,-0.3687923864905467
-3.917,0.3128489316446912,-0.2310360872233701
-3.9165,0.2808384070716433,-0.05089323433552374
-3.916,0.2381577076409128,0.1186529801471552
-3.9155,0.1954770082101822,0.2987958330350016
-3.915,0.1207857842064037,0.5107286011383502
-3.9145,-0.391382608962363,0.8604176685088755
-3.914,-1.148965023857831,1.210106735879401
-3.9135,-1.853196564464885,1.432636142387917
-3.913,-1.639793067311232,1.305476481525908
-3.9125,-0.7434983792658902,0.7226613692416989
-3.912,0.01408403562957729,-0.02969995752518888
-3.9115,0.4835717293676135,-0.6019184314042303
-3.911,0.6756348768059011,-0.9622041371799229
-3.9105,0.6863050516635838,-1.089363798041932
-3.91,0.6116138276598051,-1.068170521231597
-3.9095,0.5262524287983441,-0.9728007755850904
-3.909,0.6863050516635838,-1.131750351662602
-3.9085,0.7289857510943143,-1.110557074852267
-3.908,0.6116138276598051,-0.8668343915334161
-3.9075,0.4622313796522482,-0.5595318777835605
-3.907,0.3661998059331045,-0.2840192792492073
-3.9065,0.3768699807907871,-0.1462629799820306
-3.906,0.8143471499557753,-0.5065486857577234
-3.9055,0.6863050516635838,-0.5489352393783931
-3.905,-0.1993194615240755,-0.01910331912002144
-3.9045,-1.074273799854052,0.4259554938970107
-3.904,-1.501080794161358,0.7438546460520338
-3.9035,-1.180975548430879,0.4789386859228479
-3.903,-0.6474668055467465,0.02328323450064829
-3.9025,-0.1886492866663929,-0.3370024712750445
-3.902,0.1101156093487211,-0.5277419625680583
-3.9015,0.2594980573562781,-0.5807251545938954
-3.901,0.3235191065023739,-0.5383386009732256
-3.9005,0.3235191065023739,-0.4429688553267188
-3.9,0.291508581929326,-0.3158091944647096
-3.8995,0.2488278824985954,-0.1674562567923655
-3.899,0.2168173579255475,0.002089957690313421
-3.8985,0.1741366584948169,0.2246193641988295
-3.898,-0.1993194615240755,0.5849050699745222
-3.8975,-0.9355615267041777,1.019367244586387
-3.897,-1.650463242168915,1.347863035146577
-3.8965,-1.917217613610981,1.305476481525908
-3.896,-1.031593100423322,0.8816109453192104
-3.8955,-0.1352984123779797,0.2352160026039969
-3.895,0.4408910299368829,-0.4217755785163839
-3.8945,0.6863050516635838,-0.8244478379127463
-3.894,0.707645401378949,-1.004590690800593
-3.8935,0.6329541773751706,-1.05757388282643
-3.893,0.5262524287983441,-0.9622041371799229
-3.8925,0.6116138276598051,-0.9622041371799229
-3.892,0.7609962756673623,-0.9728007755850904
-3.8915,0.6863050516635838,-0.718481453861072
-3.891,0.5369226036560266,-0.4111789401112165
-3.8905,0.408880505363835,-0.1250697031716958
-3.89,0.3448594562177392,0.07626642652648545
-3.8895,0.6222840025174878,0.06566978812131802
-3.889,0.6329541773751706,0.2987958330350016
-3.8885,-0.1886492866663929,0.7544512844572011
-3.888,-1.031593100423322,0.7438546460520338
-3.8875,-1.554431668449771,0.6166949851900245
