Class_3_Grab_w_two_Hands/Class_3_Grab_with_Two_Hands_UZ_6.csv

#Digilent WaveForms Oscilloscope Acquisition
#Device Name: EExplorer
#Serial Number: SN:210151A2B84A
#Date Time: 2020-12-07 12:08:23.701
#Sample rate: 2000Hz
#Samples: 16384
#Trigger: Source: Channel 1 Type: Edge Condition: Rising Level: 0 V Hyst.: Auto HoldOff: 0 s
#Channel 1: Range: 1 V/div Offset: 0 V Attenuation: 1 X
#Channel 2: Range: 1 V/div Offset: 0 V Attenuation: 1 X
#Power Supplies: ON
#Fixed Supply: ON
#Voltage: 3.3 V Readback: 3.322 V
#Positive Supply: ON
#Voltage: 3.7 V Readback: 3.605 V
#Current: 40 mA Readback: 11 mA
#Negative Supply: ON
#Voltage: -3.7 V Readback: -4.313 V
#Current: -40 mA Readback: -45 mA
#Reference 1: ON
#Voltage: 0 V
#Reference 2: ON
#Voltage: 0 V

Time (s),Channel 1 (V),Channel 2 (V)
-4.096,-1.746494815888059,1.167720182258731
-4.0955,-1.89587726389548,0.2670059178203185
-4.095,-1.415719395299315,-0.209842810413122
-4.0945,-0.7755089038389382,-0.3052125560595421
-4.094,-0.2633405106706372,-0.2310360872234375
-4.0935,0.04609456020275137,-0.1250697031716187
-4.093,0.1848068333524996,-0.04029659593035631
-4.0925,0.2274875327831913,0.002089957690274868
-4.092,0.2168173579255378,0.03387987290581572
-4.0915,0.2061471830678648,0.03387987290581572
-4.091,0.1848068333524996,0.03387987290581572
-4.0905,0.1741366584948169,0.02328323450062901
-4.09,0.1741366584948169,0.002089957690313421
-4.0895,0.1954770082101822,-0.008506680714854012
-4.089,0.5902734779440808,0.3093924714398799
-4.0885,1.273164668836129,0.9028042221295453
-4.088,1.433217291701369,1.411442865577582
-4.0875,1.283834843693948,1.082947075017691
-4.087,1.123782220828368,0.2881991946292462
-4.0865,0.8997085488172365,-0.3581957480853793
-4.086,0.654294527090759,-0.6972881770504288
-4.0855,0.4622313796521026,-0.8032545611023633
-4.085,0.3021787567870086,-0.7502713690765743
-4.0845,0.2061471830679522,-0.6443049850249963
-4.084,0.1314559590639602,-0.5171453241629679
-4.0835,-0.007256314085787988,-0.6019184314042303
-4.083,-0.04993701351651855,-0.5065486857577234
-4.0825,-0.02859666380118239,-0.2840192792490627
-4.082,-0.06060718837420119,-0.1250697031716958
-4.0815,-0.6474668055467465,-0.5383386009732256
-4.081,-0.7541685541234759,-0.2734226408442808
-4.0805,-1.191645723288561,0.4683420475176805
-4.08,-1.703814116457328,1.25249328950007
-4.0795,-1.853196564464749,1.898888232214696
-4.079,-1.970568487898986,2.026047893076725
-4.0785,-1.522421143876723,1.400846227172415
-4.078,-0.8715404775586739,0.6590815388113689
-4.0775,-0.3380317346736491,0.1292496185520913
-4.077,-0.007256314085787988,-0.1250697031716958
-4.0765,0.163466483636979,-0.167456256792327
-4.076,0.2381577076409225,-0.08268314955089112
-4.0755,0.2488278824985954,0.06566978812131802
-4.075,0.2274875327832301,0.2246193641988295
-4.0745,0.1954770082101628,0.3517790250609447
-4.074,0.1741366584948169,0.4683420475176805
-4.0735,0.1634664836371343,0.55311515475902
-4.073,0.1741366584948072,0.6166949851899667
-4.0725,0.3875401556484697,0.8074344764830383
-4.072,1.017080472251745,1.220703374284568
-4.0715,1.379866417412625,1.591585718465091
-4.071,1.379866417412878,1.559795803249261
-4.0705,1.294505018551494,0.8286277532933731
-4.07,1.091771696255708,0.07626642652716964
-4.0695,0.8143471499555424,-0.4429688553269501
-4.069,0.5582629533713921,-0.6972881770507372
-4.0685,0.3555296310754218,-0.7820612842920766
-4.068,0.2274875327831622,-0.7396747306713009
-4.0675,0.1527963087794516,-0.6231117082145651
-4.067,-0.01792648894347063,-0.6866915386455698
-4.0665,-0.1459685872356429,-0.707884815455731
-4.066,-0.124628237520297,-0.5171453241628908
-4.0655,-0.04993701351651855,-0.2734226408440398
-4.065,0.02475421048719201,-0.04029659593056834
-4.0645,0.05676473506030786,0.1504428953626575
-4.064,-0.2099896363817582,0.3517790250608387
-4.0635,-1.106284324426285,0.6060983467846257
-4.063,-2.173301810195597,0.4895353243277069
-4.0625,-2.429386006779747,0.1504428953626575
-4.062,-2.344024607918364,-0.6125150698087036
-4.0615,-1.650463242168129,-0.7290780922659695
-4.061,-0.7861790786966207,-0.4323722169215513
-4.0605,-0.2313299860971235,-0.1674562567923655
-4.06,0.05676473506042432,0.002089957690419434
-4.0595,0.1848068333524996,0.1186529801471552
-4.059,0.2168173579255475,0.1716361721729923
-4.0585,0.2168173579255475,0.1822328105781501
-4.058,0.1954770082101822,0.1822328105781598
-4.0575,0.1848068333524996,0.1610395337678249
-4.057,0.1848068333524996,0.1292496185523515
-4.0565,0.1848068333524996,0.07626642652648545
-4.056,0.291508581929326,0.1186529801471552
-4.0555,0.8997085488166834,0.5743084315689404
-4.055,1.305175193409177,1.157123543853795
-4.0545,1.305175193409177,1.411442865577582
-4.054,1.337185717982196,0.5213252395443272
-4.0535,1.230483969405175,-0.4429688553271235
-4.053,0.9850699476786977,-0.8880276683437509
-4.0525,0.6863050516635838,-0.9728007755850904
-4.052,0.440891029936718,-0.8774310299384486
-4.0515,0.2594980573562781,-0.7290780922662394
-4.051,0.1634664836371343,-0.5807251545938954
-4.0505,0.06743490991807785,-0.5595318777835798
-4.05,-0.06060718837420119,-0.6972881770507372
-4.0495,-0.06060718837420119,-0.5913217929990628
-4.049,-0.007256314085836511,-0.3793890248959069
-4.0485,0.04609456020265433,-0.1674562567922017
-4.048,0.07810508477567314,0.01268659609548085
-4.0475,-0.08194753808942092,0.1716361721728478
-4.047,-0.6794773301202796,0.5531151547595308
-4.0465,-1.212986073003927,1.114736990232894
-4.046,-1.575772018164806,1.252493289499945
-4.0455,-1.597112367880453,0.5955017083788704
-4.045,-1.543761493592088,-0.3052125560595421
-4.0445,-1.351698346153801,-0.8668343915334161
-4.044,-0.7861790786962713,-0.7502713690764105
-4.0435,-0.4020527838200457,-0.570128516188728
-4.043,-0.07127736323188383,-0.2734226408440398
-4.0425,0.1634664836369208,0.0126865960952206
-4.042,0.1954770082101822,0.1186529801471552
-4.0415,0.1848068333524996,0.1716361721729923
-4.041,0.1634664836371537,0.2034260873884657
-4.0405,0.1527963087794613,0.2246193641988391
-4.04,0.1634664836371343,0.2352160026039969
-4.0395,0.206147183067826,0.2564092794143125
-4.039,0.6649647019487133,0.56371179316465
-4.0385,1.209143619690033,1.072350436612224
-4.038,1.219813794547706,1.453829419197905
-4.0375,1.113112045970831,0.966384052559827
-4.037,1.049090996824793,0.1716361721729923
-4.0365,0.8890383739595538,-0.3687923864905467
-4.036,0.6863050516633994,-0.6760949002404794
-4.0355,0.4835717293676135,-0.7608680074817418
-4.035,0.3128489316446912,-0.718481453861072
-4.0345,0.2061471830679619,-0.6019184314043363
-4.034,0.1207857842064037,-0.5171453241628908
-4.0335,-0.04993701351651855,-0.6549016234300674
-4.033,-0.09261771294721031,-0.5913217929991207
-4.0325,-0.04993701351647003,-0.4005823017058563
-4.032,0.00341386077189465,-0.1886495336027004
-4.0315,0.05676473506025934,-0.008506680715017839
-4.031,0.01408403562911148,0.1398462569577599
-4.0305,-0.4980843575391895,0.4365521323021782
-4.03,-1.106284324426547,0.9769806909652258
-4.0295,-1.522421143876869,1.400846227172232
-4.029,-1.682473766741963,1.199510097474233
-4.0285,-1.255666772434657,0.6908714540261965
-4.028,-0.6901475049770694,0.2246193641985693
-4.0275,-0.2420001609548061,-0.06148987274069118
-4.027,0.03542438534494258,-0.1780528951975329
-4.0265,-0.02859666380109505,-0.3793890248955311
-4.026,-0.6047861061160158,-0.9304142219644207
-4.0255,-0.5087545323968721,-0.7502713690765743
-4.025,-0.3807124341047969,-0.5171453241631029
-4.0245,-0.2206598112392273,-0.2522293640334159
-4.024,0.01408403562957729,0.06566978812131802
-4.0235,0.1421261339216525,0.2458126410090005
-4.023,0.1634664836374545,0.2987958330352329
-4.0225,0.5155822539406614,0.55311515475902
-4.022,1.209143619689402,1.072350436611752
-4.0215,1.411876941985838,1.528005888034279
-4.021,1.230483969405398,1.369056311956912
-4.0205,1.123782220828572,0.2987958330350016
-4.02,0.963729597963119,-0.4747587705425198
-4.0195,0.7289857510943143,-0.8032545611024114
-4.019,0.5155822539406614,-0.8668343915334161
-4.0185,0.3341892813602215,-0.7714646458869959
-4.018,0.2168173579255475,-0.6019184314042303
-4.0175,0.142126133921769,-0.4217755785163839
-4.017,-0.01792648894332505,-0.4747587705421729
-4.0165,-0.1032878878049026,-0.4641621321368994
-4.016,-0.07127736323188383,-0.2946159176543747
-4.0155,-0.007256314085846219,-0.09327978795637656
-4.015,0.04609456020261551,0.0868630649317589
-4.0145,0.03542438534494258,0.2034260873884947
-4.014,-0.4127229586773208,0.2987958330349149
-4.0135,-1.106284324427498,0.6802748156214917
-4.013,-1.543761493592088,1.188913459069066
-4.0125,-1.842526389607202,0.9557874141553824
-4.012,-1.682473766741429,0.23521600260365
-4.0115,-1.095614149569417,-0.1462629799820306
-4.011,-0.5194247072545548,-0.2734226408440398
-4.0105,-0.1139580626629832,-0.262826002438882
-4.01,0.1101156093487211,-0.1992461720078678
-4.0095,0.2061471830678648,-0.1356663415768632
-4.009,0.2168173579255378,-0.07208651114591644
-4.0085,0.2061471830678454,-0.02969995752515996
-4.008,0.1848068333524996,0.002089957690313421
-4.0075,0.1421261339218078,-0.008506680714844374
-4.007,-0.4767440078239407,-0.6125150698095037
-4.0065,-0.6047861061160158,-0.7290780922662394
-4.006,-0.2846808603855366,-0.4429688553267188
-4.0055,0.5796033030874075,0.2881991946306437
-4.005,1.294505018551494,1.178316820663898
-4.0045,1.401206767128321,1.580989080060261
-4.004,1.241154144262887,0.9451907757495017
-4.0035,1.027750647109428,0.1610395337678249
-4.003,0.7716664505250448,-0.4429688553267188
-4.0025,0.5262524287985673,-0.7290780922659792
-4.002,0.3448594562177392,-0.7714646458869092
-4.0015,0.2274875327832301,-0.6760949002404023
-4.001,0.1634664836371925,-0.4959520473527198
-4.0005,0.0567647350601623,-0.4747587705423271
-4,-0.1032878878049318,-0.5913217929990628
-3.9995,-0.1032878878049318,-0.4429688553267188
-3.999,-0.03926683865883591,-0.1992461720078678
-3.9985,0.02475421048725994,0.03387987290581572
-3.998,0.07810508477567314,0.2246193641988295
-3.9975,-0.04993701351651855,0.383568940276341
-3.997,-0.7648387289812555,0.7438546460520338
-3.9965,-1.565101843307454,1.241896651094903
-3.996,-2.045259711903173,1.633972272086098
-3.9955,-1.991908837614759,1.559795803249926
-3.995,-1.362368521011484,0.9557874141553824
-3.9945,-0.7008176798351597,0.3411823866556712
-3.994,-0.1993194615240755,-0.07208651114585861
-3.9935,0.07810508477567314,-0.2840192792492073
-3.993,0.2061471830678648,-0.3158091944647096
-3.9925,0.2381577076409128,-0.2628260024388724
-3.992,0.2274875327832301,-0.1674562567923655
-3.9915,0.1954770082101822,-0.05089323433552374
-3.991,0.1741366584948169,0.05507314971615059
-3.9905,0.1634664836371343,0.1504428953626575
-3.99,0.1634664836371343,0.2352160026039969
-3.9895,0.2168173579255475,0.3411823866556712
-3.989,0.7183155762366316,0.7226613692416989
-3.9885,1.401206767128321,1.231300012689736
-3.988,1.347855892839907,1.326669758336243
-3.9875,0.5582629533713921,0.5001319627331828
-3.987,0.408880505363835,-0.1038764263613609
-3.9865,0.3021787567870086,-0.6019184314042303
-3.986,0.2488278824985954,-0.8032545611024114
-3.9855,0.291508581929326,-0.718481453861072
-3.985,0.2381577076409128,-0.6443049850249
-3.9845,0.1634664836371343,-0.5595318777835605
-3.984,0.09944543449103843,-0.474758770542221
-3.9835,-0.06060718837420119,-0.6125150698093976
-3.983,-0.09261771294724913,-0.5171453241628908
-3.9825,-0.04993701351651855,-0.2734226408440398
-3.982,0.02475421048725994,-0.008506680714854012
-3.9815,0.07810508477567314,0.2246193641988295
-3.981,0.00341386077189465,0.3517790250608387
-3.9805,-0.6047861061160158,0.5107286011383502
-3.98,-1.30901764672307,0.9557874141553824
-3.9795,-1.703814116457328,1.284283204715573
-3.979,-1.885207089037933,0.775644561267536
-3.9785,-1.447729919872945,0.2458126410091644
-3.978,-0.8181896032696687,-0.07208651114585861
-3.9775,-0.3060212101009019,-0.1992461720078678
-3.977,0.01408403562957729,-0.2204394488182027
-3.9765,0.1741366584948169,-0.1886495336027004
-3.976,0.2274875327832301,-0.1250697031716958
-3.9755,0.2274875327832301,-0.07208651114585861
-3.975,0.2061471830678648,-0.02969995752518888
-3.9745,0.1848068333524996,0.01268659609548085
-3.974,0.1741366584948169,0.04447651131098315
-3.9735,0.1634664836371343,0.05507314971615059
-3.973,0.1848068333524996,0.08686306493165288
-3.9725,0.4835717293676135,0.3517790250608387
-3.972,1.145122570543937,0.9134008605347127
-3.9715,1.411876941986003,1.42203950398275
-3.971,1.262494493978446,1.37965295036208
-3.9705,1.049090996824793,0.6590815388106942
-3.97,0.8356874996711408,-0.08268314955102604
-3.9695,0.6329541773751706,-0.5807251545938954
-3.969,-0.007256314085787988,-1.237716735714276
-3.9685,-0.5087545323968721,-1.587405803084801
-3.968,-0.4447334832507763,-1.311893204550448
-3.9675,-0.3593720843893152,-1.025783967610927
-3.967,-0.2846808603855366,-0.8350444763179138
-3.9665,-0.1352984123779797,-0.5489352393783931
-3.966,-0.04993701351651855,-0.2734226408440398
-3.9655,0.00341386077189465,-0.02969995752518888
-3.965,0.03542438534494258,0.1822328105781598
-3.9645,0.03542438534494258,0.3623756634660061
-3.964,-0.4447334832507763,0.5425185163538525
-3.9635,-1.180975548430879,0.9663840525605498
-3.963,-1.533091318734406,1.369056311956912
-3.9625,-1.799845690176472,0.7968378380778709
-3.962,-1.586442193022819,0.03387987290581572
-3.9615,-0.9995825758502737,-0.2628260024388724
-3.961,-0.4447334832507763,-0.3052125560595421
-3.9605,-0.07127736323188383,-0.2310360872233701
-3.96,0.1314559590640864,-0.1250697031716958
-3.9595,0.2168173579255475,-0.02969995752518888
-3.959,0.2274875327832301,0.03387987290581572
-3.9585,0.2168173579255475,0.07626642652648545
-3.958,0.1954770082101822,0.09745970333682032
-3.9575,0.1741366584948169,0.1080563417419877
-3.957,0.1741366584948169,0.09745970333682032
-3.9565,0.1741366584948169,0.09745970333682032
-3.956,0.3021787567870086,0.2034260873884947
-3.9555,0.8783681991018712,0.701468092431364
-3.955,1.443887466559051,1.25249328950007
-3.9545,1.635950613997339,1.411442865577582
-3.954,1.603940089424291,0.5743084315693548
-3.9535,1.337185717982225,-0.2204394488182027
-3.953,0.9850699476786977,-0.6654982618352349
-3.9525,0.6542945270905358,-0.8456411147230812
-3.952,0.3875401556484697,-0.8244478379127463
-3.9515,0.2274875327832301,-0.6972881770507372
-3.951,0.07810508477567314,-0.6125150698093976
-3.9505,-0.5941159312583333,-1.036380606016095
-3.95,-0.7008176798351597,-0.8774310299385835
-3.9495,-0.5407650569699201,-0.6019184314042303
-3.949,-0.3593720843893152,-0.3475991096802118
-3.9485,-0.09261771294724913,-0.01910331912002144
-3.948,0.0674349099179905,0.2034260873884947
-3.9475,-0.1673089369510276,0.3199891098453364
-3.947,-1.06360362499637,0.6696781772158616
-3.9465,-1.906547438753298,1.199510097474233
-3.946,-2.3973754822067,1.623375633680931
-3.9455,-2.301343908487556,1.538602526439591
-3.945,-1.554431668449771,0.9451907757502149
-3.9445,-0.7755089038389382,0.3411823866556712
-3.944,-0.2206598112394408,-0.07208651114585861
-3.9435,0.08877525963335578,-0.2840192792492073
-3.943,0.2168173579255475,-0.3158091944647096
-3.9425,0.2488278824985954,-0.252229364033705
-3.942,0.2381577076409128,-0.1356663415768632
-3.9415,0.2061471830678648,-0.008506680714854012
-3.941,0.1848068333524996,0.1080563417419877
-3.9405,0.1741366584948169,0.2034260873884947
-3.94,0.1741366584948169,0.2881991946298341
-3.9395,0.2381577076409128,0.383568940276341
-3.939,0.7289857510943143,0.7544512844572011
-3.9385,1.390536592270638,1.25249328950007
-3.938,1.51857869056283,1.570392441655093
-3.9375,1.465227816274416,0.9663840525605498
-3.937,1.283834843693812,0.2246193641988295
-3.9365,1.006410297394063,-0.3158091944647096
-3.936,0.707645401378949,-0.6231117082145651
-3.9355,0.4515612047945656,-0.6866915386455698
-3.935,0.2701682322139607,-0.6337083466197325
-3.9345,0.1634664836371343,-0.5277419625680583
-3.934,0.08877525963335578,-0.3475991096802118
-3.9335,-0.02859666380115328,-0.08268314955102604
-3.933,-0.03926683865883591,0.04447651131098315
-3.9325,-0.156638762093345,-0.02969995752518888
-3.932,-0.722158029550525,-0.5807251545938954
-3.9315,-0.6474668055467465,-0.4641621321370536
-3.931,-0.7008176798351597,-0.3581957480853793
-3.9305,-1.298347471865388,-0.2204394488182027
-3.93,-1.87453691418025,0.457745409112513
-3.9295,-2.226652684483777,0.9134008605347127
-3.929,-2.482736881068161,0.1504428953626575
-3.9285,-1.981238662757077,-0.400582301706049
-3.928,-1.180975548430879,-0.4853554089473885
-3.9275,-0.4980843575391895,-0.3793890248957141
-3.927,-0.04993701351651855,-0.2204394488182027
-3.9265,0.1741366584948169,-0.09327978795619347
-3.926,0.2594980573562781,-0.008506680714854012
-3.9255,0.2594980573562781,0.02328323450064829
-3.925,0.2274875327832301,0.01268659609548085
-3.9245,0.1954770082101822,0.002089957690313421
-3.924,0.1848068333524996,-0.01910331912002144
-3.9235,0.1741366584948169,-0.04029659593035631
-3.923,0.1954770082101822,-0.04029659593035631
-3.9225,0.6116138276598051,0.2458126410091644
-3.922,1.369196242555273,0.8286277532933731
-3.9215,1.731982187716482,1.358459673551745
-3.921,1.678631313428069,1.157123543853563
-3.9205,1.475897991132099,0.383568940276341
-3.92,1.15579274540162,-0.2628260024388724
-3.9195,0.8356874996711408,-0.6549016234300674
-3.919,0.5582629533713921,-0.8244478379127463
-3.9185,0.3341892813600565,-0.8138511995075789
-3.918,0.2061471830678648,-0.6972881770507372
-3.9175,0.1314559590640864,-0.5595318777835605
-3.917,-0.07127736323188383,-0.6337083466197325
-3.9165,-0.1673089369510276,-0.5913217929990628
-3.916,-0.1139580626626144,-0.3687923864905467
-3.9155,-0.03926683865883591,-0.1144730647665284
-3.915,0.01408403562957729,0.09745970333682032
-3.9145,0.02475421048725994,0.2776025562246667
-3.914,-0.7648387289812555,0.1186529801471552
-3.9135,-1.959898313041711,0.2140227257936621
-3.913,-2.386705307349017,0.9769806909657173
-3.9125,-2.653459678791083,1.517409249629256
-3.912,-2.162631635337682,1.411442865577582
-3.9115,-1.26633694729234,0.8922075837243778
-3.911,-0.572775581542968,0.2776025562246667
-3.9105,-0.1139580626626144,-0.1356663415768632
-3.91,0.1207857842064037,-0.3158091944647096
-3.9095,0.2168173579255475,-0.3370024712750445
-3.909,0.2381577076409128,-0.2734226408440398
-3.9085,0.2274875327832301,-0.1568596183871981
-3.908,0.2061471830678648,-0.04029659593035631
-3.9075,0.1954770082101822,0.06566978812131802
-3.907,0.1848068333524996,0.1504428953626575
-3.9065,0.1848068333524996,0.2246193641988295
-3.906,0.3661998059331045,0.4153588554918433
-3.9055,1.017080472251745,0.9028042221295453
-3.905,1.657290963712704,1.400846227172415
-3.9045,1.785333062004896,1.432636142387917
-3.904,1.753322537431848,0.3729723018711736
-3.9035,1.475897991132099,-0.570128516188728
-3.903,1.081101521397841,-0.8880276683437509
-3.9025,0.707645401378949,-0.8244478379127463
-3.902,0.408880505363835,-0.6231117082145651
-3.9015,0.2274875327832301,-0.400582301706049
-3.901,0.142126133921769,-0.2204394488182027
-3.9005,-0.007256314085787988,-0.2734226408440398
-3.9,-0.156638762093345,-0.400582301706049
-3.8995,-0.1459685872356623,-0.2946159176543747
-3.899,-0.06060718837420119,-0.1038764263613609
-3.8985,0.01408403562957729,0.06566978812131802
-3.898,0.05676473506030786,0.1822328105781598
-3.8975,-0.1779791118087102,0.309392471440169
-3.897,-0.8822106524157645,0.6908714540261965
-3.8965,-1.522421143876723,1.199510097474233
-3.896,-1.970568487899394,1.104140351827727
-3.8955,-2.344024607918286,-0.1886495336027004
-3.895,-1.842526389607202,-0.7714646458869092
-3.8945,-1.116954499284783,-0.8668343915334161
-3.894,-0.5514352318276028,-0.8138511995075789
-3.8935,-0.09261771294724913,-0.570128516188728
-3.893,0.1741366584948169,-0.3581957480853793
-3.8925,0.2168173579255475,-0.2734226408440398
-3.892,0.2061471830678648,-0.2098428104130352
-3.8915,0.1848068333524996,-0.1568596183871981
-3.891,0.1634664836371343,-0.1144730647665284
-3.8905,0.1634664836371343,-0.07208651114585861
-3.89,0.1741366584948169,-0.01910331912002144
-3.8895,0.291508581929326,0.09745970333682032
-3.889,0.8783681991018712,0.5743084315693548
-3.8885,1.51857869056283,1.157123543853563
-3.888,1.667961138570387,1.506812611224089
