Class_3_Grab_w_two_Hands/Class_3_Grab_with_Two_Hands_SH_12.csv

#Digilent WaveForms Oscilloscope Acquisition
#Device Name: EExplorer
#Serial Number: SN:210151A2B84A
#Date Time: 2021-01-28 12:46:25.209
#Sample rate: 2000Hz
#Samples: 16384
#Trigger: Source: Channel 1 Type: Edge Condition: Rising Level: 0 V Hyst.: Auto HoldOff: 0 s
#Channel 1: Range: 1 V/div Offset: 0 V Attenuation: 1 X
#Channel 2: Range: 1 V/div Offset: 0 V Attenuation: 1 X
#Power Supplies: ON
#Fixed Supply: ON
#Voltage: 3.3 V Readback: 3.318 V
#Positive Supply: ON
#Voltage: 3.7 V Readback: 3.714 V
#Current: 40 mA Readback: 17 mA
#Negative Supply: ON
#Voltage: -3.7 V Readback: -3.707 V
#Current: -40 mA Readback: -10 mA
#Reference 1: ON
#Voltage: 0 V
#Reference 2: ON
#Voltage: 0 V

Time (s),Channel 1 (V),Channel 2 (V)
-4.096,0.4515612047945656,0.07626642652648545
-4.0955,0.6542945270903514,0.2564092794141679
-4.095,0.7396559259520065,0.2458126410091355
-4.0945,0.7503261008096795,0.2140227257936621
-4.094,0.7609962756673526,0.2352160026039777
-4.0935,0.8143471499557268,0.2776025562246956
-4.093,0.7609962756673623,0.309392471440169
-4.0925,0.6969752265213245,0.3199891098453267
-4.092,0.6222840025174587,0.351779025060858
-4.0915,0.5902734779444399,0.3729723018711736
-4.091,0.4835717293676135,-0.01910331912002144
-4.0905,0.1848068333518785,-0.7714646458875164
-4.09,-0.4980843575391895,-1.439052865412457
-4.0895,-1.1062843244271,-1.788741932782983
-4.089,-1.586442193022382,-1.884111678429403
-4.0885,-1.426389570157579,-1.354279758171118
-4.088,-0.807519428411986,-0.4535654937318862
-4.0875,-0.1993194615246286,0.3305857482497906
-4.087,0.2274875327834436,0.8498210301039489
-4.0865,0.4622313796522482,1.114736990232894
-4.086,0.5689331282289776,1.210106735879314
-4.0855,0.5902734779444108,1.188913459068998
-4.085,0.5582629533713921,1.114736990232894
-4.0845,0.5155822539407002,1.008770606181316
-4.084,0.4729015545098824,0.881610945319114
-4.0835,0.4195506802215176,0.775644561267536
-4.083,0.3875401556484697,0.6696781772158616
-4.0825,0.5582629533717511,0.7544512844569602
-4.082,0.9530594231056497,0.4895353243280153
-4.0815,0.5902734779444399,-0.3370024712750445
-4.081,-0.252670335811722,-1.121153713256721
-4.0805,-0.572775581542968,-1.110557074852267
-4.08,-0.2953510352432193,-0.5171453241628908
-4.0795,0.08877525963300642,-0.008506680715316683
-4.079,0.3982103305063271,0.2670059178195571
-4.0785,0.5902734779444399,0.3305857482505039
-4.078,0.6756348768058235,0.3093924714401882
-4.0775,0.718315576236748,0.3305857482506291
-4.077,0.8463576745288233,0.4683420475176805
-4.0765,0.8356874996711504,0.500131962733154
-4.076,0.7396559259519094,0.4471487707072974
-4.0755,0.6436243522328531,0.3941655786815084
-4.075,0.5689331282290746,0.3729723018711736
-4.0745,0.5689331282295016,0.2352160026036886
-4.074,1.038420821967111,-0.1038764263613609
-4.0735,1.753322537431848,-0.3158091944647096
-4.073,1.977396209442979,-0.8456411147225994
-4.0725,1.305175193409177,-1.396666311791788
-4.072,0.3448594562177392,-1.492036057438295
-4.0715,-0.00725631408546773,-0.8456411147236691
-4.071,0.01408403562970345,-0.06148987274012256
-4.0705,0.1527963087794516,0.5637117931641874
-4.07,0.3021787567868728,0.9557874141550258
-4.0695,0.4088805053638933,1.146526905448444
-4.069,0.4729015545099309,1.199510097474233
-4.0685,0.4942419042252961,1.188913459069066
-4.068,0.4835717293675844,1.114736990232817
-4.0675,0.4515612047945656,1.029963882991555
-4.067,0.4408910299368829,0.9451907757502149
-4.0665,0.387540155648528,0.8180311148879937
-4.066,0.4515612047945656,0.5849050699745222
-4.0655,0.8676980242441885,0.5319218779486851
-4.065,0.5582629533716735,-0.09327978795562486
-4.0645,0.01408403562957729,-0.8562377531282487
-4.064,-0.1886492866663929,-0.9622041371799229
-4.0635,-0.01792648894362589,-0.548935239378769
-4.063,0.2381577076410971,-0.1250697031714066
-4.0625,0.4408910299368829,0.1928294489833272
-4.062,0.5475927785136123,0.3517790250606941
-4.0615,0.6116138276598342,0.3835689402763025
-4.061,0.6436243522328531,0.3411823866556712
-4.0605,0.7716664505250448,0.4683420475176805
-4.06,0.8783681991018324,0.648484900405498
-4.0595,0.8356874996711408,0.6166949851900245
-4.059,0.7183155762366316,0.5425185163538525
-4.0585,0.6116138276599021,0.4895353243280635
-4.058,0.5582629533713921,0.457745409112513
-4.0575,0.7609962756673623,0.03387987290581572
-4.057,1.059761171682204,-0.7078848154552299
-4.0565,0.3875401556484697,-1.354279758171118
-4.056,-0.6261264558313813,-1.767548655972648
-4.0555,-1.405049220441505,-1.841725124808753
-4.055,-1.309017646722575,-1.152943628472098
-4.0545,-0.7648387289812555,-0.2310360872233701
-4.054,-0.2099896363822628,0.5213252395428334
-4.0535,0.195477008210386,0.9981739677762544
-4.053,0.4195506802215176,1.220703374284568
-4.0525,0.5155822539406614,1.284283204715573
-4.052,0.5369226036560072,1.241896651094816
-4.0515,0.5155822539406614,1.146526905448396
-4.051,0.4515612047945656,1.00877060618122
-4.0505,0.387540155648528,0.8604176685090104
-4.05,0.3448594562177392,0.7332580076468663
-4.0495,0.09944543449103843,0.3623756634660061
-4.049,-0.6047861061153754,-0.4217755785156707
-4.0485,-1.341028171296283,-1.22712009730962
-4.048,-1.522421143876723,-1.788741932782983
-4.0475,-0.8608703027010008,-1.598002441490142
-4.047,-0.1566387620928791,-0.9092209451534979
-4.0465,0.3555296310754218,-0.2628260024388724
-4.046,0.6116138276595722,0.08686306493133489
-4.0455,0.718315576236651,0.2140227257936428
-4.045,0.7396559259519968,0.1928294489833272
-4.0445,0.707645401378949,0.2034260873884947
-4.044,0.7183155762367092,0.1504428953625515
-4.0435,0.8036769750980928,0.03387987290581572
-4.043,0.7503261008096795,0.04447651131098315
-4.0425,0.6542945270906232,0.1292496185522455
-4.042,0.5689331282290746,0.2246193641988295
-4.0415,0.5262524287983441,0.309392471440169
-4.041,0.7609962756671488,0.2140227257937488
-4.0405,1.433217291701349,-0.08268314955159466
-4.04,1.411876941986003,-0.7078848154559045
-4.0395,0.3982103305070743,-1.333086481360214
-4.039,-0.6474668055470182,-1.756952017567191
-4.0385,-0.9462317015618604,-1.439052865412457
-4.038,-0.658136980404691,-0.6019184314049917
-4.0375,-0.2313299860967935,0.1822328105786609
-4.037,0.1314559590640864,0.7332580076468663
-4.0365,0.3555296310754218,1.029963882991555
-4.036,0.462231379652287,1.157123543853573
-4.0355,0.5049120790829789,1.167720182258731
-4.035,0.4942419042252961,1.114736990232894
-4.0345,0.4622313796522773,1.019367244586474
-4.034,0.4195506802215176,0.92399749893988
-4.0335,0.3875401556484697,0.8180311148882058
-4.033,0.2594980573563945,0.5849050699747342
-4.0325,-0.1566387620938399,-0.1250697031724764
-4.032,-0.7008176798351597,-0.9833974139902578
-4.0315,-1.287677297007171,-1.661582271920357
-4.031,-1.511750969018681,-2.021867977696136
-4.0305,-1.116954499284783,-1.439052865412457
-4.03,-0.4874141826820794,-0.6231117082153071
-4.0295,0.06743490991832046,0.01268659609581817
-4.029,0.4302208550792003,0.383568940276341
-4.0285,0.6116138276598051,0.5213252395435176
-4.028,0.6756348768059011,0.4789386859227804
-4.0275,0.6756348768059011,0.4047622170866759
-4.027,0.8356874996711408,0.309392471440169
-4.0265,0.8356874996711408,0.2458126410092222
-4.026,0.7396559259519968,0.2246193641988295
-4.0255,0.6329541773751706,0.2352160026039969
-4.025,0.55826295337146,0.2670059178194703
-4.0245,0.3768699807906124,0.09745970333627098
-4.024,0.1848068333524996,-0.5065486857577234
-4.0235,-0.1566387620930344,-1.184733543687822
-4.023,-0.7861790786971642,-1.725162102352258
-4.0225,-1.383708870726849,-2.032464616101834
-4.022,-1.490410619303578,-1.703968825541942
-4.0215,-0.978242226134365,-0.7820612842912863
-4.021,-0.3807124341046804,0.08686306493165288
-4.0205,0.07810508477567314,0.7120647308365314
-4.02,0.3555296310755383,1.061753798207192
-4.0195,0.4835717293676135,1.210106735879401
-4.019,0.5262524287983441,1.231300012689736
-4.0185,0.515582253940671,1.178316820663946
-4.018,0.4835717293676135,1.093543713422559
-4.0175,0.4302208550792003,0.9769806909657173
-4.017,0.3555296310754897,0.8498210301038237
-4.0165,0.2381577076404664,0.669678177215322
-4.016,-0.2526703358124887,0.07626642652648545
-4.0155,-0.9355615267035566,-0.782061284291296
-4.015,-1.319687821580801,-1.481439419033532
-4.0145,-1.373038695869166,-1.926498232050159
-4.014,-1.09561414956967,-1.68277554873153
-4.0135,-0.5087545323963675,-0.9410108603689618
-4.013,0.04609456020262521,-0.252229364033705
-4.0125,0.4195506802215176,0.2246193641988295
-4.012,0.6329541773752482,0.4365521323021589
-4.0115,0.7183155762366316,0.4153588554918433
-4.011,0.707645401378949,0.3411823866556712
-4.0105,0.7396559259519677,0.3623756634659869
-4.01,0.7396559259519968,0.3517790250608387
-4.0095,0.6649647019482183,0.2987958330350016
-4.009,0.5902734779445078,0.2670059178195281
-4.0085,0.5262524287983052,0.2670059178195089
-4.008,0.4835717293676135,0.2776025562246667
-4.0075,0.2594980573564818,-0.156859618386803
-4.007,-0.1246282375209763,-0.8880276683443196
-4.0065,-0.8715404775580819,-1.51322933424863
-4.006,-1.629122892453549,-1.894708316834657
-4.0055,-2.226652684483496,-2.000674700885782
-4.005,-1.917217613610981,-1.396666311791788
-4.0045,-1.084943974711735,-0.4323722169215513
-4.004,-0.3487019095311764,0.3941655786820096
-4.0035,0.1527963087794516,0.9451907757502149
-4.003,0.4302208550792003,1.231300012689736
-4.0025,0.5369226036559296,1.316073119930998
-4.002,0.5475927785137094,1.29487984312074
-4.0015,0.5155822539406614,1.199510097474233
-4.001,0.430220855079278,1.051157159802024
-4.0005,0.398210330506133,0.9345941373449318
-4,0.3768699807907871,0.8074344764830383
-3.9995,0.3982103305061524,0.7650479228623686
-3.999,1.006410297394063,1.178316820663898
-3.9985,1.76399271228953,1.580989080060261
-3.998,1.571929564851243,0.9663840525605498
-3.9975,0.974399772821015,0.08686306493165288
-3.997,0.6329541773751706,-0.1780528951975329
-3.9965,0.4942419042252961,-0.1780528951975329
-3.996,0.4835717293676135,-0.09327978795619347
-3.9955,0.5475927785137094,-0.05089323433552374
-3.995,0.6116138276598051,0.04447651131098315
-3.9945,0.6329541773751706,0.13984625695749
-3.994,0.6969752265212663,0.1080563417419877
-3.9935,0.857027849386506,-0.008506680714854012
-3.993,0.825017324813458,0.1080563417419877
-3.9925,0.707645401378949,0.309392471440169
-3.992,0.6009436528021226,0.5107286011383502
-3.9915,0.5262524287983441,0.6908714540261965
-3.991,0.7183155762366316,0.9345941373450475
-3.9905,1.379866417412955,1.199510097474233
-3.99,1.806673411720261,0.6908714540261965
-3.9895,1.742652362574165,-0.2098428104130352
-3.989,0.7396559259519968,-0.9728007755850904
-3.9885,-0.2206598112394408,-1.195330182093607
-3.988,-0.423393133535411,-0.6654982618352349
-3.9875,-0.2526703358124887,0.04447651131098315
-3.987,0.00341386077189465,0.5955017083796896
-3.9865,0.2274875327832301,0.92399749893988
-3.986,0.3555296310754218,1.061753798207057
-3.9855,0.4302208550792003,1.072350436612224
-3.985,0.4515612047945656,1.00877060618122
-3.9845,0.4302208550792003,0.9028042221295453
-3.984,0.3982103305061524,0.7862411996727035
-3.9835,0.3555296310754218,0.6696781772158616
-3.983,0.1848068333524996,0.4471487707073456
-3.9825,-0.4980843575391895,-0.2628260024388724
-3.982,-1.180975548430879,-1.078767159636765
-3.9815,-1.618452717595867,-1.693372187136476
-3.981,-1.405049220442214,-1.523825972653797
-3.9805,-0.7008176798351597,-0.8456411147230812
-3.98,-0.06060718837420119,-0.3052125560595421
-3.9795,0.3661998059331045,0.05507314971615059
-3.979,0.5796033030867573,0.2246193641988295
-3.9785,0.6436243522328531,0.2564092794143318
-3.978,0.6329541773751706,0.2246193641988295
-3.9775,0.6222840025174878,0.2458126410091644
-3.977,0.8783681991018712,0.2881991946298341
-3.9765,0.974399772821015,0.309392471440169
-3.976,0.8676980242441885,0.3199891098453364
-3.9755,0.707645401378949,0.3305857482505039
-3.975,0.5689331282290746,0.3623756634660061
-3.9745,0.3768699807907871,0.309392471440169
-3.974,0.07810508477567314,-0.2840192792492073
-3.9735,-0.1139580626626144,-1.046977244421262
-3.973,-0.7114878546928423,-1.629792356705471
-3.9725,-1.415719395299897,-1.968884785670829
-3.972,-1.639793067311232,-1.75695201756748
-3.9715,-1.148965023857831,-0.8668343915334161
-3.971,-0.5194247072545548,0.02328323450064829
-3.9705,-0.01792648894347063,0.6696781772158616
-3.97,0.3021787567870086,1.040560521396722
-3.9695,0.4515612047945656,1.199510097474233
-3.969,0.4942419042252961,1.220703374284568
-3.9685,0.4942419042252961,1.157123543853563
-3.968,0.4515612047945656,1.061753798207057
-3.9675,0.4195506802215176,0.9451907757502149
-3.967,0.3982103305061524,0.849821030103708
-3.9665,0.3341892813600565,0.7120647308365314
-3.966,0.04609456020262521,0.2670059178194992
-3.9655,-0.2633405106701714,-0.5807251545938954
-3.965,-0.7968492535543035,-1.354279758171118
-3.9645,-1.244996597576974,-1.79933857118815
-3.964,-1.010252750707956,-1.502632695843462
-3.9635,-0.4447334832507763,-0.8244478379127463
-3.963,0.0674349099179905,-0.2416327256285375
-3.9625,0.4195506802215176,0.1822328105781598
-3.962,0.6009436528021226,0.3623756634660061
-3.9615,0.6649647019482183,0.4365521323021782
-3.961,0.6542945270905358,0.3623756634660061
-3.9605,0.5796033030867573,0.3411823866556712
-3.96,0.5049120790829789,0.2987958330350016
-3.9595,0.5049120790829789,0.2670059178194992
-3.959,0.4942419042252961,0.2458126410091644
-3.9585,0.4729015545099309,0.2458126410091644
-3.958,0.4515612047945656,0.2458126410091644
-3.9575,0.3235191065023739,-0.1992461720078678
-3.957,0.5796033030867573,-0.9410108603695881
-3.9565,0.2488278824985954,-1.545019249464132
-3.956,-0.4340633083930936,-1.820531847998485
-3.9555,-1.148965023857831,-1.852321763213987
-3.955,-1.148965023857831,-1.216523458903942
-3.9545,-0.7008176798351597,-0.3052125560595421
-3.954,-0.2099896363817582,0.457745409112513
-3.9535,0.1527963087794516,0.9557874141553824
-3.953,0.3661998059331045,1.199510097474233
-3.9525,0.4515612047945656,1.284283204715573
-3.952,0.4729015545099309,1.263089927905238
-3.9515,0.4622313796522482,1.188913459069066
-3.951,0.408880505363835,1.061753798207057
-3.9505,0.3768699807907871,0.9451907757502149
-3.95,0.3448594562177392,0.8286277532933731
-3.9495,0.142126133921769,0.5213252395435176
-3.949,-0.3700422592469978,-0.2734226408440398
-3.9485,-0.690147504977477,-1.089363798041932
-3.948,-1.095614149569417,-1.682775548731308
-3.9475,-1.084943974711735,-1.75695201756748
-3.947,-0.5941159312583333,-1.110557074852267
-3.9465,-0.06060718837420119,-0.5171453241628908
-3.946,0.3128489316446912,-0.09327978795619347
-3.9455,0.5262524287983441,0.1610395337678249
-3.945,0.6222840025174878,0.2140227257936621
-3.9445,0.6542945270905358,0.2352160026039969
-3.944,0.6649647019482183,0.2564092794143318
-3.9435,0.707645401378949,0.3941655786815084
-3.943,0.6649647019482183,0.383568940276341
-3.9425,0.5796033030867573,0.309392471440169
-3.942,0.5049120790829789,0.2670059178194992
-3.9415,0.4622313796522482,0.2776025562246667
-3.941,0.6436243522328531,0.309392471440169
-3.9405,1.315845368266859,0.4471487707073456
-3.94,1.710641838001117,0.08686306493165288
-3.9395,1.593269914566608,-0.6654982618352349
-3.939,0.7183155762366316,-1.301296566145281
-3.9385,-0.1032878878049318,-1.322489842955616
-3.938,-0.274010685527854,-0.6443049850249
-3.9375,-0.1352984123779797,0.1292496185523226
-3.937,0.0674349099179905,0.7226613692416989
-3.9365,0.2381577076409128,1.082947075017392
-3.936,0.3555296310754218,1.25249328950007
-3.9355,0.408880505363835,1.305476481525908
-3.935,0.4195506802215176,1.273686566310405
-3.9345,0.408880505363835,1.210106735879401
-3.934,0.3768699807907871,1.093543713422559
-3.9335,0.3021787567870086,0.9451907757502149
-3.933,0.1954770082101822,0.7332580076468663
-3.9325,0.2488278824985954,0.07626642652648545
-3.932,0.7396559259519968,-0.7290780922662394
-3.9315,0.3661998059331045,-1.439052865412457
-3.931,-0.04993701351651855,-1.481439419033127
-3.9305,0.1101156093487211,-0.7608680074817418
-3.93,0.3021787567870086,-0.252229364033705
-3.9295,0.4408910299368829,0.06566978812131802
-3.929,0.5262524287983441,0.2246193641988295
-3.9285,0.5689331282290746,0.2246193641988295
-3.928,0.5796033030867573,0.1716361721729923
-3.9275,0.5582629533713921,0.08686306493165288
-3.927,0.6329541773751706,-0.05089323433552374
-3.9265,0.6222840025174878,-0.04029659593035631
-3.926,0.5796033030867573,0.06566978812131802
-3.9255,0.5155822539406614,0.2140227257936621
-3.925,0.4622313796522482,0.3517790250608387
-3.9245,0.3661998059331045,0.3623756634660061
-3.924,0.02475421048725994,-0.1886495336027004
-3.9235,-0.4340633083930936,-0.9304142219644207
-3.923,-1.084943974711735,-1.47084278062796
-3.9225,-1.543761493592088,-1.735758740757146
-3.922,-1.405049220442214,-1.333086481360783
-3.9215,-0.839529952985034,-0.4535654937318862
-3.921,-0.274010685527854,0.3623756634660061
-3.9205,0.1207857842064037,0.9028042221295453
-3.92,0.3555296310754218,1.188913459069066
-3.9195,0.4408910299368829,1.284283204715573
-3.919,0.4622313796522482,1.273686566310405
-3.9185,0.4515612047945656,1.188913459069066
-3.918,0.4195506802215176,1.072350436612224
-3.9175,0.3768699807907871,0.9345941373450475
-3.917,0.3128489316446912,0.7862411996727035
-3.9165,0.1634664836371343,0.5637117931641874
-3.916,-0.2099896363817582,0.05507314971615059
-3.9155,-0.8608703027003992,-0.7502713690765743
-3.915,-1.26633694729234,-1.449649503817625
-3.9145,-1.565101843307454,-1.809935209593318
-3.914,-1.244996597576974,-1.311893204550448
-3.9135,-0.6154562809736985,-0.6654982618352349
-3.913,-0.02859666380115328,-0.1992461720078678
-3.9125,0.3448594562177392,0.06566978812131802
-3.912,0.5582629533713921,0.1504428953626575
-3.9115,0.6542945270905358,0.1822328105781598
-3.911,0.6756348768059011,0.2034260873884947
-3.9105,0.6436243522328531,0.2881991946298341
-3.91,0.6009436528021226,0.4047622170866759
-3.9095,0.5475927785137094,0.383568940276341
-3.909,0.4942419042252961,0.3411823866556712
-3.9085,0.4515612047945656,0.3199891098453364
-3.908,0.4515612047945656,0.2987958330350016
-3.9075,0.6542945270905358,-0.1038764263613609
-3.907,1.102441871113207,-0.8456411147230812
-3.9065,0.6222840025174878,-1.502632695843462
-3.906,-0.391382608962363,-1.926498232050159
-3.9055,-1.255666772434657,-2.053657892912168
-3.905,-1.298347471865388,-1.42845622700729
-3.9045,-0.8288597781273515,-0.474758770542221
-3.904,-0.3060212101009019,0.3305857482505039
-3.9035,0.08877525963335578,0.8604176685088755
-3.903,0.3235191065023739,1.135930267043229
-3.9025,0.4302208550792003,1.231300012689736
-3.902,0.4515612047945656,1.210106735879401
-3.9015,0.4408910299368829,1.146526905448396
-3.901,0.3982103305061524,1.040560521396722
-3.9005,0.3555296310754218,0.9134008605347127
-3.9,0.2488278824985954,0.7544512844572011
-3.8995,0.00341386077189465,0.3941655786815084
-3.899,-0.6261264558313813,-0.3687923864905467
-3.8985,-1.351698346153801,-1.174136905283272
-3.898,-1.714484291315011,-1.746355379162313
-3.8975,-1.458400094730627,-1.587405803084801
-3.897,-0.8181896032696687,-0.8456411147230812
-3.8965,-0.156638762093345,-0.1144730647665284
-3.896,0.291508581929326,0.3305857482505039
-3.8955,0.5155822539406614,0.4683420475176805
-3.895,0.6116138276598051,0.4047622170866759
-3.8945,0.6329541773751706,0.2670059178194992
-3.894,0.6009436528021226,0.1610395337678249
-3.8935,0.5582629533713921,0.05507314971615059
-3.893,0.5155822539406614,0.05507314971615059
-3.8925,0.4729015545099309,0.1080563417419877
-3.892,0.4408910299368829,0.1822328105781598
-3.8915,0.4195506802215176,0.2670059178194992
-3.891,0.6329541773751706,0.1716361721729923
-3.8905,1.294505018551494,-0.4429688553267188
-3.89,1.539919040278195,-1.174136905283272
-3.8895,0.7716664505250448,-1.598002441489969
-3.889,-0.1993194615240755,-1.492036057438295
-3.8885,-1.052933450138687,-1.42845622700729
-3.888,-1.095614149569417,-0.8668343915334161
-3.8875,-0.6794773301197943,-0.09327978795619347
-3.887,-0.2206598112394408,0.5319218779486851
-3.8865,0.1207857842064037,0.9345941373450475
-3.886,0.3235191065023739,1.135930267043229
-3.8855,0.4195506802215176,1.210106735879401
-3.885,0.4302208550792003,1.188913459069066
