Class_3_Grab_w_two_Hands/Class_3_Grab_with_Two_Hands_AM_1.csv

#Digilent WaveForms Oscilloscope Acquisition
#Device Name: EExplorer
#Serial Number: SN:210151A2B84A
#Date Time: 2020-10-20 17:02:06.446
#Sample rate: 2000Hz
#Samples: 16384
#Trigger: Source: Channel 1 Type: Edge Condition: Rising Level: 0 V Hyst.: Auto HoldOff: 0 s
#Channel 1: Range: 1 V/div Offset: 0 V
#Channel 2: Range: 1 V/div Offset: 0 V

Time (s),Channel 1 (V),Channel 2 (V)
-4.0960000000000001,0.27016823221396069,1.1783168206638983
-4.0955000000000004,0.43022085507905472,1.2736865663103185
-4.0949999999999998,0.46223137965223848,1.2524932894999836
-4.0945,0.45156120479456557,1.1571235438535634
-4.0940000000000003,0.39821033050620092,1.0405605213968279
-4.0934999999999997,0.36619980593304624,0.92399749893981253
-4.093,0.30217875678700862,0.84982103010370802
-4.0925000000000002,0.056764735060531063,0.55311515475928985
-4.0919999999999996,-0.46607383296648119,-0.19924617200859063
-4.0914999999999999,-0.83952995298503397,-0.99399405239542526
-4.0910000000000002,-1.2983474718653876,-1.6403889951106385
-4.0904999999999996,-0.70081767983449983,-0.99399405239477956
-4.0899999999999999,0.024754210487259936,-0.28401927924920728
-4.0895000000000001,0.4622313796522482,0.13984625695749003
-4.0890000000000004,0.70764540137872589,0.38356894027611937
-4.0884999999999998,0.70764540137894905,0.37297230187117358
-4.0880000000000001,0.60094365280212259,0.26700591781949923
-4.0875000000000004,0.51558225394073898,0.19282944898339466
-4.0869999999999997,0.48357172936771053,0.17163617217296342
-4.0865,0.59027347794443985,0.13984625695749003
-4.0860000000000003,0.61161382765978567,0.18223281057812121
-4.0854999999999997,0.57960330308669916,0.27760255622476304
-4.085,0.51558225394066137,0.38356894027634103
-4.0845000000000002,0.48357172936764259,0.50013196273307681
-4.0839999999999996,0.8250173248139141,0.77564456126749748
-4.0834999999999999,1.3265155431245421,0.73325800764686633
-4.0830000000000002,0.80367697509809277,-0.093279787956193475
-4.0824999999999996,-0.40205278382105497,-0.96220413718045295
-4.0819999999999999,-1.5117509690190405,-1.5450192494641319
-4.0815000000000001,-1.8318562147495197,-1.4708427806279598
-4.0810000000000004,-1.2983474718658727,-0.67609490024112517
-4.0804999999999998,-0.61545628097369853,0.16103953376782493
-4.0800000000000001,-0.071277363231883828,0.775644561267536
-4.0795000000000003,0.25949805735597725,1.1359302670429008
-4.0789999999999997,0.40888050536387383,1.2736865663104149
-4.0785,0.45156120479456557,1.2842832047155728
-4.0780000000000003,0.44089102993689266,1.2313000126897837
-4.0774999999999997,0.38754015564843092,1.1571235438534766
-4.077,0.34485945621773917,1.0617537982070568
-4.0765000000000002,0.30217875678704742,0.97698069096579432
-4.0759999999999996,0.056764735059230666,0.71206473083531707
-4.0754999999999999,-1.1276246741424654,-0.62311170821456507
-4.0750000000000002,-1.6397930673112322,-1.6403889951106385
-4.0744999999999996,-1.8531965644647588,-2.3079772146361579
-4.0739999999999998,-1.7144842913150107,-2.2761872994206844
-4.0735000000000001,-0.86087030270039921,-1.3224898429556156
-4.0730000000000004,-0.07127736323260192,-0.45356549373267652
-4.0724999999999998,0.34485945621773917,0.044476511310983152
-4.0720000000000001,0.52625242879834411,0.26700591781949923
-4.0715000000000003,0.56893312822903574,0.3411823866556038
-4.0709999999999997,0.54759277851368027,0.31998910984528822
-4.0705,0.51558225394066137,0.26700591781949923
-4.0700000000000003,0.53692260365600719,0.28819919462981486
-4.0694999999999997,0.558262953371363,0.30939247144016896
-4.069,0.52625242879834411,0.30939247144016896
-4.0685000000000002,0.4835717293676135,0.29879583303500157
-4.0679999999999996,0.45156120479472084,0.28819919462945826
-4.0674999999999999,0.62228400251748783,-0.12506970317169577
-4.0670000000000002,0.72898575109431429,-0.94101086036958814
-4.0664999999999996,0.15279630877866557,-1.6721789103265843
-4.0659999999999998,-0.71148785469284226,-2.159624276963843
-4.0655000000000001,-1.6291228924535495,-2.3927503218775263
-4.0650000000000004,-1.9919088376144294,-1.99007806248153
-4.0644999999999998,-1.4584000947306273,-0.94101086036958814
-4.0640000000000001,-0.73282820440820751,0.033879872905815719
-4.0635000000000003,-0.13529841237852314,0.72266136924107249
-4.0629999999999997,0.23815770764107774,1.1041403518278616
-4.0625,0.41955068022151765,1.2524932895000704
-4.0620000000000003,0.47290155450988236,1.2524932895000704
-4.0614999999999997,0.46223137965219968,1.1889134590689789
-4.0609999999999999,0.40888050536383502,1.0935437134225592
-4.0605000000000002,0.35552963107542179,0.99817396777605205
-4.0599999999999996,0.30217875678691158,0.92399749893986072
-4.0594999999999999,0.19547700821018218,0.90280422212954525
-4.0590000000000002,-0.14596858723566233,0.42595549389701071
-4.0585000000000004,-0.92489135184578675,-0.62311170821361106
-4.0579999999999998,-1.7251544661726932,-1.7145654639468106
-4.0575000000000001,-1.5757720181651362,-1.7887419327829828
-4.0570000000000004,-0.81818960327035772,-0.95160749877551687
-4.0564999999999998,-0.06060718837420119,-0.1674562567923655
-4.056,0.4622313796522482,0.34118238665567124
-4.0555000000000003,0.63295417737501536,0.43655213230209144
-4.0549999999999997,0.62228400251743932,0.37297230187109648
-4.0545,0.5689331282290746,0.28819919462983412
-4.0540000000000003,0.51558225394070989,0.22461936419888734
-4.0534999999999997,0.53692260365610422,0.18223281057815013
-4.0529999999999999,0.62228400251748783,0.17163617217299235
-4.0525000000000002,0.6116138276598051,0.20342608738849466
-4.0519999999999996,0.57960330308669916,0.25640927941439923
-4.0514999999999999,0.51558225394066137,0.33058574825050385
-4.0510000000000002,0.52625242879834411,0.31998910984533641
-4.0505000000000004,1.0490909968243178,0.13984625695765387
-4.0499999999999998,1.3905365922706379,-0.31580919446470956
-4.0495000000000001,0.83568749967114075,-0.99399405239542526
-4.0490000000000004,-0.31669138495753657,-1.5238259726533152
-4.0484999999999998,-1.394379045584706,-1.8417251248084539
-4.048,-1.586442193022819,-1.4390528654124575
-4.0475000000000003,-1.074273799854518,-0.52774196256888706
-4.0469999999999997,-0.46607383296571453,0.30939247144067977
-4.0465,0.0034138607718946501,0.87101430691404291
-4.0460000000000003,0.29150858192906398,1.1677201822584611
-4.0454999999999997,0.41955068022153708,1.2842832047155535
-4.0449999999999999,0.44089102993688295,1.2630899279052379
-4.0445000000000002,0.41955068022151765,1.1995100974742332
-4.0439999999999996,0.37686998079074829,1.114736990232817
-4.0434999999999999,0.33418928136005654,1.0299638829915545
-4.0430000000000001,0.27016823221396069,0.94519077575021493
-4.0425000000000004,-0.30602121010037786,0.425955493897483
-4.0419999999999998,-1.6291228924535495,-1.0045906908005926
-4.0415000000000001,-2.1412912856223163,-1.8629184016191549
-4.0410000000000004,-2.0452597119032601,-2.064254531317153
-4.0404999999999998,-1.1276246741415046,-1.269506650928911
-4.04,-0.071277363231883828,-0.31580919446470956
-4.0395000000000003,0.56893312822849229,0.24581264100865363
-4.0389999999999997,0.73965592595197738,0.39416557868148916
-4.0385,0.71831557623663156,0.37297230187117358
-4.0380000000000003,0.63295417737524817,0.28819919462991123
-4.0374999999999996,0.54759277851368027,0.21402272579362353
-4.0369999999999999,0.51558225394066137,0.17163617217299235
-4.0365000000000002,0.60094365280212259,0.19282944898332721
-4.0359999999999996,0.60094365280207407,0.2352160026040355
-4.0354999999999999,0.54759277851370936,0.27760255622466667
-4.0350000000000001,0.4835717293676135,0.34118238665567124
-4.0345000000000004,0.4835717293676135,0.37297230187114466
-4.0339999999999998,0.97439977282101498,0.0020899576903134209
-4.0335000000000001,1.5079085157051471,-0.63370834661973252
-4.0330000000000004,0.97439977282150025,-1.3330864813601471
-4.0324999999999998,-0.14596858723672013,-1.7993385711883718
-4.032,-1.3090176467230703,-2.043061254507001
-4.0315000000000003,-1.6931439415992959,-1.682775548731636
-4.0309999999999997,-1.2449965975763921,-0.72907809226541065
-4.0305,-0.6047861061160158,0.18223281057815977
-4.0300000000000002,-0.08194753809004196,0.82862775329278526
-4.0294999999999996,0.24882788249874097,1.1783168206640235
-4.0289999999999999,0.40888050536383502,1.3160731199310751
-4.0285000000000002,0.45156120479456557,1.3160731199310751
-4.0279999999999996,0.43022085507915181,1.2418966510948162
-4.0274999999999999,0.3768699807907871,1.146526905448396
-4.0270000000000001,0.32351910650237387,1.0617537982070568
-4.0265000000000004,0.29150858192935514,0.96638405256063653
-4.0259999999999998,0.078105084775673142,0.86041766850887547
-4.0255000000000001,-0.43406330839309365,0.40476221708667587
-4.0250000000000004,-1.1382948489995077,-0.67609490023941943
-4.0244999999999997,-1.469070269587553,-1.5026326958430478
-4.024,-0.63679663068906378,-1.0469772444212624
-4.0235000000000003,0.19547700820942526,-0.28401927924990122
-4.0229999999999997,0.71831557623679654,0.21402272579388373
-4.0225,0.8997085488172365,0.45774540911251305
-4.0220000000000002,0.78233662538283433,0.43655213230219742
-4.0214999999999996,0.63295417737507353,0.36237566346594829
-4.0209999999999999,0.52625242879834411,0.29879583303500157
-4.0205000000000002,0.4622313796522482,0.25640927941433178
-4.0199999999999996,0.54759277851375787,0.097459703336781764
-4.0194999999999999,0.60094365280212259,0.055073149716150585
-4.0190000000000001,0.57960330308675734,0.13984625695749003
-4.0185000000000004,0.52625242879839262,0.25640927941422575
-4.0179999999999998,0.47290155450993088,0.36237566346600614
-4.0175000000000001,0.44089102993688295,0.065669788121318018
-4.0170000000000003,0.83568749967078171,-0.71848145386035878
-4.0164999999999997,0.85702784938576848,-1.43905286541292
-4.016,0.046094560202625215,-1.947691508860494
-4.0155000000000003,-1.0422632752800143,-2.2232041073945967
-4.0149999999999997,-1.5437614935917683,-1.8947083168337608
-4.0145,-1.1916457232885611,-0.9092209451540858
-4.0140000000000002,-0.60478610611654959,0.012686596094642399
-4.0134999999999996,-0.10328788780464063,0.66967817721618927
-4.0129999999999999,0.21681735792554749,1.0299638829915545
-4.0125000000000002,0.3768699807907871,1.1677201822587309
-4.0119999999999996,0.43022085507920033,1.1677201822586731
-4.0114999999999998,0.43022085507920033,1.1041403518277266
-4.0110000000000001,0.38754015564846972,1.0193672445863871
-4.0105000000000004,0.34485945621777797,0.93459413734512453
-4.0099999999999998,0.31284893164469124,0.86041766850887547
-4.0095000000000001,0.15279630877945163,0.68027481562102909
-4.0090000000000003,-0.95690187641853408,-0.50654868575664402
-4.0084999999999997,-1.5010807941615325,-1.4602461422233994
-4.008,-1.6931439415996454,-2.1278343617483406
-4.0075000000000003,-1.3623685210117844,-2.0854478081277095
-4.0069999999999997,-0.42339313353471225,-1.0787671596359745
-4.0065,0.34485945621773917,-0.20984281041303524
-4.0060000000000002,0.67563487680590106,0.23521600260399694
-4.0054999999999996,0.71831557623657338,0.38356894027636029
-4.0049999999999999,0.65429452709053582,0.40476221708667587
-4.0045000000000002,0.5689331282290746,0.36237566346600614
-4.0039999999999996,0.50491207908302738,0.31998910984529788
-4.0034999999999998,0.55826295337139209,0.27760255622466667
-4.0030000000000001,0.67563487680590106,0.23521600260399694
-4.0025000000000004,0.63295417737520943,0.27760255622462815
-4.0019999999999998,0.54759277851370936,0.34118238665567124
-4.0015000000000001,0.47290155450993088,0.41535885549184332
-4.0010000000000003,0.59027347794433305,0.27760255622479196
-4.0004999999999997,1.0704313465398481,-0.30521255606026493
-4,0.72898575109431429,-1.0999604364470996
-3.9994999999999998,-0.26334051067017139,-1.746355379162313
-3.9990000000000001,-1.373038695869166,-2.1490276385586755
-3.9984999999999999,-2.151961460479999,-2.2443973842051821
-3.9980000000000002,-1.9172176136109809,-1.5344226110589645
-3.9975000000000001,-1.1489650238578306,-0.49595204735255594
-3.9969999999999999,-0.42339313353541097,0.36237566346600614
-3.9965000000000002,0.078105084775673142,0.90280422212954525
-3.996,0.34485945621773917,1.1677201822587309
-3.9954999999999998,0.45156120479456557,1.2524932895000704
-3.9950000000000001,0.4622313796522482,1.2101067358794007
-3.9944999999999999,0.41955068022151765,1.1253336286380615
-3.9940000000000002,0.35552963107542179,1.0299638829915545
-3.9935,0.32351910650237387,0.93459413734504748
-3.9929999999999999,0.28083840707164331,0.82862775329337313
-3.9925000000000002,-0.11395806266261441,0.36237566346600614
-3.992,-0.77550890383893822,-0.52774196256805828
-3.9914999999999998,-1.6504632421689147,-1.7251621023519781
-3.9910000000000001,-1.5117509690190405,-1.5768091646796343
-3.9904999999999999,-0.76483872898125549,-0.76086800748174177
-3.9900000000000002,-0.0072563140857879876,-0.061489872740691176
-3.9895,0.52625242879834411,0.35177902506083869
-3.9889999999999999,0.66496470194821833,0.39416557868150842
-3.9885000000000002,0.63295417737517057,0.30939247144016896
-3.988,0.55826295337139209,0.24581264100916439
-3.9874999999999998,0.50491207908297886,0.19282944898332721
-3.9870000000000001,0.49424190422529612,0.2246193641988295
-3.9864999999999999,0.62228400251748783,0.38356894027634103
-3.9860000000000002,0.63295417737517057,0.43655213230217815
-3.9855,0.5689331282290746,0.45774540911251305
-3.9849999999999999,0.49424190422529612,0.47893868592284788
-3.9845000000000002,0.49424190422529612,0.50013196273318283
-3.984,0.88903837395955376,0.033879872905815719
-3.9834999999999998,1.0490909968247935,-0.78206128429207655
-3.9830000000000001,0.30217875678700862,-1.4496495038176249
-3.9824999999999999,-0.77550890383893822,-1.84172512480882
-3.9820000000000002,-1.618452717595867,-1.8947083168346572
-3.9815,-1.5437614935920885,-1.1847335436884392
-3.9809999999999999,-0.94623170156186043,-0.20984281041303524
-3.9805000000000001,-0.33803173467394987,0.57430843156935485
-3.98,0.08877525963335578,1.0617537982070568
-3.9794999999999998,0.31284893164469124,1.2842832047155728
-3.9790000000000001,0.41955068022151765,1.3478630351465775
-3.9784999999999999,0.44089102993688295,1.2948798431207402
-3.9780000000000002,0.40888050536383502,1.1995100974742332
-3.9775,0.34485945621773917,1.1041403518277266
-3.9769999999999999,0.31284893164469124,0.99817396777605205
-3.9765000000000001,0.25949805735627807,0.89220758372437781
-3.976,-0.44473348325077627,0.16103953376782493
-3.9754999999999998,-1.2129860730039266,-0.82444783791274634
-3.9750000000000001,-1.5971123678805015,-1.6615822719209734
-3.9744999999999999,-1.9598983130417114,-2.2761872994206844
-3.9740000000000002,-1.3837088707268488,-1.746355379162313
-3.9735,-0.32736155981626724,-0.67609490024040231
-3.9729999999999999,0.3768699807907871,-0.0085066807148540119
-3.9725000000000001,0.65429452709053582,0.24581264100916439
-3.972,0.71831557623663156,0.30939247144016896
-3.9714999999999998,0.66496470194821833,0.26700591781949923
-3.9710000000000001,0.57960330308675734,0.20342608738849466
-3.9704999999999999,0.52625242879834411,0.16103953376782493
-3.9700000000000002,0.64362435223285308,0.21402272579366208
-3.9695,0.67563487680590106,0.26700591781949923
-3.9689999999999999,0.6116138276598051,0.29879583303500157
-3.9685000000000001,0.52625242879834411,0.33058574825050385
-3.968,0.45156120479456557,0.35177902506083869
-3.9674999999999998,0.15279630877945163,-0.12506970317169577
-3.9670000000000001,-0.08194753808956648,-0.98339741399025782
-3.9664999999999999,-0.71148785469284226,-1.6933721871364757
-3.9660000000000002,-1.586442193022819,-2.1384310001535081
-3.9655,-2.365364957633652,-2.2973805762310193
-3.9649999999999999,-2.3760351324913342,-1.8523217632139874
-3.9645000000000001,-1.5117509690190405,-0.81385119950757889
-3.964,-0.66880715526211176,0.16103953376782493
-3.9634999999999998,-0.049937013516518552,0.83922439169854057
-3.9630000000000001,0.30217875678700862,1.2101067358794007
-3.9624999999999999,0.45156120479456557,1.3478630351465775
-3.9620000000000002,0.4835717293676135,1.33726639674141
-3.9615,0.45156120479456557,1.2524932895000704
-3.9609999999999999,0.38754015564846972,1.146526905448396
-3.9605000000000001,0.32351910650237387,1.0299638829915545
-3.96,0.29150858192932599,0.92399749893988004
-3.9594999999999998,0.19547700821018218,0.80743447648303834
-3.9590000000000001,-0.34870190953163249,0.21402272579366208
-3.9584999999999999,-1.0636036249963696,-0.61251506980939763
-3.9580000000000002,-1.5757720181651362,-1.2801032893349458
-3.9575,-1.9065474387532981,-1.7569520175674804
-3.9569999999999999,-1.3090176467230703,-1.1741369052832717
-3.9565000000000001,-0.48741418268150688,-0.4641621321370536
-3.956,0.067434909917990504,-0.04029659593035631
-3.9554999999999998,0.45156120479456557,0.2246193641988295
-3.9550000000000001,0.62228400251748783,0.31998910984533641
-3.9544999999999999,0.57960330308675734,0.23521600260399694
-3.9540000000000002,0.51558225394066137,0.16103953376782493
-3.9535,0.55826295337139209,0.076266426526485451
-3.9529999999999998,0.62228400251748783,0.023283234500648287
-3.9525000000000001,0.59027347794443985,0.076266426526485451
-3.952,0.53692260365602662,0.18223281057815977
-3.9514999999999998,0.4835717293676135,0.29879583303500157
-3.9510000000000001,0.55826295337139209,0.12924961855232261
-3.9504999999999999,1.1131120459708892,-0.64430498502489997
-3.9500000000000002,1.1878032699746677,-1.4390528654124575
-3.9495,0.41955068022151765,-1.8523217632139874
-3.9489999999999998,-0.73282820440820751,-2.043061254507001
-3.9485000000000001,-1.618452717595867,-1.9582881472656615
-3.948,-1.5117509690190405,-1.1529436284729369
-3.9474999999999998,-0.92489135184649518,-0.15685961838719809
-3.9470000000000001,-0.32736155981626724,0.61669498519002452
-3.9464999999999999,0.099445434491038431,1.0935437134225592
-3.9460000000000002,0.33418928136005654,1.3054764815259077
-3.9455,0.43022085507920033,1.3584596735517449
-3.9449999999999998,0.45156120479456557,1.2948798431207402
-3.9445000000000001,0.40888050536383502,1.1995100974742332
-3.944,0.34485945621773917,1.1041403518277266
-3.9434999999999998,0.29150858192932599,0.99817396777605205
-3.9430000000000001,0.23815770764091276,0.9134008605347127
-3.9424999999999999,-0.17797911180871023,0.46834204751768049
-3.9420000000000002,-0.91422117698881245,-0.36879238649054674
-3.9415,-1.4263895701575793,-1.2589100125246109
-3.9409999999999998,-1.6397930673112322,-1.523825972653797
-3.9405000000000001,-0.78617907869662074,-0.60191843140423029
-3.9399999999999999,-0.0072563140857879876,0.023283234500648287
-3.9394999999999998,0.51558225394066137,0.35177902506083869
-3.9390000000000001,0.75032610080967954,0.43655213230217815
-3.9384999999999999,0.70764540137894905,0.28819919462983412
-3.9380000000000002,0.60094365280212259,0.13984625695749003
-3.9375,0.51558225394066137,0.055073149716150585
-3.9369999999999998,0.50491207908297886,0.044476511310983152
-3.9365000000000001,0.55826295337139209,0.086863064931652884
-3.9359999999999999,0.53692260365602662,0.17163617217299235
-3.9355000000000002,0.49424190422529612,0.27760255622466667
-3.9350000000000001,0.45156120479456557,0.40476221708667587
-3.9344999999999999,0.52625242879834411,0.34118238665567124
-3.9340000000000002,1.0811015213978414,-0.33700247127504446
-3.9335,1.1664629202593024,-1.0893637980419322
-3.9329999999999998,0.41955068022151765,-1.5662125262744668
-3.9325000000000001,-0.66880715526211176,-1.7887419327829828
-3.9319999999999999,-1.5651018433074537,-1.7569520175674804
-3.9315000000000002,-1.5651018433074537,-1.0893637980419322
-3.931,-0.98891240099259115,-0.12506970317169577
-3.9304999999999999,-0.38071243410468042,0.6590815388106942
-3.9300000000000002,0.05676473506030786,1.146526905448396
-3.9295,0.31284893164469124,1.3796529503620798
-3.9289999999999998,0.41955068022151765,1.4114428655775821
-3.9285000000000001,0.44089102993688295,1.33726639674141
-3.9279999999999999,0.40888050536383502,1.2207033742845681
-3.9275000000000002,0.34485945621773917,1.0829470750173917
