Class_3_Grab_w_two_Hands/Class_3_Grab_with_Two_Hands_UZ_7.csv

#Digilent WaveForms Oscilloscope Acquisition
#Device Name: EExplorer
#Serial Number: SN:210151A2B84A
#Date Time: 2020-12-14 13:26:02.234
#Sample rate: 2000Hz
#Samples: 16384
#Trigger: Source: Channel 1 Type: Edge Condition: Rising Level: 0 V Hyst.: Auto HoldOff: 0 s
#Channel 1: Range: 1 V/div Offset: 0 V Attenuation: 1 X
#Channel 2: Range: 1 V/div Offset: 0 V Attenuation: 1 X
#Power Supplies: ON
#Fixed Supply: ON
#Voltage: 3.3 V Readback: 3.322 V
#Positive Supply: ON
#Voltage: 3.7 V Readback: 3.716 V
#Current: 40 mA Readback: 18 mA
#Negative Supply: ON
#Voltage: -3.7 V Readback: -3.352 V
#Current: -40 mA Readback: -7 mA
#Reference 1: ON
#Voltage: 0 V
#Reference 2: ON
#Voltage: 0 V

Time (s),Channel 1 (V),Channel 2 (V)
-4.096,0.1207857842064037,0.1716361721729923
-4.0955,0.3768699807905542,0.02328323450078321
-4.095,0.5902734779448668,-0.1462629799823969
-4.0945,1.059761171682476,-0.5489352393783931
-4.094,1.155792745401533,-0.5913217929990243
-4.0935,0.6222840025173423,0.02328323450069647
-4.093,0.4622313796522482,0.07626642652648545
-4.0925,0.6969752265210528,-0.5489352393778244
-4.092,0.9210488985326697,-1.099960436447167
-4.0915,0.9957401225363802,-1.174136905283272
-4.091,0.8890383739595538,-0.9516074987747555
-4.0905,0.6649647019479854,-0.6337083466194434
-4.09,0.408880505363835,-0.3158091944647096
-4.0895,0.1634664836371343,-0.05089323433552374
-4.089,-0.1566387620930538,0.2140227257934212
-4.0885,-0.2633405106701714,0.2246193641988295
-4.088,-0.2420001609548061,0.1292496185523226
-4.0875,-0.2099896363817873,0.03387987290590246
-4.087,-0.1779791118088849,-0.02969995752500576
-4.0865,-0.3700422592469978,0.1716361721729923
-4.086,-0.8288597781269342,0.7438546460515133
-4.0855,-1.362368521011891,1.273686566310714
-4.085,-1.810515865034154,1.612778995275763
-4.0845,-2.151961460479689,1.708148740922183
-4.084,-1.725154466172101,1.220703374283913
-4.0835,-1.074273799854052,0.5001319627331828
-4.083,-0.5407650569699201,-0.06148987274069118
-4.0825,-0.1993194615239106,-0.3475991096802697
-4.082,-0.01792648894347063,-0.4111789401112165
-4.0815,0.04609456020262521,-0.326405832869877
-4.081,0.04609456020262521,-0.1568596183873523
-4.0805,0.03542438534494258,0.02328323450064829
-4.08,0.02475421048725994,0.2140227257936621
-4.0795,0.05676473506027875,0.3411823866555556
-4.079,0.1634664836372701,0.3729723018710772
-4.0785,0.3128489316446912,0.2670059178194992
-4.078,0.7609962756669547,0.01268659609571215
-4.0775,1.059761171681991,-0.05089323433506114
-4.077,0.5262524287983441,0.457745409112513
-4.0765,0.05676473506073487,0.8498210301033514
-4.076,0.1954770082105413,0.2352160026031777
-4.0755,0.5902734779444399,-0.6654982618352349
-4.075,0.8463576745288233,-1.174136905283272
-4.0745,0.8570278493863605,-1.152943628472677
-4.074,0.6969752265212663,-0.8668343915334161
-4.0735,0.4515612047945656,-0.5595318777835605
-4.073,0.2381577076411069,-0.2946159176546156
-4.0725,-0.04993701351651855,0.02328323450064829
-4.072,-0.2099896363817582,0.1822328105781598
-4.0715,-0.2206598112394311,0.1822328105781598
-4.071,-0.1779791118086714,0.1398462569574515
-4.0705,-0.1352984123779797,0.09745970333682032
-4.07,-0.1566387620933256,0.1716361721729249
-4.0695,-0.1993194615243181,0.6272916235957028
-4.069,-0.4660738329661415,1.188913459069066
-4.0685,-1.020922925565639,1.580989080060261
-4.068,-1.522421143876636,1.72934201773222
-4.0675,-1.426389570157579,1.305476481525908
-4.067,-0.9889124009925911,0.5955017083796896
-4.0665,-0.5514352318273117,0.02328323450035916
-4.066,-0.2313299860971235,-0.2946159176543747
-4.0655,-0.06060718837420119,-0.3899856633008816
-4.065,0.01408403562950936,-0.3264058328699349
-4.0645,0.03542438534494258,-0.1886495336027004
-4.064,0.02475421048725994,-0.01910331912002144
-4.0635,0.014084035629587,0.1504428953625033
-4.063,0.08877525963347223,0.2352160026040162
-4.0625,0.2168173579255475,0.2564092794143318
-4.062,0.3235191065022768,0.2140227257937006
-4.0615,0.5369226036564342,0.1504428953625129
-4.061,0.9850699476786977,-0.008506680714854012
-4.0605,0.6542945270905358,0.2670059178194992
-4.06,0.1314559590641737,0.7862411996724047
-4.0595,0.2274875327832301,0.457745409112513
-4.059,0.6436243522328531,-0.4641621321370536
-4.0585,0.9423892482476952,-1.163540266877468
-4.058,0.9957401225363802,-1.311893204550448
-4.0575,0.825017324813458,-1.046977244421262
-4.057,0.5582629533716348,-0.6760949002407397
-4.0565,0.3021787567870086,-0.3475991096802118
-4.056,0.03542438534494258,-0.01910331912002144
-4.0555,-0.199319461523862,0.2246193641986078
-4.055,-0.2526703358124499,0.2246193641987524
-4.0545,-0.2099896363817582,0.13984625695749
-4.054,-0.1566387620933935,0.05507314971622769
-4.0535,-0.1459685872357885,0.02328323450096633
-4.053,-0.2846808603855366,0.3729723018711736
-4.0525,-0.423393133535411,0.9663840525605498
-4.052,-0.9569018764200672,1.432636142388139
-4.0515,-1.533091318734406,1.676358825706768
-4.051,-1.565101843307454,1.400846227172415
-4.0505,-1.127624674142863,0.6908714540268422
-4.05,-0.658136980404429,0.05507314971615059
-4.0495,-0.2953510352432193,-0.3370024712750445
-4.049,-0.08194753808976057,-0.4853554089472536
-4.0485,0.0140840356295967,-0.4535654937317802
-4.048,0.03542438534494258,-0.3370024712750445
-4.0475,0.02475421048726964,-0.1568596183873619
-4.047,0.01408403562962582,0.0126865960955965
-4.0465,0.0674349099179905,0.13984625695749
-4.046,0.152796308779374,0.192829448983279
-4.0455,0.2168173579256834,0.1928294489832597
-4.045,0.3661998059331045,0.1186529801471552
-4.0445,0.942389248247967,-0.1886495336027004
-4.044,1.049090996824172,-0.580725154593587
-4.0435,0.3661998059331045,-0.2416327256285375
-4.043,0.2061471830678648,-0.2098428104130352
-4.0425,0.6009436528017635,-0.8032545611018718
-4.042,0.9530594231056497,-1.375473034981453
-4.0415,1.070431346540159,-1.417859588602123
-4.041,0.9530594231057565,-1.089363798042231
-4.0405,0.7076454013786967,-0.6972881770504191
-4.04,0.4302208550792003,-0.3475991096802118
-4.0395,0.152796308779704,-0.06148987274095141
-4.039,-0.2313299860972302,0.2352160026040259
-4.0385,-0.3487019095316325,0.2670059178194992
-4.038,-0.2953510352432678,0.1610395337679213
-4.0375,-0.2099896363816999,0.03387987290572898
-4.037,-0.1459685872356623,-0.06148987274069118
-4.0365,-0.3380317346739499,0.08686306493165288
-4.036,-0.9889124009931443,0.6378882620008509
-4.0355,-1.597112367880501,1.178316820663898
-4.035,-2.002579012472442,1.528005888034424
-4.0345,-1.842526389607348,1.358459673551899
-4.034,-1.244996597576974,0.6908714540261965
-4.0335,-0.6794773301197943,0.04447651131098315
-4.033,-0.2846808603858957,-0.3687923864901709
-4.0325,-0.06060718837412356,-0.5383386009732063
-4.032,0.02475421048725994,-0.5171453241628908
-4.0315,0.04609456020260581,-0.3899856633009973
-4.031,0.03542438534492317,-0.2204394488180292
-4.0305,0.01408403562957729,-0.02969995752518888
-4.03,0.03542438534492317,0.129249618552178
-4.0295,0.07810508477576049,0.2564092794143607
-4.029,0.1741366584948169,0.2881991946298341
-4.0285,0.291508581929326,0.1928294489833272
-4.028,0.6329541773754132,-0.1038764263617175
-4.0275,0.8997085488172365,-0.4959520473525559
-4.027,0.3768699807907871,-0.1568596183871981
-4.0265,-0.01792648894311161,0.2352160026036403
-4.026,0.1634664836371343,-0.1780528951975329
-4.0255,0.5475927785137094,-0.8138511995075789
-4.025,0.8036769750978598,-1.142346990067471
-4.0245,0.8250173248133027,-1.078767159636476
-4.024,0.6542945270905358,-0.7608680074817418
-4.0235,0.3982103305063853,-0.4217755785166923
-4.023,0.1848068333522569,-0.1568596183869668
-4.0225,-0.08194753808956648,0.09745970333682032
-4.022,-0.2313299860969876,0.2140227257935561
-4.0215,-0.2313299860970846,0.192829448983279
-4.021,-0.1886492866663929,0.13984625695749
-4.0205,-0.1459685872356623,0.08686306493165288
-4.02,-0.1779791118087587,0.1186529801475503
-4.0195,-0.2313299860971235,0.55311515475902
-4.019,-0.572775581542968,1.104140351827727
-4.0185,-1.255666772434036,1.464426057603092
-4.018,-1.842526389607202,1.538602526439591
-4.0175,-1.938557963326346,1.273686566310405
-4.017,-1.383708870727353,0.5743084315699909
-4.0165,-0.8075194284115784,-0.0720865111462152
-4.016,-0.3593720843893152,-0.4641621321370536
-4.0155,-0.1032878878051647,-0.6125150698092627
-4.015,0.01408403562960641,-0.5701285161886027
-4.0145,0.04609456020262521,-0.4323722169215513
-4.014,0.04609456020262521,-0.241632725628711
-4.0135,0.05676473506036608,-0.04029659593022138
-4.013,0.1207857842064037,0.1080563417419877
-4.0125,0.2061471830678648,0.2034260873884947
-4.012,0.302178756787358,0.1822328105778899
-4.0115,0.6863050516635838,-0.1144730647665284
-4.011,1.262494493978446,-0.6654982618352349
-4.0105,0.98506994767895,-0.8774310299383907
-4.01,0.291508581929326,-0.326405832869877
-4.0095,0.291508581929326,-0.3370024712750445
-4.009,0.6756348768055517,-0.8668343915329343
-4.0085,0.9530594231056594,-1.237716735714171
-4.008,0.9637295979633325,-1.121153713257435
-4.0075,0.7716664505252195,-0.7714646458872272
-4.007,0.5049120790827557,-0.4111789401109562
-4.0065,0.2594980573562781,-0.1250697031716958
-4.006,-0.01792648894347063,0.07626642652648545
-4.0055,-0.2633405106702393,0.2034260873884947
-4.005,-0.3380317346739499,0.2034260873884947
-4.0045,-0.3380317346739499,0.1292496185523226
-4.004,-0.2633405106701229,0.04447651131093496
-4.0035,-0.2099896363817582,-0.008506680714854012
-4.003,-0.3273615598162672,0.2881991946298341
-4.0025,-0.5087545323967071,0.8816109453186707
-4.002,-1.095614149569417,1.347863035146577
-4.0015,-1.565101843307454,1.517409249629256
-4.001,-1.874536914179969,1.432636142387994
-4.0005,-1.511750969018526,0.8074344764823926
-4,-0.9462317015618604,0.09745970333682032
-3.9995,-0.4767440078238243,-0.4111789401112165
-3.999,-0.1673089369510276,-0.6549016234300674
-3.9985,-0.01792648894347063,-0.6866915386455698
-3.998,0.04609456020262521,-0.570128516188728
-3.9975,0.04609456020262521,-0.3899856633008816
-3.997,0.03542438534494258,-0.1886495336027004
-3.9965,0.01408403562957729,0.02328323450064829
-3.996,0.04609456020262521,0.1716361721729923
-3.9955,0.1314559590640864,0.2246193641988295
-3.995,0.2701682322139607,0.1928294489833272
-3.9945,0.7609962756673623,0.2881991946298341
-3.994,0.7396559259519968,0.6908714540261965
-3.9935,0.1527963087794516,1.135930267043229
-3.993,0.07810508477567314,0.8922075837243778
-3.9925,0.408880505363835,-0.008506680714854012
-3.992,0.7609962756673623,-0.8562377531282487
-3.9915,0.9103787236749192,-1.131750351662602
-3.991,0.825017324813458,-0.9410108603695881
-3.9905,0.5796033030867573,-0.5807251545938954
-3.99,0.3448594562177392,-0.2204394488182027
-3.9895,0.142126133921769,0.05507314971615059
-3.989,-0.06060718837420119,0.309392471440169
-3.9885,-0.1459685872356623,0.3729723018711736
-3.988,-0.1459685872356623,0.3411823866556712
-3.9875,-0.124628237520297,0.2987958330350016
-3.987,-0.1032878878049318,0.2564092794143318
-3.9865,-0.2206598112394408,0.4047622170866759
-3.986,-0.5621054066852853,0.8816109453192104
-3.9855,-1.191645723288561,1.33726639674141
-3.985,-1.863866739322568,1.612778995275763
-3.9845,-2.013249187330125,1.475022696008586
-3.984,-1.458400094730627,0.775644561267536
-3.9835,-0.8502001278427167,0.06566978812131802
-3.983,-0.391382608962363,-0.4111789401112165
-3.9825,-0.1139580626626144,-0.6443049850249
-3.982,0.01408403562957729,-0.6654982618352349
-3.9815,0.05676473506030786,-0.570128516188728
-3.981,0.04609456020262521,-0.400582301706049
-3.9805,0.03542438534494258,-0.2204394488182027
-3.98,0.0674349099179905,-0.06148987274069118
-3.9795,0.1314559590640864,0.06566978812131802
-3.979,0.2061471830678648,0.1292496185523226
-3.9785,0.3128489316446912,0.08686306493165288
-3.978,0.857027849386506,-0.326405832869877
-3.9775,1.305175193409177,-0.8244478379127463
-3.977,0.7183155762366316,-0.5383386009732256
-3.9765,0.2808384070716433,-0.1992461720078678
-3.976,0.5155822539406614,-0.6125150698093976
-3.9755,0.857027849386506,-1.131750351662602
-3.975,0.9957401225363802,-1.227120097309109
-3.9745,0.9210488985326017,-0.9410108603695881
-3.974,0.707645401378949,-0.5595318777835605
-3.9735,0.4195506802215176,-0.2310360872233701
-3.973,0.1848068333524996,-0.008506680714854012
-3.9725,-0.04993701351651855,0.05507314971615059
-3.972,-0.156638762093345,0.08686306493165288
-3.9715,-0.1673089369510276,0.09745970333682032
-3.971,-0.1352984123779797,0.09745970333682032
-3.9705,-0.1139580626626144,0.07626642652648545
-3.97,-0.156638762093345,0.1080563417419877
-3.9695,-0.08194753808956648,0.4365521323021782
-3.969,-0.3380317346739499,0.9663840525605498
-3.9685,-0.9995825758502737,1.37965295036208
-3.968,-1.661133417026597,1.559795803249926
-3.9675,-1.83185621474952,1.316073119931075
-3.967,-1.362368521011484,0.5849050699745222
-3.9665,-0.807519428411986,-0.1250697031716958
-3.966,-0.3700422592469978,-0.5913217929990628
-3.9655,-0.1139580626626144,-0.792657922697244
-3.965,0.01408403562957729,-0.8032545611024114
-3.9645,0.04609456020262521,-0.6866915386455698
-3.964,0.04609456020262521,-0.5171453241628908
-3.9635,0.02475421048725994,-0.3158091944647096
-3.963,0.05676473506030786,-0.1356663415768632
-3.9625,0.1314559590640864,-0.01910331912002144
-3.962,0.2274875327832301,0.01268659609548085
-3.9615,0.6009436528021226,-0.1674562567923655
-3.961,1.230483969405398,-0.6443049850249
-3.9605,1.177133095116985,-0.7820612842920766
-3.96,0.9317190733902845,-0.3370024712750445
-3.9595,1.038420821967111,-0.4111789401112165
-3.959,1.19847344483235,-0.7502713690765743
-3.9585,1.219813794547716,-0.8350444763179138
-3.958,1.059761171682476,-0.570128516188728
-3.9575,0.7823366253827275,-0.2310360872233701
-3.957,0.4729015545099309,0.03387987290581572
-3.9565,0.2274875327832301,0.2140227257936621
-3.956,-0.01792648894347063,0.383568940276341
-3.9555,-0.1886492866663929,0.4047622170866759
-3.955,-0.2099896363817582,0.2458126410091644
-3.9545,-0.1993194615240755,0.04447651131098315
-3.954,-0.1673089369510276,-0.1462629799820306
-3.9535,-0.1459685872356623,-0.2840192792492073
-3.953,-0.09261771294724913,-0.008506680714854012
-3.9525,-0.1673089369510276,0.6378882620003594
-3.952,-0.839529952985034,1.220703374284568
-3.9515,-1.501080794161358,1.549199164844759
-3.951,-1.842526389607202,1.485619334413754
-3.9505,-1.458400094730627,0.8286277532933731
-3.95,-0.9142211769888124,0.09745970333682032
-3.9495,-0.4554036581084589,-0.4111789401112165
-3.949,-0.156638762093345,-0.6654982618352349
-3.9485,-0.007256314085787988,-0.7078848154559045
-3.948,0.03542438534494258,-0.6125150698093976
-3.9475,0.04609456020262521,-0.4535654937318862
-3.947,0.03542438534494258,-0.2734226408440398
-3.9465,0.08877525963335578,-0.1144730647665284
-3.946,0.1634664836371343,0.002089957690313421
-3.9455,0.2381577076409128,0.04447651131098315
-3.945,0.5475927785137094,-0.1674562567923655
-3.9445,1.177133095116985,-0.6125150698093976
-3.944,1.209143619690033,-0.9728007755850904
-3.9435,0.4408910299368829,-0.5383386009732256
-3.943,0.1314559590640864,-0.3158091944647096
-3.9425,0.3875401556484697,-0.6549016234300674
-3.942,0.6969752265212663,-0.9092209451540858
-3.9415,0.8143471499557753,-0.7608680074817418
-3.941,0.707645401378949,-0.4111789401112165
-3.9405,0.4942419042252961,-0.1250697031716958
-3.94,0.2701682322139607,0.06566978812131802
-3.9395,0.09944543449103843,0.1504428953626575
-3.939,-0.07127736323188383,0.1292496185523226
-3.9385,-0.124628237520297,0.08686306493165288
-3.938,-0.1352984123779797,0.04447651131098315
-3.9375,-0.1352984123779797,-0.008506680714854012
-3.937,-0.1352984123779797,-0.07208651114585861
-3.9365,-0.3700422592469978,0.2034260873884947
-3.936,-0.5834457564006506,0.7968378380778709
-3.9355,-1.084943974711735,1.326669758336243
-3.935,-1.543761493592088,1.559795803249926
-3.9345,-1.821186039891837,1.517409249629256
-3.934,-1.51175096901904,0.9345941373450475
-3.9335,-0.9675720512772257,0.2034260873884947
-3.933,-0.4874141826815069,-0.3581957480853793
-3.9325,-0.1779791118087102,-0.6549016234300674
-3.932,-0.01792648894347063,-0.7290780922662394
-3.9315,0.03542438534494258,-0.6654982618352349
-3.931,0.04609456020262521,-0.5171453241628908
-3.9305,0.02475421048725994,-0.3370024712750445
-3.93,0.04609456020262521,-0.1674562567923655
-3.9295,0.09944543449103843,-0.02969995752518888
-3.929,0.1741366584948169,0.03387987290581572
-3.9285,0.3021787567870086,0.002089957690313421
-3.928,0.8463576745288233,-0.2098428104130352
-3.9275,1.230483969405398,-0.4853554089473885
-3.927,0.7396559259519968,-0.07208651114585861
-3.9265,0.2274875327832301,0.2881991946298341
-3.926,0.3768699807907871,-0.2310360872233701
-3.9255,0.7289857510943143,-0.9410108603695881
-3.925,0.8890383739595538,-1.131750351662602
-3.9245,0.8356874996711408,-0.8668343915334161
-3.924,0.6436243522328531,-0.5277419625680583
-3.9235,0.3875401556484697,-0.2416327256285375
-3.923,0.1741366584948169,-0.02969995752518888
-3.9225,-0.07127736323188383,0.1822328105781598
-3.922,-0.1779791118087102,0.2776025562246667
-3.9215,-0.1886492866663929,0.2670059178194992
-3.921,-0.156638762093345,0.2246193641988295
-3.9205,-0.124628237520297,0.1610395337678249
-3.92,-0.1673089369510276,0.2034260873884947
-3.9195,-0.4127229586777283,0.6378882620003594
-3.919,-0.9889124009925911,1.157123543853563
-3.9185,-1.639793067311232,1.517409249629256
-3.918,-2.087940411333903,1.602182356870596
-3.9175,-1.725154466172693,1.082947075017392
-3.917,-1.095614149569417,0.3199891098453364
-3.9165,-0.5621054066852853,-0.2840192792492073
-3.916,-0.2099896363817582,-0.6231117082145651
-3.9155,-0.02859666380115328,-0.7290780922662394
-3.915,0.04609456020262521,-0.6654982618352349
-3.9145,0.05676473506030786,-0.5277419625680583
-3.914,0.03542438534494258,-0.3475991096802118
-3.9135,0.04609456020262521,-0.1674562567923655
-3.913,0.1101156093487211,-0.01910331912002144
-3.9125,0.1954770082101822,0.05507314971615059
-3.912,0.3021787567870086,0.02328323450064829
-3.9115,0.6969752265212663,-0.2416327256285375
-3.911,1.19847344483235,-0.7290780922662394
-3.9105,0.6542945270905358,-0.5807251545938954
-3.91,-0.08194753808956648,-0.06148987274069118
-3.9095,0.08877525963335578,-0.3687923864905467
-3.909,0.5369226036560266,-0.9622041371799229
-3.9085,0.8463576745288233,-1.248313374119443
-3.908,0.8997085488172365,-1.078767159636765
-3.9075,0.7503261008096795,-0.718481453861072
-3.907,0.4835717293676135,-0.3687923864905467
-3.9065,0.2381577076409128,-0.07208651114585861
-3.906,-0.08194753808956648,0.2034260873884947
-3.9055,-0.3273615598162672,0.3623756634660061
-3.905,-0.3593720843893152,0.2881991946298341
-3.9045,-0.2846808603855366,0.1610395337678249
-3.904,-0.1993194615240755,0.03387987290581572
-3.9035,-0.124628237520297,-0.05089323433552374
-3.903,0.1527963087794516,0.13984625695749
-3.9025,0.07810508477567314,0.6590815388106942
-3.902,-0.690147504977477,1.167720182258731
-3.9015,-1.415719395299897,1.369056311956912
-3.901,-1.725154466172693,1.263089927905238
-3.9005,-1.373038695869166,0.6590815388106942
-3.9,-0.8502001278427167,0.02328323450064829
-3.8995,-0.423393133535411,-0.4111789401112165
-3.899,-0.1459685872356623,-0.6019184314042303
-3.8985,-0.007256314085787988,-0.6019184314042303
-3.898,0.03542438534494258,-0.4853554089473885
-3.8975,0.03542438534494258,-0.326405832869877
-3.897,0.04609456020262521,-0.1462629799820306
-3.8965,0.1101156093487211,0.002089957690313421
-3.896,0.1527963087794516,0.13984625695749
-3.8955,0.2274875327832301,0.13984625695749
-3.895,0.4622313796522482,-0.01910331912002144
-3.8945,1.091771696255524,-0.5277419625680583
-3.894,1.070431346540159,-0.8774310299385835
-3.8935,0.3128489316446912,-0.400582301706049
-3.893,0.04609456020262521,-0.2098428104130352
-3.8925,0.3661998059331045,-0.6760949002404023
-3.892,0.7396559259519968,-1.089363798041932
-3.8915,0.8890383739595538,-1.036380606016095
-3.891,0.8143471499557753,-0.718481453861072
-3.8905,0.6009436528021226,-0.3899856633008816
-3.89,0.3555296310754218,-0.1356663415768632
-3.8895,0.07810508477567314,-0.09327978795619347
-3.889,-0.2206598112394408,-0.1992461720078678
-3.8885,-0.3166913849585846,-0.1568596183871981
