Class_3_Grab_w_two_Hands/Class_3_Grab_with_two_hands_Basim_7.csv

#Digilent WaveForms Oscilloscope Acquisition
#Device Name: EExplorer
#Serial Number: SN:210151A2B84A
#Date Time: 2020-12-16 09:15:37.185
#Sample rate: 2000Hz
#Samples: 16384
#Trigger: Source: Channel 1 Type: Edge Condition: Rising Level: 0 V Hyst.: Auto HoldOff: 0 s
#Channel 1: Range: 1 V/div Offset: 0 V Attenuation: 1 X
#Channel 2: Range: 1 V/div Offset: 0 V Attenuation: 1 X
#Power Supplies: ON
#Fixed Supply: ON
#Voltage: 3.3 V Readback: 3.308 V
#Positive Supply: ON
#Voltage: 3.7 V Readback: 3.706 V
#Current: 40 mA Readback: 22 mA
#Negative Supply: ON
#Voltage: -3.7 V Readback: -3.345 V
#Current: -40 mA Readback: -5 mA
#Reference 1: ON
#Voltage: 0 V
#Reference 2: ON
#Voltage: 0 V

Time (s),Channel 1 (V),Channel 2 (V)
-4.096,-0.8608703027003992,0.6378882620003594
-4.0955,-1.180975548430587,1.146526905447933
-4.095,-1.266336947292039,1.347863035146134
-4.0945,-0.9355615267041777,0.8604176685088755
-4.094,-0.4447334832512227,0.07626642652719862
-4.0935,-0.01792648894322801,-0.5595318777838881
-4.093,0.2488278824985954,-0.9198175835592532
-4.0925,0.3768699807906706,-1.057573882826305
-4.092,0.4302208550792003,-1.015187329205644
-4.0915,0.4302208550792003,-0.8880276683437509
-4.091,0.408880505363835,-0.7078848154559045
-4.0905,0.398210330506133,-0.5171453241627173
-4.09,0.3768699807907871,-0.326405832869877
-4.0895,0.3661998059331045,-0.1462629799820306
-4.089,0.3661998059331045,0.02328323450049408
-4.0885,0.2594980573562781,0.1716361721729923
-4.088,-0.3380317346739499,0.457745409112513
-4.0875,-0.8822106524152695,0.8498210301033514
-4.087,-1.095614149569214,1.199510097473973
-4.0865,-0.8715404775580819,0.9134008605347127
-4.086,-0.2846808603860704,0.4365521323026119
-4.0855,0.2168173579258095,0.0656697881211349
-4.085,0.5049120790829789,-0.1356663415768632
-4.0845,0.5902734779443622,-0.2204394488181255
-4.084,0.5796033030867088,-0.2310360872233894
-4.0835,0.5262524287983441,-0.252229364033705
-4.083,0.4942419042252961,-0.3052125560595421
-4.0825,0.5262524287983344,-0.4429688553266898
-4.082,0.5155822539406614,-0.4111789401112165
-4.0815,0.4622313796522482,-0.326405832869877
-4.081,0.4195506802215564,-0.2522293640337724
-4.0805,0.3875401556484697,-0.2204394488182027
-4.08,0.09944543449103843,0.01268659609548085
-4.0795,-0.6474668055460673,0.5849050699740017
-4.079,-1.40504922044266,1.104140351828016
-4.0785,-1.895877263895616,1.42203950398275
-4.078,-1.671803591884484,1.220703374284751
-4.0775,-0.9675720512766531,0.4895353243273504
-4.077,-0.3380317346739499,-0.2416327256285375
-4.0765,0.09944543449064053,-0.7290780922657961
-4.076,0.3341892813601536,-0.9516074987747843
-4.0755,0.4408910299368829,-0.9833974139902578
-4.075,0.4515612047945656,-0.8880276683437509
-4.0745,0.4408910299368539,-0.7290780922660756
-4.074,0.408880505363835,-0.5489352393783931
-4.0735,0.3875401556484697,-0.3581957480853793
-4.073,0.3768699807907968,-0.1780528951976968
-4.0725,0.3661998059331045,-0.01910331912002144
-4.072,0.3448594562177392,0.08686306493165288
-4.0715,0.03542438534522402,-0.1356663415766608
-4.071,-0.5194247072549236,-0.2204394488178075
-4.0705,-0.9248913518464952,0.2140227257936621
-4.07,-1.010252750707879,0.5637117931638693
-4.0695,-0.5194247072540599,0.4365521323019468
-4.069,0.02475421048725994,0.1822328105781598
-4.0685,0.3982103305061524,-0.01910331912002144
-4.068,0.568933128229094,-0.1674562567924426
-4.0675,0.5902734779444399,-0.252229364033705
-4.067,0.5582629533713921,-0.326405832869877
-4.0665,0.5049120790829789,-0.3793890248956563
-4.066,0.5049120790829789,-0.3158091944647096
-4.0655,0.4835717293676135,-0.2840192792492073
-4.065,0.4408910299369218,-0.2840192792492073
-4.0645,0.408880505363835,-0.2946159176543747
-4.064,0.3875401556484697,-0.3158091944647096
-4.0635,0.2488278824987215,-0.2310360872234472
-4.063,-0.3913826089630715,0.2881991946303738
-4.0625,-1.170305373573196,0.8816109453192104
-4.062,-1.61845271759546,1.294879843120364
-4.0615,-1.56510184330693,1.305476481525349
-4.061,-0.9889124009925911,0.6908714540261965
-4.0605,-0.391382608962363,-0.02969995752518888
-4.06,0.04609456020285812,-0.5489352393786148
-4.0595,0.3021787567870086,-0.792657922697244
-4.059,0.4195506802215176,-0.8350444763179138
-4.0585,0.4515612047945364,-0.7396747306714936
-4.058,0.4408910299368829,-0.5807251545938954
-4.0575,0.408880505363835,-0.3899856633008816
-4.057,0.3875401556484891,-0.1992461720080413
-4.0565,0.3768699807907871,-0.02969995752518888
-4.056,0.3661998059331045,0.1292496185523226
-4.0555,0.3661998059331045,0.2564092794142161
-4.055,0.1954770082096678,0.2670059178195956
-4.0545,-0.3700422592469978,0.3729723018711736
-4.054,-0.7755089038385694,0.7756445612671699
-4.0535,-0.9675720512769346,1.093543713422318
-4.053,-0.6474668055467465,0.8286277532933731
-4.0525,-0.1139580626626144,0.3411823866556712
-4.052,0.2915085819295201,-0.09327978795645368
-4.0515,0.5049120790829789,-0.3793890248957141
-4.051,0.5689331282290746,-0.5065486857577234
-4.0505,0.5475927785137288,-0.5383386009731967
-4.05,0.5155822539406614,-0.5489352393783931
-4.0495,0.4942419042252961,-0.5595318777835605
-4.049,0.4942419042252961,-0.5065486857577716
-4.0485,0.4622313796522094,-0.4005823017059719
-4.048,0.4195506802215176,-0.3158091944647096
-4.0475,0.3982103305061718,-0.241632725628605
-4.047,0.355529631075053,-0.1886495336023823
-4.0465,-0.04993701351651855,0.1610395337678249
-4.046,-0.8395299529843159,0.7544512844566613
-4.0455,-1.469070269588543,1.231300012689938
-4.045,-1.725154466172693,1.453829419198252
-4.0445,-1.351698346153801,1.061753798207057
-4.044,-0.7114878546923473,0.3093924714395907
-4.0435,-0.1673089369510276,-0.326405832869877
-4.043,0.1848068333524996,-0.6866915386455698
-4.0425,0.3768699807906124,-0.824447837912621
-4.042,0.4408910299368829,-0.7820612842920766
-4.0415,0.4515612047945656,-0.6549016234300674
-4.041,0.4302208550792198,-0.4747587705423849
-4.0405,0.4088805053638156,-0.2946159176542109
-4.04,0.3875401556484697,-0.1144730647665284
-4.0395,0.3768699807907968,0.0444765113108386
-4.039,0.3661998059330462,0.1822328105782369
-4.0385,0.3021787567870086,0.2670059178194992
-4.038,-0.07127736323154416,0.3941655786813928
-4.0375,-0.4874141826817204,0.7968378380782275
-4.037,-0.722158029550525,1.188913459069066
-4.0365,-0.6367966306890638,1.00877060618122
-4.036,-0.1779791118083318,0.4683420475172179
-4.0355,0.2381577076409128,-0.04029659593035631
-4.035,0.4835717293676135,-0.3793890248957141
-4.0345,0.5582629533713241,-0.5701285161885545
-4.034,0.5475927785137094,-0.6337083466197325
-4.0335,0.5049120790829789,-0.6337083466197325
-4.033,0.5049120790829789,-0.5913217929991014
-4.0325,0.5902734779444302,-0.6019184314041051
-4.032,0.5796033030867573,-0.4641621321370536
-4.0315,0.5155822539407195,-0.2946159176545289
-4.031,0.4515612047945268,-0.1462629799819535
-4.0305,0.408880505363835,-0.06148987274069118
-4.03,0.1848068333527033,0.1610395337676225
-4.0295,-0.498084357539762,0.6802748156214724
-4.029,-1.127624674142465,1.167720182258731
-4.0285,-1.394379045584531,1.464426057603419
-4.028,-1.244996597576508,1.231300012689061
-4.0275,-0.7328282044082075,0.4895353243280153
-4.027,-0.2206598112394408,-0.2098428104130352
-4.0265,0.1314559590637661,-0.6654982618348205
-4.026,0.3341892813600565,-0.8774310299385835
-4.0255,0.4195506802215176,-0.8880276683437509
-4.025,0.4408910299368635,-0.7926579226973307
-4.0245,0.4195506802214982,-0.6337083466195783
-4.024,0.3982103305061524,-0.4641621321370536
-4.0235,0.3875401556484794,-0.2840192792493711
-4.023,0.3768699807907774,-0.1250697031715609
-4.0225,0.3661998059331045,0.02328323450064829
-4.022,0.3448594562177586,0.1186529801470684
-4.0215,-0.0926177129478411,0.033879872905835
-4.021,-0.7434983792658902,0.05507314971615059
-4.0205,-1.06360362499637,0.2564092794143318
-4.02,-1.074273799853586,0.4895353243279671
-4.0195,-0.5621054066852853,0.4365521323021782
-4.019,0.00341386077189465,0.2881991946298341
-4.0185,0.3768699807904474,0.1504428953627828
-4.018,0.5475927785137094,0.03387987290581572
-4.0175,0.5796033030867573,-0.1038764263613609
-4.017,0.5582629533714115,-0.2204394488180966
-4.0165,0.5155822539406614,-0.3158091944647577
-4.016,0.5155822539406614,-0.3687923864905467
-4.0155,0.4942419042253156,-0.3899856633008623
-4.015,0.4515612047945268,-0.4217755785164224
-4.0145,0.408880505363835,-0.4641621321370536
-4.014,0.3875401556484891,-0.5171453241628426
-4.0135,0.2701682322133881,-0.453565493731385
-4.013,-0.3593720843893152,0.09745970333682032
-4.0125,-1.127624674142465,0.7650479228623686
-4.012,-1.554431668449887,1.263089927905392
-4.0115,-1.682473766741963,1.432636142387917
-4.011,-1.212986073003927,0.92399749893988
-4.0105,-0.5834457564012231,0.1610395337685189
-4.01,-0.07127736323188383,-0.4429688553267188
-4.0095,0.2381577076409128,-0.7820612842920766
-4.009,0.3982103305060068,-0.8774310299384968
-4.0085,0.4408910299368829,-0.8244478379126114
-4.008,0.4408910299368829,-0.6760949002404023
-4.0075,0.4195506802215371,-0.4959520473527198
-4.007,0.398210330506133,-0.3052125560593879
-4.0065,0.3768699807907871,-0.1356663415768632
-4.006,0.3661998059331045,0.03387987290581572
-4.0055,0.3661998059329298,0.1716361721730213
-4.005,0.1741366584948169,0.2034260873884947
-4.0045,-0.3700422592469978,0.3305857482505039
-4.004,-0.7648387289814496,0.7120647308367917
-4.0035,-0.9782422261349084,0.9981739677760521
-4.003,-0.6367966306890638,0.5955017083796896
-4.0025,-0.08194753809007105,0.1186529801475889
-4.002,0.3235191065023739,-0.2098428104130352
-4.0015,0.5369226036560266,-0.3793890248957141
-4.001,0.5902734779443913,-0.4429688553266609
-4.0005,0.5689331282290357,-0.4535654937318862
-4,0.5262524287983441,-0.4535654937318862
-3.9995,0.4942419042252961,-0.4429688553267188
-3.999,0.4942419042252961,-0.4217755785163839
-3.9985,0.4515612047945656,-0.3581957480853793
-3.998,0.4195506802215176,-0.2946159176543747
-3.9975,0.3982103305061524,-0.2416327256285375
-3.997,0.3555296310754218,-0.1992461720078678
-3.9965,-0.07127736323188383,0.1610395337678249
-3.996,-0.8502001278427167,0.7544512844572011
-3.9955,-1.394379045584531,1.220703374284568
-3.995,-1.543761493592088,1.453829419198252
-3.9945,-1.202315898146244,1.040560521396722
-3.994,-0.6261264558313813,0.2881991946298341
-3.9935,-0.124628237520297,-0.3475991096802118
-3.993,0.2061471830678648,-0.718481453861072
-3.9925,0.3768699807907871,-0.8562377531282487
-3.992,0.4408910299368829,-0.8244478379127463
-3.9915,0.4408910299368829,-0.6866915386455698
-3.991,0.4195506802215176,-0.5065486857577234
-3.9905,0.3982103305061524,-0.326405832869877
-3.99,0.3875401556484697,-0.1462629799820306
-3.9895,0.3768699807907871,0.01268659609548085
-3.989,0.3661998059331045,0.1610395337678249
-3.9885,0.291508581929326,0.2670059178194992
-3.988,-0.2846808603855366,0.5001319627331828
-3.9875,-0.8822106524157645,0.7332580076468663
-3.987,-1.202315898146244,0.6908714540261965
-3.9865,-1.138294849000148,0.4789386859228479
-3.986,-0.5087545323968721,0.2352160026039969
-3.9855,0.09944543449103843,0.06566978812131802
-3.985,0.4835717293676135,-0.04029659593035631
-3.9845,0.6329541773751706,-0.1144730647665284
-3.984,0.6329541773751706,-0.1886495336027004
-3.9835,0.5689331282290746,-0.2416327256285375
-3.983,0.5049120790829789,-0.3052125560595421
-3.9825,0.4835717293676135,-0.3052125560595421
-3.982,0.4515612047945656,-0.3052125560595421
-3.9815,0.4195506802215176,-0.3158091944647096
-3.981,0.3875401556484697,-0.3475991096802118
-3.9805,0.3768699807907871,-0.400582301706049
-3.98,0.1848068333524996,-0.2416327256285375
-3.9795,-0.4874141826815069,0.3517790250608387
-3.979,-1.042263275281004,0.9557874141553824
-3.9785,-1.287677297007705,1.33726639674141
-3.978,-1.212986073003927,1.210106735879401
-3.9775,-0.7434983792658902,0.5107286011383502
-3.977,-0.2420001609548061,-0.2098428104130352
-3.9765,0.1207857842064037,-0.6866915386455698
-3.976,0.3235191065023739,-0.9198175835592532
-3.9755,0.408880505363835,-0.9410108603695881
-3.975,0.4302208550792003,-0.8456411147230812
-3.9745,0.4302208550792003,-0.6760949002404023
-3.974,0.3982103305061524,-0.4959520473525559
-3.9735,0.3875401556484697,-0.3158091944647096
-3.973,0.3768699807907871,-0.1356663415768632
-3.9725,0.3661998059331045,0.02328323450064829
-3.972,0.3448594562177392,0.13984625695749
-3.9715,-0.04993701351651855,-0.02969995752518888
-3.971,-0.7968492535543035,-0.09327978795619347
-3.9705,-1.26633694729234,-0.1144730647665284
-3.97,-1.223656247861609,-0.1144730647665284
-3.9695,-0.5834457564006506,-0.01910331912002144
-3.969,0.1101156093487211,0.1292496185523226
-3.9685,0.5369226036560266,0.2352160026039969
-3.968,0.707645401378949,0.2564092794143318
-3.9675,0.707645401378949,0.1928294489833272
-3.967,0.6329541773751706,0.06566978812131802
-3.9665,0.5475927785137094,-0.1038764263613609
-3.966,0.5369226036560266,-0.2416327256285375
-3.9655,0.5155822539406614,-0.3475991096802118
-3.965,0.4622313796522482,-0.4535654937318862
-3.9645,0.4195506802215176,-0.5489352393783931
-3.964,0.3875401556484697,-0.6549016234300674
-3.9635,0.291508581929326,-0.6443049850249
-3.963,-0.2953510352432193,-0.1144730647665284
-3.9625,-1.095614149569417,0.5849050699745222
-3.962,-1.586442193022819,1.125333628638062
-3.9615,-1.67180359188428,1.305476481525908
-3.961,-1.148965023857831,0.7650479228623686
-3.9605,-0.5194247072545548,0.01268659609548085
-3.96,-0.02859666380115328,-0.5807251545938954
-3.9595,0.2594980573562781,-0.9092209451540858
-3.959,0.408880505363835,-1.004590690800593
-3.9585,0.4515612047945656,-0.9516074987747555
-3.958,0.4408910299368829,-0.8138511995075789
-3.9575,0.4195506802215176,-0.6337083466197325
-3.957,0.3982103305061524,-0.4429688553267188
-3.9565,0.3875401556484697,-0.252229364033705
-3.956,0.3768699807907871,-0.08268314955102604
-3.9555,0.3661998059331045,0.07626642652648545
-3.955,0.2381577076409128,0.09745970333682032
-3.9545,-0.1139580626626144,0.06566978812131802
-3.954,-0.423393133535411,0.4471487707073456
-3.9535,-0.6474668055467465,0.8710143069140429
-3.953,-0.4660738329661415,0.7332580076468663
-3.9525,-0.03926683865883591,0.3199891098453364
-3.952,0.3021787567870086,-0.04029659593035631
-3.9515,0.4729015545099309,-0.2628260024388724
-3.951,0.5369226036560266,-0.3581957480853793
-3.9505,0.5262524287983441,-0.3793890248957141
-3.95,0.4942419042252961,-0.3687923864905467
-3.9495,0.4729015545099309,-0.2946159176543747
-3.949,0.4729015545099309,-0.1780528951975329
-3.9485,0.4515612047945656,-0.1144730647665284
-3.948,0.408880505363835,-0.08268314955102604
-3.9475,0.3875401556484697,-0.07208651114585861
-3.947,0.3555296310754218,-0.06148987274069118
-3.9465,-0.03926683865883591,0.2564092794143318
-3.946,-0.807519428411986,0.7968378380778709
-3.9455,-1.319687821580753,1.241896651094903
-3.945,-1.479740444445993,1.453829419198252
-3.9445,-1.180975548430879,1.051157159801889
-3.944,-0.6261264558313813,0.2776025562246667
-3.9435,-0.1352984123779797,-0.3793890248957141
-3.943,0.1954770082101822,-0.7714646458869092
-3.9425,0.3661998059331045,-0.9198175835592532
-3.942,0.4302208550792003,-0.8986243067489184
-3.9415,0.4408910299368829,-0.7714646458869092
-3.941,0.4195506802215176,-0.6019184314042303
-3.9405,0.3982103305061524,-0.4217755785163839
-3.94,0.3768699807907871,-0.2416327256285375
-3.9395,0.3768699807907871,-0.07208651114585861
-3.939,0.3661998059331045,0.07626642652648545
-3.9385,0.3021787567870086,0.1716361721729923
-3.938,-0.1139580626626144,0.1822328105781598
-3.9375,-0.8288597781273515,0.5001319627331828
-3.937,-1.394379045584531,0.9557874141553824
-3.9365,-1.26633694729234,0.8710143069140429
-3.936,-0.572775581542968,0.4047622170866759
-3.9355,0.0674349099179905,-0.04029659593035631
-3.935,0.4622313796522482,-0.3370024712750445
-3.9345,0.6116138276598051,-0.474758770542221
-3.934,0.6222840025174878,-0.4959520473525559
-3.9335,0.5689331282290746,-0.4959520473525559
-3.933,0.5262524287983441,-0.4535654937318862
-3.9325,0.5475927785137094,-0.4111789401112165
-3.932,0.5155822539406614,-0.3158091944647096
-3.9315,0.4622313796522482,-0.2204394488182027
-3.931,0.4195506802215176,-0.1356663415768632
-3.9305,0.3875401556484697,-0.09327978795619347
-3.93,0.1741366584948169,0.09745970333682032
-3.9295,-0.5300948821122373,0.6166949851900245
-3.929,-1.287677297007705,1.125333628638062
-3.9285,-1.693143941599645,1.443232780793084
-3.928,-1.67180359188428,1.358459673551745
-3.9275,-1.06360362499637,0.6908714540261965
-3.927,-0.4340633083930936,-0.05089323433552374
-3.9265,0.02475421048725994,-0.570128516188728
-3.926,0.3021787567870086,-0.8138511995075789
-3.9255,0.4195506802215176,-0.8562377531282487
-3.925,0.4515612047945656,-0.7714646458869092
-3.9245,0.4408910299368829,-0.6125150698093976
-3.924,0.4195506802215176,-0.4323722169215513
-3.9235,0.3875401556484697,-0.252229364033705
-3.923,0.3768699807907871,-0.08268314955102604
-3.9225,0.3661998059331045,0.07626642652648545
-3.922,0.3555296310754218,0.1822328105781598
-3.9215,-0.01792648894347063,0.1186529801471552
-3.921,-0.7861790786966207,0.1928294489833272
-3.9205,-1.351698346153801,0.3941655786815084
-3.92,-1.46907026958831,0.5743084315693548
-3.9195,-0.839529952985034,0.5213252395435176
-3.919,-0.1032878878049318,0.4259554938970107
-3.9185,0.408880505363835,0.3517790250608387
-3.918,0.6436243522328531,0.2564092794143318
-3.9175,0.6756348768059011,0.13984625695749
-3.917,0.6222840025174878,0.01268659609548085
-3.9165,0.5582629533713921,-0.1250697031716958
-3.916,0.5262524287983441,-0.2416327256285375
-3.9155,0.4942419042252961,-0.3899856633008816
-3.915,0.4515612047945656,-0.5065486857577234
-3.9145,0.408880505363835,-0.6019184314042303
-3.914,0.3875401556484697,-0.6972881770507372
-3.9135,0.3128489316446912,-0.6972881770507372
-3.913,-0.2420001609548061,-0.1674562567923655
-3.9125,-1.031593100423322,0.5637117931641874
-3.912,-1.618452717595867,1.135930267043229
-3.9115,-1.778505340461106,1.369056311956912
-3.911,-1.244996597576974,0.8816109453192104
-3.9105,-0.5834457564006506,0.1292496185523226
-3.91,-0.07127736323188383,-0.4641621321370536
-3.9095,0.2488278824985954,-0.8032545611024114
-3.909,0.3982103305061524,-0.9198175835592532
-3.9085,0.4515612047945656,-0.8774310299385835
-3.908,0.4515612047945656,-0.7396747306714069
-3.9075,0.4195506802215176,-0.570128516188728
-3.907,0.3982103305061524,-0.3793890248957141
-3.9065,0.3875401556484697,-0.2098428104130352
-3.906,0.3768699807907871,-0.04029659593035631
-3.9055,0.3768699807907871,0.09745970333682032
-3.905,0.2168173579255475,0.1504428953626575
-3.9045,-0.4340633083930936,0.3305857482505039
-3.904,-1.010252750707956,0.1822328105781598
-3.9035,-1.287677297007705,-0.4535654937318862
-3.903,-0.9889124009925911,-0.6866915386455698
-3.9025,-0.274010685527854,-0.5277419625680583
-3.902,0.3021787567870086,-0.2628260024388724
-3.9015,0.6329541773751706,-0.04029659593035631
-3.901,0.7183155762366316,0.06566978812131802
-3.9005,0.6756348768059011,0.04447651131098315
-3.9,0.6009436528021226,-0.04029659593035631
-3.8995,0.5155822539406614,-0.1250697031716958
-3.899,0.4515612047945656,-0.1886495336027004
-3.8985,0.408880505363835,-0.252229364033705
-3.898,0.3875401556484697,-0.326405832869877
-3.8975,0.3768699807907871,-0.4217755785163839
-3.897,0.3555296310754218,-0.5065486857577234
-3.8965,0.00341386077189465,-0.1992461720078678
-3.896,-0.754168554123573,0.4683420475176805
-3.8955,-1.26633694729234,1.051157159801889
-3.895,-1.447729919872945,1.37965295036208
-3.8945,-1.148965023857831,1.019367244586387
-3.894,-0.6047861061160158,0.2670059178194992
-3.8935,-0.1139580626626144,-0.4111789401112165
-3.893,0.2061471830678648,-0.8350444763179138
-3.8925,0.3661998059331045,-1.01518732920576
-3.892,0.4302208550792003,-1.01518732920576
-3.8915,0.4408910299368829,-0.8986243067489184
-3.891,0.4195506802215176,-0.7396747306714069
-3.8905,0.3982103305061524,-0.5595318777835605
-3.89,0.3875401556484697,-0.3793890248957141
-3.8895,0.3768699807907871,-0.2098428104130352
-3.889,0.3768699807907871,-0.04029659593035631
-3.8885,0.3128489316446912,0.05507314971615059
-3.888,-0.1459685872356623,0.03387987290581572
