Class_3_Grab_w_two_Hands/Class_3_Grab_with_Two_Hands_UZ_4.csv

#Digilent WaveForms Oscilloscope Acquisition
#Device Name: EExplorer
#Serial Number: SN:210151A2B84A
#Date Time: 2020-12-03 12:20:05.599
#Sample rate: 2000Hz
#Samples: 16384
#Trigger: Source: Channel 1 Type: Edge Condition: Rising Level: 0 V Hyst.: Auto HoldOff: 0 s
#Channel 1: Range: 1 V/div Offset: 0 V Attenuation: 1 X
#Channel 2: Range: 1 V/div Offset: 0 V Attenuation: 1 X
#Power Supplies: ON
#Fixed Supply: ON
#Voltage: 3.3 V Readback: 3.317 V
#Positive Supply: ON
#Voltage: 3.7 V Readback: 3.703 V
#Current: 40 mA Readback: 23 mA
#Negative Supply: ON
#Voltage: -3.7 V Readback: -4.003 V
#Current: -40 mA Readback: 0 A
#Reference 1: ON
#Voltage: 0 V
#Reference 2: ON
#Voltage: 0 V

Time (s),Channel 1 (V),Channel 2 (V)
-4.096,0.6542945270905358,-0.1356663415768632
-4.0955,0.1741366584952536,0.4153588554913422
-4.095,-0.1139580626627309,0.6696781772159098
-4.0945,-0.2420001609548061,0.7226613692416989
-4.094,-0.3487019095315355,0.7014680924313833
-4.0935,-0.508754532396843,0.7226613692416122
-4.093,-0.4767440078238243,0.627291623595192
-4.0925,-0.3700422592470948,0.5107286011384562
-4.092,-0.2846808603854881,0.4153588554918144
-4.0915,-0.2313299860971235,0.383568940276341
-4.091,-0.5300948821122373,0.4047622170866759
-4.0905,-1.180975548431092,0.447148770706989
-4.09,-1.415719395299897,0.05507314971615059
-4.0895,-1.575772018165136,-1.301296566145281
-4.089,-1.543761493592118,-1.958288147265064
-4.0885,-1.51175096901904,-1.852321763213987
-4.088,-1.148965023857831,-1.078767159636765
-4.0875,-0.6367966306895296,-0.1462629799828787
-4.087,-0.2846808603854202,0.5213252395438164
-4.0865,-0.156638762093345,0.849821030103708
-4.086,-0.09261771294730736,1.008770606181075
-4.0855,-0.07127736323188383,1.061753798207057
-4.085,-0.07127736323188383,1.061753798207057
-4.0845,-0.06060718837421089,1.040560521396741
-4.084,-0.02859666380110475,0.9981739677759942
-4.0835,0.02475421048725994,0.9345941373450475
-4.083,0.1634664836371343,0.7544512844572011
-4.0825,0.8036769750986944,-0.04029659593122369
-4.082,1.465227816274416,-0.9939940523954253
-4.0815,1.892034810581722,-1.735758740757146
-4.081,2.233480406027256,-2.276187299420193
-4.0805,2.041417258589279,-2.021867977696666
-4.08,1.369196242555273,-1.121153713257435
-4.0795,0.7076454013795507,-0.3264058328705999
-4.079,0.2061471830676125,0.2246193641990993
-4.0785,-0.07127736323188383,0.5213252395435176
-4.078,-0.1886492866662861,0.6166949851899378
-4.0775,-0.2420001609549711,0.6060983467847704
-4.077,-0.423393133535411,0.5107286011383502
-4.0765,-0.4554036581084298,0.4153588554919301
-4.076,-0.3700422592469201,0.3729723018711543
-4.0755,-0.2846808603855366,0.3517790250608387
-4.075,-0.2206598112394408,0.3623756634660061
-4.0745,-0.3487019095322245,0.4683420475174299
-4.074,-0.9995825758502737,0.1928294489833272
-4.0735,-1.597112367880501,-0.4959520473525559
-4.073,-1.682473766741885,-1.566212526273493
-4.0725,-1.479740444445993,-1.375473034981453
-4.072,-1.51175096901904,-0.3052125560595421
-4.0715,-1.202315898146525,0.256409279413821
-4.071,-0.7008176798348394,0.5531151547590875
-4.0705,-0.3487019095316325,0.627291623595192
-4.07,-0.1779791118088655,0.5955017083797185
-4.0695,-0.09261771294722972,0.5955017083797185
-4.069,-0.07127736323188383,0.627291623595192
-4.0685,-0.06060718837420119,0.6908714540261965
-4.068,-0.06060718837417207,0.7756445612676131
-4.0675,-0.02859666380115328,0.8604176685088755
-4.067,0.01408403562957729,0.9451907757502149
-4.0665,0.08877525963361781,0.9663840525602992
-4.066,0.3768699807907871,0.6908714540261965
-4.0655,1.123782220828572,-0.1038764263613609
-4.065,1.731982187715929,-0.8350444763172489
-4.0645,1.902704985439405,-1.248313374119443
-4.064,1.657290963712704,-1.01518732920576
-4.0635,1.081101521398365,-0.2522293640343989
-4.063,0.5369226036556772,0.4895353243284586
-4.0625,0.1527963087794516,0.9769806909657173
-4.062,-0.07127736323168005,1.199510097474031
-4.0615,-0.167308936951047,1.199510097474118
-4.061,-0.1886492866663929,1.072350436612224
-4.0605,-0.3060212101009019,0.8922075837243778
-4.06,-0.3913826089623242,0.7120647308364062
-4.0595,-0.3487019095316325,0.5743084315693548
-4.059,-0.2633405106701714,0.4683420475176805
-4.0585,-0.1993194615241338,0.3835689402764181
-4.058,-0.2206598112394408,0.383568940276341
-4.0575,-1.180975548430879,-0.2416327256285375
-4.057,-2.141291285621443,-0.9516074987741098
-4.0565,-2.845522826229371,-1.566212526274467
-4.056,-3.122947372529119,-2.202010830584512
-4.0555,-3.026915798810063,-2.435136875497984
-4.055,-2.226652684482972,-1.735758740756278
-4.0545,-1.341028171296118,-0.7820612842920766
-4.054,-0.6794773301203959,-0.04029659593103097
-4.0535,-0.2740106855276599,0.4471487707075769
-4.053,-0.06060718837420119,0.701468092431364
-4.0525,0.00341386077189465,0.7968378380778709
-4.052,0.01408403562956759,0.7968378380778516
-4.0515,0.00341386077189465,0.775644561267536
-4.051,0.00341386077189465,0.7332580076468663
-4.0505,0.02475421048724053,0.6696781772159195
-4.05,0.01408403562957729,0.627291623595192
-4.0495,0.2381577076409128,0.3729723018711736
-4.049,0.8890383739589618,-0.3052125560589253
-4.0485,1.465227816274737,-1.131750351663199
-4.048,1.817343586577944,-1.788741932782983
-4.0475,2.116108482592786,-2.265590661015083
-4.047,1.902704985438842,-1.884111678428632
-4.0465,1.283834843693812,-0.9410108603695881
-4.046,0.6542945270911084,-0.08268314955180667
-4.0455,0.1848068333522569,0.4895353243282756
-4.045,-0.08194753808956648,0.775644561267536
-4.0445,-0.1993194615240755,0.8816109453192104
-4.044,-0.2846808603856531,0.9451907757503016
-4.0435,-0.4127229586777283,1.040560521396722
-4.043,-0.3807124341046804,0.9557874141553824
-4.0425,-0.295351035243297,0.8074344764831732
-4.042,-0.2206598112394408,0.6802748156210291
-4.0415,-0.1779791118087102,0.6060983467848571
-4.041,-0.4233931335351878,0.6696781772158038
-4.0405,-1.042263275281567,0.6590815388096534
-4.04,-1.661133417026597,-0.4853554089473885
-4.0395,-1.191645723288988,-1.417859588601274
-4.039,-0.6367966306888114,-1.481439419032645
-4.0385,-0.3593720843893152,-0.9516074987747555
-4.038,-0.1352984123781835,-0.2310360872240255
-4.0375,0.003413860771875241,0.3517790250610893
-4.037,-0.01792648894347063,0.627291623595192
-4.0365,-0.06060718837420119,0.7544512844572011
-4.036,-0.08194753808957618,0.807434476483048
-4.0355,-0.09261771294724913,0.8180311148882058
-4.035,-0.09261771294724913,0.8074344764830383
-4.0345,-0.07127736323190323,0.7862411996727228
-4.034,-0.02859666380115328,0.775644561267536
-4.0335,0.00341386077189465,0.7544512844572011
-4.033,0.110115609348624,0.606098346784992
-4.0325,0.6329541773757916,-0.1038764263621994
-4.032,1.315845368266859,-1.025783967610927
-4.0315,1.763992712289123,-1.778145294377131
-4.031,1.988066384300555,-1.852321763213255
-4.0305,1.646620788855021,-1.046977244421262
-4.03,1.038420821967664,-0.24163272562927
-4.0295,0.515582253940312,0.3093924714404292
-4.029,0.1314559590640864,0.5955017083796896
-4.0285,-0.09261771294724913,0.6802748156210291
-4.028,-0.188649286666422,0.659081538810646
-4.0275,-0.2206598112394408,0.6060983467848571
-4.027,-0.3060212101009019,0.7544512844572011
-4.0265,-0.3273615598162478,0.7862411996726746
-4.026,-0.274010685527854,0.7120647308365314
-4.0255,-0.2099896363817582,0.6378882620003594
-4.025,-0.1673089369510664,0.5955017083797282
-4.0245,-0.2953510352436075,0.6272916235948547
-4.024,-0.722158029550525,0.2564092794143318
-4.0235,-1.21298607300348,-0.5383386009725027
-4.023,-1.778505340460747,-1.767548655972985
-4.0225,-1.383708870726849,-2.138431000153508
-4.022,-0.9889124009929502,-1.650985633516249
-4.0215,-0.6261264558310417,-0.7502713690757551
-4.021,-0.2526703358124887,0.1504428953626575
-4.0205,-0.09261771294724913,0.701468092431364
-4.02,-0.06060718837420119,0.9557874141554594
-4.0195,-0.06060718837420119,1.040560521396722
-4.019,-0.07127736323188383,1.040560521396722
-4.0185,-0.07127736323188383,1.008770606181248
-4.018,-0.07127736323188383,0.9451907757502149
-4.0175,-0.03926683865883591,0.8816109453192104
-4.017,-0.007256314085817103,0.8180311148882636
-4.0165,0.003413860772079035,0.7544512844569023
-4.016,0.2061471830678648,0.4259554938970107
-4.0155,0.8356874996705682,-0.4429688553259286
-4.015,1.315845368267121,-1.30129656614584
-4.0145,1.603940089424291,-1.915901593644992
-4.014,1.731982187716366,-2.127834361748148
-4.0135,1.37986641741247,-1.428456227006509
-4.013,0.8463576745288233,-0.570128516188728
-4.0125,0.3982103305061524,0.05507314971615059
-4.012,0.08877525963321022,0.4259554938971649
-4.0115,-0.07127736323188383,0.5955017083796896
-4.011,-0.1352984123779797,0.6166949851900245
-4.0105,-0.2740106855277279,0.6696781772158135
-4.01,-0.3700422592469978,0.6802748156210291
-4.0095,-0.3380317346739499,0.5637117931641874
-4.009,-0.2633405106702393,0.4577454091126094
-4.0085,-0.1993194615240755,0.3941655786815277
-4.008,-0.1993194615240755,0.4153588554918433
-4.0075,-0.5941159312579742,0.584905069974368
-4.007,-1.511750969019992,0.447148770706324
-4.0065,-2.557428105071939,-0.6760949002404023
-4.006,-2.141291285622316,-1.396666311791788
-4.0055,-2.077270236475939,-2.000674700886081
-4.005,-1.767835165603424,-1.725162102351978
-4.0045,-1.095614149569417,-0.7820612842920766
-4.004,-0.540765056969658,0.09745970333731184
-4.0035,-0.2526703358124887,0.6378882620003594
-4.003,-0.1032878878049318,0.9663840525605498
-4.0025,-0.03926683865889415,1.125333628637917
-4.002,-0.02859666380115328,1.178316820663898
-4.0015,-0.02859666380115328,1.178316820663898
-4.001,-0.007256314085807396,1.146526905448425
-4.0005,0.02475421048730846,1.093543713422492
-4,0.07810508477567314,1.019367244586387
-3.9995,0.1314559590640864,0.849821030103708
-3.999,0.6756348768059011,0.06566978812131802
-3.9985,1.294505018551494,-0.9304142219644207
-3.998,1.635950613997339,-1.672178910326141
-3.9975,1.817343586577944,-1.958288147265661
-3.997,1.475897991132099,-1.354279758171118
-3.9965,0.9210488985326017,-0.570128516188728
-3.996,0.4408910299368829,0.04447651131098315
-3.9955,0.1101156093487211,0.3941655786815084
-3.995,-0.08194753808956648,0.5107286011383502
-3.9945,-0.1673089369510276,0.4789386859228479
-3.994,-0.2526703358124887,0.457745409112513
-3.9935,-0.4447334832507763,0.55311515475902
-3.993,-0.4340633083930936,0.5319218779486851
-3.9925,-0.3380317346739499,0.4471487707073456
-3.992,-0.2420001609548061,0.3941655786815084
-3.9915,-0.1886492866663929,0.383568940276341
-3.991,-0.3807124341046804,0.4683420475176805
-3.9905,-0.8608703027003992,0.01268659609548085
-3.99,-1.330357996438436,-0.6972881770507372
-3.9895,-1.010252750707956,-1.258910012524611
-3.989,-0.4554036581084589,-1.269506650929778
-3.9885,-0.4447334832507763,-0.9092209451540858
-3.988,-0.8502001278427167,-0.7396747306714069
-3.9875,-0.6474668055467465,-0.02969995752518888
-3.987,-0.5194247072545548,0.4471487707073456
-3.9865,-0.3487019095316325,0.7968378380778709
-3.986,-0.1352984123779797,1.093543713422559
-3.9855,-0.07127736323188383,1.157123543853563
-3.985,-0.08194753808956648,1.125333628638062
-3.9845,-0.07127736323188383,1.061753798207057
-3.984,-0.04993701351651855,0.9875773293708847
-3.9835,-0.01792648894347063,0.9028042221295453
-3.983,0.0674349099179905,0.775644561267536
-3.9825,0.5902734779444399,0.06566978812131802
-3.982,1.209143619690033,-0.9516074987747555
-3.9815,1.497238340847464,-1.746355379162313
-3.981,1.785333062004896,-2.329170491446522
-3.9805,1.806673411720261,-2.25499402261035
-3.98,1.347855892839907,-1.417859588602123
-3.9795,0.8036769750980928,-0.5171453241628908
-3.979,0.3661998059331045,0.13984625695749
-3.9785,0.0674349099179905,0.4259554938970107
-3.978,-0.09261771294724913,0.5001319627331828
-3.9775,-0.1779791118087102,0.4471487707073456
-3.977,-0.423393133535411,0.1504428953626575
-3.9765,-0.5087545323968721,0.03387987290581572
-3.976,-0.423393133535411,0.1080563417419877
-3.9755,-0.3060212101009019,0.2352160026039969
-3.975,-0.2099896363817582,0.3517790250608387
-3.9745,-0.274010685527854,0.4895353243280153
-3.974,-0.8288597781273515,0.3623756634660061
-3.9735,-1.554431668449771,-0.1250697031716958
-3.973,-1.522421143876723,-0.8244478379127463
-3.9725,-0.8502001278427167,-1.280103289334946
-3.972,-0.391382608962363,-0.9516074987747555
-3.9715,-0.124628237520297,-0.3052125560595421
-3.971,-0.01792648894347063,0.2670059178194992
-3.9705,-0.2099896363817582,0.4471487707073456
-3.97,-0.839529952985034,0.04447651131098315
-3.9695,-0.7328282044082075,0.2670059178194992
-3.969,-0.6047861061160158,0.4365521323021782
-3.9685,-0.4447334832507763,0.5955017083796896
-3.968,-0.1993194615240755,0.8074344764830383
-3.9675,-0.06060718837420119,0.8922075837243778
-3.967,-0.02859666380115328,0.849821030103708
-3.9665,-0.007256314085787988,0.7968378380778709
-3.966,0.3982103305061524,0.2776025562246667
-3.9655,1.19847344483235,-0.7714646458869092
-3.965,1.667961138570387,-1.661582271920973
-3.9645,1.731982187716482,-2.011271339291499
-3.964,1.465227816274416,-1.449649503817625
-3.9635,0.9850699476786977,-0.6654982618352349
-3.963,0.5155822539406614,-0.05089323433552374
-3.9625,0.1527963087794516,0.3517790250608387
-3.962,-0.04993701351651855,0.5213252395435176
-3.9615,-0.1673089369510276,0.5319218779486851
-3.961,-0.1993194615240755,0.4683420475176805
-3.9605,-0.3273615598162672,0.3411823866556712
-3.96,-0.4554036581084589,0.2140227257936621
-3.9595,-0.4020527838200457,0.2246193641988295
-3.959,-0.3060212101009019,0.2987958330350016
-3.9585,-0.2099896363817582,0.4047622170866759
-3.958,-0.1779791118087102,0.5107286011383502
-3.9575,-0.5514352318276028,0.7120647308365314
-3.957,-1.287677297007705,0.9981739677760521
-3.9565,-1.405049220442214,0.4683420475176805
-3.956,-0.8715404775580819,-0.3687923864905467
-3.9555,-0.9142211769888124,-0.9516074987747555
-3.955,-0.8181896032696687,-0.8032545611024114
-3.9545,-0.572775581542968,-0.2310360872233701
-3.954,-0.3273615598162672,0.3305857482505039
-3.9535,-0.1673089369510276,0.7438546460520338
-3.953,-0.08194753808956648,0.9875773293708847
-3.9525,-0.03926683865883591,1.104140351827727
-3.952,-0.04993701351651855,1.125333628638062
-3.9515,-0.690147504977477,0.4789386859228479
-3.951,-0.839529952985034,0.2881991946298341
-3.9505,-0.6688071552621118,0.4047622170866759
-3.95,-0.4980843575391895,0.4683420475176805
-3.9495,-0.07127736323188383,0.5213252395435176
-3.949,0.7289857510943143,0.6908714540261965
-3.9485,1.35852606769759,0.06566978812131802
-3.948,1.689301488285752,-1.01518732920576
-3.9475,1.731982187716482,-1.725162102351978
-3.947,1.379866417412955,-1.523825972653797
-3.9465,0.8783681991018712,-0.8562377531282487
-3.946,0.4195506802215176,-0.2310360872233701
-3.9455,0.07810508477567314,0.1928294489833272
-3.945,-0.09261771294724913,0.4153588554918433
-3.9445,-0.1673089369510276,0.5001319627331828
-3.944,-0.2099896363817582,0.5319218779486851
-3.9435,-0.3166913849585846,0.627291623595192
-3.943,-0.3060212101009019,0.6060983467848571
-3.9425,-0.2420001609548061,0.5425185163538525
-3.942,-0.1779791118087102,0.4895353243280153
-3.9415,-0.1459685872356623,0.4789386859228479
-3.941,-0.3166913849585846,0.5319218779486851
-3.9405,-0.6474668055467465,-0.008506680714854012
-3.94,-0.5194247072545548,-0.8668343915334161
-3.9395,0.2274875327832301,-1.566212526274467
-3.939,0.2701682322139607,-1.990078062481164
-3.9385,-0.09261771294724913,-1.598002441489969
-3.938,-0.2206598112394408,-0.6866915386455698
-3.9375,-0.2313299860971235,0.1186529801471552
-3.937,-0.1886492866663929,0.6696781772158616
-3.9365,-0.1352984123779797,0.9663840525605498
-3.936,-0.1032878878049318,1.072350436612224
-3.9355,-0.08194753808956648,1.082947075017392
-3.935,-0.07127736323188383,1.040560521396722
-3.9345,-0.04993701351651855,0.9663840525605498
-3.934,-0.01792648894347063,0.8816109453192104
-3.9335,0.01408403562957729,0.7968378380778709
-3.933,0.04609456020262521,0.6908714540261965
-3.9325,-0.2633405106701714,-0.326405832869877
-3.932,0.1314559590640864,-1.195330182093607
-3.9315,0.8143471499557753,-1.862918401619155
-3.931,1.51857869056283,-2.435136875498196
-3.9305,1.902704985439405,-2.403346960282694
-3.93,1.625280439139656,-1.502632695843462
-3.9295,1.017080472251745,-0.5489352393783931
-3.929,0.4302208550792003,0.05507314971615059
-3.9285,0.0674349099179905,0.383568940276341
-3.928,-0.09261771294724913,0.5213252395435176
-3.9275,-0.1673089369510276,0.5213252395435176
-3.927,-0.3060212101009019,0.5743084315693548
-3.9265,-0.3380317346739499,0.5637117931641874
-3.926,-0.274010685527854,0.4895353243280153
-3.9255,-0.2099896363817582,0.4153588554918433
-3.925,-0.156638762093345,0.3729723018711736
-3.9245,-0.2099896363817582,0.4259554938970107
-3.924,-0.7861790786966207,0.6802748156210291
-3.9235,-1.682473766741963,0.5849050699745222
-3.923,-1.917217613610981,-0.2628260024388724
-3.9225,-1.26633694729234,-1.152943628472937
-3.922,-0.7861790786966207,-1.280103289334946
-3.9215,-0.4127229586777283,-0.7078848154559045
-3.921,-0.1779791118087102,-0.008506680714854012
-3.9205,-0.06060718837420119,0.5319218779486851
-3.92,-0.01792648894347063,0.8816109453192104
-3.9195,-0.01792648894347063,1.061753798207057
-3.919,-0.02859666380115328,1.135930267043229
-3.9185,-0.03926683865883591,1.135930267043229
-3.918,-0.06060718837420119,1.104140351827727
-3.9175,-0.06060718837420119,1.061753798207057
-3.917,-0.03926683865883591,0.9981739677760521
-3.9165,-0.007256314085787988,0.9134008605347127
-3.916,0.3235191065023739,0.5743084315693548
-3.9155,1.102441871113207,-0.2310360872233701
-3.915,1.678631313428069,-0.9833974139902578
-3.9145,1.849354111150991,-1.650985633515806
-3.914,1.19847344483235,-2.392750321877526
-3.9135,0.79300680024041,-1.79933857118815
-3.913,0.3341892813600565,-0.9939940523954253
-3.9125,0.00341386077189465,-0.3370024712750445
-3.912,-0.07127736323188383,0.1716361721729923
-3.9115,-0.1032878878049318,0.4153588554918433
-3.911,-0.156638762093345,0.4259554938970107
-3.9105,-0.2846808603855366,0.4789386859228479
-3.91,-0.4340633083930936,0.55311515475902
-3.9095,-0.4020527838200457,0.5001319627331828
-3.909,-0.3166913849585846,0.4153588554918433
-3.9085,-0.2313299860971235,0.383568940276341
-3.908,-0.1673089369510276,0.383568940276341
-3.9075,-0.4660738329661415,0.3199891098453364
-3.907,-1.30901764672307,-0.2840192792492073
-3.9065,-1.778505340461106,-1.131750351662602
-3.906,-1.522421143876723,-1.809935209593318
-3.9055,-1.202315898146244,-1.831128486403653
-3.905,-0.7861790786966207,-1.025783967610927
-3.9045,-0.423393133535411,-0.1462629799820306
-3.904,-0.1886492866663929,0.5107286011383502
-3.9035,-0.06060718837420119,0.92399749893988
-3.903,-0.01792648894347063,1.114736990232894
-3.9025,-0.01792648894347063,1.178316820663898
-3.902,-0.02859666380115328,1.157123543853563
-3.9015,-0.03926683865883591,1.104140351827727
-3.901,-0.02859666380115328,1.040560521396722
-3.9005,-0.007256314085787988,0.9451907757502149
-3.9,0.02475421048725994,0.8604176685088755
-3.8995,0.1314559590640864,0.6908714540261965
-3.899,0.6329541773751706,0.1292496185523226
-3.8985,1.337185717982225,-0.6654982618352349
-3.898,1.892034810581722,-1.333086481360783
-3.8975,1.689301488285752,-1.968884785670829
-3.897,1.017080472251745,-1.682775548731308
-3.8965,0.5582629533713921,-0.8456411147230812
-3.896,0.1527963087794516,-0.2204394488182027
-3.8955,-0.03926683865883591,0.2458126410091644
-3.895,-0.1459685872356623,0.5001319627331828
-3.8945,-0.2099896363817582,0.5001319627331828
-3.894,-0.2526703358124887,0.4471487707073456
-3.8935,-0.4127229586777283,0.5001319627331828
-3.893,-0.4020527838200457,0.457745409112513
-3.8925,-0.3166913849585846,0.3941655786815084
-3.892,-0.2206598112394408,0.3623756634660061
-3.8915,-0.1459685872356623,0.3729723018711736
-3.891,-0.3380317346739499,0.6484849004055269
-3.8905,-1.052933450138687,1.263089927905238
-3.89,-1.714484291315011,1.453829419198252
-3.8895,-1.479740444445993,0.5637117931641874
-3.889,-1.031593100423322,-0.5383386009732256
-3.8885,-0.7861790786966207,-0.8774310299385835
-3.888,-0.4980843575391895,-0.4641621321370536
-3.8875,-0.2633405106701714,0.1186529801471552
