Class_3_Grab_w_two_Hands/Class_3_Grab_with_Two_Hands_AM_8.csv

#Digilent WaveForms Oscilloscope Acquisition
#Device Name: EExplorer
#Serial Number: SN:210151A2B84A
#Date Time: 2020-12-06 10:55:38.245
#Sample rate: 2000Hz
#Samples: 16384
#Trigger: Source: Channel 1 Type: Edge Condition: Rising Level: 0 V Hyst.: Auto HoldOff: 0 s
#Channel 1: Range: 1 V/div Offset: 0 V Attenuation: 1 X
#Channel 2: Range: 1 V/div Offset: 0 V Attenuation: 1 X
#Power Supplies: ON
#Fixed Supply: ON
#Voltage: 3.3 V Readback: 3.321 V
#Positive Supply: ON
#Voltage: 3.7 V Readback: 3.715 V
#Current: 40 mA Readback: 16 mA
#Negative Supply: ON
#Voltage: -3.7 V Readback: -4.003 V
#Current: -40 mA Readback: 0 A
#Reference 1: ON
#Voltage: 0 V
#Reference 2: ON
#Voltage: 0 V

Time (s),Channel 1 (V),Channel 2 (V)
-4.096,-2.482736881068161,0.5319218779486851
-4.0955,-2.653459678790928,0.690871454026052
-4.095,-1.831856214748705,0.648484900405392
-4.0945,-0.9355615267041777,0.5001319627331828
-4.094,-0.242000160955437,0.4047622170867626
-4.0935,0.1848068333526839,0.3835689402763989
-4.093,0.3875401556484697,0.4471487707073456
-4.0925,0.4515612047945073,0.5531151547589236
-4.092,0.4408910299368539,0.6908714540263026
-4.0915,0.408880505363835,0.8074344764830383
-4.091,0.3555296310754218,0.849821030103708
-4.0905,0.3235191065023642,0.839224391698502
-4.09,0.3128489316446912,0.7968378380778709
-4.0895,0.2381577076409128,0.6484849004055269
-4.089,-0.31669138495808,0.118652980147637
-4.0885,-1.010252750707956,-0.4959520473525559
-4.088,-1.51175096901904,-0.9410108603695881
-4.0875,-1.309017646723255,-1.237716735714007
-4.087,-1.191645723287862,-2.011271339291508
-4.0865,-0.423393133535411,-2.021867977696666
-4.086,0.1634664836366005,-1.587405803085197
-4.0855,0.4408910299370674,-0.8668343915327511
-4.085,0.6436243522328531,-0.1356663415768632
-4.0845,0.7076454013788909,0.4365521323016577
-4.084,0.6542945270906134,0.7544512844573746
-4.0835,0.7396559259519968,0.9451907757502149
-4.083,0.6863050516635838,0.8710143069140429
-4.0825,0.5689331282289872,0.6484849004053148
-4.082,0.4729015545099309,0.4153588554918433
-4.0815,0.3982103305061524,0.2564092794143318
-4.081,0.131455959064329,0.4471487707071721
-4.0805,-0.6367966306890638,1.104140351827727
-4.08,-1.373038695869166,1.326669758336243
-4.0795,-1.831856214749102,0.3835689402771988
-4.079,-2.077270236475784,-0.7608680074820212
-4.0785,-1.597112367880501,-1.068170521231597
-4.078,-0.850200127843396,-0.7078848154562323
-4.0775,-0.2313299860967644,-0.2098428104126594
-4.077,0.1634664836371343,0.2034260873884947
-4.0765,0.3661998059329201,0.4683420475174396
-4.076,0.4302208550792003,0.6166949851900824
-4.0755,0.4302208550792003,0.6802748156210291
-4.075,0.408880505363835,0.6908714540261965
-4.0745,0.3661998059330754,0.6166949851899088
-4.074,0.3341892813600565,0.4895353243280153
-4.0735,0.3235191065023739,0.4153588554918433
-4.073,0.312848931644701,0.330585748250581
-4.0725,-0.08194753808956648,-0.1250697031716958
-4.072,-0.7434983792658902,-0.7820612842920766
-4.0715,-1.052933450138406,-1.237716735713862
-4.071,-1.063603624996079,-1.64038899511112
-4.0705,-0.7434983792658902,-2.17022091536901
-4.07,-0.3807124341050104,-2.572893174765006
-4.0695,0.323519106502665,-2.42454023709246
-4.069,0.6436243522328531,-1.79933857118815
-4.0685,0.8036769750980928,-0.9728007755850904
-4.068,0.8356874996710146,-0.3158091944643048
-4.0675,0.6969752265212663,0.1292496185523226
-4.067,0.6329541773751706,0.5319218779486851
-4.0665,0.5582629533713241,0.7226613692416892
-4.066,0.4835717293676135,0.7120647308365314
-4.0655,0.4302208550792003,0.627291623595192
-4.065,0.3768699807908356,0.5637117931642452
-4.0645,0.3021787567870086,0.627291623595192
-4.064,-0.1779791118087102,1.051157159801889
-4.0635,-0.9782422261341805,1.263089927905045
-4.063,-1.373038695869409,0.5001319627328744
-4.0625,-1.639793067311232,0.1610395337678249
-4.062,-1.458400094730792,0.3623756634658231
-4.0615,-0.8715404775575676,0.4047622170866662
-4.061,-0.3060212101009019,0.3941655786815084
-4.0605,0.09944543449103843,0.383568940276341
-4.06,0.3128489316447786,0.4153588554919012
-4.0595,0.408880505363835,0.4789386859228479
-4.059,0.4195506802215176,0.5637117931641874
-4.0585,0.3982103305061718,0.6484849004054498
-4.058,0.3768699807907871,0.7226613692416989
-4.0575,0.3448594562177392,0.7438546460520338
-4.057,0.3341892813600663,0.7120647308365603
-4.0565,0.3235191065023739,0.627291623595192
-4.056,0.1314559590640864,0.3305857482505039
-4.0555,-0.4340633083925793,-0.5807251545930667
-4.055,-1.39437904558458,-1.735758740757406
-4.0545,-1.447729919872945,-2.021867977696666
-4.054,-0.7541685541242038,-2.265590661015295
-4.0535,0.04609456020321719,-2.180817553773811
-4.053,0.6969752265212663,-1.778145294377815
-4.0525,0.9957401225363802,-1.152943628472937
-4.052,0.9637295979632257,-0.4217755785157767
-4.0515,0.8463576745288233,0.2458126410091644
-4.051,0.707645401378949,0.701468092431364
-4.0505,0.6542945270905843,0.8816109453190465
-4.05,0.7183155762366316,0.9451907757502149
-4.0495,0.6542945270905358,0.8392243916985406
-4.049,0.5582629533714795,0.6484849004057003
-4.0485,0.4622313796521512,0.4789386859227611
-4.048,0.3555296310754218,0.383568940276341
-4.0475,-0.2313299860965897,0.7756445612671794
-4.047,-1.191645723289211,1.432636142387917
-4.0465,-1.906547438753298,1.432636142387917
-4.046,-2.461396531352291,0.3835689402772953
-4.0455,-2.482736881067384,-0.6125150698095518
-4.045,-1.629122892453549,-0.7820612842920766
-4.0445,-0.7755089038389382,-0.5065486857577234
-4.044,-0.13529841237764,-0.1356663415765934
-4.0435,0.2381577076409128,0.1610395337678249
-4.043,0.408880505363835,0.3517790250608387
-4.0425,0.4622313796521997,0.4683420475175745
-4.042,0.4408910299368829,0.5213252395435176
-4.0415,0.408880505363835,0.5319218779486851
-4.041,0.3555296310754703,0.4683420475177383
-4.0405,0.3341892813600468,0.3835689402762639
-4.04,0.3235191065023739,0.2987958330350016
-4.0395,0.2488278824986633,0.1504428953627924
-4.039,-0.3166913849591765,-0.4111789401117562
-4.0385,-0.9675720512772257,-1.004590690800593
-4.038,-1.330357996438106,-1.439052865412062
-4.0375,-1.330357996438038,-2.085447808128114
-4.037,-0.8928808272734472,-2.572893174765372
-4.0365,-0.007256314085787988,-2.477523429118866
-4.036,0.483571729367827,-2.064254531316545
-4.0355,0.7183155762366316,-1.195330182093607
-4.035,0.8463576745288233,-0.3158091944647096
-4.0345,0.7609962756674399,0.2564092794138113
-4.034,0.6436243522328531,0.627291623595192
-4.0335,0.7609962756673623,0.9981739677760521
-4.033,0.7396559259520162,1.040560521396683
-4.0325,0.6329541773750638,0.8816109453190368
-4.032,0.5155822539406614,0.6908714540261965
-4.0315,0.430220855079278,0.5637117931643031
-4.031,0.1634664836363773,0.7120647308370711
-4.0305,-0.6688071552621118,1.305476481525908
-4.03,-1.479740444445255,1.475022696008432
-4.0295,-1.938557963326152,0.5319218779480779
-4.029,-1.725154466172693,-0.1356663415768632
-4.0285,-1.052933450138687,-0.1780528951975329
-4.028,-0.3913826089619458,0.02328323450086031
-4.0275,0.0674349099179905,0.2564092794143318
-4.027,0.3128489316446912,0.457745409112513
-4.0265,0.4195506802214206,0.5849050699744065
-4.026,0.4408910299368829,0.6802748156210291
-4.0255,0.4195506802215176,0.7332580076468663
-4.025,0.3982103305061718,0.7544512844571818
-4.0245,0.366199805933085,0.7544512844571626
-4.024,0.3448594562177392,0.7120647308365314
-4.0235,0.3448594562177392,0.680274815621058
-4.023,0.3341892813602603,0.6166949851896101
-4.0225,0.5582629533713921,0.1610395337678249
-4.022,0.8036769750978696,-0.5489352393777474
-4.0215,0.2701682322135531,-1.131750351663045
-4.021,-0.1779791118087102,-1.619195718300304
-4.0205,-0.4980843575391895,-2.530506621144703
-4.02,0.02475421048768693,-2.678859558817028
-4.0195,0.4942419042252961,-2.657666282006712
-4.019,0.6863050516635838,-2.149027638558676
-4.0185,0.7716664505249672,-1.163540266879
-4.018,0.7716664505250448,-0.3370024712750445
-4.0175,0.6542945270905358,0.09745970333682032
-4.017,0.7183155762365734,0.3623756634657652
-4.0165,0.8570278493864381,0.5319218779487044
-4.016,0.7823366253827275,0.55311515475902
-4.0155,0.6329541773753065,0.5107286011383887
-4.015,0.5049120790828235,0.4577454091125612
-4.0145,0.3341892813600565,0.5107286011383502
-4.014,-0.3700422592463573,1.04056052139624
-4.0135,-1.330357996439076,1.66576218730134
-4.013,-2.03458953704549,1.37965295036208
-4.0125,-2.525417580498891,0.9134008605347127
-4.012,-2.215982509625318,0.9769806909655727
-4.0115,-1.362368521011484,0.8180311148882058
-4.011,-0.5621054066852853,0.5743084315693548
-4.0105,-0.00725631408629257,0.4153588554919879
-4.01,0.3021787567870086,0.3623756634660061
-4.0095,0.4302208550792003,0.3941655786815084
-4.009,0.4622313796522191,0.4895353243279286
-4.0085,0.4408910299368441,0.6166949851901306
-4.008,0.3982103305061524,0.7332580076468663
-4.0075,0.3661998059331336,0.7968378380778131
-4.007,0.3448594562177489,0.7756445612672566
-4.0065,0.3555296310754218,0.4683420475176805
-4.006,0.4622313796522482,-0.04029659593035631
-4.0055,0.4835717293671768,-0.5489352393787689
-4.005,0.00341386077189465,-0.9622041371799229
-4.0045,-0.6154562809736985,-1.258910012524611
-4.004,-1.020922925565037,-1.979481424076025
-4.0035,-0.3593720843893152,-2.011271339291499
-4.003,0.2701682322139607,-1.905304955239825
-4.0025,0.6436243522325134,-1.502632695843828
-4.002,0.8676980242441885,-0.6337083466197325
-4.0015,0.857027849386506,0.1080563417419877
-4.001,0.7396559259521036,0.5107286011379839
-4.0005,0.6969752265213148,0.796837838078054
-4,0.7503261008096795,0.9981739677760521
-3.9995,0.6756348768059011,0.9028042221295453
-3.999,0.5582629533713921,0.6908714540261965
-3.9985,0.4622313796522482,0.4789386859228479
-3.998,0.3768699807907871,0.309392471440169
-3.9975,-0.09261771294724913,0.6060983467848571
-3.997,-0.9355615267041777,1.263089927905238
-3.9965,-1.618452717595867,1.538602526439591
-3.996,-2.045259711903173,0.9981739677760521
-3.9955,-2.141291285622316,0.9557874141553824
-3.995,-1.501080794161358,0.775644561267536
-3.9945,-0.7328282044082075,0.457745409112513
-3.994,-0.1459685872356623,0.2034260873884947
-3.9935,0.2168173579255475,0.08686306493165288
-3.993,0.3875401556484697,0.07626642652648545
-3.9925,0.4408910299368829,0.1504428953626575
-3.992,0.4302208550792003,0.2670059178194992
-3.9915,0.3982103305061524,0.4047622170866759
-3.991,0.3661998059331045,0.5213252395435176
-3.9905,0.3448594562177392,0.5849050699745222
-3.99,0.3448594562177392,0.5849050699745222
-3.9895,0.3021787567870086,0.6060983467848571
-3.989,-0.1673089369510276,0.2776025562246667
-3.9885,-1.458400094730627,-0.8562377531282487
-3.988,-2.066600061618538,-1.34368311976595
-3.9875,-2.226652684483777,-1.650985633515806
-3.987,-1.394379045584531,-1.926498232050159
-3.9865,-0.2420001609548061,-1.894708316834657
-3.986,0.6329541773751706,-1.523825972653797
-3.9855,0.942389248247967,-0.7714646458869092
-3.985,0.9317190733902845,0.06566978812131802
-3.9845,0.825017324813458,0.6484849004055269
-3.984,0.7183155762366316,0.9875773293708847
-3.9835,0.79300680024041,1.25249328950007
-3.983,0.7503261008096795,1.188913459069066
-3.9825,0.6436243522328531,0.9134008605347127
-3.982,0.5262524287983441,0.6060983467848571
-3.9815,0.4302208550792003,0.3623756634660061
-3.981,0.142126133921769,0.4259554938970107
-3.9805,-0.5407650569699201,0.8922075837243778
-3.98,-1.084943974711735,0.7650479228623686
-3.9795,-1.490410619303675,-0.2098428104130352
-3.979,-1.501080794161358,-0.9939940523954253
-3.9785,-0.9995825758502737,-0.9410108603695881
-3.978,-0.423393133535411,-0.5277419625680583
-3.9775,0.01408403562957729,-0.1144730647665284
-3.977,0.2701682322139607,0.1822328105781598
-3.9765,0.3875401556484697,0.3623756634660061
-3.976,0.4195506802215176,0.4365521323021782
-3.9755,0.4195506802215176,0.4683420475176805
-3.975,0.3875401556484697,0.4683420475176805
-3.9745,0.3661998059331045,0.4365521323021782
-3.974,0.3341892813600565,0.3623756634660061
-3.9735,0.3235191065023739,0.2987958330350016
-3.973,0.3341892813600565,0.2670059178194992
-3.9725,0.1527963087794516,-0.1992461720078678
-3.972,-0.4980843575391895,-0.8774310299385835
-3.9715,-1.533091318734406,-1.915901593644992
-3.971,-1.83185621474952,-2.466926790713698
-3.9705,-1.031593100423322,-2.604683089980875
-3.97,-0.1139580626626144,-2.636473005196377
-3.9695,0.6222840025174878,-2.297380576231019
-3.969,0.9957401225363802,-1.576809164679634
-3.9685,0.974399772821015,-0.7608680074817418
-3.968,0.825017324813458,0.01268659609548085
-3.9675,0.6649647019482183,0.5849050699745222
-3.967,0.6863050516635838,1.019367244586387
-3.9665,0.7396559259519968,1.188913459069066
-3.966,0.6649647019482183,1.061753798207057
-3.9655,0.5582629533713921,0.8604176685088755
-3.965,0.4622313796522482,0.6590815388106942
-3.9645,0.3341892813600565,0.5637117931641874
-3.964,-0.007256314085787988,0.9875773293708847
-3.9635,0.291508581929326,1.633972272086098
-3.963,0.3768699807907871,2.110821000318633
-3.9625,-0.2846808603855366,1.70814874092227
-3.962,-0.9248913518464952,0.5955017083796896
-3.9615,-0.8502001278427167,-0.02969995752518888
-3.961,-0.4767440078238243,-0.1886495336027004
-3.9605,-0.1032878878049318,-0.1038764263613609
-3.96,0.1634664836371343,0.07626642652648545
-3.9595,0.3128489316446912,0.2564092794143318
-3.959,0.3768699807907871,0.4259554938970107
-3.9585,0.3875401556484697,0.55311515475902
-3.958,0.3661998059331045,0.6484849004055269
-3.9575,0.3448594562177392,0.6802748156210291
-3.957,0.3341892813600565,0.6908714540261965
-3.9565,0.3341892813600565,0.627291623595192
-3.956,0.2381577076409128,0.4789386859228479
-3.9555,-0.9782422261349084,-0.718481453861072
-3.955,-1.703814116457328,-1.449649503817625
-3.9545,-1.863866739322568,-1.852321763213987
-3.954,-1.170305373573196,-2.096044446532838
-3.9535,-0.1032878878049318,-2.127834361748341
-3.953,0.7289857510943143,-1.947691508860494
-3.9525,1.059761171682476,-1.502632695843462
-3.952,1.038420821967111,-0.7078848154559045
-3.9515,0.9210488985326017,-0.04029659593035631
-3.951,0.7609962756673623,0.4471487707073456
-3.9505,0.6863050516635838,0.8286277532933731
-3.95,0.8036769750980928,1.125333628638062
-3.9495,0.7503261008096795,1.061753798207057
-3.949,0.6222840025174878,0.8180311148882058
-3.9485,0.5049120790829789,0.55311515475902
-3.948,0.3982103305061524,0.3411823866556712
-3.9475,0.142126133921769,0.5001319627331828
-3.947,0.08877525963335578,1.00877060618122
-3.9465,-0.3593720843893152,0.7650479228623686
-3.946,-1.031593100423322,-0.02969995752518888
-3.9455,-1.639793067311232,0.09745970333682032
-3.945,-1.46907026958831,0.3411823866556712
-3.9445,-0.8715404775580819,0.3411823866556712
-3.944,-0.3060212101009019,0.2670059178194992
-3.9435,0.08877525963335578,0.2140227257936621
-3.943,0.3128489316446912,0.2140227257936621
-3.9425,0.3982103305061524,0.2458126410091644
-3.942,0.4195506802215176,0.3305857482505039
-3.9415,0.3982103305061524,0.4153588554918433
-3.941,0.3661998059331045,0.4471487707073456
-3.9405,0.3341892813600565,0.4789386859228479
-3.94,0.3235191065023739,0.5849050699745222
-3.9395,0.3875401556484697,0.4789386859228479
-3.939,0.3555296310754218,-0.06148987274069118
-3.9385,0.07810508477567314,-0.6231117082145651
-3.938,-0.8715404775580819,-1.364876396576285
-3.9375,-1.426389570157579,-1.979481424075996
-3.937,-0.690147504977477,-2.000674700886331
-3.9365,0.07810508477567314,-2.096044446532838
-3.936,0.6542945270905358,-1.937094870455327
-3.9355,0.9637295979633325,-1.248313374119443
-3.935,0.9637295979633325,-0.3581957480853793
-3.9345,0.825017324813458,0.3517790250608387
-3.934,0.707645401378949,0.8392243916985406
-3.9335,0.79300680024041,1.178316820663898
-3.933,0.7716664505250448,1.167720182258731
-3.9325,0.6436243522328531,0.9345941373450475
-3.932,0.5262524287983441,0.6590815388106942
-3.9315,0.4302208550792003,0.4259554938970107
-3.931,0.142126133921769,0.5107286011383502
-3.9305,-0.7434983792658902,1.114736990232894
-3.93,-1.565101843307454,1.506812611224089
-3.9295,-1.746494815888059,0.8392243916985406
-3.929,-1.970568487899394,0.6908714540261965
-3.9285,-1.917217613610981,0.9451907757502149
-3.928,-1.277007122150022,0.7862411996727035
-3.9275,-0.572775581542968,0.4789386859228479
-3.927,-0.04993701351651855,0.2246193641988295
-3.9265,0.2594980573562781,0.1080563417419877
-3.926,0.3982103305061524,0.09745970333682032
-3.9255,0.4302208550792003,0.1716361721729923
-3.925,0.4195506802215176,0.2881991946298341
-3.9245,0.3875401556484697,0.3941655786815084
-3.924,0.3555296310754218,0.4789386859228479
-3.9235,0.3341892813600565,0.5107286011383502
-3.923,0.3235191065023739,0.4683420475176805
-3.9225,0.0674349099179905,0.1186529801471552
-3.922,-0.274010685527854,-0.474758770542221
-3.9215,-0.6047861061160158,-0.9092209451540858
-3.921,-1.095614149569417,-1.174136905283272
-3.9205,-1.277007122150022,-1.672178910326141
-3.92,-0.9462317015618604,-2.085447808127671
-3.9195,-0.1139580626626144,-1.88411167842949
-3.919,0.3555296310754218,-1.364876396576285
-3.9185,0.5902734779444399,-0.4853554089473885
-3.918,0.7396559259519968,0.4365521323021782
-3.9175,0.707645401378949,0.9345941373450475
-3.917,0.7396559259519968,1.220703374284568
-3.9165,0.79300680024041,1.347863035146577
-3.916,0.6969752265212663,1.157123543853563
-3.9155,0.5582629533713921,0.8604176685088755
-3.915,0.4622313796522482,0.5743084315693548
-3.9145,0.3661998059331045,0.383568940276341
-3.914,-0.2206598112394408,0.6590815388106942
-3.9135,-1.138294849000148,1.220703374284568
-3.913,-1.682473766741963,0.8922075837243778
-3.9125,-1.949228138184029,0.4153588554918433
-3.912,-1.735824641030376,0.4789386859228479
-3.9115,-1.052933450138687,0.3517790250608387
-3.911,-0.4020527838200457,0.1716361721729923
-3.9105,0.05676473506030786,0.03387987290581572
-3.91,0.3128489316446912,-0.02969995752518888
-3.9095,0.408880505363835,-0.01910331912002144
-3.909,0.4302208550792003,0.04447651131098315
-3.9085,0.4195506802215176,0.13984625695749
-3.908,0.3875401556484697,0.2352160026039969
-3.9075,0.3555296310754218,0.3199891098453364
-3.907,0.3448594562177392,0.4047622170866759
-3.9065,0.3341892813600565,0.3729723018711736
-3.906,0.2381577076409128,0.2034260873884947
-3.9055,-0.3487019095316325,-0.3052125560595421
-3.905,-0.9782422261349084,-0.792657922697244
-3.9045,-1.458400094730627,-1.121153713257435
-3.904,-1.437059745015262,-1.322489842955616
-3.9035,-1.180975548430879,-1.915901593644992
-3.903,-0.4767440078238243,-1.937094870455327
-3.9025,0.1634664836371343,-1.375473034981453
-3.902,0.4942419042252961,-0.5807251545938954
-3.9015,0.6969752265212663,0.1610395337678249
-3.901,0.7716664505250448,0.7544512844572011
-3.9005,0.6649647019482183,1.082947075017392
-3.9,0.5796033030867573,1.358459673551745
-3.8995,0.4942419042252961,1.263089927905238
-3.899,0.4302208550792003,0.9875773293708847
-3.8985,0.3875401556484697,0.6908714540261965
-3.898,0.3555296310754218,0.4683420475176805
-3.8975,0.1101156093487211,0.6590815388106942
-3.897,-0.156638762093345,1.284283204715573
-3.8965,-0.754168554123573,1.475022696008586
-3.896,-1.415719395299897,0.6166949851900245
-3.8955,-1.607782542738184,0.2140227257936621
-3.895,-1.127624674142465,0.08686306493165288
-3.8945,-0.5300948821122373,0.03387987290581572
-3.894,-0.04993701351651855,0.04447651131098315
-3.8935,0.2381577076409128,0.06566978812131802
-3.893,0.3768699807907871,0.1080563417419877
-3.8925,0.4195506802215176,0.1610395337678249
-3.892,0.4195506802215176,0.2246193641988295
-3.8915,0.3982103305061524,0.2881991946298341
-3.891,0.3661998059331045,0.3199891098453364
-3.8905,0.3448594562177392,0.3305857482505039
-3.89,0.3235191065023739,0.3305857482505039
-3.8895,0.3235191065023739,0.4153588554918433
-3.889,0.05676473506030786,0.2140227257936621
-3.8885,-0.4660738329661415,-0.3475991096802118
-3.888,-0.9142211769888124,-0.8986243067489184
-3.8875,-0.8822106524157645,-1.280103289334946
-3.887,-0.8502001278427167,-2.117237723343173
-3.8865,-0.1459685872356623,-2.318573853041354
-3.886,0.4835717293676135,-2.17022091536901
-3.8855,0.707645401378949,-1.566212526274467
-3.885,0.8143471499557753,-0.6443049850249
