Class_3_Grab_w_two_Hands/Class_3_Grab_with_Two_Hands_AM_3.csv

#Digilent WaveForms Oscilloscope Acquisition
#Device Name: EExplorer
#Serial Number: SN:210151A2B84A
#Date Time: 2020-11-08 09:36:46.308
#Sample rate: 2000Hz
#Samples: 16384
#Trigger: Source: Channel 1 Type: Edge Condition: Rising Level: 0 V Hyst.: Auto HoldOff: 0 s
#Channel 1: Range: 1 V/div Offset: 0 V Attenuation: 1 X
#Channel 2: Range: 1 V/div Offset: 0 V Attenuation: 1 X
#Power Supplies: ON
#Fixed Supply: ON
#Voltage: 3.3 V Readback: 3.317 V
#Positive Supply: ON
#Voltage: 3.7 V Readback: 3.673 V
#Current: 40 mA Readback: 18 mA
#Negative Supply: ON
#Voltage: -3.7 V Readback: -3.901 V
#Current: -40 mA Readback: 0 A
#Reference 1: ON
#Voltage: 0 V
#Reference 2: ON
#Voltage: 0 V

Time (s),Channel 1 (V),Channel 2 (V)
-4.096,1.230483969405398,-0.06148987274069118
-4.0955,1.049090996824958,0.06566978812120236
-4.095,1.081101521397773,-0.061489872740749
-4.0945,1.006410297394063,-0.1250697031716958
-4.094,0.8783681991019877,-0.1038764263613802
-4.0935,0.7609962756672749,-0.06148987274058516
-4.093,0.6649647019482183,0.05507314971615059
-4.0925,0.5369226036561431,0.5955017083791981
-4.092,0.6436243522323193,1.475022696009261
-4.0915,0.05676473506030786,2.216787384370307
-4.091,-0.839529952985034,2.153207553939303
-4.0905,-1.629122892454132,0.9981739677748762
-4.09,-2.269333383914508,-0.2946159176543747
-4.0895,-2.376035132491334,-1.174136905283272
-4.089,-2.322684258202969,-1.598002441489583
-4.0885,-1.789175515318789,-1.142346990067769
-4.088,-0.7755089038389382,-0.1780528951975329
-4.0875,-0.007256314086486748,0.712064730835722
-4.087,0.462231379652452,1.326669758336532
-4.0865,0.6863050516635838,1.644568910491266
-4.086,0.7396559259519483,1.729342017732528
-4.0855,0.7289857510942852,1.665762187301446
-4.085,0.6969752265212663,1.496215972818921
-4.0845,0.4408910299371159,0.9557874141558739
-4.084,-0.7968492535551478,-0.4535654937327054
-4.0835,-1.725154466172693,-1.354279758171118
-4.083,-2.376035132491334,-1.968884785670829
-4.0825,-1.746494815886555,-2.043061254507049
-4.082,-0.09261771294724913,-2.096044446532838
-4.0815,1.166462920259302,-2.117237723343173
-4.081,1.657290963712258,-1.640388995111072
-4.0805,1.667961138570387,-0.8880276683437509
-4.08,1.475897991132099,-0.2840192792492073
-4.0795,1.230483969405622,0.05507314971584215
-4.079,1.03842082196715,0.2140227257939127
-4.0785,1.081101521397841,0.4895353243280153
-4.078,1.070431346540168,0.5849050699744355
-4.0775,0.9530594231055236,0.4683420475175552
-4.077,0.8143471499557753,0.3305857482505039
-4.0765,0.7183155762367189,0.2458126410092415
-4.076,0.6329541773755102,0.4153588554924505
-4.0755,1.006410297394063,1.082947075017392
-4.075,1.038420821967111,1.888291593810116
-4.0745,0.1207857842054138,2.290963853205737
-4.074,-0.9675720512772257,1.475022696008586
-4.0735,-1.885207089037933,0.13984625695749
-4.073,-2.386705307348561,-0.9092209451531317
-4.0725,-2.365364957633652,-1.502632695843462
-4.072,-2.098610586191586,-1.407262950196955
-4.0715,-1.106284324428003,-0.5277419625688582
-4.071,-0.2313299860966091,0.4259554938976564
-4.0705,0.3341892813600565,1.135930267043229
-4.07,0.6329541773748988,1.55979580324954
-4.0695,0.728985751094324,1.718745379327428
-4.069,0.7396559259519968,1.70814874092227
-4.0685,0.707645401378949,1.570392441655093
-4.068,0.6329541773746077,1.241896651094132
-4.0675,0.01408403562957729,0.3941655786815084
-4.067,-1.426389570157579,-1.046977244421262
-4.0665,-2.247993034199191,-1.820531847998774
-4.066,-2.301343908487556,-2.138431000153508
-4.0655,-1.052933450138687,-2.297380576231019
-4.065,0.334189281358795,-2.318573853041335
-4.0645,1.19847344483235,-1.788741932782983
-4.064,1.475897991132099,-1.142346990067769
-4.0635,1.454557641416753,-0.6125150698098795
-4.063,1.305175193409012,-0.2522293640335412
-4.0625,1.123782220828572,-0.07208651114585861
-4.062,1.027750647109515,0.07626642652635053
-4.0615,1.017080472251658,0.288199194629863
-4.061,0.9210488985326017,0.3199891098453364
-4.0605,0.8143471499557753,0.2987958330350016
-4.06,0.718315576236583,0.2987958330351076
-4.0595,0.6649647019482183,0.4153588554918433
-4.059,0.9530594231056497,0.9345941373450475
-4.0585,1.401206767127913,1.729342017731882
-4.058,0.7396559259519968,2.365140322042651
-4.0575,-0.3593720843893152,2.015451254672126
-4.057,-1.341028171295225,0.6908714540274012
-4.0565,-2.109280761049269,-0.5383386009732256
-4.056,-2.429386006779747,-1.290699927740113
-4.0555,-2.376035132491383,-1.545019249463901
-4.055,-1.714484291314089,-0.9304142219635051
-4.0545,-0.7008176798351597,0.07626642652648545
-4.054,0.04609456020194591,0.9663840525597402
-4.0535,0.4942419042254805,1.559795803250176
-4.053,0.6969752265212663,1.835308401784279
-4.0525,0.7396559259519968,1.888291593810116
-4.052,0.7183155762365927,1.761131932947857
-4.0515,0.6756348768059011,1.485619334413754
-4.051,0.3448594562177392,0.8922075837243778
-4.0505,-0.3380317346733288,0.07626642652722748
-4.05,-1.543761493592088,-1.121153713257435
-4.0495,-2.258663209056825,-1.915901593644992
-4.049,-1.33035799643928,-2.074851169722359
-4.0485,-0.09261771294641455,-2.244397384204787
-4.048,0.825017324813458,-1.809935209593318
-4.0475,1.326515543124086,-1.099960436447745
-4.047,1.401206767128194,-0.6443049850246205
-4.0465,1.262494493978446,-0.3370024712750445
-4.046,1.091771696255679,-0.1356663415770463
-4.0455,0.9850699476787947,-0.08268314955111278
-4.045,1.091771696255524,-0.1780528951975329
-4.0445,1.049090996824793,-0.1038764263613609
-4.044,0.9210488985324949,0.06566978812149149
-4.0435,0.8036769750980928,0.2564092794143318
-4.043,0.707645401378949,0.4365521323021782
-4.0425,0.7289857510942949,0.8710143069136478
-4.042,1.230483969405398,1.623375633680931
-4.0415,0.9637295979633325,2.301560491611646
-4.041,-0.08194753808861543,2.460510067689014
-4.0405,-1.170305373574021,1.379652950360798
-4.04,-2.07727023647622,-0.02969995752518888
-4.0395,-2.4400561816371,-1.057573882825495
-4.039,-2.386705307348473,-1.566212526274043
-4.0385,-1.789175515318789,-1.0999604364471
-4.038,-0.7541685541245142,-0.1568596183880558
-4.0375,0.01408403563000429,0.7120647308370711
-4.037,0.4835717293676135,1.305476481525908
-4.0365,0.6863050516635838,1.623375633680931
-4.036,0.7396559259519774,1.686955464111848
-4.0355,0.7183155762366316,1.591585718465428
-4.035,0.6756348768059011,1.369056311956912
-4.0345,0.52625242879848,0.8922075837248116
-4.034,0.2274875327832301,0.1080563417419877
-4.0335,0.142126133921769,-0.8244478379127463
-4.033,-0.6367966306883553,-1.95828814726463
-4.0325,-0.42339313353446,-2.382153683472667
-4.032,0.6222840025174878,-2.721246112437717
-4.0315,1.35852606769692,-2.56229653636035
-4.031,1.678631313428011,-1.619195718299542
-4.0305,1.614610264281974,-0.7820612842920766
-4.03,1.358526067697823,-0.2522293640341868
-4.0295,1.102441871113051,0.0656697881214144
-4.029,0.9317190733902845,0.1716361721729923
-4.0285,0.9637295979633325,0.4153588554918433
-4.028,0.9850699476786201,0.542518516353785
-4.0275,0.8997085488172365,0.4683420475176805
-4.027,0.8036769750980928,0.3729723018711736
-4.0265,0.7076454013790364,0.3199891098453846
-4.026,0.6222840025174878,0.5213252395435176
-4.0255,1.070431346540159,1.220703374284568
-4.025,1.443887466558711,2.004854616266245
-4.0245,0.686305051662526,2.502896621309336
-4.024,-0.4767440078238243,1.962468062646288
-4.0235,-1.511750969018099,0.5743084315706173
-4.023,-2.312014083345365,-0.6654982618359384
-4.0225,-2.450726356495113,-1.439052865412457
-4.022,-2.344024607918384,-1.587405803084666
-4.0215,-1.479740444445109,-0.8138511995066826
-4.021,-0.5087545323968721,0.1716361721729923
-4.0205,0.1634664836371343,0.9663840525605498
-4.02,0.5475927785138452,1.464426057603612
-4.0195,0.6969752265212663,1.676358825706768
-4.019,0.7183155762366316,1.6657621873016
-4.0185,0.6969752265212857,1.506812611224233
-4.018,0.6222840025174878,1.167720182258731
-4.0175,0.1207857842064037,0.4471487707073456
-4.017,-0.6581369804037206,-0.3370024712743313
-4.0165,-1.607782542738815,-1.184733543689364
-4.016,-2.301343908487556,-2.202010830584512
-4.0155,-1.234326422720262,-2.519909982739246
-4.015,-0.1032878878042136,-2.371557045066594
-4.0145,0.6863050516635838,-1.714565463946811
-4.014,1.187803269974212,-0.8986243067496604
-4.0135,1.315845368266753,-0.3370024712747939
-4.013,1.19847344483235,-0.06148987274069118
-4.0125,1.059761171682476,0.09745970333682032
-4.012,1.027750647109506,0.2458126410093475
-4.0115,1.113112045970889,0.4471487707073456
-4.011,1.017080472251745,0.4153588554918433
-4.0105,0.8890383739596702,0.3411823866557387
-4.01,0.7716664505250448,0.2987958330350016
-4.0095,0.6863050516635838,0.3623756634660061
-4.009,0.974399772820753,0.786241199672318
-4.0085,1.689301488285529,1.559795803250552
-4.008,1.443887466559051,2.248577299585809
-4.0075,0.291508581930374,2.026047893077496
-4.007,-0.9675720512781379,0.7544512844560446
-4.0065,-1.970568487899394,-0.5171453241628908
-4.006,-2.514747405641209,-1.311893204550448
-4.0055,-2.482736881067675,-1.629792356704989
-4.005,-1.949228138184029,-1.0999604364471
-4.0045,-0.8928808272734472,-0.07208651114585861
-4.004,-0.08194753808911037,0.8604176685094441
-4.0035,0.4195506802215176,1.485619334413754
-4.003,0.6649647019482183,1.803518486568777
-4.0025,0.718315576236583,1.845905040189408
-4.002,0.707645401378949,1.697552102517103
-4.0015,0.6649647019482183,1.37965295036208
-4.001,0.4515612047947597,0.8392243916990321
-4.0005,0.4622313796530246,0.02328323449999293
-4,1.315845368266859,-0.6972881770507372
-3.9995,1.870694460866357,-1.598002441489969
-3.999,2.340182154604393,-2.244397384205182
-3.9985,2.681627750050238,-2.498716705929201
-3.998,2.446883903181219,-2.180817553774178
-3.9975,2.052087433446962,-1.375473034981453
-3.997,1.625280439139656,-0.6760949002404023
-3.9965,1.19847344483235,-0.2946159176543747
-3.996,0.9103787236749192,-0.08268314955102604
-3.9955,0.7823366253827275,0.03387987290581572
-3.995,0.857027849386506,-0.01910331912002144
-3.9945,0.8463576745288233,-0.06148987274069118
-3.994,0.7823366253827275,-0.01910331912002144
-3.9935,0.707645401378949,0.05507314971615059
-3.993,0.6542945270905358,0.1610395337678249
-3.9925,0.6863050516635838,0.5849050699745222
-3.992,1.326515543124542,1.400846227172415
-3.9915,1.635950613997339,2.153207553939303
-3.991,0.8463576745288233,2.418123514068488
-3.9905,-0.3060212101009019,1.475022696008586
-3.99,-1.341028171296118,0.13984625695749
-3.9895,-2.141291285622316,-0.8774310299385835
-3.989,-2.280003558772191,-1.38606967338662
-3.9885,-1.799845690176472,-1.004590690800593
-3.988,-0.8181896032696687,-0.1144730647665284
-3.9875,-0.07127736323188383,0.7332580076468663
-3.987,0.3982103305061524,1.326669758336243
-3.9865,0.6222840025174878,1.644568910491266
-3.986,0.6863050516635838,1.75053529454294
-3.9855,0.6329541773751706,1.655165548896433
-3.985,0.01408403562957729,0.8604176685088755
-3.9845,-0.2953510352432193,0.1716361721729923
-3.984,-0.9142211769888124,-0.6866915386455698
-3.9835,-1.799845690176472,-1.523825972653797
-3.983,-2.44005618163743,-2.011271339291499
-3.9825,-2.013249187330125,-2.17022091536901
-3.982,-0.572775581542968,-2.382153683472359
-3.9815,0.5475927785137094,-2.149027638558676
-3.981,1.134452395686255,-1.417859588602123
-3.9805,1.326515543124542,-0.6760949002404023
-3.98,1.273164668836129,-0.1462629799820306
-3.9795,1.113112045970889,0.1292496185523226
-3.979,0.9637295979633325,0.2034260873884947
-3.9785,1.017080472251745,0.3411823866556712
-3.978,1.049090996824793,0.4047622170866759
-3.9775,0.9210488985326017,0.2987958330350016
-3.977,0.7823366253827275,0.2034260873884947
-3.9765,0.6863050516635838,0.1610395337678249
-3.976,0.5796033030867573,0.3411823866556712
-3.9755,0.8783681991018712,1.061753798207057
-3.975,1.539919040278195,1.888291593810116
-3.9745,1.177133095116985,2.471106706094325
-3.974,0.00341386077189465,2.089627723508298
-3.9735,-1.159635198715513,0.7544512844572011
-3.973,-2.087940411333903,-0.4959520473525559
-3.9725,-2.408045657064382,-1.269506650929778
-3.972,-2.130621110764634,-1.258910012524611
-3.9715,-1.138294849000148,-0.4535654937318862
-3.971,-0.2846808603855366,0.457745409112513
-3.9705,0.2808384070716433,1.146526905448396
-3.97,0.5689331282290746,1.570392441655093
-3.9695,0.6756348768059011,1.739938656137773
-3.969,0.6756348768059011,1.729342017732605
-3.9685,0.6436243522328531,1.559795803249926
-3.968,0.5902734779444399,1.188913459069066
-3.9675,0.07810508477567314,0.3305857482505039
-3.967,-0.5194247072545548,-1.046977244421262
-3.9665,-0.7648387289812555,-1.788741932782983
-3.966,-1.148965023857831,-2.117237723343173
-3.9655,-0.423393133535411,-2.159624276963843
-3.965,0.5796033030867573,-2.053657892912168
-3.9645,1.166462920259302,-1.47084278062796
-3.964,1.315845368266859,-0.8774310299385835
-3.9635,1.251824319120764,-0.400582301706049
-3.963,1.134452395686255,-0.07208651114585861
-3.9625,0.9850699476786977,0.1186529801471552
-3.962,0.942389248247967,0.1610395337678249
-3.9615,1.027750647109428,0.01268659609548085
-3.961,0.9530594231056497,0.03387987290581572
-3.9605,0.825017324813458,0.1292496185523226
-3.96,0.707645401378949,0.2352160026039969
-3.9595,0.6116138276598051,0.383568940276341
-3.959,0.79300680024041,0.8710143069140429
-3.9585,1.433217291701369,1.655165548896433
-3.958,1.15579274540162,2.322753768421981
-3.9575,0.08877525963335578,2.184997469154805
-3.957,-1.052933450138687,0.92399749893988
-3.9565,-1.991908837614759,-0.400582301706049
-3.956,-2.482736881068161,-1.290699927740113
-3.9555,-2.44005618163743,-1.682775548731308
-3.955,-1.767835165603424,-1.110557074852267
-3.9545,-0.7648387289812555,-0.1462629799820306
-3.954,-0.007256314085787988,0.701468092431364
-3.9535,0.4302208550792003,1.263089927905238
-3.953,0.6329541773751706,1.538602526439591
-3.9525,0.6756348768059011,1.570392441655093
-3.952,0.6542945270905358,1.443232780793084
-3.9515,0.6116138276598051,1.199510097474233
-3.951,0.3555296310754218,0.6590815388106942
-3.9505,-0.2953510352432193,-0.1462629799820306
-3.95,-1.565101843307454,-1.38606967338662
-3.9495,-2.280003558772191,-2.064254531317336
-3.949,-1.490410619303675,-2.307977214636187
-3.9485,-0.1139580626626144,-2.435136875498196
-3.948,0.8890383739595538,-1.79933857118815
-3.9475,1.35852606769759,-0.9939940523954253
-3.947,1.35852606769759,-0.4111789401112165
-3.9465,1.19847344483235,-0.05089323433552374
-3.946,1.027750647109428,0.13984625695749
-3.9455,0.8890383739595538,0.2352160026039969
-3.945,0.8463576745288233,0.4365521323021782
-3.9445,0.7823366253827275,0.4895353243280153
-3.944,0.7183155762366316,0.4153588554918433
-3.9435,0.6542945270905358,0.3411823866556712
-3.943,0.6009436528021226,0.3305857482505039
-3.9425,0.5262524287983441,0.6696781772158616
-3.942,0.9850699476786977,1.42203950398275
-3.9415,1.283834843693812,2.153207553939303
-3.941,0.4942419042252961,2.471106706094325
-3.9405,-0.658136980404429,1.559795803249926
-3.94,-1.661133417026597,0.1610395337678249
-3.9395,-2.408045657064382,-0.9304142219644207
-3.939,-2.461396531352796,-1.492036057438295
-3.9385,-1.959898313041711,-1.131750351662602
-3.938,-0.9248913518464952,-0.2098428104130352
-3.9375,-0.124628237520297,0.6696781772158616
-3.937,0.3768699807907871,1.29487984312074
-3.9365,0.6116138276598051,1.644568910491266
-3.936,0.6756348768059011,1.75053529454294
-3.9355,0.6542945270905358,1.676358825706768
-3.935,0.6222840025174878,1.453829419198252
-3.9345,0.5262524287983441,1.029963882991555
-3.934,0.2701682322139607,0.2881991946298341
-3.9335,0.3768699807907871,-0.9198175835592532
-3.933,0.6542945270905358,-1.894708316834657
-3.9325,0.9317190733902845,-2.138431000153508
-3.932,1.337185717982225,-2.360960406662024
-3.9315,1.582599739708926,-2.191414192179345
-3.931,1.614610264281974,-1.51322933424863
-3.9305,1.411876941986003,-0.9622041371799229
-3.93,1.15579274540162,-0.5595318777835605
-3.9295,0.9637295979633325,-0.2840192792492073
-3.929,0.8356874996711408,-0.1038764263613609
-3.9285,0.8143471499557753,-0.1780528951975329
-3.928,0.8463576745288233,-0.2204394488182027
-3.9275,0.7823366253827275,-0.07208651114585861
-3.927,0.707645401378949,0.13984625695749
-3.9265,0.6329541773751706,0.3305857482505039
-3.926,0.5262524287983441,0.5849050699745222
-3.9255,0.3128489316446912,1.241896651094903
-3.925,-0.2206598112394408,1.983661339456623
-3.9245,-1.095614149569417,2.49229998290466
-3.924,-1.842526389607202,1.941274785835954
-3.9235,-2.472066706210478,0.55311515475902
-3.923,-2.557428105071939,-0.6866915386455698
-3.9225,-2.504077230783526,-1.449649503817625
-3.922,-2.333354433060604,-1.587405803084801
-3.9215,-1.383708870726849,-0.8032545611024114
-3.921,-0.4554036581084589,0.1716361721729923
-3.9205,0.1741366584948169,0.9451907757502149
-3.92,0.5155822539406614,1.432636142387917
-3.9195,0.6436243522328531,1.623375633680931
-3.919,0.6542945270905358,1.612778995275763
-3.9185,0.6222840025174878,1.453829419198252
-3.918,0.5689331282290746,1.146526905448396
-3.9175,0.1527963087794516,0.4789386859228479
-3.917,-0.8181896032696687,-0.5171453241628908
-3.9165,-2.119950935906951,-1.725162102351978
-3.916,-2.354694782775969,-2.096044446532838
-3.9155,-1.277007122150022,-2.244397384205182
-3.915,-0.03926683865883591,-1.926498232050159
-3.9145,0.857027849386506,-1.142346990067769
-3.914,1.230483969405398,-0.5595318777835605
-3.9135,1.251824319120764,-0.1780528951975329
-3.913,1.113112045970889,0.07626642652648545
-3.9125,0.9637295979633325,0.1610395337678249
-3.912,0.8997085488172365,0.1292496185523226
-3.9115,1.006410297394063,-0.06148987274069118
-3.911,0.942389248247967,-0.05089323433552374
-3.9105,0.825017324813458,0.07626642652648545
-3.91,0.707645401378949,0.2140227257936621
-3.9095,0.6009436528021226,0.3623756634660061
-3.909,0.4408910299368829,0.8604176685088755
-3.9085,0.6222840025174878,1.655165548896433
-3.908,0.1741366584948169,2.322753768421981
-3.9075,-0.7648387289812555,2.290963853206479
-3.907,-1.661133417026597,1.093543713422559
-3.9065,-2.386705307349017,-0.2734226408440398
-3.906,-2.504077230783526,-1.248313374119443
-3.9055,-2.44005618163743,-1.693372187136476
-3.905,-1.746494815888059,-1.152943628472937
-3.9045,-0.7434983792658902,-0.2098428104130352
-3.904,-0.007256314085787988,0.627291623595192
-3.9035,0.4302208550792003,1.178316820663898
-3.903,0.6222840025174878,1.453829419198252
-3.9025,0.6649647019482183,1.506812611224089
-3.902,0.6436243522328531,1.411442865577582
-3.9015,0.6116138276598051,1.146526905448396
-3.901,0.3982103305061524,0.6166949851900245
-3.9005,0.1527963087794516,-0.2310360872233701
-3.9,-0.06060718837420119,-1.545019249464132
-3.8995,-0.2633405106701714,-2.127834361748341
-3.899,0.00341386077189465,-2.307977214636187
-3.8985,0.6542945270905358,-2.350363768256857
-3.898,1.15579274540162,-1.778145294377815
-3.8975,1.35852606769759,-1.025783967610927
-3.897,1.294505018551494,-0.5065486857577234
-3.8965,1.134452395686255,-0.2310360872233701
-3.896,0.9637295979633325,-0.1250697031716958
-3.8955,0.8463576745288233,-0.05089323433552374
-3.895,0.9530594231056497,0.2458126410091644
-3.8945,0.974399772821015,0.383568940276341
-3.894,0.8676980242441885,0.3517790250608387
-3.8935,0.7503261008096795,0.2987958330350016
-3.893,0.6436243522328531,0.2987958330350016
-3.8925,0.707645401378949,0.5213252395435176
-3.892,1.326515543124542,1.220703374284568
-3.8915,1.539919040278195,1.983661339456623
-3.891,0.5902734779444399,2.386333598852986
-3.8905,-0.6688071552621118,1.538602526439591
-3.89,-1.725154466172693,0.1504428953626575
-3.8895,-2.472066706210478,-0.9304142219644207
-3.889,-2.525417580498891,-1.51322933424863
-3.8885,-2.376035132491334,-1.460246142222792
-3.888,-1.447729919872945,-0.5807251545938954
-3.8875,-0.5087545323968721,0.4259554938970107
-3.887,0.142126133921769,1.210106735879401
-3.8865,0.4942419042252961,1.6657621873016
-3.886,0.6329541773751706,1.835308401784279
-3.8855,0.6542945270905358,1.79292184816361
-3.885,0.6222840025174878,1.570392441655093
-3.8845,0.5155822539406614,1.114736990232894
-3.884,-0.04993701351651855,0.3517790250608387
-3.8835,-1.084943974711735,-0.6866915386455698
