Class_3_Grab_w_two_Hands/Class_3_Grab_with_Both_hands_Turki_15.csv

#Digilent WaveForms Oscilloscope Acquisition
#Device Name: EExplorer
#Serial Number: SN:210151A2B84A
#Date Time: 2021-02-04 11:22:57.134
#Sample rate: 2000Hz
#Samples: 16384
#Trigger: Source: Channel 1 Type: Edge Condition: Rising Level: 0 V Hyst.: Auto HoldOff: 0 s
#Channel 1: Range: 1 V/div Offset: 0 V Attenuation: 1 X
#Channel 2: Range: 1 V/div Offset: 0 V Attenuation: 1 X
#Power Supplies: ON
#Fixed Supply: ON
#Voltage: 3.3 V Readback: 3.325 V
#Positive Supply: ON
#Voltage: 3.7 V Readback: 3.714 V
#Current: 40 mA Readback: 16 mA
#Negative Supply: ON
#Voltage: -3.7 V Readback: -3.343 V
#Current: -40 mA Readback: -8 mA
#Reference 1: ON
#Voltage: 0 V
#Reference 2: ON
#Voltage: 0 V

Time (s),Channel 1 (V),Channel 2 (V)
-4.096,0.1527963087794516,-0.5171453241628908
-4.0955,0.3235191065022186,-0.5277419625680486
-4.095,0.3768699807908065,-0.6019184314043073
-4.0945,0.3982103305061524,-0.6866915386455698
-4.094,0.622284002517284,-0.824447837912621
-4.0935,0.6969752265211887,-0.7926579226970994
-4.093,0.6116138276598051,-0.6337083466197325
-4.0925,0.4942419042254029,-0.4217755785165767
-4.092,0.4088805053638156,-0.1992461720077522
-4.0915,0.3875401556484697,-0.07208651114585861
-4.091,0.6116138276598051,-0.3899856633008816
-4.0905,0.2701682322134172,-0.9516074987751313
-4.09,-0.3273615598162672,-1.364876396576285
-4.0895,-0.722158029550525,-1.492036057438295
-4.089,-1.202315898145807,-1.460246142222821
-4.0885,-1.234326422719292,-0.9833974139902578
-4.088,-0.839529952985034,-0.1568596183871981
-4.0875,-0.3913826089627706,0.5955017083790054
-4.087,-0.04993701351633417,1.114736990233145
-4.0865,0.1527963087794516,1.390249588767247
-4.086,0.2381577076408351,1.496215972818825
-4.0855,0.2594980573562586,1.475022696008519
-4.085,0.2381577076409128,1.400846227172415
-4.0845,0.206147183067894,1.294879843120837
-4.084,0.1848068333524898,1.167720182258596
-4.0835,0.1741366584948169,1.019367244586387
-4.083,0.02475421048725994,0.7226613692416989
-4.0825,-0.5407650569702889,-0.05089323433628511
-4.082,-0.9462317015618604,-0.8880276683437509
-4.0815,-1.127624674142465,-1.502632695843462
-4.081,-0.9248913518466796,-1.481439419033147
-4.0805,-0.4447334832507763,-1.025783967610927
-4.08,-0.01792648894347063,-0.6654982618352349
-4.0795,0.2594980573560257,-0.5383386009733413
-4.079,0.3768699807908162,-0.5383386009733027
-4.0785,0.408880505363835,-0.6231117082145651
-4.078,0.3982103305061621,-0.7290780922661431
-4.0775,0.4942419042254514,-0.8032545611024403
-4.077,0.6649647019482183,-0.8350444763179138
-4.0765,0.6116138276598536,-0.6654982618353891
-4.076,0.5262524287983344,-0.4429688553264874
-4.0755,0.5155822539406614,-0.1886495336027004
-4.075,0.4515612047945656,-0.008506680714854012
-4.0745,0.2168173579249846,-0.199246172008369
-4.074,-0.4020527838200457,-0.7502713690765743
-4.0735,-0.8715404775580819,-1.216523458903942
-4.073,-1.244996597576635,-1.481439419032886
-4.0725,-1.373038695869166,-1.354279758171118
-4.072,-0.9995825758502737,-0.6125150698093976
-4.0715,-0.5087545323973185,0.2246193641980682
-4.071,-0.1246282375200738,0.8922075837247536
-4.0705,0.1207857842064037,1.305476481525908
-4.07,0.2274875327831331,1.496215972818748
-4.0695,0.270168232213951,1.54919916484472
-4.069,0.2594980573562781,1.506812611224089
-4.0685,0.2381577076409128,1.411442865577582
-4.068,0.1954770082101725,1.305476481525773
-4.0675,0.1848068333524996,1.157123543853563
-4.067,0.1741366584948169,0.9875773293708847
-4.0665,0.1101156093482455,0.8074344764825275
-4.066,-0.4127229586777283,0.2458126410091644
-4.0655,-0.8928808272734472,-0.6019184314042303
-4.065,-1.052933450138541,-1.311893204549802
-4.0645,-0.690147504977477,-1.587405803084801
-4.064,-0.1886492866663929,-1.174136905283272
-4.0635,0.1954770082098328,-0.7608680074821177
-4.063,0.3875401556484988,-0.5171453241628041
-4.0625,0.4195506802215176,-0.4217755785163839
-4.062,0.4088805053638447,-0.4217755785163839
-4.0615,0.3661998059331336,-0.4747587705423174
-4.061,0.3982103305061524,-0.5807251545938954
-4.0605,0.6542945270905358,-0.7502713690765743
-4.06,0.686305051663477,-0.6443049850247072
-4.0595,0.5689331282290746,-0.4323722169215513
-4.059,0.4515612047945656,-0.252229364033705
-4.0585,0.387540155648528,-0.09327978795633801
-4.058,0.4302208550792003,0.1822328105781598
-4.0575,0.7289857510943143,0.5425185163538525
-4.057,0.3875401556487802,0.08686306493206725
-4.0565,-0.1139580626626144,-0.570128516188728
-4.056,-0.6688071552621118,-1.046977244421262
-4.0555,-1.234326422718778,-1.322489842955365
-4.055,-1.170305373572808,-0.9092209451534016
-4.0545,-0.7434983792658902,-0.1568596183871981
-4.054,-0.3060212101012998,0.5213252395429008
-4.0535,0.003413860772049922,0.9981739677763026
-4.053,0.1741366584948169,1.273686566310405
-4.0525,0.2488278824985954,1.390249588767247
-4.052,0.2594980573562586,1.411442865577553
-4.0515,0.2381577076409128,1.37965295036208
-4.051,0.2061471830678648,1.305476481525908
-4.0505,0.184806833352519,1.210106735879487
-4.05,0.1527963087794516,1.061753798207057
-4.0495,-0.1459685872356623,0.6696781772158616
-4.049,-0.6688071552616363,-0.1780528951967619
-4.0485,-0.9355615267043912,-1.015187329206358
-4.048,-1.170305373573196,-1.672178910326141
-4.0475,-1.063603624996467,-1.650985633515825
-4.047,-0.5834457564002332,-1.12115371325702
-4.0465,-0.124628237520297,-0.6654982618352349
-4.046,0.1848068333522181,-0.4853554089475524
-4.0455,0.3448594562177877,-0.4217755785164321
-4.045,0.3982103305061524,-0.474758770542221
-4.0445,0.3982103305061524,-0.570128516188728
-4.044,0.60094365280221,-0.7396747306714262
-4.0435,0.6969752265212663,-0.7608680074817418
-4.043,0.6222840025174878,-0.6019184314042303
-4.0425,0.5049120790830857,-0.4217755785165478
-4.042,0.4195506802215176,-0.2416327256285375
-4.0415,0.3768699807907871,-0.08268314955102604
-4.041,0.6329541773749376,-0.241632725628393
-4.0405,0.6542945270900505,-0.7820612842925488
-4.04,0.1207857842064037,-1.301296566145281
-4.0395,-0.263340510669822,-1.35427975817107
-4.039,-0.2740106855277376,-0.7502713690759093
-4.0385,-0.1459685872356623,-0.01910331912002144
-4.038,0.003413860771758787,0.5637117931636575
-4.0375,0.1207857842064619,0.9557874141555848
-4.037,0.1848068333524996,1.178316820663898
-4.0365,0.2168173579255475,1.273686566310405
-4.036,0.2274875327832204,1.305476481525888
-4.0355,0.2168173579255475,1.284283204715573
-4.035,0.2061471830678648,1.241896651094903
-4.0345,0.174136658494846,1.199510097474272
-4.034,0.1634664836371343,1.125333628638062
-4.0335,0.1527963087794516,1.019367244586387
-4.033,0.04609456020272226,0.8074344764832311
-4.0325,-0.4340633083934139,0.1080563417412071
-4.032,-0.7861790786966207,-0.7502713690765743
-4.0315,-0.9889124009924067,-1.386069673386042
-4.031,-0.7221580295501369,-1.333086481360417
-4.0305,-0.2953510352432193,-0.9304142219644207
-4.03,0.04609456020231467,-0.6654982618354758
-4.0295,0.2594980573563557,-0.5277419625680486
-4.029,0.3448594562177392,-0.5171453241628908
-4.0285,0.3661998059331045,-0.570128516188728
-4.028,0.3448594562178265,-0.6231117082146421
-4.0275,0.4408910299368829,-0.7078848154559045
-4.027,0.6116138276598051,-0.8032545611024114
-4.0265,0.5689331282291135,-0.6549016234302023
-4.026,0.4835717293676135,-0.4111789401112165
-4.0255,0.5475927785137094,-0.008506680714854012
-4.025,0.5582629533713824,0.2881991946295643
-4.0245,0.6116138276598245,0.5743084315693742
-4.024,0.6329541773751706,0.5955017083796896
-4.0235,0.1741366584952342,-0.06148987274009365
-4.023,-0.4874141826821086,-0.7820612842925007
-4.0225,-1.148965023857831,-1.248313374119443
-4.022,-1.191645723288522,-1.02578396761113
-4.0215,-0.7968492535539153,-0.2840192792485327
-4.021,-0.3700422592469978,0.457745409112513
-4.0205,-0.03926683865883591,1.019367244586387
-4.02,0.1527963087795196,1.358459673551889
-4.0195,0.2274875327832301,1.517409249629256
-4.019,0.2594980573562781,1.559795803249926
-4.0185,0.2381577076409322,1.549199164844768
-4.018,0.2168173579255475,1.485619334413754
-4.0175,0.1848068333524996,1.390249588767247
-4.017,0.1741366584948266,1.252493289500196
-4.0165,0.1101156093482941,1.093543713422106
-4.016,-0.3593720843893152,0.5955017083796896
-4.0155,-0.903551002130635,-0.3158091944638808
-4.015,-1.244996597576935,-1.121153713257656
-4.0145,-1.202315898146244,-1.364876396576285
-4.014,-0.7114878546932887,-1.099960436447341
-4.0135,-0.1993194615237359,-0.771464645886678
-4.013,0.1741366584948169,-0.5171453241628908
-4.0125,0.3661998059331045,-0.400582301706049
-4.012,0.4195506802214982,-0.4323722169216573
-4.0115,0.3982103305061524,-0.5489352393783931
-4.011,0.408880505363835,-0.6866915386455698
-4.0105,0.5262524287982373,-0.7926579226971476
-4.01,0.5049120790829789,-0.7078848154559045
-4.0095,0.408880505363835,-0.5489352393783931
-4.009,0.3448594562177974,-0.3687923864907106
-4.0085,0.302178756787028,-0.1992461720076462
-4.008,0.3235191065023739,0.04447651131098315
-4.0075,0.5475927785135055,0.3411823866554013
-4.007,0.1848068333519949,-0.07208651114637904
-4.0065,-0.3700422592469978,-0.6443049850249
-4.006,-0.8715404775580819,-0.9622041371799229
-4.0055,-1.405049220442136,-1.110557074851882
-4.005,-1.319687821580753,-0.6866915386455698
-4.0045,-0.8502001278427167,0.1080563417419877
-4.004,-0.3700422592466873,0.8286277532938261
-4.0035,-0.02859666380115328,1.326669758336243
-4.003,0.1634664836371343,1.602182356870596
-4.0025,0.2488278824985178,1.708148740922174
-4.002,0.2594980573562781,1.686955464111935
-4.0015,0.2488278824985954,1.623375633680931
-4.001,0.2168173579255766,1.506812611224195
-4.0005,0.1848068333524704,1.369056311956739
-4,0.1527963087794516,1.178316820663898
-3.9995,-0.04993701351651855,0.7650479228623686
-3.999,-0.5194247072545548,-0.1038764263613609
-3.9985,-0.6794773301197943,-0.9728007755850904
-3.998,-0.8928808272734472,-1.640388995110639
-3.9975,-0.9675720512772257,-1.608599079895136
-3.997,-0.5514352318276028,-1.046977244421262
-3.9965,-0.1352984123779797,-0.6443049850249
-3.996,0.1741366584948169,-0.4535654937318862
-3.9955,0.3448594562177392,-0.4853554089473885
-3.995,0.3875401556484697,-0.6125150698093976
-3.9945,0.3768699807907871,-0.7396747306714069
-3.994,0.5689331282290746,-0.8880276683437509
-3.9935,0.707645401378949,-0.8986243067489184
-3.993,0.6329541773751706,-0.7078848154559045
-3.9925,0.5049120790829789,-0.4535654937318862
-3.992,0.3768699807907871,-0.2204394488182027
-3.9915,0.3021787567870086,-0.008506680714854012
-3.991,0.4835717293676135,0.4047622170866759
-3.9905,0.4515612047945656,0.3305857482505039
-3.99,-0.04993701351651855,-0.2946159176543747
-3.9895,-0.6154562809736985,-0.7502713690765743
-3.989,-1.244996597576974,-1.089363798041932
-3.9885,-1.405049220442214,-0.9516074987747555
-3.988,-0.9889124009925911,-0.2840192792492073
-3.9875,-0.4980843575391895,0.4471487707073456
-3.987,-0.1139580626626144,0.9981739677760521
-3.9865,0.1207857842064037,1.347863035146577
-3.986,0.2381577076409128,1.506812611224089
-3.9855,0.2701682322139607,1.538602526439591
-3.985,0.2488278824985954,1.496215972818921
-3.9845,0.2168173579255475,1.42203950398275
-3.984,0.1954770082101822,1.326669758336243
-3.9835,0.1741366584948169,1.188913459069066
-3.983,0.07810508477567314,0.9451907757502149
-3.9825,-0.4554036581084589,0.2352160026039969
-3.982,-0.8928808272734472,-0.6654982618352349
-3.9815,-0.9782422261349084,-1.364876396576285
-3.981,-0.5300948821122373,-1.51322933424863
-3.9805,-0.01792648894347063,-1.174136905283272
-3.98,0.291508581929326,-0.8562377531282487
-3.9795,0.4408910299368829,-0.6337083466197325
-3.979,0.4729015545099309,-0.5383386009732256
-3.9785,0.4622313796522482,-0.5383386009732256
-3.978,0.4195506802215176,-0.6019184314042303
-3.9775,0.4942419042252961,-0.7396747306714069
-3.977,0.7289857510943143,-0.8880276683437509
-3.9765,0.6969752265212663,-0.7396747306714069
-3.976,0.5582629533713921,-0.474758770542221
-3.9755,0.4408910299368829,-0.2310360872233701
-3.975,0.3555296310754218,-0.01910331912002144
-3.9745,0.4408910299368829,0.2670059178194992
-3.974,0.6222840025174878,0.4683420475176805
-3.9735,0.2168173579255475,-0.06148987274069118
-3.973,-0.3807124341046804,-0.6654982618352349
-3.9725,-1.010252750707956,-1.110557074852267
-3.972,-1.479740444445993,-1.322489842955616
-3.9715,-1.234326422719292,-0.8350444763179138
-3.971,-0.7328282044082075,-0.08268314955102604
-3.9705,-0.274010685527854,0.5849050699745222
-3.97,0.03542438534494258,1.029963882991555
-3.9695,0.1954770082101822,1.273686566310405
-3.969,0.2594980573562781,1.37965295036208
-3.9685,0.2594980573562781,1.390249588767247
-3.968,0.2274875327832301,1.358459673551745
-3.9675,0.1954770082101822,1.305476481525908
-3.967,0.1741366584948169,1.220703374284568
-3.9665,0.142126133921769,1.072350436612224
-3.966,-0.1993194615240755,0.4895353243280153
-3.9655,-0.7008176798351597,-0.4111789401112165
-3.965,-0.9142211769888124,-1.184733543688439
-3.9645,-0.7755089038389382,-1.449649503817625
-3.964,-0.3700422592469978,-1.110557074852267
-3.9635,-0.01792648894347063,-0.6549016234300674
-3.963,0.1954770082101822,-0.3793890248957141
-3.9625,0.3128489316446912,-0.400582301706049
-3.962,0.3555296310754218,-0.5595318777835605
-3.9615,0.3661998059331045,-0.6760949002404023
-3.961,0.3768699807907871,-0.6972881770507372
-3.9605,0.5582629533713921,-0.7290780922662394
-3.96,0.5689331282290746,-0.6443049850249
-3.9595,0.4729015545099309,-0.4853554089473885
-3.959,0.4622313796522482,-0.3581957480853793
-3.9585,0.4942419042252961,-0.252229364033705
-3.958,0.4729015545099309,-0.08268314955102604
-3.9575,0.5796033030867573,-0.1250697031716958
-3.957,0.2381577076409128,-0.570128516188728
-3.9565,-0.4020527838200457,-0.9939940523954253
-3.956,-1.084943974711735,-1.152943628472937
-3.9555,-1.650463242168915,-1.195330182093607
-3.955,-1.479740444445993,-0.7396747306714069
-3.9545,-0.9142211769888124,0.04447651131098315
-3.954,-0.391382608962363,0.7438546460520338
-3.9535,-0.01792648894347063,1.220703374284568
-3.953,0.1848068333524996,1.475022696008586
-3.9525,0.2594980573562781,1.549199164844759
-3.952,0.2701682322139607,1.528005888034424
-3.9515,0.2488278824985954,1.443232780793084
-3.951,0.2168173579255475,1.33726639674141
-3.9505,0.1954770082101822,1.188913459069066
-3.95,0.1848068333524996,1.00877060618122
-3.9495,0.01408403562957729,0.5849050699745222
-3.949,-0.5194247072545548,-0.2416327256285375
-3.9485,-0.9142211769888124,-1.046977244421262
-3.948,-0.8928808272734472,-1.566212526274467
-3.9475,-0.4340633083930936,-1.364876396576285
-3.947,0.02475421048725994,-0.8880276683437509
-3.9465,0.3021787567870086,-0.5913217929990628
-3.946,0.408880505363835,-0.5489352393783931
-3.9455,0.4302208550792003,-0.6019184314042303
-3.945,0.408880505363835,-0.6654982618352349
-3.9445,0.3768699807907871,-0.7608680074817418
-3.944,0.5155822539406614,-0.8986243067489184
-3.9435,0.6756348768059011,-0.8986243067489184
-3.943,0.6222840025174878,-0.6654982618352349
-3.9425,0.5262524287983441,-0.3793890248957141
-3.942,0.408880505363835,-0.1144730647665284
-3.9415,0.3235191065023739,0.09745970333682032
-3.941,0.3555296310754218,-0.008506680714854012
-3.9405,0.1207857842064037,-0.5383386009732256
-3.94,-0.3807124341046804,-1.01518732920576
-3.9395,-0.9035510021311299,-1.290699927740113
-3.939,-1.426389570157579,-1.354279758171118
-3.9385,-1.341028171296118,-0.8562377531282487
-3.938,-0.8608703027003992,-0.02969995752518888
-3.9375,-0.3700422592469978,0.7120647308365314
-3.937,-0.02859666380115328,1.199510097474233
-3.9365,0.1741366584948169,1.453829419198252
-3.936,0.2488278824985954,1.528005888034424
-3.9355,0.2701682322139607,1.496215972818921
-3.935,0.2488278824985954,1.400846227172415
-3.9345,0.2168173579255475,1.284283204715573
-3.934,0.1848068333524996,1.135930267043229
-3.9335,0.1741366584948169,0.9769806909657173
-3.933,0.08877525963335578,0.7438546460520338
-3.9325,-0.423393133535411,0.08686306493165288
-3.932,-0.8502001278427167,-0.7502713690765743
-3.9315,-1.010252750707956,-1.439052865412457
-3.931,-1.180975548430879,-1.862918401619155
-3.9305,-0.9035510021311299,-1.481439419033127
-3.93,-0.4020527838200457,-0.9304142219644207
-3.9295,0.01408403562957729,-0.5595318777835605
-3.929,0.2594980573562781,-0.4429688553267188
-3.9285,0.3661998059331045,-0.4535654937318862
-3.928,0.3875401556484697,-0.5171453241628908
-3.9275,0.4729015545099309,-0.6443049850249
-3.927,0.7183155762366316,-0.7820612842920766
-3.9265,0.6969752265212663,-0.6443049850249
-3.926,0.5689331282290746,-0.4111789401112165
-3.9255,0.4195506802215176,-0.1886495336027004
-3.925,0.3235191065023739,-0.02969995752518888
-3.9245,0.3555296310754218,0.1504428953626575
-3.924,0.4302208550792003,0.1716361721729923
-3.9235,-0.02859666380115328,-0.3581957480853793
-3.923,-0.6047861061160158,-0.9728007755850904
-3.9225,-1.223656247861609,-1.407262950196955
-3.922,-1.341028171296118,-1.280103289334946
-3.9215,-0.9355615267041777,-0.5489352393783931
-3.921,-0.4554036581084589,0.2352160026039969
-3.9205,-0.08194753808956648,0.8286277532933731
-3.92,0.142126133921769,1.188913459069066
-3.9195,0.2381577076409128,1.369056311956912
-3.919,0.2701682322139607,1.42203950398275
-3.9185,0.2594980573562781,1.390249588767247
-3.918,0.2274875327832301,1.33726639674141
-3.9175,0.1954770082101822,1.241896651094903
-3.917,0.1741366584948169,1.082947075017392
-3.9165,0.1101156093487211,0.8710143069140429
-3.916,-0.2846808603855366,0.3941655786815084
-3.9155,-0.8181896032696687,-0.4323722169215513
-3.915,-1.020922925565639,-1.184733543688439
-3.9145,-0.839529952985034,-1.51322933424863
-3.914,-0.3700422592469978,-1.195330182093607
-3.9135,-0.007256314085787988,-0.7714646458869092
-3.913,0.2381577076409128,-0.5383386009732256
-3.9125,0.3661998059331045,-0.4535654937318862
-3.912,0.3982103305061524,-0.4217755785163839
-3.9115,0.3768699807907871,-0.4429688553267188
-3.911,0.3661998059331045,-0.5171453241628908
-3.9105,0.5369226036560266,-0.6231117082145651
-3.91,0.5796033030867573,-0.5595318777835605
-3.9095,0.5049120790829789,-0.4111789401112165
-3.909,0.4195506802215176,-0.2310360872233701
-3.9085,0.3555296310754218,-0.05089323433552374
-3.908,0.3341892813600565,0.1504428953626575
-3.9075,0.5902734779444399,0.5213252395435176
-3.907,0.4195506802215176,0.2246193641988295
-3.9065,-0.06060718837420119,-0.4429688553267188
-3.906,-0.7008176798351597,-0.9939940523954253
-3.9055,-1.234326422719292,-1.237716735714276
-3.905,-1.1062843244271,-0.7608680074817418
-3.9045,-0.6794773301197943,0.01268659609548085
-3.904,-0.2633405106701714,0.701468092431364
-3.9035,0.02475421048725994,1.167720182258731
-3.903,0.1954770082101822,1.432636142387917
-3.9025,0.2594980573562781,1.538602526439591
-3.902,0.2701682322139607,1.538602526439591
-3.9015,0.2381577076409128,1.485619334413754
-3.901,0.2168173579255475,1.390249588767247
-3.9005,0.2061471830678648,1.273686566310405
-3.9,0.1848068333524996,1.135930267043229
-3.8995,0.0674349099179905,0.8286277532933731
-3.899,-0.4020527838200457,0.02328323450064829
-3.8985,-0.7328282044082075,-0.8350444763179138
-3.898,-0.9675720512772257,-1.534422611058964
-3.8975,-1.010252750707956,-1.714565463946811
-3.897,-0.572775581542968,-1.184733543688439
-3.8965,-0.1139580626626144,-0.7502713690765743
-3.896,0.1954770082101822,-0.5171453241628908
-3.8955,0.3555296310754218,-0.4429688553267188
-3.895,0.3982103305061524,-0.5065486857577234
-3.8945,0.3982103305061524,-0.6549016234300674
-3.894,0.5262524287983441,-0.8350444763179138
-3.8935,0.707645401378949,-0.9198175835592532
-3.893,0.6649647019482183,-0.7290780922662394
-3.8925,0.6009436528021226,-0.4641621321370536
-3.892,0.5262524287983441,-0.1886495336027004
-3.8915,0.4302208550792003,0.03387987290581572
-3.891,0.5155822539406614,0.3623756634660061
-3.8905,0.4942419042252961,0.3199891098453364
-3.89,-0.06060718837420119,-0.326405832869877
-3.8895,-0.658136980404429,-0.8350444763179138
-3.889,-1.30901764672307,-1.205926820498774
-3.8885,-1.533091318734406,-1.184733543688439
-3.888,-1.1062843244271,-0.5383386009732256
-3.8875,-0.572775581542968,0.2140227257936621
-3.887,-0.1459685872356623,0.7968378380778709
