Class_3_Grab_w_two_Hands/Class_3_Grab_with_Two_Hands_AM_9.csv

#Digilent WaveForms Oscilloscope Acquisition
#Device Name: EExplorer
#Serial Number: SN:210151A2B84A
#Date Time: 2020-12-14 14:10:11.739
#Sample rate: 2000Hz
#Samples: 16384
#Trigger: Source: Channel 1 Type: Edge Condition: Rising Level: 0 V Hyst.: Auto HoldOff: 0 s
#Channel 1: Range: 1 V/div Offset: 0 V Attenuation: 1 X
#Channel 2: Range: 1 V/div Offset: 0 V Attenuation: 1 X
#Power Supplies: ON
#Fixed Supply: ON
#Voltage: 3.3 V Readback: 3.317 V
#Positive Supply: ON
#Voltage: 3.7 V Readback: 3.716 V
#Current: 40 mA Readback: 19 mA
#Negative Supply: ON
#Voltage: -3.7 V Readback: -3.339 V
#Current: -40 mA Readback: -9 mA
#Reference 1: ON
#Voltage: 0 V
#Reference 2: ON
#Voltage: 0 V

Time (s),Channel 1 (V),Channel 2 (V)
-4.096,-0.7328282044082075,0.9345941373450475
-4.0955,-0.9782422261346853,1.379652950361675
-4.095,-0.8608703026997684,1.178316820662915
-4.0945,-0.1673089369510276,0.09745970333682032
-4.094,0.4835717293670215,-0.919817583558328
-4.0935,0.8463576745288814,-1.343683119765845
-4.093,0.9103787236749192,-1.227120097309109
-4.0925,0.7609962756674982,-0.8562377531285861
-4.092,0.5369226036559005,-0.4747587705419126
-4.0915,0.3982103305061524,-0.1356663415768632
-4.091,0.4622313796522482,0.1822328105781598
-4.0905,0.3982103305060554,0.2564092794142933
-4.09,0.291508581929326,0.2140227257936621
-4.0895,0.1848068333524996,0.13984625695749
-4.089,0.1207857842064619,0.1080563417420167
-4.0885,0.00341386077189465,0.309392471440169
-4.088,0.07810508477567314,0.7968378380778709
-4.0875,-0.3273615598158985,1.252493289499656
-4.087,-0.7648387289812943,1.496215972818651
-4.0865,-0.807519428411986,1.199510097474233
-4.086,-0.5727755815431815,0.4895353243286611
-4.0855,-0.2953510352430349,-0.1674562567927317
-4.085,-0.09261771294724913,-0.570128516188728
-4.0845,0.02475421048715319,-0.7502713690764105
-4.084,0.07810508477569256,-0.7502713690764876
-4.0835,0.09944543449103843,-0.6549016234300674
-4.083,0.09944543449103843,-0.5065486857577234
-4.0825,0.08877525963334608,-0.3475991096800866
-4.082,0.07810508477567314,-0.2098428104130352
-4.0815,0.07810508477567314,-0.1568596183871981
-4.081,0.07810508477567314,-0.1250697031717247
-4.0805,0.07810508477567314,-0.1356663415768632
-4.08,-0.2420001609548061,0.13984625695749
-4.0795,-0.5727755815426672,0.6908714540256955
-4.079,-0.7221580295505929,1.210106735879603
-4.0785,-0.7968492535543035,1.432636142387917
-4.078,-0.2953510352436755,0.6484849004062401
-4.0775,0.3661998059335024,-0.5171453241635269
-4.077,0.8036769750980928,-1.216523458903942
-4.0765,0.931719073390168,-1.248313374119415
-4.076,0.8036769750978889,-0.9622041371796145
-4.0755,0.5796033030867573,-0.6231117082145651
-4.075,0.3768699807907871,-0.3158091944647096
-4.0745,0.3235191065023059,0.08686306493180708
-4.074,0.2488278824985954,0.2564092794143318
-4.0735,0.1848068333524996,0.2246193641988295
-4.073,0.1314559590641349,0.1504428953627249
-4.0725,0.08877525963335578,0.08686306493165288
-4.072,0.1634664836371343,0.1186529801471552
-4.0715,0.6222840025170706,0.5001319627328359
-4.071,0.4622313796518309,1.008770606181499
-4.0705,0.00341386077189465,1.316073119931075
-4.07,-0.5514352318270982,1.379652950362022
-4.0695,-0.8715404775579461,1.082947075016765
-4.069,-0.722158029550525,0.3941655786815084
-4.0685,-0.4447334832507763,-0.2204394488182027
-4.068,-0.1993194615239203,-0.5913217929991881
-4.0675,-0.02859666380115328,-0.7290780922662394
-4.067,0.05676473506030786,-0.6972881770507372
-4.0665,0.08877525963335578,-0.5701285161885737
-4.066,0.08877525963335578,-0.400582301706049
-4.0655,0.08877525963335578,-0.252229364033705
-4.065,0.07810508477568284,-0.146262979982127
-4.0645,0.07810508477567314,-0.06148987274069118
-4.064,0.07810508477567314,-0.04029659593035631
-4.0635,-0.1459685872354586,0.1292496185521684
-4.063,-0.6901475049779816,0.6060983467853197
-4.0625,-1.244996597576974,1.114736990232894
-4.062,-1.287677297007666,1.42203950398247
-4.0615,-0.5727755815422014,0.8498210301026575
-4.061,0.2701682322139607,-0.3052125560595421
-4.0605,0.8463576745288233,-1.046977244421262
-4.06,1.038420821967033,-1.258910012524399
-4.0595,0.9530594231056497,-1.025783967610927
-4.059,0.7183155762366316,-0.6337083466197325
-4.0585,0.483571729367827,-0.2734226408443675
-4.058,0.4408910299368829,0.02328323450064829
-4.0575,0.4729015545099309,0.2352160026039969
-4.057,0.3661998059332015,0.2352160026039969
-4.0565,0.2381577076409128,0.1716361721729923
-4.056,0.142126133921769,0.1186529801471552
-4.0555,0.1101156093487502,0.09745970333683959
-4.055,0.4515612047946529,0.3729723018716266
-4.0545,0.5475927785137094,0.8710143069140429
-4.054,-0.03926683865830216,1.273686566310039
-4.0535,-0.8181896032700181,1.432636142387715
-4.053,-1.202315898146244,1.210106735879401
-4.0525,-0.9995825758502737,0.5319218779486851
-4.052,-0.6154562809733977,-0.1356663415772583
-4.0515,-0.2846808603855366,-0.570128516188728
-4.051,-0.06060718837420119,-0.7502713690765743
-4.0505,0.05676473506020112,-0.7396747306714165
-4.05,0.09944543449103843,-0.6231117082145651
-4.0495,0.09944543449103843,-0.4535654937318862
-4.049,0.08877525963336548,-0.2734226408442036
-4.0485,0.07810508477567314,-0.1462629799819535
-4.048,0.07810508477567314,-0.06148987274069118
-4.0475,0.07810508477567314,-0.02969995752521779
-4.047,0.03542438534494258,0.05507314971624696
-4.0465,0.03542438534494258,0.1610395337678249
-4.046,-0.1032878878048056,0.5107286011380321
-4.0455,-0.4980843575392672,0.9981739677760521
-4.045,-0.5834457564006506,0.9981739677760521
-4.0445,-0.06060718837420119,0.05507314971615059
-4.044,0.50491207908327,-0.8350444763182511
-4.0435,0.825017324813458,-1.205926820498774
-4.043,0.8783681991018712,-1.078767159636765
-4.0425,0.7289857510944502,-0.7290780922665574
-4.042,0.5049120790829789,-0.4217755785163839
-4.0415,0.3661998059331045,-0.2310360872233701
-4.041,0.4622313796521609,-0.3158091944646325
-4.0405,0.4408910299367762,-0.2840192792490723
-4.04,0.3235191065023739,-0.1356663415768632
-4.0395,0.2168173579256445,0.01268659609534592
-4.039,0.1207857842060932,0.1398462569577406
-4.0385,-0.2206598112394408,0.4153588554918433
-4.038,-0.8822106524151627,0.9028042221291019
-4.0375,-1.426389570157909,1.30547648152611
-4.037,-1.789175515318789,1.528005888034424
-4.0365,-1.810515865034154,1.358459673551745
-4.036,-1.266336947291816,0.6378882619996847
-4.0355,-0.690147504977477,-0.1038764263613609
-4.035,-0.2633405106701714,-0.6231117082145651
-4.0345,-0.007256314086020899,-0.8774310299383521
-4.034,0.09944543449103843,-0.9198175835592532
-4.0335,0.1314559590640864,-0.8350444763179138
-4.033,0.1207857842064134,-0.6760949002405469
-4.0325,0.09944543449101902,-0.4959520473524017
-4.032,0.07810508477567314,-0.326405832869877
-4.0315,0.0674349099180002,-0.1674562567925101
-4.031,0.07810508477568284,-0.09327978795619347
-4.0305,0.08877525963335578,-0.09327978795619347
-4.03,-0.0499370135163924,0.1610395337675936
-4.0295,-0.5834457564009514,0.7014680924318073
-4.029,-0.9142211769888124,1.188913459069066
-4.0285,-0.7861790786966207,1.284283204715573
-4.028,-0.1886492866657912,0.4365521323011566
-4.0275,0.4729015545099309,-0.6866915386455698
-4.027,0.8890383739595538,-1.322489842955616
-4.0265,0.9850699476786103,-1.280103289334984
-4.026,0.8463576745288233,-0.9516074987747555
-4.0255,0.6116138276598051,-0.570128516188728
-4.025,0.4195506802216923,-0.2734226408443097
-4.0245,0.4729015545099114,0.05507314971627587
-4.024,0.4515612047945656,0.1928294489833272
-4.0235,0.3235191065024903,0.1716361721730116
-4.023,0.2061471830677872,0.1080563417419396
-4.0225,0.1207857842064037,0.05507314971615059
-4.022,0.1207857842064037,0.09745970333678176
-4.0215,0.4622313796520347,0.5107286011388128
-4.021,0.2274875327832301,1.019367244586387
-4.0205,-0.5194247072545548,1.347863035146577
-4.02,-1.170305373573283,1.443232780792747
-4.0195,-1.26633694729234,1.072350436612224
-4.019,-0.9248913518464952,0.3517790250608387
-4.0185,-0.5087545323972505,-0.2522293640331557
-4.018,-0.1886492866663929,-0.6019184314042303
-4.0175,-0.007256314085787988,-0.7290780922662394
-4.017,0.07810508477559551,-0.6866915386456083
-4.0165,0.1101156093487114,-0.5595318777834063
-4.016,0.09944543449103843,-0.3899856633008816
-4.0155,0.08877525963336548,-0.2310360872235147
-4.015,0.07810508477566344,-0.1144730647664416
-4.0145,0.0674349099179905,-0.01910331912002144
-4.014,0.0674349099179905,0.002089957690294145
-4.0135,-0.1139580626630123,0.1398462569579141
-4.013,-0.5514352318276028,0.6060983467848571
-4.0125,-0.8608703027003992,1.104140351827727
-4.012,-1.084943974711434,1.432636142387387
-4.0115,-0.754168554123573,0.849821030103708
-4.011,-0.007256314085787988,-0.3370024712750445
-4.0105,0.6222840025169153,-1.301296566144404
-4.01,0.9210488985326017,-1.598002441489969
-4.0095,0.9103787236749192,-1.354279758171118
-4.009,0.739655925952152,-0.9304142219648062
-4.0085,0.5262524287982665,-0.5595318777832039
-4.008,0.4408910299368829,-0.1674562567923655
-4.0075,0.43022085507921,0.1398462569572105
-4.007,0.3235191065022671,0.1822328105781212
-4.0065,0.2061471830678648,0.13984625695749
-4.006,0.1314559590640864,0.08686306493165288
-4.0055,0.0781050847757993,0.07626642652676494
-4.005,0.2168173579255475,0.383568940276341
-4.0045,0.4515612047945656,0.8922075837243778
-4.004,-0.02859666380168702,1.294879843120885
-4.0035,-0.6154562809736985,1.453829419198252
-4.003,-0.9675720512772257,1.263089927905238
-4.0025,-0.8181896032698046,0.584905069975139
-4.002,-0.5087545323968721,-0.08268314955102604
-4.0015,-0.2313299860971235,-0.5171453241628908
-4.001,-0.04993701351668353,-0.7078848154557311
-4.0005,0.05676473506033698,-0.7078848154558082
-4,0.08877525963335578,-0.6019184314042303
-3.9995,0.08877525963335578,-0.4429688553267188
-3.999,0.07810508477567314,-0.2734226408440398
-3.9985,0.0674349099179905,-0.1568596183871981
-3.998,0.0674349099179905,-0.06148987274069118
-3.9975,0.0674349099179905,-0.02969995752518888
-3.997,0.03542438534494258,0.04447651131098315
-3.9965,0.1101156093487211,0.457745409112513
-3.996,0.0674349099179905,0.9769806909657173
-3.9955,-0.2206598112394408,1.369056311956912
-3.995,-0.1139580626626144,1.093543713422559
-3.9945,0.3555296310754218,0.002089957690313421
-3.994,0.7716664505250448,-1.078767159636765
-3.9935,0.9637295979633325,-1.555615887869299
-3.993,0.9317190733902845,-1.42845622700729
-3.9925,0.7396559259519968,-1.078767159636765
-3.992,0.5369226036560266,-0.6760949002404023
-3.9915,0.3982103305061524,-0.326405832869877
-3.991,0.4195506802215176,-0.1144730647665284
-3.9905,0.3448594562177392,0.03387987290581572
-3.99,0.2381577076409128,0.1610395337678249
-3.9895,0.1527963087794516,0.2458126410091644
-3.989,0.08877525963335578,0.2881991946298341
-3.9885,-0.156638762093345,0.4683420475176805
-3.988,-0.423393133535411,0.701468092431364
-3.9875,-0.8288597781273515,1.019367244586387
-3.987,-1.26633694729234,1.231300012689736
-3.9865,-1.586442193022819,1.25249328950007
-3.986,-1.341028171296118,0.7332580076468663
-3.9855,-0.839529952985034,0.002089957690313421
-3.985,-0.4020527838200457,-0.570128516188728
-3.9845,-0.1139580626626144,-0.8986243067489184
-3.984,0.04609456020262521,-0.9939940523954253
-3.9835,0.1101156093487211,-0.9410108603695881
-3.983,0.1101156093487211,-0.8032545611024114
-3.9825,0.09944543449103843,-0.6337083466197325
-3.982,0.07810508477567314,-0.474758770542221
-3.9815,0.0674349099179905,-0.3475991096802118
-3.981,0.07810508477567314,-0.2628260024388724
-3.9805,0.08877525963335578,-0.2946159176543747
-3.98,-0.1032878878049318,-0.09327978795619347
-3.9795,-0.391382608962363,0.5001319627331828
-3.979,-0.5941159312583333,1.061753798207057
-3.9785,-0.6367966306890638,1.305476481525908
-3.978,-0.124628237520297,0.5955017083796896
-3.9775,0.4942419042252961,-0.5171453241628908
-3.977,0.8783681991018712,-1.174136905283272
-3.9765,0.974399772821015,-1.163540266878104
-3.976,0.825017324813458,-0.8562377531282487
-3.9755,0.5902734779444399,-0.4641621321370536
-3.975,0.3982103305061524,-0.1780528951975329
-3.9745,0.3875401556484697,0.13984625695749
-3.974,0.3341892813600565,0.2564092794143318
-3.9735,0.2381577076409128,0.2246193641988295
-3.973,0.1527963087794516,0.1716361721729923
-3.9725,0.08877525963335578,0.13984625695749
-3.972,-0.01792648894347063,0.2458126410091644
-3.9715,-0.007256314085787988,0.6802748156210291
-3.971,-0.2099896363817582,1.146526905448396
-3.9705,-0.6794773301197943,1.432636142387917
-3.97,-1.138294849000148,1.517409249629256
-3.9695,-1.223656247861609,1.167720182258731
-3.969,-0.8928808272734472,0.4365521323021782
-3.9685,-0.4980843575391895,-0.2098428104130352
-3.968,-0.1886492866663929,-0.6019184314042303
-3.9675,-0.007256314085787988,-0.7502713690765743
-3.967,0.07810508477567314,-0.7290780922662394
-3.9665,0.09944543449103843,-0.6019184314042303
-3.966,0.08877525963335578,-0.4323722169215513
-3.9655,0.07810508477567314,-0.2734226408440398
-3.965,0.0674349099179905,-0.1356663415768632
-3.9645,0.0674349099179905,-0.02969995752518888
-3.964,0.0674349099179905,-0.01910331912002144
-3.9635,-0.1139580626626144,0.09745970333682032
-3.963,-0.572775581542968,0.5849050699745222
-3.9625,-0.8502001278427167,1.093543713422559
-3.962,-0.9995825758502737,1.432636142387917
-3.9615,-0.6688071552621118,0.8816109453192104
-3.961,0.04609456020262521,-0.2204394488182027
-3.9605,0.6222840025174878,-0.9833974139902578
-3.96,0.8890383739595538,-1.205926820498774
-3.9595,0.8783681991018712,-0.9833974139902578
-3.959,0.6863050516635838,-0.6443049850249
-3.9585,0.4729015545099309,-0.3581957480853793
-3.958,0.4408910299368829,-0.07208651114585861
-3.9575,0.4622313796522482,0.1504428953626575
-3.957,0.3555296310754218,0.1610395337678249
-3.9565,0.2381577076409128,0.1080563417419877
-3.956,0.142126133921769,0.06566978812131802
-3.9555,0.07810508477567314,0.06566978812131802
-3.955,0.2701682322139607,0.3729723018711736
-3.9545,0.2701682322139607,0.8710143069140429
-3.954,-0.2633405106701714,1.284283204715573
-3.9535,-0.7328282044082075,1.411442865577582
-3.953,-1.116954499284783,1.316073119931075
-3.9525,-0.9782422261349084,0.701468092431364
-3.952,-0.6261264558313813,0.01268659609548085
-3.9515,-0.2953510352432193,-0.474758770542221
-3.951,-0.08194753808956648,-0.6972881770507372
-3.9505,0.03542438534494258,-0.7290780922662394
-3.95,0.08877525963335578,-0.6337083466197325
-3.9495,0.08877525963335578,-0.474758770542221
-3.949,0.07810508477567314,-0.3052125560595421
-3.9485,0.0674349099179905,-0.1568596183871981
-3.948,0.0674349099179905,-0.09327978795619347
-3.9475,0.0674349099179905,-0.07208651114585861
-3.947,0.07810508477567314,-0.1144730647665284
-3.9465,0.1101156093487211,-0.1674562567923655
-3.946,-0.3166913849585846,0.2670059178194992
-3.9455,-0.9675720512772257,0.8392243916985406
-3.945,-0.9889124009925911,0.8286277532933731
-3.9445,-0.391382608962363,-0.04029659593035631
-3.944,0.2488278824985954,-0.8456411147230812
-3.9435,0.6436243522328531,-1.216523458903942
-3.943,0.7503261008096795,-1.184733543688439
-3.9425,0.6649647019482183,-0.8986243067489184
-3.942,0.5049120790829789,-0.5595318777835605
-3.9415,0.408880505363835,-0.252229364033705
-3.941,0.5049120790829789,0.1080563417419877
-3.9405,0.4408910299368829,0.1822328105781598
-3.94,0.3021787567870086,0.1080563417419877
-3.9395,0.1848068333524996,0.03387987290581572
-3.939,0.1101156093487211,0.01268659609548085
-3.9385,-0.1993194615240755,0.2564092794143318
-3.938,-0.9142211769888124,0.7650479228623686
-3.9375,-1.362368521011484,1.210106735879401
-3.937,-1.650463242168915,1.464426057603419
-3.9365,-1.757164990745741,1.390249588767247
-3.936,-1.298347471865388,0.7650479228623686
-3.9355,-0.7328282044082075,0.06566978812131802
-3.935,-0.3060212101009019,-0.4217755785163839
-3.9345,-0.03926683865883591,-0.6549016234300674
-3.934,0.07810508477567314,-0.6760949002404023
-3.9335,0.1207857842064037,-0.5807251545938954
-3.933,0.1101156093487211,-0.4217755785163839
-3.9325,0.09944543449103843,-0.2416327256285375
-3.932,0.07810508477567314,-0.09327978795619347
-3.9315,0.07810508477567314,0.002089957690313421
-3.931,0.07810508477567314,0.05507314971615059
-3.9305,0.07810508477567314,0.04447651131098315
-3.93,-0.2633405106701714,0.2881991946298341
-3.9295,-0.572775581542968,0.7438546460520338
-3.929,-0.6474668055467465,1.167720182258731
-3.9285,-0.423393133535411,1.220703374284568
-3.928,0.08877525963335578,0.309392471440169
-3.9275,0.5902734779444399,-0.7502713690765743
-3.927,0.8676980242441885,-1.333086481360783
-3.9265,0.8997085488172365,-1.364876396576285
-3.926,0.7289857510943143,-1.078767159636765
-3.9255,0.5369226036560266,-0.718481453861072
-3.925,0.3768699807907871,-0.400582301706049
-3.9245,0.4408910299368829,-0.01910331912002144
-3.924,0.4195506802215176,0.1504428953626575
-3.9235,0.3128489316446912,0.1292496185523226
-3.923,0.1954770082101822,0.04447651131098315
-3.9225,0.1207857842064037,-0.008506680714854012
-3.922,0.03542438534494258,0.04447651131098315
-3.9215,-0.3060212101009019,0.4789386859228479
-3.921,-0.8928808272734472,0.9981739677760521
-3.9205,-1.30901764672307,1.347863035146577
-3.92,-1.618452717595867,1.475022696008586
-3.9195,-1.394379045584531,1.029963882991555
-3.919,-0.8928808272734472,0.2881991946298341
-3.9185,-0.4340633083930936,-0.3052125560595421
-3.918,-0.124628237520297,-0.6443049850249
-3.9175,0.04609456020262521,-0.7502713690765743
-3.917,0.1101156093487211,-0.6866915386455698
-3.9165,0.1207857842064037,-0.5489352393783931
-3.916,0.09944543449103843,-0.3687923864905467
-3.9155,0.07810508477567314,-0.1992461720078678
-3.915,0.0674349099179905,-0.07208651114585861
-3.9145,0.0674349099179905,-0.04029659593035631
-3.914,0.07810508477567314,-0.07208651114585861
-3.9135,-0.156638762093345,0.07626642652648545
-3.913,-0.8502001278427167,0.5743084315693548
-3.9125,-1.319687821580753,1.104140351827727
-3.912,-1.405049220442214,1.432636142387917
-3.9115,-0.9248913518464952,0.8816109453192104
-3.911,-0.04993701351651855,-0.2840192792492073
-3.9105,0.6436243522328531,-1.142346990067769
-3.91,0.9637295979633325,-1.333086481360783
-3.9095,0.9530594231056497,-1.110557074852267
-3.909,0.7396559259519968,-0.7608680074817418
-3.9085,0.5049120790829789,-0.4111789401112165
-3.908,0.4195506802215176,-0.1038764263613609
-3.9075,0.3875401556484697,0.1080563417419877
-3.907,0.291508581929326,0.1504428953626575
-3.9065,0.1954770082101822,0.1292496185523226
-3.906,0.1207857842064037,0.1080563417419877
-3.9055,0.08877525963335578,0.1186529801471552
-3.905,0.1314559590640864,0.4365521323021782
-3.9045,0.08877525963335578,0.9134008605347127
-3.904,-0.4874141826815069,1.29487984312074
-3.9035,-1.06360362499637,1.400846227172415
-3.903,-1.51175096901904,1.33726639674141
-3.9025,-1.319687821580753,0.7544512844572011
-3.902,-0.839529952985034,0.02328323450064829
-3.9015,-0.4020527838200457,-0.5065486857577234
-3.901,-0.1139580626626144,-0.7714646458869092
-3.9005,0.04609456020262521,-0.8350444763179138
-3.9,0.1101156093487211,-0.7396747306714069
-3.8995,0.1207857842064037,-0.5807251545938954
-3.899,0.09944543449103843,-0.400582301706049
-3.8985,0.08877525963335578,-0.252229364033705
-3.898,0.07810508477567314,-0.1250697031716958
-3.8975,0.07810508477567314,-0.06148987274069118
-3.897,0.03542438534494258,-0.008506680714854012
-3.8965,-0.3273615598162672,0.3941655786815084
-3.896,-0.7008176798351597,0.92399749893988
-3.8955,-0.8928808272734472,1.347863035146577
-3.895,-0.8288597781273515,1.199510097474233
-3.8945,-0.1993194615240755,0.1292496185523226
-3.894,0.4408910299368829,-0.8880276683437509
-3.8935,0.825017324813458,-1.290699927740113
-3.893,0.8997085488172365,-1.195330182093607
-3.8925,0.7609962756673623,-0.8350444763179138
-3.892,0.5582629533713921,-0.4217755785163839
-3.8915,0.4408910299368829,-0.1462629799820306
-3.891,0.5475927785137094,0.09745970333682032
-3.8905,0.4942419042252961,0.1928294489833272
-3.89,0.3661998059331045,0.1822328105781598
-3.8895,0.2274875327832301,0.1504428953626575
-3.889,0.1314559590640864,0.1186529801471552
-3.8885,0.2808384070716433,0.2564092794143318
-3.888,0.6542945270905358,0.6908714540261965
