Class_3_Grab_w_two_Hands/Class_3_Grab_with_Two_hands_Basim_1.csv

#Digilent WaveForms Oscilloscope Acquisition
#Device Name: EExplorer
#Serial Number: SN:210151A2B84A
#Date Time: 2020-10-20 13:01:14.096
#Sample rate: 2000Hz
#Samples: 16384
#Trigger: Source: Channel 1 Type: Edge Condition: Rising Level: 0 V Hyst.: Auto HoldOff: 0 s
#Channel 1: Range: 1 V/div Offset: 0 V
#Channel 2: Range: 1 V/div Offset: 0 V

Time (s),Channel 1 (V),Channel 2 (V)
-4.0960000000000001,0.35552963107542179,0.5637117931641874
-4.0955000000000004,0.5796033030865535,0.11865298014755998
-4.0949999999999998,0.73965592595216179,-1.1635402668788657
-4.0945,0.92104889853260175,-2.0006747008863313
-4.0940000000000003,1.1237822208283876,-2.572893174764852
-4.0934999999999997,1.26249449397832,-2.6152797283852713
-4.093,1.1237822208285719,-1.7675486559726479
-4.0925000000000002,0.8570278493867487,-0.9198175835600243
-4.0919999999999996,0.54759277851351529,-0.3793890248954539
-4.0914999999999999,0.33418928136005654,-0.093279787956193475
-4.0910000000000002,0.22748753278323011,0.012686596095480854
-4.0904999999999996,0.19547700821018218,0.033879872905806081
-4.0899999999999999,0.19547700821018218,0.023283234500648287
-4.0895000000000001,0.099445434491038431,0.25640927941433178
-4.0890000000000004,-0.060607188374055626,0.58490506997422342
-4.0884999999999998,-0.039266838658835915,0.54251851635385251
-4.0880000000000001,0.05676473506030786,0.38356894027634103
-4.0875000000000004,0.14212613392169135,0.24581264100928968
-4.0869999999999997,0.014084035628888278,0.30939247144020748
-4.0865,-0.74349837926589024,0.35177902506083869
-4.0860000000000003,-1.6824737667411087,-0.36879238648989143
-4.0854999999999997,-2.3013439084879539,-1.0575738828267094
-4.085,-2.7388210776525441,-1.3648763965762853
-4.0845000000000002,-2.7068105530795257,-1.5980024414897567
-4.0839999999999996,-1.757164990744926,-1.1317503516619467
-4.0834999999999999,-0.86087030270039921,-0.41117894011121647
-4.0830000000000002,-0.19931946152407554,0.21402272579366208
-4.0824999999999996,0.18480683335265483,0.61669498519021726
-4.0819999999999999,0.35552963107542179,0.82862775329337313
-4.0815000000000001,0.3982103305061524,0.90280422212954525
-4.0810000000000004,0.37686998079080652,0.88161094531922968
-4.0804999999999998,0.34485945621773917,0.775644561267536
-4.0800000000000001,0.33418928136005654,0.62729162359519197
-4.0795000000000003,0.33418928136005654,0.46834204751782504
-4.0789999999999997,0.45156120479515754,0.20342608738788748
-4.0785,1.1024418711132067,-0.4641621321370536
-4.0780000000000003,1.4225471168433947,-1.7039688255405157
-4.0774999999999997,1.4865681659897236,-2.5728931747652473
-4.077,1.4225471168436858,-2.4351368754981961
-4.0765000000000002,1.0064102973944413,-1.7039688255423082
-4.0759999999999996,0.67563487680573608,-0.85623775312769934
-4.0754999999999999,0.49424190422529612,-0.25222936403370499
-4.0750000000000002,0.30217875678700862,-0.029699957525188878
-4.0744999999999996,0.20614718306783572,0.023283234500638648
-4.0739999999999998,0.17413665849481691,0.012686596095480854
-4.0735000000000001,0.18480683335249956,-0.0085066807148540119
-4.0730000000000004,0.18480683335249956,0.086863064931566147
-4.0724999999999998,0.14212613392176898,0.27760255622466667
-4.0720000000000001,0.16346648363713429,0.30939247144016896
-4.0715000000000003,0.20614718306782603,0.2776025562246956
-4.0709999999999997,0.22748753278314277,0.24581264100927042
-4.0705,0.13145595906408636,0.36237566346600614
-4.0700000000000003,-0.56210540668465447,0.9557874141548427
-4.0694999999999997,-1.5330913187351141,1.591585718465409
-4.069,-2.3120140833452387,1.5703924416550934
-4.0685000000000002,-2.8988737005177838,0.48953532432801533
-4.0679999999999996,-2.9308842250902494,-0.75027136907691161
-4.0674999999999999,-2.2906737336298733,-1.1211537132574345
-4.0670000000000002,-1.2236562478616091,-0.71848145386107198
-4.0664999999999996,-0.42339313353495484,-0.12506970317123317
-4.0659999999999998,0.078105084775673142,0.38356894027634103
-4.0655000000000001,0.32351910650237387,0.74385464605203377
-4.0650000000000004,0.40888050536375742,0.96638405256034743
-4.0644999999999998,0.3982103305061524,1.0617537982070568
-4.0640000000000001,0.36619980593310447,1.0617537982070568
-4.0635000000000003,0.3448594562177586,0.96638405256063653
-4.0629999999999997,0.34485945621777797,0.82862775329317073
-4.0625,0.38754015564846972,0.60609834678485708
-4.0620000000000003,0.84635767452840605,0.023283234501178307
-4.0614999999999997,1.689301488286082,-0.75027136907748992
-4.0609999999999999,2.0520874334469617,-1.7569520175674804
-4.0605000000000002,1.6466207888550213,-2.3291704914465217
-4.0599999999999996,1.1984734448318555,-1.7781452943772083
-4.0594999999999999,0.65429452709053582,-1.1105570748522671
-4.0590000000000002,0.34485945621773917,-0.47475877054222104
-4.0585000000000004,0.27016823221402864,-0.019103319120435835
-4.0579999999999998,0.20614718306786484,0.11865298014715518
-4.0575000000000001,0.16346648363713429,0.086863064931652884
-4.0570000000000004,0.17413665849480719,0.023283234500706115
-4.0564999999999998,0.19547700821018218,-0.0085066807148540119
-4.056,0.18480683335249956,0.076266426526485451
-4.0555000000000003,0.19547700821017247,0.09745970333680104
-4.0549999999999997,0.22748753278323983,0.065669788121308387
-4.0545,0.23815770764091276,0.055073149716150585
-4.0540000000000003,0.22748753278323983,0.076266426526466174
-4.0534999999999997,-0.20998963638265097,0.50013196273353944
-4.0529999999999999,-1.1916457232885611,0.89220758372437781
-4.0525000000000002,-2.1199509359069508,0.21402272579366208
-4.0519999999999996,-2.877533350802564,-0.89862430674973759
-4.0514999999999999,-3.037585973667658,-1.7993385711881502
-4.0510000000000002,-2.6427895039334004,-1.8947083168346572
-4.0505000000000004,-1.522421143877742,-1.1741369052839272
-4.0499999999999998,-0.62612645583138127,-0.33700247127504446
-4.0495000000000001,-0.028596663801153277,0.30939247144016896
-4.0490000000000004,0.28083840707136187,0.71206473083616517
-4.0484999999999998,0.39821033050616211,0.92399749893994754
-4.048,0.40888050536383502,0.99817396777605205
-4.0475000000000003,0.38754015564848915,0.94519077575026311
-4.0469999999999997,0.36619980593309476,0.81803111488806124
-4.0465,0.35552963107542179,0.6590815388106942
-4.0460000000000003,0.36619980593309476,0.45774540911269612
-4.0454999999999997,0.67563487680661916,0.0020899576896002397
-4.0449999999999999,1.4652278162744163,-0.78206128429207655
-4.0445000000000002,2.2441505808852491,-1.5026326958434622
-4.0439999999999996,2.5322453020419724,-2.1914141921793933
-4.0434999999999999,1.7533225374318477,-2.2443973842051821
-4.0430000000000001,1.1344523956862547,-1.523825972653797
-4.0425000000000004,0.60094365280260786,-0.87743102993917133
-4.0419999999999998,0.32351910650237387,-0.3581957480853793
-4.0415000000000001,0.25949805735627807,-0.0085066807148540119
-4.0410000000000004,0.18480683335256748,0.065669788121250558
-4.0404999999999998,0.163466483637144,0.044476511310963876
-4.04,0.17413665849481691,0.023283234500648287
-4.0395000000000003,0.15279630877947104,0.17163617217285743
-4.0389999999999997,0.1421261339217981,0.29879583303499191
-4.0385,0.17413665849481691,0.28819919462983412
-4.0380000000000003,0.21681735792550866,0.24581264100920294
-4.0374999999999996,0.23815770764067015,0.21402272579391265
-4.0369999999999999,-0.028596663801153277,0.48953532432801533
-4.0365000000000002,-0.8928808272734472,1.1571235438535634
-4.0359999999999996,-1.799845690177015,1.7611319329479724
-4.0354999999999999,-2.3973754822066997,1.6127789952757632
-4.0350000000000001,-2.8135123016563228,0.4471487707073456
-4.0345000000000004,-2.600108804502864,-0.60191843140327617
-4.0339999999999998,-1.6077825427381842,-0.70788481545590454
-4.0335000000000001,-0.73282820440820751,-0.33700247127504446
-4.0330000000000004,-0.11395806266317732,0.12924961855189859
-4.0324999999999998,0.22748753278335626,0.51072860113860075
-4.032,0.36619980593310447,0.78624119967270345
-4.0315000000000003,0.39821033050612331,0.93459413734491259
-4.0309999999999997,0.36619980593309476,1.0087706061811907
-4.0305,0.35552963107542179,0.97698069096571727
-4.0300000000000002,0.33418928136007597,0.90280422212961275
-4.0294999999999996,0.34485945621784592,0.76504792286211798
-4.0289999999999999,0.4622313796522482,0.48953532432801533
-4.0285000000000002,0.78233662538272752,-0.48535540894738849
-4.0279999999999996,1.166462920259943,-1.7993385711887189
-4.0274999999999999,1.8706944608663567,-2.4245402370930287
-4.0270000000000001,1.838683936293309,-2.265590661015517
-4.0265000000000004,1.3585260676980269,-1.3754730349822624
-4.0259999999999998,0.92104889853260175,-0.4535654937318862
-4.0255000000000001,0.52625242879834411,0.10805634174198775
-4.0250000000000004,0.25949805735652071,0.2987958330348281
-4.0244999999999997,0.15279630877944192,0.29879583303493412
-4.024,0.14212613392176898,0.2246193641988295
-4.0235000000000003,0.16346648363711488,0.12924961855240935
-4.0229999999999997,0.17413665849479751,0.13984625695761532
-4.0225,0.15279630877945163,0.27760255622466667
-4.0220000000000002,0.17413665849479751,0.24581264100919331
-4.0214999999999996,0.20614718306788424,0.13984625695739367
-4.0209999999999999,0.22748753278323011,0.033879872905815719
-4.0205000000000002,0.13145595906408636,0.10805634174198775
-4.0199999999999996,-0.5407650569708129,0.71206473083705191
-4.0194999999999999,-1.522421143876723,1.2842832047155728
-4.0190000000000001,-2.2266526844837773,0.92399749893988004
-4.0185000000000004,-2.5147474056409469,0.81803111488830216
-4.0179999999999998,-2.7921719519409574,0.26700591781949923
-4.0175000000000001,-2.0879404113339031,-0.25222936403370499
-4.0170000000000003,-1.1489650238586846,-0.25222936403370499
-4.0164999999999997,-0.40205278381960902,-0.040296595930105733
-4.016,0.078105084775673142,0.23521600260399694
-4.0155000000000003,0.31284893164447775,0.48953532432778402
-4.0149999999999997,0.38754015564846972,0.69087145402632177
-4.0145,0.38754015564846972,0.82862775329337313
-4.0140000000000002,0.3661998059331239,0.89220758372431996
-4.0134999999999996,0.34485945621773917,0.87101430691394655
-4.0129999999999999,0.34485945621773917,0.76504792286236856
-4.0125000000000002,0.44089102993688295,0.52132523954351762
-4.0119999999999996,0.98506994767946432,-0.061489872741307981
-4.0114999999999998,1.8280137614356262,-0.73967473067140688
-4.0110000000000001,2.5002347774696325,-1.2906999277401132
-4.0105000000000004,2.1587891820240985,-1.9264982320495809
-4.0099999999999998,1.5612593899935603,-1.42845622700729
-4.0095000000000001,0.97439977282101498,-0.59132179299906285
-4.0090000000000003,0.50491207908340585,0.055073149715562764
-4.0084999999999997,0.32351910650228655,0.52132523954364285
-4.008,0.22748753278323011,0.6590815388106942
-4.0075000000000003,0.16346648363719252,0.57430843156943201
-4.0069999999999997,0.15279630877946135,0.42595549389690468
-4.0065,0.16346648363713429,0.30939247144016896
-4.0060000000000002,0.13145595906408636,0.37297230187117358
-4.0054999999999996,0.14212613392180781,0.29879583303485702
-4.0049999999999999,0.18480683335249956,0.13984625695749003
-4.0045000000000002,0.21681735792554749,0.0020899576903134209
-4.0039999999999996,0.20614718306743784,-0.04029659592995153
-4.0034999999999998,-0.26334051067017139,0.40476221708667587
-4.0030000000000001,-1.2236562478616091,0.86041766850887547
-4.0025000000000004,-2.087940411333117,0.30939247144067006
-4.0019999999999998,-2.6961403782218136,-0.51714532416289083
-4.0015000000000001,-2.9095438753754665,-1.3648763965762853
-4.0010000000000003,-2.4187158319225111,-1.5980024414897567
-4.0004999999999997,-1.3623685210107364,-1.0787671596361672
-4,-0.54076505696992005,-0.42177557851638392
-3.9994999999999998,0.0034138607718946501,0.11865298014715518
-3.9990000000000001,0.28083840707164331,0.46834204751768049
-3.9984999999999999,0.38754015564846972,0.66967817721586165
-3.9980000000000002,0.38754015564846972,0.74385464605203377
-3.9975000000000001,0.35552963107542179,0.74385464605203377
-3.9969999999999999,0.33418928136005654,0.66967817721586165
-3.9965000000000002,0.33418928136005654,0.55311515475901996
-3.996,0.3768699807907871,0.34118238665567124
-3.9954999999999998,0.71831557623663156,-0.12506970317169577
-3.9950000000000001,1.2091436196900331,-1.0999604364470996
-3.9944999999999999,1.2838348436938116,-2.2867839378258519
-3.9940000000000002,1.657290963712704,-2.6682629204118795
-3.9935,1.5185786905628296,-2.2867839378258519
-3.9929999999999999,1.1024418711132067,-1.2906999277401132
-3.9925000000000002,0.78233662538272752,-0.33700247127504446
-3.992,0.47290155450993088,0.18223281057815977
-3.9914999999999998,0.25949805735627807,0.38356894027634103
-3.9910000000000001,0.17413665849481691,0.41535885549184332
-3.9904999999999999,0.15279630877945163,0.37297230187117358
-3.9900000000000002,0.17413665849481691,0.30939247144016896
-3.9895,0.14212613392176898,0.42595549389701071
-3.9889999999999999,0.12078578420640371,0.46834204751768049
-3.9885000000000002,0.15279630877945163,0.37297230187117358
-3.988,0.19547700821018218,0.23521600260399694
-3.9874999999999998,0.17413665849481691,0.19282944898332721
-3.9870000000000001,-0.13529841237797968,0.45774540911251305
-3.9864999999999999,-0.98891240099259115,1.1253336286380615
-3.9860000000000002,-1.9065474387532981,1.5597958032499259
-3.9855,-2.6001088045026699,0.93459413734504748
-3.9849999999999999,-2.9842350993792448,-0.32640583286987701
-3.9845000000000002,-2.8135123016563228,-1.2483133741194434
-3.984,-1.7998456901764717,-1.1635402668781043
-3.9834999999999998,-0.8502001278427167,-0.60191843140423029
-3.9830000000000001,-0.17797911180871023,-0.029699957525188878
-3.9824999999999999,0.20614718306786484,0.40476221708667587
-3.9820000000000002,0.36619980593310447,0.66967817721586165
-3.9815,0.40888050536383502,0.80743447648303834
-3.9809999999999999,0.3768699807907871,0.84982103010370802
-3.9805000000000001,0.34485945621773917,0.78624119967270345
-3.98,0.33418928136005654,0.68027481562102909
-3.9794999999999998,0.34485945621773917,0.52132523954351762
-3.9790000000000001,0.54759277851370936,0.13984625695749003
-3.9784999999999999,1.2091436196900331,-0.54893523937839306
-3.9780000000000002,1.7319821877164825,-1.2589100125246109
-3.9775,1.4225471168436858,-2.3185738530413542
-3.9769999999999999,1.2624944939784462,-2.3821536834723589
-3.9765000000000001,0.92104889853260175,-1.6933721871364757
-3.976,0.55826295337139209,-0.88802766834375091
-3.9754999999999998,0.3982103305061524,-0.22043944881820265
-3.9750000000000001,0.31284893164469124,0.12924961855232261
-3.9744999999999999,0.21681735792554749,0.20342608738849466
-3.9740000000000002,0.17413665849481691,0.20342608738849466
-3.9735,0.18480683335249956,0.16103953376782493
-3.9729999999999999,0.16346648363713429,0.21402272579366208
-3.9725000000000001,0.12078578420640371,0.34118238665567124
-3.972,0.14212613392176898,0.28819919462983412
-3.9714999999999998,0.19547700821018218,0.21402272579366208
-3.9710000000000001,0.22748753278323011,0.15044289536265748
-3.9704999999999999,0.08877525963335578,0.27760255622466667
-3.9700000000000002,-0.63679663068906378,0.90280422212954525
-3.9695,-1.6077825427381842,1.5915857184654283
-3.9689999999999999,-2.3973754822066997,1.8988882322152838
-3.9685000000000001,-2.9415543999485143,1.0193672445863871
-3.968,-2.9202140502331493,-0.28401927924920728
-3.9674999999999998,-2.151961460479999,-0.77146464588690922
-3.9670000000000001,-1.1169544992847826,-0.53833860097322561
-3.9664999999999999,-0.34870190953163249,-0.10387642636136091
-3.9660000000000002,0.12078578420640371,0.31998910984533641
-3.9655,0.33418928136005654,0.61669498519002452
-3.9649999999999999,0.40888050536383502,0.80743447648303834
-3.9645000000000001,0.38754015564846972,0.90280422212954525
-3.964,0.35552963107542179,0.89220758372437781
-3.9634999999999998,0.34485945621773917,0.78624119967270345
-3.9630000000000001,0.36619980593310447,0.59550170837968963
-3.9624999999999999,0.47290155450993088,0.27760255622466667
-3.9620000000000002,1.0170804722517455,-0.31580919446470956
-3.9615,1.742652362574165,-1.0363806060160949
-3.9609999999999999,1.6786313134280693,-2.2020108305845123
-3.9605000000000001,1.6786313134280693,-2.678859558817047
-3.96,1.3691962425552726,-2.1914141921793449
-3.9594999999999998,0.84635767452882327,-1.2801032893349458
-3.9590000000000001,0.53692260365602662,-0.37938902489571413
-3.9584999999999999,0.3768699807907871,0.20342608738849466
-3.9580000000000002,0.22748753278323011,0.36237566346600614
-3.9575,0.16346648363713429,0.34118238665567124
-3.9569999999999999,0.16346648363713429,0.25640927941433178
-3.9565000000000001,0.17413665849481691,0.20342608738849466
-3.956,0.12078578420640371,0.31998910984533641
-3.9554999999999998,0.14212613392176898,0.28819919462983412
-3.9550000000000001,0.18480683335249956,0.17163617217299235
-3.9544999999999999,0.22748753278323011,0.076266426526485451
-3.9540000000000002,0.21681735792554749,0.033879872905815719
-3.9535,-0.26334051067017139,0.17163617217299235
-3.9529999999999998,-1.2449965975769743,-0.2310360872233701
-3.9525000000000001,-2.1306211107646336,-1.1211537132574345
-3.952,-2.7281509027948614,-1.9053049552398247
-3.9514999999999998,-3.016245623952293,-2.5199099827395353
-3.9510000000000001,-2.4934070559258434,-2.265590661015517
-3.9504999999999999,-1.4157193952998968,-1.3012965661452807
-3.9500000000000002,-0.5621054066852853,-0.41117894011121647
-3.9495,-0.0072563140857879876,0.2246193641988295
-3.9489999999999998,0.28083840707164331,0.59550170837968963
-3.9485000000000001,0.3982103305061524,0.75445128445720111
-3.948,0.3982103305061524,0.78624119967270345
-3.9474999999999998,0.36619980593310447,0.74385464605203377
-3.9470000000000001,0.34485945621773917,0.62729162359519197
-3.9464999999999999,0.32351910650237387,0.48953532432801533
-3.9460000000000002,0.35552963107542179,0.28819919462983412
-3.9455,0.6863050516635838,-0.1674562567923655
-3.9449999999999998,1.3905365922706379,-0.91981758355925325
-3.9445000000000001,1.9240453351547699,-1.6191957183003036
-3.944,1.838683936293309,-2.4351368754981961
-3.9434999999999998,1.5292488654205123,-2.0536578929121685
-3.9430000000000001,1.0704313465401587,-1.2377167357142764
-3.9424999999999999,0.66496470194821833,-0.57012851618872795
-3.9420000000000002,0.47290155450993088,-0.082683149551026042
-3.9415,0.31284893164469124,0.097459703336820316
-3.9409999999999998,0.20614718306786484,0.11865298014715518
-3.9405000000000001,0.17413665849481691,0.097459703336820316
-3.9399999999999999,0.17413665849481691,0.086863064931652884
-3.9394999999999998,0.13145595906408636,0.27760255622466667
-3.9390000000000001,0.12078578420640371,0.38356894027634103
-3.9384999999999999,0.16346648363713429,0.36237566346600614
-3.9380000000000002,0.20614718306786484,0.30939247144016896
-3.9375,0.22748753278323011,0.29879583303500157
-3.9369999999999998,-0.10328788780493176,0.64848490040552687
-3.9365000000000001,-0.96757205127722568,1.3160731199310751
-3.9359999999999999,-1.8531965644648849,1.7929218481636098
-3.9355000000000002,-2.6107789793603526,1.3266697583362426
-3.9350000000000001,-2.8241824765140051,0.086863064931652884
-3.9344999999999999,-2.6854702033641309,-0.86683439153341613
-3.9340000000000002,-1.7144842913150107,-0.86683439153341613
-3.9335,-0.78617907869662074,-0.41117894011121647
-3.9329999999999998,-0.14596858723566233,0.097459703336820316
-3.9325000000000001,0.20614718306786484,0.51072860113835017
-3.9319999999999999,0.35552963107542179,0.775644561267536
-3.9315000000000002,0.3982103305061524,0.93459413734504748
-3.931,0.36619980593310447,0.98757732937088472
-3.9304999999999999,0.34485945621773917,0.94519077575021493
-3.9300000000000002,0.33418928136005654,0.84982103010370802
-3.9295,0.14212613392176898,0.50013196273318283
-3.9289999999999998,-0.22065981123944084,-0.49595204735255594
-3.9285000000000001,0.30217875678700862,-1.1635402668781043
-3.9279999999999999,1.1878032699746677,-1.9582881472656615
-3.9275000000000002,2.0734277831623271,-2.4881200675240334
