Class_3_Grab_w_two_Hands/Class_3_Grab_with_Two_Hands_UZ_2.csv

#Digilent WaveForms Oscilloscope Acquisition
#Device Name: EExplorer
#Serial Number: SN:210151A2B84A
#Date Time: 2020-11-24 12:46:38.273
#Sample rate: 2000Hz
#Samples: 16384
#Trigger: Source: Channel 1 Type: Edge Condition: Rising Level: 0 V Hyst.: Auto HoldOff: 0 s
#Channel 1: Range: 1 V/div Offset: 0 V Attenuation: 1 X
#Channel 2: Range: 1 V/div Offset: 0 V Attenuation: 1 X
#Power Supplies: ON
#Fixed Supply: ON
#Voltage: 3.3 V Readback: 3.331 V
#Positive Supply: ON
#Voltage: 3.7 V Readback: 3.717 V
#Current: 40 mA Readback: 23 mA
#Negative Supply: ON
#Voltage: -3.7 V Readback: -3.348 V
#Current: -40 mA Readback: -13 mA
#Reference 1: ON
#Voltage: 0 V
#Reference 2: ON
#Voltage: 0 V

Time (s),Channel 1 (V),Channel 2 (V)
-4.096,1.166462920259302,-0.6125150698093976
-4.0955,0.8356874996714416,-0.60191843140424
-4.095,0.5155822539404479,-0.6972881770508047
-4.0945,0.2808384070716433,-0.7714646458869092
-4.094,0.0460945602028387,-0.9304142219642761
-4.0935,-0.2420001609548449,-0.9092209451538641
-4.093,-0.2846808603855366,-0.6654982618352349
-4.0925,-0.231329986097172,-0.4323722169217633
-4.092,-0.1673089369510082,-0.2310360872232544
-4.0915,-0.1459685872356623,-0.1038764263613609
-4.091,-0.3166913849585846,0.2564092794143318
-4.0905,-0.7328282044085763,0.4577454091119926
-4.09,-1.138294849000148,-0.1144730647665284
-4.0895,-1.618452717595867,-0.8138511995075789
-4.089,-2.24799303419857,-1.311893204549995
-4.0885,-2.568098279929622,-1.51322933424863
-4.088,-2.045259711903173,-1.227120097309109
-4.0875,-1.202315898147011,-0.4323722169222742
-4.087,-0.5727755815425896,0.4577454091131588
-4.0865,-0.156638762093345,1.167720182258731
-4.086,0.04609456020244085,1.612778995275358
-4.0855,0.1207857842064231,1.824711763379189
-4.085,0.142126133921769,1.909484870620451
-4.0845,0.1207857842064231,1.888291593810136
-4.084,0.1314559590640961,1.877694955404891
-4.0835,0.142126133921769,1.814115124973944
-4.083,0.2168173579255475,1.602182356870596
-4.0825,0.6863050516637391,1.39024958876663
-4.082,0.857027849386506,0.7120647308365314
-4.0815,0.5475927785137094,-0.2734226408440398
-4.081,0.5689331282290552,-1.015187329205085
-4.0805,0.9317190733902845,-1.195330182093607
-4.08,1.15579274540162,-1.05757388282643
-4.0795,1.177133095116966,-0.9304142219645364
-4.079,0.9637295979630414,-0.8456411147231006
-4.0785,0.6436243522328531,-0.8668343915334161
-4.078,0.3768699807910297,-0.9198175835592051
-4.0775,0.1527963087791605,-0.9833974139903638
-4.077,-0.1673089369510276,-1.0999604364471
-4.0765,-0.2846808603854299,-0.9304142219645749
-4.076,-0.2526703358124499,-0.6337083466194916
-4.0755,-0.2099896363817582,-0.3687923864905467
-4.075,-0.1993194615240755,-0.1356663415768632
-4.0745,-0.1779791118087005,0.1398462569579334
-4.074,-0.1673089369510276,0.627291623595192
-4.0735,-0.4874141826815069,0.3729723018711736
-4.073,-0.9035510021307515,-0.3158091944640832
-4.0725,-1.351698346153801,-0.8456411147230812
-4.072,-1.885207089037933,-1.174136905283272
-4.0715,-1.885207089037933,-1.142346990067798
-4.071,-1.309017646722537,-0.5065486857569428
-4.0705,-0.722158029550525,0.3517790250608387
-4.07,-0.2846808603859345,1.072350436611569
-4.0695,-0.02859666380105623,1.528005888034636
-4.069,0.07810508477567314,1.761131932948107
-4.0685,0.1314559590640864,1.845905040189447
-4.068,0.152796308779471,1.856501678594566
-4.0675,0.1741366584948169,1.803518486568777
-4.067,0.1741366584948169,1.761131932948107
-4.0665,0.195477008210483,1.422039503982335
-4.066,0.5262524287983441,0.9663840525605498
-4.0655,1.038420821967111,0.1610395337678249
-4.065,1.134452395686167,-0.7396747306705878
-4.0645,1.113112045970889,-1.42845622700729
-4.064,1.465227816274416,-1.79933857118815
-4.0635,1.646620788854856,-1.439052865412785
-4.063,1.550589215135596,-0.962204137179682
-4.0625,1.241154144263081,-0.6972881770507372
-4.062,0.8250173248138365,-0.6337083466197904
-4.0615,0.4622313796520347,-0.7502713690766514
-4.061,0.2274875327832301,-0.8350444763179138
-4.0605,-0.1032878878049318,-0.9939940523954253
-4.06,-0.444733483250786,-1.057573882826179
-4.0595,-0.4554036581084589,-0.7820612842920766
-4.059,-0.3273615598162672,-0.4111789401112165
-4.0585,-0.199319461524192,-0.1144730647667982
-4.058,-0.124628237520297,0.1610395337678249
-4.0575,-0.4447334832507763,0.6802748156210291
-4.057,-0.978242226134423,0.7226613692416604
-4.0565,-1.287677297007705,0.01268659609548085
-4.056,-1.437059745015262,-0.6019184314042303
-4.0555,-1.842526389606834,-1.089363798041489
-4.055,-2.151961460479582,-1.375473034981202
-4.0545,-1.693143941599645,-1.0999604364471
-4.054,-1.031593100423923,-0.3370024712757383
-4.0535,-0.4874141826811866,0.4471487707078757
-4.053,-0.1352984123779797,1.029963882991555
-4.0525,0.04609456020262521,1.37965295036208
-4.052,0.1101156093487405,1.549199164844826
-4.0515,0.1314559590640864,1.623375633680931
-4.051,0.1527963087794516,1.6657621873016
-4.0505,0.1634664836371246,1.697552102517074
-4.05,0.1741366584948169,1.655165548896433
-4.0495,0.3555296310754218,1.506812611224089
-4.049,0.8890383739590685,1.443232780793142
-4.0485,0.8036769750977143,0.6908714540253099
-4.048,0.3875401556484697,-0.2840192792492073
-4.0475,0.5049120790828721,-0.7608680074813081
-4.047,0.8356874996713154,-0.7714646458868417
-4.0465,1.027750647109428,-0.6972881770507372
-4.046,1.006410297394082,-0.6654982618352637
-4.0455,0.7716664505247924,-0.7290780922663261
-4.045,0.4942419042252961,-0.8244478379127463
-4.0445,0.2808384070716433,-0.8986243067489184
-4.044,0.09944543449089287,-0.9939940523954253
-4.0435,-0.06060718837420119,-0.9939940523954253
-4.043,-0.1032878878049318,-0.7502713690765743
-4.0425,-0.1139580626626047,-0.453565493732156
-4.042,-0.1139580626626144,-0.1780528951975329
-4.0415,-0.124628237520297,0.05507314971615059
-4.041,-0.3913826089621204,0.341182386655411
-4.0405,-1.084943974712181,1.019367244586512
-4.04,-1.575772018165136,1.157123543853563
-4.0395,-1.682473766741866,0.3941655786822023
-4.039,-1.970568487899666,-0.4641621321375837
-4.0385,-2.269333383914508,-1.046977244421262
-4.038,-1.778505340461553,-1.078767159636736
-4.0375,-1.074273799853538,-0.4535654937311056
-4.037,-0.5087545323968721,0.4047622170866759
-4.0365,-0.1352984123779797,1.135930267043229
-4.036,0.04609456020269315,1.644568910491506
-4.0355,0.1207857842064037,1.909484870620451
-4.035,0.1634664836371343,2.026047893077293
-4.0345,0.1741366584948072,2.047241169887609
-4.034,0.1848068333524996,2.036644531482461
-4.0335,0.1954770082101822,1.973064701051456
-4.033,0.2701682322138927,1.708148740922511
-4.0325,0.7609962756676146,1.612778995275214
-4.032,1.038420821967111,1.00877060618122
-4.0315,1.006410297394092,-0.05089323433456006
-4.031,1.155792745401785,-0.835044476318068
-4.0305,1.337185717982225,-1.004590690800593
-4.03,1.379866417412916,-0.941010860369646
-4.0295,1.251824319120502,-0.8774310299385835
-4.029,0.9637295979633325,-0.8774310299385835
-4.0285,0.6116138276598051,-0.9622041371799229
-4.028,0.3235191065021895,-0.9939940523954446
-4.0275,0.1207857842064037,-1.01518732920576
-4.027,-0.1673089369510276,-1.05757388282643
-4.0265,-0.2420001609547381,-0.8880276683439051
-4.026,-0.2099896363817582,-0.6125150698093976
-4.0255,-0.1779791118087102,-0.3793890248957141
-4.025,-0.1459685872356914,-0.2098428104131894
-4.0245,-0.209989636382156,0.03387987290628796
-4.024,-0.6474668055467465,0.55311515475902
-4.0235,-1.052933450138318,0.288199194630075
-4.023,-1.266336947292602,-0.4217755785169043
-4.0225,-1.554431668449771,-0.9939940523954253
-4.022,-2.055929886760399,-1.290699927739843
-4.0215,-2.173301810194792,-1.237716735713718
-4.021,-1.543761493592088,-0.6231117082145651
-4.0205,-0.8715404775580819,0.2987958330350016
-4.02,-0.3700422592467164,1.104140351828228
-4.0195,-0.06060718837420119,1.655165548896433
-4.019,0.08877525963335578,1.941274785835954
-4.0185,0.1207857842063746,2.026047893077216
-4.018,0.1207857842064037,1.994257977861791
-4.0175,0.1207857842064037,1.962468062646288
-4.017,0.1527963087794225,1.909484870620499
-4.0165,0.2168173579257707,1.708148740921981
-4.016,0.4622313796522482,1.390249588767247
-4.0155,0.835687499670801,0.8710143069145152
-4.015,0.9103787236748804,-0.09327978795689702
-4.0145,0.8676980242441885,-0.8668343915334161
-4.014,1.102441871112993,-1.08936379804173
-4.0135,1.283834843693802,-1.036380606016027
-4.013,1.273164668836129,-0.9622041371799229
-4.0125,1.081101521397841,-0.9304142219644207
-4.012,0.7396559259517057,-0.9833974139903542
-4.0115,0.4195506802215176,-1.089363798041932
-4.011,0.1954770082101822,-1.142346990067769
-4.0105,-0.0285966638009495,-1.184733543688401
-4.01,-0.1886492866663929,-1.068170521231597
-4.0095,-0.1886492866663929,-0.792657922697244
-4.009,-0.1566387620933741,-0.5065486857579836
-4.0085,-0.1032878878049123,-0.2522293640334929
-4.008,-0.08194753808956648,-0.01910331912002144
-4.0075,-0.3700422592467357,0.4789386859223949
-4.007,-0.7968492535546238,0.5531151547584224
-4.0065,-1.148965023857831,-0.1038764263613609
-4.006,-1.565101843307454,-0.7502713690765743
-4.0055,-2.119950935907291,-1.163540266878201
-4.005,-2.493407055925843,-1.269506650929778
-4.0045,-1.906547438753298,-1.025783967610927
-4.004,-1.116954499284239,-0.3264058328690771
-4.0035,-0.5194247072545548,0.55311515475902
-4.003,-0.1352984123779797,1.263089927905238
-4.0025,0.06743490991780612,1.718745379327023
-4.002,0.1314559590640864,1.930678147430786
-4.0015,0.1634664836371343,1.962468062646288
-4.001,0.1634664836371343,1.951871424241131
-4.0005,0.1954770082102307,1.867098316999521
-4,0.2488278824985954,1.580989080060261
-3.9995,0.2808384070716433,0.8816109453192104
-3.999,0.4942419042252961,0.2140227257936621
-3.9985,0.6863050516635838,-0.5807251545938954
-3.998,0.707645401378949,-1.258910012524611
-3.9975,1.070431346540159,-1.661582271920973
-3.997,1.401206767128321,-1.460246142222792
-3.9965,1.465227816274416,-1.0999604364471
-3.996,1.283834843693812,-0.8668343915334161
-3.9955,0.9317190733902845,-0.8244478379127463
-3.995,0.5796033030867573,-0.8456411147230812
-3.9945,0.3235191065023739,-0.9304142219644207
-3.994,0.1101156093487211,-1.078767159636765
-3.9935,-0.1993194615240755,-1.237716735714276
-3.993,-0.274010685527854,-1.01518732920576
-3.9925,-0.2206598112394408,-0.6337083466197325
-3.992,-0.156638762093345,-0.2840192792492073
-3.9915,-0.1139580626626144,-0.008506680714854012
-3.991,-0.2633405106701714,0.3729723018711736
-3.9905,-0.7968492535543035,0.775644561267536
-3.99,-1.202315898146244,0.2776025562246667
-3.9895,-1.447729919872945,-0.5277419625680583
-3.989,-1.863866739322568,-1.184733543688439
-3.9885,-2.301343908487556,-1.555615887869299
-3.988,-1.917217613610981,-1.492036057438295
-3.9875,-1.191645723288561,-0.8562377531282487
-3.987,-0.5834457564006506,0.002089957690313421
-3.9865,-0.1886492866663929,0.7438546460520338
-3.986,0.03542438534494258,1.231300012689736
-3.9855,0.1207857842064037,1.496215972818921
-3.985,0.1314559590640864,1.580989080060261
-3.9845,0.1314559590640864,1.591585718465428
-3.984,0.142126133921769,1.612778995275763
-3.9835,0.142126133921769,1.602182356870596
-3.983,0.2168173579255475,1.485619334413754
-3.9825,0.7289857510943143,1.506812611224089
-3.982,1.123782220828572,1.273686566310405
-3.9815,1.091771696255524,0.3199891098453364
-3.981,1.187803269974668,-0.4853554089473885
-3.9805,1.433217291701369,-0.8774310299385835
-3.98,1.497238340847464,-0.8562377531282487
-3.9795,1.369196242555273,-0.718481453861072
-3.979,1.049090996824793,-0.6654982618352349
-3.9785,0.6649647019482183,-0.7290780922662394
-3.978,0.3555296310754218,-0.8032545611024114
-3.9775,0.142126133921769,-0.8244478379127463
-3.977,-0.1673089369510276,-0.9092209451540858
-3.9765,-0.2846808603855366,-0.8032545611024114
-3.976,-0.2526703358124887,-0.5595318777835605
-3.9755,-0.1779791118087102,-0.3475991096802118
-3.975,-0.1139580626626144,-0.1568596183871981
-3.9745,-0.1032878878049318,0.08686306493165288
-3.974,-0.2420001609548061,0.627291623595192
-3.9735,-0.6474668055467465,0.55311515475902
-3.973,-1.031593100423322,-0.1674562567923655
-3.9725,-1.597112367880501,-0.8774310299385835
-3.972,-2.258663209056825,-1.322489842955616
-3.9715,-2.472066706210478,-1.42845622700729
-3.971,-1.746494815888059,-1.078767159636765
-3.9705,-0.9889124009925911,-0.2946159176543747
-3.97,-0.423393133535411,0.55311515475902
-3.9695,-0.07127736323188383,1.210106735879401
-3.969,0.08877525963335578,1.602182356870596
-3.9685,0.1314559590640864,1.782325209758442
-3.968,0.1634664836371343,1.877694955404949
-3.9675,0.1634664836371343,1.898888232215284
-3.967,0.1741366584948169,1.845905040189447
-3.9665,0.1741366584948169,1.718745379327438
-3.966,0.291508581929326,1.517409249629256
-3.9655,0.5796033030867573,1.231300012689736
-3.965,0.5582629533713921,0.2881991946298341
-3.9645,0.3448594562177392,-0.6654982618352349
-3.964,0.6542945270905358,-1.216523458903942
-3.9635,0.9957401225363802,-1.237716735714276
-3.963,1.134452395686255,-1.068170521231597
-3.9625,1.027750647109428,-0.8880276683437509
-3.962,0.7503261008096795,-0.8350444763179138
-3.9615,0.4942419042252961,-0.8456411147230812
-3.961,0.291508581929326,-0.9198175835592532
-3.9605,-0.03926683865883591,-1.05757388282643
-3.96,-0.3166913849585846,-1.046977244421262
-3.9595,-0.3273615598162672,-0.792657922697244
-3.959,-0.2420001609548061,-0.4853554089473885
-3.9585,-0.1673089369510276,-0.2310360872233701
-3.958,-0.1779791118087102,0.01268659609548085
-3.9575,-0.5834457564006506,0.5425185163538525
-3.957,-1.138294849000148,0.627291623595192
-3.9565,-1.383708870726849,-0.04029659593035631
-3.956,-1.543761493592088,-0.7714646458869092
-3.9555,-1.938557963326346,-1.269506650929778
-3.955,-2.173301810195364,-1.481439419033127
-3.9545,-1.607782542738184,-1.110557074852267
-3.954,-0.9355615267041777,-0.2840192792492073
-3.9535,-0.4020527838200457,0.55311515475902
-3.953,-0.08194753808956648,1.167720182258731
-3.9525,0.08877525963335578,1.549199164844759
-3.952,0.1527963087794516,1.697552102517103
-3.9515,0.1741366584948169,1.729342017732605
-3.951,0.1954770082101822,1.79292184816361
-3.9505,0.2061471830678648,1.814115124973944
-3.95,0.2168173579255475,1.761131932948107
-3.9495,0.3235191065023739,1.453829419198252
-3.949,0.7289857510943143,1.029963882991555
-3.9485,0.8783681991018712,0.2458126410091644
-3.948,0.6756348768059011,-0.6337083466197325
-3.9475,0.825017324813458,-1.121153713257435
-3.947,1.145122570543937,-1.121153713257435
-3.9465,1.294505018551494,-0.9516074987747555
-3.946,1.219813794547716,-0.8880276683437509
-3.9455,0.942389248247967,-0.9092209451540858
-3.945,0.6116138276598051,-0.9833974139902578
-3.9445,0.3448594562177392,-1.078767159636765
-3.944,0.142126133921769,-1.216523458903942
-3.9435,-0.124628237520297,-1.290699927740113
-3.943,-0.2099896363817582,-0.9939940523954253
-3.9425,-0.1886492866663929,-0.6019184314042303
-3.942,-0.1352984123779797,-0.2628260024388724
-3.9415,-0.1032878878049318,0.02328323450064829
-3.941,-0.3273615598162672,0.09745970333682032
-3.9405,-0.9035510021311299,0.2352160026039969
-3.94,-1.30901764672307,-0.1568596183871981
-3.9395,-1.586442193022819,-0.7502713690765743
-3.939,-1.949228138184029,-1.174136905283272
-3.9385,-2.301343908487556,-1.375473034981453
-3.938,-1.821186039891837,-1.163540266878104
-3.9375,-1.095614149569417,-0.4429688553267188
-3.937,-0.5087545323968721,0.3941655786815084
-3.9365,-0.1352984123779797,1.029963882991555
-3.936,0.0674349099179905,1.432636142387917
-3.9355,0.1314559590640864,1.591585718465428
-3.935,0.142126133921769,1.602182356870596
-3.9345,0.1314559590640864,1.549199164844759
-3.934,0.142126133921769,1.517409249629256
-3.9335,0.1954770082101822,1.485619334413754
-3.933,0.3021787567870086,1.157123543853563
-3.9325,0.4835717293676135,0.383568940276341
-3.932,0.7609962756673623,-0.1674562567923655
-3.9315,0.7183155762366316,-0.8562377531282487
-3.931,0.9210488985326017,-1.449649503817625
-3.9305,1.369196242555273,-1.576809164679634
-3.93,1.539919040278195,-1.205926820498774
-3.9295,1.443887466559051,-0.8032545611024114
-3.929,1.145122570543937,-0.570128516188728
-3.9285,0.7716664505250448,-0.4959520473525559
-3.928,0.4515612047945656,-0.5595318777835605
-3.9275,0.2274875327832301,-0.6654982618352349
-3.927,-0.02859666380115328,-0.8350444763179138
-3.9265,-0.156638762093345,-0.8032545611024114
-3.926,-0.1886492866663929,-0.6231117082145651
-3.9255,-0.1993194615240755,-0.4217755785163839
-3.925,-0.1993194615240755,-0.2628260024388724
-3.9245,-0.3166913849585846,-0.008506680714854012
-3.924,-0.8715404775580819,0.6378882620003594
-3.9235,-1.351698346153801,0.7968378380778709
-3.923,-1.543761493592088,0.1080563417419877
-3.9225,-1.863866739322568,-0.6866915386455698
-3.922,-2.354694782775969,-1.227120097309109
-3.9215,-2.44005618163743,-1.42845622700729
-3.921,-1.693143941599645,-1.068170521231597
-3.9205,-0.9355615267041777,-0.2416327256285375
-3.92,-0.391382608962363,0.6060983467848571
-3.9195,-0.04993701351651855,1.25249328950007
-3.919,0.1101156093487211,1.633972272086098
-3.9185,0.1634664836371343,1.814115124973944
-3.918,0.1848068333524996,1.898888232215284
-3.9175,0.2061471830678648,1.909484870620451
-3.917,0.2061471830678648,1.867098316999781
-3.9165,0.2168173579255475,1.729342017732605
-3.916,0.3982103305061524,1.517409249629256
-3.9155,0.8783681991018712,1.400846227172415
-3.915,0.8997085488172365,0.5743084315693548
-3.9145,0.7183155762366316,-0.4323722169215513
-3.914,0.9317190733902845,-1.01518732920576
-3.9135,1.166462920259302,-1.078767159636765
-3.913,1.241154144263081,-0.9728007755850904
-3.9125,1.102441871113207,-0.9092209451540858
-3.912,0.8143471499557753,-0.8668343915334161
-3.9115,0.5262524287983441,-0.8456411147230812
-3.911,0.291508581929326,-0.8774310299385835
-3.9105,0.05676473506030786,-0.9939940523954253
-3.91,-0.1673089369510276,-1.004590690800593
-3.9095,-0.2206598112394408,-0.7608680074817418
-3.909,-0.1779791118087102,-0.4535654937318862
-3.9085,-0.124628237520297,-0.1886495336027004
-3.908,-0.124628237520297,0.002089957690313421
-3.9075,-0.5194247072545548,-0.05089323433552374
-3.907,-1.159635198715513,-0.2416327256285375
-3.9065,-1.501080794161358,-0.6972881770507372
-3.906,-1.767835165603424,-1.05757388282643
-3.9055,-2.23732285934146,-1.216523458903942
-3.905,-2.514747405641209,-1.184733543688439
-3.9045,-1.917217613610981,-0.8668343915334161
-3.904,-1.116954499284783,-0.1356663415768632
-3.9035,-0.5087545323968721,0.6802748156210291
-3.903,-0.124628237520297,1.29487984312074
-3.9025,0.08877525963335578,1.6657621873016
-3.902,0.1527963087794516,1.79292184816361
-3.9015,0.1527963087794516,1.782325209758442
-3.901,0.1634664836371343,1.803518486568777
-3.9005,0.1848068333524996,1.761131932948107
-3.9,0.2274875327832301,1.591585718465428
-3.8995,0.3341892813600565,1.146526905448396
-3.899,0.6756348768059011,0.2352160026039969
-3.8985,0.9530594231056497,-0.7290780922662394
-3.898,0.8356874996711408,-1.47084278062796
-3.8975,0.8143471499557753,-1.947691508860494
-3.897,1.081101521397841,-1.682775548731308
-3.8965,1.251824319120764,-1.216523458903942
-3.896,1.209143619690033,-0.9622041371799229
-3.8955,0.974399772821015,-0.8668343915334161
-3.895,0.6436243522328531,-0.8986243067489184
-3.8945,0.3555296310754218,-0.9728007755850904
-3.894,0.1207857842064037,-1.046977244421262
-3.8935,-0.156638762093345,-1.046977244421262
-3.893,-0.2420001609548061,-0.8562377531282487
-3.8925,-0.2099896363817582,-0.5913217929990628
-3.892,-0.156638762093345,-0.3370024712750445
-3.8915,-0.1139580626626144,-0.1462629799820306
-3.891,-0.2206598112394408,0.13984625695749
-3.8905,-0.8181896032696687,0.5637117931641874
-3.89,-1.46907026958831,0.1504428953626575
-3.8895,-1.959898313041711,-0.5595318777835605
-3.889,-2.482736881068161,-1.110557074852267
-3.8885,-2.568098279929622,-1.34368311976595
-3.888,-2.514747405641209,-1.290699927740113
-3.8875,-1.735824641030376,-0.7820612842920766
-3.887,-0.9142211769888124,0.08686306493165288
-3.8865,-0.3380317346739499,0.92399749893988
-3.886,-0.007256314085787988,1.506812611224089
-3.8855,0.142126133921769,1.824711763379112
