Class_3_Grab_w_two_Hands/Class_3_Grab_with_Two_Hands_Suko_3.csv

#Digilent WaveForms Oscilloscope Acquisition
#Device Name: EExplorer
#Serial Number: SN:210151A2B84A
#Date Time: 2020-11-04 11:22:18.305
#Sample rate: 2000Hz
#Samples: 16384
#Trigger: Source: Channel 1 Type: Edge Condition: Rising Level: 0 V Hyst.: Auto HoldOff: 0 s
#Channel 1: Range: 1 V/div Offset: 0 V Attenuation: 1 X
#Channel 2: Range: 1 V/div Offset: 0 V Attenuation: 1 X
#Power Supplies: ON
#Fixed Supply: ON
#Voltage: 3.3 V Readback: 3.324 V
#Positive Supply: ON
#Voltage: 3.7 V Readback: 3.714 V
#Current: 500 mA Readback: 21 mA
#Negative Supply: ON
#Voltage: -3.7 V Readback: -3.703 V
#Current: -500 mA Readback: -6 mA
#Reference 1: ON
#Voltage: 0 V
#Reference 2: ON
#Voltage: 0 V

Time (s),Channel 1 (V),Channel 2 (V)
-4.096,-0.9035510021311299,1.390249588767247
-4.0955,-0.9248913518464758,0.8392243916990417
-4.095,-0.5514352318272437,0.04447651131042417
-4.0945,-0.156638762093345,-0.570128516188728
-4.094,0.1314559590638243,-0.9198175835589353
-4.0935,0.3021787567870766,-1.036380606016056
-4.093,0.3768699807907871,-0.9939940523954253
-4.0925,0.38754015564846,-0.856237753128374
-4.092,0.376869980790758,-0.6972881770505733
-4.0915,0.3448594562177392,-0.5171453241628908
-4.091,0.3128489316446912,-0.3475991096802118
-4.0905,0.2915085819292872,-0.1992461720077329
-4.09,0.2488278824985954,-0.05089323433552374
-4.0895,0.05676473506030786,0.2881991946298341
-4.089,-0.07127736323176737,0.818031114887724
-4.0885,-0.423393133535411,1.25249328950007
-4.088,-0.4127229586777283,1.082947075017392
-4.0875,-0.01792648894382964,0.2776025562253991
-4.087,0.3661998059332889,-0.3264058328701179
-4.0865,0.5689331282290746,-0.5913217929990628
-4.086,0.6222840025174393,-0.5913217929990628
-4.0855,0.6009436528020741,-0.4959520473524306
-4.085,0.5475927785137094,-0.3581957480853793
-4.0845,0.4835717293676717,-0.2416327256286436
-4.084,0.5155822539407875,-0.1038764263612067
-4.0835,0.6542945270905358,0.06566978812131802
-4.083,0.6329541773751706,0.07626642652648545
-4.0825,0.536922603655949,0.00208995769023632
-4.082,0.4515612047945656,-0.08268314955102604
-4.0815,0.2488278824985954,0.01268659609548085
-4.081,0.1101156093488472,0.4789386859224238
-4.0805,0.6542945270905358,0.9557874141553824
-4.08,0.408880505363835,1.25249328950007
-4.0795,-0.5194247072537105,1.379652950361964
-4.079,-1.020922925565455,1.125333628637368
-4.0785,-0.8181896032696687,0.3623756634660061
-4.078,-0.4127229586780971,-0.3899856633001973
-4.0775,-0.03926683865861271,-0.8562377531284222
-4.077,0.2061471830678648,-1.046977244421262
-4.0765,0.3341892813599401,-1.025783967610947
-4.076,0.3768699807907871,-0.8880276683435582
-4.0755,0.3768699807907871,-0.6760949002404023
-4.075,0.3448594562177392,-0.4535654937318862
-4.0745,0.3021787567869892,-0.2310360872231966
-4.074,0.2808384070716433,-0.04029659593035631
-4.0735,0.2594980573562781,0.1186529801471552
-4.073,0.1101156093488569,0.3517790250606266
-4.0725,0.3235191065023739,0.7968378380778709
-4.072,-0.06060718837420119,1.231300012689736
-4.0715,-0.5727755815425022,1.284283204715525
-4.071,-0.2953510352428118,0.5531151547583839
-4.0705,0.1527963087794516,-0.1462629799820306
-4.07,0.4622313796519667,-0.5065486857573958
-4.0695,0.5796033030867573,-0.548935239378316
-4.069,0.5796033030867573,-0.4641621321370536
-4.0685,0.5369226036560266,-0.3581957480853793
-4.068,0.4729015545099114,-0.2734226408440109
-4.0675,0.4515612047945656,-0.2416327256285375
-4.067,0.5796033030867573,-0.3581957480853793
-4.0665,0.6009436528020644,-0.400582301706049
-4.066,0.5369226036560266,-0.400582301706049
-4.0655,0.4515612047945656,-0.3899856633008816
-4.065,0.4088805053638738,-0.368792386490566
-4.0645,0.7823366253827275,-0.02969995752518888
-4.064,1.369196242555273,0.5849050699745222
-4.0635,0.9210488985330093,1.072350436611781
-4.063,-0.1246282375210734,1.347863035146539
-4.0625,-0.9782422261349084,1.305476481525908
-4.062,-0.9889124009925815,0.6590815388112821
-4.0615,-0.604786106115647,-0.1462629799825607
-4.061,-0.1993194615240755,-0.7290780922662394
-4.0605,0.1101156093487211,-1.01518732920576
-4.06,0.2808384070717113,-1.078767159636678
-4.0595,0.3555296310754218,-0.9833974139902578
-4.059,0.3661998059331045,-0.8138511995075789
-4.0585,0.3555296310754315,-0.601918431404423
-4.058,0.3341892813600565,-0.3899856633008816
-4.0575,0.3128489316446912,-0.1886495336027004
-4.057,0.2915085819293454,-0.02969995752533344
-4.0565,0.1207857842064037,0.1610395337678249
-4.056,-0.3593720843893152,0.5849050699745222
-4.0555,-0.7114878546925221,1.072350436611781
-4.055,-1.02092292556529,1.326669758335703
-4.0545,-0.6367966306890638,0.7332580076468663
-4.054,-0.02859666380170633,-0.008506680714179371
-4.0535,0.4195506802216923,-0.4853554089474945
-4.053,0.6116138276598051,-0.6019184314042303
-4.0525,0.6329541773751706,-0.5489352393783931
-4.052,0.5689331282290067,-0.4217755785162683
-4.0515,0.4942419042252961,-0.2946159176543747
-4.051,0.4408910299368829,-0.2098428104130352
-4.0505,0.5049120790829207,-0.2628260024388242
-4.05,0.5689331282290746,-0.3158091944647096
-4.0495,0.5262524287983441,-0.2734226408440398
-4.049,0.4622313796523064,-0.2204394488182508
-4.0485,0.3982103305059195,-0.1674562567921149
-4.048,0.142126133921769,0.1080563417419877
-4.0475,-0.1246282375200544,0.659081538810193
-4.047,-0.7541685541242038,1.114736990233116
-4.0465,-1.447729919872945,1.358459673551745
-4.046,-2.023919362187283,1.400846227172376
-4.0455,-1.842526389606562,0.987577329370133
-4.045,-1.138294849000148,0.1610395337678249
-4.0445,-0.4554036581084589,-0.5489352393783931
-4.044,0.02475421048749284,-0.9728007755852253
-4.0435,0.2808384070716433,-1.121153713257435
-4.043,0.3875401556484697,-1.078767159636765
-4.0425,0.4088805053638156,-0.9304142219645556
-4.042,0.3768699807907871,-0.7290780922662394
-4.0415,0.3341892813600565,-0.5065486857577234
-4.041,0.2915085819293648,-0.2946159176545674
-4.0405,0.2701682322139025,-0.103876426361226
-4.04,0.2061471830678648,0.04447651131098315
-4.0395,-0.2633405106697444,0.3411823866554013
-4.039,-0.9355615267047406,0.839224391698926
-4.0385,-1.554431668449771,1.263089927905238
-4.038,-1.234326422719583,1.040560521396924
-4.0375,-0.3700422592463961,0.1080563417413806
-4.037,0.291508581929326,-0.5595318777835605
-4.0365,0.6116138276598051,-0.7502713690765743
-4.036,0.6863050516635353,-0.6760949002402674
-4.0355,0.6329541773751706,-0.5277419625680583
-4.035,0.5475927785137094,-0.3581957480853793
-4.0345,0.4622313796523259,-0.2204394488183279
-4.034,0.4622313796522482,-0.1356663415768632
-4.0335,0.5796033030867573,-0.1144730647665284
-4.033,0.5796033030867573,-0.06148987274073937
-4.0325,0.5049120790829109,0.002089957690351971
-4.032,0.4302208550792003,0.04447651131098315
-4.0315,0.4622313796522191,0.1186529801470877
-4.031,0.9210488985324853,0.5107286011387838
-4.0305,0.79300680024041,0.9875773293708847
-4.03,0.06743490991865042,1.284283204715303
-4.0295,-0.8822106524162594,1.400846227172261
-4.029,-1.426389570157579,1.231300012689736
-4.0285,-1.159635198715513,0.5107286011383502
-4.028,-0.6367966306886271,-0.273422640844541
-4.0275,-0.156638762093345,-0.8244478379127463
-4.027,0.1527963087794516,-1.078767159636765
-4.0265,0.3128489316445456,-1.121153713257396
-4.026,0.3768699807907871,-1.004590690800593
-4.0255,0.3768699807907871,-0.8244478379127463
-4.025,0.3448594562177683,-0.6125150698095904
-4.0245,0.3235191065023448,-0.4005823017058756
-4.024,0.291508581929326,-0.2098428104130352
-4.0235,0.2701682322139801,-0.05089323433566831
-4.023,-0.03926683865959286,0.1716361721734164
-4.0225,-0.8715404775580819,0.6378882620003594
-4.022,-1.639793067310533,1.11473699023246
-4.0215,-1.71448429131404,1.273686566309576
-4.021,-0.6474668055467465,0.3623756634660061
-4.0205,0.291508581929326,-0.5277419625680583
-4.02,0.7503261008097669,-0.7820612842920477
-4.0195,0.8463576745288233,-0.7502713690765743
-4.019,0.7716664505250448,-0.570128516188728
-4.0185,0.6329541773752967,-0.3687923864907299
-4.018,0.5049120790829789,-0.1992461720078678
-4.0175,0.4302208550792003,-0.07208651114585861
-4.017,0.5902734779442943,0.1292496185521395
-4.0165,0.6756348768058331,0.2246193641987813
-4.016,0.6009436528021226,0.1716361721729923
-4.0155,0.4942419042253932,0.07626642652657219
-4.015,0.38754015564813,0.01268659609571216
-4.0145,0.01408403562957729,0.2670059178194992
-4.014,-0.3060212101006108,0.7650479228619156
-4.0135,-0.9675720512778176,1.157123543853698
-4.013,-1.618452717595867,1.305476481525908
-4.0125,-2.162631635337682,1.305476481525908
-4.012,-1.885207089037244,0.8498210301029852
-4.0115,-1.127624674142465,0.05507314971615059
-4.011,-0.4340633083930936,-0.6019184314042303
-4.0105,0.04609456020218849,-0.9833974139899109
-4.01,0.3021787567870086,-1.110557074852267
-4.0095,0.3982103305061524,-1.046977244421262
-4.009,0.4088805053638253,-0.8880276683438955
-4.0085,0.3768699807907483,-0.6866915386453674
-4.008,0.3341892813600565,-0.4641621321370536
-4.0075,0.3021787567870378,-0.2522293640338977
-4.007,0.2808384070715075,-0.07208651114572369
-4.0065,0.1314559590640864,0.07626642652648545
-4.006,-0.572775581542968,0.4471487707073456
-4.0055,-1.405049220442738,0.9451907757505619
-4.005,-1.981238662757077,1.326669758336243
-4.0045,-1.714484291315011,1.061753798207057
-4.004,-0.8502001278420083,0.2776025562240788
-4.0035,-0.07127736323188383,-0.3687923864905467
-4.003,0.3875401556484697,-0.6760949002404023
-4.0025,0.5689331282289096,-0.6972881770507179
-4.002,0.5902734779444399,-0.570128516188728
-4.0015,0.5369226036560266,-0.4111789401112165
-4.001,0.4729015545099891,-0.2734226408441651
-4.0005,0.5582629533715182,-0.07208651114570441
-4,0.6969752265212663,0.09745970333682032
-3.9995,0.6756348768059011,0.13984625695749
-3.999,0.5796033030867573,0.1186529801471552
-3.9985,0.4729015545099309,0.07626642652648545
-3.998,0.5369226036560266,0.2246193641988295
-3.9975,0.9637295979633325,0.6802748156210291
-3.997,0.707645401378949,1.114736990232894
-3.9965,-0.2526703358124887,1.37965295036208
-3.996,-1.277007122150022,1.464426057603419
-3.9955,-1.607782542738184,1.157123543853563
-3.995,-1.170305373573196,0.3623756634660061
-3.9945,-0.572775581542968,-0.3687923864905467
-3.994,-0.09261771294724913,-0.8350444763179138
-3.9935,0.2061471830678648,-1.01518732920576
-3.993,0.3448594562177392,-0.9939940523954253
-3.9925,0.3982103305061524,-0.8456411147230812
-3.992,0.3875401556484697,-0.6549016234300674
-3.9915,0.3448594562177392,-0.4323722169215513
-3.991,0.3021787567870086,-0.2310360872233701
-3.9905,0.2701682322139607,-0.05089323433552374
-3.99,0.2488278824985954,0.09745970333682032
-3.9895,0.08877525963335578,0.3941655786815084
-3.989,0.03542438534494258,0.8604176685088755
-3.9885,-0.5087545323968721,1.273686566310405
-3.988,-0.7328282044082075,1.199510097474233
-3.9875,-0.3380317346739499,0.5001319627331828
-3.987,0.1314559590640864,-0.1780528951975329
-3.9865,0.4515612047945656,-0.570128516188728
-3.986,0.5689331282290746,-0.6443049850249
-3.9855,0.5689331282290746,-0.5807251545938954
-3.985,0.5155822539406614,-0.4641621321370536
-3.9845,0.4622313796522482,-0.3475991096802118
-3.984,0.4515612047945656,-0.2416327256285375
-3.9835,0.4835717293676135,-0.1568596183871981
-3.983,0.4729015545099309,-0.09327978795619347
-3.9825,0.4302208550792003,-0.07208651114585861
-3.982,0.3875401556484697,-0.06148987274069118
-3.9815,0.4195506802215176,0.002089957690313421
-3.981,0.9530594231056497,0.3941655786815084
-3.9805,1.177133095116985,0.8922075837243778
-3.98,0.2808384070716433,1.25249328950007
-3.9795,-0.9035510021311299,1.400846227172415
-3.979,-1.607782542738184,1.284283204715573
-3.9785,-1.383708870726849,0.5955017083796896
-3.978,-0.7968492535543035,-0.2098428104130352
-3.9775,-0.2526703358124887,-0.7714646458869092
-3.977,0.1101156093487211,-1.036380606016095
-3.9765,0.3021787567870086,-1.068170521231597
-3.976,0.3768699807907871,-0.9516074987747555
-3.9755,0.3875401556484697,-0.7608680074817418
-3.975,0.3555296310754218,-0.5383386009732256
-3.9745,0.3021787567870086,-0.3158091944647096
-3.974,0.2701682322139607,-0.1144730647665284
-3.9735,0.2594980573562781,0.05507314971615059
-3.973,-0.03926683865883591,0.2987958330350016
-3.9725,-0.8608703027003992,0.7544512844572011
-3.972,-1.67180359188428,1.199510097474233
-3.9715,-1.959898313041711,1.347863035146577
-3.971,-1.212986073003927,0.5955017083796896
-3.9705,-0.3380317346739499,-0.2840192792492073
-3.97,0.2594980573562781,-0.7396747306714069
-3.9695,0.5475927785137094,-0.792657922697244
-3.969,0.6329541773751706,-0.6337083466197325
-3.9685,0.6009436528021226,-0.4111789401112165
-3.968,0.5262524287983441,-0.2204394488182027
-3.9675,0.4729015545099309,-0.08268314955102604
-3.967,0.5796033030867573,-0.1568596183871981
-3.9665,0.6116138276598051,-0.1674562567923655
-3.966,0.5582629533713921,-0.08268314955102604
-3.9655,0.4622313796522482,0.002089957690313421
-3.965,0.3982103305061524,0.06566978812131802
-3.9645,0.6649647019482183,0.3411823866556712
-3.964,1.059761171682476,0.8074344764830383
-3.9635,0.4302208550792003,1.178316820663898
-3.963,-0.6154562809736985,1.347863035146577
-3.9625,-1.479740444445993,1.326669758336243
-3.962,-1.479740444445993,0.775644561267536
-3.9615,-0.9462317015618604,-0.07208651114585861
-3.961,-0.3807124341046804,-0.7608680074817418
-3.9605,0.02475421048725994,-1.152943628472937
-3.96,0.2594980573562781,-1.269506650929778
-3.9595,0.3661998059331045,-1.216523458903942
-3.959,0.3875401556484697,-1.046977244421262
-3.9585,0.3661998059331045,-0.8244478379127463
-3.958,0.3341892813600565,-0.6019184314042303
-3.9575,0.291508581929326,-0.3793890248957141
-3.957,0.2701682322139607,-0.1780528951975329
-3.9565,0.1634664836371343,-0.008506680714854012
-3.956,-0.4554036581084589,0.3411823866556712
-3.9555,-1.287677297007705,0.8604176685088755
-3.955,-1.949228138184029,1.284283204715573
-3.9545,-1.799845690176472,1.00877060618122
-3.954,-0.9675720512772257,0.13984625695749
-3.9535,-0.1779791118087102,-0.4217755785163839
-3.953,0.3128489316446912,-0.6231117082145651
-3.9525,0.5369226036560266,-0.5595318777835605
-3.952,0.5796033030867573,-0.400582301706049
-3.9515,0.5369226036560266,-0.2310360872233701
-3.951,0.4835717293676135,-0.08268314955102604
-3.9505,0.5475927785137094,-0.05089323433552374
-3.95,0.7183155762366316,-0.1992461720078678
-3.9495,0.6863050516635838,-0.1568596183871981
-3.949,0.5689331282290746,-0.05089323433552374
-3.9485,0.4622313796522482,0.03387987290581572
-3.948,0.5369226036560266,0.1928294489833272
-3.9475,1.006410297394063,0.627291623595192
-3.947,0.5369226036560266,1.072350436612224
-3.9465,-0.5194247072545548,1.326669758336243
-3.946,-1.490410619303675,1.400846227172415
-3.9455,-1.799845690176472,1.135930267043229
-3.945,-1.30901764672307,0.3411823866556712
-3.9445,-0.658136980404429,-0.4535654937318862
-3.944,-0.1352984123779797,-0.9728007755850904
-3.9435,0.1954770082101822,-1.205926820498774
-3.943,0.3448594562177392,-1.216523458903942
-3.9425,0.3982103305061524,-1.089363798041932
-3.942,0.3875401556484697,-0.8986243067489184
-3.9415,0.3448594562177392,-0.6760949002404023
-3.941,0.3021787567870086,-0.4535654937318862
-3.9405,0.2701682322139607,-0.252229364033705
-3.94,0.2381577076409128,-0.07208651114585861
-3.9395,-0.2313299860971235,0.2246193641988295
-3.939,-1.084943974711735,0.7438546460520338
-3.9385,-1.778505340461106,1.210106735879401
-3.938,-1.778505340461106,1.231300012689736
-3.9375,-0.9889124009925911,0.5001319627331828
-3.937,-0.1886492866663929,-0.2098428104130352
-3.9365,0.3448594562177392,-0.5383386009732256
-3.936,0.5796033030867573,-0.570128516188728
-3.9355,0.6222840025174878,-0.4535654937318862
-3.935,0.5689331282290746,-0.2840192792492073
-3.9345,0.4942419042252961,-0.1144730647665284
-3.934,0.4835717293676135,0.002089957690313421
-3.9335,0.6436243522328531,0.02328323450064829
-3.933,0.6436243522328531,0.06566978812131802
-3.9325,0.5475927785137094,0.1186529801471552
-3.932,0.4515612047945656,0.1504428953626575
-3.9315,0.3661998059331045,0.1928294489833272
-3.931,0.5262524287983441,0.5213252395435176
-3.9305,0.6222840025174878,0.9663840525605498
-3.93,-0.124628237520297,1.25249328950007
-3.9295,-1.042263275281004,1.305476481525908
-3.929,-1.735824641030376,1.220703374284568
-3.9285,-1.554431668449771,0.6166949851900245
-3.928,-0.9355615267041777,-0.2098428104130352
-3.9275,-0.3380317346739499,-0.8350444763179138
-3.927,0.0674349099179905,-1.184733543688439
-3.9265,0.291508581929326,-1.280103289334946
-3.926,0.3875401556484697,-1.205926820498774
-3.9255,0.3982103305061524,-1.046977244421262
-3.925,0.3661998059331045,-0.8350444763179138
-3.9245,0.3235191065023739,-0.6231117082145651
-3.924,0.291508581929326,-0.4111789401112165
-3.9235,0.2808384070716433,-0.2204394488182027
-3.923,0.1101156093487211,0.04447651131098315
-3.9225,-0.1032878878049318,0.5637117931641874
-3.922,-0.5834457564006506,1.072350436612224
-3.9215,-1.084943974711735,1.241896651094903
-3.921,-0.6154562809736985,0.383568940276341
-3.9205,0.03542438534494258,-0.5065486857577234
-3.92,0.4408910299368829,-0.8244478379127463
-3.9195,0.6116138276598051,-0.7502713690765743
-3.919,0.6222840025174878,-0.5171453241628908
-3.9185,0.5689331282290746,-0.2840192792492073
-3.918,0.4942419042252961,-0.09327978795619347
-3.9175,0.4408910299368829,0.02328323450064829
-3.917,0.5155822539406614,-0.06148987274069118
-3.9165,0.5475927785137094,-0.1038764263613609
-3.916,0.5155822539406614,-0.05089323433552374
-3.9155,0.4408910299368829,0.01268659609548085
-3.915,0.3768699807907871,0.06566978812131802
-3.9145,0.0674349099179905,0.3729723018711736
-3.914,-0.3166913849585846,0.849821030103708
-3.9135,-0.8822106524157645,1.210106735879401
-3.913,-1.341028171296118,1.37965295036208
-3.9125,-1.639793067311232,1.326669758336243
-3.912,-1.30901764672307,0.7120647308365314
-3.9115,-0.7114878546928423,-0.1356663415768632
-3.911,-0.1886492866663929,-0.8032545611024114
-3.9105,0.1527963087794516,-1.174136905283272
-3.91,0.3235191065023739,-1.280103289334946
-3.9095,0.3875401556484697,-1.205926820498774
-3.909,0.3875401556484697,-1.046977244421262
-3.9085,0.3661998059331045,-0.8350444763179138
-3.908,0.3235191065023739,-0.6019184314042303
-3.9075,0.291508581929326,-0.3899856633008816
-3.907,0.2701682322139607,-0.1886495336027004
-3.9065,0.1954770082101822,-0.01910331912002144
-3.906,-0.391382608962363,0.3411823866556712
-3.9055,-1.148965023857831,0.8604176685088755
-3.905,-1.703814116457328,1.284283204715573
-3.9045,-1.405049220442214,1.029963882991555
-3.904,-0.5834457564006506,0.13984625695749
-3.9035,0.1101156093487211,-0.5277419625680583
-3.903,0.4942419042252961,-0.7714646458869092
-3.9025,0.6222840025174878,-0.718481453861072
-3.902,0.6116138276598051,-0.5277419625680583
-3.9015,0.5475927785137094,-0.3158091944647096
-3.901,0.4835717293676135,-0.1462629799820306
-3.9005,0.5689331282290746,0.06566978812131802
-3.9,0.9637295979633325,0.3517790250608387
-3.8995,1.006410297394063,0.3517790250608387
-3.899,0.8356874996711408,0.2140227257936621
-3.8985,0.6329541773751706,0.04447651131098315
-3.898,0.5796033030867573,0.03387987290581572
-3.8975,1.049090996824793,0.4365521323021782
-3.897,0.8463576745288233,0.9134008605347127
-3.8965,-0.1673089369510276,1.199510097474233
-3.896,-1.052933450138687,1.263089927905238
-3.8955,-1.127624674142465,0.7968378380778709
-3.895,-0.7328282044082075,0.01268659609548085
-3.8945,-0.274010685527854,-0.6125150698093976
-3.894,0.0674349099179905,-0.9622041371799229
-3.8935,0.2594980573562781,-1.068170521231597
-3.893,0.3448594562177392,-0.9939940523954253
-3.8925,0.3768699807907871,-0.8350444763179138
-3.892,0.3555296310754218,-0.6231117082145651
-3.8915,0.3235191065023739,-0.4111789401112165
-3.891,0.291508581929326,-0.2098428104130352
-3.8905,0.2701682322139607,-0.02969995752518888
-3.89,0.2488278824985954,0.1080563417419877
-3.8895,-0.03926683865883591,0.3411823866556712
-3.889,0.04609456020262521,0.7862411996727035
-3.8885,-0.1886492866663929,1.210106735879401
-3.888,-0.5834457564006506,1.199510097474233
-3.8875,-0.2420001609548061,0.4047622170866759
-3.887,0.1954770082101822,-0.1886495336027004
