Class_3_Grab_w_two_Hands/Class_3_Grab_with_Two_Hands_AM_2.csv

#Digilent WaveForms Oscilloscope Acquisition
#Device Name: EExplorer
#Serial Number: SN:210151A2B84A
#Date Time: 2020-10-27 14:04:24.519
#Sample rate: 2000Hz
#Samples: 16384
#Trigger: Source: Channel 1 Type: Edge Condition: Rising Level: 0 V Hyst.: Auto HoldOff: 0 s
#Channel 1: Range: 1 V/div Offset: 0 V Attenuation: 1 X
#Channel 2: Range: 1 V/div Offset: 0 V Attenuation: 1 X
#Power Supplies: ON
#Fixed Supply: ON
#Voltage: 3.3 V Readback: 3.319 V
#Positive Supply: ON
#Voltage: 3.7 V Readback: 3.718 V
#Current: 500 mA Readback: 19 mA
#Negative Supply: ON
#Voltage: -3.7 V Readback: -3.705 V
#Current: -500 mA Readback: -9 mA
#Reference 1: ON
#Voltage: 0 V
#Reference 2: ON
#Voltage: 0 V

Time (s),Channel 1 (V),Channel 2 (V)
-4.096,0.5369226036560266,-0.2416327256285375
-4.0955,0.8890383739592336,-0.04029659593053941
-4.095,0.9210488985324949,-0.2310360872236496
-4.0945,0.8036769750980928,-0.5383386009732256
-4.094,0.6542945270906717,-0.7926579226970127
-4.0935,0.5475927785136997,-1.046977244421397
-4.093,0.5369226036560266,-1.195330182093607
-4.0925,0.483571729367662,-1.195330182093607
-4.092,0.4088805053637671,-1.089363798041759
-4.0915,0.3341892813600565,-0.8986243067489184
-4.091,0.291508581929326,-0.6549016234300674
-4.0905,0.5475927785141654,-0.1038764263605706
-4.09,1.049090996824793,0.7650479228623686
-4.0895,0.5262524287983441,0.627291623595192
-4.089,-0.3380317346731638,-0.05089323433490689
-4.0885,-1.277007122150022,-0.6972881770507372
-4.088,-2.109280761049269,-1.121153713257435
-4.0875,-2.376035132491092,-1.068170521231645
-4.087,-1.671803591883552,-0.2628260024379664
-4.0865,-0.8715404775580819,0.7332580076468663
-4.086,-0.2633405106707245,1.549199164844016
-4.0855,0.1101156093488763,2.068434446698194
-4.085,0.2808384070716433,2.322753768421981
-4.0845,0.3235191065023351,2.396930237258086
-4.084,0.3235191065023448,2.343947045232191
-4.0835,0.291508581929326,2.20619074596514
-4.083,0.2808384070716433,2.036644531482461
-4.0825,0.2381577076404373,1.771728571352523
-4.082,-0.2846808603855366,0.9451907757502149
-4.0815,-0.9035510021311299,-0.2098428104130352
-4.081,-1.26633694729201,-1.19533018209271
-4.0805,-0.8928808272734472,-1.598002441489969
-4.08,-0.007256314085787988,-0.9833974139902578
-4.0795,0.7183155762359716,-0.2628260024395277
-4.079,1.059761171682486,-0.04029659593051051
-4.0785,1.070431346540159,-0.2098428104130352
-4.078,0.9103787236750648,-0.5807251545935581
-4.0775,0.7183155762364957,-0.9833974139905181
-4.077,0.5689331282290746,-1.269506650929778
-4.0765,0.5369226036560557,-1.21652345890399
-4.076,0.5155822539406032,-1.004590690800487
-4.0755,0.4515612047945656,-0.8880276683437509
-4.075,0.3768699807907871,-0.7502713690765743
-4.0745,0.3128489316447689,-0.5701285161884581
-4.074,0.3982103305061524,-0.2734226408440398
-4.0735,0.7823366253827275,0.2776025562246667
-4.073,0.3128489316451182,0.09745970333698414
-4.0725,-0.4874141826815069,-0.5489352393783931
-4.072,-1.234326422719292,-1.036380606016095
-4.0715,-2.002579012471744,-1.227120097308936
-4.071,-2.536087755356108,-1.121153713256798
-4.0705,-2.023919362187807,-0.4217755785163839
-4.07,-1.159635198716299,0.6378882619993957
-4.0695,-0.4554036581080416,1.549199164845298
-4.069,0.00341386077189465,2.142610915534135
-4.0685,0.2381577076409128,2.428720152473656
-4.068,0.3235191065023739,2.492299982904574
-4.0675,0.3235191065023739,2.396930237258153
-4.067,0.3021787567870086,2.227384022775475
-4.0665,0.3021787567870183,2.015451254671933
-4.066,0.3128489316446912,1.803518486568777
-4.0655,0.05676473506030786,1.263089927905238
-4.065,-0.6047861061154142,0.1822328105791426
-4.0645,-1.127624674142465,-0.9198175835592532
-4.064,-1.373038695869166,-1.682775548731308
-4.0635,-0.8608703027008651,-1.248313374119839
-4.063,0.0247542104878422,-0.326405832869559
-4.0625,0.6649647019482183,0.02328323450064829
-4.062,0.9423892482477148,-0.08268314955092966
-4.0615,0.9103787236747737,-0.4429688553270946
-4.061,0.7503261008096795,-0.8562377531282487
-4.0605,0.5902734779444399,-1.174136905283272
-4.06,0.5155822539407487,-1.322489842955567
-4.0595,0.6116138276598051,-1.269506650929778
-4.059,0.6009436528021226,-1.195330182093607
-4.0585,0.4942419042253932,-1.078767159636871
-4.058,0.3875401556484697,-0.8880276683437509
-4.0575,0.3341892813600565,-0.6231117082145651
-4.057,0.6756348768055905,0.03387987290521821
-4.0565,0.5369226036560266,0.4047622170866759
-4.056,-0.274010685527854,-0.1674562567923655
-4.0555,-1.170305373572381,-0.8774310299379378
-4.055,-1.9919088376154,-1.280103289335013
-4.0545,-2.696140378221814,-1.354279758171118
-4.054,-2.578768454787411,-0.9939940523957529
-4.0535,-1.629122892452773,-0.008506680713899891
-4.053,-0.7755089038389382,1.040560521396722
-4.0525,-0.1673089369510276,1.835308401784279
-4.052,0.1634664836372701,2.312157130016987
-4.0515,0.3128489316446912,2.502896621309828
-4.051,0.3448594562177392,2.524089898120163
-4.0505,0.3235191065023933,2.418123514068585
-4.05,0.3128489316446912,2.237980661180642
-4.0495,0.291508581929326,2.015451254672126
-4.049,0.1954770082102695,1.644568910491603
-4.0485,-0.4233931335359447,0.6696781772147726
-4.048,-1.010252750707956,-0.5277419625680583
-4.0475,-1.244996597576761,-1.417859588601313
-4.047,-0.8928808272727291,-1.523825972653132
-4.0465,-0.1032878878049318,-0.792657922697244
-4.046,0.5582629533707903,-0.37938902489609
-4.0455,0.8676980242442176,-0.3052125560597349
-4.045,0.8997085488172365,-0.5171453241628908
-4.0445,0.79300680024041,-0.8138511995075789
-4.044,0.6542945270904388,-1.068170521231751
-4.0435,0.5475927785137094,-1.237716735714276
-4.043,0.5475927785137094,-1.301296566145281
-4.0425,0.5262524287983635,-1.227120097309176
-4.042,0.4408910299368829,-1.068170521231597
-4.0415,0.3555296310754218,-0.8350444763179138
-4.041,0.3021787567870571,-0.5595318777838111
-4.0405,0.4942419042255096,-0.07208651114523217
-4.04,0.7289857510943143,0.6166949851900245
-4.0395,0.08877525963393806,0.2987958330352907
-4.039,-0.690147504978234,-0.4429688553272488
-4.0385,-1.522421143876723,-1.025783967610927
-4.038,-2.280003558771502,-1.290699927739872
-4.0375,-2.578768454786586,-1.163540266877353
-4.037,-1.789175515318789,-0.3370024712750445
-4.0365,-0.9355615267041777,0.701468092431364
-4.036,-0.2846808603851873,1.549199164845231
-4.0355,0.09944543449103843,2.068434446697963
-4.035,0.2808384070716433,2.322753768421981
-4.0345,0.334189281360008,2.37573696044777
-4.034,0.3341892813600565,2.301560491611646
-4.0335,0.3128489316446912,2.153207553939303
-4.033,0.3021787567870183,1.951871424241304
-4.0325,0.2808384070715851,1.686955464111251
-4.032,0.2168173579255475,0.9345941373450475
-4.0315,0.05676473506045343,-0.1992461720068366
-4.031,-0.4767440078240572,-1.216523458904568
-4.0305,-0.7328282044082075,-1.905304955239825
-4.03,-0.4233931335356924,-1.608599079895406
-4.0295,0.1421261339221669,-0.8986243067485811
-4.029,0.5796033030867573,-0.5277419625680583
-4.0285,0.7396559259519968,-0.5065486857577234
-4.028,0.718315576236554,-0.6549016234302505
-4.0275,0.6329541773751706,-0.8562377531282487
-4.027,0.5369226036560266,-0.9939940523954253
-4.0265,0.483571729367662,-1.099960436447003
-4.026,0.4302208550792003,-1.078767159636765
-4.0255,0.3661998059331045,-0.9410108603695881
-4.025,0.3128489316447398,-0.73967473067159
-4.0245,0.2701682322140577,-0.5065486857574439
-4.024,0.3768699807907871,-0.1992461720078678
-4.0235,0.9317190733897798,0.478938685922231
-4.023,0.750326100808942,0.6802748156204123
-4.0225,-0.06060718837420119,0.002089957690313421
-4.022,-0.8822106524150172,-0.6972881770501012
-4.0215,-1.735824641030949,-1.174136905283407
-4.021,-2.365364957633652,-1.322489842955616
-4.0205,-2.013249187330125,-0.792657922697244
-4.02,-1.212986073003276,0.1928294489841464
-4.0195,-0.4980843575391895,1.093543713422559
-4.019,-0.02859666380115328,1.729342017732605
-4.0185,0.2168173579253243,2.068434446697655
-4.018,0.3128489316446912,2.184997469154805
-4.0175,0.3235191065023739,2.16380419234447
-4.017,0.312848931644701,2.047241169887734
-4.0165,0.2915085819293163,1.888291593809933
-4.016,0.2808384070716433,1.686955464111935
-4.0155,0.1314559590642222,1.220703374284992
-4.015,-0.1886492866667811,0.1398462569564877
-4.0145,-0.6154562809736985,-0.9622041371799229
-4.014,-0.722158029550428,-1.629792356704864
-4.0135,-0.2099896363811759,-1.375473034980971
-4.013,0.4302208550792003,-0.8456411147230812
-4.0125,0.8143471499557753,-0.5807251545938954
-4.012,0.9210488985325436,-0.5595318777836376
-4.0115,0.857027849386506,-0.6443049850249
-4.011,0.707645401378949,-0.7608680074817418
-4.0105,0.5689331282292007,-0.951607498774582
-4.01,0.4942419042252961,-1.046977244421262
-4.0095,0.5049120790829789,-1.046977244421262
-4.009,0.4515612047946141,-1.036380606016104
-4.0085,0.3768699807907289,-0.9516074987746109
-4.008,0.3128489316446912,-0.792657922697244
-4.0075,0.2915085819293454,-0.5489352393786147
-4.007,0.643624352232989,0.09745970333750459
-4.0065,0.79300680024041,0.849821030103708
-4.006,0.142126133921769,0.5319218779486851
-4.0055,-0.7861790786974651,-0.1992461720084364
-4.005,-1.714484291315011,-0.8244478379127463
-4.0045,-2.482736881068161,-1.131750351662602
-4.004,-2.376035132490548,-0.8986243067480896
-4.0035,-1.51175096901904,0.01268659609548085
-4.003,-0.7114878546928423,0.9981739677760521
-4.0025,-0.1459685872361767,1.739938656137098
-4.002,0.1741366584948169,2.184997469154805
-4.0015,0.3021787567870086,2.365140322042651
-4.001,0.3341892813600275,2.386333598852967
-4.0005,0.3128489316446718,2.290963853206325
-4,0.291508581929326,2.1214176387238
-3.9995,0.2701682322139607,1.898888232215284
-3.999,0.1101156093487211,1.453829419198252
-3.9985,-0.5621054066852853,0.3941655786815084
-3.998,-1.191645723288561,-0.7502713690765743
-3.9975,-1.501080794161358,-1.566212526274467
-3.997,-1.234326422719292,-1.650985633515806
-3.9965,-0.4447334832507763,-1.068170521231597
-3.996,0.291508581929326,-0.6760949002404023
-3.9955,0.7183155762366316,-0.5489352393783931
-3.995,0.825017324813458,-0.6125150698093976
-3.9945,0.7716664505250448,-0.7608680074817418
-3.994,0.6436243522328531,-1.01518732920576
-3.9935,0.5262524287983441,-1.205926820498774
-3.993,0.4835717293676135,-1.333086481360783
-3.9925,0.4408910299368829,-1.237716735714276
-3.992,0.3768699807907871,-1.025783967610927
-3.9915,0.3341892813600565,-0.7608680074817418
-3.991,0.3021787567870086,-0.474758770542221
-3.9905,0.5582629533713921,-0.05089323433552374
-3.99,1.049090996824793,0.6378882620003594
-3.9895,0.4835717293676135,0.4895353243280153
-3.989,-0.5194247072545548,-0.2310360872233701
-3.9885,-1.479740444445993,-0.8880276683437509
-3.988,-2.258663209056825,-1.258910012524611
-3.9875,-2.280003558772191,-1.121153713257435
-3.987,-1.51175096901904,-0.2628260024388724
-3.9865,-0.7328282044082075,0.7226613692416989
-3.986,-0.1673089369510276,1.485619334413754
-3.9855,0.1527963087794516,1.951871424241121
-3.985,0.291508581929326,2.16380419234447
-3.9845,0.3235191065023739,2.20619074596514
-3.984,0.3235191065023739,2.153207553939303
-3.9835,0.291508581929326,2.015451254672126
-3.983,0.2808384070716433,1.814115124973944
-3.9825,0.2274875327832301,1.538602526439591
-3.982,-0.3273615598162672,0.701468092431364
-3.9815,-1.212986073003927,-0.4429688553267188
-3.981,-1.842526389607202,-1.38606967338662
-3.9805,-1.682473766741963,-1.650985633515806
-3.98,-0.754168554123573,-1.004590690800593
-3.9795,0.1527963087794516,-0.474758770542221
-3.979,0.7183155762366316,-0.2946159176543747
-3.9785,0.9103787236749192,-0.4323722169215513
-3.978,0.8463576745288233,-0.6866915386455698
-3.9775,0.707645401378949,-0.9198175835592532
-3.977,0.5796033030867573,-1.0999604364471
-3.9765,0.4408910299368829,-1.110557074852267
-3.976,0.291508581929326,-0.9939940523954253
-3.9755,0.2274875327832301,-0.9198175835592532
-3.975,0.2061471830678648,-0.8138511995075789
-3.9745,0.2168173579255475,-0.6231117082145651
-3.974,0.3448594562177392,-0.2628260024388724
-3.9735,0.8997085488172365,0.55311515475902
-3.973,0.6542945270905358,0.6590815388106942
-3.9725,-0.1886492866663929,0.002089957690313421
-3.972,-0.9569018764195432,-0.5383386009732256
-3.9715,-1.767835165603424,-0.9516074987747555
-3.971,-2.344024607918286,-1.068170521231597
-3.9705,-1.938557963326346,-0.5171453241628908
-3.97,-1.148965023857831,0.4789386859228479
-3.9695,-0.4554036581084589,1.369056311956912
-3.969,-0.007256314085787988,1.983661339456623
-3.9685,0.2274875327832301,2.312157130016814
-3.968,0.3128489316446912,2.418123514068488
-3.9675,0.3341892813600565,2.375736960447818
-3.967,0.3128489316446912,2.248577299585809
-3.9665,0.3021787567870086,2.057837808292796
-3.966,0.291508581929326,1.824711763379112
-3.9655,0.07810508477567314,1.305476481525908
-3.965,-0.4020527838200457,0.2140227257936621
-3.9645,-0.9675720512772257,-0.8986243067489184
-3.964,-1.405049220442214,-1.746355379162313
-3.9635,-1.138294849000148,-1.788741932782983
-3.963,-0.2420001609548061,-0.792657922697244
-3.9625,0.4622313796522482,-0.1568596183871981
-3.962,0.79300680024041,-0.05089323433552374
-3.9615,0.8356874996711408,-0.252229364033705
-3.961,0.7183155762366316,-0.5913217929990628
-3.9605,0.5902734779444399,-0.9622041371799229
-3.96,0.5262524287983441,-1.195330182093607
-3.9595,0.6009436528021226,-1.333086481360783
-3.959,0.5582629533713921,-1.354279758171118
-3.9585,0.4622313796522482,-1.248313374119443
-3.958,0.3661998059331045,-1.05757388282643
-3.9575,0.3235191065023739,-0.792657922697244
-3.957,0.6756348768059011,-0.1038764263613609
-3.9565,0.7396559259519968,0.5213252395435176
-3.956,-0.007256314085787988,0.06566978812131802
-3.9555,-0.7861790786966207,-0.6760949002404023
-3.955,-1.618452717595867,-1.205926820498774
-3.9545,-2.247993034199143,-1.375473034981453
-3.954,-1.970568487899394,-0.8986243067489184
-3.9535,-1.212986073003927,0.1292496185523226
-3.953,-0.5194247072545548,1.104140351827727
-3.9525,-0.03926683865883591,1.803518486568777
-3.952,0.2061471830678648,2.20619074596514
-3.9515,0.3128489316446912,2.386333598852986
-3.951,0.3235191065023739,2.396930237258153
-3.9505,0.3021787567870086,2.301560491611646
-3.95,0.2808384070716433,2.132014277128968
-3.9495,0.2701682322139607,1.941274785835954
-3.949,0.1634664836371343,1.602182356870596
-3.9485,-0.4767440078238243,0.627291623595192
-3.948,-1.127624674142465,-0.5383386009732256
-3.9475,-1.501080794161358,-1.481439419033127
-3.947,-1.479740444445993,-1.88411167842949
-3.9465,-0.6367966306890638,-1.036380606016095
-3.946,0.2381577076409128,-0.2946159176543747
-3.9455,0.7609962756673623,-0.09327978795619347
-3.945,0.9103787236749192,-0.3052125560595421
-3.9445,0.8463576745288233,-0.6654982618352349
-3.944,0.707645401378949,-0.9516074987747555
-3.9435,0.5689331282290746,-1.174136905283272
-3.943,0.3982103305061524,-1.280103289334946
-3.9425,0.2701682322139607,-1.258910012524611
-3.942,0.2274875327832301,-1.131750351662602
-3.9415,0.2168173579255475,-0.9410108603695881
-3.941,0.2274875327832301,-0.7078848154559045
-3.9405,0.4729015545099309,-0.1992461720078678
-3.94,1.049090996824793,0.6484849004055269
-3.9395,0.5902734779444399,0.5213252395435176
-3.939,-0.3700422592469978,-0.2416327256285375
-3.9385,-1.30901764672307,-0.9198175835592532
-3.938,-2.141291285622316,-1.301296566145281
-3.9375,-2.461396531352796,-1.269506650929778
-3.937,-1.746494815888059,-0.4853554089473885
-3.9365,-0.9248913518464952,0.5425185163538525
-3.936,-0.2953510352432193,1.390249588767247
-3.9355,0.09944543449103843,1.941274785835954
-3.935,0.2808384070716433,2.20619074596514
-3.9345,0.3341892813600565,2.280367214801311
-3.934,0.3341892813600565,2.237980661180642
-3.9335,0.3235191065023739,2.132014277128968
-3.933,0.3128489316446912,1.962468062646288
-3.9325,0.2808384070716433,1.718745379327438
-3.932,-0.1993194615240755,0.9769806909657173
-3.9315,-0.9142211769888124,-0.1780528951975329
-3.931,-1.415719395299897,-1.216523458903942
-3.9305,-1.607782542738184,-1.905304955239825
-3.93,-1.06360362499637,-1.42845622700729
-3.9295,-0.1673089369510276,-0.5489352393783931
-3.929,0.4835717293676135,-0.1568596183871981
-3.9285,0.79300680024041,-0.2310360872233701
-3.928,0.8143471499557753,-0.5595318777835605
-3.9275,0.707645401378949,-0.9410108603695881
-3.927,0.5902734779444399,-1.216523458903942
-3.9265,0.5475927785137094,-1.280103289334946
-3.926,0.5796033030867573,-1.216523458903942
-3.9255,0.5155822539406614,-1.110557074852267
-3.925,0.4302208550792003,-0.9516074987747555
-3.9245,0.3448594562177392,-0.7290780922662394
-3.924,0.3661998059331045,-0.4641621321370536
-3.9235,0.79300680024041,0.1504428953626575
-3.923,0.5049120790829789,0.2458126410091644
-3.9225,-0.3060212101009019,-0.3475991096802118
-3.922,-1.074273799854052,-0.8562377531282487
-3.9215,-1.863866739322568,-1.174136905283272
-3.921,-2.408045657064382,-1.205926820498774
-3.9205,-1.949228138184029,-0.6125150698093976
-3.92,-1.138294849000148,0.4047622170866759
-3.9195,-0.4447334832507763,1.305476481525908
-3.919,0.01408403562957729,1.920081509025619
-3.9185,0.2381577076409128,2.237980661180642
-3.918,0.3235191065023739,2.343947045232316
-3.9175,0.3341892813600565,2.290963853206479
-3.917,0.3128489316446912,2.153207553939303
-3.9165,0.291508581929326,1.962468062646288
-3.916,0.2808384070716433,1.718745379327438
-3.9155,0.03542438534494258,1.199510097474233
-3.915,-0.658136980404429,0.1080563417419877
-3.9145,-1.330357996438436,-0.9939940523954253
-3.914,-1.703814116457328,-1.820531847998485
-3.9135,-1.426389570157579,-1.958288147265661
-3.913,-0.4020527838200457,-0.9304142219644207
-3.9125,0.4515612047945656,-0.1462629799820306
-3.912,0.857027849386506,0.04447651131098315
-3.9115,0.9210488985326017,-0.1250697031716958
-3.911,0.8036769750980928,-0.4111789401112165
-3.9105,0.6436243522328531,-0.718481453861072
-3.91,0.5369226036560266,-0.9516074987747555
-3.9095,0.5155822539406614,-1.110557074852267
-3.909,0.4515612047945656,-1.131750351662602
-3.9085,0.3661998059331045,-1.036380606016095
-3.908,0.3128489316446912,-0.8562377531282487
-3.9075,0.2701682322139607,-0.6337083466197325
-3.907,0.3982103305061524,-0.4111789401112165
-3.9065,0.4622313796522482,-0.08268314955102604
-3.906,-0.2633405106701714,-0.4853554089473885
-3.9055,-1.138294849000148,-0.9728007755850904
-3.905,-1.949228138184029,-1.290699927740113
-3.9045,-2.621449154218035,-1.364876396576285
-3.904,-2.322684258202921,-0.9939940523954253
-3.9035,-1.405049220442214,-0.01910331912002144
-3.903,-0.6154562809736985,0.9557874141553824
-3.9025,-0.08194753808956648,1.676358825706768
-3.902,0.2168173579255475,2.07903108510313
-3.9015,0.3341892813600565,2.248577299585809
-3.901,0.3448594562177392,2.237980661180642
-3.9005,0.3235191065023739,2.1214176387238
-3.9,0.291508581929326,1.941274785835954
-3.8995,0.291508581929326,1.739938656137773
-3.899,0.2168173579255475,1.400846227172415
-3.8985,0.1634664836371343,0.55311515475902
-3.898,-0.03926683865883591,-0.5277419625680583
-3.8975,-0.5941159312583333,-1.449649503817625
-3.897,-0.9142211769888124,-1.915901593644992
-3.8965,-0.2633405106701714,-1.068170521231597
-3.896,0.4729015545099309,-0.1144730647665284
-3.8955,0.8676980242441885,0.1928294489833272
-3.895,0.942389248247967,0.002089957690313421
-3.8945,0.8356874996711408,-0.3475991096802118
-3.894,0.6756348768059011,-0.7396747306714069
-3.8935,0.5582629533713921,-1.068170521231597
-3.893,0.5475927785137094,-1.205926820498774
-3.8925,0.5369226036560266,-1.174136905283272
-3.892,0.4515612047945656,-1.01518732920576
-3.8915,0.3661998059331045,-0.792657922697244
-3.891,0.3021787567870086,-0.5383386009732256
-3.8905,0.4408910299368829,-0.1356663415768632
-3.89,0.9530594231056497,0.6590815388106942
-3.8895,0.5262524287983441,0.6378882620003594
-3.889,-0.3060212101009019,-0.08268314955102604
-3.8885,-1.191645723288561,-0.792657922697244
-3.888,-2.002579012472442,-1.258910012524611
-3.8875,-2.173301810195364,-1.248313374119443
-3.887,-1.522421143876723,-0.4853554089473885
-3.8865,-0.7755089038389382,0.4895353243280153
-3.886,-0.2099896363817582,1.284283204715573
-3.8855,0.1314559590640864,1.782325209758442
