Class_3_Grab_w_two_Hands/Class_3_Grab_with_two_hands_Basim_8.csv

#Digilent WaveForms Oscilloscope Acquisition
#Device Name: EExplorer
#Serial Number: SN:210151A2B84A
#Date Time: 2021-01-24 16:21:40.929
#Sample rate: 2000Hz
#Samples: 16384
#Trigger: Source: Channel 1 Type: Edge Condition: Rising Level: 0 V Hyst.: Auto HoldOff: 0 s
#Channel 1: Range: 1 V/div Offset: 0 V Attenuation: 1 X
#Channel 2: Range: 1 V/div Offset: 0 V Attenuation: 1 X
#Power Supplies: ON
#Fixed Supply: ON
#Voltage: 3.3 V Readback: 3.331 V
#Positive Supply: ON
#Voltage: 3.7 V Readback: 3.717 V
#Current: 40 mA Readback: 21 mA
#Negative Supply: ON
#Voltage: -3.7 V Readback: -3.348 V
#Current: -40 mA Readback: -6 mA
#Reference 1: ON
#Voltage: 0 V
#Reference 2: ON
#Voltage: 0 V

Time (s),Channel 1 (V),Channel 2 (V)
-4.096,-0.6261264558313813,-1.407262950196955
-4.0955,-0.316691384958866,-1.015187329206117
-4.095,0.08877525963358869,-0.5065486857573958
-4.0945,0.3448594562177392,-0.1462629799820306
-4.094,0.4622313796521414,0.002089957690178501
-4.0935,0.46223137965219,0.08686306493169144
-4.093,0.3982103305061524,0.1292496185523226
-4.0925,0.3341892813601148,0.1504428953626382
-4.092,0.4408910299369218,0.3517790250609447
-4.0915,0.4835717293676135,0.4683420475176805
-4.091,0.4195506802215176,0.4259554938970107
-4.0905,0.3235191065023156,0.3517790250608002
-4.09,0.2594980573562781,0.309392471440169
-4.0895,0.1634664836371343,0.3305857482505039
-4.089,-0.1673089369507268,0.6696781772155532
-4.0885,-0.6154562809736985,0.5107286011383502
-4.088,-1.148965023857831,-0.1992461720078678
-4.0875,-1.586442193022421,-0.3052125560594457
-4.087,-1.511750969018565,0.05507314971632406
-4.0865,-0.9889124009925911,0.2458126410091644
-4.086,-0.4554036581089441,0.3305857482504267
-4.0855,-0.07127736323168973,0.3835689402763989
-4.085,0.142126133921769,0.4471487707073456
-4.0845,0.2381577076408254,0.5213252395434501
-4.084,0.2594980573562684,0.6060983467849341
-4.0835,0.2488278824985954,0.6908714540261965
-4.083,0.2274875327832301,0.775644561267536
-4.0825,0.2061471830678551,0.8392243916985791
-4.082,0.1954770082101822,0.8816109453192104
-4.0815,0.1954770082101822,0.92399749893988
-4.081,0.1848068333525093,0.8604176685089333
-4.0805,0.1314559590640864,0.3941655786815084
-4.08,-0.2846808603855366,-0.252229364033705
-4.0795,-0.7008176798347813,-0.6760949002400167
-4.079,-0.4127229586772916,-0.3052125560591373
-4.0785,0.0674349099179905,0.13984625695749
-4.078,0.3768699807905057,0.3941655786812771
-4.0775,0.4942419042252864,0.5531151547590778
-4.077,0.4835717293676135,0.6166949851900245
-4.0765,0.408880505363903,0.5743084315693934
-4.076,0.3235191065023544,0.4895353243280153
-4.0755,0.3021787567870086,0.4895353243280153
-4.075,0.3021787567870086,0.5107286011383502
-4.0745,0.2701682322139316,0.4047622170865409
-4.074,0.2381577076409128,0.2564092794143318
-4.0735,0.2061471830678648,0.1292496185523226
-4.073,0.184806833352519,0.06566978812137585
-4.0725,-0.1352984123779797,-0.1250697031716958
-4.072,-0.754168554123573,-0.6654982618352349
-4.0715,-1.191645723288163,-1.21652345890344
-4.071,-1.383708870726723,-1.640388995110455
-4.0705,-1.244996597576974,-1.439052865412457
-4.07,-0.786179078697038,-0.7502713690772007
-4.0695,-0.3273615598159858,-0.1250697031713006
-4.069,-0.01792648894347063,0.309392471440169
-4.0685,0.1634664836371343,0.5637117931641874
-4.068,0.2381577076409225,0.6802748156210484
-4.0675,0.2488278824985954,0.701468092431364
-4.067,0.2381577076409128,0.6908714540261965
-4.0665,0.2168173579255378,0.6590815388106557
-4.066,0.2061471830678648,0.6166949851900245
-4.0655,0.1954770082101822,0.5637117931641874
-4.065,0.1954770082101822,0.5213252395435561
-4.0645,0.2061471830678648,0.4365521323021782
-4.064,0.1848068333524996,-0.06148987274069118
-4.0635,-0.1246282375200156,-0.73967473067079
-4.063,-0.7648387289812749,-1.301296566145078
-4.0625,-0.7861790786966207,-1.078767159636765
-4.062,-0.2953510352436657,-0.6443049850252951
-4.0615,0.1527963087796942,-0.2522293640334255
-4.061,0.4195506802215176,0.05507314971615059
-4.0605,0.5155822539406614,0.2034260873884947
-4.06,0.4835717293675358,0.2034260873884947
-4.0595,0.3982103305061524,0.2034260873884947
-4.059,0.3661998059331045,0.2352160026039969
-4.0585,0.4835717293675068,0.3941655786813639
-4.058,0.4622313796522482,0.4259554938970107
-4.0575,0.3768699807907871,0.383568940276341
-4.057,0.2915085819294037,0.3517790250608676
-4.0565,0.2274875327832301,0.3517790250608387
-4.056,0.1848068333524996,0.5001319627331828
-4.0555,-0.1886492866660532,0.9345941373446524
-4.055,-0.8608703027010008,0.6908714540254448
-4.0545,-1.522421143876723,-0.1356663415768632
-4.054,-1.725154466172509,-0.6972881770502264
-4.0535,-1.212986073003403,-0.5383386009728305
-4.053,-0.6367966306890638,-0.1038764263613609
-4.0525,-0.1779791118087102,0.3199891098453364
-4.052,0.09944543449115488,0.6272916235953558
-4.0515,0.2274875327832301,0.8074344764830383
-4.051,0.2594980573562781,0.9134008605347127
-4.0505,0.2594980573562781,0.9451907757501861
-4.05,0.2381577076409128,0.9451907757502149
-4.0495,0.2168173579255475,0.9134008605347127
-4.049,0.1954770082102016,0.8498210301037659
-4.0485,0.1954770082101919,0.7756445612674685
-4.048,0.2061471830678648,0.701468092431364
-4.0475,0.09944543449113548,0.3305857482508412
-4.047,-0.2313299860975505,-0.4217755785170296
-4.0465,-0.7008176798351597,-1.131750351662602
-4.046,-0.7648387289811973,-1.629792356705018
-4.0455,-0.3166913849581867,-1.417859588601554
-4.045,0.1207857842064037,-0.792657922697244
-4.0445,0.3982103305061524,-0.2628260024388724
-4.044,0.5049120790829692,0.04447651131111808
-4.0435,0.4942419042252961,0.1928294489833272
-4.043,0.4195506802215176,0.2034260873884947
-4.0425,0.3448594562178071,0.1610395337678635
-4.042,0.3128489316446912,0.13984625695749
-4.0415,0.2808384070716433,0.1080563417419877
-4.041,0.2381577076409516,0.08686306493167216
-4.0405,0.2168173579255281,0.07626642652649508
-4.04,0.1954770082101822,0.08686306493165288
-4.0395,0.1314559590641446,0.1186529801471263
-4.039,-0.3273615598168495,-0.07208651114635976
-4.0385,-0.9675720512772257,-0.6231117082145651
-4.038,-1.341028171295779,-1.131750351662139
-4.0375,-1.597112367880239,-1.513229334248331
-4.037,-1.30901764672307,-1.184733543688439
-4.0365,-0.7648387289812555,-0.5065486857577234
-4.036,-0.2953510352429282,0.1080563417423732
-4.0355,0.02475421048725994,0.5319218779486851
-4.035,0.1954770082101822,0.775644561267536
-4.0345,0.2594980573562198,0.881610945319114
-4.034,0.2594980573562781,0.9028042221295453
-4.0335,0.2488278824985954,0.8922075837243778
-4.033,0.2274875327832495,0.8498210301037465
-4.0325,0.2061471830678551,0.7862411996726359
-4.032,0.1954770082101822,0.7120647308365314
-4.0315,0.1954770082101822,0.6378882620004269
-4.031,0.2061471830677678,0.5001319627327202
-4.0305,0.09944543449103843,-0.008506680714854012
-4.03,-0.3593720843888979,-0.7184814538604263
-4.0295,-0.6901475049771374,-1.174136905282896
-4.029,-0.3166913849585846,-0.7608680074817418
-4.0285,0.1848068333524996,-0.3581957480853793
-4.028,0.4515612047946529,-0.1356663415767765
-4.0275,0.5475927785137094,-0.04029659593035631
-4.027,0.5155822539406614,0.03387987290581572
-4.0265,0.430220855079278,0.09745970333676249
-4.026,0.3341892813600565,0.1186529801471552
-4.0255,0.3661998059331045,0.2034260873884947
-4.025,0.4729015545098338,0.341182386655546
-4.0245,0.4408910299368053,0.3305857482504557
-4.024,0.3555296310754218,0.2776025562246667
-4.0235,0.2808384070717113,0.256409279414351
-4.023,0.2061471830674766,0.2776025562246859
-4.0225,-0.2206598112394408,0.2987958330350016
-4.022,-0.9142211769881816,-0.2204394488177304
-4.0215,-1.42638957015787,-0.8880276683442135
-4.021,-1.746494815888059,-1.396666311791788
-4.0205,-1.650463242168915,-1.38606967338662
-4.02,-1.063603624995855,-0.7396747306707708
-4.0195,-0.4980843575391895,-0.04029659593035631
-4.019,-0.08194753808956648,0.4789386859228479
-4.0185,0.1421261339215652,0.7968378380775818
-4.018,0.2488278824985954,0.9345941373450475
-4.0175,0.2701682322139607,0.9663840525605498
-4.017,0.2594980573562878,0.9451907757502342
-4.0165,0.2381577076408934,0.8816109453191429
-4.016,0.2168173579255475,0.8074344764830383
-4.0155,0.2061471830678746,0.7120647308366181
-4.015,0.2061471830678746,0.6060983467847222
-4.0145,0.2168173579255475,0.457745409112513
-4.014,-0.06060718837394888,-0.04029659592990331
-4.0135,-0.5407650569703082,-0.7502713690771237
-4.013,-0.9675720512772257,-1.354279758171118
-4.0125,-0.8288597781273515,-1.492036057438295
-4.012,-0.2846808603850902,-1.142346990067355
-4.0115,0.2061471830678648,-0.6866915386455698
-4.011,0.4729015545099309,-0.2204394488182027
-4.0105,0.5369226036559684,0.07626642652621562
-4.01,0.4942419042252961,0.2140227257936621
-4.0095,0.408880505363835,0.2034260873884947
-4.009,0.3555296310754703,0.182232810578179
-4.0085,0.4515612047945461,0.277602556224657
-4.008,0.4302208550792003,0.2670059178194992
-4.0075,0.3555296310754897,0.2034260873885525
-4.007,0.2808384070715948,0.1716361721729827
-4.0065,0.2274875327832301,0.1610395337678249
-4.006,0.08877525963335578,0.1610395337678249
-4.0055,-0.4660738329667917,-0.1144730647670584
-4.005,-1.180975548430879,-0.6972881770507372
-4.0045,-1.83185621474952,-1.174136905283272
-4.004,-2.215982509625551,-1.057573882825996
-4.0035,-1.618452717595867,-0.5807251545938954
-4.003,-0.8715404775580819,-0.01910331912002144
-4.0025,-0.3060212101014163,0.4365521323017638
-4.002,0.04609456020262521,0.7226613692416989
-4.0015,0.2274875327832301,0.8710143069140429
-4.001,0.2808384070715948,0.9239974989398319
-4.0005,0.2808384070716239,0.9239974989398512
-4,0.2594980573562781,0.8922075837243778
-3.9995,0.2381577076409128,0.8392243916985406
-3.999,0.2168173579255475,0.7650479228623686
-3.9985,0.2061471830678648,0.6908714540261965
-3.998,0.2061471830678648,0.6166949851900245
-3.9975,0.291508581929326,0.2352160026039969
-3.997,0.2594980573562781,-0.4853554089473885
-3.9965,-0.124628237520297,-1.0999604364471
-3.996,-0.274010685527854,-1.237716735714276
-3.9955,0.09944543449103843,-0.6019184314042303
-3.995,0.4622313796522482,-0.2840192792492073
-3.9945,0.6116138276598051,-0.09327978795619347
-3.994,0.5902734779444399,0.01268659609548085
-3.9935,0.5049120790829789,0.04447651131098315
-3.993,0.408880505363835,0.04447651131098315
-3.9925,0.3235191065023739,0.05507314971615059
-3.992,0.3448594562177392,0.1928294489833272
-3.9915,0.3448594562177392,0.2670059178194992
-3.991,0.3128489316446912,0.2564092794143318
-3.9905,0.2701682322139607,0.2246193641988295
-3.99,0.2274875327832301,0.2034260873884947
-3.9895,0.1634664836371343,0.2246193641988295
-3.989,-0.3273615598162672,-0.05089323433552374
-3.9885,-0.8715404775580819,-0.6654982618352349
-3.988,-1.084943974711735,-1.195330182093607
-3.9875,-1.277007122150022,-1.545019249464132
-3.987,-1.1062843244271,-1.195330182093607
-3.9865,-0.658136980404429,-0.4959520473525559
-3.986,-0.2526703358124887,0.1292496185523226
-3.9855,0.03542438534494258,0.55311515475902
-3.985,0.1848068333524996,0.7968378380778709
-3.9845,0.2488278824985954,0.8922075837243778
-3.984,0.2594980573562781,0.9028042221295453
-3.9835,0.2488278824985954,0.8710143069140429
-3.983,0.2274875327832301,0.8180311148882058
-3.9825,0.2061471830678648,0.7438546460520338
-3.982,0.2061471830678648,0.6590815388106942
-3.9815,0.2061471830678648,0.5743084315693548
-3.981,0.3235191065023739,0.3729723018711736
-3.9805,0.7609962756673623,-0.2416327256285375
-3.98,0.5582629533713921,-0.9516074987747555
-3.9795,-0.1139580626626144,-1.523825972653797
-3.979,-0.2846808603855366,-1.650985633515806
-3.9785,-0.03926683865883591,-1.152943628472937
-3.978,0.2381577076409128,-0.6125150698093976
-3.9775,0.408880505363835,-0.2310360872233701
-3.977,0.4729015545099309,0.02328323450064829
-3.9765,0.4515612047945656,0.1610395337678249
-3.976,0.3875401556484697,0.1822328105781598
-3.9755,0.3661998059331045,0.2352160026039969
-3.975,0.408880505363835,0.383568940276341
-3.9745,0.3661998059331045,0.3623756634660061
-3.974,0.3021787567870086,0.2881991946298341
-3.9735,0.2488278824985954,0.2458126410091644
-3.973,0.2061471830678648,0.2352160026039969
-3.9725,-0.007256314085787988,0.1716361721729923
-3.972,-0.5834457564006506,-0.2416327256285375
-3.9715,-1.074273799854052,-0.8562377531282487
-3.971,-1.543761493592088,-1.38606967338662
-3.9705,-1.543761493592088,-1.354279758171118
-3.97,-1.020922925565639,-0.718481453861072
-3.9695,-0.4874141826815069,-0.06148987274069118
-3.969,-0.09261771294724913,0.4259554938970107
-3.9685,0.142126133921769,0.7226613692416989
-3.968,0.2381577076409128,0.8604176685088755
-3.9675,0.2701682322139607,0.9028042221295453
-3.967,0.2594980573562781,0.8816109453192104
-3.9665,0.2381577076409128,0.8392243916985406
-3.966,0.2168173579255475,0.775644561267536
-3.9655,0.2061471830678648,0.701468092431364
-3.965,0.2061471830678648,0.6060983467848571
-3.9645,0.1848068333524996,0.5107286011383502
-3.964,-0.156638762093345,0.03387987290581572
-3.9635,-0.7434983792658902,-0.6866915386455698
-3.963,-1.223656247861609,-1.258910012524611
-3.9625,-1.052933450138687,-1.089363798041932
-3.962,-0.3380317346739499,-0.5065486857577234
-3.9615,0.2594980573562781,-0.1674562567923655
-3.961,0.5796033030867573,-0.04029659593035631
-3.9605,0.6649647019482183,0.002089957690313421
-3.96,0.5902734779444399,0.002089957690313421
-3.9595,0.4622313796522482,-0.008506680714854012
-3.959,0.3768699807907871,0.02328323450064829
-3.9585,0.3982103305061524,0.1292496185523226
-3.958,0.3555296310754218,0.1610395337678249
-3.9575,0.291508581929326,0.1716361721729923
-3.957,0.2488278824985954,0.2034260873884947
-3.9565,0.2061471830678648,0.2458126410091644
-3.956,0.09944543449103843,0.2352160026039969
-3.9555,-0.4127229586777283,-0.2310360872233701
-3.955,-1.010252750707956,-0.8668343915334161
-3.9545,-1.458400094730627,-1.280103289334946
-3.954,-1.693143941599645,-0.8986243067489184
-3.9535,-1.277007122150022,-0.2204394488182027
-3.953,-0.7008176798351597,0.3411823866556712
-3.9525,-0.2313299860971235,0.7120647308365314
-3.952,0.0674349099179905,0.9134008605347127
-3.9515,0.2168173579255475,0.9875773293708847
-3.951,0.2701682322139607,0.9875773293708847
-3.9505,0.2701682322139607,0.9557874141553824
-3.95,0.2488278824985954,0.8922075837243778
-3.9495,0.2274875327832301,0.8074344764830383
-3.949,0.2061471830678648,0.7120647308365314
-3.9485,0.2061471830678648,0.6166949851900245
-3.948,0.2168173579255475,0.5107286011383502
-3.9475,0.09944543449103843,0.1822328105781598
-3.947,-0.4127229586777283,-0.5277419625680583
-3.9465,-1.074273799854052,-1.184733543688439
-3.946,-1.351698346153801,-1.354279758171118
-3.9455,-0.7968492535543035,-0.7714646458869092
-3.945,-0.1459685872356623,-0.3475991096802118
-3.9445,0.291508581929326,-0.07208651114585861
-3.944,0.5049120790829789,0.06566978812131802
-3.9435,0.5369226036560266,0.1292496185523226
-3.943,0.4729015545099309,0.1186529801471552
-3.9425,0.3768699807907871,0.08686306493165288
-3.942,0.3341892813600565,0.1186529801471552
-3.9415,0.3021787567870086,0.1186529801471552
-3.941,0.2701682322139607,0.1186529801471552
-3.9405,0.2381577076409128,0.13984625695749
-3.94,0.2168173579255475,0.1716361721729923
-3.9395,0.1527963087794516,0.2564092794143318
-3.939,-0.3273615598162672,0.5213252395435176
-3.9385,-0.9782422261349084,0.309392471440169
-3.938,-1.30901764672307,-0.3687923864905467
-3.9375,-1.607782542738184,-1.01518732920576
-3.937,-1.394379045584531,-1.025783967610927
-3.9365,-0.839529952985034,-0.5277419625680583
-3.936,-0.3380317346739499,0.02328323450064829
-3.9355,0.00341386077189465,0.4471487707073456
-3.935,0.1848068333524996,0.7120647308365314
-3.9345,0.2594980573562781,0.8392243916985406
-3.934,0.2808384070716433,0.8816109453192104
-3.9335,0.2594980573562781,0.8710143069140429
-3.933,0.2381577076409128,0.8286277532933731
-3.9325,0.2168173579255475,0.7650479228623686
-3.932,0.2061471830678648,0.6908714540261965
-3.9315,0.2168173579255475,0.6060983467848571
-3.931,0.2061471830678648,0.4683420475176805
-3.9305,0.2168173579255475,-0.08268314955102604
-3.93,-0.007256314085787988,-0.8032545611024114
-3.9295,-0.3593720843893152,-1.290699927740113
-3.929,-0.156638762093345,-0.8562377531282487
-3.9285,0.2701682322139607,-0.326405832869877
-3.928,0.5155822539406614,-0.06148987274069118
-3.9275,0.5902734779444399,-0.008506680714854012
-3.927,0.5582629533713921,-0.06148987274069118
-3.9265,0.4835717293676135,-0.08268314955102604
-3.926,0.3982103305061524,-0.08268314955102604
-3.9255,0.3661998059331045,0.04447651131098315
-3.925,0.3982103305061524,0.2352160026039969
-3.9245,0.3555296310754218,0.2881991946298341
-3.924,0.3021787567870086,0.2776025562246667
-3.9235,0.2488278824985954,0.2670059178194992
-3.923,0.2168173579255475,0.2881991946298341
-3.9225,-0.06060718837420119,0.2881991946298341
-3.922,-0.690147504977477,-0.1038764263613609
-3.9215,-1.277007122150022,-0.7502713690765743
-3.921,-1.67180359188428,-1.269506650929778
-3.9205,-1.661133417026597,-1.311893204550448
-3.92,-1.095614149569417,-0.718481453861072
-3.9195,-0.5300948821122373,-0.06148987274069118
-3.919,-0.1032878878049318,0.457745409112513
-3.9185,0.142126133921769,0.7650479228623686
-3.918,0.2488278824985954,0.9028042221295453
-3.9175,0.2808384070716433,0.9345941373450475
-3.917,0.2701682322139607,0.9134008605347127
-3.9165,0.2488278824985954,0.849821030103708
-3.916,0.2274875327832301,0.7650479228623686
-3.9155,0.2168173579255475,0.6696781772158616
-3.915,0.2061471830678648,0.5743084315693548
-3.9145,0.2274875327832301,0.4153588554918433
-3.914,0.3555296310754218,-0.07208651114585861
-3.9135,0.6009436528021226,-0.7396747306714069
-3.913,0.09944543449103843,-1.333086481360783
-3.9125,-0.156638762093345,-1.205926820498774
-3.912,0.1101156093487211,-0.6443049850249
-3.9115,0.3768699807907871,-0.2416327256285375
-3.911,0.5155822539406614,0.02328323450064829
-3.9105,0.5262524287983441,0.09745970333682032
-3.91,0.4515612047945656,0.06566978812131802
-3.9095,0.3661998059331045,0.03387987290581572
-3.909,0.3235191065023739,0.04447651131098315
-3.9085,0.408880505363835,0.2140227257936621
-3.908,0.408880505363835,0.2776025562246667
-3.9075,0.3448594562177392,0.2776025562246667
-3.907,0.2808384070716433,0.2776025562246667
-3.9065,0.2381577076409128,0.2987958330350016
-3.906,0.09944543449103843,0.4153588554918433
-3.9055,-0.4340633083930936,0.7120647308365314
-3.905,-1.095614149569417,0.3411823866556712
-3.9045,-1.661133417026597,-0.4111789401112165
-3.904,-2.002579012472442,-0.9410108603695881
-3.9035,-1.46907026958831,-0.7502713690765743
-3.903,-0.7968492535543035,-0.2204394488182027
-3.9025,-0.2633405106701714,0.2987958330350016
-3.902,0.0674349099179905,0.6484849004055269
-3.9015,0.2274875327832301,0.849821030103708
-3.901,0.2808384070716433,0.92399749893988
-3.9005,0.2808384070716433,0.92399749893988
-3.9,0.2594980573562781,0.8710143069140429
-3.8995,0.2381577076409128,0.7968378380778709
-3.899,0.2168173579255475,0.701468092431364
-3.8985,0.2061471830678648,0.6166949851900245
-3.898,0.2274875327832301,0.5001319627331828
-3.8975,0.5689331282290746,0.03387987290581572
-3.897,1.070431346540159,-0.6972881770507372
-3.8965,0.7503261008096795,-1.34368311976595
-3.896,0.2274875327832301,-1.831128486403653
-3.8955,0.2594980573562781,-1.608599079895136
-3.895,0.4515612047945656,-0.9622041371799229
-3.8945,0.5582629533713921,-0.4641621321370536
-3.894,0.5369226036560266,-0.1356663415768632
-3.8935,0.4729015545099309,0.06566978812131802
-3.893,0.3982103305061524,0.13984625695749
-3.8925,0.3235191065023739,0.1186529801471552
-3.892,0.3341892813600565,0.2140227257936621
-3.8915,0.3448594562177392,0.2458126410091644
-3.891,0.3128489316446912,0.1822328105781598
-3.8905,0.2701682322139607,0.1186529801471552
-3.89,0.2274875327832301,0.09745970333682032
-3.8895,0.1634664836371343,0.08686306493165288
-3.889,-0.2846808603855366,-0.1992461720078678
-3.8885,-0.9675720512772257,-0.8032545611024114
-3.888,-1.319687821580753,-1.322489842955616
-3.8875,-1.46907026958831,-1.152943628472937
-3.887,-1.298347471865388,-0.4641621321370536
-3.8865,-0.7968492535543035,0.01268659609548085
