Class_3_Grab_w_two_Hands/Class_3_Grab_with_Both_hands_Turki_3.csv

#Digilent WaveForms Oscilloscope Acquisition
#Device Name: EExplorer
#Serial Number: SN:210151A2B84A
#Date Time: 2020-11-04 11:26:19.240
#Sample rate: 2000Hz
#Samples: 16384
#Trigger: Source: Channel 1 Type: Edge Condition: Rising Level: 0 V Hyst.: Auto HoldOff: 0 s
#Channel 1: Range: 1 V/div Offset: 0 V Attenuation: 1 X
#Channel 2: Range: 1 V/div Offset: 0 V Attenuation: 1 X
#Power Supplies: ON
#Fixed Supply: ON
#Voltage: 3.3 V Readback: 3.325 V
#Positive Supply: ON
#Voltage: 3.7 V Readback: 3.717 V
#Current: 500 mA Readback: 20 mA
#Negative Supply: ON
#Voltage: -3.7 V Readback: -3.703 V
#Current: -500 mA Readback: -9 mA
#Reference 1: ON
#Voltage: 0 V
#Reference 2: ON
#Voltage: 0 V

Time (s),Channel 1 (V),Channel 2 (V)
-4.096,-0.3273615598162672,-1.290699927740113
-4.0955,-1.24499659757614,-1.364876396576218
-4.095,-1.479740444445585,-1.22712009730882
-4.0945,-1.031593100423322,-0.9092209451540858
-4.094,-0.4554036581089829,-0.4111789401116694
-4.0935,0.003413860772156671,0.3623756634667771
-4.093,0.291508581929326,1.210106735879401
-4.0925,0.4195506802214012,1.856501678594026
-4.092,0.4622313796522288,2.20619074596513
-4.0915,0.4408910299368829,2.195594107559972
-4.091,0.408880505363835,2.004854616266958
-4.0905,0.3875401556484503,1.771728571353169
-4.09,0.3661998059331045,1.655165548896433
-4.0895,0.3341892813600565,1.167720182258731
-4.089,0.01408403562986843,0.2246193641996872
-4.0885,-0.7968492535543035,-0.7078848154559045
-4.088,-1.597112367880501,-1.417859588602123
-4.0875,-1.981238662756727,-1.788741932782645
-4.087,-1.501080794160562,-1.513229334248109
-4.0865,-0.6261264558313813,-0.9410108603695881
-4.086,0.08877525963270561,-0.5171453241632764
-4.0855,0.5049120790831342,-0.2628260024386893
-4.085,0.6756348768059011,-0.06148987274069118
-4.0845,0.70764540137892,0.01268659609541339
-4.084,0.6649647019481989,0.03387987290573862
-4.0835,0.6436243522328531,-0.05089323433552374
-4.083,0.7503261008096795,-0.1462629799820306
-4.0825,0.7503261008096407,-0.008506680714757636
-4.082,0.707645401378949,0.09745970333682032
-4.0815,0.6329541773751706,0.2458126410091644
-4.081,0.6116138276598245,0.319989109845269
-4.0805,1.006410297394063,-0.1144730647665284
-4.08,1.294505018551494,-0.7502713690765743
-4.0795,0.504912079083697,-1.216523458903517
-4.079,-0.5834457564012425,-1.3224898429555
-4.0785,-1.234326422719292,-1.195330182093607
-4.078,-1.084943974711871,-0.9198175835595038
-4.0775,-0.5941159312579063,-0.506548685757097
-4.077,-0.124628237520297,0.1822328105781598
-4.0765,0.195477008209891,1.061753798206257
-4.076,0.3661998059331627,1.814115124974349
-4.0755,0.4302208550792003,2.259173937990977
-4.075,0.4408910299368829,2.407526875663321
-4.0745,0.4088805053638059,2.227384022775321
-4.074,0.3768699807907871,2.057837808292796
-4.0735,0.3555296310754218,1.591585718465428
-4.073,0.334189281360076,0.6166949851909111
-4.0725,0.1101156093487211,-0.3793890248957141
-4.072,-0.5834457564006506,-1.163540266878104
-4.0715,-1.330357996437756,-1.756952017566941
-4.071,-1.949228138184233,-1.990078062481144
-4.0705,-2.173301810195364,-1.968884785670829
-4.07,-1.309017646723856,-1.354279758171677
-4.0695,-0.3807124341040884,-0.5489352393779979
-4.069,0.2701682322139607,-0.1144730647665284
-4.0685,0.6009436528021226,0.04447651131098315
-4.068,0.7183155762366316,-0.02969995752523706
-4.0675,0.7183155762366316,-0.08268314955102604
-4.067,0.6649647019482183,-0.1780528951975329
-4.0665,0.8250173248138365,-0.4005823017064731
-4.066,1.241154144263081,-0.8668343915334161
-4.0655,1.326515543124542,-0.8774310299385835
-4.065,1.145122570544102,-0.3052125560600626
-4.0645,0.8997085488172365,0.1716361721729923
-4.064,1.017080472251745,0.1504428953626575
-4.0635,1.155792745401494,-0.4111789401107057
-4.063,0.2701682322129708,-1.025783967611313
-4.0625,-0.8181896032696687,-1.449649503817625
-4.062,-1.629122892452812,-1.629792356705307
-4.0615,-1.586442193022276,-1.566212526274216
-4.061,-0.9889124009925911,-1.290699927740113
-4.0605,-0.3700422592469978,-0.8350444763179138
-4.06,0.07810508477590605,-0.09327978795544174
-4.0595,0.3341892813600565,0.7332580076468663
-4.059,0.4408910299368829,1.369056311956912
-4.0585,0.4622313796522288,1.708148740921962
-4.058,0.4302208550792003,1.761131932948107
-4.0575,0.3982103305061524,1.528005888034424
-4.057,0.3555296310754606,0.8498210301043249
-4.0565,0.3235191065023739,-0.04029659593035631
-4.056,0.2701682322139607,-0.8032545611024114
-4.0555,-0.2313299860966673,-1.396666311791248
-4.055,-1.063603624996991,-1.852321763214093
-4.0545,-1.746494815888059,-1.968884785670829
-4.054,-1.810515865034096,-1.746355379162515
-4.0535,-1.159635198714747,-1.025783967610282
-4.053,-0.3166913849585846,-0.3158091944647096
-4.0525,0.291508581929326,0.1080563417419877
-4.052,0.6116138276598925,0.2670059178195185
-4.0515,0.707645401378949,0.2881991946298341
-4.051,0.6969752265212663,0.2564092794143318
-4.0505,0.6436243522329016,0.2034260873885428
-4.05,0.6542945270905358,0.03387987290581572
-4.0495,0.7396559259519968,-0.008506680714854012
-4.049,0.6969752265213052,0.1928294489831441
-4.0485,0.6009436528020741,0.510728601138514
-4.048,0.5475927785137094,0.6908714540261965
-4.0475,0.6756348768057846,0.5849050699746186
-4.047,1.241154144262838,-0.05089323433618874
-4.0465,0.974399772821015,-0.7820612842920766
-4.046,-0.1139580626616246,-1.258910012524177
-4.0455,-1.191645723289143,-1.396666311791701
-4.045,-1.83185621474952,-1.301296566145281
-4.0445,-1.543761493592088,-1.078767159636765
-4.044,-0.8608703026998461,-0.8032545611020645
-4.0435,-0.2526703358124887,-0.4217755785163839
-4.043,0.1527963087794516,0.2140227257936621
-4.0425,0.3661998059329103,1.04056052139597
-4.042,0.4515612047945656,1.70814874092227
-4.0415,0.4515612047945656,1.898888232215284
-4.041,0.4088805053638738,1.29487984312129
-4.0405,0.3661998059330657,0.4259554938966445
-4.04,0.3235191065023739,0.02328323450064829
-4.0395,0.2808384070716821,-0.3793890248953479
-4.039,-0.02859666380183259,-0.9410108603700604
-4.0385,-0.7755089038389382,-1.460246142222792
-4.038,-1.447729919872333,-1.852321763213631
-4.0375,-1.799845690176161,-1.947691508860157
-4.037,-1.458400094730627,-1.576809164679634
-4.0365,-0.6047861061160158,-0.8350444763179138
-4.036,0.1421261339221377,-0.2204394488178943
-4.0355,0.5475927785137094,0.1186529801471552
-4.035,0.707645401378949,0.1928294489833272
-4.0345,0.707645401378949,0.1186529801472226
-4.034,0.6649647019482183,0.1080563417419877
-4.0335,0.6222840025174878,0.1080563417419877
-4.033,0.7183155762365442,-0.0296999575250636
-4.0325,0.7183155762365636,0.09745970333694561
-4.032,0.6436243522328531,0.2352160026039969
-4.0315,0.5582629533714697,0.3411823866555749
-4.031,0.5369226036564536,0.4683420475172854
-4.0305,1.006410297394063,0.03387987290581572
-4.03,1.027750647109409,-0.6337083466191253
-4.0295,0.09944543449013592,-1.131750351662718
-4.029,-0.8928808272734472,-1.258910012524611
-4.0285,-1.650463242168915,-1.152943628472937
-4.028,-1.607782542737641,-0.9198175835589834
-4.0275,-1.010252750707956,-0.6231117082145651
-4.027,-0.3807124341046804,-0.1674562567923655
-4.0265,0.06743490991758294,0.6060983467841535
-4.026,0.3235191065023739,1.443232780793084
-4.0255,0.4302208550792003,2.057837808292796
-4.025,0.4515612047945461,2.354543683637214
-4.0245,0.4302208550791615,2.322753768421856
-4.024,0.3875401556484697,2.184997469154805
-4.0235,0.344859456217778,1.803518486569124
-4.023,0.3021787567867854,1.040560521395884
-4.0225,0.05676473506030786,0.1186529801471552
-4.022,-0.7114878546921435,-0.6654982618345217
-4.0215,-1.469070269588766,-1.32248984295604
-4.021,-1.970568487899394,-1.788741932782983
-4.0205,-1.853196564464885,-1.84172512480882
-4.02,-0.999582575849507,-1.237716735713679
-4.0195,-0.156638762093345,-0.5807251545938954
-4.019,0.408880505363835,-0.2310360872233701
-4.0185,0.6756348768056584,-0.06148987274084539
-4.018,0.7396559259519968,0.02328323450064829
-4.0175,0.6969752265212663,-0.01910331912002144
-4.017,0.6329541773752287,-0.1038764263612838
-4.0165,0.7183155762367092,-0.2522293640335412
-4.016,0.8036769750980928,-0.07208651114585861
-4.0155,0.7609962756674011,0.04447651131087714
-4.015,0.6863050516634964,0.1610395337679695
-4.0145,0.5902734779444399,0.3199891098453364
-4.014,0.8143471499555714,0.1610395337679695
-4.0135,1.219813794547114,-0.432372216922091
-4.013,0.5582629533713921,-1.025783967610927
-4.0125,-0.4554036581084589,-1.269506650929778
-4.012,-1.383708870727218,-1.227120097308945
-4.0115,-1.789175515318789,-1.046977244421262
-4.011,-1.351698346153801,-0.8032545611024114
-4.0105,-0.6901475049780786,-0.5489352393786244
-4.01,-0.1352984123779797,-0.2098428104130352
-4.0095,0.2168173579255475,0.4259554938970107
-4.009,0.3982103305059874,1.241896651094161
-4.0085,0.4515612047945559,1.888291593810242
-4.008,0.4408910299368829,2.026047893077293
-4.0075,0.3982103305061912,1.46442605760393
-4.007,0.3661998059330754,0.5955017083790921
-4.0065,0.3341892813600565,-0.06148987274069118
-4.006,0.2594980573562781,-0.6231117082145651
-4.0055,-0.2099896363824181,-1.184733543688883
-4.005,-0.9355615267041777,-1.672178910326141
-4.0045,-1.661133417026597,-1.937094870455327
-4.004,-2.055929886760263,-1.93709487045496
-4.0035,-1.405049220442214,-1.534422611058964
-4.003,-0.4660738329661415,-0.8456411147230812
-4.0025,0.2168173579249265,-0.3052125560600336
-4.002,0.5796033030867573,0.002089957690313421
-4.0015,0.7183155762366316,0.002089957690313421
-4.001,0.7183155762366316,-0.1250697031715801
-4.0005,0.6542945270905358,-0.231036087223505
-4,0.6542945270905358,-0.3793890248957141
-3.9995,0.79300680024041,-0.3899856633008816
-3.999,0.825017324813458,-0.1568596183871981
-3.9985,0.7396559259519968,0.1716361721729923
-3.998,0.6542945270905358,0.4365521323021782
-3.9975,0.7183155762366316,0.4047622170866759
-3.997,1.273164668836129,-0.1674562567923655
-3.9965,1.017080472251745,-0.8244478379127463
-3.996,-0.1139580626626144,-1.258910012524611
-3.9955,-1.180975548430879,-1.364876396576285
-3.995,-1.437059745015262,-1.195330182093607
-3.9945,-1.020922925565639,-0.8562377531282487
-3.994,-0.4554036581084589,-0.400582301706049
-3.9935,-0.007256314085787988,0.2776025562246667
-3.993,0.2701682322139607,1.146526905448396
-3.9925,0.3982103305061524,1.888291593810116
-3.992,0.4408910299368829,2.343947045232316
-3.9915,0.4302208550792003,2.418123514068488
-3.991,0.3875401556484697,1.888291593810116
-3.9905,0.3341892813600565,1.29487984312074
-3.99,0.3235191065023739,1.040560521396722
-3.9895,0.3128489316446912,0.9028042221295453
-3.989,0.01408403562957729,0.5213252395435176
-3.9885,-0.754168554123573,-0.2628260024388724
-3.988,-1.533091318734406,-1.004590690800593
-3.9875,-1.949228138184029,-1.460246142222792
-3.987,-1.490410619303675,-1.311893204550448
-3.9865,-0.6261264558313813,-0.8668343915334161
-3.986,0.08877525963335578,-0.474758770542221
-3.9855,0.5155822539406614,-0.252229364033705
-3.985,0.6863050516635838,-0.1780528951975329
-3.9845,0.707645401378949,-0.1462629799820306
-3.984,0.6649647019482183,-0.1674562567923655
-3.9835,0.6222840025174878,-0.2204394488182027
-3.983,0.7609962756673623,-0.3581957480853793
-3.9825,0.7823366253827275,-0.1462629799820306
-3.982,0.6863050516635838,0.2140227257936621
-3.9815,0.5902734779444399,0.5319218779486851
-3.981,0.5369226036560266,0.6696781772158616
-3.9805,0.6116138276598051,0.2670059178194992
-3.98,0.4942419042252961,-0.4535654937318862
-3.9795,-0.3807124341046804,-0.9939940523954253
-3.979,-1.26633694729234,-1.184733543688439
-3.9785,-1.906547438753298,-1.131750351662602
-3.978,-1.725154466172693,-0.9410108603695881
-3.9775,-1.031593100423322,-0.6760949002404023
-3.977,-0.3700422592469978,-0.2734226408440398
-3.9765,0.08877525963335578,0.4047622170866759
-3.976,0.3448594562177392,1.241896651094903
-3.9755,0.4515612047945656,1.877694955404949
-3.975,0.4622313796522482,2.195594107559972
-3.9745,0.4195506802215176,1.845905040189447
-3.974,0.3875401556484697,1.072350436612224
-3.9735,0.3341892813600565,0.3411823866556712
-3.973,0.3021787567870086,-0.474758770542221
-3.9725,0.2168173579255475,-1.163540266878104
-3.972,-0.3487019095316325,-1.714565463946811
-3.9715,-1.1062843244271,-1.947691508860494
-3.971,-1.703814116457328,-1.958288147265661
-3.9705,-1.767835165603424,-1.79933857118815
-3.97,-1.020922925565639,-1.036380606016095
-3.9695,-0.2099896363817582,-0.3581957480853793
-3.969,0.3555296310754218,-0.01910331912002144
-3.9685,0.6329541773751706,0.08686306493165288
-3.968,0.707645401378949,0.1186529801471552
-3.9675,0.6863050516635838,0.06566978812131802
-3.967,0.6329541773751706,0.002089957690313421
-3.9665,0.7289857510943143,-0.1568596183871981
-3.966,0.8356874996711408,-0.07208651114585861
-3.9655,0.7503261008096795,0.09745970333682032
-3.965,0.6329541773751706,0.2987958330350016
-3.9645,0.5475927785137094,0.5001319627331828
-3.964,0.6116138276598051,0.2670059178194992
-3.9635,0.79300680024041,-0.3899856633008816
-3.963,0.1954770082101822,-0.9728007755850904
-3.9625,-0.6261264558313813,-1.269506650929778
-3.962,-1.383708870726849,-1.258910012524611
-3.9615,-1.789175515318789,-1.068170521231597
-3.961,-1.373038695869166,-0.8244478379127463
-3.9605,-0.7114878546928423,-0.5807251545938954
-3.96,-0.1459685872356623,-0.2946159176543747
-3.9595,0.2061471830678648,0.2246193641988295
-3.959,0.3875401556484697,0.9875773293708847
-3.9585,0.4515612047945656,1.655165548896433
-3.958,0.4302208550792003,1.845905040189447
-3.9575,0.3982103305061524,1.580989080060261
-3.957,0.3555296310754218,1.061753798207057
-3.9565,0.3235191065023739,0.2776025562246667
-3.956,0.2808384070716433,-0.5171453241628908
-3.9555,-0.1139580626626144,-1.174136905283272
-3.955,-0.8181896032696687,-1.703968825541643
-3.9545,-1.501080794161358,-1.937094870455327
-3.954,-1.885207089037933,-1.926498232050159
-3.9535,-1.607782542738184,-1.396666311791788
-3.953,-0.7968492535543035,-0.6443049850249
-3.9525,-0.02859666380115328,-0.2098428104130352
-3.952,0.4408910299368829,0.002089957690313421
-3.9515,0.6436243522328531,0.08686306493165288
-3.951,0.6863050516635838,0.05507314971615059
-3.9505,0.6649647019482183,-0.01910331912002144
-3.95,0.6756348768059011,-0.09327978795619347
-3.9495,0.8143471499557753,-0.1886495336027004
-3.949,0.7823366253827275,0.002089957690313421
-3.9485,0.6863050516635838,0.2246193641988295
-3.948,0.6009436528021226,0.3517790250608387
-3.9475,0.6329541773751706,0.4153588554918433
-3.947,1.081101521397841,-0.05089323433552374
-3.9465,0.7609962756673623,-0.6972881770507372
-3.946,-0.3273615598162672,-1.163540266878104
-3.9455,-1.405049220442214,-1.34368311976595
-3.945,-1.821186039891837,-1.237716735714276
-3.9445,-1.362368521011484,-0.9622041371799229
-3.944,-0.6794773301197943,-0.570128516188728
-3.9435,-0.124628237520297,0.06566978812131802
-3.943,0.2274875327832301,0.9451907757502149
-3.9425,0.3982103305061524,1.729342017732605
-3.942,0.4622313796522482,2.216787384370307
-3.9415,0.4515612047945656,2.375736960447818
-3.941,0.408880505363835,2.20619074596514
-3.9405,0.3661998059331045,1.824711763379112
-3.94,0.3235191065023739,1.496215972818921
-3.9395,0.3021787567870086,0.7968378380778709
-3.939,-0.01792648894347063,0.02328323450064829
-3.9385,-0.722158029550525,-0.7714646458869092
-3.938,-1.458400094730627,-1.407262950196955
-3.9375,-2.055929886760855,-1.852321763213987
-3.937,-2.183971985053047,-1.746355379162313
-3.9365,-1.362368521011484,-0.9939940523954253
-3.936,-0.4340633083930936,-0.4111789401112165
-3.9355,0.2168173579255475,-0.05089323433552374
-3.935,0.5689331282290746,0.1186529801471552
-3.9345,0.6969752265212663,0.1292496185523226
-3.934,0.6863050516635838,0.06566978812131802
-3.9335,0.6436243522328531,-0.02969995752518888
-3.933,0.79300680024041,-0.1462629799820306
-3.9325,0.9103787236749192,-0.07208651114585861
-3.932,0.8463576745288233,0.04447651131098315
-3.9315,0.7503261008096795,0.1186529801471552
-3.931,0.7183155762366316,0.1822328105781598
-3.9305,1.070431346540159,-0.1356663415768632
-3.93,1.337185717982225,-0.718481453861072
-3.9295,0.4942419042252961,-1.205926820498774
-3.929,-0.6367966306890638,-1.333086481360783
-3.9285,-1.501080794161358,-1.227120097309109
-3.928,-1.479740444445993,-0.9833974139902578
-3.9275,-0.9248913518464952,-0.6866915386455698
-3.927,-0.3487019095316325,-0.252229364033705
-3.9265,0.07810508477567314,0.4471487707073456
-3.926,0.3235191065023739,1.305476481525908
-3.9255,0.4302208550792003,1.994257977861791
-3.925,0.4515612047945656,2.343947045232316
-3.9245,0.4195506802215176,2.068434446697963
-3.924,0.3982103305061524,1.814115124973944
-3.9235,0.3555296310754218,1.453829419198252
-3.923,0.3128489316446912,0.701468092431364
-3.9225,0.1634664836371343,-0.1568596183871981
-3.922,-0.5300948821122373,-0.8986243067489184
-3.9215,-1.341028171296118,-1.492036057438295
-3.921,-1.927887788468663,-1.873515040024322
-3.9205,-1.970568487899394,-1.873515040024322
-3.92,-1.191645723288561,-1.311893204550448
-3.9195,-0.2953510352432193,-0.6231117082145651
-3.919,0.3235191065023739,-0.2628260024388724
-3.9185,0.6329541773751706,-0.1356663415768632
-3.918,0.7396559259519968,-0.1568596183871981
-3.9175,0.7183155762366316,-0.2310360872233701
-3.917,0.6649647019482183,-0.2734226408440398
-3.9165,0.707645401378949,-0.3158091944647096
-3.916,0.7716664505250448,-0.2946159176543747
-3.9155,0.7183155762366316,-0.1780528951975329
-3.915,0.6329541773751706,-0.02969995752518888
-3.9145,0.5582629533713921,0.1504428953626575
-3.914,0.7396559259519968,0.1080563417419877
-3.9135,1.15579274540162,-0.3793890248957141
-3.913,0.5155822539406614,-0.9410108603695881
-3.9125,-0.5300948821122373,-1.184733543688439
-3.912,-1.330357996438436,-1.131750351662602
-3.9115,-1.351698346153801,-0.9622041371799229
-3.911,-0.8502001278427167,-0.6760949002404023
-3.9105,-0.3060212101009019,-0.2098428104130352
-3.91,0.09944543449103843,0.5743084315693548
-3.9095,0.3235191065023739,1.475022696008586
-3.909,0.4195506802215176,2.153207553939303
-3.9085,0.4408910299368829,2.545283174930498
-3.908,0.4195506802215176,2.449913429283991
-3.9075,0.3768699807907871,2.004854616266958
-3.907,0.3235191065023739,1.549199164844759
-3.9065,0.3021787567870086,1.400846227172415
-3.906,0.1848068333524996,0.9981739677760521
-3.9055,-0.3273615598162672,0.07626642652648545
-3.905,-1.095614149569417,-0.792657922697244
-3.9045,-1.757164990745741,-1.460246142222792
-3.904,-2.301343908487556,-1.862918401619155
-3.9035,-2.013249187330125,-1.47084278062796
-3.903,-1.052933450138687,-0.7608680074817418
-3.9025,-0.1886492866663929,-0.2734226408440398
-3.902,0.3661998059331045,-0.008506680714854012
-3.9015,0.6329541773751706,0.03387987290581572
-3.901,0.707645401378949,0.01268659609548085
-3.9005,0.6863050516635838,-0.05089323433552374
-3.9,0.6969752265212663,-0.1780528951975329
-3.8995,0.9637295979633325,-0.5383386009732256
-3.899,1.027750647109428,-0.4641621321370536
-3.8985,0.9103787236749192,-0.01910331912002144
-3.898,0.7396559259519968,0.3623756634660061
-3.8975,0.6756348768059011,0.5849050699745222
-3.897,1.059761171682476,0.2670059178194992
-3.8965,0.6969752265212663,-0.4111789401112165
-3.896,-0.3593720843893152,-0.9622041371799229
-3.8955,-1.319687821580753,-1.184733543688439
-3.895,-1.693143941599645,-1.184733543688439
-3.8945,-1.26633694729234,-0.9833974139902578
-3.894,-0.6261264558313813,-0.5489352393783931
-3.8935,-0.1032878878049318,0.1610395337678249
-3.893,0.2274875327832301,1.029963882991555
-3.8925,0.3982103305061524,1.739938656137773
-3.892,0.4515612047945656,2.174400830749637
-3.8915,0.4408910299368829,2.248577299585809
-3.891,0.3982103305061524,1.898888232215284
-3.8905,0.3448594562177392,1.125333628638062
-3.89,0.3128489316446912,0.2246193641988295
-3.8895,0.2701682322139607,-0.5489352393783931
-3.889,0.00341386077189465,-1.131750351662602
-3.8885,-0.7648387289812555,-1.608599079895136
-3.888,-1.543761493592088,-1.905304955239825
-3.8875,-2.087940411333903,-1.926498232050159
-3.887,-1.842526389607202,-1.661582271920973
-3.8865,-0.9569018764195432,-0.9622041371799229
-3.886,-0.124628237520297,-0.4217755785163839
