Class_3_Grab_w_two_Hands/Class_3_Grab_with_Two_Hands_SH_8.csv

#Digilent WaveForms Oscilloscope Acquisition
#Device Name: EExplorer
#Serial Number: SN:210151A2B84A
#Date Time: 2020-12-22 11:46:42.970
#Sample rate: 2000Hz
#Samples: 16384
#Trigger: Source: Channel 1 Type: Edge Condition: Rising Level: 0 V Hyst.: Auto HoldOff: 0 s
#Channel 1: Range: 1 V/div Offset: 0 V Attenuation: 1 X
#Channel 2: Range: 1 V/div Offset: 0 V Attenuation: 1 X
#Power Supplies: ON
#Fixed Supply: ON
#Voltage: 3.3 V Readback: 3.314 V
#Positive Supply: ON
#Voltage: 3.7 V Readback: 3.715 V
#Current: 40 mA Readback: 20 mA
#Negative Supply: ON
#Voltage: -3.7 V Readback: -4.007 V
#Current: -40 mA Readback: -5 mA
#Reference 1: ON
#Voltage: 0 V
#Reference 2: ON
#Voltage: 0 V

Time (s),Channel 1 (V),Channel 2 (V)
-4.096,1.027750647109428,-0.8032545611024114
-4.0955,0.4942419042257814,-1.38606967338609
-4.095,-0.1459685872357691,-1.746355379161985
-4.0945,-0.2633405106701714,-1.38606967338662
-4.094,-0.1139580626627503,-0.5489352393791544
-4.0935,0.099445434491184,0.214022725794144
-4.093,0.2594980573562781,0.7438546460520338
-4.0925,0.1527963087795487,0.8498210301036117
-4.092,-0.3166913849584972,0.4789386859229443
-4.0915,-0.2206598112394408,0.5849050699745222
-4.091,-0.04993701351651855,0.7226613692416989
-4.0905,0.1314559590642805,0.8604176685090104
-4.09,0.3448594562177392,1.00877060618122
-4.0895,0.3982103305061524,1.019367244586387
-4.089,0.3982103305061524,0.966384052560598
-4.0885,0.4195506802215176,1.072350436612224
-4.088,0.4729015545099309,0.9875773293708847
-4.0875,-0.04993701351604307,-0.02969995752426358
-4.087,-0.7755089038393652,-1.110557074852633
-4.0865,-1.244996597576974,-1.51322933424863
-4.086,-1.127624674142572,-0.9728007755855819
-4.0855,-0.7434983792655021,-0.3052125560591181
-4.085,-0.3166913849585846,0.1610395337678249
-4.0845,0.03542438534462233,0.4259554938967698
-4.084,0.2701682322140772,0.4471487707072492
-4.0835,0.3982103305061524,0.3411823866556712
-4.083,0.408880505363835,0.2987958330350016
-4.0825,0.3128489316446815,0.288199194629757
-4.082,0.3021787567870086,0.2034260873884947
-4.0815,0.3235191065023739,0.1504428953626575
-4.081,0.3661998059330657,0.1292496185523419
-4.0805,0.408880505363835,0.13984625695749
-4.08,0.5796033030867573,-0.1992461720078678
-4.0795,0.8676980242439265,-0.9092209451534401
-4.079,0.6756348768055226,-1.417859588602315
-4.0785,0.2594980573562781,-1.629792356705471
-4.078,0.05676473506049223,-1.545019249464209
-4.0775,0.1101156093488084,-0.8138511995068657
-4.077,0.2061471830678648,-0.02969995752518888
-4.0765,0.3021787567869213,0.5849050699739632
-4.076,0.3661998059331336,0.9557874141555366
-4.0755,0.3982103305061524,1.125333628638062
-4.075,0.3982103305061524,1.178316820663898
-4.0745,0.3982103305060262,1.15712354385338
-4.074,0.2594980573562781,0.9557874141553824
-4.0735,0.1634664836371343,0.7968378380778709
-4.073,-0.4127229586772043,0.1928294489838766
-4.0725,-0.1993194615240755,0.3517790250608387
-4.072,-0.09261771294724913,0.4047622170866759
-4.0715,-0.3913826089620913,-0.167456256791845
-4.071,-1.084943974712036,-1.131750351663373
-4.0705,-1.415719395299897,-1.979481424075996
-4.07,-1.351698346153859,-2.180817553773995
-4.0695,-0.9889124009921932,-1.534422611058242
-4.069,-0.5514352318276028,-0.7396747306714069
-4.0685,-0.1352984123779797,-0.09327978795619347
-4.068,0.1314559590642416,0.277602556224763
-4.0675,0.3021787567870086,0.383568940276341
-4.067,0.3875401556484697,0.3199891098453364
-4.0665,0.430220855079278,0.1928294489831248
-4.066,0.5155822539406614,-0.02969995752518888
-4.0655,0.5155822539406614,-0.08268314955102604
-4.065,0.4835717293676426,-0.02969995752523707
-4.0645,0.4515612047945656,0.07626642652648545
-4.064,0.4302208550792003,0.1928294489833272
-4.0635,0.5796033030866214,0.06566978812143368
-4.063,1.177133095116985,-0.6337083466204457
-4.0625,1.177133095116985,-1.417859588602123
-4.062,0.4195506802222067,-1.979481424075486
-4.0615,-0.1139580626625756,-2.202010830583934
-4.061,-0.07127736323188383,-1.566212526274467
-4.0605,0.07810508477567314,-0.5807251545938954
-4.06,0.2274875327833175,0.2458126410096559
-4.0595,0.3235191065023739,0.7862411996727035
-4.059,0.3768699807907871,1.072350436612224
-4.0585,0.4088805053638059,1.178316820663802
-4.058,0.408880505363835,1.167720182258731
-4.0575,0.3982103305061524,1.114736990232894
-4.057,0.3982103305061524,1.051157159801947
-4.0565,0.3982103305061524,0.9875773293708847
-4.056,0.3875401556484697,0.92399749893988
-4.0555,0.3768699807907968,0.8710143069140911
-4.055,-0.1032878878056596,0.3941655786806699
-4.0545,-0.9035510021311299,-0.5277419625680583
-4.054,-2.06660006161748,-1.947691508859203
-4.0535,-1.927887788468198,-2.011271339290853
-4.053,-1.415719395299897,-1.301296566145281
-4.0525,-0.7648387289812555,-0.5489352393783931
-4.052,-0.2206598112391691,-0.008506680714632347
-4.0515,0.07810508477567314,0.2352160026039969
-4.051,0.2594980573562781,0.309392471440169
-4.0505,0.3555296310753344,0.25640927941438
-4.05,0.408880505363835,0.1822328105781598
-4.0495,0.3661998059331045,-0.008506680714854012
-4.049,0.3341892813600856,-0.114473064766432
-4.0485,0.3555296310754412,-0.07208651114577187
-4.048,0.3768699807907871,0.02328323450064829
-4.0475,0.38754015564846,0.1292496185522262
-4.047,0.4408910299372905,0.2034260873887549
-4.0465,0.8890383739595538,0.4895353243280153
-4.046,1.465227816273892,0.2776025562248594
-4.0455,1.251824319120628,-0.5277419625686655
-4.045,1.102441871113207,-1.195330182093607
-4.0445,1.390536592270638,-1.545019249464132
-4.044,1.273164668835857,-1.068170521230894
-4.0435,0.974399772821015,-0.2946159176543747
-4.043,0.6863050516635838,0.3623756634660061
-4.0425,0.4942419042254708,0.8074344764826336
-4.042,0.3875401556484697,1.061753798207057
-4.0415,0.3448594562177392,1.167720182258731
-4.041,0.3448594562177392,1.188913459069046
-4.0405,0.3448594562177489,1.167720182258712
-4.04,0.3555296310754218,1.146526905448396
-4.0395,0.3661998059330948,1.157123543853554
-4.039,0.3768699807907386,1.157123543853563
-4.0385,0.3235191065023739,1.157123543853563
-4.038,-0.02859666380083303,0.9028042221297765
-4.0375,-0.5941159312587214,0.05507314971546631
-4.037,-1.020922925565639,-0.6972881770507372
-4.0365,-0.9782422261349084,-0.6337083466197325
-4.036,-0.8928808272733502,-0.4217755785162779
-4.0355,-0.7861790786966207,-0.3052125560595421
-4.035,-0.9355615267041777,-0.6125150698093976
-4.0345,-0.4874141826819144,-0.4005823017062418
-4.034,-0.1673089369510276,-0.2946159176543747
-4.0335,0.1527963087794516,-0.1674562567923655
-4.033,0.3768699807905833,-0.02969995752531415
-4.0325,0.4195506802215079,0.0232832345006772
-4.032,0.408880505363835,0.05507314971615059
-4.0315,0.3982103305061621,0.09745970333678176
-4.031,0.3875401556484794,0.150442895362725
-4.0305,0.3982103305061524,0.2246193641988295
-4.03,0.6863050516633218,0.4471487707071432
-4.0295,1.230483969404962,0.3517790250600099
-4.029,0.7503261008096795,-0.5595318777835605
-4.0285,-0.3273615598162672,-1.492036057438295
-4.028,-0.6688071552618983,-1.915901593644472
-4.0275,-0.4340633083930936,-1.34368311976595
-4.027,-0.1139580626626144,-0.4323722169215513
-4.0265,0.152796308779209,0.3517790250601254
-4.026,0.3128489316446912,0.8710143069140429
-4.0255,0.3875401556484697,1.146526905448396
-4.025,0.4088805053638156,1.263089927905132
-4.0245,0.4088805053638253,1.273686566310367
-4.024,0.3982103305061524,1.231300012689736
-4.0235,0.3875401556484794,1.167720182258789
-4.023,0.3768699807907871,1.104140351827698
-4.0225,0.3768699807907871,1.072350436612224
-4.022,0.3128489316447495,0.976980690965804
-4.0215,-0.1566387620938496,0.3411823866548327
-4.021,-0.7114878546928423,-0.5807251545938954
-4.0205,-0.9782422261349084,-1.34368311976595
-4.02,-0.9355615267039157,-1.460246142222339
-4.0195,-0.6474668055467465,-0.9622041371799229
-4.019,-0.2953510352432193,-0.3581957480853793
-4.0185,0.003413860771622923,0.04447651131061692
-4.018,0.1634664836371343,0.1822328105781598
-4.0175,0.09944543449103843,0.002089957690313421
-4.017,0.1634664836370761,-0.08268314955094894
-4.0165,-0.3166913849585749,-0.697288177050795
-4.016,-0.3060212101009019,-0.7608680074817418
-4.0155,-0.2099896363818455,-0.6019184314043748
-4.015,0.05676473506047284,-0.2204394488179135
-4.0145,0.2381577076409128,0.09745970333682032
-4.014,0.3128489316446233,0.267005917819345
-4.0135,0.5155822539412728,0.4047622170867144
-4.013,1.187803269974668,0.4471487707073456
-4.0125,1.433217291701369,-0.326405832869877
-4.012,0.7823366253826207,-1.269506650930366
-4.0115,0.6649647019482183,-1.915901593644992
-4.011,0.8676980242441885,-1.79933857118815
-4.0105,0.8143471499558238,-0.9728007755858421
-4.01,0.6542945270905358,-0.1144730647665284
-4.0095,0.5155822539406614,0.5213252395435176
-4.009,0.419550680221605,0.8922075837240404
-4.0085,0.366199805933085,1.051157159801928
-4.008,0.3448594562177392,1.093543713422559
-4.0075,0.3448594562177392,1.061753798207086
-4.007,0.3448594562177489,1.008770606181171
-4.0065,0.3555296310754218,0.9557874141553824
-4.006,0.3661998059331045,0.92399749893988
-4.0055,0.3448594562173898,0.8816109453188056
-4.005,-0.03926683865883591,0.4365521323021782
-4.0045,-0.7755089038389382,-0.4853554089473885
-4.004,-1.223656247861716,-1.311893204550679
-4.0035,-1.341028171296118,-1.566212526274467
-4.003,-1.180975548430879,-1.036380606016095
-4.0025,-0.7968492535546529,-0.3899856633014694
-4.002,-0.391382608962363,0.05507314971615059
-4.0015,-0.07127736323188383,0.2987958330350016
-4.001,0.1741366584945937,0.3729723018711061
-4.0005,0.3128489316446718,0.33058574825034
-4,0.291508581929326,0.1504428953626575
-3.9995,0.2488278824985954,0.06566978812131802
-3.999,-0.274010685527854,-0.4323722169215513
-3.9985,-0.1352984123779797,-0.3052125560595421
-3.998,0.00341386077189465,-0.1780528951975329
-3.9975,0.1954770082101822,0.02328323450064829
-3.997,0.3875401556484697,0.2776025562246667
-3.9965,0.825017324813458,0.6484849004055269
-3.996,1.091771696255524,0.1610395337678249
-3.9955,0.5902734779444399,-0.8986243067489184
-3.995,-0.1352984123779797,-1.809935209593318
-3.9945,-0.2206598112394408,-1.958288147265661
-3.994,-0.06060718837420119,-1.195330182093607
-3.9935,0.1314559590640864,-0.2628260024388724
-3.993,0.2701682322139607,0.4683420475176805
-3.9925,0.3448594562177392,0.92399749893988
-3.992,0.3768699807907871,1.157123543853563
-3.9915,0.3768699807907871,1.231300012689736
-3.991,0.3768699807907871,1.231300012689736
-3.9905,0.3768699807907871,1.188913459069066
-3.99,0.3661998059331045,1.146526905448396
-3.9895,0.3661998059331045,1.114736990232894
-3.989,0.3661998059331045,1.082947075017392
-3.9885,0.1954770082101822,0.849821030103708
-3.988,-0.4767440078238243,-0.01910331912002144
-3.9875,-0.9569018764195432,-0.9939940523954253
-3.987,-1.116954499284783,-1.629792356705471
-3.9865,-0.9142211769888124,-1.364876396576285
-3.986,-0.5941159312583333,-0.7290780922662394
-3.9855,-0.2846808603855366,-0.1992461720078678
-3.985,-0.03926683865883591,0.1080563417419877
-3.9845,0.142126133921769,0.2246193641988295
-3.984,0.2701682322139607,0.1928294489833272
-3.9835,0.3341892813600565,0.1080563417419877
-3.983,0.3875401556484697,0.002089957690313421
-3.9825,0.4195506802215176,-0.04029659593035631
-3.982,0.2274875327832301,-0.1780528951975329
-3.9815,-0.1139580626626144,-0.4111789401112165
-3.981,-0.2633405106701714,-0.4323722169215513
-3.9805,-0.08194753808956648,-0.1780528951975329
-3.98,0.408880505363835,-0.4111789401112165
-3.9795,1.166462920259302,-1.121153713257435
-3.979,0.9957401225363802,-1.831128486403653
-3.9785,0.2274875327832301,-2.339767129851689
-3.978,-0.2633405106701714,-2.276187299420684
-3.9775,-0.2420001609548061,-1.364876396576285
-3.977,-0.06060718837420119,-0.326405832869877
-3.9765,0.1207857842064037,0.457745409112513
-3.976,0.2701682322139607,0.9345941373450475
-3.9755,0.3555296310754218,1.157123543853563
-3.975,0.3875401556484697,1.199510097474233
-3.9745,0.3875401556484697,1.157123543853563
-3.974,0.3768699807907871,1.061753798207057
-3.9735,0.3661998059331045,0.9875773293708847
-3.973,0.3661998059331045,0.92399749893988
-3.9725,0.3661998059331045,0.8710143069140429
-3.972,0.3128489316446912,0.7968378380778709
-3.9715,0.04609456020262521,0.7226613692416989
-3.971,-0.3593720843893152,0.2352160026039969
-3.9705,-0.6688071552621118,-0.6549016234300674
-3.97,-0.6474668055467465,-0.8350444763179138
-3.9695,-0.3807124341046804,-0.4535654937318862
-3.969,-0.1459685872356623,-0.01910331912002144
-3.9685,0.02475421048725994,0.2881991946298341
-3.968,0.1848068333524996,0.3941655786815084
-3.9675,0.2701682322139607,0.3517790250608387
-3.967,0.3128489316446912,0.2246193641988295
-3.9665,0.3661998059331045,0.08686306493165288
-3.966,0.4195506802215176,-0.06148987274069118
-3.9655,0.4195506802215176,-0.02969995752518888
-3.965,0.408880505363835,0.1186529801471552
-3.9645,0.3661998059331045,0.2670059178194992
-3.964,0.1527963087794516,0.2352160026039969
-3.9635,-0.1032878878049318,-0.252229364033705
-3.963,0.2701682322139607,-0.9516074987747555
-3.9625,-0.156638762093345,-1.640388995110639
-3.962,-0.658136980404429,-1.968884785670829
-3.9615,0.00341386077189465,-2.021867977696666
-3.961,0.7396559259519968,-1.629792356705471
-3.9605,0.8676980242441885,-0.7290780922662394
-3.96,0.7609962756673623,0.1504428953626575
-3.9595,0.5902734779444399,0.7438546460520338
-3.959,0.4622313796522482,1.061753798207057
-3.9585,0.3768699807907871,1.167720182258731
-3.958,0.3448594562177392,1.146526905448396
-3.9575,0.3341892813600565,1.051157159801889
-3.957,0.3448594562177392,0.9345941373450475
-3.9565,0.3448594562177392,0.8286277532933731
-3.956,0.3448594562177392,0.7332580076468663
-3.9555,0.3341892813600565,0.6378882620003594
-3.955,0.1527963087794516,0.2564092794143318
-3.9545,-0.423393133535411,-0.6337083466197325
-3.954,-0.7861790786966207,-1.481439419033127
-3.9535,-0.8288597781273515,-1.682775548731308
-3.953,-0.6688071552621118,-1.05757388282643
-3.9525,-0.4020527838200457,-0.4217755785163839
-3.952,-0.1993194615240755,0.01268659609548085
-3.9515,-0.02859666380115328,0.2034260873884947
-3.951,0.1314559590640864,0.2246193641988295
-3.9505,0.2488278824985954,0.1928294489833272
-3.95,0.3341892813600565,0.1504428953626575
-3.9495,0.4195506802215176,0.03387987290581572
-3.949,0.4622313796522482,0.02328323450064829
-3.9485,0.4408910299368829,0.1292496185523226
-3.948,0.408880505363835,0.2670059178194992
-3.9475,0.3768699807907871,0.3941655786815084
-3.947,0.4195506802215176,0.4365521323021782
-3.9465,0.8676980242441885,-0.01910331912002144
-3.946,0.8890383739595538,-0.8350444763179138
-3.9455,0.1314559590640864,-1.608599079895136
-3.945,-0.6367966306890638,-2.350363768256857
-3.9445,-0.03926683865883591,-2.223204107394847
-3.944,0.3021787567870086,-1.38606967338662
-3.9435,0.4942419042252961,-0.3158091944647096
-3.943,0.5262524287983441,0.4789386859228479
-3.9425,0.4302208550792003,0.8816109453192104
-3.942,0.3661998059331045,1.051157159801889
-3.9415,0.3235191065023739,1.082947075017392
-3.941,0.3128489316446912,1.019367244586387
-3.9405,0.3128489316446912,0.9345941373450475
-3.94,0.3235191065023739,0.8710143069140429
-3.9395,0.3448594562177392,0.8286277532933731
-3.939,0.3448594562177392,0.7862411996727035
-3.9385,0.1101156093487211,0.6802748156210291
-3.938,-0.5621054066852853,-0.1356663415768632
-3.9375,-0.9675720512772257,-1.0999604364471
-3.937,-1.148965023857831,-1.84172512480882
-3.9365,-1.373038695869166,-1.905304955239825
-3.936,-1.191645723288561,-1.131750351662602
-3.9355,-0.7755089038389382,-0.3475991096802118
-3.935,-0.3700422592469978,0.1504428953626575
-3.9345,-0.04993701351651855,0.383568940276341
-3.934,0.1741366584948169,0.383568940276341
-3.9335,0.3128489316446912,0.3305857482505039
-3.933,0.3555296310754218,0.1610395337678249
-3.9325,0.3448594562177392,-0.008506680714854012
-3.932,0.3341892813600565,0.01268659609548085
-3.9315,0.3341892813600565,0.1080563417419877
-3.931,0.3341892813600565,0.2140227257936621
-3.9305,0.3448594562177392,0.3305857482505039
-3.93,0.5796033030867573,0.6484849004055269
-3.9295,0.974399772821015,0.7862411996727035
-3.929,0.5796033030867573,0.09745970333682032
-3.9285,0.2488278824985954,-0.6760949002404023
-3.928,0.4622313796522482,-1.396666311791788
-3.9275,0.2274875327832301,-1.672178910326141
-3.927,0.3235191065023739,-0.8880276683437509
-3.9265,0.291508581929326,-0.1568596183871981
-3.926,0.3341892813600565,0.4789386859228479
-3.9255,0.3661998059331045,0.8816109453192104
-3.925,0.3128489316446912,1.019367244586387
-3.9245,0.291508581929326,1.061753798207057
-3.924,0.291508581929326,1.072350436612224
-3.9235,0.3021787567870086,1.072350436612224
-3.923,0.3128489316446912,1.061753798207057
-3.9225,0.3235191065023739,1.061753798207057
-3.922,0.2808384070716433,1.019367244586387
-3.9215,-0.2846808603855366,0.3411823866556712
-3.921,-0.807519428411986,-0.7290780922662394
-3.9205,-1.031593100423322,-1.587405803084801
-3.92,-1.212986073003927,-1.990078062481164
-3.9195,-1.202315898146244,-1.460246142222792
-3.919,-0.8928808272734472,-0.6654982618352349
-3.9185,-0.5194247072545548,-0.06148987274069118
-3.918,-0.156638762093345,0.2564092794143318
-3.9175,0.1101156093487211,0.3623756634660061
-3.917,0.2808384070716433,0.309392471440169
-3.9165,0.3555296310754218,0.2246193641988295
-3.916,0.3875401556484697,0.1928294489833272
-3.9155,0.3875401556484697,0.1610395337678249
-3.915,0.3768699807907871,0.13984625695749
-3.9145,0.3555296310754218,0.13984625695749
-3.914,0.3448594562177392,0.1716361721729923
-3.9135,0.4622313796522482,0.3623756634660061
-3.913,0.8997085488172365,0.6590815388106942
-3.9125,0.7396559259519968,0.1186529801471552
-3.912,0.1741366584948169,-0.6337083466197325
-3.9115,0.0674349099179905,-1.163540266878104
-3.911,0.2061471830678648,-0.9728007755850904
-3.9105,0.07810508477567314,-0.5489352393783931
-3.91,-0.1993194615240755,-0.2628260024388724
-3.9095,-0.3380317346739499,0.04447651131098315
-3.909,-0.156638762093345,0.5001319627331828
-3.9085,0.01408403562957729,0.8074344764830383
-3.908,0.2381577076409128,1.072350436612224
-3.9075,0.3128489316446912,1.146526905448396
-3.907,0.3128489316446912,1.125333628638062
-3.9065,0.3128489316446912,1.093543713422559
-3.906,0.3128489316446912,1.061753798207057
-3.9055,0.3021787567870086,1.029963882991555
-3.905,-0.124628237520297,0.5637117931641874
-3.9045,-0.8502001278427167,-0.5171453241628908
-3.904,-1.543761493592088,-1.576809164679634
-3.9035,-1.67180359188428,-2.043061254507001
-3.903,-1.30901764672307,-1.598002441489969
-3.9025,-0.8608703027003992,-0.8138511995075789
-3.902,-0.4554036581084589,-0.1462629799820306
-3.9015,-0.124628237520297,0.2352160026039969
-3.901,0.1314559590640864,0.3729723018711736
-3.9005,0.291508581929326,0.3517790250608387
-3.9,0.3768699807907871,0.2352160026039969
-3.8995,0.3875401556484697,0.1610395337678249
-3.899,0.3768699807907871,0.07626642652648545
-3.8985,0.3661998059331045,0.04447651131098315
-3.898,0.3448594562177392,0.04447651131098315
-3.8975,0.3448594562177392,0.09745970333682032
-3.897,0.3768699807907871,0.2246193641988295
-3.8965,0.8463576745288233,0.7226613692416989
-3.896,1.529248865420512,0.6378882620003594
-3.8955,1.539919040278195,-0.1674562567923655
-3.895,1.070431346540159,-0.9092209451540858
-3.8945,0.7503261008096795,-0.9833974139902578
-3.894,0.5155822539406614,-0.4429688553267188
-3.8935,0.3661998059331045,0.2034260873884947
-3.893,0.3021787567870086,0.7226613692416989
-3.8925,0.2701682322139607,1.061753798207057
-3.892,0.08877525963335578,1.061753798207057
-3.8915,-0.156638762093345,0.8816109453192104
-3.891,-0.4127229586777283,0.627291623595192
-3.8905,-0.2099896363817582,0.7862411996727035
-3.89,-0.02859666380115328,0.92399749893988
-3.8895,0.1954770082101822,1.104140351827727
-3.889,0.3021787567870086,1.167720182258731
-3.8885,0.09944543449103843,0.8286277532933731
-3.888,-0.6047861061160158,-0.2628260024388724
-3.8875,-1.031593100423322,-1.439052865412457
-3.887,-1.479740444445993,-2.318573853041354
-3.8865,-1.853196564464885,-2.435136875498196
-3.886,-1.618452717595867,-1.566212526274467
