Class_3_Grab_w_two_Hands/Class_3_Grab_with_Both_hands_Turki_1.csv

#Digilent WaveForms Oscilloscope Acquisition
#Device Name: EExplorer
#Serial Number: SN:210151A2B84A
#Date Time: 2020-10-20 13:18:33.718
#Sample rate: 2000Hz
#Samples: 16384
#Trigger: Source: Channel 1 Type: Edge Condition: Rising Level: 0 V Hyst.: Auto HoldOff: 0 s
#Channel 1: Range: 1 V/div Offset: 0 V
#Channel 2: Range: 1 V/div Offset: 0 V

Time (s),Channel 1 (V),Channel 2 (V)
-4.0960000000000001,-0.20998963638175816,-0.19924617200786782
-4.0955000000000004,-0.19931946152408525,0.055073149715919256
-4.0949999999999998,-0.19931946152407554,0.2987958330351847
-4.0945,-0.19931946152407554,0.50013196273318283
-4.0940000000000003,-0.16730893695105672,0.55311515475897177
-4.0934999999999997,0.24882788249935234,0.065669788120730127
-4.093,1.0811015213978414,-0.5807251545938954
-4.0925000000000002,1.817343586577274,-1.0045906908002071
-4.0919999999999996,1.7213120128582564,-0.75027136907613101
-4.0914999999999999,1.1237822208285719,-0.26282600243887239
-4.0910000000000002,0.53692260365602662,0.12924961855232261
-4.0904999999999996,0.11011560934848816,0.3517790250609158
-4.0899999999999999,-0.14596858723566233,0.43655213230217815
-4.0895000000000001,-0.25267033581248871,0.41535885549184332
-4.0890000000000004,-0.29535103524318052,0.29879583303510759
-4.0884999999999998,-0.54076505696992005,-0.11447306476652835
-4.0880000000000001,-1.0849439747117349,-0.83504447631791379
-4.0875000000000004,-0.95690187641965962,-0.86683439153338726
-4.0869999999999997,-0.80751942841181135,-0.8986243067489087
-4.0865,-0.61545628097369853,-0.88802766834375091
-4.0860000000000003,-0.3593720843895481,-0.79265792269733071
-4.0854999999999997,-0.14596858723510919,-0.62311170821400608
-4.085,0.4622313796522482,-0.0085066807148540119
-4.0845000000000002,1.3265155431237561,0.71206473083587607
-4.0839999999999996,1.8920348105811495,1.25249328950035
-4.0834999999999999,1.2624944939784462,1.5597958032499259
-4.0830000000000002,-0.30602121010090194,1.6975521025171028
-4.0824999999999996,-1.1809755484308979,1.3054764815252331
-4.0819999999999999,-1.2023158981462438,0.5637117931641874
-4.0815000000000001,-0.92489135184649518,-0.061489872740691176
-4.0810000000000004,-0.62612645583165305,-0.41117894011089845
-4.0804999999999998,-0.39138260896236304,-0.49595204735255594
-4.0800000000000001,-0.25267033581248871,-0.40058230170604903
-4.0795000000000003,-0.18864928666645112,-0.20984281041320871
-4.0789999999999997,-0.16730893695103732,0.01268659609565433
-4.0785,-0.17797911180871023,0.20342608738849466
-4.0780000000000003,-0.18864928666638317,0.36237566346586159
-4.0774999999999997,-0.18864928666629585,0.4471487707070565
-4.077,-0.08194753808956648,0.12924961855232261
-4.0765000000000002,0.3235191065020051,-0.60191843140356527
-4.0759999999999996,1.0170804722521238,-1.2377167357144305
-4.0754999999999999,1.4332172917013686,-1.4072629501969551
-4.0750000000000002,1.1451225705439372,-0.9304142219644207
-4.0744999999999996,0.65429452709014768,-0.29461591765391204
-4.0739999999999998,0.22748753278323011,0.21402272579366208
-4.0735000000000001,-0.06060718837420119,0.48953532432801533
-4.0730000000000004,-0.20998963638162227,0.55311515475896211
-4.0724999999999998,-0.27401068552785401,0.45774540911251305
-4.0720000000000001,-0.28468086038553664,0.28819919462983412
-4.0715000000000003,-0.27401068552786373,0.076266426526678227
-4.0709999999999997,-0.2740106855278443,-0.16745625679255827
-4.0705,-0.26334051067017139,-0.37938902489571413
-4.0700000000000003,-0.44473348325061129,-0.76086800748139483
-4.0694999999999997,-1.0315931004232344,-1.523825972653797
-4.069,-0.93556152670417769,-1.523825972653797
-4.0685000000000002,-0.53009488211223732,-0.85623775312824868
-4.0679999999999996,0.23815770764179586,0.12924961855313216
-4.0674999999999999,1.2091436196900331,1.0193672445863871
-4.0670000000000002,1.3371857179822249,1.3902495887672472
-4.0664999999999996,0.046094560201460681,1.5068126112239923
-4.0659999999999998,-1.2343264227192918,1.4008462271724147
-4.0655000000000001,-1.4904106193036752,0.74385464605203377
-4.0650000000000004,-1.2023158981465059,0.033879872906461439
-4.0644999999999998,-0.80751942841198598,-0.41117894011121647
-4.0640000000000001,-0.47674400782382426,-0.57012851618872795
-4.0635000000000003,-0.27401068552803842,-0.49595204735262338
-4.0629999999999997,-0.18864928666637348,-0.31580919446448791
-4.0625,-0.16730893695102761,-0.072086511145858609
-4.0620000000000003,-0.16730893695102761,0.17163617217277066
-4.0614999999999997,-0.17797911180871995,0.38356894027649524
-4.0609999999999999,-0.18864928666639288,0.55311515475901996
-4.0605000000000002,-0.14596858723566233,0.45774540911251305
-4.0599999999999996,0.14212613392233184,-0.22043944881887728
-4.0594999999999999,0.76099627566736228,-0.96220413717992292
-4.0590000000000002,1.4758979911320991,-1.4708427806279598
-4.0585000000000004,1.6466207888548661,-1.4284562270073287
-4.0579999999999998,1.2091436196900331,-0.78206128429207655
-4.0575000000000001,0.63295417737517057,-0.093279787956193475
-4.0570000000000004,0.17413665849523419,0.38356894027590732
-4.0564999999999998,-0.10328788780493176,0.59550170837968963
-4.056,-0.24200016095480609,0.59550170837968963
-4.0555000000000003,-0.28468086038549784,0.45774540911263834
-4.0549999999999997,-0.28468086038552692,0.23521600260373673
-4.0545,-0.27401068552785401,-0.050893234335523743
-4.0540000000000003,-0.2633405106701811,-0.3052125560593108
-4.0534999999999997,-0.24200016095479637,-0.53833860097340869
-4.0529999999999999,-0.23132998609712346,-0.73967473067140688
-4.0525000000000002,-0.22065981123944084,-0.89862430674891836
-4.0519999999999996,-0.15663876209357785,-0.69728817705058299
-4.0514999999999999,-0.41272295867772835,-0.52774196256805828
-4.0510000000000002,-0.41272295867772835,-0.050893234335523743
-4.0505000000000004,-0.028596663801502664,0.64848490040489082
-4.0499999999999998,-0.19931946152407554,1.1359302670432285
-4.0495000000000001,-0.90355100213112993,1.3796529503620798
-4.0490000000000004,-1.042263275280878,0.90280422212997902
-4.0484999999999998,-0.90355100213091644,0.12924961855182146
-4.048,-0.66880715526211176,-0.42177557851638392
-4.0475000000000003,-0.44473348325098006,-0.65490162342985536
-4.0469999999999997,-0.29535103524315137,-0.62311170821440121
-4.0465,-0.22065981123944084,-0.44296885532671876
-4.0460000000000003,-0.17797911180874904,-0.17805289519777384
-4.0454999999999997,-0.16730893695102761,0.10805634174221905
-4.0449999999999999,-0.16730893695102761,0.36237566346600614
-4.0445000000000002,-0.16730893695102761,0.5637117931641874
-4.0439999999999996,-0.16730893695085292,0.62729162359475832
-4.0434999999999999,0.024754210487259936,0.15044289536265748
-4.0430000000000001,0.5689331282290746,-0.62311170821456507
-4.0425000000000004,1.2945050185508342,-1.1847335436879285
-4.0419999999999998,1.4225471168436858,-1.0257839676109275
-4.0415000000000001,0.98506994767869771,-0.50654868575772338
-4.0410000000000004,0.48357172936806958,0.012686596095008551
-4.0404999999999998,0.099445434490834636,0.36237566346615069
-4.04,-0.12462823752029703,0.52132523954351762
-4.0395000000000003,-0.23132998609702643,0.50013196273320215
-4.0389999999999997,-0.26334051067017139,0.37297230187100977
-4.0385,-0.26334051067017139,0.19282944898332721
-4.0380000000000003,-0.24200016095482549,0.065669788121433675
-4.0374999999999996,-0.24200016095479637,-0.10387642636160185
-4.0369999999999999,-0.23132998609712346,-0.36879238649054674
-4.0365000000000002,-0.22065981123944084,-0.62311170821456507
-4.0359999999999996,-0.22065981123938261,-0.83504447631794265
-4.0354999999999999,-0.15663876209334496,-0.86683439153341613
-4.0350000000000001,0.38754015564846972,-0.32640583286987701
-4.0345000000000004,1.2304839694046319,0.41535885549116869
-4.0339999999999998,1.4652278162744163,0.66967817721586165
-4.0335000000000001,0.38754015564846972,0.63788826200035942
-4.0330000000000004,-0.92489135184530147,1.0829470750169869
-4.0324999999999998,-1.5437614935919428,0.86041766850834545
-4.032,-1.3837088707268488,0.27760255622466667
-4.0315000000000003,-0.90355100213156669,-0.12506970317132954
-4.0309999999999997,-0.57277558154278363,-0.40058230170610687
-4.0305,-0.3700422592469978,-0.4641621321370536
-4.0300000000000002,-0.25267033581259546,-0.34759910968031787
-4.0294999999999996,-0.19931946152405614,-0.1356663415766608
-4.0289999999999999,-0.17797911180871023,0.086863064931652884
-4.0285000000000002,-0.17797911180871023,0.29879583303500157
-4.0279999999999996,-0.16730893695102761,0.52132523954366217
-4.0274999999999999,-0.16730893695102761,0.68027481562102909
-4.0270000000000001,-0.10328788780493176,0.63788826200035942
-4.0265000000000004,0.16346648363689165,0.28819919463015214
-4.0259999999999998,0.65429452709053582,0.044476511310983152
-4.0255000000000001,1.2518243191207636,0.097459703336820316
-4.0250000000000004,1.3478558928398201,0.076266426526504727
-4.0244999999999997,0.95305942310521308,0.23521600260418005
-4.024,0.47290155450993088,0.43655213230217815
-4.0235000000000003,0.099445434491378104,0.53192187794859835
-4.0229999999999997,-0.12462823752039408,0.51072860113824414
-4.0225,-0.23132998609712346,0.39416557868150842
-4.0220000000000002,-0.2633405106701423,0.21402272579382592
-4.0214999999999996,-0.26334051067017139,-0.0085066807150660385
-4.0209999999999999,-0.26334051067017139,-0.24163272562853755
-4.0205000000000002,-0.25267033581248871,-0.4535654937318862
-4.0199999999999996,-0.24200016095479637,-0.64430498502503486
-4.0194999999999999,-0.23132998609712346,-0.792657922697244
-4.0190000000000001,-0.22065981123944084,-0.91981758355925325
-4.0185000000000004,-0.071277363232019691,-0.80325456110251747
-4.0179999999999998,0.32351910650237387,-0.22043944881820265
-4.0175000000000001,0.93171907339028448,0.50013196273318283
-4.0170000000000003,1.3905365922702206,1.0405605213962303
-4.0164999999999997,0.8570278493854967,1.3690563119563919
-4.016,-0.25267033581248871,0.7968378380778709
-4.0155000000000003,-1.1169544992839966,-0.36879238648948665
-4.0149999999999997,-1.084943974711599,-0.82444783791292942
-4.0145,-0.93556152670417769,-1.0257839676109275
-4.0140000000000002,-0.69014750497770017,-0.89862430674903404
-4.0134999999999996,-0.39138260896222721,-0.54893523937811362
-4.0129999999999999,-0.24200016095480609,-0.24163272562853755
-4.0125000000000002,-0.22065981123944084,-0.0085066807148540119
-4.0119999999999996,-0.22065981123943113,0.20342608738866813
-4.0114999999999998,-0.20998963638175816,0.39416557868150842
-4.0110000000000001,-0.20998963638175816,0.59550170837968963
-4.0105000000000004,-0.14596858723572056,0.54251851635390069
-4.0099999999999998,0.21681735792554749,-0.18864953360270037
-4.0095000000000001,0.96372959796333246,-1.0575738828264298
-4.0090000000000003,1.6999716631427648,-1.6933721871358975
-4.0084999999999997,1.9027049854389388,-1.7569520175668734
-4.008,1.3905365922706379,-1.0893637980419322
-4.0075000000000003,0.73965592595258878,-0.34759910968088648
-4.0069999999999997,0.21681735792526605,0.19282944898357779
-4.0065,-0.092617712947249131,0.46834204751768049
-4.0060000000000002,-0.24200016095480609,0.51072860113835017
-4.0054999999999996,-0.2953510352432096,0.38356894027613864
-4.0049999999999999,-0.28468086038553664,0.16103953376782493
-4.0045000000000002,-0.29535103524321932,-0.1674562567923655
-4.0039999999999996,-0.28468086038551721,-0.43237221692174405
-4.0034999999999998,-0.26334051067017139,-0.64430498502489997
-4.0030000000000001,-0.24200016095480609,-0.82444783791274634
-4.0025000000000004,-0.23132998609713318,-0.98339741399011327
-4.0019999999999998,-0.18864928666639288,-0.98339741399025782
-4.0015000000000001,-0.071277363231883828,-0.57012851618872795
-4.0010000000000003,0.22748753278295836,0.13984625695684438
-4.0004999999999997,0.46223137965166594,0.73325800764724214
-4,-0.17797911180871023,1.146526905448396
-3.9994999999999998,-0.98891240099259115,1.2313000126897355
-3.9990000000000001,-1.1276246741424654,0.68027481562102909
-3.9984999999999999,-0.91422117698881245,0.012686596095480854
-3.9980000000000002,-0.69014750497747701,-0.49595204735255594
-3.9975000000000001,-1.0849439747117349,-1.2801032893349458
-3.9969999999999999,-1.0102527507079564,-1.2906999277401132
-3.9965000000000002,-0.80751942841198598,-0.97280077558509037
-3.996,-0.64746680554674652,-0.5807251545938954
-3.9954999999999998,-0.40205278382004572,-0.082683149551026042
-3.9950000000000001,-0.22065981123944084,0.30939247144016896
-3.9944999999999999,-0.19931946152407554,0.52132523954351762
-3.9940000000000002,-0.18864928666639288,0.5637117931641874
-3.9935,0.11011560934872107,0.012686596095480854
-3.9929999999999999,0.86769802424418851,-0.87743102993858346
-3.9925000000000002,1.6679611385703865,-1.5662125262744668
-3.992,1.7960032368625782,-1.3966663117917877
-3.9914999999999998,1.3051751934091769,-0.70788481545590454
-3.9910000000000001,0.6863050516635838,-0.082683149551026042
-3.9904999999999999,0.19547700821018218,0.36237566346600614
-3.9900000000000002,-0.10328788780493176,0.54251851635385251
-3.9895,-0.24200016095480609,0.54251851635385251
-3.9889999999999999,-0.28468086038553664,0.40476221708667587
-3.9885000000000002,-0.27401068552785401,0.21402272579366208
-3.988,-0.26334051067017139,0.033879872905815719
-3.9874999999999998,-0.26334051067017139,-0.14626297998203064
-3.9870000000000001,-0.25267033581248871,-0.38998566330088158
-3.9864999999999999,-0.23132998609712346,-0.63370834661973252
-3.9860000000000002,-0.22065981123944084,-0.83504447631791379
-3.9855,-0.13529841237797968,-0.87743102993858346
-3.9849999999999999,0.44089102993688295,-0.33700247127504446
-3.9845000000000002,1.2731646688361289,0.39416557868150842
-3.984,1.9133751602970874,0.97698069096571727
-3.9834999999999998,2.1374488323084226,1.3478630351465775
-3.9830000000000001,1.2624944939784462,1.4750226960085864
-3.9824999999999999,0.35552963107542179,0.97698069096571727
-3.9820000000000002,-0.14596858723566233,0.25640927941433178
-3.9815,-0.34870190953163249,-0.26282600243887239
-3.9809999999999999,-0.39138260896236304,-0.50654868575772338
-3.9805000000000001,-0.35937208438931517,-0.49595204735255594
-3.98,-0.30602121010090194,-0.33700247127504446
-3.9794999999999998,-0.51942470725455481,-0.36879238649054674
-3.9790000000000001,-1.0422632752810042,-0.66549826183523486
-3.9784999999999999,-0.91422117698881245,-0.31580919446470956
-3.9780000000000002,-0.76483872898125549,0.012686596095480854
-3.9775,-0.58344575640065055,0.33058574825050385
-3.9769999999999999,-0.31669138495858457,0.54251851635385251
-3.9765000000000001,-0.08194753808956648,0.17163617217299235
-3.976,0.28083840707164331,-0.13566634157686319
-3.9754999999999998,0.70764540137894905,-0.050893234335523743
-3.9750000000000001,0.77166645052504479,0.0020899576903134209
-3.9744999999999999,0.52625242879834411,0.18223281057815977
-3.9740000000000002,0.22748753278323011,0.38356894027634103
-3.9735,0.0034138607718946501,0.52132523954351762
-3.9729999999999999,-0.12462823752029703,0.54251851635385251
-3.9725000000000001,-0.19931946152407554,0.4471487707073456
-3.972,-0.23132998609712346,0.26700591781949923
-3.9714999999999998,-0.24200016095480609,0.055073149716150585
-3.9710000000000001,-0.26334051067017139,-0.15685961838719809
-3.9704999999999999,-0.25267033581248871,-0.37938902489571413
-3.9700000000000002,-0.24200016095480609,-0.5807251545938954
-3.9695,-0.23132998609712346,-0.78206128429207655
-3.9689999999999999,-0.22065981123944084,-0.9304142219644207
-3.9685000000000001,0.12078578420640371,-0.68669153864556975
-3.968,0.92104889853260175,-0.0085066807148540119
-3.9674999999999998,1.6786313134280693,0.64848490040552687
-3.9670000000000001,1.7960032368625782,1.1041403518277266
-3.9664999999999999,0.70764540137894905,1.3796529503620798
-3.9660000000000002,-0.44473348325077627,1.241896651094903
-3.9655,-0.83952995298503397,0.57430843156935485
-3.9649999999999999,-0.80751942841198598,-0.082683149551026042
-3.9645000000000001,-0.61545628097369853,-0.47475877054222104
-3.964,-0.43406330839309365,-0.5807251545938954
-3.9634999999999998,-0.31669138495858457,-0.49595204735255594
-3.9630000000000001,-0.23132998609712346,-0.27342264084403983
-3.9624999999999999,-0.19931946152407554,-0.029699957525188878
-3.9620000000000002,-0.19931946152407554,0.21402272579366208
-3.9615,-0.19931946152407554,0.41535885549184332
-3.9609999999999999,-0.23132998609712346,0.57430843156935485
-3.9605000000000001,-0.78617907869662074,0.15044289536265748
-3.96,-0.99958257585027366,-0.2310360872233701
-3.9594999999999998,-0.71148785469284226,0.16103953376782493
-3.9590000000000001,-0.18864928666639288,0.775644561267536
-3.9584999999999999,0.34485945621773917,0.81803111488820579
-3.9580000000000002,0.4835717293676135,0.61669498519002452
-3.9575,0.25949805735627807,0.36237566346600614
-3.9569999999999999,0.014084035629577295,0.2246193641988295
-3.9565000000000001,-0.14596858723566233,0.17163617217299235
-3.956,-0.22065981123944084,0.15044289536265748
-3.9554999999999998,-0.25267033581248871,0.10805634174198775
-3.9550000000000001,-0.24200016095480609,0.055073149716150585
-3.9544999999999999,-0.23132998609712346,0.012686596095480854
-3.9540000000000002,-0.20998963638175816,-0.072086511145858609
-3.9535,-0.20998963638175816,-0.18864953360270037
-3.9529999999999998,-0.20998963638175816,-0.32640583286987701
-3.9525000000000001,-0.20998963638175816,-0.42177557851638392
-3.952,-0.0072563140857879876,-0.17805289519753292
-3.9514999999999998,0.70764540137894905,0.4471487707073456
-3.9510000000000001,1.2304839694053984,1.0405605213967219
-3.9504999999999999,1.2838348436938116,1.4750226960085864
-3.9500000000000002,0.67563487680590106,1.7081487409222702
-3.9495,-0.3700422592469978,1.6445689104912655
-3.9489999999999998,-0.77550890383893822,0.97698069096571727
-3.9485000000000001,-0.75416855412357298,0.24581264100916439
-3.948,-0.59411593125833329,-0.26282600243887239
-3.9474999999999998,-0.42339313353541097,-0.47475877054222104
-3.9470000000000001,-0.29535103524321932,-0.47475877054222104
-3.9464999999999999,-0.23132998609712346,-0.34759910968021185
-3.9460000000000002,-0.19931946152407554,-0.15685961838719809
-3.9455,-0.18864928666639288,0.033879872905815719
-3.9449999999999998,-0.19931946152407554,0.19282944898332721
-3.9445000000000001,-0.20998963638175816,0.31998910984533641
-3.944,-0.18864928666639288,0.36237566346600614
-3.9434999999999998,0.078105084775673142,-0.019103319120021445
-3.9430000000000001,0.857027849386506,-0.67609490024040231
-3.9424999999999999,1.657290963712704,-1.1741369052832717
-3.9420000000000002,1.806673411720261,-1.0469772444212624
-3.9415,0.78233662538272752,-1.0575738828264298
-3.9409999999999998,-0.11395806266261441,-0.83504447631791379
-3.9405000000000001,-0.47674400782382426,-0.37938902489571413
-3.9399999999999999,-0.63679663068906378,-0.050893234335523743
-3.9394999999999998,-0.54076505696992005,0.20342608738849466
-3.9390000000000001,-0.35937208438931517,0.33058574825050385
-3.9384999999999999,-0.29535103524321932,0.2246193641988295
-3.9380000000000002,-0.28468086038553664,0.055073149716150585
-3.9375,-0.28468086038553664,-0.093279787956193475
-3.9369999999999998,-0.26334051067017139,-0.29461591765437467
-3.9365000000000001,-0.24200016095480609,-0.49595204735255594
-3.9359999999999999,-0.22065981123944084,-0.65490162343006741
-3.9355000000000002,-0.14596858723566233,-0.70788481545590454
-3.9350000000000001,0.38754015564846972,-0.24163272562853755
-3.9344999999999999,1.2091436196900331,0.45774540911251305
-3.9340000000000002,1.806673411720261,1.0193672445863871
-3.9335,1.3478558928399074,1.3478630351465775
-3.9329999999999998,-0.11395806266261441,1.5280058880344236
-3.9325000000000001,-1.0315931004233216,1.2101067358794007
-3.9319999999999999,-1.1382948490001481,0.48953532432801533
-3.9315000000000002,-0.90355100213112993,-0.13566634157686319
-3.931,-0.61545628097369853,-0.47475877054222104
-3.9304999999999999,-0.39138260896236304,-0.55953187778356051
-3.9300000000000002,-0.26334051067017139,-0.4535654937318862
