Class_3_Grab_w_two_Hands/Class_3_Grab_with_Two_Hands_AM_5.csv

#Digilent WaveForms Oscilloscope Acquisition
#Device Name: EExplorer
#Serial Number: SN:210151A2B84A
#Date Time: 2020-11-24 16:08:40.801
#Sample rate: 2000Hz
#Samples: 16384
#Trigger: Source: Channel 1 Type: Edge Condition: Rising Level: 0 V Hyst.: Auto HoldOff: 0 s
#Channel 1: Range: 1 V/div Offset: 0 V Attenuation: 1 X
#Channel 2: Range: 1 V/div Offset: 0 V Attenuation: 1 X
#Power Supplies: ON
#Fixed Supply: ON
#Voltage: 3.3 V Readback: 3.317 V
#Positive Supply: ON
#Voltage: 3.7 V Readback: 3.717 V
#Current: 40 mA Readback: 23 mA
#Negative Supply: ON
#Voltage: -3.7 V Readback: -3.348 V
#Current: -40 mA Readback: -22 mA
#Reference 1: ON
#Voltage: 0 V
#Reference 2: ON
#Voltage: 0 V

Time (s),Channel 1 (V),Channel 2 (V)
-4.096,1.15579274540162,-1.195330182093607
-4.0955,0.9850699476788529,-0.9939940523956083
-4.095,0.7289857510941105,-0.7608680074815587
-4.0945,0.5049120790829789,-0.5595318777835605
-4.094,0.3448594562178847,-0.3899856633010358
-4.0935,0.2274875327831525,-0.1992461720073859
-4.093,0.142126133921769,0.3305857482505039
-4.0925,0.03542438534503962,0.5531151547588176
-4.092,-0.4127229586782524,-0.02969995752569967
-4.0915,-0.9889124009925911,-0.5913217929990628
-4.091,-1.650463242168915,-1.0999604364471
-4.0905,-2.312014083345413,-1.375473034981482
-4.09,-2.504077230783526,-1.407262950196955
-4.0895,-2.301343908487556,-1.184733543688439
-4.089,-1.383708870727683,-0.517145324163498
-4.0885,-0.6261264558313813,0.4471487707073456
-4.088,-0.09261771294724913,1.199510097474233
-4.0875,0.1848068333522472,1.644568910490861
-4.087,0.2915085819293454,1.845905040189524
-4.0865,0.3128489316446912,1.930678147430786
-4.086,0.2915085819293454,1.909484870620471
-4.0855,0.2701682322138637,1.792921848163513
-4.085,0.1634664836371343,1.686955464111935
-4.0845,-0.2633405106697832,1.814115124973829
-4.084,-0.5941159312585274,2.036644531482442
-4.0835,-0.807519428411986,2.015451254672126
-4.083,-0.5514352318276028,1.188913459069066
-4.0825,0.2701682322146497,0.1610395337671792
-4.082,1.027750647109428,-0.5489352393783931
-4.0815,1.497238340847464,-0.9728007755850904
-4.081,1.646620788854885,-1.152943628472773
-4.0805,1.529248865420512,-1.227120097309109
-4.08,1.230483969405398,-1.227120097309109
-4.0795,1.006410297394267,-1.205926820498793
-4.079,0.9317190733901098,-1.09996043644683
-4.0785,0.7396559259519968,-0.8032545611024114
-4.078,0.5475927785138841,-0.4747587705425198
-4.0775,0.3982103305060554,-0.1780528951972727
-4.077,0.291508581929326,0.1080563417419877
-4.0765,-0.1459685872352645,0.659081538810193
-4.076,-0.7221580295507579,1.125333628637551
-4.0755,-0.9782422261349084,0.5637117931641874
-4.075,-1.180975548430879,-0.2628260024388724
-4.0745,-1.60778254273866,-0.9410108603698194
-4.074,-2.130621110764634,-1.195330182093607
-4.0735,-2.482736881068161,-0.4959520473525559
-4.073,-2.450726356495142,0.1080563417414384
-4.0725,-1.693143941599645,0.09745970333682032
-4.072,-0.8502001278427167,0.2881991946298341
-4.0715,-0.2420001609553593,0.5849050699742524
-4.071,0.1101156093488763,0.8074344764832407
-4.0705,0.2808384070716433,1.029963882991555
-4.07,0.3235191065023351,1.273686566310184
-4.0695,0.3128489316446718,1.475022696008692
-4.069,0.291508581929326,1.591585718465428
-4.0685,0.2488278824985954,1.538602526439591
-4.068,-0.0712773632322623,1.559795803249945
-4.0675,-0.4874141826815069,1.580989080060261
-4.067,-0.6261264558313813,0.7332580076468663
-4.0665,-0.6154562809729998,-0.3793890248962346
-4.066,0.1527963087794516,-0.9516074987747555
-4.0655,1.017080472251745,-0.9198175835592532
-4.065,1.582599739708411,-0.623111708214835
-4.0645,1.806673411720261,-0.326405832869877
-4.064,1.753322537431848,-0.1674562567923655
-4.0635,1.497238340847697,-0.1356663415768921
-4.063,1.166462920259167,-0.2310360872235532
-4.0625,1.017080472251745,-0.4323722169215513
-4.062,0.7930068002406139,-0.4323722169215513
-4.0615,0.5582629533712368,-0.3899856633008527
-4.061,0.3875401556484697,-0.3581957480853793
-4.0605,0.291508581929326,-0.3052125560595421
-4.06,0.1207857842058603,-0.103876426360773
-4.0595,-0.4767440078238243,0.5425185163538525
-4.059,-1.170305373573196,0.9875773293708847
-4.0585,-1.799845690175899,1.263089927904987
-4.058,-2.344024607918286,0.7862411996727035
-4.0575,-2.493407055925843,-0.1780528951975329
-4.057,-2.504077230783516,-1.004590690799841
-4.0565,-2.482736881068161,-1.47084278062796
-4.056,-1.885207089037933,-1.375473034981453
-4.0555,-0.9782422261357333,-0.6019184314049338
-4.055,-0.3166913849582255,0.3199891098459725
-4.0545,0.07810508477567314,1.019367244586387
-4.054,0.270168232213786,1.453829419197857
-4.0535,0.3235191065023642,1.708148740922395
-4.053,0.3128489316446912,1.845905040189447
-4.0525,0.291508581929326,1.867098316999781
-4.052,0.2594980573560063,1.814115124973964
-4.0515,-0.03926683865883591,1.835308401784279
-4.051,-0.5300948821122373,2.004854616266958
-4.0505,-0.7968492535540608,1.930678147430854
-4.05,-0.8715404775580819,1.125333628638062
-4.0495,-0.274010685527854,0.13984625695749
-4.049,0.6222840025166727,-0.4111789401107154
-4.0485,1.305175193409488,-0.6972881770509011
-4.048,1.646620788855021,-0.8774310299385835
-4.0475,1.689301488285713,-0.9622041371798458
-4.047,1.507908515704836,-1.025783967610956
-4.0465,1.166462920259302,-1.05757388282643
-4.046,1.038420821967227,-1.121153713257377
-4.0455,0.8997085488170327,-1.004590690800313
-4.045,0.6756348768059011,-0.6972881770507372
-4.0445,0.4729015545099309,-0.400582301706049
-4.044,0.3448594562176907,-0.1568596183869668
-4.0435,0.291508581929326,0.09745970333682032
-4.043,-0.09261771294724913,0.6802748156210291
-4.0425,-0.7008176798346066,1.199510097473761
-4.042,-1.170305373573196,1.040560521396722
-4.0415,-1.543761493592088,0.7332580076468663
-4.041,-1.991908837614352,-0.082683149550284
-4.0405,-2.418715831922123,-0.8668343915338402
-4.04,-2.482736881068161,-1.333086481360783
-4.0395,-1.981238662757533,-1.30129656614531
-4.039,-1.074273799853431,-0.6019184314034111
-4.0385,-0.391382608962363,0.2987958330350016
-4.038,0.03542438534455439,0.998173967775416
-4.0375,0.259498057356346,1.411442865577804
-4.037,0.3341892813600565,1.655165548896433
-4.0365,0.3341892813600565,1.782325209758442
-4.036,0.3021787567869892,1.792921848163485
-4.0355,0.2808384070716433,1.655165548896433
-4.035,0.1954770082101822,1.453829419198252
-4.0345,-0.2846808603851,1.549199164844672
-4.034,-0.8928808272734472,1.549199164844759
-4.0335,-1.341028171296118,1.400846227172415
-4.033,-0.9782422261352384,0.7968378380784202
-4.0325,0.1101156093495848,0.1292496185518407
-4.032,1.059761171682476,-0.400582301706049
-4.0315,1.635950613996815,-0.7396747306710985
-4.031,1.828013761435558,-0.9622041371800578
-4.0305,1.753322537431848,-1.110557074852267
-4.03,1.475897991132351,-1.184733543688372
-4.0295,1.198473444832166,-1.174136905283069
-4.029,0.9957401225363802,-0.9516074987747555
-4.0285,0.7183155762366316,-0.7078848154559045
-4.028,0.4942419042251699,-0.485355408947215
-4.0275,0.3555296310754218,-0.2946159176543747
-4.027,0.2701682322139607,-0.08268314955102604
-4.0265,-0.007256314085535676,0.3623756634656013
-4.026,-0.7328282044082075,1.093543713422559
-4.0255,-1.490410619303675,1.75053529454294
-4.025,-2.141291285621724,1.84590504018936
-4.0245,-2.48273688106818,0.8922075837233948
-4.024,-2.504077230783526,-0.1886495336027004
-4.0235,-2.493407055925853,-0.5595318777832232
-4.023,-2.472066706209934,-0.7502713690765261
-4.0225,-1.87453691418025,-0.6972881770507372
-4.022,-0.9569018764203777,-0.1038764263619005
-4.0215,-0.3060212101005429,0.6378882620008799
-4.021,0.08877525963335578,1.210106735879401
-4.0205,0.2808384070716433,1.506812611224089
-4.02,0.3341892813600468,1.718745379327563
-4.0195,0.3235191065023739,1.856501678594614
-4.019,0.3021787567870086,1.888291593810116
-4.0185,0.2594980573563169,1.718745379327592
-4.018,-0.1032878878049318,1.517409249629256
-4.0175,-0.5194247072545548,1.072350436612224
-4.017,-0.7968492535540512,0.07626642652739135
-4.0165,-0.8502001278419792,-0.6549016234303469
-4.016,-0.03926683865883591,-0.9622041371799229
-4.0155,0.8783681991010367,-0.9833974139902385
-4.015,1.497238340847697,-1.015187329205789
-4.0145,1.753322537431848,-1.046977244421262
-4.014,1.710641838001156,-1.078767159636736
-4.0135,1.454557641416433,-1.110557074852344
-4.013,1.123782220828572,-1.195330182093607
-4.0125,0.974399772821015,-1.280103289334946
-4.012,0.7503261008094855,-1.068170521231298
-4.0115,0.5369226036560266,-0.7396747306714069
-4.011,0.3875401556484697,-0.4535654937318862
-4.0105,0.3021787567870863,-0.2204394488184147
-4.01,0.3661998059331045,0.1292496185523226
-4.0095,0.6436243522328531,0.8180311148882058
-4.009,0.334189281360338,0.8498210301036792
-4.0085,-0.1779791118092537,0.2987958330345293
-4.008,-0.7755089038389382,-0.2204394488182027
-4.0075,-1.469070269587679,-0.8456411147225126
-4.007,-2.162631635337924,-1.258910012524746
-4.0065,-2.429386006779747,-1.407262950196955
-4.006,-1.746494815888059,-1.046977244421262
-4.0055,-0.903551002130567,-0.1780528951967619
-4.005,-0.2846808603855366,0.6696781772158616
-4.0045,0.09944543449103843,1.231300012689736
-4.004,0.2808384070716918,1.538602526439736
-4.0035,0.3341892813600565,1.697552102517103
-4.003,0.3235191065023739,1.75053529454294
-4.0025,0.302178756787028,1.803518486568729
-4.002,0.291508581929326,1.528005888034424
-4.0015,0.1741366584948169,1.273686566310405
-4.001,-0.09261771294700649,1.231300012689774
-4.0005,-0.4554036581084395,0.5001319627324214
-4,-0.4340633083930936,-0.3370024712750445
-3.9995,0.2274875327832301,-0.7820612842920766
-3.999,0.9957401225363802,-0.9728007755850904
-3.9985,1.529248865420512,-1.121153713257435
-3.998,1.753322537431848,-1.131750351662602
-3.9975,1.7213120128588,-1.131750351662602
-3.997,1.497238340847464,-1.174136905283272
-3.9965,1.166462920259302,-1.184733543688439
-3.996,1.006410297394063,-1.184733543688439
-3.9955,0.825017324813458,-1.01518732920576
-3.995,0.6329541773751706,-0.7820612842920766
-3.9945,0.4729015545099309,-0.5277419625680583
-3.994,0.3768699807907871,-0.2734226408440398
-3.9935,0.3128489316446912,-0.008506680714854012
-3.993,0.408880505363835,0.5849050699745222
-3.9925,0.4195506802215176,0.8604176685088755
-3.992,-0.02859666380115328,0.2670059178194992
-3.9915,-0.7755089038389382,-0.3052125560595421
-3.991,-1.543761493592088,-0.9198175835592532
-3.9905,-2.269333383914508,-1.301296566145281
-3.99,-2.493407055925843,-1.407262950196955
-3.9895,-2.376035132491334,-1.301296566145281
-3.989,-1.501080794161358,-0.9728007755850904
-3.9885,-0.690147504977477,-0.252229364033705
-3.988,-0.1352984123779797,0.6802748156210291
-3.9875,0.1741366584948169,1.178316820663898
-3.987,0.3021787567870086,1.42203950398275
-3.9865,0.3341892813600565,1.612778995275763
-3.986,0.3128489316446912,1.697552102517103
-3.9855,0.291508581929326,1.6657621873016
-3.985,0.1954770082101822,1.538602526439591
-3.9845,-0.2633405106701714,1.655165548896433
-3.984,-0.658136980404429,1.390249588767247
-3.9835,-0.9889124009925911,0.4047622170866759
-3.983,-0.7434983792658902,-0.6125150698093976
-3.9825,0.2488278824985954,-1.0999604364471
-3.982,1.134452395686255,-1.142346990067769
-3.9815,1.635950613997339,-1.036380606016095
-3.981,1.774662887147213,-0.9939940523954253
-3.9805,1.646620788855021,-0.9833974139902578
-3.98,1.315845368266859,-1.004590690800593
-3.9795,1.081101521397841,-1.0999604364471
-3.979,0.942389248247967,-1.0999604364471
-3.9785,0.6969752265212663,-0.9516074987747555
-3.978,0.4835717293676135,-0.7820612842920766
-3.9775,0.3555296310754218,-0.6125150698093976
-3.977,0.291508581929326,-0.4429688553267188
-3.9765,0.07810508477567314,0.1080563417419877
-3.976,-0.5834457564006506,0.9134008605347127
-3.9755,-1.138294849000148,1.072350436612224
-3.975,-1.67180359188428,0.6696781772158616
-3.9745,-2.269333383914508,-0.1568596183871981
-3.974,-2.493407055925843,-0.9516074987747555
-3.9735,-2.493407055925843,-1.407262950196955
-3.973,-2.354694782775969,-1.523825972653797
-3.9725,-1.458400094730627,-1.237716735714276
-3.972,-0.658136980404429,-0.4429688553267188
-3.9715,-0.1139580626626144,0.5955017083796896
-3.971,0.1848068333524996,1.135930267043229
-3.9705,0.3128489316446912,1.358459673551745
-3.97,0.3448594562177392,1.591585718465428
-3.9695,0.3235191065023739,1.729342017732605
-3.969,0.3021787567870086,1.867098316999781
-3.9685,0.2701682322139607,1.803518486568777
-3.968,0.00341386077189465,1.771728571353275
-3.9675,-0.423393133535411,1.591585718465428
-3.967,-0.807519428411986,0.6696781772158616
-3.9665,-0.4660738329661415,-0.1992461720078678
-3.966,0.4408910299368829,-0.6231117082145651
-3.9655,1.241154144263081,-0.8138511995075789
-3.965,1.710641838001117,-0.9833974139902578
-3.9645,1.849354111150991,-1.0999604364471
-3.964,1.742652362574165,-1.131750351662602
-3.9635,1.465227816274416,-1.174136905283272
-3.963,1.177133095116985,-1.237716735714276
-3.9625,1.059761171682476,-1.258910012524611
-3.962,0.825017324813458,-1.046977244421262
-3.9615,0.5902734779444399,-0.7608680074817418
-3.961,0.4195506802215176,-0.4959520473525559
-3.9605,0.3235191065023739,-0.2628260024388724
-3.96,0.1954770082101822,0.09745970333682032
-3.9595,-0.3487019095316325,0.7862411996727035
-3.959,-0.8928808272734472,0.9875773293708847
-3.9585,-1.277007122150022,0.2776025562246667
-3.958,-1.746494815888059,-0.6125150698093976
-3.9575,-2.301343908487556,-1.227120097309109
-3.957,-2.482736881068161,-1.481439419033127
-3.9565,-2.482736881068161,-1.439052865412457
-3.956,-2.098610586191586,-1.195330182093607
-3.9555,-1.148965023857831,-0.6972881770507372
-3.955,-0.4447334832507763,0.2140227257936621
-3.9545,0.01408403562957729,0.9875773293708847
-3.954,0.2488278824985954,1.400846227172415
-3.9535,0.3235191065023739,1.676358825706768
-3.953,0.3341892813600565,1.803518486568777
-3.9525,0.3235191065023739,1.771728571353275
-3.952,0.3128489316446912,1.602182356870596
-3.9515,0.05676473506030786,1.6657621873016
-3.951,-0.4874141826815069,1.898888232215284
-3.9505,-0.807519428411986,1.729342017732605
-3.95,-0.807519428411986,0.9134008605347127
-3.9495,-0.124628237520297,0.03387987290581572
-3.949,0.7609962756673623,-0.570128516188728
-3.9485,1.401206767128321,-0.9198175835592532
-3.948,1.710641838001117,-1.142346990067769
-3.9475,1.7213120128588,-1.258910012524611
-3.947,1.507908515705147,-1.311893204550448
-3.9465,1.19847344483235,-1.269506650929778
-3.946,1.113112045970889,-1.290699927740113
-3.9455,0.9637295979633325,-1.121153713257435
-3.945,0.707645401378949,-0.8138511995075789
-3.9445,0.4942419042252961,-0.5171453241628908
-3.944,0.3555296310754218,-0.2310360872233701
-3.9435,0.2808384070716433,0.06566978812131802
-3.943,0.02475421048725994,0.5637117931641874
-3.9425,-0.3700422592469978,1.135930267043229
-3.942,-0.8928808272734472,1.464426057603419
-3.9415,-1.479740444445993,1.157123543853563
-3.941,-2.109280761049269,0.1822328105781598
-3.9405,-2.472066706210478,-0.718481453861072
-3.94,-2.482736881068161,-1.227120097309109
-3.9395,-2.354694782775969,-1.364876396576285
-3.939,-1.479740444445993,-1.237716735714276
-3.9385,-0.6794773301197943,-0.8774310299385835
-3.938,-0.124628237520297,-0.3158091944647096
-3.9375,0.1848068333524996,0.07626642652648545
-3.937,0.3235191065023739,0.5107286011383502
-3.9365,0.3448594562177392,1.029963882991555
-3.936,0.3235191065023739,1.42203950398275
-3.9355,0.3128489316446912,1.528005888034424
-3.935,0.142126133921769,1.570392441655093
-3.9345,-0.391382608962363,1.803518486568777
-3.934,-0.6688071552621118,1.602182356870596
-3.9335,-0.9355615267041777,0.6060983467848571
-3.933,-0.6047861061160158,-0.1992461720078678
-3.9325,0.291508581929326,-0.7820612842920766
-3.932,1.113112045970889,-1.142346990067769
-3.9315,1.614610264281974,-1.38606967338662
-3.931,1.76399271228953,-1.396666311791788
-3.9305,1.646620788855021,-1.322489842955616
-3.93,1.35852606769759,-1.280103289334946
-3.9295,1.038420821967111,-1.258910012524611
-3.929,0.7396559259519968,-1.036380606016095
-3.9285,0.5155822539406614,-0.8138511995075789
-3.928,0.3661998059331045,-0.6125150698093976
-3.9275,0.291508581929326,-0.4323722169215513
-3.927,0.2701682322139607,-0.2310360872233701
-3.9265,0.2061471830678648,0.03387987290581572
-3.926,0.2061471830678648,0.6696781772158616
-3.9255,-0.3807124341046804,1.29487984312074
-3.925,-1.084943974711735,1.443232780793084
-3.9245,-1.757164990745741,0.6060983467848571
-3.924,-2.376035132491334,-0.3475991096802118
-3.9235,-2.482736881068161,-0.5489352393783931
-3.923,-2.408045657064382,-0.5913217929990628
-3.9225,-1.586442193022819,-0.3370024712750445
-3.922,-0.754168554123573,0.2881991946298341
-3.9215,-0.1673089369510276,0.8922075837243778
-3.921,0.1741366584948169,1.33726639674141
-3.9205,0.3235191065023739,1.612778995275763
-3.92,0.3555296310754218,1.75053529454294
-3.9195,0.3341892813600565,1.824711763379112
-3.919,0.3128489316446912,1.824711763379112
-3.9185,0.2488278824985954,1.739938656137773
-3.918,-0.1032878878049318,1.803518486568777
-3.9175,-0.4980843575391895,1.718745379327438
-3.917,-0.7755089038389382,0.8710143069140429
-3.9165,-0.5834457564006506,-0.1462629799820306
-3.916,0.2701682322139607,-0.6866915386455698
-3.9155,1.102441871113207,-0.9410108603695881
-3.915,1.625280439139656,-1.05757388282643
-3.9145,1.796003236862578,-1.068170521231597
-3.914,1.710641838001117,-1.078767159636765
-3.9135,1.433217291701369,-1.0999604364471
-3.913,1.134452395686255,-1.174136905283272
-3.9125,0.9957401225363802,-1.248313374119443
-3.912,0.7716664505250448,-1.025783967610927
-3.9115,0.5475927785137094,-0.718481453861072
-3.911,0.3875401556484697,-0.4217755785163839
-3.9105,0.3128489316446912,-0.1780528951975329
-3.91,0.07810508477567314,0.1928294489833272
-3.9095,-0.5941159312583333,0.8816109453192104
-3.909,-1.212986073003927,1.496215972818921
-3.9085,-1.51175096901904,1.358459673551745
-3.908,-1.927887788468663,0.4895353243280153
-3.9075,-2.376035132491334,-0.5277419625680583
-3.907,-2.472066706210478,-1.237716735714276
-3.9065,-2.472066706210478,-1.566212526274467
-3.906,-2.013249187330125,-1.545019249464132
-3.9055,-1.074273799854052,-1.195330182093607
-3.905,-0.3807124341046804,-0.4535654937318862
-3.9045,0.05676473506030786,0.3411823866556712
-3.904,0.2701682322139607,0.849821030103708
-3.9035,0.3448594562177392,1.284283204715573
-3.903,0.3555296310754218,1.528005888034424
-3.9025,0.3341892813600565,1.686955464111935
-3.902,0.3128489316446912,1.453829419198252
-3.9015,0.3341892813600565,1.157123543853563
-3.901,0.2594980573562781,1.061753798207057
-3.9005,-0.07127736323188383,0.2246193641988295
-3.9,-0.3700422592469978,-0.7714646458869092
-3.8995,0.1527963087794516,-1.534422611058964
-3.899,1.081101521397841,-1.629792356705471
-3.8985,1.710641838001117,-1.364876396576285
-3.898,1.966726034585501,-1.142346990067769
-3.8975,1.913375160297087,-1.01518732920576
-3.897,1.657290963712704,-0.9622041371799229
-3.8965,1.305175193409177,-0.9939940523954253
-3.896,1.145122570543937,-1.078767159636765
-3.8955,0.9210488985326017,-0.9833974139902578
-3.895,0.6542945270905358,-0.8244478379127463
-3.8945,0.4622313796522482,-0.6549016234300674
-3.894,0.3341892813600565,-0.4959520473525559
-3.8935,0.291508581929326,-0.2628260024388724
-3.893,0.4729015545099309,0.383568940276341
-3.8925,0.2168173579255475,1.167720182258731
-3.892,-0.4660738329661415,1.771728571353275
-3.8915,-1.148965023857831,1.411442865577582
-3.891,-1.821186039891837,0.3199891098453364
-3.8905,-2.408045657064382,-0.6866915386455698
-3.89,-2.482736881068161,-1.258910012524611
-3.8895,-2.322684258202921,-1.439052865412457
-3.889,-1.415719395299897,-1.258910012524611
-3.8885,-0.6261264558313813,-0.6972881770507372
-3.888,-0.09261771294724913,0.1716361721729923
-3.8875,0.2061471830678648,0.7332580076468663
-3.887,0.3235191065023739,1.263089927905238
-3.8865,0.3448594562177392,1.655165548896433
-3.886,0.3341892813600565,1.867098316999781
-3.8855,0.3128489316446912,1.909484870620451
-3.885,0.1314559590640864,2.026047893077293
-3.8845,-0.4020527838200457,2.174400830749637
-3.884,-0.7755089038389382,2.089627723508298
