Class_3_Grab_w_two_Hands/Class_3_Grab_with_Both_hands_Turki_6.csv

#Digilent WaveForms Oscilloscope Acquisition
#Device Name: EExplorer
#Serial Number: SN:210151A2B84A
#Date Time: 2020-12-10 14:06:14.967
#Sample rate: 2000Hz
#Samples: 16384
#Trigger: Source: Channel 1 Type: Edge Condition: Rising Level: 0 V Hyst.: Auto HoldOff: 0 s
#Channel 1: Range: 1 V/div Offset: 0 V Attenuation: 1 X
#Channel 2: Range: 1 V/div Offset: 0 V Attenuation: 1 X
#Power Supplies: ON
#Fixed Supply: ON
#Voltage: 3.3 V Readback: 3.328 V
#Positive Supply: ON
#Voltage: 3.7 V Readback: 3.691 V
#Current: 40 mA Readback: 17 mA
#Negative Supply: ON
#Voltage: -3.7 V Readback: -3.91 V
#Current: -40 mA Readback: -9 mA
#Reference 1: ON
#Voltage: 0 V
#Reference 2: ON
#Voltage: 0 V

Time (s),Channel 1 (V),Channel 2 (V)
-4.096,0.8036769750980928,0.4471487707073456
-4.0955,0.7289857510943822,0.2034260873887163
-4.095,-0.04993701351743077,-0.5171453241635269
-4.0945,-1.052933450138687,-1.216523458903942
-4.094,-1.86386673932183,-1.629792356705095
-4.0935,-2.173301810194782,-1.714565463946435
-4.093,-1.533091318734406,-1.301296566145281
-4.0925,-0.6581369804052248,-0.3475991096810792
-4.092,0.05676473506071545,0.6802748156217423
-4.0915,0.5049120790829789,1.464426057603419
-4.091,0.7289857510943143,1.951871424241121
-4.0905,0.8036769750980928,2.174400830749676
-4.09,0.8036769750980928,2.216787384370307
-4.0895,0.7609962756673623,2.089627723508298
-4.089,0.6969752265213245,1.98366133945672
-4.0885,0.6436243522328531,1.909484870620451
-4.088,0.6116138276598051,1.803518486568777
-4.0875,0.5475927785137675,1.432636142388254
-4.087,0.3235191065028203,0.6696781772150617
-4.0865,0.8143471499557753,-0.2098428104130352
-4.086,0.86769802424414,-0.9728007755843965
-4.0855,0.1954770082093573,-1.428456227007598
-4.085,-0.7114878546928423,-1.767548655972648
-4.0845,-0.9675720512769928,-1.428456227007598
-4.084,-0.5300948821116648,-0.6654982618348494
-4.0835,0.09944543449103843,-0.2416327256285375
-4.083,0.6009436528021226,-0.1674562567923655
-4.0825,0.8890383739596119,-0.2416327256287014
-4.082,0.9530594231056497,-0.4217755785163839
-4.0815,1.19847344483235,-0.6337083466197325
-4.081,1.30517519340908,-0.5171453241629969
-4.0805,0.8463576745288233,-0.5171453241628908
-4.08,0.2274875327832301,-0.8032545611024114
-4.0795,0.248827882498576,-0.57012851618894
-4.079,0.4835717293683899,-0.4111789401115923
-4.0785,1.337185717982225,-0.8244478379127463
-4.078,1.64662078885474,-1.460246142222214
-4.0775,0.5262524287971602,-2.000674700886495
-4.077,-0.7755089038389382,-2.180817553774178
-4.0765,-1.885207089036924,-2.212607468989651
-4.076,-1.970568487898724,-1.926498232049504
-4.0755,-1.234326422719292,-1.205926820498774
-4.075,-0.4020527838200457,-0.1992461720078678
-4.0745,0.2274875327835698,0.8180311148888997
-4.074,0.6009436528021226,1.580989080060261
-4.0735,0.7609962756673623,2.004854616266958
-4.073,0.7930068002403809,2.089627723508221
-4.0725,0.7609962756673623,1.962468062646288
-4.072,0.6969752265212663,1.877694955404949
-4.0715,0.6542945270905747,1.835308401784318
-4.071,0.6009436528017926,1.665762187300926
-4.0705,0.2381577076409128,0.92399749893988
-4.07,-0.5834457563999031,-0.1568596183862152
-4.0695,-1.351698346154306,-1.089363798042501
-4.069,-1.906547438753298,-1.714565463946811
-4.0685,-1.810515865034154,-1.937094870455327
-4.068,-0.8608703026995743,-1.598002441489381
-4.0675,0.04609456020262521,-0.9516074987747555
-4.067,0.6649647019482183,-0.4853554089473885
-4.0665,0.9850699476788142,-0.315809194464671
-4.066,1.113112045970889,-0.2734226408440398
-4.0655,1.091771696255524,-0.3475991096802118
-4.065,1.155792745401562,-0.5701285161885256
-4.0645,1.273164668836129,-0.570128516188728
-4.064,1.187803269974668,-0.2734226408440398
-4.0635,1.04909099682492,0.0656697881210096
-4.063,0.9103787236748611,0.2987958330350787
-4.0625,0.8463576745288233,0.383568940276341
-4.062,1.251824319120395,0.03387987290613376
-4.0615,1.593269914566142,-0.5701285161891713
-4.061,1.081101521397841,-1.05757388282643
-4.0605,0.408880505363835,-1.174136905283272
-4.06,-0.4020527838202204,-1.142346990067326
-4.0595,-0.5941159312583333,-0.6549016234300674
-4.059,-0.2953510352432193,0.2670059178194992
-4.0585,0.09944543449067939,1.167720182257912
-4.058,0.408880505363835,1.814115124973944
-4.0575,0.6009436528021226,2.195594107559972
-4.057,0.6969752265211789,2.354543683637339
-4.0565,0.6542945270905358,2.280367214801311
-4.056,0.6649647019482183,2.142610915534135
-4.0555,0.6329541773751997,2.057837808292873
-4.055,-0.1246282375202582,1.210106735879063
-4.0545,-0.08194753808956648,0.8392243916985406
-4.054,-0.1032878878049124,0.3093924714406507
-4.0535,-0.83952995298582,-0.6337083466205131
-4.053,-1.703814116457328,-1.492036057438295
-4.0525,-2.322684258202921,-2.096044446532838
-4.052,-2.770831602225748,-2.477523429119049
-4.0515,-2.941554399948514,-2.678859558817047
-4.051,-1.959898313041711,-1.968884785670829
-4.0505,-0.7221580295516508,-1.057573882827259
-4.05,0.2274875327832301,-0.4429688553267188
-4.0495,0.7823366253827275,-0.1568596183871981
-4.049,1.006410297393859,-0.1038764263614091
-4.0485,1.113112045971025,-0.2840192792493615
-4.048,1.262494493978446,-0.4535654937318862
-4.0475,1.198473444832409,-0.2734226408442036
-4.047,1.049090996824658,-0.05089323433531172
-4.0465,0.8997085488172365,0.1822328105781598
-4.046,0.8036769750981801,0.3411823866555267
-4.0455,1.07043134654079,0.1292496185517058
-4.045,1.76399271228953,-0.5489352393783931
-4.0445,1.902704985439405,-1.237716735714276
-4.044,1.187803269973581,-1.598002441490007
-4.0435,-0.007256314085787988,-1.640388995110639
-4.043,-0.754168554123573,-1.364876396576285
-4.0425,-0.6474668055468435,-0.4641621321378728
-4.042,-0.2313299860971235,0.6060983467848571
-4.0415,0.1848068333524996,1.464426057603419
-4.041,0.4835717293673417,2.004854616266467
-4.0405,0.643624352232921,2.280367214801389
-4.04,0.7183155762366316,2.365140322042651
-4.0395,0.7183155762366316,2.248577299585915
-4.039,0.7076454013789005,2.132014277128861
-4.0385,0.6542945270905358,2.015451254672126
-4.038,0.6009436528021711,1.453829419198763
-4.0375,0.5369226036556191,1.157123543853072
-4.037,0.08877525963335578,0.6166949851900245
-4.0365,-0.6474668055467465,-0.2098428104130352
-4.036,-1.341028171296448,-0.9410108603698966
-4.0355,-1.703814116457328,-1.280103289334946
-4.035,-2.013249187330125,-1.587405803084801
-4.0345,-1.469070269588805,-1.280103289335225
-4.034,-0.5407650569699201,-0.718481453861072
-4.0335,0.2274875327832301,-0.4429688553267188
-4.033,0.7183155762361851,-0.326405832869983
-4.0325,0.9530594231056594,-0.3264058328699155
-4.032,0.9637295979633325,-0.3687923864905467
-4.0315,1.177133095116791,-0.4429688553266513
-4.031,1.283834843693055,-0.1780528951979377
-4.0305,0.4515612047945656,-0.6231117082145651
-4.03,0.3555296310755092,-0.2946159176546734
-4.0295,0.4195506802216632,0.08686306493173962
-4.029,0.5796033030867573,0.1822328105781598
-4.0285,1.315845368266859,-0.3581957480853793
-4.028,1.763992712288667,-1.195330182094281
-4.0275,0.8143471499557753,-1.937094870455327
-4.027,-0.5514352318276028,-2.350363768256857
-4.0265,-1.074273799853577,-2.254994022610436
-4.026,-0.7755089038389382,-1.608599079895136
-4.0255,-0.2420001609548061,-0.6972881770507372
-4.025,0.2168173579251302,0.3623756634650425
-4.0245,0.52625242879848,1.273686566310955
-4.024,0.6756348768059011,1.877694955404949
-4.0235,0.7289857510942658,2.16380419234421
-4.023,0.7183155762366025,2.153207553939187
-4.0225,0.6863050516635838,2.026047893077293
-4.022,0.6329541773752191,1.898888232215399
-4.0215,0.6116138276597566,1.686955464111261
-4.021,0.5582629533713921,0.9451907757502149
-4.0205,0.3448594562177392,0.01268659609548085
-4.02,-0.4554036581092256,-0.9304142219650857
-4.0195,-1.298347471865388,-1.661582271920973
-4.019,-1.757164990745741,-2.000674700886331
-4.0185,-1.842526389607125,-2.032464616101805
-4.018,-1.234326422719292,-1.587405803084801
-4.0175,-0.4127229586777283,-0.8774310299385835
-4.017,0.2808384070710125,-0.4111789401116405
-4.0165,0.750326100809893,-0.1780528951974751
-4.016,0.9850699476786977,-0.1144730647665284
-4.0155,1.038420821967062,-0.1462629799820017
-4.015,1.102441871113236,-0.2946159176542976
-4.0145,1.134452395686255,-0.2098428104130352
-4.014,1.027750647109525,0.03387987290559405
-4.0135,0.8997085488171491,0.2352160026041512
-4.013,0.8036769750980928,0.4047622170866759
-4.0125,0.7716664505250448,0.5001319627331828
-4.012,1.123782220828912,0.2034260873879453
-4.0115,1.497238340847464,-0.400582301706049
-4.011,1.059761171682476,-0.8668343915334161
-4.0105,0.08877525963423882,-1.08936379804173
-4.01,-0.8928808272734472,-1.110557074852267
-4.0095,-1.277007122150022,-0.8774310299385835
-4.009,-0.8822106524161235,-0.1462629799826957
-4.0085,-0.2953510352427729,0.7968378380785841
-4.008,0.1954770082101822,1.580989080060261
-4.0075,0.5049120790826974,2.089627723507835
-4.007,0.6222840025175073,2.301560491611646
-4.0065,0.6436243522328531,2.301560491611646
-4.006,0.5049120790829789,1.983661339456623
-4.0055,-0.1459685872355459,1.167720182258625
-4.005,-0.01792648894347063,1.051157159801889
-4.0045,0.1101156093487211,1.125333628638062
-4.004,0.0460945602019362,0.8286277532925539
-4.0035,-0.7114878546928423,-0.07208651114585861
-4.003,-1.725154466172693,-1.131750351662602
-4.0025,-2.493407055925145,-2.000674700885541
-4.002,-2.824182476514005,-2.456330152308531
-4.0015,-2.354694782775969,-2.096044446532838
-4.001,-1.234326422720311,-1.280103289335688
-4.0005,-0.1032878878042233,-0.6760949002401324
-4,0.6756348768059011,-0.3793890248957141
-3.9995,1.049090996824793,-0.3370024712750445
-3.999,1.15579274540162,-0.400582301706049
-3.9985,1.166462920259302,-0.5383386009732256
-3.998,1.241154144263081,-0.5913217929990628
-3.9975,1.134452395686255,-0.400582301706049
-3.997,0.9637295979633325,-0.1462629799820306
-3.9965,0.825017324813458,0.06566978812131802
-3.996,0.7396559259519968,0.1504428953626575
-3.9955,0.8356874996711408,-0.09327978795619347
-3.995,1.35852606769759,-0.7396747306714069
-3.9945,1.92404533515477,-1.354279758171118
-3.994,1.571929564851243,-1.629792356705471
-3.9935,0.3555296310754218,-1.566212526274467
-3.993,-0.6794773301197943,-1.301296566145281
-3.9925,-0.7861790786966207,-0.6654982618352349
-3.992,-0.4020527838200457,0.309392471440169
-3.9915,0.03542438534494258,1.273686566310405
-3.991,0.3768699807907871,1.951871424241121
-3.9905,0.5796033030867573,2.333350406827149
-3.99,0.6649647019482183,2.460510067689158
-3.9895,0.6863050516635838,2.322753768421981
-3.989,0.6436243522328531,2.184997469154805
-3.9885,0.5902734779444399,2.026047893077293
-3.988,0.5582629533713921,1.729342017732605
-3.9875,0.4729015545099309,1.305476481525908
-3.987,-0.08194753808956648,0.5743084315693548
-3.9865,-0.8822106524157645,-0.3052125560595421
-3.986,-1.51175096901904,-0.9939940523954253
-3.9855,-1.725154466172693,-1.248313374119443
-3.985,-1.863866739322568,-1.481439419033127
-3.9845,-1.30901764672307,-1.290699927740113
-3.984,-0.4447334832507763,-0.8244478379127463
-3.9835,0.2701682322139607,-0.5171453241628908
-3.983,0.7183155762366316,-0.400582301706049
-3.9825,0.9210488985326017,-0.3793890248957141
-3.982,0.8890383739595538,-0.5171453241628908
-3.9815,1.070431346540159,-0.6019184314042303
-3.981,1.059761171682476,-0.4853554089473885
-3.9805,0.5475927785137094,-0.5807251545938954
-3.98,0.1741366584948169,-0.5595318777835605
-3.9795,0.3555296310754218,-0.252229364033705
-3.979,0.6222840025174878,-0.1992461720078678
-3.9785,1.433217291701369,-0.7608680074817418
-3.978,2.094768132877692,-1.460246142222792
-3.9775,1.326515543124542,-2.000674700886331
-3.977,-0.156638762093345,-2.159624276963843
-3.9765,-1.554431668449771,-2.096044446532838
-3.976,-1.853196564464885,-1.725162102351978
-3.9755,-1.244996597576974,-0.9092209451540858
-3.975,-0.4660738329661415,0.1822328105781598
-3.9745,0.142126133921769,1.199510097474233
-3.974,0.5155822539406614,1.909484870620451
-3.9735,0.6863050516635838,2.269770576396144
-3.973,0.7289857510943143,2.280367214801311
-3.9725,0.707645401378949,2.004854616266958
-3.972,0.6649647019482183,1.739938656137773
-3.9715,0.6116138276598051,1.6657621873016
-3.971,0.5475927785137094,1.464426057603419
-3.9705,0.1741366584948169,0.8286277532933731
-3.97,-0.1993194615240755,0.1504428953626575
-3.9695,-0.9035510021311299,-0.718481453861072
-3.969,-1.554431668449771,-1.333086481360783
-3.9685,-1.810515865034154,-1.661582271920973
-3.968,-1.202315898146244,-1.375473034981453
-3.9675,-0.3273615598162672,-0.8986243067489184
-3.967,0.3982103305061524,-0.5489352393783931
-3.9665,0.8356874996711408,-0.4429688553267188
-3.966,1.017080472251745,-0.4217755785163839
-3.9655,1.038420821967111,-0.4323722169215513
-3.965,1.113112045970889,-0.570128516188728
-3.9645,1.15579274540162,-0.4641621321370536
-3.964,1.027750647109428,-0.1992461720078678
-3.9635,0.8676980242441885,0.01268659609548085
-3.963,0.7609962756673623,0.1504428953626575
-3.9625,0.7183155762366316,0.2352160026039969
-3.962,1.134452395686255,0.002089957690313421
-3.9615,1.593269914566608,-0.5065486857577234
-3.961,1.166462920259302,-0.9516074987747555
-3.9605,0.08877525963335578,-1.205926820498774
-3.96,-0.7968492535543035,-1.237716735714276
-3.9595,-0.8715404775580819,-0.9516074987747555
-3.959,-0.4660738329661415,-0.4429688553267188
-3.9585,-0.007256314085787988,0.2246193641988295
-3.958,0.3448594562177392,1.029963882991555
-3.9575,0.5582629533713921,1.75053529454294
-3.957,0.6436243522328531,2.216787384370307
-3.9565,0.5902734779444399,2.333350406827149
-3.956,0.6329541773751706,2.269770576396144
-3.9555,0.1954770082101822,1.782325209758442
-3.955,-0.1779791118087102,1.210106735879401
-3.9545,-0.07127736323188383,0.6590815388106942
-3.954,-0.124628237520297,0.04447651131098315
-3.9535,-0.7648387289812555,-0.7714646458869092
-3.953,-1.46907026958831,-1.545019249464132
-3.9525,-2.013249187330125,-2.159624276963843
-3.952,-2.493407055925843,-2.562296536360205
-3.9515,-2.536087755356574,-2.594086451575707
-3.951,-1.682473766741963,-1.703968825541643
-3.9505,-0.6047861061160158,-0.8774310299385835
-3.95,0.2488278824985954,-0.400582301706049
-3.9495,0.7609962756673623,-0.326405832869877
-3.949,0.9957401225363802,-0.3158091944647096
-3.9485,1.070431346540159,-0.4535654937318862
-3.948,1.177133095116985,-0.5065486857577234
-3.9475,1.091771696255524,-0.252229364033705
-3.947,0.9317190733902845,-0.01910331912002144
-3.9465,0.79300680024041,0.1822328105781598
-3.946,0.7183155762366316,0.309392471440169
-3.9455,0.974399772821015,0.03387987290581572
-3.945,1.646620788855021,-0.6760949002404023
-3.9445,1.806673411720261,-1.311893204550448
-3.944,0.857027849386506,-1.693372187136476
-3.9435,-0.4554036581084589,-1.725162102351978
-3.943,-1.223656247861609,-1.42845622700729
-3.9425,-1.031593100423322,-0.7290780922662394
-3.942,-0.4767440078238243,0.2352160026039969
-3.9415,0.03542438534494258,1.178316820663898
-3.941,0.3982103305061524,1.856501678594614
-3.9405,0.5902734779444399,2.237980661180642
-3.94,0.6756348768059011,2.375736960447818
-3.9395,0.6756348768059011,2.259173937990977
-3.939,0.6329541773751706,2.142610915534135
-3.9385,0.5902734779444399,2.004854616266958
-3.938,0.5582629533713921,1.75053529454294
-3.9375,0.4622313796522482,1.220703374284568
-3.937,-0.09261771294724913,0.4047622170866759
-3.9365,-0.8715404775580819,-0.4217755785163839
-3.936,-1.543761493592088,-1.089363798041932
-3.9355,-1.895877263895616,-1.439052865412457
-3.935,-2.023919362187807,-1.650985633515806
-3.9345,-1.26633694729234,-1.216523458903942
-3.934,-0.3700422592469978,-0.6760949002404023
-3.9335,0.3448594562177392,-0.3793890248957141
-3.933,0.79300680024041,-0.326405832869877
-3.9325,0.9850699476786977,-0.3687923864905467
-3.932,0.9637295979633325,-0.4959520473525559
-3.9315,0.974399772821015,-0.4853554089473885
-3.931,0.9530594231056497,-0.1462629799820306
-3.9305,0.6756348768059011,-0.09327978795619347
-3.93,-0.007256314085787988,-0.6231117082145651
-3.9295,0.07810508477567314,-0.4959520473525559
-3.929,0.1634664836371343,-0.4853554089473885
-3.9285,-0.3700422592469978,-0.9728007755850904
-3.928,-1.351698346153801,-1.566212526274467
-3.9275,-2.205312334768412,-2.032464616101834
-3.927,-2.877533350802418,-2.244397384205182
-3.9265,-2.845522826229371,-2.127834361748341
-3.926,-1.853196564464885,-1.598002441489969
-3.9255,-0.7861790786966207,-0.8032545611024114
-3.925,0.02475421048725994,0.1610395337678249
-3.9245,0.4942419042252961,1.167720182258731
-3.924,0.7183155762366316,1.930678147430786
-3.9235,0.7823366253827275,2.354543683637484
-3.923,0.7396559259519968,2.439316790878823
-3.9225,0.6756348768059011,2.16380419234447
-3.922,0.6009436528021226,1.867098316999781
-3.9215,0.5475927785137094,1.125333628638062
-3.921,0.5262524287983441,0.5107286011383502
-3.9205,0.1954770082101822,-0.2204394488182027
-3.92,-0.6261264558313813,-0.9939940523954253
-3.9195,-1.394379045584531,-1.640388995110639
-3.919,-1.927887788468663,-2.043061254507001
-3.9185,-2.408045657064382,-2.127834361748341
-3.918,-2.247993034199143,-2.000674700886331
-3.9175,-1.170305373573196,-1.258910012524611
-3.917,-0.1779791118087102,-0.5595318777835605
-3.9165,0.5049120790829789,-0.1992461720078678
-3.916,0.857027849386506,-0.06148987274069118
-3.9155,0.9850699476786977,-0.09327978795619347
-3.915,1.134452395686255,-0.3475991096802118
-3.9145,1.283834843693812,-0.3158091944647096
-3.914,1.166462920259302,-0.02969995752518888
-3.9135,0.974399772821015,0.2034260873884947
-3.913,0.8036769750980928,0.3517790250608387
-3.9125,0.7396559259519968,0.4471487707073456
-3.912,1.15579274540162,0.1822328105781598
-3.9115,1.539919040278195,-0.4641621321370536
-3.911,1.134452395686255,-0.9092209451540858
-3.9105,0.2381577076409128,-1.0999604364471
-3.91,-0.7008176798351597,-1.152943628472937
-3.9095,-0.9569018764195432,-0.8986243067489184
-3.909,-0.6047861061160158,-0.1356663415768632
-3.9085,-0.124628237520297,0.7544512844572011
-3.908,0.2701682322139607,1.475022696008586
-3.9075,0.5155822539406614,1.930678147430786
-3.907,0.6329541773751706,2.153207553939303
-3.9065,0.5689331282290746,2.07903108510313
-3.906,0.6436243522328531,2.015451254672126
-3.9055,0.3555296310754218,1.70814874092227
-3.905,-0.2313299860971235,0.92399749893988
-3.9045,-0.1032878878049318,0.4789386859228479
-3.904,-0.1993194615240755,0.08686306493165288
-3.9035,-0.9675720512772257,-0.6760949002404023
-3.903,-1.799845690176472,-1.42845622700729
-3.9025,-2.504077230783526,-2.074851169722503
-3.902,-3.154957897102167,-2.647069643601545
-3.9015,-3.037585973667658,-2.721246112437717
-3.901,-1.863866739322568,-1.84172512480882
-3.9005,-0.5834457564006506,-0.9410108603695881
-3.9,0.3555296310754218,-0.3687923864905467
-3.8995,0.8676980242441885,-0.1462629799820306
-3.899,1.059761171682476,-0.08268314955102604
-3.8985,1.145122570543937,-0.2416327256285375
-3.898,1.262494493978446,-0.4217755785163839
-3.8975,1.166462920259302,-0.1992461720078678
-3.897,0.9850699476786977,0.1080563417419877
-3.8965,0.825017324813458,0.3199891098453364
-3.896,0.7289857510943143,0.4153588554918433
-3.8955,0.79300680024041,0.04447651131098315
-3.895,1.251824319120764,-0.7078848154559045
-3.8945,1.497238340847464,-1.375473034981453
-3.894,0.6436243522328531,-1.79933857118815
-3.8935,-0.4020527838200457,-1.873515040024322
-3.893,-0.658136980404429,-1.248313374119443
-3.8925,-0.3807124341046804,-0.1568596183871981
-3.892,0.01408403562957729,0.8816109453192104
-3.8915,0.3341892813600565,1.612778995275763
-3.891,0.5369226036560266,2.036644531482461
-3.8905,0.6329541773751706,2.227384022775475
-3.89,0.6649647019482183,2.248577299585809
-3.8895,0.6542945270905358,2.100224361913465
-3.889,0.6222840025174878,1.761131932948107
-3.8885,0.5902734779444399,1.37965295036208
-3.888,0.5582629533713921,0.701468092431364
-3.8875,0.4729015545099309,0.02328323450064829
-3.887,-0.06060718837420119,-0.570128516188728
-3.8865,-0.8928808272734472,-1.163540266878104
-3.886,-1.490410619303675,-1.492036057438295
-3.8855,-1.821186039891837,-1.587405803084801
-3.885,-2.002579012472442,-1.672178910326141
