Class_3_Grab_w_two_Hands/Class_3_Grab_with_Both_hands_Turki_7.csv

#Digilent WaveForms Oscilloscope Acquisition
#Device Name: EExplorer
#Serial Number: SN:210151A2B84A
#Date Time: 2020-12-13 12:40:03.853
#Sample rate: 2000Hz
#Samples: 16384
#Trigger: Source: Channel 1 Type: Edge Condition: Rising Level: 0 V Hyst.: Auto HoldOff: 0 s
#Channel 1: Range: 1 V/div Offset: 0 V Attenuation: 1 X
#Channel 2: Range: 1 V/div Offset: 0 V Attenuation: 1 X
#Power Supplies: ON
#Fixed Supply: ON
#Voltage: 3.3 V Readback: 3.325 V
#Positive Supply: ON
#Voltage: 3.7 V Readback: 3.714 V
#Current: 40 mA Readback: 20 mA
#Negative Supply: ON
#Voltage: -3.7 V Readback: -3.348 V
#Current: -40 mA Readback: -9 mA
#Reference 1: ON
#Voltage: 0 V
#Reference 2: ON
#Voltage: 0 V

Time (s),Channel 1 (V),Channel 2 (V)
-4.096,0.857027849386506,0.13984625695749
-4.0955,0.9530594231055624,0.08686306493170107
-4.095,0.2915085819285496,-0.4217755785166923
-4.0945,-0.5621054066852853,-0.7608680074817418
-4.094,-0.8928808272731463,-0.8138511995075307
-4.0935,-0.6688071552617721,-0.3370024712743795
-4.093,-0.2953510352432193,0.3941655786815084
-4.0925,0.01408403562929583,1.06175379820645
-4.092,0.2168173579256445,1.538602526439851
-4.0915,0.3235191065023739,1.824711763379112
-4.091,0.3555296310754218,1.951871424241121
-4.0905,0.3555296310754024,1.973064701051446
-4.09,0.3341892813600565,1.962468062646288
-4.0895,0.3128489316446912,1.962468062646288
-4.089,0.2915085819293454,1.920081509025657
-4.0885,0.2701682322139607,1.835308401784279
-4.088,0.03542438534494258,1.570392441655093
-4.0875,-0.5834457564000877,1.157123543853939
-4.087,-1.09561414956965,0.2246193641980296
-4.0865,-1.351698346153801,-0.6549016234300674
-4.086,-1.479740444445876,-1.205926820498273
-4.0855,-1.180975548430287,-1.269506650929499
-4.085,-0.5300948821122373,-0.9622041371799229
-4.0845,0.08877525963279287,-0.6972881770509781
-4.084,0.4729015545100764,-0.559531877783599
-4.0835,0.6329541773751706,-0.6019184314042303
-4.083,0.6756348768059011,-0.7396747306714069
-4.0825,0.7609962756674399,-0.8774310299384678
-4.082,0.8463576745288233,-0.7502713690765743
-4.0815,0.7503261008096795,-0.4853554089473885
-4.081,0.5902734779445854,-0.252229364033917
-4.0805,0.4622313796522482,-0.08268314955102604
-4.08,0.3768699807907871,0.05507314971615059
-4.0795,0.6329541773749376,0.4259554938966734
-4.079,0.9317190733898478,0.6272916235946523
-4.0785,0.4515612047945656,0.03387987290581572
-4.078,-0.2633405106695213,-0.6443049850242831
-4.0775,-0.7114878546927452,-0.9833974139899784
-4.077,-0.6047861061160158,-0.6760949002404023
-4.0765,-0.2953510352435008,0.02328323450001224
-4.076,-0.007256314085603603,0.7438546460525253
-4.0755,0.1954770082101822,1.284283204715573
-4.075,0.3021787567870086,1.623375633680931
-4.0745,0.3448594562177489,1.803518486568825
-4.074,0.3555296310754218,1.856501678594614
-4.0735,0.3341892813600565,1.824711763379112
-4.073,0.3128489316447107,1.803518486568797
-4.0725,0.3021787567870086,1.761131932948107
-4.072,0.291508581929326,1.559795803249926
-4.0715,0.2488278824986342,1.093543713422983
-4.071,-0.08194753808988672,0.3623756634652351
-4.0705,-0.4340633083930936,-0.4853554089473885
-4.07,-0.7755089038386277,-1.205926820498119
-4.0695,-1.180975548430956,-1.767548655972715
-4.069,-1.26633694729234,-1.84172512480882
-4.0685,-0.690147504977477,-1.333086481360783
-4.068,-0.03926683865843803,-0.9516074987746302
-4.0675,0.3982103305061524,-0.8138511995075789
-4.067,0.6116138276598051,-0.792657922697244
-4.0665,0.6863050516636129,-0.8456411147231776
-4.066,0.7183155762366316,-0.9516074987747555
-4.0655,0.8356874996711408,-1.004590690800593
-4.065,0.771666450525103,-0.8456411147232258
-4.0645,0.6329541773751706,-0.6019184314042303
-4.064,0.4942419042252961,-0.3899856633008816
-4.0635,0.3982103305062398,-0.2098428104131991
-4.063,0.4622313796526849,0.1398462569580779
-4.0625,0.942389248247967,0.7862411996727035
-4.062,0.7930068002405459,0.5637117931643898
-4.0615,0.02475421048663885,-0.09327978795664645
-4.061,-0.658136980404429,-0.5913217929990628
-4.0605,-0.722158029550525,-0.5913217929990628
-4.06,-0.4554036581081581,-0.04029659592974914
-4.0595,-0.124628237520297,0.627291623595192
-4.059,0.1207857842064037,1.188913459069066
-4.0585,0.2594980573561519,1.580989080059904
-4.058,0.3341892813600565,1.803518486568777
-4.0575,0.3555296310754218,1.920081509025619
-4.057,0.3448594562177489,1.941274785835934
-4.0565,0.3235191065023739,1.941274785835954
-4.056,0.3128489316446912,1.941274785835954
-4.0555,0.2915085819293454,1.898888232215322
-4.055,0.2808384070714104,1.761131932947519
-4.0545,0.02475421048725994,1.114736990232894
-4.054,-0.4447334832503493,0.09745970333774556
-4.0535,-0.6901475049776614,-0.8456411147236402
-4.053,-0.8928808272734472,-1.460246142222792
-4.0525,-1.180975548430879,-1.84172512480882
-4.052,-0.9035510021306059,-1.566212526273966
-4.0515,-0.3273615598162672,-1.01518732920576
-4.051,0.1634664836371343,-0.6549016234300674
-4.0505,0.4942419042249953,-0.570128516188805
-4.05,0.6649647019482183,-0.6337083466197325
-4.0495,0.707645401378949,-0.7502713690765743
-4.049,0.867698024244043,-0.9304142219642568
-4.0485,0.8997085488171006,-0.8774310299383907
-4.048,0.7503261008096795,-0.6654982618352349
-4.0475,0.5796033030869125,-0.4429688553269212
-4.047,0.4408910299368539,-0.2628260024386603
-4.0465,0.408880505363835,-0.02969995752518888
-4.046,0.7716664505247148,0.5531151547584899
-4.0455,0.7076454013783182,0.4471487707067095
-4.045,0.01408403562957729,-0.252229364033705
-4.0445,-0.8502001278427167,-0.9198175835592532
-4.044,-1.202315898145972,-1.216523458903614
-4.0435,-0.9035510021311299,-0.8562377531282487
-4.043,-0.4447334832507763,-0.1250697031716958
-4.0425,-0.06060718837455059,0.6484849004048233
-4.042,0.1848068333524996,1.231300012689736
-4.0415,0.3128489316446912,1.602182356870596
-4.041,0.355529631075383,1.782325209758278
-4.0405,0.3555296310754024,1.835308401784279
-4.04,0.3341892813600565,1.835308401784279
-4.0395,0.3021787567870378,1.856501678594595
-4.039,0.2808384070716336,1.867098316999704
-4.0385,0.2701682322139607,1.782325209758442
-4.038,0.0994454344911937,1.453829419198551
-4.0375,-0.3807124341052044,1.040560521396047
-4.037,-0.9569018764195432,0.2987958330350016
-4.0365,-1.362368521011484,-0.5383386009732256
-4.036,-1.70381411645725,-1.163540266878345
-4.0355,-1.618452717595867,-1.42845622700729
-4.035,-0.8928808272734472,-1.121153713257435
-4.0345,-0.1886492866670334,-0.7608680074820695
-4.034,0.291508581929326,-0.5913217929990628
-4.0335,0.5582629533713921,-0.5383386009732256
-4.033,0.6756348768057943,-0.6019184314041724
-4.0325,0.782336625382844,-0.8138511995076849
-4.032,0.9103787236749192,-0.9304142219644207
-4.0315,0.8036769750981898,-0.7714646458870538
-4.031,0.6222840025173519,-0.5383386009730136
-4.0305,0.4729015545099309,-0.3052125560595421
-4.03,0.3875401556485474,-0.09327978795638622
-4.0295,0.270168232213359,0.2352160026042861
-4.029,-0.391382608962363,0.55311515475902
-4.0285,-1.06360362499637,0.4153588554918433
-4.028,-1.607782542738398,-0.1568596183876896
-4.0275,-1.842526389607202,-0.6972881770507372
-4.027,-1.298347471865388,-0.7714646458869092
-4.0265,-0.6474668055473385,-0.315809194465124
-4.026,-0.124628237520297,0.3623756634660061
-4.0255,0.1848068333524996,0.9769806909657173
-4.025,0.3448594562175936,1.422039503982345
-4.0245,0.3875401556484697,1.686955464112041
-4.024,0.3875401556484697,1.803518486568777
-4.0235,0.3555296310754509,1.824711763379092
-4.023,0.3235191065023544,1.856501678594624
-4.0225,0.3021787567870086,1.867098316999781
-4.022,0.2915085819293357,1.82471176337915
-4.0215,0.2061471830673602,1.739938656137512
-4.021,-0.3487019095316325,1.453829419198252
-4.0205,-0.9782422261349084,0.9769806909657173
-4.02,-1.458400094730676,0.05507314971558197
-4.0195,-1.51175096901904,-0.570128516188728
-4.019,-0.8502001278427167,-0.8456411147230812
-4.0185,-0.0606071883749193,-0.80325456110245
-4.018,0.4942419042252961,-0.7290780922662394
-4.0175,0.7609962756673623,-0.6866915386455698
-4.017,0.8143471499557268,-0.7290780922662009
-4.0165,0.7716664505250157,-0.8456411147231969
-4.016,0.7396559259519968,-0.9728007755850904
-4.0155,0.8676980242440721,-0.8986243067489859
-4.015,0.8143471499556394,-0.5595318777832906
-4.0145,0.6649647019482183,-0.2628260024388724
-4.014,0.5369226036561431,-0.0191033191202431
-4.0135,0.4302208550790256,0.1504428953626575
-4.013,0.2381577076409128,0.1504428953626575
-4.0125,-0.2526703358124887,0.08686306493165288
-4.012,-0.7541685541238446,-0.3052125560599951
-4.0115,-1.052933450138687,-0.8032545611024114
-4.011,-1.223656247861609,-1.05757388282643
-4.0105,-0.924891351846767,-0.7290780922665382
-4.01,-0.4554036581084589,0.002089957690313421
-4.0095,-0.06060718837420119,0.7332580076468663
-4.009,0.1954770082099492,1.284283204715072
-4.0085,0.3235191065024127,1.623375633681075
-4.008,0.3661998059331045,1.782325209758442
-4.0075,0.3661998059331045,1.824711763379073
-4.007,0.3448594562177197,1.76113193294805
-4.0065,0.3235191065023739,1.697552102517103
-4.006,0.291508581929326,1.686955464111935
-4.0055,0.2808384070716239,1.6763588257067
-4.005,0.2594980573562781,1.602182356870596
-4.0045,-0.007256314085787988,1.316073119931075
-4.004,-0.4660738329663938,1.263089927904611
-4.0035,-0.7434983792658902,0.5743084315693548
-4.003,-1.116954499284783,-0.2840192792492073
-4.0025,-1.426389570157298,-0.9939940523947797
-4.002,-0.9462317015618604,-1.163540266878104
-4.0015,-0.2313299860971235,-0.9728007755850904
-4.001,0.3128489316441963,-0.8668343915335125
-4.0005,0.5902734779445175,-0.8138511995075596
-4,0.6756348768059011,-0.792657922697244
-3.9995,0.6756348768059011,-0.8456411147230812
-3.999,0.8676980242441885,-1.004590690800593
-3.9985,0.9530594231056497,-0.9939940523954253
-3.998,0.8036769750980928,-0.718481453861072
-3.9975,0.6116138276598051,-0.4429688553267188
-3.997,0.4622313796522482,-0.1992461720078678
-3.9965,0.408880505363835,0.08686306493165288
-3.996,0.6436243522328531,0.6802748156210291
-3.9955,0.5262524287983441,0.5107286011383502
-3.995,-0.07127736323188383,-0.2416327256285375
-3.9945,-0.839529952985034,-0.9198175835592532
-3.994,-1.1062843244271,-1.184733543688439
-3.9935,-0.7968492535543035,-0.7608680074817418
-3.993,-0.3700422592469978,0.002089957690313421
-3.9925,-0.007256314085787988,0.7332580076468663
-3.992,0.2168173579255475,1.263089927905238
-3.9915,0.3235191065023739,1.580989080060261
-3.991,0.3555296310754218,1.729342017732605
-3.9905,0.3555296310754218,1.75053529454294
-3.99,0.3341892813600565,1.75053529454294
-3.9895,0.3021787567870086,1.761131932948107
-3.989,0.2808384070716433,1.739938656137773
-3.9885,0.2808384070716433,1.623375633680931
-3.988,0.0674349099179905,1.358459673551745
-3.9875,-0.5621054066852853,0.8074344764830383
-3.987,-1.06360362499637,-0.09327978795619347
-3.9865,-1.330357996438436,-0.8880276683437509
-3.986,-1.607782542738184,-1.439052865412457
-3.9855,-1.341028171296118,-1.481439419033127
-3.985,-0.572775581542968,-1.01518732920576
-3.9845,0.09944543449103843,-0.6019184314042303
-3.984,0.5049120790829789,-0.3687923864905467
-3.9835,0.6756348768059011,-0.4217755785163839
-3.983,0.6863050516635838,-0.570128516188728
-3.9825,0.7716664505250448,-0.8138511995075789
-3.982,0.9530594231056497,-0.9410108603695881
-3.9815,0.8783681991018712,-0.7502713690765743
-3.981,0.7183155762366316,-0.4641621321370536
-3.9805,0.5475927785137094,-0.08268314955102604
-3.98,0.4408910299368829,0.1504428953626575
-3.9795,0.1954770082101822,0.1504428953626575
-3.979,-0.4767440078238243,0.02328323450064829
-3.9785,-1.074273799854052,-0.5277419625680583
-3.978,-1.575772018165136,-1.089363798041932
-3.9775,-2.109280761049269,-1.460246142222792
-3.977,-1.906547438753298,-1.449649503817625
-3.9765,-1.127624674142465,-0.9516074987747555
-3.976,-0.4447334832507763,-0.1568596183871981
-3.9755,0.02475421048725994,0.6166949851900245
-3.975,0.2808384070716433,1.157123543853563
-3.9745,0.3875401556484697,1.475022696008586
-3.974,0.3982103305061524,1.602182356870596
-3.9735,0.3768699807907871,1.602182356870596
-3.973,0.3341892813600565,1.612778995275763
-3.9725,0.3021787567870086,1.623375633680931
-3.972,0.291508581929326,1.623375633680931
-3.9715,0.2488278824985954,1.37965295036208
-3.971,-0.1886492866663929,0.9981739677760521
-3.9705,-0.8608703027003992,0.2881991946298341
-3.97,-1.234326422719292,-0.5913217929990628
-3.9695,-1.479740444445993,-1.174136905283272
-3.969,-1.522421143876723,-1.375473034981453
-3.9685,-0.8822106524157645,-1.05757388282643
-3.968,-0.1886492866663929,-0.7502713690765743
-3.9675,0.2808384070716433,-0.570128516188728
-3.967,0.5369226036560266,-0.5807251545938954
-3.9665,0.6222840025174878,-0.6866915386455698
-3.966,0.6756348768059011,-0.8350444763179138
-3.9655,0.8783681991018712,-0.9728007755850904
-3.965,0.8463576745288233,-0.8244478379127463
-3.9645,0.6969752265212663,-0.5595318777835605
-3.964,0.5262524287983441,-0.3052125560595421
-3.9635,0.4195506802215176,-0.1144730647665284
-3.963,0.3341892813600565,0.03387987290581572
-3.9625,0.3235191065023739,0.3729723018711736
-3.962,0.2594980573562781,0.7544512844572011
-3.9615,-0.2846808603855366,0.2670059178194992
-3.961,-0.8502001278427167,-0.4641621321370536
-3.9605,-0.807519428411986,-0.8562377531282487
-3.96,-0.4660738329661415,-0.7608680074817418
-3.9595,-0.1139580626626144,-0.2098428104130352
-3.959,0.142126133921769,0.5213252395435176
-3.9585,0.2808384070716433,1.135930267043229
-3.958,0.3448594562177392,1.559795803249926
-3.9575,0.3661998059331045,1.79292184816361
-3.957,0.3448594562177392,1.867098316999781
-3.9565,0.3235191065023739,1.898888232215284
-3.956,0.3128489316446912,1.877694955404949
-3.9555,0.3021787567870086,1.814115124973944
-3.955,0.291508581929326,1.697552102517103
-3.9545,0.07810508477567314,1.104140351827727
-3.954,-0.3807124341046804,0.06566978812131802
-3.9535,-0.9142211769888124,-0.8774310299385835
-3.953,-1.277007122150022,-1.460246142222792
-3.9525,-1.330357996438436,-1.619195718300304
-3.952,-0.7968492535543035,-1.227120097309109
-3.9515,-0.1139580626626144,-0.8456411147230812
-3.951,0.3982103305061524,-0.6231117082145651
-3.9505,0.6436243522328531,-0.6231117082145651
-3.95,0.7289857510943143,-0.718481453861072
-3.9495,0.707645401378949,-0.8138511995075789
-3.949,0.8463576745288233,-0.9198175835592532
-3.9485,0.8783681991018712,-0.7502713690765743
-3.948,0.7289857510943143,-0.5171453241628908
-3.9475,0.5582629533713921,-0.3475991096802118
-3.947,0.4408910299368829,-0.2204394488182027
-3.9465,0.3768699807907871,0.01268659609548085
-3.946,0.6222840025174878,0.5107286011383502
-3.9455,0.6116138276598051,0.2987958330350016
-3.945,0.00341386077189465,-0.3899856633008816
-3.9445,-0.7755089038389382,-0.8562377531282487
-3.944,-1.095614149569417,-0.9939940523954253
-3.9435,-0.8288597781273515,-0.4959520473525559
-3.943,-0.391382608962363,0.2670059178194992
-3.9425,-0.02859666380115328,0.9451907757502149
-3.942,0.2061471830678648,1.432636142387917
-3.9415,0.3235191065023739,1.718745379327438
-3.941,0.3661998059331045,1.845905040189447
-3.9405,0.3555296310754218,1.877694955404949
-3.94,0.3448594562177392,1.867098316999781
-3.9395,0.3235191065023739,1.867098316999781
-3.939,0.3021787567870086,1.845905040189447
-3.9385,0.2808384070716433,1.771728571353275
-3.938,0.1314559590640864,1.528005888034424
-3.9375,-0.4767440078238243,0.849821030103708
-3.937,-1.010252750707956,-0.1568596183871981
-3.9365,-1.127624674142465,-0.9304142219644207
-3.936,-0.9782422261349084,-1.280103289334946
-3.9355,-0.4660738329661415,-1.227120097309109
-3.935,0.07810508477567314,-0.9728007755850904
-3.9345,0.4729015545099309,-0.7608680074817418
-3.934,0.6542945270905358,-0.6972881770507372
-3.9335,0.6863050516635838,-0.792657922697244
-3.933,0.6436243522328531,-0.8986243067489184
-3.9325,0.6542945270905358,-1.046977244421262
-3.932,0.7396559259519968,-1.068170521231597
-3.9315,0.6542945270905358,-0.8350444763179138
-3.931,0.5369226036560266,-0.5595318777835605
-3.9305,0.4408910299368829,-0.3052125560595421
-3.93,0.3875401556484697,-0.09327978795619347
-3.9295,0.6649647019482183,0.05507314971615059
-3.929,1.038420821967111,0.2987958330350016
-3.9285,0.5369226036560266,-0.1462629799820306
-3.928,-0.2206598112394408,-0.7608680074817418
-3.9275,-0.5087545323968721,-1.121153713257435
-3.927,-0.391382608962363,-1.078767159636765
-3.9265,-0.1352984123779797,-0.6337083466197325
-3.926,0.07810508477567314,0.1080563417419877
-3.9255,0.2274875327832301,0.8074344764830383
-3.925,0.3021787567870086,1.326669758336243
-3.9245,0.3341892813600565,1.623375633680931
-3.924,0.3341892813600565,1.739938656137773
-3.9235,0.3235191065023739,1.75053529454294
-3.923,0.3128489316446912,1.771728571353275
-3.9225,0.291508581929326,1.771728571353275
-3.922,0.2808384070716433,1.814115124973944
-3.9215,0.2168173579255475,1.835308401784279
-3.921,0.01408403562957729,1.432636142387917
-3.9205,-0.2420001609548061,0.8922075837243778
-3.92,-0.6367966306890638,-0.07208651114585861
-3.9195,-0.9462317015618604,-0.8668343915334161
-3.919,-1.010252750707956,-1.258910012524611
-3.9185,-0.5621054066852853,-1.163540266878104
-3.918,-0.04993701351651855,-0.9304142219644207
-3.9175,0.3235191065023739,-0.6443049850249
-3.917,0.5369226036560266,-0.4959520473525559
-3.9165,0.6329541773751706,-0.4535654937318862
-3.916,0.6756348768059011,-0.570128516188728
-3.9155,0.857027849386506,-0.6760949002404023
-3.915,0.8143471499557753,-0.6019184314042303
-3.9145,0.6649647019482183,-0.4641621321370536
-3.914,0.5155822539406614,-0.2840192792492073
-3.9135,0.3982103305061524,-0.09327978795619347
-3.913,0.3341892813600565,0.08686306493165288
-3.9125,0.4729015545099309,0.4047622170866759
-3.912,0.291508581929326,0.2352160026039969
-3.9115,-0.3487019095316325,-0.4217755785163839
-3.911,-0.9462317015618604,-0.9833974139902578
-3.9105,-0.9035510021311299,-1.142346990067769
-3.91,-0.5300948821122373,-0.8350444763179138
-3.9095,-0.156638762093345,-0.1674562567923655
-3.909,0.1101156093487211,0.6060983467848571
-3.9085,0.2701682322139607,1.220703374284568
-3.908,0.3341892813600565,1.633972272086098
-3.9075,0.3448594562177392,1.845905040189447
-3.907,0.3341892813600565,1.898888232215284
-3.9065,0.3128489316446912,1.877694955404949
-3.906,0.291508581929326,1.845905040189447
-3.9055,0.2701682322139607,1.814115124973944
-3.905,0.2488278824985954,1.697552102517103
-3.9045,0.00341386077189465,1.231300012689736
-3.904,-0.3380317346739499,0.5425185163538525
-3.9035,-0.839529952985034,-0.400582301706049
-3.903,-1.084943974711735,-1.036380606016095
-3.9025,-0.7434983792658902,-1.227120097309109
-3.902,-0.1459685872356623,-1.025783967610927
-3.9015,0.3448594562177392,-0.7714646458869092
-3.901,0.6009436528021226,-0.6972881770507372
-3.9005,0.6863050516635838,-0.7396747306714069
-3.9,0.6649647019482183,-0.8138511995075789
-3.8995,0.6116138276598051,-0.9410108603695881
-3.899,0.6756348768059011,-1.121153713257435
-3.8985,0.6329541773751706,-1.025783967610927
-3.898,0.5262524287983441,-0.7396747306714069
-3.8975,0.4302208550792003,-0.4429688553267188
-3.897,0.3661998059331045,-0.1780528951975329
-3.8965,0.3875401556484697,0.09745970333682032
-3.896,0.8676980242441885,0.6802748156210291
-3.8955,0.9530594231056497,0.5743084315693548
-3.895,0.3448594562177392,-0.1462629799820306
-3.8945,-0.4874141826815069,-0.7502713690765743
-3.894,-0.7755089038389382,-1.025783967610927
-3.8935,-0.572775581542968,-0.8032545611024114
-3.893,-0.2420001609548061,-0.1462629799820306
-3.8925,0.02475421048725994,0.627291623595192
-3.892,0.2061471830678648,1.263089927905238
-3.8915,0.291508581929326,1.676358825706768
-3.891,0.3235191065023739,1.898888232215284
-3.8905,0.3235191065023739,1.983661339456623
-3.89,0.3128489316446912,1.994257977861791
-3.8895,0.291508581929326,1.973064701051456
-3.889,0.2808384070716433,1.898888232215284
-3.8885,0.2808384070716433,1.729342017732605
-3.888,0.1741366584948169,1.284283204715573
-3.8875,-0.274010685527854,0.3199891098453364
-3.887,-0.690147504977477,-0.6760949002404023
-3.8865,-0.9995825758502737,-1.460246142222792
-3.886,-1.373038695869166,-2.053657892912168
