Class_3_Grab_w_two_Hands/Class_3_Grab_with_Two_Hands_UZ_9.csv

#Digilent WaveForms Oscilloscope Acquisition
#Device Name: EExplorer
#Serial Number: SN:210151A2B84A
#Date Time: 2020-12-21 13:36:27.407
#Sample rate: 2000Hz
#Samples: 16384
#Trigger: Source: Channel 1 Type: Edge Condition: Rising Level: 0 V Hyst.: Auto HoldOff: 0 s
#Channel 1: Range: 1 V/div Offset: 0 V
#Channel 2: Range: 1 V/div Offset: 0 V

Time (s),Channel 1 (V),Channel 2 (V)
-4.0960000000000001,0.84635767452882327,-0.10387642636136091
-4.0955000000000004,0.60094365280234574,-0.59132179299861953
-4.0949999999999998,0.39821033050600685,-0.87743102993868949
-4.0945,0.23815770764091276,-0.99399405239542526
-4.0940000000000003,0.22748753278323983,-1.0151873292057407
-4.0934999999999997,0.28083840707160451,-0.97280077558491684
-4.093,0.23815770764091276,-0.78206128429207655
-4.0925000000000002,0.17413665849487514,-0.52774196256828954
-4.0919999999999996,0.11011560934867255,-0.28401927924901454
-4.0914999999999999,0.05676473506030786,-0.072086511145858609
-4.0910000000000002,-0.0072563140857879876,0.097459703336820316
-4.0904999999999996,-0.37004225924766743,0.19282944898364526
-4.0899999999999999,-1.1062843244271001,0.54251851635385251
-4.0895000000000001,-1.7891755153187892,0.74385464605203377
-4.0890000000000004,-2.3973754822061464,-0.0085066807141698231
-4.0884999999999998,-2.2053123347684123,-0.71848145386107198
-4.0880000000000001,-1.3623685210114835,-0.82444783791274634
-4.0875000000000004,-0.66880715526274259,-0.64430498502506384
-4.0869999999999997,-0.19931946152384264,-0.43237221692141636
-4.0865,0.05676473506030786,-0.28401927924920728
-4.0860000000000003,0.15279630877936429,-0.19924617200794492
-4.0854999999999997,0.17413665849479751,-0.17805289519755219
-4.085,0.15279630877945163,-0.19924617200786782
-4.0845000000000002,0.13145595906410576,-0.25222936403365681
-4.0839999999999996,0.12078578420642312,-0.31580919446476741
-4.0834999999999999,0.14212613392176898,-0.37938902489571413
-4.0830000000000002,0.23815770764091276,-0.41117894011121647
-4.0824999999999996,0.72898575109502273,-0.20984281041254371
-4.0819999999999999,1.5079085157051471,0.33058574825050385
-4.0815000000000001,1.5719295648512428,0.88161094531921036
-4.0810000000000004,1.1237822208289794,1.0723504366120509
-4.0804999999999998,0.94238924824796699,0.73325800764686633
-4.0800000000000001,0.82501732481345802,0.11865298014715518
-4.0795000000000003,0.71831557623672859,-0.52774196256747041
-4.0789999999999997,0.56893312822893871,-0.93041422196458456
-4.0785,0.41955068022151765,-1.1105570748522671
-4.0780000000000003,0.29150858192944246,-1.2059268204986873
-4.0774999999999997,0.20614718306784544,-1.248313374119453
-4.077,0.18480683335249956,-1.2589100125246109
-4.0765000000000002,0.15279630877948075,-1.1211537132575597
-4.0759999999999996,0.11011560934870165,-0.89862430674869664
-4.0754999999999999,0.08877525963335578,-0.65490162343006741
-4.0750000000000002,0.05676473506030786,-0.41117894011121647
-4.0744999999999996,-0.1246282375208793,-0.23103608722325444
-4.0739999999999998,-0.76483872898125549,-0.10387642636136091
-4.0735000000000001,-1.46907026958831,0.055073149716150585
-4.0730000000000004,-2.0879404113333404,0.35177902506056885
-4.0724999999999998,-2.5147474056412089,0.78624119967270345
-4.0720000000000001,-2.3440246079182865,0.98757732937088472
-4.0715000000000003,-1.4584000947314326,0.68027481562130854
-4.0709999999999997,-0.73282820440775143,0.26700591781921013
-4.0705,-0.23132998609712346,-0.050893234335523743
-4.0700000000000003,0.046094560202372903,-0.23103608722320629
-4.0694999999999997,0.16346648363715369,-0.29461591765437467
-4.069,0.18480683335249956,-0.29461591765437467
-4.0685000000000002,0.16346648363713429,-0.25222936403370499
-4.0679999999999996,0.14212613392176898,-0.20984281041298705
-4.0674999999999999,0.14212613392176898,-0.15685961838719809
-4.0670000000000002,0.15279630877945163,-0.13566634157686319
-4.0664999999999996,0.32351910650272325,-0.0085066807145937964
-4.0659999999999998,0.70764540137894905,0.27760255622466667
-4.0655000000000001,1.2091436196900331,0.71206473083653143
-4.0650000000000004,1.1557927454016685,1.1465269054480007
-4.0644999999999998,0.50491207908297886,1.4008462271724147
-4.0640000000000001,0.3768699807907871,1.2313000126897355
-4.0635000000000003,0.4729015545098435,0.53192187794932111
-4.0629999999999997,0.57960330308675734,-0.28401927924968917
-4.0625,0.57960330308675734,-0.81385119950757889
-4.0620000000000003,0.49424190422537373,-1.0893637980416817
-4.0614999999999997,0.3875401556483824,-1.2377167357142764
-4.0609999999999999,0.29150858192932599,-1.2377167357142764
-4.0605000000000002,0.32351910650237387,-1.2377167357142764
-4.0599999999999996,0.32351910650230592,-1.1211537132571936
-4.0594999999999999,0.24882788249859539,-0.85623775312824868
-4.0590000000000002,0.17413665849481691,-0.57012851618872795
-4.0585000000000004,0.088775259633433412,-0.31580919446494088
-4.0579999999999998,-0.0072563140857879876,-0.093279787956193475
-4.0575000000000001,-0.43406330839309365,0.27760255622466667
-4.0570000000000004,-1.1062843244264888,0.79683783807739861
-4.0564999999999998,-1.6504632421689147,1.241896651094903
-4.056,-2.1733018101953641,1.146526905448396
-4.0555000000000003,-2.4720667062102062,0.48953532432861291
-4.0549999999999997,-1.8318562147487918,0.0020899576900532059
-4.0545,-1.0315931004233216,-0.28401927924920728
-4.0540000000000003,-0.43406330839363705,-0.400582301705943
-4.0534999999999997,-0.071277363231718849,-0.38998566330081413
-4.0529999999999999,0.11011560934872107,-0.31580919446470956
-4.0525000000000002,0.17413665849481691,-0.22043944881820265
-4.0519999999999996,0.17413665849478779,-0.13566634157679572
-4.0514999999999999,0.14212613392176898,-0.061489872740691176
-4.0510000000000002,0.15279630877945163,0.012686596095480854
-4.0505000000000004,0.18480683335247045,0.065669788121269834
-4.0499999999999998,0.34485945621773917,0.18223281057815977
-4.0495000000000001,0.52625242879834411,0.31998910984533641
-4.0490000000000004,1.0490909968243178,0.6484849004052281
-4.0484999999999998,1.4438874665585562,1.0617537982073073
-4.048,0.8997085488172365,1.33726639674141
-4.0475000000000003,0.56893312822937547,1.2524932895001475
-4.0469999999999997,0.56893312822911346,0.55311515475821038
-4.0465,0.6116138276598051,-0.33700247127504446
-4.0460000000000003,0.60094365280213224,-1.0045906907999855
-4.0454999999999997,0.49424190422516995,-1.4178595886022671
-4.0449999999999999,0.35552963107542179,-1.5768091646796343
-4.0445000000000002,0.24882788249859539,-1.5026326958434622
-4.0439999999999996,0.14212613392168164,-1.4178595886020648
-4.0434999999999999,0.046094560202625215,-1.3542797581711179
-4.0430000000000001,0.024754210487259936,-1.0787671596367647
-4.0425000000000004,0.014084035629586999,-0.76086800748203087
-4.0419999999999998,0.0034138607718946501,-0.4641621321370536
-4.0415000000000001,0.014084035629577295,-0.2310360872233701
-4.0410000000000004,-0.071277363231806196,-0.061489872740845386
-4.0404999999999998,-0.51942470725520495,0.097459703337196182
-4.04,-1.2343264227192918,0.51072860113835017
-4.0395000000000003,-1.9172176136103598,0.91340086053434644
-4.0389999999999997,-2.4720667062102741,1.1571235438534864
-4.0385,-2.2479930341991428,1.0723504366122243
-4.0380000000000003,-1.3730386958699619,0.56371179316465003
-4.0374999999999996,-0.66880715526168477,0.044476511310674746
-4.0369999999999999,-0.19931946152407554,-0.29461591765437467
-4.0365000000000002,0.05676473506030786,-0.4535654937318862
-4.0359999999999996,0.163466483637144,-0.47475877054217286
-4.0354999999999999,0.17413665849481691,-0.42177557851638392
-4.0350000000000001,0.16346648363713429,-0.32640583286987701
-4.0345000000000004,0.14212613392178838,-0.22043944881829902
-4.0339999999999998,0.15279630877945163,-0.12506970317169577
-4.0335000000000001,0.17413665849481691,-0.050893234335523743
-4.0330000000000004,0.2274875327831816,0.012686596095423025
-4.0324999999999998,0.62228400251815741,0.22461936419914755
-4.032,1.3585260676975901,0.57430843156935485
-4.0315000000000003,1.3585260676975901,0.92399749893956207
-4.0309999999999997,0.83568749967098543,1.1147369902325857
-4.0305,0.66496470194821833,0.775644561267536
-4.0300000000000002,0.62228400251752669,0.24581264100964617
-4.0294999999999996,0.61161382765974692,-0.15685961838743903
-4.0289999999999999,0.54759277851370936,-0.42177557851638392
-4.0285000000000002,0.43022085507920033,-0.62311170821456507
-4.0279999999999996,0.31284893164460392,-0.73967473067146472
-4.0274999999999999,0.21681735792554749,-0.80325456110241145
-4.0270000000000001,0.23815770764091276,-0.94101086036958814
-4.0265000000000004,0.21681735792556689,-0.93041422196443035
-4.0259999999999998,0.15279630877945163,-0.81385119950757889
-4.0255000000000001,0.11011560934872107,-0.6972881770507372
-4.0250000000000004,0.06743490991802932,-0.58072515459400142
-4.0244999999999997,0.014084035629160002,-0.49595204735244031
-4.024,-0.44473348325077627,-0.36879238649054674
-4.0235000000000003,-1.1809755484302089,-0.061489872740970675
-4.0229999999999997,-1.8105158650346882,0.47893868592333938
-4.0225,-2.3973754822066997,1.0193672445863871
-4.0220000000000002,-2.3013439084876435,1.1571235438534382
-4.0214999999999996,-1.4584000947299771,0.66967817721533163
-4.0209999999999999,-0.74349837926589024,0.086863064931652884
-4.0205000000000002,-0.24200016095480609,-0.34759910968021185
-4.0199999999999996,0.035424385345049325,-0.55953187778360869
-4.0194999999999999,0.15279630877945163,-0.61251506980939763
-4.0190000000000001,0.18480683335249956,-0.57012851618872795
-4.0185000000000004,0.16346648363715369,-0.46416213213714996
-4.0179999999999998,0.14212613392176898,-0.34759910968021185
-4.0175000000000001,0.12078578420640371,-0.2310360872233701
-4.0170000000000003,0.13145595906407664,-0.13566634157694993
-4.0164999999999997,0.17413665849528273,-0.029699957524870837
-4.016,0.6863050516635838,0.31998910984533641
-4.0155000000000003,1.3158453682662867,0.84982103010322629
-4.0149999999999997,0.96372959796255608,1.2736865663105306
-4.0145,0.11011560934872107,1.4114428655775821
-4.0140000000000002,-0.039266838658700051,0.84982103010421883
-4.0134999999999996,0.16346648363730898,0.044476511310453083
-4.0129999999999999,0.35552963107542179,-0.53833860097322561
-4.0125000000000002,0.4622313796522482,-0.9304142219644207
-4.0119999999999996,0.440891029936815,-1.0787671596367359
-4.0114999999999998,0.36619980593310447,-1.0469772444212624
-4.0110000000000001,0.25949805735627807,-0.94101086036958814
-4.0105000000000004,0.14212613392187573,-0.65490162343032765
-4.0099999999999998,0.05676473506030786,-0.43237221692155131
-4.0095000000000001,0.024754210487259936,-0.33700247127504446
-4.0090000000000003,0.024754210487259936,-0.2522293640337821
-4.0084999999999997,0.035424385344942577,-0.15685961838708243
-4.008,0.035424385344942577,-0.029699957525188878
-4.0075000000000003,-0.017926488943422102,0.086863064931546871
-4.0069999999999997,-0.50875453239751256,0.24581264100954989
-4.0065,-1.2129860730039266,0.66967817721586165
-4.0060000000000002,-1.8745369141802501,1.1147369902328941
-4.0054999999999996,-2.4187158319215989,1.4008462271721449
-4.0049999999999999,-1.9065474387532981,1.1041403518277266
-4.0045000000000002,-1.1169544992847826,0.46834204751768049
-4.0039999999999996,-0.50875453239650326,-0.07208651114615737
-4.0034999999999998,-0.10328788780493176,-0.40058230170604903
-4.0030000000000001,0.099445434491038431,-0.52774196256805828
-4.0025000000000004,0.17413665849474896,-0.51714532416290049
-4.0019999999999998,0.17413665849481691,-0.44296885532671876
-4.0015000000000001,0.15279630877945163,-0.32640583286987701
-4.0010000000000003,0.1421261339217787,-0.20984281041314123
-4.0004999999999997,0.15279630877947104,-0.082683149550948937
-4,0.17413665849481691,0.0020899576903134209
-3.9994999999999998,0.19547700821018218,0.065669788121318018
-3.9990000000000001,0.43022085507920033,0.24581264100916439
-3.9984999999999999,0.28083840707164331,0.68027481562102909
-3.9980000000000002,-0.40205278382004572,1.1147369902328941
-3.9975000000000001,-0.48741418268150688,1.3690563119569124
-3.9969999999999999,-0.071277363231883828,0.98757732937088472
-3.9965000000000002,0.32351910650237387,0.21402272579366208
-3.996,0.52625242879834411,-0.4641621321370536
-3.9954999999999998,0.55826295337139209,-0.89862430674891836
-3.9950000000000001,0.4622313796522482,-1.0999604364470996
-3.9944999999999999,0.34485945621773917,-1.1741369052832717
-3.9940000000000002,0.30217875678700862,-1.2059268204987741
-3.9935,0.41955068022151765,-1.2801032893349458
-3.9929999999999999,0.3768699807907871,-1.0893637980419322
-3.9925000000000002,0.28083840707164331,-0.792657922697244
-3.992,0.17413665849481691,-0.50654868575772338
-3.9914999999999998,0.08877525963335578,-0.26282600243887239
-3.9910000000000001,-0.08194753808956648,-0.019103319120021445
-3.9904999999999999,-0.67947733011979428,0.41535885549184332
-3.9900000000000002,-1.3837088707268488,0.92399749893988004
-3.9895,-2.0345895370454898,1.2948798431207402
-3.9889999999999999,-2.4934070559258434,1.5068126112240887
-3.9885000000000002,-2.365364957633652,1.3902495887672472
-3.988,-1.4904106193036752,0.76504792286236856
-3.9874999999999998,-0.74349837926589024,0.11865298014715518
-3.9870000000000001,-0.23132998609712346,-0.31580919446470956
-3.9864999999999999,0.046094560202625215,-0.51714532416289083
-3.9860000000000002,0.17413665849481691,-0.55953187778356051
-3.9855,0.19547700821018218,-0.49595204735255594
-3.9849999999999999,0.17413665849481691,-0.37938902489571413
-3.9845000000000002,0.16346648363713429,-0.25222936403370499
-3.984,0.15279630877945163,-0.13566634157686319
-3.9834999999999998,0.20614718306786484,-0.019103319120021445
-3.9830000000000001,0.63295417737517057,0.27760255622466667
-3.9824999999999999,1.2731646688361289,0.66967817721586165
-3.9820000000000002,1.4225471168436858,1.0829470750173917
-3.9815,0.59027347794443985,1.4008462271724147
-3.9809999999999999,-0.33803173467394987,1.5491991648447585
-3.9805000000000001,-0.39138260896236304,1.3160731199310751
-3.98,-0.049937013516518552,0.57430843156935485
-3.9794999999999998,0.25949805735627807,-0.27342264084403983
-3.9790000000000001,0.38754015564846972,-0.89862430674891836
-3.9784999999999999,0.3982103305061524,-1.1105570748522671
-3.9780000000000002,0.35552963107542179,-1.1105570748522671
-3.9775,0.29150858192932599,-0.97280077558509037
-3.9769999999999999,0.30217875678700862,-0.68669153864556975
-3.9765000000000001,0.25949805735627807,-0.50654868575772338
-3.976,0.19547700821018218,-0.36879238649054674
-3.9754999999999998,0.14212613392176898,-0.24163272562853755
-3.9750000000000001,0.078105084775673142,-0.10387642636136091
-3.9744999999999999,0.0034138607718946501,0.055073149716150585
-3.9740000000000002,-0.42339313353541097,0.45774540911251305
-3.9735,-1.0956141495694174,0.95578741415538238
-3.9729999999999999,-1.7785053404611064,1.3478630351465775
-3.9725000000000001,-2.3973754822066997,1.5915857184654283
-3.972,-2.4400561816374302,1.5386025264395911
-3.9714999999999998,-1.6504632421689147,0.92399749893988004
-3.9710000000000001,-0.87154047755808195,0.24581264100916439
-3.9704999999999999,-0.30602121010090194,-0.22043944881820265
-3.9700000000000002,0.014084035629577295,-0.42177557851638392
-3.9695,0.16346648363713429,-0.43237221692155131
-3.9689999999999999,0.19547700821018218,-0.31580919446470956
-3.9685000000000001,0.18480683335249956,-0.1674562567923655
-3.968,0.16346648363713429,0.0020899576903134209
-3.9674999999999998,0.16346648363713429,0.15044289536265748
-3.9670000000000001,0.16346648363713429,0.26700591781949923
-3.9664999999999999,0.19547700821018218,0.36237566346600614
-3.9660000000000002,0.32351910650237387,0.46834204751768049
-3.9655,0.6116138276598051,0.63788826200035942
-3.9649999999999999,0.40888050536383502,0.96638405256054982
-3.9645000000000001,-0.15663876209334496,1.1889134590690658
-3.964,-0.13529841237797968,0.87101430691404291
-3.9634999999999998,0.18480683335249956,0.20342608738849466
-3.9630000000000001,0.45156120479456557,-0.47475877054222104
-3.9624999999999999,0.53692260365602662,-0.9304142219644207
-3.9620000000000002,0.50491207908297886,-1.1423469900677694
-3.9615,0.41955068022151765,-1.2695066509297783
-3.9609999999999999,0.32351910650237387,-1.3012965661452807
-3.9605000000000001,0.29150858192932599,-1.3224898429556156
-3.96,0.24882788249859539,-1.2483133741194434
-3.9594999999999998,0.18480683335249956,-1.0787671596367647
-3.9590000000000001,0.14212613392176898,-0.87743102993858346
-3.9584999999999999,0.11011560934872107,-0.68669153864556975
-3.9580000000000002,0.078105084775673142,-0.49595204735255594
-3.9575,-0.039266838658835915,-0.28401927924920728
-3.9569999999999999,-0.51942470725455481,-0.0085066807148540119
-3.9565000000000001,-1.2663369472923398,0.52132523954351762
-3.956,-1.9172176136109809,0.93459413734504748
-3.9554999999999998,-2.4613965313527957,1.1889134590690658
-3.9550000000000001,-2.1306211107646336,1.0405605213967219
-3.9544999999999999,-1.2663369472923398,0.52132523954351762
-3.9540000000000002,-0.59411593125833329,0.044476511310983152
-3.9535,-0.13529841237797968,-0.24163272562853755
-3.9529999999999998,0.099445434491038431,-0.3581957480853793
-3.9525000000000001,0.18480683335249956,-0.33700247127504446
-3.952,0.19547700821018218,-0.25222936403370499
-3.9514999999999998,0.18480683335249956,-0.13566634157686319
-3.9510000000000001,0.17413665849481691,-0.029699957525188878
-3.9504999999999999,0.19547700821018218,0.065669788121318018
-3.9500000000000002,0.20614718306786484,0.12924961855232261
-3.9495,0.24882788249859539,0.18223281057815977
-3.9489999999999998,0.71831557623663156,0.39416557868150842
-3.9485000000000001,0.81434714995577528,0.7968378380778709
-3.948,0.13145595906408636,1.1571235438535634
-3.9474999999999998,0.014084035629577295,0.81803111488820579
-3.9470000000000001,0.31284893164469124,0.18223281057815977
-3.9464999999999999,0.55826295337139209,-0.36879238649054674
-3.9460000000000002,0.62228400251748783,-0.76086800748174177
-3.9455,0.5689331282290746,-0.99399405239542526
-3.9449999999999998,0.4835717293676135,-1.131750351662602
-3.9445000000000001,0.36619980593310447,-1.1741369052832717
-3.944,0.27016823221396069,-1.2059268204987741
-3.9434999999999998,0.21681735792554749,-1.2377167357142764
-3.9430000000000001,0.16346648363713429,-1.0999604364470996
-3.9424999999999999,0.13145595906408636,-0.87743102993858346
-3.9420000000000002,0.099445434491038431,-0.66549826183523486
-3.9415,0.078105084775673142,-0.47475877054222104
-3.9409999999999998,-0.039266838658835915,-0.22043944881820265
-3.9405000000000001,-0.39138260896236304,0.27760255622466667
-3.9399999999999999,-0.96757205127722568,0.82862775329337313
-3.9394999999999998,-1.5010807941613578,1.146526905448396
-3.9390000000000001,-2.0345895370454898,0.4471487707073456
-3.9384999999999999,-2.0666000616185376,-0.50654868575772338
-3.9380000000000002,-1.373038695869166,-0.81385119950757889
-3.9375,-0.72215802955052499,-0.73967473067140688
-3.9369999999999998,-0.24200016095480609,-0.52774196256805828
-3.9365000000000001,0.035424385344942577,-0.31580919446470956
-3.9359999999999999,0.16346648363713429,-0.14626297998203064
-3.9355000000000002,0.19547700821018218,-0.04029659593035631
-3.9350000000000001,0.18480683335249956,0.023283234500648287
-3.9344999999999999,0.16346648363713429,0.055073149716150585
-3.9340000000000002,0.16346648363713429,0.055073149716150585
-3.9335,0.18480683335249956,0.044476511310983152
-3.9329999999999998,0.30217875678700862,0.076266426526485451
-3.9325000000000001,0.78233662538272752,0.38356894027634103
-3.9319999999999999,1.1237822208285719,0.86041766850887547
-3.9315000000000002,0.52625242879834411,1.2524932895000704
-3.931,-0.19931946152407554,1.4538294191982519
-3.9304999999999999,-0.14596858723566233,0.98757732937088472
-3.9300000000000002,0.14212613392176898,0.13984625695749003
-3.9295,0.36619980593310447,-0.5807251545938954
-3.9289999999999998,0.47290155450993088,-1.0575738828264298
