Class_3_Grab_w_two_Hands/Class_3_Grab_with_Both_hands_Turki_10.csv

#Digilent WaveForms Oscilloscope Acquisition
#Device Name: EExplorer
#Serial Number: SN:210151A2B84A
#Date Time: 2020-12-21 15:24:40.824
#Sample rate: 2000Hz
#Samples: 16384
#Trigger: Source: Channel 1 Type: Edge Condition: Rising Level: 0 V Hyst.: Auto HoldOff: 0 s
#Channel 1: Range: 1 V/div Offset: 0 V
#Channel 2: Range: 1 V/div Offset: 0 V

Time (s),Channel 1 (V),Channel 2 (V)
-4.0960000000000001,0.45156120479456557,0.15044289536265748
-4.0955000000000004,-0.3700422592462505,-0.72907809226543963
-4.0949999999999998,-1.1703053735733802,-1.4390528654125538
-4.0945,-1.373038695869166,-1.5450192494641319
-4.0940000000000003,-0.92489135184690274,-0.87743102993919064
-4.0934999999999997,-0.37004225924659989,-0.072086511145280349
-4.093,0.067434909917990504,0.5637117931641874
-4.0925000000000002,0.33418928135981391,0.95578741415502577
-4.0919999999999996,0.46223137965227729,1.1571235438536212
-4.0914999999999999,0.49424190422529612,1.2207033742845681
-4.0910000000000002,0.4835717293676135,1.2101067358794007
-4.0904999999999996,0.47290155450991145,1.1571235438535152
-4.0899999999999999,0.45156120479456557,1.1041403518277266
-4.0895000000000001,0.43022085507920033,1.0193672445863871
-4.0890000000000004,0.43022085507920033,0.93459413734512453
-4.0884999999999998,0.41955068022151765,1.0829470750173917
-4.0880000000000001,0.36619980593310447,1.4008462271724147
-4.0875000000000004,-0.060607188373813015,0.88161094531968265
-4.0869999999999997,-0.34870190953183627,-0.15685961838773779
-4.0865,-0.57277558154296804,-0.75027136907657432
-4.0860000000000003,-0.35937208438950929,-0.71848145386110085
-4.0854999999999997,-0.028596663800871846,-0.46416213213680302
-4.085,0.28083840707164331,-0.18864953360270037
-4.0845000000000002,0.51558225394044788,0.065669788121086703
-4.0839999999999996,0.63295417737520943,0.16103953376778637
-4.0834999999999999,0.67563487680590106,0.11865298014715518
-4.0830000000000002,0.78233662538272752,-0.061489872740691176
-4.0824999999999996,0.81434714995568791,-0.093279787956087462
-4.0819999999999999,0.71831557623663156,0.023283234500648287
-4.0815000000000001,0.6116138276598051,0.18223281057815977
-4.0810000000000004,0.51558225394074875,0.31998910984521112
-4.0804999999999998,0.43022085507920033,0.4471487707073456
-4.0800000000000001,0.13145595906408636,0.775644561267536
-4.0795000000000003,-0.43406330839257934,0.83922439169848273
-4.0789999999999997,-1.0315931004238943,0.023283234499829091
-4.0785,-1.6611334170265974,-0.87743102993858346
-4.0780000000000003,-2.0132491873298046,-1.4814394190325779
-4.0774999999999997,-1.5117509690183613,-1.2377167357136403
-4.077,-0.76483872898125549,-0.53833860097322561
-4.0765000000000002,-0.14596858723622519,0.13984625695687325
-4.0759999999999996,0.24882788249877008,0.61669498519026544
-4.0754999999999999,0.44089102993688295,0.88161094531921036
-4.0750000000000002,0.50491207908297886,0.99817396777605205
-4.0744999999999996,0.50491207908295943,1.0193672445863775
-4.0739999999999998,0.4835717293676135,1.0087706061812196
-4.0735000000000001,0.45156120479456557,0.98757732937088472
-4.0730000000000004,0.43022085507921976,0.94519077575025345
-4.0724999999999998,0.41955068022151765,0.87101430691404291
-4.0720000000000001,0.33418928136005654,0.87101430691404291
-4.0715000000000003,0.2061471830679813,1.1783168206636188
-4.0709999999999997,-0.42339313353586711,0.92399749893905125
-4.0705,-0.92489135184649518,0.012686596095480854
-4.0700000000000003,-0.63679663068932579,-0.42177557851598879
-4.0694999999999997,-0.14596858723530326,-0.46416213213690904
-4.069,0.24882788249859539,-0.30521255605954212
-4.0685000000000002,0.4835717293676135,-0.11447306476652835
-4.0679999999999996,0.60094365280218076,0.023283234500686836
-4.0674999999999999,0.66496470194821833,0.065669788121318018
-4.0670000000000002,0.64362435223285308,0.065669788121318018
-4.0664999999999996,0.66496470194824742,0.012686596095394116
-4.0659999999999998,0.69697522652126631,-0.082683149551026042
-4.0655000000000001,0.64362435223285308,0.012686596095480854
-4.0650000000000004,0.55826295337146969,0.17163617217284777
-4.0644999999999998,0.49424190422529612,0.33058574825050385
-4.0640000000000001,0.47290155450993088,0.47893868592284788
-4.0635000000000003,0.69697522652106247,0.84982103010337062
-4.0629999999999997,0.92104889853216509,1.2948798431201909
-4.0625,0.44089102993688295,0.69087145402619654
-4.0620000000000003,-0.23132998609651206,-0.36879238648958312
-4.0614999999999997,-1.0529334501388421,-1.2695066509299324
-4.0609999999999999,-1.2236562478616091,-1.4390528654124575
-4.0605000000000002,-0.81818960326966872,-0.86683439153341613
-4.0599999999999996,-0.3060212101005429,-0.16745625679185472
-4.0594999999999999,0.08877525963335578,0.39416557868150842
-4.0590000000000002,0.32351910650237387,0.74385464605203377
-4.0585000000000004,0.4408910299367762,0.92399749893971617
-4.0579999999999998,0.47290155450993088,0.98757732937088472
-4.0575000000000001,0.4622313796522482,0.98757732937088472
-4.0570000000000004,0.45156120479457529,0.96638405256056914
-4.0564999999999998,0.43022085507920033,0.93459413734504748
-4.056,0.41955068022151765,0.92399749893988004
-4.0555000000000003,0.36619980593315299,0.92399749893988004
-4.0549999999999997,0.13145595906351379,1.0193672445859918
-4.0545,-0.4980843575391895,0.58490506997452218
-4.0540000000000003,-1.1382948489995657,-0.37938902489483717
-4.0534999999999997,-1.4904106193034812,-1.0787671596366972
-4.0529999999999999,-1.2770071221500223,-1.0045906908005926
-4.0525000000000002,-0.67947733011979428,-0.60191843140423029
-4.0519999999999996,-0.11395806266225535,-0.19924617200766542
-4.0514999999999999,0.28083840707164331,0.023283234500648287
-4.0510000000000002,0.50491207908297886,0.12924961855232261
-4.0505000000000004,0.59027347794436225,0.12924961855232261
-4.0499999999999998,0.62228400251748783,0.044476511310983152
-4.0495000000000001,0.77166645052504479,-0.14626297998203064
-4.0490000000000004,0.77166645052504479,-0.12506970317171506
-4.0484999999999998,0.67563487680581369,0.012686596095635055
-4.048,0.57960330308675734,0.18223281057815977
-4.0475000000000003,0.51558225394071955,0.30939247144005333
-4.0469999999999997,0.3768699807905736,0.35177902506056885
-4.0465,0.14212613392176898,0.055073149716150585
-4.0460000000000003,-0.44473348325024253,-0.68669153864489507
-4.0454999999999997,-0.93556152670466297,-1.3542797581715227
-4.0449999999999999,-1.46907026958831,-1.7993385711881502
-4.0445000000000002,-1.5437614935920885,-1.7675486559726479
-4.0439999999999996,-1.0209229255650858,-1.0363806060153722
-4.0434999999999999,-0.41272295867772835,-0.24163272562853755
-4.0430000000000001,0.046094560202625215,0.35177902506083869
-4.0425000000000004,0.32351910650212157,0.70146809243104591
-4.0419999999999998,0.45156120479456557,0.84982103010370802
-4.0415000000000001,0.4835717293676135,0.87101430691404291
-4.0410000000000004,0.47290155450994059,0.82862775329341165
-4.0404999999999998,0.45156120479454614,0.76504792286233969
-4.04,0.43022085507920033,0.73325800764686633
-4.0395000000000003,0.41955068022152736,0.70146809243139285
-4.0389999999999997,0.38754015564812033,0.64848490040507389
-4.0385,0.0034138607718946501,0.15044289536265748
-4.0380000000000003,-0.79684925355357561,-0.72907809226543963
-4.0374999999999996,-1.4584000947308795,-1.5026326958437126
-4.0369999999999999,-1.7358246410303759,-1.7781452943778153
-4.0365000000000002,-1.5437614935920885,-1.3224898429556156
-4.0359999999999996,-0.90355100213050887,-0.66549826183475302
-4.0354999999999999,-0.22065981123944084,-0.13566634157686319
-4.0350000000000001,0.24882788249859539,0.16103953376782493
-4.0345000000000004,0.51558225394041868,0.2352160026039295
-4.0339999999999998,0.62228400251748783,0.18223281057815977
-4.0335000000000001,0.64362435223285308,0.065669788121318018
-4.0330000000000004,0.77166645052492833,-0.11447306476636451
-4.0324999999999998,0.83568749967105338,-0.19924617200777145
-4.032,0.73965592595199681,-0.093279787956193475
-4.0315000000000003,0.61161382765992156,0.055073149716015665
-4.0309999999999997,0.51558225394062251,0.19282944898347176
-4.0305,0.47290155450993088,0.35177902506083869
-4.0300000000000002,0.61161382765967898,0.80743447648262401
-4.0294999999999996,0.54759277851293298,0.89220758372360676
-4.0289999999999999,-0.30602121010090194,0.044476511310983152
-4.0285000000000002,-1.2663369472923398,-0.9304142219644207
-4.0279999999999996,-1.6397930673108441,-1.4814394190327995
-4.0274999999999999,-1.2129860730039266,-1.1211537132574345
-4.0270000000000001,-0.58344575640065055,-0.42177557851638392
-4.0265000000000004,-0.060607188374676713,0.203426087387926
-4.0259999999999998,0.27016823221396069,0.63788826200035942
-4.0255000000000001,0.43022085507920033,0.87101430691404291
-4.0250000000000004,0.48357172936756498,0.9769806909656209
-4.0244999999999997,0.48357172936759407,0.99817396777602319
-4.024,0.4622313796522482,0.96638405256054982
-4.0235000000000003,0.43022085507922947,0.92399749893991856
-4.0229999999999997,0.41955068022149822,0.89220758372435849
-4.0225,0.3982103305061524,0.87101430691404291
-4.0220000000000002,0.23815770764105834,0.76504792286246492
-4.0214999999999996,-0.40205278382052123,0.34118238665489059
-4.0209999999999999,-0.92489135184649518,-0.51714532416289083
-4.0205000000000002,-0.98891240099259115,-1.3436831197659505
-4.0199999999999996,-0.97824222613457845,-1.6509856335153819
-4.0194999999999999,-0.61545628097369853,-1.1847335436884392
-4.0190000000000001,-0.16730893695102761,-0.60191843140423029
-4.0185000000000004,0.1954770082098522,-0.20984281041339181
-4.0179999999999998,0.45156120479456557,0.023283234500648287
-4.0175000000000001,0.6116138276598051,0.086863064931652884
-4.0170000000000003,0.65429452709049696,0.086863064931652884
-4.0164999999999997,0.67563487680591072,0.012686596095423028
-4.016,0.6863050516635838,-0.050893234335523743
-4.0155000000000003,0.62228400251754601,-0.029699957525208154
-4.0149999999999997,0.5369226036559781,0.02328323450071575
-4.0145,0.4835717293676135,0.097459703336820316
-4.0140000000000002,0.45156120479459472,0.17163617217292487
-4.0134999999999996,0.31284893164414779,0.002089957689706253
-4.0129999999999999,-0.28468086038553664,-0.66549826183523486
-4.0125000000000002,-1.0315931004233216,-1.3754730349814528
-4.0119999999999996,-1.4690702695885818,-1.7569520175676057
-4.0114999999999998,-1.7678351656034239,-1.8947083168346572
-4.0110000000000001,-1.7891755153187892,-1.7357587407571455
-4.0105000000000004,-1.1809755484314317,-0.96220413718062647
-4.0099999999999998,-0.4980843575391895,-0.14626297998203064
-4.0095000000000001,0.014084035629577295,0.45774540911251305
-4.0090000000000003,0.32351910650209242,0.81803111488787805
-4.0084999999999997,0.46223137965227729,0.98757732937091358
-4.008,0.49424190422529612,1.0193672445863871
-4.0075000000000003,0.48357172936762322,0.98757732937091358
-4.0069999999999997,0.46223137965222877,0.9345941373449993
-4.0065,0.44089102993688295,0.88161094531921036
-4.0060000000000002,0.41955068022151765,0.83922439169854057
-4.0054999999999996,0.34485945621719571,0.76504792286207945
-4.0049999999999999,-0.25267033581248871,0.4471487707073456
-4.0045000000000002,-0.81818960326966872,-0.20984281041303524
-4.0039999999999996,-1.031593100423273,-1.0257839676111107
-4.0034999999999998,-0.97824222613490841,-1.227120097309109
-4.0030000000000001,-0.57277558154296804,-0.84564111472308123
-4.0025000000000004,-0.071277363232339908,-0.43237221692192718
-4.0019999999999998,0.32351910650237387,-0.19924617200786782
-4.0015000000000001,0.51558225394066137,-0.019103319120021445
-4.0010000000000003,0.5902734779443719,0.033879872905767529
-4.0004999999999997,0.60094365280215167,0.0020899576902555952
-4,0.63295417737517057,-0.061489872740691176
-3.9994999999999998,0.70764540137894905,-0.33700247127504446
-3.9990000000000001,0.66496470194821833,-0.3581957480853793
-3.9984999999999999,0.57960330308675734,-0.10387642636136091
-3.9980000000000002,0.50491207908297886,0.18223281057815977
-3.9975000000000001,0.4622313796522482,0.41535885549184332
-3.9969999999999999,0.44089102993688295,0.66967817721586165
-3.9965000000000002,0.64362435223285308,1.1889134590690658
-3.996,0.22748753278323011,1.0511571598018894
-3.9954999999999998,-0.48741418268150688,0.097459703336820316
-3.9950000000000001,-1.2449965975769743,-0.89862430674891836
-3.9944999999999999,-1.4904106193036752,-1.4072629501969551
-3.9940000000000002,-1.0529334501386869,-1.0469772444212624
-3.9935,-0.46607383296614152,-0.40058230170604903
-3.9929999999999999,0.0034138607718946501,0.17163617217299235
-3.9925000000000002,0.29150858192932599,0.55311515475901996
-3.992,0.43022085507920033,0.76504792286236856
-3.9914999999999998,0.4835717293676135,0.84982103010370802
-3.9910000000000001,0.47290155450993088,0.87101430691404291
-3.9904999999999999,0.45156120479456557,0.84982103010370802
-3.9900000000000002,0.43022085507920033,0.84982103010370802
-3.9895,0.41955068022151765,0.83922439169854057
-3.9889999999999999,0.38754015564846972,0.83922439169854057
-3.9885000000000002,0.035424385344942577,0.74385464605203377
-3.988,-0.59411593125833329,0.37297230187117358
-3.9874999999999998,-1.1489650238578306,-0.48535540894738849
-3.9870000000000001,-1.6504632421689147,-1.3012965661452807
-3.9864999999999999,-1.7251544661726932,-1.523825972653797
-3.9860000000000002,-1.0956141495694174,-1.0363806060160949
-3.9855,-0.38071243410468042,-0.44296885532671876
-3.9849999999999999,0.16346648363713429,-0.050893234335523743
-3.9845000000000002,0.47290155450993088,0.10805634174198775
-3.984,0.60094365280212259,0.18223281057815977
-3.9834999999999998,0.65429452709053582,0.15044289536265748
-3.9830000000000001,0.5689331282290746,0.023283234500648287
-3.9824999999999999,0.45156120479456557,-0.029699957525188878
-3.9820000000000002,0.3982103305061524,0.044476511310983152
-3.9815,0.38754015564846972,0.15044289536265748
-3.9809999999999999,0.40888050536383502,0.23521600260399694
-3.9805000000000001,0.38754015564846972,0.30939247144016896
-3.98,0.099445434491038431,0.30939247144016896
-3.9794999999999998,-0.46607383296614152,-0.14626297998203064
-3.9790000000000001,-1.2236562478616091,-0.9304142219644207
-3.9784999999999999,-1.8211860398918371,-1.5980024414899687
-3.9780000000000002,-2.1626316353376818,-1.9900780624811638
-3.9775,-1.618452717595867,-1.5450192494641319
-3.9769999999999999,-0.83952995298503397,-0.71848145386107198
-3.9765000000000001,-0.18864928666639288,0.012686596095480854
-3.976,0.22748753278323011,0.48953532432801533
-3.9754999999999998,0.43022085507920033,0.74385464605203377
-3.9750000000000001,0.50491207908297886,0.82862775329337313
-3.9744999999999999,0.50491207908297886,0.81803111488820579
-3.9740000000000002,0.4835717293676135,0.775644561267536
-3.9735,0.45156120479456557,0.72266136924169888
-3.9729999999999999,0.43022085507920033,0.70146809243136399
-3.9725000000000001,0.41955068022151765,0.6590815388106942
-3.972,0.27016823221396069,0.68027481562102909
-3.9714999999999998,-0.38071243410468042,0.41535885549184332
-3.9710000000000001,-0.92489135184649518,-0.40058230170604903
-3.9704999999999999,-1.4157193952998968,-1.2377167357142764
-3.9700000000000002,-1.8105158650341544,-1.7357587407571455
-3.9695,-1.6397930673112322,-1.3860696733866202
-3.9689999999999999,-0.96757205127722568,-0.72907809226623943
-3.9685000000000001,-0.29535103524321932,-0.20984281041303524
-3.968,0.19547700821018218,0.11865298014715518
-3.9674999999999998,0.47290155450993088,0.25640927941433178
-3.9670000000000001,0.59027347794443985,0.25640927941433178
-3.9664999999999999,0.66496470194821833,0.15044289536265748
-3.9660000000000002,0.77166645052504479,-0.0085066807148540119
-3.9655,0.72898575109431429,0.012686596095480854
-3.9649999999999999,0.62228400251748783,0.10805634174198775
-3.9645000000000001,0.53692260365602662,0.21402272579366208
-3.964,0.4835717293676135,0.30939247144016896
-3.9634999999999998,0.19547700821018218,0.16103953376782493
-3.9630000000000001,-0.5621054066852853,-0.52774196256805828
-3.9624999999999999,-1.2343264227192918,-1.2801032893349458
-3.9620000000000002,-1.7891755153187892,-1.8523217632139874
-3.9615,-2.1733018101953641,-2.159624276963843
-3.9609999999999999,-1.6824737667419627,-1.6721789103261409
-3.9605000000000001,-0.8928808272734472,-0.76086800748174177
-3.96,-0.23132998609712346,0.033879872905815719
-3.9594999999999998,0.20614718306786484,0.5637117931641874
-3.9590000000000001,0.43022085507920033,0.82862775329337313
-3.9584999999999999,0.51558225394066137,0.92399749893988004
-3.9580000000000002,0.51558225394066137,0.90280422212954525
-3.9575,0.4835717293676135,0.83922439169854057
-3.9569999999999999,0.4622313796522482,0.775644561267536
-3.9565000000000001,0.44089102993688295,0.70146809243136399
-3.956,0.41955068022151765,0.64848490040552687
-3.9554999999999998,0.35552963107542179,0.58490506997452218
-3.9550000000000001,-0.18864928666639288,0.46834204751768049
-3.9544999999999999,-0.98891240099259115,-0.04029659593035631
-3.9540000000000002,-1.618452717595867,-0.86683439153341613
-3.9535,-1.6291228924535495,-1.0893637980419322
-3.9529999999999998,-0.99958257585027366,-0.72907809226623943
-3.9525000000000001,-0.29535103524321932,-0.33700247127504446
-3.952,0.20614718306786484,-0.072086511145858609
-3.9514999999999998,0.50491207908297886,-0.0085066807148540119
-3.9510000000000001,0.65429452709053582,-0.029699957525188878
-3.9504999999999999,0.67563487680590106,0.044476511310983152
-3.9500000000000002,0.69697522652126631,0.13984625695749003
-3.9495,0.82501732481345802,0.35177902506083869
-3.9489999999999998,0.80367697509809277,0.42595549389701071
-3.9485000000000001,0.69697522652126631,0.41535885549184332
-3.948,0.57960330308675734,0.37297230187117358
-3.9474999999999998,0.49424190422529612,0.34118238665567124
-3.9470000000000001,0.55826295337139209,0.30939247144016896
-3.9464999999999999,0.98506994767869771,0.19282944898332721
-3.9460000000000002,0.93171907339028448,-0.41117894011121647
-3.9455,0.08877525963335578,-1.1423469900677694
-3.9449999999999998,-0.96757205127722568,-1.6827755487313083
-3.9445000000000001,-1.4263895701575793,-1.7357587407571455
-3.944,-1.0956141495694174,-1.0257839676109275
-3.9434999999999998,-0.53009488211223732,-0.1674562567923655
-3.9430000000000001,-0.049937013516518552,0.48953532432801533
-3.9424999999999999,0.27016823221396069,0.89220758372437781
-3.9420000000000002,0.43022085507920033,1.0829470750173917
-3.9415,0.4835717293676135,1.1359302670432285
-3.9409999999999998,0.4835717293676135,1.1041403518277266
-3.9405000000000001,0.4622313796522482,1.0299638829915545
-3.9399999999999999,0.44089102993688295,0.95578741415538238
-3.9394999999999998,0.43022085507920033,0.89220758372437781
-3.9390000000000001,0.38754015564846972,0.72266136924169888
-3.9384999999999999,0.43022085507920033,0.6590815388106942
-3.9380000000000002,0.96372959796333246,1.1147369902328941
-3.9375,1.3158453682668594,1.4008462271724147
-3.9369999999999998,0.92104889853260175,0.69087145402619654
-3.9365000000000001,0.29150858192932599,0.055073149716150585
-3.9359999999999999,0.067434909917990504,-0.14626297998203064
-3.9355000000000002,0.14212613392176898,-0.17805289519753292
-3.9350000000000001,0.27016823221396069,-0.10387642636136091
-3.9344999999999999,0.3982103305061524,-0.029699957525188878
-3.9340000000000002,0.49424190422529612,-0.061489872740691176
-3.9335,0.55826295337139209,-0.050893234335523743
-3.9329999999999998,0.63295417737517057,-0.10387642636136091
-3.9325000000000001,0.65429452709053582,-0.11447306476652835
-3.9319999999999999,0.60094365280212259,0.033879872905815719
-3.9315000000000002,0.53692260365602662,0.2246193641988295
-3.931,0.47290155450993088,0.40476221708667587
-3.9304999999999999,0.4622313796522482,0.59550170837968963
-3.9300000000000002,0.857027849386506,1.0511571598018894
-3.9295,1.4545576414167338,1.5386025264395911
-3.9289999999999998,1.2518243191207636,0.96638405256054982
-3.9285000000000001,0.33418928136005654,-0.19924617200786782
