Class_3_Grab_w_two_Hands/Class_3_Grab_with_Both_hands_Turki_8.csv

#Digilent WaveForms Oscilloscope Acquisition
#Device Name: EExplorer
#Serial Number: SN:210151A2B84A
#Date Time: 2020-12-15 14:03:35.444
#Sample rate: 2000Hz
#Samples: 16384
#Trigger: Source: Channel 1 Type: Edge Condition: Rising Level: 0 V Hyst.: Auto HoldOff: 0 s
#Channel 1: Range: 1 V/div Offset: 0 V Attenuation: 1 X
#Channel 2: Range: 1 V/div Offset: 0 V Attenuation: 1 X
#Power Supplies: ON
#Fixed Supply: ON
#Voltage: 3.3 V Readback: 3.326 V
#Positive Supply: ON
#Voltage: 3.7 V Readback: 3.717 V
#Current: 40 mA Readback: 18 mA
#Negative Supply: ON
#Voltage: -3.7 V Readback: -3.35 V
#Current: -40 mA Readback: -9 mA
#Reference 1: ON
#Voltage: 0 V
#Reference 2: ON
#Voltage: 0 V

Time (s),Channel 1 (V),Channel 2 (V)
-4.096,0.3448594562177392,0.3199891098453364
-4.0955,0.6542945270902544,0.7650479228619638
-4.095,0.312848931643944,0.7014680924306316
-4.0945,-0.5087545323968721,-0.1038764263613609
-4.094,-1.202315898145613,-0.8668343915327223
-4.0935,-1.650463242168624,-1.396666311791585
-4.093,-1.330357996438436,-1.174136905283272
-4.0925,-0.743498379266424,-0.5595318777841195
-4.092,-0.2313299860968129,0.02328323450103379
-4.0915,0.1101156093487211,0.4471487707073456
-4.091,0.291508581929326,0.6802748156210291
-4.0905,0.3555296310754218,0.7862411996727228
-4.09,0.3555296310754218,0.8074344764830383
-4.0895,0.3448594562177392,0.7862411996727035
-4.089,0.3128489316447204,0.75445128445723
-4.0885,0.3021787567870086,0.7120647308365314
-4.088,0.3021787567870086,0.6802748156210291
-4.0875,0.08877525963354987,0.4365521323023998
-4.087,-0.5300948821125867,-0.2946159176550975
-4.0865,-0.9142211769888124,-1.089363798041932
-4.086,-1.095614149569252,-1.672178910325611
-4.0855,-1.202315898145982,-1.682775548730769
-4.085,-0.9142211769888124,-1.089363798041932
-4.0845,-0.3380317346744739,-0.5171453241634113
-4.084,0.1314559590643193,-0.1250697031715319
-4.0835,0.3875401556484697,0.05507314971615059
-4.083,0.4835717293676135,0.13984625695749
-4.0825,0.4835717293676135,0.1292496185522166
-4.082,0.4835717293676135,0.01268659609548085
-4.0815,0.5155822539406614,-0.1356663415768632
-4.081,0.4729015545099697,-0.1250697031717054
-4.0805,0.3982103305061524,-0.05089323433552374
-4.08,0.3448594562177392,0.05507314971615059
-4.0795,0.3128489316447204,0.1504428953625707
-4.079,0.4942419042251699,0.436552132302448
-4.0785,0.3555296310754218,0.7332580076468663
-4.078,-0.4447334832500484,0.1398462569580297
-4.0775,-1.212986073004489,-0.6549016234306649
-4.077,-1.83185621474952,-1.311893204550448
-4.0765,-1.714484291315117,-1.407262950196868
-4.076,-1.052933450138134,-0.8456411147224934
-4.0755,-0.4447334832507763,-0.1992461720078678
-4.075,0.00341386077189465,0.309392471440169
-4.0745,0.2488278824986924,0.6166949851901787
-4.074,0.3555296310754218,0.7862411996727035
-4.0735,0.3768699807907871,0.8392243916985406
-4.073,0.3555296310754412,0.8392243916985406
-4.0725,0.3341892813600565,0.8074344764830383
-4.072,0.3128489316446912,0.775644561267536
-4.0715,0.3021787567870183,0.7438546460520626
-4.071,0.2061471830673408,0.6060983467842692
-4.0705,-0.3700422592469978,-0.04029659593035631
-4.07,-0.9035510021306445,-0.8668343915326644
-4.0695,-1.148965023857918,-1.534422611059119
-4.069,-1.244996597576974,-1.703968825541643
-4.0685,-0.9782422261349084,-1.248313374119443
-4.068,-0.4233931335349452,-0.6654982618348301
-4.0675,0.08877525963335578,-0.2204394488182027
-4.067,0.3768699807907871,0.04447651131098315
-4.0665,0.4835717293676329,0.1928294489833465
-4.066,0.5049120790829789,0.2140227257936621
-4.0655,0.4835717293676135,0.1822328105781598
-4.065,0.5049120790829594,0.2140227257936332
-4.0645,0.4729015545099309,0.1716361721729923
-4.064,0.408880505363835,0.07626642652648545
-4.0635,0.3555296310754703,0.01268659609553868
-4.063,0.3235191065024709,-0.01910331911991543
-4.0625,0.4302208550792003,0.09745970333682032
-4.062,0.6863050516633509,0.5637117931637634
-4.0615,0.0994454344903009,0.2776025562239728
-4.061,-0.7114878546928423,-0.4853554089473885
-4.0605,-1.426389570157579,-1.152943628472937
-4.06,-1.650463242168468,-1.449649503817201
-4.0595,-1.159635198715513,-0.9833974139902578
-4.059,-0.5621054066852853,-0.3052125560595421
-4.0585,-0.09261771294767612,0.2776025562241367
-4.058,0.1954770082101822,0.6696781772158616
-4.0575,0.3235191065023739,0.8816109453192104
-4.057,0.3661998059330657,0.9769806909656306
-4.0565,0.3661998059331045,0.9981739677760521
-4.056,0.3448594562177392,0.9769806909657173
-4.0555,0.3235191065023933,0.934594137345086
-4.055,0.3128489316446718,0.89220758372432
-4.0545,0.291508581929326,0.8286277532933731
-4.054,-0.07127736323155387,0.6166949851902173
-4.0535,-0.7434983792662493,0.2564092794136282
-4.053,-1.138294849000148,-0.5171453241628908
-4.0525,-1.30901764672307,-1.131750351662602
-4.052,-1.373038695868914,-1.205926820498466
-4.0515,-1.095614149569417,-0.8668343915334161
-4.051,-0.5407650569699201,-0.4429688553267188
-4.0505,-0.08194753808998373,-0.1568596183874583
-4.05,0.2274875327832301,-0.06148987274069118
-4.0495,0.408880505363835,-0.01910331912002144
-4.049,0.4622313796521997,-0.00850668071486365
-4.0485,0.5155822539407002,-0.07208651114592607
-4.048,0.5582629533713921,-0.1462629799820306
-4.0475,0.5049120790830274,-0.1250697031717151
-4.047,0.4195506802214594,-0.07208651114579115
-4.0465,0.3555296310754218,0.002089957690313421
-4.046,0.3555296310754218,0.1080563417418914
-4.0455,0.6116138276594363,0.5531151547589236
-4.045,0.2061471830678648,0.4471487707073456
-4.0445,-0.5407650569699201,-0.2946159176543747
-4.044,-1.244996597577275,-0.9410108603699929
-4.0435,-1.575772018165136,-1.38606967338662
-4.043,-1.180975548430879,-1.152943628472937
-4.0425,-0.6154562809742129,-0.5277419625686269
-4.042,-0.1352984123779797,0.09745970333682032
-4.0415,0.1634664836371343,0.5425185163538525
-4.041,0.3128489316445554,0.8074344764827974
-4.0405,0.3661998059331045,0.9345941373450763
-4.04,0.3661998059331045,0.9663840525605498
-4.0395,0.3448594562177586,0.9451907757502342
-4.039,0.3235191065023642,0.9134008605346742
-4.0385,0.3128489316446912,0.8710143069140429
-4.038,0.3021787567870183,0.818031114888254
-4.0375,0.04609456020206235,0.5107286011376273
-4.037,-0.572775581542968,-0.2840192792492073
-4.0365,-1.042263275281004,-1.0999604364471
-4.036,-1.330357996438601,-1.682775548731318
-4.0355,-1.51175096901904,-1.693372187136476
-4.035,-1.159635198715513,-1.142346990067769
-4.0345,-0.3913826089630619,-0.5807251545944062
-4.034,0.1954770082101822,-0.2098428104130352
-4.0335,0.4835717293676135,-0.05089323433552374
-4.033,0.568933128228997,-0.008506680714892564
-4.0325,0.5475927785136899,-0.02969995752526598
-4.032,0.5262524287983441,-0.1144730647665284
-4.0315,0.5689331282290357,-0.2098428104129485
-4.031,0.5262524287982665,-0.1674562567922884
-4.0305,0.4408910299368829,-0.08268314955102604
-4.03,0.3661998059331724,0.002089957690236316
-4.0295,0.3341892813602603,0.07626642652678421
-4.029,0.5582629533713921,0.4047622170866759
-4.0285,0.5155822539406614,0.6696781772158616
-4.028,-0.2633405106708604,0.05507314971543741
-4.0275,-1.020922925565639,-0.7290780922662394
-4.027,-1.543761493592088,-1.34368311976595
-4.0265,-1.33035799643863,-1.301296566145319
-4.026,-0.7648387289812555,-0.7290780922662394
-4.0255,-0.2526703358124887,-0.1144730647665284
-4.025,0.09944543449071819,0.3517790250604146
-4.0245,0.280838407071721,0.6378882620004847
-4.024,0.3661998059331045,0.775644561267536
-4.0235,0.3768699807907774,0.8180311148881673
-4.023,0.3555296310754024,0.807434476483019
-4.0225,0.3341892813600565,0.7862411996727035
-4.022,0.3235191065023836,0.75445128445723
-4.0215,0.312848931644633,0.7226613692416122
-4.021,0.2488278824985954,0.627291623595192
-4.0205,-0.2526703358124887,0.08686306493165288
-4.02,-0.796849253554614,-0.697288177051354
-4.0195,-1.138294849000148,-1.375473034981453
-4.019,-1.373038695869166,-1.566212526274467
-4.0185,-1.447729919872877,-1.205926820499102
-4.018,-1.042263275281004,-0.6760949002404023
-4.0175,-0.3380317346739499,-0.2098428104130352
-4.017,0.1954770082096969,0.08686306493138304
-4.0165,0.4408910299369412,0.1716361721729345
-4.016,0.5049120790829789,0.1080563417419877
-4.0155,0.5049120790829789,0.04447651131104098
-4.015,0.5369226036560072,-0.05089323433555266
-4.0145,0.5155822539406614,-0.08268314955102604
-4.014,0.4408910299369509,-0.05089323433555266
-4.0135,0.3768699807907483,0.002089957690371247
-4.013,0.3341892813600565,0.06566978812131802
-4.0125,0.4302208550792003,0.2246193641988295
-4.012,0.5689331282285506,0.6060983467844716
-4.0115,-0.007256314085787988,0.1822328105781598
-4.011,-0.807519428411986,-0.6019184314042303
-4.0105,-1.533091318733746,-1.258910012524013
-4.01,-1.789175515318789,-1.566212526274467
-4.0095,-1.255666772434657,-1.0999604364471
-4.009,-0.6154562809742808,-0.4111789401118429
-4.0085,-0.113958062662333,0.1822328105785164
-4.008,0.1954770082101822,0.5743084315693548
-4.0075,0.3448594562176033,0.7756445612673529
-4.007,0.38754015564846,0.8604176685088851
-4.0065,0.3768699807907871,0.8710143069140429
-4.006,0.3555296310754218,0.8392243916985406
-4.0055,0.3341892813600468,0.7968378380778324
-4.005,0.3235191065023739,0.7544512844572011
-4.0045,0.3021787567870086,0.6908714540261965
-4.004,-0.1032878878054461,0.25640927941358
-4.0035,-0.6688071552621118,-0.570128516188728
-4.003,-0.9675720512772257,-1.322489842955616
-4.0025,-1.095614149569301,-1.672178910325823
-4.002,-1.138294849000148,-1.333086481360783
-4.0015,-0.7328282044082075,-0.7502713690765743
-4.001,-0.1139580626631773,-0.3158091944651047
-4.0005,0.2915085819295104,-0.07208651114576223
-4,0.4942419042252961,0.03387987290581572
-3.9995,0.5369226036560266,0.05507314971615059
-3.999,0.5262524287983441,0.02328323450064829
-3.9985,0.5475927785137094,-0.07208651114585861
-3.998,0.5796033030867573,-0.1144730647665284
-3.9975,0.5155822539406614,-0.05089323433552374
-3.997,0.4302208550792003,0.05507314971615059
-3.9965,0.3661998059331045,0.13984625695749
-3.996,0.3555296310754218,0.2458126410091644
-3.9955,0.5902734779444399,0.6484849004055269
-3.995,0.2381577076409128,0.5107286011383502
-3.9945,-0.4020527838200457,-0.2628260024388724
-3.994,-1.084943974711735,-0.9622041371799229
-3.9935,-1.533091318734406,-1.47084278062796
-3.993,-1.234326422719292,-1.34368311976595
-3.9925,-0.6794773301197943,-0.718481453861072
-3.992,-0.1886492866663929,-0.09327978795619347
-3.9915,0.142126133921769,0.3729723018711736
-3.991,0.3128489316446912,0.6484849004055269
-3.9905,0.3768699807907871,0.775644561267536
-3.99,0.3768699807907871,0.8074344764830383
-3.9895,0.3661998059331045,0.7862411996727035
-3.989,0.3341892813600565,0.7544512844572011
-3.9885,0.3235191065023739,0.7226613692416989
-3.988,0.3128489316446912,0.6802748156210291
-3.9875,0.1314559590640864,0.457745409112513
-3.987,-0.4447334832507763,-0.2734226408440398
-3.9865,-0.8502001278427167,-1.068170521231597
-3.986,-1.116954499284783,-1.650985633515806
-3.9855,-1.234326422719292,-1.598002441489969
-3.985,-1.095614149569417,-1.046977244421262
-3.9845,-0.5621054066852853,-0.5065486857577234
-3.984,-0.04993701351651855,-0.1250697031716958
-3.9835,0.2701682322139607,0.02328323450064829
-3.983,0.4302208550792003,0.05507314971615059
-3.9825,0.4622313796522482,0.05507314971615059
-3.982,0.4835717293676135,0.06566978812131802
-3.9815,0.5689331282290746,0.1610395337678249
-3.981,0.5475927785137094,0.1610395337678249
-3.9805,0.4729015545099309,0.13984625695749
-3.98,0.3982103305061524,0.1186529801471552
-3.9795,0.3555296310754218,0.1292496185523226
-3.979,0.5475927785137094,0.4153588554918433
-3.9785,0.408880505363835,0.627291623595192
-3.978,-0.2420001609548061,-0.008506680714854012
-3.9775,-0.9035510021311299,-0.7820612842920766
-3.977,-1.458400094730627,-1.375473034981453
-3.9765,-1.298347471865388,-1.396666311791788
-3.976,-0.7648387289812555,-0.8032545611024114
-3.9755,-0.2633405106701714,-0.1356663415768632
-3.975,0.08877525963335578,0.3941655786815084
-3.9745,0.291508581929326,0.7226613692416989
-3.974,0.3661998059331045,0.8816109453192104
-3.9735,0.3768699807907871,0.9451907757502149
-3.973,0.3661998059331045,0.9345941373450475
-3.9725,0.3448594562177392,0.8922075837243778
-3.972,0.3341892813600565,0.849821030103708
-3.9715,0.3235191065023739,0.8074344764830383
-3.971,0.2168173579255475,0.6484849004055269
-3.9705,-0.3700422592469978,-0.01910331912002144
-3.97,-0.9248913518464952,-0.8562377531282487
-3.9695,-1.180975548430879,-1.534422611058964
-3.969,-1.341028171296118,-1.788741932782983
-3.9685,-1.362368521011484,-1.375473034981453
-3.968,-0.8181896032696687,-0.7608680074817418
-3.9675,-0.156638762093345,-0.2734226408440398
-3.967,0.2488278824985954,0.01268659609548085
-3.9665,0.4622313796522482,0.06566978812131802
-3.966,0.5262524287983441,0.01268659609548085
-3.9655,0.5155822539406614,-0.08268314955102604
-3.965,0.5796033030867573,-0.2734226408440398
-3.9645,0.5689331282290746,-0.2734226408440398
-3.964,0.4942419042252961,-0.1356663415768632
-3.9635,0.4195506802215176,0.02328323450064829
-3.963,0.3661998059331045,0.1504428953626575
-3.9625,0.4408910299368829,0.3305857482505039
-3.962,0.7289857510943143,0.775644561267536
-3.9615,0.2701682322139607,0.4259554938970107
-3.961,-0.4980843575391895,-0.3581957480853793
-3.9605,-1.223656247861609,-1.004590690800593
-3.96,-1.394379045584531,-1.364876396576285
-3.9595,-0.9569018764195432,-1.036380606016095
-3.959,-0.4340633083930936,-0.4429688553267188
-3.9585,-0.02859666380115328,0.08686306493165288
-3.958,0.2274875327832301,0.4471487707073456
-3.9575,0.3448594562177392,0.6378882620003594
-3.957,0.3875401556484697,0.7226613692416989
-3.9565,0.3768699807907871,0.7438546460520338
-3.956,0.3555296310754218,0.7226613692416989
-3.9555,0.3341892813600565,0.7120647308365314
-3.955,0.3341892813600565,0.6908714540261965
-3.9545,0.3128489316446912,0.6484849004055269
-3.954,-0.01792648894347063,0.2140227257936621
-3.9535,-0.5087545323968721,-0.5913217929990628
-3.953,-0.839529952985034,-1.322489842955616
-3.9525,-0.9889124009925911,-1.714565463946811
-3.952,-1.031593100423322,-1.396666311791788
-3.9515,-0.7968492535543035,-0.7820612842920766
-3.951,-0.3273615598162672,-0.2734226408440398
-3.9505,0.09944543449103843,0.02328323450064829
-3.95,0.3661998059331045,0.1504428953626575
-3.9495,0.4835717293676135,0.1504428953626575
-3.949,0.5049120790829789,0.1292496185523226
-3.9485,0.5155822539406614,0.03387987290581572
-3.948,0.5049120790829789,-0.04029659593035631
-3.9475,0.4408910299368829,0.002089957690313421
-3.947,0.3875401556484697,0.03387987290581572
-3.9465,0.3448594562177392,0.04447651131098315
-3.946,0.3448594562177392,0.13984625695749
-3.9455,0.5582629533713921,0.5849050699745222
-3.945,0.291508581929326,0.5213252395435176
-3.9445,-0.3487019095316325,-0.2310360872233701
-3.944,-1.042263275281004,-0.9728007755850904
-3.9435,-1.565101843307454,-1.492036057438295
-3.943,-1.319687821580753,-1.280103289334946
-3.9425,-0.754168554123573,-0.6231117082145651
-3.942,-0.2313299860971235,0.02328323450064829
-3.9415,0.1207857842064037,0.4789386859228479
-3.941,0.3021787567870086,0.7438546460520338
-3.9405,0.3768699807907871,0.8710143069140429
-3.94,0.3875401556484697,0.9028042221295453
-3.9395,0.3661998059331045,0.8816109453192104
-3.939,0.3555296310754218,0.849821030103708
-3.9385,0.3341892813600565,0.8074344764830383
-3.938,0.3235191065023739,0.7544512844572011
-3.9375,0.08877525963335578,0.4683420475176805
-3.937,-0.5087545323968721,-0.3052125560595421
-3.9365,-0.8502001278427167,-1.110557074852267
-3.936,-1.031593100423322,-1.650985633515806
-3.9355,-1.010252750707956,-1.534422611058964
-3.935,-0.6474668055467465,-0.9622041371799229
-3.9345,-0.156638762093345,-0.4217755785163839
-3.934,0.2381577076409128,-0.04029659593035631
-3.9335,0.4622313796522482,0.2034260873884947
-3.933,0.5262524287983441,0.2670059178194992
-3.9325,0.5369226036560266,0.1822328105781598
-3.932,0.5369226036560266,0.04447651131098315
-3.9315,0.6222840025174878,-0.1462629799820306
-3.931,0.5902734779444399,-0.1356663415768632
-3.9305,0.4942419042252961,-0.02969995752518888
-3.93,0.4195506802215176,0.07626642652648545
-3.9295,0.3661998059331045,0.1716361721729923
-3.929,0.5796033030867573,0.4895353243280153
-3.9285,0.6009436528021226,0.7862411996727035
-3.928,-0.1459685872356623,0.1822328105781598
-3.9275,-0.9355615267041777,-0.6231117082145651
-3.927,-1.597112367880501,-1.269506650929778
-3.9265,-1.618452717595867,-1.396666311791788
-3.926,-1.042263275281004,-0.8456411147230812
-3.9255,-0.4447334832507763,-0.1992461720078678
-3.925,0.00341386077189465,0.3199891098453364
-3.9245,0.2594980573562781,0.6378882620003594
-3.924,0.3661998059331045,0.8074344764830383
-3.9235,0.3982103305061524,0.8604176685088755
-3.923,0.3875401556484697,0.8604176685088755
-3.9225,0.3661998059331045,0.8286277532933731
-3.922,0.3448594562177392,0.7968378380778709
-3.9215,0.3341892813600565,0.7544512844572011
-3.921,0.2488278824985954,0.6378882620003594
-3.9205,-0.2846808603855366,0.03387987290581572
-3.92,-0.754168554123573,-0.792657922697244
-3.9195,-0.9462317015618604,-1.481439419033127
-3.919,-1.010252750707956,-1.682775548731308
-3.9185,-0.5941159312583333,-1.216523458903942
-3.918,-0.07127736323188383,-0.6866915386455698
-3.9175,0.3128489316446912,-0.2416327256285375
-3.917,0.5155822539406614,0.002089957690313421
-3.9165,0.5689331282290746,0.1292496185523226
-3.916,0.5475927785137094,0.1292496185523226
-3.9155,0.5049120790829789,0.09745970333682032
-3.915,0.4942419042252961,0.1504428953626575
-3.9145,0.4622313796522482,0.1610395337678249
-3.914,0.408880505363835,0.1186529801471552
-3.9135,0.3661998059331045,0.07626642652648545
-3.913,0.3341892813600565,0.07626642652648545
-3.9125,0.4408910299368829,0.2246193641988295
-3.912,0.6542945270905358,0.6378882620003594
-3.9115,0.09944543449103843,0.2458126410091644
-3.911,-0.6047861061160158,-0.5277419625680583
-3.9105,-1.298347471865388,-1.152943628472937
-3.91,-1.554431668449771,-1.42845622700729
-3.9095,-1.1062843244271,-0.9728007755850904
-3.909,-0.5300948821122373,-0.2840192792492073
-3.9085,-0.07127736323188383,0.2987958330350016
-3.908,0.2061471830678648,0.6908714540261965
-3.9075,0.3448594562177392,0.9028042221295453
-3.907,0.3875401556484697,0.9875773293708847
-3.9065,0.3875401556484697,0.9875773293708847
-3.906,0.3661998059331045,0.9663840525605498
-3.9055,0.3448594562177392,0.92399749893988
-3.905,0.3341892813600565,0.8710143069140429
-3.9045,0.3021787567870086,0.7862411996727035
-3.904,-0.1032878878049318,0.2987958330350016
-3.9035,-0.754168554123573,-0.5277419625680583
-3.903,-1.138294849000148,-1.301296566145281
-3.9025,-1.26633694729234,-1.735758740757146
-3.902,-1.298347471865388,-1.396666311791788
-3.9015,-0.9675720512772257,-0.7820612842920766
-3.901,-0.3487019095316325,-0.2734226408440398
-3.9005,0.142126133921769,0.002089957690313421
-3.9,0.3982103305061524,0.1080563417419877
-3.8995,0.4942419042252961,0.04447651131098315
-3.899,0.5049120790829789,-0.07208651114585861
-3.8985,0.5155822539406614,-0.08268314955102604
-3.898,0.4942419042252961,-0.02969995752518888
-3.8975,0.4302208550792003,-0.02969995752518888
-3.897,0.3875401556484697,-0.02969995752518888
-3.8965,0.3448594562177392,-0.008506680714854012
-3.896,0.3661998059331045,0.08686306493165288
-3.8955,0.6969752265212663,0.55311515475902
-3.895,0.3661998059331045,0.5743084315693548
-3.8945,-0.4767440078238243,-0.1568596183871981
-3.894,-1.234326422719292,-0.8456411147230812
-3.8935,-1.67180359188428,-1.290699927740113
-3.893,-1.30901764672307,-1.004590690800593
-3.8925,-0.7008176798351597,-0.3475991096802118
-3.892,-0.1886492866663929,0.2670059178194992
-3.8915,0.1527963087794516,0.7226613692416989
-3.891,0.3235191065023739,0.9769806909657173
-3.8905,0.3875401556484697,1.093543713422559
-3.89,0.3982103305061524,1.125333628638062
-3.8895,0.3768699807907871,1.093543713422559
-3.889,0.3555296310754218,1.061753798207057
-3.8885,0.3448594562177392,1.00877060618122
-3.888,0.3448594562177392,0.9451907757502149
-3.8875,0.142126133921769,0.6908714540261965
-3.887,-0.4767440078238243,-0.07208651114585861
