Class_3_Grab_w_two_Hands/Class_3_Grab_w_two_Hands_Zakour_11.csv

#Digilent WaveForms Oscilloscope Acquisition
#Device Name: EExplorer
#Serial Number: SN:210151A2B84A
#Date Time: 2021-02-07 16:04:45.581
#Sample rate: 2000Hz
#Samples: 16384
#Trigger: Source: Channel 1 Type: Edge Condition: Rising Level: 0 V Hyst.: Auto HoldOff: 0 s
#Channel 1: Range: 1 V/div Offset: 0 V Attenuation: 1 X
#Channel 2: Range: 1 V/div Offset: 0 V Attenuation: 1 X
#Power Supplies: ON
#Fixed Supply: ON
#Voltage: 3.3 V Readback: 3.302 V
#Positive Supply: ON
#Voltage: 3.7 V Readback: 3.717 V
#Current: 40 mA Readback: 7 mA
#Negative Supply: ON
#Voltage: -3.7 V Readback: -3.712 V
#Current: -40 mA Readback: -6 mA
#Reference 1: ON
#Voltage: 0 V
#Reference 2: ON
#Voltage: 0 V

Time (s),Channel 1 (V),Channel 2 (V)
-4.096,-1.1062843244271,-1.439052865412457
-4.0955,-0.3273615598169757,-1.046977244421619
-4.095,0.3021787567873094,-0.5065486857571837
-4.0945,0.6329541773751706,0.08686306493165288
-4.094,0.6756348768058622,0.5743084315689115
-4.0935,0.5155822539404479,0.8498210301037659
-4.093,0.2808384070716433,0.9134008605347127
-4.0925,0.1848068333525869,0.7650479228625034
-4.092,0.1741366584947393,0.5319218779485502
-4.0915,0.08877525963335578,0.383568940276341
-4.091,-0.01792648894347063,0.2670059178194992
-4.0905,-0.1032878878050094,0.1398462569573937
-4.09,-0.1886492866663929,0.03387987290581572
-4.0895,-0.7648387289812555,0.3517790250608387
-4.089,-1.501080794160688,0.8710143069135706
-4.0885,-1.895877263895616,0.6378882620003594
-4.088,-2.045259711903173,-0.08268314955102604
-4.0875,-1.650463242169274,-0.02969995752523707
-4.087,-1.084943974711308,0.1610395337678153
-4.0865,-0.6154562809736985,0.1504428953626575
-4.086,-0.3166913849588563,0.07626642652655291
-4.0855,-0.1673089369509791,0.01268659609547122
-4.085,-0.1139580626626144,0.002089957690313421
-4.0845,-0.1139580626626144,0.03387987290578681
-4.084,-0.1352984123779991,0.09745970333689742
-4.0835,-0.156638762093345,0.1822328105781598
-4.083,-0.1673089369510276,0.2564092794143318
-4.0825,-0.1779791118087102,0.330585748250552
-4.082,-0.1779791118087102,0.383568940276341
-4.0815,-0.3166913849585846,0.2881991946298341
-4.081,-0.9675720512766337,-0.3581957480847914
-4.0805,-1.415719395299897,-1.110557074852267
-4.08,-1.586442193022819,-1.650985633515806
-4.0795,-1.266336947292631,-1.87351504002412
-4.079,-0.4554036581078087,-1.640388995110186
-4.0785,0.2594980573562781,-1.142346990067769
-4.078,0.6756348768055226,-0.5701285161892484
-4.0775,0.7823366253826014,0.02328323450105306
-4.077,0.6436243522328531,0.4683420475176805
-4.0765,0.3982103305063756,0.6908714540259941
-4.076,0.2168173579256445,0.6908714540261387
-4.0755,0.3235191065023739,0.627291623595192
-4.075,0.2808384070716433,0.4895353243280153
-4.0745,0.1527963087793255,0.2776025562244739
-4.074,0.01408403562957729,0.06566978812131802
-4.0735,-0.07127736323188383,-0.1250697031716958
-4.073,-0.2633405106699967,-0.09327978795622238
-4.0725,-0.8822106524157645,0.4153588554918433
-4.072,-1.458400094730627,0.383568940276341
-4.0715,-1.746494815887797,-0.3264058328692313
-4.071,-1.554431668449334,-0.3475991096799131
-4.0705,-1.074273799854052,-0.01910331912002144
-4.07,-0.6367966306894617,0.1292496185521877
-4.0695,-0.3380317346738043,0.1716361721729923
-4.069,-0.1779791118087102,0.1716361721729923
-4.0685,-0.1139580626626144,0.1822328105781598
-4.068,-0.1032878878049415,0.2140227257937103
-4.0675,-0.1139580626626144,0.2670059178194992
-4.067,-0.1352984123779797,0.3411823866556712
-4.0665,-0.145968587235672,0.4047622170867337
-4.066,-0.156638762093345,0.4683420475176805
-4.0655,-0.156638762093345,0.5001319627331828
-4.065,-0.1673089369510179,0.5213252395434983
-4.0645,-0.4660738329661415,0.1716361721729923
-4.064,-0.9995825758502737,-0.5913217929990628
-4.0635,-1.383708870726499,-1.311893204549793
-4.063,-1.47974044444542,-1.735758740757088
-4.0625,-0.8502001278427167,-1.672178910326141
-4.062,-0.07127736323259226,-1.322489842955934
-4.0615,0.504912079083202,-0.877431029938092
-4.061,0.7503261008096795,-0.3370024712750445
-4.0605,0.707645401378949,0.1610395337678249
-4.06,0.4942419042250729,0.4683420475177769
-4.0595,0.2488278824985954,0.5743084315693548
-4.059,0.1634664836371343,0.5955017083796896
-4.0585,0.1101156093487696,0.5001319627332695
-4.058,0.04609456020262521,0.3305857482505039
-4.0575,-0.01792648894347063,0.1610395337678249
-4.057,-0.04993701351648944,0.03387987290593139
-4.0565,0.00341386077189465,-0.02969995752518888
-4.056,0.2808384070716433,0.3517790250608387
-4.0555,-0.156638762092947,0.9134008605342019
-4.055,-0.8395299529853348,0.6908714540258111
-4.0545,-1.170305373573196,0.2670059178194992
-4.054,-1.010252750708102,0.3093924714401304
-4.0535,-0.7008176798349172,0.2670059178193932
-4.053,-0.4340633083930936,0.1504428953626575
-4.0525,-0.2526703358124887,0.06566978812131802
-4.052,-0.1566387620933061,0.04447651131103134
-4.0515,-0.1139580626626144,0.09745970333682032
-4.051,-0.1139580626626144,0.1716361721729923
-4.0505,-0.1246282375202873,0.2776025562245703
-4.05,-0.1352984123779797,0.383568940276341
-4.0495,-0.1459685872356623,0.4789386859228479
-4.049,-0.1566387620933352,0.5531151547589525
-4.0485,-0.1459685872358661,0.5849050699742909
-4.048,-0.3700422592469978,0.3305857482505039
-4.0475,-0.9248913518459905,-0.4111789401105418
-4.047,-1.298347471865591,-1.142346990068232
-4.0465,-1.522421143876723,-1.650985633515806
-4.046,-1.052933450139114,-1.788741932782858
-4.0455,-0.2420001609542141,-1.492036057437842
-4.045,0.408880505363835,-0.9939940523954253
-4.0445,0.7503261008096795,-0.4111789401112165
-4.044,0.7716664505248895,0.1292496185526214
-4.0435,0.6009436528021226,0.457745409112513
-4.043,0.3448594562177392,0.6060983467848571
-4.0425,0.216817357925664,0.5743084315693837
-4.042,0.1954770082101822,0.4789386859228479
-4.0415,0.1207857842064037,0.3305857482505039
-4.041,0.03542438534502021,0.1610395337679791
-4.0405,-0.0285966638012018,0.00208995769019777
-4.04,-0.08194753808956648,-0.1250697031716958
-4.0395,-0.5727755815425216,0.1504428953624069
-4.039,-1.27700712215041,0.5849050699741077
-4.0385,-1.703814116457328,0.1292496185523226
-4.038,-1.757164990745693,-0.4959520473519873
-4.0375,-1.351698346153345,-0.2734226408437603
-4.037,-0.8502001278427167,0.03387987290581572
-4.0365,-0.4554036581084589,0.1610395337678249
-4.036,-0.2206598112393438,0.1928294489833368
-4.0355,-0.1139580626626144,0.2034260873884947
-4.035,-0.08194753808956648,0.2246193641988295
-4.0345,-0.08194753808956648,0.2564092794143029
-4.034,-0.1032878878049318,0.2987958330350016
-4.0335,-0.124628237520297,0.3517790250608387
-4.033,-0.13529841237797,0.3941655786814698
-4.0325,-0.1459685872356526,0.4365521323021878
-4.032,-0.1352984123779797,0.4471487707073456
-4.0315,-0.2206598112393632,0.3305857482506099
-4.031,-0.7114878546931528,-0.3370024712757577
-4.0305,-1.052933450138687,-1.121153713257435
-4.03,-1.298347471865164,-1.703968825541113
-4.0295,-1.1489650238572,-1.937094870455124
-4.029,-0.4554036581084589,-1.714565463946811
-4.0285,0.2274875327832301,-1.227120097309109
-4.028,0.6436243522329695,-0.6654982618347144
-4.0275,0.7716664505250448,-0.09327978795619347
-4.027,0.6649647019482183,0.3411823866556712
-4.0265,0.4302208550794138,0.5319218779485115
-4.026,0.2488278824985954,0.4789386859228479
-4.0255,0.3021787567870086,0.2140227257936621
-4.025,0.238157707640971,0.08686306493176854
-4.0245,0.1101156093486337,0.02328323450060974
-4.024,0.01408403562957729,-0.01910331912002144
-4.0235,-0.06060718837413325,-0.07208651114581041
-4.023,-0.4233931335359739,0.1610395337682104
-4.0225,-1.042263275281004,0.5849050699745222
-4.022,-1.42638957015723,0.1504428953630526
-4.0215,-1.661133417026394,-0.665498261835177
-4.021,-1.437059745015262,-0.6019184314042303
-4.0205,-0.9782422261349084,-0.1250697031716958
-4.02,-0.5621054066850329,0.1292496185524094
-4.0195,-0.2846808603855366,0.2246193641988295
-4.019,-0.1352984123779797,0.2352160026039969
-4.0185,-0.07127736323194206,0.2352160026039969
-4.018,-0.07127736323188383,0.2352160026039969
-4.0175,-0.08194753808956648,0.2564092794143318
-4.017,-0.1032878878049124,0.298795833034963
-4.0165,-0.1139580626626241,0.3305857482505328
-4.016,-0.124628237520297,0.3623756634660061
-4.0155,-0.124628237520297,0.3729723018711639
-4.015,-0.1246282375206464,0.3729723018707785
-4.0145,-0.5087545323968721,-0.06148987274069118
-4.014,-1.074273799853538,-0.8562377531275258
-4.0135,-1.319687821580704,-1.545019249464373
-4.013,-1.26633694729234,-1.809935209593318
-4.0125,-0.6154562809736985,-1.640388995110639
-4.012,0.1101156093491675,-1.195330182093077
-4.0115,0.6009436528021226,-0.6125150698093976
-4.011,0.7823366253827275,-0.04029659593035631
-4.0105,0.7289857510943628,0.3835689402759555
-4.01,0.5262524287983441,0.5849050699745222
-4.0095,0.3021787567870086,0.5955017083796896
-4.009,0.2168173579256251,0.5425185163539007
-4.0085,0.1421261339216913,0.4153588554917084
-4.008,0.05676473506030786,0.2670059178194992
-4.0075,0.003413860771943174,0.1186529801472901
-4.007,-0.03926683865893296,-0.00850668071486365
-4.0065,-0.1459685872356623,-0.01910331912002144
-4.006,-0.7968492535543035,0.4683420475176805
-4.0055,-1.447729919873177,0.9134008605342309
-4.005,-1.703814116457328,0.383568940276341
-4.0045,-1.618452717595867,-0.07208651114585861
-4.004,-1.170305373572769,0.07626642652658183
-4.0035,-0.7008176798351597,0.1822328105781598
-4.003,-0.3593720843893152,0.1822328105781598
-4.0025,-0.1566387620935293,0.171636172173002
-4.002,-0.07127736323188383,0.1716361721729923
-4.0015,-0.04993701351651855,0.2140227257936621
-4.001,-0.06060718837419149,0.2776025562246088
-4.0005,-0.08194753808957618,0.3517790250609158
-4,-0.09261771294724913,0.4365521323021782
-3.9995,-0.1032878878049318,0.5107286011383502
-3.999,-0.1032878878049318,0.55311515475902
-3.9985,-0.1032878878049318,0.5425185163538525
-3.998,-0.3166913849585846,0.2881991946298341
-3.9975,-0.9142211769888124,-0.4429688553267188
-3.997,-1.191645723288561,-1.163540266878104
-3.9965,-1.30901764672307,-1.703968825541643
-3.996,-0.8822106524157645,-1.937094870455327
-3.9955,-0.1139580626626144,-1.767548655972648
-3.995,0.5049120790829789,-1.364876396576285
-3.9945,0.8143471499557753,-0.792657922697244
-3.994,0.825017324813458,-0.1568596183871981
-3.9935,0.6436243522328531,0.2987958330350016
-3.993,0.3768699807907871,0.5107286011383502
-3.9925,0.2381577076409128,0.5213252395435176
-3.992,0.2274875327832301,0.4683420475176805
-3.9915,0.1527963087794516,0.3305857482505039
-3.991,0.0674349099179905,0.1716361721729923
-3.9905,0.00341386077189465,0.01268659609548085
-3.99,-0.03926683865883591,-0.1144730647665284
-3.9895,0.1207857842064037,0.07626642652648545
-3.989,-0.156638762093345,0.6802748156210291
-3.9885,-0.7968492535543035,0.7968378380778709
-3.988,-1.127624674142465,0.2140227257936621
-3.9875,-0.9995825758502737,0.1610395337678249
-3.987,-0.690147504977477,0.1716361721729923
-3.9865,-0.4020527838200457,0.13984625695749
-3.986,-0.2099896363817582,0.09745970333682032
-3.9855,-0.1032878878049318,0.1080563417419877
-3.985,-0.07127736323188383,0.13984625695749
-3.9845,-0.06060718837420119,0.2140227257936621
-3.984,-0.07127736323188383,0.2987958330350016
-3.9835,-0.08194753808956648,0.3941655786815084
-3.983,-0.09261771294724913,0.4683420475176805
-3.9825,-0.09261771294724913,0.5319218779486851
-3.982,-0.09261771294724913,0.55311515475902
-3.9815,-0.1779791118087102,0.4683420475176805
-3.981,-0.7434983792658902,-0.1674562567923655
-3.9805,-1.277007122150022,-0.9622041371799229
-3.98,-1.447729919872945,-1.481439419033127
-3.9795,-0.9995825758502737,-1.333086481360783
-3.979,-0.2526703358124887,-0.9728007755850904
-3.9785,0.3768699807907871,-0.570128516188728
-3.978,0.7183155762366316,-0.1356663415768632
-3.9775,0.79300680024041,0.2776025562246667
-3.977,0.6649647019482183,0.5425185163538525
-3.9765,0.4195506802215176,0.6378882620003594
-3.976,0.2274875327832301,0.5955017083796896
-3.9755,0.2168173579255475,0.4259554938970107
-3.975,0.1741366584948169,0.2670059178194992
-3.9745,0.09944543449103843,0.1080563417419877
-3.974,0.05676473506030786,-0.04029659593035631
-3.9735,0.01408403562957729,-0.1674562567923655
-3.973,-0.07127736323188383,-0.1250697031716958
-3.9725,-0.6047861061160158,0.4047622170866759
-3.972,-1.255666772434657,0.7862411996727035
-3.9715,-1.661133417026597,0.2564092794143318
-3.971,-1.479740444445993,0.08686306493165288
-3.9705,-1.020922925565639,0.2458126410091644
-3.97,-0.572775581542968,0.2564092794143318
-3.9695,-0.274010685527854,0.1716361721729923
-3.969,-0.1032878878049318,0.1186529801471552
-3.9685,-0.03926683865883591,0.1186529801471552
-3.968,-0.02859666380115328,0.1610395337678249
-3.9675,-0.03926683865883591,0.2458126410091644
-3.967,-0.06060718837420119,0.3411823866556712
-3.9665,-0.07127736323188383,0.4471487707073456
-3.966,-0.08194753808956648,0.5319218779486851
-3.9655,-0.08194753808956648,0.5849050699745222
-3.965,-0.09261771294724913,0.55311515475902
-3.9645,-0.4767440078238243,0.04447651131098315
-3.964,-0.9675720512772257,-0.7396747306714069
-3.9635,-1.319687821580753,-1.38606967338662
-3.963,-1.437059745015262,-1.778145294377815
-3.9625,-0.7434983792658902,-1.598002441489969
-3.962,0.05676473506030786,-0.9728007755850904
-3.9615,0.6222840025174878,-0.3158091944647096
-3.961,0.8676980242441885,0.2034260873884947
-3.9605,0.8463576745288233,0.5001319627331828
-3.96,0.6436243522328531,0.5955017083796896
-3.9595,0.3875401556484697,0.5849050699745222
-3.959,0.3128489316446912,0.6166949851900245
-3.9585,0.2381577076409128,0.5107286011383502
-3.958,0.1314559590640864,0.2987958330350016
-3.9575,0.04609456020262521,0.06566978812131802
-3.957,-0.01792648894347063,-0.1250697031716958
-3.9565,-0.124628237520297,-0.1886495336027004
-3.956,-0.7328282044082075,0.2564092794143318
-3.9555,-1.458400094730627,0.55311515475902
-3.955,-1.970568487899394,-0.08268314955102604
-3.9545,-2.087940411333903,-0.4641621321370536
-3.954,-1.575772018165136,0.002089957690313421
-3.9535,-0.9569018764195432,0.3941655786815084
-3.953,-0.4767440078238243,0.4789386859228479
-3.9525,-0.1779791118087102,0.4259554938970107
-3.952,-0.03926683865883591,0.3623756634660061
-3.9515,0.00341386077189465,0.3411823866556712
-3.951,0.00341386077189465,0.3517790250608387
-3.9505,-0.01792648894347063,0.3941655786815084
-3.95,-0.03926683865883591,0.4471487707073456
-3.9495,-0.06060718837420119,0.4895353243280153
-3.949,-0.06060718837420119,0.5213252395435176
-3.9485,-0.06060718837420119,0.5001319627331828
-3.948,-0.274010685527854,0.2034260873884947
-3.9475,-0.839529952985034,-0.5489352393783931
-3.947,-1.26633694729234,-1.301296566145281
-3.9465,-1.543761493592088,-1.809935209593318
-3.946,-1.191645723288561,-1.682775548731308
-3.9455,-0.3807124341046804,-1.110557074852267
-3.945,0.3128489316446912,-0.474758770542221
-3.9445,0.7183155762366316,0.04447651131098315
-3.944,0.8143471499557753,0.4047622170866759
-3.9435,0.6863050516635838,0.5637117931641874
-3.943,0.4515612047945656,0.5743084315693548
-3.9425,0.3341892813600565,0.5107286011383502
-3.942,0.3661998059331045,0.309392471440169
-3.9415,0.2808384070716433,0.09745970333682032
-3.941,0.1848068333524996,-0.08268314955102604
-3.9405,0.09944543449103843,-0.2204394488182027
-3.94,0.02475421048725994,-0.2840192792492073
-3.9395,-0.4554036581084589,0.08686306493165288
-3.939,-1.255666772434657,0.627291623595192
-3.9385,-1.906547438753298,0.2670059178194992
-3.938,-2.322684258202921,-0.1992461720078678
-3.9375,-1.970568487899394,0.03387987290581572
-3.937,-1.287677297007705,0.2140227257936621
-3.9365,-0.6794773301197943,0.2246193641988295
-3.936,-0.274010685527854,0.1822328105781598
-3.9355,-0.06060718837420119,0.1716361721729923
-3.935,0.01408403562957729,0.2140227257936621
-3.9345,0.02475421048725994,0.2776025562246667
-3.934,0.01408403562957729,0.3729723018711736
-3.9335,-0.01792648894347063,0.4789386859228479
-3.933,-0.03926683865883591,0.5743084315693548
-3.9325,-0.03926683865883591,0.6484849004055269
-3.932,-0.04993701351651855,0.6802748156210291
-3.9315,-0.1139580626626144,0.6060983467848571
-3.931,-0.722158029550525,0.02328323450064829
-3.9305,-1.362368521011484,-0.7820612842920766
-3.93,-1.693143941599645,-1.42845622700729
-3.9295,-1.597112367880501,-1.75695201756748
-3.929,-0.722158029550525,-1.42845622700729
-3.9285,0.142126133921769,-0.7608680074817418
-3.928,0.6969752265212663,-0.1674562567923655
-3.9275,0.9103787236749192,0.2670059178194992
-3.927,0.8463576745288233,0.4789386859228479
-3.9265,0.6329541773751706,0.5213252395435176
-3.926,0.3982103305061524,0.4895353243280153
-3.9255,0.2808384070716433,0.4365521323021782
-3.925,0.1848068333524996,0.2881991946298341
-3.9245,0.09944543449103843,0.07626642652648545
-3.924,0.04609456020262521,-0.1038764263613609
-3.9235,0.01408403562957729,-0.2416327256285375
-3.923,-0.156638762093345,-0.1568596183871981
-3.9225,-0.7434983792658902,0.3199891098453364
-3.922,-1.159635198715513,0.04447651131098315
-3.9215,-1.490410619303675,-0.7502713690765743
-3.921,-1.437059745015262,-0.7290780922662394
-3.9205,-1.010252750707956,-0.1144730647665284
-3.92,-0.572775581542968,0.2776025562246667
-3.9195,-0.2526703358124887,0.4365521323021782
-3.919,-0.08194753808956648,0.4789386859228479
-3.9185,0.00341386077189465,0.4789386859228479
-3.918,0.01408403562957729,0.4789386859228479
-3.9175,0.00341386077189465,0.4895353243280153
-3.917,-0.007256314085787988,0.5001319627331828
-3.9165,-0.02859666380115328,0.5213252395435176
-3.916,-0.02859666380115328,0.5319218779486851
-3.9155,-0.02859666380115328,0.5107286011383502
-3.915,-0.03926683865883591,0.457745409112513
-3.9145,-0.3166913849585846,0.05507314971615059
-3.914,-0.6367966306890638,-0.7714646458869092
-3.9135,-0.807519428411986,-1.51322933424863
-3.913,-0.9995825758502737,-2.000674700886331
-3.9125,-0.5514352318276028,-1.820531847998485
-3.912,0.1207857842064037,-1.269506650929778
-3.9115,0.6222840025174878,-0.6337083466197325
-3.911,0.857027849386506,-0.07208651114585861
-3.9105,0.8356874996711408,0.309392471440169
-3.91,0.6436243522328531,0.5001319627331828
-3.9095,0.3982103305061524,0.5319218779486851
-3.909,0.3341892813600565,0.6060983467848571
-3.9085,0.3128489316446912,0.5213252395435176
-3.908,0.2274875327832301,0.2987958330350016
-3.9075,0.1314559590640864,0.06566978812131802
-3.907,0.05676473506030786,-0.1356663415768632
-3.9065,-0.01792648894347063,-0.1886495336027004
-3.906,-0.4447334832507763,0.2458126410091644
-3.9055,-1.202315898146244,0.7968378380778709
-3.905,-1.863866739322568,0.5001319627331828
-3.9045,-2.19464215991073,0.06566978812131802
-3.904,-1.778505340461106,0.2881991946298341
-3.9035,-1.116954499284783,0.4153588554918433
-3.903,-0.5621054066852853,0.3517790250608387
-3.9025,-0.1993194615240755,0.2670059178194992
-3.902,-0.01792648894347063,0.2246193641988295
-3.9015,0.04609456020262521,0.2564092794143318
-3.901,0.04609456020262521,0.3411823866556712
-3.9005,0.03542438534494258,0.4471487707073456
-3.9,0.00341386077189465,0.55311515475902
-3.8995,-0.007256314085787988,0.6484849004055269
-3.899,-0.01792648894347063,0.7226613692416989
-3.8985,-0.01792648894347063,0.7544512844572011
-3.898,-0.2206598112394408,0.5001319627331828
-3.8975,-0.7755089038389382,-0.2416327256285375
-3.897,-1.127624674142465,-0.9728007755850904
-3.8965,-1.479740444445993,-1.523825972653797
-3.896,-1.26633694729234,-1.693372187136476
-3.8955,-0.4447334832507763,-1.269506650929778
-3.895,0.3021787567870086,-0.6549016234300674
-3.8945,0.7503261008096795,-0.07208651114585861
-3.894,0.8890383739595538,0.3411823866556712
-3.8935,0.79300680024041,0.5319218779486851
-3.893,0.5689331282290746,0.55311515475902
-3.8925,0.4408910299368829,0.55311515475902
-3.892,0.4835717293676135,0.5001319627331828
-3.8915,0.3875401556484697,0.2881991946298341
-3.891,0.2488278824985954,0.01268659609548085
-3.8905,0.1314559590640864,-0.2310360872233701
-3.89,0.03542438534494258,-0.3687923864905467
-3.8895,-0.4767440078238243,-0.01910331912002144
-3.889,-1.319687821580753,0.4365521323021782
-3.8885,-1.981238662757077,-0.05089323433552374
