Class_3_Grab_w_two_Hands/Class_3_Grab_with_two_hands_Basim_11.csv

#Digilent WaveForms Oscilloscope Acquisition
#Device Name: EExplorer
#Serial Number: SN:210151A2B84A
#Date Time: 2021-02-04 10:54:03.936
#Sample rate: 2000Hz
#Samples: 16384
#Trigger: Source: Channel 1 Type: Edge Condition: Rising Level: 0 V Hyst.: Auto HoldOff: 0 s
#Channel 1: Range: 1 V/div Offset: 0 V Attenuation: 1 X
#Channel 2: Range: 1 V/div Offset: 0 V Attenuation: 1 X
#Power Supplies: ON
#Fixed Supply: ON
#Voltage: 3.3 V Readback: 3.33 V
#Positive Supply: ON
#Voltage: 3.7 V Readback: 3.712 V
#Current: 40 mA Readback: 18 mA
#Negative Supply: ON
#Voltage: -3.7 V Readback: -3.343 V
#Current: -40 mA Readback: -8 mA
#Reference 1: ON
#Voltage: 0 V
#Reference 2: ON
#Voltage: 0 V

Time (s),Channel 1 (V),Channel 2 (V)
-4.096,0.1954770082101822,0.3517790250608387
-4.0955,0.1741366584948363,0.3199891098453653
-4.095,0.1741366584948072,0.2987958330349823
-4.0945,0.1634664836371343,0.2776025562246667
-4.094,0.06743490991807785,0.1292496185524575
-4.0935,-0.5407650569706285,-0.4959520473532016
-4.093,-1.319687821580753,-1.205926820498774
-4.0925,-1.693143941599306,-1.502632695843192
-4.092,-1.202315898145662,-1.12115371325701
-4.0915,-0.5621054066852853,-0.6549016234300674
-4.091,-0.07127736323188383,-0.2310360872233701
-4.0905,0.2061471830679716,0.05507314971630479
-4.09,0.3235191065023739,0.2246193641988295
-4.0895,0.3448594562177392,0.2246193641988295
-4.089,0.3235191065023933,0.1610395337678828
-4.0885,0.4195506802215176,0.3305857482505039
-4.088,0.4408910299368829,0.4259554938970107
-4.0875,0.3875401556485182,0.3941655786815373
-4.087,0.355529631075383,0.3623756634659483
-4.0865,0.3128489316446912,0.2987958330350016
-4.086,0.3021787567870183,0.2776025562246859
-4.0855,0.08877525963276381,0.5425185163536116
-4.085,-0.5621054066852853,0.2776025562246667
-4.0845,-1.298347471864718,-0.517145324162168
-4.084,-1.906547438753123,-1.078767159636553
-4.0835,-1.714484291315011,-0.8456411147230812
-4.083,-1.06360362499637,-0.4323722169215513
-4.0825,-0.4767440078234555,-0.07208651114563694
-4.082,-0.07127736323188383,0.1716361721729923
-4.0815,0.1527963087794516,0.3199891098453364
-4.081,0.248827882498508,0.394165578681441
-4.0805,0.2594980573562781,0.4365521323021782
-4.08,0.2488278824985954,0.4471487707073456
-4.0795,0.2168173579255766,0.4577454091125034
-4.079,0.1954770082101725,0.457745409112513
-4.0785,0.1848068333524996,0.457745409112513
-4.078,0.1741366584948266,0.4471487707073553
-4.0775,0.1741366584946325,0.4153588554914578
-4.077,-0.02859666380115328,-0.008506680714854012
-4.0765,-0.4554036581080707,-0.7396747306707419
-4.076,-0.732828204407994,-1.386069673386842
-4.0755,-0.4980843575391895,-1.629792356705471
-4.075,-0.124628237520297,-1.205926820498774
-4.0745,0.1421261339218951,-0.6019184314037677
-4.074,0.2808384070716433,-0.09327978795619347
-4.0735,0.3235191065023739,0.1928294489833272
-4.073,0.312848931644701,0.2881991946297474
-4.0725,0.291508581929326,0.2881991946298341
-4.072,0.3235191065023739,0.2987958330350016
-4.0715,0.3448594562177197,0.2564092794143703
-4.071,0.3235191065023544,0.2140227257936235
-4.0705,0.3021787567870086,0.1716361721729923
-4.07,0.2594980573563169,0.1080563417420456
-4.0695,0.2381577076408448,0.06566978812126019
-4.069,0.1634664836371343,0.002089957690313421
-4.0685,-0.423393133535411,-0.4535654937318862
-4.068,-1.138294849000332,-1.121153713257714
-4.0675,-1.341028171296118,-1.42845622700729
-4.067,-0.9889124009925911,-1.078767159636765
-4.0665,-0.5194247072542152,-0.559531877783175
-4.066,-0.1459685872356623,-0.1356663415768632
-4.0655,0.08877525963335578,0.13984625695749
-4.065,0.2061471830677581,0.2776025562245414
-4.0645,0.2381577076409128,0.3305857482505039
-4.064,0.2381577076409128,0.3411823866556712
-4.0635,0.2274875327832398,0.3305857482505135
-4.063,0.2061471830678454,0.3093924714401497
-4.0625,0.1848068333524996,0.2881991946298341
-4.062,0.1848068333524996,0.2776025562246763
-4.0615,0.1741366584948169,0.2776025562246667
-4.061,0.1741366584948169,0.2776025562246667
-4.0605,0.1207857842064037,0.06566978812131802
-4.06,-0.1139580626630899,-0.5489352393790099
-4.0595,-0.6367966306890638,-1.227120097309109
-4.059,-0.8715404775580819,-1.725162102351978
-4.0585,-0.519424707254875,-1.534422611059138
-4.058,-0.1352984123779797,-0.9304142219644207
-4.0575,0.1314559590640864,-0.3052125560595421
-4.057,0.2594980573561616,0.1398462569570852
-4.0565,0.3021787567870086,0.3623756634660061
-4.056,0.3021787567870086,0.4471487707073456
-4.0555,0.3448594562177004,0.4153588554918722
-4.055,0.4942419042252961,0.2564092794143221
-4.0545,0.4942419042252961,0.2458126410091644
-4.054,0.4088805053639126,0.2881991946297956
-4.0535,0.3235191065023156,0.2987958330350016
-4.053,0.2594980573562781,0.2987958330350016
-4.0525,0.2274875327832301,0.2987958330350016
-4.052,0.09944543449041734,0.5213252395431514
-4.0515,-0.5834457564006506,0.1186529801471552
-4.051,-1.212986073003927,-0.5807251545938954
-4.0505,-1.533091318734115,-0.4853554089474752
-4.05,-1.244996597576974,-0.1886495336027004
-4.0495,-0.722158029550525,-0.05089323433552374
-4.049,-0.2633405106705887,-0.008506680714892564
-4.0485,0.03542438534507844,0.002089957690313421
-4.048,0.1848068333524996,0.002089957690313421
-4.0475,0.2488278824985372,0.01268659609547122
-4.047,0.2488278824985857,0.03387987290585427
-4.0465,0.2381577076409128,0.07626642652648545
-4.046,0.2168173579255669,0.1292496185522744
-4.0455,0.1954770082101725,0.1928294489833754
-4.045,0.1848068333524996,0.2458126410091644
-4.0445,0.1848068333524996,0.309392471440169
-4.044,0.1207857842060932,0.2458126410087114
-4.0435,-0.2206598112394408,-0.252229364033705
-4.043,-0.5407650569699201,-0.8032545611024114
-4.0425,-0.72215802955036,-1.227120097308724
-4.042,-0.4874141826815069,-1.046977244421262
-4.0415,-0.1459685872356623,-0.474758770542221
-4.041,0.1101156093484882,0.0338798729053531
-4.0405,0.2488278824986439,0.3835689402765242
-4.04,0.3021787567870086,0.5849050699745222
-4.0395,0.3021787567870086,0.6378882620003112
-4.039,0.3021787567871057,0.6378882620004269
-4.0385,0.408880505363835,0.7120647308365314
-4.038,0.4195506802215079,0.6696781772159002
-4.0375,0.3768699807907289,0.5531151547588947
-4.037,0.3128489316446912,0.4153588554918433
-4.0365,0.2701682322139607,0.2881991946298341
-4.036,0.2488278824983625,0.214022725793797
-4.0355,-0.007256314085787988,0.3623756634660061
-4.035,-0.7114878546928423,0.07626642652648545
-4.0345,-1.298347471864854,-0.623111708213929
-4.034,-1.212986073003927,-0.9304142219644207
-4.0335,-0.7755089038389382,-0.7290780922662394
-4.033,-0.3380317346743478,-0.4005823017063478
-4.0325,-0.01792648894331535,-0.1144730647663645
-4.032,0.1527963087794516,0.06566978812131802
-4.0315,0.2381577076408351,0.171636172172896
-4.031,0.2488278824985857,0.2140227257936717
-4.0305,0.2381577076409128,0.2246193641988295
-4.03,0.2168173579255669,0.2246193641988295
-4.0295,0.2061471830678551,0.2246193641988391
-4.029,0.1954770082101822,0.2352160026039969
-4.0285,0.1848068333524996,0.2458126410091644
-4.028,0.1848068333524607,0.2564092794142643
-4.0275,0.142126133921769,0.1822328105781598
-4.027,-0.2313299860971235,-0.3581957480853793
-4.0265,-0.5834457564003304,-0.9939940523948469
-4.026,-0.722158029550525,-1.439052865412457
-4.0255,-0.5407650569699201,-1.216523458903942
-4.025,-0.1993194615243861,-0.6972881770512095
-4.0245,0.07810508477582841,-0.1780528951971667
-4.024,0.2488278824985954,0.2246193641988295
-4.0235,0.312848931644633,0.4471487707071432
-4.023,0.3235191065023544,0.5107286011383213
-4.0225,0.3021787567870086,0.4789386859228479
-4.022,0.3875401556483921,0.5425185163537947
-4.0215,0.4408910299368441,0.616694985189957
-4.021,0.3982103305061524,0.5425185163538525
-4.0205,0.3235191065023739,0.4047622170866759
-4.02,0.2701682322139316,0.2881991946297667
-4.0195,0.2381577076409128,0.2140227257936621
-4.019,0.05676473506030786,0.3729723018711736
-4.0185,-0.6154562809730871,0.4895353243279093
-4.018,-1.362368521011484,-0.1568596183871981
-4.0175,-1.565101843307454,-0.7396747306714069
-4.017,-1.138294849000536,-0.6972881770507757
-4.0165,-0.5941159312579452,-0.4005823017057695
-4.016,-0.1673089369510276,-0.09327978795619347
-4.0155,0.08877525963312288,0.139846256957278
-4.015,0.2168173579255863,0.2776025562247341
-4.0145,0.2594980573562781,0.3517790250608387
-4.014,0.2594980573562781,0.3729723018711543
-4.0135,0.2381577076408934,0.383568940276341
-4.013,0.2168173579255475,0.383568940276341
-4.0125,0.2061471830678648,0.3729723018711736
-4.012,0.1954770082101822,0.3729723018711639
-4.0115,0.1954770082101822,0.3623756634660061
-4.011,0.1848068333524996,0.3411823866556712
-4.0105,0.06743490991809725,0.0656697881215686
-4.01,-0.2633405106701714,-0.6019184314042303
-4.0095,-0.6047861061160158,-1.258910012524611
-4.009,-0.2846808603858278,-1.820531847997974
-4.0085,0.4302208550794721,-1.990078062480643
-4.008,0.7289857510943143,-1.417859588602123
-4.0075,0.7183155762366412,-0.718481453861708
-4.007,0.5902734779443137,-0.15685961838688
-4.0065,0.4515612047945656,0.1928294489833272
-4.006,0.3448594562177392,0.3517790250608387
-4.0055,0.3021787567870571,0.3941655786815566
-4.005,0.3555296310754218,0.4471487707073456
-4.0045,0.3448594562177392,0.4259554938970107
-4.004,0.3021787567869795,0.3623756634659387
-4.0035,0.2701682322139607,0.2881991946298341
-4.003,0.2381577076409128,0.2352160026039969
-4.0025,0.1741366584948751,0.1504428953627346
-4.002,-0.3593720843893152,-0.3158091944647096
-4.0015,-1.127624674142465,-1.01518732920576
-4.001,-1.597112367880074,-1.481439419032703
-4.0005,-1.906547438753007,-0.8774310299379474
-4,-1.586442193022819,-0.1780528951975329
-3.9995,-0.9355615267041777,0.08686306493165288
-3.999,-0.3807124341046804,0.1186529801471552
-3.9985,-0.007256314085787988,0.07626642652648545
-3.998,0.1848068333524996,0.03387987290581572
-3.9975,0.2594980573562781,0.02328323450064829
-3.997,0.2701682322139607,0.05507314971615059
-3.9965,0.2488278824985954,0.1080563417419877
-3.996,0.2274875327832301,0.1822328105781598
-3.9955,0.2061471830678648,0.2670059178194992
-3.995,0.1954770082101822,0.3517790250608387
-3.9945,0.1954770082101822,0.4153588554918433
-3.994,-0.04993701351651855,0.1928294489833272
-3.9935,-0.6474668055467465,-0.4429688553267188
-3.993,-1.159635198715513,-1.046977244421262
-3.9925,-1.437059745015262,-1.407262950196955
-3.992,-1.031593100423322,-1.184733543688439
-3.9915,-0.4660738329661415,-0.570128516188728
-3.991,-0.02859666380115328,0.03387987290581572
-3.9905,0.2168173579255475,0.457745409112513
-3.99,0.3235191065023739,0.6378882620003594
-3.9895,0.3448594562177392,0.6590815388106942
-3.989,0.3448594562177392,0.6166949851900245
-3.9885,0.4408910299368829,0.457745409112513
-3.988,0.4515612047945656,0.3623756634660061
-3.9875,0.3875401556484697,0.309392471440169
-3.987,0.3235191065023739,0.2564092794143318
-3.9865,0.2701682322139607,0.2034260873884947
-3.986,0.2381577076409128,0.1610395337678249
-3.9855,-0.09261771294724913,0.2564092794143318
-3.985,-0.839529952985034,-0.1886495336027004
-3.9845,-1.458400094730627,-0.8880276683437509
-3.984,-1.362368521011484,-1.089363798041932
-3.9835,-0.8715404775580819,-0.8138511995075789
-3.983,-0.3807124341046804,-0.4641621321370536
-3.9825,-0.02859666380115328,-0.1886495336027004
-3.982,0.1634664836371343,-0.01910331912002144
-3.9815,0.2488278824985954,0.05507314971615059
-3.981,0.2701682322139607,0.07626642652648545
-3.9805,0.2594980573562781,0.07626642652648545
-3.98,0.2274875327832301,0.07626642652648545
-3.9795,0.2168173579255475,0.07626642652648545
-3.979,0.2061471830678648,0.09745970333682032
-3.9785,0.1954770082101822,0.1186529801471552
-3.978,0.1954770082101822,0.1504428953626575
-3.9775,0.1741366584948169,0.09745970333682032
-3.977,-0.007256314085787988,-0.3899856633008816
-3.9765,-0.2313299860971235,-0.9516074987747555
-3.976,-0.3593720843893152,-1.375473034981453
-3.9755,-0.1673089369510276,-1.481439419033127
-3.975,0.09944543449103843,-1.01518732920576
-3.9745,0.2701682322139607,-0.3793890248957141
-3.974,0.3448594562177392,0.1504428953626575
-3.9735,0.3448594562177392,0.5001319627331828
-3.973,0.3235191065023739,0.6590815388106942
-3.9725,0.3021787567870086,0.6802748156210291
-3.972,0.3555296310754218,0.701468092431364
-3.9715,0.4515612047945656,0.7862411996727035
-3.971,0.4302208550792003,0.7226613692416989
-3.9705,0.3661998059331045,0.6060983467848571
-3.97,0.3235191065023739,0.5107286011383502
-3.9695,0.291508581929326,0.4365521323021782
-3.969,0.1314559590640864,0.5001319627331828
-3.9685,-0.5087545323968721,0.3941655786815084
-3.968,-1.042263275281004,-0.326405832869877
-3.9675,-1.362368521011484,-0.7078848154559045
-3.967,-1.597112367880501,-0.1568596183871981
-3.9665,-1.234326422719292,0.1716361721729923
-3.966,-0.6794773301197943,0.1610395337678249
-3.9655,-0.2313299860971235,0.05507314971615059
-3.965,0.0674349099179905,-0.05089323433552374
-3.9645,0.2168173579255475,-0.09327978795619347
-3.964,0.2701682322139607,-0.08268314955102604
-3.9635,0.2701682322139607,-0.04029659593035631
-3.963,0.2488278824985954,0.04447651131098315
-3.9625,0.2274875327832301,0.1292496185523226
-3.962,0.2168173579255475,0.2352160026039969
-3.9615,0.2061471830678648,0.3305857482505039
-3.961,0.1954770082101822,0.4153588554918433
-3.9605,0.07810508477567314,0.1716361721729923
-3.96,-0.2313299860971235,-0.4111789401112165
-3.9595,-0.658136980404429,-0.9728007755850904
-3.959,-0.6794773301197943,-1.121153713257435
-3.9585,-0.3700422592469978,-0.7396747306714069
-3.958,-0.04993701351651855,-0.1568596183871981
-3.9575,0.1634664836371343,0.3305857482505039
-3.957,0.2808384070716433,0.627291623595192
-3.9565,0.3128489316446912,0.7544512844572011
-3.956,0.3128489316446912,0.7332580076468663
-3.9555,0.3875401556484697,0.6060983467848571
-3.955,0.5262524287983441,0.5001319627331828
-3.9545,0.4942419042252961,0.457745409112513
-3.954,0.408880505363835,0.4047622170866759
-3.9535,0.3341892813600565,0.3411823866556712
-3.953,0.2808384070716433,0.2458126410091644
-3.9525,0.1634664836371343,0.1928294489833272
-3.952,-0.391382608962363,0.002089957690313421
-3.9515,-1.159635198715513,-0.6443049850249
-3.951,-1.757164990745741,-1.322489842955616
-3.9505,-1.895877263895616,-1.492036057438295
-3.95,-1.30901764672307,-1.046977244421262
-3.9495,-0.6688071552621118,-0.5595318777835605
-3.949,-0.1886492866663929,-0.1992461720078678
-3.9485,0.1101156093487211,0.002089957690313421
-3.948,0.2488278824985954,0.08686306493165288
-3.9475,0.291508581929326,0.08686306493165288
-3.947,0.2808384070716433,0.06566978812131802
-3.9465,0.2594980573562781,0.03387987290581572
-3.946,0.2381577076409128,0.02328323450064829
-3.9455,0.2168173579255475,0.01268659609548085
-3.945,0.2168173579255475,0.02328323450064829
-3.9445,0.2061471830678648,0.03387987290581572
-3.944,-0.02859666380115328,-0.2310360872233701
-3.9435,-0.6474668055467465,-0.8668343915334161
-3.943,-1.373038695869166,-1.492036057438295
-3.9425,-1.629122892453549,-1.937094870455327
-3.942,-1.06360362499637,-1.629792356705471
-3.9415,-0.4340633083930936,-0.9410108603695881
-3.941,0.02475421048725994,-0.252229364033705
-3.9405,0.2701682322139607,0.2987958330350016
-3.94,0.3661998059331045,0.6166949851900245
-3.9395,0.3768699807907871,0.7226613692416989
-3.939,0.3768699807907871,0.6802748156210291
-3.9385,0.5049120790829789,0.7120647308365314
-3.938,0.4942419042252961,0.701468092431364
-3.9375,0.4195506802215176,0.6484849004055269
-3.937,0.3341892813600565,0.55311515475902
-3.9365,0.2808384070716433,0.4365521323021782
-3.936,0.2488278824985954,0.2987958330350016
-3.9355,-0.01792648894347063,0.457745409112513
-3.935,-0.7328282044082075,0.09745970333682032
-3.9345,-1.426389570157579,-0.6549016234300674
-3.934,-1.437059745015262,-0.9516074987747555
-3.9335,-0.9569018764195432,-0.7502713690765743
-3.933,-0.4340633083930936,-0.4323722169215513
-3.9325,-0.06060718837420119,-0.1568596183871981
-3.932,0.1634664836371343,0.01268659609548085
-3.9315,0.2594980573562781,0.09745970333682032
-3.931,0.2808384070716433,0.13984625695749
-3.9305,0.2701682322139607,0.1504428953626575
-3.93,0.2488278824985954,0.1504428953626575
-3.9295,0.2381577076409128,0.1610395337678249
-3.929,0.2274875327832301,0.1716361721729923
-3.9285,0.2168173579255475,0.1928294489833272
-3.928,0.2168173579255475,0.2246193641988295
-3.9275,0.1634664836371343,0.1822328105781598
-3.927,-0.2953510352432193,-0.3370024712750445
-3.9265,-0.7861790786966207,-1.036380606016095
-3.926,-1.170305373573196,-1.576809164679634
-3.9255,-0.9355615267041777,-1.449649503817625
-3.925,-0.4447334832507763,-0.8138511995075789
-3.9245,-0.02859666380115328,-0.1674562567923655
-3.924,0.2168173579255475,0.2564092794143318
-3.9235,0.3341892813600565,0.4895353243280153
-3.923,0.3661998059331045,0.5743084315693548
-3.9225,0.3555296310754218,0.5637117931641874
-3.922,0.408880505363835,0.4471487707073456
-3.9215,0.4302208550792003,0.3941655786815084
-3.921,0.3875401556484697,0.4153588554918433
-3.9205,0.3341892813600565,0.4471487707073456
-3.92,0.3021787567870086,0.4365521323021782
-3.9195,0.291508581929326,0.383568940276341
-3.919,0.1314559590640864,0.3941655786815084
-3.9185,-0.4980843575391895,0.1928294489833272
-3.918,-1.148965023857831,-0.5383386009732256
-3.9175,-1.522421143876723,-1.036380606016095
-3.917,-1.703814116457328,-0.5277419625680583
-3.9165,-1.255666772434657,-0.1038764263613609
-3.916,-0.658136980404429,0.05507314971615059
-3.9155,-0.1886492866663929,0.06566978812131802
-3.915,0.09944543449103843,0.03387987290581572
-3.9145,0.2488278824985954,0.002089957690313421
-3.914,0.291508581929326,0.002089957690313421
-3.9135,0.291508581929326,0.02328323450064829
-3.913,0.2701682322139607,0.06566978812131802
-3.9125,0.2488278824985954,0.1186529801471552
-3.912,0.2381577076409128,0.1928294489833272
-3.9115,0.2274875327832301,0.2564092794143318
-3.911,0.2168173579255475,0.2987958330350016
-3.9105,0.00341386077189465,0.01268659609548085
-3.91,-0.423393133535411,-0.6231117082145651
-3.9095,-0.7968492535543035,-1.205926820498774
-3.909,-0.754168554123573,-1.375473034981453
-3.9085,-0.3700422592469978,-0.9410108603695881
-3.908,-0.01792648894347063,-0.3052125560595421
-3.9075,0.2168173579255475,0.2034260873884947
-3.907,0.3341892813600565,0.5319218779486851
-3.9065,0.3661998059331045,0.701468092431364
-3.906,0.3555296310754218,0.7650479228623686
-3.9055,0.4195506802215176,0.8180311148882058
-3.905,0.5155822539406614,0.849821030103708
-3.9045,0.4835717293676135,0.7226613692416989
-3.904,0.408880505363835,0.5425185163538525
-3.9035,0.3341892813600565,0.383568940276341
-3.903,0.291508581929326,0.2564092794143318
-3.9025,0.1741366584948169,0.2881991946298341
-3.902,-0.3487019095316325,0.4471487707073456
-3.9015,-0.9995825758502737,-0.1038764263613609
-3.901,-1.180975548430879,-0.7502713690765743
-3.9005,-0.9569018764195432,-0.8986243067489184
-3.9,-0.5300948821122373,-0.6337083466197325
-3.8995,-0.156638762093345,-0.3052125560595421
-3.899,0.09944543449103843,-0.04029659593035631
-3.8985,0.2274875327832301,0.1186529801471552
-3.898,0.2701682322139607,0.1928294489833272
-3.8975,0.2808384070716433,0.2140227257936621
-3.897,0.2701682322139607,0.2140227257936621
-3.8965,0.2488278824985954,0.2140227257936621
-3.896,0.2381577076409128,0.2140227257936621
-3.8955,0.2274875327832301,0.2140227257936621
-3.895,0.2274875327832301,0.2246193641988295
-3.8945,0.2274875327832301,0.2352160026039969
-3.894,0.142126133921769,0.05507314971615059
-3.8935,-0.1032878878049318,-0.5065486857577234
-3.893,-0.3166913849585846,-1.01518732920576
-3.8925,-0.2206598112394408,-1.47084278062796
-3.892,0.2168173579255475,-1.534422611058964
-3.8915,0.4622313796522482,-1.068170521231597
-3.891,0.5262524287983441,-0.4217755785163839
-3.8905,0.4835717293676135,0.08686306493165288
-3.89,0.4195506802215176,0.3729723018711736
-3.8895,0.3555296310754218,0.4895353243280153
-3.889,0.3448594562177392,0.5319218779486851
-3.8885,0.4729015545099309,0.6166949851900245
-3.888,0.4835717293676135,0.6378882620003594
-3.8875,0.4195506802215176,0.6060983467848571
-3.887,0.3448594562177392,0.5425185163538525
