Class_3_Grab_w_two_Hands/Class_3_Grab_with_Two_Hands_UZ_3.csv

#Digilent WaveForms Oscilloscope Acquisition
#Device Name: EExplorer
#Serial Number: SN:210151A2B84A
#Date Time: 2020-11-30 10:37:30.762
#Sample rate: 2000Hz
#Samples: 16384
#Trigger: Source: Channel 1 Type: Edge Condition: Rising Level: 0 V Hyst.: Auto HoldOff: 0 s
#Channel 1: Range: 1 V/div Offset: 0 V Attenuation: 1 X
#Channel 2: Range: 1 V/div Offset: 0 V Attenuation: 1 X
#Power Supplies: ON
#Fixed Supply: ON
#Voltage: 3.3 V Readback: 3.316 V
#Positive Supply: ON
#Voltage: 3.7 V Readback: 3.712 V
#Current: 500 mA Readback: 19 mA
#Negative Supply: ON
#Voltage: -3.7 V Readback: -3.699 V
#Current: -500 mA Readback: -8 mA
#Reference 1: ON
#Voltage: 0 V
#Reference 2: ON
#Voltage: 0 V

Time (s),Channel 1 (V),Channel 2 (V)
-4.096,-0.7434983792658902,2.07903108510313
-4.0955,-0.4020527838203563,1.432636142388505
-4.095,0.4088805053645532,0.2987958330340667
-4.0945,1.19847344483235,-0.7290780922662394
-4.094,1.721312012858324,-1.492036057437601
-4.0935,1.838683936292804,-1.947691508860224
-4.093,1.283834843693812,-1.650985633515806
-4.0925,0.5475927785143789,-0.983397413990865
-4.092,-0.06060718837458937,-0.4111789401109274
-4.0915,-0.4874141826815069,-0.09327978795619347
-4.091,-0.7328282044082075,-0.07208651114585861
-4.0905,-0.8608703027006612,-0.1992461720080798
-4.09,-1.148965023857831,-0.4323722169215513
-4.0895,-1.298347471865388,-0.4111789401112165
-4.089,-1.202315898146331,-0.1780528951977449
-4.0885,-1.06360362499637,0.03387987290581572
-4.088,-0.9569018764195432,0.1292496185523226
-4.0875,-0.978242226134889,0.1186529801471648
-4.087,-1.341028171296545,-0.2628260024394121
-4.0865,-1.810515865034154,-0.8562377531282487
-4.086,-1.170305373573778,-1.354279758170665
-4.0855,0.003413860772855392,-1.598002441489892
-4.085,1.059761171682476,-1.51322933424863
-4.0845,1.753322537431217,-1.248313374119684
-4.084,2.11610848259298,-0.9410108603693376
-4.0835,2.030747083731597,-0.6654982618352349
-4.083,1.337185717982225,-0.2840192792492073
-4.0825,0.4729015545093195,0.5107286011391308
-4.082,-0.1993194615240755,1.369056311956912
-4.0815,-0.6047861061160158,1.941274785835954
-4.081,-0.7861790786964558,2.269770576395845
-4.0805,-0.839529952985034,2.365140322042651
-4.08,-0.807519428411986,2.301560491611646
-4.0795,-0.7328282044082755,2.132014277129122
-4.079,-0.4767440078231838,1.602182356869603
-4.0785,0.2274875327832301,0.5107286011383502
-4.078,1.038420821966373,-0.5595318777825872
-4.0775,1.657290963712976,-1.364876396576777
-4.077,1.956055859727818,-1.905304955239825
-4.0765,1.603940089424611,-1.852321763214036
-4.076,0.8463576745281634,-1.174136905282761
-4.0755,0.1207857842064037,-0.6125150698093976
-4.075,-0.4020527838200457,-0.2416327256285375
-4.0745,-0.7008176798352762,-0.1038764263613513
-4.074,-0.8288597781273515,-0.09327978795619347
-4.0735,-1.020922925565639,-0.252229364033705
-4.073,-1.319687821580481,-0.3687923864904407
-4.0725,-1.287677297007705,-0.1780528951975329
-4.072,-1.138294849000148,0.03387987290581572
-4.0715,-0.9995825758503998,0.1716361721728671
-4.071,-0.9355615267043912,0.2458126410089813
-4.0705,-1.170305373573196,0.04447651131098315
-4.07,-1.234326422719234,-0.5595318777830112
-4.0695,-0.4340633083922105,-1.13175035166292
-4.069,0.5369226036560266,-1.481439419033127
-4.0685,1.305175193409177,-1.51322933424863
-4.068,1.828013761435878,-1.311893204550188
-4.0675,2.105438307735375,-1.025783967610927
-4.067,2.190799706596836,-0.7502713690765743
-4.0665,1.860024286007946,-0.5065486857572897
-4.066,1.059761171682476,-0.02969995752518888
-4.0655,0.2274875327832301,0.8286277532933731
-4.065,-0.3593720843887814,1.570392441654419
-4.0645,-0.690147504977477,2.036644531482461
-4.064,-0.8181896032696687,2.269770576396144
-4.0635,-0.8395299529850145,2.280367214801302
-4.063,-0.7968492535542646,2.132014277128707
-4.0625,-0.754168554123573,1.845905040189447
-4.062,-0.2953510352436366,1.040560521397454
-4.0615,0.5582629533720909,-0.07208651114668745
-4.061,1.326515543124542,-0.9833974139902578
-4.0605,1.657290963712704,-1.545019249464132
-4.06,1.369196242554661,-1.364876396575794
-4.0595,0.6969752265212663,-0.8244478379127463
-4.059,0.04609456020262521,-0.4323722169215513
-4.0585,-0.3807124341042922,-0.135666341577133
-4.058,-0.658136980404429,-0.02969995752518888
-4.0575,-0.7968492535543035,-0.06148987274069118
-4.057,-0.9248913518463787,-0.1886495336025847
-4.0565,-1.212986073003927,-0.4429688553267188
-4.056,-1.255666772434657,-0.3687923864905467
-4.0555,-1.127624674142582,-0.1568596183873908
-4.055,-0.988912400992533,0.0338798729059892
-4.0545,-0.9248913518464952,0.2246193641988295
-4.054,-0.988912400992533,0.2458126410091451
-4.0535,-1.597112367880948,-0.2310360872239387
-4.053,-2.087940411333903,-0.8562377531282487
-4.0525,-1.319687821580753,-1.280103289334946
-4.052,-0.1459685872356041,-1.40726295019683
-4.0515,-0.08194753808956648,-1.269506650929778
-4.051,-0.9995825758502737,-1.004590690800593
-4.0505,-1.063603624996311,-0.7184814538613322
-4.05,-0.3700422592469978,-0.474758770542221
-4.0495,-0.02859666380115328,-0.1568596183871981
-4.049,-0.1139580626625368,0.5425185163532165
-4.0485,-0.3273615598164419,1.358459673552275
-4.048,-0.5194247072545548,1.941274785835954
-4.0475,-0.6581369804043029,2.259173937990687
-4.047,-0.7114878546928519,2.333350406827052
-4.0465,-0.722158029550525,2.227384022775475
-4.046,-0.6794773301198331,1.994257977862003
-4.0455,-0.4554036581077796,1.411442865576589
-4.045,0.291508581929326,0.3199891098453364
-4.0445,1.102441871113207,-0.6972881770507372
-4.044,1.593269914566492,-1.396666311791952
-4.0435,1.465227816274416,-1.576809164679634
-4.043,0.857027849386506,-1.0999604364471
-4.0425,0.2168173579261298,-0.5701285161892098
-4.042,-0.2953510352432193,-0.2416327256285375
-4.0415,-0.6474668055467465,-0.07208651114585861
-4.041,-0.8395299529848592,-0.103876426361332
-4.0405,-0.9142211769890356,-0.2098428104132569
-4.04,-1.159635198715513,-0.4535654937318862
-4.0395,-1.287677297007589,-0.4853554089473596
-4.039,-1.180975548430743,-0.2946159176541819
-4.0385,-1.031593100423322,-0.08268314955102604
-4.038,-0.9142211769889192,0.09745970333665649
-4.0375,-0.8715404775584313,0.2140227257934115
-4.037,-1.255666772434657,-0.06148987274069118
-4.0365,-1.87453691418025,-0.6654982618352349
-4.036,-1.330357996437378,-1.163540266878316
-4.0355,-0.1673089369510276,-1.396666311791788
-4.035,0.9317190733902845,-1.333086481360783
-4.0345,1.689301488285063,-1.078767159636996
-4.034,2.105438307735375,-0.792657922697244
-4.0335,2.190799706596836,-0.5171453241628908
-4.033,1.721312012859227,-0.2522293640339459
-4.0325,0.8676980242434801,0.3517790250616193
-4.032,0.08877525963335578,1.210106735879401
-4.0315,-0.4340633083926182,1.83530840178371
-4.031,-0.7114878546929296,2.206190745965265
-4.0305,-0.807519428411986,2.343947045232316
-4.03,-0.7968492535543131,2.301560491611685
-4.0295,-0.7434983792657834,2.10022436191308
-4.029,-0.6261264558313813,1.676358825706768
-4.0285,0.00341386077189465,0.6802748156210291
-4.028,0.8570278493871271,-0.4111789401119779
-4.0275,1.539919040278195,-1.248313374119443
-4.027,1.945385684870135,-1.852321763213987
-4.0265,1.721312012859004,-1.799338571188198
-4.026,0.9530594231056497,-1.078767159636765
-4.0255,0.1634664836371343,-0.474758770542221
-4.025,-0.4340633083925502,-0.1356663415771716
-4.0245,-0.7968492535544394,-0.00850668071494075
-4.024,-0.9462317015618604,-0.1038764263613609
-4.0235,-1.1276246741423,-0.3793890248954636
-4.023,-1.447729919872945,-0.5701285161885352
-4.0225,-1.447729919872945,-0.3581957480853793
-4.022,-1.277007122150178,-0.1038764263615922
-4.0215,-1.095614149569311,0.09745970333694561
-4.021,-0.9782422261349084,0.2352160026039969
-4.0205,-1.06360362499637,0.08686306493165288
-4.02,-1.54376149359172,-0.4747587705427607
-4.0195,-1.138294849000148,-1.068170521231597
-4.019,-0.03926683865883591,-1.502632695843462
-4.0185,0.995740122535439,-1.629792356705355
-4.018,1.7213120128588,-1.460246142222792
-4.0175,2.116108482593058,-1.152943628472937
-4.017,2.244150580885133,-0.8562377531285186
-4.0165,1.966726034584783,-0.5913217929986581
-4.016,1.177133095116985,-0.1462629799820306
-4.0155,0.3341892813608232,0.7120647308357508
-4.015,-0.2846808603858666,1.496215972819384
-4.0145,-0.6474668055467465,2.004854616266958
-4.014,-0.7968492535541676,2.259173937990745
-4.0135,-0.8288597781273418,2.290963853206363
-4.013,-0.8181896032696687,2.16380419234447
-4.0125,-0.7114878546928423,1.803518486568777
-4.012,-0.1993194615232992,0.8710143069130309
-4.0115,0.6542945270905358,-0.2416327256285375
-4.011,1.390536592270638,-1.121153713257435
-4.0105,1.721312012858499,-1.693372187135955
-4.01,1.433217291701369,-1.608599079895136
-4.0095,0.79300680024041,-1.01518732920576
-4.009,0.09944543449166932,-0.5701285161891327
-4.0085,-0.4340633083933848,-0.2946159176542879
-4.008,-0.754168554123573,-0.1992461720078678
-4.0075,-0.903551002130994,-0.2522293640336568
-4.007,-0.9995825758505162,-0.3899856633011032
-4.0065,-1.26633694729234,-0.6337083466197325
-4.006,-1.30901764672307,-0.4853554089473885
-4.0055,-1.180975548430743,-0.1356663415766126
-4.005,-1.031593100423322,0.13984625695749
-4.0045,-0.9248913518464952,0.3411823866556712
-4.004,-0.9889124009930472,0.3411823866552472
-4.0035,-1.490410619303675,-0.1250697031716958
-4.003,-1.458400094730627,-0.7820612842920766
-4.0025,-0.4767440078247172,-1.258910012524177
-4.002,0.4408910299368829,-1.417859588602123
-4.0015,0.6436243522328531,-1.322489842955616
-4.001,0.8036769750979472,-1.078767159636986
-4.0005,1.241154144263275,-0.8032545611021994
-4,1.454557641416734,-0.570128516188728
-3.9995,1.059761171682476,-0.2098428104130352
-3.999,0.3982103305061524,0.5849050699745222
-3.9985,-0.1673089369510276,1.411442865577582
-3.998,-0.5407650569699201,2.004854616266958
-3.9975,-0.722158029550525,2.301560491611646
-3.997,-0.7755089038389382,2.365140322042651
-3.9965,-0.7648387289812555,2.259173937990977
-3.996,-0.722158029550525,2.026047893077293
-3.9955,-0.4767440078238243,1.443232780793084
-3.995,0.2701682322139607,0.3517790250608387
-3.9945,1.091771696255524,-0.6654982618352349
-3.994,1.710641838001117,-1.42845622700729
-3.9935,1.945385684870135,-1.926498232050159
-3.993,1.454557641416734,-1.587405803084801
-3.9925,0.6649647019482183,-0.8880276683437509
-3.992,-0.02859666380115328,-0.4111789401112165
-3.9915,-0.4874141826815069,-0.1144730647665284
-3.991,-0.7968492535543035,-0.008506680714854012
-3.9905,-0.9462317015618604,-0.04029659593035631
-3.99,-1.159635198715513,-0.2840192792492073
-3.9895,-1.255666772434657,-0.252229364033705
-3.989,-1.159635198715513,0.002089957690313421
-3.9885,-1.020922925565639,0.2458126410091644
-3.988,-0.9035510021311299,0.3729723018711736
-3.9875,-0.839529952985034,0.3517790250608387
-3.987,-1.159635198715513,0.01268659609548085
-3.9865,-1.917217613610981,-0.6337083466197325
-3.986,-1.83185621474952,-1.195330182093607
-3.9855,-0.7861790786966207,-1.502632695843462
-3.985,0.2594980573562781,-1.481439419033127
-3.9845,1.081101521397841,-1.237716735714276
-3.984,1.689301488285752,-0.9410108603695881
-3.9835,1.934715510012453,-0.6549016234300674
-3.983,1.486568165989782,-0.326405832869877
-3.9825,0.6969752265212663,0.4047622170866759
-3.982,-0.007256314085787988,1.29487984312074
-3.9815,-0.4767440078238243,1.920081509025619
-3.981,-0.7114878546928423,2.269770576396144
-3.9805,-0.7968492535543035,2.386333598852986
-3.98,-0.7968492535543035,2.312157130016814
-3.9795,-0.7328282044082075,2.132014277128968
-3.979,-0.572775581542968,1.761131932948107
-3.9785,0.09944543449103843,0.7968378380778709
-3.978,0.9317190733902845,-0.3052125560595421
-3.9775,1.582599739708926,-1.174136905283272
-3.977,1.817343586577944,-1.725162102351978
-3.9765,1.443887466559051,-1.481439419033127
-3.976,0.7609962756673623,-0.8138511995075789
-3.9755,0.1207857842064037,-0.2946159176543747
-3.975,-0.3593720843893152,-0.05089323433552374
-3.9745,-0.658136980404429,0.03387987290581572
-3.974,-0.8181896032696687,-0.07208651114585861
-3.9735,-0.9355615267041777,-0.2840192792492073
-3.973,-1.020922925565639,-0.474758770542221
-3.9725,-0.9782422261349084,-0.3158091944647096
-3.972,-0.9035510021311299,-0.1250697031716958
-3.9715,-0.839529952985034,0.03387987290581572
-3.971,-0.807519428411986,0.2140227257936621
-3.9705,-0.9569018764195432,0.1716361721729923
-3.97,-1.458400094730627,-0.3687923864905467
-3.9695,-1.042263275281004,-0.9728007755850904
-3.969,0.03542438534494258,-1.38606967338662
-3.9685,1.049090996824793,-1.481439419033127
-3.968,1.753322537431848,-1.311893204550448
-3.9675,2.12677865745074,-1.025783967610927
-3.967,2.212140056312201,-0.7396747306714069
-3.9665,1.785333062004896,-0.4535654937318862
-3.966,0.9317190733902845,0.1716361721729923
-3.9655,0.142126133921769,1.061753798207057
-3.965,-0.4020527838200457,1.782325209758442
-3.9645,-0.690147504977477,2.216787384370307
-3.964,-0.807519428411986,2.375736960447818
-3.9635,-0.8181896032696687,2.333350406827149
-3.963,-0.7861790786966207,2.174400830749637
-3.9625,-0.7008176798351597,1.898888232215284
-3.962,-0.2099896363817582,1.040560521396722
-3.9615,0.6329541773751706,-0.09327978795619347
-3.961,1.379866417412955,-1.01518732920576
-3.9605,1.76399271228953,-1.629792356705471
-3.96,1.635950613997339,-1.767548655972648
-3.9595,0.9850699476786977,-1.248313374119443
-3.959,0.2274875327832301,-0.6549016234300674
-3.9585,-0.3700422592469978,-0.2628260024388724
-3.958,-0.7114878546928423,-0.1356663415768632
-3.9575,-0.8928808272734472,-0.1462629799820306
-3.957,-0.9782422261349084,-0.2840192792492073
-3.9565,-1.255666772434657,-0.5277419625680583
-3.956,-1.298347471865388,-0.4323722169215513
-3.9555,-1.159635198715513,-0.2098428104130352
-3.955,-0.9889124009925911,0.002089957690313421
-3.9545,-0.8715404775580819,0.1822328105781598
-3.954,-0.9035510021311299,0.1716361721729923
-3.9535,-1.042263275281004,-0.2840192792492073
-3.953,-0.5514352318276028,-0.8880276683437509
-3.9525,0.408880505363835,-1.333086481360783
-3.952,1.262494493978446,-1.492036057438295
-3.9515,1.838683936293309,-1.364876396576285
-3.951,2.148119007166105,-1.089363798041932
-3.9505,2.244150580885249,-0.792657922697244
-3.95,1.998736559158548,-0.5489352393783931
-3.9495,1.262494493978446,-0.1780528951975329
-3.949,0.4195506802215176,0.6166949851900245
-3.9485,-0.2313299860971235,1.443232780793084
-3.948,-0.6047861061160158,1.994257977861791
-3.9475,-0.7755089038389382,2.259173937990977
-3.947,-0.8181896032696687,2.312157130016814
-3.9465,-0.7861790786966207,2.195594107559972
-3.946,-0.690147504977477,2.004854616266958
-3.9455,-0.4660738329661415,1.496215972818921
-3.945,0.2808384070716433,0.4259554938970107
-3.9445,1.102441871113207,-0.6125150698093976
-3.944,1.657290963712704,-1.375473034981453
-3.9435,1.678631313428069,-1.746355379162313
-3.943,1.113112045970889,-1.407262950196955
-3.9425,0.3982103305061524,-0.8880276683437509
-3.942,-0.1886492866663929,-0.474758770542221
-3.9415,-0.5834457564006506,-0.1780528951975329
-3.941,-0.807519428411986,-0.02969995752518888
-3.9405,-0.8928808272734472,-0.1144730647665284
-3.94,-1.095614149569417,-0.4111789401112165
-3.9395,-1.223656247861609,-0.4323722169215513
-3.939,-1.180975548430879,-0.1992461720078678
-3.9385,-1.074273799854052,0.06566978812131802
-3.938,-0.9569018764195432,0.2564092794143318
-3.9375,-0.8822106524157645,0.3517790250608387
-3.937,-0.9462317015618604,0.06566978812131802
-3.9365,-0.4554036581084589,-0.5595318777835605
-3.936,0.4622313796522482,-1.121153713257435
-3.9355,1.219813794547716,-1.42845622700729
-3.935,1.305175193409177,-1.417859588602123
-3.9345,1.027750647109428,-1.195330182093607
-3.934,1.219813794547716,-0.9092209451540858
-3.9335,1.497238340847464,-0.6443049850249
-3.933,1.315845368266859,-0.400582301706049
-3.9325,0.6969752265212663,0.1504428953626575
-3.932,0.05676473506030786,1.00877060618122
-3.9315,-0.4127229586777283,1.676358825706768
-3.931,-0.6688071552621118,2.089627723508298
-3.9305,-0.7755089038389382,2.259173937990977
-3.93,-0.7861790786966207,2.227384022775475
-3.9295,-0.7114878546928423,2.047241169887628
-3.929,-0.5621054066852853,1.686955464111935
-3.9285,0.02475421048725994,0.775644561267536
-3.928,0.857027849386506,-0.3052125560595421
-3.9275,1.51857869056283,-1.152943628472937
-3.927,1.774662887147213,-1.735758740757146
-3.9265,1.411876941986003,-1.598002441489969
-3.926,0.7183155762366316,-0.9728007755850904
-3.9255,0.05676473506030786,-0.474758770542221
-3.925,-0.4127229586777283,-0.1780528951975329
-3.9245,-0.7114878546928423,-0.1144730647665284
-3.924,-0.8715404775580819,-0.2310360872233701
-3.9235,-1.074273799854052,-0.4323722169215513
-3.923,-1.373038695869166,-0.5489352393783931
-3.9225,-1.351698346153801,-0.3581957480853793
-3.922,-1.170305373573196,-0.08268314955102604
-3.9215,-0.9995825758502737,0.1292496185523226
-3.921,-0.8928808272734472,0.2458126410091644
-3.9205,-1.020922925565639,0.1292496185523226
-3.92,-1.554431668449771,-0.4323722169215513
-3.9195,-1.202315898146244,-1.036380606016095
-3.919,-0.1993194615240755,-1.396666311791788
-3.9185,0.3235191065023739,-1.407262950196955
-3.918,0.3982103305061524,-1.237716735714276
-3.9175,0.8463576745288233,-0.9728007755850904
-3.917,1.390536592270638,-0.7078848154559045
-3.9165,1.582599739708926,-0.474758770542221
-3.916,1.145122570543937,-0.1886495336027004
-3.9155,0.4408910299368829,0.5213252395435176
-3.915,-0.156638762093345,1.347863035146577
-3.9145,-0.5407650569699201,1.962468062646288
-3.914,-0.722158029550525,2.280367214801311
-3.9135,-0.7755089038389382,2.354543683637484
-3.913,-0.7434983792658902,2.269770576396144
-3.9125,-0.5834457564006506,1.909484870620451
-3.912,-0.156638762093345,1.040560521396722
-3.9115,0.6329541773751706,-0.08268314955102604
-3.911,1.369196242555273,-1.004590690800593
-3.9105,1.689301488285752,-1.619195718300304
-3.91,1.315845368266859,-1.417859588602123
-3.9095,0.6756348768059011,-0.8244478379127463
-3.909,0.05676473506030786,-0.3793890248957141
-3.9085,-0.4020527838200457,-0.08268314955102604
-3.908,-0.6794773301197943,0.02328323450064829
-3.9075,-0.807519428411986,-0.02969995752518888
-3.907,-0.9035510021311299,-0.1886495336027004
-3.9065,-1.202315898146244,-0.4429688553267188
-3.906,-1.26633694729234,-0.3899856633008816
-3.9055,-1.148965023857831,-0.1356663415768632
-3.905,-1.010252750707956,0.1610395337678249
-3.9045,-0.9035510021311299,0.3199891098453364
-3.904,-0.9142211769888124,0.2881991946298341
-3.9035,-1.212986073003927,-0.1886495336027004
-3.903,-0.8822106524157645,-0.8244478379127463
-3.9025,0.07810508477567314,-1.301296566145281
-3.902,1.027750647109428,-1.481439419033127
-3.9015,1.710641838001117,-1.375473034981453
-3.901,2.094768132877692,-1.110557074852267
-3.9005,2.244150580885249,-0.8244478379127463
-3.9,2.020076908873914,-0.570128516188728
-3.8995,1.273164668836129,-0.1462629799820306
-3.899,0.4195506802215176,0.6802748156210291
-3.8985,-0.2206598112394408,1.506812611224089
-3.898,-0.6047861061160158,2.057837808292796
-3.8975,-0.7755089038389382,2.312157130016814
-3.897,-0.8181896032696687,2.333350406827149
-3.8965,-0.807519428411986,2.184997469154805
-3.896,-0.7434983792658902,1.983661339456623
-3.8955,-0.4980843575391895,1.496215972818921
-3.895,0.2594980573562781,0.4365521323021782
-3.8945,1.081101521397841,-0.6019184314042303
-3.894,1.689301488285752,-1.375473034981453
-3.8935,1.870694460866357,-1.852321763213987
-3.893,1.411876941986003,-1.417859588602123
-3.8925,0.6649647019482183,-0.7290780922662394
-3.892,-0.03926683865883591,-0.2628260024388724
-3.8915,-0.5300948821122373,-0.09327978795619347
-3.891,-0.8288597781273515,-0.08268314955102604
-3.8905,-0.9889124009925911,-0.1250697031716958
-3.89,-1.191645723288561,-0.326405832869877
-3.8895,-1.30901764672307,-0.3581957480853793
-3.889,-1.191645723288561,-0.1886495336027004
-3.8885,-1.042263275281004,0.002089957690313421
-3.888,-1.020922925565639,0.13984625695749
-3.8875,-1.020922925565639,0.2034260873884947
-3.887,-1.394379045584531,-0.1250697031716958
-3.8865,-1.981238662757077,-0.7396747306714069
-3.886,-1.405049220442214,-1.269506650929778
