Class_3_Grab_w_two_Hands/Class_3_Grab_with_Both_hands_Turki_2.csv

#Digilent WaveForms Oscilloscope Acquisition
#Device Name: EExplorer
#Serial Number: SN:210151A2B84A
#Date Time: 2020-10-27 13:49:04.589
#Sample rate: 2000Hz
#Samples: 16384
#Trigger: Source: Channel 1 Type: Edge Condition: Rising Level: 0 V Hyst.: Auto HoldOff: 0 s
#Channel 1: Range: 1 V/div Offset: 0 V Attenuation: 1 X
#Channel 2: Range: 1 V/div Offset: 0 V Attenuation: 1 X
#Power Supplies: ON
#Fixed Supply: ON
#Voltage: 3.3 V Readback: 3.33 V
#Positive Supply: ON
#Voltage: 3.7 V Readback: 3.713 V
#Current: 500 mA Readback: 20 mA
#Negative Supply: ON
#Voltage: -3.7 V Readback: -3.707 V
#Current: -500 mA Readback: -10 mA
#Reference 1: ON
#Voltage: 0 V
#Reference 2: ON
#Voltage: 0 V

Time (s),Channel 1 (V),Channel 2 (V)
-4.096,-0.02859666380115328,-0.5065486857577234
-4.0955,0.3661998059327454,-0.1038764263617271
-4.095,0.5689331282291425,0.03387987290578681
-4.0945,0.6436243522328531,0.002089957690313421
-4.094,0.6329541773751802,-0.02969995752515996
-4.0935,0.6116138276597662,-0.07208651114594535
-4.093,0.5689331282290746,-0.1674562567923655
-4.0925,0.526252428798383,-0.1144730647665765
-4.092,0.4942419042252864,-0.04029659593027921
-4.0915,0.4835717293676135,0.04447651131098315
-4.091,0.4729015545099309,0.1080563417419877
-4.0905,0.6969752265219457,-0.01910331912045514
-4.09,1.443887466559051,-0.4959520473525559
-4.0895,1.902704985439405,-1.004590690800593
-4.089,1.657290963712927,-1.280103289334695
-4.0885,0.5155822539406614,-1.258910012524611
-4.088,-0.7968492535543035,-1.004590690800593
-4.0875,-1.682473766741157,-0.6760949002407011
-4.087,-1.586442193022237,-0.262826002438352
-4.0865,-0.9462317015618604,0.309392471440169
-4.086,-0.3060212101014842,1.061753798206373
-4.0855,0.1527963087796845,1.835308401784751
-4.085,0.408880505363835,2.354543683637484
-4.0845,0.5049120790828915,2.333350406827168
-4.084,0.50491207908294,2.132014277128785
-4.0835,0.4622313796522482,1.930678147430786
-4.083,0.4195506802215176,1.42203950398275
-4.0825,0.2808384070710708,0.5637117931634068
-4.082,-0.3487019095316325,-0.2946159176543747
-4.0815,-1.223656247861609,-1.01518732920576
-4.081,-1.949228138183369,-1.576809164679124
-4.0805,-1.959898313041711,-1.79933857118815
-4.08,-1.234326422719292,-1.42845622700729
-4.0795,-0.4554036581091673,-0.8244478379132957
-4.079,0.09944543449134897,-0.3793890248955407
-4.0785,0.4408910299368829,-0.1886495336027004
-4.078,0.5689331282289581,-0.1144730647665958
-4.0775,0.6009436528021129,-0.1356663415768246
-4.077,0.5902734779444399,-0.09327978795619347
-4.0765,0.5582629533714212,-0.167456256792298
-4.076,0.5369226036560266,0.01268659609574107
-4.0755,0.5369226036560266,0.2987958330350016
-4.075,0.5475927785137094,0.5955017083796896
-4.0745,0.5475927785136803,0.9451907757500992
-4.074,0.5155822539406614,0.8180311148882058
-4.0735,0.7396559259519968,0.09745970333682032
-4.073,1.326515543124008,-0.665498261834541
-4.0725,1.326515543124542,-1.174136905283272
-4.072,0.5689331282290746,-1.354279758171118
-4.0715,-0.6047861061149482,-1.258910012524698
-4.071,-1.426389570157502,-1.00459069080014
-4.0705,-1.341028171296118,-0.5065486857577234
-4.07,-0.7755089038394526,0.3305857482497424
-4.0695,-0.2099896363813991,1.231300012690343
-4.069,0.1848068333524996,1.898888232215284
-4.0685,0.408880505363835,2.259173937990977
-4.068,0.4942419042252961,2.280367214801196
-4.0675,0.4942419042252961,2.153207553939303
-4.067,0.4729015545099309,1.983661339456623
-4.0665,0.3982103305060942,1.612778995275021
-4.066,0.3341892813600565,0.7968378380778709
-4.0655,-0.06060718837420119,-0.02969995752518888
-4.065,-0.9035510021303633,-0.8032545611017079
-4.0645,-1.725154466172693,-1.417859588602123
-4.064,-2.290673733629873,-1.809935209593318
-4.0635,-1.906547438753647,-1.735758740757213
-4.063,-0.9569018764187668,-1.099960436446541
-4.0625,-0.1032878878049318,-0.4853554089473885
-4.062,0.4195506802210421,-0.07208651114623449
-4.0615,0.6436243522328919,0.1504428953627057
-4.061,0.6863050516635838,0.2034260873884947
-4.0605,0.6542945270905358,0.1504428953626575
-4.06,0.6649647019483154,-0.008506680714892563
-4.0595,0.7716664505250448,-0.05089323433552374
-4.059,0.7396559259519968,0.2246193641988295
-4.0585,0.6649647019482863,0.457745409112301
-4.058,0.6116138276598051,0.6484849004055269
-4.0575,0.5902734779444399,0.7226613692416989
-4.057,0.9743997728206656,0.2881991946302292
-4.0565,1.667961138570387,-0.4429688553267188
-4.056,1.806673411720261,-1.046977244421262
-4.0555,1.219813794548249,-1.343683119765681
-4.055,-0.0392668386598937,-1.343683119765777
-4.0545,-1.202315898146244,-1.152943628472937
-4.054,-1.533091318734105,-0.8138511995078873
-4.0535,-1.084943974711182,-0.1992461720071161
-4.053,-0.4767440078238243,0.627291623595192
-4.0525,0.01408403562957729,1.453829419198252
-4.052,0.3235191065025,2.04724116988784
-4.0515,0.4622313796522482,2.280367214801311
-4.051,0.4942419042252961,2.068434446697963
-4.0505,0.4622313796522773,1.761131932948387
-4.05,0.408880505363835,1.326669758336243
-4.0495,0.3661998059331045,0.8286277532933731
-4.049,0.1527963087796457,0.1186529801478009
-4.0485,-0.5941159312591193,-0.6549016234306553
-4.048,-1.458400094730627,-1.301296566145281
-4.0475,-2.130621110764022,-1.756952017567066
-4.047,-2.087940411333088,-1.788741932782472
-4.0465,-1.191645723288561,-1.227120097309109
-4.046,-0.3593720843900721,-0.5277419625686943
-4.0455,0.2061471830681463,0.002089957690535086
-4.045,0.5155822539406614,0.2458126410091644
-4.0445,0.6542945270905358,0.2881991946298341
-4.044,0.6863050516635644,0.267005917819451
-4.0435,0.6649647019482183,0.2140227257936621
-4.043,0.6009436528021226,0.1186529801471552
-4.0425,0.5475927785137579,0.3729723018709423
-4.042,0.5155822539406614,0.6378882620003594
-4.0415,0.4942419042252961,0.8392243916985406
-4.041,0.5049120790829692,0.8286277532933828
-4.0405,0.7823366253833971,0.447148770706671
-4.04,1.51857869056283,-0.2946159176543747
-4.0395,2.06275760830415,-0.951607498774158
-4.039,2.009406734015212,-1.386069673386707
-4.0385,0.8890383739595538,-1.481439419033127
-4.038,-0.4447334832495633,-1.301296566145445
-4.0375,-0.9248913518462913,-0.7820612842911899
-4.037,-0.7008176798351597,0.1928294489833272
-4.0365,-0.2953510352432193,1.188913459069066
-4.036,0.0674349099182137,1.909484870620827
-4.0355,0.3128489316446912,2.322753768421981
-4.035,0.4302208550792003,2.460510067689158
-4.0345,0.4622313796522191,2.290963853206633
-4.034,0.4408910299368829,1.962468062646288
-4.0335,0.3982103305061524,1.612778995275763
-4.033,0.3661998059331336,0.9875773293714534
-4.0325,0.2594980573557638,0.161039533767131
-4.032,-0.3060212101009019,-0.6019184314042303
-4.0315,-1.17030537357241,-1.22712009730854
-4.031,-1.917217613610884,-1.714565463946878
-4.0305,-1.810515865034154,-1.788741932782983
-4.03,-1.020922925566357,-1.333086481361197
-4.0295,-0.2420001609543015,-0.7926579226968585
-4.029,0.3128489316446912,-0.3687923864905467
-4.0285,0.6009436528021226,-0.05089323433552374
-4.028,0.6969752265212567,0.09745970333689742
-4.0275,0.6863050516635838,0.1822328105781598
-4.027,0.6436243522328531,0.1292496185523226
-4.0265,0.7076454013788909,-0.02969995752504431
-4.026,0.8143471499557753,0.13984625695749
-4.0255,0.7609962756673623,0.5001319627331828
-4.025,0.6542945270906328,0.6696781772157074
-4.0245,0.5689331282291135,0.6590815388105593
-4.024,0.6116138276598051,0.5107286011383502
-4.0235,1.187803269974144,-0.0614898727401707
-4.023,1.657290963712549,-0.7290780922666539
-4.0225,1.486568165989782,-1.184733543688439
-4.022,0.7076454013796575,-1.290699927740017
-4.0215,-0.4980843575397524,-1.152943628472657
-4.021,-1.116954499284783,-0.8456411147230812
-4.0205,-0.9142211769888124,-0.2628260024388724
-4.02,-0.4447334832503881,0.5849050699753221
-4.0195,-0.01792648894347063,1.464426057603419
-4.019,0.2701682322139607,2.1214176387238
-4.0185,0.4195506802213818,2.481703344499165
-4.018,0.4622313796522482,2.428720152473656
-4.0175,0.4408910299368829,1.994257977861791
-4.017,0.4088805053638641,1.453829419198744
-4.0165,0.3768699807907192,0.9769806909651583
-4.016,0.3021787567870086,0.3623756634660061
-4.0155,-0.1139580626622359,-0.2946159176537771
-4.015,-0.9569018764202807,-0.8774310299390461
-4.0145,-1.767835165603424,-1.38606967338662
-4.014,-2.141291285621977,-1.746355379161985
-4.0135,-1.437059745014398,-1.48143941903252
-4.013,-0.4874141826815069,-0.8138511995075789
-4.0125,0.2061471830678648,-0.4641621321370536
-4.012,0.600943652802239,-0.3793890248956274
-4.0115,0.7289857510943143,-0.2840192792492073
-4.011,0.707645401378949,-0.2416327256285375
-4.0105,0.6436243522329113,-0.1992461720079064
-4.01,0.6116138276598051,-0.252229364033705
-4.0095,0.7289857510943143,-0.2416327256285375
-4.009,0.7289857510943143,0.06566978812103852
-4.0085,0.6542945270904582,0.2458126410092608
-4.008,0.5689331282290746,0.3517790250608387
-4.0075,0.5155822539407099,0.3199891098453653
-4.007,0.5262524287983538,-0.1250697031722547
-4.0065,0.5369226036560266,-0.7396747306714069
-4.006,0.09944543449103843,-1.216523458903942
-4.0055,-0.6688071552628591,-1.386069673386505
-4.005,-1.490410619303675,-1.258910012524611
-4.0045,-2.055929886760855,-0.9622041371799229
-4.004,-1.703814116456639,-0.4217755785155358
-4.0035,-0.9462317015618604,0.5107286011383502
-4.003,-0.274010685527854,1.475022696008586
-4.0025,0.1848068333520823,2.184997469154159
-4.002,0.4195506802215176,2.577073090146
-4.0015,0.4942419042252961,2.640652920577004
-4.001,0.4942419042252961,2.386333598853217
-4.0005,0.4515612047945365,2.02604789307685
-4,0.4195506802215176,1.538602526439591
-3.9995,0.3768699807907871,0.8286277532933731
-3.999,0.1527963087794516,0.02328323450064829
-3.9985,-0.5941159312583333,-0.7078848154559045
-3.998,-1.458400094730627,-1.311893204550448
-3.9975,-2.087940411333903,-1.75695201756748
-3.997,-1.67180359188428,-1.693372187136476
-3.9965,-0.7648387289812555,-1.121153713257435
-3.996,0.02475421048725994,-0.5595318777835605
-3.9955,0.4729015545099309,-0.2416327256285375
-3.995,0.6222840025174878,-0.07208651114585861
-3.9945,0.6436243522328531,0.01268659609548085
-3.994,0.6222840025174878,-0.008506680714854012
-3.9935,0.5796033030867573,-0.1250697031716958
-3.993,0.4942419042252961,-0.2734226408440398
-3.9925,0.4408910299368829,-0.1356663415768632
-3.992,0.4302208550792003,0.07626642652648545
-3.9915,0.4515612047945656,0.2776025562246667
-3.991,0.4729015545099309,0.5425185163538525
-3.9905,0.6649647019482183,0.5425185163538525
-3.99,1.411876941986003,-0.04029659593035631
-3.9895,2.105438307735375,-0.7078848154559045
-3.989,2.254820755742932,-1.142346990067769
-3.9885,1.177133095116985,-1.237716735714276
-3.988,-0.3060212101009019,-1.068170521231597
-3.9875,-1.202315898146244,-0.7714646458869092
-3.987,-1.148965023857831,-0.3370024712750445
-3.9865,-0.6688071552621118,0.309392471440169
-3.986,-0.1779791118087102,1.135930267043229
-3.9855,0.1741366584948169,1.909484870620451
-3.985,0.3768699807907871,2.386333598852986
-3.9845,0.4408910299368829,2.449913429283991
-3.984,0.4302208550792003,1.983661339456623
-3.9835,0.3875401556484697,1.082947075017392
-3.983,0.3448594562177392,0.1928294489833272
-3.9825,0.2274875327832301,-0.5383386009732256
-3.982,-0.3273615598162672,-1.110557074852267
-3.9815,-1.191645723288561,-1.587405803084801
-3.981,-1.970568487899394,-1.862918401619155
-3.9805,-2.493407055925843,-1.88411167842949
-3.98,-1.906547438753298,-1.587405803084801
-3.9795,-0.9462317015618604,-0.8562377531282487
-3.979,-0.1779791118087102,-0.3475991096802118
-3.9785,0.3021787567870086,-0.1038764263613609
-3.978,0.5475927785137094,0.01268659609548085
-3.9775,0.6436243522328531,0.06566978812131802
-3.977,0.6649647019482183,0.002089957690313421
-3.9765,0.6542945270905358,-0.2098428104130352
-3.976,0.6222840025174878,-0.1462629799820306
-3.9755,0.5689331282290746,0.07626642652648545
-3.975,0.5369226036560266,0.1716361721729923
-3.9745,0.5049120790829789,0.309392471440169
-3.974,0.5582629533713921,0.2776025562246667
-3.9735,1.113112045970889,-0.1992461720078678
-3.973,1.582599739708926,-0.8032545611024114
-3.9725,1.411876941986003,-1.280103289334946
-3.972,0.6542945270905358,-1.481439419033127
-3.9715,-0.5621054066852853,-1.364876396576285
-3.971,-1.565101843307454,-1.068170521231597
-3.9705,-1.725154466172693,-0.6866915386455698
-3.97,-1.159635198715513,0.02328323450064829
-3.9695,-0.4980843575391895,0.9451907757502149
-3.969,0.01408403562957729,1.761131932948107
-3.9685,0.3128489316446912,2.280367214801311
-3.968,0.4408910299368829,2.375736960447818
-3.9675,0.4622313796522482,2.174400830749637
-3.967,0.4302208550792003,1.973064701051456
-3.9665,0.3875401556484697,1.623375633680931
-3.966,0.3341892813600565,0.849821030103708
-3.9655,-0.03926683865883591,-0.02969995752518888
-3.965,-0.8822106524157645,-0.792657922697244
-3.9645,-1.714484291315011,-1.417859588602123
-3.964,-2.087940411333903,-1.809935209593318
-3.9635,-1.543761493592088,-1.629792356705471
-3.963,-0.722158029550525,-0.9728007755850904
-3.9625,-0.01792648894347063,-0.4641621321370536
-3.962,0.4302208550792003,-0.1462629799820306
-3.9615,0.6222840025174878,0.04447651131098315
-3.961,0.6649647019482183,0.07626642652648545
-3.9605,0.6436243522328531,0.01268659609548085
-3.96,0.6009436528021226,-0.06148987274069118
-3.9595,0.5902734779444399,-0.05089323433552374
-3.959,0.5475927785137094,0.08686306493165288
-3.9585,0.5155822539406614,0.2246193641988295
-3.958,0.5049120790829789,0.2670059178194992
-3.9575,0.5049120790829789,0.2564092794143318
-3.957,0.857027849386506,-0.07208651114585861
-3.9565,1.454557641416734,-0.6654982618352349
-3.956,1.305175193409177,-1.174136905283272
-3.9555,0.5582629533713921,-1.407262950196955
-3.955,-0.5514352318276028,-1.322489842955616
-3.9545,-1.426389570157579,-1.046977244421262
-3.954,-1.458400094730627,-0.6125150698093976
-3.9535,-0.9248913518464952,0.1292496185523226
-3.953,-0.3487019095316325,1.082947075017392
-3.9525,0.08877525963335578,1.920081509025619
-3.952,0.3448594562177392,2.460510067689158
-3.9515,0.4515612047945656,2.651249558982172
-3.951,0.4622313796522482,2.449913429283991
-3.9505,0.4302208550792003,2.110821000318633
-3.95,0.3982103305061524,1.6657621873016
-3.9495,0.3341892813600565,1.093543713422559
-3.949,0.1101156093487211,0.3729723018711736
-3.9485,-0.5834457564006506,-0.4111789401112165
-3.948,-1.437059745015262,-1.089363798041932
-3.9475,-2.07727023647622,-1.619195718300304
-3.947,-1.767835165603424,-1.778145294377815
-3.9465,-0.9142211769888124,-1.301296566145281
-3.946,-0.156638762093345,-0.7078848154559045
-3.9455,0.3448594562177392,-0.2840192792492073
-3.945,0.5902734779444399,-0.01910331912002144
-3.9445,0.6542945270905358,0.09745970333682032
-3.944,0.6436243522328531,0.04447651131098315
-3.9435,0.6116138276598051,-0.1144730647665284
-3.943,0.6649647019482183,-0.1674562567923655
-3.9425,0.6863050516635838,0.01268659609548085
-3.942,0.6329541773751706,0.1716361721729923
-3.9415,0.5689331282290746,0.2670059178194992
-3.941,0.5049120790829789,0.3199891098453364
-3.9405,0.6542945270905358,0.1292496185523226
-3.94,1.305175193409177,-0.4429688553267188
-3.9395,1.625280439139656,-1.01518732920576
-3.939,1.209143619690033,-1.354279758171118
-3.9385,0.1101156093487211,-1.354279758171118
-3.938,-1.074273799854052,-1.110557074852267
-3.9375,-1.682473766741963,-0.7502713690765743
-3.937,-1.394379045584531,-0.1886495336027004
-3.9365,-0.7648387289812555,0.6908714540261965
-3.936,-0.1886492866663929,1.623375633680931
-3.9355,0.1954770082101822,2.312157130016814
-3.935,0.3875401556484697,2.672442835792507
-3.9345,0.4622313796522482,2.640652920577004
-3.934,0.4408910299368829,2.375736960447818
-3.9335,0.3982103305061524,1.983661339456623
-3.933,0.3661998059331045,1.390249588767247
-3.9325,0.2808384070716433,0.6060983467848571
-3.932,-0.1459685872356623,-0.2628260024388724
-3.9315,-0.7114878546928423,-1.004590690800593
-3.931,-1.447729919872945,-1.587405803084801
-3.9305,-1.885207089037933,-1.88411167842949
-3.93,-1.575772018165136,-1.778145294377815
-3.9295,-0.8288597781273515,-1.121153713257435
-3.929,-0.156638762093345,-0.570128516188728
-3.9285,0.2808384070716433,-0.252229364033705
-3.928,0.5049120790829789,-0.07208651114585861
-3.9275,0.5902734779444399,-0.02969995752518888
-3.927,0.5902734779444399,-0.07208651114585861
-3.9265,0.6542945270905358,-0.2416327256285375
-3.926,0.7823366253827275,-0.2628260024388724
-3.9255,0.7396559259519968,0.04447651131098315
-3.925,0.6329541773751706,0.5637117931641874
-3.9245,0.5369226036560266,0.9451907757502149
-3.924,0.5262524287983441,0.8922075837243778
-3.9235,1.038420821967111,0.2670059178194992
-3.923,1.785333062004896,-0.5383386009732256
-3.9225,2.254820755742932,-1.131750351662602
-3.922,1.774662887147213,-1.417859588602123
-3.9215,0.3555296310754218,-1.38606967338662
-3.921,-0.807519428411986,-1.152943628472937
-3.9205,-1.042263275281004,-0.570128516188728
-3.92,-0.7114878546928423,0.3941655786815084
-3.9195,-0.2633405106701714,1.316073119931075
-3.919,0.08877525963335578,1.951871424241121
-3.9185,0.3128489316446912,2.290963853206479
-3.918,0.408880505363835,2.269770576396144
-3.9175,0.4195506802215176,1.994257977861791
-3.917,0.3982103305061524,1.655165548896433
-3.9165,0.3448594562177392,1.146526905448396
-3.916,0.2808384070716433,0.383568940276341
-3.9155,-0.04993701351651855,-0.400582301706049
-3.915,-0.8608703027003992,-1.05757388282643
-3.9145,-1.682473766741963,-1.598002441489969
-3.914,-2.151961460479999,-1.862918401619155
-3.9135,-1.543761493592088,-1.566212526274467
-3.913,-0.6367966306890638,-1.01518732920576
-3.9125,0.05676473506030786,-0.474758770542221
-3.912,0.4408910299368829,-0.1038764263613609
-3.9115,0.6222840025174878,0.03387987290581572
-3.911,0.6329541773751706,0.1080563417419877
-3.9105,0.5902734779444399,0.08686306493165288
-3.91,0.5582629533713921,-0.1038764263613609
-3.9095,0.5369226036560266,-0.1886495336027004
-3.909,0.5049120790829789,-0.01910331912002144
-3.9085,0.4835717293676135,0.1504428953626575
-3.908,0.4622313796522482,0.309392471440169
-3.9075,0.4515612047945656,0.3517790250608387
-3.907,0.7716664505250448,0.05507314971615059
-3.9065,1.326515543124542,-0.5595318777835605
-3.906,1.19847344483235,-1.089363798041932
-3.9055,0.4408910299368829,-1.269506650929778
-3.905,-0.658136980404429,-1.163540266878104
-3.9045,-1.586442193022819,-0.9092209451540858
-3.904,-1.67180359188428,-0.4641621321370536
-3.9035,-1.1062843244271,0.3941655786815084
-3.903,-0.4554036581084589,1.390249588767247
-3.9025,0.02475421048725994,2.16380419234447
-3.902,0.3128489316446912,2.619459643766669
-3.9015,0.4302208550792003,2.746619304628679
-3.901,0.4515612047945656,2.577073090146
-3.9005,0.408880505363835,2.248577299585809
-3.9,0.3555296310754218,1.623375633680931
-3.8995,0.3128489316446912,1.040560521396722
-3.899,0.08877525963335578,0.1928294489833272
-3.8985,-0.6367966306890638,-0.6549016234300674
-3.898,-1.490410619303675,-1.34368311976595
-3.8975,-2.151961460479999,-1.820531847998485
-3.897,-1.757164990745741,-1.873515040024322
-3.8965,-0.8928808272734472,-1.439052865412457
-3.896,-0.1459685872356623,-0.8562377531282487
-3.8955,0.3128489316446912,-0.474758770542221
-3.895,0.5582629533713921,-0.2946159176543747
-3.8945,0.6222840025174878,-0.1780528951975329
-3.894,0.6009436528021226,-0.1462629799820306
-3.8935,0.5796033030867573,-0.2416327256285375
-3.893,0.6436243522328531,-0.400582301706049
-3.8925,0.6969752265212663,-0.08268314955102604
-3.892,0.6542945270905358,0.3305857482505039
-3.8915,0.6116138276598051,0.4683420475176805
-3.891,0.5582629533713921,0.4789386859228479
-3.8905,0.4729015545099309,0.2564092794143318
-3.89,0.857027849386506,-0.3687923864905467
-3.8895,1.433217291701369,-0.9622041371799229
-3.889,1.433217291701369,-1.301296566145281
-3.8885,0.5475927785137094,-1.333086481360783
-3.888,-0.690147504977477,-1.131750351662602
-3.8875,-1.405049220442214,-0.8350444763179138
-3.887,-1.255666772434657,-0.2840192792492073
-3.8865,-0.7114878546928423,0.55311515475902
-3.886,-0.1993194615240755,1.432636142387917
-3.8855,0.1634664836371343,2.068434446697963
