Class_3_Grab_w_two_Hands/Class_3_Grab_with_Two_Hands_Suko_8.csv

#Digilent WaveForms Oscilloscope Acquisition
#Device Name: EExplorer
#Serial Number: SN:210151A2B84A
#Date Time: 2021-01-27 14:58:05.880
#Sample rate: 2000Hz
#Samples: 16384
#Trigger: Source: Channel 1 Type: Edge Condition: Rising Level: 0 V Hyst.: Auto HoldOff: 0 s
#Channel 1: Range: 1 V/div Offset: 0 V Attenuation: 1 X
#Channel 2: Range: 1 V/div Offset: 0 V Attenuation: 1 X
#Channel 4: Range: 1 V/div Offset: 0 V Attenuation: 1 X
#Power Supplies: ON
#Fixed Supply: ON
#Voltage: 3.3 V Readback: 3.317 V
#Positive Supply: ON
#Voltage: 3.7 V Readback: 3.673 V
#Current: 40 mA Readback: 13 mA
#Negative Supply: ON
#Voltage: -3.7 V Readback: -3.334 V
#Current: -40 mA Readback: -4 mA
#Reference 1: ON
#Voltage: 0 V
#Reference 2: ON
#Voltage: 0 V

Time (s),Channel 1 (V),Channel 2 (V),Channel 4 (V)
-4.096,0.6009436528021226,-0.3475991096802118,-0.07436953688352363
-4.0955,1.038420821966713,-0.9939940523948374,-0.05320338206184462
-4.095,1.305175193409196,-1.492036057438256,-0.04262030465096663
-4.0945,1.326515543124542,-1.449649503817625,-0.03203722724012713
-4.094,1.177133095117121,-0.9092209451545773,-0.02145414982928762
-4.0935,0.9530594231053877,-0.2310360872229171,-0.03203722724012713
-4.093,0.6649647019482183,0.2670059178194992,-0.03203722724012713
-4.0925,0.398210330506395,0.5743084315690754,-0.03203722724012713
-4.092,0.1848068333523734,0.701468092431364,-0.03203722724012713
-4.0915,0.04609456020262521,0.701468092431364,-0.03203722724012713
-4.091,-0.02859666380115328,0.6484849004055269,-0.021454149829278
-4.0905,-0.01792648894347063,0.6378882620002727,0.03146123722496762
-4.09,-0.01792648894347063,0.5425185163538525,0.03146123722496762
-4.0895,-0.02859666380115328,0.3941655786815084,0.03146123722496762
-4.089,-0.06060718837417207,0.2246193641989837,0.01029508240328863
-4.0885,-0.09261771294724913,0.1186529801471552,-0.000287995007579752
-4.088,-0.2420001609548061,0.2034260873884947,-0.021454149829278
-4.0875,-0.7008176798347425,0.5849050699741752,-0.0320372272401175
-4.087,-1.223656247861949,0.8180311148879263,-0.04262030465099551
-4.0865,-1.597112367880501,0.5107286011383502,-0.0637864594726745
-4.086,-1.458400094730753,0.05507314971656496,-0.053203382061835
-4.0855,-0.9889124009921836,-0.2416327256286628,-0.05320338206181575
-4.085,-0.5407650569699201,-0.3793890248957141,-0.04262030465097626
-4.0845,-0.2313299860974049,-0.4005823017060298,-0.04262030465097626
-4.084,-0.04993701351646033,-0.3581957480853022,-0.04262030465098588
-4.0835,0.01408403562957729,-0.2734226408440398,-0.05320338206182537
-4.083,0.03542438534494258,-0.1780528951975329,-0.04262030465097626
-4.0825,0.01408403562956759,-0.0720865111457526,-0.05320338206188312
-4.082,0.00341386077189465,0.04447651131098315,-0.1167018465269201
-4.0815,-0.01792648894347063,0.1292496185523226,-0.1378680013486184
-4.081,-0.007256314085797692,0.1504428953626382,-0.1378680013486184
-4.0805,0.01408403562957729,0.2034260873884947,-0.1167018465269201
-4.08,0.04609456020262521,0.2352160026039969,-0.09553569170522189
-4.0795,0.3768699807904863,0.01268659609568323,-0.07436953688354288
-4.079,0.8570278493865934,-0.5383386009736882,-0.06378645947266487
-4.0785,0.9530594231056497,-1.046977244421262,-0.05320338206182537
-4.078,0.9423892482479767,-1.354279758170838,-0.03203722724014638
-4.0775,0.9637295979632743,-1.121153713256972,-0.0320372272401175
-4.077,0.8997085488172365,-0.6125150698093976,-0.021454149829278
-4.0765,0.7289857510944695,-0.02969995752571886,-0.0320372272401175
-4.076,0.4835717293674194,0.457745409112754,-0.03203722724012713
-4.0755,0.2701682322139607,0.7226613692416989,-0.03203722724012713
-4.075,0.09944543449103843,0.7862411996727035,-0.03203722724012713
-4.0745,0.003413860771904355,0.7226613692416314,-0.04262030465092813
-4.074,0.01408403562957729,0.6484849004055269,0.01029508240326937
-4.0735,0.05676473506030786,0.5743084315693548,0.03146123722496762
-4.073,0.04609456020263492,0.4577454091126191,0.02087815981412813
-4.0725,0.01408403562957729,0.309392471440169,0.0208781598141185
-4.072,-0.02859666380115328,0.1504428953626575,-0.000287995007579752
-4.0715,-0.1352984123778826,0.09745970333686851,-0.01087107241841925
-4.071,-0.6581369804049725,0.4365521323026408,-0.03203722724013675
-4.0705,-1.255666772434657,0.9451907757502149,-0.04262030465097626
-4.07,-1.661133417026229,0.9663840525605305,-0.05320338206181575
-4.0695,-1.959898313041595,0.3623756634653508,-0.074369536883514
-4.069,-1.83185621474952,-0.3581957480853793,-0.0637864594726745
-4.0685,-1.255666772434657,-0.570128516188728,-0.04262030465097626
-4.068,-0.7008176798348007,-0.4853554089472247,-0.04262030465097626
-4.0675,-0.3060212101009019,-0.3052125560595421,-0.04262030465097626
-4.067,-0.07127736323188383,-0.1250697031716958,-0.04262030465097626
-4.0665,0.02475421048727934,0.01268659609557723,-0.05320338206181575
-4.066,0.04609456020262521,0.1186529801471552,-0.04262030465097626
-4.0655,0.03542438534494258,0.1928294489833272,-0.08495261429437276
-4.065,0.0140840356295967,0.2458126410091162,-0.1378680013485702
-4.0645,-0.007256314085787988,0.2987958330350016,-0.1378680013486184
-4.064,-0.007256314085787988,0.3199891098453364,-0.1272849239377692
-4.0635,0.02475421048723082,0.288199194629863,-0.1061187691160903
-4.063,0.1741366584952827,0.1398462569569985,-0.08495261429435351
-4.0625,0.6863050516635838,-0.400582301706049,-0.0637864594726745
-4.062,0.9957401225360988,-1.046977244420674,-0.053203382061835
-4.0615,1.006410297394073,-1.407262950196791,-0.03203722724012713
-4.061,1.017080472251745,-1.227120097309109,-0.03203722724012713
-4.0605,0.9957401225363802,-1.142346990067769,-0.03203722724012713
-4.06,0.8783681991016772,-0.7714646458865623,-0.03203722724012713
-4.0595,0.6649647019482183,-0.3899856633008816,-0.03203722724012713
-4.059,0.3982103305061524,-0.1144730647665284,-0.03203722724012713
-4.0585,0.1848068333526937,0.07626642652631199,-0.03203722724012713
-4.058,0.04609456020262521,0.1822328105781598,-0.03203722724012713
-4.0575,-0.007256314085787988,0.2352160026039969,-0.01087107241842888
-4.057,0.003413860771884946,0.2987958330349437,0.03146123722492912
-4.0565,0.00341386077189465,0.309392471440169,0.03146123722496762
-4.056,-0.01792648894347063,0.309392471440169,0.0208781598141185
-4.0555,-0.03926683865881651,0.3199891098453267,0.010295082403279
-4.055,-0.07127736323216526,0.2670059178196727,-0.01087107241844813
-4.0545,-0.3807124341046804,0.457745409112513,-0.03203722724012713
-4.054,-0.9782422261343651,0.8710143069136671,-0.04262030465096663
-4.0535,-1.437059745015553,0.9345941373445752,-0.05320338206184462
-4.053,-1.757164990745741,0.4153588554918433,-0.07436953688352363
-4.0525,-1.821186039891837,-0.2946159176543747,-0.0637864594726745
-4.052,-1.330357996437931,-0.4747587705420958,-0.05320338206181575
-4.0515,-0.7755089038389382,-0.3370024712750445,-0.04262030465097626
-4.051,-0.3593720843893152,-0.1038764263613609,-0.04262030465097626
-4.0505,-0.1032878878051647,0.108056341741795,-0.04262030465097626
-4.05,0.00341386077189465,0.2776025562246667,-0.05320338206182537
-4.0495,0.04609456020262521,0.3941655786815084,-0.04262030465097626
-4.049,0.03542438534495228,0.468342047517613,-0.07436953688349476
-4.0485,0.01408403562955789,0.5107286011383502,-0.1272849239377789
-4.048,-0.007256314085787988,0.5107286011383502,-0.1378680013486184
-4.0475,-0.007256314085787988,0.4789386859228768,-0.1272849239377789
-4.047,0.01408403562966463,0.4153588554917084,-0.1061187691160614
-4.0465,0.1101156093487211,0.2670059178194992,-0.09553569170522189
-4.046,0.5796033030863303,-0.2628260024383906,-0.07436953688354288
-4.0455,0.9850699476787851,-0.9622041371804626,-0.06378645947265525
-4.045,1.081101521397841,-1.555615887869299,-0.04262030465097626
-4.0445,1.145122570543937,-1.873515040024322,-0.03203722724012713
-4.044,1.102441871113042,-1.587405803084271,-0.021454149829278
-4.0435,0.9210488985326017,-1.004590690800593,-0.021454149829278
-4.043,0.6756348768059011,-0.2946159176543747,-0.021454149829278
-4.0425,0.4088805053640777,0.2246193641983573,-0.0320372272401175
-4.042,0.1954770082101822,0.4259554938970107,-0.03203722724012713
-4.0415,0.04609456020262521,0.4365521323021782,-0.04262030465097626
-4.041,-0.007256314085739464,0.3517790250609158,-0.03203722724013675
-4.0405,0.07810508477570226,0.3411823866556134,0.03146123722496762
-4.04,0.1101156093487211,0.2776025562246667,0.03146123722496762
-4.0395,0.06743490991802932,0.1716361721730887,0.02087815981412813
-4.039,0.01408403562953848,0.07626642652638907,0.01029508240325012
-4.0385,-0.02859666380115328,-0.02969995752518888,-0.01087107241842888
-4.038,-0.1993194615239203,0.0126865960954423,-0.02145414982926837
-4.0375,-0.7328282044086734,0.4259554938970975,-0.03203722724014638
-4.037,-1.244996597576974,0.5213252395435176,-0.05320338206182537
-4.0365,-1.618452717595867,0.06566978812131802,-0.0637864594726745
-4.036,-1.874536914179891,-0.5595318777837147,-0.06378645947265525
-4.0355,-1.479740444445993,-0.7290780922662394,-0.04262030465097626
-4.035,-0.9248913518464952,-0.5595318777835605,-0.04262030465097626
-4.0345,-0.4554036581088859,-0.2946159176546156,-0.04262030465097626
-4.034,-0.1673089369510276,-0.05089323433552374,-0.04262030465097626
-4.0335,-0.01792648894347063,0.13984625695749,-0.04262030465097626
-4.033,0.03542438534489405,0.2776025562245414,-0.04262030465097626
-4.0325,0.03542438534492317,0.372972301871241,-0.05320338206188312
-4.032,0.01408403562957729,0.4471487707073456,-0.1167018465269201
-4.0315,0.003413860771904354,0.4895353243279768,-0.1378680013485991
-4.031,-0.007256314085778284,0.5001319627331732,-0.1378680013485991
-4.0305,0.00341386077189465,0.4895353243280153,-0.1167018465269201
-4.03,0.05676473506025934,0.3835689402764374,-0.09553569170524114
-4.0295,0.2488278824988865,0.1716361721725972,-0.074369536883514
-4.029,0.5689331282290746,-0.2628260024388724,-0.0637864594726745
-4.0285,0.6436243522328531,-0.8244478379127463,-0.05320338206182537
-4.028,0.8250173248136036,-1.152943628472773,-0.03203722724012713
-4.0275,0.9850699476786977,-0.9728007755850904,-0.03203722724012713
-4.027,0.974399772821015,-0.5277419625680583,-0.03203722724012713
-4.0265,0.803676975098248,-0.09327978795658859,-0.03203722724012713
-4.026,0.5475927785137094,0.2034260873884947,-0.03203722724012713
-4.0255,0.3021787567870086,0.3623756634660061,-0.03203722724012713
-4.025,0.1207857842065687,0.3835689402763218,-0.03203722724012713
-4.0245,0.01408403562957729,0.3199891098453075,-0.03203722724008862
-4.024,0.01408403562957729,0.2881991946298341,0.01029508240326937
-4.0235,0.03542438534492317,0.3093924714401497,0.03146123722494837
-4.023,0.02475421048723082,0.2246193641987235,0.031461237224958
-4.0225,-0.007256314085787988,0.1080563417419877,0.0208781598141185
-4.022,-0.02859666380113387,0.01268659609556759,-0.0002879950075605001
-4.0215,-0.09261771294759849,-0.04029659593002863,-0.01087107241844813
-4.021,-0.4767440078238243,0.3199891098453364,-0.03203722724012713
-4.0205,-1.148965023857831,0.92399749893988,-0.03203722724012713
-4.02,-1.821186039892361,1.358459673551408,-0.05320338206185424
-4.0195,-2.3973754822067,0.9875773293708847,-0.08495261429437276
-4.019,-2.162631635337682,0.2564092794143318,-0.0637864594726745
-4.0185,-1.373038695869884,-0.07208651114555986,-0.04262030465099551
-4.018,-0.7328282044082075,-0.1250697031716958,-0.04262030465097626
-4.0175,-0.2953510352432193,-0.04029659593035631,-0.04262030465097626
-4.017,-0.04993701351674176,0.08686306493153723,-0.04262030465097626
-4.0165,0.04609456020264462,0.2246193641989355,-0.04262030465097626
-4.016,0.0674349099179905,0.3411823866556712,-0.04262030465097626
-4.0155,0.04609456020264462,0.4471487707072492,-0.08495261429433426
-4.015,0.01408403562956759,0.5107286011383598,-0.1272849239377789
-4.0145,0.00341386077189465,0.5213252395435176,-0.1378680013486184
-4.014,0.00341386077189465,0.5107286011383598,-0.1272849239377789
-4.0135,0.03542438534509785,0.4471487707071818,-0.1061187691160518
-4.013,0.2061471830678648,0.2670059178194992,-0.08495261429437276
-4.0125,0.7396559259519968,-0.3052125560595421,-0.0637864594726745
-4.012,1.134452395686361,-0.9728007755855627,-0.05320338206180612
-4.0115,1.251824319120764,-1.492036057438295,-0.03203722724012713
-4.011,1.251824319120764,-1.640388995110639,-0.03203722724012713
-4.0105,1.113112045971015,-1.195330182094011,-0.02145414982928762
-4.01,0.8676980242441885,-0.570128516188728,-0.021454149829278
-4.0095,0.5689331282290746,-0.008506680714854012,-0.03203722724012713
-4.009,0.3021787567872513,0.3305857482501954,-0.03203722724012713
-4.0085,0.110115609348624,0.457745409112513,-0.03203722724012713
-4.008,0.00341386077189465,0.457745409112513,-0.03203722724012713
-4.0075,-0.01792648894345122,0.4047622170867241,-0.0002879950076086282
-4.007,0.0674349099180002,0.4047622170865795,0.03146123722496762
-4.0065,0.07810508477567314,0.2987958330350016,0.03146123722496762
-4.006,0.03542438534494258,0.1292496185523226,0.0208781598141185
-4.0055,-0.01792648894350944,-0.02969995752530453,0.01029508240325012
-4.005,-0.06060718837420119,-0.1568596183871981,-0.01087107241842888
-4.0045,-0.3060212101009019,0.002089957690313421,-0.03203722724012713
-4.004,-0.7755089038393749,0.4365521323022071,-0.03203722724014638
-4.0035,-1.255666772434657,0.4683420475176805,-0.05320338206182537
-4.003,-1.682473766741963,-0.04029659593035631,-0.07436953688352363
-4.0025,-1.746494815888,-0.6125150698088772,-0.06378645947268413
-4.002,-1.277007122150022,-0.6760949002404023,-0.04262030465097626
-4.0015,-0.7434983792658902,-0.4853554089473885,-0.04262030465097626
-4.001,-0.3380317346743186,-0.2416327256287592,-0.04262030465097626
-4.0005,-0.103287887804825,-0.02969995752505395,-0.04262030465097626
-4,0.01408403562957729,0.1186529801471552,-0.04262030465097626
-3.9995,0.04609456020262521,0.2352160026039969,-0.04262030465097626
-3.999,0.03542438534494258,0.3199891098453364,-0.07436953688352363
-3.9985,0.01408403562957729,0.3729723018711736,-0.1272849239377692
-3.998,-0.007256314085787988,0.4259554938970107,-0.1378680013486184
-3.9975,-0.01792648894347063,0.457745409112513,-0.1272849239377692
-3.997,0.00341386077189465,0.4365521323021782,-0.106118769116071
-3.9965,0.1101156093487211,0.2564092794143318,-0.09553569170522189
-3.996,0.5049120790829789,-0.252229364033705,-0.07436953688352363
-3.9955,0.825017324813458,-0.8986243067489184,-0.0637864594726745
-3.995,0.9957401225363802,-1.407262950196955,-0.04262030465097626
-3.9945,1.19847344483235,-1.364876396576285,-0.021454149829278
-3.994,1.145122570543937,-0.8986243067489184,-0.021454149829278
-3.9935,0.9530594231056497,-0.3475991096802118,-0.03203722724012713
-3.993,0.6969752265212663,0.1610395337678249,-0.03203722724012713
-3.9925,0.4408910299368829,0.5319218779486851,-0.03203722724012713
-3.992,0.2168173579255475,0.6802748156210291,-0.03203722724012713
-3.9915,0.0674349099179905,0.6590815388106942,-0.03203722724012713
-3.991,-0.007256314085787988,0.5637117931641874,-0.021454149829278
-3.9905,0.05676473506030786,0.5001319627331828,0.03146123722496762
-3.99,0.07810508477567314,0.4047622170866759,0.03146123722496762
-3.9895,0.04609456020262521,0.2458126410091644,0.0208781598141185
-3.989,0.00341386077189465,0.08686306493165288,0.01029508240326937
-3.9885,-0.03926683865883591,-0.06148987274069118,-0.000287995007579752
-3.988,-0.1779791118087102,-0.01910331912002144,-0.021454149829278
-3.9875,-0.7114878546928423,0.457745409112513,-0.03203722724012713
-3.987,-1.351698346153801,0.8180311148882058,-0.04262030465097626
-3.9865,-1.906547438753298,0.6590815388106942,-0.0637864594726745
-3.986,-1.949228138184029,0.09745970333682032,-0.0637864594726745
-3.9855,-1.373038695869166,-0.2310360872233701,-0.05320338206182537
-3.985,-0.7861790786966207,-0.3370024712750445,-0.04262030465097626
-3.9845,-0.3487019095316325,-0.3052125560595421,-0.04262030465097626
-3.984,-0.09261771294724913,-0.2204394488182027,-0.04262030465097626
-3.9835,0.01408403562957729,-0.1144730647665284,-0.05320338206182537
-3.983,0.04609456020262521,-0.008506680714854012,-0.04262030465097626
-3.9825,0.04609456020262521,0.09745970333682032,-0.05320338206182537
-3.982,0.01408403562957729,0.1928294489833272,-0.1167018465269201
-3.9815,0.00341386077189465,0.2352160026039969,-0.1378680013486184
-3.981,0.00341386077189465,0.2352160026039969,-0.1378680013486184
-3.9805,0.01408403562957729,0.2564092794143318,-0.1167018465269201
-3.98,0.04609456020262521,0.2564092794143318,-0.09553569170522189
-3.9795,0.3235191065023739,0.01268659609548085,-0.07436953688352363
-3.979,0.6863050516635838,-0.5383386009732256,-0.0637864594726745
-3.9785,0.707645401378949,-1.05757388282643,-0.04262030465097626
-3.978,0.6969752265212663,-1.131750351662602,-0.021454149829278
-3.9775,0.8143471499557753,-0.8456411147230812,-0.03203722724012713
-3.977,0.8463576745288233,-0.6866915386455698,-0.03203722724012713
-3.9765,0.707645401378949,-0.3370024712750445,-0.03203722724012713
-3.976,0.4515612047945656,0.01268659609548085,-0.03203722724012713
-3.9755,0.2274875327832301,0.2352160026039969,-0.03203722724012713
-3.975,0.07810508477567314,0.3411823866556712,-0.03203722724012713
-3.9745,-0.007256314085787988,0.3729723018711736,-0.03203722724012713
-3.974,0.01408403562957729,0.3941655786815084,0.0208781598141185
-3.9735,0.05676473506030786,0.4047622170866759,0.03146123722496762
-3.973,0.04609456020262521,0.3411823866556712,0.03146123722496762
-3.9725,0.01408403562957729,0.2564092794143318,0.0208781598141185
-3.972,-0.01792648894347063,0.1610395337678249,-0.000287995007579752
-3.9715,-0.09261771294724913,0.1292496185523226,-0.01087107241842888
-3.971,-0.4767440078238243,0.4683420475176805,-0.03203722724012713
-3.9705,-1.138294849000148,1.019367244586387,-0.03203722724012713
-3.97,-1.693143941599645,1.33726639674141,-0.05320338206182537
-3.9695,-2.002579012472442,0.9557874141553824,-0.07436953688352363
-3.969,-1.639793067311232,0.3517790250608387,-0.0637864594726745
-3.9685,-1.031593100423322,0.01268659609548085,-0.05320338206182537
-3.968,-0.5300948821122373,-0.1250697031716958,-0.04262030465097626
-3.9675,-0.1886492866663929,-0.1250697031716958,-0.04262030465097626
-3.967,-0.01792648894347063,-0.04029659593035631,-0.04262030465097626
-3.9665,0.04609456020262521,0.05507314971615059,-0.04262030465097626
-3.966,0.04609456020262521,0.1716361721729923,-0.04262030465097626
-3.9655,0.03542438534494258,0.2670059178194992,-0.09553569170522189
-3.965,0.01408403562957729,0.3517790250608387,-0.1272849239377692
-3.9645,-0.007256314085787988,0.4047622170866759,-0.1378680013486184
-3.964,0.00341386077189465,0.383568940276341,-0.1272849239377692
-3.9635,0.02475421048725994,0.3517790250608387,-0.106118769116071
-3.963,0.1634664836371343,0.1928294489833272,-0.08495261429437276
-3.9625,0.5796033030867573,-0.3158091944647096,-0.0637864594726745
-3.962,0.8676980242441885,-0.9410108603695881,-0.0637864594726745
-3.9615,0.974399772821015,-1.237716735714276,-0.03203722724012713
-3.961,1.070431346540159,-0.7290780922662394,-0.021454149829278
-3.9605,1.038420821967111,-0.4111789401112165,-0.03203722724012713
-3.96,0.8463576745288233,-0.2204394488182027,-0.03203722724012713
-3.9595,0.5796033030867573,0.01268659609548085,-0.03203722724012713
-3.959,0.3235191065023739,0.1928294489833272,-0.03203722724012713
-3.9585,0.1314559590640864,0.2987958330350016,-0.03203722724012713
-3.958,0.01408403562957729,0.3199891098453364,-0.04262030465097626
-3.9575,-0.007256314085787988,0.3199891098453364,-0.01087107241842888
-3.957,0.03542438534494258,0.3305857482505039,0.03146123722496762
-3.9565,0.03542438534494258,0.2564092794143318,0.03146123722496762
-3.956,0.01408403562957729,0.1716361721729923,0.0208781598141185
-3.9555,-0.01792648894347063,0.07626642652648545,-0.000287995007579752
-3.955,-0.03926683865883591,0.002089957690313421,-0.01087107241842888
-3.9545,-0.2953510352432193,0.2140227257936621,-0.03203722724012713
-3.954,-0.8822106524157645,0.775644561267536,-0.04262030465097626
-3.9535,-1.298347471865388,1.061753798207057,-0.04262030465097626
