Class_3_Grab_w_two_Hands/Class_3_Grab_with_two_hands_Basim_5.csv

#Digilent WaveForms Oscilloscope Acquisition
#Device Name: EExplorer
#Serial Number: SN:210151A2B84A
#Date Time: 2020-12-13 12:22:31.943
#Sample rate: 2000Hz
#Samples: 16384
#Trigger: Source: Channel 1 Type: Edge Condition: Rising Level: 0 V Hyst.: Auto HoldOff: 0 s
#Channel 1: Range: 1 V/div Offset: 0 V Attenuation: 1 X
#Channel 2: Range: 1 V/div Offset: 0 V Attenuation: 1 X
#Power Supplies: ON
#Fixed Supply: ON
#Voltage: 3.3 V Readback: 3.324 V
#Positive Supply: ON
#Voltage: 3.7 V Readback: 3.712 V
#Current: 40 mA Readback: 19 mA
#Negative Supply: ON
#Voltage: -3.7 V Readback: -3.352 V
#Current: -40 mA Readback: -7 mA
#Reference 1: ON
#Voltage: 0 V
#Reference 2: ON
#Voltage: 0 V

Time (s),Channel 1 (V),Channel 2 (V)
-4.096,0.5582629533713921,-1.619195718300304
-4.0955,-0.09261771294665722,-1.799338571187986
-4.095,-0.2740106855278055,-1.280103289334291
-4.0945,-0.2206598112394408,-0.5595318777835605
-4.094,-0.1032878878050385,0.00208995768980258
-4.0935,0.003413860771952877,0.330585748250581
-4.093,0.0674349099179905,0.4153588554918433
-4.0925,0.09944543449100932,0.4365521323021589
-4.092,-0.03926683865890385,0.6590815388107424
-4.0915,-0.1139580626626144,0.7120647308365314
-4.091,-0.07127736323188383,0.5637117931641874
-4.0905,-0.0179264889434221,0.4153588554917373
-4.09,0.03542438534494258,0.2987958330350016
-4.0895,0.02475421048725994,0.3411823866556712
-4.089,-0.4447334832503493,0.8074344764826142
-4.0885,-1.127624674142465,0.6166949851900245
-4.088,-1.597112367880501,-0.1886495336027004
-4.0875,-1.9919088376144,-0.9622041371792194
-4.087,-1.863866739321956,-1.216523458903498
-4.0865,-1.191645723288561,-0.7290780922662394
-4.086,-0.5621054066858578,-0.08268314955161393
-4.0855,-0.1139580626623912,0.4577454091128311
-4.085,0.1314559590640864,0.8074344764830383
-4.0845,0.2381577076408157,0.9981739677758785
-4.084,0.2594980573562684,1.072350436612234
-4.0835,0.2488278824985954,1.082947075017392
-4.083,0.2274875327832301,1.051157159801889
-4.0825,0.2168173579255572,0.9981739677759653
-4.082,0.2274875327832301,0.9028042221295453
-4.0815,0.2594980573562781,0.775644561267536
-4.081,0.3875401556483533,0.5531151547592223
-4.0805,0.8890383739595538,-0.1356663415768632
-4.08,0.8783681991018712,-0.8880276683437509
-4.0795,0.3875401556489161,-1.513229334248061
-4.079,-0.02859666380119209,-1.894708316834252
-4.0785,-0.07127736323188383,-1.449649503817625
-4.078,-0.007256314085846219,-0.7396747306720526
-4.0775,0.04609456020263492,-0.2310360872230232
-4.077,0.05676473506030786,0.1504428953626575
-4.0765,0.05676473506030786,0.2881991946297088
-4.076,0.06743490991788376,0.2987958330351461
-4.0755,-0.04993701351651855,0.457745409112513
-4.075,-0.2206598112394408,0.6696781772158616
-4.0745,-0.1993194615239785,0.5955017083795644
-4.074,-0.09261771294724913,0.457745409112513
-4.0735,0.01408403562957729,0.3411823866556712
-4.073,0.07810508477561492,0.3093924714401979
-4.0725,-0.1352984123779797,0.6166949851900245
-4.072,-0.7968492535543035,0.6908714540261965
-4.0715,-1.415719395299334,0.01268659609609768
-4.071,-1.863866739322801,-0.7820612842925392
-4.0705,-2.119950935906951,-1.290699927740113
-4.07,-1.554431668450285,-1.015187329206011
-4.0695,-0.8502001278422218,-0.3370024712744662
-4.069,-0.3060212101009019,0.2987958330350016
-4.0685,0.04609456020262521,0.7438546460520338
-4.068,0.2061471830679231,1.008770606181326
-4.0675,0.2701682322139607,1.125333628638062
-4.067,0.2701682322139607,1.157123543853563
-4.0665,0.238157707640903,1.125333628638023
-4.066,0.2274875327832301,1.082947075017392
-4.0655,0.2274875327832301,0.9875773293708847
-4.065,0.3661998059329783,0.7438546460522555
-4.0645,0.8676980242441885,0.1292496185523226
-4.064,1.347855892839907,-0.570128516188728
-4.0635,1.667961138570095,-1.216523458903354
-4.063,1.401206767127787,-1.746355379162554
-4.0625,0.8143471499557753,-2.011271339291499
-4.062,0.4195506802218767,-1.57680916468003
-4.0615,0.2488278824985178,-1.004590690800149
-4.061,0.1634664836371343,-0.5171453241628908
-4.0605,0.1101156093487211,-0.1250697031716958
-4.06,0.0674349099180002,0.1186529801472323
-4.0595,0.07810508477567314,0.2034260873884947
-4.059,0.05676473506030786,0.1928294489833272
-4.0585,-0.07127736323176737,0.2246193641988006
-4.058,-0.07127736323188383,0.1928294489833272
-4.0575,-0.007256314085787988,0.1610395337678249
-4.057,0.05676473506024964,0.1610395337678249
-4.0565,0.09944543449103843,0.2034260873884947
-4.056,-0.1139580626626144,0.2034260873884947
-4.0555,-0.7541685541229907,-0.284019279248764
-4.055,-1.234326422719379,-0.9092209451545291
-4.0545,-1.330357996438436,-1.396666311791788
-4.054,-1.49041061930353,-1.650985633515575
-4.0535,-1.255666772434201,-1.17413690528252
-4.053,-0.754168554123573,-0.3475991096802118
-4.0525,-0.2953510352432193,0.3623756634660061
-4.052,0.01408403562972286,0.8392243916987718
-4.0515,0.1741366584948169,1.093543713422559
-4.051,0.2381577076409128,1.188913459069066
-4.0505,0.2488278824985857,1.178316820663908
-4.05,0.2381577076409128,1.114736990232894
-4.0495,0.2168173579255475,1.019367244586387
-4.049,0.2274875327832204,0.9028042221296513
-4.0485,0.2274875327833271,0.7968378380776492
-4.048,0.3341892813600565,0.55311515475902
-4.0475,0.8250173248130116,0.002089957690814548
-4.047,1.497238340847416,-0.7396747306719947
-4.0465,1.443887466559051,-1.38606967338662
-4.046,1.081101521398171,-1.862918401618721
-4.0455,0.8143471499555327,-1.799338571187533
-4.045,0.5475927785137094,-1.121153713257435
-4.0445,0.3128489316446912,-0.5595318777835605
-4.044,0.1634664836370469,-0.1674562567921053
-4.0435,0.0674349099179905,0.1186529801471552
-4.043,0.02475421048725994,0.2458126410091644
-4.0425,0.03542438534493288,0.26700591781948
-4.042,-0.124628237520297,0.5001319627331828
-4.0415,-0.1993194615240755,0.5849050699745222
-4.041,-0.124628237520365,0.4789386859229443
-4.0405,-0.02859666380107564,0.3517790250607712
-4.04,0.05676473506030786,0.2776025562246667
-4.0395,0.03542438534496199,0.2987958330349823
-4.039,-0.4233931335360612,0.415358855491506
-4.0385,-1.138294849000148,0.04447651131098315
-4.038,-1.714484291314487,-0.6443049850242736
-4.0375,-2.087940411333951,-1.237716735714488
-4.037,-2.141291285622316,-1.47084278062796
-4.0365,-1.437059745015262,-0.9198175835592532
-4.036,-0.7434983792654147,-0.1674562567917969
-4.0355,-0.2206598112394408,0.457745409112513
-4.035,0.08877525963335578,0.8604176685088755
-4.0345,0.227487532783104,1.072350436612032
-4.034,0.2701682322139607,1.146526905448396
-4.0335,0.2594980573562781,1.146526905448396
-4.033,0.2381577076409322,1.093543713422607
-4.0325,0.2168173579255572,1.029963882991458
-4.032,0.2274875327832301,0.92399749893988
-4.0315,0.248827882498576,0.7968378380779866
-4.031,0.5902734779450998,0.4047622170859627
-4.0305,1.315845368266859,-0.3793890248957141
-4.03,1.443887466558935,-1.089363798041286
-4.0295,1.017080472251445,-1.576809164679827
-4.029,0.6863050516635838,-1.788741932782983
-4.0285,0.5155822539406614,-1.51322933424863
-4.028,0.3768699807906706,-1.025783967610417
-4.0275,0.2488278824985954,-0.4641621321370536
-4.027,0.1527963087794516,-0.05089323433552374
-4.0265,0.09944543449108695,0.1504428953624743
-4.026,0.07810508477567314,0.2140227257936621
-4.0255,-0.03926683865883591,0.2564092794143318
-4.025,-0.2206598112392759,0.2140227257937006
-4.0245,-0.1779791118086229,0.1928294489833368
-4.024,-0.08194753808956648,0.2034260873884947
-4.0235,0.01408403562948995,0.235216002603968
-4.023,0.0781050847755858,0.2881991946301425
-4.0225,-0.01792648894347063,0.627291623595192
-4.022,-0.4980843575387528,0.7862411996725589
-4.0215,-1.180975548431471,0.1186529801464035
-4.021,-1.83185621474952,-0.7078848154559045
-4.0205,-2.247993034199143,-1.269506650929778
-4.02,-1.661133417025928,-1.036380606015507
-4.0195,-0.9248913518464952,-0.3899856633008816
-4.019,-0.3487019095316325,0.2246193641988295
-4.0185,0.02475421048692028,0.6590815388102991
-4.018,0.2061471830678648,0.9134008605347127
-4.0175,0.2701682322139607,1.029963882991555
-4.017,0.2701682322139607,1.061753798207028
-4.0165,0.2488278824985857,1.029963882991487
-4.016,0.2381577076409128,0.9557874141553824
-4.0155,0.2381577076409128,0.8710143069141201
-4.015,0.3021787567872803,0.712064730836146
-4.0145,0.6009436528021226,0.2881991946298341
-4.014,1.262494493977845,-0.4217755785157382
-4.0135,1.603940089423951,-1.131750351663132
-4.013,1.230483969405398,-1.714565463946811
-4.0125,0.6542945270905358,-2.074851169722503
-4.012,0.4088805053636992,-1.884111678428873
-4.0115,0.2594980573562781,-1.205926820498774
-4.011,0.1741366584948169,-0.5489352393783931
-4.0105,0.1207857842064522,-0.09327978795660785
-4.01,0.08877525963335578,0.1504428953626575
-4.0095,0.07810508477567314,0.2670059178194992
-4.009,0.05676473506032727,0.3199891098452882
-4.0085,-0.1246282375203067,0.2881991946298052
-4.008,-0.1352984123779797,0.2564092794143318
-4.0075,-0.07127736323194206,0.245812641009174
-4.007,0.003413860771943172,0.2564092794143703
-4.0065,0.05676473506030786,0.2987958330350016
-4.006,-0.03926683865883591,0.4789386859228479
-4.0055,-0.5941159312589834,0.8604176685084997
-4.005,-1.30901764672307,0.4471487707073456
-4.0045,-1.661133417026597,-0.3687923864905467
-4.004,-1.639793067310951,-1.099960436447302
-4.0035,-1.330357996438436,-1.322489842955616
-4.003,-0.7861790786966207,-0.8032545611024114
-4.0025,-0.3060212101013386,-0.1356663415774704
-4.002,0.01408403562957729,0.3941655786815084
-4.0015,0.1848068333524996,0.7438546460520338
-4.001,0.2488278824985372,0.9239974989397162
-4.0005,0.2488278824985857,0.9875773293708847
-4,0.2381577076409128,0.9875773293708847
-3.9995,0.2274875327832301,0.9345941373450475
-3.999,0.2488278824985954,0.8392243916985406
-3.9985,0.2488278824985954,0.775644561267536
-3.998,0.3021787567870086,0.6590815388106942
-3.9975,0.6863050516635838,0.1610395337678249
-3.997,1.315845368266859,-0.6019184314042303
-3.9965,1.433217291701369,-1.290699927740113
-3.996,1.017080472251745,-1.79933857118815
-3.9955,0.5369226036560266,-1.746355379162313
-3.995,0.2488278824985954,-1.184733543688439
-3.9945,0.1101156093487211,-0.5595318777835605
-3.994,0.08877525963335578,-0.09327978795619347
-3.9935,0.07810508477567314,0.1822328105781598
-3.993,0.07810508477567314,0.309392471440169
-3.9925,0.07810508477567314,0.3411823866556712
-3.992,-0.1032878878049318,0.5425185163538525
-3.9915,-0.1993194615240755,0.6166949851900245
-3.991,-0.1352984123779797,0.5107286011383502
-3.9905,-0.04993701351651855,0.4153588554918433
-3.99,0.01408403562957729,0.3517790250608387
-3.9895,0.01408403562957729,0.3305857482505039
-3.989,-0.3700422592469978,0.002089957690313421
-3.9885,-1.031593100423322,-0.6654982618352349
-3.988,-1.46907026958831,-1.269506650929778
-3.9875,-1.714484291315011,-1.725162102351978
-3.987,-1.682473766741963,-1.672178910326141
-3.9865,-1.138294849000148,-0.8774310299385835
-3.986,-0.5621054066852853,-0.08268314955102604
-3.9855,-0.1352984123779797,0.5001319627331828
-3.985,0.1207857842064037,0.849821030103708
-3.9845,0.2381577076409128,1.019367244586387
-3.984,0.2594980573562781,1.061753798207057
-3.9835,0.2488278824985954,1.029963882991555
-3.983,0.2381577076409128,0.9557874141553824
-3.9825,0.2488278824985954,0.8604176685088755
-3.982,0.2488278824985954,0.7544512844572011
-3.9815,0.2808384070716433,0.6378882620003594
-3.981,0.5262524287983441,0.309392471440169
-3.9805,1.241154144263081,-0.400582301706049
-3.98,1.667961138570387,-1.089363798041932
-3.9795,1.486568165989782,-1.619195718300304
-3.979,1.091771696255524,-1.725162102351978
-3.9785,0.707645401378949,-1.258910012524611
-3.978,0.4195506802215176,-0.7290780922662394
-3.9775,0.2488278824985954,-0.2204394488182027
-3.977,0.142126133921769,0.1716361721729923
-3.9765,0.09944543449103843,0.3623756634660061
-3.976,0.07810508477567314,0.4047622170866759
-3.9755,-0.02859666380115328,0.2987958330350016
-3.975,-0.2099896363817582,0.13984625695749
-3.9745,-0.1886492866663929,0.1292496185523226
-3.974,-0.09261771294724913,0.1822328105781598
-3.9735,0.00341386077189465,0.2670059178194992
-3.973,0.0674349099179905,0.3305857482505039
-3.9725,-0.1032878878049318,0.6060983467848571
-3.972,-0.754168554123573,0.8180311148882058
-3.9715,-1.341028171296118,0.1928294489833272
-3.971,-1.554431668449771,-0.6443049850249
-3.9705,-1.67180359188428,-1.258910012524611
-3.97,-1.277007122150022,-1.089363798041932
-3.9695,-0.7114878546928423,-0.4959520473525559
-3.969,-0.2526703358124887,0.09745970333682032
-3.9685,0.05676473506030786,0.5213252395435176
-3.968,0.2061471830678648,0.7650479228623686
-3.9675,0.2488278824985954,0.8816109453192104
-3.967,0.2488278824985954,0.92399749893988
-3.9665,0.2381577076409128,0.9028042221295453
-3.966,0.2274875327832301,0.849821030103708
-3.9655,0.2488278824985954,0.775644561267536
-3.965,0.3448594562177392,0.6378882620003594
-3.9645,0.4835717293676135,0.4365521323021782
-3.964,1.027750647109428,-0.1356663415768632
-3.9635,1.465227816274416,-0.8562377531282487
-3.963,1.145122570543937,-1.449649503817625
-3.9625,0.8036769750980928,-1.915901593644992
-3.962,0.79300680024041,-1.990078062481164
-3.9615,0.6756348768059011,-1.42845622700729
-3.961,0.5049120790829789,-0.6972881770507372
-3.9605,0.3448594562177392,-0.1250697031716958
-3.96,0.1954770082101822,0.2140227257936621
-3.9595,0.1101156093487211,0.3517790250608387
-3.959,0.04609456020262521,0.3623756634660061
-3.9585,-0.2099896363817582,0.2458126410091644
-3.958,-0.2633405106701714,0.1928294489833272
-3.9575,-0.1673089369510276,0.2246193641988295
-3.957,-0.04993701351651855,0.2881991946298341
-3.9565,0.03542438534494258,0.3517790250608387
-3.956,0.02475421048725994,0.5107286011383502
-3.9555,-0.4767440078238243,0.9134008605347127
-3.955,-1.234326422719292,0.5107286011383502
-3.9545,-1.949228138184029,-0.3370024712750445
-3.954,-2.472066706210478,-1.0999604364471
-3.9535,-2.215982509626095,-1.311893204550448
-3.953,-1.319687821580753,-0.7820612842920766
-3.9525,-0.5941159312583333,-0.1250697031716958
-3.952,-0.1139580626626144,0.4047622170866759
-3.9515,0.1527963087794516,0.7332580076468663
-3.951,0.2594980573562781,0.9028042221295453
-3.9505,0.2808384070716433,0.9663840525605498
-3.95,0.2594980573562781,0.9557874141553824
-3.9495,0.2381577076409128,0.9134008605347127
-3.949,0.2381577076409128,0.8392243916985406
-3.9485,0.2488278824985954,0.7332580076468663
-3.948,0.3128489316446912,0.6060983467848571
-3.9475,0.6436243522328531,0.2352160026039969
-3.947,1.273164668836129,-0.4959520473525559
-3.9465,1.507908515705147,-1.184733543688439
-3.946,1.251824319120764,-1.746355379162313
-3.9455,0.6649647019482183,-2.011271339291499
-3.945,0.291508581929326,-1.545019249464132
-3.9445,0.1207857842064037,-0.8668343915334161
-3.944,0.05676473506030786,-0.2946159176543747
-3.9435,0.04609456020262521,0.1292496185523226
-3.943,0.05676473506030786,0.3411823866556712
-3.9425,0.07810508477567314,0.4259554938970107
-3.942,-0.03926683865883591,0.5849050699745222
-3.9415,-0.1352984123779797,0.6484849004055269
-3.941,-0.09261771294724913,0.55311515475902
-3.9405,-0.007256314085787988,0.4365521323021782
-3.94,0.04609456020262521,0.3623756634660061
-3.9395,0.03542438534494258,0.383568940276341
-3.939,-0.4127229586777283,0.2564092794143318
-3.9385,-1.042263275281004,-0.3899856633008816
-3.938,-1.447729919872945,-1.068170521231597
-3.9375,-1.799845690176472,-1.608599079895136
-3.937,-1.661133417026597,-1.566212526274467
-3.9365,-1.06360362499637,-0.8350444763179138
-3.936,-0.4980843575391895,-0.09327978795619347
-3.9355,-0.08194753808956648,0.457745409112513
-3.935,0.142126133921769,0.775644561267536
-3.9345,0.2381577076409128,0.92399749893988
-3.934,0.2594980573562781,0.9769806909657173
-3.9335,0.2488278824985954,0.9557874141553824
-3.933,0.2274875327832301,0.9028042221295453
-3.9325,0.2168173579255475,0.8392243916985406
-3.932,0.2488278824985954,0.7226613692416989
-3.9315,0.3555296310754218,0.5213252395435176
-3.931,0.5902734779444399,0.2140227257936621
-3.9305,1.219813794547716,-0.4535654937318862
-3.93,1.443887466559051,-1.131750351662602
-3.9295,1.027750647109428,-1.672178910326141
-3.929,0.6863050516635838,-2.011271339291499
-3.9285,0.5155822539406614,-1.831128486403653
-3.928,0.3661998059331045,-1.131750351662602
-3.9275,0.2488278824985954,-0.4429688553267188
-3.927,0.1527963087794516,0.08686306493165288
-3.9265,0.08877525963335578,0.3623756634660061
-3.926,0.07810508477567314,0.4365521323021782
-3.9255,0.02475421048725994,0.5001319627331828
-3.925,-0.156638762093345,0.701468092431364
-3.9245,-0.156638762093345,0.6378882620003594
-3.924,-0.08194753808956648,0.5107286011383502
-3.9235,-0.02859666380115328,0.4259554938970107
-3.923,-0.007256314085787988,0.383568940276341
-3.9225,-0.2526703358124887,0.5213252395435176
-3.922,-0.9248913518464952,0.3517790250608387
-3.9215,-1.639793067311232,-0.3475991096802118
-3.921,-2.205312334768412,-1.046977244421262
-3.9205,-2.482736881068161,-1.534422611058964
-3.92,-1.906547438753298,-1.280103289334946
-3.9195,-1.06360362499637,-0.5383386009732256
-3.919,-0.4127229586777283,0.1610395337678249
-3.9185,0.00341386077189465,0.6590815388106942
-3.918,0.2061471830678648,0.9451907757502149
-3.9175,0.2808384070716433,1.072350436612224
-3.917,0.2808384070716433,1.093543713422559
-3.9165,0.2594980573562781,1.061753798207057
-3.916,0.2488278824985954,0.9769806909657173
-3.9155,0.2488278824985954,0.8816109453192104
-3.915,0.2488278824985954,0.7862411996727035
-3.9145,0.2488278824985954,0.701468092431364
-3.914,0.3768699807907871,0.3199891098453364
-3.9135,0.6863050516635838,-0.4429688553267188
-3.913,0.7503261008096795,-1.142346990067769
-3.9125,0.6436243522328531,-1.555615887869299
-3.912,0.5369226036560266,-1.417859588602123
-3.9115,0.4195506802215176,-0.8986243067489184
-3.911,0.291508581929326,-0.3370024712750445
-3.9105,0.1741366584948169,0.08686306493165288
-3.91,0.1207857842064037,0.2987958330350016
-3.9095,0.1101156093487211,0.3305857482505039
-3.909,0.08877525963335578,0.3411823866556712
-3.9085,-0.1352984123779797,0.5849050699745222
-3.908,-0.1993194615240755,0.6166949851900245
-3.9075,-0.124628237520297,0.5001319627331828
-3.907,-0.01792648894347063,0.3729723018711736
-3.9065,0.03542438534494258,0.3305857482505039
-3.906,-0.02859666380115328,0.2881991946298341
-3.9055,-0.5194247072545548,-0.1886495336027004
-3.905,-1.042263275281004,-0.8562377531282487
-3.9045,-1.244996597576974,-1.407262950196955
-3.904,-1.373038695869166,-1.735758740757146
-3.9035,-1.255666772434657,-1.407262950196955
-3.903,-0.807519428411986,-0.5807251545938954
-3.9025,-0.3487019095316325,0.1610395337678249
-3.902,-0.02859666380115328,0.6908714540261965
-3.9015,0.1634664836371343,0.9875773293708847
-3.901,0.2381577076409128,1.114736990232894
-3.9005,0.2594980573562781,1.135930267043229
-3.9,0.2488278824985954,1.093543713422559
-3.8995,0.2381577076409128,1.00877060618122
-3.899,0.2381577076409128,0.8922075837243778
-3.8985,0.2488278824985954,0.7862411996727035
-3.898,0.291508581929326,0.6484849004055269
-3.8975,0.5582629533713921,0.2458126410091644
-3.897,1.006410297394063,-0.4959520473525559
-3.8965,0.9850699476786977,-1.174136905283272
-3.896,0.6329541773751706,-1.661582271920973
-3.8955,0.408880505363835,-1.926498232050159
-3.895,0.3555296310754218,-1.555615887869299
-3.8945,0.2808384070716433,-0.8562377531282487
-3.894,0.2168173579255475,-0.2946159176543747
-3.8935,0.1634664836371343,0.05507314971615059
-3.893,0.1207857842064037,0.2458126410091644
-3.8925,0.09944543449103843,0.2881991946298341
-3.892,0.04609456020262521,0.4895353243280153
-3.8915,-0.04993701351651855,0.6590815388106942
-3.891,-0.02859666380115328,0.5849050699745222
-3.8905,0.02475421048725994,0.4471487707073456
-3.89,0.05676473506030786,0.3517790250608387
-3.8895,0.03542438534494258,0.3411823866556712
-3.889,-0.3487019095316325,0.6166949851900245
-3.8885,-1.020922925565639,0.5637117931641874
-3.888,-1.533091318734406,-0.1462629799820306
-3.8875,-1.810515865034154,-0.8986243067489184
-3.887,-1.863866739322568,-1.333086481360783
-3.8865,-1.319687821580753,-0.9728007755850904
