Class_3_Grab_w_two_Hands/Class_3_Grab_with_Two_Hands_Suko_11.csv

#Digilent WaveForms Oscilloscope Acquisition
#Device Name: EExplorer
#Serial Number: SN:210151A2B84A
#Date Time: 2021-02-04 11:06:33.542
#Sample rate: 2000Hz
#Samples: 16384
#Trigger: Source: Channel 1 Type: Edge Condition: Rising Level: 0 V Hyst.: Auto HoldOff: 0 s
#Channel 1: Range: 1 V/div Offset: 0 V Attenuation: 1 X
#Channel 2: Range: 1 V/div Offset: 0 V Attenuation: 1 X
#Power Supplies: ON
#Fixed Supply: ON
#Voltage: 3.3 V Readback: 3.329 V
#Positive Supply: ON
#Voltage: 3.7 V Readback: 3.716 V
#Current: 40 mA Readback: 16 mA
#Negative Supply: ON
#Voltage: -3.7 V Readback: -3.345 V
#Current: -40 mA Readback: -5 mA
#Reference 1: ON
#Voltage: 0 V
#Reference 2: ON
#Voltage: 0 V

Time (s),Channel 1 (V),Channel 2 (V)
-4.096,0.05676473506030786,-0.4535654937318862
-4.0955,0.1314559590640184,-0.5065486857576752
-4.095,0.131455959064067,-0.4959520473524885
-4.0945,0.1101156093487211,-0.4217755785163839
-4.094,0.08877525963337518,-0.3158091944648059
-4.0935,0.0674349099179905,-0.1886495336025751
-4.093,0.0674349099179905,-0.05089323433552374
-4.0925,-0.03926683865873887,-0.008506680714892564
-4.092,-0.4660738329664521,-0.4005823017064827
-4.0915,-0.807519428411986,-0.8774310299385835
-4.091,-0.8822106524157645,-1.121153713257435
-4.0905,-0.3273615598157238,-0.7502713690765068
-4.09,0.2701682322139607,-0.6760949002404023
-4.0895,0.6222840025174878,-0.6443049850249
-4.089,0.73965592595189,-0.485355408947533
-4.0885,0.6756348768059011,-0.1674562567923655
-4.088,0.5049120790829789,0.2458126410091644
-4.0875,0.3448594562178847,0.5955017083793717
-4.087,0.3555296310754315,0.669678177215852
-4.0865,0.3661998059331045,0.6590815388106942
-4.086,0.3235191065024127,0.7120647308364833
-4.0855,0.2594980573562296,0.7438546460520145
-4.085,0.2061471830678648,0.7226613692416989
-4.0845,0.174136658494846,0.6696781772159098
-4.084,0.1954770082099007,0.7650479228627058
-4.0835,-0.1139580626626144,1.135930267043229
-4.083,-0.5514352318276028,0.8180311148882058
-4.0825,-1.020922925566056,0.03387987290588318
-4.082,-1.479740444445993,0.1080563417419877
-4.0815,-1.341028171296118,0.2564092794143318
-4.081,-0.8715404775585089,0.1080563417421227
-4.0805,-0.4340633083930936,-0.1144730647665284
-4.08,-0.1139580626626144,-0.2840192792492073
-4.0795,0.05676473506015259,-0.3793890248956274
-4.079,0.1314559590640961,-0.4005823017060201
-4.0785,0.142126133921769,-0.3687923864905467
-4.078,0.1207857842064231,-0.2946159176544421
-4.0775,0.09944543449101902,-0.1992461720077618
-4.077,0.07810508477567314,-0.08268314955102604
-4.0765,0.0674349099180002,0.03387987290570971
-4.076,0.03542438534478731,0.108056341741795
-4.0755,-0.1352984123779797,-0.1038764263613609
-4.075,-0.2953510352432193,-0.400582301706049
-4.0745,-0.4127229586773887,-0.7078848154561936
-4.074,-0.03926683865883591,-1.025783967610927
-4.0735,0.5689331282290746,-1.237716735714276
-4.073,0.8783681991015898,-1.174136905283329
-4.0725,0.9210488985326017,-0.8774310299385835
-4.072,0.7823366253827275,-0.4217755785163839
-4.0715,0.5582629533715959,0.1292496185518215
-4.071,0.3661998059330365,0.5743084315696343
-4.0705,0.291508581929326,0.8816109453192104
-4.07,0.3235191065023447,1.040560521396577
-4.0695,0.2915085819292775,0.9451907757500319
-4.069,0.2381577076409128,0.7438546460520338
-4.0685,0.1848068333524996,0.5107286011383502
-4.068,0.1421261339218369,0.2987958330349919
-4.0675,0.2168173579255475,0.2881991946298341
-4.067,0.2488278824985954,0.7862411996727035
-4.0665,-0.348701909532011,0.9875773293703932
-4.066,-0.7648387289812555,0.4471487707073456
-4.0655,-1.244996597576974,0.5001319627331828
-4.065,-1.725154466172256,0.9451907757498101
-4.0645,-1.522421143876723,0.9028042221295453
-4.064,-0.9782422261349084,0.4683420475176805
-4.0635,-0.4767440078242804,0.0444765113113687
-4.063,-0.1246282375201321,-0.2310360872234665
-4.0625,0.05676473506030786,-0.3370024712750445
-4.062,0.1314559590640184,-0.3158091944647288
-4.0615,0.1421261339217496,-0.2098428104129099
-4.061,0.1207857842064037,-0.07208651114585861
-4.0605,0.08877525963335578,0.08686306493165288
-4.06,0.07810508477566344,0.2458126410092993
-4.0595,0.0674349099179905,0.3941655786815084
-4.059,-0.07127736323188383,0.2564092794143318
-4.0585,-0.3380317346737072,-0.2310360872229268
-4.058,-0.5300948821122373,-0.6443049850249
-4.0575,-0.3700422592469978,-0.9728007755850904
-4.057,0.5369226036552017,-1.205926820498562
-4.0565,1.241154144263081,-1.269506650929778
-4.056,1.379866417412955,-1.046977244421262
-4.0555,1.187803269974842,-0.6337083466201083
-4.055,0.8463576745285322,-0.07208651114541528
-4.0545,0.5262524287983441,0.4153588554918433
-4.054,0.3235191065025582,0.7014680924311038
-4.0535,0.4408910299369024,0.5425185163537465
-4.053,0.4622313796522482,0.4259554938970107
-4.0525,0.3875401556484697,0.3623756634660061
-4.052,0.2701682322139025,0.2881991946297185
-4.0515,0.2061471830678648,0.1610395337678249
-4.051,0.1741366584948169,0.04447651131098315
-4.0505,0.323519106502238,0.3199891098450859
-4.05,-0.124628237520297,0.5743084315693548
-4.0495,-0.6688071552621118,0.002089957690313421
-4.049,-1.24499659757645,-0.3158091944644205
-4.0485,-1.543761493591807,0.1080563417420841
-4.048,-1.234326422719292,0.2140227257936621
-4.0475,-0.7434983792663367,0.04447651131113736
-4.047,-0.3166913849583419,-0.1568596183873234
-4.0465,-0.04993701351651855,-0.2946159176543747
-4.046,0.08877525963322963,-0.3581957480853215
-4.0455,0.1314559590640864,-0.3475991096801444
-4.045,0.1314559590640864,-0.2734226408440398
-4.0445,0.1101156093487211,-0.1780528951975329
-4.044,0.08877525963334608,-0.06148987274057553
-4.0435,0.07810508477567314,0.06566978812131802
-4.043,0.0674349099179905,0.1822328105781598
-4.0425,-0.08194753808943062,0.1610395337678442
-4.042,-0.5834457564006506,-0.3158091944647096
-4.0415,-0.8288597781273515,-0.7396747306714069
-4.041,-0.8502001278426973,-1.089363798041614
-4.0405,-0.4340633083926279,-1.13175035166239
-4.04,0.07810508477567314,-0.8986243067489184
-4.0395,0.4195506802212071,-0.5383386009735533
-4.039,0.558262953371363,-0.1462629799816162
-4.0385,0.5262524287983441,0.309392471440169
-4.038,0.4088805053639418,0.6590815388103761
-4.0375,0.2915085819293842,0.8180311148880901
-4.037,0.3555296310754218,0.6908714540261965
-4.0365,0.3982103305061524,0.5425185163538525
-4.036,0.3341892813599789,0.4895353243279479
-4.0355,0.2488278824985954,0.4153588554918433
-4.035,0.2061471830678648,0.3199891098453364
-4.0345,0.184806833352519,0.2034260873886007
-4.034,0.09944543449103843,0.4047622170866759
-4.0335,-0.4980843575391895,0.9028042221295453
-4.033,-1.084943974711201,0.6060983467851269
-4.0325,-1.565101843307774,-0.1674562567922884
-4.032,-1.917217613610981,-0.08268314955102604
-4.0315,-1.554431668450101,0.1292496185521299
-4.031,-0.9569018764190677,0.05507314971601566
-4.0305,-0.4340633083930936,-0.09327978795619347
-4.03,-0.09261771294755966,-0.2310360872232448
-4.0295,0.08877525963341401,-0.3052125560595614
-4.029,0.1527963087794516,-0.326405832869877
-4.0285,0.1527963087794516,-0.2840192792492073
-4.028,0.1207857842063649,-0.2204394488181352
-4.0275,0.07810508477567314,-0.1462629799820306
-4.027,0.05676473506030786,-0.04029659593035631
-4.0265,0.05676473506030786,0.06566978812122164
-4.026,0.00341386077189465,0.1186529801471552
-4.0255,-0.3060212101009019,-0.2204394488182027
-4.025,-0.5194247072543607,-0.6231117082141988
-4.0245,-0.6367966306886464,-1.025783967611236
-4.024,-0.1779791118087102,-1.364876396576285
-4.0235,0.4835717293670119,-1.492036057438179
-4.023,0.8250173248135065,-1.269506650929374
-4.0225,0.8783681991018712,-0.8244478379127463
-4.022,0.750326100809796,-0.2734226408445409
-4.0215,0.5369226036558616,0.2881991946302003
-4.021,0.3555296310754218,0.6908714540261965
-4.0205,0.3235191065023739,0.7544512844572011
-4.02,0.3768699807907386,0.6484849004054787
-4.0195,0.3235191065023739,0.5955017083796896
-4.019,0.2381577076409128,0.5213252395435176
-4.0185,0.1634664836372022,0.4365521323022553
-4.018,0.1314559590640864,0.3199891098453364
-4.0175,0.2381577076409128,0.383568940276341
-4.017,0.3235191065022962,0.8816109453187574
-4.0165,-0.1566387620937719,1.040560521396279
-4.016,-0.6261264558313813,0.55311515475902
-4.0155,-1.255666772434084,0.7014680924312291
-4.015,-1.703814116457076,1.051157159801697
-4.0145,-1.426389570157579,0.8392243916985406
-4.014,-0.8822106524162594,0.351779025061282
-4.0135,-0.4127229586774275,-0.08268314955126699
-4.013,-0.08194753808956648,-0.3475991096802118
-4.0125,0.07810508477567314,-0.4429688553267188
-4.012,0.142126133921769,-0.4111789401111201
-4.0115,0.142126133921769,-0.3052125560595421
-4.011,0.1207857842064037,-0.1568596183871981
-4.0105,0.0887752596333849,0.00208995769016887
-4.01,0.07810508477567314,0.1610395337678249
-4.0095,0.0674349099179905,0.3199891098453364
-4.009,-0.0499370135164118,0.1928294489834429
-4.0085,-0.306021210101096,-0.2522293640341001
-4.008,-0.5194247072545548,-0.6866915386455698
-4.0075,-0.2740106855280772,-1.015187329205461
-4.007,0.6009436528026079,-1.227120097309061
-4.0065,1.134452395686255,-1.174136905283272
-4.006,1.19847344483235,-0.8456411147230812
-4.0055,1.006410297393811,-0.4005823017055671
-4.005,0.7289857510943143,0.1292496185523226
-4.0045,0.4622313796522482,0.5637117931641874
-4.004,0.3235191065024418,0.8392243916987236
-4.0035,0.3982103305061524,1.040560521396722
-4.003,0.3768699807907871,0.9451907757502149
-4.0025,0.3021787567870766,0.6908714540264278
-4.002,0.2274875327832301,0.4047622170866759
-4.0015,0.1848068333524996,0.13984625695749
-4.001,0.1848068333524996,-0.02969995752503468
-4.0005,0.1634664836366102,0.1186529801469528
-4,-0.4127229586777283,-0.1038764263613609
-3.9995,-1.212986073003927,-0.792657922697244
-3.999,-1.970568487899394,-0.9728007755850904
-3.9985,-2.312014083345239,-0.252229364033705
-3.998,-1.661133417026597,0.1504428953626575
-3.9975,-0.9355615267041777,0.1504428953626575
-3.997,-0.391382608962363,0.01268659609548085
-3.9965,-0.04993701351651855,-0.1250697031716958
-3.996,0.1207857842064037,-0.2098428104130352
-3.9955,0.1634664836371343,-0.2310360872233701
-3.995,0.1634664836371343,-0.2098428104130352
-3.9945,0.1314559590640864,-0.1462629799820306
-3.994,0.1101156093487211,-0.07208651114585861
-3.9935,0.08877525963335578,0.02328323450064829
-3.993,0.07810508477567314,0.1186529801471552
-3.9925,-0.04993701351651855,0.02328323450064829
-3.992,-0.3273615598162672,-0.3899856633008816
-3.9915,-0.5407650569699201,-0.7608680074817418
-3.991,-0.754168554123573,-1.142346990067769
-3.9905,-0.4127229586777283,-1.34368311976595
-3.99,0.07810508477567314,-1.258910012524611
-3.9895,0.4302208550792003,-0.9516074987747555
-3.989,0.5689331282290746,-0.474758770542221
-3.9885,0.5262524287983441,0.08686306493165288
-3.988,0.408880505363835,0.5319218779486851
-3.9875,0.3021787567870086,0.775644561267536
-3.987,0.3661998059331045,0.6802748156210291
-3.9865,0.3875401556484697,0.5849050699745222
-3.986,0.3235191065023739,0.5425185163538525
-3.9855,0.2488278824985954,0.4895353243280153
-3.985,0.1954770082101822,0.4047622170866759
-3.9845,0.1741366584948169,0.3199891098453364
-3.984,0.1741366584948169,0.5849050699745222
-3.9835,-0.423393133535411,0.8392243916985406
-3.983,-1.202315898146244,0.2034260873884947
-3.9825,-1.906547438753298,-0.5913217929990628
-3.982,-2.365364957633652,-0.4217755785163839
-3.9815,-1.778505340461106,-0.08268314955102604
-3.981,-1.031593100423322,-0.02969995752518888
-3.9805,-0.4447334832507763,-0.09327978795619347
-3.98,-0.07127736323188383,-0.1886495336027004
-3.9795,0.1101156093487211,-0.252229364033705
-3.979,0.1741366584948169,-0.2840192792492073
-3.9785,0.1741366584948169,-0.2734226408440398
-3.978,0.1527963087794516,-0.2310360872233701
-3.9775,0.1207857842064037,-0.1674562567923655
-3.977,0.09944543449103843,-0.09327978795619347
-3.9765,0.08877525963335578,-0.008506680714854012
-3.976,0.01408403562957729,-0.02969995752518888
-3.9755,-0.4127229586777283,-0.5065486857577234
-3.975,-0.7114878546928423,-0.9833974139902578
-3.9745,-0.754168554123573,-1.195330182093607
-3.974,-0.3273615598162672,-1.417859588602123
-3.9735,0.2808384070716433,-1.439052865412457
-3.973,0.6542945270905358,-1.163540266878104
-3.9725,0.7503261008096795,-0.6866915386455698
-3.972,0.6542945270905358,-0.1144730647665284
-3.9715,0.4942419042252961,0.383568940276341
-3.971,0.3341892813600565,0.6696781772158616
-3.9705,0.3448594562177392,0.8922075837243778
-3.97,0.3982103305061524,0.9875773293708847
-3.9695,0.3448594562177392,0.849821030103708
-3.969,0.2808384070716433,0.6590815388106942
-3.9685,0.2274875327832301,0.457745409112513
-3.968,0.1848068333524996,0.2776025562246667
-3.9675,0.1848068333524996,0.3729723018711736
-3.967,-0.1993194615240755,0.6802748156210291
-3.9665,-0.6474668055467465,0.1822328105781598
-3.966,-0.9675720512772257,-0.4535654937318862
-3.9655,-1.373038695869166,-0.1886495336027004
-3.965,-1.26633694729234,0.1610395337678249
-3.9645,-0.839529952985034,0.13984625695749
-3.964,-0.4020527838200457,-0.008506680714854012
-3.9635,-0.1032878878049318,-0.1356663415768632
-3.963,0.0674349099179905,-0.2098428104130352
-3.9625,0.142126133921769,-0.2098428104130352
-3.962,0.1527963087794516,-0.1674562567923655
-3.9615,0.1314559590640864,-0.08268314955102604
-3.961,0.09944543449103843,0.01268659609548085
-3.9605,0.08877525963335578,0.1186529801471552
-3.96,0.07810508477567314,0.2246193641988295
-3.9595,0.05676473506030786,0.2987958330350016
-3.959,-0.3166913849585846,-0.02969995752518888
-3.9585,-0.6794773301197943,-0.5383386009732256
-3.958,-0.7968492535543035,-0.9092209451540858
-3.9575,-0.5194247072545548,-1.205926820498774
-3.957,0.1527963087794516,-1.333086481360783
-3.9565,0.6116138276598051,-1.131750351662602
-3.956,0.79300680024041,-0.7290780922662394
-3.9555,0.7503261008096795,-0.1886495336027004
-3.955,0.5796033030867573,0.3411823866556712
-3.9545,0.408880505363835,0.6908714540261965
-3.954,0.3235191065023739,0.8604176685088755
-3.9535,0.3341892813600565,0.92399749893988
-3.953,0.2808384070716433,0.7862411996727035
-3.9525,0.2168173579255475,0.5637117931641874
-3.952,0.1741366584948169,0.3305857482505039
-3.9515,0.142126133921769,0.1292496185523226
-3.951,0.2061471830678648,0.08686306493165288
-3.9505,0.3555296310754218,0.5849050699745222
-3.95,-0.2633405106701714,1.072350436612224
-3.9495,-0.9355615267041777,0.6484849004055269
-3.949,-1.554431668449771,0.383568940276341
-3.9485,-2.03458953704549,0.7544512844572011
-3.948,-1.67180359188428,0.7650479228623686
-3.9475,-1.020922925565639,0.4259554938970107
-3.947,-0.4660738329661415,0.07626642652648545
-3.9465,-0.09261771294724913,-0.1462629799820306
-3.946,0.09944543449103843,-0.2310360872233701
-3.9455,0.1741366584948169,-0.2098428104130352
-3.945,0.1741366584948169,-0.1144730647665284
-3.9445,0.1527963087794516,0.01268659609548085
-3.944,0.1101156093487211,0.13984625695749
-3.9435,0.07810508477567314,0.2776025562246667
-3.943,0.0674349099179905,0.3941655786815084
-3.9425,-0.08194753808956648,0.2881991946298341
-3.942,-0.391382608962363,-0.1462629799820306
-3.9415,-0.5514352318276028,-0.4853554089473885
-3.941,-0.4874141826815069,-0.5277419625680583
-3.9405,0.05676473506030786,-0.2628260024388724
-3.94,0.5475927785137094,-0.4959520473525559
-3.9395,0.79300680024041,-0.7290780922662394
-3.939,0.79300680024041,-0.6760949002404023
-3.9385,0.6436243522328531,-0.3158091944647096
-3.938,0.4515612047945656,0.05507314971615059
-3.9375,0.3128489316446912,0.3305857482505039
-3.937,0.3448594562177392,0.4789386859228479
-3.9365,0.3235191065023739,0.5319218779486851
-3.936,0.2701682322139607,0.5319218779486851
-3.9355,0.2168173579255475,0.4895353243280153
-3.935,0.1741366584948169,0.4365521323021782
-3.9345,0.1634664836371343,0.4047622170866759
-3.934,0.2488278824985954,0.6908714540261965
-3.9335,-0.1779791118087102,1.00877060618122
-3.933,-0.7968492535543035,0.4259554938970107
-3.9325,-1.234326422719292,-0.1674562567923655
-3.932,-1.180975548430879,-0.1674562567923655
-3.9315,-0.7861790786966207,-0.1356663415768632
-3.931,-0.3807124341046804,-0.1038764263613609
-3.9305,-0.09261771294724913,-0.07208651114585861
-3.93,0.0674349099179905,-0.04029659593035631
-3.9295,0.142126133921769,-0.01910331912002144
-3.929,0.1527963087794516,0.02328323450064829
-3.9285,0.142126133921769,0.06566978812131802
-3.928,0.1207857842064037,0.1080563417419877
-3.9275,0.09944543449103843,0.1504428953626575
-3.927,0.08877525963335578,0.1928294489833272
-3.9265,0.07810508477567314,0.2352160026039969
-3.926,0.02475421048725994,0.2352160026039969
-3.9255,-0.274010685527854,-0.1250697031716958
-3.925,-0.6261264558313813,-0.6760949002404023
-3.9245,-0.7861790786966207,-1.163540266878104
-3.924,-0.2099896363817582,-1.566212526274467
-3.9235,0.4515612047945656,-1.703968825541643
-3.923,0.79300680024041,-1.47084278062796
-3.9225,0.857027849386506,-1.025783967610927
-3.922,0.7289857510943143,-0.4111789401112165
-3.9215,0.5262524287983441,0.1504428953626575
-3.921,0.3555296310754218,0.4789386859228479
-3.9205,0.3982103305061524,0.7226613692416989
-3.92,0.4622313796522482,0.7968378380778709
-3.9195,0.3875401556484697,0.6696781772158616
-3.919,0.3021787567870086,0.4789386859228479
-3.9185,0.2274875327832301,0.2881991946298341
-3.918,0.1634664836371343,0.1292496185523226
-3.9175,0.2061471830678648,0.1716361721729923
-3.917,-0.007256314085787988,0.4365521323021782
-3.9165,-0.6794773301197943,-0.05089323433552374
-3.916,-1.415719395299897,-0.7820612842920766
-3.9155,-2.013249187330125,-0.6019184314042303
-3.915,-1.767835165603424,-0.08268314955102604
-3.9145,-1.1062843244271,0.07626642652648545
-3.914,-0.5300948821122373,0.06566978812131802
-3.9135,-0.1352984123779797,0.002089957690313421
-3.913,0.07810508477567314,-0.04029659593035631
-3.9125,0.1741366584948169,-0.05089323433552374
-3.912,0.1848068333524996,-0.02969995752518888
-3.9115,0.1634664836371343,0.02328323450064829
-3.911,0.1314559590640864,0.07626642652648545
-3.9105,0.09944543449103843,0.13984625695749
-3.91,0.07810508477567314,0.2140227257936621
-3.9095,0.0674349099179905,0.2670059178194992
-3.909,-0.02859666380115328,0.05507314971615059
-3.9085,-0.1779791118087102,-0.3158091944647096
-3.908,-0.3700422592469978,-0.7290780922662394
-3.9075,-0.4127229586777283,-1.131750351662602
-3.907,-0.06060718837420119,-1.301296566145281
-3.9065,0.3021787567870086,-1.174136905283272
-3.906,0.5049120790829789,-0.8350444763179138
-3.9055,0.5262524287983441,-0.3581957480853793
-3.905,0.4408910299368829,0.1610395337678249
-3.9045,0.3235191065023739,0.5107286011383502
-3.904,0.3128489316446912,0.701468092431364
-3.9035,0.4195506802215176,0.7968378380778709
-3.903,0.3982103305061524,0.7438546460520338
-3.9025,0.3128489316446912,0.627291623595192
-3.902,0.2381577076409128,0.4683420475176805
-3.9015,0.1741366584948169,0.3199891098453364
-3.901,0.1741366584948169,0.2246193641988295
-3.9005,0.2594980573562781,0.4471487707073456
-3.9,-0.1352984123779797,0.1822328105781598
-3.8995,-0.7008176798351597,-0.5277419625680583
-3.899,-1.319687821580753,-0.4429688553267188
-3.8985,-1.458400094730627,0.07626642652648545
-3.898,-1.06360362499637,0.1822328105781598
-3.8975,-0.5834457564006506,0.06566978812131802
-3.897,-0.1993194615240755,-0.09327978795619347
-3.8965,0.02475421048725994,-0.2098428104130352
-3.896,0.1314559590640864,-0.252229364033705
-3.8955,0.1634664836371343,-0.252229364033705
-3.895,0.1634664836371343,-0.2098428104130352
-3.8945,0.1314559590640864,-0.1356663415768632
-3.894,0.1101156093487211,-0.05089323433552374
-3.8935,0.09944543449103843,0.04447651131098315
-3.893,0.08877525963335578,0.1504428953626575
-3.8925,-0.124628237520297,0.002089957690313421
-3.892,-0.4127229586777283,-0.3899856633008816
-3.8915,-0.6154562809736985,-0.8350444763179138
-3.891,-0.4020527838200457,-1.195330182093607
-3.8905,0.5262524287983441,-1.481439419033127
-3.89,1.315845368266859,-1.587405803084801
-3.8895,1.486568165989782,-1.354279758171118
-3.889,1.273164668836129,-0.8880276683437509
-3.8885,0.9103787236749192,-0.2840192792492073
-3.888,0.5689331282290746,0.2564092794143318
