Class_3_Grab_w_two_Hands/Class_3_Grab_with_Two_Hands_SH_2.csv

#Digilent WaveForms Oscilloscope Acquisition
#Device Name: EExplorer
#Serial Number: SN:210151A2B84A
#Date Time: 2020-11-25 11:35:30.657
#Sample rate: 2000Hz
#Samples: 16384
#Trigger: Source: Channel 1 Type: Edge Condition: Rising Level: 0 V Hyst.: Auto HoldOff: 0 s
#Channel 1: Range: 1 V/div Offset: 0 V Attenuation: 1 X
#Channel 2: Range: 1 V/div Offset: 0 V Attenuation: 1 X
#Power Supplies: ON
#Fixed Supply: ON
#Voltage: 3.3 V Readback: 3.313 V
#Positive Supply: ON
#Voltage: 3.7 V Readback: 3.71 V
#Current: 40 mA Readback: 19 mA
#Negative Supply: ON
#Voltage: -3.7 V Readback: -3.344 V
#Current: -40 mA Readback: -9 mA
#Reference 1: ON
#Voltage: 0 V
#Reference 2: ON
#Voltage: 0 V

Time (s),Channel 1 (V),Channel 2 (V)
-4.096,0.3448594562177392,0.9663840525605498
-4.0955,0.3235191065023933,0.8816109453192875
-4.095,0.2381577076404469,0.8180311148878588
-4.0945,-0.274010685527854,0.4365521323021782
-4.094,-0.8928808272728843,-0.3899856633001298
-4.0935,-1.287677297007734,-1.131750351662814
-4.093,-1.319687821580753,-1.364876396576285
-4.0925,-0.9035510021315084,-0.9516074987751313
-4.092,-0.3593720843888688,-0.506548685757415
-4.0915,0.1314559590640864,-0.1674562567923655
-4.091,0.4515612047945656,-0.01910331912002144
-4.0905,0.6222840025175169,-0.02969995752525634
-4.09,0.6542945270905358,-0.1038764263613609
-4.0895,0.6436243522328531,-0.1356663415768632
-4.089,0.7289857510942367,-0.2204394488181255
-4.0885,0.7396559259519968,-0.1674562567923655
-4.088,0.6649647019482183,-0.07208651114585861
-4.0875,0.5796033030868349,0.07626642652635053
-4.087,0.515582253940574,0.2140227257936332
-4.0865,0.4195506802215176,0.1822328105781598
-4.086,-0.1779791118081667,-0.3475991096797301
-4.0855,-0.9142211769892685,-1.004590690801036
-4.085,-1.415719395299897,-1.492036057438295
-4.0845,-1.789175515318449,-1.725162102351766
-4.084,-1.629122892452957,-1.375473034980711
-4.0835,-0.9782422261349084,-0.5595318777835605
-4.083,-0.3593720843893152,0.1928294489833272
-4.0825,0.07810508477589634,0.7226613692419688
-4.082,0.3235191065023739,1.019367244586387
-4.0815,0.4302208550792003,1.135930267043229
-4.081,0.4515612047945461,1.125333628638071
-4.0805,0.4302208550792003,1.072350436612224
-4.08,0.408880505363835,0.9875773293708847
-4.0795,0.3661998059331433,0.8922075837244645
-4.079,0.3341892813600275,0.8180311148881479
-4.0785,0.3021787567870086,0.7544512844572011
-4.078,0.01408403562983929,0.4471487707076251
-4.0775,-0.6581369804049531,-0.3052125560602264
-4.077,-1.234326422719292,-1.05757388282643
-4.0765,-1.597112367880172,-1.523825972653373
-4.076,-1.479740444445478,-1.280103289334396
-4.0755,-0.9142211769888124,-0.6760949002404023
-4.075,-0.3487019095316325,-0.1992461720078678
-4.0745,0.1421261339220407,0.07626642652651436
-4.074,0.4408910299368829,0.1080563417419877
-4.0735,0.5689331282290746,0.02328323450064829
-4.073,0.5902734779444204,-0.06148987274061407
-4.0725,0.6009436528021226,-0.2098428104130352
-4.072,0.6116138276598051,-0.2840192792492073
-4.0715,0.5689331282291135,-0.1780528951976293
-4.071,0.5155822539406419,-0.02969995752504431
-4.0705,0.4942419042252961,0.1292496185523226
-4.07,0.5049120790829692,0.2352160026039006
-4.0695,0.8463576745290368,0.002089957689908642
-4.069,1.081101521397841,-0.4429688553267188
-4.0685,0.4515612047945656,-1.025783967610927
-4.068,-0.2206598112395864,-1.343683119765603
-4.0675,-0.3807124341046804,-0.9622041371799229
-4.067,-0.2206598112394408,-0.2734226408440398
-4.0665,0.003413860772069331,0.3305857482508701
-4.066,0.1954770082101822,0.7332580076468663
-4.0655,0.3128489316446912,0.9663840525605498
-4.065,0.3768699807907289,1.051157159801812
-4.0645,0.3875401556484697,1.061753798207057
-4.064,0.3875401556484697,1.019367244586387
-4.0635,0.3768699807907968,0.9557874141554402
-4.063,0.3555296310754024,0.9028042221295067
-4.0625,0.3341892813600565,0.8604176685088755
-4.062,0.3021787567870378,0.7968378380779287
-4.0615,0.1954770082101822,0.7332580076470302
-4.061,0.1954770082101822,0.9134008605347127
-4.0605,0.1954770082101822,0.7120647308365314
-4.06,-0.4020527838205504,-0.09327978795672354
-4.0595,-0.9569018764195432,-0.6760949002404023
-4.059,-0.9782422261349084,-0.6231117082145651
-4.0585,-0.6047861061163555,-0.3370024712753047
-4.058,-0.1459685872356623,-0.05089323433552374
-4.0575,0.2061471830678648,0.06566978812131802
-4.057,0.4515612047943424,-0.01910331911994434
-4.0565,0.5902734779444399,-0.09327978795619347
-4.056,0.6756348768059011,-0.1886495336027004
-4.0555,0.8997085488170327,-0.4111789401110141
-4.055,0.931719073390168,-0.3370024712748228
-4.0545,0.8036769750980928,-0.09327978795619347
-4.054,0.6436243522329986,0.1504428953624358
-4.0535,0.52625242879815,0.3517790250607134
-4.053,0.3128489316446912,0.2140227257936621
-4.0525,-0.3593720843893152,-0.3793890248957141
-4.052,-0.9569018764198148,-0.9833974139906336
-4.0515,-1.255666772434657,-1.396666311791788
-4.051,-1.383708870726849,-1.481439419033127
-4.0505,-0.999582575850623,-0.9092209451546063
-4.05,-0.4660738329661415,-0.1568596183871981
-4.0495,-0.02859666380115328,0.4471487707073456
-4.049,0.2381577076406701,0.8286277532930262
-4.0485,0.3768699807908356,0.987577329370904
-4.048,0.4302208550792003,1.00877060618122
-4.0475,0.4195506802215274,0.9557874141554306
-4.047,0.398210330506133,0.8498210301036117
-4.0465,0.3768699807907871,0.7438546460520338
-4.046,0.3555296310754412,0.6590815388107714
-4.0455,0.3235191065022962,0.5849050699744451
-4.045,0.2381577076409128,0.5001319627331828
-4.0445,-0.2633405106701714,0.2034260873884947
-4.044,-0.9675720512775556,-0.1038764263619392
-4.0435,-1.330357996438436,-0.7396747306714069
-4.043,-1.373038695869166,-1.01518732920576
-4.0425,-1.063603624996651,-0.7608680074819731
-4.042,-0.5407650569699201,-0.326405832869877
-4.0415,-0.06060718837420119,0.01268659609548085
-4.041,0.2808384070713328,0.1716361721728478
-4.0405,0.4942419042253738,0.235216002603968
-4.04,0.5796033030867573,0.2034260873884947
-4.0395,0.622284002517449,0.1504428953627057
-4.039,0.782336625382747,0.04447651131095424
-4.0385,0.8036769750980928,0.01268659609548085
-4.038,0.6969752265213633,0.08686306493158542
-4.0375,0.5796033030866797,0.1822328105782465
-4.037,0.4942419042252961,0.2776025562246667
-4.0365,0.5369226036560266,0.4153588554918433
-4.036,1.006410297393917,0.7862411996724529
-4.0355,0.8463576745288233,0.5107286011383502
-4.035,0.05676473506030786,-0.3052125560595421
-4.0345,-0.4980843575386849,-0.7714646458864851
-4.034,-0.4660738329661415,-0.5277419625680583
-4.0335,-0.2206598112394408,-0.06148987274069118
-4.033,0.04609456020238256,0.3835689402759362
-4.0325,0.2274875327833271,0.6908714540263604
-4.032,0.3341892813600565,0.8710143069140429
-4.0315,0.3768699807907483,0.9557874141553053
-4.031,0.3982103305061427,0.9875773293708751
-4.0305,0.3875401556484697,0.9769806909657173
-4.03,0.3555296310754509,0.9451907757502438
-4.0295,0.3448594562177197,0.934594137345009
-4.029,0.3235191065023739,0.8922075837243778
-4.0285,0.291508581929326,0.7862411996727035
-4.028,0.1207857842060543,0.4789386859222985
-4.0275,-0.2633405106701714,-0.1250697031716958
-4.027,-0.7648387289812555,-0.8668343915334161
-4.0265,-1.191645723288173,-1.460246142222253
-4.026,-1.298347471865388,-1.42845622700729
-4.0255,-0.9995825758502737,-0.8774310299385835
-4.025,-0.4660738329666269,-0.3264058328703782
-4.0245,0.05676473506059899,0.002089957690390522
-4.024,0.3768699807907871,0.08686306493165288
-4.0235,0.5262524287982082,0.0444765113110217
-4.023,0.5796033030868349,-0.01910331912019492
-4.0225,0.6649647019482183,-0.2098428104130352
-4.022,0.7503261008096019,-0.3158091944646132
-4.0215,0.6863050516635062,-0.2098428104129003
-4.021,0.6009436528021226,-0.06148987274069118
-4.0205,0.5582629533713921,0.06566978812131802
-4.02,0.5475927785135055,0.2140227257934886
-4.0195,0.3235191065023739,0.02328323450064829
-4.019,-0.3593720843893152,-0.6019184314042303
-4.0185,-0.9675720512766726,-1.205926820498225
-4.018,-1.170305373573196,-1.47084278062796
-4.0175,-0.8608703027003992,-0.9728007755850904
-4.017,-0.39138260896279,-0.2310360872240448
-4.0165,-0.00725631408555508,0.4047622170870614
-4.016,0.2488278824985954,0.8286277532933731
-4.0155,0.3661998059329977,1.051157159801687
-4.015,0.408880505363835,1.135930267043229
-4.0145,0.408880505363835,1.135930267043229
-4.014,0.3875401556484891,1.08294707501744
-4.0135,0.3661998059330754,1.008770606181162
-4.013,0.3341892813600565,0.9451907757502149
-4.0125,0.3128489316446912,0.8710143069140429
-4.012,0.2808384070715075,0.8074344764829035
-4.0115,0.1314559590640864,0.6590815388106942
-4.011,-0.4660738329661415,-0.008506680714854012
-4.0105,-0.9675720512767696,-0.8244478379120043
-4.01,-1.426389570157579,-1.481439419033127
-4.0095,-1.853196564464885,-1.809935209593318
-4.009,-1.629122892453753,-1.280103289335428
-4.0085,-0.9995825758497205,-0.6019184314037773
-4.008,-0.391382608962363,-0.1038764263613609
-4.0075,0.110115609348265,0.1716361721727418
-4.007,0.4088805053639709,0.2776025562246088
-4.0065,0.5582629533713921,0.2140227257936621
-4.006,0.6542945270905358,0.04447651131098315
-4.0055,0.8250173248134386,-0.1462629799820306
-4.005,0.8036769750980928,-0.1462629799820306
-4.0045,0.6863050516635838,-0.06148987274069118
-4.004,0.5689331282290067,0.05507314971623732
-4.0035,0.4942419042252961,0.1504428953626575
-4.003,0.4195506802215176,-0.06148987274069118
-4.0025,0.5262524287982471,-0.6760949002398433
-4.002,0.142126133921769,-1.301296566145281
-4.0015,-0.4554036581084589,-1.725162102351978
-4.001,-0.6047861061158799,-1.354279758171455
-4.0005,-0.3807124341044087,-0.5701285161881016
-4,-0.08194753808956648,0.1186529801471552
-3.9995,0.1527963087794516,0.6060983467848571
-3.999,0.3021787567870086,0.8816109453192104
-3.9985,0.3661998059331045,0.9875773293708847
-3.998,0.3875401556484697,1.00877060618122
-3.9975,0.3875401556484697,0.9663840525605498
-3.997,0.3768699807907871,0.9134008605347127
-3.9965,0.3448594562177392,0.849821030103708
-3.996,0.3341892813600565,0.7862411996727035
-3.9955,0.3128489316446912,0.7226613692416989
-3.995,0.2594980573562781,0.6378882620003594
-3.9945,-0.124628237520297,0.1292496185523226
-3.994,-0.722158029550525,-0.6654982618352349
-3.9935,-1.212986073003927,-1.34368311976595
-3.993,-1.703814116457328,-1.809935209593318
-3.9925,-1.757164990745741,-1.523825972653797
-3.992,-1.298347471865388,-0.7396747306714069
-3.9915,-0.658136980404429,-0.1038764263613609
-3.991,-0.09261771294724913,0.2352160026039969
-3.9905,0.291508581929326,0.3199891098453364
-3.99,0.5155822539406614,0.2140227257936621
-3.9895,0.6009436528021226,0.06566978812131802
-3.989,0.7183155762366316,-0.1038764263613609
-3.9885,0.707645401378949,-0.1144730647665284
-3.988,0.6329541773751706,-0.04029659593035631
-3.9875,0.5475927785137094,0.06566978812131802
-3.987,0.4942419042252961,0.1610395337678249
-3.9865,0.3982103305061524,0.13984625695749
-3.986,0.408880505363835,-0.3370024712750445
-3.9855,0.2701682322139607,-0.9728007755850904
-3.985,-0.274010685527854,-1.502632695843462
-3.9845,-0.7328282044082075,-1.725162102351978
-3.984,-0.7328282044082075,-1.205926820498774
-3.9835,-0.4127229586777283,-0.4217755785163839
-3.983,-0.07127736323188383,0.2352160026039969
-3.9825,0.1741366584948169,0.6696781772158616
-3.982,0.3235191065023739,0.9028042221295453
-3.9815,0.3875401556484697,0.9769806909657173
-3.981,0.3982103305061524,0.9769806909657173
-3.9805,0.3875401556484697,0.92399749893988
-3.98,0.3661998059331045,0.8710143069140429
-3.9795,0.3448594562177392,0.8180311148882058
-3.979,0.3235191065023739,0.7650479228623686
-3.9785,0.3235191065023739,0.7120647308365314
-3.978,0.2701682322139607,0.4895353243280153
-3.9775,0.291508581929326,0.2564092794143318
-3.977,-0.07127736323188383,-0.3581957480853793
-3.9765,-0.6154562809736985,-1.01518732920576
-3.976,-1.1062843244271,-1.280103289334946
-3.9755,-1.074273799854052,-0.8668343915334161
-3.975,-0.6474668055467465,-0.3370024712750445
-3.9745,-0.1779791118087102,0.04447651131098315
-3.974,0.1848068333524996,0.1822328105781598
-3.9735,0.408880505363835,0.1186529801471552
-3.973,0.5369226036560266,0.03387987290581572
-3.9725,0.6863050516635838,-0.1356663415768632
-3.972,0.7609962756673623,-0.08268314955102604
-3.9715,0.6863050516635838,0.04447651131098315
-3.971,0.5902734779444399,0.1610395337678249
-3.9705,0.5262524287983441,0.2458126410091644
-3.97,0.5262524287983441,0.2987958330350016
-3.9695,0.5155822539406614,-0.1144730647665284
-3.969,0.2594980573562781,-0.792657922697244
-3.9685,-0.3593720843893152,-1.375473034981453
-3.968,-0.7755089038389382,-1.502632695843462
-3.9675,-0.6474668055467465,-0.8774310299385835
-3.967,-0.3166913849585846,-0.1250697031716958
-3.9665,0.01408403562957729,0.4789386859228479
-3.966,0.2274875327832301,0.849821030103708
-3.9655,0.3341892813600565,1.029963882991555
-3.965,0.3875401556484697,1.093543713422559
-3.9645,0.3982103305061524,1.072350436612224
-3.964,0.3768699807907871,1.019367244586387
-3.9635,0.3555296310754218,0.9557874141553824
-3.963,0.3341892813600565,0.8922075837243778
-3.9625,0.3021787567870086,0.8286277532933731
-3.962,0.2701682322139607,0.775644561267536
-3.9615,0.08877525963335578,0.6166949851900245
-3.961,-0.5087545323968721,-0.05089323433552374
-3.9605,-1.116954499284783,-0.8456411147230812
-3.96,-1.597112367880501,-1.460246142222792
-3.9595,-1.885207089037933,-1.629792356705471
-3.959,-1.554431668449771,-1.068170521231597
-3.9585,-0.9462317015618604,-0.4217755785163839
-3.958,-0.3593720843893152,0.01268659609548085
-3.9575,0.1101156093487211,0.2352160026039969
-3.957,0.3982103305061524,0.1928294489833272
-3.9565,0.5582629533713921,0.1186529801471552
-3.956,0.6649647019482183,0.01268659609548085
-3.9555,0.8143471499557753,-0.1674562567923655
-3.955,0.7823366253827275,-0.1674562567923655
-3.9545,0.6756348768059011,-0.06148987274069118
-3.954,0.5582629533713921,0.05507314971615059
-3.9535,0.4729015545099309,0.1716361721729923
-3.953,0.4942419042252961,0.01268659609548085
-3.9525,0.4408910299368829,-0.474758770542221
-3.952,-0.09261771294724913,-1.046977244421262
-3.9515,-0.754168554123573,-1.460246142222792
-3.951,-0.8608703027003992,-1.163540266878104
-3.9505,-0.5514352318276028,-0.4641621321370536
-3.95,-0.1779791118087102,0.2034260873884947
-3.9495,0.1207857842064037,0.6696781772158616
-3.949,0.291508581929326,0.9345941373450475
-3.9485,0.3768699807907871,1.040560521396722
-3.948,0.3982103305061524,1.061753798207057
-3.9475,0.3982103305061524,1.029963882991555
-3.947,0.3768699807907871,0.9663840525605498
-3.9465,0.3555296310754218,0.8922075837243778
-3.946,0.3341892813600565,0.8392243916985406
-3.9455,0.3128489316446912,0.7862411996727035
-3.945,0.2381577076409128,0.701468092431364
-3.9445,-0.2846808603855366,0.1610395337678249
-3.944,-0.9889124009925911,-0.6549016234300674
-3.9435,-1.437059745015262,-1.333086481360783
-3.943,-1.714484291315011,-1.778145294377815
-3.9425,-1.597112367880501,-1.38606967338662
-3.942,-1.052933450138687,-0.6654982618352349
-3.9415,-0.4447334832507763,-0.1144730647665284
-3.941,0.04609456020262521,0.13984625695749
-3.9405,0.3661998059331045,0.1610395337678249
-3.94,0.5369226036560266,0.08686306493165288
-3.9395,0.5902734779444399,-0.008506680714854012
-3.939,0.7183155762366316,-0.1356663415768632
-3.9385,0.7503261008096795,-0.1144730647665284
-3.938,0.7289857510943143,-0.06148987274069118
-3.9375,0.6649647019482183,-0.02969995752518888
-3.937,0.6009436528021226,0.03387987290581572
-3.9365,0.4622313796522482,-0.01910331912002144
-3.936,0.4622313796522482,-0.2416327256285375
-3.9355,0.4622313796522482,-0.6760949002404023
-3.935,-0.08194753808956648,-1.205926820498774
-3.9345,-0.658136980404429,-1.47084278062796
-3.934,-0.658136980404429,-0.9939940523954253
-3.9335,-0.3700422592469978,-0.2628260024388724
-3.933,-0.06060718837420119,0.3623756634660061
-3.9325,0.1848068333524996,0.7862411996727035
-3.932,0.3235191065023739,1.029963882991555
-3.9315,0.3768699807907871,1.125333628638062
-3.931,0.3875401556484697,1.146526905448396
-3.9305,0.3875401556484697,1.114736990232894
-3.93,0.3661998059331045,1.061753798207057
-3.9295,0.3448594562177392,1.019367244586387
-3.929,0.3235191065023739,0.9769806909657173
-3.9285,0.2808384070716433,0.9134008605347127
-3.928,-0.007256314085787988,0.6696781772158616
-3.9275,-0.5834457564006506,-0.1038764263613609
-3.927,-1.010252750707956,-0.9304142219644207
-3.9265,-1.234326422719292,-1.566212526274467
-3.926,-1.30901764672307,-1.545019249464132
-3.9255,-0.9675720512772257,-0.8880276683437509
-3.925,-0.4660738329661415,-0.3581957480853793
-3.9245,-0.007256314085787988,-0.008506680714854012
-3.924,0.3021787567870086,0.1610395337678249
-3.9235,0.4729015545099309,0.1504428953626575
-3.923,0.5475927785137094,0.06566978812131802
-3.9225,0.7183155762366316,-0.1462629799820306
-3.922,1.070431346540159,-0.3158091944647096
-3.9215,1.283834843693812,-0.2734226408440398
-3.921,1.209143619690033,-0.1356663415768632
-3.9205,0.9850699476786977,0.01268659609548085
-3.92,0.7823366253827275,0.09745970333682032
-3.9195,0.9103787236749192,-0.1568596183871981
-3.919,1.15579274540162,-0.3687923864905467
-3.9185,0.5475927785137094,-0.8668343915334161
-3.918,-0.1886492866663929,-1.322489842955616
-3.9175,-0.6474668055467465,-1.375473034981453
-3.917,-0.5514352318276028,-0.7820612842920766
-3.9165,-0.2633405106701714,-0.09327978795619347
-3.916,0.02475421048725994,0.4471487707073456
-3.9155,0.2274875327832301,0.7862411996727035
-3.915,0.3341892813600565,0.9557874141553824
-3.9145,0.3661998059331045,1.00877060618122
-3.914,0.3768699807907871,1.00877060618122
-3.9135,0.3555296310754218,0.9663840525605498
-3.913,0.3235191065023739,0.92399749893988
-3.9125,0.3128489316446912,0.8922075837243778
-3.912,0.291508581929326,0.8604176685088755
-3.9115,0.09944543449103843,0.6908714540261965
-3.911,-0.5087545323968721,-0.008506680714854012
-3.9105,-1.084943974711735,-0.8350444763179138
-3.91,-1.287677297007705,-1.460246142222792
-3.9095,-1.1062843244271,-1.417859588602123
-3.909,-0.6367966306890638,-0.8880276683437509
-3.9085,-0.1886492866663929,-0.3687923864905467
-3.908,0.1741366584948169,0.002089957690313421
-3.9075,0.3875401556484697,0.1186529801471552
-3.907,0.5049120790829789,0.04447651131098315
-3.9065,0.5475927785137094,-0.008506680714854012
-3.906,0.6329541773751706,-0.09327978795619347
-3.9055,0.79300680024041,-0.252229364033705
-3.905,0.7823366253827275,-0.2204394488182027
-3.9045,0.6649647019482183,-0.09327978795619347
-3.904,0.5796033030867573,0.04447651131098315
-3.9035,0.5369226036560266,0.1928294489833272
-3.903,0.4408910299368829,-0.008506680714854012
-3.9025,0.3448594562177392,-0.6231117082145651
-3.902,-0.08194753808956648,-1.227120097309109
-3.9015,-0.5941159312583333,-1.629792356705471
-3.901,-0.7755089038389382,-1.42845622700729
-3.9005,-0.5300948821122373,-0.6654982618352349
-3.9,-0.1886492866663929,0.07626642652648545
-3.8995,0.08877525963335578,0.6166949851900245
-3.899,0.2701682322139607,0.9345941373450475
-3.8985,0.3448594562177392,1.072350436612224
-3.898,0.3768699807907871,1.104140351827727
-3.8975,0.3768699807907871,1.072350436612224
-3.897,0.3555296310754218,0.9981739677760521
-3.8965,0.3448594562177392,0.92399749893988
-3.896,0.3235191065023739,0.8604176685088755
-3.8955,0.291508581929326,0.7968378380778709
-3.895,0.2381577076409128,0.6696781772158616
-3.8945,-0.1352984123779797,0.07626642652648545
-3.894,-0.6688071552621118,-0.7290780922662394
-3.8935,-1.116954499284783,-1.396666311791788
-3.893,-1.533091318734406,-1.703968825541643
-3.8925,-1.533091318734406,-1.152943628472937
-3.892,-1.159635198715513,-0.474758770542221
-3.8915,-0.6154562809736985,0.02328323450064829
-3.891,-0.09261771294724913,0.2140227257936621
-3.8905,0.291508581929326,0.1080563417419877
-3.89,0.5049120790829789,0.002089957690313421
-3.8895,0.5796033030867573,-0.07208651114585861
-3.889,0.6969752265212663,-0.1992461720078678
-3.8885,0.707645401378949,-0.1674562567923655
-3.888,0.6116138276598051,-0.06148987274069118
-3.8875,0.5049120790829789,0.04447651131098315
-3.887,0.4622313796522482,0.1610395337678249
