Class_3_Grab_w_two_Hands/Class_3_Grab_w_two_Hands_Zakour_8.csv

#Digilent WaveForms Oscilloscope Acquisition
#Device Name: EExplorer
#Serial Number: SN:210151A2B84A
#Date Time: 2021-01-24 16:30:33.638
#Sample rate: 2000Hz
#Samples: 16384
#Trigger: Source: Channel 1 Type: Edge Condition: Rising Level: 0 V Hyst.: Auto HoldOff: 0 s
#Channel 1: Range: 1 V/div Offset: 0 V Attenuation: 1 X
#Channel 2: Range: 1 V/div Offset: 0 V Attenuation: 1 X
#Power Supplies: ON
#Fixed Supply: ON
#Voltage: 3.3 V Readback: 3.317 V
#Positive Supply: ON
#Voltage: 3.7 V Readback: 3.703 V
#Current: 40 mA Readback: 23 mA
#Negative Supply: ON
#Voltage: -3.7 V Readback: -3.363 V
#Current: -40 mA Readback: 0 A
#Reference 1: ON
#Voltage: 0 V
#Reference 2: ON
#Voltage: 0 V

Time (s),Channel 1 (V),Channel 2 (V)
-4.096,-0.6261264558313813,0.7332580076468663
-4.0955,-1.223656247861066,0.8922075837242333
-4.095,-1.501080794160776,0.9875773293709136
-4.0945,-0.8608703027003992,1.019367244586387
-4.094,0.06743490991714618,1.008770606181229
-4.0935,0.7716664505253844,0.9345941373449126
-4.093,1.145122570543937,0.7862411996727035
-4.0925,1.209143619689975,0.447148770707654
-4.092,1.059761171682233,-0.2310360872239484
-4.0915,0.79300680024041,-0.8668343915334161
-4.091,0.6222840025174878,-1.375473034981453
-4.0905,0.5262524287981888,-1.640388995110542
-4.09,0.3555296310754218,-1.534422611058964
-4.0895,0.1954770082101822,-1.258910012524611
-4.089,0.09944543449112578,-0.9622041371801928
-4.0885,0.02475421048725994,-0.7078848154559045
-4.088,-0.156638762093345,-0.6972881770507372
-4.0875,-0.7434983792653564,-0.7502713690765261
-4.087,-1.458400094731112,-0.273422640843529
-4.0865,-1.991908837614759,0.2881991946298341
-4.086,-1.917217613611049,0.4577454091123588
-4.0855,-1.287677297007162,0.1186529801467697
-4.085,-0.690147504977477,-0.3052125560595421
-4.0845,-0.2633405106705596,-0.5913217929988026
-4.084,-0.01792648894337358,-0.7184814538610623
-4.0835,0.08877525963335578,-0.7078848154559045
-4.083,0.1207857842064037,-0.6125150698093976
-4.0825,0.110115609348692,-0.4959520473524403
-4.082,0.07810508477567314,-0.3687923864905467
-4.0815,0.05676473506030786,-0.252229364033705
-4.081,0.05676473506030786,-0.1356663415769692
-4.0805,0.05676473506030786,-0.02969995752518888
-4.08,0.142126133921769,0.1080563417419877
-4.0795,0.2488278824984984,0.3835689402760905
-4.079,-0.1673089369515711,0.6696781772160447
-4.0785,-0.7648387289812555,0.8710143069140429
-4.078,-0.5834457564008155,0.9134008605346742
-4.0775,0.1207857842069666,0.9451907757502053
-4.077,0.7396559259519968,0.9345941373450475
-4.0765,1.113112045970549,0.8710143069141008
-4.076,1.230483969405311,0.6802748156206243
-4.0755,1.134452395686255,0.2352160026039969
-4.075,0.8783681991018712,-0.4217755785163839
-4.0745,0.6329541773751511,-1.015187329206242
-4.074,0.6116138276598051,-1.545019249464132
-4.0735,0.4622313796522482,-1.608599079895136
-4.073,0.2808384070718083,-1.386069673386823
-4.0725,0.142126133921769,-1.068170521231597
-4.072,0.04609456020262521,-0.7608680074817418
-4.0715,-0.04993701351643121,-0.6019184314043748
-4.071,-0.4340633083936953,-0.8986243067488509
-4.0705,-1.095614149569417,-0.8244478379127463
-4.07,-1.607782542737718,-0.2522293640342255
-4.0695,-1.746494815887651,0.1822328105780441
-4.069,-1.298347471865388,0.05507314971615059
-4.0685,-0.7434983792658902,-0.252229364033705
-4.068,-0.3166913849583516,-0.5065486857578486
-4.0675,-0.06060718837420119,-0.6443049850249
-4.067,0.0674349099179905,-0.6654982618352349
-4.0665,0.1101156093487114,-0.6125150698093206
-4.066,0.09944543449103843,-0.5277419625680583
-4.0655,0.07810508477567314,-0.4323722169215513
-4.065,0.05676473506032727,-0.3264058328699734
-4.0645,0.04609456020262521,-0.2310360872233701
-4.064,0.04609456020262521,-0.1038764263613609
-4.0635,0.07810508477564403,0.01268659609537484
-4.063,0.0567647350597547,0.2564092794146402
-4.0625,-0.5514352318276028,0.5955017083796896
-4.062,-1.298347471864708,0.8498210301034768
-4.0615,-1.383708870726111,0.8286277532933346
-4.061,-0.572775581542968,0.7862411996727035
-4.0605,0.2808384070716433,0.7862411996727035
-4.06,0.8783681991021138,0.765047922862224
-4.0595,1.145122570543937,0.6060983467848571
-4.059,1.134452395686255,0.07626642652648545
-4.0585,0.9423892482481417,-0.5489352393778244
-4.058,0.6863050516635838,-1.004590690800593
-4.0575,0.6436243522328531,-1.439052865412457
-4.057,0.5475927785137967,-1.545019249464036
-4.0565,0.3661998059331045,-1.354279758171118
-4.056,0.2061471830678648,-1.068170521231597
-4.0555,0.08877525963346253,-0.7926579226974946
-4.055,0.02475421048744432,-0.5489352393782485
-4.0545,0.2274875327832301,-0.3899856633008816
-4.054,0.1741366584948654,-0.1674562567925679
-4.0535,-0.4874141826821668,0.2670059178198076
-4.053,-1.212986073003927,0.6060983467848571
-4.0525,-1.405049220442214,0.5425185163538525
-4.052,-1.052933450138289,0.09745970333641554
-4.0515,-0.6154562809736985,-0.3475991096802118
-4.051,-0.2633405106701714,-0.6125150698093976
-4.0505,-0.03926683865903968,-0.7078848154558178
-4.05,0.0674349099179905,-0.6760949002404023
-4.0495,0.09944543449103843,-0.5807251545938954
-4.049,0.08877525963336548,-0.4535654937320018
-4.0485,0.07810508477565373,-0.3052125560594168
-4.048,0.05676473506030786,-0.1674562567923655
-4.0475,0.04609456020263492,-0.05089323433562976
-4.047,0.06743490991787406,0.05507314971629515
-4.0465,-0.06060718837420119,0.2140227257936621
-4.046,-0.6047861061155209,0.4895353243277648
-4.0455,-1.255666772434958,0.7650479228625324
-4.045,-1.586442193022819,0.9451907757502149
-4.0445,-0.9142211769888124,1.029963882991555
-4.044,0.04609456020328512,1.040560521396683
-4.0435,0.7716664505250448,0.9981739677760521
-4.043,1.166462920259302,0.9134008605347127
-4.0425,1.251824319120686,0.6484849004057678
-4.042,1.102441871113207,0.03387987290581572
-4.0415,0.8356874996711408,-0.5913217929990628
-4.041,0.6863050516637197,-1.142346990067268
-4.0405,0.6116138276596401,-1.492036057438247
-4.04,0.4302208550792003,-1.439052865412457
-4.0395,0.2488278824987604,-1.195330182093828
-4.039,0.1207857842063067,-0.9198175835590412
-4.0385,0.01408403562957729,-0.6866915386455698
-4.038,-0.3166913849582838,-0.4217755785166248
-4.0375,-0.83952995298549,0.03387987290623978
-4.037,-1.341028171296118,0.5001319627331828
-4.0365,-1.799845690176472,0.8392243916985406
-4.036,-1.725154466172188,0.722661369241217
-4.0355,-1.170305373573196,0.1928294489833272
-4.035,-0.6261264558313813,-0.3158091944647096
-4.0345,-0.2313299860974825,-0.6125150698091277
-4.034,-0.007256314085787988,-0.718481453861072
-4.0335,0.09944543449103843,-0.6760949002404023
-4.033,0.1207857842063843,-0.5595318777836665
-4.0325,0.09944543449101902,-0.4111789401110815
-4.032,0.07810508477567314,-0.2628260024388724
-4.0315,0.0674349099180002,-0.1144730647666633
-4.031,0.05676473506031757,0.05507314971627587
-4.0305,0.0674349099179905,0.1928294489833272
-4.03,0.03542438534497169,0.2564092794142739
-4.0295,-0.3487019095322147,0.4471487707075865
-4.029,-0.9889124009925911,0.7120647308365314
-4.0285,-1.447729919872945,0.9028042221295453
-4.028,-0.8928808272725932,0.9981739677760714
-4.0275,0.04609456020262521,1.019367244586387
-4.027,0.7716664505250448,0.9875773293708847
-4.0265,1.166462920258943,0.8816109453193067
-4.026,1.262494493978446,0.6060983467848571
-4.0255,1.113112045970889,0.02328323450064829
-4.025,0.846357674529066,-0.633708346619135
-4.0245,0.6222840025175169,-1.142346990068203
-4.024,0.6542945270905358,-1.619195718300304
-4.0235,0.5369226036561334,-1.619195718300304
-4.023,0.3448594562176033,-1.364876396576006
-4.0225,0.1954770082101822,-1.05757388282643
-4.022,0.08877525963345283,-0.7608680074820116
-4.0215,-0.06060718837454085,-0.6019184314043748
-4.021,-0.4340633083930936,-0.7608680074817418
-4.0205,-1.084943974711735,-0.4853554089473885
-4.02,-1.71448429131536,0.08686306493202875
-4.0195,-2.098610586191586,0.5001319627331828
-4.019,-1.629122892453549,0.3199891098453364
-4.0185,-0.9782422261355004,-0.1144730647661332
-4.018,-0.4447334832507763,-0.4853554089473885
-4.0175,-0.1139580626626144,-0.6866915386455698
-4.017,0.05676473506015259,-0.7396747306713587
-4.0165,0.1207857842064037,-0.6866915386454734
-4.016,0.1207857842064037,-0.5807251545938954
-4.0155,0.09944543449105783,-0.4641621321371596
-4.015,0.0674349099179808,-0.3370024712749481
-4.0145,0.05676473506030786,-0.2310360872233701
-4.014,0.04609456020263492,-0.1356663415769499
-4.0135,0.0781050847760128,-0.0508932343352828
-4.013,0.4515612047945656,0.2140227257936621
-4.0125,0.7183155762366316,0.5849050699745222
-4.012,0.1207857842059088,0.86041766850902
-4.0115,-0.423393133535411,1.019367244586387
-4.011,-0.07127736323188383,1.082947075017392
-4.0105,0.5049120790824548,1.082947075017392
-4.01,0.974399772821015,1.029963882991555
-4.0095,1.177133095116985,0.8392243916985406
-4.009,1.145122570543966,0.2987958330354931
-4.0085,0.9637295979630801,-0.3899856633013731
-4.008,0.6863050516635838,-0.9304142219644207
-4.0075,0.5796033030868544,-1.258910012524312
-4.007,0.4302208550790451,-1.32248984295549
-4.0065,0.2594980573562781,-1.184733543688439
-4.006,0.142126133921769,-0.9622041371799229
-4.0055,0.05676473506020111,-0.7184814538608599
-4.005,-0.06060718837420119,-0.4853554089473885
-4.0045,-0.5300948821122373,-0.05089323433552374
-4.004,-1.180975548431257,0.4365521323025155
-4.0035,-1.597112367880501,0.8074344764830383
-4.003,-1.735824641030376,0.92399749893988
-4.0025,-1.35169834615415,0.563711793164515
-4.002,-0.8181896032696687,0.01268659609548085
-4.0015,-0.3700422592469978,-0.400582301706049
-4.001,-0.08194753808982852,-0.5807251545937315
-4.0005,0.05676473506035638,-0.6019184314041339
-4,0.1101156093487211,-0.4959520473525559
-3.9995,0.1101156093487211,-0.3581957480853793
-3.999,0.08877525963335578,-0.1992461720078678
-3.9985,0.0674349099179905,-0.05089323433552374
-3.998,0.05676473506030786,0.09745970333682032
-3.9975,0.05676473506030786,0.2246193641988295
-3.997,0.07810508477567314,0.3517790250608387
-3.9965,0.1314559590640864,0.4789386859228479
-3.996,0.00341386077189465,0.7120647308365314
-3.9955,-0.6154562809736985,0.9028042221295453
-3.995,-1.084943974711735,1.019367244586387
-3.9945,-0.5300948821122373,1.051157159801889
-3.994,0.2701682322139607,1.040560521396722
-3.9935,0.8783681991018712,0.9875773293708847
-3.993,1.19847344483235,0.8922075837243778
-3.9925,1.262494493978446,0.6166949851900245
-3.992,1.113112045970889,-0.04029659593035631
-3.9915,0.825017324813458,-0.6866915386455698
-3.991,0.6756348768059011,-1.258910012524611
-3.9905,0.6329541773751706,-1.619195718300304
-3.99,0.4515612047945656,-1.555615887869299
-3.9895,0.2701682322139607,-1.280103289334946
-3.989,0.1314559590640864,-0.9728007755850904
-3.9885,0.03542438534494258,-0.7078848154559045
-3.988,-0.2313299860971235,-0.8456411147230812
-3.9875,-0.7968492535543035,-1.089363798041932
-3.987,-1.383708870726849,-0.6337083466197325
-3.9865,-1.863866739322568,0.03387987290581572
-3.986,-1.767835165603424,0.2776025562246667
-3.9855,-1.180975548430879,0.02328323450064829
-3.985,-0.6261264558313813,-0.326405832869877
-3.9845,-0.2206598112394408,-0.570128516188728
-3.984,0.00341386077189465,-0.6866915386455698
-3.9835,0.09944543449103843,-0.6866915386455698
-3.983,0.1207857842064037,-0.6125150698093976
-3.9825,0.1101156093487211,-0.5171453241628908
-3.982,0.07810508477567314,-0.4217755785163839
-3.9815,0.0674349099179905,-0.3052125560595421
-3.981,0.05676473506030786,-0.2204394488182027
-3.9805,0.05676473506030786,-0.09327978795619347
-3.98,0.1207857842064037,0.02328323450064829
-3.9795,0.2701682322139607,0.2987958330350016
-3.979,-0.07127736323188383,0.6378882620003594
-3.9785,-0.7434983792658902,0.8816109453192104
-3.978,-0.7114878546928423,0.92399749893988
-3.9775,-0.08194753808956648,0.9451907757502149
-3.977,0.5475927785137094,0.9345941373450475
-3.9765,0.9637295979633325,0.849821030103708
-3.976,1.102441871113207,0.5955017083796896
-3.9755,1.027750647109428,0.05507314971615059
-3.975,0.8143471499557753,-0.570128516188728
-3.9745,0.5902734779444399,-0.9939940523954253
-3.974,0.5155822539406614,-1.121153713257435
-3.9735,0.3768699807907871,-1.131750351662602
-3.973,0.2274875327832301,-1.046977244421262
-3.9725,0.1207857842064037,-0.9092209451540858
-3.972,0.05676473506030786,-0.7290780922662394
-3.9715,-0.09261771294724913,-0.570128516188728
-3.971,-0.4020527838200457,-0.7396747306714069
-3.9705,-0.8608703027003992,-0.570128516188728
-3.97,-1.330357996438436,-0.008506680714854012
-3.9695,-1.554431668449771,0.3729723018711736
-3.969,-1.212986073003927,0.1928294489833272
-3.9685,-0.7328282044082075,-0.1674562567923655
-3.968,-0.3273615598162672,-0.4535654937318862
-3.9675,-0.06060718837420119,-0.5913217929990628
-3.967,0.05676473506030786,-0.6019184314042303
-3.9665,0.09944543449103843,-0.5277419625680583
-3.966,0.1101156093487211,-0.4217755785163839
-3.9655,0.08877525963335578,-0.3052125560595421
-3.965,0.0674349099179905,-0.1886495336027004
-3.9645,0.05676473506030786,-0.02969995752518888
-3.964,0.05676473506030786,0.06566978812131802
-3.9635,0.08877525963335578,0.1716361721729923
-3.963,0.3555296310754218,0.3517790250608387
-3.9625,0.6863050516635838,0.6378882620003594
-3.962,0.2061471830678648,0.8816109453192104
-3.9615,-0.3060212101009019,0.9769806909657173
-3.961,-0.04993701351651855,0.9663840525605498
-3.9605,0.4622313796522482,0.92399749893988
-3.96,0.8890383739595538,0.8604176685088755
-3.9595,1.081101521397841,0.5743084315693548
-3.959,1.059761171682476,-0.01910331912002144
-3.9585,0.8890383739595538,-0.6231117082145651
-3.958,0.6436243522328531,-1.068170521231597
-3.9575,0.5689331282290746,-1.439052865412457
-3.957,0.4622313796522482,-1.51322933424863
-3.9565,0.3021787567870086,-1.34368311976595
-3.956,0.1634664836371343,-1.078767159636765
-3.9555,0.07810508477567314,-0.8138511995075789
-3.955,-0.08194753808956648,-0.6443049850249
-3.9545,-0.6154562809736985,-0.3581957480853793
-3.954,-1.052933450138687,0.1716361721729923
-3.9535,-1.394379045584531,0.6378882620003594
-3.953,-1.661133417026597,0.8816109453192104
-3.9525,-1.373038695869166,0.55311515475902
-3.952,-0.8608703027003992,0.01268659609548085
-3.9515,-0.4127229586777283,-0.4111789401112165
-3.951,-0.1139580626626144,-0.6337083466197325
-3.9505,0.04609456020262521,-0.6654982618352349
-3.95,0.09944543449103843,-0.5807251545938954
-3.9495,0.1101156093487211,-0.4535654937318862
-3.949,0.08877525963335578,-0.3052125560595421
-3.9485,0.0674349099179905,-0.1462629799820306
-3.948,0.05676473506030786,0.002089957690313421
-3.9475,0.05676473506030786,0.13984625695749
-3.947,0.0674349099179905,0.2564092794143318
-3.9465,-0.04993701351651855,0.4259554938970107
-3.946,-0.658136980404429,0.6802748156210291
-3.9455,-1.255666772434657,0.9028042221295453
-3.945,-1.46907026958831,0.9981739677760521
-3.9445,-0.7328282044082075,1.019367244586387
-3.944,0.1954770082101822,1.00877060618122
-3.9435,0.8676980242441885,0.9663840525605498
-3.943,1.209143619690033,0.849821030103708
-3.9425,1.241154144263081,0.4895353243280153
-3.942,1.059761171682476,-0.1992461720078678
-3.9415,0.7823366253827275,-0.8032545611024114
-3.941,0.6116138276598051,-1.152943628472937
-3.9405,0.5262524287983441,-1.205926820498774
-3.94,0.3661998059331045,-1.142346990067769
-3.9395,0.2061471830678648,-0.9939940523954253
-3.939,0.09944543449103843,-0.8244478379127463
-3.9385,0.02475421048725994,-0.6443049850249
-3.938,-0.1779791118087102,-0.718481453861072
-3.9375,-0.6154562809736985,-0.8138511995075789
-3.937,-1.148965023857831,-0.326405832869877
-3.9365,-1.629122892453549,0.2670059178194992
-3.936,-1.757164990745741,0.55311515475902
-3.9355,-1.277007122150022,0.2564092794143318
-3.935,-0.7328282044082075,-0.1780528951975329
-3.9345,-0.2953510352432193,-0.4959520473525559
-3.934,-0.03926683865883591,-0.6443049850249
-3.9335,0.07810508477567314,-0.6443049850249
-3.933,0.1207857842064037,-0.5595318777835605
-3.9325,0.1101156093487211,-0.4429688553267188
-3.932,0.08877525963335578,-0.2946159176543747
-3.9315,0.0674349099179905,-0.1462629799820306
-3.931,0.05676473506030786,-0.01910331912002144
-3.9305,0.0674349099179905,0.08686306493165288
-3.93,0.0674349099179905,0.1716361721729923
-3.9295,0.03542438534494258,0.3729723018711736
-3.929,0.4302208550792003,0.6696781772158616
-3.9285,0.2168173579255475,0.9028042221295453
-3.928,0.1527963087794516,1.040560521396722
-3.9275,0.5049120790829789,1.082947075017392
-3.927,0.8890383739595538,1.029963882991555
-3.9265,1.134452395686255,0.9451907757502149
-3.926,1.19847344483235,0.6484849004055269
-3.9255,1.091771696255524,0.04447651131098315
-3.925,0.857027849386506,-0.6125150698093976
-3.9245,0.6329541773751706,-1.195330182093607
-3.924,0.6436243522328531,-1.725162102351978
-3.9235,0.5049120790829789,-1.778145294377815
-3.923,0.3235191065023739,-1.502632695843462
-3.9225,0.1741366584948169,-1.152943628472937
-3.922,0.07810508477567314,-0.8244478379127463
-3.9215,-0.08194753808956648,-0.6866915386455698
-3.921,-0.5621054066852853,-0.9304142219644207
-3.9205,-1.042263275281004,-0.6443049850249
-3.92,-1.533091318734406,-0.01910331912002144
-3.9195,-1.703814116457328,0.3623756634660061
-3.919,-1.26633694729234,0.1822328105781598
-3.9185,-0.7328282044082075,-0.1674562567923655
-3.918,-0.3060212101009019,-0.4323722169215513
-3.9175,-0.04993701351651855,-0.5595318777835605
-3.917,0.07810508477567314,-0.5595318777835605
-3.9165,0.1101156093487211,-0.4853554089473885
-3.916,0.1101156093487211,-0.3793890248957141
-3.9155,0.08877525963335578,-0.2628260024388724
-3.915,0.0674349099179905,-0.1674562567923655
-3.9145,0.05676473506030786,-0.07208651114585861
-3.914,0.05676473506030786,0.02328323450064829
-3.9135,0.08877525963335578,0.2140227257936621
-3.913,0.1101156093487211,0.457745409112513
-3.9125,0.142126133921769,0.7438546460520338
-3.912,-0.3593720843893152,0.9557874141553824
-3.9115,-0.8608703027003992,1.082947075017392
-3.911,-0.572775581542968,1.104140351827727
-3.9105,0.08877525963335578,1.051157159801889
-3.91,0.6542945270905358,0.9451907757502149
-3.9095,0.9637295979633325,0.7120647308365314
-3.909,1.027750647109428,0.1928294489833272
-3.9085,0.8890383739595538,-0.4853554089473885
-3.908,0.6542945270905358,-0.9728007755850904
-3.9075,0.6542945270905358,-1.025783967610927
-3.907,0.5689331282290746,-1.004590690800593
-3.9065,0.3875401556484697,-1.004590690800593
-3.906,0.2274875327832301,-0.9622041371799229
-3.9055,0.09944543449103843,-0.8562377531282487
-3.905,-0.02859666380115328,-0.6866915386455698
-3.9045,-0.3593720843893152,-0.2840192792492073
-3.904,-0.1779791118087102,-0.008506680714854012
-3.9035,-0.4980843575391895,0.1822328105781598
-3.903,-1.074273799854052,0.4683420475176805
-3.9025,-1.1062843244271,0.3411823866556712
-3.902,-0.7861790786966207,-0.01910331912002144
-3.9015,-0.423393133535411,-0.3052125560595421
-3.901,-0.156638762093345,-0.4323722169215513
-3.9005,0.00341386077189465,-0.4217755785163839
-3.9,0.0674349099179905,-0.3158091944647096
-3.8995,0.08877525963335578,-0.1780528951975329
-3.899,0.08877525963335578,-0.02969995752518888
-3.8985,0.0674349099179905,0.1080563417419877
-3.898,0.05676473506030786,0.2352160026039969
-3.8975,0.05676473506030786,0.3411823866556712
-3.897,0.0674349099179905,0.4259554938970107
-3.8965,0.2274875327832301,0.55311515475902
-3.896,0.5582629533713921,0.7650479228623686
-3.8955,0.09944543449103843,0.9451907757502149
-3.895,-0.5407650569699201,0.9875773293708847
-3.8945,-0.274010685527854,0.92399749893988
-3.894,0.3341892813600565,0.9028042221295453
-3.8935,0.8463576745288233,0.8816109453192104
-3.893,1.123782220828572,0.7862411996727035
-3.8925,1.15579274540162,0.4259554938970107
-3.892,1.006410297394063,-0.2204394488182027
-3.8915,0.7609962756673623,-0.8032545611024114
-3.891,0.6329541773751706,-1.142346990067769
-3.8905,0.5689331282290746,-1.195330182093607
-3.89,0.3982103305061524,-1.152943628472937
-3.8895,0.2381577076409128,-1.05757388282643
-3.889,0.1101156093487211,-0.9198175835592532
-3.8885,0.01408403562957729,-0.7502713690765743
-3.888,-0.4127229586777283,-0.3475991096802118
-3.8875,-1.127624674142465,0.2246193641988295
