Class_3_Grab_w_two_Hands/Class_3_Grab_w_two_Hands_Zakour_1.csv

#Digilent WaveForms Oscilloscope Acquisition
#Device Name: EExplorer
#Serial Number: SN:210151A2B84A
#Date Time: 2020-10-20 13:13:17.312
#Sample rate: 2000Hz
#Samples: 16384
#Trigger: Source: Channel 1 Type: Edge Condition: Rising Level: 0 V Hyst.: Auto HoldOff: 0 s
#Channel 1: Range: 1 V/div Offset: 0 V
#Channel 2: Range: 1 V/div Offset: 0 V

Time (s),Channel 1 (V),Channel 2 (V)
-4.0960000000000001,1.0917716962555239,-2.0642545313173359
-4.0955000000000004,1.1237822208285428,-2.2020108305843871
-4.0949999999999998,0.81434714995551327,-1.6403889951098964
-4.0945,0.52625242879834411,-0.82444783791274634
-4.0940000000000003,0.29150858192953949,-0.30521255606001441
-4.0934999999999997,0.099445434490960799,-0.09327978795611637
-4.093,0.014084035629577295,-0.0085066807148540119
-4.0925000000000002,0.0034138607719043541,0.012686596095461578
-4.0919999999999996,0.0034138607717879008,0.044476511311137355
-4.0914999999999999,-0.11395806266261441,0.21402272579366208
-4.0910000000000002,-0.16730893695102761,0.28819919462983412
-4.0904999999999996,-0.10328788780485412,0.2564092794142836
-4.0899999999999999,-0.017926488943470625,0.20342608738849466
-4.0895000000000001,0.046094560202625215,0.16103953376782493
-4.0890000000000004,-0.007256314085739464,0.26700591781940286
-4.0884999999999998,-0.67947733011979428,0.74385464605203377
-4.0880000000000001,-1.6504632421689147,0.45774540911251305
-4.0875000000000004,-2.151961460479543,-0.421775578515584
-4.0869999999999997,-1.287677297006395,-0.68669153864597454
-4.0865,0.15279630877945163,-1.131750351662602
-4.0860000000000003,0.84635767452819244,-1.0575738828264973
-4.0854999999999997,0.89970854881705209,-0.52774196256755712
-4.085,0.69697522652126631,0.023283234500648287
-4.0845000000000002,0.46223137965246169,0.44714877070696007
-4.0839999999999996,0.29150858192922896,0.71206473083666633
-4.0834999999999999,0.18480683335249956,0.86041766850887547
-4.0830000000000002,0.14212613392176898,0.89220758372437781
-4.0824999999999996,0.1421261339217981,0.80743447648293232
-4.0819999999999999,0.17413665849481691,0.69087145402619654
-4.0815000000000001,0.22748753278323011,0.54251851635385251
-4.0810000000000004,0.33418928135995951,0.33058574825069664
-4.0804999999999998,0.83568749967114075,-0.2310360872233701
-4.0800000000000001,1.593269914566608,-1.0257839676109275
-4.0795000000000003,1.6572909637126458,-2.2232041073937578
-4.0789999999999997,1.6039400894238736,-2.3397671298510145
-4.0785,1.1451225705439372,-1.5980024414899687
-4.0780000000000003,0.60094365280261752,-0.90922094515471219
-4.0774999999999997,0.32351910650222832,-0.29461591765404699
-4.077,0.16346648363713429,0.065669788121318018
-4.0765000000000002,0.03542438534505904,0.15044289536258038
-4.0759999999999996,-0.0072563140857879876,0.15044289536264785
-4.0754999999999999,-0.0072563140857879876,0.13984625695749003
-4.0750000000000002,-0.071277363231883828,0.21402272579366208
-4.0744999999999996,-0.1779791118086714,0.34118238665563272
-4.0739999999999998,-0.13529841237797968,0.29879583303500157
-4.0735000000000001,-0.06060718837420119,0.24581264100916439
-4.0730000000000004,0.0034138607718364189,0.1928294489833754
-4.0724999999999998,0.024754210487259936,0.19282944898332721
-4.0720000000000001,-0.4554036581084589,0.66967817721586165
-4.0715000000000003,-1.4157193952990235,1.0617537982067002
-4.0709999999999997,-2.247993034199065,0.33058574824958831
-4.0705,-2.1626316353376818,-0.67609490024040231
-4.0700000000000003,-0.81818960327089152,-1.5450192494633417
-4.0694999999999997,0.36619980593346352,-1.7675486559720985
-4.069,0.76099627566736228,-1.1635402668781043
-4.0685000000000002,0.71831557623663156,-0.38998566330088158
-4.0679999999999996,0.53692260365586164,0.24581264100953062
-4.0674999999999999,0.35552963107542179,0.64848490040552687
-4.0670000000000002,0.22748753278323011,0.87101430691404291
-4.0664999999999996,0.16346648363711488,0.95578741415532453
-4.0659999999999998,0.14212613392176898,0.89220758372437781
-4.0655000000000001,0.18480683335249956,0.73325800764686633
-4.0650000000000004,0.22748753278319128,0.5743084315694994
-4.0644999999999998,0.28083840707164331,0.41535885549184332
-4.0640000000000001,0.52625242879834411,0.076266426526485451
-4.0635000000000003,1.2518243191201037,-0.66549826183456018
-4.0629999999999997,1.497238340847707,-1.9053049552403645
-4.0625,1.7639927122895305,-2.4987167059292008
-4.0620000000000003,1.4652278162746881,-1.9582881472661531
-4.0614999999999997,0.86769802424381004,-1.1741369052826067
-4.0609999999999999,0.45156120479456557,-0.44296885532671876
-4.0605000000000002,0.21681735792554749,-0.029699957525188878
-4.0599999999999996,0.035424385344884353,0.044476511310963876
-4.0594999999999999,-0.028596663801153277,0.023283234500648287
-4.0590000000000002,-0.028596663801153277,-0.019103319120021445
-4.0585000000000004,-0.017926488943480329,-0.019103319120021445
-4.0579999999999998,-0.12462823752029703,0.15044289536265748
-4.0575000000000001,-0.13529841237797968,0.2246193641988295
-4.0570000000000004,-0.071277363231942059,0.21402272579367171
-4.0564999999999998,0.0034138607718946501,0.20342608738849466
-4.056,0.046094560202625215,0.17163617217299235
-4.0555000000000003,-0.10328788780479588,0.3835689402761483
-4.0549999999999997,-0.87154047755895536,0.94519077574996435
-4.0545,-1.8318562147495197,0.66967817721586165
-4.0540000000000003,-2.1306211107643618,-0.26282600243802423
-4.0534999999999997,-1.0636036249951275,-1.0999604364475912
-4.0529999999999999,0.30217875678700862,-1.6403889951106385
-4.0525000000000002,0.857027849386506,-1.2801032893349458
-4.0519999999999996,0.8463576745286292,-0.54893523937777622
-4.0514999999999999,0.63295417737517057,0.12924961855232261
-4.0510000000000002,0.40888050536383502,0.60609834678485708
-4.0505000000000004,0.24882788249874097,0.88161094531895978
-4.0499999999999998,0.15279630877945163,1.0193672445863871
-4.0495000000000001,0.12078578420640371,0.99817396777605205
-4.0490000000000004,0.15279630877942252,0.86041766850900081
-4.0484999999999998,0.18480683335254808,0.71206473083638688
-4.048,0.23815770764091276,0.55311515475901996
-4.0475000000000003,0.43022085507902563,0.22461936419912826
-4.0469999999999997,1.1131120459711998,-0.47475877054333898
-4.0465,1.4545576414167338,-1.7039688255416432
-4.0460000000000003,1.8280137614352865,-2.6152797283852136
-4.0454999999999997,1.8280137614350633,-2.4457335139026695
-4.0449999999999999,1.2091436196900331,-1.6827755487313083
-4.0445000000000002,0.66496470194821833,-0.84564111472308123
-4.0439999999999996,0.34485945621751596,-0.2522293640335026
-4.0434999999999999,0.099445434491038431,-0.029699957525188878
-4.0430000000000001,-0.017926488943470625,0.012686596095480854
-4.0425000000000004,-0.039266838658816507,0.0020899576903230591
-4.0419999999999998,-0.039266838658835915,0.012686596095480854
-4.0415000000000001,-0.13529841237797968,0.16103953376782493
-4.0410000000000004,-0.19931946152401731,0.25640927941424507
-4.0404999999999998,-0.1459685872356235,0.25640927941437031
-4.04,-0.10328788780493176,0.29879583303500157
-4.0395000000000003,-0.092617712947258832,0.36237566346594829
-4.0389999999999997,-0.16730893695162929,0.48953532432849722
-4.0385,-0.82885977812735145,1.0193672445863871
-4.0380000000000003,-1.7785053404602427,0.99817396777607137
-4.0374999999999996,-2.5894386296454046,-0.040296595931397172
-4.0369999999999999,-3.0482561485253408,-1.1847335436884392
-4.0365000000000002,-2.9628947496638798,-1.8099352095933177
-4.0359999999999996,-2.0666000616176352,-1.4178595886013998
-4.0354999999999999,-1.0742737998540521,-0.62311170821456507
-4.0350000000000001,-0.3700422592469978,0.10805634174198775
-4.0345000000000004,0.035424385344573817,0.62729162359471968
-4.0339999999999998,0.21681735792554749,0.92399749893988004
-4.0335000000000001,0.25949805735627807,1.0617537982070568
-4.0330000000000004,0.2488278824986051,1.0723504366122147
-4.0324999999999998,0.23815770764091276,0.94519077575005106
-4.032,0.23815770764091276,0.76504792286236856
-4.0315000000000003,0.25949805735625864,0.58490506997468605
-4.0309999999999997,0.31284893164510852,0.38356894027585914
-4.0305,0.77166645052504479,-0.14626297998203064
-4.0300000000000002,1.5932699145658606,-0.9198175835585497
-4.0294999999999996,2.18012953173894,-1.7463553791631032
-4.0289999999999999,1.9453856848701352,-2.6152797283860423
-4.0285000000000002,1.5079085157051471,-2.1702209153690104
-4.0279999999999996,0.83568749967068467,-1.3754730349808457
-4.0274999999999999,0.33418928136005654,-0.70788481545590454
-4.0270000000000001,0.15279630877945163,-0.20984281041303524
-4.0265000000000004,0.035424385345049325,0.0020899576901206585
-4.0259999999999998,-0.028596663801153277,0.012686596095480854
-4.0255000000000001,-0.039266838658835915,-0.0085066807148540119
-4.0250000000000004,-0.092617712947200614,0.044476511310934962
-4.0244999999999997,-0.25267033581245962,0.23521600260400657
-4.024,-0.22065981123944084,0.24581264100916439
-4.0235000000000003,-0.11395806266271145,0.20342608738853321
-4.0229999999999997,-0.0072563140857491697,0.17163617217301161
-4.0225,0.035424385344942577,0.19282944898332721
-4.0220000000000002,-0.39138260896197485,0.61669498518963906
-4.0214999999999996,-1.3516983461545868,1.0405605213961051
-4.0209999999999999,-2.2159825096260946,0.36237566346600614
-4.0205000000000002,-2.0452597119031726,-0.4535654937318862
-4.0199999999999996,-0.65813698040334212,-1.1953301820938764
-4.0194999999999999,0.53692260365602662,-1.4920360574382947
-4.0190000000000001,0.87836819910187125,-1.0045906908005926
-4.0185000000000004,0.7823366253828149,-0.30521255606017816
-4.0179999999999998,0.55826295337139209,0.28819919462983412
-4.0175000000000001,0.35552963107542179,0.68027481562102909
-4.0170000000000003,0.21681735792567364,0.90280422212934286
-4.0164999999999997,0.14212613392174958,1.008770606181181
-4.016,0.12078578420640371,0.96638405256054982
-4.0155000000000003,0.15279630877942252,0.80743447648318289
-4.0149999999999997,0.20614718306792307,0.648484900405363
-4.0145,0.27016823221396069,0.46834204751768049
-4.0140000000000002,0.54759277851345711,0.10805634174231543
-4.0134999999999996,1.2838348436940834,-0.60191843140530965
-4.0129999999999999,1.5825997397089255,-1.7887419327829828
-4.0125000000000002,1.9240453351547699,-2.4139435986878612
-4.0119999999999996,1.7106418380005739,-2.0536578929114553
-4.0114999999999998,1.1131120459708892,-1.2695066509297783
-4.0110000000000001,0.63295417737517057,-0.4641621321370536
-4.0105000000000004,0.27016823221429065,-0.050893234335899595
-4.0099999999999998,0.046094560202625215,0.055073149716150585
-4.0095000000000001,-0.039266838658835915,0.033879872905815719
-4.0090000000000003,-0.039266838658835915,-0.019103319119973254
-4.0084999999999997,-0.039266838658971778,-0.029699957524996125
-4.008,-0.18864928666639288,0.18223281057815977
-4.0075000000000003,-0.20998963638173876,0.26700591781942212
-4.0069999999999997,-0.1459685872355847,0.26700591781945104
-4.0065,-0.06060718837420119,0.21402272579366208
-4.0060000000000002,0.0034138607718946501,0.17163617217299235
-4.0054999999999996,-0.24200016095545629,0.53192187794926327
-4.0049999999999999,-0.95690187641954316,1.1677201822587309
-4.0045000000000002,-1.437059745015262,1.0405605213967219
-4.0039999999999996,-1.4904106193029765,0.0020899576893207497
-4.0034999999999998,-0.72215802955052499,-1.0893637980419322
-4.0030000000000001,0.40888050536383502,-1.6721789103261409
-4.0025000000000004,0.82501732481307954,-1.2801032893353024
-4.0019999999999998,0.77166645052504479,-0.52774196256805828
-4.0015000000000001,0.55826295337139209,0.16103953376782493
-4.0010000000000003,0.34485945621793324,0.63788826199992577
-4.0004999999999997,0.20614718306779692,0.91340086053482838
-4,0.13145595906408636,1.0405605213967219
-3.9994999999999998,0.11011560934872107,1.0299638829915545
-3.9990000000000001,0.14212613392176898,0.88161094531921036
-3.9984999999999999,0.18480683335249956,0.69087145402619654
-3.9980000000000002,0.13145595906408636,0.39416557868150842
-3.9975000000000001,-0.38071243410468042,-0.49595204735255594
-3.9969999999999999,0.22748753278323011,-1.333086481360783
-3.9965000000000002,1.2838348436938116,-2.2020108305845123
-3.996,2.1801295317391536,-2.8590024117048936
-3.9954999999999998,2.6602874003348722,-3.0179519877824048
-3.9950000000000001,2.2334804060275668,-2.2126074689896797
-3.9944999999999999,1.3691962425552726,-1.227120097309109
-3.9940000000000002,0.62228400251748783,-0.54893523937839306
-3.9935,0.18480683335249956,-0.15685961838719809
-3.9929999999999999,-0.017926488943470625,0.0020899576903134209
-3.9925000000000002,-0.071277363231883828,0.044476511310983152
-3.992,-0.06060718837420119,0.065669788121318018
-3.9914999999999998,-0.16730893695102761,0.2246193641988295
-3.9910000000000001,-0.25267033581248871,0.34118238665567124
-3.9904999999999999,-0.18864928666639288,0.27760255622466667
-3.9900000000000002,-0.10328788780493176,0.19282944898332721
-3.9895,-0.028596663801153277,0.13984625695749003
-3.9889999999999999,-0.06060718837420119,0.26700591781949923
-3.9885000000000002,-0.67947733011979428,0.86041766850887547
-3.988,-1.6504632421689147,1.1783168206638983
-3.9874999999999998,-2.3760351324913342,0.35177902506083869
-3.9870000000000001,-1.7998456901764717,-0.83504447631791379
-3.9864999999999999,-0.33803173467394987,-1.6827755487313083
-3.9860000000000002,0.49424190422529612,-1.5450192494641319
-3.9855,0.6863050516635838,-0.80325456110241145
-3.9849999999999999,0.59027347794443985,-0.050893234335523743
-3.9845000000000002,0.41955068022151765,0.51072860113835017
-3.984,0.25949805735627807,0.84982103010370802
-3.9834999999999998,0.16346648363713429,1.0299638829915545
-3.9830000000000001,0.11011560934872107,1.0723504366122243
-3.9824999999999999,0.12078578420640371,0.96638405256054982
-3.9820000000000002,0.16346648363713429,0.78624119967270345
-3.9815,0.21681735792554749,0.60609834678485708
-3.9809999999999999,0.30217875678700862,0.40476221708667587
-3.9805000000000001,0.70764540137894905,-0.093279787956193475
-3.98,1.4545576414167338,-0.82444783791274634
-3.9794999999999998,1.6679611385703865,-1.9794814240759964
-3.9790000000000001,1.689301488285752,-2.3927503218775263
-3.9784999999999999,1.2411541442630809,-1.7251621023519781
-3.9780000000000002,0.63295417737517057,-1.0045906908005926
-3.9775,0.27016823221396069,-0.37938902489571413
-3.9769999999999999,0.11011560934872107,-0.019103319120021445
-3.9765000000000001,-0.017926488943470625,0.033879872905815719
-3.976,-0.06060718837420119,0.012686596095480854
-3.9754999999999998,-0.049937013516518552,-0.019103319120021445
-3.9750000000000001,-0.08194753808956648,0.023283234500648287
-3.9744999999999999,-0.22065981123944084,0.20342608738849466
-3.9740000000000002,-0.19931946152407554,0.24581264100916439
-3.9735,-0.11395806266261441,0.2246193641988295
-3.9729999999999999,-0.06060718837420119,0.28819919462983412
-3.9725000000000001,-0.071277363231883828,0.38356894027634103
-3.972,-0.4980843575391895,0.82862775329337313
-3.9714999999999998,-1.405049220442214,1.4008462271724147
-3.9710000000000001,-2.2053123347684123,0.98757732937088472
-3.9704999999999999,-2.1412912856223163,-0.082683149551026042
-3.9700000000000002,-1.0956141495694174,-1.1211537132574345
-3.9695,-0.57277558154296804,-1.5662125262744668
-3.9689999999999999,-0.20998963638175816,-1.0999604364470996
-3.9685000000000001,0.014084035629577295,-0.36879238649054674
-3.968,0.12078578420640371,0.26700591781949923
-3.9674999999999998,0.16346648363713429,0.70146809243136399
-3.9670000000000001,0.16346648363713429,0.95578741415538238
-3.9664999999999999,0.14212613392176898,1.0723504366122243
-3.9660000000000002,0.14212613392176898,1.0299638829915545
-3.9655,0.17413665849481691,0.87101430691404291
-3.9649999999999999,0.21681735792554749,0.69087145402619654
-3.9645000000000001,0.27016823221396069,0.50013196273318283
-3.964,0.51558225394066137,0.15044289536265748
-3.9634999999999998,1.0811015213978414,-0.6972881770507372
-3.9630000000000001,1.1878032699746677,-2.0218679776966662
-3.9624999999999999,1.6146102642819735,-2.6258763667912097
-3.9620000000000002,1.5079085157051471,-2.4245402370930287
-3.9615,0.99574012253638022,-1.6403889951106385
-3.9609999999999999,0.59027347794443985,-0.76086800748174177
-3.9605000000000001,0.27016823221396069,-0.18864953360270037
-3.96,0.046094560202625215,0.044476511310983152
-3.9594999999999998,-0.049937013516518552,0.11865298014715518
-3.9590000000000001,-0.06060718837420119,0.10805634174198775
-3.9584999999999999,-0.049937013516518552,0.086863064931652884
-3.9580000000000002,-0.18864928666639288,0.24581264100916439
-3.9575,-0.20998963638175816,0.28819919462983412
-3.9569999999999999,-0.13529841237797968,0.23521600260399694
-3.9565000000000001,-0.049937013516518552,0.17163617217299235
-3.956,0.0034138607718946501,0.13984625695749003
-3.9554999999999998,-0.16730893695102761,0.40476221708667587
-3.9550000000000001,-0.95690187641954316,1.0829470750173917
-3.9544999999999999,-1.8958772638956156,1.3902495887672472
-3.9540000000000002,-2.3333544330606037,0.66967817721586165
-3.9535,-1.9065474387532981,-0.33700247127504446
-3.9529999999999998,-1.6397930673112322,-1.227120097309109
-3.9525000000000001,-1.1489650238578306,-1.1953301820936066
-3.952,-0.6047861061160158,-0.63370834661973252
-3.9514999999999998,-0.18864928666639288,-0.019103319120021445
-3.9510000000000001,0.046094560202625215,0.45774540911251305
-3.9504999999999999,0.15279630877945163,0.76504792286236856
-3.9500000000000002,0.18480683335249956,0.93459413734504748
-3.9495,0.18480683335249956,0.96638405256054982
-3.9489999999999998,0.19547700821018218,0.86041766850887547
-3.9485000000000001,0.21681735792554749,0.70146809243136399
-3.948,0.25949805735627807,0.54251851635385251
-3.9474999999999998,0.38754015564846972,0.29879583303500157
-3.9470000000000001,0.99574012253638022,-0.31580919446470956
-3.9464999999999999,1.657290963712704,-1.0999604364470996
-3.9460000000000002,1.657290963712704,-2.1914141921793449
-3.9455,1.6039400894242908,-2.2126074689896797
-3.9449999999999998,1.0811015213978414,-1.4708427806279598
-3.9445000000000001,0.57960330308675734,-0.65490162343006741
-3.944,0.31284893164469124,-0.019103319120021445
-3.9434999999999998,0.099445434491038431,0.25640927941433178
-3.9430000000000001,-0.017926488943470625,0.29879583303500157
-3.9424999999999999,-0.049937013516518552,0.26700591781949923
-3.9420000000000002,-0.039266838658835915,0.20342608738849466
-3.9415,-0.11395806266261441,0.27760255622466667
-3.9409999999999998,-0.19931946152407554,0.35177902506083869
-3.9405000000000001,-0.14596858723566233,0.28819919462983412
-3.9399999999999999,-0.071277363231883828,0.20342608738849466
-3.9394999999999998,-0.0072563140857879876,0.13984625695749003
-3.9390000000000001,-0.028596663801153277,0.19282944898332721
-3.9384999999999999,-0.59411593125833329,0.74385464605203377
-3.9380000000000002,-1.5010807941613578,1.3690563119569124
-3.9375,-2.2800035587721905,0.95578741415538238
-3.9369999999999998,-2.8135123016563228,-0.20984281041303524
-3.9365000000000001,-2.8561930010870533,-1.2377167357142764
-3.9359999999999999,-2.2693333839145078,-1.3754730349814528
-3.9355000000000002,-1.2663369472923398,-0.82444783791274634
-3.9350000000000001,-0.53009488211223732,-0.17805289519753292
-3.9344999999999999,-0.071277363231883828,0.34118238665567124
-3.9340000000000002,0.14212613392176898,0.66967817721586165
-3.9335,0.21681735792554749,0.84982103010370802
-3.9329999999999998,0.21681735792554749,0.9134008605347127
-3.9325000000000001,0.20614718306786484,0.84982103010370802
-3.9319999999999999,0.21681735792554749,0.71206473083653143
-3.9315000000000002,0.23815770764091276,0.5637117931641874
-3.931,0.046094560202625215,0.18223281057815977
-3.9304999999999999,-0.33803173467394987,-0.792657922697244
-3.9300000000000002,0.50491207908297886,-1.5874058030848013
-3.9295,1.5612593899935603,-2.3715570450671914
-3.9289999999999998,2.3081716300313451,-2.8695990501100606
-3.9285000000000001,2.3188418048890278,-2.4245402370930287
