Class_3_Grab_w_two_Hands/Class_3_Grab_with_Both_hands_Turki_14.csv

#Digilent WaveForms Oscilloscope Acquisition
#Device Name: EExplorer
#Serial Number: SN:210151A2B84A
#Date Time: 2021-02-03 11:22:53.316
#Sample rate: 2000Hz
#Samples: 16384
#Trigger: Source: Channel 1 Type: Edge Condition: Rising Level: 0 V Hyst.: Auto HoldOff: 0 s
#Channel 1: Range: 1 V/div Offset: 0 V Attenuation: 1 X
#Channel 2: Range: 1 V/div Offset: 0 V Attenuation: 1 X
#Power Supplies: ON
#Fixed Supply: ON
#Voltage: 3.3 V Readback: 3.302 V
#Positive Supply: ON
#Voltage: 3.7 V Readback: 3.717 V
#Current: 40 mA Readback: 16 mA
#Negative Supply: ON
#Voltage: -3.7 V Readback: -3.348 V
#Current: -40 mA Readback: -4 mA
#Reference 1: ON
#Voltage: 0 V
#Reference 2: ON
#Voltage: 0 V

Time (s),Channel 1 (V),Channel 2 (V)
-4.096,-1.202315898146244,-1.693372187136476
-4.0955,-0.9142211769890745,-1.19533018209406
-4.095,-0.3913826089619555,-0.7396747306712045
-4.0945,0.05676473506030786,-0.5171453241628908
-4.094,0.3341892813598042,-0.5171453241628908
-4.0935,0.4622313796522773,-0.6125150698095518
-4.093,0.4942419042252961,-0.7820612842920766
-4.0925,0.6329541773750444,-0.9728007755849168
-4.092,0.7183155762365927,-1.025783967610792
-4.0915,0.6756348768059011,-0.8774310299385835
-4.091,0.5689331282290746,-0.6231117082145651
-4.0905,0.4622313796521803,-0.358195748085148
-4.09,0.3875401556484697,-0.1038764263613609
-4.0895,0.2168173579255475,0.3411823866556712
-4.089,-0.08194753808929475,0.2987958330350401
-4.0885,-0.4340633083930936,-0.3475991096802118
-4.088,-0.807519428411986,-1.004590690800593
-4.0875,-1.309017646722614,-1.407262950196589
-4.087,-1.25566677243422,-1.195330182092903
-4.0865,-0.7755089038389382,-0.4217755785163839
-4.086,-0.2846808603859831,0.3729723018704507
-4.0855,0.07810508477585752,0.9663840525608774
-4.085,0.2808384070716433,1.326669758336243
-4.0845,0.3661998059330268,1.496215972818767
-4.084,0.38754015564846,1.538602526439572
-4.0835,0.3768699807907871,1.517409249629256
-4.083,0.3555296310754218,1.453829419198252
-4.0825,0.3448594562177295,1.358459673551629
-4.082,0.3341892813600565,1.231300012689736
-4.0815,0.2168173579255475,0.9769806909657173
-4.081,-0.3593720843887912,0.1928294489840404
-4.0805,-0.8608703027003992,-0.718481453861072
-4.08,-1.116954499284783,-1.375473034981453
-4.0795,-0.9142211769889969,-1.258910012524717
-4.079,-0.4340633083926569,-0.7820612842917971
-4.0785,0.04609456020262521,-0.474758770542221
-4.078,0.3661998059328133,-0.3793890248958008
-4.0775,0.5049120790830079,-0.4217755785164514
-4.077,0.5369226036560266,-0.4959520473525559
-4.0765,0.5155822539406808,-0.6125150698092916
-4.076,0.515582253940671,-0.7926579226973404
-4.0755,0.5262524287983441,-0.8986243067489184
-4.075,0.4835717293676135,-0.7608680074817418
-4.0745,0.4515612047945268,-0.527741962567827
-4.074,0.408880505363835,-0.2734226408440398
-4.0735,0.3768699807907871,-0.04029659593035631
-4.073,0.38754015564846,0.3199891098450087
-4.0725,0.4942419042252961,0.6590815388106942
-4.072,0.07810508477567314,0.1610395337678249
-4.0715,-0.4874141826809926,-0.5065486857571162
-4.071,-1.170305373573574,-0.9622041371801157
-4.0705,-1.586442193022819,-1.174136905283272
-4.07,-1.255666772434958,-0.7078848154563286
-4.0695,-0.6688071552616557,0.07626642652713117
-4.069,-0.1673089369510276,0.7862411996727035
-4.0685,0.1527963087794516,1.273686566310405
-4.068,0.3235191065024321,1.538602526439687
-4.0675,0.3875401556484697,1.644568910491266
-4.067,0.3982103305061524,1.655165548896433
-4.0665,0.3768699807907677,1.612778995275676
-4.066,0.3555296310754218,1.517409249629256
-4.0655,0.3341892813600565,1.37965295036208
-4.065,0.3021787567870378,1.188913459069239
-4.0645,-0.124628237520297,0.5849050699745222
-4.064,-0.690147504977477,-0.3581957480853793
-4.0635,-1.042263275280684,-1.163540266877372
-4.063,-0.9248913518460778,-1.439052865412197
-4.0625,-0.4660738329661415,-1.152943628472937
-4.062,-0.01792648894387822,-0.8032545611027295
-4.0615,0.2915085819294715,-0.5595318777835027
-4.061,0.4515612047945656,-0.4959520473525559
-4.0605,0.5049120790829789,-0.5807251545938954
-4.06,0.5049120790829885,-0.7078848154559431
-4.0595,0.5155822539406614,-0.7502713690765743
-4.059,0.7716664505250448,-0.792657922697244
-4.0585,0.8143471499557364,-0.7608680074817706
-4.058,0.6863050516635838,-0.6125150698093976
-4.0575,0.5475927785137094,-0.4217755785163839
-4.057,0.44089102993698,-0.2204394488183858
-4.0565,0.4195506802215176,0.04447651131098315
-4.056,0.6329541773751706,0.5319218779486851
-4.0555,0.1954770082105801,0.2987958330352136
-4.055,-0.4767440078242804,-0.3793890248961478
-4.0545,-0.9782422261349084,-0.8562377531282487
-4.054,-1.501080794160882,-1.174136905282983
-4.0535,-1.469070269587825,-0.9939940523947602
-4.053,-0.9355615267041777,-0.2628260024388724
-4.0525,-0.3807124341046804,0.5213252395435176
-4.052,0.03542438534514637,1.114736990233222
-4.0515,0.2594980573562781,1.475022696008586
-4.051,0.3661998059331045,1.644568910491266
-4.0505,0.3875401556484503,1.676358825706739
-4.05,0.3875401556484697,1.623375633680931
-4.0495,0.3661998059331045,1.538602526439591
-4.049,0.3448594562177586,1.443232780793171
-4.0485,0.334189281359911,1.305476481525628
-4.048,0.1741366584948169,0.9981739677760521
-4.0475,-0.3166913849581381,0.1822328105789018
-4.047,-0.6901475049775159,-0.7396747306719562
-4.0465,-0.7328282044082075,-1.34368311976595
-4.046,-0.4127229586780195,-1.24831337411953
-4.0455,-0.007256314085516262,-0.9304142219642183
-4.045,0.291508581929326,-0.7078848154559045
-4.0445,0.4515612047945656,-0.6443049850249
-4.044,0.5049120790829692,-0.6972881770508432
-4.0435,0.4942419042252961,-0.8138511995075789
-4.043,0.4835717293676135,-0.9198175835592532
-4.0425,0.57960330308667,-1.046977244421147
-4.042,0.6222840025174878,-0.9728007755850904
-4.0415,0.5582629533713921,-0.7396747306714069
-4.041,0.4835717293676814,-0.474758770542462
-4.0405,0.4195506802214788,-0.2098428104128232
-4.04,0.3768699807907871,0.02328323450064829
-4.0395,0.03542438534525311,-0.04029659593029848
-4.039,-0.6581369804048464,-0.5595318777840231
-4.0385,-1.116954499284783,-1.068170521231597
-4.038,-1.405049220441952,-1.290699927739911
-4.0375,-1.789175515318605,-1.322489842955326
-4.037,-1.586442193022819,-1.004590690800593
-4.0365,-0.9355615267041777,-0.2204394488182027
-4.036,-0.348701909531254,0.5849050699750522
-4.0355,0.0674349099179905,1.167720182258731
-4.035,0.291508581929326,1.496215972818921
-4.0345,0.3875401556483824,1.623375633680815
-4.034,0.3982103305061524,1.602182356870596
-4.0335,0.3875401556484697,1.528005888034424
-4.033,0.3555296310754509,1.40084622717253
-4.0325,0.3448594562177197,1.252493289499907
-4.032,0.3235191065023739,1.072350436612224
-4.0315,0.2274875327833175,0.7862411996729637
-4.031,-0.3273615598166748,0.04447651131021214
-4.0305,-0.7755089038389382,-0.8032545611024114
-4.03,-0.9035510021310135,-1.460246142222195
-4.0295,-0.6901475049770889,-1.44964950381723
-4.029,-0.2633405106701714,-1.01518732920576
-4.0285,0.1101156093487211,-0.6654982618352349
-4.028,0.3661998059332112,-0.5383386009732545
-4.0275,0.4835717293676135,-0.570128516188728
-4.027,0.5049120790829789,-0.6972881770507372
-4.0265,0.4835717293676329,-0.8032545611023151
-4.026,0.408880505363835,-0.9410108603695881
-4.0255,0.2594980573562781,-0.9939940523954253
-4.025,0.2381577076409322,-0.7926579226974271
-4.0245,0.2594980573563169,-0.5065486857574631
-4.024,0.3021787567870086,-0.2204394488182027
-4.0235,0.3448594562177004,0.02328323450042663
-4.023,0.4729015545101347,0.3517790250611471
-4.0225,0.6969752265212663,0.6908714540261965
-4.022,0.259498057356676,0.1928294489837802
-4.0215,-0.2633405106708022,-0.5489352393789039
-4.021,-0.9569018764195432,-1.110557074852267
-4.0205,-1.277007122150022,-1.258910012524611
-4.02,-0.9675720512767793,-0.6654982618345024
-4.0195,-0.4767440078238243,0.13984625695749
-4.019,-0.06060718837420119,0.8074344764830383
-4.0185,0.1954770082099492,1.252493289499666
-4.018,0.3341892813600565,1.485619334413754
-4.0175,0.3768699807907871,1.570392441655093
-4.017,0.3768699807907871,1.549199164844778
-4.0165,0.3555296310754121,1.496215972818834
-4.016,0.3448594562177392,1.400846227172415
-4.0155,0.3341892813600663,1.284283204715679
-4.015,0.3021787567866301,1.104140351827168
-4.0145,-0.1139580626626144,0.4895353243280153
-4.014,-0.7434983792653177,-0.4323722169207129
-4.0135,-1.14896502385784,-1.227120097309369
-4.013,-1.159635198715513,-1.51322933424863
-4.0125,-0.7008176798351597,-1.227120097309109
-4.012,-0.1779791118083609,-0.8668343915332041
-4.0115,0.2061471830678648,-0.6337083466197325
-4.011,0.4302208550792003,-0.5595318777835605
-4.0105,0.5049120790829109,-0.6019184314041918
-4.01,0.4942419042252961,-0.6654982618352349
-4.0095,0.4729015545099309,-0.7078848154559045
-4.009,0.4942419042252767,-0.7290780922662201
-4.0085,0.4835717293675747,-0.6654982618351192
-4.008,0.4408910299368829,-0.5383386009732256
-4.0075,0.3875401556485182,-0.368792386490701
-4.007,0.3555296310754509,-0.1886495336024691
-4.0065,0.3875401556484697,0.06566978812131802
-4.006,0.6969752265212663,0.5743084315693548
-4.0055,0.4835717293671574,0.3941655786809012
-4.005,-0.01792648894347063,-0.2734226408440398
-4.0045,-0.4980843575391895,-0.6549016234300674
-4.004,-1.116954499285016,-0.9410108603695785
-4.0035,-1.373038695869166,-0.9304142219644207
-4.003,-0.9995825758502737,-0.2946159176543747
-4.0025,-0.4767440078242998,0.4683420475169866
-4.002,-0.06060718837420119,1.093543713422559
-4.0015,0.2061471830678648,1.485619334413754
-4.001,0.3341892813599401,1.665762187301437
-4.0005,0.3768699807907871,1.697552102517055
-4,0.3768699807907871,1.644568910491266
-3.9995,0.3555296310754218,1.559795803249926
-3.999,0.3448594562177392,1.453829419198252
-3.9985,0.3235191065023739,1.305476481525908
-3.998,0.1314559590640864,0.9134008605347127
-3.9975,-0.4127229586777283,0.04447651131098315
-3.997,-0.7968492535543035,-0.8562377531282487
-3.9965,-0.9248913518464952,-1.449649503817625
-3.996,-0.6261264558313813,-1.311893204550448
-3.9955,-0.2206598112394408,-0.9092209451540858
-3.995,0.09944543449103843,-0.6443049850249
-3.9945,0.3128489316446912,-0.6019184314042303
-3.994,0.4195506802215176,-0.7078848154559045
-3.9935,0.4729015545099309,-0.8456411147230812
-3.993,0.4835717293676135,-0.8986243067489184
-3.9925,0.5582629533713921,-1.036380606016095
-3.992,0.5582629533713921,-1.004590690800593
-3.9915,0.4942419042252961,-0.7396747306714069
-3.991,0.4408910299368829,-0.4429688553267188
-3.9905,0.3982103305061524,-0.1780528951975329
-3.99,0.3661998059331045,0.05507314971615059
-3.9895,0.3235191065023739,0.4047622170866759
-3.989,0.142126133921769,0.3941655786815084
-3.9885,-0.156638762093345,-0.2310360872233701
-3.988,-0.391382608962363,-0.792657922697244
-3.9875,-0.8502001278427167,-1.163540266878104
-3.987,-1.26633694729234,-1.280103289334946
-3.9865,-1.052933450138687,-0.7396747306714069
-3.986,-0.572775581542968,0.06566978812131802
-3.9855,-0.1352984123779797,0.7544512844572011
-3.985,0.1527963087794516,1.210106735879401
-3.9845,0.3128489316446912,1.453829419198252
-3.984,0.3768699807907871,1.528005888034424
-3.9835,0.3768699807907871,1.517409249629256
-3.983,0.3661998059331045,1.464426057603419
-3.9825,0.3448594562177392,1.369056311956912
-3.982,0.3341892813600565,1.241896651094903
-3.9815,0.2274875327832301,0.9981739677760521
-3.981,-0.3487019095316325,0.2458126410091644
-3.9805,-0.9995825758502737,-0.6654982618352349
-3.98,-1.287677297007705,-1.354279758171118
-3.9795,-1.116954499284783,-1.364876396576285
-3.979,-0.5834457564006506,-0.9833974139902578
-3.9785,-0.06060718837420119,-0.6654982618352349
-3.978,0.2488278824985954,-0.5383386009732256
-3.9775,0.408880505363835,-0.5171453241628908
-3.977,0.4729015545099309,-0.5383386009732256
-3.9765,0.4835717293676135,-0.5595318777835605
-3.976,0.4622313796522482,-0.6972881770507372
-3.9755,0.3555296310754218,-0.8350444763179138
-3.975,0.3341892813600565,-0.7502713690765743
-3.9745,0.3448594562177392,-0.5595318777835605
-3.974,0.3555296310754218,-0.3370024712750445
-3.9735,0.3661998059331045,-0.1250697031716958
-3.973,0.4835717293676135,0.2246193641988295
-3.9725,0.7609962756673623,0.6696781772158616
-3.972,0.3555296310754218,0.2564092794143318
-3.9715,-0.2526703358124887,-0.4217755785163839
-3.971,-0.9675720512772257,-0.9092209451540858
-3.9705,-1.46907026958831,-1.184733543688439
-3.97,-1.234326422719292,-0.8138511995075789
-3.9695,-0.690147504977477,-0.05089323433552374
-3.969,-0.1993194615240755,0.6802748156210291
-3.9685,0.1314559590640864,1.188913459069066
-3.968,0.3128489316446912,1.496215972818921
-3.9675,0.3768699807907871,1.623375633680931
-3.967,0.3875401556484697,1.6657621873016
-3.9665,0.3768699807907871,1.644568910491266
-3.966,0.3661998059331045,1.580989080060261
-3.9655,0.3448594562177392,1.485619334413754
-3.965,0.3235191065023739,1.326669758336243
-3.9645,-0.06060718837420119,0.7862411996727035
-3.964,-0.7008176798351597,-0.1568596183871981
-3.9635,-1.074273799854052,-1.025783967610927
-3.963,-1.191645723288561,-1.481439419033127
-3.9625,-0.8822106524157645,-1.248313374119443
-3.962,-0.3380317346739499,-0.9198175835592532
-3.9615,0.08877525963335578,-0.7290780922662394
-3.961,0.3555296310754218,-0.6549016234300674
-3.9605,0.4835717293676135,-0.6549016234300674
-3.96,0.5369226036560266,-0.6760949002404023
-3.9595,0.5369226036560266,-0.6972881770507372
-3.959,0.6329541773751706,-0.8138511995075789
-3.9585,0.6756348768059011,-0.8138511995075789
-3.958,0.6436243522328531,-0.7290780922662394
-3.9575,0.5582629533713921,-0.5383386009732256
-3.957,0.4622313796522482,-0.3052125560595421
-3.9565,0.4302208550792003,-0.02969995752518888
-3.956,0.6863050516635838,0.5107286011383502
-3.9555,0.4622313796522482,0.3623756634660061
-3.955,-0.1352984123779797,-0.2840192792492073
-3.9545,-0.8715404775580819,-0.7714646458869092
-3.954,-1.543761493592088,-1.121153713257435
-3.9535,-1.543761493592088,-0.9833974139902578
-3.953,-0.9782422261349084,-0.2734226408440398
-3.9525,-0.4020527838200457,0.5001319627331828
-3.952,0.01408403562957729,1.104140351827727
-3.9515,0.2594980573562781,1.475022696008586
-3.951,0.3661998059331045,1.655165548896433
-3.9505,0.3982103305061524,1.70814874092227
-3.95,0.3875401556484697,1.686955464111935
-3.9495,0.3661998059331045,1.623375633680931
-3.949,0.3448594562177392,1.517409249629256
-3.9485,0.3341892813600565,1.369056311956912
-3.948,0.09944543449103843,0.9451907757502149
-3.9475,-0.5087545323968721,0.03387987290581572
-3.947,-0.9142211769888124,-0.8668343915334161
-3.9465,-1.170305373573196,-1.481439419033127
-3.946,-0.9569018764195432,-1.439052865412457
-3.9455,-0.4660738329661415,-1.068170521231597
-3.945,-0.007256314085787988,-0.7608680074817418
-3.9445,0.2808384070716433,-0.6231117082145651
-3.944,0.4515612047945656,-0.6125150698093976
-3.9435,0.5155822539406614,-0.6972881770507372
-3.943,0.5262524287983441,-0.7608680074817418
-3.9425,0.4408910299368829,-0.8774310299385835
-3.942,0.3661998059331045,-0.8880276683437509
-3.9415,0.3341892813600565,-0.7290780922662394
-3.941,0.3341892813600565,-0.4959520473525559
-3.9405,0.3448594562177392,-0.2734226408440398
-3.94,0.3555296310754218,-0.07208651114585861
-3.9395,0.5475927785137094,0.3623756634660061
-3.939,0.5155822539406614,0.4895353243280153
-3.9385,0.04609456020262521,-0.1250697031716958
-3.938,-0.5834457564006506,-0.7078848154559045
-3.9375,-1.287677297007705,-1.0999604364471
-3.937,-1.533091318734406,-1.142346990067769
-3.9365,-1.084943974711735,-0.5277419625680583
-3.936,-0.5194247072545548,0.2670059178194992
-3.9355,-0.06060718837420119,0.92399749893988
-3.935,0.2168173579255475,1.33726639674141
-3.9345,0.3448594562177392,1.559795803249926
-3.934,0.3875401556484697,1.633972272086098
-3.9335,0.3875401556484697,1.633972272086098
-3.933,0.3661998059331045,1.570392441655093
-3.9325,0.3448594562177392,1.475022696008586
-3.932,0.3341892813600565,1.347863035146577
-3.9315,0.2701682322139607,1.157123543853563
-3.931,-0.2313299860971235,0.4895353243280153
-3.9305,-0.690147504977477,-0.4535654937318862
-3.93,-0.9035510021311299,-1.237716735714276
-3.9295,-1.116954499284783,-1.608599079895136
-3.929,-1.042263275281004,-1.301296566145281
-3.9285,-0.572775581542968,-0.8668343915334161
-3.928,-0.1032878878049318,-0.6231117082145651
-3.9275,0.2488278824985954,-0.570128516188728
-3.927,0.4195506802215176,-0.570128516188728
-3.9265,0.4835717293676135,-0.6443049850249
-3.926,0.5049120790829789,-0.792657922697244
-3.9255,0.4622313796522482,-0.9516074987747555
-3.925,0.4195506802215176,-0.8562377531282487
-3.9245,0.3768699807907871,-0.6231117082145651
-3.924,0.3555296310754218,-0.3687923864905467
-3.9235,0.3555296310754218,-0.1462629799820306
-3.923,0.4195506802215176,0.1716361721729923
-3.9225,0.7289857510943143,0.6590815388106942
-3.922,0.3768699807907871,0.2987958330350016
-3.9215,-0.2206598112394408,-0.3793890248957141
-3.921,-0.7648387289812555,-0.8456411147230812
-3.9205,-1.341028171296118,-1.174136905283272
-3.92,-1.330357996438436,-0.9728007755850904
-3.9195,-0.839529952985034,-0.2310360872233701
-3.919,-0.3273615598162672,0.5213252395435176
-3.9185,0.05676473506030786,1.082947075017392
-3.918,0.2701682322139607,1.42203950398275
-3.9175,0.3661998059331045,1.570392441655093
-3.917,0.3875401556484697,1.602182356870596
-3.9165,0.3768699807907871,1.580989080060261
-3.916,0.3555296310754218,1.506812611224089
-3.9155,0.3448594562177392,1.390249588767247
-3.915,0.3128489316446912,1.220703374284568
-3.9145,-0.1032878878049318,0.6484849004055269
-3.914,-0.722158029550525,-0.2946159176543747
-3.9135,-1.116954499284783,-1.121153713257435
-3.913,-1.277007122150022,-1.47084278062796
-3.9125,-1.159635198715513,-1.174136905283272
-3.912,-0.6367966306890638,-0.7502713690765743
-3.9115,-0.1032878878049318,-0.5065486857577234
-3.911,0.2488278824985954,-0.4323722169215513
-3.9105,0.4302208550792003,-0.5065486857577234
-3.91,0.5049120790829789,-0.6231117082145651
-3.9095,0.5049120790829789,-0.7290780922662394
-3.909,0.4302208550792003,-0.8880276683437509
-3.9085,0.3661998059331045,-0.8562377531282487
-3.908,0.3341892813600565,-0.6443049850249
-3.9075,0.3341892813600565,-0.3899856633008816
-3.907,0.3341892813600565,-0.1356663415768632
-3.9065,0.3448594562177392,0.13984625695749
-3.906,0.5049120790829789,0.6166949851900245
-3.9055,0.1848068333524996,0.4471487707073456
-3.905,-0.3273615598162672,-0.252229364033705
-3.9045,-0.807519428411986,-0.7714646458869092
-3.904,-1.383708870726849,-1.110557074852267
-3.9035,-1.575772018165136,-1.078767159636765
-3.903,-1.095614149569417,-0.4217755785163839
-3.9025,-0.5087545323968721,0.3729723018711736
-3.902,-0.04993701351651855,1.00877060618122
-3.9015,0.2274875327832301,1.400846227172415
-3.901,0.3555296310754218,1.580989080060261
-3.9005,0.3982103305061524,1.623375633680931
-3.9,0.3982103305061524,1.591585718465428
-3.8995,0.3768699807907871,1.517409249629256
-3.899,0.3555296310754218,1.411442865577582
-3.8985,0.3448594562177392,1.25249328950007
-3.898,0.1741366584948169,0.9451907757502149
-3.8975,-0.391382608962363,0.1292496185523226
-3.897,-0.7968492535543035,-0.7714646458869092
-3.8965,-0.9462317015618604,-1.439052865412457
-3.896,-0.6047861061160158,-1.47084278062796
-3.8955,-0.1139580626626144,-1.01518732920576
-3.895,0.2701682322139607,-0.6337083466197325
-3.8945,0.4622313796522482,-0.4959520473525559
-3.894,0.5369226036560266,-0.570128516188728
-3.8935,0.5262524287983441,-0.6866915386455698
-3.893,0.4942419042252961,-0.7290780922662394
-3.8925,0.5475927785137094,-0.8562377531282487
-3.892,0.6542945270905358,-0.8880276683437509
-3.8915,0.6436243522328531,-0.7396747306714069
-3.891,0.5582629533713921,-0.5171453241628908
-3.8905,0.4729015545099309,-0.2734226408440398
-3.89,0.4195506802215176,-0.06148987274069118
-3.8895,0.5155822539406614,0.3941655786815084
-3.889,0.4622313796522482,0.6590815388106942
-3.8885,-0.01792648894347063,0.07626642652648545
-3.888,-0.5621054066852853,-0.5807251545938954
-3.8875,-1.234326422719292,-1.046977244421262
-3.887,-1.479740444445993,-1.131750351662602
-3.8865,-1.052933450138687,-0.5277419625680583
