Class_3_Grab_w_two_Hands/Class_3_Grab_with_Two_Hands_SH_9.csv

#Digilent WaveForms Oscilloscope Acquisition
#Device Name: EExplorer
#Serial Number: SN:210151A2B84A
#Date Time: 2021-01-20 10:36:09.098
#Sample rate: 2000Hz
#Samples: 16384
#Trigger: Source: Channel 1 Type: Edge Condition: Rising Level: 0 V Hyst.: Auto HoldOff: 0 s
#Channel 1: Range: 1 V/div Offset: 0 V Attenuation: 1 X
#Channel 2: Range: 1 V/div Offset: 0 V Attenuation: 1 X
#Power Supplies: ON
#Fixed Supply: ON
#Voltage: 3.3 V Readback: 3.328 V
#Positive Supply: ON
#Voltage: 3.7 V Readback: 3.717 V
#Current: 40 mA Readback: 19 mA
#Negative Supply: ON
#Voltage: -3.7 V Readback: -3.703 V
#Current: -40 mA Readback: -8 mA
#Reference 1: ON
#Voltage: 0 V
#Reference 2: ON
#Voltage: 0 V

Time (s),Channel 1 (V),Channel 2 (V)
-4.096,-1.650463242168915,1.072350436612224
-4.0955,-1.511750969019167,0.3835689402769674
-4.095,-1.127624674141941,-0.3370024712755263
-4.0945,-0.5514352318276028,-0.8668343915334161
-4.094,-0.03926683865930181,-1.163540266877835
-4.0935,0.3235191065025679,-1.333086481360841
-4.093,0.5369226036560266,-1.396666311791788
-4.0925,0.654294527090429,-1.38606967338663
-4.092,0.7716664505250351,-1.492036057438131
-4.0915,0.7609962756673623,-1.311893204550448
-4.091,0.707645401378949,-1.004590690800593
-4.0905,0.6436243522328142,-0.6866915386453385
-4.09,0.6009436528021226,-0.4323722169215513
-4.0895,0.4942419042252961,-0.3687923864905467
-4.089,0.3661998059332209,-0.1144730647667597
-4.0885,0.2168173579255475,0.4365521323021782
-4.088,-0.1673089369510276,0.8816109453192104
-4.0875,-0.6581369804039826,0.5425185163541609
-4.087,-0.6047861061157149,-0.01910331912030094
-4.0865,-0.274010685527854,-0.326405832869877
-4.086,0.05676473506000707,-0.4111789401111394
-4.0855,0.2915085819294522,-0.3475991096800962
-4.085,0.4302208550792003,-0.2204394488182027
-4.0845,0.4942419042252379,-0.06148987274083573
-4.084,0.5049120790829692,0.07626642652660111
-4.0835,0.4942419042252961,0.2034260873884947
-4.083,0.4835717293676135,0.3623756634660061
-4.0825,0.4729015545099018,0.5425185163540067
-4.082,0.4408910299368829,0.7120647308365314
-4.0815,0.3768699807907871,0.8816109453192104
-4.081,0.01408403562990723,1.008770606181104
-4.0805,-0.7968492535543035,1.188913459069066
-4.08,-1.586442193022819,1.326669758336243
-4.0795,-1.981238662756718,1.326669758336243
-4.079,-1.863866739322102,0.8392243916978082
-4.0785,-1.351698346153801,0.03387987290581572
-4.078,-0.6794773301204057,-0.654901623429441
-4.0775,-0.09261771294686096,-1.163540266878413
-4.077,0.3341892813600565,-1.502632695843462
-4.0765,0.5689331282288611,-1.619195718300198
-4.076,0.654294527090497,-1.587405803084801
-4.0755,0.6116138276598051,-1.587405803084801
-4.075,0.5582629533713921,-1.364876396576285
-4.0745,0.5369226036560072,-1.046977244420983
-4.074,0.5155822539406614,-0.7396747306714069
-4.0735,0.5155822539406614,-0.4641621321370536
-4.073,0.5689331282290261,-0.1780528951977932
-4.0725,0.974399772821015,0.309392471440169
-4.072,0.7609962756673623,0.8180311148882058
-4.0715,0.0460945602032754,1.178316820663571
-4.071,-0.6261264558315366,0.8286277532926407
-4.0705,-0.7968492535543035,0.02328323450064829
-4.07,-0.4980843575394612,-0.3793890248953479
-4.0695,-0.113958062662333,-0.4641621321369572
-4.069,0.1954770082101822,-0.3581957480853793
-4.0685,0.3875401556484697,-0.1780528951975329
-4.068,0.47290155450996,0.002089957690467622
-4.0675,0.5049120790829789,0.1716361721729923
-4.067,0.4942419042252961,0.309392471440169
-4.0665,0.4835717293675941,0.4471487707074612
-4.066,0.4622313796522482,0.5743084315693548
-4.0655,0.4515612047945656,0.7438546460520338
-4.065,0.4195506802215467,0.881610945319085
-4.0645,0.1634664836371343,1.00877060618122
-4.064,-0.5194247072545548,1.178316820663898
-4.0635,-1.095614149568893,1.31607311993095
-4.063,-1.447729919873129,1.390249588767074
-4.0625,-1.650463242168915,1.199510097474233
-4.062,-1.479740444446148,0.4789386859235033
-4.0615,-1.020922925565125,-0.31580919446523
-4.061,-0.4554036581084589,-0.8880276683437509
-4.0605,0.05676473506030786,-1.269506650929778
-4.06,0.4195506802217021,-1.492036057438362
-4.0595,0.6222840025174878,-1.566212526274467
-4.059,0.6542945270905358,-1.619195718300304
-4.0585,0.590273477944498,-1.619195718300304
-4.058,0.5475927785137094,-1.375473034981453
-4.0575,0.5369226036560266,-1.025783967610927
-4.057,0.5689331282290455,-0.7078848154561936
-4.0565,0.6009436528021226,-0.4641621321370536
-4.056,0.5689331282290746,-0.4217755785163839
-4.0555,0.4622313796523452,0.01268659609508571
-4.055,-0.1139580626632258,0.5955017083798438
-4.0545,-0.7861790786966207,0.7650479228623686
-4.054,-1.031593100423098,0.1822328105786898
-4.0535,-0.7008176798347522,-0.2204394488183376
-4.053,-0.2526703358124887,-0.3687923864905467
-4.0525,0.1207857842064037,-0.326405832869877
-4.052,0.3555296310755285,-0.1992461720077233
-4.0515,0.4729015545099309,-0.04029659593035631
-4.051,0.5049120790829789,0.1186529801471552
-4.0505,0.5049120790829789,0.2352160026038909
-4.05,0.4942419042252961,0.3305857482505039
-4.0495,0.4622313796522482,0.4895353243280153
-4.049,0.4408910299369024,0.6272916235950667
-4.0485,0.4088805053638059,0.7968378380780154
-4.048,0.3768699807907871,0.9557874141553824
-4.0475,0.003413860772234323,1.104140351827592
-4.047,-0.4233931335357021,1.263089927905325
-4.0465,-0.7434983792658902,1.358459673551745
-4.046,-1.10628432442677,1.157123543853747
-4.0455,-1.223656247861376,0.5107286011375984
-4.045,-0.9675720512772257,-0.3158091944647096
-4.0445,-0.4980843575391895,-0.9728007755850904
-4.044,-0.03926683865851566,-1.364876396576439
-4.0435,0.3128489316446912,-1.534422611058964
-4.043,0.5262524287983441,-1.566212526274467
-4.0425,0.6329541773750735,-1.555615887869309
-4.042,0.8036769750980928,-1.693372187136476
-4.0415,0.8356874996711408,-1.523825972653797
-4.041,0.771666450525103,-1.184733543688748
-4.0405,0.6756348768058235,-0.8350444763176247
-4.04,0.5902734779444399,-0.5171453241628908
-4.0395,0.6756348768058235,-0.1674562567926836
-4.039,0.9637295979627696,0.3835689402768133
-4.0385,0.3448594562177392,0.9028042221295453
-4.038,-0.5514352318267877,1.16772018225849
-4.0375,-1.21298607300383,0.5001319627325371
-4.037,-1.1062843244271,-0.2098428104130352
-4.0365,-0.6154562809736985,-0.474758770542221
-4.036,-0.1246282375199865,-0.4535654937317513
-4.0355,0.2168173579255475,-0.3052125560595421
-4.035,0.4195506802215176,-0.1038764263613609
-4.0345,0.4942419042252282,0.07626642652632162
-4.034,0.5155822539406614,0.2140227257936621
-4.0335,0.5049120790829789,0.3199891098453364
-4.033,0.4835717293676329,0.4471487707072299
-4.0325,0.4622313796522385,0.6166949851901594
-4.032,0.4515612047945656,0.7650479228623686
-4.0315,0.3982103305062009,0.8816109453191043
-4.031,-0.08194753809023608,1.051157159802053
-4.0305,-0.8181896032696687,1.231300012689736
-4.03,-1.287677297007278,1.358459673551629
-4.0295,-1.522421143876723,1.252493289499531
-4.029,-1.522421143876723,0.6590815388106942
-4.0285,-1.223656247861609,-0.1992461720078678
-4.028,-0.76483872898078,-0.8986243067493038
-4.0275,-0.2420001609548061,-1.322489842955616
-4.027,0.1954770082101822,-1.534422611058964
-4.0265,0.4622313796520056,-1.598002441489911
-4.026,0.6009436528021226,-1.555615887869299
-4.0255,0.5582629533713921,-1.629792356705471
-4.025,0.4942419042253544,-1.502632695843578
-4.0245,0.5155822539407002,-1.195330182093298
-4.024,0.5582629533713921,-0.8562377531282487
-4.0235,0.5689331282290649,-0.5383386009735147
-4.023,0.6116138276597857,-0.2310360872229171
-4.0225,0.5902734779444399,0.2670059178194992
-4.022,0.1314559590645036,0.7968378380773891
-4.0215,-0.796849253554944,1.18891345906895
-4.021,-1.501080794161358,1.061753798207057
-4.0205,-1.351698346153801,0.4153588554918433
-4.02,-0.7755089038384239,-0.072086511146061
-4.0195,-0.2099896363817582,-0.2946159176543747
-4.019,0.1848068333524996,-0.326405832869877
-4.0185,0.4195506802213042,-0.2098428104131412
-4.018,0.5049120790829789,-0.05089323433552374
-4.0175,0.5262524287983441,0.1186529801471552
-4.017,0.515582253940671,0.2670059178193643
-4.0165,0.4942419042252767,0.4153588554919879
-4.016,0.4729015545099309,0.5743084315693548
-4.0155,0.451561204794585,0.7438546460518796
-4.015,0.4302208550790353,0.9028042221296609
-4.0145,0.2488278824985954,1.029963882991555
-4.014,-0.4874141826808373,1.188913459068921
-4.0135,-1.138294849000303,1.326669758336252
-4.013,-1.30901764672307,1.33726639674141
-4.0125,-1.490410619303675,0.8604176685088755
-4.012,-1.34102817129572,0.1610395337672274
-4.0115,-0.9035510021311299,-0.4959520473525559
-4.011,-0.391382608962363,-0.9622041371799229
-4.0105,0.03542438534455439,-1.301296566144972
-4.01,0.3661998059331045,-1.47084278062796
-4.0095,0.5796033030867573,-1.481439419033127
-4.009,0.6542945270904679,-1.545019249464074
-4.0085,0.5796033030867088,-1.682775548731096
-4.008,0.5262524287983441,-1.449649503817625
-4.0075,0.5049120790829983,-1.068170521231944
-4.007,0.5049120790829789,-0.6866915386452807
-4.0065,0.5049120790829789,-0.3687923864905467
-4.006,0.7823366253827275,0.05507314971615059
-4.0055,0.9637295979627696,0.6060983467852619
-4.005,0.3448594562177392,1.051157159801889
-4.0045,-0.391382608962363,1.178316820663898
-4.004,-0.5407650569697162,0.6802748156205376
-4.0035,-0.3166913849585846,0.13984625695749
-4.003,-0.007256314085787988,-0.2098428104130352
-4.0025,0.2381577076406896,-0.3475991096800866
-4.002,0.3875401556484697,-0.3158091944647096
-4.0015,0.4622313796522482,-0.2098428104130352
-4.001,0.4835717293675941,-0.0614898727408261
-4.0005,0.4835717293676038,0.08686306493177817
-4,0.4729015545099309,0.2246193641988295
-3.9995,0.4622313796522482,0.4153588554918433
-3.999,0.4515612047945656,0.6378882620003594
-3.9985,0.4408910299368829,0.8180311148882058
-3.998,0.3341892813600565,0.9769806909657173
-3.9975,-0.274010685527854,1.157123543853563
-3.997,-0.9569018764195432,1.316073119931075
-3.9965,-1.362368521011484,1.400846227172415
-3.996,-1.586442193022819,1.029963882991555
-3.9955,-1.426389570157579,0.2670059178194992
-3.995,-0.9675720512772257,-0.4429688553267188
-3.9945,-0.4554036581084589,-0.9516074987747555
-3.994,-0.01792648894347063,-1.248313374119443
-3.9935,0.3341892813600565,-1.354279758171118
-3.993,0.5369226036560266,-1.354279758171118
-3.9925,0.6649647019482183,-1.364876396576285
-3.992,0.7503261008096795,-1.375473034981453
-3.9915,0.7396559259519968,-1.248313374119443
-3.991,0.6756348768059011,-1.046977244421262
-3.9905,0.6116138276598051,-0.792657922697244
-3.99,0.5582629533713921,-0.5489352393783931
-3.9895,0.5689331282290746,-0.2628260024388724
-3.989,0.8463576745288233,0.2564092794143318
-3.9885,0.6009436528021226,0.7968378380778709
-3.988,-0.08194753808956648,1.114736990232894
-3.9875,-0.690147504977477,0.5743084315693548
-3.987,-0.690147504977477,-0.05089323433552374
-3.9865,-0.3593720843893152,-0.3158091944647096
-3.986,0.00341386077189465,-0.3370024712750445
-3.9855,0.2594980573562781,-0.2098428104130352
-3.985,0.408880505363835,-0.02969995752518888
-3.9845,0.4729015545099309,0.1504428953626575
-3.984,0.4942419042252961,0.2987958330350016
-3.9835,0.4835717293676135,0.4153588554918433
-3.983,0.4729015545099309,0.5213252395435176
-3.9825,0.4515612047945656,0.701468092431364
-3.982,0.4195506802215176,0.8922075837243778
-3.9815,0.3875401556484697,0.9769806909657173
-3.981,-0.01792648894347063,1.061753798207057
-3.9805,-0.8608703027003992,1.199510097474233
-3.98,-1.51175096901904,1.316073119931075
-3.9795,-1.895877263895616,1.369056311956912
-3.979,-1.938557963326346,0.9981739677760521
-3.9785,-1.522421143876723,0.2140227257936621
-3.978,-0.8928808272734472,-0.5277419625680583
-3.9775,-0.2526703358124887,-1.046977244421262
-3.977,0.2274875327832301,-1.333086481360783
-3.9765,0.5155822539406614,-1.42845622700729
-3.976,0.6329541773751706,-1.417859588602123
-3.9755,0.5475927785137094,-1.555615887869299
-3.975,0.4622313796522482,-1.661582271920973
-3.9745,0.4835717293676135,-1.481439419033127
-3.974,0.5049120790829789,-1.131750351662602
-3.9735,0.5262524287983441,-0.7820612842920766
-3.973,0.5582629533713921,-0.4217755785163839
-3.9725,0.8676980242441885,0.1504428953626575
-3.972,0.6756348768059011,0.7332580076468663
-3.9715,-0.06060718837420119,1.157123543853563
-3.971,-0.7328282044082075,1.072350436612224
-3.9705,-0.9995825758502737,0.2670059178194992
-3.97,-0.690147504977477,-0.2310360872233701
-3.9695,-0.2526703358124887,-0.3899856633008816
-3.969,0.1101156093487211,-0.326405832869877
-3.9685,0.3448594562177392,-0.1568596183871981
-3.968,0.4622313796522482,0.03387987290581572
-3.9675,0.4942419042252961,0.2140227257936621
-3.967,0.4942419042252961,0.3517790250608387
-3.9665,0.4835717293676135,0.4895353243280153
-3.966,0.4622313796522482,0.6590815388106942
-3.9655,0.4408910299368829,0.8074344764830383
-3.965,0.4302208550792003,0.9345941373450475
-3.9645,0.1954770082101822,1.061753798207057
-3.964,-0.5407650569699201,1.220703374284568
-3.9635,-1.159635198715513,1.347863035146577
-3.963,-1.46907026958831,1.369056311956912
-3.9625,-1.212986073003927,0.9028042221295453
-3.962,-0.7114878546928423,0.1080563417419877
-3.9615,-0.2313299860971235,-0.6760949002404023
-3.961,0.142126133921769,-1.227120097309109
-3.9605,0.4195506802215176,-1.566212526274467
-3.96,0.5902734779444399,-1.682775548731308
-3.9595,0.6436243522328531,-1.650985633515806
-3.959,0.6969752265212663,-1.523825972653797
-3.9585,0.7609962756673623,-1.34368311976595
-3.958,0.8143471499557753,-1.121153713257435
-3.9575,0.7609962756673623,-0.8880276683437509
-3.957,0.6863050516635838,-0.6443049850249
-3.9565,0.6436243522328531,-0.4323722169215513
-3.956,0.5796033030867573,-0.326405832869877
-3.9555,0.5902734779444399,0.1080563417419877
-3.955,0.2488278824985954,0.6590815388106942
-3.9545,-0.4020527838200457,0.9134008605347127
-3.954,-0.7434983792658902,0.3941655786815084
-3.9535,-0.5514352318276028,-0.07208651114585861
-3.953,-0.1886492866663929,-0.3052125560595421
-3.9525,0.1314559590640864,-0.326405832869877
-3.952,0.3341892813600565,-0.2310360872233701
-3.9515,0.4408910299368829,-0.07208651114585861
-3.951,0.4835717293676135,0.08686306493165288
-3.9505,0.4835717293676135,0.2352160026039969
-3.95,0.4622313796522482,0.3623756634660061
-3.9495,0.4622313796522482,0.5107286011383502
-3.949,0.4515612047945656,0.6590815388106942
-3.9485,0.4195506802215176,0.8074344764830383
-3.948,0.3448594562177392,0.9345941373450475
-3.9475,-0.2099896363817582,1.104140351827727
-3.947,-0.8502001278427167,1.263089927905238
-3.9465,-1.138294849000148,1.369056311956912
-3.946,-1.394379045584531,1.188913459069066
-3.9455,-1.437059745015262,0.6060983467848571
-3.945,-1.170305373573196,-0.1250697031716958
-3.9445,-0.754168554123573,-0.7714646458869092
-3.944,-0.2526703358124887,-1.163540266878104
-3.9435,0.1634664836371343,-1.364876396576285
-3.943,0.4195506802215176,-1.449649503817625
-3.9425,0.5475927785137094,-1.407262950196955
-3.942,0.4835717293676135,-1.534422611058964
-3.9415,0.4515612047945656,-1.417859588602123
-3.941,0.4622313796522482,-1.131750351662602
-3.9405,0.4835717293676135,-0.8138511995075789
-3.94,0.5049120790829789,-0.5171453241628908
-3.9395,0.6222840025174878,-0.1886495336027004
-3.939,1.049090996824793,0.3517790250608387
-3.9385,0.6756348768059011,0.8710143069140429
-3.938,-0.09261771294724913,1.188913459069066
-3.9375,-0.807519428411986,0.6802748156210291
-3.937,-0.8608703027003992,-0.05089323433552374
-3.9365,-0.5087545323968721,-0.3899856633008816
-3.936,-0.1032878878049318,-0.4429688553267188
-3.9355,0.1954770082101822,-0.3370024712750445
-3.935,0.3768699807907871,-0.1568596183871981
-3.9345,0.4622313796522482,0.01268659609548085
-3.934,0.4835717293676135,0.1716361721729923
-3.9335,0.4729015545099309,0.2987958330350016
-3.933,0.4622313796522482,0.4365521323021782
-3.9325,0.4515612047945656,0.6166949851900245
-3.932,0.4302208550792003,0.775644561267536
-3.9315,0.3982103305061524,0.9028042221295453
-3.931,-0.03926683865883591,1.061753798207057
-3.9305,-0.7968492535543035,1.241896651094903
-3.93,-1.362368521011484,1.358459673551745
-3.9295,-1.746494815888059,1.347863035146577
-3.929,-1.87453691418025,0.92399749893988
-3.9285,-1.554431668449771,0.1822328105781598
-3.928,-1.031593100423322,-0.5277419625680583
-3.9275,-0.4874141826815069,-1.05757388282643
-3.927,0.01408403562957729,-1.34368311976595
-3.9265,0.3661998059331045,-1.439052865412457
-3.926,0.5475927785137094,-1.449649503817625
-3.9255,0.5582629533713921,-1.576809164679634
-3.925,0.4729015545099309,-1.534422611058964
-3.9245,0.4515612047945656,-1.248313374119443
-3.924,0.4622313796522482,-0.9198175835592532
-3.9235,0.4835717293676135,-0.6231117082145651
-3.923,0.5369226036560266,-0.4535654937318862
-3.9225,0.7503261008096795,-0.3370024712750445
-3.922,1.273164668836129,0.1822328105781598
-3.9215,1.113112045970889,0.7332580076468663
-3.921,0.3128489316446912,0.8922075837243778
-3.9205,-0.2206598112394408,0.3729723018711736
-3.92,-0.2206598112394408,-0.08268314955102604
-3.9195,-0.03926683865883591,-0.326405832869877
-3.919,0.1634664836371343,-0.3687923864905467
-3.9185,0.3235191065023739,-0.2946159176543747
-3.918,0.408880505363835,-0.1568596183871981
-3.9175,0.4515612047945656,0.002089957690313421
-3.917,0.4515612047945656,0.13984625695749
-3.9165,0.4515612047945656,0.2881991946298341
-3.916,0.4515612047945656,0.4471487707073456
-3.9155,0.4302208550792003,0.6166949851900245
-3.915,0.3982103305061524,0.8286277532933731
-3.9145,0.2274875327832301,0.9981739677760521
-3.914,-0.3807124341046804,1.178316820663898
-3.9135,-0.7861790786966207,1.326669758336243
-3.913,-1.095614149569417,1.411442865577582
-3.9125,-1.394379045584531,1.241896651094903
-3.912,-1.341028171296118,0.55311515475902
-3.9115,-1.052933450138687,-0.252229364033705
-3.911,-0.5834457564006506,-0.8244478379127463
-3.9105,-0.09261771294724913,-1.174136905283272
-3.91,0.291508581929326,-1.301296566145281
-3.9095,0.5049120790829789,-1.280103289334946
-3.909,0.6542945270905358,-1.301296566145281
-3.9085,0.9317190733902845,-1.682775548731308
-3.908,0.974399772821015,-1.735758740757146
-3.9075,0.8676980242441885,-1.47084278062796
-3.907,0.7183155762366316,-1.110557074852267
-3.9065,0.6116138276598051,-0.7502713690765743
-3.906,0.8036769750980928,-0.2628260024388724
-3.9055,1.123782220828572,0.383568940276341
-3.905,0.5796033030867573,0.92399749893988
-3.9045,-0.1779791118087102,1.104140351827727
-3.904,-0.807519428411986,0.309392471440169
-3.9035,-0.7968492535543035,-0.3370024712750445
-3.903,-0.4340633083930936,-0.5065486857577234
-3.9025,-0.04993701351651855,-0.400582301706049
-3.902,0.2274875327832301,-0.1780528951975329
-3.9015,0.3875401556484697,0.06566978812131802
-3.901,0.4622313796522482,0.2881991946298341
-3.9005,0.4729015545099309,0.4471487707073456
-3.9,0.4622313796522482,0.5743084315693548
-3.8995,0.4515612047945656,0.701468092431364
-3.899,0.4408910299368829,0.8392243916985406
-3.8985,0.4195506802215176,0.9451907757502149
-3.898,0.3341892813600565,1.019367244586387
-3.8975,-0.2420001609548061,1.146526905448396
-3.897,-0.9142211769888124,1.284283204715573
-3.8965,-1.351698346153801,1.37965295036208
-3.896,-1.746494815888059,1.358459673551745
-3.8955,-1.810515865034154,0.8710143069140429
-3.895,-1.447729919872945,0.05507314971615059
-3.8945,-0.8502001278427167,-0.6866915386455698
-3.894,-0.2846808603855366,-1.205926820498774
-3.8935,0.1527963087794516,-1.460246142222792
-3.893,0.4302208550792003,-1.534422611058964
-3.8925,0.5796033030867573,-1.587405803084801
-3.892,0.6329541773751706,-1.608599079895136
-3.8915,0.6436243522328531,-1.38606967338662
-3.891,0.6222840025174878,-1.110557074852267
-3.8905,0.5902734779444399,-0.8350444763179138
-3.89,0.5582629533713921,-0.570128516188728
-3.8895,0.4515612047945656,-0.4853554089473885
-3.889,-0.007256314085787988,-0.3581957480853793
-3.8885,-0.4980843575391895,0.1928294489833272
-3.888,-0.9675720512772257,0.7332580076468663
-3.8875,-1.180975548430879,0.627291623595192
-3.887,-0.8288597781273515,0.1928294489833272
-3.8865,-0.3380317346739499,-0.1250697031716958
-3.886,0.0674349099179905,-0.2628260024388724
