Class_3_Grab_w_two_Hands/Class_3_Grab_with_Two_Hands_AM_7.csv

#Digilent WaveForms Oscilloscope Acquisition
#Device Name: EExplorer
#Serial Number: SN:210151A2B84A
#Date Time: 2020-12-03 14:48:41.200
#Sample rate: 2000Hz
#Samples: 16384
#Trigger: Source: Channel 1 Type: Edge Condition: Rising Level: 0 V Hyst.: Auto HoldOff: 0 s
#Channel 1: Range: 1 V/div Offset: 0 V Attenuation: 1 X
#Channel 2: Range: 1 V/div Offset: 0 V Attenuation: 1 X
#Power Supplies: ON
#Fixed Supply: ON
#Voltage: 3.3 V Readback: 3.323 V
#Positive Supply: ON
#Voltage: 3.7 V Readback: 3.692 V
#Current: 40 mA Readback: 21 mA
#Negative Supply: ON
#Voltage: -3.7 V Readback: -4.011 V
#Current: -40 mA Readback: -8 mA
#Reference 1: ON
#Voltage: 0 V
#Reference 2: ON
#Voltage: 0 V

Time (s),Channel 1 (V),Channel 2 (V)
-4.096,0.01408403562957729,0.8392243916985406
-4.0955,0.01408403562957729,0.7226613692418049
-4.095,0.01408403562954818,0.6060983467846932
-4.0945,-0.01792648894347063,0.4259554938970107
-4.094,-0.4554036581080609,-0.2204394488176148
-4.0935,-0.9142211769890065,-0.9728007755856012
-4.093,-1.127624674142465,-1.534422611058964
-4.0925,-0.5941159312588186,-1.428456227007386
-4.092,0.5155822539413892,-0.3158091944636109
-4.0915,1.315845368266859,0.8922075837243778
-4.091,1.678631313428069,1.729342017732605
-4.0905,1.731982187716376,1.962468062645518
-4.09,1.614610264281974,1.114736990232894
-4.0895,0.8036769750980928,-0.7290780922662394
-4.089,0.5689331282292881,-1.820531847997492
-4.0885,0.6969752265212663,-2.138431000153508
-4.088,0.5155822539406614,-1.703968825541643
-4.0875,0.3448594562178944,-0.9304142219651242
-4.087,0.2061471830676999,-0.2734226408437025
-4.0865,0.02475421048725994,0.09745970333682032
-4.086,-0.5300948821117327,0.05507314971618914
-4.0855,-1.490410619304073,-0.6972881770513347
-4.085,-1.927887788468663,-1.354279758171118
-4.0845,-2.087940411333757,-1.767548655972272
-4.084,-1.981238662756533,-1.672178910325437
-4.0835,-1.383708870726849,-0.8986243067489184
-4.083,-0.7648387289812555,-0.08268314955102604
-4.0825,-0.3166913849583614,0.5319218779490031
-4.082,-0.07127736323188383,0.8816109453192104
-4.0815,0.04609456020262521,1.051157159801889
-4.081,0.0674349099179711,1.082947075017363
-4.0805,0.05676473506030786,1.051157159801889
-4.08,0.03542438534494258,0.9769806909657173
-4.0795,0.0140840356295967,0.8710143069141393
-4.079,0.01408403562957729,0.7544512844570951
-4.0785,0.01408403562957729,0.6378882620003594
-4.078,0.01408403562957729,0.5213252395436236
-4.0775,-0.2420001609552525,0.1292496185516576
-4.077,-0.7328282044082075,-0.6019184314042303
-4.0765,-0.9462317015616664,-1.195330182093067
-4.076,-0.508754532396086,-1.364876396575553
-4.0755,0.3555296310754218,-0.5595318777835605
-4.075,1.070431346540159,0.5955017083796896
-4.0745,1.4972383408476,1.517409249629632
-4.074,1.646620788855021,1.930678147430786
-4.0735,1.347855892839907,1.019367244586387
-4.073,0.6436243522334936,-0.7926579226955961
-4.0725,0.6649647019482183,-1.619195718300304
-4.072,0.6863050516635838,-2.000674700886331
-4.0715,0.5369226036561625,-1.587405803085177
-4.071,0.398210330505968,-0.8350444763173838
-4.0705,0.1954770082101822,-0.252229364033705
-4.07,0.03542438534508816,0.09745970333650228
-4.0695,-0.007256314085487149,0.3623756634663146
-4.069,0.3235191065023739,0.701468092431364
-4.0685,0.07810508477567314,0.09745970333682032
-4.068,-0.6367966306894132,-0.9516074987751217
-4.0675,-1.020922925565639,-1.354279758171118
-4.067,-0.8822106524157645,-0.9198175835592532
-4.0665,-0.5834457564003982,-0.2840192792487061
-4.066,-0.3060212101009019,0.2670059178194992
-4.0655,-0.124628237520297,0.6484849004055269
-4.065,-0.01792648894356767,0.8710143069138405
-4.0645,0.02475421048725994,0.9875773293708847
-4.064,0.02475421048725994,1.019367244586387
-4.0635,0.02475421048725994,1.019367244586387
-4.063,0.00341386077189465,0.9875773293708269
-4.0625,0.00341386077189465,0.92399749893988
-4.062,0.00341386077189465,0.8710143069140911
-4.0615,0.01408403562960641,0.7650479228619156
-4.061,0.04609456020262521,0.2670059178194992
-4.0605,-0.3380317346739499,-0.5171453241628908
-4.06,-0.5941159312581489,-1.004590690800834
-4.0595,-0.391382608962363,-1.269506650929778
-4.059,0.3982103305061524,-0.7502713690765743
-4.0585,1.091771696254893,0.3517790250598365
-4.058,1.507908515705147,1.33726639674141
-4.0575,1.667961138570387,1.941274785835954
-4.057,1.635950613997368,1.739938656137956
-4.0565,1.177133095116985,0.2670059178194992
-4.056,0.5262524287983441,-1.407262950196955
-4.0555,0.6542945270904194,-2.053657892911581
-4.055,0.5796033030865729,-1.968884785670231
-4.0545,0.3768699807907871,-1.311893204550448
-4.054,0.2488278824987118,-0.5595318777842447
-4.0535,0.08877525963322962,-0.07208651114564658
-4.053,-0.04993701351651855,0.1610395337678249
-4.0525,-0.274010685527854,0.01268659609548085
-4.052,-0.7968492535547693,-0.6337083466204264
-4.0515,-1.30901764672307,-1.396666311791788
-4.051,-1.501080794161358,-1.714565463946811
-4.0505,-1.191645723288842,-1.195330182094079
-4.05,-0.7328282044082075,-0.4111789401112165
-4.0495,-0.3593720843893152,0.2564092794143318
-4.049,-0.1246282375205105,0.7014680924309592
-4.0485,-0.00725631408574917,0.9345941373451342
-4.048,0.03542438534494258,1.029963882991555
-4.0475,0.03542438534494258,1.040560521396712
-4.047,0.02475421048724053,1.008770606181152
-4.0465,0.00341386077189465,0.9345941373450475
-4.046,-0.007256314085778284,0.860417668508943
-4.0455,-0.007256314085787988,0.7756445612674396
-4.045,-0.007256314085787988,0.6696781772158616
-4.0445,-0.01792648894347063,0.3941655786815084
-4.044,-0.4233931335357409,-0.3687923864911153
-4.0435,-0.7861790786966207,-0.9939940523954253
-4.043,-0.8181896032696687,-1.396666311791788
-4.0425,-0.06060718837489021,-1.205926820498948
-4.042,0.8036769750980928,-0.1356663415768632
-4.0415,1.379866417412955,1.00877060618122
-4.041,1.646620788854779,1.792921848162897
-4.0405,1.66796113857026,1.898888232214368
-4.04,1.529248865420512,0.8922075837243778
-4.0395,0.6969752265220233,-0.9833974139885521
-4.039,0.5475927785137773,-1.926498232050333
-4.0385,0.6222840025174878,-2.117237723343173
-4.038,0.4195506802217021,-1.598002441490441
-4.0375,0.2701682322138539,-0.8244478379121777
-4.037,0.1527963087794516,-0.1992461720078678
-4.0365,0.01408403562957729,0.1292496185523226
-4.036,-0.07127736323168003,0.4895353243282948
-4.0355,0.1527963087794516,0.7968378380778709
-4.035,-0.156638762093345,0.04447651131098315
-4.0345,-0.7755089038383753,-0.983397413989323
-4.034,-1.1062843244271,-1.333086481360783
-4.0335,-0.9248913518464952,-0.8880276683437509
-4.033,-0.5941159312586342,-0.2522293640342832
-4.0325,-0.306021210100737,0.2881991946301715
-4.032,-0.124628237520297,0.6590815388106942
-4.0315,-0.02859666380124062,0.8710143069138502
-4.031,0.01408403562957729,0.9875773293709232
-4.0305,0.01408403562957729,1.029963882991555
-4.03,0.003413860771904354,1.008770606181239
-4.0295,-0.007256314085787988,0.9451907757501667
-4.029,-0.007256314085787988,0.8922075837243778
-4.0285,-0.007256314085787988,0.8392243916985406
-4.028,0.003413860771729674,0.7650479228619734
-4.0275,-0.1779791118087102,0.3305857482505039
-4.027,-0.5407650569699201,-0.4111789401112165
-4.0265,-1.042263275280548,-1.16354026687742
-4.026,-1.084943974711735,-1.555615887869299
-4.0255,-0.2099896363817582,-0.7502713690765743
-4.025,0.6756348768050956,0.4683420475165723
-4.0245,1.262494493978689,1.443232780793509
-4.024,1.529248865420512,1.909484870620451
-4.0235,1.550589215135858,1.358459673552246
-4.023,1.251824319120094,-0.04029659593178268
-4.0225,0.5155822539406614,-1.608599079895136
-4.022,0.4835717293676426,-1.587405803084821
-4.0215,0.2915085819291707,-1.184733543688006
-4.021,0.1207857842064037,-0.7078848154559045
-4.0205,0.08877525963335578,-0.2416327256285375
-4.02,0.003413860771681152,0.0232832345006772
-4.0195,-0.2313299860971235,0.05507314971615059
-4.019,-1.084943974711735,-0.6337083466197325
-4.0185,-1.821186039891168,-1.460246142222041
-4.018,-2.109280761049269,-1.947691508860494
-4.0175,-2.119950935906951,-1.937094870455327
-4.017,-1.554431668450285,-1.131750351663334
-4.0165,-0.8928808272730008,-0.1886495336020354
-4.016,-0.4020527838200457,0.5425185163538525
-4.0155,-0.1032878878052035,0.9875773293704799
-4.015,0.02475421048728905,1.210106735879468
-4.0145,0.05676473506030786,1.284283204715573
-4.014,0.05676473506030786,1.273686566310415
-4.0135,0.03542438534492317,1.210106735879295
-4.013,0.01408403562957729,1.093543713422559
-4.0125,0.00341386077189465,0.9451907757502149
-4.012,0.003413860771904355,0.7968378380777457
-4.0115,0.01408403562957729,0.6590815388106942
-4.011,-0.124628237520297,0.3305857482505039
-4.0105,-0.6261264558309252,-0.4429688553260152
-4.01,-0.9782422261349084,-1.152943628472937
-4.0095,-1.052933450138687,-1.640388995110639
-4.009,-0.1993194615248519,-1.163540266878538
-4.0085,0.8356874996717133,0.04447651131198546
-4.008,1.465227816274416,1.146526905448396
-4.0075,1.699971663143221,1.824711763378495
-4.007,1.59326991456588,1.538602526437982
-4.0065,0.79300680024041,-0.2310360872233701
-4.006,0.6542945270905358,-1.34368311976595
-4.0055,0.6649647019481115,-1.915901593644809
-4.005,0.5475927785137094,-1.714565463946811
-4.0045,0.3768699807907871,-0.9939940523954253
-4.004,0.2168173579253922,-0.3793890248953961
-4.0035,0.04609456020262521,-0.02969995752518888
-4.003,-0.07127736323188383,0.1822328105781598
-4.0025,-0.04993701351653796,0.4259554938967891
-4.002,-0.2846808603855366,0.01268659609548085
-4.0015,-0.754168554123573,-0.8138511995075789
-4.001,-1.341028171295584,-1.513229334247994
-4.0005,-1.565101843307124,-1.587405803084204
-4,-1.202315898146244,-0.9304142219644207
-3.9995,-0.7328282044082075,-0.1674562567923655
-3.999,-0.3593720843893152,0.4365521323021782
-3.9985,-0.124628237520297,0.8286277532933731
-3.998,-0.007256314085787988,1.040560521396722
-3.9975,0.03542438534494258,1.135930267043229
-3.997,0.03542438534494258,1.157123543853563
-3.9965,0.01408403562957729,1.093543713422559
-3.996,0.00341386077189465,1.019367244586387
-3.9955,-0.007256314085787988,0.9557874141553824
-3.995,0.00341386077189465,0.8710143069140429
-3.9945,-0.04993701351651855,0.627291623595192
-3.994,-0.5300948821122373,-0.1568596183871981
-3.9935,-1.042263275281004,-0.9198175835592532
-3.993,-1.202315898146244,-1.42845622700729
-3.9925,-0.5834457564006506,-1.693372187136476
-3.992,0.3021787567870086,-0.9198175835592532
-3.9915,1.027750647109428,0.3305857482505039
-3.991,1.454557641416734,1.33726639674141
-3.9905,1.593269914566608,1.464426057603419
-3.99,1.166462920259302,0.1716361721729923
-3.9895,0.5796033030867573,-1.375473034981453
-3.989,0.6116138276598051,-1.88411167842949
-3.9885,0.4835717293676135,-1.831128486403653
-3.988,0.3128489316446912,-1.258910012524611
-3.9875,0.2168173579255475,-0.6019184314042303
-3.987,0.0674349099179905,-0.1780528951975329
-3.9865,-0.04993701351651855,0.05507314971615059
-3.986,-0.5407650569699201,0.04447651131098315
-3.9855,-1.522421143876723,-0.7290780922662394
-3.985,-2.07727023647622,-1.449649503817625
-3.9845,-2.055929886760855,-1.619195718300304
-3.984,-1.522421143876723,-1.05757388282643
-3.9835,-0.8822106524157645,-0.2946159176543747
-3.983,-0.391382608962363,0.3411823866556712
-3.9825,-0.1139580626626144,0.7438546460520338
-3.982,0.02475421048725994,0.9769806909657173
-3.9815,0.05676473506030786,1.072350436612224
-3.981,0.05676473506030786,1.093543713422559
-3.9805,0.03542438534494258,1.072350436612224
-3.98,0.01408403562957729,1.019367244586387
-3.9795,0.00341386077189465,0.9345941373450475
-3.979,-0.007256314085787988,0.8286277532933731
-3.9785,0.00341386077189465,0.7226613692416989
-3.978,0.01408403562957729,0.5425185163538525
-3.9775,-0.3060212101009019,-0.1250697031716958
-3.977,-0.7648387289812555,-0.8880276683437509
-3.9765,-1.052933450138687,-1.460246142222792
-3.976,-0.807519428411986,-1.88411167842949
-3.9755,-0.007256314085787988,-1.587405803084801
-3.975,0.7823366253827275,-0.326405832869877
-3.9745,1.305175193409177,0.9345941373450475
-3.974,1.529248865420512,1.42203950398275
-3.9735,1.337185717982225,0.4789386859228479
-3.973,0.6649647019482183,-1.163540266878104
-3.9725,0.6649647019482183,-1.84172512480882
-3.972,0.6116138276598051,-1.979481424075996
-3.9715,0.4302208550792003,-1.460246142222792
-3.971,0.291508581929326,-0.7290780922662394
-3.9705,0.1207857842064037,-0.252229364033705
-3.97,-0.01792648894347063,-0.008506680714854012
-3.9695,-0.1886492866663929,0.1186529801471552
-3.969,-0.6367966306890638,-0.2734226408440398
-3.9685,-1.394379045584531,-1.131750351662602
-3.968,-1.83185621474952,-1.809935209593318
-3.9675,-2.258663209056825,-2.265590661015517
-3.967,-2.087940411333903,-1.915901593644992
-3.9665,-1.437059745015262,-0.9833974139902578
-3.966,-0.7861790786966207,-0.08268314955102604
-3.9655,-0.3166913849585846,0.55311515475902
-3.965,-0.06060718837420119,0.92399749893988
-3.9645,0.05676473506030786,1.093543713422559
-3.964,0.07810508477567314,1.135930267043229
-3.9635,0.0674349099179905,1.104140351827727
-3.963,0.03542438534494258,1.029963882991555
-3.9625,0.01408403562957729,0.9451907757502149
-3.962,0.00341386077189465,0.849821030103708
-3.9615,0.00341386077189465,0.7438546460520338
-3.961,-0.03926683865883591,0.2352160026039969
-3.9605,-0.6474668055467465,-0.6549016234300674
-3.96,-1.06360362499637,-1.301296566145281
-3.9595,-1.052933450138687,-1.555615887869299
-3.959,-0.3060212101009019,-0.718481453861072
-3.9585,0.5689331282290746,0.5001319627331828
-3.958,1.19847344483235,1.485619334413754
-3.9575,1.51857869056283,2.004854616266958
-3.957,1.187803269974668,1.326669758336243
-3.9565,0.6649647019482183,-0.326405832869877
-3.956,0.7289857510943143,-1.290699927740113
-3.9555,0.707645401378949,-1.788741932782983
-3.955,0.5689331282290746,-1.47084278062796
-3.9545,0.4195506802215176,-0.8032545611024114
-3.954,0.2061471830678648,-0.2840192792492073
-3.9535,0.03542438534494258,0.04447651131098315
-3.953,-0.06060718837420119,0.2458126410091644
-3.9525,-0.3060212101009019,0.07626642652648545
-3.952,-0.8928808272734472,-0.718481453861072
-3.9515,-1.30901764672307,-1.375473034981453
-3.951,-1.789175515318789,-1.862918401619155
-3.9505,-1.810515865034154,-1.672178910326141
-3.95,-1.298347471865388,-0.8562377531282487
-3.9495,-0.7434983792658902,-0.01910331912002144
-3.949,-0.3273615598162672,0.5955017083796896
-3.9485,-0.08194753808956648,0.9557874141553824
-3.948,0.03542438534494258,1.125333628638062
-3.9475,0.0674349099179905,1.167720182258731
-3.947,0.05676473506030786,1.135930267043229
-3.9465,0.03542438534494258,1.051157159801889
-3.946,0.01408403562957729,0.9451907757502149
-3.9455,0.01408403562957729,0.8286277532933731
-3.945,0.01408403562957729,0.7226613692416989
-3.9445,-0.01792648894347063,0.5637117931641874
-3.944,-0.3060212101009019,-0.05089323433552374
-3.9435,-0.6367966306890638,-0.7608680074817418
-3.943,-0.8928808272734472,-1.280103289334946
-3.9425,-0.5514352318276028,-1.47084278062796
-3.942,0.2274875327832301,-0.6654982618352349
-3.9415,0.9210488985326017,0.5425185163538525
-3.941,1.35852606769759,1.496215972818921
-3.9405,1.51857869056283,1.464426057603419
-3.94,1.113112045970889,0.07626642652648545
-3.9395,0.5689331282290746,-1.460246142222792
-3.939,0.6649647019482183,-2.021867977696666
-3.9385,0.6222840025174878,-1.979481424075996
-3.938,0.4408910299368829,-1.34368311976595
-3.9375,0.3128489316446912,-0.6019184314042303
-3.937,0.1207857842064037,-0.1356663415768632
-3.9365,-0.007256314085787988,0.1292496185523226
-3.936,-0.04993701351651855,0.3199891098453364
-3.9355,0.142126133921769,0.3517790250608387
-3.935,-0.1886492866663929,-0.3158091944647096
-3.9345,-0.6794773301197943,-0.9198175835592532
-3.934,-0.722158029550525,-0.792657922697244
-3.9335,-0.5300948821122373,-0.326405832869877
-3.933,-0.3060212101009019,0.1504428953626575
-3.9325,-0.1459685872356623,0.5107286011383502
-3.932,-0.04993701351651855,0.7438546460520338
-3.9315,0.00341386077189465,0.8922075837243778
-3.931,0.01408403562957729,0.9663840525605498
-3.9305,0.02475421048725994,1.00877060618122
-3.93,0.01408403562957729,1.019367244586387
-3.9295,0.00341386077189465,0.9981739677760521
-3.929,0.00341386077189465,0.9557874141553824
-3.9285,0.01408403562957729,0.9134008605347127
-3.928,0.01408403562957729,0.7968378380778709
-3.9275,-0.3593720843893152,0.1928294489833272
-3.927,-0.7434983792658902,-0.4111789401112165
-3.9265,-0.7968492535543035,-0.7078848154559045
-3.926,-0.5300948821122373,-0.718481453861072
-3.9255,0.2701682322139607,0.13984625695749
-3.925,0.9850699476786977,1.135930267043229
-3.9245,1.422547116843686,1.867098316999781
-3.924,1.593269914566608,2.153207553939303
-3.9235,1.507908515705147,1.411442865577582
-3.923,0.6969752265212663,-0.5489352393783931
-3.9225,0.5902734779444399,-1.629792356705471
-3.922,0.6436243522328531,-2.074851169722503
-3.9215,0.4515612047945656,-1.725162102351978
-3.921,0.3021787567870086,-0.9833974139902578
-3.9205,0.1848068333524996,-0.326405832869877
-3.92,0.01408403562957729,0.05507314971615059
-3.9195,-0.2633405106701714,0.2352160026039969
-3.919,-1.095614149569417,-0.3370024712750445
-3.9185,-1.789175515318789,-1.258910012524611
-3.918,-2.098610586191586,-1.862918401619155
-3.9175,-1.938557963326346,-1.788741932782983
-3.917,-1.330357996438436,-1.004590690800593
-3.9165,-0.7114878546928423,-0.1568596183871981
-3.916,-0.2846808603855366,0.4683420475176805
-3.9155,-0.04993701351651855,0.8392243916985406
-3.915,0.04609456020262521,1.019367244586387
-3.9145,0.0674349099179905,1.072350436612224
-3.914,0.05676473506030786,1.051157159801889
-3.9135,0.03542438534494258,0.9981739677760521
-3.913,0.01408403562957729,0.92399749893988
-3.9125,0.00341386077189465,0.8286277532933731
-3.912,0.00341386077189465,0.7226613692416989
-3.9115,0.00341386077189465,0.6166949851900245
-3.911,-0.1459685872356623,0.2776025562246667
-3.9105,-0.5621054066852853,-0.4323722169215513
-3.91,-0.8715404775580819,-1.05757388282643
-3.9095,-0.5087545323968721,-1.354279758171118
-3.909,0.3875401556484697,-0.6866915386455698
-3.9085,1.123782220828572,0.4683420475176805
-3.908,1.550589215135878,1.453829419198252
-3.9075,1.689301488285752,2.004854616266958
-3.907,1.646620788855021,1.602182356870596
-3.9065,1.294505018551494,0.2034260873884947
-3.906,0.5262524287983441,-1.523825972653797
-3.9055,0.6756348768059011,-2.17022091536901
-3.905,0.6009436528021226,-2.043061254507001
-3.9045,0.3768699807907871,-1.375473034981453
-3.904,0.2488278824985954,-0.5913217929990628
-3.9035,0.09944543449103843,-0.06148987274069118
-3.903,-0.06060718837420119,0.2458126410091644
-3.9025,-0.4980843575391895,0.03387987290581572
-3.902,-1.298347471865388,-0.8138511995075789
-3.9015,-1.778505340461106,-1.534422611058964
-3.901,-2.109280761049269,-1.905304955239825
-3.9005,-1.778505340461106,-1.417859588602123
-3.9,-1.127624674142465,-0.5383386009732256
-3.8995,-0.572775581542968,0.2352160026039969
-3.899,-0.1993194615240755,0.7332580076468663
-3.8985,-0.007256314085787988,0.9981739677760521
-3.898,0.05676473506030786,1.093543713422559
-3.8975,0.0674349099179905,1.093543713422559
-3.897,0.05676473506030786,1.040560521396722
-3.8965,0.03542438534494258,0.9451907757502149
-3.896,0.01408403562957729,0.8286277532933731
-3.8955,0.01408403562957729,0.7120647308365314
-3.895,0.01408403562957729,0.5955017083796896
-3.8945,-0.03926683865883591,0.3517790250608387
-3.894,-0.2526703358124887,-0.2840192792492073
-3.8935,-0.4660738329661415,-0.8774310299385835
-3.893,-0.754168554123573,-1.375473034981453
-3.8925,-0.3807124341046804,-0.9939940523954253
-3.892,0.3875401556484697,0.1504428953626575
-3.8915,1.049090996824793,1.231300012689736
-3.891,1.433217291701369,1.930678147430786
-3.8905,1.56125938999356,1.761131932948107
-3.89,1.35852606769759,0.4895353243280153
-3.8895,0.6116138276598051,-1.301296566145281
-3.889,0.6329541773751706,-2.064254531317336
-3.8885,0.6542945270905358,-2.17022091536901
-3.888,0.4515612047945656,-1.576809164679634
-3.8875,0.3021787567870086,-0.7608680074817418
-3.887,0.1527963087794516,-0.1674562567923655
