Class_3_Grab_w_two_Hands/Class_3_Grab_with_Two_hands_Basim_3.csv

#Digilent WaveForms Oscilloscope Acquisition
#Device Name: EExplorer
#Serial Number: SN:210151A2B84A
#Date Time: 2020-11-04 11:01:12.280
#Sample rate: 2000Hz
#Samples: 16384
#Trigger: Source: Channel 1 Type: Edge Condition: Rising Level: 0 V Hyst.: Auto HoldOff: 0 s
#Channel 1: Range: 1 V/div Offset: 0 V Attenuation: 1 X
#Channel 2: Range: 1 V/div Offset: 0 V Attenuation: 1 X
#Power Supplies: ON
#Fixed Supply: ON
#Voltage: 3.3 V Readback: 3.331 V
#Positive Supply: ON
#Voltage: 3.7 V Readback: 3.703 V
#Current: 500 mA Readback: 16 mA
#Negative Supply: ON
#Voltage: -3.7 V Readback: -3.697 V
#Current: -500 mA Readback: -6 mA
#Reference 1: ON
#Voltage: 0 V
#Reference 2: ON
#Voltage: 0 V

Time (s),Channel 1 (V),Channel 2 (V)
-4.096,0.5369226036560266,-0.9198175835592532
-4.0955,0.5475927785136997,-0.3370024712755745
-4.095,0.4729015545098532,0.04447651131114699
-4.0945,0.3875401556484697,0.2246193641988295
-4.094,0.3128489316447592,0.2881991946297763
-4.0935,0.2701682322140577,0.2881991946299691
-4.093,0.3768699807907871,0.4365521323021782
-4.0925,0.4515612047944976,0.5107286011382827
-4.092,0.4088805053637671,0.4577454091124456
-4.0915,0.3341892813600565,0.383568940276341
-4.091,0.2701682322139607,0.3517790250608387
-4.0905,-0.04993701351717846,0.6166949851899185
-4.09,-0.7755089038389382,0.5001319627331828
-4.0895,-1.351698346153801,-0.3370024712750445
-4.089,-1.757164990745372,-1.163540266877352
-4.0885,-1.927887788468663,-1.619195718300304
-4.088,-1.437059745015262,-1.205926820498774
-4.0875,-0.7648387289818669,-0.4429688553274127
-4.087,-0.22065981123914,0.235216002604421
-4.0865,0.1101156093487211,0.701468092431364
-4.086,0.2701682322138151,0.955787414155151
-4.0855,0.3235191065023642,1.061753798207066
-4.085,0.3128489316446912,1.072350436612224
-4.0845,0.2915085819293454,1.029963882991593
-4.084,0.2594980573562684,0.9451907757500992
-4.0835,0.2488278824985954,0.8180311148882058
-4.083,0.2488278824985954,0.6908714540261965
-4.0825,0.2915085819297045,0.4577454091118577
-4.082,0.707645401378949,-0.2628260024388724
-4.0815,0.7716664505250448,-1.121153713257435
-4.081,0.05676473506095803,-1.746355379161744
-4.0805,-0.1032878878049318,-1.820531847998485
-4.08,0.1848068333524996,-1.566212526274467
-4.0795,0.3982103305059583,-0.9516074987753145
-4.079,0.4515612047945365,-0.4111789401108791
-4.0785,0.4195506802215176,-0.04029659593035631
-4.078,0.366199805933153,0.150442895362484
-4.0775,0.3128489316446524,0.2140227257936717
-4.077,0.2701682322139607,0.2246193641988295
-4.0765,0.3235191065023253,0.2776025562246185
-4.076,0.4408910299368635,0.3411823866556423
-4.0755,0.4195506802215176,0.309392471440169
-4.075,0.3555296310754218,0.2776025562246667
-4.0745,0.291508581929161,0.2776025562248401
-4.074,0.1101156093487211,0.4683420475176805
-4.0735,-0.5834457564006506,0.7544512844572011
-4.073,-1.244996597576373,0.1186529801477334
-4.0725,-1.767835165603424,-0.8032545611024114
-4.072,-2.066600061618538,-1.439052865412457
-4.0715,-1.597112367880928,-1.216523458904144
-4.071,-0.8928808272729037,-0.517145324162274
-4.0705,-0.2953510352432193,0.1610395337678249
-4.07,0.07810508477533346,0.6484849004050836
-4.0695,0.2594980573563363,0.9345941373451727
-4.069,0.3235191065023739,1.072350436612224
-4.0685,0.3235191065023739,1.104140351827727
-4.068,0.2915085819293066,1.082947075017324
-4.0675,0.2701682322139607,1.00877060618122
-4.067,0.2488278824985954,0.8922075837243778
-4.0665,0.2381577076409322,0.765047922862224
-4.066,0.2594980573562781,0.6060983467848571
-4.0655,0.5475927785137094,0.02328323450064829
-4.065,0.8783681991015704,-0.8668343915326066
-4.0645,0.1848068333524996,-1.619195718300304
-4.064,-0.3380317346739499,-1.937094870455327
-4.0635,-0.03926683865910763,-1.905304955239854
-4.063,0.2808384070717792,-1.386069673386023
-4.0625,0.4302208550792003,-0.7290780922662394
-4.062,0.4515612047945461,-0.2098428104135075
-4.0615,0.3982103305061039,0.07626642652660111
-4.061,0.3448594562177392,0.2034260873884947
-4.0605,0.3021787567870086,0.2140227257936621
-4.06,0.2915085819294715,0.224619364199003
-4.0595,0.4515612047945656,0.4153588554918433
-4.059,0.4835717293676135,0.4471487707073456
-4.0585,0.4195506802215759,0.3835689402763989
-4.058,0.3341892813600565,0.309392471440169
-4.0575,0.2274875327832301,0.3411823866556712
-4.057,-0.3273615598157626,0.712064730836194
-4.0565,-1.223656247861609,0.3623756634660061
-4.056,-1.917217613610981,-0.5277419625680583
-4.0555,-2.418715831921609,-1.227120097308473
-4.055,-2.557428105071202,-1.598002441489564
-4.0545,-1.746494815888059,-1.152943628472937
-4.054,-0.8928808272742236,-0.3687923864912599
-4.0535,-0.263340510669822,0.3199891098457605
-4.053,0.1207857842064037,0.7862411996727035
-4.0525,0.3021787567870086,1.040560521396722
-4.052,0.3448594562177295,1.146526905448396
-4.0515,0.3341892813600565,1.146526905448396
-4.051,0.3021787567870086,1.082947075017392
-4.0505,0.2701682322139898,0.9769806909658136
-4.05,0.2488278824985954,0.8392243916985406
-4.0495,0.2488278824985954,0.701468092431364
-4.049,0.3875401556483435,0.3093924714405256
-4.0485,0.6863050516633024,-0.538338600973987
-4.048,0.3768699807907871,-1.375473034981453
-4.0475,-0.1886492866658785,-2.000674700885763
-4.047,-0.02859666380084273,-2.371557045066893
-4.0465,0.3128489316446912,-2.043061254507001
-4.046,0.4835717293674582,-1.216523458904693
-4.0455,0.5049120790829207,-0.5383386009728112
-4.045,0.4408910299368829,-0.08268314955102604
-4.0445,0.3661998059331045,0.13984625695749
-4.044,0.3128489316446524,0.2140227257936717
-4.0435,0.2701682322139607,0.2246193641988295
-4.043,0.3982103305061524,0.3941655786815084
-4.0425,0.4942419042252088,0.5213252395434019
-4.042,0.4515612047945656,0.457745409112513
-4.0415,0.3768699807907871,0.3517790250608387
-4.041,0.2915085819294037,0.2987958330350498
-4.0405,0.003413860771195929,0.5319218779486754
-4.04,-0.7648387289812555,0.5213252395435176
-4.0395,-1.405049220441632,-0.2840192792484748
-4.039,-1.895877263895645,-1.121153713257743
-4.0385,-1.927887788468663,-1.460246142222792
-4.038,-1.309017646723633,-0.9622041371803759
-4.0375,-0.6367966306885979,-0.252229364033146
-4.037,-0.124628237520297,0.3623756634660061
-4.0365,0.1634664836371343,0.7650479228623686
-4.036,0.3021787567870377,0.976980690965804
-4.0355,0.3341892813600565,1.072350436612224
-4.035,0.3128489316446912,1.082947075017392
-4.0345,0.2808384070716724,1.040560521396761
-4.034,0.2594980573562781,0.9557874141553824
-4.0335,0.2488278824985954,0.8392243916985406
-4.033,0.2488278824985954,0.7120647308366471
-4.0325,0.3021787567872415,0.4895353243273696
-4.032,0.5582629533713921,-0.2204394488182027
-4.0315,0.2808384070718956,-1.0999604364463
-4.031,-0.380712434104661,-1.788741932783436
-4.0305,-0.3593720843893152,-2.286783937825852
-4.03,0.1527963087789858,-2.350363768256799
-4.0295,0.4835717293677202,-1.598002441489227
-4.029,0.6009436528021226,-0.7820612842920766
-4.0285,0.5475927785137094,-0.2310360872233701
-4.028,0.4515612047944783,0.05507314971624696
-4.0275,0.3555296310754218,0.1610395337678249
-4.027,0.291508581929326,0.1716361721729923
-4.0265,0.3235191065023447,0.2564092794142547
-4.026,0.4515612047945656,0.4471487707073456
-4.0255,0.4515612047945656,0.4365521323021782
-4.025,0.376869980790855,0.3623756634660736
-4.0245,0.312848931644536,0.3093924714402846
-4.024,0.142126133921769,0.4365521323021782
-4.0235,-0.540765056969299,0.7120647308362809
-4.023,-1.33035799643896,0.09745970333599148
-4.0225,-1.906547438753298,-0.8138511995075789
-4.022,-2.333354433060216,-1.502632695842836
-4.0215,-1.981238662756359,-1.481439419032482
-4.021,-1.191645723288561,-0.7714646458869092
-4.0205,-0.4874141826815069,0.01268659609548085
-4.02,-0.01792648894323772,0.5955017083800077
-4.0195,0.2381577076409128,0.9451907757502149
-4.019,0.3341892813600565,1.125333628638062
-4.0185,0.3448594562177295,1.17831682066385
-4.018,0.3235191065023739,1.146526905448396
-4.0175,0.2808384070716433,1.072350436612224
-4.017,0.2594980573562975,0.9451907757503306
-4.0165,0.2488278824986051,0.7968378380777167
-4.016,0.2594980573562781,0.627291623595192
-4.0155,0.3982103305060263,0.0444765113115132
-4.015,0.1634664836363676,-0.8456411147237751
-4.0145,-0.6794773301197943,-1.608599079895136
-4.014,-1.084943974711366,-2.000674700885975
-4.0135,-0.5194247072540114,-2.074851169721993
-4.013,0.07810508477567314,-1.51322933424863
-4.0125,0.3875401556484697,-0.7820612842920766
-4.012,0.4835717293675941,-0.2522293640334352
-4.0115,0.4622313796522482,0.04447651131098315
-4.011,0.3875401556484697,0.1716361721729923
-4.0105,0.3235191065024321,0.1928294489833079
-4.01,0.3021787567870086,0.1928294489833272
-4.0095,0.3875401556484697,0.3729723018711736
-4.009,0.3982103305061427,0.4153588554918047
-4.0085,0.3555296310753733,0.362375663465958
-4.008,0.3021787567870086,0.309392471440169
-4.0075,0.227487532783298,0.3199891098453267
-4.007,-0.284680860386313,0.6272916235948739
-4.0065,-1.138294849000148,0.2776025562246667
-4.006,-1.853196564464885,-0.5807251545938954
-4.0055,-2.312014083345054,-1.163540266878249
-4.005,-2.109280761049269,-1.322489842955616
-4.0045,-1.319687821580753,-0.792657922697244
-4.004,-0.5941159312578578,-0.09327978795568269
-4.0035,-0.07127736323188383,0.4683420475176805
-4.003,0.2168173579255475,0.8286277532933731
-4.0025,0.3341892813599498,1.029963882991371
-4.002,0.3448594562177392,1.104140351827727
-4.0015,0.3235191065023739,1.114736990232894
-4.001,0.2915085819293551,1.061753798207105
-4.0005,0.270168232213951,0.9557874141552763
-4,0.2594980573562781,0.8392243916985406
-3.9995,0.2594980573562781,0.701468092431364
-3.999,0.3768699807907871,0.3411823866556712
-3.9985,0.5155822539406614,-0.4959520473525559
-3.998,-0.02859666380115328,-1.333086481360783
-3.9975,-0.6261264558313813,-1.958288147265661
-3.997,-0.3060212101009019,-2.350363768256857
-3.9965,0.2274875327832301,-2.191414192179345
-3.996,0.5049120790829789,-1.375473034981453
-3.9955,0.5689331282290746,-0.5913217929990628
-3.995,0.5155822539406614,-0.08268314955102604
-3.9945,0.4302208550792003,0.1610395337678249
-3.994,0.3448594562177392,0.2458126410091644
-3.9935,0.291508581929326,0.2352160026039969
-3.993,0.3982103305061524,0.3517790250608387
-3.9925,0.5049120790829789,0.457745409112513
-3.992,0.4729015545099309,0.3941655786815084
-3.9915,0.3875401556484697,0.309392471440169
-3.991,0.3021787567870086,0.2670059178194992
-3.9905,0.02475421048725994,0.5425185163538525
-3.99,-0.7861790786966207,0.5849050699745222
-3.9895,-1.586442193022819,-0.1992461720078678
-3.989,-2.013249187330125,-0.9304142219644207
-3.9885,-2.215982509626095,-1.42845622700729
-3.988,-1.703814116457328,-1.269506650929778
-3.9875,-0.9462317015618604,-0.5913217929990628
-3.987,-0.3166913849585846,0.1080563417419877
-3.9865,0.07810508477567314,0.6060983467848571
-3.986,0.2808384070716433,0.9134008605347127
-3.9855,0.3448594562177392,1.051157159801889
-3.985,0.3448594562177392,1.093543713422559
-3.9845,0.3128489316446912,1.072350436612224
-3.984,0.2808384070716433,0.9981739677760521
-3.9835,0.2594980573562781,0.8922075837243778
-3.983,0.2594980573562781,0.775644561267536
-3.9825,0.2808384070716433,0.5743084315693548
-3.982,0.6436243522328531,-0.1144730647665284
-3.9815,0.942389248247967,-1.004590690800593
-3.981,0.2381577076409128,-1.714565463946811
-3.9805,-0.07127736323188383,-2.096044446532838
-3.98,0.2168173579255475,-2.043061254507001
-3.9795,0.4195506802215176,-1.38606967338662
-3.979,0.4729015545099309,-0.6654982618352349
-3.9785,0.4408910299368829,-0.1674562567923655
-3.978,0.3875401556484697,0.1186529801471552
-3.9775,0.3235191065023739,0.2352160026039969
-3.977,0.291508581929326,0.2564092794143318
-3.9765,0.3235191065023739,0.309392471440169
-3.976,0.4515612047945656,0.4895353243280153
-3.9755,0.4515612047945656,0.4683420475176805
-3.975,0.3875401556484697,0.383568940276341
-3.9745,0.3128489316446912,0.3199891098453364
-3.974,0.1741366584948169,0.3941655786815084
-3.9735,-0.4447334832507763,0.6060983467848571
-3.973,-1.212986073003927,-0.01910331912002144
-3.9725,-1.703814116457328,-0.8562377531282487
-3.972,-2.055929886760855,-1.417859588602123
-3.9715,-1.927887788468663,-1.51322933424863
-3.971,-1.244996597576974,-0.8986243067489184
-3.9705,-0.5621054066852853,-0.1462629799820306
-3.97,-0.07127736323188383,0.4471487707073456
-3.9695,0.2061471830678648,0.8074344764830383
-3.969,0.3235191065023739,0.9981739677760521
-3.9685,0.3448594562177392,1.061753798207057
-3.968,0.3235191065023739,1.051157159801889
-3.9675,0.291508581929326,0.9875773293708847
-3.967,0.2701682322139607,0.8816109453192104
-3.9665,0.2594980573562781,0.7544512844572011
-3.966,0.2701682322139607,0.6166949851900245
-3.9655,0.4302208550792003,0.1186529801471552
-3.965,0.5049120790829789,-0.7502713690765743
-3.9645,-0.04993701351651855,-1.523825972653797
-3.964,-0.4767440078238243,-2.032464616101834
-3.9635,-0.1139580626626144,-2.180817553774178
-3.963,0.2808384070716433,-1.608599079895136
-3.9625,0.4729015545099309,-0.8562377531282487
-3.962,0.4942419042252961,-0.2628260024388724
-3.9615,0.4408910299368829,0.09745970333682032
-3.961,0.3768699807907871,0.2352160026039969
-3.9605,0.3235191065023739,0.2458126410091644
-3.96,0.3021787567870086,0.2352160026039969
-3.9595,0.4729015545099309,0.4259554938970107
-3.959,0.5262524287983441,0.4683420475176805
-3.9585,0.4622313796522482,0.4047622170866759
-3.958,0.3768699807907871,0.3411823866556712
-3.9575,0.2808384070716433,0.3411823866556712
-3.957,-0.1673089369510276,0.6802748156210291
-3.9565,-0.9889124009925911,0.3623756634660061
-3.956,-1.565101843307454,-0.5171453241628908
-3.9555,-1.917217613610981,-1.174136905283272
-3.955,-2.045259711903173,-1.523825972653797
-3.9545,-1.479740444445993,-1.089363798041932
-3.954,-0.7648387289812555,-0.3475991096802118
-3.9535,-0.1993194615240755,0.2987958330350016
-3.953,0.142126133921769,0.7332580076468663
-3.9525,0.3021787567870086,0.9769806909657173
-3.952,0.3448594562177392,1.082947075017392
-3.9515,0.3341892813600565,1.104140351827727
-3.951,0.3128489316446912,1.051157159801889
-3.9505,0.2808384070716433,0.9557874141553824
-3.95,0.2701682322139607,0.8392243916985406
-3.9495,0.2594980573562781,0.7120647308365314
-3.949,0.3128489316446912,0.4259554938970107
-3.9485,0.6009436528021226,-0.3687923864905467
-3.948,0.3341892813600565,-1.227120097309109
-3.9475,-0.3700422592469978,-1.809935209593318
-3.947,-0.2313299860971235,-1.958288147265661
-3.9465,0.1848068333524996,-1.672178910326141
-3.946,0.4515612047945656,-0.9728007755850904
-3.9455,0.5155822539406614,-0.3370024712750445
-3.945,0.4835717293676135,0.05507314971615059
-3.9445,0.408880505363835,0.2352160026039969
-3.944,0.3448594562177392,0.2776025562246667
-3.9435,0.291508581929326,0.2564092794143318
-3.943,0.3555296310754218,0.3623756634660061
-3.9425,0.4408910299368829,0.4789386859228479
-3.942,0.4195506802215176,0.4365521323021782
-3.9415,0.3555296310754218,0.3729723018711736
-3.941,0.291508581929326,0.3199891098453364
-3.9405,0.07810508477567314,0.4895353243280153
-3.94,-0.690147504977477,0.4683420475176805
-3.9395,-1.437059745015262,-0.3052125560595421
-3.939,-1.906547438753298,-1.152943628472937
-3.9385,-2.119950935906951,-1.672178910326141
-3.938,-1.565101843307454,-1.311893204550448
-3.9375,-0.839529952985034,-0.5383386009732256
-3.937,-0.2526703358124887,0.1822328105781598
-3.9365,0.1207857842064037,0.6802748156210291
-3.936,0.291508581929326,0.9557874141553824
-3.9355,0.3448594562177392,1.072350436612224
-3.935,0.3448594562177392,1.093543713422559
-3.9345,0.3128489316446912,1.051157159801889
-3.934,0.2808384070716433,0.9557874141553824
-3.9335,0.2701682322139607,0.8392243916985406
-3.933,0.2594980573562781,0.701468092431364
-3.9325,0.3021787567870086,0.5213252395435176
-3.932,0.6542945270905358,-0.1356663415768632
-3.9315,0.6863050516635838,-1.004590690800593
-3.931,-0.007256314085787988,-1.703968825541643
-3.9305,-0.2953510352432193,-1.958288147265661
-3.93,0.02475421048725994,-1.788741932782983
-3.9295,0.3235191065023739,-1.163540266878104
-3.929,0.4515612047945656,-0.5277419625680583
-3.9285,0.4515612047945656,-0.07208651114585861
-3.928,0.3982103305061524,0.1716361721729923
-3.9275,0.3448594562177392,0.2670059178194992
-3.927,0.3021787567870086,0.2776025562246667
-3.9265,0.3235191065023739,0.2987958330350016
-3.926,0.4515612047945656,0.4365521323021782
-3.9255,0.4515612047945656,0.4259554938970107
-3.925,0.3982103305061524,0.3517790250608387
-3.9245,0.3235191065023739,0.2987958330350016
-3.924,0.2061471830678648,0.3729723018711736
-3.9235,-0.423393133535411,0.6696781772158616
-3.923,-1.180975548430879,0.1186529801471552
-3.9225,-1.67180359188428,-0.7502713690765743
-3.922,-2.055929886760855,-1.407262950196955
-3.9215,-1.863866739322568,-1.481439419033127
-3.921,-1.170305373573196,-0.8456411147230812
-3.9205,-0.4980843575391895,-0.1038764263613609
-3.92,-0.02859666380115328,0.4789386859228479
-3.9195,0.2274875327832301,0.8392243916985406
-3.919,0.3341892813600565,1.019367244586387
-3.9185,0.3555296310754218,1.082947075017392
-3.918,0.3341892813600565,1.072350436612224
-3.9175,0.3021787567870086,1.00877060618122
-3.917,0.2701682322139607,0.9134008605347127
-3.9165,0.2594980573562781,0.7862411996727035
-3.916,0.2701682322139607,0.6484849004055269
-3.9155,0.4195506802215176,0.1610395337678249
-3.915,0.4835717293676135,-0.7078848154559045
-3.9145,-0.1032878878049318,-1.502632695843462
-3.914,-0.6154562809736985,-1.968884785670829
-3.9135,-0.2099896363817582,-2.106641084938006
-3.913,0.2594980573562781,-1.629792356705471
-3.9125,0.5049120790829789,-0.8668343915334161
-3.912,0.5475927785137094,-0.2734226408440398
-3.9115,0.4942419042252961,0.06566978812131802
-3.911,0.408880505363835,0.1822328105781598
-3.9105,0.3448594562177392,0.2034260873884947
-3.91,0.3021787567870086,0.1928294489833272
-3.9095,0.4302208550792003,0.3941655786815084
-3.909,0.4835717293676135,0.4895353243280153
-3.9085,0.4408910299368829,0.4365521323021782
-3.908,0.3661998059331045,0.383568940276341
-3.9075,0.2808384070716433,0.3729723018711736
-3.907,-0.124628237520297,0.6802748156210291
-3.9065,-0.9462317015618604,0.5107286011383502
-3.906,-1.565101843307454,-0.3581957480853793
-3.9055,-2.013249187330125,-1.163540266878104
-3.905,-2.087940411333903,-1.545019249464132
-3.9045,-1.447729919872945,-1.068170521231597
-3.904,-0.722158029550525,-0.2946159176543747
-3.9035,-0.1673089369510276,0.3623756634660061
-3.903,0.1634664836371343,0.8074344764830383
-3.9025,0.3128489316446912,1.051157159801889
-3.902,0.3555296310754218,1.146526905448396
-3.9015,0.3448594562177392,1.157123543853563
-3.901,0.3128489316446912,1.104140351827727
-3.9005,0.291508581929326,1.00877060618122
-3.9,0.2701682322139607,0.8710143069140429
-3.8995,0.2701682322139607,0.7438546460520338
-3.899,0.3341892813600565,0.4471487707073456
-3.8985,0.5155822539406614,-0.3475991096802118
-3.898,0.08877525963335578,-1.205926820498774
-3.8975,-0.5621054066852853,-1.809935209593318
-3.897,-0.3807124341046804,-2.011271339291499
-3.8965,0.1314559590640864,-1.852321763213987
-3.896,0.4408910299368829,-1.184733543688439
-3.8955,0.5262524287983441,-0.5489352393783931
-3.895,0.4942419042252961,-0.1038764263613609
-3.8945,0.4195506802215176,0.13984625695749
-3.894,0.3555296310754218,0.2246193641988295
-3.8935,0.3021787567870086,0.2352160026039969
-3.893,0.3555296310754218,0.309392471440169
-3.8925,0.4302208550792003,0.3941655786815084
-3.892,0.408880505363835,0.3517790250608387
-3.8915,0.3555296310754218,0.2881991946298341
-3.891,0.3021787567870086,0.2564092794143318
-3.8905,0.1101156093487211,0.4683420475176805
-3.89,-0.5941159312583333,0.6590815388106942
-3.8895,-1.319687821580753,-0.05089323433552374
-3.889,-1.757164990745741,-0.8668343915334161
-3.8885,-1.970568487899394,-1.375473034981453
-3.888,-1.51175096901904,-1.152943628472937
-3.8875,-0.8288597781273515,-0.4641621321370536
-3.887,-0.2526703358124887,0.2034260873884947
-3.8865,0.1101156093487211,0.6696781772158616
-3.886,0.291508581929326,0.9557874141553824
-3.8855,0.3448594562177392,1.082947075017392
