Class_7_Listen_To_Music/Class_7_Listen_To_Music_1_AM_1.csv

#Digilent WaveForms Oscilloscope Acquisition
#Device Name: EExplorer
#Serial Number: SN:210151A2B84A
#Date Time: 2020-10-20 17:06:19.616
#Sample rate: 2000Hz
#Samples: 16384
#Trigger: Source: Channel 1 Type: Edge Condition: Rising Level: 0 V Hyst.: Auto HoldOff: 0 s
#Channel 1: Range: 1 V/div Offset: 0 V
#Channel 2: Range: 1 V/div Offset: 0 V

Time (s),Channel 1 (V),Channel 2 (V)
-4.0960000000000001,0.94238924824796699,0.51072860113835017
-4.0955000000000004,0.75032610080985429,0.33058574825066767
-4.0949999999999998,0.61161382765976624,0.24581264100916439
-4.0945,0.5689331282290746,0.24581264100916439
-4.0940000000000003,0.84635767452857102,0.076266426526639675
-4.0934999999999997,0.95305942310557212,0.033879872905979561
-4.093,0.86769802424418851,0.21402272579366208
-4.0925000000000002,0.72898575109444042,0.44714877070713355
-4.0919999999999996,0.65429452709087543,0.54251851635335135
-4.0914999999999999,1.0277506471094282,-0.0085066807148540119
-4.0910000000000002,1.3691962425552726,-0.83504447631791379
-4.0904999999999996,0.65429452708950719,-1.4602461422230912
-4.0899999999999999,-0.47674400782382426,-1.7887419327829828
-4.0895000000000001,-1.5757720181651362,-1.9159015936449921
-4.0890000000000004,-2.0452597119027454,-1.6721789103263625
-4.0884999999999998,-1.522421143876723,-0.80325456110241145
-4.0880000000000001,-0.75416855412357298,0.11865298014715518
-4.0875000000000004,-0.1246282375208696,0.76504792286178069
-4.0869999999999997,0.28083840707182772,1.104140351827823
-4.0865,0.4835717293676135,1.2101067358794007
-4.0860000000000003,0.54759277851365118,1.1571235438536116
-4.0854999999999997,0.5369226036559781,1.0405605213965869
-4.085,0.4835717293676135,0.89220758372437781
-4.0845000000000002,0.43022085507924884,0.74385464605216867
-4.0839999999999996,0.38754015564826594,0.6272916235950089
-4.0834999999999999,0.16346648363713429,0.42595549389701071
-4.0830000000000002,-0.4980843575391895,-0.17805289519753292
-4.0824999999999996,-0.85020012784284282,-0.88802766834408819
-4.0819999999999999,-0.98891240099259115,-1.2589100125246109
-4.0815000000000001,-1.1703053735731959,-1.3860696733866202
-4.0810000000000004,-0.74349837926627838,-0.98339741399062408
-4.0804999999999998,-0.17797911180871023,-0.44296885532671876
-4.0800000000000001,0.17413665849481691,-0.13566634157686319
-4.0795000000000003,0.47290155450965915,0.12924961855208172
-4.0789999999999997,0.63295417737515114,0.30939247144016896
-4.0785,0.6116138276598051,0.30939247144016896
-4.0780000000000003,0.56893312822911346,0.29879583303501123
-4.0774999999999997,0.68630505166367117,0.24581264100912584
-4.077,0.78233662538272752,0.20342608738849466
-4.0765000000000002,0.72898575109436281,0.26700591781944139
-4.0759999999999996,0.64362435223280456,0.38356894027642779
-4.0754999999999999,0.59027347794443985,0.47893868592284788
-4.0750000000000002,0.64362435223285308,0.055073149716150585
-4.0744999999999996,0.37686998079015632,-0.83504447631855949
-4.0739999999999998,-0.31669138495858457,-1.5450192494641319
-4.0735000000000001,-1.1062843244271001,-1.9688847856708289
-4.0730000000000004,-1.8958772638948975,-2.1808175537739851
-4.0724999999999998,-2.3760351324913342,-2.0748511697225034
-4.0720000000000001,-1.8105158650341544,-1.2377167357142764
-4.0715000000000003,-0.9355615267049735,-0.23103608722428559
-4.0709999999999997,-0.20998963638134086,0.54251851635427661
-4.0705,0.24882788249859539,1.0087706061812196
-4.0700000000000003,0.48357172936740001,1.2101067358792175
-4.0694999999999997,0.55826295337138243,1.231300012689668
-4.069,0.54759277851370936,1.1571235438535634
-4.0685000000000002,0.51558225394066137,1.0511571598018894
-4.0679999999999996,0.47290155450988236,0.93459413734495111
-4.0674999999999999,0.41955068022151765,0.82862775329337313
-4.0670000000000002,0.30217875678700862,0.73325800764686633
-4.0664999999999996,-0.18864928666696545,0.25640927941361857
-4.0659999999999998,-0.81818960326966872,-0.52774196256805828
-4.0655000000000001,-1.2449965975769743,-1.1635402668781043
-4.0650000000000004,-0.91422117698911332,-0.90922094515431717
-4.0644999999999998,-0.31669138495858457,-0.34759910968021185
-4.0640000000000001,-0.38071243410468042,-0.57012851618872795
-4.0635000000000003,-0.13529841237820289,-0.44296885532683439
-4.0629999999999997,0.099445434491164594,-0.24163272562838334
-4.0625,0.23815770764091276,-0.072086511145858609
-4.0620000000000003,0.45156120479437145,0.17163617217277066
-4.0614999999999997,0.56893312822908426,0.30939247144017862
-4.0609999999999999,0.57960330308675734,0.31998910984533641
-4.0605000000000002,0.65429452709053582,0.36237566346600614
-4.0599999999999996,0.64362435223281422,0.37297230187119285
-4.0594999999999999,0.60094365280212259,0.39416557868150842
-4.0590000000000002,0.55826295337139209,0.43655213230217815
-4.0585000000000004,0.57960330308673791,0.15044289536291772
-4.0579999999999998,0.54759277851370936,-0.71848145386107198
-4.0575000000000001,0.024754210487259936,-1.5450192494641319
-4.0570000000000004,-0.67947733011915379,-2.0748511697220215
-4.0564999999999998,-1.5651018433074537,-2.3715570450671914
-4.056,-2.23732285934146,-2.3715570450671914
-4.0555000000000003,-1.9492281381842909,-1.5980024414906722
-4.0549999999999997,-1.1276246741417666,-0.51714532416209091
-4.0545,-0.35937208438931517,0.36237566346600614
-4.0540000000000003,0.16346648363665878,0.91340086053421154
-4.0534999999999997,0.44089102993697998,1.1677201822587886
-4.0529999999999999,0.54759277851370936,1.2313000126897355
-4.0525000000000002,0.55826295337139209,1.1889134590690658
-4.0519999999999996,0.53692260365596844,1.0935437134224628
-4.0514999999999999,0.47290155450993088,0.98757732937088472
-4.0510000000000002,0.40888050536383502,0.89220758372437781
-4.0505000000000004,0.3448594562177974,0.79683783807795761
-4.0499999999999998,-0.092617712947249131,0.46834204751768049
-4.0495000000000001,-0.73282820440820751,-0.2310360872233701
-4.0490000000000004,-1.1169544992844331,-0.95160749877410011
-4.0484999999999998,-0.85020012784179477,-0.85623775312733308
-4.048,0.16346648363713429,0.15044289536265748
-4.0475000000000003,0.85702784938587517,0.75445128445665177
-4.0469999999999997,0.92104889853204863,0.65908153881008702
-4.0465,0.31284893164469124,-0.0085066807148540119
-4.0460000000000003,0.21681735792563483,-0.14626297998190535
-4.0454999999999997,0.18480683335254808,-0.17805289519745582
-4.0449999999999999,0.23815770764091276,-0.093279787956193475
-4.0445000000000002,0.45156120479456557,0.11865298014715518
-4.0439999999999996,0.75032610080970863,0.065669788121318018
-4.0434999999999999,0.78233662538272752,0.065669788121318018
-4.0430000000000001,0.70764540137894905,0.19282944898332721
-4.0425000000000004,0.61161382765989247,0.37297230187100971
-4.0419999999999998,0.55826295337139209,0.41535885549184332
-4.0415000000000001,0.44089102993688295,-0.2310360872233701
-4.0410000000000004,-0.17797911180814735,-1.0999604364463094
-4.0404999999999998,-0.98891240099326072,-1.7145654639471095
-4.04,-1.7251544661726932,-2.043061254507001
-4.0395000000000003,-2.4080456570637612,-2.1490276385585791
-4.0389999999999997,-2.269333383913712,-1.6721789103252156
-4.0385,-1.3943790455845313,-0.65490162343006741
-4.0380000000000003,-0.54076505697069643,0.28819919462897636
-4.0374999999999996,0.067434909918301048,0.92399749894015948
-4.0369999999999999,0.40888050536383502,1.2313000126897355
-4.0365000000000002,0.54759277851370936,1.3160731199310751
-4.0359999999999996,0.56893312822904551,1.2524932894999645
-4.0354999999999999,0.53692260365602662,1.1359302670432285
-4.0350000000000001,0.4835717293676135,0.98757732937088472
-4.0345000000000004,0.43022085507924884,0.84982103010383336
-4.0339999999999998,0.38754015564846972,0.73325800764686633
-4.0335000000000001,0.13145595906408636,0.53192187794868506
-4.0330000000000004,-0.57277558154232755,-0.082683149550467072
-4.0324999999999998,-1.0849439747119678,-0.84564111472336068
-4.032,-1.3410281712961183,-1.1529436284729369
-4.0315000000000003,-0.89288082727385476,-0.7396747306717828
-4.0309999999999997,-0.17797911180822501,-0.27342264084374107
-4.0305,0.35552963107542179,0.055073149716150585
-4.0300000000000002,0.17413665849498189,-0.17805289519732087
-4.0294999999999996,0.056764735060414608,-0.29461591765425904
-4.0289999999999999,0.17413665849481691,-0.1674562567923655
-4.0285000000000002,0.27016823221396069,-0.04029659593035631
-4.0279999999999996,0.44089102993726142,0.15044289536259967
-4.0274999999999999,0.857027849386506,0.086863064931652884
-4.0270000000000001,1.1344523956862547,-0.24163272562853755
-4.0265000000000004,1.0597611716825441,-0.16745625679243298
-4.0259999999999998,0.88903837395955376,0.076266426526485451
-4.0255000000000001,0.73965592595199681,0.29879583303500157
-4.0250000000000004,0.73965592595199681,-0.040296595930047863
-4.0244999999999997,0.4195506802207995,-0.78206128429264521
-4.024,-0.3700422592469978,-1.4072629501969551
-4.0235000000000003,-1.3623685210105809,-1.8735150400238982
-4.0229999999999997,-2.2373228593417607,-2.1278343617481958
-4.0225,-2.5680982799296221,-1.9688847856708289
-4.0220000000000002,-1.7358246410311329,-1.0681705212324166
-4.0214999999999996,-0.81818960326901857,-0.10387642636071519
-4.0209999999999999,-0.10328788780493176,0.60609834678485708
-4.0205000000000002,0.32351910650237387,0.99817396777605205
-4.0199999999999996,0.51558225394071955,1.1465269054483864
-4.0194999999999999,0.57960330308675734,1.1359302670432285
-4.0190000000000001,0.55826295337139209,1.0511571598018894
-4.0185000000000004,0.51558225394070023,0.93459413734515351
-4.0179999999999998,0.45156120479456557,0.81803111488820579
-4.0175000000000001,0.40888050536383502,0.71206473083653143
-4.0170000000000003,0.29150858192943274,0.58490506997463787
-4.0164999999999997,-0.30602121010150363,0.04447651131029888
-4.016,-0.96757205127722568,-0.70788481545590454
-4.0155000000000003,-1.3196878215804326,-1.2483133741189518
-4.0149999999999997,-1.1276246741423295,-1.0575738828263141
-4.0145,-0.97824222613490841,-0.9304142219644207
-4.0140000000000002,-0.40205278382056975,-0.42177557851684655
-4.0134999999999996,0.088775259633627507,-0.029699957524996125
-4.0129999999999999,0.38754015564846972,0.18223281057815977
-4.0125000000000002,0.6116138276598051,0.35177902506083869
-4.0119999999999996,0.68630505166352562,0.39416557868145058
-4.0114999999999998,0.62228400251748783,0.33058574825050385
-4.0110000000000001,0.67563487680590106,0.24581264100916439
-4.0105000000000004,0.82501732481332213,0.12924961855242861
-4.0099999999999998,0.78233662538272752,0.17163617217299235
-4.0095000000000001,0.6863050516635838,0.29879583303500157
-4.0090000000000003,0.60094365280220019,0.44714877070721071
-4.0084999999999997,0.69697522652172239,0.48953532432765873
-4.008,1.1984734448323504,0.097459703336820316
-4.0075000000000003,0.95305942310587288,-0.65490162342938318
-4.0069999999999997,0.05676473505928889,-1.2801032893353119
-4.0065,-1.0636036249963696,-1.6827755487313083
-4.0060000000000002,-1.8958772638956156,-1.84172512480882
-4.0054999999999996,-1.7358246410297258,-1.2695066509289301
-4.0049999999999999,-1.0209229255656389,-0.33700247127504446
-4.0045000000000002,-0.32736155981626724,0.45774540911251305
-4.0039999999999996,0.15279630877970396,0.95578741415559443
-4.0034999999999998,0.43022085507920033,1.1889134590690658
-4.0030000000000001,0.53692260365602662,1.2313000126897355
-4.0025000000000004,0.5475927785136997,1.1783168206639465
-4.0019999999999998,0.51558225394066137,1.0723504366122243
-4.0015000000000001,0.43022085507920033,0.95578741415538238
-4.0010000000000003,0.3661998059331627,0.84982103010380439
-4.0004999999999997,0.29150858192890872,0.75445128445680598
-4,-0.16730893695102761,0.31998910984533641
-3.9994999999999998,-0.73282820440820751,-0.4641621321370536
-3.9990000000000001,-1.0849439747117349,-1.131750351662602
-3.9984999999999999,-0.90355100213112993,-1.0469772444212624
-3.9980000000000002,-0.78617907869662074,-1.0469772444212624
-3.9975000000000001,-0.28468086038553664,-0.64430498502489997
-3.9969999999999999,0.16346648363713429,-0.24163272562853755
-3.9965000000000002,0.40888050536383502,0.012686596095480854
-3.996,0.6116138276598051,0.19282944898332721
-3.9954999999999998,0.6863050516635838,0.26700591781949923
-3.9950000000000001,0.6116138276598051,0.20342608738849466
-3.9944999999999999,0.57960330308675734,0.20342608738849466
-3.9940000000000002,0.62228400251748783,0.30939247144016896
-3.9935,0.62228400251748783,0.38356894027634103
-3.9929999999999999,0.60094365280212259,0.45774540911251305
-3.9925000000000002,0.5689331282290746,0.54251851635385251
-3.992,0.6116138276598051,0.58490506997452218
-3.9914999999999998,1.0704313465401587,0.27760255622466667
-3.9910000000000001,1.1557927454016199,-0.49595204735255594
-3.9904999999999999,0.23815770764091276,-1.1953301820936066
-3.9900000000000002,-0.96757205127722568,-1.6297923567054711
-3.9895,-1.9598983130417114,-1.8099352095933177
-3.9889999999999999,-2.0772702364762203,-1.4496495038176249
-3.9885000000000002,-1.3623685210114835,-0.51714532416289083
-3.988,-0.57277558154296804,0.37297230187117358
-3.9874999999999998,0.014084035629577295,0.97698069096571727
-3.9870000000000001,0.36619980593310447,1.2736865663104053
-3.9864999999999999,0.51558225394066137,1.3478630351465775
-3.9860000000000002,0.55826295337139209,1.2842832047155728
-3.9855,0.52625242879834411,1.146526905448396
-3.9849999999999999,0.47290155450993088,0.98757732937088472
-3.9845000000000002,0.44089102993688295,0.82862775329337313
-3.984,0.3982103305061524,0.70146809243136399
-3.9834999999999998,0.035424385344942577,0.42595549389701071
-3.9830000000000001,-0.64746680554674652,-0.29461591765437467
-3.9824999999999999,-1.1703053735731959,-1.0257839676109275
-3.9820000000000002,-1.2556667724346571,-1.2801032893349458
-3.9815,-0.59411593125833329,-0.5807251545938954
-3.9809999999999999,-0.27401068552785401,-0.33700247127504446
-3.9805000000000001,-0.17797911180871023,-0.31580919446470956
-3.98,0.14212613392176898,-0.072086511145858609
-3.9794999999999998,0.28083840707164331,-0.029699957525188878
-3.9790000000000001,0.43022085507920033,0.044476511310983152
-3.9784999999999999,0.5689331282290746,0.13984625695749003
-3.9780000000000002,0.57960330308675734,0.12924961855232261
-3.9775,0.71831557623663156,0.0020899576903134209
-3.9769999999999999,0.77166645052504479,-0.04029659593035631
-3.9765000000000001,0.70764540137894905,0.033879872905815719
-3.976,0.63295417737517057,0.16103953376782493
-3.9754999999999998,0.57960330308675734,0.31998910984533641
-3.9750000000000001,0.86769802424418851,0.6590815388106942
-3.9744999999999999,1.5292488654205123,1.0617537982070568
-3.9740000000000002,1.3158453682668594,0.47893868592284788
-3.9735,0.11011560934872107,-0.53833860097322561
-3.9729999999999999,-1.2129860730039266,-1.3542797581711179
-3.9725000000000001,-1.8211860398918371,-1.6191957183003036
-3.972,-1.437059745015262,-0.96220413717992292
-3.9714999999999998,-0.73282820440820751,-0.061489872740691176
-3.9710000000000001,-0.12462823752029703,0.66967817721586165
-3.9704999999999999,0.25949805735627807,1.1359302670432285
-3.9700000000000002,0.4622313796522482,1.3690563119569124
-3.9695,0.53692260365602662,1.4432327807930845
-3.9689999999999999,0.53692260365602662,1.4114428655775821
-3.9685000000000001,0.49424190422529612,1.33726639674141
-3.968,0.43022085507920033,1.241896651094903
-3.9674999999999998,0.36619980593310447,1.1571235438535634
-3.9670000000000001,0.27016823221396069,0.92399749893988004
-3.9664999999999999,-0.24200016095480609,0.18223281057815977
-3.9660000000000002,-0.74349837926589024,-0.67609490024040231
-3.9655,-0.98891240099259115,-1.1847335436884392
-3.9649999999999999,-0.44473348325077627,-0.70788481545590454
-3.9645000000000001,0.22748753278323011,-0.17805289519753292
-3.964,0.13145595906408636,-0.36879238649054674
-3.9634999999999998,0.25949805735627807,-0.2310360872233701
-3.9630000000000001,0.36619980593310447,-0.12506970317169577
-3.9624999999999999,0.41955068022151765,-0.072086511145858609
-3.9620000000000002,0.54759277851370936,0.055073149716150585
-3.9615,0.5689331282290746,0.086863064931652884
-3.9609999999999999,0.63295417737517057,0.076266426526485451
-3.9605000000000001,0.70764540137894905,0.11865298014715518
-3.96,0.6863050516635838,0.17163617217299235
-3.9594999999999998,0.63295417737517057,0.23521600260399694
-3.9590000000000001,0.57960330308675734,0.29879583303500157
-3.9584999999999999,0.78233662538272752,-0.029699957525188878
-3.9580000000000002,1.1237822208285719,-0.83504447631791379
-3.9575,0.38754015564846972,-1.5874058030848013
-3.9569999999999999,-0.76483872898125549,-2.0748511697225034
-3.9565000000000001,-1.7891755153187892,-2.265590661015517
-3.956,-2.4613965313527957,-2.1172377233431732
-3.9554999999999998,-1.9492281381840288,-1.2589100125246109
-3.9550000000000001,-1.0422632752810042,-0.20984281041303524
-3.9544999999999999,-0.28468086038553664,0.63788826200035942
-3.9540000000000002,0.20614718306786484,1.1571235438535634
-3.9535,0.4622313796522482,1.3902495887672472
-3.9529999999999998,0.54759277851370936,1.4538294191982519
-3.9525000000000001,0.54759277851370936,1.3902495887672472
-3.952,0.50491207908297886,1.2842832047155728
-3.9514999999999998,0.43022085507920033,1.1677201822587309
-3.9510000000000001,0.36619980593310447,1.0511571598018894
-3.9504999999999999,0.27016823221396069,0.90280422212954525
-3.9500000000000002,-0.27401068552785401,0.31998910984533641
-3.9495,-0.8928808272734472,-0.52774196256805828
-3.9489999999999998,-1.67180359188428,-1.6403889951106385
-3.9485000000000001,-1.46907026958831,-1.6615822719209734
-3.948,-0.65813698040442903,-0.99399405239542526
-3.9474999999999998,0.0034138607718946501,-0.4535654937318862
-3.9470000000000001,0.50491207908297886,-0.019103319120021445
-3.9464999999999999,0.6863050516635838,0.19282944898332721
-3.9460000000000002,0.67563487680590106,0.20342608738849466
-3.9455,0.62228400251748783,0.16103953376782493
-3.9449999999999998,0.5689331282290746,0.11865298014715518
-3.9445000000000001,0.60094365280212259,0.076266426526485451
-3.944,0.79300680024041004,-0.050893234335523743
-3.9434999999999998,0.81434714995577528,-0.029699957525188878
-3.9430000000000001,0.73965592595199681,0.055073149716150585
-3.9424999999999999,0.64362435223285308,0.17163617217299235
-3.9420000000000002,0.65429452709053582,0.2246193641988295
-3.9415,1.2091436196900331,-0.18864953360270037
-3.9409999999999998,1.4332172917013686,-0.91981758355925325
-3.9405000000000001,0.6116138276598051,-1.5132293342486296
-3.9399999999999999,-0.58344575640065055,-1.8841116784294898
-3.9394999999999998,-1.586442193022819,-1.9900780624811638
-3.9390000000000001,-1.7358246410303759,-1.4496495038176249
-3.9384999999999999,-1.1382948490001481,-0.4641621321370536
-3.9380000000000002,-0.4554036581084589,0.40476221708667587
-3.9375,0.05676473506030786,0.98757732937088472
-3.9369999999999998,0.35552963107542179,1.2842832047155728
-3.9365000000000001,0.4835717293676135,1.3796529503620798
-3.9359999999999999,0.52625242879834411,1.3584596735517449
-3.9355000000000002,0.50491207908297886,1.2736865663104053
-3.9350000000000001,0.45156120479456557,1.1677201822587309
-3.9344999999999999,0.3982103305061524,1.0617537982070568
-3.9340000000000002,0.21681735792554749,0.9134008605347127
-3.9335,-0.88221065241576446,0.40476221708667587
-3.9329999999999998,-1.7358246410303759,0.033879872905815719
-3.9325000000000001,-2.1946421599107295,-0.88802766834375091
-3.9319999999999999,-2.2586632090568255,-1.6297923567054711
-3.9315000000000002,-1.3623685210114835,-1.227120097309109
-3.931,-0.31669138495858457,-0.54893523937839306
-3.9304999999999999,0.33418928136005654,-0.072086511145858609
-3.9300000000000002,0.62228400251748783,0.18223281057815977
-3.9295,0.69697522652126631,0.25640927941433178
-3.9289999999999998,0.67563487680590106,0.25640927941433178
-3.9285000000000001,0.62228400251748783,0.2246193641988295
-3.9279999999999999,0.60094365280212259,0.21402272579366208
