Class_7_Listen_To_Music/Class_7_Listen_To_Music_Basim_9.csv

#Digilent WaveForms Oscilloscope Acquisition
#Device Name: EExplorer
#Serial Number: SN:210151A2B84A
#Date Time: 2021-01-24 16:24:05.475
#Sample rate: 2000Hz
#Samples: 16384
#Trigger: Source: Channel 1 Type: Edge Condition: Rising Level: 0 V Hyst.: Auto HoldOff: 0 s
#Channel 1: Range: 1 V/div Offset: 0 V Attenuation: 1 X
#Channel 2: Range: 1 V/div Offset: 0 V Attenuation: 1 X
#Power Supplies: ON
#Fixed Supply: ON
#Voltage: 3.3 V Readback: 3.317 V
#Positive Supply: ON
#Voltage: 3.7 V Readback: 3.717 V
#Current: 40 mA Readback: 21 mA
#Negative Supply: ON
#Voltage: -3.7 V Readback: -3.348 V
#Current: -40 mA Readback: 0 A
#Reference 1: ON
#Voltage: 0 V
#Reference 2: ON
#Voltage: 0 V

Time (s),Channel 1 (V),Channel 2 (V)
-4.096,0.1314559590640864,0.4365521323021782
-4.0955,0.2061471830677969,-0.008506680714449211
-4.095,0.2061471830676416,-0.6866915386461191
-4.0945,-0.03926683865883591,-1.290699927740113
-4.094,-0.2099896363816029,-1.375473034981376
-4.0935,0.06743490991826223,-0.7608680074814334
-4.093,0.3661998059331045,-0.4217755785163839
-4.0925,0.5262524287981986,-0.1674562567925968
-4.092,0.5049120790828915,0.02328323450071575
-4.0915,0.408880505363835,0.09745970333682032
-4.091,0.291508581929326,0.1186529801471552
-4.0905,0.2168173579256057,0.1292496185524672
-4.09,0.2808384070716433,0.2881991946298341
-4.0895,0.3128489316446912,0.3623756634660061
-4.089,0.2594980573563266,0.3623756634660061
-4.0885,0.1954770082101822,0.3517790250608387
-4.088,0.142126133921769,0.3623756634660061
-4.0875,0.05676473506038548,0.4471487707072685
-4.087,-0.4233931335359739,0.3305857482499449
-4.0865,-1.042263275281004,-0.2840192792492073
-4.086,-1.479740444445595,-0.8986243067483592
-4.0855,-1.821186039891546,-1.280103289334657
-4.085,-1.501080794161358,-0.9622041371799229
-4.0845,-0.9035510021316734,-0.2840192792498241
-4.084,-0.4020527838197449,0.3199891098457219
-4.0835,-0.07127736323188383,0.7438546460520338
-4.083,0.1101156093487211,0.9663840525605498
-4.0825,0.1741366584948266,1.040560521396722
-4.082,0.1848068333524996,1.040560521396722
-4.0815,0.1634664836371343,0.9875773293708847
-4.081,0.1421261339217884,0.8922075837244645
-4.0805,0.1207857842064037,0.7544512844572011
-4.08,0.1101156093487211,0.6166949851900245
-4.0795,0.120785784206394,0.4683420475178154
-4.079,0.302178756787455,0.15044289536206
-4.0785,0.79300680024041,-0.5065486857577234
-4.078,0.6009436528022973,-1.131750351662033
-4.0775,-0.07127736323200028,-1.65098563351597
-4.077,-0.1993194615240755,-1.831128486403653
-4.0765,0.05676473506007496,-1.301296566145763
-4.076,0.2701682322140384,-0.6549016234296241
-4.0755,0.3555296310754218,-0.1674562567923655
-4.075,0.3768699807907871,0.1080563417419877
-4.0745,0.3448594562176712,0.2352160026039969
-4.074,0.2701682322139607,0.2352160026039969
-4.0735,0.3448594562177392,0.3411823866556712
-4.073,0.4942419042251602,0.5319218779485115
-4.0725,0.4515612047945656,0.4789386859228479
-4.072,0.3341892813600565,0.3623756634660061
-4.0715,0.2274875327833272,0.2670059178195859
-4.071,0.1314559590637952,0.2458126410093186
-4.0705,-0.1886492866663929,0.4153588554918433
-4.07,-0.8288597781267691,0.3623756634660543
-4.0695,-1.223656247861764,-0.1780528951981016
-4.069,-1.394379045584531,-0.8032545611024114
-4.0685,-1.319687821580753,-0.9728007755850904
-4.068,-0.8822106524153569,-0.5489352393778919
-4.0675,-0.4340633083930936,0.002089957690313421
-4.067,-0.1139580626626144,0.4471487707073456
-4.0665,0.07810508477574107,0.7438546460521783
-4.066,0.1527963087794516,0.9028042221295453
-4.0655,0.1741366584948169,0.9663840525605498
-4.065,0.163466483637144,0.9769806909657076
-4.0645,0.142126133921769,0.9451907757502149
-4.064,0.1207857842064037,0.8710143069140429
-4.0635,0.1101156093487308,0.7544512844573071
-4.063,0.1207857842064231,0.6484849004053727
-4.0625,0.142126133921769,0.4789386859228479
-4.062,0.3661998059329007,-0.07208651114535741
-4.0615,1.038420821967547,-0.7820612842926066
-4.061,1.51857869056283,-1.364876396576285
-4.0605,1.497238340847464,-1.163540266878104
-4.06,1.315845368266617,-0.6549016234296819
-4.0595,1.049090996824793,-0.2310360872233701
-4.059,0.7503261008096795,0.05507314971615059
-4.0585,0.504912079083202,0.1716361721728863
-4.058,0.3128489316446912,0.1716361721729923
-4.0575,0.1954770082101822,0.1186529801471552
-4.057,0.1527963087794905,0.1186529801471552
-4.0565,0.2488278824985954,0.309392471440169
-4.056,0.2594980573562781,0.3517790250608387
-4.0555,0.2274875327832592,0.3199891098453653
-4.055,0.1741366584947781,0.2987958330350112
-4.0545,0.1314559590640864,0.309392471440169
-4.054,-0.0285966638010077,0.4895353243278515
-4.0535,-0.5621054066857608,0.9875773293707883
-4.053,-1.084943974711735,0.8816109453192104
-4.0525,-1.51175096901904,0.08686306493165288
-4.052,-1.789175515318411,-0.6337083466197229
-4.0515,-1.373038695869166,-0.6231117082145651
-4.051,-0.7968492535543035,-0.1886495336027004
-4.0505,-0.3273615598166942,0.2881991946294004
-4.05,-0.02859666380115328,0.6590815388106942
-4.0495,0.1207857842064037,0.9134008605347127
-4.049,0.1741366584947684,1.051157159801764
-4.0485,0.1741366584947975,1.114736990232913
-4.048,0.1527963087794516,1.135930267043229
-4.0475,0.1314559590641058,1.08294707501744
-4.047,0.120785784206394,0.9981739677759557
-4.0465,0.1101156093487211,0.8922075837243778
-4.046,0.131455959064067,0.7332580076470109
-4.0455,0.355529631075742,0.2458126410084801
-4.045,0.707645401378949,-0.5065486857577234
-4.0445,0.5475927785137094,-1.0999604364471
-4.044,0.2061471830680686,-1.205926820498533
-4.0435,0.4302208550792003,-0.9410108603695881
-4.043,0.6329541773751706,-0.8244478379127463
-4.0425,0.6542945270905164,-0.5913217929992749
-4.042,0.5582629533713921,-0.3581957480853793
-4.0415,0.3982103305061524,-0.1568596183871981
-4.041,0.2701682322140772,-0.04029659593046232
-4.0405,0.1848068333526063,0.03387987290602774
-4.04,0.3021787567870086,0.2670059178194992
-4.0395,0.3768699807907192,0.3941655786813928
-4.039,0.3235191065022962,0.3517790250607712
-4.0385,0.2381577076409128,0.2776025562246667
-4.038,0.1634664836372022,0.2246193641988777
-4.0375,0.07810508477526555,0.2564092794144185
-4.037,-0.3700422592469978,0.3517790250608387
-4.0365,-0.8822106524157645,-0.1144730647665284
-4.036,-1.319687821581083,-0.7608680074822044
-4.0355,-1.682473766741963,-1.269506650929778
-4.035,-1.51175096901904,-1.131750351662602
-4.0345,-0.9675720512777206,-0.506548685758292
-4.034,-0.4660738329661415,0.1080563417419877
-4.0335,-0.1139580626626144,0.5637117931641874
-4.033,0.07810508477549846,0.83922439169829
-4.0325,0.163466483637144,0.9663840525605883
-4.032,0.1741366584948169,1.00877060618122
-4.0315,0.163466483637144,0.9981739677760617
-4.031,0.131455959064067,0.9345941373449608
-4.0305,0.1101156093487211,0.8392243916985406
-4.03,0.1101156093487211,0.7226613692418049
-4.0295,0.1101156093487308,0.5743084315691813
-4.029,0.1207857842064037,0.383568940276341
-4.0285,0.2808384070716433,-0.1462629799820306
-4.028,0.3875401556481495,-0.8138511995081186
-4.0275,0.03542438534494258,-1.407262950196955
-4.027,0.05676473506030786,-1.852321763213987
-4.0265,0.3128489316444583,-1.69337218713662
-4.026,0.4622313796522482,-1.025783967610927
-4.0255,0.5155822539406614,-0.474758770542221
-4.025,0.4622313796522967,-0.09327978795654041
-4.0245,0.3555296310753345,0.1080563417420649
-4.024,0.2594980573562781,0.1928294489833272
-4.0235,0.3021787567869698,0.3305857482503786
-4.023,0.4195506802214788,0.468342047517642
-4.0225,0.3768699807907871,0.4259554938970107
-4.022,0.2808384070717307,0.309392471440275
-4.0215,0.1954770082101143,0.2246193641988102
-4.021,0.1207857842064037,0.2034260873884947
-4.0205,-0.2099896363817582,0.5107286011383502
-4.02,-0.8822106524164244,1.104140351827688
-4.0195,-1.607782542738184,1.061753798207057
-4.019,-2.23732285934146,0.2458126410091644
-4.0185,-2.119950935907057,-0.3475991096796722
-4.018,-1.30901764672307,-0.2946159176543747
-4.0175,-0.6474668055467465,0.02328323450064829
-4.017,-0.1886492866668102,0.3623756634656977
-4.0165,0.06743490991808755,0.6484849004057004
-4.016,0.1741366584948169,0.8392243916985406
-4.0155,0.1954770082101628,0.9557874141552763
-4.015,0.1741366584947975,1.019367244586397
-4.0145,0.1527963087794516,1.029963882991555
-4.014,0.1314559590641058,0.9875773293709232
-4.0135,0.1101156093487211,0.9028042221294585
-4.013,0.1101156093487211,0.8074344764830383
-4.0125,0.1314559590640864,0.6166949851900245
-4.012,0.1634664836370275,0.05507314971548559
-4.0115,0.04609456020262521,-0.6760949002404023
-4.011,-0.3593720843893152,-1.258910012524611
-4.0105,-0.2313299860972399,-1.343683119765873
-4.01,0.1954770082101822,-1.195330182093607
-4.0095,0.4515612047945656,-0.7078848154559045
-4.009,0.5049120790829303,-0.2840192792495928
-4.0085,0.46223137965219,-0.04029659593021175
-4.008,0.3982103305061524,0.1186529801471552
-4.0075,0.3021787567870959,0.1504428953626286
-4.007,0.2594980573563751,0.1292496185524575
-4.0065,0.3661998059331045,0.2776025562246667
-4.006,0.3555296310754218,0.2881991946298341
-4.0055,0.2808384070715657,0.2458126410091258
-4.005,0.1954770082101822,0.2034260873884947
-4.0045,0.142126133921769,0.1928294489833272
-4.004,-0.03926683865939878,0.3411823866558255
-4.0035,-0.658136980404429,0.5107286011383502
-4.003,-1.373038695869166,0.03387987290581572
-4.0025,-2.00257901247187,-0.6443049850242831
-4.002,-2.226652684483777,-1.01518732920576
-4.0015,-1.522421143876723,-0.6760949002404023
-4.001,-0.8181896032703092,-0.07208651114640796
-4.0005,-0.2953510352429379,0.4683420475180178
-4,0.01408403562957729,0.8392243916985406
-3.9995,0.1527963087794516,1.040560521396722
-3.999,0.1954770082101822,1.125333628638062
-3.9985,0.1848068333524996,1.135930267043229
-3.998,0.1634664836371343,1.093543713422559
-3.9975,0.142126133921769,1.00877060618122
-3.997,0.1207857842064037,0.8816109453192104
-3.9965,0.1207857842064037,0.7544512844572011
-3.996,0.142126133921769,0.5319218779486851
-3.9955,0.1741366584948169,0.3941655786815084
-3.995,0.142126133921769,0.2564092794143318
-3.9945,-0.1779791118087102,-0.3581957480853793
-3.994,-0.5514352318276028,-1.01518732920576
-3.9935,-0.391382608962363,-1.439052865412457
-3.993,-0.01792648894347063,-1.269506650929778
-3.9925,0.2274875327832301,-0.8032545611024114
-3.992,0.3448594562177392,-0.4111789401112165
-3.9915,0.3555296310754218,-0.1780528951975329
-3.991,0.3021787567870086,-0.06148987274069118
-3.9905,0.2488278824985954,0.002089957690313421
-3.99,0.3555296310754218,0.2352160026039969
-3.9895,0.3982103305061524,0.3411823866556712
-3.989,0.3341892813600565,0.3199891098453364
-3.9885,0.2381577076409128,0.2564092794143318
-3.988,0.1741366584948169,0.2034260873884947
-3.9875,0.1101156093487211,0.2246193641988295
-3.987,-0.1886492866663929,0.5637117931641874
-3.9865,-0.8181896032696687,0.8710143069140429
-3.986,-1.277007122150022,0.3305857482505039
-3.9855,-1.597112367880501,-0.4535654937318862
-3.985,-1.394379045584531,-0.6760949002404023
-3.9845,-0.8822106524157645,-0.3475991096802118
-3.984,-0.4020527838200457,0.09745970333682032
-3.9835,-0.08194753808956648,0.4895353243280153
-3.983,0.09944543449103843,0.7544512844572011
-3.9825,0.1741366584948169,0.92399749893988
-3.982,0.1848068333524996,1.00877060618122
-3.9815,0.1634664836371343,1.040560521396722
-3.981,0.142126133921769,1.00877060618122
-3.9805,0.1207857842064037,0.9345941373450475
-3.98,0.1207857842064037,0.8286277532933731
-3.9795,0.1207857842064037,0.7120647308365314
-3.979,0.09944543449103843,0.5213252395435176
-3.9785,-0.2206598112394408,-0.07208651114585861
-3.978,-0.5834457564006506,-0.7608680074817418
-3.9775,-0.7861790786966207,-1.375473034981453
-3.977,-0.4127229586777283,-1.788741932782983
-3.9765,0.07810508477567314,-1.42845622700729
-3.976,0.3661998059331045,-0.8774310299385835
-3.9755,0.4515612047945656,-0.4853554089473885
-3.975,0.4195506802215176,-0.252229364033705
-3.9745,0.3555296310754218,-0.1038764263613609
-3.974,0.2701682322139607,-0.008506680714854012
-3.9735,0.3128489316446912,0.1504428953626575
-3.973,0.4195506802215176,0.3411823866556712
-3.9725,0.3661998059331045,0.3199891098453364
-3.972,0.2808384070716433,0.2564092794143318
-3.9715,0.2061471830678648,0.1928294489833272
-3.971,0.142126133921769,0.1928294489833272
-3.9705,-0.1993194615240755,0.3411823866556712
-3.97,-0.8822106524157645,0.04447651131098315
-3.9695,-1.405049220442214,-0.5913217929990628
-3.969,-1.778505340461106,-1.184733543688439
-3.9685,-1.629122892453549,-1.216523458903942
-3.968,-1.042263275281004,-0.6443049850249
-3.9675,-0.4980843575391895,-0.01910331912002144
-3.967,-0.124628237520297,0.4683420475176805
-3.9665,0.08877525963335578,0.7650479228623686
-3.966,0.1741366584948169,0.92399749893988
-3.9655,0.1954770082101822,0.9875773293708847
-3.965,0.1848068333524996,0.9875773293708847
-3.9645,0.1527963087794516,0.9451907757502149
-3.964,0.1314559590640864,0.849821030103708
-3.9635,0.1207857842064037,0.7332580076468663
-3.963,0.1314559590640864,0.6060983467848571
-3.9625,0.1527963087794516,0.4153588554918433
-3.962,0.2488278824985954,-0.1674562567923655
-3.9615,0.03542438534494258,-0.8668343915334161
-3.961,-0.4554036581084589,-1.460246142222792
-3.9605,-0.4980843575391895,-1.248313374119443
-3.96,-0.08194753808956648,-0.8668343915334161
-3.9595,0.2594980573562781,-0.6019184314042303
-3.959,0.408880505363835,-0.3793890248957141
-3.9585,0.4302208550792003,-0.1780528951975329
-3.958,0.3661998059331045,-0.05089323433552374
-3.9575,0.2808384070716433,0.002089957690313421
-3.957,0.2594980573562781,0.07626642652648545
-3.9565,0.4408910299368829,0.3199891098453364
-3.956,0.4408910299368829,0.3623756634660061
-3.9555,0.3555296310754218,0.3199891098453364
-3.955,0.2594980573562781,0.2670059178194992
-3.9545,0.1741366584948169,0.2564092794143318
-3.954,0.02475421048725994,0.383568940276341
-3.9535,-0.5407650569699201,0.6908714540261965
-3.953,-1.138294849000148,0.309392471440169
-3.9525,-1.639793067311232,-0.326405832869877
-3.952,-1.917217613610981,-0.1992461720078678
-3.9515,-1.437059745015262,0.1080563417419877
-3.951,-0.807519428411986,0.309392471440169
-3.9505,-0.3166913849585846,0.4471487707073456
-3.95,-0.007256314085787988,0.5425185163538525
-3.9495,0.142126133921769,0.6166949851900245
-3.949,0.1954770082101822,0.6908714540261965
-3.9485,0.1954770082101822,0.7544512844572011
-3.948,0.1741366584948169,0.8074344764830383
-3.9475,0.1527963087794516,0.8286277532933731
-3.947,0.142126133921769,0.8074344764830383
-3.9465,0.1314559590640864,0.7650479228623686
-3.946,0.1527963087794516,0.6484849004055269
-3.9455,0.1314559590640864,0.2776025562246667
-3.945,-0.1886492866663929,-0.3899856633008816
-3.9445,-0.754168554123573,-0.9939940523954253
-3.944,-0.807519428411986,-1.121153713257435
-3.9435,-0.2313299860971235,-0.5807251545938954
-3.943,0.2808384070716433,-0.3687923864905467
-3.9425,0.5262524287983441,-0.2204394488182027
-3.942,0.5369226036560266,0.002089957690313421
-3.9415,0.4515612047945656,0.1610395337678249
-3.941,0.3555296310754218,0.2140227257936621
-3.9405,0.2701682322139607,0.1928294489833272
-3.94,0.3875401556484697,0.3729723018711736
-3.9395,0.4408910299368829,0.457745409112513
-3.939,0.3661998059331045,0.383568940276341
-3.9385,0.2701682322139607,0.2881991946298341
-3.938,0.1954770082101822,0.2352160026039969
-3.9375,0.08877525963335578,0.2776025562246667
-3.937,-0.423393133535411,0.2140227257936621
-3.9365,-1.074273799854052,-0.3475991096802118
-3.936,-1.586442193022819,-0.9728007755850904
-3.9355,-1.927887788468663,-1.38606967338662
-3.935,-1.543761493592088,-1.089363798041932
-3.9345,-0.9142211769888124,-0.4111789401112165
-3.934,-0.391382608962363,0.1928294489833272
-3.9335,-0.04993701351651855,0.627291623595192
-3.933,0.1314559590640864,0.8604176685088755
-3.9325,0.1954770082101822,0.9557874141553824
-3.932,0.2061471830678648,0.9769806909657173
-3.9315,0.1848068333524996,0.9345941373450475
-3.931,0.1634664836371343,0.8604176685088755
-3.9305,0.142126133921769,0.7332580076468663
-3.93,0.1314559590640864,0.6060983467848571
-3.9295,0.1314559590640864,0.4789386859228479
-3.929,0.2488278824985954,0.1610395337678249
-3.9285,0.7183155762366316,-0.4959520473525559
-3.928,0.79300680024041,-1.110557074852267
-3.9275,0.2701682322139607,-1.629792356705471
-3.927,0.2061471830678648,-1.947691508860494
-3.9265,0.3768699807907871,-1.725162102351978
-3.926,0.4729015545099309,-1.05757388282643
-3.9255,0.4729015545099309,-0.4853554089473885
-3.925,0.3982103305061524,-0.08268314955102604
-3.9245,0.3128489316446912,0.09745970333682032
-3.924,0.2381577076409128,0.1292496185523226
-3.9235,0.2808384070716433,0.2246193641988295
-3.923,0.3661998059331045,0.3411823866556712
-3.9225,0.3235191065023739,0.2987958330350016
-3.922,0.2488278824985954,0.2246193641988295
-3.9215,0.1848068333524996,0.1928294489833272
-3.921,0.142126133921769,0.2034260873884947
-3.9205,-0.1459685872356623,0.1716361721729923
-3.92,-0.7755089038389382,-0.326405832869877
-3.9195,-1.287677297007705,-0.9410108603695881
-3.919,-1.67180359188428,-1.333086481360783
-3.9185,-1.597112367880501,-1.078767159636765
-3.918,-1.042263275281004,-0.4429688553267188
-3.9175,-0.5194247072545548,0.1610395337678249
-3.917,-0.1352984123779797,0.5955017083796896
-3.9165,0.07810508477567314,0.8392243916985406
-3.916,0.1741366584948169,0.9451907757502149
-3.9155,0.1954770082101822,0.9769806909657173
-3.915,0.1848068333524996,0.9451907757502149
-3.9145,0.1634664836371343,0.8816109453192104
-3.914,0.142126133921769,0.7862411996727035
-3.9135,0.1314559590640864,0.6696781772158616
-3.913,0.142126133921769,0.5213252395435176
-3.9125,0.1527963087794516,0.3623756634660061
-3.912,0.2168173579255475,-0.08268314955102604
-3.9115,0.3128489316446912,-0.7608680074817418
-3.911,-0.007256314085787988,-1.354279758171118
-3.9105,-0.124628237520297,-1.79933857118815
-3.91,0.142126133921769,-1.915901593644992
-3.9095,0.3875401556484697,-1.38606967338662
-3.909,0.5155822539406614,-0.7290780922662394
-3.9085,0.5155822539406614,-0.3052125560595421
-3.908,0.4302208550792003,-0.06148987274069118
-3.9075,0.3235191065023739,0.06566978812131802
-3.907,0.2701682322139607,0.1504428953626575
-3.9065,0.3341892813600565,0.2776025562246667
-3.906,0.3021787567870086,0.2670059178194992
-3.9055,0.2488278824985954,0.2352160026039969
-3.905,0.1848068333524996,0.1928294489833272
-3.9045,0.142126133921769,0.1716361721729923
-3.904,-0.02859666380115328,0.2987958330350016
-3.9035,-0.6154562809736985,0.5107286011383502
-3.903,-1.212986073003927,0.05507314971615059
-3.9025,-1.661133417026597,-0.6654982618352349
-3.902,-1.842526389607202,-1.078767159636765
-3.9015,-1.30901764672307,-0.7820612842920766
-3.901,-0.7114878546928423,-0.2204394488182027
-3.9005,-0.2526703358124887,0.2881991946298341
-3.9,0.02475421048725994,0.6378882620003594
-3.8995,0.1634664836371343,0.8392243916985406
-3.899,0.2061471830678648,0.92399749893988
-3.8985,0.1954770082101822,0.9451907757502149
-3.898,0.1741366584948169,0.9134008605347127
-3.8975,0.1527963087794516,0.8604176685088755
-3.897,0.142126133921769,0.7544512844572011
-3.8965,0.142126133921769,0.627291623595192
-3.896,0.1527963087794516,0.4789386859228479
-3.8955,0.291508581929326,0.03387987290581572
-3.895,0.5049120790829789,-0.6443049850249
-3.8945,0.2168173579255475,-1.258910012524611
-3.894,-0.1673089369510276,-1.767548655972648
-3.8935,-0.01792648894347063,-1.84172512480882
-3.893,0.2381577076409128,-1.163540266878104
-3.8925,0.3982103305061524,-0.6125150698093976
-3.892,0.4302208550792003,-0.1568596183871981
-3.8915,0.3768699807907871,0.1080563417419877
-3.891,0.3021787567870086,0.2034260873884947
-3.8905,0.2381577076409128,0.2140227257936621
-3.89,0.3555296310754218,0.3517790250608387
-3.8895,0.3982103305061524,0.383568940276341
-3.889,0.3341892813600565,0.309392471440169
-3.8885,0.2488278824985954,0.2140227257936621
-3.888,0.1848068333524996,0.1504428953626575
-3.8875,0.07810508477567314,0.2034260873884947
-3.887,-0.4127229586777283,0.5213252395435176
-3.8865,-1.1062843244271,0.2881991946298341
-3.886,-1.725154466172693,-0.400582301706049
