Class_7_Listen_To_Music/Class_7_Listen_To_Music_Basim_3.csv

#Digilent WaveForms Oscilloscope Acquisition
#Device Name: EExplorer
#Serial Number: SN:210151A2B84A
#Date Time: 2020-11-04 11:09:14.651
#Sample rate: 2000Hz
#Samples: 16384
#Trigger: Source: Channel 1 Type: Edge Condition: Rising Level: 0 V Hyst.: Auto HoldOff: 0 s
#Channel 1: Range: 1 V/div Offset: 0 V Attenuation: 1 X
#Channel 2: Range: 1 V/div Offset: 0 V Attenuation: 1 X
#Power Supplies: ON
#Fixed Supply: ON
#Voltage: 3.3 V Readback: 3.32 V
#Positive Supply: ON
#Voltage: 3.7 V Readback: 3.714 V
#Current: 500 mA Readback: 20 mA
#Negative Supply: ON
#Voltage: -3.7 V Readback: -3.704 V
#Current: -500 mA Readback: -8 mA
#Reference 1: ON
#Voltage: 0 V
#Reference 2: ON
#Voltage: 0 V

Time (s),Channel 1 (V),Channel 2 (V)
-4.096,0.2061471830678648,-1.269506650929778
-4.0955,-0.3380317346734549,-1.894708316834089
-4.095,-0.3060212101004944,-2.318573853041219
-4.0945,0.142126133921769,-2.17022091536901
-4.094,0.4515612047942841,-1.364876396577018
-4.0935,0.5475927785136803,-0.5701285161882557
-4.093,0.5155822539406614,-0.05089323433552374
-4.0925,0.4408910299369509,0.2034260873882633
-4.092,0.3555296310753733,0.3093924714401979
-4.0915,0.3021787567870086,0.3411823866556712
-4.091,0.3661998059331045,0.457745409112513
-4.0905,0.5155822539406517,0.6590815388106749
-4.09,0.5049120790829789,0.6378882620003594
-4.0895,0.4195506802215176,0.5319218779486851
-4.089,0.3341892813601341,0.4471487707074227
-4.0885,0.1314559590640864,0.5743084315693548
-4.088,-0.572775581542968,0.8710143069140429
-4.0875,-1.373038695868438,0.2458126410097331
-4.087,-1.927887788468925,-0.7184814538617273
-4.0865,-2.215982509626095,-1.439052865412457
-4.086,-1.682473766742448,-1.301296566145406
-4.0855,-0.9355615267036148,-0.5913217929984171
-4.085,-0.3166913849585846,0.1186529801471552
-4.0845,0.07810508477531408,0.6378882619998871
-4.084,0.2701682322140189,0.9557874141555173
-4.0835,0.3341892813600565,1.104140351827727
-4.083,0.3341892813600565,1.146526905448396
-4.0825,0.3021787567869795,1.104140351827601
-4.082,0.2701682322139607,0.9663840525605498
-4.0815,0.2381577076409128,0.7650479228623686
-4.081,0.2274875327832398,0.5849050699746861
-4.0805,0.2488278824985954,0.3941655786815084
-4.08,0.4408910299368829,-0.1356663415768632
-4.0795,0.782336625382417,-0.8668343915327511
-4.079,0.291508581928899,-1.555615887869637
-4.0785,-0.1779791118087102,-1.926498232050159
-4.078,0.05676473506009436,-1.96888478567079
-4.0775,0.3341892813601827,-1.439052865411869
-4.077,0.4729015545099309,-0.792657922697244
-4.0765,0.4835717293676038,-0.2734226408445121
-4.076,0.4302208550791421,0.04447651131112772
-4.0755,0.3661998059331045,0.2034260873884947
-4.075,0.3128489316446912,0.2458126410091644
-4.0745,0.3128489316448562,0.2987958330352232
-4.074,0.4942419042252961,0.5425185163538525
-4.0735,0.5262524287983441,0.5849050699745222
-4.073,0.4515612047946335,0.5107286011384177
-4.0725,0.3555296310754218,0.4471487707073456
-4.072,0.2168173579255475,0.5001319627331828
-4.0715,-0.380712434104137,0.9134008605343369
-4.071,-1.22365624786222,0.5849050699736548
-4.0705,-1.895877263895616,-0.3687923864905467
-4.07,-2.450726356494608,-1.237716735713486
-4.0695,-2.14129128562156,-1.47084278062743
-4.069,-1.30901764672307,-0.8880276683437509
-4.0685,-0.5621054066852853,-0.1250697031716958
-4.068,-0.04993701351626623,0.4895353243283815
-4.0675,0.2274875327832301,0.8922075837243778
-4.067,0.3341892813600565,1.104140351827727
-4.0665,0.3448594562177197,1.188913459069066
-4.066,0.3235191065023739,1.188913459069066
-4.0655,0.2808384070716433,1.093543713422559
-4.065,0.2488278824986245,0.9134008605348766
-4.0645,0.2381577076409128,0.7120647308365314
-4.064,0.2381577076409128,0.5107286011383502
-4.0635,0.2594980573562586,0.07626642652688059
-4.063,0.1634664836366879,-0.7290780922669237
-4.0625,-0.3273615598162672,-1.481439419033127
-4.062,-0.7221580295501659,-2.053657892911648
-4.0615,-0.2313299860966091,-2.392750321877227
-4.061,0.3341892813600565,-2.064254531317336
-4.0605,0.6009436528021226,-1.216523458903942
-4.06,0.6329541773751026,-0.4959520473521511
-4.0595,0.5582629533713921,-0.05089323433552374
-4.059,0.4408910299368829,0.1716361721729923
-4.0585,0.3555296310754994,0.2670059178194125
-4.058,0.3021787567870086,0.2881991946298341
-4.0575,0.408880505363835,0.457745409112513
-4.057,0.4835717293675456,0.563711793164091
-4.0565,0.4408910299368829,0.5001319627331828
-4.056,0.3661998059331045,0.4259554938970107
-4.0555,0.2915085819293939,0.3835689402763796
-4.055,-0.02859666380189082,0.6696781772159291
-4.0545,-0.839529952985034,0.7438546460520338
-4.054,-1.543761493591448,-0.05089323433480086
-4.0535,-1.97056848789953,-0.9728007755856012
-4.053,-2.119950935906951,-1.534422611058964
-4.0525,-1.533091318734406,-1.195330182093607
-4.052,-0.807519428411462,-0.4429688553260923
-4.0515,-0.2313299860971235,0.2458126410091644
-4.051,0.1207857842064037,0.7332580076468663
-4.0505,0.2915085819291707,1.019367244586127
-4.05,0.3341892813600565,1.146526905448396
-4.0495,0.3341892813600565,1.178316820663898
-4.049,0.3021787567870378,1.12533362863811
-4.0485,0.2701682322139413,0.966384052560386
-4.048,0.2488278824985954,0.7862411996727035
-4.0475,0.2381577076409225,0.6060983467850209
-4.047,0.270168232214116,0.2881991946291498
-4.0465,0.4408910299368829,-0.4641621321370536
-4.046,0.3875401556485182,-1.269506650929046
-4.0455,-0.338031734674076,-1.873515040024457
-4.045,-0.4767440078238243,-2.021867977696666
-4.0445,-0.1032878878049318,-1.629792356705471
-4.044,0.2488278824987507,-0.9622041371793832
-4.0435,0.4195506802215176,-0.3687923864905467
-4.043,0.4622313796522482,-0.008506680714854012
-4.0425,0.4195506802215564,0.1716361721728285
-4.042,0.3661998059331045,0.2352160026039969
-4.0415,0.3235191065023739,0.2458126410091644
-4.041,0.3768699807907386,0.3623756634659001
-4.0405,0.5369226036560072,0.5743084315693355
-4.04,0.5155822539406614,0.55311515475902
-4.0395,0.430220855079278,0.4683420475177576
-4.039,0.3448594562175742,0.4047622170867722
-4.0385,0.1634664836371343,0.5107286011383502
-4.038,-0.5407650569692795,0.7968378380776107
-4.0375,-1.351698346154364,0.2034260873876466
-4.037,-1.970568487899394,-0.7290780922662394
-4.0365,-2.461396531352796,-1.449649503817625
-4.036,-1.98123866275632,-1.375473034980807
-4.0355,-1.148965023857831,-0.6654982618352349
-4.035,-0.4447334832507763,0.08686306493165288
-4.0345,0.01408403562916,0.6590815388101737
-4.034,0.2594980573562781,1.00877060618122
-4.0335,0.3448594562177392,1.167720182258731
-4.033,0.3448594562177392,1.22070337428452
-4.0325,0.3235191065023351,1.18891345906895
-4.032,0.2808384070716433,1.061753798207057
-4.0315,0.2488278824986245,0.8498210301039008
-4.031,0.2381577076409322,0.6484849004053245
-4.0305,0.2594980573562781,0.4259554938970107
-4.03,0.2915085819292969,-0.1780528951969835
-4.0295,0.1954770082097358,-0.9939940523960517
-4.029,-0.2953510352432193,-1.682775548731308
-4.0285,-0.4340633083930936,-1.979481424075996
-4.028,0.024754210487619,-1.915901593644452
-4.0275,0.4195506802215176,-1.322489842955616
-4.027,0.5796033030867573,-0.6972881770507372
-4.0265,0.5582629533714115,-0.2310360872237942
-4.026,0.4835717293676135,0.05507314971615059
-4.0255,0.3875401556484697,0.1928294489833272
-4.025,0.3235191065024321,0.2458126410091162
-4.0245,0.3128489316448271,0.2987958330351847
-4.024,0.4622313796522482,0.5001319627331828
-4.0235,0.494241904225267,0.542518516353814
-4.023,0.4302208550791324,0.47893868592279
-4.0225,0.3555296310754218,0.4153588554918433
-4.022,0.2594980573563654,0.4365521323021589
-4.0215,-0.2099896363825539,0.8180311148879649
-4.021,-1.084943974711735,0.55311515475902
-4.0205,-1.746494815888059,-0.3475991096802118
-4.02,-2.119950935907009,-1.057573882826777
-4.0195,-2.183971985053047,-1.439052865412457
-4.019,-1.51175096901904,-1.004590690800593
-4.0185,-0.754168554124262,-0.2628260024395471
-4.018,-0.1886492866663929,0.383568940276341
-4.0175,0.1527963087794516,0.8180311148882058
-4.017,0.3128489316445456,1.051157159801677
-4.0165,0.3555296310754024,1.157123543853563
-4.016,0.3341892813600565,1.157123543853563
-4.0155,0.3021787567870378,1.082947075017459
-4.015,0.2701682322139413,0.9028042221293717
-4.0145,0.2488278824985954,0.7120647308365314
-4.014,0.2488278824985954,0.5213252395436911
-4.0135,0.2915085819292678,0.1080563417412649
-4.013,0.2274875327832301,-0.6866915386455698
-4.0125,-0.3807124341046804,-1.439052865412457
-4.012,-0.9782422261345881,-1.990078062481385
-4.0115,-0.6261264558313813,-2.233800745800015
-4.011,-0.03926683865883591,-1.84172512480882
-4.0105,0.3555296310750627,-1.057573882827143
-4.01,0.5049120790829789,-0.4323722169215513
-4.0095,0.5049120790829789,-0.05089323433552374
-4.009,0.4408910299369412,0.1080563417418432
-4.0085,0.3768699807907386,0.1504428953626767
-4.008,0.3235191065023739,0.1716361721729923
-4.0075,0.4302208550791033,0.341182386655517
-4.007,0.50491207908294,0.4683420475176708
-4.0065,0.4622313796522482,0.457745409112513
-4.006,0.3768699807907871,0.4153588554918433
-4.0055,0.3021787567867466,0.4047622170869361
-4.005,0.01408403562957729,0.6908714540261965
-4.0045,-0.807519428411986,0.8180311148882058
-4.004,-1.575772018165612,0.03387987290506399
-4.0035,-2.098610586191586,-0.792657922697244
-4.003,-2.450726356495113,-1.354279758171118
-4.0025,-1.874536914180774,-1.174136905283436
-4.002,-1.042263275281004,-0.4641621321370536
-4.0015,-0.3700422592469978,0.2458126410091644
-4.001,0.0674349099175926,0.7650479228618963
-4.0005,0.2808384070717113,1.07235043661235
-4,0.3555296310754218,1.210106735879401
-3.9995,0.3555296310754218,1.25249328950007
-3.999,0.3235191065023739,1.199510097474233
-3.9985,0.291508581929326,1.029963882991555
-3.998,0.2594980573562781,0.8286277532933731
-3.9975,0.2488278824985954,0.6060983467848571
-3.997,0.2701682322139607,0.2776025562246667
-3.9965,0.2274875327832301,-0.4535654937318862
-3.996,-0.02859666380115328,-1.205926820498774
-3.9955,-0.3380317346739499,-1.79933857118815
-3.995,-0.2420001609548061,-2.149027638558676
-3.9945,0.1527963087794516,-1.778145294377815
-3.994,0.4302208550792003,-0.9833974139902578
-3.9935,0.5262524287983441,-0.3687923864905467
-3.993,0.4942419042252961,-0.01910331912002144
-3.9925,0.4302208550792003,0.1504428953626575
-3.992,0.3661998059331045,0.2034260873884947
-3.9915,0.3128489316446912,0.2140227257936621
-3.991,0.3661998059331045,0.3305857482505039
-3.9905,0.4942419042252961,0.5319218779486851
-3.99,0.4835717293676135,0.5425185163538525
-3.9895,0.408880505363835,0.4789386859228479
-3.989,0.3341892813600565,0.4365521323021782
-3.9885,0.1848068333524996,0.5425185163538525
-3.988,-0.4767440078238243,0.849821030103708
-3.9875,-1.341028171296118,0.2458126410091644
-3.987,-2.002579012472442,-0.6654982618352349
-3.9865,-2.450726356495113,-1.354279758171118
-3.986,-2.002579012472442,-1.364876396576285
-3.9855,-1.170305373573196,-0.6972881770507372
-3.985,-0.4554036581084589,0.04447651131098315
-3.9845,0.01408403562957729,0.6166949851900245
-3.984,0.2594980573562781,0.9769806909657173
-3.9835,0.3555296310754218,1.146526905448396
-3.983,0.3661998059331045,1.210106735879401
-3.9825,0.3341892813600565,1.188913459069066
-3.982,0.291508581929326,1.061753798207057
-3.9815,0.2701682322139607,0.8604176685088755
-3.981,0.2594980573562781,0.6590815388106942
-3.9805,0.2594980573562781,0.457745409112513
-3.98,0.142126133921769,-0.1250697031716958
-3.9795,-0.5621054066852853,-0.9622041371799229
-3.979,-1.437059745015262,-1.661582271920973
-3.9785,-1.575772018165136,-1.915901593644992
-3.978,-0.7755089038389382,-1.831128486403653
-3.9775,-0.01792648894347063,-1.311893204550448
-3.977,0.3982103305061524,-0.6866915386455698
-3.9765,0.5262524287983441,-0.1992461720078678
-3.976,0.5155822539406614,0.08686306493165288
-3.9755,0.4515612047945656,0.2246193641988295
-3.975,0.3768699807907871,0.2670059178194992
-3.9745,0.3448594562177392,0.309392471440169
-3.974,0.4729015545099309,0.4895353243280153
-3.9735,0.4942419042252961,0.5107286011383502
-3.973,0.4302208550792003,0.4683420475176805
-3.9725,0.3555296310754218,0.4153588554918433
-3.972,0.2701682322139607,0.4259554938970107
-3.9715,-0.2099896363817582,0.8180311148882058
-3.971,-0.9995825758502737,0.627291623595192
-3.9705,-1.586442193022819,-0.2734226408440398
-3.97,-2.066600061618538,-1.163540266878104
-3.9695,-2.002579012472442,-1.523825972653797
-3.969,-1.319687821580753,-1.004590690800593
-3.9685,-0.6047861061160158,-0.2416327256285375
-3.968,-0.09261771294724913,0.4153588554918433
-3.9675,0.2061471830678648,0.8392243916985406
-3.967,0.3341892813600565,1.072350436612224
-3.9665,0.3661998059331045,1.167720182258731
-3.966,0.3448594562177392,1.178316820663898
-3.9655,0.3128489316446912,1.104140351827727
-3.965,0.2808384070716433,0.9663840525605498
-3.9645,0.2594980573562781,0.775644561267536
-3.964,0.2594980573562781,0.5743084315693548
-3.9635,0.3128489316446912,0.1504428953626575
-3.963,0.2061471830678648,-0.6654982618352349
-3.9625,-0.4874141826815069,-1.42845622700729
-3.962,-1.138294849000148,-1.958288147265661
-3.9615,-0.6794773301197943,-2.191414192179345
-3.961,0.00341386077189465,-1.905304955239825
-3.9605,0.4302208550792003,-1.174136905283272
-3.96,0.5796033030867573,-0.5065486857577234
-3.9595,0.5689331282290746,-0.09327978795619347
-3.959,0.4835717293676135,0.1080563417419877
-3.9585,0.3982103305061524,0.1822328105781598
-3.958,0.3341892813600565,0.1928294489833272
-3.9575,0.4835717293676135,0.3941655786815084
-3.957,0.6009436528021226,0.5319218779486851
-3.9565,0.5475927785137094,0.4789386859228479
-3.956,0.4515612047945656,0.3941655786815084
-3.9555,0.3555296310754218,0.3623756634660061
-3.955,0.03542438534494258,0.6590815388106942
-3.9545,-0.7968492535543035,0.7968378380778709
-3.954,-1.575772018165136,0.02328323450064829
-3.9535,-2.023919362187807,-0.792657922697244
-3.953,-2.280003558772191,-1.354279758171118
-3.9525,-1.725154466172693,-1.174136905283272
-3.952,-0.9462317015618604,-0.474758770542221
-3.9515,-0.3060212101009019,0.2352160026039969
-3.951,0.09944543449103843,0.7438546460520338
-3.9505,0.3021787567870086,1.051157159801889
-3.95,0.3661998059331045,1.199510097474233
-3.9495,0.3661998059331045,1.231300012689736
-3.949,0.3341892813600565,1.178316820663898
-3.9485,0.291508581929326,0.9663840525605498
-3.948,0.2701682322139607,0.7650479228623686
-3.9475,0.2701682322139607,0.5637117931641874
-3.947,0.2701682322139607,0.2670059178194992
-3.9465,-0.09261771294724913,-0.3793890248957141
-3.946,-0.8288597781273515,-1.174136905283272
-3.9455,-1.373038695869166,-1.809935209593318
-3.945,-1.148965023857831,-2.159624276963843
-3.9445,-0.4340633083930936,-1.88411167842949
-3.944,0.142126133921769,-1.121153713257435
-3.9435,0.4302208550792003,-0.4429688553267188
-3.943,0.5155822539406614,-0.01910331912002144
-3.9425,0.4835717293676135,0.1928294489833272
-3.942,0.4302208550792003,0.2564092794143318
-3.9415,0.3661998059331045,0.2564092794143318
-3.941,0.3982103305061524,0.3517790250608387
-3.9405,0.5049120790829789,0.5425185163538525
-3.94,0.4835717293676135,0.5319218779486851
-3.9395,0.4195506802215176,0.4683420475176805
-3.939,0.3448594562177392,0.4047622170866759
-3.9385,0.2061471830678648,0.5107286011383502
-3.938,-0.4554036581084589,0.8710143069140429
-3.9375,-1.319687821580753,0.3517790250608387
-3.937,-1.895877263895616,-0.570128516188728
-3.9365,-2.312014083345239,-1.333086481360783
-3.936,-2.066600061618538,-1.481439419033127
-3.9355,-1.26633694729234,-0.8562377531282487
-3.935,-0.5300948821122373,-0.09327978795619347
-3.9345,-0.01792648894347063,0.5107286011383502
-3.934,0.2488278824985954,0.9028042221295453
-3.9335,0.3661998059331045,1.093543713422559
-3.933,0.3875401556484697,1.167720182258731
-3.9325,0.3555296310754218,1.157123543853563
-3.932,0.3235191065023739,1.040560521396722
-3.9315,0.291508581929326,0.8710143069140429
-3.931,0.2808384070716433,0.6802748156210291
-3.9305,0.2808384070716433,0.4789386859228479
-3.93,0.3555296310754218,-0.07208651114585861
-3.9295,0.3555296310754218,-0.9092209451540858
-3.929,-0.3380317346739499,-1.619195718300304
-3.9285,-0.7328282044082075,-1.947691508860494
-3.928,-0.2633405106701714,-1.926498232050159
-3.9275,0.2168173579255475,-1.322489842955616
-3.927,0.4835717293676135,-0.6549016234300674
-3.9265,0.5369226036560266,-0.1674562567923655
-3.926,0.4942419042252961,0.1080563417419877
-3.9255,0.4302208550792003,0.2352160026039969
-3.925,0.3661998059331045,0.2564092794143318
-3.9245,0.3555296310754218,0.2881991946298341
-3.924,0.5262524287983441,0.5213252395435176
-3.9235,0.5689331282290746,0.5637117931641874
-3.923,0.4942419042252961,0.4895353243280153
-3.9225,0.408880505363835,0.4047622170866759
-3.922,0.3021787567870086,0.4153588554918433
-3.9215,-0.1779791118087102,0.8392243916985406
-3.921,-1.020922925565639,0.7226613692416989
-3.9205,-1.757164990745741,-0.1780528951975329
-3.92,-2.290673733629873,-1.078767159636765
-3.9195,-2.141291285622316,-1.449649503817625
-3.919,-1.351698346153801,-0.9516074987747555
-3.9185,-0.5941159312583333,-0.2098428104130352
-3.918,-0.06060718837420119,0.4153588554918433
-3.9175,0.2381577076409128,0.8286277532933731
-3.917,0.3555296310754218,1.061753798207057
-3.9165,0.3875401556484697,1.157123543853563
-3.916,0.3661998059331045,1.167720182258731
-3.9155,0.3341892813600565,1.082947075017392
-3.915,0.291508581929326,0.9028042221295453
-3.9145,0.2808384070716433,0.701468092431364
-3.914,0.2808384070716433,0.5001319627331828
-3.9135,0.3235191065023739,0.09745970333682032
-3.913,0.1527963087794516,-0.6972881770507372
-3.9125,-0.4447334832507763,-1.449649503817625
-3.912,-0.9782422261349084,-1.958288147265661
-3.9115,-0.6688071552621118,-2.021867977696666
-3.911,-0.07127736323188383,-1.598002441489969
-3.9105,0.3448594562177392,-0.9410108603695881
-3.91,0.5369226036560266,-0.400582301706049
-3.9095,0.5475927785137094,-0.05089323433552374
-3.909,0.4835717293676135,0.13984625695749
-3.9085,0.408880505363835,0.2140227257936621
-3.908,0.3555296310754218,0.2564092794143318
-3.9075,0.4942419042252961,0.4683420475176805
-3.907,0.6116138276598051,0.6484849004055269
-3.9065,0.5582629533713921,0.6060983467848571
-3.906,0.4622313796522482,0.5107286011383502
-3.9055,0.3661998059331045,0.4259554938970107
-3.905,0.0674349099179905,0.6696781772158616
-3.9045,-0.7114878546928423,0.7650479228623686
-3.904,-1.437059745015262,-0.01910331912002144
-3.9035,-1.906547438753298,-0.9304142219644207
-3.903,-2.087940411333903,-1.51322933424863
-3.9025,-1.522421143876723,-1.216523458903942
-3.902,-0.7861790786966207,-0.474758770542221
-3.9015,-0.1993194615240755,0.2246193641988295
-3.901,0.1527963087794516,0.7226613692416989
-3.9005,0.3235191065023739,0.9981739677760521
-3.9,0.3768699807907871,1.135930267043229
-3.8995,0.3768699807907871,1.167720182258731
-3.899,0.3448594562177392,1.114736990232894
-3.8985,0.3128489316446912,0.9557874141553824
-3.898,0.2808384070716433,0.7650479228623686
-3.8975,0.2808384070716433,0.5743084315693548
-3.897,0.3021787567870086,0.2670059178194992
-3.8965,0.4302208550792003,-0.4429688553267188
-3.896,0.2274875327832301,-1.237716735714276
-3.8955,-0.5514352318276028,-1.852321763213987
-3.895,-0.722158029550525,-2.064254531317336
-3.8945,-0.2846808603855366,-1.725162102351978
-3.894,0.1634664836371343,-1.01518732920576
-3.8935,0.408880505363835,-0.3793890248957141
-3.893,0.4835717293676135,0.02328323450064829
-3.8925,0.4729015545099309,0.2034260873884947
-3.892,0.4195506802215176,0.2352160026039969
-3.8915,0.3661998059331045,0.2246193641988295
-3.891,0.3982103305061524,0.2881991946298341
-3.8905,0.5155822539406614,0.4471487707073456
-3.89,0.5049120790829789,0.4365521323021782
-3.8895,0.4302208550792003,0.3941655786815084
-3.889,0.3555296310754218,0.3623756634660061
-3.8885,0.1741366584948169,0.55311515475902
-3.888,-0.5407650569699201,0.9345941373450475
-3.8875,-1.351698346153801,0.3729723018711736
-3.887,-1.789175515318789,-0.5383386009732256
-3.8865,-2.098610586191586,-1.216523458903942
-3.886,-1.938557963326346,-1.375473034981453
-3.8855,-1.234326422719292,-0.7820612842920766
