Class_7_Listen_To_Music/Class_7_Listen_To_Music_Basim_8.csv

#Digilent WaveForms Oscilloscope Acquisition
#Device Name: EExplorer
#Serial Number: SN:210151A2B84A
#Date Time: 2020-12-16 09:18:50.763
#Sample rate: 2000Hz
#Samples: 16384
#Trigger: Source: Channel 1 Type: Edge Condition: Rising Level: 0 V Hyst.: Auto HoldOff: 0 s
#Channel 1: Range: 1 V/div Offset: 0 V Attenuation: 1 X
#Channel 2: Range: 1 V/div Offset: 0 V Attenuation: 1 X
#Power Supplies: ON
#Fixed Supply: ON
#Voltage: 3.3 V Readback: 3.326 V
#Positive Supply: ON
#Voltage: 3.7 V Readback: 3.717 V
#Current: 40 mA Readback: 23 mA
#Negative Supply: ON
#Voltage: -3.7 V Readback: -3.34 V
#Current: -40 mA Readback: -10 mA
#Reference 1: ON
#Voltage: 0 V
#Reference 2: ON
#Voltage: 0 V

Time (s),Channel 1 (V),Channel 2 (V)
-4.096,-1.020922925565639,0.8604176685088755
-4.0955,-1.703814116456707,1.337266396740976
-4.095,-2.066600061617975,1.485619334413301
-4.0945,-1.447729919872945,0.9875773293708847
-4.094,-0.7008176798358391,0.3199891098459436
-4.0935,-0.1246282375199671,-0.1780528951977546
-4.093,0.2381577076409128,-0.4217755785163839
-4.0925,0.4195506802213527,-0.4535654937318573
-4.092,0.4729015545099212,-0.3475991096800576
-4.0915,0.4622313796522482,-0.1780528951975329
-4.091,0.4408910299368829,0.01268659609548085
-4.0905,0.4195506802214982,0.1822328105782947
-4.09,0.3982103305061524,0.3305857482505039
-4.0895,0.3875401556484697,0.4365521323021782
-4.089,0.3875401556484697,0.5213252395434405
-4.0885,0.5049120790829789,0.3623756634660061
-4.088,0.3021787567870086,0.309392471440169
-4.0875,-0.3487019095310405,0.7120647308361652
-4.087,-0.8181896032694649,1.082947075016968
-4.0865,-0.5941159312583333,0.6166949851900245
-4.086,-0.09261771294770527,-0.2840192792483881
-4.0855,0.280838407071818,-0.919817583559446
-4.085,0.4729015545099309,-1.131750351662602
-4.0845,0.5369226036559684,-1.121153713257444
-4.084,0.5369226036559975,-1.046977244421137
-4.0835,0.5049120790829789,-0.9092209451540858
-4.083,0.5475927785137094,-0.8244478379127463
-4.0825,0.6649647019481795,-0.8880276683436642
-4.082,0.6222840025174878,-0.792657922697244
-4.0815,0.5369226036560266,-0.6125150698093976
-4.081,0.4622313796523161,-0.442968855326873
-4.0805,0.3875401556484697,-0.2734226408440398
-4.08,0.00341386077189465,0.1504428953626575
-4.0795,-0.7755089038382298,0.7756445612669673
-4.079,-1.511750969019555,1.294879843120991
-4.0785,-2.07727023647622,1.570392441655093
-4.078,-1.735824641030686,1.284283204715833
-4.0775,-0.9569018764189512,0.5955017083791403
-4.077,-0.3060212101009019,-0.008506680714854012
-4.0765,0.1421261339213614,-0.3475991096799034
-4.076,0.3661998059331918,-0.4641621321370054
-4.0755,0.4622313796522482,-0.4111789401112165
-4.075,0.4729015545099309,-0.2628260024388724
-4.0745,0.4515612047945365,-0.09327978795603928
-4.074,0.4195506802215176,0.07626642652648545
-4.0735,0.3982103305061524,0.2246193641988295
-4.073,0.3875401556484794,0.3411823866555652
-4.0725,0.3768699807907871,0.4259554938970107
-4.072,0.3875401556484697,0.457745409112513
-4.0715,0.1207857842066463,0.5849050699744065
-4.071,-0.5941159312589738,0.9663840525608679
-4.0705,-1.298347471865388,1.316073119931075
-4.07,-1.202315898146331,0.8604176685092899
-4.0695,-0.5087545323963286,-0.199246172008581
-4.069,0.08877525963335578,-0.9833974139902578
-4.0685,0.4302208550792003,-1.248313374119443
-4.068,0.5582629533714017,-1.174136905283118
-4.0675,0.5689331282290746,-1.004590690800593
-4.067,0.5369226036560266,-0.8350444763179138
-4.0665,0.5049120790829885,-0.7078848154559142
-4.066,0.5155822539406614,-0.718481453861072
-4.0655,0.5049120790829789,-0.6549016234300674
-4.065,0.462231379652287,-0.5383386009733316
-4.0645,0.4195506802215176,-0.4111789401112165
-4.064,0.3875401556484697,-0.2946159176543747
-4.0635,0.1527963087796651,-0.01910331912027202
-4.063,-0.5727755815436668,0.5743084315698657
-4.0625,-1.341028171296118,1.135930267043229
-4.062,-2.045259711902532,1.506812611223751
-4.0615,-2.087940411333165,1.443232780792506
-4.061,-1.277007122150022,0.8074344764830383
-4.0605,-0.5300948821122373,0.13984625695749
-4.06,0.003413860772176079,-0.3052125560597156
-4.0595,0.3128489316446912,-0.4959520473525559
-4.059,0.4515612047945656,-0.4853554089473885
-4.0585,0.4835717293675844,-0.3687923864906528
-4.058,0.4622313796522482,-0.1992461720078678
-4.0575,0.4408910299368829,-0.01910331912002144
-4.057,0.4088805053638641,0.1398462569573455
-4.0565,0.3982103305061524,0.2670059178194992
-4.056,0.3875401556484697,0.383568940276341
-4.0555,0.3875401556484697,0.43655213230213
-4.055,0.270168232213359,0.4365521323024673
-4.0545,-0.391382608962363,0.7544512844572011
-4.054,-1.191645723287833,1.178316820663513
-4.0535,-1.501080794160834,1.263089927904525
-4.053,-0.9248913518464952,0.4789386859228479
-4.0525,-0.2313299860971235,-0.4111789401112165
-4.052,0.238157707641136,-0.9092209451542207
-4.0515,0.4835717293676135,-1.05757388282643
-4.051,0.5689331282290746,-1.025783967610927
-4.0505,0.5582629533714017,-0.9410108603696652
-4.05,0.5155822539406614,-0.7608680074817418
-4.0495,0.5689331282290746,-0.7078848154559045
-4.049,0.6009436528020935,-0.6443049850249578
-4.0485,0.5475927785136512,-0.4853554089472247
-4.048,0.4835717293676135,-0.3052125560595421
-4.0475,0.4302208550792488,-0.156859618387333
-4.047,0.3235191065018401,0.02328323450108198
-4.0465,-0.2633405106701714,0.5001319627331828
-4.046,-1.052933450137969,1.051157159801388
-4.0455,-1.778505340461524,1.453829419198387
-4.045,-2.23732285934146,1.602182356870596
-4.0445,-1.703814116457328,1.146526905448396
-4.044,-0.87154047755749,0.4153588554913132
-4.0435,-0.2206598112394408,-0.1674562567923655
-4.043,0.1954770082101822,-0.4853554089473885
-4.0425,0.408880505363641,-0.5701285161886509
-4.042,0.4835717293676135,-0.5065486857577234
-4.0415,0.4835717293676135,-0.3687923864905467
-4.041,0.4515612047945947,-0.199246172008022
-4.0405,0.4195506802215079,-0.02969995752505395
-4.04,0.408880505363835,0.1186529801471552
-4.0395,0.3875401556484891,0.2458126410090487
-4.039,0.3875401556485862,0.3411823866555363
-4.0385,0.5155822539406614,0.1928294489833272
-4.038,0.3128489316448756,0.1610395337678538
-4.0375,-0.4767440078244453,0.6060983467851944
-4.037,-1.159635198715513,0.9769806909657173
-4.0365,-0.9462317015618604,0.457745409112513
-4.036,-0.3487019095311861,-0.3793890248961768
-4.0355,0.142126133921769,-0.8880276683437509
-4.035,0.4302208550792003,-1.025783967610927
-4.0345,0.5369226036559296,-0.9833974139902963
-4.034,0.5475927785137094,-0.8668343915334161
-4.0335,0.5155822539406614,-0.718481453861072
-4.033,0.4942419042253156,-0.5701285161888628
-4.0325,0.4942419042252767,-0.4111789401111104
-4.032,0.4729015545099309,-0.2946159176543747
-4.0315,0.4302208550792391,-0.2204394488182701
-4.031,0.4088805053638059,-0.156859618387121
-4.0305,0.3768699807907871,-0.07208651114585861
-4.03,-0.01792648894311161,0.2881991946295064
-4.0295,-0.7861790786972516,0.8604176685092996
-4.029,-1.479740444445993,1.326669758336243
-4.0285,-1.842526389607202,1.580989080060261
-4.028,-1.533091318733785,1.27368656630976
-4.0275,-0.8502001278427167,0.5637117931641874
-4.027,-0.2420001609548061,-0.06148987274069118
-4.0265,0.1634664836367655,-0.432372216921214
-4.026,0.3768699807907871,-0.5595318777835605
-4.0255,0.4622313796522482,-0.5171453241628908
-4.025,0.4729015545099212,-0.3793890248958394
-4.0245,0.4515612047945365,-0.2204394488180484
-4.024,0.4195506802215176,-0.05089323433552374
-4.0235,0.4088805053638447,0.0974597033366854
-4.023,0.3982103305061427,0.2246193641989259
-4.0225,0.3875401556484697,0.3305857482505039
-4.022,0.4195506802214886,0.3517790250608194
-4.0215,0.6222840025172355,0.1928294489835103
-4.021,0.3448594562177392,0.3941655786815084
-4.0205,-0.423393133535411,0.8392243916985406
-4.02,-0.679477330119474,0.6484849004048233
-4.0195,-0.3273615598162672,-0.1250697031716958
-4.019,0.07810508477567314,-0.7502713690765743
-4.0185,0.3448594562174965,-1.015187329205519
-4.018,0.4835717293676135,-1.004590690800593
-4.0175,0.5262524287983441,-0.8986243067489184
-4.017,0.515582253940671,-0.7820612842921826
-4.0165,0.4942419042252864,-0.6337083466196458
-4.016,0.4835717293676135,-0.5383386009732256
-4.0155,0.4515612047945947,-0.4747587705422789
-4.015,0.4195506802214982,-0.4429688553266706
-4.0145,0.3982103305061524,-0.3899856633008816
-4.014,0.3768699807908065,-0.3370024712750926
-4.0135,0.2061471830672437,-0.1250697031711657
-4.013,-0.4767440078238243,0.457745409112513
-4.0125,-1.255666772434657,1.051157159801889
-4.012,-1.949228138184204,1.347863035146028
-4.0115,-2.141291285622316,0.7438546460520338
-4.011,-1.405049220442214,0.08686306493165288
-4.0105,-0.6367966306897626,-0.2734226408437122
-4.01,-0.07127736323188383,-0.3899856633008816
-4.0095,0.2701682322139607,-0.3581957480853793
-4.009,0.4302208550790547,-0.2416327256286436
-4.0085,0.4835717293676038,-0.1144730647664127
-4.008,0.4729015545099309,0.01268659609548085
-4.0075,0.4408910299369121,0.1186529801470588
-4.007,0.4195506802214982,0.2034260873885428
-4.0065,0.3982103305061524,0.2564092794143318
-4.006,0.3875401556484697,0.2881991946298341
-4.0055,0.3875401556484309,0.2776025562245896
-4.005,0.3448594562177392,0.1928294489833272
-4.0045,-0.274010685527854,0.4895353243280153
-4.004,-1.042263275281256,0.9663840525605787
-4.0035,-1.319687821580753,0.9981739677760521
-4.003,-0.7434983792658902,0.05507314971615059
-4.0025,-0.07127736323249523,-0.9198175835583666
-4.002,0.3661998059331045,-1.396666311791788
-4.0015,0.5582629533713921,-1.449649503817625
-4.001,0.5902734779444108,-1.301296566145416
-4.0005,0.5689331282290357,-1.121153713257251
-4,0.5262524287983441,-0.9198175835592532
-3.9995,0.5262524287983441,-0.6866915386455698
-3.999,0.5155822539406614,-0.5065486857577234
-3.9985,0.4729015545099309,-0.4111789401112165
-3.998,0.4302208550792003,-0.3475991096802118
-3.9975,0.3982103305061524,-0.2840192792492073
-3.997,0.3021787567870086,-0.1250697031716958
-3.9965,-0.274010685527854,0.383568940276341
-3.996,-1.06360362499637,0.9875773293708847
-3.9955,-1.789175515318789,1.432636142387917
-3.995,-2.23732285934146,1.644568910491266
-3.9945,-1.735824641030376,1.263089927905238
-3.994,-0.9035510021311299,0.5743084315693548
-3.9935,-0.2420001609548061,0.01268659609548085
-3.993,0.1848068333524996,-0.2840192792492073
-3.9925,0.408880505363835,-0.3581957480853793
-3.992,0.4835717293676135,-0.2840192792492073
-3.9915,0.4835717293676135,-0.1356663415768632
-3.991,0.4622313796522482,0.04447651131098315
-3.9905,0.4302208550792003,0.2034260873884947
-3.99,0.408880505363835,0.3411823866556712
-3.9895,0.3982103305061524,0.4471487707073456
-3.989,0.3875401556484697,0.5213252395435176
-3.9885,0.5262524287983441,0.3729723018711736
-3.988,1.006410297394063,0.1186529801471552
-3.9875,0.6542945270905358,0.4365521323021782
-3.987,-0.1352984123779797,0.8392243916985406
-3.9865,-0.3166913849585846,0.4895353243280153
-3.986,-0.08194753808956648,-0.2204394488182027
-3.9855,0.1954770082101822,-0.7290780922662394
-3.985,0.3661998059331045,-0.9410108603695881
-3.9845,0.4622313796522482,-0.9728007755850904
-3.984,0.4835717293676135,-0.9622041371799229
-3.9835,0.4835717293676135,-0.8880276683437509
-3.983,0.4729015545099309,-0.8032545611024114
-3.9825,0.5049120790829789,-0.8032545611024114
-3.982,0.4835717293676135,-0.718481453861072
-3.9815,0.4408910299368829,-0.6019184314042303
-3.981,0.408880505363835,-0.474758770542221
-3.9805,0.3768699807907871,-0.3475991096802118
-3.98,0.02475421048725994,0.04447651131098315
-3.9795,-0.722158029550525,0.6802748156210291
-3.979,-1.46907026958831,1.220703374284568
-3.9785,-2.109280761049269,1.538602526439591
-3.978,-1.863866739322568,1.273686566310405
-3.9775,-1.042263275281004,0.5955017083796896
-3.977,-0.3593720843893152,-0.008506680714854012
-3.9765,0.1101156093487211,-0.3581957480853793
-3.976,0.3661998059331045,-0.474758770542221
-3.9755,0.4622313796522482,-0.4217755785163839
-3.975,0.4729015545099309,-0.2734226408440398
-3.9745,0.4622313796522482,-0.09327978795619347
-3.974,0.4302208550792003,0.07626642652648545
-3.9735,0.408880505363835,0.2352160026039969
-3.973,0.3875401556484697,0.3623756634660061
-3.9725,0.3875401556484697,0.457745409112513
-3.972,0.408880505363835,0.5001319627331828
-3.9715,0.5262524287983441,0.3729723018711736
-3.971,0.1848068333524996,0.5213252395435176
-3.9705,-0.572775581542968,0.9345941373450475
-3.97,-0.807519428411986,0.7438546460520338
-3.9695,-0.391382608962363,-0.1356663415768632
-3.969,0.0674349099179905,-0.8774310299385835
-3.9685,0.3661998059331045,-1.195330182093607
-3.968,0.5049120790829789,-1.195330182093607
-3.9675,0.5369226036560266,-1.078767159636765
-3.967,0.5155822539406614,-0.9410108603695881
-3.9665,0.4729015545099309,-0.7820612842920766
-3.966,0.4302208550792003,-0.7290780922662394
-3.9655,0.3982103305061524,-0.6654982618352349
-3.965,0.3768699807907871,-0.5913217929990628
-3.9645,0.3768699807907871,-0.4959520473525559
-3.964,0.3661998059331045,-0.400582301706049
-3.9635,0.2061471830678648,-0.1780528951975329
-3.963,-0.4554036581084589,0.4153588554918433
-3.9625,-1.223656247861609,1.029963882991555
-3.962,-1.853196564464885,1.443232780793084
-3.9615,-2.066600061618538,1.506812611224089
-3.961,-1.362368521011484,0.9451907757502149
-3.9605,-0.6154562809736985,0.2564092794143318
-3.96,-0.06060718837420119,-0.2204394488182027
-3.9595,0.2701682322139607,-0.4429688553267188
-3.959,0.4302208550792003,-0.4641621321370536
-3.9585,0.4729015545099309,-0.3475991096802118
-3.958,0.4729015545099309,-0.1780528951975329
-3.9575,0.4408910299368829,0.002089957690313421
-3.957,0.408880505363835,0.1716361721729923
-3.9565,0.3982103305061524,0.3199891098453364
-3.956,0.3875401556484697,0.4259554938970107
-3.9555,0.3875401556484697,0.4895353243280153
-3.955,0.3661998059331045,0.383568940276341
-3.9545,-0.2420001609548061,0.6060983467848571
-3.954,-0.9675720512772257,1.040560521396722
-3.9535,-1.223656247861609,1.114736990232894
-3.953,-0.7114878546928423,0.2881991946298341
-3.9525,-0.09261771294724913,-0.5595318777835605
-3.952,0.3235191065023739,-1.01518732920576
-3.9515,0.5155822539406614,-1.121153713257435
-3.951,0.5796033030867573,-1.05757388282643
-3.9505,0.5582629533713921,-0.9516074987747555
-3.95,0.5049120790829789,-0.7820612842920766
-3.9495,0.5582629533713921,-0.5065486857577234
-3.949,0.6222840025174878,-0.2734226408440398
-3.9485,0.5796033030867573,-0.2310360872233701
-3.948,0.5049120790829789,-0.252229364033705
-3.9475,0.4408910299368829,-0.252229364033705
-3.947,0.3341892813600565,-0.1674562567923655
-3.9465,-0.2313299860971235,0.2987958330350016
-3.946,-1.031593100423322,0.9028042221295453
-3.9455,-1.735824641030376,1.369056311956912
-3.945,-2.141291285622316,1.559795803249926
-3.9445,-1.575772018165136,1.125333628638062
-3.944,-0.7861790786966207,0.4259554938970107
-3.9435,-0.1779791118087102,-0.1250697031716958
-3.943,0.2168173579255475,-0.4111789401112165
-3.9425,0.408880505363835,-0.474758770542221
-3.942,0.4729015545099309,-0.3899856633008816
-3.9415,0.4729015545099309,-0.2310360872233701
-3.941,0.4515612047945656,-0.05089323433552374
-3.9405,0.4195506802215176,0.1186529801471552
-3.94,0.3982103305061524,0.2670059178194992
-3.9395,0.3875401556484697,0.383568940276341
-3.939,0.3875401556484697,0.4683420475176805
-3.9385,0.4729015545099309,0.3517790250608387
-3.938,0.2808384070716433,0.2776025562246667
-3.9375,-0.4127229586777283,0.6802748156210291
-3.937,-1.031593100423322,1.082947075017392
-3.9365,-0.9035510021311299,0.7862411996727035
-3.936,-0.3593720843893152,-0.04029659593035631
-3.9355,0.1101156093487211,-0.6760949002404023
-3.935,0.3982103305061524,-0.9728007755850904
-3.9345,0.5155822539406614,-1.068170521231597
-3.934,0.5369226036560266,-1.025783967610927
-3.9335,0.5155822539406614,-0.8774310299385835
-3.933,0.5155822539406614,-0.718481453861072
-3.9325,0.5475927785137094,-0.5595318777835605
-3.932,0.5155822539406614,-0.4641621321370536
-3.9315,0.4729015545099309,-0.4217755785163839
-3.931,0.4195506802215176,-0.3687923864905467
-3.9305,0.3875401556484697,-0.2946159176543747
-3.93,0.03542438534494258,0.03387987290581572
-3.9295,-0.7434983792658902,0.6378882620003594
-3.929,-1.46907026958831,1.188913459069066
-3.9285,-1.927887788468663,1.517409249629256
-3.928,-1.650463242168915,1.284283204715573
-3.9275,-0.9248913518464952,0.6166949851900245
-3.927,-0.2953510352432193,0.02328323450064829
-3.9265,0.1314559590640864,-0.3370024712750445
-3.926,0.3661998059331045,-0.4429688553267188
-3.9255,0.4622313796522482,-0.3899856633008816
-3.925,0.4729015545099309,-0.252229364033705
-3.9245,0.4515612047945656,-0.07208651114585861
-3.924,0.4302208550792003,0.09745970333682032
-3.9235,0.408880505363835,0.2458126410091644
-3.923,0.3982103305061524,0.3729723018711736
-3.9225,0.3875401556484697,0.4683420475176805
-3.922,0.3875401556484697,0.5107286011383502
-3.9215,0.1207857842064037,0.6590815388106942
-3.921,-0.6154562809736985,1.040560521396722
-3.9205,-1.223656247861609,1.37965295036208
-3.92,-1.170305373573196,0.9981739677760521
-3.9195,-0.5300948821122373,-0.04029659593035631
-3.919,0.0674349099179905,-0.8562377531282487
-3.9185,0.408880505363835,-1.205926820498774
-3.918,0.5582629533713921,-1.195330182093607
-3.9175,0.5796033030867573,-1.068170521231597
-3.917,0.5582629533713921,-0.8774310299385835
-3.9165,0.5155822539406614,-0.6760949002404023
-3.916,0.5369226036560266,-0.5065486857577234
-3.9155,0.5155822539406614,-0.400582301706049
-3.915,0.4729015545099309,-0.3370024712750445
-3.9145,0.4302208550792003,-0.2734226408440398
-3.914,0.3982103305061524,-0.2098428104130352
-3.9135,0.2274875327832301,0.01268659609548085
-3.913,-0.4447334832507763,0.5637117931641874
-3.9125,-1.223656247861609,1.114736990232894
-3.912,-1.885207089037933,1.496215972818921
-3.9115,-2.002579012472442,1.496215972818921
-3.911,-1.277007122150022,0.8816109453192104
-3.9105,-0.5514352318276028,0.2034260873884947
-3.91,-0.01792648894347063,-0.252229364033705
-3.9095,0.3021787567870086,-0.4641621321370536
-3.909,0.4408910299368829,-0.474758770542221
-3.9085,0.4835717293676135,-0.3687923864905467
-3.908,0.4622313796522482,-0.2098428104130352
-3.9075,0.4408910299368829,-0.04029659593035631
-3.907,0.4195506802215176,0.1186529801471552
-3.9065,0.3982103305061524,0.2564092794143318
-3.906,0.3875401556484697,0.3517790250608387
-3.9055,0.3875401556484697,0.4153588554918433
-3.905,0.3235191065023739,0.3623756634660061
-3.9045,-0.3060212101009019,0.6378882620003594
-3.904,-1.095614149569417,1.082947075017392
-3.9035,-1.51175096901904,1.199510097474233
-3.903,-1.020922925565639,0.4789386859228479
-3.9025,-0.3487019095316325,-0.3158091944647096
-3.902,0.1527963087794516,-0.792657922697244
-3.9015,0.4195506802215176,-0.9833974139902578
-3.901,0.5262524287983441,-1.01518732920576
-3.9005,0.5475927785137094,-0.9304142219644207
-3.9,0.5262524287983441,-0.7714646458869092
-3.8995,0.6009436528021226,-0.6866915386455698
-3.899,0.6756348768059011,-0.6866915386455698
-3.8985,0.6116138276598051,-0.5595318777835605
-3.898,0.5262524287983441,-0.4111789401112165
-3.8975,0.4515612047945656,-0.252229364033705
-3.897,0.3661998059331045,-0.09327978795619347
-3.8965,-0.1139580626626144,0.3623756634660061
-3.896,-0.8715404775580819,0.9345941373450475
-3.8955,-1.575772018165136,1.37965295036208
-3.895,-2.066600061618538,1.559795803249926
-3.8945,-1.67180359188428,1.178316820663898
-3.894,-0.8928808272734472,0.4789386859228479
-3.8935,-0.2526703358124887,-0.1038764263613609
-3.893,0.1634664836371343,-0.4323722169215513
-3.8925,0.3875401556484697,-0.5277419625680583
-3.892,0.4729015545099309,-0.474758770542221
-3.8915,0.4835717293676135,-0.3370024712750445
-3.891,0.4515612047945656,-0.1674562567923655
-3.8905,0.4302208550792003,0.002089957690313421
-3.89,0.408880505363835,0.13984625695749
-3.8895,0.3982103305061524,0.2670059178194992
-3.889,0.3875401556484697,0.3623756634660061
-3.8885,0.4408910299368829,0.2881991946298341
-3.888,0.1527963087794516,0.3517790250608387
-3.8875,-0.4447334832507763,0.7862411996727035
-3.887,-0.9462317015618604,1.188913459069066
-3.8865,-0.7755089038389382,0.8604176685088755
