Class_7_Listen_To_Music/Class_7_Listen_To_Music_Suko_6.csv

#Digilent WaveForms Oscilloscope Acquisition
#Device Name: EExplorer
#Serial Number: SN:210151A2B84A
#Date Time: 2020-12-22 14:26:02.227
#Sample rate: 2000Hz
#Samples: 16384
#Trigger: Source: Channel 1 Type: Edge Condition: Rising Level: 0 V Hyst.: Auto HoldOff: 0 s
#Channel 1: Range: 1 V/div Offset: 0 V Attenuation: 1 X
#Channel 2: Range: 1 V/div Offset: 0 V Attenuation: 1 X
#Power Supplies: ON
#Fixed Supply: ON
#Voltage: 3.3 V Readback: 3.32 V
#Positive Supply: ON
#Voltage: 3.7 V Readback: 3.663 V
#Current: 40 mA Readback: 21 mA
#Negative Supply: ON
#Voltage: -3.7 V Readback: -4.224 V
#Current: -40 mA Readback: -1 mA
#Reference 1: ON
#Voltage: 0 V
#Reference 2: ON
#Voltage: 0 V

Time (s),Channel 1 (V),Channel 2 (V)
-4.096,-1.437059745015262,0.6378882620003594
-4.0955,-2.034589537044946,0.9981739677757244
-4.095,-2.493407055925717,0.341182386654987
-4.0945,-2.354694782775969,-0.4111789401112165
-4.094,-1.533091318735153,-0.7184814538607924
-4.0935,-0.6901475049769239,-0.7502713690764876
-4.093,-0.08194753808956648,-0.6549016234300674
-4.0925,0.2701682322136404,-0.4959520473527005
-4.092,0.4302208550792294,-0.3264058328697132
-4.0915,0.4622313796522482,-0.1462629799820306
-4.091,0.4408910299368829,0.03387987290581572
-4.0905,0.4088805053637962,0.1928294489834718
-4.09,0.3661998059331045,0.3517790250608387
-4.0895,0.3448594562177392,0.5001319627331828
-4.089,0.3341892813600663,0.6378882620002342
-4.0885,0.3021787567870086,0.6802748156210291
-4.088,0.6116138276598051,0.3941655786815084
-4.0875,0.9210488985323203,-0.2204394488176436
-4.087,0.6969752265213245,-0.5913217929990435
-4.0865,0.7609962756673623,-0.570128516188728
-4.086,0.9317190733901293,-0.5595318777835702
-4.0855,1.038420821967062,-0.4641621321367645
-4.085,0.9850699476786977,-0.1462629799820306
-4.0845,0.8356874996712766,0.2564092794139656
-4.084,0.6756348768057846,0.5743084315694994
-4.0835,0.5475927785137094,0.7332580076468663
-4.083,0.5369226036560266,0.701468092431364
-4.0825,0.3448594562171569,0.4047622170860302
-4.082,-0.2953510352432193,-0.3052125560595421
-4.0815,-0.274010685527854,-0.400582301706049
-4.081,-0.1459685872357788,-0.4111789401112068
-4.0805,-0.01792648894347063,-0.3899856633008816
-4.08,0.1314559590640864,-0.1780528951975329
-4.0795,-0.2526703358121393,-0.019103319120166
-4.079,-1.255666772435511,0.1928294489836549
-4.0785,-2.19464215991073,0.55311515475902
-4.078,-2.653459678790666,0.9239974989395427
-4.0775,-2.066600061617703,0.6908714540257339
-4.077,-1.148965023857831,0.1822328105781598
-4.0765,-0.3700422592477063,-0.241632725628152
-4.076,0.1314559590643096,-0.4747587705422596
-4.0755,0.3768699807907871,-0.5171453241628908
-4.075,0.4515612047945656,-0.4323722169215513
-4.0745,0.4515612047945365,-0.2522293640335123
-4.074,0.4195506802215176,-0.04029659593035631
-4.0735,0.3768699807907871,0.1822328105781598
-4.073,0.3448594562177683,0.4047622170864735
-4.0725,0.3341892813600565,0.6060983467848571
-4.072,0.2274875327832301,0.7120647308365314
-4.0715,-0.263340510669725,0.5319218779488489
-4.071,-0.7648387289817019,0.01268659609495079
-4.0705,-1.255666772434657,-0.570128516188728
-4.07,-0.9782422261351607,-0.8244478379125151
-4.0695,-0.2099896363811468,-0.6337083466193567
-4.069,0.4622313796522482,-0.2204394488182027
-4.0685,0.8463576745288233,0.1504428953626575
-4.068,0.9317190733902263,0.5319218779488875
-4.0675,0.8676980242441885,0.7544512844572011
-4.067,0.707645401378949,0.8816109453192104
-4.0665,0.5796033030866797,0.8922075837242911
-4.066,0.4942419042252961,0.7968378380778709
-4.0655,0.4195506802215176,0.6484849004055269
-4.065,0.3768699807908259,0.4471487707075287
-4.0645,0.3555296310754218,0.2140227257936621
-4.064,0.2808384070716433,-0.08268314955102604
-4.0635,-0.3273615598157141,-0.5065486857573378
-4.063,-1.159635198716096,-0.5277419625678462
-4.0625,-1.799845690176472,-0.2946159176543747
-4.062,-2.472066706209866,-0.09327978795637656
-4.0615,-2.770831602225049,-0.04029659593054906
-4.061,-2.173301810195364,-0.252229364033705
-4.0605,-1.26633694729234,-0.5807251545938954
-4.06,-0.476744007823339,-0.7926579226972922
-4.0595,0.05676473506030786,-0.8456411147230812
-4.059,0.3341892813600565,-0.7820612842920766
-4.0585,0.4515612047944588,-0.6231117082147096
-4.058,0.4622313796522482,-0.4111789401112165
-4.0575,0.4408910299368829,-0.1674562567923655
-4.057,0.4088805053638641,0.06566978812110599
-4.0565,0.3661998059331045,0.2987958330350016
-4.056,0.3341892813600565,0.5001319627331828
-4.0555,0.2808384070716918,0.5849050699744451
-4.055,-0.1032878878055431,0.1398462569568636
-4.0545,-0.7755089038389382,-0.5489352393783931
-4.054,-1.266336947291893,-0.9939940523950205
-4.0535,-1.052933450137949,-1.16354026687794
-4.053,-0.2420001609548061,-0.9833974139902578
-4.0525,0.4835717293676135,-0.5383386009732256
-4.052,0.8997085488173239,-0.008506680714343219
-4.0515,0.9957401225363802,0.55311515475902
-4.051,0.9103787236749192,0.9875773293708847
-4.0505,0.782336625382844,1.241896651094672
-4.05,0.6436243522328531,1.220703374284568
-4.0495,0.6969752265212663,0.8286277532933731
-4.049,0.6756348768059205,0.4789386859231659
-4.0485,0.5796033030866603,0.2246193641986367
-4.048,0.4729015545099309,0.01268659609548085
-4.0475,0.3982103305062203,-0.1886495336025172
-4.047,0.2488278824980422,-0.2416327256280942
-4.0465,-0.3593720843893152,0.2458126410091644
-4.046,-1.116954499284094,0.8498210301031586
-4.0455,-1.821186039892584,1.220703374284086
-4.045,-2.6427895039334,0.6908714540261965
-4.0445,-2.738821077652544,-0.1462629799820306
-4.044,-1.799845690175686,-0.5701285161890846
-4.0435,-0.9355615267041777,-0.9622041371799229
-4.043,-0.2420001609548061,-1.05757388282643
-4.0425,0.248827882498149,-0.9092209451542207
-4.042,0.4302208550792003,-0.7290780922662394
-4.0415,0.4515612047945656,-0.5277419625680583
-4.041,0.4302208550792198,-0.2628260024391133
-4.0405,0.3875401556484406,0.0232832345009085
-4.04,0.3555296310754218,0.309392471440169
-4.0395,0.334189281360076,0.5849050699742716
-4.039,0.3341892813597848,0.8286277532932864
-4.0385,0.03542438534494258,0.7332580076468663
-4.038,-0.7968492535535465,0.06566978812192525
-4.0375,-1.39437904558456,-0.5913217929994001
-4.037,-1.426389570157579,-0.9622041371799229
-4.0365,-0.7008176798351597,-0.8986243067489184
-4.036,0.120785784206918,-0.5913217929987062
-4.0355,0.6863050516635838,-0.1992461720078678
-4.035,0.9317190733902845,0.309392471440169
-4.0345,0.9103787236749387,0.8286277532929009
-4.034,0.8036769750980928,1.072350436612224
-4.0335,0.6649647019482183,1.125333628638062
-4.033,0.7076454013789102,0.9028042221297476
-4.0325,0.7609962756672749,0.5743084315691331
-4.032,0.6649647019482183,0.3305857482505039
-4.0315,0.5475927785138162,0.09745970333703233
-4.031,0.4515612047945073,-0.1568596183874005
-4.0305,0.3875401556484697,-0.3793890248957141
-4.03,0.3021787567870863,-0.231036087223505
-4.0295,0.2701682322136016,0.3305857482508797
-4.029,-0.124628237520297,0.7438546460520338
-4.0285,-0.8181896032696687,0.6590815388106942
-4.028,-1.309017646722866,0.4789386859224238
-4.0275,-1.084943974711735,0.01268659609548085
-4.027,-0.5834457564006506,-0.5065486857577234
-4.0265,-0.3380317346741731,-1.068170521231087
-4.026,-0.6474668055467465,-1.788741932782983
-4.0255,-0.3380317346739499,-1.576809164679634
-4.025,-0.1246282375204911,-1.227120097309427
-4.0245,0.07810508477586724,-0.7608680074812503
-4.024,0.291508581929326,-0.2204394488182027
-4.0235,0.3768699807907094,0.1928294489829513
-4.023,0.3555296310754024,0.4895353243282756
-4.0225,0.3341892813600565,0.775644561267536
-4.022,0.2915085819293648,0.987577329370692
-4.0215,-0.007256314086137349,0.8392243916981743
-4.021,-0.391382608962363,0.4365521323021782
-4.0205,-0.839529952985034,-0.02969995752518888
-4.02,-0.7328282044076252,-0.4853554089474945
-4.0195,-0.09261771294724913,-0.6019184314042303
-4.019,0.4942419042252961,-0.3899856633008816
-4.0185,0.8356874996708302,0.1292496185518504
-4.018,0.8783681991018712,0.7120647308365314
-4.0175,0.7823366253827275,1.051157159801889
-4.017,0.6436243522329792,1.167720182258625
-4.0165,0.5902734779445175,1.051157159801591
-4.016,0.6756348768059011,0.7226613692416989
-4.0155,0.6329541773752094,0.4471487707075962
-4.015,0.5475927785136318,0.1928294489830863
-4.0145,0.4622313796522482,-0.07208651114585861
-4.014,0.3982103305062106,-0.3370024712748035
-4.0135,0.3875401556484988,-0.4323722169212429
-4.013,0.4195506802215176,-0.09327978795619347
-4.0125,-0.07127736323188383,0.4683420475176805
-4.012,-0.839529952985655,0.6802748156204219
-4.0115,-1.522421143876723,0.01268659609548085
-4.011,-1.490410619303675,-0.5489352393783931
-4.0105,-0.9355615267046823,-0.654901623429971
-4.01,-0.3593720843893152,-0.5277419625680583
-4.0095,0.05676473506030786,-0.3581957480853793
-4.009,0.3021787567867854,-0.1780528951976968
-4.0085,0.4088805053638545,-0.02969995752508287
-4.008,0.4302208550792003,0.08686306493165288
-4.0075,0.142126133922031,-0.07208651114571404
-4.007,-0.487414182681371,-0.5807251545936641
-4.0065,-0.3380317346739499,-0.326405832869877
-4.006,-0.1993194615240755,-0.09327978795619347
-4.0055,-0.03926683865912705,0.1186529801469239
-4.005,-0.3593720843893152,-0.1356663415768632
-4.0045,-1.1062843244271,-0.9833974139902578
-4.004,-1.629122892453394,-1.862918401619521
-4.0035,-1.458400094730627,-2.265590661015517
-4.003,-0.6474668055467465,-1.958288147265661
-4.0025,0.1634664836363967,-1.057573882827249
-4.002,0.6756348768059011,-0.3052125560595421
-4.0015,0.8676980242441885,0.2458126410091644
-4.001,0.8356874996711698,0.6166949851896872
-4.0005,0.73965592595189,0.7650479228623589
-4,0.6222840025174878,0.7544512844572011
-3.9995,0.7609962756673623,0.4365521323021782
-3.999,0.79300680024041,0.1928294489833272
-3.9985,0.6863050516635838,0.09745970333682032
-3.998,0.5582629533713921,0.02328323450064829
-3.9975,0.4515612047945656,-0.06148987274069118
-3.997,0.3235191065023739,-0.07208651114585861
-3.9965,-0.2206598112394408,0.3729723018711736
-3.996,-0.9462317015618604,1.00877060618122
-3.9955,-1.351698346153801,1.347863035146577
-3.995,-1.693143941599645,1.432636142387917
-3.9945,-1.693143941599645,1.305476481525908
-3.994,-1.1062843244271,0.701468092431364
-3.9935,-0.4660738329661415,0.09745970333682032
-3.993,0.00341386077189465,-0.2840192792492073
-3.9925,0.2808384070716433,-0.4323722169215513
-3.992,0.408880505363835,-0.400582301706049
-3.9915,0.4408910299368829,-0.2628260024388724
-3.991,0.4302208550792003,-0.06148987274069118
-3.9905,0.3982103305061524,0.1610395337678249
-3.99,0.3661998059331045,0.383568940276341
-3.9895,0.3448594562177392,0.5743084315693548
-3.989,0.3341892813600565,0.7438546460520338
-3.9885,-0.01792648894347063,0.6378882620003594
-3.988,-1.26633694729234,-0.2734226408440398
-3.9875,-2.109280761049269,-1.004590690800593
-3.987,-2.258663209056825,-1.545019249464132
-3.9865,-1.479740444445993,-1.767548655972648
-3.986,-0.2953510352432193,-1.534422611058964
-3.9855,0.5796033030867573,-1.025783967610927
-3.985,0.8997085488172365,-0.3581957480853793
-3.9845,0.8890383739595538,0.2776025562246667
-3.984,0.7503261008096795,0.6802748156210291
-3.9835,0.6116138276598051,0.849821030103708
-3.983,0.6756348768059011,0.6696781772158616
-3.9825,0.8356874996711408,0.2776025562246667
-3.982,0.7823366253827275,0.07626642652648545
-3.9815,0.6436243522328531,-0.06148987274069118
-3.981,0.5155822539406614,-0.2098428104130352
-3.9805,0.4195506802215176,-0.3581957480853793
-3.98,0.5155822539406614,-0.1568596183871981
-3.9795,0.5262524287983441,0.457745409112513
-3.979,-0.1139580626626144,0.9451907757502149
-3.9785,-0.8715404775580819,1.00877060618122
-3.978,-1.554431668449771,1.040560521396722
-3.9775,-1.415719395299897,0.6060983467848571
-3.977,-0.839529952985034,0.002089957690313421
-3.9765,-0.274010685527854,-0.4535654937318862
-3.976,0.1101156093487211,-0.6549016234300674
-3.9755,0.3341892813600565,-0.6549016234300674
-3.975,0.4195506802215176,-0.5065486857577234
-3.9745,0.4408910299368829,-0.2734226408440398
-3.974,0.4195506802215176,0.002089957690313421
-3.9735,0.3768699807907871,0.2776025562246667
-3.973,0.3448594562177392,0.5319218779486851
-3.9725,0.3235191065023739,0.7650479228623686
-3.972,0.1954770082101822,0.8710143069140429
-3.9715,-0.4020527838200457,0.4683420475176805
-3.971,-1.020922925565639,-0.09327978795619347
-3.9705,-1.362368521011484,-0.4641621321370536
-3.97,-1.020922925565639,-0.3158091944647096
-3.9695,-0.5087545323968721,-0.400582301706049
-3.969,-0.423393133535411,-0.7290780922662394
-3.9685,0.142126133921769,-0.2204394488182027
-3.968,0.3768699807907871,0.1504428953626575
-3.9675,0.4942419042252961,0.5107286011383502
-3.967,0.5689331282290746,0.7968378380778709
-3.9665,0.5902734779444399,0.7650479228623686
-3.966,0.7183155762366316,0.3411823866556712
-3.9655,0.6863050516635838,0.08686306493165288
-3.965,0.5796033030867573,-0.02969995752518888
-3.9645,0.4835717293676135,-0.1356663415768632
-3.964,0.4195506802215176,-0.2734226408440398
-3.9635,0.3021787567870086,-0.2416327256285375
-3.963,0.02475421048725994,0.2564092794143318
-3.9625,-0.690147504977477,0.8604176685088755
-3.962,-1.362368521011484,1.093543713422559
-3.9615,-1.949228138184029,1.093543713422559
-3.961,-1.767835165603424,0.7650479228623686
-3.9605,-1.06360362499637,0.1610395337678249
-3.96,-0.391382608962363,-0.326405832869877
-3.9595,0.07810508477567314,-0.5913217929990628
-3.959,0.3341892813600565,-0.6337083466197325
-3.9585,0.4408910299368829,-0.5171453241628908
-3.958,0.4515612047945656,-0.3052125560595421
-3.9575,0.4408910299368829,-0.05089323433552374
-3.957,0.3982103305061524,0.2140227257936621
-3.9565,0.3768699807907871,0.4789386859228479
-3.956,0.3555296310754218,0.7226613692416989
-3.9555,0.3341892813600565,0.8922075837243778
-3.955,-0.06060718837420119,0.5849050699745222
-3.9545,-0.7328282044082075,-0.02969995752518888
-3.954,-1.06360362499637,-0.4429688553267188
-3.9535,-0.8502001278427167,-0.6443049850249
-3.953,0.1101156093487211,-0.7714646458869092
-3.9525,0.8676980242441885,-0.7714646458869092
-3.952,1.241154144263081,-0.6019184314042303
-3.9515,1.19847344483235,-0.2310360872233701
-3.951,0.5155822539406614,-0.2098428104130352
-3.9505,0.1527963087794516,0.01268659609548085
-3.95,0.1207857842064037,0.309392471440169
-3.9495,0.1848068333524996,0.3729723018711736
-3.949,0.3448594562177392,0.4047622170866759
-3.9485,0.4195506802215176,0.3199891098453364
-3.948,0.3875401556484697,0.05507314971615059
-3.9475,0.3661998059331045,-0.2204394488182027
-3.947,0.3021787567870086,-0.3687923864905467
-3.9465,-0.2420001609548061,0.002089957690313421
-3.946,-1.255666772434657,0.5955017083796896
-3.9455,-2.173301810195364,1.051157159801889
-3.945,-2.888203525660101,1.104140351827727
-3.9445,-2.792171951940957,0.9557874141553824
-3.944,-1.789175515318789,0.3623756634660061
-3.9435,-0.8181896032696687,-0.252229364033705
-3.943,-0.124628237520297,-0.6337083466197325
-3.9425,0.2808384070716433,-0.7608680074817418
-3.942,0.4515612047945656,-0.6760949002404023
-3.9415,0.4942419042252961,-0.4641621321370536
-3.941,0.4729015545099309,-0.1992461720078678
-3.9405,0.4302208550792003,0.09745970333682032
-3.94,0.3875401556484697,0.3941655786815084
-3.9395,0.3555296310754218,0.6696781772158616
-3.939,0.3448594562177392,0.9134008605347127
-3.9385,0.142126133921769,0.8710143069140429
-3.938,-0.4874141826815069,0.3305857482505039
-3.9375,-1.010252750707956,-0.252229364033705
-3.937,-1.234326422719292,-0.6231117082145651
-3.9365,-0.4127229586777283,-0.7820612842920766
-3.936,0.5475927785137094,-0.8032545611024114
-3.9355,1.113112045970889,-0.6337083466197325
-3.935,1.283834843693812,-0.1674562567923655
-3.9345,1.15579274540162,0.3729723018711736
-3.934,0.9210488985326017,0.7226613692416989
-3.9335,0.4408910299368829,0.6060983467848571
-3.933,-0.2633405106701714,-0.01910331912002144
-3.9325,-0.1459685872356623,-0.01910331912002144
-3.932,-0.04993701351651855,-0.1250697031716958
-3.9315,0.1101156093487211,-0.2098428104130352
-3.931,0.3021787567870086,-0.2840192792492073
-3.9305,0.3448594562177392,-0.4429688553267188
-3.93,-0.06060718837420119,-0.1992461720078678
-3.9295,-0.9889124009925911,0.4259554938970107
-3.929,-2.013249187330125,0.9557874141553824
-3.9285,-2.76016142736791,0.8286277532933731
-3.928,-3.154957897102167,-0.2204394488182027
-3.9275,-2.301343908487556,-0.8138511995075789
-3.927,-1.223656247861609,-0.8244478379127463
-3.9265,-0.3807124341046804,-0.6019184314042303
-3.926,0.1527963087794516,-0.3475991096802118
-3.9255,0.4195506802215176,-0.1144730647665284
-3.925,0.5049120790829789,0.07626642652648545
-3.9245,0.5049120790829789,0.2140227257936621
-3.924,0.4622313796522482,0.3305857482505039
-3.9235,0.4302208550792003,0.4259554938970107
-3.923,0.3982103305061524,0.5001319627331828
-3.9225,0.3768699807907871,0.5743084315693548
-3.922,0.3128489316446912,0.55311515475902
-3.9215,-0.1886492866663929,0.1610395337678249
-3.921,-0.8608703027003992,-0.5913217929990628
-3.9205,-1.373038695869166,-1.258910012524611
-3.92,-1.06360362499637,-1.354279758171118
-3.9195,-0.2206598112394408,-1.364876396576285
-3.919,0.5049120790829789,-1.205926820498774
-3.9185,0.8890383739595538,-0.6866915386455698
-3.918,0.942389248247967,-0.1250697031716958
-3.9175,0.857027849386506,0.3199891098453364
-3.917,0.7503261008096795,0.5955017083796896
-3.9165,0.6649647019482183,0.6484849004055269
-3.916,0.6756348768059011,0.5001319627331828
-3.9155,0.5582629533713921,0.2881991946298341
-3.915,-0.03926683865883591,-0.3475991096802118
-3.9145,-0.3166913849585846,-0.6760949002404023
-3.914,-0.156638762093345,-0.5913217929990628
-3.9135,-0.1779791118087102,-0.3581957480853793
-3.913,-0.658136980404429,0.457745409112513
-3.9125,-1.554431668449771,1.284283204715573
-3.912,-2.418715831922065,1.528005888034424
-3.9115,-3.016245623952293,0.4789386859228479
-3.911,-2.621449154218035,-0.5171453241628908
-3.9105,-1.597112367880501,-0.718481453861072
-3.91,-0.6474668055467465,-0.5277419625680583
-3.9095,0.00341386077189465,-0.2310360872233701
-3.909,0.3661998059331045,0.03387987290581572
-3.9085,0.5049120790829789,0.2352160026039969
-3.908,0.5262524287983441,0.3623756634660061
-3.9075,0.4942419042252961,0.4365521323021782
-3.907,0.4408910299368829,0.4895353243280153
-3.9065,0.3982103305061524,0.5319218779486851
-3.906,0.3768699807907871,0.5425185163538525
-3.9055,0.3555296310754218,0.5425185163538525
-3.905,0.00341386077189465,0.3729723018711736
-3.9045,-0.6047861061160158,-0.2310360872233701
-3.904,-1.06360362499637,-1.046977244421262
-3.9035,-1.095614149569417,-1.746355379162313
-3.903,-0.3060212101009019,-2.17022091536901
-3.9025,0.4729015545099309,-2.064254531317336
-3.902,0.9317190733902845,-1.545019249464132
-3.9015,1.049090996824793,-0.8032545611024114
-3.901,0.9637295979633325,-0.1568596183871981
-3.9005,0.8036769750980928,0.2670059178194992
-3.9,0.6542945270905358,0.4683420475176805
-3.8995,0.6969752265212663,0.3517790250608387
-3.899,0.6863050516635838,0.2034260873884947
-3.8985,0.5902734779444399,0.1610395337678249
-3.898,0.5049120790829789,0.07626642652648545
-3.8975,0.4408910299368829,-0.02969995752518888
-3.897,0.1207857842064037,-0.252229364033705
-3.8965,-0.9782422261349084,-0.326405832869877
-3.896,-1.661133417026597,0.5849050699745222
-3.8955,-2.322684258202921,1.37965295036208
-3.895,-2.792171951940957,1.951871424241121
-3.8945,-2.749491252510227,2.184997469154805
-3.894,-1.949228138184029,1.559795803249926
-3.8935,-0.9995825758502737,0.7438546460520338
-3.893,-0.2420001609548061,0.1504428953626575
-3.8925,0.2168173579255475,-0.1250697031716958
-3.892,0.4408910299368829,-0.1674562567923655
-3.8915,0.5155822539406614,-0.05089323433552374
-3.891,0.5155822539406614,0.13984625695749
-3.8905,0.4835717293676135,0.3517790250608387
-3.89,0.4302208550792003,0.5425185163538525
-3.8895,0.3982103305061524,0.7120647308365314
-3.889,0.3661998059331045,0.849821030103708
-3.8885,0.2701682322139607,0.8604176685088755
-3.888,-0.3273615598162672,0.4471487707073456
-3.8875,-0.7861790786966207,-0.06148987274069118
-3.887,-0.8715404775580819,-0.3899856633008816
