Class_7_Listen_To_Music/Class_7_Listen_To_Music_1_AM_4.csv

#Digilent WaveForms Oscilloscope Acquisition
#Device Name: EExplorer
#Serial Number: SN:210151A2B84A
#Date Time: 2020-11-17 16:13:23.406
#Sample rate: 2000Hz
#Samples: 16384
#Trigger: Source: Channel 1 Type: Edge Condition: Rising Level: 0 V Hyst.: Auto HoldOff: 0 s
#Channel 1: Range: 1 V/div Offset: 0 V Attenuation: 1 X
#Channel 2: Range: 1 V/div Offset: 0 V Attenuation: 1 X
#Power Supplies: ON
#Fixed Supply: ON
#Voltage: 3.3 V Readback: 3.331 V
#Positive Supply: ON
#Voltage: 3.7 V Readback: 3.703 V
#Current: 500 mA Readback: 21 mA
#Negative Supply: ON
#Voltage: -3.7 V Readback: -3.712 V
#Current: -500 mA Readback: -11 mA
#Reference 1: ON
#Voltage: 0 V
#Reference 2: ON
#Voltage: 0 V

Time (s),Channel 1 (V),Channel 2 (V)
-4.096,-0.1886492866663929,-0.3899856633008816
-4.0955,0.4408910299363104,0.03387987290543021
-4.095,0.7396559259520357,0.3093924714402557
-4.0945,0.7823366253827275,0.4047622170866759
-4.094,0.7183155762366897,0.4259554938969914
-4.0935,0.632954177375093,0.4047622170866277
-4.093,0.5475927785137094,0.3517790250608387
-4.0925,0.6116138276597469,0.1186529801473672
-4.092,0.6863050516635353,-0.103876426361438
-4.0915,0.6329541773751706,-0.1886495336027004
-4.091,0.5369226036560266,-0.2310360872233701
-4.0905,0.4729015545102511,-0.2416327256282773
-4.09,0.825017324813458,0.04447651131098315
-4.0895,1.529248865420512,0.5425185163538525
-4.089,1.401206767128437,0.6484849004054305
-4.0885,0.3021787567870086,0.4683420475176805
-4.088,-0.9569018764195432,0.7968378380778709
-4.0875,-1.725154466171994,1.241896651094498
-4.087,-1.501080794160795,1.082947075016968
-4.0865,-0.8822106524157645,0.6166949851900245
-4.086,-0.316691384959099,0.2140227257940283
-4.0855,0.07810508477586724,-0.008506680714911837
-4.085,0.291508581929326,-0.07208651114585861
-4.0845,0.3768699807907094,-0.02969995752522743
-4.084,0.3875401556484309,0.08686306493177817
-4.0835,0.3448594562177392,0.2246193641988295
-4.083,0.2594980573562781,0.383568940276341
-4.0825,0.1954770082101434,0.5213252395436043
-4.082,0.1527963087794516,0.6166949851900245
-4.0815,-0.2206598112394408,0.5213252395435176
-4.081,-0.7434983792654146,-0.04029659592984547
-4.0805,-1.234326422719292,-0.792657922697244
-4.08,-1.597112367880501,-1.301296566145281
-4.0795,-1.031593100423836,-1.004590690800862
-4.079,-0.1566387620927821,-0.4217755785159695
-4.0785,0.4622313796522482,0.03387987290581572
-4.078,0.7289857510940716,0.3199891098450762
-4.0775,0.7716664505249672,0.4153588554918337
-4.077,0.6863050516635838,0.4047622170866759
-4.0765,0.5902734779445272,0.3517790250608869
-4.076,0.6222840025176625,0.1398462569570949
-4.0755,0.8143471499557753,-0.2946159176543747
-4.075,0.7716664505250448,-0.4217755785163839
-4.0745,0.6329541773750444,-0.4111789401111779
-4.074,0.4942419042252961,-0.3687923864905467
-4.0735,0.6009436528021226,-0.2204394488182027
-4.073,0.878368199101619,0.2034260873881091
-4.0725,0.1634664836371343,0.5001319627331828
-4.072,-0.8502001278427167,0.4789386859228479
-4.0715,-1.757164990744916,0.7332580076466351
-4.071,-2.365364957633235,1.231300012689726
-4.0705,-1.906547438753298,1.220703374284568
-4.07,-1.084943974712482,0.7650479228627829
-4.0695,-0.3807124341042631,0.3199891098450762
-4.069,0.07810508477567314,0.03387987290581572
-4.0685,0.3235191065023739,-0.07208651114585861
-4.068,0.408880505363835,-0.05089323433542737
-4.0675,0.408880505363835,0.05507314971615059
-4.067,0.3661998059331045,0.2034260873884947
-4.0665,0.2915085819292872,0.3623756634661314
-4.066,0.2488278824985954,0.5001319627331828
-4.0655,0.1634664836371343,0.6378882620003594
-4.065,-0.4127229586772043,1.01936724458604
-4.0645,-1.170305373573196,1.284283204715573
-4.064,-1.415719395299897,0.8922075837243778
-4.0635,-1.170305373573419,0.2776025562252257
-4.063,-0.3807124341040011,0.05507314971618914
-4.0625,0.3661998059331045,0.09745970333682032
-4.062,0.7930068002400219,0.2352160026038717
-4.0615,0.8997085488171686,0.3729723018712025
-4.061,0.825017324813458,0.4047622170866759
-4.0605,0.6969752265212663,0.383568940276341
-4.06,0.5689331282290357,0.3411823866555749
-4.0595,0.5262524287983441,0.2352160026039969
-4.059,0.7289857510943143,0.04447651131098315
-4.0585,0.7503261008096601,-0.0720865111457526
-4.058,0.6436243522328531,-0.1144730647665284
-4.0575,0.5155822539406614,-0.1462629799820306
-4.057,0.5049120790829885,-0.1462629799820306
-4.0565,0.8997085488172365,0.1292496185523226
-4.056,0.5155822539406614,0.4683420475176805
-4.0555,-0.4554036581075758,0.4895353243279961
-4.055,-1.426389570158268,0.4789386859232623
-4.0545,-2.183971985053047,0.9345941373450475
-4.054,-2.055929886760972,1.125333628637888
-4.0535,-1.287677297007035,0.7756445612671409
-4.053,-0.5514352318276028,0.3411823866556712
-4.0525,-0.02859666380115328,0.03387987290581572
-4.052,0.2701682322140674,-0.1038764263613705
-4.0515,0.3875401556484697,-0.1144730647665284
-4.051,0.4195506802215176,-0.04029659593035631
-4.0505,0.3875401556484989,0.08686306493153723
-4.05,0.3128489316446912,0.2352160026039969
-4.0495,0.2594980573562781,0.3729723018711736
-4.049,0.2488278824986051,0.4895353243279093
-4.0485,-0.0179264889440723,0.521325239543267
-4.048,-0.6794773301197943,0.2458126410091644
-4.0475,-1.106284324426712,-0.4323722169209345
-4.047,-1.351698346153461,-1.08936379804199
-4.0465,-0.9782422261349084,-1.152943628472937
-4.046,-0.1566387620940922,-0.6654982618356782
-4.0455,0.5049120790832505,-0.1038764263610429
-4.045,0.8036769750980928,0.2458126410091644
-4.0445,0.825017324813458,0.383568940276341
-4.044,0.7289857510942075,0.4577454091124745
-4.0435,0.6116138276598051,0.4153588554918433
-4.043,0.5262524287983441,0.3305857482505039
-4.0425,0.6542945270904194,-0.008506680714545578
-4.042,0.7183155762366316,-0.2946159176543747
-4.0415,0.6329541773751706,-0.3581957480853793
-4.041,0.536922603656114,-0.3581957480853793
-4.0405,0.4515612047945656,-0.3475991096800095
-4.04,0.4515612047945656,-0.1250697031716958
-4.0395,0.2381577076411069,0.1928294489830381
-4.039,-0.4554036581091479,0.224619364198868
-4.0385,-1.212986073003927,0.2670059178194992
-4.038,-1.949228138183359,0.7968378380773891
-4.0375,-2.269333383913916,1.284283204715409
-4.037,-1.618452717595867,1.104140351827727
-4.0365,-0.8288597781273515,0.6378882620003594
-4.036,-0.2099896363814088,0.2352160026037945
-4.0355,0.1741366584948169,0.01268659609548085
-4.035,0.3555296310754218,-0.04029659593035631
-4.0345,0.4195506802214594,0.02328323450059046
-4.034,0.3982103305061524,0.1504428953626575
-4.0335,0.3448594562177392,0.2987958330350016
-4.033,0.2808384070717015,0.4471487707072107
-4.0325,0.2061471830676028,0.5743084315695379
-4.032,-0.08194753808956648,0.775644561267536
-4.0315,-0.6474668055462321,0.987577329370692
-4.031,-1.042263275281227,0.7014680924306316
-4.0305,-1.287677297007705,-0.1038764263613609
-4.03,-1.106284324427265,-0.6231117082140929
-4.0295,-0.3700422592463767,-0.5171453241624957
-4.029,0.3128489316446912,-0.08268314955102604
-4.0285,0.707645401378949,0.2670059178194992
-4.028,0.8143471499557268,0.4153588554918626
-4.0275,0.7609962756673623,0.4365521323021782
-4.027,0.6756348768059011,0.4047622170866759
-4.0265,0.6009436528021905,0.3199891098454135
-4.026,0.6542945270905358,0.04447651131098315
-4.0255,0.79300680024041,-0.3581957480853793
-4.025,0.7396559259520453,-0.4853554089472728
-4.0245,0.632954177375093,-0.4853554089473788
-4.024,0.5475927785137094,-0.474758770542221
-4.0235,0.7183155762364763,-0.2522293640339074
-4.023,1.017080472251221,0.309392471440381
-4.0225,0.4408910299368829,0.5425185163538525
-4.022,-0.4340633083922978,0.36237566346617
-4.0215,-1.373038695869544,0.5743084315697211
-4.021,-1.789175515318789,0.9769806909657173
-4.0205,-1.373038695869166,0.8074344764830383
-4.02,-0.7328282044077126,0.3941655786812
-4.0195,-0.1886492866663929,0.05507314971615059
-4.019,0.1634664836371343,-0.1250697031716958
-4.0185,0.3341892813599013,-0.1462629799820114
-4.018,0.3982103305061524,-0.07208651114585861
-4.0175,0.3875401556484697,0.06566978812131802
-4.017,0.3555296310754509,0.2352160026038427
-4.0165,0.2915085819292387,0.3941655786816434
-4.016,0.1954770082101822,0.5425185163538525
-4.0155,0.07810508477577989,0.6590815388105882
-4.015,-0.2740106855282616,0.6484849004051414
-4.0145,-0.722158029550525,0.2246193641988295
-4.014,-0.9782422261346755,-0.5171453241622161
-4.0135,-1.031593100422778,-1.015187329205587
-4.013,-0.4340633083930936,-0.8244478379127463
-4.0125,0.2808384070716433,-0.3158091944647096
-4.012,0.7396559259521229,0.1398462569577213
-4.0115,0.8783681991018712,0.3941655786815084
-4.011,0.825017324813458,0.4683420475176805
-4.0105,0.6863050516637099,0.4259554938970492
-4.01,0.5689331282290746,0.3411823866556712
-4.0095,0.5582629533713921,0.1822328105781598
-4.009,0.7289857510941591,-0.08268314955078515
-4.0085,0.7183155762365345,-0.2628260024389688
-4.008,0.6116138276598051,-0.3687923864905467
-4.0075,0.48357172936773,-0.4323722169214935
-4.007,0.515582253941001,-0.4111789401109466
-4.0065,0.8890383739595538,-0.1144730647665284
-4.006,0.3875401556484697,0.1080563417419877
-4.0055,-0.5941159312591776,0.03387987290603738
-4.005,-1.522421143876723,0.2776025562246667
-4.0045,-2.280003558772191,0.9134008605347127
-4.004,-2.130621110763896,1.188913459068767
-4.0035,-1.319687821580753,0.8604176685088755
-4.003,-0.5621054066852853,0.4259554938970107
-4.0025,-0.0285966638016385,0.1186529801474347
-4.002,0.2701682322139607,-0.008506680714854012
-4.0015,0.3982103305061524,0.002089957690313421
-4.001,0.4195506802214982,0.1080563417418914
-4.0005,0.3875401556484115,0.2564092794144763
-4,0.3235191065023739,0.4153588554918433
-3.9995,0.2594980573562781,0.55311515475902
-3.999,0.2061471830678648,0.6802748156210291
-3.9985,-0.1779791118087102,0.7226613692416989
-3.998,-0.8822106524157645,0.5743084315693548
-3.9975,-1.362368521011484,-0.05089323433552374
-3.997,-1.554431668449771,-0.718481453861072
-3.9965,-0.9995825758502737,-0.7820612842920766
-3.996,-0.1352984123779797,-0.400582301706049
-3.9955,0.5155822539406614,0.05507314971615059
-3.995,0.7823366253827275,0.309392471440169
-3.9945,0.79300680024041,0.4365521323021782
-3.994,0.707645401378949,0.4471487707073456
-3.9935,0.6009436528021226,0.3623756634660061
-3.993,0.5369226036560266,0.1822328105781598
-3.9925,0.6969752265212663,0.1080563417419877
-3.992,0.7609962756673623,-0.01910331912002144
-3.9915,0.6649647019482183,-0.1886495336027004
-3.991,0.5689331282290746,-0.3581957480853793
-3.9905,0.5155822539406614,-0.474758770542221
-3.99,0.857027849386506,-0.3052125560595421
-3.9895,0.6649647019482183,0.1504428953626575
-3.989,-0.124628237520297,0.4471487707073456
-3.9885,-1.042263275281004,0.5955017083796896
-3.988,-1.885207089037933,1.051157159801889
-3.9875,-2.045259711903173,1.305476481525908
-3.987,-1.394379045584531,0.9557874141553824
-3.9865,-0.6688071552621118,0.457745409112513
-3.986,-0.1139580626626144,0.09745970333682032
-3.9855,0.2168173579255475,-0.05089323433552374
-3.985,0.3661998059331045,-0.05089323433552374
-3.9845,0.408880505363835,0.06566978812131802
-3.984,0.3875401556484697,0.2246193641988295
-3.9835,0.3341892813600565,0.3941655786815084
-3.983,0.2808384070716433,0.5637117931641874
-3.9825,0.2381577076409128,0.701468092431364
-3.982,-0.07127736323188383,0.849821030103708
-3.9815,-0.807519428411986,0.8922075837243778
-3.981,-1.351698346153801,0.383568940276341
-3.9805,-1.543761493592088,-0.3370024712750445
-3.98,-1.127624674142465,-0.4959520473525559
-3.9795,-0.3060212101009019,-0.1992461720078678
-3.979,0.3768699807907871,0.1928294489833272
-3.9785,0.7396559259519968,0.4365521323021782
-3.978,0.8143471499557753,0.5213252395435176
-3.9775,0.7396559259519968,0.4789386859228479
-3.977,0.6222840025174878,0.3729723018711736
-3.9765,0.5369226036560266,0.2352160026039969
-3.976,0.6116138276598051,-0.04029659593035631
-3.9755,0.7183155762366316,-0.3793890248957141
-3.975,0.6649647019482183,-0.5383386009732256
-3.9745,0.5902734779444399,-0.6231117082145651
-3.974,0.5582629533713921,-0.6760949002404023
-3.9735,0.8036769750980928,-0.7078848154559045
-3.973,1.113112045970889,-0.7714646458869092
-3.9725,0.3875401556484697,-1.110557074852267
-3.972,-0.5834457564006506,-1.396666311791788
-3.9715,-1.533091318734406,-0.718481453861072
-3.971,-2.045259711903173,0.2564092794143318
-3.9705,-1.607782542738184,0.55311515475902
-3.97,-0.8822106524157645,0.3941655786815084
-3.9695,-0.274010685527854,0.1610395337678249
-3.969,0.1207857842064037,0.01268659609548085
-3.9685,0.3235191065023739,-0.008506680714854012
-3.968,0.3982103305061524,0.06566978812131802
-3.9675,0.3982103305061524,0.1928294489833272
-3.967,0.3448594562177392,0.3517790250608387
-3.9665,0.2808384070716433,0.5107286011383502
-3.966,0.2274875327832301,0.6590815388106942
-3.9655,0.1527963087794516,0.7544512844572011
-3.965,-0.3166913849585846,0.7226613692416989
-3.9645,-0.839529952985034,0.2458126410091644
-3.964,-1.159635198715513,-0.4853554089473885
-3.9635,-0.9142211769888124,-0.7502713690765743
-3.963,-0.1673089369510276,-0.474758770542221
-3.9625,0.4835717293676135,-0.01910331912002144
-3.962,0.8356874996711408,0.3199891098453364
-3.9615,0.8997085488172365,0.4789386859228479
-3.961,0.79300680024041,0.4789386859228479
-3.9605,0.6436243522328531,0.3729723018711736
-3.96,0.5262524287983441,0.2140227257936621
-3.9595,0.5262524287983441,-0.01910331912002144
-3.959,0.707645401378949,-0.3581957480853793
-3.9585,0.6969752265212663,-0.5277419625680583
-3.958,0.5902734779444399,-0.5913217929990628
-3.9575,0.4835717293676135,-0.6125150698093976
-3.957,0.4622313796522482,-0.474758770542221
-3.9565,0.1634664836371343,0.04447651131098315
-3.956,-0.6367966306890638,0.4259554938970107
-3.9555,-1.479740444445993,0.5107286011383502
-3.955,-2.226652684483777,0.8074344764830383
-3.9545,-2.728150902794861,1.29487984312074
-3.954,-2.205312334768412,1.347863035146577
-3.9535,-1.234326422719292,0.8816109453192104
-3.953,-0.4554036581084589,0.4047622170866759
-3.9525,0.05676473506030786,0.09745970333682032
-3.952,0.3235191065023739,-0.008506680714854012
-3.9515,0.4195506802215176,0.04447651131098315
-3.951,0.4302208550792003,0.1716361721729923
-3.9505,0.3768699807907871,0.3305857482505039
-3.95,0.3128489316446912,0.5001319627331828
-3.9495,0.2594980573562781,0.6590815388106942
-3.949,0.1848068333524996,0.775644561267536
-3.9485,-0.274010685527854,0.8604176685088755
-3.948,-0.9675720512772257,0.6908714540261965
-3.9475,-1.405049220442214,0.02328323450064829
-3.947,-1.287677297007705,-0.4217755785163839
-3.9465,-0.5621054066852853,-0.2310360872233701
-3.946,0.1848068333524996,0.13984625695749
-3.9455,0.6542945270905358,0.4153588554918433
-3.945,0.8036769750980928,0.5319218779486851
-3.9445,0.7716664505250448,0.5001319627331828
-3.944,0.6649647019482183,0.3941655786815084
-3.9435,0.5689331282290746,0.2564092794143318
-3.943,0.5262524287983441,0.01268659609548085
-3.9425,0.7289857510943143,-0.4429688553267188
-3.942,0.7823366253827275,-0.6760949002404023
-3.9415,0.6863050516635838,-0.7078848154559045
-3.941,0.5689331282290746,-0.6866915386455698
-3.9405,0.5262524287983441,-0.6337083466197325
-3.94,0.9210488985326017,-0.1780528951975329
-3.9395,0.7396559259519968,0.4471487707073456
-3.939,-0.03926683865883591,0.6590815388106942
-3.9385,-0.9889124009925911,0.701468092431364
-3.938,-1.842526389607202,1.061753798207057
-3.9375,-1.959898313041711,1.199510097474233
-3.937,-1.330357996438436,0.7968378380778709
-3.9365,-0.6154562809736985,0.309392471440169
-3.936,-0.08194753808956648,0.002089957690313421
-3.9355,0.2274875327832301,-0.1038764263613609
-3.935,0.3661998059331045,-0.05089323433552374
-3.9345,0.408880505363835,0.09745970333682032
-3.934,0.3875401556484697,0.2881991946298341
-3.9335,0.3341892813600565,0.4895353243280153
-3.933,0.291508581929326,0.6696781772158616
-3.9325,0.2488278824985954,0.8286277532933731
-3.932,-0.01792648894347063,0.9345941373450475
-3.9315,-0.6474668055467465,0.8180311148882058
-3.931,-1.116954499284783,0.2246193641988295
-3.9305,-1.341028171296118,-0.4959520473525559
-3.93,-0.9355615267041777,-0.6866915386455698
-3.9295,-0.1032878878049318,-0.2946159176543747
-3.929,0.5475927785137094,0.1080563417419877
-3.9285,0.857027849386506,0.3729723018711736
-3.928,0.8783681991018712,0.4683420475176805
-3.9275,0.7823366253827275,0.4153588554918433
-3.927,0.6436243522328531,0.2987958330350016
-3.9265,0.5262524287983441,0.1080563417419877
-3.926,0.6222840025174878,-0.2098428104130352
-3.9255,0.7183155762366316,-0.5277419625680583
-3.925,0.6436243522328531,-0.6760949002404023
-3.9245,0.5369226036560266,-0.7502713690765743
-3.924,0.5049120790829789,-0.792657922697244
-3.9235,0.8997085488172365,-0.6231117082145651
-3.923,1.379866417412955,-0.3370024712750445
-3.9225,0.6542945270905358,-0.2310360872233701
-3.922,-0.5514352318276028,-0.1886495336027004
-3.9215,-1.618452717595867,0.3411823866556712
-3.921,-2.098610586191586,0.9134008605347127
-3.9205,-1.597112367880501,0.849821030103708
-3.92,-0.8502001278427167,0.4789386859228479
-3.9195,-0.2420001609548061,0.1610395337678249
-3.919,0.142126133921769,0.01268659609548085
-3.9185,0.3341892813600565,0.01268659609548085
-3.918,0.3982103305061524,0.1186529801471552
-3.9175,0.3982103305061524,0.2776025562246667
-3.917,0.3448594562177392,0.4683420475176805
-3.9165,0.2808384070716433,0.6378882620003594
-3.916,0.2274875327832301,0.7862411996727035
-3.9155,0.09944543449103843,0.8816109453192104
-3.915,-0.4767440078238243,0.6908714540261965
-3.9145,-1.180975548430879,0.08686306493165288
-3.914,-1.607782542738184,-0.6019184314042303
-3.9135,-1.362368521011484,-0.6231117082145651
-3.913,-0.5087545323968721,-0.1674562567923655
-3.9125,0.2701682322139607,0.2776025562246667
-3.912,0.7183155762366316,0.5319218779486851
-3.9115,0.8356874996711408,0.5743084315693548
-3.911,0.7716664505250448,0.4895353243280153
-3.9105,0.6436243522328531,0.3305857482505039
-3.91,0.5262524287983441,0.13984625695749
-3.9095,0.5582629533713921,-0.1144730647665284
-3.909,0.7289857510943143,-0.4535654937318862
-3.9085,0.707645401378949,-0.6337083466197325
-3.908,0.6649647019482183,-0.718481453861072
-3.9075,0.6009436528021226,-0.7714646458869092
-3.907,0.4729015545099309,-0.8880276683437509
-3.9065,-0.1993194615240755,-1.0999604364471
-3.906,-0.9462317015618604,-1.523825972653797
-3.9055,-1.533091318734406,-1.926498232050159
-3.905,-2.141291285622316,-1.290699927740113
-3.9045,-2.429386006779747,-0.1356663415768632
-3.904,-1.725154466172693,0.3941655786815084
-3.9035,-0.8928808272734472,0.383568940276341
-3.903,-0.2313299860971235,0.2140227257936621
-3.9025,0.1634664836371343,0.07626642652648545
-3.902,0.3661998059331045,0.03387987290581572
-3.9015,0.4195506802215176,0.06566978812131802
-3.901,0.408880505363835,0.1610395337678249
-3.9005,0.3768699807907871,0.2776025562246667
-3.9,0.3128489316446912,0.4153588554918433
-3.8995,0.2594980573562781,0.5425185163538525
-3.899,0.2168173579255475,0.627291623595192
-3.8985,-0.274010685527854,0.7544512844572011
-3.898,-0.9035510021311299,0.6484849004055269
-3.8975,-1.116954499284783,0.07626642652648545
-3.897,-1.127624674142465,-0.5913217929990628
-3.8965,-0.5407650569699201,-0.7608680074817418
-3.896,0.1741366584948169,-0.4217755785163839
-3.8955,0.6436243522328531,0.002089957690313421
-3.895,0.825017324813458,0.309392471440169
-3.8945,0.8036769750980928,0.4259554938970107
-3.894,0.6969752265212663,0.4047622170866759
-3.8935,0.5902734779444399,0.309392471440169
-3.893,0.5582629533713921,0.09745970333682032
-3.8925,0.7823366253827275,-0.4111789401112165
-3.892,0.79300680024041,-0.6443049850249
-3.8915,0.6649647019482183,-0.6654982618352349
-3.891,0.5262524287983441,-0.6443049850249
-3.8905,0.4515612047945656,-0.5489352393783931
-3.89,0.1527963087794516,-0.05089323433552374
-3.8895,-0.5087545323968721,0.4471487707073456
-3.889,-0.9995825758502737,0.5001319627331828
-3.8885,-1.426389570157579,0.6378882620003594
-3.888,-1.927887788468663,1.093543713422559
-3.8875,-1.821186039891837,1.210106735879401
-3.887,-1.148965023857831,0.775644561267536
-3.8865,-0.4767440078238243,0.2987958330350016
