Class_7_Listen_To_Music/Class_7_Listen_To_Music_Zakour_9.csv

#Digilent WaveForms Oscilloscope Acquisition
#Device Name: EExplorer
#Serial Number: SN:210151A2B84A
#Date Time: 2021-01-28 09:52:22.234
#Sample rate: 2000Hz
#Samples: 16384
#Trigger: Source: Channel 1 Type: Edge Condition: Rising Level: 0 V Hyst.: Auto HoldOff: 0 s
#Channel 1: Range: 1 V/div Offset: 0 V Attenuation: 1 X
#Channel 2: Range: 1 V/div Offset: 0 V Attenuation: 1 X
#Power Supplies: ON
#Fixed Supply: ON
#Voltage: 3.3 V Readback: 3.322 V
#Positive Supply: ON
#Voltage: 3.7 V Readback: 3.709 V
#Current: 40 mA Readback: 21 mA
#Negative Supply: ON
#Voltage: -3.7 V Readback: -3.353 V
#Current: -40 mA Readback: -10 mA
#Reference 1: ON
#Voltage: 0 V
#Reference 2: ON
#Voltage: 0 V

Time (s),Channel 1 (V),Channel 2 (V)
-4.096,0.1634664836371343,-1.121153713257435
-4.0955,0.0567647350604049,-0.9092209451542785
-4.095,-0.03926683865885532,-0.6972881770505348
-4.0945,-0.06060718837420119,-0.474758770542221
-4.094,0.3982103305057351,0.09745970333629983
-4.0935,1.219813794548385,0.8604176685094633
-4.093,1.956055859727818,1.506812611224089
-4.0925,2.18012953173895,1.729342017732403
-4.092,1.283834843693035,0.913400860534038
-4.0915,0.4302208550792003,0.1716361721729923
-4.091,-0.06060718837420119,0.01268659609548085
-4.0905,-0.2633405106702199,0.1822328105784296
-4.09,-0.3166913849585846,0.4789386859228479
-4.0895,-0.2846808603855366,0.775644561267536
-4.089,-0.231329986097172,1.040560521396481
-4.0885,-0.1993194615240755,1.231300012689736
-4.088,-0.1779791118087102,1.33726639674141
-4.0875,-0.2526703358124208,1.178316820664043
-4.087,-0.4874141826818466,0.6378882619997908
-4.0865,-0.8608703027003992,0.01268659609548085
-4.086,-1.383708870726373,-0.3370024712747264
-4.0855,-0.9782422261338215,0.05507314971681558
-4.085,0.2168173579255475,0.7862411996727035
-4.0845,1.369196242554225,1.422039503982171
-4.084,1.699971663142474,1.337266396740446
-4.0835,0.6436243522328531,0.2776025562246667
-4.083,-0.7328282044082075,-0.8774310299385835
-4.0825,-1.789175515318828,-1.735758740757232
-4.082,-1.83185621474952,-1.831128486403653
-4.0815,-1.223656247861609,-1.481439419033127
-4.081,-0.5514352318282142,-1.22712009730934
-4.0805,-0.07127736323188383,-1.05757388282643
-4.08,0.01408403562957729,-1.068170521231597
-4.0795,-0.0926177129471521,-1.057573882826439
-4.079,-0.1566387620933547,-0.9410108603694629
-4.0785,-0.1673089369510276,-0.8032545611024114
-4.078,-0.1566387620933547,-0.6549016234302023
-4.0775,0.1207857842071315,-0.2734226408433652
-4.077,0.9210488985326017,0.4683420475176805
-4.0765,1.731982187715745,1.18891345906841
-4.076,2.233480406027004,1.644568910490832
-4.0755,1.614610264281974,1.167720182258731
-4.075,0.3875401556484697,0.05507314971615059
-4.0745,-0.2846808603857307,-0.4747587705421439
-4.074,-0.4980843575391895,-0.3899856633008816
-4.0735,-0.4767440078238243,-0.04029659593035631
-4.073,-0.3807124341047677,0.3411823866553243
-4.0725,-0.274010685527854,0.6696781772158616
-4.072,-0.2099896363817582,0.9028042221295453
-4.0715,-0.1673089369510664,1.061753798206912
-4.071,-0.1993194615242502,1.029963882991179
-4.0705,-0.391382608962363,0.6166949851900245
-4.07,-0.7221580295502241,-0.008506680714285397
-4.0695,-1.244996597577033,-0.5171453241628138
-4.069,-1.30901764672307,-0.4323722169215513
-4.0685,-0.2846808603855366,0.2776025562246667
-4.068,0.9530594231063485,1.072350436612581
-4.0675,1.7213120128588,1.464426057603419
-4.067,1.059761171682476,0.7332580076468663
-4.0665,-0.2953510352442965,-0.4429688553276247
-4.066,-1.479740444445993,-1.439052865412457
-4.0655,-1.863866739322568,-1.852321763213987
-4.065,-1.394379045584958,-1.69337218713662
-4.0645,-0.7755089038389382,-1.38606967338662
-4.064,-0.2420001609548061,-1.121153713257435
-4.0635,0.05676473506003615,-1.025783967611014
-4.063,0.01408403562951907,-1.046977244421166
-4.0625,-0.04993701351651855,-0.9410108603695881
-4.062,-0.1032878878048832,-0.7820612842922211
-4.0615,-0.1246282375201903,-0.6231117082143242
-4.061,-0.007256314085787988,-0.3581957480853793
-4.0605,0.6756348768059011,0.309392471440169
-4.06,1.518578690563412,1.040560521397233
-4.0595,2.158789182023788,1.602182356870596
-4.059,2.052087433446962,1.506812611224089
-4.0585,0.835687499672247,0.4365521323031516
-4.058,-0.124628237520297,-0.3793890248957141
-4.0575,-0.4874141826815069,-0.4429688553267188
-4.057,-0.5300948821121985,-0.1462629799823005
-4.0565,-0.4340633083930936,0.2458126410091644
-4.056,-0.3166913849585846,0.5955017083796896
-4.0555,-0.2313299860972011,0.8710143069137923
-4.055,-0.1779791118087005,1.051157159801947
-4.0545,-0.1673089369510276,1.114736990232894
-4.054,-0.3060212101007758,0.8286277532936334
-4.0535,-0.583445756401097,0.2246193641982512
-4.053,-1.074273799854052,-0.4111789401112165
-4.0525,-1.501080794161358,-0.5489352393783931
-4.052,-0.8288597781261966,0.002089957691055515
-4.0515,0.4408910299368829,0.8180311148882058
-4.051,1.51857869056283,1.432636142387917
-4.0505,1.4118769419861,1.114736990233183
-4.05,0.1954770082101822,0.002089957690313421
-4.0495,-1.052933450138687,-1.089363798041932
-4.049,-1.490410619303277,-1.661582271920453
-4.0485,-1.191645723288095,-1.619195718300092
-4.048,-0.6794773301197943,-1.38606967338662
-4.0475,-0.1886492866668393,-1.174136905283464
-4.047,0.1314559590641931,-1.09996043644709
-4.0465,0.2488278824985954,-1.089363798041932
-4.046,0.1848068333525578,-1.025783967610985
-4.0455,0.05676473506022052,-0.9092209451539606
-4.045,-0.03926683865883591,-0.7714646458869092
-4.0445,-0.09261771294724913,-0.6125150698093976
-4.044,0.3021787567877461,-0.1144730647658248
-4.0435,1.113112045970889,0.6590815388106942
-4.043,1.881364635724039,1.358459673551745
-4.0425,2.158789182023536,1.644568910491005
-4.042,1.134452395686255,0.849821030103708
-4.0415,-0.3166913849585846,-0.326405832869877
-4.041,-1.052933450138017,-0.8668343915329246
-4.0405,-1.063603624996137,-0.6125150698088965
-4.04,-0.807519428411986,-0.06148987274069118
-4.0395,-0.5300948821124896,0.4789386859223564
-4.039,-0.3166913849584681,0.892207583724638
-4.0385,-0.1886492866663929,1.178316820663898
-4.038,-0.1352984123780282,1.326669758336108
-4.0375,-0.2206598112396349,1.167720182258259
-4.037,-0.4340633083930936,0.6484849004055269
-4.0365,-0.7968492535543035,0.04447651131098315
-4.036,-1.341028171295885,-0.368792386490354
-4.0355,-1.084943974711735,-0.1568596183871981
-4.035,0.07810508477567314,0.5637117931641874
-4.0345,1.262494493977369,1.252493289499444
-4.034,1.657290963712704,1.29487984312074
-4.0335,0.6542945270905358,0.309392471440169
-4.033,-0.7008176798339272,-0.8350444763168727
-4.0325,-1.831856214749947,-1.746355379162872
-4.032,-2.301343908487556,-2.360960406662024
-4.0315,-1.629122892454161,-2.053657892912448
-4.031,-0.8395299529844809,-1.576809164679297
-4.0305,-0.2313299860971235,-1.205926820498774
-4.03,-0.01792648894366472,-1.068170521231723
-4.0295,-0.07127736323191294,-0.9833974139901711
-4.029,-0.1032878878049318,-0.8880276683437509
-4.0285,-0.124628237520297,-0.792657922697244
-4.028,-0.1352984123777468,-0.6972881770504578
-4.0275,0.1207857842064037,-0.3899856633008816
-4.027,0.8997085488172365,0.3199891098453364
-4.0265,1.71064183800038,1.019367244585751
-4.026,2.233480406027567,1.496215972818921
-4.0255,1.678631313428069,1.051157159801889
-4.025,0.5689331282300838,-0.008506680713890269
-4.0245,-0.09261771294748204,-0.4959520473524596
-4.024,-0.3487019095316325,-0.3899856633008816
-4.0235,-0.3913826089623242,-0.05089323433583215
-4.023,-0.3380317346738819,0.3199891098456352
-4.0225,-0.2633405106701714,0.6484849004055269
-4.022,-0.1993194615241338,0.8922075837241561
-4.0215,-0.1673089369510567,1.061753798207047
-4.021,-0.1993194615240755,1.051157159801889
-4.0205,-0.4020527838200457,0.6060983467848571
-4.02,-0.6581369804048464,0.01268659609500861
-4.0195,-1.116954499284783,-0.5065486857577234
-4.019,-1.234326422719292,-0.4959520473525559
-4.0185,-0.2633405106710545,0.2140227257930164
-4.018,0.9530594231056497,1.019367244586387
-4.0175,1.742652362574165,1.443232780793084
-4.017,1.123782220829135,0.7438546460526698
-4.0165,-0.2206598112402948,-0.4111789401119971
-4.016,-1.159635198715513,-1.269506650929778
-4.0155,-1.191645723288532,-1.492036057438092
-4.015,-0.8075194284115687,-1.396666311791682
-4.0145,-0.3487019095316325,-1.280103289334946
-4.014,0.01408403562924732,-1.16354026687821
-4.0135,0.2168173579255572,-1.163540266878104
-4.013,0.2274875327832301,-1.163540266878104
-4.0125,0.1207857842064037,-1.004590690800593
-4.012,0.01408403562949966,-0.8032545611022379
-4.0115,-0.07127736323188383,-0.6125150698093976
-4.011,0.00341386077189465,-0.3370024712750445
-4.0105,0.6542945270899438,0.3199891098447388
-4.01,1.486568165989782,1.051157159801889
-4.0095,2.137448832308423,1.602182356870596
-4.009,2.02007690887402,1.528005888034491
-4.0085,0.739655925951036,0.4683420475168227
-4.008,-0.3166913849585846,-0.474758770542221
-4.0075,-0.6688071552617916,-0.5701285161886412
-4.007,-0.6581369804042931,-0.2310360872229557
-4.0065,-0.5087545323968721,0.2246193641988295
-4.006,-0.3487019095316325,0.627291623595192
-4.0055,-0.2313299860970652,0.9345941373452306
-4.005,-0.1673089369510276,1.135930267043229
-4.0045,-0.1673089369510276,1.199510097474233
-4.004,-0.2846808603857889,0.9028042221289959
-4.0035,-0.5621054066852853,0.2987958330350016
-4.003,-1.1062843244271,-0.3475991096802118
-4.0025,-1.533091318734018,-0.4853554089472632
-4.002,-0.7861790786966207,0.1292496185523226
-4.0015,0.4942419042252961,0.92399749893988
-4.001,1.56125938999259,1.506812611223559
-4.0005,1.42254711684256,1.125333628637021
-4,0.1848068333524996,-0.01910331912002144
-3.9995,-1.052933450138687,-1.121153713257435
-3.999,-1.447729919872945,-1.682775548731308
-3.9985,-1.148965023857831,-1.650985633515806
-3.998,-0.658136980404429,-1.396666311791788
-3.9975,-0.2099896363817582,-1.152943628472937
-3.997,0.08877525963335578,-0.9939940523954253
-3.9965,0.03542438534494258,-0.9622041371799229
-3.996,-0.06060718837420119,-0.9304142219644207
-3.9955,-0.1139580626626144,-0.8456411147230812
-3.995,-0.1459685872356623,-0.7396747306714069
-3.9945,-0.124628237520297,-0.5807251545938954
-3.994,0.3021787567870086,-0.08268314955102604
-3.9935,1.134452395686255,0.701468092431364
-3.993,1.892034810581722,1.37965295036208
-3.9925,2.212140056312201,1.676358825706768
-3.992,1.230483969405398,0.8922075837243778
-3.9915,-0.1993194615240755,-0.2734226408440398
-3.991,-0.9035510021311299,-0.8244478379127463
-3.9905,-0.9462317015618604,-0.5807251545938954
-3.99,-0.7328282044082075,-0.06148987274069118
-3.9895,-0.4874141826815069,0.457745409112513
-3.989,-0.2953510352432193,0.849821030103708
-3.9885,-0.1886492866663929,1.125333628638062
-3.988,-0.1352984123779797,1.263089927905238
-3.9875,-0.2099896363817582,1.114736990232894
-3.987,-0.4660738329661415,0.55311515475902
-3.9865,-0.839529952985034,-0.1144730647665284
-3.986,-1.373038695869166,-0.4959520473525559
-3.9855,-1.052933450138687,-0.09327978795619347
-3.985,0.1207857842064037,0.6908714540261965
-3.9845,1.305175193409177,1.369056311956912
-3.984,1.731982187716482,1.400846227172415
-3.9835,0.7396559259519968,0.4047622170866759
-3.983,-0.6367966306890638,-0.7714646458869092
-3.9825,-1.789175515318789,-1.703968825541643
-3.982,-2.301343908487556,-2.276187299420684
-3.9815,-1.725154466172693,-1.926498232050159
-3.981,-0.9462317015618604,-1.502632695843462
-3.9805,-0.2846808603855366,-1.280103289334946
-3.98,0.1634664836371343,-1.216523458903942
-3.9795,0.3235191065023739,-1.163540266878104
-3.979,0.2488278824985954,-1.025783967610927
-3.9785,0.1101156093487211,-0.8774310299385835
-3.978,-0.007256314085787988,-0.7290780922662394
-3.9775,0.1848068333524996,-0.3687923864905467
-3.977,0.9210488985326017,0.3729723018711736
-3.9765,1.710641838001117,1.082947075017392
-3.976,2.233480406027567,1.570392441655093
-3.9755,1.7213120128588,1.157123543853563
-3.975,0.7289857510943143,0.1610395337678249
-3.9745,0.08877525963335578,-0.2628260024388724
-3.974,-0.2206598112394408,-0.1992461720078678
-3.9735,-0.3166913849585846,0.06566978812131802
-3.973,-0.2953510352432193,0.383568940276341
-3.9725,-0.2526703358124887,0.6802748156210291
-3.972,-0.1993194615240755,0.9028042221295453
-3.9715,-0.1779791118087102,1.072350436612224
-3.971,-0.2099896363817582,1.072350436612224
-3.9705,-0.4127229586777283,0.6484849004055269
-3.97,-0.7328282044082075,0.04447651131098315
-3.9695,-1.298347471865388,-0.4535654937318862
-3.969,-1.415719395299897,-0.3475991096802118
-3.9685,-0.391382608962363,0.3729723018711736
-3.968,0.8783681991018712,1.135930267043229
-3.9675,1.731982187716482,1.559795803249926
-3.967,1.187803269974668,0.9028042221295453
-3.9665,-0.156638762093345,-0.2840192792492073
-3.966,-1.405049220442214,-1.333086481360783
-3.9655,-1.938557963326346,-1.873515040024322
-3.965,-1.522421143876723,-1.725162102351978
-3.9645,-0.839529952985034,-1.47084278062796
-3.964,-0.274010685527854,-1.216523458903942
-3.9635,0.04609456020262521,-1.046977244421262
-3.963,0.07810508477567314,-1.036380606016095
-3.9625,0.01408403562957729,-0.9516074987747555
-3.962,-0.04993701351651855,-0.8138511995075789
-3.9615,-0.09261771294724913,-0.6654982618352349
-3.961,-0.007256314085787988,-0.4429688553267188
-3.9605,0.6329541773751706,0.1716361721729923
-3.96,1.475897991132099,0.9028042221295453
-3.9595,2.137448832308423,1.485619334413754
-3.959,2.105438307735375,1.485619334413754
-3.9585,0.9957401225363802,0.5107286011383502
-3.958,0.1314559590640864,-0.2204394488182027
-3.9575,-0.274010685527854,-0.3052125560595421
-3.957,-0.391382608962363,-0.06148987274069118
-3.9565,-0.3593720843893152,0.2670059178194992
-3.956,-0.2846808603855366,0.5849050699745222
-3.9555,-0.2206598112394408,0.8392243916985406
-3.955,-0.1779791118087102,1.019367244586387
-3.9545,-0.1673089369510276,1.104140351827727
-3.954,-0.2846808603855366,0.8392243916985406
-3.9535,-0.5300948821122373,0.2670059178194992
-3.953,-1.031593100423322,-0.3581957480853793
-3.9525,-1.501080794161358,-0.5489352393783931
-3.952,-0.8608703027003992,-0.04029659593035631
-3.9515,0.3982103305061524,0.775644561267536
-3.951,1.507908515705147,1.42203950398275
-3.9505,1.486568165989782,1.199510097474233
-3.95,0.291508581929326,0.09745970333682032
-3.9495,-1.020922925565639,-1.01518732920576
-3.949,-1.586442193022819,-1.566212526274467
-3.9485,-1.30901764672307,-1.492036057438295
-3.948,-0.7648387289812555,-1.248313374119443
-3.9475,-0.2313299860971235,-1.089363798041932
-3.947,0.08877525963335578,-1.046977244421262
-3.9465,0.0674349099179905,-1.163540266878104
-3.946,-0.02859666380115328,-1.121153713257435
-3.9455,-0.1032878878049318,-0.9728007755850904
-3.945,-0.1352984123779797,-0.8032545611024114
-3.9445,-0.124628237520297,-0.6019184314042303
-3.944,0.2701682322139607,-0.1144730647665284
-3.9435,1.091771696255524,0.6590815388106942
-3.943,1.870694460866357,1.33726639674141
-3.9425,2.233480406027567,1.676358825706768
-3.942,1.550589215135878,0.9769806909657173
-3.9415,0.5049120790829789,-0.2098428104130352
-3.941,-0.1886492866663929,-0.8244478379127463
-3.9405,-0.4340633083930936,-0.6549016234300674
-3.94,-0.4447334832507763,-0.1780528951975329
-3.9395,-0.3593720843893152,0.3199891098453364
-3.939,-0.274010685527854,0.7226613692416989
-3.9385,-0.1993194615240755,1.00877060618122
-3.938,-0.1673089369510276,1.178316820663898
-3.9375,-0.2313299860971235,1.072350436612224
-3.937,-0.4660738329661415,0.5637117931641874
-3.9365,-0.8502001278427167,-0.07208651114585861
-3.936,-1.437059745015262,-0.5489352393783931
-3.9355,-1.223656247861609,-0.3899856633008816
-3.935,-0.03926683865883591,0.383568940276341
-3.9345,1.187803269974668,1.157123543853563
-3.934,1.646620788855021,1.29487984312074
-3.9335,0.6756348768059011,0.3623756634660061
-3.933,-0.6688071552621118,-0.7714646458869092
-3.9325,-1.682473766741963,-1.608599079895136
-3.932,-1.703814116457328,-1.788741932782983
-3.9315,-1.138294849000148,-1.661582271920973
-3.931,-0.5087545323968721,-1.492036057438295
-3.9305,-0.04993701351651855,-1.407262950196955
-3.93,0.1207857842064037,-1.354279758171118
-3.9295,0.07810508477567314,-1.227120097309109
-3.929,0.00341386077189465,-1.046977244421262
-3.9285,-0.06060718837420119,-0.8562377531282487
-3.928,-0.1032878878049318,-0.6866915386455698
-3.9275,0.08877525963335578,-0.3475991096802118
-3.927,0.8356874996711408,0.383568940276341
-3.9265,1.657290963712704,1.125333628638062
-3.926,2.212140056312201,1.623375633680931
-3.9255,1.742652362574165,1.241896651094903
-3.925,0.6116138276598051,0.13984625695749
-3.9245,-0.1032878878049318,-0.4217755785163839
-3.924,-0.3807124341046804,-0.3370024712750445
-3.9235,-0.4127229586777283,0.01268659609548085
-3.923,-0.3487019095316325,0.4047622170866759
-3.9225,-0.274010685527854,0.7438546460520338
-3.922,-0.2099896363817582,0.9981739677760521
-3.9215,-0.1673089369510276,1.167720182258731
-3.921,-0.1886492866663929,1.167720182258731
-3.9205,-0.3593720843893152,0.7650479228623686
-3.92,-0.6794773301197943,0.1186529801471552
-3.9195,-1.255666772434657,-0.4535654937318862
-3.919,-1.490410619303675,-0.4429688553267188
-3.9185,-0.5407650569699201,0.2140227257936621
-3.918,0.7503261008096795,0.9981739677760521
-3.9175,1.625280439139656,1.443232780793084
-3.917,1.091771696255524,0.7862411996727035
-3.9165,-0.2099896363817582,-0.3687923864905467
-3.916,-1.415719395299897,-1.375473034981453
-3.9155,-1.83185621474952,-1.831128486403653
-3.915,-1.362368521011484,-1.598002441489969
-3.9145,-0.722158029550525,-1.258910012524611
-3.914,-0.2206598112394408,-1.078767159636765
-3.9135,0.1101156093487211,-1.036380606016095
-3.913,0.2274875327832301,-1.089363798041932
-3.9125,0.1634664836371343,-1.004590690800593
-3.912,0.05676473506030786,-0.8562377531282487
-3.9115,-0.03926683865883591,-0.7078848154559045
-3.911,-0.01792648894347063,-0.4853554089473885
-3.9105,0.5582629533713921,0.13984625695749
-3.91,1.390536592270638,0.9028042221295453
-3.9095,2.073427783162327,1.506812611224089
-3.909,2.020076908873914,1.496215972818921
-3.9085,0.7503261008096795,0.4895353243280153
-3.908,-0.4980843575391895,-0.5489352393783931
-3.9075,-0.9142211769888124,-0.7502713690765743
-3.907,-0.8502001278427167,-0.400582301706049
-3.9065,-0.6154562809736985,0.08686306493165288
-3.906,-0.4020527838200457,0.5319218779486851
-3.9055,-0.2420001609548061,0.8604176685088755
-3.905,-0.156638762093345,1.082947075017392
-3.9045,-0.1352984123779797,1.178316820663898
-3.904,-0.2526703358124887,0.92399749893988
-3.9035,-0.5087545323968721,0.3411823866556712
-3.903,-0.9889124009925911,-0.3052125560595421
-3.9025,-1.415719395299897,-0.5171453241628908
-3.902,-0.7648387289812555,0.03387987290581572
-3.9015,0.4729015545099309,0.8392243916985406
-3.901,1.550589215135878,1.464426057603419
-3.9005,1.550589215135878,1.167720182258731
-3.9,0.3555296310754218,0.05507314971615059
-3.8995,-0.9782422261349084,-1.05757388282643
-3.899,-1.789175515318789,-1.778145294377815
-3.8985,-1.565101843307454,-1.809935209593318
-3.898,-0.9782422261349084,-1.566212526274467
-3.8975,-0.4020527838200457,-1.333086481360783
-3.897,-0.03926683865883591,-1.216523458903942
-3.8965,-0.03926683865883591,-1.258910012524611
-3.896,-0.1032878878049318,-1.174136905283272
-3.8955,-0.1352984123779797,-0.9939940523954253
-3.895,-0.1459685872356623,-0.792657922697244
-3.8945,-0.124628237520297,-0.6019184314042303
-3.894,0.3021787567870086,-0.09327978795619347
-3.8935,1.145122570543937,0.6696781772158616
-3.893,1.902704985439405,1.347863035146577
-3.8925,2.244150580885249,1.655165548896433
-3.892,1.35852606769759,0.9028042221295453
-3.8915,0.02475421048725994,-0.2628260024388724
-3.891,-0.6688071552621118,-0.8032545611024114
-3.8905,-0.7755089038389382,-0.5807251545938954
-3.89,-0.6367966306890638,-0.09327978795619347
-3.8895,-0.4447334832507763,0.3941655786815084
-3.889,-0.2846808603855366,0.775644561267536
-3.8885,-0.1886492866663929,1.040560521396722
-3.888,-0.1459685872356623,1.188913459069066
-3.8875,-0.2099896363817582,1.082947075017392
-3.887,-0.4554036581084589,0.5743084315693548
-3.8865,-0.8288597781273515,-0.08268314955102604
