Class_7_Listen_To_Music/Class_7_Listen_To_Music_Suko_1.csv

#Digilent WaveForms Oscilloscope Acquisition
#Device Name: EExplorer
#Serial Number: SN:210151A2B84A
#Date Time: 2020-10-20 13:22:34.117
#Sample rate: 2000Hz
#Samples: 16384
#Trigger: Source: Channel 1 Type: Edge Condition: Rising Level: 0 V Hyst.: Auto HoldOff: 0 s
#Channel 1: Range: 1 V/div Offset: 0 V
#Channel 2: Range: 1 V/div Offset: 0 V

Time (s),Channel 1 (V),Channel 2 (V)
-4.0960000000000001,-0.53009488211223732,-1.0893637980419322
-4.0955000000000004,-0.59411593125827511,-1.1317503516625633
-4.0949999999999998,-0.67947733012032807,-1.174136905283744
-4.0945,-1.2663369472923398,-1.6933721871364757
-4.0940000000000003,-1.2556667724346668,-1.6085990798952132
-4.0934999999999997,-1.0956141495692233,-1.3330864813605035
-4.093,-0.88221065241576446,-1.0257839676109275
-4.0925000000000002,-0.13529841237865903,-0.26282600243956633
-4.0919999999999996,0.92104889853334904,0.68027481562159775
-4.0914999999999999,1.742652362574165,1.3054764815259077
-4.0910000000000002,1.9133751602970874,1.2101067358794007
-4.0904999999999996,1.3905365922699779,0.51072860113782015
-4.0899999999999999,0.66496470194821833,-0.072086511145858609
-4.0895000000000001,0.05676473506030786,-0.38998566330088158
-4.0890000000000004,-0.32736155981591786,-0.46416213213698615
-4.0884999999999998,-0.50875453239687207,-0.37938902489571413
-4.0880000000000001,-0.5621054066852853,-0.22043944881820265
-4.0875000000000004,-0.57277558154295838,-0.029699957525362364
-4.0869999999999997,-0.58344575640074758,0.11865298014715518
-4.0865,-0.69014750497747701,0.11865298014715518
-4.0860000000000003,-0.69014750497747701,0.21402272579357534
-4.0854999999999997,-0.63679663068899584,0.35177902506094472
-4.085,-0.5621054066852853,0.46834204751768049
-4.0845000000000002,-0.50875453239692059,0.53192187794862722
-4.0839999999999996,-0.29535103524261763,0.3305857482502918
-4.0834999999999999,0.36619980593310447,0.097459703336820316
-4.0830000000000002,1.1878032699746677,0.37297230187117358
-4.0824999999999996,1.7960032368629373,0.89220758372478259
-4.0819999999999999,2.1907997065968359,1.33726639674141
-4.0815000000000001,1.9453856848701352,1.2524932895000704
-4.0810000000000004,1.155792745402338,0.57430843156997169
-4.0804999999999998,0.3768699807907871,-0.15685961838719809
-4.0800000000000001,-0.16730893695102761,-0.70788481545590454
-4.0795000000000003,-0.46607383296586979,-1.0363806060157961
-4.0789999999999997,-0.58344575640066998,-1.1741369052832813
-4.0785,-0.6047861061160158,-1.1847335436884392
-4.0780000000000003,-0.57277558154299713,-1.1317503516626501
-4.0774999999999997,-0.51942470725449663,-1.0257839676107925
-4.077,-0.4554036581084589,-0.87743102993858346
-4.0765000000000002,-0.37004225924707546,-0.71848145386121653
-4.0759999999999996,-0.40205278381983223,-0.68669153864532884
-4.0754999999999999,-0.16730893695102761,-0.42177557851638392
-4.0750000000000002,0.72898575109431429,0.54251851635385251
-4.0744999999999996,1.326515543124581,1.220703374284597
-4.0739999999999998,1.3691962425552726,1.2524932895000704
-4.0735000000000001,0.92104889853260175,0.75445128445720111
-4.0730000000000004,0.30217875678757156,0.1292496185528913
-4.0724999999999998,-0.19931946152407554,-0.28401927924920728
-4.0720000000000001,-0.48741418268150688,-0.41117894011121647
-4.0715000000000003,-0.60478610611590899,-0.32640583286995412
-4.0709999999999997,-0.6154562809736791,-0.14626297998184754
-4.0705,-0.59411593125833329,0.055073149716150585
-4.0700000000000003,-0.67947733011971667,0.11865298014709735
-4.0694999999999997,-0.70081767983511123,0.20342608738863921
-4.069,-0.64746680554674652,0.36237566346600614
-4.0685000000000002,-0.58344575640065055,0.50013196273318283
-4.0679999999999996,-0.54076505696983268,0.58490506997439695
-4.0674999999999999,-0.44473348325077627,0.4471487707073456
-4.0670000000000002,0.078105084775673142,0.044476511310983152
-4.0664999999999996,0.89970854881783813,0.097459703337273287
-4.0659999999999998,1.5612593899935603,0.59550170837968963
-4.0655000000000001,2.0414172585892789,1.1253336286380615
-4.0650000000000004,1.9773962094432413,1.2736865663102703
-4.0644999999999998,1.2624944939784462,0.71206473083653143
-4.0640000000000001,0.4835717293676135,-0.019103319120021445
-4.0635000000000003,-0.09261771294672505,-0.61251506980885795
-4.0629999999999997,-0.42339313353554681,-0.99399405239558913
-4.0625,-0.57277558154296804,-1.1741369052832717
-4.0620000000000003,-0.60478610611598671,-1.2271200973090608
-4.0614999999999997,-0.58344575640062146,-1.1953301820935391
-4.0609999999999999,-0.55143523182760279,-1.1211537132574345
-4.0605000000000002,-0.48741418268150688,-0.98339741399025782
-4.0599999999999996,-0.38071243410454458,-0.80325456110217053
-4.0594999999999999,-0.23132998609712346,-0.53833860097322561
-4.0590000000000002,0.36619980593310447,0.11865298014715518
-4.0585000000000004,1.1344523956855559,0.849821030103043
-4.0579999999999998,1.5505892151358776,1.0723504366122243
-4.0575000000000001,1.0490909968247935,0.086863064931652884
-4.0570000000000004,0.56893312822951136,-0.54893523937781485
-4.0564999999999998,-0.0072563140857879876,-0.86683439153341613
-4.056,-0.39138260896236304,-0.83504447631791379
-4.0555000000000003,-0.49808435753909247,-0.54893523937865329
-4.0549999999999997,-0.55143523182766097,-0.28401927924902415
-4.0545,-0.61545628097369853,-0.082683149551026042
-4.0540000000000003,-0.61545628097369853,0.10805634174181428
-4.0534999999999997,-0.70081767983525678,0.11865298014707808
-4.0529999999999999,-0.80751942841198598,0.033879872905815719
-4.0525000000000002,-0.76483872898125549,0.16103953376782493
-4.0519999999999996,-0.65813698040434165,0.34118238665580619
-4.0514999999999999,-0.5621054066852853,0.48953532432801533
-4.0510000000000002,-0.3700422592469978,0.52132523954351762
-4.0505000000000004,0.30217875678639722,0.28819919463004617
-4.0499999999999998,1.1771330951169852,0.43655213230217815
-4.0495000000000001,1.7319821877164825,0.72266136924169888
-4.0490000000000004,1.6252804391397531,0.7968378380778034
-4.0484999999999998,1.4012067671280197,1.0829470750172567
-4.048,1.0704313465401587,0.93459413734504748
-4.0475000000000003,0.49424190422582015,0.29879583303557977
-4.0469999999999997,-0.007256314086088826,-0.34759910968062624
-4.0465,-0.33803173467394987,-0.80325456110241145
-4.0460000000000003,-0.50875453239671686,-1.0681705212313564
-4.0454999999999997,-0.57277558154296804,-1.1529436284729273
-4.0449999999999999,-0.57277558154296804,-1.1423469900677694
-4.0445000000000002,-0.53009488211223732,-1.0575738828264298
-4.0439999999999996,-0.48741418268143893,-0.9304142219642858
-4.0434999999999999,-0.41272295867772835,-0.78206128429207655
-4.0430000000000001,-0.28468086038553664,-0.55953187778356051
-4.0425000000000004,0.21681735792509138,0.023283234500118266
-4.0419999999999998,0.95305942310564973,0.74385464605203377
-4.0415000000000001,1.5825997397089255,1.3054764815259077
-4.0410000000000004,1.8813646357237677,1.5174092496290634
-4.0404999999999998,1.4652278162737371,1.0511571598012051
-4.04,0.71831557623663156,0.29879583303500157
-4.0395000000000003,-0.45540365810739125,-0.78206128429109367
-4.0389999999999997,-1.1169544992848408,-1.2695066509296724
-4.0385,-1.1809755484308786,-1.1529436284729369
-4.0380000000000003,-1.1169544992848408,-0.87743102993883404
-4.0374999999999996,-0.89288082727326279,-0.44296885532635255
-4.0369999999999999,-0.69014750497747701,-0.04029659593035631
-4.0365000000000002,-0.74349837926589024,0.065669788121318018
-4.0359999999999996,-0.74349837926583207,0.21402272579382592
-4.0354999999999999,-0.67947733011979428,0.39416557868150842
-4.0350000000000001,-0.61545628097369853,0.5637117931641874
-4.0345000000000004,-0.55143523182766097,0.65908153881060749
-4.0339999999999998,-0.41272295867772835,0.34118238665567124
-4.0335000000000001,0.11011560934872107,-0.25222936403370499
-4.0330000000000004,0.93171907338953719,-0.29461591765433615
-4.0324999999999998,1.6252804391400733,0.27760255622524493
-4.032,2.0840979580200099,0.9134008605347127
-4.0315000000000003,1.860024286008878,1.0193672445862907
-4.0309999999999997,1.0917716962548447,0.48953532432742741
-4.0305,0.34485945621773917,-0.15685961838719809
-4.0300000000000002,-0.17797911180823467,-0.67609490023993002
-4.0294999999999996,-0.476744007823931,-1.0045906908007467
-4.0289999999999999,-0.59411593125833329,-1.1741369052832717
-4.0285000000000002,-0.61545628097369853,-1.2377167357142764
-4.0279999999999996,-0.57277558154290009,-1.1953301820935198
-4.0274999999999999,-0.4980843575391895,-1.0999604364470996
-4.0270000000000001,-0.43406330839309365,-0.97280077558509037
-4.0265000000000004,-0.37004225924705603,-0.83504447631803913
-4.0259999999999998,-0.06060718837420119,-0.47475877054222104
-4.0255000000000001,0.69697522652126631,0.26700591781949923
-4.0250000000000004,1.4758979911313905,0.97698069096507156
-4.0244999999999997,1.9240453351544886,1.2313000126892826
-4.024,1.6146102642819735,0.73325800764686633
-4.0235000000000003,0.89970854881788664,0.15044289536318745
-4.0229999999999997,0.22748753278280312,-0.2416327256286821
-4.0225,-0.24200016095480609,-0.40058230170604903
-4.0220000000000002,-0.50875453239662938,-0.35819574808541788
-4.0214999999999996,-0.61545628097400906,-0.20984281041315089
-4.0209999999999999,-0.95690187641954316,-0.33700247127504446
-4.0205000000000002,-1.4477299198729445,-0.64430498502489997
-4.0199999999999996,-1.4370597450152134,-0.62311170821446871
-4.0194999999999999,-1.3837088707268488,-0.51714532416289083
-4.0190000000000001,-1.1169544992847826,-0.1674562567923655
-4.0185000000000004,-0.77550890383924875,0.27760255622426189
-4.0179999999999998,-0.6047861061160158,0.50013196273318283
-4.0175000000000001,-0.44473348325077627,0.47893868592284788
-4.0170000000000003,0.06743490991752471,0.033879872906220521
-4.0164999999999997,0.91037872367548212,-0.093279787955856161
-4.016,1.5292488654205123,0.27760255622466667
-4.0155000000000003,1.3265155431247264,0.80743447648255651
-4.0149999999999997,0.50491207908240632,1.1253336286376856
-4.0145,-0.12462823752029703,0.71206473083653143
-4.0140000000000002,-0.47674400782350401,0.033879872906432573
-4.0134999999999996,-0.61545628097371796,-0.55953187778393632
-4.0129999999999999,-0.63679663068906378,-0.97280077558509037
-4.0125000000000002,-0.61545628097369853,-1.1847335436884392
-4.0119999999999996,-0.56210540668524644,-1.2589100125245916
-4.0114999999999998,-0.51942470725455481,-1.2377167357142764
-4.0110000000000001,-0.41272295867772835,-1.1105570748522671
-4.0105000000000004,-0.32736155981634485,-0.96220413718005782
-4.0099999999999998,-0.29535103524321932,-0.83504447631791379
-4.0095000000000001,0.014084035629577295,-0.44296885532671876
-4.0090000000000003,0.75032610080900997,0.31998910984464252
-4.0084999999999997,1.4118769419864496,1.0087706061816339
-4.008,1.9027049854394047,1.4644260576034194
-4.0075000000000003,1.8706944608663858,1.4326361423879459
-4.0069999999999997,1.1878032699739787,0.79683783807728303
-4.0065,0.43022085507920033,0.15044289536265748
-4.0060000000000002,-0.14596858723566233,-0.18864953360270037
-4.0054999999999996,-0.48741418268163306,-0.2840192792491591
-4.0049999999999999,-0.62612645583138127,-0.2310360872233701
-4.0045000000000002,-0.64746680554674652,-0.082683149551026042
-4.0039999999999996,-0.62612645583143944,0.097459703336907053
-4.0034999999999998,-0.69014750497747701,0.19282944898332721
-4.0030000000000001,-0.80751942841198598,0.2246193641988295
-4.0025000000000004,-0.9782422261347532,0.13984625695756714
-4.0019999999999998,-1.46907026958831,-0.27342264084403983
-4.0015000000000001,-1.2983474718653876,-0.072086511145858609
-4.0010000000000003,-1.3196878215807335,0.25640927941403302
-4.0004999999999997,-1.9278877884693233,0.62729162359544255
-4,-2.6534596787910831,0.90280422212954525
-3.9994999999999998,-2.6107789793603526,1.1995100974742332
-3.9990000000000001,-1.46907026958831,1.4644260576034194
-3.9984999999999999,-0.11395806266261441,1.6233756336809306
-3.9980000000000002,0.4835717293676135,1.1889134590690658
-3.9975000000000001,0.40888050536383502,0.37297230187117358
-3.9969999999999999,0.13145595906408636,-0.34759910968021185
-3.9965000000000002,-0.15663876209334496,-0.82444783791274634
-3.996,-0.35937208438931517,-1.0787671596367647
-3.9954999999999998,-0.47674400782382426,-1.1741369052832717
-3.9950000000000001,-0.51942470725455481,-1.1635402668781043
-3.9944999999999999,-0.4980843575391895,-1.0575738828264298
-3.9940000000000002,-0.46607383296614152,-0.9304142219644207
-3.9935,-0.42339313353541097,-0.80325456110241145
-3.9929999999999999,-0.28468086038553664,-0.57012851618872795
-3.9925000000000002,0.35552963107542179,0.044476511310983152
-3.992,1.1984734448323504,0.775644561267536
-3.9914999999999998,1.8706944608663567,1.3266697583362426
-3.9910000000000001,2.0947681328776921,1.4644260576034194
-3.9904999999999999,1.5505892151358776,0.94519077575021493
-3.9900000000000002,0.75032610080967954,0.27760255622466667
-3.9895,0.08877525963335578,-0.19924617200786782
-3.9889999999999999,-0.33803173467394987,-0.38998566330088158
-3.9885000000000002,-0.55143523182760279,-0.36879238649054674
-3.988,-0.61545628097369853,-0.2310360872233701
-3.9874999999999998,-0.61545628097369853,-0.029699957525188878
-3.9870000000000001,-0.61545628097369853,0.12924961855232261
-3.9864999999999999,-0.73282820440820751,0.15044289536265748
-3.9860000000000002,-0.72215802955052499,0.26700591781949923
-3.9855,-0.65813698040442903,0.42595549389701071
-3.9849999999999999,-0.58344575640065055,0.55311515475901996
-3.9845000000000002,-0.50875453239687207,0.60609834678485708
-3.984,-0.17797911180871023,0.24581264100916439
-3.9834999999999998,0.08877525963335578,-0.52774196256805828
-3.9830000000000001,0.81434714995577528,-0.13566634157686319
-3.9824999999999999,1.3798664174129553,0.60609834678485708
-3.9820000000000002,1.8920348105817222,1.2524932895000704
-3.9815,1.9880663843008659,1.4962159728189213
-3.9809999999999999,1.3158453682668594,0.87101430691404291
-3.9805000000000001,0.4835717293676135,0.012686596095480854
-3.98,-0.11395806266261441,-0.64430498502489997
-3.9794999999999998,-0.44473348325077627,-1.0469772444212624
-3.9790000000000001,-0.59411593125833329,-1.227120097309109
-3.9784999999999999,-0.61545628097369853,-1.2695066509297783
-3.9780000000000002,-0.5621054066852853,-1.2059268204987741
-3.9775,-0.48741418268150688,-1.0787671596367647
-3.9769999999999999,-0.41272295867772835,-0.9304142219644207
-3.9765000000000001,-0.38071243410468042,-0.792657922697244
-3.976,-0.039266838658835915,-0.34759910968021185
-3.9754999999999998,0.73965592595199681,0.42595549389701071
-3.9750000000000001,1.4012067671283206,1.0935437134225592
-3.9744999999999999,1.7106418380011172,1.4962159728189213
-3.9740000000000002,1.5185786905628296,1.2736865663104053
-3.9735,0.857027849386506,0.58490506997452218
-3.9729999999999999,0.20614718306786484,0.023283234500648287
-3.9725000000000001,-0.25267033581248871,-0.30521255605954212
-3.972,-0.4980843575391895,-0.38998566330088158
-3.9714999999999998,-0.59411593125833329,-0.30521255605954212
-3.9710000000000001,-0.6047861061160158,-0.13566634157686319
-3.9704999999999999,-0.59411593125833329,0.065669788121318018
-3.9700000000000002,-0.67947733011979428,0.12924961855232261
-3.9695,-0.71148785469284226,0.23521600260399694
-3.9689999999999999,-0.65813698040442903,0.40476221708667587
-3.9685000000000001,-0.6047861061160158,0.5637117931641874
-3.968,-0.5621054066852853,0.66967817721586165
-3.9674999999999998,-0.44473348325077627,0.62729162359519197
-3.9670000000000001,0.046094560202625215,0.076266426526485451
-3.9664999999999999,0.86769802424418851,-0.70788481545590454
-3.9660000000000002,1.5505892151358776,-1.0257839676109275
-3.9655,1.4652278162744163,-0.78206128429207655
-3.9649999999999999,1.1024418711132067,-0.34759910968021185
-3.9645000000000001,0.65429452709053582,-0.1674562567923655
-3.964,0.046094560202625215,-0.47475877054222104
-3.9634999999999998,-0.31669138495858457,-0.76086800748174177
-3.9630000000000001,-0.44473348325077627,-0.94101086036958814
-3.9624999999999999,-0.5621054066852853,-1.1423469900677694
-3.9620000000000002,-0.6047861061160158,-1.2801032893349458
-3.9615,-0.59411593125833329,-1.3012965661452807
-3.9609999999999999,-0.54076505696992005,-1.2589100125246109
-3.9605000000000001,-0.47674400782382426,-1.1529436284729369
-3.96,-0.38071243410468042,-1.0045906908005926
-3.9594999999999998,-0.22065981123944084,-0.77146464588690922
-3.9590000000000001,0.43022085507920033,-0.082683149551026042
-3.9584999999999999,1.2198137945477157,0.72266136924169888
-3.9580000000000002,1.8493541111509915,1.3160731199310751
-3.9575,1.9560558597278179,1.4220395039827496
-3.9569999999999999,1.3371857179822249,0.86041766850887547
-3.9565000000000001,0.5689331282290746,0.21402272579366208
-3.956,-0.017926488943470625,-0.19924617200786782
-3.9554999999999998,-0.39138260896236304,-0.36879238649054674
-3.9550000000000001,-0.5621054066852853,-0.32640583286987701
-3.9544999999999999,-0.61545628097369853,-0.15685961838719809
-3.9540000000000002,-0.6047861061160158,0.055073149716150585
-3.9535,-0.65813698040442903,0.18223281057815977
-3.9529999999999998,-0.72215802955052499,0.26700591781949923
-3.9525000000000001,-0.67947733011979428,0.43655213230217815
-3.952,-0.62612645583138127,0.59550170837968963
-3.9514999999999998,-0.5621054066852853,0.71206473083653143
-3.9510000000000001,-0.40205278382004572,0.72266136924169888
-3.9504999999999999,0.28083840707164331,0.47893868592284788
-3.9500000000000002,1.1664629202593024,0.47893868592284788
-3.9495,1.742652362574165,0.75445128445720111
-3.9489999999999998,1.7960032368625782,1.0829470750173917
-3.9485000000000001,1.657290963712704,1.3584596735517449
-3.948,1.0277506471094282,0.89220758372437781
-3.9474999999999998,-0.26334051067017139,-0.4535654937318862
-3.9470000000000001,-0.79684925355430347,-1.1423469900677694
-3.9464999999999999,-0.99958257585027366,-1.4920360574382947
-3.9460000000000002,-1.0102527507079564,-1.6085990798951362
-3.9455,-0.80751942841198598,-1.4708427806279598
-3.9449999999999998,-0.62612645583138127,-1.3012965661452807
-3.9445000000000001,-0.55143523182760279,-1.2059268204987741
-3.944,-0.4980843575391895,-1.0999604364470996
-3.9434999999999998,-0.44473348325077627,-0.97280077558509037
-3.9430000000000001,-0.32736155981626724,-0.76086800748174177
-3.9424999999999999,0.22748753278323011,-0.15685961838719809
-3.9420000000000002,0.94238924824796699,0.62729162359519197
-3.9415,1.625280439139656,1.2524932895000704
-3.9409999999999998,1.9453856848701352,1.4750226960085864
-3.9405000000000001,1.4972383408474643,0.99817396777605205
-3.9399999999999999,0.75032610080967954,0.37297230187117358
-3.9394999999999998,0.11011560934872107,-0.04029659593035631
-3.9390000000000001,-0.31669138495858457,-0.2310360872233701
-3.9384999999999999,-0.51942470725455481,-0.2310360872233701
-3.9380000000000002,-0.59411593125833329,-0.10387642636136091
-3.9375,-0.59411593125833329,0.076266426526485451
-3.9369999999999998,-0.63679663068906378,0.20342608738849466
-3.9365000000000001,-0.79684925355430347,0.17163617217299235
-3.9359999999999999,-0.78617907869662074,0.28819919462983412
-3.9355000000000002,-0.70081767983515975,0.4471487707073456
-3.9350000000000001,-0.61545628097369853,0.58490506997452218
-3.9344999999999999,-0.58344575640065055,0.69087145402619654
-3.9340000000000002,-0.57277558154296804,0.69087145402619654
-3.9335,-0.55143523182760279,0.023283234500648287
-3.9329999999999998,-0.27401068552785401,-0.78206128429207655
-3.9325000000000001,0.18480683335249956,-0.65490162343006741
-3.9319999999999999,0.87836819910187125,0.097459703336820316
-3.9315000000000002,1.0811015213978414,0.46834204751768049
-3.931,0.69697522652126631,0.17163617217299235
-3.9304999999999999,0.20614718306786484,-0.31580919446470956
-3.9300000000000002,-0.18864928666639288,-0.76086800748174177
-3.9295,-0.58344575640065055,-1.2059268204987741
-3.9289999999999998,-1.2983474718653876,-1.9794814240759964
