Class_7_Listen_To_Music/Class_7_Listen_To_Music_Basim_11.csv

#Digilent WaveForms Oscilloscope Acquisition
#Device Name: EExplorer
#Serial Number: SN:210151A2B84A
#Date Time: 2021-02-03 11:06:36.798
#Sample rate: 2000Hz
#Samples: 16384
#Trigger: Source: Channel 1 Type: Edge Condition: Rising Level: 0 V Hyst.: Auto HoldOff: 0 s
#Channel 1: Range: 1 V/div Offset: 0 V Attenuation: 1 X
#Channel 2: Range: 1 V/div Offset: 0 V Attenuation: 1 X
#Power Supplies: ON
#Fixed Supply: ON
#Voltage: 3.3 V Readback: 3.322 V
#Positive Supply: ON
#Voltage: 3.7 V Readback: 3.726 V
#Current: 40 mA Readback: 19 mA
#Negative Supply: ON
#Voltage: -3.7 V Readback: -3.357 V
#Current: -40 mA Readback: -13 mA
#Reference 1: ON
#Voltage: 0 V
#Reference 2: ON
#Voltage: 0 V

Time (s),Channel 1 (V),Channel 2 (V)
-4.096,0.3128489316446912,0.13984625695749
-4.0955,0.1207857842065784,0.2564092794142258
-4.095,-0.5514352318280589,0.4047622170861265
-4.0945,-1.052933450138687,-0.1992461720078678
-4.094,-1.266336947292146,-0.5913217929987062
-4.0935,-1.522421143876451,-0.06148987274035386
-4.093,-1.223656247861609,0.309392471440169
-4.0925,-0.6794773301202892,0.309392471440169
-4.092,-0.1886492866661018,0.2034260873884176
-4.0915,0.1314559590640864,0.1186529801471552
-4.091,0.3021787567870086,0.1080563417419877
-4.0905,0.3661998059331045,0.1504428953627442
-4.09,0.3661998059331045,0.2458126410091644
-4.0895,0.3555296310754218,0.3517790250608387
-4.089,0.334189281360076,0.4577454091124167
-4.0885,0.3128489316446912,0.5637117931641874
-4.088,0.3021787567870086,0.6378882620003594
-4.0875,0.2915085819293357,0.6484849004055172
-4.087,-0.06060718837480287,0.2246193641982223
-4.0865,-0.722158029550525,-0.4429688553267188
-4.086,-1.095614149569078,-0.9410108603691352
-4.0855,-0.8608703026999043,-0.888027668343404
-4.085,-0.3166913849585846,-0.5065486857577234
-4.0845,0.1421261339213517,0.01268659609500855
-4.084,0.4088805053639321,0.4577454091127444
-4.0835,0.5155822539406614,0.7120647308365314
-4.083,0.5155822539406614,0.775644561267536
-4.0825,0.4729015545099503,0.7120647308365218
-4.082,0.4942419042252961,0.701468092431364
-4.0815,0.5689331282290746,0.6908714540261965
-4.081,0.526252428798383,0.5213252395436718
-4.0805,0.4622313796522482,0.3199891098453364
-4.08,0.3875401556484697,0.13984625695749
-4.0795,0.3341892813601051,-0.008506680714719078
-4.079,0.2381577076404373,-0.01910331911975159
-4.0785,-0.2846808603855366,0.2776025562246667
-4.078,-0.7861790786961647,-0.103876426361014
-4.0775,-1.042263275281344,-0.7184814538607732
-4.077,-1.415719395299897,-0.3899856633008816
-4.0765,-1.447729919872915,0.2458126410085861
-4.076,-0.9569018764190482,0.3941655786814024
-4.0755,-0.4127229586777283,0.2776025562246667
-4.075,-0.007256314085787988,0.13984625695749
-4.0745,0.2381577076410098,0.04447651131096388
-4.074,0.3448594562177392,0.02328323450064829
-4.0735,0.3768699807907871,0.06566978812131802
-4.073,0.3661998059331142,0.1398462569574226
-4.0725,0.3448594562177392,0.2352160026039969
-4.072,0.3235191065023739,0.3305857482505039
-4.0715,0.312848931644701,0.425955493896924
-4.071,0.3021787567868146,0.5001319627329611
-4.0705,0.08877525963335578,0.2564092794143318
-4.07,-0.4340633083926182,-0.3581957480848202
-4.0695,-0.8608703027006321,-0.9304142219647676
-4.069,-1.116954499284783,-1.311893204550448
-4.0685,-0.6688071552621118,-1.258910012524611
-4.068,-0.113958062662265,-0.7926579226967428
-4.0675,0.2701682322139607,-0.2416327256285375
-4.067,0.4622313796522482,0.2458126410091644
-4.0665,0.5155822539406323,0.5849050699746861
-4.066,0.4835717293676135,0.7650479228623686
-4.0655,0.4622313796522482,0.7862411996727035
-4.065,0.5475927785136318,0.6272916235953365
-4.0645,0.5475927785137094,0.5001319627331828
-4.064,0.4835717293676135,0.383568940276341
-4.0635,0.408880505363903,0.2670059178196053
-4.063,0.3555296310753733,0.1716361721729442
-4.0625,0.3021787567870086,0.1186529801471552
-4.062,-0.08194753808921712,0.4259554938967312
-4.0615,-0.8288597781277494,0.3941655786808435
-4.061,-1.26633694729234,-0.3370024712750445
-4.0605,-1.522421143876723,-1.121153713257435
-4.06,-1.373038695868671,-1.43905286541213
-4.0595,-0.8288597781273515,-1.078767159636765
-4.059,-0.3060212101009019,-0.5807251545938954
-4.0585,0.06743490991765083,-0.1780528951978991
-4.058,0.2701682322139607,0.06566978812131802
-4.0575,0.3555296310754218,0.1822328105781598
-4.057,0.3768699807907677,0.2246193641987909
-4.0565,0.3661998059331045,0.2246193641988295
-4.056,0.3341892813600565,0.2034260873884947
-4.0555,0.3235191065023836,0.182232810578179
-4.055,0.3128489316446815,0.1610395337678249
-4.0545,0.3021787567870086,0.1610395337678249
-4.054,0.2168173579256251,0.002089957690457972
-4.0535,-0.3700422592475898,-0.6125150698100048
-4.053,-1.020922925565639,-1.280103289334946
-4.0525,-1.1062843244271,-1.619195718300304
-4.052,-0.6261264558308669,-1.364876396575948
-4.0515,-0.06060718837420119,-0.9939940523954253
-4.051,0.3128489316446912,-0.5595318777835605
-4.0505,0.4942419042251311,-0.1144730647669331
-4.05,0.5369226036560266,0.2246193641988295
-4.0495,0.5049120790829789,0.4047622170866759
-4.049,0.462231379652287,0.5001319627330961
-4.0485,0.60094365280221,0.701468092431441
-4.048,0.6969752265212663,0.7862411996727035
-4.0475,0.6329541773752287,0.6908714540262832
-4.047,0.5369226036559296,0.5849050699744065
-4.0465,0.4302208550792003,0.457745409112513
-4.046,0.3555296310754897,0.3411823866557773
-4.0455,0.1848068333519464,0.4047622170867722
-4.045,-0.423393133535411,0.5107286011383502
-4.0445,-0.8928808272734472,-0.1144730647665284
-4.044,-1.298347471865514,-0.9304142219648448
-4.0435,-1.437059745015262,-1.396666311791788
-4.043,-0.9995825758502737,-1.110557074852267
-4.0425,-0.4660738329666269,-0.5701285161892194
-4.042,-0.04993701351651855,-0.08268314955102604
-4.0415,0.2168173579255475,0.2458126410091644
-4.041,0.3341892813599498,0.4259554938968468
-4.0405,0.3768699807907774,0.5001319627332022
-4.04,0.3661998059331045,0.5213252395435176
-4.0395,0.3448594562177586,0.5107286011383598
-4.039,0.3235191065023642,0.478938685922819
-4.0385,0.3128489316446912,0.4471487707073456
-4.038,0.3021787567870183,0.4153588554918722
-4.0375,0.2915085819290252,0.3305857482500316
-4.037,-0.03926683865883591,-0.1886495336027004
-4.0365,-0.4980843575391895,-0.9304142219644207
-4.036,-0.6581369804041282,-1.492036057438112
-4.0355,-0.3273615598162672,-1.290699927740113
-4.035,0.142126133921769,-0.9833974139902578
-4.0345,0.462231379651957,-0.7502713690767864
-4.034,0.5796033030867573,-0.4323722169215513
-4.0335,0.5796033030867573,-0.1780528951975329
-4.033,0.5155822539407195,0.00208995769014958
-4.0325,0.451561204794585,0.1504428953627346
-4.032,0.4729015545099309,0.2352160026039969
-4.0315,0.5582629533713145,0.3411823866555749
-4.031,0.5369226036559587,0.3517790250608194
-4.0305,0.4622313796522482,0.3305857482505039
-4.03,0.3982103305062106,0.3093924714401882
-4.0295,0.3448594562176712,0.2881991946298726
-4.029,0.2701682322139607,0.3305857482505039
-4.0285,-0.1779791118087102,0.457745409112513
-4.028,-0.658136980404594,-0.06148987274121161
-4.0275,-0.839529952985034,-0.6337083466197325
-4.027,-1.191645723288561,-0.2628260024388724
-4.0265,-1.212986073003907,0.3199891098448064
-4.026,-0.7968492535543035,0.4471487707073456
-4.0255,-0.3273615598162672,0.3729723018711736
-4.025,0.03542438534461262,0.2881991946299112
-4.0245,0.2381577076410001,0.2564092794143607
-4.024,0.3341892813600565,0.2881991946298341
-4.0235,0.3661998059330753,0.3623756634659387
-4.023,0.3555296310754024,0.4577454091126094
-4.0225,0.3341892813600565,0.5637117931641874
-4.022,0.3235191065023836,0.6590815388106075
-4.0215,0.3128489316446815,0.7332580076469145
-4.021,0.3021787567870086,0.7862411996727035
-4.0205,0.07810508477567314,0.4895353243280153
-4.02,-0.5194247072549042,-0.1780528951980823
-4.0195,-0.9035510021311299,-0.7820612842920766
-4.019,-0.9889124009925911,-0.9304142219644207
-4.0185,-0.5194247072549818,-0.6125150698096867
-4.018,0.00341386077189465,-0.3052125560595421
-4.0175,0.3448594562177392,0.01268659609548085
-4.017,0.4835717293674874,0.3093924714398991
-4.0165,0.5049120790829594,0.510728601138408
-4.016,0.4835717293676135,0.5743084315693548
-4.0155,0.4515612047945947,0.5213252395435658
-4.015,0.4942419042252961,0.4153588554917469
-4.0145,0.4942419042252961,0.309392471440169
-4.014,0.4515612047946044,0.2246193641989066
-4.0135,0.4302208550791615,0.2246193641988102
-4.013,0.3875401556484697,0.2034260873884947
-4.0125,0.3448594562177392,0.1186529801471552
-4.012,0.01408403562899503,0.2987958330348763
-4.0115,-0.6261264558313813,0.1610395337678249
-4.011,-0.9569018764195432,-0.5383386009732256
-4.0105,-1.23432642271904,-1.248313374118798
-4.01,-1.127624674142465,-1.364876396576285
-4.0095,-0.6688071552621118,-0.9198175835592532
-4.009,-0.2206598112398484,-0.4005823017065213
-4.0085,0.0994454344911937,0.002089957690535086
-4.008,0.2701682322139607,0.2458126410091644
-4.0075,0.3448594562176712,0.3623756634659001
-4.007,0.3661998059330948,0.4047622170866855
-4.0065,0.3555296310754218,0.4153588554918433
-4.006,0.3341892813600565,0.3941655786815084
-4.0055,0.3128489316446815,0.3729723018711543
-4.005,0.3021787567870086,0.3517790250608387
-4.0045,0.3021787567870086,0.3411823866556712
-4.004,0.2274875327828225,0.2034260873879453
-4.0035,-0.2206598112394408,-0.400582301706049
-4.003,-0.5300948821122373,-1.05757388282643
-4.0025,-0.6154562809736209,-1.502632695843057
-4.002,-0.3273615598162672,-1.396666311791788
-4.0015,0.0674349099179905,-1.046977244421262
-4.001,0.3555296310751598,-0.5913217929994772
-4.0005,0.4835717293676329,-0.1356663415765451
-4,0.5049120790829789,0.2140227257936621
-3.9995,0.4729015545099309,0.4259554938970107
-3.999,0.4302208550792003,0.5319218779486851
-3.9985,0.4622313796522482,0.55311515475902
-3.998,0.4729015545099309,0.5425185163538525
-3.9975,0.4408910299368829,0.4683420475176805
-3.997,0.3982103305061524,0.4259554938970107
-3.9965,0.3661998059331045,0.3623756634660061
-3.996,0.3235191065023739,0.2881991946298341
-3.9955,0.1634664836371343,0.383568940276341
-3.995,-0.4660738329661415,0.4789386859228479
-3.9945,-1.020922925565639,-0.1674562567923655
-3.994,-1.330357996438436,-0.9728007755850904
-3.9935,-1.575772018165136,-1.587405803084801
-3.993,-1.223656247861609,-1.439052865412457
-3.9925,-0.658136980404429,-0.8456411147230812
-3.992,-0.1673089369510276,-0.2840192792492073
-3.9915,0.1527963087794516,0.1186529801471552
-3.991,0.3128489316446912,0.3411823866556712
-3.9905,0.3661998059331045,0.4471487707073456
-3.99,0.3768699807907871,0.4683420475176805
-3.9895,0.3555296310754218,0.4471487707073456
-3.989,0.3341892813600565,0.4153588554918433
-3.9885,0.3128489316446912,0.3729723018711736
-3.988,0.3021787567870086,0.3411823866556712
-3.9875,0.2808384070716433,0.2776025562246667
-3.987,-0.124628237520297,-0.2204394488182027
-3.9865,-0.6474668055467465,-0.9410108603695881
-3.986,-0.8608703027003992,-1.534422611058964
-3.9855,-0.658136980404429,-1.449649503817625
-3.985,-0.156638762093345,-1.131750351662602
-3.9845,0.2488278824985954,-0.8138511995075789
-3.984,0.4729015545099309,-0.4323722169215513
-3.9835,0.5369226036560266,-0.07208651114585861
-3.983,0.5262524287983441,0.1822328105781598
-3.9825,0.4729015545099309,0.2776025562246667
-3.982,0.4942419042252961,0.2246193641988295
-3.9815,0.5796033030867573,0.05507314971615059
-3.981,0.5475927785137094,0.03387987290581572
-3.9805,0.4729015545099309,0.1080563417419877
-3.98,0.3982103305061524,0.1822328105781598
-3.9795,0.3448594562177392,0.2352160026039969
-3.979,0.2594980573562781,0.3199891098453364
-3.9785,-0.2206598112394408,0.55311515475902
-3.978,-0.7755089038389382,0.06566978812131802
-3.9775,-1.127624674142465,-0.7396747306714069
-3.977,-1.51175096901904,-1.449649503817625
-3.9765,-1.437059745015262,-1.587405803084801
-3.976,-0.9035510021311299,-1.025783967610927
-3.9755,-0.3593720843893152,-0.3687923864905467
-3.975,0.03542438534494258,0.1292496185523226
-3.9745,0.2594980573562781,0.4471487707073456
-3.974,0.3555296310754218,0.6060983467848571
-3.9735,0.3768699807907871,0.6590815388106942
-3.973,0.3661998059331045,0.6590815388106942
-3.9725,0.3448594562177392,0.6166949851900245
-3.972,0.3235191065023739,0.5743084315693548
-3.9715,0.3128489316446912,0.5213252395435176
-3.971,0.3021787567870086,0.4683420475176805
-3.9705,0.09944543449103843,0.09745970333682032
-3.97,-0.4447334832507763,-0.6549016234300674
-3.9695,-0.839529952985034,-1.364876396576285
-3.969,-0.9035510021311299,-1.598002441489969
-3.9685,-0.4447334832507763,-1.269506650929778
-3.968,0.05676473506030786,-0.9516074987747555
-3.9675,0.3768699807907871,-0.6231117082145651
-3.967,0.5155822539406614,-0.2946159176543747
-3.9665,0.5369226036560266,-0.06148987274069118
-3.966,0.4942419042252961,0.07626642652648545
-3.9655,0.4622313796522482,0.1716361721729923
-3.965,0.5262524287983441,0.3517790250608387
-3.9645,0.5155822539406614,0.3623756634660061
-3.964,0.4515612047945656,0.2776025562246667
-3.9635,0.3982103305061524,0.1928294489833272
-3.963,0.3448594562177392,0.13984625695749
-3.9625,0.3021787567870086,0.1080563417419877
-3.962,-0.07127736323188383,0.3941655786815084
-3.9615,-0.7968492535543035,0.383568940276341
-3.961,-1.148965023857831,-0.326405832869877
-3.9605,-1.394379045584531,-1.089363798041932
-3.96,-1.330357996438436,-1.38606967338662
-3.9595,-0.8288597781273515,-0.9622041371799229
-3.959,-0.3273615598162672,-0.3581957480853793
-3.9585,0.04609456020262521,0.1504428953626575
-3.958,0.2594980573562781,0.5001319627331828
-3.9575,0.3555296310754218,0.6908714540261965
-3.957,0.3768699807907871,0.7862411996727035
-3.9565,0.3661998059331045,0.8074344764830383
-3.956,0.3448594562177392,0.7968378380778709
-3.9555,0.3235191065023739,0.7544512844572011
-3.955,0.3128489316446912,0.7120647308365314
-3.9545,0.3021787567870086,0.6378882620003594
-3.954,0.2594980573562781,0.4683420475176805
-3.9535,-0.1673089369510276,-0.1780528951975329
-3.953,-0.6794773301197943,-0.9728007755850904
-3.9525,-0.8288597781273515,-1.650985633515806
-3.952,-0.2099896363817582,-2.202010830584512
-3.9515,0.4302208550792003,-2.043061254507001
-3.951,0.7183155762366316,-1.417859588602123
-3.9505,0.7503261008096795,-0.8138511995075789
-3.95,0.6756348768059011,-0.3158091944647096
-3.9495,0.5475927785137094,-0.02969995752518888
-3.949,0.4622313796522482,0.09745970333682032
-3.9485,0.5262524287983441,0.2881991946298341
-3.948,0.6009436528021226,0.4047622170866759
-3.9475,0.5475927785137094,0.3305857482505039
-3.947,0.4622313796522482,0.2352160026039969
-3.9465,0.3875401556484697,0.1822328105781598
-3.946,0.3341892813600565,0.13984625695749
-3.9455,0.1848068333524996,0.2670059178194992
-3.945,-0.4127229586777283,0.4153588554918433
-3.9445,-1.031593100423322,-0.1886495336027004
-3.944,-1.490410619303675,-0.9516074987747555
-3.9435,-1.799845690176472,-1.545019249464132
-3.943,-1.383708870726849,-1.396666311791788
-3.9425,-0.7434983792658902,-0.7714646458869092
-3.942,-0.2099896363817582,-0.1462629799820306
-3.9415,0.142126133921769,0.309392471440169
-3.941,0.3128489316446912,0.5849050699745222
-3.9405,0.3768699807907871,0.7120647308365314
-3.94,0.3768699807907871,0.7544512844572011
-3.9395,0.3555296310754218,0.7438546460520338
-3.939,0.3341892813600565,0.701468092431364
-3.9385,0.3128489316446912,0.6590815388106942
-3.938,0.3021787567870086,0.5955017083796896
-3.9375,0.291508581929326,0.5001319627331828
-3.937,-0.06060718837420119,-0.02969995752518888
-3.9365,-0.5407650569699201,-0.8244478379127463
-3.936,-0.8288597781273515,-1.492036057438295
-3.9355,-0.6688071552621118,-1.492036057438295
-3.935,-0.1993194615240755,-1.184733543688439
-3.9345,0.1954770082101822,-0.8350444763179138
-3.934,0.4302208550792003,-0.4323722169215513
-3.9335,0.5049120790829789,-0.1356663415768632
-3.933,0.4942419042252961,0.05507314971615059
-3.9325,0.4515612047945656,0.1504428953626575
-3.932,0.4835717293676135,0.2670059178194992
-3.9315,0.6222840025174878,0.4365521323021782
-3.931,0.5902734779444399,0.383568940276341
-3.9305,0.5049120790829789,0.2776025562246667
-3.93,0.4302208550792003,0.2140227257936621
-3.9295,0.3555296310754218,0.1716361721729923
-3.929,0.2701682322139607,0.1822328105781598
-3.9285,-0.1993194615240755,0.3305857482505039
-3.928,-0.8715404775580819,-0.1462629799820306
-3.9275,-1.202315898146244,-0.7608680074817418
-3.927,-1.543761493592088,-0.4217755785163839
-3.9265,-1.554431668449771,0.2987958330350016
-3.926,-1.020922925565639,0.5107286011383502
-3.9255,-0.4447334832507763,0.457745409112513
-3.925,-0.01792648894347063,0.3517790250608387
-3.9245,0.2381577076409128,0.2987958330350016
-3.924,0.3448594562177392,0.3199891098453364
-3.9235,0.3768699807907871,0.3941655786815084
-3.923,0.3661998059331045,0.4895353243280153
-3.9225,0.3448594562177392,0.5955017083796896
-3.922,0.3235191065023739,0.6908714540261965
-3.9215,0.3128489316446912,0.775644561267536
-3.921,0.3021787567870086,0.8286277532933731
-3.9205,0.1741366584948169,0.627291623595192
-3.92,-0.3487019095316325,-0.008506680714854012
-3.9195,-0.6474668055467465,-0.6125150698093976
-3.919,-0.6367966306890638,-1.01518732920576
-3.9185,-0.2526703358124887,-1.01518732920576
-3.918,0.142126133921769,-0.6654982618352349
-3.9175,0.3875401556484697,-0.1886495336027004
-3.917,0.4942419042252961,0.2564092794143318
-3.9165,0.4942419042252961,0.5107286011383502
-3.916,0.4622313796522482,0.6166949851900245
-3.9155,0.4302208550792003,0.627291623595192
-3.915,0.5155822539406614,0.701468092431364
-3.9145,0.5262524287983441,0.5955017083796896
-3.914,0.4729015545099309,0.3623756634660061
-3.9135,0.408880505363835,0.1292496185523226
-3.913,0.3555296310754218,0.002089957690313421
-3.9125,0.3128489316446912,-0.06148987274069118
-3.912,-0.04993701351651855,0.2034260873884947
-3.9115,-0.7328282044082075,0.1928294489833272
-3.911,-1.052933450138687,-0.4323722169215513
-3.9105,-1.277007122150022,-0.474758770542221
-3.91,-1.405049220442214,0.13984625695749
-3.9095,-0.9995825758502737,0.3623756634660061
-3.909,-0.4767440078238243,0.2881991946298341
-3.9085,-0.04993701351651855,0.1716361721729923
-3.908,0.2061471830678648,0.09745970333682032
-3.9075,0.3341892813600565,0.08686306493165288
-3.907,0.3661998059331045,0.13984625695749
-3.9065,0.3661998059331045,0.2352160026039969
-3.906,0.3448594562177392,0.3517790250608387
-3.9055,0.3235191065023739,0.4683420475176805
-3.905,0.3128489316446912,0.5743084315693548
-3.9045,0.3021787567870086,0.6590815388106942
-3.904,0.2488278824985954,0.5955017083796896
-3.9035,-0.1886492866663929,0.05507314971615059
-3.903,-0.572775581542968,-0.5595318777835605
-3.9025,-0.7328282044082075,-0.8986243067489184
-3.902,-0.3700422592469978,-0.6231117082145651
-3.9015,0.09944543449103843,-0.3475991096802118
-3.901,0.4195506802215176,-0.05089323433552374
-3.9005,0.5369226036560266,0.2776025562246667
-3.9,0.5475927785137094,0.5001319627331828
-3.8995,0.5049120790829789,0.5849050699745222
-3.899,0.4515612047945656,0.5955017083796896
-3.8985,0.5475927785137094,0.6590815388106942
-3.898,0.6116138276598051,0.6590815388106942
-3.8975,0.5582629533713921,0.5319218779486851
-3.897,0.4835717293676135,0.4153588554918433
-3.8965,0.408880505363835,0.2776025562246667
-3.896,0.3448594562177392,0.1504428953626575
-3.8955,0.1848068333524996,0.2034260873884947
-3.895,-0.4340633083930936,0.2881991946298341
-3.8945,-0.9035510021311299,-0.3052125560595421
-3.894,-1.1062843244271,-0.9833974139902578
-3.8935,-0.9355615267041777,-1.089363798041932
-3.893,-0.5087545323968721,-0.7290780922662394
-3.8925,-0.124628237520297,-0.3158091944647096
-3.892,0.142126133921769,0.002089957690313421
-3.8915,0.291508581929326,0.2034260873884947
-3.891,0.3448594562177392,0.309392471440169
-3.8905,0.3555296310754218,0.3517790250608387
-3.89,0.3448594562177392,0.3623756634660061
-3.8895,0.3235191065023739,0.3517790250608387
-3.889,0.3128489316446912,0.3517790250608387
-3.8885,0.3021787567870086,0.3411823866556712
-3.888,0.3021787567870086,0.3411823866556712
-3.8875,0.291508581929326,0.309392471440169
-3.887,-0.06060718837420119,-0.1462629799820306
-3.8865,-0.5621054066852853,-0.8456411147230812
