Class_7_Listen_To_Music/Class_7_Listen_To_Music_1_AM_5.csv

#Digilent WaveForms Oscilloscope Acquisition
#Device Name: EExplorer
#Serial Number: SN:210151A2B84A
#Date Time: 2020-11-24 16:15:36.488
#Sample rate: 2000Hz
#Samples: 16384
#Trigger: Source: Channel 1 Type: Edge Condition: Rising Level: 0 V Hyst.: Auto HoldOff: 0 s
#Channel 1: Range: 1 V/div Offset: 0 V Attenuation: 1 X
#Channel 2: Range: 1 V/div Offset: 0 V Attenuation: 1 X
#Power Supplies: ON
#Fixed Supply: ON
#Voltage: 3.3 V Readback: 3.361 V
#Positive Supply: ON
#Voltage: 3.7 V Readback: 3.703 V
#Current: 40 mA Readback: 23 mA
#Negative Supply: ON
#Voltage: -3.7 V Readback: -3.334 V
#Current: -40 mA Readback: -6 mA
#Reference 1: ON
#Voltage: 0 V
#Reference 2: ON
#Voltage: 0 V

Time (s),Channel 1 (V),Channel 2 (V)
-4.096,0.2808384070716433,1.623375633680931
-4.0955,0.1421261339218951,1.475022696008721
-4.095,-0.3166913849589533,1.422039503982027
-4.0945,-0.722158029550525,0.627291623595192
-4.094,-0.8075194284119084,-0.2522293640329051
-4.0935,-0.220659811238713,-0.4853554089470608
-4.093,0.5796033030867573,-0.1250697031716958
-4.0925,1.177133095116442,0.2034260873881959
-4.092,1.443887466559051,0.2140227257934886
-4.0915,1.443887466559051,0.02328323450064829
-4.091,1.273164668836129,-0.2628260024388724
-4.0905,1.006410297393976,-0.5065486857579161
-4.09,0.9103787236749192,-0.718481453861072
-4.0895,0.8890383739595538,-0.792657922697244
-4.089,0.7289857510944598,-0.6231117082147193
-4.0885,0.5475927785137094,-0.3793890248957141
-4.088,0.4195506802215176,-0.1356663415768632
-4.0875,0.3448594562178071,0.08686306493145049
-4.087,0.3341892813599595,0.5637117931643801
-4.0865,0.2274875327832301,0.775644561267536
-4.086,-0.2740106855273979,0.1398462569580683
-4.0855,-0.8075194284125683,-0.4853554089478222
-4.085,-1.447729919872945,-0.9622041371799229
-4.0845,-2.098610586190994,-1.227120097308868
-4.084,-2.418715831921967,-1.24831337411926
-4.0835,-2.312014083345239,-1.046977244421262
-4.083,-1.46907026958831,-0.3370024712750445
-4.0825,-0.6688071552615974,0.5213252395441345
-4.082,-0.1032878878049318,1.199510097474233
-4.0815,0.2168173579255475,1.602182356870596
-4.081,0.3555296310752957,1.782325209758278
-4.0805,0.3661998059331045,1.803518486568777
-4.08,0.3341892813600565,1.729342017732605
-4.0795,0.2915085819293648,1.633972272086185
-4.079,0.1741366584943705,1.570392441655074
-4.0785,-0.3166913849585846,1.549199164844759
-4.078,-0.7434983792655021,0.754451284457924
-4.0775,-1.052933450138454,-0.2946159176551361
-4.077,-0.7968492535543035,-1.131750351662602
-4.0765,0.152796308778588,-1.163540266878075
-4.076,0.9423892482483551,-0.7502713690761889
-4.0755,1.369196242555273,-0.326405832869877
-4.075,1.465227816274416,-0.1356663415768632
-4.0745,1.337185717981992,-0.1992461720079738
-4.074,1.081101521397841,-0.3158091944647096
-4.0735,0.8997085488172365,-0.4323722169215513
-4.073,0.9637295979632743,-0.6972881770504963
-4.0725,0.8463576745288233,-0.6866915386455698
-4.072,0.6436243522328531,-0.5383386009732256
-4.0715,0.4835717293677591,-0.3264058328700697
-4.071,0.376869980790855,-0.1250697031713681
-4.0705,0.4515612047945656,0.2352160026039969
-4.07,0.7823366253824267,0.7438546460515711
-4.0695,0.3235191065017042,0.3729723018705761
-4.069,-0.4127229586777283,-0.2840192792492073
-4.0685,-1.202315898146244,-0.8138511995075789
-4.068,-1.949228138184456,-1.152943628473014
-4.0675,-2.418715831922065,-1.237716735714276
-4.067,-2.408045657064382,-1.121153713257435
-4.0665,-1.799845690175657,-0.5913217929982918
-4.066,-0.9035510021311299,0.2564092794143318
-4.0655,-0.2526703358124887,1.00877060618122
-4.065,0.1421261339214099,1.496215972818478
-4.0645,0.3235191065023739,1.739938656137773
-4.064,0.3768699807907871,1.803518486568777
-4.0635,0.3555296310754412,1.761131932948146
-4.063,0.3128489316446233,1.64456891049116
-4.0625,0.2381577076409128,1.528005888034424
-4.062,-0.2313299860966965,1.273686566310637
-4.0615,-0.8181896032699016,0.3623756634651099
-4.061,-1.074273799854052,-0.6231117082145651
-4.0605,-1.116954499284783,-1.38606967338662
-4.06,-0.4020527838192403,-1.587405803084377
-4.0595,0.4835717293676135,-1.121153713257435
-4.059,1.102441871113207,-0.6654982618352349
-4.0585,1.36919624255503,-0.3581957480856588
-4.058,1.369196242555273,-0.2628260024388724
-4.0575,1.177133095116985,-0.3581957480853793
-4.057,0.9423892482481805,-0.4535654937317994
-4.0565,0.9530594231056497,-0.6443049850249
-4.056,0.8783681991018712,-0.6760949002404023
-4.0555,0.6863050516637585,-0.5701285161888243
-4.055,0.5155822539405643,-0.4005823017058852
-4.0545,0.408880505363835,-0.2204394488182027
-4.054,0.3982103305061621,0.05507314971589999
-4.0535,0.7289857510941105,0.6908714540262062
-4.053,0.5049120790829789,0.701468092431364
-4.0525,-0.1032878878049318,0.04447651131098315
-4.052,-0.8608703027010786,-0.5489352393788267
-4.0515,-1.607782542738184,-1.025783967610927
-4.051,-2.280003558772191,-1.248313374119443
-4.0505,-2.418715831921939,-1.237716735714286
-4.05,-2.013249187330125,-0.8350444763179138
-4.0495,-1.084943974711735,-0.02969995752518888
-4.049,-0.3807124341053209,0.7756445612668036
-4.0485,0.067434909918204,1.33726639674168
-4.048,0.3021787567870086,1.633972272086098
-4.0475,0.3768699807907192,1.761131932947992
-4.047,0.355529631075383,1.782325209758413
-4.0465,0.3128489316446912,1.75053529454294
-4.046,0.2915085819293454,1.612778995275888
-4.0455,0.1741366584944773,1.210106735878572
-4.045,-0.1993194615240755,0.2987958330350016
-4.0445,-0.5514352318276028,-0.6549016234300674
-4.044,-0.711487854692357,-1.237716735714508
-4.0435,-0.1779791118087102,-1.492036057438295
-4.043,0.5902734779444399,-1.184733543688439
-4.0425,1.155792745401106,-0.6760949002408649
-4.042,1.411876941986003,-0.3581957480853793
-4.0415,1.401206767128321,-0.2204394488182027
-4.041,1.209143619690208,-0.2522293640336761
-4.0405,0.9530594231055818,-0.347599109680395
-4.04,0.8783681991018712,-0.5489352393783931
-4.0395,0.8890383739595441,-0.6443049850248133
-4.039,0.728985751094159,-0.5701285161885931
-4.0385,0.5582629533713921,-0.4217755785163839
-4.038,0.4195506802216438,-0.2628260024390169
-4.0375,0.3555296310756644,-0.06148987274018038
-4.037,0.6222840025174878,0.5001319627331828
-4.0365,0.6756348768059011,0.9663840525605498
-4.036,0.04609456020198472,0.447148770706671
-4.0355,-0.658136980404429,-0.2946159176543747
-4.035,-1.394379045584531,-0.9092209451540858
-4.0345,-2.109280761048618,-1.248313374119135
-4.034,-2.429386006779747,-1.311893204550448
-4.0335,-2.333354433060604,-1.089363798041932
-4.033,-1.501080794162115,-0.3475991096808865
-4.0325,-0.6794773301192799,0.5319218779493115
-4.032,-0.1139580626626144,1.220703374284568
-4.0315,0.2168173579252467,1.623375633680564
-4.031,0.3555296310754412,1.792921848163648
-4.0305,0.3768699807907871,1.835308401784279
-4.03,0.3341892813600953,1.771728571353333
-4.0295,0.2915085819292678,1.655165548896183
-4.029,0.2274875327832301,1.37965295036208
-4.0285,-0.1993194615240755,0.5849050699745222
-4.028,-0.6474668055468921,-0.4005823017067333
-4.0275,-0.807519428411986,-1.152943628472937
-4.027,-0.1139580626626144,-1.587405803084801
-4.0265,1.017080472250717,-1.322489842955856
-4.026,1.689301488285752,-0.6443049850249
-4.0255,1.881364635724039,-0.252229364033705
-4.025,1.763992712289637,-0.1674562567924426
-4.0245,1.475897991131788,-0.2416327256286628
-4.024,1.134452395686255,-0.3793890248957141
-4.0235,0.9103787236751231,-0.5383386009730811
-4.023,0.9210488985324659,-0.7396747306714069
-4.0225,0.7716664505250448,-0.7396747306714069
-4.022,0.5902734779446048,-0.6019184314043555
-4.0215,0.4408910299368053,-0.4323722169213778
-4.021,0.3555296310754218,-0.2416327256285375
-4.0205,0.4835717293676135,0.1822328105781598
-4.02,0.6969752265208199,0.6908714540258303
-4.0195,0.2061471830678648,0.2881991946298341
-4.019,-0.572775581542968,-0.3793890248957141
-4.0185,-1.362368521010765,-0.9198175835587618
-4.018,-2.109280761049269,-1.248313374119443
-4.0175,-2.44005618163743,-1.322489842955616
-4.017,-2.418715831922084,-1.195330182093722
-4.0165,-1.81051586503333,-0.6337083466189615
-4.016,-0.9035510021311299,0.2140227257936621
-4.0155,-0.2526703358130806,0.9663840525598656
-4.015,0.142126133921934,1.453829419198464
-4.0145,0.3235191065023739,1.686955464111935
-4.014,0.3661998059330657,1.76113193294804
-4.0135,0.3341892813600177,1.729342017732509
-4.013,0.291508581929326,1.623375633680931
-4.0125,0.2488278824985954,1.453829419198252
-4.012,-0.03926683865925321,0.7756445612666397
-4.0115,-0.4980843575391895,-0.2098428104130352
-4.011,-0.7861790786966207,-1.05757388282643
-4.0105,-0.6474668055468726,-1.576809164679162
-4.01,0.1848068333524996,-1.587405803084801
-4.0095,0.9317190733902845,-1.110557074852267
-4.009,1.369196242554875,-0.6654982618356396
-4.0085,1.507908515705069,-0.4429688553267188
-4.008,1.422547116843686,-0.4429688553267188
-4.0075,1.187803269974881,-0.5383386009731389
-4.007,0.9103787236749192,-0.6337083466199349
-4.0065,0.9103787236749192,-0.8562377531282487
-4.006,0.8356874996711408,-0.8244478379127463
-4.0055,0.6542945270903903,-0.6231117082143434
-4.005,0.4942419042252961,-0.3793890248957141
-4.0045,0.3768699807907871,-0.1462629799820306
-4.004,0.3661998059333762,0.1398462569580008
-4.0035,0.6649647019482183,0.701468092431364
-4.003,0.3555296310754218,0.5213252395435176
-4.0025,-0.2740106855272815,-0.1568596183865812
-4.002,-0.9675720512772257,-0.6972881770507372
-4.0015,-1.67180359188428,-1.0999604364471
-4.001,-2.312014083344657,-1.280103289334782
-4.0005,-2.429386006779408,-1.258910012524235
-4,-2.055929886760855,-0.8456411147230812
-3.9995,-1.127624674142465,-0.01910331912002144
-3.999,-0.4127229586777283,0.775644561267536
-3.9985,0.05676473506030786,1.326669758336243
-3.998,0.291508581929326,1.623375633680931
-3.9975,0.3661998059331045,1.729342017732605
-3.997,0.3555296310754218,1.70814874092227
-3.9965,0.3128489316446912,1.623375633680931
-3.996,0.2701682322139607,1.485619334413754
-3.9955,-0.04993701351651855,1.114736990232894
-3.995,-0.6261264558313813,0.1928294489833272
-3.9945,-0.9248913518464952,-0.7396747306714069
-3.994,-0.839529952985034,-1.364876396576285
-3.9935,0.04609456020262521,-1.650985633515806
-3.993,0.9317190733902845,-1.280103289334946
-3.9925,1.454557641416734,-0.5277419625680583
-3.992,1.635950613997339,-0.04029659593035631
-3.9915,1.56125938999356,0.02328323450064829
-3.991,1.326515543124542,-0.1568596183871981
-3.9905,1.038420821967111,-0.326405832869877
-3.99,0.9530594231056497,-0.4959520473525559
-3.9895,0.8997085488172365,-0.6125150698093976
-3.989,0.7183155762366316,-0.5807251545938954
-3.9885,0.5369226036560266,-0.4641621321370536
-3.988,0.408880505363835,-0.326405832869877
-3.9875,0.3661998059331045,-0.1356663415768632
-3.987,0.6542945270905358,0.4153588554918433
-3.9865,0.7289857510943143,0.6166949851900245
-3.986,0.1101156093487211,0.002089957690313421
-3.9855,-0.7328282044082075,-0.6972881770507372
-3.985,-1.554431668449771,-1.163540266878104
-3.9845,-2.269333383914508,-1.333086481360783
-3.984,-2.450726356495113,-1.237716735714276
-3.9835,-2.226652684483777,-0.8986243067489184
-3.983,-1.30901764672307,-0.09327978795619347
-3.9825,-0.5407650569699201,0.7650479228623686
-3.982,-0.02859666380115328,1.411442865577582
-3.9815,0.2594980573562781,1.771728571353275
-3.981,0.3661998059331045,1.909484870620451
-3.9805,0.3661998059331045,1.920081509025619
-3.98,0.3128489316446912,1.845905040189447
-3.9795,0.2701682322139607,1.718745379327438
-3.979,0.1527963087794516,1.506812611224089
-3.9785,-0.4020527838200457,0.7968378380778709
-3.978,-0.9248913518464952,-0.2204394488182027
-3.9775,-1.255666772434657,-1.078767159636765
-3.977,-1.1062843244271,-1.682775548731308
-3.9765,-0.1886492866663929,-1.481439419033127
-3.976,0.6756348768059011,-0.8774310299385835
-3.9755,1.209143619690033,-0.5171453241628908
-3.975,1.390536592270638,-0.3899856633008816
-3.9745,1.294505018551494,-0.4641621321370536
-3.974,1.070431346540159,-0.6019184314042303
-3.9735,0.8997085488172365,-0.7714646458869092
-3.973,0.8783681991018712,-0.9304142219644207
-3.9725,0.7289857510943143,-0.8244478379127463
-3.972,0.5582629533713921,-0.6019184314042303
-3.9715,0.4195506802215176,-0.3687923864905467
-3.971,0.3448594562177392,-0.1462629799820306
-3.9705,0.5796033030867573,0.3623756634660061
-3.97,0.8143471499557753,0.7968378380778709
-3.9695,0.1848068333524996,0.2776025562246667
-3.969,-0.6474668055467465,-0.4535654937318862
-3.9685,-1.426389570157579,-1.01518732920576
-3.968,-2.151961460479999,-1.322489842955616
-3.9675,-2.44005618163743,-1.354279758171118
-3.967,-2.418715831922065,-1.174136905283272
-3.9665,-1.746494815888059,-0.5489352393783931
-3.966,-0.8608703027003992,0.3305857482505039
-3.9655,-0.2313299860971235,1.061753798207057
-3.965,0.1527963087794516,1.528005888034424
-3.9645,0.3341892813600565,1.729342017732605
-3.964,0.3661998059331045,1.79292184816361
-3.9635,0.3448594562177392,1.739938656137773
-3.963,0.3021787567870086,1.612778995275763
-3.9625,0.2701682322139607,1.443232780793084
-3.962,-0.06060718837420119,1.284283204715573
-3.9615,-0.5834457564006506,0.8816109453192104
-3.961,-0.8502001278427167,-0.02969995752518888
-3.9605,-0.4127229586777283,-0.7714646458869092
-3.96,0.5049120790829789,-0.9833974139902578
-3.9595,1.209143619690033,-0.4429688553267188
-3.959,1.550589215135878,-0.02969995752518888
-3.9585,1.603940089424291,0.05507314971615059
-3.958,1.454557641416734,-0.1038764263613609
-3.9575,1.19847344483235,-0.3370024712750445
-3.957,0.942389248247967,-0.5383386009732256
-3.9565,0.9317190733902845,-0.7608680074817418
-3.956,0.8143471499557753,-0.7502713690765743
-3.9555,0.6222840025174878,-0.570128516188728
-3.955,0.4622313796522482,-0.3370024712750445
-3.9545,0.3555296310754218,-0.1144730647665284
-3.954,0.4195506802215176,0.2564092794143318
-3.9535,0.7823366253827275,0.9134008605347127
-3.953,0.4302208550792003,0.7438546460520338
-3.9525,-0.3166913849585846,0.02328323450064829
-3.952,-1.095614149569417,-0.5489352393783931
-3.9515,-1.821186039891837,-0.9939940523954253
-3.951,-2.386705307349017,-1.205926820498774
-3.9505,-2.44005618163743,-1.205926820498774
-3.95,-2.07727023647622,-0.8244478379127463
-3.9495,-1.138294849000148,-0.01910331912002144
-3.949,-0.423393133535411,0.7862411996727035
-3.9485,0.04609456020262521,1.33726639674141
-3.948,0.2808384070716433,1.633972272086098
-3.9475,0.3555296310754218,1.739938656137773
-3.947,0.3555296310754218,1.729342017732605
-3.9465,0.3128489316446912,1.644568910491266
-3.946,0.2808384070716433,1.485619334413754
-3.9455,0.142126133921769,1.188913459069066
-3.945,-0.3166913849585846,0.6590815388106942
-3.9445,-0.658136980404429,-0.2310360872233701
-3.944,-0.6794773301197943,-0.9728007755850904
-3.9435,0.1314559590640864,-1.290699927740113
-3.943,0.9317190733902845,-0.9728007755850904
-3.9425,1.411876941986003,-0.6231117082145651
-3.942,1.56125938999356,-0.4323722169215513
-3.9415,1.454557641416734,-0.3687923864905467
-3.941,1.209143619690033,-0.4641621321370536
-3.9405,0.9317190733902845,-0.5913217929990628
-3.94,0.8783681991018712,-0.8138511995075789
-3.9395,0.8676980242441885,-0.8456411147230812
-3.939,0.707645401378949,-0.6337083466197325
-3.9385,0.5262524287983441,-0.3793890248957141
-3.938,0.408880505363835,-0.1356663415768632
-3.9375,0.3768699807907871,0.08686306493165288
-3.937,0.8036769750980928,0.627291623595192
-3.9365,0.9103787236749192,0.7226613692416989
-3.936,0.291508581929326,0.05507314971615059
-3.9355,-0.572775581542968,-0.5277419625680583
-3.935,-1.415719395299897,-0.9833974139902578
-3.9345,-2.183971985053047,-1.237716735714276
-3.934,-2.450726356495113,-1.269506650929778
-3.9335,-2.301343908487556,-1.046977244421262
-3.933,-1.426389570157579,-0.326405832869877
-3.9325,-0.6367966306890638,0.5001319627331828
-3.932,-0.08194753808956648,1.135930267043229
-3.9315,0.2274875327832301,1.485619334413754
-3.931,0.3448594562177392,1.633972272086098
-3.9305,0.3555296310754218,1.644568910491266
-3.93,0.3235191065023739,1.559795803249926
-3.9295,0.2808384070716433,1.464426057603419
-3.929,0.0674349099179905,1.33726639674141
-3.9285,-0.5194247072545548,0.6166949851900245
-3.928,-0.9355615267041777,-0.3687923864905467
-3.9275,-1.127624674142465,-1.131750351662602
-3.927,-0.9035510021311299,-1.492036057438295
-3.9265,-0.08194753808956648,-1.110557074852267
-3.926,0.6969752265212663,-0.570128516188728
-3.9255,1.187803269974668,-0.3581957480853793
-3.925,1.337185717982225,-0.3158091944647096
-3.9245,1.241154144263081,-0.3899856633008816
-3.924,1.017080472251745,-0.4959520473525559
-3.9235,0.8783681991018712,-0.6654982618352349
-3.923,0.8997085488172365,-0.792657922697244
-3.9225,0.7503261008096795,-0.6866915386455698
-3.922,0.5689331282290746,-0.4853554089473885
-3.9215,0.4302208550792003,-0.2946159176543747
-3.921,0.3555296310754218,-0.1038764263613609
-3.9205,0.1527963087794516,0.002089957690313421
-3.92,-0.4660738329661415,0.2881991946298341
-3.9195,-0.8181896032696687,0.02328323450064829
-3.919,-1.084943974711735,-0.6019184314042303
-3.9185,-1.543761493592088,-1.110557074852267
-3.918,-2.098610586191586,-1.364876396576285
-3.9175,-2.418715831922065,-1.364876396576285
-3.917,-2.354694782775969,-1.152943628472937
-3.9165,-1.554431668449771,-0.5065486857577234
-3.916,-0.7434983792658902,0.3411823866556712
-3.9155,-0.1459685872356623,1.051157159801889
-3.915,0.1954770082101822,1.475022696008586
-3.9145,0.3448594562177392,1.676358825706768
-3.914,0.3661998059331045,1.718745379327438
-3.9135,0.3555296310754218,1.6657621873016
-3.913,0.3128489316446912,1.570392441655093
-3.9125,0.2061471830678648,1.485619334413754
-3.912,-0.3166913849585846,1.623375633680931
-3.9115,-0.7968492535543035,1.146526905448396
-3.911,-0.9782422261349084,0.1080563417419877
-3.9105,-0.8715404775580819,-0.8456411147230812
-3.91,0.03542438534494258,-1.205926820498774
-3.9095,0.8890383739595538,-0.9410108603695881
-3.909,1.379866417412955,-0.5913217929990628
-3.9085,1.51857869056283,-0.3687923864905467
-3.908,1.422547116843686,-0.3370024712750445
-3.9075,1.166462920259302,-0.3687923864905467
-3.907,0.9210488985326017,-0.400582301706049
-3.9065,0.9530594231056497,-0.5913217929990628
-3.906,0.8463576745288233,-0.5913217929990628
-3.9055,0.6542945270905358,-0.4323722169215513
-3.905,0.4942419042252961,-0.2310360872233701
-3.9045,0.3875401556484697,-0.06148987274069118
-3.904,0.4302208550792003,0.2246193641988295
-3.9035,0.7503261008096795,0.7650479228623686
-3.903,0.3448594562177392,0.4683420475176805
-3.9025,-0.4127229586777283,-0.252229364033705
-3.902,-1.159635198715513,-0.8138511995075789
-3.9015,-1.863866739322568,-1.216523458903942
-3.901,-2.3973754822067,-1.396666311791788
-3.9005,-2.429386006779747,-1.34368311976595
-3.9,-1.949228138184029,-0.8880276683437509
-3.8995,-1.031593100423322,-0.07208651114585861
-3.899,-0.3487019095316325,0.7120647308365314
-3.8985,0.08877525963335578,1.241896651094903
-3.898,0.3021787567870086,1.506812611224089
-3.8975,0.3768699807907871,1.612778995275763
-3.897,0.3661998059331045,1.591585718465428
-3.8965,0.3341892813600565,1.506812611224089
-3.896,0.2808384070716433,1.400846227172415
-3.8955,-0.01792648894347063,1.199510097474233
-3.895,-0.4340633083930936,1.00877060618122
-3.8945,-0.7755089038389382,0.2564092794143318
-3.894,-0.7755089038389382,-0.6231117082145651
-3.8935,-0.1139580626626144,-1.004590690800593
-3.893,0.6649647019482183,-0.6231117082145651
-3.8925,1.209143619690033,-0.1038764263613609
-3.892,1.422547116843686,0.2246193641988295
-3.8915,1.379866417412955,0.2140227257936621
-3.891,1.187803269974668,-0.06148987274069118
-3.8905,0.9637295979633325,-0.400582301706049
-3.89,0.942389248247967,-0.6866915386455698
-3.8895,0.9103787236749192,-0.792657922697244
-3.889,0.7289857510943143,-0.6231117082145651
-3.8885,0.5369226036560266,-0.3687923864905467
-3.888,0.408880505363835,-0.1038764263613609
-3.8875,0.3555296310754218,0.1822328105781598
-3.887,0.5902734779444399,0.7544512844572011
-3.8865,0.5049120790829789,0.8180311148882058
-3.886,-0.1459685872356623,0.1186529801471552
-3.8855,-0.8822106524157645,-0.4853554089473885
