Class_7_Listen_To_Music/Class_7_Listen_To_Music_1_SH_10.csv

#Digilent WaveForms Oscilloscope Acquisition
#Device Name: EExplorer
#Serial Number: SN:210151A2B84A
#Date Time: 2021-01-21 12:02:09.363
#Sample rate: 2000Hz
#Samples: 16384
#Trigger: Source: Channel 1 Type: Edge Condition: Rising Level: 0 V Hyst.: Auto HoldOff: 0 s
#Channel 1: Range: 1 V/div Offset: 0 V Attenuation: 1 X
#Channel 2: Range: 1 V/div Offset: 0 V Attenuation: 1 X
#Power Supplies: ON
#Fixed Supply: ON
#Voltage: 3.3 V Readback: 3.331 V
#Positive Supply: ON
#Voltage: 3.7 V Readback: 3.732 V
#Current: 40 mA Readback: 27 mA
#Negative Supply: ON
#Voltage: -3.7 V Readback: -3.566 V
#Current: -40 mA Readback: 0 A
#Reference 1: ON
#Voltage: 0 V
#Reference 2: ON
#Voltage: 0 V

Time (s),Channel 1 (V),Channel 2 (V)
-4.096,-1.191645723288561,0.4259554938970107
-4.0955,-0.5087545323974931,-0.3052125560588771
-4.095,0.05676473506063781,-0.8668343915336378
-4.0945,0.4195506802215176,-1.110557074852267
-4.094,0.5902734779442846,-1.121153713257425
-4.0935,0.6756348768058429,-0.9939940523952904
-4.093,0.6116138276598051,-0.8456411147230812
-4.0925,0.5049120790830759,-0.6654982618353987
-4.092,0.142126133921507,-0.6866915386455601
-4.0915,-0.1459685872356623,-0.6760949002404023
-4.091,0.08877525963335578,-0.1250697031716958
-4.0905,0.2488278824985178,0.3305857482505231
-4.09,0.1634664836371343,0.3517790250608387
-4.0895,0.2488278824985954,-0.2098428104130352
-4.089,-0.5087545323961831,-0.9198175835586075
-4.0885,-1.554431668449771,-1.439052865412457
-4.088,-1.842526389607202,-1.290699927740113
-4.0875,-1.255666772435191,-0.4111789401120164
-4.087,-0.4767440078232711,0.478938685923378
-4.0865,0.1314559590640864,1.061753798207057
-4.086,0.5262524287979851,1.305476481525686
-4.0855,0.7183155762366704,1.28428320471537
-4.085,0.7609962756673623,1.061753798207057
-4.0845,0.7503261008096892,0.7544512844574807
-4.084,0.7076454013789394,0.4153588554915446
-4.0835,0.6969752265212663,0.08686306493165288
-4.083,0.6969752265212663,-0.1992461720078678
-4.0825,0.6969752265212275,-0.4641621321371692
-4.082,0.6542945270905358,-0.5913217929990628
-4.0815,0.5689331282290746,-0.2840192792492073
-4.081,0.526252428798383,0.2776025562241559
-4.0805,-0.1993194615240755,0.7226613692416989
-4.08,-0.7861790786966207,0.8286277532933731
-4.0795,-0.7008176798352374,0.3093924714406412
-4.079,-0.295351035242802,-0.3475991096806745
-4.0785,0.1634664836371343,-0.8562377531282487
-4.078,0.4942419042249953,-1.152943628472667
-4.0775,0.675634876805969,-1.184733543688285
-4.077,0.7503261008096795,-1.01518732920576
-4.0765,0.7289857510943337,-0.813851199507762
-4.076,0.5475927785136705,-0.7396747306711178
-4.0755,0.5049120790829789,-0.4217755785163839
-4.075,0.5475927785137094,0.02328323450064829
-4.0745,0.6009436528019479,0.4471487707074516
-4.074,0.408880505363835,0.5637117931641874
-4.0735,-0.08194753808956648,0.05507314971615059
-4.073,0.7183155762359037,-0.3158091944643722
-4.0725,1.369196242555273,-0.9092209451540858
-4.072,0.7716664505250448,-1.121153713257435
-4.0715,-0.2313299860962112,-1.078767159636803
-4.071,-0.6688071552619564,-0.6231117082138808
-4.0705,-0.4980843575391895,0.1292496185523226
-4.07,-0.1032878878052908,0.7544512844566325
-4.0695,0.2488278824988089,1.08294707501744
-4.069,0.4835717293676135,1.135930267043229
-4.0685,0.6222840025174878,0.9981739677760521
-4.068,0.6863050516635935,0.754451284456912
-4.0675,0.6969752265212663,0.4365521323021782
-4.067,0.6863050516635838,0.1080563417419877
-4.0665,0.6756348768059011,-0.1992461720081184
-4.066,0.6756348768059011,-0.474758770542221
-4.0655,0.6542945270905358,-0.6443049850249
-4.065,0.1848068333529266,-0.3475991096804817
-4.0645,-0.7008176798351597,0.2458126410091644
-4.064,-1.479740444445993,0.7544512844572011
-4.0635,-1.778505340460835,0.9028042221294104
-4.063,-1.42638957015691,0.5107286011378105
-4.0625,-0.690147504977477,-0.08268314955102604
-4.062,-0.017926488944082,-0.6125150698089158
-4.0615,0.4408910299371256,-0.951607498774823
-4.061,0.707645401378949,-1.025783967610927
-4.0605,0.8036769750980928,-0.9410108603695881
-4.06,0.8143471499556006,-0.7608680074816647
-4.0595,0.6222840025174878,-0.6760949002404023
-4.059,0.4622313796522482,-0.474758770542221
-4.0585,0.4729015545099212,-0.08268314955138267
-4.058,0.5475927785137094,0.3517790250608387
-4.0575,0.6222840025174878,0.7332580076468663
-4.057,0.6649647019481795,0.9663840525603378
-4.0565,0.7609962756673623,0.6802748156210291
-4.056,0.6542945270905358,0.05507314971615059
-4.0555,-0.6047861061148707,-0.9092209451532088
-4.055,-1.501080794161494,-1.258910012524409
-4.0545,-1.650463242168915,-1.036380606016095
-4.054,-1.084943974712249,-0.2522293640344182
-4.0535,-0.3060212101004167,0.5743084315697693
-4.053,0.2274875327832301,1.029963882991555
-4.0525,0.5049120790829789,1.125333628638062
-4.052,0.6329541773752094,1.008770606181008
-4.0515,0.6756348768059011,0.775644561267536
-4.051,0.6756348768059011,0.4683420475176805
-4.0505,0.664964701948228,0.1610395337681044
-4.05,0.6756348768059011,-0.1250697031716958
-4.0495,0.6756348768059011,-0.3899856633008816
-4.049,0.6756348768059011,-0.6019184314040376
-4.0485,0.4729015545093292,-0.5489352393779208
-4.048,-0.1886492866663929,-0.02969995752518888
-4.0475,-1.010252750707209,0.542518516353332
-4.047,-1.490410619303627,0.9345941373449896
-4.0465,-1.437059745015262,0.8710143069140429
-4.046,-0.9355615267046338,0.2881991946303641
-4.0455,-0.2846808603850514,-0.3264058328702914
-4.045,0.2488278824985954,-0.7820612842920766
-4.0445,0.5582629533713921,-0.9728007755850904
-4.044,0.7289857510943434,-0.9410108603694243
-4.0435,0.7609962756673623,-0.7608680074817418
-4.043,0.6649647019482183,-0.6231117082145651
-4.0425,0.5155822539407973,-0.5065486857578294
-4.042,0.5155822539406614,-0.1674562567923655
-4.0415,0.5582629533713921,0.2352160026039969
-4.041,0.6116138276597566,0.6060983467845198
-4.0405,0.6542945270902349,0.8604176685087019
-4.04,0.3235191065023739,0.6696781772158616
-4.0395,0.2274875327833175,0.1292496185528141
-4.039,-0.209989636382224,-0.3475991096804335
-4.0385,-0.722158029550525,-0.5913217929990628
-4.038,-1.39437904558392,-0.9410108603692702
-4.0375,-1.373038695868574,-0.6760949002397181
-4.037,-0.722158029550525,0.07626642652648545
-4.0365,-0.1673089369510276,0.5955017083796896
-4.036,0.3128489316449533,0.934594137345115
-4.0355,0.6009436528021226,1.00877060618122
-4.035,0.6649647019482183,0.8180311148882058
-4.0345,0.6649647019482183,0.5319218779489453
-4.034,0.6542945270905358,0.2246193641988295
-4.0335,0.6436243522328531,-0.06148987274069118
-4.033,0.6542945270905262,-0.3264058328696361
-4.0325,0.6649647019481989,-0.5383386009732738
-4.032,0.6436243522328531,-0.5913217929990628
-4.0315,0.003413860772476962,-0.1462629799824354
-4.031,-0.9355615267049443,0.4577454091129082
-4.0305,-1.778505340461106,0.8922075837243778
-4.03,-2.013249187329911,0.6060983467851173
-4.0295,-1.383708870726073,0.06566978812095178
-4.029,-0.5300948821122373,-0.3370024712750445
-4.0285,0.1954770082101822,-0.5383386009732256
-4.028,0.6116138276599701,-0.6549016234300481
-4.0275,0.79300680024041,-0.6337083466197325
-4.027,0.8356874996711408,-0.5277419625680583
-4.0265,0.782336625382776,-0.4217755785164803
-4.026,0.5902734779444399,-0.4429688553267188
-4.0255,0.5475927785137094,-0.2416327256285375
-4.025,0.5689331282290552,0.07626642652619636
-4.0245,0.6009436528021517,0.3941655786817397
-4.024,0.6329541773751706,0.6484849004055269
-4.0235,0.5049120790830953,0.5955017083797378
-4.023,-0.02859666380169673,0.03387987290528565
-4.0225,-0.6261264558313813,-0.5489352393783931
-4.022,-1.191645723288047,-0.9728007755847048
-4.0215,-1.351698346153345,-0.9939940523949241
-4.021,-0.8502001278427167,-0.4429688553267188
-4.0205,-0.4020527838200457,0.02328323450064829
-4.02,-0.4767440078235428,-0.1144730647663452
-4.0195,-0.1673089369510276,0.08686306493165288
-4.019,0.1207857842064037,0.2140227257936621
-4.0185,0.3448594562175354,0.2564092794142933
-4.018,0.5689331282290746,0.2881991946298341
-4.0175,0.6436243522328531,0.1504428953626575
-4.017,0.6436243522328531,-0.06148987274049841
-4.0165,0.6436243522328627,-0.2416327256286821
-4.016,0.6542945270905358,-0.400582301706049
-4.0155,0.6436243522328627,-0.4959520473524692
-4.015,0.355529631075121,-0.1780528951969257
-4.0145,0.02475421048725994,0.4895353243280153
-4.014,-0.6901475049768269,1.082947075016852
-4.0135,-1.437059745015476,1.464426057603362
-4.013,-1.67180359188428,1.400846227172415
-4.0125,-1.170305373573196,0.7862411996727035
-4.012,-0.4660738329656078,0.1822328105777839
-4.0115,0.1207857842064037,-0.2310360872233701
-4.011,0.5155822539406614,-0.4217755785163839
-4.0105,0.7289857510941202,-0.4641621321370151
-4.01,0.8036769750980928,-0.3793890248957141
-4.0095,0.8036769750980928,-0.252229364033705
-4.009,0.7930068002404197,-0.06148987274086465
-4.0085,0.7609962756673332,0.1822328105783814
-4.008,0.7289857510943143,0.4259554938970107
-4.0075,0.7183155762366412,0.6272916235950089
-4.007,0.6863050516634382,0.743854646051658
-4.0065,0.5262524287983441,0.3305857482505039
-4.006,0.2594980573562781,-0.2840192792492073
-4.0055,-0.4233931335360224,-0.7608680074820117
-4.005,-1.095614149569417,-1.05757388282643
-4.0045,-1.095614149569417,-0.7820612842920766
-4.004,-0.594115931257848,-0.1356663415763524
-4.0035,-0.06060718837420119,0.4259554938970107
-4.003,0.3235191065023739,0.7332580076468663
-4.0025,0.5475927785135055,0.8180311148881287
-4.002,0.2061471830678648,0.2776025562246667
-4.0015,-0.124628237520297,-0.2628260024388724
-4.001,0.02475421048712406,-0.337002471274977
-4.0005,0.1527963087796554,-0.4323722169215417
-4,0.3768699807907871,-0.4217755785163839
-3.9995,0.6009436528021226,-0.3793890248957141
-3.999,0.6542945270905358,-0.4641621321370536
-3.9985,0.408880505363835,-0.3793890248957141
-3.998,-0.5941159312583333,0.2246193641988295
-3.9975,-1.533091318734406,0.8180311148882058
-3.997,-1.970568487899394,1.146526905448396
-3.9965,-1.714484291315011,1.051157159801889
-3.996,-0.9142211769888124,0.5849050699745222
-3.9955,-0.1139580626626144,0.07626642652648545
-3.995,0.4195506802215176,-0.3475991096802118
-3.9945,0.6756348768059011,-0.570128516188728
-3.994,0.79300680024041,-0.5913217929990628
-3.9935,0.8143471499557753,-0.474758770542221
-3.993,0.6436243522328531,-0.4323722169215513
-3.9925,0.3341892813600565,-0.4959520473525559
-3.992,0.3235191065023739,-0.2310360872233701
-3.9915,0.4408910299368829,0.13984625695749
-3.991,0.5582629533713921,0.5001319627331828
-3.9905,0.6329541773751706,0.7544512844572011
-3.99,0.4942419042252961,0.5213252395435176
-3.9895,0.3768699807907871,-0.1568596183871981
-3.989,-0.2526703358124887,-0.7820612842920766
-3.9885,-0.9569018764195432,-1.142346990067769
-3.988,-1.159635198715513,-1.004590690800593
-3.9875,-0.754168554123573,-0.3581957480853793
-3.987,-0.2099896363817582,0.2776025562246667
-3.9865,0.2274875327832301,0.6696781772158616
-3.986,0.4942419042252961,0.8074344764830383
-3.9855,0.6329541773751706,0.7438546460520338
-3.985,0.6756348768059011,0.5637117931641874
-3.9845,0.6649647019482183,0.3199891098453364
-3.984,0.6542945270905358,0.06566978812131802
-3.9835,0.6009436528021226,-0.2098428104130352
-3.983,0.05676473506030786,-0.9516074987747555
-3.9825,-0.124628237520297,-1.301296566145281
-3.982,-0.01792648894347063,-1.227120097309109
-3.9815,-0.4980843575391895,-0.5913217929990628
-3.981,-1.319687821580753,0.4047622170866759
-3.9805,-1.970568487899394,1.167720182258731
-3.98,-2.461396531352796,1.485619334413754
-3.9795,-2.173301810195364,1.25249328950007
-3.979,-1.244996597576974,0.5637117931641874
-3.9785,-0.391382608962363,-0.1038764263613609
-3.978,0.2488278824985954,-0.4535654937318862
-3.9775,0.6436243522328531,-0.5595318777835605
-3.977,0.8036769750980928,-0.5171453241628908
-3.9765,0.7823366253827275,-0.400582301706049
-3.976,0.5049120790829789,-0.4853554089473885
-3.9755,0.4622313796522482,-0.2840192792492073
-3.975,0.5369226036560266,0.08686306493165288
-3.9745,0.6009436528021226,0.4789386859228479
-3.974,0.6542945270905358,0.8074344764830383
-3.9735,0.5262524287983441,0.8286277532933731
-3.973,0.408880505363835,0.2034260873884947
-3.9725,0.1101156093487211,-0.5595318777835605
-3.972,-0.6794773301197943,-1.121153713257435
-3.9715,-1.330357996438436,-1.375473034981453
-3.971,-1.191645723288561,-0.9304142219644207
-3.9705,-0.6154562809736985,-0.1780528951975329
-3.97,-0.03926683865883591,0.4047622170866759
-3.9695,0.3555296310754218,0.701468092431364
-3.969,0.5796033030867573,0.7332580076468663
-3.9685,0.6756348768059011,0.5955017083796896
-3.968,0.6863050516635838,0.3623756634660061
-3.9675,0.6756348768059011,0.08686306493165288
-3.967,0.6542945270905358,-0.1780528951975329
-3.9665,0.6649647019482183,-0.3899856633008816
-3.966,0.6649647019482183,-0.5595318777835605
-3.9655,0.6649647019482183,-0.6760949002404023
-3.965,0.3555296310754218,-0.4111789401112165
-3.9645,-0.124628237520297,0.2352160026039969
-3.964,-1.020922925565639,0.5849050699745222
-3.9635,-1.949228138184029,0.309392471440169
-3.963,-1.67180359188428,0.2670059178194992
-3.9625,-0.9889124009925911,-0.09327978795619347
-3.962,-0.2420001609548061,-0.400582301706049
-3.9615,0.3768699807907871,-0.5171453241628908
-3.961,0.6863050516635838,-0.5489352393783931
-3.9605,0.7503261008096795,-0.5277419625680583
-3.96,0.7396559259519968,-0.3899856633008816
-3.9595,0.6009436528021226,-0.4217755785163839
-3.959,0.4729015545099309,-0.3581957480853793
-3.9585,0.4942419042252961,-0.01910331912002144
-3.958,0.5902734779444399,0.383568940276341
-3.9575,0.6542945270905358,0.7438546460520338
-3.957,0.6969752265212663,0.9557874141553824
-3.9565,0.7823366253827275,0.4895353243280153
-3.956,0.5262524287983441,-0.3475991096802118
-3.9555,-0.4020527838200457,-1.046977244421262
-3.955,-1.234326422719292,-1.460246142222792
-3.9545,-1.383708870726849,-1.248313374119443
-3.954,-0.8715404775580819,-0.4853554089473885
-3.9535,-0.2526703358124887,0.2140227257936621
-3.953,0.2274875327832301,0.6378882620003594
-3.9525,0.5155822539406614,0.7650479228623686
-3.952,0.6542945270905358,0.6802748156210291
-3.9515,0.6863050516635838,0.4683420475176805
-3.951,0.6756348768059011,0.1928294489833272
-3.9505,0.6542945270905358,-0.08268314955102604
-3.95,0.6436243522328531,-0.3370024712750445
-3.9495,0.6436243522328531,-0.5383386009732256
-3.949,0.6436243522328531,-0.6654982618352349
-3.9485,0.5369226036560266,-0.5913217929990628
-3.948,0.03542438534494258,-0.02969995752518888
-3.9475,-0.4127229586777283,0.5107286011383502
-3.947,-0.9569018764195432,0.8816109453192104
-3.9465,-1.031593100423322,0.849821030103708
-3.946,-0.5621054066852853,0.4365521323021782
-3.9455,0.01408403562957729,-0.02969995752518888
-3.945,0.04609456020262521,-0.7502713690765743
-3.9445,-0.09261771294724913,-1.290699927740113
-3.944,0.1741366584948169,-1.142346990067769
-3.9435,0.3341892813600565,-0.9092209451540858
-3.943,0.4942419042252961,-0.5807251545938954
-3.9425,0.6436243522328531,-0.2734226408440398
-3.942,0.6649647019482183,0.03387987290581572
-3.9415,0.6542945270905358,0.3305857482505039
-3.941,0.6542945270905358,0.6060983467848571
-3.9405,0.6542945270905358,0.8392243916985406
-3.94,0.707645401378949,0.701468092431364
-3.9395,0.7183155762366316,-0.04029659593035631
-3.939,-0.1032878878049318,-0.8456411147230812
-3.9385,-0.9142211769888124,-1.290699927740113
-3.938,-1.458400094730627,-1.417859588602123
-3.9375,-1.298347471865388,-0.9516074987747555
-3.937,-0.690147504977477,-0.1568596183871981
-3.9365,-0.09261771294724913,0.4683420475176805
-3.936,0.3341892813600565,0.7862411996727035
-3.9355,0.5689331282290746,0.8392243916985406
-3.935,0.6649647019482183,0.6908714540261965
-3.9345,0.6863050516635838,0.4471487707073456
-3.934,0.6649647019482183,0.1610395337678249
-3.9335,0.6436243522328531,-0.1250697031716958
-3.933,0.6436243522328531,-0.3581957480853793
-3.9325,0.6436243522328531,-0.5277419625680583
-3.932,0.6222840025174878,-0.5807251545938954
-3.9315,0.2381577076409128,-0.1780528951975329
-3.931,-0.007256314085787988,0.4365521323021782
-3.9305,-0.5834457564006506,0.9557874141553824
-3.93,-1.202315898146244,1.241896651094903
-3.9295,-1.26633694729234,1.104140351827727
-3.929,-0.7434983792658902,0.4895353243280153
-3.9285,-0.1352984123779797,-0.09327978795619347
-3.928,0.3235191065023739,-0.5383386009732256
-3.9275,0.5689331282290746,-0.718481453861072
-3.927,0.4622313796522482,-0.9198175835592532
-3.9265,-0.06060718837420119,-1.322489842955616
-3.926,-0.1352984123779797,-1.195330182093607
-3.9255,-0.1139580626626144,-0.8774310299385835
-3.925,0.1527963087794516,-0.2946159176543747
-3.9245,0.4729015545099309,0.3411823866556712
-3.924,0.6009436528021226,0.7544512844572011
-3.9235,0.6009436528021226,0.8816109453192104
-3.923,0.7823366253827275,0.2670059178194992
-3.9225,0.6969752265212663,-0.570128516188728
-3.922,-0.2526703358124887,-1.216523458903942
-3.9215,-1.212986073003927,-1.534422611058964
-3.921,-1.244996597576974,-1.025783967610927
-3.9205,-0.7114878546928423,-0.1462629799820306
-3.92,-0.1352984123779797,0.5425185163538525
-3.9195,0.291508581929326,0.9028042221295453
-3.919,0.5369226036560266,0.9663840525605498
-3.9185,0.6436243522328531,0.8180311148882058
-3.918,0.6756348768059011,0.5637117931641874
-3.9175,0.6649647019482183,0.2564092794143318
-3.917,0.6329541773751706,-0.05089323433552374
-3.9165,0.6222840025174878,-0.3370024712750445
-3.916,0.6222840025174878,-0.5807251545938954
-3.9155,0.6222840025174878,-0.7290780922662394
-3.915,0.3555296310754218,-0.5171453241628908
-3.9145,-0.1032878878049318,0.09745970333682032
-3.914,-0.7328282044082075,0.6802748156210291
-3.9135,-1.234326422719292,1.00877060618122
-3.913,-1.084943974711735,0.8392243916985406
-3.9125,-0.4980843575391895,0.2564092794143318
-3.912,0.07810508477567314,-0.2734226408440398
-3.9115,0.4835717293676135,-0.5913217929990628
-3.911,0.7289857510943143,-0.718481453861072
-3.9105,0.8143471499557753,-0.6760949002404023
-3.91,0.79300680024041,-0.5383386009732256
-3.9095,0.4195506802215176,-0.5595318777835605
-3.909,-0.06060718837420119,-0.8138511995075789
-3.9085,0.08877525963335578,-0.3899856633008816
-3.908,0.2274875327832301,0.03387987290581572
-3.9075,0.4302208550792003,0.5107286011383502
-3.907,0.6329541773751706,0.9134008605347127
-3.9065,1.059761171682476,0.6378882620003594
-3.906,1.038420821967111,-0.2098428104130352
-3.9055,-0.02859666380115328,-0.9939940523954253
-3.905,-1.148965023857831,-1.492036057438295
-3.9045,-1.565101843307454,-1.354279758171118
-3.904,-1.116954499284783,-0.5065486857577234
-3.9035,-0.4447334832507763,0.3517790250608387
-3.903,0.1101156093487211,0.9028042221295453
-3.9025,0.4622313796522482,1.104140351827727
-3.902,0.6222840025174878,1.051157159801889
-3.9015,0.6649647019482183,0.8286277532933731
-3.901,0.6649647019482183,0.5319218779486851
-3.9005,0.6436243522328531,0.2246193641988295
-3.9,0.6436243522328531,-0.06148987274069118
-3.8995,0.6436243522328531,-0.3158091944647096
-3.899,0.6436243522328531,-0.5065486857577234
-3.8985,0.5155822539406614,-0.4641621321370536
-3.898,-0.124628237520297,-0.02969995752518888
-3.8975,-0.9462317015618604,0.5319218779486851
-3.897,-1.490410619303675,0.9345941373450475
-3.8965,-1.682473766741963,1.061753798207057
-3.896,-1.212986073003927,0.5955017083796896
-3.8955,-0.4767440078238243,-0.08268314955102604
-3.895,0.1207857842064037,-0.6337083466197325
-3.8945,0.5262524287983441,-0.9516074987747555
-3.894,0.7183155762366316,-1.01518732920576
-3.8935,0.7823366253827275,-0.8774310299385835
-3.893,0.707645401378949,-0.7078848154559045
-3.8925,0.5262524287983441,-0.5489352393783931
-3.892,0.1634664836371343,-0.5595318777835605
-3.8915,-0.2526703358124887,-0.6125150698093976
-3.891,-0.03926683865883591,-0.08268314955102604
-3.8905,0.1207857842064037,0.3729723018711736
-3.89,0.142126133921769,0.4365521323021782
-3.8895,0.1101156093487211,-0.1144730647665284
-3.889,-0.5941159312583333,-0.8562377531282487
-3.8885,-1.458400094730627,-1.417859588602123
-3.888,-1.810515865034154,-1.417859588602123
-3.8875,-1.298347471865388,-0.6125150698093976
