Class_7_Listen_To_Music/Class_7_Listen_To_Music_Turki_10.csv

#Digilent WaveForms Oscilloscope Acquisition
#Device Name: EExplorer
#Serial Number: SN:210151A2B84A
#Date Time: 2020-12-21 15:27:29.921
#Sample rate: 2000Hz
#Samples: 16384
#Trigger: Source: Channel 1 Type: Edge Condition: Rising Level: 0 V Hyst.: Auto HoldOff: 0 s
#Channel 1: Range: 1 V/div Offset: 0 V
#Channel 2: Range: 1 V/div Offset: 0 V

Time (s),Channel 1 (V),Channel 2 (V)
-4.0960000000000001,0.55826295337139209,0.46834204751768049
-4.0955000000000004,0.60094365280208373,0.53192187794862722
-4.0949999999999998,1.1131120459714035,1.0087706061817785
-4.0945,1.6786313134280693,1.6233756336809306
-4.0940000000000003,1.1344523956867496,1.6233756336809306
-4.0934999999999997,-0.081947538090352545,0.75445128445625664
-4.093,-0.94623170156186043,-0.28401927924920728
-4.0925000000000002,-0.91422117698884153,-0.50654868575752099
-4.0919999999999996,-0.49808435753878194,-0.20984281041264974
-4.0914999999999999,-0.049937013516518552,0.21402272579366208
-4.0910000000000002,0.27016823221396069,0.58490506997452218
-4.0904999999999996,0.45156120479463352,0.83922439169868512
-4.0899999999999999,0.52625242879834411,0.99817396777605205
-4.0895000000000001,0.54759277851370936,1.0829470750173917
-4.0890000000000004,0.52625242879836354,1.1253336286380229
-4.0884999999999998,0.50491207908297886,1.1359302670432285
-4.0880000000000001,0.47290155450993088,1.146526905448396
-4.0875000000000004,0.451561204794585,1.1359302670432381
-4.0869999999999997,0.14212613392107026,1.3160731199312967
-4.0865,-0.62612645583138127,1.5597958032499259
-4.0860000000000003,-1.1809755484303741,0.90280422213014277
-4.0854999999999997,-1.1916457232881148,-0.0085066807150853147
-4.085,-0.70081767983515975,-0.26282600243887239
-4.0845000000000002,-0.12462823752082108,-0.18864953360276782
-4.0839999999999996,0.2915085819295492,0.0020899576904290719
-4.0834999999999999,0.53692260365602662,0.12924961855232261
-4.0830000000000002,0.65429452709053582,0.19282944898332721
-4.0824999999999996,0.6863050516635838,0.23521600260402586
-4.0819999999999999,0.6863050516635838,0.26700591781949923
-4.0815000000000001,0.82501732481345802,0.11865298014715518
-4.0810000000000004,0.97439977282087908,0.023283234500735023
-4.0804999999999998,0.88903837395955376,0.17163617217299235
-4.0800000000000001,0.75032610080967954,0.37297230187117358
-4.0795000000000003,0.6222840025176043,0.55311515475885609
-4.0789999999999997,0.53692260365566757,0.66967817721559175
-4.0785,0.14212613392176898,0.37297230187117358
-4.0780000000000003,-0.64746680554602842,-0.42177557851566105
-4.0774999999999997,-1.3943790455849583,-1.1635402668784995
-4.077,-1.8638667393225676,-1.5980024414899687
-4.0765000000000002,-2.1839719850527555,-1.799338571187967
-4.0759999999999996,-1.6504632421681771,-1.3330864813600314
-4.0754999999999999,-0.83952995298503397,-0.50654868575772338
-4.0750000000000002,-0.15663876209334496,0.19282944898332721
-4.0744999999999996,0.2808384070718471,0.63788826200054249
-4.0739999999999998,0.50491207908297886,0.83922439169854057
-4.0735000000000001,0.57960330308675734,0.88161094531921036
-4.0730000000000004,0.57960330308675734,0.82862775329342131
-4.0724999999999998,0.54759277851370936,0.74385464605203377
-4.0720000000000001,0.51558225394066137,0.64848490040552687
-4.0715000000000003,0.48357172936764259,0.56371179316426456
-4.0709999999999997,0.39821033050578364,0.55311515475883688
-4.0705,-0.0072563140857879876,0.35177902506083869
-4.0700000000000003,-0.17797911180855497,0.60609834678462571
-4.0694999999999997,-0.28468086038600243,1.2736865663105787
-4.069,-0.79684925355430347,1.4644260576034194
-4.0685000000000002,-0.97824222613490841,1.0829470750173917
-4.0679999999999996,-0.62612645583093485,0.65908153881042431
-4.0674999999999999,-0.13529841237797968,0.36237566346600614
-4.0670000000000002,0.28083840707164331,0.16103953376782493
-4.0664999999999996,0.52625242879842171,0.086863064931652884
-4.0659999999999998,0.6116138276598051,0.086863064931652884
-4.0655000000000001,0.62228400251748783,0.12924961855232261
-4.0650000000000004,0.67563487680585255,0.27760255622453178
-4.0644999999999998,0.83568749967114075,0.45774540911251305
-4.0640000000000001,0.81434714995577528,0.60609834678485708
-4.0635000000000003,0.71831557623671893,0.74385464605190843
-4.0629999999999997,0.62228400251741989,0.87101430691414894
-4.0625,0.54759277851370936,0.98757732937088472
-4.0620000000000003,0.6756348768057846,1.2101067358791981
-4.0614999999999997,1.1131120459705592,1.5809890800597692
-4.0609999999999999,0.75032610080967954,1.0405605213967219
-4.0605000000000002,-0.028596663801153277,0.16103953376782493
-4.0599999999999996,-0.818189603270154,-0.38998566330133455
-4.0594999999999999,-1.3516983461538008,-0.88802766834375091
-4.0590000000000002,-1.0849439747117349,-0.66549826183523486
-4.0585000000000004,-0.53009488211274192,-0.13566634157734503
-4.0579999999999998,-0.039266838658835915,0.36237566346600614
-4.0575000000000001,0.30217875678700862,0.70146809243136399
-4.0570000000000004,0.47290155450977561,0.89220758372420428
-4.0564999999999998,0.53692260365602662,0.96638405256054982
-4.056,0.54759277851370936,0.96638405256054982
-4.0555000000000003,0.51558225394069046,0.94519077575023425
-4.0549999999999997,0.48357172936758441,0.90280422212950673
-4.0545,0.45156120479456557,0.86041766850887547
-4.0540000000000003,0.38754015564852795,0.84982103010371768
-4.0534999999999997,0.24882788249843041,1.1359302670436044
-4.0529999999999999,0.067434909917990504,1.5491991648447585
-4.0525000000000002,-0.57277558154296804,1.0405605213967219
-4.0519999999999996,-1.3623685210116292,-0.072086511146407947
-4.0514999999999999,-1.522421143876723,-0.67609490024040231
-4.0510000000000002,-0.96757205127722568,-0.55953187778356051
-4.0505000000000004,-0.29535103524383077,-0.20984281041335323
-4.0499999999999998,0.22748753278323011,0.076266426526485451
-4.0495000000000001,0.51558225394066137,0.25640927941433178
-4.0490000000000004,0.65429452709040969,0.34118238665559414
-4.0484999999999998,0.68630505166367117,0.37297230187097119
-4.048,0.78233662538272752,0.15044289536265748
-4.0475000000000003,0.80367697509807334,0.1080563417420263
-4.0469999999999997,0.72898575109422692,0.22461936419896442
-4.0465,0.63295417737517057,0.37297230187117358
-4.0460000000000003,0.55826295337146004,0.50013196273306715
-4.0454999999999997,0.59027347794481833,0.68027481562152059
-4.0449999999999999,1.006410297394063,1.2207033742845681
-4.0445000000000002,0.72898575109431429,1.7611319329481074
-4.0439999999999996,-0.22065981124028514,1.6551655488954884
-4.0434999999999999,-1.1489650238578306,0.61669498519002452
-4.0430000000000001,-1.67180359188428,-0.47475877054222104
-4.0425000000000004,-1.3090176467234003,-0.69728817705053481
-4.0419999999999998,-0.65813698040442903,-0.3581957480853793
-4.0415000000000001,-0.092617712947249131,0.097459703336820316
-4.0410000000000004,0.28083840707130364,0.46834204751734315
-4.0404999999999998,0.47290155450999882,0.71206473083664712
-4.04,0.54759277851370936,0.83922439169854057
-4.0395000000000003,0.54759277851370936,0.90280422212948741
-4.0389999999999997,0.52625242879831502,0.91340086053470304
-4.0385,0.49424190422529612,0.90280422212954525
-4.0380000000000003,0.46223137965227734,0.90280422212954525
-4.0374999999999996,0.41955068022123621,0.90280422212944889
-4.0369999999999999,0.11011560934872107,0.7968378380778709
-4.0365000000000002,-0.31669138495858457,0.11865298014715518
-4.0359999999999996,-0.91422117698930738,-0.79265792269793789
-4.0354999999999999,-1.4584000947306273,-1.5556158878692994
-4.0350000000000001,-1.5117509690190405,-1.6403889951106385
-4.0345000000000004,-0.93556152670470172,-1.0363806060166443
-4.0339999999999998,-0.28468086038553664,-0.37938902489571413
-4.0335000000000001,0.17413665849481691,0.044476511310983152
-4.0330000000000004,0.46223137965198619,0.20342608738835011
-4.0324999999999998,0.59027347794447871,0.19282944898328866
-4.032,0.63295417737517057,0.15044289536265748
-4.0315000000000003,0.80367697509793756,0.044476511311079533
-4.0309999999999997,0.93171907339021653,-0.019103319119963619
-4.0305,0.857027849386506,0.044476511310983152
-4.0300000000000002,0.71831557623675768,0.1398462569574033
-4.0294999999999996,0.60094365280206441,0.23521600260404513
-4.0289999999999999,0.53692260365602662,0.28819919462983412
-4.0285000000000002,0.84635767452882327,0.2246193641988295
-4.0279999999999996,0.9637295979626046,-0.29461591765505896
-4.0274999999999999,0.16346648363713429,-1.0469772444212624
-4.0270000000000001,-0.73282820440820751,-1.42845622700729
-4.0265000000000004,-1.5437614935913508,-1.7251621023517083
-4.0259999999999998,-1.6397930673112322,-1.5556158878692994
-4.0255000000000001,-1.0742737998540521,-0.83504447631791379
-4.0250000000000004,-0.41272295867832998,-0.093279787956868199
-4.0244999999999997,0.078105084775944869,0.43655213230244799
-4.024,0.3768699807907871,0.73325800764686633
-4.0235000000000003,0.51558225394053525,0.86041766850875978
-4.0229999999999997,0.55826295337137266,0.88161094531917183
-4.0225,0.53692260365602662,0.83922439169854057
-4.0220000000000002,0.50491207908300795,0.78624119967275163
-4.0214999999999996,0.47290155450989207,0.72266136924166036
-4.0209999999999999,0.43022085507920033,0.68027481562102909
-4.0205000000000002,0.27016823221396069,0.48953532432801533
-4.0199999999999996,-0.25267033581308068,0.39416557868099761
-4.0194999999999999,-0.90355100213112993,-0.1674562567923655
-4.0190000000000001,-1.3837088707268488,-0.96220413717992292
-4.0185000000000004,-1.3943790455845215,-1.3330864813604457
-4.0179999999999998,-0.82885977812735145,-1.0363806060160949
-4.0175000000000001,-0.19931946152407554,-0.54893523937839306
-4.0170000000000003,0.25949805735586079,-0.11447306476692348
-4.0164999999999997,0.53692260365614308,0.1292496185524479
-4.016,0.66496470194821833,0.26700591781949923
-4.0155000000000003,0.68630505166356437,0.29879583303497265
-4.0149999999999997,0.72898575109443076,0.13984625695726838
-4.0145,0.857027849386506,-0.10387642636136091
-4.0140000000000002,0.81434714995581414,-0.050893234335571934
-4.0134999999999996,0.69697522652116928,0.11865298014730938
-4.0129999999999999,0.59027347794443985,0.28819919462983412
-4.0125000000000002,0.52625242879834411,0.42595549389701071
-4.0119999999999996,0.67563487680642509,0.71206473083709043
-4.0114999999999998,1.2518243191207636,1.3266697583362426
-4.0110000000000001,0.95305942310564973,1.6021823568705957
-4.0105000000000004,0.0034138607727582926,0.89220758372502351
-4.0099999999999998,-0.95690187641954316,-0.26282600243887239
-4.0095000000000001,-1.1809755484308786,-0.85623775312824868
-4.0090000000000003,-0.79684925355465286,-0.62311170821477713
-4.0084999999999997,-0.28468086038516788,-0.14626297998161622
-4.008,0.12078578420640371,0.30939247144016896
-4.0075000000000003,0.36619980593288126,0.63788826200006066
-4.0069999999999997,0.4835717293676523,0.8180311148882925
-4.0065,0.52625242879834411,0.9134008605347127
-4.0060000000000002,0.51558225394066137,0.94519077575021493
-4.0054999999999996,0.4942419042252767,0.94519077575019561
-4.0049999999999999,0.47290155450993088,0.92399749893988004
-4.0045000000000002,0.44089102993688295,0.90280422212954525
-4.0039999999999996,0.41955068022145942,0.89220758372455133
-4.0034999999999998,0.35552963107542179,1.0829470750173917
-4.0030000000000001,0.14212613392176898,0.90280422212954525
-4.0025000000000004,-0.28468086038514845,-0.01910331911918306
-4.0019999999999998,-0.8928808272734472,-0.97280077558509037
-4.0015000000000001,-1.0849439747117349,-1.1741369052832717
-4.0010000000000003,-0.69014750497783606,-0.75027136907695979
-4.0004999999999997,-0.18864928666605324,-0.26282600243855436
-4,0.18480683335249956,0.086863064931652884
-3.9994999999999998,0.41955068022151765,0.25640927941433178
-3.9990000000000001,0.54759277851370936,0.28819919462983412
-3.9984999999999999,0.6116138276598051,0.24581264100916439
-3.9980000000000002,0.77166645052504479,0.18223281057815977
-3.9975000000000001,0.79300680024041004,0.15044289536265748
-3.9969999999999999,0.70764540137894905,0.18223281057815977
-3.9965000000000002,0.6116138276598051,0.2246193641988295
-3.996,0.53692260365602662,0.26700591781949923
-3.9954999999999998,0.57960330308675734,0.39416557868150842
-3.9950000000000001,1.0277506471094282,0.92399749893988004
-3.9944999999999999,0.81434714995577528,1.1889134590690658
-3.9940000000000002,-0.12462823752029703,0.43655213230217815
-3.9935,-1.0742737998540521,-0.5807251545938954
-3.9929999999999999,-1.7358246410303759,-1.3754730349814528
-3.9925000000000002,-1.4904106193036752,-1.3012965661452807
-3.992,-0.82885977812735145,-0.66549826183523486
-3.9914999999999998,-0.20998963638175816,0.012686596095480854
-3.9910000000000001,0.20614718306786484,0.52132523954351762
-3.9904999999999999,0.43022085507920033,0.82862775329337313
-3.9900000000000002,0.51558225394066137,0.97698069096571727
-3.9895,0.53692260365602662,1.0299638829915545
-3.9889999999999999,0.51558225394066137,1.0193672445863871
-3.9885000000000002,0.4835717293676135,0.98757732937088472
-3.988,0.45156120479456557,0.94519077575021493
-3.9874999999999998,0.41955068022151765,0.87101430691404291
-3.9870000000000001,0.067434909917990504,0.40476221708667587
-3.9864999999999999,-0.65813698040442903,-0.4641621321370536
-3.9860000000000002,-1.0742737998540521,-1.2483133741194434
-3.9855,-1.46907026958831,-1.7887419327829828
-3.9849999999999999,-1.3196878215807528,-1.6403889951106385
-3.9845000000000002,-0.69014750497747701,-0.95160749877475548
-3.984,-0.08194753808956648,-0.36879238649054674
-3.9834999999999998,0.32351910650237387,-0.029699957525188878
-3.9830000000000001,0.54759277851370936,0.10805634174198775
-3.9824999999999999,0.64362435223285308,0.16103953376782493
-3.9820000000000002,0.65429452709053582,0.15044289536265748
-3.9815,0.82501732481345802,0.0020899576903134209
-3.9809999999999999,0.96372959796333246,-0.11447306476652835
-3.9805000000000001,0.87836819910187125,-0.029699957525188878
-3.98,0.72898575109431429,0.10805634174198775
-3.9794999999999998,0.60094365280212259,0.2246193641988295
-3.9790000000000001,0.50491207908297886,0.35177902506083869
-3.9784999999999999,0.25949805735627807,0.69087145402619654
-3.9780000000000002,-0.29535103524321932,0.62729162359519197
-3.9775,-0.95690187641954316,-0.20984281041303524
-3.9769999999999999,-1.4797404444459925,-1.1105570748522671
-3.9765000000000001,-1.7678351656034239,-1.6721789103261409
-3.976,-1.3090176467230703,-1.3542797581711179
-3.9754999999999998,-0.62612645583138127,-0.60191843140423029
-3.9750000000000001,-0.06060718837420119,0.086863064931652884
-3.9744999999999999,0.29150858192932599,0.5637117931641874
-3.9740000000000002,0.47290155450993088,0.81803111488820579
-3.9735,0.53692260365602662,0.9134008605347127
-3.9729999999999999,0.52625242879834411,0.92399749893988004
-3.9725000000000001,0.50491207908297886,0.88161094531921036
-3.972,0.47290155450993088,0.82862775329337313
-3.9714999999999998,0.45156120479456557,0.775644561267536
-3.9710000000000001,0.40888050536383502,0.72266136924169888
-3.9704999999999999,0.21681735792554749,0.62729162359519197
-3.9700000000000002,-0.43406330839309365,0.52132523954351762
-3.9695,-1.2663369472923398,-0.1674562567923655
-3.9689999999999999,-1.7998456901764717,-0.97280077558509037
-3.9685000000000001,-1.586442193022819,-1.0787671596367647
-3.968,-0.87154047755808195,-0.70788481545590454
-3.9674999999999998,-0.17797911180871023,-0.31580919446470956
-3.9670000000000001,0.31284893164469124,-0.029699957525188878
-3.9664999999999999,0.55826295337139209,0.12924961855232261
-3.9660000000000002,0.65429452709053582,0.17163617217299235
-3.9655,0.66496470194821833,0.17163617217299235
-3.9649999999999999,0.71831557623663156,0.10805634174198775
-3.9645000000000001,0.88903837395955376,-0.050893234335523743
-3.964,0.84635767452882327,-0.029699957525188878
-3.9634999999999998,0.71831557623663156,0.065669788121318018
-3.9630000000000001,0.60094365280212259,0.18223281057815977
-3.9624999999999999,0.51558225394066137,0.28819919462983412
-3.9620000000000002,0.6863050516635838,0.59550170837968963
-3.9615,1.1344523956862547,1.1995100974742332
-3.9609999999999999,0.62228400251748783,1.0405605213967219
-3.9605000000000001,-0.29535103524321932,0.044476511310983152
-3.96,-1.2343264227192918,-0.98339741399025782
-3.9594999999999998,-1.6397930673112322,-1.4814394190331273
-3.9590000000000001,-1.2129860730039266,-1.0681705212315973
-3.9584999999999999,-0.57277558154296804,-0.3581957480853793
-3.9580000000000002,-0.049937013516518552,0.26700591781949923
-3.9575,0.29150858192932599,0.69087145402619654
-3.9569999999999999,0.4622313796522482,0.92399749893988004
-3.9565000000000001,0.52625242879834411,1.0299638829915545
-3.956,0.51558225394066137,1.0511571598018894
-3.9554999999999998,0.4835717293676135,1.0299638829915545
-3.9550000000000001,0.4622313796522482,0.98757732937088472
-3.9544999999999999,0.43022085507920033,0.94519077575021493
-3.9540000000000002,0.31284893164469124,0.82862775329337313
-3.9535,-0.26334051067017139,0.13984625695749003
-3.9529999999999998,-0.96757205127722568,-0.80325456110241145
-3.9525000000000001,-1.4477299198729445,-1.5980024414899687
-3.952,-1.5651018433074537,-1.9159015936449921
-3.9514999999999998,-1.0315931004233216,-1.3436831197659505
-3.9510000000000001,-0.38071243410468042,-0.62311170821456507
-3.9504999999999999,0.14212613392176898,-0.12506970317169577
-3.9500000000000002,0.45156120479456557,0.12924961855232261
-3.9495,0.59027347794443985,0.23521600260399694
-3.9489999999999998,0.64362435223285308,0.16103953376782493
-3.9485000000000001,0.64362435223285308,0.086863064931652884
-3.948,0.66496470194821833,0.15044289536265748
-3.9474999999999998,0.63295417737517057,0.16103953376782493
-3.9470000000000001,0.5689331282290746,0.13984625695749003
-3.9464999999999999,0.51558225394066137,0.12924961855232261
-3.9460000000000002,0.4835717293676135,0.13984625695749003
-3.9455,0.55826295337139209,0.25640927941433178
-3.9449999999999998,1.0597611716824762,0.7968378380778709
-3.9445000000000001,0.857027849386506,1.0299638829915545
-3.944,-0.15663876209334496,0.25640927941433178
-3.9434999999999998,-1.1809755484308786,-0.72907809226623943
-3.9430000000000001,-1.6931439415996454,-1.3966663117917877
-3.9424999999999999,-1.3303579964384356,-1.1423469900677694
-3.9420000000000002,-0.67947733011979428,-0.4641621321370536
-3.9415,-0.11395806266261441,0.19282944898332721
-3.9409999999999998,0.25949805735627807,0.66967817721586165
-3.9405000000000001,0.45156120479456557,0.94519077575021493
-3.9399999999999999,0.51558225394066137,1.0935437134225592
-3.9394999999999998,0.52625242879834411,1.1359302670432285
-3.9390000000000001,0.49424190422529612,1.1253336286380615
-3.9384999999999999,0.4622313796522482,1.1041403518277266
-3.9380000000000002,0.43022085507920033,1.0511571598018894
-3.9375,0.3982103305061524,0.98757732937088472
-3.9369999999999998,0.046094560202625215,0.60609834678485708
-3.9365000000000001,-0.75416855412357298,-0.27342264084403983
-3.9359999999999999,-1.5117509690190405,-1.1741369052832717
-3.9355000000000002,-1.7038141164573279,-1.5132293342486296
-3.9350000000000001,-1.2129860730039266,-1.0893637980419322
-3.9344999999999999,-0.54076505696992005,-0.55953187778356051
-3.9340000000000002,0.035424385344942577,-0.12506970317169577
-3.9335,0.38754015564846972,0.076266426526485451
-3.9329999999999998,0.55826295337139209,0.076266426526485451
-3.9325000000000001,0.64362435223285308,0.033879872905815719
-3.9319999999999999,0.66496470194821833,0.023283234500648287
-3.9315000000000002,0.67563487680590106,0.18223281057815977
-3.931,0.67563487680590106,0.31998910984533641
-3.9304999999999999,0.6116138276598051,0.25640927941433178
-3.9300000000000002,0.54759277851370936,0.17163617217299235
-3.9295,0.49424190422529612,0.11865298014715518
-3.9289999999999998,0.47290155450993088,0.15044289536265748
-3.9285000000000001,0.5689331282290746,0.45774540911251305
-3.9279999999999999,0.24882788249859539,0.30939247144016896
