Class_7_Listen_To_Music/Class_7_Listen_To_Music_Suko_7.csv

#Digilent WaveForms Oscilloscope Acquisition
#Device Name: EExplorer
#Serial Number: SN:210151A2B84A
#Date Time: 2021-01-24 14:28:10.761
#Sample rate: 2000Hz
#Samples: 16384
#Trigger: Source: Channel 1 Type: Edge Condition: Rising Level: 0 V Hyst.: Auto HoldOff: 0 s
#Channel 1: Range: 1 V/div Offset: 0 V Attenuation: 1 X
#Channel 2: Range: 1 V/div Offset: 0 V Attenuation: 1 X
#Power Supplies: ON
#Fixed Supply: ON
#Voltage: 3.3 V Readback: 3.317 V
#Positive Supply: ON
#Voltage: 3.7 V Readback: 3.703 V
#Current: 40 mA Readback: 17 mA
#Negative Supply: ON
#Voltage: -3.7 V Readback: -3.334 V
#Current: -40 mA Readback: -11 mA
#Reference 1: ON
#Voltage: 0 V
#Reference 2: ON
#Voltage: 0 V

Time (s),Channel 1 (V),Channel 2 (V)
-4.096,0.291508581929326,0.8286277532933731
-4.0955,0.2701682322139801,0.786241199672742
-4.095,0.2594980573562586,0.722661369241641
-4.0945,0.2381577076409128,0.6590815388106942
-4.094,0.1527963087795293,0.5107286011384851
-4.0935,-0.2953510352436366,-0.04029659593096348
-4.093,-0.754168554123573,-0.7078848154559045
-4.0925,-1.042263275280742,-1.269506650929268
-4.092,-1.084943974711366,-1.481439419032722
-4.0915,-0.6794773301197943,-1.036380606016095
-4.091,-0.1886492866663929,-0.4641621321370536
-4.0905,0.1634664836372993,-0.08268314955084292
-4.09,0.3448594562177392,0.1186529801471552
-4.0895,0.408880505363835,0.1928294489833272
-4.089,0.408880505363835,0.203426087388485
-4.0885,0.4515612047945656,0.2034260873884947
-4.088,0.6969752265212663,0.2670059178194992
-4.0875,0.7183155762366121,0.277602556224657
-4.087,0.622284002517381,0.2458126410091451
-4.0865,0.5049120790829789,0.2246193641988295
-4.086,0.4088805053639224,0.2140227257936717
-4.0855,0.5262524287986837,0.2352160026036982
-4.085,0.8997085488172365,-0.09327978795619347
-4.0845,0.6009436528023944,-0.6972881770501879
-4.084,-0.09261771294780229,-1.248313374119646
-4.0835,-0.7008176798351597,-1.47084278062796
-4.083,-0.690147504977477,-0.9622041371799229
-4.0825,-0.4127229586774469,-0.3052125560590506
-4.082,-0.1032878878049318,0.2352160026039969
-4.0815,0.1101156093487211,0.5955017083796896
-4.081,0.2381577076407963,0.7756445612673721
-4.0805,0.3021787567870086,0.849821030103708
-4.08,0.3128489316446912,0.849821030103708
-4.0795,0.3021787567870183,0.8180311148882347
-4.079,0.2808384070716142,0.7756445612674782
-4.0785,0.2488278824985954,0.7120647308365314
-4.078,0.2168173579255766,0.6378882620004269
-4.0775,0.2061471830676028,0.5743084315690176
-4.077,-0.08194753808956648,0.2034260873884947
-4.0765,-0.7008176798345969,-0.5277419625673933
-4.076,-1.170305373573371,-1.184733543688825
-4.0755,-1.362368521011484,-1.608599079895136
-4.075,-1.010252750707956,-1.280103289334946
-4.0745,-0.4660738329657436,-0.6654982618347626
-4.074,-0.02859666380115328,-0.1462629799820306
-4.0735,0.2381577076409128,0.1292496185523226
-4.073,0.3768699807906609,0.2246193641987428
-4.0725,0.408880505363835,0.2352160026039969
-4.072,0.4195506802215176,0.1822328105781598
-4.0715,0.5902734779442846,0.1398462569575286
-4.071,0.6649647019481602,0.1398462569574997
-4.0705,0.6009436528021226,0.1504428953626575
-4.07,0.4942419042253932,0.1610395337678153
-4.0695,0.408880505363835,0.1928294489833754
-4.069,0.408880505363835,0.2458126410091644
-4.0685,0.7503261008096795,0.1292496185523226
-4.068,0.5582629533707225,-0.4535654937324259
-4.0675,-0.1779791118087102,-1.046977244421262
-4.067,-0.9035510021311299,-0.9410108603695881
-4.0665,-0.9889124009922903,-0.5065486857573186
-4.066,-0.658136980404429,-0.06148987274069118
-4.0655,-0.2633405106701714,0.2776025562246667
-4.065,0.03542438534467085,0.4895353243278225
-4.0645,0.2168173579255475,0.6060983467848571
-4.064,0.3021787567870086,0.6696781772158616
-4.0635,0.3235191065023544,0.6908714540261772
-4.063,0.3128489316446622,0.701468092431364
-4.0625,0.2808384070716433,0.701468092431364
-4.062,0.2488278824986245,0.6802748156210484
-4.0615,0.2274875327832204,0.6696781772158423
-4.061,0.2168173579255475,0.6484849004055269
-4.0605,-0.02859666380115328,0.4153588554918433
-4.06,-0.7221580295510005,-0.2840192792498434
-4.0595,-1.244996597576974,-0.9833974139902578
-4.059,-1.383708870726849,-1.354279758171118
-4.0585,-0.9142211769892394,-0.9198175835596484
-4.058,-0.3487019095316325,-0.4111789401112165
-4.0575,0.1101156093487211,-0.1144730647665284
-4.057,0.3661998059328715,0.06566978812115418
-4.0565,0.4515612047945656,0.13984625695749
-4.056,0.4622313796522482,0.1928294489833272
-4.0555,0.4302208550792295,0.203426087388485
-4.055,0.5369226036561722,0.3411823866557965
-4.0545,0.6969752265212663,0.4789386859228479
-4.054,0.7609962756673041,0.5001319627331635
-4.0535,0.6969752265211693,0.4259554938969336
-4.053,0.5902734779444399,0.3411823866556712
-4.0525,0.4835717293676135,0.2987958330350016
-4.052,0.4088805053635827,0.4047622170863578
-4.0515,0.1314559590640864,0.05507314971615059
-4.051,-0.4767440078238243,-0.6549016234300674
-4.0505,-1.04226327528049,-1.269506650929219
-4.05,-1.138294849000148,-1.248313374119443
-4.0495,-0.7648387289812555,-0.6654982618352349
-4.049,-0.3380317346743381,-0.02969995752576704
-4.0485,0.003413860772079035,0.4471487707076058
-4.048,0.2061471830678648,0.7332580076468663
-4.0475,0.3021787567869213,0.8816109453190755
-4.047,0.3235191065023739,0.9239974989398704
-4.0465,0.3235191065023739,0.9134008605347127
-4.046,0.302178756787028,0.8710143069140814
-4.0455,0.2808384070716239,0.8180311148881383
-4.045,0.2594980573562781,0.7438546460520338
-4.0445,0.2488278824985954,0.6696781772158616
-4.044,0.1207857842058603,0.4895353243274274
-4.0435,-0.4767440078238243,-0.1568596183871981
-4.043,-0.9782422261349084,-0.8668343915334161
-4.0425,-1.234326422719059,-1.460246142222253
-4.042,-1.277007122150022,-1.703968825541643
-4.0415,-0.807519428411986,-1.163540266878104
-4.041,-0.2740106855283393,-0.5595318777841098
-4.0405,0.1207857842065978,-0.1144730647663067
-4.04,0.3341892813600565,0.1292496185523226
-4.0395,0.4088805053637671,0.214022725793585
-4.039,0.4195506802215564,0.1928294489833368
-4.0385,0.4622313796522482,0.2034260873884947
-4.038,0.6649647019480339,0.4047622170864927
-4.0375,0.6756348768058137,0.4047622170865988
-4.037,0.5796033030867573,0.3199891098453364
-4.0365,0.5262524287983441,0.2458126410091644
-4.036,0.4622313796524035,0.2034260873886007
-4.0355,0.6329541773751706,0.3199891098453364
-4.035,0.9317190733902845,0.1822328105781598
-4.0345,0.3661998059336188,-0.4535654937313079
-4.034,-0.5621054066852853,-1.121153713257435
-4.0335,-1.042263275281004,-1.311893204550448
-4.033,-0.8608703027005642,-0.8032545611028741
-4.0325,-0.4660738329658116,-0.1674562567919029
-4.032,-0.1032878878049318,0.3411823866556712
-4.0315,0.1314559590638729,0.6590815388104051
-4.031,0.2594980573563266,0.828627753293431
-4.0305,0.3128489316446912,0.8922075837243778
-4.03,0.3128489316446912,0.8922075837243778
-4.0295,0.3021787567869892,0.8604176685088273
-4.029,0.2808384070716433,0.8074344764830383
-4.0285,0.2594980573562781,0.7332580076468663
-4.028,0.2381577076408836,0.6696781772157846
-4.0275,0.2061471830678648,0.5849050699745222
-4.027,-0.1459685872356623,0.1504428953626575
-4.0265,-0.5834457564002526,-0.5913217929983883
-4.026,-0.8715404775580819,-1.237716735714276
-4.0255,-1.031593100423322,-1.650985633515806
-4.025,-0.7861790786968439,-1.280103289335283
-4.0245,-0.3273615598158985,-0.686691538645165
-4.024,0.07810508477567314,-0.2416327256285375
-4.0235,0.3128489316444777,0.03387987290556516
-4.023,0.3982103305061718,0.1504428953626575
-4.0225,0.4195506802215176,0.1504428953626575
-4.022,0.4088805053638447,0.1292496185523419
-4.0215,0.5475927785137482,0.2776025562247245
-4.021,0.5902734779444399,0.3411823866556712
-4.0205,0.5582629533713921,0.309392471440169
-4.02,0.4835717293675456,0.2564092794143125
-4.0195,0.408880505363835,0.2352160026039969
-4.019,0.4515612047945656,0.2564092794143318
-4.0185,0.1314559590643775,-0.05089323433524423
-4.018,-0.5834457564006506,-0.7078848154559045
-4.0175,-1.138294849000148,-1.301296566145281
-4.017,-1.458400094730336,-1.598002441489699
-4.0165,-1.148965023857355,-1.089363798041277
-4.016,-0.6261264558313813,-0.3687923864905467
-4.0155,-0.1673089369514449,0.214022725793132
-4.015,0.1207857842065396,0.6060983467850402
-4.0145,0.2701682322139607,0.8074344764830383
-4.014,0.3341892813599983,0.8816109453191429
-4.0135,0.3341892813600371,0.8710143069140044
-4.013,0.3128489316446912,0.8286277532933731
-4.0125,0.291508581929326,0.775644561267536
-4.012,0.2594980573562586,0.7120647308364544
-4.0115,0.2381577076409128,0.627291623595192
-4.011,0.2061471830678648,0.5319218779486851
-4.0105,-0.07127736323163153,0.1928294489836356
-4.01,-0.572775581542968,-0.474758770542221
-4.0095,-0.9995825758502737,-1.131750351662602
-4.009,-1.266336947292097,-1.61919571829986
-4.0085,-1.095614149568971,-1.417859588601573
-4.008,-0.6047861061160158,-0.8138511995075789
-4.0075,-0.1352984123784067,-0.3158091944651625
-4.007,0.2061471830680201,-0.02969995752504431
-4.0065,0.3768699807907871,0.1292496185523226
-4.006,0.4195506802215176,0.1822328105781598
-4.0055,0.419550680221605,0.2034260873885621
-4.005,0.5155822539406614,0.2776025562246667
-4.0045,0.5902734779444399,0.3411823866556712
-4.004,0.6116138276597954,0.3517790250608194
-4.0035,0.6009436528021226,0.3305857482505039
-4.003,0.5155822539406614,0.2881991946298341
-4.0025,0.4408910299369509,0.2670059178195185
-4.002,0.6969752265212663,0.1716361721729923
-4.0015,0.8997085488172365,-0.326405832869877
-4.001,0.3235191065028979,-0.9516074987741868
-4.0005,-0.3807124341050104,-1.089363798041711
-4,-0.7434983792658902,-0.8456411147230812
-3.9995,-0.5941159312583333,-0.3370024712750445
-3.999,-0.2953510352432193,0.13984625695749
-3.9985,-0.01792648894347063,0.4789386859228479
-3.998,0.1634664836371343,0.6696781772158616
-3.9975,0.2594980573562781,0.7544512844572011
-3.997,0.3021787567870086,0.7650479228623686
-3.9965,0.3021787567870086,0.7438546460520338
-3.996,0.291508581929326,0.7120647308365314
-3.9955,0.2701682322139607,0.6696781772158616
-3.995,0.2488278824985954,0.6166949851900245
-3.9945,0.2274875327832301,0.5637117931641874
-3.994,0.05676473506030786,0.3623756634660061
-3.9935,-0.4447334832507763,-0.2416327256285375
-3.993,-0.7008176798351597,-0.8244478379127463
-3.9925,-0.9462317015618604,-1.290699927740113
-3.992,-0.7008176798351597,-0.9728007755850904
-3.9915,-0.2313299860971235,-0.400582301706049
-3.991,0.09944543449103843,-0.01910331912002144
-3.9905,0.3021787567870086,0.1292496185523226
-3.99,0.3875401556484697,0.1716361721729923
-3.9895,0.408880505363835,0.1716361721729923
-3.989,0.3982103305061524,0.13984625695749
-3.9885,0.4515612047945656,0.2140227257936621
-3.988,0.6329541773751706,0.4365521323021782
-3.9875,0.707645401378949,0.4683420475176805
-3.987,0.6542945270905358,0.4153588554918433
-3.9865,0.5475927785137094,0.3623756634660061
-3.986,0.4622313796522482,0.3517790250608387
-3.9855,0.4515612047945656,0.4153588554918433
-3.985,-0.07127736323188383,0.02328323450064829
-3.9845,-0.6794773301197943,-0.6443049850249
-3.984,-1.095614149569417,-1.163540266878104
-3.9835,-1.191645723288561,-1.205926820498774
-3.983,-0.8288597781273515,-0.6443049850249
-3.9825,-0.3700422592469978,-0.008506680714854012
-3.982,-0.01792648894347063,0.4789386859228479
-3.9815,0.1954770082101822,0.775644561267536
-3.981,0.291508581929326,0.9134008605347127
-3.9805,0.3235191065023739,0.9451907757502149
-3.98,0.3235191065023739,0.92399749893988
-3.9795,0.291508581929326,0.849821030103708
-3.979,0.2701682322139607,0.775644561267536
-3.9785,0.2381577076409128,0.6802748156210291
-3.978,0.2061471830678648,0.5849050699745222
-3.9775,0.1741366584948169,0.4683420475176805
-3.977,-0.2420001609548061,-0.008506680714854012
-3.9765,-0.8822106524157645,-0.7290780922662394
-3.976,-1.212986073003927,-1.322489842955616
-3.9755,-1.255666772434657,-1.629792356705471
-3.975,-0.839529952985034,-1.216523458903942
-3.9745,-0.3380317346739499,-0.6019184314042303
-3.974,0.05676473506030786,-0.1144730647665284
-3.9735,0.291508581929326,0.1504428953626575
-3.973,0.3768699807907871,0.2352160026039969
-3.9725,0.3982103305061524,0.2140227257936621
-3.972,0.4195506802215176,0.1928294489833272
-3.9715,0.79300680024041,0.5213252395435176
-3.971,1.070431346540159,0.8392243916985406
-3.9705,0.9850699476786977,0.7544512844572011
-3.97,0.7609962756673623,0.5425185163538525
-3.9695,0.5475927785137094,0.3623756634660061
-3.969,0.3768699807907871,0.2881991946298341
-3.9685,0.2168173579255475,0.309392471440169
-3.968,-0.3487019095316325,-0.1886495336027004
-3.9675,-0.9675720512772257,-0.8032545611024114
-3.967,-1.362368521011484,-0.6231117082145651
-3.9665,-1.148965023857831,-0.1886495336027004
-3.966,-0.658136980404429,0.1080563417419877
-3.9655,-0.2099896363817582,0.2987958330350016
-3.965,0.08877525963335578,0.4153588554918433
-3.9645,0.2594980573562781,0.5001319627331828
-3.964,0.3235191065023739,0.5743084315693548
-3.9635,0.3235191065023739,0.6378882620003594
-3.963,0.3128489316446912,0.6908714540261965
-3.9625,0.2808384070716433,0.7332580076468663
-3.962,0.2488278824985954,0.775644561267536
-3.9615,0.2274875327832301,0.7968378380778709
-3.961,0.2061471830678648,0.8074344764830383
-3.9605,-0.02859666380115328,0.5955017083796896
-3.96,-0.4874141826815069,-0.05089323433552374
-3.9595,-0.8715404775580819,-0.7290780922662394
-3.959,-1.180975548430879,-1.205926820498774
-3.9585,-1.1062843244271,-1.078767159636765
-3.958,-0.6047861061160158,-0.474758770542221
-3.9575,-0.124628237520297,0.07626642652648545
-3.957,0.1741366584948169,0.4471487707073456
-3.9565,0.3235191065023739,0.6060983467848571
-3.956,0.3768699807907871,0.6166949851900245
-3.9555,0.3875401556484697,0.5425185163538525
-3.955,0.5582629533713921,0.5319218779486851
-3.9545,0.7183155762366316,0.5743084315693548
-3.954,0.6969752265212663,0.4789386859228479
-3.9535,0.5902734779444399,0.3199891098453364
-3.953,0.4729015545099309,0.1822328105781598
-3.9525,0.408880505363835,0.07626642652648545
-3.952,0.6756348768059011,-0.2416327256285375
-3.9515,0.5582629533713921,-0.8456411147230812
-3.951,-0.1032878878049318,-1.417859588602123
-3.9505,-0.7648387289812555,-1.280103289334946
-3.95,-1.010252750707956,-0.5913217929990628
-3.9495,-0.7434983792658902,-0.1568596183871981
-3.949,-0.3487019095316325,0.07626642652648545
-3.9485,-0.02859666380115328,0.1716361721729923
-3.948,0.1741366584948169,0.2246193641988295
-3.9475,0.2808384070716433,0.2564092794143318
-3.947,0.3128489316446912,0.2987958330350016
-3.9465,0.3128489316446912,0.3517790250608387
-3.946,0.291508581929326,0.4047622170866759
-3.9455,0.2808384070716433,0.4683420475176805
-3.945,0.2701682322139607,0.5425185163538525
-3.9445,0.2594980573562781,0.5955017083796896
-3.944,0.1207857842064037,0.5319218779486851
-3.9435,-0.4447334832507763,0.002089957690313421
-3.943,-0.807519428411986,-0.6125150698093976
-3.9425,-1.1062843244271,-1.110557074852267
-3.942,-1.170305373573196,-1.163540266878104
-3.9415,-0.7648387289812555,-0.5913217929990628
-3.941,-0.2526703358124887,0.04447651131098315
-3.9405,0.1101156093487211,0.5001319627331828
-3.94,0.3021787567870086,0.7438546460520338
-3.9395,0.3768699807907871,0.8180311148882058
-3.939,0.3982103305061524,0.7862411996727035
-3.9385,0.4729015545099309,0.7862411996727035
-3.938,0.6542945270905358,0.8286277532933731
-3.9375,0.6436243522328531,0.6696781772158616
-3.937,0.5475927785137094,0.4471487707073456
-3.9365,0.4408910299368829,0.2564092794143318
-3.936,0.408880505363835,0.1186529801471552
-3.9355,0.6009436528021226,-0.01910331912002144
-3.935,0.8356874996711408,-0.4217755785163839
-3.9345,0.3661998059331045,-1.01518732920576
-3.934,-0.3807124341046804,-1.566212526274467
-3.9335,-0.8288597781273515,-1.629792356705471
-3.933,-0.7008176798351597,-1.01518732920576
-3.9325,-0.3700422592469978,-0.3899856633008816
-3.932,-0.07127736323188383,0.07626642652648545
-3.9315,0.142126133921769,0.3623756634660061
-3.931,0.2488278824985954,0.5001319627331828
-3.9305,0.3021787567870086,0.55311515475902
-3.93,0.3021787567870086,0.5425185163538525
-3.9295,0.291508581929326,0.5213252395435176
-3.929,0.2701682322139607,0.5001319627331828
-3.9285,0.2488278824985954,0.4789386859228479
-3.928,0.2381577076409128,0.457745409112513
-3.9275,0.2061471830678648,0.4047622170866759
-3.927,-0.1459685872356623,-0.07208651114585861
-3.9265,-0.6367966306890638,-0.7396747306714069
-3.926,-0.9995825758502737,-1.34368311976595
-3.9255,-1.170305373573196,-1.703968825541643
-3.925,-0.8608703027003992,-1.184733543688439
-3.9245,-0.3807124341046804,-0.4535654937318862
-3.924,-0.007256314085787988,0.1186529801471552
-3.9235,0.2168173579255475,0.4259554938970107
-3.923,0.3341892813600565,0.5319218779486851
-3.9225,0.3768699807907871,0.5319218779486851
-3.922,0.3875401556484697,0.5001319627331828
-3.9215,0.4622313796522482,0.6060983467848571
-3.921,0.4835717293676135,0.6166949851900245
-3.9205,0.4515612047945656,0.5319218779486851
-3.92,0.408880505363835,0.4259554938970107
-3.9195,0.3768699807907871,0.3411823866556712
-3.919,0.4302208550792003,0.1822328105781598
-3.9185,0.7396559259519968,-0.4111789401112165
-3.918,0.408880505363835,-1.078767159636765
-3.9175,-0.2313299860971235,-1.672178910326141
-3.917,-0.6688071552621118,-1.778145294377815
-3.9165,-0.5941159312583333,-1.0999604364471
-3.916,-0.3166913849585846,-0.400582301706049
-3.9155,-0.04993701351651855,0.1186529801471552
-3.915,0.142126133921769,0.4365521323021782
-3.9145,0.2488278824985954,0.5849050699745222
-3.914,0.291508581929326,0.6166949851900245
-3.9135,0.3021787567870086,0.6060983467848571
-3.913,0.291508581929326,0.5743084315693548
-3.9125,0.2594980573562781,0.5213252395435176
-3.912,0.2488278824985954,0.4895353243280153
-3.9115,0.2381577076409128,0.4471487707073456
-3.911,0.2274875327832301,0.4047622170866759
-3.9105,-0.03926683865883591,0.1186529801471552
-3.91,-0.5194247072545548,-0.5383386009732256
-3.9095,-0.9035510021311299,-1.205926820498774
-3.909,-1.159635198715513,-1.576809164679634
-3.9085,-0.8715404775580819,-1.110557074852267
-3.908,-0.3700422592469978,-0.4959520473525559
-3.9075,0.05676473506030786,-0.07208651114585861
-3.907,0.3021787567870086,0.1716361721729923
-3.9065,0.408880505363835,0.2987958330350016
-3.906,0.4195506802215176,0.3517790250608387
-3.9055,0.3982103305061524,0.3517790250608387
-3.905,0.5262524287983441,0.4789386859228479
-3.9045,0.6436243522328531,0.5637117931641874
-3.904,0.6329541773751706,0.5107286011383502
-3.9035,0.5369226036560266,0.4047622170866759
-3.903,0.4408910299368829,0.3305857482505039
-3.9025,0.3875401556484697,0.2881991946298341
-3.902,0.6542945270905358,0.1504428953626575
-3.9015,0.7716664505250448,-0.400582301706049
-3.901,0.2594980573562781,-1.004590690800593
-3.9005,-0.4127229586777283,-1.439052865412457
-3.9,-0.6261264558313813,-1.205926820498774
-3.8995,-0.4447334832507763,-0.5807251545938954
-3.899,-0.1779791118087102,0.002089957690313421
-3.8985,0.04609456020262521,0.4047622170866759
-3.898,0.1954770082101822,0.627291623595192
-3.8975,0.2594980573562781,0.7332580076468663
-3.897,0.291508581929326,0.7438546460520338
-3.8965,0.291508581929326,0.7226613692416989
-3.896,0.2701682322139607,0.6802748156210291
-3.8955,0.2381577076409128,0.627291623595192
-3.895,0.2381577076409128,0.5849050699745222
-3.8945,0.2381577076409128,0.5319218779486851
-3.894,0.1741366584948169,0.4153588554918433
-3.8935,-0.2420001609548061,-0.09327978795619347
-3.893,-0.6367966306890638,-0.7502713690765743
-3.8925,-0.9569018764195432,-1.322489842955616
-3.892,-1.020922925565639,-1.407262950196955
-3.8915,-0.6261264558313813,-0.8880276683437509
-3.891,-0.1779791118087102,-0.3687923864905467
-3.8905,0.142126133921769,-0.01910331912002144
-3.89,0.3128489316446912,0.1716361721729923
-3.8895,0.3768699807907871,0.2458126410091644
-3.889,0.3875401556484697,0.2458126410091644
-3.8885,0.4622313796522482,0.309392471440169
-3.888,0.6009436528021226,0.4471487707073456
-3.8875,0.5796033030867573,0.4259554938970107
-3.887,0.5049120790829789,0.3517790250608387
-3.8865,0.4515612047945656,0.309392471440169
