Class_7_Listen_To_Music/Class_7_Listen_To_Music_Zakour_2.csv

#Digilent WaveForms Oscilloscope Acquisition
#Device Name: EExplorer
#Serial Number: SN:210151A2B84A
#Date Time: 2020-10-27 13:54:59.075
#Sample rate: 2000Hz
#Samples: 16384
#Trigger: Source: Channel 1 Type: Edge Condition: Rising Level: 0 V Hyst.: Auto HoldOff: 0 s
#Channel 1: Range: 1 V/div Offset: 0 V Attenuation: 1 X
#Channel 2: Range: 1 V/div Offset: 0 V Attenuation: 1 X
#Power Supplies: ON
#Fixed Supply: ON
#Voltage: 3.3 V Readback: 3.329 V
#Positive Supply: ON
#Voltage: 3.7 V Readback: 3.72 V
#Current: 500 mA Readback: 21 mA
#Negative Supply: ON
#Voltage: -3.7 V Readback: -3.703 V
#Current: -500 mA Readback: -8 mA
#Reference 1: ON
#Voltage: 0 V
#Reference 2: ON
#Voltage: 0 V

Time (s),Channel 1 (V),Channel 2 (V)
-4.096,0.2808384070716433,-0.792657922697244
-4.0955,0.0674349099181846,-0.8032545611024018
-4.095,-0.01792648894351915,-0.8562377531283257
-4.0945,-0.07127736323188383,-0.9410108603695881
-4.094,-0.07127736323188383,-0.9622041371799036
-4.0935,-0.04993701351650884,-0.5701285161883328
-4.093,-0.03926683865883591,-0.1356663415768632
-4.0925,-0.02859666380116298,0.1398462569572395
-4.092,-0.03926683865906882,0.309392471440034
-4.0915,-0.2953510352432193,0.1610395337678249
-4.091,-1.095614149569417,-0.5171453241628908
-4.0905,-1.959898313042342,-1.152943628473178
-4.09,-2.653459678791083,-1.417859588602123
-4.0895,-2.941554399948514,-1.333086481360783
-4.089,-2.952224574806187,-1.078767159636996
-4.0885,-2.482736881068161,-0.4641621321370536
-4.088,-1.46907026958831,0.627291623595192
-4.0875,-0.7008176798358585,1.64456891049034
-4.087,-0.2206598112392176,2.354543683637821
-4.0865,0.02475421048725994,2.725426027818344
-4.086,0.1101156093486434,2.831392411869922
-4.0855,0.1101156093487114,2.608863005361213
-4.085,0.09944543449103843,2.290963853206479
-4.0845,0.09944543449103843,1.920081509025956
-4.084,0.1101156093488472,1.506812611223472
-4.0835,0.2488278824985954,0.8286277532933731
-4.083,0.8676980242441885,-0.1568596183871981
-4.0825,1.699971663144036,-1.089363798042587
-4.082,2.361522504319758,-1.809935209593318
-4.0815,2.457554078038902,-2.223204107394847
-4.081,1.956055859728274,-2.000674700886534
-4.0805,1.294505018551494,-1.492036057438295
-4.08,0.707645401378949,-1.121153713257435
-4.0795,0.3021787567873774,-0.9198175835594363
-4.079,0.07810508477559551,-0.8562377531282775
-4.0785,-0.007256314085787988,-0.8880276683437509
-4.078,-0.0392668386588068,-0.9198175835592244
-4.0775,-0.0819475380895956,-0.9833974139900554
-4.077,-0.1139580626626144,-0.7608680074817418
-4.0765,-0.1032878878049415,-0.2946159176547987
-4.076,-0.07127736323187413,0.01268659609563506
-4.0755,-0.06060718837420119,0.1822328105781598
-4.075,-0.06060718837420119,0.2458126410091644
-4.0745,0.03542438534539868,-0.1462629799826475
-4.074,0.5369226036560266,-0.8244478379127463
-4.0735,0.9957401225363802,-1.258910012524611
-4.073,0.5902734779448087,-1.333086481360716
-4.0725,-0.5621054066852853,-1.152943628472937
-4.072,-1.191645723288561,-0.5595318777835605
-4.0715,-1.095614149569505,0.5531151547580082
-4.071,-0.7434983792655797,1.623375633681615
-4.0705,-0.4020527838200457,2.375736960447818
-4.07,-0.1566387620935682,2.789005858248973
-4.0695,-0.02859666380110475,2.937358795921625
-4.069,0.02475421048725994,2.863182327085521
-4.0685,0.04609456020262521,2.651249558982172
-4.068,0.05676473506031757,2.322753768421567
-4.0675,0.0674349099179905,1.867098316999781
-4.067,0.1207857842064037,1.188913459069066
-4.0665,0.5049120790837262,0.2352160026030717
-4.066,1.326515543124542,-0.7820612842920766
-4.0655,2.094768132877692,-1.576809164679634
-4.065,2.553585651757628,-2.138431000152997
-4.0645,2.468224252896585,-2.223204107394847
-4.064,1.849354111150991,-1.672178910326141
-4.0635,1.123782220829232,-1.110557074852778
-4.063,0.536922603655687,-0.8562377531282102
-4.0625,0.1634664836371343,-0.8138511995075789
-4.062,-0.007256314085632709,-0.8562377531282102
-4.0615,-0.0819475380895956,-0.9304142219645074
-4.061,-0.1139580626626144,-1.025783967610927
-4.0605,-0.156638762093345,-1.025783967610927
-4.06,-0.1459685872356332,-0.8668343915332716
-4.0595,-0.1139580626626144,-0.7078848154559045
-4.059,-0.09261771294724913,-0.5171453241628908
-4.0585,-0.07127736323190323,-0.3158091944648926
-4.058,0.02475421048725994,-0.3687923864905467
-4.0575,0.3341892813600565,-0.8562377531282487
-4.057,0.5155822539404964,-1.290699927739718
-4.0565,0.3448594562177392,-1.34368311976595
-4.056,-0.6047861061160158,-1.163540266878104
-4.0555,-1.650463242167964,-0.8880276683440015
-4.055,-2.077270236475852,-0.432372216920655
-4.0545,-1.67180359188428,0.55311515475902
-4.054,-1.031593100423904,1.580989080059326
-4.0535,-0.5087545323965615,2.322753768422348
-4.053,-0.1673089369510276,2.725426027818344
-4.0525,-0.007256314085787988,2.820795773464851
-4.052,0.05676473506032727,2.640652920576705
-4.0515,0.07810508477567314,2.312157130016814
-4.051,0.07810508477567314,1.920081509025619
-4.0505,0.09944543449101903,1.43263614238836
-4.05,0.291508581929326,0.701468092431364
-4.0495,0.9957401225363802,-0.3052125560595421
-4.049,1.817343586577196,-1.205926820497955
-4.0485,2.414873378608327,-1.884111678429837
-4.048,2.585596176331094,-2.265590661015517
-4.0475,2.126778657451158,-1.958288147265941
-4.047,1.411876941985382,-1.386069673386264
-4.0465,0.7289857510943143,-0.9939940523954253
-4.046,0.2274875327836862,-0.7714646458871116
-4.0455,-0.04993701351660589,-0.6866915386455698
-4.045,-0.1459685872356623,-0.6866915386455698
-4.0445,-0.1459685872356623,-0.7502713690765743
-4.044,0.08877525963352076,-0.930414221964228
-4.0435,0.2701682322139607,-0.718481453861072
-4.043,0.2381577076409128,-0.252229364033705
-4.0425,0.1421261339218563,0.08686306493134444
-4.042,0.03542438534494258,0.2458126410091644
-4.0415,-0.1352984123779797,0.13984625695749
-4.041,-0.5941159312579161,-0.474758770541662
-4.0405,-1.362368521012173,-1.142346990068126
-4.04,-2.119950935906951,-1.534422611058964
-4.0395,-2.792171951940346,-1.566212526274438
-4.039,-2.962894749663356,-1.322489842954912
-4.0385,-2.386705307349017,-0.5489352393783931
-4.038,-1.41571939530078,0.5955017083786487
-4.0375,-0.6794773301193769,1.570392441655691
-4.037,-0.2206598112394408,2.227384022775475
-4.0365,0.01408403562957729,2.566476451740832
-4.036,0.07810508477567314,2.672442835792372
-4.0355,0.07810508477567314,2.524089898120163
-4.035,0.0674349099179905,2.20619074596514
-4.0345,0.05676473506031757,1.814115124974301
-4.034,0.0674349099179905,1.305476481525908
-4.0335,0.1848068333524996,0.5849050699745222
-4.033,0.7609962756668383,-0.2946159176535748
-4.0325,1.593269914567239,-1.131750351663209
-4.032,2.28683128031598,-1.79933857118815
-4.0315,2.585596176330822,-2.233800745799619
-4.031,2.222810231169244,-1.96888478567026
-4.0305,1.51857869056283,-1.34368311976595
-4.03,0.8143471499564158,-0.8986243067493231
-4.0295,0.3128489316444001,-0.6972881770506794
-4.029,-0.007256314085787988,-0.6337083466197325
-4.0285,-0.1459685872356623,-0.6443049850249
-4.028,-0.2099896363818067,-0.7078848154560009
-4.0275,-0.2633405106701714,-0.8138511995075789
-4.027,-0.3060212101009019,-0.6019184314042303
-4.0265,-0.2526703358125372,-0.2098428104133918
-4.026,-0.1673089369510276,0.04447651131098315
-4.0255,-0.1139580626626144,0.1610395337678249
-4.025,-0.07127736323192264,0.1716361721729827
-4.0245,0.4088805053646502,-0.2310360872239869
-4.024,1.305175193409177,-0.9092209451540858
-4.0235,1.988066384300245,-1.375473034981029
-4.023,1.465227816273077,-1.481439419032973
-4.0225,-0.007256314085787988,-1.311893204550448
-4.022,-0.9569018764186795,-0.7820612842925584
-4.0215,-1.052933450138444,0.2881991946308075
-4.021,-0.7861790786966207,1.358459673551745
-4.0205,-0.4767440078238243,2.142610915534135
-4.02,-0.2313299860969973,2.587669728551331
-4.0195,-0.09261771294724913,2.767812581439014
-4.019,-0.01792648894347063,2.725426027818344
-4.0185,0.01408403562954818,2.534686536525504
-4.018,0.04609456020262521,2.184997469154805
-4.0175,0.0674349099179905,1.761131932948107
-4.017,0.09944543449100932,1.199510097474744
-4.0165,0.3555296310761011,0.4365521323013108
-4.016,1.102441871113207,-0.5171453241628908
-4.0155,1.91337516029635,-1.343683119765199
-4.015,2.404203203750333,-1.905304955239796
-4.0145,2.233480406027567,-1.873515040024322
-4.014,1.635950613997882,-1.492036057438642
-4.0135,0.9743997728205297,-1.174136905283079
-4.013,0.4408910299368829,-0.9622041371799229
-4.0125,0.08877525963335578,-0.8774310299385835
-4.012,-0.113958062662692,-0.8986243067489184
-4.0115,-0.1993194615240755,-0.8986243067489184
-4.011,-0.1886492866663929,-0.9092209451540858
-4.0105,-0.1993194615240658,-0.8244478379128235
-4.01,-0.1673089369510276,-0.5913217929990628
-4.0095,-0.1352984123779797,-0.4323722169215513
-4.009,-0.1032878878049609,-0.2946159176545
-4.0085,-0.08194753808950825,-0.1462629799821077
-4.008,-0.01792648894347063,-0.2310360872233701
-4.0075,0.2594980573560257,-0.750271369076102
-4.007,0.1954770082095223,-1.205926820498899
-4.0065,-0.5300948821122373,-1.34368311976595
-4.006,-1.522421143876723,-1.216523458903942
-4.0055,-2.162631635337439,-0.8774310299378124
-4.005,-1.895877263895616,-0.02969995752518888
-4.0045,-1.255666772434657,1.104140351827727
-4.004,-0.6688071552617527,2.026047893077814
-4.0035,-0.274010685527854,2.598266366956334
-4.003,-0.06060718837420119,2.873778965490688
-4.0025,0.01408403562950936,2.894972242301004
-4.002,0.03542438534494258,2.714829389413176
-4.0015,0.04609456020262521,2.418123514068488
-4.001,0.04609456020262521,2.02604789307765
-4.0005,0.06743490991815548,1.475022696007873
-4,0.2488278824985954,0.6908714540261965
-3.9995,0.9530594231056497,-0.3052125560595421
-3.999,1.785333062004896,-1.205926820498774
-3.9985,2.404203203750489,-1.894708316834657
-3.998,2.574926001473411,-2.244397384205182
-3.9975,2.062757608304644,-1.84172512480882
-3.997,1.326515543124542,-1.333086481360783
-3.9965,0.6649647019482183,-0.9622041371799229
-3.996,0.2168173579255475,-0.8138511995075789
-3.9955,-0.04993701351651855,-0.8138511995075789
-3.995,-0.1779791118087102,-0.8986243067489184
-3.9945,-0.2099896363817582,-1.004590690800593
-3.994,-0.3166913849585846,-0.9728007755850904
-3.9935,-0.3273615598162672,-0.5383386009732256
-3.993,-0.2633405106701714,-0.1356663415768632
-3.9925,-0.1886492866663929,0.07626642652648545
-3.992,-0.1352984123779797,0.1716361721729923
-3.9915,-0.2526703358124887,0.1080563417419877
-3.991,-0.9142211769888124,-0.4641621321370536
-3.9905,-1.789175515318789,-1.0999604364471
-3.99,-2.60010880450267,-1.42845622700729
-3.9895,-2.96289474966388,-1.417859588602123
-3.989,-2.941554399948514,-1.0999604364471
-3.9885,-2.151961460479999,-0.1992461720078678
-3.988,-1.212986073003927,0.9557874141553824
-3.9875,-0.5407650569699201,1.898888232215284
-3.987,-0.156638762093345,2.513493259714995
-3.9865,0.02475421048725994,2.820795773464851
-3.986,0.0674349099179905,2.884375603895855
-3.9855,0.05676473506030786,2.736022666223511
-3.985,0.03542438534494258,2.396930237258153
-3.9845,0.02475421048725994,1.962468062646288
-3.984,0.03542438534494258,1.443232780793084
-3.9835,0.142126133921769,0.7226613692416989
-3.983,0.7396559259519968,-0.2204394488182027
-3.9825,1.582599739708926,-1.110557074852267
-3.982,2.265490930600615,-1.79933857118815
-3.9815,2.446883903181219,-2.180817553774178
-3.981,1.998736559158548,-2.000674700886331
-3.9805,1.294505018551494,-1.492036057438295
-3.98,0.6969752265212663,-1.05757388282643
-3.9795,0.3021787567870086,-0.8350444763179138
-3.979,0.1101156093487211,-0.7714646458869092
-3.9785,-0.007256314085787988,-0.8138511995075789
-3.978,-0.08194753808956648,-0.8774310299385835
-3.9775,-0.156638762093345,-0.9410108603695881
-3.977,-0.2526703358124887,-0.6760949002404023
-3.9765,-0.2420001609548061,-0.3475991096802118
-3.976,-0.1886492866663929,-0.09327978795619347
-3.9755,-0.1352984123779797,0.05507314971615059
-3.975,-0.09261771294724913,0.1504428953626575
-3.9745,0.2594980573562781,-0.1780528951975329
-3.974,0.9637295979633325,-0.8350444763179138
-3.9735,1.315845368266859,-1.301296566145281
-3.973,0.7609962756673623,-1.417859588602123
-3.9725,-0.5300948821122373,-1.248313374119443
-3.972,-1.51175096901904,-0.8562377531282487
-3.9715,-1.533091318734406,0.1080563417419877
-3.971,-1.1062843244271,1.241896651094903
-3.9705,-0.6474668055467465,2.1214176387238
-3.97,-0.3060212101009019,2.661846197387339
-3.9695,-0.1032878878049318,2.894972242301023
-3.969,-0.01792648894347063,2.831392411870018
-3.9685,0.01408403562957729,2.577073090146
-3.968,0.03542438534494258,2.195594107559972
-3.9675,0.04609456020262521,1.803518486568777
-3.967,0.08877525963335578,1.241896651094903
-3.9665,0.4408910299368829,0.383568940276341
-3.966,1.230483969405398,-0.6125150698093976
-3.9655,2.009406734016231,-1.42845622700729
-3.965,2.446883903181219,-2.011271339291499
-3.9645,2.180129531739154,-1.915901593644992
-3.964,1.539919040278195,-1.42845622700729
-3.9635,0.8997085488172365,-1.004590690800593
-3.963,0.3982103305061524,-0.8456411147230812
-3.9625,0.05676473506030786,-0.8138511995075789
-3.962,-0.1352984123779797,-0.8350444763179138
-3.9615,-0.1993194615240755,-0.8774310299385835
-3.961,-0.2313299860971235,-0.9622041371799229
-3.9605,-0.3060212101009019,-0.9198175835592532
-3.96,-0.2846808603855366,-0.6654982618352349
-3.9595,-0.2099896363817582,-0.4323722169215513
-3.959,-0.156638762093345,-0.2204394488182027
-3.9585,-0.124628237520297,-0.04029659593035631
-3.958,0.00341386077189465,-0.1144730647665284
-3.9575,0.5475927785137094,-0.6549016234300674
-3.957,1.049090996824793,-1.163540266878104
-3.9565,1.027750647109428,-1.354279758171118
-3.956,-0.06060718837420119,-1.258910012524611
-3.9555,-1.234326422719292,-0.9939940523954253
-3.955,-1.554431668449771,-0.3052125560595421
-3.9545,-1.244996597576974,0.7862411996727035
-3.954,-0.7861790786966207,1.771728571353275
-3.9535,-0.4020527838200457,2.418123514068488
-3.953,-0.1673089369510276,2.746619304628679
-3.9525,-0.06060718837420119,2.757215943033846
-3.952,-0.007256314085787988,2.577073090146
-3.9515,0.01408403562957729,2.312157130016814
-3.951,0.02475421048725994,1.920081509025619
-3.9505,0.05676473506030786,1.400846227172415
-3.95,0.3875401556484697,0.5319218779486851
-3.9495,1.081101521397841,-0.5065486857577234
-3.949,1.860024286008674,-1.375473034981453
-3.9485,2.414873378608172,-2.021867977696666
-3.948,2.510904952327315,-2.307977214636187
-3.9475,1.998736559158548,-1.831128486403653
-3.947,1.251824319120764,-1.163540266878104
-3.9465,0.6116138276598051,-0.792657922697244
-3.946,0.2168173579255475,-0.6654982618352349
-3.9455,0.02475421048725994,-0.6972881770507372
-3.945,-0.08194753808956648,-0.8138511995075789
-3.9445,-0.1886492866663929,-0.8456411147230812
-3.944,-0.1993194615240755,-0.8456411147230812
-3.9435,-0.156638762093345,-0.5171453241628908
-3.943,-0.1352984123779797,-0.2098428104130352
-3.9425,-0.124628237520297,-0.008506680714854012
-3.942,-0.124628237520297,0.1186529801471552
-3.9415,-0.1993194615240755,0.1080563417419877
-3.941,-0.2313299860971235,-0.4217755785163839
-3.9405,-0.4980843575391895,-1.05757388282643
-3.94,-1.138294849000148,-1.407262950196955
-3.9395,-1.917217613610981,-1.417859588602123
-3.939,-2.536087755356574,-1.163540266878104
-3.9385,-2.226652684483777,-0.4641621321370536
-3.938,-1.479740444445993,0.6696781772158616
-3.9375,-0.807519428411986,1.697552102517103
-3.937,-0.3380317346739499,2.407526875663321
-3.9365,-0.09261771294724913,2.778409219844181
-3.936,0.00341386077189465,2.884375603895855
-3.9355,0.01408403562957729,2.736022666223511
-3.935,0.01408403562957729,2.365140322042651
-3.9345,0.00341386077189465,1.941274785835954
-3.934,0.01408403562957729,1.464426057603419
-3.9335,0.1101156093487211,0.7544512844572011
-3.933,0.6863050516635838,-0.1992461720078678
-3.9325,1.529248865420512,-1.110557074852267
-3.932,2.222810231169884,-1.809935209593318
-3.9315,2.564255826615728,-2.286783937825852
-3.931,2.329511979746711,-2.149027638558676
-3.9305,1.667961138570387,-1.492036057438295
-3.93,0.9637295979633325,-1.01518732920576
-3.9295,0.3875401556484697,-0.8032545611024114
-3.929,0.04609456020262521,-0.7820612842920766
-3.9285,-0.09261771294724913,-0.8350444763179138
-3.928,-0.1459685872356623,-0.9622041371799229
-3.9275,-0.2313299860971235,-1.142346990067769
-3.927,-0.3380317346739499,-1.004590690800593
-3.9265,-0.3166913849585846,-0.570128516188728
-3.926,-0.2420001609548061,-0.1780528951975329
-3.9255,-0.1779791118087102,0.08686306493165288
-3.925,-0.1673089369510276,0.1822328105781598
-3.9245,-0.1993194615240755,-0.2416327256285375
-3.924,0.07810508477567314,-0.9198175835592532
-3.9235,0.291508581929326,-1.354279758171118
-3.923,-0.2313299860971235,-1.42845622700729
-3.9225,-1.223656247861609,-1.248313374119443
-3.922,-1.661133417026597,-0.718481453861072
-3.9215,-1.373038695869166,0.3411823866556712
-3.921,-0.8928808272734472,1.400846227172415
-3.9205,-0.4767440078238243,2.16380419234447
-3.92,-0.2099896363817582,2.587669728551167
-3.9195,-0.08194753808956648,2.757215943033846
-3.919,-0.02859666380115328,2.683039474197674
-3.9185,-0.01792648894347063,2.502896621309828
-3.918,-0.007256314085787988,2.216787384370307
-3.9175,0.00341386077189465,1.835308401784279
-3.917,0.0674349099179905,1.220703374284568
-3.9165,0.4302208550792003,0.3305857482505039
-3.916,1.241154144263081,-0.6760949002404023
-3.9155,2.009406734016231,-1.492036057438295
-3.915,2.542915476900363,-2.117237723343173
-3.9145,2.628276875761824,-2.339767129851689
-3.914,2.08409795802001,-1.862918401619155
-3.9135,1.315845368266859,-1.142346990067769
-3.913,0.6329541773751706,-0.7396747306714069
-3.9125,0.1848068333524996,-0.5913217929990628
-3.912,-0.007256314085787988,-0.5913217929990628
-3.9115,-0.07127736323188383,-0.6972881770507372
-3.911,-0.1032878878049318,-0.8774310299385835
-3.9105,-0.1459685872356623,-0.8562377531282487
-3.91,-0.156638762093345,-0.6866915386455698
-3.9095,-0.156638762093345,-0.5383386009732256
-3.909,-0.1459685872356623,-0.3687923864905467
-3.9085,-0.156638762093345,-0.1780528951975329
-3.908,-0.3487019095316325,-0.3687923864905467
-3.9075,-0.6688071552621118,-0.9410108603695881
-3.907,-0.8928808272734472,-1.439052865412457
-3.9065,-1.180975548430879,-1.619195718300304
-3.906,-1.810515865034154,-1.492036057438295
-3.9055,-2.205312334768412,-1.142346990067769
-3.905,-1.821186039891837,-0.2416327256285375
-3.9045,-1.170305373573196,0.8816109453192104
-3.904,-0.6154562809736985,1.79292184816361
-3.9035,-0.2633405106701714,2.375736960447818
-3.903,-0.08194753808956648,2.651249558982172
-3.9025,-0.01792648894347063,2.683039474197674
-3.902,-0.007256314085787988,2.49229998290466
-3.9015,0.01408403562957729,2.142610915534135
-3.901,0.02475421048725994,1.729342017732605
-3.9005,0.03542438534494258,1.199510097474233
-3.9,0.2381577076409128,0.4895353243280153
-3.8995,0.9530594231056497,-0.4111789401112165
-3.899,1.774662887147213,-1.237716735714276
-3.8985,2.340182154604393,-1.862918401619155
-3.898,2.244150580885249,-1.894708316834657
-3.8975,1.689301488285752,-1.439052865412457
-3.897,1.049090996824793,-1.025783967610927
-3.8965,0.5262524287983441,-0.8138511995075789
-3.896,0.1314559590640864,-0.7502713690765743
-3.8955,-0.09261771294724913,-0.8032545611024114
-3.895,-0.1673089369510276,-0.8986243067489184
-3.8945,-0.1886492866663929,-0.9516074987747555
-3.894,-0.2206598112394408,-0.9939940523954253
-3.8935,-0.2099896363817582,-0.7714646458869092
-3.893,-0.1779791118087102,-0.474758770542221
-3.8925,-0.156638762093345,-0.2734226408440398
-3.892,-0.1352984123779797,-0.08268314955102604
-3.8915,-0.2420001609548061,-0.07208651114585861
-3.891,-0.5300948821122373,-0.570128516188728
-3.8905,-0.9675720512772257,-1.0999604364471
-3.89,-1.415719395299897,-1.333086481360783
-3.8895,-1.959898313041711,-1.248313374119443
-3.889,-2.525417580498891,-0.9728007755850904
-3.8885,-2.280003558772191,-0.2840192792492073
-3.888,-1.533091318734406,0.8392243916985406
-3.8875,-0.8502001278427167,1.835308401784279
-3.887,-0.3807124341046804,2.502896621309828
-3.8865,-0.1139580626626144,2.841989050275186
