Class_7_Listen_To_Music/Class_7_Listen_To_Music_1_UZ_9.csv

#Digilent WaveForms Oscilloscope Acquisition
#Device Name: EExplorer
#Serial Number: SN:210151A2B84A
#Date Time: 2020-12-21 13:39:47.075
#Sample rate: 2000Hz
#Samples: 16384
#Trigger: Source: Channel 1 Type: Edge Condition: Rising Level: 0 V Hyst.: Auto HoldOff: 0 s
#Channel 1: Range: 1 V/div Offset: 0 V
#Channel 2: Range: 1 V/div Offset: 0 V

Time (s),Channel 1 (V),Channel 2 (V)
-4.0960000000000001,1.3691962425552726,1.0617537982070568
-4.0955000000000004,0.62228400251816718,1.1253336286380038
-4.0949999999999998,0.53692260365612365,0.40476221708615545
-4.0945,0.64362435223285308,-0.1674562567923655
-4.0940000000000003,0.75032610080958251,-0.4641621321367837
-4.0934999999999997,0.77166645052494776,-0.59132179299909171
-4.093,0.66496470194821833,-0.62311170821456507
-4.0925000000000002,0.52625242879847023,-0.53833860097330266
-4.0919999999999996,0.3661998059331239,-0.41117894011123574
-4.0914999999999999,0.38754015564846972,-0.43237221692155131
-4.0910000000000002,0.41955068022151765,-0.42177557851638392
-4.0904999999999996,0.34485945621764214,-0.30521255605941683
-4.0899999999999999,0.23815770764091276,-0.1674562567923655
-4.0895000000000001,0.15279630877945163,-0.061489872740691176
-4.0890000000000004,0.056764735060395199,-0.019103319120059997
-4.0884999999999998,-0.41272295867772835,0.055073149716150585
-4.0880000000000001,-1.1489650238578306,0.39416557868150842
-4.0875000000000004,-1.7571649907451881,0.83922439169813579
-4.0869999999999997,-2.258663209057068,1.1995100974744066
-4.0865,-2.5254175804988912,1.3902495887672472
-4.0860000000000003,-1.9492281381845529,0.97698069096609319
-4.0854999999999997,-1.1169544992842004,0.20342608738788748
-4.085,-0.47674400782382426,-0.4641621321370536
-4.0845000000000002,-0.081947538089925553,-0.87743102993820754
-4.0839999999999996,0.12078578420646194,-1.0575738828264492
-4.0834999999999999,0.18480683335249956,-1.0787671596367647
-4.0830000000000002,0.18480683335249956,-1.0045906908005926
-4.0824999999999996,0.16346648363711488,-0.86683439153327158
-4.0819999999999999,0.14212613392176898,-0.70788481545590454
-4.0815000000000001,0.13145595906408636,-0.53833860097322561
-4.0810000000000004,0.18480683335245104,-0.33700247127522753
-4.0804999999999998,0.41955068022151765,0.033879872905815719
-4.0800000000000001,1.0811015213978414,0.59550170837968963
-4.0795000000000003,1.47589799113174,1.0723504366117906
-4.0789999999999997,0.93171907339001281,1.3054764815252715
-4.0785,0.63295417737517057,0.60609834678485708
-4.0780000000000003,0.72898575109422692,-0.2416327256277665
-4.0774999999999997,0.8463576745288427,-0.71848145386120688
-4.077,0.86769802424418851,-0.86683439153341613
-4.0765000000000002,0.75032610080978634,-0.76086800748183814
-4.0759999999999996,0.54759277851354438,-0.65490162342996139
-4.0754999999999999,0.36619980593310447,-0.53833860097322561
-4.0750000000000002,0.23815770764091276,-0.38998566330088158
-4.0744999999999996,0.18480683335245104,-0.29461591765425904
-4.0739999999999998,0.13145595906408636,-0.1674562567923655
-4.0735000000000001,0.11011560934872107,-0.050893234335523743
-4.0730000000000004,0.088775259633375181,0.044476511310896416
-4.0724999999999998,0.078105084775673142,0.097459703336820316
-4.0720000000000001,-0.13529841237797968,0.044476511310983152
-4.0715000000000003,-0.66880715526162648,0.076266426526456543
-4.0709999999999997,-1.2343264227196606,0.44714877070773112
-4.0705,-1.6397930673112322,0.87101430691404291
-4.0700000000000003,-1.6504632421689049,1.0087706061810944
-4.0694999999999997,-1.1703053735727107,0.54251851635326465
-4.069,-0.63679663068906378,-0.10387642636136091
-4.0685000000000002,-0.22065981123944084,-0.62311170821456507
-4.0679999999999996,0.02475421048735698,-0.95160749877489037
-4.0674999999999999,0.13145595906408636,-1.0999604364470996
-4.0670000000000002,0.16346648363713429,-1.1423469900677694
-4.0664999999999996,0.15279630877943223,-1.0999604364470321
-4.0659999999999998,0.13145595906408636,-1.0257839676109275
-4.0655000000000001,0.12078578420640371,-0.9092209451540858
-4.0650000000000004,0.12078578420640371,-0.79265792269735003
-4.0644999999999998,0.13145595906408636,-0.66549826183523486
-4.0640000000000001,0.19547700821018218,-0.49595204735255594
-4.0635000000000003,0.54759277851338906,-0.040296595930770673
-4.0629999999999997,0.97439977282069468,0.58490506997497516
-4.0625,0.62228400251748783,1.0829470750173917
-4.0620000000000003,0.18480683335289749,0.91340086053486691
-4.0614999999999997,0.34485945621799147,0.38356894027585914
-4.0609999999999999,0.62228400251748783,-0.14626297998203064
-4.0605000000000002,0.78233662538272752,-0.4535654937318862
-4.0599999999999996,0.78233662538263049,-0.57012851618872795
-4.0594999999999999,0.67563487680590106,-0.57012851618872795
-4.0590000000000002,0.50491207908297886,-0.48535540894738849
-4.0585000000000004,0.36619980593323065,-0.40058230170612613
-4.0579999999999998,0.45156120479456557,-0.52774196256805828
-4.0575000000000001,0.43022085507920033,-0.4641621321370536
-4.0570000000000004,0.3235191065024709,-0.2734226408442133
-4.0564999999999998,0.21681735792554749,-0.072086511145858609
-4.056,0.13145595906408636,0.097459703336820316
-4.0555000000000003,-0.0072563140856618247,0.22461936419871387
-4.0549999999999997,-0.43406330839355944,0.51072860113871643
-4.0545,-0.94623170156186043,0.9134008605347127
-4.0540000000000003,-1.4584000947301614,1.2207033742842885
-4.0534999999999997,-1.7891755153190609,0.91340086053457781
-4.0529999999999999,-2.0879404113339031,0.76504792286236856
-4.0525000000000002,-1.7251544661726932,0.45774540911251305
-4.0519999999999996,-1.0529334501381726,-0.093279787956627169
-4.0514999999999999,-0.48741418268150688,-0.57012851618872795
-4.0510000000000002,-0.10328788780493176,-0.87743102993858346
-4.0505000000000004,0.088775259633181086,-1.0151873292056348
-4.0499999999999998,0.16346648363713429,-1.0363806060160949
-4.0495000000000001,0.17413665849481691,-0.98339741399025782
-4.0490000000000004,0.15279630877947104,-0.88802766834383762
-4.0484999999999998,0.13145595906409607,-0.77146464588678398
-4.048,0.14212613392176898,-0.63370834661973252
-4.0475000000000003,0.17413665849478779,-0.48535540894752338
-4.0469999999999997,0.41955068022211933,-0.093279787955634491
-4.0465,1.0811015213978414,0.52132523954351762
-4.0460000000000003,1.1664629202592247,1.0405605213962497
-4.0454999999999997,0.6116138276598827,1.0511571598013882
-4.0449999999999999,0.69697522652126631,0.50013196273318283
-4.0445000000000002,0.88903837395955376,0.16103953376782493
-4.0439999999999996,0.96372959796327429,-0.22043944881846286
-4.0434999999999999,0.8997085488172365,-0.50654868575772338
-4.0430000000000001,0.71831557623663156,-0.60191843140423029
-4.0425000000000004,0.50491207908317293,-0.53833860097328345
-4.0419999999999998,0.31284893164469124,-0.41117894011121647
-4.0415000000000001,0.28083840707164331,-0.4535654937318862
-4.0410000000000004,0.28083840707164331,-0.4535654937318862
-4.0404999999999998,0.22748753278317188,-0.29461591765419154
-4.04,0.16346648363713429,-0.093279787956193475
-4.0395000000000003,0.1101156093487696,0.055073149716015665
-4.0389999999999997,0.035424385344554402,0.12924961855239972
-4.0385,-0.39138260896236304,0.21402272579366208
-4.0380000000000003,-1.0422632752804122,0.54251851635355375
-4.0374999999999996,-1.6184527175963328,0.95578741415558477
-4.0369999999999999,-2.1306211107646336,1.1783168206638983
-4.0365000000000002,-2.5147474056412089,1.3160731199310751
-4.0359999999999996,-1.9919088376140024,0.93459413734438246
-4.0354999999999999,-1.1596351987155133,0.20342608738849466
-4.0350000000000001,-0.51942470725455481,-0.4535654937318862
-4.0345000000000004,-0.10328788780531023,-0.86683439153304032
-4.0339999999999998,0.11011560934872107,-1.0681705212315973
-4.0335000000000001,0.18480683335249956,-1.0999604364470996
-4.0330000000000004,0.18480683335249956,-1.0363806060161527
-4.0324999999999998,0.15279630877943223,-0.90922094515396057
-4.032,0.13145595906408636,-0.77146464588690922
-4.0315000000000003,0.13145595906408636,-0.61251506980954218
-4.0309999999999997,0.15279630877964573,-0.45356549373161636
-4.0305,0.36619980593310447,-0.15685961838719809
-4.0300000000000002,0.95305942310511593,0.39416557868100732
-4.0294999999999996,0.7396559259513078,0.93459413734536556
-4.0289999999999999,-0.017926488943470625,1.2842832047155728
-4.0285000000000002,-0.18864928666639288,1.1889134590690658
-4.0279999999999996,0.14212613392206982,0.58490506997410774
-4.0274999999999999,0.47290155450993088,0.12924961855232261
-4.0270000000000001,0.63295417737517057,-0.26282600243887239
-4.0265000000000004,0.61161382765982453,-0.53833860097297503
-4.0259999999999998,0.49424190422529612,-0.61251506980939763
-4.0255000000000001,0.34485945621773917,-0.57012851618872795
-4.0250000000000004,0.2381577076410098,-0.50654868575778123
-4.0244999999999997,0.20614718306783572,-0.48535540894722468
-4.024,0.17413665849481691,-0.30521255605954212
-4.0235000000000003,0.13145595906412516,-0.082683149551228435
-4.0229999999999997,0.099445434491019016,0.086863064931768541
-4.0225,0.078105084775673142,0.21402272579366208
-4.0220000000000002,-0.12462823752011266,0.3517790250607134
-4.0214999999999996,-0.7328282044087413,0.70146809243171093
-4.0209999999999999,-1.3196878215807528,1.0829470750173917
-4.0205000000000002,-1.7891755153187892,1.3690563119569124
-4.0199999999999996,-2.2586632090566217,1.5280058880341634
-4.0194999999999999,-2.0345895370454898,1.241896651094903
-4.0190000000000001,-1.2770071221500223,0.48953532432801533
-4.0185000000000004,-0.62612645583197324,-0.24163272562787258
-4.0179999999999998,-0.17797911180871023,-0.72907809226623943
-4.0175000000000001,0.067434909917990504,-0.96220413717992292
-4.0170000000000003,0.16346648363704694,-1.0151873292057119
-4.0164999999999997,0.18480683335248016,-0.9622041371798169
-4.016,0.16346648363713429,-0.84564111472308123
-4.0155000000000003,0.14212613392178838,-0.70788481545602977
-4.0149999999999997,0.1421261339217787,-0.53833860097308106
-4.0145,0.15279630877945163,-0.37938902489571413
-4.0140000000000002,0.18480683335247045,-0.23103608722350502
-4.0134999999999996,0.34485945621803032,0.12924961855281414
-4.0129999999999999,0.66496470194821833,0.66967817721586165
-4.0125000000000002,0.62228400251748783,1.1147369902328941
-4.0119999999999996,0.45156120479473055,1.3160731199308824
-4.0114999999999998,0.63295417737517057,1.1041403518277266
-4.0110000000000001,0.80367697509809277,0.41535885549184332
-4.0105000000000004,0.85702784938645749,-0.24163272562793997
-4.0099999999999998,0.79300680024041004,-0.66549826183523486
-4.0095000000000001,0.64362435223285308,-0.82444783791274634
-4.0090000000000003,0.45156120479474027,-0.7714646458869574
-4.0084999999999997,0.31284893164479799,-0.63370834661977105
-4.008,0.43022085507920033,-0.67609490024040231
-4.0075000000000003,0.44089102993687324,-0.55953187778366653
-4.0069999999999997,0.34485945621763242,-0.3370024712748324
-4.0065,0.22748753278323011,-0.10387642636136091
-4.0060000000000002,0.14212613392176898,0.076266426526485451
-4.0054999999999996,-0.0072563140862926196,0.16103953376785385
-4.0049999999999999,-0.5621054066852853,0.19282944898332721
-4.0045000000000002,-1.2449965975769743,0.53192187794868506
-4.0039999999999996,-1.714484291315457,0.9557874141556908
-4.0034999999999998,-2.2053123347684123,1.2948798431207402
-4.0030000000000001,-2.301343908487556,1.3266697583362426
-4.0025000000000004,-1.5437614935927775,0.72266136924224822
-4.0019999999999998,-0.82885977812735145,-0.019103319120021445
-4.0015000000000001,-0.30602121010090194,-0.5807251545938954
-4.0010000000000003,0.014084035629286118,-0.89862430674862925
-4.0004999999999997,0.15279630877948075,-1.0151873292057407
-4,0.18480683335249956,-0.99399405239542526
-3.9994999999999998,0.17413665849481691,-0.9092209451540858
-3.9990000000000001,0.15279630877945163,-0.77146464588690922
-3.9984999999999999,0.15279630877945163,-0.60191843140423029
-3.9980000000000002,0.15279630877945163,-0.4535654937318862
-3.9975000000000001,0.18480683335249956,-0.30521255605954212
-3.9969999999999999,0.55826295337139209,0.065669788121318018
-3.9965000000000002,1.0277506471094282,0.62729162359519197
-3.996,0.63295417737517057,1.0935437134225592
-3.9954999999999998,0.014084035629577295,1.1783168206638983
-3.9950000000000001,0.22748753278323011,0.9134008605347127
-3.9944999999999999,0.62228400251748783,0.775644561267536
-3.9940000000000002,0.88903837395955376,0.2246193641988295
-3.9935,0.95305942310564973,-0.32640583286987701
-3.9929999999999999,0.81434714995577528,-0.65490162343006741
-3.9925000000000002,0.60094365280212259,-0.75027136907657432
-3.992,0.41955068022151765,-0.72907809226623943
-3.9914999999999998,0.41955068022151765,-0.75027136907657432
-3.9910000000000001,0.4622313796522482,-0.68669153864556975
-3.9904999999999999,0.36619980593310447,-0.43237221692155131
-3.9900000000000002,0.24882788249859539,-0.1674562567923655
-3.9895,0.15279630877945163,0.055073149716150585
-3.9889999999999999,0.05676473506030786,0.21402272579366208
-3.9885000000000002,-0.42339313353541097,0.4471487707073456
-3.988,-1.1062843244271001,0.82862775329337313
-3.9874999999999998,-1.6931439415996454,1.1783168206638983
-3.9870000000000001,-2.0559298867608553,1.3584596735517449
-3.9864999999999999,-2.4187158319220647,1.4432327807930845
-3.9860000000000002,-1.9278877884686634,1.0405605213967219
-3.9855,-1.1382948490001481,0.28819919462983412
-3.9849999999999999,-0.50875453239687207,-0.3581957480853793
-3.9845000000000002,-0.10328788780493176,-0.76086800748174177
-3.984,0.11011560934872107,-0.94101086036958814
-3.9834999999999998,0.18480683335249956,-0.96220413717992292
-3.9830000000000001,0.18480683335249956,-0.88802766834375091
-3.9824999999999999,0.16346648363713429,-0.77146464588690922
-3.9820000000000002,0.14212613392176898,-0.63370834661973252
-3.9815,0.13145595906408636,-0.49595204735255594
-3.9809999999999999,0.14212613392176898,-0.34759910968021185
-3.9805000000000001,0.31284893164469124,-0.061489872740691176
-3.98,0.73965592595199681,0.42595549389701071
-3.9794999999999998,1.0170804722517455,0.93459413734504748
-3.9790000000000001,0.79300680024041004,1.2313000126897355
-3.9784999999999999,0.77166645052504479,0.75445128445720111
-3.9780000000000002,0.93171907339028448,0.097459703336820316
-3.9775,0.99574012253638022,-0.47475877054222104
-3.9769999999999999,0.94238924824796699,-0.82444783791274634
-3.9765000000000001,0.73965592595199681,-0.9304142219644207
-3.976,0.52625242879834411,-0.87743102993858346
-3.9754999999999998,0.35552963107542179,-0.73967473067140688
-3.9750000000000001,0.30217875678700862,-0.65490162343006741
-3.9744999999999999,0.36619980593310447,-0.64430498502489997
-3.9740000000000002,0.31284893164469124,-0.47475877054222104
-3.9735,0.22748753278323011,-0.27342264084403983
-3.9729999999999999,0.15279630877945163,-0.093279787956193475
-3.9725000000000001,0.099445434491038431,0.033879872905815719
-3.972,-0.11395806266261441,0.16103953376782493
-3.9714999999999998,-0.76483872898125549,0.50013196273318283
-3.9710000000000001,-1.46907026958831,0.93459413734504748
-3.9704999999999999,-1.8852070890379329,1.0723504366122243
-3.9700000000000002,-2.1199509359069508,1.0405605213967219
-3.9695,-1.9919088376147593,0.93459413734504748
-3.9689999999999999,-1.3090176467230703,0.35177902506083869
-3.9685000000000001,-0.66880715526211176,-0.26282600243887239
-3.968,-0.20998963638175816,-0.68669153864556975
-3.9674999999999998,0.046094560202625215,-0.89862430674891836
-3.9670000000000001,0.16346648363713429,-0.95160749877475548
-3.9664999999999999,0.18480683335249956,-0.89862430674891836
-3.9660000000000002,0.16346648363713429,-0.792657922697244
-3.9655,0.14212613392176898,-0.65490162343006741
-3.9649999999999999,0.13145595906408636,-0.50654868575772338
-3.9645000000000001,0.14212613392176898,-0.3581957480853793
-3.964,0.24882788249859539,-0.15685961838719809
-3.9634999999999998,0.77166645052504479,0.28819919462983412
-3.9630000000000001,0.88903837395955376,0.76504792286236856
-3.9624999999999999,0.38754015564846972,1.1147369902328941
-3.9620000000000002,0.05676473506030786,1.2736865663104053
-3.9615,0.34485945621773917,1.2736865663104053
-3.9609999999999999,0.67563487680590106,0.81803111488820579
-3.9605000000000001,0.84635767452882327,0.10805634174198775
-3.96,0.83568749967114075,-0.42177557851638392
-3.9594999999999998,0.69697522652126631,-0.71848145386107198
-3.9590000000000001,0.52625242879834411,-0.78206128429207655
-3.9584999999999999,0.36619980593310447,-0.66549826183523486
-3.9580000000000002,0.43022085507920033,-0.60191843140423029
-3.9575,0.43022085507920033,-0.47475877054222104
-3.9569999999999999,0.32351910650237387,-0.29461591765437467
-3.9565000000000001,0.21681735792554749,-0.13566634157686319
-3.956,0.14212613392176898,-0.019103319120021445
-3.9554999999999998,-0.039266838658835915,0.044476511310983152
-3.9550000000000001,-0.64746680554674652,0.20342608738849466
-3.9544999999999999,-1.2129860730039266,0.60609834678485708
-3.9540000000000002,-1.7358246410303759,1.0405605213967219
-3.9535,-2.322684258202921,1.3584596735517449
-3.9529999999999998,-2.1946421599107295,1.241896651094903
-3.9525000000000001,-1.3837088707268488,0.55311515475901996
-3.952,-0.70081767983515975,-0.15685961838719809
-3.9514999999999998,-0.22065981123944084,-0.67609490024040231
-3.9510000000000001,0.05676473506030786,-0.94101086036958814
-3.9504999999999999,0.16346648363713429,-1.01518732920576
-3.9500000000000002,0.19547700821018218,-0.98339741399025782
-3.9495,0.17413665849481691,-0.87743102993858346
-3.9489999999999998,0.14212613392176898,-0.75027136907657432
-3.9485000000000001,0.13145595906408636,-0.61251506980939763
-3.948,0.13145595906408636,-0.47475877054222104
-3.9474999999999998,0.16346648363713429,-0.31580919446470956
-3.9470000000000001,0.25949805735627807,-0.072086511145858609
-3.9464999999999999,0.59027347794443985,0.42595549389701071
-3.9460000000000002,0.49424190422529612,0.9134008605347127
-3.9455,0.24882788249859539,1.2207033742845681
-3.9449999999999998,0.49424190422529612,1.2630899279052379
-3.9445000000000001,0.80367697509809277,0.68027481562102909
-3.944,0.93171907339028448,0.055073149716150585
-3.9434999999999998,0.91037872367491923,-0.47475877054222104
-3.9430000000000001,0.76099627566736228,-0.77146464588690922
-3.9424999999999999,0.54759277851370936,-0.84564111472308123
-3.9420000000000002,0.35552963107542179,-0.75027136907657432
-3.9415,0.33418928136005654,-0.73967473067140688
-3.9409999999999998,0.32351910650237387,-0.65490162343006741
-3.9405000000000001,0.25949805735627807,-0.4535654937318862
-3.9399999999999999,0.18480683335249956,-0.2310360872233701
-3.9394999999999998,0.12078578420640371,-0.050893234335523743
-3.9390000000000001,0.078105084775673142,0.097459703336820316
-3.9384999999999999,-0.17797911180871023,0.20342608738849466
-3.9380000000000002,-0.83952995298503397,0.46834204751768049
-3.9375,-1.405049220442214,0.87101430691404291
-3.9369999999999998,-1.586442193022819,0.86041766850887547
-3.9365000000000001,-1.8638667393225676,0.72266136924169888
-3.9359999999999999,-1.6824737667419627,0.54251851635385251
-3.9355000000000002,-1.0956141495694174,0.044476511310983152
-3.9350000000000001,-0.54076505696992005,-0.43237221692155131
-3.9344999999999999,-0.14596858723566233,-0.73967473067140688
-3.9340000000000002,0.067434909917990504,-0.87743102993858346
-3.9335,0.15279630877945163,-0.89862430674891836
-3.9329999999999998,0.17413665849481691,-0.84564111472308123
-3.9325000000000001,0.15279630877945163,-0.73967473067140688
-3.9319999999999999,0.14212613392176898,-0.62311170821456507
-3.9315000000000002,0.13145595906408636,-0.49595204735255594
-3.931,0.15279630877945163,-0.37938902489571413
-3.9304999999999999,0.25949805735627807,-0.17805289519753292
-3.9300000000000002,0.67563487680590106,0.30939247144016896
-3.9295,0.50491207908297886,0.84982103010370802
-3.9289999999999998,-0.10328788780493176,1.1783168206638983
