Class_7_Listen_To_Music/Class_7_Listen_To_Music_Suko_5.csv

#Digilent WaveForms Oscilloscope Acquisition
#Device Name: EExplorer
#Serial Number: SN:210151A2B84A
#Date Time: 2020-12-21 15:36:00.018
#Sample rate: 2000Hz
#Samples: 16384
#Trigger: Source: Channel 1 Type: Edge Condition: Rising Level: 0 V Hyst.: Auto HoldOff: 0 s
#Channel 1: Range: 1 V/div Offset: 0 V
#Channel 2: Range: 1 V/div Offset: 0 V

Time (s),Channel 1 (V),Channel 2 (V)
-4.0960000000000001,0.24882788249859539,-0.43237221692155131
-4.0955000000000004,0.2168173579255766,-0.20984281041323763
-4.0949999999999998,0.046094560202130284,0.023283234500985604
-4.0945,-0.4980843575391895,0.39416557868150842
-4.0940000000000003,-0.76483872898101279,0.83922439169813579
-4.0934999999999997,-1.1489650238580635,1.1889134590689789
-4.093,-1.405049220442214,1.0935437134225592
-4.0925000000000002,-1.234326422719447,0.36237566346667116
-4.0919999999999996,-0.71148785469230846,-0.30521255605989872
-4.0914999999999999,-0.12462823752029703,-0.6972881770507372
-4.0910000000000002,0.29150858192932599,-0.87743102993858346
-4.0904999999999996,0.53692260365609457,-0.86683439153327158
-4.0899999999999999,0.6116138276598051,-0.70788481545590454
-4.0895000000000001,0.73965592595199681,-0.66549826183523486
-4.0890000000000004,1.0064102973938203,-1.0045906908002842
-4.0884999999999998,0.95305942310564973,-0.97280077558509037
-4.0880000000000001,0.75032610080967954,-0.67609490024040231
-4.0875000000000004,0.5902734779445854,-0.37938902489598397
-4.0869999999999997,0.54759277851389376,-0.15685961838688969
-4.0865,0.75032610080967954,0.18223281057815977
-4.0860000000000003,1.0170804722515028,0.65908153881026044
-4.0854999999999997,0.35552963107460661,1.0299638829917086
-4.085,-0.54076505696992005,1.1995100974742332
-4.0845000000000002,-1.4584000947297926,1.2313000126897067
-4.0839999999999996,-1.86386673932216,0.98757732937020049
-4.0834999999999999,-1.4157193952998968,0.23521600260399694
-4.0830000000000002,-0.73282820440820751,-0.54893523937839306
-4.0824999999999996,-0.17797911180838999,-1.0681705212318189
-4.0819999999999999,0.17413665849481691,-1.3118932045504481
-4.0815000000000001,0.35552963107542179,-1.333086481360783
-4.0810000000000004,0.41955068022145942,-1.2059268204988898
-4.0804999999999998,0.3982103305061524,-0.99399405239542526
-4.0800000000000001,0.30217875678700862,-0.71848145386107198
-4.0795000000000003,0.20614718306795218,-0.45356549373212712
-4.0789999999999997,0.12078578420623873,-0.17805289519720524
-4.0785,-0.06060718837420119,0.18223281057815977
-4.0780000000000003,-0.67947733011923139,0.63788826199994508
-4.0774999999999997,-1.2983474718657368,1.0511571598021399
-4.077,-1.6824737667419627,1.3266697583362426
-4.0765000000000002,-2.0132491873298242,1.4008462271723472
-4.0759999999999996,-1.6931439415990341,0.89220758372369358
-4.0754999999999999,-1.0209229255656389,0.13984625695749003
-4.0750000000000002,-0.41272295867772835,-0.43237221692155131
-4.0744999999999996,0.11011560934902191,-0.72907809226623943
-4.0739999999999998,0.44089102993688295,-0.72907809226623943
-4.0735000000000001,0.6116138276598051,-0.53833860097322561
-4.0730000000000004,0.69697522652118871,-0.37938902489585868
-4.0724999999999998,0.93171907339028448,-0.5807251545938954
-4.0720000000000001,0.93171907339028448,-0.5807251545938954
-4.0715000000000003,0.78233662538286342,-0.37938902489589721
-4.0709999999999997,0.62228400251738103,-0.1462629799818668
-4.0705,0.50491207908297886,0.033879872905815719
-4.0700000000000003,0.5475927785136705,0.20342608738834045
-4.0694999999999997,1.0917716962558346,0.53192187794903201
-4.069,1.4332172917013686,0.9134008605347127
-4.0685000000000002,0.6116138276598051,1.1571235438535634
-4.0679999999999996,-0.50875453239770663,1.2101067358793332
-4.0674999999999999,-1.4263895701575793,1.1359302670432285
-4.0670000000000002,-1.4263895701575793,0.55311515475901996
-4.0664999999999996,-0.91422117698830785,-0.26282600243945065
-4.0659999999999998,-0.35937208438931517,-0.89862430674891836
-4.0655000000000001,0.046094560202625215,-1.2695066509297783
-4.0650000000000004,0.28083840707142982,-1.396666311791672
-4.0644999999999998,0.38754015564846972,-1.3542797581711179
-4.0640000000000001,0.3982103305061524,-1.2165234589039415
-4.0635000000000003,0.35552963107546059,-1.0151873292059432
-4.0629999999999997,0.27016823221389275,-0.75027136907635261
-4.0625,0.19547700821018218,-0.50654868575772338
-4.0620000000000003,0.035424385345088155,-0.19924617200814732
-4.0614999999999997,-0.40205278382060861,0.21402272579410542
-4.0609999999999999,-1.0209229255656389,0.70146809243136399
-4.0605000000000002,-1.3623685210114835,1.1147369902328941
-4.0599999999999996,-1.586442193022489,1.1571235438530816
-4.0594999999999999,-1.2236562478616091,0.62729162359519197
-4.0590000000000002,-0.59411593125833329,0.023283234500648287
-4.0585000000000004,-0.049937013517013518,-0.37938902489534793
-4.0579999999999998,0.33418928136005654,-0.5807251545938954
-4.0575000000000001,0.55826295337139209,-0.60191843140423029
-4.0570000000000004,0.65429452709044844,-0.51714532416296799
-4.0564999999999998,0.65429452709053582,-0.32640583286987701
-4.056,0.79300680024041004,-0.0085066807148540119
-4.0555000000000003,0.81434714995575586,0.12924961855219735
-4.0549999999999997,0.70764540137882292,0.097459703336791409
-4.0545,0.5689331282290746,0.065669788121318018
-4.0540000000000003,0.51558225394070989,0.097459703336791409
-4.0534999999999997,0.62228400251756544,0.22461936419906081
-4.0529999999999999,0.70764540137894905,0.47893868592284788
-4.0525000000000002,0.11011560934872107,0.84982103010370802
-4.0519999999999996,-0.83952995298573274,1.1147369902329711
-4.0514999999999999,-1.6077825427381842,1.1995100974742332
-4.0510000000000002,-2.2479930341991428,1.2101067358794007
-4.0505000000000004,-2.0772702364763758,0.82862775329372007
-4.0499999999999998,-1.2770071221500223,0.055073149716150585
-4.0495000000000001,-0.51942470725455481,-0.62311170821456507
-4.0490000000000004,0.0034138607714191416,-1.036380606015719
-4.0484999999999998,0.29150858192944246,-1.1847335436884006
-4.048,0.41955068022151765,-1.1423469900677694
-4.0475000000000003,0.44089102993686352,-0.99399405239556016
-4.0469999999999997,0.39821033050606508,-0.78206128429185484
-4.0465,0.30217875678700862,-0.53833860097322561
-4.0460000000000003,0.21681735792562512,-0.30521255605975417
-4.0454999999999997,0.099445434490844337,-0.029699957524880475
-4.0449999999999999,-0.11395806266261441,0.30939247144016896
-4.0445000000000002,-0.65813698040442903,0.73325800764686633
-4.0439999999999996,-1.1596351987155715,1.1147369902330386
-4.0434999999999999,-1.2236562478616091,1.2736865663104053
-4.0430000000000001,-1.0315931004233216,0.7968378380778709
-4.0425000000000004,-0.56210540668571229,0.10805634174261414
-4.0419999999999998,-0.10328788780493176,-0.38998566330088158
-4.0415000000000001,0.24882788249859539,-0.61251506980939763
-4.0410000000000004,0.49424190422507291,-0.77146464588676467
-4.0404999999999998,0.63295417737519,-0.84564111472300418
-4.04,0.65429452709053582,-0.76086800748174177
-4.0395000000000003,0.67563487680588163,-0.67609490024047947
-4.0389999999999997,0.73965592595192886,-0.61251506980920489
-4.0385,0.66496470194821833,-0.40058230170604903
-4.0380000000000003,0.56893312822916198,-0.16745625679257753
-4.0374999999999996,0.62228400251757521,0.086863064931778172
-4.0369999999999999,0.71831557623663156,0.2246193641988295
-4.0365000000000002,0.84635767452882327,0.37297230187117358
-4.0359999999999996,0.70764540137818244,0.73325800764714577
-4.0354999999999999,-0.13529841237797968,1.0405605213967219
-4.0350000000000001,-1.0422632752810042,1.2101067358794007
-4.0345000000000004,-1.8105158650334556,1.2524932895000318
-4.0339999999999998,-1.8745369141802501,0.94519077575021493
-4.0335000000000001,-1.2449965975769743,0.16103953376782493
-4.0330000000000004,-0.56210540668590636,-0.57012851618806293
-4.0324999999999998,-0.039266838658564188,-1.0363806060162684
-4.032,0.25949805735627807,-1.227120097309109
-4.0315000000000003,0.39821033050602628,-1.2165234589039511
-4.0309999999999997,0.43022085507917124,-1.0893637980417394
-4.0305,0.3982103305061524,-0.87743102993858346
-4.0300000000000002,0.3128489316447689,-0.63370834661995423
-4.0294999999999996,0.21681735792546014,-0.389985663300631
-4.0289999999999999,0.12078578420640371,-0.11447306476652835
-4.0285000000000002,-0.10328788780493176,0.24581264100916439
-4.0279999999999996,-0.66880715526267465,0.70146809243172059
-4.0274999999999999,-1.2876772970077051,1.0935437134225592
-4.0270000000000001,-1.7785053404611064,1.3584596735517449
-4.0265000000000004,-1.9492281381838736,1.3902495887672184
-4.0259999999999998,-1.586442193022819,0.81803111488820579
-4.0255000000000001,-0.8928808272734472,0.097459703336820316
-4.0250000000000004,-0.19931946152470637,-0.41117894011075384
-4.0244999999999997,0.28083840707188595,-0.67609490024044083
-4.024,0.54759277851370936,-0.71848145386107198
-4.0235000000000003,0.65429452709043878,-0.66549826183528304
-4.0229999999999997,0.69697522652144095,-0.54893523937850874
-4.0225,0.88903837395955376,-0.67609490024040231
-4.0220000000000002,0.87836819910188091,-0.57012851618882432
-4.0214999999999996,0.75032610080954365,-0.32640583286965535
-4.0209999999999999,0.60094365280212259,-0.082683149551026042
-4.0205000000000002,0.49424190422529612,0.086863064931652884
-4.0199999999999996,0.54759277851397137,0.27760255622501362
-4.0194999999999999,0.83568749967114075,0.6590815388106942
-4.0190000000000001,0.38754015564846972,1.0193672445863871
-4.0185000000000004,-0.44473348325001932,1.2101067358792272
-4.0179999999999998,-1.2983474718653876,1.2630899279052379
-4.0175000000000001,-1.8638667393225676,1.146526905448396
-4.0170000000000003,-1.5437614935923796,0.51072860113892837
-4.0164999999999997,-0.8715404775575385,-0.30521255606009146
-4.016,-0.27401068552785401,-0.9092209451540858
-4.0155000000000003,0.1314559590637176,-1.2271200973088199
-4.0149999999999997,0.34485945621780711,-1.3118932045503806
-4.0145,0.41955068022151765,-1.2377167357142764
-4.0140000000000002,0.43022085507919061,-1.0787671596369093
-4.0134999999999996,0.36619980593301715,-0.84564111472284997
-4.0129999999999999,0.27016823221396069,-0.59132179299906285
-4.0125000000000002,0.24882788249859539,-0.37938902489571413
-4.0119999999999996,0.17413665849440932,-0.13566634157649696
-4.0114999999999998,-0.27401068552785401,0.26700591781949923
-4.0110000000000001,-0.96757205127722568,0.76504792286236856
-4.0105000000000004,-1.4797404444455267,1.1465269054480491
-4.0099999999999998,-1.5651018433074537,1.0299638829915545
-4.0095000000000001,-1.3943790455845313,0.24581264100916439
-4.0090000000000003,-0.94623170156226799,-0.38998566330030332
-4.0084999999999997,-0.34870190953115698,-0.75027136907665137
-4.008,0.17413665849481691,-0.83504447631791379
-4.0075000000000003,0.50491207908267799,-0.77146464588696706
-4.0069999999999997,0.66496470194825719,-0.63370834661957831
-4.0065,0.70764540137894905,-0.4641621321370536
-4.0060000000000002,0.84635767452882327,-0.28401927924920728
-4.0054999999999996,0.8463576745287068,-0.13566634157676682
-4.0049999999999999,0.71831557623663156,-0.029699957525188878
-4.0045000000000002,0.59027347794443985,0.044476511310983152
-4.0039999999999996,0.49424190422528641,0.076266426526514358
-4.0034999999999998,0.4835717293676135,0.10805634174198775
-4.0030000000000001,0.94238924824796699,0.38356894027634103
-4.0025000000000004,1.0597611716823694,0.7862411996723373
-4.0019999999999998,0.24882788249859539,1.0829470750173917
-4.0015000000000001,-0.86087030270039921,1.2207033742845681
-4.0010000000000003,-1.7358246410295801,1.2207033742845681
-4.0004999999999997,-1.7251544661721303,0.71206473083577004
-4,-1.1062843244271001,-0.12506970317169577
-3.9994999999999998,-0.4554036581084589,-0.83504447631791379
-3.9990000000000001,0.014084035629577295,-1.2589100125246109
-3.9984999999999999,0.29150858192932599,-1.4178595886021226
-3.9980000000000002,0.40888050536383502,-1.3966663117917877
-3.9975000000000001,0.43022085507920033,-1.2589100125246109
-3.9969999999999999,0.3982103305061524,-1.0575738828264298
-3.9965000000000002,0.31284893164469124,-0.80325456110241145
-3.996,0.22748753278323011,-0.54893523937839306
-3.9954999999999998,0.12078578420640371,-0.22043944881820265
-3.9950000000000001,-0.22065981123944084,0.23521600260399694
-3.9944999999999999,-0.94623170156186043,0.74385464605203377
-3.9940000000000002,-1.522421143876723,1.1359302670432285
-3.9935,-1.9492281381840288,1.2842832047155728
-3.9929999999999999,-1.7144842913150107,0.63788826200035942
-3.9925000000000002,-1.0102527507079564,-0.19924617200786782
-3.992,-0.30602121010090194,-0.64430498502489997
-3.9914999999999998,0.21681735792554749,-0.72907809226623943
-3.9910000000000001,0.51558225394066137,-0.64430498502489997
-3.9904999999999999,0.67563487680590106,-0.47475877054222104
-3.9900000000000002,0.70764540137894905,-0.30521255605954212
-3.9895,0.80367697509809277,-0.093279787956193475
-3.9889999999999999,0.93171907339028448,0.11865298014715518
-3.9885000000000002,0.84635767452882327,0.20342608738849466
-3.988,0.69697522652126631,0.23521600260399694
-3.9874999999999998,0.5689331282290746,0.24581264100916439
-3.9870000000000001,0.50491207908297886,0.24581264100916439
-3.9864999999999999,0.82501732481345802,0.43655213230217815
-3.9860000000000002,1.3051751934091769,0.80743447648303834
-3.9855,0.86769802424418851,1.0935437134225592
-3.9849999999999999,-0.08194753808956648,1.2313000126897355
-3.9845000000000002,-1.1382948490001481,1.2524932895000704
-3.984,-1.6291228924535495,0.99817396777605205
-3.9834999999999998,-1.2663369472923398,0.2246193641988295
-3.9830000000000001,-0.65813698040442903,-0.55953187778356051
-3.9824999999999999,-0.14596858723566233,-1.0787671596367647
-3.9820000000000002,0.19547700821018218,-1.333086481360783
-3.9815,0.36619980593310447,-1.3648763965762853
-3.9809999999999999,0.41955068022151765,-1.2695066509297783
-3.9805000000000001,0.3982103305061524,-1.0787671596367647
-3.98,0.31284893164469124,-0.82444783791274634
-3.9794999999999998,0.23815770764091276,-0.5807251545938954
-3.9790000000000001,0.20614718306786484,-0.33700247127504446
-3.9784999999999999,0.18480683335249956,-0.12506970317169577
-3.9780000000000002,-0.26334051067017139,0.29879583303500157
-3.9775,-0.64746680554674652,0.7968378380778709
-3.9769999999999999,-0.95690187641954316,1.1783168206638983
-3.9765000000000001,-1.373038695869166,1.3902495887672472
-3.976,-1.4157193952998968,1.0723504366122243
-3.9754999999999998,-0.96757205127722568,0.33058574825050385
-3.9750000000000001,-0.35937208438931517,-0.31580919446470956
-3.9744999999999999,0.15279630877945163,-0.64430498502489997
-3.9740000000000002,0.47290155450993088,-0.6972881770507372
-3.9735,0.62228400251748783,-0.60191843140423029
-3.9729999999999999,0.71831557623663156,-0.4641621321370536
-3.9725000000000001,1.0384208219671107,-0.72907809226623943
-3.972,1.1237822208285719,-0.792657922697244
-3.9714999999999998,0.95305942310564973,-0.54893523937839306
-3.9710000000000001,0.72898575109431429,-0.25222936403370499
-3.9704999999999999,0.55826295337139209,-0.019103319120021445
-3.9700000000000002,0.59027347794443985,0.10805634174198775
-3.9695,1.006410297394063,0.29879583303500157
-3.9689999999999999,0.67563487680590106,0.69087145402619654
-3.9685000000000001,-0.28468086038553664,1.0405605213967219
-3.968,-1.2983474718653876,1.2313000126897355
-3.9674999999999998,-1.9065474387532981,1.2101067358794007
-3.9670000000000001,-1.5757720181651362,0.59550170837968963
-3.9664999999999999,-0.88221065241576446,-0.22043944881820265
-3.9660000000000002,-0.27401068552785401,-0.85623775312824868
-3.9655,0.13145595906408636,-1.2059268204987741
-3.9649999999999999,0.34485945621773917,-1.3224898429556156
-3.9645000000000001,0.43022085507920033,-1.2906999277401132
-3.964,0.41955068022151765,-1.1529436284729369
-3.9634999999999998,0.35552963107542179,-0.96220413717992292
-3.9630000000000001,0.27016823221396069,-0.73967473067140688
-3.9624999999999999,0.16346648363713429,-0.47475877054222104
-3.9620000000000002,-0.16730893695102761,-0.10387642636136091
-3.9615,-0.8502001278427167,0.10805634174198775
-3.9609999999999999,-1.4263895701575793,0.46834204751768049
-3.9605000000000001,-1.5437614935920885,0.90280422212954525
-3.96,-1.6397930673112322,1.2313000126897355
-3.9594999999999998,-1.7358246410303759,1.1571235438535634
-3.9590000000000001,-1.405049220442214,0.45774540911251305
-3.9584999999999999,-0.74349837926589024,-0.18864953360270037
-3.9580000000000002,-0.12462823752029703,-0.60191843140423029
-3.9575,0.31284893164469124,-0.72907809226623943
-3.9569999999999999,0.55826295337139209,-0.67609490024040231
-3.9565000000000001,0.66496470194821833,-0.50654868575772338
-3.956,0.92104889853260175,-0.22043944881820265
-3.9554999999999998,1.006410297394063,0.044476511310983152
-3.9550000000000001,0.87836819910187125,0.20342608738849466
-3.9544999999999999,0.69697522652126631,0.25640927941433178
-3.9540000000000002,0.54759277851370936,0.23521600260399694
-3.9535,0.49424190422529612,0.26700591781949923
-3.9529999999999998,0.8997085488172365,0.51072860113835017
-3.9525000000000001,0.93171907339028448,0.88161094531921036
-3.952,0.23815770764091276,1.1677201822587309
-3.9514999999999998,-0.67947733011979428,1.2948798431207402
-3.9510000000000001,-1.5010807941613578,1.2948798431207402
-3.9504999999999999,-1.4904106193036752,0.775644561267536
-3.9500000000000002,-0.95690187641954316,-0.050893234335523743
-3.9495,-0.3700422592469978,-0.76086800748174177
-3.9489999999999998,0.05676473506030786,-1.1847335436884392
-3.9485000000000001,0.29150858192932599,-1.3648763965762853
-3.948,0.40888050536383502,-1.3648763965762853
-3.9474999999999998,0.41955068022151765,-1.2589100125246109
-3.9470000000000001,0.3768699807907871,-1.0787671596367647
-3.9464999999999999,0.29150858192932599,-0.87743102993858346
-3.9460000000000002,0.21681735792554749,-0.65490162343006741
-3.9455,0.16346648363713429,-0.41117894011121647
-3.9449999999999998,-0.049937013516518552,-0.093279787956193475
-3.9445000000000001,-0.63679663068906378,0.4471487707073456
-3.944,-1.1489650238578306,0.93459413734504748
-3.9434999999999998,-1.5117509690190405,1.2736865663104053
-3.9430000000000001,-1.8318562147495197,1.4220395039827496
-3.9424999999999999,-1.6504632421689147,1.0405605213967219
-3.9420000000000002,-0.99958257585027366,0.33058574825050385
-3.9415,-0.32736155981626724,-0.31580919446470956
-3.9409999999999998,0.19547700821018218,-0.67609490024040231
-3.9405000000000001,0.51558225394066137,-0.67609490024040231
-3.9399999999999999,0.64362435223285308,-0.51714532416289083
-3.9394999999999998,0.77166645052504479,-0.4641621321370536
-3.9390000000000001,0.8997085488172365,-0.47475877054222104
-3.9384999999999999,0.81434714995577528,-0.28401927924920728
-3.9380000000000002,0.66496470194821833,-0.04029659593035631
-3.9375,0.54759277851370936,0.16103953376782493
-3.9369999999999998,0.4835717293676135,0.30939247144016896
-3.9365000000000001,0.76099627566736228,0.4471487707073456
-3.9359999999999999,1.4972383408474643,0.72266136924169888
-3.9355000000000002,1.4118769419860033,1.0193672445863871
-3.9350000000000001,0.24882788249859539,1.2207033742845681
-3.9344999999999999,-1.0209229255656389,1.3054764815259077
-3.9340000000000002,-1.6611334170265974,1.1147369902328941
-3.9335,-1.3516983461538008,0.34118238665567124
-3.9329999999999998,-0.74349837926589024,-0.48535540894738849
-3.9325000000000001,-0.19931946152407554,-1.0787671596367647
-3.9319999999999999,0.16346648363713429,-1.4072629501969551
-3.9315000000000002,0.35552963107542179,-1.5026326958434622
-3.931,0.41955068022151765,-1.4496495038176249
-3.9304999999999999,0.40888050536383502,-1.3012965661452807
-3.9300000000000002,0.33418928136005654,-1.0999604364470996
-3.9295,0.23815770764091276,-0.87743102993858346
-3.9289999999999998,0.13145595906408636,-0.59132179299906285
-3.9285000000000001,-0.049937013516518552,-0.20984281041303524
-3.9279999999999999,-0.6047861061160158,0.29879583303500157
