Class_7_Listen_To_Music/Class_7_Listen_To_Music_Turki_15.csv

#Digilent WaveForms Oscilloscope Acquisition
#Device Name: EExplorer
#Serial Number: SN:210151A2B84A
#Date Time: 2021-02-07 10:59:04.909
#Sample rate: 2000Hz
#Samples: 16384
#Trigger: Source: Channel 1 Type: Edge Condition: Rising Level: 0 V Hyst.: Auto HoldOff: 0 s
#Channel 1: Range: 1 V/div Offset: 0 V Attenuation: 1 X
#Channel 2: Range: 1 V/div Offset: 0 V Attenuation: 1 X
#Power Supplies: ON
#Fixed Supply: ON
#Voltage: 3.3 V Readback: 3.317 V
#Positive Supply: ON
#Voltage: 3.7 V Readback: 3.717 V
#Current: 40 mA Readback: 18 mA
#Negative Supply: ON
#Voltage: -3.7 V Readback: -3.348 V
#Current: -40 mA Readback: 0 A
#Reference 1: ON
#Voltage: 0 V
#Reference 2: ON
#Voltage: 0 V

Time (s),Channel 1 (V),Channel 2 (V)
-4.096,0.2488278824985954,0.1292496185523226
-4.0955,0.1954770082102307,0.1292496185523226
-4.095,-0.2313299860977445,-0.3052125560601493
-4.0945,-0.9142211769888124,-0.9728007755850904
-4.094,-1.319687821580384,-1.545019249463611
-4.0935,-1.170305373572798,-1.449649503817076
-4.093,-0.7328282044082075,-0.8456411147230812
-4.0925,-0.316691384958963,-0.2416327256290869
-4.092,-0.02859666380100771,0.1822328105783814
-4.0915,0.1314559590640864,0.4259554938970107
-4.091,0.1954770082101822,0.5319218779486851
-4.0905,0.2061471830678551,0.5531151547590103
-4.09,0.1954770082101822,0.5425185163538525
-4.0895,0.1741366584948169,0.5107286011383502
-4.089,0.163466483637144,0.468342047517719
-4.0885,0.1527963087794516,0.4365521323021782
-4.088,0.142126133921769,0.4047622170866759
-4.0875,0.142126133921769,0.3835689402763603
-4.087,0.08877525963298701,0.2776025562241655
-4.0865,-0.3166913849585846,-0.2734226408440398
-4.086,-0.5834457564004079,-0.9516074987741387
-4.0855,-0.5941159312581101,-1.375473034981231
-4.085,-0.3487019095316325,-1.131750351662602
-4.0845,-0.06060718837446322,-0.6654982618356589
-4.084,0.1421261339218466,-0.2946159176541723
-4.0835,0.2274875327832301,-0.07208651114585861
-4.083,0.2488278824985954,0.06566978812131802
-4.0825,0.248827882498576,0.1398462569574611
-4.082,0.2274875327832301,0.1080563417419877
-4.0815,0.2594980573562781,0.1080563417419877
-4.081,0.3128489316446427,0.1186529801471455
-4.0805,0.3021787567870086,0.13984625695749
-4.08,0.2701682322139607,0.1716361721729923
-4.0795,0.2381577076409419,0.2140227257936235
-4.079,0.2168173579254505,0.2458126410089909
-4.0785,0.1101156093487211,0.05507314971615059
-4.078,-0.4447334832502717,-0.5595318777830015
-4.0775,-1.010252750708092,-1.205926820498967
-4.077,-1.159635198715513,-1.417859588602123
-4.0765,-0.8502001278429981,-0.9198175835597062
-4.076,-0.4447334832504851,-0.2734226408435676
-4.0755,-0.124628237520297,0.2458126410091644
-4.075,0.07810508477567314,0.5743084315693548
-4.0745,0.174136658494846,0.7332580076469145
-4.074,0.2061471830678648,0.7862411996727035
-4.0735,0.1954770082101822,0.775644561267536
-4.073,0.1848068333525093,0.7438546460520626
-4.0725,0.1741366584948169,0.6802748156210291
-4.072,0.1527963087794516,0.627291623595192
-4.0715,0.1421261339217787,0.5637117931642452
-4.071,0.1421261339217302,0.500131962733125
-4.0705,0.09944543449103843,0.4365521323021782
-4.07,-0.3273615598158791,0.06566978812165536
-4.0695,-0.6581369804045066,-0.644304985025459
-4.069,-0.7434983792658902,-1.258910012524611
-4.0685,-0.5087545323968721,-1.354279758171118
-4.068,-0.1139580626623524,-0.9728007755846952
-4.0675,0.1741366584948169,-0.5383386009732256
-4.067,0.3128489316446912,-0.2204394488182027
-4.0665,0.3341892813600275,-0.06148987274064299
-4.066,0.3021787567870086,-0.008506680714854012
-4.0655,0.2701682322139607,0.002089957690313421
-4.065,0.2488278824986148,-0.08268314955094894
-4.0645,0.3875401556484697,-0.252229364033705
-4.064,0.408880505363835,-0.2098428104130352
-4.0635,0.3555296310754703,-0.07208651114598388
-4.063,0.2808384070716045,0.07626642652659146
-4.0625,0.2381577076409128,0.1928294489833272
-4.062,0.1314559590641834,0.1716361721730116
-4.0615,-0.4127229586780389,-0.3370024712754878
-4.061,-0.754168554123573,-0.8244478379127463
-4.0605,-0.9248913518464952,-1.205926820498774
-4.06,-0.8075194284116949,-1.046977244420781
-4.0595,-0.4874141826815069,-0.5171453241628908
-4.059,-0.1886492866663929,0.01268659609548085
-4.0585,0.02475421048706583,0.3729723018708459
-4.058,0.142126133921769,0.5849050699745222
-4.0575,0.1848068333524996,0.6696781772158616
-4.057,0.1954770082101725,0.6802748156210194
-4.0565,0.1848068333524996,0.6590815388106942
-4.056,0.1741366584948169,0.6060983467848571
-4.0555,0.163466483637144,0.5637117931642259
-4.055,0.1527963087794419,0.510728601138302
-4.0545,0.142126133921769,0.457745409112513
-4.054,0.142126133921769,0.4153588554918819
-4.0535,-0.0179264889438491,0.1822328105775719
-4.053,-0.4340633083930936,-0.4641621321370536
-4.0525,-0.690147504977477,-1.142346990067769
-4.052,-0.8181896032693776,-1.439052865412082
-4.0515,-0.4980843575391895,-1.025783967610927
-4.051,-0.1139580626626144,-0.5383386009732256
-4.0505,0.1421261339215361,-0.1780528951978606
-4.05,0.2594980573562781,0.002089957690313421
-4.0495,0.291508581929326,0.05507314971615059
-4.049,0.2701682322139801,0.033879872905835
-4.0485,0.2488278824986924,0.02328323450066756
-4.048,0.3555296310754218,0.04447651131098315
-4.0475,0.4195506802214594,0.07626642652645654
-4.047,0.3661998059330462,0.118652980147213
-4.0465,0.3021787567870086,0.1822328105781598
-4.046,0.238157707640971,0.2246193641987909
-4.0455,0.1954770082098717,0.2246193641985114
-4.045,-0.1459685872356623,-0.1250697031716958
-4.0445,-0.7434983792658902,-0.8032545611024114
-4.044,-1.212986073003995,-1.428456227007425
-4.0435,-1.287677297007705,-1.576809164679634
-4.043,-0.9142211769888124,-0.9939940523954253
-4.0425,-0.4660738329665491,-0.3264058328704842
-4.042,-0.124628237520297,0.1928294489833272
-4.0415,0.08877525963335578,0.5107286011383502
-4.041,0.1848068333524122,0.6696781772157171
-4.0405,0.2168173579255378,0.7226613692416892
-4.04,0.2061471830678648,0.7120647308365314
-4.0395,0.1954770082101919,0.680274815621058
-4.039,0.1741366584947975,0.6272916235951534
-4.0385,0.1527963087794516,0.5849050699745222
-4.038,0.1421261339217787,0.5319218779487332
-4.0375,0.1421261339217399,0.4789386859227611
-4.037,0.1101156093487211,0.383568940276341
-4.0365,-0.2526703358124887,-0.1250697031716958
-4.036,-0.5194247072546809,-0.8032545611029511
-4.0355,-0.658136980404429,-1.396666311791788
-4.035,-0.3593720843893152,-1.439052865412457
-4.0345,0.0140840356292376,-0.9516074987751988
-4.034,0.2488278824985954,-0.4535654937318862
-4.0335,0.3341892813600565,-0.1144730647665284
-4.033,0.3341892813600565,0.08686306493146978
-4.0325,0.2915085819292969,0.1610395337678346
-4.032,0.2594980573562781,0.1716361721729923
-4.0315,0.270168232213951,0.1186529801472034
-4.031,0.3235191065023544,0.03387987290580608
-4.0305,0.3021787567870086,0.02328323450064829
-4.03,0.2701682322139898,0.05507314971612167
-4.0295,0.2381577076408934,0.0974597033368685
-4.029,0.2168173579255475,0.1504428953626575
-4.0285,0.01408403562957729,-0.02969995752518888
-4.028,-0.5834457564009611,-0.6231117082151144
-4.0275,-0.9248913518464952,-1.227120097309109
-4.027,-1.1062843244271,-1.587405803084801
-4.0265,-0.8715404775582954,-1.184733543688805
-4.026,-0.4874141826815069,-0.5489352393783931
-4.0255,-0.156638762093345,0.002089957690313421
-4.025,0.05676473506011376,0.3729723018708363
-4.0245,0.1634664836371731,0.5743084315694319
-4.024,0.2061471830678648,0.6590815388106942
-4.0235,0.2061471830678648,0.6802748156210098
-4.023,0.1954770082101628,0.6590815388106653
-4.0225,0.1741366584948169,0.627291623595192
-4.022,0.163466483637144,0.5955017083797185
-4.0215,0.1527963087794419,0.5637117931641489
-4.021,0.142126133921769,0.5213252395435176
-4.0205,0.1314559590640864,0.4683420475176805
-4.02,-0.1673089369513285,0.03387987290518928
-4.0195,-0.4980843575391895,-0.6549016234300674
-4.019,-0.8288597781273515,-1.311893204550448
-4.0185,-0.8181896032696784,-1.523825972653604
-4.018,-0.4127229586777283,-1.046977244421262
-4.0175,-0.03926683865883591,-0.5171453241628908
-4.017,0.1954770082099687,-0.1250697031720523
-4.0165,0.291508581929326,0.07626642652656256
-4.016,0.291508581929326,0.1610395337678249
-4.0155,0.2701682322139801,0.1822328105781405
-4.015,0.259498057356346,0.1504428953626189
-4.0145,0.3341892813600565,0.1080563417419877
-4.014,0.3448594562177295,0.1186529801471455
-4.0135,0.3235191065023448,0.139846256957519
-4.013,0.291508581929326,0.1716361721729923
-4.0125,0.2594980573562781,0.1928294489833272
-4.012,0.1634664836366491,0.108056341741477
-4.0115,-0.3700422592469978,-0.4535654937318862
-4.011,-0.9995825758502737,-1.121153713257435
-4.0105,-1.405049220441845,-1.650985633515324
-4.01,-1.255666772434657,-1.439052865412457
-4.0095,-0.7968492535543035,-0.7714646458869092
-4.009,-0.3487019095320401,-0.1462629799825993
-4.0085,-0.02859666380099801,0.2881991946300558
-4.008,0.142126133921769,0.5319218779486851
-4.0075,0.2061471830678066,0.6378882620002631
-4.007,0.2274875327832204,0.6590815388106749
-4.0065,0.2168173579255475,0.6378882620003594
-4.006,0.1954770082101822,0.5955017083796896
-4.0055,0.1741366584948072,0.542518516353814
-4.005,0.1634664836371343,0.5001319627331828
-4.0045,0.1527963087794516,0.4683420475176805
-4.004,0.1527963087793546,0.4153588554916313
-4.0035,0.04609456020262521,0.1822328105781598
-4.003,-0.2206598112394408,-0.4853554089473885
-4.0025,-0.4554036581082454,-1.163540266877487
-4.002,-0.5621054066852853,-1.269506650929778
-4.0015,-0.3273615598162672,-0.8562377531282487
-4.001,-0.04993701351677088,-0.4111789401116213
-4.0005,0.1421261339218466,-0.1144730647664031
-4,0.2274875327832301,0.02328323450064829
-3.9995,0.2594980573562781,0.02328323450064829
-3.999,0.2488278824985954,-0.02969995752518888
-3.9985,0.2381577076409128,-0.05089323433552374
-3.998,0.3235191065023739,0.06566978812131802
-3.9975,0.3875401556484697,0.1822328105781598
-3.997,0.3555296310754218,0.2352160026039969
-3.9965,0.3021787567870086,0.2564092794143318
-3.996,0.2488278824985954,0.2670059178194992
-3.9955,0.2061471830678648,0.2352160026039969
-3.995,-0.156638762093345,-0.2204394488182027
-3.9945,-0.8181896032696687,-0.9092209451540858
-3.994,-1.223656247861609,-1.407262950196955
-3.9935,-1.06360362499637,-1.216523458903942
-3.993,-0.6474668055467465,-0.6125150698093976
-3.9925,-0.2526703358124887,-0.04029659593035631
-3.992,0.01408403562957729,0.383568940276341
-3.9915,0.1527963087794516,0.6166949851900245
-3.991,0.2061471830678648,0.7226613692416989
-3.9905,0.2168173579255475,0.7438546460520338
-3.99,0.2061471830678648,0.7226613692416989
-3.9895,0.1954770082101822,0.6802748156210291
-3.989,0.1741366584948169,0.6378882620003594
-3.9885,0.1634664836371343,0.5849050699745222
-3.988,0.1634664836371343,0.5319218779486851
-3.9875,0.1527963087794516,0.4895353243280153
-3.987,0.08877525963335578,0.3517790250608387
-3.9865,-0.2526703358124887,-0.2204394488182027
-3.986,-0.4660738329661415,-0.9410108603695881
-3.9855,-0.4660738329661415,-1.34368311976595
-3.985,-0.2846808603855366,-1.121153713257435
-3.9845,-0.03926683865883591,-0.6866915386455698
-3.984,0.1314559590640864,-0.3158091944647096
-3.9835,0.2274875327832301,-0.1038764263613609
-3.983,0.2594980573562781,-0.008506680714854012
-3.9825,0.2594980573562781,0.01268659609548085
-3.982,0.2381577076409128,-0.05089323433552374
-3.9815,0.2594980573562781,-0.07208651114585861
-3.981,0.3021787567870086,-0.01910331912002144
-3.9805,0.291508581929326,0.05507314971615059
-3.98,0.2594980573562781,0.1186529801471552
-3.9795,0.2381577076409128,0.1716361721729923
-3.979,0.2168173579255475,0.2352160026039969
-3.9785,0.04609456020262521,0.03387987290581572
-3.978,-0.6047861061160158,-0.5913217929990628
-3.9775,-1.212986073003927,-1.237716735714276
-3.977,-1.30901764672307,-1.47084278062796
-3.9765,-0.9355615267041777,-0.9728007755850904
-3.976,-0.4767440078238243,-0.326405832869877
-3.9755,-0.124628237520297,0.2034260873884947
-3.975,0.08877525963335578,0.5319218779486851
-3.9745,0.1954770082101822,0.701468092431364
-3.974,0.2274875327832301,0.7650479228623686
-3.9735,0.2168173579255475,0.7544512844572011
-3.973,0.2061471830678648,0.7226613692416989
-3.9725,0.1848068333524996,0.6696781772158616
-3.972,0.1741366584948169,0.6060983467848571
-3.9715,0.1634664836371343,0.55311515475902
-3.971,0.1527963087794516,0.5001319627331828
-3.9705,0.142126133921769,0.4259554938970107
-3.97,-0.09261771294724913,0.01268659609548085
-3.9695,-0.3807124341046804,-0.6654982618352349
-3.969,-0.5834457564006506,-1.216523458903942
-3.9685,-0.4340633083930936,-1.121153713257435
-3.968,-0.09261771294724913,-0.6972881770507372
-3.9675,0.1634664836371343,-0.3158091944647096
-3.967,0.291508581929326,-0.07208651114585861
-3.9665,0.3235191065023739,0.03387987290581572
-3.966,0.3021787567870086,0.03387987290581572
-3.9655,0.2701682322139607,-0.04029659593035631
-3.965,0.2594980573562781,-0.05089323433552374
-3.9645,0.3661998059331045,0.03387987290581572
-3.964,0.3768699807907871,0.09745970333682032
-3.9635,0.3341892813600565,0.13984625695749
-3.963,0.3021787567870086,0.1928294489833272
-3.9625,0.2808384070716433,0.2352160026039969
-3.962,0.2381577076409128,0.2670059178194992
-3.9615,-0.07127736323188383,0.04447651131098315
-3.961,-0.5407650569699201,-0.5807251545938954
-3.9605,-0.9355615267041777,-1.205926820498774
-3.96,-1.148965023857831,-1.407262950196955
-3.9595,-0.8715404775580819,-0.9198175835592532
-3.959,-0.4660738329661415,-0.2840192792492073
-3.9585,-0.1352984123779797,0.2352160026039969
-3.958,0.07810508477567314,0.5743084315693548
-3.9575,0.1848068333524996,0.7438546460520338
-3.957,0.2168173579255475,0.8180311148882058
-3.9565,0.2168173579255475,0.8180311148882058
-3.956,0.2061471830678648,0.7968378380778709
-3.9555,0.1848068333524996,0.7544512844572011
-3.955,0.1741366584948169,0.701468092431364
-3.9545,0.1634664836371343,0.6484849004055269
-3.954,0.1634664836371343,0.5955017083796896
-3.9535,0.00341386077189465,0.3199891098453364
-3.953,-0.4660738329661415,-0.400582301706049
-3.9525,-1.042263275281004,-1.142346990067769
-3.952,-1.351698346153801,-1.619195718300304
-3.9515,-0.9248913518464952,-1.311893204550448
-3.951,-0.3380317346739499,-0.718481453861072
-3.9505,0.08877525963335578,-0.2416327256285375
-3.95,0.3128489316446912,0.03387987290581572
-3.9495,0.3661998059331045,0.13984625695749
-3.949,0.3448594562177392,0.1504428953626575
-3.9485,0.3021787567870086,0.04447651131098315
-3.948,0.3448594562177392,-0.008506680714854012
-3.9475,0.3555296310754218,0.002089957690313421
-3.947,0.3128489316446912,0.01268659609548085
-3.9465,0.2701682322139607,0.02328323450064829
-3.946,0.2381577076409128,0.05507314971615059
-3.9455,0.2274875327832301,0.01268659609548085
-3.945,-0.07127736323188383,-0.3793890248957141
-3.9445,-0.3700422592469978,-0.8986243067489184
-3.944,-0.4340633083930936,-1.248313374119443
-3.9435,-0.4980843575391895,-1.322489842955616
-3.943,-0.3593720843893152,-0.8774310299385835
-3.9425,-0.156638762093345,-0.3158091944647096
-3.942,0.01408403562957729,0.13984625695749
-3.9415,0.1207857842064037,0.4365521323021782
-3.941,0.1741366584948169,0.6060983467848571
-3.9405,0.1954770082101822,0.6908714540261965
-3.94,0.1954770082101822,0.7226613692416989
-3.9395,0.1848068333524996,0.7226613692416989
-3.939,0.1848068333524996,0.7120647308365314
-3.9385,0.1741366584948169,0.701468092431364
-3.938,0.1634664836371343,0.6802748156210291
-3.9375,0.1527963087794516,0.6590815388106942
-3.937,0.1101156093487211,0.5425185163538525
-3.9365,-0.1459685872356623,-0.05089323433552374
-3.936,-0.4447334832507763,-0.792657922697244
-3.9355,-0.7008176798351597,-1.311893204550448
-3.935,-0.5300948821122373,-1.131750351662602
-3.9345,-0.1779791118087102,-0.6549016234300674
-3.934,0.09944543449103843,-0.2840192792492073
-3.9335,0.2488278824985954,-0.02969995752518888
-3.933,0.291508581929326,0.09745970333682032
-3.9325,0.2808384070716433,0.05507314971615059
-3.932,0.2594980573562781,-0.07208651114585861
-3.9315,0.3128489316446912,-0.1250697031716958
-3.931,0.4408910299368829,-0.1038764263613609
-3.9305,0.4302208550792003,-0.06148987274069118
-3.93,0.3661998059331045,0.002089957690313421
-3.9295,0.3021787567870086,0.05507314971615059
-3.929,0.2594980573562781,0.1292496185523226
-3.9285,0.05676473506030786,-0.04029659593035631
-3.928,-0.572775581542968,-0.6443049850249
-3.9275,-1.1062843244271,-1.258910012524611
-3.927,-1.212986073003927,-1.566212526274467
-3.9265,-0.8928808272734472,-1.089363798041932
-3.926,-0.4660738329661415,-0.4111789401112165
-3.9255,-0.1139580626626144,0.1610395337678249
-3.925,0.08877525963335578,0.5319218779486851
-3.9245,0.1954770082101822,0.7332580076468663
-3.924,0.2274875327832301,0.8180311148882058
-3.9235,0.2168173579255475,0.8286277532933731
-3.923,0.2061471830678648,0.8074344764830383
-3.9225,0.1954770082101822,0.7650479228623686
-3.922,0.1741366584948169,0.7120647308365314
-3.9215,0.1634664836371343,0.6590815388106942
-3.921,0.1634664836371343,0.6060983467848571
-3.9205,0.1527963087794516,0.5319218779486851
-3.92,-0.1459685872356623,0.1186529801471552
-3.9195,-0.6367966306890638,-0.6337083466197325
-3.919,-0.7861790786966207,-1.269506650929778
-3.9185,-0.5514352318276028,-1.269506650929778
-3.918,-0.1886492866663929,-0.8244478379127463
-3.9175,0.07810508477567314,-0.4111789401112165
-3.917,0.2274875327832301,-0.1674562567923655
-3.9165,0.2808384070716433,-0.07208651114585861
-3.916,0.2808384070716433,-0.05089323433552374
-3.9155,0.2701682322139607,-0.04029659593035631
-3.915,0.2594980573562781,-0.02969995752518888
-3.9145,0.3128489316446912,0.1080563417419877
-3.914,0.3128489316446912,0.1822328105781598
-3.9135,0.2701682322139607,0.2034260873884947
-3.913,0.2381577076409128,0.2140227257936621
-3.9125,0.2274875327832301,0.2352160026039969
-3.912,0.1954770082101822,0.13984625695749
-3.9115,-0.2313299860971235,-0.4111789401112165
-3.911,-0.9995825758502737,-1.078767159636765
-3.9105,-1.46907026958831,-1.492036057438295
-3.91,-1.234326422719292,-1.131750351662602
-3.9095,-0.7434983792658902,-0.4853554089473885
-3.909,-0.2953510352432193,0.07626642652648545
-3.9085,0.00341386077189465,0.457745409112513
-3.908,0.1634664836371343,0.6696781772158616
-3.9075,0.2274875327832301,0.7544512844572011
-3.907,0.2381577076409128,0.7650479228623686
-3.9065,0.2274875327832301,0.7438546460520338
-3.906,0.2061471830678648,0.6908714540261965
-3.9055,0.1848068333524996,0.6484849004055269
-3.905,0.1741366584948169,0.5955017083796896
-3.9045,0.1634664836371343,0.5425185163538525
-3.904,0.1634664836371343,0.4895353243280153
-3.9035,0.05676473506030786,0.2458126410091644
-3.903,-0.2313299860971235,-0.4217755785163839
-3.9025,-0.3700422592469978,-1.110557074852267
-3.902,-0.3807124341046804,-1.629792356705471
-3.9015,-0.01792648894347063,-1.375473034981453
-3.901,0.2701682322139607,-0.7820612842920766
-3.9005,0.3982103305061524,-0.2946159176543747
-3.9,0.408880505363835,0.01268659609548085
-3.8995,0.3661998059331045,0.1186529801471552
-3.899,0.3021787567870086,0.09745970333682032
-3.8985,0.2594980573562781,0.04447651131098315
-3.898,0.3768699807907871,-0.07208651114585861
-3.8975,0.4729015545099309,-0.1356663415768632
-3.897,0.4302208550792003,-0.06148987274069118
-3.8965,0.3555296310754218,0.02328323450064829
-3.896,0.2808384070716433,0.08686306493165288
-3.8955,0.2274875327832301,0.1292496185523226
-3.895,-0.124628237520297,-0.1568596183871981
-3.8945,-0.722158029550525,-0.7820612842920766
-3.894,-1.159635198715513,-1.38606967338662
-3.8935,-1.127624674142465,-1.51322933424863
-3.893,-0.7434983792658902,-0.9516074987747555
-3.8925,-0.3380317346739499,-0.3158091944647096
-3.892,-0.03926683865883591,0.1822328105781598
-3.8915,0.1314559590640864,0.4895353243280153
-3.891,0.2061471830678648,0.6484849004055269
-3.8905,0.2274875327832301,0.701468092431364
-3.89,0.2168173579255475,0.701468092431364
-3.8895,0.2061471830678648,0.6696781772158616
-3.889,0.1848068333524996,0.627291623595192
-3.8885,0.1741366584948169,0.5849050699745222
-3.888,0.1741366584948169,0.5425185163538525
-3.8875,0.1634664836371343,0.5107286011383502
