Class_7_Listen_To_Music/Class_7_Listen_To_Music_Basim_1.csv

#Digilent WaveForms Oscilloscope Acquisition
#Device Name: EExplorer
#Serial Number: SN:210151A2B84A
#Date Time: 2020-10-20 13:07:46.720
#Sample rate: 2000Hz
#Samples: 16384
#Trigger: Source: Channel 1 Type: Edge Condition: Rising Level: 0 V Hyst.: Auto HoldOff: 0 s
#Channel 1: Range: 1 V/div Offset: 0 V
#Channel 2: Range: 1 V/div Offset: 0 V

Time (s),Channel 1 (V),Channel 2 (V)
-4.0960000000000001,0.86769802424418851,-1.2801032893349458
-4.0955000000000004,0.65429452709072988,-0.59132179299968923
-4.0949999999999998,0.44089102993672769,-0.231036087223293
-4.0945,0.27016823221396069,-0.14626297998203064
-4.0940000000000003,0.20614718306792307,-0.13566634157687282
-4.0934999999999997,0.19547700821018218,-0.14626297998200172
-4.093,0.19547700821018218,-0.11447306476652835
-4.0925000000000002,0.20614718306785512,0.055073149715996361
-4.0919999999999996,0.22748753278324951,0.1398462569575093
-4.0914999999999999,0.24882788249859539,0.16103953376782493
-4.0910000000000002,0.27016823221396069,0.17163617217299235
-4.0904999999999996,0.23815770764048577,0.23521600260444028
-4.0899999999999999,-0.23132998609712346,0.72266136924169888
-4.0895000000000001,-0.96757205127722568,1.2948798431207402
-4.0890000000000004,-1.4584000947301807,1.2736865663104247
-4.0884999999999998,-1.373038695869166,0.6590815388106942
-4.0880000000000001,-1.2983474718653876,-0.44296885532671876
-4.0875000000000004,-1.2129860730040043,-1.0575738828258707
-4.0869999999999997,-0.76483872898081884,-0.81385119950707774
-4.0865,-0.28468086038553664,-0.26282600243887239
-4.0860000000000003,0.056764735059997351,0.24581264100870176
-4.0854999999999997,0.24882788249866331,0.61669498519022692
-4.085,0.32351910650237387,0.83922439169854057
-4.0845000000000002,0.34485945621771974,0.95578741415527635
-4.0839999999999996,0.32351910650237387,0.96638405256049198
-4.0834999999999999,0.32351910650237387,0.90280422212954525
-4.0830000000000002,0.31284893164469124,0.78624119967270345
-4.0824999999999996,0.33418928136023124,0.60609834678450047
-4.0819999999999999,0.52625242879834411,0.21402272579366208
-4.0815000000000001,0.71831557623663156,-1.0045906908005926
-4.0810000000000004,0.88903837395939855,-2.1384310001524769
-4.0804999999999998,1.2624944939784462,-2.6258763667912097
-4.0800000000000001,1.1237822208285719,-2.1490276385586755
-4.0795000000000003,0.86769802424442144,-1.3118932045512095
-4.0789999999999997,0.675634876805707,-0.63370834661941444
-4.0785,0.4622313796522482,-0.28401927924920728
-4.0780000000000003,0.30217875678715422,-0.13566634157699811
-4.0774999999999997,0.22748753278321071,-0.10387642636137054
-4.077,0.20614718306786484,-0.11447306476652835
-4.0765000000000002,0.20614718306786484,-0.13566634157684393
-4.0759999999999996,0.20614718306786484,-0.040296595930259936
-4.0754999999999999,0.20614718306786484,0.065669788121318018
-4.0750000000000002,0.22748753278323011,0.076266426526485451
-4.0744999999999996,0.23815770764091276,0.044476511310983152
-4.0739999999999998,0.23815770764091276,0.044476511310983152
-4.0735000000000001,0.014084035629577295,0.36237566346600614
-4.0730000000000004,-0.82885977812658485,1.0723504366115786
-4.0724999999999998,-1.7785053404611064,1.6233756336809306
-4.0720000000000001,-2.5894386296449872,1.1359302670432285
-4.0715000000000003,-2.973564924521213,-0.13566634157570689
-4.0709999999999997,-2.85619300108617,-1.1317503516625826
-4.0705,-1.8852070890379329,-1.1105570748522671
-4.0700000000000003,-0.90355100213202277,-0.55953187778406166
-4.0694999999999997,-0.2099896363813894,0.033879872906239776
-4.069,0.19547700821018218,0.50013196273318283
-4.0685000000000002,0.36619980593310447,0.80743447648303834
-4.0679999999999996,0.40888050536381559,0.96638405256060766
-4.0674999999999999,0.38754015564846972,1.0299638829915545
-4.0670000000000002,0.35552963107542179,0.96638405256054982
-4.0664999999999996,0.34485945621773917,0.84982103010355381
-4.0659999999999998,0.34485945621773917,0.68027481562102909
-4.0655000000000001,0.44089102993688295,0.41535885549184332
-4.0650000000000004,1.0490909968242403,-0.23103608722278218
-4.0644999999999998,1.5185786905628296,-1.3542797581711179
-4.0640000000000001,1.6466207888550213,-2.3503637682568566
-4.0635000000000003,1.5825997397089837,-2.2761872994207519
-4.0629999999999997,1.1131120459705204,-1.6509856335151314
-4.0625,0.70764540137894905,-0.9092209451540858
-4.0620000000000003,0.47290155451014437,-0.27342264084461809
-4.0614999999999997,0.25949805735619075,-0.01910331911999253
-4.0609999999999999,0.16346648363713429,0.012686596095480854
-4.0605000000000002,0.14212613392176898,-0.04029659593035631
-4.0599999999999996,0.163466483637144,-0.10387642636132235
-4.0594999999999999,0.17413665849481691,-0.061489872740691176
-4.0590000000000002,0.099445434491038431,0.20342608738849466
-4.0585000000000004,0.11011560934871137,0.24581264100912584
-4.0579999999999998,0.16346648363713429,0.17163617217299235
-4.0575000000000001,0.20614718306786484,0.086863064931652884
-4.0570000000000004,0.12078578420648134,0.13984625695744185
-4.0564999999999998,-0.54076505696992005,0.62729162359519197
-4.056,-1.5117509690190405,0.47893868592284788
-4.0555000000000003,-2.3013439084868379,-0.47475877054135357
-4.0549999999999997,-2.8882035256601304,-1.4602461422233994
-4.0545,-2.9202140502331493,-2.1278343617483406
-4.0540000000000003,-2.3333544330611375,-1.8947083168348693
-4.0534999999999997,-1.2663369472916022,-1.0363806060153335
-4.0529999999999999,-0.4554036581084589,-0.19924617200786782
-4.0525000000000002,0.05676473506030786,0.40476221708667587
-4.0519999999999996,0.32351910650245153,0.76504792286251311
-4.0514999999999999,0.40888050536383502,0.92399749893988004
-4.0510000000000002,0.3982103305061524,0.96638405256054982
-4.0505000000000004,0.36619980593313362,0.9028042221296031
-4.0499999999999998,0.34485945621773917,0.78624119967270345
-4.0495000000000001,0.33418928136005654,0.61669498519002452
-4.0490000000000004,0.35552963107540236,0.41535885549202645
-4.0484999999999998,0.79300680024080794,-0.1250697031727559
-4.048,1.2304839694053984,-1.2906999277401132
-4.0475000000000003,1.6466207888546429,-2.3821536834713664
-4.0469999999999997,1.9987365591581312,-2.4457335139028045
-4.0465,1.539919040278195,-1.8311284864036526
-4.0460000000000003,1.0277506471098941,-1.1105570748529225
-4.0454999999999997,0.65429452709025437,-0.49595204735232462
-4.0449999999999999,0.34485945621773917,-0.24163272562853755
-4.0445000000000002,0.18480683335249956,-0.1674562567923655
-4.0439999999999996,0.15279630877946135,-0.17805289519754255
-4.0434999999999999,0.16346648363713429,-0.18864953360270037
-4.0430000000000001,0.19547700821018218,-0.17805289519753292
-4.0425000000000004,0.18480683335250928,0.012686596095307368
-4.0419999999999998,0.20614718306786484,0.12924961855232261
-4.0415000000000001,0.22748753278323011,0.18223281057815977
-4.0410000000000004,0.23815770764090305,0.19282944898331758
-4.0404999999999998,0.20614718306745725,0.25640927941479441
-4.04,-0.24200016095480609,0.76504792286236856
-4.0395000000000003,-1.1596351987146787,1.4432327807924676
-4.0389999999999997,-2.013249187330707,1.8459050401888297
-4.0385,-2.6534596787910831,1.1677201822587309
-4.0380000000000003,-2.8988737005175604,-0.1568596183859936
-4.0374999999999996,-2.5467579302132961,-0.96220413717979769
-4.0369999999999999,-1.4904106193036752,-0.82444783791274634
-4.0365000000000002,-0.62612645583138127,-0.29461591765437467
-4.0359999999999996,-0.039266838658554487,0.23521600260437281
-4.0354999999999999,0.27016823221396069,0.64848490040552687
-4.0350000000000001,0.38754015564846972,0.92399749893988004
-4.0345000000000004,0.39821033050614268,1.0723504366120893
-4.0339999999999998,0.3768699807907871,1.1041403518277266
-4.0335000000000001,0.36619980593310447,0.95578741415538238
-4.0330000000000004,0.36619980593310447,0.81803111488833102
-4.0324999999999998,0.37686998079088413,0.60609834678439445
-4.032,0.4835717293676135,0.097459703336820316
-4.0315000000000003,0.65429452709038061,-1.2271200973079044
-4.0309999999999997,1.539919040278884,-2.0854478081281913
-4.0305,2.2975014551736623,-2.6576662820067121
-4.0300000000000002,2.2654909306006439,-2.4987167059293451
-4.0294999999999996,1.7533225374312849,-1.5768091646788633
-4.0289999999999999,1.1344523956862547,-0.72907809226623943
-4.0285000000000002,0.60094365280212259,-0.25222936403370499
-4.0279999999999996,0.29150858192920953,-0.029699957525131052
-4.0274999999999999,0.16346648363713429,0.033879872905815719
-4.0270000000000001,0.14212613392176898,0.012686596095480854
-4.0265000000000004,0.17413665849478779,-0.04029659593030812
-4.0259999999999998,0.23815770764091276,0.065669788121318018
-4.0255000000000001,0.31284893164469124,0.17163617217299235
-4.0250000000000004,0.32351910650236415,0.10805634174204558
-4.0244999999999997,0.30217875678697953,0.012686596095423028
-4.024,0.27016823221396069,-0.050893234335523743
-4.0235000000000003,-0.0072563140855356756,0.2881991946295257
-4.0229999999999997,-0.8181896032705227,1.0193672445869364
-4.0225,-1.7571649907457412,1.6233756336809306
-4.0220000000000002,-2.2053123347680046,1.5809890800602995
-4.0214999999999996,-2.2479930341991912,1.6021823568700946
-4.0209999999999999,-2.301343908487556,1.0511571598018894
-4.0205000000000002,-1.6291228924535495,0.41535885549184332
-4.0199999999999996,-0.83952995298447108,0.12924961855230335
-4.0194999999999999,-0.22065981123944084,0.10805634174198775
-4.0190000000000001,0.15279630877945163,0.23521600260399694
-4.0185000000000004,0.3235191065022186,0.42595549389683723
-4.0179999999999998,0.3768699807907871,0.62729162359519197
-4.0175000000000001,0.36619980593310447,0.7968378380778709
-4.0170000000000003,0.3448594562177586,0.90280422212944889
-4.0164999999999997,0.33418928136005654,0.9345941373449993
-4.016,0.33418928136005654,0.88161094531921036
-4.0155000000000003,0.46223137965213174,0.62729162359542334
-4.0149999999999997,1.0170804722519882,-0.040296595931483908
-4.0145,1.2838348436938116,-1.2801032893349458
-4.0140000000000002,1.9347155100118607,-1.9794814240753604
-4.0134999999999996,2.062757608304159,-1.6721789103253408
-4.0129999999999999,1.5292488654205123,-0.792657922697244
-4.0125000000000002,1.0384208219671107,0.044476511310983152
-4.0119999999999996,0.65429452709025437,0.53192187794879109
-4.0114999999999998,0.34485945621773917,0.64848490040552687
-4.0110000000000001,0.19547700821018218,0.58490506997452218
-4.0105000000000004,0.15279630877949046,0.45774540911262873
-4.0099999999999998,0.16346648363713429,0.30939247144016896
-4.0095000000000001,0.17413665849481691,0.2246193641988295
-4.0090000000000003,0.12078578420645222,0.36237566346588085
-4.0084999999999997,0.13145595906412519,0.29879583303485702
-4.008,0.17413665849481691,0.13984625695749003
-4.0075000000000003,0.19547700821016278,-0.029699957525034681
-4.0069999999999997,0.14212613392123524,-0.13566634157694993
-4.0065,-0.44473348325077627,-0.2310360872233701
-4.0060000000000002,-1.405049220442214,-0.84564111472308123
-4.0054999999999996,-2.1946421599111567,-1.5768091646799332
-4.0049999999999999,-2.6641298536487659,-1.9053049552398247
-4.0045000000000002,-2.8775333508024183,-2.2126074689896797
-4.0039999999999996,-2.0772702364753468,-1.8205318479977526
-4.0034999999999998,-1.1169544992847826,-1.01518732920576
-4.0030000000000001,-0.3700422592469978,-0.28401927924920728
-4.0025000000000004,0.09944543449061144,0.21402272579320908
-4.0019999999999998,0.31284893164469124,0.48953532432801533
-4.0015000000000001,0.38754015564846972,0.61669498519002452
-4.0010000000000003,0.37686998079079681,0.6378882620003401
-4.0004999999999997,0.34485945621771974,0.58490506997442582
-4,0.32351910650237387,0.47893868592284788
-3.9994999999999998,0.32351910650237387,0.34118238665567124
-3.9990000000000001,0.3768699807907871,0.12924961855232261
-3.9984999999999999,0.72898575109431429,-0.3581957480853793
-3.9980000000000002,1.5292488654205123,-1.0787671596367647
-3.9975000000000001,1.8706944608663567,-2.1172377233431732
-3.9969999999999999,2.0307470837315966,-2.7636326660583865
-3.9965000000000002,1.7960032368625782,-2.360960406662024
-3.996,1.2091436196900331,-1.5132293342486296
-3.9954999999999998,0.77166645052504479,-0.64430498502489997
-3.9950000000000001,0.4835717293676135,-0.082683149551026042
-3.9944999999999999,0.25949805735627807,0.11865298014715518
-3.9940000000000002,0.16346648363713429,0.18223281057815977
-3.9935,0.14212613392176898,0.18223281057815977
-3.9929999999999999,0.16346648363713429,0.18223281057815977
-3.9925000000000002,0.08877525963335578,0.40476221708667587
-3.992,0.067434909917990504,0.48953532432801533
-3.9914999999999998,0.11011560934872107,0.41535885549184332
-3.9910000000000001,0.16346648363713429,0.31998910984533641
-3.9904999999999999,0.19547700821018218,0.25640927941433178
-3.9900000000000002,-0.15663876209334496,0.50013196273318283
-3.9895,-1.0636036249963696,0.43655213230217815
-3.9889999999999999,-1.9385579633263461,-0.41117894011121647
-3.9885000000000002,-2.4613965313527957,-1.0893637980419322
-3.988,-2.7921719519409574,-1.5980024414899687
-3.9874999999999998,-2.3973754822066997,-1.7039688255416432
-3.9870000000000001,-1.4157193952998968,-1.1105570748522671
-3.9864999999999999,-0.59411593125833329,-0.38998566330088158
-3.9860000000000002,-0.049937013516518552,0.18223281057815977
-3.9855,0.24882788249859539,0.53192187794868506
-3.9849999999999999,0.36619980593310447,0.71206473083653143
-3.9845000000000002,0.3768699807907871,0.76504792286236856
-3.984,0.35552963107542179,0.74385464605203377
-3.9834999999999998,0.32351910650237387,0.6590815388106942
-3.9830000000000001,0.31284893164469124,0.52132523954351762
-3.9824999999999999,0.34485945621773917,0.29879583303500157
-3.9820000000000002,0.36619980593310447,-0.3581957480853793
-3.9815,0.59027347794443985,-1.7039688255416432
-3.9809999999999999,1.5719295648512428,-2.4669267907136985
-3.9805000000000001,2.3081716300313451,-2.9437755189462327
-3.98,2.2441505808852491,-2.4881200675240334
-3.9794999999999998,1.7319821877164825,-1.4602461422227924
-3.9790000000000001,1.1024418711132067,-0.66549826183523486
-3.9784999999999999,0.57960330308675734,-0.24163272562853755
-3.9780000000000002,0.28083840707164331,-0.061489872740691176
-3.9775,0.15279630877945163,0.023283234500648287
-3.9769999999999999,0.13145595906408636,0.044476511310983152
-3.9765000000000001,0.16346648363713429,0.055073149716150585
-3.976,0.16346648363713429,0.20342608738849466
-3.9754999999999998,0.14212613392176898,0.37297230187117358
-3.9750000000000001,0.16346648363713429,0.36237566346600614
-3.9744999999999999,0.18480683335249956,0.30939247144016896
-3.9740000000000002,0.18480683335249956,0.25640927941433178
-3.9735,-0.049937013516518552,0.40476221708667587
-3.9729999999999999,-0.87154047755808195,0.55311515475901996
-3.9725000000000001,-1.8105158650341544,-0.15685961838719809
-3.972,-2.6107789793603526,-1.1529436284729369
-3.9714999999999998,-2.9842350993792448,-1.9053049552398247
-3.9710000000000001,-2.8988737005177838,-2.2232041073948472
-3.9704999999999999,-2.0025790124724421,-1.5662125262744668
-3.9700000000000002,-0.99958257585027366,-0.66549826183523486
-3.9695,-0.26334051067017139,0.086863064931652884
-3.9689999999999999,0.15279630877945163,0.5637117931641874
-3.9685000000000001,0.34485945621773917,0.7968378380778709
-3.968,0.3982103305061524,0.88161094531921036
-3.9674999999999998,0.3768699807907871,0.84982103010370802
-3.9670000000000001,0.33418928136005654,0.73325800764686633
-3.9664999999999999,0.32351910650237387,0.5637117931641874
-3.9660000000000002,0.32351910650237387,0.38356894027634103
-3.9655,0.44089102993688295,0.076266426526485451
-3.9649999999999999,1.0384208219671107,-0.61251506980939763
-3.9645000000000001,1.3158453682668594,-1.7039688255416432
-3.964,1.2945050185514941,-2.5940864515757074
-3.9634999999999998,1.3905365922706379,-2.4033469602826938
-3.9630000000000001,1.0490909968247935,-1.6615822719209734
-3.9624999999999999,0.75032610080967954,-0.87743102993858346
-3.9620000000000002,0.53692260365602662,-0.25222936403370499
-3.9615,0.30217875678700862,0.0020899576903134209
-3.9609999999999999,0.18480683335249956,0.065669788121318018
-3.9605000000000001,0.15279630877945163,0.044476511310983152
-3.96,0.16346648363713429,0.012686596095480854
-3.9594999999999998,0.18480683335249956,0.033879872905815719
-3.9590000000000001,0.16346648363713429,0.23521600260399694
-3.9584999999999999,0.17413665849481691,0.26700591781949923
-3.9580000000000002,0.20614718306786484,0.2246193641988295
-3.9575,0.21681735792554749,0.19282944898332721
-3.9569999999999999,0.21681735792554749,0.2246193641988295
-3.9565000000000001,0.046094560202625215,0.5637117931641874
-3.956,-0.4980843575391895,0.87101430691404291
-3.9554999999999998,-1.2983474718653876,0.43655213230217815
-3.9550000000000001,-1.9812386627570766,-0.53833860097322561
-3.9544999999999999,-2.5680982799296221,-1.3860696733866202
-3.9540000000000002,-2.0879404113339031,-1.4072629501969551
-3.9535,-1.2129860730039266,-0.792657922697244
-3.9529999999999998,-0.47674400782382426,-0.11447306476652835
-3.9525000000000001,0.014084035629577295,0.40476221708667587
-3.952,0.27016823221396069,0.71206473083653143
-3.9514999999999998,0.35552963107542179,0.84982103010370802
-3.9510000000000001,0.35552963107542179,0.88161094531921036
-3.9504999999999999,0.33418928136005654,0.82862775329337313
-3.9500000000000002,0.31284893164469124,0.70146809243136399
-3.9495,0.32351910650237387,0.52132523954351762
-3.9489999999999998,0.36619980593310447,0.24581264100916439
-3.9485000000000001,0.64362435223285308,-0.4641621321370536
-3.948,0.84635767452882327,-1.8311284864036526
-3.9474999999999998,1.6786313134280693,-2.5728931747653725
-3.9470000000000001,2.1481190071661054,-2.6894561972222144
-3.9464999999999999,1.7533225374318477,-1.9370948704553266
-3.9460000000000002,1.2304839694053984,-1.01518732920576
-3.9455,0.76099627566736228,-0.37938902489571413
-3.9449999999999998,0.38754015564846972,-0.072086511145858609
-3.9445000000000001,0.19547700821018218,0.044476511310983152
-3.944,0.14212613392176898,0.065669788121318018
-3.9434999999999998,0.14212613392176898,0.033879872905815719
-3.9430000000000001,0.17413665849481691,0.033879872905815719
-3.9424999999999999,0.16346648363713429,0.23521600260399694
-3.9420000000000002,0.16346648363713429,0.33058574825050385
-3.9415,0.19547700821018218,0.30939247144016896
-3.9409999999999998,0.20614718306786484,0.25640927941433178
-3.9405000000000001,0.19547700821018218,0.25640927941433178
-3.9399999999999999,-0.19931946152407554,0.66967817721586165
-3.9394999999999998,-1.1169544992847826,1.33726639674141
-3.9390000000000001,-2.0132491873301248,1.856501678594614
-3.9384999999999999,-2.7601614273679096,1.5068126112240887
-3.9380000000000002,-2.9842350993792448,0.20342608738849466
-3.9375,-2.7601614273679096,-0.792657922697244
-3.9369999999999998,-1.6931439415996454,-0.80325456110241145
-3.9365000000000001,-0.76483872898125549,-0.3581957480853793
-3.9359999999999999,-0.12462823752029703,0.15044289536265748
-3.9355000000000002,0.22748753278323011,0.5637117931641874
-3.9350000000000001,0.36619980593310447,0.84982103010370802
-3.9344999999999999,0.38754015564846972,1.0087706061812196
-3.9340000000000002,0.36619980593310447,1.0829470750173917
-3.9335,0.32351910650237387,1.0405605213967219
-3.9329999999999998,0.31284893164469124,0.93459413734504748
-3.9325000000000001,0.34485945621773917,0.72266136924169888
-3.9319999999999999,0.50491207908297886,0.36237566346600614
-3.9315000000000002,1.1344523956862547,-0.29461591765437467
-3.931,1.8706944608663567,-1.0575738828264298
-3.9304999999999999,1.8706944608663567,-2.1808175537741779
-3.9300000000000002,1.6466207888550213,-2.1384310001535081
-3.9295,1.1237822208285719,-1.4708427806279598
-3.9289999999999998,0.6116138276598051,-0.78206128429207655
-3.9285000000000001,0.38754015564846972,-0.17805289519753292
-3.9279999999999999,0.28083840707164331,0.15044289536265748
-3.9275000000000002,0.18480683335249956,0.17163617217299235
