Class_7_Listen_To_Music/Class_7_Listen_To_Music_Basim_10.csv

#Digilent WaveForms Oscilloscope Acquisition
#Device Name: EExplorer
#Serial Number: SN:210151A2B84A
#Date Time: 2021-01-28 09:26:59.698
#Sample rate: 2000Hz
#Samples: 16384
#Trigger: Source: Channel 1 Type: Edge Condition: Rising Level: 0 V Hyst.: Auto HoldOff: 0 s
#Channel 1: Range: 1 V/div Offset: 0 V Attenuation: 1 X
#Channel 2: Range: 1 V/div Offset: 0 V Attenuation: 1 X
#Power Supplies: ON
#Fixed Supply: ON
#Voltage: 3.3 V Readback: 3.33 V
#Positive Supply: ON
#Voltage: 3.7 V Readback: 3.712 V
#Current: 40 mA Readback: 19 mA
#Negative Supply: ON
#Voltage: -3.7 V Readback: -3.346 V
#Current: -40 mA Readback: -7 mA
#Reference 1: ON
#Voltage: 0 V
#Reference 2: ON
#Voltage: 0 V

Time (s),Channel 1 (V),Channel 2 (V)
-4.096,0.08877525963335578,0.5107286011383502
-4.0955,-0.6581369804037497,0.7120647308363484
-4.095,-1.405049220442787,0.05507314971539885
-4.0945,-2.03458953704549,-0.7714646458869092
-4.094,-2.066600061618508,-1.216523458903537
-4.0935,-1.277007122149353,-0.9410108603691063
-4.093,-0.5407650569699201,-0.4111789401112165
-4.0925,0.003413860771399713,0.07626642652604215
-4.092,0.3128489316448174,0.404762217086859
-4.0915,0.4515612047945656,0.6060983467848571
-4.091,0.4942419042252961,0.6908714540261965
-4.0905,0.4835717293675844,0.7226613692416892
-4.09,0.4515612047945656,0.7120647308365314
-4.0895,0.4195506802215176,0.6802748156210291
-4.089,0.4088805053638447,0.6484849004055557
-4.0885,0.3982103305061524,0.5955017083796896
-4.088,0.4942419042252961,0.4471487707073456
-4.0875,0.686305051663409,-0.1886495336021221
-4.087,0.07810508477488708,-0.9939940523960324
-4.0865,-0.7861790786966207,-1.661582271920973
-4.086,-1.106284324426809,-1.72516210235192
-4.0855,-0.7541685541231266,-1.110557074851708
-4.085,-0.2633405106701714,-0.4959520473525559
-4.0845,0.1314559590637273,-0.02969995752561294
-4.084,0.3555296310755091,0.2246193641989162
-4.0835,0.4515612047945656,0.3199891098453364
-4.083,0.4729015545099309,0.3199891098453364
-4.0825,0.4515612047947306,0.2670059178196245
-4.082,0.6329541773751706,0.4047622170866759
-4.0815,0.7716664505250448,0.4895353243280153
-4.081,0.7076454013790072,0.3623756634661218
-4.0805,0.5902734779444399,0.1928294489833272
-4.08,0.4835717293676135,0.07626642652648545
-4.0795,0.2701682322141548,0.1716361721729056
-4.079,-0.4127229586784271,0.6484849004052763
-4.0785,-1.180975548430879,0.3729723018711736
-4.078,-1.661133417026161,-0.3793890248950299
-4.0775,-1.842526389606737,-0.3687923864902962
-4.077,-1.330357996438436,-0.09327978795619347
-4.0765,-0.6474668055473676,0.07626642652633124
-4.076,-0.09261771294693859,0.1822328105782369
-4.0755,0.2488278824985954,0.2670059178194992
-4.075,0.4195506802215176,0.3411823866556712
-4.0745,0.4729015545099309,0.4153588554919204
-4.074,0.4729015545099309,0.5001319627331828
-4.0735,0.4515612047945656,0.5849050699745222
-4.073,0.4302208550792198,0.648484900405469
-4.0725,0.408880505363835,0.7120647308365314
-4.072,0.3982103305061524,0.7544512844572011
-4.0715,0.4195506802214982,0.7650479228623589
-4.071,0.696975226521014,0.3623756634653604
-4.0705,0.4195506802215176,-0.3475991096802118
-4.07,-0.4340633083923172,-0.9939940523948374
-4.0695,-1.08494397471156,-1.237716735713843
-4.069,-0.8928808272734472,-0.7608680074817418
-4.0685,-0.3807124341046804,-0.1992461720078678
-4.068,0.05676473506056018,0.2352160026042572
-4.0675,0.3341892813600565,0.5213252395435176
-4.067,0.4622313796522482,0.627291623595192
-4.0665,0.4835717293676038,0.616694985189957
-4.066,0.4729015545099309,0.5425185163538525
-4.0655,0.5582629533713921,0.5319218779486851
-4.065,0.7823366253825237,0.6166949851899475
-4.0645,0.7609962756673623,0.4365521323021782
-4.064,0.6436243522328531,0.1822328105781598
-4.0635,0.5262524287984509,-0.04029659593015392
-4.063,0.3982103305057254,-0.1462629799816548
-4.0625,-0.07127736323188383,0.2670059178194992
-4.062,-0.8395299529843352,0.3517790250607616
-4.0615,-1.533091318734813,-0.3052125560601686
-4.061,-1.981238662757077,-0.9939940523954253
-4.0605,-1.778505340461106,-1.248313374119443
-4.06,-1.03159310042272,-0.8986243067484557
-4.0595,-0.3700422592469978,-0.3899856633008816
-4.059,0.09944543449103843,0.04447651131098315
-4.0585,0.3555296310751889,0.3305857482502437
-4.058,0.4622313796522482,0.4895353243280153
-4.0575,0.4835717293676135,0.5637117931641874
-4.057,0.4729015545099406,0.5849050699745029
-4.0565,0.4408910299368829,0.5849050699745222
-4.056,0.4195506802215176,0.5637117931641874
-4.0555,0.4088805053638447,0.5531151547590296
-4.055,0.3982103305063174,0.5213252395432864
-4.0545,0.5796033030867573,0.2670059178194992
-4.054,0.5475927785137384,-0.4535654937312309
-4.0535,-0.2206598112401493,-1.195330182094108
-4.053,-0.9995825758502737,-1.746355379162313
-4.0525,-1.031593100423322,-1.51322933424863
-4.052,-0.5621054066848487,-0.8774310299379859
-4.0515,-0.08194753808956648,-0.2204394488182027
-4.051,0.2381577076409128,0.2564092794143318
-4.0505,0.4088805053636798,0.5107286011381189
-4.05,0.4729015545099309,0.5849050699745222
-4.0495,0.4729015545099309,0.5425185163538525
-4.049,0.4835717293676038,0.4789386859229057
-4.0485,0.6969752265213052,0.6060983467847992
-4.048,0.7396559259519968,0.5425185163538525
-4.0475,0.6542945270906134,0.3411823866558543
-4.047,0.547592778513622,0.1398462569573551
-4.0465,0.4515612047945656,-0.008506680714854012
-4.046,0.1421261339220504,0.02328323450061937
-4.0455,-0.5834457564013396,-0.008506680715384079
-4.045,-1.341028171296118,-0.5913217929990628
-4.0445,-1.917217613610981,-1.068170521231597
-4.044,-1.991908837614099,-1.142346990067471
-4.0435,-1.26633694729234,-0.8138511995075789
-4.043,-0.5514352318276028,-0.3475991096802118
-4.0425,-0.01792648894395588,0.03387987290546879
-4.042,0.3021787567870086,0.2987958330350016
-4.0415,0.4515612047945656,0.4471487707073456
-4.041,0.4835717293675844,0.5107286011382923
-4.0405,0.4729015545099114,0.5425185163538525
-4.04,0.4515612047945656,0.5425185163538525
-4.0395,0.4195506802215467,0.5319218779486947
-4.039,0.4088805053638253,0.521325239543508
-4.0385,0.3982103305061524,0.5107286011383502
-4.038,0.4835717293675359,0.3941655786816144
-4.0375,0.9957401225364482,-0.2098428104137388
-4.037,1.070431346540159,-0.9833974139902578
-4.0365,0.2701682322139607,-1.629792356705471
-4.036,-0.3166913849585651,-1.598002441489362
-4.0355,-0.2953510352432193,-0.9304142219644207
-4.035,-0.04993701351651855,-0.2946159176543747
-4.0345,0.1848068333522861,0.1822328105777261
-4.034,0.3341892813600565,0.457745409112513
-4.0335,0.408880505363835,0.5637117931641874
-4.033,0.4302208550791809,0.5531151547590296
-4.0325,0.4302208550792391,0.4895353243280539
-4.032,0.4729015545099309,0.5319218779486851
-4.0315,0.4942419042252767,0.5213252395435273
-4.031,0.4729015545099018,0.372972301871029
-4.0305,0.4408910299368829,0.2140227257936621
-4.03,0.4088805053638641,0.09745970333692633
-4.0295,0.2808384070711678,0.1504428953630719
-4.029,-0.2420001609548061,0.6060983467848571
-4.0285,-0.9889124009925911,0.3411823866556712
-4.028,-1.650463242169245,-0.4005823017060201
-4.0275,-2.013249187330125,-0.3687923864905467
-4.027,-1.575772018165136,-0.04029659593035631
-4.0265,-0.8288597781280308,0.1080563417418528
-4.026,-0.2206598112394408,0.1610395337678249
-4.0255,0.1848068333524996,0.1822328105781598
-4.025,0.3982103305059583,0.2140227257936332
-4.0245,0.4729015545099309,0.2564092794143896
-4.024,0.4729015545099309,0.3199891098453364
-4.0235,0.451561204794585,0.3835689402762832
-4.023,0.4302208550791809,0.4471487707074034
-4.0225,0.408880505363835,0.5107286011383502
-4.022,0.3982103305061621,0.5637117931641392
-4.0215,0.4195506802217699,0.5849050699741752
-4.021,0.6969752265212663,0.2034260873884947
-4.0205,0.4515612047945656,-0.4959520473525559
-4.02,-0.3700422592475024,-1.11055707485245
-4.0195,-0.9248913518464952,-1.311893204550448
-4.019,-0.6794773301197943,-0.9092209451540858
-4.0185,-0.1993194615245122,-0.432372216921985
-4.018,0.1741366584948169,0.03387987290581572
-4.0175,0.3875401556484697,0.383568940276341
-4.017,0.4729015545098533,0.5743084315691813
-4.0165,0.4835717293675844,0.6378882620003209
-4.016,0.4515612047945656,0.5955017083796896
-4.0155,0.4729015545099114,0.6060983467848474
-4.015,0.5369226036560072,0.6590815388105593
-4.0145,0.5155822539406614,0.5107286011383502
-4.014,0.4729015545099697,0.3199891098455099
-4.0135,0.4302208550791324,0.15044289536259
-4.013,0.3555296310754218,0.07626642652648545
-4.0125,-0.06060718837420119,0.4895353243280153
-4.012,-0.7861790786972418,0.563711793163532
-4.0115,-1.46907026958831,-0.1568596183871981
-4.011,-1.83185621474952,-0.8880276683437509
-4.0105,-1.65046324216908,-1.195330182093327
-4.01,-0.9675720512772257,-0.8986243067489184
-4.0095,-0.3380317346739499,-0.4429688553267188
-4.009,0.09944543449064053,-0.05089323433588033
-4.0085,0.3555296310755091,0.214022725793797
-4.008,0.4515612047945656,0.3623756634660061
-4.0075,0.4729015545099114,0.4259554938969529
-4.007,0.4622313796522191,0.4365521323021782
-4.0065,0.4302208550792003,0.4365521323021782
-4.006,0.408880505363835,0.4259554938970107
-4.0055,0.3982103305061524,0.4153588554918337
-4.005,0.3982103305061524,0.4047622170866759
-4.0045,0.6009436528021226,0.1610395337678249
-4.004,0.6009436528014336,-0.538338600973881
-4.0035,-0.156638762093345,-1.258910012524611
-4.003,-0.9462317015618604,-1.788741932782983
-4.0025,-0.9782422261348793,-1.396666311792144
-4.002,-0.5194247072545548,-0.7078848154559045
-4.0015,-0.03926683865883591,-0.05089323433552374
-4.001,0.2701682322136792,0.3835689402759459
-4.0005,0.4195506802215564,0.5955017083797282
-4,0.4622313796522482,0.6378882620003594
-3.9995,0.4622313796522482,0.5955017083796896
-3.999,0.4729015545099309,0.5319218779486851
-3.9985,0.6969752265212663,0.6696781772158616
-3.998,0.7609962756673623,0.6060983467848571
-3.9975,0.6756348768059011,0.3941655786815084
-3.997,0.5582629533713921,0.1928294489833272
-3.9965,0.4515612047945656,0.05507314971615059
-3.996,0.07810508477567314,0.1928294489833272
-3.9955,-0.7008176798351597,-0.01910331912002144
-3.995,-1.437059745015262,-0.7078848154559045
-3.9945,-1.970568487899394,-1.227120097309109
-3.994,-2.087940411333903,-1.248313374119443
-3.9935,-1.351698346153801,-0.8880276683437509
-3.993,-0.6047861061160158,-0.400582301706049
-3.9925,-0.03926683865883591,0.01268659609548085
-3.992,0.291508581929326,0.2776025562246667
-3.9915,0.4408910299368829,0.4365521323021782
-3.991,0.4835717293676135,0.5107286011383502
-3.9905,0.4729015545099309,0.5425185163538525
-3.99,0.4515612047945656,0.5425185163538525
-3.9895,0.4195506802215176,0.5425185163538525
-3.989,0.408880505363835,0.5319218779486851
-3.9885,0.3982103305061524,0.5213252395435176
-3.988,0.4622313796522482,0.4153588554918433
-3.9875,0.6542945270905358,-0.1780528951975329
-3.987,0.1634664836371343,-0.9516074987747555
-3.9865,-0.6154562809736985,-1.587405803084801
-3.986,-0.9782422261349084,-1.661582271920973
-3.9855,-0.658136980404429,-1.142346990067769
-3.985,-0.1779791118087102,-0.5065486857577234
-3.9845,0.1848068333524996,0.04447651131098315
-3.984,0.3875401556484697,0.4047622170866759
-3.9835,0.4622313796522482,0.5637117931641874
-3.983,0.4729015545099309,0.5955017083796896
-3.9825,0.4515612047945656,0.5319218779486851
-3.982,0.4942419042252961,0.55311515475902
-3.9815,0.5369226036560266,0.5213252395435176
-3.981,0.5049120790829789,0.3517790250608387
-3.9805,0.4622313796522482,0.1716361721729923
-3.98,0.4195506802215176,0.03387987290581572
-3.9795,0.2594980573562781,-0.1462629799820306
-3.979,-0.3487019095316325,-0.6549016234300674
-3.9785,-1.1062843244271,-1.290699927740113
-3.978,-1.682473766741963,-1.831128486403653
-3.9775,-1.949228138184029,-2.127834361748341
-3.977,-1.46907026958831,-1.587405803084801
-3.9765,-0.754168554123573,-0.8138511995075789
-3.976,-0.1673089369510276,-0.1886495336027004
-3.9755,0.2168173579255475,0.2246193641988295
-3.975,0.408880505363835,0.4365521323021782
-3.9745,0.4729015545099309,0.5107286011383502
-3.974,0.4729015545099309,0.5213252395435176
-3.9735,0.4515612047945656,0.4895353243280153
-3.973,0.4302208550792003,0.4471487707073456
-3.9725,0.408880505363835,0.4153588554918433
-3.972,0.3982103305061524,0.383568940276341
-3.9715,0.408880505363835,0.3305857482505039
-3.971,0.6969752265212663,-0.08268314955102604
-3.9705,0.6969752265212663,-0.8244478379127463
-3.97,0.00341386077189465,-1.492036057438295
-3.9695,-0.658136980404429,-1.831128486403653
-3.969,-0.5941159312583333,-1.407262950196955
-3.9685,-0.2206598112394408,-0.8350444763179138
-3.968,0.1207857842064037,-0.2734226408440398
-3.9675,0.3448594562177392,0.1186529801471552
-3.967,0.4408910299368829,0.3305857482505039
-3.9665,0.4622313796522482,0.4153588554918433
-3.966,0.4515612047945656,0.4153588554918433
-3.9655,0.4515612047945656,0.3941655786815084
-3.965,0.4835717293676135,0.383568940276341
-3.9645,0.4729015545099309,0.3305857482505039
-3.964,0.4408910299368829,0.2564092794143318
-3.9635,0.408880505363835,0.1928294489833272
-3.963,0.3448594562177392,0.1292496185523226
-3.9625,-0.08194753808956648,0.04447651131098315
-3.962,-0.8288597781273515,-0.3475991096802118
-3.9615,-1.51175096901904,-0.9939940523954253
-3.961,-1.927887788468663,-1.068170521231597
-3.9605,-1.661133417026597,-0.5383386009732256
-3.96,-0.9355615267041777,-0.1568596183871981
-3.9595,-0.3060212101009019,0.06566978812131802
-3.959,0.1314559590640864,0.1928294489833272
-3.9585,0.3661998059331045,0.2458126410091644
-3.958,0.4622313796522482,0.2881991946298341
-3.9575,0.4835717293676135,0.3199891098453364
-3.957,0.4622313796522482,0.3623756634660061
-3.9565,0.4302208550792003,0.3941655786815084
-3.956,0.408880505363835,0.4471487707073456
-3.9555,0.3982103305061524,0.4789386859228479
-3.955,0.3982103305061524,0.5213252395435176
-3.9545,0.5689331282290746,0.3517790250608387
-3.954,0.6222840025174878,-0.2946159176543747
-3.9535,-0.124628237520297,-0.9833974139902578
-3.953,-0.9462317015618604,-1.439052865412457
-3.9525,-0.9995825758502737,-1.110557074852267
-3.952,-0.5407650569699201,-0.4959520473525559
-3.9515,-0.08194753808956648,0.04447651131098315
-3.951,0.2381577076409128,0.4153588554918433
-3.9505,0.3982103305061524,0.5955017083796896
-3.95,0.4515612047945656,0.6378882620003594
-3.9495,0.4515612047945656,0.5955017083796896
-3.949,0.4515612047945656,0.5319218779486851
-3.9485,0.6009436528021226,0.6590815388106942
-3.948,0.6436243522328531,0.6166949851900245
-3.9475,0.5902734779444399,0.4259554938970107
-3.947,0.5049120790829789,0.2352160026039969
-3.9465,0.4302208550792003,0.09745970333682032
-3.946,0.2168173579255475,0.2564092794143318
-3.9455,-0.4020527838200457,0.5425185163538525
-3.945,-1.159635198715513,0.01268659609548085
-3.9445,-1.703814116457328,-0.6972881770507372
-3.944,-1.853196564464885,-1.110557074852267
-3.9435,-1.287677297007705,-0.9622041371799229
-3.943,-0.6047861061160158,-0.5065486857577234
-3.9425,-0.07127736323188383,-0.06148987274069118
-3.942,0.2594980573562781,0.2458126410091644
-3.9415,0.4195506802215176,0.4259554938970107
-3.941,0.4729015545099309,0.5107286011383502
-3.9405,0.4729015545099309,0.5425185163538525
-3.94,0.4408910299368829,0.5319218779486851
-3.9395,0.4195506802215176,0.5213252395435176
-3.939,0.408880505363835,0.5001319627331828
-3.9385,0.3982103305061524,0.4683420475176805
-3.938,0.4622313796522482,0.3729723018711736
-3.9375,0.6329541773751706,-0.2098428104130352
-3.937,0.1207857842064037,-0.9728007755850904
-3.9365,-0.6261264558313813,-1.629792356705471
-3.936,-0.9569018764195432,-1.714565463946811
-3.9355,-0.6474668055467465,-1.152943628472937
-3.935,-0.1886492866663929,-0.4535654937318862
-3.9345,0.1634664836371343,0.08686306493165288
-3.934,0.3661998059331045,0.4047622170866759
-3.9335,0.4515612047945656,0.5319218779486851
-3.933,0.4622313796522482,0.5425185163538525
-3.9325,0.4515612047945656,0.4789386859228479
-3.932,0.4835717293676135,0.4789386859228479
-3.9315,0.5155822539406614,0.4471487707073456
-3.931,0.4835717293676135,0.3305857482505039
-3.9305,0.4408910299368829,0.2034260873884947
-3.93,0.408880505363835,0.1080563417419877
-3.9295,0.2808384070716433,0.1610395337678249
-3.929,-0.3380317346739499,0.6060983467848571
-3.9285,-1.116954499284783,0.3623756634660061
-3.928,-1.650463242168915,-0.4111789401112165
-3.9275,-1.810515865034154,-0.9939940523954253
-3.927,-1.415719395299897,-1.068170521231597
-3.9265,-0.7434983792658902,-0.6654982618352349
-3.926,-0.1779791118087102,-0.1992461720078678
-3.9255,0.1954770082101822,0.1610395337678249
-3.925,0.3982103305061524,0.3941655786815084
-3.9245,0.4622313796522482,0.5107286011383502
-3.924,0.4729015545099309,0.5637117931641874
-3.9235,0.4515612047945656,0.5743084315693548
-3.923,0.4302208550792003,0.5637117931641874
-3.9225,0.408880505363835,0.55311515475902
-3.922,0.3982103305061524,0.5319218779486851
-3.9215,0.408880505363835,0.4895353243280153
-3.921,0.6542945270905358,0.06566978812131802
-3.9205,0.3448594562177392,-0.7078848154559045
-3.92,-0.5087545323968721,-1.417859588602123
-3.9195,-1.148965023857831,-1.820531847998485
-3.919,-0.9355615267041777,-1.481439419033127
-3.9185,-0.423393133535411,-0.8244478379127463
-3.918,0.01408403562957729,-0.2098428104130352
-3.9175,0.291508581929326,0.2034260873884947
-3.917,0.4195506802215176,0.4259554938970107
-3.9165,0.4622313796522482,0.4895353243280153
-3.916,0.4622313796522482,0.4683420475176805
-3.9155,0.4835717293676135,0.4683420475176805
-3.915,0.5475927785137094,0.5637117931641874
-3.9145,0.5369226036560266,0.4789386859228479
-3.914,0.4942419042252961,0.3305857482505039
-3.9135,0.4408910299368829,0.2034260873884947
-3.913,0.3661998059331045,0.1504428953626575
-3.9125,-0.06060718837420119,0.5319218779486851
-3.912,-0.8181896032696687,0.5743084315693548
-3.9115,-1.533091318734406,-0.1462629799820306
-3.911,-1.981238662757077,-0.4853554089473885
-3.9105,-1.703814116457328,-0.1992461720078678
-3.91,-0.9675720512772257,-0.02969995752518888
-3.9095,-0.3166913849585846,0.06566978812131802
-3.909,0.1314559590640864,0.1186529801471552
-3.9085,0.3661998059331045,0.1716361721729923
-3.908,0.4622313796522482,0.2246193641988295
-3.9075,0.4835717293676135,0.2881991946298341
-3.907,0.4622313796522482,0.3517790250608387
-3.9065,0.4408910299368829,0.4153588554918433
-3.906,0.408880505363835,0.4789386859228479
-3.9055,0.3982103305061524,0.5425185163538525
-3.905,0.3982103305061524,0.5955017083796896
-3.9045,0.5796033030867573,0.4365521323021782
-3.904,0.6436243522328531,-0.1992461720078678
-3.9035,-0.09261771294724913,-0.8668343915334161
-3.903,-0.9142211769888124,-1.322489842955616
-3.9025,-0.9889124009925911,-1.205926820498774
-3.902,-0.5194247072545548,-0.7396747306714069
-3.9015,-0.07127736323188383,-0.1250697031716958
-3.901,0.2594980573562781,0.3729723018711736
-3.9005,0.4195506802215176,0.6590815388106942
-3.9,0.4729015545099309,0.7544512844572011
-3.8995,0.4729015545099309,0.7332580076468663
-3.899,0.4622313796522482,0.6484849004055269
-3.8985,0.6436243522328531,0.7120647308365314
-3.898,0.6863050516635838,0.6060983467848571
-3.8975,0.6222840025174878,0.3941655786815084
-3.897,0.5262524287983441,0.1716361721729923
-3.8965,0.4408910299368829,-0.008506680714854012
-3.896,0.1207857842064037,0.1716361721729923
-3.8955,-0.6367966306890638,0.3411823866556712
-3.895,-1.405049220442214,-0.252229364033705
-3.8945,-1.927887788468663,-0.9304142219644207
-3.894,-1.938557963326346,-1.280103289334946
-3.8935,-1.255666772434657,-1.05757388282643
-3.893,-0.5514352318276028,-0.570128516188728
-3.8925,-0.02859666380115328,-0.1250697031716958
-3.892,0.291508581929326,0.1822328105781598
-3.8915,0.4408910299368829,0.3411823866556712
-3.891,0.4835717293676135,0.4153588554918433
-3.8905,0.4729015545099309,0.4365521323021782
-3.89,0.4515612047945656,0.4259554938970107
-3.8895,0.4195506802215176,0.4153588554918433
-3.889,0.3982103305061524,0.3941655786815084
-3.8885,0.3982103305061524,0.383568940276341
-3.888,0.4729015545099309,0.2881991946298341
-3.8875,0.6329541773751706,-0.2734226408440398
-3.887,0.03542438534494258,-1.025783967610927
-3.8865,-0.7648387289812555,-1.661582271920973
