Class_7_Listen_To_Music/Class_7_Listen_To_Music_1_SH_13.csv

#Digilent WaveForms Oscilloscope Acquisition
#Device Name: EExplorer
#Serial Number: SN:210151A2B84A
#Date Time: 2021-02-03 14:01:36.353
#Sample rate: 2000Hz
#Samples: 16384
#Trigger: Source: Channel 1 Type: Edge Condition: Rising Level: 0 V Hyst.: Auto HoldOff: 0 s
#Channel 1: Range: 1 V/div Offset: 0 V Attenuation: 1 X
#Channel 2: Range: 1 V/div Offset: 0 V Attenuation: 1 X
#Power Supplies: ON
#Fixed Supply: ON
#Voltage: 3.3 V Readback: 3.331 V
#Positive Supply: ON
#Voltage: 3.7 V Readback: 3.703 V
#Current: 40 mA Readback: 18 mA
#Negative Supply: ON
#Voltage: -3.7 V Readback: -3.334 V
#Current: -40 mA Readback: -6 mA
#Reference 1: ON
#Voltage: 0 V
#Reference 2: ON
#Voltage: 0 V

Time (s),Channel 1 (V),Channel 2 (V)
-4.096,-0.3593720843893152,1.612778995275763
-4.0955,-0.903551002130635,1.856501678594392
-4.095,-1.180975548431024,1.538602526439042
-4.0945,-1.341028171296118,0.9345941373450475
-4.094,-1.127624674142659,0.4471487707077889
-4.0935,-0.7008176798346939,-0.04029659593066472
-4.093,-0.1886492866663929,-0.3793890248957141
-4.0925,0.2701682322135435,-0.6337083466195013
-4.092,0.5689331282292299,-0.7608680074818093
-4.0915,0.7396559259519968,-0.8350444763179138
-4.091,0.8676980242441885,-0.9304142219644207
-4.0905,1.059761171682525,-0.9410108603693569
-4.09,1.113112045970889,-0.6866915386455698
-4.0895,0.9957401225363802,-0.400582301706049
-4.089,0.8890383739596508,-0.1250697031719463
-4.0885,0.8036769750980928,0.1292496185523226
-4.088,0.6756348768059011,0.07626642652648545
-4.0875,0.6329541773752094,-0.4217755785159309
-4.087,0.1741366584943511,-0.9304142219647098
-4.0865,-0.3380317346739499,-1.248313374119443
-4.086,-0.9675720512766531,-1.396666311791653
-4.0855,-1.543761493592011,-1.428456227006991
-4.085,-1.458400094730627,-1.0999604364471
-4.0845,-0.828859778127924,-0.4005823017066851
-4.084,-0.2206598112390527,0.2352160026043535
-4.0835,0.2061471830678648,0.627291623595192
-4.083,0.4515612047945656,0.775644561267536
-4.0825,0.5475927785137094,0.7544512844570854
-4.082,0.5475927785137094,0.627291623595192
-4.0815,0.5262524287983441,0.4683420475176805
-4.081,0.4835717293676523,0.3411823866557869
-4.0805,0.4195506802215176,0.2776025562246667
-4.08,0.3021787567870086,0.457745409112513
-4.0795,0.003413860772166377,0.8180311148878781
-4.079,-0.4980843575397524,0.8604176685088466
-4.0785,-1.116954499284783,0.8286277532933731
-4.078,-1.575772018164719,0.733258007646953
-4.0775,-1.650463242168614,0.30939247143961
-4.077,-1.319687821580753,-0.3052125560595421
-4.0765,-0.8288597781277979,-0.7926579226968007
-4.076,-0.2206598112390235,-1.046977244421368
-4.0755,0.2381577076409128,-1.163540266878104
-4.075,0.5475927785137094,-1.216523458903942
-4.0745,0.7183155762367092,-1.195330182093443
-4.074,0.8036769750980928,-1.01518732920576
-4.0735,0.8036769750980928,-0.7608680074817418
-4.073,0.7289857510943822,-0.5171453241631125
-4.0725,0.6649647019482183,-0.2416327256285375
-4.072,0.6116138276598051,0.03387987290581572
-4.0715,0.6863050516635159,0.330585748250234
-4.071,1.187803269974512,0.8498210301041803
-4.0705,1.017080472251745,1.369056311956912
-4.07,0.2594980573569671,1.082947075017652
-4.0695,-0.6047861061167146,0.08686306493080477
-4.069,-1.373038695869166,-0.8456411147230812
-4.0685,-1.543761493592088,-1.174136905283272
-4.068,-0.9782422261343455,-0.6972881770501012
-4.0675,-0.3593720843893152,0.002089957690313421
-4.067,0.1207857842064037,0.6060983467848571
-4.0665,0.3982103305062786,1.019367244586589
-4.066,0.5369226036560266,1.241896651094903
-4.0655,0.5582629533713921,1.33726639674141
-4.065,0.536922603656046,1.379652950362041
-4.0645,0.4942419042252961,1.411442865577582
-4.064,0.4515612047945656,1.411442865577582
-4.0635,0.3982103305062009,1.443232780793056
-4.063,0.1421261339212838,1.496215972818998
-4.0625,-0.391382608962363,1.580989080060261
-4.062,-0.8075194284116075,1.029963882992056
-4.0615,-1.212986073004111,-0.06148987274126943
-4.061,-1.415719395299897,-0.6972881770507372
-4.0605,-1.170305373573196,-0.8456411147230812
-4.06,-0.6688071552615974,-0.9410108603697134
-4.0595,-0.1032878878049318,-1.078767159636765
-4.059,0.3235191065023739,-1.174136905283272
-4.0585,0.6116138276595431,-1.322489842955481
-4.058,0.79300680024041,-1.42845622700729
-4.0575,1.027750647109428,-1.492036057438295
-4.057,1.134452395686158,-1.386069673386717
-4.0565,1.006410297394063,-1.121153713257435
-4.056,0.8356874996711408,-0.8138511995075789
-4.0555,0.7076454013790655,-0.5277419625683185
-4.055,0.6542945270908075,-0.2628260024384194
-4.0545,0.9530594231056497,0.2352160026039969
-4.054,0.8036769750982287,0.7120647308360977
-4.0535,0.08877525963262795,0.2881991946291884
-4.053,-0.7114878546928423,-0.4217755785163839
-4.0525,-1.458400094730627,-0.2840192792492073
-4.052,-1.970568487898977,0.4471487707076925
-4.0515,-1.51175096901904,0.8286277532933731
-4.051,-0.7434983792658902,0.7332580076468663
-4.0505,-0.113958062663187,0.542518516354026
-4.05,0.291508581929326,0.4365521323021782
-4.0495,0.5049120790829789,0.4259554938970107
-4.049,0.5689331282290164,0.510728601138273
-4.0485,0.5475927785136705,0.6696781772160737
-4.048,0.5049120790829789,0.9028042221295453
-4.0475,0.4515612047946141,1.135930267043016
-4.047,0.280838407071129,1.432636142388139
-4.0465,-0.2846808603855366,1.676358825706768
-4.046,-0.9569018764189318,1.824711763378977
-4.0455,-1.351698346153869,1.750535294542169
-4.045,-1.426389570157579,0.9028042221295453
-4.0445,-1.373038695869166,-0.008506680714854012
-4.044,-1.084943974711347,-0.4217755785165285
-4.0435,-0.658136980404429,-0.5807251545938954
-4.043,-0.1352984123779797,-0.6549016234300674
-4.0425,0.2701682322135919,-0.6337083466197518
-4.042,0.5155822539406614,-0.6231117082145651
-4.0415,0.6436243522328531,-0.5277419625680583
-4.041,0.7609962756672555,-0.5171453241629005
-4.0405,0.9530594231056692,-0.6972881770506794
-4.04,0.974399772821015,-0.6337083466197325
-4.0395,0.9423892482479961,-0.3899856633011032
-4.039,0.8463576745287262,-0.1250697031714741
-4.0385,0.7396559259519968,0.1186529801471552
-4.038,0.5475927785138841,0.0868630649316818
-4.0375,-0.007256314086370255,-0.4111789401116984
-4.037,-0.6474668055467465,-0.9410108603695881
-4.0365,-1.159635198715513,-1.301296566145281
-4.036,-1.671803591884629,-1.50263269584352
-4.0355,-2.055929886760855,-1.566212526274467
-4.035,-1.693143941599645,-1.248313374119443
-4.0345,-0.8608703027011562,-0.5383386009738713
-4.034,-0.1886492866663929,0.09745970333682032
-4.0335,0.2488278824985954,0.4895353243280153
-4.033,0.4942419042250729,0.6378882620002245
-4.0325,0.5796033030867477,0.60609834678478
-4.032,0.5689331282290746,0.5213252395435176
-4.0315,0.526252428798383,0.3941655786816241
-4.031,0.4729015545098726,0.2564092794142933
-4.0305,0.408880505363835,0.2140227257936621
-4.03,0.3768699807908162,0.1398462569575575
-4.0295,0.08877525963280262,0.3835689402768133
-4.029,-0.5194247072545548,0.9028042221295453
-4.0285,-0.9675720512772257,1.072350436612224
-4.028,-0.9142211769885601,0.5213252395429008
-4.0275,-0.6367966306890638,-0.1568596183871981
-4.027,-0.4020527838200457,-0.7078848154559045
-4.0265,-0.06060718837451173,-0.9622041371796917
-4.026,0.2594980573562781,-1.068170521231597
-4.0255,0.4622313796522482,-1.110557074852267
-4.025,0.5902734779443234,-1.110557074852267
-4.0245,0.6969752265215574,-1.142346990067895
-4.024,1.017080472251745,-1.280103289334946
-4.0235,1.081101521397783,-1.078767159636948
-4.023,0.9743997728208694,-0.6443049850244952
-4.0225,0.8143471499557753,-0.1992461720078678
-4.022,0.6969752265213731,0.1822328105778128
-4.0215,0.7076454013792596,0.4047622170869264
-4.021,1.049090996824793,0.6802748156210291
-4.0205,0.7396559259519968,0.6908714540261965
-4.02,0.03542438534423415,-0.04029659593105985
-4.0195,-0.7434983792658902,-0.8138511995075789
-4.019,-1.479740444445993,-1.375473034981453
-4.0185,-1.959898313041275,-1.640388995110398
-4.018,-1.458400094730627,-1.248313374119443
-4.0175,-0.690147504977477,-0.4959520473525559
-4.017,-0.08194753809011956,0.1610395337672273
-4.0165,0.3128489316448659,0.5849050699746957
-4.016,0.5049120790829789,0.775644561267536
-4.0155,0.5689331282290164,0.8180311148881673
-4.015,0.5582629533713532,0.7756445612675167
-4.0145,0.5155822539406614,0.7544512844572011
-4.014,0.4515612047946238,0.8074344764829902
-4.0135,0.366199805932891,0.9875773293710486
-4.013,0.1314559590640864,1.167720182258731
-4.0125,-0.391382608962363,1.464426057603419
-4.012,-0.7968492535545849,1.453829419197568
-4.0115,-1.1062843244271,0.701468092431364
-4.011,-1.319687821580753,0.1080563417419877
-4.0105,-0.9995825758505648,-0.2522293640333773
-4.01,-0.391382608962363,-0.474758770542221
-4.0095,0.07810508477567314,-0.6549016234300674
-4.009,0.440891029936553,-0.8668343915332234
-4.0085,0.6222840025175752,-1.03638060601623
-4.008,0.7183155762366316,-1.184733543688439
-4.0075,0.8997085488170715,-1.22712009730907
-4.007,1.241154144263071,-1.41785958860193
-4.0065,1.230483969405398,-1.205926820498774
-4.006,1.049090996824793,-0.7608680074817418
-4.0055,0.8463576745287359,-0.3052125560592337
-4.005,0.7503261008096795,0.03387987290581572
-4.0045,0.974399772821015,0.01268659609548085
-4.004,0.8250173248127884,-0.2416327256288845
-4.0035,0.08877525963335578,-0.6231117082145651
-4.003,-0.754168554123573,-0.6972881770507372
-4.0025,-1.522421143876024,-0.008506680715480441
-4.002,-1.949228138184029,0.8074344764830383
-4.0015,-1.383708870726849,0.9981739677760521
-4.001,-0.6261264558320703,0.7332580076471072
-4.0005,-0.03926683865849626,0.3941655786812868
-4,0.3341892813600565,0.1504428953626575
-3.9995,0.5155822539406614,0.02328323450064829
-3.999,0.5796033030867573,0.01268659609548085
-3.9985,0.5689331282290746,0.05507314971615059
-3.998,0.5369226036560266,0.1610395337678249
-3.9975,0.4942419042252961,0.3729723018711736
-3.997,0.4408910299368829,0.627291623595192
-3.9965,0.3341892813600565,0.8392243916985406
-3.996,-0.07127736323188383,1.125333628638062
-3.9955,-0.5621054066852853,1.432636142387917
-3.995,-1.010252750707956,1.284283204715573
-3.9945,-1.30901764672307,0.9557874141553824
-3.994,-1.244996597576974,0.5849050699745222
-3.9935,-0.839529952985034,0.2140227257936621
-3.993,-0.274010685527854,-0.08268314955102604
-3.9925,0.2274875327832301,-0.326405832869877
-3.992,0.5689331282290746,-0.4853554089473885
-3.9915,0.7396559259519968,-0.5065486857577234
-3.991,0.8676980242441885,-0.5595318777835605
-3.9905,0.9957401225363802,-0.6125150698093976
-3.99,0.9317190733902845,-0.4217755785163839
-3.9895,0.8143471499557753,-0.1568596183871981
-3.989,0.707645401378949,0.08686306493165288
-3.9885,0.6329541773751706,0.2458126410091644
-3.988,0.79300680024041,0.4789386859228479
-3.9875,1.091771696255524,0.9875773293708847
-3.987,0.5689331282290746,1.019367244586387
-3.9865,-0.1886492866663929,0.2670059178194992
-3.986,-0.9782422261349084,-0.6231117082145651
-3.9855,-1.682473766741963,-1.417859588602123
-3.985,-1.767835165603424,-1.746355379162313
-3.9845,-1.084943974711735,-1.290699927740113
-3.984,-0.391382608962363,-0.6337083466197325
-3.9835,0.1101156093487211,-0.09327978795619347
-3.983,0.408880505363835,0.2458126410091644
-3.9825,0.5369226036560266,0.4259554938970107
-3.982,0.5582629533713921,0.5213252395435176
-3.9815,0.5262524287983441,0.5743084315693548
-3.981,0.4942419042252961,0.6060983467848571
-3.9805,0.4515612047945656,0.7120647308365314
-3.98,0.4195506802215176,0.8604176685088755
-3.9795,0.1848068333524996,0.9557874141553824
-3.979,-0.274010685527854,1.188913459069066
-3.9785,-0.690147504977477,1.019367244586387
-3.978,-0.9675720512772257,0.3199891098453364
-3.9775,-1.074273799854052,-0.008506680714854012
-3.977,-0.7328282044082075,-0.2310360872233701
-3.9765,-0.2099896363817582,-0.4217755785163839
-3.976,0.2594980573562781,-0.6337083466197325
-3.9755,0.6116138276598051,-0.8350444763179138
-3.975,0.8143471499557753,-0.9939940523954253
-3.9745,0.8890383739595538,-1.163540266878104
-3.974,0.7823366253827275,-1.460246142222792
-3.9735,0.6863050516635838,-1.481439419033127
-3.973,0.6222840025174878,-1.142346990067769
-3.9725,0.6222840025174878,-0.7078848154559045
-3.972,0.6222840025174878,-0.326405832869877
-3.9715,0.7289857510943143,-0.1144730647665284
-3.971,1.219813794547716,0.01268659609548085
-3.9705,1.070431346540159,-0.08268314955102604
-3.97,0.291508581929326,-0.570128516188728
-3.9695,-0.6154562809736985,-1.025783967610927
-3.969,-1.415719395299897,-1.322489842955616
-3.9685,-1.650463242168915,-1.269506650929778
-3.968,-1.084943974711735,-0.6549016234300674
-3.9675,-0.4340633083930936,0.05507314971615059
-3.967,0.0674349099179905,0.5637117931641874
-3.9665,0.3768699807907871,0.8286277532933731
-3.966,0.5155822539406614,0.9028042221295453
-3.9655,0.5475927785137094,0.8604176685088755
-3.965,0.5049120790829789,0.7968378380778709
-3.9645,0.4515612047945656,0.7438546460520338
-3.964,0.3982103305061524,0.7332580076468663
-3.9635,0.3768699807907871,0.6166949851900245
-3.963,0.2701682322139607,0.4365521323021782
-3.9625,-0.2633405106701714,0.6378882620003594
-3.962,-0.7434983792658902,0.5743084315693548
-3.9615,-1.170305373573196,-0.06148987274069118
-3.961,-1.415719395299897,-0.4323722169215513
-3.9605,-1.191645723288561,-0.6549016234300674
-3.96,-0.572775581542968,-0.8986243067489184
-3.9595,-0.03926683865883591,-1.01518732920576
-3.959,0.3235191065023739,-1.05757388282643
-3.9585,0.5155822539406614,-1.046977244421262
-3.958,0.6116138276598051,-1.036380606016095
-3.9575,0.5582629533713921,-1.110557074852267
-3.957,0.4835717293676135,-1.036380606016095
-3.9565,0.4835717293676135,-0.792657922697244
-3.956,0.5155822539406614,-0.4959520473525559
-3.9555,0.5475927785137094,-0.2098428104130352
-3.955,0.5902734779444399,0.05507314971615059
-3.9545,0.9317190733902845,0.5107286011383502
-3.954,0.8143471499557753,0.9134008605347127
-3.9535,0.1527963087794516,0.383568940276341
-3.953,-0.6794773301197943,-0.400582301706049
-3.9525,-1.437059745015262,-0.1992461720078678
-3.952,-1.938557963326346,0.5319218779486851
-3.9515,-1.447729919872945,0.8392243916985406
-3.951,-0.7008176798351597,0.701468092431364
-3.9505,-0.09261771294724913,0.4789386859228479
-3.95,0.3021787567870086,0.3517790250608387
-3.9495,0.4942419042252961,0.3305857482505039
-3.949,0.5582629533713921,0.4153588554918433
-3.9485,0.5262524287983441,0.5637117931641874
-3.948,0.4942419042252961,0.701468092431364
-3.9475,0.4622313796522482,0.9028042221295453
-3.947,0.4195506802215176,1.167720182258731
-3.9465,0.291508581929326,1.432636142387917
-3.946,-0.2313299860971235,1.718745379327438
-3.9455,-0.722158029550525,1.877694955404949
-3.945,-1.06360362499637,1.464426057603419
-3.9445,-1.437059745015262,0.8816109453192104
-3.944,-1.490410619303675,0.5107286011383502
-3.9435,-1.148965023857831,0.04447651131098315
-3.943,-0.5941159312583333,-0.3899856633008816
-3.9425,-0.03926683865883591,-0.6443049850249
-3.942,0.3768699807907871,-0.7396747306714069
-3.9415,0.6009436528021226,-0.7820612842920766
-3.941,0.6756348768059011,-0.9198175835592532
-3.9405,0.5369226036560266,-1.046977244421262
-3.94,0.4942419042252961,-0.8244478379127463
-3.9395,0.4942419042252961,-0.4853554089473885
-3.939,0.5155822539406614,-0.1462629799820306
-3.9385,0.5582629533713921,0.1292496185523226
-3.938,0.7716664505250448,0.5001319627331828
-3.9375,0.974399772821015,1.072350436612224
-3.937,0.3875401556484697,1.104140351827727
-3.9365,-0.3166913849585846,0.3623756634660061
-3.936,-0.9035510021311299,-0.08268314955102604
-3.9355,-1.447729919872945,0.1186529801471552
-3.935,-1.757164990745741,0.4471487707073456
-3.9345,-1.234326422719292,0.4471487707073456
-3.934,-0.5514352318276028,0.4047622170866759
-3.9335,-0.007256314085787988,0.3941655786815084
-3.933,0.3341892813600565,0.4259554938970107
-3.9325,0.4942419042252961,0.4789386859228479
-3.932,0.5369226036560266,0.5637117931641874
-3.9315,0.4942419042252961,0.6802748156210291
-3.931,0.4515612047945656,0.849821030103708
-3.9305,0.4195506802215176,0.9769806909657173
-3.93,0.408880505363835,1.029963882991555
-3.9295,0.1314559590640864,1.241896651094903
-3.929,-0.3487019095316325,1.453829419198252
-3.9285,-0.7861790786966207,1.241896651094903
-3.928,-1.191645723288561,0.849821030103708
-3.9275,-1.298347471865388,0.4153588554918433
-3.927,-1.020922925565639,-0.06148987274069118
-3.9265,-0.5407650569699201,-0.400582301706049
-3.926,-0.03926683865883591,-0.6654982618352349
-3.9255,0.3341892813600565,-0.8562377531282487
-3.925,0.5902734779444399,-0.9304142219644207
-3.9245,0.7503261008096795,-0.9198175835592532
-3.924,1.017080472251745,-0.792657922697244
-3.9235,1.081101521397841,-0.6760949002404023
-3.923,1.145122570543937,-0.8244478379127463
-3.9225,1.15579274540162,-0.9092209451540858
-3.922,1.017080472251745,-0.7396747306714069
-3.9215,1.081101521397841,-0.718481453861072
-3.921,1.369196242555273,-0.3581957480853793
-3.9205,0.8676980242441885,-0.4217755785163839
-3.92,0.07810508477567314,-0.9516074987747555
-3.9195,-0.7648387289812555,-1.439052865412457
-3.919,-1.46907026958831,-1.248313374119443
-3.9185,-1.46907026958831,-0.4853554089473885
-3.918,-0.8715404775580819,0.05507314971615059
-3.9175,-0.274010685527854,0.3729723018711736
-3.917,0.1634664836371343,0.55311515475902
-3.9165,0.4195506802215176,0.6590815388106942
-3.916,0.5262524287983441,0.7332580076468663
-3.9155,0.5475927785137094,0.7968378380778709
-3.915,0.5262524287983441,0.849821030103708
-3.9145,0.4835717293676135,0.9769806909657173
-3.914,0.4302208550792003,1.135930267043229
-3.9135,0.3875401556484697,1.284283204715573
-3.913,0.2274875327832301,1.464426057603419
-3.9125,-0.1673089369510276,1.697552102517103
-3.912,-0.6474668055467465,1.824711763379112
-3.9115,-1.052933450138687,1.485619334413754
-3.911,-1.30901764672307,0.92399749893988
-3.9105,-1.127624674142465,0.2564092794143318
-3.91,-0.6367966306890638,-0.326405832869877
-3.9095,-0.1459685872356623,-0.718481453861072
-3.909,0.2701682322139607,-0.9728007755850904
-3.9085,0.5369226036560266,-1.068170521231597
-3.908,0.6756348768059011,-1.05757388282643
-3.9075,0.974399772821015,-1.131750351662602
-3.907,1.113112045970889,-1.0999604364471
-3.9065,1.006410297394063,-0.8562377531282487
-3.906,0.8463576745288233,-0.5489352393783931
-3.9055,0.7183155762366316,-0.252229364033705
-3.905,0.6436243522328531,0.02328323450064829
-3.9045,0.9103787236749192,0.5001319627331828
-3.904,0.7289857510943143,1.051157159801889
-3.9035,0.03542438534494258,0.9028042221295453
-3.903,-0.4980843575391895,0.309392471440169
-3.9025,-0.9782422261349084,-0.2946159176543747
-3.902,-1.490410619303675,-1.004590690800593
-3.9015,-1.533091318734406,-1.301296566145281
-3.901,-0.9462317015618604,-0.8562377531282487
-3.9005,-0.3273615598162672,-0.1992461720078678
-3.9,0.1314559590640864,0.3623756634660061
-3.8995,0.3982103305061524,0.7438546460520338
-3.899,0.5049120790829789,0.9557874141553824
-3.8985,0.5155822539406614,1.082947075017392
-3.898,0.4729015545099309,1.146526905448396
-3.8975,0.4195506802215176,1.220703374284568
-3.897,0.3768699807907871,1.29487984312074
-3.8965,0.2381577076409128,1.37965295036208
-3.896,-0.3593720843893152,1.591585718465428
-3.8955,-1.042263275281004,1.782325209758442
-3.895,-1.437059745015262,1.506812611224089
-3.8945,-1.661133417026597,1.061753798207057
-3.894,-1.437059745015262,0.3305857482505039
-3.8935,-0.9569018764195432,-0.3793890248957141
-3.893,-0.4340633083930936,-0.8880276683437509
-3.8925,0.04609456020262521,-1.152943628472937
-3.892,0.4195506802215176,-1.269506650929778
-3.8915,0.6436243522328531,-1.333086481360783
-3.891,0.7609962756673623,-1.417859588602123
-3.8905,0.8356874996711408,-1.449649503817625
-3.89,0.857027849386506,-1.184733543688439
-3.8895,0.8356874996711408,-0.8350444763179138
-3.889,0.7823366253827275,-0.4959520473525559
-3.8885,0.7289857510943143,-0.1780528951975329
-3.888,0.8890383739595538,0.2034260873884947
-3.8875,1.123782220828572,0.7120647308365314
-3.887,0.5369226036560266,0.3729723018711736
-3.8865,-0.3487019095316325,-0.4429688553267188
-3.886,-1.191645723288561,-0.5489352393783931
-3.8855,-1.895877263895616,0.1716361721729923
