Class_7_Listen_To_Music/Class_7_Listen_To_Music_Zakour_5.csv

#Digilent WaveForms Oscilloscope Acquisition
#Device Name: EExplorer
#Serial Number: SN:210151A2B84A
#Date Time: 2020-11-26 10:48:41.486
#Sample rate: 2000Hz
#Samples: 16384
#Trigger: Source: Channel 1 Type: Edge Condition: Rising Level: 0 V Hyst.: Auto HoldOff: 0 s
#Channel 1: Range: 1 V/div Offset: 0 V Attenuation: 1 X
#Channel 2: Range: 1 V/div Offset: 0 V Attenuation: 1 X
#Power Supplies: ON
#Fixed Supply: ON
#Voltage: 3.3 V Readback: 3.328 V
#Positive Supply: ON
#Voltage: 3.7 V Readback: 3.714 V
#Current: 500 mA Readback: 21 mA
#Negative Supply: ON
#Voltage: -3.7 V Readback: -3.705 V
#Current: -500 mA Readback: -9 mA
#Reference 1: ON
#Voltage: 0 V
#Reference 2: ON
#Voltage: 0 V

Time (s),Channel 1 (V),Channel 2 (V)
-4.096,0.7289857510943143,-0.4535654937318862
-4.0955,0.6222840025175849,-0.4535654937318862
-4.095,0.5049120790825324,-0.3475991096796432
-4.0945,0.01408403562957729,0.2776025562246667
-4.094,-0.8288597781265848,0.5849050699742426
-4.0935,-1.565101843307968,-0.01910331912071535
-4.093,-2.130621110764634,-0.7820612842920766
-4.0925,-2.450726356494822,-1.492036057437649
-4.092,-2.46139653135233,-2.053657892912033
-4.0915,-1.949228138184029,-1.905304955239825
-4.091,-0.9675720512772257,-1.025783967610927
-4.0905,-0.1993194615236194,-0.1462629799814427
-4.09,0.3021787567870086,0.5001319627331828
-4.0895,0.5582629533713921,0.8922075837243778
-4.089,0.6436243522327755,1.082947075017218
-4.0885,0.6329541773751706,1.135930267043229
-4.088,0.6009436528021226,1.125333628638062
-4.0875,0.5582629533714309,1.051157159801957
-4.087,0.5155822539402829,0.8498210301031008
-4.0865,0.09944543449103843,0.1822328105781598
-4.086,-0.7328282044074506,-0.7290780922654106
-4.0855,-1.533091318734522,-1.492036057438632
-4.085,-1.661133417026597,-1.862918401619155
-4.0845,-0.7541685541243979,-1.460246142223159
-4.084,0.152796308779966,-0.7714646458864177
-4.0835,0.7183155762366316,-0.2310360872233701
-4.083,0.9637295979633325,0.03387987290581572
-4.0825,0.9957401225363123,0.03387987290574826
-4.082,0.9210488985326017,-0.04029659593035631
-4.0815,0.8356874996711408,-0.1462629799820306
-4.081,0.9210488985325241,-0.4111789401109756
-4.0805,1.027750647109428,-0.5913217929990628
-4.08,0.9317190733902845,-0.4853554089473885
-4.0795,0.7823366253828634,-0.2946159176545481
-4.079,0.6649647019481407,-0.09327978795601036
-4.0785,0.5796033030867573,0.1080563417419877
-4.078,0.3768699807909714,0.6484849004050354
-4.0775,-0.2420001609555824,1.210106735878909
-4.077,-1.095614149569417,0.6696781772158616
-4.0765,-1.83185621474885,-0.2840192792483398
-4.076,-2.397375482206777,-1.152943628473457
-4.0755,-2.482736881068161,-1.725162102351978
-4.075,-2.418715831922065,-1.926498232050159
-4.0745,-1.629122892452695,-1.301296566144394
-4.074,-0.690147504977477,-0.326405832869877
-4.0735,0.01408403562957729,0.5001319627331828
-4.073,0.4195506802211489,1.051157159801388
-4.0725,0.6116138276598051,1.33726639674141
-4.072,0.6542945270905358,1.432636142387917
-4.0715,0.63295417737519,1.400846227172444
-4.071,0.5902734779444108,1.294879843120567
-4.0705,0.5582629533713921,1.104140351827727
-4.07,0.3128489316449145,0.5319218779492055
-4.0695,-0.4447334832515332,0.1398462569571045
-4.069,-1.277007122150022,-0.2840192792492073
-4.0685,-1.757164990745741,-0.9410108603695881
-4.068,-1.223656247860765,-1.099960436446897
-4.0675,-0.2953510352432193,-0.8774310299385835
-4.067,0.4515612047945656,-0.6549016234300674
-4.0665,0.857027849386603,-0.5383386009731678
-4.066,0.9637295979633325,-0.474758770542221
-4.0655,0.9210488985326017,-0.4853554089473885
-4.065,0.8463576745288912,-0.5489352393783352
-4.0645,0.825017324813458,-0.5807251545938954
-4.064,0.9317190733902845,-0.6125150698093976
-4.0635,0.8783681991019198,-0.5277419625681354
-4.063,0.7609962756672749,-0.3581957480851866
-4.0625,0.6649647019482183,-0.1462629799820306
-4.062,0.5902734779445078,0.09745970333659865
-4.0615,0.568933128229094,0.4789386859235129
-4.061,0.5902734779444399,1.210106735879401
-4.0605,-0.09261771294724913,1.570392441655093
-4.06,-0.967572051277905,0.9769806909648403
-4.0595,-1.714484291315011,0.01268659609548085
-4.059,-2.322684258202921,-0.8986243067489184
-4.0585,-2.440056181637324,-1.428456227006808
-4.058,-1.83185621474952,-1.152943628472937
-4.0575,-0.8715404775580819,-0.2734226408440398
-4.057,-0.1246282375209764,0.6060983467840573
-4.0565,0.3448594562177392,1.263089927905238
-4.056,0.5796033030867573,1.655165548896433
-4.0555,0.6542945270904679,1.824711763378958
-4.055,0.6329541773751415,1.856501678594556
-4.0545,0.6009436528021226,1.79292184816361
-4.054,0.5689331282291037,1.633972272086243
-4.0535,0.4622313796517435,1.252493289499733
-4.053,-0.09261771294724913,0.8816109453192104
-4.0525,-0.9142211769888124,0.7544512844572011
-4.052,-1.661133417026374,-0.04029659593088638
-4.0515,-1.415719395299897,-0.6231117082145651
-4.051,-0.4554036581084589,-0.7290780922662394
-4.0505,0.3448594562170113,-0.7078848154559239
-4.05,0.79300680024041,-0.7078848154559045
-4.0495,0.9317190733902845,-0.718481453861072
-4.049,0.9210488985326114,-0.8138511995074922
-4.0485,0.8676980242441303,-0.9198175835592918
-4.048,0.8036769750980928,-0.9622041371799229
-4.0475,0.782336625382747,-1.057573882826343
-4.047,0.7503261008096116,-0.9092209451538064
-4.0465,0.6756348768059011,-0.6019184314042303
-4.046,0.6222840025175363,-0.2628260024391808
-4.0455,0.57960330308667,0.0444765113113301
-4.045,0.4835717293676135,0.4259554938970107
-4.0445,-0.09261771294724913,1.125333628638062
-4.044,-0.9889124009932705,1.570392441654477
-4.0435,-1.735824641030376,0.8922075837243778
-4.043,-2.312014083345239,-0.1462629799820306
-4.0425,-2.472066706210332,-1.025783967610128
-4.042,-2.472066706210478,-1.51322933424863
-4.0415,-2.162631635337682,-1.439052865412457
-4.041,-1.180975548431771,-0.6125150698101494
-4.0405,-0.3380317346734356,0.3517790250615133
-4.04,0.2274875327832301,1.093543713422559
-4.0395,0.5369226036557452,1.549199164844344
-4.039,0.6542945270905358,1.750535294542979
-4.0385,0.6542945270905358,1.79292184816361
-4.038,0.6222840025175169,1.718745379327505
-4.0375,0.5796033030867185,1.570392441654833
-4.037,0.5369226036560266,1.284283204715573
-4.0365,0.1314559590640864,0.5743084315693548
-4.036,-0.6261264558320606,-0.02969995752587315
-4.0355,-1.373038695869166,-0.7820612842920766
-4.035,-1.586442193022819,-1.396666311791788
-4.0345,-0.7755089038396757,-1.492036057438208
-4.034,0.07810508477567314,-1.163540266878104
-4.0335,0.6436243522328531,-0.8562377531282487
-4.033,0.9210488985323495,-0.6443049850250927
-4.0325,0.9637295979632743,-0.5489352393783931
-4.032,0.8997085488172365,-0.5489352393783931
-4.0315,0.825017324813526,-0.7184814538609178
-4.031,0.9210488985326988,-0.9728007755851482
-4.0305,1.027750647109428,-1.036380606016095
-4.03,0.9317190733903719,-0.8350444763180969
-4.0295,0.7930068002403032,-0.5595318777833099
-4.029,0.6756348768059011,-0.2840192792492073
-4.0285,0.5796033030867573,-0.008506680714854012
-4.028,0.17413665849406,0.6060983467853968
-4.0275,-0.658136980404429,1.199510097474233
-4.027,-1.426389570157579,0.6908714540261965
-4.0265,-1.949228138183553,-0.103876426360638
-4.026,-2.376035132491334,-0.8986243067489184
-4.0255,-2.450726356495113,-1.449649503817625
-4.025,-2.247993034199327,-1.566212526274361
-4.0245,-1.319687821579967,-0.8774310299377257
-4.024,-0.4554036581084589,0.06566978812131802
-4.0235,0.1527963087788985,0.8498210301029947
-4.023,0.504912079083105,1.347863035146818
-4.0225,0.6436243522328531,1.612778995275763
-4.022,0.6649647019481989,1.686955464111868
-4.0215,0.6329541773751317,1.655165548896327
-4.021,0.5902734779444399,1.538602526439591
-4.0205,0.5582629533713921,1.326669758336243
-4.02,0.3128489316440216,0.7650479228620505
-4.0195,-0.423393133535411,0.4153588554918433
-4.019,-1.287677297007705,0.1186529801471552
-4.0185,-1.842526389606698,-0.6125150698087326
-4.018,-1.287677297007705,-0.9622041371799229
-4.0175,-0.3700422592469978,-0.9304142219644207
-4.017,0.3448594562170891,-0.7820612842922114
-4.0165,0.7503261008098251,-0.6443049850248614
-4.016,0.9103787236749192,-0.6019184314042303
-4.0155,0.9210488985325921,-0.6866915386454926
-4.015,0.8676980242442176,-0.8032545611024403
-4.0145,0.8997085488172365,-0.8350444763179138
-4.014,1.059761171682331,-0.7820612842921247
-4.0135,0.9957401225362443,-0.6760949002402481
-4.013,0.8463576745288233,-0.5065486857577234
-4.0125,0.7183155762366316,-0.3052125560595421
-4.012,0.6222840025173519,-0.06148987274023821
-4.0115,0.4729015545099309,0.4365521323021782
-4.011,0.3982103305061524,1.241896651094903
-4.0105,-0.2633405106695698,1.580989080059952
-4.01,-1.074273799854052,0.9028042221295453
-4.0095,-1.554431668449771,0.3517790250608387
-4.009,-1.94922813818367,-0.3687923864898914
-4.0085,-2.344024607918122,-0.983397413990412
-4.008,-2.162631635337682,-1.152943628472937
-4.0075,-1.266336947293155,-0.517145324163469
-4.007,-0.4340633083925502,0.3941655786822023
-4.0065,0.1634664836371343,1.157123543853563
-4.006,0.5049120790829789,1.655165548896433
-4.0055,0.63295417737519,1.920081509025696
-4.005,0.6542945270905358,2.004854616266958
-4.0045,0.6329541773751706,1.962468062646288
-4.004,0.5902734779443234,1.814115124973568
-4.0035,0.4622313796522482,1.400846227172415
-4.003,-0.1993194615240755,0.5743084315693548
-4.0025,-1.05293345013791,-0.4005823017051624
-4.002,-1.778505340461106,-1.227120097309109
-4.0015,-1.607782542738184,-1.545019249464132
-4.001,-0.7328282044090033,-1.237716735714556
-4.0005,0.1207857842068986,-0.9092209451539701
-4,0.6649647019482183,-0.7820612842920766
-3.9995,0.9103787236749192,-0.8032545611024114
-3.999,0.942389248247967,-0.792657922697244
-3.9985,0.8890383739595538,-0.7714646458869092
-3.998,0.8356874996711408,-0.8138511995075789
-3.9975,0.9850699476786977,-1.004590690800593
-3.997,0.9957401225363802,-0.9939940523954253
-3.9965,0.8783681991018712,-0.8138511995075789
-3.996,0.7503261008096795,-0.5807251545938954
-3.9955,0.6436243522328531,-0.3687923864905467
-3.995,0.6756348768059011,-0.05089323433552374
-3.9945,1.049090996824793,0.7120647308365314
-3.994,0.6222840025174878,1.051157159801889
-3.9935,-0.3166913849585846,0.3729723018711736
-3.993,-1.127624674142465,0.02328323450064829
-3.9925,-1.789175515318789,0.4895353243280153
-3.992,-2.344024607918286,0.2881991946298341
-3.9915,-2.23732285934146,-0.3475991096802118
-3.991,-1.351698346153801,-0.3581957480853793
-3.9905,-0.4874141826815069,0.07626642652648545
-3.99,0.1314559590640864,0.5743084315693548
-3.9895,0.4835717293676135,0.9875773293708847
-3.989,0.6329541773751706,1.284283204715573
-3.9885,0.6649647019482183,1.475022696008586
-3.988,0.6329541773751706,1.559795803249926
-3.9875,0.5902734779444399,1.580989080060261
-3.987,0.5475927785137094,1.443232780793084
-3.9865,0.1207857842064037,0.8392243916985406
-3.986,-0.7114878546928423,-0.04029659593035631
-3.9855,-1.447729919872945,-0.8138511995075789
-3.985,-1.554431668449771,-1.258910012524611
-3.9845,-0.6794773301197943,-1.0999604364471
-3.984,0.1741366584948169,-0.5171453241628908
-3.9835,0.707645401378949,0.03387987290581572
-3.983,0.9317190733902845,0.3517790250608387
-3.9825,0.9637295979633325,0.3623756634660061
-3.982,0.8997085488172365,0.2034260873884947
-3.9815,0.8143471499557753,-0.02969995752518888
-3.981,0.9210488985326017,-0.4641621321370536
-3.9805,1.027750647109428,-0.7502713690765743
-3.98,0.942389248247967,-0.7396747306714069
-3.9795,0.8036769750980928,-0.6337083466197325
-3.979,0.6863050516635838,-0.4959520473525559
-3.9785,0.6116138276598051,-0.3475991096802118
-3.978,0.825017324813458,0.2246193641988295
-3.9775,0.7396559259519968,0.9557874141553824
-3.977,-0.1673089369510276,0.627291623595192
-3.9765,-1.031593100423322,0.1080563417419877
-3.976,-1.618452717595867,0.2564092794143318
-3.9755,-2.173301810195364,-0.1462629799820306
-3.975,-2.429386006779747,-0.8774310299385835
-3.9745,-2.119950935906951,-1.216523458903942
-3.974,-1.159635198715513,-0.7396747306714069
-3.9735,-0.3273615598162672,-0.01910331912002144
-3.973,0.2381577076409128,0.6166949851900245
-3.9725,0.5369226036560266,1.040560521396722
-3.972,0.6436243522328531,1.284283204715573
-3.9715,0.6542945270905358,1.390249588767247
-3.971,0.6222840025174878,1.400846227172415
-3.9705,0.5902734779444399,1.305476481525908
-3.97,0.3341892813600565,0.8286277532933731
-3.9695,-0.4554036581084589,-0.05089323433552374
-3.969,-1.26633694729234,-0.8986243067489184
-3.9685,-1.789175515318789,-1.460246142222792
-3.968,-1.191645723288561,-1.407262950196955
-3.9675,-0.2099896363817582,-0.8456411147230812
-3.967,0.5262524287983441,-0.252229364033705
-3.9665,0.9210488985326017,0.1186529801471552
-3.966,1.027750647109428,0.2564092794143318
-3.9655,0.974399772821015,0.1822328105781598
-3.965,0.8783681991018712,0.002089957690313421
-3.9645,0.8890383739595538,-0.2840192792492073
-3.964,1.102441871113207,-0.6337083466197325
-3.9635,1.049090996824793,-0.6549016234300674
-3.963,0.8997085488172365,-0.5065486857577234
-3.9625,0.7396559259519968,-0.3370024712750445
-3.962,0.6329541773751706,-0.1780528951975329
-3.9615,0.4835717293676135,0.2352160026039969
-3.961,0.3128489316446912,1.019367244586387
-3.9605,-0.4340633083930936,0.9981739677760521
-3.96,-1.223656247861609,0.3517790250608387
-3.9595,-1.810515865034154,0.4471487707073456
-3.959,-2.333354433060604,0.7438546460520338
-3.9585,-2.418715831922065,0.1186529801471552
-3.958,-1.83185621474952,-0.3581957480853793
-3.9575,-0.8715404775580819,-0.2098428104130352
-3.957,-0.124628237520297,0.1716361721729923
-3.9565,0.3555296310754218,0.5743084315693548
-3.956,0.5902734779444399,0.8816109453192104
-3.9555,0.6649647019482183,1.093543713422559
-3.955,0.6436243522328531,1.220703374284568
-3.9545,0.6116138276598051,1.284283204715573
-3.954,0.5796033030867573,1.284283204715573
-3.9535,0.4835717293676135,1.104140351827727
-3.953,-0.1459685872356623,0.9769806909657173
-3.9525,-1.031593100423322,0.9557874141553824
-3.952,-1.778505340461106,0.13984625695749
-3.9515,-1.703814116457328,-0.5807251545938954
-3.951,-0.8288597781273515,-0.7502713690765743
-3.9505,0.01408403562957729,-0.6866915386455698
-3.95,0.5902734779444399,-0.570128516188728
-3.9495,0.857027849386506,-0.4641621321370536
-3.949,0.9103787236749192,-0.4111789401112165
-3.9485,0.8676980242441885,-0.3581957480853793
-3.948,0.8143471499557753,-0.3687923864905467
-3.9475,0.9637295979633325,-0.570128516188728
-3.947,0.974399772821015,-0.5277419625680583
-3.9465,0.8676980242441885,-0.2946159176543747
-3.946,0.7396559259519968,-0.01910331912002144
-3.9455,0.6436243522328531,0.2352160026039969
-3.945,0.5796033030867573,0.5637117931641874
-3.9445,0.6863050516635838,1.210106735879401
-3.944,0.2488278824985954,1.644568910491266
-3.9435,-0.5941159312583333,0.9875773293708847
-3.943,-1.223656247861609,-0.07208651114585861
-3.9425,-1.767835165603424,-1.036380606016095
-3.942,-2.290673733629873,-1.672178910326141
-3.9415,-2.173301810195364,-1.746355379162313
-3.941,-1.287677297007705,-0.9728007755850904
-3.9405,-0.4447334832507763,-0.02969995752518888
-3.94,0.1527963087794516,0.7226613692416989
-3.9395,0.4942419042252961,1.188913459069066
-3.939,0.6436243522328531,1.42203950398275
-3.9385,0.6649647019482183,1.485619334413754
-3.938,0.6329541773751706,1.443232780793084
-3.9375,0.6009436528021226,1.326669758336243
-3.937,0.5582629533713921,1.104140351827727
-3.9365,0.09944543449103843,0.4153588554918433
-3.936,-0.7328282044082075,-0.5807251545938954
-3.9355,-1.351698346153801,-1.449649503817625
-3.935,-1.426389570157579,-1.873515040024322
-3.9345,-0.6154562809736985,-1.47084278062796
-3.934,0.2168173579255475,-0.8774310299385835
-3.9335,0.7503261008096795,-0.4535654937318862
-3.933,0.974399772821015,-0.3052125560595421
-3.9325,0.9957401225363802,-0.326405832869877
-3.932,0.942389248247967,-0.4535654937318862
-3.9315,0.8676980242441885,-0.6019184314042303
-3.931,0.9637295979633325,-0.792657922697244
-3.9305,1.049090996824793,-0.8562377531282487
-3.93,0.942389248247967,-0.7396747306714069
-3.9295,0.79300680024041,-0.5489352393783931
-3.929,0.6756348768059011,-0.3370024712750445
-3.9285,0.5902734779444399,-0.09327978795619347
-3.928,0.6222840025174878,0.5319218779486851
-3.9275,0.4729015545099309,1.178316820663898
-3.927,-0.3700422592469978,0.7226613692416989
-3.9265,-1.191645723288561,-0.04029659593035631
-3.926,-1.682473766741963,-0.1462629799820306
-3.9255,-2.098610586191586,-0.4429688553267188
-3.925,-2.408045657064382,-0.8774310299385835
-3.9245,-2.098610586191586,-0.9622041371799229
-3.924,-1.159635198715513,-0.3475991096802118
-3.9235,-0.3380317346739499,0.4471487707073456
-3.923,0.2274875327832301,1.093543713422559
-3.9225,0.5262524287983441,1.485619334413754
-3.922,0.6436243522328531,1.6657621873016
-3.9215,0.6542945270905358,1.686955464111935
-3.921,0.6222840025174878,1.591585718465428
-3.9205,0.5902734779444399,1.37965295036208
-3.92,0.3341892813600565,0.7438546460520338
-3.9195,-0.391382608962363,0.2670059178194992
-3.919,-1.234326422719292,-0.1886495336027004
-3.9185,-1.778505340461106,-0.9198175835592532
-3.918,-1.148965023857831,-1.280103289334946
-3.9175,-0.1886492866663929,-1.142346990067769
-3.917,0.5155822539406614,-0.8986243067489184
-3.9165,0.8783681991018712,-0.718481453861072
-3.916,0.9957401225363802,-0.6337083466197325
-3.9155,0.942389248247967,-0.6866915386455698
-3.915,0.857027849386506,-0.7290780922662394
-3.9145,0.8463576745288233,-0.7608680074817418
-3.914,0.9850699476786977,-0.8456411147230812
-3.9135,0.942389248247967,-0.7502713690765743
-3.913,0.825017324813458,-0.5595318777835605
-3.9125,0.707645401378949,-0.3475991096802118
-3.912,0.6329541773751706,-0.1250697031716958
-3.9115,0.408880505363835,0.3411823866556712
-3.911,-0.3060212101009019,1.072350436612224
-3.9105,-1.127624674142465,0.8710143069140429
-3.91,-1.725154466172693,0.05507314971615059
-3.9095,-2.215982509626095,-0.7396747306714069
-3.909,-2.429386006779747,-1.333086481360783
-3.9085,-2.429386006779747,-1.608599079895136
-3.908,-1.917217613610981,-1.280103289334946
-3.9075,-0.9462317015618604,-0.3581957480853793
-3.907,-0.1673089369510276,0.5637117931641874
-3.9065,0.3448594562177392,1.231300012689736
-3.906,0.5902734779444399,1.612778995275763
-3.9055,0.6756348768059011,1.761131932948107
-3.905,0.6649647019482183,1.761131932948107
-3.9045,0.6329541773751706,1.655165548896433
-3.904,0.5902734779444399,1.475022696008586
-3.9035,0.4729015545099309,1.061753798207057
-3.903,-0.1673089369510276,0.2140227257936621
-3.9025,-1.031593100423322,-0.6866915386455698
-3.902,-1.693143941599645,-1.481439419033127
-3.9015,-1.405049220442214,-1.820531847998485
-3.901,-0.4767440078238243,-1.566212526274467
-3.9005,0.3341892813600565,-1.195330182093607
-3.9,0.8036769750980928,-0.9092209451540858
-3.8995,0.974399772821015,-0.8032545611024114
-3.899,0.9850699476786977,-0.8244478379127463
-3.8985,0.9103787236749192,-0.8562377531282487
-3.898,0.857027849386506,-0.9198175835592532
-3.8975,1.017080472251745,-1.05757388282643
-3.897,1.017080472251745,-0.9939940523954253
-3.8965,0.8890383739595538,-0.7820612842920766
-3.896,0.7609962756673623,-0.5277419625680583
-3.8955,0.6542945270905358,-0.2734226408440398
-3.895,0.6542945270905358,0.04447651131098315
-3.8945,0.9103787236749192,0.7862411996727035
-3.894,0.4942419042252961,1.33726639674141
-3.8935,-0.4767440078238243,0.8180311148882058
-3.893,-1.234326422719292,0.1716361721729923
-3.8925,-1.810515865034154,-0.6443049850249
-3.892,-2.322684258202921,-1.311893204550448
-3.8915,-2.312014083345239,-1.587405803084801
-3.891,-1.490410619303675,-1.036380606016095
-3.8905,-0.5941159312583333,-0.09327978795619347
-3.89,0.0674349099179905,0.7544512844572011
-3.8895,0.4622313796522482,1.33726639674141
-3.889,0.6329541773751706,1.6657621873016
-3.8885,0.6756348768059011,1.803518486568777
-3.888,0.6542945270905358,1.79292184816361
-3.8875,0.6116138276598051,1.70814874092227
-3.887,0.5689331282290746,1.475022696008586
-3.8865,0.09944543449103843,0.7544512844572011
-3.886,-0.7328282044082075,-0.2416327256285375
-3.8855,-1.362368521011484,-1.121153713257435
