Class_7_Listen_To_Music/Class_7_Listen_To_Music_Zakour_3.csv

#Digilent WaveForms Oscilloscope Acquisition
#Device Name: EExplorer
#Serial Number: SN:210151A2B84A
#Date Time: 2020-11-04 11:36:11.708
#Sample rate: 2000Hz
#Samples: 16384
#Trigger: Source: Channel 1 Type: Edge Condition: Rising Level: 0 V Hyst.: Auto HoldOff: 0 s
#Channel 1: Range: 1 V/div Offset: 0 V Attenuation: 1 X
#Channel 2: Range: 1 V/div Offset: 0 V Attenuation: 1 X
#Power Supplies: ON
#Fixed Supply: ON
#Voltage: 3.3 V Readback: 3.329 V
#Positive Supply: ON
#Voltage: 3.7 V Readback: 3.714 V
#Current: 500 mA Readback: 20 mA
#Negative Supply: ON
#Voltage: -3.7 V Readback: -3.703 V
#Current: -500 mA Readback: -7 mA
#Reference 1: ON
#Voltage: 0 V
#Reference 2: ON
#Voltage: 0 V

Time (s),Channel 1 (V),Channel 2 (V)
-4.096,0.2274875327832301,-1.545019249464132
-4.0955,0.40888050536367,-1.587405803084763
-4.095,0.6329541773751997,-1.205926820498282
-4.0945,0.6649647019482183,-0.6654982618352349
-4.094,0.568933128229162,-0.2734226408443964
-4.0935,0.4408910299367665,-0.09327978795616457
-4.093,0.3128489316446912,-0.06148987274069118
-4.0925,0.2168173579256348,-0.1144730647664802
-4.092,0.1527963087794516,-0.1462629799819246
-4.0915,0.1527963087794516,-0.02969995752518888
-4.091,0.1527963087794516,0.1186529801471552
-4.0905,0.120785784206394,0.1292496185523034
-4.09,0.1101156093487211,0.1080563417419877
-4.0895,0.09944543449103843,0.1292496185523226
-4.089,-0.1352984123777662,0.4153588554915831
-4.0885,-0.839529952985034,0.7968378380778709
-4.088,-1.46907026958831,0.1928294489833272
-4.0875,-1.853196564464536,-0.6019184314035074
-4.087,-1.863866739322073,-0.9728007755847627
-4.0865,-1.319687821580753,-0.6125150698093976
-4.086,-0.6901475049780496,0.03387987290522787
-4.0855,-0.2206598112391885,0.6272916235955774
-4.085,0.05676473506030786,1.051157159801889
-4.0845,0.1741366584947102,1.305476481525676
-4.084,0.2061471830678551,1.432636142387956
-4.0835,0.1954770082101822,1.475022696008586
-4.083,0.1741366584948169,1.443232780793084
-4.0825,0.1527963087794613,1.35845967355161
-4.082,0.1634664836371343,1.210106735879401
-4.0815,0.1954770082101822,1.00877060618122
-4.081,0.2488278824985469,0.6590815388110123
-4.0805,0.5796033030867573,0.07626642652648545
-4.08,0.8143471499557753,-0.4323722169215513
-4.0795,0.3021787567874745,-1.131750351661966
-4.079,0.003413860772079035,-1.555615887869184
-4.0785,0.2061471830678648,-1.42845622700729
-4.078,0.3555296310752859,-0.9516074987751892
-4.0775,0.3768699807907483,-0.5065486857574535
-4.077,0.3341892813600565,-0.2098428104130352
-4.0765,0.2915085819293648,-0.1144730647666151
-4.076,0.2381577076408642,-0.1356663415769307
-4.0755,0.1848068333524996,-0.2098428104130352
-4.075,0.1527963087794516,-0.2310360872233701
-4.0745,0.1634664836371246,-0.09327978795610674
-4.074,0.1527963087794516,0.002089957690313421
-4.0735,0.142126133921769,0.05507314971615059
-4.073,0.1207857842064231,0.1186529801470974
-4.0725,0.03542438534494258,0.3411823866556712
-4.072,-0.2526703358124887,0.92399749893988
-4.0715,-0.722158029550098,0.7332580076470399
-4.071,-1.052933450139065,-0.09327978795675246
-4.0705,-1.46907026958831,-0.7078848154559045
-4.07,-1.394379045584599,-0.8138511995074825
-4.0695,-0.9142211769883758,-0.3158091944641699
-4.069,-0.4340633083930936,0.2776025562246667
-4.0685,-0.09261771294724913,0.775644561267536
-4.068,0.09944543449110636,1.114736990233067
-4.0675,0.1741366584948169,1.305476481525908
-4.067,0.1954770082101822,1.400846227172415
-4.0665,0.1741366584948072,1.411442865577534
-4.066,0.1634664836371343,1.358459673551745
-4.0655,0.1527963087794516,1.273686566310405
-4.065,0.1741366584947975,1.114736990233039
-4.0645,0.2274875327832301,0.8180311148882058
-4.064,0.4515612047945656,0.13984625695749
-4.0635,0.86769802424381,-0.7608680074809226
-4.063,0.9743997728207918,-1.555615887869483
-4.0625,0.7289857510943143,-1.75695201756748
-4.062,0.8463576745287165,-1.703968825541691
-4.0615,0.8783681991017257,-1.311893204549928
-4.061,0.7183155762366316,-0.7396747306714069
-4.0605,0.5155822539406614,-0.2734226408440398
-4.06,0.3555296310753053,-0.04029659593033703
-4.0595,0.2274875327832301,-0.01910331912002144
-4.059,0.1527963087794516,-0.09327978795619347
-4.0585,0.1101156093487599,-0.1992461720077714
-4.058,0.1741366584948169,-0.2628260024388724
-4.0575,0.1954770082101822,-0.252229364033705
-4.057,0.1848068333525093,-0.2204394488182316
-4.0565,0.1527963087794516,-0.1568596183871981
-4.056,0.1101156093487211,-0.02969995752518888
-4.0555,-0.2953510352428506,0.5213252395430165
-4.055,-1.074273799854751,0.807434476482383
-4.0545,-1.842526389607202,0.08686306493165288
-4.054,-2.429386006779214,-0.7078848154551817
-4.0535,-2.589438629644259,-1.216523458903652
-4.053,-1.789175515318789,-0.8986243067489184
-4.0525,-0.9782422261349084,-0.1780528951975329
-4.052,-0.3487019095313025,0.5001319627336261
-4.0515,0.01408403562957729,0.9875773293708847
-4.051,0.1848068333524996,1.284283204715573
-4.0505,0.2381577076408642,1.432636142387782
-4.05,0.2168173579255475,1.475022696008586
-4.0495,0.1954770082101822,1.432636142387917
-4.049,0.1741366584948363,1.326669758336339
-4.0485,0.1741366584948266,1.167720182258519
-4.048,0.1848068333524996,0.9345941373450475
-4.0475,0.2808384070715559,0.4259554938974733
-4.047,0.6222840025177304,-0.4535654937326669
-4.0465,0.8890383739595538,-1.311893204550448
-4.046,0.2915085819298694,-1.841725124808338
-4.0455,0.1207857842065493,-1.820531847998186
-4.045,0.2808384070716433,-1.492036057438295
-4.0445,0.3661998059331045,-0.8774310299385835
-4.044,0.366199805933056,-0.3899856633006503
-4.0435,0.3128489316446912,-0.1356663415768632
-4.043,0.2488278824985954,-0.08268314955102604
-4.0425,0.1954770082102307,-0.135666341576815
-4.042,0.1634664836371343,-0.2204394488182027
-4.0415,0.1527963087794516,-0.2098428104130352
-4.041,0.1421261339217787,-0.1250697031717729
-4.0405,0.1207857842063843,-0.07208651114582006
-4.04,0.09944543449103843,-0.02969995752518888
-4.0395,0.08877525963336548,0.0126865960954423
-4.039,-0.1886492866670334,0.129249618552766
-4.0385,-0.8928808272734472,0.6166949851900245
-4.038,-1.597112367879861,0.2987958330352907
-4.0375,-1.99190883761506,-0.3581957480858804
-4.037,-2.322684258202921,-0.9092209451540858
-4.0365,-2.013249187330125,-1.025783967610927
-4.036,-1.255666772434046,-0.4747587705415946
-4.0355,-0.5834457564006506,0.2140227257936621
-4.035,-0.124628237520297,0.775644561267536
-4.0345,0.1207857842061805,1.146526905448059
-4.034,0.2168173579255475,1.358459673551745
-4.0335,0.2274875327832301,1.453829419198252
-4.033,0.2061471830678842,1.453829419198252
-4.0325,0.1848068333524996,1.369056311956777
-4.032,0.1848068333524996,1.220703374284568
-4.0315,0.2061471830678454,1.01936724458657
-4.031,0.2808384070719248,0.6484849004049679
-4.0305,0.5902734779444399,0.03387987290581572
-4.03,1.262494493977835,-0.5171453241623897
-4.0295,1.465227816274154,-1.195330182093771
-4.029,1.177133095116985,-1.375473034981453
-4.0285,0.9957401225363802,-1.131750351662602
-4.028,0.7716664505248604,-0.6866915386452517
-4.0275,0.5689331282290746,-0.3370024712750445
-4.027,0.408880505363835,-0.1992461720078678
-4.0265,0.2808384070717598,-0.2098428104130256
-4.026,0.1954770082101822,-0.2416327256285375
-4.0255,0.1527963087794516,-0.2628260024388724
-4.025,0.1527963087794516,-0.284019279249188
-4.0245,0.1954770082101919,-0.3264058328698481
-4.024,0.2061471830678648,-0.2946159176543747
-4.0235,0.174136658494846,-0.1886495336027967
-4.023,0.1421261339216816,-0.06148987274045987
-4.0225,0.04609456020262521,0.1928294489833272
-4.022,-0.252670335812217,0.8074344764824793
-4.0215,-0.8715404775587613,0.6378882619996173
-4.021,-1.618452717595867,-0.1780528951975329
-4.0205,-2.173301810195364,-0.8350444763179138
-4.02,-2.066600061617916,-1.089363798041489
-4.0195,-1.383708870726849,-0.6019184314042303
-4.019,-0.690147504977477,0.09745970333682032
-4.0185,-0.199319461524522,0.6908714540256569
-4.018,0.08877525963335578,1.093543713422559
-4.0175,0.2061471830678648,1.326669758336243
-4.017,0.2274875327832107,1.422039503982663
-4.0165,0.2061471830678454,1.432636142387859
-4.016,0.1848068333524996,1.369056311956912
-4.0155,0.1741366584948266,1.199510097474387
-4.015,0.1848068333526743,0.9981739677756569
-4.0145,0.3768699807907871,0.5637117931641874
-4.014,0.8890383739590879,-0.04029659592980694
-4.0135,1.219813794547182,-0.2734226408445892
-4.013,0.6329541773751706,-0.8774310299385835
-4.0125,-0.07127736323188383,-1.34368311976595
-4.012,-0.04993701351634387,-1.417859588601785
-4.0115,0.142126133921769,-1.046977244421262
-4.011,0.2594980573562781,-0.5489352393783931
-4.0105,0.3128489316446427,-0.1780528951978703
-4.01,0.3128489316446912,0.002089957690313421
-4.0095,0.2594980573562781,0.002089957690313421
-4.009,0.2168173579255863,-0.08268314955094894
-4.0085,0.1741366584948169,-0.1674562567923559
-4.008,0.1741366584948169,-0.1568596183871981
-4.0075,0.163466483637144,-0.1356663415768825
-4.007,0.1527963087794322,-0.1250697031716572
-4.0065,0.1314559590640864,-0.08268314955102604
-4.006,0.08877525963335578,0.04447651131098315
-4.0055,-0.2633405106708604,0.5743084315694897
-4.005,-1.020922925565639,0.7226613692416989
-4.0045,-1.661133417026597,-0.06148987274069118
-4.004,-2.130621110764789,-0.8774310299389979
-4.0035,-2.301343908487556,-1.333086481360783
-4.003,-1.661133417026597,-0.9304142219644207
-4.0025,-0.9142211769894918,-0.1568596183879016
-4.002,-0.3380317346739499,0.5425185163538525
-4.0015,0.02475421048725994,1.051157159801889
-4.001,0.184806833352354,1.33726639674115
-4.0005,0.238157707640903,1.475022696008606
-4,0.2274875327832301,1.496215972818921
-3.9995,0.1954770082101822,1.443232780793084
-3.999,0.1848068333524996,1.33726639674141
-3.9985,0.1848068333524996,1.167720182258731
-3.998,0.2061471830678648,0.9134008605347127
-3.9975,0.291508581929326,0.457745409112513
-3.997,0.707645401378949,-0.008506680714854012
-3.9965,1.027750647109428,-0.5807251545938954
-3.996,0.4302208550792003,-1.248313374119443
-3.9955,0.1207857842064037,-1.492036057438295
-3.995,0.1848068333524996,-1.205926820498774
-3.9945,0.2808384070716433,-0.7714646458869092
-3.994,0.3128489316446912,-0.4323722169215513
-3.9935,0.291508581929326,-0.252229364033705
-3.993,0.2488278824985954,-0.1886495336027004
-3.9925,0.2168173579255475,-0.1886495336027004
-3.992,0.1848068333524996,-0.2098428104130352
-3.9915,0.08877525963335578,-0.2310360872233701
-3.991,-0.01792648894347063,-0.1568596183871981
-3.9905,-0.02859666380115328,-0.05089323433552374
-3.99,0.01408403562957729,0.04447651131098315
-3.9895,0.04609456020262521,0.1504428953626575
-3.989,-0.08194753808956648,0.4789386859228479
-3.9885,-0.7328282044082075,0.8710143069140429
-3.988,-1.415719395299897,0.2352160026039969
-3.9875,-1.714484291315011,-0.5913217929990628
-3.987,-1.906547438753298,-1.174136905283272
-3.9865,-1.565101843307454,-1.078767159636765
-3.986,-0.9355615267041777,-0.4323722169215513
-3.9855,-0.391382608962363,0.2670059178194992
-3.985,-0.02859666380115328,0.7968378380778709
-3.9845,0.1527963087794516,1.125333628638062
-3.984,0.2168173579255475,1.29487984312074
-3.9835,0.2274875327832301,1.347863035146577
-3.983,0.1954770082101822,1.316073119931075
-3.9825,0.1848068333524996,1.220703374284568
-3.982,0.1954770082101822,1.072350436612224
-3.9815,0.2274875327832301,0.8710143069140429
-3.981,0.3128489316446912,0.5319218779486851
-3.9805,0.825017324813458,-0.008506680714854012
-3.98,1.465227816274416,-0.4323722169215513
-3.9795,1.294505018551494,-1.0999604364471
-3.979,0.7289857510943143,-1.608599079895136
-3.9785,0.5475927785137094,-1.47084278062796
-3.978,0.4729015545099309,-0.9198175835592532
-3.9775,0.408880505363835,-0.4217755785163839
-3.977,0.3448594562177392,-0.1144730647665284
-3.9765,0.2808384070716433,0.002089957690313421
-3.976,0.2274875327832301,-0.04029659593035631
-3.9755,0.1848068333524996,-0.1144730647665284
-3.975,0.1848068333524996,-0.1144730647665284
-3.9745,0.2488278824985954,0.08686306493165288
-3.974,0.2488278824985954,0.1292496185523226
-3.9735,0.1954770082101822,0.1292496185523226
-3.973,0.1527963087794516,0.13984625695749
-3.9725,0.08877525963335578,0.2670059178194992
-3.972,-0.3273615598162672,0.8074344764830383
-3.9715,-0.9675720512772257,0.8286277532933731
-3.971,-1.383708870726849,-0.01910331912002144
-3.9705,-1.735824641030376,-0.8350444763179138
-3.97,-1.543761493592088,-0.9622041371799229
-3.9695,-0.9889124009925911,-0.4535654937318862
-3.969,-0.4447334832507763,0.1822328105781598
-3.9685,-0.07127736323188383,0.701468092431364
-3.968,0.1207857842064037,1.040560521396722
-3.9675,0.2061471830678648,1.231300012689736
-3.967,0.2168173579255475,1.316073119931075
-3.9665,0.1954770082101822,1.326669758336243
-3.966,0.1848068333524996,1.273686566310405
-3.9655,0.1848068333524996,1.146526905448396
-3.965,0.1954770082101822,0.9769806909657173
-3.9645,0.2381577076409128,0.6908714540261965
-3.964,0.3875401556484697,0.1610395337678249
-3.9635,0.7823366253827275,-0.2310360872233701
-3.963,0.4622313796522482,-0.8562377531282487
-3.9625,-0.02859666380115328,-1.290699927740113
-3.962,0.1741366584948169,-1.375473034981453
-3.9615,0.408880505363835,-1.004590690800593
-3.961,0.4835717293676135,-0.5489352393783931
-3.9605,0.4515612047945656,-0.252229364033705
-3.96,0.3768699807907871,-0.1144730647665284
-3.9595,0.2808384070716433,-0.1250697031716958
-3.959,0.2168173579255475,-0.1674562567923655
-3.9585,0.1848068333524996,-0.1886495336027004
-3.958,0.2381577076409128,-0.2416327256285375
-3.9575,0.2594980573562781,-0.1886495336027004
-3.957,0.2274875327832301,-0.06148987274069118
-3.9565,0.1848068333524996,0.08686306493165288
-3.956,0.1101156093487211,0.1716361721729923
-3.9555,-0.4020527838200457,0.03387987290581572
-3.955,-1.223656247861609,-0.1992461720078678
-3.9545,-1.693143941599645,-0.8562377531282487
-3.954,-1.863866739322568,-1.396666311791788
-3.9535,-1.842526389607202,-1.555615887869299
-3.953,-1.298347471865388,-0.9622041371799229
-3.9525,-0.6688071552621118,-0.1568596183871981
-3.952,-0.1993194615240755,0.5107286011383502
-3.9515,0.0674349099179905,0.9451907757502149
-3.951,0.1954770082101822,1.167720182258731
-3.9505,0.2274875327832301,1.231300012689736
-3.95,0.2168173579255475,1.220703374284568
-3.9495,0.1848068333524996,1.135930267043229
-3.949,0.1741366584948169,0.9875773293708847
-3.9485,0.1741366584948169,0.7968378380778709
-3.948,0.2061471830678648,0.5637117931641874
-3.9475,0.3235191065023739,0.08686306493165288
-3.947,0.7503261008096795,-0.4535654937318862
-3.9465,0.9317190733902845,-1.05757388282643
-3.946,0.4195506802215176,-1.587405803084801
-3.9455,0.1954770082101822,-1.47084278062796
-3.945,0.2701682322139607,-0.9622041371799229
-3.9445,0.3235191065023739,-0.474758770542221
-3.944,0.3448594562177392,-0.1780528951975329
-3.9435,0.3235191065023739,-0.07208651114585861
-3.943,0.291508581929326,-0.08268314955102604
-3.9425,0.2381577076409128,-0.1674562567923655
-3.942,0.2061471830678648,-0.2204394488182027
-3.9415,0.1954770082101822,-0.2734226408440398
-3.941,0.2061471830678648,-0.1886495336027004
-3.9405,0.1954770082101822,-0.04029659593035631
-3.94,0.1527963087794516,0.09745970333682032
-3.9395,0.1207857842064037,0.2352160026039969
-3.939,0.1954770082101822,0.5319218779486851
-3.9385,0.5049120790829789,1.061753798207057
-3.938,0.1954770082101822,0.627291623595192
-3.9375,-0.4340633083930936,-0.2840192792492073
-3.937,-1.234326422719292,-1.036380606016095
-3.9365,-1.67180359188428,-1.333086481360783
-3.936,-1.351698346153801,-0.8032545611024114
-3.9355,-0.7861790786966207,-0.04029659593035631
-3.935,-0.3060212101009019,0.6166949851900245
-3.9345,0.00341386077189465,1.051157159801889
-3.934,0.1527963087794516,1.29487984312074
-3.9335,0.2061471830678648,1.400846227172415
-3.933,0.2061471830678648,1.400846227172415
-3.9325,0.2061471830678648,1.284283204715573
-3.932,0.2061471830678648,1.114736990232894
-3.9315,0.2061471830678648,0.9134008605347127
-3.931,0.2701682322139607,0.5319218779486851
-3.9305,0.4729015545099309,-0.1144730647665284
-3.93,0.857027849386506,-0.7820612842920766
-3.9295,0.5796033030867573,-1.47084278062796
-3.929,0.2594980573562781,-1.725162102351978
-3.9285,0.3555296310754218,-1.407262950196955
-3.928,0.4515612047945656,-0.8668343915334161
-3.9275,0.4622313796522482,-0.4641621321370536
-3.927,0.408880505363835,-0.2416327256285375
-3.9265,0.3341892813600565,-0.1674562567923655
-3.926,0.2594980573562781,-0.2310360872233701
-3.9255,0.2061471830678648,-0.3052125560595421
-3.925,0.1954770082101822,-0.3581957480853793
-3.9245,0.2381577076409128,-0.2734226408440398
-3.924,0.2381577076409128,-0.1886495336027004
-3.9235,0.2061471830678648,-0.1144730647665284
-3.923,0.1634664836371343,-0.01910331912002144
-3.9225,0.1634664836371343,0.1928294489833272
-3.922,0.5262524287983441,0.7332580076468663
-3.9215,0.6222840025174878,0.4683420475176805
-3.921,-0.06060718837420119,-0.3793890248957141
-3.9205,-0.9569018764195432,-0.9410108603695881
-3.92,-1.479740444445993,-1.152943628472937
-3.9195,-1.234326422719292,-0.6443049850249
-3.919,-0.7434983792658902,0.08686306493165288
-3.9185,-0.3060212101009019,0.701468092431364
-3.918,-0.007256314085787988,1.125333628638062
-3.9175,0.142126133921769,1.37965295036208
-3.917,0.1954770082101822,1.485619334413754
-3.9165,0.1954770082101822,1.496215972818921
-3.916,0.1848068333524996,1.432636142387917
-3.9155,0.1848068333524996,1.305476481525908
-3.915,0.1848068333524996,1.114736990232894
-3.9145,0.2274875327832301,0.7862411996727035
-3.914,0.4729015545099309,0.2034260873884947
-3.9135,1.081101521397841,-0.2310360872233701
-3.913,1.059761171682476,-0.8986243067489184
-3.9125,0.3128489316446912,-1.38606967338662
-3.912,0.142126133921769,-1.42845622700729
-3.9115,0.2381577076409128,-1.036380606016095
-3.911,0.3235191065023739,-0.6231117082145651
-3.9105,0.3341892813600565,-0.3158091944647096
-3.91,0.291508581929326,-0.1780528951975329
-3.9095,0.2488278824985954,-0.1568596183871981
-3.909,0.2061471830678648,-0.1992461720078678
-3.9085,0.1741366584948169,-0.2416327256285375
-3.908,0.1741366584948169,-0.1568596183871981
-3.9075,0.1741366584948169,-0.06148987274069118
-3.907,0.1527963087794516,0.002089957690313421
-3.9065,0.1314559590640864,0.06566978812131802
-3.906,0.09944543449103843,0.1716361721729923
-3.9055,-0.124628237520297,0.6378882620003594
-3.905,-0.572775581542968,0.7332580076468663
-3.9045,-1.170305373573196,-0.09327978795619347
-3.904,-1.725154466172693,-0.9939940523954253
-3.9035,-1.991908837614759,-1.523825972653797
-3.903,-1.554431668449771,-1.184733543688439
-3.9025,-0.8928808272734472,-0.400582301706049
-3.902,-0.3487019095316325,0.3517790250608387
-3.9015,-0.007256314085787988,0.8816109453192104
-3.901,0.1634664836371343,1.188913459069066
-3.9005,0.2168173579255475,1.326669758336243
-3.9,0.2168173579255475,1.358459673551745
-3.8995,0.1954770082101822,1.305476481525908
-3.899,0.1848068333524996,1.178316820663898
-3.8985,0.1954770082101822,0.9981739677760521
-3.898,0.2274875327832301,0.6908714540261965
-3.8975,0.3982103305061524,0.2246193641988295
-3.897,1.070431346540159,-0.6019184314042303
-3.8965,1.433217291701369,-1.42845622700729
-3.896,0.8356874996711408,-1.947691508860494
-3.8955,0.408880505363835,-1.852321763213987
-3.895,0.3661998059331045,-1.322489842955616
-3.8945,0.3555296310754218,-0.7502713690765743
-3.894,0.3341892813600565,-0.4111789401112165
-3.8935,0.2808384070716433,-0.252229364033705
-3.893,0.2381577076409128,-0.2098428104130352
-3.8925,0.1954770082101822,-0.2416327256285375
-3.892,0.1634664836371343,-0.2628260024388724
-3.8915,0.1527963087794516,-0.1886495336027004
-3.891,0.142126133921769,-0.02969995752518888
-3.8905,0.142126133921769,-0.01910331912002144
-3.89,0.1314559590640864,-0.008506680714854012
-3.8895,0.1207857842064037,0.03387987290581572
-3.889,-0.007256314085787988,0.2670059178194992
-3.8885,-0.1886492866663929,0.7544512844572011
-3.888,-0.7648387289812555,0.3305857482505039
-3.8875,-1.415719395299897,-0.474758770542221
-3.887,-1.927887788468663,-1.121153713257435
-3.8865,-1.725154466172693,-1.121153713257435
