Class_7_Listen_To_Music/Class_7_Listen_To_Music_1_AM_10.csv

#Digilent WaveForms Oscilloscope Acquisition
#Device Name: EExplorer
#Serial Number: SN:210151A2B84A
#Date Time: 2021-01-19 10:06:24.408
#Sample rate: 2000Hz
#Samples: 16384
#Trigger: Source: Channel 1 Type: Edge Condition: Rising Level: 0 V Hyst.: Auto HoldOff: 0 s
#Channel 1: Range: 1 V/div Offset: 0 V Attenuation: 1 X
#Channel 2: Range: 1 V/div Offset: 0 V Attenuation: 1 X
#Power Supplies: ON
#Fixed Supply: ON
#Voltage: 3.3 V Readback: 3.317 V
#Positive Supply: ON
#Voltage: 3.7 V Readback: 3.717 V
#Current: 40 mA Readback: 16 mA
#Negative Supply: ON
#Voltage: -3.7 V Readback: -3.334 V
#Current: -40 mA Readback: -15 mA
#Reference 1: ON
#Voltage: 0 V
#Reference 2: ON
#Voltage: 0 V

Time (s),Channel 1 (V),Channel 2 (V)
-4.096,-0.4447334832507763,0.6166949851900245
-4.0955,-1.106284324426498,0.489535324328131
-4.095,-1.55443166845013,-0.2628260024391904
-4.0945,-1.949228138184029,-0.6125150698093976
-4.094,-1.885207089037991,-0.2204394488185593
-4.0935,-1.116954499284132,-0.08268314955108387
-4.093,-0.4020527838200457,-0.1462629799820306
-4.0925,0.0994454344905823,-0.2628260024387664
-4.092,0.3982103305062689,-0.3475991096802504
-4.0915,0.5262524287983441,-0.3899856633008816
-4.091,0.5475927785137094,-0.3687923864905467
-4.0905,0.5369226036559975,-0.3158091944646421
-4.09,0.5049120790829789,-0.2416327256285375
-4.0895,0.4729015545099309,-0.1568596183871981
-4.089,0.451561204794585,-0.07208651114593571
-4.0885,0.3128489316446912,-0.1144730647665284
-4.088,-0.2633405106701714,-0.6125150698093976
-4.0875,-0.9355615267035663,-1.184733543687919
-4.087,-1.394379045584492,-1.587405803084772
-4.0865,-1.351698346153801,-1.555615887869299
-4.086,-0.7008176798357517,-1.205926820499092
-4.0855,0.003413860772331351,-0.7820612842916043
-4.085,0.4835717293676135,-0.2628260024388724
-4.0845,0.6969752265210722,0.2246193641983862
-4.084,0.7609962756673428,0.690871454026476
-4.0835,0.7396559259519968,0.9981739677760521
-4.083,0.6863050516635838,1.051157159801889
-4.0825,0.8997085488173724,1.1465269054483
-4.082,1.049090996824793,1.040560521396722
-4.0815,0.9317190733902845,0.6802748156210291
-4.081,0.7609962756675175,0.2881991946301907
-4.0805,0.6116138276598051,-0.04029659593035631
-4.08,0.408880505363835,-0.1250697031716958
-4.0795,-0.1673089369505035,0.3729723018707206
-4.079,-0.9248913518470872,0.6378882619998197
-4.0785,-1.575772018165136,0.04447651131098315
-4.078,-2.034589537045072,-0.3158091944643819
-4.0775,-2.087940411333282,0.07626642652662037
-4.077,-1.405049220442214,0.2246193641988295
-4.0765,-0.6154562809744166,0.08686306493177817
-4.076,-0.01792648894315038,-0.09327978795629949
-4.0755,0.3341892813600565,-0.2098428104130352
-4.075,0.5049120790829789,-0.2416327256285375
-4.0745,0.5582629533713824,-0.1992461720077811
-4.074,0.5475927785137094,-0.1038764263613609
-4.0735,0.5155822539406614,0.002089957690313421
-4.073,0.4835717293676426,0.1080563417418914
-4.0725,0.4515612047945656,0.1822328105781598
-4.072,0.408880505363835,0.2140227257936621
-4.0715,-0.03926683865842834,-0.1780528951971763
-4.071,-0.7541685541240873,-0.7820612842925102
-4.0705,-1.319687821580753,-1.258910012524611
-4.07,-1.437059745015155,-1.396666311791662
-4.0695,-0.8075194284113164,-1.184733543688121
-4.069,-0.07127736323188383,-0.8350444763179138
-4.0685,0.4515612047945656,-0.4111789401112165
-4.068,0.7183155762366897,0.08686306493202875
-4.0675,0.7823366253827275,0.5001319627331828
-4.067,0.7503261008096795,0.775644561267536
-4.0665,0.6756348768059592,0.8816109453192489
-4.066,0.7396559259519968,0.92399749893988
-4.0655,0.9850699476786977,0.9663840525605498
-4.065,0.9530594231056788,0.6908714540264471
-4.0645,0.8036769750980928,0.3199891098453364
-4.064,0.6436243522328531,-0.02969995752518888
-4.0635,0.494241904225432,-0.2416327256283448
-4.063,0.04609456020197501,0.09745970333725401
-4.0625,-0.6688071552621118,0.5743084315693548
-4.062,-1.330357996437834,0.1822328105785164
-4.0615,-1.842526389607455,-0.5171453241628138
-4.061,-2.119950935906951,-0.4323722169215513
-4.0605,-1.810515865034154,0.01268659609548085
-4.06,-0.9675720512765948,0.08686306493157578
-4.0595,-0.274010685527854,0.002089957690313421
-4.059,0.1954770082101822,-0.1038764263613609
-4.0585,0.4408910299366597,-0.1568596183871499
-4.058,0.5475927785137094,-0.1568596183871981
-4.0575,0.5582629533713921,-0.1038764263613609
-4.057,0.536922603656046,-0.01910331912009855
-4.0565,0.4942419042252961,0.06566978812131802
-4.056,0.4622313796522482,0.13984625695749
-4.0555,0.4408910299369024,0.192829448983279
-4.055,0.1848068333518979,-0.01910331912054188
-4.0545,-0.4767440078238243,-0.5913217929990628
-4.054,-1.191645723287911,-1.142346990067268
-4.0535,-1.597112367880084,-1.4602461422226
-4.053,-1.138294849000148,-1.248313374119443
-4.0525,-0.3487019095316325,-0.9198175835592532
-4.052,0.2808384070719538,-0.5171453241624764
-4.0515,0.6222840025174878,-0.06148987274069118
-4.051,0.7396559259519968,0.3199891098453364
-4.0505,0.7396559259519968,0.6060983467845968
-4.05,0.6969752265212663,0.7544512844572011
-4.0495,0.6756348768059011,0.8074344764830383
-4.049,0.9637295979630705,0.9557874141552475
-4.0485,0.9957401225362541,0.7968378380775625
-4.048,0.857027849386506,0.457745409112513
-4.0475,0.6969752265214119,0.1080563417423058
-4.047,0.558262953371101,-0.1568596183870535
-4.0465,0.2381577076409128,0.002089957690313421
-4.046,-0.4447334832501552,0.6060983467843077
-4.0455,-1.180975548431441,0.637888261999733
-4.045,-1.799845690176472,-0.05089323433552374
-4.0445,-2.130621110764634,-0.2098428104130352
-4.044,-2.034589537044782,0.224619364198897
-4.0435,-1.255666772434657,0.2987958330350016
-4.043,-0.4767440078238243,0.13984625695749
-4.0425,0.06743490991749562,-0.02969995752503468
-4.042,0.3875401556484697,-0.1250697031716958
-4.0415,0.5262524287983441,-0.1356663415768632
-4.041,0.5689331282290357,-0.08268314955107423
-4.0405,0.5475927785136803,0.002089957690409797
-4.04,0.5155822539406614,0.1080563417419877
-4.0395,0.4835717293676426,0.2034260873884079
-4.039,0.4622313796521317,0.2776025562245992
-4.0385,0.3341892813600565,0.2034260873884947
-4.038,-0.2633405106696279,-0.3158091944642373
-4.0375,-1.010252750708568,-0.9198175835596387
-4.037,-1.682473766741963,-1.34368311976595
-4.0365,-1.426389570157579,-1.417859588602123
-4.036,-0.5194247072538755,-1.258910012524225
-4.0355,0.2274875327832301,-0.8350444763179138
-4.035,0.6649647019482183,-0.3370024712750445
-4.0345,0.8356874996709855,0.1398462569570563
-4.034,0.8463576745288233,0.4895353243280153
-4.0335,0.7716664505250448,0.6908714540261965
-4.033,0.6649647019483154,0.7438546460519856
-4.0325,0.8356874996712863,0.881610945319191
-4.032,0.9957401225363802,0.8604176685088755
-4.0315,0.8997085488173239,0.5531151547592994
-4.031,0.7396559259518707,0.1822328105778706
-4.0305,0.6009436528021226,-0.1356663415768632
-4.03,0.4195506802216826,-0.2204394488181255
-4.0295,-0.103287887805582,0.2670059178197883
-4.029,-0.8181896032696687,0.5849050699745222
-4.0285,-1.373038695869166,0.01268659609548085
-4.028,-1.767835165603667,-0.5277419625677306
-4.0275,-2.03458953704549,-0.1674562567923655
-4.027,-1.490410619303675,0.1504428953626575
-4.0265,-0.7114878546935507,0.1186529801471841
-4.026,-0.1032878878049318,-0.01910331912002144
-4.0255,0.2808384070716433,-0.1250697031716958
-4.025,0.4835717293674291,-0.1568596183871692
-4.0245,0.5582629533713921,-0.1356663415767957
-4.024,0.5582629533713921,-0.06148987274069118
-4.0235,0.5262524287983732,0.04447651131088677
-4.023,0.494241904225267,0.1398462569575575
-4.0225,0.4622313796522482,0.2140227257936621
-4.022,0.4195506802215564,0.2246193641988199
-4.0215,0.01408403562895621,-0.1462629799825896
-4.021,-0.6688071552621118,-0.7608680074817418
-4.0205,-1.191645723288561,-1.248313374119443
-4.02,-1.415719395299392,-1.396666311791576
-4.0195,-0.8608703027003992,-1.163540266878104
-4.019,-0.124628237520297,-0.8138511995075789
-4.0185,0.4195506802210227,-0.4111789401115827
-4.018,0.707645401378949,0.04447651131098315
-4.0175,0.79300680024041,0.4471487707073456
-4.017,0.7823366253827372,0.7332580076466061
-4.0165,0.7183155762366606,0.8392243916985694
-4.016,0.7503261008096795,0.8710143069140429
-4.0155,0.9317190733901195,0.8922075837243585
-4.015,0.8783681991017451,0.7014680924311134
-4.0145,0.7396559259519968,0.4259554938970107
-4.014,0.6116138276599216,0.1398462569577503
-4.0135,0.4942419042249759,-0.06148987274042132
-4.013,0.142126133921769,0.2352160026039969
-4.0125,-0.5087545323968721,0.7650479228623686
-4.012,-1.191645723289017,0.5001319627325853
-4.0115,-1.693143941599645,-0.1568596183871981
-4.011,-2.07727023647622,-0.05089323433552374
-4.0105,-1.735824641030686,0.2458126410088946
-4.01,-0.9142211769888124,0.13984625695749
-4.0095,-0.2420001609548061,-0.08268314955102604
-4.009,0.2168173579251302,-0.2734226408438664
-4.0085,0.4515612047946529,-0.368792386490566
-4.008,0.5475927785137094,-0.3899856633008816
-4.0075,0.5582629533713824,-0.3370024712750926
-4.007,0.5369226036559975,-0.2416327256284315
-4.0065,0.5049120790829789,-0.1250697031716958
-4.006,0.4729015545099309,-0.01910331912002144
-4.0055,0.4515612047943521,0.08686306493149869
-4.005,0.2168173579255475,-0.08268314955102604
-4.0045,-0.4447334832507763,-0.6337083466197325
-4.004,-1.159635198715989,-1.163540266878374
-4.0035,-1.682473766741963,-1.460246142222792
-4.003,-1.180975548430879,-1.42845622700729
-4.0025,-0.3487019095323894,-1.14234699006803
-4.002,0.3128489316446912,-0.6972881770507372
-4.0015,0.6863050516635838,-0.1780528951975329
-4.001,0.8143471499556588,0.3623756634655147
-4.0005,0.7823366253826596,0.7756445612677095
-4,0.707645401378949,0.9663840525605498
-3.9995,0.6649647019482183,0.9875773293708847
-3.999,0.8997085488172365,1.051157159801889
-3.9985,0.9637295979633325,0.849821030103708
-3.998,0.8356874996711408,0.5001319627331828
-3.9975,0.6863050516635838,0.13984625695749
-3.997,0.5582629533713921,-0.1462629799820306
-3.9965,0.2381577076409128,-0.02969995752518888
-3.996,-0.4340633083930936,0.5637117931641874
-3.9955,-1.127624674142465,0.6908714540261965
-3.995,-1.67180359188428,0.01268659609548085
-3.9945,-2.066600061618538,-0.6337083466197325
-3.994,-2.002579012472442,-0.4217755785163839
-3.9935,-1.244996597576974,-0.2098428104130352
-3.993,-0.4767440078238243,-0.1356663415768632
-3.9925,0.0674349099179905,-0.1356663415768632
-3.992,0.3875401556484697,-0.1250697031716958
-3.9915,0.5262524287983441,-0.1144730647665284
-3.991,0.5689331282290746,-0.07208651114585861
-3.9905,0.5475927785137094,-0.008506680714854012
-3.99,0.5155822539406614,0.05507314971615059
-3.9895,0.4835717293676135,0.1186529801471552
-3.989,0.4622313796522482,0.1610395337678249
-3.9885,0.3555296310754218,0.08686306493165288
-3.988,-0.1886492866663929,-0.4217755785163839
-3.9875,-0.9355615267041777,-1.046977244421262
-3.987,-1.597112367880501,-1.51322933424863
-3.9865,-1.543761493592088,-1.523825972653797
-3.986,-0.754168554123573,-1.184733543688439
-3.9855,0.01408403562957729,-0.7714646458869092
-3.985,0.5155822539406614,-0.252229364033705
-3.9845,0.7396559259519968,0.2564092794143318
-3.984,0.7823366253827275,0.6484849004055269
-3.9835,0.7396559259519968,0.8286277532933731
-3.983,0.6649647019482183,0.8392243916985406
-3.9825,0.825017324813458,0.8922075837243778
-3.982,0.9957401225363802,0.849821030103708
-3.9815,0.9210488985326017,0.5637117931641874
-3.981,0.7609962756673623,0.2140227257936621
-3.9805,0.6116138276598051,-0.08268314955102604
-3.98,0.4408910299368829,-0.1462629799820306
-3.9795,0.2594980573562781,0.3517790250608387
-3.979,-0.1673089369510276,0.8816109453192104
-3.9785,-0.8502001278427167,0.55311515475902
-3.978,-1.437059745015262,-0.1568596183871981
-3.9775,-1.885207089037933,-0.1886495336027004
-3.977,-1.458400094730627,-0.008506680714854012
-3.9765,-0.722158029550525,-0.02969995752518888
-3.976,-0.124628237520297,-0.09327978795619347
-3.9755,0.2701682322139607,-0.1356663415768632
-3.975,0.4729015545099309,-0.1250697031716958
-3.9745,0.5475927785137094,-0.08268314955102604
-3.974,0.5475927785137094,0.002089957690313421
-3.9735,0.5262524287983441,0.09745970333682032
-3.973,0.4942419042252961,0.1716361721729923
-3.9725,0.4729015545099309,0.2352160026039969
-3.972,0.4302208550792003,0.2564092794143318
-3.9715,0.03542438534494258,-0.1250697031716958
-3.971,-0.7008176798351597,-0.7608680074817418
-3.9705,-1.319687821580753,-1.280103289334946
-3.97,-1.575772018165136,-1.51322933424863
-3.9695,-1.06360362499637,-1.42845622700729
-3.969,-0.2953510352432193,-1.0999604364471
-3.9685,0.3235191065023739,-0.6443049850249
-3.968,0.6436243522328531,-0.06148987274069118
-3.9675,0.7396559259519968,0.383568940276341
-3.967,0.7289857510943143,0.627291623595192
-3.9665,0.6649647019482183,0.7332580076468663
-3.966,0.6756348768059011,0.7438546460520338
-3.9655,0.857027849386506,0.7438546460520338
-3.965,0.8356874996711408,0.6060983467848571
-3.9645,0.7183155762366316,0.383568940276341
-3.964,0.6116138276598051,0.1504428953626575
-3.9635,0.5155822539406614,-0.04029659593035631
-3.963,0.4515612047945656,0.2352160026039969
-3.9625,0.1101156093487211,0.7544512844572011
-3.962,-0.572775581542968,0.4895353243280153
-3.9615,-1.148965023857831,-0.326405832869877
-3.961,-1.67180359188428,-0.4959520473525559
-3.9605,-1.597112367880501,-0.1356663415768632
-3.96,-0.9248913518464952,-0.06148987274069118
-3.9595,-0.2953510352432193,-0.1356663415768632
-3.959,0.1527963087794516,-0.2310360872233701
-3.9585,0.4195506802215176,-0.2946159176543747
-3.958,0.5262524287983441,-0.3052125560595421
-3.9575,0.5475927785137094,-0.2734226408440398
-3.957,0.5369226036560266,-0.2098428104130352
-3.9565,0.5049120790829789,-0.1250697031716958
-3.956,0.4729015545099309,-0.05089323433552374
-3.9555,0.4515612047945656,0.03387987290581572
-3.955,0.2274875327832301,-0.1356663415768632
-3.9545,-0.423393133535411,-0.6760949002404023
-3.954,-1.1062843244271,-1.227120097309109
-3.9535,-1.533091318734406,-1.576809164679634
-3.953,-1.26633694729234,-1.396666311791788
-3.9525,-0.5194247072545548,-0.9622041371799229
-3.952,0.1634664836371343,-0.4853554089473885
-3.9515,0.5689331282290746,0.002089957690313421
-3.951,0.7396559259519968,0.4471487707073456
-3.9505,0.7609962756673623,0.7332580076468663
-3.95,0.707645401378949,0.8710143069140429
-3.9495,0.6649647019482183,0.8922075837243778
-3.949,0.8890383739595538,0.9663840525605498
-3.9485,0.9530594231056497,0.8286277532933731
-3.948,0.8356874996711408,0.5213252395435176
-3.9475,0.6863050516635838,0.2140227257936621
-3.947,0.5689331282290746,-0.04029659593035631
-3.9465,0.5902734779444399,0.03387987290581572
-3.946,0.7823366253827275,0.6060983467848571
-3.9455,0.2381577076409128,0.7862411996727035
-3.945,-0.572775581542968,0.09745970333682032
-3.9445,-1.26633694729234,-0.3370024712750445
-3.944,-1.618452717595867,0.002089957690313421
-3.9435,-1.159635198715513,0.1186529801471552
-3.943,-0.5194247072545548,0.02328323450064829
-3.9425,-0.007256314085787988,-0.09327978795619347
-3.942,0.3128489316446912,-0.1674562567923655
-3.9415,0.4835717293676135,-0.1674562567923655
-3.941,0.5369226036560266,-0.1250697031716958
-3.9405,0.5369226036560266,-0.05089323433552374
-3.94,0.5155822539406614,0.04447651131098315
-3.9395,0.4835717293676135,0.1292496185523226
-3.939,0.4515612047945656,0.1822328105781598
-3.9385,0.3555296310754218,0.1186529801471552
-3.938,-0.1993194615240755,-0.3793890248957141
-3.9375,-0.9248913518464952,-0.9728007755850904
-3.937,-1.490410619303675,-1.417859588602123
-3.9365,-1.543761493592088,-1.460246142222792
-3.936,-0.8715404775580819,-1.110557074852267
-3.9355,-0.124628237520297,-0.6760949002404023
-3.935,0.4195506802215176,-0.1674562567923655
-3.9345,0.6863050516635838,0.309392471440169
-3.934,0.7716664505250448,0.6060983467848571
-3.9335,0.7609962756673623,0.8180311148882058
-3.933,0.6863050516635838,0.8710143069140429
-3.9325,0.8463576745288233,0.9663840525605498
-3.932,1.027750647109428,0.9345941373450475
-3.9315,0.942389248247967,0.6166949851900245
-3.931,0.7716664505250448,0.2352160026039969
-3.9305,0.6222840025174878,-0.09327978795619347
-3.93,0.4302208550792003,-0.2310360872233701
-3.9295,-0.1032878878049318,0.2140227257936621
-3.929,-0.8181896032696687,0.6378882620003594
-3.9285,-1.383708870726849,0.1504428953626575
-3.928,-1.83185621474952,-0.4641621321370536
-3.9275,-2.087940411333903,-0.1886495336027004
-3.927,-1.565101843307454,0.1292496185523226
-3.9265,-0.7648387289812555,0.1080563417419877
-3.926,-0.124628237520297,-0.008506680714854012
-3.9255,0.2701682322139607,-0.1038764263613609
-3.925,0.4835717293676135,-0.1462629799820306
-3.9245,0.5582629533713921,-0.1144730647665284
-3.924,0.5582629533713921,-0.05089323433552374
-3.9235,0.5262524287983441,0.04447651131098315
-3.923,0.4942419042252961,0.13984625695749
-3.9225,0.4729015545099309,0.2140227257936621
-3.922,0.4302208550792003,0.2564092794143318
-3.9215,0.0674349099179905,-0.07208651114585861
-3.921,-0.6474668055467465,-0.6866915386455698
-3.9205,-1.319687821580753,-1.205926820498774
-3.92,-1.554431668449771,-1.439052865412457
-3.9195,-0.8822106524157645,-1.322489842955616
-3.919,-0.1032878878049318,-0.9833974139902578
-3.9185,0.4515612047945656,-0.5277419625680583
-3.918,0.7289857510943143,-0.02969995752518888
-3.9175,0.825017324813458,0.4153588554918433
-3.917,0.8036769750980928,0.7332580076468663
-3.9165,0.7289857510943143,0.8392243916985406
-3.916,0.7503261008096795,0.7226613692416989
-3.9155,0.974399772821015,0.3517790250608387
-3.915,0.9530594231056497,0.1610395337678249
-3.9145,0.79300680024041,0.05507314971615059
-3.914,0.6436243522328531,-0.04029659593035631
-3.9135,0.5155822539406614,-0.1144730647665284
-3.913,0.1527963087794516,0.2246193641988295
-3.9125,-0.5300948821122373,0.8180311148882058
-3.912,-1.255666772434657,0.6484849004055269
-3.9115,-1.83185621474952,-0.1780528951975329
-3.911,-2.119950935906951,-0.4959520473525559
-3.9105,-1.863866739322568,-0.1886495336027004
-3.91,-1.020922925565639,-0.1038764263613609
-3.9095,-0.3060212101009019,-0.1674562567923655
-3.909,0.1741366584948169,-0.2416327256285375
-3.9085,0.4408910299368829,-0.3052125560595421
-3.908,0.5475927785137094,-0.3052125560595421
-3.9075,0.5582629533713921,-0.2734226408440398
-3.907,0.5369226036560266,-0.2204394488182027
-3.9065,0.5049120790829789,-0.1462629799820306
-3.906,0.4729015545099309,-0.07208651114585861
-3.9055,0.4515612047945656,0.002089957690313421
-3.905,0.2488278824985954,-0.1250697031716958
-3.9045,-0.4020527838200457,-0.6866915386455698
-3.904,-1.052933450138687,-1.248313374119443
-3.9035,-1.501080794161358,-1.598002441489969
-3.903,-1.074273799854052,-1.566212526274467
-3.9025,-0.2846808603855366,-1.258910012524611
-3.902,0.3448594562177392,-0.7820612842920766
-3.9015,0.6969752265212663,-0.1886495336027004
-3.901,0.8143471499557753,0.4365521323021782
-3.9005,0.79300680024041,0.8392243916985406
-3.9,0.7183155762366316,1.00877060618122
-3.8995,0.6649647019482183,0.9557874141553824
-3.899,0.8783681991018712,0.5213252395435176
-3.8985,0.9317190733902845,0.2352160026039969
-3.898,0.8143471499557753,0.1186529801471552
-3.8975,0.6756348768059011,0.04447651131098315
-3.897,0.5582629533713921,-0.02969995752518888
-3.8965,0.3982103305061524,0.09745970333682032
-3.896,0.1954770082101822,0.6484849004055269
-3.8955,-0.3807124341046804,0.8922075837243778
-3.895,-0.9462317015618604,0.2670059178194992
-3.8945,-1.458400094730627,-0.08268314955102604
-3.894,-1.767835165603424,0.2881991946298341
-3.8935,-1.26633694729234,0.3305857482505039
-3.893,-0.5834457564006506,0.08686306493165288
-3.8925,-0.02859666380115328,-0.1568596183871981
-3.892,0.3128489316446912,-0.326405832869877
-3.8915,0.4835717293676135,-0.3899856633008816
-3.891,0.5475927785137094,-0.3687923864905467
-3.8905,0.5475927785137094,-0.2840192792492073
-3.89,0.5155822539406614,-0.1780528951975329
-3.8895,0.4835717293676135,-0.06148987274069118
-3.889,0.4622313796522482,0.05507314971615059
-3.8885,0.3661998059331045,0.06566978812131802
-3.888,-0.124628237520297,-0.3687923864905467
-3.8875,-0.7755089038389382,-0.9410108603695881
