Class_7_Listen_To_Music/Class_7_Listen_To_Music_Suko_10a.csv

#Digilent WaveForms Oscilloscope Acquisition
#Device Name: EExplorer
#Serial Number: SN:210151A2B84A
#Date Time: 2021-02-03 11:36:24.183
#Sample rate: 2000Hz
#Samples: 16384
#Trigger: Source: Channel 1 Type: Edge Condition: Rising Level: 0 V Hyst.: Auto HoldOff: 0 s
#Channel 1: Range: 1 V/div Offset: 0 V Attenuation: 1 X
#Channel 2: Range: 1 V/div Offset: 0 V Attenuation: 1 X
#Power Supplies: ON
#Fixed Supply: ON
#Voltage: 3.3 V Readback: 3.302 V
#Positive Supply: ON
#Voltage: 3.7 V Readback: 3.717 V
#Current: 40 mA Readback: 25 mA
#Negative Supply: ON
#Voltage: -3.7 V Readback: -3.363 V
#Current: -40 mA Readback: -6 mA
#Reference 1: ON
#Voltage: 0 V
#Reference 2: ON
#Voltage: 0 V

Time (s),Channel 1 (V),Channel 2 (V)
-4.096,-0.6367966306890638,0.92399749893988
-4.0955,-0.8608703027001954,0.06566978812209856
-4.095,-0.6688071552615587,-0.4323722169214164
-4.0945,-0.06060718837420119,-0.2840192792492073
-4.094,0.5262524287978103,-0.1356663415769981
-4.0935,0.8676980242442565,-0.1038764263614766
-4.093,0.942389248247967,-0.2310360872233701
-4.0925,0.8676980242442565,-0.4111789401110526
-4.092,0.718315576236583,-0.5277419625681065
-4.0915,0.6649647019482183,-0.5807251545938954
-4.091,0.857027849386506,-0.6760949002404023
-4.0905,0.8356874996710243,-0.5595318777833388
-4.09,0.707645401378949,-0.3158091944647096
-4.0895,0.5796033030867573,-0.05089323433552374
-4.089,0.4835717293677009,0.2034260873882633
-4.0885,0.4408910299368829,0.4365521323021782
-4.088,0.6436243522328531,0.701468092431364
-4.0875,0.4408910299370673,0.5001319627333659
-4.087,-0.3166913849592445,-0.06148987274102849
-4.0865,-1.042263275281004,-0.4323722169215513
-4.086,-1.703814116456726,-0.7184814538608117
-4.0855,-2.226652684483671,-0.8668343915333004
-4.085,-2.109280761049269,-0.7396747306714069
-4.0845,-1.266336947293107,-0.09327978795678138
-4.084,-0.5194247072540695,0.60609834678531
-4.0835,0.01408403562957729,1.104140351827727
-4.083,0.3021787567870086,1.347863035146577
-4.0825,0.4195506802215079,1.379652950362003
-4.082,0.408880505363835,1.29487984312074
-4.0815,0.3661998059331045,1.135930267043229
-4.081,0.3341892813600856,0.9557874141555462
-4.0805,0.3128489316446912,0.7544512844572011
-4.08,0.04609456020262521,0.4683420475176805
-4.0795,-0.4767440078233487,-0.1886495336021028
-4.079,-0.8502001278429011,-0.9304142219648158
-4.0785,-1.052933450138687,-1.364876396576285
-4.078,-0.6367966306894423,-1.131750351662814
-4.0775,0.03542438534540839,-0.6972881770504288
-4.077,0.5475927785137094,-0.3581957480853793
-4.0765,0.8250173248132058,-0.2204394488183279
-4.076,0.8570278493864186,-0.1992461720079353
-4.0755,0.7609962756673623,-0.2734226408440398
-4.075,0.6649647019482183,-0.3793890248957141
-4.0745,0.8250173248135065,-0.5489352393784124
-4.074,0.8783681991018712,-0.570128516188728
-4.0735,0.7823366253827275,-0.4217755785163839
-4.073,0.6329541773753065,-0.209842810413228
-4.0725,0.5155822539406614,0.002089957690313421
-4.072,0.4515612047945656,0.1928294489833272
-4.0715,0.4408910299368927,0.07626642652659146
-4.071,0.2168173579251011,-0.421775578516808
-4.0705,-0.274010685527854,-0.8880276683437509
-4.07,-0.796849253553828,-1.163540266877854
-4.0695,-1.41571939530045,-1.280103289334917
-4.069,-2.023919362187807,-1.248313374119443
-4.0685,-1.949228138184029,-0.9516074987747555
-4.068,-1.159635198714883,-0.1992461720071739
-4.0675,-0.4660738329661415,0.5637117931641874
-4.067,0.02475421048725994,1.093543713422559
-4.0665,0.3128489316447883,1.36905631195697
-4.066,0.4195506802215176,1.432636142387917
-4.0655,0.4195506802215176,1.369056311956912
-4.065,0.366199805933153,1.241896651095019
-4.0645,0.291508581929326,1.082947075017392
-4.064,0.2701682322139607,0.8922075837243778
-4.0635,0.1207857842065396,0.828627753293431
-4.063,-0.4340633083935206,1.146526905448589
-4.0625,-0.9035510021311299,1.358459673551745
-4.062,-1.138294848999934,0.6802748156216459
-4.0615,-0.9569018764189512,0.01268659609527847
-4.061,-0.3060212101009019,-0.2098428104130352
-4.0605,0.3235191065023739,-0.4111789401112165
-4.06,0.7183155762367771,-0.5065486857577716
-4.0595,0.8783681991018712,-0.5595318777835605
-4.059,0.8676980242441885,-0.6443049850249
-4.0585,0.7823366253828051,-0.7078848154558467
-4.058,0.7823366253827275,-0.5065486857577234
-4.0575,0.7823366253827275,-0.252229364033705
-4.057,0.6969752265213439,-0.1250697031718114
-4.0565,0.5796033030867573,-0.008506680714854012
-4.056,0.5902734779444399,0.06566978812131802
-4.0555,0.579603303086767,0.2246193641986849
-4.055,0.6756348768062019,0.5637117931647656
-4.0545,1.006410297394063,1.199510097474233
-4.054,0.4622313796527431,1.241896651094864
-4.0535,-0.3913826089630132,0.53192187794802
-4.053,-1.1062843244271,-0.1992461720078678
-4.0525,-1.757164990745741,-0.8032545611024114
-4.052,-2.23732285934112,-1.110557074852036
-4.0515,-1.863866739322568,-0.8562377531282487
-4.051,-1.010252750707956,-0.07208651114585861
-4.0505,-0.3380317346745613,0.7014680924306604
-4.05,0.1207857842064037,1.263089927905238
-4.0495,0.3555296310754218,1.580989080060261
-4.049,0.4195506802214594,1.708148740922155
-4.0485,0.3982103305061039,1.697552102517026
-4.048,0.3448594562177392,1.612778995275763
-4.0475,0.2701682322140286,1.496215972819027
-4.047,0.2168173579252564,1.316073119930506
-4.0465,-0.1032878878049318,0.6908714540261965
-4.046,-0.5941159312578869,-0.2416327256276894
-4.0455,-1.020922925565765,-1.057573882826844
-4.045,-1.159635198715513,-1.51322933424863
-4.0445,-0.6047861061160158,-1.121153713257435
-4.044,0.09944543449153335,-0.644304985024659
-4.0435,0.6436243522328531,-0.3793890248957141
-4.043,0.8890383739595538,-0.326405832869877
-4.0425,0.8890383739595538,-0.4111789401111394
-4.042,0.79300680024041,-0.5171453241628908
-4.0415,0.7183155762366316,-0.6125150698093976
-4.041,0.8143471499556879,-0.7290780922661334
-4.0405,0.7503261008095631,-0.7502713690765165
-4.04,0.6222840025174878,-0.6866915386455698
-4.0395,0.5155822539407584,-0.5595318777836762
-4.039,0.4515612047945268,-0.4005823017059912
-4.0385,0.408880505363835,-0.3370024712750445
-4.038,0.06743490991830103,-0.6866915386452517
-4.0375,-0.5621054066858191,-1.163540266878413
-4.037,-1.148965023857831,-1.502632695843462
-4.0365,-1.735824641030376,-1.598002441489969
-4.036,-2.226652684483835,-1.460246142222571
-4.0355,-2.290673733629873,-1.216523458903942
-4.035,-1.949228138184029,-0.6972881770507372
-4.0345,-1.052933450139502,0.1716361721722021
-4.034,-0.3380317346739499,0.9451907757502149
-4.0335,0.1207857842064037,1.464426057603419
-4.033,0.3661998059328813,1.718745379327206
-4.0325,0.4408910299368732,1.76113193294804
-4.032,0.4302208550792003,1.686955464111935
-4.0315,0.3448594562178168,1.538602526439726
-4.031,0.2915085819292969,1.369056311956729
-4.0305,0.2594980573562781,1.167720182258731
-4.03,0.09944543449118401,0.7650479228627347
-4.0295,-0.4980843575396456,-0.0826831495517874
-4.029,-0.9995825758502737,-0.9198175835592532
-4.0285,-1.074273799854052,-1.333086481360783
-4.028,-0.4554036581078087,-0.9092209451536907
-4.0275,0.2594980573562781,-0.474758770542221
-4.027,0.7503261008096795,-0.3052125560595421
-4.0265,0.9637295979631384,-0.3475991096801733
-4.026,0.942389248247967,-0.4959520473525559
-4.0255,0.8036769750980928,-0.6654982618352349
-4.025,0.6863050516636906,-0.7502713690764973
-4.0245,0.8036769750981316,-0.6760949002403638
-4.024,0.8463576745288233,-0.6337083466197325
-4.0235,0.7716664505251127,-0.5913217929991014
-4.023,0.6436243522327366,-0.4959520473524306
-4.0225,0.5155822539406614,-0.3581957480853793
-4.022,0.4622313796522967,-0.1780528951976968
-4.0215,0.8036769750983354,0.03387987290587355
-4.021,1.070431346540159,0.09745970333682032
-4.0205,0.3875401556484697,-0.3370024712750445
-4.02,-0.5621054066860519,-0.7820612842922886
-4.0195,-1.405049220442214,-1.01518732920576
-4.019,-2.130621110764634,-1.05757388282643
-4.0185,-2.247993034199036,-0.8880276683439051
-4.018,-1.554431668449771,-0.2098428104130352
-4.0175,-0.7328282044082075,0.6378882620003594
-4.017,-0.1246282375208502,1.305476481525301
-4.0165,0.2381577076410583,1.697552102517238
-4.016,0.3982103305061524,1.845905040189447
-4.0155,0.4195506802214982,1.824711763379131
-4.015,0.3768699807907289,1.697552102516939
-4.0145,0.3128489316446912,1.517409249629256
-4.014,0.2808384070716724,1.316073119931258
-4.0135,0.05676473505976441,1.051157159801215
-4.013,-0.5407650569699201,0.309392471440169
-4.0125,-0.9248913518464952,-0.5913217929990628
-4.012,-1.191645723288406,-1.32248984295576
-4.0115,-1.020922925565639,-1.481439419033127
-4.011,-0.2953510352432193,-0.9304142219644207
-4.0105,0.3875401556478487,-0.5171453241632666
-4.01,0.79300680024041,-0.3158091944647096
-4.0095,0.9210488985326017,-0.3475991096802118
-4.009,0.8783681991019101,-0.5065486857575788
-4.0085,0.7609962756673719,-0.6866915386455312
-4.008,0.7716664505250448,-0.6443049850249
-4.0075,0.8463576745287553,-0.4959520473526908
-4.007,0.7503261008095631,-0.5065486857577427
-4.0065,0.6222840025174878,-0.5277419625680583
-4.006,0.4942419042252961,-0.4853554089473885
-4.0055,0.430220855079278,-0.3687923864905178
-4.005,0.5155822539406614,-0.3370024712750445
-4.0045,0.408880505363835,-0.718481453861072
-4.004,-0.2420001609554854,-1.174136905283532
-4.0035,-0.9889124009925911,-1.460246142222792
-4.003,-1.693143941599645,-1.492036057438295
-4.0025,-2.237322859340965,-1.32248984295577
-4.002,-2.226652684483777,-0.9939940523954253
-4.0015,-1.479740444445993,-0.2204394488182027
-4.001,-0.6688071552628493,0.6696781772150521
-4.0005,-0.08194753808924624,1.347863035146953
-4,0.2701682322139607,1.761131932948107
-3.9995,0.4195506802215176,1.920081509025619
-3.999,0.4515612047945656,1.909484870620451
-3.9985,0.408880505363835,1.803518486568777
-3.998,0.3555296310754218,1.633972272086098
-3.9975,0.3235191065023739,1.432636142387917
-3.997,0.291508581929326,1.210106735879401
-3.9965,0.02475421048725994,0.9451907757502149
-3.996,-0.5087545323968721,0.5213252395435176
-3.9955,-0.9035510021311299,-0.2840192792492073
-3.995,-0.7861790786966207,-0.8244478379127463
-3.9945,-0.02859666380115328,-0.5065486857577234
-3.994,0.6329541773751706,-0.2098428104130352
-3.9935,0.974399772821015,-0.1886495336027004
-3.993,1.081101521397841,-0.3687923864905467
-3.9925,0.9850699476786977,-0.6019184314042303
-3.992,0.8356874996711408,-0.7396747306714069
-3.9915,0.7396559259519968,-0.8350444763179138
-3.991,0.79300680024041,-0.9198175835592532
-3.9905,0.7183155762366316,-0.8562377531282487
-3.99,0.6009436528021226,-0.7078848154559045
-3.9895,0.4942419042252961,-0.5171453241628908
-3.989,0.4302208550792003,-0.3052125560595421
-3.9885,0.4408910299368829,-0.1250697031716958
-3.988,0.5582629533713921,0.03387987290581572
-3.9875,0.07810508477567314,-0.252229364033705
-3.987,-0.690147504977477,-0.7290780922662394
-3.9865,-1.362368521011484,-0.9833974139902578
-3.986,-2.002579012472442,-1.110557074852267
-3.9855,-2.290673733629873,-1.078767159636765
-3.985,-2.098610586191586,-0.7820612842920766
-3.9845,-1.234326422719292,0.002089957690313421
-3.984,-0.4874141826815069,0.8074344764830383
-3.9835,0.03542438534494258,1.37965295036208
-3.983,0.3235191065023739,1.697552102517103
-3.9825,0.4302208550792003,1.79292184816361
-3.982,0.4302208550792003,1.75053529454294
-3.9815,0.3768699807907871,1.612778995275763
-3.981,0.3235191065023739,1.443232780793084
-3.9805,0.2701682322139607,1.263089927905238
-3.98,-0.124628237520297,0.9451907757502149
-3.9795,-0.6688071552621118,0.09745970333682032
-3.979,-0.9248913518464952,-0.7820612842920766
-3.9785,-0.9675720512772257,-1.216523458903942
-3.978,-0.4447334832507763,-0.7608680074817418
-3.9775,0.2061471830678648,-0.3899856633008816
-3.977,0.6756348768059011,-0.2946159176543747
-3.9765,0.8997085488172365,-0.3687923864905467
-3.976,0.9210488985326017,-0.5489352393783931
-3.9755,0.8143471499557753,-0.6972881770507372
-3.975,0.7183155762366316,-0.7714646458869092
-3.9745,0.8036769750980928,-0.7714646458869092
-3.974,0.7823366253827275,-0.7502713690765743
-3.9735,0.6649647019482183,-0.6760949002404023
-3.973,0.5582629533713921,-0.5595318777835605
-3.9725,0.4729015545099309,-0.3899856633008816
-3.972,0.4408910299368829,-0.2204394488182027
-3.9715,0.3661998059331045,-0.4111789401112165
-3.971,0.408880505363835,-0.8774310299385835
-3.9705,0.02475421048725994,-1.184733543688439
-3.97,-0.6261264558313813,-1.216523458903942
-3.9695,-1.319687821580753,-1.121153713257435
-3.969,-1.991908837614759,-0.9833974139902578
-3.9685,-2.087940411333903,-0.6866915386455698
-3.968,-1.319687821580753,0.06566978812131802
-3.9675,-0.572775581542968,0.8816109453192104
-3.967,-0.03926683865883591,1.485619334413754
-3.9665,0.2808384070716433,1.814115124973944
-3.966,0.4195506802215176,1.909484870620451
-3.9655,0.4195506802215176,1.856501678594614
-3.965,0.3768699807907871,1.718745379327438
-3.9645,0.3341892813600565,1.517409249629256
-3.964,0.3235191065023739,1.29487984312074
-3.9635,0.2168173579255475,1.104140351827727
-3.963,-0.2526703358124887,1.125333628638062
-3.9625,-0.7861790786966207,0.5213252395435176
-3.962,-1.212986073003927,-0.3899856633008816
-3.9615,-1.1062843244271,-0.9304142219644207
-3.961,-0.4340633083930936,-0.792657922697244
-3.9605,0.2594980573562781,-0.5383386009732256
-3.96,0.7289857510943143,-0.4641621321370536
-3.9595,0.9317190733902845,-0.5065486857577234
-3.959,0.9103787236749192,-0.6231117082145651
-3.9585,0.7823366253827275,-0.7502713690765743
-3.958,0.7716664505250448,-0.8774310299385835
-3.9575,0.8143471499557753,-0.9198175835592532
-3.957,0.707645401378949,-0.8244478379127463
-3.9565,0.5902734779444399,-0.6443049850249
-3.956,0.4942419042252961,-0.4429688553267188
-3.9555,0.4942419042252961,-0.2946159176543747
-3.955,0.7289857510943143,-0.07208651114585861
-3.9545,1.006410297394063,0.6378882620003594
-3.954,0.3982103305061524,0.8286277532933731
-3.9535,-0.5087545323968721,0.1716361721729923
-3.953,-1.351698346153801,-0.6019184314042303
-3.9525,-2.087940411333903,-1.110557074852267
-3.952,-2.269333383914508,-1.269506650929778
-3.9515,-1.693143941599645,-0.7396747306714069
-3.951,-0.839529952985034,0.1504428953626575
-3.9505,-0.1993194615240755,0.9345941373450475
-3.95,0.2061471830678648,1.485619334413754
-3.9495,0.3982103305061524,1.782325209758442
-3.949,0.4408910299368829,1.898888232215284
-3.9485,0.408880505363835,1.898888232215284
-3.948,0.3448594562177392,1.824711763379112
-3.9475,0.291508581929326,1.70814874092227
-3.947,0.1848068333524996,1.570392441655093
-3.9465,-0.3380317346739499,1.061753798207057
-3.946,-0.754168554123573,0.13984625695749
-3.9455,-1.084943974711735,-0.7608680074817418
-3.945,-1.052933450138687,-0.9410108603695881
-3.9445,-0.4020527838200457,-0.5171453241628908
-3.944,0.2808384070716433,-0.252229364033705
-3.9435,0.7289857510943143,-0.2310360872233701
-3.943,0.9103787236749192,-0.3793890248957141
-3.9425,0.8997085488172365,-0.5595318777835605
-3.942,0.7823366253827275,-0.7396747306714069
-3.9415,0.7289857510943143,-0.7714646458869092
-3.941,0.79300680024041,-0.6231117082145651
-3.9405,0.7396559259519968,-0.6019184314042303
-3.94,0.6542945270905358,-0.6019184314042303
-3.9395,0.5689331282290746,-0.5595318777835605
-3.939,0.4942419042252961,-0.4429688553267188
-3.9385,0.5049120790829789,-0.1992461720078678
-3.938,0.9637295979633325,0.4471487707073456
-3.9375,1.081101521397841,1.104140351827727
-3.937,0.4302208550792003,0.8180311148882058
-3.9365,-0.4127229586777283,0.383568940276341
-3.936,-1.223656247861609,-0.2628260024388724
-3.9355,-1.927887788468663,-0.7714646458869092
-3.935,-1.842526389607202,-0.7396747306714069
-3.9345,-1.1062843244271,-0.05089323433552374
-3.934,-0.423393133535411,0.7544512844572011
-3.9335,0.04609456020262521,1.400846227172415
-3.933,0.3128489316446912,1.814115124973944
-3.9325,0.408880505363835,2.026047893077293
-3.932,0.408880505363835,2.100224361913465
-3.9315,0.3448594562177392,2.07903108510313
-3.931,0.291508581929326,1.983661339456623
-3.9305,0.2701682322139607,1.835308401784279
-3.93,0.07810508477567314,1.42203950398275
-3.9295,-0.4340633083930936,0.5743084315693548
-3.929,-0.9355615267041777,-0.3158091944647096
-3.9285,-1.202315898146244,-1.01518732920576
-3.928,-0.8288597781273515,-0.9939940523954253
-3.9275,-0.1139580626626144,-0.5807251545938954
-3.927,0.4835717293676135,-0.3052125560595421
-3.9265,0.8036769750980928,-0.3158091944647096
-3.926,0.8890383739595538,-0.4641621321370536
-3.9255,0.825017324813458,-0.6019184314042303
-3.925,0.7289857510943143,-0.7714646458869092
-3.9245,0.857027849386506,-0.6866915386455698
-3.924,0.857027849386506,-0.6866915386455698
-3.9235,0.7289857510943143,-0.7714646458869092
-3.923,0.5796033030867573,-0.8032545611024114
-3.9225,0.4729015545099309,-0.7608680074817418
-3.922,0.4195506802215176,-0.6549016234300674
-3.9215,0.6436243522328531,-0.5383386009732256
-3.921,0.7183155762366316,-0.6019184314042303
-3.9205,0.01408403562957729,-0.9728007755850904
-3.92,-0.807519428411986,-1.237716735714276
-3.9195,-1.490410619303675,-1.34368311976595
-3.919,-2.130621110764634,-1.258910012524611
-3.9185,-2.226652684483777,-0.9939940523954253
-3.918,-1.51175096901904,-0.2310360872233701
-3.9175,-0.7008176798351597,0.6802748156210291
-3.917,-0.1032878878049318,1.400846227172415
-3.9165,0.2488278824985954,1.835308401784279
-3.916,0.408880505363835,2.026047893077293
-3.9155,0.4195506802215176,2.047241169887628
-3.915,0.3768699807907871,1.962468062646288
-3.9145,0.3235191065023739,1.803518486568777
-3.914,0.2808384070716433,1.633972272086098
-3.9135,0.1101156093487211,1.347863035146577
-3.913,-0.4874141826815069,0.6484849004055269
-3.9125,-1.031593100423322,-0.2946159176543747
-3.912,-1.362368521011484,-1.110557074852267
-3.9115,-1.148965023857831,-1.354279758171118
-3.911,-0.4020527838200457,-0.9516074987747555
-3.9105,0.291508581929326,-0.6125150698093976
-3.91,0.7289857510943143,-0.4641621321370536
-3.9095,0.9103787236749192,-0.5277419625680583
-3.909,0.8997085488172365,-0.6760949002404023
-3.9085,0.79300680024041,-0.8138511995075789
-3.908,0.8036769750980928,-0.9622041371799229
-3.9075,0.8463576745288233,-1.036380606016095
-3.907,0.7396559259519968,-0.8986243067489184
-3.9065,0.6009436528021226,-0.6866915386455698
-3.906,0.5369226036560266,-0.474758770542221
-3.9055,0.5369226036560266,-0.3052125560595421
-3.905,0.4622313796522482,-0.400582301706049
-3.9045,0.3555296310754218,-0.8562377531282487
-3.904,0.02475421048725994,-1.258910012524611
-3.9035,-0.4554036581084589,-1.439052865412457
-3.903,-1.127624674142465,-1.502632695843462
-3.9025,-1.799845690176472,-1.42845622700729
-3.902,-2.141291285622316,-1.205926820498774
-3.9015,-1.479740444445993,-0.5277419625680583
-3.901,-0.722158029550525,0.309392471440169
-3.9005,-0.1352984123779797,0.9769806909657173
-3.9,0.2274875327832301,1.37965295036208
-3.8995,0.3982103305061524,1.538602526439591
-3.899,0.4302208550792003,1.549199164844759
-3.8985,0.3875401556484697,1.464426057603419
-3.898,0.3235191065023739,1.326669758336243
-3.8975,0.291508581929326,1.167720182258731
-3.897,0.1954770082101822,1.019367244586387
-3.8965,-0.3060212101009019,0.5849050699745222
-3.896,-0.8715404775580819,-0.2734226408440398
-3.8955,-1.255666772434657,-1.068170521231597
-3.895,-1.330357996438436,-1.301296566145281
-3.8945,-0.690147504977477,-0.9304142219644207
-3.894,0.04609456020262521,-0.5489352393783931
-3.8935,0.5796033030867573,-0.3158091944647096
-3.893,0.825017324813458,-0.2734226408440398
-3.8925,0.8356874996711408,-0.3899856633008816
-3.892,0.7289857510943143,-0.4641621321370536
-3.8915,0.707645401378949,-0.4535654937318862
-3.891,0.8463576745288233,-0.2628260024388724
-3.8905,0.8036769750980928,-0.252229364033705
-3.89,0.6649647019482183,-0.2946159176543747
-3.8895,0.5475927785137094,-0.2840192792492073
-3.889,0.4515612047945656,-0.2204394488182027
-3.8885,0.3768699807907871,-0.1250697031716958
-3.888,0.1314559590640864,-0.326405832869877
-3.8875,-0.4127229586777283,-0.792657922697244
-3.887,-0.9782422261349084,-1.216523458903942
-3.8865,-1.565101843307454,-1.439052865412457
-3.886,-2.141291285622316,-1.42845622700729
