Class_7_Listen_To_Music/Class_7_Listen_To_Music_Suko_8.csv

#Digilent WaveForms Oscilloscope Acquisition
#Device Name: EExplorer
#Serial Number: SN:210151A2B84A
#Date Time: 2021-01-27 15:07:33.379
#Sample rate: 2000Hz
#Samples: 16384
#Trigger: Source: Channel 1 Type: Edge Condition: Rising Level: 0 V Hyst.: Auto HoldOff: 0 s
#Channel 1: Range: 1 V/div Offset: 0 V Attenuation: 1 X
#Channel 2: Range: 1 V/div Offset: 0 V Attenuation: 1 X
#Channel 4: Range: 1 V/div Offset: 0 V Attenuation: 1 X
#Power Supplies: ON
#Fixed Supply: ON
#Voltage: 3.3 V Readback: 3.331 V
#Positive Supply: ON
#Voltage: 3.7 V Readback: 3.717 V
#Current: 40 mA Readback: 7 mA
#Negative Supply: ON
#Voltage: -3.7 V Readback: -3.334 V
#Current: -40 mA Readback: -13 mA
#Reference 1: ON
#Voltage: 0 V
#Reference 2: ON
#Voltage: 0 V

Time (s),Channel 1 (V),Channel 2 (V),Channel 4 (V)
-4.096,0.9637295979633325,-0.9622041371799229,-0.03203722724012713
-4.0955,0.857027849386603,-0.6231117082148735,-0.03203722724012713
-4.095,0.6436243522326202,-0.3475991096800673,-0.03203722724012713
-4.0945,0.3875401556484697,-0.1886495336027004,-0.03203722724012713
-4.094,0.1848068333526839,-0.1462629799820692,-0.04262030465096663
-4.0935,0.05676473506034668,-0.1462629799820885,-0.03203722724008862
-4.093,0.09944543449103843,-0.2098428104130352,0.01029508240326937
-4.0925,0.1421261339217302,-0.2522293640336665,0.01029508240326937
-4.092,0.09944543449098991,-0.2310360872233219,0.01029508240325975
-4.0915,0.04609456020262521,-0.1780528951975329,-0.000287995007579752
-4.091,-0.007256314085787988,-0.1356663415768632,-0.01087107241842888
-4.0905,-0.1993194615246481,-0.05089323433520571,-0.03203722724013675
-4.09,-0.8288597781273515,0.2987958330350016,-0.04262030465097626
-4.0895,-1.479740444445993,0.7226613692416989,-0.04262030465097626
-4.089,-2.066600061618004,0.9134008605345392,-0.05320338206181575
-4.0885,-2.3973754822067,0.5107286011383502,-0.07436953688352363
-4.088,-1.778505340461106,0.13984625695749,-0.05320338206182537
-4.0875,-1.052933450139347,0.05507314971622769,-0.04262030465098588
-4.087,-0.5087545323965615,0.1186529801472516,-0.04262030465097626
-4.0865,-0.1673089369510276,0.2246193641988295,-0.04262030465097626
-4.086,0.003413860771739385,0.3411823866555652,-0.05320338206181575
-4.0855,0.05676473506030786,0.4259554938970685,-0.05320338206182537
-4.085,0.05676473506030786,0.4895353243280153,-0.05320338206182537
-4.0845,0.03542438534496199,0.5213252395434887,-0.09553569170518339
-4.084,0.003413860771875241,0.5425185163538332,-0.1061187691160806
-4.0835,-0.01792648894347063,0.5213252395435176,-0.1167018465269201
-4.083,-0.01792648894347063,0.4789386859228479,-0.09553569170522189
-4.0825,0.003413860772117853,0.4047622170866084,-0.08495261429435351
-4.082,0.2488278824985954,0.3305857482505039,-0.0637864594726745
-4.0815,0.7503261008096795,0.1080563417419877,-0.05320338206182537
-4.081,0.686305051663642,-0.4641621321365331,-0.05320338206182537
-4.0805,0.4408910299368829,-1.01518732920576,-0.04262030465097626
-4.08,0.5049120790829789,-1.152943628472937,-0.03203722724012713
-4.0795,0.643624352232727,-0.8244478379130451,-0.03203722724012713
-4.079,0.6756348768057943,-0.4005823017058948,-0.03203722724012713
-4.0785,0.5582629533713921,-0.2310360872233701,-0.03203722724012713
-4.078,0.3982103305062979,-0.1462629799821077,-0.03203722724012713
-4.0775,0.2274875327831136,-0.1144730647665284,-0.04262030465097626
-4.077,0.09944543449103843,-0.1144730647665284,-0.04262030465097626
-4.0765,0.06743490991801962,-0.09327978795621275,-0.0002879950076182594
-4.076,0.09944543449101902,-0.05089323433552374,0.01029508240326937
-4.0755,0.07810508477567314,-0.05089323433552374,0.01029508240326937
-4.075,0.03542438534494258,-0.06148987274069118,0.01029508240326937
-4.0745,-0.007256314085846215,-0.08268314955104532,-0.0108710724184385
-4.074,-0.07127736323188383,-0.1038764263613609,-0.021454149829278
-4.0735,-0.4767440078238243,-0.1356663415768632,-0.04262030465097626
-4.073,-1.074273799853509,-0.1356663415768632,-0.04262030465097626
-4.0725,-1.522421143876723,-0.252229364033705,-0.05320338206182537
-4.072,-1.799845690176472,-0.5065486857577234,-0.0637864594726745
-4.0715,-1.565101843307667,-0.5701285161886701,-0.053203382061835
-4.071,-1.031593100422885,-0.3475991096799516,-0.04262030465097626
-4.0705,-0.5514352318276028,-0.06148987274069118,-0.04262030465097626
-4.07,-0.2206598112397417,0.1822328105779381,-0.04262030465097626
-4.0695,-0.03926683865876798,0.3411823866557676,-0.05320338206182537
-4.069,0.03542438534494258,0.4471487707073456,-0.05320338206182537
-4.0685,0.04609456020262521,0.4895353243280153,-0.05320338206182537
-4.068,0.02475421048724053,0.521325239543508,-0.07436953688356213
-4.0675,0.00341386077189465,0.5107286011383502,-0.1167018465269201
-4.067,-0.01792648894347063,0.457745409112513,-0.1167018465269201
-4.0665,-0.02859666380112416,0.3835689402762543,-0.1061187691160614
-4.066,0.00341386077189465,0.2881991946298341,-0.09553569170522189
-4.0655,0.1527963087794516,0.05507314971615059,-0.07436953688352363
-4.065,0.6436243522324067,-0.5489352393778437,-0.06378645947268413
-4.0645,1.027750647109428,-1.248313374119443,-0.05320338206182537
-4.064,0.9850699476786977,-1.767548655972648,-0.04262030465097626
-4.0635,0.9850699476786977,-1.47084278062823,-0.03203722724013675
-4.063,0.9957401225363317,-0.9410108603691737,-0.03203722724012713
-4.0625,0.942389248247967,-0.4853554089473885,-0.03203722724012713
-4.062,0.7609962756675273,-0.2840192792493904,-0.04262030465096663
-4.0615,0.5369226036558131,-0.262826002438882,-0.04262030465097626
-4.061,0.3021787567870086,-0.2734226408440398,-0.04262030465097626
-4.0605,0.1314559590640864,-0.2734226408440398,-0.04262030465097626
-4.06,0.03542438534491346,-0.2522293640336761,-0.02145414982924912
-4.0595,0.00341386077189465,-0.2204394488182027,0.01029508240326937
-4.059,-0.007256314085787988,-0.1674562567923655,0.0208781598141185
-4.0585,-0.01792648894346092,-0.07208651114594535,0.010295082403279
-4.058,-0.02859666380115328,-0.008506680714854012,-0.000287995007579752
-4.0575,-0.06060718837420119,0.05507314971615059,-0.01087107241842888
-4.057,-0.2313299860969682,0.2881991946296221,-0.03203722724010788
-4.0565,-0.839529952985034,0.8180311148882058,-0.04262030465097626
-4.056,-1.437059745015262,1.273686566310405,-0.04262030465097626
-4.0555,-1.885207089037525,1.294879843120721,-0.06378645947265525
-4.055,-2.119950935906475,0.6378882619998968,-0.07436953688350438
-4.0545,-1.597112367880501,0.1292496185523226,-0.05320338206182537
-4.054,-0.9675720512777982,-0.008506680714728737,-0.05320338206182537
-4.0535,-0.4660738329658601,0.06566978812145294,-0.04262030465097626
-4.053,-0.156638762093345,0.2140227257936621,-0.04262030465097626
-4.0525,0.00341386077189465,0.3729723018711736,-0.05320338206182537
-4.052,0.05676473506030786,0.5107286011384562,-0.053203382061835
-4.0515,0.05676473506030786,0.627291623595192,-0.0637864594726745
-4.051,0.03542438534494258,0.701468092431364,-0.106118769116071
-4.0505,0.003413860771923766,0.7438546460519952,-0.1167018465269105
-4.05,-0.007256314085787988,0.7438546460520338,-0.1167018465269201
-4.0495,-0.01792648894347063,0.7332580076468663,-0.09553569170522189
-4.049,0.03542438534489405,0.6484849004056039,-0.08495261429438239
-4.0485,0.2594980573567924,0.4047622170862326,-0.0637864594726745
-4.048,0.825017324813458,-0.08268314955102604,-0.0637864594726745
-4.0475,1.198473444832011,-0.7290780922656516,-0.053203382061835
-4.047,1.262494493978436,-1.184733543688352,-0.03203722724012713
-4.0465,1.251824319120764,-1.089363798041932,-0.03203722724012713
-4.046,1.134452395686361,-0.7290780922665672,-0.03203722724012713
-4.0455,0.9743997728208111,-0.3475991096800287,-0.03203722724013675
-4.045,0.7503261008096795,-0.1462629799820306,-0.04262030465097626
-4.0445,0.4729015545099309,-0.1038764263613609,-0.04262030465097626
-4.044,0.2381577076407769,-0.1356663415769307,-0.04262030465096663
-4.0435,0.08877525963335578,-0.2098428104130352,-0.03203722724012713
-4.043,0.04609456020262521,-0.2628260024388724,0.01029508240326937
-4.0425,0.02475421048727934,-0.284019279249188,0.01029508240326937
-4.042,0.00341386077189465,-0.3158091944647096,0.01029508240326937
-4.0415,-0.01792648894347063,-0.3158091944647096,-0.000287995007579752
-4.041,-0.02859666380114357,-0.3052125560595518,-0.01087107241841925
-4.0405,-0.1779791118092537,-0.1780528951970125,-0.03203722724012713
-4.04,-0.7755089038389382,0.3941655786815084,-0.03203722724012713
-4.0395,-1.415719395299314,0.9557874141548717,-0.04262030465096663
-4.039,-1.959898313041925,1.199510097473867,-0.05320338206184462
-4.0385,-2.19464215991073,0.7968378380778709,-0.07436953688352363
-4.038,-1.629122892454064,0.3093924714406123,-0.05320338206184462
-4.0375,-0.9675720512767696,0.08686306493163361,-0.05320338206182537
-4.037,-0.4660738329661415,0.06566978812131802,-0.05320338206182537
-4.0365,-0.1459685872356623,0.1504428953626575,-0.05320338206182537
-4.036,0.01408403562961611,0.277602556224792,-0.05320338206182537
-4.0355,0.05676473506030786,0.4153588554918433,-0.05320338206182537
-4.035,0.05676473506030786,0.5319218779486851,-0.05320338206182537
-4.0345,0.03542438534496199,0.6378882620002631,-0.09553569170518339
-4.034,0.00341386077189465,0.701468092431364,-0.1167018465269201
-4.0335,-0.007256314085787988,0.7332580076468663,-0.1167018465269201
-4.033,-0.01792648894346092,0.7332580076468663,-0.09553569170524114
-4.0325,-0.007256314085525967,0.7226613692414868,-0.08495261429436313
-4.032,0.2808384070716433,0.4895353243280153,-0.07436953688352363
-4.0315,0.81434714995529,-0.114473064765979,-0.06378645947268413
-4.031,0.8783681991018907,-0.6972881770511998,-0.05320338206181575
-4.0305,0.8997085488172365,-1.205926820498774,-0.04262030465097626
-4.03,1.038420821966985,-1.237716735714248,-0.03203722724013675
-4.0295,1.070431346540081,-0.919817583558887,-0.03203722724012713
-4.029,0.9850699476786977,-0.5171453241628908,-0.03203722724012713
-4.0285,0.7609962756673623,-0.1992461720078678,-0.03203722724012713
-4.028,0.4942419042251021,-0.01910331912000217,-0.04262030465097626
-4.0275,0.2808384070716433,0.002089957690313421,-0.04262030465097626
-4.027,0.1101156093487211,-0.07208651114585861,-0.04262030465097626
-4.0265,0.06743490991802932,-0.1462629799819632,-0.01087107241845775
-4.026,0.09944543449103843,-0.1780528951975329,0.01029508240326937
-4.0255,0.0674349099179905,-0.2310360872233701,0.01029508240326937
-4.025,0.03542438534497169,-0.3052125560594747,0.01029508240326937
-4.0245,-0.01792648894353856,-0.358195748085389,-0.0108710724184385
-4.024,-0.09261771294724913,-0.3687923864905467,-0.021454149829278
-4.0235,-0.4874141826811478,-0.0402965959306551,-0.0320372272401175
-4.023,-1.074273799854382,0.5637117931643705,-0.04262030465098588
-4.0225,-1.437059745015262,0.7650479228623686,-0.05320338206182537
-4.022,-1.895877263895198,0.4047622170870036,-0.07436953688350438
-4.0215,-1.938557963325832,-0.2310360872235147,-0.06378645947266487
-4.021,-1.373038695869166,-0.3899856633008816,-0.05320338206182537
-4.0205,-0.7861790786966207,-0.2734226408440398,-0.04262030465097626
-4.02,-0.3487019095313996,-0.05089323433532136,-0.04262030465098588
-4.0195,-0.09261771294724913,0.1716361721729923,-0.05320338206182537
-4.019,0.02475421048725994,0.3517790250608387,-0.05320338206182537
-4.0185,0.05676473506027875,0.48953532432789,-0.05320338206182537
-4.018,0.04609456020262521,0.5955017083796896,-0.07436953688352363
-4.0175,0.02475421048725994,0.6590815388106942,-0.1167018465269201
-4.017,-0.007256314085758876,0.6802748156210098,-0.1167018465269201
-4.0165,-0.01792648894345122,0.6696781772158038,-0.1061187691160614
-4.016,0.00341386077189465,0.6060983467848571,-0.09553569170522189
-4.0155,0.120785784206297,0.4577454091126479,-0.07436953688354288
-4.015,0.643624352233183,0.03387987290519891,-0.0637864594726745
-4.0145,1.006410297394063,-0.6443049850249,-0.0637864594726745
-4.014,0.9103787236750066,-1.205926820498263,-0.04262030465099551
-4.0135,0.8463576745288621,-0.9939940523951458,-0.03203722724012713
-4.013,0.8890383739595538,-0.6866915386455698,-0.03203722724012713
-4.0125,0.8890383739595538,-0.5807251545938954,-0.04262030465097626
-4.012,0.7930068002402256,-0.5171453241628041,-0.04262030465097626
-4.0115,0.5902734779444399,-0.4217755785163839,-0.04262030465097626
-4.011,0.3555296310754218,-0.3581957480853793,-0.03203722724012713
-4.0105,0.1741366584949819,-0.3052125560595903,-0.03203722724012713
-4.01,0.0674349099179905,-0.2840192792492073,-0.021454149829278
-4.0095,0.1207857842064037,-0.2734226408440398,0.01029508240326937
-4.009,0.1207857842064037,-0.2522293640337243,0.02087815981410887
-4.0085,0.07810508477562463,-0.2204394488181834,0.01029508240325975
-4.008,0.02475421048725994,-0.1992461720078678,-0.000287995007579752
-4.0075,-0.06060718837412356,-0.1568596183872366,-0.01087107241841925
-4.007,-0.4447334832513973,0.02328323450107234,-0.03203722724012713
-4.0065,-1.127624674142465,0.4895353243280153,-0.03203722724012713
-4.006,-1.757164990745741,0.8392243916985406,-0.04262030465097626
-4.0055,-2.344024607918316,0.7650479228618771,-0.0637864594726745
-4.005,-2.376035132491334,0.2246193641988295,-0.0637864594726745
-4.0045,-1.618452717595867,-0.02969995752518888,-0.04262030465097626
-4.004,-0.9035510021306641,0.00208995769043871,-0.04262030465097626
-4.0035,-0.391382608962363,0.13984625695749,-0.04262030465097626
-4.003,-0.09261771294724913,0.2987958330350016,-0.04262030465097626
-4.0025,0.03542438534482611,0.4365521323020529,-0.05320338206181575
-4.002,0.0674349099179905,0.5319218779486851,-0.05320338206182537
-4.0015,0.05676473506030786,0.5955017083796896,-0.05320338206182537
-4.001,0.03542438534496199,0.6272916235951631,-0.1061187691160229
-4.0005,0.003413860771884946,0.616694985189986,-0.1167018465269105
-4,-0.007256314085787988,0.5743084315693548,-0.106118769116071
-3.9995,0.01408403562957729,0.4895353243280153,-0.09553569170522189
-3.999,0.3021787567870086,0.1186529801471552,-0.08495261429437276
-3.9985,0.7396559259519968,-0.3370024712750445,-0.0637864594726745
-3.998,0.9957401225363802,-0.718481453861072,-0.05320338206182537
-3.9975,0.9210488985326017,-1.163540266878104,-0.05320338206182537
-3.997,0.9957401225363802,-1.184733543688439,-0.03203722724012713
-3.9965,1.166462920259302,-0.7820612842920766,-0.03203722724012713
-3.996,1.166462920259302,-0.5065486857577234,-0.03203722724012713
-3.9955,1.027750647109428,-0.3581957480853793,-0.03203722724012713
-3.995,0.7823366253827275,-0.3687923864905467,-0.04262030465097626
-3.9945,0.4942419042252961,-0.400582301706049,-0.04262030465097626
-3.994,0.2488278824985954,-0.3793890248957141,-0.04262030465097626
-3.9935,0.08877525963335578,-0.3475991096802118,-0.03203722724012713
-3.993,0.03542438534494258,-0.2946159176543747,-0.000287995007579752
-3.9925,0.02475421048725994,-0.2416327256285375,0.0208781598141185
-3.992,0.00341386077189465,-0.1780528951975329,0.01029508240326937
-3.9915,-0.01792648894347063,-0.1144730647665284,-0.000287995007579752
-3.991,-0.03926683865883591,-0.06148987274069118,-0.01087107241842888
-3.9905,-0.124628237520297,0.05507314971615059,-0.021454149829278
-3.99,-0.5834457564006506,0.5001319627331828,-0.03203722724012713
-3.9895,-1.287677297007705,1.093543713422559,-0.04262030465097626
-3.989,-1.970568487899394,1.517409249629256,-0.05320338206182537
-3.9885,-2.461396531352796,1.220703374284568,-0.07436953688352363
-3.988,-2.312014083345239,0.4153588554918433,-0.0637864594726745
-3.9875,-1.46907026958831,0.02328323450064829,-0.05320338206182537
-3.987,-0.7755089038389382,-0.01910331912002144,-0.04262030465097626
-3.9865,-0.3060212101009019,0.09745970333682032,-0.04262030465097626
-3.986,-0.04993701351651855,0.2670059178194992,-0.04262030465097626
-3.9855,0.05676473506030786,0.4365521323021782,-0.05320338206182537
-3.985,0.07810508477567314,0.5743084315693548,-0.05320338206182537
-3.9845,0.05676473506030786,0.6802748156210291,-0.08495261429437276
-3.984,0.02475421048725994,0.7438546460520338,-0.1167018465269201
-3.9835,0.00341386077189465,0.7650479228623686,-0.1167018465269201
-3.983,-0.007256314085787988,0.7544512844572011,-0.106118769116071
-3.9825,0.01408403562957729,0.6908714540261965,-0.08495261429437276
-3.982,0.2168173579255475,0.4895353243280153,-0.0637864594726745
-3.9815,0.8356874996711408,-0.08268314955102604,-0.0637864594726745
-3.981,1.230483969405398,-0.792657922697244,-0.05320338206182537
-3.9805,1.347855892839907,-1.34368311976595,-0.04262030465097626
-3.98,1.422547116843686,-1.38606967338662,-0.03203722724012713
-3.9795,1.315845368266859,-0.8032545611024114,-0.021454149829278
-3.979,1.081101521397841,-0.3158091944647096,-0.03203722724012713
-3.9785,0.7396559259519968,-0.09327978795619347,-0.04262030465097626
-3.978,0.4408910299368829,-0.06148987274069118,-0.04262030465097626
-3.9775,0.2381577076409128,-0.1356663415768632,-0.04262030465097626
-3.977,0.1207857842064037,-0.2310360872233701,-0.04262030465097626
-3.9765,0.08877525963335578,-0.3158091944647096,-0.01087107241842888
-3.976,0.142126133921769,-0.3475991096802118,0.0208781598141185
-3.9755,0.1207857842064037,-0.3793890248957141,0.01029508240326937
-3.975,0.0674349099179905,-0.3793890248957141,0.01029508240326937
-3.9745,0.00341386077189465,-0.3370024712750445,-0.01087107241842888
-3.974,-0.09261771294724913,-0.3052125560595421,-0.021454149829278
-3.9735,-0.5514352318276028,-0.02969995752518888,-0.03203722724012713
-3.973,-1.127624674142465,0.5107286011383502,-0.04262030465097626
-3.9725,-1.447729919872945,0.8074344764830383,-0.04262030465097626
-3.972,-1.767835165603424,0.6378882620003594,-0.07436953688352363
-3.9715,-1.938557963326346,-0.04029659593035631,-0.07436953688352363
-3.971,-1.458400094730627,-0.3158091944647096,-0.05320338206182537
-3.9705,-0.8822106524157645,-0.2098428104130352,-0.04262030465097626
-3.97,-0.4127229586777283,0.01268659609548085,-0.04262030465097626
-3.9695,-0.124628237520297,0.2564092794143318,-0.04262030465097626
-3.969,0.01408403562957729,0.4471487707073456,-0.05320338206182537
-3.9685,0.05676473506030786,0.5849050699745222,-0.05320338206182537
-3.968,0.04609456020262521,0.6802748156210291,-0.07436953688352363
-3.9675,0.03542438534494258,0.7332580076468663,-0.106118769116071
-3.967,0.00341386077189465,0.7438546460520338,-0.1167018465269201
-3.9665,-0.007256314085787988,0.7120647308365314,-0.106118769116071
-3.966,-0.007256314085787988,0.6696781772158616,-0.09553569170522189
-3.9655,0.03542438534494258,0.5743084315693548,-0.07436953688352363
-3.965,0.3555296310754218,0.2881991946298341,-0.0637864594726745
-3.9645,0.857027849386506,-0.3370024712750445,-0.05320338206182537
-3.964,0.9957401225363802,-0.9939940523954253,-0.04262030465097626
-3.9635,1.081101521397841,-0.8668343915334161,-0.021454149829278
-3.963,1.102441871113207,-0.5277419625680583,-0.03203722724012713
-3.9625,1.017080472251745,-0.3158091944647096,-0.03203722724012713
-3.962,0.8463576745288233,-0.252229364033705,-0.04262030465097626
-3.9615,0.6116138276598051,-0.2628260024388724,-0.04262030465097626
-3.961,0.3768699807907871,-0.326405832869877,-0.04262030465097626
-3.9605,0.1848068333524996,-0.3793890248957141,-0.03203722724012713
-3.96,0.0674349099179905,-0.4111789401112165,-0.021454149829278
-3.9595,0.07810508477567314,-0.4217755785163839,0.01029508240326937
-3.959,0.07810508477567314,-0.3899856633008816,0.0208781598141185
-3.9585,0.04609456020262521,-0.3052125560595421,0.01029508240326937
-3.958,0.00341386077189465,-0.1780528951975329,-0.000287995007579752
-3.9575,-0.02859666380115328,-0.1250697031716958,-0.021454149829278
-3.957,-0.3166913849585846,0.07626642652648545,-0.03203722724012713
-3.9565,-0.9142211769888124,0.5955017083796896,-0.04262030465097626
-3.956,-1.383708870726849,0.9875773293708847,-0.04262030465097626
-3.9555,-1.842526389607202,0.9875773293708847,-0.0637864594726745
-3.955,-1.991908837614759,0.4683420475176805,-0.0637864594726745
-3.9545,-1.447729919872945,0.1822328105781598,-0.05320338206182537
-3.954,-0.8502001278427167,0.1716361721729923,-0.04262030465097626
