Class_7_Listen_To_Music/Class_7_Listen_To_Music_Suko_2.csv

#Digilent WaveForms Oscilloscope Acquisition
#Device Name: EExplorer
#Serial Number: SN:210151A2B84A
#Date Time: 2020-10-27 13:56:10.559
#Sample rate: 2000Hz
#Samples: 16384
#Trigger: Source: Channel 1 Type: Edge Condition: Rising Level: 0 V Hyst.: Auto HoldOff: 0 s
#Channel 1: Range: 1 V/div Offset: 0 V Attenuation: 1 X
#Channel 2: Range: 1 V/div Offset: 0 V Attenuation: 1 X
#Power Supplies: ON
#Fixed Supply: ON
#Voltage: 3.3 V Readback: 3.326 V
#Positive Supply: ON
#Voltage: 3.7 V Readback: 3.714 V
#Current: 500 mA Readback: 19 mA
#Negative Supply: ON
#Voltage: -3.7 V Readback: -3.711 V
#Current: -500 mA Readback: -10 mA
#Reference 1: ON
#Voltage: 0 V
#Reference 2: ON
#Voltage: 0 V

Time (s),Channel 1 (V),Channel 2 (V)
-4.096,1.123782220828572,-1.481439419033127
-4.0955,1.177133095116937,-1.884111678429124
-4.095,0.8036769750977337,-1.587405803084483
-4.0945,0.408880505363835,-1.237716735714276
-4.094,0.1101156093489928,-1.068170521231751
-4.0935,-0.04993701351657678,-1.110557074852383
-4.093,-0.1139580626626144,-1.237716735714276
-4.0925,-0.1246282375202873,-1.36487639657617
-4.092,-0.1032878878049318,-1.449649503817654
-4.0915,-0.1032878878049318,-1.481439419033127
-4.091,-0.1032878878049318,-1.407262950196955
-4.0905,-0.1032878878049415,-1.237716735714045
-4.09,-0.1139580626626144,-0.9833974139902578
-4.0895,-0.1139580626626144,-0.6760949002404023
-4.089,0.003413860771787902,-0.2628260024392483
-4.0885,0.6116138276598051,0.5743084315693548
-4.088,1.219813794547716,0.92399749893988
-4.0875,1.614610264281614,0.3411823866562013
-4.087,0.9850699476781833,-0.4429688553271814
-4.0865,0.4195506802215176,-0.9516074987747555
-4.086,0.3128489316447883,-0.718481453861284
-4.0855,0.1421261339216428,0.1928294489842042
-4.085,0.00341386077189465,1.157123543853563
-4.0845,-0.08194753808948885,1.898888232214609
-4.084,-0.1246282375203164,2.354543683637686
-4.0835,-0.1459685872356623,2.577073090146
-4.083,-0.1459685872356623,2.619459643766669
-4.0825,-0.13529841237797,2.545283174930353
-4.082,-0.124628237520297,2.386333598852986
-4.0815,-0.1139580626626144,2.174400830749637
-4.081,-0.1032878878049415,1.877694955405219
-4.0805,0.2274875327832301,1.241896651094903
-4.08,0.8890383739595538,0.2352160026039969
-4.0795,1.006410297393956,-0.803254561101467
-4.079,0.7716664505246372,-1.608599079895252
-4.0785,0.3235191065023739,-1.735758740757146
-4.078,0.03542438534520459,-1.449649503817885
-4.0775,-0.09261771294728795,-1.258910012524582
-4.077,-0.1352984123779797,-1.227120097309109
-4.0765,-0.1352984123779797,-1.311893204550371
-4.076,-0.1246282375202776,-1.41785958860219
-4.0755,-0.1032878878049318,-1.492036057438295
-4.075,-0.1139580626626144,-1.523825972653797
-4.0745,-0.1673089369510373,-1.428456227007088
-4.074,-0.1779791118087102,-1.205926820498774
-4.0735,-0.1673089369510276,-0.9092209451540858
-4.073,-0.1459685872356817,-0.6019184314045098
-4.0725,-0.1032878878049318,-0.252229364033705
-4.072,0.3235191065023739,0.3411823866556712
-4.0715,0.6542945270902349,0.3623756634659869
-4.071,0.9103787236746863,-0.3052125560600915
-4.0705,0.6542945270905358,-0.9092209451540858
-4.07,-0.3593720843883932,-1.216523458903662
-4.0695,-1.020922925565658,-1.046977244420453
-4.069,-1.042263275281004,-0.1568596183871981
-4.0685,-0.7755089038389382,0.849821030103708
-4.068,-0.4874141826813128,1.623375633681364
-4.0675,-0.274010685527854,2.100224361913465
-4.067,-0.156638762093345,2.312157130016814
-4.0665,-0.1032878878049123,2.343947045232239
-4.066,-0.08194753808956648,2.259173937990977
-4.0655,-0.08194753808956648,2.089627723508298
-4.065,-0.09261771294723943,1.867098316999984
-4.0645,-0.1032878878049318,1.570392441655093
-4.064,0.02475421048725994,1.104140351827727
-4.0635,0.6222840025169444,0.1398462569583671
-4.063,0.782336625382252,-0.9198175835599953
-4.0625,0.2594980573562781,-1.735758740757146
-4.062,-0.2526703358120229,-1.947691508860301
-4.0615,-0.4340633083930646,-1.545019249463804
-4.061,-0.4020527838200457,-1.184733543688439
-4.0605,-0.2953510352432193,-1.046977244421262
-4.06,-0.1779791118086423,-1.089363798042077
-4.0595,-0.1032878878049318,-1.248313374119443
-4.059,-0.06060718837420119,-1.396666311791788
-4.0585,-0.03926683865885532,-1.492036057438208
-4.058,-0.1673089369510276,-1.502632695843462
-4.0575,-0.2206598112394408,-1.280103289334946
-4.057,-0.2099896363817679,-0.9516074987750542
-4.0565,-0.1779791118087102,-0.6019184314042303
-4.056,-0.1459685872356623,-0.2628260024388724
-4.0555,0.1527963087791799,0.2670059178190174
-4.055,0.6222840025176043,0.7438546460515519
-4.0545,0.7503261008096795,0.2140227257936621
-4.054,0.8463576745287359,-0.5701285161880147
-4.0535,0.2488278824984595,-1.099960436447119
-4.053,0.09944543449103843,-1.121153713257435
-4.0525,0.03542438534494258,-0.3370024712750445
-4.052,-0.03926683865888444,0.6590815388114363
-4.0515,-0.09261771294724913,1.475022696008586
-4.051,-0.124628237520297,1.994257977861791
-4.0505,-0.13529841237797,2.259173937990735
-4.05,-0.1352984123779797,2.333350406827149
-4.0495,-0.1352984123779797,2.280367214801311
-4.049,-0.1246282375203067,2.14261091553426
-4.0485,-0.1139580626626144,1.95187142424089
-4.048,-0.1139580626626144,1.697552102517103
-4.0475,-0.188649286666325,1.252493289500475
-4.047,-0.7648387289819056,0.2564092794133295
-4.0465,-1.479740444445993,-0.8456411147230812
-4.046,-1.714484291314797,-1.682775548730547
-4.0455,-1.639793067310912,-2.21260746898942
-4.045,-1.287677297007705,-1.926498232050159
-4.0445,-0.8288597781273515,-1.417859588602123
-4.044,-0.4447334832505433,-1.174136905283233
-4.0435,-0.1886492866663929,-1.131750351662602
-4.043,-0.06060718837420119,-1.205926820498774
-4.0425,-0.007256314085836511,-1.333086481360667
-4.042,0.00341386077189465,-1.42845622700729
-4.0415,-0.03926683865883591,-1.492036057438295
-4.041,-0.08194753808952766,-1.364876396576401
-4.0405,-0.1139580626626144,-1.110557074852007
-4.04,-0.1139580626626144,-0.8244478379127463
-4.0395,-0.1139580626626144,-0.5171453241631703
-4.039,0.02475421048789073,-0.06148987273993944
-4.0385,0.7183155762366316,0.7650479228623686
-4.038,1.507908515704429,0.8392243916984731
-4.0375,1.892034810580994,0.0338798729050929
-4.037,1.091771696255524,-0.7608680074817418
-4.0365,0.01408403562957729,-1.205926820498774
-4.036,-0.370042259247056,-0.8774310299377354
-4.0355,-0.4340633083930936,0.05507314971615059
-4.035,-0.3593720843893152,0.9981739677760521
-4.0345,-0.2633405106702588,1.697552102516467
-4.034,-0.1886492866663929,2.110821000318633
-4.0335,-0.1352984123779797,2.312157130016814
-4.033,-0.1139580626626338,2.343947045232287
-4.0325,-0.1032878878049221,2.269770576396019
-4.032,-0.09261771294724913,2.132014277128968
-4.0315,-0.09261771294724913,1.941274785836127
-4.031,-0.1246282375204135,1.623375633680343
-4.0305,-0.2526703358124887,0.9769806909657173
-4.03,0.06743490991769935,0.3305857482510918
-4.0295,0.4729015545099891,-0.6231117082153168
-4.029,0.5369226036560266,-1.449649503817625
-4.0285,0.09944543449103843,-1.788741932782983
-4.028,-0.1779791118087879,-1.523825972653489
-4.0275,-0.2633405106701714,-1.184733543688439
-4.027,-0.2420001609548061,-0.9939940523954253
-4.0265,-0.1673089369510956,-0.9622041371799518
-4.026,-0.1032878878049318,-1.025783967610927
-4.0255,-0.04993701351651855,-1.131750351662602
-4.025,-0.09261771294721031,-1.269506650929653
-4.0245,-0.1993194615240949,-1.290699927739949
-4.024,-0.2206598112394408,-1.110557074852267
-4.0235,-0.188649286666422,-0.8562377531284799
-4.023,-0.1566387620932673,-0.5913217929987641
-4.0225,-0.07127736323188383,-0.2628260024388724
-4.022,0.5049120790824548,0.4577454091118577
-4.0215,1.102441871113527,0.7544512844565651
-4.021,1.454557641416734,0.05507314971615059
-4.0205,1.091771696255524,-0.7714646458869092
-4.02,0.6756348768057652,-1.301296566145136
-4.0195,0.5262524287983441,-1.142346990067769
-4.019,0.291508581929326,-0.2734226408440398
-4.0185,0.08877525963354016,0.6590815388098461
-4.018,-0.04993701351651855,1.390249588767247
-4.0175,-0.124628237520297,1.845905040189447
-4.017,-0.1566387620933158,2.079031085102919
-4.0165,-0.1566387620933352,2.142610915534096
-4.016,-0.1459685872356623,2.100224361913465
-4.0155,-0.1246282375203164,1.994257977861887
-4.015,-0.1139580626626144,1.82471176337889
-4.0145,-0.1139580626626144,1.580989080060261
-4.014,-0.2206598112393438,1.051157159802371
-4.0135,-0.113958062662265,0.06566978812039281
-4.013,0.2701682322139607,-0.9516074987747555
-4.0125,0.4622313796522482,-1.746355379162313
-4.012,0.1741366584946034,-2.085447808127276
-4.0115,-0.06060718837420119,-1.650985633515806
-4.011,-0.1459685872356623,-1.152943628472937
-4.0105,-0.1566387620933352,-0.9304142219646231
-4.01,-0.1459685872356623,-0.9410108603695881
-4.0095,-0.1139580626626144,-1.05757388282643
-4.009,-0.09261771294726853,-1.195330182093481
-4.0085,-0.0819475380896053,-1.333086481360851
-4.008,-0.124628237520297,-1.407262950196955
-4.0075,-0.1566387620933158,-1.248313374119588
-4.007,-0.1459685872356526,-0.9728007755848109
-4.0065,-0.1352984123779797,-0.6654982618352349
-4.006,-0.124628237520297,-0.3475991096802118
-4.0055,0.1527963087801018,0.1292496185528912
-4.005,0.8676980242441885,0.7544512844572011
-4.0045,1.177133095116985,0.3729723018711736
-4.004,0.8890383739589618,-0.4641621321376511
-4.0035,0.2381577076409128,-1.121153713257435
-4.003,-0.01792648894347063,-1.131750351662602
-4.0025,-0.1352984123778729,-0.347599109680925
-4.002,-0.1673089369510276,0.5849050699745222
-4.0015,-0.1779791118087102,1.33726639674141
-4.001,-0.1566387620933644,1.835308401783826
-4.0005,-0.1459685872356526,2.089627723508384
-4,-0.1352984123779797,2.184997469154805
-3.9995,-0.124628237520297,2.153207553939303
-3.999,-0.1139580626626144,2.057837808292796
-3.9985,-0.1139580626626144,1.909484870620451
-3.998,-0.1139580626626144,1.70814874092227
-3.9975,-0.156638762093345,1.326669758336243
-3.997,-0.6047861061160158,0.4047622170866759
-3.9965,-1.223656247861609,-0.6972881770507372
-3.996,-1.373038695869166,-1.576809164679634
-3.9955,-1.042263275281004,-2.032464616101834
-3.995,-0.658136980404429,-1.714565463946811
-3.9945,-0.3487019095316325,-1.248313374119443
-3.994,-0.156638762093345,-0.9728007755850904
-3.9935,-0.06060718837420119,-0.9092209451540858
-3.993,-0.01792648894347063,-0.9622041371799229
-3.9925,-0.007256314085787988,-1.068170521231597
-3.992,-0.01792648894347063,-1.184733543688439
-3.9915,-0.124628237520297,-1.290699927740113
-3.991,-0.1886492866663929,-1.205926820498774
-3.9905,-0.1886492866663929,-0.9728007755850904
-3.99,-0.1673089369510276,-0.6866915386455698
-3.9895,-0.1352984123779797,-0.3899856633008816
-3.989,-0.007256314085787988,-0.008506680714854012
-3.9885,0.6329541773751706,0.7332580076468663
-3.988,1.337185717982225,1.284283204715573
-3.9875,1.56125938999356,0.9134008605347127
-3.987,0.8890383739595538,-0.08268314955102604
-3.9865,0.4729015545099309,-0.8774310299385835
-3.986,0.3235191065023739,-0.7820612842920766
-3.9855,0.142126133921769,-0.01910331912002144
-3.985,-0.007256314085787988,0.8074344764830383
-3.9845,-0.09261771294724913,1.464426057603419
-3.984,-0.1352984123779797,1.888291593810116
-3.9835,-0.1459685872356623,2.1214176387238
-3.983,-0.1459685872356623,2.20619074596514
-3.9825,-0.124628237520297,2.184997469154805
-3.982,-0.1139580626626144,2.110821000318633
-3.9815,-0.1139580626626144,1.962468062646288
-3.981,-0.124628237520297,1.729342017732605
-3.9805,-0.2526703358124887,1.125333628638062
-3.98,0.01408403562957729,0.6802748156210291
-3.9795,0.0674349099179905,-0.2098428104130352
-3.979,-0.08194753808956648,-1.01518732920576
-3.9785,-0.1459685872356623,-1.205926820498774
-3.978,-0.156638762093345,-1.089363798041932
-3.9775,-0.124628237520297,-0.9833974139902578
-3.977,-0.09261771294724913,-1.004590690800593
-3.9765,-0.06060718837420119,-1.131750351662602
-3.976,-0.04993701351651855,-1.290699927740113
-3.9755,-0.04993701351651855,-1.38606967338662
-3.975,-0.08194753808956648,-1.38606967338662
-3.9745,-0.1459685872356623,-1.280103289334946
-3.974,-0.156638762093345,-1.121153713257435
-3.9735,-0.1459685872356623,-0.9092209451540858
-3.973,-0.1352984123779797,-0.6443049850249
-3.9725,-0.08194753808956648,-0.2840192792492073
-3.972,0.4408910299368829,0.5001319627331828
-3.9715,1.315845368266859,1.432636142387917
-3.971,2.052087433446962,2.1214176387238
-3.9705,1.785333062004896,1.877694955404949
-3.97,0.6116138276598051,0.6802748156210291
-3.9695,0.01408403562957729,-0.1568596183871981
-3.969,-0.2313299860971235,0.01268659609548085
-3.9685,-0.2846808603855366,0.6378882620003594
-3.968,-0.2633405106701714,1.316073119931075
-3.9675,-0.2099896363817582,1.877694955404949
-3.967,-0.1673089369510276,2.259173937990977
-3.9665,-0.1459685872356623,2.49229998290466
-3.966,-0.124628237520297,2.587669728551167
-3.9655,-0.1139580626626144,2.598266366956334
-3.965,-0.1139580626626144,2.513493259714995
-3.9645,-0.1139580626626144,2.343947045232316
-3.964,-0.1779791118087102,1.888291593810116
-3.9635,-0.007256314085787988,0.9451907757502149
-3.963,-0.1886492866663929,-0.1250697031716958
-3.9625,-0.4980843575391895,-1.004590690800593
-3.962,-0.5834457564006506,-1.311893204550448
-3.9615,-0.4980843575391895,-1.036380606016095
-3.961,-0.3380317346739499,-0.7608680074817418
-3.9605,-0.1993194615240755,-0.7290780922662394
-3.96,-0.1139580626626144,-0.8668343915334161
-3.9595,-0.06060718837420119,-1.0999604364471
-3.959,-0.04993701351651855,-1.322489842955616
-3.9585,-0.06060718837420119,-1.460246142222792
-3.958,-0.1459685872356623,-1.492036057438295
-3.9575,-0.1779791118087102,-1.396666311791788
-3.957,-0.1673089369510276,-1.227120097309109
-3.9565,-0.1459685872356623,-1.004590690800593
-3.956,-0.124628237520297,-0.718481453861072
-3.9555,0.1848068333524996,-0.1462629799820306
-3.955,0.9850699476786977,0.8074344764830383
-3.9545,1.817343586577944,1.697552102517103
-3.954,1.998736559158548,1.920081509025619
-3.9535,0.9850699476786977,0.9345941373450475
-3.953,0.4515612047945656,-0.1568596183871981
-3.9525,0.2061471830678648,-0.3370024712750445
-3.952,0.01408403562957729,0.2140227257936621
-3.9515,-0.09261771294724913,0.92399749893988
-3.951,-0.1459685872356623,1.549199164844759
-3.9505,-0.156638762093345,1.994257977861791
-3.95,-0.156638762093345,2.269770576396144
-3.9495,-0.1459685872356623,2.407526875663321
-3.949,-0.124628237520297,2.449913429283991
-3.9485,-0.1139580626626144,2.396930237258153
-3.948,-0.1139580626626144,2.259173937990977
-3.9475,-0.1459685872356623,2.015451254672126
-3.947,-0.4127229586777283,1.220703374284568
-3.9465,-0.5407650569699201,0.1186529801471552
-3.946,-0.5834457564006506,-0.8562377531282487
-3.9455,-0.807519428411986,-1.51322933424863
-3.945,-0.8288597781273515,-1.449649503817625
-3.9445,-0.6047861061160158,-1.078767159636765
-3.944,-0.3807124341046804,-0.8244478379127463
-3.9435,-0.2099896363817582,-0.7820612842920766
-3.943,-0.1032878878049318,-0.9410108603695881
-3.9425,-0.06060718837420119,-1.174136905283272
-3.942,-0.04993701351651855,-1.38606967338662
-3.9415,-0.06060718837420119,-1.545019249464132
-3.941,-0.08194753808956648,-1.523825972653797
-3.9405,-0.1032878878049318,-1.396666311791788
-3.94,-0.1139580626626144,-1.195330182093607
-3.9395,-0.1139580626626144,-0.9622041371799229
-3.939,0.05676473506030786,-0.8032545611024114
-3.9385,0.8036769750980928,-0.8774310299385835
-3.938,1.657290963712704,-0.4323722169215513
-3.9375,2.201469881454519,0.5213252395435176
-3.937,1.774662887147213,0.5213252395435176
-3.9365,1.315845368266859,-0.1568596183871981
-3.936,0.8143471499557753,-0.2310360872233701
-3.9355,0.3555296310754218,0.2458126410091644
-3.935,0.04609456020262521,0.8604176685088755
-3.9345,-0.124628237520297,1.390249588767247
-3.934,-0.1886492866663929,1.79292184816361
-3.9335,-0.1993194615240755,2.047241169887628
-3.933,-0.1779791118087102,2.184997469154805
-3.9325,-0.156638762093345,2.237980661180642
-3.932,-0.1352984123779797,2.216787384370307
-3.9315,-0.124628237520297,2.1214176387238
-3.931,-0.1352984123779797,1.909484870620451
-3.9305,-0.3273615598162672,1.199510097474233
-3.93,-0.2206598112394408,0.2034260873884947
-3.9295,-0.1673089369510276,-0.7290780922662394
-3.929,-0.2846808603855366,-1.396666311791788
-3.9285,-0.3700422592469978,-1.38606967338662
-3.928,-0.3487019095316325,-1.046977244421262
-3.9275,-0.2633405106701714,-0.7714646458869092
-3.927,-0.1779791118087102,-0.7078848154559045
-3.9265,-0.1139580626626144,-0.8350444763179138
-3.926,-0.07127736323188383,-1.01518732920576
-3.9255,-0.04993701351651855,-1.237716735714276
-3.925,-0.007256314085787988,-1.396666311791788
-3.9245,0.05676473506030786,-1.460246142222792
-3.924,0.02475421048725994,-1.375473034981453
-3.9235,-0.02859666380115328,-1.227120097309109
-3.923,-0.08194753808956648,-1.01518732920576
-3.9225,-0.06060718837420119,-0.7078848154559045
-3.922,0.4195506802215176,0.07626642652648545
-3.9215,1.049090996824793,0.8286277532933731
-3.921,1.529248865420512,0.4153588554918433
-3.9205,1.230483969405398,-0.4429688553267188
-3.92,0.2168173579255475,-1.110557074852267
-3.9195,-0.1673089369510276,-1.110557074852267
-3.919,-0.274010685527854,-0.3052125560595421
-3.9185,-0.274010685527854,0.6590815388106942
-3.918,-0.2313299860971235,1.453829419198252
-3.9175,-0.1886492866663929,1.973064701051456
-3.917,-0.156638762093345,2.259173937990977
-3.9165,-0.1352984123779797,2.354543683637484
-3.916,-0.124628237520297,2.343947045232316
-3.9155,-0.1139580626626144,2.248577299585809
-3.915,-0.1139580626626144,2.089627723508298
-3.9145,-0.124628237520297,1.856501678594614
-3.914,-0.2633405106701714,1.33726639674141
-3.9135,-0.3273615598162672,0.4789386859228479
-3.913,-0.02859666380115328,-0.5383386009732256
-3.9125,0.3982103305061524,-1.42845622700729
-3.912,0.4515612047945656,-1.735758740757146
-3.9115,0.2488278824985954,-1.439052865412457
-3.911,0.05676473506030786,-1.110557074852267
-3.9105,-0.04993701351651855,-0.9939940523954253
-3.91,-0.09261771294724913,-1.068170521231597
-3.9095,-0.1139580626626144,-1.237716735714276
-3.909,-0.1032878878049318,-1.375473034981453
-3.9085,-0.07127736323188383,-1.460246142222792
-3.908,0.01408403562957729,-1.439052865412457
-3.9075,0.01408403562957729,-1.333086481360783
-3.907,-0.02859666380115328,-1.174136905283272
-3.9065,-0.07127736323188383,-0.9410108603695881
-3.906,-0.09261771294724913,-0.6549016234300674
-3.9055,0.2381577076409128,-0.09327978795619347
-3.905,1.059761171682476,0.849821030103708
-3.9045,1.849354111150991,1.686955464111935
-3.904,2.062757608304644,1.782325209758442
-3.9035,1.241154144263081,0.849821030103708
-3.903,0.5369226036560266,-0.1356663415768632
-3.9025,0.1314559590640864,-0.1992461720078678
-3.902,-0.09261771294724913,0.383568940276341
-3.9015,-0.1886492866663929,1.093543713422559
-3.901,-0.2099896363817582,1.686955464111935
-3.9005,-0.1993194615240755,2.1214176387238
-3.9,-0.1779791118087102,2.375736960447818
-3.8995,-0.156638762093345,2.49229998290466
-3.899,-0.1459685872356623,2.502896621309828
-3.8985,-0.1352984123779797,2.439316790878823
-3.898,-0.1352984123779797,2.280367214801311
-3.8975,-0.1673089369510276,1.962468062646288
-3.897,-0.1779791118087102,1.273686566310405
-3.8965,0.1634664836371343,0.3517790250608387
-3.896,0.3661998059331045,-0.6549016234300674
-3.8955,0.3555296310754218,-1.163540266878104
-3.895,0.1848068333524996,-1.046977244421262
-3.8945,0.04609456020262521,-0.8138511995075789
-3.894,-0.06060718837420119,-0.7502713690765743
-3.8935,-0.1139580626626144,-0.8774310299385835
-3.893,-0.124628237520297,-1.0999604364471
-3.8925,-0.124628237520297,-1.322489842955616
-3.892,-0.1139580626626144,-1.492036057438295
-3.8915,-0.124628237520297,-1.545019249464132
-3.891,-0.1352984123779797,-1.492036057438295
-3.8905,-0.1352984123779797,-1.333086481360783
-3.89,-0.1352984123779797,-1.121153713257435
-3.8895,-0.1352984123779797,-0.8562377531282487
-3.889,-0.007256314085787988,-0.5171453241628908
-3.8885,0.6649647019482183,0.07626642652648545
-3.888,1.443887466559051,-0.008506680714854012
-3.8875,1.849354111150991,-0.5595318777835605
