Class_7_Listen_To_Music/Class_7_Listen_To_Music_1_UZ_1.csv

#Digilent WaveForms Oscilloscope Acquisition
#Device Name: EExplorer
#Serial Number: SN:210151A2B84A
#Date Time: 2020-11-17 10:37:19.098
#Sample rate: 2000Hz
#Samples: 16384
#Trigger: Source: Channel 1 Type: Edge Condition: Rising Level: 0 V Hyst.: Auto HoldOff: 0 s
#Channel 1: Range: 1 V/div Offset: 0 V Attenuation: 1 X
#Channel 2: Range: 1 V/div Offset: 0 V Attenuation: 1 X
#Power Supplies: ON
#Fixed Supply: ON
#Voltage: 3.3 V Readback: 3.326 V
#Positive Supply: ON
#Voltage: 3.7 V Readback: 3.716 V
#Current: 40 mA Readback: 21 mA
#Negative Supply: ON
#Voltage: -3.7 V Readback: -3.342 V
#Current: -40 mA Readback: -7 mA
#Reference 1: ON
#Voltage: 0 V
#Reference 2: ON
#Voltage: 0 V

Time (s),Channel 1 (V),Channel 2 (V)
-4.096,0.1634664836371343,-0.1038764263613609
-4.0955,-0.007256314085632709,0.03387987290569044
-4.095,-0.09261771294726855,0.150442895362725
-4.0945,-0.1139580626626144,0.2246193641988295
-4.094,-0.1032878878049415,0.3093924714400919
-4.0935,-0.1032878878049512,0.3623756634660543
-4.093,-0.124628237520297,0.4153588554918433
-4.0925,-0.1139580626626241,0.47893868592279
-4.092,-0.1032878878049123,0.5319218779487236
-4.0915,-0.08194753808956648,0.5743084315693548
-4.091,-0.1673089369510276,0.4047622170866759
-4.0905,-0.64746680554696,-0.241632725629164
-4.09,-0.8822106524157645,-0.9304142219644207
-4.0895,-0.7008176798351597,-1.47084278062796
-4.089,-0.6581369804044679,-1.778145294377536
-4.0885,-0.572775581542968,-1.34368311976595
-4.088,-0.391382608962363,-0.6760949002404023
-4.0875,-0.231329986097269,-0.1356663415773547
-4.087,-0.1246282375202291,0.1822328105782658
-4.0865,-0.04993701351651855,0.2987958330350016
-4.086,-0.02859666380117269,0.2881991946298438
-4.0855,-0.02859666380115328,0.2140227257935657
-4.085,-0.02859666380115328,0.1080563417419877
-4.0845,-0.03926683865882621,0.01268659609556759
-4.084,-0.02859666380114357,-0.04029659593039486
-4.0835,-0.01792648894347063,-0.08268314955102604
-4.083,-0.007256314085787988,-0.09327978795619347
-4.0825,0.3128489316453317,0.2246193641994559
-4.082,1.017080472251745,0.9134008605347127
-4.0815,1.422547116843686,1.082947075017392
-4.081,1.603940089424126,0.4683420475182395
-4.0805,1.326515543124542,0.08686306493165288
-4.08,0.8356874996711408,-0.09327978795619347
-4.0795,0.3875401556488773,-0.1356663415768246
-4.079,0.09944543449089287,-0.1038764263612838
-4.0785,-0.06060718837420119,-0.01910331912002144
-4.078,-0.1139580626625659,0.0974597033367143
-4.0775,-0.124628237520297,0.2246193641989259
-4.077,-0.124628237520297,0.3305857482505039
-4.0765,-0.2846808603853911,0.2246193641989259
-4.076,-0.3487019095315743,0.2352160026041319
-4.0755,-0.2846808603855366,0.383568940276341
-4.075,-0.1993194615240755,0.5425185163538525
-4.0745,-0.1673089369511538,0.5743084315689501
-4.074,-0.3060212101009019,0.1292496185523226
-4.0735,-0.5300948821122373,-0.5489352393783931
-4.073,-0.5514352318275834,-1.046977244420809
-4.0725,-0.6367966306890638,-1.269506650929778
-4.072,-0.754168554123573,-1.152943628472937
-4.0715,-0.6047861061161517,-0.6125150698098891
-4.071,-0.4020527838198807,-0.09327978795589471
-4.0705,-0.2206598112394408,0.2352160026039969
-4.07,-0.1032878878050385,0.3729723018710483
-4.0695,-0.04993701351649914,0.3623756634659194
-4.069,-0.02859666380115328,0.2670059178194992
-4.0685,-0.02859666380115328,0.13984625695749
-4.068,-0.03926683865883591,0.002089957690207408
-4.0675,-0.03926683865883591,-0.1144730647665284
-4.067,-0.04993701351651855,-0.1992461720078678
-4.0665,-0.03926683865867094,-0.2416327256283833
-4.066,0.142126133921769,-0.07208651114585861
-4.0655,0.7503261008096795,0.3623756634660061
-4.065,1.081101521397541,0.1822328105783236
-4.0645,1.219813794547716,-0.5277419625680583
-4.064,1.070431346540159,-0.8138511995075789
-4.0635,0.6863050516639332,-0.7078848154560009
-4.063,0.3235191065021507,-0.474758770542009
-4.0625,0.07810508477567314,-0.2416327256285375
-4.062,-0.06060718837407504,-0.06148987274085502
-4.0615,-0.1032878878049415,0.08686306493174926
-4.061,-0.1139580626626144,0.1928294489833272
-4.0605,-0.1032878878049318,0.2881991946298341
-4.06,-0.2206598112395767,0.2140227257935657
-4.0595,-0.3700422592469978,0.1080563417419877
-4.059,-0.3380317346739499,0.2034260873884947
-4.0585,-0.2420001609548934,0.3623756634658616
-4.058,-0.1673089369510276,0.4789386859228479
-4.0575,-0.274010685527854,0.1610395337678249
-4.057,-0.4660738329659668,-0.5065486857571162
-4.0565,-0.4767440078238243,-1.110557074852267
-4.056,-0.3380317346739499,-1.523825972653797
-4.0555,-0.5514352318274087,-1.661582271920848
-4.055,-0.5834457564005341,-1.163540266877497
-4.0545,-0.4554036581084589,-0.4959520473525559
-4.054,-0.2846808603856919,0.01268659609501821
-4.0535,-0.156638762093277,0.2987958330350787
-4.053,-0.08194753808956648,0.383568940276341
-4.0525,-0.04993701351651855,0.3411823866556712
-4.052,-0.03926683865883591,0.2458126410090487
-4.0515,-0.03926683865883591,0.1186529801471552
-4.051,-0.03926683865883591,0.01268659609548085
-4.0505,-0.03926683865883591,-0.0720865111457815
-4.05,-0.02859666380115328,-0.1250697031716958
-4.0495,0.0674349099179905,-0.05089323433552374
-4.049,0.6116138276593102,0.5001319627326817
-4.0485,1.230483969405719,1.019367244585973
-4.048,1.582599739708926,0.5637117931641874
-4.0475,1.699971663143328,-0.1674562567917005
-4.047,1.305175193408672,-0.4111789401111876
-4.0465,0.7503261008096795,-0.3793890248957141
-4.046,0.3021787567874162,-0.231036087223505
-4.0455,0.03542438534482612,-0.06148987274055625
-4.045,-0.09261771294724913,0.08686306493165288
-4.0445,-0.1459685872356623,0.2034260873884947
-4.044,-0.1352984123779991,0.3093924714401979
-4.0435,-0.156638762093345,0.3411823866556712
-4.043,-0.274010685527854,0.2352160026039969
-4.0425,-0.2633405106701811,0.2776025562246281
-4.042,-0.2099896363817582,0.3941655786815084
-4.0415,-0.156638762093345,0.4895353243280153
-4.041,-0.2740106855277473,0.3411823866558061
-4.0405,-0.8822106524161915,-0.3052125560601782
-4.04,-1.351698346153801,-1.004590690800593
-4.0395,-1.426389570157511,-1.513229334248167
-4.039,-1.458400094730462,-1.831128486403344
-4.0385,-1.277007122150022,-1.492036057438295
-4.038,-0.8608703027007777,-0.79265792269788
-4.0375,-0.4767440078235816,-0.1780528951971956
-4.037,-0.2099896363817582,0.1928294489833272
-4.0365,-0.07127736323188383,0.3517790250608387
-4.036,-0.007256314085787988,0.3517790250607616
-4.0355,-0.007256314085787988,0.2670059178194992
-4.035,-0.01792648894347063,0.1610395337678249
-4.0345,-0.02859666380114357,0.04447651131108916
-4.034,-0.03926683865883591,-0.04029659593035631
-4.0335,-0.03926683865883591,-0.1038764263613609
-4.033,-0.01792648894349003,-0.1250697031716765
-4.0325,0.1634664836375613,0.1398462569580683
-4.032,0.6329541773751706,0.775644561267536
-4.0315,1.17713309511649,1.273686566309952
-4.031,1.294505018551193,0.9875773293704221
-4.0305,0.9637295979633325,0.4789386859228479
-4.03,0.5369226036564148,0.0550731497165361
-4.0295,0.2168173579253631,-0.1992461720079449
-4.029,0.01408403562957729,-0.2840192792492073
-4.0285,-0.09261771294724913,-0.2416327256285375
-4.028,-0.1139580626626144,-0.1250697031715512
-4.0275,-0.1139580626626144,0.03387987290581572
-4.027,-0.1139580626626144,0.1928294489833272
-4.0265,-0.4020527838197837,0.0232832345008025
-4.026,-0.658136980404429,-0.1780528951975329
-4.0255,-0.5941159312583333,0.01268659609548085
-4.025,-0.4233931335355662,0.3411823866553725
-4.0245,-0.2953510352433164,0.5637117931638983
-4.024,-0.4020527838200457,0.2458126410091644
-4.0235,-0.4980843575391022,-0.3475991096796722
-4.023,-0.3380317346739014,-0.8244478379129102
-4.0225,-0.2846808603855366,-1.004590690800593
-4.022,-0.6581369804040893,-0.9833974139902771
-4.0215,-0.679477330119639,-0.4853554089468777
-4.021,-0.5087545323968721,0.07626642652648545
-4.0205,-0.3060212101009019,0.457745409112513
-4.02,-0.16730893695095,0.6060983467848378
-4.0195,-0.08194753808956648,0.5849050699745222
-4.019,-0.03926683865883591,0.457745409112513
-4.0185,-0.02859666380116298,0.2776025562248305
-4.018,-0.02859666380115328,0.08686306493165288
-4.0175,-0.03926683865883591,-0.09327978795619347
-4.017,-0.02859666380116298,-0.2310360872232448
-4.0165,-0.02859666380099801,-0.3370024712749192
-4.016,0.142126133921769,-0.1992461720078678
-4.0155,0.7930068002398181,0.4683420475170733
-4.015,1.347855892840131,0.8074344764825275
-4.0145,1.593269914566608,0.2458126410091644
-4.014,1.369196242555476,-0.1568596183868319
-4.0135,0.8783681991014637,-0.3370024712750734
-4.013,0.4302208550792003,-0.3687923864905467
-4.0125,0.1101156093487211,-0.326405832869877
-4.012,-0.04993701351657678,-0.2204394488180966
-4.0115,-0.1139580626626144,-0.1038764263613609
-4.011,-0.1352984123779797,0.002089957690313421
-4.0105,-0.1139580626626338,0.1398462569573647
-4.01,-0.1352984123779797,0.2034260873884947
-4.0095,-0.1459685872356623,0.2564092794143318
-4.009,-0.1246282375203164,0.3835689402762253
-4.0085,-0.1032878878049221,0.5213252395436043
-4.008,-0.09261771294724913,0.6166949851900245
-4.0075,-0.2313299860969973,0.3411823866559218
-4.007,-0.3060212101008437,-0.2734226408445795
-4.0065,-0.2420001609548061,-0.8668343915334161
-4.006,-0.08194753808956648,-1.290699927740113
-4.0055,-0.3060212101010184,-1.449649503817211
-4.005,-0.4340633083930936,-0.9939940523954253
-4.0045,-0.3700422592469978,-0.326405832869877
-4.004,-0.2633405106700744,0.1928294489835874
-4.0035,-0.156638762093345,0.4789386859228479
-4.003,-0.09261771294724913,0.5637117931641874
-4.0025,-0.06060718837423031,0.5001319627332407
-4.002,-0.04993701351651855,0.3729723018711736
-4.0015,-0.03926683865883591,0.2246193641988295
-4.001,-0.04993701351650885,0.06566978812146257
-4.0005,-0.03926683865882621,-0.04029659593044305
-4,-0.02859666380115328,-0.1356663415768632
-3.9995,0.02475421048725994,-0.1568596183871981
-3.999,0.5582629533713921,0.2987958330350016
-3.9985,1.15579274540162,0.6590815388106942
-3.998,1.614610264281974,0.1186529801471552
-3.9975,1.667961138570387,-0.3475991096802118
-3.997,1.166462920259302,-0.400582301706049
-3.9965,0.6329541773751706,-0.3475991096802118
-3.996,0.2274875327832301,-0.2628260024388724
-3.9955,-0.007256314085787988,-0.1568596183871981
-3.995,-0.1139580626626144,-0.06148987274069118
-3.9945,-0.1459685872356623,0.03387987290581572
-3.994,-0.1352984123779797,0.1292496185523226
-3.9935,-0.1352984123779797,0.1822328105781598
-3.993,-0.2099896363817582,0.1504428953626575
-3.9925,-0.1993194615240755,0.2352160026039969
-3.992,-0.1673089369510276,0.3517790250608387
-3.9915,-0.124628237520297,0.4683420475176805
-3.991,-0.2099896363817582,0.4365521323021782
-3.9905,-0.7648387289812555,-0.1144730647665284
-3.99,-1.234326422719292,-0.8032545611024114
-3.9895,-1.159635198715513,-1.322489842955616
-3.989,-1.052933450138687,-1.555615887869299
-3.9885,-0.8502001278427167,-1.152943628472937
-3.988,-0.5407650569699201,-0.474758770542221
-3.9875,-0.2953510352432193,0.06566978812131802
-3.987,-0.1352984123779797,0.3941655786815084
-3.9865,-0.04993701351651855,0.5213252395435176
-3.986,-0.02859666380115328,0.4895353243280153
-3.9855,-0.01792648894347063,0.4047622170866759
-3.985,-0.03926683865883591,0.2776025562246667
-3.9845,-0.04993701351651855,0.1504428953626575
-3.984,-0.03926683865883591,0.04447651131098315
-3.9835,-0.04993701351651855,-0.05089323433552374
-3.983,-0.03926683865883591,-0.1144730647665284
-3.9825,0.1207857842064037,-0.01910331912002144
-3.982,0.5582629533713921,0.2776025562246667
-3.9815,0.7716664505250448,-0.04029659593035631
-3.981,0.8036769750980928,-0.5489352393783931
-3.9805,0.6542945270905358,-0.6125150698093976
-3.98,0.3982103305061524,-0.5913217929990628
-3.9795,0.1527963087794516,-0.5171453241628908
-3.979,0.01408403562957729,-0.3899856633008816
-3.9785,-0.07127736323188383,-0.2628260024388724
-3.978,-0.09261771294724913,-0.1462629799820306
-3.9775,-0.1139580626626144,-0.02969995752518888
-3.977,-0.1032878878049318,0.09745970333682032
-3.9765,-0.1779791118087102,0.1080563417419877
-3.976,-0.1993194615240755,0.1716361721729923
-3.9755,-0.1673089369510276,0.3199891098453364
-3.975,-0.1352984123779797,0.4683420475176805
-3.9745,-0.1139580626626144,0.5849050699745222
-3.974,-0.2953510352432193,0.2776025562246667
-3.9735,-0.5194247072545548,-0.3052125560595421
-3.973,-0.4340633083930936,-0.8456411147230812
-3.9725,-0.2953510352432193,-1.237716735714276
-3.972,-0.3807124341046804,-1.131750351662602
-3.9715,-0.3380317346739499,-0.5383386009732256
-3.971,-0.2420001609548061,0.05507314971615059
-3.9705,-0.156638762093345,0.457745409112513
-3.97,-0.09261771294724913,0.6378882620003594
-3.9695,-0.06060718837420119,0.6484849004055269
-3.969,-0.04993701351651855,0.5637117931641874
-3.9685,-0.04993701351651855,0.4259554938970107
-3.968,-0.04993701351651855,0.2670059178194992
-3.9675,-0.04993701351651855,0.1292496185523226
-3.967,-0.04993701351651855,0.01268659609548085
-3.9665,-0.03926683865883591,-0.08268314955102604
-3.966,0.1314559590640864,0.04447651131098315
-3.9655,0.7716664505250448,0.6484849004055269
-3.965,1.443887466559051,1.072350436612224
-3.9645,1.945385684870135,0.5425185163538525
-3.964,1.849354111150991,0.04447651131098315
-3.9635,1.262494493978446,-0.2204394488182027
-3.963,0.6542945270905358,-0.3370024712750445
-3.9625,0.2168173579255475,-0.3581957480853793
-3.962,-0.02859666380115328,-0.2946159176543747
-3.9615,-0.124628237520297,-0.1886495336027004
-3.961,-0.156638762093345,-0.08268314955102604
-3.9605,-0.1459685872356623,0.04447651131098315
-3.96,-0.2313299860971235,0.05507314971615059
-3.9595,-0.3593720843893152,-0.008506680714854012
-3.959,-0.3380317346739499,0.1186529801471552
-3.9585,-0.2526703358124887,0.309392471440169
-3.958,-0.1779791118087102,0.4895353243280153
-3.9575,-0.1779791118087102,0.4259554938970107
-3.957,-0.3273615598162672,-0.1356663415768632
-3.9565,-0.3166913849585846,-0.7608680074817418
-3.956,-0.06060718837420119,-1.216523458903942
-3.9555,-0.2420001609548061,-1.417859588602123
-3.955,-0.391382608962363,-1.01518732920576
-3.9545,-0.3487019095316325,-0.3370024712750445
-3.954,-0.2526703358124887,0.2034260873884947
-3.9535,-0.1673089369510276,0.5213252395435176
-3.953,-0.1032878878049318,0.6166949851900245
-3.9525,-0.07127736323188383,0.5743084315693548
-3.952,-0.06060718837420119,0.457745409112513
-3.9515,-0.06060718837420119,0.2987958330350016
-3.951,-0.06060718837420119,0.1504428953626575
-3.9505,-0.06060718837420119,0.01268659609548085
-3.95,-0.06060718837420119,-0.09327978795619347
-3.9495,0.01408403562957729,-0.1038764263613609
-3.949,0.5475927785137094,0.3517790250608387
-3.9485,1.102441871113207,0.4471487707073456
-3.948,1.411876941986003,-0.2204394488182027
-3.9475,1.305175193409177,-0.6760949002404023
-3.947,0.9103787236749192,-0.6760949002404023
-3.9465,0.4729015545099309,-0.5807251545938954
-3.946,0.1527963087794516,-0.4429688553267188
-3.9455,-0.02859666380115328,-0.3158091944647096
-3.945,-0.1139580626626144,-0.1992461720078678
-3.9445,-0.1352984123779797,-0.09327978795619347
-3.944,-0.124628237520297,0.01268659609548085
-3.9435,-0.1459685872356623,0.09745970333682032
-3.943,-0.2633405106701714,0.04447651131098315
-3.9425,-0.274010685527854,0.1292496185523226
-3.942,-0.2313299860971235,0.2881991946298341
-3.9415,-0.1673089369510276,0.4471487707073456
-3.941,-0.2206598112394408,0.4365521323021782
-3.9405,-0.722158029550525,-0.05089323433552374
-3.94,-1.042263275281004,-0.6443049850249
-3.9395,-0.8822106524157645,-1.121153713257435
-3.939,-0.8288597781273515,-1.407262950196955
-3.9385,-0.8715404775580819,-1.227120097309109
-3.938,-0.6688071552621118,-0.5807251545938954
-3.9375,-0.423393133535411,0.03387987290581572
-3.937,-0.2206598112394408,0.4365521323021782
-3.9365,-0.1032878878049318,0.5955017083796896
-3.936,-0.04993701351651855,0.5955017083796896
-3.9355,-0.03926683865883591,0.5001319627331828
-3.935,-0.03926683865883591,0.3517790250608387
-3.9345,-0.04993701351651855,0.2034260873884947
-3.934,-0.04993701351651855,0.06566978812131802
-3.9335,-0.04993701351651855,-0.05089323433552374
-3.933,-0.02859666380115328,-0.1250697031716958
-3.9325,0.2488278824985954,0.1716361721729923
-3.932,0.9210488985326017,0.8074344764830383
-3.9315,1.475897991132099,0.9345941373450475
-3.931,1.742652362574165,0.2352160026039969
-3.9305,1.465227816274416,-0.252229364033705
-3.93,0.9103787236749192,-0.4217755785163839
-3.9295,0.4195506802215176,-0.4217755785163839
-3.929,0.08877525963335578,-0.3158091944647096
-3.9285,-0.07127736323188383,-0.1992461720078678
-3.928,-0.1459685872356623,-0.08268314955102604
-3.9275,-0.1459685872356623,0.03387987290581572
-3.927,-0.1352984123779797,0.1504428953626575
-3.9265,-0.2526703358124887,0.07626642652648545
-3.926,-0.3060212101009019,0.08686306493165288
-3.9255,-0.2526703358124887,0.2352160026039969
-3.925,-0.1886492866663929,0.4153588554918433
-3.9245,-0.156638762093345,0.5213252395435176
-3.924,-0.4554036581084589,0.1610395337678249
-3.9235,-0.8502001278427167,-0.4853554089473885
-3.923,-0.8181896032696687,-1.068170521231597
-3.9225,-0.5941159312583333,-1.460246142222792
-3.922,-0.5514352318276028,-1.38606967338662
-3.9215,-0.4127229586777283,-0.7608680074817418
-3.921,-0.2633405106701714,-0.1144730647665284
-3.9205,-0.156638762093345,0.3199891098453364
-3.92,-0.09261771294724913,0.5213252395435176
-3.9195,-0.06060718837420119,0.5425185163538525
-3.919,-0.04993701351651855,0.4683420475176805
-3.9185,-0.04993701351651855,0.3411823866556712
-3.918,-0.06060718837420119,0.2034260873884947
-3.9175,-0.04993701351651855,0.07626642652648545
-3.917,-0.03926683865883591,0.002089957690313421
-3.9165,-0.02859666380115328,-0.08268314955102604
-3.916,0.0674349099179905,-0.008506680714854012
-3.9155,0.5155822539406614,0.55311515475902
-3.915,1.262494493978446,1.241896651094903
-3.9145,1.838683936293309,1.739938656137773
-3.914,1.678631313428069,1.623375633680931
-3.9135,1.113112045970889,0.9875773293708847
-3.913,0.5582629533713921,0.3517790250608387
-3.9125,0.1634664836371343,-0.06148987274069118
-3.912,-0.04993701351651855,-0.2310360872233701
-3.9115,-0.1352984123779797,-0.2310360872233701
-3.911,-0.156638762093345,-0.1250697031716958
-3.9105,-0.1459685872356623,0.04447651131098315
-3.91,-0.1993194615240755,0.1504428953626575
-3.9095,-0.2846808603855366,0.2140227257936621
-3.909,-0.2633405106701714,0.3729723018711736
-3.9085,-0.2099896363817582,0.5637117931641874
-3.908,-0.1673089369510276,0.7226613692416989
-3.9075,-0.3166913849585846,0.55311515475902
-3.907,-0.8288597781273515,-0.05089323433552374
-3.9065,-1.415719395299897,-0.6443049850249
-3.906,-1.543761493592088,-1.046977244421262
-3.9055,-1.479740444445993,-1.227120097309109
-3.905,-1.180975548430879,-0.8562377531282487
-3.9045,-0.754168554123573,-0.2204394488182027
-3.904,-0.391382608962363,0.309392471440169
-3.9035,-0.1673089369510276,0.5849050699745222
-3.903,-0.06060718837420119,0.6378882620003594
-3.9025,-0.01792648894347063,0.5637117931641874
-3.902,-0.01792648894347063,0.4047622170866759
-3.9015,-0.03926683865883591,0.2140227257936621
-3.901,-0.04993701351651855,0.03387987290581572
-3.9005,-0.04993701351651855,-0.1356663415768632
-3.9,-0.04993701351651855,-0.252229364033705
-3.8995,-0.007256314085787988,-0.3052125560595421
-3.899,0.3661998059331045,0.04447651131098315
-3.8985,1.017080472251745,0.6908714540261965
-3.898,1.262494493978446,0.5425185163538525
-3.8975,1.102441871113207,0.1186529801471552
-3.897,0.7503261008096795,-0.09327978795619347
-3.8965,0.3768699807907871,-0.252229364033705
-3.896,0.1101156093487211,-0.326405832869877
-3.8955,-0.03926683865883591,-0.3158091944647096
-3.895,-0.1139580626626144,-0.2628260024388724
-3.8945,-0.124628237520297,-0.1568596183871981
-3.894,-0.124628237520297,-0.01910331912002144
-3.8935,-0.1352984123779797,0.08686306493165288
-3.893,-0.274010685527854,0.07626642652648545
-3.8925,-0.2846808603855366,0.1928294489833272
-3.892,-0.2313299860971235,0.3729723018711736
-3.8915,-0.1673089369510276,0.5637117931641874
-3.891,-0.2420001609548061,0.5637117931641874
-3.8905,-0.7648387289812555,0.05507314971615059
