Class_7_Listen_To_Music/Class_7_Listen_To_Music_Basim_13.csv

#Digilent WaveForms Oscilloscope Acquisition
#Device Name: EExplorer
#Serial Number: SN:210151A2B84A
#Date Time: 2021-02-07 15:57:49.194
#Sample rate: 2000Hz
#Samples: 16384
#Trigger: Source: Channel 1 Type: Edge Condition: Rising Level: 0 V Hyst.: Auto HoldOff: 0 s
#Channel 1: Range: 1 V/div Offset: 0 V Attenuation: 1 X
#Channel 2: Range: 1 V/div Offset: 0 V Attenuation: 1 X
#Power Supplies: ON
#Fixed Supply: ON
#Voltage: 3.3 V Readback: 3.331 V
#Positive Supply: ON
#Voltage: 3.7 V Readback: 3.717 V
#Current: 40 mA Readback: 17 mA
#Negative Supply: ON
#Voltage: -3.7 V Readback: -3.697 V
#Current: -40 mA Readback: -2 mA
#Reference 1: ON
#Voltage: 0 V
#Reference 2: ON
#Voltage: 0 V

Time (s),Channel 1 (V),Channel 2 (V)
-4.096,-0.1352984123779797,0.9557874141553824
-4.0955,0.07810508477547903,-0.01910331911913477
-4.095,0.2701682322139898,-0.7502713690767285
-4.0945,0.3021787567870086,-0.9198175835592532
-4.094,0.2168173579256251,-0.7290780922664128
-4.0935,0.1101156093486337,-0.43237221692132
-4.093,0.01408403562957729,-0.1780528951975329
-4.0925,-0.02859666380111446,-0.019103319120166
-4.092,0.0887752596333946,-0.1356663415768728
-4.0915,0.1314559590640864,-0.1462629799820306
-4.091,0.07810508477567314,-0.04029659593035631
-4.0905,0.003413860771836423,0.07626642652656256
-4.09,-0.06060718837420119,0.1610395337678249
-4.0895,-0.2420001609548061,0.2670059178194992
-4.089,-0.9248913518458741,0.690871454025811
-4.0885,-1.682473766741963,1.231300012689736
-4.088,-2.23732285934146,1.655165548896433
-4.0875,-2.365364957633536,1.665762187301591
-4.087,-1.75716499074511,1.040560521396076
-4.0865,-1.06360362499637,0.3305857482505039
-4.086,-0.5300948821127226,-0.1674562567919125
-4.0855,-0.2099896363816223,-0.4323722169216188
-4.085,-0.06060718837420119,-0.5065486857577234
-4.0845,-0.01792648894350944,-0.4535654937319344
-4.084,-0.02859666380117269,-0.3370024712749095
-4.0835,-0.04993701351651855,-0.1886495336027004
-4.083,-0.07127736323188383,-0.04029659593035631
-4.0825,-0.09261771294724913,0.108056341742113
-4.082,-0.09261771294724913,0.2458126410091644
-4.0815,-0.09261771294724913,0.3517790250608387
-4.081,-0.1459685872356138,0.542518516353679
-4.0805,-0.5407650569699201,0.9875773293708847
-4.08,-0.8928808272734472,1.358459673551745
-4.0795,-0.9035510021311203,1.294879843120798
-4.079,-0.5300948821118685,0.584905069973915
-4.0785,-0.124628237520297,-0.08268314955102604
-4.078,0.09944543449083465,-0.347599109679971
-4.0775,0.1527963087794225,-0.3370024712749481
-4.077,0.1207857842064037,-0.2310360872233701
-4.0765,0.05676473506036608,-0.1038764263614766
-4.076,0.003413860771933468,0.01268659609538448
-4.0755,0.04609456020262521,-0.09327978795619347
-4.075,0.142126133921769,-0.3158091944647096
-4.0745,0.1101156093486531,-0.2310360872231966
-4.074,0.03542438534494258,-0.04029659593035631
-4.0735,-0.02859666380115328,0.1292496185523226
-4.073,-0.1032878878048638,0.2352160026039006
-4.0725,-0.4447334832507763,0.5213252395435176
-4.072,-1.191645723288561,1.019367244586387
-4.0715,-1.575772018164787,1.337266396741121
-4.071,-1.426389570157191,1.178316820663378
-4.0705,-0.9995825758502737,0.6060983467848571
-4.07,-0.583445756401029,0.04447651131149399
-4.0695,-0.2846808603853814,-0.3264058328700505
-4.069,-0.1139580626626144,-0.5171453241628908
-4.0685,-0.04993701351651855,-0.5489352393783931
-4.068,-0.02859666380116298,-0.4853554089472921
-4.0675,-0.03926683865883591,-0.3793890248957141
-4.067,-0.06060718837420119,-0.2628260024388724
-4.0665,-0.07127736323189353,-0.1250697031715705
-4.066,-0.08194753808956648,0.01268659609548085
-4.0655,-0.08194753808956648,0.13984625695749
-4.065,-0.07127736323189353,0.245812641009068
-4.0645,-0.04993701351651855,0.383568940276341
-4.064,-0.1459685872356623,0.7968378380778709
-4.0635,-0.6047861061155986,1.263089927904814
-4.063,-1.383708870726956,1.644568910491063
-4.0625,-1.501080794161358,1.42203950398275
-4.062,-0.988912400993057,0.5001319627340213
-4.0615,-0.4554036581081387,-0.1886495336030281
-4.061,-0.1032878878049318,-0.5489352393783931
-4.0605,0.05676473506030786,-0.6019184314042303
-4.06,0.07810508477564403,-0.4959520473524017
-4.0595,0.04609456020262521,-0.326405832869877
-4.059,0.04609456020262521,-0.2204394488182027
-4.0585,0.1207857842063358,-0.2310360872233605
-4.058,0.09944543449103843,-0.1038764263613609
-4.0575,0.03542438534494258,0.08686306493165288
-4.057,-0.0179264889434221,0.2458126410090198
-4.0565,-0.06060718837420119,0.383568940276341
-4.056,-0.274010685527854,0.6060983467848571
-4.0555,-0.9569018764189221,1.051157159801485
-4.055,-1.501080794161727,1.496215972819182
-4.0545,-1.906547438753298,1.782325209758442
-4.054,-1.821186039891915,1.528005888034655
-4.0535,-1.277007122149527,0.8392243916979816
-4.053,-0.7328282044082075,0.2246193641988295
-4.0525,-0.3380317346739499,-0.1674562567923655
-4.052,-0.1139580626625271,-0.3370024712750637
-4.0515,-0.01792648894347063,-0.3581957480853793
-4.051,0.00341386077189465,-0.2734226408440398
-4.0505,-0.007256314085778284,-0.1568596183873041
-4.05,-0.02859666380115328,-0.02969995752518888
-4.0495,-0.04993701351651855,0.09745970333682032
-4.049,-0.06060718837419149,0.2140227257935561
-4.0485,-0.06060718837419148,0.3093924714402461
-4.048,-0.04993701351651855,0.3941655786815084
-4.0475,0.2488278824983236,0.6696781772156111
-4.047,0.7076454013787161,1.157123543853939
-4.0465,0.4515612047945656,1.570392441655093
-4.046,-0.02859666380071657,1.528005888034462
-4.0455,-0.08194753808946943,0.553115154758143
-4.045,0.02475421048725994,-0.4111789401112165
-4.0445,0.07810508477567314,-0.8350444763179138
-4.044,0.07810508477564403,-0.8668343915332812
-4.0435,0.04609456020262521,-0.718481453861072
-4.043,0.00341386077189465,-0.4959520473525559
-4.0425,-0.01792648894345122,-0.2946159176545577
-4.042,0.00341386077189465,-0.08268314955102604
-4.0415,0.00341386077189465,0.07626642652648545
-4.041,-0.01792648894345122,0.1928294489832212
-4.0405,-0.03926683865885532,0.2776025562247341
-4.04,-0.06060718837420119,0.3517790250608387
-4.0395,-0.1032878878048929,0.4471487707072589
-4.039,-0.4767440078242804,0.7862411996730986
-4.0385,-0.9782422261349084,1.220703374284568
-4.038,-1.266336947292078,1.54919916484446
-4.0375,-1.319687821580452,1.475022696008066
-4.037,-0.9889124009925911,0.9028042221295453
-4.0365,-0.5941159312583333,0.309392471440169
-4.036,-0.2953510352430641,-0.09327978795636695
-4.0355,-0.124628237520297,-0.2840192792492073
-4.035,-0.03926683865883591,-0.3370024712750445
-4.0345,-0.01792648894349003,-0.2840192792492555
-4.034,-0.01792648894347063,-0.1992461720078678
-4.0335,-0.03926683865883591,-0.09327978795619347
-4.033,-0.04993701351650885,0.01268659609538447
-4.0325,-0.06060718837420119,0.1186529801472323
-4.032,-0.06060718837420119,0.2034260873884947
-4.0315,-0.04993701351652825,0.2670059178194414
-4.031,-0.08194753808993525,0.4365521323025829
-4.0305,-0.4874141826815069,0.8816109453192104
-4.03,-0.8715404775577326,1.273686566310049
-4.0295,-0.9355615267037701,1.411442865576879
-4.029,-0.4874141826815069,0.6378882620003594
-4.0285,-0.01792648894347063,-0.3793890248957141
-4.028,0.2274875327832592,-0.8880276683438088
-4.0275,0.2594980573562781,-0.9516074987747555
-4.027,0.2061471830678648,-0.8138511995075789
-4.0265,0.1207857842064813,-0.6125150698095807
-4.026,0.04609456020262521,-0.4217755785163839
-4.0255,0.05676473506030786,-0.400582301706049
-4.025,0.08877525963332666,-0.4111789401112068
-4.0245,0.05676473506026904,-0.2628260024386797
-4.024,0.01408403562957729,-0.05089323433552374
-4.0235,-0.02859666380111446,0.1292496185521588
-4.023,-0.07127736323219437,0.2881991946301618
-4.0225,-0.4127229586777283,0.6484849004055269
-4.022,-1.116954499284142,1.167720182258259
-4.0215,-1.703814116457668,1.612778995275985
-4.021,-2.07727023647622,1.856501678594614
-4.0205,-1.917217613610981,1.559795803249926
-4.02,-1.319687821580219,0.8498210301031394
-4.0195,-0.7328282044082075,0.2246193641988295
-4.019,-0.3166913849585846,-0.1780528951975329
-4.0185,-0.09261771294745291,-0.3475991096800576
-4.018,0.00341386077189465,-0.3475991096802118
-4.0175,0.02475421048725994,-0.2628260024388724
-4.017,0.014084035629587,-0.1462629799821367
-4.0165,-0.007256314085807397,-0.008506680714728723
-4.016,-0.02859666380115328,0.1292496185523226
-4.0155,-0.03926683865882621,0.2458126410090584
-4.015,-0.02859666380115328,0.341182386655758
-4.0145,-0.02859666380115328,0.4365521323021782
-4.014,-0.04993701351649914,0.7756445612672276
-4.0135,-0.3273615598167137,1.252493289500398
-4.013,-0.8181896032696687,1.612778995275763
-4.0125,-0.6794773301197943,1.188913459069066
-4.012,-0.1139580626622747,-0.01910331912078281
-4.0115,0.2594980573562781,-0.8562377531282487
-4.011,0.3661998059331045,-1.078767159636765
-4.0105,0.3128489316447398,-0.90922094515424
-4.01,0.1954770082101822,-0.6125150698093976
-4.0095,0.09944543449103843,-0.3475991096802118
-4.009,0.06743490991801962,-0.2098428104131605
-4.0085,0.1954770082101725,-0.2840192792491398
-4.008,0.1848068333524996,-0.2098428104130352
-4.0075,0.1207857842064619,-0.05089323433566831
-4.007,0.04609456020256699,0.08686306493174926
-4.0065,-0.01792648894347063,0.1928294489833272
-4.006,-0.2526703358124887,0.2881991946298341
-4.0055,-0.754168554123932,0.6590815388111086
-4.005,-1.148965023857831,1.114736990232894
-4.0045,-1.586442193022819,1.485619334413754
-4.004,-1.714484291314632,1.443232780792554
-4.0035,-1.298347471865388,0.8604176685088755
-4.003,-0.7755089038389382,0.2140227257936621
-4.0025,-0.3700422592473666,-0.2310360872229653
-4.002,-0.124628237520297,-0.4641621321370536
-4.0015,-0.007256314085787988,-0.5171453241628908
-4.001,0.02475421048723082,-0.4641621321371018
-4.0005,0.02475421048724053,-0.3475991096800962
-4,0.00341386077189465,-0.2204394488182027
-3.9995,-0.01792648894347063,-0.08268314955102604
-3.999,-0.02859666380115328,0.05507314971615059
-3.9985,-0.02859666380115328,0.1716361721729923
-3.998,-0.01792648894347063,0.2776025562246667
-3.9975,0.02475421048725994,0.5637117931641874
-3.997,-0.04993701351651855,1.019367244586387
-3.9965,-0.423393133535411,1.326669758336243
-3.996,-0.423393133535411,0.9769806909657173
-3.9955,-0.09261771294724913,0.002089957690313421
-3.995,0.2061471830678648,-0.7396747306714069
-3.9945,0.3021787567870086,-0.8562377531282487
-3.994,0.2594980573562781,-0.6549016234300674
-3.9935,0.1741366584948169,-0.400582301706049
-3.993,0.08877525963335578,-0.1992461720078678
-3.9925,0.04609456020262521,-0.06148987274069118
-3.992,0.2808384070716433,-0.2734226408440398
-3.9915,0.3982103305061524,-0.3793890248957141
-3.991,0.3128489316446912,-0.252229364033705
-3.9905,0.1848068333524996,-0.07208651114585861
-3.99,0.0674349099179905,0.07626642652648545
-3.9895,-0.08194753808956648,0.1928294489833272
-3.989,-0.6047861061160158,0.5955017083796896
-3.9885,-1.180975548430879,1.072350436612224
-3.988,-1.479740444445993,1.400846227172415
-3.9875,-1.373038695869166,1.316073119931075
-3.987,-0.9569018764195432,0.7332580076468663
-3.9865,-0.5407650569699201,0.1292496185523226
-3.986,-0.2313299860971235,-0.3052125560595421
-3.9855,-0.06060718837420119,-0.5171453241628908
-3.985,0.01408403562957729,-0.5807251545938954
-3.9845,0.02475421048725994,-0.5383386009732256
-3.984,0.01408403562957729,-0.4323722169215513
-3.9835,0.00341386077189465,-0.3158091944647096
-3.983,-0.01792648894347063,-0.1886495336027004
-3.9825,-0.02859666380115328,-0.05089323433552374
-3.982,-0.02859666380115328,0.06566978812131802
-3.9815,-0.01792648894347063,0.1716361721729923
-3.981,0.01408403562957729,0.3941655786815084
-3.9805,-0.4020527838200457,0.8392243916985406
-3.98,-0.7114878546928423,1.019367244586387
-3.9795,-0.8181896032696687,0.9663840525605498
-3.979,-0.4447334832507763,0.1292496185523226
-3.9785,0.00341386077189465,-0.718481453861072
-3.978,0.2488278824985954,-0.9728007755850904
-3.9775,0.3021787567870086,-0.8350444763179138
-3.977,0.2381577076409128,-0.5489352393783931
-3.9765,0.1527963087794516,-0.2734226408440398
-3.976,0.0674349099179905,-0.06148987274069118
-3.9755,0.0674349099179905,-0.02969995752518888
-3.975,0.08877525963335578,-0.06148987274069118
-3.9745,0.0674349099179905,0.01268659609548085
-3.974,0.03542438534494258,0.08686306493165288
-3.9735,0.00341386077189465,0.1610395337678249
-3.973,-0.03926683865883591,0.2352160026039969
-3.9725,-0.4660738329661415,0.5319218779486851
-3.972,-1.170305373573196,1.040560521396722
-3.9715,-1.586442193022819,1.390249588767247
-3.971,-1.725154466172693,1.496215972818921
-3.9705,-1.46907026958831,1.114736990232894
-3.97,-0.9462317015618604,0.457745409112513
-3.9695,-0.4874141826815069,-0.1038764263613609
-3.969,-0.1886492866663929,-0.4323722169215513
-3.9685,-0.02859666380115328,-0.570128516188728
-3.968,0.03542438534494258,-0.570128516188728
-3.9675,0.04609456020262521,-0.4959520473525559
-3.967,0.02475421048725994,-0.3793890248957141
-3.9665,0.01408403562957729,-0.252229364033705
-3.966,-0.007256314085787988,-0.1144730647665284
-3.9655,-0.007256314085787988,0.01268659609548085
-3.965,-0.007256314085787988,0.1186529801471552
-3.9645,0.03542438534494258,0.2670059178194992
-3.964,0.3341892813600565,0.6802748156210291
-3.9635,0.4835717293676135,1.178316820663898
-3.963,0.05676473506030786,1.506812611224089
-3.9625,-0.06060718837420119,0.92399749893988
-3.962,0.1207857842064037,-0.1992461720078678
-3.9615,0.2808384070716433,-0.9304142219644207
-3.961,0.3021787567870086,-1.068170521231597
-3.9605,0.2488278824985954,-0.8350444763179138
-3.96,0.1634664836371343,-0.5277419625680583
-3.9595,0.08877525963335578,-0.2416327256285375
-3.959,0.07810508477567314,-0.04029659593035631
-3.9585,0.2381577076409128,-0.01910331912002144
-3.958,0.2381577076409128,0.06566978812131802
-3.9575,0.1634664836371343,0.1822328105781598
-3.957,0.08877525963335578,0.2776025562246667
-3.9565,0.01408403562957729,0.3411823866556712
-3.956,-0.156638762093345,0.4683420475176805
-3.9555,-0.7328282044082075,0.8710143069140429
-3.955,-1.298347471865388,1.305476481525908
-3.9545,-1.725154466172693,1.623375633680931
-3.954,-1.821186039891837,1.517409249629256
-3.9535,-1.351698346153801,0.8604176685088755
-3.953,-0.7968492535543035,0.1716361721729923
-3.9525,-0.3593720843893152,-0.3052125560595421
-3.952,-0.1032878878049318,-0.5489352393783931
-3.9515,0.02475421048725994,-0.6125150698093976
-3.951,0.05676473506030786,-0.570128516188728
-3.9505,0.04609456020262521,-0.4535654937318862
-3.95,0.03542438534494258,-0.326405832869877
-3.9495,0.01408403562957729,-0.1886495336027004
-3.949,0.00341386077189465,-0.05089323433552374
-3.9485,-0.007256314085787988,0.07626642652648545
-3.948,0.03542438534494258,0.2034260873884947
-3.9475,0.5049120790829789,0.5849050699745222
-3.947,0.7823366253827275,1.125333628638062
-3.9465,0.142126133921769,1.549199164844759
-3.946,-0.2420001609548061,1.178316820663898
-3.9455,-0.02859666380115328,-0.01910331912002144
-3.945,0.2274875327832301,-0.9092209451540858
-3.9445,0.3235191065023739,-1.121153713257435
-3.944,0.291508581929326,-0.9198175835592532
-3.9435,0.2061471830678648,-0.570128516188728
-3.943,0.1314559590640864,-0.2204394488182027
-3.9425,0.0674349099179905,0.02328323450064829
-3.942,0.03542438534494258,0.1610395337678249
-3.9415,0.01408403562957729,0.2352160026039969
-3.941,0.00341386077189465,0.2881991946298341
-3.9405,-0.007256314085787988,0.3411823866556712
-3.94,-0.01792648894347063,0.3729723018711736
-3.9395,-0.07127736323188383,0.4047622170866759
-3.939,-0.4660738329661415,0.6802748156210291
-3.9385,-1.138294849000148,1.093543713422559
-3.938,-1.490410619303675,1.411442865577582
-3.9375,-1.714484291315011,1.506812611224089
-3.937,-1.373038695869166,0.9663840525605498
-3.9365,-0.8502001278427167,0.2881991946298341
-3.936,-0.4127229586777283,-0.2416327256285375
-3.9355,-0.1352984123779797,-0.5489352393783931
-3.935,0.00341386077189465,-0.6654982618352349
-3.9345,0.05676473506030786,-0.6549016234300674
-3.934,0.05676473506030786,-0.570128516188728
-3.9335,0.03542438534494258,-0.4641621321370536
-3.933,0.02475421048725994,-0.3370024712750445
-3.9325,0.00341386077189465,-0.1992461720078678
-3.932,0.00341386077189465,-0.06148987274069118
-3.9315,0.00341386077189465,0.05507314971615059
-3.931,0.1101156093487211,0.2564092794143318
-3.9305,0.3235191065023739,0.7438546460520338
-3.93,0.05676473506030786,1.167720182258731
-3.9295,-0.572775581542968,1.485619334413754
-3.929,-0.5621054066852853,1.00877060618122
-3.9285,-0.1886492866663929,-0.06148987274069118
-3.928,0.07810508477567314,-0.7290780922662394
-3.9275,0.1954770082101822,-0.8668343915334161
-3.927,0.1954770082101822,-0.7078848154559045
-3.9265,0.1527963087794516,-0.4535654937318862
-3.926,0.09944543449103843,-0.1992461720078678
-3.9255,0.1314559590640864,-0.09327978795619347
-3.925,0.2168173579255475,-0.05089323433552374
-3.9245,0.1848068333524996,0.09745970333682032
-3.924,0.1207857842064037,0.2564092794143318
-3.9235,0.05676473506030786,0.3941655786815084
-3.923,0.00341386077189465,0.4789386859228479
-3.9225,-0.1459685872356623,0.6484849004055269
-3.922,-0.572775581542968,0.9981739677760521
-3.9215,-0.9462317015618604,1.326669758336243
-3.921,-1.426389570157579,1.528005888034424
-3.9205,-1.597112367880501,1.358459673551745
-3.92,-1.212986073003927,0.7438546460520338
-3.9195,-0.722158029550525,0.13984625695749
-3.919,-0.3273615598162672,-0.2840192792492073
-3.9185,-0.09261771294724913,-0.5065486857577234
-3.918,0.02475421048725994,-0.570128516188728
-3.9175,0.0674349099179905,-0.5383386009732256
-3.917,0.05676473506030786,-0.4535654937318862
-3.9165,0.04609456020262521,-0.3581957480853793
-3.916,0.02475421048725994,-0.2416327256285375
-3.9155,0.01408403562957729,-0.1250697031716958
-3.915,0.02475421048725994,-0.01910331912002144
-3.9145,0.04609456020262521,0.09745970333682032
-3.914,-0.1779791118087102,0.4895353243280153
-3.9135,-0.7328282044082075,0.9769806909657173
-3.913,-1.373038695869166,1.37965295036208
-3.9125,-1.522421143876723,1.167720182258731
-3.912,-0.9569018764195432,0.1504428953626575
-3.9115,-0.3593720843893152,-0.6443049850249
-3.911,0.01408403562957729,-0.8986243067489184
-3.9105,0.1634664836371343,-0.8032545611024114
-3.91,0.1848068333524996,-0.6019184314042303
-3.9095,0.1527963087794516,-0.3687923864905467
-3.909,0.1314559590640864,-0.1992461720078678
-3.9085,0.2168173579255475,-0.2416327256285375
-3.908,0.2168173579255475,-0.1462629799820306
-3.9075,0.1527963087794516,0.03387987290581572
-3.907,0.08877525963335578,0.2140227257936621
-3.9065,0.03542438534494258,0.3623756634660061
-3.906,-0.1779791118087102,0.5425185163538525
-3.9055,-0.8608703027003992,0.9663840525605498
-3.905,-1.522421143876723,1.411442865577582
-3.9045,-1.970568487899394,1.729342017732605
-3.904,-1.991908837614759,1.580989080060261
-3.9035,-1.426389570157579,0.9028042221295453
-3.903,-0.7968492535543035,0.2246193641988295
-3.9025,-0.3380317346739499,-0.2416327256285375
-3.902,-0.06060718837420119,-0.474758770542221
-3.9015,0.0674349099179905,-0.5277419625680583
-3.901,0.09944543449103843,-0.4641621321370536
-3.9005,0.08877525963335578,-0.3581957480853793
-3.9,0.0674349099179905,-0.2204394488182027
-3.8995,0.04609456020262521,-0.08268314955102604
-3.899,0.03542438534494258,0.04447651131098315
-3.8985,0.03542438534494258,0.1610395337678249
-3.898,0.03542438534494258,0.2458126410091644
-3.8975,0.2061471830678648,0.5319218779486851
-3.897,0.6009436528021226,1.00877060618122
-3.8965,0.3235191065023739,1.37965295036208
-3.896,-0.09261771294724913,1.432636142387917
-3.8955,-0.007256314085787988,0.5425185163538525
-3.895,0.1954770082101822,-0.5383386009732256
-3.8945,0.3021787567870086,-1.089363798041932
-3.894,0.2808384070716433,-1.121153713257435
-3.8935,0.2168173579255475,-0.9198175835592532
-3.893,0.142126133921769,-0.6337083466197325
-3.8925,0.08877525963335578,-0.3687923864905467
-3.892,0.2808384070716433,-0.4217755785163839
-3.8915,0.4408910299368829,-0.474758770542221
-3.891,0.3768699807907871,-0.2734226408440398
-3.8905,0.2488278824985954,-0.02969995752518888
-3.89,0.1314559590640864,0.1822328105781598
