Class_7_Listen_To_Music/Class_7_Listen_To_Music_1_UZ_8.csv

#Digilent WaveForms Oscilloscope Acquisition
#Device Name: EExplorer
#Serial Number: SN:210151A2B84A
#Date Time: 2020-12-20 12:43:39.528
#Sample rate: 2000Hz
#Samples: 16384
#Trigger: Source: Channel 1 Type: Edge Condition: Rising Level: 0 V Hyst.: Auto HoldOff: 0 s
#Channel 1: Range: 1 V/div Offset: 0 V
#Channel 2: Range: 1 V/div Offset: 0 V

Time (s),Channel 1 (V),Channel 2 (V)
-4.0960000000000001,0.53692260365602662,-0.28401927924920728
-4.0955000000000004,0.11011560934910924,0.0020899576900532124
-4.0949999999999998,-0.70081767983580989,0.58490506997494629
-4.0945,-1.4157193952998968,1.0511571598018894
-4.0940000000000003,-1.9812386627565624,0.91340086053483804
-4.0934999999999997,-2.0879404113332236,0.78624119967234685
-4.093,-1.3410281712961183,0.39416557868150842
-4.0925000000000002,-0.59411593125901263,-0.072086511145434573
-4.0919999999999996,-0.049937013516217717,-0.40058230170617432
-4.0914999999999999,0.28083840707164331,-0.53833860097322561
-4.0910000000000002,0.41955068022151765,-0.53833860097322561
-4.0904999999999996,0.46223137965223848,-0.44296885532657421
-4.0899999999999999,0.45156120479456557,-0.28401927924920728
-4.0895000000000001,0.40888050536383502,-0.12506970317169577
-4.0890000000000004,0.33418928136012449,0.012686596095355579
-4.0884999999999998,0.23815770764091276,0.044476511310983152
-4.0880000000000001,0.12078578420640371,-0.12506970317169577
-4.0875000000000004,-0.19931946152378441,-0.49595204735221865
-4.0869999999999997,-0.74349837926632689,-0.98339741399060476
-4.0865,-1.2236562478616091,-1.3648763965762853
-4.0860000000000003,-1.7358246410299101,-1.5980024414897567
-4.0854999999999997,-1.8531965644642638,-1.4708427806273623
-4.085,-1.1703053735731959,-0.81385119950757889
-4.0845000000000002,-0.38071243410539846,-0.30521255606000475
-4.0839999999999996,0.27016823221428093,0.076266426526707121
-4.0834999999999999,0.62228400251748783,0.31998910984533641
-4.0830000000000002,0.79300680024041004,0.48953532432801533
-4.0824999999999996,0.81434714995578494,0.56371179316421627
-4.0819999999999999,0.82501732481345802,0.59550170837968963
-4.0815000000000001,0.94238924824796699,0.62729162359519197
-4.0810000000000004,0.85702784938658361,0.41535885549203611
-4.0804999999999998,0.6863050516635838,0.12924961855232261
-4.0800000000000001,0.53692260365602662,-0.17805289519753292
-4.0795000000000003,0.46223137965231614,-0.38998566330068885
-4.0789999999999997,0.29150858192888929,-0.10387642636079229
-4.0785,-0.18864928666639288,0.52132523954351762
-4.0780000000000003,-0.63679663068865622,1.082947075016881
-4.0774999999999997,-0.9569018764199313,1.4432327807932483
-4.077,-1.3837088707268488,1.6233756336809306
-4.0765000000000002,-1.5224211438765969,1.4856193344138791
-4.0759999999999996,-1.0315931004227878,0.8074344764824023
-4.0754999999999999,-0.44473348325077627,0.10805634174198775
-4.0750000000000002,0.0034138607718946501,-0.3581957480853793
-4.0744999999999996,0.28083840707175978,-0.53833860097321595
-4.0739999999999998,0.40888050536383502,-0.52774196256805828
-4.0735000000000001,0.45156120479456557,-0.37938902489571413
-4.0730000000000004,0.41955068022154673,-0.17805289519771603
-4.0724999999999998,0.29150858192932599,-0.0085066807148540119
-4.0720000000000001,0.17413665849481691,0.10805634174198775
-4.0715000000000003,0.067434909918087552,0.055073149716198776
-4.0709999999999997,-0.18864928666676165,-0.2416327256288556
-4.0705,-0.59411593125833329,-0.59132179299906285
-4.0700000000000003,-0.72215802955040853,-0.95160749877442785
-4.0694999999999997,-0.9675720512771675,-1.1953301820934044
-4.069,-0.90355100213112993,-0.97280077558509037
-4.0685000000000002,-0.3700422592469978,-0.43237221692155131
-4.0679999999999996,0.18480683335283921,0.065669788121587871
-4.0674999999999999,0.55826295337139209,0.36237566346600614
-4.0670000000000002,0.72898575109431429,0.57430843156935485
-4.0664999999999996,0.8036769750981122,0.72266136924167002
-4.0659999999999998,0.82501732481345802,0.69087145402619654
-4.0655000000000001,0.80367697509809277,0.51072860113835017
-4.0650000000000004,1.0064102973938787,0.28819919463003651
-4.0644999999999998,1.006410297394063,0.065669788121318018
-4.0640000000000001,0.83568749967114075,-0.17805289519753292
-4.0635000000000003,0.64362435223302783,-0.37938902489553106
-4.0629999999999997,0.51558225394061286,-0.54893523937825817
-4.0625,0.4622313796522482,-0.40058230170604903
-4.0620000000000003,0.32351910650250004,0.18223281057762974
-4.0614999999999997,0.024754210486638849,0.82862775329379723
-4.0609999999999999,-0.65813698040442903,1.2948798431207402
-4.0605000000000002,-1.3303579964384356,1.5386025264395911
-4.0599999999999996,-1.4263895701571232,1.2842832047149078
-4.0594999999999999,-0.92489135184649518,0.55311515475901996
-4.0590000000000002,-0.3700422592469978,-0.10387642636136091
-4.0585000000000004,0.046094560202246726,-0.50654868575735712
-4.0579999999999998,0.30217875678700862,-0.64430498502489997
-4.0575000000000001,0.40888050536383502,-0.59132179299906285
-4.0570000000000004,0.44089102993685381,-0.42177557851653813
-4.0564999999999998,0.43022085507920033,-0.19924617200786782
-4.056,0.34485945621773917,0.0020899576903134209
-4.0555000000000003,0.30217875678704742,0.19282944898315374
-4.0549999999999997,0.20614718306766106,0.19282944898310556
-4.0545,-0.017926488943470625,-0.050893234335523743
-4.0540000000000003,-0.57277558154246344,-0.49595204735215115
-4.0534999999999997,-1.2236562478619584,-0.93041422196458456
-4.0529999999999999,-1.6077825427381842,-1.1105570748522671
-4.0525000000000002,-1.7785053404611064,-1.0999604364470996
-4.0519999999999996,-1.2983474718646888,-0.72907809226565157
-4.0514999999999999,-0.53009488211223732,-0.082683149551026042
-4.0510000000000002,0.078105084775673142,0.35177902506083869
-4.0505000000000004,0.50491207908259073,0.56371179316399467
-4.0499999999999998,0.71831557623663156,0.62729162359519197
-4.0495000000000001,0.79300680024041004,0.54251851635385251
-4.0490000000000004,0.79300680024041004,0.35177902506101216
-4.0484999999999998,0.89970854881728501,0.33058574825042675
-4.048,0.95305942310564973,0.24581264100916439
-4.0475000000000003,0.81434714995590141,-0.019103319119780526
-4.0469999999999997,0.64362435223274628,-0.30521255605975417
-4.0465,0.52625242879834411,-0.53833860097322561
-4.0460000000000003,0.558262953371363,-0.55953187778354119
-4.0454999999999997,0.67563487680622136,-0.050893234334935852
-4.0449999999999999,1.0277506471094282,0.59550170837968963
-4.0445000000000002,1.6999716631434345,1.0723504366122243
-4.0439999999999996,1.6039400894234368,1.2313000126897451
-4.0434999999999999,0.66496470194821833,1.241896651094903
-4.0430000000000001,0.13145595906408636,0.72266136924169888
-4.0425000000000004,0.0034138607720111125,0.08686306493223106
-4.0419999999999998,0.067434909917990504,-0.3581957480853793
-4.0415000000000001,0.17413665849481691,-0.53833860097322561
-4.0410000000000004,0.27016823221387332,-0.50654868575775225
-4.0404999999999998,0.33418928136008563,-0.3370024712748324
-4.04,0.36619980593310447,-0.10387642636136091
-4.0395000000000003,0.32351910650241267,0.12924961855211059
-4.0389999999999997,0.29150858192929691,0.35177902506095432
-4.0385,0.25949805735627807,0.47893868592284788
-4.0380000000000003,0.13145595906420282,0.35177902506095438
-4.0374999999999996,-0.31669138495919597,-0.072086511146292304
-4.0369999999999999,-0.98891240099259115,-0.54893523937839306
-4.0365000000000002,-1.618452717595867,-0.9304142219644207
-4.0359999999999996,-1.8425263896065618,-1.1211537132572129
-4.0354999999999999,-1.1382948490001481,-0.87743102993858346
-4.0350000000000001,-0.3700422592469978,-0.34759910968021185
-4.0345000000000004,0.19547700820966779,0.15044289536220451
-4.0339999999999998,0.55826295337139209,0.48953532432801533
-4.0335000000000001,0.72898575109431429,0.6590815388106942
-4.0330000000000004,0.78233662538267901,0.68027481562100978
-4.0324999999999998,0.76099627566739136,0.53192187794848267
-4.032,0.79300680024041004,0.30939247144016896
-4.0315000000000003,0.96372959796317725,0.2246193641989066
-4.0309999999999997,0.89970854881708118,-0.0085066807151142274
-4.0305,0.72898575109431429,-0.29461591765437467
-4.0300000000000002,0.62228400251758487,-0.54893523937816169
-4.0294999999999996,0.57960330308661179,-0.69728817705048662
-4.0289999999999999,0.41955068022151765,-0.42177557851638392
-4.0285000000000002,0.22748753278323011,0.097459703336820316
-4.0279999999999996,0.35552963107537328,0.50013196273346228
-4.0274999999999999,0.30217875678700862,0.80743447648303834
-4.0270000000000001,-0.22065981123944084,0.97698069096571727
-4.0265000000000004,-0.34870190953151603,0.57430843156972111
-4.0259999999999998,-0.18864928666639288,-0.04029659593035631
-4.0255000000000001,0.024754210487259936,-0.49595204735255594
-4.0250000000000004,0.20614718306769986,-0.7078848154557118
-4.0244999999999997,0.31284893164473976,-0.69728817705059265
-4.024,0.36619980593310447,-0.53833860097322561
-4.0235000000000003,0.38754015564845029,-0.31580919446491196
-4.0229999999999997,0.36619980593306567,-0.050893234335311718
-4.0225,0.32351910650237387,0.18223281057815977
-4.0220000000000002,0.28083840707168212,0.37297230187100011
-4.0214999999999996,0.056764735060074956,0.27760255622450286
-4.0209999999999999,-0.19931946152407554,0.097459703336820316
-4.0205000000000002,-0.69014750497747701,-0.17805289519753292
-4.0199999999999996,-1.255666772435152,-0.5807251545941845
-4.0194999999999999,-1.7998456901764717,-0.89862430674891836
-4.0190000000000001,-1.7891755153187892,-0.80325456110241145
-4.0185000000000004,-1.0209229255663377,-0.35819574808578408
-4.0179999999999998,-0.30602121010090194,0.086863064931652884
-4.0175000000000001,0.25949805735627807,0.39416557868150842
-4.0170000000000003,0.59027347794413898,0.56371179316403319
-4.0164999999999997,0.72898575109432395,0.57430843156928735
-4.016,0.73965592595199681,0.50013196273318283
-4.0155000000000003,0.72898575109432395,0.33058574825065806
-4.0149999999999997,0.89970854881726559,0.033879872905565142
-4.0145,0.93171907339028448,-0.24163272562853755
-4.0140000000000002,0.79300680024053616,-0.42177557851622005
-4.0134999999999996,0.62228400251738103,-0.58072515459401108
-4.0129999999999999,0.50491207908297886,-0.70788481545590454
-4.0125000000000002,0.31284893164469124,-0.55953187778356051
-4.0119999999999996,-0.04993701351652826,0.065669788121886633
-4.0114999999999998,-0.06060718837420119,0.69087145402619654
-4.0110000000000001,0.33418928136005654,1.1253336286380615
-4.0105000000000004,0.21681735792565424,1.3690563119566908
-4.0099999999999998,-0.17797911180871023,1.2207033742845681
-4.0095000000000001,-0.18864928666639288,0.53192187794868506
-4.0090000000000003,-0.039266838658971792,-0.1462629799814138
-4.0084999999999997,0.13145595906420282,-0.58072515459403029
-4.008,0.25949805735627807,-0.72907809226623943
-4.0075000000000003,0.3341892813599886,-0.67609490024045049
-4.0069999999999997,0.36619980593310447,-0.49595204735233428
-4.0065,0.36619980593310447,-0.25222936403370499
-4.0060000000000002,0.31284893164469124,-0.019103319120021445
-4.0054999999999996,0.21681735792545045,0.15044289536269603
-4.0049999999999999,0.11011560934872107,0.19282944898332721
-4.0045000000000002,-0.049937013516518552,-0.0085066807148540119
-4.0039999999999996,-0.55143523182816567,-0.37938902489606108
-4.0034999999999998,-1.1703053735731959,-0.76086800748174177
-4.0030000000000001,-1.7678351656034239,-1.0363806060160949
-4.0025000000000004,-2.0559298867605933,-1.1317503516625151
-4.0019999999999998,-1.5010807941613578,-0.792657922697244
-4.0015000000000001,-0.64746680554674652,-0.1674562567923655
-4.0010000000000003,0.024754210486648498,0.34118238665520861
-4.0004999999999997,0.45156120479475964,0.57430843156940303
-4,0.66496470194821833,0.62729162359519197
-3.9994999999999998,0.72898575109431429,0.53192187794868506
-3.9990000000000001,0.71831557623663156,0.43655213230217815
-3.9984999999999999,0.82501732481345802,0.43655213230217815
-3.9980000000000002,1.0170804722517455,0.54251851635385251
-3.9975000000000001,0.92104889853260175,0.31998910984533641
-3.9969999999999999,0.72898575109431429,-0.061489872740691176
-3.9965000000000002,0.55826295337139209,-0.42177557851638392
-3.996,0.49424190422529612,-0.53833860097322561
-3.9954999999999998,0.31284893164469124,-0.072086511145858609
-3.9950000000000001,0.08877525963335578,0.57430843156935485
-3.9944999999999999,0.16346648363713429,1.0723504366122243
-3.9940000000000002,0.22748753278323011,1.3690563119569124
-3.9935,-0.25267033581248871,1.4008462271724147
-3.9929999999999999,-0.34870190953163249,0.81803111488820579
-3.9925000000000002,-0.18864928666639288,0.097459703336820316
-3.992,0.035424385344942577,-0.42177557851638392
-3.9914999999999998,0.20614718306786484,-0.65490162343006741
-3.9910000000000001,0.31284893164469124,-0.66549826183523486
-3.9904999999999999,0.36619980593310447,-0.51714532416289083
-3.9900000000000002,0.3768699807907871,-0.30521255605954212
-3.9895,0.33418928136005654,-0.072086511145858609
-3.9889999999999999,0.22748753278323011,0.097459703336820316
-3.9885000000000002,0.14212613392176898,0.19282944898332721
-3.988,-0.071277363231883828,0.0020899576903134209
-3.9874999999999998,-0.54076505696992005,-0.42177557851638392
-3.9870000000000001,-1.1276246741424654,-0.86683439153341613
-3.9864999999999999,-1.6291228924535495,-1.1847335436884392
-3.9860000000000002,-1.8745369141802501,-1.2483133741194434
-3.9855,-1.3516983461538008,-0.97280077558509037
-3.9849999999999999,-0.62612645583138127,-0.5807251545938954
-3.9845000000000002,-0.049937013516518552,-0.082683149551026042
-3.984,0.34485945621773917,0.35177902506083869
-3.9834999999999998,0.5689331282290746,0.62729162359519197
-3.9830000000000001,0.6863050516635838,0.69087145402619654
-3.9824999999999999,0.73965592595199681,0.6590815388106942
-3.9820000000000002,0.80367697509809277,0.58490506997452218
-3.9815,0.96372959796333246,0.46834204751768049
-3.9809999999999999,0.86769802424418851,0.15044289536265748
-3.9805000000000001,0.69697522652126631,-0.18864953360270037
-3.98,0.54759277851370936,-0.48535540894738849
-3.9794999999999998,0.4622313796522482,-0.66549826183523486
-3.9790000000000001,0.23815770764091276,-0.44296885532671876
-3.9784999999999999,0.046094560202625215,0.10805634174198775
-3.9780000000000002,-0.27401068552785401,0.66967817721586165
-3.9775,-0.90355100213112993,1.0723504366122243
-3.9769999999999999,-1.5437614935920885,1.3266697583362426
-3.9765000000000001,-1.6397930673112322,1.1677201822587309
-3.976,-1.0636036249963696,0.51072860113835017
-3.9754999999999998,-0.44473348325077627,-0.12506970317169577
-3.9750000000000001,0.0034138607718946501,-0.51714532416289083
-3.9744999999999999,0.28083840707164331,-0.63370834661973252
-3.9740000000000002,0.3982103305061524,-0.55953187778356051
-3.9735,0.43022085507920033,-0.36879238649054674
-3.9729999999999999,0.3982103305061524,-0.12506970317169577
-3.9725000000000001,0.29150858192932599,0.086863064931652884
-3.972,0.18480683335249956,0.2246193641988295
-3.9714999999999998,0.078105084775673142,0.18223281057815977
-3.9710000000000001,-0.17797911180871023,-0.11447306476652835
-3.9704999999999999,-0.78617907869662074,-0.55953187778356051
-3.9700000000000002,-1.4584000947306273,-0.95160749877475548
-3.9695,-2.0666000616185376,-1.1741369052832717
-3.9689999999999999,-1.8745369141802501,-0.96220413717992292
-3.9685000000000001,-0.99958257585027366,-0.47475877054222104
-3.968,-0.22065981123944084,0.055073149716150585
-3.9674999999999998,0.31284893164469124,0.39416557868150842
-3.9670000000000001,0.60094365280212259,0.53192187794868506
-3.9664999999999999,0.75032610080967954,0.61669498519002452
-3.9660000000000002,0.82501732481345802,0.5637117931641874
-3.9655,0.79300680024041004,0.38356894027634103
-3.9649999999999999,0.88903837395955376,0.11865298014715518
-3.9645000000000001,0.84635767452882327,-0.10387642636136091
-3.964,0.69697522652126631,-0.29461591765437467
-3.9634999999999998,0.54759277851370936,-0.4641621321370536
-3.9630000000000001,0.45156120479456557,-0.61251506980939763
-3.9624999999999999,0.3768699807907871,-0.44296885532671876
-3.9620000000000002,0.24882788249859539,0.12924961855232261
-3.9615,0.66496470194821833,0.71206473083653143
-3.9609999999999999,1.3905365922706379,1.1147369902328941
-3.9605000000000001,1.1024418711132067,1.3160731199310751
-3.96,0.49424190422529612,0.98757732937088472
-3.9594999999999998,0.22748753278323011,0.24581264100916439
-3.9590000000000001,0.16346648363713429,-0.38998566330088158
-3.9584999999999999,0.19547700821018218,-0.75027136907657432
-3.9580000000000002,0.24882788249859539,-0.85623775312824868
-3.9575,0.30217875678700862,-0.77146464588690922
-3.9569999999999999,0.33418928136005654,-0.57012851618872795
-3.9565000000000001,0.33418928136005654,-0.31580919446470956
-3.956,0.30217875678700862,-0.082683149551026042
-3.9554999999999998,0.24882788249859539,0.10805634174198775
-3.9550000000000001,0.18480683335249956,0.20342608738849466
-3.9544999999999999,-0.017926488943470625,0.076266426526485451
-3.9540000000000002,-0.6047861061160158,-0.15685961838719809
-3.9535,-1.2556667724346571,-0.27342264084403983
-3.9529999999999998,-1.8958772638956156,-0.51714532416289083
-3.9525000000000001,-2.2159825096260946,-0.71848145386107198
-3.952,-1.7038141164573279,-0.53833860097322561
-3.9514999999999998,-0.87154047755808195,-0.11447306476652835
-3.9510000000000001,-0.10328788780493176,0.31998910984533641
-3.9504999999999999,0.41955068022151765,0.61669498519002452
-3.9500000000000002,0.6863050516635838,0.71206473083653143
-3.9495,0.78233662538272752,0.71206473083653143
-3.9489999999999998,0.73965592595199681,0.58490506997452218
-3.9485000000000001,0.857027849386506,0.48953532432801533
-3.948,0.99574012253638022,0.43655213230217815
-3.9474999999999998,0.86769802424418851,0.19282944898332721
-3.9470000000000001,0.6863050516635838,-0.12506970317169577
-3.9464999999999999,0.53692260365602662,-0.44296885532671876
-3.9460000000000002,0.44089102993688295,-0.5807251545938954
-3.9455,0.23815770764091276,-0.12506970317169577
-3.9449999999999998,0.33418928136005654,0.52132523954351762
-3.9445000000000001,0.014084035629577295,1.0087706061812196
-3.944,-0.69014750497747701,1.2842832047155728
-3.9434999999999998,-1.3623685210114835,1.4008462271724147
-3.9430000000000001,-1.3516983461538008,0.98757732937088472
-3.9424999999999999,-0.8502001278427167,0.24581264100916439
-3.9420000000000002,-0.31669138495858457,-0.36879238649054674
-3.9415,0.078105084775673142,-0.6972881770507372
-3.9409999999999998,0.30217875678700862,-0.77146464588690922
-3.9405000000000001,0.3982103305061524,-0.65490162343006741
-3.9399999999999999,0.41955068022151765,-0.4535654937318862
-3.9394999999999998,0.3768699807907871,-0.20984281041303524
-3.9390000000000001,0.27016823221396069,-0.0085066807148540119
-3.9384999999999999,0.17413665849481691,0.086863064931652884
-3.9380000000000002,0.024754210487259936,-0.04029659593035631
-3.9375,-0.3700422592469978,-0.41117894011121647
-3.9369999999999998,-0.98891240099259115,-0.82444783791274634
-3.9365000000000001,-1.4477299198729445,-1.0681705212315973
-3.9359999999999999,-1.6397930673112322,-1.131750351662602
-3.9355000000000002,-1.2663369472923398,-0.86683439153341613
-3.9350000000000001,-0.61545628097369853,-0.3581957480853793
-3.9344999999999999,0.014084035629577295,0.076266426526485451
-3.9340000000000002,0.40888050536383502,0.34118238665567124
-3.9335,0.6116138276598051,0.55311515475901996
-3.9329999999999998,0.73965592595199681,0.63788826200035942
-3.9325000000000001,0.78233662538272752,0.63788826200035942
-3.9319999999999999,0.79300680024041004,0.55311515475901996
-3.9315000000000002,0.93171907339028448,0.54251851635385251
-3.931,0.857027849386506,0.30939247144016896
-3.9304999999999999,0.69697522652126631,0.0020899576903134209
-3.9300000000000002,0.54759277851370936,-0.28401927924920728
-3.9295,0.47290155450993088,-0.44296885532671876
-3.9289999999999998,0.18480683335249956,-0.37938902489571413
