Class_7_Listen_To_Music/Class_7_Listen_To_Music_Turki_14.csv

#Digilent WaveForms Oscilloscope Acquisition
#Device Name: EExplorer
#Serial Number: SN:210151A2B84A
#Date Time: 2021-02-04 11:25:32.575
#Sample rate: 2000Hz
#Samples: 16384
#Trigger: Source: Channel 1 Type: Edge Condition: Rising Level: 0 V Hyst.: Auto HoldOff: 0 s
#Channel 1: Range: 1 V/div Offset: 0 V Attenuation: 1 X
#Channel 2: Range: 1 V/div Offset: 0 V Attenuation: 1 X
#Power Supplies: ON
#Fixed Supply: ON
#Voltage: 3.3 V Readback: 3.324 V
#Positive Supply: ON
#Voltage: 3.7 V Readback: 3.716 V
#Current: 40 mA Readback: 16 mA
#Negative Supply: ON
#Voltage: -3.7 V Readback: -3.348 V
#Current: -40 mA Readback: -7 mA
#Reference 1: ON
#Voltage: 0 V
#Reference 2: ON
#Voltage: 0 V

Time (s),Channel 1 (V),Channel 2 (V)
-4.096,-0.1886492866663929,-0.7290780922662394
-4.0955,-0.3807124341045057,-1.025783967610658
-4.095,-0.5727755815434047,-1.078767159636774
-4.0945,-1.052933450138687,-1.089363798041932
-4.094,-1.405049220441894,-1.00459069080067
-4.0935,-1.138294848999721,-0.3793890248950202
-4.093,-0.6688071552621118,0.383568940276341
-4.0925,-0.2633405106705402,0.9981739677754931
-4.092,0.003413860772020808,1.400846227172598
-4.0915,0.142126133921769,1.602182356870596
-4.091,0.1954770082101822,1.676358825706768
-4.0905,0.1848068333524704,1.644568910491188
-4.09,0.1527963087794516,1.559795803249926
-4.0895,0.1101156093487211,1.432636142387917
-4.089,0.08877525963337518,1.27368656631055
-4.0885,0.04609456020262521,1.072350436612224
-4.088,-0.4020527838200457,0.457745409112513
-4.0875,-1.031593100422749,-0.4535654937310575
-4.087,-1.45840009473086,-1.237716735714739
-4.0865,-1.714484291315011,-1.746355379162313
-4.086,-1.212986073004383,-1.417859588602421
-4.0855,-0.5407650569694834,-0.866834391533127
-4.085,-0.06060718837420119,-0.5489352393783931
-4.0845,0.2061471830676222,-0.4641621321371307
-4.084,0.3341892813600953,-0.4535654937319922
-4.0835,0.3768699807907871,-0.570128516188728
-4.083,0.3875401556484697,-0.6760949002404023
-4.0825,0.4515612047945365,-0.7290780922662009
-4.082,0.4195506802215176,-0.6866915386455698
-4.0815,0.3341892813600565,-0.5913217929990628
-4.081,0.259498057356346,-0.4747587705423271
-4.0805,0.2168173579255475,-0.3370024712750445
-4.08,0.2594980573562781,-0.1144730647665284
-4.0795,0.3982103305060263,0.129249618552101
-4.079,-0.04993701351709112,-0.3052125560600818
-4.0785,-0.6794773301197943,-0.8986243067489184
-4.078,-1.373038695868535,-1.333086481360388
-4.0775,-1.874536914179959,-1.439052865411918
-4.077,-1.554431668449771,-0.8456411147230812
-4.0765,-0.9355615267047406,0.03387987290501582
-4.076,-0.4020527838197158,0.7968378380783527
-4.0755,-0.03926683865883591,1.326669758336243
-4.075,0.142126133921769,1.612778995275763
-4.0745,0.2168173579255475,1.739938656137773
-4.074,0.2168173579255475,1.739938656137773
-4.0735,0.1741366584948169,1.676358825706768
-4.073,0.1421261339217981,1.559795803250032
-4.0725,0.1101156093487211,1.411442865577582
-4.072,0.08877525963335578,1.220703374284568
-4.0715,-0.11395806266243,0.7756445612679408
-4.071,-0.6581369804047784,-0.114473064767309
-4.0705,-1.042263275281004,-0.9728007755850904
-4.07,-1.116954499284715,-1.375473034981087
-4.0695,-0.7008176798347037,-1.174136905283031
-4.069,-0.1993194615240755,-0.9092209451540858
-4.0685,0.1634664836371343,-0.7396747306714069
-4.068,0.344859456217778,-0.6866915386455986
-4.0675,0.3875401556484697,-0.718481453861072
-4.067,0.3768699807907871,-0.7714646458869092
-4.0665,0.3341892813602506,-0.8456411147231776
-4.066,0.5475927785137094,-0.9516074987747555
-4.0655,0.6649647019482183,-0.9198175835592532
-4.065,0.568933128229162,-0.6972881770509396
-4.0645,0.4195506802215176,-0.4535654937318862
-4.064,0.291508581929326,-0.2204394488182027
-4.0635,0.2168173579256154,0.01268659609526882
-4.063,0.3982103305059098,0.4577454091123878
-4.0625,0.1314559590640864,0.3199891098453364
-4.062,-0.5407650569693087,-0.3264058328692891
-4.0615,-1.202315898146826,-0.88802766834404
-4.061,-1.842526389607202,-1.205926820498774
-4.0605,-1.810515865034154,-0.9728007755850904
-4.06,-1.180975548430335,-0.1992461720071643
-4.0595,-0.5834457564006506,0.5743084315693548
-4.059,-0.1459685872356623,1.157123543853563
-4.0585,0.09944543449081522,1.496215972818613
-4.058,0.2061471830678648,1.644568910491266
-4.0575,0.2274875327832301,1.655165548896433
-4.057,0.1954770082102113,1.591585718465486
-4.0565,0.1634664836371343,1.475022696008586
-4.056,0.1314559590640864,1.316073119931075
-4.0555,0.1101156093487405,1.135930267043392
-4.055,-0.03926683865935025,0.8180311148874829
-4.0545,-0.6047861061160158,0.02328323450064829
-4.054,-1.116954499284317,-0.845641114722291
-4.0535,-1.426389570157259,-1.492036057438343
-4.053,-1.074273799854052,-1.545019249464132
-4.0525,-0.4660738329661415,-1.163540266878104
-4.052,0.01408403562981991,-0.7926579226971091
-4.0515,0.2808384070716433,-0.6443049850249
-4.051,0.3982103305061524,-0.6443049850249
-4.0505,0.4088805053638253,-0.6549016234300578
-4.05,0.3661998059331045,-0.7290780922662394
-4.0495,0.4515612047945656,-0.8986243067489184
-4.049,0.5902734779443137,-0.9622041371798651
-4.0485,0.5369226036559102,-0.7714646458866683
-4.048,0.408880505363835,-0.5065486857577234
-4.0475,0.3021787567871057,-0.2416327256287785
-4.047,0.2381577076410389,0.002089957690612186
-4.0465,0.3768699807907871,0.3305857482505039
-4.046,0.6863050516633024,0.6590815388103954
-4.0455,0.1848068333517426,0.1610395337671503
-4.045,-0.6474668055467465,-0.5807251545938954
-4.0445,-1.447729919872945,-1.121153713257435
-4.044,-1.639793067310815,-1.131750351661995
-4.0435,-1.180975548430879,-0.4641621321370536
-4.043,-0.6261264558313813,0.309392471440169
-4.0425,-0.1993194615244637,0.9239974989393209
-4.042,0.0674349099179905,1.316073119931075
-4.0415,0.1848068333524996,1.506812611224089
-4.041,0.2274875327831913,1.559795803249878
-4.0405,0.206147183067826,1.528005888034347
-4.04,0.1634664836371343,1.443232780793084
-4.0395,0.1314559590641155,1.326669758336348
-4.039,0.1101156093486628,1.188913459068883
-4.0385,0.04609456020262521,0.9875773293708847
-4.038,-0.4127229586773111,0.3729723018717326
-4.0375,-1.138294849000614,-0.5171453241635847
-4.037,-1.650463242168915,-1.280103289334946
-4.0365,-1.543761493592088,-1.725162102351978
-4.036,-0.9035510021305574,-1.375473034980961
-4.0355,-0.274010685527854,-0.8350444763179138
-4.035,0.1527963087794516,-0.5383386009732256
-4.0345,0.3768699807905833,-0.4217755785164899
-4.034,0.4195506802215176,-0.474758770542221
-4.0335,0.408880505363835,-0.5807251545938954
-4.033,0.3982103305061621,-0.6866915386454734
-4.0325,0.5689331282290746,-0.8350444763178656
-4.032,0.5689331282290746,-0.7820612842920766
-4.0315,0.4622313796523452,-0.5807251545940785
-4.031,0.3341892813599789,-0.3370024712748228
-4.0305,0.2488278824985954,-0.09327978795619347
-4.03,0.2701682322139413,0.2140227257933826
-4.0295,0.5155822539403314,0.6060983467845005
-4.029,0.1527963087794516,0.2140227257936621
-4.0285,-0.3807124341046804,-0.4429688553267188
-4.028,-1.020922925565843,-0.9939940523954734
-4.0275,-1.244996597576974,-1.046977244421262
-4.027,-0.9355615267041777,-0.4429688553267188
-4.0265,-0.4980843575395874,0.2987958330343269
-4.026,-0.1459685872356623,0.8922075837243778
-4.0255,0.0674349099179905,1.284283204715573
-4.025,0.1848068333523928,1.485619334413571
-4.0245,0.2168173579255378,1.549199164844739
-4.024,0.2061471830678648,1.528005888034424
-4.0235,0.174136658494846,1.453829419198319
-4.023,0.1421261339217496,1.347863035146452
-4.0225,0.1207857842064037,1.210106735879401
-4.022,0.1101156093487308,1.040560521396876
-4.0215,-0.1566387620938787,0.6060983467840765
-4.021,-0.7434983792658902,-0.252229364033705
-4.0205,-1.138294849000148,-1.05757388282643
-4.02,-1.191645723288066,-1.481439419032896
-4.0195,-0.6474668055467465,-1.227120097309109
-4.019,-0.08194753808956648,-0.8456411147230812
-4.0185,0.2915085819289863,-0.5807251545941363
-4.018,0.4408910299368829,-0.474758770542221
-4.0175,0.4408910299368829,-0.5065486857577234
-4.017,0.3982103305061912,-0.5701285161886701
-4.0165,0.3448594562179236,-0.612515069809388
-4.016,0.5475927785137094,-0.6019184314042303
-4.0155,0.6649647019481115,-0.6231117082145458
-4.015,0.5689331282289387,-0.517145324162727
-4.0145,0.4195506802215176,-0.3370024712750445
-4.014,0.3021787567871154,-0.1462629799822041
-4.0135,0.2274875327833951,0.07626642652687095
-4.013,0.408880505363835,0.5001319627331828
-4.0125,0.1848068333524996,0.3411823866556712
-4.012,-0.4447334832512033,-0.3052125560597734
-4.0115,-0.9142211769888124,-0.5595318777835605
-4.011,-1.447729919872945,-0.792657922697244
-4.0105,-1.607782542738039,-0.8350444763178753
-4.01,-1.148965023857831,-0.3158091944647096
-4.0095,-0.6047861061160158,0.3411823866556712
-4.009,-0.1779791118090984,0.8816109453187189
-4.0085,0.07810508477577989,1.241896651095086
-4.008,0.1954770082101822,1.443232780793084
-4.0075,0.227487532783201,1.517409249629189
-4.007,0.2061471830678357,1.506812611224041
-4.0065,0.1741366584948169,1.453829419198252
-4.006,0.142126133921769,1.358459673551745
-4.0055,0.1207857842063164,1.231300012689523
-4.005,0.02475421048725994,0.9981739677760521
-4.0045,-0.4447334832507763,0.2776025562246667
-4.004,-0.8928808272736025,-0.6019184314048375
-4.0035,-1.06360362499637,-1.269506650929778
-4.003,-0.690147504977477,-1.301296566145281
-4.0025,-0.2099896363821949,-0.930414221964758
-4.002,0.1634664836371343,-0.6866915386455698
-4.0015,0.3768699807907871,-0.6019184314042303
-4.001,0.4622313796521705,-0.5489352393784412
-4.0005,0.4408910299368344,-0.5807251545939436
-4,0.3875401556484697,-0.6337083466197325
-3.9995,0.4408910299368829,-0.6972881770507372
-3.999,0.5902734779444399,-0.792657922697244
-3.9985,0.5475927785137094,-0.6549016234300674
-3.998,0.4302208550792003,-0.4111789401112165
-3.9975,0.3128489316446912,-0.1568596183871981
-3.997,0.2381577076409128,0.05507314971615059
-3.9965,0.3021787567870086,0.3305857482505039
-3.996,0.4622313796522482,0.5001319627331828
-3.9955,-0.06060718837420119,-0.04029659593035631
-3.995,-0.6261264558313813,-0.5489352393783931
-3.9945,-1.191645723288561,-0.8880276683437509
-3.994,-1.618452717595867,-1.142346990067769
-3.9935,-1.341028171296118,-0.7502713690765743
-3.993,-0.7968492535543035,-0.06148987274069118
-3.9925,-0.3273615598162672,0.5637117931641874
-3.992,-0.007256314085787988,0.9875773293708847
-3.9915,0.1634664836371343,1.220703374284568
-3.991,0.2274875327832301,1.316073119931075
-3.9905,0.2274875327832301,1.305476481525908
-3.99,0.1954770082101822,1.25249328950007
-3.9895,0.1634664836371343,1.167720182258731
-3.989,0.1314559590640864,1.051157159801889
-3.9885,0.08877525963335578,0.8922075837243778
-3.988,-0.3380317346739499,0.309392471440169
-3.9875,-0.9782422261349084,-0.5489352393783931
-3.987,-1.46907026958831,-1.290699927740113
-3.9865,-1.629122892453549,-1.820531847998485
-3.986,-1.170305373573196,-1.534422611058964
-3.9855,-0.5194247072545548,-0.9833974139902578
-3.985,-0.007256314085787988,-0.5913217929990628
-3.9845,0.2808384070716433,-0.3370024712750445
-3.984,0.408880505363835,-0.2416327256285375
-3.9835,0.408880505363835,-0.2416327256285375
-3.983,0.3982103305061524,-0.3475991096802118
-3.9825,0.5689331282290746,-0.6019184314042303
-3.982,0.5796033030867573,-0.6549016234300674
-3.9815,0.4729015545099309,-0.5489352393783931
-3.981,0.3555296310754218,-0.3793890248957141
-3.9805,0.2701682322139607,-0.1992461720078678
-3.98,0.2594980573562781,0.02328323450064829
-3.9795,0.4515612047945656,0.3729723018711736
-3.979,0.0674349099179905,0.02328323450064829
-3.9785,-0.5834457564006506,-0.6019184314042303
-3.978,-1.052933450138687,-0.9622041371799229
-3.9775,-1.575772018165136,-1.248313374119443
-3.977,-1.554431668449771,-1.05757388282643
-3.9765,-1.042263275281004,-0.3687923864905467
-3.976,-0.4980843575391895,0.3517790250608387
-3.9755,-0.1032878878049318,0.8816109453192104
-3.975,0.1207857842064037,1.199510097474233
-3.9745,0.2168173579255475,1.33726639674141
-3.974,0.2381577076409128,1.369056311956912
-3.9735,0.2168173579255475,1.316073119931075
-3.973,0.1848068333524996,1.231300012689736
-3.9725,0.1527963087794516,1.114736990232894
-3.972,0.1314559590640864,0.9663840525605498
-3.9715,-0.124628237520297,0.5001319627331828
-3.971,-0.6261264558313813,-0.3370024712750445
-3.9705,-0.9035510021311299,-1.110557074852267
-3.97,-1.170305373573196,-1.714565463946811
-3.9695,-0.9675720512772257,-1.608599079895136
-3.969,-0.4660738329661415,-1.068170521231597
-3.9685,-0.02859666380115328,-0.5595318777835605
-3.968,0.2274875327832301,-0.2946159176543747
-3.9675,0.3555296310754218,-0.2734226408440398
-3.967,0.3982103305061524,-0.3581957480853793
-3.9665,0.3875401556484697,-0.474758770542221
-3.966,0.5049120790829789,-0.6654982618352349
-3.9655,0.5582629533713921,-0.6760949002404023
-3.965,0.4729015545099309,-0.5171453241628908
-3.9645,0.3661998059331045,-0.3370024712750445
-3.964,0.2808384070716433,-0.1568596183871981
-3.9635,0.2381577076409128,0.02328323450064829
-3.963,0.4729015545099309,0.4047622170866759
-3.9625,0.4302208550792003,0.2670059178194992
-3.962,-0.156638762093345,-0.3687923864905467
-3.9615,-0.722158029550525,-0.8244478379127463
-3.961,-1.330357996438436,-1.089363798041932
-3.9605,-1.629122892453549,-1.089363798041932
-3.96,-1.234326422719292,-0.4853554089473885
-3.9595,-0.6794773301197943,0.2564092794143318
-3.959,-0.2313299860971235,0.849821030103708
-3.9585,0.05676473506030786,1.220703374284568
-3.958,0.1954770082101822,1.411442865577582
-3.9575,0.2488278824985954,1.453829419198252
-3.957,0.2274875327832301,1.42203950398275
-3.9565,0.1848068333524996,1.326669758336243
-3.956,0.1634664836371343,1.210106735879401
-3.9555,0.142126133921769,1.072350436612224
-3.955,-0.02859666380115328,0.775644561267536
-3.9545,-0.6688071552621118,0.002089957690313421
-3.954,-1.319687821580753,-0.8456411147230812
-3.9535,-1.586442193022819,-1.502632695843462
-3.953,-1.031593100423322,-1.661582271920973
-3.9525,-0.2313299860971235,-1.184733543688439
-3.952,0.291508581929326,-0.7396747306714069
-3.9515,0.5049120790829789,-0.5383386009732256
-3.951,0.5262524287983441,-0.5277419625680583
-3.9505,0.4729015545099309,-0.5383386009732256
-3.95,0.4195506802215176,-0.5595318777835605
-3.9495,0.4622313796522482,-0.6337083466197325
-3.949,0.5902734779444399,-0.6972881770507372
-3.9485,0.5475927785137094,-0.6125150698093976
-3.948,0.4302208550792003,-0.4535654937318862
-3.9475,0.3235191065023739,-0.2628260024388724
-3.947,0.2488278824985954,-0.07208651114585861
-3.9465,0.3448594562177392,0.2246193641988295
-3.946,0.4408910299368829,0.3305857482505039
-3.9455,-0.03926683865883591,-0.1992461720078678
-3.945,-0.3700422592469978,-0.6654982618352349
-3.9445,-0.8181896032696687,-0.9939940523954253
-3.944,-1.287677297007705,-1.131750351662602
-3.9435,-1.159635198715513,-0.6549016234300674
-3.943,-0.722158029550525,0.09745970333682032
-3.9425,-0.2953510352432193,0.7650479228623686
-3.942,0.00341386077189465,1.199510097474233
-3.9415,0.1634664836371343,1.443232780793084
-3.941,0.2274875327832301,1.528005888034424
-3.9405,0.2274875327832301,1.506812611224089
-3.94,0.1954770082101822,1.432636142387917
-3.9395,0.1741366584948169,1.316073119931075
-3.939,0.142126133921769,1.167720182258731
-3.9385,0.09944543449103843,0.9875773293708847
-3.938,-0.2953510352432193,0.5213252395435176
-3.9375,-0.9569018764195432,-0.2416327256285375
-3.937,-1.30901764672307,-1.01518732920576
-3.9365,-1.554431668449771,-1.598002441489969
-3.936,-1.212986073003927,-1.523825972653797
-3.9355,-0.572775581542968,-1.036380606016095
-3.935,-0.03926683865883591,-0.6231117082145651
-3.9345,0.291508581929326,-0.4429688553267188
-3.934,0.4195506802215176,-0.474758770542221
-3.9335,0.4408910299368829,-0.5171453241628908
-3.933,0.4195506802215176,-0.5913217929990628
-3.9325,0.5902734779444399,-0.6231117082145651
-3.932,0.5902734779444399,-0.6231117082145651
-3.9315,0.4835717293676135,-0.570128516188728
-3.931,0.3661998059331045,-0.4641621321370536
-3.9305,0.2701682322139607,-0.3158091944647096
-3.93,0.2701682322139607,-0.09327978795619347
-3.9295,0.5262524287983441,0.3305857482505039
-3.929,0.2381577076409128,0.06566978812131802
-3.9285,-0.3166913849585846,-0.5277419625680583
-3.928,-0.8608703027003992,-0.8986243067489184
-3.9275,-1.447729919872945,-1.184733543688439
-3.927,-1.490410619303675,-0.9622041371799229
-3.9265,-1.010252750707956,-0.2204394488182027
-3.926,-0.4874141826815069,0.5319218779486851
-3.9255,-0.09261771294724913,1.104140351827727
-3.925,0.1314559590640864,1.453829419198252
-3.9245,0.2274875327832301,1.633972272086098
-3.924,0.2488278824985954,1.686955464111935
-3.9235,0.2274875327832301,1.655165548896433
-3.923,0.1848068333524996,1.570392441655093
-3.9225,0.1634664836371343,1.443232780793084
-3.922,0.142126133921769,1.284283204715573
-3.9215,-0.1459685872356623,0.849821030103708
-3.921,-0.8288597781273515,-0.02969995752518888
-3.9205,-1.277007122150022,-0.8986243067489184
-3.92,-1.415719395299897,-1.545019249464132
-3.9195,-1.042263275281004,-1.523825972653797
-3.919,-0.4020527838200457,-1.110557074852267
-3.9185,0.0674349099179905,-0.792657922697244
-3.918,0.3555296310754218,-0.6654982618352349
-3.9175,0.4622313796522482,-0.6337083466197325
-3.917,0.4515612047945656,-0.7290780922662394
-3.9165,0.408880505363835,-0.8032545611024114
-3.916,0.4942419042252961,-0.9410108603695881
-3.9155,0.5689331282290746,-0.9622041371799229
-3.915,0.5049120790829789,-0.7714646458869092
-3.9145,0.3875401556484697,-0.5171453241628908
-3.914,0.3021787567870086,-0.2840192792492073
-3.9135,0.2701682322139607,-0.08268314955102604
-3.913,0.5049120790829789,-0.2946159176543747
-3.9125,0.4195506802215176,-0.792657922697244
-3.912,-0.1139580626626144,-1.227120097309109
-3.9115,-0.5300948821122373,-1.311893204550448
-3.911,-1.084943974711735,-1.290699927740113
-3.9105,-1.415719395299897,-1.05757388282643
-3.91,-1.1062843244271,-0.3475991096802118
-3.9095,-0.6154562809736985,0.4365521323021782
-3.909,-0.1993194615240755,1.029963882991555
-3.9085,0.0674349099179905,1.369056311956912
-3.908,0.2061471830678648,1.517409249629256
-3.9075,0.2488278824985954,1.517409249629256
-3.907,0.2381577076409128,1.432636142387917
-3.9065,0.1954770082101822,1.305476481525908
-3.906,0.1634664836371343,1.146526905448396
-3.9055,0.1314559590640864,0.9663840525605498
-3.905,0.02475421048725994,0.6484849004055269
-3.9045,-0.4554036581084589,-0.09327978795619347
-3.904,-0.9355615267041777,-0.9092209451540858
-3.9035,-1.223656247861609,-1.555615887869299
-3.903,-1.042263275281004,-1.682775548731308
-3.9025,-0.5087545323968721,-1.174136905283272
-3.902,-0.01792648894347063,-0.7290780922662394
-3.9015,0.2701682322139607,-0.4535654937318862
-3.901,0.3982103305061524,-0.3370024712750445
-3.9005,0.4195506802215176,-0.326405832869877
-3.9,0.3982103305061524,-0.3793890248957141
-3.8995,0.4622313796522482,-0.3899856633008816
-3.899,0.6436243522328531,-0.3899856633008816
-3.8985,0.6009436528021226,-0.3793890248957141
-3.898,0.4835717293676135,-0.3158091944647096
-3.8975,0.3555296310754218,-0.2310360872233701
-3.897,0.2701682322139607,-0.1038764263613609
-3.8965,0.3341892813600565,0.1186529801471552
-3.896,0.5049120790829789,0.3517790250608387
-3.8955,-0.01792648894347063,-0.1250697031716958
-3.895,-0.4447334832507763,-0.6231117082145651
-3.8945,-0.8715404775580819,-0.8774310299385835
-3.894,-1.362368521011484,-1.05757388282643
-3.8935,-1.255666772434657,-0.6866915386455698
-3.893,-0.7968492535543035,0.04447651131098315
-3.8925,-0.3380317346739499,0.7120647308365314
-3.892,-0.007256314085787988,1.178316820663898
-3.8915,0.1741366584948169,1.443232780793084
-3.891,0.2488278824985954,1.549199164844759
-3.8905,0.2488278824985954,1.549199164844759
-3.89,0.2168173579255475,1.485619334413754
-3.8895,0.1848068333524996,1.369056311956912
-3.889,0.1634664836371343,1.231300012689736
-3.8885,0.1314559590640864,1.051157159801889
-3.888,-0.2099896363817582,0.5319218779486851
-3.8875,-0.6474668055467465,-0.2628260024388724
-3.887,-0.9995825758502737,-0.9939940523954253
-3.8865,-1.084943974711735,-1.248313374119443
