Class_7_Listen_To_Music/Class_7_Listen_To_Music_Zakour_10.csv

#Digilent WaveForms Oscilloscope Acquisition
#Device Name: EExplorer
#Serial Number: SN:210151A2B84A
#Date Time: 2021-02-03 11:18:01.727
#Sample rate: 2000Hz
#Samples: 16384
#Trigger: Source: Channel 1 Type: Edge Condition: Rising Level: 0 V Hyst.: Auto HoldOff: 0 s
#Channel 1: Range: 1 V/div Offset: 0 V Attenuation: 1 X
#Channel 2: Range: 1 V/div Offset: 0 V Attenuation: 1 X
#Power Supplies: ON
#Fixed Supply: ON
#Voltage: 3.3 V Readback: 3.302 V
#Positive Supply: ON
#Voltage: 3.7 V Readback: 3.695 V
#Current: 40 mA Readback: 16 mA
#Negative Supply: ON
#Voltage: -3.7 V Readback: -3.334 V
#Current: -40 mA Readback: -4 mA
#Reference 1: ON
#Voltage: 0 V
#Reference 2: ON
#Voltage: 0 V

Time (s),Channel 1 (V),Channel 2 (V)
-4.096,0.07810508477567314,-0.9939940523954253
-4.0955,0.5262524287979365,-0.5277419625684823
-4.095,0.6863050516635547,-0.2946159176542879
-4.0945,0.6542945270905358,-0.1992461720078678
-4.094,0.5582629533714795,-0.1674562567923944
-4.0935,0.5582629533714406,-0.1992461720079449
-4.093,0.6116138276598051,-0.2840192792492073
-4.0925,0.5369226036560946,-0.2840192792492073
-4.092,0.4195506802214303,-0.2098428104129292
-4.0915,0.3235191065023739,-0.09327978795619347
-4.091,0.2701682322139607,0.02328323450064829
-4.0905,0.3448594562178168,0.2987958330351461
-4.09,0.4302208550792003,0.457745409112513
-4.0895,-0.04993701351651855,-0.09327978795619347
-4.089,-0.6581369804038759,-0.7078848154553455
-4.0885,-1.298347471865388,-1.131750351662602
-4.088,-1.458400094730627,-1.089363798041932
-4.0875,-1.042263275281383,-0.4217755785169911
-4.087,-0.519424707254186,0.3305857482510435
-4.0865,-0.1139580626626144,0.92399749893988
-4.086,0.1314559590638631,1.294879843120403
-4.0855,0.2488278824986245,1.496215972818979
-4.085,0.2808384070716433,1.559795803249926
-4.0845,0.2701682322139704,1.528005888034452
-4.084,0.2381577076408836,1.432636142387811
-4.0835,0.2061471830678648,1.316073119931075
-4.083,0.1848068333524996,1.146526905448396
-4.0825,0.1527963087790926,0.9028042221289959
-4.082,-0.2420001609548061,0.2987958330350016
-4.0815,-0.7114878546928423,-0.5383386009732256
-4.081,-0.8928808272732822,-1.227120097308483
-4.0805,-0.658136980404429,-1.566212526274467
-4.08,-0.04993701351651855,-1.460246142222792
-4.0795,0.4729015545094554,-1.015187329206165
-4.079,0.7609962756674011,-0.6231117082143627
-4.0785,0.8036769750980928,-0.400582301706049
-4.078,0.7076454013790364,-0.294615917654471
-4.0775,0.547592778513622,-0.3052125560595903
-4.077,0.4515612047945656,-0.3581957480853793
-4.0765,0.5689331282289678,-0.4535654937317994
-4.076,0.5582629533713047,-0.389985663300766
-4.0755,0.4622313796522482,-0.2628260024388724
-4.075,0.3661998059331045,-0.08268314955102604
-4.0745,0.2915085819293357,0.08686306493185528
-4.074,0.3021787567870086,0.309392471440169
-4.0735,0.2381577076409128,0.5107286011383502
-4.073,-0.2740106855273882,0.06566978812172281
-4.0725,-0.7968492535543035,-0.570128516188728
-4.072,-1.277007122150022,-0.9198175835592532
-4.0715,-1.735824641029959,-1.142346990067567
-4.071,-1.52242114387618,-0.7926579226965693
-4.0705,-0.9248913518464952,-0.05089323433552374
-4.07,-0.3807124341051753,0.6484849004048908
-4.0695,-0.007256314085603603,1.135930267043479
-4.069,0.1954770082101822,1.411442865577582
-4.0685,0.2808384070716433,1.517409249629256
-4.068,0.2808384070716142,1.506812611224002
-4.0675,0.2488278824985954,1.411442865577582
-4.067,0.2168173579255475,1.273686566310405
-4.0665,0.1954770082101725,1.114736990232721
-4.066,0.1848068333524996,0.92399749893988
-4.0655,-0.06060718837420119,0.4789386859228479
-4.065,-0.6581369804038856,-0.3370024712743023
-4.0645,-1.116954499284783,-1.0999604364471
-4.064,-1.277007122150022,-1.661582271920973
-4.0635,-0.8715404775584508,-1.6297923567055
-4.063,-0.1993194615235806,-1.248313374119116
-4.0625,0.3448594562177392,-0.8880276683437509
-4.062,0.6222840025172356,-0.6125150698096482
-4.0615,0.6756348768058331,-0.4005823017059816
-4.061,0.6009436528021226,-0.326405832869877
-4.0605,0.5049120790829789,-0.326405832869877
-4.06,0.6009436528021808,-0.442968855326738
-4.0595,0.6649647019482183,-0.4641621321370536
-4.059,0.5689331282290746,-0.3158091944647096
-4.0585,0.4408910299369994,-0.135666341577027
-4.058,0.3341892813600565,0.02328323450064829
-4.0575,0.2808384070716433,0.1928294489833272
-4.057,0.1101156093488763,0.2987958330349052
-4.0565,-0.3273615598162672,0.08686306493165288
-4.056,-0.839529952985034,-0.5171453241628908
-4.0555,-1.277007122149624,-1.089363798041412
-4.055,-1.362368521011115,-1.227120097308579
-4.0545,-0.9569018764195432,-0.6443049850249
-4.054,-0.4660738329665879,0.09745970333614562
-4.0535,-0.08194753808936268,0.7014680924317303
-4.053,0.142126133921769,1.104140351827727
-4.0525,0.2488278824985954,1.316073119931075
-4.052,0.2808384070716336,1.411442865577573
-4.0515,0.2701682322139607,1.400846227172415
-4.051,0.2381577076409128,1.326669758336243
-4.0505,0.206147183067894,1.220703374284664
-4.05,0.1848068333524996,1.082947075017392
-4.0495,0.1741366584948169,0.92399749893988
-4.049,0.09944543449110636,0.6696781772160929
-4.0485,-0.4233931335359641,-0.04029659593107913
-4.048,-1.031593100423322,-0.8350444763179138
-4.0475,-1.287677297007472,-1.481439419032539
-4.047,-1.03159310042273,-1.884111678429104
-4.0465,-0.3807124341046804,-1.460246142222792
-4.046,0.2168173579250041,-0.9304142219649025
-4.0455,0.5689331282291814,-0.6019184314040279
-4.045,0.6863050516635838,-0.3793890248957141
-4.0445,0.6329541773751706,-0.252229364033705
-4.044,0.5262524287983732,-0.1992461720079353
-4.0435,0.5582629533713921,-0.2734226408440398
-4.043,0.7503261008096795,-0.4217755785163839
-4.0425,0.6969752265213148,-0.3158091944648059
-4.042,0.5475927785137094,-0.1356663415768632
-4.0415,0.408880505363835,0.05507314971615059
-4.041,0.3128489316447786,0.2140227257935175
-4.0405,0.1741366584943608,0.4683420475178058
-4.04,-0.3273615598162672,0.6060983467848571
-4.0395,-0.8075194284115492,0.01268659609602052
-4.039,-1.138294849000497,-0.6443049850253144
-4.0385,-1.522421143876723,-1.0999604364471
-4.038,-1.650463242168798,-1.205926820498678
-4.0375,-1.159635198714989,-0.6443049850242446
-4.037,-0.5834457564006506,0.07626642652648545
-4.0365,-0.1352984123779797,0.6696781772158616
-4.036,0.1314559590642028,1.051157159802073
-4.0355,0.2594980573562781,1.25249328950007
-4.035,0.291508581929326,1.326669758336243
-4.0345,0.280838407071653,1.305476481525927
-4.034,0.2488278824985954,1.231300012689736
-4.0335,0.2168173579255475,1.125333628638062
-4.033,0.1954770082102016,0.9875773293710099
-4.0325,0.1634664836367946,0.7862411996721926
-4.032,-0.2099896363817582,0.2246193641988295
-4.0315,-0.754168554123078,-0.5913217929983208
-4.031,-1.106284324427158,-1.30129656614558
-4.0305,-1.170305373573196,-1.629792356705471
-4.03,-0.6901475049779138,-1.184733543688844
-4.0295,-0.0606071883737839,-0.6019184314039508
-4.029,0.3982103305061524,-0.2946159176543747
-4.0285,0.6222840025174878,-0.1886495336027004
-4.028,0.6542945270904776,-0.1568596183872173
-4.0275,0.5902734779444399,-0.1780528951975329
-4.027,0.5369226036560266,-0.2204394488182027
-4.0265,0.7076454013787938,-0.2522293640336761
-4.026,0.707645401378949,-0.2098428104130352
-4.0255,0.5796033030867573,-0.1144730647665284
-4.025,0.4408910299370091,0.002089957690207409
-4.0245,0.3341892813599692,0.1292496185524479
-4.024,0.2381577076409128,0.2670059178194992
-4.0235,0.07810508477581871,0.5319218779484441
-4.023,-0.4447334832512615,0.182232810577543
-4.0225,-0.9782422261349084,-0.4959520473525559
-4.022,-1.501080794160882,-1.068170521231077
-4.0215,-1.714484291314584,-1.248313374118933
-4.021,-1.244996597576974,-0.6866915386455698
-4.0205,-0.658136980404429,0.07626642652648545
-4.02,-0.1779791118084482,0.7226613692420747
-4.0195,0.1101156093487211,1.135930267043229
-4.019,0.2488278824985954,1.358459673551745
-4.0185,0.3021787567869601,1.43263614238785
-4.018,0.291508581929326,1.411442865577582
-4.0175,0.2488278824985954,1.316073119931075
-4.017,0.2168173579255766,1.188913459069181
-4.0165,0.1848068333524898,1.040560521396558
-4.016,0.1741366584948169,0.8604176685088755
-4.0155,-0.0285966638009689,0.4895353243283527
-4.015,-0.5727755815432495,-0.2734226408447145
-4.0145,-0.8822106524157645,-1.01518732920576
-4.014,-0.7755089038390353,-1.502632695843019
-4.0135,-0.2633405106696765,-1.629792356705143
-4.013,0.2808384070716433,-1.269506650929778
-4.0125,0.6329541773751706,-0.8880276683437509
-4.012,0.7716664505250157,-0.6337083466195783
-4.0115,0.7396559259519968,-0.4641621321370536
-4.011,0.6116138276598051,-0.3899856633008816
-4.0105,0.48357172936773,-0.3793890248957238
-4.01,0.5155822539406614,-0.252229364033705
-4.0095,0.5689331282290746,-0.1250697031716958
-4.009,0.504912079083037,-0.07208651114590681
-4.0085,0.4088805053637574,0.002089957690409797
-4.008,0.3235191065023739,0.1080563417419877
-4.0075,0.2808384070716821,0.2458126410090391
-4.007,0.4729015545098144,0.6272916235951727
-4.0065,0.3448594562177392,0.6060983467848571
-4.006,-0.2420001609548061,-0.06148987274069118
-4.0055,-0.8181896032702122,-0.6019184314045579
-4.005,-1.415719395299897,-0.9622041371799229
-4.0045,-1.607782542738184,-0.9198175835592532
-4.004,-1.148965023857326,-0.2628260024381881
-4.0035,-0.5941159312583333,0.4895353243280153
-4.003,-0.1459685872356623,1.082947075017392
-4.0025,0.131455959063834,1.453829419197915
-4.002,0.2594980573562781,1.633972272086098
-4.0015,0.291508581929326,1.6657621873016
-4.001,0.280838407071653,1.602182356870653
-4.0005,0.2488278824985663,1.475022696008432
-4,0.2168173579255475,1.305476481525908
-3.9995,0.2061471830678648,1.104140351827727
-3.999,0.09944543449103843,0.7862411996727035
-3.9985,-0.4447334832507763,0.01268659609548085
-3.998,-0.8822106524157645,-0.8244478379127463
-3.9975,-1.074273799854052,-1.492036057438295
-3.997,-0.6794773301197943,-1.873515040024322
-3.9965,0.01408403562957729,-1.778145294377815
-3.996,0.5475927785137094,-1.227120097309109
-3.9955,0.8036769750980928,-0.8668343915334161
-3.995,0.8356874996711408,-0.6231117082145651
-3.9945,0.7183155762366316,-0.4641621321370536
-3.994,0.5582629533713921,-0.4217755785163839
-3.9935,0.5369226036560266,-0.4535654937318862
-3.993,0.6863050516635838,-0.5489352393783931
-3.9925,0.6436243522328531,-0.4641621321370536
-3.992,0.5155822539406614,-0.3052125560595421
-3.9915,0.3982103305061524,-0.1144730647665284
-3.991,0.3021787567870086,0.05507314971615059
-3.9905,0.3555296310754218,0.3305857482505039
-3.99,0.4622313796522482,0.55311515475902
-3.9895,-0.09261771294724913,0.01268659609548085
-3.989,-0.6367966306890638,-0.6972881770507372
-3.9885,-1.234326422719292,-1.237716735714276
-3.988,-1.383708870726849,-1.227120097309109
-3.9875,-0.9782422261349084,-0.5489352393783931
-3.987,-0.4874141826815069,0.2140227257936621
-3.9865,-0.09261771294724913,0.8180311148882058
-3.986,0.142126133921769,1.199510097474233
-3.9855,0.2488278824985954,1.390249588767247
-3.985,0.291508581929326,1.464426057603419
-3.9845,0.2701682322139607,1.432636142387917
-3.984,0.2381577076409128,1.347863035146577
-3.9835,0.2061471830678648,1.220703374284568
-3.983,0.1954770082101822,1.082947075017392
-3.9825,0.1848068333524996,0.8922075837243778
-3.982,-0.07127736323188383,0.3199891098453364
-3.9815,-0.5407650569699201,-0.5277419625680583
-3.981,-1.06360362499637,-1.258910012524611
-3.9805,-1.020922925565639,-1.682775548731308
-3.98,-0.3273615598162672,-1.831128486403653
-3.9795,0.3235191065023739,-1.417859588602123
-3.979,0.7289857510943143,-1.01518732920576
-3.9785,0.857027849386506,-0.718481453861072
-3.978,0.79300680024041,-0.4959520473525559
-3.9775,0.6542945270905358,-0.3687923864905467
-3.977,0.5262524287983441,-0.3052125560595421
-3.9765,0.6436243522328531,-0.3052125560595421
-3.976,0.6436243522328531,-0.252229364033705
-3.9755,0.5262524287983441,-0.1356663415768632
-3.975,0.408880505363835,0.01268659609548085
-3.9745,0.3128489316446912,0.1610395337678249
-3.974,0.291508581929326,0.3199891098453364
-3.9735,0.5155822539406614,0.6802748156210291
-3.973,0.2594980573562781,0.3729723018711736
-3.9725,-0.3700422592469978,-0.3687923864905467
-3.972,-1.1062843244271,-1.025783967610927
-3.9715,-1.682473766741963,-1.375473034981453
-3.971,-1.479740444445993,-0.9939940523954253
-3.9705,-0.9035510021311299,-0.1992461720078678
-3.97,-0.3700422592469978,0.5319218779486851
-3.9695,-0.007256314085787988,1.040560521396722
-3.969,0.1954770082101822,1.326669758336243
-3.9685,0.2808384070716433,1.443232780793084
-3.968,0.291508581929326,1.443232780793084
-3.9675,0.2594980573562781,1.358459673551745
-3.967,0.2274875327832301,1.231300012689736
-3.9665,0.1954770082101822,1.072350436612224
-3.966,0.1848068333524996,0.8922075837243778
-3.9655,-0.02859666380115328,0.5001319627331828
-3.965,-0.6474668055467465,-0.3052125560595421
-3.9645,-1.074273799854052,-1.068170521231597
-3.964,-1.212986073003927,-1.576809164679634
-3.9635,-0.7434983792658902,-1.439052865412457
-3.963,-0.08194753808956648,-0.9728007755850904
-3.9625,0.4302208550792003,-0.6654982618352349
-3.962,0.6863050516635838,-0.474758770542221
-3.9615,0.7289857510943143,-0.3687923864905467
-3.961,0.6436243522328531,-0.3581957480853793
-3.9605,0.5155822539406614,-0.3793890248957141
-3.96,0.5369226036560266,-0.3899856633008816
-3.9595,0.5582629533713921,-0.3687923864905467
-3.959,0.4835717293676135,-0.2840192792492073
-3.9585,0.3875401556484697,-0.1674562567923655
-3.958,0.3128489316446912,-0.04029659593035631
-3.9575,0.2701682322139607,0.1186529801471552
-3.957,0.1741366584948169,0.3729723018711736
-3.9565,-0.2526703358124887,0.2564092794143318
-3.956,-0.6261264558313813,-0.3581957480853793
-3.9555,-1.052933450138687,-0.8668343915334161
-3.955,-1.554431668449771,-1.174136905283272
-3.9545,-1.501080794161358,-0.9622041371799229
-3.954,-0.9675720512772257,-0.2310360872233701
-3.9535,-0.4340633083930936,0.5107286011383502
-3.953,-0.03926683865883591,1.072350436612224
-3.9525,0.1741366584948169,1.411442865577582
-3.952,0.2808384070716433,1.570392441655093
-3.9515,0.291508581929326,1.602182356870596
-3.951,0.2701682322139607,1.549199164844759
-3.9505,0.2274875327832301,1.432636142387917
-3.95,0.1954770082101822,1.29487984312074
-3.9495,0.1848068333524996,1.104140351827727
-3.949,0.1101156093487211,0.8180311148882058
-3.9485,-0.391382608962363,0.08686306493165288
-3.948,-0.7008176798351597,-0.7290780922662394
-3.9475,-0.7434983792658902,-1.375473034981453
-3.947,-0.4447334832507763,-1.693372187136476
-3.9465,0.09944543449103843,-1.703968825541643
-3.946,0.5475927785137094,-1.460246142222792
-3.9455,0.7823366253827275,-1.046977244421262
-3.945,0.825017324813458,-0.718481453861072
-3.9445,0.7396559259519968,-0.5489352393783931
-3.944,0.6116138276598051,-0.4535654937318862
-3.9435,0.5689331282290746,-0.4959520473525559
-3.943,0.6969752265212663,-0.5807251545938954
-3.9425,0.6329541773751706,-0.4853554089473885
-3.942,0.5049120790829789,-0.2946159176543747
-3.9415,0.3875401556484697,-0.08268314955102604
-3.941,0.291508581929326,0.1080563417419877
-3.9405,0.3235191065023739,0.3729723018711736
-3.94,0.4408910299368829,0.5955017083796896
-3.9395,0.03542438534494258,0.09745970333682032
-3.939,-0.4767440078238243,-0.5277419625680583
-3.9385,-1.042263275281004,-0.9092209451540858
-3.938,-1.51175096901904,-1.110557074852267
-3.9375,-1.287677297007705,-0.6654982618352349
-3.937,-0.7648387289812555,0.08686306493165288
-3.9365,-0.2846808603855366,0.7544512844572011
-3.936,0.03542438534494258,1.220703374284568
-3.9355,0.2168173579255475,1.475022696008586
-3.935,0.2808384070716433,1.570392441655093
-3.9345,0.2808384070716433,1.559795803249926
-3.934,0.2594980573562781,1.475022696008586
-3.9335,0.2274875327832301,1.347863035146577
-3.933,0.2061471830678648,1.167720182258731
-3.9325,0.1848068333524996,0.9451907757502149
-3.932,-0.1886492866663929,0.383568940276341
-3.9315,-0.7328282044082075,-0.4641621321370536
-3.931,-0.9995825758502737,-1.174136905283272
-3.9305,-0.9142211769888124,-1.619195718300304
-3.93,-0.3166913849585846,-1.650985633515806
-3.9295,0.2808384070716433,-1.311893204550448
-3.929,0.6542945270905358,-0.9198175835592532
-3.9285,0.79300680024041,-0.6866915386455698
-3.928,0.7396559259519968,-0.570128516188728
-3.9275,0.6116138276598051,-0.5065486857577234
-3.927,0.4942419042252961,-0.4959520473525559
-3.9265,0.6329541773751706,-0.4535654937318862
-3.926,0.6649647019482183,-0.3687923864905467
-3.9255,0.5582629533713921,-0.252229364033705
-3.925,0.4302208550792003,-0.1462629799820306
-3.9245,0.3235191065023739,-0.008506680714854012
-3.924,0.2701682322139607,0.1716361721729923
-3.9235,0.2274875327832301,0.4789386859228479
-3.923,-0.2206598112394408,0.1610395337678249
-3.9225,-0.7968492535543035,-0.4641621321370536
-3.922,-1.180975548430879,-0.8668343915334161
-3.9215,-1.607782542738184,-1.121153713257435
-3.921,-1.543761493592088,-0.8880276683437509
-3.9205,-0.9995825758502737,-0.1462629799820306
-3.92,-0.4554036581084589,0.6060983467848571
-3.9195,-0.04993701351651855,1.167720182258731
-3.919,0.1741366584948169,1.496215972818921
-3.9185,0.2808384070716433,1.633972272086098
-3.918,0.291508581929326,1.633972272086098
-3.9175,0.2701682322139607,1.549199164844759
-3.917,0.2381577076409128,1.400846227172415
-3.9165,0.2061471830678648,1.220703374284568
-3.916,0.1954770082101822,1.00877060618122
-3.9155,0.04609456020262521,0.6166949851900245
-3.915,-0.5194247072545548,-0.1886495336027004
-3.9145,-0.9569018764195432,-0.9833974139902578
-3.914,-1.1062843244271,-1.555615887869299
-3.9135,-0.5834457564006506,-1.809935209593318
-3.913,0.09944543449103843,-1.545019249464132
-3.9125,0.5902734779444399,-1.163540266878104
-3.912,0.8036769750980928,-0.8350444763179138
-3.9115,0.825017324813458,-0.5595318777835605
-3.911,0.7183155762366316,-0.4323722169215513
-3.9105,0.5689331282290746,-0.4217755785163839
-3.91,0.5796033030867573,-0.4853554089473885
-3.9095,0.6329541773751706,-0.4959520473525559
-3.909,0.5475927785137094,-0.400582301706049
-3.9085,0.4302208550792003,-0.2734226408440398
-3.908,0.3341892813600565,-0.1356663415768632
-3.9075,0.2701682322139607,0.01268659609548085
-3.907,0.07810508477567314,0.309392471440169
-3.9065,-0.5194247072545548,0.2881991946298341
-3.906,-1.042263275281004,-0.3158091944647096
-3.9055,-1.394379045584531,-0.8138511995075789
-3.905,-1.821186039891837,-1.121153713257435
-3.9045,-1.789175515318789,-1.025783967610927
-3.904,-1.159635198715513,-0.3370024712750445
-3.9035,-0.5407650569699201,0.4471487707073456
-3.903,-0.09261771294724913,1.051157159801889
-3.9025,0.1634664836371343,1.432636142387917
-3.902,0.2808384070716433,1.612778995275763
-3.9015,0.3128489316446912,1.6657621873016
-3.901,0.291508581929326,1.612778995275763
-3.9005,0.2488278824985954,1.496215972818921
-3.9,0.2168173579255475,1.347863035146577
-3.8995,0.2061471830678648,1.167720182258731
-3.899,0.1527963087794516,0.8922075837243778
-3.8985,-0.3273615598162672,0.1928294489833272
-3.898,-0.807519428411986,-0.6654982618352349
-3.8975,-1.1062843244271,-1.375473034981453
-3.897,-1.180975548430879,-1.958288147265661
-3.8965,-0.6261264558313813,-1.88411167842949
-3.896,0.03542438534494258,-1.481439419033127
-3.8955,0.5049120790829789,-0.9939940523954253
-3.895,0.7183155762366316,-0.6231117082145651
-3.8945,0.7183155762366316,-0.4323722169215513
-3.894,0.6222840025174878,-0.4217755785163839
-3.8935,0.5796033030867573,-0.400582301706049
-3.893,0.7289857510943143,-0.1780528951975329
-3.8925,0.6863050516635838,-0.1568596183871981
-3.892,0.5369226036560266,-0.2204394488182027
-3.8915,0.408880505363835,-0.2628260024388724
-3.891,0.3128489316446912,-0.2204394488182027
-3.8905,0.3235191065023739,0.002089957690313421
-3.89,0.5369226036560266,0.383568940276341
-3.8895,0.1848068333524996,0.03387987290581572
-3.889,-0.3807124341046804,-0.5277419625680583
-3.8885,-1.052933450138687,-0.9092209451540858
-3.888,-1.46907026958831,-1.01518732920576
-3.8875,-1.191645723288561,-0.4429688553267188
-3.887,-0.6688071552621118,0.3517790250608387
-3.8865,-0.2206598112394408,1.040560521396722
