Class_7_Listen_To_Music/Class_7_Listen_To_Music_Basim_12.csv

#Digilent WaveForms Oscilloscope Acquisition
#Device Name: EExplorer
#Serial Number: SN:210151A2B84A
#Date Time: 2021-02-04 10:57:15.316
#Sample rate: 2000Hz
#Samples: 16384
#Trigger: Source: Channel 1 Type: Edge Condition: Rising Level: 0 V Hyst.: Auto HoldOff: 0 s
#Channel 1: Range: 1 V/div Offset: 0 V Attenuation: 1 X
#Channel 2: Range: 1 V/div Offset: 0 V Attenuation: 1 X
#Power Supplies: ON
#Fixed Supply: ON
#Voltage: 3.3 V Readback: 3.327 V
#Positive Supply: ON
#Voltage: 3.7 V Readback: 3.709 V
#Current: 40 mA Readback: 19 mA
#Negative Supply: ON
#Voltage: -3.7 V Readback: -3.353 V
#Current: -40 mA Readback: -7 mA
#Reference 1: ON
#Voltage: 0 V
#Reference 2: ON
#Voltage: 0 V

Time (s),Channel 1 (V),Channel 2 (V)
-4.096,0.3021787567870086,0.4259554938970107
-4.0955,0.3448594562177004,0.3835689402763796
-4.095,0.3448594562175451,0.3093924714402846
-4.0945,0.1314559590640864,0.4365521323021782
-4.094,-0.5941159312576734,0.5955017083795451
-4.0935,-1.309017646723604,-0.06148987274091284
-4.093,-1.895877263895616,-0.3052125560595421
-4.0925,-1.94922813818398,0.08686306493129625
-4.092,-1.298347471864786,0.1398462569573358
-4.0915,-0.6367966306890638,-0.02969995752518888
-4.091,-0.156638762093345,-0.2098428104130352
-4.0905,0.1314559590641931,-0.34759910968026
-4.09,0.2488278824985954,-0.400582301706049
-4.0895,0.291508581929326,-0.3899856633008816
-4.089,0.280838407071653,-0.3370024712750926
-4.0885,0.2488278824985954,-0.2734226408440398
-4.088,0.2274875327832301,-0.1780528951975329
-4.0875,0.2061471830678842,-0.08268314955111278
-4.087,0.1954770082101628,0.0126865960955194
-4.0865,0.1741366584948169,0.05507314971615059
-4.086,-0.1993194615237359,-0.3475991096798456
-4.0855,-0.935561526704663,-0.9728007755855337
-4.085,-1.46907026958831,-1.460246142222792
-4.0845,-1.191645723288813,-1.545019249464055
-4.084,-0.6047861061155791,-1.205926820498273
-4.0835,-0.124628237520297,-0.6549016234300674
-4.083,0.1634664836371343,-0.07208651114585861
-4.0825,0.2915085819293551,0.3093924714403328
-4.082,0.3235191065023739,0.4895353243280153
-4.0815,0.3128489316446912,0.5849050699745222
-4.081,0.4302208550790936,0.7332580076467314
-4.0805,0.5369226036560266,0.7438546460520338
-4.08,0.4942419042252961,0.5955017083796896
-4.0795,0.4515612047946044,0.4259554938971649
-4.079,0.4088805053637962,0.2670059178193739
-4.0785,0.3661998059331045,0.1292496185523226
-4.078,0.1848068333526645,0.2776025562245318
-4.0775,-0.4874141826820503,0.5213252395429683
-4.077,-1.084943974711735,-0.08268314955102604
-4.0765,-1.415719395299596,-0.5383386009728112
-4.076,-1.554431668449393,-0.1780528951973884
-4.0755,-1.138294849000148,-0.01910331912002144
-4.075,-0.6047861061160158,-0.08268314955102604
-4.0745,-0.167308936950785,-0.1992461720079353
-4.074,0.09944543449103843,-0.2734226408440398
-4.0735,0.2381577076409128,-0.2946159176543747
-4.073,0.2808384070716045,-0.2628260024389013
-4.0725,0.2701682322139607,-0.1992461720078678
-4.072,0.2488278824985954,-0.1038764263613609
-4.0715,0.2274875327832495,-0.008506680714940748
-4.071,0.2168173579255378,0.07626642652656256
-4.0705,0.2061471830678648,0.1610395337678249
-4.07,0.1954770082101919,0.2246193641987717
-4.0695,0.01408403562929587,-0.0508932343359478
-4.069,-0.2953510352432193,-0.5171453241628908
-4.0685,-0.6474668055467465,-0.9939940523954253
-4.068,-0.6367966306886756,-1.38606967338662
-4.0675,-0.2099896363817582,-1.38606967338662
-4.067,0.1314559590640864,-1.01518732920576
-4.0665,0.3021787567870474,-0.527741962567586
-4.066,0.3448594562177392,-0.008506680714854012
-4.0655,0.3235191065023739,0.3517790250608387
-4.065,0.302178756787028,0.542518516353679
-4.0645,0.3128489316446912,0.6590815388106942
-4.064,0.3875401556484697,0.7226613692416989
-4.0635,0.3768699807907968,0.5955017083798053
-4.063,0.3341892813600177,0.3835689402761483
-4.0625,0.291508581929326,0.1716361721729923
-4.062,0.2701682322139801,0.01268659609562542
-4.0615,0.2061471830673796,0.03387987290623978
-4.061,-0.3273615598162672,0.5001319627331828
-4.0605,-1.1062843244271,0.4153588554918433
-4.06,-1.586442193022567,-0.3158091944650469
-4.0595,-1.30901764672307,-0.6866915386455698
-4.059,-0.7648387289812555,-0.6654982618352349
-4.0585,-0.2846808603859733,-0.4959520473527101
-4.058,0.03542438534494258,-0.326405832869877
-4.0575,0.2061471830678648,-0.1992461720078678
-4.057,0.2701682322139025,-0.1144730647666055
-4.0565,0.2808384070716433,-0.06148987274069118
-4.056,0.2594980573562781,-0.01910331912002144
-4.0555,0.2381577076409322,0.01268659609545194
-4.055,0.2274875327832107,0.033879872905835
-4.0545,0.2061471830678648,0.05507314971615059
-4.054,0.2061471830678648,0.08686306493162396
-4.0535,0.1954770082099978,0.09745970333656974
-4.053,-0.007256314085787988,-0.1780528951975329
-4.0525,-0.5300948821122373,-0.8350444763179138
-4.052,-1.04226327528114,-1.460246142223265
-4.0515,-1.191645723288561,-1.979481424075996
-4.051,-0.5941159312583333,-2.085447808127671
-4.0505,-0.03926683865934055,-1.640388995111043
-4.05,0.2701682322139607,-1.036380606016095
-4.0495,0.3768699807907871,-0.3899856633008816
-4.049,0.38754015564846,0.1186529801466926
-4.0485,0.3448594562177101,0.4259554938970685
-4.048,0.3128489316446912,0.4895353243280153
-4.0475,0.3448594562177101,0.5743084315692777
-4.047,0.3555296310753927,0.563711793164091
-4.0465,0.3235191065023739,0.457745409112513
-4.046,0.2915085819293551,0.3305857482506195
-4.0455,0.2808384070716239,0.2034260873883886
-4.045,0.2594980573562781,0.08686306493165288
-4.0445,-0.02859666380115328,-0.1462629799820306
-4.044,-0.7648387289817408,-0.7078848154564732
-4.0435,-1.298347471865388,-1.333086481360783
-4.043,-1.639793067311232,-1.121153713257435
-4.0425,-1.554431668449849,-0.42177557851702
-4.042,-0.9995825758502737,-0.1356663415768632
-4.0415,-0.4554036581084589,-0.1144730647665284
-4.041,-0.04993701351688729,-0.1780528951974751
-4.0405,0.1741366584949043,-0.2416327256285568
-4.04,0.2701682322139607,-0.2628260024388724
-4.0395,0.2915085819293066,-0.2416327256285568
-4.039,0.2808384070716239,-0.1886495336026329
-4.0385,0.2594980573562781,-0.1144730647665284
-4.038,0.2381577076409322,-0.02969995752526598
-4.0375,0.2274875327832204,0.05507314971623732
-4.037,0.2168173579255475,0.1504428953626575
-4.0365,0.1634664836371343,0.1610395337678249
-4.036,-0.2099896363820008,-0.2416327256289134
-4.0355,-0.4767440078238243,-0.6549016234300674
-4.035,-0.5621054066852853,-0.9410108603695881
-4.0345,-0.1673089369513867,-1.227120097308849
-4.034,0.2381577076409128,-1.174136905283272
-4.0335,0.4408910299368829,-0.8244478379127463
-4.033,0.4622313796522288,-0.3899856633012767
-4.0325,0.4088805053637768,0.01268659609577962
-4.032,0.3448594562177392,0.3411823866556712
-4.0315,0.3021787567870474,0.5213252395433537
-4.031,0.3448594562177586,0.6060983467848474
-4.0305,0.3661998059331045,0.5955017083796896
-4.03,0.3448594562177586,0.5213252395435851
-4.0295,0.3128489316446622,0.4047622170865602
-4.029,0.2808384070716433,0.2776025562246667
-4.0285,0.2594980573562781,0.1504428953626575
-4.028,0.04609456020202354,0.29879583303531
-4.0275,-0.6154562809736985,0.6378882620003594
-4.027,-1.30901764672307,0.1080563417419877
-4.0265,-1.469070269588164,-0.5383386009726377
-4.026,-1.031593100423322,-0.6760949002404023
-4.0255,-0.5194247072545548,-0.5807251545938954
-4.025,-0.1139580626629832,-0.4323722169216863
-4.0245,0.1314559590641931,-0.3158091944646517
-4.024,0.2488278824985954,-0.252229364033705
-4.0235,0.2808384070716142,-0.2098428104130738
-4.023,0.2808384070716239,-0.1992461720078486
-4.0225,0.2594980573562781,-0.1780528951975329
-4.022,0.2381577076409322,-0.1674562567923751
-4.0215,0.2274875327832204,-0.1462629799819921
-4.021,0.2168173579255475,-0.1038764263613609
-4.0205,0.2061471830678648,-0.07208651114585861
-4.02,0.2061471830675543,-0.0402965959306358
-4.0195,-0.1352984123779797,-0.3475991096802118
-4.019,-0.7008176798351597,-0.9622041371799229
-4.0185,-0.967572051276983,-1.470842780627497
-4.018,-0.6474668055467465,-1.831128486403653
-4.0175,-0.1032878878049318,-1.735758740757146
-4.017,0.2381577076406022,-1.269506650930202
-4.0165,0.3875401556484794,-0.7290780922658153
-4.016,0.3982103305061524,-0.2628260024388724
-4.0155,0.3661998059331336,0.129249618551966
-4.015,0.312848931644701,0.447148770707548
-4.0145,0.3235191065023739,0.6696781772158616
-4.014,0.3875401556484115,0.7862411996725974
-4.0135,0.3768699807907483,0.6908714540260423
-4.013,0.3341892813600565,0.5213252395435176
-4.0125,0.3021787567870086,0.3517790250608387
-4.012,0.2915085819293066,0.2352160026039488
-4.0115,0.2701682322139607,0.1822328105781598
-4.011,-0.1779791118087102,0.3517790250608387
-4.0105,-0.9462317015611617,-0.06148987274031531
-4.01,-1.458400094730627,-0.8668343915334161
-4.0095,-1.629122892453549,-1.439052865412457
-4.009,-1.191645723288959,-1.28010328933509
-4.0085,-0.615456280973291,-0.8032545611020163
-4.008,-0.1673089369510276,-0.3687923864905467
-4.0075,0.1101156093484688,-0.06148987274097067
-4.007,0.2488278824986342,0.1080563417420552
-4.0065,0.291508581929326,0.1822328105781598
-4.006,0.291508581929326,0.2034260873884947
-4.0055,0.2701682322139413,0.1928294489833079
-4.005,0.2488278824985954,0.1716361721729923
-4.0045,0.2274875327832301,0.1504428953626575
-4.004,0.2168173579255475,0.13984625695749
-4.0035,0.2168173579255475,0.13984625695749
-4.003,0.08877525963335578,-0.02969995752518888
-4.0025,-0.2099896363814864,-0.5171453241624475
-4.002,-0.4767440078238243,-1.0999604364471
-4.0015,-0.5621054066852853,-1.608599079895136
-4.001,-0.2633405106704431,-1.714565463946714
-4.0005,0.06743490991816518,-1.449649503817201
-4,0.2594980573562781,-0.9833974139902578
-3.9995,0.3235191065023739,-0.4641621321370536
-3.999,0.3341892813600565,-0.06148987274069118
-3.9985,0.3235191065023739,0.1822328105781598
-3.998,0.3021787567870086,0.2987958330350016
-3.9975,0.3021787567870086,0.383568940276341
-3.997,0.291508581929326,0.4047622170866759
-3.9965,0.2808384070716433,0.3729723018711736
-3.996,0.2594980573562781,0.2881991946298341
-3.9955,0.2488278824985954,0.2140227257936621
-3.995,0.2488278824985954,0.1292496185523226
-3.9945,-0.04993701351651855,0.2881991946298341
-3.994,-0.7861790786966207,0.1292496185523226
-3.9935,-1.362368521011484,-0.5807251545938954
-3.993,-1.725154466172693,-0.6549016234300674
-3.9925,-1.661133417026597,-0.1462629799820306
-3.992,-1.084943974711735,0.01268659609548085
-3.9915,-0.4980843575391895,-0.04029659593035631
-3.991,-0.07127736323188383,-0.1356663415768632
-3.9905,0.1741366584948169,-0.1992461720078678
-3.99,0.2808384070716433,-0.2098428104130352
-3.9895,0.3021787567870086,-0.1780528951975329
-3.989,0.291508581929326,-0.1038764263613609
-3.9885,0.2701682322139607,-0.01910331912002144
-3.988,0.2488278824985954,0.07626642652648545
-3.9875,0.2274875327832301,0.1716361721729923
-3.987,0.2274875327832301,0.2564092794143318
-3.9865,0.1954770082101822,0.2987958330350016
-3.986,-0.03926683865883591,-0.07208651114585861
-3.9855,-0.3380317346739499,-0.6019184314042303
-3.985,-0.4020527838200457,-0.9833974139902578
-3.9845,0.1314559590640864,-1.258910012524611
-3.984,0.5369226036560266,-1.227120097309109
-3.9835,0.6542945270905358,-0.8880276683437509
-3.983,0.5902734779444399,-0.4323722169215513
-3.9825,0.4729015545099309,0.02328323450064829
-3.982,0.3661998059331045,0.3941655786815084
-3.9815,0.3021787567870086,0.5849050699745222
-3.981,0.408880505363835,0.6908714540261965
-3.9805,0.5155822539406614,0.6908714540261965
-3.98,0.4835717293676135,0.5637117931641874
-3.9795,0.3982103305061524,0.3729723018711736
-3.979,0.3341892813600565,0.1822328105781598
-3.9785,0.3021787567870086,0.05507314971615059
-3.978,0.1314559590640864,0.2140227257936621
-3.9775,-0.5194247072545548,0.4789386859228479
-3.977,-1.084943974711735,-0.09327978795619347
-3.9765,-1.074273799854052,-0.6760949002404023
-3.976,-0.7114878546928423,-0.7608680074817418
-3.9755,-0.2953510352432193,-0.6125150698093976
-3.975,0.00341386077189465,-0.4323722169215513
-3.9745,0.1741366584948169,-0.2840192792492073
-3.974,0.2594980573562781,-0.1886495336027004
-3.9735,0.2808384070716433,-0.1356663415768632
-3.973,0.2701682322139607,-0.09327978795619347
-3.9725,0.2488278824985954,-0.07208651114585861
-3.972,0.2381577076409128,-0.04029659593035631
-3.9715,0.2274875327832301,-0.008506680714854012
-3.971,0.2168173579255475,0.03387987290581572
-3.9705,0.2168173579255475,0.07626642652648545
-3.97,0.2061471830678648,0.1080563417419877
-3.9695,-0.1459685872356623,-0.2628260024388724
-3.969,-0.572775581542968,-0.8032545611024114
-3.9685,-0.8715404775580819,-1.269506650929778
-3.968,-0.722158029550525,-1.163540266878104
-3.9675,-0.274010685527854,-0.8986243067489184
-3.967,0.0674349099179905,-0.6019184314042303
-3.9665,0.2594980573562781,-0.2628260024388724
-3.966,0.3235191065023739,0.06566978812131802
-3.9655,0.3341892813600565,0.3517790250608387
-3.965,0.3128489316446912,0.4789386859228479
-3.9645,0.3768699807907871,0.5955017083796896
-3.964,0.5475927785137094,0.775644561267536
-3.9635,0.5582629533713921,0.6908714540261965
-3.963,0.4729015545099309,0.5001319627331828
-3.9625,0.3875401556484697,0.309392471440169
-3.962,0.3128489316446912,0.1610395337678249
-3.9615,0.2488278824985954,0.06566978812131802
-3.961,-0.1459685872356623,0.3411823866556712
-3.9605,-0.7861790786966207,0.2670059178194992
-3.96,-0.9782422261349084,-0.3370024712750445
-3.9595,-0.7434983792658902,-0.5807251545938954
-3.959,-0.3807124341046804,-0.4959520473525559
-3.9585,-0.07127736323188383,-0.3158091944647096
-3.958,0.1314559590640864,-0.1356663415768632
-3.9575,0.2381577076409128,0.002089957690313421
-3.957,0.2701682322139607,0.09745970333682032
-3.9565,0.2701682322139607,0.1716361721729923
-3.956,0.2594980573562781,0.2246193641988295
-3.9555,0.2381577076409128,0.2670059178194992
-3.955,0.2274875327832301,0.2987958330350016
-3.9545,0.2168173579255475,0.3199891098453364
-3.954,0.2168173579255475,0.3411823866556712
-3.9535,0.2168173579255475,0.3517790250608387
-3.953,0.08877525963335578,0.1080563417419877
-3.9525,-0.2099896363817582,-0.4535654937318862
-3.952,-0.4767440078238243,-0.9833974139902578
-3.9515,-0.690147504977477,-1.51322933424863
-3.951,-0.3593720843893152,-1.703968825541643
-3.9505,0.01408403562957729,-1.439052865412457
-3.95,0.2488278824985954,-0.9622041371799229
-3.9495,0.3341892813600565,-0.4429688553267188
-3.949,0.3448594562177392,-0.02969995752518888
-3.9485,0.3235191065023739,0.2564092794143318
-3.948,0.3128489316446912,0.383568940276341
-3.9475,0.3235191065023739,0.4153588554918433
-3.947,0.3128489316446912,0.3623756634660061
-3.9465,0.3021787567870086,0.2776025562246667
-3.946,0.3235191065023739,0.2140227257936621
-3.9455,0.3341892813600565,0.1186529801471552
-3.945,0.3235191065023739,0.03387987290581572
-3.9445,0.07810508477567314,0.3941655786815084
-3.944,-0.6794773301197943,0.6060983467848571
-3.9435,-1.287677297007705,-0.06148987274069118
-3.943,-1.479740444445993,-0.7396747306714069
-3.9425,-1.116954499284783,-0.7820612842920766
-3.942,-0.5941159312583333,-0.5277419625680583
-3.9415,-0.156638762093345,-0.2310360872233701
-3.941,0.1101156093487211,0.01268659609548085
-3.9405,0.2488278824985954,0.1610395337678249
-3.94,0.291508581929326,0.2564092794143318
-3.9395,0.291508581929326,0.2987958330350016
-3.939,0.2701682322139607,0.3305857482505039
-3.9385,0.2488278824985954,0.3305857482505039
-3.938,0.2381577076409128,0.3305857482505039
-3.9375,0.2274875327832301,0.309392471440169
-3.937,0.2168173579255475,0.2987958330350016
-3.9365,0.1954770082101822,0.2140227257936621
-3.936,0.03542438534494258,-0.2416327256285375
-3.9355,-0.2526703358124887,-0.8244478379127463
-3.935,-0.722158029550525,-1.322489842955616
-3.9345,-0.658136980404429,-1.290699927740113
-3.934,-0.2846808603855366,-1.121153713257435
-3.9335,0.04609456020262521,-0.8456411147230812
-3.933,0.2274875327832301,-0.4535654937318862
-3.9325,0.3021787567870086,-0.06148987274069118
-3.932,0.3235191065023739,0.13984625695749
-3.9315,0.3128489316446912,0.2140227257936621
-3.931,0.4302208550792003,0.309392471440169
-3.9305,0.5475927785137094,0.3941655786815084
-3.93,0.5049120790829789,0.2987958330350016
-3.9295,0.4195506802215176,0.1610395337678249
-3.929,0.3661998059331045,0.09745970333682032
-3.9285,0.3128489316446912,0.02328323450064829
-3.928,0.1101156093487211,0.2034260873884947
-3.9275,-0.5514352318276028,0.6590815388106942
-3.927,-1.170305373573196,0.2564092794143318
-3.9265,-1.191645723288561,-0.3793890248957141
-3.926,-0.807519428411986,-0.5065486857577234
-3.9255,-0.3593720843893152,-0.3475991096802118
-3.925,-0.02859666380115328,-0.1356663415768632
-3.9245,0.1741366584948169,0.05507314971615059
-3.924,0.2594980573562781,0.2034260873884947
-3.9235,0.2808384070716433,0.309392471440169
-3.923,0.2808384070716433,0.3729723018711736
-3.9225,0.2594980573562781,0.4047622170866759
-3.922,0.2381577076409128,0.4259554938970107
-3.9215,0.2274875327832301,0.4365521323021782
-3.921,0.2274875327832301,0.4365521323021782
-3.9205,0.2168173579255475,0.4259554938970107
-3.92,0.2168173579255475,0.3941655786815084
-3.9195,0.1101156093487211,0.1080563417419877
-3.919,-0.156638762093345,-0.5383386009732256
-3.9185,-0.4767440078238243,-1.184733543688439
-3.918,-0.423393133535411,-1.693372187136476
-3.9175,-0.1032878878049318,-1.693372187136476
-3.917,0.1527963087794516,-1.290699927740113
-3.9165,0.291508581929326,-0.792657922697244
-3.916,0.3235191065023739,-0.3158091944647096
-3.9155,0.3128489316446912,-0.02969995752518888
-3.915,0.3021787567870086,0.13984625695749
-3.9145,0.3341892813600565,0.2246193641988295
-3.914,0.4729015545099309,0.2987958330350016
-3.9135,0.4729015545099309,0.2564092794143318
-3.913,0.4195506802215176,0.1610395337678249
-3.9125,0.3555296310754218,0.07626642652648545
-3.912,0.3021787567870086,0.01268659609548085
-3.9115,0.2168173579255475,0.05507314971615059
-3.911,-0.3166913849585846,0.4683420475176805
-3.9105,-1.084943974711735,0.4047622170866759
-3.91,-1.586442193022819,-0.2840192792492073
-3.9095,-1.330357996438436,-0.5595318777835605
-3.909,-0.7861790786966207,-0.4535654937318862
-3.9085,-0.2953510352432193,-0.2416327256285375
-3.908,0.03542438534494258,-0.04029659593035631
-3.9075,0.2168173579255475,0.1080563417419877
-3.907,0.291508581929326,0.2140227257936621
-3.9065,0.291508581929326,0.2776025562246667
-3.906,0.2808384070716433,0.3199891098453364
-3.9055,0.2594980573562781,0.3411823866556712
-3.905,0.2381577076409128,0.3517790250608387
-3.9045,0.2274875327832301,0.3517790250608387
-3.904,0.2168173579255475,0.3517790250608387
-3.9035,0.2168173579255475,0.3411823866556712
-3.903,0.07810508477567314,0.1504428953626575
-3.9025,-0.4447334832507763,-0.5065486857577234
-3.902,-0.8288597781273515,-1.184733543688439
-3.9015,-1.031593100423322,-1.75695201756748
-3.901,-0.6794773301197943,-1.88411167842949
-3.9005,-0.2099896363817582,-1.523825972653797
-3.9,0.1101156093487211,-1.036380606016095
-3.8995,0.2808384070716433,-0.5277419625680583
-3.899,0.3341892813600565,-0.1568596183871981
-3.8985,0.3341892813600565,0.08686306493165288
-3.898,0.3341892813600565,0.1928294489833272
-3.8975,0.408880505363835,0.3517790250608387
-3.897,0.4195506802215176,0.3623756634660061
-3.8965,0.3768699807907871,0.2776025562246667
-3.896,0.3341892813600565,0.1610395337678249
-3.8955,0.3021787567870086,0.07626642652648545
-3.895,0.2808384070716433,0.02328323450064829
-3.8945,-0.007256314085787988,0.2776025562246667
-3.894,-0.754168554123573,0.701468092431364
-3.8935,-1.458400094730627,0.2246193641988295
-3.893,-1.543761493592088,-0.4111789401112165
-3.8925,-1.06360362499637,-0.5171453241628908
-3.892,-0.5194247072545548,-0.3793890248957141
-3.8915,-0.09261771294724913,-0.1780528951975329
-3.891,0.1527963087794516,0.002089957690313421
-3.8905,0.2701682322139607,0.1292496185523226
-3.89,0.3021787567870086,0.2140227257936621
-3.8895,0.291508581929326,0.2776025562246667
-3.889,0.2701682322139607,0.309392471440169
-3.8885,0.2488278824985954,0.3305857482505039
-3.888,0.2381577076409128,0.3517790250608387
-3.8875,0.2274875327832301,0.3517790250608387
