Class_7_Listen_To_Music/Class_7_Listen_To_Music_1_UZ_4.csv

#Digilent WaveForms Oscilloscope Acquisition
#Device Name: EExplorer
#Serial Number: SN:210151A2B84A
#Date Time: 2020-12-03 12:22:44.996
#Sample rate: 2000Hz
#Samples: 16384
#Trigger: Source: Channel 1 Type: Edge Condition: Rising Level: 0 V Hyst.: Auto HoldOff: 0 s
#Channel 1: Range: 1 V/div Offset: 0 V Attenuation: 1 X
#Channel 2: Range: 1 V/div Offset: 0 V Attenuation: 1 X
#Power Supplies: ON
#Fixed Supply: ON
#Voltage: 3.3 V Readback: 3.302 V
#Positive Supply: ON
#Voltage: 3.7 V Readback: 3.747 V
#Current: 40 mA Readback: 21 mA
#Negative Supply: ON
#Voltage: -3.7 V Readback: -3.901 V
#Current: -40 mA Readback: 0 A
#Reference 1: ON
#Voltage: 0 V
#Reference 2: ON
#Voltage: 0 V

Time (s),Channel 1 (V),Channel 2 (V)
-4.096,0.1207857842064037,0.9875773293708847
-4.0955,0.3021787567868436,0.8392243916986755
-4.095,0.9850699476793965,0.1080563417410915
-4.0945,1.753322537431848,-0.8774310299385835
-4.094,2.23348040602713,-1.640388995109945
-4.0935,2.340182154603985,-1.968884785670251
-4.093,1.892034810581722,-1.333086481360783
-4.0925,1.251824319121346,-0.5913217929997375
-4.092,0.6863050516632053,0.002089957690631461
-4.0915,0.2701682322139607,0.3517790250608387
-4.091,0.02475421048725994,0.4789386859228479
-4.0905,-0.09261771294729765,0.4471487707072588
-4.09,-0.1459685872356623,0.3517790250608387
-4.0895,-0.3380317346739499,0.1186529801471552
-4.089,-0.3700422592469687,0.0868630649316818
-4.0885,-0.2846808603855366,0.1928294489833272
-4.088,-0.1886492866663929,0.3199891098453364
-4.0875,-0.1352984123780282,0.4259554938969143
-4.087,-0.2313299860975893,0.404762217086194
-4.0865,-0.7434983792658902,-0.1250697031716958
-4.086,-2.002579012471297,-1.44964950381642
-4.0855,-2.173301810195286,-1.915901593645223
-4.085,-2.087940411333903,-2.17022091536901
-4.0845,-1.629122892453967,-1.64038899511112
-4.084,-0.9142211769883175,-0.6337083466189711
-4.0835,-0.3700422592469978,0.2034260873884947
-4.083,-0.1139580626626144,0.6696781772158616
-4.0825,0.01408403562961611,0.9239974989399764
-4.082,0.05676473506030786,1.029963882991555
-4.0815,0.05676473506030786,1.051157159801889
-4.081,0.04609456020263492,1.029963882991574
-4.0805,0.04609456020262521,0.9981739677760521
-4.08,0.05676473506030786,0.9663840525605498
-4.0795,0.08877525963332666,0.9239974989399186
-4.079,0.152796308779898,0.8710143069135996
-4.0785,0.6436243522328531,0.383568940276341
-4.078,1.379866417412286,-0.5701285161878605
-4.0775,1.902704985439502,-1.417859588602258
-4.077,2.009406734016231,-1.566212526274467
-4.0765,1.625280439140005,-0.8880276683443677
-4.076,1.059761171682039,-0.1992461720074534
-4.0755,0.5796033030867573,0.2564092794143318
-4.075,0.2488278824985954,0.457745409112513
-4.0745,0.05676473506023023,0.5319218779486657
-4.074,-0.02859666380115328,0.5107286011383502
-4.0735,-0.04993701351651855,0.457745409112513
-4.073,-0.1779791118085938,0.4047622170867241
-4.0725,-0.2420001609548061,0.3729723018711736
-4.072,-0.1993194615240755,0.3729723018711736
-4.0715,-0.1352984123780379,0.4153588554918047
-4.071,-0.081947538089615,0.4577454091125034
-4.0705,-0.1352984123779797,0.4471487707073456
-4.07,-0.5407650569695512,0.05507314971650717
-4.0695,-1.693143941600053,-1.14234699006854
-4.069,-2.141291285622316,-1.990078062481164
-4.0685,-2.183971985053047,-2.371557045067191
-4.068,-2.215982509625541,-2.318573853040487
-4.0675,-1.607782542738184,-1.364876396576285
-4.067,-0.8608703027003992,-0.252229364033705
-4.0665,-0.3807124341044378,0.500131962733578
-4.066,-0.1139580626626144,0.9345941373450475
-4.0655,0.02475421048725994,1.135930267043229
-4.065,0.06743490991795169,1.188913459069018
-4.0645,0.0674349099179905,1.167720182258731
-4.064,0.0674349099179905,1.104140351827727
-4.0635,0.07810508477566344,1.04056052139678
-4.063,0.09944543449105785,0.9663840525604728
-4.0625,0.1207857842064037,0.8816109453192104
-4.062,0.2808384070714978,0.7650479228624746
-4.0615,0.8676980242448387,0.6484849004050546
-4.061,1.582599739708926,0.1292496185523226
-4.0605,1.828013761435626,-0.5383386009732256
-4.06,1.753322537431508,-0.8668343915331752
-4.0595,1.379866417412955,-0.6019184314042303
-4.059,0.8676980242441885,-0.2946159176543747
-4.0585,0.4408910299372711,-0.05089323433574539
-4.058,0.1314559590640864,0.1716361721729923
-4.0575,-0.01792648894347063,0.3305857482505039
-4.057,-0.0926177129471812,0.425955493896924
-4.0565,-0.1032878878049318,0.457745409112513
-4.056,-0.1139580626626144,0.4789386859228479
-4.0555,-0.09261771294726853,0.4789386859228479
-4.055,-0.06060718837418178,0.4895353243280346
-4.0545,-0.03926683865883591,0.5107286011383502
-4.054,-0.07127736323185471,0.5425185163538236
-4.0535,-0.3273615598168883,0.3729723018704315
-4.053,-1.010252750707956,-0.4429688553267188
-4.0525,-2.290673733629873,-1.703968825541643
-4.052,-2.792171951940821,-2.180817553774062
-4.0515,-2.6427895039334,-2.053657892912168
-4.051,-1.842526389607202,-1.142346990067769
-4.0505,-0.9355615267050026,-0.09327978795714764
-4.05,-0.3487019095316325,0.6166949851900245
-4.0495,-0.07127736323188383,0.9875773293708847
-4.049,0.05676473506019139,1.157123543853409
-4.0485,0.08877525963334608,1.199510097474214
-4.048,0.07810508477567314,1.178316820663898
-4.0475,0.0674349099180002,1.12533362863811
-4.047,0.06743490991800992,1.072350436612167
-4.0465,0.08877525963335578,1.00877060618122
-4.046,0.1101156093487017,0.9451907757502728
-4.0455,0.2701682322145624,0.7756445612668613
-4.045,0.9317190733902845,0.03387987290581572
-4.0445,1.678631313428069,-0.9410108603695881
-4.044,2.180129531739396,-1.714565463947292
-4.0435,2.446883903181219,-2.244397384205182
-4.043,2.233480406027567,-1.947691508860494
-4.0425,1.582599739709518,-1.036380606016924
-4.042,0.857027849386506,-0.2310360872233701
-4.0415,0.3555296310754218,0.2987958330350016
-4.041,0.05676473506057961,0.5001319627329998
-4.0405,-0.09261771294728795,0.4577454091124456
-4.04,-0.1352984123779797,0.383568940276341
-4.0395,-0.1352984123779797,0.330585748250552
-4.039,-0.1139580626625756,0.2881991946298245
-4.0385,-0.07127736323188383,0.2776025562246667
-4.038,-0.04993701351653796,0.2776025562246667
-4.0375,-0.03926683865898148,0.3093924714400147
-4.037,-0.1993194615240755,0.13984625695749
-4.0365,-0.6367966306890638,-0.4429688553267188
-4.036,-1.863866739323208,-1.640388995111091
-4.0355,-2.568098279929622,-2.138431000153508
-4.035,-3.016245623952293,-2.371557045067191
-4.0345,-2.589438629645375,-1.873515040024775
-4.034,-1.618452717595867,-0.7502713690765743
-4.0335,-0.807519428411986,0.1928294489833272
-4.033,-0.306021210101358,0.7968378380773216
-4.0325,-0.02859666380104653,1.135930267043354
-4.032,0.08877525963335578,1.273686566310405
-4.0315,0.1101156093487017,1.294879843120721
-4.031,0.09944543449101902,1.252493289500013
-4.0305,0.07810508477567314,1.188913459069066
-4.03,0.08877525963334608,1.114736990232962
-4.0295,0.1101156093488278,1.029963882991487
-4.029,0.2274875327832301,0.9557874141553824
-4.0285,0.7716664505250448,0.5743084315693548
-4.028,1.561259389993978,-0.3264058328706577
-4.0275,2.020076908873914,-1.184733543688439
-4.027,2.12677865745074,-1.75695201756748
-4.0265,2.084097958020048,-1.862918401619059
-4.026,1.571929564851243,-1.163540266878104
-4.0255,0.9530594231056497,-0.4323722169215513
-4.025,0.4515612047950217,0.05507314971570726
-4.0245,0.1527963087793158,0.3305857482505424
-4.024,0.00341386077189465,0.3729723018711736
-4.0235,-0.04993701351647003,0.351779025060858
-4.023,-0.1352984123779991,0.3093924714401497
-4.0225,-0.156638762093345,0.2881991946298341
-4.022,-0.1352984123779991,0.2670059178195185
-4.0215,-0.1032878878052132,0.2776025562243679
-4.021,-0.4127229586777283,-0.05089323433552374
-4.0205,-0.9995825758502737,-0.5595318777835605
-4.02,-1.319687821581384,-0.8774310299392388
-4.0195,-2.013249187330125,-1.598002441489969
-4.019,-2.493407055925843,-2.159624276963843
-4.0185,-2.749491252509994,-2.424540237092788
-4.018,-2.696140378221814,-2.276187299420684
-4.0175,-1.991908837614759,-1.354279758171118
-4.017,-1.15963519871627,-0.2946159176553382
-4.0165,-0.508754532396513,0.5213252395439706
-4.016,-0.1139580626626144,1.019367244586387
-4.0155,0.06743490991782553,1.252493289499858
-4.015,0.142126133921769,1.326669758336223
-4.0145,0.142126133921769,1.305476481525908
-4.014,0.1207857842064231,1.231300012689803
-4.0135,0.09944543449102873,1.125333628637965
-4.013,0.08877525963335578,1.019367244586387
-4.0125,0.09944543449103843,0.92399749893988
-4.012,0.3982103305068414,0.6166949851892246
-4.0115,1.15579274540162,-0.2628260024388724
-4.011,1.710641838001117,-1.142346990067769
-4.0105,1.817343586577847,-1.502632695843134
-4.01,1.603940089424291,-1.036380606016095
-4.0095,1.166462920259302,-0.474758770542221
-4.009,0.7396559259523849,-0.02969995752559368
-4.0085,0.3875401556482465,0.2034260873885718
-4.008,0.142126133921769,0.2881991946298341
-4.0075,0.02475421048736669,0.2776025562246763
-4.007,-0.02859666380127944,0.2352160026039102
-4.0065,-0.1673089369510276,0.13984625695749
-4.006,-0.4554036581084589,-0.01910331912002144
-4.0055,-0.4554036581083424,0.05507314971631443
-4.005,-0.3273615598162672,0.2352160026039969
-4.0045,-0.1886492866663929,0.4259554938970107
-4.004,-0.1246282375211995,0.5637117931633586
-4.0035,-1.116954499284783,-0.3475991096802118
-4.003,-2.002579012472442,-1.216523458903942
-4.0025,-2.472066706210051,-1.841725124808251
-4.002,-2.568098279929622,-2.202010830584512
-4.0015,-2.408045657064382,-2.064254531317336
-4.001,-1.693143941600296,-1.152943628473766
-4.0005,-0.9782422261344231,-0.1568596183865042
-4,-0.4447334832507763,0.6060983467848571
-3.9995,-0.1032878878049318,1.082947075017392
-3.999,0.05676473506030786,1.284283204715573
-3.9985,0.1101156093487211,1.33726639674141
-3.998,0.1101156093487211,1.284283204715573
-3.9975,0.1101156093487211,1.188913459069066
-3.997,0.1101156093487211,1.082947075017392
-3.9965,0.1207857842064037,0.9557874141553824
-3.996,0.1314559590640864,0.8286277532933731
-3.9955,0.3128489316446912,0.6590815388106942
-3.995,1.006410297394063,-0.01910331912002144
-3.9945,1.689301488285752,-0.9198175835592532
-3.994,2.009406734016231,-1.629792356705471
-3.9935,2.12677865745074,-2.043061254507001
-3.993,1.796003236862578,-1.650985633515806
-3.9925,1.19847344483235,-0.9092209451540858
-3.992,0.6649647019482183,-0.2628260024388724
-3.9915,0.2701682322139607,0.2140227257936621
-3.991,0.01408403562957729,0.3729723018711736
-3.9905,-0.1032878878049318,0.3729723018711736
-3.99,-0.1352984123779797,0.383568940276341
-3.9895,-0.1779791118087102,0.4683420475176805
-3.989,-0.156638762093345,0.457745409112513
-3.9885,-0.124628237520297,0.4153588554918433
-3.988,-0.1032878878049318,0.383568940276341
-3.9875,-0.08194753808956648,0.3729723018711736
-3.987,-0.6261264558313813,-0.1462629799820306
-3.9865,-1.575772018165136,-1.216523458903942
-3.986,-1.639793067311232,-1.767548655972648
-3.9855,-1.575772018165136,-2.286783937825852
-3.985,-1.799845690176472,-2.54110325954987
-3.9845,-1.735824641030376,-2.021867977696666
-3.984,-1.234326422719292,-0.9728007755850904
-3.9835,-0.7114878546928423,-0.02969995752518888
-3.983,-0.3166913849585846,0.6484849004055269
-3.9825,-0.07127736323188383,1.040560521396722
-3.982,0.04609456020262521,1.210106735879401
-3.9815,0.09944543449103843,1.25249328950007
-3.981,0.1101156093487211,1.220703374284568
-3.9805,0.1101156093487211,1.167720182258731
-3.98,0.1314559590640864,1.093543713422559
-3.9795,0.142126133921769,1.00877060618122
-3.979,0.1954770082101822,0.9134008605347127
-3.9785,0.6863050516635838,0.3729723018711736
-3.978,1.475897991132099,-0.5807251545938954
-3.9775,2.041417258589279,-1.417859588602123
-3.977,2.276161105458297,-1.958288147265661
-3.9765,1.988066384300866,-1.629792356705471
-3.976,1.337185717982225,-0.8244478379127463
-3.9755,0.7289857510943143,-0.1568596183871981
-3.975,0.291508581929326,0.2564092794143318
-3.9745,0.03542438534494258,0.4683420475176805
-3.974,-0.04993701351651855,0.55311515475902
-3.9735,-0.07127736323188383,0.5319218779486851
-3.973,-0.2206598112394408,0.3941655786815084
-3.9725,-0.2953510352432193,0.2881991946298341
-3.972,-0.2420001609548061,0.2670059178194992
-3.9715,-0.1673089369510276,0.2987958330350016
-3.971,-0.09261771294724913,0.3517790250608387
-3.9705,-0.1459685872356623,0.3623756634660061
-3.97,-0.8928808272734472,-0.3899856633008816
-3.9695,-1.991908837614759,-1.417859588602123
-3.969,-2.621449154218035,-1.990078062481164
-3.9685,-3.154957897102167,-2.456330152308531
-3.968,-3.186968421675215,-2.403346960282694
-3.9675,-2.247993034199143,-1.417859588602123
-3.967,-1.287677297007705,-0.3687923864905467
-3.9665,-0.5834457564006506,0.4259554938970107
-3.966,-0.1459685872356623,0.9134008605347127
-3.9655,0.0674349099179905,1.157123543853563
-3.965,0.142126133921769,1.231300012689736
-3.9645,0.142126133921769,1.220703374284568
-3.964,0.1314559590640864,1.167720182258731
-3.9635,0.142126133921769,1.104140351827727
-3.963,0.1634664836371343,1.019367244586387
-3.9625,0.1954770082101822,0.9345941373450475
-3.962,0.5475927785137094,0.5637117931641874
-3.9615,1.315845368266859,-0.3475991096802118
-3.961,1.988066384300866,-1.258910012524611
-3.9605,2.446883903181219,-1.926498232050159
-3.96,2.553585651758046,-2.191414192179345
-3.9595,2.030747083731597,-1.502632695843462
-3.959,1.273164668836129,-0.6337083466197325
-3.9585,0.6009436528021226,0.02328323450064829
-3.958,0.1848068333524996,0.3411823866556712
-3.9575,-0.04993701351651855,0.4259554938970107
-3.957,-0.1352984123779797,0.4471487707073456
-3.9565,-0.1993194615240755,0.4259554938970107
-3.956,-0.3487019095316325,0.3199891098453364
-3.9555,-0.3166913849585846,0.2670059178194992
-3.955,-0.2206598112394408,0.2670059178194992
-3.9545,-0.1352984123779797,0.2776025562246667
-3.954,-0.1032878878049318,0.2881991946298341
-3.9535,-0.4020527838200457,0.01268659609548085
-3.953,-1.46907026958831,-1.131750351662602
-3.9525,-1.575772018165136,-1.703968825541643
-3.952,-1.330357996438436,-2.159624276963843
-3.9515,-1.661133417026597,-2.424540237093029
-3.951,-1.554431668449771,-1.809935209593318
-3.9505,-1.031593100423322,-0.718481453861072
-3.95,-0.572775581542968,0.1610395337678249
-3.9495,-0.2420001609548061,0.7438546460520338
-3.949,-0.03926683865883591,1.072350436612224
-3.9485,0.05676473506030786,1.199510097474233
-3.948,0.08877525963335578,1.220703374284568
-3.9475,0.08877525963335578,1.188913459069066
-3.947,0.09944543449103843,1.135930267043229
-3.9465,0.1207857842064037,1.061753798207057
-3.946,0.142126133921769,0.9875773293708847
-3.9455,0.3235191065023739,0.7650479228623686
-3.945,1.027750647109428,-0.05089323433552374
-3.9445,1.817343586577944,-1.004590690800593
-3.944,2.361522504319758,-1.746355379162313
-3.9435,2.649617225477189,-2.21260746898968
-3.943,2.350852329462076,-1.862918401619155
-3.9425,1.603940089424291,-0.9516074987747555
-3.942,0.8890383739595538,-0.1886495336027004
-3.9415,0.3982103305061524,0.3623756634660061
-3.941,0.07810508477567314,0.6378882620003594
-3.9405,-0.08194753808956648,0.701468092431364
-3.94,-0.124628237520297,0.6484849004055269
-3.9395,-0.1352984123779797,0.5743084315693548
-3.939,-0.1032878878049318,0.4895353243280153
-3.9385,-0.06060718837420119,0.4153588554918433
-3.938,-0.04993701351651855,0.3729723018711736
-3.9375,-0.04993701351651855,0.3411823866556712
-3.937,-0.2633405106701714,0.1292496185523226
-3.9365,-1.170305373573196,-0.8880276683437509
-3.936,-1.810515865034154,-1.84172512480882
-3.9355,-1.629122892453549,-2.297380576231019
-3.935,-1.330357996438436,-2.180817553774178
-3.9345,-0.8181896032696687,-1.237716735714276
-3.934,-0.3273615598162672,-0.1886495336027004
-3.9335,-0.09261771294724913,0.4895353243280153
-3.933,0.00341386077189465,0.8816109453192104
-3.9325,0.04609456020262521,1.061753798207057
-3.932,0.05676473506030786,1.125333628638062
-3.9315,0.05676473506030786,1.114736990232894
-3.931,0.05676473506030786,1.082947075017392
-3.9305,0.07810508477567314,1.040560521396722
-3.93,0.1101156093487211,0.9981739677760521
-3.9295,0.142126133921769,0.9451907757502149
-3.929,0.2061471830678648,0.8816109453192104
-3.9285,0.6756348768059011,0.3729723018711736
-3.928,1.465227816274416,-0.5595318777835605
-3.9275,1.913375160297087,-1.375473034981453
-3.927,2.201469881454519,-1.958288147265661
-3.9265,2.201469881454519,-2.117237723343173
-3.926,1.646620788855021,-1.396666311791788
-3.9255,0.9850699476786977,-0.6019184314042303
-3.925,0.4835717293676135,0.04447651131098315
-3.9245,0.1527963087794516,0.4153588554918433
-3.924,0.00341386077189465,0.5955017083796896
-3.9235,-0.04993701351651855,0.6378882620003594
-3.923,-0.2099896363817582,0.7226613692416989
-3.9225,-0.2846808603855366,0.701468092431364
-3.922,-0.2206598112394408,0.6060983467848571
-3.9215,-0.156638762093345,0.5213252395435176
-3.921,-0.1032878878049318,0.457745409112513
-3.9205,-0.1779791118087102,0.4259554938970107
-3.92,-0.7008176798351597,-0.1356663415768632
-3.9195,-1.842526389607202,-1.354279758171118
-3.919,-2.002579012472442,-1.905304955239825
-3.9185,-2.055929886760855,-2.360960406662024
-3.918,-1.810515865034154,-2.096044446532838
-3.9175,-1.127624674142465,-1.046977244421262
-3.917,-0.5514352318276028,-0.07208651114585861
-3.9165,-0.2206598112394408,0.5637117931641874
-3.916,-0.02859666380115328,0.9345941373450475
-3.9155,0.05676473506030786,1.114736990232894
-3.915,0.07810508477567314,1.157123543853563
-3.9145,0.07810508477567314,1.146526905448396
-3.914,0.07810508477567314,1.114736990232894
-3.9135,0.08877525963335578,1.061753798207057
-3.913,0.1314559590640864,1.00877060618122
-3.9125,0.2061471830678648,0.9557874141553824
-3.912,0.5369226036560266,0.6696781772158616
-3.9115,1.219813794547716,-0.2204394488182027
-3.911,1.710641838001117,-1.131750351662602
-3.9105,1.76399271228953,-1.587405803084801
-3.91,1.475897991132099,-1.184733543688439
-3.9095,0.9850699476786977,-0.5277419625680583
-3.909,0.5582629533713921,0.01268659609548085
-3.9085,0.2701682322139607,0.2564092794143318
-3.908,0.07810508477567314,0.3305857482505039
-3.9075,-0.007256314085787988,0.3623756634660061
-3.907,-0.04993701351651855,0.3941655786815084
-3.9065,-0.1139580626626144,0.457745409112513
-3.906,-0.1993194615240755,0.5213252395435176
-3.9055,-0.1886492866663929,0.5425185163538525
-3.905,-0.1352984123779797,0.5425185163538525
-3.9045,-0.09261771294724913,0.5637117931641874
-3.904,-0.124628237520297,0.55311515475902
-3.9035,-0.4874141826815069,0.1822328105781598
-3.903,-1.67180359188428,-1.089363798041932
-3.9025,-1.949228138184029,-1.788741932782983
-3.902,-1.959898313041711,-2.202010830584512
-3.9015,-2.205312334768412,-2.318573853041354
-3.901,-1.757164990745741,-1.523825972653797
-3.9005,-1.052933450138687,-0.4535654937318862
-3.9,-0.5407650569699201,0.3517790250608387
-3.8995,-0.1886492866663929,0.8604176685088755
-3.899,0.00341386077189465,1.125333628638062
-3.8985,0.07810508477567314,1.210106735879401
-3.898,0.09944543449103843,1.199510097474233
-3.8975,0.09944543449103843,1.146526905448396
-3.897,0.1207857842064037,1.082947075017392
-3.8965,0.1207857842064037,1.00877060618122
-3.896,0.142126133921769,0.9134008605347127
-3.8955,0.3341892813600565,0.7438546460520338
-3.895,1.027750647109428,0.01268659609548085
-3.8945,1.774662887147213,-0.9092209451540858
-3.894,2.169459356881471,-1.587405803084801
-3.8935,2.105438307735375,-1.598002441489969
-3.893,1.635950613997339,-1.036380606016095
-3.8925,1.038420821967111,-0.3899856633008816
-3.892,0.5689331282290746,0.09745970333682032
-3.8915,0.2488278824985954,0.3623756634660061
-3.891,0.04609456020262521,0.457745409112513
-3.8905,-0.03926683865883591,0.457745409112513
-3.89,-0.1032878878049318,0.457745409112513
-3.8895,-0.2206598112394408,0.5319218779486851
-3.889,-0.2099896363817582,0.5213252395435176
-3.8885,-0.1673089369510276,0.4895353243280153
-3.888,-0.1032878878049318,0.4683420475176805
-3.8875,-0.1032878878049318,0.4683420475176805
-3.887,-0.8288597781273515,-0.1992461720078678
-3.8865,-1.927887788468663,-1.280103289334946
-3.886,-2.610778979360353,-1.894708316834657
-3.8855,-2.6427895039334,-2.053657892912168
