Class_7_Listen_To_Music/Class_7_Listen_To_Music_Suko_3.csv

#Digilent WaveForms Oscilloscope Acquisition
#Device Name: EExplorer
#Serial Number: SN:210151A2B84A
#Date Time: 2020-11-04 11:24:17.638
#Sample rate: 2000Hz
#Samples: 16384
#Trigger: Source: Channel 1 Type: Edge Condition: Rising Level: 0 V Hyst.: Auto HoldOff: 0 s
#Channel 1: Range: 1 V/div Offset: 0 V Attenuation: 1 X
#Channel 2: Range: 1 V/div Offset: 0 V Attenuation: 1 X
#Power Supplies: ON
#Fixed Supply: ON
#Voltage: 3.3 V Readback: 3.33 V
#Positive Supply: ON
#Voltage: 3.7 V Readback: 3.713 V
#Current: 500 mA Readback: 20 mA
#Negative Supply: ON
#Voltage: -3.7 V Readback: -3.703 V
#Current: -500 mA Readback: -7 mA
#Reference 1: ON
#Voltage: 0 V
#Reference 2: ON
#Voltage: 0 V

Time (s),Channel 1 (V),Channel 2 (V)
-4.096,0.4942419042252961,0.849821030103708
-4.0955,-0.6154562809726893,1.220703374284231
-4.095,-1.437059745015204,1.358459673551301
-4.0945,-1.373038695869166,0.8710143069140429
-4.094,-0.8608703027008651,0.1080563417426816
-4.0935,-0.3273615598159179,-0.4959520473528354
-4.093,0.05676473506030786,-0.8032545611024114
-4.0925,0.2701682322137666,-0.8562377531282005
-4.092,0.3555296310754315,-0.7396747306712141
-4.0915,0.3661998059331045,-0.5277419625680583
-4.091,0.3448594562177392,-0.2840192792492073
-4.0905,0.2701682322138927,-0.06148987274053697
-4.09,0.1954770082101822,0.1080563417419877
-4.0895,0.1741366584948169,0.2776025562246667
-4.089,0.01408403562972288,0.2246193641988777
-4.0885,-0.3807124341046804,-0.3052125560595421
-4.088,-0.722158029550525,-0.9092209451540858
-4.0875,-1.266336947291845,-1.333086481360398
-4.087,-1.180975548430277,-1.439052865412188
-4.0865,-0.5194247072545548,-1.142346990067769
-4.086,0.0994454344904756,-0.4747587705428282
-4.0855,0.4622313796523744,0.2458126410095788
-4.085,0.6009436528021226,0.701468092431364
-4.0845,0.5902734779444495,0.8816109453190465
-4.084,0.5369226036559684,0.8392243916983864
-4.0835,0.4729015545099309,0.6696781772158616
-4.083,0.5262524287983441,0.5001319627331828
-4.0825,0.6222840025174782,0.3199891098451244
-4.082,0.6116138276598051,0.08686306493165288
-4.0815,0.5796033030867573,-0.1462629799820306
-4.081,0.5262524287983926,-0.3899856633006599
-4.0805,0.3661998059331045,-0.400582301706049
-4.08,0.142126133921769,0.1186529801471552
-4.0795,-0.5621054066846448,0.7120647308359918
-4.079,-1.405049220442864,1.114736990233077
-4.0785,-2.119950935906951,1.316073119931075
-4.078,-2.173301810195316,1.14652690544855
-4.0775,-1.426389570156881,0.4259554938963553
-4.077,-0.658136980404429,-0.2946159176543747
-4.0765,-0.09261771294776355,-0.7396747306710021
-4.076,0.2274875327833563,-0.8986243067488702
-4.0755,0.3661998059331045,-0.8456411147230812
-4.075,0.408880505363835,-0.6549016234300674
-4.0745,0.3875401556484212,-0.4005823017058177
-4.074,0.3341892813600565,-0.1462629799820306
-4.0735,0.2701682322139607,0.04447651131098315
-4.073,0.2061471830679231,0.1292496185522455
-4.0725,0.1101156093487211,0.06566978812131802
-4.072,-0.1779791118087102,-0.3581957480853793
-4.0715,-0.3807124341044961,-0.8032545611020067
-4.071,-0.9569018764199992,-0.9833974139903542
-4.0705,-1.458400094730627,-1.089363798041932
-4.07,-1.138294849000439,-0.941010860369723
-4.0695,-0.444733483250262,-0.5065486857571934
-4.069,0.1207857842064037,0.07626642652648545
-4.0685,0.4408910299368829,0.5849050699745222
-4.068,0.5582629533713824,0.8498210301037562
-4.0675,0.5475927785137094,0.9028042221295453
-4.067,0.4942419042252961,0.8180311148882058
-4.0665,0.494241904225432,0.6908714540261195
-4.066,0.6436243522328531,0.6060983467848571
-4.0655,0.6329541773751706,0.3411823866556712
-4.065,0.55826295337146,0.002089957690621813
-4.0645,0.5049120790829789,-0.2946159176543747
-4.064,0.4835717293676135,-0.5383386009732256
-4.0635,0.899708548816858,-0.262826002439123
-4.063,0.7930068002395657,0.3517790250613013
-4.0625,-0.1352984123779797,0.8604176685088755
-4.062,-1.159635198714582,1.188913459068767
-4.0615,-1.629122892453229,1.146526905447789
-4.061,-1.277007122150022,0.4789386859228479
-4.0605,-0.6794773301197943,-0.2628260024388724
-4.06,-0.1673089369507365,-0.7714646458870923
-4.0595,0.1527963087794516,-0.9728007755850904
-4.059,0.3235191065023739,-0.9516074987747555
-4.0585,0.3768699807907386,-0.7714646458870731
-4.058,0.3768699807907871,-0.5171453241628908
-4.0575,0.3341892813600565,-0.252229364033705
-4.057,0.2701682322140189,-0.02969995752539129
-4.0565,0.2168173579255475,0.1610395337678249
-4.056,0.2168173579255475,0.3623756634660061
-4.0555,0.05676473506045343,0.4683420475175841
-4.055,-0.6367966306896946,0.3411823866552472
-4.0545,-1.330357996438436,-0.1250697031716958
-4.054,-1.714484291314661,-0.6443049850244277
-4.0535,-1.127624674141728,-0.8880276683434907
-4.053,-0.3166913849585846,-0.6019184314042303
-4.0525,0.2808384070716433,0.002089957690313421
-4.052,0.5796033030868349,0.5743084315696536
-4.0515,0.6649647019482183,0.9028042221295453
-4.051,0.6222840025174878,0.9875773293708847
-4.0505,0.5369226036561042,0.8816109453193067
-4.05,0.4729015545099309,0.6590815388106942
-4.0495,0.5796033030867573,0.3941655786815084
-4.049,0.622284002517449,0.1398462569577213
-4.0485,0.5796033030867088,-0.1038764263615537
-4.048,0.5262524287983441,-0.3158091944647096
-4.0475,0.4622313796523064,-0.548935239378181
-4.047,0.6863050516637682,-0.4853554089468777
-4.0465,0.8890383739595538,0.07626642652648545
-4.046,0.1101156093494295,0.6802748156204798
-4.0455,-0.9142211769895597,1.040560521396876
-4.045,-1.735824641030376,1.210106735879401
-4.0445,-1.703814116457328,0.849821030103708
-4.044,-1.095614149568845,0.08686306493106499
-4.0435,-0.4660738329661415,-0.5595318777835605
-4.043,-0.007256314085787988,-0.9092209451540858
-4.0425,0.2594980573560354,-0.9939940523953481
-4.042,0.3661998059331045,-0.8774310299385835
-4.0415,0.3875401556484697,-0.6549016234300674
-4.041,0.3555296310754509,-0.3899856633011225
-4.0405,0.2701682322139219,-0.1462629799818282
-4.04,0.2274875327832301,0.07626642652648545
-4.0395,0.1954770082102113,0.2564092794141679
-4.039,0.07810508477510057,0.298795833034616
-4.0385,-0.5514352318276028,-0.1250697031716958
-4.038,-1.287677297007035,-0.6654982618347434
-4.0375,-1.938557963326424,-1.078767159636938
-4.037,-2.023919362187807,-1.269506650929778
-4.0365,-1.170305373573196,-1.025783967610927
-4.036,-0.3060212101003876,-0.3475991096796143
-4.0355,0.2594980573562781,0.309392471440169
-4.035,0.5155822539406614,0.7544512844572011
-4.0345,0.5796033030866992,0.9557874141551993
-4.034,0.5475927785137094,0.9345941373450475
-4.0335,0.4942419042252961,0.7862411996727035
-4.033,0.526252428798315,0.595501708379863
-4.0325,0.6222840025174587,0.4047622170864156
-4.032,0.5902734779444399,0.1186529801471552
-4.0315,0.5155822539407293,-0.1780528951972631
-4.031,0.4515612047946238,-0.46416213213715
-4.0305,0.5155822539406614,-0.570128516188728
-4.03,1.059761171681981,-0.1144730647669427
-4.0295,0.8356874996702673,0.500131962733578
-4.029,-0.124628237520297,0.9345941373450475
-4.0285,-1.170305373573196,1.167720182258731
-4.028,-1.533091318734047,0.998173967775387
-4.0275,-1.138294849000148,0.2670059178194992
-4.027,-0.572775581542968,-0.4429688553267188
-4.0265,-0.1032878878053587,-0.8880276683433461
-4.026,0.1848068333524996,-1.046977244421262
-4.0255,0.3341892813600565,-0.9833974139902578
-4.025,0.3768699807907483,-0.7820612842922596
-4.0245,0.3661998059330657,-0.5065486857574728
-4.024,0.3235191065023739,-0.2310360872233701
-4.0235,0.2701682322140092,0.02328323450041697
-4.023,0.2381577076408351,0.245812641009174
-4.0225,0.1527963087794516,0.2564092794143318
-4.022,-0.3060212101004847,-0.1250697031713488
-4.0215,-0.9995825758508753,-0.707884815456319
-4.021,-1.661133417026597,-1.163540266878104
-4.0205,-2.066600061618538,-1.38606967338662
-4.02,-1.511750969018245,-1.15294362847231
-4.0195,-0.6367966306890638,-0.4641621321370536
-4.019,0.04609456020262521,0.2564092794143318
-4.0185,0.4515612047941968,0.7544512844567481
-4.018,0.6116138276598051,0.9981739677760521
-4.0175,0.6222840025174878,0.9981739677760521
-4.017,0.5475927785137773,0.8286277532935273
-4.0165,0.5155822539407875,0.5955017083795258
-4.016,0.6542945270905358,0.4153588554918433
-4.0155,0.6542945270905358,0.171636172173214
-4.015,0.5582629533713047,-0.1038764263616115
-4.0145,0.4622313796522482,-0.3793890248957141
-4.014,0.4408910299369024,-0.5595318777833966
-4.0135,0.8997085488172947,-0.2098428104124473
-4.013,0.9637295979633325,0.4365521323021782
-4.0125,0.02475421048725994,0.9663840525605498
-4.012,-1.063603624997088,1.252493289500157
-4.0115,-1.853196564464885,1.347863035146577
-4.011,-1.714484291315011,0.8710143069140429
-4.0105,-1.052933450139288,0.08686306493236606
-4.01,-0.423393133535411,-0.5383386009732256
-4.0095,0.03542438534494258,-0.8668343915334161
-4.009,0.2808384070714201,-0.9304142219643629
-4.0085,0.3768699807908065,-0.8032545611022091
-4.008,0.3982103305061524,-0.5807251545938954
-4.0075,0.3661998059331336,-0.3264058328701083
-4.007,0.3021787567869601,-0.08268314955084292
-4.0065,0.2488278824985954,0.1186529801471552
-4.006,0.2168173579255475,0.309392471440169
-4.0055,0.1848068333525966,0.4789386859226937
-4.005,0.291508581929326,0.309392471440169
-4.0045,0.05676473506030786,-0.2416327256285375
-4.004,-0.5194247072544578,-0.7820612842922501
-4.0035,-0.4127229586777283,-0.9728007755850904
-4.003,0.01408403562957729,-0.6125150698093976
-4.0025,0.3661998059327842,-0.05089323433603454
-4.002,0.5475927785137094,0.4683420475176805
-4.0015,0.6009436528021226,0.7862411996727035
-4.001,0.5689331282291037,0.8710143069139658
-4.0005,0.5049120790829303,0.8074344764828841
-4,0.4515612047945656,0.6378882620003594
-3.9995,0.5582629533713921,0.5213252395435176
-3.999,0.6116138276598051,0.3517790250608387
-3.9985,0.5475927785137094,0.05507314971615059
-3.998,0.5262524287983441,-0.1462629799820306
-3.9975,0.4942419042252961,-0.3475991096802118
-3.997,0.4302208550792003,-0.1674562567923655
-3.9965,0.5155822539406614,0.3941655786815084
-3.996,0.3661998059331045,0.9028042221295453
-3.9955,-0.4020527838200457,1.210106735879401
-3.995,-1.212986073003927,1.316073119931075
-3.9945,-1.26633694729234,0.8392243916985406
-3.994,-0.8181896032696687,0.05507314971615059
-3.9935,-0.3273615598162672,-0.5807251545938954
-3.993,0.04609456020262521,-0.9198175835592532
-3.9925,0.2488278824985954,-0.9833974139902578
-3.992,0.3448594562177392,-0.8668343915334161
-3.9915,0.3661998059331045,-0.6443049850249
-3.991,0.3555296310754218,-0.3793890248957141
-3.9905,0.3128489316446912,-0.1144730647665284
-3.99,0.2701682322139607,0.1080563417419877
-3.9895,0.2168173579255475,0.2458126410091644
-3.989,0.1207857842064037,0.3199891098453364
-3.9885,-0.4447334832507763,0.06566978812131802
-3.988,-0.9782422261349084,-0.4959520473525559
-3.9875,-1.426389570157579,-0.9728007755850904
-3.987,-1.522421143876723,-1.174136905283272
-3.9865,-0.9462317015618604,-0.8456411147230812
-3.986,-0.2526703358124887,-0.2734226408440398
-3.9855,0.2381577076409128,0.3305857482505039
-3.985,0.4729015545099309,0.7120647308365314
-3.9845,0.5475927785137094,0.8392243916985406
-3.984,0.5262524287983441,0.7862411996727035
-3.9835,0.4835717293676135,0.6484849004055269
-3.983,0.5369226036560266,0.5319218779486851
-3.9825,0.6649647019482183,0.4365521323021782
-3.982,0.6222840025174878,0.1610395337678249
-3.9815,0.5262524287983441,-0.1568596183871981
-3.981,0.4302208550792003,-0.4535654937318862
-3.9805,0.291508581929326,-0.4853554089473885
-3.98,-0.4020527838200457,0.05507314971615059
-3.9795,-1.319687821580753,0.6908714540261965
-3.979,-2.098610586191586,1.135930267043229
-3.9785,-2.685470203364131,1.37965295036208
-3.978,-2.493407055925843,1.263089927905238
-3.9775,-1.51175096901904,0.55311515475902
-3.977,-0.658136980404429,-0.1780528951975329
-3.9765,-0.06060718837420119,-0.6443049850249
-3.976,0.2701682322139607,-0.8350444763179138
-3.9755,0.408880505363835,-0.792657922697244
-3.975,0.4302208550792003,-0.6231117082145651
-3.9745,0.3982103305061524,-0.3793890248957141
-3.974,0.3448594562177392,-0.1568596183871981
-3.9735,0.291508581929326,0.06566978812131802
-3.973,0.2594980573562781,0.2670059178194992
-3.9725,0.2381577076409128,0.4259554938970107
-3.972,0.2061471830678648,0.2352160026039969
-3.9715,0.408880505363835,-0.3793890248957141
-3.971,-0.07127736323188383,-0.9728007755850904
-3.9705,-0.8822106524157645,-1.311893204550448
-3.97,-0.9248913518464952,-1.163540266878104
-3.9695,-0.423393133535411,-0.6866915386455698
-3.969,0.04609456020262521,-0.008506680714854012
-3.9685,0.3341892813600565,0.5213252395435176
-3.968,0.4622313796522482,0.7968378380778709
-3.9675,0.4942419042252961,0.8392243916985406
-3.967,0.4729015545099309,0.7332580076468663
-3.9665,0.4622313796522482,0.5319218779486851
-3.966,0.6329541773751706,0.4153588554918433
-3.9655,0.6436243522328531,0.1822328105781598
-3.965,0.6009436528021226,-0.09327978795619347
-3.9645,0.5369226036560266,-0.3687923864905467
-3.964,0.4515612047945656,-0.6019184314042303
-3.9635,-0.01792648894347063,-0.3052125560595421
-3.963,-0.8928808272734472,0.309392471440169
-3.9625,-1.554431668449771,0.8392243916985406
-3.962,-2.087940411333903,1.125333628638062
-3.9615,-2.376035132491334,1.199510097474233
-3.961,-1.725154466172693,0.6802748156210291
-3.9605,-0.9035510021311299,-0.07208651114585861
-3.96,-0.2420001609548061,-0.6337083466197325
-3.9595,0.1634664836371343,-0.9092209451540858
-3.959,0.3555296310754218,-0.9198175835592532
-3.9585,0.4195506802215176,-0.7608680074817418
-3.958,0.408880505363835,-0.5171453241628908
-3.9575,0.3661998059331045,-0.2416327256285375
-3.957,0.3021787567870086,0.002089957690313421
-3.9565,0.2701682322139607,0.2564092794143318
-3.956,0.2488278824985954,0.4683420475176805
-3.9555,0.1741366584948169,0.5213252395435176
-3.955,0.2488278824985954,0.2034260873884947
-3.9545,0.2808384070716433,-0.400582301706049
-3.954,-0.423393133535411,-0.9304142219644207
-3.9535,-0.8822106524157645,-1.05757388282643
-3.953,-0.572775581542968,-0.6866915386455698
-3.9525,-0.08194753808956648,-0.07208651114585861
-3.952,0.2701682322139607,0.4789386859228479
-3.9515,0.4408910299368829,0.775644561267536
-3.951,0.5049120790829789,0.849821030103708
-3.9505,0.4942419042252961,0.7650479228623686
-3.95,0.4622313796522482,0.5743084315693548
-3.9495,0.6116138276598051,0.1716361721729923
-3.949,0.7183155762366316,-0.1568596183871981
-3.9485,0.6542945270905358,-0.3370024712750445
-3.948,0.5475927785137094,-0.474758770542221
-3.9475,0.4408910299368829,-0.6019184314042303
-3.947,0.2274875327832301,-0.3475991096802118
-3.9465,-0.02859666380115328,0.2881991946298341
-3.946,-0.7968492535543035,0.8604176685088755
-3.9455,-1.597112367880501,1.220703374284568
-3.945,-2.205312334768412,1.358459673551745
-3.9445,-1.906547438753298,0.9557874141553824
-3.944,-1.127624674142465,0.1610395337678249
-3.9435,-0.423393133535411,-0.5171453241628908
-3.943,0.04609456020262521,-0.8986243067489184
-3.9425,0.3021787567870086,-1.004590690800593
-3.942,0.408880505363835,-0.9092209451540858
-3.9415,0.4195506802215176,-0.7078848154559045
-3.941,0.3875401556484697,-0.4429688553267188
-3.9405,0.3128489316446912,-0.2098428104130352
-3.94,0.2488278824985954,0.002089957690313421
-3.9395,0.2168173579255475,0.1928294489833272
-3.939,0.142126133921769,0.3305857482505039
-3.9385,-0.423393133535411,0.01268659609548085
-3.938,-1.148965023857831,-0.5913217929990628
-3.9375,-1.799845690176472,-1.089363798041932
-3.937,-1.991908837614759,-1.354279758171118
-3.9365,-1.191645723288561,-1.0999604364471
-3.936,-0.3487019095316325,-0.4323722169215513
-3.9355,0.2168173579255475,0.2458126410091644
-3.935,0.5155822539406614,0.7120647308365314
-3.9345,0.5902734779444399,0.9134008605347127
-3.934,0.5689331282290746,0.8922075837243778
-3.9335,0.5155822539406614,0.7438546460520338
-3.933,0.5369226036560266,0.5849050699745222
-3.9325,0.6756348768059011,0.5001319627331828
-3.932,0.6436243522328531,0.2246193641988295
-3.9315,0.5582629533713921,-0.1038764263613609
-3.931,0.4515612047945656,-0.4217755785163839
-3.9305,0.4942419042252961,-0.5171453241628908
-3.93,1.038420821967111,-0.02969995752518888
-3.9295,1.347855892839907,0.6166949851900245
-3.929,1.678631313428069,1.093543713422559
-3.9285,1.059761171682476,1.347863035146577
-3.928,0.2168173579255475,1.135930267043229
-3.9275,-0.07127736323188383,0.3941655786815084
-3.927,-0.07127736323188383,-0.326405832869877
-3.9265,0.04609456020262521,-0.7820612842920766
-3.926,0.1634664836371343,-0.9410108603695881
-3.9255,0.2594980573562781,-0.8986243067489184
-3.925,0.3021787567870086,-0.718481453861072
-3.9245,0.3235191065023739,-0.4853554089473885
-3.924,0.291508581929326,-0.2416327256285375
-3.9235,0.2701682322139607,-0.008506680714854012
-3.923,0.2381577076409128,0.1716361721729923
-3.9225,0.1954770082101822,0.2776025562246667
-3.922,-0.04993701351651855,0.05507314971615059
-3.9215,-0.6261264558313813,-0.5383386009732256
-3.921,-1.223656247861609,-0.9939940523954253
-3.9205,-1.191645723288561,-1.152943628472937
-3.92,-0.4127229586777283,-1.152943628472937
-3.9195,0.2701682322139607,-0.6866915386455698
-3.919,0.6329541773751706,-0.01910331912002144
-3.9185,0.707645401378949,0.5213252395435176
-3.918,0.6542945270905358,0.8074344764830383
-3.9175,0.5582629533713921,0.849821030103708
-3.917,0.4835717293676135,0.7544512844572011
-3.9165,0.4515612047945656,0.5637117931641874
-3.916,0.6222840025174878,0.3623756634660061
-3.9155,0.6542945270905358,0.1292496185523226
-3.915,0.5796033030867573,-0.1144730647665284
-3.9145,0.4942419042252961,-0.3370024712750445
-3.914,0.4515612047945656,-0.5171453241628908
-3.9135,0.8676980242441885,-0.2098428104130352
-3.913,1.059761171682476,0.4259554938970107
-3.9125,0.1954770082101822,0.92399749893988
-3.912,-0.8715404775580819,1.114736990232894
-3.9115,-1.639793067311232,1.167720182258731
-3.911,-1.501080794161358,0.6590815388106942
-3.9105,-0.9142211769888124,-0.08268314955102604
-3.91,-0.3380317346739499,-0.6549016234300674
-3.9095,0.05676473506030786,-0.9410108603695881
-3.909,0.2808384070716433,-0.9833974139902578
-3.9085,0.3768699807907871,-0.8456411147230812
-3.908,0.3875401556484697,-0.6337083466197325
-3.9075,0.3555296310754218,-0.3793890248957141
-3.907,0.3021787567870086,-0.1356663415768632
-3.9065,0.2594980573562781,0.09745970333682032
-3.906,0.2274875327832301,0.2776025562246667
-3.9055,0.0674349099179905,0.2564092794143318
-3.905,-0.5087545323968721,0.05507314971615059
-3.9045,-1.212986073003927,-0.400582301706049
-3.904,-1.661133417026597,-0.8986243067489184
-3.9035,-1.191645723288561,-1.0999604364471
-3.903,-0.3807124341046804,-0.6866915386455698
-3.9025,0.2274875327832301,0.002089957690313421
-3.902,0.5475927785137094,0.5425185163538525
-3.9015,0.6222840025174878,0.849821030103708
-3.901,0.5902734779444399,0.9345941373450475
-3.9005,0.5155822539406614,0.8604176685088755
-3.9,0.4622313796522482,0.701468092431364
-3.8995,0.5796033030867573,0.6166949851900245
-3.899,0.6649647019482183,0.457745409112513
-3.8985,0.6009436528021226,0.13984625695749
-3.898,0.5155822539406614,-0.1992461720078678
-3.8975,0.4302208550792003,-0.4959520473525559
-3.897,0.6116138276598051,-0.4853554089473885
-3.8965,1.187803269974668,0.07626642652648545
-3.896,0.7716664505250448,0.6802748156210291
-3.8955,-0.2953510352432193,1.061753798207057
-3.895,-1.341028171296118,1.25249328950007
-3.8945,-1.67180359188428,1.072350436612224
-3.894,-1.223656247861609,0.3623756634660061
-3.8935,-0.6154562809736985,-0.3370024712750445
-3.893,-0.1139580626626144,-0.7608680074817418
-3.8925,0.1848068333524996,-0.9092209451540858
-3.892,0.3341892813600565,-0.8456411147230812
-3.8915,0.3875401556484697,-0.6549016234300674
-3.891,0.3661998059331045,-0.400582301706049
-3.8905,0.3128489316446912,-0.1674562567923655
-3.89,0.2594980573562781,0.05507314971615059
-3.8895,0.2274875327832301,0.2564092794143318
-3.889,0.1848068333524996,0.3623756634660061
-3.8885,-0.2206598112394408,0.3729723018711736
-3.888,-1.031593100423322,0.09745970333682032
-3.8875,-1.757164990745741,-0.4641621321370536
-3.887,-1.618452717595867,-0.9622041371799229
