Class_7_Listen_To_Music/Class_7_Listen_To_Music_Zakour_4.csv

#Digilent WaveForms Oscilloscope Acquisition
#Device Name: EExplorer
#Serial Number: SN:210151A2B84A
#Date Time: 2020-11-18 11:40:13.828
#Sample rate: 2000Hz
#Samples: 16384
#Trigger: Source: Channel 1 Type: Edge Condition: Rising Level: 0 V Hyst.: Auto HoldOff: 0 s
#Channel 1: Range: 1 V/div Offset: 0 V Attenuation: 1 X
#Channel 2: Range: 1 V/div Offset: 0 V Attenuation: 1 X
#Power Supplies: ON
#Fixed Supply: ON
#Voltage: 3.3 V Readback: 3.324 V
#Positive Supply: ON
#Voltage: 3.7 V Readback: 3.721 V
#Current: 500 mA Readback: 20 mA
#Negative Supply: ON
#Voltage: -3.7 V Readback: -3.705 V
#Current: -500 mA Readback: -9 mA
#Reference 1: ON
#Voltage: 0 V
#Reference 2: ON
#Voltage: 0 V

Time (s),Channel 1 (V),Channel 2 (V)
-4.096,0.2701682322139607,0.55311515475902
-4.0955,-0.1459685872352838,0.002089957690814548
-4.095,-0.9035510021317316,-0.824447837913392
-4.0945,-1.565101843307454,-1.534422611058964
-4.094,-1.703814116457202,-1.884111678429172
-4.0935,-1.127624674141786,-1.545019249463756
-4.093,-0.3807124341046804,-1.131750351662602
-4.0925,0.1954770082096581,-0.7396747306717635
-4.092,0.5049120790830857,-0.337002471274765
-4.0915,0.6222840025174878,-0.02969995752518888
-4.091,0.6116138276598051,0.1080563417419877
-4.0905,0.5582629533714503,0.1822328105783525
-4.09,0.6222840025174878,0.3941655786815084
-4.0895,0.6649647019482183,0.5319218779486851
-4.089,0.5902734779445078,0.5001319627332117
-4.0885,0.4942419042252961,0.4153588554918433
-4.088,0.4195506802215176,0.3623756634660061
-4.0875,0.3448594562178071,0.3835689402763218
-4.087,-0.01792648894409171,0.4153588554914096
-4.0865,-0.7008176798351597,-0.06148987274069118
-4.086,-1.426389570156919,-0.845641114722368
-4.0855,-1.767835165603075,-1.354279758170858
-4.085,-1.383708870726849,-1.068170521231597
-4.0845,-0.7434983792664726,-0.3793890248963405
-4.084,-0.1993194615237553,0.2564092794147462
-4.0835,0.1527963087794516,0.7120647308365314
-4.083,0.3341892813600565,0.9663840525605498
-4.0825,0.408880505363835,1.093543713422588
-4.082,0.408880505363835,1.125333628638062
-4.0815,0.3875401556484697,1.104140351827727
-4.081,0.344859456217778,1.029963882991622
-4.0805,0.3235191065023739,0.9134008605347127
-4.08,0.291508581929326,0.7650479228623686
-4.0795,0.2701682322139801,0.5743084315695284
-4.079,0.01408403562890769,0.1292496185515805
-4.0785,-0.722158029550525,-0.6866915386455698
-4.078,-1.511750969018322,-1.428456227006615
-4.0775,-1.906547438752764,-1.852321763213747
-4.077,-1.319687821580753,-1.587405803084801
-4.0765,-0.5300948821129554,-1.004590690801123
-4.076,0.0781050847760031,-0.4747587705419126
-4.0755,0.4408910299368829,-0.1356663415768632
-4.075,0.5689331282290746,0.08686306493165288
-4.0745,0.5689331282290357,0.2140227257937199
-4.074,0.5262524287983441,0.2776025562246667
-4.0735,0.5582629533713921,0.4047622170866759
-4.073,0.6969752265211402,0.606098346784674
-4.0725,0.6649647019482183,0.5849050699745222
-4.072,0.5796033030867573,0.5001319627331828
-4.0715,0.4729015545100279,0.4259554938970782
-4.071,0.3982103305058904,0.4259554938969143
-4.0705,0.1101156093487211,0.3199891098453364
-4.07,-0.6581369804037303,-0.3793890248950781
-4.0695,-1.319687821580947,-1.15294362847339
-4.069,-1.533091318734406,-1.650985633515806
-4.0685,-1.479740444445993,-1.640388995110639
-4.068,-0.9675720512767113,-0.9198175835585208
-4.0675,-0.4020527838200457,-0.1144730647665284
-4.067,0.02475421048725994,0.5001319627331828
-4.0665,0.2701682322140577,0.8710143069142164
-4.066,0.3768699807907871,1.061753798207057
-4.0655,0.408880505363835,1.114736990232894
-4.065,0.3982103305061621,1.093543713422579
-4.0645,0.3661998059331045,1.040560521396722
-4.064,0.3448594562177392,0.92399749893988
-4.0635,0.3128489316447204,0.7650479228625131
-4.063,0.2381577076408157,0.3199891098448353
-4.0625,0.1314559590640864,-0.2310360872233701
-4.062,-0.3700422592465417,-0.803254561101891
-4.0615,-1.052933450138959,-1.428456227007753
-4.061,-1.351698346153801,-1.937094870455327
-4.0605,-0.9569018764195432,-2.064254531317336
-4.06,-0.2953510352427535,-1.545019249463496
-4.0595,0.2168173579255475,-0.8456411147230812
-4.059,0.5262524287983441,-0.3687923864905467
-4.0585,0.6542945270904194,0.09745970333639625
-4.058,0.6436243522328531,0.3941655786815084
-4.0575,0.5796033030867573,0.4365521323021782
-4.057,0.5369226036560655,0.4471487707073359
-4.0565,0.707645401378949,0.6590815388106942
-4.056,0.7183155762366316,0.6802748156210291
-4.0555,0.6116138276599021,0.5743084315694512
-4.055,0.5049120790829013,0.478938685922819
-4.0545,0.4195506802215176,0.4471487707073456
-4.054,0.2594980573564236,0.4471487707073456
-4.0535,-0.3807124341053403,-0.1462629799827727
-4.053,-1.1062843244271,-0.9622041371799229
-4.0525,-1.757164990745741,-1.619195718300304
-4.052,-1.789175515318246,-1.661582271920328
-4.0515,-1.191645723288561,-0.9516074987747555
-4.051,-0.5300948821122373,-0.1674562567923655
-4.0505,-0.03926683865928232,0.425955493896471
-4.05,0.2488278824985954,0.7862411996727035
-4.0495,0.3875401556484697,0.9663840525605498
-4.049,0.4195506802214886,1.008770606181181
-4.0485,0.4088805053638059,0.9981739677760039
-4.048,0.3768699807907871,0.9451907757502149
-4.0475,0.3448594562177683,0.8604176685089526
-4.047,0.3128489316446622,0.7332580076467314
-4.0465,0.2808384070716433,0.5849050699745222
-4.046,0.2381577076409516,0.3517790250610507
-4.0455,-0.2846808603863227,-0.2628260024395952
-4.045,-1.148965023857831,-1.05757388282643
-4.0445,-1.917217613610981,-1.693372187136476
-4.044,-2.002579012471676,-1.958288147265286
-4.0435,-1.159635198715513,-1.545019249464132
-4.043,-0.3380317346739499,-0.8032545611024114
-4.0425,0.2381577076403887,-0.3052125560599951
-4.042,0.5582629533713921,0.002089957690313421
-4.0415,0.6542945270905358,0.1822328105781598
-4.041,0.63295417737519,0.2881991946297378
-4.0405,0.5582629533714795,0.3305857482506581
-4.04,0.6542945270905358,0.5001319627331828
-4.0395,0.7183155762365734,0.6272916235950763
-4.039,0.6863050516635256,0.669678177215852
-4.0385,0.6222840025174878,0.6590815388106942
-4.038,0.5262524287984315,0.5849050699745897
-4.0375,0.4515612047943909,0.5849050699748306
-4.037,0.2594980573562781,0.92399749893988
-4.0365,-0.423393133535411,1.029963882991555
-4.036,-1.180975548431393,0.2140227257927851
-4.0355,-1.746494815888059,-0.7502713690765743
-4.035,-1.565101843307454,-0.9516074987747555
-4.0345,-0.9462317015624233,-0.5065486857581282
-4.034,-0.3380317346739499,0.07626642652648545
-4.0335,0.07810508477567314,0.55311515475902
-4.033,0.3021787567868048,0.8710143069137538
-4.0325,0.3982103305061718,1.051157159801966
-4.032,0.4195506802215176,1.135930267043229
-4.0315,0.3982103305061718,1.167720182258702
-4.031,0.3661998059330657,1.135930267043132
-4.0305,0.3235191065023739,1.029963882991555
-4.03,0.302178756787028,0.8710143069141875
-4.0295,0.2808384070714589,0.68027481562074
-4.029,0.07810508477567314,0.3623756634660061
-4.0285,-0.6367966306890638,-0.3899856633008816
-4.028,-1.244996597577207,-1.131750351663142
-4.0275,-1.501080794161358,-1.725162102351978
-4.027,-0.9675720512772257,-1.968884785670829
-4.0265,-0.2633405106708119,-1.470842780628413
-4.026,0.2488278824985954,-0.8668343915334161
-4.0255,0.5262524287983441,-0.4111789401112165
-4.025,0.6329541773750735,-0.04029659593069362
-4.0245,0.6329541773751221,0.1080563417420359
-4.024,0.5796033030867573,0.1610395337678249
-4.0235,0.5796033030867573,0.2670059178194029
-4.023,0.6329541773751124,0.4047622170866855
-4.0225,0.5689331282290746,0.4153588554918433
-4.022,0.4835717293676911,0.3729723018712121
-4.0215,0.4195506802214788,0.3517790250608772
-4.021,0.3768699807907871,0.3941655786815084
-4.0205,0.1848068333524996,0.7120647308365314
-4.02,-0.4554036581091188,1.178316820663388
-4.0195,-1.180975548430879,0.6166949851900245
-4.019,-1.597112367880501,-0.3581957480853793
-4.0185,-1.490410619303772,-0.8138511995071644
-4.018,-0.9248913518464952,-0.5171453241628908
-4.0175,-0.3487019095316325,0.002089957690313421
-4.017,0.05676473505993912,0.4789386859224142
-4.0165,0.291508581929423,0.8180311148883889
-4.016,0.3982103305061524,1.019367244586387
-4.0155,0.4088805053638253,1.114736990232807
-4.015,0.3982103305061233,1.157123543853544
-4.0145,0.3661998059331045,1.135930267043229
-4.014,0.3341892813600856,1.040560521396809
-4.0135,0.3021787567869892,0.9239974989397451
-4.013,0.2808384070716433,0.775644561267536
-4.0125,0.1527963087794516,0.5001319627331828
-4.012,-0.5514352318283016,-0.2416327256292989
-4.0115,-1.319687821580753,-1.078767159636765
-4.011,-1.810515865034154,-1.725162102351978
-4.0105,-1.469070269588621,-1.735758740757136
-4.01,-0.658136980404429,-1.34368311976595
-4.0095,0.02475421048725994,-0.9092209451540858
-4.009,0.4302208550788316,-0.4959520473529318
-4.0085,0.5902734779444787,-0.1462629799818764
-4.008,0.6329541773751706,0.02328323450064829
-4.0075,0.6009436528021517,0.1292496185522262
-4.007,0.5582629533714697,0.2034260873886874
-4.0065,0.6436243522328531,0.4153588554918433
-4.006,0.6329541773751706,0.5001319627331828
-4.0055,0.5582629533713241,0.478938685922819
-4.005,0.4835717293676135,0.4471487707073456
-4.0045,0.4195506802215176,0.4471487707073456
-4.004,0.3128489316442545,0.6484849004059702
-4.0035,-0.1673089369510276,1.135930267043229
-4.003,-0.9462317015618604,0.701468092431364
-4.0025,-1.447729919872488,-0.3052125560586266
-4.002,-1.67180359188428,-1.089363798041932
-4.0015,-1.277007122150022,-0.9833974139902578
-4.001,-0.6581369804049919,-0.3899856633014213
-4.0005,-0.1459685872353615,0.2246193641992535
-4,0.1848068333524996,0.6908714540261965
-3.9995,0.3555296310754218,0.9769806909657173
-3.999,0.408880505363835,1.114736990232894
-3.9985,0.4195506802215176,1.178316820663898
-3.998,0.3875401556484697,1.157123543853563
-3.9975,0.3448594562177392,1.082947075017392
-3.997,0.3235191065023739,1.00877060618122
-3.9965,0.3021787567870086,0.8604176685088755
-3.996,0.2381577076409128,0.5637117931641874
-3.9955,-0.274010685527854,-0.07208651114585861
-3.995,-1.031593100423322,-0.9092209451540858
-3.9945,-1.597112367880501,-1.619195718300304
-3.994,-1.597112367880501,-1.990078062481164
-3.9935,-0.8822106524157645,-1.714565463946811
-3.993,-0.1352984123779797,-0.9516074987747555
-3.9925,0.3661998059331045,-0.3687923864905467
-3.992,0.6009436528021226,-0.04029659593035631
-3.9915,0.6542945270905358,0.1186529801471552
-3.991,0.6116138276598051,0.1716361721729923
-3.9905,0.5582629533713921,0.1292496185523226
-3.99,0.6009436528021226,0.2670059178194992
-3.9895,0.6222840025174878,0.4047622170866759
-3.989,0.5582629533713921,0.4153588554918433
-3.9885,0.4835717293676135,0.383568940276341
-3.988,0.4195506802215176,0.3729723018711736
-3.9875,0.3661998059331045,0.4789386859228479
-3.987,-0.1032878878049318,0.2776025562246667
-3.9865,-0.8928808272734472,-0.5065486857577234
-3.986,-1.554431668449771,-1.280103289334946
-3.9855,-1.789175515318789,-1.672178910326141
-3.985,-1.330357996438436,-1.184733543688439
-3.9845,-0.6794773301197943,-0.3793890248957141
-3.984,-0.1459685872356623,0.3199891098453364
-3.9835,0.1954770082101822,0.7968378380778709
-3.983,0.3661998059331045,1.051157159801889
-3.9825,0.4195506802215176,1.157123543853563
-3.982,0.4195506802215176,1.157123543853563
-3.9815,0.3982103305061524,1.114736990232894
-3.981,0.3661998059331045,1.029963882991555
-3.9805,0.3341892813600565,0.9134008605347127
-3.98,0.3128489316446912,0.775644561267536
-3.9795,0.291508581929326,0.5425185163538525
-3.979,-0.007256314085787988,0.03387987290581572
-3.9785,-0.7968492535543035,-0.7820612842920766
-3.978,-1.565101843307454,-1.51322933424863
-3.9775,-1.959898313041711,-1.905304955239825
-3.977,-1.394379045584531,-1.555615887869299
-3.9765,-0.6047861061160158,-1.025783967610927
-3.976,0.00341386077189465,-0.4853554089473885
-3.9755,0.3875401556484697,-0.1038764263613609
-3.975,0.5796033030867573,0.04447651131098315
-3.9745,0.6116138276598051,0.1292496185523226
-3.974,0.5689331282290746,0.1716361721729923
-3.9735,0.5582629533713921,0.2881991946298341
-3.973,0.5902734779444399,0.4789386859228479
-3.9725,0.5369226036560266,0.4895353243280153
-3.972,0.4835717293676135,0.4365521323021782
-3.9715,0.4302208550792003,0.3941655786815084
-3.971,0.3768699807907871,0.383568940276341
-3.9705,0.05676473506030786,0.3729723018711736
-3.97,-0.4340633083930936,0.4259554938970107
-3.9695,-1.020922925565639,-0.1992461720078678
-3.969,-1.373038695869166,-0.9198175835592532
-3.9685,-1.116954499284783,-0.8774310299385835
-3.968,-0.5941159312583333,-0.3581957480853793
-3.9675,-0.124628237520297,0.2034260873884947
-3.967,0.1848068333524996,0.627291623595192
-3.9665,0.3448594562177392,0.9028042221295453
-3.966,0.408880505363835,1.040560521396722
-3.9655,0.408880505363835,1.093543713422559
-3.965,0.3982103305061524,1.104140351827727
-3.9645,0.3661998059331045,1.072350436612224
-3.964,0.3448594562177392,0.9769806909657173
-3.9635,0.3128489316446912,0.8392243916985406
-3.963,0.2808384070716433,0.5955017083796896
-3.9625,0.2381577076409128,0.3199891098453364
-3.962,-0.1886492866663929,-0.2416327256285375
-3.9615,-0.8181896032696687,-1.01518732920576
-3.961,-1.30901764672307,-1.587405803084801
-3.9605,-1.234326422719292,-1.481439419033127
-3.96,-0.6367966306890638,-1.01518732920576
-3.9595,-0.04993701351651855,-0.5065486857577234
-3.959,0.3555296310754218,-0.1038764263613609
-3.9585,0.5369226036560266,0.1504428953626575
-3.958,0.5689331282290746,0.2987958330350016
-3.9575,0.5475927785137094,0.3199891098453364
-3.957,0.5262524287983441,0.3411823866556712
-3.9565,0.7609962756673623,0.7226613692416989
-3.956,0.857027849386506,0.9028042221295453
-3.9555,0.7503261008096795,0.775644561267536
-3.955,0.6009436528021226,0.5955017083796896
-3.9545,0.4835717293676135,0.4471487707073456
-3.954,0.3341892813600565,0.4047622170866759
-3.9535,-0.03926683865883591,0.07626642652648545
-3.953,-0.7008176798351597,-0.6443049850249
-3.9525,-1.373038695869166,-1.301296566145281
-3.952,-1.799845690176472,-1.576809164679634
-3.9515,-1.46907026958831,-1.174136905283272
-3.951,-0.8181896032696687,-0.4429688553267188
-3.9505,-0.2420001609548061,0.2140227257936621
-3.95,0.142126133921769,0.6590815388106942
-3.9495,0.3448594562177392,0.8922075837243778
-3.949,0.4195506802215176,0.9981739677760521
-3.9485,0.4302208550792003,1.019367244586387
-3.948,0.3982103305061524,0.9769806909657173
-3.9475,0.3661998059331045,0.8816109453192104
-3.947,0.3235191065023739,0.7544512844572011
-3.9465,0.291508581929326,0.5955017083796896
-3.946,0.2488278824985954,0.3517790250608387
-3.9455,-0.2099896363817582,-0.252229364033705
-3.945,-0.9355615267041777,-1.046977244421262
-3.9445,-1.533091318734406,-1.703968825541643
-3.944,-1.629122892453549,-1.873515040024322
-3.9435,-0.9462317015618604,-1.460246142222792
-3.943,-0.2099896363817582,-0.8456411147230812
-3.9425,0.3021787567870086,-0.3370024712750445
-3.942,0.5582629533713921,0.02328323450064829
-3.9415,0.6329541773751706,0.2352160026039969
-3.941,0.6222840025174878,0.3411823866556712
-3.9405,0.5689331282290746,0.3411823866556712
-3.94,0.6756348768059011,0.5001319627331828
-3.9395,0.7289857510943143,0.5849050699745222
-3.939,0.6542945270905358,0.5319218779486851
-3.9385,0.5582629533713921,0.4471487707073456
-3.938,0.4622313796522482,0.4047622170866759
-3.9375,0.3768699807907871,0.4471487707073456
-3.937,-0.1352984123779797,0.07626642652648545
-3.9365,-0.9675720512772257,-0.7078848154559045
-3.936,-1.543761493592088,-1.42845622700729
-3.9355,-1.650463242168915,-1.661582271920973
-3.935,-1.138294849000148,-1.068170521231597
-3.9345,-0.5087545323968721,-0.2946159176543747
-3.934,-0.02859666380115328,0.3411823866556712
-3.9335,0.2594980573562781,0.7438546460520338
-3.933,0.3875401556484697,0.9557874141553824
-3.9325,0.4302208550792003,1.040560521396722
-3.932,0.4195506802215176,1.051157159801889
-3.9315,0.3982103305061524,1.019367244586387
-3.931,0.3555296310754218,0.9451907757502149
-3.9305,0.3235191065023739,0.8286277532933731
-3.93,0.3128489316446912,0.701468092431364
-3.9295,0.2808384070716433,0.4789386859228479
-3.929,0.04609456020262521,-0.008506680714854012
-3.9285,-0.4767440078238243,-0.792657922697244
-3.928,-1.159635198715513,-1.51322933424863
-3.9275,-1.543761493592088,-1.968884785670829
-3.927,-0.9995825758502737,-1.968884785670829
-3.9265,-0.274010685527854,-1.460246142222792
-3.926,0.2701682322139607,-0.8350444763179138
-3.9255,0.5582629533713921,-0.1992461720078678
-3.925,0.6436243522328531,0.2246193641988295
-3.9245,0.6222840025174878,0.4259554938970107
-3.924,0.5689331282290746,0.457745409112513
-3.9235,0.6009436528021226,0.5213252395435176
-3.923,0.6969752265212663,0.6484849004055269
-3.9225,0.6436243522328531,0.5743084315693548
-3.922,0.5582629533713921,0.457745409112513
-3.9215,0.4729015545099309,0.3623756634660061
-3.921,0.3982103305061524,0.3411823866556712
-3.9205,-0.01792648894347063,0.1610395337678249
-3.92,-0.7114878546928423,-0.5489352393783931
-3.9195,-1.30901764672307,-1.290699927740113
-3.919,-1.693143941599645,-1.629792356705471
-3.9185,-1.575772018165136,-1.417859588602123
-3.918,-0.9782422261349084,-0.6972881770507372
-3.9175,-0.3807124341046804,0.01268659609548085
-3.917,0.05676473506030786,0.5319218779486851
-3.9165,0.3021787567870086,0.8392243916985406
-3.916,0.408880505363835,0.9769806909657173
-3.9155,0.4302208550792003,1.019367244586387
-3.915,0.4195506802215176,0.9981739677760521
-3.9145,0.3875401556484697,0.9451907757502149
-3.914,0.3448594562177392,0.8180311148882058
-3.9135,0.3235191065023739,0.7120647308365314
-3.913,0.3021787567870086,0.55311515475902
-3.9125,0.2061471830678648,0.2670059178194992
-3.912,-0.391382608962363,-0.4111789401112165
-3.9115,-1.074273799854052,-1.142346990067769
-3.911,-1.639793067311232,-1.725162102351978
-3.9105,-1.906547438753298,-2.106641084938006
-3.91,-1.30901764672307,-1.937094870455327
-3.9095,-0.5087545323968721,-1.174136905283272
-3.909,0.1101156093487211,-0.4959520473525559
-3.9085,0.4515612047945656,-0.08268314955102604
-3.908,0.5796033030867573,0.13984625695749
-3.9075,0.5902734779444399,0.2670059178194992
-3.907,0.5796033030867573,0.3623756634660061
-3.9065,0.7503261008096795,0.6378882620003594
-3.906,0.7503261008096795,0.6696781772158616
-3.9055,0.6436243522328531,0.5425185163538525
-3.905,0.5262524287983441,0.4153588554918433
-3.9045,0.4515612047945656,0.3517790250608387
-3.904,0.3021787567870086,0.4789386859228479
-3.9035,-0.391382608962363,0.1928294489833272
-3.903,-1.212986073003927,-0.6019184314042303
-3.9025,-1.842526389607202,-1.333086481360783
-3.902,-2.205312334768412,-1.75695201756748
-3.9015,-1.725154466172693,-1.407262950196955
-3.901,-0.9462317015618604,-0.6125150698093976
-3.9005,-0.2846808603855366,0.1080563417419877
-3.9,0.1527963087794516,0.6166949851900245
-3.8995,0.3661998059331045,0.8922075837243778
-3.899,0.4515612047945656,1.00877060618122
-3.8985,0.4515612047945656,1.029963882991555
-3.898,0.4195506802215176,0.9981739677760521
-3.8975,0.3768699807907871,0.8922075837243778
-3.897,0.3341892813600565,0.7332580076468663
-3.8965,0.3021787567870086,0.5743084315693548
-3.896,0.2488278824985954,0.3623756634660061
-3.8955,-0.2953510352432193,-0.252229364033705
-3.895,-1.170305373573196,-1.05757388282643
-3.8945,-1.853196564464885,-1.703968825541643
-3.894,-1.682473766741963,-1.990078062481164
-3.8935,-0.7861790786966207,-1.84172512480882
-3.893,-0.007256314085787988,-1.174136905283272
-3.8925,0.4302208550792003,-0.5489352393783931
-3.892,0.6222840025174878,-0.1038764263613609
-3.8915,0.6542945270905358,0.1610395337678249
-3.891,0.6222840025174878,0.2776025562246667
-3.8905,0.5689331282290746,0.2987958330350016
-3.89,0.7183155762366316,0.4895353243280153
-3.8895,0.825017324813458,0.627291623595192
-3.889,0.7503261008096795,0.5849050699745222
-3.8885,0.6222840025174878,0.4789386859228479
-3.888,0.5049120790829789,0.4153588554918433
-3.8875,0.4195506802215176,0.457745409112513
-3.887,0.01408403562957729,0.9345941373450475
-3.8865,-0.7968492535543035,1.019367244586387
-3.886,-1.607782542738184,0.1504428953626575
-3.8855,-1.981238662757077,-0.718481453861072
