Class_7_Listen_To_Music/Class_7_Listen_To_Music_Turki_16.csv

#Digilent WaveForms Oscilloscope Acquisition
#Device Name: EExplorer
#Serial Number: SN:210151A2B84A
#Date Time: 2021-02-10 11:39:31.781
#Sample rate: 2000Hz
#Samples: 16384
#Trigger: Source: Channel 1 Type: Edge Condition: Rising Level: 0 V Hyst.: Auto HoldOff: 0 s
#Channel 1: Range: 1 V/div Offset: 0 V Attenuation: 1 X
#Channel 2: Range: 1 V/div Offset: 0 V Attenuation: 1 X
#Power Supplies: ON
#Fixed Supply: ON
#Voltage: 3.3 V Readback: 3.331 V
#Positive Supply: ON
#Voltage: 3.7 V Readback: 3.703 V
#Current: 40 mA Readback: 16 mA
#Negative Supply: ON
#Voltage: -3.7 V Readback: -3.697 V
#Current: -40 mA Readback: -9 mA
#Reference 1: ON
#Voltage: 0 V
#Reference 2: ON
#Voltage: 0 V

Time (s),Channel 1 (V),Channel 2 (V)
-4.096,-1.042263275281004,-1.163540266878104
-4.0955,-1.714484291314399,-1.788741932782414
-4.095,-2.066600061618091,-2.074851169721944
-4.0945,-1.575772018165136,-1.460246142222792
-4.094,-0.8395299529857035,-0.5383386009740641
-4.0935,-0.2313299860967644,0.2246193641992825
-4.093,0.1634664836371343,0.7226613692416989
-4.0925,0.3555296310752471,0.9663840525603282
-4.092,0.4195506802215079,1.061753798207066
-4.0915,0.408880505363835,1.072350436612224
-4.091,0.3768699807907871,1.040560521396722
-4.0905,0.3448594562177197,0.9769806909656691
-4.09,0.3235191065023739,0.92399749893988
-4.0895,0.2594980573562781,0.7862411996727035
-4.089,-0.2206598112390041,0.139846256958078
-4.0885,-0.690147504977477,-0.7608680074817418
-4.088,-0.7328282044082075,-1.354279758171118
-4.0875,-0.3700422592473278,-1.131750351662804
-4.087,0.09944543449132956,-0.6549016234296819
-4.0865,0.4195506802215176,-0.2310360872233701
-4.086,0.5902734779442846,0.02328323450041697
-4.0855,0.6329541773751706,0.1080563417420359
-4.085,0.6329541773751706,0.1610395337678249
-4.0845,0.6116138276598245,0.1716361721729827
-4.084,0.5369226036559198,0.05507314971589037
-4.0835,0.4195506802215176,-0.2310360872233701
-4.083,0.3661998059331045,-0.1038764263613609
-4.0825,0.3448594562177392,0.1822328105784007
-4.082,0.3448594562177392,0.4471487707073456
-4.0815,0.3448594562177392,0.6378882620003594
-4.081,0.4408910299367956,0.8286277532931996
-4.0805,0.5475927785137094,0.8816109453192104
-4.08,-0.007256314085787988,0.1080563417419877
-4.0795,-0.7968492535535854,-0.8244478379118982
-4.079,-1.618452717596469,-1.555615887869733
-4.0785,-2.280003558772191,-2.032464616101834
-4.078,-2.045259711903386,-1.852321763214151
-4.0775,-1.244996597576295,-0.9833974139894868
-4.077,-0.4980843575391895,-0.1356663415768632
-4.0765,0.01408403562911148,0.4577454091119734
-4.076,0.3021787567871154,0.7862411996728287
-4.0755,0.4195506802215176,0.92399749893988
-4.075,0.4302208550792003,0.9345941373450475
-4.0745,0.3982103305061233,0.9028042221294874
-4.074,0.3661998059331045,0.8392243916985406
-4.0735,0.3341892813600565,0.775644561267536
-4.073,0.2701682322140189,0.6908714540262737
-4.0725,-0.2633405106701714,0.1610395337678249
-4.072,-0.8288597781273515,-0.6972881770507372
-4.0715,-1.116954499284521,-1.460246142222098
-4.071,-1.447729919872653,-1.926498232049793
-4.0705,-1.127624674142465,-1.523825972653797
-4.07,-0.508754532397435,-0.8032545611030668
-4.0695,0.03542438534525312,-0.1886495336023823
-4.069,0.3768699807907871,0.1610395337678249
-4.0685,0.5582629533713921,0.2881991946298341
-4.068,0.611613827659776,0.3729723018711543
-4.0675,0.5796033030867573,0.3517790250608387
-4.067,0.4622313796522482,0.13984625695749
-4.0665,0.3875401556484406,0.09745970333689742
-4.066,0.3555296310754218,0.1822328105781598
-4.0655,0.3555296310754218,0.2987958330350016
-4.065,0.3555296310754218,0.3941655786814217
-4.0645,0.4408910299368829,0.5107286011383502
-4.064,0.6969752265212663,0.7968378380778709
-4.0635,0.2808384070720218,0.3411823866560856
-4.063,-0.3380317346745128,-0.5065486857583112
-4.0625,-0.9569018764195432,-1.152943628472937
-4.062,-1.661133417025957,-1.672178910325669
-4.0615,-2.141291285621948,-1.958288147265199
-4.061,-1.735824641030376,-1.449649503817625
-4.0605,-0.9782422261349084,-0.5595318777835605
-4.06,-0.3166913849581867,0.2140227257941247
-4.0595,0.1207857842064037,0.7226613692416989
-4.059,0.3448594562177392,0.9875773293708847
-4.0585,0.4302208550791227,1.093543713422463
-4.058,0.4195506802215176,1.104140351827727
-4.0575,0.3875401556484697,1.061753798207057
-4.057,0.3661998059331239,0.9981739677761099
-4.0565,0.3341892813600565,0.92399749893988
-4.056,-0.03926683865883591,0.5001319627331828
-4.0555,-0.7968492535536145,-0.389985663300072
-4.055,-1.298347471865378,-1.237716735714643
-4.0545,-1.287677297007705,-1.640388995110639
-4.054,-0.6794773301203474,-1.237716735714643
-4.0535,-0.06060718837383242,-0.6443049850245145
-4.053,0.3448594562177392,-0.2204394488182027
-4.0525,0.5582629533713921,-0.008506680714854012
-4.052,0.6222840025174782,0.02328323450066756
-4.0515,0.6116138276598051,0.04447651131098315
-4.051,0.5796033030867573,0.1292496185523226
-4.0505,0.7503261008095243,0.01268659609558687
-4.05,0.8783681991018712,-0.1144730647665284
-4.0495,0.7823366253827275,-0.008506680714854012
-4.049,0.6222840025176334,0.1716361721728285
-4.0485,0.4942419042252088,0.3411823866557869
-4.048,0.3982103305061524,0.4683420475176805
-4.0475,0.02475421048759963,0.1398462569577888
-4.047,-0.7114878546933081,-0.6231117082151529
-4.0465,-1.223656247861609,-1.269506650929778
-4.046,-1.37303869586903,-1.587405803084512
-4.0455,-1.767835165603667,-1.778145294377835
-4.045,-2.03458953704549,-1.79933857118815
-4.0445,-1.543761493592088,-1.184733543688439
-4.044,-0.8181896032691156,-0.3052125560588868
-4.0435,-0.2099896363817582,0.4153588554918433
-4.043,0.1741366584948169,0.8604176685088755
-4.0425,0.3768699807906027,1.072350436612032
-4.042,0.4408910299368829,1.125333628638062
-4.0415,0.4302208550792003,1.093543713422559
-4.041,0.3875401556485085,1.029963882991612
-4.0405,0.3555296310754024,0.9345941373449608
-4.04,0.3341892813600565,0.8392243916985406
-4.0395,0.2061471830679813,0.6908714540263314
-4.039,-0.4660738329667044,0.07626642652568554
-4.0385,-1.084943974711735,-0.8032545611024114
-4.038,-1.244996597576829,-1.502632695842826
-4.0375,-1.106284324426624,-1.682775548730778
-4.037,-0.5834457564006506,-1.0999604364471
-4.0365,0.00341386077189465,-0.4535654937318862
-4.036,0.3982103305063271,-0.07208651114563694
-4.0355,0.5902734779444399,0.1716361721729923
-4.035,0.6329541773751706,0.2987958330350016
-4.0345,0.6116138276598245,0.2670059178195281
-4.034,0.6969752265212663,0.1292496185523226
-4.0335,0.9530594231056497,-0.08268314955102604
-4.033,0.9103787236749581,-0.04029659593039486
-4.0325,0.7396559259518513,0.1080563417421227
-4.032,0.5796033030867573,0.2564092794143318
-4.0315,0.451561204794682,0.3623756634659098
-4.031,0.1848068333519852,0.1186529801464902
-4.0305,-0.3807124341046804,-0.6125150698093976
-4.03,-0.8181896032692708,-1.32248984295497
-4.0295,-1.063603624996758,-1.756952017567673
-4.029,-1.490410619303675,-1.968884785670829
-4.0285,-2.002579012472442,-2.074851169722503
-4.028,-1.959898313041071,-1.767548655971848
-4.0275,-1.255666772434657,-0.8880276683437509
-4.027,-0.5407650569699201,-0.05089323433552374
-4.0265,-0.01792648894394611,0.5531151547584706
-4.026,0.291508581929326,0.8922075837243778
-4.0255,0.4195506802215176,1.019367244586387
-4.025,0.4515612047945364,1.040560521396703
-4.0245,0.4195506802214886,0.9981739677759942
-4.024,0.3875401556484697,0.9345941373450475
-4.0235,0.3555296310754509,0.860417668508943
-4.023,0.3235191065019663,0.7544512844567096
-4.0225,-0.124628237520297,0.2140227257936621
-4.022,-0.8395299529843838,-0.6654982618344349
-4.0215,-1.255666772434832,-1.407262950197369
-4.021,-1.447729919872945,-1.862918401619155
-4.0205,-1.095614149569417,-1.460246142222792
-4.02,-0.4554036581079252,-0.6443049850243024
-4.0195,0.1314559590640864,0.01268659609548085
-4.019,0.4729015545099309,0.383568940276341
-4.0185,0.611613827659679,0.542518516353708
-4.018,0.6436243522328531,0.4895353243280153
-4.0175,0.6329541773751706,0.383568940276341
-4.017,0.718315576236554,0.330585748250552
-4.0165,0.6969752265211789,0.2564092794143029
-4.016,0.6009436528021226,0.2246193641988295
-4.0155,0.5049120790830662,0.2246193641988295
-4.015,0.4408910299368053,0.235216002603968
-4.0145,0.3555296310754218,0.2034260873884947
-4.014,-0.09261771294684157,-0.337002471274553
-4.0135,-0.7968492535547596,-1.06817052123205
-4.013,-1.298347471865388,-1.566212526274467
-4.0125,-1.522421143876723,-1.492036057438295
-4.012,-1.885207089038098,-1.470842780627931
-4.0115,-2.066600061618538,-1.439052865412457
-4.011,-1.501080794161358,-0.8668343915334161
-4.0105,-0.7541685541242523,-0.04029659593110801
-4.01,-0.156638762093345,0.6378882620003594
-4.0095,0.2168173579255475,1.061753798207057
-4.009,0.3982103305059874,1.252493289499897
-4.0085,0.4622313796522385,1.294879843120711
-4.008,0.4515612047945656,1.263089927905238
-4.0075,0.4195506802215467,1.188913459069133
-4.007,0.3768699807907677,1.093543713422453
-4.0065,0.3555296310754218,0.9769806909657173
-4.006,0.1314559590640864,0.6908714540261965
-4.0055,-0.5300948821127613,-0.1250697031725053
-4.005,-1.1062843244271,-1.01518732920576
-4.0045,-1.330357996438436,-1.502632695843462
-4.004,-0.9035510021305768,-1.21652345890345
-4.0035,-0.2953510352432193,-0.6760949002404023
-4.003,0.1954770082101822,-0.2310360872233701
-4.0025,0.4835717293673515,-0.04029659593052978
-4.002,0.6009436528021226,0.03387987290581572
-4.0015,0.6436243522328531,0.07626642652648545
-4.001,0.6329541773751802,0.07626642652648545
-4.0005,0.5369226036559102,-0.07208651114592607
-4,0.408880505363835,-0.1462629799820306
-3.9995,0.3661998059331045,-0.02969995752518888
-3.999,0.3555296310754218,0.1186529801471552
-3.9985,0.3661998059331045,0.2564092794143318
-3.998,0.3768699807907871,0.3729723018711736
-3.9975,0.5796033030867573,0.7120647308365314
-3.997,0.6969752265212663,0.8816109453192104
-3.9965,0.1314559590640864,0.1504428953626575
-3.996,-0.5834457564006506,-0.6654982618352349
-3.9955,-1.394379045584531,-1.322489842955616
-3.995,-1.87453691418025,-1.693372187136476
-3.9945,-1.501080794161358,-1.216523458903942
-3.994,-0.8181896032696687,-0.3793890248957141
-3.9935,-0.2206598112394408,0.3623756634660061
-3.993,0.1741366584948169,0.8604176685088755
-3.9925,0.3768699807907871,1.135930267043229
-3.992,0.4515612047945656,1.25249328950007
-3.9915,0.4515612047945656,1.273686566310405
-3.991,0.4195506802215176,1.25249328950007
-3.9905,0.3875401556484697,1.199510097474233
-3.99,0.3661998059331045,1.125333628638062
-3.9895,0.2701682322139607,0.9769806909657173
-3.989,-0.3166913849585846,0.2458126410091644
-3.9885,-0.9142211769888124,-0.718481453861072
-3.988,-1.202315898146244,-1.460246142222792
-3.9875,-0.9355615267041777,-1.460246142222792
-3.987,-0.3380317346739499,-0.9410108603695881
-3.9865,0.1634664836371343,-0.4429688553267188
-3.986,0.4729015545099309,-0.1356663415768632
-3.9855,0.6116138276598051,0.02328323450064829
-3.985,0.6436243522328531,0.07626642652648545
-3.9845,0.6222840025174878,0.09745970333682032
-3.984,0.6756348768059011,0.002089957690313421
-3.9835,0.8676980242441885,-0.1356663415768632
-3.983,0.8143471499557753,-0.04029659593035631
-3.9825,0.6756348768059011,0.13984625695749
-3.982,0.5475927785137094,0.309392471440169
-3.9815,0.4515612047945656,0.4259554938970107
-3.981,0.4942419042252961,0.6166949851900245
-3.9805,0.6542945270905358,0.9345941373450475
-3.98,0.1634664836371343,0.3729723018711736
-3.9795,-0.3593720843893152,-0.4323722169215513
-3.979,-0.9675720512772257,-1.004590690800593
-3.9785,-1.639793067311232,-1.534422611058964
-3.978,-1.639793067311232,-1.502632695843462
-3.9775,-1.06360362499637,-0.8032545611024114
-3.977,-0.4340633083930936,-0.04029659593035631
-3.9765,0.03542438534494258,0.5425185163538525
-3.976,0.3021787567870086,0.8922075837243778
-3.9755,0.4195506802215176,1.061753798207057
-3.975,0.4515612047945656,1.114736990232894
-3.9745,0.4302208550792003,1.114736990232894
-3.974,0.3982103305061524,1.082947075017392
-3.9735,0.3661998059331045,1.029963882991555
-3.973,0.3341892813600565,0.9875773293708847
-3.9725,-0.07127736323188383,0.701468092431364
-3.972,-0.7648387289812555,-0.1462629799820306
-3.9715,-1.277007122150022,-1.036380606016095
-3.971,-1.138294849000148,-1.301296566145281
-3.9705,-0.5514352318276028,-0.8456411147230812
-3.97,0.04609456020262521,-0.3158091944647096
-3.9695,0.4408910299368829,0.07626642652648545
-3.969,0.6116138276598051,0.2776025562246667
-3.9685,0.6863050516635838,0.2670059178194992
-3.968,0.6863050516635838,0.2246193641988295
-3.9675,0.6329541773751706,0.1186529801471552
-3.967,0.5475927785137094,0.02328323450064829
-3.9665,0.4729015545099309,0.09745970333682032
-3.966,0.4302208550792003,0.2352160026039969
-3.9655,0.3982103305061524,0.3517790250608387
-3.965,0.3875401556484697,0.457745409112513
-3.9645,0.3768699807907871,0.5213252395435176
-3.964,0.1314559590640864,0.2776025562246667
-3.9635,-0.5407650569699201,-0.4429688553267188
-3.963,-1.127624674142465,-1.089363798041932
-3.9625,-1.501080794161358,-1.38606967338662
-3.962,-1.981238662757077,-1.576809164679634
-3.9615,-2.205312334768412,-1.598002441489969
-3.961,-1.565101843307454,-0.9833974139902578
-3.9605,-0.7755089038389382,-0.1356663415768632
-3.96,-0.156638762093345,0.5425185163538525
-3.9595,0.2274875327832301,0.9451907757502149
-3.959,0.4195506802215176,1.125333628638062
-3.9585,0.4729015545099309,1.146526905448396
-3.958,0.4622313796522482,1.104140351827727
-3.9575,0.4302208550792003,1.00877060618122
-3.957,0.3982103305061524,0.8922075837243778
-3.9565,0.3661998059331045,0.775644561267536
-3.956,0.1207857842064037,0.5001319627331828
-3.9555,-0.5300948821122373,-0.1038764263613609
-3.955,-1.06360362499637,-0.8986243067489184
-3.9545,-1.255666772434657,-1.555615887869299
-3.954,-1.159635198715513,-1.523825972653797
-3.9535,-0.5941159312583333,-0.9304142219644207
-3.953,-0.02859666380115328,-0.2946159176543747
-3.9525,0.3448594562177392,0.1186529801471552
-3.952,0.5475927785137094,0.2776025562246667
-3.9515,0.6009436528021226,0.3199891098453364
-3.951,0.6116138276598051,0.2140227257936621
-3.9505,0.6329541773751706,-0.07208651114585861
-3.95,0.5796033030867573,-0.2204394488182027
-3.9495,0.5262524287983441,-0.08268314955102604
-3.949,0.4729015545099309,0.1080563417419877
-3.9485,0.4408910299368829,0.2776025562246667
-3.948,0.408880505363835,0.3729723018711736
-3.9475,0.2381577076409128,0.002089957690313421
-3.947,-0.06060718837420119,-0.7396747306714069
-3.9465,-0.2846808603855366,-1.396666311791788
-3.946,-0.7008176798351597,-1.88411167842949
-3.9455,-1.383708870726849,-2.223204107394847
-3.945,-1.938557963326346,-2.318573853041354
-3.9445,-1.682473766741963,-1.714565463946811
-3.944,-0.9889124009925911,-0.7290780922662394
-3.9435,-0.3380317346739499,0.08686306493165288
-3.943,0.1101156093487211,0.627291623595192
-3.9425,0.3555296310754218,0.9134008605347127
-3.942,0.4622313796522482,1.019367244586387
-3.9415,0.4729015545099309,1.019367244586387
-3.941,0.4408910299368829,0.9875773293708847
-3.9405,0.408880505363835,0.9345941373450475
-3.94,0.3768699807907871,0.9028042221295453
-3.9395,0.2274875327832301,0.775644561267536
-3.939,-0.4660738329661415,0.08686306493165288
-3.9385,-1.084943974711735,-0.8032545611024114
-3.938,-1.298347471865388,-1.449649503817625
-3.9375,-1.180975548430879,-1.34368311976595
-3.937,-0.572775581542968,-0.7290780922662394
-3.9365,0.00341386077189465,-0.1568596183871981
-3.936,0.408880505363835,0.1292496185523226
-3.9355,0.6116138276598051,0.2881991946298341
-3.935,0.6756348768059011,0.2987958330350016
-3.9345,0.6436243522328531,0.2246193641988295
-3.934,0.6329541773751706,0.2140227257936621
-3.9335,0.6756348768059011,0.2987958330350016
-3.933,0.6329541773751706,0.3411823866556712
-3.9325,0.5582629533713921,0.3623756634660061
-3.932,0.4835717293676135,0.383568940276341
-3.9315,0.4408910299368829,0.4047622170866759
-3.931,0.2594980573562781,0.2140227257936621
-3.9305,-0.2846808603855366,-0.4853554089473885
-3.93,-0.8502001278427167,-1.195330182093607
-3.9295,-1.255666772434657,-1.661582271920973
-3.929,-1.746494815888059,-1.862918401619155
-3.9285,-2.280003558772191,-1.926498232050159
-3.928,-2.162631635337682,-1.672178910326141
-3.9275,-1.351698346153801,-0.8350444763179138
-3.927,-0.5621054066852853,0.04447651131098315
-3.9265,0.00341386077189465,0.6908714540261965
-3.926,0.3235191065023739,1.051157159801889
-3.9255,0.4622313796522482,1.188913459069066
-3.925,0.4942419042252961,1.199510097474233
-3.9245,0.4622313796522482,1.146526905448396
-3.924,0.4302208550792003,1.061753798207057
-3.9235,0.3982103305061524,0.9557874141553824
-3.923,0.3555296310754218,0.8180311148882058
-3.9225,-0.04993701351651855,0.2140227257936621
-3.922,-0.6688071552621118,-0.6866915386455698
-3.9215,-0.9782422261349084,-1.42845622700729
-3.921,-0.8288597781273515,-1.693372187136476
-3.9205,-0.3273615598162672,-1.205926820498774
-3.92,0.1634664836371343,-0.5595318777835605
-3.9195,0.4835717293676135,-0.05089323433552374
-3.919,0.6542945270905358,0.1928294489833272
-3.9185,0.707645401378949,0.3411823866556712
-3.918,0.6863050516635838,0.383568940276341
-3.9175,0.6649647019482183,0.1928294489833272
-3.917,0.8356874996711408,-0.1356663415768632
-3.9165,0.8997085488172365,-0.2098428104130352
-3.916,0.7823366253827275,-0.04029659593035631
-3.9155,0.6329541773751706,0.1504428953626575
-3.915,0.5155822539406614,0.309392471440169
-3.9145,0.408880505363835,0.3411823866556712
-3.914,-0.1352984123779797,-0.1780528951975329
-3.9135,-0.8502001278427167,-0.9410108603695881
-3.913,-1.533091318734406,-1.566212526274467
-3.9125,-2.19464215991073,-1.990078062481164
-3.912,-2.6427895039334,-2.17022091536901
-3.9115,-2.546757930214257,-2.021867977696666
-3.911,-1.661133417026597,-1.184733543688439
-3.9105,-0.754168554123573,-0.2628260024388724
-3.91,-0.09261771294724913,0.4471487707073456
-3.9095,0.291508581929326,0.8604176685088755
-3.909,0.4729015545099309,1.040560521396722
-3.9085,0.5155822539406614,1.072350436612224
-3.908,0.4835717293676135,1.040560521396722
-3.9075,0.4408910299368829,0.9663840525605498
-3.907,0.408880505363835,0.8922075837243778
-3.9065,0.3875401556484697,0.7968378380778709
-3.906,0.1954770082101822,0.5849050699745222
-3.9055,-0.4554036581084589,-0.1462629799820306
-3.905,-0.8928808272734472,-0.9833974139902578
-3.9045,-1.116954499284783,-1.502632695843462
-3.904,-0.807519428411986,-1.227120097309109
-3.9035,-0.2526703358124887,-0.6231117082145651
-3.903,0.2381577076409128,-0.08268314955102604
-3.9025,0.5475927785137094,0.309392471440169
-3.902,0.6756348768059011,0.4895353243280153
-3.9015,0.707645401378949,0.3941655786815084
-3.901,0.6863050516635838,0.309392471440169
-3.9005,0.7609962756673623,0.1186529801471552
-3.9,0.8676980242441885,-0.09327978795619347
-3.8995,0.7823366253827275,-0.02969995752518888
-3.899,0.6436243522328531,0.1610395337678249
-3.8985,0.5369226036560266,0.3411823866556712
-3.898,0.4622313796522482,0.5001319627331828
-3.8975,0.5796033030867573,0.7438546460520338
-3.897,0.5049120790829789,0.7226613692416989
-3.8965,-0.09261771294724913,-0.06148987274069118
-3.896,-0.5834457564006506,-0.7502713690765743
-3.8955,-1.223656247861609,-1.269506650929778
-3.895,-1.83185621474952,-1.672178910326141
-3.8945,-1.725154466172693,-1.51322933424863
-3.894,-1.06360362499637,-0.718481453861072
-3.8935,-0.4020527838200457,0.07626642652648545
-3.893,0.07810508477567314,0.6590815388106942
-3.8925,0.3448594562177392,0.9875773293708847
-3.892,0.4622313796522482,1.135930267043229
-3.8915,0.4835717293676135,1.167720182258731
-3.891,0.4622313796522482,1.146526905448396
-3.8905,0.4302208550792003,1.093543713422559
-3.89,0.3982103305061524,1.029963882991555
-3.8895,0.3021787567870086,0.8604176685088755
-3.889,-0.3060212101009019,0.1292496185523226
-3.8885,-0.7755089038389382,-0.792657922697244
-3.888,-0.8928808272734472,-1.534422611058964
-3.8875,-1.042263275281004,-1.947691508860494
-3.887,-0.7755089038389382,-1.449649503817625
-3.8865,-0.2633405106701714,-0.6654982618352349
-3.886,0.1741366584948169,-0.08268314955102604
