Class_7_Listen_To_Music/Class_7_Listen_To_Music_Turki_5.csv

#Digilent WaveForms Oscilloscope Acquisition
#Device Name: EExplorer
#Serial Number: SN:210151A2B84A
#Date Time: 2020-11-26 10:57:48.432
#Sample rate: 2000Hz
#Samples: 16384
#Trigger: Source: Channel 1 Type: Edge Condition: Rising Level: 0 V Hyst.: Auto HoldOff: 0 s
#Channel 1: Range: 1 V/div Offset: 0 V Attenuation: 1 X
#Channel 2: Range: 1 V/div Offset: 0 V Attenuation: 1 X
#Power Supplies: ON
#Fixed Supply: ON
#Voltage: 3.3 V Readback: 3.321 V
#Positive Supply: ON
#Voltage: 3.7 V Readback: 3.716 V
#Current: 500 mA Readback: 20 mA
#Negative Supply: ON
#Voltage: -3.7 V Readback: -3.71 V
#Current: -500 mA Readback: -9 mA
#Reference 1: ON
#Voltage: 0 V
#Reference 2: ON
#Voltage: 0 V

Time (s),Channel 1 (V),Channel 2 (V)
-4.096,0.2488278824985954,-0.5913217929990628
-4.0955,0.6116138276594751,-0.4853554089474849
-4.095,0.7716664505250739,-0.453565493731973
-4.0945,0.8036769750980928,-0.5489352393783931
-4.094,0.8250173248134386,-0.7396747306712335
-4.0935,0.963729597963313,-0.9304142219643918
-4.093,0.942389248247967,-0.8986243067489184
-4.0925,0.8250173248135648,-0.7290780922663936
-4.092,0.718315576236554,-0.4853554089471572
-4.0915,0.6329541773751706,-0.2310360872233701
-4.091,0.6756348768059011,0.1186529801471552
-4.0905,1.230483969405301,0.8922075837251295
-4.09,1.123782220828572,1.718745379327438
-4.0895,0.1527963087794516,1.623375633680931
-4.089,-0.9035510021301693,0.6590815388115712
-4.0885,-1.789175515318789,-0.400582301706049
-4.088,-2.44005618163743,-1.089363798041932
-4.0875,-2.514747405641141,-1.375473034981193
-4.087,-2.33335443305973,-1.301296566144885
-4.0865,-1.373038695869166,-0.8668343915334161
-4.086,-0.4874141826823123,-0.2628260024394217
-4.0855,0.1207857842067045,0.2352160026043824
-4.085,0.4515612047945656,0.6590815388106942
-4.0845,0.5689331282289678,1.167720182258268
-4.084,0.5689331282290357,1.602182356870808
-4.0835,0.5262524287983441,1.835308401784279
-4.083,0.4622313796522482,1.771728571353275
-4.0825,-0.01792648894418876,1.358459673551745
-4.082,-0.807519428411986,1.358459673551745
-4.0815,-1.244996597576974,0.8604176685088755
-4.081,-1.405049220442068,-0.08268314955016831
-4.0805,-1.351698346153801,-0.6549016234300674
-4.08,-0.7968492535543035,-0.7396747306714069
-4.0795,-0.1673089369516002,-0.6760949002404602
-4.079,0.3341892813603186,-0.6231117082145747
-4.0785,0.6222840025174878,-0.6337083466197325
-4.078,0.7609962756672362,-0.6972881770506794
-4.0775,0.8036769750982287,-0.7608680074818575
-4.077,0.9530594231056497,-0.8880276683437509
-4.0765,0.9850699476786686,-0.8562377531282775
-4.076,0.8783681991017548,-0.644304985024659
-4.0755,0.7503261008096795,-0.3793890248957141
-4.075,0.6542945270905358,-0.1038764263613609
-4.0745,0.6116138276601739,0.1822328105787187
-4.074,1.017080472251745,0.7968378380778709
-4.0735,1.209143619690033,1.591585718465428
-4.073,0.3128489316455063,1.644568910491217
-4.0725,-0.7434983792658902,0.8604176685088755
-4.072,-1.46907026958831,0.2881991946298341
-4.0715,-2.002579012471957,-0.08268314955068873
-4.071,-2.429386006779796,-0.6337083466200988
-4.0705,-2.482736881068161,-1.036380606016095
-4.07,-1.917217613611495,-1.068170521231568
-4.0695,-0.9462317015611714,-0.6443049850244085
-4.069,-0.1886492866663929,-0.1038764263613609
-4.0685,0.291508581929326,0.3623756634660061
-4.068,0.504912079083037,0.8922075837248211
-4.0675,0.5689331282290746,1.37965295036208
-4.067,0.5582629533713921,1.697552102517103
-4.0665,0.5155822539404382,1.814115124973732
-4.066,0.2701682322139607,1.580989080060261
-4.0655,-0.4980843575391895,1.464426057603419
-4.065,-1.223656247860949,1.369056311956999
-4.0645,-1.767835165603424,0.4895353243280153
-4.064,-1.821186039891837,-0.2628260024388724
-4.0635,-1.159635198716115,-0.5171453241626596
-4.063,-0.3593720843887329,-0.5701285161887568
-4.0625,0.2808384070716433,-0.6019184314042303
-4.062,0.6649647019478689,-0.7078848154558082
-4.0615,0.8250173248134871,-0.8032545611024596
-4.061,0.857027849386506,-0.8562377531282487
-4.0605,0.942389248247967,-0.8880276683437509
-4.06,1.081101521397773,-0.898624306748716
-4.0595,1.006410297394063,-0.6760949002404023
-4.059,0.8676980242441885,-0.3793890248957141
-4.0585,0.7289857510944404,-0.08268314955129591
-4.058,0.6329541773751706,0.1928294489833272
-4.0575,0.8143471499557753,0.6696781772158616
-4.057,1.145122570543636,1.422039503982065
-4.0565,0.5369226036560266,1.400846227172415
-4.056,-0.3593720843893152,0.5319218779486851
-4.0555,-1.255666772433842,-0.347599109679412
-4.055,-2.034589537045898,-1.036380606016403
-4.0545,-2.482736881068161,-1.375473034981453
-4.054,-2.472066706210488,-1.428456227007242
-4.0535,-1.799845690175589,-1.121153713256885
-4.053,-0.8288597781273515,-0.5171453241628908
-4.0525,-0.09261771294724913,0.08686306493165288
-4.052,0.3555296310756062,0.5107286011386971
-4.0515,0.5582629533713921,0.8922075837243778
-4.051,0.5902734779444399,1.273686566310405
-4.0505,0.568933128229094,1.528005888034192
-4.05,0.5155822539406614,1.612778995275763
-4.0495,0.408880505363835,1.475022696008586
-4.049,-0.2206598112388682,1.241896651095115
-4.0485,-0.9248913518468446,1.326669758335597
-4.048,-1.30901764672307,0.6166949851900245
-4.0475,-1.565101843307221,-0.3052125560587037
-4.047,-1.650463242168488,-0.81385119950755
-4.0465,-1.180975548430879,-0.7820612842920766
-4.046,-0.4660738329667917,-0.6231117082147096
-4.0455,0.1421261339221475,-0.5171453241628233
-4.045,0.5582629533713921,-0.4429688553267188
-4.0445,0.7609962756673623,-0.4111789401112165
-4.044,0.8676980242443632,-0.5065486857579161
-4.0435,1.059761171682476,-0.718481453861072
-4.043,1.038420821967111,-0.6866915386455698
-4.0425,0.8997085488173626,-0.4959520473527294
-4.042,0.7609962756673623,-0.252229364033705
-4.0415,0.6436243522328531,0.002089957690313421
-4.041,0.6649647019481989,0.2987958330347318
-4.0405,1.134452395686051,0.9875773293712895
-4.04,0.9103787236749192,1.432636142387917
-4.0395,0.1314559590647948,0.7650479228629757
-4.039,-0.7755089038397048,-0.1568596183879113
-4.0385,-1.618452717595867,-0.9410108603695881
-4.038,-2.312014083344608,-1.396666311791373
-4.0375,-2.493407055925727,-1.534422611058839
-4.037,-2.365364957633652,-1.396666311791788
-4.0365,-1.46907026958831,-0.8774310299385835
-4.036,-0.5621054066846933,-0.2098428104125533
-4.0355,0.08877525963335578,0.3199891098453364
-4.035,0.4408910299368829,0.701468092431364
-4.0345,0.5689331282289581,1.125333628637676
-4.034,0.5689331282290746,1.453829419198252
-4.0335,0.5475927785137094,1.591585718465428
-4.033,0.4942419042253446,1.538602526439639
-4.0325,0.05676473505954121,1.114736990232846
-4.032,-0.7861790786966207,1.061753798207057
-4.0315,-1.426389570156997,0.9769806909657943
-4.031,-1.682473766741769,0.1822328105776201
-4.0305,-1.46907026958831,-0.4111789401112165
-4.03,-0.7861790786972418,-0.5701285161885834
-4.0295,-0.09261771294679302,-0.6125150698094362
-4.029,0.408880505363835,-0.6549016234300674
-4.0285,0.6863050516635838,-0.6231117082145651
-4.028,0.8143471499557849,-0.6972881770508143
-4.0275,0.825017324813458,-0.7820612842920766
-4.027,0.9103787236749192,-0.9304142219644207
-4.0265,0.9317190733902651,-0.8774310299386316
-4.026,0.8356874996711408,-0.6549016234300674
-4.0255,0.7289857510943143,-0.3687923864905467
-4.025,0.6542945270906038,-0.08268314955128625
-4.0245,0.6116138276601447,0.2034260873890247
-4.024,0.9850699476786977,0.7862411996727035
-4.0235,1.113112045970773,1.549199164844065
-4.023,0.2381577076400005,1.485619334413021
-4.0225,-0.7648387289812555,0.6802748156210291
-4.022,-1.639793067310436,-0.2522293640328569
-4.0215,-2.344024607918413,-0.9622041371802313
-4.021,-2.482736881068161,-1.301296566145281
-4.0205,-2.3973754822067,-1.322489842955616
-4.02,-1.554431668448927,-0.972800775584541
-4.0195,-0.6261264558313813,-0.3687923864905467
-4.019,0.04609456020262521,0.1822328105781598
-4.0185,0.4302208550788509,0.6166949851896294
-4.018,0.5796033030867573,1.114736990232894
-4.0175,0.5902734779444399,1.517409249629256
-4.017,0.5582629533714212,1.73993865613757
-4.0165,0.515582253940477,1.761131932947809
-4.016,0.3128489316446912,1.432636142387917
-4.0155,-0.3807124341040496,0.701468092432029
-4.015,-0.9142211769890163,-0.1568596183879691
-4.0145,-1.138294849000148,-1.004590690800593
-4.014,-1.277007122149896,-1.3542797581708
-4.0135,-1.031593100422769,-1.131750351662265
-4.013,-0.423393133535411,-0.7608680074817418
-4.0125,0.142126133921769,-0.5383386009732256
-4.012,0.5369226036562013,-0.5383386009732931
-4.0115,0.7289857510943143,-0.6125150698093976
-4.011,0.8036769750980928,-0.7608680074817418
-4.0105,0.8997085488171491,-1.004590690800371
-4.01,1.038420821967111,-1.121153713257435
-4.0095,0.9637295979633325,-0.9622041371799229
-4.009,0.8250173248135841,-0.7078848154561359
-4.0085,0.718315576236554,-0.43237221692132
-4.008,0.6329541773751706,-0.1780528951975329
-4.0075,0.7823366253825916,0.2458126410087789
-4.007,1.230483969404913,1.093543713422983
-4.0065,0.6969752265212663,1.559795803249926
-4.006,-0.2099896363817582,0.8922075837243778
-4.0055,-1.148965023858558,-0.1038764263621126
-4.005,-1.949228138184029,-0.9304142219644207
-4.0045,-2.450726356495113,-1.375473034981453
-4.004,-2.482736881067889,-1.481439419032963
-4.0035,-2.183971985053047,-1.301296566145281
-4.003,-1.191645723288561,-0.8244478379127463
-4.0025,-0.3487019095323991,-0.2522293640342255
-4.002,0.2168173579255475,0.2246193641988295
-4.0015,0.5049120790829789,0.7438546460520338
-4.001,0.5902734779443622,1.284283204715081
-4.0005,0.5796033030867282,1.665762187301735
-4,0.5475927785137094,1.814115124973944
-3.9995,0.4408910299368829,1.633972272086098
-3.999,-0.1886492866663929,1.305476481525908
-3.9985,-0.9035510021311299,1.305476481525908
-3.998,-1.362368521011484,0.5637117931641874
-3.9975,-1.703814116457328,-0.3158091944647096
-3.997,-1.650463242168915,-0.6972881770507372
-3.9965,-1.031593100423322,-0.7078848154559045
-3.996,-0.2846808603855366,-0.6549016234300674
-3.9955,0.291508581929326,-0.6443049850249
-3.995,0.6542945270905358,-0.7078848154559045
-3.9945,0.8356874996711408,-0.7396747306714069
-3.994,0.8997085488172365,-0.8350444763179138
-3.9935,1.070431346540159,-1.004590690800593
-3.993,1.049090996824793,-0.9092209451540858
-3.9925,0.9103787236749192,-0.6443049850249
-3.992,0.7716664505250448,-0.3370024712750445
-3.9915,0.6756348768059011,-0.04029659593035631
-3.991,0.6863050516635838,0.3199891098453364
-3.9905,1.166462920259302,1.040560521396722
-3.99,1.038420821967111,1.6657621873016
-3.9895,0.2061471830678648,1.188913459069066
-3.989,-0.7861790786966207,0.3517790250608387
-3.9885,-1.661133417026597,-0.5171453241628908
-3.988,-2.344024607918286,-1.0999604364471
-3.9875,-2.461396531352796,-1.333086481360783
-3.987,-2.151961460479999,-1.237716735714276
-3.9865,-1.159635198715513,-0.7608680074817418
-3.986,-0.3273615598162672,-0.1568596183871981
-3.9855,0.2381577076409128,0.3305857482505039
-3.985,0.5262524287983441,0.7544512844572011
-3.9845,0.6116138276598051,1.231300012689736
-3.984,0.6009436528021226,1.591585718465428
-3.9835,0.5582629533713921,1.75053529454294
-3.983,0.5049120790829789,1.739938656137773
-3.9825,0.1314559590640864,1.453829419198252
-3.982,-0.658136980404429,1.411442865577582
-3.9815,-1.159635198715513,1.00877060618122
-3.981,-1.362368521011484,0.05507314971615059
-3.9805,-1.51175096901904,-0.6760949002404023
-3.98,-1.223656247861609,-0.8350444763179138
-3.9795,-0.5300948821122373,-0.7290780922662394
-3.979,0.1207857842064037,-0.6337083466197325
-3.9785,0.5369226036560266,-0.6337083466197325
-3.978,0.7609962756673623,-0.718481453861072
-3.9775,0.8676980242441885,-0.8456411147230812
-3.977,1.017080472251745,-0.8986243067489184
-3.9765,1.049090996824793,-0.8350444763179138
-3.976,0.9317190733902845,-0.6549016234300674
-3.9755,0.8036769750980928,-0.4323722169215513
-3.975,0.6969752265212663,-0.2098428104130352
-3.9745,0.6436243522328531,0.02328323450064829
-3.974,0.9850699476786977,0.5637117931641874
-3.9735,1.379866417412955,1.390249588767247
-3.973,0.7183155762366316,1.602182356870596
-3.9725,-0.3060212101009019,0.7332580076468663
-3.972,-1.298347471865388,-0.3581957480853793
-3.9715,-2.119950935906951,-1.142346990067769
-3.971,-2.461396531352796,-1.523825972653797
-3.9705,-2.386705307349017,-1.545019249464132
-3.97,-1.554431668449771,-1.237716735714276
-3.9695,-0.6261264558313813,-0.7396747306714069
-3.969,0.04609456020262521,-0.2204394488182027
-3.9685,0.4408910299368829,0.1928294489833272
-3.968,0.5902734779444399,0.7226613692416989
-3.9675,0.6116138276598051,1.231300012689736
-3.967,0.5796033030867573,1.570392441655093
-3.9665,0.5369226036560266,1.718745379327438
-3.966,0.3128489316446912,1.485619334413754
-3.9655,-0.4340633083930936,1.231300012689736
-3.965,-1.031593100423322,1.061753798207057
-3.9645,-1.341028171296118,0.1928294489833272
-3.964,-1.51175096901904,-0.5489352393783931
-3.9635,-1.202315898146244,-0.7396747306714069
-3.963,-0.5514352318276028,-0.6760949002404023
-3.9625,0.09944543449103843,-0.6549016234300674
-3.962,0.5262524287983441,-0.6866915386455698
-3.9615,0.7503261008096795,-0.7820612842920766
-3.961,0.8356874996711408,-0.8668343915334161
-3.9605,0.9317190733902845,-0.9516074987747555
-3.96,1.113112045970889,-1.01518732920576
-3.9595,1.049090996824793,-0.8138511995075789
-3.959,0.8997085488172365,-0.5277419625680583
-3.9585,0.7503261008096795,-0.2416327256285375
-3.958,0.6649647019482183,0.02328323450064829
-3.9575,0.79300680024041,0.4259554938970107
-3.957,1.347855892839907,1.188913459069066
-3.9565,0.974399772821015,1.6657621873016
-3.956,0.07810508477567314,1.061753798207057
-3.9555,-0.8822106524157645,0.1292496185523226
-3.955,-1.682473766741963,-0.7820612842920766
-3.9545,-2.322684258202921,-1.407262950196955
-3.954,-2.44005618163743,-1.682775548731308
-3.9535,-1.970568487899394,-1.523825972653797
-3.953,-0.9889124009925911,-0.9728007755850904
-3.9525,-0.1993194615240755,-0.326405832869877
-3.952,0.3128489316446912,0.1928294489833272
-3.9515,0.5475927785137094,0.7120647308365314
-3.951,0.6009436528021226,1.231300012689736
-3.9505,0.5902734779444399,1.602182356870596
-3.95,0.5582629533713921,1.782325209758442
-3.9495,0.4729015545099309,1.729342017732605
-3.949,-0.09261771294724913,1.263089927905238
-3.9485,-0.807519428411986,0.8604176685088755
-3.948,-1.212986073003927,-0.02969995752518888
-3.9475,-1.26633694729234,-0.718481453861072
-3.947,-0.807519428411986,-0.8138511995075789
-3.9465,-0.1993194615240755,-0.5913217929990628
-3.946,0.3235191065023739,-0.4323722169215513
-3.9455,0.6649647019482183,-0.4323722169215513
-3.945,0.8143471499557753,-0.5595318777835605
-3.9445,0.857027849386506,-0.718481453861072
-3.944,0.8783681991018712,-0.8350444763179138
-3.9435,1.059761171682476,-0.9833974139902578
-3.943,1.059761171682476,-0.8986243067489184
-3.9425,0.9317190733902845,-0.6443049850249
-3.942,0.79300680024041,-0.3581957480853793
-3.9415,0.6863050516635838,-0.09327978795619347
-3.941,0.6756348768059011,0.1928294489833272
-3.9405,1.102441871113207,0.8816109453192104
-3.94,0.8463576745288233,1.602182356870596
-3.9395,-0.1352984123779797,1.29487984312074
-3.939,-1.084943974711735,0.3411823866556712
-3.9385,-1.895877263895616,-0.6337083466197325
-3.938,-2.418715831922065,-1.269506650929778
-3.9375,-2.461396531352796,-1.545019249464132
-3.937,-2.258663209056825,-1.460246142222792
-3.9365,-1.298347471865388,-0.9410108603695881
-3.936,-0.423393133535411,-0.2628260024388724
-3.9355,0.1848068333524996,0.2776025562246667
-3.935,0.5155822539406614,0.6802748156210291
-3.9345,0.6222840025174878,1.104140351827727
-3.934,0.6222840025174878,1.464426057603419
-3.9335,0.5796033030867573,1.655165548896433
-3.933,0.5369226036560266,1.6657621873016
-3.9325,0.1634664836371343,1.347863035146577
-3.932,-0.572775581542968,1.188913459069066
-3.9315,-0.9889124009925911,0.6484849004055269
-3.931,-1.212986073003927,-0.2840192792492073
-3.9305,-1.426389570157579,-0.8880276683437509
-3.93,-1.170305373573196,-0.9198175835592532
-3.9295,-0.5194247072545548,-0.7290780922662394
-3.929,0.1101156093487211,-0.5913217929990628
-3.9285,0.5475927785137094,-0.570128516188728
-3.928,0.7609962756673623,-0.6337083466197325
-3.9275,0.8463576745288233,-0.6972881770507372
-3.927,0.9850699476786977,-0.8032545611024114
-3.9265,1.038420821967111,-0.8032545611024114
-3.926,0.942389248247967,-0.6549016234300674
-3.9255,0.8143471499557753,-0.4323722169215513
-3.925,0.707645401378949,-0.2098428104130352
-3.9245,0.6436243522328531,0.03387987290581572
-3.924,0.9210488985326017,0.55311515475902
-3.9235,1.102441871113207,1.37965295036208
-3.923,0.3021787567870086,1.856501678594614
-3.9225,-0.6688071552621118,1.241896651094903
-3.922,-1.533091318734406,0.13984625695749
-3.9215,-2.247993034199143,-0.8244478379127463
-3.921,-2.450726356495113,-1.354279758171118
-3.9205,-2.429386006779747,-1.51322933424863
-3.92,-1.810515865034154,-1.227120097309109
-3.9195,-0.8181896032696687,-0.6231117082145651
-3.919,-0.07127736323188383,-0.008506680714854012
-3.9185,0.3875401556484697,0.4683420475176805
-3.918,0.5796033030867573,0.9769806909657173
-3.9175,0.6222840025174878,1.432636142387917
-3.917,0.6009436528021226,1.718745379327438
-3.9165,0.5582629533713921,1.824711763379112
-3.916,0.3875401556484697,1.655165548896433
-3.9155,-0.2953510352432193,1.485619334413754
-3.915,-0.8502001278427167,1.231300012689736
-3.9145,-1.159635198715513,0.2564092794143318
-3.914,-1.223656247861609,-0.4959520473525559
-3.9135,-0.8608703027003992,-0.6866915386455698
-3.913,-0.2846808603855366,-0.6443049850249
-3.9125,0.2594980573562781,-0.6125150698093976
-3.912,0.6222840025174878,-0.6443049850249
-3.9115,0.8036769750980928,-0.6760949002404023
-3.911,0.857027849386506,-0.7608680074817418
-3.9105,0.9103787236749192,-0.8668343915334161
-3.91,1.059761171682476,-0.9622041371799229
-3.9095,0.9957401225363802,-0.8138511995075789
-3.909,0.8676980242441885,-0.5489352393783931
-3.9085,0.7503261008096795,-0.2628260024388724
-3.908,0.6542945270905358,0.01268659609548085
-3.9075,0.7609962756673623,0.4047622170866759
-3.907,1.230483969405398,1.178316820663898
-3.9065,0.7396559259519968,1.867098316999781
-3.906,-0.3273615598162672,1.580989080060261
-3.9055,-1.30901764672307,0.6060983467848571
-3.905,-2.109280761049269,-0.4641621321370536
-3.9045,-2.44005618163743,-1.205926820498774
-3.904,-2.450726356495113,-1.534422611058964
-3.9035,-2.247993034199143,-1.502632695843462
-3.903,-1.287677297007705,-1.121153713257435
-3.9025,-0.4020527838200457,-0.5913217929990628
-3.902,0.1954770082101822,-0.1356663415768632
-3.9015,0.5155822539406614,0.3623756634660061
-3.901,0.6222840025174878,0.9557874141553824
-3.9005,0.6222840025174878,1.443232780793084
-3.9,0.5902734779444399,1.70814874092227
-3.8995,0.5049120790829789,1.655165548896433
-3.899,-0.08194753808956648,1.326669758336243
-3.8985,-0.8715404775580819,1.400846227172415
-3.898,-1.362368521011484,0.7650479228623686
-3.8975,-1.629122892453549,-0.1992461720078678
-3.897,-1.607782542738184,-0.7608680074817418
-3.8965,-1.1062843244271,-0.7502713690765743
-3.896,-0.3700422592469978,-0.6231117082145651
-3.8955,0.2701682322139607,-0.5595318777835605
-3.895,0.6542945270905358,-0.5913217929990628
-3.8945,0.8463576745288233,-0.7396747306714069
-3.894,0.9210488985326017,-0.8880276683437509
-3.8935,1.113112045970889,-1.025783967610927
-3.893,1.113112045970889,-0.9198175835592532
-3.8925,0.974399772821015,-0.6443049850249
-3.892,0.825017324813458,-0.3370024712750445
-3.8915,0.7183155762366316,-0.06148987274069118
-3.891,0.707645401378949,0.2352160026039969
-3.8905,1.15579274540162,0.8922075837243778
-3.89,1.070431346540159,1.496215972818921
-3.8895,0.1314559590640864,0.9663840525605498
-3.889,-0.9142211769888124,0.07626642652648545
-3.8885,-1.789175515318789,-0.7820612842920766
-3.888,-2.386705307349017,-1.333086481360783
-3.8875,-2.44005618163743,-1.545019249464132
-3.887,-2.23732285934146,-1.449649503817625
-3.8865,-1.287677297007705,-1.004590690800593
-3.886,-0.4020527838200457,-0.4323722169215513
-3.8855,0.2061471830678648,0.07626642652648545
-3.885,0.5262524287983441,0.5319218779486851
