Class_7_Listen_To_Music/Class_7_Listen_To_Music_1_UZ_5.csv

#Digilent WaveForms Oscilloscope Acquisition
#Device Name: EExplorer
#Serial Number: SN:210151A2B84A
#Date Time: 2020-12-06 09:33:17.638
#Sample rate: 2000Hz
#Samples: 16384
#Trigger: Source: Channel 1 Type: Edge Condition: Rising Level: 0 V Hyst.: Auto HoldOff: 0 s
#Channel 1: Range: 1 V/div Offset: 0 V Attenuation: 1 X
#Channel 2: Range: 1 V/div Offset: 0 V Attenuation: 1 X
#Power Supplies: ON
#Fixed Supply: ON
#Voltage: 3.3 V Readback: 3.317 V
#Positive Supply: ON
#Voltage: 3.7 V Readback: 3.732 V
#Current: 40 mA Readback: 12 mA
#Negative Supply: ON
#Voltage: -3.7 V Readback: -3.726 V
#Current: -40 mA Readback: 0 A
#Reference 1: ON
#Voltage: 0 V
#Reference 2: ON
#Voltage: 0 V

Time (s),Channel 1 (V),Channel 2 (V)
-4.096,0.4195506802215176,0.3941655786815084
-4.0955,0.3875401556484989,0.3411823866557194
-4.095,-0.0606071883748708,-0.07208651114657179
-4.0945,-0.7968492535543035,-0.8562377531282487
-4.094,-1.447729919872353,-1.587405803084136
-4.0935,-1.863866739322063,-2.053657892911793
-4.093,-1.30901764672307,-1.640388995110639
-4.0925,-0.4127229586785435,-0.7396747306722261
-4.092,0.3021787567873483,0.0656697881217999
-4.0915,0.6756348768059011,0.5955017083796896
-4.091,0.79300680024041,0.9451907757502149
-4.0905,0.7503261008096116,1.135930267043267
-4.09,0.6756348768059011,1.178316820663898
-4.0895,0.7503261008096795,0.9451907757502149
-4.089,0.7396559259520065,0.8074344764831636
-4.0885,0.6542945270905358,0.7968378380778709
-4.088,0.5475927785137094,0.8074344764830383
-4.0875,0.4835717293676717,0.7968378380778806
-4.087,0.3555296310750336,0.6484849004049487
-4.0865,-0.07127736323188383,0.01268659609548085
-4.086,-0.9995825758494293,-1.068170521230614
-4.0855,-2.002579012472714,-2.011271339291682
-4.085,-2.301343908487556,-2.21260746898968
-4.0845,-2.109280761049443,-2.032464616101997
-4.084,-1.277007122149256,-1.184733543687668
-4.0835,-0.4340633083930936,-0.3370024712750445
-4.083,0.0674349099179905,0.1504428953626575
-4.0825,0.3448594562178459,0.3941655786815855
-4.082,0.4622313796522482,0.4789386859228479
-4.0815,0.4942419042252961,0.4683420475176805
-4.081,0.4835717293676232,0.4259554938970492
-4.0805,0.4622313796522482,0.383568940276341
-4.08,0.4515612047945656,0.3517790250608387
-4.0795,0.4302208550792198,0.3305857482505231
-4.079,0.4088805053636312,0.3093924714399858
-4.0785,0.1848068333524996,0.1080563417419877
-4.078,-0.6367966306883165,-0.580725154593269
-4.0775,-1.234326422719399,-1.269506650930106
-4.077,-1.351698346153801,-1.629792356705471
-4.0765,-0.818189603270154,-1.184733543688844
-4.076,-0.06060718837365774,-0.421775578515719
-4.0755,0.5369226036560266,0.309392471440169
-4.075,0.857027849386506,0.8710143069140429
-4.0745,0.9103787236748416,1.15712354385365
-4.074,0.825017324813458,1.25249328950007
-4.0735,0.707645401378949,1.241896651094903
-4.073,0.6756348768059302,1.284283204715534
-4.0725,0.7289857510943143,1.400846227172415
-4.072,0.6756348768059011,1.29487984312074
-4.0715,0.5796033030868447,1.1041403518279
-4.071,0.504912079082581,0.9134008605342212
-4.0705,0.0674349099179905,0.3729723018711736
-4.07,-0.4447334832503105,-0.2628260024382941
-4.0695,-0.8502001278433668,-0.7820612842928379
-4.069,-1.565101843307454,-1.619195718300304
-4.0685,-2.109280761049269,-2.159624276963843
-4.068,-2.376035132490888,-2.40334696028227
-4.0675,-1.885207089037933,-1.937094870455327
-4.067,-1.084943974711735,-1.05757388282643
-4.0665,-0.3593720843888688,-0.2522293640332231
-4.066,0.1314559590640864,0.2776025562246667
-4.0655,0.3982103305061524,0.55311515475902
-4.065,0.5049120790828818,0.6484849004054402
-4.0645,0.5369226036560266,0.6484849004055269
-4.064,0.5155822539406614,0.6060983467848571
-4.0635,0.4835717293676426,0.5531151547590681
-4.063,0.4408910299368635,0.5001319627331443
-4.0625,0.4195506802215176,0.457745409112513
-4.062,0.366199805933153,0.3729723018712507
-4.0615,-0.09261771294776347,-0.2310360872240544
-4.061,-0.658136980404429,-0.9833974139902578
-4.0605,-0.9782422261349084,-1.51322933424863
-4.06,-0.6261264558307214,-1.417859588601641
-4.0595,0.09944543449103843,-0.8880276683437509
-4.059,0.6222840025174878,-0.1780528951975329
-4.0585,0.8997085488169843,0.3517790250603569
-4.058,0.942389248247967,0.7438546460520338
-4.0575,0.8783681991018712,0.92399749893988
-4.057,0.7609962756674691,0.9769806909656691
-4.0565,0.6969752265212663,1.040560521396722
-4.056,0.7716664505250448,1.125333628638062
-4.0555,0.7183155762366801,1.104140351827746
-4.055,0.6116138276597275,1.051157159801832
-4.0545,0.5262524287983441,0.9875773293708847
-4.054,0.4729015545099794,0.9134008605347802
-4.0535,0.2701682322135143,0.7650479228616553
-4.053,-0.2206598112394408,-0.01910331912002144
-4.0525,-1.447729919872945,-1.439052865412457
-4.052,-2.0452597119036,-2.117237723343607
-4.0515,-2.514747405641209,-2.594086451575707
-4.051,-2.226652684483777,-2.297380576231019
-4.0505,-1.298347471866232,-1.269506650930713
-4.05,-0.4447334832507763,-0.3370024712750445
-4.0495,0.07810508477567314,0.2246193641988295
-4.049,0.3555296310751695,0.5213252395432477
-4.0485,0.4835717293676329,0.627291623595192
-4.048,0.5049120790829789,0.627291623595192
-4.0475,0.4942419042253058,0.5849050699745607
-4.047,0.4729015545099114,0.542518516353814
-4.0465,0.4515612047945656,0.5001319627331828
-4.046,0.4302208550792198,0.4683420475177094
-4.0455,0.3768699807903019,0.3835689402758688
-4.045,-0.156638762093345,-0.1356663415768632
-4.0445,-1.020922925565639,-0.9833974139902578
-4.044,-1.778505340461058,-1.703968825541788
-4.0435,-1.725154466172693,-1.862918401619155
-4.043,-0.9142211769888124,-1.237716735714276
-4.0425,-0.03926683865963176,-0.4429688553274417
-4.042,0.5582629533713921,0.2564092794143318
-4.0415,0.825017324813458,0.775644561267536
-4.041,0.8463576745288038,1.082947075017112
-4.0405,0.7609962756672847,1.210106735879401
-4.04,0.6756348768059011,1.210106735879401
-4.0395,0.7503261008096116,1.135930267043296
-4.039,0.7609962756672847,1.040560521396645
-4.0385,0.6756348768059011,0.9557874141553824
-4.038,0.5689331282291716,0.8710143069141201
-4.0375,0.4942419042251797,0.796837838077736
-4.037,0.3661998059331045,0.6484849004055269
-4.0365,-0.1993194615240755,0.08686306493165288
-4.036,-1.106284324427993,-0.8668343915344088
-4.0355,-2.087940411333903,-1.958288147265661
-4.035,-2.322684258202921,-1.322489842955616
-4.0345,-2.322684258202921,-0.07208651114699594
-4.034,-1.597112367880501,0.5425185163538525
-4.0335,-0.6688071552621118,0.7120647308365314
-4.033,-0.04993701351708146,0.5531151547591645
-4.0325,0.2915085819294813,0.3623756634658905
-4.032,0.4622313796522482,0.2352160026039969
-4.0315,0.50491207908294,0.1928294489833658
-4.031,0.5049120790829594,0.2034260873885525
-4.0305,0.4835717293676135,0.2670059178194992
-4.03,0.4622313796522676,0.3517790250607616
-4.0295,0.4408910299368635,0.4471487707074227
-4.029,0.4195506802215176,0.5319218779486851
-4.0285,0.1314559590640864,0.2352160026039969
-4.028,-0.6047861061163458,-0.506548685758186
-4.0275,-0.9675720512772257,-1.01518732920576
-4.027,-1.180975548430879,-1.258910012524611
-4.0265,-0.7434983792662881,-0.7608680074821947
-4.026,-0.03926683865883591,0.002089957690313421
-4.0255,0.4942419042252961,0.6484849004055269
-4.025,0.7716664505247925,1.051157159801523
-4.0245,0.8463576745287942,1.31607311993122
-4.024,0.8143471499557753,1.475022696008586
-4.0235,0.7289857510943919,1.485619334413744
-4.023,0.7183155762366121,1.379652950361945
-4.0225,0.6969752265212663,1.231300012689736
-4.022,0.6116138276598827,1.104140351827842
-4.0215,0.5369226036559781,0.987577329370769
-4.021,0.4835717293676135,0.8604176685088755
-4.0205,0.4302208550792003,0.7332580076468663
-4.02,0.02475421048621185,0.3517790250596918
-4.0195,-1.127624674142465,-0.9092209451540858
-4.019,-1.885207089037933,-1.852321763213987
-4.0185,-2.344024607917869,-2.339767129851246
-4.018,-2.525417580498891,-2.58348981317054
-4.0175,-1.810515865034154,-1.88411167842949
-4.017,-0.839529952985917,-0.8880276683446569
-4.0165,-0.1459685872353033,-0.178052895197186
-4.016,0.2488278824985954,0.2034260873884947
-4.0155,0.4408910299367083,0.3623756634658616
-4.015,0.5155822539406614,0.3941655786814795
-4.0145,0.5155822539406614,0.3623756634660061
-4.014,0.4942419042253156,0.2987958330350594
-4.0135,0.4729015545099114,0.2564092794143125
-4.013,0.4515612047945656,0.2352160026039969
-4.0125,0.4302208550792003,0.2246193641988295
-4.012,0.3555296310748783,0.1186529801466348
-4.0115,-0.2420001609548061,-0.4535654937318862
-4.011,-1.042263275281004,-1.216523458903942
-4.0105,-1.383708870726538,-1.725162102351515
-4.01,-0.9995825758502737,-1.333086481360783
-4.0095,-0.2099896363817582,-0.5913217929990628
-4.009,0.4622313796516367,0.1610395337671408
-4.0085,0.8036769750981801,0.7544512844575095
-4.008,0.8997085488172365,1.093543713422559
-4.0075,0.8356874996711989,1.263089927905084
-4.007,0.7289857510942658,1.305476481525831
-4.0065,0.6756348768059011,1.220703374284568
-4.006,0.79300680024041,0.8816109453192104
-4.0055,0.7503261008095922,0.7862411996727323
-4.005,0.6542945270905358,0.8180311148882058
-4.0045,0.5582629533713921,0.8604176685088755
-4.004,0.4942419042251311,0.8604176685087309
-4.0035,0.3128489316446912,0.701468092431364
-4.003,-0.124628237520297,0.04447651131098315
-4.0025,-1.063603624995516,-1.025783967609954
-4.002,-2.098610586191586,-1.947691508860494
-4.0015,-2.408045657064382,-0.9833974139902578
-4.001,-2.429386006779728,0.2246193641977309
-4.0005,-1.661133417025724,0.6908714540262159
-4,-0.7008176798351597,0.7120647308365314
-3.9995,-0.06060718837420119,0.457745409112513
-3.999,0.291508581929326,0.2140227257936621
-3.9985,0.4729015545099309,0.07626642652648545
-3.998,0.5155822539406614,0.03387987290581572
-3.9975,0.5155822539406614,0.06566978812131802
-3.997,0.4942419042252961,0.1610395337678249
-3.9965,0.4729015545099309,0.2670059178194992
-3.996,0.4515612047945656,0.383568940276341
-3.9955,0.3448594562177392,0.3623756634660061
-3.995,-0.3273615598162672,-0.252229364033705
-3.9945,-1.159635198715513,-1.025783967610927
-3.994,-1.725154466172693,-1.576809164679634
-3.9935,-1.575772018165136,-1.34368311976595
-3.993,-0.690147504977477,-0.5489352393783931
-3.9925,0.142126133921769,0.2246193641988295
-3.992,0.6756348768059011,0.8074344764830383
-3.9915,0.8783681991018712,1.188913459069066
-3.991,0.8783681991018712,1.42203950398275
-3.9905,0.8143471499557753,1.496215972818921
-3.99,0.7503261008096795,1.475022696008586
-3.9895,0.8997085488172365,1.549199164844759
-3.989,0.8997085488172365,1.453829419198252
-3.9885,0.7716664505250448,1.220703374284568
-3.988,0.6329541773751706,0.9769806909657173
-3.9875,0.5262524287983441,0.775644561267536
-3.987,0.3982103305061524,0.6802748156210291
-3.9865,0.03542438534494258,0.3941655786815084
-3.986,-0.9142211769888124,-0.6866915386455698
-3.9855,-1.554431668449771,-1.492036057438295
-3.985,-1.885207089037933,-1.831128486403653
-3.9845,-1.938557963326346,-1.958288147265661
-3.984,-1.287677297007705,-1.290699927740113
-3.9835,-0.4874141826815069,-0.4323722169215513
-3.983,0.03542438534494258,0.1186529801471552
-3.9825,0.3235191065023739,0.4259554938970107
-3.982,0.4622313796522482,0.5637117931641874
-3.9815,0.5049120790829789,0.6060983467848571
-3.981,0.5049120790829789,0.5955017083796896
-3.9805,0.4835717293676135,0.5743084315693548
-3.98,0.4622313796522482,0.5637117931641874
-3.9795,0.4515612047945656,0.5425185163538525
-3.979,0.4302208550792003,0.4895353243280153
-3.9785,0.1101156093487211,0.08686306493165288
-3.978,-0.6688071552621118,-0.7396747306714069
-3.9775,-1.052933450138687,-1.375473034981453
-3.977,-1.010252750707956,-1.576809164679634
-3.9765,-0.4020527838200457,-1.025783967610927
-3.976,0.2488278824985954,-0.2946159176543747
-3.9755,0.6863050516635838,0.2987958330350016
-3.975,0.8783681991018712,0.701468092431364
-3.9745,0.8783681991018712,0.9134008605347127
-3.974,0.79300680024041,1.051157159801889
-3.9735,0.6863050516635838,1.093543713422559
-3.973,0.7503261008096795,1.093543713422559
-3.9725,0.8463576745288233,1.051157159801889
-3.972,0.7609962756673623,0.9981739677760521
-3.9715,0.6436243522328531,0.92399749893988
-3.971,0.5475927785137094,0.849821030103708
-3.9705,0.4622313796522482,0.7650479228623686
-3.97,0.2381577076409128,0.5425185163538525
-3.9695,-0.03926683865883591,0.05507314971615059
-3.969,-1.052933450138687,-1.216523458903942
-3.9685,-1.778505340461106,-1.915901593644992
-3.968,-2.119950935906951,-2.265590661015517
-3.9675,-1.618452717595867,-1.725162102351978
-3.967,-0.7648387289812555,-0.7714646458869092
-3.9665,-0.1352984123779797,-0.06148987274069118
-3.966,0.2381577076409128,0.3411823866556712
-3.9655,0.4302208550792003,0.5425185163538525
-3.965,0.5049120790829789,0.5955017083796896
-3.9645,0.5155822539406614,0.5849050699745222
-3.964,0.4942419042252961,0.5319218779486851
-3.9635,0.4729015545099309,0.4895353243280153
-3.963,0.4515612047945656,0.457745409112513
-3.9625,0.4302208550792003,0.4153588554918433
-3.962,0.3128489316446912,0.2987958330350016
-3.9615,-0.3060212101009019,-0.3158091944647096
-3.961,-0.8608703027003992,-1.036380606016095
-3.9605,-1.095614149569417,-1.545019249464132
-3.96,-0.7328282044082075,-1.34368311976595
-3.9595,-0.07127736323188383,-0.6549016234300674
-3.959,0.4835717293676135,0.03387987290581572
-3.9585,0.7823366253827275,0.55311515475902
-3.958,0.8783681991018712,0.8816109453192104
-3.9575,0.825017324813458,1.029963882991555
-3.957,0.7289857510943143,1.114736990232894
-3.9565,0.6969752265212663,1.114736990232894
-3.956,0.8356874996711408,1.104140351827727
-3.9555,0.8143471499557753,1.072350436612224
-3.955,0.7183155762366316,0.9981739677760521
-3.9545,0.408880505363835,0.7120647308365314
-3.954,-0.3060212101009019,0.01268659609548085
-3.9535,-0.5834457564006506,0.4471487707073456
-3.953,-1.074273799854052,0.8604176685088755
-3.9525,-1.586442193022819,0.1822328105781598
-3.952,-1.725154466172693,-0.7608680074817418
-3.9515,-1.991908837614759,-1.619195718300304
-3.951,-1.67180359188428,-1.672178910326141
-3.9505,-0.9462317015618604,-1.036380606016095
-3.95,-0.274010685527854,-0.3475991096802118
-3.9495,0.1741366584948169,0.1504428953626575
-3.949,0.4195506802215176,0.4365521323021782
-3.9485,0.5262524287983441,0.5637117931641874
-3.948,0.5475927785137094,0.5955017083796896
-3.9475,0.5262524287983441,0.5637117931641874
-3.947,0.4729015545099309,0.5213252395435176
-3.9465,0.4408910299368829,0.4789386859228479
-3.946,0.4195506802215176,0.4471487707073456
-3.9455,0.3448594562177392,0.3517790250608387
-3.945,-0.2526703358124887,-0.252229364033705
-3.9445,-1.010252750707956,-1.089363798041932
-3.944,-1.351698346153801,-1.714565463946811
-3.9435,-1.042263275281004,-1.576809164679634
-3.943,-0.3060212101009019,-0.9622041371799229
-3.9425,0.3448594562177392,-0.3052125560595421
-3.942,0.7503261008096795,0.3199891098453364
-3.9415,0.8890383739595538,0.775644561267536
-3.941,0.8783681991018712,1.00877060618122
-3.9405,0.7823366253827275,1.135930267043229
-3.94,0.6863050516635838,1.178316820663898
-3.9395,0.6649647019482183,1.263089927905238
-3.939,0.6222840025174878,1.210106735879401
-3.9385,0.5475927785137094,1.082947075017392
-3.938,0.4942419042252961,0.92399749893988
-3.9375,0.4622313796522482,0.775644561267536
-3.937,0.3448594562177392,0.627291623595192
-3.9365,-0.1779791118087102,0.07626642652648545
-3.936,-1.287677297007705,-1.205926820498774
-3.9355,-1.895877263895616,-1.873515040024322
-3.935,-2.418715831922065,-1.75695201756748
-3.9345,-2.418715831922065,-1.036380606016095
-3.934,-1.575772018165136,-0.2628260024388724
-3.9335,-0.6688071552621118,0.2246193641988295
-3.933,-0.06060718837420119,0.4047622170866759
-3.9325,0.3021787567870086,0.4683420475176805
-3.932,0.4729015545099309,0.4683420475176805
-3.9315,0.5262524287983441,0.457745409112513
-3.931,0.5262524287983441,0.4471487707073456
-3.9305,0.5049120790829789,0.4471487707073456
-3.93,0.4835717293676135,0.4683420475176805
-3.9295,0.4622313796522482,0.4895353243280153
-3.929,0.4302208550792003,0.4789386859228479
-3.9285,0.1741366584948169,0.2140227257936621
-3.928,-0.572775581542968,-0.5595318777835605
-3.9275,-0.9675720512772257,-1.248313374119443
-3.927,-1.084943974711735,-1.682775548731308
-3.9265,-0.6367966306890638,-1.34368311976595
-3.926,0.05676473506030786,-0.6019184314042303
-3.9255,0.5902734779444399,0.1186529801471552
-3.925,0.8676980242441885,0.6378882620003594
-3.9245,0.9103787236749192,0.9875773293708847
-3.924,0.8356874996711408,1.157123543853563
-3.9235,0.7183155762366316,1.199510097474233
-3.923,0.6649647019482183,1.135930267043229
-3.9225,0.6329541773751706,1.051157159801889
-3.922,0.5582629533713921,0.9875773293708847
-3.9215,0.5049120790829789,0.92399749893988
-3.921,0.4729015545099309,0.849821030103708
-3.9205,0.4408910299368829,0.775644561267536
-3.92,0.1741366584948169,0.4365521323021782
-3.9195,-0.3060212101009019,-0.3158091944647096
-3.919,-1.020922925565639,-1.195330182093607
-3.9185,-1.842526389607202,-2.085447808127671
-3.918,-2.173301810195364,-2.318573853041354
-3.9175,-1.959898313041711,-2.053657892912168
-3.917,-1.191645723288561,-1.205926820498774
-3.9165,-0.3700422592469978,-0.326405832869877
-3.916,0.1314559590640864,0.1928294489833272
-3.9155,0.3875401556484697,0.4365521323021782
-3.915,0.4942419042252961,0.5107286011383502
-3.9145,0.5155822539406614,0.5107286011383502
-3.914,0.5049120790829789,0.4683420475176805
-3.9135,0.4729015545099309,0.4259554938970107
-3.913,0.4622313796522482,0.4047622170866759
-3.9125,0.4408910299368829,0.3729723018711736
-3.912,0.3448594562177392,0.2246193641988295
-3.9115,-0.09261771294724913,-0.3370024712750445
-3.911,-0.5834457564006506,-1.046977244421262
-3.9105,-0.9889124009925911,-1.682775548731308
-3.91,-0.8928808272734472,-1.693372187136476
-3.9095,-0.2633405106701714,-1.036380606016095
-3.909,0.3448594562177392,-0.3052125560595421
-3.9085,0.7183155762366316,0.309392471440169
-3.908,0.8676980242441885,0.7438546460520338
-3.9075,0.8356874996711408,1.019367244586387
-3.907,0.7396559259519968,1.157123543853563
-3.9065,0.7289857510943143,1.082947075017392
-3.906,1.113112045970889,0.55311515475902
-3.9055,1.166462920259302,0.3305857482505039
-3.905,0.9850699476786977,0.4047622170866759
-3.9045,0.7503261008096795,0.5319218779486851
-3.904,0.5902734779444399,0.627291623595192
-3.9035,0.2168173579255475,0.4153588554918433
-3.903,-0.8822106524157645,-0.6866915386455698
-3.9025,-1.383708870726849,-1.375473034981453
-3.902,-2.066600061618538,-2.085447808127671
-3.9015,-2.376035132491334,-2.413943598687861
-3.901,-1.703814116457328,-1.735758740757146
-3.9005,-0.8181896032696687,-0.792657922697244
-3.9,-0.1779791118087102,-0.1250697031716958
-3.8995,0.2274875327832301,0.2881991946298341
-3.899,0.4408910299368829,0.4789386859228479
-3.8985,0.5155822539406614,0.5319218779486851
-3.898,0.5262524287983441,0.5107286011383502
-3.8975,0.5155822539406614,0.457745409112513
-3.897,0.4835717293676135,0.4153588554918433
-3.8965,0.4515612047945656,0.383568940276341
-3.896,0.4302208550792003,0.3517790250608387
-3.8955,0.3875401556484697,0.2987958330350016
-3.895,-0.1459685872356623,-0.1568596183871981
-3.8945,-0.8181896032696687,-0.9092209451540858
-3.894,-1.052933450138687,-1.492036057438295
-3.8935,-0.839529952985034,-1.407262950196955
-3.893,-0.1459685872356623,-0.8244478379127463
-3.8925,0.4622313796522482,-0.1886495336027004
-3.892,0.79300680024041,0.3305857482505039
-3.8915,0.9103787236749192,0.7226613692416989
-3.891,0.8890383739595538,0.9134008605347127
-3.8905,0.8036769750980928,1.019367244586387
-3.89,0.7183155762366316,1.051157159801889
-3.8895,0.7823366253827275,1.029963882991555
-3.889,0.7503261008096795,1.019367244586387
-3.8885,0.6542945270905358,1.00877060618122
-3.888,0.5582629533713921,0.9981739677760521
-3.8875,0.4942419042252961,0.9663840525605498
-3.887,0.3555296310754218,1.019367244586387
-3.8865,0.00341386077189465,1.104140351827727
-3.886,-0.9995825758502737,0.06566978812131802
-3.8855,-1.703814116457328,-1.025783967610927
-3.885,-2.205312334768412,-1.820531847998485
-3.8845,-2.045259711903173,-1.905304955239825
