Class_7_Listen_To_Music/Class_7_Listen_To_Music_Basim_7.csv

#Digilent WaveForms Oscilloscope Acquisition
#Device Name: EExplorer
#Serial Number: SN:210151A2B84A
#Date Time: 2020-12-15 13:58:31.115
#Sample rate: 2000Hz
#Samples: 16384
#Trigger: Source: Channel 1 Type: Edge Condition: Rising Level: 0 V Hyst.: Auto HoldOff: 0 s
#Channel 1: Range: 1 V/div Offset: 0 V Attenuation: 1 X
#Channel 2: Range: 1 V/div Offset: 0 V Attenuation: 1 X
#Power Supplies: ON
#Fixed Supply: ON
#Voltage: 3.3 V Readback: 3.325 V
#Positive Supply: ON
#Voltage: 3.7 V Readback: 3.717 V
#Current: 40 mA Readback: 20 mA
#Negative Supply: ON
#Voltage: -3.7 V Readback: -3.348 V
#Current: -40 mA Readback: -6 mA
#Reference 1: ON
#Voltage: 0 V
#Reference 2: ON
#Voltage: 0 V

Time (s),Channel 1 (V),Channel 2 (V)
-4.096,0.408880505363835,0.4789386859228479
-4.0955,0.3661998059331433,0.5531151547589525
-4.095,-0.1352984123786784,0.2564092794137535
-4.0945,-0.9035510021311299,-0.3793890248957141
-4.094,-1.607782542737544,-0.9622041371793929
-4.0935,-1.490410619303015,-1.078767159636408
-4.093,-0.7648387289812555,-0.6866915386455698
-4.0925,-0.1246282375208794,-0.1780528951979956
-4.092,0.2808384070718374,0.245812641009386
-4.0915,0.4942419042252961,0.4895353243280153
-4.091,0.5689331282290746,0.5637117931641874
-4.0905,0.5475927785136803,0.5107286011382441
-4.09,0.5155822539406614,0.3941655786815084
-4.0895,0.5475927785137094,0.2034260873884947
-4.089,0.5369226036560363,0.03387987290596994
-4.0885,0.4942419042252961,-0.1250697031716958
-4.088,0.4622313796522482,-0.2628260024388724
-4.0875,0.4302208550792295,-0.3899856633007659
-4.087,0.3768699807903504,-0.4005823017055768
-4.0865,-0.1032878878049318,0.1186529801471552
-4.086,-0.8928808272727291,0.849821030103043
-4.0855,-1.58644219302313,1.157123543853236
-4.085,-1.927887788468663,0.7968378380778709
-4.0845,-1.383708870727344,0.2140227257941921
-4.084,-0.6688071552615974,-0.2416327256287496
-4.0835,-0.1032878878049318,-0.474758770542221
-4.083,0.2594980573562781,-0.5277419625680583
-4.0825,0.4408910299369315,-0.464162132136938
-4.082,0.4942419042252961,-0.3370024712750445
-4.0815,0.4942419042252961,-0.1780528951975329
-4.081,0.4729015545099503,-0.008506680715008208
-4.0805,0.4408910299368829,0.1504428953626575
-4.08,0.4195506802215176,0.309392471440169
-4.0795,0.4088805053638447,0.4471487707072203
-4.079,0.4088805053637283,0.5531151547588851
-4.0785,0.291508581929326,0.4047622170866759
-4.078,-0.2526703358119938,-0.1780528951970029
-4.0775,-1.020922925565979,-0.7926579226974464
-4.077,-1.394379045584531,-1.01518732920576
-4.0765,-0.946231701562268,-0.6125150698097639
-4.076,-0.3060212101004749,-0.07208651114545384
-4.0755,0.1634664836371343,0.3729723018711736
-4.075,0.4195506802215176,0.6060983467848571
-4.0745,0.5262524287983538,0.6590815388106364
-4.074,0.5369226036560266,0.5955017083796896
-4.0735,0.5155822539406614,0.4789386859228479
-4.073,0.5582629533713532,0.2352160026042186
-4.0725,0.6009436528021226,-0.05089323433552374
-4.072,0.5689331282290746,-0.2204394488182027
-4.0715,0.504912079083037,-0.3264058328697806
-4.071,0.4515612047944976,-0.4217755785164128
-4.0705,0.3768699807907871,-0.4535654937318862
-4.07,-0.103287887804495,0.02328323450021458
-4.0695,-0.882210652416434,0.7544512844577216
-4.069,-1.618452717595867,1.326669758336243
-4.0685,-2.130621110764634,1.029963882991555
-4.068,-1.618452717595139,0.3517790250604532
-4.0675,-0.8181896032696687,-0.07208651114585861
-4.067,-0.1886492866663929,-0.2840192792492073
-4.0665,0.2168173579257416,-0.3158091944646517
-4.066,0.4302208550792003,-0.252229364033705
-4.0655,0.5049120790829789,-0.1568596183871981
-4.065,0.5049120790829789,-0.04029659593046232
-4.0645,0.4729015545099309,0.07626642652648545
-4.064,0.4515612047945656,0.1822328105781598
-4.0635,0.4302208550792198,0.27760255622458
-4.063,0.4195506802215079,0.3517790250608965
-4.0625,0.408880505363835,0.4153588554918433
-4.062,0.4622313796521997,0.3517790250608965
-4.0615,0.5796033030862139,-0.1674562567929919
-4.061,-0.01792648894347063,-0.8562377531282487
-4.0605,-0.7434983792658902,-1.34368311976595
-4.06,-0.690147504977118,-1.174136905282771
-4.0595,-0.2953510352432193,-0.6231117082145651
-4.059,0.0674349099179905,-0.1038764263613609
-4.0585,0.312848931644468,0.2246193641985307
-4.058,0.4408910299368829,0.3517790250608387
-4.0575,0.4835717293676135,0.3729723018711736
-4.057,0.4835717293676135,0.3093924714402268
-4.0565,0.4942419042252961,0.1822328105781598
-4.056,0.5262524287983441,-0.008506680714854012
-4.0555,0.515582253940671,-0.1462629799819053
-4.055,0.4835717293675844,-0.2522293640337724
-4.0545,0.4515612047945656,-0.326405832869877
-4.054,0.4195506802215467,-0.3793890248956659
-4.0535,0.1634664836365035,-0.1038764263607152
-4.053,-0.5300948821122373,0.6060983467848571
-4.0525,-1.287677297007705,1.167720182258731
-4.052,-1.917217613610884,0.9345941373443728
-4.0515,-1.810515865034154,0.1928294489833272
-4.051,-1.06360362499637,-0.2310360872233701
-4.0505,-0.3913826089629745,-0.3687923864904215
-4.05,0.08877525963335578,-0.3475991096802118
-4.0495,0.3661998059331045,-0.2310360872233701
-4.049,0.4835717293675068,-0.1038764263614766
-4.0485,0.5049120790829594,0.03387987290592173
-4.048,0.4835717293676135,0.1504428953626575
-4.0475,0.4622313796522676,0.2564092794142354
-4.047,0.4302208550791906,0.3517790250609061
-4.0465,0.4195506802215176,0.4259554938970107
-4.046,0.4088805053638447,0.4895353243279575
-4.0455,0.3768699807903892,0.468342047517295
-4.045,-0.06060718837420119,0.04447651131098315
-4.0445,-0.7648387289812555,-0.6549016234300674
-4.044,-1.351698346153684,-1.23771673571418
-4.0435,-1.223656247861609,-1.131750351662602
-4.043,-0.5834457564006506,-0.6549016234300674
-4.0425,-0.01792648894398496,-0.20984281041344
-4.042,0.3341892813600565,0.1292496185523226
-4.0415,0.4942419042252961,0.309392471440169
-4.041,0.5369226036559878,0.362375663465958
-4.0405,0.5155822539406419,0.3093924714400822
-4.04,0.4942419042252961,0.2140227257936621
-4.0395,0.5369226036559878,0.02328323450082176
-4.039,0.5369226036559878,-0.1250697031718018
-4.0385,0.4942419042252961,-0.2416327256285375
-4.038,0.4622313796522773,-0.3158091944646421
-4.0375,0.4302208550790839,-0.3899856633008334
-4.037,0.3021787567870086,-0.3370024712750445
-4.0365,-0.2953510352432193,0.2352160026039969
-4.036,-1.084943974712385,0.9557874141555751
-4.0355,-1.799845690176472,1.167720182258731
-4.035,-2.066600061618538,0.5107286011383502
-4.0345,-1.373038695869797,-0.02969995752469734
-4.034,-0.6154562809736985,-0.2734226408440398
-4.0335,-0.04993701351651855,-0.3158091944647096
-4.033,0.3021787567866884,-0.241632725628605
-4.0325,0.462231379652287,-0.1144730647664127
-4.032,0.5049120790829789,0.01268659609548085
-4.0315,0.4942419042253058,0.1292496185522166
-4.031,0.4729015545099018,0.2352160026040837
-4.0305,0.4408910299368829,0.3305857482505039
-4.03,0.4195506802215371,0.4047622170866084
-4.0295,0.408880505363835,0.4683420475176998
-4.029,0.408880505363835,0.4895353243280153
-4.0285,0.4195506802215176,0.2246193641988295
-4.028,0.1314559590633876,-0.4429688553273355
-4.0275,-0.6367966306890638,-1.121153713257435
-4.027,-1.127624674142465,-1.407262950196955
-4.0265,-0.839529952985296,-1.04697724442159
-4.026,-0.3060212101009019,-0.4323722169215513
-4.0255,0.1101156093487211,0.02328323450064829
-4.025,0.3661998059328715,0.2776025562244354
-4.0245,0.4835717293676329,0.3517790250608194
-4.024,0.5049120790829789,0.3305857482505039
-4.0235,0.4942419042253058,0.2352160026040837
-4.023,0.5262524287983635,0.09745970333670466
-4.0225,0.5475927785137094,-0.02969995752518888
-4.022,0.5155822539406905,-0.1462629799819246
-4.0215,0.4729015545099018,-0.2522293640337821
-4.021,0.4408910299368829,-0.3370024712750445
-4.0205,0.3768699807907871,-0.3687923864905467
-4.02,-0.09261771294794785,0.07626642652716008
-4.0195,-0.8608703027003992,0.8180311148882058
-4.019,-1.565101843307454,1.284283204715573
-4.0185,-2.02391936218739,0.8286277532937876
-4.018,-1.565101843307454,0.1610395337678249
-4.0175,-0.807519428411986,-0.1992461720078678
-4.017,-0.1886492866669558,-0.3052125560594457
-4.0165,0.2168173579257319,-0.2734226408439531
-4.016,0.4195506802215176,-0.1780528951975329
-4.0155,0.4942419042252282,-0.05089323433563939
-4.015,0.4942419042252864,0.0656697881214144
-4.0145,0.4835717293676135,0.1716361721729923
-4.014,0.4515612047945947,0.2670059178194125
-4.0135,0.4302208550791906,0.3411823866557387
-4.013,0.4195506802215176,0.4153588554918433
-4.0125,0.408880505363835,0.457745409112513
-4.012,0.3021787567864652,0.30939247143961
-4.0115,-0.2953510352432193,-0.3052125560595421
-4.011,-1.074273799854052,-1.004590690800593
-4.0105,-1.618452717595372,-1.470842780627536
-4.01,-1.244996597576974,-1.269506650929778
-4.0095,-0.5621054066852853,-0.7396747306714069
-4.009,-0.01792648894396554,-0.2310360872238327
-4.0085,0.3235191065025291,0.1080563417421419
-4.008,0.4942419042252961,0.2776025562246667
-4.0075,0.5369226036559878,0.3199891098452978
-4.007,0.5262524287983344,0.2776025562246281
-4.0065,0.5155822539406614,0.2352160026039969
-4.006,0.5582629533713921,0.2246193641988295
-4.0055,0.5369226036559878,0.09745970333666612
-4.005,0.4942419042252961,-0.07208651114585861
-4.0045,0.4622313796522482,-0.2310360872233701
-4.004,0.4195506802212459,-0.3475991096800287
-4.0035,0.1207857842064037,-0.1462629799820306
-4.003,-0.5941159312583333,0.5425185163538525
-4.0025,-1.30901764672242,1.188913459068478
-4.002,-1.789175515318789,1.082947075017392
-4.0015,-1.693143941599645,0.3517790250608387
-4.001,-1.010252750708577,-0.1568596183867355
-4.0005,-0.3593720843888979,-0.3687923864905757
-4,0.09944543449103843,-0.400582301706049
-3.9995,0.3661998059331045,-0.3158091944647096
-3.999,0.4835717293676135,-0.1780528951975329
-3.9985,0.4942419042252961,-0.04029659593035631
-3.998,0.4835717293676135,0.09745970333682032
-3.9975,0.4622313796522482,0.2246193641988295
-3.997,0.4408910299368829,0.3305857482505039
-3.9965,0.4195506802215176,0.4259554938970107
-3.996,0.408880505363835,0.5001319627331828
-3.9955,0.3768699807907871,0.5319218779486851
-3.995,-0.07127736323188383,0.1928294489833272
-3.9945,-0.7648387289812555,-0.474758770542221
-3.994,-1.383708870726849,-1.078767159636765
-3.9935,-1.234326422719292,-1.121153713257435
-3.993,-0.572775581542968,-0.6760949002404023
-3.9925,-0.007256314085787988,-0.1780528951975329
-3.992,0.3341892813600565,0.1822328105781598
-3.9915,0.5049120790829789,0.3517790250608387
-3.991,0.5475927785137094,0.383568940276341
-3.9905,0.5369226036560266,0.3411823866556712
-3.99,0.5155822539406614,0.2352160026039969
-3.9895,0.6116138276598051,-0.06148987274069118
-3.989,0.6436243522328531,-0.2628260024388724
-3.9885,0.5796033030867573,-0.3687923864905467
-3.988,0.5155822539406614,-0.4323722169215513
-3.9875,0.4622313796522482,-0.4853554089473885
-3.987,0.3128489316446912,-0.3899856633008816
-3.9865,-0.3060212101009019,0.2458126410091644
-3.986,-1.084943974711735,0.9769806909657173
-3.9855,-1.693143941599645,1.29487984312074
-3.985,-1.83185621474952,0.6908714540261965
-3.9845,-1.202315898146244,0.1292496185523226
-3.984,-0.5087545323968721,-0.1780528951975329
-3.9835,0.00341386077189465,-0.2840192792492073
-3.983,0.3128489316446912,-0.252229364033705
-3.9825,0.4622313796522482,-0.1568596183871981
-3.982,0.5049120790829789,-0.04029659593035631
-3.9815,0.4942419042252961,0.08686306493165288
-3.981,0.4729015545099309,0.2034260873884947
-3.9805,0.4408910299368829,0.2987958330350016
-3.98,0.4195506802215176,0.383568940276341
-3.9795,0.408880505363835,0.4471487707073456
-3.979,0.408880505363835,0.4895353243280153
-3.9785,0.142126133921769,0.3199891098453364
-3.978,-0.5514352318276028,-0.2946159176543747
-3.9775,-1.244996597576974,-0.9939940523954253
-3.977,-1.46907026958831,-1.333086481360783
-3.9765,-0.9142211769888124,-1.036380606016095
-3.976,-0.2526703358124887,-0.5277419625680583
-3.9755,0.2168173579255475,-0.09327978795619347
-3.975,0.4622313796522482,0.2352160026039969
-3.9745,0.5475927785137094,0.383568940276341
-3.974,0.5475927785137094,0.383568940276341
-3.9735,0.5155822539406614,0.2987958330350016
-3.973,0.5155822539406614,0.09745970333682032
-3.9725,0.5155822539406614,-0.1356663415768632
-3.972,0.4835717293676135,-0.2628260024388724
-3.9715,0.4515612047945656,-0.3581957480853793
-3.971,0.4302208550792003,-0.4323722169215513
-3.9705,0.3768699807907871,-0.4323722169215513
-3.97,-0.06060718837420119,0.04447651131098315
-3.9695,-0.8181896032696687,0.7862411996727035
-3.969,-1.51175096901904,1.220703374284568
-3.9685,-2.002579012472442,0.8074344764830383
-3.968,-1.629122892453549,0.09745970333682032
-3.9675,-0.8715404775580819,-0.3052125560595421
-3.967,-0.2420001609548061,-0.4535654937318862
-3.9665,0.1848068333524996,-0.4323722169215513
-3.966,0.408880505363835,-0.3158091944647096
-3.9655,0.4942419042252961,-0.1674562567923655
-3.965,0.5049120790829789,-0.008506680714854012
-3.9645,0.4835717293676135,0.13984625695749
-3.964,0.4622313796522482,0.2670059178194992
-3.9635,0.4302208550792003,0.3941655786815084
-3.963,0.4195506802215176,0.4895353243280153
-3.9625,0.4195506802215176,0.5743084315693548
-3.962,0.3021787567870086,0.5213252395435176
-3.9615,-0.2953510352432193,0.002089957690313421
-3.961,-1.052933450138687,-0.6866915386455698
-3.9605,-1.533091318734406,-1.089363798041932
-3.96,-1.084943974711735,-0.8138511995075789
-3.9595,-0.4020527838200457,-0.3793890248957141
-3.959,0.1207857842064037,0.002089957690313421
-3.9585,0.408880505363835,0.2458126410091644
-3.958,0.5369226036560266,0.3305857482505039
-3.9575,0.5582629533713921,0.309392471440169
-3.957,0.5262524287983441,0.2246193641988295
-3.9565,0.5262524287983441,0.1186529801471552
-3.956,0.5689331282290746,-0.008506680714854012
-3.9555,0.5582629533713921,-0.1356663415768632
-3.955,0.5049120790829789,-0.2416327256285375
-3.9545,0.4622313796522482,-0.326405832869877
-3.954,0.4302208550792003,-0.3793890248957141
-3.9535,0.3341892813600565,-0.2098428104130352
-3.953,-0.274010685527854,0.4471487707073456
-3.9525,-1.06360362499637,1.061753798207057
-3.952,-1.714484291315011,0.9345941373450475
-3.9515,-1.682473766741963,0.2670059178194992
-3.951,-1.020922925565639,-0.1780528951975329
-3.9505,-0.3700422592469978,-0.3687923864905467
-3.95,0.08877525963335578,-0.3793890248957141
-3.9495,0.3661998059331045,-0.2840192792492073
-3.949,0.4729015545099309,-0.1462629799820306
-3.9485,0.5049120790829789,0.002089957690313421
-3.948,0.4942419042252961,0.13984625695749
-3.9475,0.4622313796522482,0.2776025562246667
-3.947,0.4408910299368829,0.3941655786815084
-3.9465,0.4195506802215176,0.4895353243280153
-3.946,0.4195506802215176,0.5637117931641874
-3.9455,0.3768699807907871,0.5637117931641874
-3.945,-0.07127736323188383,0.1610395337678249
-3.9445,-0.8288597781273515,-0.5383386009732256
-3.944,-1.458400094730627,-1.131750351662602
-3.9435,-1.30901764672307,-1.216523458903942
-3.943,-0.6794773301197943,-0.7290780922662394
-3.9425,-0.1139580626626144,-0.1780528951975329
-3.942,0.2701682322139607,0.1716361721729923
-3.9415,0.4622313796522482,0.3199891098453364
-3.941,0.5262524287983441,0.3199891098453364
-3.9405,0.5262524287983441,0.2458126410091644
-3.94,0.5049120790829789,0.1292496185523226
-3.9395,0.5049120790829789,-0.04029659593035631
-3.939,0.5049120790829789,-0.1886495336027004
-3.9385,0.4835717293676135,-0.326405832869877
-3.938,0.4515612047945656,-0.4429688553267188
-3.9375,0.4302208550792003,-0.5277419625680583
-3.937,0.3235191065023739,-0.4853554089473885
-3.9365,-0.2526703358124887,0.1080563417419877
-3.936,-1.031593100423322,0.7650479228623686
-3.9355,-1.714484291315011,0.6590815388106942
-3.935,-1.970568487899394,-0.05089323433552374
-3.9345,-1.330357996438436,-0.4217755785163839
-3.934,-0.6047861061160158,-0.4535654937318862
-3.9335,-0.04993701351651855,-0.3158091944647096
-3.933,0.291508581929326,-0.1356663415768632
-3.9325,0.4622313796522482,0.04447651131098315
-3.932,0.5049120790829789,0.1928294489833272
-3.9315,0.5049120790829789,0.309392471440169
-3.931,0.4729015545099309,0.3941655786815084
-3.9305,0.4515612047945656,0.4683420475176805
-3.93,0.4302208550792003,0.5213252395435176
-3.9295,0.4195506802215176,0.55311515475902
-3.929,0.4195506802215176,0.5425185163538525
-3.9285,0.1634664836371343,0.13984625695749
-3.928,-0.4874141826815069,-0.6019184314042303
-3.9275,-1.1062843244271,-1.280103289334946
-3.927,-1.244996597576974,-1.439052865412457
-3.9265,-0.6794773301197943,-1.004590690800593
-3.926,-0.09261771294724913,-0.474758770542221
-3.9255,0.2808384070716433,-0.08268314955102604
-3.925,0.4729015545099309,0.13984625695749
-3.9245,0.5369226036560266,0.1928294489833272
-3.924,0.5369226036560266,0.1610395337678249
-3.9235,0.5049120790829789,0.06566978812131802
-3.923,0.5796033030867573,-0.1780528951975329
-3.9225,0.6436243522328531,-0.4323722169215513
-3.922,0.6116138276598051,-0.5065486857577234
-3.9215,0.5369226036560266,-0.5171453241628908
-3.921,0.4835717293676135,-0.5065486857577234
-3.9205,0.408880505363835,-0.4641621321370536
-3.92,-0.02859666380115328,0.002089957690313421
-3.9195,-0.807519428411986,0.7544512844572011
-3.919,-1.543761493592088,1.167720182258731
-3.9185,-2.023919362187807,0.7120647308365314
-3.918,-1.522421143876723,0.1080563417419877
-3.9175,-0.7648387289812555,-0.1992461720078678
-3.917,-0.156638762093345,-0.2840192792492073
-3.9165,0.2381577076409128,-0.2310360872233701
-3.916,0.4408910299368829,-0.1038764263613609
-3.9155,0.5049120790829789,0.04447651131098315
-3.915,0.5049120790829789,0.1928294489833272
-3.9145,0.4835717293676135,0.3199891098453364
-3.914,0.4622313796522482,0.4259554938970107
-3.9135,0.4302208550792003,0.5213252395435176
-3.913,0.4195506802215176,0.5849050699745222
-3.9125,0.4195506802215176,0.627291623595192
-3.912,0.3235191065023739,0.55311515475902
-3.9115,-0.2420001609548061,0.03387987290581572
-3.911,-0.9782422261349084,-0.7078848154559045
-3.9105,-1.479740444445993,-1.237716735714276
-3.91,-1.116954499284783,-1.163540266878104
-3.9095,-0.4554036581084589,-0.6549016234300674
-3.909,0.0674349099179905,-0.1462629799820306
-3.9085,0.3661998059331045,0.1716361721729923
-3.908,0.5049120790829789,0.2881991946298341
-3.9075,0.5369226036560266,0.2776025562246667
-3.907,0.5155822539406614,0.1822328105781598
-3.9065,0.5262524287983441,0.002089957690313421
-3.906,0.6222840025174878,-0.2628260024388724
-3.9055,0.6116138276598051,-0.400582301706049
-3.905,0.5475927785137094,-0.4641621321370536
-3.9045,0.4835717293676135,-0.5065486857577234
-3.904,0.4408910299368829,-0.5383386009732256
-3.9035,0.1954770082101822,-0.326405832869877
-3.903,-0.5087545323968721,0.3729723018711736
-3.9025,-1.212986073003927,1.00877060618122
-3.902,-1.661133417026597,0.9134008605347127
-3.9015,-1.639793067311232,0.2246193641988295
-3.901,-1.020922925565639,-0.2416327256285375
-3.9005,-0.3807124341046804,-0.4217755785163839
-3.9,0.07810508477567314,-0.4217755785163839
-3.8995,0.3555296310754218,-0.3052125560595421
-3.899,0.4729015545099309,-0.1568596183871981
-3.8985,0.5049120790829789,0.002089957690313421
-3.898,0.4942419042252961,0.1504428953626575
-3.8975,0.4622313796522482,0.2881991946298341
-3.897,0.4408910299368829,0.4153588554918433
-3.8965,0.4302208550792003,0.5107286011383502
-3.896,0.4195506802215176,0.5849050699745222
-3.8955,0.408880505363835,0.5955017083796896
-3.895,0.05676473506030786,0.1822328105781598
-3.8945,-0.6794773301197943,-0.5065486857577234
-3.894,-1.287677297007705,-1.089363798041932
-3.8935,-1.116954499284783,-0.9622041371799229
-3.893,-0.4980843575391895,-0.4959520473525559
-3.8925,0.03542438534494258,-0.05089323433552374
-3.892,0.3555296310754218,0.2034260873884947
-3.8915,0.4942419042252961,0.3199891098453364
-3.891,0.5369226036560266,0.2987958330350016
-3.8905,0.5262524287983441,0.2140227257936621
-3.89,0.5049120790829789,0.1292496185523226
-3.8895,0.6436243522328531,0.2352160026039969
-3.889,0.6756348768059011,0.1928294489833272
-3.8885,0.6116138276598051,0.002089957690313421
-3.888,0.5369226036560266,-0.1992461720078678
-3.8875,0.4729015545099309,-0.3581957480853793
-3.887,0.3341892813600565,-0.326405832869877
