Class_7_Listen_To_Music/Class_7_Listen_To_Music_Basim_14.csv

#Digilent WaveForms Oscilloscope Acquisition
#Device Name: EExplorer
#Serial Number: SN:210151A2B84A
#Date Time: 2021-02-07 16:08:38.574
#Sample rate: 2000Hz
#Samples: 16384
#Trigger: Source: Channel 1 Type: Edge Condition: Rising Level: 0 V Hyst.: Auto HoldOff: 0 s
#Channel 1: Range: 1 V/div Offset: 0 V Attenuation: 1 X
#Channel 2: Range: 1 V/div Offset: 0 V Attenuation: 1 X
#Power Supplies: ON
#Fixed Supply: ON
#Voltage: 3.3 V Readback: 3.331 V
#Positive Supply: ON
#Voltage: 3.7 V Readback: 3.717 V
#Current: 40 mA Readback: 25 mA
#Negative Supply: ON
#Voltage: -3.7 V Readback: -3.697 V
#Current: -40 mA Readback: -2 mA
#Reference 1: ON
#Voltage: 0 V
#Reference 2: ON
#Voltage: 0 V

Time (s),Channel 1 (V),Channel 2 (V)
-4.096,-1.447729919872945,-1.152943628472937
-4.0955,-0.6367966306898013,-1.502632695843144
-4.095,0.2381577076413786,-1.799338571188285
-4.0945,0.7503261008096795,-1.947691508860494
-4.094,0.857027849386409,-1.778145294377969
-4.0935,0.7289857510941299,-1.269506650929142
-4.093,0.5262524287983441,-0.570128516188728
-4.0925,0.3555296310755771,0.06566978812073976
-4.092,0.3982103305063174,0.4895353243282756
-4.0915,0.5796033030867573,0.775644561267536
-4.091,0.8890383739595538,0.9663840525605498
-4.0905,1.081101521397764,0.9875773293708462
-4.09,0.9957401225363802,0.9451907757502149
-4.0895,0.7183155762366316,0.8710143069140429
-4.089,-0.2099896363809138,0.2458126410097331
-4.0885,-1.127624674142465,-0.6760949002404023
-4.088,-1.703814116457328,-1.364876396576285
-4.0875,-1.56510184330758,-1.311893204550496
-4.087,-1.031593100422846,-0.760868007481231
-4.0865,-0.5087545323968721,-0.1992461720078678
-4.086,-0.1246282375206464,0.2140227257932862
-4.0855,0.07810508477575077,0.447148770707442
-4.085,0.1634664836371343,0.55311515475902
-4.0845,0.1848068333524802,0.5743084315693355
-4.084,0.1741366584947878,0.5743084315693355
-4.0835,0.142126133921769,0.55311515475902
-4.083,0.1101156093487211,0.5319218779486851
-4.0825,0.07810508477559551,0.5001319627330961
-4.082,-0.007256314085787988,0.4047622170866759
-4.0815,-0.1993194615240755,0.1504428953626575
-4.081,-0.6154562809733201,-0.2946159176539699
-4.0805,-1.383708870726849,-0.9939940523954253
-4.08,-1.917217613610981,-1.523825972653797
-4.0795,-2.290673733629534,-1.937094870454951
-4.079,-1.693143941598694,-2.212607468989747
-4.0785,-0.6474668055467465,-2.286783937825852
-4.078,0.1527963087787237,-2.127834361748485
-4.0775,0.5049120790830177,-1.566212526273898
-4.077,0.5475927785137094,-0.9410108603695881
-4.0765,0.4729015545099988,-0.3052125560601203
-4.076,0.3661998059331821,0.2458126410094439
-4.0755,0.4515612047945656,0.55311515475902
-4.075,0.7609962756673623,0.5319218779486851
-4.0745,0.8356874996710146,0.5425185163538525
-4.074,0.6969752265212663,0.5425185163538525
-4.0735,0.5475927785137094,0.55311515475902
-4.073,0.3982103305062883,0.5425185163538622
-4.0725,0.05676473506030786,0.7650479228623686
-4.072,-0.690147504977477,0.6590815388106942
-4.0715,-1.415719395299237,-0.1780528951967716
-4.071,-1.671803591883921,-0.7502713690764298
-4.0705,-1.277007122150022,-0.5913217929990628
-4.07,-0.7221580295510296,-0.1780528951979088
-4.0695,-0.2740106855276017,0.2140227257939127
-4.069,0.00341386077189465,0.4895353243280153
-4.0685,0.142126133921769,0.6590815388106942
-4.068,0.1848068333524996,0.7438546460520723
-4.0675,0.1848068333524996,0.7862411996727035
-4.067,0.1741366584948169,0.7968378380778709
-4.0665,0.1421261339217399,0.7968378380778324
-4.066,0.1101156093487211,0.7544512844572011
-4.0655,-0.007256314085787988,0.5955017083796896
-4.065,-0.2313299860969197,0.319989109845587
-4.0645,-0.4127229586777283,0.06566978812131802
-4.064,-0.9462317015618604,-0.4959520473525559
-4.0635,-1.618452717595256,-1.163540266877497
-4.063,-1.9385579633262,-1.534422611059254
-4.0625,-1.778505340461106,-1.852321763213987
-4.062,-0.9142211769895985,-2.085447808127459
-4.0615,-0.1566387620929568,-2.011271339291142
-4.061,0.2701682322139607,-1.619195718300304
-4.0605,0.4302208550792003,-1.0999604364471
-4.06,0.4302208550791518,-0.5489352393779208
-4.0595,0.3768699807907871,-0.02969995752518888
-4.059,0.3555296310754218,0.3411823866556712
-4.0585,0.5155822539405158,0.6484849004052473
-4.058,0.6863050516635838,0.7226613692416989
-4.0575,0.6756348768059011,0.6590815388106942
-4.057,0.6436243522328822,0.6378882620003787
-4.0565,0.5902734779444399,0.5955017083796896
-4.056,0.1848068333524996,0.3729723018711736
-4.0555,-0.7114878546920271,-0.3158091944640832
-4.055,-1.511750969019361,-1.078767159637256
-4.0545,-1.863866739322568,-1.619195718300304
-4.054,-1.671803591884455,-1.49203605743841
-4.0535,-1.084943974711221,-0.7820612842914212
-4.053,-0.5194247072545548,-0.06148987274069118
-4.0525,-0.1139580626626144,0.4789386859228479
-4.052,0.09944543449112578,0.7968378380780154
-4.0515,0.1954770082101822,0.9557874141553824
-4.051,0.2061471830678648,1.00877060618122
-4.0505,0.1954770082101919,1.00877060618122
-4.05,0.1741366584948169,0.9769806909657173
-4.0495,0.142126133921769,0.9345941373450475
-4.049,0.1101156093487502,0.860417668508943
-4.0485,0.03542438534483583,0.7014680924311809
-4.048,-0.08194753808956648,0.5001319627331828
-4.0475,-0.3807124341044087,0.1398462569578177
-4.047,-1.074273799854595,-0.6231117082151529
-4.0465,-1.67180359188428,-1.269506650929778
-4.046,-1.885207089037739,-1.619195718299986
-4.0455,-1.3943790455839,-1.788741932782819
-4.045,-0.7008176798351597,-1.608599079895136
-4.0445,-0.1352984123779797,-1.375473034981453
-4.044,0.2061471830680104,-1.174136905282973
-4.0435,0.3661998059331045,-0.8456411147230812
-4.043,0.3875401556484697,-0.4323722169215513
-4.0425,0.3661998059331239,-0.06148987274102852
-4.042,0.5155822539406614,0.1080563417419877
-4.0415,0.6222840025174878,0.2881991946298341
-4.041,0.7076454013788714,0.4895353243278322
-4.0405,0.9103787236749483,0.754451284457336
-4.04,0.942389248247967,0.9028042221295453
-4.0395,0.7396559259521812,0.9028042221295453
-4.039,-0.08194753809039136,0.3623756634652159
-4.0385,-0.9889124009925911,-0.5065486857577234
-4.038,-1.490410619303219,-1.205926820498138
-4.0375,-1.618452717595469,-1.449649503817172
-4.037,-1.180975548430879,-0.9516074987747555
-4.0365,-0.6367966306890638,-0.2734226408440398
-4.036,-0.2099896363815253,0.2881991946301618
-4.0355,0.04609456020262521,0.6484849004055269
-4.035,0.1741366584948169,0.8392243916985406
-4.0345,0.2061471830678357,0.923997498939803
-4.034,0.2061471830678648,0.9345941373450475
-4.0335,0.1848068333524996,0.92399749893988
-4.033,0.1634664836371537,0.8922075837244067
-4.0325,0.1527963087794322,0.849821030103631
-4.032,0.1314559590640864,0.7650479228623686
-4.0315,0.06743490991804874,0.6060983467850016
-4.031,-0.1352984123785911,0.3093924714394943
-4.0305,-0.807519428411986,-0.4323722169215513
-4.03,-1.341028171295633,-1.078767159636177
-4.0295,-1.597112367880152,-1.439052865412775
-4.029,-1.212986073003927,-1.788741932782983
-4.0285,-0.4447334832507763,-2.053657892912168
-4.028,0.1314559590643387,-2.021867977696329
-4.0275,0.408880505363835,-1.650985633515806
-4.027,0.5049120790829789,-1.237716735714276
-4.0265,0.47290155450996,-0.7078848154563864
-4.026,0.3982103305061524,-0.1674562567923655
-4.0255,0.4408910299368829,0.1080563417419877
-4.025,0.600943652801977,0.1928294489832501
-4.0245,0.6009436528020256,0.3199891098454328
-4.024,0.4942419042252961,0.4259554938970107
-4.0235,0.4408910299369315,0.57430843156922
-4.023,0.4408910299366015,0.722661369241882
-4.0225,0.1314559590640864,0.92399749893988
-4.022,-0.7221580295497486,0.7438546460521976
-4.0215,-1.554431668449994,-0.1462629799826282
-4.021,-1.799845690176472,-0.8032545611024114
-4.0205,-1.351698346153801,-0.6654982618352349
-4.02,-0.7541685541231363,-0.2204394488178075
-4.0195,-0.274010685527854,0.2140227257936621
-4.019,0.02475421048725994,0.5425185163538525
-4.0185,0.174136658494681,0.7438546460518507
-4.018,0.2274875327832301,0.849821030103708
-4.0175,0.2168173579255475,0.8922075837243778
-4.017,0.1954770082102016,0.9028042221295356
-4.0165,0.1741366584947684,0.8922075837243393
-4.016,0.1207857842064037,0.849821030103708
-4.0155,0.06743490991803902,0.7756445612676035
-4.015,-0.01792648894367442,0.6272916235949029
-4.0145,-0.2420001609548061,0.309392471440169
-4.014,-0.8395299529844904,-0.3793890248950878
-4.0135,-1.511750969019487,-1.142346990068261
-4.013,-2.002579012472442,-1.682775548731308
-4.0125,-1.927887788468663,-1.820531847998485
-4.012,-1.212986073003267,-1.481439419032819
-4.0115,-0.4874141826815069,-1.142346990067769
-4.011,0.02475421048725994,-0.9198175835592532
-4.0105,0.2915085819290834,-0.676094900240624
-4.01,0.4195506802215176,-0.4323722169215513
-4.0095,0.4302208550792003,-0.1356663415768632
-4.009,0.4195506802215274,0.1186529801469239
-4.0085,0.5369226036560557,0.1928294489834525
-4.008,0.5689331282290746,0.3305857482505039
-4.0075,0.526252428798383,0.4789386859227129
-4.007,0.4835717293675941,0.6060983467849631
-4.0065,0.4622313796522482,0.7226613692416989
-4.006,0.1848068333524996,0.5849050699745222
-4.0055,-0.6688071552628493,-0.1356663415776438
-4.005,-1.479740444445993,-0.9939940523954253
-4.0045,-2.119950935906951,-1.650985633515806
-4.004,-1.949228138183398,-1.534422611058319
-4.0035,-1.255666772434657,-0.8244478379127463
-4.003,-0.5941159312583333,-0.1144730647665284
-4.0025,-0.135298412378397,0.3941655786810458
-4.002,0.1207857842064037,0.6802748156210291
-4.0015,0.2381577076409128,0.8074344764830383
-4.001,0.2594980573562586,0.8392243916985117
-4.0005,0.2381577076408836,0.8286277532933346
-4,0.2061471830678648,0.7862411996727035
-3.9995,0.1741366584948169,0.7332580076468663
-3.999,0.07810508477567314,0.6166949851900245
-3.9985,-0.1139580626626144,0.3411823866556712
-3.998,-0.3593720843893152,-0.07208651114585861
-3.9975,-0.7648387289812555,-0.570128516188728
-3.997,-1.298347471865388,-1.142346990067769
-3.9965,-1.682473766741963,-1.566212526274467
-3.996,-1.991908837614759,-1.968884785670829
-3.9955,-1.405049220442214,-2.265590661015517
-3.995,-0.4874141826815069,-2.339767129851689
-3.9945,0.1527963087794516,-2.053657892912168
-3.994,0.4515612047945656,-1.598002441489969
-3.9935,0.5262524287983441,-1.110557074852267
-3.993,0.4835717293676135,-0.5277419625680583
-3.9925,0.4195506802215176,0.01268659609548085
-3.992,0.5049120790829789,0.457745409112513
-3.9915,0.7289857510943143,1.00877060618122
-3.991,0.8356874996711408,1.263089927905238
-3.9905,1.049090996824793,1.42203950398275
-3.99,1.123782220828572,1.496215972818921
-3.9895,0.8676980242441885,1.326669758336243
-3.989,0.01408403562957729,0.6484849004055269
-3.9885,-1.06360362499637,-0.400582301706049
-3.988,-1.970568487899394,-1.311893204550448
-3.9875,-2.3973754822067,-1.79933857118815
-3.987,-1.810515865034154,-1.34368311976595
-3.9865,-1.031593100423322,-0.6019184314042303
-3.986,-0.391382608962363,0.02328323450064829
-3.9855,0.00341386077189465,0.4153588554918433
-3.985,0.1954770082101822,0.5955017083796896
-3.9845,0.2701682322139607,0.6590815388106942
-3.984,0.2701682322139607,0.6378882620003594
-3.9835,0.2381577076409128,0.5849050699745222
-3.983,0.1848068333524996,0.5213252395435176
-3.9825,0.142126133921769,0.4471487707073456
-3.982,0.1101156093487211,0.3729723018711736
-3.9815,0.07810508477567314,0.2776025562246667
-3.981,-0.09261771294724913,0.03387987290581572
-3.9805,-0.754168554123573,-0.6019184314042303
-3.98,-1.533091318734406,-1.290699927740113
-3.9795,-2.066600061618538,-1.767548655972648
-3.979,-1.693143941599645,-1.926498232050159
-3.9785,-0.9035510021311299,-1.598002441489969
-3.978,-0.1673089369510276,-1.301296566145281
-3.9775,0.2808384070716433,-0.9939940523954253
-3.977,0.4942419042252961,-0.5913217929990628
-3.9765,0.5155822539406614,-0.09327978795619347
-3.976,0.4622313796522482,0.3411823866556712
-3.9755,0.4729015545099309,0.775644561267536
-3.975,0.6222840025174878,1.125333628638062
-3.9745,0.7396559259519968,1.210106735879401
-3.974,0.857027849386506,1.241896651094903
-3.9735,0.7609962756673623,1.104140351827727
-3.973,0.5796033030867573,0.9557874141553824
-3.9725,-0.01792648894347063,0.4365521323021782
-3.972,-0.9675720512772257,-0.4853554089473885
-3.9715,-1.586442193022819,-1.269506650929778
-3.971,-1.991908837614759,-1.820531847998485
-3.9705,-1.810515865034154,-1.608599079895136
-3.97,-1.159635198715513,-0.8456411147230812
-3.9695,-0.5300948821122373,-0.1038764263613609
-3.969,-0.09261771294724913,0.4153588554918433
-3.9685,0.1527963087794516,0.701468092431364
-3.968,0.2488278824985954,0.8286277532933731
-3.9675,0.2701682322139607,0.8604176685088755
-3.967,0.2594980573562781,0.8392243916985406
-3.9665,0.2168173579255475,0.7968378380778709
-3.966,0.1741366584948169,0.7438546460520338
-3.9655,0.1101156093487211,0.6590815388106942
-3.965,0.0674349099179905,0.5425185163538525
-3.9645,-0.03926683865883591,0.3623756634660061
-3.964,-0.6261264558313813,-0.2416327256285375
-3.9635,-1.426389570157579,-1.01518732920576
-3.963,-2.03458953704549,-1.608599079895136
-3.9625,-1.778505340461106,-1.672178910326141
-3.962,-1.020922925565639,-1.248313374119443
-3.9615,-0.3060212101009019,-0.8880276683437509
-3.961,0.1741366584948169,-0.6760949002404023
-3.9605,0.3875401556484697,-0.4535654937318862
-3.96,0.4408910299368829,-0.1250697031716958
-3.9595,0.4195506802215176,0.1822328105781598
-3.959,0.3982103305061524,0.3411823866556712
-3.9585,0.5475927785137094,0.3623756634660061
-3.958,0.6649647019482183,0.5001319627331828
-3.9575,0.6863050516635838,0.627291623595192
-3.957,0.6863050516635838,0.6908714540261965
-3.9565,0.6863050516635838,0.8074344764830383
-3.956,0.4195506802215176,0.5849050699745222
-3.9555,-0.4127229586777283,-0.1356663415768632
-3.955,-1.394379045584531,-0.9728007755850904
-3.9545,-2.066600061618538,-1.566212526274467
-3.954,-1.821186039891837,-1.301296566145281
-3.9535,-1.138294849000148,-0.6019184314042303
-3.953,-0.4980843575391895,0.05507314971615059
-3.9525,-0.06060718837420119,0.5001319627331828
-3.952,0.1741366584948169,0.7544512844572011
-3.9515,0.2701682322139607,0.849821030103708
-3.951,0.291508581929326,0.8710143069140429
-3.9505,0.2701682322139607,0.849821030103708
-3.95,0.2381577076409128,0.8180311148882058
-3.9495,0.1954770082101822,0.7650479228623686
-3.949,0.1314559590640864,0.6802748156210291
-3.9485,0.08877525963335578,0.6060983467848571
-3.948,0.05676473506030786,0.5319218779486851
-3.9475,-0.3166913849585846,0.08686306493165288
-3.947,-1.084943974711735,-0.6866915386455698
-3.9465,-1.618452717595867,-1.184733543688439
-3.946,-1.885207089037933,-1.576809164679634
-3.9455,-1.383708870726849,-1.809935209593318
-3.945,-0.6474668055467465,-1.725162102351978
-3.9445,-0.06060718837420119,-1.502632695843462
-3.944,0.2808384070716433,-1.174136905283272
-3.9435,0.4195506802215176,-0.718481453861072
-3.943,0.4408910299368829,-0.2310360872233701
-3.9425,0.4195506802215176,0.1822328105781598
-3.942,0.5262524287983441,0.6166949851900245
-3.9415,0.6222840025174878,0.849821030103708
-3.941,0.6116138276598051,0.8286277532933731
-3.9405,0.5796033030867573,0.7438546460520338
-3.94,0.5689331282290746,0.7226613692416989
-3.9395,0.4942419042252961,0.701468092431364
-3.939,0.01408403562957729,0.701468092431364
-3.9385,-0.9035510021311299,0.1610395337678249
-3.938,-1.799845690176472,-0.7078848154559045
-3.9375,-2.3973754822067,-1.396666311791788
-3.937,-1.981238662757077,-1.248313374119443
-3.9365,-1.191645723288561,-0.570128516188728
-3.936,-0.4980843575391895,0.1186529801471552
-3.9355,-0.03926683865883591,0.627291623595192
-3.935,0.2061471830678648,0.9345941373450475
-3.9345,0.3021787567870086,1.082947075017392
-3.934,0.3128489316446912,1.135930267043229
-3.9335,0.2808384070716433,1.135930267043229
-3.933,0.2381577076409128,1.093543713422559
-3.9325,0.1954770082101822,1.00877060618122
-3.932,0.142126133921769,0.849821030103708
-3.9315,-0.03926683865883591,0.5319218779486851
-3.931,-0.3060212101009019,0.1504428953626575
-3.9305,-0.9569018764195432,-0.5595318777835605
-3.93,-1.522421143876723,-1.227120097309109
-3.9295,-2.002579012472442,-1.788741932782983
-3.929,-1.83185621474952,-2.21260746898968
-3.9285,-0.9035510021311299,-2.350363768256857
-3.928,-0.08194753808956648,-2.159624276963843
-3.9275,0.3982103305061524,-1.629792356705471
-3.927,0.5796033030867573,-1.036380606016095
-3.9265,0.5582629533713921,-0.3793890248957141
-3.926,0.4835717293676135,0.1186529801471552
-3.9255,0.5049120790829789,0.4895353243280153
-3.925,0.6969752265212663,0.8604176685088755
-3.9245,0.79300680024041,0.8816109453192104
-3.924,0.6863050516635838,0.7120647308365314
-3.9235,0.5689331282290746,0.5637117931641874
-3.923,0.5049120790829789,0.5107286011383502
-3.9225,0.2808384070716433,0.7226613692416989
-3.922,-0.3700422592469978,0.9134008605347127
-3.9215,-1.180975548430879,0.2034260873884947
-3.921,-1.746494815888059,-0.6443049850249
-3.9205,-1.501080794161358,-0.7078848154559045
-3.92,-0.9035510021311299,-0.2840192792492073
-3.9195,-0.3593720843893152,0.2140227257936621
-3.919,0.01408403562957729,0.6060983467848571
-3.9185,0.2168173579255475,0.8604176685088755
-3.918,0.291508581929326,0.9981739677760521
-3.9175,0.3021787567870086,1.061753798207057
-3.917,0.2808384070716433,1.072350436612224
-3.9165,0.2488278824985954,1.061753798207057
-3.916,0.2061471830678648,0.9875773293708847
-3.9155,0.1527963087794516,0.9028042221295453
-3.915,0.07810508477567314,0.7544512844572011
-3.9145,-0.01792648894347063,0.5637117931641874
-3.914,-0.5941159312583333,-0.06148987274069118
-3.9135,-1.383708870726849,-0.8986243067489184
-3.913,-2.045259711903173,-1.598002441489969
-3.9125,-2.141291285622316,-2.138431000153508
-3.912,-1.212986073003927,-2.371557045067191
-3.9115,-0.3060212101009019,-2.318573853041354
-3.911,0.2488278824985954,-1.915901593644992
-3.9105,0.4729015545099309,-1.290699927740113
-3.91,0.5049120790829789,-0.7502713690765743
-3.9095,0.4729015545099309,-0.2204394488182027
-3.909,0.4302208550792003,0.1928294489833272
-3.9085,0.5475927785137094,0.6060983467848571
-3.908,0.6009436528021226,0.8180311148882058
-3.9075,0.5475927785137094,0.7544512844572011
-3.907,0.4729015545099309,0.627291623595192
-3.9065,0.4408910299368829,0.5743084315693548
-3.906,0.2594980573562781,0.4471487707073456
-3.9055,-0.4767440078238243,-0.1780528951975329
-3.905,-1.287677297007705,-0.9833974139902578
-3.9045,-1.927887788468663,-1.587405803084801
-3.904,-2.258663209056825,-1.788741932782983
-3.9035,-1.725154466172693,-1.227120097309109
-3.903,-0.9675720512772257,-0.4111789401112165
-3.9025,-0.3380317346739499,0.2670059178194992
-3.902,0.05676473506030786,0.7120647308365314
-3.9015,0.2594980573562781,0.9345941373450475
-3.901,0.3235191065023739,1.019367244586387
-3.9005,0.3235191065023739,1.029963882991555
-3.9,0.291508581929326,0.9769806909657173
-3.8995,0.1634664836371343,0.849821030103708
-3.899,0.07810508477567314,0.7438546460520338
-3.8985,0.03542438534494258,0.6378882620003594
-3.898,-0.007256314085787988,0.5107286011383502
-3.8975,-0.4020527838200457,-0.07208651114585861
-3.897,-1.170305373573196,-0.8880276683437509
-3.8965,-1.906547438753298,-1.576809164679634
-3.896,-2.173301810195364,-1.947691508860494
-3.8955,-1.533091318734406,-1.915901593644992
-3.895,-0.722158029550525,-1.534422611058964
-3.8945,-0.03926683865883591,-1.322489842955616
-3.894,0.3555296310754218,-1.05757388282643
-3.8935,0.5049120790829789,-0.5489352393783931
-3.893,0.5262524287983441,-0.1356663415768632
-3.8925,0.4835717293676135,0.13984625695749
-3.892,0.5796033030867573,0.4471487707073456
-3.8915,0.7396559259519968,0.7544512844572011
-3.891,0.7609962756673623,0.8074344764830383
-3.8905,0.7289857510943143,0.775644561267536
-3.89,0.707645401378949,0.7332580076468663
-3.8895,0.6009436528021226,0.7438546460520338
-3.889,-0.04993701351651855,0.3729723018711736
-3.8885,-0.9995825758502737,-0.474758770542221
-3.888,-1.810515865034154,-1.269506650929778
-3.8875,-2.333354433060604,-1.714565463946811
-3.887,-1.853196564464885,-1.248313374119443
-3.8865,-1.06360362499637,-0.4217755785163839
-3.886,-0.4020527838200457,0.3199891098453364
