Class_7_Listen_To_Music/Class_7_Listen_To_Music_Turki_2.csv

#Digilent WaveForms Oscilloscope Acquisition
#Device Name: EExplorer
#Serial Number: SN:210151A2B84A
#Date Time: 2020-10-27 13:46:10.962
#Sample rate: 2000Hz
#Samples: 16384
#Trigger: Source: Channel 1 Type: Edge Condition: Rising Level: 0 V Hyst.: Auto HoldOff: 0 s
#Channel 1: Range: 1 V/div Offset: 0 V Attenuation: 1 X
#Channel 2: Range: 1 V/div Offset: 0 V Attenuation: 1 X
#Power Supplies: ON
#Fixed Supply: ON
#Voltage: 3.3 V Readback: 3.323 V
#Positive Supply: ON
#Voltage: 3.7 V Readback: 3.717 V
#Current: 500 mA Readback: 22 mA
#Negative Supply: ON
#Voltage: -3.7 V Readback: -3.701 V
#Current: -500 mA Readback: -8 mA
#Reference 1: ON
#Voltage: 0 V
#Reference 2: ON
#Voltage: 0 V

Time (s),Channel 1 (V),Channel 2 (V)
-4.096,-1.607782542738184,-1.237716735714276
-4.0955,-2.023919362187429,-0.9833974139904891
-4.095,-1.597112367879832,-0.6549016234297398
-4.0945,-0.8608703027003992,-0.2946159176543747
-4.094,-0.2313299860976959,0.2458126410086729
-4.0935,0.1741366584950013,1.146526905449196
-4.093,0.3768699807907871,2.026047893077293
-4.0925,0.4515612047944976,2.577073090145499
-4.092,0.4515612047945656,2.704232751007797
-4.0915,0.4515612047945656,2.471106706094325
-4.091,0.4408910299368829,2.227384022775475
-4.0905,0.4408910299368829,1.856501678593804
-4.09,0.4408910299368829,0.9663840525605498
-4.0895,0.01408403562957729,-0.1250697031716958
-4.089,-0.8288597781265848,-1.036380606015266
-4.0885,-1.565101843307454,-1.714565463946811
-4.088,-1.821186039891837,-2.043061254507001
-4.0875,-1.597112367880705,-1.820531847998688
-4.087,-0.8608703026997684,-1.12115371325702
-4.0865,-0.1673089369510276,-0.6654982618352349
-4.086,0.2915085819289087,-0.4641621321372367
-4.0855,0.5262524287984315,-0.4429688553267477
-4.085,0.6222840025174878,-0.474758770542221
-4.0845,0.6329541773751609,-0.4959520473525367
-4.084,0.5475927785135638,-0.5807251545938279
-4.0835,0.3875401556484697,-0.5065486857577234
-4.083,0.3448594562177392,-0.2204394488182027
-4.0825,0.3448594562177489,0.1186529801473961
-4.082,0.3555296310754218,0.383568940276341
-4.0815,0.4622313796522482,0.4047622170866759
-4.081,1.006410297393568,-0.1144730647660561
-4.0805,0.825017324813458,-0.8138511995075789
-4.08,-0.09261771294724913,-1.301296566145281
-4.0795,-0.935561526703411,-1.396666311791701
-4.079,-1.72515446617281,-1.227120097308849
-4.0785,-1.853196564464885,-0.9410108603695881
-4.078,-1.2556667724352,-0.6231117082148542
-4.0775,-0.5621054066848,-0.2522293640331364
-4.077,-0.02859666380115328,0.3729723018711736
-4.0765,0.2808384070713619,1.273686566309586
-4.076,0.4195506802215564,2.047241169887907
-4.0755,0.4622313796522482,2.354543683637484
-4.075,0.4622313796522482,2.343947045232316
-4.0745,0.4622313796522385,2.110821000318315
-4.074,0.4515612047945656,1.761131932948107
-4.0735,0.4408910299368829,1.135930267043229
-4.073,0.3341892813601536,0.2352160026048161
-4.0725,0.3875401556484697,-0.6443049850249
-4.072,-0.1993194615240755,-1.34368311976595
-4.0715,-0.9035510021304894,-1.799338571187736
-4.071,-0.9569018764191647,-1.598002441489477
-4.0705,-0.5407650569699201,-1.05757388282643
-4.07,-0.06060718837463791,-0.7184814538613804
-4.0695,0.280838407071818,-0.5913217929990435
-4.069,0.4729015545099309,-0.570128516188728
-4.0685,0.5689331282290746,-0.6019184314042303
-4.068,0.5902734779444108,-0.5913217929990822
-4.0675,0.5582629533713921,-0.6125150698093976
-4.067,0.3768699807907871,-0.6549016234300674
-4.0665,0.291508581929326,-0.4641621321368609
-4.066,0.291508581929326,-0.252229364033705
-4.0655,0.3128489316446912,-0.08268314955102604
-4.065,0.355529631075383,0.0656697881211831
-4.0645,0.7823366253827275,-0.1144730647665284
-4.064,1.134452395686255,-0.6654982618352349
-4.0635,0.398210330506822,-1.163540266877651
-4.063,-0.4660738329669373,-1.237716735714161
-4.0625,-1.341028171296118,-1.110557074852267
-4.062,-2.077270236475551,-0.8986243067491111
-4.0615,-2.098610586190906,-0.6549016234298457
-4.061,-1.351698346153801,-0.4111789401112165
-4.0605,-0.5834457564006506,-0.1144730647665284
-4.06,-0.02859666380086214,0.4683420475184322
-4.0595,0.291508581929326,1.29487984312074
-4.059,0.4302208550792003,1.909484870620451
-4.0585,0.4729015545098921,2.132014277128765
-4.058,0.4942419042252961,2.174400830749637
-4.0575,0.4942419042252961,2.026047893077293
-4.057,0.4835717293676232,1.686955464112244
-4.0565,0.6436243522328531,0.92399749893988
-4.056,1.326515543124542,-0.04029659593035631
-4.0555,2.00940673401561,-0.9198175835584533
-4.055,1.539919040277263,-1.5874058030851
-4.0545,0.5155822539406614,-1.915901593644992
-4.054,0.01408403563003335,-1.39666631179226
-4.0535,0.01408403562970345,-0.7502713690761695
-4.053,0.1527963087794516,-0.3052125560595421
-4.0525,0.3021787567870086,-0.1250697031716958
-4.052,0.4408910299369509,-0.1356663415769692
-4.0515,0.5155822539406614,-0.252229364033705
-4.051,0.5475927785137094,-0.3581957480853793
-4.0505,0.4088805053639611,-0.4641621321369572
-4.05,0.3341892813600565,-0.1886495336027004
-4.0495,0.3235191065023739,0.1822328105781598
-4.049,0.3341892813600468,0.4577454091122625
-4.0485,0.3555296310756062,0.5743084315692296
-4.048,0.5582629533713921,0.4365521323021782
-4.0475,0.9743997728206365,-0.1886495336021317
-4.047,0.3661998059321728,-0.888027668344175
-4.0465,-0.658136980404429,-1.354279758171118
-4.046,-1.565101843306629,-1.460246142222696
-4.0455,-2.215982509625833,-1.269506650929489
-4.045,-1.927887788468663,-0.9516074987747555
-4.0445,-1.138294849000148,-0.6125150698093976
-4.044,-0.4233931335349645,-0.24163272562794
-4.0435,0.0674349099179905,0.4153588554918433
-4.043,0.3341892813600565,1.29487984312074
-4.0425,0.4408910299367859,2.01545125467147
-4.042,0.4515612047945656,2.365140322042651
-4.0415,0.4729015545099309,2.280367214801311
-4.041,0.4622313796522579,1.962468062646578
-4.0405,0.4622313796522773,1.697552102516544
-4.04,0.4942419042252961,1.082947075017392
-4.0395,0.2381577076411457,0.1080563417428744
-4.039,-0.3060212101016589,-0.8138511995082149
-4.0385,-1.138294849000148,-1.51322933424863
-4.038,-1.458400094730336,-1.831128486403363
-4.0375,-1.042263275280432,-1.449649503817172
-4.037,-0.4127229586777283,-0.9516074987747555
-4.0365,0.09944543449103843,-0.6549016234300674
-4.036,0.4408910299370091,-0.5807251545939147
-4.0355,0.5796033030867573,-0.6019184314042303
-4.035,0.6222840025174878,-0.5595318777835605
-4.0345,0.600943652802142,-0.4747587705422981
-4.034,0.5475927785137094,-0.474758770542221
-4.0335,0.4515612047945656,-0.1674562567923655
-4.033,0.3982103305062009,0.1928294489829996
-4.0325,0.3768699807907774,0.4259554938971457
-4.032,0.3661998059331045,0.5743084315693548
-4.0315,0.3235191065024127,0.5637117931641971
-4.031,0.4835717293674873,0.05507314971549523
-4.0305,0.3448594562177392,-0.6654982618352349
-4.03,-0.4447334832500582,-1.131750351662178
-4.0295,-1.223656247862259,-1.216523458903787
-4.029,-1.938557963326346,-1.046977244421262
-4.0285,-2.045259711903173,-0.7502713690765743
-4.028,-1.394379045583852,-0.4111789401108888
-4.0275,-0.6474668055467465,-0.05089323433552374
-4.027,-0.08194753808956648,0.4789386859228479
-4.0265,0.2594980573559675,1.316073119930314
-4.026,0.408880505363835,2.07903108510313
-4.0255,0.4515612047945656,2.545283174930498
-4.025,0.4515612047945656,2.704232751007864
-4.0245,0.4408910299368829,2.598266366956045
-4.024,0.4408910299368829,2.280367214801311
-4.0235,0.4408910299368829,1.528005888035108
-4.023,0.2488278824978578,0.4259554938960566
-4.0225,-0.5621054066852853,-0.6231117082145651
-4.022,-1.458400094729812,-1.407262950196242
-4.0215,-1.981238662756824,-1.905304955239613
-4.021,-1.703814116457328,-1.672178910326141
-4.0205,-0.9675720512772257,-1.068170521231597
-4.02,-0.2740106855274173,-0.6443049850247264
-4.0195,0.2061471830678648,-0.4535654937318862
-4.019,0.4729015545099309,-0.4323722169215513
-4.0185,0.590273477944333,-0.4535654937318669
-4.018,0.6222840025174878,-0.4641621321370536
-4.0175,0.5796033030867573,-0.5383386009732256
-4.017,0.3982103305063174,-0.5065486857577522
-4.0165,0.3128489316446912,-0.1886495336024305
-4.016,0.3128489316446912,0.1080563417419877
-4.0155,0.3341892813600371,0.2881991946296703
-4.015,0.3661998059334539,0.3835689402761483
-4.0145,0.7503261008096795,0.1716361721729923
-4.014,1.18780326997427,-0.4641621321364754
-4.0135,0.5155822539398948,-1.046977244421465
-4.013,-0.3273615598162672,-1.269506650929778
-4.0125,-1.223656247861609,-1.184733543688439
-4.012,-1.863866739322374,-0.9410108603693087
-4.0115,-1.650463242168915,-0.6337083466197325
-4.011,-0.9782422261349084,-0.2628260024388724
-4.0105,-0.3380317346745322,0.2670059178190174
-4.01,0.09944543449103843,1.093543713422559
-4.0095,0.3341892813600565,1.888291593810116
-4.009,0.430220855079113,2.375736960447375
-4.0085,0.4729015545099406,2.396930237257903
-4.008,0.4835717293676135,2.1214176387238
-4.0075,0.4835717293676135,1.835308401784539
-4.007,0.4622313796522094,1.517409249628639
-4.0065,0.4195506802215176,0.8392243916985406
-4.006,-0.09261771294724913,-0.1038764263613609
-4.0055,-0.8822106524164146,-0.9622041371805204
-4.005,-1.597112367880501,-1.619195718300304
-4.0045,-1.778505340461106,-1.958288147265661
-4.004,-1.298347471864728,-1.502632695842913
-4.0035,-0.572775581542968,-0.8986243067489184
-4.003,0.02475421048725994,-0.5171453241628908
-4.0025,0.3768699807904669,-0.3475991096803661
-4.002,0.5262524287983441,-0.252229364033705
-4.0015,0.5689331282290746,-0.2628260024388724
-4.001,0.5582629533714017,-0.3793890248956081
-4.0005,0.4408910299367956,-0.5277419625678655
-4,0.3448594562177392,-0.3158091944647096
-3.9995,0.3341892813600565,0.04447651131098315
-3.999,0.3448594562177392,0.309392471440169
-3.9985,0.3661998059331045,0.4683420475176805
-3.998,0.291508581929326,0.3305857482505039
-3.9975,0.6329541773751706,-0.3052125560595421
-3.997,1.134452395686255,-0.9728007755850904
-3.9965,0.79300680024041,-1.396666311791788
-3.996,-0.2633405106701714,-1.47084278062796
-3.9955,-1.223656247861609,-1.258910012524611
-3.995,-1.30901764672307,-0.9410108603695881
-3.9945,-0.8502001278427167,-0.5383386009732256
-3.994,-0.3273615598162672,0.1292496185523226
-3.9935,0.0674349099179905,1.072350436612224
-3.993,0.291508581929326,1.877694955404949
-3.9925,0.3982103305061524,2.365140322042651
-3.992,0.4195506802215176,2.428720152473656
-3.9915,0.4302208550792003,2.354543683637484
-3.991,0.4302208550792003,2.20619074596514
-3.9905,0.4302208550792003,1.845905040189447
-3.99,0.4408910299368829,1.199510097474233
-3.9895,0.4408910299368829,0.2140227257936621
-3.989,0.3768699807907871,-0.7290780922662394
-3.9885,-0.4340633083930936,-1.449649503817625
-3.988,-0.9995825758502737,-1.831128486403653
-3.9875,-0.9035510021311299,-1.439052865412457
-3.987,-0.4447334832507763,-0.8774310299385835
-3.9865,0.00341386077189465,-0.5171453241628908
-3.986,0.3128489316446912,-0.3899856633008816
-3.9855,0.4942419042252961,-0.3370024712750445
-3.985,0.5796033030867573,-0.2946159176543747
-3.9845,0.6009436528021226,-0.2840192792492073
-3.984,0.5369226036560266,-0.3899856633008816
-3.9835,0.4195506802215176,-0.3158091944647096
-3.983,0.3661998059331045,-0.008506680714854012
-3.9825,0.3555296310754218,0.2776025562246667
-3.982,0.3555296310754218,0.4259554938970107
-3.9815,0.3555296310754218,0.4259554938970107
-3.981,0.4729015545099309,-0.06148987274069118
-3.9805,0.1207857842064037,-0.7502713690765743
-3.98,-0.690147504977477,-1.205926820498774
-3.9795,-1.383708870726849,-1.301296566145281
-3.979,-2.002579012472442,-1.121153713257435
-3.9785,-1.938557963326346,-0.8244478379127463
-3.978,-1.223656247861609,-0.4959520473525559
-3.9775,-0.5087545323968721,-0.1674562567923655
-3.977,0.00341386077189465,0.2458126410091644
-3.9765,0.291508581929326,0.9451907757502149
-3.976,0.4195506802215176,1.75053529454294
-3.9755,0.4515612047945656,2.195594107559972
-3.975,0.4408910299368829,2.237980661180642
-3.9745,0.4302208550792003,2.089627723508298
-3.974,0.4195506802215176,1.845905040189447
-3.9735,0.4302208550792003,1.347863035146577
-3.973,0.3021787567870086,0.4259554938970107
-3.9725,0.07810508477567314,-0.5383386009732256
-3.972,-0.4980843575391895,-1.311893204550448
-3.9715,-1.116954499284783,-1.84172512480882
-3.971,-0.9675720512772257,-1.735758740757146
-3.9705,-0.4340633083930936,-1.258910012524611
-3.97,0.05676473506030786,-0.9304142219644207
-3.9695,0.3768699807907871,-0.7608680074817418
-3.969,0.5369226036560266,-0.718481453861072
-3.9685,0.5796033030867573,-0.6337083466197325
-3.968,0.5582629533713921,-0.6019184314042303
-3.9675,0.5155822539406614,-0.6231117082145651
-3.967,0.4729015545099309,-0.4959520473525559
-3.9665,0.4408910299368829,-0.1992461720078678
-3.966,0.4195506802215176,0.07626642652648545
-3.9655,0.3875401556484697,0.2458126410091644
-3.965,0.3875401556484697,0.3411823866556712
-3.9645,0.4302208550792003,0.07626642652648545
-3.964,1.006410297394063,-0.5595318777835605
-3.9635,1.806673411720261,-1.110557074852267
-3.963,1.817343586577944,-1.322489842955616
-3.9625,0.6116138276598051,-1.195330182093607
-3.962,-0.5514352318276028,-0.8986243067489184
-3.9615,-0.839529952985034,-0.5277419625680583
-3.961,-0.5941159312583333,-0.09327978795619347
-3.9605,-0.2313299860971235,0.6166949851900245
-3.96,0.07810508477567314,1.559795803249926
-3.9595,0.2594980573562781,2.343947045232316
-3.959,0.3555296310754218,2.746619304628679
-3.9585,0.3875401556484697,2.640652920577004
-3.958,0.4195506802215176,2.1214176387238
-3.9575,0.4195506802215176,1.686955464111935
-3.957,0.4195506802215176,1.284283204715573
-3.9565,0.3875401556484697,0.5743084315693548
-3.956,-0.1352984123779797,-0.2946159176543747
-3.9555,-1.052933450138687,-1.068170521231597
-3.955,-1.778505340461106,-1.682775548731308
-3.9545,-1.778505340461106,-1.947691508860494
-3.954,-1.170305373573196,-1.481439419033127
-3.9535,-0.4660738329661415,-0.9516074987747555
-3.953,0.05676473506030786,-0.6125150698093976
-3.9525,0.3768699807907871,-0.474758770542221
-3.952,0.5262524287983441,-0.4323722169215513
-3.9515,0.5689331282290746,-0.4429688553267188
-3.951,0.5369226036560266,-0.4535654937318862
-3.9505,0.4515612047945656,-0.5065486857577234
-3.95,0.3768699807907871,-0.2628260024388724
-3.9495,0.3661998059331045,0.07626642652648545
-3.949,0.3555296310754218,0.2987958330350016
-3.9485,0.3661998059331045,0.4365521323021782
-3.948,0.5049120790829789,0.3729723018711736
-3.9475,1.219813794547716,-0.1462629799820306
-3.947,1.838683936293309,-0.8138511995075789
-3.9465,1.465227816274416,-1.248313374119443
-3.946,0.4195506802215176,-1.333086481360783
-3.9455,-0.7434983792658902,-1.131750351662602
-3.945,-1.06360362499637,-0.8138511995075789
-3.9445,-0.7648387289812555,-0.400582301706049
-3.944,-0.3380317346739499,0.2034260873884947
-3.9435,0.02475421048725994,1.114736990232894
-3.943,0.2381577076409128,1.973064701051456
-3.9425,0.3555296310754218,2.524089898120163
-3.942,0.3875401556484697,2.767812581439014
-3.9415,0.3982103305061524,2.736022666223511
-3.941,0.4195506802215176,2.481703344499493
-3.9405,0.4195506802215176,2.153207553939303
-3.94,0.4195506802215176,1.443232780793084
-3.9395,0.3235191065023739,0.3623756634660061
-3.939,0.2594980573562781,-0.6443049850249
-3.9385,-0.4767440078238243,-1.417859588602123
-3.938,-1.116954499284783,-1.831128486403653
-3.9375,-1.159635198715513,-1.566212526274467
-3.937,-0.7008176798351597,-1.01518732920576
-3.9365,-0.156638762093345,-0.6866915386455698
-3.936,0.2488278824985954,-0.5065486857577234
-3.9355,0.4622313796522482,-0.4641621321370536
-3.935,0.5369226036560266,-0.4429688553267188
-3.9345,0.5475927785137094,-0.4429688553267188
-3.934,0.5369226036560266,-0.5065486857577234
-3.9335,0.5049120790829789,-0.3158091944647096
-3.933,0.4622313796522482,-0.01910331912002144
-3.9325,0.4302208550792003,0.2034260873884947
-3.932,0.3875401556484697,0.3941655786815084
-3.9315,0.408880505363835,0.4471487707073456
-3.931,0.857027849386506,0.07626642652648545
-3.9305,1.283834843693812,-0.6019184314042303
-3.93,1.209143619690033,-1.163540266878104
-3.9295,0.5369226036560266,-1.364876396576285
-3.929,-0.6047861061160158,-1.248313374119443
-3.9285,-1.330357996438436,-0.9622041371799229
-3.928,-1.180975548430879,-0.5171453241628908
-3.9275,-0.690147504977477,0.2140227257936621
-3.927,-0.2099896363817582,1.199510097474233
-3.9265,0.1207857842064037,2.047241169887628
-3.926,0.3021787567870086,2.587669728551167
-3.9255,0.3768699807907871,2.810199135059683
-3.925,0.3982103305061524,2.810199135059683
-3.9245,0.408880505363835,2.640652920577004
-3.924,0.408880505363835,2.322753768421981
-3.9235,0.4195506802215176,1.697552102517103
-3.923,0.2701682322139607,0.6378882620003594
-3.9225,-0.01792648894347063,-0.4429688553267188
-3.922,-0.6261264558313813,-1.269506650929778
-3.9215,-1.26633694729234,-1.831128486403653
-3.921,-1.26633694729234,-1.746355379162313
-3.9205,-0.7755089038389382,-1.110557074852267
-3.92,-0.1993194615240755,-0.6760949002404023
-3.9195,0.2168173579255475,-0.4535654937318862
-3.919,0.4408910299368829,-0.326405832869877
-3.9185,0.5155822539406614,-0.3158091944647096
-3.918,0.5262524287983441,-0.3475991096802118
-3.9175,0.5049120790829789,-0.4535654937318862
-3.917,0.2701682322139607,-0.5489352393783931
-3.9165,0.1527963087794516,-0.1038764263613609
-3.916,0.1741366584948169,0.309392471440169
-3.9155,0.2381577076409128,0.6166949851900245
-3.915,0.3021787567870086,0.7544512844572011
-3.9145,0.6542945270905358,0.4683420475176805
-3.914,0.8890383739595538,-0.2946159176543747
-3.9135,0.0674349099179905,-1.004590690800593
-3.913,-0.9675720512772257,-1.396666311791788
-3.9125,-1.842526389607202,-1.42845622700729
-3.912,-2.514747405641209,-1.205926820498774
-3.9115,-2.141291285622316,-0.8880276683437509
-3.911,-1.244996597576974,-0.5383386009732256
-3.9105,-0.4767440078238243,0.002089957690313421
-3.91,0.03542438534494258,0.8604176685088755
-3.9095,0.3128489316446912,1.697552102517103
-3.909,0.4195506802215176,2.216787384370307
-3.9085,0.4302208550792003,2.375736960447818
-3.908,0.4195506802215176,2.312157130016814
-3.9075,0.4302208550792003,1.867098316999781
-3.907,0.4302208550792003,1.347863035146577
-3.9065,0.4195506802215176,0.5425185163538525
-3.906,-0.1032878878049318,-0.3899856633008816
-3.9055,-0.9889124009925911,-1.184733543688439
-3.905,-1.703814116457328,-1.788741932782983
-3.9045,-1.746494815888059,-1.947691508860494
-3.904,-1.148965023857831,-1.38606967338662
-3.9035,-0.423393133535411,-0.8456411147230812
-3.903,0.1207857842064037,-0.5489352393783931
-3.9025,0.4408910299368829,-0.474758770542221
-3.902,0.5796033030867573,-0.4853554089473885
-3.9015,0.6009436528021226,-0.5383386009732256
-3.901,0.5689331282290746,-0.570128516188728
-3.9005,0.408880505363835,-0.6443049850249
-3.9,0.2488278824985954,-0.4535654937318862
-3.8995,0.2274875327832301,-0.08268314955102604
-3.899,0.2594980573562781,0.2776025562246667
-3.8985,0.291508581929326,0.457745409112513
-3.898,0.4515612047945656,0.4683420475176805
-3.8975,1.006410297394063,-0.008506680714854012
-3.897,0.6542945270905358,-0.7078848154559045
-3.8965,-0.3060212101009019,-1.184733543688439
-3.896,-1.180975548430879,-1.301296566145281
-3.8955,-1.949228138184029,-1.163540266878104
-3.895,-2.066600061618538,-0.8986243067489184
-3.8945,-1.405049220442214,-0.570128516188728
-3.894,-0.658136980404429,-0.1250697031716958
-3.8935,-0.1032878878049318,0.6378882620003594
-3.893,0.2381577076409128,1.528005888034424
-3.8925,0.3875401556484697,2.184997469154805
-3.892,0.4195506802215176,2.301560491611646
-3.8915,0.4302208550792003,2.195594107559972
-3.891,0.4408910299368829,1.951871424241121
-3.8905,0.4302208550792003,1.718745379327438
-3.89,0.4408910299368829,1.220703374284568
-3.8895,0.3768699807907871,0.3517790250608387
-3.889,0.2488278824985954,-0.6019184314042303
-3.8885,-0.4660738329661415,-1.354279758171118
-3.888,-1.074273799854052,-1.809935209593318
-3.8875,-1.084943974711735,-1.650985633515806
-3.887,-0.5941159312583333,-1.004590690800593
-3.8865,-0.09261771294724913,-0.5277419625680583
-3.886,0.2594980573562781,-0.3158091944647096
-3.8855,0.4515612047945656,-0.2734226408440398
