Class_7_Listen_To_Music/Class_7_Listen_To_Music_Turki_13.csv

#Digilent WaveForms Oscilloscope Acquisition
#Device Name: EExplorer
#Serial Number: SN:210151A2B84A
#Date Time: 2021-02-03 11:25:58.490
#Sample rate: 2000Hz
#Samples: 16384
#Trigger: Source: Channel 1 Type: Edge Condition: Rising Level: 0 V Hyst.: Auto HoldOff: 0 s
#Channel 1: Range: 1 V/div Offset: 0 V Attenuation: 1 X
#Channel 2: Range: 1 V/div Offset: 0 V Attenuation: 1 X
#Power Supplies: ON
#Fixed Supply: ON
#Voltage: 3.3 V Readback: 3.317 V
#Positive Supply: ON
#Voltage: 3.7 V Readback: 3.717 V
#Current: 40 mA Readback: 21 mA
#Negative Supply: ON
#Voltage: -3.7 V Readback: -3.363 V
#Current: -40 mA Readback: -2 mA
#Reference 1: ON
#Voltage: 0 V
#Reference 2: ON
#Voltage: 0 V

Time (s),Channel 1 (V),Channel 2 (V)
-4.096,-0.5300948821122373,-0.8138511995075789
-4.0955,-0.03926683865928232,-0.4535654937322139
-4.095,0.334189281360241,-0.3264058328699252
-4.0945,0.5369226036560266,-0.3793890248957141
-4.094,0.6116138276597372,-0.5489352393782388
-4.0935,0.6116138276597857,-0.7290780922663261
-4.093,0.5902734779444399,-0.8244478379127463
-4.0925,0.6329541773751317,-0.8244478379127463
-4.092,0.6009436528020644,-0.6654982618351192
-4.0915,0.5369226036560266,-0.5383386009732256
-4.091,0.4729015545099309,-0.400582301706049
-4.0905,0.440891029936912,-0.2310360872232256
-4.09,0.4729015545099309,-0.07208651114585861
-4.0895,0.2061471830678648,-0.3687923864905467
-4.089,-0.1673089369506879,-0.8032545611020163
-4.0885,-0.5514352318276028,-1.05757388282643
-4.088,-1.052933450138687,-1.046977244421262
-4.0875,-1.575772018164661,-0.9304142219645267
-4.087,-1.469070269587757,-0.421775578515584
-4.0865,-0.8608703027003992,0.457745409112513
-4.086,-0.2846808603860607,1.263089927904506
-4.0855,0.1207857842066172,1.824711763379381
-4.085,0.3555296310754218,2.1214176387238
-4.0845,0.4515612047944783,2.206190745965062
-4.084,0.4729015545099018,2.163804192344364
-4.0835,0.4408910299368829,2.047241169887628
-4.083,0.408880505363835,1.867098316999781
-4.0825,0.3768699807907677,1.633972272085857
-4.082,0.3555296310754218,1.369056311956912
-4.0815,0.1101156093487211,0.8180311148882058
-4.081,-0.4980843575386364,-0.125069703170838
-4.0805,-0.9142211769888124,-0.9622041371799229
-4.08,-1.223656247861609,-1.619195718300304
-4.0795,-1.19164572328859,-1.714565463946724
-4.079,-0.6794773301192703,-1.174136905282867
-4.0785,-0.1032878878049318,-0.7290780922662394
-4.078,0.3128489316443128,-0.5065486857579258
-4.0775,0.5369226036560848,-0.4747587705422981
-4.077,0.6009436528021226,-0.5595318777835605
-4.0765,0.6009436528021226,-0.7078848154557696
-4.076,0.7716664505253165,-0.7926579226969356
-4.0755,1.070431346540159,-0.4535654937318862
-4.075,1.027750647109428,-0.2628260024388724
-4.0745,0.8250173248132834,-0.1886495336026426
-4.074,0.6329541773751706,-0.1250697031716958
-4.0735,0.5049120790829789,-0.02969995752518888
-4.073,0.2808384070718471,-0.1568596183870824
-4.0725,-0.2313299860971235,-0.6654982618352349
-4.072,-0.6367966306890638,-1.131750351662602
-4.0715,-0.9782422261345979,-1.407262950196705
-4.071,-1.469070269588465,-1.42845622700701
-4.0705,-1.639793067311232,-1.121153713257435
-4.07,-1.116954499285258,-0.2946159176551264
-4.0695,-0.4980843575387431,0.6060983467854739
-4.069,-0.007256314085787988,1.284283204715573
-4.0685,0.2808384070716433,1.686955464111935
-4.068,0.4302208550792391,1.877694955404968
-4.0675,0.4729015545099309,1.898888232215284
-4.067,0.4515612047945656,1.824711763379112
-4.0665,0.4195506802214886,1.686955464111762
-4.066,0.3875401556484697,1.496215972818921
-4.0655,0.3661998059331045,1.284283204715573
-4.065,0.2808384070717209,0.9663840525608389
-4.0645,-0.2420001609548061,0.1822328105781598
-4.064,-0.6474668055467465,-0.6760949002404023
-4.0635,-0.5941159312583818,-1.290699927739554
-4.063,-0.2846808603852164,-1.375473034981125
-4.0625,0.0674349099179905,-1.01518732920576
-4.062,0.3555296310751598,-0.7184814538613418
-4.0615,0.5049120790830177,-0.5913217929990628
-4.061,0.5475927785137094,-0.5913217929990628
-4.0605,0.5369226036560266,-0.6760949002404023
-4.06,0.5262524287984217,-0.7714646458869863
-4.0595,0.6116138276598051,-0.8562377531282487
-4.059,0.8463576745288233,-0.8986243067489184
-4.0585,0.8570278493864963,-0.6443049850251312
-4.058,0.7289857510943143,-0.326405832869877
-4.0575,0.5902734779444399,-0.02969995752518888
-4.057,0.4942419042253835,0.2246193641985982
-4.0565,0.3341892813600565,0.2246193641988295
-4.056,-0.007256314085787988,-0.1992461720078678
-4.0555,-0.4554036581080513,-0.6866915386451264
-4.055,-0.8608703027008456,-0.9728007755851964
-4.0545,-1.351698346153801,-1.089363798041932
-4.054,-1.714484291314681,-1.00459069080067
-4.0535,-1.298347471864805,-0.3899856633001298
-4.053,-0.658136980404429,0.4365521323021782
-4.0525,-0.124628237520297,1.093543713422559
-4.052,0.2168173579257125,1.496215972819075
-4.0515,0.3982103305061524,1.6657621873016
-4.051,0.4622313796522482,1.676358825706768
-4.0505,0.4622313796522482,1.580989080060348
-4.05,0.4195506802215176,1.432636142387917
-4.0495,0.3875401556484697,1.25249328950007
-4.049,0.3661998059331239,1.051157159802073
-4.0485,0.3341892813596781,0.8074344764825083
-4.048,-0.08194753808956648,0.2246193641988295
-4.0475,-0.658136980403905,-0.5807251545931629
-4.047,-1.010252750707879,-1.269506650930019
-4.0465,-0.9248913518464952,-1.534422611058964
-4.046,-0.4020527838205212,-1.227120097309389
-4.0455,0.07810508477596427,-0.7926579226969741
-4.045,0.3982103305061524,-0.4959520473525559
-4.0445,0.5475927785137094,-0.4217755785163839
-4.044,0.5902734779444204,-0.4747587705422885
-4.0435,0.5689331282290746,-0.5489352393783931
-4.043,0.5689331282290746,-0.5807251545938954
-4.0425,0.7716664505248604,-0.5383386009732641
-4.042,0.857027849386506,-0.3475991096802118
-4.0415,0.825017324813458,-0.1886495336027004
-4.041,0.6969752265213828,-0.07208651114596462
-4.0405,0.5582629533712853,0.04447651131104098
-4.04,0.4408910299368829,0.1080563417419877
-4.0395,-0.02859666380072629,-0.2840192792488507
-4.039,-0.4767440078240475,-0.813851199507897
-4.0385,-0.722158029550525,-1.163540266878104
-4.038,-1.148965023857442,-1.28010328933484
-4.0375,-1.671803591884309,-1.205926820498408
-4.037,-1.703814116457328,-0.8032545611024114
-4.0365,-1.06360362499637,0.04447651131098315
-4.036,-0.423393133534984,0.88161094531975
-4.0355,0.04609456020262521,1.475022696008586
-4.035,0.3235191065023739,1.803518486568777
-4.0345,0.4408910299367762,1.909484870620355
-4.034,0.4729015545099309,1.877694955404949
-4.0335,0.4515612047945656,1.75053529454294
-4.033,0.4195506802215467,1.580989080060415
-4.0325,0.398210330506133,1.379652950361868
-4.032,0.3768699807907871,1.146526905448396
-4.0315,0.1741366584950013,0.7226613692420845
-4.031,-0.4340633083934333,-0.09327978795693558
-4.0305,-0.807519428411986,-0.9092209451540858
-4.03,-1.052933450138464,-1.545019249463554
-4.0295,-0.9675720512767696,-1.598002441489458
-4.029,-0.4660738329661415,-1.036380606016095
-4.0285,0.02475421048725994,-0.570128516188728
-4.028,0.3448594562178944,-0.3264058328698867
-4.0275,0.5155822539406614,-0.3370024712750445
-4.027,0.5689331282290746,-0.400582301706049
-4.0265,0.5689331282290746,-0.506548685757627
-4.026,0.5582629533713921,-0.5913217929990628
-4.0255,0.6009436528021226,-0.6231117082145651
-4.025,0.5902734779444495,-0.5913217929990917
-4.0245,0.5689331282290261,-0.495952047352421
-4.024,0.5155822539406614,-0.3475991096802118
-4.0235,0.4729015545099697,-0.1992461720080027
-4.023,0.3982103305059195,-0.2416327256288074
-4.0225,0.142126133921769,-0.5383386009732256
-4.022,-0.1886492866660921,-0.941010860369222
-4.0215,-0.7114878546934342,-1.216523458904009
-4.021,-1.362368521011484,-1.290699927740113
-4.0205,-1.629122892453549,-1.036380606016095
-4.02,-1.148965023857278,-0.2204394488173834
-4.0195,-0.5407650569699201,0.6802748156210291
-4.019,-0.03926683865883591,1.37965295036208
-4.0185,0.2701682322136792,1.814115124973549
-4.018,0.4195506802215176,2.015451254672126
-4.0175,0.4622313796522482,2.057837808292796
-4.017,0.4515612047945753,2.004854616267007
-4.0165,0.4195506802214788,1.877694955404804
-4.016,0.3768699807907871,1.718745379327438
-4.0155,0.3555296310754412,1.506812611224281
-4.015,0.2594980573557928,1.188913459068314
-4.0145,-0.274010685527854,0.3623756634660061
-4.014,-0.7541685541231362,-0.5701285161878799
-4.0135,-1.031593100423069,-1.269506650929894
-4.013,-0.754168554123573,-1.396666311791788
-4.0125,-0.2420001609548061,-1.068170521231597
-4.012,0.1741366584950595,-0.7608680074815972
-4.0115,0.4408910299368829,-0.6019184314042303
-4.011,0.5902734779444399,-0.5171453241628908
-4.0105,0.6222840025174587,-0.5701285161886798
-4.01,0.6009436528021226,-0.6231117082145651
-4.0095,0.6329541773751706,-0.6760949002404023
-4.009,0.8250173248132833,-0.739674730671349
-4.0085,0.8036769750979763,-0.6549016234298843
-4.008,0.6756348768059011,-0.4535654937318862
-4.0075,0.5582629533714989,-0.2204394488184147
-4.007,0.4729015545097756,-0.008506680714882925
-4.0065,0.3021787567870086,-0.04029659593035631
-4.006,-0.2313299860971235,-0.5171453241628908
-4.0055,-0.8075194284123354,-1.004590690800814
-4.005,-1.191645723288561,-1.248313374119443
-4.0045,-1.533091318734406,-1.195330182093607
-4.004,-1.895877263895276,-1.057573882825938
-4.0035,-1.522421143876723,-0.5171453241628908
-4.003,-0.807519428411986,0.3411823866556712
-4.0025,-0.2206598112399747,1.082947075016717
-4.002,0.1848068333524996,1.559795803249926
-4.0015,0.3875401556484697,1.79292184816361
-4.001,0.4622313796521803,1.845905040189398
-4.0005,0.4622313796522288,1.782325209758317
-4,0.4408910299368829,1.644568910491266
-3.9995,0.408880505363835,1.464426057603419
-3.999,0.3982103305061524,1.263089927905238
-3.9985,0.3555296310754218,1.00877060618122
-3.998,0.01408403562957729,0.383568940276341
-3.9975,-0.391382608962363,-0.4853554089473885
-3.997,-0.5194247072545548,-1.216523458903942
-3.9965,-0.6367966306890638,-1.672178910326141
-3.996,-0.4127229586777283,-1.449649503817625
-3.9955,-0.03926683865883591,-1.004590690800593
-3.995,0.2594980573562781,-0.6972881770507372
-3.9945,0.4515612047945656,-0.5595318777835605
-3.994,0.5475927785137094,-0.5383386009732256
-3.9935,0.5582629533713921,-0.6019184314042303
-3.993,0.5369226036560266,-0.6866915386455698
-3.9925,0.7396559259519968,-0.8350444763179138
-3.992,0.8036769750980928,-0.7396747306714069
-3.9915,0.7183155762366316,-0.4641621321370536
-3.991,0.6009436528021226,-0.1674562567923655
-3.9905,0.5049120790829789,0.07626642652648545
-3.99,0.4302208550792003,0.2140227257936621
-3.9895,-0.01792648894347063,-0.1144730647665284
-3.989,-0.7861790786966207,-0.7078848154559045
-3.9885,-1.26633694729234,-1.131750351662602
-3.988,-1.586442193022819,-1.34368311976595
-3.9875,-1.959898313041711,-1.333086481360783
-3.987,-1.639793067311232,-0.8880276683437509
-3.9865,-0.9142211769888124,-0.04029659593035631
-3.986,-0.2846808603855366,0.7438546460520338
-3.9855,0.142126133921769,1.284283204715573
-3.985,0.3768699807907871,1.570392441655093
-3.9845,0.4622313796522482,1.655165548896433
-3.984,0.4729015545099309,1.623375633680931
-3.9835,0.4408910299368829,1.506812611224089
-3.983,0.3982103305061524,1.369056311956912
-3.9825,0.3661998059331045,1.188913459069066
-3.982,0.3555296310754218,0.9981739677760521
-3.9815,0.1527963087794516,0.6378882620003594
-3.981,-0.4980843575391895,-0.1356663415768632
-3.9805,-1.031593100423322,-0.9092209451540858
-3.98,-1.255666772434657,-1.481439419033127
-3.9795,-1.084943974711735,-1.47084278062796
-3.979,-0.5300948821122373,-0.9410108603695881
-3.9785,-0.02859666380115328,-0.4853554089473885
-3.978,0.3128489316446912,-0.2628260024388724
-3.9775,0.5049120790829789,-0.2840192792492073
-3.977,0.5796033030867573,-0.400582301706049
-3.9765,0.6009436528021226,-0.4853554089473885
-3.976,0.6542945270905358,-0.6231117082145651
-3.9755,0.6969752265212663,-0.5913217929990628
-3.975,0.6436243522328531,-0.4217755785163839
-3.9745,0.5689331282290746,-0.2310360872233701
-3.974,0.4942419042252961,-0.04029659593035631
-3.9735,0.4622313796522482,0.1292496185523226
-3.973,0.2488278824985954,-0.01910331912002144
-3.9725,-0.4767440078238243,-0.570128516188728
-3.972,-1.1062843244271,-1.068170521231597
-3.9715,-1.298347471865388,-1.322489842955616
-3.971,-1.639793067311232,-1.354279758171118
-3.9705,-1.778505340461106,-1.142346990067769
-3.97,-1.202315898146244,-0.400582301706049
-3.9695,-0.5407650569699201,0.457745409112513
-3.969,-0.02859666380115328,1.114736990232894
-3.9685,0.2808384070716433,1.517409249629256
-3.968,0.4302208550792003,1.686955464111935
-3.9675,0.4729015545099309,1.697552102517103
-3.967,0.4622313796522482,1.623375633680931
-3.9665,0.4302208550792003,1.485619334413754
-3.966,0.408880505363835,1.316073119931075
-3.9655,0.3875401556484697,1.125333628638062
-3.965,0.3448594562177392,0.9028042221295453
-3.9645,-0.04993701351651855,0.2987958330350016
-3.964,-0.274010685527854,-0.4641621321370536
-3.9635,-0.4767440078238243,-1.110557074852267
-3.963,-0.8608703027003992,-1.566212526274467
-3.9625,-0.7008176798351597,-1.333086481360783
-3.962,-0.2846808603855366,-0.8138511995075789
-3.9615,0.1207857842064037,-0.4429688553267188
-3.961,0.3768699807907871,-0.2840192792492073
-3.9605,0.5049120790829789,-0.2204394488182027
-3.96,0.5475927785137094,-0.2840192792492073
-3.9595,0.6116138276598051,-0.4217755785163839
-3.959,0.7823366253827275,-0.570128516188728
-3.9585,0.7609962756673623,-0.5489352393783931
-3.958,0.6649647019482183,-0.400582301706049
-3.9575,0.5689331282290746,-0.2098428104130352
-3.957,0.4835717293676135,-0.01910331912002144
-3.9565,0.3875401556484697,-0.008506680714854012
-3.956,-0.1352984123779797,-0.4641621321370536
-3.9555,-0.690147504977477,-0.9939940523954253
-3.955,-1.138294849000148,-1.354279758171118
-3.9545,-1.575772018165136,-1.47084278062796
-3.954,-1.991908837614759,-1.354279758171118
-3.9535,-1.597112367880501,-0.7608680074817418
-3.953,-0.8502001278427167,0.1186529801471552
-3.9525,-0.2313299860971235,0.8816109453192104
-3.952,0.1848068333524996,1.37965295036208
-3.9515,0.3982103305061524,1.633972272086098
-3.951,0.4729015545099309,1.697552102517103
-3.9505,0.4729015545099309,1.644568910491266
-3.95,0.4408910299368829,1.528005888034424
-3.9495,0.3982103305061524,1.37965295036208
-3.949,0.3661998059331045,1.199510097474233
-3.9485,0.3341892813600565,0.9769806909657173
-3.948,-0.06060718837420119,0.3623756634660061
-3.9475,-0.690147504977477,-0.4959520473525559
-3.947,-1.084943974711735,-1.216523458903942
-3.9465,-0.9248913518464952,-1.672178910326141
-3.946,-0.3060212101009019,-1.481439419033127
-3.9455,0.1954770082101822,-0.9939940523954253
-3.945,0.4942419042252961,-0.6231117082145651
-3.9445,0.6009436528021226,-0.3899856633008816
-3.944,0.6116138276598051,-0.3475991096802118
-3.9435,0.5902734779444399,-0.3899856633008816
-3.943,0.5582629533713921,-0.474758770542221
-3.9425,0.5902734779444399,-0.6443049850249
-3.942,0.5902734779444399,-0.6549016234300674
-3.9415,0.5475927785137094,-0.4959520473525559
-3.941,0.5049120790829789,-0.2840192792492073
-3.9405,0.4729015545099309,-0.06148987274069118
-3.94,0.4302208550792003,0.1292496185523226
-3.9395,0.02475421048725994,-0.1250697031716958
-3.939,-0.4447334832507763,-0.6549016234300674
-3.9385,-0.658136980404429,-1.068170521231597
-3.938,-0.9569018764195432,-1.269506650929778
-3.9375,-1.405049220442214,-1.280103289334946
-3.937,-1.330357996438436,-0.8244478379127463
-3.9365,-0.7968492535543035,0.03387987290581572
-3.936,-0.2633405106701714,0.8286277532933731
-3.9355,0.1314559590640864,1.37965295036208
-3.935,0.3448594562177392,1.686955464111935
-3.9345,0.4408910299368829,1.79292184816361
-3.934,0.4622313796522482,1.761131932948107
-3.9335,0.4302208550792003,1.6657621873016
-3.933,0.408880505363835,1.517409249629256
-3.9325,0.3875401556484697,1.347863035146577
-3.932,0.3768699807907871,1.146526905448396
-3.9315,0.1848068333524996,0.701468092431364
-3.931,-0.391382608962363,-0.1462629799820306
-3.9305,-0.6688071552621118,-0.9410108603695881
-3.93,-0.9142211769888124,-1.502632695843462
-3.9295,-0.7968492535543035,-1.417859588602123
-3.929,-0.3273615598162672,-0.9622041371799229
-3.9285,0.1101156093487211,-0.6125150698093976
-3.928,0.4195506802215176,-0.4429688553267188
-3.9275,0.5582629533713921,-0.4111789401112165
-3.927,0.5796033030867573,-0.474758770542221
-3.9265,0.5689331282290746,-0.5489352393783931
-3.926,0.6863050516635838,-0.6866915386455698
-3.9255,0.8783681991018712,-0.7502713690765743
-3.925,0.825017324813458,-0.570128516188728
-3.9245,0.6969752265212663,-0.3052125560595421
-3.924,0.5689331282290746,-0.05089323433552374
-3.9235,0.4835717293676135,0.1610395337678249
-3.923,0.408880505363835,0.4895353243280153
-3.9225,0.5902734779444399,0.7968378380778709
-3.922,0.2168173579255475,0.2670059178194992
-3.9215,-0.2633405106701714,-0.2734226408440398
-3.921,-0.7755089038389382,-0.6443049850249
-3.9205,-1.330357996438436,-0.9516074987747555
-3.92,-1.26633694729234,-0.718481453861072
-3.9195,-0.7648387289812555,-0.008506680714854012
-3.919,-0.2420001609548061,0.7120647308365314
-3.9185,0.1314559590640864,1.241896651094903
-3.918,0.3448594562177392,1.549199164844759
-3.9175,0.4408910299368829,1.686955464111935
-3.917,0.4515612047945656,1.697552102517103
-3.9165,0.4302208550792003,1.633972272086098
-3.916,0.3875401556484697,1.538602526439591
-3.9155,0.3555296310754218,1.390249588767247
-3.915,0.3128489316446912,1.210106735879401
-3.9145,-0.02859666380115328,0.6802748156210291
-3.914,-0.7328282044082075,-0.2098428104130352
-3.9135,-1.191645723288561,-0.9939940523954253
-3.913,-1.127624674142465,-1.0999604364471
-3.9125,-0.6367966306890638,-0.7290780922662394
-3.912,-0.1459685872356623,-0.3687923864905467
-3.9115,0.2274875327832301,-0.252229364033705
-3.911,0.4622313796522482,-0.3370024712750445
-3.9105,0.5689331282290746,-0.4535654937318862
-3.91,0.6009436528021226,-0.5913217929990628
-3.9095,0.6116138276598051,-0.6337083466197325
-3.909,0.7823366253827275,-0.4429688553267188
-3.9085,0.7716664505250448,-0.3475991096802118
-3.908,0.6649647019482183,-0.2946159176543747
-3.9075,0.5582629533713921,-0.2310360872233701
-3.907,0.4942419042252961,-0.1038764263613609
-3.9065,0.408880505363835,-0.1038764263613609
-3.906,-0.09261771294724913,-0.5171453241628908
-3.9055,-0.658136980404429,-1.004590690800593
-3.905,-1.277007122150022,-1.34368311976595
-3.9045,-1.906547438753298,-1.42845622700729
-3.904,-2.226652684483777,-1.258910012524611
-3.9035,-1.746494815888059,-0.6231117082145651
-3.903,-0.8928808272734472,0.2987958330350016
-3.9025,-0.2313299860971235,1.082947075017392
-3.902,0.1954770082101822,1.612778995275763
-3.9015,0.408880505363835,1.867098316999781
-3.901,0.4835717293676135,1.951871424241121
-3.9005,0.4835717293676135,1.898888232215284
-3.9,0.4408910299368829,1.782325209758442
-3.8995,0.3982103305061524,1.612778995275763
-3.899,0.3661998059331045,1.411442865577582
-3.8985,0.3555296310754218,1.178316820663898
-3.898,0.03542438534494258,0.627291623595192
-3.8975,-0.6154562809736985,-0.2628260024388724
-3.897,-1.148965023857831,-1.046977244421262
-3.8965,-1.298347471865388,-1.417859588602123
-3.896,-0.8181896032696687,-1.142346990067769
-3.8955,-0.2313299860971235,-0.7714646458869092
-3.895,0.2168173579255475,-0.5171453241628908
-3.8945,0.4729015545099309,-0.4959520473525559
-3.894,0.5902734779444399,-0.6337083466197325
-3.8935,0.6116138276598051,-0.7290780922662394
-3.893,0.5902734779444399,-0.8244478379127463
-3.8925,0.6649647019482183,-0.9410108603695881
-3.892,0.6756348768059011,-0.8456411147230812
-3.8915,0.6009436528021226,-0.6019184314042303
-3.891,0.5262524287983441,-0.326405832869877
-3.8905,0.4729015545099309,-0.05089323433552374
-3.89,0.4408910299368829,0.1822328105781598
-3.8895,0.1741366584948169,-0.008506680714854012
-3.889,-0.5087545323968721,-0.5383386009732256
-3.8885,-1.031593100423322,-0.9622041371799229
-3.888,-1.415719395299897,-1.163540266878104
-3.8875,-1.895877263895616,-1.163540266878104
-3.887,-1.789175515318789,-0.8032545611024114
-3.8865,-1.06360362499637,0.02328323450064829
