Class_7_Listen_To_Music/Class_7_Listen_To_Music_Zakour_7.csv

#Digilent WaveForms Oscilloscope Acquisition
#Device Name: EExplorer
#Serial Number: SN:210151A2B84A
#Date Time: 2020-12-21 15:19:23.724
#Sample rate: 2000Hz
#Samples: 16384
#Trigger: Source: Channel 1 Type: Edge Condition: Rising Level: 0 V Hyst.: Auto HoldOff: 0 s
#Channel 1: Range: 1 V/div Offset: 0 V
#Channel 2: Range: 1 V/div Offset: 0 V

Time (s),Channel 1 (V),Channel 2 (V)
-4.0960000000000001,-0.77550890383893822,-0.04029659593035631
-4.0955000000000004,-0.15663876209390781,-0.50654868575729939
-4.0949999999999998,0.21681735792570275,-0.69728817705070834
-4.0945,0.38754015564846972,-0.66549826183523486
-4.0940000000000003,0.43022085507916152,-0.51714532416302572
-4.0934999999999997,0.41955068022146913,-0.31580919446450717
-4.093,0.36619980593310447,-0.093279787956193475
-4.0925000000000002,0.28083840707172092,0.10805634174180463
-4.0919999999999996,0.19547700821012395,0.28819919462999793
-4.0914999999999999,0.13145595906408636,0.46834204751768049
-4.0910000000000002,-0.13529841237797968,0.71206473083653143
-4.0904999999999996,-0.82885977812796285,1.029963882991805
-4.0899999999999999,-1.5010807941613578,1.3054764815259077
-4.0895000000000001,-1.9278877884686634,1.3796529503620798
-4.0890000000000004,-1.5117509690194191,0.88161094531966333
-4.0884999999999998,-0.6047861061160158,0.12924961855232261
-4.0880000000000001,0.19547700821018218,-0.49595204735255594
-4.0875000000000004,0.68630505166313738,-0.86683439153307873
-4.0869999999999997,0.87836819910189068,-1.0575738828264685
-4.0865,0.8997085488172365,-1.0999604364470996
-4.0860000000000003,0.80367697509818015,-0.97280077558520606
-4.0854999999999997,0.87836819910196828,-0.79265792269702229
-4.085,0.98506994767869771,-0.54893523937839306
-4.0845000000000002,0.88903837395964114,-0.44296885532681513
-4.0839999999999996,0.7076454013788035,-0.37938902489566595
-4.0834999999999999,0.54759277851370936,-0.32640583286987701
-4.0830000000000002,0.45156120479456557,-0.24163272562853755
-4.0824999999999996,0.3982103305059001,0.10805634174245035
-4.0819999999999999,0.12078578420640371,0.61669498519002452
-4.0815000000000001,-0.34870190953163249,1.0299638829915545
-4.0810000000000004,-0.98891240099200883,1.2736865663101837
-4.0804999999999998,-1.2556667724346571,1.146526905448396
-4.0800000000000001,-0.91422117698881245,0.48953532432801533
-4.0795000000000003,-0.42339313353585739,-0.18864953360208353
-4.0789999999999997,-0.02859666380092037,-0.63370834661990605
-4.0785,0.22748753278323011,-0.82444783791274634
-4.0780000000000003,0.34485945621763242,-0.82444783791274634
-4.0774999999999997,0.38754015564846972,-0.69728817705058299
-4.077,0.38754015564846972,-0.52774196256805828
-4.0765000000000002,0.34485945621777797,-0.33700247127521793
-4.0759999999999996,0.25949805735623926,-0.14626297998188609
-4.0754999999999999,0.21681735792554749,0.012686596095480854
-4.0750000000000002,0.17413665849481691,0.17163617217299235
-4.0744999999999996,0.046094560202120584,0.39416557868179752
-4.0739999999999998,-0.50875453239687207,0.71206473083653143
-4.0735000000000001,-1.3090176467230703,1.0193672445863871
-4.0730000000000004,-1.9919088376141383,1.2948798431204898
-4.0724999999999998,-2.1626316353376818,1.1995100974742332
-4.0720000000000001,-1.2663369472923398,0.47893868592284788
-4.0715000000000003,-0.26334051067108355,-0.18864953360209319
-4.0709999999999997,0.44089102993722262,-0.65490162343027947
-4.0705,0.81434714995577528,-0.88802766834375091
-4.0700000000000003,0.91037872367483186,-0.96220413717985542
-4.0694999999999997,0.85702784938645749,-0.90922094515398943
-4.069,0.80367697509809277,-0.80325456110241145
-4.0685000000000002,0.92104889853260175,-0.57012851618872795
-4.0679999999999996,0.89970854881711038,-0.44296885532665131
-4.0674999999999999,0.76099627566736228,-0.36879238649054674
-4.0670000000000002,0.59027347794443985,-0.33700247127504446
-4.0664999999999996,0.48357172936747767,-0.30521255605934938
-4.0659999999999998,0.33418928136005654,-0.093279787956193475
-4.0655000000000001,0.20614718306786484,0.40476221708667587
-4.0650000000000004,-0.12462823751999624,0.86041766850846102
-4.0644999999999998,-0.79684925355430347,1.1677201822587309
-4.0640000000000001,-1.5330913187344057,1.3160731199310751
-4.0635000000000003,-1.6077825427381163,1.0299638829918147
-4.0629999999999997,-1.074273799853499,0.31998910984473888
-4.0625,-0.46607383296614152,-0.33700247127504446
-4.0620000000000003,-0.017926488943878216,-0.71848145386072504
-4.0614999999999997,0.24882788249871185,-0.84564111472303305
-4.0609999999999999,0.3768699807907871,-0.792657922697244
-4.0605000000000002,0.40888050536383502,-0.63370834661973252
-4.0599999999999996,0.3875401556484212,-0.43237221692136818
-4.0594999999999999,0.33418928136005654,-0.2310360872233701
-4.0590000000000002,0.28083840707164331,-0.04029659593035631
-4.0585000000000004,0.23815770764095157,0.1292496185521684
-4.0579999999999998,0.21681735792554749,0.33058574825050385
-4.0575000000000001,0.078105084775673142,0.6590815388106942
-4.0570000000000004,-0.29535103524287964,1.0087706061809016
-4.0564999999999998,-0.72215802955052499,1.2842832047155728
-4.056,-1.0422632752810042,1.4538294191982519
-4.0555000000000003,-0.90355100213125605,1.1147369902332025
-4.0549999999999997,-0.27401068552732027,0.36237566346544714
-4.0545,0.31284893164469124,-0.25222936403370499
-4.0540000000000003,0.67563487680557111,-0.63370834661938558
-4.0534999999999997,0.80367697509808311,-0.8456411147231101
-4.0529999999999999,0.79300680024041004,-0.87743102993858346
-4.0525000000000002,0.73965592595199681,-0.80325456110241145
-4.0519999999999996,0.91037872367495809,-0.59132179299886045
-4.0514999999999999,0.95305942310564973,-0.36879238649054674
-4.0510000000000002,0.80367697509809277,-0.29461591765437467
-4.0505000000000004,0.62228400251765281,-0.26282600243890131
-4.0499999999999998,0.4835717293676135,-0.22043944881820265
-4.0495000000000001,0.38754015564846972,-0.10387642636136091
-4.0490000000000004,0.024754210487589912,0.33058574825010872
-4.0484999999999998,-0.61545628097431959,0.80743447648335642
-4.048,-1.2983474718653876,1.1571235438535634
-4.0475000000000003,-1.9278877884680909,1.3266697583360885
-4.0469999999999997,-2.0132491873295328,1.1995100974736357
-4.0465,-1.3623685210114835,0.54251851635385251
-4.0460000000000003,-0.6367966306897237,-0.17805289519687761
-4.0454999999999997,-0.092617712946948288,-0.65490162343025049
-4.0449999999999999,0.23815770764091276,-0.85623775312824868
-4.0445000000000002,0.3768699807907871,-0.84564111472308123
-4.0439999999999996,0.41955068022150793,-0.71848145386089846
-4.0434999999999999,0.40888050536383502,-0.52774196256805828
-4.0430000000000001,0.36619980593310447,-0.31580919446470956
-4.0425000000000004,0.31284893164473976,-0.12506970317186925
-4.0419999999999998,0.24882788249859539,0.044476511310983152
-4.0415000000000001,0.17413665849481691,0.2246193641988295
-4.0410000000000004,-0.11395806266235237,0.48953532432777441
-4.0404999999999998,-0.88221065241646324,0.86041766850918389
-4.04,-1.6504632421689147,1.1995100974742332
-4.0395000000000003,-2.1839719850525614,1.3372663967412848
-4.0389999999999997,-1.7464948158871658,0.93459413734439212
-4.0385,-0.76483872898125549,0.21402272579366208
-4.0380000000000003,0.078105084774906519,-0.37938902489517445
-4.0374999999999996,0.62228400251769167,-0.76086800748187666
-4.0369999999999999,0.84635767452882327,-0.9092209451540858
-4.0365000000000002,0.857027849386506,-0.84564111472308123
-4.0359999999999996,0.78233662538279547,-0.6760949002401806
-4.0354999999999999,0.857027849386506,-0.43237221692155131
-4.0350000000000001,0.97439977282101498,-0.1674562567923655
-4.0345000000000004,0.85702784938661281,-0.1462629799820499
-4.0339999999999998,0.66496470194821833,-0.19924617200786782
-4.0335000000000001,0.50491207908297886,-0.24163272562853755
-4.0330000000000004,0.4088805053639224,-0.23103608722337973
-4.0324999999999998,0.64362435223321213,-0.1356663415767379
-4.032,1.0384208219671107,0.0020899576903134209
-4.0315000000000003,0.41955068022208053,0.40476221708630966
-4.0309999999999997,-0.51942470725535062,0.81803111488844671
-4.0305,-1.3943790455845313,1.0829470750173917
-4.0300000000000002,-1.5330913187342796,0.89220758372455133
-4.0294999999999996,-1.0529334501381531,0.22461936419826087
-4.0289999999999999,-0.46607383296614152,-0.40058230170604903
-4.0285000000000002,-0.028596663801153277,-0.792657922697244
-4.0279999999999996,0.23815770764102923,-0.94101086036956882
-4.0274999999999999,0.36619980593310447,-0.91981758355925325
-4.0270000000000001,0.3982103305061524,-0.792657922697244
-4.0265000000000004,0.37686998079080652,-0.62311170821471928
-4.0259999999999998,0.32351910650237387,-0.43237221692155131
-4.0255000000000001,0.28083840707164331,-0.25222936403370499
-4.0250000000000004,0.2488278824986245,-0.093279787956338012
-4.0244999999999997,0.014084035629004732,0.20342608738891871
-4.024,-0.61545628097369853,0.66967817721586165
-4.0235000000000003,-0.94623170156155956,1.0935437134221737
-4.0229999999999997,-0.90355100213082906,1.379652950361993
-4.0225,-0.57277558154296804,1.2842832047155728
-4.0220000000000002,0.11011560934810005,0.66967817721642064
-4.0214999999999996,0.67563487680616308,-0.040296595930780367
-4.0209999999999999,0.96372959796333246,-0.50654868575772338
-4.0205000000000002,1.0490909968247935,-0.71848145386107198
-4.0199999999999996,0.97439977282087908,-0.71848145386098528
-4.0194999999999999,0.82501732481345802,-0.62311170821456507
-4.0190000000000001,0.71831557623663156,-0.50654868575772338
-4.0185000000000004,0.79300680024034209,-0.48535540894740775
-4.0179999999999998,0.75032610080967954,-0.3581957480853793
-4.0175000000000001,0.62228400251748783,-0.19924617200786782
-4.0170000000000003,0.50491207908308566,-0.061489872740816465
-4.0164999999999997,0.41955068022135267,0.044476511311146993
-4.016,0.23815770764091276,0.2246193641988295
-4.0155000000000003,-0.46607383296550103,0.62729162359482582
-4.0149999999999997,-1.3303579964388432,1.0087706061814123
-4.0145,-1.7785053404611064,1.2207033742845681
-4.0140000000000002,-2.0879404113336215,1.2630899279051993
-4.0134999999999996,-1.981238662756436,1.0405605213960569
-4.0129999999999999,-1.2770071221500223,0.30939247144016896
-4.0125000000000002,-0.5621054066852853,-0.44296885532671876
-4.0119999999999996,-0.039266838658564188,-0.94101086036979054
-4.0114999999999998,0.25949805735627807,-1.1635402668781043
-4.0110000000000001,0.38754015564846972,-1.1741369052832717
-4.0105000000000004,0.41955068022148856,-1.0575738828265357
-4.0099999999999998,0.3982103305061524,-0.86683439153341613
-4.0095000000000001,0.34485945621773917,-0.65490162343006741
-4.0090000000000003,0.21681735792566395,-0.4323722169217537
-4.0084999999999997,0.13145595906402813,-0.20984281041280392
-4.008,0.067434909917990504,0.044476511310983152
-4.0075000000000003,-0.34870190953125402,0.41535885549150597
-4.0069999999999997,-1.0209229255661241,0.8710143069143802
-4.0065,-1.554431668449771,1.241896651094903
-4.0060000000000002,-1.5757720181651362,1.2313000126897355
-4.0054999999999996,-0.80751942841120961,0.64848490040497753
-4.0049999999999999,0.046094560202625215,0.044476511310983152
-4.0045000000000002,0.6116138276598051,-0.38998566330088158
-4.0039999999999996,0.86769802424420794,-0.62311170821459394
-4.0034999999999998,0.88903837395955376,-0.65490162343006741
-4.0030000000000001,0.80367697509809277,-0.59132179299906285
-4.0025000000000004,0.69697522652136334,-0.48535540894748486
-4.0019999999999998,0.80367697509809277,-0.22043944881820265
-4.0015000000000001,0.80367697509809277,-0.20984281041303524
-4.0010000000000003,0.69697522652136334,-0.25222936403366647
-4.0004999999999997,0.62228400251741023,-0.19924617200781963
-4,0.53692260365602662,-0.14626297998203064
-3.9994999999999998,0.49424190422529612,-0.061489872740691176
-3.9990000000000001,0.83568749967114075,0.29879583303500157
-3.9984999999999999,0.83568749967114075,0.775644561267536
-3.9980000000000002,0.13145595906408636,1.1253336286380615
-3.9975000000000001,-0.73282820440820751,1.2948798431207402
-3.9969999999999999,-1.2236562478616091,1.1571235438535634
-3.9965000000000002,-0.98891240099259115,0.47893868592284788
-3.996,-0.51942470725455481,-0.27342264084403983
-3.9954999999999998,-0.10328788780493176,-0.78206128429207655
-3.9950000000000001,0.17413665849481691,-1.01518732920576
-3.9944999999999999,0.32351910650237387,-1.0363806060160949
-3.9940000000000002,0.3768699807907871,-0.91981758355925325
-3.9935,0.3768699807907871,-0.75027136907657432
-3.9929999999999999,0.35552963107542179,-0.53833860097322561
-3.9925000000000002,0.30217875678700862,-0.34759910968021185
-3.992,0.24882788249859539,-0.1674562567923655
-3.9914999999999998,0.21681735792554749,0.012686596095480854
-3.9910000000000001,-0.028596663801153277,0.29879583303500157
-3.9904999999999999,-0.65813698040442903,0.74385464605203377
-3.9900000000000002,-1.3623685210114835,1.1359302670432285
-3.9895,-2.0025790124724421,1.4008462271724147
-3.9889999999999999,-1.7038141164573279,1.3266697583362426
-3.9885000000000002,-0.71148785469284226,0.62729162359519197
-3.988,0.14212613392176898,-0.082683149551026042
-3.9874999999999998,0.66496470194821833,-0.5807251545938954
-3.9870000000000001,0.857027849386506,-0.78206128429207655
-3.9864999999999999,0.857027849386506,-0.77146464588690922
-3.9860000000000002,0.76099627566736228,-0.68669153864556975
-3.9855,0.79300680024041004,-0.48535540894738849
-3.9849999999999999,0.98506994767869771,-0.1674562567923655
-3.9845000000000002,0.88903837395955376,-0.093279787956193475
-3.984,0.70764540137894905,-0.11447306476652835
-3.9834999999999998,0.53692260365602662,-0.12506970317169577
-3.9830000000000001,0.43022085507920033,-0.11447306476652835
-3.9824999999999999,0.55826295337139209,0.11865298014715518
-3.9820000000000002,0.91037872367491923,0.59550170837968963
-3.9815,0.47290155450993088,1.0299638829915545
-3.9809999999999999,-0.22065981123944084,1.2313000126897355
-3.9805000000000001,-1.0315931004233216,1.2630899279052379
-3.98,-1.2876772970077051,0.94519077575021493
-3.9794999999999998,-0.92489135184649518,0.23521600260399694
-3.9790000000000001,-0.42339313353541097,-0.38998566330088158
-3.9784999999999999,-0.028596663801153277,-0.75027136907657432
-3.9780000000000002,0.21681735792554749,-0.87743102993858346
-3.9775,0.34485945621773917,-0.82444783791274634
-3.9769999999999999,0.3768699807907871,-0.67609490024040231
-3.9765000000000001,0.36619980593310447,-0.48535540894738849
-3.976,0.32351910650237387,-0.29461591765437467
-3.9754999999999998,0.25949805735627807,-0.11447306476652835
-3.9750000000000001,0.18480683335249956,0.055073149716150585
-3.9744999999999999,0.11011560934872107,0.27760255622466667
-3.9740000000000002,-0.40205278382004572,0.62729162359519197
-3.9735,-1.2023158981462438,1.0087706061812196
-3.9729999999999999,-1.7358246410303759,1.2948798431207402
-3.9725000000000001,-1.5971123678805015,1.1147369902328941
-3.972,-0.73282820440820751,0.4471487707073456
-3.9714999999999998,0.11011560934872107,-0.1674562567923655
-3.9710000000000001,0.64362435223285308,-0.59132179299906285
-3.9704999999999999,0.86769802424418851,-0.86683439153341613
-3.9700000000000002,0.88903837395955376,-0.9304142219644207
-3.9695,0.83568749967114075,-0.84564111472308123
-3.9689999999999999,0.76099627566736228,-0.73967473067140688
-3.9685000000000001,0.92104889853260175,-0.43237221692155131
-3.968,0.93171907339028448,-0.25222936403370499
-3.9674999999999998,0.83568749967114075,-0.2310360872233701
-3.9670000000000001,0.69697522652126631,-0.26282600243887239
-3.9664999999999999,0.5689331282290746,-0.27342264084403983
-3.9660000000000002,0.41955068022151765,-0.1674562567923655
-3.9655,0.15279630877945163,0.28819919462983412
-3.9649999999999999,-0.27401068552785401,0.775644561267536
-3.9645000000000001,-1.0422632752810042,1.1147369902328941
-3.964,-1.7464948158880587,1.2736865663104053
-3.9634999999999998,-1.7891755153187892,1.0723504366122243
-3.9630000000000001,-1.2023158981462438,0.39416557868150842
-3.9624999999999999,-0.54076505696992005,-0.27342264084403983
-3.9620000000000002,-0.049937013516518552,-0.6972881770507372
-3.9615,0.23815770764091276,-0.84564111472308123
-3.9609999999999999,0.36619980593310447,-0.80325456110241145
-3.9605000000000001,0.3982103305061524,-0.65490162343006741
-3.96,0.3768699807907871,-0.4641621321370536
-3.9594999999999998,0.31284893164469124,-0.26282600243887239
-3.9590000000000001,0.24882788249859539,-0.072086511145858609
-3.9584999999999999,0.20614718306786484,0.086863064931652884
-3.9580000000000002,0.08877525963335578,0.30939247144016896
-3.9575,-0.28468086038553664,0.60609834678485708
-3.9569999999999999,-1.0102527507079564,0.97698069096571727
-3.9565000000000001,-1.6397930673112322,1.2736865663104053
-3.956,-1.8852070890379329,1.3478630351465775
-3.9554999999999998,-1.1062843244271001,0.88161094531921036
-3.9550000000000001,-0.19931946152407554,0.15044289536265748
-3.9544999999999999,0.45156120479456557,-0.4535654937318862
-3.9540000000000002,0.82501732481345802,-0.82444783791274634
-3.9535,0.93171907339028448,-0.98339741399025782
-3.9529999999999998,0.86769802424418851,-0.91981758355925325
-3.9525000000000001,0.73965592595199681,-0.76086800748174177
-3.952,0.76099627566736228,-0.47475877054222104
-3.9514999999999998,0.81434714995577528,-0.2310360872233701
-3.9510000000000001,0.73965592595199681,-0.22043944881820265
-3.9504999999999999,0.63295417737517057,-0.22043944881820265
-3.9500000000000002,0.50491207908297886,-0.19924617200786782
-3.9495,0.44089102993688295,-0.14626297998203064
-3.9489999999999998,0.79300680024041004,0.19282944898332721
-3.9485000000000001,0.8997085488172365,0.68027481562102909
-3.948,0.13145595906408636,1.0511571598018894
-3.9474999999999998,-0.57277558154296804,1.1359302670432285
-3.9470000000000001,-1.2129860730039266,1.1041403518277266
-3.9464999999999999,-1.1809755484308786,0.64848490040552687
-3.9460000000000002,-0.73282820440820751,-0.029699957525188878
-3.9455,-0.26334051067017139,-0.57012851618872795
-3.9449999999999998,0.078105084775673142,-0.84564111472308123
-3.9445000000000001,0.27016823221396069,-0.89862430674891836
-3.944,0.35552963107542179,-0.81385119950757889
-3.9434999999999998,0.3768699807907871,-0.64430498502489997
-3.9430000000000001,0.35552963107542179,-0.44296885532671876
-3.9424999999999999,0.29150858192932599,-0.25222936403370499
-3.9420000000000002,0.23815770764091276,-0.082683149551026042
-3.9415,0.20614718306786484,0.086863064931652884
-3.9409999999999998,0.046094560202625215,0.29879583303500157
-3.9405000000000001,-0.61545628097369853,0.69087145402619654
-3.9399999999999999,-1.2876772970077051,1.0829470750173917
-3.9394999999999998,-1.6504632421689147,1.33726639674141
-3.9390000000000001,-1.4157193952998968,1.2842832047155728
-3.9384999999999999,-0.65813698040442903,0.60609834678485708
-3.9380000000000002,0.099445434491038431,-0.12506970317169577
-3.9375,0.57960330308675734,-0.63370834661973252
-3.9369999999999998,0.77166645052504479,-0.87743102993858346
-3.9365000000000001,0.80367697509809277,-0.88802766834375091
-3.9359999999999999,0.72898575109431429,-0.792657922697244
-3.9355000000000002,0.69697522652126631,-0.59132179299906285
-3.9350000000000001,0.78233662538272752,-0.31580919446470956
-3.9344999999999999,0.75032610080967954,-0.20984281041303524
-3.9340000000000002,0.69697522652126631,-0.12506970317169577
-3.9335,0.57960330308675734,-0.10387642636136091
-3.9329999999999998,0.4835717293676135,-0.10387642636136091
-3.9325000000000001,0.6116138276598051,0.065669788121318018
-3.9319999999999999,0.97439977282101498,0.50013196273318283
-3.9315000000000002,0.65429452709053582,0.92399749893988004
-3.931,-0.25267033581248871,1.1889134590690658
-3.9304999999999999,-1.2556667724346571,1.2948798431207402
-3.9300000000000002,-1.5117509690190405,0.98757732937088472
-3.9295,-1.0849439747117349,0.23521600260399694
-3.9289999999999998,-0.51942470725455481,-0.44296885532671876
-3.9285000000000001,-0.071277363231883828,-0.84564111472308123
