Class_7_Listen_To_Music/Class_7_Listen_To_Music_Basim_4.csv

#Digilent WaveForms Oscilloscope Acquisition
#Device Name: EExplorer
#Serial Number: SN:210151A2B84A
#Date Time: 2020-11-18 11:23:59.605
#Sample rate: 2000Hz
#Samples: 16384
#Trigger: Source: Channel 1 Type: Edge Condition: Rising Level: 0 V Hyst.: Auto HoldOff: 0 s
#Channel 1: Range: 1 V/div Offset: 0 V Attenuation: 1 X
#Channel 2: Range: 1 V/div Offset: 0 V Attenuation: 1 X
#Power Supplies: ON
#Fixed Supply: ON
#Voltage: 3.3 V Readback: 3.318 V
#Positive Supply: ON
#Voltage: 3.7 V Readback: 3.712 V
#Current: 500 mA Readback: 20 mA
#Negative Supply: ON
#Voltage: -3.7 V Readback: -3.705 V
#Current: -500 mA Readback: -9 mA
#Reference 1: ON
#Voltage: 0 V
#Reference 2: ON
#Voltage: 0 V

Time (s),Channel 1 (V),Channel 2 (V)
-4.096,0.3341892813600565,0.7332580076468663
-4.0955,0.3128489316447107,0.7120647308365508
-4.095,0.2915085819293163,0.6802748156210002
-4.0945,0.2808384070716433,0.6484849004055269
-4.094,0.2701682322139704,0.5955017083797378
-4.0935,0.1421261339212061,0.2987958330342884
-4.093,-0.4767440078238243,-0.4853554089473885
-4.0925,-1.148965023857219,-1.258910012523907
-4.092,-1.682473766741643,-1.873515040024621
-4.0915,-1.330357996438436,-2.202010830584512
-4.091,-0.5300948821122373,-1.937094870455327
-4.0905,0.09944543449135868,-1.258910012523936
-4.09,0.4515612047945656,-0.5171453241628908
-4.0895,0.5796033030867573,0.06566978812131802
-4.089,0.5689331282290843,0.4047622170863674
-4.0885,0.4942419042252961,0.5319218779486851
-4.088,0.4835717293676135,0.5955017083796896
-4.0875,0.5902734779443428,0.733258007646741
-4.087,0.5689331282289872,0.6590815388105593
-4.0865,0.4729015545099309,0.5107286011383502
-4.086,0.3875401556485474,0.3835689402764567
-4.0855,0.3235191065021507,0.3093924714403906
-4.085,0.07810508477567314,0.55311515475902
-4.0845,-0.6581369804037595,1.135930267042699
-4.084,-1.426389570158103,0.8710143069132623
-4.0835,-2.002579012472442,0.01268659609548085
-4.083,-2.141291285622316,-0.05089323433552374
-4.0825,-1.501080794160679,0.1186529801472805
-4.082,-0.754168554123573,0.2564092794143318
-4.0815,-0.1779791118087102,0.3623756634660061
-4.081,0.1741366584944967,0.4577454091124263
-4.0805,0.3341892813600565,0.5425185163538525
-4.08,0.3875401556484697,0.627291623595192
-4.0795,0.3768699807907968,0.7014680924312965
-4.079,0.3448594562177101,0.7756445612675745
-4.0785,0.3128489316446912,0.8180311148882058
-4.078,0.2915085819293454,0.8392243916985213
-4.0775,0.2808384070716142,0.8286277532932864
-4.077,0.2488278824985954,0.7332580076468663
-4.0765,-0.2313299860966868,0.1822328105786609
-4.076,-0.914221176989123,-0.6231117082150566
-4.0755,-1.255666772434657,-1.163540266878104
-4.075,-1.020922925565639,-1.481439419033127
-4.0745,-0.3487019095311085,-1.481439419032684
-4.074,0.2274875327832301,-0.9939940523954253
-4.0735,0.5262524287983441,-0.3581957480853793
-4.073,0.6436243522327463,0.1610395337673526
-4.0725,0.6116138276598051,0.5107286011383502
-4.072,0.5369226036560266,0.6908714540261965
-4.0715,0.4515612047946432,0.7650479228623011
-4.071,0.4622313796522288,0.7968378380778034
-4.0705,0.4408910299368829,0.7226613692416989
-4.07,0.3982103305061912,0.563711793164332
-4.0695,0.3555296310753927,0.3835689402762061
-4.069,0.3235191065023739,0.2352160026039969
-4.0685,0.2274875327832301,0.2776025562246667
-4.068,-0.2953510352437822,0.7968378380777263
-4.0675,-0.9142211769888124,0.6378882620003594
-4.067,-1.330357996438436,-0.2628260024388724
-4.0665,-1.437059745014874,-0.9410108603695014
-4.066,-1.010252750707956,-0.8456411147230812
-4.0655,-0.4660738329661415,-0.4323722169215513
-4.065,-0.049937013516897,-0.0296999575255551
-4.0645,0.2061471830678648,0.2564092794143318
-4.064,0.3235191065023739,0.4259554938970107
-4.0635,0.3555296310753927,0.5001319627331153
-4.063,0.3555296310754024,0.5319218779486851
-4.0625,0.3341892813600565,0.5319218779486851
-4.062,0.3128489316447107,0.5319218779486851
-4.0615,0.2808384070716336,0.500131962733154
-4.061,0.2701682322139607,0.4683420475176805
-4.0605,0.2594980573562781,0.4047622170866759
-4.06,-0.07127736323258255,-0.01910331912074426
-4.0595,-0.839529952985034,-0.8138511995075789
-4.059,-1.490410619303675,-1.523825972653797
-4.0585,-1.714484291314807,-2.043061254506529
-4.058,-1.031593100423322,-2.233800745800015
-4.0575,-0.1779791118087102,-1.831128486403653
-4.057,0.3661998059326095,-1.057573882827133
-4.0565,0.5902734779444399,-0.2840192792492073
-4.056,0.6329541773751706,0.2458126410091644
-4.0555,0.5689331282291328,0.521325239543267
-4.055,0.4835717293676329,0.6484849004056618
-4.0545,0.5049120790829789,0.7968378380778709
-4.054,0.5262524287983247,0.8498210301036598
-4.0535,0.4729015545098726,0.7438546460518989
-4.053,0.408880505363835,0.5955017083796896
-4.0525,0.3661998059331045,0.4789386859228479
-4.052,0.2915085819288602,0.4683420475180949
-4.0515,-0.2206598112394408,0.92399749893988
-4.051,-1.010252750707956,1.061753798207057
-4.0505,-1.799845690175754,0.2034260873892753
-4.05,-2.07727023647622,-0.6125150698093976
-4.0495,-1.501080794161358,-0.6549016234300674
-4.049,-0.7648387289819251,-0.3264058328701758
-4.0485,-0.1886492866660726,0.0550731497164108
-4.048,0.1634664836371343,0.3411823866556712
-4.0475,0.3341892813599013,0.5213252395433537
-4.047,0.3875401556484697,0.6060983467848956
-4.0465,0.3875401556484697,0.6484849004055269
-4.046,0.3555296310754509,0.6590815388106845
-4.0455,0.3235191065023448,0.6378882620003306
-4.045,0.291508581929326,0.6060983467848571
-4.0445,0.2808384070716433,0.5849050699745222
-4.044,0.2808384070716336,0.5319218779485887
-4.0435,0.2701682322139607,0.4259554938970107
-4.043,0.2274875327832301,-0.1780528951975329
-4.0425,-0.1993194615236873,-1.015187329204999
-4.042,-0.722158029550525,-1.682775548731308
-4.0415,-0.5621054066852853,-2.021867977696666
-4.041,-0.01792648894396554,-1.873515040024457
-4.0405,0.3982103305063271,-1.311893204549851
-4.04,0.5902734779444399,-0.6549016234300674
-4.0395,0.6116138276597857,-0.1144730647670198
-4.039,0.5582629533713145,0.277602556224898
-4.0385,0.4729015545099309,0.5319218779486851
-4.038,0.4729015545099309,0.6802748156208942
-4.0375,0.5902734779444204,0.7650479228623397
-4.037,0.5689331282290746,0.7332580076468663
-4.0365,0.4835717293676135,0.6378882620003594
-4.036,0.3982103305060942,0.5425185163537755
-4.0355,0.3341892813600565,0.457745409112513
-4.035,0.1848068333524996,0.6802748156210291
-4.0345,-0.2846808603851096,1.210106735878919
-4.034,-0.9675720512772257,0.8816109453192104
-4.0335,-1.362368521011484,-0.1144730647665284
-4.033,-1.223656247861735,-0.6337083466192603
-4.0325,-0.7328282044077709,-0.5171453241625921
-4.032,-0.2526703358124887,-0.1886495336027004
-4.0315,0.08877525963304528,0.1292496185520335
-4.031,0.2701682322140286,0.3517790250609543
-4.0305,0.3448594562177392,0.4789386859228479
-4.03,0.3555296310754121,0.5425185163537947
-4.0295,0.3448594562177197,0.5743084315693548
-4.029,0.3235191065023739,0.5743084315693548
-4.0285,0.3021787567870086,0.5637117931641874
-4.028,0.2808384070716336,0.5319218779486272
-4.0275,0.2701682322139607,0.4683420475176805
-4.027,0.2488278824985954,0.4047622170866759
-4.0265,-0.177979111808322,-0.05089323433510934
-4.026,-0.8715404775580819,-0.8032545611024114
-4.0255,-1.575772018165136,-1.492036057438295
-4.025,-1.853196564464633,-1.788741932782713
-4.0245,-1.244996597576266,-1.470842780627439
-4.024,-0.4660738329661415,-0.8986243067489184
-4.0235,0.1314559590635428,-0.3370024712755553
-4.023,0.4729015545100376,0.1398462569577792
-4.0225,0.5902734779444399,0.457745409112513
-4.022,0.568933128229094,0.6272916235950378
-4.0215,0.5369226036561431,0.6802748156209039
-4.021,0.6649647019482183,0.5425185163538525
-4.0205,0.6542945270905358,0.5001319627331828
-4.02,0.5582629533712853,0.5001319627331828
-4.0195,0.4408910299368829,0.5001319627331828
-4.019,0.3661998059331045,0.4683420475176805
-4.0185,0.2061471830680104,0.5531151547589428
-4.018,-0.4447334832507763,1.061753798207057
-4.0175,-1.095614149569417,0.9345941373450475
-4.017,-1.437059745014952,-0.01910331911915397
-4.0165,-1.554431668449412,-0.8350444763179523
-4.016,-1.159635198715513,-0.8774310299385835
-4.0155,-0.5834457564011746,-0.5171453241632185
-4.015,-0.1139580626623524,-0.1250697031714259
-4.0145,0.1741366584948169,0.1716361721729923
-4.014,0.323519106502238,0.341182386655517
-4.0135,0.3661998059331045,0.4153588554918722
-4.013,0.3661998059331045,0.4471487707073456
-4.0125,0.3448594562177392,0.4365521323021782
-4.012,0.3128489316446815,0.4259554938969818
-4.0115,0.3021787567870086,0.3941655786815084
-4.011,0.2808384070716433,0.3623756634660061
-4.0105,0.2701682322139704,0.2670059178195859
-4.01,-0.09261771294724913,-0.1886495336027004
-4.0095,-0.8181896032696687,-0.9304142219644207
-4.009,-1.234326422718913,-1.481439419032626
-4.0085,-1.34102817129572,-1.841725124809022
-4.008,-0.9035510021311299,-2.064254531317336
-4.0075,-0.1779791118093701,-1.820531847998707
-4.007,0.3341892813602798,-1.142346990067047
-4.0065,0.5796033030867573,-0.3475991096802118
-4.006,0.6542945270905358,0.2776025562246667
-4.0055,0.6116138276597275,0.6590815388108099
-4.005,0.5262524287983441,0.7862411996727035
-4.0045,0.5902734779444399,0.9134008605347127
-4.004,0.6436243522327949,0.9663840525604535
-4.0035,0.5796033030867573,0.8604176685088755
-4.003,0.4729015545099309,0.701468092431364
-4.0025,0.3982103305062203,0.5531151547591548
-4.002,0.3235191065023739,0.457745409112513
-4.0015,0.1207857842064037,0.7544512844572011
-4.001,-0.5194247072539725,0.9134008605345681
-4.0005,-1.234326422719602,0.1398462569567094
-4,-1.575772018165136,-0.718481453861072
-3.9995,-1.244996597576974,-0.8244478379127463
-3.999,-0.6688071552621118,-0.474758770542221
-3.9985,-0.1779791118087102,-0.05089323433552374
-3.998,0.142126133921769,0.2670059178194992
-3.9975,0.3128489316446912,0.4683420475176805
-3.997,0.3661998059331045,0.5743084315693548
-3.9965,0.3661998059331045,0.6166949851900245
-3.996,0.3555296310754218,0.627291623595192
-3.9955,0.3341892813600565,0.6166949851900245
-3.995,0.3128489316446912,0.6060983467848571
-3.9945,0.3021787567870086,0.5743084315693548
-3.994,0.291508581929326,0.5213252395435176
-3.9935,0.1101156093487211,0.1822328105781598
-3.993,-0.5834457564006506,-0.6125150698093976
-3.9925,-1.116954499284783,-1.333086481360783
-3.992,-1.212986073003927,-1.75695201756748
-3.9915,-0.7434983792658902,-2.021867977696666
-3.991,-0.04993701351651855,-1.820531847998485
-3.9905,0.4302208550792003,-1.216523458903942
-3.99,0.6222840025174878,-0.5489352393783931
-3.9895,0.6436243522328531,0.02328323450064829
-3.989,0.5796033030867573,0.4153588554918433
-3.9885,0.4835717293676135,0.6166949851900245
-3.988,0.5155822539406614,0.7226613692416989
-3.9875,0.6756348768059011,0.8074344764830383
-3.987,0.6436243522328531,0.7544512844572011
-3.9865,0.5475927785137094,0.6484849004055269
-3.986,0.4408910299368829,0.5319218779486851
-3.9855,0.3555296310754218,0.457745409112513
-3.985,0.05676473506030786,0.7650479228623686
-3.9845,-0.6688071552621118,1.37965295036208
-3.984,-1.341028171296118,1.241896651094903
-3.9835,-1.863866739322568,0.2246193641988295
-3.983,-1.735824641030376,-0.3793890248957141
-3.9825,-1.095614149569417,-0.3581957480853793
-3.982,-0.4554036581084589,-0.1038764263613609
-3.9815,0.00341386077189465,0.1504428953626575
-3.981,0.2594980573562781,0.3517790250608387
-3.9805,0.3661998059331045,0.4789386859228479
-3.98,0.3875401556484697,0.5425185163538525
-3.9795,0.3768699807907871,0.5743084315693548
-3.979,0.3448594562177392,0.5849050699745222
-3.9785,0.3235191065023739,0.5743084315693548
-3.978,0.3021787567870086,0.5425185163538525
-3.9775,0.2808384070716433,0.5107286011383502
-3.977,0.2701682322139607,0.3941655786815084
-3.9765,-0.1673089369510276,-0.1992461720078678
-3.976,-0.7648387289812555,-0.9833974139902578
-3.9755,-1.191645723288561,-1.650985633515806
-3.975,-1.362368521011484,-2.127834361748341
-3.9745,-0.7755089038389382,-2.106641084938006
-3.974,-0.1032878878049318,-1.460246142222792
-3.9735,0.3448594562177392,-0.6337083466197325
-3.973,0.5582629533713921,-0.01910331912002144
-3.9725,0.6222840025174878,0.4365521323021782
-3.972,0.5902734779444399,0.6590815388106942
-3.9715,0.5475927785137094,0.7120647308365314
-3.971,0.6329541773751706,0.8392243916985406
-3.9705,0.6116138276598051,0.7862411996727035
-3.97,0.5155822539406614,0.627291623595192
-3.9695,0.4302208550792003,0.4789386859228479
-3.969,0.3661998059331045,0.3729723018711736
-3.9685,0.1954770082101822,0.4789386859228479
-3.968,-0.4874141826815069,1.029963882991555
-3.9675,-1.26633694729234,0.9028042221295453
-3.967,-1.714484291315011,0.04447651131098315
-3.9665,-1.938557963326346,-0.09327978795619347
-3.966,-1.501080794161358,0.1080563417419877
-3.9655,-0.807519428411986,0.2034260873884947
-3.965,-0.2313299860971235,0.2564092794143318
-3.9645,0.142126133921769,0.309392471440169
-3.964,0.3235191065023739,0.3623756634660061
-3.9635,0.3875401556484697,0.4365521323021782
-3.963,0.3875401556484697,0.5213252395435176
-3.9625,0.3661998059331045,0.5955017083796896
-3.962,0.3341892813600565,0.6696781772158616
-3.9615,0.3128489316446912,0.701468092431364
-3.961,0.3021787567870086,0.7226613692416989
-3.9605,0.291508581929326,0.7226613692416989
-3.96,0.02475421048725994,0.4259554938970107
-3.9595,-0.5300948821122373,-0.2310360872233701
-3.959,-1.159635198715513,-0.8986243067489184
-3.9585,-1.415719395299897,-1.417859588602123
-3.958,-0.754168554123573,-1.608599079895136
-3.9575,-0.007256314085787988,-1.354279758171118
-3.957,0.4729015545099309,-0.6866915386455698
-3.9565,0.6542945270905358,-0.008506680714854012
-3.956,0.6649647019482183,0.4683420475176805
-3.9555,0.5902734779444399,0.7226613692416989
-3.955,0.5049120790829789,0.8180311148882058
-3.9545,0.5475927785137094,0.9134008605347127
-3.954,0.5475927785137094,0.8604176685088755
-3.9535,0.4942419042252961,0.6484849004055269
-3.953,0.4195506802215176,0.4153588554918433
-3.9525,0.3661998059331045,0.2140227257936621
-3.952,0.2808384070716433,0.1610395337678249
-3.9515,-0.1352984123779797,0.627291623595192
-3.951,-0.8715404775580819,0.9875773293708847
-3.9505,-1.319687821580753,0.3199891098453364
-3.95,-1.554431668449771,-0.6443049850249
-3.9495,-1.30901764672307,-0.9410108603695881
-3.949,-0.754168554123573,-0.6443049850249
-3.9485,-0.2420001609548061,-0.2204394488182027
-3.948,0.1101156093487211,0.1504428953626575
-3.9475,0.3021787567870086,0.3941655786815084
-3.947,0.3768699807907871,0.5319218779486851
-3.9465,0.3875401556484697,0.5955017083796896
-3.946,0.3661998059331045,0.6166949851900245
-3.9455,0.3341892813600565,0.6166949851900245
-3.945,0.3128489316446912,0.5955017083796896
-3.9445,0.3021787567870086,0.5743084315693548
-3.944,0.291508581929326,0.55311515475902
-3.9435,0.1527963087794516,0.3623756634660061
-3.943,-0.4660738329661415,-0.3581957480853793
-3.9425,-1.052933450138687,-1.131750351662602
-3.942,-1.51175096901904,-1.693372187136476
-3.9415,-1.052933450138687,-1.767548655972648
-3.941,-0.2846808603855366,-1.42845622700729
-3.9405,0.2808384070716433,-0.792657922697244
-3.94,0.5475927785137094,-0.1356663415768632
-3.9395,0.6222840025174878,0.3411823866556712
-3.939,0.5902734779444399,0.5743084315693548
-3.9385,0.5155822539406614,0.6590815388106942
-3.938,0.4942419042252961,0.7438546460520338
-3.9375,0.5262524287983441,0.8180311148882058
-3.937,0.4835717293676135,0.7120647308365314
-3.9365,0.4195506802215176,0.5425185163538525
-3.936,0.3661998059331045,0.3729723018711736
-3.9355,0.3235191065023739,0.2776025562246667
-3.935,0.05676473506030786,0.6060983467848571
-3.9345,-0.6367966306890638,1.178316820663898
-3.934,-1.383708870726849,0.7862411996727035
-3.9335,-1.842526389607202,0.03387987290581572
-3.933,-1.703814116457328,-0.06148987274069118
-3.9325,-1.074273799854052,0.002089957690313421
-3.932,-0.4340633083930936,0.09745970333682032
-3.9315,0.01408403562957729,0.1928294489833272
-3.931,0.2701682322139607,0.2776025562246667
-3.9305,0.3768699807907871,0.3517790250608387
-3.93,0.3982103305061524,0.4153588554918433
-3.9295,0.3875401556484697,0.4789386859228479
-3.929,0.3555296310754218,0.5319218779486851
-3.9285,0.3341892813600565,0.5637117931641874
-3.928,0.3128489316446912,0.5743084315693548
-3.9275,0.3021787567870086,0.5743084315693548
-3.927,0.2274875327832301,0.457745409112513
-3.9265,-0.3487019095316325,-0.1780528951975329
-3.926,-0.9569018764195432,-0.8668343915334161
-3.9255,-1.373038695869166,-1.38606967338662
-3.925,-1.191645723288561,-1.672178910326141
-3.9245,-0.4874141826815069,-1.449649503817625
-3.924,0.1314559590640864,-0.8456411147230812
-3.9235,0.5049120790829789,-0.08268314955102604
-3.923,0.6329541773751706,0.4789386859228479
-3.9225,0.6116138276598051,0.7438546460520338
-3.922,0.5475927785137094,0.8286277532933731
-3.9215,0.4942419042252961,0.8286277532933731
-3.921,0.5796033030867573,0.8710143069140429
-3.9205,0.5582629533713921,0.7438546460520338
-3.92,0.4942419042252961,0.5425185163538525
-3.9195,0.4195506802215176,0.3623756634660061
-3.919,0.3661998059331045,0.2140227257936621
-3.9185,0.1314559590640864,0.3623756634660061
-3.918,-0.5941159312583333,0.9663840525605498
-3.9175,-1.277007122150022,0.8392243916985406
-3.917,-1.703814116457328,-0.08268314955102604
-3.9165,-1.885207089037933,-0.4641621321370536
-3.916,-1.373038695869166,-0.3158091944647096
-3.9155,-0.7008176798351597,-0.09327978795619347
-3.915,-0.1459685872356623,0.09745970333682032
-3.9145,0.1848068333524996,0.2352160026039969
-3.914,0.3555296310754218,0.3305857482505039
-3.9135,0.408880505363835,0.3941655786815084
-3.913,0.3982103305061524,0.4365521323021782
-3.9125,0.3768699807907871,0.4789386859228479
-3.912,0.3448594562177392,0.5107286011383502
-3.9115,0.3235191065023739,0.5319218779486851
-3.911,0.3128489316446912,0.5319218779486851
-3.9105,0.291508581929326,0.4365521323021782
-3.91,-0.07127736323188383,-0.09327978795619347
-3.9095,-0.7114878546928423,-0.8562377531282487
-3.909,-1.138294849000148,-1.417859588602123
-3.9085,-1.052933450138687,-1.545019249464132
-3.908,-0.4660738329661415,-1.227120097309109
-3.9075,0.142126133921769,-0.8138511995075789
-3.907,0.4942419042252961,-0.2734226408440398
-3.9065,0.6116138276598051,0.2670059178194992
-3.906,0.5796033030867573,0.6378882620003594
-3.9055,0.5155822539406614,0.8074344764830383
-3.905,0.4515612047945656,0.849821030103708
-3.9045,0.5369226036560266,0.9769806909657173
-3.904,0.5689331282290746,0.9345941373450475
-3.9035,0.5155822539406614,0.7226613692416989
-3.903,0.4515612047945656,0.5213252395435176
-3.9025,0.3982103305061524,0.3411823866556712
-3.902,0.3661998059331045,0.2564092794143318
-3.9015,0.4195506802215176,0.6802748156210291
-3.901,-0.09261771294724913,1.072350436612224
-3.9005,-0.9248913518464952,0.4365521323021782
-3.9,-1.51175096901904,0.002089957690313421
-3.8995,-1.394379045584531,0.04447651131098315
-3.899,-0.8502001278427167,0.07626642652648545
-3.8985,-0.3060212101009019,0.1080563417419877
-3.898,0.07810508477567314,0.1504428953626575
-3.8975,0.291508581929326,0.2034260873884947
-3.897,0.3768699807907871,0.2670059178194992
-3.8965,0.3982103305061524,0.3411823866556712
-3.896,0.3768699807907871,0.4047622170866759
-3.8955,0.3341892813600565,0.4471487707073456
-3.895,0.3128489316446912,0.5001319627331828
-3.8945,0.3021787567870086,0.5319218779486851
-3.894,0.3021787567870086,0.5425185163538525
-3.8935,0.09944543449103843,0.3517790250608387
-3.893,-0.5941159312583333,-0.3475991096802118
-3.8925,-1.202315898146244,-1.05757388282643
-3.892,-1.426389570157579,-1.534422611058964
-3.8915,-0.7968492535543035,-1.778145294377815
-3.891,0.02475421048725994,-1.629792356705471
-3.8905,0.5582629533713921,-1.025783967610927
-3.89,0.7609962756673623,-0.2204394488182027
-3.8895,0.7716664505250448,0.3729723018711736
-3.889,0.6756348768059011,0.7120647308365314
-3.8885,0.5475927785137094,0.8286277532933731
-3.888,0.5049120790829789,0.8816109453192104
-3.8875,0.5155822539406614,0.8604176685088755
-3.887,0.4729015545099309,0.7226613692416989
-3.8865,0.4195506802215176,0.5425185163538525
-3.886,0.3661998059331045,0.3623756634660061
