Class_7_Listen_To_Music/Class_7_Listen_To_Music_Turki_12.csv

#Digilent WaveForms Oscilloscope Acquisition
#Device Name: EExplorer
#Serial Number: SN:210151A2B84A
#Date Time: 2021-01-31 11:22:33.818
#Sample rate: 2000Hz
#Samples: 16384
#Trigger: Source: Channel 1 Type: Edge Condition: Rising Level: 0 V Hyst.: Auto HoldOff: 0 s
#Channel 1: Range: 1 V/div Offset: 0 V Attenuation: 1 X
#Channel 2: Range: 1 V/div Offset: 0 V Attenuation: 1 X
#Power Supplies: ON
#Fixed Supply: ON
#Voltage: 3.3 V Readback: 3.329 V
#Positive Supply: ON
#Voltage: 3.7 V Readback: 3.713 V
#Current: 40 mA Readback: 17 mA
#Negative Supply: ON
#Voltage: -3.7 V Readback: -3.349 V
#Current: -40 mA Readback: -8 mA
#Reference 1: ON
#Voltage: 0 V
#Reference 2: ON
#Voltage: 0 V

Time (s),Channel 1 (V),Channel 2 (V)
-4.096,0.1954770082101822,0.1504428953626575
-4.0955,0.1848068333525093,0.1504428953626575
-4.095,0.1848068333523443,0.171636172172896
-4.0945,0.01408403562957729,0.06566978812131802
-4.094,-0.5407650569694155,-0.506548685757203
-4.0935,-0.9355615267045271,-1.131750351662997
-4.093,-1.319687821580753,-1.566212526274467
-4.0925,-1.05293345013893,-1.301296566145522
-4.092,-0.3593720843887911,-0.601918431403681
-4.0915,0.2168173579255475,0.002089957690313421
-4.091,0.4942419042252961,0.4365521323021782
-4.0905,0.5475927785136608,0.70146809243147
-4.09,0.4942419042252961,0.8180311148882058
-4.0895,0.408880505363835,0.8074344764830383
-4.089,0.4302208550791809,0.722661369241776
-4.0885,0.5796033030867573,0.6060983467848571
-4.088,0.5475927785137094,0.55311515475902
-4.0875,0.44089102993698,0.5319218779487044
-4.087,0.3341892813599886,0.5107286011383213
-4.0865,0.2594980573562781,0.4789386859228479
-4.086,-0.1246282375199477,0.07626642652685167
-4.0855,-0.786179078697106,-0.6654982618358517
-4.085,-1.319687821580753,-1.34368311976595
-4.0845,-1.682473766741633,-1.735758740756789
-4.084,-1.437059745014748,-1.428456227006693
-4.0835,-0.8715404775580819,-0.7714646458869092
-4.083,-0.3593720843893152,-0.2098428104130352
-4.0825,-0.007256314085613307,0.1504428953628213
-4.082,0.1848068333524996,0.3305857482505039
-4.0815,0.2594980573562781,0.3729723018711736
-4.081,0.270168232213951,0.3623756634660158
-4.0805,0.2488278824985954,0.3199891098453364
-4.08,0.2274875327832301,0.2776025562246667
-4.0795,0.2061471830678842,0.2458126410091933
-4.079,0.1954770082101725,0.2352160026039969
-4.0785,0.1848068333524996,0.2352160026039969
-4.078,0.110115609348789,0.2034260873885236
-4.0775,-0.4127229586781553,-0.2628260024394796
-4.077,-0.8822106524157645,-0.9304142219644207
-4.0765,-1.020922925565513,-1.470842780627468
-4.076,-0.8075194284114425,-1.449649503817076
-4.0755,-0.2099896363817582,-0.8456411147230812
-4.075,0.3021787567870086,-0.2310360872233701
-4.0745,0.5796033030867864,0.2564092794146305
-4.074,0.6116138276598051,0.5849050699745222
-4.0735,0.5369226036560266,0.7438546460520338
-4.073,0.4408910299369703,0.7756445612675071
-4.0725,0.3875401556484697,0.7226613692416989
-4.072,0.5369226036560266,0.55311515475902
-4.0715,0.5262524287983538,0.500131962733231
-4.071,0.4408910299367956,0.5107286011383695
-4.0705,0.3448594562177392,0.5319218779486851
-4.07,0.2701682322140286,0.5213252395435273
-4.0695,0.04609456020212058,0.3411823866553532
-4.069,-0.5087545323968721,-0.008506680714854012
-4.0685,-1.1062843244271,-0.6654982618352349
-4.068,-1.554431668449771,-1.322489842955779
-4.0675,-1.554431668449771,-1.502632695843462
-4.067,-1.042263275281004,-1.025783967610927
-4.0665,-0.4980843575388305,-0.4641621321366777
-4.066,-0.1032878878049318,-0.05089323433552374
-4.0655,0.142126133921769,0.1822328105781598
-4.065,0.2488278824984984,0.27760255622458
-4.0645,0.2701682322139607,0.2776025562246667
-4.064,0.2594980573562781,0.2458126410091644
-4.0635,0.2381577076409322,0.2034260873885332
-4.063,0.2168173579255281,0.1716361721729827
-4.0625,0.1954770082101822,0.1610395337678249
-4.062,0.1848068333525093,0.1716361721729827
-4.0615,0.1527963087791896,0.1822328105782079
-4.061,-0.1352984123779797,0.2352160026039969
-4.0605,-0.690147504977477,0.04447651131098315
-4.06,-1.010252750707985,-0.5489352393787497
-4.0595,-1.042263275281004,-0.9410108603695881
-4.059,-0.5407650569699201,-0.6654982618352349
-4.0585,0.02475421048674553,-0.2204394488186074
-4.058,0.3661998059331045,0.1716361721729923
-4.0575,0.4835717293676135,0.457745409112513
-4.057,0.4622313796522676,0.61669498518988
-4.0565,0.408880505363835,0.7120647308365314
-4.056,0.3448594562177392,0.7544512844572011
-4.0555,0.4622313796521414,0.6696781772159388
-4.055,0.5155822539406032,0.6272916235952208
-4.0545,0.4515612047945656,0.6590815388106942
-4.054,0.3661998059331821,0.7014680924313255
-4.0535,0.291508581929258,0.7120647308365026
-4.053,0.2168173579255475,0.6802748156210291
-4.0525,0.00341386077189465,0.4259554938970107
-4.052,-0.5941159312588186,-0.2840192792498626
-4.0515,-1.127624674142465,-1.004590690800593
-4.051,-1.437059745015262,-1.333086481360783
-4.0505,-1.13829484900042,-1.046977244421523
-4.05,-0.6367966306890638,-0.5383386009732256
-4.0495,-0.2099896363817582,-0.1250697031716958
-4.049,0.06743490991773821,0.1186529801469335
-4.0485,0.2061471830679134,0.2140227257936717
-4.048,0.2594980573562781,0.2246193641988295
-4.0475,0.2594980573562781,0.1822328105781983
-4.047,0.248827882498576,0.1292496185522841
-4.0465,0.2274875327832301,0.08686306493165288
-4.046,0.2168173579255572,0.06566978812133729
-4.0455,0.1954770082101725,0.06566978812133729
-4.045,0.1848068333524996,0.08686306493165288
-4.0445,-0.09261771294724913,-0.1250697031716958
-4.044,-0.7114878546931626,-0.7184814538615731
-4.0435,-1.06360362499637,-1.269506650929778
-4.043,-1.255666772434657,-1.492036057438295
-4.0425,-0.8075194284123935,-0.9939940523958782
-4.042,-0.156638762093345,-0.3475991096802118
-4.0415,0.3128489316446912,0.2034260873884947
-4.041,0.5049120790828041,0.5743084315690175
-4.0405,0.50491207908294,0.754451284457259
-4.04,0.4622313796522482,0.8180311148882058
-4.0395,0.3875401556485377,0.7968378380778902
-4.039,0.4088805053639418,0.8180311148882733
-4.0385,0.5262524287983441,0.8922075837243778
-4.038,0.4942419042253252,0.8498210301037465
-4.0375,0.3982103305060845,0.7544512844571144
-4.037,0.3235191065023739,0.6590815388106942
-4.0365,0.2488278824985954,0.5425185163538525
-4.036,-0.2420001609554272,0.03387987290510254
-4.0355,-0.9248913518464952,-0.7502713690765743
-4.035,-1.351698346153801,-1.417859588602123
-4.0345,-1.501080794161222,-1.407262950196965
-4.034,-1.234326422719292,-0.9728007755850904
-4.0335,-0.7114878546928423,-0.5171453241628908
-4.033,-0.252670335812906,-0.1780528951978413
-4.0325,0.04609456020277078,0.002089957690390522
-4.032,0.2061471830678648,0.08686306493165288
-4.0315,0.2701682322139025,0.1080563417419685
-4.031,0.270168232213951,0.1080563417419877
-4.0305,0.2594980573562781,0.1080563417419877
-4.03,0.2381577076409322,0.1186529801471455
-4.0295,0.2168173579255378,0.1504428953627057
-4.029,0.2061471830678648,0.2034260873884947
-4.0285,0.1954770082101822,0.2564092794143318
-4.028,0.1421261339214099,0.2987958330349534
-4.0275,-0.2526703358124887,0.2458126410091644
-4.027,-0.5834457564006506,-0.326405832869877
-4.0265,-0.8075194284117821,-0.9198175835587136
-4.026,-0.6794773301197943,-0.8244478379127463
-4.0255,-0.156638762093345,-0.400582301706049
-4.025,0.3235191065019372,0.02328323450026276
-4.0245,0.5796033030867864,0.3623756634662182
-4.024,0.6116138276598051,0.5955017083796896
-4.0235,0.5369226036560946,0.7438546460518989
-4.023,0.4408910299368247,0.8180311148882347
-4.0225,0.3768699807907871,0.849821030103708
-4.022,0.4729015545098435,0.8816109453191815
-4.0215,0.46223137965219,0.8498210301036792
-4.021,0.3982103305061524,0.8180311148882058
-4.0205,0.3235191065023739,0.7862411996727035
-4.02,0.2701682322138539,0.7438546460519663
-4.0195,0.1527963087794516,0.6696781772158616
-4.019,-0.1352984123779797,0.4259554938970107
-4.0185,-0.6261264558309348,-0.2946159176537193
-4.018,-1.095614149569417,-1.046977244421262
-4.0175,-1.180975548430879,-1.269506650929778
-4.017,-0.8181896032699987,-0.8774310299389401
-4.0165,-0.3913826089620622,-0.3899856633005539
-4.016,-0.06060718837420119,-0.02969995752518888
-4.0155,0.1421261339215846,0.1716361721728092
-4.015,0.2381577076409322,0.2352160026039873
-4.0145,0.2594980573562781,0.2246193641988295
-4.014,0.2594980573562781,0.1928294489833561
-4.0135,0.238157707640903,0.1504428953626189
-4.013,0.2274875327832301,0.1080563417419877
-4.0125,0.2061471830678648,0.09745970333682032
-4.012,0.1954770082101434,0.1080563417419877
-4.0115,0.1527963087794516,0.1080563417419877
-4.011,-0.2953510352432193,-0.2734226408440398
-4.0105,-0.668807155261772,-0.8986243067483497
-4.01,-0.6474668055467465,-1.38606967338662
-4.0095,-0.3380317346739499,-1.449649503817625
-4.009,0.1421261339213323,-0.9198175835597351
-4.0085,0.48357172936773,-0.3052125560590699
-4.008,0.6116138276598051,0.2140227257936621
-4.0075,0.5796033030867864,0.5425185163535537
-4.007,0.4835717293675358,0.6696781772158905
-4.0065,0.3982103305061524,0.701468092431364
-4.006,0.3235191065023739,0.7120647308365314
-4.0055,0.4302208550792391,0.7332580076468567
-4.005,0.4729015545099309,0.7226613692416989
-4.0045,0.4195506802215176,0.701468092431364
-4.004,0.334189281360008,0.6696781772158328
-4.0035,0.2808384070716433,0.6378882620003594
-4.003,0.1848068333524996,0.5425185163538525
-4.0025,-0.2099896363813991,0.02328323450112058
-4.002,-0.7008176798351597,-0.7502713690765743
-4.0015,-1.06360362499637,-1.439052865412457
-4.001,-1.212986073003791,-1.725162102351718
-4.0005,-0.8928808272730591,-1.216523458903363
-4,-0.4660738329661415,-0.5807251545938954
-3.9995,-0.1032878878049318,-0.08268314955102604
-3.999,0.1101156093487211,0.1928294489833272
-3.9985,0.2274875327832301,0.309392471440169
-3.998,0.2594980573562781,0.3305857482505039
-3.9975,0.2594980573562781,0.2881991946298341
-3.997,0.2381577076409128,0.2352160026039969
-3.9965,0.2274875327832301,0.1928294489833272
-3.996,0.2061471830678648,0.1822328105781598
-3.9955,0.1954770082101822,0.1716361721729923
-3.995,0.1848068333524996,0.1822328105781598
-3.9945,0.1741366584948169,0.2034260873884947
-3.994,0.2594980573562781,0.4365521323021782
-3.9935,0.07810508477567314,0.04447651131098315
-3.993,0.00341386077189465,-0.5383386009732256
-3.9925,0.1741366584948169,-0.6549016234300674
-3.992,0.4195506802215176,-0.4217755785163839
-3.9915,0.5475927785137094,-0.1144730647665284
-3.991,0.5262524287983441,0.1186529801471552
-3.9905,0.4729015545099309,0.3199891098453364
-3.99,0.408880505363835,0.4789386859228479
-3.9895,0.3555296310754218,0.6166949851900245
-3.989,0.3875401556484697,0.775644561267536
-3.9885,0.5369226036560266,0.9769806909657173
-3.988,0.5155822539406614,0.9875773293708847
-3.9875,0.4302208550792003,0.92399749893988
-3.987,0.3341892813600565,0.849821030103708
-3.9865,0.2381577076409128,0.7862411996727035
-3.986,-0.1032878878049318,0.4471487707073456
-3.9855,-0.7434983792658902,-0.2628260024388724
-3.985,-1.191645723288561,-0.9304142219644207
-3.9845,-1.437059745015262,-1.142346990067769
-3.984,-1.330357996438436,-1.004590690800593
-3.9835,-0.8502001278427167,-0.5489352393783931
-3.983,-0.3700422592469978,-0.1038764263613609
-3.9825,-0.02859666380115328,0.1822328105781598
-3.982,0.1634664836371343,0.3199891098453364
-3.9815,0.2488278824985954,0.3517790250608387
-3.981,0.2701682322139607,0.3199891098453364
-3.9805,0.2594980573562781,0.2670059178194992
-3.98,0.2381577076409128,0.2034260873884947
-3.9795,0.2168173579255475,0.1716361721729923
-3.979,0.1954770082101822,0.13984625695749
-3.9785,0.1848068333524996,0.13984625695749
-3.978,0.142126133921769,0.1186529801471552
-3.9775,-0.2526703358124887,-0.2310360872233701
-3.977,-0.6261264558313813,-0.8562377531282487
-3.9765,-1.042263275281004,-1.38606967338662
-3.976,-0.9569018764195432,-1.38606967338662
-3.9755,-0.3807124341046804,-0.8032545611024114
-3.975,0.1741366584948169,-0.1992461720078678
-3.9745,0.4729015545099309,0.2987958330350016
-3.974,0.5262524287983441,0.5849050699745222
-3.9735,0.4729015545099309,0.701468092431364
-3.973,0.3768699807907871,0.7438546460520338
-3.9725,0.3661998059331045,0.7438546460520338
-3.972,0.6542945270905358,0.6696781772158616
-3.9715,0.7183155762366316,0.6060983467848571
-3.971,0.5902734779444399,0.5955017083796896
-3.9705,0.4408910299368829,0.5955017083796896
-3.97,0.3341892813600565,0.5743084315693548
-3.9695,0.0674349099179905,0.5425185163538525
-3.969,-0.5514352318276028,0.3199891098453364
-3.9685,-1.031593100423322,-0.3687923864905467
-3.968,-1.244996597576974,-1.036380606016095
-3.9675,-0.9889124009925911,-1.036380606016095
-3.967,-0.5514352318276028,-0.6443049850249
-3.9665,-0.1673089369510276,-0.2310360872233701
-3.966,0.07810508477567314,0.05507314971615059
-3.9655,0.2061471830678648,0.1928294489833272
-3.965,0.2488278824985954,0.2246193641988295
-3.9645,0.2594980573562781,0.2140227257936621
-3.964,0.2488278824985954,0.1716361721729923
-3.9635,0.2274875327832301,0.13984625695749
-3.963,0.2061471830678648,0.1080563417419877
-3.9625,0.1954770082101822,0.1080563417419877
-3.962,0.1848068333524996,0.1292496185523226
-3.9615,0.1634664836371343,0.1504428953626575
-3.961,-0.1779791118087102,-0.07208651114585861
-3.9605,-0.6367966306890638,-0.6866915386455698
-3.96,-0.8928808272734472,-1.248313374119443
-3.9595,-0.8502001278427167,-1.121153713257435
-3.959,-0.4020527838200457,-0.6125150698093976
-3.9585,0.0674349099179905,-0.1250697031716958
-3.958,0.3768699807907871,0.2352160026039969
-3.9575,0.5049120790829789,0.4789386859228479
-3.957,0.4942419042252961,0.627291623595192
-3.9565,0.4302208550792003,0.6908714540261965
-3.956,0.3661998059331045,0.6908714540261965
-3.9555,0.3875401556484697,0.6696781772158616
-3.955,0.408880505363835,0.6802748156210291
-3.9545,0.3661998059331045,0.6908714540261965
-3.954,0.3128489316446912,0.6908714540261965
-3.9535,0.2701682322139607,0.6802748156210291
-3.953,0.1314559590640864,0.5425185163538525
-3.9525,-0.4980843575391895,-0.1144730647665284
-3.952,-1.020922925565639,-0.8880276683437509
-3.9515,-1.020922925565639,-1.417859588602123
-3.951,-1.010252750707956,-1.598002441489969
-3.9505,-0.7114878546928423,-1.110557074852267
-3.95,-0.3273615598162672,-0.5065486857577234
-3.9495,-0.03926683865883591,-0.04029659593035631
-3.949,0.142126133921769,0.2246193641988295
-3.9485,0.2274875327832301,0.3411823866556712
-3.948,0.2488278824985954,0.3411823866556712
-3.9475,0.2488278824985954,0.2987958330350016
-3.947,0.2274875327832301,0.2458126410091644
-3.9465,0.2168173579255475,0.2034260873884947
-3.946,0.2061471830678648,0.1610395337678249
-3.9455,0.1954770082101822,0.1504428953626575
-3.945,0.1954770082101822,0.1504428953626575
-3.9445,0.07810508477567314,0.07626642652648545
-3.944,-0.3807124341046804,-0.2734226408440398
-3.9435,-0.690147504977477,-0.8350444763179138
-3.943,-0.7328282044082075,-1.237716735714276
-3.9425,-0.3807124341046804,-1.01518732920576
-3.942,0.09944543449103843,-0.474758770542221
-3.9415,0.3982103305061524,0.04447651131098315
-3.941,0.4835717293676135,0.383568940276341
-3.9405,0.4622313796522482,0.55311515475902
-3.94,0.3982103305061524,0.627291623595192
-3.9395,0.3448594562177392,0.6696781772158616
-3.939,0.3768699807907871,0.7120647308365314
-3.9385,0.4622313796522482,0.7226613692416989
-3.938,0.4408910299368829,0.6908714540261965
-3.9375,0.3661998059331045,0.6378882620003594
-3.937,0.291508581929326,0.5743084315693548
-3.9365,0.2168173579255475,0.4789386859228479
-3.936,-0.1352984123779797,-0.008506680714854012
-3.9355,-0.690147504977477,-0.6760949002404023
-3.935,-1.234326422719292,-1.322489842955616
-3.9345,-1.554431668449771,-1.735758740757146
-3.934,-1.234326422719292,-1.354279758171118
-3.9335,-0.7008176798351597,-0.6972881770507372
-3.933,-0.2420001609548061,-0.1568596183871981
-3.9325,0.05676473506030786,0.1822328105781598
-3.932,0.2061471830678648,0.3411823866556712
-3.9315,0.2701682322139607,0.3729723018711736
-3.931,0.2701682322139607,0.3517790250608387
-3.9305,0.2488278824985954,0.2987958330350016
-3.93,0.2274875327832301,0.2564092794143318
-3.9295,0.2061471830678648,0.2246193641988295
-3.929,0.1848068333524996,0.2140227257936621
-3.9285,0.1741366584948169,0.2140227257936621
-3.928,0.08877525963335578,0.1292496185523226
-3.9275,-0.4447334832507763,-0.3793890248957141
-3.927,-0.9035510021311299,-1.036380606016095
-3.9265,-1.30901764672307,-1.407262950196955
-3.926,-1.116954499284783,-0.9939940523954253
-3.9255,-0.423393133535411,-0.400582301706049
-3.925,0.1848068333524996,0.07626642652648545
-3.9245,0.5155822539406614,0.3941655786815084
-3.924,0.5796033030867573,0.5319218779486851
-3.9235,0.5475927785137094,0.5637117931641874
-3.923,0.4515612047945656,0.5849050699745222
-3.9225,0.4302208550792003,0.6696781772158616
-3.922,0.6116138276598051,0.8286277532933731
-3.9215,0.5902734779444399,0.775644561267536
-3.921,0.4729015545099309,0.627291623595192
-3.9205,0.3768699807907871,0.5001319627331828
-3.92,0.3341892813600565,0.4153588554918433
-3.9195,0.1207857842064037,0.1716361721729923
-3.919,-0.5087545323968721,-0.4959520473525559
-3.9185,-0.9995825758502737,-1.195330182093607
-3.918,-1.298347471865388,-1.75695201756748
-3.9175,-1.212986073003927,-1.598002441489969
-3.917,-0.7755089038389382,-0.9092209451540858
-3.9165,-0.3380317346739499,-0.2734226408440398
-3.916,-0.007256314085787988,0.1822328105781598
-3.9155,0.1741366584948169,0.4259554938970107
-3.915,0.2488278824985954,0.5319218779486851
-3.9145,0.2701682322139607,0.5425185163538525
-3.914,0.2594980573562781,0.5107286011383502
-3.9135,0.2381577076409128,0.4683420475176805
-3.913,0.2168173579255475,0.4259554938970107
-3.9125,0.2061471830678648,0.4047622170866759
-3.912,0.1848068333524996,0.3941655786815084
-3.9115,0.142126133921769,0.4047622170866759
-3.911,-0.1993194615240755,0.08686306493165288
-3.9105,-0.658136980404429,-0.6231117082145651
-3.91,-1.042263275281004,-1.237716735714276
-3.9095,-0.9248913518464952,-1.0999604364471
-3.909,-0.3700422592469978,-0.5913217929990628
-3.9085,0.1527963087794516,-0.1356663415768632
-3.908,0.4622313796522482,0.1292496185523226
-3.9075,0.5369226036560266,0.2776025562246667
-3.907,0.5049120790829789,0.383568940276341
-3.9065,0.4515612047945656,0.4153588554918433
-3.906,0.3768699807907871,0.4471487707073456
-3.9055,0.5689331282290746,0.2881991946298341
-3.905,0.7503261008096795,0.2458126410091644
-3.9045,0.6649647019482183,0.4153588554918433
-3.904,0.5049120790829789,0.5955017083796896
-3.9035,0.3768699807907871,0.7226613692416989
-3.903,0.1741366584948169,0.775644561267536
-3.9025,-0.4127229586777283,0.5319218779486851
-3.902,-1.010252750707956,-0.2098428104130352
-3.9015,-1.437059745015262,-1.025783967610927
-3.901,-1.533091318734406,-1.42845622700729
-3.9005,-1.084943974711735,-1.110557074852267
-3.9,-0.5407650569699201,-0.6019184314042303
-3.8995,-0.1352984123779797,-0.1992461720078678
-3.899,0.1207857842064037,0.03387987290581572
-3.8985,0.2381577076409128,0.1186529801471552
-3.898,0.2808384070716433,0.1186529801471552
-3.8975,0.2701682322139607,0.07626642652648545
-3.897,0.2488278824985954,0.02328323450064829
-3.8965,0.2274875327832301,-0.01910331912002144
-3.896,0.2168173579255475,-0.02969995752518888
-3.8955,0.2061471830678648,-0.02969995752518888
-3.895,0.1954770082101822,-0.008506680714854012
-3.8945,-0.01792648894347063,-0.1568596183871981
-3.894,-0.5621054066852853,-0.6972881770507372
-3.8935,-0.8502001278427167,-1.258910012524611
-3.893,-0.7861790786966207,-1.545019249464132
-3.8925,-0.3700422592469978,-1.089363798041932
-3.892,0.142126133921769,-0.4323722169215513
-3.8915,0.4408910299368829,0.09745970333682032
-3.891,0.5475927785137094,0.4683420475176805
-3.8905,0.5155822539406614,0.6908714540261965
-3.89,0.4408910299368829,0.8180311148882058
-3.8895,0.3448594562177392,0.8710143069140429
-3.889,0.4729015545099309,0.701468092431364
-3.8885,0.8036769750980928,0.383568940276341
-3.888,0.7823366253827275,0.4047622170866759
-3.8875,0.6116138276598051,0.5319218779486851
-3.887,0.4302208550792003,0.6484849004055269
-3.8865,0.2701682322139607,0.6590815388106942
