Class_7_Listen_To_Music/Class_7_Listen_To_Music_1_UZ_3.csv

#Digilent WaveForms Oscilloscope Acquisition
#Device Name: EExplorer
#Serial Number: SN:210151A2B84A
#Date Time: 2020-11-30 10:42:06.095
#Sample rate: 2000Hz
#Samples: 16384
#Trigger: Source: Channel 1 Type: Edge Condition: Rising Level: 0 V Hyst.: Auto HoldOff: 0 s
#Channel 1: Range: 1 V/div Offset: 0 V Attenuation: 1 X
#Channel 2: Range: 1 V/div Offset: 0 V Attenuation: 1 X
#Power Supplies: ON
#Fixed Supply: ON
#Voltage: 3.3 V Readback: 3.331 V
#Positive Supply: ON
#Voltage: 3.7 V Readback: 3.713 V
#Current: 500 mA Readback: 20 mA
#Negative Supply: ON
#Voltage: -3.7 V Readback: -3.7 V
#Current: -500 mA Readback: -10 mA
#Reference 1: ON
#Voltage: 0 V
#Reference 2: ON
#Voltage: 0 V

Time (s),Channel 1 (V),Channel 2 (V)
-4.096,1.091771696255524,0.2670059178194992
-4.0955,1.91337516029634,-0.760868007480807
-4.095,2.52157512718526,-1.545019249464604
-4.0945,2.809669848342429,-2.064254531317336
-4.094,2.457554078039222,-1.894708316834811
-4.0935,1.689301488285102,-1.152943628472378
-4.093,0.974399772821015,-0.5383386009732256
-4.0925,0.4515612047950411,-0.2416327256288074
-4.092,0.1527963087793255,-0.1356663415769499
-4.0915,0.01408403562957729,-0.2310360872233701
-4.091,-0.1352984123779797,-0.5595318777835605
-4.0905,-0.2099896363817096,-0.6337083466195976
-4.09,-0.156638762093345,-0.4853554089473885
-4.0895,-0.1139580626626144,-0.2946159176543747
-4.089,-0.1032878878049415,-0.1356663415770077
-4.0885,-0.09261771294724913,0.002089957690313421
-4.088,-0.4980843575391895,-0.2204394488182027
-4.0875,-1.266336947291641,-0.7926579226967235
-4.087,-1.533091318734027,-1.322489842955847
-4.0865,-1.116954499284783,-1.576809164679634
-4.086,-1.095614149569437,-1.555615887869319
-4.0855,-1.607782542738708,-1.364876396576064
-4.085,-2.183971985053047,-1.121153713257435
-4.0845,-2.162631635337701,-0.7184814538614381
-4.084,-1.501080794160717,0.1822328105790079
-4.0835,-0.7968492535543035,1.114736990232894
-4.083,-0.274010685527854,1.771728571353275
-4.0825,0.0247542104873861,2.110821000318739
-4.082,0.1634664836371343,2.227384022775475
-4.0815,0.2061471830678648,2.195594107559972
-4.081,0.2274875327832107,2.100224361913552
-4.0805,0.2274875327832301,1.930678147430786
-4.08,0.2701682322139607,1.549199164844759
-4.0795,0.8463576745282992,0.5849050699753992
-4.079,1.689301488286373,-0.5065486857584848
-4.0785,2.372192679177441,-1.34368311976595
-4.078,2.777659323769013,-1.958288147265102
-4.0775,2.670957575191963,-2.074851169721906
-4.077,2.020076908873914,-1.417859588602123
-4.0765,1.273164668836808,-0.7396747306720237
-4.076,0.6542945270901864,-0.3052125560593879
-4.0755,0.2701682322139607,-0.1356663415768632
-4.075,0.09944543449103843,-0.1038764263613609
-4.0745,-0.1032878878051841,-0.3370024712752758
-4.074,-0.3807124341046804,-0.5913217929990628
-4.0735,-0.3700422592469978,-0.5065486857577234
-4.073,-0.2740106855279414,-0.2946159176545674
-4.0725,-0.1673089369510276,-0.1038764263613609
-4.072,-0.1139580626626144,0.03387987290581572
-4.0715,-0.2526703358123625,-0.04029659593028885
-4.071,-0.9462317015623942,-0.5595318777840905
-4.0705,-1.533091318734406,-1.142346990067769
-4.07,-1.116954499285161,-1.555615887868923
-4.0695,-0.1246282375203553,-1.682775548731183
-4.069,-0.1886492866663929,-1.545019249464132
-4.0685,-0.9995825758502737,-1.280103289334946
-4.068,-1.703814116457241,-1.015187329205201
-4.0675,-1.607782542738184,-0.400582301706049
-4.067,-1.074273799854052,0.55311515475902
-4.0665,-0.5407650569695707,1.369056311957356
-4.066,-0.156638762093345,1.856501678594614
-4.0655,0.05676473506030786,2.068434446697963
-4.065,0.1527963087793643,2.100224361913436
-4.0645,0.1954770082101822,2.015451254672126
-4.064,0.1848068333524996,1.835308401784279
-4.0635,0.3128489316445748,1.580989080060492
-4.063,0.985069947679445,0.7650479228613951
-4.0625,1.806673411720261,-0.3052125560595421
-4.062,2.45755407803831,-1.195330182092797
-4.0615,2.820340023200054,-1.852321763214209
-4.061,2.756318974054016,-2.096044446532838
-4.0605,2.148119007166105,-1.534422611058964
-4.06,1.401206767127748,-0.8138511995070681
-4.0595,0.7716664505250448,-0.252229364033705
-4.059,0.3341892813600565,0.01268659609548085
-4.0585,0.07810508477590605,0.01268659609548085
-4.058,-0.02859666380115328,-0.1780528951975329
-4.0575,-0.02859666380115328,-0.3899856633008816
-4.057,-0.007256314085807396,-0.1674562567925679
-4.0565,0.01408403562957729,-0.01910331912002144
-4.056,0.02475421048725994,0.05507314971615059
-4.0555,0.014084035629587,0.1080563417419396
-4.055,-0.08194753809015845,0.1080563417415637
-4.0545,-0.7328282044082075,-0.3581957480853793
-4.054,-1.533091318733678,-0.9728007755845314
-4.0535,-1.650463242168595,-1.428456227007415
-4.053,-1.298347471865388,-1.566212526274467
-4.0525,-1.426389570157579,-1.460246142222792
-4.052,-1.906547438753706,-1.237716735714045
-4.0515,-2.354694782775969,-0.9833974139902578
-4.051,-2.013249187330125,-0.4641621321370536
-4.0505,-1.277007122150692,0.4789386859219901
-4.05,-0.6154562809736985,1.33726639674141
-4.0495,-0.1673089369510276,1.877694955404949
-4.049,0.07810508477544992,2.100224361913263
-4.0485,0.184806833352519,2.17440083074957
-4.048,0.2061471830678648,2.100224361913465
-4.0475,0.2061471830678648,1.994257977861887
-4.047,0.2274875327834242,1.856501678594334
-4.0465,0.4408910299368829,1.549199164844759
-4.046,1.123782220827951,0.5849050699753992
-4.0455,1.913375160297611,-0.4959520473533173
-4.045,2.48956460261195,-1.333086481360783
-4.0445,2.660287400334872,-1.873515040024322
-4.044,2.190799706596176,-1.52382597265318
-4.0435,1.465227816274416,-0.8456411147230812
-4.043,0.825017324813458,-0.3581957480853793
-4.0425,0.3448594562181759,-0.1462629799822234
-4.042,0.07810508477567314,-0.1568596183871981
-4.0415,-0.06060718837420119,-0.2416327256285375
-4.041,-0.2206598112392952,-0.4641621321368512
-4.0405,-0.2846808603854784,-0.4111789401110719
-4.04,-0.2206598112394408,-0.252229364033705
-4.0395,-0.1566387620934032,-0.1250697031718114
-4.039,-0.1566387620933935,-0.008506680714805825
-4.0385,-0.2099896363817582,0.04447651131098315
-4.038,-0.6794773301193673,-0.3158091944643819
-4.0375,-1.490410619304151,-0.9198175835596774
-4.037,-2.013249187330125,-1.38606967338662
-4.0365,-1.714484291315011,-1.566212526274467
-4.036,-1.330357996438668,-1.460246142222561
-4.0355,-1.586442193022819,-1.205926820498774
-4.035,-2.087940411333903,-0.9198175835592532
-4.0345,-2.280003558772016,-0.6125150698096771
-4.034,-1.693143941599645,0.1292496185523226
-4.0335,-0.9675720512772257,1.082947075017392
-4.033,-0.3913826089628871,1.814115124973279
-4.0325,-0.03926683865867094,2.227384022775629
-4.032,0.142126133921769,2.396930237258153
-4.0315,0.2061471830678066,2.396930237258153
-4.031,0.2274875327832398,2.290963853206248
-4.0305,0.2381577076409128,2.036644531482461
-4.03,0.3875401556483339,1.528005888034886
-4.0295,1.059761171683214,0.45774540911153
-4.029,1.870694460866357,-0.6231117082145651
-4.0285,2.478894427754267,-1.439052865412457
-4.028,2.7776593237691,-2.011271339291412
-4.0275,2.468224252896585,-1.915901593644992
-4.027,1.753322537431848,-1.237716735714276
-4.0265,1.038420821967761,-0.7396747306718598
-4.026,0.5049120790829789,-0.474758770542221
-4.0255,0.1527963087794516,-0.400582301706049
-4.025,-0.007256314085642424,-0.4747587705421536
-4.0245,-0.1779791118089237,-0.6231117082145939
-4.024,-0.4127229586777283,-0.6549016234300674
-4.0235,-0.3807124341047096,-0.3581957480856491
-4.023,-0.370042259246959,-0.1250697031715897
-4.0225,-0.3273615598162672,-0.008506680714854012
-4.022,-0.2526703358125567,0.08686306493156615
-4.0215,-0.4980843575398688,-0.02969995752569967
-4.021,-1.244996597576974,-0.5913217929990628
-4.0205,-2.002579012472442,-1.152943628472937
-4.02,-2.269333383914294,-1.492036057438333
-4.0195,-2.03458953704549,-1.534422611058964
-4.019,-2.173301810195364,-1.333086481360783
-4.0185,-2.514747405640898,-1.05757388282668
-4.018,-2.215982509626095,-0.6337083466197325
-4.0175,-1.437059745015262,0.2776025562246667
-4.017,-0.7221580295511751,1.231300012688868
-4.0165,-0.2099896363815058,1.909484870620779
-4.016,0.0674349099179905,2.269770576396144
-4.0155,0.1848068333523928,2.396930237258038
-4.015,0.2168173579255475,2.375736960447722
-4.0145,0.2168173579255475,2.269770576396144
-4.014,0.2274875327832204,2.110821000318778
-4.0135,0.2594980573566371,1.835308401783508
-4.013,0.6542945270905358,0.9875773293708847
-4.0125,1.465227816274416,-0.1674562567923655
-4.012,2.212140056312648,-1.099960436447736
-4.0115,2.702968099765603,-1.79933857118815
-4.011,2.777659323769381,-2.117237723343173
-4.0105,2.244150580885734,-1.629792356705914
-4.01,1.497238340847464,-0.8562377531282487
-4.0095,0.8356874996711408,-0.3581957480853793
-4.009,0.3661998059335315,-0.1780528951976968
-4.0085,0.1314559590639893,-0.1886495336028546
-4.008,0.02475421048725994,-0.3581957480853793
-4.0075,0.003413860771914058,-0.6125150698091664
-4.007,0.01408403562957729,-0.5807251545937412
-4.0065,0.01408403562957729,-0.4111789401112165
-4.006,-0.02859666380115328,-0.3158091944647096
-4.0055,-0.06060718837431765,-0.3052125560595421
-4.005,-0.1886492866663929,-0.3052125560595421
-4.0045,-0.807519428411986,-0.6760949002404023
-4.004,-1.543761493592108,-1.174136905283628
-4.0035,-1.565101843307454,-1.566212526274467
-4.003,-1.170305373573196,-1.661582271920973
-4.0025,-1.373038695868982,-1.523825972653922
-4.002,-1.906547438753298,-1.248313374119443
-4.0015,-2.472066706210478,-0.9833974139902578
-4.001,-2.269333383914692,-0.5383386009736304
-4.0005,-1.490410619303006,0.3729723018720024
-4,-0.754168554123573,1.284283204715573
-3.9995,-0.2420001609548061,1.909484870620451
-3.999,0.05676473506030786,2.237980661180642
-3.9985,0.1848068333524996,2.333350406827149
-3.998,0.2168173579255475,2.269770576396144
-3.9975,0.2274875327832301,2.174400830749637
-3.997,0.2594980573562781,2.004854616266958
-3.9965,0.5796033030867573,1.33726639674141
-3.996,1.35852606769759,0.1716361721729923
-3.9955,2.116108482593058,-0.8668343915334161
-3.995,2.532245302042681,-1.587405803084801
-3.9945,2.265490930600615,-1.587405803084801
-3.994,1.646620788855021,-1.0999604364471
-3.9935,1.059761171682476,-0.6337083466197325
-3.993,0.5902734779444399,-0.326405832869877
-3.9925,0.2594980573562781,-0.2416327256285375
-3.992,0.07810508477567314,-0.3052125560595421
-3.9915,-0.007256314085787988,-0.4323722169215513
-3.991,-0.08194753808956648,-0.6760949002404023
-3.9905,-0.1032878878049318,-0.6337083466197325
-3.99,-0.08194753808956648,-0.4323722169215513
-3.9895,-0.04993701351651855,-0.2204394488182027
-3.989,-0.03926683865883591,-0.02969995752518888
-3.9885,-0.09261771294724913,0.06566978812131802
-3.988,-0.6047861061160158,-0.252229364033705
-3.9875,-1.447729919872945,-0.8456411147230812
-3.987,-2.07727023647622,-1.301296566145281
-3.9865,-2.280003558772191,-1.481439419033127
-3.986,-2.578768454787304,-1.375473034981453
-3.9855,-2.877533350802418,-1.121153713257435
-3.985,-2.898873700517784,-0.8350444763179138
-3.9845,-2.333354433060604,-0.3052125560595421
-3.984,-1.351698346153801,0.6484849004055269
-3.9835,-0.6047861061160158,1.549199164844759
-3.983,-0.1139580626626144,2.132014277128968
-3.9825,0.1314559590640864,2.407526875663321
-3.982,0.2168173579255475,2.449913429283991
-3.9815,0.2381577076409128,2.375736960447818
-3.981,0.2381577076409128,2.237980661180642
-3.9805,0.2701682322139607,1.930678147430786
-3.98,0.6009436528021226,1.029963882991555
-3.9795,1.35852606769759,-0.1462629799820306
-3.979,2.12677865745074,-1.089363798041932
-3.9785,2.649617225477189,-1.79933857118815
-3.978,2.916371596919256,-2.138431000153508
-3.9775,2.660287400334872,-2.106641084938006
-3.977,1.92404533515477,-1.523825972653797
-3.9765,1.15579274540162,-0.7502713690765743
-3.976,0.5902734779444399,-0.2946159176543747
-3.9755,0.2274875327832301,-0.1568596183871981
-3.975,0.02475421048725994,-0.2310360872233701
-3.9745,-0.156638762093345,-0.4641621321370536
-3.974,-0.2846808603855366,-0.6231117082145651
-3.9735,-0.2313299860971235,-0.474758770542221
-3.973,-0.1459685872356623,-0.2946159176543747
-3.9725,-0.06060718837420119,-0.1356663415768632
-3.972,-0.03926683865883591,-0.07208651114585861
-3.9715,-0.274010685527854,-0.2098428104130352
-3.971,-1.031593100423322,-0.7290780922662394
-3.9705,-1.565101843307454,-1.258910012524611
-3.97,-1.191645723288561,-1.587405803084801
-3.9695,-0.1032878878049318,-1.619195718300304
-3.969,0.05676473506030786,-1.407262950196955
-3.9685,-0.7114878546928423,-1.110557074852267
-3.968,-1.244996597576974,-0.7608680074817418
-3.9675,-1.084943974711735,0.06566978812131802
-3.967,-0.6794773301197943,1.040560521396722
-3.9665,-0.3060212101009019,1.782325209758442
-3.966,-0.04993701351651855,2.20619074596514
-3.9655,0.09944543449103843,2.386333598852986
-3.965,0.1634664836371343,2.386333598852986
-3.9645,0.1954770082101822,2.269770576396144
-3.964,0.2168173579255475,2.068434446697963
-3.9635,0.3021787567870086,1.697552102517103
-3.963,0.8890383739595538,0.7438546460520338
-3.9625,1.7213120128588,-0.3687923864905467
-3.962,2.393533028892806,-1.248313374119443
-3.9615,2.724308449480968,-1.894708316834657
-3.961,2.574926001473411,-2.053657892912168
-3.9605,1.945385684870135,-1.449649503817625
-3.96,1.230483969405398,-0.7396747306714069
-3.9595,0.6649647019482183,-0.2946159176543747
-3.959,0.291508581929326,-0.1038764263613609
-3.9585,0.08877525963335578,-0.1038764263613609
-3.958,-0.07127736323188383,-0.2840192792492073
-3.9575,-0.3807124341046804,-0.5277419625680583
-3.957,-0.4127229586777283,-0.4535654937318862
-3.9565,-0.3273615598162672,-0.2946159176543747
-3.956,-0.1993194615240755,-0.1674562567923655
-3.9555,-0.1459685872356623,-0.08268314955102604
-3.955,-0.2420001609548061,-0.1250697031716958
-3.9545,-0.8928808272734472,-0.570128516188728
-3.954,-1.714484291315011,-1.131750351662602
-3.9535,-2.141291285622316,-1.51322933424863
-3.953,-2.312014083345239,-1.608599079895136
-3.9525,-2.674800028506448,-1.449649503817625
-3.952,-2.898873700517784,-1.174136905283272
-3.9515,-2.834852651371688,-0.8774310299385835
-3.951,-1.981238662757077,-0.1886495336027004
-3.9505,-1.084943974711735,0.7968378380778709
-3.95,-0.423393133535411,1.612778995275763
-3.9495,-0.01792648894347063,2.110821000318633
-3.949,0.1634664836371343,2.333350406827149
-3.9485,0.2168173579255475,2.354543683637484
-3.948,0.2274875327832301,2.237980661180642
-3.9475,0.2168173579255475,2.068434446697963
-3.947,0.2381577076409128,1.920081509025619
-3.9465,0.5049120790829789,1.369056311956912
-3.946,1.262494493978446,0.2670059178194992
-3.9455,2.052087433446962,-0.7714646458869092
-3.945,2.478894427754267,-1.523825972653797
-3.9445,2.244150580885249,-1.672178910326141
-3.944,1.678631313428069,-1.131750351662602
-3.9435,1.070431346540159,-0.570128516188728
-3.943,0.5902734779444399,-0.2734226408440398
-3.9425,0.2701682322139607,-0.2098428104130352
-3.942,0.0674349099179905,-0.2416327256285375
-3.9415,-0.01792648894347063,-0.400582301706049
-3.941,-0.06060718837420119,-0.6654982618352349
-3.9405,-0.04993701351651855,-0.6549016234300674
-3.94,-0.02859666380115328,-0.4217755785163839
-3.9395,-0.007256314085787988,-0.1886495336027004
-3.939,-0.03926683865883591,-0.09327978795619347
-3.9385,-0.09261771294724913,-0.04029659593035631
-3.938,-0.5941159312583333,-0.3581957480853793
-3.9375,-1.405049220442214,-0.9198175835592532
-3.937,-1.725154466172693,-1.354279758171118
-3.9365,-1.095614149569417,-1.492036057438295
-3.936,-0.6154562809736985,-1.364876396576285
-3.9355,-1.052933450138687,-1.0999604364471
-3.935,-1.746494815888059,-0.8138511995075789
-3.9345,-1.970568487899394,-0.474758770542221
-3.934,-1.490410619303675,0.3411823866556712
-3.9335,-0.8502001278427167,1.284283204715573
-3.933,-0.3380317346739499,1.973064701051456
-3.9325,-0.01792648894347063,2.343947045232316
-3.932,0.142126133921769,2.471106706094325
-3.9315,0.2061471830678648,2.418123514068488
-3.931,0.2274875327832301,2.259173937990977
-3.9305,0.2381577076409128,1.973064701051456
-3.93,0.6009436528021226,1.146526905448396
-3.9295,1.390536592270638,-0.01910331912002144
-3.929,2.148119007166105,-1.004590690800593
-3.9285,2.670957575192555,-1.725162102351978
-3.928,2.863020722630842,-2.106641084938006
-3.9275,2.446883903181219,-1.968884785670829
-3.927,1.689301488285752,-1.34368311976595
-3.9265,0.974399772821015,-0.8668343915334161
-3.926,0.4729015545099309,-0.6019184314042303
-3.9255,0.1848068333524996,-0.474758770542221
-3.925,0.04609456020262521,-0.4641621321370536
-3.9245,-0.156638762093345,-0.6443049850249
-3.924,-0.3807124341046804,-0.7820612842920766
-3.9235,-0.3487019095316325,-0.5913217929990628
-3.923,-0.2420001609548061,-0.2946159176543747
-3.9225,-0.1459685872356623,-0.04029659593035631
-3.922,-0.09261771294724913,0.09745970333682032
-3.9215,-0.274010685527854,-0.08268314955102604
-3.921,-0.9782422261349084,-0.6654982618352349
-3.9205,-1.522421143876723,-1.237716735714276
-3.92,-1.341028171296118,-1.598002441489969
-3.9195,-1.383708870726849,-1.661582271920973
-3.919,-1.842526389607202,-1.492036057438295
-3.9185,-2.429386006779747,-1.216523458903942
-3.918,-2.76016142736791,-0.9304142219644207
-3.9175,-2.03458953704549,-0.2628260024388724
-3.917,-1.170305373573196,0.701468092431364
-3.9165,-0.4980843575391895,1.506812611224089
-3.916,-0.07127736323188383,2.004854616266958
-3.9155,0.142126133921769,2.237980661180642
-3.915,0.2274875327832301,2.280367214801311
-3.9145,0.2488278824985954,2.227384022775475
-3.914,0.2808384070716433,1.994257977861791
-3.9135,0.5369226036560266,1.411442865577582
-3.913,1.070431346540159,0.4895353243280153
-3.9125,1.817343586577944,-0.5277419625680583
-3.912,2.436213728323537,-1.333086481360783
-3.9115,2.777659323769381,-1.926498232050159
-3.911,2.510904952327315,-1.979481424075996
-3.9105,1.817343586577944,-1.364876396576285
-3.91,1.081101521397841,-0.7396747306714069
-3.9095,0.5369226036560266,-0.3687923864905467
-3.909,0.1954770082101822,-0.2734226408440398
-3.9085,0.01408403562957729,-0.3158091944647096
-3.908,-0.1032878878049318,-0.474758770542221
-3.9075,-0.2313299860971235,-0.5595318777835605
-3.907,-0.2206598112394408,-0.3370024712750445
-3.9065,-0.2313299860971235,-0.1144730647665284
-3.906,-0.274010685527854,-0.05089323433552374
-3.9055,-0.3807124341046804,-0.07208651114585861
-3.905,-0.4020527838200457,0.1504428953626575
-3.9045,-0.9355615267041777,-0.1886495336027004
-3.904,-1.586442193022819,-0.8032545611024114
-3.9035,-1.490410619303675,-1.237716735714276
-3.903,-1.255666772434657,-1.38606967338662
-3.9025,-1.618452717595867,-1.311893204550448
-3.902,-2.151961460479999,-1.110557074852267
-3.9015,-2.322684258202921,-0.8032545611024114
-3.901,-1.693143941599645,-0.01910331912002144
-3.9005,-0.9569018764195432,0.9557874141553824
-3.9,-0.3807124341046804,1.718745379327438
-3.8995,-0.01792648894347063,2.132014277128968
-3.899,0.1527963087794516,2.301560491611646
-3.8985,0.2061471830678648,2.280367214801311
-3.898,0.1954770082101822,2.132014277128968
-3.8975,0.1848068333524996,1.962468062646288
-3.897,0.2594980573562781,1.75053529454294
-3.8965,0.79300680024041,1.093543713422559
-3.896,1.625280439139656,0.002089957690313421
-3.8955,2.329511979746711,-0.9516074987747555
-3.895,2.777659323769381,-1.672178910326141
-3.8945,2.766989148911699,-2.043061254507001
-3.894,2.169459356881471,-1.545019249464132
-3.8935,1.422547116843686,-0.8562377531282487
-3.893,0.7716664505250448,-0.3581957480853793
-3.8925,0.3235191065023739,-0.1144730647665284
-3.892,0.08877525963335578,-0.08268314955102604
-3.8915,-0.01792648894347063,-0.2416327256285375
-3.891,-0.1886492866663929,-0.5489352393783931
-3.8905,-0.2420001609548061,-0.5383386009732256
-3.89,-0.1673089369510276,-0.3475991096802118
-3.8895,-0.1352984123779797,-0.1780528951975329
-3.889,-0.156638762093345,-0.07208651114585861
-3.8885,-0.1779791118087102,0.01268659609548085
-3.888,-0.5834457564006506,-0.3052125560595421
-3.8875,-1.30901764672307,-0.8880276683437509
-3.887,-1.543761493592088,-1.375473034981453
-3.8865,-1.26633694729234,-1.587405803084801
