Class_7_Listen_To_Music/Class_7_Listen_To_Music_Zakour_1.csv

#Digilent WaveForms Oscilloscope Acquisition
#Device Name: EExplorer
#Serial Number: SN:210151A2B84A
#Date Time: 2020-10-20 13:10:19.234
#Sample rate: 2000Hz
#Samples: 16384
#Trigger: Source: Channel 1 Type: Edge Condition: Rising Level: 0 V Hyst.: Auto HoldOff: 0 s
#Channel 1: Range: 1 V/div Offset: 0 V
#Channel 2: Range: 1 V/div Offset: 0 V

Time (s),Channel 1 (V),Channel 2 (V)
-4.0960000000000001,-0.4554036581084589,-0.019103319120021445
-4.0955000000000004,-0.59411593125820716,0.023283234500609734
-4.0949999999999998,-0.63679663068907344,0.023283234500657925
-4.0945,-0.64746680554674652,0.033879872905815719
-4.0940000000000003,-0.67947733011976519,0.10805634174192029
-4.0934999999999997,-1.0636036249965055,0.51072860113855256
-4.093,-1.2129860730039266,0.73325800764686633
-4.0925000000000002,-1.0742737998541783,0.6590815388107617
-4.0919999999999996,-0.85020012784252263,0.47893868592281896
-4.0914999999999999,-0.63679663068906378,0.4471487707073456
-4.0910000000000002,-0.071277363231883828,0.92399749893988004
-4.0904999999999996,0.8356874996717909,1.2418966510941705
-4.0899999999999999,1.5505892151358776,0.43655213230217815
-4.0895000000000001,1.657290963712704,-0.29461591765437467
-4.0890000000000004,1.6893014882857229,-0.99399405239478922
-4.0884999999999998,1.4972383408474643,-1.2801032893349458
-4.0880000000000001,0.87836819910187125,-0.81385119950757889
-4.0875000000000004,0.24882788249916798,-0.15685961838779561
-4.0869999999999997,-0.1886492866666161,0.40476221708702281
-4.0865,-0.43406330839309365,0.78624119967270345
-4.0860000000000003,-0.53009488211214995,1.0087706061810171
-4.0854999999999997,-0.5514352318275737,1.1147369902328941
-4.085,-0.51942470725455481,1.1147369902328941
-4.0845000000000002,-0.47674400782386306,1.0511571598019471
-4.0839999999999996,-0.39138260896224658,0.87101430691375381
-4.0834999999999999,-0.26334051067017139,0.55311515475901996
-4.0830000000000002,0.15279630877945163,-0.029699957525188878
-4.0824999999999996,0.92104889853311611,-0.79265792269796687
-4.0819999999999999,1.4865681659897818,-1.5874058030848013
-4.0815000000000001,1.2731646688361289,-2.3503637682568566
-4.0810000000000004,0.75032610081015505,-1.7039688255422312
-4.0804999999999998,0.11011560934872107,-0.95160749877475548
-4.0800000000000001,-0.31669138495858457,-0.38998566330088158
-4.0795000000000003,-0.48741418268135162,0.012686596095114633
-4.0789999999999997,-0.61545628097374705,0.065669788121250558
-4.0785,-0.66880715526211176,-0.0085066807148540119
-4.0780000000000003,-0.65813698040443869,-0.082683149550958582
-4.0774999999999997,-0.63679663068924819,-0.10387642636111996
-4.077,-0.83952995298503397,0.16103953376782493
-4.0765000000000002,-0.98891240099245525,0.38356894027613864
-4.0759999999999996,-0.89288082727330165,0.36237566346593869
-4.0754999999999999,-0.73282820440820751,0.28819919462983412
-4.0750000000000002,-0.62612645583138127,0.28819919462983412
-4.0744999999999996,-0.92489135184673776,0.71206473083708077
-4.0739999999999998,-1.1916457232885611,1.3160731199310751
-4.0735000000000001,-0.47674400782382426,0.94519077575021493
-4.0730000000000004,0.55826295337045084,-0.19924617200682682
-4.0724999999999998,1.4758979911320991,-1.2483133741194434
-4.0720000000000001,1.7533225374318477,-1.6191957183003036
-4.0715000000000003,1.2411541442635468,-1.0787671596372563
-4.0709999999999997,0.54759277851321442,-0.29461591765376749
-4.0705,0.0034138607718946501,0.37297230187117358
-4.0700000000000003,-0.33803173467363934,0.818031114887801
-4.0694999999999997,-0.50875453239692059,1.0723504366123111
-4.069,-0.5621054066852853,1.1677201822587309
-4.0685000000000002,-0.54076505696992005,1.1677201822587309
-4.0679999999999996,-0.48741418268140985,1.0723504366120316
-4.0674999999999999,-0.38071243410468042,0.86041766850887547
-4.0670000000000002,-0.24200016095480609,0.53192187794868506
-4.0664999999999996,-0.092617712947161784,-0.14626297998327389
-4.0659999999999998,0.0034138607718946501,-1.5132293342486296
-4.0655000000000001,0.83568749967114075,-2.3397671298516891
-4.0650000000000004,1.443887466558498,-2.8378091348941057
-4.0644999999999998,1.1344523956862547,-2.2549940226103495
-4.0640000000000001,0.5689331282290746,-1.2801032893349458
-4.0635000000000003,0.0034138607724090164,-0.50654868575842693
-4.0629999999999997,-0.45540365810866268,-0.14626297998193427
-4.0625,-0.67947733011979428,-0.04029659593035631
-4.0620000000000003,-0.73282820440815899,-0.050893234335514105
-4.0614999999999997,-0.70081767983511123,-0.093279787956212751
-4.0609999999999999,-0.64746680554674652,-0.11447306476652835
-4.0605000000000002,-0.75416855412357298,0.055073149716150585
-4.0599999999999996,-1.287677297007773,0.55311515475912598
-4.0594999999999999,-1.3623685210114835,0.66967817721586165
-4.0590000000000002,-1.1382948490001481,0.53192187794868506
-4.0585000000000004,-0.87154047755832464,0.39416557868163371
-4.0579999999999998,-0.58344575640065055,0.55311515475901996
-4.0575000000000001,0.13145595906408636,1.1359302670432285
-4.0570000000000004,1.0064102973932672,0.9981739677761774
-4.0564999999999998,1.6466207888550213,-0.072086511145858609
-4.056,2.0200769088739139,-1.1529436284729369
-4.0555000000000003,2.1374488323083161,-1.7887419327824046
-4.0549999999999997,1.5825997397081879,-1.4496495038168733
-4.0545,0.77166645052504479,-0.62311170821456507
-4.0540000000000003,0.11011560934932274,0.16103953376711166
-4.0534999999999997,-0.29535103524340373,0.72266136924199764
-4.0529999999999999,-0.4980843575391895,1.0511571598018894
-4.0525000000000002,-0.5621054066852853,1.2101067358794007
-4.0519999999999996,-0.55143523182756393,1.2524932895000029
-4.0514999999999999,-0.50875453239687207,1.1783168206638983
-4.0510000000000002,-0.44473348325077627,1.0299638829915545
-4.0505000000000004,-0.30602121010102812,0.72266136924197832
-4.0499999999999998,-0.071277363231883828,0.27760255622466667
-4.0495000000000001,0.54759277851370936,-0.41117894011121647
-4.0490000000000004,1.1237822208280479,-1.3330864813599446
-4.0484999999999998,1.3265155431246392,-2.3503637682566736
-4.048,1.4332172917013686,-2.1490276385586755
-4.0475000000000003,0.85702784938703003,-1.3754730349821562
-4.0469999999999997,0.25949805735591902,-0.66549826183481076
-4.0465,-0.13529841237797968,-0.19924617200786782
-4.0460000000000003,-0.45540365810816774,-0.07208651114597428
-4.0454999999999997,-0.62612645583142013,-0.082683149551064594
-4.0449999999999999,-0.66880715526211176,-0.12506970317169577
-4.0445000000000002,-0.66880715526211176,-0.12506970317169577
-4.0439999999999996,-0.69014750497776811,-0.061489872740363501
-4.0434999999999999,-1.0102527507079564,0.29879583303500157
-4.0430000000000001,-1.1276246741424654,0.50013196273318283
-4.0425000000000004,-0.98891240099271727,0.436552132302236
-4.0419999999999998,-0.79684925355430347,0.30939247144016896
-4.0415000000000001,-0.6047861061160158,0.28819919462983412
-4.0410000000000004,-0.14596858723607958,0.754451284456777
-4.0404999999999998,0.70764540137966714,0.88161094531842976
-4.04,1.4972383408474643,0.023283234500648287
-4.0395000000000003,1.9560558597274007,-0.97280077558418443
-4.0389999999999997,2.2014698814541691,-1.6615822719208577
-4.0385,1.8173435865779437,-1.5344226110589645
-4.0380000000000003,1.0064102973948006,-0.76086800748244532
-4.0374999999999996,0.27016823221351427,0.033879872906355427
-4.0369999999999999,-0.22065981123944084,0.62729162359519197
-4.0365000000000002,-0.47674400782382426,0.98757732937088472
-4.0359999999999996,-0.57277558154296804,1.1783168206639465
-4.0354999999999999,-0.57277558154296804,1.2313000126897355
-4.0350000000000001,-0.54076505696992005,1.1889134590690658
-4.0345000000000004,-0.45540365810853656,1.0193672445865412
-4.0339999999999998,-0.4554036581084589,0.59550170837968963
-4.0335000000000001,-0.91422117698881245,-0.40058230170604903
-4.0330000000000004,-0.41272295867818443,-1.0999604364464637
-4.0324999999999998,0.52625242879911072,-1.9688847856714651
-4.032,1.3691962425552726,-2.6682629204118795
-4.0315000000000003,1.8066734117198631,-2.6894561972221953
-4.0309999999999997,1.3265155431238143,-1.7887419327822118
-4.0305,0.52625242879834411,-0.94101086036958814
-4.0300000000000002,-0.11395806266203212,-0.37938902489622495
-4.0294999999999996,-0.48741418268165243,-0.082683149550920029
-4.0289999999999999,-0.64746680554674652,0.033879872905815719
-4.0285000000000002,-0.67947733011979428,0.044476511310983152
-4.0279999999999996,-0.65813698040439994,0.033879872905834996
-4.0274999999999999,-0.62612645583138127,0.055073149716150585
-4.0270000000000001,-0.8928808272734472,0.35177902506083869
-4.0265000000000004,-1.1703053735729436,0.61669498518978361
-4.0259999999999998,-1.1062843244271001,0.54251851635385251
-4.0255000000000001,-0.90355100213112993,0.39416557868150842
-4.0250000000000004,-0.70081767983534415,0.3305857482505617
-4.0244999999999997,-0.27401068552705826,0.73325800764721327
-4.024,0.60094365280212259,1.1147369902328941
-4.0235000000000003,1.4332172917006116,0.38356894027700605
-4.0229999999999997,1.7213120128588484,-0.43237221692219702
-4.0225,1.774662887147213,-1.1423469900677694
-4.0220000000000002,1.7213120128588484,-1.5238259726534502
-4.0214999999999996,1.1131120459702681,-1.0681705212309227
-4.0209999999999999,0.43022085507920033,-0.32640583286987701
-4.0205000000000002,-0.092617712947249131,0.30939247144016896
-4.0199999999999996,-0.39138260896248922,0.74385464605225549
-4.0194999999999999,-0.53009488211223732,0.98757732937088472
-4.0190000000000001,-0.57277558154296804,1.0935437134225592
-4.0185000000000004,-0.54076505696994914,1.0935437134225592
-4.0179999999999998,-0.48741418268150688,0.98757732937088472
-4.0175000000000001,-0.3700422592469978,0.75445128445720111
-4.0170000000000003,-0.16730893695121199,0.3941655786818361
-4.0164999999999997,0.24882788249909032,-0.11447306476729936
-4.016,0.79300680024041004,-0.96220413717992292
-4.0155000000000003,0.95305942310550418,-2.1702209153679117
-4.0149999999999997,1.5185786905625287,-2.5940864515751967
-4.0145,1.1878032699746677,-2.0324646161018336
-4.0140000000000002,0.49424190422592695,-1.1635402668788946
-4.0134999999999996,-0.039266838659194982,-0.35819574808498417
-4.0129999999999999,-0.43406330839309365,0.076266426526485451
-4.0125000000000002,-0.66880715526211176,0.16103953376782493
-4.0119999999999996,-0.72215802955050556,0.10805634174192029
-4.0114999999999998,-0.70081767983515975,0.033879872905815719
-4.0110000000000001,-0.67947733011979428,0.012686596095480854
-4.0105000000000004,-0.7861790786965237,0.17163617217284777
-4.0099999999999998,-1.1169544992847826,0.52132523954351762
-4.0095000000000001,-1.0849439747117349,0.53192187794868506
-4.0090000000000003,-0.90355100213129491,0.4047622170867915
-4.0084999999999997,-0.72215802955028241,0.28819919462997867
-4.008,-0.4554036581084589,0.4471487707073456
-4.0075000000000003,0.27016823221330072,0.97698069096523543
-4.0069999999999997,1.1557927454021439,0.62729162359454627
-4.0065,1.7319821877164825,-0.082683149551026042
-4.0060000000000002,2.0414172585892789,0.21402272579366208
-4.0054999999999996,2.1161084825925141,0.62729162359511492
-4.0049999999999999,1.5185786905628296,0.54251851635385251
-4.0045000000000002,0.71831557623663156,0.40476221708667587
-4.0039999999999996,0.067434909917631444,0.31998910984536533
-4.0034999999999998,-0.32736155981626724,0.35177902506083869
-4.0030000000000001,-0.51942470725455481,0.45774540911251305
-4.0025000000000004,-0.58344575640059237,0.60609834678472219
-4.0019999999999998,-0.58344575640065055,0.76504792286236856
-4.0015000000000001,-0.50875453239687207,0.83922439169854057
-4.0010000000000003,-0.4340633083931616,0.90280422212948741
-4.0004999999999997,-0.17797911180847734,0.77564456126734327
-4,0.078105084775673142,0.5637117931641874
-3.9994999999999998,0.4835717293676135,0.055073149716150585
-3.9990000000000001,0.50491207908297886,-1.1211537132574345
-3.9984999999999999,0.8997085488172365,-1.746355379162313
-3.9980000000000002,1.1984734448323504,-1.8841116784294898
-3.9975000000000001,0.78233662538272752,-1.1953301820936066
-3.9969999999999999,0.29150858192932599,-0.20984281041303524
-3.9965000000000002,-0.12462823752029703,0.50013196273318283
-3.996,-0.47674400782382426,0.7968378380778709
-3.9954999999999998,-0.64746680554674652,0.83922439169854057
-3.9950000000000001,-0.69014750497747701,0.74385464605203377
-3.9944999999999999,-0.69014750497747701,0.58490506997452218
-3.9940000000000002,-0.71148785469284226,0.47893868592284788
-3.9935,-0.99958257585027366,0.64848490040552687
-3.9929999999999999,-1.0422632752810042,0.5637117931641874
-3.9925000000000002,-0.91422117698881245,0.29879583303500157
-3.992,-0.76483872898125549,0.065669788121318018
-3.9914999999999998,-0.64746680554674652,0.0020899576903134209
-3.9910000000000001,-0.19931946152407554,0.51072860113835017
-3.9904999999999999,0.6863050516635838,0.57430843156935485
-3.9900000000000002,1.4758979911320991,-0.31580919446470956
-3.9895,1.9773962094431832,-1.333086481360783
-3.9889999999999999,2.2441505808852491,-2.0960444465328383
-3.9885000000000002,1.838683936293309,-1.9794814240759964
-3.988,1.006410297394063,-1.1635402668781043
-3.9874999999999998,0.27016823221396069,-0.34759910968021185
-3.9870000000000001,-0.23132998609712346,0.24581264100916439
-3.9864999999999999,-0.48741418268150688,0.59550170837968963
-3.9860000000000002,-0.58344575640065055,0.76504792286236856
-3.9855,-0.59411593125833329,0.81803111488820579
-3.9849999999999999,-0.55143523182760279,0.775644561267536
-3.9845000000000002,-0.48741418268150688,0.6590815388106942
-3.984,-0.41272295867772835,0.46834204751768049
-3.9834999999999998,-0.32736155981626724,0.27760255622466667
-3.9830000000000001,0.024754210487259936,-0.10387642636136091
-3.9824999999999999,0.81434714995577528,-0.81385119950757889
-3.9820000000000002,1.539919040278195,-1.523825972653797
-3.9815,1.2198137945477157,-2.2443973842051821
-3.9809999999999999,0.50491207908297886,-1.6933721871364757
-3.9805000000000001,-0.12462823752029703,-0.97280077558509037
-3.98,-0.55143523182760279,-0.48535540894738849
-3.9794999999999998,-0.65813698040442903,-0.061489872740691176
-3.9790000000000001,-0.66880715526211176,0.13984625695749003
-3.9784999999999999,-0.69014750497747701,0.15044289536265748
-3.9780000000000002,-0.67947733011979428,0.15044289536265748
-3.9775,-0.67947733011979428,0.19282944898332721
-3.9769999999999999,-0.93556152670417769,0.46834204751768049
-3.9765000000000001,-1.1382948490001481,0.68027481562102909
-3.976,-1.0209229255656389,0.60609834678485708
-3.9754999999999998,-0.81818960326966872,0.46834204751768049
-3.9750000000000001,-0.64746680554674652,0.40476221708667587
-3.9744999999999999,-0.51942470725455481,0.58490506997452218
-3.9740000000000002,-0.017926488943470625,0.59550170837968963
-3.9735,0.857027849386506,-0.20984281041303524
-3.9729999999999999,1.3585260676975901,-0.72907809226623943
-3.9725000000000001,1.6146102642819735,-1.2377167357142764
-3.972,1.6466207888550213,-1.4602461422227924
-3.9714999999999998,1.0811015213978414,-0.9304142219644207
-3.9710000000000001,0.40888050536383502,-0.19924617200786782
-3.9704999999999999,-0.10328788780493176,0.39416557868150842
-3.9700000000000002,-0.40205278382004572,0.76504792286236856
-3.9695,-0.54076505696992005,0.93459413734504748
-3.9689999999999999,-0.57277558154296804,0.98757732937088472
-3.9685000000000001,-0.5621054066852853,0.93459413734504748
-3.968,-0.48741418268150688,0.75445128445720111
-3.9674999999999998,-0.3700422592469978,0.46834204751768049
-3.9670000000000001,-0.28468086038553664,0.25640927941433178
-3.9664999999999999,0.13145595906408636,-0.2310360872233701
-3.9660000000000002,0.8997085488172365,-0.97280077558509037
-3.9655,1.006410297394063,-2.1066410849380057
-3.9649999999999999,1.2945050185514941,-2.6046830899808748
-3.9645000000000001,1.0917716962555239,-2.0748511697225034
-3.964,0.4622313796522482,-1.2483133741194434
-3.9634999999999998,-0.028596663801153277,-0.4641621321370536
-3.9630000000000001,-0.3700422592469978,-0.04029659593035631
-3.9624999999999999,-0.59411593125833329,0.086863064931652884
-3.9620000000000002,-0.67947733011979428,0.10805634174198775
-3.9615,-0.69014750497747701,0.097459703336820316
-3.9609999999999999,-0.66880715526211176,0.097459703336820316
-3.9605000000000001,-0.77550890383893822,0.25640927941433178
-3.96,-1.0849439747117349,0.59550170837968963
-3.9594999999999998,-1.0529334501386869,0.61669498519002452
-3.9590000000000001,-0.8928808272734472,0.52132523954351762
-3.9584999999999999,-0.74349837926589024,0.43655213230217815
-3.9580000000000002,-0.48741418268150688,0.74385464605203377
-3.9575,0.27016823221396069,1.3584596735517449
-3.9569999999999999,1.1664629202593024,1.3690563119569124
-3.9565000000000001,1.7853330620048957,0.30939247144016896
-3.956,2.1587891820237881,-0.88802766834375091
-3.9554999999999998,2.1587891820237881,-1.5768091646796343
-3.9550000000000001,1.4652278162744163,-1.2695066509297783
-3.9544999999999999,0.63295417737517057,-0.53833860097322561
-3.9540000000000002,-0.0072563140857879876,0.13984625695749003
-3.9535,-0.38071243410468042,0.63788826200035942
-3.9529999999999998,-0.5621054066852853,0.92399749893988004
-3.9525000000000001,-0.6047861061160158,1.0617537982070568
-3.952,-0.59411593125833329,1.0935437134225592
-3.9514999999999998,-0.51942470725455481,1.0193672445863871
-3.9510000000000001,-0.41272295867772835,0.80743447648303834
-3.9504999999999999,-0.33803173467394987,0.61669498519002452
-3.9500000000000002,-0.64746680554674652,-0.061489872740691176
-3.9495,-0.50875453239687207,-1.1635402668781043
-3.9489999999999998,0.55826295337139209,-1.9794814240759964
-3.9485000000000001,1.4652278162744163,-2.6364730051963772
-3.948,1.5612593899935603,-2.2232041073948472
-3.9474999999999998,1.0170804722517455,-1.227120097309109
-3.9470000000000001,0.30217875678700862,-0.47475877054222104
-3.9464999999999999,-0.28468086038553664,-0.12506970317169577
-3.9460000000000002,-0.61545628097369853,0.0020899576903134209
-3.9455,-0.73282820440820751,0.012686596095480854
-3.9449999999999998,-0.73282820440820751,-0.029699957525188878
-3.9445000000000001,-0.69014750497747701,-0.029699957525188878
-3.944,-0.70081767983515975,0.044476511310983152
-3.9434999999999998,-1.0315931004233216,0.43655213230217815
-3.9430000000000001,-1.0956141495694174,0.55311515475901996
-3.9424999999999999,-0.95690187641954316,0.45774540911251305
-3.9420000000000002,-0.78617907869662074,0.34118238665567124
-3.9415,-0.57277558154296804,0.42595549389701071
-3.9409999999999998,0.067434909917990504,0.9134008605347127
-3.9405000000000001,0.96372959796333246,0.68027481562102909
-3.9399999999999999,1.6786313134280693,-0.36879238649054674
-3.9394999999999998,2.1161084825930576,-1.3648763965762853
-3.9390000000000001,2.3188418048890278,-1.9794814240759964
-3.9384999999999999,1.8706944608663567,-1.7251621023519781
-3.9380000000000002,1.006410297394063,-0.83504447631791379
-3.9375,0.24882788249859539,0.023283234500648287
-3.9369999999999998,-0.24200016095480609,0.6590815388106942
-3.9365000000000001,-0.50875453239687207,1.0193672445863871
-3.9359999999999999,-0.59411593125833329,1.1783168206638983
-3.9355000000000002,-0.6047861061160158,1.2101067358794007
-3.9350000000000001,-0.5621054066852853,1.1359302670432285
-3.9344999999999999,-0.48741418268150688,0.92399749893988004
-3.9340000000000002,-0.38071243410468042,0.6590815388106942
-3.9335,-0.27401068552785401,0.38356894027634103
-3.9329999999999998,-0.028596663801153277,-0.04029659593035631
-3.9325000000000001,0.54759277851370936,-0.792657922697244
-3.9319999999999999,0.5689331282290746,-1.9900780624811638
-3.9315000000000002,0.54759277851370936,-2.4775234291188659
-3.931,0.29150858192932599,-2.1066410849380057
-3.9304999999999999,-0.14596858723566233,-1.3542797581711179
-3.9300000000000002,-0.42339313353541097,-0.60191843140423029
-3.9295,-0.55143523182760279,-0.1674562567923655
-3.9289999999999998,-0.65813698040442903,-0.061489872740691176
-3.9285000000000001,-0.70081767983515975,-0.050893234335523743
