Class_7_Listen_To_Music/Class_7_Listen_To_Music_Zakour_6.csv

#Digilent WaveForms Oscilloscope Acquisition
#Device Name: EExplorer
#Serial Number: SN:210151A2B84A
#Date Time: 2020-12-10 13:47:48.253
#Sample rate: 2000Hz
#Samples: 16384
#Trigger: Source: Channel 1 Type: Edge Condition: Rising Level: 0 V Hyst.: Auto HoldOff: 0 s
#Channel 1: Range: 1 V/div Offset: 0 V Attenuation: 1 X
#Channel 2: Range: 1 V/div Offset: 0 V Attenuation: 1 X
#Power Supplies: ON
#Fixed Supply: ON
#Voltage: 3.3 V Readback: 3.331 V
#Positive Supply: ON
#Voltage: 3.7 V Readback: 3.696 V
#Current: 40 mA Readback: 18 mA
#Negative Supply: ON
#Voltage: -3.7 V Readback: -3.948 V
#Current: -40 mA Readback: -13 mA
#Reference 1: ON
#Voltage: 0 V
#Reference 2: ON
#Voltage: 0 V

Time (s),Channel 1 (V),Channel 2 (V)
-4.096,0.3341892813600565,0.5637117931641874
-4.0955,0.2061471830679813,0.5955017083796608
-4.095,0.131455959063999,0.5425185163538718
-4.0945,0.03542438534494258,0.5637117931641874
-4.094,-0.1246282375201515,0.7226613692415543
-4.0935,-0.1352984123779312,0.6908714540261195
-4.093,-0.08194753808956648,0.6060983467848571
-4.0925,-0.0285966638012018,0.5425185163539104
-4.092,0.01408403562938321,0.5425185163541031
-4.0915,-0.1993194615240755,0.8180311148882058
-4.091,-0.8715404775580819,1.114736990232894
-4.0905,-1.639793067312028,0.5001319627321709
-4.09,-2.514747405641209,-0.6125150698093976
-4.0895,-3.261659645678994,-1.767548655972648
-4.089,-2.781501777083711,-1.831128486403595
-4.0885,-1.842526389607202,-1.036380606016095
-4.088,-0.9248913518464952,-0.1038764263613609
-4.0875,-0.2206598112400814,0.6908714540254737
-4.087,0.08877525963345283,1.093543713422723
-4.0865,0.1954770082101822,1.273686566310405
-4.086,0.2168173579255281,1.337266396741352
-4.0855,0.1954770082101725,1.294879843120634
-4.085,0.1848068333524996,1.178316820663898
-4.0845,0.1954770082101725,1.008770606181374
-4.084,0.227487532783463,0.8392243916980779
-4.0835,0.4835717293676135,0.3305857482505039
-4.083,1.166462920259302,-0.6125150698093976
-4.0825,1.72131201285879,-1.534422611059591
-4.082,1.710641838001117,-2.223204107394847
-4.0815,1.582599739708926,-2.54110325954987
-4.081,1.401206767128486,-1.852321763214614
-4.0805,1.081101521397841,-0.9304142219644207
-4.08,0.7609962756673623,-0.1992461720078678
-4.0795,0.4835717293678658,0.1928294489829706
-4.079,0.2701682322138442,0.3517790250608869
-4.0785,0.142126133921769,0.4047622170866759
-4.078,0.05676473506038548,0.4047622170866759
-4.0775,-0.1352984123780282,0.6272916235952113
-4.077,-0.1886492866663929,0.6484849004055269
-4.0765,-0.1246282375203553,0.5319218779487911
-4.076,-0.03926683865878739,0.4153588554917951
-4.0755,0.01408403562957729,0.3623756634660061
-4.075,-0.08194753808956648,0.5637117931641874
-4.0745,-0.6688071552627813,1.06175379820672
-4.074,-1.405049220442214,0.6908714540261965
-4.0735,-2.151961460479999,-0.2204394488182027
-4.073,-2.930884225090123,-1.354279758170087
-4.0725,-2.76016142736791,-1.820531847998485
-4.072,-1.799845690176472,-1.05757388282643
-4.0715,-0.9462317015626368,-0.1992461720086484
-4.071,-0.2633405106698414,0.5637117931646115
-4.0705,0.09944543449103843,1.029963882991555
-4.07,0.1954770082100948,1.220703374284395
-4.0695,0.2061471830678454,1.284283204715563
-4.069,0.1848068333524996,1.273686566310405
-4.0685,0.1634664836371343,1.199510097474233
-4.068,0.1634664836371537,1.07235043661208
-4.0675,0.1848068333524996,0.9134008605347127
-4.067,0.2808384070716433,0.6166949851900245
-4.0665,0.7396559259525597,-0.0614898727415682
-4.066,1.35852606769759,-1.025783967610927
-4.0655,1.614610264281974,-1.831128486403653
-4.065,1.667961138570338,-2.159624276963544
-4.0645,1.465227816274416,-1.619195718300304
-4.064,1.166462920259302,-0.8774310299385835
-4.0635,0.8676980242444603,-0.3052125560600626
-4.063,0.5902734779442458,0.09745970333704199
-4.0625,0.3768699807907871,0.3411823866556712
-4.062,0.227487532783366,0.3941655786814602
-4.0615,0.1314559590639796,0.3517790250609255
-4.061,0.01408403562957729,0.4471487707073456
-4.0605,-0.06060718837420119,0.5213252395435176
-4.06,-0.04993701351647974,0.4471487707072782
-4.0595,-0.007256314085787988,0.3729723018711736
-4.059,0.02475421048725994,0.3411823866556712
-4.0585,0.003413860771914058,0.4259554938969336
-4.058,-0.4127229586777283,0.92399749893988
-4.0575,-1.180975548430879,0.9134008605347127
-4.057,-1.895877263894965,0.04447651131177344
-4.0565,-2.386705307349017,-0.9728007755850904
-4.056,-3.00557544909461,-2.032464616101834
-4.0555,-2.333354433061215,-1.608599079895522
-4.055,-1.45840009472987,-0.7078848154550371
-4.0545,-0.6261264558313813,0.2458126410091644
-4.054,-0.08194753809006139,0.9345941373444211
-4.0535,0.1314559590641446,1.27368656631054
-4.053,0.1954770082101822,1.42203950398275
-4.0525,0.1954770082101822,1.464426057603419
-4.052,0.1848068333524996,1.390249588767132
-4.0515,0.1848068333524996,1.263089927905238
-4.051,0.2061471830678648,1.072350436612224
-4.0505,0.2701682322139025,0.8180311148884372
-4.05,0.6009436528021226,0.2140227257936621
-4.0495,1.369196242555273,-0.7820612842920766
-4.049,2.030747083730995,-1.682775548730489
-4.0485,2.308171630031384,-2.350363768257098
-4.048,2.350852329462076,-2.615279728386042
-4.0475,1.977396209443523,-1.873515040024997
-4.047,1.37986641741246,-0.898624306748263
-4.0465,0.8356874996711408,-0.1780528951975329
-4.046,0.451561204794915,0.2246193641984633
-4.0455,0.2274875327831136,0.3729723018711447
-4.045,0.09944543449103843,0.3411823866556712
-4.0445,0.01408403562957729,0.2881991946298341
-4.044,-0.06060718837419148,0.3305857482504653
-4.0435,-0.04993701351651855,0.2881991946298341
-4.043,-0.01792648894347063,0.2458126410091644
-4.0425,0.01408403562954818,0.2246193641988488
-4.042,0.03542438534494258,0.2564092794143318
-4.0415,-0.3060212101009019,0.4153588554918433
-4.041,-1.063603624995681,0.07626642652679388
-4.0405,-1.82118603989238,-0.6231117082151048
-4.04,-2.418715831922065,-1.216523458903942
-4.0395,-2.90954387537502,-1.788741932782462
-4.039,-2.856193001086161,-1.968884785669962
-4.0385,-1.87453691418025,-1.01518732920576
-4.038,-0.9995825758510695,-0.07208651114671638
-4.0375,-0.3166913849582061,0.7120647308369747
-4.037,0.09944543449103843,1.199510097474233
-4.0365,0.1954770082101822,1.347863035146577
-4.036,0.2061471830678551,1.379652950362022
-4.0355,0.1954770082101822,1.316073119931075
-4.035,0.1741366584948169,1.188913459069066
-4.0345,0.1741366584948169,1.040560521396857
-4.034,0.2701682322139607,0.7544512844572011
-4.0335,0.7823366253827275,0.03387987290581572
-4.033,1.401206767127758,-0.7714646458861768
-4.0325,1.753322537431702,-1.58740580308537
-4.032,1.593269914566608,-2.21260746898968
-4.0315,1.379866417413149,-1.820531847998842
-4.031,1.198473444832079,-1.004590690800005
-4.0305,0.8997085488172365,-0.3581957480853793
-4.03,0.6116138276600671,0.07626642652609034
-4.0295,0.3875401556483339,0.25640927941438
-4.029,0.2381577076409128,0.309392471440169
-4.0285,0.1314559590640864,0.2776025562246667
-4.028,0.06743490991786434,0.2352160026040355
-4.0275,-0.07127736323188383,0.2776025562246667
-4.027,-0.1032878878049318,0.2776025562246667
-4.0265,-0.06060718837424001,0.256409279414351
-4.026,-0.007256314085787988,0.2776025562246667
-4.0255,0.02475421048725994,0.3305857482505039
-4.025,-0.07127736323179648,0.5637117931639753
-4.0245,-0.6794773301205221,1.125333628637821
-4.024,-1.479740444445993,0.8604176685088755
-4.0235,-2.312014083344482,-0.0932797879553261
-4.023,-3.10160702281387,-1.258910012525228
-4.0225,-3.229649121105945,-1.937094870455327
-4.022,-2.386705307349783,-1.428456227007753
-4.0215,-1.394379045583745,-0.4959520473517174
-4.021,-0.5300948821122373,0.4259554938970107
-4.0205,-0.03926683865883591,1.029963882991555
-4.02,0.1527963087795099,1.316073119931191
-4.0195,0.2168173579255475,1.443232780793084
-4.019,0.2061471830678648,1.453829419198252
-4.0185,0.1954770082101919,1.390249588767305
-4.018,0.1954770082101822,1.241896651094903
-4.0175,0.2168173579255475,1.051157159801889
-4.017,0.2381577076408934,0.8498210301038911
-4.0165,0.4622313796528111,0.3941655786806314
-4.016,1.081101521397841,-0.570128516188728
-4.0155,1.497238340847086,-1.492036057437456
-4.015,1.657290963712685,-1.97948142407563
-4.0145,1.635950613997339,-1.576809164679634
-4.014,1.379866417413188,-0.803254561103115
-4.0135,0.9957401225360503,-0.1568596183868704
-4.013,0.6329541773751706,0.2034260873884947
-4.0125,0.3661998059331045,0.3517790250608387
-4.012,0.2168173579254796,0.3517790250607423
-4.0115,0.142126133921769,0.2458126410091644
-4.011,-0.007256314085787988,0.309392471440169
-4.0105,-0.1246282375201903,0.4047622170865891
-4.01,-0.1032878878049318,0.3517790250608387
-4.0095,-0.08194753808956648,0.2987958330350016
-4.009,-0.03926683865887473,0.2987958330350016
-4.0085,-0.113958062663119,0.4259554938968854
-4.008,-0.6688071552621118,0.2881991946298341
-4.0075,-1.373038695868526,-0.3581957480847914
-4.007,-1.917217613611544,-1.195330182094358
-4.0065,-2.536087755356574,-2.021867977696666
-4.006,-2.738821077652544,-2.17022091536901
-4.0055,-2.247993034198347,-1.608599079894192
-4.005,-1.373038695869166,-0.570128516188728
-4.0045,-0.5621054066852853,0.4153588554918433
-4.004,-0.1032878878047377,0.9981739677763123
-4.0035,0.1101156093487211,1.284283204715573
-4.003,0.1954770082101822,1.400846227172415
-4.0025,0.2061471830678551,1.400846227172415
-4.002,0.1954770082101822,1.326669758336243
-4.0015,0.1954770082101822,1.178316820663898
-4.001,0.2061471830678551,0.9875773293710581
-4.0005,0.2594980573565304,0.7014680924308725
-4,0.5369226036560266,0.1610395337678249
-3.9995,1.262494493978446,-0.7820612842920766
-3.999,1.92404533515477,-1.640388995110639
-3.9985,2.233480406027567,-2.202010830584512
-3.998,2.201469881454519,-2.244397384205182
-3.9975,1.774662887147213,-1.566212526274467
-3.997,1.219813794547716,-0.7502713690765743
-3.9965,0.7609962756673623,-0.1250697031716958
-3.996,0.4302208550792003,0.1822328105781598
-3.9955,0.2061471830678648,0.2776025562246667
-3.995,0.09944543449103843,0.2776025562246667
-3.9945,0.01408403562957729,0.3199891098453364
-3.994,-0.156638762093345,0.55311515475902
-3.9935,-0.1673089369510276,0.5319218779486851
-3.993,-0.09261771294724913,0.4047622170866759
-3.9925,-0.01792648894347063,0.3199891098453364
-3.992,0.02475421048725994,0.2987958330350016
-3.9915,-0.2313299860971235,0.4259554938970107
-3.991,-0.9355615267041777,0.1716361721729923
-3.9905,-1.853196564464885,-0.7608680074817418
-3.99,-2.792171951940957,-1.862918401619155
-3.9895,-3.058926323383024,-2.149027638558676
-3.989,-2.80284212679864,-1.979481424075996
-3.9885,-1.842526389607202,-1.004590690800593
-3.988,-0.8822106524157645,0.04447651131098315
-3.9875,-0.2846808603855366,0.7226613692416989
-3.987,0.04609456020262521,1.135930267043229
-3.9865,0.1848068333524996,1.326669758336243
-3.986,0.2274875327832301,1.37965295036208
-3.9855,0.2168173579255475,1.33726639674141
-3.985,0.2061471830678648,1.178316820663898
-3.9845,0.2594980573562781,0.9134008605347127
-3.984,0.291508581929326,0.6378882620003594
-3.9835,0.4195506802215176,0.2246193641988295
-3.983,0.9637295979633325,-0.6019184314042303
-3.9825,1.657290963712704,-1.449649503817625
-3.982,1.988066384300866,-2.085447808127671
-3.9815,1.934715510012453,-1.809935209593318
-3.981,1.646620788855021,-0.9304142219644207
-3.9805,1.251824319120764,-0.2946159176543747
-3.98,0.8676980242441885,0.09745970333682032
-3.9795,0.5369226036560266,0.2776025562246667
-3.979,0.291508581929326,0.2987958330350016
-3.9785,0.142126133921769,0.2458126410091644
-3.978,0.07810508477567314,0.2034260873884947
-3.9775,-0.02859666380115328,0.457745409112513
-3.977,-0.07127736323188383,0.5637117931641874
-3.9765,-0.03926683865883591,0.5213252395435176
-3.976,0.00341386077189465,0.4471487707073456
-3.9755,0.04609456020262521,0.4153588554918433
-3.975,-0.04993701351651855,0.5637117931641874
-3.9745,-0.6261264558313813,1.029963882991555
-3.974,-1.661133417026597,0.5107286011383502
-3.9735,-2.6427895039334,-0.8138511995075789
-3.973,-3.00557544909461,-1.619195718300304
-3.9725,-2.994905274236928,-2.021867977696666
-3.972,-2.109280761049269,-1.34368311976595
-3.9715,-1.095614149569417,-0.3158091944647096
-3.971,-0.4127229586777283,0.4683420475176805
-3.9705,-0.01792648894347063,0.9875773293708847
-3.97,0.1634664836371343,1.273686566310405
-3.9695,0.2168173579255475,1.411442865577582
-3.969,0.2168173579255475,1.432636142387917
-3.9685,0.2061471830678648,1.369056311956912
-3.968,0.2061471830678648,1.241896651094903
-3.9675,0.2168173579255475,1.093543713422559
-3.967,0.2381577076409128,0.8710143069140429
-3.9665,0.3341892813600565,0.5001319627331828
-3.966,0.9103787236749192,-0.4217755785163839
-3.9655,1.507908515705147,-1.364876396576285
-3.965,1.817343586577944,-2.064254531317336
-3.9645,1.945385684870135,-2.329170491446522
-3.964,1.657290963712704,-1.629792356705471
-3.9635,1.187803269974668,-0.7078848154559045
-3.963,0.7609962756673623,-0.06148987274069118
-3.9625,0.4302208550792003,0.2670059178194992
-3.962,0.2168173579255475,0.3623756634660061
-3.9615,0.1101156093487211,0.3199891098453364
-3.961,-0.02859666380115328,0.4365521323021782
-3.9605,-0.1779791118087102,0.5743084315693548
-3.96,-0.156638762093345,0.5107286011383502
-3.9595,-0.09261771294724913,0.4259554938970107
-3.959,-0.02859666380115328,0.3623756634660061
-3.9585,-0.03926683865883591,0.4153588554918433
-3.958,-0.5300948821122373,0.6908714540261965
-3.9575,-1.287677297007705,0.2987958330350016
-3.957,-2.162631635337682,-0.6866915386455698
-3.9565,-3.016245623952293,-1.820531847998485
-3.956,-3.176298246817533,-2.191414192179345
-3.9555,-2.546757930214257,-1.75695201756748
-3.955,-1.533091318734406,-0.7396747306714069
-3.9545,-0.6261264558313813,0.2564092794143318
-3.954,-0.124628237520297,0.849821030103708
-3.9535,0.1207857842064037,1.178316820663898
-3.953,0.2168173579255475,1.316073119931075
-3.9525,0.2274875327832301,1.33726639674141
-3.952,0.2061471830678648,1.273686566310405
-3.9515,0.2274875327832301,1.051157159801889
-3.951,0.2488278824985954,0.8710143069140429
-3.9505,0.2808384070716433,0.6590815388106942
-3.95,0.5155822539406614,0.2034260873884947
-3.9495,1.091771696255524,-0.6866915386455698
-3.949,1.347855892839907,-1.545019249464132
-3.9485,1.443887466559051,-2.17022091536901
-3.948,1.571929564851243,-2.435136875498196
-3.9475,1.411876941986003,-1.778145294377815
-3.947,1.070431346540159,-0.8668343915334161
-3.9465,0.7289857510943143,-0.1250697031716958
-3.946,0.4622313796522482,0.2776025562246667
-3.9455,0.2701682322139607,0.4259554938970107
-3.945,0.1634664836371343,0.4153588554918433
-3.9445,0.1207857842064037,0.3729723018711736
-3.944,0.09944543449103843,0.3729723018711736
-3.9435,0.08877525963335578,0.3199891098453364
-3.943,0.08877525963335578,0.2776025562246667
-3.9425,0.07810508477567314,0.2776025562246667
-3.942,0.04609456020262521,0.3411823866556712
-3.9415,-0.3807124341046804,0.6484849004055269
-3.941,-1.255666772434657,0.2034260873884947
-3.9405,-2.130621110764634,-0.8456411147230812
-3.94,-2.728150902794861,-1.767548655972648
-3.9395,-2.898873700517784,-2.032464616101834
-3.939,-2.717480727937179,-1.937094870455327
-3.9385,-1.810515865034154,-1.004590690800593
-3.938,-0.9035510021311299,-0.008506680714854012
-3.9375,-0.3166913849585846,0.6908714540261965
-3.937,0.02475421048725994,1.125333628638062
-3.9365,0.1848068333524996,1.347863035146577
-3.936,0.2274875327832301,1.42203950398275
-3.9355,0.2168173579255475,1.400846227172415
-3.935,0.2061471830678648,1.316073119931075
-3.9345,0.2168173579255475,1.146526905448396
-3.934,0.2061471830678648,0.9769806909657173
-3.9335,0.2594980573562781,0.7438546460520338
-3.933,0.7716664505250448,-0.01910331912002144
-3.9325,1.411876941986003,-1.004590690800593
-3.932,1.614610264281974,-1.788741932782983
-3.9315,1.529248865420512,-1.788741932782983
-3.931,1.326515543124542,-1.131750351662602
-3.9305,1.038420821967111,-0.4959520473525559
-3.93,0.7183155762366316,-0.05089323433552374
-3.9295,0.4515612047945656,0.1716361721729923
-3.929,0.2594980573562781,0.2670059178194992
-3.9285,0.142126133921769,0.2458126410091644
-3.928,0.07810508477567314,0.1822328105781598
-3.9275,-0.01792648894347063,0.3411823866556712
-3.927,-0.04993701351651855,0.3941655786815084
-3.9265,-0.01792648894347063,0.3517790250608387
-3.926,0.02475421048725994,0.3199891098453364
-3.9255,0.04609456020262521,0.3305857482505039
-3.925,-0.03926683865883591,0.5107286011383502
-3.9245,-0.5941159312583333,1.072350436612224
-3.924,-1.554431668449771,0.6696781772158616
-3.9235,-2.653459678791083,-0.6549016234300674
-3.923,-3.026915798809975,-1.333086481360783
-3.9225,-2.984235099379245,-1.682775548731308
-3.922,-2.141291285622316,-1.131750351662602
-3.9215,-1.1062843244271,-0.1780528951975329
-3.921,-0.4020527838200457,0.5637117931641874
-3.9205,-0.007256314085787988,1.040560521396722
-3.92,0.1741366584948169,1.305476481525908
-3.9195,0.2274875327832301,1.432636142387917
-3.919,0.2274875327832301,1.453829419198252
-3.9185,0.2274875327832301,1.358459673551745
-3.918,0.2381577076409128,1.188913459069066
-3.9175,0.2594980573562781,0.9981739677760521
-3.917,0.3341892813600565,0.6696781772158616
-3.9165,0.707645401378949,0.002089957690313421
-3.916,1.454557641416734,-0.9516074987747555
-3.9155,1.76399271228953,-1.703968825541643
-3.915,1.657290963712704,-2.276187299420684
-3.9145,1.625280439139656,-2.54110325954987
-3.914,1.401206767128321,-1.926498232050159
-3.9135,1.049090996824793,-0.9939940523954253
-3.913,0.6969752265212663,-0.2840192792492073
-3.9125,0.4195506802215176,0.1504428953626575
-3.912,0.2381577076409128,0.3199891098453364
-3.9115,0.1314559590640864,0.309392471440169
-3.911,0.01408403562957729,0.3623756634660061
-3.9105,-0.04993701351651855,0.3729723018711736
-3.91,-0.02859666380115328,0.2987958330350016
-3.9095,0.01408403562957729,0.2352160026039969
-3.909,0.04609456020262521,0.2140227257936621
-3.9085,0.04609456020262521,0.2564092794143318
-3.908,-0.3273615598162672,0.7226613692416989
-3.9075,-1.095614149569417,1.273686566310405
-3.907,-1.789175515318789,0.701468092431364
-3.9065,-2.344024607918286,-0.5489352393783931
-3.906,-2.728150902794861,-1.714565463946811
-3.9055,-2.066600061618538,-1.51322933424863
-3.905,-1.244996597576974,-0.7714646458869092
-3.9045,-0.4874141826815069,0.09745970333682032
-3.904,-0.007256314085787988,0.7544512844572011
-3.9035,0.1527963087794516,1.082947075017392
-3.903,0.2061471830678648,1.263089927905238
-3.9025,0.2061471830678648,1.347863035146577
-3.902,0.1848068333524996,1.369056311956912
-3.9015,0.1741366584948169,1.33726639674141
-3.901,0.1848068333524996,1.263089927905238
-3.9005,0.1954770082101822,1.167720182258731
-3.9,0.4408910299368829,0.701468092431364
-3.8995,1.187803269974668,-0.3052125560595421
-3.899,1.945385684870135,-1.280103289334946
-3.8985,2.340182154604393,-2.011271339291499
-3.898,2.425543553465854,-2.424540237093029
-3.8975,2.073427783162327,-1.873515040024322
-3.897,1.51857869056283,-1.01518732920576
-3.8965,0.9637295979633325,-0.2840192792492073
-3.896,0.5262524287983441,0.1716361721729923
-3.8955,0.2488278824985954,0.3199891098453364
-3.895,0.09944543449103843,0.2881991946298341
-3.8945,0.01408403562957729,0.2776025562246667
-3.894,-0.156638762093345,0.4789386859228479
-3.8935,-0.156638762093345,0.4683420475176805
-3.893,-0.09261771294724913,0.3729723018711736
-3.8925,-0.01792648894347063,0.2987958330350016
-3.892,0.02475421048725994,0.2564092794143318
-3.8915,-0.1673089369510276,0.4683420475176805
-3.891,-0.8502001278427167,1.00877060618122
-3.8905,-1.575772018165136,0.7226613692416989
-3.89,-2.151961460479999,-0.1356663415768632
-3.8895,-2.76016142736791,-1.121153713257435
-3.889,-2.813512301656323,-1.778145294377815
-3.8885,-2.023919362187807,-1.269506650929778
-3.888,-1.138294849000148,-0.400582301706049
-3.8875,-0.423393133535411,0.3941655786815084
-3.887,0.04609456020262521,0.9875773293708847
-3.8865,0.1954770082101822,1.241896651094903
-3.886,0.2274875327832301,1.33726639674141
-3.8855,0.2061471830678648,1.358459673551745
-3.885,0.1954770082101822,1.284283204715573
