Class_7_Listen_To_Music/Class_7_Listen_To_Music_Turki_1.csv

#Digilent WaveForms Oscilloscope Acquisition
#Device Name: EExplorer
#Serial Number: SN:210151A2B84A
#Date Time: 2020-10-20 13:21:04.735
#Sample rate: 2000Hz
#Samples: 16384
#Trigger: Source: Channel 1 Type: Edge Condition: Rising Level: 0 V Hyst.: Auto HoldOff: 0 s
#Channel 1: Range: 1 V/div Offset: 0 V
#Channel 2: Range: 1 V/div Offset: 0 V

Time (s),Channel 1 (V),Channel 2 (V)
-4.0960000000000001,-1.7785053404611064,1.0723504366122243
-4.0955000000000004,-1.2770071221504784,0.25640927941507385
-4.0949999999999998,-0.71148785469245412,-0.36879238649082624
-4.0945,-0.28468086038553664,-0.67609490024040231
-4.0940000000000003,-0.028596663801386202,-0.69728817705071788
-4.0934999999999997,0.088775259633394596,-0.53833860097299435
-4.093,0.13145595906408636,-0.28401927924920728
-4.0925000000000002,0.12078578420641341,-0.019103319120262363
-4.0919999999999996,0.088775259633336365,0.21402272579381629
-4.0914999999999999,0.067434909917990504,0.38356894027634103
-4.0910000000000002,0.067434909917990504,0.31998910984533641
-4.0904999999999996,0.099445434491067547,-0.082683149551594656
-4.0899999999999999,0.13145595906408636,-0.70788481545590454
-4.0895000000000001,0.20614718306786484,-1.227120097309109
-4.0890000000000004,0.3555296310752859,-1.4814394190328959
-4.0884999999999998,0.45156120479456557,-1.1847335436884392
-4.0880000000000001,0.3768699807907871,-0.43237221692155131
-4.0875000000000004,0.25949805735638481,0.28819919462917881
-4.0869999999999997,0.16346648363706637,0.74385464605218798
-4.0865,0.08877525963335578,0.9134008605347127
-4.0860000000000003,0.056764735060336975,0.88161094531923923
-4.0854999999999997,0.035424385344942577,0.71206473083632904
-4.085,0.035424385344942577,0.48953532432801533
-4.0845000000000002,0.067434909917961389,0.29879583303517504
-4.0839999999999996,0.078105084775663441,0.033879872905545866
-4.0834999999999999,0.067434909917990504,-0.26282600243887239
-4.0830000000000002,0.05676473506030786,-0.52774196256805828
-4.0824999999999996,0.056764735060637811,-0.72907809226609488
-4.0819999999999999,0.41955068022151765,-0.57012851618872795
-4.0815000000000001,0.91037872367491923,-0.32640583286987701
-4.0810000000000004,0.73965592595215202,-0.23103608722345684
-4.0804999999999998,0.28083840707164331,0.27760255622466667
-4.0800000000000001,-0.99958257585027366,0.775644561267536
-4.0795000000000003,-1.7678351656027251,0.96638405256037641
-4.0789999999999997,-1.4904106193031996,0.56371179316362841
-4.0785,-0.96757205127722568,-0.050893234335523743
-4.0780000000000003,-0.51942470725496237,-0.48535540894699336
-4.0774999999999997,-0.18864928666622791,-0.63370834661965547
-4.077,-0.0072563140857879876,-0.54893523937839306
-4.0765000000000002,0.067434909917922572,-0.33700247127523719
-4.0759999999999996,0.099445434491038431,-0.061489872740459875
-4.0754999999999999,0.099445434491038431,0.19282944898332721
-4.0750000000000002,0.08877525963335578,0.41535885549184332
-4.0744999999999996,0.078105084775673142,0.55311515475888506
-4.0739999999999998,0.078105084775673142,0.40476221708667587
-4.0735000000000001,0.16346648363713429,-0.24163272562853755
-4.0730000000000004,0.3982103305059389,-0.95160749877410977
-4.0724999999999998,0.69697522652126631,-1.3860696733866202
-4.0720000000000001,0.69697522652126631,-1.1529436284729369
-4.0715000000000003,0.50491207908315361,-0.44296885532736452
-4.0709999999999997,0.30217875678689216,0.24581264100958844
-4.0705,0.17413665849481691,0.71206473083653143
-4.0700000000000003,0.088775259633433412,0.91340086053452962
-4.0694999999999997,0.046094560202615507,0.90280422212942002
-4.069,0.035424385344942577,0.76504792286236856
-4.0685000000000002,0.035424385344942577,0.53192187794868506
-4.0679999999999996,0.046094560202625215,0.3305857482502918
-4.0674999999999999,0.046094560202625215,0.097459703336820316
-4.0670000000000002,0.046094560202625215,-0.18864953360270037
-4.0664999999999996,0.046094560202615507,-0.46416213213726565
-4.0659999999999998,0.035424385344942577,-0.6972881770507372
-4.0655000000000001,0.099445434491038431,-0.64430498502489997
-4.0650000000000004,0.35552963107518887,-0.10387642636185235
-4.0644999999999998,0.66496470194821833,0.55311515475901996
-4.0640000000000001,0.79300680024041004,1.0299638829915545
-4.0635000000000003,0.099445434491669316,1.2948798431204993
-4.0629999999999997,-1.3730386958695058,0.80743447648243116
-4.0625,-1.7464948158880587,0.13984625695749003
-4.0620000000000003,-1.3837088707271787,-0.4641621321365042
-4.0614999999999997,-0.92489135184604876,-0.85623775312824868
-4.0609999999999999,-0.43406330839309365,-0.85623775312824868
-4.0605000000000002,-0.071277363231883828,-0.65490162343006741
-4.0599999999999996,0.046094560202644623,-0.4429688553264971
-4.0594999999999999,0.067434909917990504,-0.19924617200786782
-4.0590000000000002,0.05676473506030786,0.044476511310983152
-4.0585000000000004,0.046094560202634915,0.26700591781929683
-4.0579999999999998,0.046094560202625215,0.45774540911251305
-4.0575000000000001,0.05676473506030786,0.50013196273318283
-4.0570000000000004,0.14212613392169135,-0.07208651114533815
-4.0564999999999998,0.36619980593310447,-0.85623775312824868
-4.056,0.66496470194821833,-1.4496495038176249
-4.0555000000000003,1.0597611716821171,-1.6509856335156228
-4.0549999999999997,1.0384208219668487,-1.0681705212308263
-4.0545,0.75032610080967954,-0.22043944881820265
-4.0540000000000003,0.4515612047948373,0.43655213230158063
-4.0534999999999997,0.22748753278311365,0.79683783807794795
-4.0529999999999999,0.099445434491038431,0.88161094531921036
-4.0525000000000002,0.024754210487259936,0.775644561267536
-4.0519999999999996,0.003413860771914059,0.58490506997434866
-4.0514999999999999,0.024754210487259936,0.39416557868150842
-4.0510000000000002,0.067434909917990504,0.24581264100916439
-4.0505000000000004,0.078105084775663441,-0.029699957524938314
-4.0499999999999998,0.067434909917990504,-0.32640583286987701
-4.0495000000000001,0.046094560202625215,-0.59132179299906285
-4.0490000000000004,0.067434909917971103,-0.76086800748158756
-4.0484999999999998,0.41955068022221637,-0.62311170821413142
-4.048,1.1878032699746677,-0.14626297998203064
-4.0475000000000003,1.8493541111503897,0.39416557868101698
-4.0469999999999997,1.3478558928387234,0.82862775329370075
-4.0465,0.046094560202625215,1.1889134590690658
-4.0460000000000003,-0.72215802954982622,1.0087706061813835
-4.0454999999999997,-0.83952995298541244,0.3305857482494341
-4.0449999999999999,-1.2556667724346571,-0.84564111472308123
-4.0445000000000002,-1.0742737998540521,-1.2377167357142764
-4.0439999999999996,-0.74349837926565732,-1.1635402668778634
-4.0434999999999999,-0.48741418268150688,-0.89862430674891836
-4.0430000000000001,-0.18864928666639288,-0.4535654937318862
-4.0425000000000004,0.014084035629392921,-0.029699957525574416
-4.0419999999999998,0.046094560202625215,0.21402272579366208
-4.0415000000000001,0.035424385344942577,0.37297230187117358
-4.0410000000000004,0.035424385344942577,0.44714877070727815
-4.0404999999999998,0.04609456020274167,0.044476511310241058
-4.04,0.17413665849481691,-0.77146464588690922
-4.0395000000000003,0.39821033050594862,-1.4708427806273239
-4.0389999999999997,0.77166645052519034,-1.8417251248085116
-4.0385,0.93171907339028448,-1.5026326958434622
-4.0380000000000003,0.77166645052519034,-0.73967473067210077
-4.0374999999999996,0.51558225394045754,0.0020899576907953002
-4.0369999999999999,0.29150858192932599,0.53192187794868506
-4.0365000000000002,0.14212613392176898,0.78624119967270345
-4.0359999999999996,0.056764735060278744,0.81803111488809011
-4.0354999999999999,0.024754210487259936,0.69087145402619654
-4.0350000000000001,0.014084035629577295,0.48953532432801533
-4.0345000000000004,0.046094560202596099,0.35177902506096398
-4.0339999999999998,0.046094560202625215,0.097459703336820316
-4.0335000000000001,0.046094560202625215,-0.18864953360270037
-4.0330000000000004,0.035424385344952278,-0.46416213213680302
-4.0324999999999998,0.02475421048709496,-0.69728817705087209
-4.032,-0.15663876209334496,-0.84564111472308123
-4.0315000000000003,-0.43406330839284135,-0.75027136907666103
-4.0309999999999997,-0.64746680554706681,-0.38998566330041895
-4.0305,-0.99958257585027366,0.11865298014715518
-4.0300000000000002,-1.6184527175953041,0.72266136924114954
-4.0294999999999996,-1.831856214749112,0.94519077574981014
-4.0289999999999999,-1.3837088707268488,0.50013196273318283
-4.0285000000000002,-0.80751942841198598,-0.050893234335523743
-4.0279999999999996,-0.34870190953138019,-0.4323722169216766
-4.0274999999999999,-0.071277363231883828,-0.57012851618872795
-4.0270000000000001,-0.22065981123944084,-0.80325456110241145
-4.0265000000000004,-0.71148785469239584,-1.1635402668777766
-4.0259999999999998,-0.59411593125833329,-0.80325456110241145
-4.0255000000000001,-0.47674400782382426,-0.4535654937318862
-4.0250000000000004,-0.30602121010105721,-0.093279787956521143
-4.0244999999999997,-0.060607188374104143,0.23521600260394876
-4.024,0.046094560202625215,0.18223281057815977
-4.0235000000000003,0.099445434490989915,-0.58072515459320151
-4.0229999999999997,0.25949805735653036,-1.3966663117922695
-4.0225,0.53692260365602662,-1.9264982320501591
-4.0220000000000002,0.80367697509785008,-1.788741932783108
-4.0214999999999996,0.6969752265210819,-0.9833974139895254
-4.0209999999999999,0.49424190422529612,-0.17805289519753292
-4.0205000000000002,0.31284893164469124,0.45774540911251305
-4.0199999999999996,0.17413665849473928,0.80743447648312505
-4.0194999999999999,0.08877525963335578,0.90280422212954525
-4.0190000000000001,0.046094560202625215,0.81803111488820579
-4.0185000000000004,0.024754210487279344,0.62729162359536539
-4.0179999999999998,0.067434909917990504,0.46834204751768049
-4.0175000000000001,0.11011560934872107,0.26700591781949923
-4.0170000000000003,0.099445434491048132,-0.040296595930076784
-4.0164999999999997,0.078105084775653727,-0.33700247127529503
-4.016,0.05676473506030786,-0.61251506980939763
-4.0155000000000003,0.12078578420634548,-0.59132179299908216
-4.0149999999999997,0.44089102993722262,-0.029699957524610621
-4.0145,0.81434714995577528,0.60609834678485708
-4.0140000000000002,0.83568749967112133,0.81803111488801306
-4.0134999999999996,-0.071277363232747526,0.89220758372447417
-4.0129999999999999,-1.0209229255656389,0.99817396777605205
-4.0125000000000002,-1.1596351987155133,0.5637117931641874
-4.0119999999999996,-0.8608703027000596,-0.029699957525555105
-4.0114999999999998,-0.48741418268150688,-0.43237221692155131
-4.0110000000000001,-0.19931946152407554,-0.59132179299906285
-4.0105000000000004,-0.028596663801308542,-0.54893523937843158
-4.0099999999999998,0.05676473506030786,-0.36879238649054674
-4.0095000000000001,0.078105084775673142,-0.14626297998203064
-4.0090000000000003,0.035424385344981393,0.055073149715967468
-4.0084999999999997,-0.54076505697008503,-0.33700247127505412
-4.008,-0.72215802955052499,-0.34759910968021185
-4.0075000000000003,-0.58344575640077667,-0.17805289519768713
-4.0069999999999997,-0.35937208438891727,-0.63370834662026254
-4.0065,0.078105084775673142,-1.2165234589039415
-4.0060000000000002,0.50491207908297886,-1.6615822719209734
-4.0054999999999996,0.78233662538265958,-1.7887419327824623
-4.0049999999999999,0.70764540137894905,-1.2165234589039415
-4.0045000000000002,0.51558225394066137,-0.43237221692155131
-4.0039999999999996,0.31284893164455541,0.26700591781991362
-4.0034999999999998,0.16346648363713429,0.72266136924169888
-4.0030000000000001,0.078105084775673142,0.90280422212954525
-4.0025000000000004,0.056764735060327268,0.87101430691407178
-4.0019999999999998,0.046094560202625215,0.70146809243136399
-4.0015000000000001,0.046094560202625215,0.45774540911251305
-4.0010000000000003,0.024754210487279344,0.20342608738872597
-4.0004999999999997,0.024754210487259936,-0.082683149551276619
-4,0.024754210487259936,-0.3581957480853793
-3.9994999999999998,0.035424385344942577,-0.60191843140423029
-3.9990000000000001,0.05676473506030786,-0.6972881770507372
-3.9984999999999999,0.21681735792554749,-0.24163272562853755
-3.9980000000000002,0.4622313796522482,0.43655213230217815
-3.9975000000000001,0.60094365280212259,0.90280422212954525
-3.9969999999999999,0.08877525963335578,1.0935437134225592
-3.9965000000000002,-0.90355100213112993,1.2207033742845681
-3.996,-1.2343264227192918,0.83922439169854057
-3.9954999999999998,-0.98891240099259115,0.13984625695749003
-3.9950000000000001,-0.59411593125833329,-0.40058230170604903
-3.9944999999999999,-0.26334051067017139,-0.65490162343006741
-3.9940000000000002,-0.06060718837420119,-0.67609490024040231
-3.9935,0.046094560202625215,-0.51714532416289083
-3.9929999999999999,0.078105084775673142,-0.27342264084403983
-3.9925000000000002,0.078105084775673142,-0.019103319120021445
-3.992,0.05676473506030786,0.20342608738849466
-3.9914999999999998,0.046094560202625215,0.37297230187117358
-3.9910000000000001,0.046094560202625215,0.43655213230217815
-3.9904999999999999,-0.22065981123944084,-0.15685961838719809
-3.9900000000000002,-0.54076505696992005,-1.2165234589039415
-3.9895,-0.12462823752029703,-1.7039688255416432
-3.9889999999999999,0.34485945621773917,-1.9900780624811638
-3.9885000000000002,0.60094365280212259,-1.5026326958434622
-3.988,0.6116138276598051,-0.52774196256805828
-3.9874999999999998,0.41955068022151765,0.26700591781949923
-3.9870000000000001,0.20614718306786484,0.73325800764686633
-3.9864999999999999,0.067434909917990504,0.93459413734504748
-3.9860000000000002,0.014084035629577295,0.93459413734504748
-3.9855,0.0034138607718946501,0.78624119967270345
-3.9849999999999999,0.014084035629577295,0.57430843156935485
-3.9845000000000002,0.067434909917990504,0.41535885549184332
-3.984,0.08877525963335578,0.16103953376782493
-3.9834999999999998,0.08877525963335578,-0.14626297998203064
-3.9830000000000001,0.05676473506030786,-0.4535654937318862
-3.9824999999999999,0.046094560202625215,-0.6972881770507372
-3.9820000000000002,0.32351910650237387,-0.54893523937839306
-3.9815,1.1131120459708892,0.044476511310983152
-3.9809999999999999,1.9347155100124527,0.64848490040552687
-3.9805000000000001,1.9027049854394047,1.0193672445863871
-3.98,0.5689331282290746,1.241896651094903
-3.9794999999999998,-0.57277558154296804,1.0935437134225592
-3.9790000000000001,-0.83952995298503397,0.41535885549184332
-3.9784999999999999,-0.69014750497747701,-0.24163272562853755
-3.9780000000000002,-0.42339313353541097,-0.64430498502489997
-3.9775,-0.18864928666639288,-0.75027136907657432
-3.9769999999999999,-0.039266838658835915,-0.64430498502489997
-3.9765000000000001,0.035424385344942577,-0.41117894011121647
-3.976,0.05676473506030786,-0.13566634157686319
-3.9754999999999998,0.046094560202625215,0.10805634174198775
-3.9750000000000001,0.046094560202625215,0.33058574825050385
-3.9744999999999999,0.035424385344942577,0.51072860113835017
-3.9740000000000002,0.067434909917990504,0.41535885549184332
-3.9735,0.25949805735627807,-0.082683149551026042
-3.9729999999999999,0.6116138276598051,-0.57012851618872795
-3.9725000000000001,0.4622313796522482,-1.4390528654124575
-3.972,0.33418928136005654,-1.4814394190331273
-3.9714999999999998,0.21681735792554749,-0.94101086036958814
-3.9710000000000001,0.05676473506030786,-0.26282600243887239
-3.9704999999999999,0.046094560202625215,0.42595549389701071
-3.9700000000000002,0.067434909917990504,0.86041766850887547
-3.9695,0.014084035629577295,0.93459413734504748
-3.9689999999999999,-0.0072563140857879876,0.82862775329337313
-3.9685000000000001,-0.0072563140857879876,0.62729162359519197
-3.968,0.0034138607718946501,0.38356894027634103
-3.9674999999999998,0.014084035629577295,0.10805634174198775
-3.9670000000000001,0.035424385344942577,-0.1674562567923655
-3.9664999999999999,0.046094560202625215,-0.42177557851638392
-3.9660000000000002,0.046094560202625215,-0.65490162343006741
-3.9655,0.13145595906408636,-0.57012851618872795
-3.9649999999999999,0.60094365280212259,-0.0085066807148540119
-3.9645000000000001,1.4012067671283206,0.5637117931641874
-3.964,1.8600242860086742,0.89220758372437781
-3.9634999999999998,0.93171907339028448,1.1253336286380615
-3.9630000000000001,-0.41272295867772835,1.1783168206638983
-3.9624999999999999,-0.90355100213112993,0.64848490040552687
-3.9620000000000002,-0.80751942841198598,-0.061489872740691176
-3.9615,-0.53009488211223732,-0.54893523937839306
-3.9609999999999999,-0.26334051067017139,-0.75027136907657432
-3.9605000000000001,-0.08194753808956648,-0.6972881770507372
-3.96,0.014084035629577295,-0.49595204735255594
-3.9594999999999998,0.046094560202625215,-0.2310360872233701
-3.9590000000000001,0.05676473506030786,0.044476511310983152
-3.9584999999999999,0.046094560202625215,0.26700591781949923
-3.9580000000000002,0.035424385344942577,0.45774540911251305
-3.9575,0.046094560202625215,0.42595549389701071
-3.9569999999999999,0.11011560934872107,0.023283234500648287
-3.9565000000000001,0.30217875678700862,-0.47475877054222104
-3.956,0.6116138276598051,-0.83504447631791379
-3.9554999999999998,0.94238924824796699,-0.9304142219644207
-3.9550000000000001,0.76099627566736228,-0.71848145386107198
-3.9544999999999999,-0.071277363231883828,-0.6972881770507372
-3.9540000000000002,-0.26334051067017139,-0.11447306476652835
-3.9535,-0.32736155981626724,0.28819919462983412
-3.9529999999999998,-0.27401068552785401,0.52132523954351762
-3.9525000000000001,-0.092617712947249131,0.68027481562102909
-3.952,-0.0072563140857879876,0.60609834678485708
-3.9514999999999998,0.0034138607718946501,0.41535885549184332
-3.9510000000000001,0.046094560202625215,0.25640927941433178
-3.9504999999999999,0.046094560202625215,-0.0085066807148540119
-3.9500000000000002,0.046094560202625215,-0.28401927924920728
-3.9495,0.035424385344942577,-0.52774196256805828
-3.9489999999999998,0.024754210487259936,-0.63370834661973252
-3.9485000000000001,-0.0072563140857879876,-0.31580919446470956
-3.948,-0.028596663801153277,0.24581264100916439
-3.9474999999999998,-0.049937013516518552,0.78624119967270345
-3.9470000000000001,-0.51942470725455481,1.1677201822587309
-3.9464999999999999,-1.4263895701575793,1.3690563119569124
-3.9460000000000002,-1.6291228924535495,1.0193672445863871
-3.9455,-1.2129860730039266,0.31998910984533641
-3.9449999999999998,-0.70081767983515975,-0.26282600243887239
-3.9445000000000001,-0.30602121010090194,-0.57012851618872795
-3.944,-0.06060718837420119,-0.60191843140423029
-3.9434999999999998,0.05676473506030786,-0.4641621321370536
-3.9430000000000001,0.08877525963335578,-0.22043944881820265
-3.9424999999999999,0.078105084775673142,0.033879872905815719
-3.9420000000000002,0.05676473506030786,0.25640927941433178
-3.9415,0.046094560202625215,0.43655213230217815
-3.9409999999999998,0.078105084775673142,0.28819919462983412
-3.9405000000000001,0.16346648363713429,-0.1674562567923655
-3.9399999999999999,0.25949805735627807,-0.65490162343006741
-3.9394999999999998,0.40888050536383502,-0.99399405239542526
-3.9390000000000001,0.60094365280212259,-1.01518732920576
-3.9384999999999999,0.57960330308675734,-0.53833860097322561
-3.9380000000000002,0.41955068022151765,0.076266426526485451
-3.9375,0.25949805735627807,0.61669498519002452
-3.9369999999999998,-0.29535103524321932,0.47893868592284788
-3.9365000000000001,-0.72215802955052499,0.20342608738849466
-3.9359999999999999,-0.61545628097369853,0.24581264100916439
-3.9355000000000002,-0.48741418268150688,0.18223281057815977
-3.9350000000000001,-0.26334051067017139,0.17163617217299235
-3.9344999999999999,-0.017926488943470625,0.23521600260399694
-3.9340000000000002,0.046094560202625215,0.033879872905815719
-3.9335,0.035424385344942577,-0.27342264084403983
-3.9329999999999998,0.024754210487259936,-0.55953187778356051
-3.9325000000000001,0.035424385344942577,-0.78206128429207655
-3.9319999999999999,0.3768699807907871,-0.62311170821456507
-3.9315000000000002,1.1984734448323504,-0.13566634157686319
-3.931,1.9987365591585484,0.39416557868150842
-3.9304999999999999,1.8920348105817222,0.6590815388106942
-3.9300000000000002,0.45156120479456557,0.93459413734504748
