Class_7_Listen_To_Music/Class_7_Listen_To_Music_1_AM_8.csv

#Digilent WaveForms Oscilloscope Acquisition
#Device Name: EExplorer
#Serial Number: SN:210151A2B84A
#Date Time: 2020-12-06 10:58:23.993
#Sample rate: 2000Hz
#Samples: 16384
#Trigger: Source: Channel 1 Type: Edge Condition: Rising Level: 0 V Hyst.: Auto HoldOff: 0 s
#Channel 1: Range: 1 V/div Offset: 0 V Attenuation: 1 X
#Channel 2: Range: 1 V/div Offset: 0 V Attenuation: 1 X
#Power Supplies: ON
#Fixed Supply: ON
#Voltage: 3.3 V Readback: 3.331 V
#Positive Supply: ON
#Voltage: 3.7 V Readback: 3.717 V
#Current: 40 mA Readback: 12 mA
#Negative Supply: ON
#Voltage: -3.7 V Readback: -3.494 V
#Current: -40 mA Readback: 0 A
#Reference 1: ON
#Voltage: 0 V
#Reference 2: ON
#Voltage: 0 V

Time (s),Channel 1 (V),Channel 2 (V)
-4.096,0.3555296310754218,0.4683420475176805
-4.0955,0.334189281360076,0.3093924714403135
-4.095,-0.007256314086438187,-0.08268314955165249
-4.0945,-0.722158029550525,-0.7714646458869092
-4.094,-1.063603624996059,-1.205926820498379
-4.0935,-1.298347471864776,-2.106641084938468
-4.093,-0.6261264558313813,-2.615279728386042
-4.0925,0.2168173579247809,-2.753036027653094
-4.092,0.6969752265214798,-2.742439389247493
-4.0915,0.9317190733902845,-2.127834361748341
-4.091,1.027750647109428,-1.227120097309109
-4.0905,0.9210488985324562,-0.5489352393779401
-4.09,0.7609962756673623,-0.05089323433552374
-4.0895,0.8143471499557753,0.4471487707073456
-4.089,0.8036769750981024,0.680274815620817
-4.0885,0.6969752265212663,0.6590815388106942
-4.088,0.5796033030867573,0.5425185163538525
-4.0875,0.4835717293677009,0.4577454091125902
-4.087,0.280838407070964,0.5849050699750427
-4.0865,-0.4660738329661415,1.157123543853563
-4.086,-1.191645723287901,1.676358825706296
-4.0855,-1.789175515319158,1.241896651093804
-4.085,-2.19464215991073,0.03387987290581572
-4.0845,-1.799845690176831,-0.6972881770500722
-4.084,-1.020922925565008,-0.591321792998687
-4.0835,-0.3273615598162672,-0.1780528951975329
-4.083,0.1314559590640864,0.2458126410091644
-4.0825,0.3768699807908744,0.5743084315695476
-4.082,0.4729015545099309,0.7862411996727035
-4.0815,0.4835717293676135,0.9134008605347127
-4.081,0.4622313796522676,0.9769806909656594
-4.0805,0.4302208550792003,0.9981739677760521
-4.08,0.3875401556484697,0.9134008605347127
-4.0795,0.344859456217778,0.7968378380779769
-4.079,0.3235191065021312,0.6484849004051511
-4.0785,0.05676473506030786,0.2352160026039969
-4.078,-0.5621054066847224,-0.4641621321364176
-4.0775,-0.7968492535540705,-0.8456411147232643
-4.077,-0.5407650569699201,-1.046977244421262
-4.0765,-0.007256314086273252,-1.58740580308431
-4.076,0.07810508477613895,-2.519909982739709
-4.0755,0.5902734779444399,-2.710649474032549
-4.075,0.7609962756673623,-2.551699897955038
-4.0745,0.7716664505250739,-1.947691508859771
-4.074,0.8036769750980928,-1.152943628472937
-4.0735,0.7289857510943143,-0.5383386009732256
-4.073,0.7076454013789685,-0.04029659593080925
-4.0725,0.7716664505250448,0.3411823866556712
-4.072,0.707645401378949,0.4365521323021782
-4.0715,0.6009436528022196,0.4047622170867048
-4.071,0.5049120790828818,0.3623756634660447
-4.0705,0.3982103305061524,0.4047622170866759
-4.07,-0.209989636381205,0.8816109453187766
-4.0695,-1.063603624996962,1.570392441655151
-4.069,-1.714484291315011,1.633972272086098
-4.0685,-2.130621110764634,0.775644561267536
-4.068,-2.141291285621676,0.6272916235951534
-4.0675,-1.437059745015262,0.5849050699745222
-4.067,-0.658136980404429,0.5213252395435176
-4.0665,-0.06060718837389065,0.5107286011383887
-4.066,0.2808384070716433,0.55311515475902
-4.0655,0.4408910299368829,0.6378882620003594
-4.065,0.4835717293675747,0.7544512844570951
-4.0645,0.4729015545099309,0.8710143069140429
-4.064,0.4408910299368829,0.9557874141553824
-4.0635,0.3982103305061912,0.9663840525605402
-4.063,0.3555296310754024,0.9239974989397933
-4.0625,0.3341892813600565,0.8286277532933731
-4.062,0.1741366584949625,0.5531151547592705
-4.0615,-0.466073832966617,-0.1144730647671162
-4.061,-0.9889124009925911,-0.7608680074817418
-4.0605,-1.191645723288561,-1.216523458903942
-4.06,-0.8502001278422314,-1.778145294378384
-4.0595,-0.3166913849585846,-2.403346960282694
-4.059,0.5475927785137094,-2.403346960282694
-4.0585,0.9423892482476079,-2.233800745800169
-4.058,1.059761171682476,-1.545019249464132
-4.0575,1.038420821967111,-0.6972881770507372
-4.057,0.8676980242443437,-0.1144730647670583
-4.0565,0.7289857510943143,0.2564092794143318
-4.056,0.8036769750980928,0.6060983467848571
-4.0555,0.7289857510943822,0.6060983467848571
-4.055,0.6116138276597177,0.4365521323020239
-4.0545,0.5155822539406614,0.2670059178194992
-4.054,0.4515612047946238,0.1822328105782369
-4.0535,0.2488278824979064,0.5107286011389959
-4.053,-0.5087545323968721,1.220703374284568
-4.0525,-1.458400094730627,1.867098316999781
-4.052,-2.055929886760797,1.750535294542073
-4.0515,-1.991908837614759,0.7968378380778709
-4.051,-1.277007122150022,0.2458126410091644
-4.0505,-0.5407650569705896,0.09745970333695522
-4.05,-0.007256314085787988,0.1504428953626575
-4.0495,0.3021787567870086,0.2881991946298341
-4.049,0.4408910299367568,0.447148770707201
-4.0485,0.4835717293675941,0.5849050699746186
-4.048,0.4622313796522482,0.6908714540261965
-4.0475,0.4302208550792295,0.775644561267459
-4.047,0.3875401556484309,0.7756445612674878
-4.0465,0.3448594562177392,0.7226613692416989
-4.046,0.3341892813600663,0.6378882620004365
-4.0455,0.3235191065020924,0.553115154758673
-4.045,0.01408403562957729,0.1716361721729923
-4.0445,-0.7648387289812555,-0.6549016234300674
-4.044,-1.757164990745819,-1.809935209593626
-4.0435,-1.842526389607202,-2.149027638558676
-4.043,-1.180975548430879,-2.477523429118866
-4.0425,-0.2420001609556601,-2.625876366791075
-4.042,0.5902734779444399,-2.403346960282694
-4.0415,1.006410297394063,-1.873515040024322
-4.041,1.049090996824755,-1.099960436447803
-4.0405,0.9530594231055527,-0.294615917653912
-4.04,0.8463576745288233,0.2140227257936621
-4.0395,0.9317190733902069,0.6908714540257628
-4.039,0.9317190733901486,0.8604176685087406
-4.0385,0.7823366253827275,0.7120647308365314
-4.038,0.6329541773753065,0.5107286011385332
-4.0375,0.515582253940477,0.3517790250609158
-4.037,0.3128489316446912,0.4365521323021782
-4.0365,-0.4874141826815069,1.00877060618122
-4.036,-1.05293345013893,1.029963882990687
-4.0355,-1.319687821580753,0.07626642652648545
-4.035,-1.767835165603424,-1.036380606016095
-4.0345,-1.86386673932248,-1.650985633515247
-4.034,-1.277007122150022,-1.301296566145281
-4.0335,-0.5834457564006506,-0.5913217929990628
-4.033,-0.04993701351700386,0.04447651131040498
-4.0325,0.2808384070717792,0.4789386859230792
-4.032,0.4302208550792003,0.7332580076468663
-4.0315,0.4729015545098921,0.849821030103602
-4.031,0.4622313796522191,0.8816109453191815
-4.0305,0.4302208550792003,0.849821030103708
-4.03,0.3875401556485085,0.7544512844572878
-4.0295,0.3555296310754024,0.6166949851898993
-4.029,0.3341892813600565,0.4789386859228479
-4.0285,0.07810508477567314,0.05507314971615059
-4.028,-0.4660738329664618,-0.6125150698098603
-4.0275,-0.8181896032696687,-1.121153713257435
-4.027,-1.351698346153801,-1.767548655972648
-4.0265,-1.586442193022605,-2.551699897954324
-4.026,-0.6794773301197943,-2.742439389248052
-4.0255,0.08877525963335578,-2.943775518946233
-4.025,0.6116138276593296,-2.721246112437919
-4.0245,0.8997085488172754,-1.937094870454613
-4.024,0.942389248247967,-1.152943628472937
-4.0235,0.8356874996712378,-0.5807251545944159
-4.023,0.7716664505250254,-0.125069703171397
-4.0225,0.7503261008096795,0.2034260873884947
-4.022,0.6329541773752774,0.3093924714400726
-4.0215,0.5369226036559587,0.3305857482505231
-4.021,0.4622313796522482,0.3517790250608387
-4.0205,0.408880505363835,0.4259554938970107
-4.02,-0.02859666380191023,0.90280422212995
-4.0195,-0.8608703027003992,1.347863035146577
-4.019,-1.330357996438436,0.6696781772158616
-4.0185,-1.778505340460699,-0.5065486857566536
-4.018,-1.597112367880501,-1.046977244421262
-4.0175,-0.9569018764195432,-0.7396747306714069
-4.017,-0.3273615598168398,-0.167456256792886
-4.0165,0.1101156093489346,0.351779025061176
-4.016,0.3448594562177392,0.7226613692416989
-4.0155,0.4515612047944685,0.9557874141551703
-4.015,0.4729015545099212,1.072350436612263
-4.0145,0.4622313796522482,1.114736990232894
-4.014,0.4302208550792295,1.114736990232894
-4.0135,0.3982103305061233,1.072350436612099
-4.013,0.3661998059331045,0.9345941373450475
-4.0125,0.3341892813600565,0.7120647308365314
-4.012,0.2168173579250331,0.3729723018705375
-4.0115,-0.3487019095316325,-0.326405832869877
-4.011,-1.020922925565639,-1.05757388282643
-4.0105,-1.234326422719098,-1.492036057437899
-4.01,-0.9035510021311299,-1.958288147265661
-4.0095,-0.7114878546928423,-2.700052835627382
-4.009,0.04609456020193625,-2.816615858084118
-4.0085,0.4835717293678076,-2.763632666058011
-4.008,0.6969752265212663,-2.350363768256857
-4.0075,0.8463576745286874,-1.703968825542231
-4.007,0.8356874996710534,-1.078767159636244
-4.0065,0.7396559259519968,-0.5065486857577234
-4.006,0.8036769750980928,0.1186529801471552
-4.0055,0.73965592595189,0.3835689402763892
-4.005,0.6222840025174878,0.4365521323021782
-4.0045,0.5262524287983441,0.4153588554918433
-4.004,0.4515612047944685,0.4153588554920842
-4.0035,0.3448594562177392,0.6802748156210291
-4.003,-0.2633405106701714,1.33726639674141
-4.0025,-0.7968492535538182,1.549199164844566
-4.002,-1.255666772434657,0.7544512844572011
-4.0015,-1.405049220442214,0.4471487707073456
-4.001,-0.9675720512776236,0.372972301871241
-4.0005,-0.4127229586773304,0.3941655786815855
-4,0.02475421048725994,0.4789386859228479
-3.9995,0.291508581929326,0.5955017083796896
-3.999,0.408880505363835,0.7226613692416989
-3.9985,0.4515612047945656,0.849821030103708
-3.998,0.4515612047945656,0.9557874141553824
-3.9975,0.4302208550792003,1.051157159801889
-3.997,0.3982103305061524,1.082947075017392
-3.9965,0.3661998059331045,1.029963882991555
-3.996,0.3448594562177392,0.9028042221295453
-3.9955,0.3128489316446912,0.7226613692416989
-3.995,-0.06060718837420119,0.2246193641988295
-3.9945,-0.6688071552621118,-0.4853554089473885
-3.994,-1.170305373573196,-1.01518732920576
-3.9935,-1.298347471865388,-1.417859588602123
-3.993,-1.212986073003927,-2.223204107394847
-3.9925,-0.5514352318276028,-2.488120067524033
-3.992,0.1527963087794516,-2.318573853041354
-3.9915,0.5262524287983441,-1.915901593644992
-3.991,0.7289857510943143,-1.205926820498774
-3.9905,0.825017324813458,-0.474758770542221
-3.99,0.7609962756673623,-0.02969995752518888
-3.9895,0.825017324813458,0.2564092794143318
-3.989,0.7823366253827275,0.3729723018711736
-3.9885,0.6542945270905358,0.3411823866556712
-3.988,0.5369226036560266,0.2670059178194992
-3.9875,0.4622313796522482,0.1928294489833272
-3.987,0.3875401556484697,0.2670059178194992
-3.9865,0.142126133921769,0.8604176685088755
-3.986,-0.5514352318276028,1.591585718465428
-3.9855,-1.341028171296118,1.814115124973944
-3.985,-1.917217613610981,1.75053529454294
-3.9845,-2.151961460479999,1.79292184816361
-3.984,-1.554431668449771,1.358459673551745
-3.9835,-0.7755089038389382,0.7862411996727035
-3.983,-0.1459685872356623,0.3729723018711736
-3.9825,0.2381577076409128,0.1822328105781598
-3.982,0.4195506802215176,0.1716361721729923
-3.9815,0.4835717293676135,0.2776025562246667
-3.981,0.4835717293676135,0.4365521323021782
-3.9805,0.4408910299368829,0.5849050699745222
-3.98,0.408880505363835,0.6908714540261965
-3.9795,0.3768699807907871,0.775644561267536
-3.979,0.3448594562177392,0.7332580076468663
-3.9785,0.1314559590640864,0.5849050699745222
-3.978,-0.5300948821122373,0.05507314971615059
-3.9775,-0.8928808272734472,-0.3475991096802118
-3.977,-0.9569018764195432,-0.5277419625680583
-3.9765,-0.754168554123573,-0.8880276683437509
-3.976,-0.7008176798351597,-1.735758740757146
-3.9755,-0.01792648894347063,-1.735758740757146
-3.975,0.3982103305061524,-1.322489842955616
-3.9745,0.5689331282290746,-0.4959520473525559
-3.974,0.7183155762366316,0.383568940276341
-3.9735,0.7503261008096795,0.8922075837243778
-3.973,0.6542945270905358,1.114736990232894
-3.9725,0.5902734779444399,1.199510097474233
-3.972,0.5155822539406614,0.9345941373450475
-3.9715,0.4515612047945656,0.5743084315693548
-3.971,0.4195506802215176,0.2776025562246667
-3.9705,0.3768699807907871,0.1610395337678249
-3.97,-0.1459685872356623,0.5637117931641874
-3.9695,-0.9995825758502737,1.178316820663898
-3.969,-1.426389570157579,0.92399749893988
-3.9685,-1.394379045584531,0.1186529801471552
-3.968,-0.9675720512772257,-0.1674562567923655
-3.9675,-0.423393133535411,-0.2416327256285375
-3.967,0.01408403562957729,-0.1992461720078678
-3.9665,0.2808384070716433,-0.09327978795619347
-3.966,0.408880505363835,0.02328323450064829
-3.9655,0.4515612047945656,0.1504428953626575
-3.965,0.4515612047945656,0.2881991946298341
-3.9645,0.4302208550792003,0.4153588554918433
-3.964,0.408880505363835,0.5213252395435176
-3.9635,0.3768699807907871,0.5849050699745222
-3.963,0.3661998059331045,0.6802748156210291
-3.9625,0.3661998059331045,0.7332580076468663
-3.962,0.2488278824985954,0.5743084315693548
-3.9615,-0.2526703358124887,0.01268659609548085
-3.961,-0.807519428411986,-0.5489352393783931
-3.9605,-1.212986073003927,-0.9198175835592532
-3.96,-1.202315898146244,-1.163540266878104
-3.9595,-0.6047861061160158,-1.439052865412457
-3.959,-0.4127229586777283,-2.074851169722503
-3.9585,0.2168173579255475,-1.788741932782983
-3.958,0.5262524287983441,-1.131750351662602
-3.9575,0.6542945270905358,-0.2628260024388724
-3.957,0.7609962756673623,0.5213252395435176
-3.9565,0.7823366253827275,0.9557874141553824
-3.956,0.8676980242441885,1.199510097474233
-3.9555,0.7823366253827275,1.072350436612224
-3.955,0.6329541773751706,0.7862411996727035
-3.9545,0.5155822539406614,0.4895353243280153
-3.954,0.4302208550792003,0.2670059178194992
-3.9535,-0.007256314085787988,0.4895353243280153
-3.953,-0.7968492535543035,1.082947075017392
-3.9525,-1.501080794161358,0.8604176685088755
-3.952,-1.991908837614759,0.1186529801471552
-3.9515,-2.450726356495113,0.3623756634660061
-3.951,-2.141291285622316,0.7438546460520338
-3.9505,-1.277007122150022,0.6484849004055269
-3.95,-0.4874141826815069,0.383568940276341
-3.9495,0.05676473506030786,0.1716361721729923
-3.949,0.3555296310754218,0.07626642652648545
-3.9485,0.4729015545099309,0.07626642652648545
-3.948,0.4942419042252961,0.1504428953626575
-3.9475,0.4729015545099309,0.2564092794143318
-3.947,0.4302208550792003,0.3623756634660061
-3.9465,0.3875401556484697,0.4365521323021782
-3.946,0.3555296310754218,0.4683420475176805
-3.9455,0.3128489316446912,0.4683420475176805
-3.945,-0.124628237520297,0.1504428953626575
-3.9445,-0.7434983792658902,-0.3793890248957141
-3.944,-1.170305373573196,-0.8032545611024114
-3.9435,-1.458400094730627,-1.0999604364471
-3.943,-1.575772018165136,-1.88411167842949
-3.9425,-0.8288597781273515,-1.958288147265661
-3.942,-0.04993701351651855,-1.619195718300304
-3.9415,0.3768699807907871,-0.9622041371799229
-3.941,0.6756348768059011,-0.1462629799820306
-3.9405,0.825017324813458,0.6378882620003594
-3.94,0.7716664505250448,1.00877060618122
-3.9395,0.9210488985326017,1.284283204715573
-3.939,0.9210488985326017,1.220703374284568
-3.9385,0.7823366253827275,0.9134008605347127
-3.938,0.6222840025174878,0.5849050699745222
-3.9375,0.5049120790829789,0.3517790250608387
-3.937,0.3982103305061524,0.5213252395435176
-3.9365,-0.1459685872356623,1.093543713422559
-3.936,-0.9248913518464952,1.390249588767247
-3.9355,-1.426389570157579,0.6590815388106942
-3.935,-1.927887788468663,0.4365521323021782
-3.9345,-2.119950935906951,0.8074344764830383
-3.934,-1.522421143876723,0.775644561267536
-3.9335,-0.7434983792658902,0.5001319627331828
-3.933,-0.1352984123779797,0.2352160026039969
-3.9325,0.2488278824985954,0.08686306493165288
-3.932,0.4302208550792003,0.06566978812131802
-3.9315,0.4942419042252961,0.1292496185523226
-3.931,0.4835717293676135,0.2352160026039969
-3.9305,0.4408910299368829,0.3411823866556712
-3.93,0.3982103305061524,0.4047622170866759
-3.9295,0.3661998059331045,0.457745409112513
-3.929,0.3235191065023739,0.457745409112513
-3.9285,0.01408403562957729,0.1292496185523226
-3.928,-0.6154562809736985,-0.4217755785163839
-3.9275,-1.1062843244271,-0.8350444763179138
-3.927,-1.1062843244271,-1.05757388282643
-3.9265,-0.3273615598162672,-1.174136905283272
-3.926,-0.09261771294724913,-1.767548655972648
-3.9255,0.3128489316446912,-1.809935209593318
-3.925,0.6436243522328531,-1.290699927740113
-3.9245,0.7289857510943143,-0.4323722169215513
-3.924,0.79300680024041,0.3729723018711736
-3.9235,0.79300680024041,0.8392243916985406
-3.923,0.857027849386506,1.019367244586387
-3.9225,0.9530594231056497,1.093543713422559
-3.922,0.8356874996711408,0.9557874141553824
-3.9215,0.6756348768059011,0.7226613692416989
-3.921,0.5369226036560266,0.4789386859228479
-3.9205,0.3982103305061524,0.3729723018711736
-3.92,-0.2206598112394408,0.7968378380778709
-3.9195,-0.9248913518464952,1.082947075017392
-3.919,-1.437059745015262,0.2987958330350016
-3.9185,-1.863866739322568,-0.8456411147230812
-3.918,-1.885207089037933,-1.587405803084801
-3.9175,-1.277007122150022,-1.407262950196955
-3.917,-0.5621054066852853,-0.8350444763179138
-3.9165,-0.01792648894347063,-0.3158091944647096
-3.916,0.291508581929326,0.03387987290581572
-3.9155,0.4408910299368829,0.2246193641988295
-3.915,0.4835717293676135,0.309392471440169
-3.9145,0.4729015545099309,0.3199891098453364
-3.914,0.4408910299368829,0.309392471440169
-3.9135,0.4195506802215176,0.2987958330350016
-3.913,0.3982103305061524,0.2670059178194992
-3.9125,0.3768699807907871,0.2458126410091644
-3.912,0.142126133921769,-0.02969995752518888
-3.9115,-0.5514352318276028,-0.6760949002404023
-3.911,-0.9142211769888124,-1.0999604364471
-3.9105,-1.116954499284783,-1.481439419033127
-3.91,-1.020922925565639,-2.180817553774178
-3.9095,-0.6154562809736985,-2.678859558817047
-3.909,0.1634664836371343,-2.519909982739535
-3.9085,0.5796033030867573,-2.127834361748341
-3.908,0.8036769750980928,-1.396666311791788
-3.9075,0.9317190733902845,-0.400582301706049
-3.907,0.857027849386506,0.3411823866556712
-3.9065,0.7716664505250448,0.775644561267536
-3.906,0.857027849386506,1.040560521396722
-3.9055,0.79300680024041,1.082947075017392
-3.905,0.6756348768059011,0.9875773293708847
-3.9045,0.6009436528021226,0.8710143069140429
-3.904,0.5155822539406614,0.7332580076468663
-3.9035,0.02475421048725994,0.9345941373450475
-3.903,-0.9142211769888124,1.475022696008586
-3.9025,-1.67180359188428,1.369056311956912
-3.902,-1.842526389607202,0.3517790250608387
-3.9015,-1.394379045584531,-0.2416327256285375
-3.901,-0.7114878546928423,-0.3687923864905467
-3.9005,-0.1352984123779797,-0.2946159176543747
-3.9,0.2274875327832301,-0.1674562567923655
-3.8995,0.408880505363835,-0.04029659593035631
-3.899,0.4729015545099309,0.06566978812131802
-3.8985,0.4729015545099309,0.1610395337678249
-3.898,0.4515612047945656,0.2352160026039969
-3.8975,0.4302208550792003,0.309392471440169
-3.897,0.3875401556484697,0.3411823866556712
-3.8965,0.3555296310754218,0.3411823866556712
-3.896,0.3341892813600565,0.3199891098453364
-3.8955,0.2808384070716433,0.2564092794143318
-3.895,-0.1779791118087102,-0.2204394488182027
-3.8945,-0.7755089038389382,-0.792657922697244
-3.894,-1.138294849000148,-1.184733543688439
-3.8935,-0.807519428411986,-1.34368311976595
-3.893,-0.5941159312583333,-1.990078062481164
-3.8925,0.04609456020262521,-2.064254531317336
-3.892,0.5582629533713921,-1.809935209593318
-3.8915,0.7716664505250448,-1.110557074852267
-3.891,0.8997085488172365,-0.08268314955102604
-3.8905,0.8890383739595538,0.5319218779486851
-3.89,0.7609962756673623,0.7862411996727035
-3.8895,0.7609962756673623,0.8392243916985406
-3.889,0.6863050516635838,0.8074344764830383
-3.8885,0.5902734779444399,0.7332580076468663
-3.888,0.5262524287983441,0.6484849004055269
-3.8875,0.4729015545099309,0.5425185163538525
-3.887,0.3341892813600565,0.6378882620003594
-3.8865,-0.3273615598162672,1.167720182258731
-3.886,-1.074273799854052,1.093543713422559
-3.8855,-1.714484291315011,0.05507314971615059
-3.885,-2.23732285934146,-1.05757388282643
