Class_7_Listen_To_Music/Class_7_Listen_To_Music_Basim_5.csv

#Digilent WaveForms Oscilloscope Acquisition
#Device Name: EExplorer
#Serial Number: SN:210151A2B84A
#Date Time: 2020-11-26 10:40:49.542
#Sample rate: 2000Hz
#Samples: 16384
#Trigger: Source: Channel 1 Type: Edge Condition: Rising Level: 0 V Hyst.: Auto HoldOff: 0 s
#Channel 1: Range: 1 V/div Offset: 0 V Attenuation: 1 X
#Channel 2: Range: 1 V/div Offset: 0 V Attenuation: 1 X
#Power Supplies: ON
#Fixed Supply: ON
#Voltage: 3.3 V Readback: 3.325 V
#Positive Supply: ON
#Voltage: 3.7 V Readback: 3.715 V
#Current: 500 mA Readback: 20 mA
#Negative Supply: ON
#Voltage: -3.7 V Readback: -3.706 V
#Current: -500 mA Readback: -8 mA
#Reference 1: ON
#Voltage: 0 V
#Reference 2: ON
#Voltage: 0 V

Time (s),Channel 1 (V),Channel 2 (V)
-4.096,-1.095614149569417,-1.852321763213987
-4.0955,-0.2953510352439472,-1.396666311792202
-4.095,0.3768699807911171,-0.7926579226966561
-4.0945,0.7396559259519968,-0.1462629799820306
-4.094,0.8250173248133804,0.3517790250603857
-4.0935,0.7930068002403519,0.616694985190092
-4.093,0.7289857510943143,0.6908714540261965
-4.0925,0.7396559259519871,0.5955017083797763
-4.092,0.9210488985326017,0.2140227257934886
-4.0915,0.9210488985326017,0.02328323450064829
-4.091,0.8143471499557753,-0.05089323433552374
-4.0905,0.7076454013788714,-0.1038764263614187
-4.09,0.6222840025174878,-0.1674562567923655
-4.0895,0.4515612047945656,-0.06148987274069118
-4.089,-0.1993194615234835,0.5425185163533032
-4.0885,-1.052933450138687,1.231300012689736
-4.088,-1.746494815888059,1.559795803249926
-4.0875,-2.301343908487052,0.7544512844579335
-4.087,-2.376035132490636,-0.4217755785167887
-4.0865,-1.607782542738184,-0.8668343915334161
-4.086,-0.7008176798359846,-0.7078848154560491
-4.0855,-0.007256314085399809,-0.3687923864902576
-4.085,0.4195506802215176,-0.05089323433552374
-4.0845,0.6116138276596303,0.17163617217279
-4.084,0.6756348768058816,0.3199891098453942
-4.0835,0.6542945270905358,0.383568940276341
-4.083,0.6222840025174878,0.4047622170866759
-4.0825,0.5796033030867379,0.3835689402763121
-4.082,0.5582629533713921,0.3517790250608387
-4.0815,0.5049120790829789,0.2670059178194992
-4.081,-0.03926683865834102,-0.3052125560590216
-4.0805,-0.9142211769888124,-1.131750351662602
-4.08,-1.607782542738184,-1.820531847998485
-4.0795,-1.501080794161455,-1.905304955239748
-4.079,-0.6154562809729416,-1.619195718299908
-4.0785,0.2168173579255475,-1.184733543688439
-4.078,0.6969752265208297,-0.5807251545944447
-4.0775,0.8676980242441982,-0.02969995752482265
-4.077,0.8783681991018712,0.3729723018711736
-4.0765,0.8143471499558335,0.5531151547588561
-4.076,0.7396559259521133,0.5743084315692103
-4.0755,0.8676980242441885,0.4153588554918433
-4.075,0.9210488985326017,0.2670059178194992
-4.0745,0.8356874996710437,0.182232810578102
-4.074,0.7289857510943143,0.1186529801471552
-4.0735,0.6436243522328531,0.05507314971615059
-4.073,0.5475927785137967,0.04447651131099279
-4.0725,0.0674349099179905,0.4789386859228479
-4.072,-0.7755089038389382,1.135930267043229
-4.0715,-1.469070269587679,1.61277899527533
-4.071,-1.970568487899743,1.082947075016274
-4.0705,-2.354694782775969,-0.1462629799820306
-4.07,-1.863866739323014,-0.8880276683430762
-4.0695,-0.9569018764188542,-0.8350444763175957
-4.069,-0.1993194615240755,-0.4853554089473885
-4.0685,0.3021787567870086,-0.1250697031716958
-4.068,0.568933128229162,0.1610395337679888
-4.0675,0.6649647019482183,0.3411823866556712
-4.067,0.6649647019482183,0.4365521323021782
-4.0665,0.6329541773751317,0.4683420475176708
-4.066,0.5902734779444399,0.457745409112513
-4.0655,0.5582629533713921,0.4259554938970107
-4.065,0.547592778513719,0.3729723018712218
-4.0645,0.2274875327832301,-0.04029659593035631
-4.064,-0.5941159312583333,-0.8562377531282487
-4.0635,-1.319687821580093,-1.61919571829961
-4.063,-1.650463242168371,-2.021867977696377
-4.0625,-1.052933450138687,-1.703968825541643
-4.062,-0.1993194615248519,-1.121153713257965
-4.0615,0.4302208550794915,-0.4641621321365332
-4.061,0.7503261008096795,0.1080563417419877
-4.0605,0.8356874996711408,0.4895353243280153
-4.06,0.8036769750980248,0.6908714540262159
-4.0595,0.7289857510943143,0.7120647308365314
-4.059,0.79300680024041,0.7226613692416989
-4.0585,0.9210488985324853,0.7332580076468567
-4.058,0.8783681991018712,0.5637117931641874
-4.0575,0.7716664505250448,0.3305857482505039
-4.057,0.6756348768059884,0.1080563417421901
-4.0565,0.6009436528021226,-0.07208651114585861
-4.056,0.2808384070716433,0.13984625695749
-4.0555,-0.5407650569691728,0.7968378380772734
-4.055,-1.319687821581238,1.422039503982692
-4.0545,-1.853196564464885,1.358459673551745
-4.054,-2.301343908487148,0.2776025562256497
-4.0535,-2.205312334767616,-0.7608680074819248
-4.053,-1.330357996438436,-0.9622041371799229
-4.0525,-0.4767440078238243,-0.6760949002404023
-4.052,0.1314559590644066,-0.2946159176540856
-4.0515,0.4835717293676135,0.02328323450064829
-4.051,0.6436243522328531,0.2458126410091644
-4.0505,0.675634876805872,0.3623756634659001
-4.05,0.6436243522328531,0.4153588554918433
-4.0495,0.6116138276598051,0.4259554938970107
-4.049,0.5796033030867864,0.3941655786815373
-4.0485,0.558262953371266,0.362375663465823
-4.048,0.4195506802215176,0.1610395337678249
-4.0475,-0.2953510352425692,-0.5701285161880629
-4.047,-1.138294849000701,-1.375473034981993
-4.0465,-1.746494815888059,-1.968884785670829
-4.046,-1.458400094730889,-1.990078062481144
-4.0455,-0.5834457563999421,-1.502632695842855
-4.045,0.1954770082101822,-0.8350444763179138
-4.0445,0.6436243522328531,-0.1462629799820306
-4.044,0.8143471499557753,0.3623756634662471
-4.0435,0.8143471499557753,0.627291623595192
-4.043,0.7609962756673623,0.7120647308365314
-4.0425,0.7289857510943434,0.7120647308365314
-4.042,0.8783681991018712,0.7862411996727035
-4.0415,0.8783681991018712,0.6060983467848571
-4.041,0.7930068002404876,0.3305857482507544
-4.0405,0.6969752265211984,0.05507314971595784
-4.04,0.6222840025174878,-0.1568596183871981
-4.0395,0.4622313796523938,-0.1462629799820403
-4.039,-0.1779791118093896,0.4471487707079817
-4.0385,-0.9248913518464952,1.146526905448396
-4.038,-1.394379045584104,1.411442865577341
-4.0375,-1.863866739322733,0.5637117931631754
-4.037,-2.045259711903173,-0.5489352393783931
-4.0365,-1.373038695869166,-0.8986243067489184
-4.036,-0.5727755815424052,-0.6760949002400554
-4.0355,0.04609456020262521,-0.2946159176543747
-4.035,0.4302208550792003,0.04447651131098315
-4.0345,0.6116138276596401,0.2987958330347702
-4.034,0.6649647019482183,0.457745409112513
-4.0335,0.6542945270905358,0.5425185163538525
-4.033,0.611613827659844,0.5637117931641681
-4.0325,0.5796033030867379,0.5531151547589718
-4.032,0.5582629533713921,0.5001319627331828
-4.0315,0.5155822539407002,0.3835689402764471
-4.031,-0.01792648894420816,-0.1886495336034714
-4.0305,-0.8288597781273515,-1.036380606016095
-4.03,-1.40504922044169,-1.73575874075651
-4.0295,-1.394379045583833,-2.07485116972233
-4.029,-0.6261264558313813,-1.88411167842949
-4.0285,0.1634664836371343,-1.354279758171118
-4.028,0.6649647019483833,-0.6760949002398048
-4.0275,0.8463576745288233,-0.01910331912002144
-4.027,0.8463576745288233,0.4153588554918433
-4.0265,0.7823366253827857,0.6166949851898414
-4.026,0.7183155762366316,0.6378882620003594
-4.0255,0.825017324813458,0.6908714540261965
-4.025,0.8783681991018227,0.616694985190092
-4.0245,0.8143471499556879,0.4153588554916409
-4.024,0.7183155762366316,0.1928294489833272
-4.0235,0.643624352232921,0.002089957690486893
-4.023,0.5582629533709554,-0.1038764263609658
-4.0225,0.07810508477567314,0.3305857482505039
-4.022,-0.7755089038381618,1.040560521396076
-4.0215,-1.543761493592535,1.591585718465062
-4.021,-2.03458953704549,1.188913459069066
-4.0205,-2.365364957633652,-0.01910331912002144
-4.02,-1.927887788467819,-0.8350444763179138
-4.0195,-0.9995825758502737,-0.8350444763179138
-4.019,-0.2313299860971235,-0.5171453241628908
-4.0185,0.2915085819288505,-0.146262979982368
-4.018,0.5582629533713921,0.13984625695749
-4.0175,0.6649647019482183,0.3305857482505039
-4.017,0.6756348768058914,0.4365521323020818
-4.0165,0.6436243522328142,0.4789386859228382
-4.016,0.6009436528021226,0.4683420475176805
-4.0155,0.5689331282291037,0.4365521323022071
-4.015,0.547592778513457,0.3835689402760326
-4.0145,0.2701682322139607,0.04447651131098315
-4.014,-0.5407650569691825,-0.7608680074810094
-4.0135,-1.40504922044267,-1.523825972654231
-4.013,-1.906547438753298,-2.000674700886331
-4.0125,-1.30901764672307,-1.820531847998485
-4.012,-0.3807124341040399,-1.248313374118807
-4.0115,0.3235191065023739,-0.5489352393783931
-4.011,0.6969752265212663,0.1080563417419877
-4.0105,0.8463576745286874,0.5425185163534574
-4.01,0.8356874996711408,0.7332580076468663
-4.0095,0.7609962756673623,0.7438546460520338
-4.009,0.8250173248133998,0.4789386859230888
-4.0085,0.9957401225363317,0.09745970333670466
-4.008,0.942389248247967,-0.02969995752518888
-4.0075,0.8250173248135648,-0.07208651114582006
-4.007,0.6969752265211887,-0.09327978795623203
-4.0065,0.6116138276598051,-0.1356663415768632
-4.006,0.3128489316446912,0.1292496185523226
-4.0055,-0.4660738329668985,0.8180311148887937
-4.005,-1.298347471865388,1.464426057603419
-4.0045,-1.810515865034154,1.485619334413754
-4.004,-2.205312334768344,0.4259554938960277
-4.0035,-2.130621110764634,-0.6549016234300674
-4.003,-1.277007122150022,-0.8986243067489184
-4.0025,-0.4554036581092061,-0.6654982618354469
-4.002,0.142126133921769,-0.3158091944647096
-4.0015,0.4942419042252961,-0.01910331912002144
-4.001,0.6436243522327172,0.1928294489831344
-4.0005,0.6756348768058816,0.3093924714402268
-4,0.6542945270905358,0.3729723018711736
-3.9995,0.6116138276598051,0.383568940276341
-3.999,0.5796033030867573,0.3729723018711736
-3.9985,0.5582629533713921,0.3411823866556712
-3.998,0.4408910299368829,0.1822328105781598
-3.9975,-0.2420001609548061,-0.4959520473525559
-3.997,-1.084943974711735,-1.301296566145281
-3.9965,-1.682473766741963,-1.873515040024322
-3.996,-1.330357996438436,-1.788741932782983
-3.9955,-0.4127229586777283,-1.492036057438295
-3.995,0.3555296310754218,-1.068170521231597
-3.9945,0.7609962756673623,-0.4959520473525559
-3.994,0.8783681991018712,0.02328323450064829
-3.9935,0.8463576745288233,0.3517790250608387
-3.993,0.7609962756673623,0.5107286011383502
-3.9925,0.7396559259519968,0.6060983467848571
-3.992,0.9637295979633325,0.7968378380778709
-3.9915,0.974399772821015,0.6908714540261965
-3.991,0.8676980242441885,0.4471487707073456
-3.9905,0.7503261008096795,0.2140227257936621
-3.99,0.6542945270905358,0.03387987290581572
-3.9895,0.4942419042252961,0.06566978812131802
-3.989,-0.124628237520297,0.6378882620003594
-3.9885,-0.9889124009925911,1.326669758336243
-3.988,-1.650463242168915,1.686955464111935
-3.9875,-2.205312334768412,0.8710143069140429
-3.987,-2.269333383914508,-0.2946159176543747
-3.9865,-1.447729919872945,-0.7078848154559045
-3.986,-0.5834457564006506,-0.5489352393783931
-3.9855,0.0674349099179905,-0.2204394488182027
-3.985,0.4515612047945656,0.08686306493165288
-3.9845,0.6329541773751706,0.309392471440169
-3.984,0.6756348768059011,0.457745409112513
-3.9835,0.6649647019482183,0.5319218779486851
-3.983,0.6222840025174878,0.55311515475902
-3.9825,0.5796033030867573,0.5213252395435176
-3.982,0.5582629533713921,0.4683420475176805
-3.9815,0.5262524287983441,0.3517790250608387
-3.981,0.05676473506030786,-0.1992461720078678
-3.9805,-0.807519428411986,-1.036380606016095
-3.98,-1.383708870726849,-1.746355379162313
-3.9795,-1.30901764672307,-1.915901593644992
-3.979,-0.5300948821122373,-1.629792356705471
-3.9785,0.2381577076409128,-1.227120097309109
-3.978,0.7183155762366316,-0.6760949002404023
-3.9775,0.8783681991018712,-0.1250697031716958
-3.977,0.8676980242441885,0.2564092794143318
-3.9765,0.79300680024041,0.457745409112513
-3.976,0.7183155762366316,0.5001319627331828
-3.9755,0.857027849386506,0.2140227257936621
-3.975,0.9210488985326017,-0.008506680714854012
-3.9745,0.8463576745288233,-0.05089323433552374
-3.974,0.7503261008096795,-0.04029659593035631
-3.9735,0.6542945270905358,-0.04029659593035631
-3.973,0.5689331282290746,-0.01910331912002144
-3.9725,0.1207857842064037,0.4259554938970107
-3.972,-0.7328282044082075,1.114736990232894
-3.9715,-1.479740444445993,1.655165548896433
-3.971,-2.066600061618538,1.231300012689736
-3.9705,-2.3973754822067,0.01268659609548085
-3.97,-1.895877263895616,-0.7502713690765743
-3.9695,-0.9569018764195432,-0.7396747306714069
-3.969,-0.1886492866663929,-0.4323722169215513
-3.9685,0.3128489316446912,-0.09327978795619347
-3.968,0.5796033030867573,0.1610395337678249
-3.9675,0.6756348768059011,0.3411823866556712
-3.967,0.6756348768059011,0.4365521323021782
-3.9665,0.6436243522328531,0.4683420475176805
-3.966,0.6009436528021226,0.457745409112513
-3.9655,0.5689331282290746,0.4259554938970107
-3.965,0.5582629533713921,0.3623756634660061
-3.9645,0.291508581929326,0.01268659609548085
-3.964,-0.5087545323968721,-0.792657922697244
-3.9635,-1.30901764672307,-1.566212526274467
-3.963,-1.703814116457328,-2.053657892912168
-3.9625,-1.095614149569417,-1.937094870455327
-3.962,-0.2099896363817582,-1.42845622700729
-3.9615,0.4515612047945656,-0.7396747306714069
-3.961,0.7823366253827275,-0.1144730647665284
-3.9605,0.8676980242441885,0.3623756634660061
-3.96,0.825017324813458,0.627291623595192
-3.9595,0.7503261008096795,0.6908714540261965
-3.959,0.8143471499557753,0.4789386859228479
-3.9585,0.9957401225363802,0.09745970333682032
-3.958,0.9530594231056497,-0.01910331912002144
-3.9575,0.825017324813458,-0.02969995752518888
-3.957,0.707645401378949,-0.04029659593035631
-3.9565,0.6222840025174878,-0.07208651114585861
-3.956,0.3021787567870086,0.2034260873884947
-3.9555,-0.4874141826815069,0.8922075837243778
-3.955,-1.234326422719292,1.528005888034424
-3.9545,-1.714484291315011,1.485619334413754
-3.954,-2.183971985053047,0.3941655786815084
-3.9535,-1.991908837614759,-0.6019184314042303
-3.953,-1.138294849000148,-0.7820612842920766
-3.9525,-0.3487019095316325,-0.570128516188728
-3.952,0.2061471830678648,-0.2734226408440398
-3.9515,0.5155822539406614,-0.01910331912002144
-3.951,0.6542945270905358,0.1504428953626575
-3.9505,0.6756348768059011,0.2564092794143318
-3.95,0.6436243522328531,0.2987958330350016
-3.9495,0.6009436528021226,0.2987958330350016
-3.949,0.5689331282290746,0.2881991946298341
-3.9485,0.5475927785137094,0.2776025562246667
-3.948,0.4622313796522482,0.13984625695749
-3.9475,-0.1673089369510276,-0.5277419625680583
-3.947,-0.9142211769888124,-1.322489842955616
-3.9465,-1.394379045584531,-1.915901593644992
-3.946,-1.1062843244271,-1.788741932782983
-3.9455,-0.2846808603855366,-1.439052865412457
-3.945,0.408880505363835,-0.9410108603695881
-3.9445,0.7609962756673623,-0.3370024712750445
-3.944,0.857027849386506,0.1716361721729923
-3.9435,0.825017324813458,0.4895353243280153
-3.943,0.7503261008096795,0.627291623595192
-3.9425,0.7183155762366316,0.627291623595192
-3.942,0.8997085488172365,0.5743084315693548
-3.9415,0.9103787236749192,0.4789386859228479
-3.941,0.825017324813458,0.3729723018711736
-3.9405,0.7183155762366316,0.2458126410091644
-3.94,0.6436243522328531,0.13984625695749
-3.9395,0.4835717293676135,0.1716361721729923
-3.939,-0.2099896363817582,0.6908714540261965
-3.9385,-0.9889124009925911,1.33726639674141
-3.938,-1.46907026958831,1.612778995275763
-3.9375,-1.863866739322568,0.775644561267536
-3.937,-2.087940411333903,-0.4111789401112165
-3.9365,-1.458400094730627,-0.8880276683437509
-3.936,-0.6474668055467465,-0.7290780922662394
-3.9355,0.00341386077189465,-0.3899856633008816
-3.935,0.408880505363835,-0.06148987274069118
-3.9345,0.6009436528021226,0.1716361721729923
-3.934,0.6649647019482183,0.309392471440169
-3.9335,0.6542945270905358,0.383568940276341
-3.933,0.6222840025174878,0.3941655786815084
-3.9325,0.5902734779444399,0.383568940276341
-3.932,0.5582629533713921,0.3517790250608387
-3.9315,0.5369226036560266,0.2881991946298341
-3.931,0.08877525963335578,-0.1992461720078678
-3.9305,-0.722158029550525,-1.01518732920576
-3.93,-1.351698346153801,-1.725162102351978
-3.9295,-1.341028171296118,-1.968884785670829
-3.929,-0.5407650569699201,-1.746355379162313
-3.9285,0.2594980573562781,-1.269506650929778
-3.928,0.7503261008096795,-0.6443049850249
-3.9275,0.942389248247967,-0.04029659593035631
-3.927,0.9210488985326017,0.383568940276341
-3.9265,0.825017324813458,0.6166949851900245
-3.926,0.7289857510943143,0.6802748156210291
-3.9255,0.825017324813458,0.701468092431364
-3.925,0.8890383739595538,0.6590815388106942
-3.9245,0.825017324813458,0.4895353243280153
-3.924,0.7289857510943143,0.2987958330350016
-3.9235,0.6542945270905358,0.1292496185523226
-3.923,0.5689331282290746,0.01268659609548085
-3.9225,0.1314559590640864,0.3517790250608387
-3.922,-0.722158029550525,1.019367244586387
-3.9215,-1.426389570157579,1.559795803249926
-3.921,-1.949228138184029,1.178316820663898
-3.9205,-2.301343908487556,0.002089957690313421
-3.92,-1.693143941599645,-0.6760949002404023
-3.9195,-0.807519428411986,-0.6760949002404023
-3.919,-0.1032878878049318,-0.4217755785163839
-3.9185,0.3555296310754218,-0.1356663415768632
-3.918,0.5902734779444399,0.08686306493165288
-3.9175,0.6649647019482183,0.2352160026039969
-3.917,0.6649647019482183,0.3199891098453364
-3.9165,0.6329541773751706,0.3517790250608387
-3.916,0.5902734779444399,0.3517790250608387
-3.9155,0.5582629533713921,0.3411823866556712
-3.915,0.5475927785137094,0.309392471440169
-3.9145,0.3448594562177392,0.05507314971615059
-3.914,-0.4127229586777283,-0.6972881770507372
-3.9135,-1.159635198715513,-1.460246142222792
-3.913,-1.575772018165136,-1.968884785670829
-3.9125,-1.074273799854052,-1.947691508860494
-3.912,-0.2206598112394408,-1.545019249464132
-3.9115,0.4515612047945656,-0.9198175835592532
-3.911,0.7823366253827275,-0.252229364033705
-3.9105,0.857027849386506,0.2670059178194992
-3.91,0.8143471499557753,0.5637117931641874
-3.9095,0.7396559259519968,0.6696781772158616
-3.909,0.7823366253827275,0.7438546460520338
-3.9085,0.9317190733902845,0.7968378380778709
-3.908,0.8997085488172365,0.5849050699745222
-3.9075,0.79300680024041,0.309392471440169
-3.907,0.6863050516635838,0.05507314971615059
-3.9065,0.6116138276598051,-0.1356663415768632
-3.906,0.3661998059331045,0.01268659609548085
-3.9055,-0.3593720843893152,0.6590815388106942
-3.905,-1.159635198715513,1.33726639674141
-3.9045,-1.703814116457328,1.37965295036208
-3.904,-2.130621110764634,0.3517790250608387
-3.9035,-2.109280761049269,-0.6972881770507372
-3.903,-1.287677297007705,-0.8986243067489184
-3.9025,-0.4767440078238243,-0.6125150698093976
-3.902,0.1314559590640864,-0.2204394488182027
-3.9015,0.4729015545099309,0.1080563417419877
-3.901,0.6329541773751706,0.3517790250608387
-3.9005,0.6649647019482183,0.4895353243280153
-3.9,0.6436243522328531,0.5637117931641874
-3.8995,0.6116138276598051,0.5637117931641874
-3.899,0.5796033030867573,0.5319218779486851
-3.8985,0.5582629533713921,0.4683420475176805
-3.898,0.4729015545099309,0.309392471440169
-3.8975,-0.1352984123779797,-0.3475991096802118
-3.897,-0.9142211769888124,-1.174136905283272
-3.8965,-1.373038695869166,-1.809935209593318
-3.896,-1.052933450138687,-1.809935209593318
-3.8955,-0.2313299860971235,-1.545019249464132
-3.895,0.4622313796522482,-1.089363798041932
-3.8945,0.8143471499557753,-0.5277419625680583
-3.894,0.8997085488172365,-0.01910331912002144
-3.8935,0.857027849386506,0.3517790250608387
-3.893,0.7716664505250448,0.5425185163538525
-3.8925,0.7289857510943143,0.5955017083796896
-3.892,0.8997085488172365,0.7438546460520338
-3.8915,0.9210488985326017,0.6590815388106942
-3.891,0.825017324813458,0.4365521323021782
-3.8905,0.7183155762366316,0.2034260873884947
-3.89,0.6329541773751706,0.01268659609548085
-3.8895,0.5049120790829789,-0.008506680714854012
-3.889,-0.07127736323188383,0.5213252395435176
-3.8885,-0.9462317015618604,1.210106735879401
-3.888,-1.650463242168915,1.612778995275763
-3.8875,-2.226652684483777,0.8816109453192104
-3.887,-2.3973754822067,-0.326405832869877
-3.8865,-1.725154466172693,-0.8456411147230812
-3.886,-0.7861790786966207,-0.6972881770507372
