Class_7_Listen_To_Music/Class_7_Listen_To_Music_Basim_6.csv

#Digilent WaveForms Oscilloscope Acquisition
#Device Name: EExplorer
#Serial Number: SN:210151A2B84A
#Date Time: 2020-12-13 12:26:20.171
#Sample rate: 2000Hz
#Samples: 16384
#Trigger: Source: Channel 1 Type: Edge Condition: Rising Level: 0 V Hyst.: Auto HoldOff: 0 s
#Channel 1: Range: 1 V/div Offset: 0 V Attenuation: 1 X
#Channel 2: Range: 1 V/div Offset: 0 V Attenuation: 1 X
#Power Supplies: ON
#Fixed Supply: ON
#Voltage: 3.3 V Readback: 3.328 V
#Positive Supply: ON
#Voltage: 3.7 V Readback: 3.714 V
#Current: 40 mA Readback: 19 mA
#Negative Supply: ON
#Voltage: -3.7 V Readback: -3.356 V
#Current: -40 mA Readback: -7 mA
#Reference 1: ON
#Voltage: 0 V
#Reference 2: ON
#Voltage: 0 V

Time (s),Channel 1 (V),Channel 2 (V)
-4.096,0.2381577076409128,-0.6866915386455698
-4.0955,0.2701682322139316,-0.1038764263618909
-4.095,0.2594980573562684,0.2352160026041222
-4.0945,0.2488278824985954,0.3729723018711736
-4.094,0.2381577076409225,0.3411823866557002
-4.0935,0.1527963087792381,0.330585748250687
-4.093,-0.08194753808956648,0.5319218779486851
-4.0925,-0.1352984123779312,0.4577454091125805
-4.092,-0.1032878878048638,0.3305857482504171
-4.0915,-0.02859666380115328,0.2352160026039969
-4.091,0.00341386077189465,0.2246193641988295
-4.0905,-0.2206598112400328,0.5001319627332695
-4.09,-0.8715404775580819,0.5955017083796896
-4.0895,-1.373038695869166,-0.07208651114585861
-4.089,-1.629122892453317,-0.8668343915326933
-4.0885,-1.87453691418025,-1.396666311791788
-4.088,-1.533091318734406,-1.184733543688439
-4.0875,-0.9142211769893753,-0.4959520473531823
-4.087,-0.3807124341043602,0.1928294489837802
-4.0865,-0.02859666380115328,0.6908714540261965
-4.086,0.1527963087792867,0.9981739677757726
-4.0855,0.2274875327832301,1.146526905448435
-4.085,0.2274875327832301,1.188913459069066
-4.0845,0.2168173579255572,1.157123543853592
-4.084,0.1954770082101822,1.051157159801735
-4.0835,0.1954770082101822,0.8816109453192104
-4.083,0.2168173579255475,0.701468092431364
-4.0825,0.2701682322143392,0.4789386859223757
-4.082,0.6863050516635838,-0.04029659593035631
-4.0815,1.187803269974668,-0.8032545611024114
-4.081,0.9210488985328444,-1.460246142222195
-4.0805,0.4729015545099309,-1.820531847998485
-4.08,0.3235191065023739,-1.417859588602123
-4.0795,0.302178756787028,-0.7820612842926548
-4.079,0.2808384070715948,-0.2840192792488603
-4.0785,0.2274875327832301,0.09745970333682032
-4.078,0.1741366584948654,0.2352160026038717
-4.0775,0.1421261339217593,0.2246193641987813
-4.077,0.1314559590640864,0.1716361721729923
-4.0765,0.01408403562968405,0.3623756634658327
-4.076,-0.04993701351648944,0.4153588554917662
-4.0755,-0.01792648894347063,0.3305857482505039
-4.075,0.03542438534494258,0.2458126410091644
-4.0745,0.06743490991794199,0.2458126410092897
-4.074,0.01408403562957729,0.383568940276341
-4.0735,-0.4554036581084589,0.8710143069140429
-4.073,-1.063603624995817,0.7226613692418338
-4.0725,-1.437059745015262,-0.1250697031716958
-4.072,-1.714484291315011,-0.9304142219644207
-4.0715,-1.56510184330759,-1.110557074852103
-4.071,-1.010252750707471,-0.6125150698088194
-4.0705,-0.4767440078238243,0.02328323450064829
-4.07,-0.09261771294759852,0.5425185163533802
-4.0695,0.1207857842064911,0.9028042221297188
-4.069,0.2168173579255475,1.093543713422559
-4.0685,0.2274875327832301,1.178316820663898
-4.068,0.2168173579255378,1.188913459069018
-4.0675,0.2061471830678648,1.135930267043229
-4.067,0.2061471830678648,0.9663840525605498
-4.0665,0.2488278824987215,0.7332580076465579
-4.066,0.3875401556484697,0.3941655786815084
-4.0655,0.6329541773751706,0.05507314971615059
-4.065,1.187803269974163,-0.5807251545933172
-4.0645,1.273164668836129,-1.237716735714276
-4.064,0.7716664505250448,-1.809935209593318
-4.0635,0.5262524287985673,-1.915901593644896
-4.063,0.440891029936815,-1.237716735713727
-4.0625,0.3661998059331045,-0.6337083466197325
-4.062,0.3021787567870668,-0.146262979982474
-4.0615,0.2488278824985663,0.150442895362725
-4.061,0.2168173579255475,0.2246193641988295
-4.0605,0.1741366584948169,0.1610395337678249
-4.06,0.0567647350601817,0.235216002604103
-4.0595,-0.08194753808956648,0.3517790250608387
-4.059,-0.07127736323188383,0.2564092794143318
-4.0585,-0.007256314085846219,0.1504428953627538
-4.058,0.03542438534494258,0.1186529801471552
-4.0575,0.05676473506030786,0.1716361721729923
-4.057,-0.2846808603852261,0.4683420475174107
-4.0565,-0.9569018764195432,0.2034260873884947
-4.056,-1.341028171296118,-0.5277419625680583
-4.0555,-1.554431668449577,-1.195330182093
-4.055,-1.70381411645695,-1.523825972653383
-4.0545,-1.287677297007705,-1.068170521231597
-4.054,-0.7114878546933663,-0.3264058328705517
-4.0535,-0.2526703358122267,0.3305857482509086
-4.053,0.03542438534494258,0.775644561267536
-4.0525,0.1848068333524996,1.029963882991555
-4.052,0.2274875327832301,1.146526905448415
-4.0515,0.2274875327832301,1.167720182258731
-4.051,0.2061471830678648,1.114736990232894
-4.0505,0.1954770082101919,0.9875773293710004
-4.05,0.2061471830678648,0.7968378380778709
-4.0495,0.3128489316446912,0.5319218779486851
-4.049,0.6222840025172064,0.05507314971658428
-4.0485,1.251824319121132,-0.6231117082151723
-4.048,1.657290963712704,-1.290699927740113
-4.0475,1.05976117168302,-1.862918401618634
-4.047,0.6969752265212857,-2.223204107394645
-4.0465,0.7183155762366316,-2.000674700886331
-4.046,0.643624352232921,-1.152943628473708
-4.0455,0.4942419042251603,-0.5489352393779786
-4.045,0.3448594562177392,-0.09327978795619347
-4.0445,0.2381577076409128,0.1610395337678249
-4.044,0.1741366584948266,0.2246193641988873
-4.0435,0.1848068333524996,0.2881991946298341
-4.043,0.3875401556484697,0.5425185163538525
-4.0425,0.4195506802214886,0.4789386859229057
-4.042,0.3341892813600565,0.3199891098453364
-4.0415,0.2381577076409128,0.2034260873884947
-4.041,0.1634664836372022,0.1610395337678635
-4.0405,-0.08194753809017787,0.3411823866556134
-4.04,-0.754168554123573,0.2776025562246667
-4.0395,-1.351698346153257,-0.3899856633002744
-4.039,-1.650463242169138,-1.089363798042376
-4.0385,-1.895877263895616,-1.576809164679634
-4.038,-1.586442193023101,-1.322489842955847
-4.0375,-0.9569018764190482,-0.5913217929984268
-4.037,-0.4127229586777283,0.1080563417419877
-4.0365,-0.04993701351651855,0.6166949851900245
-4.036,0.1527963087795196,0.9134008605348476
-4.0355,0.2274875327832301,1.061753798207057
-4.035,0.2274875327832301,1.093543713422559
-4.0345,0.2168173579255572,1.061753798207086
-4.034,0.1954770082101822,0.9769806909657173
-4.0335,0.1954770082101822,0.8180311148882058
-4.033,0.227487532783201,0.6272916235953654
-4.0325,0.302178756787358,0.3623756634654857
-4.032,0.6863050516635838,-0.2098428104130352
-4.0315,1.155792745401193,-0.9304142219637653
-4.031,0.9530594231051936,-1.5662125262749
-4.0305,0.4515612047945656,-2.043061254507001
-4.03,0.4088805053638738,-1.926498232050265
-4.0295,0.4302208550791712,-1.036380606015411
-4.029,0.3982103305061524,-0.2840192792492073
-4.0285,0.291508581929326,0.1504428953626575
-4.028,0.227487532783201,0.3411823866556616
-4.0275,0.1954770082101822,0.3305857482505039
-4.027,0.1741366584948169,0.2458126410091644
-4.0265,-0.007256314085622995,0.4471487707071625
-4.026,-0.1673089369510276,0.5637117931641874
-4.0255,-0.1459685872356623,0.4683420475176805
-4.025,-0.08194753808962471,0.3411823866557869
-4.0245,-0.007256314085807397,0.2564092794144089
-4.024,-0.02859666380115328,0.3411823866556712
-4.0235,-0.5407650569694542,0.9028042221290344
-4.023,-1.212986073004305,1.104140351827033
-4.0225,-1.629122892453549,0.3411823866556712
-4.022,-1.927887788468392,-0.5489352393775835
-4.0215,-1.533091318733833,-0.7290780922658828
-4.021,-0.9035510021311299,-0.3370024712750445
-4.0205,-0.3700422592469978,0.1716361721729923
-4.02,-0.01792648894330565,0.5955017083799691
-4.0195,0.1634664836371343,0.9028042221295453
-4.019,0.2274875327832301,1.072350436612224
-4.0185,0.238157707640903,1.167720182258644
-4.018,0.2168173579255475,1.188913459069066
-4.0175,0.1954770082101822,1.167720182258731
-4.017,0.1848068333525093,1.061753798207153
-4.0165,0.1954770082102404,0.9134008605344814
-4.016,0.2594980573562781,0.6590815388106942
-4.0155,0.5262524287981014,0.203426087388909
-4.015,1.049090996824658,-0.5277419625686943
-4.0145,0.8997085488172365,-1.227120097309109
-4.014,0.2381577076415143,-1.809935209592788
-4.0135,0.09944543449109666,-2.043061254506442
-4.013,0.1634664836371343,-1.42845622700729
-4.0125,0.2168173579255475,-0.7396747306714069
-4.012,0.2274875327832204,-0.2204394488179135
-4.0115,0.2168173579255475,0.09745970333682032
-4.011,0.2061471830678648,0.2246193641988295
-4.0105,0.174136658494846,0.1928294489833561
-4.01,0.04609456020262521,0.2776025562246667
-4.0095,-0.1673089369510276,0.457745409112513
-4.009,-0.1566387620933547,0.3411823866557773
-4.0085,-0.0712773632318159,0.1822328105781212
-4.008,0.00341386077189465,0.13984625695749
-4.0075,0.03542438534491346,0.192829448983279
-4.007,-0.2953510352438016,0.5319218779485694
-4.0065,-0.9355615267041777,0.4047622170866759
-4.006,-1.383708870726849,-0.3370024712750445
-4.0055,-1.575772018165223,-1.057573882826767
-4.005,-1.67180359188428,-1.42845622700729
-4.0045,-1.255666772434657,-1.01518732920576
-4.004,-0.6901475049770597,-0.2946159176537868
-4.0035,-0.2313299860971235,0.3517790250608387
-4.003,0.04609456020262521,0.7968378380778709
-4.0025,0.1848068333523734,1.051157159801658
-4.002,0.2274875327832301,1.157123543853563
-4.0015,0.2274875327832301,1.178316820663898
-4.001,0.2061471830678842,1.146526905448425
-4.0005,0.1848068333525093,1.061753798206932
-4,0.1954770082101822,0.92399749893988
-3.9995,0.1954770082101822,0.7862411996727035
-3.999,0.291508581929326,0.5001319627331828
-3.9985,0.8143471499557753,-0.1568596183871981
-3.998,1.315845368266859,-0.9410108603695881
-3.9975,1.017080472251745,-1.587405803084801
-3.997,0.3235191065023739,-2.032464616101834
-3.9965,0.05676473506030786,-1.523825972653797
-3.996,0.00341386077189465,-0.7290780922662394
-3.9955,0.03542438534494258,-0.08268314955102604
-3.995,0.1101156093487211,0.2776025562246667
-3.9945,0.1634664836371343,0.3411823866556712
-3.994,0.1848068333524996,0.2564092794143318
-3.9935,0.1527963087794516,0.1610395337678249
-3.993,-0.01792648894347063,0.2987958330350016
-3.9925,-0.08194753808956648,0.2564092794143318
-3.992,-0.02859666380115328,0.1292496185523226
-3.9915,0.02475421048725994,0.07626642652648545
-3.991,0.03542438534494258,0.1080563417419877
-3.9905,-0.124628237520297,0.3941655786815084
-3.99,-0.7008176798351597,0.5319218779486851
-3.9895,-1.138294849000148,-0.09327978795619347
-3.989,-1.405049220442214,-0.8774310299385835
-3.9885,-1.767835165603424,-1.449649503817625
-3.988,-1.703814116457328,-1.417859588602123
-3.9875,-1.127624674142465,-0.7290780922662394
-3.987,-0.5514352318276028,0.02328323450064829
-3.9865,-0.124628237520297,0.6060983467848571
-3.986,0.1101156093487211,0.9557874141553824
-3.9855,0.2168173579255475,1.135930267043229
-3.985,0.2381577076409128,1.199510097474233
-3.9845,0.2274875327832301,1.178316820663898
-3.984,0.2061471830678648,1.082947075017392
-3.9835,0.2061471830678648,0.9345941373450475
-3.983,0.2168173579255475,0.7332580076468663
-3.9825,0.3021787567870086,0.4471487707073456
-3.982,0.6649647019482183,-0.1038764263613609
-3.9815,1.187803269974668,-0.8456411147230812
-3.981,0.8997085488172365,-1.492036057438295
-3.9805,0.142126133921769,-2.011271339291499
-3.98,-0.02859666380115328,-2.138431000153508
-3.9795,0.0674349099179905,-1.523825972653797
-3.979,0.1741366584948169,-0.7396747306714069
-3.9785,0.2274875327832301,-0.1462629799820306
-3.978,0.2274875327832301,0.2140227257936621
-3.9775,0.1848068333524996,0.3305857482505039
-3.977,0.1634664836371343,0.2564092794143318
-3.9765,-0.07127736323188383,0.457745409112513
-3.976,-0.4020527838200457,0.7120647308365314
-3.9755,-0.3807124341046804,0.55311515475902
-3.975,-0.2206598112394408,0.309392471440169
-3.9745,-0.07127736323188383,0.1716361721729923
-3.974,-0.02859666380115328,0.2140227257936621
-3.9735,-0.4447334832507763,0.2458126410091644
-3.973,-0.9675720512772257,-0.2840192792492073
-3.9725,-1.212986073003927,-0.9833974139902578
-3.972,-1.543761493592088,-1.566212526274467
-3.9715,-1.725154466172693,-1.725162102351978
-3.971,-1.26633694729234,-1.05757388282643
-3.9705,-0.690147504977477,-0.2416327256285375
-3.97,-0.2313299860971235,0.4153588554918433
-3.9695,0.05676473506030786,0.8604176685088755
-3.969,0.1954770082101822,1.093543713422559
-3.9685,0.2381577076409128,1.188913459069066
-3.968,0.2381577076409128,1.199510097474233
-3.9675,0.2168173579255475,1.114736990232894
-3.967,0.2168173579255475,0.9345941373450475
-3.9665,0.2274875327832301,0.7332580076468663
-3.966,0.291508581929326,0.4683420475176805
-3.9655,0.6436243522328531,-0.02969995752518888
-3.965,1.315845368266859,-0.7608680074817418
-3.9645,1.379866417412955,-1.417859588602123
-3.964,0.6969752265212663,-1.979481424075996
-3.9635,0.3768699807907871,-2.191414192179345
-3.963,0.3661998059331045,-1.492036057438295
-3.9625,0.3555296310754218,-0.6337083466197325
-3.962,0.3235191065023739,-0.05089323433552374
-3.9615,0.2701682322139607,0.2458126410091644
-3.961,0.2168173579255475,0.2987958330350016
-3.9605,0.1848068333524996,0.2246193641988295
-3.96,0.09944543449103843,0.2776025562246667
-3.9595,-0.007256314085787988,0.5107286011383502
-3.959,0.00341386077189465,0.4365521323021782
-3.9585,0.03542438534494258,0.2564092794143318
-3.958,0.0674349099179905,0.13984625695749
-3.9575,0.05676473506030786,0.1716361721729923
-3.957,-0.2526703358124887,0.5319218779486851
-3.9565,-0.9569018764195432,0.7544512844572011
-3.956,-1.437059745015262,0.09745970333682032
-3.9555,-1.639793067311232,-0.7396747306714069
-3.955,-1.735824641030376,-1.258910012524611
-3.9545,-1.277007122150022,-0.9728007755850904
-3.954,-0.7008176798351597,-0.3158091944647096
-3.9535,-0.2313299860971235,0.2987958330350016
-3.953,0.05676473506030786,0.7438546460520338
-3.9525,0.1954770082101822,1.00877060618122
-3.952,0.2381577076409128,1.146526905448396
-3.9515,0.2381577076409128,1.188913459069066
-3.951,0.2168173579255475,1.167720182258731
-3.9505,0.2061471830678648,1.029963882991555
-3.95,0.1954770082101822,0.9345941373450475
-3.9495,0.1954770082101822,0.849821030103708
-3.949,0.2701682322139607,0.6060983467848571
-3.9485,0.707645401378949,-0.04029659593035631
-3.948,0.8676980242441885,-0.8350444763179138
-3.9475,0.3875401556484697,-1.502632695843462
-3.947,-0.1886492866663929,-1.873515040024322
-3.9465,-0.2420001609548061,-1.460246142222792
-3.946,-0.1032878878049318,-0.8774310299385835
-3.9455,0.05676473506030786,-0.3793890248957141
-3.945,0.1848068333524996,-0.04029659593035631
-3.9445,0.2274875327832301,0.13984625695749
-3.944,0.2381577076409128,0.2034260873884947
-3.9435,0.1848068333524996,0.1822328105781598
-3.943,-0.09261771294724913,0.4259554938970107
-3.9425,-0.1993194615240755,0.457745409112513
-3.942,-0.2953510352432193,0.5743084315693548
-3.9415,-0.274010685527854,0.5637117931641874
-3.941,-0.156638762093345,0.457745409112513
-3.9405,-0.1993194615240755,0.5743084315693548
-3.94,-0.7114878546928423,0.9981739677760521
-3.9395,-1.277007122150022,0.5743084315693548
-3.939,-1.757164990745741,-0.3158091944647096
-3.9385,-2.141291285622316,-1.068170521231597
-3.938,-1.938557963326346,-1.237716735714276
-3.9375,-1.212986073003927,-0.6972881770507372
-3.937,-0.5621054066852853,-0.008506680714854012
-3.9365,-0.1139580626626144,0.55311515475902
-3.936,0.142126133921769,0.9345941373450475
-3.9355,0.2381577076409128,1.135930267043229
-3.935,0.2594980573562781,1.220703374284568
-3.9345,0.2488278824985954,1.220703374284568
-3.934,0.2274875327832301,1.146526905448396
-3.9335,0.2168173579255475,0.9769806909657173
-3.933,0.2274875327832301,0.7968378380778709
-3.9325,0.2808384070716433,0.5637117931641874
-3.932,0.5902734779444399,0.06566978812131802
-3.9315,1.027750647109428,-0.6972881770507372
-3.931,0.6436243522328531,-1.38606967338662
-3.9305,0.04609456020262521,-1.947691508860494
-3.93,0.02475421048725994,-1.947691508860494
-3.9295,0.1634664836371343,-1.216523458903942
-3.929,0.2808384070716433,-0.5595318777835605
-3.9285,0.291508581929326,-0.1144730647665284
-3.928,0.2488278824985954,0.09745970333682032
-3.9275,0.2061471830678648,0.1292496185523226
-3.927,0.1741366584948169,0.07626642652648545
-3.9265,0.1101156093487211,0.2776025562246667
-3.926,0.1314559590640864,0.5637117931641874
-3.9255,0.1634664836371343,0.4683420475176805
-3.925,0.1741366584948169,0.2776025562246667
-3.9245,0.1634664836371343,0.1610395337678249
-3.924,0.08877525963335578,0.1928294489833272
-3.9235,-0.3700422592469978,0.1292496185523226
-3.923,-0.9569018764195432,-0.474758770542221
-3.9225,-1.447729919872945,-1.131750351662602
-3.922,-1.842526389607202,-1.598002441489969
-3.9215,-1.991908837614759,-1.661582271920973
-3.921,-1.405049220442214,-0.9833974139902578
-3.9205,-0.7434983792658902,-0.1568596183871981
-3.92,-0.2420001609548061,0.5001319627331828
-3.9195,0.0674349099179905,0.92399749893988
-3.919,0.2168173579255475,1.135930267043229
-3.9185,0.2594980573562781,1.210106735879401
-3.918,0.2488278824985954,1.188913459069066
-3.9175,0.2274875327832301,1.093543713422559
-3.917,0.2274875327832301,0.9028042221295453
-3.9165,0.2274875327832301,0.7120647308365314
-3.916,0.2701682322139607,0.4895353243280153
-3.9155,0.5049120790829789,0.03387987290581572
-3.915,1.081101521397841,-0.6866915386455698
-3.9145,1.070431346540159,-1.354279758171118
-3.914,0.2594980573562781,-1.894708316834657
-3.9135,-0.03926683865883591,-2.074851169722503
-3.913,0.03542438534494258,-1.38606967338662
-3.9125,0.1207857842064037,-0.6337083466197325
-3.912,0.2168173579255475,-0.04029659593035631
-3.9115,0.2488278824985954,0.309392471440169
-3.911,0.2488278824985954,0.4153588554918433
-3.9105,0.2274875327832301,0.3517790250608387
-3.91,0.1634664836371343,0.3199891098453364
-3.9095,0.03542438534494258,0.4259554938970107
-3.909,-0.007256314085787988,0.3729723018711736
-3.9085,-0.02859666380115328,0.3199891098453364
-3.908,0.00341386077189465,0.2458126410091644
-3.9075,0.03542438534494258,0.2140227257936621
-3.907,-0.1459685872356623,0.5001319627331828
-3.9065,-0.7861790786966207,0.8180311148882058
-3.906,-1.351698346153801,0.2458126410091644
-3.9055,-1.67180359188428,-0.6125150698093976
-3.905,-1.767835165603424,-1.0999604364471
-3.9045,-1.244996597576974,-0.7820612842920766
-3.904,-0.6474668055467465,-0.1674562567923655
-3.9035,-0.1886492866663929,0.4047622170866759
-3.903,0.08877525963335578,0.8180311148882058
-3.9025,0.2168173579255475,1.072350436612224
-3.902,0.2594980573562781,1.199510097474233
-3.9015,0.2488278824985954,1.241896651094903
-3.901,0.2274875327832301,1.220703374284568
-3.9005,0.2061471830678648,1.157123543853563
-3.9,0.2061471830678648,1.040560521396722
-3.8995,0.2381577076409128,0.8286277532933731
-3.899,0.4195506802215176,0.4365521323021782
-3.8985,0.9317190733902845,-0.2310360872233701
-3.898,1.646620788855021,-0.9833974139902578
-3.8975,1.635950613997339,-1.619195718300304
-3.897,1.15579274540162,-2.117237723343173
-3.8965,0.8890383739595538,-1.915901593644992
-3.896,0.6649647019482183,-1.131750351662602
-3.8955,0.4729015545099309,-0.4429688553267188
-3.895,0.3341892813600565,-0.02969995752518888
-3.8945,0.2381577076409128,0.1186529801471552
-3.894,0.2061471830678648,0.1504428953626575
-3.8935,0.1848068333524996,0.13984625695749
-3.893,-0.007256314085787988,0.3517790250608387
-3.8925,-0.08194753808956648,0.3411823866556712
-3.892,-0.04993701351651855,0.2034260873884947
-3.8915,0.01408403562957729,0.09745970333682032
-3.891,0.0674349099179905,0.06566978812131802
-3.8905,-0.01792648894347063,0.1928294489833272
-3.89,-0.5834457564006506,0.02328323450064829
-3.8895,-1.26633694729234,-0.6231117082145651
-3.889,-1.83185621474952,-1.227120097309109
-3.8885,-2.333354433060604,-1.608599079895136
-3.888,-1.906547438753298,-1.290699927740113
-3.8875,-1.116954499284783,-0.5065486857577234
-3.887,-0.4767440078238243,0.2246193641988295
-3.8865,-0.04993701351651855,0.7544512844572011
-3.886,0.1741366584948169,1.061753798207057
