Class_7_Listen_To_Music/Class_7_Listen_To_Music_Suko_4.csv

#Digilent WaveForms Oscilloscope Acquisition
#Device Name: EExplorer
#Serial Number: SN:210151A2B84A
#Date Time: 2020-12-15 14:14:47.956
#Sample rate: 2000Hz
#Samples: 16384
#Trigger: Source: Channel 1 Type: Edge Condition: Rising Level: 0 V Hyst.: Auto HoldOff: 0 s
#Channel 1: Range: 1 V/div Offset: 0 V Attenuation: 1 X
#Channel 2: Range: 1 V/div Offset: 0 V Attenuation: 1 X
#Power Supplies: ON
#Fixed Supply: ON
#Voltage: 3.3 V Readback: 3.321 V
#Positive Supply: ON
#Voltage: 3.7 V Readback: 3.716 V
#Current: 40 mA Readback: 20 mA
#Negative Supply: ON
#Voltage: -3.7 V Readback: -3.345 V
#Current: -40 mA Readback: -7 mA
#Reference 1: ON
#Voltage: 0 V
#Reference 2: ON
#Voltage: 0 V

Time (s),Channel 1 (V),Channel 2 (V)
-4.096,-0.5621054066852853,0.08686306493165288
-4.0955,0.1527963087788015,-0.485355408946868
-4.095,0.515582253940739,-0.7820612842921633
-4.0945,0.6009436528021226,-0.8774310299385835
-4.094,0.5369226036560848,-0.8350444763179523
-4.0935,0.4408910299368344,-0.7184814538610045
-4.093,0.3875401556484697,-0.6443049850249
-4.0925,0.5582629533712369,-0.7926579226971091
-4.092,0.5689331282289776,-0.729078092266037
-4.0915,0.4622313796522482,-0.5065486857577234
-4.091,0.3448594562177392,-0.2734226408440398
-4.0905,0.2594980573563751,-0.08268314955081402
-4.09,0.3661998059331045,0.1504428953626575
-4.0895,0.9530594231056497,0.6166949851900245
-4.089,0.8570278493865934,1.07235043661181
-4.0885,-0.06060718837420119,1.210106735879401
-4.088,-0.9889124009925911,0.9663840525605498
-4.0875,-1.319687821580452,0.7120647308367627
-4.087,-1.020922925565222,0.1928294489829032
-4.0865,-0.5621054066852853,-0.2734226408440398
-4.086,-0.1779791118090596,-0.5489352393781425
-4.0855,0.06743490991809725,-0.6654982618352252
-4.085,0.1848068333524996,-0.6549016234300674
-4.0845,0.2274875327831913,-0.5807251545939629
-4.084,0.2274875327831913,-0.4747587705420958
-4.0835,0.1848068333524996,-0.3370024712750445
-4.083,0.142126133921769,-0.1886495336027004
-4.0825,0.0994454344909705,-0.008506680714641985
-4.082,0.02475421048725994,0.2246193641988295
-4.0815,-0.4554036581084589,0.6484849004055269
-4.081,-1.202315898145565,1.082947075016996
-4.0805,-1.927887788468663,1.390249588767247
-4.08,-2.03458953704549,1.369056311956912
-4.0795,-1.159635198716309,0.7226613692422867
-4.079,-0.3380317346734549,-0.07208651114640795
-4.0785,0.2061471830678648,-0.6760949002404023
-4.078,0.4515612047943424,-0.9516074987745049
-4.0775,0.536922603656017,-0.9833974139902
-4.077,0.5262524287983441,-0.9198175835592532
-4.0765,0.4515612047946335,-0.7714646458870441
-4.076,0.5262524287983732,-0.6125150698092434
-4.0755,0.5582629533713921,-0.4429688553267188
-4.075,0.4729015545099309,-0.252229364033705
-4.0745,0.3555296310753441,-0.07208651114572369
-4.074,0.2701682322139607,0.07626642652648545
-4.0735,0.2594980573562781,0.2034260873884947
-4.073,0.6969752265208684,0.4471487707071239
-4.0725,0.8676980242441885,0.849821030103708
-4.072,0.08877525963335578,1.199510097474233
-4.0715,-0.8288597781265169,0.7438546460524482
-4.071,-1.351698346153617,-0.0720865111462152
-4.0705,-1.148965023857831,-0.4641621321370536
-4.07,-0.6901475049778942,-0.5807251545937894
-4.0695,-0.274010685527592,-0.559531877783493
-4.069,0.01408403562957729,-0.4853554089473885
-4.0685,0.1741366584948169,-0.400582301706049
-4.068,0.2274875327832398,-0.3475991096801733
-4.0675,0.2381577076409128,-0.3052125560595421
-4.067,0.2061471830678648,-0.2734226408440398
-4.0665,0.1634664836370955,-0.2204394488181352
-4.066,0.1207857842064037,-0.1462629799820306
-4.0655,0.08877525963335578,-0.02969995752518888
-4.065,-0.1886492866661406,0.2987958330347028
-4.0645,-0.8715404775580819,0.7862411996727035
-4.064,-1.607782542738184,1.188913459069066
-4.0635,-2.023919362187429,1.252493289500013
-4.063,-1.234326422718467,0.5955017083790632
-4.0625,-0.3273615598162672,-0.09327978795619347
-4.062,0.2808384070710902,-0.6231117082140832
-4.0615,0.5689331282291231,-0.8880276683437991
-4.061,0.6222840025174878,-0.9410108603695881
-4.0605,0.5689331282290746,-0.9304142219644207
-4.06,0.4622313796522385,-0.8456411147230716
-4.0595,0.4515612047945656,-0.8350444763179138
-4.059,0.5902734779444399,-0.9410108603695881
-4.0585,0.5475927785137482,-0.7926579226973789
-4.058,0.4302208550792003,-0.5595318777835605
-4.0575,0.3128489316446912,-0.3158091944647096
-4.057,0.2488278824986536,-0.1250697031718692
-4.0565,0.5049120790829789,0.1186529801471552
-4.056,1.102441871113207,0.5319218779486851
-4.0555,0.7076454013793081,0.9875773293704704
-4.055,-0.2206598112402172,0.9663840525598174
-4.0545,-1.074273799854052,0.1610395337678249
-4.054,-1.266336947292165,-0.2840192792488025
-4.0535,-0.9248913518460876,-0.4853554089474367
-4.053,-0.4767440078238243,-0.5383386009732256
-4.0525,-0.124628237520297,-0.5065486857577234
-4.052,0.09944543449113548,-0.4429688553266513
-4.0515,0.2061471830678648,-0.3687923864905467
-4.051,0.2381577076409128,-0.3052125560595421
-4.0505,0.2274875327832398,-0.2522293640337532
-4.05,0.1848068333524996,-0.1780528951975329
-4.0495,0.1207857842064037,-0.1038764263613609
-4.049,0.07810508477571196,0.02328323450053263
-4.0485,-0.06060718837476405,0.267005917819904
-4.048,-0.6794773301197943,0.7120647308365314
-4.0475,-1.437059745014573,1.135930267042843
-4.047,-2.045259711902668,1.337266396741092
-4.0465,-1.490410619303675,0.9875773293708847
-4.046,-0.5407650569707837,0.3835689402768904
-4.0455,0.1634664836374739,-0.3052125560600144
-4.045,0.5369226036560266,-0.8244478379127463
-4.0445,0.6436243522328531,-1.121153713257435
-4.044,0.5902734779443525,-1.216523458903903
-4.0435,0.4942419042252961,-1.174136905283272
-4.043,0.4302208550792003,-1.046977244421262
-4.0425,0.5902734779442943,-1.121153713257367
-4.042,0.6009436528021226,-0.9728007755850904
-4.0415,0.4835717293676135,-0.6654982618352349
-4.041,0.3661998059332112,-0.3581957480856588
-4.0405,0.2701682322140092,-0.09327978795599108
-4.04,0.3235191065023739,0.1292496185523226
-4.0395,0.9103787236743854,0.4577454091122143
-4.039,1.315845368266229,0.9028042221297476
-4.0385,0.6222840025174878,1.125333628638062
-4.038,-0.3487019095307494,0.3941655786821734
-4.0375,-0.9889124009925232,-0.2098428104132569
-4.037,-0.9142211769888124,-0.4535654937318862
-4.0365,-0.572775581542968,-0.5171453241628908
-4.036,-0.2313299860969003,-0.4747587705421439
-4.0355,0.01408403562957729,-0.3899856633008816
-4.035,0.1527963087794516,-0.3052125560595421
-4.0345,0.2061471830678163,-0.2416327256285954
-4.034,0.2168173579255475,-0.1780528951975329
-4.0335,0.1954770082101822,-0.1250697031716958
-4.033,0.1527963087794905,-0.0508932343355912
-4.0325,0.1101156093486628,0.04447651131115663
-4.032,0.04609456020262521,0.2352160026039969
-4.0315,-0.4340633083926569,0.6060983467845198
-4.031,-1.180975548431548,1.040560521397002
-4.0305,-1.917217613610981,1.347863035146577
-4.03,-1.895877263895635,1.178316820664052
-4.0295,-0.8715404775573056,0.5743084315687285
-4.029,-0.01792648894347063,-0.1144730647665284
-4.0285,0.4515612047945656,-0.718481453861072
-4.028,0.6222840025174684,-1.07876715963688
-4.0275,0.6009436528021226,-1.205926820498774
-4.027,0.5049120790829789,-1.163540266878104
-4.0265,0.3875401556485765,-1.036380606016211
-4.026,0.5049120790829789,-1.0999604364471
-4.0255,0.6222840025174878,-1.0999604364471
-4.025,0.5475927785137773,-0.8350444763181547
-4.0245,0.4195506802214206,-0.5065486857574535
-4.024,0.3128489316446912,-0.2098428104130352
-4.0235,0.2701682322139995,0.002089957690120658
-4.023,0.6756348768062505,0.1292496185526888
-4.0225,1.059761171682476,0.5319218779486851
-4.022,0.408880505364427,0.9875773293704704
-4.0215,-0.5941159312588477,1.294879843120711
-4.021,-1.159635198715513,1.263089927905238
-4.0205,-1.010252750707956,0.6908714540261965
-4.02,-0.6047861061156762,0.09745970333644445
-4.0195,-0.2313299860971235,-0.3158091944647096
-4.019,0.02475421048725994,-0.5065486857577234
-4.0185,0.1634664836370081,-0.5171453241628812
-4.018,0.2168173579255475,-0.4323722169215513
-4.0175,0.2274875327832301,-0.3052125560595421
-4.017,0.2061471830678842,-0.1674562567924908
-4.0165,0.1527963087794128,0.01268659609562542
-4.016,0.1101156093487211,0.1716361721729923
-4.0155,0.07810508477570226,0.3623756634658327
-4.015,-0.1779791118093313,0.6802748156213857
-4.0145,-0.8608703027003992,1.072350436612224
-4.014,-1.575772018164486,1.369056311956643
-4.0135,-2.098610586191042,1.475022696008336
-4.013,-1.501080794161358,1.199510097474233
-4.0125,-0.5941159312583333,0.5425185163538525
-4.012,0.06743490991832046,-0.1886495336031919
-4.0115,0.4302208550792003,-0.7290780922662394
-4.011,0.5369226036560266,-1.01518732920576
-4.0105,0.4942419042253349,-1.078767159636707
-4.01,0.408880505363835,-1.004590690800593
-4.0095,0.4195506802215176,-0.9622041371799229
-4.009,0.6009436528019576,-1.036380606016027
-4.0085,0.5796033030866409,-0.845641114722821
-4.008,0.4515612047945656,-0.5595318777835605
-4.0075,0.3341892813601633,-0.2840192792494579
-4.007,0.2594980573564625,-0.05089323433529244
-4.0065,0.4622313796522482,0.2034260873884947
-4.006,0.9850699476786977,0.6484849004055269
-4.0055,0.5689331282281721,1.093543713422848
-4.005,-0.423393133535411,1.411442865577582
-4.0045,-1.277007122150022,1.559795803249926
-4.004,-1.373038695868778,1.167720182258085
-4.0035,-0.9462317015618604,0.457745409112513
-4.003,-0.4660738329661415,-0.1356663415768632
-4.0025,-0.1032878878052617,-0.4747587705419126
-4.002,0.1101156093487211,-0.6019184314042303
-4.0015,0.2168173579255475,-0.570128516188728
-4.001,0.2381577076408934,-0.46416213213715
-4.0005,0.227487532783201,-0.3158091944645554
-4,0.1954770082101822,-0.1462629799820306
-3.9995,0.142126133921769,0.03387987290581572
-3.999,0.1101156093487211,0.2564092794143318
-3.9985,-0.02859666380115328,0.5319218779486851
-3.998,-0.658136980404429,0.9134008605347127
-3.9975,-1.415719395299897,1.273686566310405
-3.997,-2.087940411333903,1.453829419198252
-3.9965,-1.682473766741963,0.9134008605347127
-3.996,-0.7008176798351597,0.2246193641988295
-3.9955,0.03542438534494258,-0.3793890248957141
-3.995,0.4515612047945656,-0.7714646458869092
-3.9945,0.5902734779444399,-0.9410108603695881
-3.994,0.5582629533713921,-0.9622041371799229
-3.9935,0.4622313796522482,-0.8774310299385835
-3.993,0.3875401556484697,-0.7714646458869092
-3.9925,0.5796033030867573,-0.9304142219644207
-3.992,0.6222840025174878,-0.8880276683437509
-3.9915,0.5155822539406614,-0.6443049850249
-3.991,0.3768699807907871,-0.3687923864905467
-3.9905,0.2808384070716433,-0.1462629799820306
-3.99,0.3235191065023739,0.04447651131098315
-3.9895,0.9210488985326017,0.383568940276341
-3.989,1.230483969405398,0.8604176685088755
-3.9885,0.4408910299368829,1.114736990232894
-3.988,-0.5621054066852853,0.6590815388106942
-3.9875,-1.084943974711735,0.3623756634660061
-3.987,-0.9355615267041777,-0.02969995752518888
-3.9865,-0.5514352318276028,-0.3581957480853793
-3.986,-0.1993194615240755,-0.5383386009732256
-3.9855,0.04609456020262521,-0.6019184314042303
-3.985,0.1741366584948169,-0.5807251545938954
-3.9845,0.2168173579255475,-0.5065486857577234
-3.984,0.2274875327832301,-0.4217755785163839
-3.9835,0.1954770082101822,-0.3158091944647096
-3.983,0.1527963087794516,-0.1780528951975329
-3.9825,0.1101156093487211,-0.008506680714854012
-3.982,0.04609456020262521,0.2352160026039969
-3.9815,-0.4127229586777283,0.627291623595192
-3.981,-1.138294849000148,1.072350436612224
-3.9805,-1.778505340461106,1.37965295036208
-3.98,-1.778505340461106,1.146526905448396
-3.9795,-0.8715404775580819,0.383568940276341
-3.979,-0.09261771294724913,-0.3158091944647096
-3.9785,0.3875401556484697,-0.7608680074817418
-3.978,0.5902734779444399,-0.9622041371799229
-3.9775,0.5902734779444399,-0.9728007755850904
-3.977,0.5155822539406614,-0.9092209451540858
-3.9765,0.4195506802215176,-0.7714646458869092
-3.976,0.5155822539406614,-0.8032545611024114
-3.9755,0.6436243522328531,-0.8350444763179138
-3.975,0.5582629533713921,-0.6337083466197325
-3.9745,0.4302208550792003,-0.3687923864905467
-3.974,0.3128489316446912,-0.1462629799820306
-3.9735,0.2594980573562781,0.02328323450064829
-3.973,0.6329541773751706,0.2352160026039969
-3.9725,1.251824319120764,0.6378882620003594
-3.972,0.8036769750980928,1.051157159801889
-3.9715,-0.1139580626626144,0.7544512844572011
-3.971,-0.8928808272734472,0.08686306493165288
-3.9705,-0.9569018764195432,-0.2840192792492073
-3.97,-0.658136980404429,-0.4959520473525559
-3.9695,-0.3060212101009019,-0.5807251545938954
-3.969,-0.02859666380115328,-0.570128516188728
-3.9685,0.1314559590640864,-0.5277419625680583
-3.968,0.2061471830678648,-0.474758770542221
-3.9675,0.2274875327832301,-0.4217755785163839
-3.967,0.2061471830678648,-0.3687923864905467
-3.9665,0.1634664836371343,-0.2840192792492073
-3.966,0.1101156093487211,-0.1886495336027004
-3.9655,0.07810508477567314,-0.07208651114585861
-3.965,-0.1779791118087102,0.2458126410091644
-3.9645,-0.8502001278427167,0.7544512844572011
-3.964,-1.597112367880501,1.178316820663898
-3.9635,-2.119950935906951,1.316073119931075
-3.963,-1.362368521011484,0.6060983467848571
-3.9625,-0.4127229586777283,-0.1780528951975329
-3.962,0.2594980573562781,-0.6760949002404023
-3.9615,0.5689331282290746,-0.9198175835592532
-3.961,0.6329541773751706,-0.9622041371799229
-3.9605,0.5689331282290746,-0.8986243067489184
-3.96,0.4515612047945656,-0.7502713690765743
-3.9595,0.4408910299368829,-0.6866915386455698
-3.959,0.6329541773751706,-0.8244478379127463
-3.9585,0.6116138276598051,-0.6972881770507372
-3.958,0.4729015545099309,-0.4641621321370536
-3.9575,0.3448594562177392,-0.2416327256285375
-3.957,0.2594980573562781,-0.06148987274069118
-3.9565,0.4729015545099309,0.1504428953626575
-3.956,0.9850699476786977,0.5849050699745222
-3.9555,0.5155822539406614,1.051157159801889
-3.955,-0.3593720843893152,1.210106735879401
-3.9545,-1.116954499284783,1.220703374284568
-3.954,-1.362368521011484,0.9769806909657173
-3.9535,-1.010252750707956,0.3623756634660061
-3.953,-0.5300948821122373,-0.1992461720078678
-3.9525,-0.1459685872356623,-0.5595318777835605
-3.952,0.08877525963335578,-0.7078848154559045
-3.9515,0.2061471830678648,-0.7078848154559045
-3.951,0.2381577076409128,-0.6231117082145651
-3.9505,0.2274875327832301,-0.4959520473525559
-3.95,0.1848068333524996,-0.3370024712750445
-3.9495,0.1314559590640864,-0.1462629799820306
-3.949,0.08877525963335578,0.06566978812131802
-3.9485,-0.01792648894347063,0.3411823866556712
-3.948,-0.5941159312583333,0.775644561267536
-3.9475,-1.319687821580753,1.178316820663898
-3.947,-1.959898313041711,1.42203950398275
-3.9465,-1.639793067311232,0.9451907757502149
-3.946,-0.6688071552621118,0.2034260873884947
-3.9455,0.0674349099179905,-0.3052125560595421
-3.945,0.4622313796522482,-0.6337083466197325
-3.9445,0.6116138276598051,-0.8032545611024114
-3.944,0.6009436528021226,-0.8032545611024114
-3.9435,0.5369226036560266,-0.6549016234300674
-3.943,0.4408910299368829,-0.5065486857577234
-3.9425,0.5796033030867573,-0.6125150698093976
-3.942,0.5902734779444399,-0.570128516188728
-3.9415,0.4835717293676135,-0.3899856633008816
-3.941,0.3555296310754218,-0.1886495336027004
-3.9405,0.2701682322139607,-0.01910331912002144
-3.94,0.3021787567870086,0.1716361721729923
-3.9395,0.825017324813458,0.5849050699745222
-3.939,0.825017324813458,1.029963882991555
-3.9385,-0.04993701351651855,1.241896651094903
-3.938,-0.9462317015618604,0.7862411996727035
-3.9375,-1.362368521011484,0.5107286011383502
-3.937,-1.084943974711735,0.07626642652648545
-3.9365,-0.6261264558313813,-0.3370024712750445
-3.936,-0.2099896363817582,-0.5913217929990628
-3.9355,0.05676473506030786,-0.6972881770507372
-3.935,0.1848068333524996,-0.6972881770507372
-3.9345,0.2381577076409128,-0.6337083466197325
-3.934,0.2381577076409128,-0.5383386009732256
-3.9335,0.2061471830678648,-0.4217755785163839
-3.933,0.1527963087794516,-0.2734226408440398
-3.9325,0.1101156093487211,-0.1038764263613609
-3.932,0.0674349099179905,0.1080563417419877
-3.9315,-0.3593720843893152,0.5319218779486851
-3.931,-1.084943974711735,1.00877060618122
-3.9305,-1.767835165603424,1.358459673551745
-3.93,-1.938557963326346,1.284283204715573
-3.9295,-1.1062843244271,0.6166949851900245
-3.929,-0.2846808603855366,-0.1356663415768632
-3.9285,0.2488278824985954,-0.7502713690765743
-3.928,0.4942419042252961,-1.046977244421262
-3.9275,0.5369226036560266,-1.078767159636765
-3.927,0.4942419042252961,-0.9833974139902578
-3.9265,0.408880505363835,-0.8456411147230812
-3.926,0.4942419042252961,-0.8350444763179138
-3.9255,0.6222840025174878,-0.8562377531282487
-3.925,0.5582629533713921,-0.6337083466197325
-3.9245,0.4302208550792003,-0.326405832869877
-3.924,0.3128489316446912,-0.05089323433552374
-3.9235,0.2594980573562781,0.1610395337678249
-3.923,0.5902734779444399,0.3729723018711736
-3.9225,1.219813794547716,0.7544512844572011
-3.922,0.8356874996711408,1.157123543853563
-3.9215,-0.2206598112394408,1.443232780793084
-3.921,-0.9569018764195432,1.42203950398275
-3.9205,-0.9462317015618604,0.8074344764830383
-3.92,-0.6047861061160158,0.1080563417419877
-3.9195,-0.2526703358124887,-0.3899856633008816
-3.919,0.00341386077189465,-0.6443049850249
-3.9185,0.1527963087794516,-0.718481453861072
-3.918,0.2168173579255475,-0.6654982618352349
-3.9175,0.2274875327832301,-0.5489352393783931
-3.917,0.2061471830678648,-0.4111789401112165
-3.9165,0.1634664836371343,-0.2310360872233701
-3.916,0.1207857842064037,-0.06148987274069118
-3.9155,0.07810508477567314,0.1610395337678249
-3.915,-0.124628237520297,0.457745409112513
-3.9145,-0.7861790786966207,0.8816109453192104
-3.914,-1.543761493592088,1.25249328950007
-3.9135,-2.07727023647622,1.369056311956912
-3.913,-1.447729919872945,0.8180311148882058
-3.9125,-0.572775581542968,0.05507314971615059
-3.912,0.08877525963335578,-0.570128516188728
-3.9115,0.4408910299368829,-0.9092209451540858
-3.911,0.5689331282290746,-1.046977244421262
-3.9105,0.5475927785137094,-1.004590690800593
-3.91,0.4515612047945656,-0.8244478379127463
-3.9095,0.4195506802215176,-0.5595318777835605
-3.909,0.5582629533713921,-0.2840192792492073
-3.9085,0.5369226036560266,-0.1038764263613609
-3.908,0.4302208550792003,0.01268659609548085
-3.9075,0.3235191065023739,0.09745970333682032
-3.907,0.2488278824985954,0.1610395337678249
-3.9065,0.4515612047945656,0.2987958330350016
-3.906,0.9957401225363802,0.6378882620003594
-3.9055,0.5796033030867573,1.051157159801889
-3.905,-0.423393133535411,1.347863035146577
-3.9045,-1.277007122150022,1.464426057603419
-3.904,-1.341028171296118,1.040560521396722
-3.9035,-0.9248913518464952,0.3199891098453364
-3.903,-0.4447334832507763,-0.2840192792492073
-3.9025,-0.08194753808956648,-0.6337083466197325
-3.902,0.1207857842064037,-0.7714646458869092
-3.9015,0.2168173579255475,-0.7714646458869092
-3.901,0.2488278824985954,-0.6760949002404023
-3.9005,0.2381577076409128,-0.5489352393783931
-3.9,0.1954770082101822,-0.3899856633008816
-3.8995,0.142126133921769,-0.2098428104130352
-3.899,0.1101156093487211,-0.008506680714854012
-3.8985,0.01408403562957729,0.2776025562246667
-3.898,-0.5300948821122373,0.7332580076468663
-3.8975,-1.277007122150022,1.157123543853563
-3.897,-1.959898313041711,1.411442865577582
-3.8965,-1.725154466172693,1.029963882991555
-3.896,-0.7648387289812555,0.4047622170866759
-3.8955,0.01408403562957729,-0.2204394488182027
-3.895,0.4622313796522482,-0.6231117082145651
-3.8945,0.6116138276598051,-0.7502713690765743
-3.894,0.5902734779444399,-0.7714646458869092
-3.8935,0.4942419042252961,-0.7502713690765743
-3.893,0.3982103305061524,-0.6972881770507372
-3.8925,0.5689331282290746,-0.8456411147230812
-3.892,0.6116138276598051,-0.8350444763179138
-3.8915,0.5155822539406614,-0.6019184314042303
-3.891,0.3875401556484697,-0.326405832869877
-3.8905,0.291508581929326,-0.08268314955102604
-3.89,0.291508581929326,0.1080563417419877
-3.8895,0.8036769750980928,0.4153588554918433
-3.889,1.251824319120764,0.8710143069140429
-3.8885,0.5796033030867573,1.167720182258731
-3.888,-0.391382608962363,0.5743084315693548
-3.8875,-1.06360362499637,0.02328323450064829
