Class_2_Relax_eyes_open/Class_2_Relax_eyes_open_AM_10.csv

#Digilent WaveForms Oscilloscope Acquisition
#Device Name: EExplorer
#Serial Number: SN:210151A2B84A
#Date Time: 2021-01-19 10:01:35.271
#Sample rate: 2000Hz
#Samples: 16384
#Trigger: Source: Channel 1 Type: Edge Condition: Rising Level: 0 V Hyst.: Auto HoldOff: 0 s
#Channel 1: Range: 1 V/div Offset: 0 V Attenuation: 1 X
#Channel 2: Range: 1 V/div Offset: 0 V Attenuation: 1 X
#Power Supplies: ON
#Fixed Supply: ON
#Voltage: 3.3 V Readback: 3.317 V
#Positive Supply: ON
#Voltage: 3.7 V Readback: 3.732 V
#Current: 40 mA Readback: 18 mA
#Negative Supply: ON
#Voltage: -3.7 V Readback: -3.334 V
#Current: -40 mA Readback: -6 mA
#Reference 1: ON
#Voltage: 0 V
#Reference 2: ON
#Voltage: 0 V

Time (s),Channel 1 (V),Channel 2 (V)
-4.096,-1.191645723288561,0.5213252395435176
-4.0955,-1.522421143876422,-0.2946159176536326
-4.095,-1.842526389606989,-0.5701285161883907
-4.0945,-1.607782542738184,-0.1992461720078678
-4.094,-0.9569018764201351,0.002089957690130317
-4.0935,-0.3593720843889367,0.07626642652649508
-4.093,0.05676473506030786,0.08686306493165288
-4.0925,0.2808384070714395,0.09745970333681067
-4.092,0.3661998059331239,0.1080563417420167
-4.0915,0.3875401556484697,0.13984625695749
-4.091,0.3661998059331045,0.1928294489833272
-4.0905,0.3448594562177197,0.2458126410092222
-4.09,0.3235191065023739,0.309392471440169
-4.0895,0.3128489316446912,0.383568940276341
-4.089,0.2701682322139995,0.3941655786814988
-4.0885,-0.1352984123779797,-0.05089323433552374
-4.088,-0.7434983792658902,-0.718481453861072
-4.0875,-1.084943974711424,-1.258910012524119
-4.087,-1.106284324426654,-1.375473034981221
-4.0865,-0.6154562809736985,-1.121153713257435
-4.086,-0.01792648894401405,-0.835044476318174
-4.0855,0.36619980593325,-0.400582301705519
-4.085,0.5262524287983441,0.1822328105781598
-4.0845,0.5262524287983441,0.6272916235947872
-4.084,0.4835717293675553,0.860417668508943
-4.0835,0.4195506802215176,0.9345941373450475
-4.083,0.2808384070716433,1.00877060618122
-4.0825,0.01408403562954818,1.082947075017189
-4.082,-0.01792648894347063,0.8604176685088755
-4.0815,0.0674349099179905,0.5319218779486851
-4.081,0.1741366584947199,0.2458126410094246
-4.0805,0.2168173579255475,0.1080563417419877
-4.08,-0.007256314085787988,0.4789386859228479
-4.0795,-0.6047861061154723,0.5319218779486369
-4.079,-1.084943974712094,-0.167456256792857
-4.0785,-1.479740444445993,-0.7078848154559045
-4.078,-1.54376149359203,-0.4323722169218019
-4.0775,-1.04226327528048,-0.1462629799818957
-4.077,-0.4660738329661415,0.002089957690313421
-4.0765,-0.02859666380155118,0.07626642652641799
-4.076,0.2274875327833369,0.1186529801471841
-4.0755,0.3448594562177392,0.1504428953626575
-4.075,0.3875401556484697,0.1928294489833272
-4.0745,0.3768699807907677,0.2458126410092319
-4.074,0.3555296310754218,0.3199891098453364
-4.0735,0.3341892813600565,0.383568940276341
-4.073,0.3235191065023836,0.4471487707072878
-4.0725,0.3128489316446912,0.5001319627331828
-4.072,0.07810508477567314,0.2140227257936621
-4.0715,-0.562105406684703,-0.453565493731279
-4.071,-1.020922925565814,-1.057573882826729
-4.0705,-1.212986073003927,-1.38606967338662
-4.07,-0.8928808272737383,-1.258910012524727
-4.0695,-0.2633405106697153,-1.057573882826112
-4.069,0.2381577076409128,-0.7078848154559045
-4.0685,0.4835717293676135,-0.1674562567923655
-4.068,0.5369226036559975,0.3305857482508123
-4.0675,0.5049120790829789,0.6696781772158616
-4.067,0.4408910299368829,0.8286277532933731
-4.0665,0.4195506802215759,0.8816109453193067
-4.066,0.4835717293676135,0.9875773293708847
-4.0655,0.4622313796522482,0.8604176685088755
-4.065,0.4195506802215564,0.5849050699747728
-4.0645,0.3661998059331045,0.3199891098453364
-4.064,0.3128489316446912,0.13984625695749
-4.0635,-0.1032878878045533,0.404762217086435
-4.063,-0.83952995298549,0.7862411996722408
-4.0625,-1.341028171296118,0.2776025562246667
-4.062,-1.586442193022596,-0.4217755785157479
-4.0615,-1.799845690176113,-0.2946159176540663
-4.061,-1.405049220442214,0.04447651131098315
-4.0605,-0.7648387289812555,0.1186529801471552
-4.06,-0.2206598112391109,0.1080563417419492
-4.0595,0.142126133921769,0.06566978812131802
-4.059,0.3235191065023739,0.05507314971615059
-4.0585,0.3875401556484115,0.08686306493162396
-4.058,0.3875401556484697,0.13984625695749
-4.0575,0.3768699807907871,0.2140227257936621
-4.057,0.3448594562177683,0.2987958330349245
-4.0565,0.3235191065023739,0.3941655786815084
-4.056,0.3235191065023739,0.4789386859228479
-4.0555,0.2381577076409904,0.4365521323022167
-4.055,-0.2953510352437336,-0.08268314955159466
-4.0545,-0.8608703027003992,-0.7078848154559045
-4.054,-1.170305373572914,-1.174136905282848
-4.0535,-1.106284324426595,-1.184733543688256
-4.053,-0.5514352318276028,-0.9833974139902578
-4.0525,0.04609456020262521,-0.7502713690765743
-4.052,0.3982103305062689,-0.3158091944642566
-4.0515,0.5262524287983441,0.1822328105781598
-4.051,0.5262524287983441,0.5637117931641874
-4.0505,0.4729015545099794,0.7756445612673433
-4.05,0.4195506802215176,0.8710143069140429
-4.0495,0.3128489316446912,1.00877060618122
-4.049,0.184806833352616,1.00877060618122
-4.0485,0.1848068333525287,0.7438546460517543
-4.048,0.2168173579255475,0.4365521323021782
-4.0475,0.2594980573562393,0.1716361721732332
-4.047,0.1954770082101143,0.1610395337682586
-4.0465,0.1207857842064037,0.6378882620003594
-4.046,-0.3060212101005138,0.5425185163539392
-4.0455,-0.7861790786970574,-0.1568596183872656
-4.045,-1.26633694729234,-0.2310360872233701
-4.0445,-1.394379045584531,0.2034260873884947
-4.044,-0.9462317015613849,0.2987958330349245
-4.0435,-0.423393133535411,0.2140227257936621
-4.043,-0.01792648894347063,0.1080563417419877
-4.0425,0.2274875327830069,0.04447651131104098
-4.042,0.3448594562177392,0.03387987290581572
-4.0415,0.3875401556484697,0.07626642652648545
-4.041,0.3768699807907968,0.1398462569574322
-4.0405,0.3555296310754121,0.2352160026040837
-4.04,0.3448594562177392,0.3305857482505039
-4.0395,0.3235191065023933,0.425955493896924
-4.039,0.2915085819289669,0.4683420475173432
-4.0385,-0.1032878878049318,0.09745970333682032
-4.038,-0.7221580295499621,-0.5277419625674896
-4.0375,-1.138294849000264,-1.057573882826603
-4.037,-1.26633694729234,-1.248313374119443
-4.0365,-0.807519428411986,-1.110557074852267
-4.036,-0.1246282375198797,-0.9410108603692605
-4.0355,0.3341892813600565,-0.5807251545938954
-4.035,0.5262524287983441,-0.07208651114585861
-4.0345,0.5475927785136899,0.4047622170862422
-4.034,0.4942419042252961,0.7226613692416989
-4.0335,0.4408910299368829,0.8604176685088755
-4.033,0.4729015545099018,0.7756445612676131
-4.0325,0.6009436528020935,0.5849050699744258
-4.032,0.5689331282290746,0.4789386859228479
-4.0315,0.4835717293676911,0.3835689402764277
-4.031,0.4088805053637283,0.2776025562246281
-4.0305,0.291508581929326,0.2352160026039969
-4.03,0.05676473506052135,0.6378882619999933
-4.0295,-0.3166913849590018,0.8604176685082683
-4.029,-0.7755089038389382,0.1928294489833272
-4.0285,-1.244996597576974,-0.5171453241628908
-4.028,-1.479740444445624,-0.3899856633006792
-4.0275,-1.074273799854052,-0.1674562567923655
-4.027,-0.5300948821122373,-0.08268314955102604
-4.0265,-0.08194753808997401,-0.06148987274071045
-4.026,0.1954770082101822,-0.06148987274069118
-4.0255,0.3341892813600565,-0.06148987274069118
-4.025,0.3875401556484212,-0.04029659593037559
-4.0245,0.3875401556484503,-0.008506680714805825
-4.024,0.3661998059331045,0.04447651131098315
-4.0235,0.3448594562177586,0.1080563417419299
-4.023,0.3235191065023739,0.1822328105782272
-4.0225,0.3235191065023739,0.2564092794143318
-4.022,0.08877525963356928,0.05507314971633367
-4.0215,-0.5727755815433562,-0.570128516189258
-4.021,-0.9995825758502737,-1.152943628472937
-4.0205,-1.074273799854052,-1.47084278062796
-4.02,-0.6581369804038856,-1.311893204550217
-4.0195,-0.06060718837420119,-1.05757388282643
-4.019,0.3875401556484697,-0.7396747306714069
-4.0185,0.5689331282289096,-0.2522293640341483
-4.018,0.5796033030867573,0.2564092794143318
-4.0175,0.5155822539406614,0.6590815388106942
-4.017,0.4515612047946238,0.9028042221293235
-4.0165,0.4195506802216826,1.019367244586532
-4.016,0.6009436528021226,1.178316820663898
-4.0155,0.6329541773751415,1.061753798207163
-4.015,0.5582629533713047,0.7862411996724336
-4.0145,0.4622313796522482,0.4895353243280153
-4.014,0.3768699807908648,0.2670059178197016
-4.0135,0.41955068022144,0.383568940276688
-4.013,0.3341892813600565,0.7650479228623686
-4.0125,-0.2526703358124887,0.3199891098453364
-4.012,-0.7861790786970574,-0.4111789401111779
-4.0115,-1.26633694729234,-0.3687923864905467
-4.011,-1.170305373573196,-0.05089323433552374
-4.0105,-0.7008176798355867,0.0550731497160542
-4.01,-0.2420001609548061,0.05507314971615059
-4.0095,0.09944543449103843,0.03387987290581572
-4.009,0.2808384070714783,0.02328323450065792
-4.0085,0.3555296310754412,0.0444765113110217
-4.008,0.3768699807907871,0.08686306493165288
-4.0075,0.3661998059331142,0.1504428953625996
-4.007,0.3448594562177197,0.2246193641989066
-4.0065,0.3235191065023739,0.309392471440169
-4.006,0.3235191065023739,0.3941655786815084
-4.0055,0.227487532782774,0.3411823866551797
-4.005,-0.274010685527854,-0.1992461720078678
-4.0045,-0.7755089038389382,-0.8350444763179138
-4.004,-1.06360362499636,-1.29069992774021
-4.0035,-1.052933450138687,-1.396666311791788
-4.003,-0.5621054066852853,-1.237716735714276
-4.0025,0.03542438534439907,-0.9833974139904891
-4.002,0.3875401556484697,-0.474758770542221
-4.0015,0.5155822539406614,0.13984625695749
-4.001,0.5155822539406614,0.5743084315689597
-4.0005,0.4622313796521997,0.8180311148882925
-4,0.408880505363835,0.9134008605347127
-3.9995,0.4302208550792003,0.9663840525605498
-3.999,0.4515612047945656,0.9134008605347127
-3.9985,0.4195506802215176,0.7438546460520338
-3.998,0.3768699807907871,0.5425185163538525
-3.9975,0.3448594562177392,0.3623756634660061
-3.997,0.1848068333524996,0.3729723018711736
-3.9965,-0.4020527838200457,0.7862411996727035
-3.996,-1.010252750707956,0.5425185163538525
-3.9955,-1.30901764672307,-0.2416327256285375
-3.995,-1.565101843307454,-0.400582301706049
-3.9945,-1.522421143876723,0.05507314971615059
-3.994,-0.9782422261349084,0.2034260873884947
-3.9935,-0.4127229586777283,0.1504428953626575
-3.993,0.01408403562957729,0.05507314971615059
-3.9925,0.2594980573562781,-0.01910331912002144
-3.992,0.3661998059331045,-0.05089323433552374
-3.9915,0.3875401556484697,-0.04029659593035631
-3.991,0.3768699807907871,0.01268659609548085
-3.9905,0.3555296310754218,0.08686306493165288
-3.99,0.3341892813600565,0.1716361721729923
-3.9895,0.3235191065023739,0.2670059178194992
-3.989,0.3021787567870086,0.3199891098453364
-3.9885,-0.04993701351651855,-0.01910331912002144
-3.988,-0.7114878546928423,-0.6549016234300674
-3.9875,-1.212986073003927,-1.195330182093607
-3.987,-1.319687821580753,-1.375473034981453
-3.9865,-0.8502001278427167,-1.184733543688439
-3.986,-0.1886492866663929,-0.9516074987747555
-3.9855,0.291508581929326,-0.5383386009732256
-3.985,0.4942419042252961,0.01268659609548085
-3.9845,0.5262524287983441,0.5107286011383502
-3.984,0.4942419042252961,0.849821030103708
-3.9835,0.4408910299368829,0.9769806909657173
-3.983,0.3982103305061524,0.9769806909657173
-3.9825,0.3875401556484697,0.9345941373450475
-3.982,0.3768699807907871,0.7650479228623686
-3.9815,0.3555296310754218,0.5425185163538525
-3.981,0.3341892813600565,0.3411823866556712
-3.9805,0.2701682322139607,0.2246193641988295
-3.98,-0.1673089369510276,0.5849050699745222
-3.9795,-0.839529952985034,0.6908714540261965
-3.979,-1.373038695869166,-0.008506680714854012
-3.9785,-1.789175515318789,-0.2734226408440398
-3.978,-1.853196564464885,0.1822328105781598
-3.9775,-1.223656247861609,0.3305857482505039
-3.977,-0.5621054066852853,0.2246193641988295
-3.9765,-0.06060718837420119,0.08686306493165288
-3.976,0.2274875327832301,-0.01910331912002144
-3.9755,0.3661998059331045,-0.06148987274069118
-3.975,0.408880505363835,-0.04029659593035631
-3.9745,0.3982103305061524,0.01268659609548085
-3.974,0.3768699807907871,0.09745970333682032
-3.9735,0.3448594562177392,0.1928294489833272
-3.973,0.3341892813600565,0.2987958330350016
-3.9725,0.3235191065023739,0.3941655786815084
-3.972,0.1634664836371343,0.2458126410091644
-3.9715,-0.4447334832507763,-0.326405832869877
-3.971,-0.9355615267041777,-0.9198175835592532
-3.9705,-1.116954499284783,-1.258910012524611
-3.97,-0.7968492535543035,-1.163540266878104
-3.9695,-0.2099896363817582,-0.9410108603695881
-3.969,0.291508581929326,-0.6443049850249
-3.9685,0.5262524287983441,-0.1780528951975329
-3.968,0.5689331282290746,0.3517790250608387
-3.9675,0.5262524287983441,0.7332580076468663
-3.967,0.4622313796522482,0.9345941373450475
-3.9665,0.4195506802215176,0.9769806909657173
-3.966,0.5049120790829789,0.9134008605347127
-3.9655,0.5262524287983441,0.7862411996727035
-3.965,0.4729015545099309,0.5955017083796896
-3.9645,0.408880505363835,0.3941655786815084
-3.964,0.3448594562177392,0.2352160026039969
-3.9635,-0.1032878878049318,0.4789386859228479
-3.963,-0.8181896032696687,0.8604176685088755
-3.9625,-1.319687821580753,0.3517790250608387
-3.962,-1.629122892453549,-0.3793890248957141
-3.9615,-1.87453691418025,-0.2310360872233701
-3.961,-1.46907026958831,0.1080563417419877
-3.9605,-0.7968492535543035,0.1504428953626575
-3.96,-0.2313299860971235,0.07626642652648545
-3.9595,0.1314559590640864,-0.01910331912002144
-3.959,0.3341892813600565,-0.07208651114585861
-3.9585,0.3982103305061524,-0.08268314955102604
-3.958,0.408880505363835,-0.05089323433552374
-3.9575,0.3875401556484697,0.01268659609548085
-3.957,0.3661998059331045,0.08686306493165288
-3.9565,0.3448594562177392,0.1822328105781598
-3.956,0.3341892813600565,0.2776025562246667
-3.9555,0.2594980573562781,0.2564092794143318
-3.955,-0.274010685527854,-0.252229364033705
-3.9545,-0.9782422261349084,-0.8880276683437509
-3.954,-1.383708870726849,-1.34368311976595
-3.9535,-1.277007122150022,-1.375473034981453
-3.953,-0.6474668055467465,-1.0999604364471
-3.9525,0.00341386077189465,-0.7502713690765743
-3.952,0.3982103305061524,-0.252229364033705
-3.9515,0.5475927785137094,0.2881991946298341
-3.951,0.5475927785137094,0.7120647308365314
-3.9505,0.4942419042252961,0.9451907757502149
-3.95,0.4302208550792003,1.029963882991555
-3.9495,0.5582629533713921,1.114736990232894
-3.949,0.7503261008096795,1.114736990232894
-3.9485,0.707645401378949,0.849821030103708
-3.948,0.5796033030867573,0.5213252395435176
-3.9475,0.4622313796522482,0.2352160026039969
-3.947,0.2274875327832301,0.1610395337678249
-3.9465,-0.4554036581084589,0.6166949851900245
-3.946,-1.084943974711735,0.5425185163538525
-3.9455,-1.362368521011484,-0.1886495336027004
-3.945,-1.639793067311232,-0.4959520473525559
-3.9445,-1.586442193022819,-0.1038764263613609
-3.944,-1.010252750707956,0.08686306493165288
-3.9435,-0.423393133535411,0.1080563417419877
-3.943,0.01408403562957729,0.06566978812131802
-3.9425,0.2701682322139607,0.04447651131098315
-3.942,0.3768699807907871,0.04447651131098315
-3.9415,0.408880505363835,0.07626642652648545
-3.941,0.3982103305061524,0.13984625695749
-3.9405,0.3768699807907871,0.2140227257936621
-3.94,0.3555296310754218,0.2987958330350016
-3.9395,0.3448594562177392,0.383568940276341
-3.939,0.3128489316446912,0.4365521323021782
-3.9385,-0.03926683865883591,0.08686306493165288
-3.938,-0.7114878546928423,-0.5595318777835605
-3.9375,-1.138294849000148,-1.110557074852267
-3.937,-1.244996597576974,-1.333086481360783
-3.9365,-0.7968492535543035,-1.131750351662602
-3.936,-0.1459685872356623,-0.8668343915334161
-3.9355,0.3235191065023739,-0.4641621321370536
-3.935,0.5262524287983441,0.1080563417419877
-3.9345,0.5689331282290746,0.5425185163538525
-3.934,0.5155822539406614,0.8074344764830383
-3.9335,0.4515612047945656,0.92399749893988
-3.933,0.4835717293676135,0.8604176685088755
-3.9325,0.6436243522328531,0.6378882620003594
-3.932,0.6329541773751706,0.5001319627331828
-3.9315,0.5369226036560266,0.383568940276341
-3.931,0.4515612047945656,0.2776025562246667
-3.9305,0.3341892813600565,0.2034260873884947
-3.93,0.1741366584948169,0.5425185163538525
-3.9295,-0.09261771294724913,0.849821030103708
-3.929,-0.5621054066852853,0.2564092794143318
-3.9285,-1.042263275281004,-0.07208651114585861
-3.928,-1.26633694729234,0.2458126410091644
-3.9275,-0.9142211769888124,0.2670059178194992
-3.927,-0.4340633083930936,0.1186529801471552
-3.9265,-0.02859666380115328,-0.04029659593035631
-3.926,0.2274875327832301,-0.1462629799820306
-3.9255,0.3448594562177392,-0.1780528951975329
-3.925,0.3875401556484697,-0.1674562567923655
-3.9245,0.3875401556484697,-0.1038764263613609
-3.924,0.3661998059331045,-0.008506680714854012
-3.9235,0.3555296310754218,0.09745970333682032
-3.923,0.3341892813600565,0.2034260873884947
-3.9225,0.3341892813600565,0.309392471440169
-3.922,0.1741366584948169,0.1822328105781598
-3.9215,-0.4340633083930936,-0.3687923864905467
-3.921,-0.9675720512772257,-0.9410108603695881
-3.9205,-1.191645723288561,-1.280103289334946
-3.92,-0.9355615267041777,-1.184733543688439
-3.9195,-0.3273615598162672,-0.9410108603695881
-3.919,0.2168173579255475,-0.6231117082145651
-3.9185,0.4835717293676135,-0.1250697031716958
-3.918,0.5582629533713921,0.3941655786815084
-3.9175,0.5262524287983441,0.775644561267536
-3.917,0.4622313796522482,0.9769806909657173
-3.9165,0.4302208550792003,1.051157159801889
-3.916,0.6649647019482183,1.199510097474233
-3.9155,0.7609962756673623,1.093543713422559
-3.915,0.6756348768059011,0.7862411996727035
-3.9145,0.5475927785137094,0.4683420475176805
-3.914,0.4302208550792003,0.1928294489833272
-3.9135,0.142126133921769,0.2881991946298341
-3.913,-0.4980843575391895,0.701468092431364
-3.9125,-1.042263275281004,0.309392471440169
-3.912,-1.426389570157579,-0.326405832869877
-3.9115,-1.778505340461106,-0.06148987274069118
-3.911,-1.501080794161358,0.2987958330350016
-3.9105,-0.8608703027003992,0.2987958330350016
-3.91,-0.2846808603855366,0.1822328105781598
-3.9095,0.09944543449103843,0.05507314971615059
-3.909,0.3128489316446912,-0.008506680714854012
-3.9085,0.3982103305061524,-0.01910331912002144
-3.908,0.408880505363835,0.02328323450064829
-3.9075,0.3875401556484697,0.09745970333682032
-3.907,0.3661998059331045,0.1822328105781598
-3.9065,0.3448594562177392,0.2881991946298341
-3.906,0.3341892813600565,0.383568940276341
-3.9055,0.2808384070716433,0.383568940276341
-3.905,-0.1886492866663929,-0.07208651114585861
-3.9045,-0.8502001278427167,-0.7078848154559045
-3.904,-1.191645723288561,-1.184733543688439
-3.9035,-1.084943974711735,-1.258910012524611
-3.903,-0.5194247072545548,-1.078767159636765
-3.9025,0.07810508477567314,-0.8456411147230812
-3.902,0.4408910299368829,-0.4323722169215513
-3.9015,0.5582629533713921,0.09745970333682032
-3.901,0.5369226036560266,0.55311515475902
-3.9005,0.4835717293676135,0.8286277532933731
-3.9,0.4302208550792003,0.9345941373450475
-3.8995,0.5582629533713921,0.92399749893988
-3.899,0.7396559259519968,0.8710143069140429
-3.8985,0.6969752265212663,0.701468092431364
-3.898,0.5689331282290746,0.4789386859228479
-3.8975,0.4515612047945656,0.2776025562246667
-3.897,0.2701682322139607,0.2352160026039969
-3.8965,0.01408403562957729,0.701468092431364
-3.896,-0.4340633083930936,0.7544512844572011
-3.8955,-0.8715404775580819,0.01268659609548085
-3.895,-1.30901764672307,-0.5277419625680583
-3.8945,-1.394379045584531,-0.2946159176543747
-3.894,-0.9248913518464952,-0.1250697031716958
-3.8935,-0.4020527838200457,-0.06148987274069118
-3.893,0.00341386077189465,-0.04029659593035631
-3.8925,0.2488278824985954,-0.04029659593035631
-3.892,0.3661998059331045,-0.01910331912002144
-3.8915,0.3982103305061524,0.01268659609548085
-3.891,0.3875401556484697,0.06566978812131802
-3.8905,0.3661998059331045,0.1292496185523226
-3.89,0.3555296310754218,0.2034260873884947
-3.8895,0.3341892813600565,0.2881991946298341
-3.889,0.3235191065023739,0.3411823866556712
-3.8885,0.01408403562957729,0.03387987290581572
-3.888,-0.6794773301197943,-0.6125150698093976
-3.8875,-1.127624674142465,-1.174136905283272
-3.887,-1.234326422719292,-1.449649503817625
