Class_2_Relax_eyes_open/Class_2_Relax_eyes_open_SH_6.csv

#Digilent WaveForms Oscilloscope Acquisition
#Device Name: EExplorer
#Serial Number: SN:210151A2B84A
#Date Time: 2020-12-15 14:50:45.633
#Sample rate: 2000Hz
#Samples: 16384
#Trigger: Source: Channel 1 Type: Edge Condition: Rising Level: 0 V Hyst.: Auto HoldOff: 0 s
#Channel 1: Range: 1 V/div Offset: 0 V Attenuation: 1 X
#Channel 2: Range: 1 V/div Offset: 0 V Attenuation: 1 X
#Power Supplies: ON
#Fixed Supply: ON
#Voltage: 3.3 V Readback: 3.326 V
#Positive Supply: ON
#Voltage: 3.7 V Readback: 3.717 V
#Current: 40 mA Readback: 21 mA
#Negative Supply: ON
#Voltage: -3.7 V Readback: -3.357 V
#Current: -40 mA Readback: -6 mA
#Reference 1: ON
#Voltage: 0 V
#Reference 2: ON
#Voltage: 0 V

Time (s),Channel 1 (V),Channel 2 (V)
-4.096,0.4622313796522482,0.3517790250608387
-4.0955,0.5262524287982859,0.4577454091124167
-4.095,0.4622313796521705,0.3835689402762447
-4.0945,0.3768699807907871,0.2776025562246667
-4.094,0.3021787567870766,0.1928294489834043
-4.0935,0.3555296310759458,0.05507314971575544
-4.093,0.9317190733902845,-0.3793890248957141
-4.0925,1.710641838000409,-1.004590690800024
-4.092,1.550589215135111,-1.587405803084878
-4.0915,0.707645401378949,-1.672178910326141
-4.091,0.2381577076409128,-1.05757388282643
-4.0905,0.05676473506028845,-0.3687923864900552
-4.09,0.03542438534494258,0.1716361721729923
-4.0895,0.07810508477567314,0.5001319627331828
-4.089,0.1314559590640378,0.6590815388105496
-4.0885,0.1848068333524996,0.701468092431364
-4.088,0.2061471830678648,0.6908714540261965
-4.0875,0.2168173579255378,0.6484849004055654
-4.087,0.2168173579255475,0.5955017083796414
-4.0865,0.2168173579255475,0.5425185163538525
-4.086,0.2274875327832204,0.510728601138379
-4.0855,0.2381577076407866,0.5001319627330093
-4.085,0.09944543449103843,0.309392471440169
-4.0845,-0.5514352318270108,-0.4111789401105612
-4.084,-1.298347471865679,-1.174136905283378
-4.0835,-1.618452717595867,-1.290699927740113
-4.083,-1.202315898146244,-0.7502713690765743
-4.0825,-0.6047861061155694,-0.2840192792489664
-4.082,-0.1139580626626144,-0.01910331912002144
-4.0815,0.1634664836371343,0.08686306493165288
-4.081,0.2808384070715366,0.08686306493165288
-4.0805,0.3128489316446912,0.04447651131098315
-4.08,0.291508581929326,0.002089957690313421
-4.0795,0.3768699807907094,0.1080563417418914
-4.079,0.4622313796522191,0.2564092794143318
-4.0785,0.4302208550792003,0.2564092794143318
-4.078,0.3555296310754897,0.2246193641988584
-4.0775,0.2915085819291998,0.1928294489832019
-4.077,0.1527963087794516,0.05507314971615059
-4.0765,-0.3380317346735034,-0.5277419625675283
-4.076,-0.8502001278429593,-1.163540266878548
-4.0755,-1.116954499284783,-1.650985633515806
-4.075,-1.26633694729234,-1.84172512480882
-4.0745,-0.9995825758498563,-1.258910012523927
-4.074,-0.5407650569699201,-0.5065486857577234
-4.0735,-0.156638762093345,0.09745970333682032
-4.073,0.09944543449080553,0.4789386859225009
-4.0725,0.2274875327832301,0.6696781772158616
-4.072,0.2701682322139607,0.7332580076468663
-4.0715,0.2701682322139607,0.7226613692417085
-4.071,0.2594980573562586,0.6696781772158038
-4.0705,0.2381577076409128,0.6060983467848571
-4.07,0.2274875327832398,0.5425185163539104
-4.0695,0.2381577076409322,0.5001319627331732
-4.069,0.2594980573562781,0.4895353243280153
-4.0685,0.3555296310754218,0.55311515475902
-4.068,0.8143471499556297,0.8710143069136285
-4.0675,0.6542945270905358,0.4153588554918433
-4.067,-0.1779791118087102,-0.4535654937318862
-4.0665,-0.6261264558312745,-0.8138511995073572
-4.066,-0.5087545323968721,-0.570128516188728
-4.0655,-0.2206598112394408,-0.2734226408440398
-4.065,0.03542438534470965,-0.08268314955119951
-4.0645,0.1954770082101822,0.01268659609548085
-4.064,0.2594980573562781,0.05507314971615059
-4.0635,0.2808384070716239,0.07626642652646617
-4.063,0.3128489316448465,0.1610395337680562
-4.0625,0.4835717293676135,0.4153588554918433
-4.062,0.4942419042252864,0.4471487707073167
-4.0615,0.41955068022144,0.3835689402762736
-4.061,0.3341892813600565,0.309392471440169
-4.0605,0.2808384070716433,0.2670059178194992
-4.06,0.4942419042254223,0.457745409112513
-4.0595,0.6329541773751706,0.457745409112513
-4.059,-0.06060718837420119,-0.2628260024388724
-4.0585,-0.8715404775573444,-1.046977244420549
-4.058,-1.116954499284783,-1.184733543688439
-4.0575,-0.8181896032696687,-0.7290780922662394
-4.057,-0.4127229586780971,-0.1886495336031918
-4.0565,-0.08194753808956648,0.2458126410091644
-4.056,0.1314559590640864,0.5213252395435176
-4.0555,0.2274875327831428,0.6696781772157268
-4.055,0.2594980573562781,0.7120647308365314
-4.0545,0.2594980573562781,0.7120647308365314
-4.054,0.2488278824986051,0.6908714540262159
-4.0535,0.2274875327832301,0.648484900405498
-4.053,0.2274875327832301,0.6166949851900245
-4.0525,0.2381577076409128,0.6166949851900245
-4.052,0.3021787567874356,0.7014680924316724
-4.0515,0.7716664505250448,1.040560521396722
-4.051,0.8997085488172365,0.9028042221295453
-4.0505,0.3982103305066085,0.1080563417427106
-4.05,0.1527963087794516,-0.1144730647665284
-4.0495,0.1527963087794516,-0.04029659593035631
-4.049,0.1634664836371246,-0.008506680714882926
-4.0485,0.174136658494846,0.03387987290577717
-4.048,0.2061471830678648,-0.008506680714854012
-4.0475,0.2168173579255378,-0.05089323433548519
-4.047,0.2274875327832398,-0.06148987274066226
-4.0465,0.2381577076409128,-0.02969995752518888
-4.046,0.2701682322139316,0.1080563417418625
-4.0455,0.270168232213951,0.2140227257937199
-4.045,0.2594980573562781,0.2776025562246667
-4.0445,0.2381577076409128,0.3305857482505039
-4.044,0.2274875327834048,0.3941655786813542
-4.0435,0.4195506802215176,0.2246193641988295
-4.043,0.7716664505250448,-0.3899856633008816
-4.0425,0.1848068333530334,-1.015187329205191
-4.042,-0.7434983792658902,-1.42845622700729
-4.0415,-1.180975548430879,-1.301296566145281
-4.041,-0.9675720512774197,-0.6443049850254975
-4.0405,-0.5514352318272632,0.03387987290624941
-4.04,-0.1779791118087102,0.5107286011383502
-4.0395,0.0781050847754402,0.7650479228621372
-4.039,0.2061471830679037,0.8392243916985117
-4.0385,0.2488278824985954,0.8074344764830383
-4.038,0.2594980573562684,0.7120647308366181
-4.0375,0.238157707640903,0.5955017083795739
-4.037,0.2274875327832301,0.4683420475176805
-4.0365,0.2168173579255475,0.3517790250608387
-4.036,0.2168173579255572,0.2564092794142739
-4.0355,0.2274875327832301,0.1928294489833272
-4.035,0.05676473506030786,-0.1674562567923655
-4.0345,-0.2633405106698802,-0.813851199506991
-4.034,-0.8502001278427167,-1.460246142222792
-4.0335,-0.9889124009925911,-1.42845622700729
-4.033,-0.5834457564010194,-0.8032545611029801
-4.0325,-0.1779791118084482,-0.3581957480851287
-4.032,0.1101156093487211,-0.08268314955102604
-4.0315,0.2701682322138151,0.01268659609539412
-4.031,0.3128489316446815,-0.008506680714882925
-4.0305,0.3021787567870086,-0.04029659593035631
-4.03,0.2701682322139898,-0.0720865111458297
-4.0295,0.3661998059331918,-0.199246172007916
-4.029,0.4622313796522482,-0.252229364033705
-4.0285,0.4195506802215176,-0.1462629799820306
-4.028,0.3555296310753538,0.03387987290595065
-4.0275,0.2808384070716433,0.1822328105781598
-4.027,0.2488278824985954,0.2246193641988295
-4.0265,0.5049120790827459,-0.2204394488177979
-4.026,0.1527963087794516,-0.8668343915334161
-4.0255,-0.6047861061160158,-1.301296566145281
-4.025,-1.106284324426644,-1.301296566145281
-4.0245,-1.042263275280655,-0.8986243067483979
-4.024,-0.658136980404429,-0.326405832869877
-4.0235,-0.2633405106705304,0.1504428953622238
-4.023,0.01408403562972286,0.4471487707074709
-4.0225,0.1741366584948169,0.5849050699745222
-4.022,0.2381577076408545,0.6060983467848378
-4.0215,0.2594980573562684,0.5849050699744643
-4.021,0.2488278824985954,0.5213252395435176
-4.0205,0.2274875327832301,0.457745409112513
-4.02,0.2168173579255475,0.3941655786814602
-4.0195,0.2168173579255475,0.3411823866556712
-4.019,0.2168173579255475,0.2987958330350016
-4.0185,0.05676473506045343,0.08686306493184565
-4.018,0.1848068333524996,-0.01910331912002144
-4.0175,0.3448594562177392,-0.1886495336027004
-4.017,0.04609456020289693,-0.5065486857574343
-4.0165,-0.09261771294721031,-0.2840192792490049
-4.016,-0.04993701351651855,-0.06148987274069118
-4.0155,0.06743490991788376,0.04447651131088677
-4.015,0.1634664836371828,0.06566978812129874
-4.0145,0.2168173579255475,0.04447651131098315
-4.014,0.2381577076408934,0.002089957690351973
-4.0135,0.2381577076409419,0.002089957690390522
-4.013,0.2701682322139607,0.08686306493165288
-4.0125,0.3341892813600565,0.2776025562246667
-4.012,0.3235191065023448,0.3411823866556809
-4.0115,0.291508581929326,0.3517790250608387
-4.011,0.2488278824985954,0.3623756634660061
-4.0105,0.1848068333525578,0.3305857482505328
-4.01,-0.3060212101009019,-0.1250697031716958
-4.0095,-0.8928808272734472,-0.7396747306714069
-4.009,-1.415719395299421,-1.237716735713823
-4.0085,-1.597112367880249,-1.43905286541213
-4.008,-1.319687821580753,-1.078767159636765
-4.0075,-0.7755089038394332,-0.4005823017066659
-4.007,-0.2953510352429282,0.1928294489836838
-4.0065,0.02475421048725994,0.5849050699745222
-4.006,0.1954770082101822,0.7544512844572011
-4.0055,0.2594980573562878,0.7862411996726553
-4.005,0.2701682322139607,0.7332580076468663
-4.0045,0.2488278824985954,0.6378882620003594
-4.004,0.2274875327832204,0.5213252395434116
-4.0035,0.2168173579255475,0.4047622170866759
-4.003,0.2061471830678648,0.2987958330350016
-4.0025,0.2168173579255378,0.2034260873885814
-4.002,0.2381577076409128,0.1186529801471552
-4.0015,0.4302208550792003,-0.1250697031716958
-4.001,0.1207857842066851,-0.7502713690760057
-4.0005,-0.5834457564007961,-1.280103289334695
-4,-0.7434983792658902,-1.004590690800593
-3.9995,-0.4980843575391895,-0.4535654937318862
-3.999,-0.1886492866663929,-0.1038764263613609
-3.9985,0.0674349099179905,0.02328323450064829
-3.998,0.2274875327832301,0.002089957690313421
-3.9975,0.2808384070716433,-0.07208651114585861
-3.997,0.2808384070716433,-0.1250697031716958
-3.9965,0.2701682322139607,-0.1038764263613609
-3.996,0.3341892813600565,0.1292496185523226
-3.9955,0.3235191065023739,0.2352160026039969
-3.995,0.291508581929326,0.2458126410091644
-3.9945,0.2488278824985954,0.2352160026039969
-3.994,0.2274875327832301,0.2564092794143318
-3.9935,0.408880505363835,0.05507314971615059
-3.993,0.8783681991018712,-0.570128516188728
-3.9925,0.7716664505250448,-1.174136905283272
-3.992,0.1527963087794516,-1.523825972653797
-3.9915,-0.423393133535411,-1.375473034981453
-3.991,-0.4767440078238243,-0.6972881770507372
-3.9905,-0.3060212101009019,-0.008506680714854012
-3.99,-0.09261771294724913,0.4895353243280153
-3.9895,0.07810508477567314,0.775644561267536
-3.989,0.1634664836371343,0.8816109453192104
-3.9885,0.2168173579255475,0.8710143069140429
-3.988,0.2274875327832301,0.7968378380778709
-3.9875,0.2168173579255475,0.701468092431364
-3.987,0.2061471830678648,0.5955017083796896
-3.9865,0.2061471830678648,0.5001319627331828
-3.986,0.2274875327832301,0.4259554938970107
-3.9855,0.2381577076409128,0.3623756634660061
-3.985,0.2701682322139607,0.1292496185523226
-3.9845,0.08877525963335578,-0.4535654937318862
-3.984,-0.4554036581084589,-1.142346990067769
-3.9835,-1.084943974711735,-1.598002441489969
-3.983,-1.06360362499637,-1.205926820498774
-3.9825,-0.6047861061160158,-0.6443049850249
-3.982,-0.1673089369510276,-0.2310360872233701
-3.9815,0.1207857842064037,-0.07208651114585861
-3.981,0.2488278824985954,-0.04029659593035631
-3.9805,0.291508581929326,-0.06148987274069118
-3.98,0.2808384070716433,-0.08268314955102604
-3.9795,0.3235191065023739,0.05507314971615059
-3.979,0.3768699807907871,0.1928294489833272
-3.9785,0.3448594562177392,0.1716361721729923
-3.978,0.291508581929326,0.1186529801471552
-3.9775,0.2488278824985954,0.08686306493165288
-3.977,0.1101156093487211,-0.07208651114585861
-3.9765,-0.4660738329661415,-0.6654982618352349
-3.976,-1.138294849000148,-1.322489842955616
-3.9755,-1.543761493592088,-1.820531847998485
-3.975,-1.650463242168915,-1.873515040024322
-3.9745,-1.202315898146244,-1.152943628472937
-3.974,-0.6367966306890638,-0.3687923864905467
-3.9735,-0.1886492866663929,0.2458126410091644
-3.973,0.08877525963335578,0.627291623595192
-3.9725,0.2274875327832301,0.8074344764830383
-3.972,0.2701682322139607,0.8604176685088755
-3.9715,0.2701682322139607,0.8286277532933731
-3.971,0.2488278824985954,0.7650479228623686
-3.9705,0.2274875327832301,0.6908714540261965
-3.97,0.2061471830678648,0.6060983467848571
-3.9695,0.2168173579255475,0.5425185163538525
-3.969,0.2274875327832301,0.5001319627331828
-3.9685,0.2701682322139607,0.5107286011383502
-3.968,0.6542945270905358,0.5849050699745222
-3.9675,0.5902734779444399,-0.06148987274069118
-3.967,0.1848068333524996,-0.6549016234300674
-3.9665,0.1101156093487211,-0.4641621321370536
-3.966,0.1314559590640864,-0.1886495336027004
-3.9655,0.2061471830678648,-0.06148987274069118
-3.965,0.2594980573562781,-0.02969995752518888
-3.9645,0.2701682322139607,-0.08268314955102604
-3.964,0.2594980573562781,-0.1356663415768632
-3.9635,0.2274875327832301,-0.1568596183871981
-3.963,0.2594980573562781,-0.09327978795619347
-3.9625,0.3341892813600565,0.06566978812131802
-3.962,0.3341892813600565,0.1292496185523226
-3.9615,0.3021787567870086,0.1504428953626575
-3.961,0.2594980573562781,0.1822328105781598
-3.9605,0.2488278824985954,0.2246193641988295
-3.96,0.5262524287983441,-0.08268314955102604
-3.9595,0.6756348768059011,-0.7290780922662394
-3.959,0.2381577076409128,-1.195330182093607
-3.9585,-0.4554036581084589,-1.439052865412457
-3.958,-0.690147504977477,-1.068170521231597
-3.9575,-0.5194247072545548,-0.3899856633008816
-3.957,-0.2526703358124887,0.2034260873884947
-3.9565,-0.01792648894347063,0.6060983467848571
-3.956,0.1207857842064037,0.8074344764830383
-3.9555,0.1954770082101822,0.8710143069140429
-3.955,0.2168173579255475,0.8392243916985406
-3.9545,0.2274875327832301,0.775644561267536
-3.954,0.2061471830678648,0.6802748156210291
-3.9535,0.2061471830678648,0.5849050699745222
-3.953,0.1954770082101822,0.4895353243280153
-3.9525,0.1954770082101822,0.4047622170866759
-3.952,0.2488278824985954,0.383568940276341
-3.9515,0.7289857510943143,0.7438546460520338
-3.951,0.7183155762366316,0.6484849004055269
-3.9505,0.3128489316446912,0.02328323450064829
-3.95,0.09944543449103843,-0.2628260024388724
-3.9495,0.0674349099179905,-0.2310360872233701
-3.949,0.09944543449103843,-0.1462629799820306
-3.9485,0.1527963087794516,-0.08268314955102604
-3.948,0.1741366584948169,-0.09327978795619347
-3.9475,0.1848068333524996,-0.09327978795619347
-3.947,0.1848068333524996,-0.09327978795619347
-3.9465,0.2061471830678648,-0.04029659593035631
-3.946,0.3768699807907871,0.1822328105781598
-3.9455,0.4195506802215176,0.2776025562246667
-3.945,0.3661998059331045,0.2881991946298341
-3.9445,0.291508581929326,0.309392471440169
-3.944,0.2381577076409128,0.3305857482505039
-3.9435,-0.06060718837420119,0.05507314971615059
-3.943,-0.8181896032696687,-0.5913217929990628
-3.9425,-1.426389570157579,-1.152943628472937
-3.942,-1.821186039891837,-1.481439419033127
-3.9415,-1.746494815888059,-1.322489842955616
-3.941,-1.148965023857831,-0.6443049850249
-3.9405,-0.5514352318276028,0.04447651131098315
-3.94,-0.1139580626626144,0.5425185163538525
-3.9395,0.1314559590640864,0.7968378380778709
-3.939,0.2381577076409128,0.8816109453192104
-3.9385,0.2701682322139607,0.8604176685088755
-3.938,0.2488278824985954,0.7650479228623686
-3.9375,0.2274875327832301,0.6484849004055269
-3.937,0.2061471830678648,0.5213252395435176
-3.9365,0.1954770082101822,0.4047622170866759
-3.936,0.2061471830678648,0.309392471440169
-3.9355,0.1848068333524996,0.2034260873884947
-3.935,-0.2420001609548061,-0.2734226408440398
-3.9345,-0.9782422261349084,-0.9833974139902578
-3.934,-1.383708870726849,-1.523825972653797
-3.9335,-1.191645723288561,-1.354279758171118
-3.933,-0.6154562809736985,-0.7608680074817418
-3.9325,-0.1352984123779797,-0.3475991096802118
-3.932,0.142126133921769,-0.1250697031716958
-3.9315,0.2808384070716433,-0.06148987274069118
-3.931,0.3235191065023739,-0.06148987274069118
-3.9305,0.3021787567870086,-0.1144730647665284
-3.93,0.2594980573562781,-0.1568596183871981
-3.9295,0.3448594562177392,-0.08268314955102604
-3.929,0.408880505363835,0.01268659609548085
-3.9285,0.3661998059331045,0.04447651131098315
-3.928,0.3128489316446912,0.07626642652648545
-3.9275,0.2594980573562781,0.1080563417419877
-3.927,0.142126133921769,0.05507314971615059
-3.9265,-0.3593720843893152,-0.4641621321370536
-3.926,-0.839529952985034,-1.110557074852267
-3.9255,-1.180975548430879,-1.598002441489969
-3.925,-1.277007122150022,-1.566212526274467
-3.9245,-0.9142211769888124,-0.8986243067489184
-3.924,-0.4554036581084589,-0.1780528951975329
-3.9235,-0.09261771294724913,0.3623756634660061
-3.923,0.1207857842064037,0.6802748156210291
-3.9225,0.2168173579255475,0.8180311148882058
-3.922,0.2488278824985954,0.849821030103708
-3.9215,0.2488278824985954,0.8074344764830383
-3.921,0.2274875327832301,0.7332580076468663
-3.9205,0.2061471830678648,0.6590815388106942
-3.92,0.2061471830678648,0.5743084315693548
-3.9195,0.1954770082101822,0.4895353243280153
-3.919,0.2061471830678648,0.4153588554918433
-3.9185,0.01408403562957729,0.1928294489833272
-3.918,-0.572775581542968,-0.474758770542221
-3.9175,-1.06360362499637,-1.152943628472937
-3.917,-1.223656247861609,-1.333086481360783
-3.9165,-0.7755089038389382,-0.7820612842920766
-3.916,-0.2846808603855366,-0.3687923864905467
-3.9155,0.07810508477567314,-0.1674562567923655
-3.915,0.2381577076409128,-0.1250697031716958
-3.9145,0.291508581929326,-0.1462629799820306
-3.914,0.291508581929326,-0.1992461720078678
-3.9135,0.2701682322139607,-0.2204394488182027
-3.913,0.2701682322139607,-0.1992461720078678
-3.9125,0.2594980573562781,-0.1144730647665284
-3.912,0.2381577076409128,-0.06148987274069118
-3.9115,0.2168173579255475,0.002089957690313421
-3.911,0.2061471830678648,0.07626642652648545
-3.9105,0.1954770082101822,0.1186529801471552
-3.91,0.3875401556484697,-0.2416327256285375
-3.9095,0.1954770082101822,-0.8880276683437509
-3.909,-0.5834457564006506,-1.42845622700729
-3.9085,-1.234326422719292,-1.629792356705471
-3.908,-1.180975548430879,-1.110557074852267
-3.9075,-0.7648387289812555,-0.3581957480853793
-3.907,-0.3273615598162672,0.2776025562246667
-3.9065,-0.01792648894347063,0.6802748156210291
-3.906,0.1634664836371343,0.8710143069140429
-3.9055,0.2381577076409128,0.92399749893988
-3.905,0.2488278824985954,0.8922075837243778
-3.9045,0.2381577076409128,0.8286277532933731
-3.904,0.2274875327832301,0.7226613692416989
-3.9035,0.2061471830678648,0.627291623595192
-3.903,0.2061471830678648,0.5319218779486851
-3.9025,0.2168173579255475,0.4683420475176805
-3.902,0.2701682322139607,0.4259554938970107
-3.9015,0.79300680024041,0.6166949851900245
-3.901,1.454557641416734,0.2564092794143318
-3.9005,1.881364635724039,-0.5171453241628908
-3.9,1.699971663143435,-0.6972881770507372
-3.8995,1.251824319120764,-0.4217755785163839
-3.899,0.79300680024041,-0.1462629799820306
-3.8985,0.4835717293676135,0.02328323450064829
-3.898,0.3021787567870086,0.03387987290581572
-3.8975,0.1954770082101822,-0.01910331912002144
-3.897,0.1634664836371343,-0.08268314955102604
-3.8965,0.1741366584948169,-0.1250697031716958
-3.896,0.291508581929326,-0.2098428104130352
-3.8955,0.3235191065023739,-0.1886495336027004
-3.895,0.291508581929326,-0.1038764263613609
-3.8945,0.2488278824985954,0.002089957690313421
-3.894,0.2061471830678648,0.07626642652648545
-3.8935,-0.1139580626626144,-0.1780528951975329
-3.893,-0.7968492535543035,-0.8138511995075789
-3.8925,-1.437059745015262,-1.396666311791788
-3.892,-2.023919362187807,-1.778145294377815
-3.8915,-1.938557963326346,-1.534422611058964
-3.891,-1.234326422719292,-0.7714646458869092
-3.8905,-0.5834457564006506,-0.06148987274069118
-3.89,-0.124628237520297,0.4471487707073456
-3.8895,0.142126133921769,0.7226613692416989
-3.889,0.2488278824985954,0.8286277532933731
-3.8885,0.2701682322139607,0.8180311148882058
-3.888,0.2594980573562781,0.7544512844572011
-3.8875,0.2274875327832301,0.6590815388106942
