Class_2_Relax_eyes_open/Class_2_Relax_eyes_open_AM_3.csv

#Digilent WaveForms Oscilloscope Acquisition
#Device Name: EExplorer
#Serial Number: SN:210151A2B84A
#Date Time: 2020-11-08 09:35:56.063
#Sample rate: 2000Hz
#Samples: 16384
#Trigger: Source: Channel 1 Type: Edge Condition: Rising Level: 0 V Hyst.: Auto HoldOff: 0 s
#Channel 1: Range: 1 V/div Offset: 0 V Attenuation: 1 X
#Channel 2: Range: 1 V/div Offset: 0 V Attenuation: 1 X
#Power Supplies: ON
#Fixed Supply: ON
#Voltage: 3.3 V Readback: 3.331 V
#Positive Supply: ON
#Voltage: 3.7 V Readback: 3.717 V
#Current: 40 mA Readback: 18 mA
#Negative Supply: ON
#Voltage: -3.7 V Readback: -3.348 V
#Current: -40 mA Readback: -6 mA
#Reference 1: ON
#Voltage: 0 V
#Reference 2: ON
#Voltage: 0 V

Time (s),Channel 1 (V),Channel 2 (V)
-4.096,-1.362368521011484,1.856501678594614
-4.0955,-1.917217613610476,0.8180311148891504
-4.095,-2.397375482206884,-0.4111789401120742
-4.0945,-2.60010880450267,-1.354279758171118
-4.094,-2.568098279929651,-1.915901593644481
-4.0935,-2.386705307348153,-1.915901593644154
-4.093,-1.437059745015262,-0.9939940523954253
-4.0925,-0.5087545323977164,0.02328323449972303
-4.092,0.1421261339220892,0.807434476483472
-4.0915,0.4942419042252961,1.284283204715573
-4.091,0.6436243522328531,1.485619334413754
-4.0905,0.6542945270905164,1.496215972818825
-4.09,0.6329541773751706,1.390249588767247
-4.0895,0.5582629533713921,1.135930267043229
-4.089,0.04609456020309111,0.4789386859234455
-4.0885,-0.722158029550525,-0.3158091944647096
-4.088,-1.522421143876723,-1.036380606016095
-4.0875,-2.205312334767791,-2.064254531316401
-4.087,-0.9462317015604726,-2.498716705929422
-4.0865,0.5796033030867573,-2.742439389248052
-4.086,1.433217291700592,-2.678859558817105
-4.0855,1.75332253743177,-1.915901593644125
-4.085,1.667961138570387,-0.9622041371799229
-4.0845,1.358526067697872,-0.2522293640343507
-4.084,1.091771696255427,0.2458126410093957
-4.0835,0.9850699476786977,0.5001319627331828
-4.083,1.006410297394063,0.4895353243280153
-4.0825,0.8997085488171104,0.3941655786814217
-4.082,0.7609962756673623,0.2987958330350016
-4.0815,0.6649647019482183,0.2458126410091644
-4.081,0.5369226036561431,0.3835689402762157
-4.0805,0.3021787567870086,1.061753798207057
-4.08,0.0674349099179905,1.867098316999781
-4.0795,-0.7434983792651527,2.460510067688618
-4.079,-1.522421143877247,2.14261091553293
-4.0785,-2.098610586191586,0.8180311148882058
-4.078,-2.536087755356176,-0.5065486857565187
-4.0775,-2.589438629644939,-1.417859588602566
-4.077,-2.536087755356574,-1.905304955239825
-4.0765,-2.19464215991104,-1.640388995110879
-4.076,-1.159635198714727,-0.6549016234291808
-4.0755,-0.2953510352432193,0.3199891098453364
-4.075,0.2701682322139607,1.019367244586387
-4.0745,0.5582629533714795,1.411442865577688
-4.074,0.6542945270905358,1.528005888034424
-4.0735,0.6542945270905358,1.475022696008586
-4.073,0.611613827659844,1.284283204715746
-4.0725,0.408880505363835,0.7438546460520338
-4.072,0.7503261008096795,0.04447651131098315
-4.0715,1.134452395685905,-0.6231117082139579
-4.071,0.1207857842063649,-1.619195718300872
-4.0705,0.07810508477567314,-2.244397384205182
-4.07,0.9210488985318351,-2.5411032595496
-4.0695,1.411876941986139,-2.530506621144086
-4.069,1.56125938999356,-1.852321763213987
-4.0685,1.497238340847464,-0.9516074987747555
-4.068,1.25182431912056,-0.2840192792488314
-4.0675,1.027750647109428,0.1292496185523226
-4.067,0.8890383739595538,0.3305857482505039
-4.0665,0.9530594231056012,0.55311515475902
-4.066,0.8997085488172365,0.55311515475902
-4.0655,0.7823366253827275,0.457745409112513
-4.065,0.6863050516636712,0.3517790250609351
-4.0645,0.6116138276598051,0.3305857482505039
-4.064,0.5582629533713921,0.6590815388106942
-4.0635,0.9637295979629636,1.432636142387214
-4.063,0.6329541773742486,2.142610915534183
-4.0625,-0.3807124341046804,2.195594107559972
-4.062,-1.373038695868264,1.135930267044192
-4.0615,-2.173301810195704,-0.1886495336035774
-4.061,-2.546757930214257,-1.152943628472937
-4.0605,-2.514747405641209,-1.703968825541643
-4.06,-2.386705307348221,-1.703968825540872
-4.0595,-1.51175096901904,-0.8562377531282487
-4.059,-0.5621054066852853,0.1504428953626575
-4.0585,0.09944543449043686,0.9345941373443343
-4.058,0.4729015545099309,1.411442865577582
-4.0575,0.6222840025174878,1.612778995275763
-4.057,0.6542945270905067,1.623375633680921
-4.0565,0.6329541773751706,1.453829419198252
-4.056,0.4302208550792003,1.040560521396722
-4.0555,0.02475421048762871,0.1822328105789404
-4.055,-0.4447334832511838,-1.174136905283898
-4.0545,-0.8928808272734472,-1.862918401619155
-4.054,-0.7861790786967178,-2.159624276963573
-4.0535,0.4408910299379116,-2.382153683472417
-4.053,1.571929564851243,-2.445733513903364
-4.0525,1.998736559158548,-2.117237723343173
-4.052,1.860024286008383,-1.428456227006673
-4.0515,1.539919040278195,-0.7502713690765743
-4.051,1.19847344483235,-0.2416327256285375
-4.0505,0.9530594231058729,0.002089957690091765
-4.05,0.9530594231056497,0.002089957690313421
-4.0495,0.9637295979633325,-0.01910331912002144
-4.049,0.857027849386603,0.07626642652639871
-4.0485,0.7289857510942269,0.1928294489834139
-4.048,0.6329541773751706,0.2881991946298341
-4.0475,0.536922603656114,0.5743084315690946
-4.047,0.8143471499559112,1.305476481526592
-4.0465,0.9637295979633325,2.057837808292796
-4.046,0.1207857842071703,2.502896621309423
-4.0455,-0.9142211769895694,1.835308401783017
-4.045,-1.746494815888059,0.4471487707073456
-4.0445,-2.408045657064382,-0.7502713690765743
-4.044,-2.482736881068103,-1.513229334248957
-4.0435,-2.418715831922065,-1.873515040024322
-4.043,-2.013249187330125,-1.396666311791788
-4.0425,-0.9889124009935228,-0.3899856633017971
-4.042,-0.1993194615240755,0.5107286011383502
-4.0415,0.3021787567870086,1.114736990232894
-4.041,0.5582629533711592,1.42203950398247
-4.0405,0.6329541773751706,1.485619334413677
-4.04,0.6329541773751706,1.400846227172415
-4.0395,0.5049120790830953,1.093543713422839
-4.039,-0.6154562809746205,-0.1780528951984389
-4.0385,-1.629122892453549,-1.174136905283272
-4.038,-2.42938600677902,-1.894708316834002
-4.0375,-2.50407723078211,-2.233800745800082
-4.037,-0.9462317015618604,-2.307977214636187
-4.0365,0.6756348768059011,-2.435136875498196
-4.036,1.518578690562995,-2.424540237092508
-4.0355,1.699971663143435,-1.852321763213987
-4.035,1.550589215135878,-1.110557074852267
-4.0345,1.283834843694054,-0.5065486857582727
-4.034,1.027750647109428,-0.05089323433552374
-4.0335,0.9530594231056497,0.3517790250608387
-4.033,1.038420821967033,0.7226613692413615
-4.0325,0.9530594231055138,0.7332580076467506
-4.032,0.8036769750980928,0.6060983467848571
-4.0315,0.6649647019483444,0.4895353243281214
-4.031,0.5582629533714989,0.5213252395440091
-4.0305,0.6756348768059011,1.061753798207057
-4.03,1.059761171682127,1.824711763378418
-4.0295,0.3875401556474896,2.089627723507613
-4.029,-0.690147504977477,1.33726639674141
-4.0285,-1.618452717595867,0.1080563417419877
-4.028,-2.365364957633778,-0.9410108603701857
-4.0275,-2.504077230783526,-1.598002441489969
-4.027,-2.461396531352796,-1.873515040024322
-4.0265,-2.290673733630029,-1.587405803085062
-4.026,-1.362368521011484,-0.6019184314042303
-4.0255,-0.4554036581084589,0.3729723018711736
-4.025,0.1527963087788985,1.082947075016746
-4.0245,0.4942419042254223,1.48561933441387
-4.024,0.6329541773751706,1.612778995275763
-4.0235,0.6436243522328434,1.559795803249974
-4.023,0.6116138276593781,1.358459673551119
-4.0225,0.142126133921769,0.6696781772158616
-4.022,-1.266336947291059,-0.792657922695914
-4.0215,-2.109280761049647,-1.64038899511113
-4.021,-2.525417580498891,-2.180817553774178
-4.0205,-1.501080794161358,-2.307977214636187
-4.02,0.3341892813611435,-2.371557045067182
-4.0195,1.529248865420512,-2.360960406662024
-4.019,1.860024286008674,-1.88411167842949
-4.0185,1.721312012858926,-1.142346990068444
-4.018,1.422547116843686,-0.4853554089473885
-4.0175,1.113112045970889,-0.1038764263613609
-4.017,0.9210488985327765,0.0974597033366372
-4.0165,0.9850699476786589,0.0232832345006772
-4.016,0.942389248247967,0.05507314971615059
-4.0155,0.8143471499558917,0.1610395337677286
-4.015,0.6969752265211789,0.2670059178196149
-4.0145,0.6009436528021226,0.3941655786815084
-4.014,0.3768699807909909,0.881610945318767
-4.0135,0.5369226036557063,1.676358825707375
-4.013,0.1848068333524996,2.343947045232316
-4.0125,-0.722158029550525,2.502896621309828
-4.012,-1.597112367881181,1.45382941919697
-4.0115,-2.344024607918286,0.04447651131098315
-4.011,-2.536087755356574,-1.046977244421262
-4.0105,-2.493407055925882,-1.703968825541046
-4.01,-2.23732285934146,-1.672178910326141
-4.0095,-1.234326422719292,-0.7608680074817418
-4.009,-0.3593720843901109,0.1928294489824598
-4.0085,0.2274875327835018,0.9134008605350982
-4.008,0.5262524287983441,1.33726639674141
-4.0075,0.6436243522327463,1.496215972818777
-4.007,0.6542945270905067,1.464426057603284
-4.0065,0.6222840025174878,1.316073119931075
-4.006,0.4942419042252961,0.9663840525605498
-4.0055,-0.2953510352444421,0.01268659609427616
-4.005,-1.639793067311232,-1.311893204550448
-4.0045,-2.344024607918286,-1.947691508860494
-4.004,-2.01324918732865,-2.19141419217948
-4.0035,-0.391382608962363,-2.339767129851689
-4.003,1.038420821967111,-2.307977214636187
-4.0025,1.657290963712141,-1.788741932783455
-4.002,1.678631313428069,-1.089363798041932
-4.0015,1.465227816274416,-0.4217755785163839
-4.001,1.209143619690266,0.05507314971571686
-4.0005,0.9850699476786783,0.3411823866556327
-4,0.9637295979633325,0.2987958330350016
-3.9995,0.9637295979633325,0.13984625695749
-3.999,0.857027849386506,0.1080563417419877
-3.9985,0.7289857510943143,0.13984625695749
-3.998,0.6329541773751706,0.2140227257936621
-3.9975,0.4942419042252961,0.5213252395435176
-3.997,0.5689331282290746,1.284283204715573
-3.9965,0.3661998059331045,2.047241169887628
-3.996,-0.5300948821122373,2.1214176387238
-3.9955,-1.394379045584531,1.284283204715573
-3.995,-2.141291285622316,0.03387987290581572
-3.9945,-2.514747405641209,-0.9939940523954253
-3.994,-2.482736881068161,-1.608599079895136
-3.9935,-2.418715831922065,-1.820531847998485
-3.993,-1.917217613610981,-1.227120097309109
-3.9925,-0.8928808272734472,-0.1992461720078678
-3.992,-0.1139580626626144,0.6908714540261965
-3.9915,0.3555296310754218,1.284283204715573
-3.991,0.5796033030867573,1.580989080060261
-3.9905,0.6542945270905358,1.623375633680931
-3.99,0.6436243522328531,1.517409249629256
-3.9895,0.5796033030867573,1.263089927905238
-3.989,0.1314559590640864,0.5107286011383502
-3.9885,-0.391382608962363,-0.9304142219644207
-3.988,-0.7968492535543035,-1.767548655972648
-3.9875,-1.223656247861609,-2.21260746898968
-3.987,-0.3166913849585846,-2.456330152308531
-3.9865,0.942389248247967,-2.54110325954987
-3.986,1.657290963712704,-2.371557045067191
-3.9855,1.753322537431848,-1.778145294377815
-3.985,1.571929564851243,-1.004590690800593
-3.9845,1.305175193409177,-0.4111789401112165
-3.984,1.059761171682476,-0.08268314955102604
-3.9835,0.942389248247967,0.05507314971615059
-3.983,0.9850699476786977,-0.01910331912002144
-3.9825,0.8997085488172365,-0.008506680714854012
-3.982,0.7716664505250448,0.05507314971615059
-3.9815,0.6649647019482183,0.13984625695749
-3.981,0.5796033030867573,0.2881991946298341
-3.9805,0.7396559259519968,0.8286277532933731
-3.98,1.251824319120764,1.655165548896433
-3.9795,0.7503261008096795,2.333350406827149
-3.979,-0.3807124341046804,2.269770576396144
-3.9785,-1.479740444445993,1.061753798207057
-3.978,-2.344024607918286,-0.2840192792492073
-3.9775,-2.568098279929622,-1.216523458903942
-3.977,-2.514747405641209,-1.693372187136476
-3.9765,-2.19464215991073,-1.417859588602123
-3.976,-1.148965023857831,-0.4535654937318862
-3.9755,-0.2846808603855366,0.5107286011383502
-3.975,0.2701682322139607,1.188913459069066
-3.9745,0.5475927785137094,1.570392441655093
-3.974,0.6542945270905358,1.697552102517103
-3.9735,0.6542945270905358,1.6657621873016
-3.973,0.6222840025174878,1.485619334413754
-3.9725,0.3341892813600565,0.9769806909657173
-3.972,-0.4127229586777283,0.1716361721729923
-3.9715,-1.533091318734406,-0.9410108603695881
-3.971,-2.354694782775969,-1.873515040024322
-3.9705,-1.383708870726849,-1.926498232050159
-3.97,0.2381577076409128,-2.159624276963843
-3.9695,1.337185717982225,-2.180817553774178
-3.969,1.785333062004896,-1.566212526274467
-3.9685,1.699971663143435,-0.8456411147230812
-3.968,1.390536592270638,-0.3052125560595421
-3.9675,1.091771696255524,0.03387987290581572
-3.967,0.8997085488172365,0.2034260873884947
-3.9665,0.9103787236749192,0.4471487707073456
-3.966,0.8676980242441885,0.4789386859228479
-3.9655,0.7716664505250448,0.3941655786815084
-3.965,0.6756348768059011,0.309392471440169
-3.9645,0.6116138276598051,0.2776025562246667
-3.964,0.5049120790829789,0.627291623595192
-3.9635,0.8890383739595538,1.432636142387917
-3.963,0.8356874996711408,2.16380419234447
-3.9625,-0.1032878878049318,2.216787384370307
-3.962,-1.170305373573196,1.178316820663898
-3.9615,-2.066600061618538,-0.1568596183871981
-3.961,-2.557428105071939,-1.121153713257435
-3.9605,-2.525417580498891,-1.650985633515806
-3.96,-2.461396531352796,-1.746355379162313
-3.9595,-1.917217613610981,-1.046977244421262
-3.959,-0.8715404775580819,-0.008506680714854012
-3.9585,-0.09261771294724913,0.8710143069140429
-3.958,0.3768699807907871,1.432636142387917
-3.9575,0.5902734779444399,1.6657621873016
-3.957,0.6542945270905358,1.676358825706768
-3.9565,0.6436243522328531,1.538602526439591
-3.956,0.5155822539406614,1.210106735879401
-3.9555,0.1741366584948169,0.457745409112513
-3.955,0.2274875327832301,-0.6337083466197325
-3.9545,-0.2099896363817582,-1.79933857118815
-3.954,-0.274010685527854,-2.180817553774178
-3.9535,0.6542945270905358,-2.509313344334368
-3.953,1.593269914566608,-2.647069643601545
-3.9525,1.998736559158548,-2.339767129851689
-3.952,1.881364635724039,-1.555615887869299
-3.9515,1.529248865420512,-0.7396747306714069
-3.951,1.19847344483235,-0.1462629799820306
-3.9505,0.9530594231056497,0.1504428953626575
-3.95,0.9210488985326017,0.04447651131098315
-3.9495,0.9530594231056497,-0.1250697031716958
-3.949,0.8463576745288233,-0.1250697031716958
-3.9485,0.7396559259519968,-0.05089323433552374
-3.948,0.6329541773751706,0.04447651131098315
-3.9475,0.4942419042252961,0.3199891098453364
-3.947,0.3555296310754218,1.114736990232894
-3.9465,-0.01792648894347063,1.951871424241121
-3.946,-0.8608703027003992,2.524089898120163
-3.9455,-1.618452717595867,2.068434446697963
-3.945,-2.162631635337682,1.135930267043229
-3.9445,-2.493407055925843,0.08686306493165288
-3.944,-2.514747405641209,-0.8244478379127463
-3.9435,-2.429386006779747,-1.322489842955616
-3.943,-1.67180359188428,-0.9516074987747555
-3.9425,-0.7008176798351597,-0.08268314955102604
-3.942,0.00341386077189465,0.7332580076468663
-3.9415,0.4195506802215176,1.29487984312074
-3.941,0.6009436528021226,1.580989080060261
-3.9405,0.6436243522328531,1.676358825706768
-3.94,0.6329541773751706,1.633972272086098
-3.9395,0.5902734779444399,1.443232780793084
-3.939,0.3768699807907871,0.849821030103708
-3.9385,0.5796033030867573,-0.09327978795619347
-3.938,0.4408910299368829,-1.38606967338662
-3.9375,0.1848068333524996,-1.88411167842949
-3.937,0.7396559259519968,-2.202010830584512
-3.9365,1.56125938999356,-2.456330152308531
-3.936,1.977396209443183,-2.276187299420684
-3.9355,1.913375160297087,-1.640388995110639
-3.935,1.571929564851243,-0.9092209451540858
-3.9345,1.230483969405398,-0.2840192792492073
-3.934,0.974399772821015,0.1610395337678249
-3.9335,0.8783681991018712,0.3305857482505039
-3.933,0.9637295979633325,0.1716361721729923
-3.9325,0.8997085488172365,0.09745970333682032
-3.932,0.7823366253827275,0.08686306493165288
-3.9315,0.6649647019482183,0.1186529801471552
-3.931,0.5582629533713921,0.2140227257936621
-3.9305,0.4408910299368829,0.775644561267536
-3.93,0.7716664505250448,1.623375633680931
-3.9295,0.3555296310754218,2.301560491611646
-3.929,-0.5621054066852853,2.312157130016814
-3.9285,-1.212986073003927,1.305476481525908
-3.928,-1.714484291315011,-0.01910331912002144
-3.9275,-2.280003558772191,-1.089363798041932
-3.927,-2.536087755356574,-1.75695201756748
-3.9265,-2.066600061618538,-1.576809164679634
-3.926,-1.06360362499637,-0.6337083466197325
-3.9255,-0.2526703358124887,0.3199891098453364
-3.925,0.2808384070716433,1.019367244586387
-3.9245,0.5369226036560266,1.42203950398275
-3.924,0.6222840025174878,1.570392441655093
-3.9235,0.6116138276598051,1.549199164844759
-3.923,0.5902734779444399,1.400846227172415
-3.9225,0.3875401556484697,0.9875773293708847
-3.922,0.2594980573562781,0.2246193641988295
-3.9215,0.8036769750980928,-0.4853554089473885
-3.921,0.6009436528021226,-1.195330182093607
-3.9205,0.2061471830678648,-2.043061254507001
-3.92,0.8356874996711408,-2.265590661015517
-3.9195,1.187803269974668,-2.202010830584512
-3.919,1.283834843693812,-1.608599079895136
-3.9185,1.305175193409177,-0.7290780922662394
-3.918,1.177133095116985,-0.05089323433552374
-3.9175,0.974399772821015,0.2987958330350016
-3.917,0.8463576745288233,0.4895353243280153
-3.9165,0.8676980242441885,0.7120647308365314
-3.916,0.8356874996711408,0.701468092431364
-3.9155,0.7289857510943143,0.5319218779486851
-3.915,0.6542945270905358,0.3729723018711736
-3.9145,0.5902734779444399,0.2776025562246667
-3.914,0.5582629533713921,0.5001319627331828
-3.9135,1.038420821967111,1.220703374284568
-3.913,1.081101521397841,1.994257977861791
-3.9125,0.1101156093487211,2.428720152473656
-3.912,-0.9462317015618604,1.6657621873016
-3.9115,-1.650463242168915,0.3941655786815084
-3.911,-2.280003558772191,-0.792657922697244
-3.9105,-2.621449154218035,-1.566212526274467
-3.91,-2.578768454787304,-1.915901593644992
-3.9095,-1.991908837614759,-1.375473034981453
-3.909,-0.9462317015618604,-0.3475991096802118
-3.9085,-0.156638762093345,0.5637117931641874
-3.908,0.3235191065023739,1.157123543853563
-3.9075,0.5582629533713921,1.443232780793084
-3.907,0.6222840025174878,1.496215972818921
-3.9065,0.6116138276598051,1.411442865577582
-3.906,0.4942419042252961,1.125333628638062
-3.9055,0.1954770082101822,0.4153588554918433
-3.905,0.6649647019482183,-0.3581957480853793
-3.9045,0.8356874996711408,-0.9728007755850904
-3.904,0.408880505363835,-1.502632695843462
-3.9035,0.408880505363835,-2.138431000153508
-3.903,0.9637295979633325,-2.350363768256857
-3.9025,1.19847344483235,-2.286783937825852
-3.902,1.262494493978446,-1.703968825541643
-3.9015,1.273164668836129,-0.9198175835592532
-3.901,1.102441871113207,-0.3687923864905467
-3.9005,0.9103787236749192,-0.01910331912002144
-3.9,0.8890383739595538,0.1186529801471552
-3.8995,0.9103787236749192,0.06566978812131802
-3.899,0.8036769750980928,0.1080563417419877
-3.8985,0.6969752265212663,0.1928294489833272
-3.898,0.6116138276598051,0.309392471440169
-3.8975,0.5155822539406614,0.5319218779486851
-3.897,0.7183155762366316,1.199510097474233
-3.8965,0.9317190733902845,1.962468062646288
-3.896,0.09944543449103843,2.280367214801311
-3.8955,-0.9782422261349084,1.591585718465428
-3.895,-1.895877263895616,0.2987958330350016
-3.8945,-2.546757930214257,-0.8244478379127463
-3.894,-2.589438629644987,-1.51322933424863
-3.8935,-2.525417580498891,-1.79933857118815
-3.893,-2.098610586191586,-1.280103289334946
-3.8925,-1.042263275281004,-0.2628260024388724
-3.892,-0.2206598112394408,0.6696781772158616
-3.8915,0.291508581929326,1.29487984312074
-3.891,0.5369226036560266,1.602182356870596
-3.8905,0.6116138276598051,1.655165548896433
-3.89,0.6116138276598051,1.570392441655093
-3.8895,0.5582629533713921,1.33726639674141
-3.889,0.1527963087794516,0.7226613692416989
-3.8885,-0.6474668055467465,-0.1356663415768632
-3.888,-1.885207089037933,-1.417859588602123
-3.8875,-2.290673733629873,-2.074851169722503
-3.887,-1.074273799854052,-2.371557045067191
-3.8865,0.4622313796522482,-2.636473005196377
-3.886,1.443887466559051,-2.435136875498196
-3.8855,1.785333062004896,-1.640388995110639
-3.885,1.646620788855021,-0.8562377531282487
-3.8845,1.337185717982225,-0.2628260024388724
-3.884,1.049090996824793,0.03387987290581572
-3.8835,0.8890383739595538,0.2352160026039969
