Class_2_Relax_eyes_open/Class_2_Relax_Eyes_open_Turki_10.csv

#Digilent WaveForms Oscilloscope Acquisition
#Device Name: EExplorer
#Serial Number: SN:210151A2B84A
#Date Time: 2020-12-16 09:41:53.121
#Sample rate: 2000Hz
#Samples: 16384
#Trigger: Source: Channel 1 Type: Edge Condition: Rising Level: 0 V Hyst.: Auto HoldOff: 0 s
#Channel 1: Range: 1 V/div Offset: 0 V Attenuation: 1 X
#Channel 2: Range: 1 V/div Offset: 0 V Attenuation: 1 X
#Power Supplies: ON
#Fixed Supply: ON
#Voltage: 3.3 V Readback: 3.325 V
#Positive Supply: ON
#Voltage: 3.7 V Readback: 3.712 V
#Current: 40 mA Readback: 22 mA
#Negative Supply: ON
#Voltage: -3.7 V Readback: -3.361 V
#Current: -40 mA Readback: -10 mA
#Reference 1: ON
#Voltage: 0 V
#Reference 2: ON
#Voltage: 0 V

Time (s),Channel 1 (V),Channel 2 (V)
-4.096,0.5049120790829789,0.3199891098453364
-4.0955,1.358526067696814,1.051157159801224
-4.095,2.030747083731422,1.559795803250186
-4.0945,1.838683936293309,1.845905040189447
-4.094,0.4515612047958273,1.750535294543027
-4.0935,-0.9142211769892298,0.69087145402504
-4.093,-1.373038695869166,-0.5807251545938954
-4.0925,-1.223656247861745,-1.386069673385888
-4.092,-0.9035510021308583,-1.428456227006741
-4.0915,-0.6047861061160158,-0.8244478379127463
-4.091,-0.4127229586777283,-0.008506680714854012
-4.0905,-0.3060212101008631,0.701468092431817
-4.09,-0.2633405106701714,1.199510097474233
-4.0895,-0.274010685527854,1.517409249629256
-4.089,-0.2953510352431999,1.64456891049115
-4.0885,-0.3593720843893152,1.623375633680931
-4.088,-0.6794773301197943,1.602182356870596
-4.0875,-0.2099896363821852,1.6763588257067
-4.087,0.7823366253834845,1.761131932948088
-4.0865,1.614610264281974,1.739938656137773
-4.086,1.262494493978766,1.104140351828305
-4.0855,0.1741366584941085,0.04447651131015432
-4.085,-0.6047861061160158,-0.8668343915334161
-4.0845,-0.8395299529848205,-1.492036057437726
-4.084,-0.7434983792657058,-1.884111678429663
-4.0835,-0.5407650569699201,-2.074851169722503
-4.083,-0.3487019095316325,-2.149027638558676
-4.0825,-0.2099896363816902,-2.138431000153383
-4.082,-0.1352984123779797,-2.000674700886331
-4.0815,-0.1459685872356623,-1.661582271920973
-4.081,-0.199319461524027,-1.280103289335293
-4.0805,-0.2420001609548061,-0.8986243067489184
-4.08,-0.2313299860971235,-0.5065486857577234
-4.0795,0.2488278824981587,0.1504428953620599
-4.079,1.091771696256213,0.8816109453197308
-4.0785,1.849354111150991,1.453829419198252
-4.078,2.084097958019796,1.761131932947828
-4.0775,0.9850699476773294,1.803518486567987
-4.077,-0.5194247072545548,0.9345941373450475
-4.0765,-1.298347471864679,-0.3581957480842035
-4.076,-1.309017646722799,-1.343683119766326
-4.0755,-1.010252750707956,-1.75695201756748
-4.075,-0.690147504977477,-1.449649503817625
-4.0745,-0.4660738329660153,-0.6760949002396409
-4.074,-0.3273615598162672,0.1610395337678249
-4.0735,-0.274010685527854,0.7968378380778709
-4.073,-0.2633405106701811,1.220703374284183
-4.0725,-0.2846808603855366,1.432636142387917
-4.072,-0.3166913849585846,1.464426057603419
-4.0715,-0.5727755815427351,1.443232780793104
-4.071,-0.5087545323960666,1.549199164844884
-4.0705,0.3768699807907871,1.686955464111935
-4.07,1.337185717981351,1.76113193294804
-4.0695,1.507908515704196,1.39024958876637
-4.069,0.4622313796522482,0.4259554938970107
-4.0685,-0.5941159312583333,-0.5489352393783931
-4.068,-1.031593100423244,-1.301296566145714
-4.0675,-0.9462317015618604,-1.778145294377815
-4.067,-0.7008176798351597,-2.021867977696666
-4.0665,-0.4447334832506016,-2.085447808127652
-4.066,-0.2526703358124887,-2.064254531317336
-4.0655,-0.1459685872356623,-2.011271339291499
-4.065,-0.1459685872356623,-1.767548655972869
-4.0645,-0.1886492866663929,-1.407262950196955
-4.064,-0.2313299860971235,-1.01518732920576
-4.0635,-0.2633405106701423,-0.6231117082149217
-4.063,0.01408403563030513,-0.0614898727400069
-4.0625,0.8143471499557753,0.6908714540261965
-4.062,1.635950613996592,1.316073119930506
-4.0615,2.148119007165504,1.697552102517045
-4.061,1.486568165989782,1.633972272086098
-4.0605,0.02475421048725994,0.6060983467848571
-4.06,-0.8395299529851795,-0.61251506981013
-4.0595,-0.9995825758502737,-1.417859588602123
-4.059,-0.8608703027003992,-1.576809164679634
-4.0585,-0.6367966306892676,-1.036380606016587
-4.058,-0.4660738329661415,-0.2098428104130352
-4.0575,-0.3487019095316325,0.5425185163538525
-4.057,-0.2846808603855949,1.061753798206585
-4.0565,-0.274010685527854,1.358459673551745
-4.056,-0.2846808603855366,1.485619334413754
-4.0555,-0.3060212101008825,1.485619334413754
-4.055,-0.4554036581086433,1.379652950362099
-4.0545,-0.658136980404429,1.400846227172415
-4.054,0.04609456020198477,1.549199164844623
-4.0535,1.049090996825347,1.676358825706652
-4.053,1.657290963712704,1.549199164844759
-4.0525,0.8890383739595538,0.6908714540261965
-4.052,-0.3593720843900236,-0.315809194465442
-4.0515,-1.138294849000148,-1.121153713257435
-4.051,-1.202315898146244,-1.640388995110639
-4.0505,-0.9355615267044204,-1.947691508860214
-4.05,-0.6047861061160158,-2.096044446532838
-4.0495,-0.3487019095316325,-2.074851169722503
-4.049,-0.1886492866665385,-1.937094870455452
-4.0485,-0.1246282375203261,-1.714565463946589
-4.048,-0.156638762093345,-1.47084278062796
-4.0475,-0.1993194615240367,-1.195330182093857
-4.047,-0.2420001609547187,-0.8880276683433846
-4.0465,-0.1459685872356623,-0.4853554089473885
-4.046,0.5262524287977327,0.267005917818815
-4.0455,1.379866417413557,1.008770606181701
-4.045,2.041417258589279,1.538602526439591
-4.0445,1.977396209443183,1.697552102517103
-4.044,0.6436243522315527,1.284283204714628
-4.0435,-0.7861790786966207,0.2458126410091644
-4.043,-1.330357996438436,-0.7820612842920766
-4.0425,-1.223656247861706,-1.375473034980913
-4.042,-0.9142211769888124,-1.311893204550448
-4.0415,-0.6154562809736985,-0.6760949002404023
-4.041,-0.4127229586779128,0.1398462569567479
-4.0405,-0.3060212101008631,0.8180311148886009
-4.04,-0.2633405106701714,1.25249328950007
-4.0395,-0.2633405106701714,1.485619334413542
-4.039,-0.2846808603855852,1.549199164844672
-4.0385,-0.3380317346739499,1.453829419198252
-4.038,-0.6474668055464651,1.379652950362147
-4.0375,-0.2846808603846535,1.48561933441387
-4.037,0.6863050516635838,1.612778995275763
-4.0365,1.550589215135878,1.644568910491266
-4.036,1.294505018550543,0.9557874141543994
-4.0355,0.2488278824985954,-0.1250697031716958
-4.035,-0.4767440078238243,-1.046977244421262
-4.0345,-0.7114878546926288,-1.661582271920414
-4.034,-0.658136980404429,-2.011271339291499
-4.0335,-0.4767440078238243,-2.159624276963843
-4.033,-0.2846808603857113,-2.149027638558685
-4.0325,-0.1459685872356138,-2.053657892912043
-4.032,-0.09261771294724913,-1.915901593644992
-4.0315,-0.1246282375202679,-1.672178910326362
-4.031,-0.1886492866664414,-1.375473034981164
-4.0305,-0.2420001609548061,-1.05757388282643
-4.03,-0.252670335812479,-0.6972881770510648
-4.0295,0.1848068333532662,-0.06148987273996836
-4.029,1.027750647109428,0.7332580076468663
-4.0285,1.806673411720261,1.358459673551745
-4.028,2.126778657449838,1.73993865613783
-4.0275,1.134452395686255,1.803518486568777
-4.027,-0.3273615598162672,0.9134008605347127
-4.0265,-1.020922925565008,-0.3687923864893806
-4.026,-1.074273799854052,-1.301296566145281
-4.0255,-0.8608703027003992,-1.545019249464132
-4.025,-0.6154562809739217,-1.057573882826873
-4.0245,-0.4340633083929966,-0.241632725627834
-4.024,-0.3273615598162672,0.5319218779486851
-4.0235,-0.2740106855279025,1.082947075016891
-4.023,-0.2633405106701908,1.432636142388071
-4.0225,-0.2846808603855366,1.602182356870596
-4.022,-0.3060212101008825,1.623375633680911
-4.0215,-0.5194247072544966,1.570392441655151
-4.021,-0.4554036581084589,1.633972272086098
-4.0205,0.408880505363835,1.729342017732605
-4.02,1.369196242555525,1.792921848163292
-4.0195,1.646620788855021,1.443232780793084
-4.019,0.6863050516635838,0.457745409112513
-4.0185,-0.3273615598153452,-0.527741962567162
-4.018,-0.7861790786966207,-1.248313374119443
-4.0175,-0.7861790786966207,-1.661582271920973
-4.017,-0.6047861061161808,-1.884111678429287
-4.0165,-0.3807124341045349,-1.990078062481125
-4.016,-0.2206598112394408,-1.947691508860494
-4.0155,-0.1032878878050385,-1.682775548731549
-4.015,-0.08194753808962471,-1.439052865412303
-4.0145,-0.1459685872356623,-1.269506650929778
-4.014,-0.2099896363816999,-1.057573882826623
-4.0135,-0.2526703358122946,-0.7820612842916332
-4.013,-0.03926683865883591,-0.2946159176543747
-4.0125,0.7289857510943143,0.4895353243280153
-4.012,1.561259389994084,1.178316820664313
-4.0115,2.137448832308423,1.633972272086098
-4.011,1.603940089424291,1.70814874092227
-4.0105,0.1207857842077527,0.7968378380786997
-4.01,-1.042263275281004,-0.4323722169215513
-4.0095,-1.30901764672307,-1.290699927740113
-4.009,-1.106284324427284,-1.555615887869058
-4.0085,-0.7968492535540609,-1.142346990067018
-4.008,-0.5300948821122373,-0.3158091944647096
-4.0075,-0.3700422592471434,0.5107286011375984
-4.007,-0.2846808603855172,1.114736990233231
-4.0065,-0.2633405106701714,1.485619334413754
-4.006,-0.274010685527854,1.676358825706768
-4.0055,-0.2953510352433261,1.697552102516997
-4.005,-0.4127229586777283,1.580989080060261
-4.0045,-0.658136980404429,1.549199164844759
-4.004,-0.01792648894255841,1.644568910491343
-4.0035,0.9850699476786977,1.729342017732605
-4.003,1.678631313428069,1.591585718465428
-4.0025,1.091771696256058,0.6696781772167001
-4.002,-0.01792648894347063,-0.400582301706049
-4.0015,-0.7648387289812555,-1.195330182093607
-4.001,-0.9248913518463496,-1.672178910325707
-4.0005,-0.7861790786964169,-1.937094870455404
-4,-0.5621054066852853,-2.021867977696666
-3.9995,-0.3380317346739499,-1.979481424075996
-3.999,-0.1673089369510276,-1.894708316834657
-3.9985,-0.09261771294724913,-1.746355379162313
-3.998,-0.1139580626626144,-1.545019249464132
-3.9975,-0.1673089369510276,-1.301296566145281
-3.997,-0.2206598112394408,-1.01518732920576
-3.9965,-0.1779791118087102,-0.6337083466197325
-3.996,0.4302208550792003,0.1186529801471552
-3.9955,1.283834843693812,0.9028042221295453
-3.995,1.988066384300866,1.485619334413754
-3.9945,2.020076908873914,1.814115124973944
-3.994,0.7503261008096795,1.888291593810116
-3.9935,-0.5941159312583333,1.072350436612224
-3.993,-1.074273799854052,-0.2204394488182027
-3.9925,-1.020922925565639,-1.078767159636765
-3.992,-0.7861790786966207,-1.089363798041932
-3.9915,-0.5621054066852853,-0.5065486857577234
-3.991,-0.391382608962363,0.2140227257936621
-3.9905,-0.3060212101009019,0.8074344764830383
-3.99,-0.274010685527854,1.231300012689736
-3.9895,-0.274010685527854,1.506812611224089
-3.989,-0.2846808603855366,1.644568910491266
-3.9885,-0.3273615598162672,1.644568910491266
-3.988,-0.5941159312583333,1.612778995275763
-3.9875,-0.2420001609548061,1.676358825706768
-3.987,0.6969752265212663,1.761131932948107
-3.9865,1.582599739708926,1.782325209758442
-3.986,1.443887466559051,1.146526905448396
-3.9855,0.3341892813600565,0.09745970333682032
-3.985,-0.5514352318276028,-0.8032545611024114
-3.9845,-0.8181896032696687,-1.417859588602123
-3.984,-0.722158029550525,-1.788741932782983
-3.9835,-0.5087545323968721,-1.990078062481164
-3.983,-0.3060212101009019,-2.085447808127671
-3.9825,-0.1779791118087102,-2.085447808127671
-3.982,-0.2420001609548061,-2.053657892912168
-3.9815,-0.2953510352432193,-1.725162102351978
-3.981,-0.3166913849585846,-1.301296566145281
-3.9805,-0.3166913849585846,-0.8774310299385835
-3.98,-0.2953510352432193,-0.474758770542221
-3.9795,0.09944543449103843,0.1080563417419877
-3.979,0.942389248247967,0.8286277532933731
-3.9785,1.742652362574165,1.400846227172415
-3.978,2.158789182023788,1.739938656137773
-3.9775,1.305175193409177,1.517409249629256
-3.977,-0.1139580626626144,0.3623756634660061
-3.9765,-0.8181896032696687,-0.8456411147230812
-3.976,-0.9248913518464952,-1.608599079895136
-3.9755,-0.7755089038389382,-1.650985633515806
-3.975,-0.5834457564006506,-1.01518732920576
-3.9745,-0.423393133535411,-0.1992461720078678
-3.974,-0.3273615598162672,0.5001319627331828
-3.9735,-0.2846808603855366,0.9557874141553824
-3.973,-0.274010685527854,1.220703374284568
-3.9725,-0.2846808603855366,1.33726639674141
-3.972,-0.3060212101009019,1.326669758336243
-3.9715,-0.5087545323968721,1.273686566310405
-3.971,-0.6047861061160158,1.411442865577582
-3.9705,0.2168173579255475,1.602182356870596
-3.97,1.209143619690033,1.718745379327438
-3.9695,1.657290963712704,1.443232780793084
-3.969,0.857027849386506,0.5107286011383502
-3.9685,-0.09261771294724913,-0.474758770542221
-3.968,-0.5300948821122373,-1.216523458903942
-3.9675,-0.5834457564006506,-1.682775548731308
-3.967,-0.4874141826815069,-1.873515040024322
-3.9665,-0.3593720843893152,-1.958288147265661
-3.966,-0.2420001609548061,-1.968884785670829
-3.9655,-0.1352984123779797,-1.873515040024322
-3.965,-0.1139580626626144,-1.661582271920973
-3.9645,-0.156638762093345,-1.417859588602123
-3.964,-0.2099896363817582,-1.131750351662602
-3.9635,-0.2633405106701714,-0.8138511995075789
-3.963,-0.09261771294724913,-0.3475991096802118
-3.9625,0.6436243522328531,0.4153588554918433
-3.962,1.486568165989782,1.125333628638062
-3.9615,2.105438307735375,1.602182356870596
-3.961,1.796003236862578,1.867098316999781
-3.9605,0.3661998059331045,1.856501678594614
-3.96,-0.8288597781273515,0.9028042221295453
-3.9595,-1.148965023857831,-0.3899856633008816
-3.959,-1.010252750707956,-1.227120097309109
-3.9585,-0.754168554123573,-1.227120097309109
-3.958,-0.5300948821122373,-0.6231117082145651
-3.9575,-0.3700422592469978,0.13984625695749
-3.957,-0.2953510352432193,0.775644561267536
-3.9565,-0.274010685527854,1.220703374284568
-3.956,-0.274010685527854,1.496215972818921
-3.9555,-0.2953510352432193,1.623375633680931
-3.955,-0.3807124341046804,1.602182356870596
-3.9545,-0.6154562809736985,1.602182356870596
-3.954,-0.04993701351651855,1.686955464111935
-3.9535,0.9317190733902845,1.771728571353275
-3.953,1.657290963712704,1.729342017732605
-3.9525,1.113112045970889,1.040560521396722
-3.952,0.09944543449103843,0.002089957690313421
-3.9515,-0.4340633083930936,-0.9092209451540858
-3.951,-0.5407650569699201,-1.534422611058964
-3.9505,-0.4660738329661415,-1.894708316834657
-3.95,-0.3487019095316325,-2.021867977696666
-3.9495,-0.2313299860971235,-2.053657892912168
-3.949,-0.1886492866663929,-2.043061254507001
-3.9485,-0.2313299860971235,-1.905304955239825
-3.948,-0.2633405106701714,-1.523825972653797
-3.9475,-0.2846808603855366,-1.078767159636765
-3.947,-0.2953510352432193,-0.6443049850249
-3.9465,-0.2420001609548061,-0.2310360872233701
-3.946,0.3128489316446912,0.4047622170866759
-3.9455,1.177133095116985,1.061753798207057
-3.945,1.913375160297087,1.538602526439591
-3.9445,2.041417258589279,1.644568910491266
-3.944,0.8463576745288233,0.7862411996727035
-3.9435,-0.4340633083930936,-0.4535654937318862
-3.943,-0.9248913518464952,-1.417859588602123
-3.9425,-0.9142211769888124,-1.831128486403653
-3.942,-0.7328282044082075,-1.492036057438295
-3.9415,-0.5407650569699201,-0.6972881770507372
-3.941,-0.391382608962363,0.09745970333682032
-3.9405,-0.3166913849585846,0.6802748156210291
-3.94,-0.2846808603855366,1.029963882991555
-3.9395,-0.2846808603855366,1.210106735879401
-3.939,-0.2953510352432193,1.25249328950007
-3.9385,-0.3273615598162672,1.178316820663898
-3.938,-0.6047861061160158,1.114736990232894
-3.9375,-0.391382608962363,1.305476481525908
-3.937,0.5369226036560266,1.517409249629256
-3.9365,1.475897991132099,1.655165548896433
-3.936,1.507908515705147,1.241896651094903
-3.9355,0.4622313796522482,0.2352160026039969
-3.935,-0.4660738329661415,-0.7396747306714069
-3.9345,-0.8181896032696687,-1.42845622700729
-3.934,-0.7861790786966207,-1.831128486403653
-3.9335,-0.572775581542968,-1.990078062481164
-3.933,-0.3380317346739499,-2.000674700886331
-3.9325,-0.1886492866663929,-1.947691508860494
-3.932,-0.1032878878049318,-1.746355379162313
-3.9315,-0.1139580626626144,-1.555615887869299
-3.931,-0.1779791118087102,-1.311893204550448
-3.9305,-0.2313299860971235,-1.025783967610927
-3.93,-0.2633405106701714,-0.6972881770507372
-3.9295,0.0674349099179905,-0.1250697031716958
-3.929,0.8890383739595538,0.6590815388106942
-3.9285,1.689301488285752,1.29487984312074
-3.928,2.158789182023788,1.676358825706768
-3.9275,1.390536592270638,1.517409249629256
-3.927,-0.08194753808956648,0.4683420475176805
-3.9265,-0.9355615267041777,-0.6654982618352349
-3.926,-1.074273799854052,-1.375473034981453
-3.9255,-0.8928808272734472,-1.42845622700729
-3.925,-0.6474668055467465,-0.8244478379127463
-3.9245,-0.4660738329661415,0.03387987290581572
-3.924,-0.3380317346739499,0.7862411996727035
-3.9235,-0.2846808603855366,1.284283204715573
-3.923,-0.274010685527854,1.570392441655093
-3.9225,-0.2846808603855366,1.676358825706768
-3.922,-0.3060212101009019,1.633972272086098
-3.9215,-0.4554036581084589,1.496215972818921
-3.921,-0.572775581542968,1.485619334413754
-3.9205,0.1954770082101822,1.602182356870596
-3.92,1.187803269974668,1.686955464111935
-3.9195,1.646620788855021,1.485619334413754
-3.919,0.7503261008096795,0.5425185163538525
-3.9185,-0.4554036581084589,-0.4641621321370536
-3.918,-1.170305373573196,-1.237716735714276
-3.9175,-1.244996597576974,-1.703968825541643
-3.917,-0.9569018764195432,-1.990078062481164
-3.9165,-0.5941159312583333,-2.159624276963843
-3.916,-0.3273615598162672,-2.191414192179345
-3.9155,-0.2526703358124887,-2.17022091536901
-3.915,-0.2953510352432193,-1.958288147265661
-3.9145,-0.3166913849585846,-1.545019249464132
-3.914,-0.3166913849585846,-1.121153713257435
-3.9135,-0.3060212101009019,-0.718481453861072
-3.913,-0.1352984123779797,-0.2628260024388724
-3.9125,0.5902734779444399,0.4683420475176805
-3.912,1.443887466559051,1.146526905448396
-3.9115,2.094768132877692,1.612778995275763
-3.911,1.860024286008674,1.612778995275763
-3.9105,0.4515612047945656,0.701468092431364
-3.91,-0.7755089038389382,-0.5383386009732256
-3.9095,-1.138294849000148,-1.449649503817625
-3.909,-1.020922925565639,-1.873515040024322
-3.9085,-0.7648387289812555,-1.640388995110639
-3.908,-0.5407650569699201,-0.8986243067489184
-3.9075,-0.3807124341046804,-0.05089323433552374
-3.907,-0.2953510352432193,0.6166949851900245
-3.9065,-0.274010685527854,1.029963882991555
-3.906,-0.274010685527854,1.25249328950007
-3.9055,-0.2953510352432193,1.305476481525908
-3.905,-0.3700422592469978,1.210106735879401
-3.9045,-0.6688071552621118,1.220703374284568
-3.904,-0.2099896363817582,1.42203950398275
-3.9035,0.7716664505250448,1.602182356870596
-3.903,1.593269914566608,1.633972272086098
-3.9025,1.166462920259302,0.92399749893988
-3.902,0.00341386077189465,-0.1038764263613609
-3.9015,-0.8502001278427167,-0.9622041371799229
-3.901,-1.074273799854052,-1.523825972653797
-3.9005,-0.9035510021311299,-1.831128486403653
-3.9,-0.6154562809736985,-1.979481424075996
-3.8995,-0.3700422592469978,-1.990078062481164
-3.899,-0.1779791118087102,-1.905304955239825
-3.8985,-0.08194753808956648,-1.693372187136476
-3.898,-0.1032878878049318,-1.460246142222792
-3.8975,-0.156638762093345,-1.195330182093607
-3.897,-0.2206598112394408,-0.8880276683437509
-3.8965,-0.2206598112394408,-0.5383386009732256
-3.896,0.2701682322139607,0.1186529801471552
-3.8955,1.123782220828572,0.8710143069140429
-3.895,1.870694460866357,1.443232780793084
-3.8945,2.105438307735375,1.782325209758442
-3.894,0.9957401225363802,1.6657621873016
-3.8935,-0.4554036581084589,0.5637117931641874
-3.893,-1.1062843244271,-0.6654982618352349
-3.8925,-1.1062843244271,-1.449649503817625
-3.892,-0.8715404775580819,-1.502632695843462
-3.8915,-0.6154562809736985,-0.8880276683437509
-3.891,-0.423393133535411,-0.02969995752518888
-3.8905,-0.3166913849585846,0.701468092431364
-3.89,-0.274010685527854,1.210106735879401
-3.8895,-0.2633405106701714,1.517409249629256
-3.889,-0.2846808603855366,1.644568910491266
-3.8885,-0.3166913849585846,1.633972272086098
-3.888,-0.572775581542968,1.549199164844759
-3.8875,-0.4447334832507763,1.591585718465428
-3.887,0.4622313796522482,1.697552102517103
-3.8865,1.411876941986003,1.761131932948107
-3.886,1.625280439139656,1.549199164844759
-3.8855,0.6436243522328531,0.6908714540261965
