Class_2_Relax_eyes_open/Class_2_Relax_eyes_open_Basim_2.csv

#Digilent WaveForms Oscilloscope Acquisition
#Device Name: EExplorer
#Serial Number: SN:210151A2B84A
#Date Time: 2020-10-27 13:38:04.151
#Sample rate: 2000Hz
#Samples: 16384
#Trigger: Source: Channel 1 Type: Edge Condition: Rising Level: 0 V Hyst.: Auto HoldOff: 0 s
#Channel 1: Range: 1 V/div Offset: 0 V Attenuation: 1 X
#Channel 2: Range: 1 V/div Offset: 0 V Attenuation: 1 X
#Power Supplies: ON
#Fixed Supply: ON
#Voltage: 3.3 V Readback: 3.326 V
#Positive Supply: ON
#Voltage: 3.7 V Readback: 3.72 V
#Current: 500 mA Readback: 20 mA
#Negative Supply: ON
#Voltage: -3.7 V Readback: -3.702 V
#Current: -500 mA Readback: -7 mA
#Reference 1: ON
#Voltage: 0 V
#Reference 2: ON
#Voltage: 0 V

Time (s),Channel 1 (V),Channel 2 (V)
-4.096,-1.437059745015262,-1.407262950196955
-4.0955,-0.5087545323977164,-0.6654982618359095
-4.095,0.1954770082105413,-0.2310360872232448
-4.0945,0.5902734779444399,-0.09327978795619347
-4.094,0.750326100809534,-0.07208651114587789
-4.0935,0.7930068002404004,-0.125069703171744
-4.093,0.7823366253827275,-0.1780528951975329
-4.0925,0.9317190733901486,-0.3793890248955311
-4.092,0.9957401225363123,-0.3264058328697325
-4.0915,0.9210488985326017,-0.1674562567923655
-4.091,0.825017324813458,0.08686306493165288
-4.0905,0.7183155762366025,0.2352160026040066
-4.09,0.6863050516635838,0.2458126410091644
-4.0895,0.6222840025174878,-0.2204394488182027
-4.089,-0.1352984123772907,-0.8350444763173548
-4.0885,-1.074273799854052,-1.248313374119443
-4.088,-1.821186039891837,-1.34368311976595
-4.0875,-2.397375482206176,-1.195330182093742
-4.087,-2.247993034198327,-0.9304142219641123
-4.0865,-1.351698346153801,-0.5913217929990628
-4.086,-0.4980843575399659,-0.1038764263618042
-4.0855,0.1101156093490413,0.5743084315700487
-4.085,0.4622313796522482,1.33726639674141
-4.0845,0.6116138276596692,1.941274785835404
-4.084,0.6222840025174393,2.153207553939004
-4.0835,0.5689331282290746,1.824711763379112
-4.083,0.5262524287983441,1.496215972818921
-4.0825,0.5049120790829594,1.326669758336021
-4.082,0.4835717293676135,1.082947075017392
-4.0815,0.1741366584948169,0.5213252395435176
-4.081,-0.6581369804036721,-0.3158091944639482
-4.0805,-1.51175096901904,-1.068170521231597
-4.08,-2.19464215991073,-1.661582271920973
-4.0795,-1.799845690176831,-1.703968825541605
-4.079,-0.8181896032689118,-1.046977244420761
-4.0785,0.01408403562957729,-0.4959520473525559
-4.078,0.5262524287978783,-0.2416327256287689
-4.0775,0.7609962756674108,-0.1992461720079256
-4.077,0.8143471499557753,-0.2628260024388724
-4.0765,0.7930068002404295,-0.3475991096801347
-4.076,0.8036769750981316,-0.4429688553265453
-4.0755,0.8463576745288233,-0.252229364033705
-4.075,0.79300680024041,-0.01910331912002144
-4.0745,0.7076454013789102,0.08686306493164325
-4.074,0.6649647019482183,0.07626642652648545
-4.0735,0.6649647019482183,0.03387987290581572
-4.073,0.9850699476784066,-0.241632725628287
-4.0725,1.070431346540159,-0.8032545611024114
-4.072,0.1741366584948169,-1.258910012524611
-4.0715,-0.9142211769878226,-1.460246142222609
-4.071,-1.81051586503464,-1.3436831197657
-4.0705,-2.344024607918286,-1.068170521231597
-4.07,-1.81051586503464,-0.7502713690768634
-4.0695,-0.9142211769881429,-0.3475991096797107
-4.069,-0.1779791118087102,0.2034260873884947
-4.0685,0.3021787567870086,0.9134008605347127
-4.068,0.5475927785137773,1.64456891049168
-4.0675,0.6222840025174878,2.100224361913465
-4.067,0.6222840025174878,2.259173937990977
-4.0665,0.5796033030867185,2.195594107559857
-4.066,0.5369226036560266,2.068434446697963
-4.0655,0.5155822539406614,1.771728571353275
-4.065,0.3982103305062591,1.273686566310858
-4.0645,-0.2846808603855366,0.3199891098453364
-4.064,-1.180975548430879,-0.6549016234300674
-4.0635,-1.810515865033582,-1.386069673385955
-4.063,-1.24499659757613,-1.725162102351506
-4.0625,-0.3166913849585846,-1.205926820498774
-4.062,0.3661998059324834,-0.5701285161893062
-4.0615,0.7183155762367189,-0.2416327256284894
-4.061,0.8143471499557753,-0.1886495336027004
-4.0605,0.8036769750980928,-0.1886495336027004
-4.06,0.7609962756673428,-0.2098428104131316
-4.0595,0.7396559259519968,-0.3158091944647096
-4.059,0.7609962756673623,-0.4111789401112165
-4.0585,0.7076454013789976,-0.2946159176544807
-4.058,0.6329541773751706,-0.2416327256285375
-4.0575,0.5796033030867573,-0.1886495336027004
-4.057,0.5582629533714115,-0.08268314955112242
-4.0565,0.7289857510943143,-0.1250697031716958
-4.056,0.974399772821015,-0.6019184314042303
-4.0555,0.2274875327839094,-1.099960436446647
-4.055,-0.7861790786973873,-1.35427975817107
-4.0545,-1.629122892453549,-1.301296566145281
-4.054,-2.24799303419858,-1.057573882826651
-4.0535,-1.959898313040925,-0.7396747306710311
-4.053,-1.095614149569417,-0.326405832869877
-4.0525,-0.3273615598162672,0.2670059178194992
-4.052,0.2061471830681268,1.029963882992248
-4.0515,0.4942419042252961,1.79292184816361
-4.051,0.6116138276598051,2.312157130016814
-4.0505,0.6222840025174782,2.534686536525128
-4.05,0.5902734779444399,2.545283174930498
-4.0495,0.5582629533713921,2.386333598852986
-4.049,0.5262524287983732,2.142610915534357
-4.0485,0.4729015545094457,1.67635882570591
-4.048,-0.06060718837420119,0.7332580076468663
-4.0475,-0.956901876418728,-0.337002471274071
-4.047,-1.757164990745916,-1.184733543688863
-4.0465,-1.949228138184029,-1.650985633515806
-4.046,-1.11695449928554,-1.227120097309494
-4.0455,-0.220659811238878,-0.6019184314039508
-4.045,0.3982103305061524,-0.2946159176543747
-4.0445,0.7396559259519968,-0.2204394488182027
-4.044,0.8570278493864963,-0.2098428104131123
-4.0435,0.8463576745288233,-0.2946159176543747
-4.043,0.79300680024041,-0.3899856633008816
-4.0425,0.8890383739594664,-0.5383386009730907
-4.042,0.9317190733902845,-0.4641621321370536
-4.0415,0.8783681991018712,-0.2946159176543747
-4.041,0.8036769750981607,-0.12506970317185
-4.0405,0.7289857510943046,0.02328323450069647
-4.04,0.7183155762366316,0.07626642652648545
-4.0395,1.091771696255184,-0.3370024712746686
-4.039,0.7823366253817959,-0.9092209451544327
-4.0385,-0.2420001609548061,-1.290699927740113
-4.038,-1.212986073003044,-1.35427975817106
-4.0375,-1.991908837614915,-1.184733543688179
-4.037,-2.162631635337682,-0.8986243067489184
-4.0365,-1.437059745015262,-0.5383386009732256
-4.036,-0.6047861061154433,-0.00850668071421793
-4.0355,0.02475421048725994,0.6908714540261965
-4.035,0.408880505363835,1.485619334413754
-4.0345,0.5796033030866021,2.089627723507749
-4.034,0.6329541773751706,2.418123514068488
-4.0335,0.6116138276598051,2.502896621309828
-4.033,0.5796033030867864,2.407526875663407
-4.0325,0.5369226036559975,2.153207553938975
-4.032,0.5049120790829789,1.79292184816361
-4.0315,0.1848068333527907,1.040560521397406
-4.031,-0.6581369804052054,-0.02969995752601771
-4.0305,-1.51175096901904,-0.9410108603695881
-4.03,-2.205312334767782,-1.608599079894529
-4.0295,-1.831856214748598,-1.587405803084261
-4.029,-0.8181896032696687,-0.9939940523954253
-4.0285,0.04609456020262521,-0.4429688553267188
-4.028,0.5689331282292784,-0.1250697031715994
-4.0275,0.79300680024041,-0.01910331912002144
-4.027,0.8143471499557753,-0.09327978795619347
-4.0265,0.7609962756674108,-0.2310360872232448
-4.026,0.7823366253827275,-0.326405832869877
-4.0255,0.857027849386506,-0.2734226408440398
-4.025,0.8143471499558141,-0.1250697031718307
-4.0245,0.7716664505250157,-0.06148987274073937
-4.024,0.7396559259519968,-0.1144730647665284
-4.0235,0.7076454013789781,-0.06148987274073937
-4.023,1.038420821967169,-0.2946159176548566
-4.0225,1.102441871113207,-0.8244478379127463
-4.022,0.1527963087803152,-1.248313374119058
-4.0215,-0.9569018764203777,-1.407262950196839
-4.021,-1.87453691418025,-1.280103289334946
-4.0205,-2.365364957633652,-1.004590690800593
-4.02,-1.789175515317974,-0.6760949002399782
-4.0195,-0.8928808272734472,-0.2098428104130352
-4.019,-0.156638762093345,0.4471487707073456
-4.0185,0.3128489316442643,1.231300012689022
-4.018,0.5475927785137094,1.909484870620451
-4.0175,0.6222840025174878,2.290963853206479
-4.017,0.6222840025174878,2.42872015247353
-4.0165,0.5796033030867282,2.35454368363732
-4.016,0.5475927785137094,2.174400830749637
-4.0155,0.5155822539406905,1.856501678594903
-4.015,0.4195506802209451,1.157123543852619
-4.0145,-0.2099896363817582,0.1186529801471552
-4.014,-1.106284324426285,-0.8244478379118886
-4.0135,-1.88520708903804,-1.54501924946446
-4.013,-2.002579012472442,-1.905304955239825
-4.0125,-1.1062843244271,-1.42845622700729
-4.012,-0.23132998609658,-0.7502713690761502
-4.0115,0.3661998059331045,-0.2840192792492073
-4.011,0.6969752265212663,-0.04029659593035631
-4.0105,0.8250173248133416,-0.0614898727406719
-4.01,0.8143471499557753,-0.1780528951975329
-4.0095,0.8036769750980928,-0.3687923864905467
-4.009,0.9850699476785327,-0.6549016234298072
-4.0085,1.038420821967023,-0.5489352393781328
-4.008,0.942389248247967,-0.2628260024388724
-4.0075,0.8036769750982189,-0.1674562567924522
-4.007,0.7076454013789394,-0.02969995752515996
-4.0065,0.6969752265212663,0.002089957690313421
-4.006,0.8463576745288233,-0.4641621321370536
-4.0055,0.3128489316437887,-1.025783967611284
-4.005,-0.6794773301197943,-1.417859588602123
-4.0045,-1.586442193022819,-1.523825972653797
-4.004,-2.280003558772045,-1.386069673386379
-4.0035,-2.119950935906951,-1.121153713257435
-4.003,-1.234326422719292,-0.7396747306714069
-4.0025,-0.4233931335361485,-0.1780528951980437
-4.002,0.1527963087794516,0.5425185163538525
-4.0015,0.4729015545099309,1.273686566310405
-4.001,0.611613827659679,1.78232520975798
-4.0005,0.6222840025174684,1.941274785835819
-4,0.6009436528021226,1.79292184816361
-3.9995,0.5475927785137094,1.400846227172415
-3.999,0.5155822539406614,0.9557874141553824
-3.9985,0.4835717293676135,0.4683420475176805
-3.998,0.01408403562957729,-0.1886495336027004
-3.9975,-0.8715404775580819,-0.8668343915334161
-3.997,-1.693143941599645,-1.449649503817625
-3.9965,-2.183971985053047,-1.873515040024322
-3.996,-1.46907026958831,-1.576809164679634
-3.9955,-0.4980843575391895,-0.8456411147230812
-3.995,0.2274875327832301,-0.326405832869877
-3.9945,0.6436243522328531,-0.02969995752518888
-3.994,0.79300680024041,0.01268659609548085
-3.9935,0.8036769750980928,-0.05089323433552374
-3.993,0.7609962756673623,-0.1462629799820306
-3.9925,0.8890383739595538,-0.3158091944647096
-3.992,0.9530594231056497,-0.2840192792492073
-3.9915,0.857027849386506,-0.1780528951975329
-3.991,0.7609962756673623,-0.1038764263613609
-3.9905,0.6969752265212663,-0.02969995752518888
-3.99,0.6863050516635838,0.03387987290581572
-3.9895,0.6009436528021226,-0.3370024712750445
-3.989,-0.1459685872356623,-0.8986243067489184
-3.9885,-1.074273799854052,-1.290699927740113
-3.988,-1.810515865034154,-1.38606967338662
-3.9875,-2.386705307349017,-1.248313374119443
-3.987,-2.333354433060604,-0.9939940523954253
-3.9865,-1.51175096901904,-0.6972881770507372
-3.986,-0.6261264558313813,-0.2946159176543747
-3.9855,0.03542438534494258,0.2776025562246667
-3.985,0.4195506802215176,0.9981739677760521
-3.9845,0.6009436528021226,1.676358825706768
-3.984,0.6222840025174878,2.047241169887628
-3.9835,0.6009436528021226,2.174400830749637
-3.983,0.5582629533713921,2.089627723508298
-3.9825,0.5262524287983441,1.877694955404949
-3.982,0.5049120790829789,1.390249588767247
-3.9815,0.2488278824985954,0.6166949851900245
-3.981,-0.5621054066852853,-0.326405832869877
-3.9805,-1.426389570157579,-1.121153713257435
-3.98,-1.927887788468663,-1.703968825541643
-3.9795,-1.351698346153801,-1.566212526274467
-3.979,-0.4660738329661415,-0.8668343915334161
-3.9785,0.2168173579255475,-0.3370024712750445
-3.978,0.6116138276598051,-0.1356663415768632
-3.9775,0.79300680024041,-0.1462629799820306
-3.977,0.825017324813458,-0.2204394488182027
-3.9765,0.7823366253827275,-0.3052125560595421
-3.976,0.7609962756673623,-0.400582301706049
-3.9755,0.7823366253827275,-0.400582301706049
-3.975,0.7289857510943143,-0.09327978795619347
-3.9745,0.6969752265212663,0.13984625695749
-3.974,0.6542945270905358,0.2776025562246667
-3.9735,0.6436243522328531,0.2670059178194992
-3.973,0.8890383739595538,-0.01910331912002144
-3.9725,0.974399772821015,-0.6337083466197325
-3.972,0.1207857842064037,-1.142346990067769
-3.9715,-0.8822106524157645,-1.322489842955616
-3.971,-1.725154466172693,-1.205926820498774
-3.9705,-2.258663209056825,-0.9516074987747555
-3.97,-1.83185621474952,-0.6337083466197325
-3.9695,-0.9675720512772257,-0.1886495336027004
-3.969,-0.2206598112394408,0.4471487707073456
-3.9685,0.2701682322139607,1.220703374284568
-3.968,0.5262524287983441,1.920081509025619
-3.9675,0.6222840025174878,2.312157130016814
-3.967,0.6222840025174878,2.375736960447818
-3.9665,0.5796033030867573,2.153207553939303
-3.966,0.5475927785137094,1.856501678594614
-3.9655,0.5155822539406614,1.591585718465428
-3.965,0.3982103305061524,1.114736990232894
-3.9645,-0.2846808603855366,0.2246193641988295
-3.964,-1.170305373573196,-0.6866915386455698
-3.9635,-1.906547438753298,-1.407262950196955
-3.963,-1.767835165603424,-1.703968825541643
-3.9625,-0.8928808272734472,-1.174136905283272
-3.962,-0.06060718837420119,-0.5807251545938954
-3.9615,0.4835717293676135,-0.2204394488182027
-3.961,0.7396559259519968,-0.01910331912002144
-3.9605,0.8143471499557753,-0.1038764263613609
-3.96,0.7823366253827275,-0.2628260024388724
-3.9595,0.7609962756673623,-0.4217755785163839
-3.959,0.857027849386506,-0.5277419625680583
-3.9585,0.8463576745288233,-0.4111789401112165
-3.958,0.7609962756673623,-0.2628260024388724
-3.9575,0.6863050516635838,-0.1780528951975329
-3.957,0.6542945270905358,-0.1038764263613609
-3.9565,0.707645401378949,-0.1144730647665284
-3.956,0.5049120790829789,-0.5383386009732256
-3.9555,-0.3593720843893152,-1.046977244421262
-3.955,-1.255666772434657,-1.34368311976595
-3.9545,-2.002579012472442,-1.354279758171118
-3.954,-2.450726356495113,-1.152943628472937
-3.9535,-2.408045657064382,-0.8668343915334161
-3.953,-1.639793067311232,-0.5595318777835605
-3.9525,-0.722158029550525,-0.1992461720078678
-3.952,-0.01792648894347063,0.2776025562246667
-3.9515,0.3982103305061524,0.9028042221295453
-3.951,0.5902734779444399,1.549199164844759
-3.9505,0.6436243522328531,1.856501678594614
-3.95,0.6222840025174878,1.856501678594614
-3.9495,0.5796033030867573,1.623375633680931
-3.949,0.5475927785137094,1.199510097474233
-3.9485,0.4942419042252961,0.5637117931641874
-3.948,-0.03926683865883591,-0.1992461720078678
-3.9475,-0.9248913518464952,-0.9198175835592532
-3.947,-1.725154466172693,-1.523825972653797
-3.9465,-1.725154466172693,-1.873515040024322
-3.946,-0.7861790786966207,-1.576809164679634
-3.9455,0.0674349099179905,-0.8774310299385835
-3.945,0.6009436528021226,-0.4111789401112165
-3.9445,0.8463576745288233,-0.1462629799820306
-3.944,0.9210488985326017,-0.1038764263613609
-3.9435,0.8676980242441885,-0.2204394488182027
-3.943,0.8036769750980928,-0.4217755785163839
-3.9425,0.825017324813458,-0.6019184314042303
-3.942,0.8356874996711408,-0.6231117082145651
-3.9415,0.7823366253827275,-0.5171453241628908
-3.941,0.707645401378949,-0.3899856633008816
-3.9405,0.6329541773751706,-0.2416327256285375
-3.94,0.6222840025174878,-0.1144730647665284
-3.9395,0.9957401225363802,-0.3899856633008816
-3.939,0.7183155762366316,-0.8986243067489184
-3.9385,-0.2846808603855366,-1.269506650929778
-3.938,-1.255666772434657,-1.354279758171118
-3.9375,-2.013249187330125,-1.174136905283272
-3.937,-1.991908837614759,-0.8774310299385835
-3.9365,-1.212986073003927,-0.4429688553267188
-3.936,-0.4340633083930936,0.1610395337678249
-3.9355,0.142126133921769,0.9451907757502149
-3.935,0.4622313796522482,1.739938656137773
-3.9345,0.6009436528021226,2.312157130016814
-3.934,0.6329541773751706,2.587669728551167
-3.9335,0.6009436528021226,2.619459643766669
-3.933,0.5796033030867573,2.502896621309828
-3.9325,0.5475927785137094,2.248577299585809
-3.932,0.5155822539406614,1.898888232215284
-3.9315,0.3341892813600565,1.082947075017392
-3.931,-0.423393133535411,-0.02969995752518888
-3.9305,-1.298347471865388,-0.9516074987747555
-3.93,-1.949228138184029,-1.629792356705471
-3.9295,-1.554431668449771,-1.640388995110639
-3.929,-0.6367966306890638,-1.036380606016095
-3.9285,0.142126133921769,-0.5383386009732256
-3.928,0.5796033030867573,-0.1568596183871981
-3.9275,0.7503261008096795,-0.008506680714854012
-3.927,0.79300680024041,-0.07208651114585861
-3.9265,0.7823366253827275,-0.2098428104130352
-3.926,0.79300680024041,-0.3793890248957141
-3.9255,0.8143471499557753,-0.2734226408440398
-3.925,0.7823366253827275,-0.09327978795619347
-3.9245,0.7716664505250448,-0.3052125560595421
-3.924,0.7396559259519968,-0.4111789401112165
-3.9235,0.7183155762366316,-0.1992461720078678
-3.923,0.942389248247967,-0.2204394488182027
-3.9225,1.091771696255524,-0.6760949002404023
-3.922,0.2274875327832301,-1.121153713257435
-3.9215,-0.8502001278427167,-1.333086481360783
-3.921,-1.757164990745741,-1.280103289334946
-3.9205,-2.376035132491334,-1.05757388282643
-3.92,-2.013249187330125,-0.7820612842920766
-3.9195,-1.095614149569417,-0.3899856633008816
-3.919,-0.3060212101009019,0.1610395337678249
-3.9185,0.2381577076409128,0.8816109453192104
-3.918,0.5155822539406614,1.580989080060261
-3.9175,0.6222840025174878,2.004854616266958
-3.917,0.6329541773751706,2.142610915534135
-3.9165,0.5902734779444399,2.004854616266958
-3.916,0.5262524287983441,1.347863035146577
-3.9155,0.4942419042252961,0.6060983467848571
-3.915,0.3768699807907871,-0.1674562567923655
-3.9145,-0.2846808603855366,-0.8986243067489184
-3.914,-1.159635198715513,-1.502632695843462
-3.9135,-1.863866739322568,-1.926498232050159
-3.913,-1.543761493592088,-1.84172512480882
-3.9125,-0.6474668055467465,-1.121153713257435
-3.912,0.1207857842064037,-0.4853554089473885
-3.9115,0.6009436528021226,-0.07208651114585861
-3.911,0.8356874996711408,0.07626642652648545
-3.9105,0.8890383739595538,-0.01910331912002144
-3.91,0.8463576745288233,-0.1144730647665284
-3.9095,0.79300680024041,-0.1992461720078678
-3.909,0.7503261008096795,-0.2416327256285375
-3.9085,0.6863050516635838,-0.1462629799820306
-3.908,0.6436243522328531,-0.08268314955102604
-3.9075,0.6222840025174878,-0.08268314955102604
-3.907,0.6222840025174878,0.02328323450064829
-3.9065,0.7503261008096795,-0.09327978795619347
-3.906,0.6863050516635838,-0.6019184314042303
-3.9055,-0.1459685872356623,-1.0999604364471
-3.905,-1.074273799854052,-1.290699927740113
-3.9045,-1.767835165603424,-1.152943628472937
-3.904,-2.344024607918286,-0.8986243067489184
-3.9035,-2.173301810195364,-0.5913217929990628
-3.903,-1.277007122150022,-0.1674562567923655
-3.9025,-0.4447334832507763,0.4365521323021782
-3.902,0.142126133921769,1.199510097474233
-3.9015,0.4835717293676135,1.930678147430786
-3.901,0.6222840025174878,2.407526875663321
-3.9005,0.6436243522328531,2.555879813335665
-3.9,0.6009436528021226,2.460510067689158
-3.8995,0.5689331282290746,2.280367214801311
-3.899,0.5369226036560266,2.036644531482461
-3.8985,0.5049120790829789,1.6657621873016
-3.898,0.1101156093487211,0.7862411996727035
-3.8975,-0.754168554123573,-0.2840192792492073
-3.897,-1.586442193022819,-1.131750351662602
-3.8965,-1.853196564464885,-1.714565463946811
-3.896,-1.116954499284783,-1.598002441489969
-3.8955,-0.2420001609548061,-0.9833974139902578
-3.895,0.3875401556484697,-0.474758770542221
-3.8945,0.707645401378949,-0.2204394488182027
-3.894,0.825017324813458,-0.1462629799820306
-3.8935,0.8143471499557753,-0.1992461720078678
-3.893,0.7609962756673623,-0.252229364033705
-3.8925,0.7503261008096795,-0.3581957480853793
-3.892,0.7289857510943143,-0.3370024712750445
-3.8915,0.6863050516635838,-0.2416327256285375
-3.891,0.6329541773751706,-0.1038764263613609
-3.8905,0.6116138276598051,-0.06148987274069118
-3.89,0.6329541773751706,-0.008506680714854012
-3.8895,0.9850699476786977,-0.326405832869877
-3.889,0.6436243522328531,-0.8562377531282487
-3.8885,-0.3593720843893152,-1.248313374119443
-3.888,-1.255666772434657,-1.301296566145281
-3.8875,-1.970568487899394,-1.121153713257435
-3.887,-2.03458953704549,-0.8456411147230812
-3.8865,-1.30901764672307,-0.4535654937318862
-3.886,-0.5087545323968721,0.1186529801471552
