Class_2_Relax_eyes_open/Class_2_Relax_eyes_open_SH_3.csv

#Digilent WaveForms Oscilloscope Acquisition
#Device Name: EExplorer
#Serial Number: SN:210151A2B84A
#Date Time: 2020-12-03 11:46:22.444
#Sample rate: 2000Hz
#Samples: 16384
#Trigger: Source: Channel 1 Type: Edge Condition: Rising Level: 0 V Hyst.: Auto HoldOff: 0 s
#Channel 1: Range: 1 V/div Offset: 0 V Attenuation: 1 X
#Channel 2: Range: 1 V/div Offset: 0 V Attenuation: 1 X
#Power Supplies: ON
#Fixed Supply: ON
#Voltage: 3.3 V Readback: 3.331 V
#Positive Supply: ON
#Voltage: 3.7 V Readback: 3.747 V
#Current: 40 mA Readback: 16 mA
#Negative Supply: ON
#Voltage: -3.7 V Readback: -3.45 V
#Current: -40 mA Readback: -9 mA
#Reference 1: ON
#Voltage: 0 V
#Reference 2: ON
#Voltage: 0 V

Time (s),Channel 1 (V),Channel 2 (V)
-4.096,0.857027849386506,-0.01910331912002144
-4.0955,0.7503261008097766,0.07626642652639871
-4.095,0.6436243522327851,0.2140227257937874
-4.0945,0.5689331282290746,0.3517790250608387
-4.094,0.4729015545100183,0.3517790250608387
-4.0935,-0.1886492866669266,-0.6231117082152975
-4.093,-0.7755089038389382,-1.42845622700729
-4.0925,-1.330357996437931,-1.979481424075495
-4.092,-1.853196564464846,-2.138431000153171
-4.0915,-1.810515865034154,-1.767548655972648
-4.091,-1.138294849000148,-0.8032545611024114
-4.0905,-0.4660738329656854,0.07626642652706371
-4.09,0.03542438534494258,0.7120647308365314
-4.0895,0.3448594562177392,1.082947075017392
-4.089,0.5049120790828333,1.231300012689601
-4.0885,0.5475927785137094,1.25249328950007
-4.088,0.5582629533713921,1.199510097474233
-4.0875,0.536922603656046,1.125333628638129
-4.087,0.50491207908294,1.061753798206999
-4.0865,0.4622313796522482,0.9981739677760521
-4.086,0.4195506802215564,0.9557874141554209
-4.0855,0.003413860771215338,0.63788826200008
-4.085,-0.7434983792658902,0.3305857482505039
-4.0845,-1.415719395299285,-0.3793890248950685
-4.084,-1.682473766741487,-1.004590690800429
-4.0835,-1.159635198715513,-0.8244478379127463
-4.083,-0.4447334832507763,-0.3158091944647096
-4.0825,0.1421261339221183,0.06566978812143368
-4.082,0.5262524287983441,0.1928294489833272
-4.0815,0.7183155762366316,0.2352160026039969
-4.081,0.7609962756673234,0.2034260873885236
-4.0805,0.7396559259519968,0.1610395337678249
-4.08,0.825017324813458,0.1292496185523226
-4.0795,0.8570278493864769,0.108056341742007
-4.079,0.7823366253826305,0.1716361721730791
-4.0785,0.6756348768059011,0.2670059178194992
-4.078,0.5902734779445175,0.3729723018710772
-4.0775,0.5689331282292978,0.4365521323020625
-4.077,0.8143471499557753,0.309392471440169
-4.0765,0.5262524287986061,-0.1992461720074052
-4.076,0.09944543449045616,-0.8350444763185788
-4.0755,-0.5407650569699201,-1.566212526274467
-4.075,-1.084943974711735,-1.873515040024322
-4.0745,-0.8181896032692417,-1.174136905282453
-4.074,-0.3487019095316325,-0.2734226408440398
-4.0735,0.01408403562957729,0.4153588554918433
-4.073,0.2701682322137278,0.892207583723944
-4.0725,0.4302208550792003,1.157123543853563
-4.072,0.4942419042252961,1.273686566310405
-4.0715,0.5155822539406419,1.305476481525879
-4.071,0.5155822539406517,1.305476481525898
-4.0705,0.5049120790829789,1.29487984312074
-4.07,0.47290155450996,1.284283204715582
-4.0695,0.4408910299366889,1.273686566310251
-4.069,0.2274875327832301,1.104140351827727
-4.0685,-0.2206598112394408,0.701468092431364
-4.068,-0.7114878546931139,0.06566978812053738
-4.0675,-1.010252750707956,-0.792657922697244
-4.067,-0.7861790786966207,-0.9516074987747555
-4.0665,-0.3166913849581964,-0.6019184314038448
-4.066,0.1101156093487211,-0.1780528951975329
-4.0655,0.4302208550792003,0.05507314971615059
-4.065,0.6009436528019674,0.1186529801470974
-4.0645,0.6969752265212663,0.07626642652648545
-4.064,0.7183155762366316,0.07626642652648545
-4.0635,0.7823366253826693,0.01268659609553868
-4.063,0.9637295979632743,-0.1038764263612742
-4.0625,0.8997085488172365,-0.008506680714854012
-4.062,0.7609962756674884,0.1716361721728285
-4.0615,0.6436243522327851,0.3517790250609736
-4.061,0.5689331282290746,0.5001319627331828
-4.0605,0.6756348768059011,0.4895353243280153
-4.06,1.017080472250872,0.6060983467839511
-4.0595,0.05676473506030786,-0.3899856633008816
-4.059,-0.8928808272734472,-1.301296566145281
-4.0585,-1.661133417025899,-1.862918401618644
-4.058,-1.67180359188428,-1.693372187136476
-4.0575,-1.010252750707956,-0.8138511995075789
-4.057,-0.2953510352438695,0.08686306493083362
-4.0565,0.1314559590640864,0.6484849004055269
-4.056,0.3768699807907871,0.9663840525605498
-4.0555,0.4835717293675165,1.114736990232759
-4.055,0.5155822539406614,1.167720182258731
-4.0545,0.5155822539406614,1.167720182258731
-4.054,0.4942419042253156,1.167720182258731
-4.0535,0.4622313796522385,1.178316820663898
-4.053,0.4515612047945656,1.178316820663898
-4.0525,0.3448594562177392,1.104140351827727
-4.052,-0.3060212101016007,0.5849050699738765
-4.0515,-1.074273799854052,-0.1250697031716958
-4.051,-1.426389570157579,-1.01518732920576
-4.0505,-1.212986073004121,-1.375473034981125
-4.05,-0.658136980404429,-0.9833974139902578
-4.0495,-0.08194753808956648,-0.3687923864905467
-4.049,0.3235191065020051,0.06566978812092289
-4.0485,0.5689331282291911,0.2776025562246956
-4.048,0.6969752265212663,0.309392471440169
-4.0475,0.7396559259519579,0.2881991946298534
-4.047,0.7289857510944211,0.2140227257935175
-4.0465,0.8463576745288233,0.05507314971615059
-4.046,0.8250173248134774,0.05507314971615059
-4.0455,0.7289857510942173,0.1186529801472516
-4.045,0.6222840025174878,0.2246193641988295
-4.0445,0.5475927785137094,0.3305857482505039
-4.044,0.4942419042250244,0.277602556224233
-4.0435,0.1954770082101822,-0.1992461720078678
-4.043,-0.4127229586777283,-0.8562377531282487
-4.0425,-1.501080794160368,-1.841725124807924
-4.042,-1.917217613610981,-2.064254531317336
-4.0415,-1.67180359188428,-1.661582271920973
-4.041,-0.9782422261355392,-0.7396747306722453
-4.0405,-0.2313299860967159,0.2140227257942018
-4.04,0.2168173579255475,0.8074344764830383
-4.0395,0.4195506802213332,1.093543713422299
-4.039,0.5049120790829983,1.199510097474243
-4.0385,0.5262524287983441,1.210106735879401
-4.038,0.515582253940671,1.16772018225877
-4.0375,0.4835717293675941,1.114736990232865
-4.037,0.4622313796522482,1.082947075017392
-4.0365,0.4408910299368829,1.061753798207057
-4.036,0.4088805053634275,1.040560521396481
-4.0355,-0.03926683865883591,0.775644561267536
-4.035,-0.9035510021311299,0.4259554938970107
-4.0345,-1.565101843306852,-0.3475991096795082
-4.034,-1.959898313041711,-1.025783967610927
-4.0335,-1.821186039891837,-1.078767159636765
-4.033,-1.095614149570077,-0.6231117082149795
-4.0325,-0.3060212101004167,-0.08268314955067908
-4.032,0.2274875327832301,0.2987958330350016
-4.0315,0.5262524287980724,0.4153588554917373
-4.031,0.6542945270905649,0.362375663465929
-4.0305,0.6863050516635838,0.2776025562246667
-4.03,0.8356874996710049,0.09745970333698414
-4.0295,0.9103787236748416,-0.00850668071477691
-4.029,0.825017324813458,0.07626642652648545
-4.0285,0.707645401378949,0.2246193641988295
-4.028,0.6116138276596886,0.3411823866556231
-4.0275,0.4835717293676135,0.2881991946298341
-4.027,0.2808384070716433,-0.718481453861072
-4.0265,0.1848068333525869,-1.523825972653065
-4.026,-0.690147504977477,-2.138431000153508
-4.0255,-1.533091318734406,-2.244397384205182
-4.025,-1.938557963325977,-2.053657892912342
-4.0245,-1.501080794160727,-1.269506650928959
-4.024,-0.807519428411986,-0.3687923864905467
-4.0235,-0.1993194615246286,0.3517790250601834
-4.023,0.2168173579257513,0.8074344764832407
-4.0225,0.4408910299368829,1.029963882991555
-4.022,0.5369226036559392,1.093543713422501
-4.0215,0.5582629533713824,1.082947075017344
-4.021,0.5475927785137094,1.029963882991555
-4.0205,0.5049120790829789,0.9769806909657173
-4.02,0.4622313796522094,0.9451907757502053
-4.0195,0.4195506802215176,0.9345941373450475
-4.019,0.2061471830678648,0.701468092431364
-4.0185,-0.5727755815422596,-0.1674562567915753
-4.018,-1.277007122150022,-1.121153713257435
-4.0175,-1.682473766741963,-1.75695201756748
-4.017,-1.778505340461019,-1.714565463946849
-4.0165,-1.202315898145613,-0.9304142219637268
-4.016,-0.5087545323968721,-0.1674562567923655
-4.0155,0.0887752596328123,0.2246193641984729
-4.015,0.4622313796524132,0.3305857482504942
-4.0145,0.6436243522328531,0.3199891098453364
-4.014,0.6969752265212178,0.2564092794143896
-4.0135,0.7823366253828536,0.1080563417418432
-4.013,0.9210488985326017,-0.05089323433552374
-4.0125,0.8676980242441885,0.01268659609548085
-4.012,0.7503261008095727,0.1716361721731273
-4.0115,0.6329541773751706,0.3199891098453364
-4.011,0.5689331282290746,0.4259554938970107
-4.0105,0.4622313796523452,0.1716361721732236
-4.01,0.1207857842064037,-0.2946159176543747
-4.0095,-0.5194247072545548,-0.8880276683437509
-4.009,-1.277007122149333,-1.534422611058377
-4.0085,-1.789175515318449,-1.873515040023879
-4.008,-1.415719395299897,-1.38606967338662
-4.0075,-0.7541685541241746,-0.5595318777843122
-4.007,-0.1886492866660338,0.1504428953631105
-4.0065,0.2061471830678648,0.6484849004055269
-4.006,0.4195506802215176,0.9345941373450475
-4.0055,0.5155822539406905,1.072350436612253
-4.005,0.5475927785137094,1.104140351827727
-4.0045,0.5369226036560266,1.104140351827727
-4.004,0.5155822539406225,1.104140351827717
-4.0035,0.4729015545099309,1.093543713422559
-4.003,0.4408910299368829,1.104140351827727
-4.0025,0.3128489316448077,1.04056052139678
-4.002,-0.03926683865883591,0.6802748156210291
-4.0015,-0.391382608962363,0.2776025562246667
-4.001,-0.8395299529846264,-0.5807251545931148
-4.0005,-0.8502001278423673,-1.025783967610687
-4,-0.4660738329661415,-0.7608680074817418
-3.9995,-0.01792648894347063,-0.3158091944647096
-3.999,0.3768699807907871,0.08686306493165288
-3.9985,0.6116138276598051,0.3623756634660061
-3.998,0.7289857510943143,0.3517790250608387
-3.9975,0.7396559259519968,0.2987958330350016
-3.997,0.7396559259519968,0.2034260873884947
-3.9965,0.8997085488172365,0.002089957690313421
-3.996,0.8890383739595538,0.02328323450064829
-3.9955,0.7823366253827275,0.1610395337678249
-3.995,0.6649647019482183,0.3305857482505039
-3.9945,0.5796033030867573,0.4895353243280153
-3.994,0.5262524287983441,0.5001319627331828
-3.9935,0.4195506802215176,0.2034260873884947
-3.993,-0.5621054066852853,-0.8562377531282487
-3.9925,-1.426389570157579,-1.51322933424863
-3.992,-1.917217613610981,-1.831128486403653
-3.9915,-1.554431668449771,-1.34368311976595
-3.991,-0.754168554123573,-0.3793890248957141
-3.9905,-0.124628237520297,0.3729723018711736
-3.99,0.2381577076409128,0.8074344764830383
-3.9895,0.4302208550792003,1.029963882991555
-3.989,0.5155822539406614,1.114736990232894
-3.9885,0.5262524287983441,1.093543713422559
-3.988,0.5155822539406614,1.040560521396722
-3.9875,0.4942419042252961,0.9875773293708847
-3.987,0.4729015545099309,0.9663840525605498
-3.9865,0.4408910299368829,0.9451907757502149
-3.986,0.3982103305061524,0.9134008605347127
-3.9855,-0.07127736323188383,0.5425185163538525
-3.985,-0.9569018764195432,-0.3370024712750445
-3.9845,-1.661133417026597,-1.227120097309109
-3.984,-1.981238662757077,-1.619195718300304
-3.9835,-1.639793067311232,-1.216523458903942
-3.983,-0.8822106524157645,-0.5171453241628908
-3.9825,-0.156638762093345,0.03387987290581572
-3.982,0.3661998059331045,0.2776025562246667
-3.9815,0.6436243522328531,0.309392471440169
-3.981,0.7503261008096795,0.2352160026039969
-3.9805,0.7609962756673623,0.1822328105781598
-3.98,0.9210488985326017,-0.04029659593035631
-3.9795,0.9957401225363802,-0.1356663415768632
-3.979,0.8890383739595538,-0.008506680714854012
-3.9785,0.7396559259519968,0.2034260873884947
-3.978,0.6116138276598051,0.3941655786815084
-3.9775,0.5902734779444399,0.5001319627331828
-3.977,1.027750647109428,0.5637117931641874
-3.9765,0.6329541773751706,-0.008506680714854012
-3.976,-0.4340633083930936,-0.8880276683437509
-3.9755,-1.405049220442214,-1.587405803084801
-3.975,-2.03458953704549,-1.990078062481164
-3.9745,-1.586442193022819,-1.375473034981453
-3.974,-0.7968492535543035,-0.4429688553267188
-3.9735,-0.1779791118087102,0.2670059178194992
-3.973,0.2168173579255475,0.7120647308365314
-3.9725,0.4302208550792003,0.9557874141553824
-3.972,0.5155822539406614,1.051157159801889
-3.9715,0.5369226036560266,1.061753798207057
-3.971,0.5262524287983441,1.040560521396722
-3.9705,0.5049120790829789,1.040560521396722
-3.97,0.4729015545099309,1.051157159801889
-3.9695,0.4408910299368829,1.051157159801889
-3.969,0.1848068333524996,0.775644561267536
-3.9685,-0.5834457564006506,0.3517790250608387
-3.968,-1.26633694729234,-0.2310360872233701
-3.9675,-1.554431668449771,-0.9939940523954253
-3.967,-1.394379045584531,-1.184733543688439
-3.9665,-0.807519428411986,-0.7396747306714069
-3.966,-0.156638762093345,-0.2204394488182027
-3.9655,0.3341892813600565,0.1610395337678249
-3.965,0.6222840025174878,0.3623756634660061
-3.9645,0.7289857510943143,0.4365521323021782
-3.964,0.7396559259519968,0.4047622170866759
-3.9635,0.79300680024041,0.2246193641988295
-3.963,0.8890383739595538,0.03387987290581572
-3.9625,0.825017324813458,0.07626642652648545
-3.962,0.707645401378949,0.1928294489833272
-3.9615,0.6009436528021226,0.3305857482505039
-3.961,0.5475927785137094,0.4683420475176805
-3.9605,0.8036769750980928,0.627291623595192
-3.96,1.273164668836129,0.9134008605347127
-3.9595,0.6756348768059011,0.3623756634660061
-3.959,-0.754168554123573,-0.8562377531282487
-3.9585,-1.799845690176472,-1.682775548731308
-3.958,-1.885207089037933,-1.672178910326141
-3.9575,-1.319687821580753,-0.9833974139902578
-3.957,-0.5514352318276028,-0.1144730647665284
-3.9565,0.0674349099179905,0.5743084315693548
-3.956,0.3555296310754218,0.92399749893988
-3.9555,0.4835717293676135,1.072350436612224
-3.955,0.5155822539406614,1.135930267043229
-3.9545,0.5155822539406614,1.125333628638062
-3.954,0.4835717293676135,1.114736990232894
-3.9535,0.4622313796522482,1.104140351827727
-3.953,0.4515612047945656,1.104140351827727
-3.9525,0.3021787567870086,1.019367244586387
-3.952,-0.4340633083930936,0.3411823866556712
-3.9515,-1.223656247861609,-0.5595318777835605
-3.951,-1.586442193022819,-1.42845622700729
-3.9505,-1.682473766741963,-1.725162102351978
-3.95,-1.212986073003927,-1.205926820498774
-3.9495,-0.5514352318276028,-0.474758770542221
-3.949,0.03542438534494258,0.06566978812131802
-3.9485,0.4195506802215176,0.2881991946298341
-3.948,0.6329541773751706,0.309392471440169
-3.9475,0.7183155762366316,0.2352160026039969
-3.947,0.7503261008096795,0.1080563417419877
-3.9465,0.9317190733902845,-0.1568596183871981
-3.946,0.9317190733902845,-0.1780528951975329
-3.9455,0.825017324813458,-0.04029659593035631
-3.945,0.6969752265212663,0.1292496185523226
-3.9445,0.6009436528021226,0.2881991946298341
-3.944,0.6649647019482183,0.3517790250608387
-3.9435,1.187803269974668,0.457745409112513
-3.943,1.006410297394063,0.1716361721729923
-3.9425,0.2061471830678648,-0.4959520473525559
-3.942,-0.9142211769888124,-1.407262950196955
-3.9415,-0.9675720512772257,-1.174136905283272
-3.941,-0.6047861061160158,-0.4959520473525559
-3.9405,-0.1779791118087102,0.1716361721729923
-3.94,0.2381577076409128,0.7438546460520338
-3.9395,0.4195506802215176,1.00877060618122
-3.939,0.4729015545099309,1.104140351827727
-3.9385,0.4835717293676135,1.114736990232894
-3.938,0.4729015545099309,1.093543713422559
-3.9375,0.4622313796522482,1.072350436612224
-3.937,0.4408910299368829,1.082947075017392
-3.9365,0.4195506802215176,1.114736990232894
-3.936,0.3661998059331045,1.146526905448396
-3.9355,-0.1993194615240755,0.6590815388106942
-3.935,-1.095614149569417,-0.400582301706049
-3.9345,-1.618452717595867,-1.375473034981453
-3.934,-1.757164990745741,-1.894708316834657
-3.9335,-1.30901764672307,-1.534422611058964
-3.933,-0.5941159312583333,-0.8032545611024114
-3.9325,0.00341386077189465,-0.2204394488182027
-3.932,0.4195506802215176,0.07626642652648545
-3.9315,0.6436243522328531,0.1080563417419877
-3.931,0.7396559259519968,0.1080563417419877
-3.9305,0.7396559259519968,0.09745970333682032
-3.93,0.9103787236749192,-0.08268314955102604
-3.9295,0.974399772821015,-0.1568596183871981
-3.929,0.857027849386506,-0.02969995752518888
-3.9285,0.707645401378949,0.1504428953626575
-3.928,0.5902734779444399,0.3199891098453364
-3.9275,0.5689331282290746,0.383568940276341
-3.927,0.974399772821015,0.4047622170866759
-3.9265,0.5689331282290746,-0.1568596183871981
-3.926,-0.274010685527854,-0.8774310299385835
-3.9255,-1.234326422719292,-1.502632695843462
-3.925,-1.789175515318789,-1.809935209593318
-3.9245,-1.330357996438436,-1.174136905283272
-3.924,-0.6367966306890638,-0.3052125560595421
-3.9235,-0.1139580626626144,0.3411823866556712
-3.923,0.2381577076409128,0.775644561267536
-3.9225,0.4302208550792003,1.019367244586387
-3.922,0.5049120790829789,1.125333628638062
-3.9215,0.5262524287983441,1.146526905448396
-3.921,0.5155822539406614,1.135930267043229
-3.9205,0.4942419042252961,1.135930267043229
-3.92,0.4622313796522482,1.157123543853563
-3.9195,0.408880505363835,1.167720182258731
-3.919,0.05676473506030786,0.92399749893988
-3.9185,-0.839529952985034,-0.02969995752518888
-3.918,-1.51175096901904,-1.078767159636765
-3.9175,-1.799845690176472,-1.725162102351978
-3.917,-1.373038695869166,-1.375473034981453
-3.9165,-0.6154562809736985,-0.5807251545938954
-3.916,0.04609456020262521,0.05507314971615059
-3.9155,0.4729015545099309,0.2987958330350016
-3.915,0.6436243522328531,0.3517790250608387
-3.9145,0.6863050516635838,0.2987958330350016
-3.914,0.6863050516635838,0.2246193641988295
-3.9135,0.7823366253827275,0.01268659609548085
-3.913,0.9317190733902845,-0.1780528951975329
-3.9125,0.8676980242441885,-0.1144730647665284
-3.912,0.7503261008096795,0.03387987290581572
-3.9115,0.6329541773751706,0.2140227257936621
-3.911,0.5582629533713921,0.3729723018711736
-3.9105,0.825017324813458,0.4789386859228479
-3.91,1.027750647109428,0.4789386859228479
-3.9095,-0.1993194615240755,-0.6760949002404023
-3.909,-1.074273799854052,-1.375473034981453
-3.9085,-1.693143941599645,-1.820531847998485
-3.908,-1.426389570157579,-1.38606967338662
-3.9075,-0.7114878546928423,-0.4429688553267188
-3.907,-0.124628237520297,0.3199891098453364
-3.9065,0.2168173579255475,0.775644561267536
-3.906,0.408880505363835,1.040560521396722
-3.9055,0.4942419042252961,1.146526905448396
-3.905,0.5155822539406614,1.167720182258731
-3.9045,0.5049120790829789,1.146526905448396
-3.904,0.4835717293676135,1.114736990232894
-3.9035,0.4622313796522482,1.104140351827727
-3.903,0.4302208550792003,1.114736990232894
-3.9025,0.2594980573562781,0.9769806909657173
-3.902,-0.5087545323968721,0.3729723018711736
-3.9015,-1.394379045584531,-0.2734226408440398
-3.901,-1.895877263895616,-1.110557074852267
-3.9005,-1.767835165603424,-1.364876396576285
-3.9,-1.031593100423322,-0.8350444763179138
-3.8995,-0.2633405106701714,-0.2734226408440398
-3.899,0.291508581929326,0.05507314971615059
-3.8985,0.5796033030867573,0.2246193641988295
-3.898,0.6969752265212663,0.2034260873884947
-3.8975,0.7183155762366316,0.1292496185523226
-3.897,0.7396559259519968,0.07626642652648545
-3.8965,0.8890383739595538,-0.02969995752518888
-3.896,0.857027849386506,0.002089957690313421
-3.8955,0.7503261008096795,0.09745970333682032
-3.895,0.6436243522328531,0.2246193641988295
-3.8945,0.5689331282290746,0.3411823866556712
-3.894,0.6009436528021226,0.2670059178194992
-3.8935,0.9103787236749192,0.1186529801471552
-3.893,0.5902734779444399,-0.3370024712750445
-3.8925,-0.6794773301197943,-1.449649503817625
-3.892,-1.116954499284783,-1.51322933424863
-3.8915,-0.839529952985034,-0.8350444763179138
-3.891,-0.423393133535411,-0.1144730647665284
-3.8905,0.03542438534494258,0.5319218779486851
-3.89,0.3555296310754218,0.9451907757502149
-3.8895,0.4408910299368829,1.082947075017392
-3.889,0.4729015545099309,1.104140351827727
-3.8885,0.4729015545099309,1.093543713422559
-3.888,0.4622313796522482,1.051157159801889
-3.8875,0.4515612047945656,1.019367244586387
-3.887,0.4302208550792003,1.019367244586387
-3.8865,0.4195506802215176,1.029963882991555
-3.886,0.3768699807907871,1.040560521396722
-3.8855,-0.1139580626626144,0.5743084315693548
-3.885,-0.8502001278427167,-0.1250697031716958
