Class_2_Relax_eyes_open/Class_2_Relax_Eyes_open_Zakour_7.csv

#Digilent WaveForms Oscilloscope Acquisition
#Device Name: EExplorer
#Serial Number: SN:210151A2B84A
#Date Time: 2020-12-21 15:16:32.556
#Sample rate: 2000Hz
#Samples: 16384
#Trigger: Source: Channel 1 Type: Edge Condition: Rising Level: 0 V Hyst.: Auto HoldOff: 0 s
#Channel 1: Range: 1 V/div Offset: 0 V
#Channel 2: Range: 1 V/div Offset: 0 V

Time (s),Channel 1 (V),Channel 2 (V)
-4.0960000000000001,-1.6291228924535495,1.3054764815259077
-4.0955000000000004,-1.1062843244275755,0.69087145402675554
-4.0949999999999998,-0.25267033581191617,-0.17805289519823647
-4.0945,0.3768699807907871,-0.95160749877475548
-4.0940000000000003,0.72898575109399411,-1.4496495038171719
-4.0934999999999997,0.85702784938651566,-1.8099352095934527
-4.093,0.86769802424418851,-1.9582881472656615
-4.0925000000000002,0.88903837395953433,-1.8311284864037682
-4.0919999999999996,1.070431346540081,-1.2589100125243893
-4.0914999999999999,0.98506994767869771,-1.01518732920576
-4.0910000000000002,0.80367697509809277,-0.98339741399025782
-4.0904999999999996,0.63295417737506376,-0.96220413717982656
-4.0899999999999999,0.51558225394066137,-0.85623775312824868
-4.0895000000000001,0.66496470194821833,-0.9304142219644207
-4.0890000000000004,0.899708548817023,-1.4072629501965215
-4.0884999999999998,0.28083840707164331,-1.2695066509297783
-4.0880000000000001,-0.51942470725455481,-0.43237221692155131
-4.0875000000000004,-1.1596351987149309,0.42595549389623016
-4.0869999999999997,-1.0529334501382792,1.0617537982073846
-4.0865,-0.6047861061160158,1.4220395039827496
-4.0860000000000003,-0.16730893695142551,1.5386025264394851
-4.0854999999999997,0.1527963087796069,1.3690563119565557
-4.085,0.32351910650237387,0.97698069096571727
-4.0845000000000002,0.39821033050608445,0.56371179316456321
-4.0839999999999996,0.40888050536381559,0.2881991946298823
-4.0834999999999999,0.38754015564846972,0.34118238665567124
-4.0830000000000002,0.34485945621773917,0.52132523954351762
-4.0824999999999996,0.31284893164467181,0.60609834678492458
-4.0819999999999999,0.29150858192932599,0.68027481562102909
-4.0815000000000001,0.16346648363713429,0.84982103010370802
-4.0810000000000004,-0.10328788780468912,1.0935437134223376
-4.0804999999999998,-0.50875453239687207,1.2948798431207402
-4.0800000000000001,-0.88221065241576446,1.4220395039827496
-4.0795000000000003,-1.2343264227189716,1.347863035146645
-4.0789999999999997,-1.2983474718648829,0.98757732937019083
-4.0785,-0.74349837926589024,0.2246193641988295
-4.0780000000000003,-0.071277363232495228,-0.5595318777828473
-4.0774999999999997,0.43022085507941382,-1.152943628473226
-4.077,0.66496470194821833,-1.4708427806279598
-4.0765000000000002,0.72898575109425612,-1.4602461422228019
-4.0759999999999996,0.75032610080983486,-1.3436831197659505
-4.0754999999999999,0.92104889853260175,-1.3436831197659505
-4.0750000000000002,0.92104889853260175,-1.2695066509297783
-4.0744999999999996,0.78233662538259163,-1.0999604364468876
-4.0739999999999998,0.63295417737517057,-0.86683439153341613
-4.0735000000000001,0.51558225394066137,-0.62311170821456507
-4.0730000000000004,0.50491207908298852,-0.44296885532688257
-4.0724999999999998,0.83568749967114075,-0.77146464588690922
-4.0720000000000001,0.35552963107542179,-1.131750351662602
-4.0715000000000003,-0.54076505696910493,-0.65490162343050118
-4.0709999999999997,-1.3303579964387946,0.065669788121925185
-4.0705,-1.7251544661726932,0.73325800764686633
-4.0700000000000003,-1.3303579964387946,1.0935437134222314
-4.0694999999999997,-0.69014750497699173,1.0617537982067389
-4.069,-0.15663876209334496,0.71206473083653143
-4.0685000000000002,0.18480683335249956,0.24581264100916439
-4.0679999999999996,0.36619980593315299,-0.10387642636152475
-4.0674999999999999,0.41955068022151765,-0.28401927924920728
-4.0670000000000002,0.40888050536383502,-0.24163272562853755
-4.0664999999999996,0.35552963107536356,0.12924961855261174
-4.0659999999999998,0.29150858192932599,0.4471487707073456
-4.0655000000000001,0.22748753278323011,0.69087145402619654
-4.0650000000000004,0.17413665849486543,0.93459413734482588
-4.0644999999999998,-0.13529841237797968,1.1783168206638983
-4.0640000000000001,-0.88221065241576446,1.3690563119569124
-4.0635000000000003,-1.6184527175951975,1.47502269600849
-4.0629999999999997,-1.8852070890378165,1.4432327807929013
-4.0625,-1.7571649907457412,1.241896651094903
-4.0620000000000003,-1.0102527507086356,0.52132523954417298
-4.0614999999999997,-0.16730893695048416,-0.29461591765486617
-4.0609999999999999,0.43022085507920033,-0.83504447631791379
-4.0605000000000002,0.75032610080967954,-1.1847335436884392
-4.0599999999999996,0.85702784938648657,-1.2906999277400362
-4.0594999999999999,0.83568749967114075,-1.2059268204987741
-4.0590000000000002,0.91037872367491923,-0.84564111472308123
-4.0585000000000004,0.94238924824793791,-0.61251506980960968
-4.0579999999999998,0.81434714995577528,-0.57012851618872795
-4.0575000000000001,0.66496470194821833,-0.51714532416289083
-4.0570000000000004,0.53692260365614308,-0.42177557851647063
-4.0564999999999998,0.47290155450993088,-0.31580919446470956
-4.056,0.81434714995577528,-0.59132179299906285
-4.0555000000000003,0.80367697509810243,-1.1847335436878996
-4.0549999999999997,-0.039266838659728728,-1.5556158878691837
-4.0545,-1.0209229255656389,-1.42845622700729
-4.0540000000000003,-1.6291228924529964,-0.57012851618950855
-4.0534999999999997,-1.394379045583988,0.31998910984580864
-4.0529999999999999,-0.79684925355430347,0.83922439169854057
-4.0525000000000002,-0.24200016095480609,0.84982103010370802
-4.0519999999999996,0.13145595906427074,0.48953532432761054
-4.0514999999999999,0.33418928136005654,0.044476511310983152
-4.0510000000000002,0.40888050536383502,-0.28401927924920728
-4.0505000000000004,0.41955068022150793,-0.46416213213688973
-4.0499999999999998,0.3768699807907871,-0.49595204735255594
-4.0495000000000001,0.30217875678700862,-0.43237221692155131
-4.0490000000000004,0.25949805735631687,-0.37938902489576232
-4.0484999999999998,0.22748753278315248,-0.20984281041260155
-4.048,0.14212613392176898,0.26700591781949923
-4.0475000000000003,-0.071277363231689733,0.72266136924128443
-4.0469999999999997,-0.4980843575396165,1.0829470750176133
-4.0465,-0.96757205127722568,1.3266697583362426
-4.0460000000000003,-1.4584000947301807,1.4008462271723472
-4.0454999999999997,-1.4050492204416221,0.94519077574945354
-4.0449999999999999,-0.75416855412357298,0.10805634174198775
-4.0445000000000002,-0.06060718837420119,-0.61251506980939763
-4.0439999999999996,0.40888050536404852,-1.0681705212317418
-4.0434999999999999,0.64362435223285308,-1.227120097309109
-4.0430000000000001,0.71831557623663156,-1.2589100125246109
-4.0425000000000004,0.80367697509801517,-1.1423469900678753
-4.0419999999999998,1.0704313465401587,-0.94101086036958814
-4.0415000000000001,1.0384208219671107,-0.88802766834375091
-4.0410000000000004,0.83568749967132516,-0.78206128429217292
-4.0404999999999998,0.64362435223272696,-0.63370834661956865
-4.04,0.50491207908297886,-0.4535654937318862
-4.0395000000000003,0.61161382765970806,-0.34759910968030822
-4.0389999999999997,0.75032610080904871,-0.77146464588715014
-4.0385,0.05676473506030786,-1.0363806060160949
-4.0380000000000003,-0.82885977812654599,-0.61251506980978321
-4.0374999999999996,-1.5437614935920496,0.11865298014776235
-4.0369999999999999,-1.5010807941613578,0.78624119967270345
-4.0365000000000002,-0.94623170156186043,1.2313000126897355
-4.0359999999999996,-0.37004225924661932,1.3372663967411595
-4.0354999999999999,0.046094560202625215,1.0617537982070568
-4.0350000000000001,0.29150858192932599,0.5637117931641874
-4.0345000000000004,0.39821033050605537,0.097459703337244352
-4.0339999999999998,0.41955068022151765,-0.19924617200786782
-4.0335000000000001,0.3982103305061524,-0.29461591765437467
-4.0330000000000004,0.34485945621778769,-0.13566634157700774
-4.0324999999999998,0.27016823221391217,0.17163617217335858
-4.032,0.21681735792554749,0.57430843156935485
-4.0315000000000003,0.13145595906416399,0.93459413734471974
-4.0309999999999997,-0.35937208438993623,0.90280422212866829
-4.0305,-1.0422632752810042,-0.061489872740691176
-4.0300000000000002,-1.2983474718651546,-0.34759910967995161
-4.0294999999999996,-1.5437614935920303,0.065669788121481859
-4.0289999999999999,-1.4797404444459925,0.24581264100916439
-4.0285000000000002,-0.82885977812735145,-0.12506970317169577
-4.0279999999999996,-0.10328788780445623,-0.58072515459428087
-4.0274999999999999,0.41955068022151765,-1.0045906908005926
-4.0270000000000001,0.6863050516635838,-1.2801032893349458
-4.0265000000000004,0.76099627566729433,-1.375473034981366
-4.0259999999999998,0.78233662538272752,-1.3012965661452807
-4.0255000000000001,0.98506994767869771,-0.99399405239542526
-4.0250000000000004,0.99574012253637056,-0.90922094515416285
-4.0244999999999997,0.86769802424403319,-0.87743102993852562
-4.024,0.69697522652126631,-0.81385119950757889
-4.0235000000000003,0.54759277851384525,-0.67609490024052765
-4.0229999999999997,0.52625242879861578,-0.6019184314046061
-4.0225,0.82501732481345802,-1.01518732920576
-4.0220000000000002,0.36619980593352175,-1.2271200973089162
-4.0214999999999996,-0.51942470725532142,-0.61251506980870374
-4.0209999999999999,-1.3623685210114835,0.15044289536265748
-4.0205000000000002,-1.7464948158880587,0.81803111488820579
-4.0199999999999996,-1.3410281712955361,1.2101067358794584
-4.0194999999999999,-0.70081767983515975,1.2736865663104053
-4.0190000000000001,-0.15663876209334496,1.0087706061812196
-4.0185000000000004,0.18480683335218903,0.57430843156974998
-4.0179999999999998,0.35552963107542179,0.20342608738849466
-4.0175000000000001,0.41955068022151765,-0.0085066807148540119
-4.0170000000000003,0.40888050536384474,-0.040296595930327396
-4.0164999999999997,0.35552963107535385,0.10805634174215159
-4.016,0.28083840707164331,0.28819919462983412
-4.0155000000000003,0.23815770764095157,0.42595549389688542
-4.0149999999999997,0.20614718306756399,0.68027481562126035
-4.0145,-0.12462823752029703,0.93459413734504748
-4.0140000000000002,-0.88221065241507546,0.72266136924189162
-4.0134999999999996,-1.5010807941616586,0.73325800764698201
-4.0129999999999999,-1.8318562147495197,0.86041766850887547
-4.0125000000000002,-1.9705684878993939,0.78624119967270345
-4.0119999999999996,-1.4584000947298703,0.17163617217232735
-4.0114999999999998,-0.62612645583138127,-0.55953187778356051
-4.0110000000000001,0.099445434491038431,-1.0787671596367647
-4.0105000000000004,0.53692260365562872,-1.4072629501966563
-4.0099999999999998,0.73965592595199681,-1.5662125262744668
-4.0095000000000001,0.80367697509809277,-1.5662125262744668
-4.0090000000000003,0.95305942310551384,-1.280103289335206
-4.0084999999999997,1.1131120459708115,-0.9622041371798844
-4.008,1.0277506471094282,-0.91981758355925325
-4.0075000000000003,0.88903837395967988,-0.91981758355925325
-4.0069999999999997,0.70764540137883258,-0.80325456110227655
-4.0065,0.57960330308675734,-0.65490162343006741
-4.0060000000000002,0.83568749967114075,-0.85623775312824868
-4.0054999999999996,0.73965592595126894,-0.99399405239486627
-4.0049999999999999,-0.06060718837420119,-0.37938902489571413
-4.0045000000000002,-0.94623170156186043,0.34118238665567124
-4.0039999999999996,-1.586442193022654,0.92399749894015948
-4.0034999999999998,-1.405049220442214,1.2313000126897355
-4.0030000000000001,-0.82885977812735145,1.1783168206638983
-4.0025000000000004,-0.27401068552835861,0.83922439169884899
-4.0019999999999998,0.11011560934872107,0.39416557868150842
-4.0015000000000001,0.31284893164469124,0.065669788121318018
-4.0010000000000003,0.40888050536374765,-0.09327978795604891
-4.0004999999999997,0.41955068022149822,-0.093279787956106738
-4,0.3982103305061524,0.0020899576903134209
-3.9994999999999998,0.35552963107542179,0.16103953376782493
-3.9990000000000001,0.30217875678700862,0.31998910984533641
-3.9984999999999999,0.23815770764091276,0.60609834678485708
-3.9980000000000002,0.067434909917990504,0.94519077575021493
-3.9975000000000001,-0.17797911180871023,0.96638405256054982
-3.9969999999999999,-0.14596858723566233,0.065669788121318018
-3.9965000000000002,-0.6047861061160158,-0.86683439153341613
-3.996,-1.0742737998540521,-0.98339741399025782
-3.9954999999999998,-0.90355100213112993,-0.82444783791274634
-3.9950000000000001,-0.31669138495858457,-0.80325456110241145
-3.9944999999999999,0.28083840707164331,-0.91981758355925325
-3.9940000000000002,0.65429452709053582,-1.0575738828264298
-3.9935,0.79300680024041004,-1.1105570748522671
-3.9929999999999999,0.78233662538272752,-1.1211537132574345
-3.9925000000000002,0.80367697509809277,-1.0575738828264298
-3.992,0.94238924824796699,-0.84564111472308123
-3.9914999999999998,0.86769802424418851,-0.85623775312824868
-3.9910000000000001,0.70764540137894905,-0.91981758355925325
-3.9904999999999999,0.55826295337139209,-0.91981758355925325
-3.9900000000000002,0.45156120479456557,-0.84564111472308123
-3.9895,0.54759277851370936,-0.88802766834375091
-3.9889999999999999,0.83568749967114075,-1.4496495038176249
-3.9885000000000002,0.25949805735627807,-1.9370948704553266
-3.988,-0.55143523182760279,-1.3860696733866202
-3.9874999999999998,-1.3837088707268488,-0.34759910968021185
-3.9870000000000001,-1.5651018433074537,0.58490506997452218
-3.9864999999999999,-1.1062843244271001,1.1889134590690658
-3.9860000000000002,-0.50875453239687207,1.4538294191982519
-3.9855,-0.049937013516518552,1.33726639674141
-3.9849999999999999,0.23815770764091276,0.90280422212954525
-3.9845000000000002,0.36619980593310447,0.43655213230217815
-3.984,0.40888050536383502,0.097459703336820316
-3.9834999999999998,0.3982103305061524,0.023283234500648287
-3.9830000000000001,0.33418928136005654,0.13984625695749003
-3.9824999999999999,0.28083840707164331,0.27760255622466667
-3.9820000000000002,0.23815770764091276,0.4471487707073456
-3.9815,0.15279630877945163,0.72266136924169888
-3.9809999999999999,-0.43406330839309365,1.0087706061812196
-3.9805000000000001,-1.2770071221500223,1.2736865663104053
-3.98,-1.7998456901764717,1.4432327807930845
-3.9794999999999998,-2.0345895370454898,1.4538294191982519
-3.9790000000000001,-1.6397930673112322,0.98757732937088472
-3.9784999999999999,-0.77550890383893822,0.17163617217299235
-3.9780000000000002,0.046094560202625215,-0.5807251545938954
-3.9775,0.5689331282290746,-1.1423469900677694
-3.9769999999999999,0.78233662538272752,-1.4072629501969551
-3.9765000000000001,0.82501732481345802,-1.523825972653797
-3.976,0.80367697509809277,-1.5344226110589645
-3.9754999999999998,0.96372959796333246,-1.2377167357142764
-3.9750000000000001,0.99574012253638022,-0.97280077558509037
-3.9744999999999999,0.86769802424418851,-0.80325456110241145
-3.9740000000000002,0.69697522652126631,-0.65490162343006741
-3.9735,0.55826295337139209,-0.49595204735255594
-3.9729999999999999,0.53692260365602662,-0.40058230170604903
-3.9725000000000001,0.97439977282101498,-0.81385119950757889
-3.972,0.87836819910187125,-1.2589100125246109
-3.9714999999999998,-0.017926488943470625,-0.9092209451540858
-3.9710000000000001,-1.0102527507079564,-0.072086511145858609
-3.9704999999999999,-1.405049220442214,0.69087145402619654
-3.9700000000000002,-1.0529334501386869,1.2207033742845681
-3.9695,-0.53009488211223732,1.432636142387917
-3.9689999999999999,-0.08194753808956648,1.241896651094903
-3.9685000000000001,0.20614718306786484,0.76504792286236856
-3.968,0.34485945621773917,0.26700591781949923
-3.9674999999999998,0.3982103305061524,-0.082683149551026042
-3.9670000000000001,0.38754015564846972,-0.20984281041303524
-3.9664999999999999,0.32351910650237387,0.0020899576903134209
-3.9660000000000002,0.25949805735627807,0.36237566346600614
-3.9655,0.22748753278323011,0.72266136924169888
-3.9649999999999999,0.18480683335249956,1.0299638829915545
-3.9645000000000001,-0.06060718837420119,1.0193672445863871
-3.964,-0.71148785469284226,0.33058574825050385
-3.9634999999999998,-1.3090176467230703,0.23521600260399694
-3.9630000000000001,-1.6931439415996454,0.45774540911251305
-3.9624999999999999,-1.8531965644648849,0.50013196273318283
-3.9620000000000002,-1.2983474718653876,0.012686596095480854
-3.9615,-0.47674400782382426,-0.57012851618872795
-3.9609999999999999,0.18480683335249956,-1.0575738828264298
-3.9605000000000001,0.59027347794443985,-1.3542797581711179
-3.96,0.77166645052504479,-1.4708427806279598
-3.9594999999999998,0.80367697509809277,-1.3648763965762853
-3.9590000000000001,0.88903837395955376,-1.131750351662602
-3.9584999999999999,0.95305942310564973,-0.96220413717992292
-3.9580000000000002,0.84635767452882327,-0.9092209451540858
-3.9575,0.69697522652126631,-0.85623775312824868
-3.9569999999999999,0.5689331282290746,-0.73967473067140688
-3.9565000000000001,0.4835717293676135,-0.5807251545938954
-3.956,0.65429452709053582,-0.6972881770507372
-3.9554999999999998,0.66496470194821833,-1.227120097309109
-3.9550000000000001,-0.13529841237797968,-1.4072629501969551
-3.9544999999999999,-0.95690187641954316,-0.87743102993858346
-3.9540000000000002,-1.6504632421689147,-0.04029659593035631
-3.9535,-1.5757720181651362,0.70146809243136399
-3.9529999999999998,-0.98891240099259115,1.0617537982070568
-3.9525000000000001,-0.39138260896236304,0.98757732937088472
-3.952,0.046094560202625215,0.62729162359519197
-3.9514999999999998,0.29150858192932599,0.21402272579366208
-3.9510000000000001,0.3982103305061524,-0.072086511145858609
-3.9504999999999999,0.40888050536383502,-0.19924617200786782
-3.9500000000000002,0.36619980593310447,-0.12506970317169577
-3.9495,0.30217875678700862,0.023283234500648287
-3.9489999999999998,0.24882788249859539,0.15044289536265748
-3.9485000000000001,0.21681735792554749,0.46834204751768049
-3.948,0.099445434491038431,0.78624119967270345
-3.9474999999999998,-0.44473348325077627,0.34118238665567124
-3.9470000000000001,-1.0422632752810042,0.097459703336820316
-3.9464999999999999,-1.3943790455845313,0.42595549389701071
-3.9460000000000002,-1.7891755153187892,0.80743447648303834
-3.9455,-1.586442193022819,0.5637117931641874
-3.9449999999999998,-0.82885977812735145,-0.14626297998203064
-3.9445000000000001,-0.10328788780493176,-0.77146464588690922
-3.944,0.38754015564846972,-1.1635402668781043
-3.9434999999999998,0.62228400251748783,-1.3436831197659505
-3.9430000000000001,0.69697522652126631,-1.3966663117917877
-3.9424999999999999,0.76099627566736228,-1.2801032893349458
-3.9420000000000002,1.0277506471094282,-0.84564111472308123
-3.9415,1.006410297394063,-0.71848145386107198
-3.9409999999999998,0.82501732481345802,-0.76086800748174177
-3.9405000000000001,0.63295417737517057,-0.75027136907657432
-3.9399999999999999,0.49424190422529612,-0.65490162343006741
-3.9394999999999998,0.5689331282290746,-0.67609490024040231
-3.9390000000000001,0.84635767452882327,-1.1953301820936066
-3.9384999999999999,0.20614718306786484,-1.7675486559726479
-3.9380000000000002,-0.73282820440820751,-1.947691508860494
-3.9375,-1.6077825427381842,-1.1847335436884392
-3.9369999999999998,-1.8958772638956156,-0.11447306476652835
-3.9365000000000001,-1.373038695869166,0.76504792286236856
-3.9359999999999999,-0.67947733011979428,1.2524932895000704
-3.9355000000000002,-0.13529841237797968,1.2630899279052379
-3.9350000000000001,0.20614718306786484,0.88161094531921036
-3.9344999999999999,0.36619980593310447,0.40476221708667587
-3.9340000000000002,0.41955068022151765,0.033879872905815719
-3.9335,0.40888050536383502,-0.04029659593035631
-3.9329999999999998,0.34485945621773917,0.086863064931652884
-3.9325000000000001,0.28083840707164331,0.21402272579366208
-3.9319999999999999,0.23815770764091276,0.35177902506083869
-3.9315000000000002,0.18480683335249956,0.6590815388106942
-3.931,-0.31669138495858457,1.0193672445863871
-3.9304999999999999,-0.95690187641954316,1.3160731199310751
-3.9300000000000002,-1.3410281712961183,1.4962159728189213
-3.9295,-1.7038141164573279,1.4962159728189213
-3.9289999999999998,-1.7785053404611064,1.146526905448396
-3.9285000000000001,-1.1276246741424654,0.31998910984533641
-3.9279999999999999,-0.30602121010090194,-0.43237221692155131
