Class_2_Relax_eyes_open/Class_2_Relax_eyes_open_Basim_7.csv

#Digilent WaveForms Oscilloscope Acquisition
#Device Name: EExplorer
#Serial Number: SN:210151A2B84A
#Date Time: 2020-12-15 13:55:40.958
#Sample rate: 2000Hz
#Samples: 16384
#Trigger: Source: Channel 1 Type: Edge Condition: Rising Level: 0 V Hyst.: Auto HoldOff: 0 s
#Channel 1: Range: 1 V/div Offset: 0 V Attenuation: 1 X
#Channel 2: Range: 1 V/div Offset: 0 V Attenuation: 1 X
#Power Supplies: ON
#Fixed Supply: ON
#Voltage: 3.3 V Readback: 3.317 V
#Positive Supply: ON
#Voltage: 3.7 V Readback: 3.707 V
#Current: 40 mA Readback: 17 mA
#Negative Supply: ON
#Voltage: -3.7 V Readback: -3.365 V
#Current: -40 mA Readback: -7 mA
#Reference 1: ON
#Voltage: 0 V
#Reference 2: ON
#Voltage: 0 V

Time (s),Channel 1 (V),Channel 2 (V)
-4.096,-0.2099896363817582,0.02328323450064829
-4.0955,-0.924891351845845,-0.686691538644924
-4.095,-1.42638957015787,-1.301296566145127
-4.0945,-1.746494815888059,-1.131750351662602
-4.094,-1.383708870727179,-0.6337083466201855
-4.0935,-0.754168554123078,-0.2522293640335123
-4.093,-0.2099896363817582,-0.04029659593035631
-4.0925,0.1314559590637758,0.03387987290574826
-4.092,0.3128489316447592,0.02328323450061937
-4.0915,0.3875401556484697,-0.008506680714854012
-4.091,0.3875401556484697,-0.05089323433552374
-4.0905,0.366199805933085,-0.08268314955103567
-4.09,0.3448594562177392,-0.09327978795619347
-4.0895,0.3235191065023739,-0.08268314955102604
-4.089,0.312848931644701,-0.05089323433555266
-4.0885,0.3128489316446912,-0.008506680714854012
-4.088,0.3768699807907871,-0.2098428104130352
-4.0875,0.1741366584950013,-0.8032545611018718
-4.087,-0.5621054066857899,-1.428456227007406
-4.0865,-1.116954499284783,-1.555615887869299
-4.086,-0.9142211769889969,-0.9410108603701471
-4.0855,-0.4127229586773499,-0.294615917653912
-4.085,0.00341386077189465,0.2140227257936621
-4.0845,0.2594980573560451,0.6484849004051317
-4.084,0.3768699807908065,0.9028042221295934
-4.0835,0.3982103305061524,0.9557874141553824
-4.083,0.3875401556484697,0.92399749893988
-4.0825,0.3982103305061815,0.807434476482942
-4.082,0.4302208550792003,0.701468092431364
-4.0815,0.3982103305061524,0.6696781772158616
-4.081,0.3661998059331336,0.6590815388107039
-4.0805,0.3448594562177392,0.6166949851900245
-4.08,0.3021787567870086,0.5637117931641874
-4.0795,-0.103287887804563,0.2776025562249269
-4.079,-0.7755089038392876,-0.4535654937325608
-4.0785,-1.159635198715513,-1.195330182093607
-4.078,-1.415719395299664,-1.163540266878133
-4.0775,-1.234326422718816,-0.6125150698090989
-4.077,-0.7114878546928423,-0.2840192792492073
-4.0765,-0.2313299860975602,-0.1356663415769981
-4.076,0.110115609348886,-0.1144730647665573
-4.0755,0.291508581929326,-0.1462629799820306
-4.075,0.3661998059331045,-0.1780528951975329
-4.0745,0.3768699807907774,-0.1886495336027004
-4.074,0.3661998059331045,-0.1886495336027004
-4.0735,0.3448594562177392,-0.1462629799820306
-4.073,0.3235191065023933,-0.09327978795624167
-4.0725,0.3235191065023739,-0.01910331912002144
-4.072,0.3128489316446912,0.06566978812131802
-4.0715,0.2168173579256348,0.04447651131100243
-4.071,-0.327361559816966,-0.474758770542809
-4.0705,-1.095614149569417,-1.121153713257435
-4.07,-1.65046324216841,-1.502632695843115
-4.0695,-1.341028171295497,-1.11055707485167
-4.069,-0.658136980404429,-0.4535654937318862
-4.0685,-0.09261771294724913,0.2034260873884947
-4.068,0.248827882498741,0.6590815388108966
-4.0675,0.408880505363835,0.8816109453192104
-4.067,0.4515612047945656,0.9557874141553824
-4.0665,0.4302208550791809,0.9451907757501861
-4.066,0.408880505363835,0.9134008605347127
-4.0655,0.4408910299368829,0.8392243916985406
-4.065,0.43022085507921,0.7332580076469627
-4.0645,0.3875401556484697,0.6378882620003594
-4.064,0.3555296310754218,0.5425185163538525
-4.0635,0.334189281360076,0.4471487707074323
-4.063,0.1527963087788597,0.2776025562241848
-4.0625,-0.4980843575391895,-0.252229364033705
-4.062,-1.127624674141893,-0.9939940523947506
-4.0615,-1.437059745015281,-1.354279758170617
-4.061,-1.458400094730627,-0.8032545611024114
-4.0605,-0.9782422261349084,-0.326405832869877
-4.06,-0.4233931335350325,-0.08268314955094894
-4.0595,-0.007256314085787988,0.002089957690313421
-4.059,0.2381577076409128,-0.008506680714854012
-4.0585,0.355529631075315,-0.05089323433548519
-4.058,0.3875401556484697,-0.08268314955102604
-4.0575,0.3875401556484697,-0.1038764263613609
-4.057,0.3555296310754509,-0.09327978795620312
-4.0565,0.3341892813600565,-0.07208651114585861
-4.056,0.3235191065023739,-0.01910331912002144
-4.0555,0.3235191065023739,0.03387987290576753
-4.055,0.3341892813600953,0.05507314971576508
-4.0545,0.3768699807907871,-0.3687923864905467
-4.054,-0.07127736323147627,-1.02578396761033
-4.0535,-0.7648387289814301,-1.566212526274332
-4.053,-0.9569018764195432,-1.417859588602123
-4.0525,-0.5621054066852853,-0.6125150698093976
-4.052,-0.1246282375200156,0.07626642652693842
-4.0515,0.1848068333524996,0.5743084315693548
-4.051,0.3555296310754218,0.8710143069140429
-4.0505,0.4195506802214594,0.9451907757501474
-4.05,0.4302208550792003,0.9345941373450475
-4.0495,0.408880505363835,0.9028042221295453
-4.049,0.4195506802215079,0.8816109453192297
-4.0485,0.4088805053638059,0.8286277532932961
-4.048,0.3768699807907871,0.7438546460520338
-4.0475,0.3448594562177683,0.6484849004056136
-4.047,0.3235191065022962,0.5425185163537465
-4.0465,0.2381577076409128,0.4259554938970107
-4.046,-0.2846808603850611,0.2034260873886971
-4.0455,-1.031593100423914,-0.4747587705427993
-4.045,-1.682473766741963,-1.110557074852267
-4.0445,-2.066600061618538,-0.792657922697244
-4.044,-1.511750969018381,-0.3264058328696939
-4.0435,-0.7861790786966207,-0.1250697031716958
-4.043,-0.1993194615240755,-0.07208651114585861
-4.0425,0.1634664836368043,-0.103876426361332
-4.042,0.3448594562177392,-0.1568596183871981
-4.0415,0.408880505363835,-0.1886495336027004
-4.041,0.408880505363835,-0.1886495336027004
-4.0405,0.3768699807907677,-0.167456256792327
-4.04,0.3555296310754218,-0.1250697031716958
-4.0395,0.334189281360076,-0.0508932343355912
-4.039,0.3235191065023739,0.02328323450073503
-4.0385,0.3235191065023739,0.1186529801471552
-4.038,0.1101156093489151,-0.06148987274052735
-4.0375,-0.5834457564012814,-0.6760949002409516
-4.037,-1.277007122150022,-1.280103289334946
-4.0365,-1.565101843307454,-1.481439419033127
-4.036,-1.084943974711162,-0.9092209451534111
-4.0355,-0.4554036581084589,-0.1674562567923655
-4.035,0.02475421048725994,0.383568940276341
-4.0345,0.2915085819290834,0.7120647308362327
-4.034,0.408880505363835,0.92399749893988
-4.0335,0.4408910299368829,1.029963882991555
-4.033,0.43022085507921,1.040560521396712
-4.0325,0.4515612047945947,0.9239974989397548
-4.032,0.4835717293676135,0.7862411996727035
-4.0315,0.4515612047945947,0.7014680924314411
-4.031,0.4088805053637962,0.6378882620002824
-4.0305,0.3661998059331045,0.55311515475902
-4.03,0.3235191065024127,0.4577454091125998
-4.0295,-0.01792648894414023,0.2352160026034091
-4.029,-0.754168554123573,-0.4111789401112165
-4.0285,-1.426389570157579,-1.142346990067769
-4.028,-1.917217613610719,-1.121153713256933
-4.0275,-1.629122892453549,-0.570128516188728
-4.027,-0.9248913518464952,-0.252229364033705
-4.0265,-0.3166913849591377,-0.1250697031718114
-4.026,0.08877525963335578,-0.1144730647665284
-4.0255,0.3128489316446912,-0.1462629799820306
-4.025,0.3982103305060748,-0.1886495336026618
-4.0245,0.4088805053638156,-0.2098428104130256
-4.024,0.3875401556484697,-0.1992461720078678
-4.0235,0.3661998059331239,-0.1674562567923944
-4.023,0.3448594562177295,-0.1144730647664609
-4.0225,0.3341892813600565,-0.04029659593035631
-4.022,0.3341892813600565,0.05507314971606385
-4.0215,0.3982103305062494,0.01268659609500861
-4.021,0.5049120790829789,-0.5065486857577234
-4.0205,-0.08194753808956648,-1.152943628472937
-4.02,-0.8181896032696784,-1.566212526274178
-4.0195,-0.8288597781273515,-1.248313374119443
-4.019,-0.391382608962363,-0.4641621321370536
-4.0185,0.01408403562920851,0.2564092794136764
-4.018,0.2594980573562781,0.7120647308365314
-4.0175,0.3768699807907871,0.92399749893988
-4.017,0.4195506802214788,1.0193672445863
-4.0165,0.3982103305061524,1.029963882991545
-4.016,0.3982103305061524,1.019367244586387
-4.0155,0.4942419042252088,1.072350436612176
-4.015,0.4942419042252573,1.008770606181094
-4.0145,0.4515612047945656,0.8710143069140429
-4.014,0.3982103305062009,0.7226613692418338
-4.0135,0.3555296310753538,0.5849050699744065
-4.013,0.2808384070716433,0.457745409112513
-4.0125,-0.2526703358124887,-0.02969995752518888
-4.012,-1.042263275281606,-0.8032545611028933
-4.0115,-1.703814116457328,-1.333086481360783
-4.011,-1.970568487899394,-1.078767159636765
-4.0105,-1.37303869586971,-0.5913217929995062
-4.01,-0.6688071552621118,-0.2204394488182027
-4.0095,-0.124628237520297,-0.01910331912002144
-4.009,0.206147183067564,0.04447651131092532
-4.0085,0.3661998059331433,0.03387987290578681
-4.008,0.408880505363835,0.002089957690313421
-4.0075,0.408880505363835,-0.04029659593031776
-4.007,0.3768699807907677,-0.07208651114586824
-4.0065,0.3555296310754218,-0.08268314955102604
-4.006,0.3448594562177392,-0.07208651114585861
-4.0055,0.3341892813600371,-0.05089323433551411
-4.005,0.3128489316446912,-0.04029659593035631
-4.0045,-0.08194753808956648,-0.4217755785163839
-4.004,-0.7114878546932693,-1.05757388282695
-4.0035,-1.180975548430879,-1.629792356705471
-4.003,-1.1062843244271,-1.650985633515806
-4.0025,-0.5621054066857802,-0.9939940523960228
-4.002,-0.08194753808956648,-0.2204394488182027
-4.0015,0.2168173579255475,0.3729723018711736
-4.001,0.3875401556483145,0.7332580076465387
-4.0005,0.4515612047945559,0.9028042221295934
-4,0.4408910299368829,0.9557874141553824
-3.9995,0.408880505363835,0.9451907757502149
-3.999,0.4195506802215176,0.9134008605347127
-3.9985,0.408880505363835,0.8392243916985406
-3.998,0.3875401556484697,0.7332580076468663
-3.9975,0.3555296310754218,0.627291623595192
-3.997,0.3448594562177392,0.5319218779486851
-3.9965,0.3555296310754218,0.4365521323021782
-3.996,0.2274875327832301,0.1292496185523226
-3.9955,-0.3700422592469978,-0.5913217929990628
-3.995,-0.9142211769888124,-1.216523458903942
-3.9945,-1.26633694729234,-0.9092209451540858
-3.994,-1.020922925565639,-0.4323722169215513
-3.9935,-0.5407650569699201,-0.1674562567923655
-3.993,-0.1139580626626144,-0.05089323433552374
-3.9925,0.1741366584948169,-0.02969995752518888
-3.992,0.3235191065023739,-0.05089323433552374
-3.9915,0.3875401556484697,-0.06148987274069118
-3.991,0.3875401556484697,-0.06148987274069118
-3.9905,0.3768699807907871,-0.05089323433552374
-3.99,0.3555296310754218,-0.008506680714854012
-3.9895,0.3448594562177392,0.04447651131098315
-3.989,0.3341892813600565,0.1080563417419877
-3.9885,0.3341892813600565,0.1716361721729923
-3.988,0.09944543449103843,-0.02969995752518888
-3.9875,-0.5514352318276028,-0.6760949002404023
-3.987,-1.138294849000148,-1.301296566145281
-3.9865,-1.319687821580753,-1.481439419033127
-3.986,-0.7861790786966207,-0.8986243067489184
-3.9855,-0.1779791118087102,-0.2204394488182027
-3.985,0.2274875327832301,0.3305857482505039
-3.9845,0.4408910299368829,0.6908714540261965
-3.984,0.4942419042252961,0.8922075837243778
-3.9835,0.4729015545099309,0.9451907757502149
-3.983,0.4408910299368829,0.9345941373450475
-3.9825,0.3982103305061524,0.849821030103708
-3.982,0.3875401556484697,0.7120647308365314
-3.9815,0.3768699807907871,0.5955017083796896
-3.981,0.3555296310754218,0.5001319627331828
-3.9805,0.3341892813600565,0.4047622170866759
-3.98,0.3128489316446912,0.3199891098453364
-3.9795,-0.03926683865883591,0.09745970333682032
-3.979,-0.754168554123573,-0.5277419625680583
-3.9785,-1.26633694729234,-1.216523458903942
-3.978,-1.586442193022819,-1.142346990067769
-3.9775,-1.426389570157579,-0.4959520473525559
-3.977,-0.8502001278427167,-0.1356663415768632
-3.9765,-0.3060212101009019,0.002089957690313421
-3.976,0.08877525963335578,0.01268659609548085
-3.9755,0.3021787567870086,-0.01910331912002144
-3.975,0.3875401556484697,-0.05089323433552374
-3.9745,0.408880505363835,-0.05089323433552374
-3.974,0.3875401556484697,-0.04029659593035631
-3.9735,0.3661998059331045,-0.008506680714854012
-3.973,0.3555296310754218,0.04447651131098315
-3.9725,0.3448594562177392,0.1186529801471552
-3.972,0.3341892813600565,0.1928294489833272
-3.9715,0.3235191065023739,0.13984625695749
-3.971,0.00341386077189465,-0.400582301706049
-3.9705,-0.658136980404429,-1.068170521231597
-3.97,-1.255666772434657,-1.51322933424863
-3.9695,-1.127624674142465,-1.205926820498774
-3.969,-0.5407650569699201,-0.5913217929990628
-3.9685,-0.03926683865883591,0.01268659609548085
-3.968,0.2808384070716433,0.4683420475176805
-3.9675,0.4302208550792003,0.775644561267536
-3.967,0.4622313796522482,0.9557874141553824
-3.9665,0.4408910299368829,0.9981739677760521
-3.966,0.4302208550792003,0.9557874141553824
-3.9655,0.4835717293676135,0.9028042221295453
-3.965,0.4729015545099309,0.7544512844572011
-3.9645,0.4302208550792003,0.5849050699745222
-3.964,0.3875401556484697,0.4259554938970107
-3.9635,0.3555296310754218,0.2987958330350016
-3.963,0.1741366584948169,0.13984625695749
-3.9625,-0.4660738329661415,-0.3052125560595421
-3.962,-1.234326422719292,-0.9833974139902578
-3.9615,-1.842526389607202,-1.34368311976595
-3.961,-1.991908837614759,-0.7396747306714069
-3.9605,-1.30901764672307,-0.252229364033705
-3.96,-0.6047861061160158,-0.02969995752518888
-3.9595,-0.07127736323188383,0.03387987290581572
-3.959,0.2381577076409128,0.02328323450064829
-3.9585,0.3875401556484697,0.002089957690313421
-3.958,0.4302208550792003,-0.008506680714854012
-3.9575,0.4195506802215176,0.002089957690313421
-3.957,0.3875401556484697,0.03387987290581572
-3.9565,0.3661998059331045,0.08686306493165288
-3.956,0.3448594562177392,0.1504428953626575
-3.9555,0.3448594562177392,0.2246193641988295
-3.955,0.3128489316446912,0.2564092794143318
-3.9545,-0.1352984123779797,-0.1356663415768632
-3.954,-0.722158029550525,-0.8244478379127463
-3.9535,-1.116954499284783,-1.38606967338662
-3.953,-1.148965023857831,-1.248313374119443
-3.9525,-0.6688071552621118,-0.6125150698093976
-3.952,-0.1459685872356623,0.002089957690313421
-3.9515,0.2061471830678648,0.4153588554918433
-3.951,0.3875401556484697,0.6802748156210291
-3.9505,0.4408910299368829,0.8180311148882058
-3.95,0.4195506802215176,0.8392243916985406
-3.9495,0.408880505363835,0.8180311148882058
-3.949,0.4942419042252961,0.8710143069140429
-3.9485,0.5369226036560266,0.8286277532933731
-3.948,0.5049120790829789,0.6908714540261965
-3.9475,0.4408910299368829,0.5319218779486851
-3.947,0.3875401556484697,0.3941655786815084
-3.9465,0.3235191065023739,0.2881991946298341
-3.946,-0.1779791118087102,-0.06148987274069118
-3.9455,-0.839529952985034,-0.7502713690765743
-3.945,-1.287677297007705,-1.407262950196955
-3.9445,-1.586442193022819,-1.492036057438295
-3.944,-1.212986073003927,-0.9304142219644207
-3.9435,-0.6367966306890638,-0.3899856633008816
-3.943,-0.1352984123779797,0.002089957690313421
-3.9425,0.1848068333524996,0.2140227257936621
-3.942,0.3448594562177392,0.2881991946298341
-3.9415,0.408880505363835,0.2987958330350016
-3.941,0.408880505363835,0.2670059178194992
-3.9405,0.3875401556484697,0.2352160026039969
-3.94,0.3661998059331045,0.2140227257936621
-3.9395,0.3555296310754218,0.1928294489833272
-3.939,0.3448594562177392,0.1822328105781598
-3.9385,0.3448594562177392,0.1822328105781598
-3.938,0.1848068333524996,-0.05089323433552374
-3.9375,-0.4340633083930936,-0.6972881770507372
-3.937,-1.052933450138687,-1.364876396576285
-3.9365,-1.298347471865388,-1.725162102351978
-3.936,-0.8608703027003992,-1.34368311976595
-3.9355,-0.274010685527854,-0.6443049850249
-3.935,0.1634664836371343,-0.02969995752518888
-3.9345,0.408880505363835,0.3623756634660061
-3.934,0.4942419042252961,0.6060983467848571
-3.9335,0.4835717293676135,0.7438546460520338
-3.933,0.4515612047945656,0.775644561267536
-3.9325,0.4515612047945656,0.7226613692416989
-3.932,0.4729015545099309,0.6908714540261965
-3.9315,0.4515612047945656,0.627291623595192
-3.931,0.408880505363835,0.5425185163538525
-3.9305,0.3768699807907871,0.457745409112513
-3.93,0.3448594562177392,0.3729723018711736
-3.9295,0.03542438534494258,0.1822328105781598
-3.929,-0.6367966306890638,-0.4217755785163839
-3.9285,-1.1062843244271,-1.131750351662602
-3.928,-1.437059745015262,-1.142346990067769
-3.9275,-1.287677297007705,-0.5807251545938954
-3.927,-0.7648387289812555,-0.2416327256285375
-3.9265,-0.2420001609548061,-0.07208651114585861
-3.926,0.1207857842064037,-0.02969995752518888
-3.9255,0.3128489316446912,-0.04029659593035631
-3.925,0.3982103305061524,-0.05089323433552374
-3.9245,0.408880505363835,-0.05089323433552374
-3.924,0.3982103305061524,-0.02969995752518888
-3.9235,0.3768699807907871,0.01268659609548085
-3.923,0.3555296310754218,0.06566978812131802
-3.9225,0.3448594562177392,0.13984625695749
-3.922,0.3448594562177392,0.2140227257936621
-3.9215,0.2808384070716433,0.1716361721729923
-3.921,-0.2313299860971235,-0.3687923864905467
-3.9205,-0.8288597781273515,-1.036380606016095
-3.92,-1.319687821580753,-1.481439419033127
-3.9195,-1.138294849000148,-1.163540266878104
-3.919,-0.5300948821122373,-0.4323722169215513
-3.9185,-0.01792648894347063,0.2034260873884947
-3.918,0.291508581929326,0.55311515475902
-3.9175,0.4408910299368829,0.7438546460520338
-3.917,0.4622313796522482,0.8286277532933731
-3.9165,0.4408910299368829,0.8604176685088755
-3.916,0.4302208550792003,0.8816109453192104
-3.9155,0.4942419042252961,0.9345941373450475
-3.915,0.4942419042252961,0.8392243916985406
-3.9145,0.4515612047945656,0.6696781772158616
-3.914,0.3982103305061524,0.5107286011383502
-3.9135,0.3661998059331045,0.3623756634660061
-3.913,0.1634664836371343,0.1822328105781598
-3.9125,-0.5087545323968721,-0.3158091944647096
-3.912,-1.223656247861609,-1.025783967610927
-3.9115,-1.639793067311232,-1.354279758171118
-3.911,-1.618452717595867,-0.8032545611024114
-3.9105,-1.031593100423322,-0.3793890248957141
-3.91,-0.423393133535411,-0.1462629799820306
-3.9095,0.02475421048725994,-0.06148987274069118
-3.909,0.2808384070716433,-0.05089323433552374
-3.9085,0.3982103305061524,-0.05089323433552374
-3.908,0.4302208550792003,-0.05089323433552374
-3.9075,0.408880505363835,-0.02969995752518888
-3.907,0.3875401556484697,0.002089957690313421
-3.9065,0.3661998059331045,0.06566978812131802
-3.906,0.3555296310754218,0.1292496185523226
-3.9055,0.3448594562177392,0.2140227257936621
-3.905,0.3555296310754218,0.2670059178194992
-3.9045,0.5049120790829789,-0.07208651114585861
-3.904,0.1527963087794516,-0.7502713690765743
-3.9035,-0.5514352318276028,-1.322489842955616
-3.903,-0.8928808272734472,-1.205926820498774
-3.9025,-0.5941159312583333,-0.5489352393783931
-3.902,-0.156638762093345,0.09745970333682032
-3.9015,0.1848068333524996,0.55311515475902
-3.901,0.3661998059331045,0.8074344764830383
-3.9005,0.4302208550792003,0.8710143069140429
-3.9,0.4302208550792003,0.8286277532933731
-3.8995,0.408880505363835,0.7862411996727035
-3.899,0.4195506802215176,0.7544512844572011
-3.8985,0.4195506802215176,0.6908714540261965
-3.898,0.3982103305061524,0.6060983467848571
-3.8975,0.3768699807907871,0.5319218779486851
-3.897,0.3555296310754218,0.4471487707073456
-3.8965,0.2808384070716433,0.3411823866556712
-3.896,-0.2313299860971235,-0.06148987274069118
-3.8955,-0.8608703027003992,-0.7820612842920766
-3.895,-1.234326422719292,-1.38606967338662
-3.8945,-1.437059745015262,-1.025783967610927
-3.894,-1.1062843244271,-0.474758770542221
-3.8935,-0.5621054066852853,-0.1780528951975329
-3.893,-0.09261771294724913,-0.04029659593035631
-3.8925,0.2061471830678648,-0.008506680714854012
-3.892,0.3555296310754218,-0.01910331912002144
-3.8915,0.408880505363835,-0.04029659593035631
-3.891,0.408880505363835,-0.04029659593035631
-3.8905,0.3982103305061524,-0.008506680714854012
-3.89,0.3768699807907871,0.02328323450064829
-3.8895,0.3555296310754218,0.08686306493165288
-3.889,0.3555296310754218,0.1504428953626575
-3.8885,0.3555296310754218,0.2246193641988295
-3.888,0.2808384070716433,0.04447651131098315
-3.8875,-0.1993194615240755,-0.5807251545938954
