Class_2_Relax_eyes_open/Class_2_Relax_eyes_open_Suko_7.csv

#Digilent WaveForms Oscilloscope Acquisition
#Device Name: EExplorer
#Serial Number: SN:210151A2B84A
#Date Time: 2021-01-24 14:23:49.923
#Sample rate: 2000Hz
#Samples: 16384
#Trigger: Source: Channel 1 Type: Edge Condition: Rising Level: 0 V Hyst.: Auto HoldOff: 0 s
#Channel 1: Range: 1 V/div Offset: 0 V Attenuation: 1 X
#Channel 2: Range: 1 V/div Offset: 0 V Attenuation: 1 X
#Power Supplies: ON
#Fixed Supply: ON
#Voltage: 3.3 V Readback: 3.331 V
#Positive Supply: ON
#Voltage: 3.7 V Readback: 3.717 V
#Current: 40 mA Readback: 23 mA
#Negative Supply: ON
#Voltage: -3.7 V Readback: -3.348 V
#Current: -40 mA Readback: -6 mA
#Reference 1: ON
#Voltage: 0 V
#Reference 2: ON
#Voltage: 0 V

Time (s),Channel 1 (V),Channel 2 (V)
-4.096,-0.07127736323188383,0.09745970333682032
-4.0955,-0.6474668055462225,-0.6125150698087519
-4.095,-0.7861790786967081,-1.163540266878442
-4.0945,-0.8822106524157645,-1.534422611058964
-4.094,-0.8181896032697269,-1.227120097309389
-4.0935,-0.4660738329657728,-0.6654982618348108
-4.093,-0.06060718837420119,-0.1992461720078678
-4.0925,0.2168173579252952,0.05507314971591926
-4.092,0.3661998059331627,0.1504428953626864
-4.0915,0.4302208550792003,0.1822328105781598
-4.091,0.4515612047945656,0.1716361721729923
-4.0905,0.5582629533714115,0.2246193641988488
-4.09,0.5796033030867573,0.2458126410091644
-4.0895,0.5155822539406614,0.2246193641988295
-4.089,0.4408910299369509,0.2034260873885139
-4.0885,0.408880505363835,0.2140227257936621
-4.088,0.4408910299368829,0.2140227257936621
-4.0875,0.7076454013787064,-0.2098428104126497
-4.087,0.2701682322133008,-0.8774310299390461
-4.0865,-0.4554036581084589,-1.38606967338662
-4.086,-1.010252750707452,-1.428456227007251
-4.0855,-0.946231701561511,-0.9198175835586557
-4.085,-0.5621054066852853,-0.2628260024388724
-4.0845,-0.1673089369513867,0.2776025562241752
-4.084,0.1101156093488666,0.6166949851901787
-4.0835,0.2701682322139607,0.7862411996727035
-4.083,0.3341892813600565,0.849821030103708
-4.0825,0.3555296310754121,0.839224391698502
-4.082,0.3448594562177392,0.7968378380778709
-4.0815,0.3235191065023739,0.7438546460520338
-4.081,0.302178756787028,0.6802748156210869
-4.0805,0.291508581929326,0.6166949851900245
-4.08,0.2701682322139607,0.5425185163538525
-4.0795,0.1527963087795584,0.3729723018713278
-4.079,-0.2740106855282034,-0.2098428104136328
-4.0785,-0.658136980404429,-0.8668343915334161
-4.078,-1.031593100422982,-1.428456227006779
-4.0775,-1.063603624995972,-1.428456227006808
-4.077,-0.6261264558313813,-0.8986243067489184
-4.0765,-0.145968587236099,-0.3899856633013442
-4.076,0.1954770082103278,-0.02969995752497685
-4.0755,0.3555296310754218,0.2034260873884947
-4.075,0.4195506802215176,0.2881991946298341
-4.0745,0.4195506802216341,0.2987958330351076
-4.074,0.5475927785137094,0.4153588554918433
-4.0735,0.707645401378949,0.5743084315693548
-4.073,0.6756348768059302,0.5001319627332503
-4.0725,0.5689331282290746,0.3623756634660061
-4.072,0.4942419042252961,0.2458126410091644
-4.0715,0.4515612047946044,0.1822328105782176
-4.071,0.6969752265211498,-0.06148987274125979
-4.0705,0.5689331282290746,-0.6866915386455698
-4.07,-0.08194753808897448,-1.311893204549879
-4.0695,-0.7328282044083531,-1.788741932782694
-4.069,-0.8928808272734472,-1.47084278062796
-4.0685,-0.6047861061160158,-0.718481453861072
-4.068,-0.2313299860968615,-0.05089323433509969
-4.0675,0.05676473506030786,0.4153588554918433
-4.067,0.2381577076409128,0.6802748156210291
-4.0665,0.3235191065023933,0.7968378380778902
-4.066,0.3448594562177392,0.8180311148882058
-4.0655,0.3448594562177392,0.7968378380778709
-4.065,0.3235191065023933,0.7544512844572396
-4.0645,0.3021787567870086,0.701468092431364
-4.064,0.291508581929326,0.6484849004055269
-4.0635,0.280838407071653,0.5955017083797378
-4.063,0.2061471830674766,0.4683420475171793
-4.0625,-0.2206598112394408,-0.08268314955102604
-4.062,-0.6047861061156664,-0.7714646458862828
-4.0615,-0.807519428411889,-1.280103289334743
-4.061,-0.7008176798351597,-1.05757388282643
-4.0605,-0.3380317346739499,-0.5913217929990628
-4.06,0.003413860772127557,-0.2310360872231484
-4.0595,0.2594980573562781,0.01268659609548085
-4.059,0.3768699807907871,0.1186529801471552
-4.0585,0.4195506802214788,0.129249618552313
-4.058,0.4195506802215176,0.08686306493165288
-4.0575,0.4622313796522482,0.1504428953626575
-4.057,0.6329541773750154,0.4153588554916024
-4.0565,0.6329541773751706,0.4683420475176805
-4.056,0.5475927785137094,0.4153588554918433
-4.0555,0.4622313796523259,0.3517790250608965
-4.055,0.3982103305060942,0.3199891098455581
-4.0545,0.3341892813600565,0.5637117931641874
-4.054,-0.08194753808918798,0.9028042221292368
-4.0535,-0.6367966306894423,0.4047622170860205
-4.053,-1.052933450138687,-0.3158091944647096
-4.0525,-1.180975548430879,-0.5913217929990628
-4.052,-0.8288597781269341,-0.3899856633005442
-4.0515,-0.3700422592469978,-0.01910331912002144
-4.051,-0.007256314085787988,0.3305857482505039
-4.0505,0.2168173579253437,0.5849050699742908
-4.05,0.3235191065023739,0.7438546460520338
-4.0495,0.3555296310754218,0.8286277532933731
-4.049,0.3555296310754218,0.8816109453191622
-4.0485,0.3341892813600371,0.8922075837243681
-4.048,0.3128489316446912,0.8816109453192104
-4.0475,0.2808384070716724,0.8498210301037369
-4.047,0.2701682322139122,0.8180311148881287
-4.0465,0.2168173579255475,0.7332580076468663
-4.046,-0.2740106855274076,0.2034260873889765
-4.0455,-0.9248913518467669,-0.5913217929996315
-4.045,-1.223656247861609,-1.216523458903942
-4.0445,-1.298347471865388,-1.195330182093607
-4.044,-0.9462317015613751,-0.6231117082141024
-4.0435,-0.4127229586777283,-0.1144730647665284
-4.043,0.03542438534494258,0.1610395337678249
-4.0425,0.2915085819290931,0.2246193641987717
-4.042,0.408880505363835,0.1716361721729923
-4.0415,0.4302208550792003,0.08686306493165288
-4.041,0.4302208550792003,-0.008506680714767276
-4.0405,0.5796033030868059,-0.2098428104130834
-4.04,0.6329541773751706,-0.2628260024388724
-4.0395,0.5689331282291328,-0.1568596183872945
-4.039,0.50491207908294,-0.008506680714738361
-4.0385,0.4622313796522482,0.1186529801471552
-4.038,0.4835717293675941,0.2987958330348377
-4.0375,0.7503261008093205,0.712064730836223
-4.037,0.3555296310754218,0.3729723018711736
-4.0365,-0.3060212101009019,-0.3793890248957141
-4.036,-0.8608703027003701,-0.8668343915333101
-4.0355,-0.8288597781273515,-0.7502713690765743
-4.035,-0.4874141826815069,-0.3158091944647096
-4.0345,-0.1352984123782999,0.1292496185519179
-4.034,0.1207857842064037,0.4471487707073456
-4.0335,0.2594980573562781,0.6590815388106942
-4.033,0.3235191065023156,0.7650479228622722
-4.0325,0.3448594562177295,0.807434476483048
-4.032,0.3341892813600565,0.8180311148882058
-4.0315,0.3128489316447107,0.807434476483048
-4.031,0.3021787567869989,0.7862411996726649
-4.0305,0.291508581929326,0.7438546460520338
-4.03,0.2701682322139801,0.7014680924314025
-4.0295,0.06743490991740823,0.4259554938963457
-4.029,-0.572775581542968,-0.3052125560595421
-4.0285,-0.9035510021311299,-1.01518732920576
-4.028,-0.9782422261347434,-1.354279758170704
-4.0275,-0.7968492535543035,-0.8986243067489184
-4.027,-0.3487019095316325,-0.400582301706049
-4.0265,0.04609456020226615,-0.09327978795647296
-4.026,0.2808384070716433,0.05507314971615059
-4.0255,0.3875401556484697,0.09745970333682032
-4.025,0.4088805053638156,0.08686306493166251
-4.0245,0.4088805053638933,0.04447651131106025
-4.024,0.4729015545099309,0.1292496185523226
-4.0235,0.5582629533713145,0.2564092794142161
-4.023,0.5155822539406032,0.2881991946298245
-4.0225,0.4515612047945656,0.2776025562246667
-4.022,0.387540155648528,0.2776025562246667
-4.0215,0.3555296310756256,0.3093924714399762
-4.021,0.5796033030867573,0.09745970333682032
-4.0205,0.6649647019482183,-0.5277419625680583
-4.02,0.1421261339211867,-1.131750351662872
-4.0195,-0.4980843575391895,-1.42845622700729
-4.019,-0.7968492535543035,-1.184733543688439
-4.0185,-0.5941159312585177,-0.5277419625686558
-4.018,-0.2633405106701714,0.09745970333682032
-4.0175,0.01408403562957729,0.5319218779486851
-4.017,0.2061471830676901,0.7756445612673144
-4.0165,0.3021787567870377,0.8816109453192104
-4.016,0.3341892813600565,0.8816109453192104
-4.0155,0.3341892813600565,0.8392243916985791
-4.015,0.3235191065023544,0.7756445612674685
-4.0145,0.3021787567870086,0.701468092431364
-4.014,0.2701682322139898,0.6166949851901016
-4.0135,0.2594980573562296,0.5319218779485598
-4.013,0.2061471830678648,0.3941655786815084
-4.0125,-0.156638762093345,-0.1568596183871981
-4.012,-0.5407650569701141,-0.8350444763184438
-4.0115,-0.754168554123573,-1.417859588602123
-4.011,-0.9142211769888124,-1.619195718300304
-4.0105,-0.658136980404662,-1.131750351663045
-4.01,-0.2633405106701714,-0.5383386009732256
-4.0095,0.08877525963335578,-0.1250697031716958
-4.009,0.2915085819291416,0.08686306493146012
-4.0085,0.3875401556484988,0.1716361721729827
-4.008,0.4195506802215176,0.1610395337678249
-4.0075,0.4622313796522094,0.07626642652656256
-4.007,0.6222840025174782,-0.08268314955103567
-4.0065,0.6116138276598051,-0.09327978795619347
-4.006,0.5369226036560266,-0.01910331912002144
-4.0055,0.4729015545098921,0.07626642652655291
-4.005,0.4302208550792003,0.1504428953626575
-4.0045,0.5475927785137094,0.2564092794143318
-4.004,0.7289857510939358,-0.02969995752574786
-4.0035,0.3128489316446912,-0.6443049850249
-4.003,-0.3487019095316325,-1.248313374119443
-4.0025,-0.764838728980877,-1.386069673386495
-4.002,-0.6261264558313813,-0.8562377531282487
-4.0015,-0.3166913849585846,-0.2310360872233701
-4.001,-0.02859666380141529,0.2670059178190463
-4.0005,0.1741366584949139,0.5743084315694897
-4,0.2808384070716433,0.7226613692416989
-3.9995,0.3235191065023739,0.775644561267536
-3.999,0.3235191065023739,0.775644561267536
-3.9985,0.3128489316446912,0.7438546460520338
-3.998,0.3021787567870086,0.6908714540261965
-3.9975,0.2808384070716433,0.6484849004055269
-3.997,0.2701682322139607,0.5955017083796896
-3.9965,0.2594980573562781,0.5425185163538525
-3.996,0.00341386077189465,0.2776025562246667
-3.9955,-0.3593720843893152,-0.326405832869877
-3.995,-0.6794773301197943,-0.9728007755850904
-3.9945,-0.9995825758502737,-1.42845622700729
-3.994,-0.9248913518464952,-1.163540266878104
-3.9935,-0.4767440078238243,-0.6125150698093976
-3.993,-0.04993701351651855,-0.1462629799820306
-3.9925,0.2274875327832301,0.1504428953626575
-3.992,0.3768699807907871,0.2564092794143318
-3.9915,0.4195506802215176,0.2564092794143318
-3.991,0.4195506802215176,0.2246193641988295
-3.9905,0.5902734779444399,0.3941655786815084
-3.99,0.6542945270905358,0.4789386859228479
-3.9895,0.5902734779444399,0.3941655786815084
-3.989,0.4835717293676135,0.2987958330350016
-3.9885,0.408880505363835,0.2458126410091644
-3.988,0.3875401556484697,0.2034260873884947
-3.9875,0.6542945270905358,-0.1250697031716958
-3.987,0.408880505363835,-0.7714646458869092
-3.9865,-0.2420001609548061,-1.322489842955616
-3.986,-0.8502001278427167,-1.195330182093607
-3.9855,-0.8928808272734472,-0.6760949002404023
-3.985,-0.5621054066852853,-0.1038764263613609
-3.9845,-0.1993194615240755,0.3517790250608387
-3.984,0.07810508477567314,0.627291623595192
-3.9835,0.2381577076409128,0.7650479228623686
-3.983,0.3128489316446912,0.8180311148882058
-3.9825,0.3341892813600565,0.8180311148882058
-3.982,0.3235191065023739,0.7862411996727035
-3.9815,0.3021787567870086,0.7438546460520338
-3.981,0.291508581929326,0.6908714540261965
-3.9805,0.2701682322139607,0.6484849004055269
-3.98,0.2594980573562781,0.5849050699745222
-3.9795,0.1314559590640864,0.3941655786815084
-3.979,-0.4020527838200457,-0.252229364033705
-3.9785,-0.9462317015618604,-0.9939940523954253
-3.978,-1.298347471865388,-1.47084278062796
-3.9775,-1.244996597576974,-1.121153713257435
-3.977,-0.7968492535543035,-0.5807251545938954
-3.9765,-0.274010685527854,-0.1780528951975329
-3.976,0.1101156093487211,0.07626642652648545
-3.9755,0.3128489316446912,0.1822328105781598
-3.975,0.3982103305061524,0.2034260873884947
-3.9745,0.408880505363835,0.1822328105781598
-3.974,0.5155822539406614,0.2458126410091644
-3.9735,0.6542945270905358,0.3729723018711736
-3.973,0.6116138276598051,0.3199891098453364
-3.9725,0.5155822539406614,0.2352160026039969
-3.972,0.4302208550792003,0.1716361721729923
-3.9715,0.3555296310754218,0.1716361721729923
-3.971,0.2061471830678648,0.3729723018711736
-3.9705,0.07810508477567314,0.1504428953626575
-3.97,-0.391382608962363,-0.5277419625680583
-3.9695,-0.9248913518464952,-1.163540266878104
-3.969,-0.9995825758502737,-1.163540266878104
-3.9685,-0.658136980404429,-0.6337083466197325
-3.968,-0.2526703358124887,-0.05089323433552374
-3.9675,0.04609456020262521,0.4047622170866759
-3.967,0.2274875327832301,0.6908714540261965
-3.9665,0.3128489316446912,0.8286277532933731
-3.966,0.3341892813600565,0.8922075837243778
-3.9655,0.3341892813600565,0.8922075837243778
-3.965,0.3128489316446912,0.8710143069140429
-3.9645,0.291508581929326,0.8286277532933731
-3.964,0.2808384070716433,0.775644561267536
-3.9635,0.2701682322139607,0.7226613692416989
-3.963,0.1527963087794516,0.5743084315693548
-3.9625,-0.3807124341046804,-0.06148987274069118
-3.962,-0.9569018764195432,-0.8562377531282487
-3.9615,-1.244996597576974,-1.439052865412457
-3.961,-1.298347471865388,-1.152943628472937
-3.9605,-0.9248913518464952,-0.6125150698093976
-3.96,-0.4020527838200457,-0.2310360872233701
-3.9595,0.00341386077189465,-0.01910331912002144
-3.959,0.2488278824985954,0.06566978812131802
-3.9585,0.3768699807907871,0.04447651131098315
-3.958,0.408880505363835,0.03387987290581572
-3.9575,0.4622313796522482,0.05507314971615059
-3.957,0.6329541773751706,0.1186529801471552
-3.9565,0.6222840025174878,0.1292496185523226
-3.956,0.5369226036560266,0.13984625695749
-3.9555,0.4408910299368829,0.1504428953626575
-3.955,0.3768699807907871,0.1822328105781598
-3.9545,0.5262524287983441,0.1292496185523226
-3.954,0.8890383739595538,-0.3793890248957141
-3.9535,0.5049120790829789,-1.036380606016095
-3.953,-0.1779791118087102,-1.407262950196955
-3.9525,-0.7755089038389382,-1.068170521231597
-3.952,-0.754168554123573,-0.5383386009732256
-3.9515,-0.4447334832507763,-0.02969995752518888
-3.951,-0.1139580626626144,0.3411823866556712
-3.9505,0.1207857842064037,0.5637117931641874
-3.95,0.2594980573562781,0.6802748156210291
-3.9495,0.3128489316446912,0.7332580076468663
-3.949,0.3235191065023739,0.7544512844572011
-3.9485,0.3128489316446912,0.7438546460520338
-3.948,0.3021787567870086,0.7332580076468663
-3.9475,0.2808384070716433,0.7120647308365314
-3.947,0.2594980573562781,0.6802748156210291
-3.9465,0.2168173579255475,0.6166949851900245
-3.946,-0.2633405106701714,0.13984625695749
-3.9455,-0.8502001278427167,-0.6231117082145651
-3.945,-1.212986073003927,-1.311893204550448
-3.9445,-1.244996597576974,-1.42845622700729
-3.944,-0.7968492535543035,-0.9304142219644207
-3.9435,-0.2846808603855366,-0.4429688553267188
-3.943,0.07810508477567314,-0.09327978795619347
-3.9425,0.291508581929326,0.08686306493165288
-3.942,0.3875401556484697,0.1504428953626575
-3.9415,0.408880505363835,0.1504428953626575
-3.941,0.408880505363835,0.1186529801471552
-3.9405,0.6009436528021226,0.2246193641988295
-3.94,0.707645401378949,0.309392471440169
-3.9395,0.6649647019482183,0.309392471440169
-3.939,0.5796033030867573,0.2776025562246667
-3.9385,0.4622313796522482,0.2564092794143318
-3.938,0.3661998059331045,0.2987958330350016
-3.9375,-0.04993701351651855,0.13984625695749
-3.937,-0.7008176798351597,-0.5065486857577234
-3.9365,-1.351698346153801,-1.184733543688439
-3.936,-1.693143941599645,-1.545019249464132
-3.9355,-1.277007122150022,-1.110557074852267
-3.935,-0.6688071552621118,-0.4217755785163839
-3.9345,-0.1779791118087102,0.1504428953626575
-3.934,0.142126133921769,0.5425185163538525
-3.9335,0.3021787567870086,0.7438546460520338
-3.933,0.3555296310754218,0.8180311148882058
-3.9325,0.3555296310754218,0.8180311148882058
-3.932,0.3341892813600565,0.7862411996727035
-3.9315,0.3128489316446912,0.7332580076468663
-3.931,0.2808384070716433,0.6696781772158616
-3.9305,0.2594980573562781,0.6060983467848571
-3.93,0.2488278824985954,0.5425185163538525
-3.9295,0.142126133921769,0.3517790250608387
-3.929,-0.2953510352432193,-0.2416327256285375
-3.9285,-0.6367966306890638,-0.8880276683437509
-3.928,-0.9995825758502737,-1.460246142222792
-3.9275,-1.084943974711735,-1.545019249464132
-3.927,-0.658136980404429,-1.004590690800593
-3.9265,-0.1886492866663929,-0.4217755785163839
-3.926,0.142126133921769,-0.05089323433552374
-3.9255,0.3341892813600565,0.1292496185523226
-3.925,0.4195506802215176,0.2034260873884947
-3.9245,0.4195506802215176,0.2140227257936621
-3.924,0.5262524287983441,0.2987958330350016
-3.9235,0.6329541773751706,0.383568940276341
-3.923,0.5796033030867573,0.3411823866556712
-3.9225,0.5049120790829789,0.2776025562246667
-3.922,0.4302208550792003,0.2352160026039969
-3.9215,0.3875401556484697,0.2246193641988295
-3.921,0.1207857842064037,0.1716361721729923
-3.9205,-0.4980843575391895,-0.3581957480853793
-3.92,-0.9035510021311299,-0.9622041371799229
-3.9195,-1.212986073003927,-1.439052865412457
-3.919,-1.074273799854052,-1.248313374119443
-3.9185,-0.6261264558313813,-0.6337083466197325
-3.918,-0.1993194615240755,-0.04029659593035631
-3.9175,0.09944543449103843,0.383568940276341
-3.917,0.2701682322139607,0.6378882620003594
-3.9165,0.3341892813600565,0.7544512844572011
-3.916,0.3448594562177392,0.7862411996727035
-3.9155,0.3341892813600565,0.775644561267536
-3.915,0.3128489316446912,0.7438546460520338
-3.9145,0.291508581929326,0.701468092431364
-3.914,0.2808384070716433,0.6590815388106942
-3.9135,0.2701682322139607,0.6060983467848571
-3.913,0.2168173579255475,0.5213252395435176
-3.9125,-0.156638762093345,0.05507314971615059
-3.912,-0.4447334832507763,-0.6337083466197325
-3.9115,-0.6794773301197943,-1.248313374119443
-3.911,-0.8502001278427167,-1.47084278062796
-3.9105,-0.5514352318276028,-1.036380606016095
-3.91,-0.1459685872356623,-0.4959520473525559
-3.9095,0.1634664836371343,-0.05089323433552374
-3.909,0.3341892813600565,0.1928294489833272
-3.9085,0.3982103305061524,0.2670059178194992
-3.908,0.408880505363835,0.2564092794143318
-3.9075,0.4515612047945656,0.2458126410091644
-3.907,0.6436243522328531,0.3729723018711736
-3.9065,0.6436243522328531,0.3729723018711736
-3.906,0.5582629533713921,0.309392471440169
-3.9055,0.4515612047945656,0.2458126410091644
-3.905,0.3875401556484697,0.2246193641988295
-3.9045,0.5049120790829789,0.1186529801471552
-3.904,0.6649647019482183,-0.4323722169215513
-3.9035,0.142126133921769,-1.089363798041932
-3.903,-0.5621054066852853,-1.629792356705471
-3.9025,-0.9675720512772257,-1.650985633515806
-3.902,-0.7861790786966207,-0.9622041371799229
-3.9015,-0.4020527838200457,-0.2416327256285375
-3.901,-0.06060718837420119,0.2987958330350016
-3.9005,0.1634664836371343,0.627291623595192
-3.9,0.2808384070716433,0.775644561267536
-3.8995,0.3235191065023739,0.8180311148882058
-3.899,0.3341892813600565,0.8074344764830383
-3.8985,0.3235191065023739,0.7544512844572011
-3.898,0.3021787567870086,0.701468092431364
-3.8975,0.2808384070716433,0.6378882620003594
-3.897,0.2701682322139607,0.5743084315693548
-3.8965,0.2488278824985954,0.5001319627331828
-3.896,-0.03926683865883591,0.09745970333682032
-3.8955,-0.5087545323968721,-0.5807251545938954
-3.895,-0.7968492535543035,-1.205926820498774
-3.8945,-1.031593100423322,-1.640388995110639
-3.894,-0.8502001278427167,-1.301296566145281
-3.8935,-0.3700422592469978,-0.6866915386455698
-3.893,0.04609456020262521,-0.2204394488182027
-3.8925,0.291508581929326,0.07626642652648545
-3.892,0.3982103305061524,0.2140227257936621
-3.8915,0.4195506802215176,0.2352160026039969
-3.891,0.4195506802215176,0.2246193641988295
-3.8905,0.5796033030867573,0.3941655786815084
-3.89,0.6436243522328531,0.457745409112513
-3.8895,0.5796033030867573,0.3729723018711736
-3.889,0.4835717293676135,0.2881991946298341
-3.8885,0.4195506802215176,0.2246193641988295
-3.888,0.4515612047945656,0.1610395337678249
-3.8875,0.7183155762366316,-0.3158091944647096
-3.887,0.3021787567870086,-0.9833974139902578
