Class_2_Relax_eyes_open/Class_2_Relax_eyes_open_AM_2.csv

#Digilent WaveForms Oscilloscope Acquisition
#Device Name: EExplorer
#Serial Number: SN:210151A2B84A
#Date Time: 2020-10-27 14:03:48.963
#Sample rate: 2000Hz
#Samples: 16384
#Trigger: Source: Channel 1 Type: Edge Condition: Rising Level: 0 V Hyst.: Auto HoldOff: 0 s
#Channel 1: Range: 1 V/div Offset: 0 V Attenuation: 1 X
#Channel 2: Range: 1 V/div Offset: 0 V Attenuation: 1 X
#Power Supplies: ON
#Fixed Supply: ON
#Voltage: 3.3 V Readback: 3.324 V
#Positive Supply: ON
#Voltage: 3.7 V Readback: 3.721 V
#Current: 500 mA Readback: 20 mA
#Negative Supply: ON
#Voltage: -3.7 V Readback: -3.703 V
#Current: -500 mA Readback: -9 mA
#Reference 1: ON
#Voltage: 0 V
#Reference 2: ON
#Voltage: 0 V

Time (s),Channel 1 (V),Channel 2 (V)
-4.096,1.102441871113207,0.2881991946298341
-4.0955,1.283834843693647,0.08686306493183599
-4.095,1.187803269974483,-0.3158091944651336
-4.0945,0.9850699476786977,-0.7820612842920766
-4.094,0.8036769750982578,-1.110557074851968
-4.0935,0.643624352232727,-1.311893204550439
-4.093,0.5049120790829789,-1.301296566145281
-4.0925,0.462231379652287,-1.089363798042125
-4.092,0.4622313796522482,-0.8138511995072994
-4.0915,0.4622313796522482,-0.5065486857577234
-4.091,0.4835717293676135,-0.2946159176543747
-4.0905,0.8036769750977628,0.1504428953627057
-4.09,0.4408910299368829,0.2034260873884947
-4.0895,-0.4660738329661415,-0.4429688553267188
-4.089,-1.383708870726014,-1.046977244420713
-4.0885,-2.183971985053047,-1.364876396576285
-4.088,-2.568098279929622,-1.38606967338662
-4.0875,-2.08794041133434,-0.8562377531287305
-4.087,-1.106284324426382,0.1610395337686827
-4.0865,-0.3166913849585846,1.104140351827727
-4.086,0.1954770082097163,1.76113193294751
-4.0855,0.4515612047946529,2.110821000318739
-4.085,0.5475927785137094,2.227384022775475
-4.0845,0.5689331282290552,2.216787384370317
-4.084,0.5796033030867573,2.14261091553402
-4.0835,0.5796033030867573,2.015451254672126
-4.083,0.5796033030867573,1.835308401784279
-4.0825,0.4729015545098047,1.400846227171566
-4.082,0.3341892813600565,0.4683420475176805
-4.0815,-0.3700422592469978,-0.6337083466197325
-4.081,-1.010252750707374,-1.386069673385936
-4.0805,-0.839529952985034,-1.322489842955616
-4.08,-0.06060718837420119,-0.718481453861072
-4.0795,0.6329541773745397,-0.358195748085707
-4.079,0.9957401225364482,-0.3687923864907588
-4.0785,1.070431346540159,-0.6019184314042303
-4.078,0.9850699476787753,-0.8668343915331752
-4.0775,0.8676980242441011,-1.099960436447244
-4.077,0.7716664505250448,-1.258910012524611
-4.0765,0.7396559259520259,-1.12115371325756
-4.076,0.6969752265211984,-0.9516074987746109
-4.0755,0.6222840025174878,-0.792657922697244
-4.075,0.5582629533713921,-0.6125150698093976
-4.0745,0.5155822539409719,-0.3793890248952804
-4.074,0.857027849386506,0.09745970333682032
-4.0735,0.9850699476786977,0.6378882620003594
-4.073,0.1527963087802086,0.1610395337682586
-4.0725,-0.8822106524157645,-0.6443049850249
-4.072,-1.767835165603424,-1.205926820498774
-4.0715,-2.450726356494492,-1.407262950196772
-4.071,-2.183971985052203,-1.078767159635897
-4.0705,-1.255666772434657,-0.1250697031716958
-4.07,-0.4447334832515139,0.8922075837234525
-4.0695,0.1101156093489928,1.655165548896847
-4.069,0.408880505363835,2.110821000318633
-4.0685,0.5262524287983441,2.301560491611646
-4.068,0.5582629533713921,2.3333504068271
-4.0675,0.5582629533713921,2.280367214801311
-4.067,0.5582629533713921,2.153207553939303
-4.0665,0.5475927785135832,1.973064701051128
-4.066,0.408880505363835,1.612778995275763
-4.0655,-0.2953510352432193,0.6060983467848571
-4.065,-1.042263275280325,-0.5595318777825005
-4.0645,-1.575772018165136,-1.417859588602123
-4.064,-1.447729919872945,-1.576809164679634
-4.0635,-0.5834457564014366,-1.174136905283638
-4.063,0.259498057356773,-0.8032545611022766
-4.0625,0.8036769750980928,-0.6549016234300674
-4.062,1.006410297393879,-0.7078848154558564
-4.0615,0.9850699476785909,-0.8562377531284222
-4.061,0.8676980242441885,-1.046977244421262
-4.0605,0.7503261008096795,-1.216523458903942
-4.06,0.6542945270904776,-1.322489842955539
-4.0595,0.5902734779444399,-1.237716735714276
-4.059,0.5475927785137094,-1.01518732920576
-4.0585,0.5155822539406905,-0.7502713690768152
-4.058,0.4942419042252961,-0.4641621321370536
-4.0575,0.4195506802215176,-0.326405832869877
-4.057,0.4622313796522094,-0.1038764263615633
-4.0565,-0.1352984123779797,-0.4323722169215513
-4.056,-0.8715404775580819,-0.8562377531282487
-4.0555,-1.543761493591477,-1.08936379804172
-4.055,-2.205312334768626,-1.195330182093491
-4.0545,-2.44005618163743,-1.068170521231597
-4.054,-1.671803591884979,-0.3264058328705517
-4.0535,-0.7861790786960093,0.6696781772166134
-4.053,-0.1139580626626144,1.496215972818921
-4.0525,0.3021787567870086,2.004854616266958
-4.052,0.4942419042253446,2.237980661180671
-4.0515,0.5475927785137094,2.269770576396144
-4.051,0.5689331282290746,2.20619074596514
-4.0505,0.6222840025174393,2.195594107559982
-4.05,0.6329541773751706,2.068434446697963
-4.0495,0.5796033030867573,1.782325209758442
-4.049,0.1421261339221669,1.114736990233501
-4.0485,-0.6474668055473094,-0.06148987274165493
-4.048,-1.26633694729234,-1.121153713257435
-4.0475,-1.44772991987278,-1.693372187135955
-4.047,-0.8181896032688147,-1.163540266877362
-4.0465,0.1207857842064037,-0.3475991096802118
-4.046,0.7930068002397986,-0.04029659593063584
-4.0455,1.081101521397851,-0.1250697031719753
-4.045,1.091771696255524,-0.4323722169215513
-4.0445,0.9637295979633325,-0.7820612842920766
-4.044,0.8143471499556588,-1.152943628473158
-4.0435,0.6863050516635838,-1.396666311791788
-4.043,0.6009436528021226,-1.375473034981453
-4.0425,0.5689331282291037,-1.184733543688613
-4.042,0.5369226036560266,-0.9304142219644207
-4.0415,0.5049120790829789,-0.6231117082145651
-4.041,0.462231379652287,-0.3264058328701469
-4.0405,0.4515612047940609,-0.1992461720082051
-4.04,-0.1032878878049318,-0.570128516188728
-4.0395,-0.8288597781266915,-1.036380606015671
-4.039,-1.287677297008151,-1.248313374119463
-4.0385,-1.778505340461106,-1.269506650929778
-4.038,-2.258663209056389,-1.142346990067885
-4.0375,-1.959898313040945,-0.6443049850240037
-4.037,-1.116954499284783,0.3411823866556712
-4.0365,-0.3700422592469978,1.273686566310405
-4.036,0.1421261339220213,1.898888232215573
-4.0355,0.4195506802215176,2.216787384370307
-4.035,0.5262524287983441,2.290963853206479
-4.0345,0.558262953371363,2.227384022775532
-4.034,0.5689331282290746,2.089627723508298
-4.0335,0.5582629533713921,1.909484870620451
-4.033,0.5582629533713921,1.67635882570698
-4.0325,0.4088805053638156,1.135930267042217
-4.032,0.3875401556484697,0.02328323450064829
-4.0315,-0.2313299860965606,-1.036380606015131
-4.031,-0.9462317015618604,-1.693372187136351
-4.0305,-0.9462317015618604,-1.555615887869299
-4.03,-0.1886492866670819,-0.7608680074824646
-4.0295,0.5475927785140782,-0.2628260024388339
-4.029,0.9530594231056497,-0.2204394488182027
-4.0285,1.049090996824793,-0.474758770542221
-4.028,0.9637295979632257,-0.7714646458871213
-4.0275,0.8463576745288233,-1.004590690800593
-4.027,0.7609962756673623,-1.121153713257435
-4.0265,0.7930068002403809,-1.068170521231645
-4.026,0.7609962756673623,-1.01518732920576
-4.0255,0.6649647019482183,-0.9410108603695881
-4.025,0.5796033030868349,-0.7926579226973789
-4.0245,0.4835717293675262,-0.6019184314042592
-4.024,0.3875401556484697,-0.6337083466197325
-4.0235,0.5582629533712369,-0.6760949002403638
-4.023,-0.07127736323265048,-1.015187329205991
-4.0225,-0.9142211769888124,-1.269506650929778
-4.022,-1.70381411645661,-1.333086481360725
-4.0215,-2.386705307348949,-1.216523458903566
-4.021,-2.312014083345239,-0.8032545611024114
-4.0205,-1.405049220442214,0.1610395337678249
-4.02,-0.5621054066847418,1.146526905449042
-4.0195,0.03542438534494258,1.856501678594614
-4.019,0.3768699807907871,2.248577299585809
-4.0185,0.5155822539405353,2.375736960447703
-4.018,0.5582629533713921,2.343947045232316
-4.0175,0.5689331282290746,2.237980661180642
-4.017,0.5582629533714017,2.057837808292959
-4.0165,0.5475927785136414,1.824711763378784
-4.016,0.4729015545099309,1.464426057603419
-4.0155,0.5049120790829498,1.040560521397107
-4.015,0.05676473505969648,0.2670059178185933
-4.0145,-0.6154562809736985,-0.7290780922662394
-4.014,-0.7328282044081007,-1.142346990067393
-4.0135,-0.1566387620927239,-0.7714646458865526
-4.013,0.5262524287983441,-0.3793890248957141
-4.0125,0.942389248247967,-0.3687923864905467
-4.012,1.059761171682428,-0.5913217929992941
-4.0115,1.006410297394063,-0.8456411147230812
-4.011,0.8783681991018712,-1.0999604364471
-4.0105,0.7716664505251418,-1.301296566145097
-4.01,0.6756348768059011,-1.301296566145281
-4.0095,0.6009436528021226,-1.131750351662602
-4.009,0.5475927785137579,-0.9410108603697616
-4.0085,0.5049120790829594,-0.6972881770504866
-4.008,0.4835717293676135,-0.4217755785163839
-4.0075,0.5049120790829594,-0.2734226408441748
-4.007,0.6009436528014821,-0.05089323433583215
-4.0065,-0.1032878878049318,-0.3899856633008816
-4.006,-0.9355615267041777,-0.8880276683437509
-4.0055,-1.618452717596469,-1.152943628472985
-4.005,-2.280003558772191,-1.205926820498774
-4.0045,-2.557428105071939,-1.05757388282643
-4.004,-1.906547438752444,-0.3475991096792577
-4.0035,-0.9675720512772257,0.701468092431364
-4.003,-0.2206598112394408,1.580989080060261
-4.0025,0.2381577076404955,2.142610915533624
-4.002,0.4729015545099309,2.407526875663321
-4.0015,0.5475927785137094,2.460510067689158
-4.001,0.5582629533713824,2.375736960447896
-4.0005,0.5475927785137094,2.227384022775282
-4,0.5475927785137094,2.015451254672126
-3.9995,0.5155822539406614,1.761131932948107
-3.999,0.3448594562177392,0.9663840525605498
-3.9985,0.2701682322139607,-0.2310360872233701
-3.998,-0.3380317346739499,-1.258910012524611
-3.9975,-1.052933450138687,-1.968884785670829
-3.997,-0.9462317015618604,-1.545019249464132
-3.9965,-0.1459685872356623,-0.6231117082145651
-3.996,0.5475927785137094,-0.1992461720078678
-3.9955,0.9103787236749192,-0.252229364033705
-3.995,0.9850699476786977,-0.5277419625680583
-3.9945,0.9210488985326017,-0.8668343915334161
-3.994,0.8356874996711408,-1.121153713257435
-3.9935,0.7503261008096795,-1.301296566145281
-3.993,0.7289857510943143,-1.364876396576285
-3.9925,0.6649647019482183,-1.280103289334946
-3.992,0.6009436528021226,-1.078767159636765
-3.9915,0.5369226036560266,-0.8138511995075789
-3.991,0.4302208550792003,-0.5807251545938954
-3.9905,0.2488278824985954,-0.6443049850249
-3.99,-0.2526703358124887,-0.9622041371799229
-3.9895,-1.031593100423322,-1.269506650929778
-3.989,-1.629122892453549,-1.311893204550448
-3.9885,-2.215982509626095,-1.195330182093607
-3.988,-2.557428105071939,-0.9728007755850904
-3.9875,-2.055929886760855,-0.3581957480853793
-3.987,-1.095614149569417,0.6696781772158616
-3.9865,-0.3166913849585846,1.580989080060261
-3.986,0.1848068333524996,2.184997469154805
-3.9855,0.4515612047945656,2.460510067689158
-3.985,0.5369226036560266,2.513493259714995
-3.9845,0.5582629533713921,2.418123514068488
-3.984,0.5689331282290746,2.269770576396144
-3.9835,0.5902734779444399,2.068434446697963
-3.983,0.5796033030867573,1.79292184816361
-3.9825,0.4515612047945656,1.263089927905238
-3.982,0.3768699807907871,0.1928294489833272
-3.9815,-0.2420001609548061,-0.8986243067489184
-3.981,-0.8715404775580819,-1.598002441489969
-3.9805,-0.7434983792658902,-1.534422611058964
-3.98,0.01408403562957729,-0.9833974139902578
-3.9795,0.6863050516635838,-0.570128516188728
-3.979,1.038420821967111,-0.5595318777835605
-3.9785,1.081101521397841,-0.7608680074817418
-3.978,0.974399772821015,-1.004590690800593
-3.9775,0.825017324813458,-1.205926820498774
-3.977,0.7183155762366316,-1.34368311976595
-3.9765,0.6863050516635838,-1.354279758171118
-3.976,0.6542945270905358,-1.216523458903942
-3.9755,0.6009436528021226,-0.9728007755850904
-3.975,0.5475927785137094,-0.6866915386455698
-3.9745,0.4942419042252961,-0.3899856633008816
-3.974,0.408880505363835,-0.3581957480853793
-3.9735,0.1634664836371343,-0.6231117082145651
-3.973,-0.6367966306890638,-1.025783967610927
-3.9725,-1.351698346153801,-1.195330182093607
-3.972,-1.991908837614759,-1.163540266878104
-3.9715,-2.504077230783526,-0.9939940523954253
-3.971,-2.141291285622316,-0.4429688553267188
-3.9705,-1.202315898146244,0.5637117931641874
-3.97,-0.4020527838200457,1.485619334413754
-3.9695,0.1314559590640864,2.100224361913465
-3.969,0.4195506802215176,2.396930237258153
-3.9685,0.5262524287983441,2.460510067689158
-3.968,0.5475927785137094,2.354543683637484
-3.9675,0.5475927785137094,2.184997469154805
-3.967,0.5475927785137094,1.941274785835954
-3.9665,0.5369226036560266,1.644568910491266
-3.966,0.5369226036560266,1.390249588767247
-3.9655,0.03542438534494258,0.5849050699745222
-3.965,-0.690147504977477,-0.5383386009732256
-3.9645,-1.116954499284783,-1.449649503817625
-3.964,-1.212986073003927,-1.894708316834657
-3.9635,-0.4980843575391895,-1.068170521231597
-3.963,0.3768699807907871,-0.1780528951975329
-3.9625,0.9210488985326017,0.09745970333682032
-3.962,1.081101521397841,-0.1038764263613609
-3.9615,1.017080472251745,-0.5065486857577234
-3.961,0.8783681991018712,-0.9198175835592532
-3.9605,0.7503261008096795,-1.216523458903942
-3.96,0.5796033030867573,-1.34368311976595
-3.9595,0.4942419042252961,-1.258910012524611
-3.959,0.4835717293676135,-1.089363798041932
-3.9585,0.4835717293676135,-0.8668343915334161
-3.958,0.4835717293676135,-0.6231117082145651
-3.9575,0.5475927785137094,-0.3899856633008816
-3.957,0.9957401225363802,0.1822328105781598
-3.9565,0.6649647019482183,0.1504428953626575
-3.956,-0.3060212101009019,-0.5065486857577234
-3.9555,-1.298347471865388,-1.089363798041932
-3.955,-2.141291285622316,-1.354279758171118
-3.9545,-2.557428105071939,-1.290699927740113
-3.954,-1.927887788468663,-0.6125150698093976
-3.9535,-0.9889124009925911,0.457745409112513
-3.953,-0.2420001609548061,1.37965295036208
-3.9525,0.2274875327832301,1.994257977861791
-3.952,0.4622313796522482,2.312157130016814
-3.9515,0.5369226036560266,2.407526875663321
-3.951,0.5582629533713921,2.375736960447818
-3.9505,0.5475927785137094,2.259173937990977
-3.95,0.5369226036560266,2.100224361913465
-3.9495,0.5262524287983441,1.898888232215284
-3.949,0.3021787567870086,1.178316820663898
-3.9485,0.0674349099179905,-0.01910331912002144
-3.948,-0.6474668055467465,-1.0999604364471
-3.9475,-1.170305373573196,-1.629792356705471
-3.947,-0.754168554123573,-1.110557074852267
-3.9465,0.142126133921769,-0.2734226408440398
-3.946,0.8036769750980928,0.02328323450064829
-3.9455,1.059761171682476,-0.1568596183871981
-3.945,1.027750647109428,-0.5489352393783931
-3.9445,0.9210488985326017,-0.8880276683437509
-3.944,0.8036769750980928,-1.152943628472937
-3.9435,0.707645401378949,-1.227120097309109
-3.943,0.6436243522328531,-1.121153713257435
-3.9425,0.6009436528021226,-0.9833974139902578
-3.942,0.5475927785137094,-0.8244478379127463
-3.9415,0.5049120790829789,-0.6231117082145651
-3.941,0.4195506802215176,-0.4429688553267188
-3.9405,0.4515612047945656,-0.4111789401112165
-3.94,0.4302208550792003,-0.326405832869877
-3.9395,-0.3060212101009019,-0.7078848154559045
-3.939,-1.06360362499637,-0.9728007755850904
-3.9385,-1.789175515318789,-1.121153713257435
-3.938,-2.44005618163743,-1.110557074852267
-3.9375,-2.408045657064382,-0.8456411147230812
-3.937,-1.51175096901904,0.02328323450064829
-3.9365,-0.6474668055467465,0.9981739677760521
-3.936,-0.01792648894347063,1.729342017732605
-3.9355,0.3448594562177392,2.153207553939303
-3.935,0.5049120790829789,2.301560491611646
-3.9345,0.5582629533713921,2.269770576396144
-3.934,0.5689331282290746,2.174400830749637
-3.9335,0.5689331282290746,2.026047893077293
-3.933,0.5582629533713921,1.814115124973944
-3.9325,0.4515612047945656,1.326669758336243
-3.932,0.3555296310754218,0.2140227257936621
-3.9315,-0.2846808603855366,-0.9092209451540858
-3.931,-1.020922925565639,-1.650985633515806
-3.9305,-1.255666772434657,-1.735758740757146
-3.93,-0.572775581542968,-1.004590690800593
-3.9295,0.2488278824985954,-0.4429688553267188
-3.929,0.7823366253827275,-0.3475991096802118
-3.9285,0.974399772821015,-0.5065486857577234
-3.928,0.9637295979633325,-0.7396747306714069
-3.9275,0.857027849386506,-0.9622041371799229
-3.927,0.7609962756673623,-1.163540266878104
-3.9265,0.7503261008096795,-1.354279758171118
-3.926,0.6969752265212663,-1.290699927740113
-3.9255,0.6116138276598051,-1.046977244421262
-3.925,0.5369226036560266,-0.7502713690765743
-3.9245,0.4942419042252961,-0.4217755785163839
-3.924,0.3661998059331045,-0.1250697031716958
-3.9235,0.1527963087794516,-0.1886495336027004
-3.923,-0.572775581542968,-0.718481453861072
-3.9225,-1.234326422719292,-1.078767159636765
-3.922,-1.83185621474952,-1.237716735714276
-3.9215,-2.3973754822067,-1.227120097309109
-3.921,-2.19464215991073,-0.8774310299385835
-3.9205,-1.298347471865388,0.05507314971615059
-3.92,-0.4874141826815069,1.029963882991555
-3.9195,0.07810508477567314,1.729342017732605
-3.919,0.3875401556484697,2.1214176387238
-3.9185,0.5155822539406614,2.259173937990977
-3.918,0.5475927785137094,2.237980661180642
-3.9175,0.5475927785137094,2.184997469154805
-3.917,0.5582629533713921,2.047241169887628
-3.9165,0.5582629533713921,1.835308401784279
-3.916,0.5155822539406614,1.570392441655093
-3.9155,0.2381577076409128,1.157123543853563
-3.915,-0.2633405106701714,0.4365521323021782
-3.9145,-0.8928808272734472,-0.5913217929990628
-3.914,-0.8288597781273515,-1.152943628472937
-3.9135,-0.1459685872356623,-1.046977244421262
-3.913,0.5582629533713921,-0.7714646458869092
-3.9125,0.974399772821015,-0.7078848154559045
-3.912,1.091771696255524,-0.7820612842920766
-3.9115,1.006410297394063,-0.9728007755850904
-3.911,0.8783681991018712,-1.131750351662602
-3.9105,0.7503261008096795,-1.205926820498774
-3.91,0.6436243522328531,-1.269506650929778
-3.9095,0.6542945270905358,-1.174136905283272
-3.909,0.6436243522328531,-0.9304142219644207
-3.9085,0.5902734779444399,-0.6443049850249
-3.908,0.5369226036560266,-0.326405832869877
-3.9075,0.6436243522328531,0.13984625695749
-3.907,0.974399772821015,0.9134008605347127
-3.9065,0.3875401556484697,0.7968378380778709
-3.906,-0.4340633083930936,-0.008506680714854012
-3.9055,-1.159635198715513,-0.6972881770507372
-3.905,-1.87453691418025,-1.110557074852267
-3.9045,-2.376035132491334,-1.174136905283272
-3.904,-1.810515865034154,-0.5595318777835605
-3.9035,-0.9462317015618604,0.4471487707073456
-3.903,-0.2420001609548061,1.33726639674141
-3.9025,0.2168173579255475,1.930678147430786
-3.902,0.4408910299368829,2.227384022775475
-3.9015,0.5262524287983441,2.301560491611646
-3.901,0.5369226036560266,2.259173937990977
-3.9005,0.5369226036560266,2.153207553939303
-3.9,0.5475927785137094,2.004854616266958
-3.8995,0.5262524287983441,1.782325209758442
-3.899,0.07810508477567314,1.093543713422559
-3.8985,-0.7755089038389382,-0.08268314955102604
-3.898,-1.437059745015262,-1.142346990067769
-3.8975,-1.554431668449771,-1.75695201756748
-3.897,-0.9889124009925911,-1.396666311791788
-3.8965,-0.007256314085787988,-0.6231117082145651
-3.896,0.7609962756673623,-0.2204394488182027
-3.8955,1.102441871113207,-0.2204394488182027
-3.895,1.113112045970889,-0.4641621321370536
-3.8945,0.9850699476786977,-0.792657922697244
-3.894,0.8356874996711408,-1.046977244421262
-3.8935,0.7183155762366316,-1.227120097309109
-3.893,0.6863050516635838,-1.184733543688439
-3.8925,0.6436243522328531,-1.068170521231597
-3.892,0.5796033030867573,-0.9198175835592532
-3.8915,0.5262524287983441,-0.718481453861072
-3.891,0.5369226036560266,-0.4111789401112165
-3.8905,1.006410297394063,0.2670059178194992
-3.89,0.8356874996711408,0.6378882620003594
-3.8895,-0.124628237520297,0.02328323450064829
-3.889,-1.084943974711735,-0.7078848154559045
-3.8885,-1.906547438753298,-1.142346990067769
-3.888,-2.482736881068161,-1.237716735714276
-3.8875,-2.03458953704549,-0.7396747306714069
-3.887,-1.116954499284783,0.2881991946298341
-3.8865,-0.3487019095316325,1.273686566310405
-3.886,0.1634664836371343,1.962468062646288
-3.8855,0.4195506802215176,2.343947045232316
-3.885,0.5262524287983441,2.49229998290466
