Class_2_Relax_eyes_open/Class_2_Relax_eyes_open_UZ_5.csv

#Digilent WaveForms Oscilloscope Acquisition
#Device Name: EExplorer
#Serial Number: SN:210151A2B84A
#Date Time: 2020-12-06 09:28:17.691
#Sample rate: 2000Hz
#Samples: 16384
#Trigger: Source: Channel 1 Type: Edge Condition: Rising Level: 0 V Hyst.: Auto HoldOff: 0 s
#Channel 1: Range: 1 V/div Offset: 0 V Attenuation: 1 X
#Channel 2: Range: 1 V/div Offset: 0 V Attenuation: 1 X
#Power Supplies: ON
#Fixed Supply: ON
#Voltage: 3.3 V Readback: 3.302 V
#Positive Supply: ON
#Voltage: 3.7 V Readback: 3.673 V
#Current: 40 mA Readback: 16 mA
#Negative Supply: ON
#Voltage: -3.7 V Readback: -3.916 V
#Current: -40 mA Readback: 0 A
#Reference 1: ON
#Voltage: 0 V
#Reference 2: ON
#Voltage: 0 V

Time (s),Channel 1 (V),Channel 2 (V)
-4.096,0.4729015545099309,1.347863035146577
-4.0955,0.4729015545099309,1.273686566310473
-4.095,0.4515612047945461,1.167720182258625
-4.0945,0.4302208550792003,1.051157159801889
-4.094,0.3982103305061815,0.8922075837245224
-4.0935,-0.03926683865954434,0.3093924714392823
-4.093,-0.8181896032696687,-0.6654982618352349
-4.0925,-1.22365624786124,-1.492036057437543
-4.092,-1.447729919872624,-1.862918401618731
-4.0915,-1.095614149569417,-1.396666311791788
-4.091,-0.4127229586777283,-0.6654982618352349
-4.0905,0.1954770082105024,-0.1144730647662296
-4.09,0.5475927785137094,0.2140227257936621
-4.0895,0.6969752265212663,0.3199891098453364
-4.089,0.7183155762366121,0.3199891098453364
-4.0885,0.6969752265212663,0.1928294489833272
-4.088,0.857027849386506,-0.008506680714854012
-4.0875,0.8890383739595247,-0.06148987274064299
-4.087,0.7716664505249089,0.03387987290594101
-4.0865,0.6222840025174878,0.1716361721729923
-4.086,0.5262524287984315,0.2987958330348859
-4.0855,0.3768699807898264,0.2987958330340185
-4.085,-0.6794773301197943,-0.7820612842920766
-4.0845,-1.394379045583881,-1.576809164678911
-4.084,-1.810515865034096,-2.13843100015345
-4.0835,-1.746494815888059,-2.074851169722503
-4.083,-1.052933450138687,-1.142346990067769
-4.0825,-0.3487019095312443,-0.1356663415762657
-4.082,0.07810508477567314,0.5213252395435176
-4.0815,0.3235191065023739,0.92399749893988
-4.081,0.4302208550791033,1.114736990232721
-4.0805,0.4729015545099309,1.178316820663898
-4.08,0.4622313796522482,1.178316820663898
-4.0795,0.4622313796522482,1.135930267043267
-4.079,0.4515612047945559,1.082947075017334
-4.0785,0.4408910299368829,1.019367244586387
-4.078,0.4195506802215371,0.9451907757502824
-4.0775,0.4088805053636312,0.8604176685086056
-4.077,0.1848068333524996,0.5637117931641874
-4.0765,-0.572775581542279,-0.3158091944639096
-4.076,-1.148965023858083,-1.216523458904337
-4.0755,-1.426389570157579,-1.650985633515806
-4.075,-1.138294849000148,-1.163540266878104
-4.0745,-0.4767440078232905,-0.517145324162486
-4.074,0.1101156093487211,-0.07208651114585861
-4.0735,0.4835717293676135,0.2352160026039969
-4.073,0.6542945270903806,0.3517790250607327
-4.0725,0.6863050516635838,0.3517790250608387
-4.072,0.6542945270905358,0.309392471440169
-4.0715,0.7076454013789005,0.1292496185524865
-4.071,0.7823366253826596,-0.01910331911996362
-4.0705,0.707645401378949,0.04447651131098315
-4.07,0.6009436528022196,0.2034260873883501
-4.0695,0.5155822539406032,0.3517790250609351
-4.069,0.4515612047945656,0.457745409112513
-4.0685,0.291508581929326,0.1822328105781598
-4.068,-0.3487019095321177,-0.9304142219650279
-4.0675,-0.8822106524157645,-1.598002441489969
-4.067,-1.415719395299897,-2.043061254507001
-4.0665,-1.810515865033727,-2.159624276963101
-4.066,-1.341028171296118,-1.34368311976595
-4.0655,-0.6154562809736985,-0.2946159176543747
-4.065,-0.1139580626630705,0.4471487707066709
-4.0645,0.2168173579255475,0.9134008605347127
-4.064,0.3875401556484697,1.146526905448396
-4.0635,0.4622313796521803,1.220703374284501
-4.063,0.4729015545099309,1.199510097474185
-4.0625,0.4729015545099309,1.146526905448396
-4.062,0.451561204794585,1.072350436612292
-4.0615,0.4408910299368635,0.9769806909656306
-4.061,0.4195506802215176,0.8816109453192104
-4.0605,0.3128489316446912,0.6590815388106942
-4.06,-0.3060212101013484,-0.1144730647672897
-4.0595,-0.7968492535543035,-0.9516074987747555
-4.059,-1.170305373573196,-1.629792356705471
-4.0585,-1.51175096901873,-1.905304955239574
-4.058,-1.180975548430879,-1.280103289334946
-4.0575,-0.4980843575391895,-0.474758770542221
-4.057,0.07810508477514916,0.09745970333629983
-4.0565,0.4515612047945656,0.3517790250608387
-4.056,0.6329541773751706,0.3517790250608387
-4.0555,0.6863050516635353,0.2458126410092608
-4.055,0.6969752265213245,0.1610395337678153
-4.0545,0.7609962756673623,0.1504428953626575
-4.054,0.7076454013789976,0.1716361721729731
-4.0535,0.6116138276597177,0.2034260873885428
-4.053,0.5155822539406614,0.2564092794143318
-4.0525,0.4622313796522482,0.309392471440169
-4.052,0.5049120790827654,0.2670059178188535
-4.0515,0.2701682322139607,-0.4429688553267188
-4.051,-0.3060212101009019,-1.269506650929778
-4.0505,-0.8715404775575677,-1.8417251248083
-4.05,-1.415719395299897,-2.096044446532838
-4.0495,-1.138294849000148,-1.407262950196955
-4.049,-0.5407650569704635,-0.3899856633018068
-4.0485,-0.0926177129469871,0.351779025061282
-4.048,0.1954770082101822,0.8392243916985406
-4.0475,0.3661998059329492,1.104140351827486
-4.047,0.4408910299369024,1.21010673587942
-4.0465,0.4622313796522482,1.231300012689736
-4.046,0.4622313796522482,1.21010673587942
-4.0455,0.4515612047945559,1.157123543853515
-4.045,0.4408910299368829,1.104140351827727
-4.0445,0.4195506802215176,1.019367244586387
-4.044,0.3661998059326581,0.8604176685082491
-4.0435,-0.124628237520297,0.1716361721729923
-4.043,-0.6794773301197943,-0.7820612842920766
-4.0425,-1.020922925565328,-1.555615887868596
-4.042,-1.298347471865388,-2.021867977696666
-4.0415,-1.031593100423322,-1.619195718300304
-4.041,-0.4020527838206183,-0.8138511995083113
-4.0405,0.1634664836374739,-0.1462629799816644
-4.04,0.5369226036560266,0.2564092794143318
-4.0395,0.6969752265211208,0.3941655786813831
-4.039,0.7503261008096505,0.3729723018710868
-4.0385,0.7183155762366316,0.2776025562246667
-4.038,0.835687499671034,0.1186529801472997
-4.0375,0.8250173248133512,0.09745970333689742
-4.037,0.707645401378949,0.1822328105781598
-4.0365,0.5902734779444399,0.2881991946298341
-4.036,0.504912079082843,0.3941655786815181
-4.0355,0.3555296310754218,0.4047622170866759
-4.035,-0.2313299860971235,-0.2628260024388724
-4.0345,-0.7221580295500786,-1.08936379804118
-4.034,-0.8502001278427167,-1.439052865412457
-4.0335,-1.138294849000148,-1.746355379162313
-4.033,-0.8502001278429787,-1.174136905283792
-4.0325,-0.306021210100572,-0.2416327256279207
-4.032,0.05676473506030786,0.4365521323021782
-4.0315,0.2701682322137666,0.8604176685084899
-4.031,0.3875401556485085,1.082947075017479
-4.0305,0.4302208550792003,1.178316820663898
-4.03,0.4408910299368732,1.188913459069056
-4.0295,0.4408910299368829,1.157123543853525
-4.029,0.4408910299368829,1.114736990232894
-4.0285,0.4408910299368829,1.051157159801889
-4.028,0.4302208550791712,0.9769806909655727
-4.0275,0.3982103305061524,0.8180311148882058
-4.027,0.00341386077189465,0.2987958330350016
-4.0265,-0.903551002130305,-0.6443049850240422
-4.026,-1.426389570157579,-1.47084278062796
-4.0255,-1.415719395299897,-1.84172512480882
-4.025,-0.8181896032702122,-1.386069673387035
-4.0245,-0.1032878878044659,-0.729078092265719
-4.024,0.408880505363835,-0.1568596183871981
-4.0235,0.6756348768056584,0.1822328105778513
-4.023,0.7396559259519774,0.3517790250608387
-4.0225,0.7183155762366316,0.3517790250608387
-4.022,0.6756348768059399,0.2246193641989452
-4.0215,0.6649647019481795,0.1186529801471456
-4.021,0.6222840025174878,0.1080563417419877
-4.0205,0.5475927785137094,0.1928294489833272
-4.02,0.4942419042252573,0.2987958330350979
-4.0195,0.4515612047945656,0.4047622170866759
-4.019,0.408880505363835,0.4789386859228479
-4.0185,0.08877525963364691,0.1398462569577985
-4.018,-0.6154562809736985,-0.8562377531282487
-4.0175,-1.383708870726849,-1.735758740757146
-4.017,-1.757164990745401,-2.021867977696406
-4.0165,-2.162631635337284,-2.191414192178767
-4.016,-1.725154466172693,-1.555615887869299
-4.0155,-0.8822106524165311,-0.485355408948362
-4.015,-0.2420001609544373,0.3305857482509665
-4.0145,0.1634664836371343,0.8392243916985406
-4.014,0.376869980790593,1.104140351827486
-4.0135,0.4729015545099406,1.210106735879391
-4.013,0.4835717293676135,1.199510097474233
-4.0125,0.4729015545099309,1.135930267043229
-4.012,0.4622313796522288,1.06175379820698
-4.0115,0.4408910299368829,0.9769806909657173
-4.011,0.4195506802215176,0.8604176685088755
-4.0105,0.2488278824987507,0.5849050699747728
-4.01,-0.4874141826815069,-0.2734226408440398
-4.0095,-1.020922925565639,-1.195330182093607
-4.009,-1.223656247861425,-1.820531847997916
-4.0085,-1.063603624995826,-1.756952017566873
-4.008,-0.4660738329661415,-1.089363798041932
-4.0075,0.110115609348197,-0.4111789401118333
-4.007,0.5049120790831438,0.06566978812153969
-4.0065,0.6863050516635838,0.309392471440169
-4.006,0.7183155762366316,0.3941655786815084
-4.0055,0.6969752265212372,0.3941655786814217
-4.005,0.6649647019482183,0.2987958330350016
-4.0045,0.6649647019482183,0.2776025562246667
-4.004,0.6116138276597469,0.2458126410091548
-4.0035,0.5475927785137094,0.2352160026039969
-4.003,0.4942419042252961,0.2564092794143318
-4.0025,0.4515612047946044,0.298795833034963
-4.002,0.1954770082101822,0.09745970333682032
-4.0015,-0.7861790786966207,-0.792657922697244
-4.001,-1.682473766741148,-1.672178910325341
-4.0005,-1.831856214749665,-1.90530495523994
-4,-1.991908837614759,-2.032464616101834
-3.9995,-1.447729919872945,-1.333086481360783
-3.999,-0.6474668055467465,-0.2734226408440398
-3.9985,-0.09261771294724913,0.5107286011383502
-3.998,0.2381577076409128,0.9981739677760521
-3.9975,0.408880505363835,1.25249328950007
-3.997,0.4729015545099309,1.347863035146577
-3.9965,0.4835717293676135,1.358459673551745
-3.996,0.4729015545099309,1.305476481525908
-3.9955,0.4622313796522482,1.231300012689736
-3.995,0.4515612047945656,1.146526905448396
-3.9945,0.4302208550792003,1.029963882991555
-3.994,0.3661998059331045,0.849821030103708
-3.9935,-0.156638762093345,0.1716361721729923
-3.993,-0.9142211769888124,-0.8138511995075789
-3.9925,-1.373038695869166,-1.608599079895136
-3.992,-1.703814116457328,-2.117237723343173
-3.9915,-1.46907026958831,-1.725162102351978
-3.991,-0.7008176798351597,-0.8350444763179138
-3.9905,0.02475421048725994,-0.1356663415768632
-3.99,0.4729015545099309,0.2352160026039969
-3.9895,0.6863050516635838,0.4365521323021782
-3.989,0.7503261008096795,0.4365521323021782
-3.9885,0.7396559259519968,0.3199891098453364
-3.988,0.8890383739595538,0.05507314971615059
-3.9875,0.8890383739595538,-0.008506680714854012
-3.987,0.7609962756673623,0.06566978812131802
-3.9865,0.6222840025174878,0.1822328105781598
-3.986,0.5155822539406614,0.2987958330350016
-3.9855,0.3448594562177392,0.2776025562246667
-3.985,-0.6688071552621118,-0.8138511995075789
-3.9845,-1.010252750707956,-1.534422611058964
-3.984,-1.180975548430879,-2.011271339291499
-3.9835,-1.629122892453549,-2.339767129851689
-3.983,-1.447729919872945,-1.88411167842949
-3.9825,-0.7968492535543035,-0.8562377531282487
-3.982,-0.2633405106701714,0.01268659609548085
-3.9815,0.1207857842064037,0.627291623595192
-3.981,0.3448594562177392,0.9663840525605498
-3.9805,0.4515612047945656,1.125333628638062
-3.98,0.4835717293676135,1.157123543853563
-3.9795,0.4835717293676135,1.135930267043229
-3.979,0.4729015545099309,1.093543713422559
-3.9785,0.4622313796522482,1.029963882991555
-3.978,0.4408910299368829,0.9451907757502149
-3.9775,0.4195506802215176,0.849821030103708
-3.977,0.1207857842064037,0.4259554938970107
-3.9765,-0.6154562809736985,-0.4959520473525559
-3.976,-1.010252750707956,-1.34368311976595
-3.9755,-1.30901764672307,-1.947691508860494
-3.975,-1.362368521011484,-1.905304955239825
-3.9745,-0.8288597781273515,-1.0999604364471
-3.974,-0.2099896363817582,-0.3370024712750445
-3.9735,0.2594980573562781,0.2034260873884947
-3.973,0.5475927785137094,0.4895353243280153
-3.9725,0.6649647019482183,0.5955017083796896
-3.972,0.6863050516635838,0.5107286011383502
-3.9715,0.79300680024041,0.2881991946298341
-3.971,0.8463576745288233,0.1504428953626575
-3.9705,0.7609962756673623,0.1716361721729923
-3.97,0.6329541773751706,0.2564092794143318
-3.9695,0.5262524287983441,0.3411823866556712
-3.969,0.4515612047945656,0.383568940276341
-3.9685,0.2594980573562781,0.03387987290581572
-3.968,-0.423393133535411,-1.068170521231597
-3.9675,-1.127624674142465,-1.714565463946811
-3.967,-1.778505340461106,-2.085447808127671
-3.9665,-2.183971985053047,-2.233800745800015
-3.966,-1.661133417026597,-1.523825972653797
-3.9655,-0.8502001278427167,-0.5171453241628908
-3.965,-0.2313299860971235,0.2564092794143318
-3.9645,0.1741366584948169,0.7544512844572011
-3.964,0.3982103305061524,1.019367244586387
-3.9635,0.4835717293676135,1.125333628638062
-3.963,0.5049120790829789,1.125333628638062
-3.9625,0.4942419042252961,1.082947075017392
-3.962,0.4835717293676135,1.019367244586387
-3.9615,0.4622313796522482,0.9451907757502149
-3.961,0.4302208550792003,0.8604176685088755
-3.9605,0.2808384070716433,0.5849050699745222
-3.96,-0.4447334832507763,-0.2628260024388724
-3.9595,-1.1062843244271,-1.174136905283272
-3.959,-1.330357996438436,-1.831128486403653
-3.9585,-1.437059745015262,-2.074851169722503
-3.958,-0.9462317015618604,-1.375473034981453
-3.9575,-0.274010685527854,-0.5277419625680583
-3.957,0.2701682322139607,0.13984625695749
-3.9565,0.5475927785137094,0.5107286011383502
-3.956,0.6542945270905358,0.5955017083796896
-3.9555,0.6649647019482183,0.5001319627331828
-3.955,0.6863050516635838,0.4153588554918433
-3.9545,0.7503261008096795,0.5319218779486851
-3.954,0.6969752265212663,0.5319218779486851
-3.9535,0.6009436528021226,0.4789386859228479
-3.953,0.5262524287983441,0.4471487707073456
-3.9525,0.4729015545099309,0.4259554938970107
-3.952,0.1314559590640864,0.1186529801471552
-3.9515,-1.138294849000148,-1.121153713257435
-3.951,-1.821186039891837,-1.894708316834657
-3.9505,-2.151961460479999,-2.25499402261035
-3.95,-2.290673733629873,-2.329170491446522
-3.9495,-1.618452717595867,-1.523825972653797
-3.949,-0.7328282044082075,-0.4217755785163839
-3.9485,-0.124628237520297,0.383568940276341
-3.948,0.2488278824985954,0.8816109453192104
-3.9475,0.4302208550792003,1.135930267043229
-3.947,0.5049120790829789,1.231300012689736
-3.9465,0.5049120790829789,1.231300012689736
-3.946,0.4942419042252961,1.188913459069066
-3.9455,0.4729015545099309,1.125333628638062
-3.945,0.4622313796522482,1.040560521396722
-3.9445,0.4408910299368829,0.9345941373450475
-3.944,0.3982103305061524,0.775644561267536
-3.9435,0.02475421048725994,0.1822328105781598
-3.943,-0.4554036581084589,-0.6972881770507372
-3.9425,-0.9035510021311299,-1.449649503817625
-3.942,-1.138294849000148,-1.852321763213987
-3.9415,-0.839529952985034,-1.417859588602123
-3.941,-0.2313299860971235,-0.6760949002404023
-3.9405,0.2808384070716433,-0.04029659593035631
-3.94,0.5689331282290746,0.3305857482505039
-3.9395,0.6969752265212663,0.4895353243280153
-3.939,0.7183155762366316,0.5107286011383502
-3.9385,0.707645401378949,0.3941655786815084
-3.938,0.7716664505250448,0.2352160026039969
-3.9375,0.7289857510943143,0.2034260873884947
-3.937,0.6329541773751706,0.2458126410091644
-3.9365,0.5475927785137094,0.3199891098453364
-3.936,0.4835717293676135,0.4047622170866759
-3.9355,0.3555296310754218,0.4047622170866759
-3.935,-0.3487019095316325,-0.2098428104130352
-3.9345,-1.575772018165136,-1.449649503817625
-3.934,-1.863866739322568,-1.937094870455327
-3.9335,-2.066600061618538,-2.149027638558676
-3.933,-1.586442193022819,-1.555615887869299
-3.9325,-0.754168554123573,-0.4853554089473885
-3.932,-0.1352984123779797,0.3517790250608387
-3.9315,0.2274875327832301,0.8710143069140429
-3.931,0.4195506802215176,1.146526905448396
-3.9305,0.4942419042252961,1.25249328950007
-3.93,0.5049120790829789,1.25249328950007
-3.9295,0.4942419042252961,1.210106735879401
-3.929,0.4729015545099309,1.135930267043229
-3.9285,0.4622313796522482,1.061753798207057
-3.928,0.4515612047945656,0.9663840525605498
-3.9275,0.408880505363835,0.8392243916985406
-3.927,0.09944543449103843,0.2776025562246667
-3.9265,-0.5194247072545548,-0.6549016234300674
-3.926,-0.9248913518464952,-1.449649503817625
-3.9255,-1.277007122150022,-2.032464616101834
-3.925,-1.426389570157579,-2.011271339291499
-3.9245,-0.8822106524157645,-1.152943628472937
-3.924,-0.1993194615240755,-0.3581957480853793
-3.9235,0.3235191065023739,0.13984625695749
-3.923,0.6116138276598051,0.4047622170866759
-3.9225,0.7396559259519968,0.4683420475176805
-3.922,0.7503261008096795,0.4153588554918433
-3.9215,0.8356874996711408,0.4047622170866759
-3.921,0.8463576745288233,0.3623756634660061
-3.9205,0.7396559259519968,0.2987958330350016
-3.92,0.6222840025174878,0.2352160026039969
-3.9195,0.5369226036560266,0.2140227257936621
-3.919,0.0674349099179905,-0.1886495336027004
-3.9185,-0.572775581542968,-1.0999604364471
-3.918,-0.7968492535543035,-1.682775548731308
-3.9175,-1.234326422719292,-2.244397384205182
-3.917,-1.597112367880501,-2.477523429118866
-3.9165,-1.30901764672307,-1.831128486403653
-3.916,-0.7114878546928423,-0.7608680074817418
-3.9155,-0.1993194615240755,0.1504428953626575
-3.915,0.1634664836371343,0.775644561267536
-3.9145,0.3768699807907871,1.125333628638062
-3.914,0.4729015545099309,1.29487984312074
-3.9135,0.5049120790829789,1.33726639674141
-3.913,0.5049120790829789,1.316073119931075
-3.9125,0.4942419042252961,1.25249328950007
-3.912,0.4729015545099309,1.178316820663898
-3.9115,0.4408910299368829,1.072350436612224
-3.911,0.4302208550792003,0.9663840525605498
-3.9105,0.2381577076409128,0.627291623595192
-3.91,-0.4874141826815069,-0.2734226408440398
-3.9095,-1.084943974711735,-1.216523458903942
-3.909,-1.298347471865388,-1.767548655972648
-3.9085,-0.8181896032696687,-1.439052865412457
-3.908,-0.124628237520297,-0.7608680074817418
-3.9075,0.4195506802215176,-0.1674562567923655
-3.907,0.6863050516635838,0.2352160026039969
-3.9065,0.7503261008096795,0.4365521323021782
-3.906,0.7289857510943143,0.3941655786815084
-3.9055,0.6969752265212663,0.2987958330350016
-3.905,0.6969752265212663,0.3305857482505039
-3.9045,0.7289857510943143,0.5319218779486851
-3.904,0.6863050516635838,0.55311515475902
-3.9035,0.6116138276598051,0.5001319627331828
-3.903,0.5369226036560266,0.457745409112513
-3.9025,0.4942419042252961,0.4365521323021782
-3.902,0.291508581929326,0.2140227257936621
-3.9015,-0.3487019095316325,-0.9939940523954253
-3.901,-1.042263275281004,-1.852321763213987
-3.9005,-1.51175096901904,-2.25499402261035
-3.9,-2.013249187330125,-2.424540237093029
-3.8995,-1.682473766741963,-1.75695201756748
-3.899,-0.8928808272734472,-0.6125150698093976
-3.8985,-0.274010685527854,0.2987958330350016
-3.898,0.142126133921769,0.8922075837243778
-3.8975,0.3875401556484697,1.220703374284568
-3.897,0.4835717293676135,1.347863035146577
-3.8965,0.5155822539406614,1.358459673551745
-3.896,0.4942419042252961,1.29487984312074
-3.8955,0.4835717293676135,1.199510097474233
-3.895,0.4622313796522482,1.104140351827727
-3.8945,0.4408910299368829,0.9981739677760521
-3.894,0.3555296310754218,0.7862411996727035
-3.8935,-0.3273615598162672,0.03387987290581572
-3.893,-1.074273799854052,-0.9410108603695881
-3.8925,-1.437059745015262,-1.661582271920973
-3.892,-1.06360362499637,-1.619195718300304
-3.8915,-0.391382608962363,-0.9833974139902578
-3.891,0.2061471830678648,-0.3158091944647096
-3.8905,0.5689331282290746,0.1186529801471552
-3.89,0.7183155762366316,0.3305857482505039
-3.8895,0.7609962756673623,0.2564092794143318
-3.889,0.7289857510943143,0.1080563417419877
-3.8885,0.707645401378949,0.03387987290581572
-3.888,0.8036769750980928,0.04447651131098315
-3.8875,0.7716664505250448,0.1080563417419877
-3.887,0.6756348768059011,0.2140227257936621
-3.8865,0.5796033030867573,0.3199891098453364
-3.886,0.5049120790829789,0.4153588554918433
-3.8855,0.4515612047945656,0.4789386859228479
-3.885,0.2274875327832301,0.2458126410091644
-3.8845,-0.3060212101009019,-0.3370024712750445
