Class_2_Relax_eyes_open/Class_2_Relax_eyes_open_UZ_8.csv

#Digilent WaveForms Oscilloscope Acquisition
#Device Name: EExplorer
#Serial Number: SN:210151A2B84A
#Date Time: 2020-12-20 12:39:19.376
#Sample rate: 2000Hz
#Samples: 16384
#Trigger: Source: Channel 1 Type: Edge Condition: Rising Level: 0 V Hyst.: Auto HoldOff: 0 s
#Channel 1: Range: 1 V/div Offset: 0 V
#Channel 2: Range: 1 V/div Offset: 0 V

Time (s),Channel 1 (V),Channel 2 (V)
-4.0960000000000001,-0.28468086038553664,1.4114428655775821
-4.0955000000000004,-0.93556152670358572,1.3266697583363196
-4.0949999999999998,-0.95690187641926172,0.65908153880995213
-4.0945,-0.64746680554674652,-0.15685961838719809
-4.0940000000000003,-0.31669138495888538,-0.77146464588635022
-4.0934999999999997,-0.071277363231757665,-1.1211537132575404
-4.093,0.067434909917990504,-1.2377167357142764
-4.0925000000000002,0.13145595906402813,-1.1953301820936453
-4.0919999999999996,0.15279630877934489,-1.068170521231395
-4.0914999999999999,0.035424385344942577,-0.84564111472308123
-4.0910000000000002,-0.08194753808956648,-0.5807251545938954
-4.0904999999999996,-0.18864928666660638,-0.35819574808514798
-4.0899999999999999,-0.42339313353541097,-0.10387642636136091
-4.0895000000000001,-0.73282820440820751,0.20342608738849466
-4.0890000000000004,-1.319687821580219,0.74385464605154228
-4.0884999999999998,-1.9278877884686634,1.241896651094903
-4.0880000000000001,-2.3120140833452387,1.4750226960085864
-4.0875000000000004,-1.383708870727693,0.80743447648364552
-4.0869999999999997,-0.49808435753864605,0.13984625695714309
-4.0865,0.099445434491038431,-0.24163272562853755
-4.0860000000000003,0.48357172936726411,-0.29461591765432649
-4.0854999999999997,0.62228400251749749,-0.23103608722320626
-4.085,0.63295417737517057,-0.050893234335523743
-4.0845000000000002,0.56893312822913278,0.21402272579342119
-4.0839999999999996,0.56893312822925901,0.46834204751795999
-4.0834999999999999,0.77166645052504479,0.775644561267536
-4.0830000000000002,0.73965592595199681,0.82862775329337313
-4.0824999999999996,0.55826295337123677,0.7226613692415832
-4.0819999999999999,0.38754015564846972,0.59550170837968963
-4.0815000000000001,0.27016823221396069,0.48953532432801533
-4.0810000000000004,0.11011560934886663,0.64848490040538231
-4.0804999999999998,0.4835717293676135,0.99817396777605205
-4.0800000000000001,1.2518243191207636,1.3054764815259077
-4.0795000000000003,1.3478558928398201,1.4538294191981169
-4.0789999999999997,0.44089102993621332,1.5174092496289382
-4.0785,-0.29535103524321932,1.1677201822587309
-4.0780000000000003,-0.46607383296598626,0.39416557868221191
-4.0774999999999997,-0.34870190953147723,-0.3052125560599469
-4.077,-0.17797911180871023,-0.75027136907657432
-4.0765000000000002,-0.028596663801289141,-0.94101086036941473
-4.0759999999999996,0.06743490991802932,-0.95160749877466877
-4.0754999999999999,0.11011560934872107,-0.85623775312824868
-4.0750000000000002,0.11011560934872107,-0.68669153864556975
-4.0744999999999996,0.046094560202547583,-0.48535540894719575
-4.0739999999999998,-0.039266838658835915,-0.27342264084403983
-4.0735000000000001,-0.17797911180871023,-0.093279787956193475
-4.0730000000000004,-0.41272295867751485,0.086863064931489056
-4.0724999999999998,-0.97824222613490841,0.21402272579366208
-4.0720000000000001,-1.618452717595867,0.11865298014715518
-4.0715000000000003,-2.2479930341985703,-0.35819574808494559
-4.0709999999999997,-2.3440246079177043,-0.70788481545575999
-4.0705,-1.7038141164573279,-0.54893523937839306
-4.0700000000000003,-0.89288082727418472,-0.20984281041334363
-4.0694999999999997,-0.24200016095442761,0.097459703337003434
-4.069,0.17413665849481691,0.29879583303500157
-4.0685000000000002,0.3982103305061524,0.36237566346600614
-4.0679999999999996,0.50491207908299829,0.35177902506081943
-4.0674999999999999,0.52625242879834411,0.33058574825050385
-4.0670000000000002,0.70764540137894905,0.33058574825050385
-4.0664999999999996,0.72898575109420749,0.25640927941417757
-4.0659999999999998,0.6116138276598051,0.086863064931652884
-4.0655000000000001,0.45156120479456557,-0.11447306476652835
-4.0650000000000004,0.31284893164481742,-0.31580919446452649
-4.0644999999999998,0.20614718306786484,-0.29461591765437467
-4.0640000000000001,0.014084035629577295,0.19282944898332721
-4.0635000000000003,0.0034138607719043541,0.76504792286184808
-4.0629999999999997,0.13145595906388258,1.1465269054485501
-4.0625,-0.092617712947249131,1.3160731199310751
-4.0620000000000003,-0.73282820440762508,1.3054764815259172
-4.0614999999999997,-0.86087030270018572,0.71206473083580857
-4.0609999999999999,-0.62612645583138127,-0.082683149551026042
-4.0605000000000002,-0.31669138495858457,-0.6972881770507372
-4.0599999999999996,-0.071277363231757665,-1.0257839676110143
-4.0594999999999999,0.067434909917990504,-1.1211537132574345
-4.0590000000000002,0.14212613392176898,-1.0363806060160949
-4.0585000000000004,0.15279630877944192,-0.86683439153357034
-4.0579999999999998,0.14212613392176898,-0.65490162343006741
-4.0575000000000001,0.11011560934872107,-0.43237221692155131
-4.0570000000000004,0.035424385345010509,-0.20984281041323763
-4.0564999999999998,-0.16730893695102761,0.012686596095480854
-4.056,-0.61545628097369853,0.42595549389701071
-4.0555000000000003,-0.6794773301197361,0.70146809243111341
-4.0549999999999997,0.0034138607725933716,0.5637117931637633
-4.0545,0.77166645052504479,0.097459703336820316
-4.0540000000000003,0.89970854881712004,-0.16745625679212461
-4.0534999999999997,0.77166645052489924,-0.16745625679227877
-4.0529999999999999,0.6116138276598051,-0.072086511145858609
-4.0525000000000002,0.53692260365602662,0.10805634174198775
-4.0519999999999996,0.50491207908297886,0.27760255622475344
-4.0514999999999999,0.50491207908297886,0.37297230187117358
-4.0510000000000002,0.51558225394066137,0.40476221708667587
-4.0505000000000004,0.61161382765971772,0.28819919462994015
-4.0499999999999998,0.65429452709053582,0.065669788121318018
-4.0495000000000001,0.54759277851370936,-0.029699957525188878
-4.0490000000000004,0.40888050536396114,-0.10387642636129345
-4.0484999999999998,0.29150858192925805,-0.17805289519757148
-4.048,0.21681735792554749,-0.22043944881820265
-4.0475000000000003,-0.039266838658603004,0.16103953376747798
-4.0469999999999997,0.3661998059336285,0.7120647308368977
-4.0465,0.94238924824796699,1.1147369902328941
-4.0460000000000003,0.63295417737545201,1.2948798431205764
-4.0454999999999997,-0.30602121010138716,1.3266697583358666
-4.0449999999999999,-0.83952995298503397,0.9134008605347127
-4.0445000000000002,-0.77550890383893822,0.097459703336820316
-4.0439999999999996,-0.48741418268125458,-0.61251506980979276
-4.0434999999999999,-0.20998963638175816,-1.0469772444212624
-4.0430000000000001,-0.0072563140857879876,-1.2165234589039415
-4.0425000000000004,0.099445434490941384,-1.1847335436884681
-4.0419999999999998,0.14212613392176898,-1.0363806060160949
-4.0415000000000001,0.13145595906408636,-0.82444783791274634
-4.0410000000000004,0.078105084775721673,-0.55953187778380142
-4.0404999999999998,-0.0072563140859335544,-0.30521255605933006
-4.04,-0.16730893695102761,-0.072086511145858609
-4.0395000000000003,-0.56210540668492626,0.26700591781919081
-4.0389999999999997,-0.96757205127696366,0.807434476483472
-4.0385,-0.67947733011979428,1.2842832047155728
-4.0380000000000003,-0.14596858723614758,1.5597958032496755
-4.0374999999999996,0.34485945621807884,1.1571235438531779
-4.0369999999999999,0.71831557623663156,0.73325800764686633
-4.0365000000000002,0.87836819910187125,0.45774540911251305
-4.0359999999999996,0.82501732481336099,0.097459703336560108
-4.0354999999999999,0.71831557623663156,-0.18864953360270037
-4.0350000000000001,0.62228400251748783,-0.25222936403370499
-4.0345000000000004,0.5475927785137773,-0.10387642636149583
-4.0339999999999998,0.54759277851370936,0.097459703336820316
-4.0335000000000001,0.76099627566736228,0.012686596095480854
-4.0330000000000004,0.70764540137899756,0.097459703336743211
-4.0324999999999998,0.52625242879819856,0.28819919463000759
-4.032,0.36619980593310447,0.47893868592284788
-4.0315000000000003,0.2594980573563751,0.61669498518989929
-4.0309999999999997,0.17413665849491394,0.88161094531953799
-4.0305,0.28083840707164331,1.241896651094903
-4.0300000000000002,0.93171907338969251,1.5068126112238478
-4.0294999999999996,1.4118769419854793,1.6339722720860594
-4.0289999999999999,0.83568749967114075,1.5915857184654283
-4.0285000000000002,0.24882788249859539,0.99817396777605205
-4.0279999999999996,-0.0072563140858462145,0.19282944898274895
-4.0274999999999999,-0.071277363231883828,-0.44296885532671876
-4.0270000000000001,-0.039266838658835915,-0.80325456110241145
-4.0265000000000004,0.014084035629528771,-0.94101086036946291
-4.0259999999999998,0.05676473506030786,-0.91981758355925325
-4.0255000000000001,0.08877525963335578,-0.80325456110241145
-4.0250000000000004,0.08877525963335578,-0.64430498502504452
-4.0244999999999997,0.035424385344855237,-0.45356549373171273
-4.024,-0.06060718837420119,-0.26282600243887239
-4.0235000000000003,-0.17797911180860349,-0.093279787956347671
-4.0229999999999997,-0.44473348325122269,0.097459703337234735
-4.0225,-0.93556152670417769,0.55311515475901996
-4.0220000000000002,-1.1703053735729823,1.072350436611752
-4.0214999999999996,-1.4477299198729154,1.453829419198011
-4.0209999999999999,-1.4157193952998968,1.1889134590690658
-4.0205000000000002,-0.93556152670417769,0.5637117931641874
-4.0199999999999996,-0.38071243410424371,0.055073149715755443
-4.0194999999999999,0.099445434491038431,-0.37938902489571413
-4.0190000000000001,0.3982103305061524,-0.5807251545938954
-4.0185000000000004,0.52625242879822764,-0.54893523937842192
-4.0179999999999998,0.5689331282290746,-0.40058230170604903
-4.0175000000000001,0.53692260365602662,-0.1674562567923655
-4.0170000000000003,0.65429452709042901,-0.019103319120156365
-4.0164999999999997,0.64362435223272696,0.1292496185524479
-4.016,0.50491207908297886,0.26700591781949923
-4.0155000000000003,0.35552963107555768,0.37297230187107722
-4.0149999999999997,0.24882788249855656,0.4365521323023227
-4.0145,0.20614718306786484,0.59550170837968963
-4.0140000000000002,0.099445434491135479,0.97698069096537032
-4.0134999999999996,0.49424190422583958,1.3160731199310944
-4.0129999999999999,1.0917716962555239,1.33726639674141
-4.0125000000000002,0.91037872367491923,1.241896651094903
-4.0119999999999996,0.23815770764062164,1.0617537982064882
-4.0114999999999998,-0.08194753808956648,0.43655213230217815
-4.0110000000000001,-0.13529841237797968,-0.20984281041303524
-4.0105000000000004,-0.092617712947287947,-0.64430498502450484
-4.0099999999999998,-0.017926488943470625,-0.85623775312824868
-4.0095000000000001,0.046094560202625215,-0.87743102993858346
-4.0090000000000003,0.088775259633316964,-0.79265792269732116
-4.0084999999999997,0.099445434491009316,-0.64430498502474576
-4.008,0.067434909917990504,-0.47475877054222104
-4.0075000000000003,-0.02859666380106593,-0.27342264084422296
-4.0069999999999997,-0.19931946152431815,-0.082683149550862201
-4.0065,-0.46607383296614152,0.097459703336820316
-4.0060000000000002,-0.90355100213112993,0.4471487707073456
-4.0054999999999996,-1.2983474718657659,0.94519077575059074
-4.0049999999999999,-1.7144842913150107,1.3584596735517449
-4.0045000000000002,-1.8105158650341544,1.3796529503620798
-4.0039999999999996,-0.85020012784191124,0.44714877070661313
-4.0034999999999998,0.035424385344942577,-0.3581957480853793
-4.0030000000000001,0.47290155450993088,-0.70788481545590454
-4.0025000000000004,0.64362435223269787,-0.70788481545590454
-4.0019999999999998,0.65429452709053582,-0.49595204735255594
-4.0015000000000001,0.6116138276598051,-0.24163272562853755
-4.0010000000000003,0.54759277851376753,0.012686596095249525
-4.0004999999999997,0.62228400251757521,0.26700591781971128
-4,0.71831557623663156,0.50013196273318283
-3.9994999999999998,0.60094365280212259,0.55311515475901996
-3.9990000000000001,0.44089102993688295,0.52132523954351762
-3.9984999999999999,0.30217875678700862,0.46834204751768049
-3.9980000000000002,0.20614718306786484,0.4471487707073456
-3.9975000000000001,-0.071277363231883828,0.72266136924169888
-3.9969999999999999,0.21681735792554749,1.1041403518277266
-3.9965000000000002,0.88903837395955376,1.3796529503620798
-3.996,0.75032610080967954,1.2101067358794007
-3.9954999999999998,-0.13529841237797968,1.0829470750173917
-3.9950000000000001,-0.71148785469284226,0.75445128445720111
-3.9944999999999999,-0.69014750497747701,0.086863064931652884
-3.9940000000000002,-0.4554036581084589,-0.50654868575772338
-3.9935,-0.19931946152407554,-0.87743102993858346
-3.9929999999999999,-0.017926488943470625,-1.01518732920576
-3.9925000000000002,0.08877525963335578,-1.0045906908005926
-3.992,0.13145595906408636,-0.89862430674891836
-3.9914999999999998,0.11011560934872107,-0.72907809226623943
-3.9910000000000001,0.0034138607718946501,-0.49595204735255594
-3.9904999999999999,-0.13529841237797968,-0.28401927924920728
-3.9900000000000002,-0.26334051067017139,-0.11447306476652835
-3.9895,-0.65813698040442903,0.086863064931652884
-3.9889999999999999,-1.2663369472923398,-0.093279787956193475
-3.9885000000000002,-1.9385579633263461,-0.78206128429207655
-3.988,-2.4187158319220647,-1.4178595886021226
-3.9874999999999998,-2.3440246079182865,-1.3224898429556156
-3.9870000000000001,-1.522421143876723,-0.9304142219644207
-3.9864999999999999,-0.72215802955052499,-0.47475877054222104
-3.9860000000000002,-0.08194753808956648,-0.04029659593035631
-3.9855,0.30217875678700862,0.26700591781949923
-3.9849999999999999,0.47290155450993088,0.41535885549184332
-3.9845000000000002,0.53692260365602662,0.4471487707073456
-3.984,0.57960330308675734,0.39416557868150842
-3.9834999999999998,0.78233662538272752,0.012686596095480854
-3.9830000000000001,0.77166645052504479,-0.18864953360270037
-3.9824999999999999,0.59027347794443985,-0.20984281041303524
-3.9820000000000002,0.40888050536383502,-0.22043944881820265
-3.9815,0.28083840707164331,-0.24163272562853755
-3.9809999999999999,0.08877525963335578,-0.019103319120021445
-3.9805000000000001,0.078105084775673142,0.52132523954351762
-3.98,0.50491207908297886,1.0193672445863871
-3.9794999999999998,0.38754015564846972,1.3266697583362426
-3.9790000000000001,-0.40205278382004572,1.4644260576034194
-3.9784999999999999,-0.86087030270039921,1.1147369902328941
-3.9780000000000002,-0.75416855412357298,0.31998910984533641
-3.9775,-0.46607383296614152,-0.41117894011121647
-3.9769999999999999,-0.17797911180871023,-0.87743102993858346
-3.9765000000000001,0.0034138607718946501,-1.0681705212315973
-3.976,0.11011560934872107,-1.0681705212315973
-3.9754999999999998,0.15279630877945163,-0.95160749877475548
-3.9750000000000001,0.15279630877945163,-0.77146464588690922
-3.9744999999999999,0.099445434491038431,-0.55953187778356051
-3.9740000000000002,-0.0072563140857879876,-0.33700247127504446
-3.9735,-0.18864928666639288,-0.10387642636136091
-3.9729999999999999,-0.44473348325077627,0.11865298014715518
-3.9725000000000001,-0.90355100213112993,0.57430843156935485
-3.972,-0.8928808272734472,1.0723504366122243
-3.9714999999999998,-0.29535103524321932,1.4538294191982519
-3.9710000000000001,0.5689331282290746,1.5703924416550934
-3.9704999999999999,0.92104889853260175,0.95578741415538238
-3.9700000000000002,0.94238924824796699,0.16103953376782493
-3.9695,0.84635767452882327,-0.34759910968021185
-3.9689999999999999,0.71831557623663156,-0.67609490024040231
-3.9685000000000001,0.62228400251748783,-0.72907809226623943
-3.968,0.54759277851370936,-0.47475877054222104
-3.9674999999999998,0.49424190422529612,-0.18864953360270037
-3.9670000000000001,0.67563487680590106,0.21402272579366208
-3.9664999999999999,0.72898575109431429,0.42595549389701071
-3.9660000000000002,0.59027347794443985,0.43655213230217815
-3.9655,0.41955068022151765,0.38356894027634103
-3.9649999999999999,0.28083840707164331,0.35177902506083869
-3.9645000000000001,0.22748753278323011,0.46834204751768049
-3.964,0.12078578420640371,0.83922439169854057
-3.9634999999999998,0.66496470194821833,1.2313000126897355
-3.9630000000000001,1.3478558928399074,1.4962159728189213
-3.9624999999999999,1.0384208219671107,1.6127789952757632
-3.9620000000000002,0.067434909917990504,1.5386025264395911
-3.9615,-0.38071243410468042,0.9134008605347127
-3.9609999999999999,-0.40205278382004572,0.17163617217299235
-3.9605000000000001,-0.26334051067017139,-0.36879238649054674
-3.96,-0.10328788780493176,-0.64430498502489997
-3.9594999999999998,0.014084035629577295,-0.68669153864556975
-3.9590000000000001,0.08877525963335578,-0.60191843140423029
-3.9584999999999999,0.11011560934872107,-0.44296885532671876
-3.9580000000000002,0.078105084775673142,-0.26282600243887239
-3.9575,-0.0072563140857879876,-0.072086511145858609
-3.9569999999999999,-0.11395806266261441,0.10805634174198775
-3.9565000000000001,-0.26334051067017139,0.24581264100916439
-3.956,-0.65813698040442903,0.4471487707073456
-3.9554999999999998,-1.2556667724346571,0.66967817721586165
-3.9550000000000001,-1.5651018433074537,0.71206473083653143
-3.9544999999999999,-1.5971123678805015,0.53192187794868506
-3.9540000000000002,-1.2556667724346571,0.30939247144016896
-3.9535,-0.64746680554674652,0.25640927941433178
-3.9529999999999998,-0.092617712947249131,0.33058574825050385
-3.9525000000000001,0.29150858192932599,0.35177902506083869
-3.952,0.50491207908297886,0.31998910984533641
-3.9514999999999998,0.59027347794443985,0.29879583303500157
-3.9510000000000001,0.59027347794443985,0.18223281057815977
-3.9504999999999999,0.65429452709053582,-0.04029659593035631
-3.9500000000000002,0.76099627566736228,-0.26282600243887239
-3.9495,0.65429452709053582,-0.41117894011121647
-3.9489999999999998,0.4835717293676135,-0.52774196256805828
-3.9485000000000001,0.32351910650237387,-0.62311170821456507
-3.948,0.23815770764091276,-0.67609490024040231
-3.9474999999999998,0.15279630877945163,-0.28401927924920728
-3.9470000000000001,0.55826295337139209,0.37297230187117358
-3.9464999999999999,1.1557927454016199,0.92399749893988004
-3.9460000000000002,0.91037872367491923,1.1359302670432285
-3.9455,0.15279630877945163,1.0405605213967219
-3.9449999999999998,-0.18864928666639288,0.39416557868150842
-3.9445000000000001,-0.23132998609712346,-0.31580919446470956
-3.944,-0.14596858723566233,-0.81385119950757889
-3.9434999999999998,-0.039266838658835915,-1.0469772444212624
-3.9430000000000001,0.046094560202625215,-1.0681705212315973
-3.9424999999999999,0.08877525963335578,-0.96220413717992292
-3.9420000000000002,0.12078578420640371,-0.78206128429207655
-3.9415,0.11011560934872107,-0.57012851618872795
-3.9409999999999998,0.046094560202625215,-0.33700247127504446
-3.9405000000000001,-0.039266838658835915,-0.12506970317169577
-3.9399999999999999,-0.15663876209334496,0.086863064931652884
-3.9394999999999998,-0.4554036581084589,0.36237566346600614
-3.9390000000000001,-1.0742737998540521,0.81803111488820579
-3.9384999999999999,-1.7144842913150107,1.2524932895000704
-3.9380000000000002,-2.3333544330606037,1.5174092496292562
-3.9375,-2.386705307349017,1.1995100974742332
-3.9369999999999998,-1.6611334170265974,0.50013196273318283
-3.9365000000000001,-0.82885977812735145,-0.14626297998203064
-3.9359999999999999,-0.16730893695102761,-0.55953187778356051
-3.9355000000000002,0.28083840707164331,-0.70788481545590454
-3.9350000000000001,0.52625242879834411,-0.65490162343006741
-3.9344999999999999,0.6116138276598051,-0.49595204735255594
-3.9340000000000002,0.62228400251748783,-0.30521255605954212
-3.9335,0.78233662538272752,-0.12506970317169577
-3.9329999999999998,0.71831557623663156,0.012686596095480854
-3.9325000000000001,0.53692260365602662,0.12924961855232261
-3.9319999999999999,0.35552963107542179,0.21402272579366208
-3.9315000000000002,0.24882788249859539,0.29879583303500157
-3.931,0.18480683335249956,0.54251851635385251
-3.9304999999999999,0.52625242879834411,0.95578741415538238
-3.9300000000000002,1.2304839694053984,1.3054764815259077
-3.9295,1.7639927122895305,1.4962159728189213
-3.9289999999999998,1.2304839694053984,1.4220395039827496
