Class_2_Relax_eyes_open/Class_2_Relax_Eyes_open_Turki_7.csv

#Digilent WaveForms Oscilloscope Acquisition
#Device Name: EExplorer
#Serial Number: SN:210151A2B84A
#Date Time: 2020-12-10 14:05:45.601
#Sample rate: 2000Hz
#Samples: 16384
#Trigger: Source: Channel 1 Type: Edge Condition: Rising Level: 0 V Hyst.: Auto HoldOff: 0 s
#Channel 1: Range: 1 V/div Offset: 0 V Attenuation: 1 X
#Channel 2: Range: 1 V/div Offset: 0 V Attenuation: 1 X
#Power Supplies: ON
#Fixed Supply: ON
#Voltage: 3.3 V Readback: 3.326 V
#Positive Supply: ON
#Voltage: 3.7 V Readback: 3.713 V
#Current: 40 mA Readback: 22 mA
#Negative Supply: ON
#Voltage: -3.7 V Readback: -4.078 V
#Current: -40 mA Readback: -5 mA
#Reference 1: ON
#Voltage: 0 V
#Reference 2: ON
#Voltage: 0 V

Time (s),Channel 1 (V),Channel 2 (V)
-4.096,0.5902734779444399,0.3517790250608387
-4.0955,0.238157707641233,-0.6231117082136785
-4.095,-0.5194247072552244,-1.407262950197466
-4.0945,-1.255666772434657,-1.968884785670829
-4.094,-1.81051586503365,-2.053657892912091
-4.0935,-2.151961460479572,-1.926498232049465
-4.093,-1.682473766741963,-1.163540266878104
-4.0925,-0.7861790786974359,-0.4323722169222164
-4.092,0.03542438534544721,-0.05089323433547555
-4.0915,0.5902734779444399,0.002089957690313421
-4.091,0.8783681991018712,-0.1038764263613609
-4.0905,0.9743997728211024,-0.2628260024390362
-4.09,1.070431346540159,-0.4429688553267188
-4.0895,1.070431346540159,-0.2734226408440398
-4.089,0.9530594231057565,0.02328323450037845
-4.0885,0.8356874996711408,0.2246193641988295
-4.088,0.7503261008096795,0.4895353243280153
-4.0875,0.7289857510943337,0.6272916235950667
-4.087,0.334189281359319,0.1928294489827779
-4.0865,-0.4767440078238243,-0.4111789401112165
-4.086,-1.234326422718603,-0.9092209451536328
-4.0855,-1.554431668449635,-0.9939940523953674
-4.085,-1.405049220442214,-0.9304142219644207
-4.0845,-0.7861790786971836,-0.7184814538612647
-4.084,-0.1566387620929374,-0.4217755785160081
-4.0835,0.291508581929326,-0.008506680714854012
-4.083,0.5475927785137094,0.6166949851900245
-4.0825,0.6542945270905552,1.358459673552304
-4.082,0.6756348768059011,1.973064701051456
-4.0815,0.6009436528021226,2.174400830749637
-4.081,0.5689331282291037,1.877694955405219
-4.0805,0.3768699807907871,1.528005888034424
-4.08,-0.1886492866663929,0.8604176685088755
-4.0795,-0.0499370135166447,0.8922075837243489
-4.079,-0.1139580626632937,0.6272916235943535
-4.0785,-0.8608703027003992,-0.2946159176543747
-4.078,-1.778505340460272,-1.205926820497945
-4.0775,-2.418715831922472,-1.905304955240307
-4.077,-2.866863175944736,-2.435136875498196
-4.0765,-2.589438629645239,-2.360960406662092
-4.076,-1.46907026958733,-1.481439419032424
-4.0755,-0.391382608962363,-0.7078848154559045
-4.075,0.3768699807907871,-0.2416327256285375
-4.0745,0.7930068002405459,-0.01910331912000217
-4.074,0.942389248247967,0.002089957690313421
-4.0735,0.9957401225363802,-0.1992461720078678
-4.073,0.9850699476787074,-0.2522293640336568
-4.0725,0.8783681991018712,-0.01910331912002144
-4.072,0.7716664505250448,0.2246193641988295
-4.0715,0.7076454013790072,0.3941655786813542
-4.071,0.6863050516639428,0.4789386859225491
-4.0705,1.081101521397841,0.1504428953626575
-4.07,1.561259389993124,-0.5383386009725992
-4.0695,1.006410297393005,-1.195330182094021
-4.069,-0.156638762093345,-1.650985633515806
-4.0685,-0.9675720512772257,-1.75695201756748
-4.068,-0.9248913518460778,-1.534422611058589
-4.0675,-0.4660738329661415,-1.121153713257435
-4.067,0.01408403562957729,-0.6125150698093976
-4.0665,0.3661998059332792,0.07626642652728537
-4.066,0.5582629533713921,0.9557874141553824
-4.0655,0.6436243522328531,1.729342017732605
-4.065,0.6649647019481989,2.184997469154391
-4.0645,0.6436243522328531,2.301560491611646
-4.064,0.6116138276598051,2.142610915534135
-4.0635,0.5796033030867864,1.856501678594874
-4.063,0.5796033030867282,1.369056311956652
-4.0625,0.5475927785137094,1.082947075017392
-4.062,0.4088805053639611,0.4789386859233973
-4.0615,0.2168173579249264,-0.2628260024394988
-4.061,-0.4660738329661415,-0.9516074987747555
-4.0605,-0.8822106524157645,-1.174136905283272
-4.06,-1.341028171296409,-1.407262950197129
-4.0595,-1.661133417026597,-1.598002441489969
-4.059,-0.9035510021311299,-1.068170521231597
-4.0585,-0.1352984123786785,-0.6019184314046544
-4.058,0.4515612047945656,-0.2946159176543747
-4.0575,0.825017324813458,-0.05089323433552374
-4.057,0.9317190733901874,-0.09327978795615492
-4.0565,1.027750647109428,-0.3158091944647096
-4.056,0.974399772821015,-0.1144730647665284
-4.0555,0.8570278493866128,0.2246193641985211
-4.055,0.7503261008096214,0.5213252395436525
-4.0545,0.6863050516635838,0.6696781772158616
-4.054,0.8250173248133319,0.5319218779488104
-4.0535,1.486568165990122,-0.2098428104137966
-4.053,1.860024286008674,-1.046977244421262
-4.0525,1.15579274540162,-1.640388995110639
-4.052,0.1848068333521987,-1.905304955239728
-4.0515,-0.1459685872356623,-1.79933857118815
-4.051,-0.04993701351651855,-1.449649503817625
-4.0505,0.1741366584946131,-1.015187329206155
-4.05,0.3661998059331045,-0.5277419625680583
-4.0495,0.5049120790829789,0.1292496185523226
-4.049,0.5796033030866894,0.9239974989391572
-4.0485,0.6009436528021322,1.655165548896809
-4.048,0.6116138276598051,2.068434446697963
-4.0475,0.5902734779444593,2.216787384370172
-4.047,0.5796033030867379,2.174400830749339
-4.0465,0.5582629533713921,1.845905040189447
-4.046,0.536922603656046,1.294879843121241
-4.0455,0.3128489316444001,0.3941655786807374
-4.045,-0.007256314085787988,-0.4535654937318862
-4.0445,-0.5300948821122373,-1.121153713257435
-4.044,-0.8928808272733598,-1.439052865412197
-4.0435,-0.7968492535543035,-1.152943628472937
-4.043,-0.2953510352432193,-0.6231117082145651
-4.0425,0.2274875327827546,-0.3052125560598312
-4.042,0.5049120790829789,-0.2946159176543747
-4.0415,0.8143471499557753,-0.1780528951975329
-4.041,0.7076454013790461,-0.4217755785161623
-4.0405,0.1527963087796845,-1.08936379804198
-4.04,0.408880505363835,-1.142346990067769
-4.0395,0.5475927785135832,-0.951607498774929
-4.039,0.6436243522329113,-0.4005823017055382
-4.0385,0.707645401378949,0.1610395337678249
-4.038,0.6649647019482572,0.468342047517401
-4.0375,0.7076454013794246,0.5425185163533032
-4.037,1.230483969405398,-0.06148987274069118
-4.0365,1.401206767128321,-0.9410108603695881
-4.036,0.440891029935767,-1.566212526274669
-4.0355,-0.7861790786966207,-1.788741932782983
-4.035,-1.51175096901904,-1.703968825541643
-4.0345,-1.277007122150236,-1.417859588602383
-4.034,-0.658136980404429,-1.004590690800593
-4.0335,-0.07127736323188383,-0.4429688553267188
-4.033,0.3235191065020148,0.3093924714394847
-4.0325,0.547592778513787,1.199510097474898
-4.032,0.6329541773751706,1.930678147430786
-4.0315,0.6436243522328434,2.269770576395835
-4.031,0.6222840025174587,2.100224361912858
-4.0305,0.5902734779444399,1.432636142387917
-4.03,0.568933128229094,0.8710143069145537
-4.0295,0.5369226036558035,0.5531151547584803
-4.029,0.291508581929326,-0.04029659593035631
-4.0285,-0.4874141826815069,-0.7078848154559045
-4.028,-1.159635198715863,-1.290699927740441
-4.0275,-1.543761493592088,-1.650985633515806
-4.027,-1.885207089037933,-1.640388995110639
-4.0265,-1.671803591884474,-1.428456227007483
-4.026,-0.7968492535543035,-0.7820612842920766
-4.0255,0.01408403562957729,-0.326405832869877
-4.025,0.5582629533708972,-0.1356663415770367
-4.0245,0.8356874996712184,-0.08268314955105495
-4.024,0.9210488985326017,-0.1144730647665284
-4.0235,0.9317190733902748,-0.389985663300631
-4.023,1.177133095116616,-0.2522293640336279
-4.0225,0.7716664505250448,-0.1674562567923655
-4.022,0.238157707641398,-0.1462629799820499
-4.0215,0.2808384070717113,0.2352160026041897
-4.021,0.3555296310754218,0.4471487707073456
-4.0205,0.6542945270905358,0.1716361721729923
-4.02,1.123782220828126,-0.6125150698101397
-4.0195,0.6329541773751706,-1.42845622700729
-4.019,-0.4554036581084589,-1.820531847998485
-4.0185,-1.116954499284181,-1.862918401619116
-4.018,-0.9035510021311299,-1.545019249464132
-4.0175,-0.4020527838200457,-1.025783967610927
-4.017,0.06743490991756351,-0.4005823017066177
-4.0165,0.387540155648625,0.4259554938977624
-4.016,0.5582629533713921,1.25249328950007
-4.0155,0.6222840025174297,1.845905040188907
-4.015,0.6329541773751415,2.121417638723579
-4.0145,0.6009436528021226,1.877694955404949
-4.014,0.5796033030867768,1.655165548896635
-4.0135,0.5689331282290649,1.506812611223636
-4.013,0.5582629533713921,1.00877060618122
-4.0125,0.4835717293676135,0.1928294489833272
-4.012,-0.1566387620940922,-0.6654982618358612
-4.0115,-0.9782422261349084,-1.354279758171118
-4.011,-1.51175096901904,-1.79933857118815
-4.0105,-1.821186039891556,-1.809935209593308
-4.01,-1.895877263895616,-1.619195718300304
-4.0095,-1.255666772434657,-0.8668343915334161
-4.009,-0.4020527838208221,-0.252229364034264
-4.0085,0.2915085819297045,0.07626642652647582
-4.008,0.707645401378949,0.06566978812131802
-4.0075,0.8890383739593888,-0.1038764263612067
-4.007,0.9743997728211703,-0.326405832869983
-4.0065,1.145122570543937,-0.4429688553267188
-4.006,1.102441871113207,-0.09327978795619347
-4.0055,0.9423892482477341,0.3305857482506291
-4.005,0.6863050516635838,0.4683420475176805
-4.0045,0.6222840025174878,0.5849050699745222
-4.004,0.7823366253826693,0.4259554938958734
-4.0035,0.7183155762366316,-0.8244478379127463
-4.003,0.7183155762366316,-1.407262950196955
-4.0025,-0.2633405106692785,-1.799338571187794
-4.002,-1.394379045584531,-1.873515040024322
-4.0015,-1.906547438753298,-1.735758740757146
-4.001,-1.479740444446381,-1.52382597265399
-4.0005,-0.7648387289806635,-1.28010328933457
-4,-0.1139580626626144,-0.8668343915334161
-3.9995,0.3128489316446912,-0.2310360872233701
-3.999,0.5369226036560266,0.6378882620003594
-3.9985,0.6329541773751706,1.485619334413754
-3.998,0.6436243522328531,1.814115124973944
-3.9975,0.6222840025174878,1.411442865577582
-3.997,0.5902734779444399,1.135930267043229
-3.9965,0.5689331282290746,1.00877060618122
-3.996,0.5369226036560266,0.8922075837243778
-3.9955,0.1207857842064037,0.3517790250608387
-3.995,-0.7114878546928423,-0.4641621321370536
-3.9945,-1.490410619303675,-1.195330182093607
-3.994,-2.013249187330125,-1.629792356705471
-3.9935,-2.408045657064382,-1.84172512480882
-3.993,-1.927887788468663,-1.322489842955616
-3.9925,-0.9569018764195432,-0.5383386009732256
-3.992,-0.07127736323188383,-0.02969995752518888
-3.9915,0.5369226036560266,0.1822328105781598
-3.991,0.8356874996711408,0.1716361721729923
-3.9905,0.9317190733902845,0.002089957690313421
-3.99,1.038420821967111,-0.2310360872233701
-3.9895,1.006410297394063,-0.1038764263613609
-3.989,0.8890383739595538,0.1822328105781598
-3.9885,0.7716664505250448,0.4153588554918433
-3.988,0.707645401378949,0.5425185163538525
-3.9875,0.5689331282290746,0.5213252395435176
-3.987,-0.09261771294724913,0.05507314971615059
-3.9865,-0.9248913518464952,-0.5595318777835605
-3.986,-0.8715404775580819,-0.8986243067489184
-3.9855,-0.5941159312583333,-1.004590690800593
-3.985,-0.7434983792658902,-0.9198175835592532
-3.9845,-0.5300948821122373,-0.6019184314042303
-3.984,-0.1352984123779797,-0.06148987274069118
-3.9835,0.2168173579255475,0.6802748156210291
-3.983,0.4408910299368829,1.475022696008586
-3.9825,0.5582629533713921,2.068434446697963
-3.982,0.6009436528021226,2.407526875663321
-3.9815,0.4835717293676135,2.322753768421981
-3.981,0.5582629533713921,2.174400830749637
-3.9805,-0.06060718837420119,1.496215972818921
-3.98,-0.1459685872356623,1.284283204715573
-3.9795,-0.007256314085787988,1.29487984312074
-3.979,-0.04993701351651855,0.9028042221295453
-3.9785,-0.6688071552621118,-0.08268314955102604
-3.978,-1.26633694729234,-1.110557074852267
-3.9775,-1.810515865034154,-1.831128486403653
-3.977,-2.365364957633652,-2.244397384205182
-3.9765,-2.461396531352796,-2.127834361748341
-3.976,-1.693143941599645,-1.248313374119443
-3.9755,-0.6474668055467465,-0.4323722169215513
-3.975,0.1741366584948169,0.03387987290581572
-3.9745,0.6649647019482183,0.1504428953626575
-3.974,0.8783681991018712,0.09745970333682032
-3.9735,0.9850699476786977,-0.1356663415768632
-3.973,1.006410297394063,-0.2628260024388724
-3.9725,0.9103787236749192,-0.05089323433552374
-3.972,0.7823366253827275,0.2140227257936621
-3.9715,0.6863050516635838,0.4047622170866759
-3.971,0.6649647019482183,0.4471487707073456
-3.9705,1.102441871113207,0.13984625695749
-3.97,1.497238340847464,-0.3899856633008816
-3.9695,0.7183155762366316,-0.9939940523954253
-3.969,-0.4020527838200457,-1.34368311976595
-3.9685,-1.148965023857831,-1.417859588602123
-3.968,-1.052933450138687,-1.237716735714276
-3.9675,-0.5514352318276028,-0.8986243067489184
-3.967,-0.03926683865883591,-0.474758770542221
-3.9665,0.3235191065023739,0.07626642652648545
-3.966,0.5262524287983441,0.8710143069140429
-3.9655,0.6116138276598051,1.6657621873016
-3.965,0.6329541773751706,2.184997469154805
-3.9645,0.6116138276598051,2.184997469154805
-3.964,0.5796033030867573,2.068434446697963
-3.9635,0.5475927785137094,1.994257977861791
-3.963,0.5262524287983441,1.390249588767247
-3.9625,0.408880505363835,0.6696781772158616
-3.962,0.2168173579255475,-0.09327978795619347
-3.9615,0.5475927785137094,-0.8138511995075789
-3.961,0.5902734779444399,-1.216523458903942
-3.9605,0.1101156093487211,-1.481439419033127
-3.96,-0.6261264558313813,-1.566212526274467
-3.9595,-0.6474668055467465,-1.068170521231597
-3.959,-0.1673089369510276,-0.474758770542221
-3.9585,0.3235191065023739,-0.1780528951975329
-3.958,0.6542945270905358,-0.1144730647665284
-3.9575,0.8143471499557753,-0.1356663415768632
-3.957,0.8356874996711408,-0.2628260024388724
-3.9565,1.038420821967111,-0.2628260024388724
-3.956,0.9530594231056497,-0.01910331912002144
-3.9555,0.1207857842064037,-0.4535654937318862
-3.955,0.1101156093487211,-0.1886495336027004
-3.9545,0.1634664836371343,0.04447651131098315
-3.954,0.5689331282290746,-0.1144730647665284
-3.9535,1.454557641416734,-0.7608680074817418
-3.953,1.123782220828572,-1.460246142222792
-3.9525,-0.2846808603855366,-1.894708316834657
-3.952,-1.67180359188428,-1.947691508860494
-3.9515,-2.354694782775969,-1.831128486403653
-3.951,-1.906547438753298,-1.576809164679634
-3.9505,-1.020922925565639,-1.205926820498774
-3.95,-0.2313299860971235,-0.7078848154559045
-3.9495,0.291508581929326,-0.05089323433552374
-3.949,0.5582629533713921,0.7544512844572011
-3.9485,0.6542945270905358,1.517409249629256
-3.948,0.6542945270905358,1.6657621873016
-3.9475,0.6116138276598051,1.432636142387917
-3.947,0.5796033030867573,1.104140351827727
-3.9465,0.5369226036560266,0.7120647308365314
-3.946,0.4835717293676135,0.04447651131098315
-3.9455,-0.007256314085787988,-0.7396747306714069
-3.945,-0.8288597781273515,-1.396666311791788
-3.9445,-1.46907026958831,-1.88411167842949
-3.944,-1.885207089037933,-1.947691508860494
-3.9435,-2.344024607918286,-1.894708316834657
-3.943,-2.183971985053047,-1.566212526274467
-3.9425,-1.212986073003927,-0.6549016234300674
-3.942,-0.3166913849585846,0.002089957690313421
-3.9415,0.3448594562177392,0.2670059178194992
-3.941,0.7183155762366316,0.2352160026039969
-3.9405,0.8676980242441885,0.04447651131098315
-3.94,0.9957401225363802,-0.1462629799820306
-3.9395,0.9957401225363802,0.02328323450064829
-3.939,0.8783681991018712,0.3729723018711736
-3.9385,0.7609962756673623,0.6484849004055269
-3.938,0.6649647019482183,0.849821030103708
-3.9375,0.6329541773751706,0.8180311148882058
-3.937,0.6649647019482183,0.2140227257936621
-3.9365,1.059761171682476,-0.3793890248957141
-3.936,0.9530594231056497,-0.8562377531282487
-3.9355,0.2701682322139607,-1.068170521231597
-3.935,-0.2633405106701714,-0.9939940523954253
-3.9345,-0.2420001609548061,-0.6443049850249
-3.934,-0.007256314085787988,-0.1144730647665284
-3.9335,0.2381577076409128,0.6378882620003594
-3.933,0.4302208550792003,1.42203950398275
-3.9325,0.5262524287983441,2.015451254672126
-3.932,0.5155822539406614,2.290963853206479
-3.9315,0.5155822539406614,2.343947045232316
-3.931,0.3021787567870086,1.994257977861791
-3.9305,-0.2633405106701714,1.125333628638062
-3.93,-0.1459685872356623,0.3941655786815084
-3.9295,-0.007256314085787988,-0.05089323433552374
-3.929,-0.124628237520297,-0.6972881770507372
-3.9285,-0.807519428411986,-1.38606967338662
-3.928,-1.501080794161358,-1.979481424075996
-3.9275,-2.119950935906951,-2.509313344334368
-3.927,-2.706810553079496,-2.700052835627382
-3.9265,-2.824182476514005,-2.382153683472359
-3.926,-2.066600061618538,-1.280103289334946
-3.9255,-0.9889124009925911,-0.3370024712750445
-3.925,-0.04993701351651855,0.1610395337678249
-3.9245,0.5582629533713921,0.2352160026039969
-3.924,0.857027849386506,0.1292496185523226
-3.9235,1.017080472251745,-0.1356663415768632
-3.923,1.134452395686255,-0.4111789401112165
-3.9225,1.049090996824793,-0.1992461720078678
-3.922,0.8890383739595538,0.1716361721729923
-3.9215,0.7503261008096795,0.457745409112513
-3.921,0.6863050516635838,0.6166949851900245
-3.9205,1.070431346540159,0.3623756634660061
-3.92,1.657290963712704,-0.3370024712750445
-3.9195,1.230483969405398,-1.01518732920576
-3.919,0.08877525963335578,-1.481439419033127
-3.9185,-0.6794773301197943,-1.619195718300304
-3.918,-0.6474668055467465,-1.417859588602123
-3.9175,-0.2953510352432193,-1.05757388282643
-3.917,0.08877525963335578,-0.6549016234300674
-3.9165,0.3555296310754218,-0.1144730647665284
-3.916,0.5155822539406614,0.6484849004055269
-3.9155,0.5796033030867573,1.432636142387917
-3.915,0.5902734779444399,1.930678147430786
-3.9145,0.5689331282290746,1.75053529454294
-3.914,0.5582629533713921,1.178316820663898
-3.9135,0.5475927785137094,0.7120647308365314
-3.913,0.5369226036560266,0.1928294489833272
-3.9125,0.4622313796522482,-0.1886495336027004
-3.912,-0.1779791118087102,-0.6019184314042303
-3.9115,-0.7968492535543035,-0.8774310299385835
-3.911,-1.437059745015262,-1.237716735714276
-3.9105,-1.991908837614759,-1.502632695843462
-3.91,-1.949228138184029,-1.131750351662602
-3.9095,-1.170305373573196,-0.5277419625680583
-3.909,-0.2953510352432193,-0.1356663415768632
-3.9085,0.3661998059331045,0.002089957690313421
-3.908,0.7609962756673623,-0.02969995752518888
-3.9075,0.8997085488172365,-0.1356663415768632
-3.907,0.8676980242441885,-0.3687923864905467
-3.9065,1.006410297394063,-0.3687923864905467
-3.906,0.4622313796522482,-0.2734226408440398
-3.9055,0.0674349099179905,0.02328323450064829
-3.905,0.1101156093487211,0.3517790250608387
-3.9045,0.2061471830678648,0.4895353243280153
-3.904,0.2488278824985954,0.2564092794143318
-3.9035,-0.4980843575391895,-0.5065486857577234
-3.903,-1.533091318734406,-1.354279758171118
-3.9025,-2.280003558772191,-1.862918401619155
-3.902,-2.866863175944736,-1.990078062481164
-3.9015,-2.920214050233149,-1.84172512480882
-3.901,-1.949228138184029,-1.555615887869299
-3.9005,-0.8715404775580819,-1.174136905283272
-3.9,-0.06060718837420119,-0.6549016234300674
-3.8995,0.4195506802215176,0.05507314971615059
-3.899,0.6436243522328531,0.92399749893988
-3.8985,0.6969752265212663,1.697552102517103
-3.898,0.6756348768059011,1.909484870620451
-3.8975,0.6222840025174878,1.549199164844759
-3.897,0.5902734779444399,0.7968378380778709
-3.8965,0.5796033030867573,0.4259554938970107
-3.896,0.5155822539406614,0.383568940276341
-3.8955,0.1848068333524996,-0.06148987274069118
-3.895,0.09944543449103843,-0.6760949002404023
-3.8945,-0.4127229586777283,-1.258910012524611
-3.894,-0.839529952985034,-1.47084278062796
-3.8935,-0.839529952985034,-1.0999604364471
-3.893,-0.423393133535411,-0.5383386009732256
-3.8925,0.09944543449103843,-0.2310360872233701
-3.892,0.5262524287983441,-0.1886495336027004
-3.8915,0.7609962756673623,-0.2416327256285375
-3.891,0.857027849386506,-0.3370024712750445
-3.8905,0.8676980242441885,-0.4111789401112165
-3.89,1.027750647109428,-0.5277419625680583
-3.8895,1.070431346540159,-0.3370024712750445
-3.889,0.9530594231056497,0.01268659609548085
-3.8885,0.8143471499557753,0.3411823866556712
-3.888,0.7289857510943143,0.5637117931641874
-3.8875,0.7609962756673623,0.6166949851900245
-3.887,1.177133095116985,0.09745970333682032
-3.8865,1.273164668836129,-0.3899856633008816
-3.886,0.09944543449103843,-1.05757388282643
