Class_2_Relax_eyes_open/Class_2_Relax_eyes_open_Basim_12.csv

#Digilent WaveForms Oscilloscope Acquisition
#Device Name: EExplorer
#Serial Number: SN:210151A2B84A
#Date Time: 2021-02-04 10:53:35.096
#Sample rate: 2000Hz
#Samples: 16384
#Trigger: Source: Channel 1 Type: Edge Condition: Rising Level: 0 V Hyst.: Auto HoldOff: 0 s
#Channel 1: Range: 1 V/div Offset: 0 V Attenuation: 1 X
#Channel 2: Range: 1 V/div Offset: 0 V Attenuation: 1 X
#Power Supplies: ON
#Fixed Supply: ON
#Voltage: 3.3 V Readback: 3.324 V
#Positive Supply: ON
#Voltage: 3.7 V Readback: 3.712 V
#Current: 40 mA Readback: 20 mA
#Negative Supply: ON
#Voltage: -3.7 V Readback: -3.344 V
#Current: -40 mA Readback: -7 mA
#Reference 1: ON
#Voltage: 0 V
#Reference 2: ON
#Voltage: 0 V

Time (s),Channel 1 (V),Channel 2 (V)
-4.096,0.2274875327832301,0.01268659609548085
-4.0955,0.2061471830678842,0.05507314971611203
-4.095,0.1848068333524802,0.1292496185523901
-4.0945,0.1634664836371343,0.2034260873884947
-4.094,0.1527963087794613,0.288199194629757
-4.0935,0.1527963087794128,0.3729723018711351
-4.093,0.1101156093487211,0.3305857482505039
-4.0925,-0.1032878878047376,-0.1568596183867548
-4.092,-0.3487019095319236,-0.7184814538614864
-4.0915,-0.6688071552621118,-1.174136905283272
-4.091,-0.4980843575391895,-1.0999604364471
-4.0905,-0.18864928666616,-0.5913217929985328
-4.09,0.0674349099179905,-0.008506680714854012
-4.0895,0.2061471830678648,0.4259554938970107
-4.089,0.2594980573562296,0.6378882620001667
-4.0885,0.2701682322139607,0.6908714540261965
-4.088,0.2701682322139607,0.701468092431364
-4.0875,0.3341892813599983,0.7332580076468375
-4.087,0.3235191065023351,0.7120647308364544
-4.0865,0.2808384070716433,0.627291623595192
-4.086,0.2381577076409516,0.5107286011384562
-4.0855,0.2061471830678454,0.4047622170865795
-4.085,0.1848068333524996,0.2987958330350016
-4.0845,-0.01792648894328625,0.3835689402762639
-4.084,-0.7114878546934827,0.09745970333615532
-4.0835,-1.415719395299897,-0.6337083466197325
-4.083,-1.714484291315011,-1.004590690800593
-4.0825,-1.341028171295604,-0.7608680074814334
-4.082,-0.7755089038389382,-0.4217755785163839
-4.0815,-0.2953510352432193,-0.1568596183871981
-4.081,0.01408403562929583,0.00208995769016887
-4.0805,0.1634664836371343,0.06566978812131802
-4.08,0.2168173579255475,0.08686306493165288
-4.0795,0.2168173579255475,0.0762664265264951
-4.079,0.2061471830678454,0.06566978812132765
-4.0785,0.1848068333524996,0.07626642652648545
-4.078,0.1634664836371537,0.08686306493164325
-4.0775,0.1527963087794516,0.108056341742007
-4.077,0.1527963087794516,0.1292496185523226
-4.0765,0.1101156093487599,0.108056341742007
-4.076,-0.1673089369512799,-0.3581957480859479
-4.0755,-0.4447334832507763,-0.9833974139902578
-4.075,-0.4767440078238243,-1.407262950196955
-4.0745,-0.03926683865850596,-1.629792356705114
-4.074,0.3235191065023739,-1.237716735714276
-4.0735,0.4515612047945656,-0.6019184314042303
-4.073,0.4515612047945656,-0.02969995752570931
-4.0725,0.3875401556484697,0.3729723018711736
-4.072,0.3128489316446912,0.55311515475902
-4.0715,0.2594980573563266,0.6166949851899667
-4.071,0.3448594562177974,0.6802748156210676
-4.0705,0.408880505363835,0.7226613692416989
-4.07,0.3661998059331433,0.7014680924313833
-4.0695,0.3021787567869504,0.6484849004054594
-4.069,0.2381577076409128,0.5743084315693548
-4.0685,0.1954770082101822,0.4895353243280153
-4.068,0.142126133921342,0.5425185163538525
-4.0675,-0.3273615598162672,0.5425185163538525
-4.067,-0.9248913518464952,-0.1356663415768632
-4.0665,-1.244996597577042,-0.6549016234298265
-4.066,-1.319687821580753,-0.3899856633008816
-4.0655,-0.9462317015618604,-0.1674562567923655
-4.065,-0.4874141826819242,-0.07208651114594535
-4.0645,-0.1352984123779797,-0.05089323433552374
-4.064,0.07810508477567314,-0.05089323433552374
-4.0635,0.1848068333524025,-0.06148987274068154
-4.063,0.2168173579255378,-0.05089323433550447
-4.0625,0.2061471830678648,-0.02969995752518888
-4.062,0.184806833352519,0.0126865960954423
-4.0615,0.1741366584948072,0.06566978812137585
-4.061,0.1634664836371343,0.1292496185523226
-4.0605,0.1527963087794516,0.2034260873884947
-4.06,0.1314559590637467,0.2352160026036307
-4.0595,-0.2420001609548061,-0.1674562567923655
-4.059,-0.7968492535543035,-0.8138511995075789
-4.0585,-1.116954499284492,-1.343683119765469
-4.058,-0.7755089038389382,-1.576809164679634
-4.0575,-0.2099896363817582,-1.174136905283272
-4.057,0.1741366584944675,-0.4959520473531728
-4.0565,0.3448594562177392,0.1292496185523226
-4.056,0.3875401556484697,0.5213252395435176
-4.0555,0.3555296310754509,0.7332580076466736
-4.055,0.3021787567870377,0.7756445612674493
-4.0545,0.3341892813600565,0.6802748156210291
-4.054,0.4622313796521317,0.5213252395436622
-4.0535,0.4302208550791227,0.4895353243280057
-4.053,0.3448594562177392,0.4789386859228479
-4.0525,0.2594980573562781,0.457745409112513
-4.052,0.2274875327832107,0.4683420475176902
-4.0515,0.2061471830678648,0.4789386859228479
-4.051,-0.1352984123779797,0.5425185163538525
-4.0505,-0.8822106524150851,-0.06148987274014184
-4.05,-1.405049220442214,-0.8562377531282487
-4.0495,-1.362368521011484,-1.142346990067769
-4.049,-0.9035510021315472,-0.8562377531285089
-4.0485,-0.4340633083927734,-0.4641621321367645
-4.048,-0.08194753808956648,-0.1462629799820306
-4.0475,0.1101156093485464,0.03387987290565189
-4.047,0.1954770082102016,0.1080563417419974
-4.0465,0.2168173579255475,0.1186529801471552
-4.046,0.2061471830678746,0.09745970333683959
-4.0455,0.1954770082101628,0.06566978812130839
-4.045,0.1741366584948169,0.05507314971615059
-4.0445,0.1634664836371343,0.04447651131098315
-4.044,0.1527963087794516,0.04447651131099279
-4.0435,0.1527963087794516,0.05507314971615059
-4.043,0.03542438534494258,-0.1038764263613609
-4.0425,-0.3166913849582643,-0.6337083466192508
-4.042,-0.7861790786966207,-1.195330182093607
-4.0415,-0.8608703027003992,-1.640388995110639
-4.041,-0.4340633083934818,-1.386069673386852
-4.0405,-0.02859666380093007,-0.7290780922656901
-4.04,0.2168173579255475,-0.1250697031716958
-4.0395,0.3235191065022768,0.2881991946294582
-4.039,0.3341892813600371,0.5213252395435851
-4.0385,0.3128489316446912,0.5955017083796896
-4.038,0.2915085819293454,0.6166949851900052
-4.0375,0.3341892813600565,0.7014680924313833
-4.037,0.3341892813600565,0.7226613692416989
-4.0365,0.291508581929326,0.6696781772158616
-4.036,0.2594980573562684,0.6166949851899763
-4.0355,0.2488278824985954,0.5637117931641874
-4.035,0.2274875327832301,0.5001319627331828
-4.0345,-0.103287887804631,0.5637117931641296
-4.034,-0.839529952985034,0.05507314971615059
-4.0335,-1.415719395299897,-0.7502713690765743
-4.033,-1.405049220442224,-1.152943628472571
-4.0325,-0.9675720512767793,-0.9304142219640449
-4.032,-0.4767440078238243,-0.5171453241628908
-4.0315,-0.1139580626629443,-0.1780528951978413
-4.031,0.09944543449112578,0.03387987290591209
-4.0305,0.1954770082101822,0.13984625695749
-4.03,0.227487532783201,0.1716361721729634
-4.0295,0.2168173579255281,0.1610395337678057
-4.029,0.1954770082101822,0.13984625695749
-4.0285,0.1741366584948169,0.1186529801471552
-4.028,0.1634664836371343,0.1186529801471648
-4.0275,0.1634664836371343,0.1292496185523226
-4.027,0.1634664836371343,0.13984625695749
-4.0265,0.08877525963342371,0.05507314971622769
-4.026,-0.3593720843893152,-0.474758770542221
-4.0255,-0.7861790786966207,-1.110557074852267
-4.025,-1.212986073003538,-1.682775548730788
-4.0245,-0.9248913518460293,-1.809935209592778
-4.024,-0.4127229586777283,-1.216523458903942
-4.0235,-0.007256314086156734,-0.4747587705428957
-4.023,0.2274875327833077,0.1610395337681622
-4.0225,0.3128489316446912,0.5319218779486851
-4.022,0.3235191065023642,0.7014680924312098
-4.0215,0.3021787567871348,0.7014680924311713
-4.021,0.4408910299368829,0.4895353243280153
-4.0205,0.5155822539406614,0.3305857482505039
-4.02,0.4515612047944783,0.330585748250552
-4.0195,0.3555296310754218,0.383568940276341
-4.019,0.2701682322139607,0.4047622170866759
-4.0185,0.216817357925596,0.4047622170866759
-4.018,-0.09261771294724913,0.1928294489833272
-4.0175,-0.8288597781273515,-0.4959520473525559
-4.017,-1.287677297007288,-1.142346990067181
-4.0165,-1.373038695868894,-1.502632695843221
-4.016,-1.074273799854052,-1.237716735714276
-4.0155,-0.6047861061164428,-0.7184814538615443
-4.015,-0.2099896363815253,-0.284019279248947
-4.0145,0.04609456020262521,0.002089957690313421
-4.014,0.1741366584947004,0.129249618552207
-4.0135,0.2168173579255475,0.1610395337678153
-4.013,0.2168173579255475,0.1504428953626575
-4.0125,0.2061471830678648,0.1186529801471552
-4.012,0.1848068333524898,0.08686306493164325
-4.0115,0.1741366584948169,0.07626642652648545
-4.011,0.1634664836371343,0.07626642652648545
-4.0105,0.1634664836371343,0.08686306493164325
-4.01,0.1527963087794516,0.08686306493165288
-4.0095,-0.08194753808956648,-0.252229364033705
-4.009,-0.4020527838197546,-0.8774310299380148
-4.0085,-0.6474668055467174,-1.439052865412448
-4.008,-0.6154562809736985,-1.42845622700729
-4.0075,-0.3273615598165293,-0.8350444763184535
-4.007,-0.03926683865867094,-0.1992461720074438
-4.0065,0.142126133921769,0.2670059178194992
-4.006,0.2381577076409128,0.55311515475902
-4.0055,0.2808384070716433,0.6590815388106845
-4.005,0.2808384070716433,0.6484849004055269
-4.0045,0.3448594562177392,0.7120647308365314
-4.004,0.4835717293676038,0.8498210301036405
-4.0035,0.4729015545099309,0.775644561267536
-4.003,0.3982103305061524,0.627291623595192
-4.0025,0.3128489316447689,0.5001319627332985
-4.002,0.2488278824985954,0.4047622170866759
-4.0015,0.1848068333524996,0.3941655786815084
-4.001,-0.1352984123776886,0.09745970333709014
-4.0005,-0.8715404775585963,-0.6231117082151337
-4,-1.437059745015262,-1.248313374119443
-3.9995,-1.287677297007705,-1.184733543688439
-3.999,-0.807519428411986,-0.718481453861072
-3.9985,-0.3487019095316325,-0.2416327256285375
-3.998,-0.02859666380115328,0.09745970333682032
-3.9975,0.1527963087794516,0.2987958330350016
-3.997,0.2168173579255475,0.383568940276341
-3.9965,0.2274875327832301,0.4153588554918433
-3.996,0.2168173579255475,0.4047622170866759
-3.9955,0.1954770082101822,0.383568940276341
-3.995,0.1848068333524996,0.3623756634660061
-3.9945,0.1741366584948169,0.3517790250608387
-3.994,0.1634664836371343,0.3305857482505039
-3.9935,0.1634664836371343,0.3199891098453364
-3.993,0.00341386077189465,0.01268659609548085
-3.9925,-0.2633405106701714,-0.570128516188728
-3.992,-0.6154562809736985,-1.195330182093607
-3.9915,-0.6367966306890638,-1.301296566145281
-3.991,-0.3166913849585846,-0.8668343915334161
-3.9905,0.00341386077189465,-0.3475991096802118
-3.99,0.2061471830678648,0.06566978812131802
-3.9895,0.3021787567870086,0.2881991946298341
-3.989,0.3235191065023739,0.3623756634660061
-3.9885,0.3021787567870086,0.3305857482505039
-3.988,0.291508581929326,0.3199891098453364
-3.9875,0.3768699807907871,0.3411823866556712
-3.987,0.3768699807907871,0.383568940276341
-3.9865,0.3235191065023739,0.383568940276341
-3.986,0.2701682322139607,0.383568940276341
-3.9855,0.2701682322139607,0.3729723018711736
-3.985,0.2168173579255475,0.3623756634660061
-3.9845,-0.2206598112394408,0.04447651131098315
-3.984,-0.9995825758502737,-0.6760949002404023
-3.9835,-1.533091318734406,-1.322489842955616
-3.983,-1.362368521011484,-1.290699927740113
-3.9825,-0.8502001278427167,-0.8032545611024114
-3.982,-0.3700422592469978,-0.2946159176543747
-3.9815,-0.03926683865883591,0.07626642652648545
-3.981,0.1527963087794516,0.2881991946298341
-3.9805,0.2274875327832301,0.383568940276341
-3.98,0.2381577076409128,0.4153588554918433
-3.9795,0.2274875327832301,0.4047622170866759
-3.979,0.2061471830678648,0.383568940276341
-3.9785,0.1848068333524996,0.3623756634660061
-3.978,0.1741366584948169,0.3411823866556712
-3.9775,0.1741366584948169,0.3305857482505039
-3.977,0.1741366584948169,0.3199891098453364
-3.9765,0.1207857842064037,0.2246193641988295
-3.976,-0.3166913849585846,-0.326405832869877
-3.9755,-0.7434983792658902,-1.01518732920576
-3.975,-1.042263275281004,-1.576809164679634
-3.9745,-0.7968492535543035,-1.47084278062796
-3.974,-0.3593720843893152,-0.8774310299385835
-3.9735,0.00341386077189465,-0.2840192792492073
-3.973,0.2168173579255475,0.1610395337678249
-3.9725,0.3021787567870086,0.383568940276341
-3.972,0.3128489316446912,0.457745409112513
-3.9715,0.3021787567870086,0.457745409112513
-3.971,0.4302208550792003,0.2564092794143318
-3.9705,0.4835717293676135,0.13984625695749
-3.97,0.4195506802215176,0.1610395337678249
-3.9695,0.3448594562177392,0.2246193641988295
-3.969,0.3021787567870086,0.309392471440169
-3.9685,0.3235191065023739,0.457745409112513
-3.968,0.09944543449103843,0.2776025562246667
-3.9675,-0.6474668055467465,-0.4217755785163839
-3.967,-1.287677297007705,-1.152943628472937
-3.9665,-1.341028171296118,-1.523825972653797
-3.966,-0.9462317015618604,-1.163540266878104
-3.9655,-0.4767440078238243,-0.6231117082145651
-3.965,-0.1139580626626144,-0.1674562567923655
-3.9645,0.09944543449103843,0.1186529801471552
-3.964,0.2061471830678648,0.2670059178194992
-3.9635,0.2381577076409128,0.309392471440169
-3.963,0.2274875327832301,0.309392471440169
-3.9625,0.2061471830678648,0.2881991946298341
-3.962,0.1954770082101822,0.2776025562246667
-3.9615,0.1848068333524996,0.2564092794143318
-3.961,0.1741366584948169,0.2564092794143318
-3.9605,0.1741366584948169,0.2564092794143318
-3.96,0.1634664836371343,0.2352160026039969
-3.9595,-0.007256314085787988,-0.1356663415768632
-3.959,-0.2633405106701714,-0.7714646458869092
-3.9585,-0.4980843575391895,-1.375473034981453
-3.958,-0.1779791118087102,-1.852321763213987
-3.9575,0.2808384070716433,-1.650985633515806
-3.957,0.4835717293676135,-0.9939940523954253
-3.9565,0.5049120790829789,-0.3475991096802118
-3.956,0.4408910299368829,0.1186529801471552
-3.9555,0.3555296310754218,0.3941655786815084
-3.955,0.291508581929326,0.5001319627331828
-3.9545,0.3021787567870086,0.4683420475176805
-3.954,0.3341892813600565,0.3729723018711736
-3.9535,0.3021787567870086,0.3729723018711736
-3.953,0.2594980573562781,0.3941655786815084
-3.9525,0.291508581929326,0.457745409112513
-3.952,0.3448594562177392,0.5425185163538525
-3.9515,0.2488278824985954,0.4259554938970107
-3.951,-0.3593720843893152,-0.1886495336027004
-3.9505,-1.148965023857831,-0.9622041371799229
-3.95,-1.83185621474952,-1.598002441489969
-3.9495,-1.767835165603424,-1.534422611058964
-3.949,-1.148965023857831,-0.9410108603695881
-3.9485,-0.5514352318276028,-0.3581957480853793
-3.948,-0.1139580626626144,0.03387987290581572
-3.9475,0.1207857842064037,0.2564092794143318
-3.947,0.2274875327832301,0.3305857482505039
-3.9465,0.2594980573562781,0.3305857482505039
-3.946,0.2381577076409128,0.2987958330350016
-3.9455,0.2168173579255475,0.2564092794143318
-3.945,0.1954770082101822,0.2140227257936621
-3.9445,0.1848068333524996,0.1928294489833272
-3.944,0.1741366584948169,0.1716361721729923
-3.9435,0.1741366584948169,0.1716361721729923
-3.943,-0.03926683865883591,-0.07208651114585861
-3.9425,-0.5087545323968721,-0.6866915386455698
-3.942,-0.8288597781273515,-1.311893204550448
-3.9415,-0.8928808272734472,-1.820531847998485
-3.941,-0.4340633083930936,-1.619195718300304
-3.9405,-0.01792648894347063,-0.9410108603695881
-3.94,0.2274875327832301,-0.2840192792492073
-3.9395,0.3341892813600565,0.1822328105781598
-3.939,0.3555296310754218,0.4259554938970107
-3.9385,0.3235191065023739,0.5319218779486851
-3.938,0.3341892813600565,0.5637117931641874
-3.9375,0.4622313796522482,0.6908714540261965
-3.937,0.4622313796522482,0.6590815388106942
-3.9365,0.3875401556484697,0.5425185163538525
-3.936,0.3021787567870086,0.4259554938970107
-3.9355,0.2594980573562781,0.3305857482505039
-3.935,0.1741366584948169,0.13984625695749
-3.9345,-0.3700422592469978,-0.4641621321370536
-3.934,-1.159635198715513,-1.163540266878104
-3.9335,-1.725154466172693,-1.650985633515806
-3.933,-1.757164990745741,-1.248313374119443
-3.9325,-1.212986073003927,-0.6125150698093976
-3.932,-0.6154562809736985,-0.1356663415768632
-3.9315,-0.1673089369510276,0.1504428953626575
-3.931,0.09944543449103843,0.2987958330350016
-3.9305,0.2274875327832301,0.3517790250608387
-3.93,0.2594980573562781,0.3517790250608387
-3.9295,0.2488278824985954,0.3411823866556712
-3.929,0.2274875327832301,0.3411823866556712
-3.9285,0.2061471830678648,0.3305857482505039
-3.928,0.1848068333524996,0.3411823866556712
-3.9275,0.1848068333524996,0.3517790250608387
-3.927,0.1848068333524996,0.3623756634660061
-3.9265,0.1207857842064037,0.2776025562246667
-3.926,-0.3166913849585846,-0.2840192792492073
-3.9255,-0.722158029550525,-0.9833974139902578
-3.925,-0.9889124009925911,-1.311893204550448
-3.9245,-0.690147504977477,-0.9833974139902578
-3.924,-0.2526703358124887,-0.474758770542221
-3.9235,0.08877525963335578,0.01268659609548085
-3.923,0.2808384070716433,0.3729723018711736
-3.9225,0.3448594562177392,0.5319218779486851
-3.922,0.3448594562177392,0.5319218779486851
-3.9215,0.3235191065023739,0.5001319627331828
-3.921,0.4302208550792003,0.6590815388106942
-3.9205,0.4622313796522482,0.7226613692416989
-3.92,0.3982103305061524,0.627291623595192
-3.9195,0.3235191065023739,0.4895353243280153
-3.919,0.2594980573562781,0.3623756634660061
-3.9185,0.2274875327832301,0.2987958330350016
-3.918,-0.07127736323188383,0.3305857482505039
-3.9175,-0.8181896032696687,-0.2098428104130352
-3.917,-1.501080794161358,-0.9304142219644207
-3.9165,-1.83185621474952,-1.078767159636765
-3.916,-1.597112367880501,-0.570128516188728
-3.9155,-0.9782422261349084,-0.1780528951975329
-3.915,-0.423393133535411,0.04447651131098315
-3.9145,-0.03926683865883591,0.1504428953626575
-3.914,0.1634664836371343,0.1928294489833272
-3.9135,0.2488278824985954,0.2034260873884947
-3.913,0.2594980573562781,0.2246193641988295
-3.9125,0.2488278824985954,0.2458126410091644
-3.912,0.2274875327832301,0.2776025562246667
-3.9115,0.2061471830678648,0.309392471440169
-3.911,0.1954770082101822,0.3517790250608387
-3.9105,0.1848068333524996,0.3941655786815084
-3.91,0.1527963087794516,0.383568940276341
-3.9095,-0.2526703358124887,-0.07208651114585861
-3.909,-0.7434983792658902,-0.7396747306714069
-3.9085,-0.8502001278427167,-1.068170521231597
-3.908,-0.5941159312583333,-0.8350444763179138
-3.9075,-0.1993194615240755,-0.3475991096802118
-3.907,0.09944543449103843,0.1186529801471552
-3.9065,0.2701682322139607,0.4365521323021782
-3.906,0.3341892813600565,0.5955017083796896
-3.9055,0.3341892813600565,0.6060983467848571
-3.905,0.3128489316446912,0.5637117931641874
-3.9045,0.3555296310754218,0.4789386859228479
-3.904,0.4195506802215176,0.4471487707073456
-3.9035,0.3875401556484697,0.457745409112513
-3.903,0.3555296310754218,0.457745409112513
-3.9025,0.3235191065023739,0.4471487707073456
-3.902,0.2808384070716433,0.383568940276341
-3.9015,0.1741366584948169,0.2987958330350016
-3.901,-0.3700422592469978,-0.02969995752518888
-3.9005,-1.127624674142465,-0.718481453861072
-3.9,-1.522421143876723,-1.311893204550448
-3.8995,-1.277007122150022,-1.227120097309109
-3.899,-0.754168554123573,-0.7608680074817418
-3.8985,-0.2953510352432193,-0.2946159176543747
-3.898,0.02475421048725994,0.02328323450064829
-3.8975,0.1848068333524996,0.1928294489833272
-3.897,0.2488278824985954,0.2458126410091644
-3.8965,0.2594980573562781,0.2458126410091644
-3.896,0.2381577076409128,0.2246193641988295
-3.8955,0.2168173579255475,0.2034260873884947
-3.895,0.2061471830678648,0.1822328105781598
-3.8945,0.1954770082101822,0.1716361721729923
-3.894,0.1954770082101822,0.1716361721729923
-3.8935,0.1848068333524996,0.1716361721729923
-3.893,0.03542438534494258,-0.1568596183871981
-3.8925,-0.2099896363817582,-0.7396747306714069
-3.892,-0.5514352318276028,-1.333086481360783
-3.8915,-0.7008176798351597,-1.75695201756748
-3.891,-0.3807124341046804,-1.407262950196955
-3.8905,-0.02859666380115328,-0.7078848154559045
-3.89,0.1954770082101822,-0.06148987274069118
-3.8895,0.3021787567870086,0.3517790250608387
-3.889,0.3341892813600565,0.5637117931641874
-3.8885,0.3235191065023739,0.6802748156210291
-3.888,0.3555296310754218,0.775644561267536
-3.8875,0.5475927785137094,0.9663840525605498
-3.887,0.5582629533713921,0.9028042221295453
