Class_2_Relax_eyes_open/Class_2_Relax_Eyes_open_Turki_11.csv

#Digilent WaveForms Oscilloscope Acquisition
#Device Name: EExplorer
#Serial Number: SN:210151A2B84A
#Date Time: 2020-12-21 15:24:04.510
#Sample rate: 2000Hz
#Samples: 16384
#Trigger: Source: Channel 1 Type: Edge Condition: Rising Level: 0 V Hyst.: Auto HoldOff: 0 s
#Channel 1: Range: 1 V/div Offset: 0 V
#Channel 2: Range: 1 V/div Offset: 0 V

Time (s),Channel 1 (V),Channel 2 (V)
-4.0960000000000001,-1.8531965644648849,-1.3966663117917877
-4.0955000000000004,-1.7678351656035016,-1.3330864813608407
-4.0949999999999998,-1.138294848999498,-0.88802766834335578
-4.0945,-0.42339313353541097,-0.4535654937318862
-4.0940000000000003,0.13145595906358176,-0.25222936403388807
-4.0934999999999997,0.47290155451009586,-0.11447306476645125
-4.093,0.65429452709053582,-0.029699957525188878
-4.0925000000000002,0.69697522652122745,-0.029699957525188878
-4.0919999999999996,0.67563487680585255,-0.22043944881824121
-4.0914999999999999,0.62228400251748783,-0.26282600243887239
-4.0910000000000002,0.53692260365602662,-0.12506970317169577
-4.0904999999999996,0.49424190422526704,0.065669788121462583
-4.0899999999999999,0.4622313796522482,0.2246193641988295
-4.0895000000000001,0.47290155450993088,0.36237566346600614
-4.0890000000000004,0.84635767452848354,0.82862775329294913
-4.0884999999999998,0.53692260365602662,0.88161094531921036
-4.0880000000000001,-0.43406330839309365,0.012686596095480854
-4.0875000000000004,-1.3623685210106393,-0.9622041371790363
-4.0869999999999997,-1.5971123678800552,-1.4390528654120913
-4.0865,-1.1062843244271001,-1.0363806060160949
-4.0860000000000003,-0.49808435753974267,-0.35819574808599608
-4.0854999999999997,-0.0072563140855162623,0.24581264100953062
-4.085,0.29150858192932599,0.64848490040552687
-4.0845000000000002,0.44089102993674711,0.87101430691384052
-4.0839999999999996,0.48357172936760379,0.96638405256056914
-4.0834999999999999,0.47290155450993088,0.98757732937088472
-4.0830000000000002,0.45156120479456557,0.96638405256054982
-4.0824999999999996,0.44089102993687324,0.94519077575018606
-4.0819999999999999,0.43022085507920033,0.9134008605347127
-4.0815000000000001,0.41955068022151765,0.87101430691404291
-4.0810000000000004,0.45156120479453643,0.86041766850888513
-4.0804999999999998,0.30217875678700862,0.48953532432801533
-4.0800000000000001,-0.27401068552785401,-0.41117894011121647
-4.0795000000000003,-0.70081767983477161,-1.2695066509289976
-4.0789999999999997,-1.1062843244269545,-1.5556158878689041
-4.0785,-0.94623170156186043,-1.1211537132574345
-4.0780000000000003,-0.45540365810890532,-0.59132179299954468
-4.0774999999999997,0.014084035629887838,-0.23103608722316771
-4.077,0.35552963107542179,-0.0085066807148540119
-4.0765000000000002,0.56893312822888054,0.10805634174188174
-4.0759999999999996,0.65429452709053582,0.09745970333680104
-4.0754999999999999,0.65429452709053582,0.076266426526485451
-4.0750000000000002,0.57960330308675734,0.097459703336820316
-4.0744999999999996,0.51558225394061286,0.086863064931652884
-4.0739999999999998,0.4622313796522482,0.086863064931652884
-4.0735000000000001,0.43022085507920033,0.12924961855232261
-4.0730000000000004,0.39821033050618149,0.16103953376779601
-4.0724999999999998,0.099445434491038431,-0.25222936403370499
-4.0720000000000001,-0.40205278382004572,-1.0045906908005926
-4.0715000000000003,-1.191645723287843,-1.6297923567049024
-4.0709999999999997,-1.7038141164576772,-1.7357587407570878
-4.0705,-2.0879404113339031,-1.6721789103261409
-4.0700000000000003,-1.8958772638957904,-1.3860696733868805
-4.0694999999999997,-1.1489650238571805,-0.61251506980869408
-4.069,-0.43406330839309365,0.16103953376782493
-4.0685000000000002,0.078105084775673142,0.71206473083653143
-4.0679999999999996,0.35552963107553825,1.019367244586493
-4.0674999999999999,0.4835717293676135,1.1359302670432285
-4.0670000000000002,0.50491207908297886,1.146526905448396
-4.0664999999999996,0.48357172936758441,1.0935437134224917
-4.0659999999999998,0.45156120479456557,1.0193672445863871
-4.0655000000000001,0.43022085507920033,0.93459413734504748
-4.0650000000000004,0.41955068022152736,0.86041766850894297
-4.0644999999999998,0.28083840707164331,0.7968378380778709
-4.0640000000000001,-0.43406330839309365,0.60609834678485708
-4.0635000000000003,-1.2876772970069288,-0.13566634157618851
-4.0629999999999997,-2.0025790124729275,-1.0257839676114864
-4.0625,-2.5360877553565739,-1.6403889951106385
-4.0620000000000003,-2.0772702364766378,-1.4708427806281139
-4.0614999999999997,-1.1062843244263723,-0.87743102993812083
-4.0609999999999999,-0.30602121010090194,-0.36879238649054674
-4.0605000000000002,0.24882788249859539,-0.082683149551026042
-4.0599999999999996,0.56893312822921049,0.055073149716218045
-4.0594999999999999,0.71831557623663156,0.12924961855232261
-4.0590000000000002,0.76099627566736228,0.16103953376782493
-4.0585000000000004,0.73965592595201624,0.1822328105781405
-4.0579999999999998,0.65429452709053582,0.10805634174198775
-4.0575000000000001,0.5689331282290746,0.033879872905815719
-4.0570000000000004,0.49424190422536407,0.0020899576903423353
-4.0564999999999998,0.4622313796522482,0.012686596095480854
-4.056,0.24882788249859539,-0.19924617200786782
-4.0555000000000003,-0.14596858723530332,-0.84564111472249337
-4.0549999999999997,-0.85020012784333776,-1.513229334249073
-4.0545,-1.5330913187344057,-2.0006747008863313
-4.0540000000000003,-2.0772702364757256,-2.2232041073946447
-4.0534999999999997,-1.8105158650334654,-1.8311284864027948
-4.0529999999999999,-1.0529334501386869,-0.88802766834375091
-4.0525000000000002,-0.35937208438931517,0.012686596095480854
-4.0519999999999996,0.13145595906431926,0.64848490040585449
-4.0514999999999999,0.38754015564846972,1.0087706061812196
-4.0510000000000002,0.49424190422529612,1.1571235438535634
-4.0505000000000004,0.51558225394064194,1.1677201822587213
-4.0499999999999998,0.49424190422529612,1.1147369902328941
-4.0495000000000001,0.4622313796522482,1.0511571598018894
-4.0490000000000004,0.45156120479457529,0.97698069096578477
-4.0484999999999998,0.43022085507919061,0.88161094531910433
-4.048,0.41955068022151765,0.76504792286236856
-4.0475000000000003,0.39821033050617183,0.65908153881079057
-4.0469999999999997,0.35552963107489777,0.40476221708592414
-4.0465,-0.22065981123944084,-0.42177557851638392
-4.0460000000000003,-0.67947733011937705,-0.91981758355880028
-4.0454999999999997,-0.562105406684965,-0.68669153864528065
-4.0449999999999999,-0.20998963638175816,-0.36879238649054674
-4.0445000000000002,0.14212613392176898,-0.093279787956193475
-4.0439999999999996,0.41955068022165348,0.065669788121279465
-4.0434999999999999,0.5689331282290746,0.023283234500648287
-4.0430000000000001,0.63295417737517057,-0.050893234335523743
-4.0425000000000004,0.65429452709051639,-0.093279787956154922
-4.0419999999999998,0.78233662538272752,-0.082683149551026042
-4.0415000000000001,0.79300680024041004,-0.050893234335523743
-4.0410000000000004,0.70764540137902665,0.012686596095423025
-4.0404999999999998,0.61161382765972749,0.097459703336907053
-4.04,0.52625242879834411,0.19282944898332721
-4.0395000000000003,0.52625242879834411,0.35177902506069414
-4.0389999999999997,0.9423892482478311,0.8816109453194706
-4.0385,0.79300680024041004,1.1677201822587309
-4.0380000000000003,-0.16730893695015425,0.4047622170873697
-4.0374999999999996,-1.127624674142941,-0.63370834662035891
-4.0369999999999999,-1.6504632421689147,-1.3224898429556156
-4.0365000000000002,-1.3303579964384356,-1.0999604364470996
-4.0359999999999996,-0.70081767983465515,-0.41117894011059969
-4.0354999999999999,-0.14596858723566233,0.26700591781949923
-4.0350000000000001,0.21681735792554749,0.75445128445720111
-4.0345000000000004,0.40888050536366033,1.0511571598016196
-4.0339999999999998,0.4835717293676135,1.1995100974742332
-4.0335000000000001,0.4835717293676135,1.2524932895000704
-4.0330000000000004,0.47290155450994059,1.2524932895000704
-4.0324999999999998,0.45156120479455586,1.2313000126896969
-4.032,0.44089102993688295,1.1889134590690658
-4.0315000000000003,0.43022085507921004,1.1253336286381193
-4.0309999999999997,0.21681735792529516,1.2418966510952307
-4.0305,-0.06060718837420119,1.6021823568705957
-4.0300000000000002,-0.34870190953137048,1.5597958032499646
-4.0294999999999996,-0.96757205127763324,0.5213252395426502
-4.0289999999999999,-1.4157193952998968,-0.43237221692155131
-4.0285000000000002,-1.1276246741424654,-0.65490162343006741
-4.0279999999999996,-0.50875453239635771,-0.47475877054197047
-4.0274999999999999,0.05676473506030786,-0.19924617200786782
-4.0270000000000001,0.44089102993688295,-0.019103319120021445
-4.0265000000000004,0.66496470194801449,0.10805634174187209
-4.0259999999999998,0.75032610080967954,0.076266426526485451
-4.0255000000000001,0.75032610080967954,-0.093279787956193475
-4.0250000000000004,0.65429452709062319,-0.23103608722324481
-4.0244999999999997,0.55826295337133391,-0.13566634157670898
-4.024,0.49424190422529612,0.033879872905815719
-4.0235000000000003,0.46223137965227734,0.20342608738834045
-4.0229999999999997,0.46223137965253935,0.35177902506126274
-4.0225,0.78233662538272752,0.81803111488820579
-4.0220000000000002,0.84635767452876509,1.3266697583357798
-4.0214999999999996,0.078105084774935607,0.81803111488726132
-4.0209999999999999,-0.73282820440820751,-0.22043944881820265
-4.0205000000000002,-1.437059745015262,-1.1529436284729369
-4.0199999999999996,-1.3837088707263538,-1.3754730349809612
-4.0194999999999999,-0.83952995298503397,-0.83504447631791379
-4.0190000000000001,-0.28468086038553664,-0.15685961838719809
-4.0185000000000004,0.13145595906370788,0.40476221708616511
-4.0179999999999998,0.35552963107542179,0.75445128445720111
-4.0175000000000001,0.4622313796522482,0.94519077575021493
-4.0170000000000003,0.48357172936759407,1.0193672445863196
-4.0164999999999997,0.46223137965223848,1.0299638829915352
-4.016,0.45156120479456557,1.0087706061812196
-4.0155000000000003,0.44089102993689266,0.97698069096574613
-4.0149999999999997,0.43022085507914209,0.94519077575015709
-4.0145,0.36619980593310447,0.88161094531921036
-4.0140000000000002,0.0034138607722246084,0.55311515475931872
-4.0134999999999996,-0.48741418268203091,-0.29461591765519385
-4.0129999999999999,-1.0636036249963696,-1.1953301820936066
-4.0125000000000002,-1.4477299198729445,-1.5344226110589645
-4.0119999999999996,-1.2343264227187289,-1.0787671596362829
-4.0114999999999998,-0.61545628097369853,-0.54893523937839306
-4.0110000000000001,-0.028596663801153277,-0.17805289519753292
-4.0105000000000004,0.38754015564809124,-0.008506680715008208
-4.0099999999999998,0.60094365280212259,0.065669788121318018
-4.0095000000000001,0.67563487680590106,0.012686596095480854
-4.0090000000000003,0.7183155762365927,-0.12506970317157051
-4.0084999999999997,0.81434714995571711,-0.22043944881819302
-4.008,0.75032610080967954,-0.20984281041303524
-4.0075000000000003,0.63295417737527737,-0.12506970317177288
-4.0069999999999997,0.52625242879829559,-0.01910331911992507
-4.0065,0.47290155450993088,0.086863064931652884
-4.0060000000000002,0.55826295337139209,0.39416557868150842
-4.0054999999999996,0.93171907338985749,1.040560521396616
-4.0049999999999999,0.4622313796522482,0.92399749893988004
-4.0045000000000002,-0.34870190953163249,0.033879872905815719
-4.0039999999999996,-1.0315931004237486,-0.7926579226977355
-4.0034999999999998,-1.5010807941613578,-1.333086481360783
-4.0030000000000001,-1.2129860730039266,-1.0363806060160949
-4.0025000000000004,-0.63679663068958781,-0.34759910968083818
-4.0019999999999998,-0.12462823752029703,0.30939247144016896
-4.0015000000000001,0.22748753278323011,0.78624119967270345
-4.0010000000000003,0.39821033050599713,1.0617537982068064
-4.0004999999999997,0.47290155450993088,1.1995100974742718
-4,0.47290155450993088,1.241896651094903
-3.9994999999999998,0.4622313796522482,1.241896651094903
-3.9990000000000001,0.44089102993688295,1.2313000126897355
-3.9984999999999999,0.43022085507920033,1.1995100974742332
-3.9980000000000002,0.3982103305061524,1.1147369902328941
-3.9975000000000001,-0.017926488943470625,0.61669498519002452
-3.9969999999999999,-0.76483872898125549,-0.28401927924920728
-3.9965000000000002,-1.437059745015262,-1.1953301820936066
-3.996,-1.9919088376147593,-1.8735150400243223
-3.9954999999999998,-1.9385579633263461,-1.84172512480882
-3.9950000000000001,-1.1489650238578306,-1.1635402668781043
-3.9944999999999999,-0.34870190953163249,-0.54893523937839306
-3.9940000000000002,0.21681735792554749,-0.18864953360270037
-3.9935,0.51558225394066137,-0.072086511145858609
-3.9929999999999999,0.65429452709053582,-0.04029659593035631
-3.9925000000000002,0.70764540137894905,-0.11447306476652835
-3.992,0.67563487680590106,-0.33700247127504446
-3.9914999999999998,0.59027347794443985,-0.37938902489571413
-3.9910000000000001,0.51558225394066137,-0.25222936403370499
-3.9904999999999999,0.45156120479456557,-0.082683149551026042
-3.9900000000000002,0.43022085507920033,0.076266426526485451
-3.9895,0.47290155450993088,0.25640927941433178
-3.9889999999999999,0.87836819910187125,0.84982103010370802
-3.9885000000000002,0.62228400251748783,1.2736865663104053
-3.988,-0.27401068552785401,0.61669498519002452
-3.9874999999999998,-1.1276246741424654,-0.3581957480853793
-3.9870000000000001,-1.6504632421689147,-1.1635402668781043
-3.9864999999999999,-1.3410281712961183,-1.0999604364470996
-3.9860000000000002,-0.72215802955052499,-0.52774196256805828
-3.9855,-0.15663876209334496,0.097459703336820316
-3.9849999999999999,0.20614718306786484,0.5637117931641874
-3.9845000000000002,0.3982103305061524,0.86041766850887547
-3.984,0.47290155450993088,1.0193672445863871
-3.9834999999999998,0.4835717293676135,1.0829470750173917
-3.9830000000000001,0.4622313796522482,1.0935437134225592
-3.9824999999999999,0.44089102993688295,1.0723504366122243
-3.9820000000000002,0.43022085507920033,1.0617537982070568
-3.9815,0.43022085507920033,1.0193672445863871
-3.9809999999999999,0.30217875678700862,1.0829470750173917
-3.9805000000000001,-0.26334051067017139,1.0617537982070568
-3.98,-0.96757205127722568,0.24581264100916439
-3.9794999999999998,-1.2663369472923398,-0.75027136907657432
-3.9790000000000001,-1.2556667724346571,-1.1953301820936066
-3.9784999999999999,-0.82885977812735145,-0.96220413717992292
-3.9780000000000002,-0.27401068552785401,-0.53833860097322561
-3.9775,0.17413665849481691,-0.20984281041303524
-3.9769999999999999,0.45156120479456557,-0.029699957525188878
-3.9765000000000001,0.60094365280212259,0.086863064931652884
-3.976,0.66496470194821833,0.10805634174198775
-3.9754999999999998,0.77166645052504479,-0.04029659593035631
-3.9750000000000001,0.88903837395955376,-0.22043944881820265
-3.9744999999999999,0.80367697509809277,-0.19924617200786782
-3.9740000000000002,0.67563487680590106,-0.082683149551026042
-3.9735,0.55826295337139209,0.044476511310983152
-3.9729999999999999,0.4835717293676135,0.13984625695749003
-3.9725000000000001,0.77166645052504479,0.42595549389701071
-3.972,0.93171907339028448,1.0299638829915545
-3.9714999999999998,0.078105084775673142,0.775644561267536
-3.9710000000000001,-0.8502001278427167,-0.082683149551026042
-3.9704999999999999,-1.6291228924535495,-0.97280077558509037
-3.9700000000000002,-1.7678351656034239,-1.333086481360783
-3.9695,-1.1916457232885611,-0.87743102993858346
-3.9689999999999999,-0.51942470725455481,-0.20984281041303524
-3.9685000000000001,0.0034138607718946501,0.37297230187117358
-3.968,0.30217875678700862,0.775644561267536
-3.9674999999999998,0.45156120479456557,1.0087706061812196
-3.9670000000000001,0.4835717293676135,1.1147369902328941
-3.9664999999999999,0.47290155450993088,1.146526905448396
-3.9660000000000002,0.4622313796522482,1.1677201822587309
-3.9655,0.45156120479456557,1.2313000126897355
-3.9649999999999999,0.45156120479456557,1.2313000126897355
-3.9645000000000001,0.32351910650237387,1.1147369902328941
-3.964,-0.20998963638175816,0.38356894027634103
-3.9634999999999998,-0.86087030270039921,-0.61251506980939763
-3.9630000000000001,-1.3410281712961183,-1.4390528654124575
-3.9624999999999999,-1.4157193952998968,-1.6615822719209734
-3.9620000000000002,-0.96757205127722568,-1.1635402668781043
-3.9615,-0.33803173467394987,-0.53833860097322561
-3.9609999999999999,0.19547700821018218,-0.1674562567923655
-3.9605000000000001,0.52625242879834411,-0.082683149551026042
-3.96,0.6863050516635838,-0.15685961838719809
-3.9594999999999998,0.70764540137894905,-0.2310360872233701
-3.9590000000000001,0.66496470194821833,-0.34759910968021185
-3.9584999999999999,0.65429452709053582,-0.48535540894738849
-3.9580000000000002,0.6116138276598051,-0.42177557851638392
-3.9575,0.54759277851370936,-0.24163272562853755
-3.9569999999999999,0.4835717293676135,-0.050893234335523743
-3.9565000000000001,0.44089102993688295,0.086863064931652884
-3.956,0.55826295337139209,0.29879583303500157
-3.9554999999999998,1.0597611716824762,0.88161094531921036
-3.9550000000000001,0.71831557623663156,0.7968378380778709
-3.9544999999999999,-0.0072563140857879876,-0.12506970317169577
-3.9540000000000002,-0.87154047755808195,-1.0999604364470996
-3.9535,-1.1169544992847826,-1.4602461422227924
-3.9529999999999998,-0.78617907869662074,-0.98339741399025782
-3.9525000000000001,-0.31669138495858457,-0.28401927924920728
-3.952,0.067434909917990504,0.31998910984533641
-3.9514999999999998,0.30217875678700862,0.72266136924169888
-3.9510000000000001,0.41955068022151765,0.93459413734504748
-3.9504999999999999,0.45156120479456557,1.0299638829915545
-3.9500000000000002,0.45156120479456557,1.0511571598018894
-3.9495,0.44089102993688295,1.0405605213967219
-3.9489999999999998,0.43022085507920033,1.0193672445863871
-3.9485000000000001,0.40888050536383502,0.97698069096571727
-3.948,0.36619980593310447,0.86041766850887547
-3.9474999999999998,-0.12462823752029703,0.6590815388106942
-3.9470000000000001,-1.0102527507079564,0.076266426526485451
-3.9464999999999999,-1.7678351656034239,-0.82444783791274634
-3.9460000000000002,-1.9598983130417114,-1.2377167357142764
-3.9455,-1.4477299198729445,-0.99399405239542526
-3.9449999999999998,-0.69014750497747701,-0.55953187778356051
-3.9445000000000001,-0.049937013516518552,-0.25222936403370499
-3.944,0.35552963107542179,-0.18864953360270037
-3.9434999999999998,0.5689331282290746,-0.22043944881820265
-3.9430000000000001,0.67563487680590106,-0.30521255605954212
-3.9424999999999999,0.69697522652126631,-0.32640583286987701
-3.9420000000000002,0.77166645052504479,-0.2310360872233701
-3.9415,0.77166645052504479,-0.1674562567923655
-3.9409999999999998,0.66496470194821833,-0.093279787956193475
-3.9405000000000001,0.55826295337139209,-0.0085066807148540119
-3.9399999999999999,0.47290155450993088,0.10805634174198775
-3.9394999999999998,0.41955068022151765,0.24581264100916439
-3.9390000000000001,0.18480683335249956,0.68027481562102909
-3.9384999999999999,-0.50875453239687207,1.1253336286380615
-3.9380000000000002,-1.1809755484308786,0.52132523954351762
-3.9375,-1.67180359188428,-0.51714532416289083
-3.9369999999999998,-1.7038141164573279,-1.227120097309109
-3.9365000000000001,-1.1276246741424654,-1.0257839676109275
-3.9359999999999999,-0.46607383296614152,-0.36879238649054674
-3.9355000000000002,0.024754210487259936,0.28819919462983412
-3.9350000000000001,0.31284893164469124,0.775644561267536
-3.9344999999999999,0.45156120479456557,1.0723504366122243
-3.9340000000000002,0.4835717293676135,1.2313000126897355
-3.9335,0.47290155450993088,1.2842832047155728
-3.9329999999999998,0.45156120479456557,1.2736865663104053
-3.9325000000000001,0.43022085507920033,1.241896651094903
-3.9319999999999999,0.43022085507920033,1.1995100974742332
-3.9315000000000002,0.41955068022151765,1.1253336286380615
-3.931,0.41955068022151765,1.0193672445863871
-3.9304999999999999,0.78233662538272752,1.1783168206638983
-3.9300000000000002,0.6863050516635838,0.97698069096571727
-3.9295,-0.071277363231883828,-0.0085066807148540119
-3.9289999999999998,-0.79684925355430347,-0.80325456110241145
-3.9285000000000001,-0.73282820440820751,-0.88802766834375091
