Class_2_Relax_eyes_open/Class_2_Relax_eyes_open_Basim_4.csv

#Digilent WaveForms Oscilloscope Acquisition
#Device Name: EExplorer
#Serial Number: SN:210151A2B84A
#Date Time: 2020-11-18 11:18:20.555
#Sample rate: 2000Hz
#Samples: 16384
#Trigger: Source: Channel 1 Type: Edge Condition: Rising Level: 0 V Hyst.: Auto HoldOff: 0 s
#Channel 1: Range: 1 V/div Offset: 0 V Attenuation: 1 X
#Channel 2: Range: 1 V/div Offset: 0 V Attenuation: 1 X
#Power Supplies: ON
#Fixed Supply: ON
#Voltage: 3.3 V Readback: 3.332 V
#Positive Supply: ON
#Voltage: 3.7 V Readback: 3.72 V
#Current: 500 mA Readback: 21 mA
#Negative Supply: ON
#Voltage: -3.7 V Readback: -3.703 V
#Current: -500 mA Readback: -9 mA
#Reference 1: ON
#Voltage: 0 V
#Reference 2: ON
#Voltage: 0 V

Time (s),Channel 1 (V),Channel 2 (V)
-4.096,-0.9782422261349084,-0.8244478379127463
-4.0955,-0.9782422261349084,-0.9410108603694821
-4.095,-0.5941159312579452,-0.5701285161883328
-4.0945,-0.1673089369510276,-0.1356663415768632
-4.094,0.1314559590638146,0.1822328105778707
-4.0935,0.3128489316447592,0.3623756634660832
-4.093,0.3875401556484697,0.4471487707073456
-4.0925,0.4088805053638156,0.4683420475176612
-4.092,0.398210330506133,0.4577454091124938
-4.0915,0.3768699807907871,0.4365521323021782
-4.091,0.3661998059331045,0.4259554938970107
-4.0905,0.3555296310754218,0.425955493897001
-4.09,0.3555296310754218,0.4153588554918433
-4.0895,0.2381577076409128,0.2881991946298341
-4.089,-0.4447334832501552,-0.379389024895107
-4.0885,-1.138294849000148,-1.152943628472937
-4.088,-1.490410619303675,-1.778145294377815
-4.0875,-1.479740444446002,-1.937094870455182
-4.087,-0.9248913518459421,-1.258910012523869
-4.0865,-0.3166913849585846,-0.4429688553267188
-4.086,0.1421261339213517,0.192829448982749
-4.0855,0.3982103305062397,0.6166949851902366
-4.085,0.4942419042252961,0.849821030103708
-4.0845,0.526252428798315,0.9345941373449704
-4.084,0.5155822539406419,0.9557874141554112
-4.0835,0.4942419042252961,0.9875773293708847
-4.083,0.4622313796522482,0.8816109453192104
-4.0825,0.4302208550791906,0.7332580076467506
-4.082,0.4195506802215176,0.6060983467848571
-4.0815,0.3982103305061524,0.4683420475176805
-4.081,0.46223137965219,0.5319218779486272
-4.0805,0.5155822539406614,0.7968378380778709
-4.08,-0.01792648894347063,0.2034260873884947
-4.0795,-0.8395299529842867,-0.7184814538602335
-4.079,-1.116954499284492,-1.078767159636466
-4.0785,-0.7968492535543035,-0.7502713690765743
-4.078,-0.3380317346743671,-0.2628260024393157
-4.0775,0.02475421048747344,0.1504428953629081
-4.077,0.2594980573562781,0.4259554938970107
-4.0765,0.3768699807906803,0.5531151547589043
-4.076,0.408880505363835,0.6060983467848667
-4.0755,0.408880505363835,0.6166949851900245
-4.075,0.3875401556484697,0.6060983467848571
-4.0745,0.3768699807907774,0.5849050699745125
-4.074,0.3661998059331045,0.5743084315693548
-4.0735,0.3555296310754218,0.55311515475902
-4.073,0.3448594562177489,0.500131962733231
-4.0725,-0.01792648894347063,0.04447651131098315
-4.072,-0.7434983792658902,-0.7714646458869092
-4.0715,-1.46907026958765,-1.513229334247955
-4.071,-2.055929886760555,-2.07485116972234
-4.0705,-1.725154466172693,-1.894708316834657
-4.07,-0.91422117698955,-1.068170521232349
-4.0695,-0.1993194615236582,-0.2734226408435194
-4.069,0.2594980573562781,0.2987958330350016
-4.0685,0.4835717293676135,0.6802748156210291
-4.068,0.536922603656017,0.8710143069140911
-4.0675,0.5262524287983441,0.92399749893988
-4.067,0.5475927785137094,0.8922075837243778
-4.0665,0.5369226036559878,0.8180311148881191
-4.066,0.4942419042252961,0.7226613692416989
-4.0655,0.4408910299368829,0.6166949851900245
-4.065,0.4088805053638641,0.5001319627332889
-4.0645,0.4408910299368829,0.4471487707073456
-4.064,0.8036769750980928,0.7968378380778709
-4.0635,0.4622313796525587,0.6272916235953462
-4.063,-0.4020527838205989,-0.2734226408447145
-4.0625,-1.010252750707956,-1.01518732920576
-4.062,-0.9142211769888998,-0.9410108603696556
-4.0615,-0.5087545323965033,-0.4959520473521511
-4.061,-0.1032878878049318,-0.05089323433552374
-4.0605,0.1741366584948169,0.2670059178194992
-4.06,0.3341892813601148,0.4365521323022456
-4.0595,0.3982103305061524,0.5107286011383502
-4.059,0.408880505363835,0.5319218779486851
-4.0585,0.3982103305061621,0.5107286011383695
-4.058,0.3768699807907871,0.5001319627331828
-4.0575,0.3661998059331045,0.4789386859228479
-4.057,0.3555296310754315,0.4789386859228479
-4.0565,0.3555296310754218,0.4683420475176805
-4.056,0.1101156093487211,0.1504428953626575
-4.0555,-0.6261264558307117,-0.6443049850241771
-4.055,-1.212986073004286,-1.407262950197495
-4.0545,-1.607782542738184,-2.000674700886331
-4.054,-1.565101843307493,-1.990078062481173
-4.0535,-0.9142211769882108,-1.174136905282481
-4.053,-0.2526703358124887,-0.3052125560595421
-4.0525,0.1848068333524996,0.3305857482505039
-4.052,0.4195506802215953,0.680274815621193
-4.0515,0.5049120790829789,0.8604176685088755
-4.051,0.5049120790829789,0.92399749893988
-4.0505,0.6329541773750541,1.029963882991458
-4.05,0.79300680024041,1.082947075017392
-4.0495,0.7396559259519968,0.9134008605347127
-4.049,0.6222840025175946,0.6908714540263989
-4.0485,0.5155822539406032,0.5107286011382441
-4.048,0.4515612047945656,0.3941655786815084
-4.0475,0.6649647019480243,0.5531151547588754
-4.047,0.600943652801288,0.6696781772151966
-4.0465,-0.3166913849585846,-0.06148987274069118
-4.046,-1.191645723287765,-0.898624306748157
-4.0455,-1.212986073003519,-0.9728007755847146
-4.045,-0.7648387289812555,-0.5595318777835605
-4.0445,-0.274010685527854,-0.07208651114585861
-4.044,0.08877525963354987,0.298795833035204
-4.0435,0.3021787567870086,0.5213252395435176
-4.043,0.3982103305061524,0.6378882620003594
-4.0425,0.4195506802214982,0.6696781772158328
-4.042,0.408880505363835,0.6802748156210291
-4.0415,0.3875401556484697,0.6590815388106942
-4.041,0.3768699807907968,0.6484849004055365
-4.0405,0.3555296310754218,0.6272916235951631
-4.04,0.3555296310754218,0.5955017083796896
-4.0395,0.2701682322140383,0.4577454091126383
-4.039,-0.3060212101016686,-0.2310360872241411
-4.0385,-1.148965023857831,-1.078767159636765
-4.038,-1.917217613610282,-1.767548655972021
-4.0375,-2.226652684483108,-2.149027638558232
-4.037,-1.490410619303675,-1.661582271920973
-4.0365,-0.658136980404429,-0.8032545611024114
-4.036,-0.007256314085458035,-0.05089323433508042
-4.0355,0.3555296310754218,0.4365521323021782
-4.035,0.5155822539406614,0.701468092431364
-4.0345,0.5475927785136803,0.807434476482942
-4.034,0.5369226036560266,0.8604176685088755
-4.0335,0.5475927785137094,0.9345941373450475
-4.033,0.5262524287983635,0.8710143069141008
-4.0325,0.5049120790829498,0.7438546460518892
-4.032,0.4729015545099309,0.5849050699745222
-4.0315,0.4408910299369121,0.436552132302313
-4.031,0.3555296310751306,0.489535324328237
-4.0305,0.03542438534494258,0.7332580076468663
-4.03,-0.6901475049768171,0.1610395337683453
-4.0295,-1.373038695869205,-0.7502713690769116
-4.029,-1.415719395299897,-1.121153713257435
-4.0285,-0.9142211769888124,-0.8032545611024114
-4.028,-0.3593720843889367,-0.3052125560591663
-4.0275,0.05676473506030786,0.1080563417419877
-4.027,0.291508581929326,0.3623756634660061
-4.0265,0.3982103305060554,0.5001319627330576
-4.026,0.4302208550792003,0.55311515475902
-4.0255,0.4195506802215176,0.55311515475902
-4.025,0.3982103305061718,0.5425185163538622
-4.0245,0.3768699807907774,0.5319218779486657
-4.024,0.3661998059331045,0.5107286011383502
-4.0235,0.3661998059331045,0.5107286011383502
-4.023,0.334189281359649,0.4683420475172372
-4.0225,-0.1139580626626144,-0.01910331912002144
-4.022,-0.9035510021304118,-0.8456411147223295
-4.0215,-1.47974044444608,-1.57680916467974
-4.021,-1.575772018165136,-1.693372187136476
-4.0205,-1.031593100423322,-1.131750351662602
-4.02,-0.3380317346735034,-0.4323722169210405
-4.0195,0.1527963087794516,0.1292496185523226
-4.019,0.4195506802215176,0.55311515475902
-4.0185,0.5262524287982471,0.8180311148879649
-4.018,0.5262524287983441,0.92399749893988
-4.0175,0.4942419042252961,0.9134008605347127
-4.017,0.3555296310755479,0.9451907757501861
-4.0165,0.2808384070716433,0.8604176685087213
-4.016,0.2808384070716433,0.6908714540261965
-4.0155,0.3235191065023351,0.5319218779488296
-4.015,0.366199805933153,0.4153588554917855
-4.0145,0.4195506802215176,0.3517790250608387
-4.014,0.8036769750977434,0.6802748156207303
-4.0135,0.5796033030862915,0.4789386859220576
-4.013,0.0674349099179905,-0.3899856633008816
-4.0125,-0.4980843575391895,-1.131750351662602
-4.012,-0.6047861061157926,-1.046977244420809
-4.0115,-0.3593720843893152,-0.5489352393783931
-4.011,-0.06060718837420119,-0.04029659593035631
-4.0105,0.1741366584946034,0.3199891098450087
-4.01,0.3128489316446912,0.5425185163538525
-4.0095,0.3768699807907871,0.6484849004055269
-4.009,0.398210330506133,0.6802748156210002
-4.0085,0.38754015564846,0.6802748156210194
-4.008,0.3768699807907871,0.6696781772158616
-4.0075,0.3661998059331142,0.6590815388107039
-4.007,0.3661998059330948,0.6378882620003401
-4.0065,0.3555296310754218,0.6166949851900245
-4.006,0.3021787567870086,0.5213252395435176
-4.0055,-0.1993194615244831,-0.09327978795694521
-4.005,-0.6474668055467465,-0.9198175835592532
-4.0045,-1.042263275281004,-1.555615887869299
-4.004,-0.76483872898078,-1.555615887868798
-4.0035,-0.2420001609548061,-1.004590690800593
-4.003,0.1527963087794516,-0.3475991096802118
-4.0025,0.3768699807905833,0.2140227257931512
-4.002,0.4835717293676135,0.5743084315693548
-4.0015,0.5049120790829789,0.7544512844572011
-4.001,0.4835717293676329,0.7968378380778324
-4.0005,0.4729015545099114,0.7756445612674782
-4,0.4515612047945656,0.7120647308365314
-3.9995,0.4302208550792003,0.627291623595192
-3.999,0.408880505363835,0.5319218779486851
-3.9985,0.3982103305061524,0.4365521323021782
-3.998,0.3875401556484697,0.3517790250608387
-3.9975,0.6116138276598051,0.5425185163538525
-3.997,0.5689331282290746,0.6696781772158616
-3.9965,-0.09261771294724913,-0.07208651114585861
-3.996,-0.7755089038389382,-0.8668343915334161
-3.9955,-1.06360362499637,-0.9622041371799229
-3.995,-0.7648387289812555,-0.6019184314042303
-3.9945,-0.3273615598162672,-0.1992461720078678
-3.994,0.02475421048725994,0.1080563417419877
-3.9935,0.2594980573562781,0.2881991946298341
-3.993,0.3661998059331045,0.383568940276341
-3.9925,0.408880505363835,0.4259554938970107
-3.992,0.408880505363835,0.4471487707073456
-3.9915,0.3875401556484697,0.457745409112513
-3.991,0.3768699807907871,0.4683420475176805
-3.9905,0.3555296310754218,0.4789386859228479
-3.99,0.3555296310754218,0.5001319627331828
-3.9895,0.2808384070716433,0.4047622170866759
-3.989,-0.2953510352432193,-0.2204394488182027
-3.9885,-0.8181896032696687,-0.9410108603695881
-3.988,-1.020922925565639,-1.492036057438295
-3.9875,-1.127624674142465,-1.75695201756748
-3.987,-0.7114878546928423,-1.269506650929778
-3.9865,-0.1886492866663929,-0.5277419625680583
-3.986,0.1954770082101822,0.1186529801471552
-3.9855,0.408880505363835,0.55311515475902
-3.985,0.4835717293676135,0.7862411996727035
-3.9845,0.4942419042252961,0.9028042221295453
-3.984,0.4729015545099309,0.9028042221295453
-3.9835,0.4835717293676135,0.7650479228623686
-3.983,0.4622313796522482,0.6802748156210291
-3.9825,0.4302208550792003,0.6484849004055269
-3.982,0.408880505363835,0.5955017083796896
-3.9815,0.3875401556484697,0.5319218779486851
-3.981,0.4408910299368829,0.55311515475902
-3.9805,0.6436243522328531,0.8286277532933731
-3.98,0.1741366584948169,0.3199891098453364
-3.9795,-0.4554036581084589,-0.5171453241628908
-3.979,-0.8822106524157645,-0.6654982618352349
-3.9785,-0.7648387289812555,-0.400582301706049
-3.978,-0.391382608962363,-0.1462629799820306
-3.9775,-0.03926683865883591,0.04447651131098315
-3.977,0.2061471830678648,0.1504428953626575
-3.9765,0.3341892813600565,0.2034260873884947
-3.976,0.3875401556484697,0.2246193641988295
-3.9755,0.3982103305061524,0.2458126410091644
-3.975,0.3875401556484697,0.2670059178194992
-3.9745,0.3661998059331045,0.309392471440169
-3.974,0.3555296310754218,0.3411823866556712
-3.9735,0.3555296310754218,0.3729723018711736
-3.973,0.3448594562177392,0.4153588554918433
-3.9725,0.0674349099179905,0.1716361721729923
-3.972,-0.5087545323968721,-0.5383386009732256
-3.9715,-0.7968492535543035,-1.216523458903942
-3.971,-1.191645723288561,-1.735758740757146
-3.9705,-1.159635198715513,-1.852321763213987
-3.97,-0.6154562809736985,-1.216523458903942
-3.9695,-0.1032878878049318,-0.3899856633008816
-3.969,0.2594980573562781,0.2458126410091644
-3.9685,0.4408910299368829,0.7120647308365314
-3.968,0.5049120790829789,0.9345941373450475
-3.9675,0.4942419042252961,1.00877060618122
-3.967,0.5475927785137094,0.8710143069140429
-3.9665,0.5582629533713921,0.7650479228623686
-3.966,0.5049120790829789,0.701468092431364
-3.9655,0.4515612047945656,0.6484849004055269
-3.965,0.3982103305061524,0.5849050699745222
-3.9645,0.408880505363835,0.55311515475902
-3.964,0.7289857510943143,0.8922075837243778
-3.9635,0.4195506802215176,0.7650479228623686
-3.963,-0.4127229586777283,-0.1568596183871981
-3.9625,-0.839529952985034,-0.8138511995075789
-3.962,-0.690147504977477,-0.7502713690765743
-3.9615,-0.3273615598162672,-0.4217755785163839
-3.961,0.00341386077189465,-0.09327978795619347
-3.9605,0.2274875327832301,0.1186529801471552
-3.96,0.3448594562177392,0.2352160026039969
-3.9595,0.3875401556484697,0.2776025562246667
-3.959,0.3875401556484697,0.2881991946298341
-3.9585,0.3768699807907871,0.2776025562246667
-3.958,0.3661998059331045,0.2776025562246667
-3.9575,0.3555296310754218,0.2776025562246667
-3.957,0.3448594562177392,0.2987958330350016
-3.9565,0.3448594562177392,0.309392471440169
-3.956,0.1848068333524996,0.1292496185523226
-3.9555,-0.5300948821122373,-0.570128516188728
-3.955,-1.255666772434657,-1.322489842955616
-3.9545,-1.639793067311232,-1.905304955239825
-3.954,-1.639793067311232,-2.106641084938006
-3.9535,-0.9675720512772257,-1.47084278062796
-3.953,-0.2633405106701714,-0.5595318777835605
-3.9525,0.2061471830678648,0.1610395337678249
-3.952,0.4408910299368829,0.627291623595192
-3.9515,0.5155822539406614,0.8816109453192104
-3.951,0.5049120790829789,0.9769806909657173
-3.9505,0.4835717293676135,0.8922075837243778
-3.95,0.4835717293676135,0.701468092431364
-3.9495,0.4622313796522482,0.6484849004055269
-3.949,0.4408910299368829,0.6378882620003594
-3.9485,0.4302208550792003,0.6060983467848571
-3.948,0.408880505363835,0.5319218779486851
-3.9475,0.4195506802215176,0.6378882620003594
-3.947,0.4835717293676135,0.849821030103708
-3.9465,-0.1779791118087102,0.1716361721729923
-3.946,-0.9782422261349084,-0.5489352393783931
-3.9455,-1.234326422719292,-0.5913217929990628
-3.945,-0.8822106524157645,-0.3793890248957141
-3.9445,-0.391382608962363,-0.1674562567923655
-3.944,0.00341386077189465,-0.008506680714854012
-3.9435,0.2488278824985954,0.07626642652648545
-3.943,0.3661998059331045,0.1292496185523226
-3.9425,0.408880505363835,0.1610395337678249
-3.942,0.3982103305061524,0.1928294489833272
-3.9415,0.3875401556484697,0.2246193641988295
-3.941,0.3661998059331045,0.2776025562246667
-3.9405,0.3555296310754218,0.3199891098453364
-3.94,0.3448594562177392,0.383568940276341
-3.9395,0.291508581929326,0.3623756634660061
-3.939,-0.2420001609548061,-0.1992461720078678
-3.9385,-0.9248913518464952,-0.9728007755850904
-3.938,-1.415719395299897,-1.576809164679634
-3.9375,-1.789175515318789,-1.947691508860494
-3.937,-1.437059745015262,-1.608599079895136
-3.9365,-0.7008176798351597,-0.7608680074817418
-3.936,-0.1032878878049318,0.05507314971615059
-3.9355,0.2808384070716433,0.5743084315693548
-3.935,0.4729015545099309,0.849821030103708
-3.9345,0.5262524287983441,0.9557874141553824
-3.934,0.5049120790829789,0.9663840525605498
-3.9335,0.4515612047945656,0.9345941373450475
-3.933,0.4195506802215176,0.8816109453192104
-3.9325,0.3982103305061524,0.7968378380778709
-3.932,0.3875401556484697,0.6802748156210291
-3.9315,0.3661998059331045,0.55311515475902
-3.931,0.3555296310754218,0.5107286011383502
-3.9305,0.5049120790829789,0.8922075837243778
-3.93,0.2381577076409128,0.8816109453192104
-3.9295,-0.3380317346739499,-0.008506680714854012
-3.929,-0.6154562809736985,-0.7078848154559045
-3.9285,-0.4660738329661415,-0.6972881770507372
-3.928,-0.1673089369510276,-0.3899856633008816
-3.9275,0.08877525963335578,-0.08268314955102604
-3.927,0.2594980573562781,0.13984625695749
-3.9265,0.3448594562177392,0.2564092794143318
-3.926,0.3768699807907871,0.309392471440169
-3.9255,0.3875401556484697,0.3305857482505039
-3.925,0.3768699807907871,0.3305857482505039
-3.9245,0.3661998059331045,0.3305857482505039
-3.924,0.3555296310754218,0.3305857482505039
-3.9235,0.3555296310754218,0.3305857482505039
-3.923,0.3448594562177392,0.309392471440169
-3.9225,-0.01792648894347063,-0.07208651114585861
-3.922,-0.6261264558313813,-0.7608680074817418
-3.9215,-0.8715404775580819,-1.333086481360783
-3.921,-1.084943974711735,-1.79933857118815
-3.9205,-1.06360362499637,-1.926498232050159
-3.92,-0.5407650569699201,-1.311893204550448
-3.9195,-0.02859666380115328,-0.4959520473525559
-3.919,0.3021787567870086,0.1504428953626575
-3.9185,0.4622313796522482,0.5743084315693548
-3.918,0.5155822539406614,0.8074344764830383
-3.9175,0.4942419042252961,0.9028042221295453
-3.917,0.4515612047945656,0.9557874141553824
-3.9165,0.4195506802215176,0.9345941373450475
-3.916,0.3875401556484697,0.8604176685088755
-3.9155,0.3768699807907871,0.775644561267536
-3.915,0.3661998059331045,0.6696781772158616
-3.9145,0.3875401556484697,0.5743084315693548
-3.914,0.7183155762366316,0.8392243916985406
-3.9135,0.5369226036560266,0.7120647308365314
-3.913,-0.2206598112394408,-0.1992461720078678
-3.9125,-0.9248913518464952,-1.046977244421262
-3.912,-0.9782422261349084,-1.110557074852267
-3.9115,-0.6047861061160158,-0.6866915386455698
-3.911,-0.1993194615240755,-0.2310360872233701
-3.9105,0.1101156093487211,0.1080563417419877
-3.91,0.291508581929326,0.2881991946298341
-3.9095,0.3768699807907871,0.3623756634660061
-3.909,0.3982103305061524,0.3729723018711736
-3.9085,0.3875401556484697,0.3517790250608387
-3.908,0.3768699807907871,0.3305857482505039
-3.9075,0.3555296310754218,0.3199891098453364
-3.907,0.3448594562177392,0.309392471440169
-3.9065,0.3448594562177392,0.309392471440169
-3.906,0.2381577076409128,0.2034260873884947
-3.9055,-0.4447334832507763,-0.4217755785163839
-3.905,-1.255666772434657,-1.205926820498774
-3.9045,-1.83185621474952,-1.852321763213987
-3.904,-2.066600061618538,-2.233800745800015
-3.9035,-1.351698346153801,-1.75695201756748
-3.903,-0.5300948821122373,-0.8668343915334161
-3.9025,0.04609456020262521,-0.05089323433552374
-3.902,0.3875401556484697,0.5213252395435176
-3.9015,0.5155822539406614,0.8286277532933731
-3.901,0.5262524287983441,0.92399749893988
-3.9005,0.5369226036560266,0.9557874141553824
-3.9,0.5582629533713921,0.92399749893988
-3.8995,0.5262524287983441,0.8180311148882058
-3.899,0.4835717293676135,0.6908714540261965
-3.8985,0.4302208550792003,0.5425185163538525
-3.898,0.3875401556484697,0.4153588554918433
-3.8975,0.5582629533713921,0.4895353243280153
-3.897,0.6863050516635838,0.6802748156210291
-3.8965,-0.007256314085787988,0.01268659609548085
-3.896,-0.7434983792658902,-0.6019184314042303
-3.8955,-1.180975548430879,-0.2734226408440398
-3.895,-0.9569018764195432,0.01268659609548085
-3.8945,-0.4874141826815069,0.1292496185523226
-3.894,-0.07127736323188383,0.1716361721729923
-3.8935,0.2061471830678648,0.1822328105781598
-3.893,0.3448594562177392,0.2034260873884947
-3.8925,0.3982103305061524,0.2458126410091644
-3.892,0.408880505363835,0.2987958330350016
-3.8915,0.3875401556484697,0.3623756634660061
-3.891,0.3661998059331045,0.4365521323021782
-3.8905,0.3555296310754218,0.5107286011383502
-3.89,0.3448594562177392,0.5743084315693548
-3.8895,0.291508581929326,0.5425185163538525
-3.889,-0.2633405106701714,-0.02969995752518888
-3.8885,-1.020922925565639,-0.8138511995075789
-3.888,-1.46907026958831,-1.417859588602123
-3.8875,-1.629122892453549,-1.693372187136476
-3.887,-1.148965023857831,-1.269506650929778
-3.8865,-0.4767440078238243,-0.4959520473525559
-3.886,0.04609456020262521,0.1928294489833272
