Class_2_Relax_eyes_open/Class_2_Relax_eyes_open_AM_1.csv

#Digilent WaveForms Oscilloscope Acquisition
#Device Name: EExplorer
#Serial Number: SN:210151A2B84A
#Date Time: 2020-10-20 17:01:20.304
#Sample rate: 2000Hz
#Samples: 16384
#Trigger: Source: Channel 1 Type: Edge Condition: Rising Level: 0 V Hyst.: Auto HoldOff: 0 s
#Channel 1: Range: 1 V/div Offset: 0 V
#Channel 2: Range: 1 V/div Offset: 0 V

Time (s),Channel 1 (V),Channel 2 (V)
-4.0960000000000001,0.49424190422529612,0.52132523954351762
-4.0955000000000004,0.81434714995548418,0.66967817721572676
-4.0949999999999998,0.82501732481335122,0.55311515475885609
-4.0945,0.70764540137894905,0.37297230187117358
-4.0940000000000003,0.59027347794454665,0.23521600260412223
-4.0934999999999997,0.52625242879842171,0.19282944898324048
-4.093,0.6116138276598051,0.097459703336820316
-4.0925000000000002,0.64362435223282399,0.097459703336820316
-4.0919999999999996,0.61161382765974692,0.214022725793797
-4.0914999999999999,0.54759277851370936,0.36237566346600614
-4.0910000000000002,0.50491207908297886,0.50013196273318283
-4.0904999999999996,0.80367697509849068,0.77564456126765169
-4.0899999999999999,1.2411541442630809,0.90280422212954525
-4.0895000000000001,0.64362435223285308,0.11865298014715518
-4.0890000000000004,-0.39138260896142185,-0.81385119950673079
-4.0884999999999998,-1.4477299198729445,-1.4814394190331273
-4.0880000000000001,-2.0772702364762203,-1.7569520175674804
-4.0875000000000004,-1.661133417026976,-1.1529436284734862
-4.0869999999999997,-0.89288082727284557,-0.241632725627834
-4.0865,-0.23132998609712346,0.53192187794868506
-4.0860000000000003,0.19547700820979397,1.0299638829911015
-4.0854999999999997,0.41955068022158559,1.2842832047156305
-4.085,0.49424190422529612,1.3478630351465775
-4.0845000000000002,0.49424190422529612,1.3266697583362619
-4.0839999999999996,0.45156120479450734,1.2630899279051608
-4.0834999999999999,0.38754015564846972,1.1783168206638983
-4.0830000000000002,0.35552963107542179,1.0935437134225592
-4.0824999999999996,0.30217875678644573,0.97698069096490769
-4.0819999999999999,-0.31669138495858457,0.086863064931652884
-4.0815000000000001,-0.80751942841198598,-0.88802766834375091
-4.0810000000000004,-1.1809755484305389,-1.7145654639460588
-4.0804999999999998,-1.522421143876723,-2.0324646161018336
-4.0800000000000001,-0.88221065241576446,-1.1953301820936066
-4.0795000000000003,-0.060607188374948495,-0.33700247127582506
-4.0789999999999997,0.43022085507935559,0.16103953376797914
-4.0785,0.60094365280212259,0.33058574825050385
-4.0780000000000003,0.63295417737514148,0.37297230187113506
-4.0774999999999997,0.6009436528020935,0.34118238665563272
-4.077,0.5689331282290746,0.29879583303500157
-4.0765000000000002,0.63295417737511239,0.21402272579373918
-4.0759999999999996,0.76099627566733319,0.10805634174199738
-4.0754999999999999,0.72898575109431429,0.11865298014715518
-4.0750000000000002,0.63295417737517057,0.19282944898332721
-4.0744999999999996,0.53692260365613342,0.27760255622475344
-4.0739999999999998,0.65429452709053582,0.37297230187117358
-4.0735000000000001,1.2838348436938116,0.46834204751768049
-4.0730000000000004,1.2091436196901011,-0.13566634157631385
-4.0724999999999998,0.099445434491038431,-1.0045906908005926
-4.0720000000000001,-1.1703053735731959,-1.6827755487313083
-4.0715000000000003,-2.13062111076376,-2.0748511697221468
-4.0709999999999997,-2.1412912856215982,-1.7357587407562589
-4.0705,-1.3516983461538008,-0.76086800748174177
-4.0700000000000003,-0.56210540668600339,0.15044289536182875
-4.0694999999999997,0.014084035629878134,0.78624119967301187
-4.069,0.34485945621773917,1.1253336286380615
-4.0685000000000002,0.4835717293676135,1.2630899279052379
-4.0679999999999996,0.51558225394062251,1.2630899279051897
-4.0674999999999999,0.47290155450993088,1.2101067358794007
-4.0670000000000002,0.41955068022151765,1.1253336286380615
-4.0664999999999996,0.36619980593304624,1.0511571598018123
-4.0659999999999998,0.30217875678700862,0.96638405256054982
-4.0655000000000001,-0.17797911180871023,0.46834204751768049
-4.0650000000000004,-0.79684925355374059,-0.37938902489494308
-4.0644999999999998,-1.1489650238578306,-1.3436831197659505
-4.0640000000000001,-1.0636036249963696,-1.9688847856708289
-4.0635000000000003,-0.12462823752115104,-1.1105570748530478
-4.0629999999999997,0.55826295337171239,-0.29461591765389278
-4.0625,0.91037872367491923,0.23521600260399694
-4.0620000000000003,0.98506994767862976,0.47893868592262623
-4.0614999999999997,0.82501732481331247,0.39416557868138313
-4.0609999999999999,0.66496470194821833,0.25640927941433178
-4.0605000000000002,0.54759277851370936,0.18223281057815977
-4.0599999999999996,0.52625242879844114,0.1716361721730309
-4.0594999999999999,0.63295417737517057,0.21402272579366208
-4.0590000000000002,0.63295417737517057,0.25640927941433178
-4.0585000000000004,0.57960330308680585,0.30939247144012078
-4.0579999999999998,0.52625242879834411,0.36237566346600614
-4.0575000000000001,0.53692260365602662,0.40476221708667587
-4.0570000000000004,1.0277506471089817,0.5107286011382538
-4.0564999999999998,1.2091436196900331,0.18223281057815977
-4.056,0.4835717293676135,-0.61251506980939763
-4.0555000000000003,-0.63679663068804493,-1.3118932045498122
-4.0549999999999997,-1.6504632421691574,-1.7781452943776901
-4.0545,-1.9172176136109809,-1.6403889951106385
-4.0540000000000003,-1.3303579964389693,-0.79265792269801505
-4.0534999999999997,-0.6047861061155112,0.086863064932240774
-4.0529999999999999,-0.049937013516518552,0.73325800764686633
-4.0525000000000002,0.29150858192932599,1.1041403518277266
-4.0519999999999996,0.44089102993693147,1.2524932895000898
-4.0514999999999999,0.49424190422529612,1.2736865663104053
-4.0510000000000002,0.47290155450993088,1.2313000126897355
-4.0505000000000004,0.41955068022156616,1.1571235438536309
-4.0499999999999998,0.38754015564846972,1.0723504366122243
-4.0495000000000001,0.34485945621773917,1.0087706061812196
-4.0490000000000004,-0.16730893695056182,0.34118238665627842
-4.0484999999999998,-1.0102527507083252,-0.95160749877554573
-4.048,-1.4157193952998968,-1.8205318479984851
-4.0475000000000003,-1.7251544661724116,-2.4139435986873217
-4.0469999999999997,-1.5437614935912538,-1.9794814240750134
-4.0465,-0.62612645583138127,-0.89862430674891836
-4.0460000000000003,0.15279630877874317,-0.09327978795692593
-4.0454999999999997,0.52625242879845091,0.2776025562247823
-4.0449999999999999,0.64362435223285308,0.40476221708667587
-4.0445000000000002,0.64362435223285308,0.40476221708667587
-4.0439999999999996,0.6009436528020935,0.36237566346595795
-4.0434999999999999,0.5689331282290746,0.30939247144016896
-4.0430000000000001,0.71831557623663156,0.10805634174198775
-4.0425000000000004,0.78233662538266935,-0.0085066807147479995
-4.0419999999999998,0.72898575109431429,0.023283234500648287
-4.0415000000000001,0.63295417737517057,0.10805634174198775
-4.0410000000000004,0.55826295337146004,0.21402272579356568
-4.0404999999999998,0.91037872367550154,0.29879583303477991
-4.04,1.5505892151358776,0.055073149716150585
-4.0395000000000003,1.0811015213982684,-0.70788481545521065
-4.0389999999999997,-0.1886492866675186,-1.4496495038180779
-4.0385,-1.4263895701575793,-1.947691508860494
-4.0380000000000003,-2.1306211107639932,-2.0642545313172298
-4.0374999999999996,-1.7464948158873503,-1.3012965661443747
-4.0369999999999999,-0.96757205127722568,-0.30521255605954212
-4.0365000000000002,-0.28468086038553664,0.48953532432801533
-4.0359999999999996,0.17413665849503041,0.98757732937110643
-4.0354999999999999,0.40888050536383502,1.2313000126897355
-4.0350000000000001,0.49424190422529612,1.2948798431207402
-4.0345000000000004,0.49424190422529612,1.2630899279052668
-4.0339999999999998,0.4622313796522482,1.1889134590690658
-4.0335000000000001,0.3982103305061524,1.1041403518277266
-4.0330000000000004,0.36619980593313362,1.0193672445864641
-4.0324999999999998,0.17413665849428317,0.77564456126685177
-4.032,-0.41272295867772835,0.023283234500648287
-4.0315000000000003,-1.0315931004227588,-0.96220413717902664
-4.0309999999999997,-1.4904106193030735,-1.682775548730653
-4.0305,-0.82885977812735145,-0.96220413717992292
-4.0300000000000002,0.035424385344156484,0.065669788120383266
-4.0294999999999996,0.64362435223310543,0.64848490040570039
-4.0289999999999999,0.92104889853260175,0.83922439169854057
-4.0285000000000002,0.857027849386506,0.66967817721586165
-4.0279999999999996,0.70764540137883258,0.45774540911235884
-4.0274999999999999,0.57960330308675734,0.28819919462983412
-4.0270000000000001,0.50491207908297886,0.20342608738849466
-4.0265000000000004,0.56893312822901643,0.30939247144007259
-4.0259999999999998,0.65429452709053582,0.45774540911251305
-4.0255000000000001,0.63295417737517057,0.46834204751768049
-4.0250000000000004,0.56893312822913278,0.45774540911252271
-4.0244999999999997,0.51558225394086521,0.44714877070704684
-4.024,0.73965592595199681,0.11865298014715518
-4.0235000000000003,1.3158453682663354,-0.67609490023967944
-4.0229999999999997,0.96372959796247848,-1.4072629501973022
-4.0225,0.024754210487259936,-1.7887419327829828
-4.0220000000000002,-1.0315931004223609,-1.9370948704551916
-4.0214999999999996,-1.8318562147494128,-1.8841116784289116
-4.0209999999999999,-1.7144842913150107,-1.2483133741194434
-4.0205000000000002,-1.0315931004233216,-0.30521255605954212
-4.0199999999999996,-0.3700422592465708,0.4789386859232912
-4.0194999999999999,0.099445434491038431,0.96638405256054982
-4.0190000000000001,0.35552963107542179,1.2101067358794007
-4.0185000000000004,0.46223137965215116,1.2736865663103476
-4.0179999999999998,0.4835717293676135,1.2313000126897355
-4.0175000000000001,0.44089102993688295,1.146526905448396
-4.0170000000000003,0.37686998079084533,1.0511571598019762
-4.0164999999999997,0.32351910650186921,0.95578741415482338
-4.016,-0.23132998609712346,0.34118238665567124
-4.0155000000000003,-1.1169544992839773,-0.61251506980853021
-4.0149999999999997,-1.5651018433076187,-1.5238259726544716
-4.0145,-1.7464948158880587,-2.265590661015517
-4.0140000000000002,-1.6718035918843479,-2.2549940226103593
-4.0134999999999996,-0.83952995298423816,-1.3860696733858202
-4.0129999999999999,0.035424385344942577,-0.50654868575772338
-4.0125000000000002,0.52625242879834411,0.012686596095480854
-4.0119999999999996,0.69697522652127597,0.27760255622473412
-4.0114999999999998,0.70764540137894905,0.35177902506083869
-4.0110000000000001,0.64362435223285308,0.35177902506083869
-4.0105000000000004,0.57960330308681551,0.31998910984536533
-4.0099999999999998,0.57960330308675734,0.23521600260399694
-4.0095000000000001,0.6863050516635838,0.10805634174198775
-4.0090000000000003,0.6542945270905649,0.11865298014714554
-4.0084999999999997,0.56893312822900666,0.19282944898341395
-4.008,0.49424190422529612,0.28819919462983412
-4.0075000000000003,0.60094365280202555,0.13984625695762495
-4.0069999999999997,1.1557927454016879,-0.40058230170669473
-4.0065,1.2304839694053984,-1.1105570748522671
-4.0060000000000002,0.47290155450993088,-1.6933721871364757
-4.0054999999999996,-0.6261264558323032,-2.0324646161019975
-4.0049999999999999,-1.6397930673112322,-2.2126074689896797
-4.0045000000000002,-1.8318562147495197,-1.7781452943778153
-4.0039999999999996,-1.2556667724340262,-0.78206128429126698
-4.0034999999999998,-0.5621054066852853,0.10805634174198775
-4.0030000000000001,-0.017926488943470625,0.73325800764686633
-4.0025000000000004,0.30217875678671746,1.061753798206758
-4.0019999999999998,0.45156120479456557,1.1889134590690658
-4.0015000000000001,0.4835717293676135,1.1889134590690658
-4.0010000000000003,0.46223137965226763,1.1253336286381193
-4.0004999999999997,0.41955068022147884,1.0405605213966642
-4,0.3768699807907871,0.97698069096571727
-3.9994999999999998,0.33418928136005654,0.9134008605347127
-3.9990000000000001,0.014084035629577295,0.55311515475901996
-3.9984999999999999,-0.64746680554674652,-0.24163272562853755
-3.9980000000000002,-1.4797404444459925,-1.4390528654124575
-3.9975000000000001,-1.3623685210114835,-1.6403889951106385
-3.9969999999999999,-0.51942470725455481,-0.67609490024040231
-3.9965000000000002,0.25949805735627807,0.076266426526485451
-3.996,0.77166645052504479,0.54251851635385251
-3.9954999999999998,0.88903837395955376,0.62729162359519197
-3.9950000000000001,0.78233662538272752,0.51072860113835017
-3.9944999999999999,0.64362435223285308,0.38356894027634103
-3.9940000000000002,0.54759277851370936,0.29879583303500157
-3.9935,0.51558225394066137,0.27760255622466667
-3.9929999999999999,0.60094365280212259,0.37297230187117358
-3.9925000000000002,0.6116138276598051,0.43655213230217815
-3.992,0.5689331282290746,0.46834204751768049
-3.9914999999999998,0.50491207908297886,0.47893868592284788
-3.9910000000000001,0.47290155450993088,0.47893868592284788
-3.9904999999999999,0.83568749967114075,0.012686596095480854
-3.9900000000000002,1.1557927454016199,-0.82444783791274634
-3.9895,0.44089102993688295,-1.5132293342486296
-3.9889999999999999,-0.59411593125833329,-1.8841116784294898
-3.9885000000000002,-1.5757720181651362,-2.0642545313173359
-3.988,-2.1092807610492685,-1.8947083168346572
-3.9874999999999998,-1.618452717595867,-1.0363806060160949
-3.9870000000000001,-0.8502001278427167,-0.093279787956193475
-3.9864999999999999,-0.19931946152407554,0.60609834678485708
-3.9860000000000002,0.20614718306786484,1.0193672445863871
-3.9855,0.40888050536383502,1.1889134590690658
-3.9849999999999999,0.4835717293676135,1.2101067358794007
-3.9845000000000002,0.47290155450993088,1.1571235438535634
-3.984,0.41955068022151765,1.0723504366122243
-3.9834999999999998,0.34485945621773917,1.0193672445863871
-3.9830000000000001,0.28083840707164331,1.0087706061812196
-3.9824999999999999,-0.15663876209334496,0.51072860113835017
-3.9820000000000002,-1.2236562478616091,-0.792657922697244
-3.9815,-1.7251544661726932,-1.6933721871364757
-3.9809999999999999,-1.9065474387532981,-2.2020108305845123
-3.9805000000000001,-1.3410281712961183,-1.6297923567054711
-3.98,-0.33803173467394987,-0.62311170821456507
-3.9794999999999998,0.3768699807907871,0.044476511310983152
-3.9790000000000001,0.66496470194821833,0.34118238665567124
-3.9784999999999999,0.71831557623663156,0.40476221708667587
-3.9780000000000002,0.66496470194821833,0.37297230187117358
-3.9775,0.59027347794443985,0.31998910984533641
-3.9769999999999999,0.53692260365602662,0.27760255622466667
-3.9765000000000001,0.60094365280212259,0.2246193641988295
-3.976,0.64362435223285308,0.2246193641988295
-3.9754999999999998,0.60094365280212259,0.26700591781949923
-3.9750000000000001,0.54759277851370936,0.31998910984533641
-3.9744999999999999,0.49424190422529612,0.38356894027634103
-3.9740000000000002,0.73965592595199681,0.54251851635385251
-3.9735,1.5185786905628296,1.1359302670432285
-3.9729999999999999,1.9347155100124527,1.4114428655775821
-3.9725000000000001,0.96372959796333246,0.53192187794868506
-3.972,-0.4980843575391895,-0.61251506980939763
-3.9714999999999998,-1.5757720181651362,-1.4178595886021226
-3.9710000000000001,-1.586442193022819,-1.2695066509297783
-3.9704999999999999,-0.99958257585027366,-0.51714532416289083
-3.9700000000000002,-0.38071243410468042,0.24581264100916439
-3.9695,0.078105084775673142,0.80743447648303834
-3.9689999999999999,0.33418928136005654,1.146526905448396
-3.9685000000000001,0.45156120479456557,1.3160731199310751
-3.968,0.47290155450993088,1.3690563119569124
-3.9674999999999998,0.45156120479456557,1.3584596735517449
-3.9670000000000001,0.40888050536383502,1.3160731199310751
-3.9664999999999999,0.3768699807907871,1.2630899279052379
-3.9660000000000002,0.32351910650237387,1.1889134590690658
-3.9655,0.035424385344942577,0.64848490040552687
-3.9649999999999999,-0.4980843575391895,-0.2310360872233701
-3.9645000000000001,-1.2343264227192918,-1.4496495038176249
-3.964,-1.0102527507079564,-1.3966663117917877
-3.9634999999999998,-0.28468086038553664,-0.62311170821456507
-3.9630000000000001,0.29150858192932599,-0.082683149551026042
-3.9624999999999999,0.69697522652126631,0.27760255622466667
-3.9620000000000002,0.80367697509809277,0.40476221708667587
-3.9615,0.70764540137894905,0.33058574825050385
-3.9609999999999999,0.59027347794443985,0.23521600260399694
-3.9605000000000001,0.51558225394066137,0.18223281057815977
-3.96,0.55826295337139209,0.15044289536265748
-3.9594999999999998,0.66496470194821833,0.13984625695749003
-3.9590000000000001,0.64362435223285308,0.17163617217299235
-3.9584999999999999,0.57960330308675734,0.23521600260399694
-3.9580000000000002,0.50491207908297886,0.30939247144016896
-3.9575,0.60094365280212259,0.51072860113835017
-3.9569999999999999,1.1557927454016199,1.0511571598018894
-3.9565000000000001,0.87836819910187125,0.71206473083653143
-3.956,-0.039266838658835915,-0.20984281041303524
-3.9554999999999998,-1.0422632752810042,-1.0469772444212624
-3.9550000000000001,-1.9172176136109809,-1.650985633515806
-3.9544999999999999,-2.0452597119031726,-1.6297923567054711
-3.9540000000000002,-1.3516983461538008,-0.83504447631791379
-3.9535,-0.6047861061160158,0.044476511310983152
-3.9529999999999998,-0.039266838658835915,0.71206473083653143
-3.9525000000000001,0.30217875678700862,1.1253336286380615
-3.952,0.44089102993688295,1.3160731199310751
-3.9514999999999998,0.47290155450993088,1.3690563119569124
-3.9510000000000001,0.45156120479456557,1.3478630351465775
-3.9504999999999999,0.3982103305061524,1.2948798431207402
-3.9500000000000002,0.35552963107542179,1.2313000126897355
-3.9495,0.30217875678700862,1.146526905448396
-3.9489999999999998,0.024754210487259936,0.63788826200035942
-3.9485000000000001,-0.53009488211223732,-0.24163272562853755
-3.948,-1.0742737998540521,-1.0363806060160949
-3.9474999999999998,-1.67180359188428,-1.7357587407571455
-3.9470000000000001,-1.3623685210114835,-1.3118932045504481
-3.9464999999999999,-0.40205278382004572,-0.38998566330088158
-3.9460000000000002,0.33418928136005654,0.19282944898332721
-3.9455,0.64362435223285308,0.38356894027634103
-3.9449999999999998,0.70764540137894905,0.37297230187117358
-3.9445000000000001,0.66496470194821833,0.28819919462983412
-3.944,0.59027347794443985,0.19282944898332721
-3.9434999999999998,0.55826295337139209,0.10805634174198775
-3.9430000000000001,0.6863050516635838,0.023283234500648287
-3.9424999999999999,0.69697522652126631,0.023283234500648287
-3.9420000000000002,0.6116138276598051,0.076266426526485451
-3.9415,0.52625242879834411,0.15044289536265748
-3.9409999999999998,0.55826295337139209,0.13984625695749003
-3.9405000000000001,1.0704313465401587,-0.43237221692155131
-3.9399999999999999,1.0384208219671107,-1.2165234589039415
-3.9394999999999998,-0.017926488943470625,-1.84172512480882
-3.9390000000000001,-1.2449965975769743,-2.2020108305845123
-3.9384999999999999,-2.23732285934146,-2.2761872994206844
-3.9380000000000002,-2.5467579302142567,-1.8841116784294898
-3.9375,-1.6931439415996454,-0.87743102993858346
-3.9369999999999998,-0.80751942841198598,0.10805634174198775
-3.9365000000000001,-0.13529841237797968,0.80743447648303834
-3.9359999999999999,0.27016823221396069,1.1995100974742332
-3.9355000000000002,0.45156120479456557,1.3478630351465775
-3.9350000000000001,0.49424190422529612,1.33726639674141
-3.9344999999999999,0.47290155450993088,1.2524932895000704
-3.9340000000000002,0.41955068022151765,1.146526905448396
-3.9335,0.3768699807907871,1.0299638829915545
-3.9329999999999998,0.30217875678700862,1.0299638829915545
-3.9325000000000001,0.11011560934872107,0.83922439169854057
-3.9319999999999999,-0.22065981123944084,0.076266426526485451
-3.9315000000000002,-0.88221065241576446,-0.96220413717992292
-3.931,-1.4477299198729445,-1.6191957183003036
-3.9304999999999999,-0.87154047755808195,-0.98339741399025782
-3.9300000000000002,-0.19931946152407554,-0.36879238649054674
-3.9295,0.34485945621773917,0.033879872905815719
-3.9289999999999998,0.67563487680590106,0.27760255622466667
-3.9285000000000001,0.70764540137894905,0.24581264100916439
-3.9279999999999999,0.63295417737517057,0.13984625695749003
-3.9275000000000002,0.55826295337139209,0.086863064931652884
-3.927,0.50491207908297886,0.065669788121318018
