Class_2_Relax_eyes_open/Class_2_Relax_eyes_open_AM_4.csv

#Digilent WaveForms Oscilloscope Acquisition
#Device Name: EExplorer
#Serial Number: SN:210151A2B84A
#Date Time: 2020-11-17 16:05:00.293
#Sample rate: 2000Hz
#Samples: 16384
#Trigger: Source: Channel 1 Type: Edge Condition: Rising Level: 0 V Hyst.: Auto HoldOff: 0 s
#Channel 1: Range: 1 V/div Offset: 0 V Attenuation: 1 X
#Channel 2: Range: 1 V/div Offset: 0 V Attenuation: 1 X
#Power Supplies: ON
#Fixed Supply: ON
#Voltage: 3.3 V Readback: 3.317 V
#Positive Supply: ON
#Voltage: 3.7 V Readback: 3.717 V
#Current: 500 mA Readback: 21 mA
#Negative Supply: ON
#Voltage: -3.7 V Readback: -3.697 V
#Current: -500 mA Readback: -11 mA
#Reference 1: ON
#Voltage: 0 V
#Reference 2: ON
#Voltage: 0 V

Time (s),Channel 1 (V),Channel 2 (V)
-4.096,0.6649647019482183,-0.400582301706049
-4.0955,0.5155822539407973,-0.2098428104132087
-4.095,0.5262524287987517,0.129249618552978
-4.0945,0.974399772821015,0.849821030103708
-4.094,0.6756348768061728,0.8922075837243393
-4.0935,-0.2206598112403628,0.02328323449979054
-4.093,-1.234326422719292,-0.9198175835592532
-4.0925,-2.0986105861908,-1.184733543688198
-4.092,-2.36536495763304,-0.3475991096794601
-4.0915,-1.693143941599645,0.4789386859228479
-4.091,-0.8928808272734472,0.8710143069140429
-4.0905,-0.284680860385197,0.9345941373449896
-4.09,0.08877525963335578,0.8710143069140429
-4.0895,0.2701682322139607,0.8180311148882058
-4.089,0.3235191065023253,0.7968378380778902
-4.0885,0.3021787567870086,0.8180311148882058
-4.088,0.2701682322139607,0.849821030103708
-4.0875,0.2274875327832689,0.8604176685088658
-4.087,0.1954770082098425,0.8498210301034286
-4.0865,-0.1779791118087102,0.5425185163538525
-4.086,-0.8075194284114136,-0.2416327256278243
-4.0855,-1.10628432442711,-1.004590690801084
-4.085,-1.116954499284783,-1.545019249464132
-4.0845,-0.7648387289815757,-1.682775548731183
-4.084,-0.02859666380061953,-1.174136905282597
-4.0835,0.5582629533713921,-0.4323722169215513
-4.083,0.825017324813458,0.13984625695749
-4.0825,0.825017324813361,0.4683420475177673
-4.082,0.7183155762366316,0.5637117931641874
-4.0815,0.5902734779444399,0.5001319627331828
-4.081,0.4942419042253835,0.3199891098455002
-4.0805,0.5582629533713921,0.1610395337678249
-4.08,0.5796033030867573,0.1080563417419877
-4.0795,0.5049120790830468,0.05507314971619878
-4.079,0.4302208550791809,0.01268659609548085
-4.0785,0.408880505363835,0.01268659609548085
-4.078,0.7289857510940232,0.2881991946295835
-4.0775,0.6329541773745495,-0.01910331912071535
-4.077,-0.04993701351651855,-0.7820612842920766
-4.0765,-0.9355615267033722,-1.449649503817018
-4.076,-1.810515865034708,-1.640388995109742
-4.0755,-2.418715831922065,-0.6549016234300674
-4.075,-2.023919362187807,0.3623756634660061
-4.0745,-1.212986073003286,0.8180311148882733
-4.074,-0.5087545323968721,0.8922075837243778
-4.0735,-0.02859666380115328,0.8180311148882058
-4.073,0.2168173579253243,0.7438546460521013
-4.0725,0.3128489316446912,0.7226613692416989
-4.072,0.3128489316446912,0.7332580076468663
-4.0715,0.2701682322139995,0.7756445612674975
-4.071,0.1954770082101434,0.8180311148882154
-4.0705,0.1527963087794516,0.8286277532933731
-4.07,-0.007256314085642424,0.627291623595375
-4.0695,-0.5941159312586729,-0.1038764263620741
-4.069,-0.9675720512772257,-0.8880276683437509
-4.0685,-1.116954499284783,-1.449649503817625
-4.068,-1.330357996437882,-1.672178910325659
-4.0675,-0.722158029550525,-1.142346990067769
-4.067,0.1207857842064037,-0.3581957480853793
-4.0665,0.6649647019483736,0.2458126410094535
-4.066,0.8356874996711408,0.5637117931641874
-4.0655,0.7823366253827275,0.6166949851900245
-4.065,0.6649647019483251,0.5319218779487622
-4.0645,0.5582629533713921,0.3941655786815084
-4.064,0.6009436528021226,0.1610395337678249
-4.0635,0.7289857510941978,-0.09327978795596215
-4.063,0.654294527090429,-0.1250697031716572
-4.0625,0.5369226036560266,-0.08268314955102604
-4.062,0.4195506802216244,0.002089957690236316
-4.0615,0.1634664836364938,0.2140227257933922
-4.061,-0.5407650569699201,-0.08268314955102604
-4.0605,-1.180975548430879,-0.8244478379127463
-4.06,-1.703814116457823,-1.428456227007637
-4.0595,-2.247993034199143,-1.809935209593318
-4.059,-2.738821077652544,-1.280103289334946
-4.0585,-2.344024607918645,-0.1144730647675885
-4.058,-1.405049220442214,0.6484849004055269
-4.0575,-0.6154562809736985,0.8922075837243778
-4.057,-0.08194753809005173,0.8604176685089043
-4.0565,0.2061471830678648,0.7544512844572011
-4.056,0.3235191065023739,0.6696781772158616
-4.0555,0.3341892813600468,0.6272916235952305
-4.055,0.3021787567869601,0.6272916235952208
-4.0545,0.2488278824985954,0.6590815388106942
-4.054,0.2061471830679036,0.6908714540261677
-4.0535,0.1421261339213032,0.6802748156206146
-4.053,-0.3700422592469978,0.2246193641988295
-4.0525,-0.9142211769888124,-0.6019184314042303
-4.052,-1.191645723288629,-1.301296566145483
-4.0515,-1.26633694729234,-1.523825972653797
-4.051,-0.6367966306890638,-1.089363798041932
-4.0505,0.1634664836364064,-0.4429688553273067
-4.05,0.707645401378949,0.1504428953626575
-4.0495,0.8890383739595538,0.5001319627331828
-4.049,0.8463576745288621,0.6272916235950763
-4.0485,0.7183155762365248,0.6484849004054498
-4.048,0.6009436528021226,0.5637117931641874
-4.0475,0.5582629533714309,0.478938685922925
-4.047,0.867698024244305,0.7014680924313929
-4.0465,0.9957401225363802,0.7332580076468663
-4.046,0.8463576745289592,0.4471487707076058
-4.0455,0.632954177375025,0.129249618552313
-4.045,0.4729015545099309,0.1186529801471552
-4.0445,0.4302208550792003,0.6908714540261965
-4.044,0.08877525963277351,0.7862411996720192
-4.0435,-0.5514352318276028,0.03387987290581572
-4.043,-1.351698346153801,-0.792657922697244
-4.0425,-2.07727023647556,-1.131750351662294
-4.042,-2.162631635337682,-0.3899856633008816
-4.0415,-1.479740444445993,0.4153588554918433
-4.041,-0.7328282044088869,0.8498210301033129
-4.0405,-0.188649286666092,1.019367244586435
-4.04,0.142126133921769,1.072350436612224
-4.0395,0.2915085819291902,1.09354371342254
-4.039,0.3235191065023544,1.12533362863809
-4.0385,0.3021787567870086,1.157123543853563
-4.038,0.2488278824986439,1.199510097474195
-4.0375,0.2061471830678357,1.220703374284559
-4.037,0.1741366584948169,1.210106735879401
-4.0365,-0.1673089369510276,0.8286277532933731
-4.036,-0.7648387289815854,-0.02969995752592133
-4.0355,-1.127624674142465,-0.8350444763179138
-4.035,-1.234326422719292,-1.34368311976595
-4.0345,-0.8288597781277203,-1.195330182093742
-4.034,-0.07127736323188383,-0.5489352393783931
-4.0335,0.5155822539406614,0.02328323450064829
-4.033,0.7930068002401578,0.3517790250605399
-4.0325,0.8036769750980054,0.4683420475176708
-4.032,0.707645401378949,0.457745409112513
-4.0315,0.5902734779445467,0.2881991946299883
-4.031,0.5049120790830468,0.1398462569575575
-4.0305,0.5796033030867573,0.2140227257936621
-4.03,0.6009436528021032,0.2246193641988199
-4.0295,0.5155822539405838,0.06566978812117345
-4.029,0.4302208550792003,-0.09327978795619347
-4.0285,0.3982103305061524,-0.1674562567923655
-4.028,0.8250173248135745,0.2670059178200196
-4.0275,0.9530594231056497,0.8392243916985406
-4.027,0.1848068333524996,0.4047622170866759
-4.0265,-0.6581369804036624,-0.4641621321362634
-4.026,-1.565101843307454,-1.004590690800593
-4.0255,-2.151961460479999,-0.3793890248957141
-4.025,-1.810515865034465,0.4259554938962783
-4.0245,-1.084943974711153,0.8180311148883022
-4.024,-0.4447334832507763,0.92399749893988
-4.0235,-0.007256314086185878,0.9345941373450378
-4.023,0.2168173579256251,0.934594137345086
-4.0225,0.3021787567870086,0.9769806909657173
-4.022,0.3128489316446815,1.029963882991506
-4.0215,0.2808384070716142,1.093543713422607
-4.021,0.2488278824985954,1.146526905448396
-4.0205,0.2168173579255475,1.188913459069066
-4.02,0.02475421048671649,1.061753798206421
-4.0195,-0.572775581542968,0.3623756634660061
-4.019,-1.031593100423322,-0.474758770542221
-4.0185,-1.24499659757678,-1.121153713256847
-4.018,-1.277007122150022,-1.460246142222792
-4.0175,-0.572775581542968,-1.131750351662602
-4.017,0.2274875327825022,-0.4535654937325031
-4.0165,0.7289857510944502,0.09745970333706126
-4.016,0.8783681991018712,0.3623756634660061
-4.0155,0.8143471499558335,0.3835689402763218
-4.015,0.686305051663477,0.3305857482504364
-4.0145,0.5689331282290746,0.2564092794143318
-4.014,0.5902734779444204,0.2352160026040162
-4.0135,0.6756348768058429,0.2246193641986657
-4.013,0.6116138276598051,0.04447651131098315
-4.0125,0.4835717293676135,-0.1674562567923655
-4.012,0.3768699807908356,-0.3158091944644975
-4.0115,0.4302208550792003,-0.08268314955102604
-4.011,0.4302208550792003,0.5107286011383502
-4.0105,-0.3380317346732511,0.3835689402764567
-4.01,-1.191645723288561,-0.400582301706049
-4.0095,-1.970568487899394,-1.184733543688439
-4.009,-2.642789503932789,-1.587405803084435
-4.0085,-2.333354433059779,-1.28010328933404
-4.008,-1.426389570157579,-0.2840192792492073
-4.0075,-0.6367966306897819,0.637888261999521
-4.007,-0.0926177129469871,1.188913459069326
-4.0065,0.1954770082101822,1.475022696008586
-4.006,0.3128489316446912,1.570392441655093
-4.0055,0.3341892813600177,1.570392441655045
-4.005,0.291508581929326,1.517409249629256
-4.0045,0.2381577076409128,1.432636142387917
-4.004,0.2061471830677872,1.326669758336079
-4.0035,0.1207857842064037,1.146526905448396
-4.003,-0.4554036581084589,0.4471487707073456
-4.0025,-1.020922925565125,-0.559531877782645
-4.002,-1.319687821580753,-1.396666311791788
-4.0015,-1.287677297007705,-1.534422611058964
-4.001,-0.5941159312589641,-1.02578396761139
-4.0005,0.2274875327837056,-0.4641621321367452
-4,0.7503261008096795,-0.1250697031716958
-3.9995,0.9317190733902845,0.01268659609548085
-3.999,0.8676980242441885,0.01268659609548085
-3.9985,0.7183155762366316,-0.07208651114585861
-3.998,0.5796033030867573,-0.1992461720078678
-3.9975,0.5155822539406614,-0.3581957480853793
-3.997,0.5796033030867573,-0.5383386009732256
-3.9965,0.5262524287983441,-0.5383386009732256
-3.996,0.4302208550792003,-0.4641621321370536
-3.9955,0.3768699807907871,-0.3581957480853793
-3.995,0.4515612047945656,-0.1144730647665284
-3.9945,0.8463576745288233,0.55311515475902
-3.994,0.4729015545099309,0.7120647308365314
-3.9935,-0.391382608962363,-0.02969995752518888
-3.993,-1.319687821580753,-0.8562377531282487
-3.9925,-2.119950935906951,-1.42845622700729
-3.992,-2.386705307349017,-0.9622041371799229
-3.9915,-1.703814116457328,0.04447651131098315
-3.991,-0.9035510021311299,0.775644561267536
-3.9905,-0.274010685527854,1.157123543853563
-3.99,0.09944543449103843,1.316073119931075
-3.9895,0.2808384070716433,1.369056311956912
-3.989,0.3235191065023739,1.37965295036208
-3.9885,0.3128489316446912,1.347863035146577
-3.988,0.2808384070716433,1.305476481525908
-3.9875,0.2488278824985954,1.263089927905238
-3.987,0.2168173579255475,1.178316820663898
-3.9865,-0.02859666380115328,0.7968378380778709
-3.986,-0.6367966306890638,-0.06148987274069118
-3.9855,-0.9675720512772257,-0.9516074987747555
-3.985,-1.138294849000148,-1.650985633515806
-3.9845,-0.6154562809736985,-1.873515040024322
-3.984,0.2808384070716433,-1.290699927740113
-3.9835,0.9103787236749192,-0.6231117082145651
-3.983,1.134452395686255,-0.1568596183871981
-3.9825,1.038420821967111,0.08686306493165288
-3.982,0.825017324813458,0.1292496185523226
-3.9815,0.6329541773751706,0.08686306493165288
-3.981,0.5049120790829789,0.01268659609548085
-3.9805,0.6222840025174878,-0.2098428104130352
-3.98,0.7289857510943143,-0.3475991096802118
-3.9795,0.6756348768059011,-0.3793890248957141
-3.979,0.5369226036560266,-0.3475991096802118
-3.9785,0.3661998059331045,-0.2204394488182027
-3.978,-0.1673089369510276,0.2987958330350016
-3.9775,-0.754168554123573,0.3411823866556712
-3.977,-1.26633694729234,-0.3581957480853793
-3.9765,-1.67180359188428,-0.9516074987747555
-3.976,-2.183971985053047,-1.417859588602123
-3.9755,-2.525417580498891,-1.089363798041932
-3.975,-1.938557963326346,-0.1356663415768632
-3.9745,-1.095614149569417,0.5743084315693548
-3.974,-0.4020527838200457,0.9028042221295453
-3.9735,0.03542438534494258,1.019367244586387
-3.973,0.2594980573562781,1.051157159801889
-3.9725,0.3341892813600565,1.061753798207057
-3.972,0.3235191065023739,1.051157159801889
-3.9715,0.291508581929326,1.051157159801889
-3.971,0.2488278824985954,1.040560521396722
-3.9705,0.2168173579255475,1.019367244586387
-3.97,0.02475421048725994,0.8074344764830383
-3.9695,-0.6154562809736985,0.03387987290581572
-3.969,-1.074273799854052,-0.8244478379127463
-3.9685,-1.277007122150022,-1.42845622700729
-3.968,-1.031593100423322,-1.42845622700729
-3.9675,-0.1779791118087102,-0.9092209451540858
-3.967,0.6116138276598051,-0.2734226408440398
-3.9665,1.006410297394063,0.1504428953626575
-3.966,1.049090996824793,0.3305857482505039
-3.9655,0.8783681991018712,0.3199891098453364
-3.965,0.6863050516635838,0.2352160026039969
-3.9645,0.5369226036560266,0.1186529801471552
-3.964,0.5369226036560266,-0.07208651114585861
-3.9635,0.6329541773751706,-0.2628260024388724
-3.963,0.6222840025174878,-0.252229364033705
-3.9625,0.5155822539406614,-0.1674562567923655
-3.962,0.4302208550792003,-0.05089323433552374
-3.9615,0.5369226036560266,0.3623756634660061
-3.961,0.7396559259519968,0.9451907757502149
-3.9605,0.1527963087794516,0.5213252395435176
-3.96,-0.5941159312583333,-0.2098428104130352
-3.9595,-1.255666772434657,0.06566978812131802
-3.959,-1.853196564464885,0.8922075837243778
-3.9585,-1.682473766741963,1.316073119931075
-3.958,-1.06360362499637,1.210106735879401
-3.9575,-0.4554036581084589,0.9451907757502149
-3.957,-0.02859666380115328,0.7438546460520338
-3.9565,0.1954770082101822,0.6590815388106942
-3.956,0.291508581929326,0.6802748156210291
-3.9555,0.3021787567870086,0.7544512844572011
-3.955,0.2808384070716433,0.849821030103708
-3.9545,0.2381577076409128,0.9345941373450475
-3.954,0.2168173579255475,1.019367244586387
-3.9535,0.1848068333524996,0.9981739677760521
-3.953,-0.1673089369510276,0.4789386859228479
-3.9525,-0.6688071552621118,-0.326405832869877
-3.952,-0.9995825758502737,-0.9939940523954253
-3.9515,-1.010252750707956,-1.322489842955616
-3.951,-0.3487019095316325,-0.9728007755850904
-3.9505,0.4302208550792003,-0.3687923864905467
-3.95,0.9103787236749192,0.1822328105781598
-3.9495,1.027750647109428,0.5001319627331828
-3.949,0.9210488985326017,0.5955017083796896
-3.9485,0.7503261008096795,0.5637117931641874
-3.948,0.5902734779444399,0.4471487707073456
-3.9475,0.5262524287983441,0.2776025562246667
-3.947,0.6756348768059011,0.09745970333682032
-3.9465,0.6649647019482183,-0.01910331912002144
-3.946,0.5475927785137094,-0.1144730647665284
-3.9455,0.4195506802215176,-0.1886495336027004
-3.945,0.4408910299368829,-0.08268314955102604
-3.9445,0.8676980242441885,0.5319218779486851
-3.944,0.707645401378949,0.9557874141553824
-3.9435,-0.1352984123779797,0.309392471440169
-3.943,-1.170305373573196,-0.6760949002404023
-3.9425,-2.045259711903173,-1.163540266878104
-3.942,-2.3973754822067,-0.4641621321370536
-3.9415,-1.746494815888059,0.4365521323021782
-3.941,-0.9462317015618604,0.9875773293708847
-3.9405,-0.3060212101009019,1.135930267043229
-3.94,0.07810508477567314,1.093543713422559
-3.9395,0.2594980573562781,1.00877060618122
-3.939,0.3235191065023739,0.9663840525605498
-3.9385,0.3128489316446912,0.9557874141553824
-3.938,0.2594980573562781,0.9663840525605498
-3.9375,0.2061471830678648,0.9875773293708847
-3.937,0.1634664836371343,0.9769806909657173
-3.9365,-0.2099896363817582,0.5743084315693548
-3.936,-0.8288597781273515,-0.2628260024388724
-3.9355,-1.191645723288561,-1.05757388282643
-3.935,-1.26633694729234,-1.555615887869299
-3.9345,-0.7328282044082075,-1.396666311791788
-3.934,0.08877525963335578,-0.7714646458869092
-3.9335,0.707645401378949,-0.1674562567923655
-3.933,0.974399772821015,0.2458126410091644
-3.9325,0.9317190733902845,0.4153588554918433
-3.932,0.7823366253827275,0.4047622170866759
-3.9315,0.6116138276598051,0.2564092794143318
-3.931,0.5049120790829789,0.07626642652648545
-3.9305,0.5475927785137094,0.08686306493165288
-3.93,0.5796033030867573,0.1080563417419877
-3.9295,0.5155822539406614,0.02328323450064829
-3.929,0.4408910299368829,-0.06148987274069118
-3.9285,0.3982103305061524,-0.08268314955102604
-3.928,0.1527963087794516,0.07626642652648545
-3.9275,-0.6688071552621118,-0.3052125560595421
-3.927,-1.373038695869166,-1.036380606016095
-3.9265,-1.970568487899394,-1.661582271920973
-3.926,-2.578768454787304,-1.672178910326141
-3.9255,-2.76016142736791,-0.5595318777835605
-3.925,-1.970568487899394,0.457745409112513
-3.9245,-1.052933450138687,0.9028042221295453
-3.924,-0.3593720843893152,0.9451907757502149
-3.9235,0.07810508477567314,0.8392243916985406
-3.923,0.2808384070716433,0.7438546460520338
-3.9225,0.3448594562177392,0.7120647308365314
-3.922,0.3235191065023739,0.7226613692416989
-3.9215,0.2808384070716433,0.7544512844572011
-3.921,0.2274875327832301,0.8074344764830383
-3.9205,0.2061471830678648,0.849821030103708
-3.92,0.0674349099179905,0.701468092431364
-3.9195,-0.5300948821122373,0.01268659609548085
-3.919,-1.042263275281004,-0.792657922697244
-3.9185,-1.362368521011484,-1.38606967338662
-3.918,-1.479740444445993,-1.576809164679634
-3.9175,-0.7755089038389382,-1.068170521231597
-3.917,0.07810508477567314,-0.3475991096802118
-3.9165,0.6329541773751706,0.2140227257936621
-3.916,0.8143471499557753,0.5001319627331828
-3.9155,0.7823366253827275,0.4789386859228479
-3.915,0.6649647019482183,0.3517790250608387
-3.9145,0.5475927785137094,0.2564092794143318
-3.914,0.5689331282290746,0.2458126410091644
-3.9135,0.8036769750980928,0.2776025562246667
-3.913,0.857027849386506,0.1822328105781598
-3.9125,0.7183155762366316,0.06566978812131802
-3.912,0.5369226036560266,-0.008506680714854012
-3.9115,0.4515612047945656,0.2352160026039969
-3.911,0.5262524287983441,0.7862411996727035
-3.9105,-0.06060718837420119,0.4895353243280153
-3.91,-0.722158029550525,-0.4111789401112165
-3.9095,-1.46907026958831,-0.9939940523954253
-3.909,-2.119950935906951,-0.3687923864905467
-3.9085,-2.002579012472442,0.5107286011383502
-3.908,-1.298347471865388,0.8816109453192104
-3.9075,-0.5941159312583333,0.8816109453192104
-3.907,-0.09261771294724913,0.7862411996727035
-3.9065,0.1848068333524996,0.7120647308365314
-3.906,0.3021787567870086,0.7120647308365314
-3.9055,0.3235191065023739,0.7650479228623686
-3.905,0.3021787567870086,0.8392243916985406
-3.9045,0.2701682322139607,0.92399749893988
-3.904,0.2381577076409128,0.9875773293708847
-3.9035,0.2061471830678648,0.9769806909657173
-3.903,-0.1032878878049318,0.4683420475176805
-3.9025,-0.4980843575391895,-0.3581957480853793
-3.902,-0.8181896032696687,-1.046977244421262
-3.9015,-1.052933450138687,-1.47084278062796
-3.901,-0.5087545323968721,-1.258910012524611
-3.9005,0.3128489316446912,-0.6972881770507372
-3.9,0.8783681991018712,-0.06148987274069118
-3.8995,1.059761171682476,0.3729723018711736
-3.899,0.9530594231056497,0.5001319627331828
-3.8985,0.7503261008096795,0.4789386859228479
-3.898,0.5796033030867573,0.3623756634660061
-3.8975,0.5369226036560266,0.2140227257936621
-3.897,0.79300680024041,0.2881991946298341
-3.8965,0.8143471499557753,0.2987958330350016
-3.896,0.6863050516635838,0.1080563417419877
-3.8955,0.5369226036560266,-0.1038764263613609
-3.895,0.3982103305061524,-0.09327978795619347
-3.8945,0.3341892813600565,0.4047622170866759
-3.894,-0.1459685872356623,0.2881991946298341
-3.8935,-0.839529952985034,-0.5171453241628908
-3.893,-1.618452717595867,-1.290699927740113
-3.8925,-2.322684258202921,-1.131750351662602
-3.892,-2.557428105071939,-0.06148987274069118
-3.8915,-1.778505340461106,0.7650479228623686
-3.891,-0.9248913518464952,1.061753798207057
-3.8905,-0.2846808603855366,1.019367244586387
-3.89,0.09944543449103843,0.9028042221295453
-3.8895,0.2808384070716433,0.8180311148882058
-3.889,0.3341892813600565,0.8180311148882058
-3.8885,0.3128489316446912,0.849821030103708
-3.888,0.2594980573562781,0.9134008605347127
-3.8875,0.2168173579255475,0.9769806909657173
-3.887,0.1741366584948169,1.00877060618122
-3.8865,-0.1673089369510276,0.6378882620003594
-3.886,-0.7755089038389382,-0.1674562567923655
