Class_2_Relax_eyes_open/Class_2_Relax_eyes_open_Suko_3.csv

#Digilent WaveForms Oscilloscope Acquisition
#Device Name: EExplorer
#Serial Number: SN:210151A2B84A
#Date Time: 2020-11-04 11:21:51.090
#Sample rate: 2000Hz
#Samples: 16384
#Trigger: Source: Channel 1 Type: Edge Condition: Rising Level: 0 V Hyst.: Auto HoldOff: 0 s
#Channel 1: Range: 1 V/div Offset: 0 V Attenuation: 1 X
#Channel 2: Range: 1 V/div Offset: 0 V Attenuation: 1 X
#Power Supplies: ON
#Fixed Supply: ON
#Voltage: 3.3 V Readback: 3.326 V
#Positive Supply: ON
#Voltage: 3.7 V Readback: 3.717 V
#Current: 500 mA Readback: 21 mA
#Negative Supply: ON
#Voltage: -3.7 V Readback: -3.703 V
#Current: -500 mA Readback: -6 mA
#Reference 1: ON
#Voltage: 0 V
#Reference 2: ON
#Voltage: 0 V

Time (s),Channel 1 (V),Channel 2 (V)
-4.096,0.4515612047945656,-1.248313374119443
-4.0955,0.4835717293675844,-1.163540266878181
-4.095,0.4195506802214594,-0.9728007755849073
-4.0945,0.3555296310754218,-0.7714646458869092
-4.094,0.3875401556484406,-0.5383386009734377
-4.0935,0.5049120790829498,-0.3052125560594361
-4.093,0.4729015545099309,-0.1886495336027004
-4.0925,0.3982103305062203,-0.1144730647665958
-4.092,0.323519106502403,-0.05089323433536954
-4.0915,0.3555296310754218,0.1186529801471552
-4.091,0.8463576745288233,0.6060983467848571
-4.0905,0.6009436528013462,1.104140351828045
-4.09,-0.2526703358124887,1.453829419198252
-4.0895,-1.138294849000148,1.612778995275763
-4.089,-1.501080794161028,1.411442865577765
-4.0885,-1.159635198715513,0.6908714540261965
-4.088,-0.6261264558313813,-0.008506680714854012
-4.0875,-0.1993194615244637,-0.4641621321366392
-4.087,0.0781050847757993,-0.6443049850248806
-4.0865,0.2168173579255475,-0.6231117082145651
-4.086,0.2594980573562393,-0.5065486857578294
-4.0855,0.2488278824985663,-0.3264058328697132
-4.085,0.2168173579255475,-0.1462629799820306
-4.0845,0.1848068333525287,0.01268659609533629
-4.084,0.1741366584947878,0.1504428953627346
-4.0835,0.142126133921769,0.2352160026039969
-4.083,-0.274010685527854,0.4153588554918433
-4.0825,-1.084943974712356,0.8074344764834142
-4.082,-1.767835165603424,1.220703374284568
-4.0815,-1.885207089037933,1.347863035146577
-4.081,-1.1489650238585,0.5425185163545849
-4.0805,-0.3380317346739499,-0.3793890248957141
-4.08,0.2061471830678648,-0.8562377531282487
-4.0795,0.4408910299366695,-1.036380606015931
-4.079,0.4942419042252476,-1.036380606016018
-4.0785,0.4408910299368829,-0.9516074987747555
-4.078,0.3768699807908453,-0.824447837912862
-4.0775,0.334189281360173,-0.6866915386454252
-4.077,0.4622313796522482,-0.5277419625680583
-4.0765,0.4835717293675941,-0.4111789401113225
-4.076,0.41955068022144,-0.3158091944646421
-4.0755,0.3341892813600565,-0.2416327256285375
-4.075,0.2594980573562781,-0.1356663415768632
-4.0745,0.2168173579256834,0.2881991946303545
-4.074,0.3661998059331045,0.8604176685088755
-4.0735,-0.2206598112394408,1.29487984312074
-4.073,-1.074273799853276,1.517409249629054
-4.0725,-1.597112367880501,1.506812611224089
-4.072,-1.341028171296118,0.9134008605347127
-4.0715,-0.7968492535547984,0.1610395337685091
-4.071,-0.3060212101006011,-0.3793890248959454
-4.0705,0.02475421048725994,-0.6337083466197325
-4.07,0.1954770082100269,-0.6760949002403638
-4.0695,0.2594980573562878,-0.5701285161885834
-4.069,0.2701682322139607,-0.4111789401112165
-4.0685,0.2381577076409128,-0.2204394488182027
-4.068,0.2061471830678357,-0.04029659593023102
-4.0675,0.1741366584948169,0.09745970333682032
-4.067,0.1527963087794516,0.2034260873884947
-4.0665,0.0567647350597353,0.3305857482508123
-4.066,-0.572775581542968,0.6696781772158616
-4.0655,-1.341028171296118,1.104140351827727
-4.065,-1.74649481588769,1.411442865577303
-4.0645,-1.202315898146244,0.8922075837243778
-4.064,-0.4020527838200457,-0.1356663415768632
-4.0635,0.1741366584942928,-0.7820612842914887
-4.063,0.4729015545100085,-1.004590690800621
-4.0625,0.5582629533713921,-1.036380606016095
-4.062,0.5155822539407002,-0.9728007755851482
-4.0615,0.440891029936815,-0.8668343915333101
-4.061,0.3661998059331045,-0.7502713690765743
-4.0605,0.4515612047945656,-0.7714646458869092
-4.06,0.5369226036559781,-0.782061284291903
-4.0595,0.4835717293676135,-0.5913217929990628
-4.059,0.3875401556484697,-0.3687923864905467
-4.0585,0.3021787567870863,-0.1674562567925486
-4.058,0.5155822539406614,0.1610395337678249
-4.0575,1.134452395686255,0.7120647308365314
-4.057,0.7930068002407206,1.178316820663474
-4.0565,-0.2953510352432193,1.443232780793084
-4.056,-1.362368521011484,1.528005888034424
-4.0555,-1.671803591883998,1.220703374284848
-4.055,-1.234326422718768,0.4577454091118963
-4.0545,-0.658136980404429,-0.2204394488182027
-4.054,-0.1886492866668199,-0.6337083466193567
-4.0535,0.09944543449115488,-0.7714646458868707
-4.053,0.2274875327832301,-0.7290780922662394
-4.0525,0.2701682322139607,-0.5807251545938954
-4.052,0.2701682322139316,-0.3899856633006984
-4.0515,0.2381577076409128,-0.1886495336027004
-4.051,0.1954770082101822,-0.008506680714854012
-4.0505,0.1634664836371634,0.1398462569573551
-4.05,0.1101156093487211,0.2776025562246667
-4.0495,-0.4020527838200457,0.6060983467848571
-4.049,-1.116954499284132,1.051157159801485
-4.0485,-1.607782542737864,1.40084622717227
-4.048,-1.255666772434657,1.241896651094903
-4.0475,-0.4340633083938409,0.521325239544173
-4.047,0.1848068333527713,-0.1250697031721102
-4.0465,0.4835717293676135,-0.5807251545938954
-4.046,0.5475927785136512,-0.7926579226970513
-4.0455,0.5155822539405934,-0.8350444763178174
-4.045,0.4408910299368829,-0.7290780922662394
-4.0445,0.3661998059331045,-0.570128516188728
-4.044,0.3661998059331724,-0.4005823017059045
-4.0435,0.4408910299368829,-0.2416327256285375
-4.043,0.4195506802215176,-0.1250697031716958
-4.0425,0.366199805933153,-0.02969995752527561
-4.042,0.3021787567870086,0.03387987290581572
-4.0415,0.2274875327832301,0.1822328105781598
-4.041,-0.092617712946958,0.6166949851896294
-4.0405,-0.8395299529857424,1.072350436612475
-4.04,-1.618452717595867,1.347863035146577
-4.0395,-2.237322859340897,1.43263614238784
-4.039,-2.269333383913819,1.23130001268909
-4.0385,-1.51175096901904,0.5213252395435176
-4.038,-0.754168554124262,-0.220439448817528
-4.0375,-0.1886492866661018,-0.7078848154560876
-4.037,0.1314559590640864,-0.9092209451540858
-4.0365,0.2808384070716433,-0.9092209451540858
-4.036,0.3128489316446718,-0.782061284291903
-4.0355,0.291508581929326,-0.5913217929990628
-4.035,0.2594980573562781,-0.3793890248957141
-4.0345,0.2274875327832592,-0.178052895197716
-4.034,0.2061471830678648,0.002089957690313421
-4.0335,0.1954770082101822,0.1610395337678249
-4.033,0.3448594562176033,0.4365521323019276
-4.0325,0.7183155762363405,0.8922075837247536
-4.032,0.3982103305061524,1.305476481525908
-4.0315,-0.3807124341039719,1.432636142387801
-4.031,-0.5514352318273213,0.7438546460512435
-4.0305,-0.2420001609548061,-0.1250697031716958
-4.03,0.08877525963305499,-0.7396747306708479
-4.0295,0.3128489316447786,-0.9833974139901711
-4.029,0.408880505363835,-0.8880276683437509
-4.0285,0.408880505363835,-0.6866915386455698
-4.028,0.3768699807907677,-0.4747587705420668
-4.0275,0.3555296310754218,-0.3052125560595421
-4.027,0.4942419042252961,-0.252229364033705
-4.0265,0.5155822539406419,-0.1780528951976004
-4.026,0.4408910299368829,-0.07208651114585861
-4.0255,0.3555296310754218,0.01268659609548085
-4.025,0.3021787567870571,0.09745970333674321
-4.0245,0.6863050516637779,0.4259554938974444
-4.024,0.8997085488172365,0.9028042221295453
-4.0235,0.07810508477642042,1.273686566310068
-4.023,-0.9248913518472133,1.411442865577573
-4.0225,-1.714484291315011,1.400846227172415
-4.022,-1.6397930673113,0.8922075837248404
-4.0215,-1.063603624995836,0.09745970333623243
-4.021,-0.4767440078238243,-0.5489352393783931
-4.0205,-0.06060718837420119,-0.9092209451540858
-4.02,0.1741366584949043,-1.02578396761087
-4.0195,0.2701682322139607,-0.9622041371799229
-4.019,0.291508581929326,-0.8032545611024114
-4.0185,0.2594980573563072,-0.6125150698095712
-4.018,0.2061471830678648,-0.4217755785163839
-4.0175,0.1741366584948169,-0.2310360872233701
-4.017,0.1741366584948169,-0.06148987274084539
-4.0165,0.02475421048703673,0.002089957690390522
-4.016,-0.2206598112394408,0.08686306493165288
-4.0155,-0.4233931335352266,0.4577454091121758
-4.015,-0.9355615267040321,0.9134008605344718
-4.0145,-0.7755089038389382,0.6484849004055269
-4.014,-0.2420001609552914,0.07626642652700588
-4.0135,0.1848068333527131,-0.1674562567924041
-4.013,0.4195506802215176,-0.2098428104130352
-4.0125,0.4942419042252961,-0.1780528951975329
-4.012,0.4835717293675456,-0.1674562567923848
-4.0115,0.408880505363835,-0.1886495336027004
-4.011,0.3448594562177392,-0.2204394488182027
-4.0105,0.4195506802214497,-0.1992461720078871
-4.01,0.5049120790829789,-0.1992461720078678
-4.0095,0.4729015545099309,-0.2840192792492073
-4.009,0.3875401556485474,-0.4111789401111008
-4.0085,0.3235191065022477,-0.5171453241627559
-4.008,0.1848068333524996,-0.3687923864905467
-4.0075,0.2381577076408642,0.2352160026034476
-4.007,-0.327361559817063,0.8498210301040743
-4.0065,-1.202315898146244,1.25249328950007
-4.006,-1.767835165603424,1.411442865577582
-4.0055,-1.543761493591535,0.9663840525598174
-4.005,-0.9355615267041777,0.1610395337678249
-4.0045,-0.3807124341046804,-0.5383386009732256
-4.004,0.003413860772079035,-0.941010860369723
-4.0035,0.2061471830678648,-1.089363798041932
-4.003,0.2808384070716433,-1.05757388282643
-4.0025,0.2915085819293163,-0.9198175835593785
-4.002,0.2701682322139607,-0.7290780922662394
-4.0015,0.2274875327832301,-0.5277419625680583
-4.001,0.1848068333525384,-0.3370024712752179
-4.0005,0.1741366584948072,-0.1568596183870535
-4,0.1634664836371343,0.002089957690313421
-3.9995,-0.2633405106701714,0.2246193641988295
-3.999,-1.052933450138687,0.6590815388106942
-3.9985,-1.650463242168915,1.125333628638062
-3.998,-1.373038695869166,1.104140351827727
-3.9975,-0.572775581542968,0.383568940276341
-3.997,0.07810508477567314,-0.2628260024388724
-3.9965,0.4302208550792003,-0.570128516188728
-3.996,0.5475927785137094,-0.6231117082145651
-3.9955,0.5369226036560266,-0.5383386009732256
-3.995,0.4622313796522482,-0.4111789401112165
-3.9945,0.3875401556484697,-0.2840192792492073
-3.994,0.3875401556484697,-0.1780528951975329
-3.9935,0.5262524287983441,-0.02969995752518888
-3.993,0.5155822539406614,0.002089957690313421
-3.9925,0.4302208550792003,-0.02969995752518888
-3.992,0.3341892813600565,-0.08268314955102604
-3.9915,0.3448594562177392,-0.04029659593035631
-3.991,0.8676980242441885,0.383568940276341
-3.9905,0.825017324813458,0.9028042221295453
-3.99,-0.1673089369510276,1.241896651094903
-3.9895,-1.202315898146244,1.369056311956912
-3.989,-1.853196564464885,1.273686566310405
-3.9885,-1.586442193022819,0.6166949851900245
-3.988,-0.9462317015618604,-0.1886495336027004
-3.9875,-0.3807124341046804,-0.7820612842920766
-3.987,0.00341386077189465,-1.078767159636765
-3.9865,0.2061471830678648,-1.121153713257435
-3.986,0.291508581929326,-1.01518732920576
-3.9855,0.291508581929326,-0.8350444763179138
-3.985,0.2594980573562781,-0.6231117082145651
-3.9845,0.2274875327832301,-0.400582301706049
-3.984,0.2061471830678648,-0.1886495336027004
-3.9835,0.1954770082101822,-0.008506680714854012
-3.983,0.1527963087794516,0.2670059178194992
-3.9825,0.4515612047945656,0.7544512844572011
-3.982,0.6222840025174878,1.210106735879401
-3.9815,0.2594980573562781,1.37965295036208
-3.981,0.3768699807907871,0.6378882620003594
-3.9805,0.5582629533713921,-0.1674562567923655
-3.98,0.6222840025174878,-0.6019184314042303
-3.9795,0.5796033030867573,-0.6972881770507372
-3.979,0.4942419042252961,-0.5913217929990628
-3.9785,0.408880505363835,-0.4111789401112165
-3.978,0.3341892813600565,-0.2416327256285375
-3.9775,0.3021787567870086,-0.1144730647665284
-3.977,0.4408910299368829,-0.1250697031716958
-3.9765,0.4835717293676135,-0.09327978795619347
-3.976,0.4302208550792003,0.01268659609548085
-3.9755,0.3555296310754218,0.09745970333682032
-3.975,0.2701682322139607,0.1716361721729923
-3.9745,0.00341386077189465,0.4895353243280153
-3.974,-0.423393133535411,0.9451907757502149
-3.9735,-1.180975548430879,1.284283204715573
-3.973,-1.906547438753298,1.443232780793084
-3.9725,-2.23732285934146,1.390249588767247
-3.972,-1.67180359188428,0.7650479228623686
-3.9715,-0.9142211769888124,-0.07208651114585861
-3.971,-0.3166913849585846,-0.6972881770507372
-3.9705,0.0674349099179905,-1.036380606016095
-3.97,0.2488278824985954,-1.131750351662602
-3.9695,0.3021787567870086,-1.05757388282643
-3.969,0.3021787567870086,-0.8986243067489184
-3.9685,0.2701682322139607,-0.7078848154559045
-3.968,0.2381577076409128,-0.4959520473525559
-3.9675,0.2274875327832301,-0.2946159176543747
-3.967,0.2061471830678648,-0.1144730647665284
-3.9665,0.08877525963335578,0.09745970333682032
-3.966,-0.3166913849585846,0.5637117931641874
-3.9655,-0.7114878546928423,1.061753798207057
-3.965,-1.074273799854052,1.400846227172415
-3.9645,-0.8181896032696687,1.029963882991555
-3.964,-0.2313299860971235,0.2352160026039969
-3.9635,0.2168173579255475,-0.4429688553267188
-3.963,0.4515612047945656,-0.718481453861072
-3.9625,0.4942419042252961,-0.6972881770507372
-3.962,0.4622313796522482,-0.5277419625680583
-3.9615,0.3982103305061524,-0.3370024712750445
-3.961,0.3448594562177392,-0.1886495336027004
-3.9605,0.4195506802215176,-0.1250697031716958
-3.96,0.5475927785137094,-0.08268314955102604
-3.9595,0.5049120790829789,0.002089957690313421
-3.959,0.408880505363835,0.08686306493165288
-3.9585,0.3235191065023739,0.13984625695749
-3.958,0.4515612047945656,0.309392471440169
-3.9575,1.006410297394063,0.7332580076468663
-3.957,0.6116138276598051,1.135930267043229
-3.9565,-0.4554036581084589,1.273686566310405
-3.956,-1.447729919872945,1.231300012689736
-3.9555,-1.810515865034154,0.9981739677760521
-3.955,-1.373038695869166,0.2881991946298341
-3.9545,-0.7434983792658902,-0.4217755785163839
-3.954,-0.2313299860971235,-0.8774310299385835
-3.9535,0.08877525963335578,-1.078767159636765
-3.953,0.2381577076409128,-1.078767159636765
-3.9525,0.291508581929326,-0.9516074987747555
-3.952,0.2808384070716433,-0.7820612842920766
-3.9515,0.2488278824985954,-0.570128516188728
-3.951,0.2061471830678648,-0.3687923864905467
-3.9505,0.1848068333524996,-0.1780528951975329
-3.95,0.1634664836371343,-0.01910331912002144
-3.9495,-0.2846808603855366,0.3305857482505039
-3.949,-1.020922925565639,0.8392243916985406
-3.9485,-1.575772018165136,1.273686566310405
-3.948,-1.575772018165136,1.305476481525908
-3.9475,-0.9355615267041777,0.6484849004055269
-3.947,-0.2206598112394408,-0.06148987274069118
-3.9465,0.2488278824985954,-0.5383386009732256
-3.946,0.4622313796522482,-0.6760949002404023
-3.9455,0.5049120790829789,-0.6231117082145651
-3.945,0.4622313796522482,-0.4853554089473885
-3.9445,0.3982103305061524,-0.326405832869877
-3.944,0.3875401556484697,-0.1992461720078678
-3.9435,0.5369226036560266,-0.1780528951975329
-3.943,0.5369226036560266,-0.09327978795619347
-3.9425,0.4515612047945656,0.02328323450064829
-3.942,0.3555296310754218,0.1292496185523226
-3.9415,0.3128489316446912,0.2352160026039969
-3.941,0.6863050516635838,0.5955017083796896
-3.9405,0.6863050516635838,1.029963882991555
-3.94,-0.1673089369510276,1.326669758336243
-3.9395,-1.1062843244271,1.432636142387917
-3.939,-1.543761493592088,1.231300012689736
-3.9385,-1.212986073003927,0.4789386859228479
-3.938,-0.6688071552621118,-0.2840192792492073
-3.9375,-0.2099896363817582,-0.8138511995075789
-3.937,0.08877525963335578,-1.05757388282643
-3.9365,0.2381577076409128,-1.089363798041932
-3.936,0.291508581929326,-0.9833974139902578
-3.9355,0.2808384070716433,-0.8138511995075789
-3.935,0.2594980573562781,-0.6125150698093976
-3.9345,0.2274875327832301,-0.4217755785163839
-3.934,0.2061471830678648,-0.2310360872233701
-3.9335,0.2061471830678648,-0.08268314955102604
-3.933,0.00341386077189465,0.13984625695749
-3.9325,-0.690147504977477,0.627291623595192
-3.932,-1.341028171296118,1.104140351827727
-3.9315,-1.746494815888059,1.390249588767247
-3.931,-1.394379045584531,0.8922075837243778
-3.9305,-0.6261264558313813,-0.02969995752518888
-3.93,0.01408403562957729,-0.6443049850249
-3.9295,0.3875401556484697,-0.8668343915334161
-3.929,0.5155822539406614,-0.8244478379127463
-3.9285,0.5049120790829789,-0.6337083466197325
-3.928,0.4408910299368829,-0.4111789401112165
-3.9275,0.3768699807907871,-0.2098428104130352
-3.927,0.5049120790829789,0.002089957690313421
-3.9265,0.5689331282290746,0.1186529801471552
-3.926,0.4942419042252961,0.13984625695749
-3.9255,0.3982103305061524,0.13984625695749
-3.925,0.3128489316446912,0.13984625695749
-3.9245,0.1207857842064037,0.4153588554918433
-3.924,0.08877525963335578,0.8816109453192104
-3.9235,-0.5407650569699201,1.231300012689736
-3.923,-1.373038695869166,1.42203950398275
-3.9225,-1.799845690176472,1.347863035146577
-3.922,-1.415719395299897,0.701468092431364
-3.9215,-0.7968492535543035,-0.1038764263613609
-3.921,-0.2633405106701714,-0.6972881770507372
-3.9205,0.0674349099179905,-0.9939940523954253
-3.92,0.2488278824985954,-1.05757388282643
-3.9195,0.3021787567870086,-0.9622041371799229
-3.919,0.3021787567870086,-0.8032545611024114
-3.9185,0.2701682322139607,-0.6019184314042303
-3.918,0.2274875327832301,-0.4111789401112165
-3.9175,0.1954770082101822,-0.2204394488182027
-3.917,0.1848068333524996,-0.05089323433552374
-3.9165,0.09944543449103843,0.1186529801471552
-3.916,-0.5300948821122373,0.5319218779486851
-3.9155,-1.26633694729234,1.019367244586387
-3.915,-1.863866739322568,1.37965295036208
-3.9145,-1.842526389607202,1.220703374284568
-3.914,-1.074273799854052,0.5319218779486851
-3.9135,-0.2953510352432193,-0.1992461720078678
-3.913,0.2168173579255475,-0.6443049850249
-3.9125,0.4408910299368829,-0.7714646458869092
-3.912,0.4942419042252961,-0.6972881770507372
-3.9115,0.4622313796522482,-0.5489352393783931
-3.911,0.3982103305061524,-0.3793890248957141
-3.9105,0.4408910299368829,-0.1992461720078678
-3.91,0.5475927785137094,-0.04029659593035631
-3.9095,0.5049120790829789,0.04447651131098315
-3.909,0.4195506802215176,0.08686306493165288
-3.9085,0.3341892813600565,0.1186529801471552
-3.908,0.07810508477567314,0.2881991946298341
-3.9075,-0.03926683865883591,0.7332580076468663
-3.907,-0.4340633083930936,1.146526905448396
-3.9065,-1.202315898146244,1.37965295036208
-3.906,-1.895877263895616,1.453829419198252
-3.9055,-1.959898313041711,1.188913459069066
-3.905,-1.341028171296118,0.4259554938970107
-3.9045,-0.658136980404429,-0.3370024712750445
-3.904,-0.1459685872356623,-0.8244478379127463
-3.9035,0.1634664836371343,-1.025783967610927
-3.903,0.291508581929326,-1.01518732920576
-3.9025,0.3341892813600565,-0.8774310299385835
-3.902,0.3128489316446912,-0.6866915386455698
-3.9015,0.2701682322139607,-0.474758770542221
-3.901,0.2381577076409128,-0.2628260024388724
-3.9005,0.2274875327832301,-0.08268314955102604
-3.9,0.2061471830678648,0.06566978812131802
-3.8995,-0.2206598112394408,0.3623756634660061
-3.899,-1.095614149569417,0.8392243916985406
-3.8985,-1.725154466172693,1.263089927905238
-3.898,-1.949228138184029,1.29487984312074
-3.8975,-1.373038695869166,0.6378882620003594
-3.897,-0.572775581542968,-0.02969995752518888
-3.8965,0.05676473506030786,-0.4111789401112165
-3.896,0.3982103305061524,-0.5383386009732256
-3.8955,0.5049120790829789,-0.5065486857577234
-3.895,0.4942419042252961,-0.400582301706049
-3.8945,0.4408910299368829,-0.2946159176543747
-3.894,0.408880505363835,-0.2098428104130352
-3.8935,0.5582629533713921,-0.1144730647665284
-3.893,0.5689331282290746,-0.06148987274069118
-3.8925,0.4835717293676135,-0.04029659593035631
-3.892,0.3768699807907871,-0.05089323433552374
-3.8915,0.3555296310754218,-0.02969995752518888
-3.891,0.8356874996711408,0.3199891098453364
-3.8905,0.974399772821015,0.8180311148882058
-3.89,0.05676473506030786,1.199510097474233
-3.8895,-1.042263275281004,1.369056311956912
-3.889,-1.725154466172693,1.305476481525908
-3.8885,-1.501080794161358,0.6696781772158616
-3.888,-0.8928808272734472,-0.1568596183871981
-3.8875,-0.3487019095316325,-0.7608680074817418
-3.887,0.03542438534494258,-1.078767159636765
