Class_2_Relax_eyes_open/Class_2_Relax_eyes_open_Suko_2.csv

#Digilent WaveForms Oscilloscope Acquisition
#Device Name: EExplorer
#Serial Number: SN:210151A2B84A
#Date Time: 2020-10-27 13:59:21.705
#Sample rate: 2000Hz
#Samples: 16384
#Trigger: Source: Channel 1 Type: Edge Condition: Rising Level: 0 V Hyst.: Auto HoldOff: 0 s
#Channel 1: Range: 1 V/div Offset: 0 V Attenuation: 1 X
#Channel 2: Range: 1 V/div Offset: 0 V Attenuation: 1 X
#Power Supplies: ON
#Fixed Supply: ON
#Voltage: 3.3 V Readback: 3.323 V
#Positive Supply: ON
#Voltage: 3.7 V Readback: 3.713 V
#Current: 500 mA Readback: 21 mA
#Negative Supply: ON
#Voltage: -3.7 V Readback: -3.701 V
#Current: -500 mA Readback: -7 mA
#Reference 1: ON
#Voltage: 0 V
#Reference 2: ON
#Voltage: 0 V

Time (s),Channel 1 (V),Channel 2 (V)
-4.096,-1.095614149569417,0.08686306493165288
-4.0955,-0.4340633083936952,-0.6337083466190772
-4.095,0.04609456020286783,-1.121153713257627
-4.0945,0.3128489316446912,-1.333086481360783
-4.094,0.4302208550790936,-1.290699927740152
-4.0935,0.4408910299368829,-1.142346990067634
-4.093,0.4408910299368829,-0.9939940523954253
-4.0925,0.5796033030866312,-0.9622041371799518
-4.092,0.5689331282289872,-0.8032545611021994
-4.0915,0.4729015545099309,-0.570128516188728
-4.091,0.3768699807907871,-0.3475991096802118
-4.0905,0.3021787567871833,-0.1568596183869282
-4.09,0.4942419042252961,0.13984625695749
-4.0895,1.251824319120764,0.627291623595192
-4.089,2.084097958019253,1.093543713422135
-4.0885,2.28683128031598,1.411442865577582
-4.088,1.091771696255524,1.580989080060261
-4.0875,-0.4233931335340331,1.644568910491208
-4.087,-1.127624674142339,1.294879843120046
-4.0865,-0.9889124009925911,0.5319218779486851
-4.086,-0.5834457564010194,-0.1250697031710982
-4.0855,-0.1993194615238329,-0.5065486857578486
-4.085,0.0674349099179905,-0.6443049850249
-4.0845,0.2168173579254116,-0.6019184314042688
-4.084,0.248827882498576,-0.4641621321368898
-4.0835,0.2274875327832301,-0.2840192792492073
-4.083,0.1848068333524996,-0.1038764263613609
-4.0825,0.1527963087793449,0.05507314971629515
-4.082,0.03542438534494258,0.2140227257936621
-4.0815,-0.5407650569699201,0.5425185163538525
-4.081,-1.191645723287969,0.9663840525601644
-4.0805,-1.607782542738184,1.25249328950007
-4.08,-1.501080794161358,1.019367244586387
-4.0795,-0.967572051277711,0.4259554938975504
-4.079,-0.3807124341042825,-0.1144730647668368
-4.0785,0.05676473506030786,-0.4535654937318862
-4.078,0.3021787567867854,-0.6019184314040954
-4.0775,0.4088805053638447,-0.6337083466197229
-4.077,0.4195506802215176,-0.6231117082145651
-4.0765,0.3982103305061718,-0.5807251545939339
-4.076,0.3875401556484406,-0.5171453241628715
-4.0755,0.3555296310754218,-0.4959520473525559
-4.075,0.3235191065023739,-0.4959520473525559
-4.0745,0.2915085819293066,-0.5065486857577427
-4.074,0.2701682322139607,-0.5277419625680583
-4.0735,0.3982103305061524,-0.4111789401112165
-4.073,0.9210488985321262,0.1186529801466734
-4.0725,0.6969752265212663,0.7438546460520338
-4.072,-0.2633405106701714,1.157123543853563
-4.0715,-1.266336947291428,1.252493289499984
-4.071,-2.06660006161845,1.347863035146308
-4.0705,-1.970568487899394,1.051157159801889
-4.07,-1.277007122150653,0.3517790250614747
-4.0695,-0.5834457564002041,-0.2734226408443964
-4.069,-0.09261771294724913,-0.6654982618352349
-4.0685,0.1848068333524996,-0.8138511995075789
-4.068,0.302178756787028,-0.7926579226971476
-4.0675,0.3235191065023739,-0.6866915386455698
-4.067,0.291508581929326,-0.5171453241628908
-4.0665,0.2274875327831719,-0.3475991096800769
-4.066,0.1634664836371343,-0.1992461720078678
-4.0655,0.08877525963335578,-0.05089323433552374
-4.065,-0.3487019095312346,0.2987958330346835
-4.0645,-0.9782422261349084,0.7862411996727035
-4.064,-1.287677297007705,1.093543713422559
-4.0635,-1.458400094730472,0.9981739677761388
-4.063,-1.116954499284288,0.4683420475171504
-4.0625,-0.572775581542968,-0.1144730647665284
-4.062,-0.07127736323233991,-0.5171453241625246
-4.0615,0.2594980573564139,-0.6972881770507372
-4.061,0.408880505363835,-0.6972881770507372
-4.0605,0.4302208550792003,-0.6125150698093976
-4.06,0.4195506802215176,-0.495952047352527
-4.0595,0.4195506802215176,-0.4641621321370536
-4.059,0.4515612047945656,-0.6019184314042303
-4.0585,0.4088805053638738,-0.5701285161887568
-4.058,0.3448594562177392,-0.474758770542221
-4.0575,0.3021787567870086,-0.3899856633008816
-4.057,0.3021787567870086,-0.2946159176544614
-4.0565,0.7396559259519968,0.09745970333682032
-4.056,1.283834843693812,0.6802748156210291
-4.0555,1.187803269974755,1.135930267042814
-4.055,0.3875401556473925,1.316073119931171
-4.0545,-0.7968492535543035,1.42203950398275
-4.054,-1.501080794160717,1.347863035146645
-4.0535,-1.309017646722585,0.6908714540255315
-4.053,-0.7755089038389382,-0.04029659593035631
-4.0525,-0.2846808603855366,-0.5595318777835605
-4.052,0.04609456020279019,-0.8138511995076271
-4.0515,0.2274875327832301,-0.8668343915334161
-4.051,0.291508581929326,-0.792657922697244
-4.0505,0.280838407071653,-0.6549016234301928
-4.05,0.2274875327832301,-0.4853554089473885
-4.0495,0.1741366584948169,-0.326405832869877
-4.049,0.1207857842064522,-0.1780528951976678
-4.0485,-0.09261771294787992,0.02328323450104343
-4.048,-0.7861790786966207,0.457745409112513
-4.0475,-1.43705974501467,0.9451907757497716
-4.047,-1.9172176136107,1.167720182258249
-4.0465,-1.607782542738184,0.6378882620003594
-4.046,-0.9248913518471162,-0.1250697031710019
-4.0455,-0.2953510352428311,-0.6866915386458782
-4.045,0.1314559590640864,-1.025783967610927
-4.0445,0.3555296310754218,-1.152943628472937
-4.044,0.4302208550792003,-1.089363798041807
-4.0435,0.4302208550792003,-0.9516074987747555
-4.043,0.4408910299368829,-0.7820612842920766
-4.0425,0.5475927785136123,-0.7820612842920766
-4.042,0.5475927785137094,-0.6549016234300674
-4.0415,0.4622313796522482,-0.4535654937318862
-4.041,0.3768699807908648,-0.2522293640338881
-4.0405,0.3128489316449047,-0.08268314955074656
-4.04,0.5475927785137094,0.2246193641988295
-4.0395,1.315845368266161,0.7226613692412459
-4.039,2.126778657450876,1.157123543853814
-4.0385,2.276161105458297,1.432636142387917
-4.038,1.113112045971947,1.580989080060126
-4.0375,-0.3700422592475607,1.612778995275349
-4.037,-0.9889124009925911,1.157123543853563
-4.0365,-0.8502001278427167,0.3729723018711736
-4.036,-0.4874141826811866,-0.2628260024391904
-4.0355,-0.1352984123779797,-0.6125150698093976
-4.035,0.09944543449103843,-0.7290780922662394
-4.0345,0.2274875327831136,-0.6866915386456083
-4.034,0.2488278824985954,-0.5383386009732256
-4.0335,0.2168173579255475,-0.3687923864905467
-4.033,0.1741366584948557,-0.199246172008022
-4.0325,0.1421261339217302,-0.05089323433542737
-4.032,0.09944543449103843,0.05507314971615059
-4.0315,-0.1246282375200932,0.09745970333678176
-4.031,-0.4874141826818563,0.1928294489834236
-4.0305,-0.8715404775580819,0.2987958330350016
-4.03,-0.9142211769887736,0.2034260873885814
-4.0295,-0.5727755815425799,-0.0191033191201371
-4.029,-0.1459685872356623,-0.1462629799820306
-4.0285,0.1954770082101822,-0.2098428104130352
-4.028,0.3875401556485377,-0.2204394488182605
-4.0275,0.4622313796522482,-0.2840192792492073
-4.027,0.4515612047945656,-0.3899856633008816
-4.0265,0.4088805053638738,-0.5171453241627751
-4.026,0.4302208550792003,-0.7714646458869092
-4.0255,0.4195506802215176,-0.9833974139902578
-4.025,0.366199805933153,-1.057573882826362
-4.0245,0.3128489316446524,-1.078767159636784
-4.024,0.2701682322139607,-1.0999604364471
-4.0235,0.3448594562176712,-1.015187329205837
-4.023,0.942389248248491,-0.46416213213635
-4.0225,1.51857869056283,0.309392471440169
-4.022,1.401206767128427,0.9239974989393209
-4.0215,0.6116138276586891,1.3054764815261
-4.021,-0.6154562809736985,1.517409249629256
-4.0205,-1.191645723288561,1.273686566310405
-4.02,-0.9995825758498855,0.5425185163532261
-4.0195,-0.572775581542968,-0.1462629799820306
-4.019,-0.1779791118087102,-0.570128516188728
-4.0185,0.08877525963311317,-0.7396747306712527
-4.018,0.2274875327832301,-0.7078848154559045
-4.0175,0.2594980573562781,-0.5807251545938954
-4.017,0.2274875327832592,-0.3899856633010551
-4.0165,0.184806833352451,-0.209842810412881
-4.016,0.1314559590640864,-0.04029659593035631
-4.0155,0.06743490991804874,0.1080563417418528
-4.015,-0.2206598112400134,0.2776025562249365
-4.0145,-0.8502001278427167,0.5743084315693548
-4.014,-1.426389570157055,0.9451907757498776
-4.0135,-1.639793067310931,1.051157159801523
-4.013,-1.30901764672307,0.6484849004055269
-4.0125,-0.7328282044082075,0.1504428953626575
-4.012,-0.2099896363814282,-0.2310360872235532
-4.0115,0.1527963087794516,-0.4323722169215513
-4.011,0.3448594562177392,-0.5065486857577234
-4.0105,0.4088805053637768,-0.5383386009731967
-4.01,0.3982103305061524,-0.570128516188728
-4.0095,0.4408910299368829,-0.6549016234300674
-4.009,0.5262524287982665,-0.7820612842919609
-4.0085,0.4835717293675456,-0.8138511995075789
-4.008,0.408880505363835,-0.8138511995075789
-4.0075,0.3341892813601245,-0.8244478379127367
-4.007,0.3448594562181564,-0.803254561102026
-4.0065,0.8036769750980928,-0.3793890248957141
-4.006,1.219813794547716,0.3199891098453364
-4.0055,1.475897991131866,0.9345941373454041
-4.005,1.219813794547716,1.326669758336243
-4.0045,0.07810508477567314,1.538602526439591
-4.004,-0.8502001278427943,1.443232780792458
-4.0035,-0.9355615267041777,0.7544512844572011
-4.003,-0.6261264558313813,-0.008506680714854012
-4.0025,-0.2526703358128284,-0.5383386009727438
-4.002,0.01408403562957729,-0.792657922697244
-4.0015,0.1848068333524996,-0.8350444763179138
-4.001,0.2488278824985372,-0.7502713690766514
-4.0005,0.2274875327831913,-0.5701285161885449
-4,0.1848068333524996,-0.3687923864905467
-3.9995,0.142126133921769,-0.2098428104130352
-3.999,0.08877525963335578,-0.05089323433552374
-3.9985,-0.1993194615240755,0.2034260873884947
-3.998,-0.8822106524157645,0.6378882620003594
-3.9975,-1.479740444445993,1.072350436612224
-3.997,-1.661133417026597,1.273686566310405
-3.9965,-1.341028171296118,0.9663840525605498
-3.996,-0.754168554123573,0.4153588554918433
-3.9955,-0.2099896363817582,-0.06148987274069118
-3.995,0.1741366584948169,-0.3581957480853793
-3.9945,0.3661998059331045,-0.5171453241628908
-3.994,0.4195506802215176,-0.5489352393783931
-3.9935,0.408880505363835,-0.5065486857577234
-3.993,0.408880505363835,-0.5065486857577234
-3.9925,0.5475927785137094,-0.7078848154559045
-3.992,0.5582629533713921,-0.7290780922662394
-3.9915,0.4729015545099309,-0.6443049850249
-3.991,0.3768699807907871,-0.5383386009732256
-3.9905,0.3128489316446912,-0.4641621321370536
-3.99,0.4515612047945656,-0.2946159176543747
-3.9895,1.113112045970889,0.2246193641988295
-3.989,1.56125938999356,0.8180311148882058
-3.9885,1.369196242555273,1.25249328950007
-3.988,0.3235191065023739,1.517409249629256
-3.9875,-0.8288597781273515,1.580989080060261
-3.987,-1.127624674142465,1.061753798207057
-3.9865,-0.8288597781273515,0.2458126410091644
-3.986,-0.4127229586777283,-0.4111789401112165
-3.9855,-0.07127736323188383,-0.792657922697244
-3.985,0.142126133921769,-0.9304142219644207
-3.9845,0.2381577076409128,-0.9092209451540858
-3.984,0.2701682322139607,-0.792657922697244
-3.9835,0.2701682322139607,-0.6337083466197325
-3.983,0.2168173579255475,-0.4535654937318862
-3.9825,0.1527963087794516,-0.2946159176543747
-3.982,0.05676473506030786,-0.1250697031716958
-3.9815,-0.4554036581084589,0.2352160026039969
-3.981,-1.298347471865388,0.7438546460520338
-3.9805,-1.87453691418025,1.178316820663898
-3.98,-2.045259711903173,1.178316820663898
-3.9795,-1.479740444445993,0.5001319627331828
-3.979,-0.722158029550525,-0.2734226408440398
-3.9785,-0.124628237520297,-0.8032545611024114
-3.978,0.2274875327832301,-1.05757388282643
-3.9775,0.3875401556484697,-1.089363798041932
-3.977,0.4302208550792003,-0.9622041371799229
-3.9765,0.4195506802215176,-0.7714646458869092
-3.976,0.5155822539406614,-0.7290780922662394
-3.9755,0.5689331282290746,-0.6549016234300674
-3.975,0.5049120790829789,-0.4429688553267188
-3.9745,0.408880505363835,-0.2098428104130352
-3.974,0.3235191065023739,-0.008506680714854012
-3.9735,0.3982103305061524,0.1928294489833272
-3.973,1.017080472251745,0.6166949851900245
-3.9725,1.582599739708926,1.051157159801889
-3.972,1.262494493978446,1.369056311956912
-3.9715,0.1207857842064037,1.559795803249926
-3.971,-1.095614149569417,1.633972272086098
-3.9705,-1.51175096901904,1.29487984312074
-3.97,-1.148965023857831,0.5213252395435176
-3.9695,-0.6154562809736985,-0.1886495336027004
-3.969,-0.1779791118087102,-0.6231117082145651
-3.9685,0.1101156093487211,-0.8032545611024114
-3.968,0.2488278824985954,-0.792657922697244
-3.9675,0.2808384070716433,-0.6866915386455698
-3.967,0.2594980573562781,-0.5277419625680583
-3.9665,0.2061471830678648,-0.3475991096802118
-3.966,0.1634664836371343,-0.1992461720078678
-3.9655,0.1101156093487211,-0.06148987274069118
-3.965,-0.1993194615240755,0.1610395337678249
-3.9645,-0.9782422261349084,0.6060983467848571
-3.964,-1.67180359188428,1.051157159801889
-3.9635,-2.03458953704549,1.273686566310405
-3.963,-1.661133417026597,0.8286277532933731
-3.9625,-0.9142211769888124,-0.01910331912002144
-3.962,-0.274010685527854,-0.7502713690765743
-3.9615,0.142126133921769,-1.152943628472937
-3.961,0.3555296310754218,-1.290699927740113
-3.9605,0.408880505363835,-1.216523458903942
-3.96,0.408880505363835,-1.025783967610927
-3.9595,0.4515612047945656,-0.8774310299385835
-3.959,0.5689331282290746,-0.9410108603695881
-3.9585,0.5369226036560266,-0.8032545611024114
-3.958,0.4515612047945656,-0.570128516188728
-3.9575,0.3555296310754218,-0.3370024712750445
-3.957,0.3128489316446912,-0.1356663415768632
-3.9565,0.6756348768059011,0.2564092794143318
-3.956,1.411876941986003,0.7862411996727035
-3.9555,1.76399271228953,1.210106735879401
-3.955,1.550589215135878,1.485619334413754
-3.9545,0.3448594562177392,1.612778995275763
-3.954,-0.690147504977477,1.475022696008586
-3.9535,-0.8502001278427167,0.775644561267536
-3.953,-0.5941159312583333,0.04447651131098315
-3.9525,-0.2633405106701714,-0.4429688553267188
-3.952,0.00341386077189465,-0.6549016234300674
-3.9515,0.1741366584948169,-0.6760949002404023
-3.951,0.2381577076409128,-0.570128516188728
-3.9505,0.2381577076409128,-0.400582301706049
-3.95,0.2061471830678648,-0.2098428104130352
-3.9495,0.1634664836371343,-0.05089323433552374
-3.949,0.08877525963335578,0.1080563417419877
-3.9485,-0.2313299860971235,0.383568940276341
-3.948,-0.9889124009925911,0.8286277532933731
-3.9475,-1.789175515318789,1.210106735879401
-3.947,-2.173301810195364,1.390249588767247
-3.9465,-1.83185621474952,0.8180311148882058
-3.946,-1.052933450138687,-0.09327978795619347
-3.9455,-0.3487019095316325,-0.7290780922662394
-3.945,0.1207857842064037,-1.05757388282643
-3.9445,0.3661998059331045,-1.121153713257435
-3.944,0.4408910299368829,-1.046977244421262
-3.9435,0.4302208550792003,-0.9198175835592532
-3.943,0.408880505363835,-0.7608680074817418
-3.9425,0.4622313796522482,-0.718481453861072
-3.942,0.4408910299368829,-0.6125150698093976
-3.9415,0.3768699807907871,-0.4535654937318862
-3.941,0.3128489316446912,-0.2840192792492073
-3.9405,0.2808384070716433,-0.1356663415768632
-3.94,0.5049120790829789,0.1504428953626575
-3.9395,0.9530594231056497,0.6484849004055269
-3.939,0.6863050516635838,1.104140351827727
-3.9385,-0.06060718837420119,1.390249588767247
-3.938,-1.020922925565639,1.517409249629256
-3.9375,-1.810515865034154,1.549199164844759
-3.937,-1.725154466172693,1.104140351827727
-3.9365,-1.1062843244271,0.3411823866556712
-3.936,-0.4980843575391895,-0.2734226408440398
-3.9355,-0.04993701351651855,-0.6231117082145651
-3.935,0.1954770082101822,-0.7396747306714069
-3.9345,0.291508581929326,-0.6866915386455698
-3.934,0.3021787567870086,-0.5595318777835605
-3.9335,0.2808384070716433,-0.3899856633008816
-3.933,0.2274875327832301,-0.2098428104130352
-3.9325,0.1634664836371343,-0.06148987274069118
-3.932,0.07810508477567314,0.07626642652648545
-3.9315,-0.391382608962363,0.2881991946298341
-3.931,-1.180975548430879,0.5743084315693548
-3.9305,-1.725154466172693,0.8180311148882058
-3.93,-1.682473766741963,0.849821030103708
-3.9295,-1.095614149569417,0.5637117931641874
-3.929,-0.4554036581084589,0.2987958330350016
-3.9285,0.02475421048725994,0.07626642652648545
-3.928,0.3128489316446912,-0.1356663415768632
-3.9275,0.4302208550792003,-0.3158091944647096
-3.927,0.4408910299368829,-0.4535654937318862
-3.9265,0.4195506802215176,-0.5595318777835605
-3.926,0.5262524287983441,-0.792657922697244
-3.9255,0.5902734779444399,-1.025783967610927
-3.925,0.5262524287983441,-1.078767159636765
-3.9245,0.4195506802215176,-1.068170521231597
-3.924,0.3341892813600565,-1.046977244421262
-3.9235,0.3768699807907871,-0.9728007755850904
-3.923,0.942389248247967,-0.4323722169215513
-3.9225,1.699971663143435,0.3305857482505039
-3.922,1.635950613997339,0.9134008605347127
-3.9215,0.5689331282290746,1.210106735879401
-3.921,-0.754168554123573,1.390249588767247
-3.9205,-1.277007122150022,1.135930267043229
-3.92,-1.031593100423322,0.4153588554918433
-3.9195,-0.572775581542968,-0.2416327256285375
-3.919,-0.1673089369510276,-0.6443049850249
-3.9185,0.09944543449103843,-0.792657922697244
-3.918,0.2381577076409128,-0.7608680074817418
-3.9175,0.2808384070716433,-0.6443049850249
-3.917,0.2808384070716433,-0.474758770542221
-3.9165,0.2488278824985954,-0.2946159176543747
-3.916,0.1954770082101822,-0.1356663415768632
-3.9155,0.1314559590640864,0.03387987290581572
-3.915,-0.1673089369510276,0.2352160026039969
-3.9145,-0.8288597781273515,0.6484849004055269
-3.914,-1.26633694729234,1.051157159801889
-3.9135,-1.458400094730627,1.25249328950007
-3.913,-1.191645723288561,0.9557874141553824
-3.9125,-0.6688071552621118,0.3411823866556712
-3.912,-0.1886492866663929,-0.1568596183871981
-3.9115,0.142126133921769,-0.4429688553267188
-3.911,0.3128489316446912,-0.5595318777835605
-3.9105,0.3875401556484697,-0.5807251545938954
-3.91,0.408880505363835,-0.5595318777835605
-3.9095,0.4408910299368829,-0.6019184314042303
-3.909,0.5049120790829789,-0.7714646458869092
-3.9085,0.4622313796522482,-0.8138511995075789
-3.908,0.3875401556484697,-0.792657922697244
-3.9075,0.3235191065023739,-0.7502713690765743
-3.907,0.3128489316446912,-0.7078848154559045
-3.9065,0.7183155762366316,-0.326405832869877
-3.906,1.283834843693812,0.3305857482505039
-3.9055,0.7716664505250448,0.92399749893988
-3.905,-0.3807124341046804,1.326669758336243
-3.9045,-1.501080794161358,1.549199164844759
-3.904,-2.002579012472442,1.475022696008586
-3.9035,-1.565101843307454,0.8074344764830383
-3.903,-0.8715404775580819,0.04447651131098315
-3.9025,-0.2953510352432193,-0.4853554089473885
-3.902,0.0674349099179905,-0.7502713690765743
-3.9015,0.2594980573562781,-0.792657922697244
-3.901,0.3128489316446912,-0.7078848154559045
-3.9005,0.291508581929326,-0.5489352393783931
-3.9,0.2168173579255475,-0.3687923864905467
-3.8995,0.1634664836371343,-0.1992461720078678
-3.899,0.1207857842064037,-0.06148987274069118
-3.8985,-0.04993701351651855,0.1504428953626575
-3.898,-0.1886492866663929,0.5955017083796896
-3.8975,0.3021787567870086,1.040560521396722
-3.897,0.5582629533713921,1.316073119931075
-3.8965,0.3661998059331045,1.051157159801889
-3.896,0.2594980573562781,0.4047622170866759
-3.8955,0.2594980573562781,-0.252229364033705
-3.895,0.3021787567870086,-0.6654982618352349
-3.8945,0.3448594562177392,-0.8350444763179138
-3.894,0.3448594562177392,-0.8668343915334161
-3.8935,0.3448594562177392,-0.792657922697244
-3.893,0.3555296310754218,-0.7078848154559045
-3.8925,0.5049120790829789,-0.6337083466197325
-3.892,0.5475927785137094,-0.5595318777835605
-3.8915,0.4729015545099309,-0.4853554089473885
-3.891,0.3768699807907871,-0.4217755785163839
-3.8905,0.3128489316446912,-0.3687923864905467
-3.89,0.4835717293676135,-0.1568596183871981
-3.8895,1.145122570543937,0.383568940276341
-3.889,1.134452395686255,0.9345941373450475
-3.8885,0.142126133921769,1.316073119931075
-3.888,-1.052933450138687,1.538602526439591
-3.8875,-1.917217613610981,1.612778995275763
-3.887,-1.83185621474952,1.167720182258731
-3.8865,-1.180975548430879,0.3729723018711736
