Class_2_Relax_eyes_open/Class_2_Relax_eyes_open_SH_1.csv

#Digilent WaveForms Oscilloscope Acquisition
#Device Name: EExplorer
#Serial Number: SN:210151A2B84A
#Date Time: 2020-11-17 10:20:12.481
#Sample rate: 2000Hz
#Samples: 16384
#Trigger: Source: Channel 1 Type: Edge Condition: Rising Level: 0 V Hyst.: Auto HoldOff: 0 s
#Channel 1: Range: 1 V/div Offset: 0 V Attenuation: 1 X
#Channel 2: Range: 1 V/div Offset: 0 V Attenuation: 1 X
#Power Supplies: ON
#Fixed Supply: ON
#Voltage: 3.3 V Readback: 3.324 V
#Positive Supply: ON
#Voltage: 3.7 V Readback: 3.717 V
#Current: 40 mA Readback: 17 mA
#Negative Supply: ON
#Voltage: -3.7 V Readback: -3.34 V
#Current: -40 mA Readback: -10 mA
#Reference 1: ON
#Voltage: 0 V
#Reference 2: ON
#Voltage: 0 V

Time (s),Channel 1 (V),Channel 2 (V)
-4.096,-0.8288597781273515,-1.460246142222792
-4.0955,-0.6901475049776031,-0.8244478379133245
-4.095,-0.3380317346736393,-0.08268314955050561
-4.0945,0.00341386077189465,0.4895353243280153
-4.094,0.2274875327830263,0.8392243916982225
-4.0935,0.3555296310754606,0.9981739677760809
-4.093,0.3982103305061524,1.029963882991555
-4.0925,0.4088805053638253,0.9875773293709232
-4.092,0.398210330506133,0.923997498939803
-4.0915,0.3768699807907871,0.8392243916985406
-4.091,0.3661998059331045,0.7332580076468663
-4.0905,0.3661998059330754,0.6484849004054208
-4.09,0.3341892813600565,0.5319218779486851
-4.0895,-0.1139580626626144,0.05507314971615059
-4.089,-0.6261264558309154,-0.6019184314036328
-4.0885,-0.9889124009925911,-1.237716735714276
-4.088,-1.074273799854052,-1.205926820498774
-4.0875,-0.7114878546931722,-0.6549016234305686
-4.087,-0.2313299860967935,-0.2098428104128136
-4.0865,0.1314559590640864,0.03387987290581572
-4.086,0.3341892813598721,0.09745970333676249
-4.0855,0.4195506802215467,0.06566978812126983
-4.085,0.4515612047945656,0.01268659609548085
-4.0845,0.4515612047945656,-0.02969995752515033
-4.084,0.4088805053636021,-0.008506680714738361
-4.0835,0.1527963087794516,0.1186529801471552
-4.083,0.08877525963335578,0.13984625695749
-4.0825,0.152796308779539,0.1398462569575093
-4.082,0.2488278824985954,0.1610395337678249
-4.0815,0.2168173579255475,0.03387987290581572
-4.081,-0.01792648894325713,-0.5383386009727051
-4.0805,-0.3487019095316325,-1.174136905283272
-4.08,-0.8928808272734472,-1.619195718300304
-4.0795,-1.362368521011057,-1.756952017567355
-4.079,-1.159635198715038,-1.142346990067027
-4.0785,-0.6367966306890638,-0.326405832869877
-4.078,-0.1566387620937816,0.3411823866550641
-4.0775,0.1741366584949722,0.7650479228625613
-4.077,0.3448594562177392,0.9769806909657173
-4.0765,0.4195506802214497,1.040560521396664
-4.076,0.4302208550791809,1.019367244586329
-4.0755,0.408880505363835,0.9557874141553824
-4.075,0.3875401556484697,0.8710143069140429
-4.0745,0.3768699807907871,0.7756445612674493
-4.074,0.3768699807907871,0.6802748156210291
-4.0735,0.3661998059331045,0.5849050699745222
-4.073,0.1421261339219728,0.2670059178197883
-4.0725,-0.4340633083930936,-0.4641621321370536
-4.072,-0.8181896032696687,-1.131750351662602
-4.0715,-0.9035510021310523,-1.227120097309022
-4.071,-0.6794773301194061,-0.7078848154554804
-4.0705,-0.2526703358124887,-0.2416327256285375
-4.07,0.131455959063737,0.05507314971588073
-4.0695,0.3661998059332015,0.1398462569574515
-4.069,0.4729015545099309,0.09745970333682032
-4.0685,0.4835717293676135,0.02328323450064829
-4.068,0.4622313796522191,-0.05089323433554302
-4.0675,0.4302208550792003,-0.07208651114585861
-4.067,0.4408910299368829,0.1186529801471552
-4.0665,0.4408910299368829,0.2670059178195089
-4.066,0.4408910299368829,0.2776025562246667
-4.0655,0.4195506802215176,0.2670059178194992
-4.065,0.4302208550791906,0.2458126410091837
-4.0645,0.7289857510943143,-0.1568596183871981
-4.064,0.7183155762366316,-0.792657922697244
-4.0635,0.1314559590646202,-1.280103289334503
-4.063,-0.5087545323971826,-1.449649503817432
-4.0625,-0.8502001278427167,-1.237716735714276
-4.062,-0.6474668055469309,-0.5489352393790194
-4.0615,-0.2846808603852358,0.1398462569579526
-4.061,0.04609456020262521,0.6484849004055269
-4.0605,0.2488278824985954,0.9451907757502149
-4.06,0.3555296310754606,1.061753798207066
-4.0595,0.3982103305061524,1.072350436612224
-4.059,0.3982103305061524,1.029963882991555
-4.0585,0.3875401556484794,0.945190775750292
-4.058,0.3768699807907871,0.849821030103708
-4.0575,0.3661998059331045,0.7544512844572011
-4.057,0.3661998059331045,0.6484849004056232
-4.0565,0.2168173579255475,0.4471487707073456
-4.056,-0.4020527838200457,-0.2204394488182027
-4.0555,-0.9355615267036924,-0.9728007755844061
-4.055,-1.223656247861395,-1.428456227006953
-4.0545,-0.9889124009925911,-1.05757388282643
-4.054,-0.4874141826819629,-0.4959520473530667
-4.0535,-0.0392668386585739,-0.1144730647663838
-4.053,0.2488278824985954,0.04447651131098315
-4.0525,0.3982103305061524,0.07626642652648545
-4.052,0.4622313796522482,0.02328323450058082
-4.0515,0.4622313796522482,-0.05089323433552374
-4.051,0.4408910299368829,-0.1038764263613609
-4.0505,0.3768699807908453,0.00208995769021704
-4.05,0.2808384070716433,0.2140227257936621
-4.0495,0.2808384070716433,0.2458126410091644
-4.049,0.3128489316446621,0.2246193641988488
-4.0485,0.344859456217943,0.2140227257934115
-4.048,0.5689331282290746,-0.06148987274069118
-4.0475,0.7503261008095146,-0.7078848154553167
-4.047,0.1741366584940308,-1.311893204550824
-4.0465,-0.690147504977477,-1.725162102351978
-4.046,-1.170305373572759,-1.640388995110716
-4.0455,-0.9462317015614431,-0.888027668343028
-4.045,-0.4874141826815069,-0.09327978795619347
-4.0445,-0.07127736323188383,0.5213252395435176
-4.044,0.2061471830680007,0.8816109453193646
-4.0435,0.3555296310754218,1.051157159801889
-4.043,0.408880505363835,1.093543713422559
-4.0425,0.408880505363835,1.061753798207086
-4.042,0.3982103305061524,0.9875773293708847
-4.0415,0.3875401556484697,0.9028042221295453
-4.041,0.3768699807907968,0.8074344764831251
-4.0405,0.3661998059330754,0.701468092431258
-4.04,0.3341892813600565,0.5849050699745222
-4.0395,-0.1139580626622069,0.09745970333726361
-4.039,-0.6688071552623932,-0.6866915386461961
-4.0385,-0.9782422261349084,-1.375473034981453
-4.038,-1.212986073003713,-1.650985633515555
-4.0375,-0.9995825758498467,-1.110557074851708
-4.037,-0.5300948821122373,-0.4959520473525559
-4.0365,-0.08194753808956648,-0.09327978795619347
-4.036,0.2168173579256931,0.07626642652650473
-4.0355,0.3768699807907871,0.09745970333682032
-4.035,0.4302208550792003,0.04447651131098315
-4.0345,0.4408910299368732,-0.02969995752512142
-4.034,0.4302208550792003,-0.06148987274069118
-4.0335,0.3661998059331045,0.04447651131098315
-4.033,0.3555296310754315,0.08686306493161433
-4.0325,0.3661998059331142,0.09745970333682995
-4.032,0.3768699807907871,0.1080563417419877
-4.0315,0.2808384070717307,0.002089957690409802
-4.031,-0.1993194615246481,-0.5383386009738038
-4.0305,-0.8288597781273515,-1.174136905283272
-4.03,-1.319687821580307,-1.66158227192053
-4.0295,-1.629122892453278,-1.852321763213467
-4.029,-1.330357996438436,-1.280103289334946
-4.0285,-0.722158029550525,-0.4429688553267188
-4.028,-0.1886492866660629,0.2564092794147462
-4.0275,0.1741366584948169,0.7120647308365314
-4.027,0.3555296310754218,0.9557874141553824
-4.0265,0.4302208550791324,1.040560521396645
-4.026,0.4302208550792003,1.029963882991555
-4.0255,0.408880505363835,0.9663840525605498
-4.025,0.3875401556484891,0.8922075837244453
-4.0245,0.3768699807907871,0.8074344764829516
-4.024,0.3768699807907871,0.7120647308365314
-4.0235,0.3768699807907871,0.6378882620004269
-4.023,0.1527963087789082,0.3835689402757049
-4.0225,-0.4447334832507763,-0.3158091944647096
-4.022,-0.9569018764190773,-1.057573882825755
-4.0215,-1.351698346153646,-1.322489842955086
-4.021,-1.180975548430879,-0.7396747306714069
-4.0205,-0.6367966306890638,-0.1992461720078678
-4.02,-0.1352984123776692,0.06566978812138548
-4.0195,0.2061471830678648,0.13984625695749
-4.019,0.3875401556484697,0.1292496185523226
-4.0185,0.4622313796521803,0.07626642652653365
-4.018,0.4622313796522482,0.03387987290581572
-4.0175,0.4408910299368829,0.01268659609548085
-4.017,0.3341892813601536,0.09745970333674321
-4.0165,0.2594980573563072,0.1504428953626671
-4.016,0.291508581929326,0.1610395337678249
-4.0155,0.3341892813600177,0.1822328105781405
-4.015,0.3448594562176033,0.1504428953622527
-4.0145,0.1954770082101822,-0.2946159176543747
-4.014,-0.10328788780466,-0.9410108603690003
-4.0135,-0.6154562809740867,-1.502632695843771
-4.013,-1.042263275281004,-1.84172512480882
-4.0125,-1.074273799854052,-1.481439419033127
-4.012,-0.6688071552617042,-0.6760949002397373
-4.0115,-0.2206598112394408,0.05507314971615059
-4.011,0.1101156093487211,0.5637117931641874
-4.0105,0.3128489316445069,0.8498210301034478
-4.01,0.3982103305061524,0.9557874141553824
-4.0095,0.4195506802215176,0.9769806909657173
-4.009,0.4088805053638447,0.934594137345086
-4.0085,0.38754015564846,0.8710143069139659
-4.008,0.3768699807907871,0.7862411996727035
-4.0075,0.3768699807907871,0.7120647308365989
-4.007,0.3768699807906901,0.6378882620001955
-4.0065,0.2701682322139607,0.457745409112513
-4.006,-0.2953510352432193,-0.1886495336027004
-4.0055,-0.8075194284122674,-0.9622041371803856
-4.005,-1.116954499284783,-1.47084278062796
-4.0045,-1.138294849000148,-1.195330182093607
-4.004,-0.7328282044077611,-0.601918431403787
-4.0035,-0.2420001609548061,-0.1144730647665284
-4.003,0.1314559590640864,0.13984625695749
-4.0025,0.355529631075218,0.192829448983279
-4.002,0.4408910299368829,0.1292496185523226
-4.0015,0.4622313796522482,0.06566978812131802
-4.001,0.4408910299369024,0.01268659609552904
-4.0005,0.3875401556484503,0.04447651131108916
-4,0.3661998059331045,0.1610395337678249
-3.9995,0.4195506802215176,0.1822328105781598
-3.999,0.4302208550792003,0.1928294489833272
-3.9985,0.4195506802215176,0.2034260873884947
-3.998,0.3128489316446912,-0.02969995752518888
-3.9975,0.2061471830678648,-0.6654982618352349
-3.997,-0.3700422592469978,-1.290699927740113
-3.9965,-0.8822106524157645,-1.682775548731308
-3.996,-1.287677297007705,-1.778145294377815
-3.9955,-1.1062843244271,-1.163540266878104
-3.995,-0.6154562809736985,-0.3475991096802118
-3.9945,-0.1459685872356623,0.3199891098453364
-3.994,0.1741366584948169,0.7438546460520338
-3.9935,0.3448594562177392,0.9557874141553824
-3.993,0.408880505363835,1.019367244586387
-3.9925,0.4195506802215176,0.9981739677760521
-3.992,0.408880505363835,0.9345941373450475
-3.9915,0.3875401556484697,0.8392243916985406
-3.991,0.3768699807907871,0.7544512844572011
-3.9905,0.3768699807907871,0.6590815388106942
-3.99,0.3448594562177392,0.5849050699745222
-3.9895,-0.09261771294724913,0.2034260873884947
-3.989,-0.7114878546928423,-0.5383386009732256
-3.9885,-1.042263275281004,-1.110557074852267
-3.988,-1.159635198715513,-1.05757388282643
-3.9875,-0.8181896032696687,-0.5065486857577234
-3.987,-0.3060212101009019,-0.08268314955102604
-3.9865,0.1207857842064037,0.1186529801471552
-3.986,0.3661998059331045,0.1292496185523226
-3.9855,0.4729015545099309,0.07626642652648545
-3.985,0.4942419042252961,0.002089957690313421
-3.9845,0.4622313796522482,-0.04029659593035631
-3.984,0.4195506802215176,0.002089957690313421
-3.9835,0.2061471830678648,0.2776025562246667
-3.983,0.142126133921769,0.3729723018711736
-3.9825,0.2061471830678648,0.3517790250608387
-3.982,0.2808384070716433,0.309392471440169
-3.9815,0.3661998059331045,0.2034260873884947
-3.981,0.7289857510943143,-0.1992461720078678
-3.9805,0.4515612047945656,-0.8244478379127463
-3.98,-0.1673089369510276,-1.301296566145281
-3.9795,-0.7861790786966207,-1.523825972653797
-3.979,-0.9782422261349084,-1.237716735714276
-3.9785,-0.6688071552621118,-0.5065486857577234
-3.978,-0.2526703358124887,0.1822328105781598
-3.9775,0.07810508477567314,0.6802748156210291
-3.977,0.2808384070716433,0.9557874141553824
-3.9765,0.3768699807907871,1.061753798207057
-3.976,0.408880505363835,1.072350436612224
-3.9755,0.408880505363835,1.029963882991555
-3.975,0.3875401556484697,0.9451907757502149
-3.9745,0.3768699807907871,0.8604176685088755
-3.974,0.3768699807907871,0.7650479228623686
-3.9735,0.3768699807907871,0.6802748156210291
-3.973,0.1527963087794516,0.4365521323021782
-3.9725,-0.4447334832507763,-0.2204394488182027
-3.972,-0.754168554123573,-0.8668343915334161
-3.9715,-0.9995825758502737,-1.184733543688439
-3.971,-0.8715404775580819,-0.6654982618352349
-3.9705,-0.4340633083930936,-0.1568596183871981
-3.97,-0.007256314085787988,0.09745970333682032
-3.9695,0.2701682322139607,0.13984625695749
-3.969,0.4195506802215176,0.05507314971615059
-3.9685,0.4622313796522482,-0.05089323433552374
-3.968,0.4515612047945656,-0.1250697031716958
-3.9675,0.4302208550792003,-0.1462629799820306
-3.967,0.3448594562177392,-0.1674562567923655
-3.9665,0.3021787567870086,-0.1462629799820306
-3.966,0.3235191065023739,-0.04029659593035631
-3.9655,0.3555296310754218,0.08686306493165288
-3.965,0.3661998059331045,0.2034260873884947
-3.9645,-0.02859666380115328,-0.1144730647665284
-3.964,-0.7328282044082075,-0.7290780922662394
-3.9635,-1.26633694729234,-1.227120097309109
-3.963,-1.458400094730627,-1.38606967338662
-3.9625,-1.501080794161358,-1.311893204550448
-3.962,-1.052933450138687,-0.7078848154559045
-3.9615,-0.4767440078238243,0.03387987290581572
-3.961,-0.02859666380115328,0.6060983467848571
-3.9605,0.2594980573562781,0.9557874141553824
-3.96,0.3875401556484697,1.093543713422559
-3.9595,0.4302208550792003,1.104140351827727
-3.959,0.4302208550792003,1.040560521396722
-3.9585,0.408880505363835,0.92399749893988
-3.958,0.3875401556484697,0.8074344764830383
-3.9575,0.3768699807907871,0.6802748156210291
-3.957,0.3661998059331045,0.55311515475902
-3.9565,0.2808384070716433,0.4153588554918433
-3.956,-0.08194753808956648,-0.1356663415768632
-3.9555,-0.4447334832507763,-0.7820612842920766
-3.955,-0.754168554123573,-1.237716735714276
-3.9545,-0.7755089038389382,-0.9728007755850904
-3.954,-0.4340633083930936,-0.4323722169215513
-3.9535,-0.06060718837420119,-0.07208651114585861
-3.953,0.2274875327832301,0.06566978812131802
-3.9525,0.3875401556484697,0.07626642652648545
-3.952,0.4515612047945656,0.01268659609548085
-3.9515,0.4729015545099309,-0.05089323433552374
-3.951,0.4408910299368829,-0.09327978795619347
-3.9505,0.4302208550792003,-0.008506680714854012
-3.95,0.408880505363835,0.2246193641988295
-3.9495,0.3982103305061524,0.2776025562246667
-3.949,0.3982103305061524,0.2776025562246667
-3.9485,0.3982103305061524,0.2881991946298341
-3.948,0.2488278824985954,0.1292496185523226
-3.9475,-0.3060212101009019,-0.474758770542221
-3.947,-0.8181896032696687,-1.089363798041932
-3.9465,-1.234326422719292,-1.481439419033127
-3.946,-1.46907026958831,-1.555615887869299
-3.9455,-1.116954499284783,-0.9833974139902578
-3.945,-0.5621054066852853,-0.1886495336027004
-3.9445,-0.09261771294724913,0.4471487707073456
-3.944,0.2168173579255475,0.8604176685088755
-3.9435,0.3661998059331045,1.061753798207057
-3.943,0.4302208550792003,1.114736990232894
-3.9425,0.4302208550792003,1.072350436612224
-3.942,0.408880505363835,0.9875773293708847
-3.9415,0.3875401556484697,0.8816109453192104
-3.941,0.3768699807907871,0.775644561267536
-3.9405,0.3768699807907871,0.6590815388106942
-3.94,0.3448594562177392,0.5425185163538525
-3.9395,-0.06060718837420119,0.08686306493165288
-3.939,-0.7008176798351597,-0.6866915386455698
-3.9385,-1.127624674142465,-1.34368311976595
-3.938,-1.191645723288561,-1.248313374119443
-3.9375,-0.839529952985034,-0.6231117082145651
-3.937,-0.3380317346739499,-0.1462629799820306
-3.9365,0.0674349099179905,0.07626642652648545
-3.936,0.3235191065023739,0.1080563417419877
-3.9355,0.4302208550792003,0.06566978812131802
-3.935,0.4835717293676135,-0.008506680714854012
-3.9345,0.4729015545099309,-0.06148987274069118
-3.934,0.4302208550792003,-0.07208651114585861
-3.9335,0.2594980573562781,0.1080563417419877
-3.933,0.2168173579255475,0.1822328105781598
-3.9325,0.2594980573562781,0.1822328105781598
-3.932,0.3235191065023739,0.1822328105781598
-3.9315,0.3875401556484697,0.1186529801471552
-3.931,0.6436243522328531,-0.3899856633008816
-3.9305,0.1954770082101822,-1.05757388282643
-3.93,-0.572775581542968,-1.545019249464132
-3.9295,-1.116954499284783,-1.682775548731308
-3.929,-1.287677297007705,-1.38606967338662
-3.9285,-0.8928808272734472,-0.6231117082145651
-3.928,-0.3807124341046804,0.1186529801471552
-3.9275,0.02475421048725994,0.6590815388106942
-3.927,0.2701682322139607,0.9663840525605498
-3.9265,0.3875401556484697,1.093543713422559
-3.926,0.4302208550792003,1.104140351827727
-3.9255,0.4195506802215176,1.051157159801889
-3.925,0.408880505363835,0.9663840525605498
-3.9245,0.3875401556484697,0.8710143069140429
-3.924,0.3768699807907871,0.775644561267536
-3.9235,0.3768699807907871,0.6696781772158616
-3.923,0.1527963087794516,0.383568940276341
-3.9225,-0.5087545323968721,-0.3581957480853793
-3.922,-1.084943974711735,-1.110557074852267
-3.9215,-1.287677297007705,-1.545019249464132
-3.921,-1.010252750707956,-1.174136905283272
-3.9205,-0.4767440078238243,-0.5807251545938954
-3.92,0.00341386077189465,-0.1780528951975329
-3.9195,0.3128489316446912,0.01268659609548085
-3.919,0.4515612047945656,0.05507314971615059
-3.9185,0.4942419042252961,0.02328323450064829
-3.918,0.4835717293676135,-0.02969995752518888
-3.9175,0.4408910299368829,-0.08268314955102604
-3.917,0.4515612047945656,-0.05089323433552374
-3.9165,0.4835717293676135,0.03387987290581572
-3.916,0.4835717293676135,0.05507314971615059
-3.9155,0.4622313796522482,0.07626642652648545
-3.915,0.4408910299368829,0.1186529801471552
-3.9145,0.6863050516635838,-0.08268314955102604
-3.914,0.6436243522328531,-0.6866915386455698
-3.9135,-0.03926683865883591,-1.290699927740113
-3.913,-0.722158029550525,-1.650985633515806
-3.9125,-1.095614149569417,-1.566212526274467
-3.912,-0.8608703027003992,-0.8456411147230812
-3.9115,-0.4127229586777283,-0.07208651114585861
-3.911,-0.02859666380115328,0.5213252395435176
-3.9105,0.2274875327832301,0.8816109453192104
-3.91,0.3661998059331045,1.051157159801889
-3.9095,0.408880505363835,1.093543713422559
-3.909,0.4195506802215176,1.061753798207057
-3.9085,0.3982103305061524,0.9875773293708847
-3.908,0.3875401556484697,0.9134008605347127
-3.9075,0.3768699807907871,0.8286277532933731
-3.907,0.3768699807907871,0.7332580076468663
-3.9065,0.291508581929326,0.6378882620003594
-3.906,-0.2846808603855366,0.13984625695749
-3.9055,-0.8928808272734472,-0.6760949002404023
-3.905,-1.255666772434657,-1.301296566145281
-3.9045,-1.26633694729234,-1.046977244421262
-3.904,-0.7968492535543035,-0.4429688553267188
-3.9035,-0.2633405106701714,-0.04029659593035631
-3.903,0.142126133921769,0.1292496185523226
-3.9025,0.3768699807907871,0.1292496185523226
-3.902,0.4622313796522482,0.06566978812131802
-3.9015,0.4729015545099309,-0.008506680714854012
-3.901,0.4622313796522482,-0.06148987274069118
-3.9005,0.408880505363835,-0.01910331912002144
-3.9,0.2594980573562781,0.1080563417419877
-3.8995,0.2381577076409128,0.1504428953626575
-3.899,0.2808384070716433,0.1610395337678249
-3.8985,0.3341892813600565,0.1822328105781598
-3.898,0.4942419042252961,0.06566978812131802
-3.8975,0.7503261008096795,-0.5171453241628908
-3.897,0.2381577076409128,-1.142346990067769
-3.8965,-0.391382608962363,-1.545019249464132
-3.896,-0.8608703027003992,-1.566212526274467
-3.8955,-0.7968492535543035,-0.9728007755850904
-3.895,-0.4340633083930936,-0.2098428104130352
-3.8945,-0.07127736323188383,0.4153588554918433
-3.894,0.1848068333524996,0.8180311148882058
-3.8935,0.3341892813600565,1.019367244586387
-3.893,0.3982103305061524,1.082947075017392
-3.8925,0.408880505363835,1.061753798207057
-3.892,0.3982103305061524,0.9981739677760521
-3.8915,0.3768699807907871,0.9134008605347127
-3.891,0.3768699807907871,0.8286277532933731
-3.8905,0.3661998059331045,0.7332580076468663
-3.89,0.3555296310754218,0.6378882620003594
-3.8895,0.03542438534494258,0.2246193641988295
-3.889,-0.4554036581084589,-0.5065486857577234
-3.8885,-0.8715404775580819,-1.142346990067769
-3.888,-1.127624674142465,-1.205926820498774
-3.8875,-0.9142211769888124,-0.6760949002404023
-3.887,-0.4447334832507763,-0.2204394488182027
