Class_2_Relax_eyes_open/Class_2_Relax_eyes_open_SH_7.csv

#Digilent WaveForms Oscilloscope Acquisition
#Device Name: EExplorer
#Serial Number: SN:210151A2B84A
#Date Time: 2020-12-17 15:39:33.681
#Sample rate: 2000Hz
#Samples: 16384
#Trigger: Source: Channel 1 Type: Edge Condition: Rising Level: 0 V Hyst.: Auto HoldOff: 0 s
#Channel 1: Range: 1 V/div Offset: 0 V Attenuation: 1 X
#Channel 2: Range: 1 V/div Offset: 0 V Attenuation: 1 X
#Power Supplies: ON
#Fixed Supply: ON
#Voltage: 3.3 V Readback: 3.328 V
#Positive Supply: ON
#Voltage: 3.7 V Readback: 3.716 V
#Current: 40 mA Readback: 19 mA
#Negative Supply: ON
#Voltage: -3.7 V Readback: -3.351 V
#Current: -40 mA Readback: -9 mA
#Reference 1: ON
#Voltage: 0 V
#Reference 2: ON
#Voltage: 0 V

Time (s),Channel 1 (V),Channel 2 (V)
-4.096,-0.1032878878049318,-0.7714646458869092
-4.0955,0.1954770082099104,-0.8138511995075404
-4.095,0.3768699807908841,-0.9092209451541436
-4.0945,0.4835717293676135,-0.9728007755850904
-4.094,0.4942419042252864,-0.9833974139902482
-4.0935,0.4515612047945365,-0.9622041371798459
-4.093,0.4195506802215176,-0.8774310299385835
-4.0925,0.3875401556484989,-0.75027136907669
-4.092,0.3768699807907871,-0.5701285161885449
-4.0915,0.3768699807907871,-0.3687923864905467
-4.091,0.1848068333524996,-0.4535654937318862
-4.0905,-0.1352984123785134,-0.9198175835596291
-4.09,-0.722158029550525,-1.333086481360783
-4.0895,-1.255666772434657,-1.51322933424863
-4.089,-1.597112367880191,-1.407262950197051
-4.0885,-1.277007122150022,-0.7396747306714069
-4.088,-0.690147504977477,0.1504428953626575
-4.0875,-0.1673089369515032,0.8816109453185454
-4.087,0.1741366584949722,1.34786303514679
-4.0865,0.3448594562177392,1.580989080060261
-4.086,0.4088805053637768,1.644568910491208
-4.0855,0.4195506802214982,1.591585718465322
-4.085,0.3982103305061524,1.475022696008586
-4.0845,0.4195506802214982,1.379652950362167
-4.084,0.5049120790830274,1.369056311956835
-4.0835,0.5582629533713921,1.284283204715573
-4.083,0.6969752265212663,1.316073119931075
-4.0825,0.5475927785136803,1.633972272086166
-4.082,0.5155822539406614,1.70814874092227
-4.0815,-0.156638762093345,0.7968378380778709
-4.081,-0.7968492535537212,-0.2522293640327509
-4.0805,-0.8608703027003992,-0.6972881770507372
-4.08,-0.4554036581084589,-0.6866915386455698
-4.0795,-0.04993701351688729,-0.6337083466197807
-4.079,0.2168173579256736,-0.6443049850250157
-4.0785,0.3555296310754218,-0.7714646458869092
-4.078,0.4302208550791324,-0.9410108603694339
-4.0775,0.4515612047943521,-1.068170521231761
-4.077,0.2168173579255475,-1.248313374119443
-4.0765,0.01408403562976168,-1.269506650929759
-4.076,0.03542438534503962,-1.025783967610619
-4.0755,0.142126133921769,-0.6866915386455698
-4.075,0.2381577076409128,-0.3370024712750445
-4.0745,0.3021787567872803,-0.1780528951978028
-4.074,0.6009436528021226,-0.474758770542221
-4.0735,0.2701682322139607,-0.9092209451540858
-4.073,-0.5087545323961636,-1.22712009730882
-4.0725,-1.180975548430879,-1.290699927740113
-4.072,-1.138294849000148,-0.7502713690765743
-4.0715,-0.6901475049778846,0.07626642652573368
-4.071,-0.2313299860968129,0.7756445612679504
-4.0705,0.1101156093487211,1.231300012689736
-4.07,0.3021787567868339,1.453829419198049
-4.0695,0.3875401556484891,1.506812611224041
-4.069,0.408880505363835,1.453829419198252
-4.0685,0.3982103305061524,1.326669758336243
-4.068,0.3875401556485182,1.178316820663831
-4.0675,0.4408910299368829,1.104140351827727
-4.067,0.4835717293676135,1.00877060618122
-4.0665,0.5689331282292492,0.9345941373452884
-4.066,0.7609962756673623,1.199510097474233
-4.0655,0.974399772821015,1.411442865577582
-4.065,0.3235191065029659,0.6802748156216941
-4.0645,-0.5834457564006506,-0.400582301706049
-4.064,-1.010252750707956,-1.025783967610927
-4.0635,-0.7755089038391517,-1.057573882826401
-4.063,-0.3380317346735908,-0.9304142219643436
-4.0625,0.05676473506030786,-0.8456411147230812
-4.062,0.3235191065021312,-0.856237753128239
-4.0615,0.440891029936912,-0.9198175835593014
-4.061,0.4729015545099309,-0.9728007755850904
-4.0605,0.4302208550792003,-1.05757388282643
-4.06,0.3448594562177197,-1.046977244421137
-4.0595,0.3235191065023739,-0.9092209451540858
-4.059,0.3235191065023739,-0.6972881770507372
-4.0585,0.3341892813600468,-0.4641621321372656
-4.058,0.3768699807907871,-0.252229364033705
-4.0575,0.8143471499557753,-0.326405832869877
-4.057,1.283834843693385,-0.5277419625678752
-4.0565,0.6756348768059011,-0.9410108603695881
-4.056,-0.3166913849585846,-1.248313374119443
-4.0555,-1.010252750707326,-1.227120097309128
-4.055,-0.9355615267038186,-0.5595318777828281
-4.0545,-0.5407650569699201,0.2458126410091644
-4.054,-0.1352984123783484,0.8922075837237899
-4.0535,0.1421261339219146,1.305476481526081
-4.053,0.3021787567870086,1.496215972818921
-4.0525,0.3768699807907871,1.549199164844759
-4.052,0.38754015564846,1.496215972818825
-4.0515,0.3768699807907871,1.390249588767247
-4.051,0.3982103305061524,1.316073119931075
-4.0505,0.4302208550791712,1.220703374284655
-4.05,0.5049120790829789,1.188913459069066
-4.0495,0.5049120790829789,1.25249328950007
-4.049,0.3235191065025388,1.570392441654804
-4.0485,0.003413860771283268,1.549199164843891
-4.048,-0.6688071552621118,0.5955017083796896
-4.0475,-1.17030537357274,-0.4217755785154587
-4.047,-1.052933450138231,-0.7502713690766128
-4.0465,-0.5514352318276028,-0.792657922697244
-4.046,-0.04993701351697466,-0.7820612842920862
-4.0455,0.2701682322141062,-0.792657922697321
-4.045,0.4302208550792003,-0.8774310299385835
-4.0445,0.4835717293676135,-0.9516074987747555
-4.044,0.4515612047943812,-1.025783967611014
-4.0435,0.2488278824985954,-1.121153713257435
-4.043,0.1634664836371343,-0.9833974139902578
-4.0425,0.1848068333524802,-0.7290780922664708
-4.042,0.2381577076409128,-0.4535654937318862
-4.0415,0.291508581929326,-0.1886495336027004
-4.041,0.5475927785134764,-0.103876426361438
-4.0405,1.006410297393617,-0.1886495336031052
-4.04,0.5155822539406614,-0.6337083466197325
-4.0395,-0.3273615598155006,-1.068170521231202
-4.039,-0.9355615267041292,-1.205926820498292
-4.0385,-0.8822106524157645,-0.6760949002404023
-4.038,-0.5087545323972118,0.07626642652580118
-4.0375,-0.1246282375200544,0.7120647308369072
-4.037,0.142126133921769,1.125333628638062
-4.0365,0.3021787567870086,1.326669758336243
-4.036,0.3661998059331142,1.369056311956864
-4.0355,0.3768699807907871,1.316073119931075
-4.035,0.3661998059331045,1.210106735879401
-4.0345,0.3875401556484503,1.125333628638139
-4.034,0.4408910299368829,1.104140351827727
-4.0335,0.5049120790829789,1.104140351827727
-4.033,0.5369226036559975,1.1359302670432
-4.0325,0.3021787567867951,1.422039503982836
-4.032,0.0674349099179905,1.517409249629256
-4.0315,-0.5727755815423857,0.6484849004063171
-4.031,-0.9995825758501863,-0.3899856633012671
-4.0305,-0.9035510021311299,-0.8138511995075789
-4.03,-0.4980843575395583,-0.8456411147230524
-4.0295,-0.08194753808930445,-0.8562377531282969
-4.029,0.2061471830678648,-0.9092209451540858
-4.0285,0.3875401556484697,-0.9516074987747555
-4.028,0.4622313796522579,-0.9728007755851289
-4.0275,0.4729015545099309,-1.01518732920576
-4.027,0.3021787567870086,-1.078767159636765
-4.0265,0.1848068333526063,-0.9939940523955024
-4.026,0.1954770082101822,-0.7820612842920766
-4.0255,0.2488278824985954,-0.5277419625680583
-4.025,0.2915085819292872,-0.2734226408442711
-4.0245,0.2488278824987507,-0.1568596183871788
-4.024,0.4195506802215176,-0.1356663415768632
-4.0235,0.3341892813601341,-0.252229364033599
-4.023,-0.370042259247551,-0.6972881770509974
-4.0225,-0.9782422261349084,-0.9833974139902578
-4.022,-1.277007122149751,-0.9516074987747843
-4.0215,-0.9569018764190967,-0.3370024712743891
-4.021,-0.4660738329661415,0.383568940276341
-4.0205,-0.04993701351651855,0.9451907757502149
-4.02,0.2061471830679813,1.294879843120885
-4.0195,0.3341892813600565,1.453829419198252
-4.019,0.3875401556484697,1.475022696008586
-4.0185,0.3768699807907968,1.400846227172482
-4.018,0.3768699807907871,1.305476481525908
-4.0175,0.3768699807907871,1.210106735879401
-4.017,0.4195506802214788,1.146526905448454
-4.0165,0.5155822539406129,1.157123543853718
-4.016,0.4622313796522482,1.326669758336243
-4.0155,0.4515612047945753,1.559795803249714
-4.015,-0.1459685872362446,0.9028042221286393
-4.0145,-0.7861790786966207,-0.09327978795619347
-4.014,-0.8608703027003313,-0.4641621321367163
-4.0135,-0.540765056969561,-0.6337083466198771
-4.013,-0.1459685872356623,-0.792657922697244
-4.0125,0.1954770082101822,-0.9410108603695881
-4.012,0.3982103305062203,-0.9833974139902578
-4.0115,0.4729015545099309,-0.9833974139902578
-4.011,0.4729015545099309,-1.036380606016095
-4.0105,0.3555296310755285,-1.1105570748522
-4.01,0.1314559590640864,-1.131750351662602
-4.0095,0.09944543449103843,-0.9304142219644207
-4.009,0.1527963087794031,-0.654901623430318
-4.0085,0.2274875327832786,-0.3581957480851384
-4.008,0.2808384070716433,-0.09327978795619347
-4.0075,0.2488278824986245,-0.2310360872232448
-4.007,0.2061471830672923,-0.580725154594223
-4.0065,-0.423393133535411,-0.9410108603695881
-4.006,-1.1062843244271,-1.131750351662602
-4.0055,-1.522421143876442,-1.036380606015488
-4.005,-1.212986073003927,-0.3687923864905467
-4.0045,-0.6474668055467465,0.4471487707073456
-4.004,-0.1566387620930538,1.093543713422896
-4.0035,0.1634664836371343,1.464426057603419
-4.003,0.3235191065023739,1.612778995275763
-4.0025,0.3875401556484115,1.591585718465448
-4.002,0.3875401556484697,1.475022696008586
-4.0015,0.3768699807907871,1.29487984312074
-4.001,0.398210330506133,1.157123543853689
-4.0005,0.4835717293676717,1.114736990232865
-4,0.5475927785137094,1.082947075017392
-3.9995,0.5049120790829789,1.104140351827727
-3.999,0.3235191065023739,1.42203950398275
-3.9985,-0.09261771294724913,1.188913459069066
-3.998,-0.7114878546928423,0.2034260873884947
-3.9975,-1.020922925565639,-0.5913217929990628
-3.997,-0.8928808272734472,-0.8456411147230812
-3.9965,-0.4874141826815069,-0.8774310299385835
-3.996,-0.03926683865883591,-0.8986243067489184
-3.9955,0.2701682322139607,-0.8880276683437509
-3.995,0.3982103305061524,-0.9728007755850904
-3.9945,0.4408910299368829,-1.078767159636765
-3.994,0.4195506802215176,-1.205926820498774
-3.9935,0.2381577076409128,-1.322489842955616
-3.993,0.1634664836371343,-1.184733543688439
-3.9925,0.1848068333524996,-0.9092209451540858
-3.992,0.2274875327832301,-0.6125150698093976
-3.9915,0.2808384070716433,-0.3158091944647096
-3.991,0.2488278824985954,-0.2840192792492073
-3.9905,0.6116138276598051,-0.2098428104130352
-3.99,0.3982103305061524,-0.4641621321370536
-3.9895,-0.391382608962363,-0.8880276683437509
-3.989,-1.1062843244271,-1.131750351662602
-3.9885,-1.116954499284783,-0.7396747306714069
-3.988,-0.7008176798351597,0.02328323450064829
-3.9875,-0.2526703358124887,0.7226613692416989
-3.987,0.07810508477567314,1.210106735879401
-3.9865,0.2701682322139607,1.475022696008586
-3.986,0.3555296310754218,1.570392441655093
-3.9855,0.3768699807907871,1.559795803249926
-3.985,0.3768699807907871,1.464426057603419
-3.9845,0.4195506802215176,1.42203950398275
-3.984,0.4729015545099309,1.400846227172415
-3.9835,0.5262524287983441,1.358459673551745
-3.983,0.5689331282290746,1.326669758336243
-3.9825,0.8356874996711408,1.443232780793084
-3.982,1.070431346540159,1.559795803249926
-3.9815,0.3021787567870086,0.7650479228623686
-3.981,-0.4660738329661415,-0.1992461720078678
-3.9805,-0.6261264558313813,-0.5171453241628908
-3.98,-0.3700422592469978,-0.570128516188728
-3.9795,-0.02859666380115328,-0.6337083466197325
-3.979,0.2274875327832301,-0.8032545611024114
-3.9785,0.3341892813600565,-0.9939940523954253
-3.978,0.3768699807907871,-1.0999604364471
-3.9775,0.3875401556484697,-1.184733543688439
-3.977,0.2061471830678648,-1.301296566145281
-3.9765,0.05676473506030786,-1.227120097309109
-3.976,0.07810508477567314,-0.9622041371799229
-3.9755,0.1527963087794516,-0.6654982618352349
-3.975,0.2274875327832301,-0.3581957480853793
-3.9745,0.3448594562177392,-0.1250697031716958
-3.974,0.8676980242441885,-0.1992461720078678
-3.9735,0.7823366253827275,-0.5383386009732256
-3.973,-0.1032878878049318,-0.9304142219644207
-3.9725,-0.9782422261349084,-1.152943628472937
-3.972,-1.341028171296118,-0.9410108603695881
-3.9715,-1.010252750707956,-0.1992461720078678
-3.971,-0.5087545323968721,0.5743084315693548
-3.9705,-0.08194753808956648,1.135930267043229
-3.97,0.1848068333524996,1.453829419198252
-3.9695,0.3235191065023739,1.559795803249926
-3.969,0.3661998059331045,1.528005888034424
-3.9685,0.3661998059331045,1.411442865577582
-3.968,0.3555296310754218,1.241896651094903
-3.9675,0.3555296310754218,1.082947075017392
-3.967,0.4195506802215176,1.00877060618122
-3.9665,0.5049120790829789,0.9769806909657173
-3.966,0.5155822539406614,1.167720182258731
-3.9655,0.7289857510943143,1.549199164844759
-3.965,0.4302208550792003,1.220703374284568
-3.9645,-0.3166913849585846,0.1610395337678249
-3.964,-0.9035510021311299,-0.6866915386455698
-3.9635,-0.8181896032696687,-0.8244478379127463
-3.963,-0.423393133535411,-0.8244478379127463
-3.9625,-0.02859666380115328,-0.8244478379127463
-3.962,0.2381577076409128,-0.8986243067489184
-3.9615,0.3875401556484697,-0.9622041371799229
-3.961,0.4408910299368829,-1.078767159636765
-3.9605,0.4302208550792003,-1.174136905283272
-3.96,0.3875401556484697,-1.174136905283272
-3.9595,0.3661998059331045,-1.046977244421262
-3.959,0.3448594562177392,-0.8562377531282487
-3.9585,0.3235191065023739,-0.6337083466197325
-3.958,0.3021787567870086,-0.4429688553267188
-3.9575,0.2594980573562781,-0.5383386009732256
-3.957,0.4622313796522482,-0.7714646458869092
-3.9565,-0.1032878878049318,-1.142346990067769
-3.956,-0.9035510021311299,-1.396666311791788
-3.9555,-1.351698346153801,-1.290699927740113
-3.955,-1.084943974711735,-0.5595318777835605
-3.9545,-0.5834457564006506,0.309392471440169
-3.954,-0.1459685872356623,0.9875773293708847
-3.9535,0.1527963087794516,1.432636142387917
-3.953,0.3021787567870086,1.644568910491266
-3.9525,0.3661998059331045,1.70814874092227
-3.952,0.3661998059331045,1.655165548896433
-3.9515,0.3555296310754218,1.549199164844759
-3.951,0.3448594562177392,1.411442865577582
-3.9505,0.3982103305061524,1.358459673551745
-3.95,0.4622313796522482,1.316073119931075
-3.9495,0.4729015545099309,1.347863035146577
-3.949,0.2808384070716433,1.612778995275763
-3.9485,0.02475421048725994,1.411442865577582
-3.948,-0.6367966306890638,0.3729723018711736
-3.9475,-1.095614149569417,-0.570128516188728
-3.947,-1.020922925565639,-0.9304142219644207
-3.9465,-0.5621054066852853,-0.9622041371799229
-3.946,-0.09261771294724913,-0.9516074987747555
-3.9455,0.2274875327832301,-1.01518732920576
-3.945,0.3875401556484697,-1.078767159636765
-3.9445,0.4302208550792003,-1.121153713257435
-3.944,0.4302208550792003,-1.205926820498774
-3.9435,0.1741366584948169,-1.34368311976595
-3.943,0.05676473506030786,-1.216523458903942
-3.9425,0.08877525963335578,-0.9198175835592532
-3.942,0.1634664836371343,-0.6125150698093976
-3.9415,0.2381577076409128,-0.326405832869877
-3.941,0.3128489316446912,-0.252229364033705
-3.9405,0.6009436528021226,-0.5171453241628908
-3.94,0.2274875327832301,-0.9516074987747555
-3.9395,-0.5514352318276028,-1.311893204550448
-3.939,-1.202315898146244,-1.407262950196955
-3.9385,-1.148965023857831,-0.8668343915334161
-3.938,-0.7008176798351597,-0.04029659593035631
-3.9375,-0.2526703358124887,0.6590815388106942
-3.937,0.08877525963335578,1.125333628638062
-3.9365,0.2701682322139607,1.369056311956912
-3.936,0.3448594562177392,1.432636142387917
-3.9355,0.3661998059331045,1.390249588767247
-3.935,0.3555296310754218,1.284283204715573
-3.9345,0.3448594562177392,1.167720182258731
-3.934,0.3768699807907871,1.104140351827727
-3.9335,0.4302208550792003,1.082947075017392
-3.933,0.4942419042252961,1.125333628638062
-3.9325,0.408880505363835,1.390249588767247
-3.932,0.3875401556484697,1.432636142387917
-3.9315,-0.2953510352432193,0.5319218779486851
-3.931,-0.9675720512772257,-0.5065486857577234
-3.9305,-1.1062843244271,-1.025783967610927
-3.93,-0.722158029550525,-1.068170521231597
-3.9295,-0.2633405106701714,-0.9516074987747555
-3.929,0.07810508477567314,-0.8986243067489184
-3.9285,0.291508581929326,-0.9516074987747555
-3.928,0.3982103305061524,-1.05757388282643
-3.9275,0.4408910299368829,-1.152943628472937
-3.927,0.3128489316446912,-1.237716735714276
-3.9265,0.1314559590640864,-1.205926820498774
-3.926,0.1101156093487211,-0.9516074987747555
-3.9255,0.1527963087794516,-0.6549016234300674
-3.925,0.2274875327832301,-0.3581957480853793
-3.9245,0.3235191065023739,-0.1250697031716958
-3.924,0.8463576745288233,0.002089957690313421
-3.9235,0.9637295979633325,-0.02969995752518888
-3.923,0.4835717293676135,-0.5171453241628908
-3.9225,-0.2633405106701714,-1.004590690800593
-3.922,-0.6474668055467465,-0.9516074987747555
-3.9215,-0.5300948821122373,-0.3370024712750445
-3.921,-0.2420001609548061,0.3305857482505039
-3.9205,0.02475421048725994,0.849821030103708
-3.92,0.1954770082101822,1.178316820663898
-3.9195,0.291508581929326,1.326669758336243
-3.919,0.3235191065023739,1.369056311956912
-3.9185,0.3341892813600565,1.326669758336243
-3.918,0.3341892813600565,1.25249328950007
-3.9175,0.3875401556484697,1.241896651094903
-3.917,0.4515612047945656,1.25249328950007
-3.9165,0.5049120790829789,1.25249328950007
-3.916,0.4515612047945656,1.358459673551745
-3.9155,0.4408910299368829,1.633972272086098
-3.915,0.00341386077189465,1.188913459069066
-3.9145,-0.6794773301197943,0.1292496185523226
-3.914,-0.9035510021311299,-0.5595318777835605
-3.9135,-0.6047861061160158,-0.7290780922662394
-3.913,-0.1886492866663929,-0.8032545611024114
-3.9125,0.1207857842064037,-0.8986243067489184
-3.912,0.291508581929326,-1.01518732920576
-3.9115,0.3661998059331045,-1.0999604364471
-3.911,0.408880505363835,-1.142346990067769
-3.9105,0.3661998059331045,-1.174136905283272
-3.91,0.142126133921769,-1.205926820498774
-3.9095,0.08877525963335578,-1.004590690800593
-3.909,0.1314559590640864,-0.7078848154559045
-3.9085,0.2061471830678648,-0.4111789401112165
-3.908,0.2488278824985954,-0.1250697031716958
-3.9075,-0.03926683865883591,-0.2416327256285375
-3.907,-0.4554036581084589,-0.718481453861072
-3.9065,-0.9569018764195432,-1.110557074852267
-3.906,-1.46907026958831,-1.290699927740113
-3.9055,-1.799845690176472,-1.205926820498774
-3.905,-1.362368521011484,-0.5277419625680583
-3.9045,-0.722158029550525,0.3199891098453364
-3.904,-0.1993194615240755,0.9769806909657173
-3.9035,0.142126133921769,1.37965295036208
-3.903,0.3128489316446912,1.538602526439591
-3.9025,0.3768699807907871,1.538602526439591
-3.902,0.3768699807907871,1.432636142387917
-3.9015,0.3555296310754218,1.263089927905238
-3.901,0.3768699807907871,1.146526905448396
-3.9005,0.4515612047945656,1.093543713422559
-3.9,0.5262524287983441,1.040560521396722
-3.8995,0.5155822539406614,0.9663840525605498
-3.899,0.4302208550792003,1.199510097474233
-3.8985,0.2061471830678648,1.051157159801889
-3.898,-0.5514352318276028,0.1186529801471552
-3.8975,-1.212986073003927,-0.8350444763179138
-3.897,-1.180975548430879,-1.131750351662602
-3.8965,-0.7114878546928423,-0.9833974139902578
-3.896,-0.2099896363817582,-0.8138511995075789
-3.8955,0.1314559590640864,-0.7290780922662394
-3.895,0.3341892813600565,-0.8350444763179138
-3.8945,0.4195506802215176,-1.004590690800593
-3.894,0.4408910299368829,-1.121153713257435
-3.8935,0.2701682322139607,-1.237716735714276
-3.893,0.1634664836371343,-1.152943628472937
-3.8925,0.1634664836371343,-0.9198175835592532
-3.892,0.2061471830678648,-0.6443049850249
-3.8915,0.2488278824985954,-0.3793890248957141
-3.891,0.2488278824985954,-0.2840192792492073
-3.8905,0.4302208550792003,-0.6019184314042303
-3.89,0.3341892813600565,-1.05757388282643
-3.8895,-0.3700422592469978,-1.407262950196955
-3.889,-1.095614149569417,-1.534422611058964
-3.8885,-1.212986073003927,-1.078767159636765
-3.888,-0.8181896032696687,-0.2416327256285375
-3.8875,-0.3487019095316325,0.5213252395435176
-3.887,0.01408403562957729,1.040560521396722
-3.8865,0.2274875327832301,1.326669758336243
-3.886,0.3235191065023739,1.42203950398275
-3.8855,0.3555296310754218,1.400846227172415
