Class_2_Relax_eyes_open/Class_2_Relax_eyes_open_SH_4.csv

#Digilent WaveForms Oscilloscope Acquisition
#Device Name: EExplorer
#Serial Number: SN:210151A2B84A
#Date Time: 2020-12-07 14:10:24.693
#Sample rate: 2000Hz
#Samples: 16384
#Trigger: Source: Channel 1 Type: Edge Condition: Rising Level: 0 V Hyst.: Auto HoldOff: 0 s
#Channel 1: Range: 1 V/div Offset: 0 V Attenuation: 1 X
#Channel 2: Range: 1 V/div Offset: 0 V Attenuation: 1 X
#Power Supplies: ON
#Fixed Supply: ON
#Voltage: 3.3 V Readback: 3.324 V
#Positive Supply: ON
#Voltage: 3.7 V Readback: 3.716 V
#Current: 50 mA Readback: 19 mA
#Negative Supply: ON
#Voltage: -3.7 V Readback: -3.706 V
#Current: -50 mA Readback: -6 mA
#Reference 1: ON
#Voltage: 0 V
#Reference 2: ON
#Voltage: 0 V

Time (s),Channel 1 (V),Channel 2 (V)
-4.096,-0.5087545323968721,-0.5277419625680583
-4.0955,-0.07127736323228173,0.1504428953620406
-4.095,0.2488278824987604,0.6166949851902558
-4.0945,0.4302208550792003,0.8710143069140429
-4.094,0.5155822539405838,0.9769806909656209
-4.0935,0.5262524287983344,0.9981739677760232
-4.093,0.5155822539406614,0.9663840525605498
-4.0925,0.5049120790829885,0.9239974989399186
-4.092,0.4729015545099018,0.8922075837243489
-4.0915,0.4408910299368829,0.8604176685088755
-4.091,0.3982103305061524,0.8710143069140429
-4.0905,0.09944543449053379,0.9345941373446138
-4.09,-0.4554036581084589,0.457745409112513
-4.0895,-0.9035510021311299,-0.4429688553267188
-4.089,-1.362368521011066,-1.3012965661445
-4.0885,-1.693143941599645,-1.51322933424863
-4.088,-1.287677297007705,-0.9728007755850904
-4.0875,-0.5514352318282724,-0.3899856633014116
-4.087,0.08877525963368574,-0.04029659593020211
-4.0865,0.4515612047945656,0.1292496185523226
-4.086,0.6116138276596595,0.1186529801471648
-4.0855,0.6649647019481602,0.03387987290567115
-4.085,0.6009436528021226,-0.1250697031716958
-4.0845,0.4622313796523744,-0.2522293640335893
-4.084,0.4195506802215467,-0.167456256792221
-4.0835,0.4515612047945656,-0.008506680714854012
-4.083,0.5049120790829789,0.13984625695749
-4.0825,0.5369226036558131,0.2458126410088078
-4.082,0.3021787567870086,-0.1462629799820306
-4.0815,0.142126133921769,-0.9198175835592532
-4.081,-0.5194247072539532,-1.619195718299668
-4.0805,-1.202315898146244,-2.000674700886331
-4.08,-1.138294849000148,-1.534422611058964
-4.0795,-0.6474668055471929,-0.6972881770514986
-4.079,-0.1352984123776497,0.04447651131142648
-4.0785,0.2274875327832301,0.5319218779486851
-4.078,0.430220855079016,0.7756445612673144
-4.0775,0.5155822539406808,0.8604176685088658
-4.077,0.5369226036560266,0.849821030103708
-4.0765,0.5262524287983538,0.7968378380779191
-4.076,0.5049120790829594,0.7332580076468375
-4.0755,0.4835717293676135,0.701468092431364
-4.075,0.4622313796522482,0.6802748156210291
-4.0745,0.4515612047945268,0.616694985189957
-4.074,0.408880505363835,0.5425185163538525
-4.0735,-0.1352984123779797,0.2246193641988295
-4.073,-0.9675720512764687,-0.5913217929983208
-4.0725,-1.554431668449771,-1.396666311791788
-4.072,-1.970568487899394,-1.831128486403653
-4.0715,-1.73582464103059,-1.343683119766394
-4.071,-0.9782422261342388,-0.6443049850244085
-4.0705,-0.2420001609548061,-0.1038764263613609
-4.07,0.3128489316441866,0.1186529801469528
-4.0695,0.6116138276598925,0.2034260873885043
-4.069,0.707645401378949,0.2140227257936621
-4.0685,0.7183155762366316,0.1610395337678249
-4.068,0.7503261008096699,-0.02969995752521779
-4.0675,0.7396559259519968,-0.06148987274069118
-4.067,0.6756348768059011,-0.008506680714854012
-4.0665,0.622284002517449,0.0974597033369167
-4.066,0.5796033030867573,0.2034260873884947
-4.0655,0.6116138276598051,0.309392471440169
-4.065,0.9317190733899934,0.669678177215534
-4.0645,0.5369226036560266,0.55311515475902
-4.064,-0.2633405106701714,-0.2416327256285375
-4.0635,-0.9675720512765852,-0.9516074987741098
-4.063,-0.9995825758498952,-1.004590690800178
-4.0625,-0.5834457564006506,-0.5489352393783931
-4.062,-0.1246282375207143,-0.01910331912050323
-4.0615,0.2168173579257222,0.4047622170869264
-4.061,0.408880505363835,0.6802748156210291
-4.0605,0.5049120790829789,0.8286277532933731
-4.06,0.5262524287983344,0.8922075837243971
-4.0595,0.5155822539406614,0.9134008605347127
-4.059,0.4942419042252961,0.9134008605347127
-4.0585,0.4515612047946044,0.9239974989398704
-4.058,0.4195506802215176,0.92399749893988
-4.0575,0.3448594562177392,0.9769806909657173
-4.057,-0.01792648894314064,0.6060983467851944
-4.0565,-0.2099896363817582,0.03387987290581572
-4.056,-0.6047861061160158,-0.7502713690765743
-4.0555,-1.042263275280606,-1.449649503816989
-4.055,-1.180975548430539,-1.47084278062741
-4.0545,-0.807519428411986,-0.8668343915334161
-4.054,-0.2846808603860121,-0.2840192792497372
-4.0535,0.1741366584950595,0.01268659609556759
-4.053,0.4408910299368829,0.1080563417419877
-4.0525,0.5902734779444399,0.08686306493165288
-4.052,0.6756348768059981,0.03387987290569043
-4.0515,0.7823366253827275,-0.1038764263613609
-4.051,0.857027849386506,-0.1780528951975329
-4.0505,0.7930068002404682,-0.1144730647665862
-4.05,0.6969752265212663,0.002089957690313421
-4.0495,0.6542945270905358,0.1186529801471552
-4.049,0.63295417737519,0.2034260873884176
-4.0485,0.675634876805804,0.1080563417416312
-4.048,0.5689331282290746,-0.2840192792492073
-4.0475,-0.007256314085263948,-0.9939940523947797
-4.047,-0.7861790786967566,-1.534422611058829
-4.0465,-0.9355615267041777,-1.38606967338662
-4.046,-0.5834457564009707,-0.7184814538616792
-4.0455,-0.1566387620930344,-0.05089323433508042
-4.045,0.1848068333524996,0.4365521323021782
-4.0445,0.3875401556484697,0.7226613692416989
-4.044,0.4835717293676426,0.8498210301037369
-4.0435,0.5155822539406614,0.8816109453192104
-4.043,0.5049120790829789,0.8604176685088755
-4.0425,0.4942419042253058,0.8392243916985599
-4.042,0.4729015545099309,0.8286277532933731
-4.0415,0.4408910299368829,0.8286277532933731
-4.041,0.3982103305061912,0.8498210301036887
-4.0405,0.1848068333522764,0.9451907757505426
-4.04,-0.06060718837420119,1.305476481525908
-4.0395,-0.2313299860969682,1.157123543853698
-4.039,-0.7541685541240583,0.1292496185515709
-4.0385,-1.287677297007705,-0.6972881770507372
-4.038,-1.116954499284938,-0.6972881770507372
-4.0375,-0.5407650569694542,-0.4323722169212815
-4.037,-0.02859666380115328,-0.1356663415768632
-4.0365,0.3341892813600565,0.05507314971615059
-4.036,0.5689331282291716,0.182232810578179
-4.0355,0.6756348768059011,0.2034260873884947
-4.035,0.7289857510943143,0.1822328105781598
-4.0345,0.7396559259519871,0.1398462569575286
-4.034,0.707645401378949,0.1292496185523226
-4.0335,0.6542945270905358,0.1716361721729923
-4.033,0.611613827659844,0.2246193641987813
-4.0325,0.5689331282288514,0.2776025562244546
-4.032,0.3235191065023739,0.04447651131098315
-4.0315,-0.4874141826807694,-0.6654982618345892
-4.031,-1.287677297008074,-1.396666311792183
-4.0305,-1.693143941599645,-1.831128486403653
-4.03,-1.362368521011784,-1.449649503817972
-4.0295,-0.7114878546923182,-0.6443049850242349
-4.029,-0.1352984123779797,0.08686306493165288
-4.0285,0.2488278824985954,0.5743084315693548
-4.028,0.4515612047946335,0.8286277532934598
-4.0275,0.5262524287983441,0.92399749893988
-4.027,0.5369226036560266,0.92399749893988
-4.0265,0.5155822539406808,0.8710143069140911
-4.026,0.4835717293676135,0.8074344764830383
-4.0255,0.4729015545099309,0.7650479228623686
-4.025,0.4408910299369121,0.7650479228623686
-4.0245,0.3982103305060359,0.7544512844571722
-4.024,0.2701682322139607,0.7226613692416989
-4.0235,-0.3060212101003779,0.1292496185528623
-4.023,-0.9782422261352384,-0.7714646458875164
-4.0225,-1.341028171296118,-1.439052865412457
-4.022,-1.618452717595615,-1.650985633515613
-4.0215,-1.319687821580112,-1.258910012524071
-4.021,-0.6154562809736985,-0.6654982618352349
-4.0205,0.01408403562957729,-0.2310360872233701
-4.02,0.3982103305063271,0.05507314971626624
-4.0195,0.5902734779444399,0.1822328105781598
-4.019,0.6863050516635838,0.1186529801471552
-4.0185,0.7289857510942754,0.0656697881213662
-4.018,0.8463576745288233,0.03387987290581572
-4.0175,0.8356874996711408,0.02328323450064829
-4.017,0.7503261008097571,0.04447651131096388
-4.0165,0.6649647019481698,0.08686306493170107
-4.016,0.6116138276598051,0.13984625695749
-4.0155,0.5796033030867864,0.04447651131106989
-4.015,0.3235191065018692,-0.5489352393790194
-4.0145,-0.2313299860971235,-1.237716735714276
-4.014,-0.9889124009919021,-1.756952017567008
-4.0135,-1.501080794161144,-1.905304955239295
-4.013,-1.26633694729234,-1.322489842955616
-4.0125,-0.6794773301197943,-0.474758770542221
-4.012,-0.13529841237764,0.2458126410095884
-4.0115,0.2381577076409128,0.7120647308365314
-4.011,0.4408910299368829,0.9451907757502149
-4.0105,0.5155822539405934,1.029963882991477
-4.01,0.5262524287983441,1.019367244586387
-4.0095,0.5049120790829789,0.9663840525605498
-4.009,0.47290155450996,0.9028042221296031
-4.0085,0.4302208550791712,0.8710143069140718
-4.008,0.3982103305061524,0.9028042221295453
-4.0075,0.3341892813601148,0.9345941373450186
-4.007,-0.007256314086438187,0.7014680924306219
-4.0065,-0.722158029550525,-0.1144730647665284
-4.006,-1.405049220442214,-1.05757388282643
-4.0055,-1.821186039891478,-1.566212526274149
-4.005,-1.426389570157579,-1.216523458903942
-4.0045,-0.690147504977477,-0.6337083466197325
-4.004,-0.0285966638007651,-0.2098428104127847
-4.0035,0.3982103305061524,0.06566978812131802
-4.003,0.6116138276598051,0.13984625695749
-4.0025,0.6969752265211887,0.1292496185523322
-4.002,0.6969752265212663,0.07626642652648545
-4.0015,0.8676980242441885,-0.1886495336027004
-4.001,1.038420821966956,-0.4005823017058563
-4.0005,0.9637295979631869,-0.3052125560593686
-4,0.8036769750980928,-0.1144730647665284
-3.9995,0.6863050516635838,0.06566978812131802
-3.999,0.5689331282290746,0.1822328105781598
-3.9985,0.04609456020262521,-0.1992461720078678
-3.998,-0.5087545323968721,-0.9622041371799229
-3.9975,-1.138294849000148,-1.629792356705471
-3.997,-1.661133417026597,-2.032464616101834
-3.9965,-1.607782542738184,-1.788741932782983
-3.996,-0.9889124009925911,-0.9622041371799229
-3.9955,-0.3487019095316325,-0.1674562567923655
-3.995,0.1207857842064037,0.3941655786815084
-3.9945,0.3875401556484697,0.701468092431364
-3.994,0.5049120790829789,0.8180311148882058
-3.9935,0.5369226036560266,0.8286277532933731
-3.993,0.5155822539406614,0.775644561267536
-3.9925,0.4942419042252961,0.7226613692416989
-3.992,0.4622313796522482,0.701468092431364
-3.9915,0.4302208550792003,0.6696781772158616
-3.991,0.3875401556484697,0.6696781772158616
-3.9905,0.2061471830678648,0.627291623595192
-3.99,-0.4874141826815069,0.02328323450064829
-3.9895,-1.223656247861609,-0.8668343915334161
-3.989,-1.639793067311232,-1.598002441489969
-3.9885,-1.949228138184029,-1.926498232050159
-3.988,-1.618452717595867,-1.354279758171118
-3.9875,-0.8928808272734472,-0.5595318777835605
-3.987,-0.1886492866663929,-0.008506680714854012
-3.9865,0.3021787567870086,0.2564092794143318
-3.986,0.5902734779444399,0.2776025562246667
-3.9855,0.7183155762366316,0.2458126410091644
-3.985,0.79300680024041,0.1610395337678249
-3.9845,0.9317190733902845,-0.04029659593035631
-3.984,0.974399772821015,-0.1038764263613609
-3.9835,0.9317190733902845,-0.05089323433552374
-3.983,0.8143471499557753,0.03387987290581572
-3.9825,0.6969752265212663,0.1186529801471552
-3.982,0.4835717293676135,0.01268659609548085
-3.9815,0.3128489316446912,-0.3899856633008816
-3.981,-0.1459685872356623,-1.036380606016095
-3.9805,-0.8715404775580819,-1.640388995110639
-3.98,-1.26633694729234,-1.79933857118815
-3.9795,-0.9675720512772257,-1.163540266878104
-3.979,-0.4340633083930936,-0.3581957480853793
-3.9785,0.01408403562957729,0.2776025562246667
-3.978,0.3021787567870086,0.6802748156210291
-3.9775,0.4515612047945656,0.8816109453192104
-3.977,0.5049120790829789,0.9451907757502149
-3.9765,0.5155822539406614,0.92399749893988
-3.976,0.4942419042252961,0.8816109453192104
-3.9755,0.4729015545099309,0.8392243916985406
-3.975,0.4515612047945656,0.7968378380778709
-3.9745,0.4195506802215176,0.775644561267536
-3.974,0.2808384070716433,0.8604176685088755
-3.9735,-0.3807124341046804,0.9028042221295453
-3.973,-1.255666772434657,0.6696781772158616
-3.9725,-1.767835165603424,-0.09327978795619347
-3.972,-1.810515865034154,-0.8562377531282487
-3.9715,-1.298347471865388,-0.9304142219644207
-3.971,-0.5621054066852853,-0.5595318777835605
-3.9705,0.02475421048725994,-0.2098428104130352
-3.97,0.408880505363835,0.02328323450064829
-3.9695,0.6116138276598051,0.1610395337678249
-3.969,0.707645401378949,0.1610395337678249
-3.9685,0.7183155762366316,0.08686306493165288
-3.968,0.6222840025174878,-0.09327978795619347
-3.9675,0.5582629533713921,-0.1038764263613609
-3.967,0.5262524287983441,0.02328323450064829
-3.9665,0.5049120790829789,0.1610395337678249
-3.966,0.5049120790829789,0.2881991946298341
-3.9655,0.4835717293676135,0.2670059178194992
-3.965,0.5582629533713921,0.09745970333682032
-3.9645,0.3661998059331045,-0.02969995752518888
-3.964,-0.5087545323968721,-0.7290780922662394
-3.9635,-1.244996597576974,-1.364876396576285
-3.963,-1.180975548430879,-1.227120097309109
-3.9625,-0.6794773301197943,-0.6125150698093976
-3.962,-0.1673089369510276,0.002089957690313421
-3.9615,0.1954770082101822,0.4471487707073456
-3.961,0.408880505363835,0.701468092431364
-3.9605,0.4942419042252961,0.8180311148882058
-3.96,0.5155822539406614,0.849821030103708
-3.9595,0.5049120790829789,0.8286277532933731
-3.959,0.4729015545099309,0.8074344764830383
-3.9585,0.4622313796522482,0.7650479228623686
-3.958,0.4408910299368829,0.7438546460520338
-3.9575,0.3875401556484697,0.8074344764830383
-3.957,-0.08194753808956648,0.8816109453192104
-3.9565,-0.9462317015618604,0.457745409112513
-3.956,-1.458400094730627,-0.4323722169215513
-3.9555,-1.682473766741963,-1.205926820498774
-3.955,-1.565101843307454,-1.311893204550448
-3.9545,-1.010252750707956,-0.8774310299385835
-3.954,-0.4020527838200457,-0.3475991096802118
-3.9535,0.1101156093487211,0.02328323450064829
-3.953,0.4408910299368829,0.1610395337678249
-3.9525,0.6329541773751706,0.1186529801471552
-3.952,0.6969752265212663,0.08686306493165288
-3.9515,0.7289857510943143,0.07626642652648545
-3.951,0.8036769750980928,0.08686306493165288
-3.9505,0.8143471499557753,0.1292496185523226
-3.95,0.7289857510943143,0.1610395337678249
-3.9495,0.6329541773751706,0.2140227257936621
-3.949,0.5689331282290746,0.2776025562246667
-3.9485,0.7823366253827275,0.4365521323021782
-3.948,0.8143471499557753,0.6696781772158616
-3.9475,0.01408403562957729,0.03387987290581572
-3.947,-0.807519428411986,-0.792657922697244
-3.9465,-1.298347471865388,-1.311893204550448
-3.946,-1.042263275281004,-1.025783967610927
-3.9455,-0.5194247072545548,-0.400582301706049
-3.945,-0.03926683865883591,0.1716361721729923
-3.9445,0.2701682322139607,0.5743084315693548
-3.944,0.4408910299368829,0.8074344764830383
-3.9435,0.5049120790829789,0.9134008605347127
-3.943,0.5049120790829789,0.9451907757502149
-3.9425,0.4835717293676135,0.9345941373450475
-3.942,0.4622313796522482,0.92399749893988
-3.9415,0.4408910299368829,0.9028042221295453
-3.941,0.3982103305061524,0.9451907757502149
-3.9405,0.1848068333524996,0.9981739677760521
-3.94,-0.5087545323968721,0.775644561267536
-3.9395,-1.223656247861609,0.04447651131098315
-3.939,-1.629122892453549,-0.8562377531282487
-3.9385,-1.725154466172693,-0.8986243067489184
-3.938,-1.234326422719292,-0.4959520473525559
-3.9375,-0.5941159312583333,-0.1674562567923655
-3.937,-0.007256314085787988,0.002089957690313421
-3.9365,0.408880505363835,0.08686306493165288
-3.936,0.6542945270905358,0.01268659609548085
-3.9355,0.7396559259519968,-0.1144730647665284
-3.935,0.7823366253827275,-0.2204394488182027
-3.9345,0.9317190733902845,-0.2946159176543747
-3.934,0.9103787236749192,-0.1992461720078678
-3.9335,0.7823366253827275,-0.05089323433552374
-3.933,0.6649647019482183,0.09745970333682032
-3.9325,0.6009436528021226,0.2246193641988295
-3.932,0.3128489316446912,0.06566978812131802
-3.9315,-0.4340633083930936,-0.6337083466197325
-3.931,-1.148965023857831,-1.354279758171118
-3.9305,-1.639793067311232,-1.831128486403653
-3.93,-1.778505340461106,-1.873515040024322
-3.9295,-1.234326422719292,-1.152943628472937
-3.929,-0.5407650569699201,-0.3052125560595421
-3.9285,-0.007256314085787988,0.3517790250608387
-3.928,0.3235191065023739,0.7544512844572011
-3.9275,0.4835717293676135,0.9345941373450475
-3.927,0.5262524287983441,0.9663840525605498
-3.9265,0.5262524287983441,0.9345941373450475
-3.926,0.4942419042252961,0.849821030103708
-3.9255,0.4729015545099309,0.7862411996727035
-3.925,0.4408910299368829,0.7650479228623686
-3.9245,0.3982103305061524,0.775644561267536
-3.924,0.3235191065023739,0.8074344764830383
-3.9235,-0.09261771294724913,0.6060983467848571
-3.923,-0.839529952985034,-0.2098428104130352
-3.9225,-1.415719395299897,-1.121153713257435
-3.922,-1.629122892453549,-1.545019249464132
-3.9215,-1.191645723288561,-1.0999604364471
-3.921,-0.5514352318276028,-0.4853554089473885
-3.9205,-0.007256314085787988,-0.1038764263613609
-3.92,0.3555296310754218,0.08686306493165288
-3.9195,0.5582629533713921,0.1822328105781598
-3.919,0.6542945270905358,0.1716361721729923
-3.9185,0.6756348768059011,0.07626642652648545
-3.918,0.8036769750980928,-0.08268314955102604
-3.9175,0.8143471499557753,-0.1568596183871981
-3.917,0.7289857510943143,-0.1038764263613609
-3.9165,0.6329541773751706,0.002089957690313421
-3.916,0.5689331282290746,0.1186529801471552
-3.9155,0.5582629533713921,0.309392471440169
-3.915,0.8783681991018712,0.849821030103708
-3.9145,0.7823366253827275,0.9875773293708847
-3.914,-0.124628237520297,0.1292496185523226
-3.9135,-1.052933450138687,-0.8668343915334161
-3.913,-1.170305373573196,-1.089363798041932
-3.9125,-0.7434983792658902,-0.6337083466197325
-3.912,-0.2420001609548061,-0.04029659593035631
-3.9115,0.142126133921769,0.4471487707073456
-3.911,0.3661998059331045,0.775644561267536
-3.9105,0.4729015545099309,0.9557874141553824
-3.91,0.5049120790829789,1.040560521396722
-3.9095,0.4942419042252961,1.061753798207057
-3.909,0.4729015545099309,1.051157159801889
-3.9085,0.4515612047945656,1.061753798207057
-3.908,0.4195506802215176,1.093543713422559
-3.9075,0.3768699807907871,1.125333628638062
-3.907,0.08877525963335578,1.093543713422559
-3.9065,-0.7114878546928423,0.8816109453192104
-3.906,-1.479740444445993,0.5743084315693548
-3.9055,-1.970568487899394,-0.3370024712750445
-3.905,-2.151961460479999,-0.8032545611024114
-3.9045,-1.607782542738184,-0.5807251545938954
-3.904,-0.754168554123573,-0.2098428104130352
-3.9035,-0.03926683865883591,0.05507314971615059
-3.903,0.4195506802215176,0.08686306493165288
-3.9025,0.6649647019482183,-0.01910331912002144
-3.902,0.7503261008096795,-0.07208651114585861
-3.9015,0.7609962756673623,-0.1144730647665284
-3.901,0.7609962756673623,-0.1462629799820306
-3.9005,0.707645401378949,-0.1038764263613609
-3.9,0.6329541773751706,-0.02969995752518888
-3.8995,0.5902734779444399,0.04447651131098315
-3.899,0.5689331282290746,0.1080563417419877
-3.8985,0.142126133921769,-0.2628260024388724
-3.898,-0.6367966306890638,-0.9833974139902578
-3.8975,-1.159635198715513,-1.587405803084801
-3.897,-1.501080794161358,-1.926498232050159
-3.8965,-1.330357996438436,-1.566212526274467
-3.896,-0.754168554123573,-0.718481453861072
-3.8955,-0.1886492866663929,0.06566978812131802
-3.895,0.1954770082101822,0.6166949851900245
-3.8945,0.408880505363835,0.92399749893988
-3.894,0.5049120790829789,1.040560521396722
-3.8935,0.5155822539406614,1.051157159801889
-3.893,0.5049120790829789,0.9981739677760521
-3.8925,0.4835717293676135,0.9134008605347127
-3.892,0.4622313796522482,0.849821030103708
-3.8915,0.4408910299368829,0.7862411996727035
-3.891,0.4302208550792003,0.7226613692416989
-3.8905,0.2701682322139607,0.6484849004055269
-3.89,-0.2953510352432193,0.01268659609548085
-3.8895,-0.7861790786966207,-0.8880276683437509
-3.889,-1.138294849000148,-1.598002441489969
-3.8885,-1.554431668449771,-1.820531847998485
-3.888,-1.394379045584531,-1.216523458903942
-3.8875,-0.7861790786966207,-0.5065486857577234
-3.887,-0.1779791118087102,-0.09327978795619347
