Class_2_Relax_eyes_open/Class_2_Relax_Eyes_open_Turki_5.csv

#Digilent WaveForms Oscilloscope Acquisition
#Device Name: EExplorer
#Serial Number: SN:210151A2B84A
#Date Time: 2020-11-18 11:29:45.989
#Sample rate: 2000Hz
#Samples: 16384
#Trigger: Source: Channel 1 Type: Edge Condition: Rising Level: 0 V Hyst.: Auto HoldOff: 0 s
#Channel 1: Range: 1 V/div Offset: 0 V Attenuation: 1 X
#Channel 2: Range: 1 V/div Offset: 0 V Attenuation: 1 X
#Power Supplies: ON
#Fixed Supply: ON
#Voltage: 3.3 V Readback: 3.323 V
#Positive Supply: ON
#Voltage: 3.7 V Readback: 3.715 V
#Current: 500 mA Readback: 21 mA
#Negative Supply: ON
#Voltage: -3.7 V Readback: -3.707 V
#Current: -500 mA Readback: -9 mA
#Reference 1: ON
#Voltage: 0 V
#Reference 2: ON
#Voltage: 0 V

Time (s),Channel 1 (V),Channel 2 (V)
-4.096,0.2594980573562781,1.199510097474233
-4.0955,0.2594980573562781,1.210106735879391
-4.095,0.238157707640903,1.210106735879381
-4.0945,0.2274875327832301,1.188913459069066
-4.094,0.2168173579255572,1.146526905448435
-4.0935,-0.09261771294780229,0.881610945318449
-4.093,-0.7008176798351597,0.04447651131098315
-4.0925,-1.074273799853712,-0.8562377531274294
-4.092,-1.223656247861395,-1.354279758170781
-4.0915,-0.9889124009925911,-0.9833974139902578
-4.091,-0.423393133535411,-0.4535654937318862
-4.0905,0.07810508477595457,-0.06148987274049843
-4.09,0.3875401556484697,0.1504428953626575
-4.0895,0.5155822539406614,0.2034260873884947
-4.089,0.5369226036560072,0.1186529801472323
-4.0885,0.4835717293676135,0.03387987290581572
-4.088,0.4302208550792003,-0.04029659593035631
-4.0875,0.3768699807908356,-0.04029659593035631
-4.087,0.3341892813600275,-0.008506680714825099
-4.0865,0.3021787567870086,0.02328323450064829
-4.086,0.2808384070716627,0.06566978812127947
-4.0855,0.3021787567873386,0.1504428953630912
-4.085,0.6649647019482183,0.627291623595192
-4.0845,0.8356874996709855,1.093543713422135
-4.084,0.1848068333516941,0.5001319627323926
-4.0835,-0.7008176798351597,-0.3687923864905467
-4.083,-1.06360362499637,-0.8986243067489184
-4.0825,-0.8288597781269826,-0.707884815455413
-4.082,-0.423393133535411,-0.1674562567923655
-4.0815,-0.08194753808956648,0.3623756634660061
-4.081,0.1314559590638923,0.7650479228620024
-4.0805,0.2381577076409128,1.00877060618122
-4.08,0.2808384070716433,1.146526905448396
-4.0795,0.2808384070716433,1.199510097474185
-4.079,0.2594980573562586,1.210106735879391
-4.0785,0.2381577076409128,1.199510097474233
-4.078,0.2274875327832398,1.16772018225876
-4.0775,0.2168173579253825,1.125333628637898
-4.077,0.03542438534494258,0.9451907757502149
-4.0765,-0.6154562809731066,0.1928294489840114
-4.076,-1.01025275070816,-0.7608680074824453
-4.0755,-1.234326422719292,-1.534422611058964
-4.075,-1.277007122150022,-1.79933857118815
-4.0745,-0.6154562809731066,-1.301296566144712
-4.074,0.03542438534494258,-0.6760949002404023
-4.0735,0.4302208550792003,-0.1992461720078678
-4.073,0.5796033030866214,0.0656697881210771
-4.0725,0.5796033030867573,0.06566978812131802
-4.072,0.5262524287983441,-0.02969995752518888
-4.0715,0.536922603656017,-0.1356663415767668
-4.071,0.643624352232824,-0.1886495336025655
-4.0705,0.6116138276598051,-0.04029659593035631
-4.07,0.5049120790830759,0.1292496185521684
-4.0695,0.4088805053637671,0.267005917819586
-4.069,0.3341892813600565,0.3623756634660061
-4.0685,0.5155822539406614,0.5955017083796896
-4.068,0.9530594231054168,1.029963882991092
-4.0675,0.6969752265212663,0.5213252395435176
-4.067,-0.06060718837420119,-0.4323722169215513
-4.0665,-0.6474668055467369,-1.089363798041807
-4.066,-0.6367966306890638,-0.9516074987747555
-4.0655,-0.3807124341046804,-0.400582301706049
-4.065,-0.1032878878051841,0.1504428953621564
-4.0645,0.08877525963335578,0.5637117931641874
-4.064,0.2061471830678648,0.8074344764830383
-4.0635,0.2594980573562296,0.923997498939774
-4.063,0.270168232213951,0.9663840525605498
-4.0625,0.2594980573562781,0.9663840525605498
-4.062,0.2381577076409322,0.9451907757502342
-4.0615,0.2274875327832204,0.9239974989398512
-4.061,0.2168173579255475,0.8922075837243778
-4.0605,0.1527963087794516,0.8286277532933731
-4.06,-0.4340633083936856,0.2881991946289956
-4.0595,-1.084943974711735,-0.6337083466197325
-4.059,-1.405049220442214,-1.449649503817625
-4.0585,-1.767835165603094,-2.011271339290988
-4.058,-1.661133417026597,-1.714565463946811
-4.0575,-1.170305373573196,-0.9410108603695881
-4.057,-0.4767440078244551,-0.2946159176549625
-4.0565,0.02475421048725994,0.06566978812131802
-4.056,0.3235191065023739,0.2458126410091644
-4.0555,0.4515612047944491,0.2881991946297956
-4.055,0.4942419042254805,0.2246193641988873
-4.0545,0.6969752265212663,0.2881991946298341
-4.054,0.7183155762366121,0.2881991946298341
-4.0535,0.6009436528019965,0.2564092794143125
-4.053,0.4622313796522482,0.2352160026039969
-4.0525,0.3555296310754218,0.2246193641988295
-4.052,0.3768699807911947,0.3305857482509376
-4.0515,0.825017324813458,0.8074344764830383
-4.051,0.5475927785137094,0.6696781772158616
-4.0505,-0.07127736323132094,-0.1780528951967619
-4.05,-0.6794773301197943,-0.9833974139902578
-4.0495,-0.7114878546928423,-1.205926820498774
-4.049,-0.4447334832510189,-0.8032545611027777
-4.0485,-0.1459685872354682,-0.1780528951970221
-4.048,0.0674349099179905,0.383568940276341
-4.0475,0.2061471830677387,0.7650479228620216
-4.047,0.2594980573562878,0.9875773293709811
-4.0465,0.2701682322139607,1.093543713422559
-4.046,0.2594980573562878,1.125333628638033
-4.0455,0.248827882498576,1.114736990232885
-4.045,0.2274875327832301,1.104140351827727
-4.0445,0.2168173579255475,1.072350436612224
-4.044,0.1954770082099007,1.01936724458604
-4.0435,-0.1139580626626144,0.6378882620003594
-4.043,-0.7434983792658902,-0.1674562567923655
-4.0425,-1.170305373572808,-1.046977244420462
-4.042,-1.437059745015262,-1.502632695843462
-4.0415,-1.51175096901904,-1.248313374119443
-4.041,-1.116954499285142,-0.6972881770512384
-4.0405,-0.4340633083926181,-0.2098428104127654
-4.04,0.08877525963335578,0.08686306493165288
-4.0395,0.387540155648198,0.1292496185522841
-4.039,0.5049120790829885,0.01268659609541339
-4.0385,0.5155822539406614,-0.06148987274069118
-4.038,0.5796033030866992,-0.1568596183871113
-4.0375,0.6222840025174102,-0.2310360872233219
-4.037,0.5369226036560266,-0.1780528951975329
-4.0365,0.4302208550792003,-0.08268314955102604
-4.036,0.3448594562176809,0.02328323450076394
-4.0355,0.2808384070716433,0.1504428953626575
-4.035,0.4302208550792003,0.6378882620003594
-4.0345,0.4729015545098921,0.9239974989396198
-4.034,-0.2099896363817582,0.2034260873884947
-4.0335,-0.807519428411986,-0.6972881770507372
-4.033,-0.7755089038389673,-1.046977244420944
-4.0325,-0.4767440078235331,-0.7820612842915561
-4.032,-0.156638762093345,-0.2098428104130352
-4.0315,0.07810508477545966,0.3305857482500124
-4.031,0.2061471830679134,0.7226613692419206
-4.0305,0.2594980573562781,0.9663840525605498
-4.03,0.2808384070716239,1.082947075017286
-4.0295,0.2701682322139413,1.125333628638062
-4.029,0.2488278824985954,1.125333628638062
-4.0285,0.2274875327832301,1.114736990232894
-4.028,0.2168173579255475,1.082947075017363
-4.0275,0.2168173579255475,1.051157159801889
-4.027,0.05676473506030786,0.8286277532933731
-4.0265,-0.1032878878047862,0.01268659609622291
-4.026,-0.2420001609548061,-0.8986243067489184
-4.0255,-0.572775581542968,-1.608599079895136
-4.025,-0.7861790786964267,-1.608599079895136
-4.0245,-0.4980843575387819,-1.025783967610407
-4.024,-0.04993701351651855,-0.4535654937318862
-4.0235,0.2808384070713426,-0.1144730647668368
-4.023,0.4729015545099891,-0.008506680714815461
-4.0225,0.5369226036560266,0.03387987290581572
-4.022,0.5262524287983538,0.002089957690342335
-4.0215,0.5582629533715182,-0.09327978795631876
-4.021,0.6969752265212663,-0.2310360872233701
-4.0205,0.6436243522328531,-0.1144730647665284
-4.02,0.5369226036559198,0.07626642652662037
-4.0195,0.4195506802215176,0.2246193641988295
-4.019,0.3448594562177392,0.3411823866556712
-4.0185,0.5689331282288708,0.6272916235949317
-4.018,0.942389248247967,1.125333628638062
-4.0175,0.3768699807907871,0.6802748156210291
-4.017,-0.4660738329653749,-0.3052125560586458
-4.0165,-0.8608703027002439,-1.078767159636871
-4.016,-0.690147504977477,-1.195330182093607
-4.0155,-0.359372084389616,-0.7608680074821369
-4.015,-0.07127736323169945,-0.1568596183867547
-4.0145,0.1314559590640864,0.3305857482505039
-4.014,0.2274875327831428,0.6484849004052378
-4.0135,0.2701682322139607,0.8286277532934406
-4.013,0.2701682322139607,0.9028042221295453
-4.0125,0.2488278824985954,0.9134008605347127
-4.012,0.2274875327832204,0.913400860534703
-4.0115,0.2168173579255475,0.9028042221295453
-4.011,0.2061471830678648,0.8816109453192104
-4.0105,0.1421261339218272,0.7968378380779479
-4.01,-0.3700422592469978,0.1822328105781598
-4.0095,-1.031593100423322,-0.7290780922662394
-4.009,-1.373038695868856,-1.481439419032443
-4.0085,-1.575772018165,-1.566212526273966
-4.008,-1.426389570157579,-1.01518732920576
-4.0075,-0.8502001278432407,-0.400582301706608
-4.007,-0.2526703358121297,0.01268659609563506
-4.0065,0.142126133921769,0.1822328105781598
-4.006,0.3768699807907871,0.2140227257936621
-4.0055,0.4622313796522579,0.1822328105781308
-4.005,0.4729015545099309,0.1504428953626575
-4.0045,0.5475927785137094,0.2458126410091644
-4.004,0.536922603655949,0.309392471440169
-4.0035,0.4515612047945656,0.309392471440169
-4.003,0.3768699807907871,0.2776025562246667
-4.0025,0.3235191065024224,0.2670059178195089
-4.002,0.2594980573562781,0.383568940276341
-4.0015,0.4835717293676135,0.9345941373450475
-4.001,0.3128489316448465,1.21010673587915
-4.0005,-0.4127229586782039,0.4153588554909856
-4,-0.9355615267041777,-0.5277419625680583
-3.9995,-0.807519428411986,-0.8350444763179138
-3.999,-0.4554036581084589,-0.5171453241628908
-3.9985,-0.124628237520297,0.002089957690313421
-3.998,0.09944543449103843,0.4683420475176805
-3.9975,0.2168173579255475,0.7968378380778709
-3.997,0.2701682322139607,0.9981739677760521
-3.9965,0.2808384070716433,1.093543713422559
-3.996,0.2594980573562781,1.135930267043229
-3.9955,0.2168173579255475,1.125333628638062
-3.995,0.1954770082101822,1.104140351827727
-3.9945,0.1954770082101822,1.072350436612224
-3.994,0.1954770082101822,1.00877060618122
-3.9935,-0.124628237520297,0.55311515475902
-3.993,-0.7648387289812555,-0.3475991096802118
-3.9925,-1.212986073003927,-1.205926820498774
-3.992,-1.490410619303675,-1.640388995110639
-3.9915,-1.202315898146244,-1.290699927740113
-3.991,-0.4874141826815069,-0.6866915386455698
-3.9905,0.09944543449103843,-0.2204394488182027
-3.99,0.408880505363835,0.002089957690313421
-3.9895,0.5262524287983441,0.05507314971615059
-3.989,0.5475927785137094,0.1080563417419877
-3.9885,0.5155822539406614,0.1186529801471552
-3.988,0.6222840025174878,0.02328323450064829
-3.9875,0.6542945270905358,0.02328323450064829
-3.987,0.5689331282290746,0.04447651131098315
-3.9865,0.4622313796522482,0.07626642652648545
-3.986,0.3768699807907871,0.1186529801471552
-3.9855,0.3341892813600565,0.2140227257936621
-3.985,0.6116138276598051,0.7544512844572011
-3.9845,0.8890383739595538,1.104140351827727
-3.984,0.291508581929326,0.3729723018711736
-3.9835,-0.4874141826815069,-0.5277419625680583
-3.983,-0.6794773301197943,-0.7714646458869092
-3.9825,-0.4874141826815069,-0.4323722169215513
-3.982,-0.1993194615240755,0.05507314971615059
-3.9815,0.02475421048725994,0.4789386859228479
-3.981,0.1741366584948169,0.775644561267536
-3.9805,0.2381577076409128,0.9557874141553824
-3.98,0.2594980573562781,1.061753798207057
-3.9795,0.2594980573562781,1.093543713422559
-3.979,0.2488278824985954,1.104140351827727
-3.9785,0.2274875327832301,1.104140351827727
-3.978,0.2168173579255475,1.093543713422559
-3.9775,0.2061471830678648,1.051157159801889
-3.977,0.02475421048725994,0.8392243916985406
-3.9765,-0.6047861061160158,0.2776025562246667
-3.976,-1.1062843244271,-0.5913217929990628
-3.9755,-1.405049220442214,-1.322489842955616
-3.975,-1.330357996438436,-1.492036057438295
-3.9745,-0.7328282044082075,-1.025783967610927
-3.974,-0.08194753808956648,-0.4641621321370536
-3.9735,0.3341892813600565,-0.02969995752518888
-3.973,0.5262524287983441,0.1186529801471552
-3.9725,0.5689331282290746,0.1292496185523226
-3.972,0.5262524287983441,0.06566978812131802
-3.9715,0.5475927785137094,0.04447651131098315
-3.971,0.6009436528021226,0.06566978812131802
-3.9705,0.5369226036560266,0.05507314971615059
-3.97,0.4515612047945656,0.04447651131098315
-3.9695,0.3661998059331045,0.05507314971615059
-3.969,0.3021787567870086,0.09745970333682032
-3.9685,0.09944543449103843,0.1928294489833272
-3.968,-0.3166913849585846,-0.08268314955102604
-3.9675,-0.6261264558313813,-0.8138511995075789
-3.967,-0.8502001278427167,-1.407262950196955
-3.9665,-0.839529952985034,-1.460246142222792
-3.966,-0.5194247072545548,-0.8986243067489184
-3.9655,-0.1886492866663929,-0.1674562567923655
-3.965,0.05676473506030786,0.4365521323021782
-3.9645,0.1954770082101822,0.8180311148882058
-3.964,0.2594980573562781,1.019367244586387
-3.9635,0.2701682322139607,1.093543713422559
-3.963,0.2701682322139607,1.093543713422559
-3.9625,0.2488278824985954,1.061753798207057
-3.962,0.2274875327832301,1.00877060618122
-3.9615,0.2168173579255475,0.9451907757502149
-3.961,0.2168173579255475,0.8816109453192104
-3.9605,0.1954770082101822,0.8074344764830383
-3.96,-0.1459685872356623,0.4789386859228479
-3.9595,-0.7008176798351597,-0.3581957480853793
-3.959,-1.127624674142465,-1.174136905283272
-3.9585,-1.1062843244271,-1.258910012524611
-3.958,-0.6261264558313813,-0.8562377531282487
-3.9575,-0.06060718837420119,-0.400582301706049
-3.957,0.3128489316446912,-0.1144730647665284
-3.9565,0.4835717293676135,0.01268659609548085
-3.956,0.5582629533713921,0.002089957690313421
-3.9555,0.5369226036560266,-0.06148987274069118
-3.955,0.5155822539406614,-0.07208651114585861
-3.9545,0.5902734779444399,-0.008506680714854012
-3.954,0.5582629533713921,0.02328323450064829
-3.9535,0.4622313796522482,0.04447651131098315
-3.953,0.3768699807907871,0.08686306493165288
-3.9525,0.3021787567870086,0.13984625695749
-3.952,0.4515612047945656,0.3517790250608387
-3.9515,0.9637295979633325,0.9345941373450475
-3.951,0.5902734779444399,0.775644561267536
-3.9505,-0.2526703358124887,-0.1568596183871981
-3.95,-0.7968492535543035,-1.004590690800593
-3.9495,-0.722158029550525,-1.195330182093607
-3.949,-0.423393133535411,-0.7714646458869092
-3.9485,-0.1139580626626144,-0.1144730647665284
-3.948,0.09944543449103843,0.4683420475176805
-3.9475,0.2168173579255475,0.8710143069140429
-3.947,0.2594980573562781,1.104140351827727
-3.9465,0.2701682322139607,1.210106735879401
-3.946,0.2594980573562781,1.241896651094903
-3.9455,0.2381577076409128,1.241896651094903
-3.945,0.2168173579255475,1.220703374284568
-3.9445,0.2061471830678648,1.167720182258731
-3.944,0.1634664836371343,1.125333628638062
-3.9435,-0.3593720843893152,1.146526905448396
-3.943,-1.010252750707956,0.4683420475176805
-3.9425,-1.170305373573196,-0.5595318777835605
-3.942,-1.30901764672307,-1.142346990067769
-3.9415,-0.9462317015618604,-1.068170521231597
-3.941,-0.2206598112394408,-0.6866915386455698
-3.9405,0.3235191065023739,-0.3475991096802118
-3.94,0.5796033030867573,-0.08268314955102604
-3.9395,0.6329541773751706,0.05507314971615059
-3.939,0.5902734779444399,-0.01910331912002144
-3.9385,0.5155822539406614,-0.1038764263613609
-3.938,0.6009436528021226,0.05507314971615059
-3.9375,0.6009436528021226,0.1504428953626575
-3.937,0.4942419042252961,0.1186529801471552
-3.9365,0.3875401556484697,0.07626642652648545
-3.936,0.3128489316446912,0.06566978812131802
-3.9355,0.3235191065023739,0.13984625695749
-3.935,0.7716664505250448,0.6378882620003594
-3.9345,0.7183155762366316,0.775644561267536
-3.934,-0.03926683865883591,0.002089957690313421
-3.9335,-0.7861790786966207,-0.8350444763179138
-3.933,-0.8928808272734472,-1.131750351662602
-3.9325,-0.6154562809736985,-0.7608680074817418
-3.932,-0.2633405106701714,-0.1356663415768632
-3.9315,0.01408403562957729,0.4365521323021782
-3.931,0.1741366584948169,0.849821030103708
-3.9305,0.2488278824985954,1.082947075017392
-3.93,0.2701682322139607,1.199510097474233
-3.9295,0.2594980573562781,1.231300012689736
-3.929,0.2488278824985954,1.220703374284568
-3.9285,0.2274875327832301,1.188913459069066
-3.928,0.2168173579255475,1.135930267043229
-3.9275,0.2061471830678648,1.072350436612224
-3.927,0.00341386077189465,0.7544512844572011
-3.9265,-0.658136980404429,-0.1144730647665284
-3.926,-1.138294849000148,-1.05757388282643
-3.9255,-1.298347471865388,-1.746355379162313
-3.925,-1.074273799854052,-1.725162102351978
-3.9245,-0.4340633083930936,-1.131750351662602
-3.924,0.1207857842064037,-0.5171453241628908
-3.9235,0.3875401556484697,-0.07208651114585861
-3.923,0.4942419042252961,0.1292496185523226
-3.9225,0.5049120790829789,0.1504428953626575
-3.922,0.4835717293676135,0.08686306493165288
-3.9215,0.5475927785137094,-0.008506680714854012
-3.921,0.6542945270905358,-0.1038764263613609
-3.9205,0.6222840025174878,-0.1250697031716958
-3.92,0.5262524287983441,-0.09327978795619347
-3.9195,0.4302208550792003,-0.02969995752518888
-3.919,0.3555296310754218,0.06566978812131802
-3.9185,0.4835717293676135,0.5001319627331828
-3.918,0.8676980242441885,1.241896651094903
-3.9175,0.4515612047945656,1.263089927905238
-3.917,-0.4340633083930936,0.2987958330350016
-3.9165,-0.8502001278427167,-0.4323722169215513
-3.916,-0.7008176798351597,-0.4111789401112165
-3.9155,-0.3700422592469978,-0.05089323433552374
-3.915,-0.08194753808956648,0.3623756634660061
-3.9145,0.1207857842064037,0.6908714540261965
-3.914,0.2168173579255475,0.92399749893988
-3.9135,0.2594980573562781,1.072350436612224
-3.913,0.2594980573562781,1.146526905448396
-3.9125,0.2381577076409128,1.188913459069066
-3.912,0.2274875327832301,1.199510097474233
-3.9115,0.2061471830678648,1.188913459069066
-3.911,0.2061471830678648,1.146526905448396
-3.9105,0.1314559590640864,1.061753798207057
-3.91,-0.3487019095316325,0.4471487707073456
-3.9095,-0.7434983792658902,-0.4853554089473885
-3.909,-0.9675720512772257,-1.311893204550448
-3.9085,-0.9675720512772257,-1.746355379162313
-3.908,-0.4660738329661415,-1.396666311791788
-3.9075,0.07810508477567314,-0.7820612842920766
-3.907,0.3982103305061524,-0.3158091944647096
-3.9065,0.5262524287983441,-0.08268314955102604
-3.906,0.5475927785137094,-0.02969995752518888
-3.9055,0.5049120790829789,-0.05089323433552374
-3.905,0.4729015545099309,-0.1250697031716958
-3.9045,0.5796033030867573,-0.2628260024388724
-3.904,0.5475927785137094,-0.2204394488182027
-3.9035,0.4515612047945656,-0.1038764263613609
-3.903,0.3661998059331045,-0.008506680714854012
-3.9025,0.3128489316446912,0.07626642652648545
-3.902,0.4195506802215176,0.3199891098453364
-3.9015,0.7396559259519968,0.849821030103708
-3.901,0.1848068333524996,0.5001319627331828
-3.9005,-0.6794773301197943,-0.3687923864905467
-3.9,-1.362368521011484,-1.110557074852267
-3.8995,-1.298347471865388,-1.152943628472937
-3.899,-0.8288597781273515,-0.6443049850249
-3.8985,-0.3593720843893152,-0.06148987274069118
-3.898,-0.007256314085787988,0.4047622170866759
-3.8975,0.1848068333524996,0.701468092431364
-3.897,0.2594980573562781,0.849821030103708
-3.8965,0.2808384070716433,0.92399749893988
-3.896,0.2701682322139607,0.9451907757502149
-3.8955,0.2381577076409128,0.9345941373450475
-3.895,0.2168173579255475,0.92399749893988
-3.8945,0.1954770082101822,0.9028042221295453
-3.894,0.1634664836371343,0.8604176685088755
-3.8935,-0.2420001609548061,0.3623756634660061
-3.893,-0.8608703027003992,-0.5489352393783931
-3.8925,-1.095614149569417,-1.375473034981453
-3.892,-0.8822106524157645,-1.47084278062796
-3.8915,-0.4020527838200457,-0.8986243067489184
-3.891,0.07810508477567314,-0.3475991096802118
-3.8905,0.3982103305061524,0.01268659609548085
-3.89,0.5369226036560266,0.2034260873884947
-3.8895,0.5689331282290746,0.2246193641988295
-3.889,0.5369226036560266,0.1610395337678249
-3.8885,0.4835717293676135,0.04447651131098315
-3.888,0.6649647019482183,-0.1992461720078678
-3.8875,0.7183155762366316,-0.2628260024388724
-3.887,0.6009436528021226,-0.1250697031716958
-3.8865,0.4622313796522482,0.04447651131098315
