Class_2_Relax_eyes_open/Class_2_Relax_eyes_open_Basim_3.csv

#Digilent WaveForms Oscilloscope Acquisition
#Device Name: EExplorer
#Serial Number: SN:210151A2B84A
#Date Time: 2020-11-04 11:00:01.382
#Sample rate: 2000Hz
#Samples: 16384
#Trigger: Source: Channel 1 Type: Edge Condition: Rising Level: 0 V Hyst.: Auto HoldOff: 0 s
#Channel 1: Range: 1 V/div Offset: 0 V Attenuation: 1 X
#Channel 2: Range: 1 V/div Offset: 0 V Attenuation: 1 X
#Power Supplies: ON
#Fixed Supply: ON
#Voltage: 3.3 V Readback: 3.326 V
#Positive Supply: ON
#Voltage: 3.7 V Readback: 3.712 V
#Current: 500 mA Readback: 20 mA
#Negative Supply: ON
#Voltage: -3.7 V Readback: -3.705 V
#Current: -500 mA Readback: -8 mA
#Reference 1: ON
#Voltage: 0 V
#Reference 2: ON
#Voltage: 0 V

Time (s),Channel 1 (V),Channel 2 (V)
-4.096,0.2594980573562781,-1.820531847998485
-4.0955,0.4515612047943909,-1.227120097309649
-4.095,0.5155822539406419,-0.5807251545934713
-4.0945,0.4942419042252961,-0.1144730647665284
-4.094,0.4302208550792586,0.129249618552101
-4.0935,0.3768699807907483,0.203426087388485
-4.093,0.3341892813600565,0.1928294489833272
-4.0925,0.3235191065023836,0.1716361721730116
-4.092,0.4622313796522773,0.2776025562246667
-4.0915,0.4942419042252961,0.2776025562246667
-4.091,0.4408910299368829,0.2352160026039969
-4.0905,0.3661998059330268,0.2246193641988873
-4.09,0.2808384070716433,0.2881991946298341
-4.0895,-0.2206598112394408,0.627291623595192
-4.089,-1.074273799853276,0.2352160026043535
-4.0885,-1.693143941599645,-0.6231117082145651
-4.088,-2.247993034199143,-1.34368311976595
-4.0875,-2.429386006779582,-1.672178910325842
-4.087,-1.693143941598888,-1.131750351661821
-4.0865,-0.8608703027003992,-0.2734226408440398
-4.086,-0.2313299860976959,0.4789386859221637
-4.0855,0.1527963087796166,0.9769806909659582
-4.085,0.3341892813600565,1.241896651094903
-4.0845,0.3875401556484212,1.347863035146481
-4.084,0.376869980790758,1.34786303514651
-4.0835,0.3448594562177392,1.273686566310405
-4.083,0.3128489316446912,1.157123543853563
-4.0825,0.3021787567869989,1.008770606181066
-4.082,0.291508581929326,0.8392243916985406
-4.0815,0.408880505363835,0.383568940276341
-4.081,0.5155822539405643,-0.495952047351756
-4.0805,0.04609456020262521,-1.333086481360783
-4.08,-0.4020527838200457,-1.862918401619155
-4.0795,-0.03926683865916586,-2.043061254506837
-4.079,0.3982103305063368,-1.693372187135811
-4.0785,0.6009436528021226,-0.9622041371799229
-4.078,0.6116138276597954,-0.3899856633014021
-4.0775,0.5262524287982567,-0.06148987274056589
-4.077,0.4302208550792003,0.07626642652648545
-4.0765,0.3661998059331627,0.08686306493164325
-4.076,0.3128489316447398,0.06566978812144331
-4.0755,0.3661998059331045,0.2034260873884947
-4.075,0.4302208550792003,0.3305857482505039
-4.0745,0.4088805053637865,0.3305857482504942
-4.074,0.3555296310754218,0.3199891098453364
-4.0735,0.3021787567870086,0.3411823866556712
-4.073,0.05676473506053106,0.5849050699743006
-4.0725,-0.7008176798351597,0.5319218779486851
-4.072,-1.458400094730627,-0.2628260024388724
-4.0715,-2.01324918732962,-1.015187329205076
-4.071,-2.461396531352417,-1.523825972653633
-4.0705,-2.045259711903173,-1.34368311976595
-4.07,-1.191645723289338,-0.5701285161894315
-4.0695,-0.4554036581080222,0.2246193641993596
-4.069,0.02475421048725994,0.8074344764830383
-4.0685,0.2808384070716433,1.157123543853563
-4.068,0.3875401556484697,1.316073119931104
-4.0675,0.3875401556484697,1.347863035146577
-4.067,0.3661998059331045,1.305476481525908
-4.0665,0.3341892813600371,1.199510097474108
-4.066,0.3128489316446912,1.061753798207057
-4.0655,0.291508581929326,0.92399749893988
-4.065,0.3768699807907094,0.6166949851903041
-4.0645,0.6436243522328531,-0.1992461720078678
-4.064,0.408880505363835,-1.089363798041932
-4.0635,-0.3060212101002519,-1.767548655972031
-4.063,-0.4127229586773887,-2.096044446532568
-4.0625,-0.03926683865883591,-1.79933857118815
-4.062,0.2701682322136792,-1.07876715963742
-4.0615,0.4195506802215467,-0.4111789401108406
-4.061,0.4515612047945656,0.002089957690313421
-4.0605,0.4302208550792003,0.1822328105781598
-4.06,0.3875401556484309,0.2034260873884465
-4.0595,0.3448594562177392,0.1504428953626575
-4.059,0.3768699807907871,0.1716361721729923
-4.0585,0.4942419042251894,0.341182386655517
-4.058,0.4835717293676135,0.3517790250608387
-4.0575,0.4302208550792003,0.309392471440169
-4.057,0.3555296310754897,0.2776025562246956
-4.0565,0.2061471830678648,0.4153588554918433
-4.056,-0.4340633083930936,0.7120647308365314
-4.0555,-1.309017646722274,0.1186529801476949
-4.055,-1.949228138184534,-0.7396747306719947
-4.0545,-2.504077230783526,-1.38606967338662
-4.054,-2.30134390848774,-1.513229334248514
-4.0535,-1.415719395299179,-0.8562377531274969
-4.053,-0.6261264558313813,-0.02969995752518888
-4.0525,-0.06060718837420119,0.6378882620003594
-4.052,0.2488278824987118,1.051157159802082
-4.0515,0.3768699807907871,1.263089927905238
-4.051,0.408880505363835,1.347863035146577
-4.0505,0.3768699807908162,1.326669758336262
-4.05,0.3448594562177392,1.25249328950007
-4.0495,0.3128489316446912,1.125333628638062
-4.049,0.3021787567870183,0.9875773293710099
-4.0485,0.3128489316447689,0.7968378380773409
-4.048,0.3982103305061524,0.2140227257936621
-4.0475,0.2061471830680395,-0.6972881770499084
-4.047,-0.3273615598164613,-1.492036057438777
-4.0465,-0.5407650569699201,-2.021867977696666
-4.046,-0.1139580626630026,-2.043061254506982
-4.0455,0.2701682322141451,-1.36487639657564
-4.045,0.4729015545099309,-0.6549016234300674
-4.0445,0.5262524287983441,-0.1462629799820306
-4.044,0.483571729367565,0.0974597033368685
-4.0435,0.4302208550792003,0.1504428953626575
-4.043,0.3661998059331045,0.13984625695749
-4.0425,0.3555296310754315,0.1292496185523322
-4.042,0.4835717293676135,0.2881991946298341
-4.0415,0.5155822539406614,0.3305857482505039
-4.041,0.4622313796522967,0.2881991946298726
-4.0405,0.3768699807907192,0.2458126410092126
-4.04,0.3021787567870086,0.2987958330350016
-4.0395,-0.1779791118082735,0.6166949851897354
-4.039,-1.031593100423991,0.25640927941358
-4.0385,-1.767835165603424,-0.570128516188728
-4.038,-2.312014083344744,-1.195330182093038
-4.0375,-2.504077230782828,-1.523825972653383
-4.037,-1.735824641030376,-1.068170521231597
-4.0365,-0.8822106524157645,-0.252229364033705
-4.036,-0.2313299860967644,0.4789386859232912
-4.0355,0.1634664836371343,0.9663840525605498
-4.035,0.3555296310754218,1.241896651094903
-4.0345,0.4088805053637865,1.347863035146481
-4.034,0.3982103305061524,1.358459673551745
-4.0335,0.3555296310754218,1.29487984312074
-4.033,0.334189281360076,1.188913459069162
-4.0325,0.3128489316446912,1.02996388299141
-4.032,0.3128489316446912,0.8710143069140429
-4.0315,0.4302208550790936,0.4789386859232045
-4.031,0.9423892482478602,-0.3793890248964948
-4.0305,0.825017324813458,-1.237716735714276
-4.03,0.14212613392239,-1.778145294377324
-4.0295,0.280838407071915,-1.979481424075736
-4.029,0.5796033030867573,-1.693372187136476
-4.0285,0.6756348768059011,-1.078767159636765
-4.028,0.6542945270904484,-0.4747587705418741
-4.0275,0.5582629533713921,-0.09327978795619347
-4.027,0.4622313796522482,0.05507314971615059
-4.0265,0.3875401556485377,0.05507314971615059
-4.026,0.3341892813600565,0.02328323450064829
-4.0255,0.4302208550792003,0.1610395337678249
-4.025,0.5369226036559296,0.2987958330348763
-4.0245,0.5049120790829109,0.2564092794142933
-4.024,0.4302208550792003,0.2140227257936621
-4.0235,0.3448594562178168,0.2140227257936621
-4.023,0.0460945602019265,0.468342047517642
-4.0225,-0.722158029550525,0.4259554938970107
-4.022,-1.405049220441593,-0.3370024712743506
-4.0215,-1.863866739322771,-1.110557074852691
-4.021,-2.087940411333903,-1.576809164679634
-4.0205,-1.586442193022819,-1.227120097309109
-4.02,-0.8608703026998461,-0.3899856633001588
-4.0195,-0.2526703358124887,0.4047622170866759
-4.019,0.1314559590640864,0.9663840525605498
-4.0185,0.3235191065021992,1.294879843120441
-4.018,0.3875401556484697,1.443232780793084
-4.0175,0.3875401556484697,1.475022696008586
-4.017,0.3555296310754509,1.422039503982798
-4.0165,0.3235191065023642,1.316073119930931
-4.016,0.3128489316446912,1.157123543853563
-4.0155,0.3021787567870183,0.9875773293710389
-4.015,0.3448594562181079,0.7438546460513591
-4.0145,0.7503261008096795,0.002089957690313421
-4.014,0.8463576745287359,-0.909220945153257
-4.0135,0.206147183067826,-1.629792356705866
-4.013,0.1634664836371343,-2.064254531317336
-4.0125,0.5049120790829789,-2.043061254507001
-4.012,0.6756348768058914,-1.38606967338608
-4.0115,0.6649647019482183,-0.792657922697244
-4.011,0.5689331282290746,-0.3581957480853793
-4.0105,0.4622313796523452,-0.11447306476675
-4.01,0.3768699807907871,-0.01910331912002144
-4.0095,0.3235191065023739,0.002089957690313421
-4.009,0.3341892813600468,0.05507314971610239
-4.0085,0.4195506802215176,0.2140227257936813
-4.008,0.4195506802215176,0.2352160026039969
-4.0075,0.3768699807908259,0.2034260873885236
-4.007,0.3341892813599595,0.2034260873886103
-4.0065,0.2274875327832301,0.3305857482505039
-4.006,-0.3700422592469978,0.5955017083796896
-4.0055,-1.180975548431393,0.02328323449988692
-4.005,-1.746494815888059,-0.8138511995075789
-4.0045,-2.205312334768412,-1.417859588602123
-4.004,-2.109280761048579,-1.513229334248003
-4.0035,-1.351698346153801,-0.8244478379127463
-4.003,-0.6047861061160158,0.02328323450064829
-4.0025,-0.07127736323236911,0.6908714540255894
-4.002,0.2381577076409128,1.114736990232894
-4.0015,0.3661998059331045,1.326669758336243
-4.001,0.3982103305061233,1.400846227172347
-4.0005,0.376869980790758,1.379652950362012
-4,0.3448594562177392,1.305476481525908
-3.9995,0.3128489316446912,1.188913459069066
-3.999,0.3128489316446912,1.040560521396722
-3.9985,0.3128489316446912,0.8392243916985406
-3.998,0.6329541773751706,0.2352160026039969
-3.9975,1.166462920259302,-0.6972881770507372
-3.997,0.8890383739595538,-1.492036057438295
-3.9965,0.4729015545099309,-1.979481424075996
-3.996,0.6436243522328531,-2.117237723343173
-3.9955,0.7396559259519968,-1.619195718300304
-3.995,0.6969752265212663,-0.8986243067489184
-3.9945,0.5796033030867573,-0.3158091944647096
-3.994,0.4622313796522482,0.05507314971615059
-3.9935,0.3768699807907871,0.2246193641988295
-3.993,0.3235191065023739,0.2352160026039969
-3.9925,0.3128489316446912,0.1928294489833272
-3.992,0.4515612047945656,0.3411823866556712
-3.9915,0.4942419042252961,0.383568940276341
-3.991,0.4515612047945656,0.309392471440169
-3.9905,0.3875401556484697,0.2352160026039969
-3.99,0.3021787567870086,0.2458126410091644
-3.9895,-0.1352984123779797,0.5849050699745222
-3.989,-1.010252750707956,0.2564092794143318
-3.9885,-1.789175515318789,-0.5807251545938954
-3.988,-2.3973754822067,-1.311893204550448
-3.9875,-2.536087755356574,-1.661582271920973
-3.987,-1.703814116457328,-1.142346990067769
-3.9865,-0.8502001278427167,-0.3052125560595421
-3.986,-0.1993194615240755,0.4365521323021782
-3.9855,0.1741366584948169,0.92399749893988
-3.985,0.3555296310754218,1.188913459069066
-3.9845,0.3982103305061524,1.29487984312074
-3.984,0.3875401556484697,1.29487984312074
-3.9835,0.3555296310754218,1.231300012689736
-3.983,0.3235191065023739,1.114736990232894
-3.9825,0.3021787567870086,0.9663840525605498
-3.982,0.3021787567870086,0.8074344764830383
-3.9815,0.3982103305061524,0.457745409112513
-3.981,0.9103787236749192,-0.3581957480853793
-3.9805,0.8463576745288233,-1.205926820498774
-3.98,0.08877525963335578,-1.778145294377815
-3.9795,0.1101156093487211,-1.979481424075996
-3.979,0.3768699807907871,-1.598002441489969
-3.9785,0.5049120790829789,-0.9198175835592532
-3.978,0.5049120790829789,-0.3687923864905467
-3.9775,0.4515612047945656,-0.008506680714854012
-3.977,0.3982103305061524,0.1716361721729923
-3.9765,0.3555296310754218,0.2246193641988295
-3.976,0.3235191065023739,0.2034260873884947
-3.9755,0.3555296310754218,0.2987958330350016
-3.975,0.3982103305061524,0.4153588554918433
-3.9745,0.3875401556484697,0.3941655786815084
-3.974,0.3448594562177392,0.3411823866556712
-3.9735,0.3128489316446912,0.309392471440169
-3.973,0.07810508477567314,0.4895353243280153
-3.9725,-0.690147504977477,0.4471487707073456
-3.972,-1.46907026958831,-0.3158091944647096
-3.9715,-1.917217613610981,-1.036380606016095
-3.971,-2.290673733629873,-1.51322933424863
-3.9705,-1.949228138184029,-1.364876396576285
-3.97,-1.159635198715513,-0.6125150698093976
-3.9695,-0.4447334832507763,0.1716361721729923
-3.969,0.02475421048725994,0.7332580076468663
-3.9685,0.2808384070716433,1.072350436612224
-3.968,0.3875401556484697,1.231300012689736
-3.9675,0.3982103305061524,1.263089927905238
-3.967,0.3661998059331045,1.231300012689736
-3.9665,0.3341892813600565,1.135930267043229
-3.966,0.3128489316446912,1.00877060618122
-3.9655,0.3021787567870086,0.8816109453192104
-3.965,0.3341892813600565,0.6484849004055269
-3.9645,0.6542945270905358,-0.08268314955102604
-3.964,0.7609962756673623,-0.9728007755850904
-3.9635,0.04609456020262521,-1.672178910326141
-3.963,-0.1779791118087102,-2.096044446532838
-3.9625,0.1314559590640864,-1.873515040024322
-3.962,0.3768699807907871,-1.142346990067769
-3.9615,0.4942419042252961,-0.5277419625680583
-3.961,0.5155822539406614,-0.08268314955102604
-3.9605,0.4942419042252961,0.1292496185523226
-3.96,0.4302208550792003,0.1610395337678249
-3.9595,0.3768699807907871,0.1080563417419877
-3.959,0.3661998059331045,0.07626642652648545
-3.9585,0.4622313796522482,0.13984625695749
-3.958,0.4622313796522482,0.13984625695749
-3.9575,0.408880505363835,0.1292496185523226
-3.957,0.3555296310754218,0.1610395337678249
-3.9565,0.2381577076409128,0.3305857482505039
-3.956,-0.3700422592469978,0.6378882620003594
-3.9555,-1.223656247861609,0.07626642652648545
-3.955,-1.725154466172693,-0.7078848154559045
-3.9545,-2.098610586191586,-1.216523458903942
-3.954,-2.098610586191586,-1.354279758171118
-3.9535,-1.405049220442214,-0.7290780922662394
-3.953,-0.658136980404429,0.08686306493165288
-3.9525,-0.1032878878049318,0.7544512844572011
-3.952,0.2168173579255475,1.188913459069066
-3.9515,0.3555296310754218,1.411442865577582
-3.951,0.3982103305061524,1.485619334413754
-3.9505,0.3768699807907871,1.475022696008586
-3.95,0.3448594562177392,1.390249588767247
-3.9495,0.3235191065023739,1.241896651094903
-3.949,0.3021787567870086,1.061753798207057
-3.9485,0.3128489316446912,0.8604176685088755
-3.948,0.5475927785137094,0.2564092794143318
-3.9475,0.6222840025174878,-0.6760949002404023
-3.947,0.01408403562957729,-1.481439419033127
-3.9465,-0.391382608962363,-1.88411167842949
-3.946,0.03542438534494258,-1.979481424075996
-3.9455,0.4408910299368829,-1.523825972653797
-3.945,0.6009436528021226,-0.8562377531282487
-3.9445,0.5902734779444399,-0.3475991096802118
-3.944,0.5155822539406614,-0.04029659593035631
-3.9435,0.4302208550792003,0.06566978812131802
-3.943,0.3661998059331045,0.05507314971615059
-3.9425,0.3341892813600565,0.02328323450064829
-3.942,0.4515612047945656,0.1928294489833272
-3.9415,0.5049120790829789,0.2670059178194992
-3.941,0.4515612047945656,0.2352160026039969
-3.9405,0.3875401556484697,0.2034260873884947
-3.94,0.3235191065023739,0.2352160026039969
-3.9395,-0.02859666380115328,0.55311515475902
-3.939,-0.8502001278427167,0.3305857482505039
-3.9385,-1.618452717595867,-0.4959520473525559
-3.938,-2.258663209056825,-1.248313374119443
-3.9375,-2.621449154218035,-1.661582271920973
-3.937,-1.917217613610981,-1.237716735714276
-3.9365,-1.020922925565639,-0.3687923864905467
-3.936,-0.3166913849585846,0.4259554938970107
-3.9355,0.1207857842064037,0.9769806909657173
-3.935,0.3341892813600565,1.284283204715573
-3.9345,0.408880505363835,1.411442865577582
-3.934,0.3982103305061524,1.432636142387917
-3.9335,0.3661998059331045,1.369056311956912
-3.933,0.3341892813600565,1.25249328950007
-3.9325,0.3128489316446912,1.104140351827727
-3.932,0.3021787567870086,0.9345941373450475
-3.9315,0.4195506802215176,0.5319218779486851
-3.931,0.7716664505250448,-0.3581957480853793
-3.9305,0.5475927785137094,-1.227120097309109
-3.93,-0.1459685872356623,-1.831128486403653
-3.9295,-0.156638762093345,-2.021867977696666
-3.929,0.1634664836371343,-1.650985633515806
-3.9285,0.3768699807907871,-1.036380606016095
-3.928,0.4622313796522482,-0.5065486857577234
-3.9275,0.4622313796522482,-0.1356663415768632
-3.927,0.4195506802215176,0.03387987290581572
-3.9265,0.3768699807907871,0.08686306493165288
-3.926,0.3448594562177392,0.07626642652648545
-3.9255,0.3982103305061524,0.1504428953626575
-3.925,0.4729015545099309,0.2881991946298341
-3.9245,0.4515612047945656,0.2670059178194992
-3.924,0.3982103305061524,0.2246193641988295
-3.9235,0.3341892813600565,0.2246193641988295
-3.923,0.1314559590640864,0.4789386859228479
-3.9225,-0.6367966306890638,0.6060983467848571
-3.922,-1.479740444445993,-0.1144730647665284
-3.9215,-2.119950935906951,-0.9622041371799229
-3.921,-2.60010880450267,-1.555615887869299
-3.9205,-2.045259711903173,-1.38606967338662
-3.92,-1.148965023857831,-0.6019184314042303
-3.9195,-0.4127229586777283,0.2034260873884947
-3.919,0.0674349099179905,0.7968378380778709
-3.9185,0.3128489316446912,1.146526905448396
-3.918,0.3982103305061524,1.305476481525908
-3.9175,0.408880505363835,1.347863035146577
-3.917,0.3768699807907871,1.316073119931075
-3.9165,0.3448594562177392,1.210106735879401
-3.916,0.3235191065023739,1.082947075017392
-3.9155,0.3128489316446912,0.9451907757502149
-3.915,0.3448594562177392,0.701468092431364
-3.9145,0.6009436528021226,-0.01910331912002144
-3.914,0.6756348768059011,-0.9198175835592532
-3.9135,-0.06060718837420119,-1.629792356705471
-3.913,-0.3060212101009019,-1.937094870455327
-3.9125,0.04609456020262521,-1.820531847998485
-3.912,0.3341892813600565,-1.258910012524611
-3.9115,0.4515612047945656,-0.6231117082145651
-3.911,0.4729015545099309,-0.1356663415768632
-3.9105,0.4408910299368829,0.13984625695749
-3.91,0.3982103305061524,0.2564092794143318
-3.9095,0.3555296310754218,0.2352160026039969
-3.909,0.3768699807907871,0.2140227257936621
-3.9085,0.5689331282290746,0.383568940276341
-3.908,0.5902734779444399,0.3729723018711736
-3.9075,0.5155822539406614,0.2881991946298341
-3.907,0.4195506802215176,0.2246193641988295
-3.9065,0.2381577076409128,0.3411823866556712
-3.906,-0.4127229586777283,0.6802748156210291
-3.9055,-1.223656247861609,0.1504428953626575
-3.905,-1.810515865034154,-0.6866915386455698
-3.9045,-2.280003558772191,-1.269506650929778
-3.904,-2.461396531352796,-1.545019249464132
-3.9035,-1.693143941599645,-1.036380606016095
-3.903,-0.8608703027003992,-0.2098428104130352
-3.9025,-0.2099896363817582,0.5107286011383502
-3.902,0.1741366584948169,0.9875773293708847
-3.9015,0.3555296310754218,1.241896651094903
-3.901,0.408880505363835,1.33726639674141
-3.9005,0.3982103305061524,1.33726639674141
-3.9,0.3661998059331045,1.25249328950007
-3.8995,0.3341892813600565,1.114736990232894
-3.899,0.3235191065023739,0.9557874141553824
-3.8985,0.3235191065023739,0.7862411996727035
-3.898,0.5475927785137094,0.2670059178194992
-3.8975,1.081101521397841,-0.6337083466197325
-3.897,0.8676980242441885,-1.42845622700729
-3.8965,0.3341892813600565,-1.820531847998485
-3.896,0.3448594562177392,-1.650985633515806
-3.8955,0.4729015545099309,-1.089363798041932
-3.895,0.5155822539406614,-0.6019184314042303
-3.8945,0.5049120790829789,-0.2204394488182027
-3.894,0.4515612047945656,0.02328323450064829
-3.8935,0.3982103305061524,0.1186529801471552
-3.893,0.3555296310754218,0.13984625695749
-3.8925,0.3235191065023739,0.13984625695749
-3.892,0.4515612047945656,0.3199891098453364
-3.8915,0.5155822539406614,0.4153588554918433
-3.891,0.4729015545099309,0.383568940276341
-3.8905,0.3982103305061524,0.3411823866556712
-3.89,0.3235191065023739,0.3305857482505039
-3.8895,-0.04993701351651855,0.5849050699745222
-3.889,-0.807519428411986,0.383568940276341
-3.8885,-1.415719395299897,-0.4323722169215513
-3.888,-1.863866739322568,-1.184733543688439
-3.8875,-2.151961460479999,-1.608599079895136
-3.887,-1.639793067311232,-1.216523458903942
-3.8865,-0.8822106524157645,-0.400582301706049
-3.886,-0.2633405106701714,0.3517790250608387
-3.8855,0.1314559590640864,0.8710143069140429
-3.885,0.3341892813600565,1.157123543853563
