Class_2_Relax_eyes_open/Class_2_Relax_eyes_open_Basim_9.csv

#Digilent WaveForms Oscilloscope Acquisition
#Device Name: EExplorer
#Serial Number: SN:210151A2B84A
#Date Time: 2021-01-24 16:21:01.027
#Sample rate: 2000Hz
#Samples: 16384
#Trigger: Source: Channel 1 Type: Edge Condition: Rising Level: 0 V Hyst.: Auto HoldOff: 0 s
#Channel 1: Range: 1 V/div Offset: 0 V Attenuation: 1 X
#Channel 2: Range: 1 V/div Offset: 0 V Attenuation: 1 X
#Power Supplies: ON
#Fixed Supply: ON
#Voltage: 3.3 V Readback: 3.331 V
#Positive Supply: ON
#Voltage: 3.7 V Readback: 3.717 V
#Current: 40 mA Readback: 16 mA
#Negative Supply: ON
#Voltage: -3.7 V Readback: -3.334 V
#Current: -40 mA Readback: -15 mA
#Reference 1: ON
#Voltage: 0 V
#Reference 2: ON
#Voltage: 0 V

Time (s),Channel 1 (V),Channel 2 (V)
-4.096,0.3875401556484697,-1.036380606016095
-4.0955,0.1207857842066463,-1.566212526273985
-4.095,0.3341892813602798,-1.555615887868798
-4.0945,0.5796033030867573,-1.004590690800593
-4.094,0.6863050516634868,-0.4641621321375451
-4.0935,0.6649647019481115,-0.06148987274046951
-4.093,0.5475927785137094,0.1822328105781598
-4.0925,0.4195506802216341,0.2670059178194221
-4.092,0.3128489316447495,0.2564092794144378
-4.0915,0.3768699807907871,0.3729723018711736
-4.091,0.4302208550792003,0.4365521323021782
-4.0905,0.3768699807907289,0.362375663465929
-4.09,0.3128489316446912,0.2776025562246667
-4.0895,0.2488278824985954,0.2246193641988295
-4.089,0.2168173579255766,0.2352160026039873
-4.0885,0.3448594562177392,0.4895353243280153
-4.088,0.6329541773751706,0.6696781772158616
-4.0875,0.2381577076412718,0.08686306493218288
-4.087,-0.5300948821125478,-0.6654982618354276
-4.0865,-0.8715404775580819,-0.8774310299385835
-4.086,-0.690147504977642,-0.4959520473529029
-4.0855,-0.3700422592467455,0.01268659609586636
-4.085,-0.09261771294724913,0.4365521323021782
-4.0845,0.09944543449086374,0.7120647308362809
-4.084,0.1954770082102113,0.8710143069141104
-4.0835,0.2274875327832301,0.9451907757502149
-4.083,0.2274875327832301,0.9663840525605498
-4.0825,0.2168173579255378,0.9451907757501764
-4.082,0.2061471830678648,0.9028042221295453
-4.0815,0.2061471830678648,0.8604176685088755
-4.081,0.2061471830678648,0.7968378380779287
-4.0805,0.2061471830678648,0.6590815388106942
-4.08,0.2274875327832301,0.06566978812131802
-4.0795,-0.04993701351626625,-0.7078848154552009
-4.079,-0.6367966306889182,-1.269506650929489
-4.0785,-0.4767440078238243,-0.9516074987747555
-4.078,-0.007256314086214966,-0.4959520473529703
-4.0775,0.3768699807909715,-0.1674562567922113
-4.077,0.5796033030867573,0.002089957690313421
-4.0765,0.6009436528021032,0.02328323450062901
-4.076,0.5262524287982471,-0.05089323433557193
-4.0755,0.4195506802215176,-0.1038764263613609
-4.075,0.3875401556484697,-0.05089323433552374
-4.0745,0.4729015545098921,0.03387987290585427
-4.074,0.4302208550792003,0.07626642652648545
-4.0735,0.3448594562177392,0.1186529801471552
-4.073,0.2701682322140286,0.1716361721729442
-4.0725,0.2061471830678648,0.2458126410091644
-4.072,-0.02859666380115328,0.2034260873884947
-4.0715,-0.6581369804038566,-0.1674562567920282
-4.071,-1.287677297008006,-0.6760949002408264
-4.0705,-1.618452717595867,-1.142346990067769
-4.07,-1.650463242168886,-1.227120097309032
-4.0695,-1.127624674141951,-0.6654982618346085
-4.069,-0.5621054066852853,0.02328323450064829
-4.0685,-0.1352984123779797,0.5637117931641874
-4.068,0.1101156093488278,0.8922075837245224
-4.0675,0.2274875327832301,1.051157159801889
-4.067,0.2594980573562781,1.093543713422559
-4.0665,0.2594980573562586,1.061753798206999
-4.066,0.2381577076409128,0.9981739677760521
-4.0655,0.2168173579255475,0.9028042221295453
-4.065,0.2061471830678746,0.8074344764831251
-4.0645,0.2061471830678648,0.6908714540261965
-4.064,0.2061471830678648,0.5637117931641874
-4.0635,-0.1246282375199962,0.06566978812177099
-4.063,-0.7648387289817504,-0.676094900240971
-4.0625,-1.30901764672307,-1.301296566145281
-4.062,-1.138294849000303,-1.237716735714334
-4.0615,-0.4340633083925502,-0.6760949002400457
-4.061,0.1634664836371343,-0.2840192792492073
-4.0605,0.5262524287983441,-0.06148987274069118
-4.06,0.6436243522328142,0.02328323450066756
-4.0595,0.6009436528021226,0.04447651131098315
-4.059,0.4942419042252961,0.04447651131098315
-4.0585,0.4088805053639126,0.03387987290582536
-4.058,0.5155822539406614,0.2352160026039969
-4.0575,0.5049120790829789,0.2881991946298341
-4.057,0.4088805053639224,0.2458126410092029
-4.0565,0.3128489316446912,0.1928294489833272
-4.056,0.2381577076409128,0.1928294489833272
-4.0555,0.09944543449116458,0.2246193641988006
-4.055,-0.4554036581091091,0.01268659609495079
-4.0545,-1.170305373573196,-0.570128516188728
-4.054,-1.650463242168478,-1.078767159636302
-4.0535,-1.789175515318352,-1.301296566144876
-4.053,-1.30901764672307,-0.8562377531282487
-4.0525,-0.7114878546928423,-0.1674562567923655
-4.052,-0.2313299860968517,0.4259554938973673
-4.0515,0.0674349099179905,0.8180311148882058
-4.051,0.2168173579255475,1.029963882991555
-4.0505,0.2701682322139122,1.104140351827659
-4.05,0.2701682322139607,1.114736990232894
-4.0495,0.2488278824985954,1.061753798207057
-4.049,0.2274875327832495,0.9875773293709522
-4.0485,0.2061471830678648,0.8922075837242814
-4.048,0.2061471830678648,0.7862411996727035
-4.0475,0.2168173579255378,0.6908714540262832
-4.047,0.1207857842060058,0.4365521323015614
-4.0465,-0.3166913849585846,-0.2416327256285375
-4.046,-0.9035510021305961,-0.9410108603689521
-4.0455,-1.330357996438232,-1.481439419033031
-4.045,-1.1062843244271,-1.375473034981453
-4.0445,-0.4980843575391895,-0.792657922697244
-4.044,0.05676473506062811,-0.3052125560592723
-4.0435,0.408880505363835,-0.008506680714854012
-4.043,0.5262524287983441,0.07626642652648545
-4.0425,0.5049120790829983,0.04447651131101207
-4.042,0.4195506802215176,0.002089957690313421
-4.0415,0.4302208550792003,0.09745970333682032
-4.041,0.4195506802215274,0.1504428953626093
-4.0405,0.3555296310753636,0.1292496185522937
-4.04,0.291508581929326,0.09745970333682032
-4.0395,0.2381577076409613,0.09745970333682032
-4.039,0.1954770082099105,0.1292496185524479
-4.0385,-0.1032878878049318,0.2670059178194992
-4.038,-0.6154562809732327,0.01268659609571215
-4.0375,-1.191645723288852,-0.6125150698098699
-4.037,-1.51175096901904,-1.131750351662602
-4.0365,-1.330357996438436,-1.036380606016095
-4.036,-0.8181896032692321,-0.4747587705416814
-4.0355,-0.3380317346739499,0.1186529801471552
-4.035,-0.007256314085787988,0.55311515475902
-4.0345,0.1741366584946519,0.8180311148879649
-4.034,0.2488278824985954,0.9557874141553824
-4.0335,0.2701682322139607,0.9981739677760521
-4.033,0.2488278824986148,0.9875773293708944
-4.0325,0.2274875327832204,0.9451907757501571
-4.032,0.2168173579255475,0.8816109453192104
-4.0315,0.2061471830678746,0.8180311148882636
-4.031,0.2168173579255766,0.7332580076466639
-4.0305,0.2488278824985954,0.5107286011383502
-4.03,0.4729015545097271,-0.1568596183865909
-4.0295,0.3341892813595519,-0.8880276683442906
-4.029,-0.2206598112394408,-1.481439419033127
-4.0285,-0.4980843575391895,-1.502632695843462
-4.028,-0.2099896363814379,-0.9304142219639581
-4.0275,0.142126133921769,-0.4217755785163839
-4.027,0.3875401556484697,-0.07208651114585861
-4.0265,0.4622313796521803,0.08686306493150832
-4.026,0.4302208550792003,0.09745970333682032
-4.0255,0.3768699807907871,0.08686306493165288
-4.025,0.38754015564846,0.1504428953625996
-4.0245,0.5049120790829498,0.3517790250608387
-4.024,0.4729015545099309,0.3517790250608387
-4.0235,0.3875401556485474,0.2776025562247341
-4.023,0.2915085819292678,0.2140227257936428
-4.0225,0.2274875327832301,0.1928294489833272
-4.022,-0.007256314085574506,0.2458126410091162
-4.0215,-0.4554036581090606,0.1080563417414577
-4.021,-1.116954499284783,-0.474758770542221
-4.0205,-1.799845690176472,-1.089363798041932
-4.02,-1.95989831304111,-1.280103289334483
-4.0195,-1.298347471865388,-0.7714646458869092
-4.019,-0.6474668055467465,-0.1250697031716958
-4.0185,-0.1673089369514643,0.3835689402758784
-4.018,0.1207857842064037,0.7120647308365314
-4.0175,0.2488278824985954,0.8816109453192104
-4.017,0.2808384070716142,0.9451907757501571
-4.0165,0.2701682322139413,0.9451907757501764
-4.016,0.2488278824985954,0.9028042221295453
-4.0155,0.2274875327832495,0.8392243916985984
-4.015,0.2168173579255378,0.7756445612674782
-4.0145,0.2061471830678648,0.7120647308365314
-4.014,0.2274875327832107,0.6060983467849534
-4.0135,0.08877525963302582,0.1504428953619925
-4.013,-0.274010685527854,-0.5807251545938954
-4.0125,-0.7114878546928423,-1.216523458903942
-4.012,-0.7008176798347328,-1.39666631179146
-4.0115,-0.2313299860971235,-1.036380606016095
-4.011,0.2381577076409128,-0.6231117082145651
-4.0105,0.5262524287980821,-0.2522293640340423
-4.01,0.6116138276598051,-0.008506680714854012
-4.0095,0.5689331282290746,0.13984625695749
-4.009,0.4835717293676911,0.1716361721729634
-4.0085,0.38754015564846,0.1292496185523226
-4.008,0.3768699807907871,0.1292496185523226
-4.0075,0.3448594562177683,0.1398462569574804
-4.007,0.2915085819292872,0.1504428953626767
-4.0065,0.2488278824985954,0.1716361721729923
-4.006,0.2168173579255475,0.2140227257936621
-4.0055,0.1101156093482358,0.2881991946296896
-4.005,-0.423393133535411,0.1292496185523226
-4.0045,-1.1062843244271,-0.4535654937318862
-4.004,-1.682473766742312,-1.046977244421551
-4.0035,-2.066600061618538,-1.364876396576285
-4.003,-1.533091318734406,-0.9833974139902578
-4.0025,-0.8395299529856648,-0.3264058328704745
-4.002,-0.2953510352432193,0.2564092794143318
-4.0015,0.05676473506030786,0.6484849004055269
-4.001,0.2274875327830748,0.8498210301035249
-4.0005,0.2808384070716433,0.9345941373450475
-4,0.2808384070716433,0.9345941373450475
-3.9995,0.2594980573562781,0.8922075837243778
-3.999,0.2381577076409128,0.8286277532933731
-3.9985,0.2168173579255475,0.7544512844572011
-3.998,0.2168173579255475,0.6802748156210291
-3.9975,0.2168173579255475,0.5955017083796896
-3.997,0.08877525963335578,0.2670059178194992
-3.9965,-0.5194247072545548,-0.4429688553267188
-3.996,-1.223656247861609,-1.121153713257435
-3.9955,-1.746494815888059,-1.672178910326141
-3.995,-1.341028171296118,-1.778145294377815
-3.9945,-0.5407650569699201,-1.110557074852267
-3.994,0.08877525963335578,-0.4853554089473885
-3.9935,0.408880505363835,-0.1356663415768632
-3.993,0.5049120790829789,0.06566978812131802
-3.9925,0.4942419042252961,0.1822328105781598
-3.992,0.4195506802215176,0.1822328105781598
-3.9915,0.3982103305061524,0.1928294489833272
-3.991,0.3768699807907871,0.2034260873884947
-3.9905,0.3235191065023739,0.1610395337678249
-3.99,0.2701682322139607,0.1186529801471552
-3.9895,0.2381577076409128,0.09745970333682032
-3.989,0.1954770082101822,0.09745970333682032
-3.9885,-0.1779791118087102,-0.09327978795619347
-3.988,-0.7328282044082075,-0.6019184314042303
-3.9875,-1.052933450138687,-1.121153713257435
-3.987,-1.383708870726849,-1.587405803084801
-3.9865,-1.341028171296118,-1.449649503817625
-3.986,-0.8715404775580819,-0.7502713690765743
-3.9855,-0.391382608962363,-0.09327978795619347
-3.985,-0.03926683865883591,0.383568940276341
-3.9845,0.1634664836371343,0.6696781772158616
-3.984,0.2488278824985954,0.8180311148882058
-3.9835,0.2701682322139607,0.8604176685088755
-3.983,0.2594980573562781,0.8604176685088755
-3.9825,0.2488278824985954,0.8286277532933731
-3.982,0.2274875327832301,0.775644561267536
-3.9815,0.2274875327832301,0.7226613692416989
-3.981,0.2274875327832301,0.6590815388106942
-3.9805,0.1954770082101822,0.5107286011383502
-3.98,-0.274010685527854,-0.09327978795619347
-3.9795,-0.9675720512772257,-0.8244478379127463
-3.979,-1.415719395299897,-1.34368311976595
-3.9785,-1.020922925565639,-0.9622041371799229
-3.978,-0.3166913849585846,-0.4535654937318862
-3.9775,0.2274875327832301,-0.1038764263613609
-3.977,0.5262524287983441,0.09745970333682032
-3.9765,0.6116138276598051,0.1610395337678249
-3.976,0.5582629533713921,0.1504428953626575
-3.9755,0.4408910299368829,0.1504428953626575
-3.975,0.3661998059331045,0.1504428953626575
-3.9745,0.3341892813600565,0.2034260873884947
-3.974,0.291508581929326,0.2034260873884947
-3.9735,0.2594980573562781,0.2140227257936621
-3.973,0.2274875327832301,0.2458126410091644
-3.9725,0.2168173579255475,0.2881991946298341
-3.972,0.07810508477567314,0.2987958330350016
-3.9715,-0.4660738329661415,-0.06148987274069118
-3.971,-1.159635198715513,-0.6866915386455698
-3.9705,-1.51175096901904,-1.152943628472937
-3.97,-1.51175096901904,-1.227120097309109
-3.9695,-1.031593100423322,-0.6866915386455698
-3.969,-0.4980843575391895,-0.04029659593035631
-3.9685,-0.09261771294724913,0.4683420475176805
-3.968,0.142126133921769,0.775644561267536
-3.9675,0.2488278824985954,0.92399749893988
-3.967,0.2808384070716433,0.9663840525605498
-3.9665,0.2808384070716433,0.9345941373450475
-3.966,0.2594980573562781,0.8710143069140429
-3.9655,0.2381577076409128,0.7968378380778709
-3.965,0.2274875327832301,0.7120647308365314
-3.9645,0.2274875327832301,0.6166949851900245
-3.964,0.2488278824985954,0.5107286011383502
-3.9635,0.5582629533713921,0.06566978812131802
-3.963,1.081101521397841,-0.6549016234300674
-3.9625,0.8143471499557753,-1.258910012524611
-3.962,0.5049120790829789,-1.587405803084801
-3.9615,0.5155822539406614,-1.258910012524611
-3.961,0.5796033030867573,-0.6972881770507372
-3.9605,0.5902734779444399,-0.2098428104130352
-3.96,0.5796033030867573,0.07626642652648545
-3.9595,0.5155822539406614,0.2034260873884947
-3.959,0.4195506802215176,0.1928294489833272
-3.9585,0.3341892813600565,0.1716361721729923
-3.958,0.2808384070716433,0.2670059178194992
-3.9575,0.2488278824985954,0.2776025562246667
-3.957,0.2274875327832301,0.2352160026039969
-3.9565,0.2168173579255475,0.1928294489833272
-3.956,0.2061471830678648,0.1822328105781598
-3.9555,0.1634664836371343,0.2140227257936621
-3.955,-0.2633405106701714,0.08686306493165288
-3.9545,-0.9035510021311299,-0.4429688553267188
-3.954,-1.522421143876723,-1.05757388282643
-3.9535,-1.959898313041711,-1.449649503817625
-3.953,-1.522421143876723,-1.089363798041932
-3.9525,-0.8608703027003992,-0.4217755785163839
-3.952,-0.3166913849585846,0.1822328105781598
-3.9515,0.03542438534494258,0.5955017083796896
-3.951,0.2168173579255475,0.8180311148882058
-3.9505,0.2808384070716433,0.9134008605347127
-3.95,0.291508581929326,0.92399749893988
-3.9495,0.2701682322139607,0.8922075837243778
-3.949,0.2381577076409128,0.8392243916985406
-3.9485,0.2274875327832301,0.7650479228623686
-3.948,0.2274875327832301,0.6908714540261965
-3.9475,0.2274875327832301,0.6060983467848571
-3.947,0.4302208550792003,0.2776025562246667
-3.9465,0.9210488985326017,-0.4217755785163839
-3.946,0.7289857510943143,-1.089363798041932
-3.9455,0.1741366584948169,-1.47084278062796
-3.945,0.2701682322139607,-1.407262950196955
-3.9445,0.4835717293676135,-0.8244478379127463
-3.944,0.5902734779444399,-0.3370024712750445
-3.9435,0.6009436528021226,-0.01910331912002144
-3.943,0.5262524287983441,0.1504428953626575
-3.9425,0.4302208550792003,0.1610395337678249
-3.942,0.3341892813600565,0.1292496185523226
-3.9415,0.3875401556484697,-0.02969995752518888
-3.941,0.4515612047945656,-0.1038764263613609
-3.9405,0.408880505363835,-0.008506680714854012
-3.94,0.3341892813600565,0.1292496185523226
-3.9395,0.2701682322139607,0.2458126410091644
-3.939,0.2168173579255475,0.3305857482505039
-3.9385,-0.1139580626626144,0.2246193641988295
-3.938,-0.7434983792658902,-0.3370024712750445
-3.9375,-1.341028171296118,-0.9728007755850904
-3.937,-1.618452717595867,-1.38606967338662
-3.9365,-1.362368521011484,-1.174136905283272
-3.936,-0.8181896032696687,-0.5489352393783931
-3.9355,-0.3166913849585846,0.03387987290581572
-3.935,0.01408403562957729,0.4365521323021782
-3.9345,0.1954770082101822,0.6590815388106942
-3.934,0.2594980573562781,0.7438546460520338
-3.9335,0.2701682322139607,0.7544512844572011
-3.933,0.2594980573562781,0.7120647308365314
-3.9325,0.2381577076409128,0.6590815388106942
-3.932,0.2168173579255475,0.5955017083796896
-3.9315,0.2168173579255475,0.5319218779486851
-3.931,0.2168173579255475,0.4683420475176805
-3.9305,0.2701682322139607,0.3517790250608387
-3.93,0.6116138276598051,-0.1462629799820306
-3.9295,0.5155822539406614,-0.8138511995075789
-3.929,-0.156638762093345,-1.375473034981453
-3.9285,-0.5514352318276028,-1.682775548731308
-3.928,-0.2846808603855366,-1.163540266878104
-3.9275,0.1207857842064037,-0.5171453241628908
-3.927,0.408880505363835,-0.05089323433552374
-3.9265,0.5049120790829789,0.2246193641988295
-3.926,0.4835717293676135,0.3199891098453364
-3.9255,0.408880505363835,0.309392471440169
-3.925,0.3875401556484697,0.3199891098453364
-3.9245,0.4408910299368829,0.3941655786815084
-3.924,0.3982103305061524,0.3623756634660061
-3.9235,0.3235191065023739,0.2987958330350016
-3.923,0.2701682322139607,0.2670059178194992
-3.9225,0.2168173579255475,0.2564092794143318
-3.922,-0.06060718837420119,0.1080563417419877
-3.9215,-0.7434983792658902,-0.4641621321370536
-3.921,-1.362368521011484,-1.068170521231597
-3.9205,-1.778505340461106,-1.523825972653797
-3.92,-1.778505340461106,-1.492036057438295
-3.9195,-1.159635198715513,-0.8138511995075789
-3.919,-0.5621054066852853,-0.1144730647665284
-3.9185,-0.1139580626626144,0.4047622170866759
-3.918,0.142126133921769,0.7226613692416989
-3.9175,0.2488278824985954,0.8604176685088755
-3.917,0.2808384070716433,0.8922075837243778
-3.9165,0.2701682322139607,0.8604176685088755
-3.916,0.2488278824985954,0.8074344764830383
-3.9155,0.2274875327832301,0.7332580076468663
-3.915,0.2168173579255475,0.6590815388106942
-3.9145,0.2168173579255475,0.5743084315693548
-3.914,0.2381577076409128,0.4683420475176805
-3.9135,0.1954770082101822,-0.01910331912002144
-3.913,-0.1139580626626144,-0.7396747306714069
-3.9125,-0.7755089038389382,-1.354279758171118
-3.912,-0.8608703027003992,-1.248313374119443
-3.9115,-0.274010685527854,-0.7078848154559045
-3.911,0.2594980573562781,-0.3158091944647096
-3.9105,0.5475927785137094,-0.09327978795619347
-3.91,0.6222840025174878,-0.008506680714854012
-3.9095,0.5582629533713921,0.04447651131098315
-3.909,0.4515612047945656,0.05507314971615059
-3.9085,0.3768699807907871,0.07626642652648545
-3.908,0.4622313796522482,0.2670059178194992
-3.9075,0.4622313796522482,0.3199891098453364
-3.907,0.3875401556484697,0.309392471440169
-3.9065,0.3128489316446912,0.2881991946298341
-3.906,0.2488278824985954,0.2987958330350016
-3.9055,0.1101156093487211,0.3517790250608387
-3.905,-0.423393133535411,0.1716361721729923
-3.9045,-0.8608703027003992,-0.3899856633008816
-3.904,-1.116954499284783,-0.9304142219644207
-3.9035,-1.255666772434657,-1.195330182093607
-3.903,-0.9995825758502737,-0.8244478379127463
-3.9025,-0.5514352318276028,-0.1886495336027004
-3.902,-0.1673089369510276,0.3623756634660061
-3.9015,0.07810508477567314,0.7226613692416989
-3.901,0.2061471830678648,0.92399749893988
-3.9005,0.2594980573562781,0.9875773293708847
-3.9,0.2594980573562781,0.9769806909657173
-3.8995,0.2381577076409128,0.92399749893988
-3.899,0.2274875327832301,0.849821030103708
-3.8985,0.2168173579255475,0.7650479228623686
-3.898,0.2061471830678648,0.6696781772158616
-3.8975,0.2168173579255475,0.5849050699745222
-3.897,0.2274875327832301,0.2776025562246667
-3.8965,0.2488278824985954,-0.4111789401112165
-3.896,-0.1993194615240755,-1.089363798041932
-3.8955,-0.5514352318276028,-1.629792356705471
-3.895,-0.2206598112394408,-1.661582271920973
-3.8945,0.2168173579255475,-1.01518732920576
-3.894,0.5049120790829789,-0.400582301706049
-3.8935,0.6009436528021226,0.02328323450064829
-3.893,0.5582629533713921,0.2140227257936621
-3.8925,0.4622313796522482,0.2458126410091644
-3.892,0.3768699807907871,0.1822328105781598
-3.8915,0.3768699807907871,0.2670059178194992
-3.891,0.3982103305061524,0.3411823866556712
-3.8905,0.3555296310754218,0.2670059178194992
-3.89,0.291508581929326,0.1822328105781598
-3.8895,0.2488278824985954,0.1292496185523226
-3.889,0.2061471830678648,0.1292496185523226
-3.8885,-0.1673089369510276,-0.1144730647665284
-3.888,-0.807519428411986,-0.6972881770507372
-3.8875,-1.116954499284783,-1.184733543688439
-3.887,-1.426389570157579,-1.555615887869299
