Class_2_Relax_eyes_open/Class_2_Relax_eyes_open_Suko_11.csv

#Digilent WaveForms Oscilloscope Acquisition
#Device Name: EExplorer
#Serial Number: SN:210151A2B84A
#Date Time: 2021-02-04 11:05:22.415
#Sample rate: 2000Hz
#Samples: 16384
#Trigger: Source: Channel 1 Type: Edge Condition: Rising Level: 0 V Hyst.: Auto HoldOff: 0 s
#Channel 1: Range: 1 V/div Offset: 0 V Attenuation: 1 X
#Channel 2: Range: 1 V/div Offset: 0 V Attenuation: 1 X
#Power Supplies: ON
#Fixed Supply: ON
#Voltage: 3.3 V Readback: 3.328 V
#Positive Supply: ON
#Voltage: 3.7 V Readback: 3.713 V
#Current: 40 mA Readback: 21 mA
#Negative Supply: ON
#Voltage: -3.7 V Readback: -3.35 V
#Current: -40 mA Readback: -9 mA
#Reference 1: ON
#Voltage: 0 V
#Reference 2: ON
#Voltage: 0 V

Time (s),Channel 1 (V),Channel 2 (V)
-4.096,0.09944543449103843,-0.1780528951975329
-4.0955,0.1314559590640572,-0.1886495336026907
-4.095,0.1207857842063843,-0.1886495336026811
-4.0945,0.09944543449103843,-0.1674562567923655
-4.094,0.07810508477569256,-0.1144730647665765
-4.0935,0.0674349099179905,-0.05089323433544665
-4.093,0.0674349099179905,0.03387987290581572
-4.0925,0.04609456020264462,0.09745970333676249
-4.092,-0.2420001609549711,-0.135666341577162
-4.0915,-0.423393133535411,-0.4641621321370536
-4.091,-0.4127229586777283,-0.6125150698093976
-4.0905,-0.1993194615237262,-0.6443049850248806
-4.09,0.1848068333524996,-0.6231117082145651
-4.0895,0.4942419042252961,-0.5065486857577234
-4.089,0.6116138276596983,-0.2310360872236207
-4.0885,0.5689331282290746,0.1610395337678249
-4.088,0.4408910299368829,0.5743084315693548
-4.0875,0.3128489316448077,0.8286277532931419
-4.087,0.280838407071721,0.839224391698396
-4.0865,0.3661998059331045,0.6802748156210291
-4.086,0.3341892813600856,0.6378882620003979
-4.0855,0.2594980573562101,0.6272916235951534
-4.085,0.1848068333524996,0.5849050699745222
-4.0845,0.1421261339218078,0.5107286011384177
-4.084,0.131455959063902,0.4895353243283334
-4.0835,-0.07127736323188383,0.8392243916985406
-4.083,-0.7114878546928423,0.6378882620003594
-4.0825,-1.212986073004412,-0.1356663415768536
-4.082,-1.746494815888059,-0.1250697031716958
-4.0815,-1.906547438753298,0.3941655786815084
-4.081,-1.362368521011978,0.4259554938969818
-4.0805,-0.7648387289812555,0.1928294489833272
-4.08,-0.2953510352432193,-0.06148987274069118
-4.0795,-0.007256314086049986,-0.2416327256283737
-4.079,0.1207857842064425,-0.3264058328698867
-4.0785,0.1634664836371343,-0.3370024712750445
-4.078,0.1527963087794613,-0.2840192792492555
-4.0775,0.1101156093486823,-0.1992461720077714
-4.077,0.0674349099179905,-0.09327978795619347
-4.0765,0.04609456020264462,0.02328323450054227
-4.076,0.04609456020252817,0.1504428953625707
-4.0755,-0.06060718837420119,0.05507314971615059
-4.075,-0.4980843575391895,-0.4959520473525559
-4.0745,-0.9142211769887543,-1.015187329205972
-4.074,-0.8502001278427167,-1.248313374119443
-4.0735,-0.3380317346739499,-1.205926820498774
-4.073,0.1848068333520241,-0.9304142219646713
-4.0725,0.4942419042252961,-0.5065486857577234
-4.072,0.5796033030867573,0.002089957690313421
-4.0715,0.5155822539407195,0.5213252395430453
-4.071,0.3982103305060747,0.849821030103814
-4.0705,0.3128489316446912,0.9663840525605498
-4.07,0.4408910299367665,0.7438546460522362
-4.0695,0.4408910299367956,0.6166949851899957
-4.069,0.3448594562177392,0.5849050699745222
-4.0685,0.2488278824985954,0.5319218779486851
-4.068,0.1741366584948266,0.4471487707072974
-4.0675,0.1848068333524996,0.3941655786815084
-4.067,0.3341892813600565,0.775644561267536
-4.0665,-0.1459685872362737,1.252493289499675
-4.066,-0.8181896032696687,0.8180311148882058
-4.0655,-1.479740444445993,0.13984625695749
-4.065,-1.842526389606872,0.3093924714400147
-4.0645,-1.447729919872945,0.3623756634660061
-4.064,-0.8608703027003992,0.1822328105781598
-4.0635,-0.3700422592474442,-0.02969995752499613
-4.063,-0.06060718837404592,-0.1886495336027678
-4.0625,0.1101156093487211,-0.2628260024388724
-4.062,0.1634664836370858,-0.2734226408440302
-4.0615,0.1634664836371052,-0.2310360872233123
-4.061,0.1314559590640864,-0.1674562567923655
-4.0605,0.1101156093487211,-0.07208651114585861
-4.06,0.09944543449102873,0.03387987290591209
-4.0595,0.08877525963335578,0.13984625695749
-4.059,0.02475421048725994,0.1610395337678249
-4.0585,-0.2740106855275823,-0.156859618386909
-4.058,-0.5834457564006506,-0.6125150698093976
-4.0575,-0.722158029550525,-1.01518732920576
-4.057,-0.09261771294782173,-1.333086481360494
-4.0565,0.5796033030867573,-1.407262950196955
-4.056,0.8997085488172365,-1.163540266878104
-4.0555,0.9317190733902554,-0.6972881770511612
-4.055,0.771666450524841,-0.0508932343350515
-4.0545,0.5475927785137094,0.4683420475176805
-4.054,0.3555296310755965,0.7544512844569409
-4.0535,0.3661998059331045,0.7014680924312869
-4.053,0.3661998059331045,0.6166949851900245
-4.0525,0.3021787567870086,0.5955017083796896
-4.052,0.2381577076408836,0.5637117931641392
-4.0515,0.2061471830678648,0.5107286011383502
-4.051,0.1741366584948169,0.383568940276341
-4.0505,0.06743490991808755,-0.09327978795575975
-4.05,-0.4127229586777283,-0.8350444763179138
-4.0495,-0.7648387289812555,-1.396666311791788
-4.049,-1.255666772434211,-1.375473034981472
-4.0485,-1.789175515318711,-0.3793890248949913
-4.048,-1.703814116457328,0.4153588554918433
-4.0475,-1.138294849000662,0.47893868592279
-4.047,-0.5834457564002817,0.2458126410089042
-4.0465,-0.1779791118087102,-0.04029659593035631
-4.046,0.04609456020242142,-0.2416327256283544
-4.0455,0.1527963087794613,-0.3475991096802311
-4.045,0.1634664836371343,-0.3687923864905467
-4.0445,0.1527963087794516,-0.3370024712750445
-4.044,0.1207857842063746,-0.2522293640336182
-4.0435,0.08877525963335578,-0.1568596183871981
-4.043,0.07810508477567314,-0.02969995752518888
-4.0425,0.05676473506032727,0.06566978812123128
-4.042,-0.1032878878049318,-0.2098428104130352
-4.0415,-0.5300948821122373,-0.7608680074817418
-4.041,-1.063603624995884,-1.280103289334473
-4.0405,-0.8928808272728747,-1.545019249464016
-4.04,-0.2633405106701714,-1.417859588602123
-4.0395,0.2594980573558026,-0.9622041371803374
-4.039,0.5262524287983926,-0.4323722169210309
-4.0385,0.5796033030867573,0.13984625695749
-4.038,0.4942419042253737,0.6166949851895909
-4.0375,0.3768699807907483,0.8922075837244453
-4.037,0.3341892813600565,0.9663840525605498
-4.0365,0.3448594562177392,0.9345941373450475
-4.036,0.2915085819292678,0.8816109453191333
-4.0355,0.2274875327832301,0.7968378380778709
-4.035,0.1848068333524996,0.6802748156210291
-4.0345,0.1527963087794807,0.5425185163539779
-4.034,0.04609456020262521,0.4047622170866759
-4.0335,-0.5407650569699201,0.06566978812131802
-4.033,-1.074273799853567,-0.6443049850242544
-4.0325,-1.405049220442622,-1.046977244420655
-4.032,-1.853196564464885,-0.3793890248957141
-4.0315,-1.959898313041614,0.4683420475169094
-4.031,-1.383708870726276,0.5955017083794294
-4.0305,-0.754168554123573,0.309392471440169
-4.03,-0.2740106855282907,-0.04029659593003831
-4.0295,0.01408403562969375,-0.3052125560596674
-4.029,0.142126133921769,-0.4429688553267188
-4.0285,0.1848068333524996,-0.4853554089473885
-4.028,0.1741366584947975,-0.4429688553266417
-4.0275,0.1527963087794516,-0.3581957480853793
-4.027,0.1314559590640864,-0.2310360872233701
-4.0265,0.1101156093487405,-0.09327978795631875
-4.026,0.08877525963335578,0.04447651131098315
-4.0255,-0.1993194615240755,-0.1038764263613609
-4.025,-0.5621054066849553,-0.5595318777831462
-4.0245,-0.7008176798349559,-0.8350444763181065
-4.024,-0.4767440078238243,-1.046977244421262
-4.0235,0.334189281359319,-1.227120097308945
-4.023,0.8463576745289494,-1.078767159636399
-4.0225,0.9850699476786977,-0.6760949002404023
-4.022,0.8890383739596411,-0.1780528951979859
-4.0215,0.68630505166338,0.3517790250612338
-4.021,0.4622313796522482,0.7862411996727035
-4.0205,0.3235191065023739,0.9981739677760521
-4.02,0.3341892813600275,0.9557874141553342
-4.0195,0.3021787567870086,0.9028042221295453
-4.019,0.2488278824985954,0.8392243916985406
-4.0185,0.2168173579255766,0.7438546460521205
-4.018,0.1954770082101822,0.6166949851900245
-4.0175,0.1527963087794516,0.5001319627331828
-4.017,-0.007256314085642424,0.6802748156208652
-4.0165,-0.6154562809741935,0.3835689402756086
-4.016,-1.159635198715513,-0.4217755785163839
-4.0155,-1.383708870726645,-0.7926579226969066
-4.015,-1.095614149569,-0.6337083466195687
-4.0145,-0.6367966306890638,-0.4535654937318862
-4.014,-0.2526703358128381,-0.3264058328699927
-4.0135,-0.007256314085671534,-0.2840192792491976
-4.013,0.1207857842064037,-0.2734226408440398
-4.0125,0.1634664836371343,-0.2946159176543747
-4.012,0.1634664836371149,-0.3158091944647096
-4.0115,0.142126133921769,-0.3158091944647096
-4.011,0.1207857842064037,-0.2946159176543747
-4.0105,0.1101156093487308,-0.2628260024389013
-4.01,0.09944543449103843,-0.1992461720078678
-4.0095,0.09944543449103843,-0.1144730647665284
-4.009,-0.04993701351638269,-0.1886495336026329
-4.0085,-0.4554036581086336,-0.6019184314045772
-4.008,-0.6474668055467465,-0.9833974139902578
-4.0075,-0.6581369804044194,-1.269506650929518
-4.007,-0.1779791118082347,-1.481439419033012
-4.0065,0.3448594562177392,-1.354279758171118
-4.006,0.6542945270905358,-0.9516074987747555
-4.0055,0.7289857510942269,-0.4217755785158635
-4.005,0.6329541773751706,0.1504428953626575
-4.0045,0.4835717293676135,0.6060983467848571
-4.004,0.3448594562178168,0.8922075837243008
-4.0035,0.4302208550792003,0.8074344764830383
-4.003,0.4515612047945656,0.7120647308365314
-4.0025,0.376869980790855,0.7014680924313736
-4.002,0.2701682322139607,0.6908714540261965
-4.0015,0.1954770082101822,0.6484849004055269
-4.001,0.1634664836371634,0.5637117931642646
-4.0005,0.227487532782871,0.7014680924314315
-4,-0.1673089369510276,0.775644561267536
-3.9995,-0.7755089038389382,0.06566978812131802
-3.999,-0.9889124009925911,-0.5171453241628908
-3.9985,-0.7648387289812555,-0.5913217929990628
-3.998,-0.423393133535411,-0.474758770542221
-3.9975,-0.1459685872356623,-0.3370024712750445
-3.997,0.03542438534494258,-0.2416327256285375
-3.9965,0.1207857842064037,-0.1992461720078678
-3.996,0.1527963087794516,-0.1886495336027004
-3.9955,0.1527963087794516,-0.1886495336027004
-3.995,0.1314559590640864,-0.1886495336027004
-3.9945,0.1207857842064037,-0.1674562567923655
-3.994,0.09944543449103843,-0.1462629799820306
-3.9935,0.08877525963335578,-0.09327978795619347
-3.993,0.07810508477567314,-0.02969995752518888
-3.9925,0.03542438534494258,-0.008506680714854012
-3.992,-0.3807124341046804,-0.3687923864905467
-3.9915,-0.6047861061160158,-0.7502713690765743
-3.991,-0.7755089038389382,-1.152943628472937
-3.9905,-0.5194247072545548,-1.51322933424863
-3.99,0.04609456020262521,-1.51322933424863
-3.9895,0.4622313796522482,-1.131750351662602
-3.989,0.6649647019482183,-0.6231117082145651
-3.9885,0.6542945270905358,0.02328323450064829
-3.988,0.5262524287983441,0.5637117931641874
-3.9875,0.3875401556484697,0.8710143069140429
-3.987,0.3235191065023739,0.9028042221295453
-3.9865,0.3128489316446912,0.8074344764830383
-3.986,0.2594980573562781,0.7650479228623686
-3.9855,0.2061471830678648,0.7120647308365314
-3.985,0.1741366584948169,0.6484849004055269
-3.9845,0.1527963087794516,0.55311515475902
-3.984,0.1954770082101822,0.5319218779486851
-3.9835,-0.1139580626626144,0.7120647308365314
-3.983,-0.7861790786966207,0.1610395337678249
-3.9825,-1.351698346153801,-0.6443049850249
-3.982,-1.639793067311232,-0.6231117082145651
-3.9815,-1.287677297007705,-0.3052125560595421
-3.981,-0.754168554123573,-0.1356663415768632
-3.9805,-0.3060212101009019,-0.09327978795619347
-3.98,-0.01792648894347063,-0.1038764263613609
-3.9795,0.1207857842064037,-0.1250697031716958
-3.979,0.1741366584948169,-0.1462629799820306
-3.9785,0.1741366584948169,-0.1568596183871981
-3.978,0.1527963087794516,-0.1462629799820306
-3.9775,0.1207857842064037,-0.1144730647665284
-3.977,0.09944543449103843,-0.06148987274069118
-3.9765,0.08877525963335578,0.002089957690313421
-3.976,0.08877525963335578,0.07626642652648545
-3.9755,-0.1779791118087102,-0.1038764263613609
-3.975,-0.5834457564006506,-0.6337083466197325
-3.9745,-0.9782422261349084,-1.205926820498774
-3.974,-0.7328282044082075,-1.661582271920973
-3.9735,0.2274875327832301,-1.905304955239825
-3.973,0.8463576745288233,-1.640388995110639
-3.9725,1.038420821967111,-1.089363798041932
-3.972,0.942389248247967,-0.4535654937318862
-3.9715,0.7183155762366316,0.13984625695749
-3.971,0.4942419042252961,0.5849050699745222
-3.9705,0.3768699807907871,0.8922075837243778
-3.97,0.4302208550792003,1.051157159801889
-3.9695,0.3768699807907871,0.9663840525605498
-3.969,0.291508581929326,0.775644561267536
-3.9685,0.2168173579255475,0.5743084315693548
-3.968,0.1741366584948169,0.4047622170866759
-3.9675,0.142126133921769,0.3305857482505039
-3.967,-0.1886492866663929,0.6590815388106942
-3.9665,-0.754168554123573,0.5319218779486851
-3.966,-1.148965023857831,-0.2416327256285375
-3.9655,-1.618452717595867,-0.3899856633008816
-3.965,-1.981238662757077,0.2670059178194992
-3.9645,-1.554431668449771,0.55311515475902
-3.964,-0.9248913518464952,0.4259554938970107
-3.9635,-0.391382608962363,0.2034260873884947
-3.963,-0.04993701351651855,0.02328323450064829
-3.9625,0.1207857842064037,-0.07208651114585861
-3.962,0.1848068333524996,-0.08268314955102604
-3.9615,0.1848068333524996,-0.05089323433552374
-3.961,0.1634664836371343,0.02328323450064829
-3.9605,0.1207857842064037,0.1080563417419877
-3.96,0.09944543449103843,0.2034260873884947
-3.9595,0.08877525963335578,0.2987958330350016
-3.959,-0.007256314085787988,0.2352160026039969
-3.9585,-0.2953510352432193,-0.1674562567923655
-3.958,-0.4447334832507763,-0.474758770542221
-3.9575,-0.391382608962363,-0.718481453861072
-3.957,0.01408403562957729,-0.9304142219644207
-3.9565,0.3982103305061524,-0.8880276683437509
-3.956,0.5902734779444399,-0.5913217929990628
-3.9555,0.6222840025174878,-0.1992461720078678
-3.955,0.5262524287983441,0.2352160026039969
-3.9545,0.3982103305061524,0.5955017083796896
-3.954,0.3021787567870086,0.7968378380778709
-3.9535,0.3661998059331045,0.7226613692416989
-3.953,0.3555296310754218,0.6378882620003594
-3.9525,0.291508581929326,0.5637117931641874
-3.952,0.2274875327832301,0.4789386859228479
-3.9515,0.1848068333524996,0.3729723018711736
-3.951,0.1634664836371343,0.2776025562246667
-3.9505,-0.1032878878049318,0.13984625695749
-3.95,-0.6261264558313813,-0.4535654937318862
-3.9495,-0.9675720512772257,-1.110557074852267
-3.949,-1.362368521011484,-1.375473034981453
-3.9485,-1.554431668449771,-0.6760949002404023
-3.948,-1.180975548430879,-0.1568596183871981
-3.9475,-0.6688071552621118,0.002089957690313421
-3.947,-0.2526703358124887,-0.008506680714854012
-3.9465,0.01408403562957729,-0.08268314955102604
-3.946,0.142126133921769,-0.1462629799820306
-3.9455,0.1848068333524996,-0.1886495336027004
-3.945,0.1741366584948169,-0.1886495336027004
-3.9445,0.1527963087794516,-0.1568596183871981
-3.944,0.1314559590640864,-0.1038764263613609
-3.9435,0.1101156093487211,-0.02969995752518888
-3.943,0.1101156093487211,0.05507314971615059
-3.9425,0.0674349099179905,0.08686306493165288
-3.942,-0.2526703358124887,-0.252229364033705
-3.9415,-0.4447334832507763,-0.5489352393783931
-3.941,-0.5087545323968721,-0.8774310299385835
-3.9405,0.1101156093487211,-1.269506650929778
-3.94,0.7823366253827275,-1.47084278062796
-3.9395,1.059761171682476,-1.311893204550448
-3.939,1.038420821967111,-0.8880276683437509
-3.9385,0.8356874996711408,-0.2204394488182027
-3.938,0.5796033030867573,0.383568940276341
-3.9375,0.3768699807907871,0.7544512844572011
-3.937,0.3768699807907871,0.9028042221295453
-3.9365,0.3982103305061524,0.9028042221295453
-3.936,0.3448594562177392,0.849821030103708
-3.9355,0.2594980573562781,0.7544512844572011
-3.935,0.1954770082101822,0.627291623595192
-3.9345,0.1527963087794516,0.5107286011383502
-3.934,0.1527963087794516,0.5637117931641874
-3.9335,-0.2313299860971235,0.9345941373450475
-3.933,-1.020922925565639,0.6696781772158616
-3.9325,-1.714484291315011,-0.05089323433552374
-3.932,-1.757164990745741,-0.1250697031716958
-3.9315,-1.202315898146244,-0.1038764263613609
-3.931,-0.6261264558313813,-0.1038764263613609
-3.9305,-0.1993194615240755,-0.1144730647665284
-3.93,0.05676473506030786,-0.1356663415768632
-3.9295,0.1634664836371343,-0.1462629799820306
-3.929,0.1954770082101822,-0.1356663415768632
-3.9285,0.1848068333524996,-0.1144730647665284
-3.928,0.1634664836371343,-0.08268314955102604
-3.9275,0.1314559590640864,-0.04029659593035631
-3.927,0.1101156093487211,0.02328323450064829
-3.9265,0.09944543449103843,0.08686306493165288
-3.926,0.0674349099179905,0.1292496185523226
-3.9255,-0.2206598112394408,-0.1886495336027004
-3.925,-0.4340633083930936,-0.570128516188728
-3.9245,-0.4447334832507763,-0.8032545611024114
-3.924,-0.2953510352432193,-1.036380606016095
-3.9235,0.1207857842064037,-1.046977244421262
-3.923,0.4515612047945656,-0.792657922697244
-3.9225,0.6222840025174878,-0.3899856633008816
-3.922,0.6009436528021226,0.09745970333682032
-3.9215,0.4942419042252961,0.5425185163538525
-3.921,0.3768699807907871,0.8180311148882058
-3.9205,0.3661998059331045,0.9769806909657173
-3.92,0.4515612047945656,1.061753798207057
-3.9195,0.408880505363835,0.9345941373450475
-3.919,0.3128489316446912,0.7120647308365314
-3.9185,0.2381577076409128,0.5001319627331828
-3.918,0.1954770082101822,0.3199891098453364
-3.9175,0.0674349099179905,0.1186529801471552
-3.917,-0.5087545323968721,-0.2946159176543747
-3.9165,-1.191645723288561,-0.9410108603695881
-3.916,-1.575772018165136,-1.51322933424863
-3.9155,-1.970568487899394,-1.184733543688439
-3.915,-1.714484291315011,-0.3581957480853793
-3.9145,-1.074273799854052,0.02328323450064829
-3.914,-0.5087545323968721,0.1080563417419877
-3.9135,-0.1139580626626144,0.06566978812131802
-3.913,0.09944543449103843,0.002089957690313421
-3.9125,0.1848068333524996,-0.05089323433552374
-3.912,0.2061471830678648,-0.06148987274069118
-3.9115,0.1848068333524996,-0.05089323433552374
-3.911,0.1527963087794516,0.002089957690313421
-3.9105,0.1101156093487211,0.05507314971615059
-3.91,0.08877525963335578,0.1186529801471552
-3.9095,0.08877525963335578,0.1928294489833272
-3.909,-0.007256314085787988,0.07626642652648545
-3.9085,-0.274010685527854,-0.326405832869877
-3.908,-0.4980843575391895,-0.7608680074817418
-3.9075,-0.4340633083930936,-1.205926820498774
-3.907,0.4408910299368829,-1.566212526274467
-3.9065,1.113112045970889,-1.640388995110639
-3.906,1.294505018551494,-1.364876396576285
-3.9055,1.15579274540162,-0.8986243067489184
-3.905,0.857027849386506,-0.2628260024388724
-3.9045,0.5582629533713921,0.2881991946298341
-3.904,0.3661998059331045,0.6696781772158616
-3.9035,0.408880505363835,0.9769806909657173
-3.903,0.3768699807907871,1.019367244586387
-3.9025,0.3021787567870086,0.8816109453192104
-3.902,0.2274875327832301,0.701468092431364
-3.9015,0.1848068333524996,0.5319218779486851
-3.901,0.1527963087794516,0.3941655786815084
-3.9005,0.01408403562957729,0.6484849004055269
-3.9,-0.5834457564006506,0.8816109453192104
-3.8995,-1.095614149569417,0.2564092794143318
-3.899,-1.06360362499637,-0.252229364033705
-3.8985,-0.7114878546928423,-0.3581957480853793
-3.898,-0.3380317346739499,-0.2946159176543747
-3.8975,-0.07127736323188383,-0.1992461720078678
-3.897,0.08877525963335578,-0.1144730647665284
-3.8965,0.1527963087794516,-0.05089323433552374
-3.896,0.1741366584948169,-0.01910331912002144
-3.8955,0.1634664836371343,0.01268659609548085
-3.895,0.142126133921769,0.03387987290581572
-3.8945,0.1207857842064037,0.07626642652648545
-3.894,0.1101156093487211,0.1080563417419877
-3.8935,0.1101156093487211,0.1610395337678249
-3.893,0.1101156093487211,0.2140227257936621
-3.8925,0.05676473506030786,0.1928294489833272
-3.892,-0.1886492866663929,-0.1674562567923655
-3.8915,-0.4660738329661415,-0.6231117082145651
-3.891,-0.5941159312583333,-0.9728007755850904
-3.8905,-0.1459685872356623,-1.258910012524611
-3.89,0.3555296310754218,-1.34368311976595
-3.8895,0.6542945270905358,-1.184733543688439
-3.889,0.7396559259519968,-0.8032545611024114
-3.8885,0.6436243522328531,-0.2734226408440398
-3.888,0.4835717293676135,0.2246193641988295
